{
  "tracks" : {
    "href" : "https://api.spotify.com/v1/search?query=For+the+Beauty+of+the+Earth&type=track&market=US&offset=5&limit=10",
    "items" : [ {
      "album" : {
        "album_type" : "album",
        "artists" : [ {
          "external_urls" : {
            "spotify" : "https://open.spotify.com/artist/44FVyueHCLAMyJPnvCqqwM"
          },
          "href" : "https://api.spotify.com/v1/artists/44FVyueHCLAMyJPnvCqqwM",
          "id" : "44FVyueHCLAMyJPnvCqqwM",
          "name" : "The Lower Lights",
          "type" : "artist",
          "uri" : "spotify:artist:44FVyueHCLAMyJPnvCqqwM"
        } ],
        "external_urls" : {
          "spotify" : "https://open.spotify.com/album/6ILgwUXyeBGpu2lhztluNX"
        },
        "href" : "https://api.spotify.com/v1/albums/6ILgwUXyeBGpu2lhztluNX",
        "id" : "6ILgwUXyeBGpu2lhztluNX",
        "images" : [ {
          "height" : 640,
          "url" : "https://i.scdn.co/image/ab67616d0000b2737977c0165578d0d5c1981fc3",
          "width" : 640
        }, {
          "height" : 300,
          "url" : "https://i.scdn.co/image/ab67616d00001e027977c0165578d0d5c1981fc3",
          "width" : 300
        }, {
          "height" : 64,
          "url" : "https://i.scdn.co/image/ab67616d000048517977c0165578d0d5c1981fc3",
          "width" : 64
        } ],
        "name" : "A Hymn Revival",
        "release_date" : "2010-01-01",
        "release_date_precision" : "day",
        "total_tracks" : 15,
        "type" : "album",
        "uri" : "spotify:album:6ILgwUXyeBGpu2lhztluNX"
      },
      "artists" : [ {
        "external_urls" : {
          "spotify" : "https://open.spotify.com/artist/44FVyueHCLAMyJPnvCqqwM"
        },
        "href" : "https://api.spotify.com/v1/artists/44FVyueHCLAMyJPnvCqqwM",
        "id" : "44FVyueHCLAMyJPnvCqqwM",
        "name" : "The Lower Lights",
        "type" : "artist",
        "uri" : "spotify:artist:44FVyueHCLAMyJPnvCqqwM"
      } ],
      "disc_number" : 1,
      "duration_ms" : 208120,
      "explicit" : false,
      "external_ids" : {
        "isrc" : "USULT1000012"
      },
      "external_urls" : {
        "spotify" : "https://open.spotify.com/track/7LBbgWuEg6vTCl1RBJsfe7"
      },
      "href" : "https://api.spotify.com/v1/tracks/7LBbgWuEg6vTCl1RBJsfe7",
      "id" : "7LBbgWuEg6vTCl1RBJsfe7",
      "is_local" : false,
      "is_playable" : true,
      "name" : "For the Beauty of the Earth",
      "popularity" : 29,
      "preview_url" : "https://p.scdn.co/mp3-preview/ea5c2c3210291fb05b65c66744a64b7343dae58e?cid=774b29d4f13844c495f206cafdad9c86",
      "track_number" : 12,
      "type" : "track",
      "uri" : "spotify:track:7LBbgWuEg6vTCl1RBJsfe7"
    }, {
      "album" : {
        "album_type" : "album",
        "artists" : [ {
          "external_urls" : {
            "spotify" : "https://open.spotify.com/artist/63cOTTgz0xL3mMibwp4448"
          },
          "href" : "https://api.spotify.com/v1/artists/63cOTTgz0xL3mMibwp4448",
          "id" : "63cOTTgz0xL3mMibwp4448",
          "name" : "Andrew Laparra",
          "type" : "artist",
          "uri" : "spotify:artist:63cOTTgz0xL3mMibwp4448"
        } ],
        "external_urls" : {
          "spotify" : "https://open.spotify.com/album/42O6KWJB5zZVdiofnKAzBK"
        },
        "href" : "https://api.spotify.com/v1/albums/42O6KWJB5zZVdiofnKAzBK",
        "id" : "42O6KWJB5zZVdiofnKAzBK",
        "images" : [ {
          "height" : 640,
          "url" : "https://i.scdn.co/image/ab67616d0000b27360fac7fca17574ccb6923882",
          "width" : 640
        }, {
          "height" : 300,
          "url" : "https://i.scdn.co/image/ab67616d00001e0260fac7fca17574ccb6923882",
          "width" : 300
        }, {
          "height" : 64,
          "url" : "https://i.scdn.co/image/ab67616d0000485160fac7fca17574ccb6923882",
          "width" : 64
        } ],
        "name" : "Rise Up Dead Men",
        "release_date" : "2014-11-11",
        "release_date_precision" : "day",
        "total_tracks" : 7,
        "type" : "album",
        "uri" : "spotify:album:42O6KWJB5zZVdiofnKAzBK"
      },
      "artists" : [ {
        "external_urls" : {
          "spotify" : "https://open.spotify.com/artist/63cOTTgz0xL3mMibwp4448"
        },
        "href" : "https://api.spotify.com/v1/artists/63cOTTgz0xL3mMibwp4448",
        "id" : "63cOTTgz0xL3mMibwp4448",
        "name" : "Andrew Laparra",
        "type" : "artist",
        "uri" : "spotify:artist:63cOTTgz0xL3mMibwp4448"
      } ],
      "disc_number" : 1,
      "duration_ms" : 194690,
      "explicit" : false,
      "external_ids" : {
        "isrc" : "QZHN51912594"
      },
      "external_urls" : {
        "spotify" : "https://open.spotify.com/track/4uA4QWQmdFdlHEwwc245AQ"
      },
      "href" : "https://api.spotify.com/v1/tracks/4uA4QWQmdFdlHEwwc245AQ",
      "id" : "4uA4QWQmdFdlHEwwc245AQ",
      "is_local" : false,
      "is_playable" : true,
      "name" : "For The Beauty Of The Earth",
      "popularity" : 29,
      "preview_url" : "https://p.scdn.co/mp3-preview/66773fef98bcf5111c80343765b5160f20d16d87?cid=774b29d4f13844c495f206cafdad9c86",
      "track_number" : 3,
      "type" : "track",
      "uri" : "spotify:track:4uA4QWQmdFdlHEwwc245AQ"
    }, {
      "album" : {
        "album_type" : "compilation",
        "artists" : [ {
          "external_urls" : {
            "spotify" : "https://open.spotify.com/artist/0qlhpgr87PEG89Jd5iRpxe"
          },
          "href" : "https://api.spotify.com/v1/artists/0qlhpgr87PEG89Jd5iRpxe",
          "id" : "0qlhpgr87PEG89Jd5iRpxe",
          "name" : "John Rutter",
          "type" : "artist",
          "uri" : "spotify:artist:0qlhpgr87PEG89Jd5iRpxe"
        } ],
        "external_urls" : {
          "spotify" : "https://open.spotify.com/album/0GXs180xBmigQB1fhAfKN3"
        },
        "href" : "https://api.spotify.com/v1/albums/0GXs180xBmigQB1fhAfKN3",
        "id" : "0GXs180xBmigQB1fhAfKN3",
        "images" : [ {
          "height" : 640,
          "url" : "https://i.scdn.co/image/ab67616d0000b2735f1cb4549b53e0207ca7a3c6",
          "width" : 640
        }, {
          "height" : 300,
          "url" : "https://i.scdn.co/image/ab67616d00001e025f1cb4549b53e0207ca7a3c6",
          "width" : 300
        }, {
          "height" : 64,
          "url" : "https://i.scdn.co/image/ab67616d000048515f1cb4549b53e0207ca7a3c6",
          "width" : 64
        } ],
        "name" : "The Very Best of John Rutter",
        "release_date" : "2011-01-01",
        "release_date_precision" : "day",
        "total_tracks" : 22,
        "type" : "album",
        "uri" : "spotify:album:0GXs180xBmigQB1fhAfKN3"
      },
      "artists" : [ {
        "external_urls" : {
          "spotify" : "https://open.spotify.com/artist/0qlhpgr87PEG89Jd5iRpxe"
        },
        "href" : "https://api.spotify.com/v1/artists/0qlhpgr87PEG89Jd5iRpxe",
        "id" : "0qlhpgr87PEG89Jd5iRpxe",
        "name" : "John Rutter",
        "type" : "artist",
        "uri" : "spotify:artist:0qlhpgr87PEG89Jd5iRpxe"
      }, {
        "external_urls" : {
          "spotify" : "https://open.spotify.com/artist/0daVGEYMVnQZ3NZIpIuFWn"
        },
        "href" : "https://api.spotify.com/v1/artists/0daVGEYMVnQZ3NZIpIuFWn",
        "id" : "0daVGEYMVnQZ3NZIpIuFWn",
        "name" : "The Cambridge Singers",
        "type" : "artist",
        "uri" : "spotify:artist:0daVGEYMVnQZ3NZIpIuFWn"
      }, {
        "external_urls" : {
          "spotify" : "https://open.spotify.com/artist/4JKHXlntTvmZnLxjbeRcPL"
        },
        "href" : "https://api.spotify.com/v1/artists/4JKHXlntTvmZnLxjbeRcPL",
        "id" : "4JKHXlntTvmZnLxjbeRcPL",
        "name" : "City of London Sinfonia",
        "type" : "artist",
        "uri" : "spotify:artist:4JKHXlntTvmZnLxjbeRcPL"
      } ],
      "disc_number" : 1,
      "duration_ms" : 225453,
      "explicit" : false,
      "external_ids" : {
        "isrc" : "GBUM70818378"
      },
      "external_urls" : {
        "spotify" : "https://open.spotify.com/track/5I0oKGIBsULL3FuJBkh2Lo"
      },
      "href" : "https://api.spotify.com/v1/tracks/5I0oKGIBsULL3FuJBkh2Lo",
      "id" : "5I0oKGIBsULL3FuJBkh2Lo",
      "is_local" : false,
      "is_playable" : true,
      "name" : "For The Beauty Of The Earth",
      "popularity" : 31,
      "preview_url" : null,
      "track_number" : 1,
      "type" : "track",
      "uri" : "spotify:track:5I0oKGIBsULL3FuJBkh2Lo"
    }, {
      "album" : {
        "album_type" : "album",
        "artists" : [ {
          "external_urls" : {
            "spotify" : "https://open.spotify.com/artist/6FsXOVxLro1VeFa5c6jK1y"
          },
          "href" : "https://api.spotify.com/v1/artists/6FsXOVxLro1VeFa5c6jK1y",
          "id" : "6FsXOVxLro1VeFa5c6jK1y",
          "name" : "Christopher West",
          "type" : "artist",
          "uri" : "spotify:artist:6FsXOVxLro1VeFa5c6jK1y"
        } ],
        "external_urls" : {
          "spotify" : "https://open.spotify.com/album/3yXnACSRRTznO2u8QGVD5s"
        },
        "href" : "https://api.spotify.com/v1/albums/3yXnACSRRTznO2u8QGVD5s",
        "id" : "3yXnACSRRTznO2u8QGVD5s",
        "images" : [ {
          "height" : 640,
          "url" : "https://i.scdn.co/image/ab67616d0000b273a48ebe8d255402da9556d308",
          "width" : 640
        }, {
          "height" : 300,
          "url" : "https://i.scdn.co/image/ab67616d00001e02a48ebe8d255402da9556d308",
          "width" : 300
        }, {
          "height" : 64,
          "url" : "https://i.scdn.co/image/ab67616d00004851a48ebe8d255402da9556d308",
          "width" : 64
        } ],
        "name" : "How Great Thou Art - Christian Instrumentals",
        "release_date" : "2005-03-08",
        "release_date_precision" : "day",
        "total_tracks" : 10,
        "type" : "album",
        "uri" : "spotify:album:3yXnACSRRTznO2u8QGVD5s"
      },
      "artists" : [ {
        "external_urls" : {
          "spotify" : "https://open.spotify.com/artist/6FsXOVxLro1VeFa5c6jK1y"
        },
        "href" : "https://api.spotify.com/v1/artists/6FsXOVxLro1VeFa5c6jK1y",
        "id" : "6FsXOVxLro1VeFa5c6jK1y",
        "name" : "Christopher West",
        "type" : "artist",
        "uri" : "spotify:artist:6FsXOVxLro1VeFa5c6jK1y"
      } ],
      "disc_number" : 1,
      "duration_ms" : 122146,
      "explicit" : false,
      "external_ids" : {
        "isrc" : "US89R0672582"
      },
      "external_urls" : {
        "spotify" : "https://open.spotify.com/track/2bRHQqGjrTp2AGDsUL73n1"
      },
      "href" : "https://api.spotify.com/v1/tracks/2bRHQqGjrTp2AGDsUL73n1",
      "id" : "2bRHQqGjrTp2AGDsUL73n1",
      "is_local" : false,
      "is_playable" : true,
      "name" : "For the Beauty of the Earth",
      "popularity" : 30,
      "preview_url" : "https://p.scdn.co/mp3-preview/649daa57aab9a4baeb9f780d3171e3eb791ccb07?cid=774b29d4f13844c495f206cafdad9c86",
      "track_number" : 7,
      "type" : "track",
      "uri" : "spotify:track:2bRHQqGjrTp2AGDsUL73n1"
    }, {
      "album" : {
        "album_type" : "album",
        "artists" : [ {
          "external_urls" : {
            "spotify" : "https://open.spotify.com/artist/32DWM2tctxuDatAYWHjCtC"
          },
          "href" : "https://api.spotify.com/v1/artists/32DWM2tctxuDatAYWHjCtC",
          "id" : "32DWM2tctxuDatAYWHjCtC",
          "name" : "Hymns on Piano",
          "type" : "artist",
          "uri" : "spotify:artist:32DWM2tctxuDatAYWHjCtC"
        } ],
        "external_urls" : {
          "spotify" : "https://open.spotify.com/album/6dXrvNudBlYNwLurcV47WZ"
        },
        "href" : "https://api.spotify.com/v1/albums/6dXrvNudBlYNwLurcV47WZ",
        "id" : "6dXrvNudBlYNwLurcV47WZ",
        "images" : [ {
          "height" : 640,
          "url" : "https://i.scdn.co/image/ab67616d0000b2733e27d563a49a2564bed32a12",
          "width" : 640
        }, {
          "height" : 300,
          "url" : "https://i.scdn.co/image/ab67616d00001e023e27d563a49a2564bed32a12",
          "width" : 300
        }, {
          "height" : 64,
          "url" : "https://i.scdn.co/image/ab67616d000048513e27d563a49a2564bed32a12",
          "width" : 64
        } ],
        "name" : "Hymns of Thanksgiving - Volume 1",
        "release_date" : "2015-11-13",
        "release_date_precision" : "day",
        "total_tracks" : 15,
        "type" : "album",
        "uri" : "spotify:album:6dXrvNudBlYNwLurcV47WZ"
      },
      "artists" : [ {
        "external_urls" : {
          "spotify" : "https://open.spotify.com/artist/32DWM2tctxuDatAYWHjCtC"
        },
        "href" : "https://api.spotify.com/v1/artists/32DWM2tctxuDatAYWHjCtC",
        "id" : "32DWM2tctxuDatAYWHjCtC",
        "name" : "Hymns on Piano",
        "type" : "artist",
        "uri" : "spotify:artist:32DWM2tctxuDatAYWHjCtC"
      } ],
      "disc_number" : 1,
      "duration_ms" : 155003,
      "explicit" : false,
      "external_ids" : {
        "isrc" : "USE831519256"
      },
      "external_urls" : {
        "spotify" : "https://open.spotify.com/track/1XdSel9S1xNSr6zLGY66qo"
      },
      "href" : "https://api.spotify.com/v1/tracks/1XdSel9S1xNSr6zLGY66qo",
      "id" : "1XdSel9S1xNSr6zLGY66qo",
      "is_local" : false,
      "is_playable" : true,
      "name" : "For the Beauty of the Earth (Dix)",
      "popularity" : 32,
      "preview_url" : "https://p.scdn.co/mp3-preview/23fa23df937ab214c6af6c081541553324744606?cid=774b29d4f13844c495f206cafdad9c86",
      "track_number" : 3,
      "type" : "track",
      "uri" : "spotify:track:1XdSel9S1xNSr6zLGY66qo"
    }, {
      "album" : {
        "album_type" : "album",
        "artists" : [ {
          "external_urls" : {
            "spotify" : "https://open.spotify.com/artist/4QKx7KohkWZAOkO4sI3GRx"
          },
          "href" : "https://api.spotify.com/v1/artists/4QKx7KohkWZAOkO4sI3GRx",
          "id" : "4QKx7KohkWZAOkO4sI3GRx",
          "name" : "VeggieTales",
          "type" : "artist",
          "uri" : "spotify:artist:4QKx7KohkWZAOkO4sI3GRx"
        } ],
        "external_urls" : {
          "spotify" : "https://open.spotify.com/album/7DCaLcwncrvL3Tutchzobe"
        },
        "href" : "https://api.spotify.com/v1/albums/7DCaLcwncrvL3Tutchzobe",
        "id" : "7DCaLcwncrvL3Tutchzobe",
        "images" : [ {
          "height" : 640,
          "url" : "https://i.scdn.co/image/ab67616d0000b273a1c03a71230169132303a11c",
          "width" : 640
        }, {
          "height" : 300,
          "url" : "https://i.scdn.co/image/ab67616d00001e02a1c03a71230169132303a11c",
          "width" : 300
        }, {
          "height" : 64,
          "url" : "https://i.scdn.co/image/ab67616d00004851a1c03a71230169132303a11c",
          "width" : 64
        } ],
        "name" : "25 Favorite Lullaby Songs!",
        "release_date" : "2009-10-06",
        "release_date_precision" : "day",
        "total_tracks" : 25,
        "type" : "album",
        "uri" : "spotify:album:7DCaLcwncrvL3Tutchzobe"
      },
      "artists" : [ {
        "external_urls" : {
          "spotify" : "https://open.spotify.com/artist/4QKx7KohkWZAOkO4sI3GRx"
        },
        "href" : "https://api.spotify.com/v1/artists/4QKx7KohkWZAOkO4sI3GRx",
        "id" : "4QKx7KohkWZAOkO4sI3GRx",
        "name" : "VeggieTales",
        "type" : "artist",
        "uri" : "spotify:artist:4QKx7KohkWZAOkO4sI3GRx"
      } ],
      "disc_number" : 1,
      "duration_ms" : 198560,
      "explicit" : false,
      "external_ids" : {
        "isrc" : "US4EW0700006"
      },
      "external_urls" : {
        "spotify" : "https://open.spotify.com/track/3FlCIv1VrzoaTeMzhB6Yxz"
      },
      "href" : "https://api.spotify.com/v1/tracks/3FlCIv1VrzoaTeMzhB6Yxz",
      "id" : "3FlCIv1VrzoaTeMzhB6Yxz",
      "is_local" : false,
      "is_playable" : true,
      "name" : "For The Beauty Of The Earth",
      "popularity" : 23,
      "preview_url" : null,
      "track_number" : 6,
      "type" : "track",
      "uri" : "spotify:track:3FlCIv1VrzoaTeMzhB6Yxz"
    }, {
      "album" : {
        "album_type" : "album",
        "artists" : [ {
          "external_urls" : {
            "spotify" : "https://open.spotify.com/artist/1xG9NSVzJoTwVyVBQWdCYL"
          },
          "href" : "https://api.spotify.com/v1/artists/1xG9NSVzJoTwVyVBQWdCYL",
          "id" : "1xG9NSVzJoTwVyVBQWdCYL",
          "name" : "Les Pastoureaux",
          "type" : "artist",
          "uri" : "spotify:artist:1xG9NSVzJoTwVyVBQWdCYL"
        } ],
        "external_urls" : {
          "spotify" : "https://open.spotify.com/album/2PzpgwbZaqjLO7LN8cToLM"
        },
        "href" : "https://api.spotify.com/v1/albums/2PzpgwbZaqjLO7LN8cToLM",
        "id" : "2PzpgwbZaqjLO7LN8cToLM",
        "images" : [ {
          "height" : 640,
          "url" : "https://i.scdn.co/image/ab67616d0000b2734d63a0c11a8941873de23fcd",
          "width" : 640
        }, {
          "height" : 300,
          "url" : "https://i.scdn.co/image/ab67616d00001e024d63a0c11a8941873de23fcd",
          "width" : 300
        }, {
          "height" : 64,
          "url" : "https://i.scdn.co/image/ab67616d000048514d63a0c11a8941873de23fcd",
          "width" : 64
        } ],
        "name" : "For the Beauty of the Earth",
        "release_date" : "2012",
        "release_date_precision" : "year",
        "total_tracks" : 16,
        "type" : "album",
        "uri" : "spotify:album:2PzpgwbZaqjLO7LN8cToLM"
      },
      "artists" : [ {
        "external_urls" : {
          "spotify" : "https://open.spotify.com/artist/0qlhpgr87PEG89Jd5iRpxe"
        },
        "href" : "https://api.spotify.com/v1/artists/0qlhpgr87PEG89Jd5iRpxe",
        "id" : "0qlhpgr87PEG89Jd5iRpxe",
        "name" : "John Rutter",
        "type" : "artist",
        "uri" : "spotify:artist:0qlhpgr87PEG89Jd5iRpxe"
      }, {
        "external_urls" : {
          "spotify" : "https://open.spotify.com/artist/1xG9NSVzJoTwVyVBQWdCYL"
        },
        "href" : "https://api.spotify.com/v1/artists/1xG9NSVzJoTwVyVBQWdCYL",
        "id" : "1xG9NSVzJoTwVyVBQWdCYL",
        "name" : "Les Pastoureaux",
        "type" : "artist",
        "uri" : "spotify:artist:1xG9NSVzJoTwVyVBQWdCYL"
      } ],
      "disc_number" : 1,
      "duration_ms" : 217346,
      "explicit" : false,
      "external_ids" : {
        "isrc" : "FR26V1617014"
      },
      "external_urls" : {
        "spotify" : "https://open.spotify.com/track/3EjKCnak7DdSoFu5apLEpB"
      },
      "href" : "https://api.spotify.com/v1/tracks/3EjKCnak7DdSoFu5apLEpB",
      "id" : "3EjKCnak7DdSoFu5apLEpB",
      "is_local" : false,
      "is_playable" : true,
      "name" : "For the Beauty of the Earth",
      "popularity" : 29,
      "preview_url" : "https://p.scdn.co/mp3-preview/1c6405c2c43c4f4497f36910a603316a1b68188b?cid=774b29d4f13844c495f206cafdad9c86",
      "track_number" : 1,
      "type" : "track",
      "uri" : "spotify:track:3EjKCnak7DdSoFu5apLEpB"
    }, {
      "album" : {
        "album_type" : "album",
        "artists" : [ {
          "external_urls" : {
            "spotify" : "https://open.spotify.com/artist/5XribJjEo6W2uyJGeuayo5"
          },
          "href" : "https://api.spotify.com/v1/artists/5XribJjEo6W2uyJGeuayo5",
          "id" : "5XribJjEo6W2uyJGeuayo5",
          "name" : "The LDS Guitar Ensemble",
          "type" : "artist",
          "uri" : "spotify:artist:5XribJjEo6W2uyJGeuayo5"
        } ],
        "external_urls" : {
          "spotify" : "https://open.spotify.com/album/0JanLKBT4ujd9u3Z9vgOLJ"
        },
        "href" : "https://api.spotify.com/v1/albums/0JanLKBT4ujd9u3Z9vgOLJ",
        "id" : "0JanLKBT4ujd9u3Z9vgOLJ",
        "images" : [ {
          "height" : 640,
          "url" : "https://i.scdn.co/image/ab67616d0000b273dac4b81ec442bd437fed2da2",
          "width" : 640
        }, {
          "height" : 300,
          "url" : "https://i.scdn.co/image/ab67616d00001e02dac4b81ec442bd437fed2da2",
          "width" : 300
        }, {
          "height" : 64,
          "url" : "https://i.scdn.co/image/ab67616d00004851dac4b81ec442bd437fed2da2",
          "width" : 64
        } ],
        "name" : "Classic Mormon Hymns",
        "release_date" : "2017-07-22",
        "release_date_precision" : "day",
        "total_tracks" : 15,
        "type" : "album",
        "uri" : "spotify:album:0JanLKBT4ujd9u3Z9vgOLJ"
      },
      "artists" : [ {
        "external_urls" : {
          "spotify" : "https://open.spotify.com/artist/5XribJjEo6W2uyJGeuayo5"
        },
        "href" : "https://api.spotify.com/v1/artists/5XribJjEo6W2uyJGeuayo5",
        "id" : "5XribJjEo6W2uyJGeuayo5",
        "name" : "The LDS Guitar Ensemble",
        "type" : "artist",
        "uri" : "spotify:artist:5XribJjEo6W2uyJGeuayo5"
      } ],
      "disc_number" : 1,
      "duration_ms" : 102452,
      "explicit" : false,
      "external_ids" : {
        "isrc" : "USQY51759917"
      },
      "external_urls" : {
        "spotify" : "https://open.spotify.com/track/7HJ1wXZhRKrr7wHk9PAIKT"
      },
      "href" : "https://api.spotify.com/v1/tracks/7HJ1wXZhRKrr7wHk9PAIKT",
      "id" : "7HJ1wXZhRKrr7wHk9PAIKT",
      "is_local" : false,
      "is_playable" : true,
      "name" : "For the Beauty of the Earth",
      "popularity" : 20,
      "preview_url" : "https://p.scdn.co/mp3-preview/40e7368b1e9eb893298104627e0e28da454b5135?cid=774b29d4f13844c495f206cafdad9c86",
      "track_number" : 3,
      "type" : "track",
      "uri" : "spotify:track:7HJ1wXZhRKrr7wHk9PAIKT"
    }, {
      "album" : {
        "album_type" : "album",
        "artists" : [ {
          "external_urls" : {
            "spotify" : "https://open.spotify.com/artist/7zbq3gjHu4JAiMV7dWbUdv"
          },
          "href" : "https://api.spotify.com/v1/artists/7zbq3gjHu4JAiMV7dWbUdv",
          "id" : "7zbq3gjHu4JAiMV7dWbUdv",
          "name" : "David Nevue",
          "type" : "artist",
          "uri" : "spotify:artist:7zbq3gjHu4JAiMV7dWbUdv"
        } ],
        "external_urls" : {
          "spotify" : "https://open.spotify.com/album/2SlzFg1memIBO37zdTkV0e"
        },
        "href" : "https://api.spotify.com/v1/albums/2SlzFg1memIBO37zdTkV0e",
        "id" : "2SlzFg1memIBO37zdTkV0e",
        "images" : [ {
          "height" : 640,
          "url" : "https://i.scdn.co/image/ab67616d0000b273a03906952852034e33dfdd5d",
          "width" : 640
        }, {
          "height" : 300,
          "url" : "https://i.scdn.co/image/ab67616d00001e02a03906952852034e33dfdd5d",
          "width" : 300
        }, {
          "height" : 64,
          "url" : "https://i.scdn.co/image/ab67616d00004851a03906952852034e33dfdd5d",
          "width" : 64
        } ],
        "name" : "Open Sky",
        "release_date" : "2013-05-18",
        "release_date_precision" : "day",
        "total_tracks" : 17,
        "type" : "album",
        "uri" : "spotify:album:2SlzFg1memIBO37zdTkV0e"
      },
      "artists" : [ {
        "external_urls" : {
          "spotify" : "https://open.spotify.com/artist/7zbq3gjHu4JAiMV7dWbUdv"
        },
        "href" : "https://api.spotify.com/v1/artists/7zbq3gjHu4JAiMV7dWbUdv",
        "id" : "7zbq3gjHu4JAiMV7dWbUdv",
        "name" : "David Nevue",
        "type" : "artist",
        "uri" : "spotify:artist:7zbq3gjHu4JAiMV7dWbUdv"
      } ],
      "disc_number" : 1,
      "duration_ms" : 293320,
      "explicit" : false,
      "external_ids" : {
        "isrc" : "ushm21320026"
      },
      "external_urls" : {
        "spotify" : "https://open.spotify.com/track/7JCkrs60zE5w2hejoKmyMx"
      },
      "href" : "https://api.spotify.com/v1/tracks/7JCkrs60zE5w2hejoKmyMx",
      "id" : "7JCkrs60zE5w2hejoKmyMx",
      "is_local" : false,
      "is_playable" : true,
      "name" : "For the Beauty of the Earth",
      "popularity" : 20,
      "preview_url" : "https://p.scdn.co/mp3-preview/7661cdf3cda5d25fae1580953aba39d8fe923768?cid=774b29d4f13844c495f206cafdad9c86",
      "track_number" : 5,
      "type" : "track",
      "uri" : "spotify:track:7JCkrs60zE5w2hejoKmyMx"
    }, {
      "album" : {
        "album_type" : "album",
        "artists" : [ {
          "external_urls" : {
            "spotify" : "https://open.spotify.com/artist/1rnvO0098VACV7bmTr2dIv"
          },
          "href" : "https://api.spotify.com/v1/artists/1rnvO0098VACV7bmTr2dIv",
          "id" : "1rnvO0098VACV7bmTr2dIv",
          "name" : "Jason Tonioli",
          "type" : "artist",
          "uri" : "spotify:artist:1rnvO0098VACV7bmTr2dIv"
        } ],
        "external_urls" : {
          "spotify" : "https://open.spotify.com/album/04H5oYEyVboTkTx2MS4IYY"
        },
        "href" : "https://api.spotify.com/v1/albums/04H5oYEyVboTkTx2MS4IYY",
        "id" : "04H5oYEyVboTkTx2MS4IYY",
        "images" : [ {
          "height" : 640,
          "url" : "https://i.scdn.co/image/ab67616d0000b2738c08525f72a1a1171ba43b79",
          "width" : 640
        }, {
          "height" : 300,
          "url" : "https://i.scdn.co/image/ab67616d00001e028c08525f72a1a1171ba43b79",
          "width" : 300
        }, {
          "height" : 64,
          "url" : "https://i.scdn.co/image/ab67616d000048518c08525f72a1a1171ba43b79",
          "width" : 64
        } ],
        "name" : "Simple Gifts",
        "release_date" : "2010-08-02",
        "release_date_precision" : "day",
        "total_tracks" : 12,
        "type" : "album",
        "uri" : "spotify:album:04H5oYEyVboTkTx2MS4IYY"
      },
      "artists" : [ {
        "external_urls" : {
          "spotify" : "https://open.spotify.com/artist/1rnvO0098VACV7bmTr2dIv"
        },
        "href" : "https://api.spotify.com/v1/artists/1rnvO0098VACV7bmTr2dIv",
        "id" : "1rnvO0098VACV7bmTr2dIv",
        "name" : "Jason Tonioli",
        "type" : "artist",
        "uri" : "spotify:artist:1rnvO0098VACV7bmTr2dIv"
      }, {
        "external_urls" : {
          "spotify" : "https://open.spotify.com/artist/26FAPX1FG2YugaK5nAZog0"
        },
        "href" : "https://api.spotify.com/v1/artists/26FAPX1FG2YugaK5nAZog0",
        "id" : "26FAPX1FG2YugaK5nAZog0",
        "name" : "Ryan Shupe",
        "type" : "artist",
        "uri" : "spotify:artist:26FAPX1FG2YugaK5nAZog0"
      } ],
      "disc_number" : 1,
      "duration_ms" : 186933,
      "explicit" : false,
      "external_ids" : {
        "isrc" : "USQY51069920"
      },
      "external_urls" : {
        "spotify" : "https://open.spotify.com/track/7oqHFDH7JIuRy93zdtSZcj"
      },
      "href" : "https://api.spotify.com/v1/tracks/7oqHFDH7JIuRy93zdtSZcj",
      "id" : "7oqHFDH7JIuRy93zdtSZcj",
      "is_local" : false,
      "is_playable" : true,
      "name" : "For the Beauty of the Earth",
      "popularity" : 19,
      "preview_url" : "https://p.scdn.co/mp3-preview/1057e9eb3b153b0d58c893336a0542a6c0fe0010?cid=774b29d4f13844c495f206cafdad9c86",
      "track_number" : 1,
      "type" : "track",
      "uri" : "spotify:track:7oqHFDH7JIuRy93zdtSZcj"
    } ],
    "limit" : 10,
    "next" : "https://api.spotify.com/v1/search?query=For+the+Beauty+of+the+Earth&type=track&market=US&offset=15&limit=10",
    "offset" : 5,
    "previous" : "https://api.spotify.com/v1/search?query=For+the+Beauty+of+the+Earth&type=track&market=US&offset=0&limit=10",
    "total" : 1128
  }
}