{
  "tracks" : {
    "href" : "https://api.spotify.com/v1/search?query=Jesus+Loves+Me&type=track&market=US&offset=5&limit=10",
    "items" : [ {
      "album" : {
        "album_type" : "album",
        "artists" : [ {
          "external_urls" : {
            "spotify" : "https://open.spotify.com/artist/32DWM2tctxuDatAYWHjCtC"
          },
          "href" : "https://api.spotify.com/v1/artists/32DWM2tctxuDatAYWHjCtC",
          "id" : "32DWM2tctxuDatAYWHjCtC",
          "name" : "Hymns on Piano",
          "type" : "artist",
          "uri" : "spotify:artist:32DWM2tctxuDatAYWHjCtC"
        } ],
        "external_urls" : {
          "spotify" : "https://open.spotify.com/album/5CBiTtYZP8vWMDl2hqozCI"
        },
        "href" : "https://api.spotify.com/v1/albums/5CBiTtYZP8vWMDl2hqozCI",
        "id" : "5CBiTtYZP8vWMDl2hqozCI",
        "images" : [ {
          "height" : 640,
          "url" : "https://i.scdn.co/image/ab67616d0000b2738085597ccf70a53796457e5f",
          "width" : 640
        }, {
          "height" : 300,
          "url" : "https://i.scdn.co/image/ab67616d00001e028085597ccf70a53796457e5f",
          "width" : 300
        }, {
          "height" : 64,
          "url" : "https://i.scdn.co/image/ab67616d000048518085597ccf70a53796457e5f",
          "width" : 64
        } ],
        "name" : "Hymns of Worship, Vol. 3",
        "release_date" : "2016-05-06",
        "release_date_precision" : "day",
        "total_tracks" : 15,
        "type" : "album",
        "uri" : "spotify:album:5CBiTtYZP8vWMDl2hqozCI"
      },
      "artists" : [ {
        "external_urls" : {
          "spotify" : "https://open.spotify.com/artist/32DWM2tctxuDatAYWHjCtC"
        },
        "href" : "https://api.spotify.com/v1/artists/32DWM2tctxuDatAYWHjCtC",
        "id" : "32DWM2tctxuDatAYWHjCtC",
        "name" : "Hymns on Piano",
        "type" : "artist",
        "uri" : "spotify:artist:32DWM2tctxuDatAYWHjCtC"
      } ],
      "disc_number" : 1,
      "duration_ms" : 242501,
      "explicit" : false,
      "external_ids" : {
        "isrc" : "USE831563030"
      },
      "external_urls" : {
        "spotify" : "https://open.spotify.com/track/7dKEg9rTno5arNr2Ru2Fd8"
      },
      "href" : "https://api.spotify.com/v1/tracks/7dKEg9rTno5arNr2Ru2Fd8",
      "id" : "7dKEg9rTno5arNr2Ru2Fd8",
      "is_local" : false,
      "is_playable" : true,
      "name" : "Jesus Loves Me, This I Know",
      "popularity" : 44,
      "preview_url" : "https://p.scdn.co/mp3-preview/c4cf19cfe8ce2941c880ef0194037c92fa528105?cid=774b29d4f13844c495f206cafdad9c86",
      "track_number" : 8,
      "type" : "track",
      "uri" : "spotify:track:7dKEg9rTno5arNr2Ru2Fd8"
    }, {
      "album" : {
        "album_type" : "album",
        "artists" : [ {
          "external_urls" : {
            "spotify" : "https://open.spotify.com/artist/5aBxFPaaGk9204ssHUvXWN"
          },
          "href" : "https://api.spotify.com/v1/artists/5aBxFPaaGk9204ssHUvXWN",
          "id" : "5aBxFPaaGk9204ssHUvXWN",
          "name" : "Michael W. Smith",
          "type" : "artist",
          "uri" : "spotify:artist:5aBxFPaaGk9204ssHUvXWN"
        } ],
        "external_urls" : {
          "spotify" : "https://open.spotify.com/album/6Y0j061CrugS8XQwdyg9eP"
        },
        "href" : "https://api.spotify.com/v1/albums/6Y0j061CrugS8XQwdyg9eP",
        "id" : "6Y0j061CrugS8XQwdyg9eP",
        "images" : [ {
          "height" : 640,
          "url" : "https://i.scdn.co/image/ab67616d0000b273b7d145a7bf1ced81aaffad62",
          "width" : 640
        }, {
          "height" : 300,
          "url" : "https://i.scdn.co/image/ab67616d00001e02b7d145a7bf1ced81aaffad62",
          "width" : 300
        }, {
          "height" : 64,
          "url" : "https://i.scdn.co/image/ab67616d00004851b7d145a7bf1ced81aaffad62",
          "width" : 64
        } ],
        "name" : "Lullaby",
        "release_date" : "2018-05-04",
        "release_date_precision" : "day",
        "total_tracks" : 27,
        "type" : "album",
        "uri" : "spotify:album:6Y0j061CrugS8XQwdyg9eP"
      },
      "artists" : [ {
        "external_urls" : {
          "spotify" : "https://open.spotify.com/artist/5aBxFPaaGk9204ssHUvXWN"
        },
        "href" : "https://api.spotify.com/v1/artists/5aBxFPaaGk9204ssHUvXWN",
        "id" : "5aBxFPaaGk9204ssHUvXWN",
        "name" : "Michael W. Smith",
        "type" : "artist",
        "uri" : "spotify:artist:5aBxFPaaGk9204ssHUvXWN"
      } ],
      "disc_number" : 1,
      "duration_ms" : 131653,
      "explicit" : false,
      "external_ids" : {
        "isrc" : "QMF921850051"
      },
      "external_urls" : {
        "spotify" : "https://open.spotify.com/track/3wE3TALv7Xml7IZBiTIFhW"
      },
      "href" : "https://api.spotify.com/v1/tracks/3wE3TALv7Xml7IZBiTIFhW",
      "id" : "3wE3TALv7Xml7IZBiTIFhW",
      "is_local" : false,
      "is_playable" : true,
      "name" : "Jesus Loves Me",
      "popularity" : 37,
      "preview_url" : "https://p.scdn.co/mp3-preview/27950af2ded58a5eedf4ef16af56d089bb8fbeb1?cid=774b29d4f13844c495f206cafdad9c86",
      "track_number" : 11,
      "type" : "track",
      "uri" : "spotify:track:3wE3TALv7Xml7IZBiTIFhW"
    }, {
      "album" : {
        "album_type" : "album",
        "artists" : [ {
          "external_urls" : {
            "spotify" : "https://open.spotify.com/artist/6XpaIBNiVzIetEPCWDvAFP"
          },
          "href" : "https://api.spotify.com/v1/artists/6XpaIBNiVzIetEPCWDvAFP",
          "id" : "6XpaIBNiVzIetEPCWDvAFP",
          "name" : "Whitney Houston",
          "type" : "artist",
          "uri" : "spotify:artist:6XpaIBNiVzIetEPCWDvAFP"
        } ],
        "external_urls" : {
          "spotify" : "https://open.spotify.com/album/7JVJlkNNobS0GSoy4tCS96"
        },
        "href" : "https://api.spotify.com/v1/albums/7JVJlkNNobS0GSoy4tCS96",
        "id" : "7JVJlkNNobS0GSoy4tCS96",
        "images" : [ {
          "height" : 640,
          "url" : "https://i.scdn.co/image/ab67616d0000b273456c0b5d0316a80dc600802e",
          "width" : 640
        }, {
          "height" : 300,
          "url" : "https://i.scdn.co/image/ab67616d00001e02456c0b5d0316a80dc600802e",
          "width" : 300
        }, {
          "height" : 64,
          "url" : "https://i.scdn.co/image/ab67616d00004851456c0b5d0316a80dc600802e",
          "width" : 64
        } ],
        "name" : "The Bodyguard - Original Soundtrack Album",
        "release_date" : "1992-11-17",
        "release_date_precision" : "day",
        "total_tracks" : 12,
        "type" : "album",
        "uri" : "spotify:album:7JVJlkNNobS0GSoy4tCS96"
      },
      "artists" : [ {
        "external_urls" : {
          "spotify" : "https://open.spotify.com/artist/6XpaIBNiVzIetEPCWDvAFP"
        },
        "href" : "https://api.spotify.com/v1/artists/6XpaIBNiVzIetEPCWDvAFP",
        "id" : "6XpaIBNiVzIetEPCWDvAFP",
        "name" : "Whitney Houston",
        "type" : "artist",
        "uri" : "spotify:artist:6XpaIBNiVzIetEPCWDvAFP"
      } ],
      "disc_number" : 1,
      "duration_ms" : 312506,
      "explicit" : false,
      "external_ids" : {
        "isrc" : "USAR19200185"
      },
      "external_urls" : {
        "spotify" : "https://open.spotify.com/track/77ld03vIqCjakQkIQBPTVA"
      },
      "href" : "https://api.spotify.com/v1/tracks/77ld03vIqCjakQkIQBPTVA",
      "id" : "77ld03vIqCjakQkIQBPTVA",
      "is_local" : false,
      "is_playable" : true,
      "name" : "Jesus Loves Me",
      "popularity" : 43,
      "preview_url" : "https://p.scdn.co/mp3-preview/29ca83b0e63e84dbf6037e2938d70f004a0b6735?cid=774b29d4f13844c495f206cafdad9c86",
      "track_number" : 6,
      "type" : "track",
      "uri" : "spotify:track:77ld03vIqCjakQkIQBPTVA"
    }, {
      "album" : {
        "album_type" : "album",
        "artists" : [ {
          "external_urls" : {
            "spotify" : "https://open.spotify.com/artist/7m4gF38CPATtHrk5HS42WZ"
          },
          "href" : "https://api.spotify.com/v1/artists/7m4gF38CPATtHrk5HS42WZ",
          "id" : "7m4gF38CPATtHrk5HS42WZ",
          "name" : "Hillsong Young & Free",
          "type" : "artist",
          "uri" : "spotify:artist:7m4gF38CPATtHrk5HS42WZ"
        } ],
        "external_urls" : {
          "spotify" : "https://open.spotify.com/album/3GBUiNPCjCorEs0W9lf41C"
        },
        "href" : "https://api.spotify.com/v1/albums/3GBUiNPCjCorEs0W9lf41C",
        "id" : "3GBUiNPCjCorEs0W9lf41C",
        "images" : [ {
          "height" : 640,
          "url" : "https://i.scdn.co/image/ab67616d0000b27375e47b1c1504f3a47fbf1e38",
          "width" : 640
        }, {
          "height" : 300,
          "url" : "https://i.scdn.co/image/ab67616d00001e0275e47b1c1504f3a47fbf1e38",
          "width" : 300
        }, {
          "height" : 64,
          "url" : "https://i.scdn.co/image/ab67616d0000485175e47b1c1504f3a47fbf1e38",
          "width" : 64
        } ],
        "name" : "III",
        "release_date" : "2018-06-29",
        "release_date_precision" : "day",
        "total_tracks" : 17,
        "type" : "album",
        "uri" : "spotify:album:3GBUiNPCjCorEs0W9lf41C"
      },
      "artists" : [ {
        "external_urls" : {
          "spotify" : "https://open.spotify.com/artist/7m4gF38CPATtHrk5HS42WZ"
        },
        "href" : "https://api.spotify.com/v1/artists/7m4gF38CPATtHrk5HS42WZ",
        "id" : "7m4gF38CPATtHrk5HS42WZ",
        "name" : "Hillsong Young & Free",
        "type" : "artist",
        "uri" : "spotify:artist:7m4gF38CPATtHrk5HS42WZ"
      } ],
      "disc_number" : 1,
      "duration_ms" : 253853,
      "explicit" : false,
      "external_ids" : {
        "isrc" : "AUHS01810162"
      },
      "external_urls" : {
        "spotify" : "https://open.spotify.com/track/5mh2trGtWMzVM0z3SU8Rwr"
      },
      "href" : "https://api.spotify.com/v1/tracks/5mh2trGtWMzVM0z3SU8Rwr",
      "id" : "5mh2trGtWMzVM0z3SU8Rwr",
      "is_local" : false,
      "is_playable" : true,
      "name" : "Jesus Loves Me",
      "popularity" : 33,
      "preview_url" : null,
      "track_number" : 7,
      "type" : "track",
      "uri" : "spotify:track:5mh2trGtWMzVM0z3SU8Rwr"
    }, {
      "album" : {
        "album_type" : "album",
        "artists" : [ {
          "external_urls" : {
            "spotify" : "https://open.spotify.com/artist/1JIAVlXIuqqarZIT5vt5NQ"
          },
          "href" : "https://api.spotify.com/v1/artists/1JIAVlXIuqqarZIT5vt5NQ",
          "id" : "1JIAVlXIuqqarZIT5vt5NQ",
          "name" : "Terri Geisel",
          "type" : "artist",
          "uri" : "spotify:artist:1JIAVlXIuqqarZIT5vt5NQ"
        } ],
        "external_urls" : {
          "spotify" : "https://open.spotify.com/album/5bEanMqXQmOY6f7h7Dx46S"
        },
        "href" : "https://api.spotify.com/v1/albums/5bEanMqXQmOY6f7h7Dx46S",
        "id" : "5bEanMqXQmOY6f7h7Dx46S",
        "images" : [ {
          "height" : 640,
          "url" : "https://i.scdn.co/image/ab67616d0000b27357f335501e1dc824857c394f",
          "width" : 640
        }, {
          "height" : 300,
          "url" : "https://i.scdn.co/image/ab67616d00001e0257f335501e1dc824857c394f",
          "width" : 300
        }, {
          "height" : 64,
          "url" : "https://i.scdn.co/image/ab67616d0000485157f335501e1dc824857c394f",
          "width" : 64
        } ],
        "name" : "Your Beautiful Presence: Instrumental Soaking Worship Music",
        "release_date" : "2013-06-12",
        "release_date_precision" : "day",
        "total_tracks" : 10,
        "type" : "album",
        "uri" : "spotify:album:5bEanMqXQmOY6f7h7Dx46S"
      },
      "artists" : [ {
        "external_urls" : {
          "spotify" : "https://open.spotify.com/artist/1JIAVlXIuqqarZIT5vt5NQ"
        },
        "href" : "https://api.spotify.com/v1/artists/1JIAVlXIuqqarZIT5vt5NQ",
        "id" : "1JIAVlXIuqqarZIT5vt5NQ",
        "name" : "Terri Geisel",
        "type" : "artist",
        "uri" : "spotify:artist:1JIAVlXIuqqarZIT5vt5NQ"
      } ],
      "disc_number" : 1,
      "duration_ms" : 440112,
      "explicit" : false,
      "external_ids" : {
        "isrc" : "USGCV1393716"
      },
      "external_urls" : {
        "spotify" : "https://open.spotify.com/track/4kLKuG33rUt4XYUEoZMJuD"
      },
      "href" : "https://api.spotify.com/v1/tracks/4kLKuG33rUt4XYUEoZMJuD",
      "id" : "4kLKuG33rUt4XYUEoZMJuD",
      "is_local" : false,
      "is_playable" : true,
      "name" : "Jesus Loves Me Instrumental Soaking Worship",
      "popularity" : 42,
      "preview_url" : "https://p.scdn.co/mp3-preview/568eae1408b66c750177f0f0efa2f19c5d645dfe?cid=774b29d4f13844c495f206cafdad9c86",
      "track_number" : 1,
      "type" : "track",
      "uri" : "spotify:track:4kLKuG33rUt4XYUEoZMJuD"
    }, {
      "album" : {
        "album_type" : "album",
        "artists" : [ {
          "external_urls" : {
            "spotify" : "https://open.spotify.com/artist/38SqymKf3mLfZ1EZvOuUqR"
          },
          "href" : "https://api.spotify.com/v1/artists/38SqymKf3mLfZ1EZvOuUqR",
          "id" : "38SqymKf3mLfZ1EZvOuUqR",
          "name" : "Michael Hanley",
          "type" : "artist",
          "uri" : "spotify:artist:38SqymKf3mLfZ1EZvOuUqR"
        } ],
        "external_urls" : {
          "spotify" : "https://open.spotify.com/album/5S1YXxKrZuMBTIqjVEc9E3"
        },
        "href" : "https://api.spotify.com/v1/albums/5S1YXxKrZuMBTIqjVEc9E3",
        "id" : "5S1YXxKrZuMBTIqjVEc9E3",
        "images" : [ {
          "height" : 640,
          "url" : "https://i.scdn.co/image/ab67616d0000b273fb87fbb4873f945687a3f70b",
          "width" : 640
        }, {
          "height" : 300,
          "url" : "https://i.scdn.co/image/ab67616d00001e02fb87fbb4873f945687a3f70b",
          "width" : 300
        }, {
          "height" : 64,
          "url" : "https://i.scdn.co/image/ab67616d00004851fb87fbb4873f945687a3f70b",
          "width" : 64
        } ],
        "name" : "Piano Lullabies",
        "release_date" : "2013-01-01",
        "release_date_precision" : "day",
        "total_tracks" : 17,
        "type" : "album",
        "uri" : "spotify:album:5S1YXxKrZuMBTIqjVEc9E3"
      },
      "artists" : [ {
        "external_urls" : {
          "spotify" : "https://open.spotify.com/artist/38SqymKf3mLfZ1EZvOuUqR"
        },
        "href" : "https://api.spotify.com/v1/artists/38SqymKf3mLfZ1EZvOuUqR",
        "id" : "38SqymKf3mLfZ1EZvOuUqR",
        "name" : "Michael Hanley",
        "type" : "artist",
        "uri" : "spotify:artist:38SqymKf3mLfZ1EZvOuUqR"
      } ],
      "disc_number" : 1,
      "duration_ms" : 140408,
      "explicit" : false,
      "external_ids" : {
        "isrc" : "USDHM1310228"
      },
      "external_urls" : {
        "spotify" : "https://open.spotify.com/track/2NUn9FT4yyw5lqYz2LKePJ"
      },
      "href" : "https://api.spotify.com/v1/tracks/2NUn9FT4yyw5lqYz2LKePJ",
      "id" : "2NUn9FT4yyw5lqYz2LKePJ",
      "is_local" : false,
      "is_playable" : true,
      "name" : "Jesus Loves Me",
      "popularity" : 38,
      "preview_url" : "https://p.scdn.co/mp3-preview/e6d9192987ccce311b95fb19088f801397d5c909?cid=774b29d4f13844c495f206cafdad9c86",
      "track_number" : 5,
      "type" : "track",
      "uri" : "spotify:track:2NUn9FT4yyw5lqYz2LKePJ"
    }, {
      "album" : {
        "album_type" : "album",
        "artists" : [ {
          "external_urls" : {
            "spotify" : "https://open.spotify.com/artist/02rd0anEWfMtF7iMku9uor"
          },
          "href" : "https://api.spotify.com/v1/artists/02rd0anEWfMtF7iMku9uor",
          "id" : "02rd0anEWfMtF7iMku9uor",
          "name" : "Reba McEntire",
          "type" : "artist",
          "uri" : "spotify:artist:02rd0anEWfMtF7iMku9uor"
        } ],
        "external_urls" : {
          "spotify" : "https://open.spotify.com/album/3zSyGvLk5FcLhC3BtbKr9z"
        },
        "href" : "https://api.spotify.com/v1/albums/3zSyGvLk5FcLhC3BtbKr9z",
        "id" : "3zSyGvLk5FcLhC3BtbKr9z",
        "images" : [ {
          "height" : 640,
          "url" : "https://i.scdn.co/image/ab67616d0000b273aa5abb4221a953c233d348d5",
          "width" : 640
        }, {
          "height" : 300,
          "url" : "https://i.scdn.co/image/ab67616d00001e02aa5abb4221a953c233d348d5",
          "width" : 300
        }, {
          "height" : 64,
          "url" : "https://i.scdn.co/image/ab67616d00004851aa5abb4221a953c233d348d5",
          "width" : 64
        } ],
        "name" : "Sing It Now: Songs Of Faith & Hope",
        "release_date" : "2017-02-03",
        "release_date_precision" : "day",
        "total_tracks" : 20,
        "type" : "album",
        "uri" : "spotify:album:3zSyGvLk5FcLhC3BtbKr9z"
      },
      "artists" : [ {
        "external_urls" : {
          "spotify" : "https://open.spotify.com/artist/02rd0anEWfMtF7iMku9uor"
        },
        "href" : "https://api.spotify.com/v1/artists/02rd0anEWfMtF7iMku9uor",
        "id" : "02rd0anEWfMtF7iMku9uor",
        "name" : "Reba McEntire",
        "type" : "artist",
        "uri" : "spotify:artist:02rd0anEWfMtF7iMku9uor"
      } ],
      "disc_number" : 1,
      "duration_ms" : 126293,
      "explicit" : false,
      "external_ids" : {
        "isrc" : "QM7U91601186"
      },
      "external_urls" : {
        "spotify" : "https://open.spotify.com/track/3iLgazsyfqMDrDp13mCdN8"
      },
      "href" : "https://api.spotify.com/v1/tracks/3iLgazsyfqMDrDp13mCdN8",
      "id" : "3iLgazsyfqMDrDp13mCdN8",
      "is_local" : false,
      "is_playable" : true,
      "name" : "Jesus Loves Me",
      "popularity" : 31,
      "preview_url" : null,
      "track_number" : 1,
      "type" : "track",
      "uri" : "spotify:track:3iLgazsyfqMDrDp13mCdN8"
    }, {
      "album" : {
        "album_type" : "album",
        "artists" : [ {
          "external_urls" : {
            "spotify" : "https://open.spotify.com/artist/7GkPZD0O1btf2e5dtRZyfI"
          },
          "href" : "https://api.spotify.com/v1/artists/7GkPZD0O1btf2e5dtRZyfI",
          "id" : "7GkPZD0O1btf2e5dtRZyfI",
          "name" : "The Wonder Kids",
          "type" : "artist",
          "uri" : "spotify:artist:7GkPZD0O1btf2e5dtRZyfI"
        } ],
        "external_urls" : {
          "spotify" : "https://open.spotify.com/album/0ZsfuX82qLcGdR9jexOjtU"
        },
        "href" : "https://api.spotify.com/v1/albums/0ZsfuX82qLcGdR9jexOjtU",
        "id" : "0ZsfuX82qLcGdR9jexOjtU",
        "images" : [ {
          "height" : 640,
          "url" : "https://i.scdn.co/image/ab67616d0000b27318513f1c14f0b3fe9de186e8",
          "width" : 640
        }, {
          "height" : 300,
          "url" : "https://i.scdn.co/image/ab67616d00001e0218513f1c14f0b3fe9de186e8",
          "width" : 300
        }, {
          "height" : 64,
          "url" : "https://i.scdn.co/image/ab67616d0000485118513f1c14f0b3fe9de186e8",
          "width" : 64
        } ],
        "name" : "Jesus Loves Me",
        "release_date" : "2009-08-31",
        "release_date_precision" : "day",
        "total_tracks" : 33,
        "type" : "album",
        "uri" : "spotify:album:0ZsfuX82qLcGdR9jexOjtU"
      },
      "artists" : [ {
        "external_urls" : {
          "spotify" : "https://open.spotify.com/artist/7GkPZD0O1btf2e5dtRZyfI"
        },
        "href" : "https://api.spotify.com/v1/artists/7GkPZD0O1btf2e5dtRZyfI",
        "id" : "7GkPZD0O1btf2e5dtRZyfI",
        "name" : "The Wonder Kids",
        "type" : "artist",
        "uri" : "spotify:artist:7GkPZD0O1btf2e5dtRZyfI"
      } ],
      "disc_number" : 1,
      "duration_ms" : 112866,
      "explicit" : false,
      "external_ids" : {
        "isrc" : "ushm80951737"
      },
      "external_urls" : {
        "spotify" : "https://open.spotify.com/track/31PWSzT3e4XnjG4Kc5uSAq"
      },
      "href" : "https://api.spotify.com/v1/tracks/31PWSzT3e4XnjG4Kc5uSAq",
      "id" : "31PWSzT3e4XnjG4Kc5uSAq",
      "is_local" : false,
      "is_playable" : true,
      "name" : "Jesus Loves Me",
      "popularity" : 33,
      "preview_url" : "https://p.scdn.co/mp3-preview/1bcc2915a140171c2eeb590e4ddc4c4d64050bcb?cid=774b29d4f13844c495f206cafdad9c86",
      "track_number" : 1,
      "type" : "track",
      "uri" : "spotify:track:31PWSzT3e4XnjG4Kc5uSAq"
    }, {
      "album" : {
        "album_type" : "album",
        "artists" : [ {
          "external_urls" : {
            "spotify" : "https://open.spotify.com/artist/31Esw1yHgJZBPcRa4nUyTP"
          },
          "href" : "https://api.spotify.com/v1/artists/31Esw1yHgJZBPcRa4nUyTP",
          "id" : "31Esw1yHgJZBPcRa4nUyTP",
          "name" : "Joey + Rory",
          "type" : "artist",
          "uri" : "spotify:artist:31Esw1yHgJZBPcRa4nUyTP"
        } ],
        "external_urls" : {
          "spotify" : "https://open.spotify.com/album/1nbMMdt6wb16OSPF81yBuT"
        },
        "href" : "https://api.spotify.com/v1/albums/1nbMMdt6wb16OSPF81yBuT",
        "id" : "1nbMMdt6wb16OSPF81yBuT",
        "images" : [ {
          "height" : 640,
          "url" : "https://i.scdn.co/image/ab67616d0000b273ed8396a200fc1a19c12f051d",
          "width" : 640
        }, {
          "height" : 300,
          "url" : "https://i.scdn.co/image/ab67616d00001e02ed8396a200fc1a19c12f051d",
          "width" : 300
        }, {
          "height" : 64,
          "url" : "https://i.scdn.co/image/ab67616d00004851ed8396a200fc1a19c12f051d",
          "width" : 64
        } ],
        "name" : "Hymns",
        "release_date" : "2016-02-12",
        "release_date_precision" : "day",
        "total_tracks" : 13,
        "type" : "album",
        "uri" : "spotify:album:1nbMMdt6wb16OSPF81yBuT"
      },
      "artists" : [ {
        "external_urls" : {
          "spotify" : "https://open.spotify.com/artist/31Esw1yHgJZBPcRa4nUyTP"
        },
        "href" : "https://api.spotify.com/v1/artists/31Esw1yHgJZBPcRa4nUyTP",
        "id" : "31Esw1yHgJZBPcRa4nUyTP",
        "name" : "Joey + Rory",
        "type" : "artist",
        "uri" : "spotify:artist:31Esw1yHgJZBPcRa4nUyTP"
      } ],
      "disc_number" : 1,
      "duration_ms" : 145840,
      "explicit" : false,
      "external_ids" : {
        "isrc" : "QMFDU1600005"
      },
      "external_urls" : {
        "spotify" : "https://open.spotify.com/track/6d2p4DtNaPWQcl313Ss8zH"
      },
      "href" : "https://api.spotify.com/v1/tracks/6d2p4DtNaPWQcl313Ss8zH",
      "id" : "6d2p4DtNaPWQcl313Ss8zH",
      "is_local" : false,
      "is_playable" : true,
      "name" : "Jesus Loves Me",
      "popularity" : 30,
      "preview_url" : null,
      "track_number" : 5,
      "type" : "track",
      "uri" : "spotify:track:6d2p4DtNaPWQcl313Ss8zH"
    }, {
      "album" : {
        "album_type" : "album",
        "artists" : [ {
          "external_urls" : {
            "spotify" : "https://open.spotify.com/artist/2szp9EHFXhBSuS3PmZwqvg"
          },
          "href" : "https://api.spotify.com/v1/artists/2szp9EHFXhBSuS3PmZwqvg",
          "id" : "2szp9EHFXhBSuS3PmZwqvg",
          "name" : "The O'Neill Brothers",
          "type" : "artist",
          "uri" : "spotify:artist:2szp9EHFXhBSuS3PmZwqvg"
        } ],
        "external_urls" : {
          "spotify" : "https://open.spotify.com/album/4SrfBtZBtz2OFJqE9mrLby"
        },
        "href" : "https://api.spotify.com/v1/albums/4SrfBtZBtz2OFJqE9mrLby",
        "id" : "4SrfBtZBtz2OFJqE9mrLby",
        "images" : [ {
          "height" : 640,
          "url" : "https://i.scdn.co/image/ab67616d0000b2736207cb3eb4cdb35a025aafd3",
          "width" : 640
        }, {
          "height" : 300,
          "url" : "https://i.scdn.co/image/ab67616d00001e026207cb3eb4cdb35a025aafd3",
          "width" : 300
        }, {
          "height" : 64,
          "url" : "https://i.scdn.co/image/ab67616d000048516207cb3eb4cdb35a025aafd3",
          "width" : 64
        } ],
        "name" : "Soothing Lullaby Piano Collection",
        "release_date" : "2017-01-23",
        "release_date_precision" : "day",
        "total_tracks" : 19,
        "type" : "album",
        "uri" : "spotify:album:4SrfBtZBtz2OFJqE9mrLby"
      },
      "artists" : [ {
        "external_urls" : {
          "spotify" : "https://open.spotify.com/artist/2szp9EHFXhBSuS3PmZwqvg"
        },
        "href" : "https://api.spotify.com/v1/artists/2szp9EHFXhBSuS3PmZwqvg",
        "id" : "2szp9EHFXhBSuS3PmZwqvg",
        "name" : "The O'Neill Brothers",
        "type" : "artist",
        "uri" : "spotify:artist:2szp9EHFXhBSuS3PmZwqvg"
      } ],
      "disc_number" : 1,
      "duration_ms" : 219475,
      "explicit" : false,
      "external_ids" : {
        "isrc" : "TCACX1705453"
      },
      "external_urls" : {
        "spotify" : "https://open.spotify.com/track/0afZmsyieIt6McU0Jlk4E9"
      },
      "href" : "https://api.spotify.com/v1/tracks/0afZmsyieIt6McU0Jlk4E9",
      "id" : "0afZmsyieIt6McU0Jlk4E9",
      "is_local" : false,
      "is_playable" : true,
      "name" : "Jesus Loves Me (Instrumental Version)",
      "popularity" : 44,
      "preview_url" : "https://p.scdn.co/mp3-preview/3911a43cbe5920edf223623fd722b9e1c01042fe?cid=774b29d4f13844c495f206cafdad9c86",
      "track_number" : 4,
      "type" : "track",
      "uri" : "spotify:track:0afZmsyieIt6McU0Jlk4E9"
    } ],
    "limit" : 10,
    "next" : "https://api.spotify.com/v1/search?query=Jesus+Loves+Me&type=track&market=US&offset=15&limit=10",
    "offset" : 5,
    "previous" : "https://api.spotify.com/v1/search?query=Jesus+Loves+Me&type=track&market=US&offset=0&limit=10",
    "total" : 4146
  }
}