{
  "tracks" : {
    "href" : "https://api.spotify.com/v1/search?query=God+Be+With+You&type=track&market=US&offset=5&limit=10",
    "items" : [ {
      "album" : {
        "album_type" : "album",
        "artists" : [ {
          "external_urls" : {
            "spotify" : "https://open.spotify.com/artist/7FQRbf8gbKw8KZQZAJWxH2"
          },
          "href" : "https://api.spotify.com/v1/artists/7FQRbf8gbKw8KZQZAJWxH2",
          "id" : "7FQRbf8gbKw8KZQZAJWxH2",
          "name" : "Paul Cardall",
          "type" : "artist",
          "uri" : "spotify:artist:7FQRbf8gbKw8KZQZAJWxH2"
        } ],
        "external_urls" : {
          "spotify" : "https://open.spotify.com/album/5bUjErybgeeTCua9Oeg1xw"
        },
        "href" : "https://api.spotify.com/v1/albums/5bUjErybgeeTCua9Oeg1xw",
        "id" : "5bUjErybgeeTCua9Oeg1xw",
        "images" : [ {
          "height" : 640,
          "url" : "https://i.scdn.co/image/ab67616d0000b2735e3f8dabf854285ad7e3da35",
          "width" : 640
        }, {
          "height" : 300,
          "url" : "https://i.scdn.co/image/ab67616d00001e025e3f8dabf854285ad7e3da35",
          "width" : 300
        }, {
          "height" : 64,
          "url" : "https://i.scdn.co/image/ab67616d000048515e3f8dabf854285ad7e3da35",
          "width" : 64
        } ],
        "name" : "40 Hymns for Forty Days",
        "release_date" : "2015-04-14",
        "release_date_precision" : "day",
        "total_tracks" : 40,
        "type" : "album",
        "uri" : "spotify:album:5bUjErybgeeTCua9Oeg1xw"
      },
      "artists" : [ {
        "external_urls" : {
          "spotify" : "https://open.spotify.com/artist/7FQRbf8gbKw8KZQZAJWxH2"
        },
        "href" : "https://api.spotify.com/v1/artists/7FQRbf8gbKw8KZQZAJWxH2",
        "id" : "7FQRbf8gbKw8KZQZAJWxH2",
        "name" : "Paul Cardall",
        "type" : "artist",
        "uri" : "spotify:artist:7FQRbf8gbKw8KZQZAJWxH2"
      } ],
      "disc_number" : 2,
      "duration_ms" : 200960,
      "explicit" : false,
      "external_ids" : {
        "isrc" : "uscgh1553156"
      },
      "external_urls" : {
        "spotify" : "https://open.spotify.com/track/2ErBYyQ55EGaKJg3cETRFO"
      },
      "href" : "https://api.spotify.com/v1/tracks/2ErBYyQ55EGaKJg3cETRFO",
      "id" : "2ErBYyQ55EGaKJg3cETRFO",
      "is_local" : false,
      "is_playable" : true,
      "name" : "God Be With You 'Till We Meet Again",
      "popularity" : 29,
      "preview_url" : "https://p.scdn.co/mp3-preview/39bd69fdf89c66f38087b12274a073b92c7ea232?cid=774b29d4f13844c495f206cafdad9c86",
      "track_number" : 13,
      "type" : "track",
      "uri" : "spotify:track:2ErBYyQ55EGaKJg3cETRFO"
    }, {
      "album" : {
        "album_type" : "album",
        "artists" : [ {
          "external_urls" : {
            "spotify" : "https://open.spotify.com/artist/3OvrUspbOHgGI6T7D5Fb6P"
          },
          "href" : "https://api.spotify.com/v1/artists/3OvrUspbOHgGI6T7D5Fb6P",
          "id" : "3OvrUspbOHgGI6T7D5Fb6P",
          "name" : "David Tolk",
          "type" : "artist",
          "uri" : "spotify:artist:3OvrUspbOHgGI6T7D5Fb6P"
        } ],
        "external_urls" : {
          "spotify" : "https://open.spotify.com/album/6GSgtoRRbRzR5zooxVCL7j"
        },
        "href" : "https://api.spotify.com/v1/albums/6GSgtoRRbRzR5zooxVCL7j",
        "id" : "6GSgtoRRbRzR5zooxVCL7j",
        "images" : [ {
          "height" : 640,
          "url" : "https://i.scdn.co/image/ab67616d0000b273676879a79339f0a158869c51",
          "width" : 640
        }, {
          "height" : 300,
          "url" : "https://i.scdn.co/image/ab67616d00001e02676879a79339f0a158869c51",
          "width" : 300
        }, {
          "height" : 64,
          "url" : "https://i.scdn.co/image/ab67616d00004851676879a79339f0a158869c51",
          "width" : 64
        } ],
        "name" : "In Reverence",
        "release_date" : "2006-10-26",
        "release_date_precision" : "day",
        "total_tracks" : 10,
        "type" : "album",
        "uri" : "spotify:album:6GSgtoRRbRzR5zooxVCL7j"
      },
      "artists" : [ {
        "external_urls" : {
          "spotify" : "https://open.spotify.com/artist/3OvrUspbOHgGI6T7D5Fb6P"
        },
        "href" : "https://api.spotify.com/v1/artists/3OvrUspbOHgGI6T7D5Fb6P",
        "id" : "3OvrUspbOHgGI6T7D5Fb6P",
        "name" : "David Tolk",
        "type" : "artist",
        "uri" : "spotify:artist:3OvrUspbOHgGI6T7D5Fb6P"
      } ],
      "disc_number" : 1,
      "duration_ms" : 315680,
      "explicit" : false,
      "external_ids" : {
        "isrc" : "ushm90657836"
      },
      "external_urls" : {
        "spotify" : "https://open.spotify.com/track/05UmM70BB61NS9D6qyGUFS"
      },
      "href" : "https://api.spotify.com/v1/tracks/05UmM70BB61NS9D6qyGUFS",
      "id" : "05UmM70BB61NS9D6qyGUFS",
      "is_local" : false,
      "is_playable" : true,
      "name" : "God Be With You Till We Meet Again",
      "popularity" : 28,
      "preview_url" : "https://p.scdn.co/mp3-preview/6c38fba21445560a9539818ea3bb38b4845cf8d7?cid=774b29d4f13844c495f206cafdad9c86",
      "track_number" : 7,
      "type" : "track",
      "uri" : "spotify:track:05UmM70BB61NS9D6qyGUFS"
    }, {
      "album" : {
        "album_type" : "album",
        "artists" : [ {
          "external_urls" : {
            "spotify" : "https://open.spotify.com/artist/2duo4NJtUrLaI38trK0hht"
          },
          "href" : "https://api.spotify.com/v1/artists/2duo4NJtUrLaI38trK0hht",
          "id" : "2duo4NJtUrLaI38trK0hht",
          "name" : "Mormon Tabernacle Choir",
          "type" : "artist",
          "uri" : "spotify:artist:2duo4NJtUrLaI38trK0hht"
        } ],
        "external_urls" : {
          "spotify" : "https://open.spotify.com/album/235O9JdWj2FxUFXdjl22lo"
        },
        "href" : "https://api.spotify.com/v1/albums/235O9JdWj2FxUFXdjl22lo",
        "id" : "235O9JdWj2FxUFXdjl22lo",
        "images" : [ {
          "height" : 640,
          "url" : "https://i.scdn.co/image/ab67616d0000b273923fcab6bee801b9f9f649a6",
          "width" : 640
        }, {
          "height" : 300,
          "url" : "https://i.scdn.co/image/ab67616d00001e02923fcab6bee801b9f9f649a6",
          "width" : 300
        }, {
          "height" : 64,
          "url" : "https://i.scdn.co/image/ab67616d00004851923fcab6bee801b9f9f649a6",
          "width" : 64
        } ],
        "name" : "Rock of Ages - 30 Favorite Hymns (with The Philadelphia Brass Ensemble & Percussion & Alexander Schreiner)",
        "release_date" : "1960",
        "release_date_precision" : "year",
        "total_tracks" : 30,
        "type" : "album",
        "uri" : "spotify:album:235O9JdWj2FxUFXdjl22lo"
      },
      "artists" : [ {
        "external_urls" : {
          "spotify" : "https://open.spotify.com/artist/7IDU8IN8mhVzQeDapp6xCR"
        },
        "href" : "https://api.spotify.com/v1/artists/7IDU8IN8mhVzQeDapp6xCR",
        "id" : "7IDU8IN8mhVzQeDapp6xCR",
        "name" : "WILLIAM G. TOMER",
        "type" : "artist",
        "uri" : "spotify:artist:7IDU8IN8mhVzQeDapp6xCR"
      }, {
        "external_urls" : {
          "spotify" : "https://open.spotify.com/artist/2duo4NJtUrLaI38trK0hht"
        },
        "href" : "https://api.spotify.com/v1/artists/2duo4NJtUrLaI38trK0hht",
        "id" : "2duo4NJtUrLaI38trK0hht",
        "name" : "Mormon Tabernacle Choir",
        "type" : "artist",
        "uri" : "spotify:artist:2duo4NJtUrLaI38trK0hht"
      }, {
        "external_urls" : {
          "spotify" : "https://open.spotify.com/artist/7msm7itiMt8EnLLTBDTp3H"
        },
        "href" : "https://api.spotify.com/v1/artists/7msm7itiMt8EnLLTBDTp3H",
        "id" : "7msm7itiMt8EnLLTBDTp3H",
        "name" : "Richard P. Condie",
        "type" : "artist",
        "uri" : "spotify:artist:7msm7itiMt8EnLLTBDTp3H"
      }, {
        "external_urls" : {
          "spotify" : "https://open.spotify.com/artist/65dK30YxV8h1n7VSAhTiUi"
        },
        "href" : "https://api.spotify.com/v1/artists/65dK30YxV8h1n7VSAhTiUi",
        "id" : "65dK30YxV8h1n7VSAhTiUi",
        "name" : "Alexander Schreiner",
        "type" : "artist",
        "uri" : "spotify:artist:65dK30YxV8h1n7VSAhTiUi"
      }, {
        "external_urls" : {
          "spotify" : "https://open.spotify.com/artist/3lOftQQkjrA48AxTX7lJcv"
        },
        "href" : "https://api.spotify.com/v1/artists/3lOftQQkjrA48AxTX7lJcv",
        "id" : "3lOftQQkjrA48AxTX7lJcv",
        "name" : "The Philadelphia Brass Ensemble & Percussion",
        "type" : "artist",
        "uri" : "spotify:artist:3lOftQQkjrA48AxTX7lJcv"
      } ],
      "disc_number" : 1,
      "duration_ms" : 88306,
      "explicit" : false,
      "external_ids" : {
        "isrc" : "USSM16901059"
      },
      "external_urls" : {
        "spotify" : "https://open.spotify.com/track/6XCd7UoFKZandXQTnHoOpL"
      },
      "href" : "https://api.spotify.com/v1/tracks/6XCd7UoFKZandXQTnHoOpL",
      "id" : "6XCd7UoFKZandXQTnHoOpL",
      "is_local" : false,
      "is_playable" : true,
      "name" : "God Be With You {Till We Meet Again - }Voice",
      "popularity" : 25,
      "preview_url" : "https://p.scdn.co/mp3-preview/863a8aeea59050786d61ab18ec0a5e33912b65b3?cid=774b29d4f13844c495f206cafdad9c86",
      "track_number" : 22,
      "type" : "track",
      "uri" : "spotify:track:6XCd7UoFKZandXQTnHoOpL"
    }, {
      "album" : {
        "album_type" : "album",
        "artists" : [ {
          "external_urls" : {
            "spotify" : "https://open.spotify.com/artist/67CqEIMpWuNb6MnpTKjlFv"
          },
          "href" : "https://api.spotify.com/v1/artists/67CqEIMpWuNb6MnpTKjlFv",
          "id" : "67CqEIMpWuNb6MnpTKjlFv",
          "name" : "Steven Sharp Nelson",
          "type" : "artist",
          "uri" : "spotify:artist:67CqEIMpWuNb6MnpTKjlFv"
        } ],
        "external_urls" : {
          "spotify" : "https://open.spotify.com/album/2tTBcYqNu4fYrrPcXUmguM"
        },
        "href" : "https://api.spotify.com/v1/albums/2tTBcYqNu4fYrrPcXUmguM",
        "id" : "2tTBcYqNu4fYrrPcXUmguM",
        "images" : [ {
          "height" : 640,
          "url" : "https://i.scdn.co/image/ab67616d0000b273086eb74ec9ccd1a7682d611d",
          "width" : 640
        }, {
          "height" : 300,
          "url" : "https://i.scdn.co/image/ab67616d00001e02086eb74ec9ccd1a7682d611d",
          "width" : 300
        }, {
          "height" : 64,
          "url" : "https://i.scdn.co/image/ab67616d00004851086eb74ec9ccd1a7682d611d",
          "width" : 64
        } ],
        "name" : "Grace: A Sacred Cello Collection",
        "release_date" : "2014-03-04",
        "release_date_precision" : "day",
        "total_tracks" : 12,
        "type" : "album",
        "uri" : "spotify:album:2tTBcYqNu4fYrrPcXUmguM"
      },
      "artists" : [ {
        "external_urls" : {
          "spotify" : "https://open.spotify.com/artist/67CqEIMpWuNb6MnpTKjlFv"
        },
        "href" : "https://api.spotify.com/v1/artists/67CqEIMpWuNb6MnpTKjlFv",
        "id" : "67CqEIMpWuNb6MnpTKjlFv",
        "name" : "Steven Sharp Nelson",
        "type" : "artist",
        "uri" : "spotify:artist:67CqEIMpWuNb6MnpTKjlFv"
      }, {
        "external_urls" : {
          "spotify" : "https://open.spotify.com/artist/7FQRbf8gbKw8KZQZAJWxH2"
        },
        "href" : "https://api.spotify.com/v1/artists/7FQRbf8gbKw8KZQZAJWxH2",
        "id" : "7FQRbf8gbKw8KZQZAJWxH2",
        "name" : "Paul Cardall",
        "type" : "artist",
        "uri" : "spotify:artist:7FQRbf8gbKw8KZQZAJWxH2"
      } ],
      "disc_number" : 1,
      "duration_ms" : 269950,
      "explicit" : false,
      "external_ids" : {
        "isrc" : "uscgh1469543"
      },
      "external_urls" : {
        "spotify" : "https://open.spotify.com/track/4Rr0nP5WhdCG6Uhi9h1HM4"
      },
      "href" : "https://api.spotify.com/v1/tracks/4Rr0nP5WhdCG6Uhi9h1HM4",
      "id" : "4Rr0nP5WhdCG6Uhi9h1HM4",
      "is_local" : false,
      "is_playable" : true,
      "name" : "God Be With You (feat. Paul Cardall)",
      "popularity" : 25,
      "preview_url" : "https://p.scdn.co/mp3-preview/b8b811db535309c48e028aba699e7678ea9e304e?cid=774b29d4f13844c495f206cafdad9c86",
      "track_number" : 12,
      "type" : "track",
      "uri" : "spotify:track:4Rr0nP5WhdCG6Uhi9h1HM4"
    }, {
      "album" : {
        "album_type" : "album",
        "artists" : [ {
          "external_urls" : {
            "spotify" : "https://open.spotify.com/artist/5dZiRoY9Vpp6qrxqXNRwPE"
          },
          "href" : "https://api.spotify.com/v1/artists/5dZiRoY9Vpp6qrxqXNRwPE",
          "id" : "5dZiRoY9Vpp6qrxqXNRwPE",
          "name" : "Selah",
          "type" : "artist",
          "uri" : "spotify:artist:5dZiRoY9Vpp6qrxqXNRwPE"
        } ],
        "external_urls" : {
          "spotify" : "https://open.spotify.com/album/47BVtVrvqiwEAOYYzeOcnk"
        },
        "href" : "https://api.spotify.com/v1/albums/47BVtVrvqiwEAOYYzeOcnk",
        "id" : "47BVtVrvqiwEAOYYzeOcnk",
        "images" : [ {
          "height" : 640,
          "url" : "https://i.scdn.co/image/ab67616d0000b273dedfabd64ca3bef168c7aa46",
          "width" : 640
        }, {
          "height" : 300,
          "url" : "https://i.scdn.co/image/ab67616d00001e02dedfabd64ca3bef168c7aa46",
          "width" : 300
        }, {
          "height" : 64,
          "url" : "https://i.scdn.co/image/ab67616d00004851dedfabd64ca3bef168c7aa46",
          "width" : 64
        } ],
        "name" : "You Deliver Me",
        "release_date" : "2009-08-25",
        "release_date_precision" : "day",
        "total_tracks" : 15,
        "type" : "album",
        "uri" : "spotify:album:47BVtVrvqiwEAOYYzeOcnk"
      },
      "artists" : [ {
        "external_urls" : {
          "spotify" : "https://open.spotify.com/artist/5dZiRoY9Vpp6qrxqXNRwPE"
        },
        "href" : "https://api.spotify.com/v1/artists/5dZiRoY9Vpp6qrxqXNRwPE",
        "id" : "5dZiRoY9Vpp6qrxqXNRwPE",
        "name" : "Selah",
        "type" : "artist",
        "uri" : "spotify:artist:5dZiRoY9Vpp6qrxqXNRwPE"
      } ],
      "disc_number" : 1,
      "duration_ms" : 197960,
      "explicit" : false,
      "external_ids" : {
        "isrc" : "USCRB0908670"
      },
      "external_urls" : {
        "spotify" : "https://open.spotify.com/track/2Pp6Qnl44YT7GognuSX9QN"
      },
      "href" : "https://api.spotify.com/v1/tracks/2Pp6Qnl44YT7GognuSX9QN",
      "id" : "2Pp6Qnl44YT7GognuSX9QN",
      "is_local" : false,
      "is_playable" : true,
      "name" : "God Be With You",
      "popularity" : 23,
      "preview_url" : "https://p.scdn.co/mp3-preview/cdebab84949af98b20ac0b620c853f79b86f43bc?cid=774b29d4f13844c495f206cafdad9c86",
      "track_number" : 14,
      "type" : "track",
      "uri" : "spotify:track:2Pp6Qnl44YT7GognuSX9QN"
    }, {
      "album" : {
        "album_type" : "album",
        "artists" : [ {
          "external_urls" : {
            "spotify" : "https://open.spotify.com/artist/4sk2zZdhVRMhb1BEtcxUKf"
          },
          "href" : "https://api.spotify.com/v1/artists/4sk2zZdhVRMhb1BEtcxUKf",
          "id" : "4sk2zZdhVRMhb1BEtcxUKf",
          "name" : "GENTRI",
          "type" : "artist",
          "uri" : "spotify:artist:4sk2zZdhVRMhb1BEtcxUKf"
        } ],
        "external_urls" : {
          "spotify" : "https://open.spotify.com/album/242xPrRwxpbngf91ezaxU3"
        },
        "href" : "https://api.spotify.com/v1/albums/242xPrRwxpbngf91ezaxU3",
        "id" : "242xPrRwxpbngf91ezaxU3",
        "images" : [ {
          "height" : 640,
          "url" : "https://i.scdn.co/image/ab67616d0000b273fb2dbb940c1d889b11250edc",
          "width" : 640
        }, {
          "height" : 300,
          "url" : "https://i.scdn.co/image/ab67616d00001e02fb2dbb940c1d889b11250edc",
          "width" : 300
        }, {
          "height" : 64,
          "url" : "https://i.scdn.co/image/ab67616d00004851fb2dbb940c1d889b11250edc",
          "width" : 64
        } ],
        "name" : "Hymns",
        "release_date" : "2018-01-12",
        "release_date_precision" : "day",
        "total_tracks" : 12,
        "type" : "album",
        "uri" : "spotify:album:242xPrRwxpbngf91ezaxU3"
      },
      "artists" : [ {
        "external_urls" : {
          "spotify" : "https://open.spotify.com/artist/4sk2zZdhVRMhb1BEtcxUKf"
        },
        "href" : "https://api.spotify.com/v1/artists/4sk2zZdhVRMhb1BEtcxUKf",
        "id" : "4sk2zZdhVRMhb1BEtcxUKf",
        "name" : "GENTRI",
        "type" : "artist",
        "uri" : "spotify:artist:4sk2zZdhVRMhb1BEtcxUKf"
      } ],
      "disc_number" : 1,
      "duration_ms" : 252533,
      "explicit" : false,
      "external_ids" : {
        "isrc" : "US23M1700081"
      },
      "external_urls" : {
        "spotify" : "https://open.spotify.com/track/3mtSThRbN2riKh6G3Oz37o"
      },
      "href" : "https://api.spotify.com/v1/tracks/3mtSThRbN2riKh6G3Oz37o",
      "id" : "3mtSThRbN2riKh6G3Oz37o",
      "is_local" : false,
      "is_playable" : true,
      "name" : "God Be with You Till We Meet Again",
      "popularity" : 23,
      "preview_url" : "https://p.scdn.co/mp3-preview/0e86a56c4e089755d1ba70fbba797659eb0256a3?cid=774b29d4f13844c495f206cafdad9c86",
      "track_number" : 12,
      "type" : "track",
      "uri" : "spotify:track:3mtSThRbN2riKh6G3Oz37o"
    }, {
      "album" : {
        "album_type" : "album",
        "artists" : [ {
          "external_urls" : {
            "spotify" : "https://open.spotify.com/artist/6jjuxOU1va94mNHZpHTdWn"
          },
          "href" : "https://api.spotify.com/v1/artists/6jjuxOU1va94mNHZpHTdWn",
          "id" : "6jjuxOU1va94mNHZpHTdWn",
          "name" : "Michael Ethington",
          "type" : "artist",
          "uri" : "spotify:artist:6jjuxOU1va94mNHZpHTdWn"
        } ],
        "external_urls" : {
          "spotify" : "https://open.spotify.com/album/23QhAd7IsendqPyLF0tVuU"
        },
        "href" : "https://api.spotify.com/v1/albums/23QhAd7IsendqPyLF0tVuU",
        "id" : "23QhAd7IsendqPyLF0tVuU",
        "images" : [ {
          "height" : 640,
          "url" : "https://i.scdn.co/image/ab67616d0000b273597a0035ee55b6f1d512e4d4",
          "width" : 640
        }, {
          "height" : 300,
          "url" : "https://i.scdn.co/image/ab67616d00001e02597a0035ee55b6f1d512e4d4",
          "width" : 300
        }, {
          "height" : 64,
          "url" : "https://i.scdn.co/image/ab67616d00004851597a0035ee55b6f1d512e4d4",
          "width" : 64
        } ],
        "name" : "BECOME",
        "release_date" : "2011-12-01",
        "release_date_precision" : "day",
        "total_tracks" : 13,
        "type" : "album",
        "uri" : "spotify:album:23QhAd7IsendqPyLF0tVuU"
      },
      "artists" : [ {
        "external_urls" : {
          "spotify" : "https://open.spotify.com/artist/6jjuxOU1va94mNHZpHTdWn"
        },
        "href" : "https://api.spotify.com/v1/artists/6jjuxOU1va94mNHZpHTdWn",
        "id" : "6jjuxOU1va94mNHZpHTdWn",
        "name" : "Michael Ethington",
        "type" : "artist",
        "uri" : "spotify:artist:6jjuxOU1va94mNHZpHTdWn"
      } ],
      "disc_number" : 1,
      "duration_ms" : 371480,
      "explicit" : false,
      "external_ids" : {
        "isrc" : "ushm91180675"
      },
      "external_urls" : {
        "spotify" : "https://open.spotify.com/track/6Zlq2ycZesyMSPeXTMotrl"
      },
      "href" : "https://api.spotify.com/v1/tracks/6Zlq2ycZesyMSPeXTMotrl",
      "id" : "6Zlq2ycZesyMSPeXTMotrl",
      "is_local" : false,
      "is_playable" : true,
      "name" : "God Be with You Till We Meet Again",
      "popularity" : 22,
      "preview_url" : "https://p.scdn.co/mp3-preview/a3f728ba4c116a0745a96c70226cca7a46c357a3?cid=774b29d4f13844c495f206cafdad9c86",
      "track_number" : 13,
      "type" : "track",
      "uri" : "spotify:track:6Zlq2ycZesyMSPeXTMotrl"
    }, {
      "album" : {
        "album_type" : "album",
        "artists" : [ {
          "external_urls" : {
            "spotify" : "https://open.spotify.com/artist/2duo4NJtUrLaI38trK0hht"
          },
          "href" : "https://api.spotify.com/v1/artists/2duo4NJtUrLaI38trK0hht",
          "id" : "2duo4NJtUrLaI38trK0hht",
          "name" : "Mormon Tabernacle Choir",
          "type" : "artist",
          "uri" : "spotify:artist:2duo4NJtUrLaI38trK0hht"
        }, {
          "external_urls" : {
            "spotify" : "https://open.spotify.com/artist/4kAIRZipPTtTbZBTudxcEA"
          },
          "href" : "https://api.spotify.com/v1/artists/4kAIRZipPTtTbZBTudxcEA",
          "id" : "4kAIRZipPTtTbZBTudxcEA",
          "name" : "Orchestra at Temple Square",
          "type" : "artist",
          "uri" : "spotify:artist:4kAIRZipPTtTbZBTudxcEA"
        } ],
        "external_urls" : {
          "spotify" : "https://open.spotify.com/album/74aMZqsjTLXepcAQDgwJck"
        },
        "href" : "https://api.spotify.com/v1/albums/74aMZqsjTLXepcAQDgwJck",
        "id" : "74aMZqsjTLXepcAQDgwJck",
        "images" : [ {
          "height" : 640,
          "url" : "https://i.scdn.co/image/ab67616d0000b2731a46fc2caf06c4ad26e34fd2",
          "width" : 640
        }, {
          "height" : 300,
          "url" : "https://i.scdn.co/image/ab67616d00001e021a46fc2caf06c4ad26e34fd2",
          "width" : 300
        }, {
          "height" : 64,
          "url" : "https://i.scdn.co/image/ab67616d000048511a46fc2caf06c4ad26e34fd2",
          "width" : 64
        } ],
        "name" : "Called to Serve",
        "release_date" : "2008-01-01",
        "release_date_precision" : "day",
        "total_tracks" : 15,
        "type" : "album",
        "uri" : "spotify:album:74aMZqsjTLXepcAQDgwJck"
      },
      "artists" : [ {
        "external_urls" : {
          "spotify" : "https://open.spotify.com/artist/2duo4NJtUrLaI38trK0hht"
        },
        "href" : "https://api.spotify.com/v1/artists/2duo4NJtUrLaI38trK0hht",
        "id" : "2duo4NJtUrLaI38trK0hht",
        "name" : "Mormon Tabernacle Choir",
        "type" : "artist",
        "uri" : "spotify:artist:2duo4NJtUrLaI38trK0hht"
      }, {
        "external_urls" : {
          "spotify" : "https://open.spotify.com/artist/4kAIRZipPTtTbZBTudxcEA"
        },
        "href" : "https://api.spotify.com/v1/artists/4kAIRZipPTtTbZBTudxcEA",
        "id" : "4kAIRZipPTtTbZBTudxcEA",
        "name" : "Orchestra at Temple Square",
        "type" : "artist",
        "uri" : "spotify:artist:4kAIRZipPTtTbZBTudxcEA"
      }, {
        "external_urls" : {
          "spotify" : "https://open.spotify.com/artist/2Zpql3RdMQjunbDKk1bIiz"
        },
        "href" : "https://api.spotify.com/v1/artists/2Zpql3RdMQjunbDKk1bIiz",
        "id" : "2Zpql3RdMQjunbDKk1bIiz",
        "name" : "Mack Wilberg",
        "type" : "artist",
        "uri" : "spotify:artist:2Zpql3RdMQjunbDKk1bIiz"
      } ],
      "disc_number" : 1,
      "duration_ms" : 165106,
      "explicit" : false,
      "external_ids" : {
        "isrc" : "US23M0800148"
      },
      "external_urls" : {
        "spotify" : "https://open.spotify.com/track/1B6tpZ8bJOqLFwsts7Z6ba"
      },
      "href" : "https://api.spotify.com/v1/tracks/1B6tpZ8bJOqLFwsts7Z6ba",
      "id" : "1B6tpZ8bJOqLFwsts7Z6ba",
      "is_local" : false,
      "is_playable" : true,
      "name" : "God Be with You Til We Meet Again",
      "popularity" : 20,
      "preview_url" : "https://p.scdn.co/mp3-preview/fc2245e8a809a3ce8703a6485db45372437efc02?cid=774b29d4f13844c495f206cafdad9c86",
      "track_number" : 14,
      "type" : "track",
      "uri" : "spotify:track:1B6tpZ8bJOqLFwsts7Z6ba"
    }, {
      "album" : {
        "album_type" : "album",
        "artists" : [ {
          "external_urls" : {
            "spotify" : "https://open.spotify.com/artist/16dGAOg7n1wfPuLLwfdwur"
          },
          "href" : "https://api.spotify.com/v1/artists/16dGAOg7n1wfPuLLwfdwur",
          "id" : "16dGAOg7n1wfPuLLwfdwur",
          "name" : "Acapeldridge",
          "type" : "artist",
          "uri" : "spotify:artist:16dGAOg7n1wfPuLLwfdwur"
        } ],
        "external_urls" : {
          "spotify" : "https://open.spotify.com/album/4DKjFIqI1lTLZzbgd3T9CJ"
        },
        "href" : "https://api.spotify.com/v1/albums/4DKjFIqI1lTLZzbgd3T9CJ",
        "id" : "4DKjFIqI1lTLZzbgd3T9CJ",
        "images" : [ {
          "height" : 640,
          "url" : "https://i.scdn.co/image/ab67616d0000b273f27ff8d21405320f151a277b",
          "width" : 640
        }, {
          "height" : 300,
          "url" : "https://i.scdn.co/image/ab67616d00001e02f27ff8d21405320f151a277b",
          "width" : 300
        }, {
          "height" : 64,
          "url" : "https://i.scdn.co/image/ab67616d00004851f27ff8d21405320f151a277b",
          "width" : 64
        } ],
        "name" : "Whatever Is Pure",
        "release_date" : "2019-11-15",
        "release_date_precision" : "day",
        "total_tracks" : 20,
        "type" : "album",
        "uri" : "spotify:album:4DKjFIqI1lTLZzbgd3T9CJ"
      },
      "artists" : [ {
        "external_urls" : {
          "spotify" : "https://open.spotify.com/artist/16dGAOg7n1wfPuLLwfdwur"
        },
        "href" : "https://api.spotify.com/v1/artists/16dGAOg7n1wfPuLLwfdwur",
        "id" : "16dGAOg7n1wfPuLLwfdwur",
        "name" : "Acapeldridge",
        "type" : "artist",
        "uri" : "spotify:artist:16dGAOg7n1wfPuLLwfdwur"
      } ],
      "disc_number" : 1,
      "duration_ms" : 201500,
      "explicit" : false,
      "external_ids" : {
        "isrc" : "usl4q1903540"
      },
      "external_urls" : {
        "spotify" : "https://open.spotify.com/track/51lhTrWI8R0cXTjaifM08k"
      },
      "href" : "https://api.spotify.com/v1/tracks/51lhTrWI8R0cXTjaifM08k",
      "id" : "51lhTrWI8R0cXTjaifM08k",
      "is_local" : false,
      "is_playable" : true,
      "name" : "God Be with You",
      "popularity" : 19,
      "preview_url" : "https://p.scdn.co/mp3-preview/c476149928652c3c8139cdbb88c6e180e1ea0282?cid=774b29d4f13844c495f206cafdad9c86",
      "track_number" : 20,
      "type" : "track",
      "uri" : "spotify:track:51lhTrWI8R0cXTjaifM08k"
    }, {
      "album" : {
        "album_type" : "album",
        "artists" : [ {
          "external_urls" : {
            "spotify" : "https://open.spotify.com/artist/7t0rwkOPGlDPEhaOcVtOt9"
          },
          "href" : "https://api.spotify.com/v1/artists/7t0rwkOPGlDPEhaOcVtOt9",
          "id" : "7t0rwkOPGlDPEhaOcVtOt9",
          "name" : "The Cranberries",
          "type" : "artist",
          "uri" : "spotify:artist:7t0rwkOPGlDPEhaOcVtOt9"
        } ],
        "external_urls" : {
          "spotify" : "https://open.spotify.com/album/6re8Qh8GMzxH92LO1xj2jU"
        },
        "href" : "https://api.spotify.com/v1/albums/6re8Qh8GMzxH92LO1xj2jU",
        "id" : "6re8Qh8GMzxH92LO1xj2jU",
        "images" : [ {
          "height" : 640,
          "url" : "https://i.scdn.co/image/ab67616d0000b27368df5df5c6797daca7464586",
          "width" : 640
        }, {
          "height" : 300,
          "url" : "https://i.scdn.co/image/ab67616d00001e0268df5df5c6797daca7464586",
          "width" : 300
        }, {
          "height" : 64,
          "url" : "https://i.scdn.co/image/ab67616d0000485168df5df5c6797daca7464586",
          "width" : 64
        } ],
        "name" : "To The Faithful Departed (The Complete Sessions 1996-1997)",
        "release_date" : "1996-04-30",
        "release_date_precision" : "day",
        "total_tracks" : 19,
        "type" : "album",
        "uri" : "spotify:album:6re8Qh8GMzxH92LO1xj2jU"
      },
      "artists" : [ {
        "external_urls" : {
          "spotify" : "https://open.spotify.com/artist/7t0rwkOPGlDPEhaOcVtOt9"
        },
        "href" : "https://api.spotify.com/v1/artists/7t0rwkOPGlDPEhaOcVtOt9",
        "id" : "7t0rwkOPGlDPEhaOcVtOt9",
        "name" : "The Cranberries",
        "type" : "artist",
        "uri" : "spotify:artist:7t0rwkOPGlDPEhaOcVtOt9"
      } ],
      "disc_number" : 1,
      "duration_ms" : 214733,
      "explicit" : false,
      "external_ids" : {
        "isrc" : "USMC10200063"
      },
      "external_urls" : {
        "spotify" : "https://open.spotify.com/track/4WfAVW7C9ddUj3j5761NJA"
      },
      "href" : "https://api.spotify.com/v1/tracks/4WfAVW7C9ddUj3j5761NJA",
      "id" : "4WfAVW7C9ddUj3j5761NJA",
      "is_local" : false,
      "is_playable" : true,
      "name" : "God Be With You - The Devil's Own/Soundtrack Version",
      "popularity" : 29,
      "preview_url" : null,
      "track_number" : 19,
      "type" : "track",
      "uri" : "spotify:track:4WfAVW7C9ddUj3j5761NJA"
    } ],
    "limit" : 10,
    "next" : "https://api.spotify.com/v1/search?query=God+Be+With+You&type=track&market=US&offset=15&limit=10",
    "offset" : 5,
    "previous" : "https://api.spotify.com/v1/search?query=God+Be+With+You&type=track&market=US&offset=0&limit=10",
    "total" : 959
  }
}