{
  "tracks" : {
    "href" : "https://api.spotify.com/v1/search?query=O+Little+Town+of+Bethlehem&type=track&market=US&offset=5&limit=10",
    "items" : [ {
      "album" : {
        "album_type" : "album",
        "artists" : [ {
          "external_urls" : {
            "spotify" : "https://open.spotify.com/artist/4FtcVLw0u7qvqrJYLHkHZn"
          },
          "href" : "https://api.spotify.com/v1/artists/4FtcVLw0u7qvqrJYLHkHZn",
          "id" : "4FtcVLw0u7qvqrJYLHkHZn",
          "name" : "Michele McLaughlin",
          "type" : "artist",
          "uri" : "spotify:artist:4FtcVLw0u7qvqrJYLHkHZn"
        } ],
        "external_urls" : {
          "spotify" : "https://open.spotify.com/album/5iE7AiFYmKjsdUEAcntqX4"
        },
        "href" : "https://api.spotify.com/v1/albums/5iE7AiFYmKjsdUEAcntqX4",
        "id" : "5iE7AiFYmKjsdUEAcntqX4",
        "images" : [ {
          "height" : 640,
          "url" : "https://i.scdn.co/image/ab67616d0000b273e3eb4c78ba16c3f4fc03d657",
          "width" : 640
        }, {
          "height" : 300,
          "url" : "https://i.scdn.co/image/ab67616d00001e02e3eb4c78ba16c3f4fc03d657",
          "width" : 300
        }, {
          "height" : 64,
          "url" : "https://i.scdn.co/image/ab67616d00004851e3eb4c78ba16c3f4fc03d657",
          "width" : 64
        } ],
        "name" : "Christmas - Plain & Simple II",
        "release_date" : "2010-10-01",
        "release_date_precision" : "day",
        "total_tracks" : 15,
        "type" : "album",
        "uri" : "spotify:album:5iE7AiFYmKjsdUEAcntqX4"
      },
      "artists" : [ {
        "external_urls" : {
          "spotify" : "https://open.spotify.com/artist/4FtcVLw0u7qvqrJYLHkHZn"
        },
        "href" : "https://api.spotify.com/v1/artists/4FtcVLw0u7qvqrJYLHkHZn",
        "id" : "4FtcVLw0u7qvqrJYLHkHZn",
        "name" : "Michele McLaughlin",
        "type" : "artist",
        "uri" : "spotify:artist:4FtcVLw0u7qvqrJYLHkHZn"
      } ],
      "disc_number" : 1,
      "duration_ms" : 158226,
      "explicit" : false,
      "external_ids" : {
        "isrc" : "ushm81084440"
      },
      "external_urls" : {
        "spotify" : "https://open.spotify.com/track/6TsGWVS5Rqhq018gkSI31E"
      },
      "href" : "https://api.spotify.com/v1/tracks/6TsGWVS5Rqhq018gkSI31E",
      "id" : "6TsGWVS5Rqhq018gkSI31E",
      "is_local" : false,
      "is_playable" : true,
      "name" : "O Little Town Of Bethlehem",
      "popularity" : 17,
      "preview_url" : "https://p.scdn.co/mp3-preview/5aa0f9b4d2726b71af328cc9d0a9a7f4e79ca67b?cid=774b29d4f13844c495f206cafdad9c86",
      "track_number" : 8,
      "type" : "track",
      "uri" : "spotify:track:6TsGWVS5Rqhq018gkSI31E"
    }, {
      "album" : {
        "album_type" : "album",
        "artists" : [ {
          "external_urls" : {
            "spotify" : "https://open.spotify.com/artist/3uaKcB7uDejFLUSGYxs5bM"
          },
          "href" : "https://api.spotify.com/v1/artists/3uaKcB7uDejFLUSGYxs5bM",
          "id" : "3uaKcB7uDejFLUSGYxs5bM",
          "name" : "The Master's Men",
          "type" : "artist",
          "uri" : "spotify:artist:3uaKcB7uDejFLUSGYxs5bM"
        } ],
        "external_urls" : {
          "spotify" : "https://open.spotify.com/album/5K5lN54zQk4TLtVEnXuYjF"
        },
        "href" : "https://api.spotify.com/v1/albums/5K5lN54zQk4TLtVEnXuYjF",
        "id" : "5K5lN54zQk4TLtVEnXuYjF",
        "images" : [ {
          "height" : 640,
          "url" : "https://i.scdn.co/image/ab67616d0000b273ba8f82efb397bea232bfc90b",
          "width" : 640
        }, {
          "height" : 300,
          "url" : "https://i.scdn.co/image/ab67616d00001e02ba8f82efb397bea232bfc90b",
          "width" : 300
        }, {
          "height" : 64,
          "url" : "https://i.scdn.co/image/ab67616d00004851ba8f82efb397bea232bfc90b",
          "width" : 64
        } ],
        "name" : "Traditional Christmas",
        "release_date" : "2010-12-01",
        "release_date_precision" : "day",
        "total_tracks" : 7,
        "type" : "album",
        "uri" : "spotify:album:5K5lN54zQk4TLtVEnXuYjF"
      },
      "artists" : [ {
        "external_urls" : {
          "spotify" : "https://open.spotify.com/artist/3uaKcB7uDejFLUSGYxs5bM"
        },
        "href" : "https://api.spotify.com/v1/artists/3uaKcB7uDejFLUSGYxs5bM",
        "id" : "3uaKcB7uDejFLUSGYxs5bM",
        "name" : "The Master's Men",
        "type" : "artist",
        "uri" : "spotify:artist:3uaKcB7uDejFLUSGYxs5bM"
      } ],
      "disc_number" : 1,
      "duration_ms" : 150466,
      "explicit" : false,
      "external_ids" : {
        "isrc" : "usx9p1023648"
      },
      "external_urls" : {
        "spotify" : "https://open.spotify.com/track/08aT39SeUbhpGAhXQC94Qu"
      },
      "href" : "https://api.spotify.com/v1/tracks/08aT39SeUbhpGAhXQC94Qu",
      "id" : "08aT39SeUbhpGAhXQC94Qu",
      "is_local" : false,
      "is_playable" : true,
      "name" : "O Little Town of Bethlehem",
      "popularity" : 19,
      "preview_url" : "https://p.scdn.co/mp3-preview/d3ca6006357c1c845602157651752a6c2e423b0e?cid=774b29d4f13844c495f206cafdad9c86",
      "track_number" : 2,
      "type" : "track",
      "uri" : "spotify:track:08aT39SeUbhpGAhXQC94Qu"
    }, {
      "album" : {
        "album_type" : "album",
        "artists" : [ {
          "external_urls" : {
            "spotify" : "https://open.spotify.com/artist/1Mxqyy3pSjf8kZZL4QVxS0"
          },
          "href" : "https://api.spotify.com/v1/artists/1Mxqyy3pSjf8kZZL4QVxS0",
          "id" : "1Mxqyy3pSjf8kZZL4QVxS0",
          "name" : "Frank Sinatra",
          "type" : "artist",
          "uri" : "spotify:artist:1Mxqyy3pSjf8kZZL4QVxS0"
        } ],
        "external_urls" : {
          "spotify" : "https://open.spotify.com/album/0ny6mZMBrYSO0s8HAKbcVq"
        },
        "href" : "https://api.spotify.com/v1/albums/0ny6mZMBrYSO0s8HAKbcVq",
        "id" : "0ny6mZMBrYSO0s8HAKbcVq",
        "images" : [ {
          "height" : 640,
          "url" : "https://i.scdn.co/image/ab67616d0000b27394fd2e614d0862bdd2592594",
          "width" : 640
        }, {
          "height" : 300,
          "url" : "https://i.scdn.co/image/ab67616d00001e0294fd2e614d0862bdd2592594",
          "width" : 300
        }, {
          "height" : 64,
          "url" : "https://i.scdn.co/image/ab67616d0000485194fd2e614d0862bdd2592594",
          "width" : 64
        } ],
        "name" : "A Jolly Christmas From Frank Sinatra",
        "release_date" : "1957-09",
        "release_date_precision" : "month",
        "total_tracks" : 15,
        "type" : "album",
        "uri" : "spotify:album:0ny6mZMBrYSO0s8HAKbcVq"
      },
      "artists" : [ {
        "external_urls" : {
          "spotify" : "https://open.spotify.com/artist/1Mxqyy3pSjf8kZZL4QVxS0"
        },
        "href" : "https://api.spotify.com/v1/artists/1Mxqyy3pSjf8kZZL4QVxS0",
        "id" : "1Mxqyy3pSjf8kZZL4QVxS0",
        "name" : "Frank Sinatra",
        "type" : "artist",
        "uri" : "spotify:artist:1Mxqyy3pSjf8kZZL4QVxS0"
      } ],
      "disc_number" : 1,
      "duration_ms" : 124440,
      "explicit" : false,
      "external_ids" : {
        "isrc" : "USCA29900557"
      },
      "external_urls" : {
        "spotify" : "https://open.spotify.com/track/53u4PToIoq0PEpl1BJYXJQ"
      },
      "href" : "https://api.spotify.com/v1/tracks/53u4PToIoq0PEpl1BJYXJQ",
      "id" : "53u4PToIoq0PEpl1BJYXJQ",
      "is_local" : false,
      "is_playable" : true,
      "name" : "O Little Town Of Bethlehem - Remastered",
      "popularity" : 21,
      "preview_url" : null,
      "track_number" : 9,
      "type" : "track",
      "uri" : "spotify:track:53u4PToIoq0PEpl1BJYXJQ"
    }, {
      "album" : {
        "album_type" : "album",
        "artists" : [ {
          "external_urls" : {
            "spotify" : "https://open.spotify.com/artist/5gYIhpLwCYoxh3V8KANZpI"
          },
          "href" : "https://api.spotify.com/v1/artists/5gYIhpLwCYoxh3V8KANZpI",
          "id" : "5gYIhpLwCYoxh3V8KANZpI",
          "name" : "Beegie Adair",
          "type" : "artist",
          "uri" : "spotify:artist:5gYIhpLwCYoxh3V8KANZpI"
        } ],
        "external_urls" : {
          "spotify" : "https://open.spotify.com/album/18ZbJ0B7OONpsM28cloOTk"
        },
        "href" : "https://api.spotify.com/v1/albums/18ZbJ0B7OONpsM28cloOTk",
        "id" : "18ZbJ0B7OONpsM28cloOTk",
        "images" : [ {
          "height" : 640,
          "url" : "https://i.scdn.co/image/ab67616d0000b2730af55c3cb86f833d58770ec9",
          "width" : 640
        }, {
          "height" : 300,
          "url" : "https://i.scdn.co/image/ab67616d00001e020af55c3cb86f833d58770ec9",
          "width" : 300
        }, {
          "height" : 64,
          "url" : "https://i.scdn.co/image/ab67616d000048510af55c3cb86f833d58770ec9",
          "width" : 64
        } ],
        "name" : "Jazz Piano Christmas",
        "release_date" : "2009-01-01",
        "release_date_precision" : "day",
        "total_tracks" : 12,
        "type" : "album",
        "uri" : "spotify:album:18ZbJ0B7OONpsM28cloOTk"
      },
      "artists" : [ {
        "external_urls" : {
          "spotify" : "https://open.spotify.com/artist/5gYIhpLwCYoxh3V8KANZpI"
        },
        "href" : "https://api.spotify.com/v1/artists/5gYIhpLwCYoxh3V8KANZpI",
        "id" : "5gYIhpLwCYoxh3V8KANZpI",
        "name" : "Beegie Adair",
        "type" : "artist",
        "uri" : "spotify:artist:5gYIhpLwCYoxh3V8KANZpI"
      } ],
      "disc_number" : 1,
      "duration_ms" : 192466,
      "explicit" : false,
      "external_ids" : {
        "isrc" : "USB4U0751478"
      },
      "external_urls" : {
        "spotify" : "https://open.spotify.com/track/4ztOa2BmRDnZPrqrUD7gjN"
      },
      "href" : "https://api.spotify.com/v1/tracks/4ztOa2BmRDnZPrqrUD7gjN",
      "id" : "4ztOa2BmRDnZPrqrUD7gjN",
      "is_local" : false,
      "is_playable" : true,
      "name" : "O Little Town Of Bethlehem / When You Wish Upon A Star Medley",
      "popularity" : 19,
      "preview_url" : null,
      "track_number" : 12,
      "type" : "track",
      "uri" : "spotify:track:4ztOa2BmRDnZPrqrUD7gjN"
    }, {
      "album" : {
        "album_type" : "album",
        "artists" : [ {
          "external_urls" : {
            "spotify" : "https://open.spotify.com/artist/0f3PsS9IQ6whvNMFFKnpjl"
          },
          "href" : "https://api.spotify.com/v1/artists/0f3PsS9IQ6whvNMFFKnpjl",
          "id" : "0f3PsS9IQ6whvNMFFKnpjl",
          "name" : "Choir of King's College, Cambridge",
          "type" : "artist",
          "uri" : "spotify:artist:0f3PsS9IQ6whvNMFFKnpjl"
        }, {
          "external_urls" : {
            "spotify" : "https://open.spotify.com/artist/0ugRf6ECGBFRCHlv9iG1No"
          },
          "href" : "https://api.spotify.com/v1/artists/0ugRf6ECGBFRCHlv9iG1No",
          "id" : "0ugRf6ECGBFRCHlv9iG1No",
          "name" : "Stephen Cleobury",
          "type" : "artist",
          "uri" : "spotify:artist:0ugRf6ECGBFRCHlv9iG1No"
        } ],
        "external_urls" : {
          "spotify" : "https://open.spotify.com/album/6Tc3jFEIS2cOYS51Iv556T"
        },
        "href" : "https://api.spotify.com/v1/albums/6Tc3jFEIS2cOYS51Iv556T",
        "id" : "6Tc3jFEIS2cOYS51Iv556T",
        "images" : [ {
          "height" : 640,
          "url" : "https://i.scdn.co/image/ab67616d0000b273f09127f05f947369dbed5252",
          "width" : 640
        }, {
          "height" : 300,
          "url" : "https://i.scdn.co/image/ab67616d00001e02f09127f05f947369dbed5252",
          "width" : 300
        }, {
          "height" : 64,
          "url" : "https://i.scdn.co/image/ab67616d00004851f09127f05f947369dbed5252",
          "width" : 64
        } ],
        "name" : "Carols from King's",
        "release_date" : "2012-12-05",
        "release_date_precision" : "day",
        "total_tracks" : 20,
        "type" : "album",
        "uri" : "spotify:album:6Tc3jFEIS2cOYS51Iv556T"
      },
      "artists" : [ {
        "external_urls" : {
          "spotify" : "https://open.spotify.com/artist/1U5zgr455OGyIkLNXvDdrf"
        },
        "href" : "https://api.spotify.com/v1/artists/1U5zgr455OGyIkLNXvDdrf",
        "id" : "1U5zgr455OGyIkLNXvDdrf",
        "name" : "Traditional",
        "type" : "artist",
        "uri" : "spotify:artist:1U5zgr455OGyIkLNXvDdrf"
      }, {
        "external_urls" : {
          "spotify" : "https://open.spotify.com/artist/0f3PsS9IQ6whvNMFFKnpjl"
        },
        "href" : "https://api.spotify.com/v1/artists/0f3PsS9IQ6whvNMFFKnpjl",
        "id" : "0f3PsS9IQ6whvNMFFKnpjl",
        "name" : "Choir of King's College, Cambridge",
        "type" : "artist",
        "uri" : "spotify:artist:0f3PsS9IQ6whvNMFFKnpjl"
      }, {
        "external_urls" : {
          "spotify" : "https://open.spotify.com/artist/0ugRf6ECGBFRCHlv9iG1No"
        },
        "href" : "https://api.spotify.com/v1/artists/0ugRf6ECGBFRCHlv9iG1No",
        "id" : "0ugRf6ECGBFRCHlv9iG1No",
        "name" : "Stephen Cleobury",
        "type" : "artist",
        "uri" : "spotify:artist:0ugRf6ECGBFRCHlv9iG1No"
      }, {
        "external_urls" : {
          "spotify" : "https://open.spotify.com/artist/25xZZmlksUhhWKjpaCYPKS"
        },
        "href" : "https://api.spotify.com/v1/artists/25xZZmlksUhhWKjpaCYPKS",
        "id" : "25xZZmlksUhhWKjpaCYPKS",
        "name" : "David Goode",
        "type" : "artist",
        "uri" : "spotify:artist:25xZZmlksUhhWKjpaCYPKS"
      } ],
      "disc_number" : 1,
      "duration_ms" : 219133,
      "explicit" : false,
      "external_ids" : {
        "isrc" : "NLY331215074"
      },
      "external_urls" : {
        "spotify" : "https://open.spotify.com/track/6k0ZDWWWmlfgHKs2aceXGt"
      },
      "href" : "https://api.spotify.com/v1/tracks/6k0ZDWWWmlfgHKs2aceXGt",
      "id" : "6k0ZDWWWmlfgHKs2aceXGt",
      "is_local" : false,
      "is_playable" : true,
      "name" : "O Little Town of Bethlehem",
      "popularity" : 17,
      "preview_url" : "https://p.scdn.co/mp3-preview/5e6851d9fb0c14186b3558beb88d6f22645d29b7?cid=774b29d4f13844c495f206cafdad9c86",
      "track_number" : 5,
      "type" : "track",
      "uri" : "spotify:track:6k0ZDWWWmlfgHKs2aceXGt"
    }, {
      "album" : {
        "album_type" : "album",
        "artists" : [ {
          "external_urls" : {
            "spotify" : "https://open.spotify.com/artist/1Mxqyy3pSjf8kZZL4QVxS0"
          },
          "href" : "https://api.spotify.com/v1/artists/1Mxqyy3pSjf8kZZL4QVxS0",
          "id" : "1Mxqyy3pSjf8kZZL4QVxS0",
          "name" : "Frank Sinatra",
          "type" : "artist",
          "uri" : "spotify:artist:1Mxqyy3pSjf8kZZL4QVxS0"
        } ],
        "external_urls" : {
          "spotify" : "https://open.spotify.com/album/4XbPmVHP7EYBMoE7ZVjKCU"
        },
        "href" : "https://api.spotify.com/v1/albums/4XbPmVHP7EYBMoE7ZVjKCU",
        "id" : "4XbPmVHP7EYBMoE7ZVjKCU",
        "images" : [ {
          "height" : 640,
          "url" : "https://i.scdn.co/image/ab67616d0000b273df1066335619efa75889bcfc",
          "width" : 640
        }, {
          "height" : 300,
          "url" : "https://i.scdn.co/image/ab67616d00001e02df1066335619efa75889bcfc",
          "width" : 300
        }, {
          "height" : 64,
          "url" : "https://i.scdn.co/image/ab67616d00004851df1066335619efa75889bcfc",
          "width" : 64
        } ],
        "name" : "Christmas Songs by Sinatra",
        "release_date" : "1994-11-08",
        "release_date_precision" : "day",
        "total_tracks" : 14,
        "type" : "album",
        "uri" : "spotify:album:4XbPmVHP7EYBMoE7ZVjKCU"
      },
      "artists" : [ {
        "external_urls" : {
          "spotify" : "https://open.spotify.com/artist/1Mxqyy3pSjf8kZZL4QVxS0"
        },
        "href" : "https://api.spotify.com/v1/artists/1Mxqyy3pSjf8kZZL4QVxS0",
        "id" : "1Mxqyy3pSjf8kZZL4QVxS0",
        "name" : "Frank Sinatra",
        "type" : "artist",
        "uri" : "spotify:artist:1Mxqyy3pSjf8kZZL4QVxS0"
      }, {
        "external_urls" : {
          "spotify" : "https://open.spotify.com/artist/0TPlgv7eySSCChc2vKRIml"
        },
        "href" : "https://api.spotify.com/v1/artists/0TPlgv7eySSCChc2vKRIml",
        "id" : "0TPlgv7eySSCChc2vKRIml",
        "name" : "Ken Lane Singers",
        "type" : "artist",
        "uri" : "spotify:artist:0TPlgv7eySSCChc2vKRIml"
      } ],
      "disc_number" : 1,
      "duration_ms" : 184986,
      "explicit" : false,
      "external_ids" : {
        "isrc" : "USSM10018230"
      },
      "external_urls" : {
        "spotify" : "https://open.spotify.com/track/64bKFxw7jm4SZ3sxt8bQZh"
      },
      "href" : "https://api.spotify.com/v1/tracks/64bKFxw7jm4SZ3sxt8bQZh",
      "id" : "64bKFxw7jm4SZ3sxt8bQZh",
      "is_local" : false,
      "is_playable" : true,
      "name" : "O Little Town of Bethlehem (with The Ken Lane Singers)",
      "popularity" : 19,
      "preview_url" : "https://p.scdn.co/mp3-preview/ece3a25751918ce4c7944eae36826c5b3b210eeb?cid=774b29d4f13844c495f206cafdad9c86",
      "track_number" : 8,
      "type" : "track",
      "uri" : "spotify:track:64bKFxw7jm4SZ3sxt8bQZh"
    }, {
      "album" : {
        "album_type" : "album",
        "artists" : [ {
          "external_urls" : {
            "spotify" : "https://open.spotify.com/artist/4iHNK0tOyZPYnBU7nGAgpQ"
          },
          "href" : "https://api.spotify.com/v1/artists/4iHNK0tOyZPYnBU7nGAgpQ",
          "id" : "4iHNK0tOyZPYnBU7nGAgpQ",
          "name" : "Mariah Carey",
          "type" : "artist",
          "uri" : "spotify:artist:4iHNK0tOyZPYnBU7nGAgpQ"
        } ],
        "external_urls" : {
          "spotify" : "https://open.spotify.com/album/6fC6BRXbuHSVobwWcwe6M7"
        },
        "href" : "https://api.spotify.com/v1/albums/6fC6BRXbuHSVobwWcwe6M7",
        "id" : "6fC6BRXbuHSVobwWcwe6M7",
        "images" : [ {
          "height" : 640,
          "url" : "https://i.scdn.co/image/ab67616d0000b2736b0ffb933792a8096637623f",
          "width" : 640
        }, {
          "height" : 300,
          "url" : "https://i.scdn.co/image/ab67616d00001e026b0ffb933792a8096637623f",
          "width" : 300
        }, {
          "height" : 64,
          "url" : "https://i.scdn.co/image/ab67616d000048516b0ffb933792a8096637623f",
          "width" : 64
        } ],
        "name" : "Merry Christmas II You",
        "release_date" : "2010-01-01",
        "release_date_precision" : "day",
        "total_tracks" : 13,
        "type" : "album",
        "uri" : "spotify:album:6fC6BRXbuHSVobwWcwe6M7"
      },
      "artists" : [ {
        "external_urls" : {
          "spotify" : "https://open.spotify.com/artist/4iHNK0tOyZPYnBU7nGAgpQ"
        },
        "href" : "https://api.spotify.com/v1/artists/4iHNK0tOyZPYnBU7nGAgpQ",
        "id" : "4iHNK0tOyZPYnBU7nGAgpQ",
        "name" : "Mariah Carey",
        "type" : "artist",
        "uri" : "spotify:artist:4iHNK0tOyZPYnBU7nGAgpQ"
      } ],
      "disc_number" : 1,
      "duration_ms" : 212426,
      "explicit" : false,
      "external_ids" : {
        "isrc" : "USUM71025600"
      },
      "external_urls" : {
        "spotify" : "https://open.spotify.com/track/43bDoIU3tAPiswrBAUInUk"
      },
      "href" : "https://api.spotify.com/v1/tracks/43bDoIU3tAPiswrBAUInUk",
      "id" : "43bDoIU3tAPiswrBAUInUk",
      "is_local" : false,
      "is_playable" : true,
      "name" : "O Little Town Of Bethlehem / Little Drummer Boy Medley",
      "popularity" : 19,
      "preview_url" : null,
      "track_number" : 3,
      "type" : "track",
      "uri" : "spotify:track:43bDoIU3tAPiswrBAUInUk"
    }, {
      "album" : {
        "album_type" : "album",
        "artists" : [ {
          "external_urls" : {
            "spotify" : "https://open.spotify.com/artist/47tuSUJMhsa3twW6wgKdIW"
          },
          "href" : "https://api.spotify.com/v1/artists/47tuSUJMhsa3twW6wgKdIW",
          "id" : "47tuSUJMhsa3twW6wgKdIW",
          "name" : "Nursery Rhymes 123",
          "type" : "artist",
          "uri" : "spotify:artist:47tuSUJMhsa3twW6wgKdIW"
        } ],
        "external_urls" : {
          "spotify" : "https://open.spotify.com/album/7IJx3GR5MZlMFIQRITAYkR"
        },
        "href" : "https://api.spotify.com/v1/albums/7IJx3GR5MZlMFIQRITAYkR",
        "id" : "7IJx3GR5MZlMFIQRITAYkR",
        "images" : [ {
          "height" : 640,
          "url" : "https://i.scdn.co/image/ab67616d0000b273513bf745cd21a910a43da76f",
          "width" : 640
        }, {
          "height" : 300,
          "url" : "https://i.scdn.co/image/ab67616d00001e02513bf745cd21a910a43da76f",
          "width" : 300
        }, {
          "height" : 64,
          "url" : "https://i.scdn.co/image/ab67616d00004851513bf745cd21a910a43da76f",
          "width" : 64
        } ],
        "name" : "Christmas Lullabies (Deluxe Edition)",
        "release_date" : "2017-11-01",
        "release_date_precision" : "day",
        "total_tracks" : 21,
        "type" : "album",
        "uri" : "spotify:album:7IJx3GR5MZlMFIQRITAYkR"
      },
      "artists" : [ {
        "external_urls" : {
          "spotify" : "https://open.spotify.com/artist/47tuSUJMhsa3twW6wgKdIW"
        },
        "href" : "https://api.spotify.com/v1/artists/47tuSUJMhsa3twW6wgKdIW",
        "id" : "47tuSUJMhsa3twW6wgKdIW",
        "name" : "Nursery Rhymes 123",
        "type" : "artist",
        "uri" : "spotify:artist:47tuSUJMhsa3twW6wgKdIW"
      } ],
      "disc_number" : 1,
      "duration_ms" : 129436,
      "explicit" : false,
      "external_ids" : {
        "isrc" : "GB83E1600080"
      },
      "external_urls" : {
        "spotify" : "https://open.spotify.com/track/7jdp1A4fnNxWaNQlEWlDMw"
      },
      "href" : "https://api.spotify.com/v1/tracks/7jdp1A4fnNxWaNQlEWlDMw",
      "id" : "7jdp1A4fnNxWaNQlEWlDMw",
      "is_local" : false,
      "is_playable" : true,
      "name" : "O Little Town of Bethlehem",
      "popularity" : 23,
      "preview_url" : "https://p.scdn.co/mp3-preview/680199ad3dc1ec435baa24f1fd8fcc9b040bf28a?cid=774b29d4f13844c495f206cafdad9c86",
      "track_number" : 7,
      "type" : "track",
      "uri" : "spotify:track:7jdp1A4fnNxWaNQlEWlDMw"
    }, {
      "album" : {
        "album_type" : "album",
        "artists" : [ {
          "external_urls" : {
            "spotify" : "https://open.spotify.com/artist/47tuSUJMhsa3twW6wgKdIW"
          },
          "href" : "https://api.spotify.com/v1/artists/47tuSUJMhsa3twW6wgKdIW",
          "id" : "47tuSUJMhsa3twW6wgKdIW",
          "name" : "Nursery Rhymes 123",
          "type" : "artist",
          "uri" : "spotify:artist:47tuSUJMhsa3twW6wgKdIW"
        } ],
        "external_urls" : {
          "spotify" : "https://open.spotify.com/album/7IJx3GR5MZlMFIQRITAYkR"
        },
        "href" : "https://api.spotify.com/v1/albums/7IJx3GR5MZlMFIQRITAYkR",
        "id" : "7IJx3GR5MZlMFIQRITAYkR",
        "images" : [ {
          "height" : 640,
          "url" : "https://i.scdn.co/image/ab67616d0000b273513bf745cd21a910a43da76f",
          "width" : 640
        }, {
          "height" : 300,
          "url" : "https://i.scdn.co/image/ab67616d00001e02513bf745cd21a910a43da76f",
          "width" : 300
        }, {
          "height" : 64,
          "url" : "https://i.scdn.co/image/ab67616d00004851513bf745cd21a910a43da76f",
          "width" : 64
        } ],
        "name" : "Christmas Lullabies (Deluxe Edition)",
        "release_date" : "2017-11-01",
        "release_date_precision" : "day",
        "total_tracks" : 21,
        "type" : "album",
        "uri" : "spotify:album:7IJx3GR5MZlMFIQRITAYkR"
      },
      "artists" : [ {
        "external_urls" : {
          "spotify" : "https://open.spotify.com/artist/47tuSUJMhsa3twW6wgKdIW"
        },
        "href" : "https://api.spotify.com/v1/artists/47tuSUJMhsa3twW6wgKdIW",
        "id" : "47tuSUJMhsa3twW6wgKdIW",
        "name" : "Nursery Rhymes 123",
        "type" : "artist",
        "uri" : "spotify:artist:47tuSUJMhsa3twW6wgKdIW"
      } ],
      "disc_number" : 1,
      "duration_ms" : 129436,
      "explicit" : false,
      "external_ids" : {
        "isrc" : "GB83E1600087"
      },
      "external_urls" : {
        "spotify" : "https://open.spotify.com/track/1HvgPlCeYP4EQMfEkeFkuu"
      },
      "href" : "https://api.spotify.com/v1/tracks/1HvgPlCeYP4EQMfEkeFkuu",
      "id" : "1HvgPlCeYP4EQMfEkeFkuu",
      "is_local" : false,
      "is_playable" : true,
      "name" : "O Little Town of Bethlehem (Instrumental Version)",
      "popularity" : 21,
      "preview_url" : "https://p.scdn.co/mp3-preview/068cbafadfd0c2dfd2f17ca0e473f5c3cfad7cf3?cid=774b29d4f13844c495f206cafdad9c86",
      "track_number" : 17,
      "type" : "track",
      "uri" : "spotify:track:1HvgPlCeYP4EQMfEkeFkuu"
    }, {
      "album" : {
        "album_type" : "album",
        "artists" : [ {
          "external_urls" : {
            "spotify" : "https://open.spotify.com/artist/4OGJOCR3m1HC87JGx8cuEQ"
          },
          "href" : "https://api.spotify.com/v1/artists/4OGJOCR3m1HC87JGx8cuEQ",
          "id" : "4OGJOCR3m1HC87JGx8cuEQ",
          "name" : "Lullaby Land",
          "type" : "artist",
          "uri" : "spotify:artist:4OGJOCR3m1HC87JGx8cuEQ"
        } ],
        "external_urls" : {
          "spotify" : "https://open.spotify.com/album/6T0Zi4WJPyjgZ42l7PbCae"
        },
        "href" : "https://api.spotify.com/v1/albums/6T0Zi4WJPyjgZ42l7PbCae",
        "id" : "6T0Zi4WJPyjgZ42l7PbCae",
        "images" : [ {
          "height" : 640,
          "url" : "https://i.scdn.co/image/ab67616d0000b2739b7fec96d162ddfc56ec5420",
          "width" : 640
        }, {
          "height" : 300,
          "url" : "https://i.scdn.co/image/ab67616d00001e029b7fec96d162ddfc56ec5420",
          "width" : 300
        }, {
          "height" : 64,
          "url" : "https://i.scdn.co/image/ab67616d000048519b7fec96d162ddfc56ec5420",
          "width" : 64
        } ],
        "name" : "Lullabies for Baby - Music Box",
        "release_date" : "2010-01-21",
        "release_date_precision" : "day",
        "total_tracks" : 12,
        "type" : "album",
        "uri" : "spotify:album:6T0Zi4WJPyjgZ42l7PbCae"
      },
      "artists" : [ {
        "external_urls" : {
          "spotify" : "https://open.spotify.com/artist/4OGJOCR3m1HC87JGx8cuEQ"
        },
        "href" : "https://api.spotify.com/v1/artists/4OGJOCR3m1HC87JGx8cuEQ",
        "id" : "4OGJOCR3m1HC87JGx8cuEQ",
        "name" : "Lullaby Land",
        "type" : "artist",
        "uri" : "spotify:artist:4OGJOCR3m1HC87JGx8cuEQ"
      } ],
      "disc_number" : 1,
      "duration_ms" : 144149,
      "explicit" : false,
      "external_ids" : {
        "isrc" : "USTCC1086668"
      },
      "external_urls" : {
        "spotify" : "https://open.spotify.com/track/4z91dIS2bPNFCWpctNfp6A"
      },
      "href" : "https://api.spotify.com/v1/tracks/4z91dIS2bPNFCWpctNfp6A",
      "id" : "4z91dIS2bPNFCWpctNfp6A",
      "is_local" : false,
      "is_playable" : true,
      "name" : "O Little Town Of Bethlehem - Music Box Lullaby",
      "popularity" : 25,
      "preview_url" : "https://p.scdn.co/mp3-preview/618af4aa23186a8a9e10275cf187b776dcb15b67?cid=774b29d4f13844c495f206cafdad9c86",
      "track_number" : 8,
      "type" : "track",
      "uri" : "spotify:track:4z91dIS2bPNFCWpctNfp6A"
    } ],
    "limit" : 10,
    "next" : "https://api.spotify.com/v1/search?query=O+Little+Town+of+Bethlehem&type=track&market=US&offset=15&limit=10",
    "offset" : 5,
    "previous" : "https://api.spotify.com/v1/search?query=O+Little+Town+of+Bethlehem&type=track&market=US&offset=0&limit=10",
    "total" : 6930
  }
}