{
  "tracks" : {
    "href" : "https://api.spotify.com/v1/search?query=Just+as+I+Am&type=track&market=US&offset=5&limit=10",
    "items" : [ {
      "album" : {
        "album_type" : "album",
        "artists" : [ {
          "external_urls" : {
            "spotify" : "https://open.spotify.com/artist/5W5bDNCqJ1jbCgTxDD0Cb3"
          },
          "href" : "https://api.spotify.com/v1/artists/5W5bDNCqJ1jbCgTxDD0Cb3",
          "id" : "5W5bDNCqJ1jbCgTxDD0Cb3",
          "name" : "Willie Nelson",
          "type" : "artist",
          "uri" : "spotify:artist:5W5bDNCqJ1jbCgTxDD0Cb3"
        } ],
        "external_urls" : {
          "spotify" : "https://open.spotify.com/album/5aEtg4dxdBk4pj6SJ3hNsM"
        },
        "href" : "https://api.spotify.com/v1/albums/5aEtg4dxdBk4pj6SJ3hNsM",
        "id" : "5aEtg4dxdBk4pj6SJ3hNsM",
        "images" : [ {
          "height" : 640,
          "url" : "https://i.scdn.co/image/ab67616d0000b2730e5489389aa853f454a4b1e8",
          "width" : 640
        }, {
          "height" : 300,
          "url" : "https://i.scdn.co/image/ab67616d00001e020e5489389aa853f454a4b1e8",
          "width" : 300
        }, {
          "height" : 64,
          "url" : "https://i.scdn.co/image/ab67616d000048510e5489389aa853f454a4b1e8",
          "width" : 64
        } ],
        "name" : "Red Headed Stranger",
        "release_date" : "1975-05-01",
        "release_date_precision" : "day",
        "total_tracks" : 15,
        "type" : "album",
        "uri" : "spotify:album:5aEtg4dxdBk4pj6SJ3hNsM"
      },
      "artists" : [ {
        "external_urls" : {
          "spotify" : "https://open.spotify.com/artist/5W5bDNCqJ1jbCgTxDD0Cb3"
        },
        "href" : "https://api.spotify.com/v1/artists/5W5bDNCqJ1jbCgTxDD0Cb3",
        "id" : "5W5bDNCqJ1jbCgTxDD0Cb3",
        "name" : "Willie Nelson",
        "type" : "artist",
        "uri" : "spotify:artist:5W5bDNCqJ1jbCgTxDD0Cb3"
      } ],
      "disc_number" : 1,
      "duration_ms" : 106573,
      "explicit" : false,
      "external_ids" : {
        "isrc" : "USSM17500649"
      },
      "external_urls" : {
        "spotify" : "https://open.spotify.com/track/1PORoQb3Fdo4i4ooz4CpYq"
      },
      "href" : "https://api.spotify.com/v1/tracks/1PORoQb3Fdo4i4ooz4CpYq",
      "id" : "1PORoQb3Fdo4i4ooz4CpYq",
      "is_local" : false,
      "is_playable" : true,
      "name" : "Just as I Am",
      "popularity" : 36,
      "preview_url" : "https://p.scdn.co/mp3-preview/3493cde714f9c518d5911455c7c35bb16abbb874?cid=774b29d4f13844c495f206cafdad9c86",
      "track_number" : 8,
      "type" : "track",
      "uri" : "spotify:track:1PORoQb3Fdo4i4ooz4CpYq"
    }, {
      "album" : {
        "album_type" : "album",
        "artists" : [ {
          "external_urls" : {
            "spotify" : "https://open.spotify.com/artist/1dPl8axUL09mso0myZqPZW"
          },
          "href" : "https://api.spotify.com/v1/artists/1dPl8axUL09mso0myZqPZW",
          "id" : "1dPl8axUL09mso0myZqPZW",
          "name" : "Matt Maher",
          "type" : "artist",
          "uri" : "spotify:artist:1dPl8axUL09mso0myZqPZW"
        } ],
        "external_urls" : {
          "spotify" : "https://open.spotify.com/album/7HKEDHznm7Zngpw3oHkorA"
        },
        "href" : "https://api.spotify.com/v1/albums/7HKEDHznm7Zngpw3oHkorA",
        "id" : "7HKEDHznm7Zngpw3oHkorA",
        "images" : [ {
          "height" : 640,
          "url" : "https://i.scdn.co/image/ab67616d0000b273c7da4314ae56482270550dfd",
          "width" : 640
        }, {
          "height" : 300,
          "url" : "https://i.scdn.co/image/ab67616d00001e02c7da4314ae56482270550dfd",
          "width" : 300
        }, {
          "height" : 64,
          "url" : "https://i.scdn.co/image/ab67616d00004851c7da4314ae56482270550dfd",
          "width" : 64
        } ],
        "name" : "Echoes (Deluxe Edition)",
        "release_date" : "2017-09-29",
        "release_date_precision" : "day",
        "total_tracks" : 16,
        "type" : "album",
        "uri" : "spotify:album:7HKEDHznm7Zngpw3oHkorA"
      },
      "artists" : [ {
        "external_urls" : {
          "spotify" : "https://open.spotify.com/artist/1dPl8axUL09mso0myZqPZW"
        },
        "href" : "https://api.spotify.com/v1/artists/1dPl8axUL09mso0myZqPZW",
        "id" : "1dPl8axUL09mso0myZqPZW",
        "name" : "Matt Maher",
        "type" : "artist",
        "uri" : "spotify:artist:1dPl8axUL09mso0myZqPZW"
      } ],
      "disc_number" : 1,
      "duration_ms" : 251680,
      "explicit" : false,
      "external_ids" : {
        "isrc" : "USA5W1700219"
      },
      "external_urls" : {
        "spotify" : "https://open.spotify.com/track/6gCXdSruNlJtm3guzzlaET"
      },
      "href" : "https://api.spotify.com/v1/tracks/6gCXdSruNlJtm3guzzlaET",
      "id" : "6gCXdSruNlJtm3guzzlaET",
      "is_local" : false,
      "is_playable" : true,
      "name" : "Just as I Am",
      "popularity" : 37,
      "preview_url" : "https://p.scdn.co/mp3-preview/54a1419b190ba58630931cfa672253f9e6a3318d?cid=774b29d4f13844c495f206cafdad9c86",
      "track_number" : 6,
      "type" : "track",
      "uri" : "spotify:track:6gCXdSruNlJtm3guzzlaET"
    }, {
      "album" : {
        "album_type" : "compilation",
        "artists" : [ {
          "external_urls" : {
            "spotify" : "https://open.spotify.com/artist/4xXCRXOfQKQ2gjWxNhNzYW"
          },
          "href" : "https://api.spotify.com/v1/artists/4xXCRXOfQKQ2gjWxNhNzYW",
          "id" : "4xXCRXOfQKQ2gjWxNhNzYW",
          "name" : "Air Supply",
          "type" : "artist",
          "uri" : "spotify:artist:4xXCRXOfQKQ2gjWxNhNzYW"
        } ],
        "external_urls" : {
          "spotify" : "https://open.spotify.com/album/5PXeBHFjvr8EykHfFxJMje"
        },
        "href" : "https://api.spotify.com/v1/albums/5PXeBHFjvr8EykHfFxJMje",
        "id" : "5PXeBHFjvr8EykHfFxJMje",
        "images" : [ {
          "height" : 640,
          "url" : "https://i.scdn.co/image/ab67616d0000b27366f9325a9ecff9c8c7a883e7",
          "width" : 640
        }, {
          "height" : 300,
          "url" : "https://i.scdn.co/image/ab67616d00001e0266f9325a9ecff9c8c7a883e7",
          "width" : 300
        }, {
          "height" : 64,
          "url" : "https://i.scdn.co/image/ab67616d0000485166f9325a9ecff9c8c7a883e7",
          "width" : 64
        } ],
        "name" : "Ultimate Air Supply",
        "release_date" : "2003-05-29",
        "release_date_precision" : "day",
        "total_tracks" : 18,
        "type" : "album",
        "uri" : "spotify:album:5PXeBHFjvr8EykHfFxJMje"
      },
      "artists" : [ {
        "external_urls" : {
          "spotify" : "https://open.spotify.com/artist/4xXCRXOfQKQ2gjWxNhNzYW"
        },
        "href" : "https://api.spotify.com/v1/artists/4xXCRXOfQKQ2gjWxNhNzYW",
        "id" : "4xXCRXOfQKQ2gjWxNhNzYW",
        "name" : "Air Supply",
        "type" : "artist",
        "uri" : "spotify:artist:4xXCRXOfQKQ2gjWxNhNzYW"
      } ],
      "disc_number" : 1,
      "duration_ms" : 283000,
      "explicit" : false,
      "external_ids" : {
        "isrc" : "USAR18500001"
      },
      "external_urls" : {
        "spotify" : "https://open.spotify.com/track/6t3AWR3OsMKJGLc5ti1FoM"
      },
      "href" : "https://api.spotify.com/v1/tracks/6t3AWR3OsMKJGLc5ti1FoM",
      "id" : "6t3AWR3OsMKJGLc5ti1FoM",
      "is_local" : false,
      "is_playable" : true,
      "name" : "Just as I Am",
      "popularity" : 48,
      "preview_url" : "https://p.scdn.co/mp3-preview/c3a303f1b56a02f3505112034126d9b526c154ce?cid=774b29d4f13844c495f206cafdad9c86",
      "track_number" : 14,
      "type" : "track",
      "uri" : "spotify:track:6t3AWR3OsMKJGLc5ti1FoM"
    }, {
      "album" : {
        "album_type" : "album",
        "artists" : [ {
          "external_urls" : {
            "spotify" : "https://open.spotify.com/artist/32DWM2tctxuDatAYWHjCtC"
          },
          "href" : "https://api.spotify.com/v1/artists/32DWM2tctxuDatAYWHjCtC",
          "id" : "32DWM2tctxuDatAYWHjCtC",
          "name" : "Hymns on Piano",
          "type" : "artist",
          "uri" : "spotify:artist:32DWM2tctxuDatAYWHjCtC"
        } ],
        "external_urls" : {
          "spotify" : "https://open.spotify.com/album/5CBiTtYZP8vWMDl2hqozCI"
        },
        "href" : "https://api.spotify.com/v1/albums/5CBiTtYZP8vWMDl2hqozCI",
        "id" : "5CBiTtYZP8vWMDl2hqozCI",
        "images" : [ {
          "height" : 640,
          "url" : "https://i.scdn.co/image/ab67616d0000b2738085597ccf70a53796457e5f",
          "width" : 640
        }, {
          "height" : 300,
          "url" : "https://i.scdn.co/image/ab67616d00001e028085597ccf70a53796457e5f",
          "width" : 300
        }, {
          "height" : 64,
          "url" : "https://i.scdn.co/image/ab67616d000048518085597ccf70a53796457e5f",
          "width" : 64
        } ],
        "name" : "Hymns of Worship, Vol. 3",
        "release_date" : "2016-05-06",
        "release_date_precision" : "day",
        "total_tracks" : 15,
        "type" : "album",
        "uri" : "spotify:album:5CBiTtYZP8vWMDl2hqozCI"
      },
      "artists" : [ {
        "external_urls" : {
          "spotify" : "https://open.spotify.com/artist/32DWM2tctxuDatAYWHjCtC"
        },
        "href" : "https://api.spotify.com/v1/artists/32DWM2tctxuDatAYWHjCtC",
        "id" : "32DWM2tctxuDatAYWHjCtC",
        "name" : "Hymns on Piano",
        "type" : "artist",
        "uri" : "spotify:artist:32DWM2tctxuDatAYWHjCtC"
      } ],
      "disc_number" : 1,
      "duration_ms" : 247503,
      "explicit" : false,
      "external_ids" : {
        "isrc" : "USE831563042"
      },
      "external_urls" : {
        "spotify" : "https://open.spotify.com/track/3CEZc4m5q607eZJFyeMe5G"
      },
      "href" : "https://api.spotify.com/v1/tracks/3CEZc4m5q607eZJFyeMe5G",
      "id" : "3CEZc4m5q607eZJFyeMe5G",
      "is_local" : false,
      "is_playable" : true,
      "name" : "Just As I Am, Without One Plea",
      "popularity" : 38,
      "preview_url" : "https://p.scdn.co/mp3-preview/157e029421f5af36e1094716e3680450ae4cc37c?cid=774b29d4f13844c495f206cafdad9c86",
      "track_number" : 15,
      "type" : "track",
      "uri" : "spotify:track:3CEZc4m5q607eZJFyeMe5G"
    }, {
      "album" : {
        "album_type" : "album",
        "artists" : [ {
          "external_urls" : {
            "spotify" : "https://open.spotify.com/artist/5XeW4GrOw5InOknCsAo1Js"
          },
          "href" : "https://api.spotify.com/v1/artists/5XeW4GrOw5InOknCsAo1Js",
          "id" : "5XeW4GrOw5InOknCsAo1Js",
          "name" : "The Ball Brothers",
          "type" : "artist",
          "uri" : "spotify:artist:5XeW4GrOw5InOknCsAo1Js"
        } ],
        "external_urls" : {
          "spotify" : "https://open.spotify.com/album/3Cqrp95LvDp5JZnBOvbD12"
        },
        "href" : "https://api.spotify.com/v1/albums/3Cqrp95LvDp5JZnBOvbD12",
        "id" : "3Cqrp95LvDp5JZnBOvbD12",
        "images" : [ {
          "height" : 640,
          "url" : "https://i.scdn.co/image/ab67616d0000b273b931363725dcb902aaf306c5",
          "width" : 640
        }, {
          "height" : 300,
          "url" : "https://i.scdn.co/image/ab67616d00001e02b931363725dcb902aaf306c5",
          "width" : 300
        }, {
          "height" : 64,
          "url" : "https://i.scdn.co/image/ab67616d00004851b931363725dcb902aaf306c5",
          "width" : 64
        } ],
        "name" : "Pursuit",
        "release_date" : "2014-07-29",
        "release_date_precision" : "day",
        "total_tracks" : 10,
        "type" : "album",
        "uri" : "spotify:album:3Cqrp95LvDp5JZnBOvbD12"
      },
      "artists" : [ {
        "external_urls" : {
          "spotify" : "https://open.spotify.com/artist/5XeW4GrOw5InOknCsAo1Js"
        },
        "href" : "https://api.spotify.com/v1/artists/5XeW4GrOw5InOknCsAo1Js",
        "id" : "5XeW4GrOw5InOknCsAo1Js",
        "name" : "The Ball Brothers",
        "type" : "artist",
        "uri" : "spotify:artist:5XeW4GrOw5InOknCsAo1Js"
      } ],
      "disc_number" : 1,
      "duration_ms" : 265465,
      "explicit" : false,
      "external_ids" : {
        "isrc" : "TCABX1496159"
      },
      "external_urls" : {
        "spotify" : "https://open.spotify.com/track/15L2Hki7tQLCWO2efVdMmZ"
      },
      "href" : "https://api.spotify.com/v1/tracks/15L2Hki7tQLCWO2efVdMmZ",
      "id" : "15L2Hki7tQLCWO2efVdMmZ",
      "is_local" : false,
      "is_playable" : true,
      "name" : "Just as I Am",
      "popularity" : 33,
      "preview_url" : "https://p.scdn.co/mp3-preview/4c7905da6c5ee1a601acc6552768f04464ba9964?cid=774b29d4f13844c495f206cafdad9c86",
      "track_number" : 6,
      "type" : "track",
      "uri" : "spotify:track:15L2Hki7tQLCWO2efVdMmZ"
    }, {
      "album" : {
        "album_type" : "album",
        "artists" : [ {
          "external_urls" : {
            "spotify" : "https://open.spotify.com/artist/7zbq3gjHu4JAiMV7dWbUdv"
          },
          "href" : "https://api.spotify.com/v1/artists/7zbq3gjHu4JAiMV7dWbUdv",
          "id" : "7zbq3gjHu4JAiMV7dWbUdv",
          "name" : "David Nevue",
          "type" : "artist",
          "uri" : "spotify:artist:7zbq3gjHu4JAiMV7dWbUdv"
        } ],
        "external_urls" : {
          "spotify" : "https://open.spotify.com/album/5bc6WPPQfnqx5tgKuTQrlo"
        },
        "href" : "https://api.spotify.com/v1/albums/5bc6WPPQfnqx5tgKuTQrlo",
        "id" : "5bc6WPPQfnqx5tgKuTQrlo",
        "images" : [ {
          "height" : 640,
          "url" : "https://i.scdn.co/image/ab67616d0000b27311f4bb63adbe5e666015e0af",
          "width" : 640
        }, {
          "height" : 300,
          "url" : "https://i.scdn.co/image/ab67616d00001e0211f4bb63adbe5e666015e0af",
          "width" : 300
        }, {
          "height" : 64,
          "url" : "https://i.scdn.co/image/ab67616d0000485111f4bb63adbe5e666015e0af",
          "width" : 64
        } ],
        "name" : "Adoration: Solo Piano Hymns",
        "release_date" : "2007-11-28",
        "release_date_precision" : "day",
        "total_tracks" : 15,
        "type" : "album",
        "uri" : "spotify:album:5bc6WPPQfnqx5tgKuTQrlo"
      },
      "artists" : [ {
        "external_urls" : {
          "spotify" : "https://open.spotify.com/artist/7zbq3gjHu4JAiMV7dWbUdv"
        },
        "href" : "https://api.spotify.com/v1/artists/7zbq3gjHu4JAiMV7dWbUdv",
        "id" : "7zbq3gjHu4JAiMV7dWbUdv",
        "name" : "David Nevue",
        "type" : "artist",
        "uri" : "spotify:artist:7zbq3gjHu4JAiMV7dWbUdv"
      } ],
      "disc_number" : 1,
      "duration_ms" : 245640,
      "explicit" : false,
      "external_ids" : {
        "isrc" : "usl4q0775313"
      },
      "external_urls" : {
        "spotify" : "https://open.spotify.com/track/1IWqrEaPy2IE1vUGamFw5S"
      },
      "href" : "https://api.spotify.com/v1/tracks/1IWqrEaPy2IE1vUGamFw5S",
      "id" : "1IWqrEaPy2IE1vUGamFw5S",
      "is_local" : false,
      "is_playable" : true,
      "name" : "Just As I Am",
      "popularity" : 31,
      "preview_url" : "https://p.scdn.co/mp3-preview/7a51a9ae2c8ddad3cf83f4ace1d6dd5f4df830dd?cid=774b29d4f13844c495f206cafdad9c86",
      "track_number" : 13,
      "type" : "track",
      "uri" : "spotify:track:1IWqrEaPy2IE1vUGamFw5S"
    }, {
      "album" : {
        "album_type" : "single",
        "artists" : [ {
          "external_urls" : {
            "spotify" : "https://open.spotify.com/artist/4c0Gzsz4JC8OHMN9y5Fw9s"
          },
          "href" : "https://api.spotify.com/v1/artists/4c0Gzsz4JC8OHMN9y5Fw9s",
          "id" : "4c0Gzsz4JC8OHMN9y5Fw9s",
          "name" : "Taylor Tripodi",
          "type" : "artist",
          "uri" : "spotify:artist:4c0Gzsz4JC8OHMN9y5Fw9s"
        } ],
        "external_urls" : {
          "spotify" : "https://open.spotify.com/album/0u1NOPtFwXeaedBEGjvkSG"
        },
        "href" : "https://api.spotify.com/v1/albums/0u1NOPtFwXeaedBEGjvkSG",
        "id" : "0u1NOPtFwXeaedBEGjvkSG",
        "images" : [ {
          "height" : 640,
          "url" : "https://i.scdn.co/image/ab67616d0000b273498075557f7a995260f5ba4e",
          "width" : 640
        }, {
          "height" : 300,
          "url" : "https://i.scdn.co/image/ab67616d00001e02498075557f7a995260f5ba4e",
          "width" : 300
        }, {
          "height" : 64,
          "url" : "https://i.scdn.co/image/ab67616d00004851498075557f7a995260f5ba4e",
          "width" : 64
        } ],
        "name" : "Just As I Am (Nothing to Prove)",
        "release_date" : "2019-07-26",
        "release_date_precision" : "day",
        "total_tracks" : 1,
        "type" : "album",
        "uri" : "spotify:album:0u1NOPtFwXeaedBEGjvkSG"
      },
      "artists" : [ {
        "external_urls" : {
          "spotify" : "https://open.spotify.com/artist/4c0Gzsz4JC8OHMN9y5Fw9s"
        },
        "href" : "https://api.spotify.com/v1/artists/4c0Gzsz4JC8OHMN9y5Fw9s",
        "id" : "4c0Gzsz4JC8OHMN9y5Fw9s",
        "name" : "Taylor Tripodi",
        "type" : "artist",
        "uri" : "spotify:artist:4c0Gzsz4JC8OHMN9y5Fw9s"
      } ],
      "disc_number" : 1,
      "duration_ms" : 316946,
      "explicit" : false,
      "external_ids" : {
        "isrc" : "QZFYY1914509"
      },
      "external_urls" : {
        "spotify" : "https://open.spotify.com/track/070P8Q3dqNHak5FxNiMP4x"
      },
      "href" : "https://api.spotify.com/v1/tracks/070P8Q3dqNHak5FxNiMP4x",
      "id" : "070P8Q3dqNHak5FxNiMP4x",
      "is_local" : false,
      "is_playable" : true,
      "name" : "Just As I Am (Nothing to Prove)",
      "popularity" : 35,
      "preview_url" : "https://p.scdn.co/mp3-preview/d11070d1279c90930302ee3b5b736b1dd14d6ccb?cid=774b29d4f13844c495f206cafdad9c86",
      "track_number" : 1,
      "type" : "track",
      "uri" : "spotify:track:070P8Q3dqNHak5FxNiMP4x"
    }, {
      "album" : {
        "album_type" : "album",
        "artists" : [ {
          "external_urls" : {
            "spotify" : "https://open.spotify.com/artist/5dZiRoY9Vpp6qrxqXNRwPE"
          },
          "href" : "https://api.spotify.com/v1/artists/5dZiRoY9Vpp6qrxqXNRwPE",
          "id" : "5dZiRoY9Vpp6qrxqXNRwPE",
          "name" : "Selah",
          "type" : "artist",
          "uri" : "spotify:artist:5dZiRoY9Vpp6qrxqXNRwPE"
        } ],
        "external_urls" : {
          "spotify" : "https://open.spotify.com/album/1JmmM3kMCKzYbuBHphQMFP"
        },
        "href" : "https://api.spotify.com/v1/albums/1JmmM3kMCKzYbuBHphQMFP",
        "id" : "1JmmM3kMCKzYbuBHphQMFP",
        "images" : [ {
          "height" : 640,
          "url" : "https://i.scdn.co/image/ab67616d0000b273acff8fc1a79b0181fce6a510",
          "width" : 640
        }, {
          "height" : 300,
          "url" : "https://i.scdn.co/image/ab67616d00001e02acff8fc1a79b0181fce6a510",
          "width" : 300
        }, {
          "height" : 64,
          "url" : "https://i.scdn.co/image/ab67616d00004851acff8fc1a79b0181fce6a510",
          "width" : 64
        } ],
        "name" : "Greatest Hymns, Vol. 2",
        "release_date" : "2016-08-26",
        "release_date_precision" : "day",
        "total_tracks" : 18,
        "type" : "album",
        "uri" : "spotify:album:1JmmM3kMCKzYbuBHphQMFP"
      },
      "artists" : [ {
        "external_urls" : {
          "spotify" : "https://open.spotify.com/artist/5dZiRoY9Vpp6qrxqXNRwPE"
        },
        "href" : "https://api.spotify.com/v1/artists/5dZiRoY9Vpp6qrxqXNRwPE",
        "id" : "5dZiRoY9Vpp6qrxqXNRwPE",
        "name" : "Selah",
        "type" : "artist",
        "uri" : "spotify:artist:5dZiRoY9Vpp6qrxqXNRwPE"
      } ],
      "disc_number" : 1,
      "duration_ms" : 291413,
      "explicit" : false,
      "external_ids" : {
        "isrc" : "USCRB1310886"
      },
      "external_urls" : {
        "spotify" : "https://open.spotify.com/track/4Oa4VsxprYsyjzHSyBixg4"
      },
      "href" : "https://api.spotify.com/v1/tracks/4Oa4VsxprYsyjzHSyBixg4",
      "id" : "4Oa4VsxprYsyjzHSyBixg4",
      "is_local" : false,
      "is_playable" : true,
      "name" : "Just As I Am",
      "popularity" : 30,
      "preview_url" : "https://p.scdn.co/mp3-preview/97905b90f3c90635c813918627c0ac8e477f69d3?cid=774b29d4f13844c495f206cafdad9c86",
      "track_number" : 2,
      "type" : "track",
      "uri" : "spotify:track:4Oa4VsxprYsyjzHSyBixg4"
    }, {
      "album" : {
        "album_type" : "album",
        "artists" : [ {
          "external_urls" : {
            "spotify" : "https://open.spotify.com/artist/6mGZXaZ4SWNh6IsJ57thCp"
          },
          "href" : "https://api.spotify.com/v1/artists/6mGZXaZ4SWNh6IsJ57thCp",
          "id" : "6mGZXaZ4SWNh6IsJ57thCp",
          "name" : "Fernando Ortega",
          "type" : "artist",
          "uri" : "spotify:artist:6mGZXaZ4SWNh6IsJ57thCp"
        } ],
        "external_urls" : {
          "spotify" : "https://open.spotify.com/album/0iNGd4P2eJZcBDyQN1NGHJ"
        },
        "href" : "https://api.spotify.com/v1/albums/0iNGd4P2eJZcBDyQN1NGHJ",
        "id" : "0iNGd4P2eJZcBDyQN1NGHJ",
        "images" : [ {
          "height" : 640,
          "url" : "https://i.scdn.co/image/ab67616d0000b2730971b2d46926df5fa49bd685",
          "width" : 640
        }, {
          "height" : 300,
          "url" : "https://i.scdn.co/image/ab67616d00001e020971b2d46926df5fa49bd685",
          "width" : 300
        }, {
          "height" : 64,
          "url" : "https://i.scdn.co/image/ab67616d000048510971b2d46926df5fa49bd685",
          "width" : 64
        } ],
        "name" : "Come Down O Love Divine",
        "release_date" : "2011-07-12",
        "release_date_precision" : "day",
        "total_tracks" : 14,
        "type" : "album",
        "uri" : "spotify:album:0iNGd4P2eJZcBDyQN1NGHJ"
      },
      "artists" : [ {
        "external_urls" : {
          "spotify" : "https://open.spotify.com/artist/6mGZXaZ4SWNh6IsJ57thCp"
        },
        "href" : "https://api.spotify.com/v1/artists/6mGZXaZ4SWNh6IsJ57thCp",
        "id" : "6mGZXaZ4SWNh6IsJ57thCp",
        "name" : "Fernando Ortega",
        "type" : "artist",
        "uri" : "spotify:artist:6mGZXaZ4SWNh6IsJ57thCp"
      } ],
      "disc_number" : 1,
      "duration_ms" : 295253,
      "explicit" : false,
      "external_ids" : {
        "isrc" : "US3DL1100003"
      },
      "external_urls" : {
        "spotify" : "https://open.spotify.com/track/4d7KKyvnUwSDgwBVccyPzp"
      },
      "href" : "https://api.spotify.com/v1/tracks/4d7KKyvnUwSDgwBVccyPzp",
      "id" : "4d7KKyvnUwSDgwBVccyPzp",
      "is_local" : false,
      "is_playable" : true,
      "name" : "Just as I Am",
      "popularity" : 28,
      "preview_url" : "https://p.scdn.co/mp3-preview/28485290fcd2b5cc87f8cb1da0c526f3ae90d52d?cid=774b29d4f13844c495f206cafdad9c86",
      "track_number" : 3,
      "type" : "track",
      "uri" : "spotify:track:4d7KKyvnUwSDgwBVccyPzp"
    }, {
      "album" : {
        "album_type" : "album",
        "artists" : [ {
          "external_urls" : {
            "spotify" : "https://open.spotify.com/artist/6supSJfP5oXocScZGNQ829"
          },
          "href" : "https://api.spotify.com/v1/artists/6supSJfP5oXocScZGNQ829",
          "id" : "6supSJfP5oXocScZGNQ829",
          "name" : "Billy Graham Crusade Choir",
          "type" : "artist",
          "uri" : "spotify:artist:6supSJfP5oXocScZGNQ829"
        } ],
        "external_urls" : {
          "spotify" : "https://open.spotify.com/album/3kerqNFzBvOm9w5WuYWXyS"
        },
        "href" : "https://api.spotify.com/v1/albums/3kerqNFzBvOm9w5WuYWXyS",
        "id" : "3kerqNFzBvOm9w5WuYWXyS",
        "images" : [ {
          "height" : 640,
          "url" : "https://i.scdn.co/image/ab67616d0000b2739b093abbaf1607e5fdec4b9d",
          "width" : 640
        }, {
          "height" : 300,
          "url" : "https://i.scdn.co/image/ab67616d00001e029b093abbaf1607e5fdec4b9d",
          "width" : 300
        }, {
          "height" : 64,
          "url" : "https://i.scdn.co/image/ab67616d000048519b093abbaf1607e5fdec4b9d",
          "width" : 64
        } ],
        "name" : "The Billy Graham British Crusade Choirs 1954 - 1991",
        "release_date" : "2014-10-14",
        "release_date_precision" : "day",
        "total_tracks" : 26,
        "type" : "album",
        "uri" : "spotify:album:3kerqNFzBvOm9w5WuYWXyS"
      },
      "artists" : [ {
        "external_urls" : {
          "spotify" : "https://open.spotify.com/artist/6supSJfP5oXocScZGNQ829"
        },
        "href" : "https://api.spotify.com/v1/artists/6supSJfP5oXocScZGNQ829",
        "id" : "6supSJfP5oXocScZGNQ829",
        "name" : "Billy Graham Crusade Choir",
        "type" : "artist",
        "uri" : "spotify:artist:6supSJfP5oXocScZGNQ829"
      } ],
      "disc_number" : 1,
      "duration_ms" : 153320,
      "explicit" : false,
      "external_ids" : {
        "isrc" : "AULB41400150"
      },
      "external_urls" : {
        "spotify" : "https://open.spotify.com/track/4c9lUUH3j46z4XVKi23y3Z"
      },
      "href" : "https://api.spotify.com/v1/tracks/4c9lUUH3j46z4XVKi23y3Z",
      "id" : "4c9lUUH3j46z4XVKi23y3Z",
      "is_local" : false,
      "is_playable" : true,
      "name" : "Just as I Am",
      "popularity" : 31,
      "preview_url" : "https://p.scdn.co/mp3-preview/95459df99d3e9d84651bf2fd76492aca6e0d693d?cid=774b29d4f13844c495f206cafdad9c86",
      "track_number" : 25,
      "type" : "track",
      "uri" : "spotify:track:4c9lUUH3j46z4XVKi23y3Z"
    } ],
    "limit" : 10,
    "next" : "https://api.spotify.com/v1/search?query=Just+as+I+Am&type=track&market=US&offset=15&limit=10",
    "offset" : 5,
    "previous" : "https://api.spotify.com/v1/search?query=Just+as+I+Am&type=track&market=US&offset=0&limit=10",
    "total" : 2646
  }
}