{
  "tracks" : {
    "href" : "https://api.spotify.com/v1/search?query=Spirit+Divine&type=track&market=US&offset=5&limit=10",
    "items" : [ {
      "album" : {
        "album_type" : "album",
        "artists" : [ {
          "external_urls" : {
            "spotify" : "https://open.spotify.com/artist/0LyfQWJT6nXafLPZqxe9Of"
          },
          "href" : "https://api.spotify.com/v1/artists/0LyfQWJT6nXafLPZqxe9Of",
          "id" : "0LyfQWJT6nXafLPZqxe9Of",
          "name" : "Various Artists",
          "type" : "artist",
          "uri" : "spotify:artist:0LyfQWJT6nXafLPZqxe9Of"
        } ],
        "external_urls" : {
          "spotify" : "https://open.spotify.com/album/0fWPDJMMrp3lzgM41hc7eC"
        },
        "href" : "https://api.spotify.com/v1/albums/0fWPDJMMrp3lzgM41hc7eC",
        "id" : "0fWPDJMMrp3lzgM41hc7eC",
        "images" : [ {
          "height" : 640,
          "url" : "https://i.scdn.co/image/ab67616d0000b27392c5f5d595db5557c9ecb616",
          "width" : 640
        }, {
          "height" : 300,
          "url" : "https://i.scdn.co/image/ab67616d00001e0292c5f5d595db5557c9ecb616",
          "width" : 300
        }, {
          "height" : 64,
          "url" : "https://i.scdn.co/image/ab67616d0000485192c5f5d595db5557c9ecb616",
          "width" : 64
        } ],
        "name" : "Divine Enlightenment - Spiritual Meditation Music",
        "release_date" : "2020-05-27",
        "release_date_precision" : "day",
        "total_tracks" : 40,
        "type" : "album",
        "uri" : "spotify:album:0fWPDJMMrp3lzgM41hc7eC"
      },
      "artists" : [ {
        "external_urls" : {
          "spotify" : "https://open.spotify.com/artist/0JWyiWM8fihe9rTVVNBR4t"
        },
        "href" : "https://api.spotify.com/v1/artists/0JWyiWM8fihe9rTVVNBR4t",
        "id" : "0JWyiWM8fihe9rTVVNBR4t",
        "name" : "Serenity Calls",
        "type" : "artist",
        "uri" : "spotify:artist:0JWyiWM8fihe9rTVVNBR4t"
      } ],
      "disc_number" : 1,
      "duration_ms" : 200944,
      "explicit" : false,
      "external_ids" : {
        "isrc" : "ITZ071803187"
      },
      "external_urls" : {
        "spotify" : "https://open.spotify.com/track/1MoUCYqc4TluSUfm4ZGMNv"
      },
      "href" : "https://api.spotify.com/v1/tracks/1MoUCYqc4TluSUfm4ZGMNv",
      "id" : "1MoUCYqc4TluSUfm4ZGMNv",
      "is_local" : false,
      "is_playable" : true,
      "name" : "Never End Your Hopes - Original Mix",
      "popularity" : 0,
      "preview_url" : "https://p.scdn.co/mp3-preview/3a946bf0858d1bd41b498218d62853ad03435377?cid=774b29d4f13844c495f206cafdad9c86",
      "track_number" : 9,
      "type" : "track",
      "uri" : "spotify:track:1MoUCYqc4TluSUfm4ZGMNv"
    }, {
      "album" : {
        "album_type" : "album",
        "artists" : [ {
          "external_urls" : {
            "spotify" : "https://open.spotify.com/artist/0LyfQWJT6nXafLPZqxe9Of"
          },
          "href" : "https://api.spotify.com/v1/artists/0LyfQWJT6nXafLPZqxe9Of",
          "id" : "0LyfQWJT6nXafLPZqxe9Of",
          "name" : "Various Artists",
          "type" : "artist",
          "uri" : "spotify:artist:0LyfQWJT6nXafLPZqxe9Of"
        } ],
        "external_urls" : {
          "spotify" : "https://open.spotify.com/album/0fWPDJMMrp3lzgM41hc7eC"
        },
        "href" : "https://api.spotify.com/v1/albums/0fWPDJMMrp3lzgM41hc7eC",
        "id" : "0fWPDJMMrp3lzgM41hc7eC",
        "images" : [ {
          "height" : 640,
          "url" : "https://i.scdn.co/image/ab67616d0000b27392c5f5d595db5557c9ecb616",
          "width" : 640
        }, {
          "height" : 300,
          "url" : "https://i.scdn.co/image/ab67616d00001e0292c5f5d595db5557c9ecb616",
          "width" : 300
        }, {
          "height" : 64,
          "url" : "https://i.scdn.co/image/ab67616d0000485192c5f5d595db5557c9ecb616",
          "width" : 64
        } ],
        "name" : "Divine Enlightenment - Spiritual Meditation Music",
        "release_date" : "2020-05-27",
        "release_date_precision" : "day",
        "total_tracks" : 40,
        "type" : "album",
        "uri" : "spotify:album:0fWPDJMMrp3lzgM41hc7eC"
      },
      "artists" : [ {
        "external_urls" : {
          "spotify" : "https://open.spotify.com/artist/0JWyiWM8fihe9rTVVNBR4t"
        },
        "href" : "https://api.spotify.com/v1/artists/0JWyiWM8fihe9rTVVNBR4t",
        "id" : "0JWyiWM8fihe9rTVVNBR4t",
        "name" : "Serenity Calls",
        "type" : "artist",
        "uri" : "spotify:artist:0JWyiWM8fihe9rTVVNBR4t"
      } ],
      "disc_number" : 1,
      "duration_ms" : 180013,
      "explicit" : false,
      "external_ids" : {
        "isrc" : "ITH641901768"
      },
      "external_urls" : {
        "spotify" : "https://open.spotify.com/track/428Gp0YGa5GaMhWlRy68QM"
      },
      "href" : "https://api.spotify.com/v1/tracks/428Gp0YGa5GaMhWlRy68QM",
      "id" : "428Gp0YGa5GaMhWlRy68QM",
      "is_local" : false,
      "is_playable" : true,
      "name" : "Relaxing Memories - Original Mix",
      "popularity" : 0,
      "preview_url" : "https://p.scdn.co/mp3-preview/b53b1f4206c21b5d18fd907edd0eb9fa9845f0bc?cid=774b29d4f13844c495f206cafdad9c86",
      "track_number" : 11,
      "type" : "track",
      "uri" : "spotify:track:428Gp0YGa5GaMhWlRy68QM"
    }, {
      "album" : {
        "album_type" : "album",
        "artists" : [ {
          "external_urls" : {
            "spotify" : "https://open.spotify.com/artist/0LyfQWJT6nXafLPZqxe9Of"
          },
          "href" : "https://api.spotify.com/v1/artists/0LyfQWJT6nXafLPZqxe9Of",
          "id" : "0LyfQWJT6nXafLPZqxe9Of",
          "name" : "Various Artists",
          "type" : "artist",
          "uri" : "spotify:artist:0LyfQWJT6nXafLPZqxe9Of"
        } ],
        "external_urls" : {
          "spotify" : "https://open.spotify.com/album/0fWPDJMMrp3lzgM41hc7eC"
        },
        "href" : "https://api.spotify.com/v1/albums/0fWPDJMMrp3lzgM41hc7eC",
        "id" : "0fWPDJMMrp3lzgM41hc7eC",
        "images" : [ {
          "height" : 640,
          "url" : "https://i.scdn.co/image/ab67616d0000b27392c5f5d595db5557c9ecb616",
          "width" : 640
        }, {
          "height" : 300,
          "url" : "https://i.scdn.co/image/ab67616d00001e0292c5f5d595db5557c9ecb616",
          "width" : 300
        }, {
          "height" : 64,
          "url" : "https://i.scdn.co/image/ab67616d0000485192c5f5d595db5557c9ecb616",
          "width" : 64
        } ],
        "name" : "Divine Enlightenment - Spiritual Meditation Music",
        "release_date" : "2020-05-27",
        "release_date_precision" : "day",
        "total_tracks" : 40,
        "type" : "album",
        "uri" : "spotify:album:0fWPDJMMrp3lzgM41hc7eC"
      },
      "artists" : [ {
        "external_urls" : {
          "spotify" : "https://open.spotify.com/artist/0JWyiWM8fihe9rTVVNBR4t"
        },
        "href" : "https://api.spotify.com/v1/artists/0JWyiWM8fihe9rTVVNBR4t",
        "id" : "0JWyiWM8fihe9rTVVNBR4t",
        "name" : "Serenity Calls",
        "type" : "artist",
        "uri" : "spotify:artist:0JWyiWM8fihe9rTVVNBR4t"
      } ],
      "disc_number" : 1,
      "duration_ms" : 329160,
      "explicit" : false,
      "external_ids" : {
        "isrc" : "ITZ071902588"
      },
      "external_urls" : {
        "spotify" : "https://open.spotify.com/track/0nUSf7F66Uk1eQeV362Zz2"
      },
      "href" : "https://api.spotify.com/v1/tracks/0nUSf7F66Uk1eQeV362Zz2",
      "id" : "0nUSf7F66Uk1eQeV362Zz2",
      "is_local" : false,
      "is_playable" : true,
      "name" : "Ultimate Relaxation - Original Mix",
      "popularity" : 0,
      "preview_url" : "https://p.scdn.co/mp3-preview/ea9ac88cd09e114e248652dbd341063e8595ea5f?cid=774b29d4f13844c495f206cafdad9c86",
      "track_number" : 6,
      "type" : "track",
      "uri" : "spotify:track:0nUSf7F66Uk1eQeV362Zz2"
    }, {
      "album" : {
        "album_type" : "album",
        "artists" : [ {
          "external_urls" : {
            "spotify" : "https://open.spotify.com/artist/0LyfQWJT6nXafLPZqxe9Of"
          },
          "href" : "https://api.spotify.com/v1/artists/0LyfQWJT6nXafLPZqxe9Of",
          "id" : "0LyfQWJT6nXafLPZqxe9Of",
          "name" : "Various Artists",
          "type" : "artist",
          "uri" : "spotify:artist:0LyfQWJT6nXafLPZqxe9Of"
        } ],
        "external_urls" : {
          "spotify" : "https://open.spotify.com/album/0fWPDJMMrp3lzgM41hc7eC"
        },
        "href" : "https://api.spotify.com/v1/albums/0fWPDJMMrp3lzgM41hc7eC",
        "id" : "0fWPDJMMrp3lzgM41hc7eC",
        "images" : [ {
          "height" : 640,
          "url" : "https://i.scdn.co/image/ab67616d0000b27392c5f5d595db5557c9ecb616",
          "width" : 640
        }, {
          "height" : 300,
          "url" : "https://i.scdn.co/image/ab67616d00001e0292c5f5d595db5557c9ecb616",
          "width" : 300
        }, {
          "height" : 64,
          "url" : "https://i.scdn.co/image/ab67616d0000485192c5f5d595db5557c9ecb616",
          "width" : 64
        } ],
        "name" : "Divine Enlightenment - Spiritual Meditation Music",
        "release_date" : "2020-05-27",
        "release_date_precision" : "day",
        "total_tracks" : 40,
        "type" : "album",
        "uri" : "spotify:album:0fWPDJMMrp3lzgM41hc7eC"
      },
      "artists" : [ {
        "external_urls" : {
          "spotify" : "https://open.spotify.com/artist/0JWyiWM8fihe9rTVVNBR4t"
        },
        "href" : "https://api.spotify.com/v1/artists/0JWyiWM8fihe9rTVVNBR4t",
        "id" : "0JWyiWM8fihe9rTVVNBR4t",
        "name" : "Serenity Calls",
        "type" : "artist",
        "uri" : "spotify:artist:0JWyiWM8fihe9rTVVNBR4t"
      } ],
      "disc_number" : 1,
      "duration_ms" : 187332,
      "explicit" : false,
      "external_ids" : {
        "isrc" : "ITZ071803228"
      },
      "external_urls" : {
        "spotify" : "https://open.spotify.com/track/29jkst5pRgq26QNA6py4rD"
      },
      "href" : "https://api.spotify.com/v1/tracks/29jkst5pRgq26QNA6py4rD",
      "id" : "29jkst5pRgq26QNA6py4rD",
      "is_local" : false,
      "is_playable" : true,
      "name" : "Nights Insects - Original Mix",
      "popularity" : 0,
      "preview_url" : "https://p.scdn.co/mp3-preview/25f6af4229dc3eb0538476210cd5d89e25edb3bb?cid=774b29d4f13844c495f206cafdad9c86",
      "track_number" : 13,
      "type" : "track",
      "uri" : "spotify:track:29jkst5pRgq26QNA6py4rD"
    }, {
      "album" : {
        "album_type" : "album",
        "artists" : [ {
          "external_urls" : {
            "spotify" : "https://open.spotify.com/artist/0LyfQWJT6nXafLPZqxe9Of"
          },
          "href" : "https://api.spotify.com/v1/artists/0LyfQWJT6nXafLPZqxe9Of",
          "id" : "0LyfQWJT6nXafLPZqxe9Of",
          "name" : "Various Artists",
          "type" : "artist",
          "uri" : "spotify:artist:0LyfQWJT6nXafLPZqxe9Of"
        } ],
        "external_urls" : {
          "spotify" : "https://open.spotify.com/album/0fWPDJMMrp3lzgM41hc7eC"
        },
        "href" : "https://api.spotify.com/v1/albums/0fWPDJMMrp3lzgM41hc7eC",
        "id" : "0fWPDJMMrp3lzgM41hc7eC",
        "images" : [ {
          "height" : 640,
          "url" : "https://i.scdn.co/image/ab67616d0000b27392c5f5d595db5557c9ecb616",
          "width" : 640
        }, {
          "height" : 300,
          "url" : "https://i.scdn.co/image/ab67616d00001e0292c5f5d595db5557c9ecb616",
          "width" : 300
        }, {
          "height" : 64,
          "url" : "https://i.scdn.co/image/ab67616d0000485192c5f5d595db5557c9ecb616",
          "width" : 64
        } ],
        "name" : "Divine Enlightenment - Spiritual Meditation Music",
        "release_date" : "2020-05-27",
        "release_date_precision" : "day",
        "total_tracks" : 40,
        "type" : "album",
        "uri" : "spotify:album:0fWPDJMMrp3lzgM41hc7eC"
      },
      "artists" : [ {
        "external_urls" : {
          "spotify" : "https://open.spotify.com/artist/0JWyiWM8fihe9rTVVNBR4t"
        },
        "href" : "https://api.spotify.com/v1/artists/0JWyiWM8fihe9rTVVNBR4t",
        "id" : "0JWyiWM8fihe9rTVVNBR4t",
        "name" : "Serenity Calls",
        "type" : "artist",
        "uri" : "spotify:artist:0JWyiWM8fihe9rTVVNBR4t"
      } ],
      "disc_number" : 1,
      "duration_ms" : 223578,
      "explicit" : false,
      "external_ids" : {
        "isrc" : "ITZ071802855"
      },
      "external_urls" : {
        "spotify" : "https://open.spotify.com/track/25zBlAhuIoGT50mjuHdGgS"
      },
      "href" : "https://api.spotify.com/v1/tracks/25zBlAhuIoGT50mjuHdGgS",
      "id" : "25zBlAhuIoGT50mjuHdGgS",
      "is_local" : false,
      "is_playable" : true,
      "name" : "Water Beauty - Original Mix",
      "popularity" : 0,
      "preview_url" : "https://p.scdn.co/mp3-preview/35d1bf62b9f9ad0f9f0783ecf1adf5f5451eaf97?cid=774b29d4f13844c495f206cafdad9c86",
      "track_number" : 2,
      "type" : "track",
      "uri" : "spotify:track:25zBlAhuIoGT50mjuHdGgS"
    }, {
      "album" : {
        "album_type" : "album",
        "artists" : [ {
          "external_urls" : {
            "spotify" : "https://open.spotify.com/artist/0LyfQWJT6nXafLPZqxe9Of"
          },
          "href" : "https://api.spotify.com/v1/artists/0LyfQWJT6nXafLPZqxe9Of",
          "id" : "0LyfQWJT6nXafLPZqxe9Of",
          "name" : "Various Artists",
          "type" : "artist",
          "uri" : "spotify:artist:0LyfQWJT6nXafLPZqxe9Of"
        } ],
        "external_urls" : {
          "spotify" : "https://open.spotify.com/album/0fWPDJMMrp3lzgM41hc7eC"
        },
        "href" : "https://api.spotify.com/v1/albums/0fWPDJMMrp3lzgM41hc7eC",
        "id" : "0fWPDJMMrp3lzgM41hc7eC",
        "images" : [ {
          "height" : 640,
          "url" : "https://i.scdn.co/image/ab67616d0000b27392c5f5d595db5557c9ecb616",
          "width" : 640
        }, {
          "height" : 300,
          "url" : "https://i.scdn.co/image/ab67616d00001e0292c5f5d595db5557c9ecb616",
          "width" : 300
        }, {
          "height" : 64,
          "url" : "https://i.scdn.co/image/ab67616d0000485192c5f5d595db5557c9ecb616",
          "width" : 64
        } ],
        "name" : "Divine Enlightenment - Spiritual Meditation Music",
        "release_date" : "2020-05-27",
        "release_date_precision" : "day",
        "total_tracks" : 40,
        "type" : "album",
        "uri" : "spotify:album:0fWPDJMMrp3lzgM41hc7eC"
      },
      "artists" : [ {
        "external_urls" : {
          "spotify" : "https://open.spotify.com/artist/0JWyiWM8fihe9rTVVNBR4t"
        },
        "href" : "https://api.spotify.com/v1/artists/0JWyiWM8fihe9rTVVNBR4t",
        "id" : "0JWyiWM8fihe9rTVVNBR4t",
        "name" : "Serenity Calls",
        "type" : "artist",
        "uri" : "spotify:artist:0JWyiWM8fihe9rTVVNBR4t"
      } ],
      "disc_number" : 1,
      "duration_ms" : 390019,
      "explicit" : false,
      "external_ids" : {
        "isrc" : "ITZ071804654"
      },
      "external_urls" : {
        "spotify" : "https://open.spotify.com/track/2vEaTX8Nvf0Fet7kPiJMA3"
      },
      "href" : "https://api.spotify.com/v1/tracks/2vEaTX8Nvf0Fet7kPiJMA3",
      "id" : "2vEaTX8Nvf0Fet7kPiJMA3",
      "is_local" : false,
      "is_playable" : true,
      "name" : "Blissful Moment - Original Mix",
      "popularity" : 0,
      "preview_url" : "https://p.scdn.co/mp3-preview/ddb4a6b6e1a55d0ee2428a90a0da95d6f00042b8?cid=774b29d4f13844c495f206cafdad9c86",
      "track_number" : 23,
      "type" : "track",
      "uri" : "spotify:track:2vEaTX8Nvf0Fet7kPiJMA3"
    }, {
      "album" : {
        "album_type" : "album",
        "artists" : [ {
          "external_urls" : {
            "spotify" : "https://open.spotify.com/artist/0LyfQWJT6nXafLPZqxe9Of"
          },
          "href" : "https://api.spotify.com/v1/artists/0LyfQWJT6nXafLPZqxe9Of",
          "id" : "0LyfQWJT6nXafLPZqxe9Of",
          "name" : "Various Artists",
          "type" : "artist",
          "uri" : "spotify:artist:0LyfQWJT6nXafLPZqxe9Of"
        } ],
        "external_urls" : {
          "spotify" : "https://open.spotify.com/album/0fWPDJMMrp3lzgM41hc7eC"
        },
        "href" : "https://api.spotify.com/v1/albums/0fWPDJMMrp3lzgM41hc7eC",
        "id" : "0fWPDJMMrp3lzgM41hc7eC",
        "images" : [ {
          "height" : 640,
          "url" : "https://i.scdn.co/image/ab67616d0000b27392c5f5d595db5557c9ecb616",
          "width" : 640
        }, {
          "height" : 300,
          "url" : "https://i.scdn.co/image/ab67616d00001e0292c5f5d595db5557c9ecb616",
          "width" : 300
        }, {
          "height" : 64,
          "url" : "https://i.scdn.co/image/ab67616d0000485192c5f5d595db5557c9ecb616",
          "width" : 64
        } ],
        "name" : "Divine Enlightenment - Spiritual Meditation Music",
        "release_date" : "2020-05-27",
        "release_date_precision" : "day",
        "total_tracks" : 40,
        "type" : "album",
        "uri" : "spotify:album:0fWPDJMMrp3lzgM41hc7eC"
      },
      "artists" : [ {
        "external_urls" : {
          "spotify" : "https://open.spotify.com/artist/0JWyiWM8fihe9rTVVNBR4t"
        },
        "href" : "https://api.spotify.com/v1/artists/0JWyiWM8fihe9rTVVNBR4t",
        "id" : "0JWyiWM8fihe9rTVVNBR4t",
        "name" : "Serenity Calls",
        "type" : "artist",
        "uri" : "spotify:artist:0JWyiWM8fihe9rTVVNBR4t"
      } ],
      "disc_number" : 1,
      "duration_ms" : 123884,
      "explicit" : false,
      "external_ids" : {
        "isrc" : "ITZ071803221"
      },
      "external_urls" : {
        "spotify" : "https://open.spotify.com/track/1578VEzBUUmRGAomm0ADfO"
      },
      "href" : "https://api.spotify.com/v1/tracks/1578VEzBUUmRGAomm0ADfO",
      "id" : "1578VEzBUUmRGAomm0ADfO",
      "is_local" : false,
      "is_playable" : true,
      "name" : "Relaxing Brim - Original Mix",
      "popularity" : 0,
      "preview_url" : "https://p.scdn.co/mp3-preview/3acce6f8ae84dad7f5d4e51696872df01d86f027?cid=774b29d4f13844c495f206cafdad9c86",
      "track_number" : 8,
      "type" : "track",
      "uri" : "spotify:track:1578VEzBUUmRGAomm0ADfO"
    }, {
      "album" : {
        "album_type" : "album",
        "artists" : [ {
          "external_urls" : {
            "spotify" : "https://open.spotify.com/artist/0LyfQWJT6nXafLPZqxe9Of"
          },
          "href" : "https://api.spotify.com/v1/artists/0LyfQWJT6nXafLPZqxe9Of",
          "id" : "0LyfQWJT6nXafLPZqxe9Of",
          "name" : "Various Artists",
          "type" : "artist",
          "uri" : "spotify:artist:0LyfQWJT6nXafLPZqxe9Of"
        } ],
        "external_urls" : {
          "spotify" : "https://open.spotify.com/album/0fWPDJMMrp3lzgM41hc7eC"
        },
        "href" : "https://api.spotify.com/v1/albums/0fWPDJMMrp3lzgM41hc7eC",
        "id" : "0fWPDJMMrp3lzgM41hc7eC",
        "images" : [ {
          "height" : 640,
          "url" : "https://i.scdn.co/image/ab67616d0000b27392c5f5d595db5557c9ecb616",
          "width" : 640
        }, {
          "height" : 300,
          "url" : "https://i.scdn.co/image/ab67616d00001e0292c5f5d595db5557c9ecb616",
          "width" : 300
        }, {
          "height" : 64,
          "url" : "https://i.scdn.co/image/ab67616d0000485192c5f5d595db5557c9ecb616",
          "width" : 64
        } ],
        "name" : "Divine Enlightenment - Spiritual Meditation Music",
        "release_date" : "2020-05-27",
        "release_date_precision" : "day",
        "total_tracks" : 40,
        "type" : "album",
        "uri" : "spotify:album:0fWPDJMMrp3lzgM41hc7eC"
      },
      "artists" : [ {
        "external_urls" : {
          "spotify" : "https://open.spotify.com/artist/0JWyiWM8fihe9rTVVNBR4t"
        },
        "href" : "https://api.spotify.com/v1/artists/0JWyiWM8fihe9rTVVNBR4t",
        "id" : "0JWyiWM8fihe9rTVVNBR4t",
        "name" : "Serenity Calls",
        "type" : "artist",
        "uri" : "spotify:artist:0JWyiWM8fihe9rTVVNBR4t"
      } ],
      "disc_number" : 1,
      "duration_ms" : 210428,
      "explicit" : false,
      "external_ids" : {
        "isrc" : "ITZ071804652"
      },
      "external_urls" : {
        "spotify" : "https://open.spotify.com/track/1EtnDAZypDkeWdApmYxU1x"
      },
      "href" : "https://api.spotify.com/v1/tracks/1EtnDAZypDkeWdApmYxU1x",
      "id" : "1EtnDAZypDkeWdApmYxU1x",
      "is_local" : false,
      "is_playable" : true,
      "name" : "Spa In Tropical Greens - Original Mix",
      "popularity" : 0,
      "preview_url" : "https://p.scdn.co/mp3-preview/6f398c7290e28fa9f800ee65b8fa0bfa9ba3da2b?cid=774b29d4f13844c495f206cafdad9c86",
      "track_number" : 22,
      "type" : "track",
      "uri" : "spotify:track:1EtnDAZypDkeWdApmYxU1x"
    }, {
      "album" : {
        "album_type" : "album",
        "artists" : [ {
          "external_urls" : {
            "spotify" : "https://open.spotify.com/artist/0LyfQWJT6nXafLPZqxe9Of"
          },
          "href" : "https://api.spotify.com/v1/artists/0LyfQWJT6nXafLPZqxe9Of",
          "id" : "0LyfQWJT6nXafLPZqxe9Of",
          "name" : "Various Artists",
          "type" : "artist",
          "uri" : "spotify:artist:0LyfQWJT6nXafLPZqxe9Of"
        } ],
        "external_urls" : {
          "spotify" : "https://open.spotify.com/album/5oTRyJPn5OIsOHciAspp65"
        },
        "href" : "https://api.spotify.com/v1/albums/5oTRyJPn5OIsOHciAspp65",
        "id" : "5oTRyJPn5OIsOHciAspp65",
        "images" : [ {
          "height" : 640,
          "url" : "https://i.scdn.co/image/ab67616d0000b2733c809175fc4580ecbb7a3187",
          "width" : 640
        }, {
          "height" : 300,
          "url" : "https://i.scdn.co/image/ab67616d00001e023c809175fc4580ecbb7a3187",
          "width" : 300
        }, {
          "height" : 64,
          "url" : "https://i.scdn.co/image/ab67616d000048513c809175fc4580ecbb7a3187",
          "width" : 64
        } ],
        "name" : "Awaken Your Peace - Spiritual Yoga And Divine Chakra Meditation",
        "release_date" : "2020-05-27",
        "release_date_precision" : "day",
        "total_tracks" : 40,
        "type" : "album",
        "uri" : "spotify:album:5oTRyJPn5OIsOHciAspp65"
      },
      "artists" : [ {
        "external_urls" : {
          "spotify" : "https://open.spotify.com/artist/0JWyiWM8fihe9rTVVNBR4t"
        },
        "href" : "https://api.spotify.com/v1/artists/0JWyiWM8fihe9rTVVNBR4t",
        "id" : "0JWyiWM8fihe9rTVVNBR4t",
        "name" : "Serenity Calls",
        "type" : "artist",
        "uri" : "spotify:artist:0JWyiWM8fihe9rTVVNBR4t"
      } ],
      "disc_number" : 1,
      "duration_ms" : 480020,
      "explicit" : false,
      "external_ids" : {
        "isrc" : "ITZ071902425"
      },
      "external_urls" : {
        "spotify" : "https://open.spotify.com/track/2ogGOgmIkIPzlL5dpXKDCB"
      },
      "href" : "https://api.spotify.com/v1/tracks/2ogGOgmIkIPzlL5dpXKDCB",
      "id" : "2ogGOgmIkIPzlL5dpXKDCB",
      "is_local" : false,
      "is_playable" : true,
      "name" : "Sunrise Land - Original Mix",
      "popularity" : 0,
      "preview_url" : "https://p.scdn.co/mp3-preview/e24a7cf9f734cd6697143c185b425ed7380c6342?cid=774b29d4f13844c495f206cafdad9c86",
      "track_number" : 18,
      "type" : "track",
      "uri" : "spotify:track:2ogGOgmIkIPzlL5dpXKDCB"
    }, {
      "album" : {
        "album_type" : "album",
        "artists" : [ {
          "external_urls" : {
            "spotify" : "https://open.spotify.com/artist/0LyfQWJT6nXafLPZqxe9Of"
          },
          "href" : "https://api.spotify.com/v1/artists/0LyfQWJT6nXafLPZqxe9Of",
          "id" : "0LyfQWJT6nXafLPZqxe9Of",
          "name" : "Various Artists",
          "type" : "artist",
          "uri" : "spotify:artist:0LyfQWJT6nXafLPZqxe9Of"
        } ],
        "external_urls" : {
          "spotify" : "https://open.spotify.com/album/5oTRyJPn5OIsOHciAspp65"
        },
        "href" : "https://api.spotify.com/v1/albums/5oTRyJPn5OIsOHciAspp65",
        "id" : "5oTRyJPn5OIsOHciAspp65",
        "images" : [ {
          "height" : 640,
          "url" : "https://i.scdn.co/image/ab67616d0000b2733c809175fc4580ecbb7a3187",
          "width" : 640
        }, {
          "height" : 300,
          "url" : "https://i.scdn.co/image/ab67616d00001e023c809175fc4580ecbb7a3187",
          "width" : 300
        }, {
          "height" : 64,
          "url" : "https://i.scdn.co/image/ab67616d000048513c809175fc4580ecbb7a3187",
          "width" : 64
        } ],
        "name" : "Awaken Your Peace - Spiritual Yoga And Divine Chakra Meditation",
        "release_date" : "2020-05-27",
        "release_date_precision" : "day",
        "total_tracks" : 40,
        "type" : "album",
        "uri" : "spotify:album:5oTRyJPn5OIsOHciAspp65"
      },
      "artists" : [ {
        "external_urls" : {
          "spotify" : "https://open.spotify.com/artist/0JWyiWM8fihe9rTVVNBR4t"
        },
        "href" : "https://api.spotify.com/v1/artists/0JWyiWM8fihe9rTVVNBR4t",
        "id" : "0JWyiWM8fihe9rTVVNBR4t",
        "name" : "Serenity Calls",
        "type" : "artist",
        "uri" : "spotify:artist:0JWyiWM8fihe9rTVVNBR4t"
      } ],
      "disc_number" : 1,
      "duration_ms" : 252648,
      "explicit" : false,
      "external_ids" : {
        "isrc" : "ITZ071803225"
      },
      "external_urls" : {
        "spotify" : "https://open.spotify.com/track/0wk06xcvLqeLYZ7uGNvhzS"
      },
      "href" : "https://api.spotify.com/v1/tracks/0wk06xcvLqeLYZ7uGNvhzS",
      "id" : "0wk06xcvLqeLYZ7uGNvhzS",
      "is_local" : false,
      "is_playable" : true,
      "name" : "Warm Water - Original Mix",
      "popularity" : 0,
      "preview_url" : "https://p.scdn.co/mp3-preview/cdff3ce4aad1235c1227c8cedebf3cee14b2f816?cid=774b29d4f13844c495f206cafdad9c86",
      "track_number" : 14,
      "type" : "track",
      "uri" : "spotify:track:0wk06xcvLqeLYZ7uGNvhzS"
    } ],
    "limit" : 10,
    "next" : "https://api.spotify.com/v1/search?query=Spirit+Divine&type=track&market=US&offset=15&limit=10",
    "offset" : 5,
    "previous" : "https://api.spotify.com/v1/search?query=Spirit+Divine&type=track&market=US&offset=0&limit=10",
    "total" : 11995
  }
}