{
  "tracks" : {
    "href" : "https://api.spotify.com/v1/search?query=How+Great+Thou+Art&type=track&market=US&offset=5&limit=10",
    "items" : [ {
      "album" : {
        "album_type" : "album",
        "artists" : [ {
          "external_urls" : {
            "spotify" : "https://open.spotify.com/artist/7vCtweS8UVAXTyau2j0rDT"
          },
          "href" : "https://api.spotify.com/v1/artists/7vCtweS8UVAXTyau2j0rDT",
          "id" : "7vCtweS8UVAXTyau2j0rDT",
          "name" : "Josh Turner",
          "type" : "artist",
          "uri" : "spotify:artist:7vCtweS8UVAXTyau2j0rDT"
        } ],
        "external_urls" : {
          "spotify" : "https://open.spotify.com/album/0qmQNcXPAl8V4wPFWC3QDx"
        },
        "href" : "https://api.spotify.com/v1/albums/0qmQNcXPAl8V4wPFWC3QDx",
        "id" : "0qmQNcXPAl8V4wPFWC3QDx",
        "images" : [ {
          "height" : 640,
          "url" : "https://i.scdn.co/image/ab67616d0000b273f9bd1c5734d0d3ddadb896f0",
          "width" : 640
        }, {
          "height" : 300,
          "url" : "https://i.scdn.co/image/ab67616d00001e02f9bd1c5734d0d3ddadb896f0",
          "width" : 300
        }, {
          "height" : 64,
          "url" : "https://i.scdn.co/image/ab67616d00004851f9bd1c5734d0d3ddadb896f0",
          "width" : 64
        } ],
        "name" : "I Serve A Savior",
        "release_date" : "2018-10-26",
        "release_date_precision" : "day",
        "total_tracks" : 12,
        "type" : "album",
        "uri" : "spotify:album:0qmQNcXPAl8V4wPFWC3QDx"
      },
      "artists" : [ {
        "external_urls" : {
          "spotify" : "https://open.spotify.com/artist/7vCtweS8UVAXTyau2j0rDT"
        },
        "href" : "https://api.spotify.com/v1/artists/7vCtweS8UVAXTyau2j0rDT",
        "id" : "7vCtweS8UVAXTyau2j0rDT",
        "name" : "Josh Turner",
        "type" : "artist",
        "uri" : "spotify:artist:7vCtweS8UVAXTyau2j0rDT"
      }, {
        "external_urls" : {
          "spotify" : "https://open.spotify.com/artist/4weums6IzU9u5hNt7lR31b"
        },
        "href" : "https://api.spotify.com/v1/artists/4weums6IzU9u5hNt7lR31b",
        "id" : "4weums6IzU9u5hNt7lR31b",
        "name" : "Sonya Isaacs",
        "type" : "artist",
        "uri" : "spotify:artist:4weums6IzU9u5hNt7lR31b"
      } ],
      "disc_number" : 1,
      "duration_ms" : 263280,
      "explicit" : false,
      "external_ids" : {
        "isrc" : "USUM71813865"
      },
      "external_urls" : {
        "spotify" : "https://open.spotify.com/track/3YmznXHaBDA0CrH9UFGOhW"
      },
      "href" : "https://api.spotify.com/v1/tracks/3YmznXHaBDA0CrH9UFGOhW",
      "id" : "3YmznXHaBDA0CrH9UFGOhW",
      "is_local" : false,
      "is_playable" : true,
      "name" : "How Great Thou Art",
      "popularity" : 41,
      "preview_url" : null,
      "track_number" : 7,
      "type" : "track",
      "uri" : "spotify:track:3YmznXHaBDA0CrH9UFGOhW"
    }, {
      "album" : {
        "album_type" : "album",
        "artists" : [ {
          "external_urls" : {
            "spotify" : "https://open.spotify.com/artist/7zbq3gjHu4JAiMV7dWbUdv"
          },
          "href" : "https://api.spotify.com/v1/artists/7zbq3gjHu4JAiMV7dWbUdv",
          "id" : "7zbq3gjHu4JAiMV7dWbUdv",
          "name" : "David Nevue",
          "type" : "artist",
          "uri" : "spotify:artist:7zbq3gjHu4JAiMV7dWbUdv"
        } ],
        "external_urls" : {
          "spotify" : "https://open.spotify.com/album/5bc6WPPQfnqx5tgKuTQrlo"
        },
        "href" : "https://api.spotify.com/v1/albums/5bc6WPPQfnqx5tgKuTQrlo",
        "id" : "5bc6WPPQfnqx5tgKuTQrlo",
        "images" : [ {
          "height" : 640,
          "url" : "https://i.scdn.co/image/ab67616d0000b27311f4bb63adbe5e666015e0af",
          "width" : 640
        }, {
          "height" : 300,
          "url" : "https://i.scdn.co/image/ab67616d00001e0211f4bb63adbe5e666015e0af",
          "width" : 300
        }, {
          "height" : 64,
          "url" : "https://i.scdn.co/image/ab67616d0000485111f4bb63adbe5e666015e0af",
          "width" : 64
        } ],
        "name" : "Adoration: Solo Piano Hymns",
        "release_date" : "2007-11-28",
        "release_date_precision" : "day",
        "total_tracks" : 15,
        "type" : "album",
        "uri" : "spotify:album:5bc6WPPQfnqx5tgKuTQrlo"
      },
      "artists" : [ {
        "external_urls" : {
          "spotify" : "https://open.spotify.com/artist/7zbq3gjHu4JAiMV7dWbUdv"
        },
        "href" : "https://api.spotify.com/v1/artists/7zbq3gjHu4JAiMV7dWbUdv",
        "id" : "7zbq3gjHu4JAiMV7dWbUdv",
        "name" : "David Nevue",
        "type" : "artist",
        "uri" : "spotify:artist:7zbq3gjHu4JAiMV7dWbUdv"
      } ],
      "disc_number" : 1,
      "duration_ms" : 198386,
      "explicit" : false,
      "external_ids" : {
        "isrc" : "usl4q0775311"
      },
      "external_urls" : {
        "spotify" : "https://open.spotify.com/track/6qQBhhH3TBmcKzzcDuP1Dq"
      },
      "href" : "https://api.spotify.com/v1/tracks/6qQBhhH3TBmcKzzcDuP1Dq",
      "id" : "6qQBhhH3TBmcKzzcDuP1Dq",
      "is_local" : false,
      "is_playable" : true,
      "name" : "How Great Thou Art",
      "popularity" : 42,
      "preview_url" : "https://p.scdn.co/mp3-preview/e0ccf6198f260d300270d4ed0e10672e521368b2?cid=774b29d4f13844c495f206cafdad9c86",
      "track_number" : 11,
      "type" : "track",
      "uri" : "spotify:track:6qQBhhH3TBmcKzzcDuP1Dq"
    }, {
      "album" : {
        "album_type" : "album",
        "artists" : [ {
          "external_urls" : {
            "spotify" : "https://open.spotify.com/artist/43ZHCT0cAZBISjO8DG9PnE"
          },
          "href" : "https://api.spotify.com/v1/artists/43ZHCT0cAZBISjO8DG9PnE",
          "id" : "43ZHCT0cAZBISjO8DG9PnE",
          "name" : "Elvis Presley",
          "type" : "artist",
          "uri" : "spotify:artist:43ZHCT0cAZBISjO8DG9PnE"
        } ],
        "external_urls" : {
          "spotify" : "https://open.spotify.com/album/7N1t7WzloZyMj95jk6CSCt"
        },
        "href" : "https://api.spotify.com/v1/albums/7N1t7WzloZyMj95jk6CSCt",
        "id" : "7N1t7WzloZyMj95jk6CSCt",
        "images" : [ {
          "height" : 640,
          "url" : "https://i.scdn.co/image/ab67616d0000b27344d592382acae5ef6f8ea14d",
          "width" : 640
        }, {
          "height" : 300,
          "url" : "https://i.scdn.co/image/ab67616d00001e0244d592382acae5ef6f8ea14d",
          "width" : 300
        }, {
          "height" : 64,
          "url" : "https://i.scdn.co/image/ab67616d0000485144d592382acae5ef6f8ea14d",
          "width" : 64
        } ],
        "name" : "How Great Thou Art",
        "release_date" : "1967-02-01",
        "release_date_precision" : "day",
        "total_tracks" : 15,
        "type" : "album",
        "uri" : "spotify:album:7N1t7WzloZyMj95jk6CSCt"
      },
      "artists" : [ {
        "external_urls" : {
          "spotify" : "https://open.spotify.com/artist/43ZHCT0cAZBISjO8DG9PnE"
        },
        "href" : "https://api.spotify.com/v1/artists/43ZHCT0cAZBISjO8DG9PnE",
        "id" : "43ZHCT0cAZBISjO8DG9PnE",
        "name" : "Elvis Presley",
        "type" : "artist",
        "uri" : "spotify:artist:43ZHCT0cAZBISjO8DG9PnE"
      } ],
      "disc_number" : 1,
      "duration_ms" : 181293,
      "explicit" : false,
      "external_ids" : {
        "isrc" : "USRC16600749"
      },
      "external_urls" : {
        "spotify" : "https://open.spotify.com/track/0INrsW3dVLg8LpkQWLrxFx"
      },
      "href" : "https://api.spotify.com/v1/tracks/0INrsW3dVLg8LpkQWLrxFx",
      "id" : "0INrsW3dVLg8LpkQWLrxFx",
      "is_local" : false,
      "is_playable" : true,
      "name" : "How Great Thou Art",
      "popularity" : 43,
      "preview_url" : "https://p.scdn.co/mp3-preview/b9002596d63a1bb2cc0139ff15d40389c2bb6704?cid=774b29d4f13844c495f206cafdad9c86",
      "track_number" : 1,
      "type" : "track",
      "uri" : "spotify:track:0INrsW3dVLg8LpkQWLrxFx"
    }, {
      "album" : {
        "album_type" : "album",
        "artists" : [ {
          "external_urls" : {
            "spotify" : "https://open.spotify.com/artist/43ZHCT0cAZBISjO8DG9PnE"
          },
          "href" : "https://api.spotify.com/v1/artists/43ZHCT0cAZBISjO8DG9PnE",
          "id" : "43ZHCT0cAZBISjO8DG9PnE",
          "name" : "Elvis Presley",
          "type" : "artist",
          "uri" : "spotify:artist:43ZHCT0cAZBISjO8DG9PnE"
        }, {
          "external_urls" : {
            "spotify" : "https://open.spotify.com/artist/0MvSBMGRQJY3mRwIbJsqF1"
          },
          "href" : "https://api.spotify.com/v1/artists/0MvSBMGRQJY3mRwIbJsqF1",
          "id" : "0MvSBMGRQJY3mRwIbJsqF1",
          "name" : "Royal Philharmonic Orchestra",
          "type" : "artist",
          "uri" : "spotify:artist:0MvSBMGRQJY3mRwIbJsqF1"
        } ],
        "external_urls" : {
          "spotify" : "https://open.spotify.com/album/3BYCjGZjrTkilIY7U25fNt"
        },
        "href" : "https://api.spotify.com/v1/albums/3BYCjGZjrTkilIY7U25fNt",
        "id" : "3BYCjGZjrTkilIY7U25fNt",
        "images" : [ {
          "height" : 640,
          "url" : "https://i.scdn.co/image/ab67616d0000b2737adaca103b3a58a478bac9f4",
          "width" : 640
        }, {
          "height" : 300,
          "url" : "https://i.scdn.co/image/ab67616d00001e027adaca103b3a58a478bac9f4",
          "width" : 300
        }, {
          "height" : 64,
          "url" : "https://i.scdn.co/image/ab67616d000048517adaca103b3a58a478bac9f4",
          "width" : 64
        } ],
        "name" : "If I Can Dream: Elvis Presley with the Royal Philharmonic Orchestra",
        "release_date" : "2015-10-30",
        "release_date_precision" : "day",
        "total_tracks" : 14,
        "type" : "album",
        "uri" : "spotify:album:3BYCjGZjrTkilIY7U25fNt"
      },
      "artists" : [ {
        "external_urls" : {
          "spotify" : "https://open.spotify.com/artist/43ZHCT0cAZBISjO8DG9PnE"
        },
        "href" : "https://api.spotify.com/v1/artists/43ZHCT0cAZBISjO8DG9PnE",
        "id" : "43ZHCT0cAZBISjO8DG9PnE",
        "name" : "Elvis Presley",
        "type" : "artist",
        "uri" : "spotify:artist:43ZHCT0cAZBISjO8DG9PnE"
      }, {
        "external_urls" : {
          "spotify" : "https://open.spotify.com/artist/0MvSBMGRQJY3mRwIbJsqF1"
        },
        "href" : "https://api.spotify.com/v1/artists/0MvSBMGRQJY3mRwIbJsqF1",
        "id" : "0MvSBMGRQJY3mRwIbJsqF1",
        "name" : "Royal Philharmonic Orchestra",
        "type" : "artist",
        "uri" : "spotify:artist:0MvSBMGRQJY3mRwIbJsqF1"
      } ],
      "disc_number" : 1,
      "duration_ms" : 187133,
      "explicit" : false,
      "external_ids" : {
        "isrc" : "USRC11500255"
      },
      "external_urls" : {
        "spotify" : "https://open.spotify.com/track/1SZEk6StvicDt6TVwxkjho"
      },
      "href" : "https://api.spotify.com/v1/tracks/1SZEk6StvicDt6TVwxkjho",
      "id" : "1SZEk6StvicDt6TVwxkjho",
      "is_local" : false,
      "is_playable" : true,
      "name" : "How Great Thou Art",
      "popularity" : 49,
      "preview_url" : "https://p.scdn.co/mp3-preview/2a36e384d0e3112d52f6b931e0cf48151a6bb1bf?cid=774b29d4f13844c495f206cafdad9c86",
      "track_number" : 11,
      "type" : "track",
      "uri" : "spotify:track:1SZEk6StvicDt6TVwxkjho"
    }, {
      "album" : {
        "album_type" : "album",
        "artists" : [ {
          "external_urls" : {
            "spotify" : "https://open.spotify.com/artist/7kwEvDE8e7EBGKh5bLczqQ"
          },
          "href" : "https://api.spotify.com/v1/artists/7kwEvDE8e7EBGKh5bLczqQ",
          "id" : "7kwEvDE8e7EBGKh5bLczqQ",
          "name" : "Anthem Lights",
          "type" : "artist",
          "uri" : "spotify:artist:7kwEvDE8e7EBGKh5bLczqQ"
        } ],
        "external_urls" : {
          "spotify" : "https://open.spotify.com/album/18we0y1PK9lt3Qneye6ciV"
        },
        "href" : "https://api.spotify.com/v1/albums/18we0y1PK9lt3Qneye6ciV",
        "id" : "18we0y1PK9lt3Qneye6ciV",
        "images" : [ {
          "height" : 640,
          "url" : "https://i.scdn.co/image/ab67616d0000b273dafdd3fa96666ede04d6bbcb",
          "width" : 640
        }, {
          "height" : 300,
          "url" : "https://i.scdn.co/image/ab67616d00001e02dafdd3fa96666ede04d6bbcb",
          "width" : 300
        }, {
          "height" : 64,
          "url" : "https://i.scdn.co/image/ab67616d00004851dafdd3fa96666ede04d6bbcb",
          "width" : 64
        } ],
        "name" : "Hymns, Vol. II",
        "release_date" : "2018-03-16",
        "release_date_precision" : "day",
        "total_tracks" : 10,
        "type" : "album",
        "uri" : "spotify:album:18we0y1PK9lt3Qneye6ciV"
      },
      "artists" : [ {
        "external_urls" : {
          "spotify" : "https://open.spotify.com/artist/7kwEvDE8e7EBGKh5bLczqQ"
        },
        "href" : "https://api.spotify.com/v1/artists/7kwEvDE8e7EBGKh5bLczqQ",
        "id" : "7kwEvDE8e7EBGKh5bLczqQ",
        "name" : "Anthem Lights",
        "type" : "artist",
        "uri" : "spotify:artist:7kwEvDE8e7EBGKh5bLczqQ"
      } ],
      "disc_number" : 1,
      "duration_ms" : 231897,
      "explicit" : false,
      "external_ids" : {
        "isrc" : "QMF921850016"
      },
      "external_urls" : {
        "spotify" : "https://open.spotify.com/track/20zi8IxtDq0FCK58v8QJKh"
      },
      "href" : "https://api.spotify.com/v1/tracks/20zi8IxtDq0FCK58v8QJKh",
      "id" : "20zi8IxtDq0FCK58v8QJKh",
      "is_local" : false,
      "is_playable" : true,
      "name" : "How Great Thou Art",
      "popularity" : 43,
      "preview_url" : "https://p.scdn.co/mp3-preview/b2b79d823368b8d567e6d6c06e2bfdcb8dc175ac?cid=774b29d4f13844c495f206cafdad9c86",
      "track_number" : 5,
      "type" : "track",
      "uri" : "spotify:track:20zi8IxtDq0FCK58v8QJKh"
    }, {
      "album" : {
        "album_type" : "album",
        "artists" : [ {
          "external_urls" : {
            "spotify" : "https://open.spotify.com/artist/2duo4NJtUrLaI38trK0hht"
          },
          "href" : "https://api.spotify.com/v1/artists/2duo4NJtUrLaI38trK0hht",
          "id" : "2duo4NJtUrLaI38trK0hht",
          "name" : "Mormon Tabernacle Choir",
          "type" : "artist",
          "uri" : "spotify:artist:2duo4NJtUrLaI38trK0hht"
        }, {
          "external_urls" : {
            "spotify" : "https://open.spotify.com/artist/4kAIRZipPTtTbZBTudxcEA"
          },
          "href" : "https://api.spotify.com/v1/artists/4kAIRZipPTtTbZBTudxcEA",
          "id" : "4kAIRZipPTtTbZBTudxcEA",
          "name" : "Orchestra at Temple Square",
          "type" : "artist",
          "uri" : "spotify:artist:4kAIRZipPTtTbZBTudxcEA"
        } ],
        "external_urls" : {
          "spotify" : "https://open.spotify.com/album/65X6CeYJHBmTvhjtfYmxVf"
        },
        "href" : "https://api.spotify.com/v1/albums/65X6CeYJHBmTvhjtfYmxVf",
        "id" : "65X6CeYJHBmTvhjtfYmxVf",
        "images" : [ {
          "height" : 640,
          "url" : "https://i.scdn.co/image/ab67616d0000b27352bc8b8969ab4a4e4b01ed06",
          "width" : 640
        }, {
          "height" : 300,
          "url" : "https://i.scdn.co/image/ab67616d00001e0252bc8b8969ab4a4e4b01ed06",
          "width" : 300
        }, {
          "height" : 64,
          "url" : "https://i.scdn.co/image/ab67616d0000485152bc8b8969ab4a4e4b01ed06",
          "width" : 64
        } ],
        "name" : "Then Sings My Soul",
        "release_date" : "2006-05-26",
        "release_date_precision" : "day",
        "total_tracks" : 18,
        "type" : "album",
        "uri" : "spotify:album:65X6CeYJHBmTvhjtfYmxVf"
      },
      "artists" : [ {
        "external_urls" : {
          "spotify" : "https://open.spotify.com/artist/2duo4NJtUrLaI38trK0hht"
        },
        "href" : "https://api.spotify.com/v1/artists/2duo4NJtUrLaI38trK0hht",
        "id" : "2duo4NJtUrLaI38trK0hht",
        "name" : "Mormon Tabernacle Choir",
        "type" : "artist",
        "uri" : "spotify:artist:2duo4NJtUrLaI38trK0hht"
      }, {
        "external_urls" : {
          "spotify" : "https://open.spotify.com/artist/4kAIRZipPTtTbZBTudxcEA"
        },
        "href" : "https://api.spotify.com/v1/artists/4kAIRZipPTtTbZBTudxcEA",
        "id" : "4kAIRZipPTtTbZBTudxcEA",
        "name" : "Orchestra at Temple Square",
        "type" : "artist",
        "uri" : "spotify:artist:4kAIRZipPTtTbZBTudxcEA"
      }, {
        "external_urls" : {
          "spotify" : "https://open.spotify.com/artist/13iOctu8ZH8004y3Sy4e8p"
        },
        "href" : "https://api.spotify.com/v1/artists/13iOctu8ZH8004y3Sy4e8p",
        "id" : "13iOctu8ZH8004y3Sy4e8p",
        "name" : "Craig Jessop",
        "type" : "artist",
        "uri" : "spotify:artist:13iOctu8ZH8004y3Sy4e8p"
      }, {
        "external_urls" : {
          "spotify" : "https://open.spotify.com/artist/2Zpql3RdMQjunbDKk1bIiz"
        },
        "href" : "https://api.spotify.com/v1/artists/2Zpql3RdMQjunbDKk1bIiz",
        "id" : "2Zpql3RdMQjunbDKk1bIiz",
        "name" : "Mack Wilberg",
        "type" : "artist",
        "uri" : "spotify:artist:2Zpql3RdMQjunbDKk1bIiz"
      } ],
      "disc_number" : 1,
      "duration_ms" : 302506,
      "explicit" : false,
      "external_ids" : {
        "isrc" : "US23M0645425"
      },
      "external_urls" : {
        "spotify" : "https://open.spotify.com/track/6bCKgQ8q4YrIkKsQNq9XgV"
      },
      "href" : "https://api.spotify.com/v1/tracks/6bCKgQ8q4YrIkKsQNq9XgV",
      "id" : "6bCKgQ8q4YrIkKsQNq9XgV",
      "is_local" : false,
      "is_playable" : true,
      "name" : "How Great Thou Art",
      "popularity" : 38,
      "preview_url" : "https://p.scdn.co/mp3-preview/d55c790218df314cfe3768ad8502c475eacb1d64?cid=774b29d4f13844c495f206cafdad9c86",
      "track_number" : 1,
      "type" : "track",
      "uri" : "spotify:track:6bCKgQ8q4YrIkKsQNq9XgV"
    }, {
      "album" : {
        "album_type" : "album",
        "artists" : [ {
          "external_urls" : {
            "spotify" : "https://open.spotify.com/artist/0g1QOskZ9opQELS5ijE6XV"
          },
          "href" : "https://api.spotify.com/v1/artists/0g1QOskZ9opQELS5ijE6XV",
          "id" : "0g1QOskZ9opQELS5ijE6XV",
          "name" : "Ascend The Hill",
          "type" : "artist",
          "uri" : "spotify:artist:0g1QOskZ9opQELS5ijE6XV"
        } ],
        "external_urls" : {
          "spotify" : "https://open.spotify.com/album/5zTeujNhDuxaHYuJcrhelf"
        },
        "href" : "https://api.spotify.com/v1/albums/5zTeujNhDuxaHYuJcrhelf",
        "id" : "5zTeujNhDuxaHYuJcrhelf",
        "images" : [ {
          "height" : 640,
          "url" : "https://i.scdn.co/image/ab67616d0000b2730ace047a30d5881c3981980e",
          "width" : 640
        }, {
          "height" : 300,
          "url" : "https://i.scdn.co/image/ab67616d00001e020ace047a30d5881c3981980e",
          "width" : 300
        }, {
          "height" : 64,
          "url" : "https://i.scdn.co/image/ab67616d000048510ace047a30d5881c3981980e",
          "width" : 64
        } ],
        "name" : "Take the World, but Give Me Jesus",
        "release_date" : "2010-09-14",
        "release_date_precision" : "day",
        "total_tracks" : 9,
        "type" : "album",
        "uri" : "spotify:album:5zTeujNhDuxaHYuJcrhelf"
      },
      "artists" : [ {
        "external_urls" : {
          "spotify" : "https://open.spotify.com/artist/0g1QOskZ9opQELS5ijE6XV"
        },
        "href" : "https://api.spotify.com/v1/artists/0g1QOskZ9opQELS5ijE6XV",
        "id" : "0g1QOskZ9opQELS5ijE6XV",
        "name" : "Ascend The Hill",
        "type" : "artist",
        "uri" : "spotify:artist:0g1QOskZ9opQELS5ijE6XV"
      } ],
      "disc_number" : 1,
      "duration_ms" : 310920,
      "explicit" : false,
      "external_ids" : {
        "isrc" : "TCAAR1058216"
      },
      "external_urls" : {
        "spotify" : "https://open.spotify.com/track/3Ns3lcE4VzhFJCqcevhvRg"
      },
      "href" : "https://api.spotify.com/v1/tracks/3Ns3lcE4VzhFJCqcevhvRg",
      "id" : "3Ns3lcE4VzhFJCqcevhvRg",
      "is_local" : false,
      "is_playable" : true,
      "name" : "How Great Thou Art",
      "popularity" : 36,
      "preview_url" : "https://p.scdn.co/mp3-preview/9591ea6c4c3b1689e1aea4d22689b4c81eb53e78?cid=774b29d4f13844c495f206cafdad9c86",
      "track_number" : 2,
      "type" : "track",
      "uri" : "spotify:track:3Ns3lcE4VzhFJCqcevhvRg"
    }, {
      "album" : {
        "album_type" : "album",
        "artists" : [ {
          "external_urls" : {
            "spotify" : "https://open.spotify.com/artist/26AHtbjWKiwYzsoGoUZq53"
          },
          "href" : "https://api.spotify.com/v1/artists/26AHtbjWKiwYzsoGoUZq53",
          "id" : "26AHtbjWKiwYzsoGoUZq53",
          "name" : "Pentatonix",
          "type" : "artist",
          "uri" : "spotify:artist:26AHtbjWKiwYzsoGoUZq53"
        } ],
        "external_urls" : {
          "spotify" : "https://open.spotify.com/album/3sId8sOH47yqOWopzbEtJn"
        },
        "href" : "https://api.spotify.com/v1/albums/3sId8sOH47yqOWopzbEtJn",
        "id" : "3sId8sOH47yqOWopzbEtJn",
        "images" : [ {
          "height" : 640,
          "url" : "https://i.scdn.co/image/ab67616d0000b273ddbbb08d6f7a6ed263fa6afc",
          "width" : 640
        }, {
          "height" : 300,
          "url" : "https://i.scdn.co/image/ab67616d00001e02ddbbb08d6f7a6ed263fa6afc",
          "width" : 300
        }, {
          "height" : 64,
          "url" : "https://i.scdn.co/image/ab67616d00004851ddbbb08d6f7a6ed263fa6afc",
          "width" : 64
        } ],
        "name" : "A Pentatonix Christmas Deluxe",
        "release_date" : "2017-12-06",
        "release_date_precision" : "day",
        "total_tracks" : 16,
        "type" : "album",
        "uri" : "spotify:album:3sId8sOH47yqOWopzbEtJn"
      },
      "artists" : [ {
        "external_urls" : {
          "spotify" : "https://open.spotify.com/artist/26AHtbjWKiwYzsoGoUZq53"
        },
        "href" : "https://api.spotify.com/v1/artists/26AHtbjWKiwYzsoGoUZq53",
        "id" : "26AHtbjWKiwYzsoGoUZq53",
        "name" : "Pentatonix",
        "type" : "artist",
        "uri" : "spotify:artist:26AHtbjWKiwYzsoGoUZq53"
      }, {
        "external_urls" : {
          "spotify" : "https://open.spotify.com/artist/35GL8Cu2GKTcHzKGi75xl5"
        },
        "href" : "https://api.spotify.com/v1/artists/35GL8Cu2GKTcHzKGi75xl5",
        "id" : "35GL8Cu2GKTcHzKGi75xl5",
        "name" : "Jennifer Hudson",
        "type" : "artist",
        "uri" : "spotify:artist:35GL8Cu2GKTcHzKGi75xl5"
      } ],
      "disc_number" : 1,
      "duration_ms" : 249173,
      "explicit" : false,
      "external_ids" : {
        "isrc" : "USRC11702522"
      },
      "external_urls" : {
        "spotify" : "https://open.spotify.com/track/63Mp0wBST8VB5L3DndlETi"
      },
      "href" : "https://api.spotify.com/v1/tracks/63Mp0wBST8VB5L3DndlETi",
      "id" : "63Mp0wBST8VB5L3DndlETi",
      "is_local" : false,
      "is_playable" : true,
      "name" : "How Great Thou Art (feat. Jennifer Hudson)",
      "popularity" : 40,
      "preview_url" : "https://p.scdn.co/mp3-preview/3400b7fcd302fe4decced51b9b49e5f0050d3b00?cid=774b29d4f13844c495f206cafdad9c86",
      "track_number" : 13,
      "type" : "track",
      "uri" : "spotify:track:63Mp0wBST8VB5L3DndlETi"
    }, {
      "album" : {
        "album_type" : "album",
        "artists" : [ {
          "external_urls" : {
            "spotify" : "https://open.spotify.com/artist/2LFbgsbEhfilNpQYW7mied"
          },
          "href" : "https://api.spotify.com/v1/artists/2LFbgsbEhfilNpQYW7mied",
          "id" : "2LFbgsbEhfilNpQYW7mied",
          "name" : "Shane & Shane",
          "type" : "artist",
          "uri" : "spotify:artist:2LFbgsbEhfilNpQYW7mied"
        } ],
        "external_urls" : {
          "spotify" : "https://open.spotify.com/album/4q4dWDNJcrxHnjO8zo3spx"
        },
        "href" : "https://api.spotify.com/v1/albums/4q4dWDNJcrxHnjO8zo3spx",
        "id" : "4q4dWDNJcrxHnjO8zo3spx",
        "images" : [ {
          "height" : 640,
          "url" : "https://i.scdn.co/image/ab67616d0000b2731a1dc234f3c6ec37390c65f9",
          "width" : 640
        }, {
          "height" : 300,
          "url" : "https://i.scdn.co/image/ab67616d00001e021a1dc234f3c6ec37390c65f9",
          "width" : 300
        }, {
          "height" : 64,
          "url" : "https://i.scdn.co/image/ab67616d000048511a1dc234f3c6ec37390c65f9",
          "width" : 64
        } ],
        "name" : "Hymns Live",
        "release_date" : "2019-02-08",
        "release_date_precision" : "day",
        "total_tracks" : 13,
        "type" : "album",
        "uri" : "spotify:album:4q4dWDNJcrxHnjO8zo3spx"
      },
      "artists" : [ {
        "external_urls" : {
          "spotify" : "https://open.spotify.com/artist/2LFbgsbEhfilNpQYW7mied"
        },
        "href" : "https://api.spotify.com/v1/artists/2LFbgsbEhfilNpQYW7mied",
        "id" : "2LFbgsbEhfilNpQYW7mied",
        "name" : "Shane & Shane",
        "type" : "artist",
        "uri" : "spotify:artist:2LFbgsbEhfilNpQYW7mied"
      } ],
      "disc_number" : 1,
      "duration_ms" : 302725,
      "explicit" : false,
      "external_ids" : {
        "isrc" : "USDHM1999903"
      },
      "external_urls" : {
        "spotify" : "https://open.spotify.com/track/2M4wcPQ5WBwLCCfX1GUTCu"
      },
      "href" : "https://api.spotify.com/v1/tracks/2M4wcPQ5WBwLCCfX1GUTCu",
      "id" : "2M4wcPQ5WBwLCCfX1GUTCu",
      "is_local" : false,
      "is_playable" : true,
      "name" : "How Great Thou Art (Live)",
      "popularity" : 40,
      "preview_url" : "https://p.scdn.co/mp3-preview/cf3317dcd0b354a17c34d89ab3e25d0f2ebd8a36?cid=774b29d4f13844c495f206cafdad9c86",
      "track_number" : 3,
      "type" : "track",
      "uri" : "spotify:track:2M4wcPQ5WBwLCCfX1GUTCu"
    }, {
      "album" : {
        "album_type" : "album",
        "artists" : [ {
          "external_urls" : {
            "spotify" : "https://open.spotify.com/artist/1pTuR132U5b4Rizal2Pr7m"
          },
          "href" : "https://api.spotify.com/v1/artists/1pTuR132U5b4Rizal2Pr7m",
          "id" : "1pTuR132U5b4Rizal2Pr7m",
          "name" : "Randy Travis",
          "type" : "artist",
          "uri" : "spotify:artist:1pTuR132U5b4Rizal2Pr7m"
        } ],
        "external_urls" : {
          "spotify" : "https://open.spotify.com/album/00GTXwYxb2MB1zCbdIMHYL"
        },
        "href" : "https://api.spotify.com/v1/albums/00GTXwYxb2MB1zCbdIMHYL",
        "id" : "00GTXwYxb2MB1zCbdIMHYL",
        "images" : [ {
          "height" : 640,
          "url" : "https://i.scdn.co/image/ab67616d0000b27349ec36f72eb659f391759959",
          "width" : 640
        }, {
          "height" : 300,
          "url" : "https://i.scdn.co/image/ab67616d00001e0249ec36f72eb659f391759959",
          "width" : 300
        }, {
          "height" : 64,
          "url" : "https://i.scdn.co/image/ab67616d0000485149ec36f72eb659f391759959",
          "width" : 64
        } ],
        "name" : "Worship & Faith",
        "release_date" : "2003-11-11",
        "release_date_precision" : "day",
        "total_tracks" : 20,
        "type" : "album",
        "uri" : "spotify:album:00GTXwYxb2MB1zCbdIMHYL"
      },
      "artists" : [ {
        "external_urls" : {
          "spotify" : "https://open.spotify.com/artist/1pTuR132U5b4Rizal2Pr7m"
        },
        "href" : "https://api.spotify.com/v1/artists/1pTuR132U5b4Rizal2Pr7m",
        "id" : "1pTuR132U5b4Rizal2Pr7m",
        "name" : "Randy Travis",
        "type" : "artist",
        "uri" : "spotify:artist:1pTuR132U5b4Rizal2Pr7m"
      } ],
      "disc_number" : 1,
      "duration_ms" : 274493,
      "explicit" : false,
      "external_ids" : {
        "isrc" : "USWR60300842"
      },
      "external_urls" : {
        "spotify" : "https://open.spotify.com/track/1n1PChHHJfm1kJVyY9Qu0D"
      },
      "href" : "https://api.spotify.com/v1/tracks/1n1PChHHJfm1kJVyY9Qu0D",
      "id" : "1n1PChHHJfm1kJVyY9Qu0D",
      "is_local" : false,
      "is_playable" : true,
      "name" : "How Great Thou Art",
      "popularity" : 36,
      "preview_url" : "https://p.scdn.co/mp3-preview/b0c461dc7f5787bc706ff7c7cffd3086466c6edf?cid=774b29d4f13844c495f206cafdad9c86",
      "track_number" : 3,
      "type" : "track",
      "uri" : "spotify:track:1n1PChHHJfm1kJVyY9Qu0D"
    } ],
    "limit" : 10,
    "next" : "https://api.spotify.com/v1/search?query=How+Great+Thou+Art&type=track&market=US&offset=15&limit=10",
    "offset" : 5,
    "previous" : "https://api.spotify.com/v1/search?query=How+Great+Thou+Art&type=track&market=US&offset=0&limit=10",
    "total" : 5316
  }
}