{
  "tracks" : {
    "href" : "https://api.spotify.com/v1/search?query=Wake+the+Song&type=track&market=US&offset=5&limit=10",
    "items" : [ {
      "album" : {
        "album_type" : "album",
        "artists" : [ {
          "external_urls" : {
            "spotify" : "https://open.spotify.com/artist/2KRUmUbmOXybsu6inukf5C"
          },
          "href" : "https://api.spotify.com/v1/artists/2KRUmUbmOXybsu6inukf5C",
          "id" : "2KRUmUbmOXybsu6inukf5C",
          "name" : "Canciones Infantiles",
          "type" : "artist",
          "uri" : "spotify:artist:2KRUmUbmOXybsu6inukf5C"
        } ],
        "external_urls" : {
          "spotify" : "https://open.spotify.com/album/5zXXomOm6Y96ogd0BgNbPn"
        },
        "href" : "https://api.spotify.com/v1/albums/5zXXomOm6Y96ogd0BgNbPn",
        "id" : "5zXXomOm6Y96ogd0BgNbPn",
        "images" : [ {
          "height" : 640,
          "url" : "https://i.scdn.co/image/ab67616d0000b2735920d075f661f33fe58e6004",
          "width" : 640
        }, {
          "height" : 300,
          "url" : "https://i.scdn.co/image/ab67616d00001e025920d075f661f33fe58e6004",
          "width" : 300
        }, {
          "height" : 64,
          "url" : "https://i.scdn.co/image/ab67616d000048515920d075f661f33fe58e6004",
          "width" : 64
        } ],
        "name" : "18 Songs Just For The Kids",
        "release_date" : "2020-05-29",
        "release_date_precision" : "day",
        "total_tracks" : 18,
        "type" : "album",
        "uri" : "spotify:album:5zXXomOm6Y96ogd0BgNbPn"
      },
      "artists" : [ {
        "external_urls" : {
          "spotify" : "https://open.spotify.com/artist/2KRUmUbmOXybsu6inukf5C"
        },
        "href" : "https://api.spotify.com/v1/artists/2KRUmUbmOXybsu6inukf5C",
        "id" : "2KRUmUbmOXybsu6inukf5C",
        "name" : "Canciones Infantiles",
        "type" : "artist",
        "uri" : "spotify:artist:2KRUmUbmOXybsu6inukf5C"
      } ],
      "disc_number" : 1,
      "duration_ms" : 115800,
      "explicit" : false,
      "external_ids" : {
        "isrc" : "GBPW45242658"
      },
      "external_urls" : {
        "spotify" : "https://open.spotify.com/track/3p6B7DQC7lbgrBk4jo7coE"
      },
      "href" : "https://api.spotify.com/v1/tracks/3p6B7DQC7lbgrBk4jo7coE",
      "id" : "3p6B7DQC7lbgrBk4jo7coE",
      "is_local" : false,
      "is_playable" : true,
      "name" : "Wake Up",
      "popularity" : 0,
      "preview_url" : "https://p.scdn.co/mp3-preview/fc08649fc5f1fd95e8c8aa7df3832d5e76d3fd44?cid=774b29d4f13844c495f206cafdad9c86",
      "track_number" : 9,
      "type" : "track",
      "uri" : "spotify:track:3p6B7DQC7lbgrBk4jo7coE"
    }, {
      "album" : {
        "album_type" : "album",
        "artists" : [ {
          "external_urls" : {
            "spotify" : "https://open.spotify.com/artist/4TMHGUX5WI7OOm53PqSDAT"
          },
          "href" : "https://api.spotify.com/v1/artists/4TMHGUX5WI7OOm53PqSDAT",
          "id" : "4TMHGUX5WI7OOm53PqSDAT",
          "name" : "Grateful Dead",
          "type" : "artist",
          "uri" : "spotify:artist:4TMHGUX5WI7OOm53PqSDAT"
        } ],
        "external_urls" : {
          "spotify" : "https://open.spotify.com/album/7xWKImlu9fzB1ApqoLLMiL"
        },
        "href" : "https://api.spotify.com/v1/albums/7xWKImlu9fzB1ApqoLLMiL",
        "id" : "7xWKImlu9fzB1ApqoLLMiL",
        "images" : [ {
          "height" : 640,
          "url" : "https://i.scdn.co/image/ab67616d0000b27395d07ea75cb28f75e3d0e620",
          "width" : 640
        }, {
          "height" : 300,
          "url" : "https://i.scdn.co/image/ab67616d00001e0295d07ea75cb28f75e3d0e620",
          "width" : 300
        }, {
          "height" : 64,
          "url" : "https://i.scdn.co/image/ab67616d0000485195d07ea75cb28f75e3d0e620",
          "width" : 64
        } ],
        "name" : "Wake up to Find Out: Nassau Coliseum: Uniondale; NY 3/29/1990 (Live)",
        "release_date" : "2014-09-08",
        "release_date_precision" : "day",
        "total_tracks" : 17,
        "type" : "album",
        "uri" : "spotify:album:7xWKImlu9fzB1ApqoLLMiL"
      },
      "artists" : [ {
        "external_urls" : {
          "spotify" : "https://open.spotify.com/artist/4TMHGUX5WI7OOm53PqSDAT"
        },
        "href" : "https://api.spotify.com/v1/artists/4TMHGUX5WI7OOm53PqSDAT",
        "id" : "4TMHGUX5WI7OOm53PqSDAT",
        "name" : "Grateful Dead",
        "type" : "artist",
        "uri" : "spotify:artist:4TMHGUX5WI7OOm53PqSDAT"
      } ],
      "disc_number" : 1,
      "duration_ms" : 785813,
      "explicit" : false,
      "external_ids" : {
        "isrc" : "USRH11400446"
      },
      "external_urls" : {
        "spotify" : "https://open.spotify.com/track/44hPiIWWPw4yLSSZ7cYHx7"
      },
      "href" : "https://api.spotify.com/v1/tracks/44hPiIWWPw4yLSSZ7cYHx7",
      "id" : "44hPiIWWPw4yLSSZ7cYHx7",
      "is_local" : false,
      "is_playable" : true,
      "name" : "Bird Song - Live at Nassau Coliseum, Uniondale, New York 3/29/90",
      "popularity" : 24,
      "preview_url" : "https://p.scdn.co/mp3-preview/8f75c6cb18aca91feaaf1888a08e8f2bae8c9160?cid=774b29d4f13844c495f206cafdad9c86",
      "track_number" : 6,
      "type" : "track",
      "uri" : "spotify:track:44hPiIWWPw4yLSSZ7cYHx7"
    }, {
      "album" : {
        "album_type" : "compilation",
        "artists" : [ {
          "external_urls" : {
            "spotify" : "https://open.spotify.com/artist/0LyfQWJT6nXafLPZqxe9Of"
          },
          "href" : "https://api.spotify.com/v1/artists/0LyfQWJT6nXafLPZqxe9Of",
          "id" : "0LyfQWJT6nXafLPZqxe9Of",
          "name" : "Various Artists",
          "type" : "artist",
          "uri" : "spotify:artist:0LyfQWJT6nXafLPZqxe9Of"
        } ],
        "external_urls" : {
          "spotify" : "https://open.spotify.com/album/1Sfipn1VH7Q0ZSPfXz7oOx"
        },
        "href" : "https://api.spotify.com/v1/albums/1Sfipn1VH7Q0ZSPfXz7oOx",
        "id" : "1Sfipn1VH7Q0ZSPfXz7oOx",
        "images" : [ {
          "height" : 640,
          "url" : "https://i.scdn.co/image/ab67616d0000b27380ced3b322df7e764254d6e4",
          "width" : 640
        }, {
          "height" : 300,
          "url" : "https://i.scdn.co/image/ab67616d00001e0280ced3b322df7e764254d6e4",
          "width" : 300
        }, {
          "height" : 64,
          "url" : "https://i.scdn.co/image/ab67616d0000485180ced3b322df7e764254d6e4",
          "width" : 64
        } ],
        "name" : "Alice In Wonderland (Original Motion Picture Soundtrack)",
        "release_date" : "1997-01-01",
        "release_date_precision" : "day",
        "total_tracks" : 23,
        "type" : "album",
        "uri" : "spotify:album:1Sfipn1VH7Q0ZSPfXz7oOx"
      },
      "artists" : [ {
        "external_urls" : {
          "spotify" : "https://open.spotify.com/artist/762gpacQ6WcT75zlkrc3Ls"
        },
        "href" : "https://api.spotify.com/v1/artists/762gpacQ6WcT75zlkrc3Ls",
        "id" : "762gpacQ6WcT75zlkrc3Ls",
        "name" : "Kathryn Beaumont",
        "type" : "artist",
        "uri" : "spotify:artist:762gpacQ6WcT75zlkrc3Ls"
      }, {
        "external_urls" : {
          "spotify" : "https://open.spotify.com/artist/7aU90hxXexP47nEeMee6xM"
        },
        "href" : "https://api.spotify.com/v1/artists/7aU90hxXexP47nEeMee6xM",
        "id" : "7aU90hxXexP47nEeMee6xM",
        "name" : "Verna Felton",
        "type" : "artist",
        "uri" : "spotify:artist:7aU90hxXexP47nEeMee6xM"
      }, {
        "external_urls" : {
          "spotify" : "https://open.spotify.com/artist/3XX7VQJvnPuFrCSaHgexf5"
        },
        "href" : "https://api.spotify.com/v1/artists/3XX7VQJvnPuFrCSaHgexf5",
        "id" : "3XX7VQJvnPuFrCSaHgexf5",
        "name" : "Edwynn",
        "type" : "artist",
        "uri" : "spotify:artist:3XX7VQJvnPuFrCSaHgexf5"
      }, {
        "external_urls" : {
          "spotify" : "https://open.spotify.com/artist/5s5jvj5TkkMkQDR28awRsA"
        },
        "href" : "https://api.spotify.com/v1/artists/5s5jvj5TkkMkQDR28awRsA",
        "id" : "5s5jvj5TkkMkQDR28awRsA",
        "name" : "The Jud Conlon Chorus",
        "type" : "artist",
        "uri" : "spotify:artist:5s5jvj5TkkMkQDR28awRsA"
      }, {
        "external_urls" : {
          "spotify" : "https://open.spotify.com/artist/4Rg7sNSGzUzaP1qkc5qVhc"
        },
        "href" : "https://api.spotify.com/v1/artists/4Rg7sNSGzUzaP1qkc5qVhc",
        "id" : "4Rg7sNSGzUzaP1qkc5qVhc",
        "name" : "Jerry Colonna",
        "type" : "artist",
        "uri" : "spotify:artist:4Rg7sNSGzUzaP1qkc5qVhc"
      } ],
      "disc_number" : 1,
      "duration_ms" : 359493,
      "explicit" : false,
      "external_ids" : {
        "isrc" : "USWD10321832"
      },
      "external_urls" : {
        "spotify" : "https://open.spotify.com/track/4vSDvyFrZszu1YnrcQuhwB"
      },
      "href" : "https://api.spotify.com/v1/tracks/4vSDvyFrZszu1YnrcQuhwB",
      "id" : "4vSDvyFrZszu1YnrcQuhwB",
      "is_local" : false,
      "is_playable" : true,
      "name" : "The Trial / The Unbirthday Song (Reprise) / Rule 42 / Off With Her Head / The Caucus Race (Reprise) / Please Wake Up Alice / Time For Tea / Finale (Alice In Wonderland)",
      "popularity" : 24,
      "preview_url" : null,
      "track_number" : 23,
      "type" : "track",
      "uri" : "spotify:track:4vSDvyFrZszu1YnrcQuhwB"
    }, {
      "album" : {
        "album_type" : "album",
        "artists" : [ {
          "external_urls" : {
            "spotify" : "https://open.spotify.com/artist/5ZiVNVZ2yPcn7SsdMISFHa"
          },
          "href" : "https://api.spotify.com/v1/artists/5ZiVNVZ2yPcn7SsdMISFHa",
          "id" : "5ZiVNVZ2yPcn7SsdMISFHa",
          "name" : "The Playtime Allstars",
          "type" : "artist",
          "uri" : "spotify:artist:5ZiVNVZ2yPcn7SsdMISFHa"
        } ],
        "external_urls" : {
          "spotify" : "https://open.spotify.com/album/7bPyMUYfPoxK9Ff7fcKDNn"
        },
        "href" : "https://api.spotify.com/v1/albums/7bPyMUYfPoxK9Ff7fcKDNn",
        "id" : "7bPyMUYfPoxK9Ff7fcKDNn",
        "images" : [ {
          "height" : 640,
          "url" : "https://i.scdn.co/image/ab67616d0000b273c55e38173c357ad7c8354bb1",
          "width" : 640
        }, {
          "height" : 300,
          "url" : "https://i.scdn.co/image/ab67616d00001e02c55e38173c357ad7c8354bb1",
          "width" : 300
        }, {
          "height" : 64,
          "url" : "https://i.scdn.co/image/ab67616d00004851c55e38173c357ad7c8354bb1",
          "width" : 64
        } ],
        "name" : "31 Playground Antic Songs",
        "release_date" : "2020-05-22",
        "release_date_precision" : "day",
        "total_tracks" : 31,
        "type" : "album",
        "uri" : "spotify:album:7bPyMUYfPoxK9Ff7fcKDNn"
      },
      "artists" : [ {
        "external_urls" : {
          "spotify" : "https://open.spotify.com/artist/5ZiVNVZ2yPcn7SsdMISFHa"
        },
        "href" : "https://api.spotify.com/v1/artists/5ZiVNVZ2yPcn7SsdMISFHa",
        "id" : "5ZiVNVZ2yPcn7SsdMISFHa",
        "name" : "The Playtime Allstars",
        "type" : "artist",
        "uri" : "spotify:artist:5ZiVNVZ2yPcn7SsdMISFHa"
      } ],
      "disc_number" : 1,
      "duration_ms" : 115800,
      "explicit" : false,
      "external_ids" : {
        "isrc" : "GBPW45211361"
      },
      "external_urls" : {
        "spotify" : "https://open.spotify.com/track/0DduDsWzxDSSe87NOQJS1e"
      },
      "href" : "https://api.spotify.com/v1/tracks/0DduDsWzxDSSe87NOQJS1e",
      "id" : "0DduDsWzxDSSe87NOQJS1e",
      "is_local" : false,
      "is_playable" : true,
      "name" : "Wake Up",
      "popularity" : 0,
      "preview_url" : "https://p.scdn.co/mp3-preview/fc08649fc5f1fd95e8c8aa7df3832d5e76d3fd44?cid=774b29d4f13844c495f206cafdad9c86",
      "track_number" : 14,
      "type" : "track",
      "uri" : "spotify:track:0DduDsWzxDSSe87NOQJS1e"
    }, {
      "album" : {
        "album_type" : "album",
        "artists" : [ {
          "external_urls" : {
            "spotify" : "https://open.spotify.com/artist/4qWTqOdDnH56Qak9UjmpKz"
          },
          "href" : "https://api.spotify.com/v1/artists/4qWTqOdDnH56Qak9UjmpKz",
          "id" : "4qWTqOdDnH56Qak9UjmpKz",
          "name" : "The Clancy Brothers",
          "type" : "artist",
          "uri" : "spotify:artist:4qWTqOdDnH56Qak9UjmpKz"
        }, {
          "external_urls" : {
            "spotify" : "https://open.spotify.com/artist/3oehGAh6rLM6LFdzM7E7zM"
          },
          "href" : "https://api.spotify.com/v1/artists/3oehGAh6rLM6LFdzM7E7zM",
          "id" : "3oehGAh6rLM6LFdzM7E7zM",
          "name" : "Tommy Makem",
          "type" : "artist",
          "uri" : "spotify:artist:3oehGAh6rLM6LFdzM7E7zM"
        } ],
        "external_urls" : {
          "spotify" : "https://open.spotify.com/album/7DmSH2Xnxkp9C2GLf51Wgr"
        },
        "href" : "https://api.spotify.com/v1/albums/7DmSH2Xnxkp9C2GLf51Wgr",
        "id" : "7DmSH2Xnxkp9C2GLf51Wgr",
        "images" : [ {
          "height" : 640,
          "url" : "https://i.scdn.co/image/ab67616d0000b2735233e87628edc1dbf7b4f740",
          "width" : 640
        }, {
          "height" : 300,
          "url" : "https://i.scdn.co/image/ab67616d00001e025233e87628edc1dbf7b4f740",
          "width" : 300
        }, {
          "height" : 64,
          "url" : "https://i.scdn.co/image/ab67616d000048515233e87628edc1dbf7b4f740",
          "width" : 64
        } ],
        "name" : "Irish Drinking Songs",
        "release_date" : "2006",
        "release_date_precision" : "year",
        "total_tracks" : 14,
        "type" : "album",
        "uri" : "spotify:album:7DmSH2Xnxkp9C2GLf51Wgr"
      },
      "artists" : [ {
        "external_urls" : {
          "spotify" : "https://open.spotify.com/artist/4qWTqOdDnH56Qak9UjmpKz"
        },
        "href" : "https://api.spotify.com/v1/artists/4qWTqOdDnH56Qak9UjmpKz",
        "id" : "4qWTqOdDnH56Qak9UjmpKz",
        "name" : "The Clancy Brothers",
        "type" : "artist",
        "uri" : "spotify:artist:4qWTqOdDnH56Qak9UjmpKz"
      }, {
        "external_urls" : {
          "spotify" : "https://open.spotify.com/artist/3oehGAh6rLM6LFdzM7E7zM"
        },
        "href" : "https://api.spotify.com/v1/artists/3oehGAh6rLM6LFdzM7E7zM",
        "id" : "3oehGAh6rLM6LFdzM7E7zM",
        "name" : "Tommy Makem",
        "type" : "artist",
        "uri" : "spotify:artist:3oehGAh6rLM6LFdzM7E7zM"
      } ],
      "disc_number" : 1,
      "duration_ms" : 136893,
      "explicit" : false,
      "external_ids" : {
        "isrc" : "USHJ10516052"
      },
      "external_urls" : {
        "spotify" : "https://open.spotify.com/track/5nxiCoCIIuuOEMU6MrwuQA"
      },
      "href" : "https://api.spotify.com/v1/tracks/5nxiCoCIIuuOEMU6MrwuQA",
      "id" : "5nxiCoCIIuuOEMU6MrwuQA",
      "is_local" : false,
      "is_playable" : true,
      "name" : "Finnigan's Wake",
      "popularity" : 23,
      "preview_url" : "https://p.scdn.co/mp3-preview/012bef449eee774f01782bd890b69950b95c35e8?cid=774b29d4f13844c495f206cafdad9c86",
      "track_number" : 6,
      "type" : "track",
      "uri" : "spotify:track:5nxiCoCIIuuOEMU6MrwuQA"
    }, {
      "album" : {
        "album_type" : "album",
        "artists" : [ {
          "external_urls" : {
            "spotify" : "https://open.spotify.com/artist/6D9Y5lqXKgJv8CV6Ur59oS"
          },
          "href" : "https://api.spotify.com/v1/artists/6D9Y5lqXKgJv8CV6Ur59oS",
          "id" : "6D9Y5lqXKgJv8CV6Ur59oS",
          "name" : "The Submarines",
          "type" : "artist",
          "uri" : "spotify:artist:6D9Y5lqXKgJv8CV6Ur59oS"
        } ],
        "external_urls" : {
          "spotify" : "https://open.spotify.com/album/09hWXBNh3PEDWtzc19Wts9"
        },
        "href" : "https://api.spotify.com/v1/albums/09hWXBNh3PEDWtzc19Wts9",
        "id" : "09hWXBNh3PEDWtzc19Wts9",
        "images" : [ {
          "height" : 640,
          "url" : "https://i.scdn.co/image/ab67616d0000b27324519c10ea69199d20f29579",
          "width" : 640
        }, {
          "height" : 300,
          "url" : "https://i.scdn.co/image/ab67616d00001e0224519c10ea69199d20f29579",
          "width" : 300
        }, {
          "height" : 64,
          "url" : "https://i.scdn.co/image/ab67616d0000485124519c10ea69199d20f29579",
          "width" : 64
        } ],
        "name" : "Honeysuckle Weeks",
        "release_date" : "2008-05-13",
        "release_date_precision" : "day",
        "total_tracks" : 10,
        "type" : "album",
        "uri" : "spotify:album:09hWXBNh3PEDWtzc19Wts9"
      },
      "artists" : [ {
        "external_urls" : {
          "spotify" : "https://open.spotify.com/artist/6D9Y5lqXKgJv8CV6Ur59oS"
        },
        "href" : "https://api.spotify.com/v1/artists/6D9Y5lqXKgJv8CV6Ur59oS",
        "id" : "6D9Y5lqXKgJv8CV6Ur59oS",
        "name" : "The Submarines",
        "type" : "artist",
        "uri" : "spotify:artist:6D9Y5lqXKgJv8CV6Ur59oS"
      } ],
      "disc_number" : 1,
      "duration_ms" : 244533,
      "explicit" : false,
      "external_ids" : {
        "isrc" : "CAN110800022"
      },
      "external_urls" : {
        "spotify" : "https://open.spotify.com/track/52GS0ZFVlvQCDuaSoTmKaA"
      },
      "href" : "https://api.spotify.com/v1/tracks/52GS0ZFVlvQCDuaSoTmKaA",
      "id" : "52GS0ZFVlvQCDuaSoTmKaA",
      "is_local" : false,
      "is_playable" : true,
      "name" : "The Wake Up Song",
      "popularity" : 21,
      "preview_url" : "https://p.scdn.co/mp3-preview/23cbfe47aad47f9248c1bc3cb49e7b25a8d2a47e?cid=774b29d4f13844c495f206cafdad9c86",
      "track_number" : 5,
      "type" : "track",
      "uri" : "spotify:track:52GS0ZFVlvQCDuaSoTmKaA"
    }, {
      "album" : {
        "album_type" : "album",
        "artists" : [ {
          "external_urls" : {
            "spotify" : "https://open.spotify.com/artist/0fagNxnyvy6FDvkNPt6X29"
          },
          "href" : "https://api.spotify.com/v1/artists/0fagNxnyvy6FDvkNPt6X29",
          "id" : "0fagNxnyvy6FDvkNPt6X29",
          "name" : "Monsalve",
          "type" : "artist",
          "uri" : "spotify:artist:0fagNxnyvy6FDvkNPt6X29"
        } ],
        "external_urls" : {
          "spotify" : "https://open.spotify.com/album/5zFkQHvRimPKxjwDwkkeNL"
        },
        "href" : "https://api.spotify.com/v1/albums/5zFkQHvRimPKxjwDwkkeNL",
        "id" : "5zFkQHvRimPKxjwDwkkeNL",
        "images" : [ {
          "height" : 640,
          "url" : "https://i.scdn.co/image/ab67616d0000b2737410fc62805f987b78ea533b",
          "width" : 640
        }, {
          "height" : 300,
          "url" : "https://i.scdn.co/image/ab67616d00001e027410fc62805f987b78ea533b",
          "width" : 300
        }, {
          "height" : 64,
          "url" : "https://i.scdn.co/image/ab67616d000048517410fc62805f987b78ea533b",
          "width" : 64
        } ],
        "name" : "The Legend of Zelda - Best Soundtracks (Majora's Mask, Ocarina of Time, a Link to the Past, the Wind Waker and More)",
        "release_date" : "2013-01-09",
        "release_date_precision" : "day",
        "total_tracks" : 22,
        "type" : "album",
        "uri" : "spotify:album:5zFkQHvRimPKxjwDwkkeNL"
      },
      "artists" : [ {
        "external_urls" : {
          "spotify" : "https://open.spotify.com/artist/0fagNxnyvy6FDvkNPt6X29"
        },
        "href" : "https://api.spotify.com/v1/artists/0fagNxnyvy6FDvkNPt6X29",
        "id" : "0fagNxnyvy6FDvkNPt6X29",
        "name" : "Monsalve",
        "type" : "artist",
        "uri" : "spotify:artist:0fagNxnyvy6FDvkNPt6X29"
      } ],
      "disc_number" : 1,
      "duration_ms" : 123433,
      "explicit" : false,
      "external_ids" : {
        "isrc" : "TCABL1350719"
      },
      "external_urls" : {
        "spotify" : "https://open.spotify.com/track/4v2SDknbR4x3WwjKjcENeE"
      },
      "href" : "https://api.spotify.com/v1/tracks/4v2SDknbR4x3WwjKjcENeE",
      "id" : "4v2SDknbR4x3WwjKjcENeE",
      "is_local" : false,
      "is_playable" : true,
      "name" : "Ocarina of Time - Song of Storms (Instrumental Remix) (The Legend of Zelda)",
      "popularity" : 23,
      "preview_url" : "https://p.scdn.co/mp3-preview/682e12fdf0a64f0e1c3faf63f534f604b23e3f39?cid=774b29d4f13844c495f206cafdad9c86",
      "track_number" : 2,
      "type" : "track",
      "uri" : "spotify:track:4v2SDknbR4x3WwjKjcENeE"
    }, {
      "album" : {
        "album_type" : "album",
        "artists" : [ {
          "external_urls" : {
            "spotify" : "https://open.spotify.com/artist/49BGpXXAji2jAYv0Ob6Dff"
          },
          "href" : "https://api.spotify.com/v1/artists/49BGpXXAji2jAYv0Ob6Dff",
          "id" : "49BGpXXAji2jAYv0Ob6Dff",
          "name" : "American Murder Song",
          "type" : "artist",
          "uri" : "spotify:artist:49BGpXXAji2jAYv0Ob6Dff"
        } ],
        "external_urls" : {
          "spotify" : "https://open.spotify.com/album/2Efuriv0hXOQ1R7ksjbYeM"
        },
        "href" : "https://api.spotify.com/v1/albums/2Efuriv0hXOQ1R7ksjbYeM",
        "id" : "2Efuriv0hXOQ1R7ksjbYeM",
        "images" : [ {
          "height" : 640,
          "url" : "https://i.scdn.co/image/ab67616d0000b2733a98d8bcc81f05f165c4740b",
          "width" : 640
        }, {
          "height" : 300,
          "url" : "https://i.scdn.co/image/ab67616d00001e023a98d8bcc81f05f165c4740b",
          "width" : 300
        }, {
          "height" : 64,
          "url" : "https://i.scdn.co/image/ab67616d000048513a98d8bcc81f05f165c4740b",
          "width" : 64
        } ],
        "name" : "Murder Ballads of 1816: The Year Without a Summer",
        "release_date" : "2018-06-19",
        "release_date_precision" : "day",
        "total_tracks" : 20,
        "type" : "album",
        "uri" : "spotify:album:2Efuriv0hXOQ1R7ksjbYeM"
      },
      "artists" : [ {
        "external_urls" : {
          "spotify" : "https://open.spotify.com/artist/49BGpXXAji2jAYv0Ob6Dff"
        },
        "href" : "https://api.spotify.com/v1/artists/49BGpXXAji2jAYv0Ob6Dff",
        "id" : "49BGpXXAji2jAYv0Ob6Dff",
        "name" : "American Murder Song",
        "type" : "artist",
        "uri" : "spotify:artist:49BGpXXAji2jAYv0Ob6Dff"
      } ],
      "disc_number" : 1,
      "duration_ms" : 213400,
      "explicit" : false,
      "external_ids" : {
        "isrc" : "ushm21820515"
      },
      "external_urls" : {
        "spotify" : "https://open.spotify.com/track/6l9NhiL9GwmVOYUUVGK9h8"
      },
      "href" : "https://api.spotify.com/v1/tracks/6l9NhiL9GwmVOYUUVGK9h8",
      "id" : "6l9NhiL9GwmVOYUUVGK9h8",
      "is_local" : false,
      "is_playable" : true,
      "name" : "Wake Up",
      "popularity" : 17,
      "preview_url" : "https://p.scdn.co/mp3-preview/47851e5841fa4d8aa366a123245bc3b1f4d2a3e0?cid=774b29d4f13844c495f206cafdad9c86",
      "track_number" : 16,
      "type" : "track",
      "uri" : "spotify:track:6l9NhiL9GwmVOYUUVGK9h8"
    }, {
      "album" : {
        "album_type" : "album",
        "artists" : [ {
          "external_urls" : {
            "spotify" : "https://open.spotify.com/artist/6nwykPKe0s5K030p5lliIY"
          },
          "href" : "https://api.spotify.com/v1/artists/6nwykPKe0s5K030p5lliIY",
          "id" : "6nwykPKe0s5K030p5lliIY",
          "name" : "Wakey!Wakey!",
          "type" : "artist",
          "uri" : "spotify:artist:6nwykPKe0s5K030p5lliIY"
        } ],
        "external_urls" : {
          "spotify" : "https://open.spotify.com/album/06bpArxjyy8XXA7ywChuR2"
        },
        "href" : "https://api.spotify.com/v1/albums/06bpArxjyy8XXA7ywChuR2",
        "id" : "06bpArxjyy8XXA7ywChuR2",
        "images" : [ {
          "height" : 640,
          "url" : "https://i.scdn.co/image/ab67616d0000b27343730f8cbe2010099c652043",
          "width" : 640
        }, {
          "height" : 300,
          "url" : "https://i.scdn.co/image/ab67616d00001e0243730f8cbe2010099c652043",
          "width" : 300
        }, {
          "height" : 64,
          "url" : "https://i.scdn.co/image/ab67616d0000485143730f8cbe2010099c652043",
          "width" : 64
        } ],
        "name" : "Almost Everything I Wish I'd Said The Last Time I Saw You...",
        "release_date" : "2010-02-02",
        "release_date_precision" : "day",
        "total_tracks" : 11,
        "type" : "album",
        "uri" : "spotify:album:06bpArxjyy8XXA7ywChuR2"
      },
      "artists" : [ {
        "external_urls" : {
          "spotify" : "https://open.spotify.com/artist/6nwykPKe0s5K030p5lliIY"
        },
        "href" : "https://api.spotify.com/v1/artists/6nwykPKe0s5K030p5lliIY",
        "id" : "6nwykPKe0s5K030p5lliIY",
        "name" : "Wakey!Wakey!",
        "type" : "artist",
        "uri" : "spotify:artist:6nwykPKe0s5K030p5lliIY"
      } ],
      "disc_number" : 1,
      "duration_ms" : 201426,
      "explicit" : false,
      "external_ids" : {
        "isrc" : "USA370996168"
      },
      "external_urls" : {
        "spotify" : "https://open.spotify.com/track/4iKgLIjGmbeDHnbXwmaOPA"
      },
      "href" : "https://api.spotify.com/v1/tracks/4iKgLIjGmbeDHnbXwmaOPA",
      "id" : "4iKgLIjGmbeDHnbXwmaOPA",
      "is_local" : false,
      "is_playable" : true,
      "name" : "The Oh Song",
      "popularity" : 20,
      "preview_url" : "https://p.scdn.co/mp3-preview/cf748082ac07adff03158b5ede67261a19b9dc76?cid=774b29d4f13844c495f206cafdad9c86",
      "track_number" : 2,
      "type" : "track",
      "uri" : "spotify:track:4iKgLIjGmbeDHnbXwmaOPA"
    }, {
      "album" : {
        "album_type" : "album",
        "artists" : [ {
          "external_urls" : {
            "spotify" : "https://open.spotify.com/artist/0fagNxnyvy6FDvkNPt6X29"
          },
          "href" : "https://api.spotify.com/v1/artists/0fagNxnyvy6FDvkNPt6X29",
          "id" : "0fagNxnyvy6FDvkNPt6X29",
          "name" : "Monsalve",
          "type" : "artist",
          "uri" : "spotify:artist:0fagNxnyvy6FDvkNPt6X29"
        } ],
        "external_urls" : {
          "spotify" : "https://open.spotify.com/album/5zFkQHvRimPKxjwDwkkeNL"
        },
        "href" : "https://api.spotify.com/v1/albums/5zFkQHvRimPKxjwDwkkeNL",
        "id" : "5zFkQHvRimPKxjwDwkkeNL",
        "images" : [ {
          "height" : 640,
          "url" : "https://i.scdn.co/image/ab67616d0000b2737410fc62805f987b78ea533b",
          "width" : 640
        }, {
          "height" : 300,
          "url" : "https://i.scdn.co/image/ab67616d00001e027410fc62805f987b78ea533b",
          "width" : 300
        }, {
          "height" : 64,
          "url" : "https://i.scdn.co/image/ab67616d000048517410fc62805f987b78ea533b",
          "width" : 64
        } ],
        "name" : "The Legend of Zelda - Best Soundtracks (Majora's Mask, Ocarina of Time, a Link to the Past, the Wind Waker and More)",
        "release_date" : "2013-01-09",
        "release_date_precision" : "day",
        "total_tracks" : 22,
        "type" : "album",
        "uri" : "spotify:album:5zFkQHvRimPKxjwDwkkeNL"
      },
      "artists" : [ {
        "external_urls" : {
          "spotify" : "https://open.spotify.com/artist/0fagNxnyvy6FDvkNPt6X29"
        },
        "href" : "https://api.spotify.com/v1/artists/0fagNxnyvy6FDvkNPt6X29",
        "id" : "0fagNxnyvy6FDvkNPt6X29",
        "name" : "Monsalve",
        "type" : "artist",
        "uri" : "spotify:artist:0fagNxnyvy6FDvkNPt6X29"
      } ],
      "disc_number" : 1,
      "duration_ms" : 112893,
      "explicit" : false,
      "external_ids" : {
        "isrc" : "TCABL1350741"
      },
      "external_urls" : {
        "spotify" : "https://open.spotify.com/track/3PLkZ76oy4PS97CE8CLXc0"
      },
      "href" : "https://api.spotify.com/v1/tracks/3PLkZ76oy4PS97CE8CLXc0",
      "id" : "3PLkZ76oy4PS97CE8CLXc0",
      "is_local" : false,
      "is_playable" : true,
      "name" : "Majora's Mask - Song of Healing (Clock Tower) (Instrumental Remix) (The Legend of Zelda)",
      "popularity" : 20,
      "preview_url" : "https://p.scdn.co/mp3-preview/5b7c4a3d1f090ed4f2a063befc67a5172c322815?cid=774b29d4f13844c495f206cafdad9c86",
      "track_number" : 15,
      "type" : "track",
      "uri" : "spotify:track:3PLkZ76oy4PS97CE8CLXc0"
    } ],
    "limit" : 10,
    "next" : "https://api.spotify.com/v1/search?query=Wake+the+Song&type=track&market=US&offset=15&limit=10",
    "offset" : 5,
    "previous" : "https://api.spotify.com/v1/search?query=Wake+the+Song&type=track&market=US&offset=0&limit=10",
    "total" : 1431
  }
}