{
  "tracks" : {
    "href" : "https://api.spotify.com/v1/search?query=Eternal+Father+Strong+to+Save&type=track&market=US&offset=5&limit=10",
    "items" : [ {
      "album" : {
        "album_type" : "album",
        "artists" : [ {
          "external_urls" : {
            "spotify" : "https://open.spotify.com/artist/4wyy8T80crUaGVdwiIwTHD"
          },
          "href" : "https://api.spotify.com/v1/artists/4wyy8T80crUaGVdwiIwTHD",
          "id" : "4wyy8T80crUaGVdwiIwTHD",
          "name" : "US Marine Band",
          "type" : "artist",
          "uri" : "spotify:artist:4wyy8T80crUaGVdwiIwTHD"
        } ],
        "external_urls" : {
          "spotify" : "https://open.spotify.com/album/7vCAvGPvYECSxYBFACUYRS"
        },
        "href" : "https://api.spotify.com/v1/albums/7vCAvGPvYECSxYBFACUYRS",
        "id" : "7vCAvGPvYECSxYBFACUYRS",
        "images" : [ {
          "height" : 640,
          "url" : "https://i.scdn.co/image/ab67616d0000b2734ae9dd6305ff90741165cbaa",
          "width" : 640
        }, {
          "height" : 300,
          "url" : "https://i.scdn.co/image/ab67616d00001e024ae9dd6305ff90741165cbaa",
          "width" : 300
        }, {
          "height" : 64,
          "url" : "https://i.scdn.co/image/ab67616d000048514ae9dd6305ff90741165cbaa",
          "width" : 64
        } ],
        "name" : "Uncommon Valor",
        "release_date" : "2007-10-01",
        "release_date_precision" : "day",
        "total_tracks" : 17,
        "type" : "album",
        "uri" : "spotify:album:7vCAvGPvYECSxYBFACUYRS"
      },
      "artists" : [ {
        "external_urls" : {
          "spotify" : "https://open.spotify.com/artist/4wyy8T80crUaGVdwiIwTHD"
        },
        "href" : "https://api.spotify.com/v1/artists/4wyy8T80crUaGVdwiIwTHD",
        "id" : "4wyy8T80crUaGVdwiIwTHD",
        "name" : "US Marine Band",
        "type" : "artist",
        "uri" : "spotify:artist:4wyy8T80crUaGVdwiIwTHD"
      } ],
      "disc_number" : 1,
      "duration_ms" : 159266,
      "explicit" : false,
      "external_ids" : {
        "isrc" : "USA5R0608715"
      },
      "external_urls" : {
        "spotify" : "https://open.spotify.com/track/6L9rewPL6SIM3qf11fhVdF"
      },
      "href" : "https://api.spotify.com/v1/tracks/6L9rewPL6SIM3qf11fhVdF",
      "id" : "6L9rewPL6SIM3qf11fhVdF",
      "is_local" : false,
      "is_playable" : true,
      "name" : "Eternal Father, Strong To Save (The Naval Hymn) - Navy Hymn",
      "popularity" : 16,
      "preview_url" : "https://p.scdn.co/mp3-preview/fa619a104d3346594f08e1780bf1618d5b1e8f51?cid=774b29d4f13844c495f206cafdad9c86",
      "track_number" : 15,
      "type" : "track",
      "uri" : "spotify:track:6L9rewPL6SIM3qf11fhVdF"
    }, {
      "album" : {
        "album_type" : "album",
        "artists" : [ {
          "external_urls" : {
            "spotify" : "https://open.spotify.com/artist/16dGAOg7n1wfPuLLwfdwur"
          },
          "href" : "https://api.spotify.com/v1/artists/16dGAOg7n1wfPuLLwfdwur",
          "id" : "16dGAOg7n1wfPuLLwfdwur",
          "name" : "Acapeldridge",
          "type" : "artist",
          "uri" : "spotify:artist:16dGAOg7n1wfPuLLwfdwur"
        } ],
        "external_urls" : {
          "spotify" : "https://open.spotify.com/album/1A0pceN8WiPvcm9eNEwmad"
        },
        "href" : "https://api.spotify.com/v1/albums/1A0pceN8WiPvcm9eNEwmad",
        "id" : "1A0pceN8WiPvcm9eNEwmad",
        "images" : [ {
          "height" : 640,
          "url" : "https://i.scdn.co/image/ab67616d0000b273bce02fe85a942c85df75604f",
          "width" : 640
        }, {
          "height" : 300,
          "url" : "https://i.scdn.co/image/ab67616d00001e02bce02fe85a942c85df75604f",
          "width" : 300
        }, {
          "height" : 64,
          "url" : "https://i.scdn.co/image/ab67616d00004851bce02fe85a942c85df75604f",
          "width" : 64
        } ],
        "name" : "Whatever Is Just",
        "release_date" : "2018-11-02",
        "release_date_precision" : "day",
        "total_tracks" : 20,
        "type" : "album",
        "uri" : "spotify:album:1A0pceN8WiPvcm9eNEwmad"
      },
      "artists" : [ {
        "external_urls" : {
          "spotify" : "https://open.spotify.com/artist/16dGAOg7n1wfPuLLwfdwur"
        },
        "href" : "https://api.spotify.com/v1/artists/16dGAOg7n1wfPuLLwfdwur",
        "id" : "16dGAOg7n1wfPuLLwfdwur",
        "name" : "Acapeldridge",
        "type" : "artist",
        "uri" : "spotify:artist:16dGAOg7n1wfPuLLwfdwur"
      } ],
      "disc_number" : 1,
      "duration_ms" : 169680,
      "explicit" : false,
      "external_ids" : {
        "isrc" : "ushm91860060"
      },
      "external_urls" : {
        "spotify" : "https://open.spotify.com/track/389oDokHbjX4eH1slWtfSa"
      },
      "href" : "https://api.spotify.com/v1/tracks/389oDokHbjX4eH1slWtfSa",
      "id" : "389oDokHbjX4eH1slWtfSa",
      "is_local" : false,
      "is_playable" : true,
      "name" : "Eternal Father, Strong to Save",
      "popularity" : 17,
      "preview_url" : "https://p.scdn.co/mp3-preview/1746842b756edc2f7450ec8ad4d70f32c9c0fb45?cid=774b29d4f13844c495f206cafdad9c86",
      "track_number" : 14,
      "type" : "track",
      "uri" : "spotify:track:389oDokHbjX4eH1slWtfSa"
    }, {
      "album" : {
        "album_type" : "album",
        "artists" : [ {
          "external_urls" : {
            "spotify" : "https://open.spotify.com/artist/0wd7kmstIy6OAHBxJkhHdZ"
          },
          "href" : "https://api.spotify.com/v1/artists/0wd7kmstIy6OAHBxJkhHdZ",
          "id" : "0wd7kmstIy6OAHBxJkhHdZ",
          "name" : "US Navy Sea Chanters Chorus",
          "type" : "artist",
          "uri" : "spotify:artist:0wd7kmstIy6OAHBxJkhHdZ"
        } ],
        "external_urls" : {
          "spotify" : "https://open.spotify.com/album/03clbFd77ZGQeRhluLY2ar"
        },
        "href" : "https://api.spotify.com/v1/albums/03clbFd77ZGQeRhluLY2ar",
        "id" : "03clbFd77ZGQeRhluLY2ar",
        "images" : [ {
          "height" : 640,
          "url" : "https://i.scdn.co/image/ab67616d0000b273033c4c8bbdc6fa680fa3aa35",
          "width" : 640
        }, {
          "height" : 300,
          "url" : "https://i.scdn.co/image/ab67616d00001e02033c4c8bbdc6fa680fa3aa35",
          "width" : 300
        }, {
          "height" : 64,
          "url" : "https://i.scdn.co/image/ab67616d00004851033c4c8bbdc6fa680fa3aa35",
          "width" : 64
        } ],
        "name" : "The United States Navy Band Presents the Sea Chanters",
        "release_date" : "2011-12-08",
        "release_date_precision" : "day",
        "total_tracks" : 12,
        "type" : "album",
        "uri" : "spotify:album:03clbFd77ZGQeRhluLY2ar"
      },
      "artists" : [ {
        "external_urls" : {
          "spotify" : "https://open.spotify.com/artist/0wd7kmstIy6OAHBxJkhHdZ"
        },
        "href" : "https://api.spotify.com/v1/artists/0wd7kmstIy6OAHBxJkhHdZ",
        "id" : "0wd7kmstIy6OAHBxJkhHdZ",
        "name" : "US Navy Sea Chanters Chorus",
        "type" : "artist",
        "uri" : "spotify:artist:0wd7kmstIy6OAHBxJkhHdZ"
      }, {
        "external_urls" : {
          "spotify" : "https://open.spotify.com/artist/19AnLrC5cQnmkEfKJKrQGy"
        },
        "href" : "https://api.spotify.com/v1/artists/19AnLrC5cQnmkEfKJKrQGy",
        "id" : "19AnLrC5cQnmkEfKJKrQGy",
        "name" : "Walter Douglas Renfroe",
        "type" : "artist",
        "uri" : "spotify:artist:19AnLrC5cQnmkEfKJKrQGy"
      } ],
      "disc_number" : 1,
      "duration_ms" : 167053,
      "explicit" : false,
      "external_ids" : {
        "isrc" : "USA5R1198207"
      },
      "external_urls" : {
        "spotify" : "https://open.spotify.com/track/3GG0uYxYEsIEvHhtPoTmoE"
      },
      "href" : "https://api.spotify.com/v1/tracks/3GG0uYxYEsIEvHhtPoTmoE",
      "id" : "3GG0uYxYEsIEvHhtPoTmoE",
      "is_local" : false,
      "is_playable" : true,
      "name" : "The Navy Hymn (Eternal Father, Strong to Save)",
      "popularity" : 15,
      "preview_url" : "https://p.scdn.co/mp3-preview/060ff32e10ab3a38d9d30e7a0867a5ca622ca7c1?cid=774b29d4f13844c495f206cafdad9c86",
      "track_number" : 7,
      "type" : "track",
      "uri" : "spotify:track:3GG0uYxYEsIEvHhtPoTmoE"
    }, {
      "album" : {
        "album_type" : "album",
        "artists" : [ {
          "external_urls" : {
            "spotify" : "https://open.spotify.com/artist/1U5zgr455OGyIkLNXvDdrf"
          },
          "href" : "https://api.spotify.com/v1/artists/1U5zgr455OGyIkLNXvDdrf",
          "id" : "1U5zgr455OGyIkLNXvDdrf",
          "name" : "Traditional",
          "type" : "artist",
          "uri" : "spotify:artist:1U5zgr455OGyIkLNXvDdrf"
        }, {
          "external_urls" : {
            "spotify" : "https://open.spotify.com/artist/2igGYNAMmRUQ4nUfy0NGtN"
          },
          "href" : "https://api.spotify.com/v1/artists/2igGYNAMmRUQ4nUfy0NGtN",
          "id" : "2igGYNAMmRUQ4nUfy0NGtN",
          "name" : "London Philharmonic Concert Society",
          "type" : "artist",
          "uri" : "spotify:artist:2igGYNAMmRUQ4nUfy0NGtN"
        }, {
          "external_urls" : {
            "spotify" : "https://open.spotify.com/artist/0WIY8dfLqdsgKUKngzcjCm"
          },
          "href" : "https://api.spotify.com/v1/artists/0WIY8dfLqdsgKUKngzcjCm",
          "id" : "0WIY8dfLqdsgKUKngzcjCm",
          "name" : "John Alldis",
          "type" : "artist",
          "uri" : "spotify:artist:0WIY8dfLqdsgKUKngzcjCm"
        }, {
          "external_urls" : {
            "spotify" : "https://open.spotify.com/artist/3PfJE6ebCbCHeuqO4BfNeA"
          },
          "href" : "https://api.spotify.com/v1/artists/3PfJE6ebCbCHeuqO4BfNeA",
          "id" : "3PfJE6ebCbCHeuqO4BfNeA",
          "name" : "London Philharmonic Orchestra",
          "type" : "artist",
          "uri" : "spotify:artist:3PfJE6ebCbCHeuqO4BfNeA"
        } ],
        "external_urls" : {
          "spotify" : "https://open.spotify.com/album/7vJBLM3TaskMnpCV49NLpO"
        },
        "href" : "https://api.spotify.com/v1/albums/7vJBLM3TaskMnpCV49NLpO",
        "id" : "7vJBLM3TaskMnpCV49NLpO",
        "images" : [ {
          "height" : 640,
          "url" : "https://i.scdn.co/image/ab67616d0000b2732aa9eea501b86f2d5f8b0b45",
          "width" : 640
        }, {
          "height" : 300,
          "url" : "https://i.scdn.co/image/ab67616d00001e022aa9eea501b86f2d5f8b0b45",
          "width" : 300
        }, {
          "height" : 64,
          "url" : "https://i.scdn.co/image/ab67616d000048512aa9eea501b86f2d5f8b0b45",
          "width" : 64
        } ],
        "name" : "Hymns Triumphant",
        "release_date" : "1988-01-01",
        "release_date_precision" : "day",
        "total_tracks" : 39,
        "type" : "album",
        "uri" : "spotify:album:7vJBLM3TaskMnpCV49NLpO"
      },
      "artists" : [ {
        "external_urls" : {
          "spotify" : "https://open.spotify.com/artist/1U5zgr455OGyIkLNXvDdrf"
        },
        "href" : "https://api.spotify.com/v1/artists/1U5zgr455OGyIkLNXvDdrf",
        "id" : "1U5zgr455OGyIkLNXvDdrf",
        "name" : "Traditional",
        "type" : "artist",
        "uri" : "spotify:artist:1U5zgr455OGyIkLNXvDdrf"
      }, {
        "external_urls" : {
          "spotify" : "https://open.spotify.com/artist/7GUhTBqD7CAbbIjjBd0SdN"
        },
        "href" : "https://api.spotify.com/v1/artists/7GUhTBqD7CAbbIjjBd0SdN",
        "id" : "7GUhTBqD7CAbbIjjBd0SdN",
        "name" : "London Philharmonic Choir",
        "type" : "artist",
        "uri" : "spotify:artist:7GUhTBqD7CAbbIjjBd0SdN"
      }, {
        "external_urls" : {
          "spotify" : "https://open.spotify.com/artist/0WIY8dfLqdsgKUKngzcjCm"
        },
        "href" : "https://api.spotify.com/v1/artists/0WIY8dfLqdsgKUKngzcjCm",
        "id" : "0WIY8dfLqdsgKUKngzcjCm",
        "name" : "John Alldis",
        "type" : "artist",
        "uri" : "spotify:artist:0WIY8dfLqdsgKUKngzcjCm"
      }, {
        "external_urls" : {
          "spotify" : "https://open.spotify.com/artist/2Ek1WGW7WeyDoxsZiu0AAd"
        },
        "href" : "https://api.spotify.com/v1/artists/2Ek1WGW7WeyDoxsZiu0AAd",
        "id" : "2Ek1WGW7WeyDoxsZiu0AAd",
        "name" : "National Philharmonic Orchestra",
        "type" : "artist",
        "uri" : "spotify:artist:2Ek1WGW7WeyDoxsZiu0AAd"
      } ],
      "disc_number" : 1,
      "duration_ms" : 123000,
      "explicit" : false,
      "external_ids" : {
        "isrc" : "USSP38847104"
      },
      "external_urls" : {
        "spotify" : "https://open.spotify.com/track/79yhjrKOcZxOpCbFPCHBCJ"
      },
      "href" : "https://api.spotify.com/v1/tracks/79yhjrKOcZxOpCbFPCHBCJ",
      "id" : "79yhjrKOcZxOpCbFPCHBCJ",
      "is_local" : false,
      "is_playable" : true,
      "name" : "Eternal Father, Strong To Save",
      "popularity" : 13,
      "preview_url" : null,
      "track_number" : 7,
      "type" : "track",
      "uri" : "spotify:track:79yhjrKOcZxOpCbFPCHBCJ"
    }, {
      "album" : {
        "album_type" : "compilation",
        "artists" : [ {
          "external_urls" : {
            "spotify" : "https://open.spotify.com/artist/0LyfQWJT6nXafLPZqxe9Of"
          },
          "href" : "https://api.spotify.com/v1/artists/0LyfQWJT6nXafLPZqxe9Of",
          "id" : "0LyfQWJT6nXafLPZqxe9Of",
          "name" : "Various Artists",
          "type" : "artist",
          "uri" : "spotify:artist:0LyfQWJT6nXafLPZqxe9Of"
        } ],
        "external_urls" : {
          "spotify" : "https://open.spotify.com/album/4CedK4dcXVQagB7CT8fZB1"
        },
        "href" : "https://api.spotify.com/v1/albums/4CedK4dcXVQagB7CT8fZB1",
        "id" : "4CedK4dcXVQagB7CT8fZB1",
        "images" : [ {
          "height" : 640,
          "url" : "https://i.scdn.co/image/ab67616d0000b273e4194d2c4905462046a3a250",
          "width" : 640
        }, {
          "height" : 300,
          "url" : "https://i.scdn.co/image/ab67616d00001e02e4194d2c4905462046a3a250",
          "width" : 300
        }, {
          "height" : 64,
          "url" : "https://i.scdn.co/image/ab67616d00004851e4194d2c4905462046a3a250",
          "width" : 64
        } ],
        "name" : "100 Best Hymns",
        "release_date" : "2011-03-29",
        "release_date_precision" : "day",
        "total_tracks" : 100,
        "type" : "album",
        "uri" : "spotify:album:4CedK4dcXVQagB7CT8fZB1"
      },
      "artists" : [ {
        "external_urls" : {
          "spotify" : "https://open.spotify.com/artist/0RXU7wB3BtRHV6KOZScQnt"
        },
        "href" : "https://api.spotify.com/v1/artists/0RXU7wB3BtRHV6KOZScQnt",
        "id" : "0RXU7wB3BtRHV6KOZScQnt",
        "name" : "John Bacchus Dykes",
        "type" : "artist",
        "uri" : "spotify:artist:0RXU7wB3BtRHV6KOZScQnt"
      }, {
        "external_urls" : {
          "spotify" : "https://open.spotify.com/artist/5RE2Xv0OEQcouoERcOVLqt"
        },
        "href" : "https://api.spotify.com/v1/artists/5RE2Xv0OEQcouoERcOVLqt",
        "id" : "5RE2Xv0OEQcouoERcOVLqt",
        "name" : "William Whiting",
        "type" : "artist",
        "uri" : "spotify:artist:5RE2Xv0OEQcouoERcOVLqt"
      }, {
        "external_urls" : {
          "spotify" : "https://open.spotify.com/artist/2pMJjUe1wagw5La8Vefqrr"
        },
        "href" : "https://api.spotify.com/v1/artists/2pMJjUe1wagw5La8Vefqrr",
        "id" : "2pMJjUe1wagw5La8Vefqrr",
        "name" : "Huddersfield Choral Society",
        "type" : "artist",
        "uri" : "spotify:artist:2pMJjUe1wagw5La8Vefqrr"
      }, {
        "external_urls" : {
          "spotify" : "https://open.spotify.com/artist/49D8h67pxvvUNGOLKEGjkx"
        },
        "href" : "https://api.spotify.com/v1/artists/49D8h67pxvvUNGOLKEGjkx",
        "id" : "49D8h67pxvvUNGOLKEGjkx",
        "name" : "Owain Arwel Hughes",
        "type" : "artist",
        "uri" : "spotify:artist:49D8h67pxvvUNGOLKEGjkx"
      } ],
      "disc_number" : 5,
      "duration_ms" : 165680,
      "explicit" : false,
      "external_ids" : {
        "isrc" : "GBAYE8600315"
      },
      "external_urls" : {
        "spotify" : "https://open.spotify.com/track/7Hk5CJY9kphQceQsQn2G7W"
      },
      "href" : "https://api.spotify.com/v1/tracks/7Hk5CJY9kphQceQsQn2G7W",
      "id" : "7Hk5CJY9kphQceQsQn2G7W",
      "is_local" : false,
      "is_playable" : true,
      "name" : "Eternal Father, Strong to Save",
      "popularity" : 10,
      "preview_url" : "https://p.scdn.co/mp3-preview/70eb18b36e90a4ad07b30ef61980d79d3699de9a?cid=774b29d4f13844c495f206cafdad9c86",
      "track_number" : 5,
      "type" : "track",
      "uri" : "spotify:track:7Hk5CJY9kphQceQsQn2G7W"
    }, {
      "album" : {
        "album_type" : "album",
        "artists" : [ {
          "external_urls" : {
            "spotify" : "https://open.spotify.com/artist/7MdBMORVT34YBY8bCrrygs"
          },
          "href" : "https://api.spotify.com/v1/artists/7MdBMORVT34YBY8bCrrygs",
          "id" : "7MdBMORVT34YBY8bCrrygs",
          "name" : "David Davidson, David Angell, Monisa Angell, Anthony LaMarchina",
          "type" : "artist",
          "uri" : "spotify:artist:7MdBMORVT34YBY8bCrrygs"
        } ],
        "external_urls" : {
          "spotify" : "https://open.spotify.com/album/1HNxkHU4dUns1h9V6MNxKQ"
        },
        "href" : "https://api.spotify.com/v1/albums/1HNxkHU4dUns1h9V6MNxKQ",
        "id" : "1HNxkHU4dUns1h9V6MNxKQ",
        "images" : [ {
          "height" : 640,
          "url" : "https://i.scdn.co/image/ab67616d0000b2732ab7b8762d083307027ffba8",
          "width" : 640
        }, {
          "height" : 300,
          "url" : "https://i.scdn.co/image/ab67616d00001e022ab7b8762d083307027ffba8",
          "width" : 300
        }, {
          "height" : 64,
          "url" : "https://i.scdn.co/image/ab67616d000048512ab7b8762d083307027ffba8",
          "width" : 64
        } ],
        "name" : "Classical Praise Volume 4: String Quartet",
        "release_date" : "2006-01-17",
        "release_date_precision" : "day",
        "total_tracks" : 12,
        "type" : "album",
        "uri" : "spotify:album:1HNxkHU4dUns1h9V6MNxKQ"
      },
      "artists" : [ {
        "external_urls" : {
          "spotify" : "https://open.spotify.com/artist/7MdBMORVT34YBY8bCrrygs"
        },
        "href" : "https://api.spotify.com/v1/artists/7MdBMORVT34YBY8bCrrygs",
        "id" : "7MdBMORVT34YBY8bCrrygs",
        "name" : "David Davidson, David Angell, Monisa Angell, Anthony LaMarchina",
        "type" : "artist",
        "uri" : "spotify:artist:7MdBMORVT34YBY8bCrrygs"
      } ],
      "disc_number" : 1,
      "duration_ms" : 146786,
      "explicit" : false,
      "external_ids" : {
        "isrc" : "USDHM0602569"
      },
      "external_urls" : {
        "spotify" : "https://open.spotify.com/track/1JqMreFDpK5nNuhsfatTOm"
      },
      "href" : "https://api.spotify.com/v1/tracks/1JqMreFDpK5nNuhsfatTOm",
      "id" : "1JqMreFDpK5nNuhsfatTOm",
      "is_local" : false,
      "is_playable" : true,
      "name" : "Eternal Father, Strong to Save",
      "popularity" : 14,
      "preview_url" : "https://p.scdn.co/mp3-preview/3991d14daa0d4605bfc4785018960e7ae74bc3d5?cid=774b29d4f13844c495f206cafdad9c86",
      "track_number" : 12,
      "type" : "track",
      "uri" : "spotify:track:1JqMreFDpK5nNuhsfatTOm"
    }, {
      "album" : {
        "album_type" : "album",
        "artists" : [ {
          "external_urls" : {
            "spotify" : "https://open.spotify.com/artist/4bSG7Bc4xIasUmpwTdjn0z"
          },
          "href" : "https://api.spotify.com/v1/artists/4bSG7Bc4xIasUmpwTdjn0z",
          "id" : "4bSG7Bc4xIasUmpwTdjn0z",
          "name" : "Instrumental Funeral Music Artists",
          "type" : "artist",
          "uri" : "spotify:artist:4bSG7Bc4xIasUmpwTdjn0z"
        } ],
        "external_urls" : {
          "spotify" : "https://open.spotify.com/album/5ilj19oyz8cXA3QuAoaNh7"
        },
        "href" : "https://api.spotify.com/v1/albums/5ilj19oyz8cXA3QuAoaNh7",
        "id" : "5ilj19oyz8cXA3QuAoaNh7",
        "images" : [ {
          "height" : 640,
          "url" : "https://i.scdn.co/image/ab67616d0000b273e60066fdcfeb865b7a7795f1",
          "width" : 640
        }, {
          "height" : 300,
          "url" : "https://i.scdn.co/image/ab67616d00001e02e60066fdcfeb865b7a7795f1",
          "width" : 300
        }, {
          "height" : 64,
          "url" : "https://i.scdn.co/image/ab67616d00004851e60066fdcfeb865b7a7795f1",
          "width" : 64
        } ],
        "name" : "Funeral Songs - Gentle Peaceful Instrumentals",
        "release_date" : "2015-06-07",
        "release_date_precision" : "day",
        "total_tracks" : 14,
        "type" : "album",
        "uri" : "spotify:album:5ilj19oyz8cXA3QuAoaNh7"
      },
      "artists" : [ {
        "external_urls" : {
          "spotify" : "https://open.spotify.com/artist/4bSG7Bc4xIasUmpwTdjn0z"
        },
        "href" : "https://api.spotify.com/v1/artists/4bSG7Bc4xIasUmpwTdjn0z",
        "id" : "4bSG7Bc4xIasUmpwTdjn0z",
        "name" : "Instrumental Funeral Music Artists",
        "type" : "artist",
        "uri" : "spotify:artist:4bSG7Bc4xIasUmpwTdjn0z"
      } ],
      "disc_number" : 1,
      "duration_ms" : 164720,
      "explicit" : false,
      "external_ids" : {
        "isrc" : "TCACG1541761"
      },
      "external_urls" : {
        "spotify" : "https://open.spotify.com/track/7jKeFfFTJb67lURlAMBSD1"
      },
      "href" : "https://api.spotify.com/v1/tracks/7jKeFfFTJb67lURlAMBSD1",
      "id" : "7jKeFfFTJb67lURlAMBSD1",
      "is_local" : false,
      "is_playable" : true,
      "name" : "Eternal Father Strong to Save the Navy Hymn",
      "popularity" : 10,
      "preview_url" : "https://p.scdn.co/mp3-preview/6517088e3cc39460e910e8af7b630113d6302eba?cid=774b29d4f13844c495f206cafdad9c86",
      "track_number" : 3,
      "type" : "track",
      "uri" : "spotify:track:7jKeFfFTJb67lURlAMBSD1"
    }, {
      "album" : {
        "album_type" : "album",
        "artists" : [ {
          "external_urls" : {
            "spotify" : "https://open.spotify.com/artist/4bvoA0eiuvuBBRfUFJGqpC"
          },
          "href" : "https://api.spotify.com/v1/artists/4bvoA0eiuvuBBRfUFJGqpC",
          "id" : "4bvoA0eiuvuBBRfUFJGqpC",
          "name" : "Matthew Brown",
          "type" : "artist",
          "uri" : "spotify:artist:4bvoA0eiuvuBBRfUFJGqpC"
        } ],
        "external_urls" : {
          "spotify" : "https://open.spotify.com/album/17eClCeTzTFM32T1xJ99eq"
        },
        "href" : "https://api.spotify.com/v1/albums/17eClCeTzTFM32T1xJ99eq",
        "id" : "17eClCeTzTFM32T1xJ99eq",
        "images" : [ {
          "height" : 640,
          "url" : "https://i.scdn.co/image/ab67616d0000b2730857b28183cdcd4ed009f311",
          "width" : 640
        }, {
          "height" : 300,
          "url" : "https://i.scdn.co/image/ab67616d00001e020857b28183cdcd4ed009f311",
          "width" : 300
        }, {
          "height" : 64,
          "url" : "https://i.scdn.co/image/ab67616d000048510857b28183cdcd4ed009f311",
          "width" : 64
        } ],
        "name" : "Sanctus, Sanctus, Sanctus! Traditional Instrumental Catholic Hymns",
        "release_date" : "2016-01-29",
        "release_date_precision" : "day",
        "total_tracks" : 15,
        "type" : "album",
        "uri" : "spotify:album:17eClCeTzTFM32T1xJ99eq"
      },
      "artists" : [ {
        "external_urls" : {
          "spotify" : "https://open.spotify.com/artist/4bvoA0eiuvuBBRfUFJGqpC"
        },
        "href" : "https://api.spotify.com/v1/artists/4bvoA0eiuvuBBRfUFJGqpC",
        "id" : "4bvoA0eiuvuBBRfUFJGqpC",
        "name" : "Matthew Brown",
        "type" : "artist",
        "uri" : "spotify:artist:4bvoA0eiuvuBBRfUFJGqpC"
      } ],
      "disc_number" : 1,
      "duration_ms" : 72449,
      "explicit" : false,
      "external_ids" : {
        "isrc" : "USA2P1603980"
      },
      "external_urls" : {
        "spotify" : "https://open.spotify.com/track/4HVVvA7KrDtjh94mpubeHR"
      },
      "href" : "https://api.spotify.com/v1/tracks/4HVVvA7KrDtjh94mpubeHR",
      "id" : "4HVVvA7KrDtjh94mpubeHR",
      "is_local" : false,
      "is_playable" : true,
      "name" : "Eternal Father, Strong to Save (Navy Hymn)",
      "popularity" : 9,
      "preview_url" : "https://p.scdn.co/mp3-preview/6119de63c0b3fc330bbfc14231f728fccbd40f8e?cid=774b29d4f13844c495f206cafdad9c86",
      "track_number" : 11,
      "type" : "track",
      "uri" : "spotify:track:4HVVvA7KrDtjh94mpubeHR"
    }, {
      "album" : {
        "album_type" : "compilation",
        "artists" : [ {
          "external_urls" : {
            "spotify" : "https://open.spotify.com/artist/0LyfQWJT6nXafLPZqxe9Of"
          },
          "href" : "https://api.spotify.com/v1/artists/0LyfQWJT6nXafLPZqxe9Of",
          "id" : "0LyfQWJT6nXafLPZqxe9Of",
          "name" : "Various Artists",
          "type" : "artist",
          "uri" : "spotify:artist:0LyfQWJT6nXafLPZqxe9Of"
        } ],
        "external_urls" : {
          "spotify" : "https://open.spotify.com/album/2IFwoalJVJjk4lrtmrvTEx"
        },
        "href" : "https://api.spotify.com/v1/albums/2IFwoalJVJjk4lrtmrvTEx",
        "id" : "2IFwoalJVJjk4lrtmrvTEx",
        "images" : [ {
          "height" : 640,
          "url" : "https://i.scdn.co/image/ab67616d0000b273be496b7a2aa9615c24a03014",
          "width" : 640
        }, {
          "height" : 300,
          "url" : "https://i.scdn.co/image/ab67616d00001e02be496b7a2aa9615c24a03014",
          "width" : 300
        }, {
          "height" : 64,
          "url" : "https://i.scdn.co/image/ab67616d00004851be496b7a2aa9615c24a03014",
          "width" : 64
        } ],
        "name" : "The Best of Hans Zimmer",
        "release_date" : "2011-02-08",
        "release_date_precision" : "day",
        "total_tracks" : 32,
        "type" : "album",
        "uri" : "spotify:album:2IFwoalJVJjk4lrtmrvTEx"
      },
      "artists" : [ {
        "external_urls" : {
          "spotify" : "https://open.spotify.com/artist/2oQJQUIpJFFnfKvHJA0xBu"
        },
        "href" : "https://api.spotify.com/v1/artists/2oQJQUIpJFFnfKvHJA0xBu",
        "id" : "2oQJQUIpJFFnfKvHJA0xBu",
        "name" : "The City of Prague Philharmonic Orchestra",
        "type" : "artist",
        "uri" : "spotify:artist:2oQJQUIpJFFnfKvHJA0xBu"
      } ],
      "disc_number" : 2,
      "duration_ms" : 81240,
      "explicit" : false,
      "external_ids" : {
        "isrc" : "GBAJC0700054"
      },
      "external_urls" : {
        "spotify" : "https://open.spotify.com/track/2qu0M0QmuwAEhb5P0jGkDd"
      },
      "href" : "https://api.spotify.com/v1/tracks/2qu0M0QmuwAEhb5P0jGkDd",
      "id" : "2qu0M0QmuwAEhb5P0jGkDd",
      "is_local" : false,
      "is_playable" : true,
      "name" : "Eternal Father, Strong to Save (From \"Crimson Tide\")",
      "popularity" : 8,
      "preview_url" : "https://p.scdn.co/mp3-preview/2e8703c9d9dce2357d2fb79998a3c6f6bffa2753?cid=774b29d4f13844c495f206cafdad9c86",
      "track_number" : 7,
      "type" : "track",
      "uri" : "spotify:track:2qu0M0QmuwAEhb5P0jGkDd"
    }, {
      "album" : {
        "album_type" : "album",
        "artists" : [ {
          "external_urls" : {
            "spotify" : "https://open.spotify.com/artist/2yQZGNQJExPLfCB8kfTD88"
          },
          "href" : "https://api.spotify.com/v1/artists/2yQZGNQJExPLfCB8kfTD88",
          "id" : "2yQZGNQJExPLfCB8kfTD88",
          "name" : "Andrey Jackson",
          "type" : "artist",
          "uri" : "spotify:artist:2yQZGNQJExPLfCB8kfTD88"
        } ],
        "external_urls" : {
          "spotify" : "https://open.spotify.com/album/4dyILbCJsykEHGVMVyQ10v"
        },
        "href" : "https://api.spotify.com/v1/albums/4dyILbCJsykEHGVMVyQ10v",
        "id" : "4dyILbCJsykEHGVMVyQ10v",
        "images" : [ {
          "height" : 640,
          "url" : "https://i.scdn.co/image/ab67616d0000b2736d560b5662a8886b1a7a945e",
          "width" : 640
        }, {
          "height" : 300,
          "url" : "https://i.scdn.co/image/ab67616d00001e026d560b5662a8886b1a7a945e",
          "width" : 300
        }, {
          "height" : 64,
          "url" : "https://i.scdn.co/image/ab67616d000048516d560b5662a8886b1a7a945e",
          "width" : 64
        } ],
        "name" : "Christian Hymns, Vol. 3, Organ Accompaniments (The Church Organist Series)",
        "release_date" : "2016-01-25",
        "release_date_precision" : "day",
        "total_tracks" : 31,
        "type" : "album",
        "uri" : "spotify:album:4dyILbCJsykEHGVMVyQ10v"
      },
      "artists" : [ {
        "external_urls" : {
          "spotify" : "https://open.spotify.com/artist/2yQZGNQJExPLfCB8kfTD88"
        },
        "href" : "https://api.spotify.com/v1/artists/2yQZGNQJExPLfCB8kfTD88",
        "id" : "2yQZGNQJExPLfCB8kfTD88",
        "name" : "Andrey Jackson",
        "type" : "artist",
        "uri" : "spotify:artist:2yQZGNQJExPLfCB8kfTD88"
      } ],
      "disc_number" : 1,
      "duration_ms" : 154486,
      "explicit" : false,
      "external_ids" : {
        "isrc" : "GB-SMU-25-18765"
      },
      "external_urls" : {
        "spotify" : "https://open.spotify.com/track/5Tm846N7ZHJgn10TPR0b1J"
      },
      "href" : "https://api.spotify.com/v1/tracks/5Tm846N7ZHJgn10TPR0b1J",
      "id" : "5Tm846N7ZHJgn10TPR0b1J",
      "is_local" : false,
      "is_playable" : true,
      "name" : "Eternal Father Strong to Save",
      "popularity" : 9,
      "preview_url" : "https://p.scdn.co/mp3-preview/d64efd5c01e2ca53453235228bf01d6220599c49?cid=774b29d4f13844c495f206cafdad9c86",
      "track_number" : 4,
      "type" : "track",
      "uri" : "spotify:track:5Tm846N7ZHJgn10TPR0b1J"
    } ],
    "limit" : 10,
    "next" : "https://api.spotify.com/v1/search?query=Eternal+Father+Strong+to+Save&type=track&market=US&offset=15&limit=10",
    "offset" : 5,
    "previous" : "https://api.spotify.com/v1/search?query=Eternal+Father+Strong+to+Save&type=track&market=US&offset=0&limit=10",
    "total" : 252
  }
}