{
  "tracks" : {
    "href" : "https://api.spotify.com/v1/search?query=Standing+on+the+Promises&type=track&market=US&offset=5&limit=10",
    "items" : [ {
      "album" : {
        "album_type" : "album",
        "artists" : [ {
          "external_urls" : {
            "spotify" : "https://open.spotify.com/artist/5dZiRoY9Vpp6qrxqXNRwPE"
          },
          "href" : "https://api.spotify.com/v1/artists/5dZiRoY9Vpp6qrxqXNRwPE",
          "id" : "5dZiRoY9Vpp6qrxqXNRwPE",
          "name" : "Selah",
          "type" : "artist",
          "uri" : "spotify:artist:5dZiRoY9Vpp6qrxqXNRwPE"
        } ],
        "external_urls" : {
          "spotify" : "https://open.spotify.com/album/47BVtVrvqiwEAOYYzeOcnk"
        },
        "href" : "https://api.spotify.com/v1/albums/47BVtVrvqiwEAOYYzeOcnk",
        "id" : "47BVtVrvqiwEAOYYzeOcnk",
        "images" : [ {
          "height" : 640,
          "url" : "https://i.scdn.co/image/ab67616d0000b273dedfabd64ca3bef168c7aa46",
          "width" : 640
        }, {
          "height" : 300,
          "url" : "https://i.scdn.co/image/ab67616d00001e02dedfabd64ca3bef168c7aa46",
          "width" : 300
        }, {
          "height" : 64,
          "url" : "https://i.scdn.co/image/ab67616d00004851dedfabd64ca3bef168c7aa46",
          "width" : 64
        } ],
        "name" : "You Deliver Me",
        "release_date" : "2009-08-25",
        "release_date_precision" : "day",
        "total_tracks" : 15,
        "type" : "album",
        "uri" : "spotify:album:47BVtVrvqiwEAOYYzeOcnk"
      },
      "artists" : [ {
        "external_urls" : {
          "spotify" : "https://open.spotify.com/artist/5dZiRoY9Vpp6qrxqXNRwPE"
        },
        "href" : "https://api.spotify.com/v1/artists/5dZiRoY9Vpp6qrxqXNRwPE",
        "id" : "5dZiRoY9Vpp6qrxqXNRwPE",
        "name" : "Selah",
        "type" : "artist",
        "uri" : "spotify:artist:5dZiRoY9Vpp6qrxqXNRwPE"
      } ],
      "disc_number" : 1,
      "duration_ms" : 194653,
      "explicit" : false,
      "external_ids" : {
        "isrc" : "USCRB0908663"
      },
      "external_urls" : {
        "spotify" : "https://open.spotify.com/track/3K3SyJQTwvX4MupDWK59Ib"
      },
      "href" : "https://api.spotify.com/v1/tracks/3K3SyJQTwvX4MupDWK59Ib",
      "id" : "3K3SyJQTwvX4MupDWK59Ib",
      "is_local" : false,
      "is_playable" : true,
      "name" : "Standing On The Promises (Medley)",
      "popularity" : 26,
      "preview_url" : "https://p.scdn.co/mp3-preview/61b645c0f51413a029f2b202a7c6fae54de56a2d?cid=774b29d4f13844c495f206cafdad9c86",
      "track_number" : 5,
      "type" : "track",
      "uri" : "spotify:track:3K3SyJQTwvX4MupDWK59Ib"
    }, {
      "album" : {
        "album_type" : "album",
        "artists" : [ {
          "external_urls" : {
            "spotify" : "https://open.spotify.com/artist/2k7eX9JBghoFsvRljRzi01"
          },
          "href" : "https://api.spotify.com/v1/artists/2k7eX9JBghoFsvRljRzi01",
          "id" : "2k7eX9JBghoFsvRljRzi01",
          "name" : "Daryl Coley",
          "type" : "artist",
          "uri" : "spotify:artist:2k7eX9JBghoFsvRljRzi01"
        } ],
        "external_urls" : {
          "spotify" : "https://open.spotify.com/album/4Fg8OaeE26o8IjZw03iRLo"
        },
        "href" : "https://api.spotify.com/v1/albums/4Fg8OaeE26o8IjZw03iRLo",
        "id" : "4Fg8OaeE26o8IjZw03iRLo",
        "images" : [ {
          "height" : 640,
          "url" : "https://i.scdn.co/image/ab67616d0000b2732d3eab9607c0635065b1aa4e",
          "width" : 640
        }, {
          "height" : 300,
          "url" : "https://i.scdn.co/image/ab67616d00001e022d3eab9607c0635065b1aa4e",
          "width" : 300
        }, {
          "height" : 64,
          "url" : "https://i.scdn.co/image/ab67616d000048512d3eab9607c0635065b1aa4e",
          "width" : 64
        } ],
        "name" : "Beyond The Veil: Live At Bobby Jones Gospel Explosion XIII",
        "release_date" : "1996-01-01",
        "release_date_precision" : "day",
        "total_tracks" : 10,
        "type" : "album",
        "uri" : "spotify:album:4Fg8OaeE26o8IjZw03iRLo"
      },
      "artists" : [ {
        "external_urls" : {
          "spotify" : "https://open.spotify.com/artist/2k7eX9JBghoFsvRljRzi01"
        },
        "href" : "https://api.spotify.com/v1/artists/2k7eX9JBghoFsvRljRzi01",
        "id" : "2k7eX9JBghoFsvRljRzi01",
        "name" : "Daryl Coley",
        "type" : "artist",
        "uri" : "spotify:artist:2k7eX9JBghoFsvRljRzi01"
      } ],
      "disc_number" : 1,
      "duration_ms" : 352840,
      "explicit" : false,
      "external_ids" : {
        "isrc" : "USSP39613261"
      },
      "external_urls" : {
        "spotify" : "https://open.spotify.com/track/4OHCcJZQFtqFENnvMTvoeV"
      },
      "href" : "https://api.spotify.com/v1/tracks/4OHCcJZQFtqFENnvMTvoeV",
      "id" : "4OHCcJZQFtqFENnvMTvoeV",
      "is_local" : false,
      "is_playable" : true,
      "name" : "Standing On The Promises",
      "popularity" : 19,
      "preview_url" : null,
      "track_number" : 4,
      "type" : "track",
      "uri" : "spotify:track:4OHCcJZQFtqFENnvMTvoeV"
    }, {
      "album" : {
        "album_type" : "album",
        "artists" : [ {
          "external_urls" : {
            "spotify" : "https://open.spotify.com/artist/0U0Vlp1HGGUpeXgiqoLwf6"
          },
          "href" : "https://api.spotify.com/v1/artists/0U0Vlp1HGGUpeXgiqoLwf6",
          "id" : "0U0Vlp1HGGUpeXgiqoLwf6",
          "name" : "Anthony Burger",
          "type" : "artist",
          "uri" : "spotify:artist:0U0Vlp1HGGUpeXgiqoLwf6"
        } ],
        "external_urls" : {
          "spotify" : "https://open.spotify.com/album/5jbwOux9XlXlYADVzTIhsq"
        },
        "href" : "https://api.spotify.com/v1/albums/5jbwOux9XlXlYADVzTIhsq",
        "id" : "5jbwOux9XlXlYADVzTIhsq",
        "images" : [ {
          "height" : 640,
          "url" : "https://i.scdn.co/image/ab67616d0000b273f4b6d86ceff7c1c608bc854c",
          "width" : 640
        }, {
          "height" : 300,
          "url" : "https://i.scdn.co/image/ab67616d00001e02f4b6d86ceff7c1c608bc854c",
          "width" : 300
        }, {
          "height" : 64,
          "url" : "https://i.scdn.co/image/ab67616d00004851f4b6d86ceff7c1c608bc854c",
          "width" : 64
        } ],
        "name" : "Hymns Collection",
        "release_date" : "2008-01-01",
        "release_date_precision" : "day",
        "total_tracks" : 19,
        "type" : "album",
        "uri" : "spotify:album:5jbwOux9XlXlYADVzTIhsq"
      },
      "artists" : [ {
        "external_urls" : {
          "spotify" : "https://open.spotify.com/artist/0U0Vlp1HGGUpeXgiqoLwf6"
        },
        "href" : "https://api.spotify.com/v1/artists/0U0Vlp1HGGUpeXgiqoLwf6",
        "id" : "0U0Vlp1HGGUpeXgiqoLwf6",
        "name" : "Anthony Burger",
        "type" : "artist",
        "uri" : "spotify:artist:0U0Vlp1HGGUpeXgiqoLwf6"
      } ],
      "disc_number" : 1,
      "duration_ms" : 241680,
      "explicit" : false,
      "external_ids" : {
        "isrc" : "USB4U0800118"
      },
      "external_urls" : {
        "spotify" : "https://open.spotify.com/track/4DLDe7ct4UQbXIjb1h8BFG"
      },
      "href" : "https://api.spotify.com/v1/tracks/4DLDe7ct4UQbXIjb1h8BFG",
      "id" : "4DLDe7ct4UQbXIjb1h8BFG",
      "is_local" : false,
      "is_playable" : true,
      "name" : "Standing On The Promises/Are You Washed In The Blood - Medley",
      "popularity" : 23,
      "preview_url" : null,
      "track_number" : 15,
      "type" : "track",
      "uri" : "spotify:track:4DLDe7ct4UQbXIjb1h8BFG"
    }, {
      "album" : {
        "album_type" : "album",
        "artists" : [ {
          "external_urls" : {
            "spotify" : "https://open.spotify.com/artist/6kACVPfCOnqzgfEF5ryl0x"
          },
          "href" : "https://api.spotify.com/v1/artists/6kACVPfCOnqzgfEF5ryl0x",
          "id" : "6kACVPfCOnqzgfEF5ryl0x",
          "name" : "Johnny Cash",
          "type" : "artist",
          "uri" : "spotify:artist:6kACVPfCOnqzgfEF5ryl0x"
        } ],
        "external_urls" : {
          "spotify" : "https://open.spotify.com/album/2k8N8D3YBi9Xc9iQEmTARx"
        },
        "href" : "https://api.spotify.com/v1/albums/2k8N8D3YBi9Xc9iQEmTARx",
        "id" : "2k8N8D3YBi9Xc9iQEmTARx",
        "images" : [ {
          "height" : 640,
          "url" : "https://i.scdn.co/image/ab67616d0000b2737586047ed2cb60ea3188b5bd",
          "width" : 640
        }, {
          "height" : 300,
          "url" : "https://i.scdn.co/image/ab67616d00001e027586047ed2cb60ea3188b5bd",
          "width" : 300
        }, {
          "height" : 64,
          "url" : "https://i.scdn.co/image/ab67616d000048517586047ed2cb60ea3188b5bd",
          "width" : 64
        } ],
        "name" : "I Walk the Line (Original Soundtrack Recording)",
        "release_date" : "1970-11-11",
        "release_date_precision" : "day",
        "total_tracks" : 11,
        "type" : "album",
        "uri" : "spotify:album:2k8N8D3YBi9Xc9iQEmTARx"
      },
      "artists" : [ {
        "external_urls" : {
          "spotify" : "https://open.spotify.com/artist/6kACVPfCOnqzgfEF5ryl0x"
        },
        "href" : "https://api.spotify.com/v1/artists/6kACVPfCOnqzgfEF5ryl0x",
        "id" : "6kACVPfCOnqzgfEF5ryl0x",
        "name" : "Johnny Cash",
        "type" : "artist",
        "uri" : "spotify:artist:6kACVPfCOnqzgfEF5ryl0x"
      } ],
      "disc_number" : 1,
      "duration_ms" : 181080,
      "explicit" : false,
      "external_ids" : {
        "isrc" : "USSM19902094"
      },
      "external_urls" : {
        "spotify" : "https://open.spotify.com/track/1mSO0UmfPYERsTauCqn8A4"
      },
      "href" : "https://api.spotify.com/v1/tracks/1mSO0UmfPYERsTauCqn8A4",
      "id" : "1mSO0UmfPYERsTauCqn8A4",
      "is_local" : false,
      "is_playable" : true,
      "name" : "Standing on the Promises / Amazing Grace",
      "popularity" : 25,
      "preview_url" : "https://p.scdn.co/mp3-preview/bed69393fc337371feced76b98eba7a20762f0d9?cid=774b29d4f13844c495f206cafdad9c86",
      "track_number" : 11,
      "type" : "track",
      "uri" : "spotify:track:1mSO0UmfPYERsTauCqn8A4"
    }, {
      "album" : {
        "album_type" : "album",
        "artists" : [ {
          "external_urls" : {
            "spotify" : "https://open.spotify.com/artist/4d8pFJwCoD1mX4wAn7Ax2h"
          },
          "href" : "https://api.spotify.com/v1/artists/4d8pFJwCoD1mX4wAn7Ax2h",
          "id" : "4d8pFJwCoD1mX4wAn7Ax2h",
          "name" : "Clovercroft Kids",
          "type" : "artist",
          "uri" : "spotify:artist:4d8pFJwCoD1mX4wAn7Ax2h"
        } ],
        "external_urls" : {
          "spotify" : "https://open.spotify.com/album/0ZZqk2oNYOGAgmyXuw5yyy"
        },
        "href" : "https://api.spotify.com/v1/albums/0ZZqk2oNYOGAgmyXuw5yyy",
        "id" : "0ZZqk2oNYOGAgmyXuw5yyy",
        "images" : [ {
          "height" : 640,
          "url" : "https://i.scdn.co/image/ab67616d0000b273063c54d1cf846444f6032c0b",
          "width" : 640
        }, {
          "height" : 300,
          "url" : "https://i.scdn.co/image/ab67616d00001e02063c54d1cf846444f6032c0b",
          "width" : 300
        }, {
          "height" : 64,
          "url" : "https://i.scdn.co/image/ab67616d00004851063c54d1cf846444f6032c0b",
          "width" : 64
        } ],
        "name" : "Hymns for Kids: Amazing Grace",
        "release_date" : "2014-09-30",
        "release_date_precision" : "day",
        "total_tracks" : 40,
        "type" : "album",
        "uri" : "spotify:album:0ZZqk2oNYOGAgmyXuw5yyy"
      },
      "artists" : [ {
        "external_urls" : {
          "spotify" : "https://open.spotify.com/artist/4d8pFJwCoD1mX4wAn7Ax2h"
        },
        "href" : "https://api.spotify.com/v1/artists/4d8pFJwCoD1mX4wAn7Ax2h",
        "id" : "4d8pFJwCoD1mX4wAn7Ax2h",
        "name" : "Clovercroft Kids",
        "type" : "artist",
        "uri" : "spotify:artist:4d8pFJwCoD1mX4wAn7Ax2h"
      } ],
      "disc_number" : 1,
      "duration_ms" : 101360,
      "explicit" : false,
      "external_ids" : {
        "isrc" : "USACX1401261"
      },
      "external_urls" : {
        "spotify" : "https://open.spotify.com/track/5tuWs3YkXadqbFtWEPdsMy"
      },
      "href" : "https://api.spotify.com/v1/tracks/5tuWs3YkXadqbFtWEPdsMy",
      "id" : "5tuWs3YkXadqbFtWEPdsMy",
      "is_local" : false,
      "is_playable" : true,
      "name" : "Standing On The Promises",
      "popularity" : 20,
      "preview_url" : "https://p.scdn.co/mp3-preview/b5cf1c0fc97310529d734e7bf77eb2ac57b75cf1?cid=774b29d4f13844c495f206cafdad9c86",
      "track_number" : 10,
      "type" : "track",
      "uri" : "spotify:track:5tuWs3YkXadqbFtWEPdsMy"
    }, {
      "album" : {
        "album_type" : "album",
        "artists" : [ {
          "external_urls" : {
            "spotify" : "https://open.spotify.com/artist/5Z7ndTqS6EPzpNn322s0Nw"
          },
          "href" : "https://api.spotify.com/v1/artists/5Z7ndTqS6EPzpNn322s0Nw",
          "id" : "5Z7ndTqS6EPzpNn322s0Nw",
          "name" : "Jaime Jorge",
          "type" : "artist",
          "uri" : "spotify:artist:5Z7ndTqS6EPzpNn322s0Nw"
        } ],
        "external_urls" : {
          "spotify" : "https://open.spotify.com/album/3JKW9m8gji0M6f1noWSWCU"
        },
        "href" : "https://api.spotify.com/v1/albums/3JKW9m8gji0M6f1noWSWCU",
        "id" : "3JKW9m8gji0M6f1noWSWCU",
        "images" : [ {
          "height" : 640,
          "url" : "https://i.scdn.co/image/ab67616d0000b273b15bca87bcc1b8ef41b0e0cf",
          "width" : 640
        }, {
          "height" : 300,
          "url" : "https://i.scdn.co/image/ab67616d00001e02b15bca87bcc1b8ef41b0e0cf",
          "width" : 300
        }, {
          "height" : 64,
          "url" : "https://i.scdn.co/image/ab67616d00004851b15bca87bcc1b8ef41b0e0cf",
          "width" : 64
        } ],
        "name" : "Rock of Ages",
        "release_date" : "2010-07-10",
        "release_date_precision" : "day",
        "total_tracks" : 12,
        "type" : "album",
        "uri" : "spotify:album:3JKW9m8gji0M6f1noWSWCU"
      },
      "artists" : [ {
        "external_urls" : {
          "spotify" : "https://open.spotify.com/artist/5Z7ndTqS6EPzpNn322s0Nw"
        },
        "href" : "https://api.spotify.com/v1/artists/5Z7ndTqS6EPzpNn322s0Nw",
        "id" : "5Z7ndTqS6EPzpNn322s0Nw",
        "name" : "Jaime Jorge",
        "type" : "artist",
        "uri" : "spotify:artist:5Z7ndTqS6EPzpNn322s0Nw"
      } ],
      "disc_number" : 1,
      "duration_ms" : 205520,
      "explicit" : false,
      "external_ids" : {
        "isrc" : "ushm81032035"
      },
      "external_urls" : {
        "spotify" : "https://open.spotify.com/track/5UxQKrwa6aMZtdSyaynFBM"
      },
      "href" : "https://api.spotify.com/v1/tracks/5UxQKrwa6aMZtdSyaynFBM",
      "id" : "5UxQKrwa6aMZtdSyaynFBM",
      "is_local" : false,
      "is_playable" : true,
      "name" : "Standing On the Promises",
      "popularity" : 23,
      "preview_url" : "https://p.scdn.co/mp3-preview/032e4563a1803b84c2ee631ca33016218e0b4446?cid=774b29d4f13844c495f206cafdad9c86",
      "track_number" : 5,
      "type" : "track",
      "uri" : "spotify:track:5UxQKrwa6aMZtdSyaynFBM"
    }, {
      "album" : {
        "album_type" : "album",
        "artists" : [ {
          "external_urls" : {
            "spotify" : "https://open.spotify.com/artist/2IhNdbMUUa1aedvZVZsZmv"
          },
          "href" : "https://api.spotify.com/v1/artists/2IhNdbMUUa1aedvZVZsZmv",
          "id" : "2IhNdbMUUa1aedvZVZsZmv",
          "name" : "Luke Gard",
          "type" : "artist",
          "uri" : "spotify:artist:2IhNdbMUUa1aedvZVZsZmv"
        } ],
        "external_urls" : {
          "spotify" : "https://open.spotify.com/album/2omdKoz7ZpkBiBbcU3Ocyl"
        },
        "href" : "https://api.spotify.com/v1/albums/2omdKoz7ZpkBiBbcU3Ocyl",
        "id" : "2omdKoz7ZpkBiBbcU3Ocyl",
        "images" : [ {
          "height" : 640,
          "url" : "https://i.scdn.co/image/ab67616d0000b273c04d7a1134eafa2596777f01",
          "width" : 640
        }, {
          "height" : 300,
          "url" : "https://i.scdn.co/image/ab67616d00001e02c04d7a1134eafa2596777f01",
          "width" : 300
        }, {
          "height" : 64,
          "url" : "https://i.scdn.co/image/ab67616d00004851c04d7a1134eafa2596777f01",
          "width" : 64
        } ],
        "name" : "As You Go: Hymns of Hope",
        "release_date" : "2020-05-15",
        "release_date_precision" : "day",
        "total_tracks" : 12,
        "type" : "album",
        "uri" : "spotify:album:2omdKoz7ZpkBiBbcU3Ocyl"
      },
      "artists" : [ {
        "external_urls" : {
          "spotify" : "https://open.spotify.com/artist/2IhNdbMUUa1aedvZVZsZmv"
        },
        "href" : "https://api.spotify.com/v1/artists/2IhNdbMUUa1aedvZVZsZmv",
        "id" : "2IhNdbMUUa1aedvZVZsZmv",
        "name" : "Luke Gard",
        "type" : "artist",
        "uri" : "spotify:artist:2IhNdbMUUa1aedvZVZsZmv"
      } ],
      "disc_number" : 1,
      "duration_ms" : 170440,
      "explicit" : false,
      "external_ids" : {
        "isrc" : "QMTJ82000104"
      },
      "external_urls" : {
        "spotify" : "https://open.spotify.com/track/4BMMZD1CwhfJ1iy35Hcdbk"
      },
      "href" : "https://api.spotify.com/v1/tracks/4BMMZD1CwhfJ1iy35Hcdbk",
      "id" : "4BMMZD1CwhfJ1iy35Hcdbk",
      "is_local" : false,
      "is_playable" : true,
      "name" : "Standing on the Promises",
      "popularity" : 1,
      "preview_url" : "https://p.scdn.co/mp3-preview/6815d388d6508417611cfb80f788c282a3b57d1d?cid=774b29d4f13844c495f206cafdad9c86",
      "track_number" : 4,
      "type" : "track",
      "uri" : "spotify:track:4BMMZD1CwhfJ1iy35Hcdbk"
    }, {
      "album" : {
        "album_type" : "album",
        "artists" : [ {
          "external_urls" : {
            "spotify" : "https://open.spotify.com/artist/4mxWe1mtYIYfP040G38yvS"
          },
          "href" : "https://api.spotify.com/v1/artists/4mxWe1mtYIYfP040G38yvS",
          "id" : "4mxWe1mtYIYfP040G38yvS",
          "name" : "Alan Jackson",
          "type" : "artist",
          "uri" : "spotify:artist:4mxWe1mtYIYfP040G38yvS"
        } ],
        "external_urls" : {
          "spotify" : "https://open.spotify.com/album/3otkui6GGLYq0O1jD3obAo"
        },
        "href" : "https://api.spotify.com/v1/albums/3otkui6GGLYq0O1jD3obAo",
        "id" : "3otkui6GGLYq0O1jD3obAo",
        "images" : [ {
          "height" : 640,
          "url" : "https://i.scdn.co/image/ab67616d0000b273b0a36143ee09188135ee6973",
          "width" : 640
        }, {
          "height" : 300,
          "url" : "https://i.scdn.co/image/ab67616d00001e02b0a36143ee09188135ee6973",
          "width" : 300
        }, {
          "height" : 64,
          "url" : "https://i.scdn.co/image/ab67616d00004851b0a36143ee09188135ee6973",
          "width" : 64
        } ],
        "name" : "Precious Memories Collection",
        "release_date" : "2016-10-28",
        "release_date_precision" : "day",
        "total_tracks" : 28,
        "type" : "album",
        "uri" : "spotify:album:3otkui6GGLYq0O1jD3obAo"
      },
      "artists" : [ {
        "external_urls" : {
          "spotify" : "https://open.spotify.com/artist/4mxWe1mtYIYfP040G38yvS"
        },
        "href" : "https://api.spotify.com/v1/artists/4mxWe1mtYIYfP040G38yvS",
        "id" : "4mxWe1mtYIYfP040G38yvS",
        "name" : "Alan Jackson",
        "type" : "artist",
        "uri" : "spotify:artist:4mxWe1mtYIYfP040G38yvS"
      } ],
      "disc_number" : 2,
      "duration_ms" : 95466,
      "explicit" : false,
      "external_ids" : {
        "isrc" : "USCN11200049"
      },
      "external_urls" : {
        "spotify" : "https://open.spotify.com/track/72kXr0LaTFJFRoR6pstDDS"
      },
      "href" : "https://api.spotify.com/v1/tracks/72kXr0LaTFJFRoR6pstDDS",
      "id" : "72kXr0LaTFJFRoR6pstDDS",
      "is_local" : false,
      "is_playable" : true,
      "name" : "Standing On The Promises",
      "popularity" : 30,
      "preview_url" : null,
      "track_number" : 10,
      "type" : "track",
      "uri" : "spotify:track:72kXr0LaTFJFRoR6pstDDS"
    }, {
      "album" : {
        "album_type" : "album",
        "artists" : [ {
          "external_urls" : {
            "spotify" : "https://open.spotify.com/artist/5dZiRoY9Vpp6qrxqXNRwPE"
          },
          "href" : "https://api.spotify.com/v1/artists/5dZiRoY9Vpp6qrxqXNRwPE",
          "id" : "5dZiRoY9Vpp6qrxqXNRwPE",
          "name" : "Selah",
          "type" : "artist",
          "uri" : "spotify:artist:5dZiRoY9Vpp6qrxqXNRwPE"
        } ],
        "external_urls" : {
          "spotify" : "https://open.spotify.com/album/1JmmM3kMCKzYbuBHphQMFP"
        },
        "href" : "https://api.spotify.com/v1/albums/1JmmM3kMCKzYbuBHphQMFP",
        "id" : "1JmmM3kMCKzYbuBHphQMFP",
        "images" : [ {
          "height" : 640,
          "url" : "https://i.scdn.co/image/ab67616d0000b273acff8fc1a79b0181fce6a510",
          "width" : 640
        }, {
          "height" : 300,
          "url" : "https://i.scdn.co/image/ab67616d00001e02acff8fc1a79b0181fce6a510",
          "width" : 300
        }, {
          "height" : 64,
          "url" : "https://i.scdn.co/image/ab67616d00004851acff8fc1a79b0181fce6a510",
          "width" : 64
        } ],
        "name" : "Greatest Hymns, Vol. 2",
        "release_date" : "2016-08-26",
        "release_date_precision" : "day",
        "total_tracks" : 18,
        "type" : "album",
        "uri" : "spotify:album:1JmmM3kMCKzYbuBHphQMFP"
      },
      "artists" : [ {
        "external_urls" : {
          "spotify" : "https://open.spotify.com/artist/5dZiRoY9Vpp6qrxqXNRwPE"
        },
        "href" : "https://api.spotify.com/v1/artists/5dZiRoY9Vpp6qrxqXNRwPE",
        "id" : "5dZiRoY9Vpp6qrxqXNRwPE",
        "name" : "Selah",
        "type" : "artist",
        "uri" : "spotify:artist:5dZiRoY9Vpp6qrxqXNRwPE"
      } ],
      "disc_number" : 1,
      "duration_ms" : 194653,
      "explicit" : false,
      "external_ids" : {
        "isrc" : "USCRB0908663"
      },
      "external_urls" : {
        "spotify" : "https://open.spotify.com/track/3yRFgn0nDlcmTjWwggfRMM"
      },
      "href" : "https://api.spotify.com/v1/tracks/3yRFgn0nDlcmTjWwggfRMM",
      "id" : "3yRFgn0nDlcmTjWwggfRMM",
      "is_local" : false,
      "is_playable" : true,
      "name" : "Standing On The Promises (Medley)",
      "popularity" : 24,
      "preview_url" : "https://p.scdn.co/mp3-preview/61b645c0f51413a029f2b202a7c6fae54de56a2d?cid=774b29d4f13844c495f206cafdad9c86",
      "track_number" : 12,
      "type" : "track",
      "uri" : "spotify:track:3yRFgn0nDlcmTjWwggfRMM"
    }, {
      "album" : {
        "album_type" : "album",
        "artists" : [ {
          "external_urls" : {
            "spotify" : "https://open.spotify.com/artist/7EQrc1Kz56jCHgJ895CZJ8"
          },
          "href" : "https://api.spotify.com/v1/artists/7EQrc1Kz56jCHgJ895CZJ8",
          "id" : "7EQrc1Kz56jCHgJ895CZJ8",
          "name" : "The Winans",
          "type" : "artist",
          "uri" : "spotify:artist:7EQrc1Kz56jCHgJ895CZJ8"
        } ],
        "external_urls" : {
          "spotify" : "https://open.spotify.com/album/7mf5T7qu9NF5PCVgCGJFHF"
        },
        "href" : "https://api.spotify.com/v1/albums/7mf5T7qu9NF5PCVgCGJFHF",
        "id" : "7mf5T7qu9NF5PCVgCGJFHF",
        "images" : [ {
          "height" : 640,
          "url" : "https://i.scdn.co/image/ab67616d0000b2737a56ecb70e6cb875e8e5e5e7",
          "width" : 640
        }, {
          "height" : 300,
          "url" : "https://i.scdn.co/image/ab67616d00001e027a56ecb70e6cb875e8e5e5e7",
          "width" : 300
        }, {
          "height" : 64,
          "url" : "https://i.scdn.co/image/ab67616d000048517a56ecb70e6cb875e8e5e5e7",
          "width" : 64
        } ],
        "name" : "Heart and Soul",
        "release_date" : "1995-10-24",
        "release_date_precision" : "day",
        "total_tracks" : 12,
        "type" : "album",
        "uri" : "spotify:album:7mf5T7qu9NF5PCVgCGJFHF"
      },
      "artists" : [ {
        "external_urls" : {
          "spotify" : "https://open.spotify.com/artist/7EQrc1Kz56jCHgJ895CZJ8"
        },
        "href" : "https://api.spotify.com/v1/artists/7EQrc1Kz56jCHgJ895CZJ8",
        "id" : "7EQrc1Kz56jCHgJ895CZJ8",
        "name" : "The Winans",
        "type" : "artist",
        "uri" : "spotify:artist:7EQrc1Kz56jCHgJ895CZJ8"
      } ],
      "disc_number" : 1,
      "duration_ms" : 312226,
      "explicit" : false,
      "external_ids" : {
        "isrc" : "USQW10100098"
      },
      "external_urls" : {
        "spotify" : "https://open.spotify.com/track/5Sm3LNxdsiOUtKolMHqPrx"
      },
      "href" : "https://api.spotify.com/v1/tracks/5Sm3LNxdsiOUtKolMHqPrx",
      "id" : "5Sm3LNxdsiOUtKolMHqPrx",
      "is_local" : false,
      "is_playable" : true,
      "name" : "Standing On Promises",
      "popularity" : 18,
      "preview_url" : "https://p.scdn.co/mp3-preview/f5d4c7d58f198f20fff0964a3c2ceb7bcfa269c7?cid=774b29d4f13844c495f206cafdad9c86",
      "track_number" : 11,
      "type" : "track",
      "uri" : "spotify:track:5Sm3LNxdsiOUtKolMHqPrx"
    } ],
    "limit" : 10,
    "next" : "https://api.spotify.com/v1/search?query=Standing+on+the+Promises&type=track&market=US&offset=15&limit=10",
    "offset" : 5,
    "previous" : "https://api.spotify.com/v1/search?query=Standing+on+the+Promises&type=track&market=US&offset=0&limit=10",
    "total" : 520
  }
}