{
  "tracks" : {
    "href" : "https://api.spotify.com/v1/search?query=O+Jesus%2C+Thou+Art+Standing&type=track&market=US&offset=5&limit=10",
    "items" : [ {
      "album" : {
        "album_type" : "album",
        "artists" : [ {
          "external_urls" : {
            "spotify" : "https://open.spotify.com/artist/0prs9dikcs5ygHMJNcJEAF"
          },
          "href" : "https://api.spotify.com/v1/artists/0prs9dikcs5ygHMJNcJEAF",
          "id" : "0prs9dikcs5ygHMJNcJEAF",
          "name" : "Eventide",
          "type" : "artist",
          "uri" : "spotify:artist:0prs9dikcs5ygHMJNcJEAF"
        } ],
        "external_urls" : {
          "spotify" : "https://open.spotify.com/album/366HLsAjjstgpFNdNFYM41"
        },
        "href" : "https://api.spotify.com/v1/albums/366HLsAjjstgpFNdNFYM41",
        "id" : "366HLsAjjstgpFNdNFYM41",
        "images" : [ {
          "height" : 640,
          "url" : "https://i.scdn.co/image/ab67616d0000b273712138813fd6269dfed8498b",
          "width" : 640
        }, {
          "height" : 300,
          "url" : "https://i.scdn.co/image/ab67616d00001e02712138813fd6269dfed8498b",
          "width" : 300
        }, {
          "height" : 64,
          "url" : "https://i.scdn.co/image/ab67616d00004851712138813fd6269dfed8498b",
          "width" : 64
        } ],
        "name" : "Eventide (Hymns from VESPERS)",
        "release_date" : "2018-12-28",
        "release_date_precision" : "day",
        "total_tracks" : 19,
        "type" : "album",
        "uri" : "spotify:album:366HLsAjjstgpFNdNFYM41"
      },
      "artists" : [ {
        "external_urls" : {
          "spotify" : "https://open.spotify.com/artist/1RbAdVpGn2Tqe8hXLqpEks"
        },
        "href" : "https://api.spotify.com/v1/artists/1RbAdVpGn2Tqe8hXLqpEks",
        "id" : "1RbAdVpGn2Tqe8hXLqpEks",
        "name" : "Vespers Choir",
        "type" : "artist",
        "uri" : "spotify:artist:1RbAdVpGn2Tqe8hXLqpEks"
      }, {
        "external_urls" : {
          "spotify" : "https://open.spotify.com/artist/5xvrsUBk4maM5qavI5tFTZ"
        },
        "href" : "https://api.spotify.com/v1/artists/5xvrsUBk4maM5qavI5tFTZ",
        "id" : "5xvrsUBk4maM5qavI5tFTZ",
        "name" : "Jina Kang",
        "type" : "artist",
        "uri" : "spotify:artist:5xvrsUBk4maM5qavI5tFTZ"
      } ],
      "disc_number" : 1,
      "duration_ms" : 187899,
      "explicit" : false,
      "external_ids" : {
        "isrc" : "KRMIM1815439"
      },
      "external_urls" : {
        "spotify" : "https://open.spotify.com/track/335NfaoHsi6OYWxAmk2AFL"
      },
      "href" : "https://api.spotify.com/v1/tracks/335NfaoHsi6OYWxAmk2AFL",
      "id" : "335NfaoHsi6OYWxAmk2AFL",
      "is_local" : false,
      "is_playable" : true,
      "name" : "O Jesus, Thou art standing",
      "popularity" : 0,
      "preview_url" : "https://p.scdn.co/mp3-preview/4a8506672b37f883c522a0acc735d750b7b9e5fc?cid=774b29d4f13844c495f206cafdad9c86",
      "track_number" : 7,
      "type" : "track",
      "uri" : "spotify:track:335NfaoHsi6OYWxAmk2AFL"
    }, {
      "album" : {
        "album_type" : "album",
        "artists" : [ {
          "external_urls" : {
            "spotify" : "https://open.spotify.com/artist/756SpSMGgGeQGai4a4lXVV"
          },
          "href" : "https://api.spotify.com/v1/artists/756SpSMGgGeQGai4a4lXVV",
          "id" : "756SpSMGgGeQGai4a4lXVV",
          "name" : "ATBOs",
          "type" : "artist",
          "uri" : "spotify:artist:756SpSMGgGeQGai4a4lXVV"
        } ],
        "external_urls" : {
          "spotify" : "https://open.spotify.com/album/1DZcKYErYAeB1n0ZXFRFSl"
        },
        "href" : "https://api.spotify.com/v1/albums/1DZcKYErYAeB1n0ZXFRFSl",
        "id" : "1DZcKYErYAeB1n0ZXFRFSl",
        "images" : [ {
          "height" : 640,
          "url" : "https://i.scdn.co/image/ab67616d0000b27303a56a6575d5823d4cfd5219",
          "width" : 640
        }, {
          "height" : 300,
          "url" : "https://i.scdn.co/image/ab67616d00001e0203a56a6575d5823d4cfd5219",
          "width" : 300
        }, {
          "height" : 64,
          "url" : "https://i.scdn.co/image/ab67616d0000485103a56a6575d5823d4cfd5219",
          "width" : 64
        } ],
        "name" : "ATBOs-The Four Seasons",
        "release_date" : "2017-06-02",
        "release_date_precision" : "day",
        "total_tracks" : 60,
        "type" : "album",
        "uri" : "spotify:album:1DZcKYErYAeB1n0ZXFRFSl"
      },
      "artists" : [ {
        "external_urls" : {
          "spotify" : "https://open.spotify.com/artist/756SpSMGgGeQGai4a4lXVV"
        },
        "href" : "https://api.spotify.com/v1/artists/756SpSMGgGeQGai4a4lXVV",
        "id" : "756SpSMGgGeQGai4a4lXVV",
        "name" : "ATBOs",
        "type" : "artist",
        "uri" : "spotify:artist:756SpSMGgGeQGai4a4lXVV"
      } ],
      "disc_number" : 3,
      "duration_ms" : 242175,
      "explicit" : false,
      "external_ids" : {
        "isrc" : "KRB461600329"
      },
      "external_urls" : {
        "spotify" : "https://open.spotify.com/track/411rgs8YGsevxICziaJH30"
      },
      "href" : "https://api.spotify.com/v1/tracks/411rgs8YGsevxICziaJH30",
      "id" : "411rgs8YGsevxICziaJH30",
      "is_local" : false,
      "is_playable" : true,
      "name" : "O Jesus, Thou Art Standing (Instrumental)",
      "popularity" : 0,
      "preview_url" : "https://p.scdn.co/mp3-preview/2cda4babd33298d50d2ee1dfcf5811bb6c340f5d?cid=774b29d4f13844c495f206cafdad9c86",
      "track_number" : 12,
      "type" : "track",
      "uri" : "spotify:track:411rgs8YGsevxICziaJH30"
    }, {
      "album" : {
        "album_type" : "album",
        "artists" : [ {
          "external_urls" : {
            "spotify" : "https://open.spotify.com/artist/3qNSsKNzzgoxfmBBwAIHUy"
          },
          "href" : "https://api.spotify.com/v1/artists/3qNSsKNzzgoxfmBBwAIHUy",
          "id" : "3qNSsKNzzgoxfmBBwAIHUy",
          "name" : "Lana Kim",
          "type" : "artist",
          "uri" : "spotify:artist:3qNSsKNzzgoxfmBBwAIHUy"
        } ],
        "external_urls" : {
          "spotify" : "https://open.spotify.com/album/1DQRt9dL3OirC14xzfLSdU"
        },
        "href" : "https://api.spotify.com/v1/albums/1DQRt9dL3OirC14xzfLSdU",
        "id" : "1DQRt9dL3OirC14xzfLSdU",
        "images" : [ {
          "height" : 640,
          "url" : "https://i.scdn.co/image/ab67616d0000b273a455048a8edb7fc7e5fff859",
          "width" : 640
        }, {
          "height" : 300,
          "url" : "https://i.scdn.co/image/ab67616d00001e02a455048a8edb7fc7e5fff859",
          "width" : 300
        }, {
          "height" : 64,
          "url" : "https://i.scdn.co/image/ab67616d00004851a455048a8edb7fc7e5fff859",
          "width" : 64
        } ],
        "name" : "All Christian Hymns - Vol. 9",
        "release_date" : "2011-02-20",
        "release_date_precision" : "day",
        "total_tracks" : 40,
        "type" : "album",
        "uri" : "spotify:album:1DQRt9dL3OirC14xzfLSdU"
      },
      "artists" : [ {
        "external_urls" : {
          "spotify" : "https://open.spotify.com/artist/3qNSsKNzzgoxfmBBwAIHUy"
        },
        "href" : "https://api.spotify.com/v1/artists/3qNSsKNzzgoxfmBBwAIHUy",
        "id" : "3qNSsKNzzgoxfmBBwAIHUy",
        "name" : "Lana Kim",
        "type" : "artist",
        "uri" : "spotify:artist:3qNSsKNzzgoxfmBBwAIHUy"
      } ],
      "disc_number" : 1,
      "duration_ms" : 73351,
      "explicit" : false,
      "external_ids" : {
        "isrc" : "USJ3V1085553"
      },
      "external_urls" : {
        "spotify" : "https://open.spotify.com/track/6qSlBvFZNjfdP9uiC6RFK9"
      },
      "href" : "https://api.spotify.com/v1/tracks/6qSlBvFZNjfdP9uiC6RFK9",
      "id" : "6qSlBvFZNjfdP9uiC6RFK9",
      "is_local" : false,
      "is_playable" : true,
      "name" : "325 O Jesus, Thou Art Standing",
      "popularity" : 0,
      "preview_url" : "https://p.scdn.co/mp3-preview/14af5f61a09212e799b40956b0ada4c09e7ad14d?cid=774b29d4f13844c495f206cafdad9c86",
      "track_number" : 9,
      "type" : "track",
      "uri" : "spotify:track:6qSlBvFZNjfdP9uiC6RFK9"
    }, {
      "album" : {
        "album_type" : "album",
        "artists" : [ {
          "external_urls" : {
            "spotify" : "https://open.spotify.com/artist/0OEX1H1s5PKIGqfqOni9g0"
          },
          "href" : "https://api.spotify.com/v1/artists/0OEX1H1s5PKIGqfqOni9g0",
          "id" : "0OEX1H1s5PKIGqfqOni9g0",
          "name" : "JHCmusic",
          "type" : "artist",
          "uri" : "spotify:artist:0OEX1H1s5PKIGqfqOni9g0"
        } ],
        "external_urls" : {
          "spotify" : "https://open.spotify.com/album/1BXwxnRdFcD5JIixdDKcfy"
        },
        "href" : "https://api.spotify.com/v1/albums/1BXwxnRdFcD5JIixdDKcfy",
        "id" : "1BXwxnRdFcD5JIixdDKcfy",
        "images" : [ {
          "height" : 640,
          "url" : "https://i.scdn.co/image/ab67616d0000b2739b5abe3878652948f97e1561",
          "width" : 640
        }, {
          "height" : 300,
          "url" : "https://i.scdn.co/image/ab67616d00001e029b5abe3878652948f97e1561",
          "width" : 300
        }, {
          "height" : 64,
          "url" : "https://i.scdn.co/image/ab67616d000048519b5abe3878652948f97e1561",
          "width" : 64
        } ],
        "name" : "Piano Solo Hymn 5",
        "release_date" : "2018-08-31",
        "release_date_precision" : "day",
        "total_tracks" : 10,
        "type" : "album",
        "uri" : "spotify:album:1BXwxnRdFcD5JIixdDKcfy"
      },
      "artists" : [ {
        "external_urls" : {
          "spotify" : "https://open.spotify.com/artist/0OEX1H1s5PKIGqfqOni9g0"
        },
        "href" : "https://api.spotify.com/v1/artists/0OEX1H1s5PKIGqfqOni9g0",
        "id" : "0OEX1H1s5PKIGqfqOni9g0",
        "name" : "JHCmusic",
        "type" : "artist",
        "uri" : "spotify:artist:0OEX1H1s5PKIGqfqOni9g0"
      }, {
        "external_urls" : {
          "spotify" : "https://open.spotify.com/artist/5xCiNeSndqtxhdDxvxAAmA"
        },
        "href" : "https://api.spotify.com/v1/artists/5xCiNeSndqtxhdDxvxAAmA",
        "id" : "5xCiNeSndqtxhdDxvxAAmA",
        "name" : "PMY",
        "type" : "artist",
        "uri" : "spotify:artist:5xCiNeSndqtxhdDxvxAAmA"
      } ],
      "disc_number" : 1,
      "duration_ms" : 253945,
      "explicit" : false,
      "external_ids" : {
        "isrc" : "KRMIM1806746"
      },
      "external_urls" : {
        "spotify" : "https://open.spotify.com/track/4k1OhJaK9SRolsvVH7G95L"
      },
      "href" : "https://api.spotify.com/v1/tracks/4k1OhJaK9SRolsvVH7G95L",
      "id" : "4k1OhJaK9SRolsvVH7G95L",
      "is_local" : false,
      "is_playable" : true,
      "name" : "O Jesus, Thou Art Standing (Arr.by PMY)",
      "popularity" : 0,
      "preview_url" : "https://p.scdn.co/mp3-preview/0b0f12e7fc930838dd432d0e0426b333ac277417?cid=774b29d4f13844c495f206cafdad9c86",
      "track_number" : 6,
      "type" : "track",
      "uri" : "spotify:track:4k1OhJaK9SRolsvVH7G95L"
    }, {
      "album" : {
        "album_type" : "album",
        "artists" : [ {
          "external_urls" : {
            "spotify" : "https://open.spotify.com/artist/5CVkzrgQOS5E7pmPgPR5aA"
          },
          "href" : "https://api.spotify.com/v1/artists/5CVkzrgQOS5E7pmPgPR5aA",
          "id" : "5CVkzrgQOS5E7pmPgPR5aA",
          "name" : "오늘의 만나 Manna",
          "type" : "artist",
          "uri" : "spotify:artist:5CVkzrgQOS5E7pmPgPR5aA"
        } ],
        "external_urls" : {
          "spotify" : "https://open.spotify.com/album/0LFBsR806ExW2PRCWzVURB"
        },
        "href" : "https://api.spotify.com/v1/albums/0LFBsR806ExW2PRCWzVURB",
        "id" : "0LFBsR806ExW2PRCWzVURB",
        "images" : [ {
          "height" : 640,
          "url" : "https://i.scdn.co/image/ab67616d0000b2730f18f11ea65133e894f70f4a",
          "width" : 640
        }, {
          "height" : 300,
          "url" : "https://i.scdn.co/image/ab67616d00001e020f18f11ea65133e894f70f4a",
          "width" : 300
        }, {
          "height" : 64,
          "url" : "https://i.scdn.co/image/ab67616d000048510f18f11ea65133e894f70f4a",
          "width" : 64
        } ],
        "name" : "Grace - Piano Hymns",
        "release_date" : "2018-04-04",
        "release_date_precision" : "day",
        "total_tracks" : 7,
        "type" : "album",
        "uri" : "spotify:album:0LFBsR806ExW2PRCWzVURB"
      },
      "artists" : [ {
        "external_urls" : {
          "spotify" : "https://open.spotify.com/artist/5CVkzrgQOS5E7pmPgPR5aA"
        },
        "href" : "https://api.spotify.com/v1/artists/5CVkzrgQOS5E7pmPgPR5aA",
        "id" : "5CVkzrgQOS5E7pmPgPR5aA",
        "name" : "오늘의 만나 Manna",
        "type" : "artist",
        "uri" : "spotify:artist:5CVkzrgQOS5E7pmPgPR5aA"
      } ],
      "disc_number" : 1,
      "duration_ms" : 188593,
      "explicit" : false,
      "external_ids" : {
        "isrc" : "KRA351800240"
      },
      "external_urls" : {
        "spotify" : "https://open.spotify.com/track/7qT9vdKB9ZijcfvL5gc8nl"
      },
      "href" : "https://api.spotify.com/v1/tracks/7qT9vdKB9ZijcfvL5gc8nl",
      "id" : "7qT9vdKB9ZijcfvL5gc8nl",
      "is_local" : false,
      "is_playable" : true,
      "name" : "주 예수 대문밖에 O Jesus, Thou Art Standing",
      "popularity" : 0,
      "preview_url" : "https://p.scdn.co/mp3-preview/024e4e7ed7e2debcc7ba7f928684512170b65e52?cid=774b29d4f13844c495f206cafdad9c86",
      "track_number" : 7,
      "type" : "track",
      "uri" : "spotify:track:7qT9vdKB9ZijcfvL5gc8nl"
    }, {
      "album" : {
        "album_type" : "single",
        "artists" : [ {
          "external_urls" : {
            "spotify" : "https://open.spotify.com/artist/6jhFq1N4zInyZeevn8y4lZ"
          },
          "href" : "https://api.spotify.com/v1/artists/6jhFq1N4zInyZeevn8y4lZ",
          "id" : "6jhFq1N4zInyZeevn8y4lZ",
          "name" : "이지원 Lee Jee Won",
          "type" : "artist",
          "uri" : "spotify:artist:6jhFq1N4zInyZeevn8y4lZ"
        } ],
        "external_urls" : {
          "spotify" : "https://open.spotify.com/album/7nhyka86PbqUhbnyJiIXxo"
        },
        "href" : "https://api.spotify.com/v1/albums/7nhyka86PbqUhbnyJiIXxo",
        "id" : "7nhyka86PbqUhbnyJiIXxo",
        "images" : [ {
          "height" : 640,
          "url" : "https://i.scdn.co/image/ab67616d0000b2735bc8451cfa7cd50099b6163e",
          "width" : 640
        }, {
          "height" : 300,
          "url" : "https://i.scdn.co/image/ab67616d00001e025bc8451cfa7cd50099b6163e",
          "width" : 300
        }, {
          "height" : 64,
          "url" : "https://i.scdn.co/image/ab67616d000048515bc8451cfa7cd50099b6163e",
          "width" : 64
        } ],
        "name" : "하나님이 세상을 이처럼 사랑하사 For God So Loved",
        "release_date" : "2019-10-30",
        "release_date_precision" : "day",
        "total_tracks" : 6,
        "type" : "album",
        "uri" : "spotify:album:7nhyka86PbqUhbnyJiIXxo"
      },
      "artists" : [ {
        "external_urls" : {
          "spotify" : "https://open.spotify.com/artist/6jhFq1N4zInyZeevn8y4lZ"
        },
        "href" : "https://api.spotify.com/v1/artists/6jhFq1N4zInyZeevn8y4lZ",
        "id" : "6jhFq1N4zInyZeevn8y4lZ",
        "name" : "이지원 Lee Jee Won",
        "type" : "artist",
        "uri" : "spotify:artist:6jhFq1N4zInyZeevn8y4lZ"
      } ],
      "disc_number" : 1,
      "duration_ms" : 194133,
      "explicit" : false,
      "external_ids" : {
        "isrc" : "KRA351902770"
      },
      "external_urls" : {
        "spotify" : "https://open.spotify.com/track/2uvSqcK8we4OywLqDCHCp7"
      },
      "href" : "https://api.spotify.com/v1/tracks/2uvSqcK8we4OywLqDCHCp7",
      "id" : "2uvSqcK8we4OywLqDCHCp7",
      "is_local" : false,
      "is_playable" : true,
      "name" : "주 예수 대문밖에 O Jesus, Thou Art Standing",
      "popularity" : 0,
      "preview_url" : "https://p.scdn.co/mp3-preview/4cbf11585e79eb09273af9a049e2df724b6dfea0?cid=774b29d4f13844c495f206cafdad9c86",
      "track_number" : 5,
      "type" : "track",
      "uri" : "spotify:track:2uvSqcK8we4OywLqDCHCp7"
    }, {
      "album" : {
        "album_type" : "album",
        "artists" : [ {
          "external_urls" : {
            "spotify" : "https://open.spotify.com/artist/5zkmOYaXiNHBKxKnnd1rvl"
          },
          "href" : "https://api.spotify.com/v1/artists/5zkmOYaXiNHBKxKnnd1rvl",
          "id" : "5zkmOYaXiNHBKxKnnd1rvl",
          "name" : "John Keys",
          "type" : "artist",
          "uri" : "spotify:artist:5zkmOYaXiNHBKxKnnd1rvl"
        } ],
        "external_urls" : {
          "spotify" : "https://open.spotify.com/album/46B6LMCP1mPFCgbqgbwr74"
        },
        "href" : "https://api.spotify.com/v1/albums/46B6LMCP1mPFCgbqgbwr74",
        "id" : "46B6LMCP1mPFCgbqgbwr74",
        "images" : [ {
          "height" : 640,
          "url" : "https://i.scdn.co/image/ab67616d0000b2739fc4547fea4d1ab30dacbb9e",
          "width" : 640
        }, {
          "height" : 300,
          "url" : "https://i.scdn.co/image/ab67616d00001e029fc4547fea4d1ab30dacbb9e",
          "width" : 300
        }, {
          "height" : 64,
          "url" : "https://i.scdn.co/image/ab67616d000048519fc4547fea4d1ab30dacbb9e",
          "width" : 64
        } ],
        "name" : "Devotional Hymns Organ Accompaniments, Vol. 5",
        "release_date" : "2018-08-21",
        "release_date_precision" : "day",
        "total_tracks" : 19,
        "type" : "album",
        "uri" : "spotify:album:46B6LMCP1mPFCgbqgbwr74"
      },
      "artists" : [ {
        "external_urls" : {
          "spotify" : "https://open.spotify.com/artist/5zkmOYaXiNHBKxKnnd1rvl"
        },
        "href" : "https://api.spotify.com/v1/artists/5zkmOYaXiNHBKxKnnd1rvl",
        "id" : "5zkmOYaXiNHBKxKnnd1rvl",
        "name" : "John Keys",
        "type" : "artist",
        "uri" : "spotify:artist:5zkmOYaXiNHBKxKnnd1rvl"
      } ],
      "disc_number" : 1,
      "duration_ms" : 162002,
      "explicit" : false,
      "external_ids" : {
        "isrc" : "GBKPL1821488"
      },
      "external_urls" : {
        "spotify" : "https://open.spotify.com/track/6XfPLoGe4ES8LfHaljYBtA"
      },
      "href" : "https://api.spotify.com/v1/tracks/6XfPLoGe4ES8LfHaljYBtA",
      "id" : "6XfPLoGe4ES8LfHaljYBtA",
      "is_local" : false,
      "is_playable" : true,
      "name" : "O Jesus, Thou Art Standing (St Hilda) - Instrumental Version",
      "popularity" : 0,
      "preview_url" : "https://p.scdn.co/mp3-preview/21033cf49bc97b27a720d51b61fb074fdb48b886?cid=774b29d4f13844c495f206cafdad9c86",
      "track_number" : 10,
      "type" : "track",
      "uri" : "spotify:track:6XfPLoGe4ES8LfHaljYBtA"
    }, {
      "album" : {
        "album_type" : "album",
        "artists" : [ {
          "external_urls" : {
            "spotify" : "https://open.spotify.com/artist/3mwz1ZhOPT6Bl9wZl1HKe8"
          },
          "href" : "https://api.spotify.com/v1/artists/3mwz1ZhOPT6Bl9wZl1HKe8",
          "id" : "3mwz1ZhOPT6Bl9wZl1HKe8",
          "name" : "수아 Sooah",
          "type" : "artist",
          "uri" : "spotify:artist:3mwz1ZhOPT6Bl9wZl1HKe8"
        } ],
        "external_urls" : {
          "spotify" : "https://open.spotify.com/album/0GxR1ZPZXHz7eK5b0QlXx2"
        },
        "href" : "https://api.spotify.com/v1/albums/0GxR1ZPZXHz7eK5b0QlXx2",
        "id" : "0GxR1ZPZXHz7eK5b0QlXx2",
        "images" : [ {
          "height" : 640,
          "url" : "https://i.scdn.co/image/ab67616d0000b273d1907a98d8d9fd54f53d6741",
          "width" : 640
        }, {
          "height" : 300,
          "url" : "https://i.scdn.co/image/ab67616d00001e02d1907a98d8d9fd54f53d6741",
          "width" : 300
        }, {
          "height" : 64,
          "url" : "https://i.scdn.co/image/ab67616d00004851d1907a98d8d9fd54f53d6741",
          "width" : 64
        } ],
        "name" : "약속 Promise",
        "release_date" : "2018-06-27",
        "release_date_precision" : "day",
        "total_tracks" : 17,
        "type" : "album",
        "uri" : "spotify:album:0GxR1ZPZXHz7eK5b0QlXx2"
      },
      "artists" : [ {
        "external_urls" : {
          "spotify" : "https://open.spotify.com/artist/3mwz1ZhOPT6Bl9wZl1HKe8"
        },
        "href" : "https://api.spotify.com/v1/artists/3mwz1ZhOPT6Bl9wZl1HKe8",
        "id" : "3mwz1ZhOPT6Bl9wZl1HKe8",
        "name" : "수아 Sooah",
        "type" : "artist",
        "uri" : "spotify:artist:3mwz1ZhOPT6Bl9wZl1HKe8"
      } ],
      "disc_number" : 1,
      "duration_ms" : 244279,
      "explicit" : false,
      "external_ids" : {
        "isrc" : "KRA351800329"
      },
      "external_urls" : {
        "spotify" : "https://open.spotify.com/track/5nXms3gcq73OtqPrq1laJG"
      },
      "href" : "https://api.spotify.com/v1/tracks/5nXms3gcq73OtqPrq1laJG",
      "id" : "5nXms3gcq73OtqPrq1laJG",
      "is_local" : false,
      "is_playable" : true,
      "name" : "주 예수 대문 밖에 O Jesus, Thou Art Standing",
      "popularity" : 0,
      "preview_url" : "https://p.scdn.co/mp3-preview/443542f737481788b0d8a4a910375d4025731d17?cid=774b29d4f13844c495f206cafdad9c86",
      "track_number" : 14,
      "type" : "track",
      "uri" : "spotify:track:5nXms3gcq73OtqPrq1laJG"
    }, {
      "album" : {
        "album_type" : "album",
        "artists" : [ {
          "external_urls" : {
            "spotify" : "https://open.spotify.com/artist/0dFPPYsg4soC1bo4xRCcD7"
          },
          "href" : "https://api.spotify.com/v1/artists/0dFPPYsg4soC1bo4xRCcD7",
          "id" : "0dFPPYsg4soC1bo4xRCcD7",
          "name" : "메리재인 Merry Jane",
          "type" : "artist",
          "uri" : "spotify:artist:0dFPPYsg4soC1bo4xRCcD7"
        } ],
        "external_urls" : {
          "spotify" : "https://open.spotify.com/album/1aQ9cHKgYpplf9SU4zOp7Z"
        },
        "href" : "https://api.spotify.com/v1/albums/1aQ9cHKgYpplf9SU4zOp7Z",
        "id" : "1aQ9cHKgYpplf9SU4zOp7Z",
        "images" : [ {
          "height" : 640,
          "url" : "https://i.scdn.co/image/ab67616d0000b273b7021da0fdbde9170b3297b8",
          "width" : 640
        }, {
          "height" : 300,
          "url" : "https://i.scdn.co/image/ab67616d00001e02b7021da0fdbde9170b3297b8",
          "width" : 300
        }, {
          "height" : 64,
          "url" : "https://i.scdn.co/image/ab67616d00004851b7021da0fdbde9170b3297b8",
          "width" : 64
        } ],
        "name" : "Perfect Love 2",
        "release_date" : "2014-08-01",
        "release_date_precision" : "day",
        "total_tracks" : 7,
        "type" : "album",
        "uri" : "spotify:album:1aQ9cHKgYpplf9SU4zOp7Z"
      },
      "artists" : [ {
        "external_urls" : {
          "spotify" : "https://open.spotify.com/artist/0dFPPYsg4soC1bo4xRCcD7"
        },
        "href" : "https://api.spotify.com/v1/artists/0dFPPYsg4soC1bo4xRCcD7",
        "id" : "0dFPPYsg4soC1bo4xRCcD7",
        "name" : "메리재인 Merry Jane",
        "type" : "artist",
        "uri" : "spotify:artist:0dFPPYsg4soC1bo4xRCcD7"
      } ],
      "disc_number" : 1,
      "duration_ms" : 242337,
      "explicit" : false,
      "external_ids" : {
        "isrc" : "KRA351600506"
      },
      "external_urls" : {
        "spotify" : "https://open.spotify.com/track/7KpIdj5I1DyGW13CHDGQpd"
      },
      "href" : "https://api.spotify.com/v1/tracks/7KpIdj5I1DyGW13CHDGQpd",
      "id" : "7KpIdj5I1DyGW13CHDGQpd",
      "is_local" : false,
      "is_playable" : true,
      "name" : "주 예수 대문 밖에 O Jesus, Thou Art Standing",
      "popularity" : 0,
      "preview_url" : "https://p.scdn.co/mp3-preview/c369caf21a18fc80d3b414604326a179538eb6e3?cid=774b29d4f13844c495f206cafdad9c86",
      "track_number" : 3,
      "type" : "track",
      "uri" : "spotify:track:7KpIdj5I1DyGW13CHDGQpd"
    }, {
      "album" : {
        "album_type" : "single",
        "artists" : [ {
          "external_urls" : {
            "spotify" : "https://open.spotify.com/artist/7k3uzUIF3JRNF3uSZCXxr8"
          },
          "href" : "https://api.spotify.com/v1/artists/7k3uzUIF3JRNF3uSZCXxr8",
          "id" : "7k3uzUIF3JRNF3uSZCXxr8",
          "name" : "남진이 Nam Jin Yi",
          "type" : "artist",
          "uri" : "spotify:artist:7k3uzUIF3JRNF3uSZCXxr8"
        } ],
        "external_urls" : {
          "spotify" : "https://open.spotify.com/album/0n0miDdH1GYTuTfTMDauaS"
        },
        "href" : "https://api.spotify.com/v1/albums/0n0miDdH1GYTuTfTMDauaS",
        "id" : "0n0miDdH1GYTuTfTMDauaS",
        "images" : [ {
          "height" : 640,
          "url" : "https://i.scdn.co/image/ab67616d0000b273ce38cbccc3ab72d672401365",
          "width" : 640
        }, {
          "height" : 300,
          "url" : "https://i.scdn.co/image/ab67616d00001e02ce38cbccc3ab72d672401365",
          "width" : 300
        }, {
          "height" : 64,
          "url" : "https://i.scdn.co/image/ab67616d00004851ce38cbccc3ab72d672401365",
          "width" : 64
        } ],
        "name" : "예배 특송을 위한 찬송가 편곡 프로젝트 Hymn Arrangement Project for Worship Service, Vol. 1",
        "release_date" : "2019-04-15",
        "release_date_precision" : "day",
        "total_tracks" : 2,
        "type" : "album",
        "uri" : "spotify:album:0n0miDdH1GYTuTfTMDauaS"
      },
      "artists" : [ {
        "external_urls" : {
          "spotify" : "https://open.spotify.com/artist/7k3uzUIF3JRNF3uSZCXxr8"
        },
        "href" : "https://api.spotify.com/v1/artists/7k3uzUIF3JRNF3uSZCXxr8",
        "id" : "7k3uzUIF3JRNF3uSZCXxr8",
        "name" : "남진이 Nam Jin Yi",
        "type" : "artist",
        "uri" : "spotify:artist:7k3uzUIF3JRNF3uSZCXxr8"
      } ],
      "disc_number" : 1,
      "duration_ms" : 218016,
      "explicit" : false,
      "external_ids" : {
        "isrc" : "KRA351900312"
      },
      "external_urls" : {
        "spotify" : "https://open.spotify.com/track/5keH71s242GoBbmnjzXTHQ"
      },
      "href" : "https://api.spotify.com/v1/tracks/5keH71s242GoBbmnjzXTHQ",
      "id" : "5keH71s242GoBbmnjzXTHQ",
      "is_local" : false,
      "is_playable" : true,
      "name" : "주 예수 대문 밖에 O Jesus, Thou art Standing (Instrumental)",
      "popularity" : 0,
      "preview_url" : "https://p.scdn.co/mp3-preview/31c694233b69d31b2a012ca73b054f0b90b5aaaf?cid=774b29d4f13844c495f206cafdad9c86",
      "track_number" : 2,
      "type" : "track",
      "uri" : "spotify:track:5keH71s242GoBbmnjzXTHQ"
    } ],
    "limit" : 10,
    "next" : "https://api.spotify.com/v1/search?query=O+Jesus%2C+Thou+Art+Standing&type=track&market=US&offset=15&limit=10",
    "offset" : 5,
    "previous" : "https://api.spotify.com/v1/search?query=O+Jesus%2C+Thou+Art+Standing&type=track&market=US&offset=0&limit=10",
    "total" : 22
  }
}