{
  "tracks" : {
    "href" : "https://api.spotify.com/v1/search?query=The+Cleansing+Wave&type=track&market=US&offset=5&limit=10",
    "items" : [ {
      "album" : {
        "album_type" : "album",
        "artists" : [ {
          "external_urls" : {
            "spotify" : "https://open.spotify.com/artist/5C95YXNLyaqbZjhwXMjZ4r"
          },
          "href" : "https://api.spotify.com/v1/artists/5C95YXNLyaqbZjhwXMjZ4r",
          "id" : "5C95YXNLyaqbZjhwXMjZ4r",
          "name" : "Binaural Beats Sleep",
          "type" : "artist",
          "uri" : "spotify:artist:5C95YXNLyaqbZjhwXMjZ4r"
        }, {
          "external_urls" : {
            "spotify" : "https://open.spotify.com/artist/4ZfEELHfyKd4odAb6YfDFw"
          },
          "href" : "https://api.spotify.com/v1/artists/4ZfEELHfyKd4odAb6YfDFw",
          "id" : "4ZfEELHfyKd4odAb6YfDFw",
          "name" : "White Noise for Babies",
          "type" : "artist",
          "uri" : "spotify:artist:4ZfEELHfyKd4odAb6YfDFw"
        }, {
          "external_urls" : {
            "spotify" : "https://open.spotify.com/artist/3isyZmZLDZ3ZFFvPHdr2eK"
          },
          "href" : "https://api.spotify.com/v1/artists/3isyZmZLDZ3ZFFvPHdr2eK",
          "id" : "3isyZmZLDZ3ZFFvPHdr2eK",
          "name" : "White Noise",
          "type" : "artist",
          "uri" : "spotify:artist:3isyZmZLDZ3ZFFvPHdr2eK"
        } ],
        "external_urls" : {
          "spotify" : "https://open.spotify.com/album/7MUT5KECx4zpQnPz2jDku2"
        },
        "href" : "https://api.spotify.com/v1/albums/7MUT5KECx4zpQnPz2jDku2",
        "id" : "7MUT5KECx4zpQnPz2jDku2",
        "images" : [ {
          "height" : 640,
          "url" : "https://i.scdn.co/image/ab67616d0000b273c7b8506b87c132980ab8bfdc",
          "width" : 640
        }, {
          "height" : 300,
          "url" : "https://i.scdn.co/image/ab67616d00001e02c7b8506b87c132980ab8bfdc",
          "width" : 300
        }, {
          "height" : 64,
          "url" : "https://i.scdn.co/image/ab67616d00004851c7b8506b87c132980ab8bfdc",
          "width" : 64
        } ],
        "name" : "2018 Theta Waves Collection - Binaural Beats to Help You Sleep",
        "release_date" : "2018-04-03",
        "release_date_precision" : "day",
        "total_tracks" : 30,
        "type" : "album",
        "uri" : "spotify:album:7MUT5KECx4zpQnPz2jDku2"
      },
      "artists" : [ {
        "external_urls" : {
          "spotify" : "https://open.spotify.com/artist/5C95YXNLyaqbZjhwXMjZ4r"
        },
        "href" : "https://api.spotify.com/v1/artists/5C95YXNLyaqbZjhwXMjZ4r",
        "id" : "5C95YXNLyaqbZjhwXMjZ4r",
        "name" : "Binaural Beats Sleep",
        "type" : "artist",
        "uri" : "spotify:artist:5C95YXNLyaqbZjhwXMjZ4r"
      }, {
        "external_urls" : {
          "spotify" : "https://open.spotify.com/artist/4ZfEELHfyKd4odAb6YfDFw"
        },
        "href" : "https://api.spotify.com/v1/artists/4ZfEELHfyKd4odAb6YfDFw",
        "id" : "4ZfEELHfyKd4odAb6YfDFw",
        "name" : "White Noise for Babies",
        "type" : "artist",
        "uri" : "spotify:artist:4ZfEELHfyKd4odAb6YfDFw"
      }, {
        "external_urls" : {
          "spotify" : "https://open.spotify.com/artist/3isyZmZLDZ3ZFFvPHdr2eK"
        },
        "href" : "https://api.spotify.com/v1/artists/3isyZmZLDZ3ZFFvPHdr2eK",
        "id" : "3isyZmZLDZ3ZFFvPHdr2eK",
        "name" : "White Noise",
        "type" : "artist",
        "uri" : "spotify:artist:3isyZmZLDZ3ZFFvPHdr2eK"
      } ],
      "disc_number" : 1,
      "duration_ms" : 219000,
      "explicit" : false,
      "external_ids" : {
        "isrc" : "UK6821644716"
      },
      "external_urls" : {
        "spotify" : "https://open.spotify.com/track/32tFc2N7uxWkiwiHaoXHz9"
      },
      "href" : "https://api.spotify.com/v1/tracks/32tFc2N7uxWkiwiHaoXHz9",
      "id" : "32tFc2N7uxWkiwiHaoXHz9",
      "is_local" : false,
      "is_playable" : true,
      "name" : "Deep Cleansing of the Soul with Theta Waves - Loopable",
      "popularity" : 11,
      "preview_url" : "https://p.scdn.co/mp3-preview/df7c58715293f85d8915d8628a60b9d26c077bc2?cid=774b29d4f13844c495f206cafdad9c86",
      "track_number" : 13,
      "type" : "track",
      "uri" : "spotify:track:32tFc2N7uxWkiwiHaoXHz9"
    }, {
      "album" : {
        "album_type" : "album",
        "artists" : [ {
          "external_urls" : {
            "spotify" : "https://open.spotify.com/artist/33pxtA75KwTyKhPFaYp62j"
          },
          "href" : "https://api.spotify.com/v1/artists/33pxtA75KwTyKhPFaYp62j",
          "id" : "33pxtA75KwTyKhPFaYp62j",
          "name" : "Chakra Meditation Universe",
          "type" : "artist",
          "uri" : "spotify:artist:33pxtA75KwTyKhPFaYp62j"
        } ],
        "external_urls" : {
          "spotify" : "https://open.spotify.com/album/14bwwxI0Dn7YXEOmSx8Ceo"
        },
        "href" : "https://api.spotify.com/v1/albums/14bwwxI0Dn7YXEOmSx8Ceo",
        "id" : "14bwwxI0Dn7YXEOmSx8Ceo",
        "images" : [ {
          "height" : 640,
          "url" : "https://i.scdn.co/image/ab67616d0000b273dd3f6499821f5dc3befff49d",
          "width" : 640
        }, {
          "height" : 300,
          "url" : "https://i.scdn.co/image/ab67616d00001e02dd3f6499821f5dc3befff49d",
          "width" : 300
        }, {
          "height" : 64,
          "url" : "https://i.scdn.co/image/ab67616d00004851dd3f6499821f5dc3befff49d",
          "width" : 64
        } ],
        "name" : "Journey Throughout All the 7 Chakras - Meditation Music for Healing, Energy Cleansing, Pineal Gland Activation",
        "release_date" : "2018-01-26",
        "release_date_precision" : "day",
        "total_tracks" : 50,
        "type" : "album",
        "uri" : "spotify:album:14bwwxI0Dn7YXEOmSx8Ceo"
      },
      "artists" : [ {
        "external_urls" : {
          "spotify" : "https://open.spotify.com/artist/33pxtA75KwTyKhPFaYp62j"
        },
        "href" : "https://api.spotify.com/v1/artists/33pxtA75KwTyKhPFaYp62j",
        "id" : "33pxtA75KwTyKhPFaYp62j",
        "name" : "Chakra Meditation Universe",
        "type" : "artist",
        "uri" : "spotify:artist:33pxtA75KwTyKhPFaYp62j"
      } ],
      "disc_number" : 1,
      "duration_ms" : 294727,
      "explicit" : false,
      "external_ids" : {
        "isrc" : "QZ5CV1783833"
      },
      "external_urls" : {
        "spotify" : "https://open.spotify.com/track/5xKsdI4NljU9iaJSdYFvTf"
      },
      "href" : "https://api.spotify.com/v1/tracks/5xKsdI4NljU9iaJSdYFvTf",
      "id" : "5xKsdI4NljU9iaJSdYFvTf",
      "is_local" : false,
      "is_playable" : true,
      "name" : "Healing Soul (Piano & Ocean Waves)",
      "popularity" : 12,
      "preview_url" : "https://p.scdn.co/mp3-preview/206deee6ba3cb066b60952d7fa7fe0681c984b21?cid=774b29d4f13844c495f206cafdad9c86",
      "track_number" : 1,
      "type" : "track",
      "uri" : "spotify:track:5xKsdI4NljU9iaJSdYFvTf"
    }, {
      "album" : {
        "album_type" : "album",
        "artists" : [ {
          "external_urls" : {
            "spotify" : "https://open.spotify.com/artist/49pSXGEm8KX5JNIZiQNYww"
          },
          "href" : "https://api.spotify.com/v1/artists/49pSXGEm8KX5JNIZiQNYww",
          "id" : "49pSXGEm8KX5JNIZiQNYww",
          "name" : "Andrei Krylov, Ana Svet & Shakti Ros",
          "type" : "artist",
          "uri" : "spotify:artist:49pSXGEm8KX5JNIZiQNYww"
        } ],
        "external_urls" : {
          "spotify" : "https://open.spotify.com/album/1nqTM8UB9xgc61n5HKdsxI"
        },
        "href" : "https://api.spotify.com/v1/albums/1nqTM8UB9xgc61n5HKdsxI",
        "id" : "1nqTM8UB9xgc61n5HKdsxI",
        "images" : [ {
          "height" : 640,
          "url" : "https://i.scdn.co/image/ab67616d0000b273f06e141fdc5c1d2a10ec6a1a",
          "width" : 640
        }, {
          "height" : 300,
          "url" : "https://i.scdn.co/image/ab67616d00001e02f06e141fdc5c1d2a10ec6a1a",
          "width" : 300
        }, {
          "height" : 64,
          "url" : "https://i.scdn.co/image/ab67616d00004851f06e141fdc5c1d2a10ec6a1a",
          "width" : 64
        } ],
        "name" : "Meditation Music of Love, for Healing, Relaxation, Yoga, Massage, Sleep Therapy, Stress Relief, Spiritual Awakening, Cleansing, Reiki, Energy Work, Balancing, Creative Spirit, Kindness, for Classical and Indian Guitar, Flute and Percussion, Ocean Sunrise",
        "release_date" : "2012-01-01",
        "release_date_precision" : "day",
        "total_tracks" : 22,
        "type" : "album",
        "uri" : "spotify:album:1nqTM8UB9xgc61n5HKdsxI"
      },
      "artists" : [ {
        "external_urls" : {
          "spotify" : "https://open.spotify.com/artist/2V9vGj5dfwce6rwLh0Ufrx"
        },
        "href" : "https://api.spotify.com/v1/artists/2V9vGj5dfwce6rwLh0Ufrx",
        "id" : "2V9vGj5dfwce6rwLh0Ufrx",
        "name" : "Andrei Krylov, Ana Svetz & Shakti Ros",
        "type" : "artist",
        "uri" : "spotify:artist:2V9vGj5dfwce6rwLh0Ufrx"
      } ],
      "disc_number" : 1,
      "duration_ms" : 316152,
      "explicit" : false,
      "external_ids" : {
        "isrc" : "uscgj1268344"
      },
      "external_urls" : {
        "spotify" : "https://open.spotify.com/track/5dI98zEzdCxIQ7T7OvS3Hk"
      },
      "href" : "https://api.spotify.com/v1/tracks/5dI98zEzdCxIQ7T7OvS3Hk",
      "id" : "5dI98zEzdCxIQ7T7OvS3Hk",
      "is_local" : false,
      "is_playable" : true,
      "name" : "Walking By the Water, Riding On Gentle Waves, Feeling Softness and Warmth of the Existence, Feeling Loved, Empowered, Free from Sufferings and Cruelty, Painless, Mindless, Yoga Music for Relaxation, Massage, Deep Sleep, Spiritual Therapy, Stress Relief",
      "popularity" : 13,
      "preview_url" : "https://p.scdn.co/mp3-preview/e017606e3775c9954a57c1f139f992731579253c?cid=774b29d4f13844c495f206cafdad9c86",
      "track_number" : 19,
      "type" : "track",
      "uri" : "spotify:track:5dI98zEzdCxIQ7T7OvS3Hk"
    }, {
      "album" : {
        "album_type" : "album",
        "artists" : [ {
          "external_urls" : {
            "spotify" : "https://open.spotify.com/artist/2nkC7zMrfRwmNL9UiJQtPi"
          },
          "href" : "https://api.spotify.com/v1/artists/2nkC7zMrfRwmNL9UiJQtPi",
          "id" : "2nkC7zMrfRwmNL9UiJQtPi",
          "name" : "John Bin",
          "type" : "artist",
          "uri" : "spotify:artist:2nkC7zMrfRwmNL9UiJQtPi"
        } ],
        "external_urls" : {
          "spotify" : "https://open.spotify.com/album/3f5owI3N1EAG2U5cEwMg6o"
        },
        "href" : "https://api.spotify.com/v1/albums/3f5owI3N1EAG2U5cEwMg6o",
        "id" : "3f5owI3N1EAG2U5cEwMg6o",
        "images" : [ {
          "height" : 640,
          "url" : "https://i.scdn.co/image/ab67616d0000b27383b5606ecc009776b0d87ec7",
          "width" : 640
        }, {
          "height" : 300,
          "url" : "https://i.scdn.co/image/ab67616d00001e0283b5606ecc009776b0d87ec7",
          "width" : 300
        }, {
          "height" : 64,
          "url" : "https://i.scdn.co/image/ab67616d0000485183b5606ecc009776b0d87ec7",
          "width" : 64
        } ],
        "name" : "Music to Improve Your Concentration - The Best Beats",
        "release_date" : "2015-06-30",
        "release_date_precision" : "day",
        "total_tracks" : 21,
        "type" : "album",
        "uri" : "spotify:album:3f5owI3N1EAG2U5cEwMg6o"
      },
      "artists" : [ {
        "external_urls" : {
          "spotify" : "https://open.spotify.com/artist/2nkC7zMrfRwmNL9UiJQtPi"
        },
        "href" : "https://api.spotify.com/v1/artists/2nkC7zMrfRwmNL9UiJQtPi",
        "id" : "2nkC7zMrfRwmNL9UiJQtPi",
        "name" : "John Bin",
        "type" : "artist",
        "uri" : "spotify:artist:2nkC7zMrfRwmNL9UiJQtPi"
      } ],
      "disc_number" : 1,
      "duration_ms" : 398080,
      "explicit" : false,
      "external_ids" : {
        "isrc" : "USJ3V1345722"
      },
      "external_urls" : {
        "spotify" : "https://open.spotify.com/track/14Sruxzg0q33PD98wXPGvs"
      },
      "href" : "https://api.spotify.com/v1/tracks/14Sruxzg0q33PD98wXPGvs",
      "id" : "14Sruxzg0q33PD98wXPGvs",
      "is_local" : false,
      "is_playable" : true,
      "name" : "Chakra Cleansing Theta Waves and Nature Sounds",
      "popularity" : 8,
      "preview_url" : "https://p.scdn.co/mp3-preview/64f9b377a4718277f250d4c892b0c5015bdd5fcf?cid=774b29d4f13844c495f206cafdad9c86",
      "track_number" : 8,
      "type" : "track",
      "uri" : "spotify:track:14Sruxzg0q33PD98wXPGvs"
    }, {
      "album" : {
        "album_type" : "album",
        "artists" : [ {
          "external_urls" : {
            "spotify" : "https://open.spotify.com/artist/3iIXOS6cHowvBms5msvdJf"
          },
          "href" : "https://api.spotify.com/v1/artists/3iIXOS6cHowvBms5msvdJf",
          "id" : "3iIXOS6cHowvBms5msvdJf",
          "name" : "Ocean Waves",
          "type" : "artist",
          "uri" : "spotify:artist:3iIXOS6cHowvBms5msvdJf"
        } ],
        "external_urls" : {
          "spotify" : "https://open.spotify.com/album/0xXNwfZMzqVsu7ih8GSaHr"
        },
        "href" : "https://api.spotify.com/v1/albums/0xXNwfZMzqVsu7ih8GSaHr",
        "id" : "0xXNwfZMzqVsu7ih8GSaHr",
        "images" : [ {
          "height" : 640,
          "url" : "https://i.scdn.co/image/ab67616d0000b273c0fee7152ba31d7fa237eac8",
          "width" : 640
        }, {
          "height" : 300,
          "url" : "https://i.scdn.co/image/ab67616d00001e02c0fee7152ba31d7fa237eac8",
          "width" : 300
        }, {
          "height" : 64,
          "url" : "https://i.scdn.co/image/ab67616d00004851c0fee7152ba31d7fa237eac8",
          "width" : 64
        } ],
        "name" : "Cleansing Waves",
        "release_date" : "2015-08-04",
        "release_date_precision" : "day",
        "total_tracks" : 30,
        "type" : "album",
        "uri" : "spotify:album:0xXNwfZMzqVsu7ih8GSaHr"
      },
      "artists" : [ {
        "external_urls" : {
          "spotify" : "https://open.spotify.com/artist/3RchxeOVaDXmQRBWeL5CNZ"
        },
        "href" : "https://api.spotify.com/v1/artists/3RchxeOVaDXmQRBWeL5CNZ",
        "id" : "3RchxeOVaDXmQRBWeL5CNZ",
        "name" : "Outside Broadcast Recordings",
        "type" : "artist",
        "uri" : "spotify:artist:3RchxeOVaDXmQRBWeL5CNZ"
      } ],
      "disc_number" : 1,
      "duration_ms" : 234481,
      "explicit" : false,
      "external_ids" : {
        "isrc" : "GBPS81525536"
      },
      "external_urls" : {
        "spotify" : "https://open.spotify.com/track/0zrSnySrBpp8leJp9Dugnx"
      },
      "href" : "https://api.spotify.com/v1/tracks/0zrSnySrBpp8leJp9Dugnx",
      "id" : "0zrSnySrBpp8leJp9Dugnx",
      "is_local" : false,
      "is_playable" : true,
      "name" : "Waves: The Sea Comes In",
      "popularity" : 6,
      "preview_url" : "https://p.scdn.co/mp3-preview/6ea892e76b13a404c40a251b0b60b3d0fd38a64b?cid=774b29d4f13844c495f206cafdad9c86",
      "track_number" : 14,
      "type" : "track",
      "uri" : "spotify:track:0zrSnySrBpp8leJp9Dugnx"
    }, {
      "album" : {
        "album_type" : "album",
        "artists" : [ {
          "external_urls" : {
            "spotify" : "https://open.spotify.com/artist/3CISivyMtx1rcu57q8fB2R"
          },
          "href" : "https://api.spotify.com/v1/artists/3CISivyMtx1rcu57q8fB2R",
          "id" : "3CISivyMtx1rcu57q8fB2R",
          "name" : "Resonance Space",
          "type" : "artist",
          "uri" : "spotify:artist:3CISivyMtx1rcu57q8fB2R"
        } ],
        "external_urls" : {
          "spotify" : "https://open.spotify.com/album/2kiKePsqwOvhGXYl2WwuXr"
        },
        "href" : "https://api.spotify.com/v1/albums/2kiKePsqwOvhGXYl2WwuXr",
        "id" : "2kiKePsqwOvhGXYl2WwuXr",
        "images" : [ {
          "height" : 640,
          "url" : "https://i.scdn.co/image/ab67616d0000b273d7948827b12d2d09faa365d1",
          "width" : 640
        }, {
          "height" : 300,
          "url" : "https://i.scdn.co/image/ab67616d00001e02d7948827b12d2d09faa365d1",
          "width" : 300
        }, {
          "height" : 64,
          "url" : "https://i.scdn.co/image/ab67616d00004851d7948827b12d2d09faa365d1",
          "width" : 64
        } ],
        "name" : "Meditative Space - 7 Chakras - Meditation & Healing, - Vol. 1 (Scientifically Optimized for a Deeper Meditation Experience and Relaxation By Binaural Beats)",
        "release_date" : "2018-04-20",
        "release_date_precision" : "day",
        "total_tracks" : 14,
        "type" : "album",
        "uri" : "spotify:album:2kiKePsqwOvhGXYl2WwuXr"
      },
      "artists" : [ {
        "external_urls" : {
          "spotify" : "https://open.spotify.com/artist/3CISivyMtx1rcu57q8fB2R"
        },
        "href" : "https://api.spotify.com/v1/artists/3CISivyMtx1rcu57q8fB2R",
        "id" : "3CISivyMtx1rcu57q8fB2R",
        "name" : "Resonance Space",
        "type" : "artist",
        "uri" : "spotify:artist:3CISivyMtx1rcu57q8fB2R"
      } ],
      "disc_number" : 1,
      "duration_ms" : 1247462,
      "explicit" : false,
      "external_ids" : {
        "isrc" : "DEW971000085"
      },
      "external_urls" : {
        "spotify" : "https://open.spotify.com/track/5fuobseB6mkgX6J6oXGi3z"
      },
      "href" : "https://api.spotify.com/v1/tracks/5fuobseB6mkgX6J6oXGi3z",
      "id" : "5fuobseB6mkgX6J6oXGi3z",
      "is_local" : false,
      "is_playable" : true,
      "name" : "7 Chakras Cleansing - Cycles: Intro, 7 Chakras - Solfeggio, Binaural Beats, Asmr, Alpha, Theta and Delta Waves",
      "popularity" : 15,
      "preview_url" : "https://p.scdn.co/mp3-preview/9adccd1876d51a58f2048280d453c463926cddc7?cid=774b29d4f13844c495f206cafdad9c86",
      "track_number" : 1,
      "type" : "track",
      "uri" : "spotify:track:5fuobseB6mkgX6J6oXGi3z"
    }, {
      "album" : {
        "album_type" : "album",
        "artists" : [ {
          "external_urls" : {
            "spotify" : "https://open.spotify.com/artist/3iIXOS6cHowvBms5msvdJf"
          },
          "href" : "https://api.spotify.com/v1/artists/3iIXOS6cHowvBms5msvdJf",
          "id" : "3iIXOS6cHowvBms5msvdJf",
          "name" : "Ocean Waves",
          "type" : "artist",
          "uri" : "spotify:artist:3iIXOS6cHowvBms5msvdJf"
        } ],
        "external_urls" : {
          "spotify" : "https://open.spotify.com/album/0xXNwfZMzqVsu7ih8GSaHr"
        },
        "href" : "https://api.spotify.com/v1/albums/0xXNwfZMzqVsu7ih8GSaHr",
        "id" : "0xXNwfZMzqVsu7ih8GSaHr",
        "images" : [ {
          "height" : 640,
          "url" : "https://i.scdn.co/image/ab67616d0000b273c0fee7152ba31d7fa237eac8",
          "width" : 640
        }, {
          "height" : 300,
          "url" : "https://i.scdn.co/image/ab67616d00001e02c0fee7152ba31d7fa237eac8",
          "width" : 300
        }, {
          "height" : 64,
          "url" : "https://i.scdn.co/image/ab67616d00004851c0fee7152ba31d7fa237eac8",
          "width" : 64
        } ],
        "name" : "Cleansing Waves",
        "release_date" : "2015-08-04",
        "release_date_precision" : "day",
        "total_tracks" : 30,
        "type" : "album",
        "uri" : "spotify:album:0xXNwfZMzqVsu7ih8GSaHr"
      },
      "artists" : [ {
        "external_urls" : {
          "spotify" : "https://open.spotify.com/artist/3RchxeOVaDXmQRBWeL5CNZ"
        },
        "href" : "https://api.spotify.com/v1/artists/3RchxeOVaDXmQRBWeL5CNZ",
        "id" : "3RchxeOVaDXmQRBWeL5CNZ",
        "name" : "Outside Broadcast Recordings",
        "type" : "artist",
        "uri" : "spotify:artist:3RchxeOVaDXmQRBWeL5CNZ"
      } ],
      "disc_number" : 1,
      "duration_ms" : 236353,
      "explicit" : false,
      "external_ids" : {
        "isrc" : "GBPS81525392"
      },
      "external_urls" : {
        "spotify" : "https://open.spotify.com/track/7b84sccOdxnSfS8PZsw0V6"
      },
      "href" : "https://api.spotify.com/v1/tracks/7b84sccOdxnSfS8PZsw0V6",
      "id" : "7b84sccOdxnSfS8PZsw0V6",
      "is_local" : false,
      "is_playable" : true,
      "name" : "Waves: The Sea",
      "popularity" : 5,
      "preview_url" : "https://p.scdn.co/mp3-preview/9618779a5d8afba51e3b234f56fd5b23f11547db?cid=774b29d4f13844c495f206cafdad9c86",
      "track_number" : 6,
      "type" : "track",
      "uri" : "spotify:track:7b84sccOdxnSfS8PZsw0V6"
    }, {
      "album" : {
        "album_type" : "album",
        "artists" : [ {
          "external_urls" : {
            "spotify" : "https://open.spotify.com/artist/3iIXOS6cHowvBms5msvdJf"
          },
          "href" : "https://api.spotify.com/v1/artists/3iIXOS6cHowvBms5msvdJf",
          "id" : "3iIXOS6cHowvBms5msvdJf",
          "name" : "Ocean Waves",
          "type" : "artist",
          "uri" : "spotify:artist:3iIXOS6cHowvBms5msvdJf"
        } ],
        "external_urls" : {
          "spotify" : "https://open.spotify.com/album/0xXNwfZMzqVsu7ih8GSaHr"
        },
        "href" : "https://api.spotify.com/v1/albums/0xXNwfZMzqVsu7ih8GSaHr",
        "id" : "0xXNwfZMzqVsu7ih8GSaHr",
        "images" : [ {
          "height" : 640,
          "url" : "https://i.scdn.co/image/ab67616d0000b273c0fee7152ba31d7fa237eac8",
          "width" : 640
        }, {
          "height" : 300,
          "url" : "https://i.scdn.co/image/ab67616d00001e02c0fee7152ba31d7fa237eac8",
          "width" : 300
        }, {
          "height" : 64,
          "url" : "https://i.scdn.co/image/ab67616d00004851c0fee7152ba31d7fa237eac8",
          "width" : 64
        } ],
        "name" : "Cleansing Waves",
        "release_date" : "2015-08-04",
        "release_date_precision" : "day",
        "total_tracks" : 30,
        "type" : "album",
        "uri" : "spotify:album:0xXNwfZMzqVsu7ih8GSaHr"
      },
      "artists" : [ {
        "external_urls" : {
          "spotify" : "https://open.spotify.com/artist/3RchxeOVaDXmQRBWeL5CNZ"
        },
        "href" : "https://api.spotify.com/v1/artists/3RchxeOVaDXmQRBWeL5CNZ",
        "id" : "3RchxeOVaDXmQRBWeL5CNZ",
        "name" : "Outside Broadcast Recordings",
        "type" : "artist",
        "uri" : "spotify:artist:3RchxeOVaDXmQRBWeL5CNZ"
      } ],
      "disc_number" : 1,
      "duration_ms" : 247008,
      "explicit" : false,
      "external_ids" : {
        "isrc" : "GBPS81525395"
      },
      "external_urls" : {
        "spotify" : "https://open.spotify.com/track/3NedJYTvonS1LGM3tqgwA8"
      },
      "href" : "https://api.spotify.com/v1/tracks/3NedJYTvonS1LGM3tqgwA8",
      "id" : "3NedJYTvonS1LGM3tqgwA8",
      "is_local" : false,
      "is_playable" : true,
      "name" : "Waves: The Sound of the Sea",
      "popularity" : 6,
      "preview_url" : "https://p.scdn.co/mp3-preview/968d0369080f40af5212deced89a5b150276f7d4?cid=774b29d4f13844c495f206cafdad9c86",
      "track_number" : 24,
      "type" : "track",
      "uri" : "spotify:track:3NedJYTvonS1LGM3tqgwA8"
    }, {
      "album" : {
        "album_type" : "album",
        "artists" : [ {
          "external_urls" : {
            "spotify" : "https://open.spotify.com/artist/3iIXOS6cHowvBms5msvdJf"
          },
          "href" : "https://api.spotify.com/v1/artists/3iIXOS6cHowvBms5msvdJf",
          "id" : "3iIXOS6cHowvBms5msvdJf",
          "name" : "Ocean Waves",
          "type" : "artist",
          "uri" : "spotify:artist:3iIXOS6cHowvBms5msvdJf"
        } ],
        "external_urls" : {
          "spotify" : "https://open.spotify.com/album/0xXNwfZMzqVsu7ih8GSaHr"
        },
        "href" : "https://api.spotify.com/v1/albums/0xXNwfZMzqVsu7ih8GSaHr",
        "id" : "0xXNwfZMzqVsu7ih8GSaHr",
        "images" : [ {
          "height" : 640,
          "url" : "https://i.scdn.co/image/ab67616d0000b273c0fee7152ba31d7fa237eac8",
          "width" : 640
        }, {
          "height" : 300,
          "url" : "https://i.scdn.co/image/ab67616d00001e02c0fee7152ba31d7fa237eac8",
          "width" : 300
        }, {
          "height" : 64,
          "url" : "https://i.scdn.co/image/ab67616d00004851c0fee7152ba31d7fa237eac8",
          "width" : 64
        } ],
        "name" : "Cleansing Waves",
        "release_date" : "2015-08-04",
        "release_date_precision" : "day",
        "total_tracks" : 30,
        "type" : "album",
        "uri" : "spotify:album:0xXNwfZMzqVsu7ih8GSaHr"
      },
      "artists" : [ {
        "external_urls" : {
          "spotify" : "https://open.spotify.com/artist/3RchxeOVaDXmQRBWeL5CNZ"
        },
        "href" : "https://api.spotify.com/v1/artists/3RchxeOVaDXmQRBWeL5CNZ",
        "id" : "3RchxeOVaDXmQRBWeL5CNZ",
        "name" : "Outside Broadcast Recordings",
        "type" : "artist",
        "uri" : "spotify:artist:3RchxeOVaDXmQRBWeL5CNZ"
      } ],
      "disc_number" : 1,
      "duration_ms" : 226829,
      "explicit" : false,
      "external_ids" : {
        "isrc" : "GBPS81525543"
      },
      "external_urls" : {
        "spotify" : "https://open.spotify.com/track/6NIpSk1TcmIruD8MHqOTDd"
      },
      "href" : "https://api.spotify.com/v1/tracks/6NIpSk1TcmIruD8MHqOTDd",
      "id" : "6NIpSk1TcmIruD8MHqOTDd",
      "is_local" : false,
      "is_playable" : true,
      "name" : "Waves: The Power of the Sea",
      "popularity" : 5,
      "preview_url" : "https://p.scdn.co/mp3-preview/a82d132ef6a11d3982a0439878a24e67b4c53cc2?cid=774b29d4f13844c495f206cafdad9c86",
      "track_number" : 3,
      "type" : "track",
      "uri" : "spotify:track:6NIpSk1TcmIruD8MHqOTDd"
    }, {
      "album" : {
        "album_type" : "album",
        "artists" : [ {
          "external_urls" : {
            "spotify" : "https://open.spotify.com/artist/3iIXOS6cHowvBms5msvdJf"
          },
          "href" : "https://api.spotify.com/v1/artists/3iIXOS6cHowvBms5msvdJf",
          "id" : "3iIXOS6cHowvBms5msvdJf",
          "name" : "Ocean Waves",
          "type" : "artist",
          "uri" : "spotify:artist:3iIXOS6cHowvBms5msvdJf"
        } ],
        "external_urls" : {
          "spotify" : "https://open.spotify.com/album/0xXNwfZMzqVsu7ih8GSaHr"
        },
        "href" : "https://api.spotify.com/v1/albums/0xXNwfZMzqVsu7ih8GSaHr",
        "id" : "0xXNwfZMzqVsu7ih8GSaHr",
        "images" : [ {
          "height" : 640,
          "url" : "https://i.scdn.co/image/ab67616d0000b273c0fee7152ba31d7fa237eac8",
          "width" : 640
        }, {
          "height" : 300,
          "url" : "https://i.scdn.co/image/ab67616d00001e02c0fee7152ba31d7fa237eac8",
          "width" : 300
        }, {
          "height" : 64,
          "url" : "https://i.scdn.co/image/ab67616d00004851c0fee7152ba31d7fa237eac8",
          "width" : 64
        } ],
        "name" : "Cleansing Waves",
        "release_date" : "2015-08-04",
        "release_date_precision" : "day",
        "total_tracks" : 30,
        "type" : "album",
        "uri" : "spotify:album:0xXNwfZMzqVsu7ih8GSaHr"
      },
      "artists" : [ {
        "external_urls" : {
          "spotify" : "https://open.spotify.com/artist/3RchxeOVaDXmQRBWeL5CNZ"
        },
        "href" : "https://api.spotify.com/v1/artists/3RchxeOVaDXmQRBWeL5CNZ",
        "id" : "3RchxeOVaDXmQRBWeL5CNZ",
        "name" : "Outside Broadcast Recordings",
        "type" : "artist",
        "uri" : "spotify:artist:3RchxeOVaDXmQRBWeL5CNZ"
      } ],
      "disc_number" : 1,
      "duration_ms" : 236699,
      "explicit" : false,
      "external_ids" : {
        "isrc" : "GBPS81525396"
      },
      "external_urls" : {
        "spotify" : "https://open.spotify.com/track/6li36pt0NcmucupgXcR7Ye"
      },
      "href" : "https://api.spotify.com/v1/tracks/6li36pt0NcmucupgXcR7Ye",
      "id" : "6li36pt0NcmucupgXcR7Ye",
      "is_local" : false,
      "is_playable" : true,
      "name" : "Waves: On the Beach",
      "popularity" : 5,
      "preview_url" : "https://p.scdn.co/mp3-preview/31ee380df320543c05d4c30c2a007c3959a9c573?cid=774b29d4f13844c495f206cafdad9c86",
      "track_number" : 13,
      "type" : "track",
      "uri" : "spotify:track:6li36pt0NcmucupgXcR7Ye"
    } ],
    "limit" : 10,
    "next" : "https://api.spotify.com/v1/search?query=The+Cleansing+Wave&type=track&market=US&offset=15&limit=10",
    "offset" : 5,
    "previous" : "https://api.spotify.com/v1/search?query=The+Cleansing+Wave&type=track&market=US&offset=0&limit=10",
    "total" : 2670
  }
}