{
  "tracks" : {
    "href" : "https://api.spotify.com/v1/search?query=Surely%2C+Surely&type=track&market=US&offset=5&limit=10",
    "items" : [ {
      "album" : {
        "album_type" : "album",
        "artists" : [ {
          "external_urls" : {
            "spotify" : "https://open.spotify.com/artist/7MPGCB854Qo4alYMOPkBka"
          },
          "href" : "https://api.spotify.com/v1/artists/7MPGCB854Qo4alYMOPkBka",
          "id" : "7MPGCB854Qo4alYMOPkBka",
          "name" : "Ritt Momney",
          "type" : "artist",
          "uri" : "spotify:artist:7MPGCB854Qo4alYMOPkBka"
        } ],
        "external_urls" : {
          "spotify" : "https://open.spotify.com/album/6lywHduhpuUzmuLncpZ2Ry"
        },
        "href" : "https://api.spotify.com/v1/albums/6lywHduhpuUzmuLncpZ2Ry",
        "id" : "6lywHduhpuUzmuLncpZ2Ry",
        "images" : [ {
          "height" : 640,
          "url" : "https://i.scdn.co/image/ab67616d0000b273a37a44825501eaa6d2cae2e0",
          "width" : 640
        }, {
          "height" : 300,
          "url" : "https://i.scdn.co/image/ab67616d00001e02a37a44825501eaa6d2cae2e0",
          "width" : 300
        }, {
          "height" : 64,
          "url" : "https://i.scdn.co/image/ab67616d00004851a37a44825501eaa6d2cae2e0",
          "width" : 64
        } ],
        "name" : "Her and All of My Friends",
        "release_date" : "2019-07-19",
        "release_date_precision" : "day",
        "total_tracks" : 13,
        "type" : "album",
        "uri" : "spotify:album:6lywHduhpuUzmuLncpZ2Ry"
      },
      "artists" : [ {
        "external_urls" : {
          "spotify" : "https://open.spotify.com/artist/7MPGCB854Qo4alYMOPkBka"
        },
        "href" : "https://api.spotify.com/v1/artists/7MPGCB854Qo4alYMOPkBka",
        "id" : "7MPGCB854Qo4alYMOPkBka",
        "name" : "Ritt Momney",
        "type" : "artist",
        "uri" : "spotify:artist:7MPGCB854Qo4alYMOPkBka"
      } ],
      "disc_number" : 1,
      "duration_ms" : 66260,
      "explicit" : false,
      "external_ids" : {
        "isrc" : "TCAEH1965627"
      },
      "external_urls" : {
        "spotify" : "https://open.spotify.com/track/2c0lk9fQVRGhrkue0QLSBx"
      },
      "href" : "https://api.spotify.com/v1/tracks/2c0lk9fQVRGhrkue0QLSBx",
      "id" : "2c0lk9fQVRGhrkue0QLSBx",
      "is_local" : false,
      "is_playable" : true,
      "name" : "Surely, You'd Burn the Same",
      "popularity" : 33,
      "preview_url" : "https://p.scdn.co/mp3-preview/7ff0894fbfecace0eaa79df9aca91724bca79d66?cid=774b29d4f13844c495f206cafdad9c86",
      "track_number" : 5,
      "type" : "track",
      "uri" : "spotify:track:2c0lk9fQVRGhrkue0QLSBx"
    }, {
      "album" : {
        "album_type" : "album",
        "artists" : [ {
          "external_urls" : {
            "spotify" : "https://open.spotify.com/artist/6xBX4T6jaTDWozdYdXEX2Y"
          },
          "href" : "https://api.spotify.com/v1/artists/6xBX4T6jaTDWozdYdXEX2Y",
          "id" : "6xBX4T6jaTDWozdYdXEX2Y",
          "name" : "Barbi Franklin",
          "type" : "artist",
          "uri" : "spotify:artist:6xBX4T6jaTDWozdYdXEX2Y"
        } ],
        "external_urls" : {
          "spotify" : "https://open.spotify.com/album/4gabP6ZMpnTnFK2ILFwcfF"
        },
        "href" : "https://api.spotify.com/v1/albums/4gabP6ZMpnTnFK2ILFwcfF",
        "id" : "4gabP6ZMpnTnFK2ILFwcfF",
        "images" : [ {
          "height" : 640,
          "url" : "https://i.scdn.co/image/ab67616d0000b273c0a1018ffea773001e453e56",
          "width" : 640
        }, {
          "height" : 300,
          "url" : "https://i.scdn.co/image/ab67616d00001e02c0a1018ffea773001e453e56",
          "width" : 300
        }, {
          "height" : 64,
          "url" : "https://i.scdn.co/image/ab67616d00004851c0a1018ffea773001e453e56",
          "width" : 64
        } ],
        "name" : "Violin Worship",
        "release_date" : "2008-08-26",
        "release_date_precision" : "day",
        "total_tracks" : 9,
        "type" : "album",
        "uri" : "spotify:album:4gabP6ZMpnTnFK2ILFwcfF"
      },
      "artists" : [ {
        "external_urls" : {
          "spotify" : "https://open.spotify.com/artist/6xBX4T6jaTDWozdYdXEX2Y"
        },
        "href" : "https://api.spotify.com/v1/artists/6xBX4T6jaTDWozdYdXEX2Y",
        "id" : "6xBX4T6jaTDWozdYdXEX2Y",
        "name" : "Barbi Franklin",
        "type" : "artist",
        "uri" : "spotify:artist:6xBX4T6jaTDWozdYdXEX2Y"
      } ],
      "disc_number" : 1,
      "duration_ms" : 249906,
      "explicit" : false,
      "external_ids" : {
        "isrc" : "ushm80806885"
      },
      "external_urls" : {
        "spotify" : "https://open.spotify.com/track/2gxmqPMIwzV5aQMgHxIvR2"
      },
      "href" : "https://api.spotify.com/v1/tracks/2gxmqPMIwzV5aQMgHxIvR2",
      "id" : "2gxmqPMIwzV5aQMgHxIvR2",
      "is_local" : false,
      "is_playable" : true,
      "name" : "Surely The Presence / Holy Ground",
      "popularity" : 37,
      "preview_url" : "https://p.scdn.co/mp3-preview/0b078b76c35cbd6db7c0709f30ff2c96fb3f9469?cid=774b29d4f13844c495f206cafdad9c86",
      "track_number" : 4,
      "type" : "track",
      "uri" : "spotify:track:2gxmqPMIwzV5aQMgHxIvR2"
    }, {
      "album" : {
        "album_type" : "single",
        "artists" : [ {
          "external_urls" : {
            "spotify" : "https://open.spotify.com/artist/3PbQTZwNzGOBKR9GceDpuo"
          },
          "href" : "https://api.spotify.com/v1/artists/3PbQTZwNzGOBKR9GceDpuo",
          "id" : "3PbQTZwNzGOBKR9GceDpuo",
          "name" : "Bailey Perrie",
          "type" : "artist",
          "uri" : "spotify:artist:3PbQTZwNzGOBKR9GceDpuo"
        } ],
        "external_urls" : {
          "spotify" : "https://open.spotify.com/album/4RCCIu4tFPlOmaXDgJTYtI"
        },
        "href" : "https://api.spotify.com/v1/albums/4RCCIu4tFPlOmaXDgJTYtI",
        "id" : "4RCCIu4tFPlOmaXDgJTYtI",
        "images" : [ {
          "height" : 640,
          "url" : "https://i.scdn.co/image/ab67616d0000b2734ddc2d78cdfb8b2596faef80",
          "width" : 640
        }, {
          "height" : 300,
          "url" : "https://i.scdn.co/image/ab67616d00001e024ddc2d78cdfb8b2596faef80",
          "width" : 300
        }, {
          "height" : 64,
          "url" : "https://i.scdn.co/image/ab67616d000048514ddc2d78cdfb8b2596faef80",
          "width" : 64
        } ],
        "name" : "Surely",
        "release_date" : "2020-04-28",
        "release_date_precision" : "day",
        "total_tracks" : 1,
        "type" : "album",
        "uri" : "spotify:album:4RCCIu4tFPlOmaXDgJTYtI"
      },
      "artists" : [ {
        "external_urls" : {
          "spotify" : "https://open.spotify.com/artist/3PbQTZwNzGOBKR9GceDpuo"
        },
        "href" : "https://api.spotify.com/v1/artists/3PbQTZwNzGOBKR9GceDpuo",
        "id" : "3PbQTZwNzGOBKR9GceDpuo",
        "name" : "Bailey Perrie",
        "type" : "artist",
        "uri" : "spotify:artist:3PbQTZwNzGOBKR9GceDpuo"
      } ],
      "disc_number" : 1,
      "duration_ms" : 223294,
      "explicit" : false,
      "external_ids" : {
        "isrc" : "QZES62062177"
      },
      "external_urls" : {
        "spotify" : "https://open.spotify.com/track/7lzpQKYk0XY5BtPNwYrztN"
      },
      "href" : "https://api.spotify.com/v1/tracks/7lzpQKYk0XY5BtPNwYrztN",
      "id" : "7lzpQKYk0XY5BtPNwYrztN",
      "is_local" : false,
      "is_playable" : true,
      "name" : "Surely",
      "popularity" : 32,
      "preview_url" : "https://p.scdn.co/mp3-preview/2c5e032f40d7b65bfb5c5a75ec0f74292994a25d?cid=774b29d4f13844c495f206cafdad9c86",
      "track_number" : 1,
      "type" : "track",
      "uri" : "spotify:track:7lzpQKYk0XY5BtPNwYrztN"
    }, {
      "album" : {
        "album_type" : "single",
        "artists" : [ {
          "external_urls" : {
            "spotify" : "https://open.spotify.com/artist/0DAaoRtoM8z0DHIhIzP4mJ"
          },
          "href" : "https://api.spotify.com/v1/artists/0DAaoRtoM8z0DHIhIzP4mJ",
          "id" : "0DAaoRtoM8z0DHIhIzP4mJ",
          "name" : "Fiji",
          "type" : "artist",
          "uri" : "spotify:artist:0DAaoRtoM8z0DHIhIzP4mJ"
        } ],
        "external_urls" : {
          "spotify" : "https://open.spotify.com/album/2fBDrYtuQ66QTtTiXW59TI"
        },
        "href" : "https://api.spotify.com/v1/albums/2fBDrYtuQ66QTtTiXW59TI",
        "id" : "2fBDrYtuQ66QTtTiXW59TI",
        "images" : [ {
          "height" : 640,
          "url" : "https://i.scdn.co/image/ab67616d0000b27301cab71bf93f08867fa02985",
          "width" : 640
        }, {
          "height" : 300,
          "url" : "https://i.scdn.co/image/ab67616d00001e0201cab71bf93f08867fa02985",
          "width" : 300
        }, {
          "height" : 64,
          "url" : "https://i.scdn.co/image/ab67616d0000485101cab71bf93f08867fa02985",
          "width" : 64
        } ],
        "name" : "Surely but Slowly",
        "release_date" : "2020-04-10",
        "release_date_precision" : "day",
        "total_tracks" : 1,
        "type" : "album",
        "uri" : "spotify:album:2fBDrYtuQ66QTtTiXW59TI"
      },
      "artists" : [ {
        "external_urls" : {
          "spotify" : "https://open.spotify.com/artist/0DAaoRtoM8z0DHIhIzP4mJ"
        },
        "href" : "https://api.spotify.com/v1/artists/0DAaoRtoM8z0DHIhIzP4mJ",
        "id" : "0DAaoRtoM8z0DHIhIzP4mJ",
        "name" : "Fiji",
        "type" : "artist",
        "uri" : "spotify:artist:0DAaoRtoM8z0DHIhIzP4mJ"
      } ],
      "disc_number" : 1,
      "duration_ms" : 252633,
      "explicit" : false,
      "external_ids" : {
        "isrc" : "QM4TX2099939"
      },
      "external_urls" : {
        "spotify" : "https://open.spotify.com/track/1dFsb6D3b3qwHJVSIkVHHX"
      },
      "href" : "https://api.spotify.com/v1/tracks/1dFsb6D3b3qwHJVSIkVHHX",
      "id" : "1dFsb6D3b3qwHJVSIkVHHX",
      "is_local" : false,
      "is_playable" : true,
      "name" : "Surely but Slowly",
      "popularity" : 31,
      "preview_url" : "https://p.scdn.co/mp3-preview/9287f7b300ed567458ad39ca44e6b0ec4f67456e?cid=774b29d4f13844c495f206cafdad9c86",
      "track_number" : 1,
      "type" : "track",
      "uri" : "spotify:track:1dFsb6D3b3qwHJVSIkVHHX"
    }, {
      "album" : {
        "album_type" : "single",
        "artists" : [ {
          "external_urls" : {
            "spotify" : "https://open.spotify.com/artist/7bvAtcPT3evvSeHDyu2zBC"
          },
          "href" : "https://api.spotify.com/v1/artists/7bvAtcPT3evvSeHDyu2zBC",
          "id" : "7bvAtcPT3evvSeHDyu2zBC",
          "name" : "Bryan & Katie Torwalt",
          "type" : "artist",
          "uri" : "spotify:artist:7bvAtcPT3evvSeHDyu2zBC"
        } ],
        "external_urls" : {
          "spotify" : "https://open.spotify.com/album/12yKMZBQjo7kSOgo7EOsvI"
        },
        "href" : "https://api.spotify.com/v1/albums/12yKMZBQjo7kSOgo7EOsvI",
        "id" : "12yKMZBQjo7kSOgo7EOsvI",
        "images" : [ {
          "height" : 640,
          "url" : "https://i.scdn.co/image/ab67616d0000b27383a289b71e4e872b0eff8689",
          "width" : 640
        }, {
          "height" : 300,
          "url" : "https://i.scdn.co/image/ab67616d00001e0283a289b71e4e872b0eff8689",
          "width" : 300
        }, {
          "height" : 64,
          "url" : "https://i.scdn.co/image/ab67616d0000485183a289b71e4e872b0eff8689",
          "width" : 64
        } ],
        "name" : "Anticipation",
        "release_date" : "2019-10-18",
        "release_date_precision" : "day",
        "total_tracks" : 6,
        "type" : "album",
        "uri" : "spotify:album:12yKMZBQjo7kSOgo7EOsvI"
      },
      "artists" : [ {
        "external_urls" : {
          "spotify" : "https://open.spotify.com/artist/7bvAtcPT3evvSeHDyu2zBC"
        },
        "href" : "https://api.spotify.com/v1/artists/7bvAtcPT3evvSeHDyu2zBC",
        "id" : "7bvAtcPT3evvSeHDyu2zBC",
        "name" : "Bryan & Katie Torwalt",
        "type" : "artist",
        "uri" : "spotify:artist:7bvAtcPT3evvSeHDyu2zBC"
      } ],
      "disc_number" : 1,
      "duration_ms" : 123404,
      "explicit" : false,
      "external_ids" : {
        "isrc" : "USTCF1900762"
      },
      "external_urls" : {
        "spotify" : "https://open.spotify.com/track/5zW05GYaO1Isc56sQ3c6bb"
      },
      "href" : "https://api.spotify.com/v1/tracks/5zW05GYaO1Isc56sQ3c6bb",
      "id" : "5zW05GYaO1Isc56sQ3c6bb",
      "is_local" : false,
      "is_playable" : true,
      "name" : "Interlude (Surely As The Sun)",
      "popularity" : 30,
      "preview_url" : null,
      "track_number" : 5,
      "type" : "track",
      "uri" : "spotify:track:5zW05GYaO1Isc56sQ3c6bb"
    }, {
      "album" : {
        "album_type" : "album",
        "artists" : [ {
          "external_urls" : {
            "spotify" : "https://open.spotify.com/artist/5OH6mZ9jAWB8UnC1447H1j"
          },
          "href" : "https://api.spotify.com/v1/artists/5OH6mZ9jAWB8UnC1447H1j",
          "id" : "5OH6mZ9jAWB8UnC1447H1j",
          "name" : "Colin James",
          "type" : "artist",
          "uri" : "spotify:artist:5OH6mZ9jAWB8UnC1447H1j"
        } ],
        "external_urls" : {
          "spotify" : "https://open.spotify.com/album/0emrpjJ9IbaBS6lc6FpaDm"
        },
        "href" : "https://api.spotify.com/v1/albums/0emrpjJ9IbaBS6lc6FpaDm",
        "id" : "0emrpjJ9IbaBS6lc6FpaDm",
        "images" : [ {
          "height" : 640,
          "url" : "https://i.scdn.co/image/ab67616d0000b2737a8c42199c67d5a5b4300e71",
          "width" : 640
        }, {
          "height" : 300,
          "url" : "https://i.scdn.co/image/ab67616d00001e027a8c42199c67d5a5b4300e71",
          "width" : 300
        }, {
          "height" : 64,
          "url" : "https://i.scdn.co/image/ab67616d000048517a8c42199c67d5a5b4300e71",
          "width" : 64
        } ],
        "name" : "Colin James And The Little Big Band",
        "release_date" : "1993-01-01",
        "release_date_precision" : "day",
        "total_tracks" : 13,
        "type" : "album",
        "uri" : "spotify:album:0emrpjJ9IbaBS6lc6FpaDm"
      },
      "artists" : [ {
        "external_urls" : {
          "spotify" : "https://open.spotify.com/artist/5OH6mZ9jAWB8UnC1447H1j"
        },
        "href" : "https://api.spotify.com/v1/artists/5OH6mZ9jAWB8UnC1447H1j",
        "id" : "5OH6mZ9jAWB8UnC1447H1j",
        "name" : "Colin James",
        "type" : "artist",
        "uri" : "spotify:artist:5OH6mZ9jAWB8UnC1447H1j"
      } ],
      "disc_number" : 1,
      "duration_ms" : 221600,
      "explicit" : false,
      "external_ids" : {
        "isrc" : "CAV119300027"
      },
      "external_urls" : {
        "spotify" : "https://open.spotify.com/track/1R43iViVMfCfJPtdYGbop3"
      },
      "href" : "https://api.spotify.com/v1/tracks/1R43iViVMfCfJPtdYGbop3",
      "id" : "1R43iViVMfCfJPtdYGbop3",
      "is_local" : false,
      "is_playable" : true,
      "name" : "Surely (I Love You)",
      "popularity" : 32,
      "preview_url" : null,
      "track_number" : 6,
      "type" : "track",
      "uri" : "spotify:track:1R43iViVMfCfJPtdYGbop3"
    }, {
      "album" : {
        "album_type" : "album",
        "artists" : [ {
          "external_urls" : {
            "spotify" : "https://open.spotify.com/artist/6aZbTTQrH31vVmCHOZABWW"
          },
          "href" : "https://api.spotify.com/v1/artists/6aZbTTQrH31vVmCHOZABWW",
          "id" : "6aZbTTQrH31vVmCHOZABWW",
          "name" : "The Trailmasters",
          "type" : "artist",
          "uri" : "spotify:artist:6aZbTTQrH31vVmCHOZABWW"
        } ],
        "external_urls" : {
          "spotify" : "https://open.spotify.com/album/65ZdmNnP7j4tGYIGZk14gd"
        },
        "href" : "https://api.spotify.com/v1/albums/65ZdmNnP7j4tGYIGZk14gd",
        "id" : "65ZdmNnP7j4tGYIGZk14gd",
        "images" : [ {
          "height" : 640,
          "url" : "https://i.scdn.co/image/ab67616d0000b273267a68d93a54315fe556edf4",
          "width" : 640
        }, {
          "height" : 300,
          "url" : "https://i.scdn.co/image/ab67616d00001e02267a68d93a54315fe556edf4",
          "width" : 300
        }, {
          "height" : 64,
          "url" : "https://i.scdn.co/image/ab67616d00004851267a68d93a54315fe556edf4",
          "width" : 64
        } ],
        "name" : "Care for the Land",
        "release_date" : "2018-02-11",
        "release_date_precision" : "day",
        "total_tracks" : 25,
        "type" : "album",
        "uri" : "spotify:album:65ZdmNnP7j4tGYIGZk14gd"
      },
      "artists" : [ {
        "external_urls" : {
          "spotify" : "https://open.spotify.com/artist/6aZbTTQrH31vVmCHOZABWW"
        },
        "href" : "https://api.spotify.com/v1/artists/6aZbTTQrH31vVmCHOZABWW",
        "id" : "6aZbTTQrH31vVmCHOZABWW",
        "name" : "The Trailmasters",
        "type" : "artist",
        "uri" : "spotify:artist:6aZbTTQrH31vVmCHOZABWW"
      } ],
      "disc_number" : 1,
      "duration_ms" : 90697,
      "explicit" : false,
      "external_ids" : {
        "isrc" : "QZ22B1898767"
      },
      "external_urls" : {
        "spotify" : "https://open.spotify.com/track/26digMfN5cBRttoYqOnukN"
      },
      "href" : "https://api.spotify.com/v1/tracks/26digMfN5cBRttoYqOnukN",
      "id" : "26digMfN5cBRttoYqOnukN",
      "is_local" : false,
      "is_playable" : true,
      "name" : "Surely God Is Good",
      "popularity" : 26,
      "preview_url" : "https://p.scdn.co/mp3-preview/6a33bc9d22e79aefc3ce1ec34f3f6197b0505912?cid=774b29d4f13844c495f206cafdad9c86",
      "track_number" : 16,
      "type" : "track",
      "uri" : "spotify:track:26digMfN5cBRttoYqOnukN"
    }, {
      "album" : {
        "album_type" : "single",
        "artists" : [ {
          "external_urls" : {
            "spotify" : "https://open.spotify.com/artist/4rqJz9fE9prZvQd8WsQv6q"
          },
          "href" : "https://api.spotify.com/v1/artists/4rqJz9fE9prZvQd8WsQv6q",
          "id" : "4rqJz9fE9prZvQd8WsQv6q",
          "name" : "THE ORAL CIGARETTES",
          "type" : "artist",
          "uri" : "spotify:artist:4rqJz9fE9prZvQd8WsQv6q"
        } ],
        "external_urls" : {
          "spotify" : "https://open.spotify.com/album/3ZSaVFaBglNmNXGvOlIwOB"
        },
        "href" : "https://api.spotify.com/v1/albums/3ZSaVFaBglNmNXGvOlIwOB",
        "id" : "3ZSaVFaBglNmNXGvOlIwOB",
        "images" : [ {
          "height" : 640,
          "url" : "https://i.scdn.co/image/ab67616d0000b2739c3e184a5b7f9ac5c2718ce0",
          "width" : 640
        }, {
          "height" : 300,
          "url" : "https://i.scdn.co/image/ab67616d00001e029c3e184a5b7f9ac5c2718ce0",
          "width" : 300
        }, {
          "height" : 64,
          "url" : "https://i.scdn.co/image/ab67616d000048519c3e184a5b7f9ac5c2718ce0",
          "width" : 64
        } ],
        "name" : "Slowly but surely I go on",
        "release_date" : "2020-04-22",
        "release_date_precision" : "day",
        "total_tracks" : 1,
        "type" : "album",
        "uri" : "spotify:album:3ZSaVFaBglNmNXGvOlIwOB"
      },
      "artists" : [ {
        "external_urls" : {
          "spotify" : "https://open.spotify.com/artist/4rqJz9fE9prZvQd8WsQv6q"
        },
        "href" : "https://api.spotify.com/v1/artists/4rqJz9fE9prZvQd8WsQv6q",
        "id" : "4rqJz9fE9prZvQd8WsQv6q",
        "name" : "THE ORAL CIGARETTES",
        "type" : "artist",
        "uri" : "spotify:artist:4rqJz9fE9prZvQd8WsQv6q"
      } ],
      "disc_number" : 1,
      "duration_ms" : 236175,
      "explicit" : false,
      "external_ids" : {
        "isrc" : "JPJ222001425"
      },
      "external_urls" : {
        "spotify" : "https://open.spotify.com/track/1N4jj36W0udELekFhhnmJd"
      },
      "href" : "https://api.spotify.com/v1/tracks/1N4jj36W0udELekFhhnmJd",
      "id" : "1N4jj36W0udELekFhhnmJd",
      "is_local" : false,
      "is_playable" : true,
      "name" : "Slowly but surely I go on",
      "popularity" : 44,
      "preview_url" : "https://p.scdn.co/mp3-preview/9672edf60b567c0245b4b01fa33ef38c188c30ee?cid=774b29d4f13844c495f206cafdad9c86",
      "track_number" : 1,
      "type" : "track",
      "uri" : "spotify:track:1N4jj36W0udELekFhhnmJd"
    }, {
      "album" : {
        "album_type" : "single",
        "artists" : [ {
          "external_urls" : {
            "spotify" : "https://open.spotify.com/artist/5eB709AZ85yZ9epAx6Pfup"
          },
          "href" : "https://api.spotify.com/v1/artists/5eB709AZ85yZ9epAx6Pfup",
          "id" : "5eB709AZ85yZ9epAx6Pfup",
          "name" : "Roosle",
          "type" : "artist",
          "uri" : "spotify:artist:5eB709AZ85yZ9epAx6Pfup"
        } ],
        "external_urls" : {
          "spotify" : "https://open.spotify.com/album/6v7UbtKHu5lSWgh2rL817D"
        },
        "href" : "https://api.spotify.com/v1/albums/6v7UbtKHu5lSWgh2rL817D",
        "id" : "6v7UbtKHu5lSWgh2rL817D",
        "images" : [ {
          "height" : 640,
          "url" : "https://i.scdn.co/image/ab67616d0000b27389e479c89e59ae51ddec6f04",
          "width" : 640
        }, {
          "height" : 300,
          "url" : "https://i.scdn.co/image/ab67616d00001e0289e479c89e59ae51ddec6f04",
          "width" : 300
        }, {
          "height" : 64,
          "url" : "https://i.scdn.co/image/ab67616d0000485189e479c89e59ae51ddec6f04",
          "width" : 64
        } ],
        "name" : "Slowly, Surely",
        "release_date" : "2019-10-06",
        "release_date_precision" : "day",
        "total_tracks" : 1,
        "type" : "album",
        "uri" : "spotify:album:6v7UbtKHu5lSWgh2rL817D"
      },
      "artists" : [ {
        "external_urls" : {
          "spotify" : "https://open.spotify.com/artist/5eB709AZ85yZ9epAx6Pfup"
        },
        "href" : "https://api.spotify.com/v1/artists/5eB709AZ85yZ9epAx6Pfup",
        "id" : "5eB709AZ85yZ9epAx6Pfup",
        "name" : "Roosle",
        "type" : "artist",
        "uri" : "spotify:artist:5eB709AZ85yZ9epAx6Pfup"
      } ],
      "disc_number" : 1,
      "duration_ms" : 149610,
      "explicit" : false,
      "external_ids" : {
        "isrc" : "QZHN51968793"
      },
      "external_urls" : {
        "spotify" : "https://open.spotify.com/track/6WUQWKh4YCiYP7rgWN2UFn"
      },
      "href" : "https://api.spotify.com/v1/tracks/6WUQWKh4YCiYP7rgWN2UFn",
      "id" : "6WUQWKh4YCiYP7rgWN2UFn",
      "is_local" : false,
      "is_playable" : true,
      "name" : "Slowly, Surely",
      "popularity" : 32,
      "preview_url" : "https://p.scdn.co/mp3-preview/5e2aa2270c0098f26a93eb0a88546a011002b8e4?cid=774b29d4f13844c495f206cafdad9c86",
      "track_number" : 1,
      "type" : "track",
      "uri" : "spotify:track:6WUQWKh4YCiYP7rgWN2UFn"
    }, {
      "album" : {
        "album_type" : "album",
        "artists" : [ {
          "external_urls" : {
            "spotify" : "https://open.spotify.com/artist/6dy3S3XlshIQw4or3qS4xE"
          },
          "href" : "https://api.spotify.com/v1/artists/6dy3S3XlshIQw4or3qS4xE",
          "id" : "6dy3S3XlshIQw4or3qS4xE",
          "name" : "Heritage Singers",
          "type" : "artist",
          "uri" : "spotify:artist:6dy3S3XlshIQw4or3qS4xE"
        } ],
        "external_urls" : {
          "spotify" : "https://open.spotify.com/album/3e3N2y6b8jaHEGRRw5yJ1r"
        },
        "href" : "https://api.spotify.com/v1/albums/3e3N2y6b8jaHEGRRw5yJ1r",
        "id" : "3e3N2y6b8jaHEGRRw5yJ1r",
        "images" : [ {
          "height" : 640,
          "url" : "https://i.scdn.co/image/ab67616d0000b273a8c093d1f625c06518ba8cf0",
          "width" : 640
        }, {
          "height" : 300,
          "url" : "https://i.scdn.co/image/ab67616d00001e02a8c093d1f625c06518ba8cf0",
          "width" : 300
        }, {
          "height" : 64,
          "url" : "https://i.scdn.co/image/ab67616d00004851a8c093d1f625c06518ba8cf0",
          "width" : 64
        } ],
        "name" : "Restored",
        "release_date" : "2012-06-12",
        "release_date_precision" : "day",
        "total_tracks" : 10,
        "type" : "album",
        "uri" : "spotify:album:3e3N2y6b8jaHEGRRw5yJ1r"
      },
      "artists" : [ {
        "external_urls" : {
          "spotify" : "https://open.spotify.com/artist/6dy3S3XlshIQw4or3qS4xE"
        },
        "href" : "https://api.spotify.com/v1/artists/6dy3S3XlshIQw4or3qS4xE",
        "id" : "6dy3S3XlshIQw4or3qS4xE",
        "name" : "Heritage Singers",
        "type" : "artist",
        "uri" : "spotify:artist:6dy3S3XlshIQw4or3qS4xE"
      } ],
      "disc_number" : 1,
      "duration_ms" : 264785,
      "explicit" : false,
      "external_ids" : {
        "isrc" : "ushm21265950"
      },
      "external_urls" : {
        "spotify" : "https://open.spotify.com/track/0BsNCLPos5Dpdxpjw2ZsVJ"
      },
      "href" : "https://api.spotify.com/v1/tracks/0BsNCLPos5Dpdxpjw2ZsVJ",
      "id" : "0BsNCLPos5Dpdxpjw2ZsVJ",
      "is_local" : false,
      "is_playable" : true,
      "name" : "Surely the Presence",
      "popularity" : 33,
      "preview_url" : "https://p.scdn.co/mp3-preview/3a3692839b4264e6661add62fc479837df19186d?cid=774b29d4f13844c495f206cafdad9c86",
      "track_number" : 7,
      "type" : "track",
      "uri" : "spotify:track:0BsNCLPos5Dpdxpjw2ZsVJ"
    } ],
    "limit" : 10,
    "next" : "https://api.spotify.com/v1/search?query=Surely%2C+Surely&type=track&market=US&offset=15&limit=10",
    "offset" : 5,
    "previous" : "https://api.spotify.com/v1/search?query=Surely%2C+Surely&type=track&market=US&offset=0&limit=10",
    "total" : 2197
  }
}