{
  "tracks" : {
    "href" : "https://api.spotify.com/v1/search?query=At+the+Cross&type=track&market=US&offset=5&limit=10",
    "items" : [ {
      "album" : {
        "album_type" : "album",
        "artists" : [ {
          "external_urls" : {
            "spotify" : "https://open.spotify.com/artist/4PpBfy9zXy2F3u0HbIkhfm"
          },
          "href" : "https://api.spotify.com/v1/artists/4PpBfy9zXy2F3u0HbIkhfm",
          "id" : "4PpBfy9zXy2F3u0HbIkhfm",
          "name" : "Instrumental Worship Project from I’m In Records",
          "type" : "artist",
          "uri" : "spotify:artist:4PpBfy9zXy2F3u0HbIkhfm"
        } ],
        "external_urls" : {
          "spotify" : "https://open.spotify.com/album/1hJioR8N3Uwdfeym4aobgW"
        },
        "href" : "https://api.spotify.com/v1/albums/1hJioR8N3Uwdfeym4aobgW",
        "id" : "1hJioR8N3Uwdfeym4aobgW",
        "images" : [ {
          "height" : 640,
          "url" : "https://i.scdn.co/image/ab67616d0000b273d8adfe8fe405efbaf0120034",
          "width" : 640
        }, {
          "height" : 300,
          "url" : "https://i.scdn.co/image/ab67616d00001e02d8adfe8fe405efbaf0120034",
          "width" : 300
        }, {
          "height" : 64,
          "url" : "https://i.scdn.co/image/ab67616d00004851d8adfe8fe405efbaf0120034",
          "width" : 64
        } ],
        "name" : "Instrumental Worship: Hillsong on Piano, Vol. 2",
        "release_date" : "2019-05-31",
        "release_date_precision" : "day",
        "total_tracks" : 11,
        "type" : "album",
        "uri" : "spotify:album:1hJioR8N3Uwdfeym4aobgW"
      },
      "artists" : [ {
        "external_urls" : {
          "spotify" : "https://open.spotify.com/artist/4PpBfy9zXy2F3u0HbIkhfm"
        },
        "href" : "https://api.spotify.com/v1/artists/4PpBfy9zXy2F3u0HbIkhfm",
        "id" : "4PpBfy9zXy2F3u0HbIkhfm",
        "name" : "Instrumental Worship Project from I’m In Records",
        "type" : "artist",
        "uri" : "spotify:artist:4PpBfy9zXy2F3u0HbIkhfm"
      } ],
      "disc_number" : 1,
      "duration_ms" : 411255,
      "explicit" : false,
      "external_ids" : {
        "isrc" : "BRITK1800731"
      },
      "external_urls" : {
        "spotify" : "https://open.spotify.com/track/6QG11TlRRAe5jEQ6vRqlc0"
      },
      "href" : "https://api.spotify.com/v1/tracks/6QG11TlRRAe5jEQ6vRqlc0",
      "id" : "6QG11TlRRAe5jEQ6vRqlc0",
      "is_local" : false,
      "is_playable" : true,
      "name" : "At the Cross",
      "popularity" : 41,
      "preview_url" : "https://p.scdn.co/mp3-preview/904fe608ddecaf0f8c810132220f9691d4c91391?cid=774b29d4f13844c495f206cafdad9c86",
      "track_number" : 11,
      "type" : "track",
      "uri" : "spotify:track:6QG11TlRRAe5jEQ6vRqlc0"
    }, {
      "album" : {
        "album_type" : "album",
        "artists" : [ {
          "external_urls" : {
            "spotify" : "https://open.spotify.com/artist/0pjLiK5qb4Zr0PWRNkdd2o"
          },
          "href" : "https://api.spotify.com/v1/artists/0pjLiK5qb4Zr0PWRNkdd2o",
          "id" : "0pjLiK5qb4Zr0PWRNkdd2o",
          "name" : "Gaither Vocal Band",
          "type" : "artist",
          "uri" : "spotify:artist:0pjLiK5qb4Zr0PWRNkdd2o"
        } ],
        "external_urls" : {
          "spotify" : "https://open.spotify.com/album/1RYBZgwSVD3211dmEI1PhD"
        },
        "href" : "https://api.spotify.com/v1/albums/1RYBZgwSVD3211dmEI1PhD",
        "id" : "1RYBZgwSVD3211dmEI1PhD",
        "images" : [ {
          "height" : 640,
          "url" : "https://i.scdn.co/image/ab67616d0000b2739189c6110414c2f857989873",
          "width" : 640
        }, {
          "height" : 300,
          "url" : "https://i.scdn.co/image/ab67616d00001e029189c6110414c2f857989873",
          "width" : 300
        }, {
          "height" : 64,
          "url" : "https://i.scdn.co/image/ab67616d000048519189c6110414c2f857989873",
          "width" : 64
        } ],
        "name" : "Hymns",
        "release_date" : "2014-01-01",
        "release_date_precision" : "day",
        "total_tracks" : 12,
        "type" : "album",
        "uri" : "spotify:album:1RYBZgwSVD3211dmEI1PhD"
      },
      "artists" : [ {
        "external_urls" : {
          "spotify" : "https://open.spotify.com/artist/0pjLiK5qb4Zr0PWRNkdd2o"
        },
        "href" : "https://api.spotify.com/v1/artists/0pjLiK5qb4Zr0PWRNkdd2o",
        "id" : "0pjLiK5qb4Zr0PWRNkdd2o",
        "name" : "Gaither Vocal Band",
        "type" : "artist",
        "uri" : "spotify:artist:0pjLiK5qb4Zr0PWRNkdd2o"
      } ],
      "disc_number" : 1,
      "duration_ms" : 293720,
      "explicit" : false,
      "external_ids" : {
        "isrc" : "US3271400012"
      },
      "external_urls" : {
        "spotify" : "https://open.spotify.com/track/3YiwrdkeNuGUgzCuMINnRz"
      },
      "href" : "https://api.spotify.com/v1/tracks/3YiwrdkeNuGUgzCuMINnRz",
      "id" : "3YiwrdkeNuGUgzCuMINnRz",
      "is_local" : false,
      "is_playable" : true,
      "name" : "At The Cross",
      "popularity" : 36,
      "preview_url" : null,
      "track_number" : 12,
      "type" : "track",
      "uri" : "spotify:track:3YiwrdkeNuGUgzCuMINnRz"
    }, {
      "album" : {
        "album_type" : "album",
        "artists" : [ {
          "external_urls" : {
            "spotify" : "https://open.spotify.com/artist/0sAkGlLDh7PmpquXznI42M"
          },
          "href" : "https://api.spotify.com/v1/artists/0sAkGlLDh7PmpquXznI42M",
          "id" : "0sAkGlLDh7PmpquXznI42M",
          "name" : "The Notations",
          "type" : "artist",
          "uri" : "spotify:artist:0sAkGlLDh7PmpquXznI42M"
        } ],
        "external_urls" : {
          "spotify" : "https://open.spotify.com/album/1i6SV7VahxfIAcF9fDEgA2"
        },
        "href" : "https://api.spotify.com/v1/albums/1i6SV7VahxfIAcF9fDEgA2",
        "id" : "1i6SV7VahxfIAcF9fDEgA2",
        "images" : [ {
          "height" : 640,
          "url" : "https://i.scdn.co/image/ab67616d0000b2738539feab156c394354e0c257",
          "width" : 640
        }, {
          "height" : 300,
          "url" : "https://i.scdn.co/image/ab67616d00001e028539feab156c394354e0c257",
          "width" : 300
        }, {
          "height" : 64,
          "url" : "https://i.scdn.co/image/ab67616d000048518539feab156c394354e0c257",
          "width" : 64
        } ],
        "name" : "Still Here: 1967-1973",
        "release_date" : "2015-03-17",
        "release_date_precision" : "day",
        "total_tracks" : 16,
        "type" : "album",
        "uri" : "spotify:album:1i6SV7VahxfIAcF9fDEgA2"
      },
      "artists" : [ {
        "external_urls" : {
          "spotify" : "https://open.spotify.com/artist/0sAkGlLDh7PmpquXznI42M"
        },
        "href" : "https://api.spotify.com/v1/artists/0sAkGlLDh7PmpquXznI42M",
        "id" : "0sAkGlLDh7PmpquXznI42M",
        "name" : "The Notations",
        "type" : "artist",
        "uri" : "spotify:artist:0sAkGlLDh7PmpquXznI42M"
      } ],
      "disc_number" : 1,
      "duration_ms" : 187320,
      "explicit" : false,
      "external_ids" : {
        "isrc" : "USCW61403209"
      },
      "external_urls" : {
        "spotify" : "https://open.spotify.com/track/7GHs7RhQkTCYq7JVyyByZo"
      },
      "href" : "https://api.spotify.com/v1/tracks/7GHs7RhQkTCYq7JVyyByZo",
      "id" : "7GHs7RhQkTCYq7JVyyByZo",
      "is_local" : false,
      "is_playable" : true,
      "name" : "At The Crossroads",
      "popularity" : 36,
      "preview_url" : "https://p.scdn.co/mp3-preview/fad27e97ea95720c74aceacf4fafda0d538a2eb4?cid=774b29d4f13844c495f206cafdad9c86",
      "track_number" : 9,
      "type" : "track",
      "uri" : "spotify:track:7GHs7RhQkTCYq7JVyyByZo"
    }, {
      "album" : {
        "album_type" : "album",
        "artists" : [ {
          "external_urls" : {
            "spotify" : "https://open.spotify.com/artist/3A2UXqQgMDJ3YNvLPyX5NW"
          },
          "href" : "https://api.spotify.com/v1/artists/3A2UXqQgMDJ3YNvLPyX5NW",
          "id" : "3A2UXqQgMDJ3YNvLPyX5NW",
          "name" : "Sir Douglas Quintet",
          "type" : "artist",
          "uri" : "spotify:artist:3A2UXqQgMDJ3YNvLPyX5NW"
        } ],
        "external_urls" : {
          "spotify" : "https://open.spotify.com/album/2UJBKI6VyVocIma86AWd3o"
        },
        "href" : "https://api.spotify.com/v1/albums/2UJBKI6VyVocIma86AWd3o",
        "id" : "2UJBKI6VyVocIma86AWd3o",
        "images" : [ {
          "height" : 640,
          "url" : "https://i.scdn.co/image/ab67616d0000b273c7b71d64bf412bcdf8917087",
          "width" : 640
        }, {
          "height" : 300,
          "url" : "https://i.scdn.co/image/ab67616d00001e02c7b71d64bf412bcdf8917087",
          "width" : 300
        }, {
          "height" : 64,
          "url" : "https://i.scdn.co/image/ab67616d00004851c7b71d64bf412bcdf8917087",
          "width" : 64
        } ],
        "name" : "The Complete Mercury Masters",
        "release_date" : "2005-02-25",
        "release_date_precision" : "day",
        "total_tracks" : 105,
        "type" : "album",
        "uri" : "spotify:album:2UJBKI6VyVocIma86AWd3o"
      },
      "artists" : [ {
        "external_urls" : {
          "spotify" : "https://open.spotify.com/artist/3A2UXqQgMDJ3YNvLPyX5NW"
        },
        "href" : "https://api.spotify.com/v1/artists/3A2UXqQgMDJ3YNvLPyX5NW",
        "id" : "3A2UXqQgMDJ3YNvLPyX5NW",
        "name" : "Sir Douglas Quintet",
        "type" : "artist",
        "uri" : "spotify:artist:3A2UXqQgMDJ3YNvLPyX5NW"
      } ],
      "disc_number" : 4,
      "duration_ms" : 277893,
      "explicit" : false,
      "external_ids" : {
        "isrc" : "USIR20200684"
      },
      "external_urls" : {
        "spotify" : "https://open.spotify.com/track/1lNYIjLZyh4mkTC2tIqQG8"
      },
      "href" : "https://api.spotify.com/v1/tracks/1lNYIjLZyh4mkTC2tIqQG8",
      "id" : "1lNYIjLZyh4mkTC2tIqQG8",
      "is_local" : false,
      "is_playable" : true,
      "name" : "At The Crossroads - Alternate Mix",
      "popularity" : 37,
      "preview_url" : null,
      "track_number" : 13,
      "type" : "track",
      "uri" : "spotify:track:1lNYIjLZyh4mkTC2tIqQG8"
    }, {
      "album" : {
        "album_type" : "album",
        "artists" : [ {
          "external_urls" : {
            "spotify" : "https://open.spotify.com/artist/4eDpQV93UILljVxohKoLUs"
          },
          "href" : "https://api.spotify.com/v1/artists/4eDpQV93UILljVxohKoLUs",
          "id" : "4eDpQV93UILljVxohKoLUs",
          "name" : "The Brooklyn Tabernacle Choir",
          "type" : "artist",
          "uri" : "spotify:artist:4eDpQV93UILljVxohKoLUs"
        } ],
        "external_urls" : {
          "spotify" : "https://open.spotify.com/album/3E5BJGmd2eQUGXGnYHntaR"
        },
        "href" : "https://api.spotify.com/v1/albums/3E5BJGmd2eQUGXGnYHntaR",
        "id" : "3E5BJGmd2eQUGXGnYHntaR",
        "images" : [ {
          "height" : 640,
          "url" : "https://i.scdn.co/image/ab67616d0000b27315ace351957a4b42de8714fd",
          "width" : 640
        }, {
          "height" : 300,
          "url" : "https://i.scdn.co/image/ab67616d00001e0215ace351957a4b42de8714fd",
          "width" : 300
        }, {
          "height" : 64,
          "url" : "https://i.scdn.co/image/ab67616d0000485115ace351957a4b42de8714fd",
          "width" : 64
        } ],
        "name" : "Pray",
        "release_date" : "2015-02-06",
        "release_date_precision" : "day",
        "total_tracks" : 14,
        "type" : "album",
        "uri" : "spotify:album:3E5BJGmd2eQUGXGnYHntaR"
      },
      "artists" : [ {
        "external_urls" : {
          "spotify" : "https://open.spotify.com/artist/4eDpQV93UILljVxohKoLUs"
        },
        "href" : "https://api.spotify.com/v1/artists/4eDpQV93UILljVxohKoLUs",
        "id" : "4eDpQV93UILljVxohKoLUs",
        "name" : "The Brooklyn Tabernacle Choir",
        "type" : "artist",
        "uri" : "spotify:artist:4eDpQV93UILljVxohKoLUs"
      } ],
      "disc_number" : 1,
      "duration_ms" : 335693,
      "explicit" : false,
      "external_ids" : {
        "isrc" : "USXKJ1400003"
      },
      "external_urls" : {
        "spotify" : "https://open.spotify.com/track/3mzBc5KOzPfC38Web5U5nC"
      },
      "href" : "https://api.spotify.com/v1/tracks/3mzBc5KOzPfC38Web5U5nC",
      "id" : "3mzBc5KOzPfC38Web5U5nC",
      "is_local" : false,
      "is_playable" : true,
      "name" : "At the Cross",
      "popularity" : 30,
      "preview_url" : "https://p.scdn.co/mp3-preview/be9a7ffde927588de8ef4966653da4f679536cd3?cid=774b29d4f13844c495f206cafdad9c86",
      "track_number" : 10,
      "type" : "track",
      "uri" : "spotify:track:3mzBc5KOzPfC38Web5U5nC"
    }, {
      "album" : {
        "album_type" : "album",
        "artists" : [ {
          "external_urls" : {
            "spotify" : "https://open.spotify.com/artist/6oGDuzaxim1teeU1yjhokP"
          },
          "href" : "https://api.spotify.com/v1/artists/6oGDuzaxim1teeU1yjhokP",
          "id" : "6oGDuzaxim1teeU1yjhokP",
          "name" : "Christian Music For Babies From I’m In Records",
          "type" : "artist",
          "uri" : "spotify:artist:6oGDuzaxim1teeU1yjhokP"
        } ],
        "external_urls" : {
          "spotify" : "https://open.spotify.com/album/0mY9y3qULyUHxWfBsHbzE8"
        },
        "href" : "https://api.spotify.com/v1/albums/0mY9y3qULyUHxWfBsHbzE8",
        "id" : "0mY9y3qULyUHxWfBsHbzE8",
        "images" : [ {
          "height" : 640,
          "url" : "https://i.scdn.co/image/ab67616d0000b2735441928fe0f708baebd0c6e9",
          "width" : 640
        }, {
          "height" : 300,
          "url" : "https://i.scdn.co/image/ab67616d00001e025441928fe0f708baebd0c6e9",
          "width" : 300
        }, {
          "height" : 64,
          "url" : "https://i.scdn.co/image/ab67616d000048515441928fe0f708baebd0c6e9",
          "width" : 64
        } ],
        "name" : "Lullaby Versions of Hillsong (Volume 1)",
        "release_date" : "2016-04-12",
        "release_date_precision" : "day",
        "total_tracks" : 10,
        "type" : "album",
        "uri" : "spotify:album:0mY9y3qULyUHxWfBsHbzE8"
      },
      "artists" : [ {
        "external_urls" : {
          "spotify" : "https://open.spotify.com/artist/6oGDuzaxim1teeU1yjhokP"
        },
        "href" : "https://api.spotify.com/v1/artists/6oGDuzaxim1teeU1yjhokP",
        "id" : "6oGDuzaxim1teeU1yjhokP",
        "name" : "Christian Music For Babies From I’m In Records",
        "type" : "artist",
        "uri" : "spotify:artist:6oGDuzaxim1teeU1yjhokP"
      } ],
      "disc_number" : 1,
      "duration_ms" : 401790,
      "explicit" : false,
      "external_ids" : {
        "isrc" : "BRITK1600315"
      },
      "external_urls" : {
        "spotify" : "https://open.spotify.com/track/5Ie9r0krrTjqHyfL4DkJ1m"
      },
      "href" : "https://api.spotify.com/v1/tracks/5Ie9r0krrTjqHyfL4DkJ1m",
      "id" : "5Ie9r0krrTjqHyfL4DkJ1m",
      "is_local" : false,
      "is_playable" : true,
      "name" : "At The Cross - Lullaby Version",
      "popularity" : 39,
      "preview_url" : "https://p.scdn.co/mp3-preview/8386e50f58e1d944e2da88b799570d050e1e669f?cid=774b29d4f13844c495f206cafdad9c86",
      "track_number" : 5,
      "type" : "track",
      "uri" : "spotify:track:5Ie9r0krrTjqHyfL4DkJ1m"
    }, {
      "album" : {
        "album_type" : "album",
        "artists" : [ {
          "external_urls" : {
            "spotify" : "https://open.spotify.com/artist/5dZiRoY9Vpp6qrxqXNRwPE"
          },
          "href" : "https://api.spotify.com/v1/artists/5dZiRoY9Vpp6qrxqXNRwPE",
          "id" : "5dZiRoY9Vpp6qrxqXNRwPE",
          "name" : "Selah",
          "type" : "artist",
          "uri" : "spotify:artist:5dZiRoY9Vpp6qrxqXNRwPE"
        } ],
        "external_urls" : {
          "spotify" : "https://open.spotify.com/album/0NKzXf20zGV0vsR60DZjF4"
        },
        "href" : "https://api.spotify.com/v1/albums/0NKzXf20zGV0vsR60DZjF4",
        "id" : "0NKzXf20zGV0vsR60DZjF4",
        "images" : [ {
          "height" : 640,
          "url" : "https://i.scdn.co/image/ab67616d0000b273e8ca98103536da89974246cf",
          "width" : 640
        }, {
          "height" : 300,
          "url" : "https://i.scdn.co/image/ab67616d00001e02e8ca98103536da89974246cf",
          "width" : 300
        }, {
          "height" : 64,
          "url" : "https://i.scdn.co/image/ab67616d00004851e8ca98103536da89974246cf",
          "width" : 64
        } ],
        "name" : "You Amaze Us",
        "release_date" : "2014-08-19",
        "release_date_precision" : "day",
        "total_tracks" : 14,
        "type" : "album",
        "uri" : "spotify:album:0NKzXf20zGV0vsR60DZjF4"
      },
      "artists" : [ {
        "external_urls" : {
          "spotify" : "https://open.spotify.com/artist/5dZiRoY9Vpp6qrxqXNRwPE"
        },
        "href" : "https://api.spotify.com/v1/artists/5dZiRoY9Vpp6qrxqXNRwPE",
        "id" : "5dZiRoY9Vpp6qrxqXNRwPE",
        "name" : "Selah",
        "type" : "artist",
        "uri" : "spotify:artist:5dZiRoY9Vpp6qrxqXNRwPE"
      } ],
      "disc_number" : 1,
      "duration_ms" : 242040,
      "explicit" : false,
      "external_ids" : {
        "isrc" : "USCRB1310884"
      },
      "external_urls" : {
        "spotify" : "https://open.spotify.com/track/6SpcdxmlDg5MQ1zGw8GEGo"
      },
      "href" : "https://api.spotify.com/v1/tracks/6SpcdxmlDg5MQ1zGw8GEGo",
      "id" : "6SpcdxmlDg5MQ1zGw8GEGo",
      "is_local" : false,
      "is_playable" : true,
      "name" : "At The Cross",
      "popularity" : 29,
      "preview_url" : "https://p.scdn.co/mp3-preview/d9a5dd77fb1abb149ff1697a7c4308fa9c023aee?cid=774b29d4f13844c495f206cafdad9c86",
      "track_number" : 3,
      "type" : "track",
      "uri" : "spotify:track:6SpcdxmlDg5MQ1zGw8GEGo"
    }, {
      "album" : {
        "album_type" : "album",
        "artists" : [ {
          "external_urls" : {
            "spotify" : "https://open.spotify.com/artist/1bMkQIx4MpNHLxoylvipdQ"
          },
          "href" : "https://api.spotify.com/v1/artists/1bMkQIx4MpNHLxoylvipdQ",
          "id" : "1bMkQIx4MpNHLxoylvipdQ",
          "name" : "The Worship Initiative",
          "type" : "artist",
          "uri" : "spotify:artist:1bMkQIx4MpNHLxoylvipdQ"
        }, {
          "external_urls" : {
            "spotify" : "https://open.spotify.com/artist/2LFbgsbEhfilNpQYW7mied"
          },
          "href" : "https://api.spotify.com/v1/artists/2LFbgsbEhfilNpQYW7mied",
          "id" : "2LFbgsbEhfilNpQYW7mied",
          "name" : "Shane & Shane",
          "type" : "artist",
          "uri" : "spotify:artist:2LFbgsbEhfilNpQYW7mied"
        } ],
        "external_urls" : {
          "spotify" : "https://open.spotify.com/album/6Bjl6DD6TP4gYRgO7ZkcI3"
        },
        "href" : "https://api.spotify.com/v1/albums/6Bjl6DD6TP4gYRgO7ZkcI3",
        "id" : "6Bjl6DD6TP4gYRgO7ZkcI3",
        "images" : [ {
          "height" : 640,
          "url" : "https://i.scdn.co/image/ab67616d0000b2738abf5c247c4bccf09c1c0515",
          "width" : 640
        }, {
          "height" : 300,
          "url" : "https://i.scdn.co/image/ab67616d00001e028abf5c247c4bccf09c1c0515",
          "width" : 300
        }, {
          "height" : 64,
          "url" : "https://i.scdn.co/image/ab67616d000048518abf5c247c4bccf09c1c0515",
          "width" : 64
        } ],
        "name" : "The Worship Initiative, Vol. 11",
        "release_date" : "2016-09-30",
        "release_date_precision" : "day",
        "total_tracks" : 10,
        "type" : "album",
        "uri" : "spotify:album:6Bjl6DD6TP4gYRgO7ZkcI3"
      },
      "artists" : [ {
        "external_urls" : {
          "spotify" : "https://open.spotify.com/artist/1bMkQIx4MpNHLxoylvipdQ"
        },
        "href" : "https://api.spotify.com/v1/artists/1bMkQIx4MpNHLxoylvipdQ",
        "id" : "1bMkQIx4MpNHLxoylvipdQ",
        "name" : "The Worship Initiative",
        "type" : "artist",
        "uri" : "spotify:artist:1bMkQIx4MpNHLxoylvipdQ"
      }, {
        "external_urls" : {
          "spotify" : "https://open.spotify.com/artist/2LFbgsbEhfilNpQYW7mied"
        },
        "href" : "https://api.spotify.com/v1/artists/2LFbgsbEhfilNpQYW7mied",
        "id" : "2LFbgsbEhfilNpQYW7mied",
        "name" : "Shane & Shane",
        "type" : "artist",
        "uri" : "spotify:artist:2LFbgsbEhfilNpQYW7mied"
      } ],
      "disc_number" : 1,
      "duration_ms" : 266352,
      "explicit" : false,
      "external_ids" : {
        "isrc" : "USDHM1624110"
      },
      "external_urls" : {
        "spotify" : "https://open.spotify.com/track/5Y4dcHDCAufMPfw04RfUid"
      },
      "href" : "https://api.spotify.com/v1/tracks/5Y4dcHDCAufMPfw04RfUid",
      "id" : "5Y4dcHDCAufMPfw04RfUid",
      "is_local" : false,
      "is_playable" : true,
      "name" : "At the Cross (Love Ran Red)",
      "popularity" : 27,
      "preview_url" : "https://p.scdn.co/mp3-preview/02c05112c436f4b85748301822e58b348c623c09?cid=774b29d4f13844c495f206cafdad9c86",
      "track_number" : 7,
      "type" : "track",
      "uri" : "spotify:track:5Y4dcHDCAufMPfw04RfUid"
    }, {
      "album" : {
        "album_type" : "album",
        "artists" : [ {
          "external_urls" : {
            "spotify" : "https://open.spotify.com/artist/6ZLy8YFk7VbamsI5qbYXtw"
          },
          "href" : "https://api.spotify.com/v1/artists/6ZLy8YFk7VbamsI5qbYXtw",
          "id" : "6ZLy8YFk7VbamsI5qbYXtw",
          "name" : "Darlene Zschech",
          "type" : "artist",
          "uri" : "spotify:artist:6ZLy8YFk7VbamsI5qbYXtw"
        } ],
        "external_urls" : {
          "spotify" : "https://open.spotify.com/album/5nl4wytHSeMq1mav6wty9b"
        },
        "href" : "https://api.spotify.com/v1/albums/5nl4wytHSeMq1mav6wty9b",
        "id" : "5nl4wytHSeMq1mav6wty9b",
        "images" : [ {
          "height" : 640,
          "url" : "https://i.scdn.co/image/ab67616d0000b2736c0e6f06742544d92270b41b",
          "width" : 640
        }, {
          "height" : 300,
          "url" : "https://i.scdn.co/image/ab67616d00001e026c0e6f06742544d92270b41b",
          "width" : 300
        }, {
          "height" : 64,
          "url" : "https://i.scdn.co/image/ab67616d000048516c0e6f06742544d92270b41b",
          "width" : 64
        } ],
        "name" : "In Jesus' Name: A Legacy of Worship & Faith",
        "release_date" : "2015-02-08",
        "release_date_precision" : "day",
        "total_tracks" : 14,
        "type" : "album",
        "uri" : "spotify:album:5nl4wytHSeMq1mav6wty9b"
      },
      "artists" : [ {
        "external_urls" : {
          "spotify" : "https://open.spotify.com/artist/6ZLy8YFk7VbamsI5qbYXtw"
        },
        "href" : "https://api.spotify.com/v1/artists/6ZLy8YFk7VbamsI5qbYXtw",
        "id" : "6ZLy8YFk7VbamsI5qbYXtw",
        "name" : "Darlene Zschech",
        "type" : "artist",
        "uri" : "spotify:artist:6ZLy8YFk7VbamsI5qbYXtw"
      } ],
      "disc_number" : 1,
      "duration_ms" : 409023,
      "explicit" : false,
      "external_ids" : {
        "isrc" : "AUHS00602302"
      },
      "external_urls" : {
        "spotify" : "https://open.spotify.com/track/65n35kzA6UNsvxrsrIIw0Y"
      },
      "href" : "https://api.spotify.com/v1/tracks/65n35kzA6UNsvxrsrIIw0Y",
      "id" : "65n35kzA6UNsvxrsrIIw0Y",
      "is_local" : false,
      "is_playable" : true,
      "name" : "At the Cross",
      "popularity" : 34,
      "preview_url" : "https://p.scdn.co/mp3-preview/ec18b91346cdf59b50fb0ab0c1bbc91afcb365e6?cid=774b29d4f13844c495f206cafdad9c86",
      "track_number" : 5,
      "type" : "track",
      "uri" : "spotify:track:65n35kzA6UNsvxrsrIIw0Y"
    }, {
      "album" : {
        "album_type" : "single",
        "artists" : [ {
          "external_urls" : {
            "spotify" : "https://open.spotify.com/artist/2aj3O6Rf4Kwm3AvAkVrIuE"
          },
          "href" : "https://api.spotify.com/v1/artists/2aj3O6Rf4Kwm3AvAkVrIuE",
          "id" : "2aj3O6Rf4Kwm3AvAkVrIuE",
          "name" : "Beau and Mercy Perkins",
          "type" : "artist",
          "uri" : "spotify:artist:2aj3O6Rf4Kwm3AvAkVrIuE"
        } ],
        "external_urls" : {
          "spotify" : "https://open.spotify.com/album/1qrgojFmKBETLeL9cCGz3p"
        },
        "href" : "https://api.spotify.com/v1/albums/1qrgojFmKBETLeL9cCGz3p",
        "id" : "1qrgojFmKBETLeL9cCGz3p",
        "images" : [ {
          "height" : 640,
          "url" : "https://i.scdn.co/image/ab67616d0000b2734ae212e839b5b051b02bb40a",
          "width" : 640
        }, {
          "height" : 300,
          "url" : "https://i.scdn.co/image/ab67616d00001e024ae212e839b5b051b02bb40a",
          "width" : 300
        }, {
          "height" : 64,
          "url" : "https://i.scdn.co/image/ab67616d000048514ae212e839b5b051b02bb40a",
          "width" : 64
        } ],
        "name" : "At the Cross",
        "release_date" : "2020-05-01",
        "release_date_precision" : "day",
        "total_tracks" : 1,
        "type" : "album",
        "uri" : "spotify:album:1qrgojFmKBETLeL9cCGz3p"
      },
      "artists" : [ {
        "external_urls" : {
          "spotify" : "https://open.spotify.com/artist/2aj3O6Rf4Kwm3AvAkVrIuE"
        },
        "href" : "https://api.spotify.com/v1/artists/2aj3O6Rf4Kwm3AvAkVrIuE",
        "id" : "2aj3O6Rf4Kwm3AvAkVrIuE",
        "name" : "Beau and Mercy Perkins",
        "type" : "artist",
        "uri" : "spotify:artist:2aj3O6Rf4Kwm3AvAkVrIuE"
      } ],
      "disc_number" : 1,
      "duration_ms" : 314892,
      "explicit" : false,
      "external_ids" : {
        "isrc" : "QZDA72013283"
      },
      "external_urls" : {
        "spotify" : "https://open.spotify.com/track/1p6uqrVN3mko9WPKoUAl0i"
      },
      "href" : "https://api.spotify.com/v1/tracks/1p6uqrVN3mko9WPKoUAl0i",
      "id" : "1p6uqrVN3mko9WPKoUAl0i",
      "is_local" : false,
      "is_playable" : true,
      "name" : "At the Cross",
      "popularity" : 21,
      "preview_url" : "https://p.scdn.co/mp3-preview/0156297fbdeb53ec910dc48b7beec04648d91c24?cid=774b29d4f13844c495f206cafdad9c86",
      "track_number" : 1,
      "type" : "track",
      "uri" : "spotify:track:1p6uqrVN3mko9WPKoUAl0i"
    } ],
    "limit" : 10,
    "next" : "https://api.spotify.com/v1/search?query=At+the+Cross&type=track&market=US&offset=15&limit=10",
    "offset" : 5,
    "previous" : "https://api.spotify.com/v1/search?query=At+the+Cross&type=track&market=US&offset=0&limit=10",
    "total" : 5414
  }
}