{
  "tracks" : {
    "href" : "https://api.spotify.com/v1/search?query=%E2%80%98Tis+So+Sweet+To+Trust+in+Jesus&type=track&market=US&offset=5&limit=10",
    "items" : [ {
      "album" : {
        "album_type" : "album",
        "artists" : [ {
          "external_urls" : {
            "spotify" : "https://open.spotify.com/artist/7zbq3gjHu4JAiMV7dWbUdv"
          },
          "href" : "https://api.spotify.com/v1/artists/7zbq3gjHu4JAiMV7dWbUdv",
          "id" : "7zbq3gjHu4JAiMV7dWbUdv",
          "name" : "David Nevue",
          "type" : "artist",
          "uri" : "spotify:artist:7zbq3gjHu4JAiMV7dWbUdv"
        } ],
        "external_urls" : {
          "spotify" : "https://open.spotify.com/album/5bc6WPPQfnqx5tgKuTQrlo"
        },
        "href" : "https://api.spotify.com/v1/albums/5bc6WPPQfnqx5tgKuTQrlo",
        "id" : "5bc6WPPQfnqx5tgKuTQrlo",
        "images" : [ {
          "height" : 640,
          "url" : "https://i.scdn.co/image/ab67616d0000b27311f4bb63adbe5e666015e0af",
          "width" : 640
        }, {
          "height" : 300,
          "url" : "https://i.scdn.co/image/ab67616d00001e0211f4bb63adbe5e666015e0af",
          "width" : 300
        }, {
          "height" : 64,
          "url" : "https://i.scdn.co/image/ab67616d0000485111f4bb63adbe5e666015e0af",
          "width" : 64
        } ],
        "name" : "Adoration: Solo Piano Hymns",
        "release_date" : "2007-11-28",
        "release_date_precision" : "day",
        "total_tracks" : 15,
        "type" : "album",
        "uri" : "spotify:album:5bc6WPPQfnqx5tgKuTQrlo"
      },
      "artists" : [ {
        "external_urls" : {
          "spotify" : "https://open.spotify.com/artist/7zbq3gjHu4JAiMV7dWbUdv"
        },
        "href" : "https://api.spotify.com/v1/artists/7zbq3gjHu4JAiMV7dWbUdv",
        "id" : "7zbq3gjHu4JAiMV7dWbUdv",
        "name" : "David Nevue",
        "type" : "artist",
        "uri" : "spotify:artist:7zbq3gjHu4JAiMV7dWbUdv"
      } ],
      "disc_number" : 1,
      "duration_ms" : 281413,
      "explicit" : false,
      "external_ids" : {
        "isrc" : "usl4q0775312"
      },
      "external_urls" : {
        "spotify" : "https://open.spotify.com/track/0jbfvhjwQD8UKnr2f2670k"
      },
      "href" : "https://api.spotify.com/v1/tracks/0jbfvhjwQD8UKnr2f2670k",
      "id" : "0jbfvhjwQD8UKnr2f2670k",
      "is_local" : false,
      "is_playable" : true,
      "name" : "'tis So Sweet To Trust In Jesus",
      "popularity" : 34,
      "preview_url" : "https://p.scdn.co/mp3-preview/884494cead05cd7818b3d6fd64072f8cecab8efa?cid=774b29d4f13844c495f206cafdad9c86",
      "track_number" : 12,
      "type" : "track",
      "uri" : "spotify:track:0jbfvhjwQD8UKnr2f2670k"
    }, {
      "album" : {
        "album_type" : "album",
        "artists" : [ {
          "external_urls" : {
            "spotify" : "https://open.spotify.com/artist/44nxpJ4QALHoSoUFpWiIQc"
          },
          "href" : "https://api.spotify.com/v1/artists/44nxpJ4QALHoSoUFpWiIQc",
          "id" : "44nxpJ4QALHoSoUFpWiIQc",
          "name" : "David Andrew",
          "type" : "artist",
          "uri" : "spotify:artist:44nxpJ4QALHoSoUFpWiIQc"
        } ],
        "external_urls" : {
          "spotify" : "https://open.spotify.com/album/7h6OVZnXZ0yVJLf2Ou96lK"
        },
        "href" : "https://api.spotify.com/v1/albums/7h6OVZnXZ0yVJLf2Ou96lK",
        "id" : "7h6OVZnXZ0yVJLf2Ou96lK",
        "images" : [ {
          "height" : 640,
          "url" : "https://i.scdn.co/image/ab67616d0000b27308c8470894966ce4724c041f",
          "width" : 640
        }, {
          "height" : 300,
          "url" : "https://i.scdn.co/image/ab67616d00001e0208c8470894966ce4724c041f",
          "width" : 300
        }, {
          "height" : 64,
          "url" : "https://i.scdn.co/image/ab67616d0000485108c8470894966ce4724c041f",
          "width" : 64
        } ],
        "name" : "Hymns",
        "release_date" : "2020-03-26",
        "release_date_precision" : "day",
        "total_tracks" : 11,
        "type" : "album",
        "uri" : "spotify:album:7h6OVZnXZ0yVJLf2Ou96lK"
      },
      "artists" : [ {
        "external_urls" : {
          "spotify" : "https://open.spotify.com/artist/44nxpJ4QALHoSoUFpWiIQc"
        },
        "href" : "https://api.spotify.com/v1/artists/44nxpJ4QALHoSoUFpWiIQc",
        "id" : "44nxpJ4QALHoSoUFpWiIQc",
        "name" : "David Andrew",
        "type" : "artist",
        "uri" : "spotify:artist:44nxpJ4QALHoSoUFpWiIQc"
      } ],
      "disc_number" : 1,
      "duration_ms" : 178786,
      "explicit" : false,
      "external_ids" : {
        "isrc" : "QZDA42028028"
      },
      "external_urls" : {
        "spotify" : "https://open.spotify.com/track/5ugV6IFPaW8wU331Tg2aa4"
      },
      "href" : "https://api.spotify.com/v1/tracks/5ugV6IFPaW8wU331Tg2aa4",
      "id" : "5ugV6IFPaW8wU331Tg2aa4",
      "is_local" : false,
      "is_playable" : true,
      "name" : "Tis So Sweet to Trust in Jesus",
      "popularity" : 32,
      "preview_url" : "https://p.scdn.co/mp3-preview/1407611b2dada441b188f9811f7e07857bb3c7e1?cid=774b29d4f13844c495f206cafdad9c86",
      "track_number" : 10,
      "type" : "track",
      "uri" : "spotify:track:5ugV6IFPaW8wU331Tg2aa4"
    }, {
      "album" : {
        "album_type" : "album",
        "artists" : [ {
          "external_urls" : {
            "spotify" : "https://open.spotify.com/artist/5ZKBQyNLXQd1VfNf2oH5yF"
          },
          "href" : "https://api.spotify.com/v1/artists/5ZKBQyNLXQd1VfNf2oH5yF",
          "id" : "5ZKBQyNLXQd1VfNf2oH5yF",
          "name" : "Phillip Keveren",
          "type" : "artist",
          "uri" : "spotify:artist:5ZKBQyNLXQd1VfNf2oH5yF"
        } ],
        "external_urls" : {
          "spotify" : "https://open.spotify.com/album/1Hz5mFMt0zot3VHHs48dfX"
        },
        "href" : "https://api.spotify.com/v1/albums/1Hz5mFMt0zot3VHHs48dfX",
        "id" : "1Hz5mFMt0zot3VHHs48dfX",
        "images" : [ {
          "height" : 640,
          "url" : "https://i.scdn.co/image/ab67616d0000b273a89ea47037e82c7d4ba36dd6",
          "width" : 640
        }, {
          "height" : 300,
          "url" : "https://i.scdn.co/image/ab67616d00001e02a89ea47037e82c7d4ba36dd6",
          "width" : 300
        }, {
          "height" : 64,
          "url" : "https://i.scdn.co/image/ab67616d00004851a89ea47037e82c7d4ba36dd6",
          "width" : 64
        } ],
        "name" : "Classical Praise: Piano & Flute",
        "release_date" : "2013-02-01",
        "release_date_precision" : "day",
        "total_tracks" : 10,
        "type" : "album",
        "uri" : "spotify:album:1Hz5mFMt0zot3VHHs48dfX"
      },
      "artists" : [ {
        "external_urls" : {
          "spotify" : "https://open.spotify.com/artist/5ZKBQyNLXQd1VfNf2oH5yF"
        },
        "href" : "https://api.spotify.com/v1/artists/5ZKBQyNLXQd1VfNf2oH5yF",
        "id" : "5ZKBQyNLXQd1VfNf2oH5yF",
        "name" : "Phillip Keveren",
        "type" : "artist",
        "uri" : "spotify:artist:5ZKBQyNLXQd1VfNf2oH5yF"
      } ],
      "disc_number" : 1,
      "duration_ms" : 230200,
      "explicit" : false,
      "external_ids" : {
        "isrc" : "USLF50801605"
      },
      "external_urls" : {
        "spotify" : "https://open.spotify.com/track/5K3fVNnFVLdNH6YnBy56nI"
      },
      "href" : "https://api.spotify.com/v1/tracks/5K3fVNnFVLdNH6YnBy56nI",
      "id" : "5K3fVNnFVLdNH6YnBy56nI",
      "is_local" : false,
      "is_playable" : true,
      "name" : "'Tis So Sweet to Trust in Jesus",
      "popularity" : 26,
      "preview_url" : "https://p.scdn.co/mp3-preview/74a8124144d28746974bfa90f667fc449f5e90c3?cid=774b29d4f13844c495f206cafdad9c86",
      "track_number" : 8,
      "type" : "track",
      "uri" : "spotify:track:5K3fVNnFVLdNH6YnBy56nI"
    }, {
      "album" : {
        "album_type" : "album",
        "artists" : [ {
          "external_urls" : {
            "spotify" : "https://open.spotify.com/artist/3ds0hlCcgdDJzoG9NgCxbF"
          },
          "href" : "https://api.spotify.com/v1/artists/3ds0hlCcgdDJzoG9NgCxbF",
          "id" : "3ds0hlCcgdDJzoG9NgCxbF",
          "name" : "GroupMusic",
          "type" : "artist",
          "uri" : "spotify:artist:3ds0hlCcgdDJzoG9NgCxbF"
        } ],
        "external_urls" : {
          "spotify" : "https://open.spotify.com/album/0MZdGDnF1aFBgbCowm2Fj0"
        },
        "href" : "https://api.spotify.com/v1/albums/0MZdGDnF1aFBgbCowm2Fj0",
        "id" : "0MZdGDnF1aFBgbCowm2Fj0",
        "images" : [ {
          "height" : 640,
          "url" : "https://i.scdn.co/image/ab67616d0000b27375d702706e785abd9435b84c",
          "width" : 640
        }, {
          "height" : 300,
          "url" : "https://i.scdn.co/image/ab67616d00001e0275d702706e785abd9435b84c",
          "width" : 300
        }, {
          "height" : 64,
          "url" : "https://i.scdn.co/image/ab67616d0000485175d702706e785abd9435b84c",
          "width" : 64
        } ],
        "name" : "Favorite Songs from Shipwrecked: Rescued by Jesus",
        "release_date" : "2018-04-16",
        "release_date_precision" : "day",
        "total_tracks" : 12,
        "type" : "album",
        "uri" : "spotify:album:0MZdGDnF1aFBgbCowm2Fj0"
      },
      "artists" : [ {
        "external_urls" : {
          "spotify" : "https://open.spotify.com/artist/3ds0hlCcgdDJzoG9NgCxbF"
        },
        "href" : "https://api.spotify.com/v1/artists/3ds0hlCcgdDJzoG9NgCxbF",
        "id" : "3ds0hlCcgdDJzoG9NgCxbF",
        "name" : "GroupMusic",
        "type" : "artist",
        "uri" : "spotify:artist:3ds0hlCcgdDJzoG9NgCxbF"
      } ],
      "disc_number" : 1,
      "duration_ms" : 125388,
      "explicit" : false,
      "external_ids" : {
        "isrc" : "US6YG1700755"
      },
      "external_urls" : {
        "spotify" : "https://open.spotify.com/track/2bIfA2PkBkF4rgNnPhZTMT"
      },
      "href" : "https://api.spotify.com/v1/tracks/2bIfA2PkBkF4rgNnPhZTMT",
      "id" : "2bIfA2PkBkF4rgNnPhZTMT",
      "is_local" : false,
      "is_playable" : true,
      "name" : "Tis so Sweet to Trust in Jesus",
      "popularity" : 25,
      "preview_url" : "https://p.scdn.co/mp3-preview/82658842cfac0deb525096b9a8cda3a0d6da82be?cid=774b29d4f13844c495f206cafdad9c86",
      "track_number" : 3,
      "type" : "track",
      "uri" : "spotify:track:2bIfA2PkBkF4rgNnPhZTMT"
    }, {
      "album" : {
        "album_type" : "album",
        "artists" : [ {
          "external_urls" : {
            "spotify" : "https://open.spotify.com/artist/7xkEury4Vby5uUKojsVMKm"
          },
          "href" : "https://api.spotify.com/v1/artists/7xkEury4Vby5uUKojsVMKm",
          "id" : "7xkEury4Vby5uUKojsVMKm",
          "name" : "Life Hymns Worship Trio",
          "type" : "artist",
          "uri" : "spotify:artist:7xkEury4Vby5uUKojsVMKm"
        } ],
        "external_urls" : {
          "spotify" : "https://open.spotify.com/album/5vn0Nmxh7xDJuvSvh8PPpt"
        },
        "href" : "https://api.spotify.com/v1/albums/5vn0Nmxh7xDJuvSvh8PPpt",
        "id" : "5vn0Nmxh7xDJuvSvh8PPpt",
        "images" : [ {
          "height" : 640,
          "url" : "https://i.scdn.co/image/ab67616d0000b273941df60da8bb0e94a06c9a92",
          "width" : 640
        }, {
          "height" : 300,
          "url" : "https://i.scdn.co/image/ab67616d00001e02941df60da8bb0e94a06c9a92",
          "width" : 300
        }, {
          "height" : 64,
          "url" : "https://i.scdn.co/image/ab67616d00004851941df60da8bb0e94a06c9a92",
          "width" : 64
        } ],
        "name" : "Relaxing Worship Hymns, Vol. 1",
        "release_date" : "2019-10-03",
        "release_date_precision" : "day",
        "total_tracks" : 12,
        "type" : "album",
        "uri" : "spotify:album:5vn0Nmxh7xDJuvSvh8PPpt"
      },
      "artists" : [ {
        "external_urls" : {
          "spotify" : "https://open.spotify.com/artist/7xkEury4Vby5uUKojsVMKm"
        },
        "href" : "https://api.spotify.com/v1/artists/7xkEury4Vby5uUKojsVMKm",
        "id" : "7xkEury4Vby5uUKojsVMKm",
        "name" : "Life Hymns Worship Trio",
        "type" : "artist",
        "uri" : "spotify:artist:7xkEury4Vby5uUKojsVMKm"
      } ],
      "disc_number" : 1,
      "duration_ms" : 219000,
      "explicit" : false,
      "external_ids" : {
        "isrc" : "QZGWW1974932"
      },
      "external_urls" : {
        "spotify" : "https://open.spotify.com/track/354crvTHCwirf6AygthUEu"
      },
      "href" : "https://api.spotify.com/v1/tracks/354crvTHCwirf6AygthUEu",
      "id" : "354crvTHCwirf6AygthUEu",
      "is_local" : false,
      "is_playable" : true,
      "name" : "'Tis So Sweet to Trust in Jesus",
      "popularity" : 27,
      "preview_url" : "https://p.scdn.co/mp3-preview/25af4c84c9f655d8e6f33dfee133341f19bce69c?cid=774b29d4f13844c495f206cafdad9c86",
      "track_number" : 11,
      "type" : "track",
      "uri" : "spotify:track:354crvTHCwirf6AygthUEu"
    }, {
      "album" : {
        "album_type" : "album",
        "artists" : [ {
          "external_urls" : {
            "spotify" : "https://open.spotify.com/artist/2LByFn6WymbKg67CuVYqkt"
          },
          "href" : "https://api.spotify.com/v1/artists/2LByFn6WymbKg67CuVYqkt",
          "id" : "2LByFn6WymbKg67CuVYqkt",
          "name" : "Katy Kinard",
          "type" : "artist",
          "uri" : "spotify:artist:2LByFn6WymbKg67CuVYqkt"
        } ],
        "external_urls" : {
          "spotify" : "https://open.spotify.com/album/0crAHACogD2wCd7kUPQK1v"
        },
        "href" : "https://api.spotify.com/v1/albums/0crAHACogD2wCd7kUPQK1v",
        "id" : "0crAHACogD2wCd7kUPQK1v",
        "images" : [ {
          "height" : 640,
          "url" : "https://i.scdn.co/image/ab67616d0000b2733296b1e79c9c30248735dd0f",
          "width" : 640
        }, {
          "height" : 300,
          "url" : "https://i.scdn.co/image/ab67616d00001e023296b1e79c9c30248735dd0f",
          "width" : 300
        }, {
          "height" : 64,
          "url" : "https://i.scdn.co/image/ab67616d000048513296b1e79c9c30248735dd0f",
          "width" : 64
        } ],
        "name" : "Lullaby Hymns: the Weary Soul",
        "release_date" : "2010-06-20",
        "release_date_precision" : "day",
        "total_tracks" : 11,
        "type" : "album",
        "uri" : "spotify:album:0crAHACogD2wCd7kUPQK1v"
      },
      "artists" : [ {
        "external_urls" : {
          "spotify" : "https://open.spotify.com/artist/2LByFn6WymbKg67CuVYqkt"
        },
        "href" : "https://api.spotify.com/v1/artists/2LByFn6WymbKg67CuVYqkt",
        "id" : "2LByFn6WymbKg67CuVYqkt",
        "name" : "Katy Kinard",
        "type" : "artist",
        "uri" : "spotify:artist:2LByFn6WymbKg67CuVYqkt"
      } ],
      "disc_number" : 1,
      "duration_ms" : 256653,
      "explicit" : false,
      "external_ids" : {
        "isrc" : "TCAAR1027794"
      },
      "external_urls" : {
        "spotify" : "https://open.spotify.com/track/21fL1tPW9PN7mgqhgeL7lC"
      },
      "href" : "https://api.spotify.com/v1/tracks/21fL1tPW9PN7mgqhgeL7lC",
      "id" : "21fL1tPW9PN7mgqhgeL7lC",
      "is_local" : false,
      "is_playable" : true,
      "name" : "Tis So Sweet To Trust In Jesus",
      "popularity" : 24,
      "preview_url" : "https://p.scdn.co/mp3-preview/00cbceae1e366ac6e7931fa0fcda7ca80a27cce2?cid=774b29d4f13844c495f206cafdad9c86",
      "track_number" : 10,
      "type" : "track",
      "uri" : "spotify:track:21fL1tPW9PN7mgqhgeL7lC"
    }, {
      "album" : {
        "album_type" : "single",
        "artists" : [ {
          "external_urls" : {
            "spotify" : "https://open.spotify.com/artist/0JEaOx0otT35qgkj1w4oBw"
          },
          "href" : "https://api.spotify.com/v1/artists/0JEaOx0otT35qgkj1w4oBw",
          "id" : "0JEaOx0otT35qgkj1w4oBw",
          "name" : "Church of the City",
          "type" : "artist",
          "uri" : "spotify:artist:0JEaOx0otT35qgkj1w4oBw"
        } ],
        "external_urls" : {
          "spotify" : "https://open.spotify.com/album/1eQch9c6HSlHyy9HJmGV1J"
        },
        "href" : "https://api.spotify.com/v1/albums/1eQch9c6HSlHyy9HJmGV1J",
        "id" : "1eQch9c6HSlHyy9HJmGV1J",
        "images" : [ {
          "height" : 640,
          "url" : "https://i.scdn.co/image/ab67616d0000b2737cc9a8d6c8f6275e8b57a02b",
          "width" : 640
        }, {
          "height" : 300,
          "url" : "https://i.scdn.co/image/ab67616d00001e027cc9a8d6c8f6275e8b57a02b",
          "width" : 300
        }, {
          "height" : 64,
          "url" : "https://i.scdn.co/image/ab67616d000048517cc9a8d6c8f6275e8b57a02b",
          "width" : 64
        } ],
        "name" : "Church Of The City (Live)",
        "release_date" : "2020-03-20",
        "release_date_precision" : "day",
        "total_tracks" : 6,
        "type" : "album",
        "uri" : "spotify:album:1eQch9c6HSlHyy9HJmGV1J"
      },
      "artists" : [ {
        "external_urls" : {
          "spotify" : "https://open.spotify.com/artist/0JEaOx0otT35qgkj1w4oBw"
        },
        "href" : "https://api.spotify.com/v1/artists/0JEaOx0otT35qgkj1w4oBw",
        "id" : "0JEaOx0otT35qgkj1w4oBw",
        "name" : "Church of the City",
        "type" : "artist",
        "uri" : "spotify:artist:0JEaOx0otT35qgkj1w4oBw"
      }, {
        "external_urls" : {
          "spotify" : "https://open.spotify.com/artist/7H0gjeKVq6IPXcAUZzzhD2"
        },
        "href" : "https://api.spotify.com/v1/artists/7H0gjeKVq6IPXcAUZzzhD2",
        "id" : "7H0gjeKVq6IPXcAUZzzhD2",
        "name" : "Jon Reddick",
        "type" : "artist",
        "uri" : "spotify:artist:7H0gjeKVq6IPXcAUZzzhD2"
      } ],
      "disc_number" : 1,
      "duration_ms" : 73407,
      "explicit" : false,
      "external_ids" : {
        "isrc" : "USUG12000685"
      },
      "external_urls" : {
        "spotify" : "https://open.spotify.com/track/2DwXPmQ3XFemdRLTqYtnBS"
      },
      "href" : "https://api.spotify.com/v1/tracks/2DwXPmQ3XFemdRLTqYtnBS",
      "id" : "2DwXPmQ3XFemdRLTqYtnBS",
      "is_local" : false,
      "is_playable" : true,
      "name" : "'Tis So Sweet To Trust In Jesus - Live",
      "popularity" : 24,
      "preview_url" : null,
      "track_number" : 4,
      "type" : "track",
      "uri" : "spotify:track:2DwXPmQ3XFemdRLTqYtnBS"
    }, {
      "album" : {
        "album_type" : "album",
        "artists" : [ {
          "external_urls" : {
            "spotify" : "https://open.spotify.com/artist/5dZiRoY9Vpp6qrxqXNRwPE"
          },
          "href" : "https://api.spotify.com/v1/artists/5dZiRoY9Vpp6qrxqXNRwPE",
          "id" : "5dZiRoY9Vpp6qrxqXNRwPE",
          "name" : "Selah",
          "type" : "artist",
          "uri" : "spotify:artist:5dZiRoY9Vpp6qrxqXNRwPE"
        } ],
        "external_urls" : {
          "spotify" : "https://open.spotify.com/album/2I1HzJ3WvTrguv8XQjqVGU"
        },
        "href" : "https://api.spotify.com/v1/albums/2I1HzJ3WvTrguv8XQjqVGU",
        "id" : "2I1HzJ3WvTrguv8XQjqVGU",
        "images" : [ {
          "height" : 640,
          "url" : "https://i.scdn.co/image/ab67616d0000b273a1714b3fed99853de057897a",
          "width" : 640
        }, {
          "height" : 300,
          "url" : "https://i.scdn.co/image/ab67616d00001e02a1714b3fed99853de057897a",
          "width" : 300
        }, {
          "height" : 64,
          "url" : "https://i.scdn.co/image/ab67616d00004851a1714b3fed99853de057897a",
          "width" : 64
        } ],
        "name" : "Hope Of The Broken World",
        "release_date" : "2011-08-23",
        "release_date_precision" : "day",
        "total_tracks" : 12,
        "type" : "album",
        "uri" : "spotify:album:2I1HzJ3WvTrguv8XQjqVGU"
      },
      "artists" : [ {
        "external_urls" : {
          "spotify" : "https://open.spotify.com/artist/5dZiRoY9Vpp6qrxqXNRwPE"
        },
        "href" : "https://api.spotify.com/v1/artists/5dZiRoY9Vpp6qrxqXNRwPE",
        "id" : "5dZiRoY9Vpp6qrxqXNRwPE",
        "name" : "Selah",
        "type" : "artist",
        "uri" : "spotify:artist:5dZiRoY9Vpp6qrxqXNRwPE"
      } ],
      "disc_number" : 1,
      "duration_ms" : 272880,
      "explicit" : false,
      "external_ids" : {
        "isrc" : "USCRB1109569"
      },
      "external_urls" : {
        "spotify" : "https://open.spotify.com/track/7LvbM2Lto81qgQyVdnJSua"
      },
      "href" : "https://api.spotify.com/v1/tracks/7LvbM2Lto81qgQyVdnJSua",
      "id" : "7LvbM2Lto81qgQyVdnJSua",
      "is_local" : false,
      "is_playable" : true,
      "name" : "Tis So Sweet To Trust In Jesus",
      "popularity" : 25,
      "preview_url" : "https://p.scdn.co/mp3-preview/b33ec272dce7204d56d34f11f027507c4278927d?cid=774b29d4f13844c495f206cafdad9c86",
      "track_number" : 9,
      "type" : "track",
      "uri" : "spotify:track:7LvbM2Lto81qgQyVdnJSua"
    }, {
      "album" : {
        "album_type" : "album",
        "artists" : [ {
          "external_urls" : {
            "spotify" : "https://open.spotify.com/artist/7cvnCTBvMm6OvTutfCpxjL"
          },
          "href" : "https://api.spotify.com/v1/artists/7cvnCTBvMm6OvTutfCpxjL",
          "id" : "7cvnCTBvMm6OvTutfCpxjL",
          "name" : "Vineyard Worship",
          "type" : "artist",
          "uri" : "spotify:artist:7cvnCTBvMm6OvTutfCpxjL"
        } ],
        "external_urls" : {
          "spotify" : "https://open.spotify.com/album/0Pi0AZHBTzQA4tgIlU3myl"
        },
        "href" : "https://api.spotify.com/v1/albums/0Pi0AZHBTzQA4tgIlU3myl",
        "id" : "0Pi0AZHBTzQA4tgIlU3myl",
        "images" : [ {
          "height" : 640,
          "url" : "https://i.scdn.co/image/ab67616d0000b273f58d2fd0fda8544acf688be8",
          "width" : 640
        }, {
          "height" : 300,
          "url" : "https://i.scdn.co/image/ab67616d00001e02f58d2fd0fda8544acf688be8",
          "width" : 300
        }, {
          "height" : 64,
          "url" : "https://i.scdn.co/image/ab67616d00004851f58d2fd0fda8544acf688be8",
          "width" : 64
        } ],
        "name" : "Hymns in the Vineyard",
        "release_date" : "2001-02-27",
        "release_date_precision" : "day",
        "total_tracks" : 18,
        "type" : "album",
        "uri" : "spotify:album:0Pi0AZHBTzQA4tgIlU3myl"
      },
      "artists" : [ {
        "external_urls" : {
          "spotify" : "https://open.spotify.com/artist/7cvnCTBvMm6OvTutfCpxjL"
        },
        "href" : "https://api.spotify.com/v1/artists/7cvnCTBvMm6OvTutfCpxjL",
        "id" : "7cvnCTBvMm6OvTutfCpxjL",
        "name" : "Vineyard Worship",
        "type" : "artist",
        "uri" : "spotify:artist:7cvnCTBvMm6OvTutfCpxjL"
      }, {
        "external_urls" : {
          "spotify" : "https://open.spotify.com/artist/3YnL7glzNBT5dVf4ZKwqKk"
        },
        "href" : "https://api.spotify.com/v1/artists/3YnL7glzNBT5dVf4ZKwqKk",
        "id" : "3YnL7glzNBT5dVf4ZKwqKk",
        "name" : "Cindy Rethmeier",
        "type" : "artist",
        "uri" : "spotify:artist:3YnL7glzNBT5dVf4ZKwqKk"
      } ],
      "disc_number" : 1,
      "duration_ms" : 152653,
      "explicit" : false,
      "external_ids" : {
        "isrc" : "US2T30400279"
      },
      "external_urls" : {
        "spotify" : "https://open.spotify.com/track/1YkjoZUMxA0mYpkt1Fajoz"
      },
      "href" : "https://api.spotify.com/v1/tracks/1YkjoZUMxA0mYpkt1Fajoz",
      "id" : "1YkjoZUMxA0mYpkt1Fajoz",
      "is_local" : false,
      "is_playable" : true,
      "name" : "'Tis So Sweet To Trust In Jesus",
      "popularity" : 25,
      "preview_url" : "https://p.scdn.co/mp3-preview/29f72f8f4a70a7024e7140bd2edf0483043c3043?cid=774b29d4f13844c495f206cafdad9c86",
      "track_number" : 17,
      "type" : "track",
      "uri" : "spotify:track:1YkjoZUMxA0mYpkt1Fajoz"
    }, {
      "album" : {
        "album_type" : "album",
        "artists" : [ {
          "external_urls" : {
            "spotify" : "https://open.spotify.com/artist/2NzWRNaaLByHyI3wpuec8P"
          },
          "href" : "https://api.spotify.com/v1/artists/2NzWRNaaLByHyI3wpuec8P",
          "id" : "2NzWRNaaLByHyI3wpuec8P",
          "name" : "Jim Brickman",
          "type" : "artist",
          "uri" : "spotify:artist:2NzWRNaaLByHyI3wpuec8P"
        } ],
        "external_urls" : {
          "spotify" : "https://open.spotify.com/album/5gLfbvc3wLOJxAy3wJCSLd"
        },
        "href" : "https://api.spotify.com/v1/albums/5gLfbvc3wLOJxAy3wJCSLd",
        "id" : "5gLfbvc3wLOJxAy3wJCSLd",
        "images" : [ {
          "height" : 640,
          "url" : "https://i.scdn.co/image/ab67616d0000b273a158d895ce0a6f60f0985470",
          "width" : 640
        }, {
          "height" : 300,
          "url" : "https://i.scdn.co/image/ab67616d00001e02a158d895ce0a6f60f0985470",
          "width" : 300
        }, {
          "height" : 64,
          "url" : "https://i.scdn.co/image/ab67616d00004851a158d895ce0a6f60f0985470",
          "width" : 64
        } ],
        "name" : "Faith (Deluxe Edition)",
        "release_date" : "2016-10-24",
        "release_date_precision" : "day",
        "total_tracks" : 20,
        "type" : "album",
        "uri" : "spotify:album:5gLfbvc3wLOJxAy3wJCSLd"
      },
      "artists" : [ {
        "external_urls" : {
          "spotify" : "https://open.spotify.com/artist/2NzWRNaaLByHyI3wpuec8P"
        },
        "href" : "https://api.spotify.com/v1/artists/2NzWRNaaLByHyI3wpuec8P",
        "id" : "2NzWRNaaLByHyI3wpuec8P",
        "name" : "Jim Brickman",
        "type" : "artist",
        "uri" : "spotify:artist:2NzWRNaaLByHyI3wpuec8P"
      } ],
      "disc_number" : 1,
      "duration_ms" : 223386,
      "explicit" : false,
      "external_ids" : {
        "isrc" : "USP3J0804803"
      },
      "external_urls" : {
        "spotify" : "https://open.spotify.com/track/3kvMDhDAubhVBxBYDhXmX8"
      },
      "href" : "https://api.spotify.com/v1/tracks/3kvMDhDAubhVBxBYDhXmX8",
      "id" : "3kvMDhDAubhVBxBYDhXmX8",
      "is_local" : false,
      "is_playable" : true,
      "name" : "Tis So Sweet to Trust in Jesus",
      "popularity" : 20,
      "preview_url" : "https://p.scdn.co/mp3-preview/8ec3b612aa7a31f8670d4b71446e6521d9cdece7?cid=774b29d4f13844c495f206cafdad9c86",
      "track_number" : 2,
      "type" : "track",
      "uri" : "spotify:track:3kvMDhDAubhVBxBYDhXmX8"
    } ],
    "limit" : 10,
    "next" : "https://api.spotify.com/v1/search?query=%E2%80%98Tis+So+Sweet+To+Trust+in+Jesus&type=track&market=US&offset=15&limit=10",
    "offset" : 5,
    "previous" : "https://api.spotify.com/v1/search?query=%E2%80%98Tis+So+Sweet+To+Trust+in+Jesus&type=track&market=US&offset=0&limit=10",
    "total" : 725
  }
}