{
  "tracks" : {
    "href" : "https://api.spotify.com/v1/search?query=Showers+of+Blessing&type=track&market=US&offset=5&limit=10",
    "items" : [ {
      "album" : {
        "album_type" : "compilation",
        "artists" : [ {
          "external_urls" : {
            "spotify" : "https://open.spotify.com/artist/1PCJfBD2SVVE8cGqpg1pC9"
          },
          "href" : "https://api.spotify.com/v1/artists/1PCJfBD2SVVE8cGqpg1pC9",
          "id" : "1PCJfBD2SVVE8cGqpg1pC9",
          "name" : "Hal Wright",
          "type" : "artist",
          "uri" : "spotify:artist:1PCJfBD2SVVE8cGqpg1pC9"
        } ],
        "external_urls" : {
          "spotify" : "https://open.spotify.com/album/2sKmZ8kxh0qxQCf0qlvylw"
        },
        "href" : "https://api.spotify.com/v1/albums/2sKmZ8kxh0qxQCf0qlvylw",
        "id" : "2sKmZ8kxh0qxQCf0qlvylw",
        "images" : [ {
          "height" : 640,
          "url" : "https://i.scdn.co/image/ab67616d0000b2739bd7b37123792b83e0235c59",
          "width" : 640
        }, {
          "height" : 300,
          "url" : "https://i.scdn.co/image/ab67616d00001e029bd7b37123792b83e0235c59",
          "width" : 300
        }, {
          "height" : 64,
          "url" : "https://i.scdn.co/image/ab67616d000048519bd7b37123792b83e0235c59",
          "width" : 64
        } ],
        "name" : "Instrumental Hymns 3",
        "release_date" : "2020-05-22",
        "release_date_precision" : "day",
        "total_tracks" : 25,
        "type" : "album",
        "uri" : "spotify:album:2sKmZ8kxh0qxQCf0qlvylw"
      },
      "artists" : [ {
        "external_urls" : {
          "spotify" : "https://open.spotify.com/artist/1PCJfBD2SVVE8cGqpg1pC9"
        },
        "href" : "https://api.spotify.com/v1/artists/1PCJfBD2SVVE8cGqpg1pC9",
        "id" : "1PCJfBD2SVVE8cGqpg1pC9",
        "name" : "Hal Wright",
        "type" : "artist",
        "uri" : "spotify:artist:1PCJfBD2SVVE8cGqpg1pC9"
      }, {
        "external_urls" : {
          "spotify" : "https://open.spotify.com/artist/5Aerx1PdoW4F5Yvrus4bDE"
        },
        "href" : "https://api.spotify.com/v1/artists/5Aerx1PdoW4F5Yvrus4bDE",
        "id" : "5Aerx1PdoW4F5Yvrus4bDE",
        "name" : "Twin Sisters",
        "type" : "artist",
        "uri" : "spotify:artist:5Aerx1PdoW4F5Yvrus4bDE"
      } ],
      "disc_number" : 1,
      "duration_ms" : 99160,
      "explicit" : false,
      "external_ids" : {
        "isrc" : "US6PD1903998"
      },
      "external_urls" : {
        "spotify" : "https://open.spotify.com/track/6TGvfhSfB8u5eLCzkvl1IB"
      },
      "href" : "https://api.spotify.com/v1/tracks/6TGvfhSfB8u5eLCzkvl1IB",
      "id" : "6TGvfhSfB8u5eLCzkvl1IB",
      "is_local" : false,
      "is_playable" : true,
      "name" : "There Shall Be Showers of Blessing",
      "popularity" : 0,
      "preview_url" : "https://p.scdn.co/mp3-preview/aa1c745a35da255e179f1b363ec081aa90a9d3cd?cid=774b29d4f13844c495f206cafdad9c86",
      "track_number" : 11,
      "type" : "track",
      "uri" : "spotify:track:6TGvfhSfB8u5eLCzkvl1IB"
    }, {
      "album" : {
        "album_type" : "album",
        "artists" : [ {
          "external_urls" : {
            "spotify" : "https://open.spotify.com/artist/05sGBQhc6wrRAOZYo3gWqP"
          },
          "href" : "https://api.spotify.com/v1/artists/05sGBQhc6wrRAOZYo3gWqP",
          "id" : "05sGBQhc6wrRAOZYo3gWqP",
          "name" : "Worship Music Project",
          "type" : "artist",
          "uri" : "spotify:artist:05sGBQhc6wrRAOZYo3gWqP"
        } ],
        "external_urls" : {
          "spotify" : "https://open.spotify.com/album/3zSEXNgCcFjnRmbKf2W1cx"
        },
        "href" : "https://api.spotify.com/v1/albums/3zSEXNgCcFjnRmbKf2W1cx",
        "id" : "3zSEXNgCcFjnRmbKf2W1cx",
        "images" : [ {
          "height" : 640,
          "url" : "https://i.scdn.co/image/ab67616d0000b27359f29b3e4efa84ec93fd9ff0",
          "width" : 640
        }, {
          "height" : 300,
          "url" : "https://i.scdn.co/image/ab67616d00001e0259f29b3e4efa84ec93fd9ff0",
          "width" : 300
        }, {
          "height" : 64,
          "url" : "https://i.scdn.co/image/ab67616d0000485159f29b3e4efa84ec93fd9ff0",
          "width" : 64
        } ],
        "name" : "Endless Hymns For Opening Prayers 9 (기도를 여는 끊이지 않는 찬송가 9)",
        "release_date" : "2014-07-24",
        "release_date_precision" : "day",
        "total_tracks" : 8,
        "type" : "album",
        "uri" : "spotify:album:3zSEXNgCcFjnRmbKf2W1cx"
      },
      "artists" : [ {
        "external_urls" : {
          "spotify" : "https://open.spotify.com/artist/05sGBQhc6wrRAOZYo3gWqP"
        },
        "href" : "https://api.spotify.com/v1/artists/05sGBQhc6wrRAOZYo3gWqP",
        "id" : "05sGBQhc6wrRAOZYo3gWqP",
        "name" : "Worship Music Project",
        "type" : "artist",
        "uri" : "spotify:artist:05sGBQhc6wrRAOZYo3gWqP"
      } ],
      "disc_number" : 1,
      "duration_ms" : 188092,
      "explicit" : false,
      "external_ids" : {
        "isrc" : "KRB361433159"
      },
      "external_urls" : {
        "spotify" : "https://open.spotify.com/track/5u3pkENJUZw9n18kGOKE8u"
      },
      "href" : "https://api.spotify.com/v1/tracks/5u3pkENJUZw9n18kGOKE8u",
      "id" : "5u3pkENJUZw9n18kGOKE8u",
      "is_local" : false,
      "is_playable" : true,
      "name" : "Lord, I Hear of Showers of Blessing (주여 복을 주시기를)",
      "popularity" : 16,
      "preview_url" : "https://p.scdn.co/mp3-preview/443c7333b62956e8e6d7fe634e0a86a42e5000c9?cid=774b29d4f13844c495f206cafdad9c86",
      "track_number" : 1,
      "type" : "track",
      "uri" : "spotify:track:5u3pkENJUZw9n18kGOKE8u"
    }, {
      "album" : {
        "album_type" : "compilation",
        "artists" : [ {
          "external_urls" : {
            "spotify" : "https://open.spotify.com/artist/0LyfQWJT6nXafLPZqxe9Of"
          },
          "href" : "https://api.spotify.com/v1/artists/0LyfQWJT6nXafLPZqxe9Of",
          "id" : "0LyfQWJT6nXafLPZqxe9Of",
          "name" : "Various Artists",
          "type" : "artist",
          "uri" : "spotify:artist:0LyfQWJT6nXafLPZqxe9Of"
        } ],
        "external_urls" : {
          "spotify" : "https://open.spotify.com/album/7j0OIHzWyFkOR0BI6ZcO5c"
        },
        "href" : "https://api.spotify.com/v1/albums/7j0OIHzWyFkOR0BI6ZcO5c",
        "id" : "7j0OIHzWyFkOR0BI6ZcO5c",
        "images" : [ {
          "height" : 640,
          "url" : "https://i.scdn.co/image/ab67616d0000b27312e4aac713e7040ac2e05637",
          "width" : 640
        }, {
          "height" : 300,
          "url" : "https://i.scdn.co/image/ab67616d00001e0212e4aac713e7040ac2e05637",
          "width" : 300
        }, {
          "height" : 64,
          "url" : "https://i.scdn.co/image/ab67616d0000485112e4aac713e7040ac2e05637",
          "width" : 64
        } ],
        "name" : "Reggae Gold 1996",
        "release_date" : "2005",
        "release_date_precision" : "year",
        "total_tracks" : 14,
        "type" : "album",
        "uri" : "spotify:album:7j0OIHzWyFkOR0BI6ZcO5c"
      },
      "artists" : [ {
        "external_urls" : {
          "spotify" : "https://open.spotify.com/artist/4pKmKFXWNCqDM9OfGraSbx"
        },
        "href" : "https://api.spotify.com/v1/artists/4pKmKFXWNCqDM9OfGraSbx",
        "id" : "4pKmKFXWNCqDM9OfGraSbx",
        "name" : "Mikey Spice",
        "type" : "artist",
        "uri" : "spotify:artist:4pKmKFXWNCqDM9OfGraSbx"
      } ],
      "disc_number" : 1,
      "duration_ms" : 243706,
      "explicit" : false,
      "external_ids" : {
        "isrc" : "USVPR9601015"
      },
      "external_urls" : {
        "spotify" : "https://open.spotify.com/track/7oZBLRmgWOGRXHoWh5m8kt"
      },
      "href" : "https://api.spotify.com/v1/tracks/7oZBLRmgWOGRXHoWh5m8kt",
      "id" : "7oZBLRmgWOGRXHoWh5m8kt",
      "is_local" : false,
      "is_playable" : true,
      "name" : "Showers Of Blessing",
      "popularity" : 15,
      "preview_url" : "https://p.scdn.co/mp3-preview/8f9e8d59b28d5251757c0ecf3c518a3f8b962318?cid=774b29d4f13844c495f206cafdad9c86",
      "track_number" : 12,
      "type" : "track",
      "uri" : "spotify:track:7oZBLRmgWOGRXHoWh5m8kt"
    }, {
      "album" : {
        "album_type" : "album",
        "artists" : [ {
          "external_urls" : {
            "spotify" : "https://open.spotify.com/artist/2oNxWsB010NqmSgc4Yvc2U"
          },
          "href" : "https://api.spotify.com/v1/artists/2oNxWsB010NqmSgc4Yvc2U",
          "id" : "2oNxWsB010NqmSgc4Yvc2U",
          "name" : "Doug Gazlay",
          "type" : "artist",
          "uri" : "spotify:artist:2oNxWsB010NqmSgc4Yvc2U"
        } ],
        "external_urls" : {
          "spotify" : "https://open.spotify.com/album/6l2WQzDEk7q8thjO1ha6YW"
        },
        "href" : "https://api.spotify.com/v1/albums/6l2WQzDEk7q8thjO1ha6YW",
        "id" : "6l2WQzDEk7q8thjO1ha6YW",
        "images" : [ {
          "height" : 640,
          "url" : "https://i.scdn.co/image/ab67616d0000b273fe8caa8105ad3111557ba8a6",
          "width" : 640
        }, {
          "height" : 300,
          "url" : "https://i.scdn.co/image/ab67616d00001e02fe8caa8105ad3111557ba8a6",
          "width" : 300
        }, {
          "height" : 64,
          "url" : "https://i.scdn.co/image/ab67616d00004851fe8caa8105ad3111557ba8a6",
          "width" : 64
        } ],
        "name" : "Just Piano Hymns 1",
        "release_date" : "2017-10-03",
        "release_date_precision" : "day",
        "total_tracks" : 11,
        "type" : "album",
        "uri" : "spotify:album:6l2WQzDEk7q8thjO1ha6YW"
      },
      "artists" : [ {
        "external_urls" : {
          "spotify" : "https://open.spotify.com/artist/2oNxWsB010NqmSgc4Yvc2U"
        },
        "href" : "https://api.spotify.com/v1/artists/2oNxWsB010NqmSgc4Yvc2U",
        "id" : "2oNxWsB010NqmSgc4Yvc2U",
        "name" : "Doug Gazlay",
        "type" : "artist",
        "uri" : "spotify:artist:2oNxWsB010NqmSgc4Yvc2U"
      } ],
      "disc_number" : 1,
      "duration_ms" : 125106,
      "explicit" : false,
      "external_ids" : {
        "isrc" : "ushm91729633"
      },
      "external_urls" : {
        "spotify" : "https://open.spotify.com/track/10e1a501JLPcPn9gQs9qMy"
      },
      "href" : "https://api.spotify.com/v1/tracks/10e1a501JLPcPn9gQs9qMy",
      "id" : "10e1a501JLPcPn9gQs9qMy",
      "is_local" : false,
      "is_playable" : true,
      "name" : "There Shall Be Showers of Blessing",
      "popularity" : 11,
      "preview_url" : "https://p.scdn.co/mp3-preview/6d3d5cced261e4f933c148225fd63644f66b7a94?cid=774b29d4f13844c495f206cafdad9c86",
      "track_number" : 8,
      "type" : "track",
      "uri" : "spotify:track:10e1a501JLPcPn9gQs9qMy"
    }, {
      "album" : {
        "album_type" : "compilation",
        "artists" : [ {
          "external_urls" : {
            "spotify" : "https://open.spotify.com/artist/3oUFArLfOA0CK6C2AD7LqU"
          },
          "href" : "https://api.spotify.com/v1/artists/3oUFArLfOA0CK6C2AD7LqU",
          "id" : "3oUFArLfOA0CK6C2AD7LqU",
          "name" : "Hymns You Love to Sing Performers",
          "type" : "artist",
          "uri" : "spotify:artist:3oUFArLfOA0CK6C2AD7LqU"
        } ],
        "external_urls" : {
          "spotify" : "https://open.spotify.com/album/00H1HrMUugGp4jNWZjSLtF"
        },
        "href" : "https://api.spotify.com/v1/albums/00H1HrMUugGp4jNWZjSLtF",
        "id" : "00H1HrMUugGp4jNWZjSLtF",
        "images" : [ {
          "height" : 640,
          "url" : "https://i.scdn.co/image/ab67616d0000b273eca0dc97418a9b164be3610d",
          "width" : 640
        }, {
          "height" : 300,
          "url" : "https://i.scdn.co/image/ab67616d00001e02eca0dc97418a9b164be3610d",
          "width" : 300
        }, {
          "height" : 64,
          "url" : "https://i.scdn.co/image/ab67616d00004851eca0dc97418a9b164be3610d",
          "width" : 64
        } ],
        "name" : "50 Contemporary Hymns You Love To Sing",
        "release_date" : "2012-01-01",
        "release_date_precision" : "day",
        "total_tracks" : 28,
        "type" : "album",
        "uri" : "spotify:album:00H1HrMUugGp4jNWZjSLtF"
      },
      "artists" : [ {
        "external_urls" : {
          "spotify" : "https://open.spotify.com/artist/3oUFArLfOA0CK6C2AD7LqU"
        },
        "href" : "https://api.spotify.com/v1/artists/3oUFArLfOA0CK6C2AD7LqU",
        "id" : "3oUFArLfOA0CK6C2AD7LqU",
        "name" : "Hymns You Love to Sing Performers",
        "type" : "artist",
        "uri" : "spotify:artist:3oUFArLfOA0CK6C2AD7LqU"
      } ],
      "disc_number" : 2,
      "duration_ms" : 468400,
      "explicit" : false,
      "external_ids" : {
        "isrc" : "USSW19649903"
      },
      "external_urls" : {
        "spotify" : "https://open.spotify.com/track/2sXjAuMnfxYw8BNYUgNylg"
      },
      "href" : "https://api.spotify.com/v1/tracks/2sXjAuMnfxYw8BNYUgNylg",
      "id" : "2sXjAuMnfxYw8BNYUgNylg",
      "is_local" : false,
      "is_playable" : true,
      "name" : "There Shall Be Showers Of Blessing / There's Power In The Blood / In The Sweet By And By / Revive Us Again / I Will Sing The Wondrous Story / I Stand Amazed (Medley)",
      "popularity" : 16,
      "preview_url" : null,
      "track_number" : 7,
      "type" : "track",
      "uri" : "spotify:track:2sXjAuMnfxYw8BNYUgNylg"
    }, {
      "album" : {
        "album_type" : "compilation",
        "artists" : [ {
          "external_urls" : {
            "spotify" : "https://open.spotify.com/artist/0LyfQWJT6nXafLPZqxe9Of"
          },
          "href" : "https://api.spotify.com/v1/artists/0LyfQWJT6nXafLPZqxe9Of",
          "id" : "0LyfQWJT6nXafLPZqxe9Of",
          "name" : "Various Artists",
          "type" : "artist",
          "uri" : "spotify:artist:0LyfQWJT6nXafLPZqxe9Of"
        } ],
        "external_urls" : {
          "spotify" : "https://open.spotify.com/album/5vfn0RZyGRvL707YcKGkrw"
        },
        "href" : "https://api.spotify.com/v1/albums/5vfn0RZyGRvL707YcKGkrw",
        "id" : "5vfn0RZyGRvL707YcKGkrw",
        "images" : [ {
          "height" : 640,
          "url" : "https://i.scdn.co/image/ab67616d0000b273648901c8253f65bd3e2ba198",
          "width" : 640
        }, {
          "height" : 300,
          "url" : "https://i.scdn.co/image/ab67616d00001e02648901c8253f65bd3e2ba198",
          "width" : 300
        }, {
          "height" : 64,
          "url" : "https://i.scdn.co/image/ab67616d00004851648901c8253f65bd3e2ba198",
          "width" : 64
        } ],
        "name" : "Gospel Hymn Sing",
        "release_date" : "2016-05-27",
        "release_date_precision" : "day",
        "total_tracks" : 18,
        "type" : "album",
        "uri" : "spotify:album:5vfn0RZyGRvL707YcKGkrw"
      },
      "artists" : [ {
        "external_urls" : {
          "spotify" : "https://open.spotify.com/artist/034QMJV19h9J9Ld64LIdB4"
        },
        "href" : "https://api.spotify.com/v1/artists/034QMJV19h9J9Ld64LIdB4",
        "id" : "034QMJV19h9J9Ld64LIdB4",
        "name" : "Gerald Wolfe",
        "type" : "artist",
        "uri" : "spotify:artist:034QMJV19h9J9Ld64LIdB4"
      } ],
      "disc_number" : 1,
      "duration_ms" : 135573,
      "explicit" : false,
      "external_ids" : {
        "isrc" : "US3U81600359"
      },
      "external_urls" : {
        "spotify" : "https://open.spotify.com/track/4yBHt7I8zAjkHXsWinwK97"
      },
      "href" : "https://api.spotify.com/v1/tracks/4yBHt7I8zAjkHXsWinwK97",
      "id" : "4yBHt7I8zAjkHXsWinwK97",
      "is_local" : false,
      "is_playable" : true,
      "name" : "There Shall Be Showers of Blessing",
      "popularity" : 11,
      "preview_url" : "https://p.scdn.co/mp3-preview/2e4bd65cff007038b623dc967b07906bb4619ff2?cid=774b29d4f13844c495f206cafdad9c86",
      "track_number" : 3,
      "type" : "track",
      "uri" : "spotify:track:4yBHt7I8zAjkHXsWinwK97"
    }, {
      "album" : {
        "album_type" : "album",
        "artists" : [ {
          "external_urls" : {
            "spotify" : "https://open.spotify.com/artist/6CkyBXEUTNVKtjuvpm4FrY"
          },
          "href" : "https://api.spotify.com/v1/artists/6CkyBXEUTNVKtjuvpm4FrY",
          "id" : "6CkyBXEUTNVKtjuvpm4FrY",
          "name" : "Gold City",
          "type" : "artist",
          "uri" : "spotify:artist:6CkyBXEUTNVKtjuvpm4FrY"
        } ],
        "external_urls" : {
          "spotify" : "https://open.spotify.com/album/5AjA9H7q0zaafTWJyNtxie"
        },
        "href" : "https://api.spotify.com/v1/albums/5AjA9H7q0zaafTWJyNtxie",
        "id" : "5AjA9H7q0zaafTWJyNtxie",
        "images" : [ {
          "height" : 640,
          "url" : "https://i.scdn.co/image/ab67616d0000b273962a92e068202ca3c1e26c1e",
          "width" : 640
        }, {
          "height" : 300,
          "url" : "https://i.scdn.co/image/ab67616d00001e02962a92e068202ca3c1e26c1e",
          "width" : 300
        }, {
          "height" : 64,
          "url" : "https://i.scdn.co/image/ab67616d00004851962a92e068202ca3c1e26c1e",
          "width" : 64
        } ],
        "name" : "Somebody's Coming",
        "release_date" : "2011-11-01",
        "release_date_precision" : "day",
        "total_tracks" : 10,
        "type" : "album",
        "uri" : "spotify:album:5AjA9H7q0zaafTWJyNtxie"
      },
      "artists" : [ {
        "external_urls" : {
          "spotify" : "https://open.spotify.com/artist/6CkyBXEUTNVKtjuvpm4FrY"
        },
        "href" : "https://api.spotify.com/v1/artists/6CkyBXEUTNVKtjuvpm4FrY",
        "id" : "6CkyBXEUTNVKtjuvpm4FrY",
        "name" : "Gold City",
        "type" : "artist",
        "uri" : "spotify:artist:6CkyBXEUTNVKtjuvpm4FrY"
      } ],
      "disc_number" : 1,
      "duration_ms" : 181292,
      "explicit" : false,
      "external_ids" : {
        "isrc" : "USA371471880"
      },
      "external_urls" : {
        "spotify" : "https://open.spotify.com/track/5vZH0gGy7m3vEQm9jr8Nz0"
      },
      "href" : "https://api.spotify.com/v1/tracks/5vZH0gGy7m3vEQm9jr8Nz0",
      "id" : "5vZH0gGy7m3vEQm9jr8Nz0",
      "is_local" : false,
      "is_playable" : true,
      "name" : "Showers of Blessings",
      "popularity" : 7,
      "preview_url" : "https://p.scdn.co/mp3-preview/0191365354a6e4752d71723feabc5e64019fbeb8?cid=774b29d4f13844c495f206cafdad9c86",
      "track_number" : 5,
      "type" : "track",
      "uri" : "spotify:track:5vZH0gGy7m3vEQm9jr8Nz0"
    }, {
      "album" : {
        "album_type" : "album",
        "artists" : [ {
          "external_urls" : {
            "spotify" : "https://open.spotify.com/artist/3FTXYrqf4LEqk2hY7OGPJ5"
          },
          "href" : "https://api.spotify.com/v1/artists/3FTXYrqf4LEqk2hY7OGPJ5",
          "id" : "3FTXYrqf4LEqk2hY7OGPJ5",
          "name" : "Yinka Ayefele",
          "type" : "artist",
          "uri" : "spotify:artist:3FTXYrqf4LEqk2hY7OGPJ5"
        } ],
        "external_urls" : {
          "spotify" : "https://open.spotify.com/album/0f5WTcGya3vjzDEIfAl3ct"
        },
        "href" : "https://api.spotify.com/v1/albums/0f5WTcGya3vjzDEIfAl3ct",
        "id" : "0f5WTcGya3vjzDEIfAl3ct",
        "images" : [ {
          "height" : 640,
          "url" : "https://i.scdn.co/image/ab67616d0000b273a0dd1073d464fde76df51236",
          "width" : 640
        }, {
          "height" : 300,
          "url" : "https://i.scdn.co/image/ab67616d00001e02a0dd1073d464fde76df51236",
          "width" : 300
        }, {
          "height" : 64,
          "url" : "https://i.scdn.co/image/ab67616d00004851a0dd1073d464fde76df51236",
          "width" : 64
        } ],
        "name" : "Devine Intervention",
        "release_date" : "2004-12-13",
        "release_date_precision" : "day",
        "total_tracks" : 5,
        "type" : "album",
        "uri" : "spotify:album:0f5WTcGya3vjzDEIfAl3ct"
      },
      "artists" : [ {
        "external_urls" : {
          "spotify" : "https://open.spotify.com/artist/3FTXYrqf4LEqk2hY7OGPJ5"
        },
        "href" : "https://api.spotify.com/v1/artists/3FTXYrqf4LEqk2hY7OGPJ5",
        "id" : "3FTXYrqf4LEqk2hY7OGPJ5",
        "name" : "Yinka Ayefele",
        "type" : "artist",
        "uri" : "spotify:artist:3FTXYrqf4LEqk2hY7OGPJ5"
      } ],
      "disc_number" : 1,
      "duration_ms" : 695573,
      "explicit" : false,
      "external_ids" : {
        "isrc" : "US3DF1716449"
      },
      "external_urls" : {
        "spotify" : "https://open.spotify.com/track/4Lha8eppYJe0zHjuqH3AjS"
      },
      "href" : "https://api.spotify.com/v1/tracks/4Lha8eppYJe0zHjuqH3AjS",
      "id" : "4Lha8eppYJe0zHjuqH3AjS",
      "is_local" : false,
      "is_playable" : true,
      "name" : "Showers Of Blessings",
      "popularity" : 10,
      "preview_url" : "https://p.scdn.co/mp3-preview/ebc532e364441e0b676da4895c212363b1fee1ee?cid=774b29d4f13844c495f206cafdad9c86",
      "track_number" : 4,
      "type" : "track",
      "uri" : "spotify:track:4Lha8eppYJe0zHjuqH3AjS"
    }, {
      "album" : {
        "album_type" : "album",
        "artists" : [ {
          "external_urls" : {
            "spotify" : "https://open.spotify.com/artist/3jiQ4t07tyKTNkbp25Znjn"
          },
          "href" : "https://api.spotify.com/v1/artists/3jiQ4t07tyKTNkbp25Znjn",
          "id" : "3jiQ4t07tyKTNkbp25Znjn",
          "name" : "The Joslin Grove Choral Society",
          "type" : "artist",
          "uri" : "spotify:artist:3jiQ4t07tyKTNkbp25Znjn"
        } ],
        "external_urls" : {
          "spotify" : "https://open.spotify.com/album/5bvmUfdWdgk3mrS6eLqKlJ"
        },
        "href" : "https://api.spotify.com/v1/albums/5bvmUfdWdgk3mrS6eLqKlJ",
        "id" : "5bvmUfdWdgk3mrS6eLqKlJ",
        "images" : [ {
          "height" : 640,
          "url" : "https://i.scdn.co/image/ab67616d0000b273f1afc3d0f52a97498b68d35c",
          "width" : 640
        }, {
          "height" : 300,
          "url" : "https://i.scdn.co/image/ab67616d00001e02f1afc3d0f52a97498b68d35c",
          "width" : 300
        }, {
          "height" : 64,
          "url" : "https://i.scdn.co/image/ab67616d00004851f1afc3d0f52a97498b68d35c",
          "width" : 64
        } ],
        "name" : "100 Best Loved Hymns",
        "release_date" : "2015-02-03",
        "release_date_precision" : "day",
        "total_tracks" : 100,
        "type" : "album",
        "uri" : "spotify:album:5bvmUfdWdgk3mrS6eLqKlJ"
      },
      "artists" : [ {
        "external_urls" : {
          "spotify" : "https://open.spotify.com/artist/3jiQ4t07tyKTNkbp25Znjn"
        },
        "href" : "https://api.spotify.com/v1/artists/3jiQ4t07tyKTNkbp25Znjn",
        "id" : "3jiQ4t07tyKTNkbp25Znjn",
        "name" : "The Joslin Grove Choral Society",
        "type" : "artist",
        "uri" : "spotify:artist:3jiQ4t07tyKTNkbp25Znjn"
      } ],
      "disc_number" : 1,
      "duration_ms" : 124965,
      "explicit" : false,
      "external_ids" : {
        "isrc" : "CA6GH1300140"
      },
      "external_urls" : {
        "spotify" : "https://open.spotify.com/track/1RAR1HzAlYnMdaxxWlPv1d"
      },
      "href" : "https://api.spotify.com/v1/tracks/1RAR1HzAlYnMdaxxWlPv1d",
      "id" : "1RAR1HzAlYnMdaxxWlPv1d",
      "is_local" : false,
      "is_playable" : true,
      "name" : "There Shall Be Showers of Blessings",
      "popularity" : 13,
      "preview_url" : "https://p.scdn.co/mp3-preview/d7f58fc2ec191a364048c02247d1197c2a1b7cde?cid=774b29d4f13844c495f206cafdad9c86",
      "track_number" : 31,
      "type" : "track",
      "uri" : "spotify:track:1RAR1HzAlYnMdaxxWlPv1d"
    }, {
      "album" : {
        "album_type" : "album",
        "artists" : [ {
          "external_urls" : {
            "spotify" : "https://open.spotify.com/artist/4kzKZExmgB0xijgF6blONc"
          },
          "href" : "https://api.spotify.com/v1/artists/4kzKZExmgB0xijgF6blONc",
          "id" : "4kzKZExmgB0xijgF6blONc",
          "name" : "David Huntsinger",
          "type" : "artist",
          "uri" : "spotify:artist:4kzKZExmgB0xijgF6blONc"
        } ],
        "external_urls" : {
          "spotify" : "https://open.spotify.com/album/2iak6SKoHXIGeIB68pr5sd"
        },
        "href" : "https://api.spotify.com/v1/albums/2iak6SKoHXIGeIB68pr5sd",
        "id" : "2iak6SKoHXIGeIB68pr5sd",
        "images" : [ {
          "height" : 640,
          "url" : "https://i.scdn.co/image/ab67616d0000b2736a28471ac3ce61920009f185",
          "width" : 640
        }, {
          "height" : 300,
          "url" : "https://i.scdn.co/image/ab67616d00001e026a28471ac3ce61920009f185",
          "width" : 300
        }, {
          "height" : 64,
          "url" : "https://i.scdn.co/image/ab67616d000048516a28471ac3ce61920009f185",
          "width" : 64
        } ],
        "name" : "Amazing Grace: Celtic Hymns & Blessings",
        "release_date" : "2011-04-20",
        "release_date_precision" : "day",
        "total_tracks" : 14,
        "type" : "album",
        "uri" : "spotify:album:2iak6SKoHXIGeIB68pr5sd"
      },
      "artists" : [ {
        "external_urls" : {
          "spotify" : "https://open.spotify.com/artist/4kzKZExmgB0xijgF6blONc"
        },
        "href" : "https://api.spotify.com/v1/artists/4kzKZExmgB0xijgF6blONc",
        "id" : "4kzKZExmgB0xijgF6blONc",
        "name" : "David Huntsinger",
        "type" : "artist",
        "uri" : "spotify:artist:4kzKZExmgB0xijgF6blONc"
      } ],
      "disc_number" : 1,
      "duration_ms" : 188040,
      "explicit" : false,
      "external_ids" : {
        "isrc" : "USLF50801400"
      },
      "external_urls" : {
        "spotify" : "https://open.spotify.com/track/50v8BfM7vlgkiQebjjU4vS"
      },
      "href" : "https://api.spotify.com/v1/tracks/50v8BfM7vlgkiQebjjU4vS",
      "id" : "50v8BfM7vlgkiQebjjU4vS",
      "is_local" : false,
      "is_playable" : true,
      "name" : "Showers of Blessing",
      "popularity" : 8,
      "preview_url" : "https://p.scdn.co/mp3-preview/b57bac8852ba3f4f2747fd2d0637435020bc5861?cid=774b29d4f13844c495f206cafdad9c86",
      "track_number" : 9,
      "type" : "track",
      "uri" : "spotify:track:50v8BfM7vlgkiQebjjU4vS"
    } ],
    "limit" : 10,
    "next" : "https://api.spotify.com/v1/search?query=Showers+of+Blessing&type=track&market=US&offset=15&limit=10",
    "offset" : 5,
    "previous" : "https://api.spotify.com/v1/search?query=Showers+of+Blessing&type=track&market=US&offset=0&limit=10",
    "total" : 310
  }
}