{
  "tracks" : {
    "href" : "https://api.spotify.com/v1/search?query=Break+Thou+the+Bread+of+Life&type=track&market=US&offset=5&limit=10",
    "items" : [ {
      "album" : {
        "album_type" : "compilation",
        "artists" : [ {
          "external_urls" : {
            "spotify" : "https://open.spotify.com/artist/3oUFArLfOA0CK6C2AD7LqU"
          },
          "href" : "https://api.spotify.com/v1/artists/3oUFArLfOA0CK6C2AD7LqU",
          "id" : "3oUFArLfOA0CK6C2AD7LqU",
          "name" : "Hymns You Love to Sing Performers",
          "type" : "artist",
          "uri" : "spotify:artist:3oUFArLfOA0CK6C2AD7LqU"
        } ],
        "external_urls" : {
          "spotify" : "https://open.spotify.com/album/00H1HrMUugGp4jNWZjSLtF"
        },
        "href" : "https://api.spotify.com/v1/albums/00H1HrMUugGp4jNWZjSLtF",
        "id" : "00H1HrMUugGp4jNWZjSLtF",
        "images" : [ {
          "height" : 640,
          "url" : "https://i.scdn.co/image/ab67616d0000b273eca0dc97418a9b164be3610d",
          "width" : 640
        }, {
          "height" : 300,
          "url" : "https://i.scdn.co/image/ab67616d00001e02eca0dc97418a9b164be3610d",
          "width" : 300
        }, {
          "height" : 64,
          "url" : "https://i.scdn.co/image/ab67616d00004851eca0dc97418a9b164be3610d",
          "width" : 64
        } ],
        "name" : "50 Contemporary Hymns You Love To Sing",
        "release_date" : "2012-01-01",
        "release_date_precision" : "day",
        "total_tracks" : 28,
        "type" : "album",
        "uri" : "spotify:album:00H1HrMUugGp4jNWZjSLtF"
      },
      "artists" : [ {
        "external_urls" : {
          "spotify" : "https://open.spotify.com/artist/3oUFArLfOA0CK6C2AD7LqU"
        },
        "href" : "https://api.spotify.com/v1/artists/3oUFArLfOA0CK6C2AD7LqU",
        "id" : "3oUFArLfOA0CK6C2AD7LqU",
        "name" : "Hymns You Love to Sing Performers",
        "type" : "artist",
        "uri" : "spotify:artist:3oUFArLfOA0CK6C2AD7LqU"
      } ],
      "disc_number" : 2,
      "duration_ms" : 688193,
      "explicit" : false,
      "external_ids" : {
        "isrc" : "USSW19649910"
      },
      "external_urls" : {
        "spotify" : "https://open.spotify.com/track/2hvCR6x8DiZOwRvP9gFb1l"
      },
      "href" : "https://api.spotify.com/v1/tracks/2hvCR6x8DiZOwRvP9gFb1l",
      "id" : "2hvCR6x8DiZOwRvP9gFb1l",
      "is_local" : false,
      "is_playable" : true,
      "name" : "I Must Tell Jesus / I Need Thee Every Hour / Jesus The Very Thought Of Thee / Break Thou The Bread Of Life / I Am Thine O Lord / Near The Cross / Hallelujah What A Savior (Medley)",
      "popularity" : 8,
      "preview_url" : null,
      "track_number" : 14,
      "type" : "track",
      "uri" : "spotify:track:2hvCR6x8DiZOwRvP9gFb1l"
    }, {
      "album" : {
        "album_type" : "album",
        "artists" : [ {
          "external_urls" : {
            "spotify" : "https://open.spotify.com/artist/41hCpLaR1bEW5ETK3aPvDB"
          },
          "href" : "https://api.spotify.com/v1/artists/41hCpLaR1bEW5ETK3aPvDB",
          "id" : "41hCpLaR1bEW5ETK3aPvDB",
          "name" : "The Eden Symphony Orchestra",
          "type" : "artist",
          "uri" : "spotify:artist:41hCpLaR1bEW5ETK3aPvDB"
        } ],
        "external_urls" : {
          "spotify" : "https://open.spotify.com/album/5m4iskq3Td5ucTnmdRtNjv"
        },
        "href" : "https://api.spotify.com/v1/albums/5m4iskq3Td5ucTnmdRtNjv",
        "id" : "5m4iskq3Td5ucTnmdRtNjv",
        "images" : [ {
          "height" : 640,
          "url" : "https://i.scdn.co/image/ab67616d0000b2737f6436350ddc3a2f05de24b4",
          "width" : 640
        }, {
          "height" : 300,
          "url" : "https://i.scdn.co/image/ab67616d00001e027f6436350ddc3a2f05de24b4",
          "width" : 300
        }, {
          "height" : 64,
          "url" : "https://i.scdn.co/image/ab67616d000048517f6436350ddc3a2f05de24b4",
          "width" : 64
        } ],
        "name" : "100 Greatest Hymns Volume 1",
        "release_date" : "2009-01-01",
        "release_date_precision" : "day",
        "total_tracks" : 25,
        "type" : "album",
        "uri" : "spotify:album:5m4iskq3Td5ucTnmdRtNjv"
      },
      "artists" : [ {
        "external_urls" : {
          "spotify" : "https://open.spotify.com/artist/41hCpLaR1bEW5ETK3aPvDB"
        },
        "href" : "https://api.spotify.com/v1/artists/41hCpLaR1bEW5ETK3aPvDB",
        "id" : "41hCpLaR1bEW5ETK3aPvDB",
        "name" : "The Eden Symphony Orchestra",
        "type" : "artist",
        "uri" : "spotify:artist:41hCpLaR1bEW5ETK3aPvDB"
      } ],
      "disc_number" : 1,
      "duration_ms" : 164133,
      "explicit" : false,
      "external_ids" : {
        "isrc" : "GBCEU0996115"
      },
      "external_urls" : {
        "spotify" : "https://open.spotify.com/track/1RtT4N3jOS5fGNexEheX6q"
      },
      "href" : "https://api.spotify.com/v1/tracks/1RtT4N3jOS5fGNexEheX6q",
      "id" : "1RtT4N3jOS5fGNexEheX6q",
      "is_local" : false,
      "is_playable" : true,
      "name" : "Break Thou The Bread Of Life",
      "popularity" : 4,
      "preview_url" : "https://p.scdn.co/mp3-preview/e00aebda35db0913addf894c06e841e0ec7a2fc3?cid=774b29d4f13844c495f206cafdad9c86",
      "track_number" : 15,
      "type" : "track",
      "uri" : "spotify:track:1RtT4N3jOS5fGNexEheX6q"
    }, {
      "album" : {
        "album_type" : "album",
        "artists" : [ {
          "external_urls" : {
            "spotify" : "https://open.spotify.com/artist/27HpKO5tx7PUZdRRhfBAD7"
          },
          "href" : "https://api.spotify.com/v1/artists/27HpKO5tx7PUZdRRhfBAD7",
          "id" : "27HpKO5tx7PUZdRRhfBAD7",
          "name" : "Lullaby & Prenatal Band",
          "type" : "artist",
          "uri" : "spotify:artist:27HpKO5tx7PUZdRRhfBAD7"
        } ],
        "external_urls" : {
          "spotify" : "https://open.spotify.com/album/4JLiD1ohCmWPa4KwZosHA9"
        },
        "href" : "https://api.spotify.com/v1/albums/4JLiD1ohCmWPa4KwZosHA9",
        "id" : "4JLiD1ohCmWPa4KwZosHA9",
        "images" : [ {
          "height" : 640,
          "url" : "https://i.scdn.co/image/ab67616d0000b2737b1e7b48e6864ef368e10a11",
          "width" : 640
        }, {
          "height" : 300,
          "url" : "https://i.scdn.co/image/ab67616d00001e027b1e7b48e6864ef368e10a11",
          "width" : 300
        }, {
          "height" : 64,
          "url" : "https://i.scdn.co/image/ab67616d000048517b1e7b48e6864ef368e10a11",
          "width" : 64
        } ],
        "name" : "Lullaby Hymn for My Baby with Orgel, Collection",
        "release_date" : "2017-09-12",
        "release_date_precision" : "day",
        "total_tracks" : 28,
        "type" : "album",
        "uri" : "spotify:album:4JLiD1ohCmWPa4KwZosHA9"
      },
      "artists" : [ {
        "external_urls" : {
          "spotify" : "https://open.spotify.com/artist/27HpKO5tx7PUZdRRhfBAD7"
        },
        "href" : "https://api.spotify.com/v1/artists/27HpKO5tx7PUZdRRhfBAD7",
        "id" : "27HpKO5tx7PUZdRRhfBAD7",
        "name" : "Lullaby & Prenatal Band",
        "type" : "artist",
        "uri" : "spotify:artist:27HpKO5tx7PUZdRRhfBAD7"
      } ],
      "disc_number" : 1,
      "duration_ms" : 153051,
      "explicit" : false,
      "external_ids" : {
        "isrc" : "KRB921702760"
      },
      "external_urls" : {
        "spotify" : "https://open.spotify.com/track/5BieJ14wjr8hKpGpw8qvL7"
      },
      "href" : "https://api.spotify.com/v1/tracks/5BieJ14wjr8hKpGpw8qvL7",
      "id" : "5BieJ14wjr8hKpGpw8qvL7",
      "is_local" : false,
      "is_playable" : true,
      "name" : "Break Thou the Bread of Life",
      "popularity" : 6,
      "preview_url" : "https://p.scdn.co/mp3-preview/dc8a25079e794da9dc43049135acd38ac60cf53b?cid=774b29d4f13844c495f206cafdad9c86",
      "track_number" : 19,
      "type" : "track",
      "uri" : "spotify:track:5BieJ14wjr8hKpGpw8qvL7"
    }, {
      "album" : {
        "album_type" : "album",
        "artists" : [ {
          "external_urls" : {
            "spotify" : "https://open.spotify.com/artist/1CXJCTEydreEd8lJwTpgnN"
          },
          "href" : "https://api.spotify.com/v1/artists/1CXJCTEydreEd8lJwTpgnN",
          "id" : "1CXJCTEydreEd8lJwTpgnN",
          "name" : "John Troutman",
          "type" : "artist",
          "uri" : "spotify:artist:1CXJCTEydreEd8lJwTpgnN"
        } ],
        "external_urls" : {
          "spotify" : "https://open.spotify.com/album/0cC3zvXOsNHyCBbYaW8zJ6"
        },
        "href" : "https://api.spotify.com/v1/albums/0cC3zvXOsNHyCBbYaW8zJ6",
        "id" : "0cC3zvXOsNHyCBbYaW8zJ6",
        "images" : [ {
          "height" : 640,
          "url" : "https://i.scdn.co/image/ab67616d0000b27364280eb9d8282c25b5714c1e",
          "width" : 640
        }, {
          "height" : 300,
          "url" : "https://i.scdn.co/image/ab67616d00001e0264280eb9d8282c25b5714c1e",
          "width" : 300
        }, {
          "height" : 64,
          "url" : "https://i.scdn.co/image/ab67616d0000485164280eb9d8282c25b5714c1e",
          "width" : 64
        } ],
        "name" : "51 Instrumental Hymns",
        "release_date" : "2015-04-30",
        "release_date_precision" : "day",
        "total_tracks" : 51,
        "type" : "album",
        "uri" : "spotify:album:0cC3zvXOsNHyCBbYaW8zJ6"
      },
      "artists" : [ {
        "external_urls" : {
          "spotify" : "https://open.spotify.com/artist/1CXJCTEydreEd8lJwTpgnN"
        },
        "href" : "https://api.spotify.com/v1/artists/1CXJCTEydreEd8lJwTpgnN",
        "id" : "1CXJCTEydreEd8lJwTpgnN",
        "name" : "John Troutman",
        "type" : "artist",
        "uri" : "spotify:artist:1CXJCTEydreEd8lJwTpgnN"
      } ],
      "disc_number" : 1,
      "duration_ms" : 104404,
      "explicit" : false,
      "external_ids" : {
        "isrc" : "TCACF1560259"
      },
      "external_urls" : {
        "spotify" : "https://open.spotify.com/track/6N4Qj8eCxqoto1gyMSrnVf"
      },
      "href" : "https://api.spotify.com/v1/tracks/6N4Qj8eCxqoto1gyMSrnVf",
      "id" : "6N4Qj8eCxqoto1gyMSrnVf",
      "is_local" : false,
      "is_playable" : true,
      "name" : "Break Thou the Bread of Life",
      "popularity" : 4,
      "preview_url" : "https://p.scdn.co/mp3-preview/93556c5197e2f74ae69ee294fa250a20544ca0e1?cid=774b29d4f13844c495f206cafdad9c86",
      "track_number" : 36,
      "type" : "track",
      "uri" : "spotify:track:6N4Qj8eCxqoto1gyMSrnVf"
    }, {
      "album" : {
        "album_type" : "album",
        "artists" : [ {
          "external_urls" : {
            "spotify" : "https://open.spotify.com/artist/5bRMwV4TfltR1AR4VsQ4eR"
          },
          "href" : "https://api.spotify.com/v1/artists/5bRMwV4TfltR1AR4VsQ4eR",
          "id" : "5bRMwV4TfltR1AR4VsQ4eR",
          "name" : "The Abilene Christian University Alumni Chorus",
          "type" : "artist",
          "uri" : "spotify:artist:5bRMwV4TfltR1AR4VsQ4eR"
        } ],
        "external_urls" : {
          "spotify" : "https://open.spotify.com/album/7kzhj4PiD8qvCXF7NaXnd7"
        },
        "href" : "https://api.spotify.com/v1/albums/7kzhj4PiD8qvCXF7NaXnd7",
        "id" : "7kzhj4PiD8qvCXF7NaXnd7",
        "images" : [ {
          "height" : 640,
          "url" : "https://i.scdn.co/image/ab67616d0000b273f147d315f5dcc1161cd018ee",
          "width" : 640
        }, {
          "height" : 300,
          "url" : "https://i.scdn.co/image/ab67616d00001e02f147d315f5dcc1161cd018ee",
          "width" : 300
        }, {
          "height" : 64,
          "url" : "https://i.scdn.co/image/ab67616d00004851f147d315f5dcc1161cd018ee",
          "width" : 64
        } ],
        "name" : "Come, Ye Thankful People, Come",
        "release_date" : "2008-01-01",
        "release_date_precision" : "day",
        "total_tracks" : 25,
        "type" : "album",
        "uri" : "spotify:album:7kzhj4PiD8qvCXF7NaXnd7"
      },
      "artists" : [ {
        "external_urls" : {
          "spotify" : "https://open.spotify.com/artist/5bRMwV4TfltR1AR4VsQ4eR"
        },
        "href" : "https://api.spotify.com/v1/artists/5bRMwV4TfltR1AR4VsQ4eR",
        "id" : "5bRMwV4TfltR1AR4VsQ4eR",
        "name" : "The Abilene Christian University Alumni Chorus",
        "type" : "artist",
        "uri" : "spotify:artist:5bRMwV4TfltR1AR4VsQ4eR"
      } ],
      "disc_number" : 1,
      "duration_ms" : 101440,
      "explicit" : false,
      "external_ids" : {
        "isrc" : "usy280713495"
      },
      "external_urls" : {
        "spotify" : "https://open.spotify.com/track/32u7u5sr4MKInluOzlMhE1"
      },
      "href" : "https://api.spotify.com/v1/tracks/32u7u5sr4MKInluOzlMhE1",
      "id" : "32u7u5sr4MKInluOzlMhE1",
      "is_local" : false,
      "is_playable" : true,
      "name" : "Break Thou The Bread Of Life",
      "popularity" : 0,
      "preview_url" : "https://p.scdn.co/mp3-preview/b2c5201985fb844203220a776b95e290fd15f37b?cid=774b29d4f13844c495f206cafdad9c86",
      "track_number" : 22,
      "type" : "track",
      "uri" : "spotify:track:32u7u5sr4MKInluOzlMhE1"
    }, {
      "album" : {
        "album_type" : "album",
        "artists" : [ {
          "external_urls" : {
            "spotify" : "https://open.spotify.com/artist/5ulhxex8OfCL5oji1V95aQ"
          },
          "href" : "https://api.spotify.com/v1/artists/5ulhxex8OfCL5oji1V95aQ",
          "id" : "5ulhxex8OfCL5oji1V95aQ",
          "name" : "Worship Service Resources",
          "type" : "artist",
          "uri" : "spotify:artist:5ulhxex8OfCL5oji1V95aQ"
        } ],
        "external_urls" : {
          "spotify" : "https://open.spotify.com/album/5OPfXyZVVBIiTkcoCVsLgl"
        },
        "href" : "https://api.spotify.com/v1/albums/5OPfXyZVVBIiTkcoCVsLgl",
        "id" : "5OPfXyZVVBIiTkcoCVsLgl",
        "images" : [ {
          "height" : 640,
          "url" : "https://i.scdn.co/image/ab67616d0000b2733631b5ad2a2aa0741d8da4eb",
          "width" : 640
        }, {
          "height" : 300,
          "url" : "https://i.scdn.co/image/ab67616d00001e023631b5ad2a2aa0741d8da4eb",
          "width" : 300
        }, {
          "height" : 64,
          "url" : "https://i.scdn.co/image/ab67616d000048513631b5ad2a2aa0741d8da4eb",
          "width" : 64
        } ],
        "name" : "25 Inspirational Hymns: Volume II",
        "release_date" : "2011",
        "release_date_precision" : "year",
        "total_tracks" : 25,
        "type" : "album",
        "uri" : "spotify:album:5OPfXyZVVBIiTkcoCVsLgl"
      },
      "artists" : [ {
        "external_urls" : {
          "spotify" : "https://open.spotify.com/artist/5ulhxex8OfCL5oji1V95aQ"
        },
        "href" : "https://api.spotify.com/v1/artists/5ulhxex8OfCL5oji1V95aQ",
        "id" : "5ulhxex8OfCL5oji1V95aQ",
        "name" : "Worship Service Resources",
        "type" : "artist",
        "uri" : "spotify:artist:5ulhxex8OfCL5oji1V95aQ"
      } ],
      "disc_number" : 1,
      "duration_ms" : 133986,
      "explicit" : false,
      "external_ids" : {
        "isrc" : "US79N1200087"
      },
      "external_urls" : {
        "spotify" : "https://open.spotify.com/track/4qawQBQMNXQxSu7JzNope4"
      },
      "href" : "https://api.spotify.com/v1/tracks/4qawQBQMNXQxSu7JzNope4",
      "id" : "4qawQBQMNXQxSu7JzNope4",
      "is_local" : false,
      "is_playable" : true,
      "name" : "Break Thou The Bread Of Life",
      "popularity" : 1,
      "preview_url" : "https://p.scdn.co/mp3-preview/173476c45e5b13b124f0e779d5512961ae972cd4?cid=774b29d4f13844c495f206cafdad9c86",
      "track_number" : 4,
      "type" : "track",
      "uri" : "spotify:track:4qawQBQMNXQxSu7JzNope4"
    }, {
      "album" : {
        "album_type" : "album",
        "artists" : [ {
          "external_urls" : {
            "spotify" : "https://open.spotify.com/artist/20rlbkwNSoLrLqQUR7GRcT"
          },
          "href" : "https://api.spotify.com/v1/artists/20rlbkwNSoLrLqQUR7GRcT",
          "id" : "20rlbkwNSoLrLqQUR7GRcT",
          "name" : "Mother’s Lullaby",
          "type" : "artist",
          "uri" : "spotify:artist:20rlbkwNSoLrLqQUR7GRcT"
        } ],
        "external_urls" : {
          "spotify" : "https://open.spotify.com/album/60nqL8eWiwSGJWOSKfz7cl"
        },
        "href" : "https://api.spotify.com/v1/albums/60nqL8eWiwSGJWOSKfz7cl",
        "id" : "60nqL8eWiwSGJWOSKfz7cl",
        "images" : [ {
          "height" : 640,
          "url" : "https://i.scdn.co/image/ab67616d0000b2734020cee22cee5c13a443380f",
          "width" : 640
        }, {
          "height" : 300,
          "url" : "https://i.scdn.co/image/ab67616d00001e024020cee22cee5c13a443380f",
          "width" : 300
        }, {
          "height" : 64,
          "url" : "https://i.scdn.co/image/ab67616d000048514020cee22cee5c13a443380f",
          "width" : 64
        } ],
        "name" : "Hymns Vol.15 (#281~#300)",
        "release_date" : "2019-06-11",
        "release_date_precision" : "day",
        "total_tracks" : 20,
        "type" : "album",
        "uri" : "spotify:album:60nqL8eWiwSGJWOSKfz7cl"
      },
      "artists" : [ {
        "external_urls" : {
          "spotify" : "https://open.spotify.com/artist/20rlbkwNSoLrLqQUR7GRcT"
        },
        "href" : "https://api.spotify.com/v1/artists/20rlbkwNSoLrLqQUR7GRcT",
        "id" : "20rlbkwNSoLrLqQUR7GRcT",
        "name" : "Mother’s Lullaby",
        "type" : "artist",
        "uri" : "spotify:artist:20rlbkwNSoLrLqQUR7GRcT"
      } ],
      "disc_number" : 1,
      "duration_ms" : 192391,
      "explicit" : false,
      "external_ids" : {
        "isrc" : "QZEKE1865265"
      },
      "external_urls" : {
        "spotify" : "https://open.spotify.com/track/5ODgpzCOeQUvdxVMrTaUix"
      },
      "href" : "https://api.spotify.com/v1/tracks/5ODgpzCOeQUvdxVMrTaUix",
      "id" : "5ODgpzCOeQUvdxVMrTaUix",
      "is_local" : false,
      "is_playable" : true,
      "name" : "Break Thou the Bread of Life",
      "popularity" : 0,
      "preview_url" : "https://p.scdn.co/mp3-preview/e505b08617465470f57a580bf957ffce4a785887?cid=774b29d4f13844c495f206cafdad9c86",
      "track_number" : 4,
      "type" : "track",
      "uri" : "spotify:track:5ODgpzCOeQUvdxVMrTaUix"
    }, {
      "album" : {
        "album_type" : "album",
        "artists" : [ {
          "external_urls" : {
            "spotify" : "https://open.spotify.com/artist/7e5FnZKAA5Oe5NW4SE0E7C"
          },
          "href" : "https://api.spotify.com/v1/artists/7e5FnZKAA5Oe5NW4SE0E7C",
          "id" : "7e5FnZKAA5Oe5NW4SE0E7C",
          "name" : "Ron",
          "type" : "artist",
          "uri" : "spotify:artist:7e5FnZKAA5Oe5NW4SE0E7C"
        }, {
          "external_urls" : {
            "spotify" : "https://open.spotify.com/artist/3gH4r9j8ls0WRJ8iBqQ1tM"
          },
          "href" : "https://api.spotify.com/v1/artists/3gH4r9j8ls0WRJ8iBqQ1tM",
          "id" : "3gH4r9j8ls0WRJ8iBqQ1tM",
          "name" : "Kelly",
          "type" : "artist",
          "uri" : "spotify:artist:3gH4r9j8ls0WRJ8iBqQ1tM"
        } ],
        "external_urls" : {
          "spotify" : "https://open.spotify.com/album/6fCveW4aXlvF2qHSiU0o9F"
        },
        "href" : "https://api.spotify.com/v1/albums/6fCveW4aXlvF2qHSiU0o9F",
        "id" : "6fCveW4aXlvF2qHSiU0o9F",
        "images" : [ {
          "height" : 640,
          "url" : "https://i.scdn.co/image/ab67616d0000b2730cc68e12542dd8b43e6672de",
          "width" : 640
        }, {
          "height" : 300,
          "url" : "https://i.scdn.co/image/ab67616d00001e020cc68e12542dd8b43e6672de",
          "width" : 300
        }, {
          "height" : 64,
          "url" : "https://i.scdn.co/image/ab67616d000048510cc68e12542dd8b43e6672de",
          "width" : 64
        } ],
        "name" : "Vision of the Ages",
        "release_date" : "2014-09-23",
        "release_date_precision" : "day",
        "total_tracks" : 10,
        "type" : "album",
        "uri" : "spotify:album:6fCveW4aXlvF2qHSiU0o9F"
      },
      "artists" : [ {
        "external_urls" : {
          "spotify" : "https://open.spotify.com/artist/0hcmNZZbnUj9j0hhS6l4Nj"
        },
        "href" : "https://api.spotify.com/v1/artists/0hcmNZZbnUj9j0hhS6l4Nj",
        "id" : "0hcmNZZbnUj9j0hhS6l4Nj",
        "name" : "Ron and Kelly",
        "type" : "artist",
        "uri" : "spotify:artist:0hcmNZZbnUj9j0hhS6l4Nj"
      } ],
      "disc_number" : 1,
      "duration_ms" : 143894,
      "explicit" : false,
      "external_ids" : {
        "isrc" : "USV291471198"
      },
      "external_urls" : {
        "spotify" : "https://open.spotify.com/track/78lDmYN4SDxyBUZWFGbVph"
      },
      "href" : "https://api.spotify.com/v1/tracks/78lDmYN4SDxyBUZWFGbVph",
      "id" : "78lDmYN4SDxyBUZWFGbVph",
      "is_local" : false,
      "is_playable" : true,
      "name" : "Break Thou the Bread of Life",
      "popularity" : 0,
      "preview_url" : "https://p.scdn.co/mp3-preview/810026341c4ffbf46e9234f17717e5d843e3e961?cid=774b29d4f13844c495f206cafdad9c86",
      "track_number" : 8,
      "type" : "track",
      "uri" : "spotify:track:78lDmYN4SDxyBUZWFGbVph"
    }, {
      "album" : {
        "album_type" : "album",
        "artists" : [ {
          "external_urls" : {
            "spotify" : "https://open.spotify.com/artist/5zkmOYaXiNHBKxKnnd1rvl"
          },
          "href" : "https://api.spotify.com/v1/artists/5zkmOYaXiNHBKxKnnd1rvl",
          "id" : "5zkmOYaXiNHBKxKnnd1rvl",
          "name" : "John Keys",
          "type" : "artist",
          "uri" : "spotify:artist:5zkmOYaXiNHBKxKnnd1rvl"
        } ],
        "external_urls" : {
          "spotify" : "https://open.spotify.com/album/0Ebae5GkqNhzVwUJqLv4Yn"
        },
        "href" : "https://api.spotify.com/v1/albums/0Ebae5GkqNhzVwUJqLv4Yn",
        "id" : "0Ebae5GkqNhzVwUJqLv4Yn",
        "images" : [ {
          "height" : 640,
          "url" : "https://i.scdn.co/image/ab67616d0000b27305b54c465a6f532353aea8bc",
          "width" : 640
        }, {
          "height" : 300,
          "url" : "https://i.scdn.co/image/ab67616d00001e0205b54c465a6f532353aea8bc",
          "width" : 300
        }, {
          "height" : 64,
          "url" : "https://i.scdn.co/image/ab67616d0000485105b54c465a6f532353aea8bc",
          "width" : 64
        } ],
        "name" : "Seventh Day Adventist Hymns, Vol. 1 (Organ Accompaniments)",
        "release_date" : "2008-09-02",
        "release_date_precision" : "day",
        "total_tracks" : 23,
        "type" : "album",
        "uri" : "spotify:album:0Ebae5GkqNhzVwUJqLv4Yn"
      },
      "artists" : [ {
        "external_urls" : {
          "spotify" : "https://open.spotify.com/artist/5zkmOYaXiNHBKxKnnd1rvl"
        },
        "href" : "https://api.spotify.com/v1/artists/5zkmOYaXiNHBKxKnnd1rvl",
        "id" : "5zkmOYaXiNHBKxKnnd1rvl",
        "name" : "John Keys",
        "type" : "artist",
        "uri" : "spotify:artist:5zkmOYaXiNHBKxKnnd1rvl"
      } ],
      "disc_number" : 1,
      "duration_ms" : 144003,
      "explicit" : false,
      "external_ids" : {
        "isrc" : "GBKPL1262535"
      },
      "external_urls" : {
        "spotify" : "https://open.spotify.com/track/7yAEXhBdvrIRr2ugcJIgFQ"
      },
      "href" : "https://api.spotify.com/v1/tracks/7yAEXhBdvrIRr2ugcJIgFQ",
      "id" : "7yAEXhBdvrIRr2ugcJIgFQ",
      "is_local" : false,
      "is_playable" : true,
      "name" : "Break Thou the Bread of Life (Bread of Life) [Instrumental Version]",
      "popularity" : 2,
      "preview_url" : "https://p.scdn.co/mp3-preview/cec315d7939f1a1081e7b51230169aa6f47e6204?cid=774b29d4f13844c495f206cafdad9c86",
      "track_number" : 2,
      "type" : "track",
      "uri" : "spotify:track:7yAEXhBdvrIRr2ugcJIgFQ"
    }, {
      "album" : {
        "album_type" : "album",
        "artists" : [ {
          "external_urls" : {
            "spotify" : "https://open.spotify.com/artist/0SMQbY8l9Mph9d8NLv92oh"
          },
          "href" : "https://api.spotify.com/v1/artists/0SMQbY8l9Mph9d8NLv92oh",
          "id" : "0SMQbY8l9Mph9d8NLv92oh",
          "name" : "RiNG-O choir",
          "type" : "artist",
          "uri" : "spotify:artist:0SMQbY8l9Mph9d8NLv92oh"
        } ],
        "external_urls" : {
          "spotify" : "https://open.spotify.com/album/469N96QwPfgWEFg6eYOy5e"
        },
        "href" : "https://api.spotify.com/v1/albums/469N96QwPfgWEFg6eYOy5e",
        "id" : "469N96QwPfgWEFg6eYOy5e",
        "images" : [ {
          "height" : 640,
          "url" : "https://i.scdn.co/image/ab67616d0000b27388113fa086ad0472cd7ed3e0",
          "width" : 640
        }, {
          "height" : 300,
          "url" : "https://i.scdn.co/image/ab67616d00001e0288113fa086ad0472cd7ed3e0",
          "width" : 300
        }, {
          "height" : 64,
          "url" : "https://i.scdn.co/image/ab67616d0000485188113fa086ad0472cd7ed3e0",
          "width" : 64
        } ],
        "name" : "Beautiful Hymn Melodies vol.3",
        "release_date" : "2016-03-01",
        "release_date_precision" : "day",
        "total_tracks" : 11,
        "type" : "album",
        "uri" : "spotify:album:469N96QwPfgWEFg6eYOy5e"
      },
      "artists" : [ {
        "external_urls" : {
          "spotify" : "https://open.spotify.com/artist/0SMQbY8l9Mph9d8NLv92oh"
        },
        "href" : "https://api.spotify.com/v1/artists/0SMQbY8l9Mph9d8NLv92oh",
        "id" : "0SMQbY8l9Mph9d8NLv92oh",
        "name" : "RiNG-O choir",
        "type" : "artist",
        "uri" : "spotify:artist:0SMQbY8l9Mph9d8NLv92oh"
      } ],
      "disc_number" : 1,
      "duration_ms" : 50308,
      "explicit" : false,
      "external_ids" : {
        "isrc" : "TCJPE1644227"
      },
      "external_urls" : {
        "spotify" : "https://open.spotify.com/track/0WWJ44UeOeNCnEwVuwPrY9"
      },
      "href" : "https://api.spotify.com/v1/tracks/0WWJ44UeOeNCnEwVuwPrY9",
      "id" : "0WWJ44UeOeNCnEwVuwPrY9",
      "is_local" : false,
      "is_playable" : true,
      "name" : "Break Thou the Bread of Life",
      "popularity" : 0,
      "preview_url" : "https://p.scdn.co/mp3-preview/adde91a1583d38960ebb0ca96d795f0237895123?cid=774b29d4f13844c495f206cafdad9c86",
      "track_number" : 7,
      "type" : "track",
      "uri" : "spotify:track:0WWJ44UeOeNCnEwVuwPrY9"
    } ],
    "limit" : 10,
    "next" : "https://api.spotify.com/v1/search?query=Break+Thou+the+Bread+of+Life&type=track&market=US&offset=15&limit=10",
    "offset" : 5,
    "previous" : "https://api.spotify.com/v1/search?query=Break+Thou+the+Bread+of+Life&type=track&market=US&offset=0&limit=10",
    "total" : 59
  }
}