{
  "tracks" : {
    "href" : "https://api.spotify.com/v1/search?query=I%E2%80%99ll+Go+Where+You+Want+Me+to+Go&type=track&market=US&offset=5&limit=10",
    "items" : [ {
      "album" : {
        "album_type" : "album",
        "artists" : [ {
          "external_urls" : {
            "spotify" : "https://open.spotify.com/artist/52QyVRbjUEr2G9cY2kv0OS"
          },
          "href" : "https://api.spotify.com/v1/artists/52QyVRbjUEr2G9cY2kv0OS",
          "id" : "52QyVRbjUEr2G9cY2kv0OS",
          "name" : "BYU Men's Chorus",
          "type" : "artist",
          "uri" : "spotify:artist:52QyVRbjUEr2G9cY2kv0OS"
        }, {
          "external_urls" : {
            "spotify" : "https://open.spotify.com/artist/5sNOPqb16QDnvdyyit12c4"
          },
          "href" : "https://api.spotify.com/v1/artists/5sNOPqb16QDnvdyyit12c4",
          "id" : "5sNOPqb16QDnvdyyit12c4",
          "name" : "Rosalind Hall",
          "type" : "artist",
          "uri" : "spotify:artist:5sNOPqb16QDnvdyyit12c4"
        } ],
        "external_urls" : {
          "spotify" : "https://open.spotify.com/album/3oP3Kf0TlYq9zA6IvfctKy"
        },
        "href" : "https://api.spotify.com/v1/albums/3oP3Kf0TlYq9zA6IvfctKy",
        "id" : "3oP3Kf0TlYq9zA6IvfctKy",
        "images" : [ {
          "height" : 640,
          "url" : "https://i.scdn.co/image/ab67616d0000b273d90081d62107d5c531dd7cad",
          "width" : 640
        }, {
          "height" : 300,
          "url" : "https://i.scdn.co/image/ab67616d00001e02d90081d62107d5c531dd7cad",
          "width" : 300
        }, {
          "height" : 64,
          "url" : "https://i.scdn.co/image/ab67616d00004851d90081d62107d5c531dd7cad",
          "width" : 64
        } ],
        "name" : "Set Apart: Beloved Missionary Hymns",
        "release_date" : "2018-10-26",
        "release_date_precision" : "day",
        "total_tracks" : 13,
        "type" : "album",
        "uri" : "spotify:album:3oP3Kf0TlYq9zA6IvfctKy"
      },
      "artists" : [ {
        "external_urls" : {
          "spotify" : "https://open.spotify.com/artist/22i3J8ULqCpOOSrjh5hsSE"
        },
        "href" : "https://api.spotify.com/v1/artists/22i3J8ULqCpOOSrjh5hsSE",
        "id" : "22i3J8ULqCpOOSrjh5hsSE",
        "name" : "Carrie E. Rounsefell",
        "type" : "artist",
        "uri" : "spotify:artist:22i3J8ULqCpOOSrjh5hsSE"
      }, {
        "external_urls" : {
          "spotify" : "https://open.spotify.com/artist/52QyVRbjUEr2G9cY2kv0OS"
        },
        "href" : "https://api.spotify.com/v1/artists/52QyVRbjUEr2G9cY2kv0OS",
        "id" : "52QyVRbjUEr2G9cY2kv0OS",
        "name" : "BYU Men's Chorus",
        "type" : "artist",
        "uri" : "spotify:artist:52QyVRbjUEr2G9cY2kv0OS"
      }, {
        "external_urls" : {
          "spotify" : "https://open.spotify.com/artist/55FPu65Oy7d28TZgp25r4R"
        },
        "href" : "https://api.spotify.com/v1/artists/55FPu65Oy7d28TZgp25r4R",
        "id" : "55FPu65Oy7d28TZgp25r4R",
        "name" : "Stephanie Maynes",
        "type" : "artist",
        "uri" : "spotify:artist:55FPu65Oy7d28TZgp25r4R"
      }, {
        "external_urls" : {
          "spotify" : "https://open.spotify.com/artist/5dyWLkq8ZX2Ine3UQdlzz4"
        },
        "href" : "https://api.spotify.com/v1/artists/5dyWLkq8ZX2Ine3UQdlzz4",
        "id" : "5dyWLkq8ZX2Ine3UQdlzz4",
        "name" : "Conlan Miller",
        "type" : "artist",
        "uri" : "spotify:artist:5dyWLkq8ZX2Ine3UQdlzz4"
      }, {
        "external_urls" : {
          "spotify" : "https://open.spotify.com/artist/5sNOPqb16QDnvdyyit12c4"
        },
        "href" : "https://api.spotify.com/v1/artists/5sNOPqb16QDnvdyyit12c4",
        "id" : "5sNOPqb16QDnvdyyit12c4",
        "name" : "Rosalind Hall",
        "type" : "artist",
        "uri" : "spotify:artist:5sNOPqb16QDnvdyyit12c4"
      } ],
      "disc_number" : 1,
      "duration_ms" : 306537,
      "explicit" : false,
      "external_ids" : {
        "isrc" : "QMRB31300058"
      },
      "external_urls" : {
        "spotify" : "https://open.spotify.com/track/3FwQqKSOU5I754l5JbhR6b"
      },
      "href" : "https://api.spotify.com/v1/tracks/3FwQqKSOU5I754l5JbhR6b",
      "id" : "3FwQqKSOU5I754l5JbhR6b",
      "is_local" : false,
      "is_playable" : true,
      "name" : "I'll Go Where You Want Me to Go (Arr. M.D. Nielsen for Men's Choir, Cello & Piano)",
      "popularity" : 14,
      "preview_url" : "https://p.scdn.co/mp3-preview/f9a84b5ecc0d17aab6835aaf99fbc995442557e3?cid=774b29d4f13844c495f206cafdad9c86",
      "track_number" : 2,
      "type" : "track",
      "uri" : "spotify:track:3FwQqKSOU5I754l5JbhR6b"
    }, {
      "album" : {
        "album_type" : "album",
        "artists" : [ {
          "external_urls" : {
            "spotify" : "https://open.spotify.com/artist/5gWZC3kXTwxQGc9q3M16vK"
          },
          "href" : "https://api.spotify.com/v1/artists/5gWZC3kXTwxQGc9q3M16vK",
          "id" : "5gWZC3kXTwxQGc9q3M16vK",
          "name" : "LDS Piano",
          "type" : "artist",
          "uri" : "spotify:artist:5gWZC3kXTwxQGc9q3M16vK"
        } ],
        "external_urls" : {
          "spotify" : "https://open.spotify.com/album/59SmAZBgLSdvxpKp8pP9EZ"
        },
        "href" : "https://api.spotify.com/v1/albums/59SmAZBgLSdvxpKp8pP9EZ",
        "id" : "59SmAZBgLSdvxpKp8pP9EZ",
        "images" : [ {
          "height" : 640,
          "url" : "https://i.scdn.co/image/ab67616d0000b273b639d51f81074f07d62540d0",
          "width" : 640
        }, {
          "height" : 300,
          "url" : "https://i.scdn.co/image/ab67616d00001e02b639d51f81074f07d62540d0",
          "width" : 300
        }, {
          "height" : 64,
          "url" : "https://i.scdn.co/image/ab67616d00004851b639d51f81074f07d62540d0",
          "width" : 64
        } ],
        "name" : "The Mormon Hymnbook Volume 2",
        "release_date" : "2019-03-18",
        "release_date_precision" : "day",
        "total_tracks" : 18,
        "type" : "album",
        "uri" : "spotify:album:59SmAZBgLSdvxpKp8pP9EZ"
      },
      "artists" : [ {
        "external_urls" : {
          "spotify" : "https://open.spotify.com/artist/5gWZC3kXTwxQGc9q3M16vK"
        },
        "href" : "https://api.spotify.com/v1/artists/5gWZC3kXTwxQGc9q3M16vK",
        "id" : "5gWZC3kXTwxQGc9q3M16vK",
        "name" : "LDS Piano",
        "type" : "artist",
        "uri" : "spotify:artist:5gWZC3kXTwxQGc9q3M16vK"
      } ],
      "disc_number" : 1,
      "duration_ms" : 173702,
      "explicit" : false,
      "external_ids" : {
        "isrc" : "GBSMU6209085"
      },
      "external_urls" : {
        "spotify" : "https://open.spotify.com/track/2bB7bzGLbXayCQhuXd2mDf"
      },
      "href" : "https://api.spotify.com/v1/tracks/2bB7bzGLbXayCQhuXd2mDf",
      "id" : "2bB7bzGLbXayCQhuXd2mDf",
      "is_local" : false,
      "is_playable" : true,
      "name" : "I'll Go Where You Want Me to Go",
      "popularity" : 11,
      "preview_url" : "https://p.scdn.co/mp3-preview/ef1c0a568eb3489b4820b4f52e8ea8fbebda27e4?cid=774b29d4f13844c495f206cafdad9c86",
      "track_number" : 3,
      "type" : "track",
      "uri" : "spotify:track:2bB7bzGLbXayCQhuXd2mDf"
    }, {
      "album" : {
        "album_type" : "album",
        "artists" : [ {
          "external_urls" : {
            "spotify" : "https://open.spotify.com/artist/1rnvO0098VACV7bmTr2dIv"
          },
          "href" : "https://api.spotify.com/v1/artists/1rnvO0098VACV7bmTr2dIv",
          "id" : "1rnvO0098VACV7bmTr2dIv",
          "name" : "Jason Tonioli",
          "type" : "artist",
          "uri" : "spotify:artist:1rnvO0098VACV7bmTr2dIv"
        } ],
        "external_urls" : {
          "spotify" : "https://open.spotify.com/album/2KS3h4HISFvruh14t4HaZx"
        },
        "href" : "https://api.spotify.com/v1/albums/2KS3h4HISFvruh14t4HaZx",
        "id" : "2KS3h4HISFvruh14t4HaZx",
        "images" : [ {
          "height" : 640,
          "url" : "https://i.scdn.co/image/ab67616d0000b273c16c96bd5dd80b879bc5fe4d",
          "width" : 640
        }, {
          "height" : 300,
          "url" : "https://i.scdn.co/image/ab67616d00001e02c16c96bd5dd80b879bc5fe4d",
          "width" : 300
        }, {
          "height" : 64,
          "url" : "https://i.scdn.co/image/ab67616d00004851c16c96bd5dd80b879bc5fe4d",
          "width" : 64
        } ],
        "name" : "Piano Hymns",
        "release_date" : "2010-11-11",
        "release_date_precision" : "day",
        "total_tracks" : 14,
        "type" : "album",
        "uri" : "spotify:album:2KS3h4HISFvruh14t4HaZx"
      },
      "artists" : [ {
        "external_urls" : {
          "spotify" : "https://open.spotify.com/artist/1rnvO0098VACV7bmTr2dIv"
        },
        "href" : "https://api.spotify.com/v1/artists/1rnvO0098VACV7bmTr2dIv",
        "id" : "1rnvO0098VACV7bmTr2dIv",
        "name" : "Jason Tonioli",
        "type" : "artist",
        "uri" : "spotify:artist:1rnvO0098VACV7bmTr2dIv"
      } ],
      "disc_number" : 1,
      "duration_ms" : 336306,
      "explicit" : false,
      "external_ids" : {
        "isrc" : "USA2P1005427"
      },
      "external_urls" : {
        "spotify" : "https://open.spotify.com/track/275TaG3k3rGYcyhozPKS97"
      },
      "href" : "https://api.spotify.com/v1/tracks/275TaG3k3rGYcyhozPKS97",
      "id" : "275TaG3k3rGYcyhozPKS97",
      "is_local" : false,
      "is_playable" : true,
      "name" : "Till We Meet Again / I'll Go Where You Want Me to Go",
      "popularity" : 11,
      "preview_url" : "https://p.scdn.co/mp3-preview/d0ccfe66f310b996e4c0ffc0f9c00591e46bc0f2?cid=774b29d4f13844c495f206cafdad9c86",
      "track_number" : 13,
      "type" : "track",
      "uri" : "spotify:track:275TaG3k3rGYcyhozPKS97"
    }, {
      "album" : {
        "album_type" : "album",
        "artists" : [ {
          "external_urls" : {
            "spotify" : "https://open.spotify.com/artist/1sqsiexsQyWN1NDCNJEN7C"
          },
          "href" : "https://api.spotify.com/v1/artists/1sqsiexsQyWN1NDCNJEN7C",
          "id" : "1sqsiexsQyWN1NDCNJEN7C",
          "name" : "Sharon Hopkins",
          "type" : "artist",
          "uri" : "spotify:artist:1sqsiexsQyWN1NDCNJEN7C"
        } ],
        "external_urls" : {
          "spotify" : "https://open.spotify.com/album/3pZnTXgRVhsaqDpSVanZtP"
        },
        "href" : "https://api.spotify.com/v1/albums/3pZnTXgRVhsaqDpSVanZtP",
        "id" : "3pZnTXgRVhsaqDpSVanZtP",
        "images" : [ {
          "height" : 640,
          "url" : "https://i.scdn.co/image/ab67616d0000b27302df2272175678fe172fdc98",
          "width" : 640
        }, {
          "height" : 300,
          "url" : "https://i.scdn.co/image/ab67616d00001e0202df2272175678fe172fdc98",
          "width" : 300
        }, {
          "height" : 64,
          "url" : "https://i.scdn.co/image/ab67616d0000485102df2272175678fe172fdc98",
          "width" : 64
        } ],
        "name" : "Lead Kindly Light",
        "release_date" : "2005",
        "release_date_precision" : "year",
        "total_tracks" : 10,
        "type" : "album",
        "uri" : "spotify:album:3pZnTXgRVhsaqDpSVanZtP"
      },
      "artists" : [ {
        "external_urls" : {
          "spotify" : "https://open.spotify.com/artist/1sqsiexsQyWN1NDCNJEN7C"
        },
        "href" : "https://api.spotify.com/v1/artists/1sqsiexsQyWN1NDCNJEN7C",
        "id" : "1sqsiexsQyWN1NDCNJEN7C",
        "name" : "Sharon Hopkins",
        "type" : "artist",
        "uri" : "spotify:artist:1sqsiexsQyWN1NDCNJEN7C"
      } ],
      "disc_number" : 1,
      "duration_ms" : 337520,
      "explicit" : false,
      "external_ids" : {
        "isrc" : "USA560691888"
      },
      "external_urls" : {
        "spotify" : "https://open.spotify.com/track/3HKtNsOwSg3yqvhPUdeCSM"
      },
      "href" : "https://api.spotify.com/v1/tracks/3HKtNsOwSg3yqvhPUdeCSM",
      "id" : "3HKtNsOwSg3yqvhPUdeCSM",
      "is_local" : false,
      "is_playable" : true,
      "name" : "I'll Go Where You Want Me to Go",
      "popularity" : 12,
      "preview_url" : "https://p.scdn.co/mp3-preview/c1b1e7534f490e2bbe522224e6794cd7f6af4d23?cid=774b29d4f13844c495f206cafdad9c86",
      "track_number" : 6,
      "type" : "track",
      "uri" : "spotify:track:3HKtNsOwSg3yqvhPUdeCSM"
    }, {
      "album" : {
        "album_type" : "album",
        "artists" : [ {
          "external_urls" : {
            "spotify" : "https://open.spotify.com/artist/6JVhGfVC1noBzzWtK146Ck"
          },
          "href" : "https://api.spotify.com/v1/artists/6JVhGfVC1noBzzWtK146Ck",
          "id" : "6JVhGfVC1noBzzWtK146Ck",
          "name" : "Rebecca Mohler",
          "type" : "artist",
          "uri" : "spotify:artist:6JVhGfVC1noBzzWtK146Ck"
        } ],
        "external_urls" : {
          "spotify" : "https://open.spotify.com/album/1lzm078XFVG2w2GN480yYs"
        },
        "href" : "https://api.spotify.com/v1/albums/1lzm078XFVG2w2GN480yYs",
        "id" : "1lzm078XFVG2w2GN480yYs",
        "images" : [ {
          "height" : 640,
          "url" : "https://i.scdn.co/image/ab67616d0000b273711ba1f11560dfa0862f11e5",
          "width" : 640
        }, {
          "height" : 300,
          "url" : "https://i.scdn.co/image/ab67616d00001e02711ba1f11560dfa0862f11e5",
          "width" : 300
        }, {
          "height" : 64,
          "url" : "https://i.scdn.co/image/ab67616d00004851711ba1f11560dfa0862f11e5",
          "width" : 64
        } ],
        "name" : "Called to the Work",
        "release_date" : "2013-07-30",
        "release_date_precision" : "day",
        "total_tracks" : 13,
        "type" : "album",
        "uri" : "spotify:album:1lzm078XFVG2w2GN480yYs"
      },
      "artists" : [ {
        "external_urls" : {
          "spotify" : "https://open.spotify.com/artist/6JVhGfVC1noBzzWtK146Ck"
        },
        "href" : "https://api.spotify.com/v1/artists/6JVhGfVC1noBzzWtK146Ck",
        "id" : "6JVhGfVC1noBzzWtK146Ck",
        "name" : "Rebecca Mohler",
        "type" : "artist",
        "uri" : "spotify:artist:6JVhGfVC1noBzzWtK146Ck"
      } ],
      "disc_number" : 1,
      "duration_ms" : 294259,
      "explicit" : false,
      "external_ids" : {
        "isrc" : "ushm81320830"
      },
      "external_urls" : {
        "spotify" : "https://open.spotify.com/track/2qFLhEEkCHD6V1XdXGBonk"
      },
      "href" : "https://api.spotify.com/v1/tracks/2qFLhEEkCHD6V1XdXGBonk",
      "id" : "2qFLhEEkCHD6V1XdXGBonk",
      "is_local" : false,
      "is_playable" : true,
      "name" : "I'll Go Where You Want Me to Go",
      "popularity" : 11,
      "preview_url" : "https://p.scdn.co/mp3-preview/7f67329b3af883f96f329605825ef2e3ebc4f21c?cid=774b29d4f13844c495f206cafdad9c86",
      "track_number" : 10,
      "type" : "track",
      "uri" : "spotify:track:2qFLhEEkCHD6V1XdXGBonk"
    }, {
      "album" : {
        "album_type" : "album",
        "artists" : [ {
          "external_urls" : {
            "spotify" : "https://open.spotify.com/artist/2MqARH5yAxIpeGEa1FTxYP"
          },
          "href" : "https://api.spotify.com/v1/artists/2MqARH5yAxIpeGEa1FTxYP",
          "id" : "2MqARH5yAxIpeGEa1FTxYP",
          "name" : "Ryan Crossette",
          "type" : "artist",
          "uri" : "spotify:artist:2MqARH5yAxIpeGEa1FTxYP"
        } ],
        "external_urls" : {
          "spotify" : "https://open.spotify.com/album/1sECEnpp5u7lF2HZPAz3tu"
        },
        "href" : "https://api.spotify.com/v1/albums/1sECEnpp5u7lF2HZPAz3tu",
        "id" : "1sECEnpp5u7lF2HZPAz3tu",
        "images" : [ {
          "height" : 640,
          "url" : "https://i.scdn.co/image/ab67616d0000b273cc5771ab7bf709e9610d7d89",
          "width" : 640
        }, {
          "height" : 300,
          "url" : "https://i.scdn.co/image/ab67616d00001e02cc5771ab7bf709e9610d7d89",
          "width" : 300
        }, {
          "height" : 64,
          "url" : "https://i.scdn.co/image/ab67616d00004851cc5771ab7bf709e9610d7d89",
          "width" : 64
        } ],
        "name" : "Hymn Piano Solos: The Way I Hear Them",
        "release_date" : "2010-10-01",
        "release_date_precision" : "day",
        "total_tracks" : 13,
        "type" : "album",
        "uri" : "spotify:album:1sECEnpp5u7lF2HZPAz3tu"
      },
      "artists" : [ {
        "external_urls" : {
          "spotify" : "https://open.spotify.com/artist/2MqARH5yAxIpeGEa1FTxYP"
        },
        "href" : "https://api.spotify.com/v1/artists/2MqARH5yAxIpeGEa1FTxYP",
        "id" : "2MqARH5yAxIpeGEa1FTxYP",
        "name" : "Ryan Crossette",
        "type" : "artist",
        "uri" : "spotify:artist:2MqARH5yAxIpeGEa1FTxYP"
      } ],
      "disc_number" : 1,
      "duration_ms" : 181545,
      "explicit" : false,
      "external_ids" : {
        "isrc" : "uscgj1329185"
      },
      "external_urls" : {
        "spotify" : "https://open.spotify.com/track/3D5rFCnpty6cy9p1FYO5i4"
      },
      "href" : "https://api.spotify.com/v1/tracks/3D5rFCnpty6cy9p1FYO5i4",
      "id" : "3D5rFCnpty6cy9p1FYO5i4",
      "is_local" : false,
      "is_playable" : true,
      "name" : "I'll Go Where You Want Me to Go",
      "popularity" : 10,
      "preview_url" : "https://p.scdn.co/mp3-preview/1d83ab7241f923c9430c325dae43f8b0533659f0?cid=774b29d4f13844c495f206cafdad9c86",
      "track_number" : 8,
      "type" : "track",
      "uri" : "spotify:track:3D5rFCnpty6cy9p1FYO5i4"
    }, {
      "album" : {
        "album_type" : "album",
        "artists" : [ {
          "external_urls" : {
            "spotify" : "https://open.spotify.com/artist/6nezkdChBrDq5RSdO3ZdfZ"
          },
          "href" : "https://api.spotify.com/v1/artists/6nezkdChBrDq5RSdO3ZdfZ",
          "id" : "6nezkdChBrDq5RSdO3ZdfZ",
          "name" : "Lyle Hadlock",
          "type" : "artist",
          "uri" : "spotify:artist:6nezkdChBrDq5RSdO3ZdfZ"
        } ],
        "external_urls" : {
          "spotify" : "https://open.spotify.com/album/7aFRjE35lIorTJ7Ac0DfHi"
        },
        "href" : "https://api.spotify.com/v1/albums/7aFRjE35lIorTJ7Ac0DfHi",
        "id" : "7aFRjE35lIorTJ7Ac0DfHi",
        "images" : [ {
          "height" : 640,
          "url" : "https://i.scdn.co/image/ab67616d0000b273a0072b5e76bb45efcd7a5bce",
          "width" : 640
        }, {
          "height" : 300,
          "url" : "https://i.scdn.co/image/ab67616d00001e02a0072b5e76bb45efcd7a5bce",
          "width" : 300
        }, {
          "height" : 64,
          "url" : "https://i.scdn.co/image/ab67616d00004851a0072b5e76bb45efcd7a5bce",
          "width" : 64
        } ],
        "name" : "Take Time to Be Holy",
        "release_date" : "2009-11-17",
        "release_date_precision" : "day",
        "total_tracks" : 11,
        "type" : "album",
        "uri" : "spotify:album:7aFRjE35lIorTJ7Ac0DfHi"
      },
      "artists" : [ {
        "external_urls" : {
          "spotify" : "https://open.spotify.com/artist/6nezkdChBrDq5RSdO3ZdfZ"
        },
        "href" : "https://api.spotify.com/v1/artists/6nezkdChBrDq5RSdO3ZdfZ",
        "id" : "6nezkdChBrDq5RSdO3ZdfZ",
        "name" : "Lyle Hadlock",
        "type" : "artist",
        "uri" : "spotify:artist:6nezkdChBrDq5RSdO3ZdfZ"
      } ],
      "disc_number" : 1,
      "duration_ms" : 209266,
      "explicit" : false,
      "external_ids" : {
        "isrc" : "USTCB0953604"
      },
      "external_urls" : {
        "spotify" : "https://open.spotify.com/track/7xzSjNnFnGfiKwfNVIQb3f"
      },
      "href" : "https://api.spotify.com/v1/tracks/7xzSjNnFnGfiKwfNVIQb3f",
      "id" : "7xzSjNnFnGfiKwfNVIQb3f",
      "is_local" : false,
      "is_playable" : true,
      "name" : "I'll Go Where You Want Me to Go",
      "popularity" : 9,
      "preview_url" : "https://p.scdn.co/mp3-preview/f66e314a3e61fff33db300e9e2d635906585efe3?cid=774b29d4f13844c495f206cafdad9c86",
      "track_number" : 7,
      "type" : "track",
      "uri" : "spotify:track:7xzSjNnFnGfiKwfNVIQb3f"
    }, {
      "album" : {
        "album_type" : "album",
        "artists" : [ {
          "external_urls" : {
            "spotify" : "https://open.spotify.com/artist/5TkYGBRFMiKlSMpdpM2JKu"
          },
          "href" : "https://api.spotify.com/v1/artists/5TkYGBRFMiKlSMpdpM2JKu",
          "id" : "5TkYGBRFMiKlSMpdpM2JKu",
          "name" : "Addison Kirk",
          "type" : "artist",
          "uri" : "spotify:artist:5TkYGBRFMiKlSMpdpM2JKu"
        } ],
        "external_urls" : {
          "spotify" : "https://open.spotify.com/album/39dn9SotQnr4ZdefIfW7qH"
        },
        "href" : "https://api.spotify.com/v1/albums/39dn9SotQnr4ZdefIfW7qH",
        "id" : "39dn9SotQnr4ZdefIfW7qH",
        "images" : [ {
          "height" : 640,
          "url" : "https://i.scdn.co/image/ab67616d0000b27350679b7e2a2905267010e082",
          "width" : 640
        }, {
          "height" : 300,
          "url" : "https://i.scdn.co/image/ab67616d00001e0250679b7e2a2905267010e082",
          "width" : 300
        }, {
          "height" : 64,
          "url" : "https://i.scdn.co/image/ab67616d0000485150679b7e2a2905267010e082",
          "width" : 64
        } ],
        "name" : "'Til We Meet Again: In Honor of Gordon B. Hinckley",
        "release_date" : "2008-01-01",
        "release_date_precision" : "day",
        "total_tracks" : 12,
        "type" : "album",
        "uri" : "spotify:album:39dn9SotQnr4ZdefIfW7qH"
      },
      "artists" : [ {
        "external_urls" : {
          "spotify" : "https://open.spotify.com/artist/5TkYGBRFMiKlSMpdpM2JKu"
        },
        "href" : "https://api.spotify.com/v1/artists/5TkYGBRFMiKlSMpdpM2JKu",
        "id" : "5TkYGBRFMiKlSMpdpM2JKu",
        "name" : "Addison Kirk",
        "type" : "artist",
        "uri" : "spotify:artist:5TkYGBRFMiKlSMpdpM2JKu"
      } ],
      "disc_number" : 1,
      "duration_ms" : 332506,
      "explicit" : false,
      "external_ids" : {
        "isrc" : "ushm90863581"
      },
      "external_urls" : {
        "spotify" : "https://open.spotify.com/track/5wKa2B0YtUrslKFsRpb3Wu"
      },
      "href" : "https://api.spotify.com/v1/tracks/5wKa2B0YtUrslKFsRpb3Wu",
      "id" : "5wKa2B0YtUrslKFsRpb3Wu",
      "is_local" : false,
      "is_playable" : true,
      "name" : "I'll Go Where You Want Me to Go",
      "popularity" : 10,
      "preview_url" : "https://p.scdn.co/mp3-preview/1f0ecb5d9fc9e6cb56d3db7f15b77e3ac29dd14e?cid=774b29d4f13844c495f206cafdad9c86",
      "track_number" : 12,
      "type" : "track",
      "uri" : "spotify:track:5wKa2B0YtUrslKFsRpb3Wu"
    }, {
      "album" : {
        "album_type" : "album",
        "artists" : [ {
          "external_urls" : {
            "spotify" : "https://open.spotify.com/artist/4HVfhhAsJTmR8yyXhCdkh2"
          },
          "href" : "https://api.spotify.com/v1/artists/4HVfhhAsJTmR8yyXhCdkh2",
          "id" : "4HVfhhAsJTmR8yyXhCdkh2",
          "name" : "Lacie Kirk",
          "type" : "artist",
          "uri" : "spotify:artist:4HVfhhAsJTmR8yyXhCdkh2"
        } ],
        "external_urls" : {
          "spotify" : "https://open.spotify.com/album/7JQnz05Uzan2wnU1KiZ04m"
        },
        "href" : "https://api.spotify.com/v1/albums/7JQnz05Uzan2wnU1KiZ04m",
        "id" : "7JQnz05Uzan2wnU1KiZ04m",
        "images" : [ {
          "height" : 640,
          "url" : "https://i.scdn.co/image/ab67616d0000b27350e679d850162afb6e124dfe",
          "width" : 640
        }, {
          "height" : 300,
          "url" : "https://i.scdn.co/image/ab67616d00001e0250e679d850162afb6e124dfe",
          "width" : 300
        }, {
          "height" : 64,
          "url" : "https://i.scdn.co/image/ab67616d0000485150e679d850162afb6e124dfe",
          "width" : 64
        } ],
        "name" : "Preparing the Way",
        "release_date" : "2009-08-10",
        "release_date_precision" : "day",
        "total_tracks" : 12,
        "type" : "album",
        "uri" : "spotify:album:7JQnz05Uzan2wnU1KiZ04m"
      },
      "artists" : [ {
        "external_urls" : {
          "spotify" : "https://open.spotify.com/artist/4HVfhhAsJTmR8yyXhCdkh2"
        },
        "href" : "https://api.spotify.com/v1/artists/4HVfhhAsJTmR8yyXhCdkh2",
        "id" : "4HVfhhAsJTmR8yyXhCdkh2",
        "name" : "Lacie Kirk",
        "type" : "artist",
        "uri" : "spotify:artist:4HVfhhAsJTmR8yyXhCdkh2"
      } ],
      "disc_number" : 1,
      "duration_ms" : 323493,
      "explicit" : false,
      "external_ids" : {
        "isrc" : "ushm80975224"
      },
      "external_urls" : {
        "spotify" : "https://open.spotify.com/track/1MBNXTbs9AtlhFaGAlxBak"
      },
      "href" : "https://api.spotify.com/v1/tracks/1MBNXTbs9AtlhFaGAlxBak",
      "id" : "1MBNXTbs9AtlhFaGAlxBak",
      "is_local" : false,
      "is_playable" : true,
      "name" : "I'll Go Where you Want me to Go",
      "popularity" : 7,
      "preview_url" : "https://p.scdn.co/mp3-preview/6db115b1c239cd5ef2da15d7eee93782e30d3d9c?cid=774b29d4f13844c495f206cafdad9c86",
      "track_number" : 12,
      "type" : "track",
      "uri" : "spotify:track:1MBNXTbs9AtlhFaGAlxBak"
    }, {
      "album" : {
        "album_type" : "album",
        "artists" : [ {
          "external_urls" : {
            "spotify" : "https://open.spotify.com/artist/5RRunkRNyd6lLmgzfUgzqe"
          },
          "href" : "https://api.spotify.com/v1/artists/5RRunkRNyd6lLmgzfUgzqe",
          "id" : "5RRunkRNyd6lLmgzfUgzqe",
          "name" : "Clayton Pixton",
          "type" : "artist",
          "uri" : "spotify:artist:5RRunkRNyd6lLmgzfUgzqe"
        } ],
        "external_urls" : {
          "spotify" : "https://open.spotify.com/album/2KbvuoUI8aHVcD8Dmxwgdi"
        },
        "href" : "https://api.spotify.com/v1/albums/2KbvuoUI8aHVcD8Dmxwgdi",
        "id" : "2KbvuoUI8aHVcD8Dmxwgdi",
        "images" : [ {
          "height" : 640,
          "url" : "https://i.scdn.co/image/ab67616d0000b27364f82a0c4a66d4ed9ac708fd",
          "width" : 640
        }, {
          "height" : 300,
          "url" : "https://i.scdn.co/image/ab67616d00001e0264f82a0c4a66d4ed9ac708fd",
          "width" : 300
        }, {
          "height" : 64,
          "url" : "https://i.scdn.co/image/ab67616d0000485164f82a0c4a66d4ed9ac708fd",
          "width" : 64
        } ],
        "name" : "Hymns Anew",
        "release_date" : "2008-07-07",
        "release_date_precision" : "day",
        "total_tracks" : 16,
        "type" : "album",
        "uri" : "spotify:album:2KbvuoUI8aHVcD8Dmxwgdi"
      },
      "artists" : [ {
        "external_urls" : {
          "spotify" : "https://open.spotify.com/artist/5RRunkRNyd6lLmgzfUgzqe"
        },
        "href" : "https://api.spotify.com/v1/artists/5RRunkRNyd6lLmgzfUgzqe",
        "id" : "5RRunkRNyd6lLmgzfUgzqe",
        "name" : "Clayton Pixton",
        "type" : "artist",
        "uri" : "spotify:artist:5RRunkRNyd6lLmgzfUgzqe"
      } ],
      "disc_number" : 1,
      "duration_ms" : 182840,
      "explicit" : false,
      "external_ids" : {
        "isrc" : "ushm20854974"
      },
      "external_urls" : {
        "spotify" : "https://open.spotify.com/track/3N3lrHlJB7Q4BKCmFoqDxS"
      },
      "href" : "https://api.spotify.com/v1/tracks/3N3lrHlJB7Q4BKCmFoqDxS",
      "id" : "3N3lrHlJB7Q4BKCmFoqDxS",
      "is_local" : false,
      "is_playable" : true,
      "name" : "I’ll Go Where You Want Me To Go",
      "popularity" : 7,
      "preview_url" : "https://p.scdn.co/mp3-preview/a38d98e1f09c5b8d1e9a39811e51514c04c26180?cid=774b29d4f13844c495f206cafdad9c86",
      "track_number" : 8,
      "type" : "track",
      "uri" : "spotify:track:3N3lrHlJB7Q4BKCmFoqDxS"
    } ],
    "limit" : 10,
    "next" : "https://api.spotify.com/v1/search?query=I%E2%80%99ll+Go+Where+You+Want+Me+to+Go&type=track&market=US&offset=15&limit=10",
    "offset" : 5,
    "previous" : "https://api.spotify.com/v1/search?query=I%E2%80%99ll+Go+Where+You+Want+Me+to+Go&type=track&market=US&offset=0&limit=10",
    "total" : 83
  }
}