{
  "tracks" : {
    "href" : "https://api.spotify.com/v1/search?query=O+Sing+a+New+Song+to+the+Lord&type=track&market=US&offset=5&limit=10",
    "items" : [ {
      "album" : {
        "album_type" : "album",
        "artists" : [ {
          "external_urls" : {
            "spotify" : "https://open.spotify.com/artist/1WIsIjEvqA3CauvbuNW9bh"
          },
          "href" : "https://api.spotify.com/v1/artists/1WIsIjEvqA3CauvbuNW9bh",
          "id" : "1WIsIjEvqA3CauvbuNW9bh",
          "name" : "Wakefield Cathedral Choir",
          "type" : "artist",
          "uri" : "spotify:artist:1WIsIjEvqA3CauvbuNW9bh"
        }, {
          "external_urls" : {
            "spotify" : "https://open.spotify.com/artist/39PmrwMqVy57R1oQX4Gf24"
          },
          "href" : "https://api.spotify.com/v1/artists/39PmrwMqVy57R1oQX4Gf24",
          "id" : "39PmrwMqVy57R1oQX4Gf24",
          "name" : "Thomas Moore",
          "type" : "artist",
          "uri" : "spotify:artist:39PmrwMqVy57R1oQX4Gf24"
        }, {
          "external_urls" : {
            "spotify" : "https://open.spotify.com/artist/1PnMvVGSObJ1gPbOLJTHJt"
          },
          "href" : "https://api.spotify.com/v1/artists/1PnMvVGSObJ1gPbOLJTHJt",
          "id" : "1PnMvVGSObJ1gPbOLJTHJt",
          "name" : "Simon Earl",
          "type" : "artist",
          "uri" : "spotify:artist:1PnMvVGSObJ1gPbOLJTHJt"
        } ],
        "external_urls" : {
          "spotify" : "https://open.spotify.com/album/5Lc8C6rz7K89ClGseHukRu"
        },
        "href" : "https://api.spotify.com/v1/albums/5Lc8C6rz7K89ClGseHukRu",
        "id" : "5Lc8C6rz7K89ClGseHukRu",
        "images" : [ {
          "height" : 640,
          "url" : "https://i.scdn.co/image/ab67616d0000b273120291f476e890cb9c623f70",
          "width" : 640
        }, {
          "height" : 300,
          "url" : "https://i.scdn.co/image/ab67616d00001e02120291f476e890cb9c623f70",
          "width" : 300
        }, {
          "height" : 64,
          "url" : "https://i.scdn.co/image/ab67616d00004851120291f476e890cb9c623f70",
          "width" : 64
        } ],
        "name" : "The Complete Psalms of David, Series 2 Vol. 7",
        "release_date" : "2017-05-26",
        "release_date_precision" : "day",
        "total_tracks" : 16,
        "type" : "album",
        "uri" : "spotify:album:5Lc8C6rz7K89ClGseHukRu"
      },
      "artists" : [ {
        "external_urls" : {
          "spotify" : "https://open.spotify.com/artist/6nk65E6JDhSmsxXrRHjxsf"
        },
        "href" : "https://api.spotify.com/v1/artists/6nk65E6JDhSmsxXrRHjxsf",
        "id" : "6nk65E6JDhSmsxXrRHjxsf",
        "name" : "James Turle",
        "type" : "artist",
        "uri" : "spotify:artist:6nk65E6JDhSmsxXrRHjxsf"
      }, {
        "external_urls" : {
          "spotify" : "https://open.spotify.com/artist/1WIsIjEvqA3CauvbuNW9bh"
        },
        "href" : "https://api.spotify.com/v1/artists/1WIsIjEvqA3CauvbuNW9bh",
        "id" : "1WIsIjEvqA3CauvbuNW9bh",
        "name" : "Wakefield Cathedral Choir",
        "type" : "artist",
        "uri" : "spotify:artist:1WIsIjEvqA3CauvbuNW9bh"
      }, {
        "external_urls" : {
          "spotify" : "https://open.spotify.com/artist/1PnMvVGSObJ1gPbOLJTHJt"
        },
        "href" : "https://api.spotify.com/v1/artists/1PnMvVGSObJ1gPbOLJTHJt",
        "id" : "1PnMvVGSObJ1gPbOLJTHJt",
        "name" : "Simon Earl",
        "type" : "artist",
        "uri" : "spotify:artist:1PnMvVGSObJ1gPbOLJTHJt"
      }, {
        "external_urls" : {
          "spotify" : "https://open.spotify.com/artist/39PmrwMqVy57R1oQX4Gf24"
        },
        "href" : "https://api.spotify.com/v1/artists/39PmrwMqVy57R1oQX4Gf24",
        "id" : "39PmrwMqVy57R1oQX4Gf24",
        "name" : "Thomas Moore",
        "type" : "artist",
        "uri" : "spotify:artist:39PmrwMqVy57R1oQX4Gf24"
      } ],
      "disc_number" : 1,
      "duration_ms" : 171506,
      "explicit" : false,
      "external_ids" : {
        "isrc" : "GBXUX1412010"
      },
      "external_urls" : {
        "spotify" : "https://open.spotify.com/track/2PQUMNLJxZHiBB2f3pJnNd"
      },
      "href" : "https://api.spotify.com/v1/tracks/2PQUMNLJxZHiBB2f3pJnNd",
      "id" : "2PQUMNLJxZHiBB2f3pJnNd",
      "is_local" : false,
      "is_playable" : true,
      "name" : "Psalm 98 \"O Sing unto the Lord a New Song\"",
      "popularity" : 2,
      "preview_url" : "https://p.scdn.co/mp3-preview/602871348db90de49f593429be1d43fee8e2f971?cid=774b29d4f13844c495f206cafdad9c86",
      "track_number" : 10,
      "type" : "track",
      "uri" : "spotify:track:2PQUMNLJxZHiBB2f3pJnNd"
    }, {
      "album" : {
        "album_type" : "album",
        "artists" : [ {
          "external_urls" : {
            "spotify" : "https://open.spotify.com/artist/1WIsIjEvqA3CauvbuNW9bh"
          },
          "href" : "https://api.spotify.com/v1/artists/1WIsIjEvqA3CauvbuNW9bh",
          "id" : "1WIsIjEvqA3CauvbuNW9bh",
          "name" : "Wakefield Cathedral Choir",
          "type" : "artist",
          "uri" : "spotify:artist:1WIsIjEvqA3CauvbuNW9bh"
        }, {
          "external_urls" : {
            "spotify" : "https://open.spotify.com/artist/39PmrwMqVy57R1oQX4Gf24"
          },
          "href" : "https://api.spotify.com/v1/artists/39PmrwMqVy57R1oQX4Gf24",
          "id" : "39PmrwMqVy57R1oQX4Gf24",
          "name" : "Thomas Moore",
          "type" : "artist",
          "uri" : "spotify:artist:39PmrwMqVy57R1oQX4Gf24"
        }, {
          "external_urls" : {
            "spotify" : "https://open.spotify.com/artist/1PnMvVGSObJ1gPbOLJTHJt"
          },
          "href" : "https://api.spotify.com/v1/artists/1PnMvVGSObJ1gPbOLJTHJt",
          "id" : "1PnMvVGSObJ1gPbOLJTHJt",
          "name" : "Simon Earl",
          "type" : "artist",
          "uri" : "spotify:artist:1PnMvVGSObJ1gPbOLJTHJt"
        } ],
        "external_urls" : {
          "spotify" : "https://open.spotify.com/album/5Lc8C6rz7K89ClGseHukRu"
        },
        "href" : "https://api.spotify.com/v1/albums/5Lc8C6rz7K89ClGseHukRu",
        "id" : "5Lc8C6rz7K89ClGseHukRu",
        "images" : [ {
          "height" : 640,
          "url" : "https://i.scdn.co/image/ab67616d0000b273120291f476e890cb9c623f70",
          "width" : 640
        }, {
          "height" : 300,
          "url" : "https://i.scdn.co/image/ab67616d00001e02120291f476e890cb9c623f70",
          "width" : 300
        }, {
          "height" : 64,
          "url" : "https://i.scdn.co/image/ab67616d00004851120291f476e890cb9c623f70",
          "width" : 64
        } ],
        "name" : "The Complete Psalms of David, Series 2 Vol. 7",
        "release_date" : "2017-05-26",
        "release_date_precision" : "day",
        "total_tracks" : 16,
        "type" : "album",
        "uri" : "spotify:album:5Lc8C6rz7K89ClGseHukRu"
      },
      "artists" : [ {
        "external_urls" : {
          "spotify" : "https://open.spotify.com/artist/7hwEnyTNNJVHoQ6sEfteSh"
        },
        "href" : "https://api.spotify.com/v1/artists/7hwEnyTNNJVHoQ6sEfteSh",
        "id" : "7hwEnyTNNJVHoQ6sEfteSh",
        "name" : "Walter Parratt",
        "type" : "artist",
        "uri" : "spotify:artist:7hwEnyTNNJVHoQ6sEfteSh"
      }, {
        "external_urls" : {
          "spotify" : "https://open.spotify.com/artist/1WIsIjEvqA3CauvbuNW9bh"
        },
        "href" : "https://api.spotify.com/v1/artists/1WIsIjEvqA3CauvbuNW9bh",
        "id" : "1WIsIjEvqA3CauvbuNW9bh",
        "name" : "Wakefield Cathedral Choir",
        "type" : "artist",
        "uri" : "spotify:artist:1WIsIjEvqA3CauvbuNW9bh"
      }, {
        "external_urls" : {
          "spotify" : "https://open.spotify.com/artist/1PnMvVGSObJ1gPbOLJTHJt"
        },
        "href" : "https://api.spotify.com/v1/artists/1PnMvVGSObJ1gPbOLJTHJt",
        "id" : "1PnMvVGSObJ1gPbOLJTHJt",
        "name" : "Simon Earl",
        "type" : "artist",
        "uri" : "spotify:artist:1PnMvVGSObJ1gPbOLJTHJt"
      }, {
        "external_urls" : {
          "spotify" : "https://open.spotify.com/artist/39PmrwMqVy57R1oQX4Gf24"
        },
        "href" : "https://api.spotify.com/v1/artists/39PmrwMqVy57R1oQX4Gf24",
        "id" : "39PmrwMqVy57R1oQX4Gf24",
        "name" : "Thomas Moore",
        "type" : "artist",
        "uri" : "spotify:artist:39PmrwMqVy57R1oQX4Gf24"
      } ],
      "disc_number" : 1,
      "duration_ms" : 217240,
      "explicit" : false,
      "external_ids" : {
        "isrc" : "GBXUX1412008"
      },
      "external_urls" : {
        "spotify" : "https://open.spotify.com/track/2OwhhsFxjzqr68an3vb8l2"
      },
      "href" : "https://api.spotify.com/v1/tracks/2OwhhsFxjzqr68an3vb8l2",
      "id" : "2OwhhsFxjzqr68an3vb8l2",
      "is_local" : false,
      "is_playable" : true,
      "name" : "Psalm 96 \"O Sing unto the Lord a New Song\"",
      "popularity" : 2,
      "preview_url" : "https://p.scdn.co/mp3-preview/c18b1dddd88b702465ec91d0f1f01fca1f5697d9?cid=774b29d4f13844c495f206cafdad9c86",
      "track_number" : 8,
      "type" : "track",
      "uri" : "spotify:track:2OwhhsFxjzqr68an3vb8l2"
    }, {
      "album" : {
        "album_type" : "album",
        "artists" : [ {
          "external_urls" : {
            "spotify" : "https://open.spotify.com/artist/1IM1JfccPChY6P4EAEwZCz"
          },
          "href" : "https://api.spotify.com/v1/artists/1IM1JfccPChY6P4EAEwZCz",
          "id" : "1IM1JfccPChY6P4EAEwZCz",
          "name" : "The Alabama Spirituals",
          "type" : "artist",
          "uri" : "spotify:artist:1IM1JfccPChY6P4EAEwZCz"
        } ],
        "external_urls" : {
          "spotify" : "https://open.spotify.com/album/6XBE8UmYgsj6c8ADtB6Ca9"
        },
        "href" : "https://api.spotify.com/v1/albums/6XBE8UmYgsj6c8ADtB6Ca9",
        "id" : "6XBE8UmYgsj6c8ADtB6Ca9",
        "images" : [ {
          "height" : 640,
          "url" : "https://i.scdn.co/image/ab67616d0000b273b241ff120d05baa85b31fe4f",
          "width" : 640
        }, {
          "height" : 300,
          "url" : "https://i.scdn.co/image/ab67616d00001e02b241ff120d05baa85b31fe4f",
          "width" : 300
        }, {
          "height" : 64,
          "url" : "https://i.scdn.co/image/ab67616d00004851b241ff120d05baa85b31fe4f",
          "width" : 64
        } ],
        "name" : "Sing To the Lord a New Song",
        "release_date" : "2006-08-29",
        "release_date_precision" : "day",
        "total_tracks" : 10,
        "type" : "album",
        "uri" : "spotify:album:6XBE8UmYgsj6c8ADtB6Ca9"
      },
      "artists" : [ {
        "external_urls" : {
          "spotify" : "https://open.spotify.com/artist/1IM1JfccPChY6P4EAEwZCz"
        },
        "href" : "https://api.spotify.com/v1/artists/1IM1JfccPChY6P4EAEwZCz",
        "id" : "1IM1JfccPChY6P4EAEwZCz",
        "name" : "The Alabama Spirituals",
        "type" : "artist",
        "uri" : "spotify:artist:1IM1JfccPChY6P4EAEwZCz"
      } ],
      "disc_number" : 1,
      "duration_ms" : 207026,
      "explicit" : false,
      "external_ids" : {
        "isrc" : "US79N0610349"
      },
      "external_urls" : {
        "spotify" : "https://open.spotify.com/track/09noDPQepqJSodcS7x0sB1"
      },
      "href" : "https://api.spotify.com/v1/tracks/09noDPQepqJSodcS7x0sB1",
      "id" : "09noDPQepqJSodcS7x0sB1",
      "is_local" : false,
      "is_playable" : true,
      "name" : "The Blood of Jesus",
      "popularity" : 2,
      "preview_url" : "https://p.scdn.co/mp3-preview/08b291ee2e83393cfd4f620bc089c53c0644f28f?cid=774b29d4f13844c495f206cafdad9c86",
      "track_number" : 3,
      "type" : "track",
      "uri" : "spotify:track:09noDPQepqJSodcS7x0sB1"
    }, {
      "album" : {
        "album_type" : "album",
        "artists" : [ {
          "external_urls" : {
            "spotify" : "https://open.spotify.com/artist/2WYXKdXhgr76rLRi4MMOQe"
          },
          "href" : "https://api.spotify.com/v1/artists/2WYXKdXhgr76rLRi4MMOQe",
          "id" : "2WYXKdXhgr76rLRi4MMOQe",
          "name" : "Sword of the Spirit Worship",
          "type" : "artist",
          "uri" : "spotify:artist:2WYXKdXhgr76rLRi4MMOQe"
        } ],
        "external_urls" : {
          "spotify" : "https://open.spotify.com/album/0DxU1efLE72tjstnCJVrGo"
        },
        "href" : "https://api.spotify.com/v1/albums/0DxU1efLE72tjstnCJVrGo",
        "id" : "0DxU1efLE72tjstnCJVrGo",
        "images" : [ {
          "height" : 640,
          "url" : "https://i.scdn.co/image/ab67616d0000b2730e1c21270d92185df82ab7b8",
          "width" : 640
        }, {
          "height" : 300,
          "url" : "https://i.scdn.co/image/ab67616d00001e020e1c21270d92185df82ab7b8",
          "width" : 300
        }, {
          "height" : 64,
          "url" : "https://i.scdn.co/image/ab67616d000048510e1c21270d92185df82ab7b8",
          "width" : 64
        } ],
        "name" : "In Spirit and Truth",
        "release_date" : "2007-06-22",
        "release_date_precision" : "day",
        "total_tracks" : 16,
        "type" : "album",
        "uri" : "spotify:album:0DxU1efLE72tjstnCJVrGo"
      },
      "artists" : [ {
        "external_urls" : {
          "spotify" : "https://open.spotify.com/artist/2WYXKdXhgr76rLRi4MMOQe"
        },
        "href" : "https://api.spotify.com/v1/artists/2WYXKdXhgr76rLRi4MMOQe",
        "id" : "2WYXKdXhgr76rLRi4MMOQe",
        "name" : "Sword of the Spirit Worship",
        "type" : "artist",
        "uri" : "spotify:artist:2WYXKdXhgr76rLRi4MMOQe"
      } ],
      "disc_number" : 1,
      "duration_ms" : 126573,
      "explicit" : false,
      "external_ids" : {
        "isrc" : "QZDA62001257"
      },
      "external_urls" : {
        "spotify" : "https://open.spotify.com/track/7xrWd6rmaoruEM1AAU0QA5"
      },
      "href" : "https://api.spotify.com/v1/tracks/7xrWd6rmaoruEM1AAU0QA5",
      "id" : "7xrWd6rmaoruEM1AAU0QA5",
      "is_local" : false,
      "is_playable" : true,
      "name" : "Sing to the Lord a New Song",
      "popularity" : 4,
      "preview_url" : "https://p.scdn.co/mp3-preview/1558c67db69eb813d73da5a06b00efd53b2a7968?cid=774b29d4f13844c495f206cafdad9c86",
      "track_number" : 6,
      "type" : "track",
      "uri" : "spotify:track:7xrWd6rmaoruEM1AAU0QA5"
    }, {
      "album" : {
        "album_type" : "album",
        "artists" : [ {
          "external_urls" : {
            "spotify" : "https://open.spotify.com/artist/5iVUKJDhrPxM32rSrbrhKK"
          },
          "href" : "https://api.spotify.com/v1/artists/5iVUKJDhrPxM32rSrbrhKK",
          "id" : "5iVUKJDhrPxM32rSrbrhKK",
          "name" : "Jamestracy",
          "type" : "artist",
          "uri" : "spotify:artist:5iVUKJDhrPxM32rSrbrhKK"
        } ],
        "external_urls" : {
          "spotify" : "https://open.spotify.com/album/1uo2d0h4Ga4iz5a2Lt3fce"
        },
        "href" : "https://api.spotify.com/v1/albums/1uo2d0h4Ga4iz5a2Lt3fce",
        "id" : "1uo2d0h4Ga4iz5a2Lt3fce",
        "images" : [ {
          "height" : 640,
          "url" : "https://i.scdn.co/image/ab67616d0000b273742fcfee5bad61044feae9c6",
          "width" : 640
        }, {
          "height" : 300,
          "url" : "https://i.scdn.co/image/ab67616d00001e02742fcfee5bad61044feae9c6",
          "width" : 300
        }, {
          "height" : 64,
          "url" : "https://i.scdn.co/image/ab67616d00004851742fcfee5bad61044feae9c6",
          "width" : 64
        } ],
        "name" : "Original, Scripture-Based Songs of Inspiration",
        "release_date" : "2005-01-01",
        "release_date_precision" : "day",
        "total_tracks" : 19,
        "type" : "album",
        "uri" : "spotify:album:1uo2d0h4Ga4iz5a2Lt3fce"
      },
      "artists" : [ {
        "external_urls" : {
          "spotify" : "https://open.spotify.com/artist/5iVUKJDhrPxM32rSrbrhKK"
        },
        "href" : "https://api.spotify.com/v1/artists/5iVUKJDhrPxM32rSrbrhKK",
        "id" : "5iVUKJDhrPxM32rSrbrhKK",
        "name" : "Jamestracy",
        "type" : "artist",
        "uri" : "spotify:artist:5iVUKJDhrPxM32rSrbrhKK"
      } ],
      "disc_number" : 1,
      "duration_ms" : 161466,
      "explicit" : false,
      "external_ids" : {
        "isrc" : "ushm20578582"
      },
      "external_urls" : {
        "spotify" : "https://open.spotify.com/track/5w4nkyEC2M0SGctNnljzuL"
      },
      "href" : "https://api.spotify.com/v1/tracks/5w4nkyEC2M0SGctNnljzuL",
      "id" : "5w4nkyEC2M0SGctNnljzuL",
      "is_local" : false,
      "is_playable" : true,
      "name" : "Sing to the Lord a New Song",
      "popularity" : 0,
      "preview_url" : "https://p.scdn.co/mp3-preview/3fd1076b7f406b75012f9d577d932e064da0f355?cid=774b29d4f13844c495f206cafdad9c86",
      "track_number" : 1,
      "type" : "track",
      "uri" : "spotify:track:5w4nkyEC2M0SGctNnljzuL"
    }, {
      "album" : {
        "album_type" : "album",
        "artists" : [ {
          "external_urls" : {
            "spotify" : "https://open.spotify.com/artist/3A1I0pl4dQxDCTTf4L3ivY"
          },
          "href" : "https://api.spotify.com/v1/artists/3A1I0pl4dQxDCTTf4L3ivY",
          "id" : "3A1I0pl4dQxDCTTf4L3ivY",
          "name" : "Reading Phoenix Choir",
          "type" : "artist",
          "uri" : "spotify:artist:3A1I0pl4dQxDCTTf4L3ivY"
        } ],
        "external_urls" : {
          "spotify" : "https://open.spotify.com/album/0CsqtfRnpBYTLl6cDglcYF"
        },
        "href" : "https://api.spotify.com/v1/albums/0CsqtfRnpBYTLl6cDglcYF",
        "id" : "0CsqtfRnpBYTLl6cDglcYF",
        "images" : [ {
          "height" : 640,
          "url" : "https://i.scdn.co/image/ab67616d0000b27325c7017174b7bbd96ff9469c",
          "width" : 640
        }, {
          "height" : 300,
          "url" : "https://i.scdn.co/image/ab67616d00001e0225c7017174b7bbd96ff9469c",
          "width" : 300
        }, {
          "height" : 64,
          "url" : "https://i.scdn.co/image/ab67616d0000485125c7017174b7bbd96ff9469c",
          "width" : 64
        } ],
        "name" : "Song of Iona",
        "release_date" : "1998-04-01",
        "release_date_precision" : "day",
        "total_tracks" : 20,
        "type" : "album",
        "uri" : "spotify:album:0CsqtfRnpBYTLl6cDglcYF"
      },
      "artists" : [ {
        "external_urls" : {
          "spotify" : "https://open.spotify.com/artist/3A1I0pl4dQxDCTTf4L3ivY"
        },
        "href" : "https://api.spotify.com/v1/artists/3A1I0pl4dQxDCTTf4L3ivY",
        "id" : "3A1I0pl4dQxDCTTf4L3ivY",
        "name" : "Reading Phoenix Choir",
        "type" : "artist",
        "uri" : "spotify:artist:3A1I0pl4dQxDCTTf4L3ivY"
      } ],
      "disc_number" : 1,
      "duration_ms" : 249866,
      "explicit" : false,
      "external_ids" : {
        "isrc" : "uscgj1089366"
      },
      "external_urls" : {
        "spotify" : "https://open.spotify.com/track/2woOPs6CXhvg30wHpfzuY1"
      },
      "href" : "https://api.spotify.com/v1/tracks/2woOPs6CXhvg30wHpfzuY1",
      "id" : "2woOPs6CXhvg30wHpfzuY1",
      "is_local" : false,
      "is_playable" : true,
      "name" : "Sing A New Song To The Lord",
      "popularity" : 0,
      "preview_url" : "https://p.scdn.co/mp3-preview/ab80c237546496aaf35712d1669f2f104d86fbf0?cid=774b29d4f13844c495f206cafdad9c86",
      "track_number" : 14,
      "type" : "track",
      "uri" : "spotify:track:2woOPs6CXhvg30wHpfzuY1"
    }, {
      "album" : {
        "album_type" : "album",
        "artists" : [ {
          "external_urls" : {
            "spotify" : "https://open.spotify.com/artist/1CFYI5dYcbJvW66IymrSmq"
          },
          "href" : "https://api.spotify.com/v1/artists/1CFYI5dYcbJvW66IymrSmq",
          "id" : "1CFYI5dYcbJvW66IymrSmq",
          "name" : "Angus McDonell",
          "type" : "artist",
          "uri" : "spotify:artist:1CFYI5dYcbJvW66IymrSmq"
        } ],
        "external_urls" : {
          "spotify" : "https://open.spotify.com/album/5khQcKoPP1qv9K3haES36a"
        },
        "href" : "https://api.spotify.com/v1/albums/5khQcKoPP1qv9K3haES36a",
        "id" : "5khQcKoPP1qv9K3haES36a",
        "images" : [ {
          "height" : 640,
          "url" : "https://i.scdn.co/image/ab67616d0000b273e15282068be96dc023bb58e7",
          "width" : 640
        }, {
          "height" : 300,
          "url" : "https://i.scdn.co/image/ab67616d00001e02e15282068be96dc023bb58e7",
          "width" : 300
        }, {
          "height" : 64,
          "url" : "https://i.scdn.co/image/ab67616d00004851e15282068be96dc023bb58e7",
          "width" : 64
        } ],
        "name" : "River of Life",
        "release_date" : "2003",
        "release_date_precision" : "year",
        "total_tracks" : 12,
        "type" : "album",
        "uri" : "spotify:album:5khQcKoPP1qv9K3haES36a"
      },
      "artists" : [ {
        "external_urls" : {
          "spotify" : "https://open.spotify.com/artist/1CFYI5dYcbJvW66IymrSmq"
        },
        "href" : "https://api.spotify.com/v1/artists/1CFYI5dYcbJvW66IymrSmq",
        "id" : "1CFYI5dYcbJvW66IymrSmq",
        "name" : "Angus McDonell",
        "type" : "artist",
        "uri" : "spotify:artist:1CFYI5dYcbJvW66IymrSmq"
      } ],
      "disc_number" : 1,
      "duration_ms" : 187773,
      "explicit" : false,
      "external_ids" : {
        "isrc" : "USA4N0300157"
      },
      "external_urls" : {
        "spotify" : "https://open.spotify.com/track/3ChO8wnpHNKvVeCymwN56H"
      },
      "href" : "https://api.spotify.com/v1/tracks/3ChO8wnpHNKvVeCymwN56H",
      "id" : "3ChO8wnpHNKvVeCymwN56H",
      "is_local" : false,
      "is_playable" : true,
      "name" : "Sing to the Lord a New Song",
      "popularity" : 0,
      "preview_url" : "https://p.scdn.co/mp3-preview/bd24c6badd148d671694a77671289df3f54e9cce?cid=774b29d4f13844c495f206cafdad9c86",
      "track_number" : 9,
      "type" : "track",
      "uri" : "spotify:track:3ChO8wnpHNKvVeCymwN56H"
    }, {
      "album" : {
        "album_type" : "album",
        "artists" : [ {
          "external_urls" : {
            "spotify" : "https://open.spotify.com/artist/3A1I0pl4dQxDCTTf4L3ivY"
          },
          "href" : "https://api.spotify.com/v1/artists/3A1I0pl4dQxDCTTf4L3ivY",
          "id" : "3A1I0pl4dQxDCTTf4L3ivY",
          "name" : "Reading Phoenix Choir",
          "type" : "artist",
          "uri" : "spotify:artist:3A1I0pl4dQxDCTTf4L3ivY"
        } ],
        "external_urls" : {
          "spotify" : "https://open.spotify.com/album/5rksEH6CAuwLWPVICp6xBP"
        },
        "href" : "https://api.spotify.com/v1/albums/5rksEH6CAuwLWPVICp6xBP",
        "id" : "5rksEH6CAuwLWPVICp6xBP",
        "images" : [ {
          "height" : 640,
          "url" : "https://i.scdn.co/image/ab67616d0000b2734356308533780b6c1f3bb9d8",
          "width" : 640
        }, {
          "height" : 300,
          "url" : "https://i.scdn.co/image/ab67616d00001e024356308533780b6c1f3bb9d8",
          "width" : 300
        }, {
          "height" : 64,
          "url" : "https://i.scdn.co/image/ab67616d000048514356308533780b6c1f3bb9d8",
          "width" : 64
        } ],
        "name" : "Song Of Iona",
        "release_date" : "2008-08-12",
        "release_date_precision" : "day",
        "total_tracks" : 20,
        "type" : "album",
        "uri" : "spotify:album:5rksEH6CAuwLWPVICp6xBP"
      },
      "artists" : [ {
        "external_urls" : {
          "spotify" : "https://open.spotify.com/artist/3A1I0pl4dQxDCTTf4L3ivY"
        },
        "href" : "https://api.spotify.com/v1/artists/3A1I0pl4dQxDCTTf4L3ivY",
        "id" : "3A1I0pl4dQxDCTTf4L3ivY",
        "name" : "Reading Phoenix Choir",
        "type" : "artist",
        "uri" : "spotify:artist:3A1I0pl4dQxDCTTf4L3ivY"
      } ],
      "disc_number" : 1,
      "duration_ms" : 249866,
      "explicit" : false,
      "external_ids" : {
        "isrc" : "FR6V89804573"
      },
      "external_urls" : {
        "spotify" : "https://open.spotify.com/track/0jmRjIqvRrLvrWQLI3zMhq"
      },
      "href" : "https://api.spotify.com/v1/tracks/0jmRjIqvRrLvrWQLI3zMhq",
      "id" : "0jmRjIqvRrLvrWQLI3zMhq",
      "is_local" : false,
      "is_playable" : true,
      "name" : "Sing A New Song To The Lord",
      "popularity" : 0,
      "preview_url" : "https://p.scdn.co/mp3-preview/ab80c237546496aaf35712d1669f2f104d86fbf0?cid=774b29d4f13844c495f206cafdad9c86",
      "track_number" : 14,
      "type" : "track",
      "uri" : "spotify:track:0jmRjIqvRrLvrWQLI3zMhq"
    }, {
      "album" : {
        "album_type" : "album",
        "artists" : [ {
          "external_urls" : {
            "spotify" : "https://open.spotify.com/artist/3itDY0SBqfuXp8IpKjNTrf"
          },
          "href" : "https://api.spotify.com/v1/artists/3itDY0SBqfuXp8IpKjNTrf",
          "id" : "3itDY0SBqfuXp8IpKjNTrf",
          "name" : "Ephrem Feeley",
          "type" : "artist",
          "uri" : "spotify:artist:3itDY0SBqfuXp8IpKjNTrf"
        } ],
        "external_urls" : {
          "spotify" : "https://open.spotify.com/album/1RHHIPcb2Wd7dVVxwppCcR"
        },
        "href" : "https://api.spotify.com/v1/albums/1RHHIPcb2Wd7dVVxwppCcR",
        "id" : "1RHHIPcb2Wd7dVVxwppCcR",
        "images" : [ {
          "height" : 640,
          "url" : "https://i.scdn.co/image/ab67616d0000b273d84e38da725357bc95166c83",
          "width" : 640
        }, {
          "height" : 300,
          "url" : "https://i.scdn.co/image/ab67616d00001e02d84e38da725357bc95166c83",
          "width" : 300
        }, {
          "height" : 64,
          "url" : "https://i.scdn.co/image/ab67616d00004851d84e38da725357bc95166c83",
          "width" : 64
        } ],
        "name" : "Our Hearts Are Restless",
        "release_date" : "2018-10-19",
        "release_date_precision" : "day",
        "total_tracks" : 12,
        "type" : "album",
        "uri" : "spotify:album:1RHHIPcb2Wd7dVVxwppCcR"
      },
      "artists" : [ {
        "external_urls" : {
          "spotify" : "https://open.spotify.com/artist/3itDY0SBqfuXp8IpKjNTrf"
        },
        "href" : "https://api.spotify.com/v1/artists/3itDY0SBqfuXp8IpKjNTrf",
        "id" : "3itDY0SBqfuXp8IpKjNTrf",
        "name" : "Ephrem Feeley",
        "type" : "artist",
        "uri" : "spotify:artist:3itDY0SBqfuXp8IpKjNTrf"
      } ],
      "disc_number" : 1,
      "duration_ms" : 158986,
      "explicit" : false,
      "external_ids" : {
        "isrc" : "US7851800007"
      },
      "external_urls" : {
        "spotify" : "https://open.spotify.com/track/33NvgB3ClKAWU0FC3gYqjw"
      },
      "href" : "https://api.spotify.com/v1/tracks/33NvgB3ClKAWU0FC3gYqjw",
      "id" : "33NvgB3ClKAWU0FC3gYqjw",
      "is_local" : false,
      "is_playable" : true,
      "name" : "Sing a New Song to the Lord",
      "popularity" : 0,
      "preview_url" : "https://p.scdn.co/mp3-preview/106bc40d5e60acc4f6ded571c9c5b871ec66b8b2?cid=774b29d4f13844c495f206cafdad9c86",
      "track_number" : 8,
      "type" : "track",
      "uri" : "spotify:track:33NvgB3ClKAWU0FC3gYqjw"
    }, {
      "album" : {
        "album_type" : "album",
        "artists" : [ {
          "external_urls" : {
            "spotify" : "https://open.spotify.com/artist/5v0QBK14bBZSXgMWqoRRkJ"
          },
          "href" : "https://api.spotify.com/v1/artists/5v0QBK14bBZSXgMWqoRRkJ",
          "id" : "5v0QBK14bBZSXgMWqoRRkJ",
          "name" : "Victor Barden",
          "type" : "artist",
          "uri" : "spotify:artist:5v0QBK14bBZSXgMWqoRRkJ"
        } ],
        "external_urls" : {
          "spotify" : "https://open.spotify.com/album/4MM2o2tVl7EfLQCkKS5eV7"
        },
        "href" : "https://api.spotify.com/v1/albums/4MM2o2tVl7EfLQCkKS5eV7",
        "id" : "4MM2o2tVl7EfLQCkKS5eV7",
        "images" : [ {
          "height" : 640,
          "url" : "https://i.scdn.co/image/ab67616d0000b273bbfd2c06676de7e82a822848",
          "width" : 640
        }, {
          "height" : 300,
          "url" : "https://i.scdn.co/image/ab67616d00001e02bbfd2c06676de7e82a822848",
          "width" : 300
        }, {
          "height" : 64,
          "url" : "https://i.scdn.co/image/ab67616d00004851bbfd2c06676de7e82a822848",
          "width" : 64
        } ],
        "name" : "Child of the King",
        "release_date" : "2002-01-01",
        "release_date_precision" : "day",
        "total_tracks" : 14,
        "type" : "album",
        "uri" : "spotify:album:4MM2o2tVl7EfLQCkKS5eV7"
      },
      "artists" : [ {
        "external_urls" : {
          "spotify" : "https://open.spotify.com/artist/5v0QBK14bBZSXgMWqoRRkJ"
        },
        "href" : "https://api.spotify.com/v1/artists/5v0QBK14bBZSXgMWqoRRkJ",
        "id" : "5v0QBK14bBZSXgMWqoRRkJ",
        "name" : "Victor Barden",
        "type" : "artist",
        "uri" : "spotify:artist:5v0QBK14bBZSXgMWqoRRkJ"
      } ],
      "disc_number" : 1,
      "duration_ms" : 130226,
      "explicit" : false,
      "external_ids" : {
        "isrc" : "ushm20374926"
      },
      "external_urls" : {
        "spotify" : "https://open.spotify.com/track/5y0WR80F1SKZsIkWjzocZR"
      },
      "href" : "https://api.spotify.com/v1/tracks/5y0WR80F1SKZsIkWjzocZR",
      "id" : "5y0WR80F1SKZsIkWjzocZR",
      "is_local" : false,
      "is_playable" : true,
      "name" : "Sing to the Lord a New Song",
      "popularity" : 0,
      "preview_url" : "https://p.scdn.co/mp3-preview/35d52e0b4b7368028a942b44d57066a99bf81565?cid=774b29d4f13844c495f206cafdad9c86",
      "track_number" : 11,
      "type" : "track",
      "uri" : "spotify:track:5y0WR80F1SKZsIkWjzocZR"
    } ],
    "limit" : 10,
    "next" : "https://api.spotify.com/v1/search?query=O+Sing+a+New+Song+to+the+Lord&type=track&market=US&offset=15&limit=10",
    "offset" : 5,
    "previous" : "https://api.spotify.com/v1/search?query=O+Sing+a+New+Song+to+the+Lord&type=track&market=US&offset=0&limit=10",
    "total" : 58
  }
}