{
  "tracks" : {
    "href" : "https://api.spotify.com/v1/search?query=Once+to+Every+Man+and+Nation&type=track&market=US&offset=5&limit=10",
    "items" : [ {
      "album" : {
        "album_type" : "album",
        "artists" : [ {
          "external_urls" : {
            "spotify" : "https://open.spotify.com/artist/4tB0oTiIVlyFnkF8AoC0Wl"
          },
          "href" : "https://api.spotify.com/v1/artists/4tB0oTiIVlyFnkF8AoC0Wl",
          "id" : "4tB0oTiIVlyFnkF8AoC0Wl",
          "name" : "El McMeen",
          "type" : "artist",
          "uri" : "spotify:artist:4tB0oTiIVlyFnkF8AoC0Wl"
        } ],
        "external_urls" : {
          "spotify" : "https://open.spotify.com/album/0HwQKFZ2yph8Hif4IC20zg"
        },
        "href" : "https://api.spotify.com/v1/albums/0HwQKFZ2yph8Hif4IC20zg",
        "id" : "0HwQKFZ2yph8Hif4IC20zg",
        "images" : [ {
          "height" : 640,
          "url" : "https://i.scdn.co/image/ab67616d0000b273431ce3e41dbc88a20fdaaf75",
          "width" : 640
        }, {
          "height" : 300,
          "url" : "https://i.scdn.co/image/ab67616d00001e02431ce3e41dbc88a20fdaaf75",
          "width" : 300
        }, {
          "height" : 64,
          "url" : "https://i.scdn.co/image/ab67616d00004851431ce3e41dbc88a20fdaaf75",
          "width" : 64
        } ],
        "name" : "Gospel Guitar Treasures",
        "release_date" : "2018-02-18",
        "release_date_precision" : "day",
        "total_tracks" : 27,
        "type" : "album",
        "uri" : "spotify:album:0HwQKFZ2yph8Hif4IC20zg"
      },
      "artists" : [ {
        "external_urls" : {
          "spotify" : "https://open.spotify.com/artist/4tB0oTiIVlyFnkF8AoC0Wl"
        },
        "href" : "https://api.spotify.com/v1/artists/4tB0oTiIVlyFnkF8AoC0Wl",
        "id" : "4tB0oTiIVlyFnkF8AoC0Wl",
        "name" : "El McMeen",
        "type" : "artist",
        "uri" : "spotify:artist:4tB0oTiIVlyFnkF8AoC0Wl"
      } ],
      "disc_number" : 1,
      "duration_ms" : 206173,
      "explicit" : false,
      "external_ids" : {
        "isrc" : "uscgh1897314"
      },
      "external_urls" : {
        "spotify" : "https://open.spotify.com/track/2coJb3tCDxdyzPd4XKls6S"
      },
      "href" : "https://api.spotify.com/v1/tracks/2coJb3tCDxdyzPd4XKls6S",
      "id" : "2coJb3tCDxdyzPd4XKls6S",
      "is_local" : false,
      "is_playable" : true,
      "name" : "Once to Every Man and Nation / Joshua Fit the Battle of Jericho",
      "popularity" : 3,
      "preview_url" : "https://p.scdn.co/mp3-preview/601645c3b6658b176e8e50bc2ad3abc3e18cfafe?cid=774b29d4f13844c495f206cafdad9c86",
      "track_number" : 20,
      "type" : "track",
      "uri" : "spotify:track:2coJb3tCDxdyzPd4XKls6S"
    }, {
      "album" : {
        "album_type" : "album",
        "artists" : [ {
          "external_urls" : {
            "spotify" : "https://open.spotify.com/artist/6yzeFVywz6rMJdt9hT9zvx"
          },
          "href" : "https://api.spotify.com/v1/artists/6yzeFVywz6rMJdt9hT9zvx",
          "id" : "6yzeFVywz6rMJdt9hT9zvx",
          "name" : "Jim Wood",
          "type" : "artist",
          "uri" : "spotify:artist:6yzeFVywz6rMJdt9hT9zvx"
        } ],
        "external_urls" : {
          "spotify" : "https://open.spotify.com/album/7tesw62NwMg5PSHLK5517Q"
        },
        "href" : "https://api.spotify.com/v1/albums/7tesw62NwMg5PSHLK5517Q",
        "id" : "7tesw62NwMg5PSHLK5517Q",
        "images" : [ {
          "height" : 640,
          "url" : "https://i.scdn.co/image/ab67616d0000b273cc773d48b3cb4a60a0199429",
          "width" : 640
        }, {
          "height" : 300,
          "url" : "https://i.scdn.co/image/ab67616d00001e02cc773d48b3cb4a60a0199429",
          "width" : 300
        }, {
          "height" : 64,
          "url" : "https://i.scdn.co/image/ab67616d00004851cc773d48b3cb4a60a0199429",
          "width" : 64
        } ],
        "name" : "Celtic Revival",
        "release_date" : "2017-02-02",
        "release_date_precision" : "day",
        "total_tracks" : 10,
        "type" : "album",
        "uri" : "spotify:album:7tesw62NwMg5PSHLK5517Q"
      },
      "artists" : [ {
        "external_urls" : {
          "spotify" : "https://open.spotify.com/artist/6yzeFVywz6rMJdt9hT9zvx"
        },
        "href" : "https://api.spotify.com/v1/artists/6yzeFVywz6rMJdt9hT9zvx",
        "id" : "6yzeFVywz6rMJdt9hT9zvx",
        "name" : "Jim Wood",
        "type" : "artist",
        "uri" : "spotify:artist:6yzeFVywz6rMJdt9hT9zvx"
      } ],
      "disc_number" : 1,
      "duration_ms" : 186800,
      "explicit" : false,
      "external_ids" : {
        "isrc" : "US3DF1701098"
      },
      "external_urls" : {
        "spotify" : "https://open.spotify.com/track/5EVnu5A4X3CuSdsq0jqRVd"
      },
      "href" : "https://api.spotify.com/v1/tracks/5EVnu5A4X3CuSdsq0jqRVd",
      "id" : "5EVnu5A4X3CuSdsq0jqRVd",
      "is_local" : false,
      "is_playable" : true,
      "name" : "Once To Every Man And Nation",
      "popularity" : 2,
      "preview_url" : "https://p.scdn.co/mp3-preview/b878a8acf6b878a0ae43e98845904aa1234ef619?cid=774b29d4f13844c495f206cafdad9c86",
      "track_number" : 2,
      "type" : "track",
      "uri" : "spotify:track:5EVnu5A4X3CuSdsq0jqRVd"
    }, {
      "album" : {
        "album_type" : "album",
        "artists" : [ {
          "external_urls" : {
            "spotify" : "https://open.spotify.com/artist/20rlbkwNSoLrLqQUR7GRcT"
          },
          "href" : "https://api.spotify.com/v1/artists/20rlbkwNSoLrLqQUR7GRcT",
          "id" : "20rlbkwNSoLrLqQUR7GRcT",
          "name" : "Mother’s Lullaby",
          "type" : "artist",
          "uri" : "spotify:artist:20rlbkwNSoLrLqQUR7GRcT"
        } ],
        "external_urls" : {
          "spotify" : "https://open.spotify.com/album/7Mpiwy7SrenUqsIvyiTO41"
        },
        "href" : "https://api.spotify.com/v1/albums/7Mpiwy7SrenUqsIvyiTO41",
        "id" : "7Mpiwy7SrenUqsIvyiTO41",
        "images" : [ {
          "height" : 640,
          "url" : "https://i.scdn.co/image/ab67616d0000b27367d3fd4f6b5befe73e795a8b",
          "width" : 640
        }, {
          "height" : 300,
          "url" : "https://i.scdn.co/image/ab67616d00001e0267d3fd4f6b5befe73e795a8b",
          "width" : 300
        }, {
          "height" : 64,
          "url" : "https://i.scdn.co/image/ab67616d0000485167d3fd4f6b5befe73e795a8b",
          "width" : 64
        } ],
        "name" : "찬송가 반주곡 대전집 Vol.24 (501~558장)_(Hymns Vol.24)",
        "release_date" : "2019-12-24",
        "release_date_precision" : "day",
        "total_tracks" : 58,
        "type" : "album",
        "uri" : "spotify:album:7Mpiwy7SrenUqsIvyiTO41"
      },
      "artists" : [ {
        "external_urls" : {
          "spotify" : "https://open.spotify.com/artist/20rlbkwNSoLrLqQUR7GRcT"
        },
        "href" : "https://api.spotify.com/v1/artists/20rlbkwNSoLrLqQUR7GRcT",
        "id" : "20rlbkwNSoLrLqQUR7GRcT",
        "name" : "Mother’s Lullaby",
        "type" : "artist",
        "uri" : "spotify:artist:20rlbkwNSoLrLqQUR7GRcT"
      } ],
      "disc_number" : 1,
      "duration_ms" : 211481,
      "explicit" : false,
      "external_ids" : {
        "isrc" : "QZEKE1923804"
      },
      "external_urls" : {
        "spotify" : "https://open.spotify.com/track/5Kb2DpKu2WWbZVcVVUZvYR"
      },
      "href" : "https://api.spotify.com/v1/tracks/5Kb2DpKu2WWbZVcVVUZvYR",
      "id" : "5Kb2DpKu2WWbZVcVVUZvYR",
      "is_local" : false,
      "is_playable" : true,
      "name" : "Once To Every Man And Nation",
      "popularity" : 0,
      "preview_url" : "https://p.scdn.co/mp3-preview/2f9bf219dd4f48dbd153cee6056da67f29d16760?cid=774b29d4f13844c495f206cafdad9c86",
      "track_number" : 21,
      "type" : "track",
      "uri" : "spotify:track:5Kb2DpKu2WWbZVcVVUZvYR"
    }, {
      "album" : {
        "album_type" : "album",
        "artists" : [ {
          "external_urls" : {
            "spotify" : "https://open.spotify.com/artist/5T7GhAt491kW3zOl4waQhJ"
          },
          "href" : "https://api.spotify.com/v1/artists/5T7GhAt491kW3zOl4waQhJ",
          "id" : "5T7GhAt491kW3zOl4waQhJ",
          "name" : "Chuck and Karen Harris",
          "type" : "artist",
          "uri" : "spotify:artist:5T7GhAt491kW3zOl4waQhJ"
        } ],
        "external_urls" : {
          "spotify" : "https://open.spotify.com/album/0iWhsPstX0xZWk0yeCCqce"
        },
        "href" : "https://api.spotify.com/v1/albums/0iWhsPstX0xZWk0yeCCqce",
        "id" : "0iWhsPstX0xZWk0yeCCqce",
        "images" : [ {
          "height" : 640,
          "url" : "https://i.scdn.co/image/ab67616d0000b27398c88faed76cf326d947fdbf",
          "width" : 640
        }, {
          "height" : 300,
          "url" : "https://i.scdn.co/image/ab67616d00001e0298c88faed76cf326d947fdbf",
          "width" : 300
        }, {
          "height" : 64,
          "url" : "https://i.scdn.co/image/ab67616d0000485198c88faed76cf326d947fdbf",
          "width" : 64
        } ],
        "name" : "Day Is Almost Done",
        "release_date" : "2016-11-01",
        "release_date_precision" : "day",
        "total_tracks" : 12,
        "type" : "album",
        "uri" : "spotify:album:0iWhsPstX0xZWk0yeCCqce"
      },
      "artists" : [ {
        "external_urls" : {
          "spotify" : "https://open.spotify.com/artist/5T7GhAt491kW3zOl4waQhJ"
        },
        "href" : "https://api.spotify.com/v1/artists/5T7GhAt491kW3zOl4waQhJ",
        "id" : "5T7GhAt491kW3zOl4waQhJ",
        "name" : "Chuck and Karen Harris",
        "type" : "artist",
        "uri" : "spotify:artist:5T7GhAt491kW3zOl4waQhJ"
      } ],
      "disc_number" : 1,
      "duration_ms" : 306763,
      "explicit" : false,
      "external_ids" : {
        "isrc" : "QM3WD1600003"
      },
      "external_urls" : {
        "spotify" : "https://open.spotify.com/track/2raeU4DA50JfB6a7davXj8"
      },
      "href" : "https://api.spotify.com/v1/tracks/2raeU4DA50JfB6a7davXj8",
      "id" : "2raeU4DA50JfB6a7davXj8",
      "is_local" : false,
      "is_playable" : true,
      "name" : "Once to Every Man and Nation",
      "popularity" : 1,
      "preview_url" : "https://p.scdn.co/mp3-preview/6ea9794ca31be9ea2bff90610dad1ff4bba76c90?cid=774b29d4f13844c495f206cafdad9c86",
      "track_number" : 3,
      "type" : "track",
      "uri" : "spotify:track:2raeU4DA50JfB6a7davXj8"
    }, {
      "album" : {
        "album_type" : "album",
        "artists" : [ {
          "external_urls" : {
            "spotify" : "https://open.spotify.com/artist/6yBX3YVNN0RIdVGTFRo4Ay"
          },
          "href" : "https://api.spotify.com/v1/artists/6yBX3YVNN0RIdVGTFRo4Ay",
          "id" : "6yBX3YVNN0RIdVGTFRo4Ay",
          "name" : "Bussemse Koorvereniging Pro Musica",
          "type" : "artist",
          "uri" : "spotify:artist:6yBX3YVNN0RIdVGTFRo4Ay"
        } ],
        "external_urls" : {
          "spotify" : "https://open.spotify.com/album/64E2FCJCHGO88jQOG53ORv"
        },
        "href" : "https://api.spotify.com/v1/albums/64E2FCJCHGO88jQOG53ORv",
        "id" : "64E2FCJCHGO88jQOG53ORv",
        "images" : [ {
          "height" : 640,
          "url" : "https://i.scdn.co/image/ab67616d0000b27342ec8b09cbd33adf0b4dee90",
          "width" : 640
        }, {
          "height" : 300,
          "url" : "https://i.scdn.co/image/ab67616d00001e0242ec8b09cbd33adf0b4dee90",
          "width" : 300
        }, {
          "height" : 64,
          "url" : "https://i.scdn.co/image/ab67616d0000485142ec8b09cbd33adf0b4dee90",
          "width" : 64
        } ],
        "name" : "Rejoice",
        "release_date" : "1993-07-11",
        "release_date_precision" : "day",
        "total_tracks" : 14,
        "type" : "album",
        "uri" : "spotify:album:64E2FCJCHGO88jQOG53ORv"
      },
      "artists" : [ {
        "external_urls" : {
          "spotify" : "https://open.spotify.com/artist/6yBX3YVNN0RIdVGTFRo4Ay"
        },
        "href" : "https://api.spotify.com/v1/artists/6yBX3YVNN0RIdVGTFRo4Ay",
        "id" : "6yBX3YVNN0RIdVGTFRo4Ay",
        "name" : "Bussemse Koorvereniging Pro Musica",
        "type" : "artist",
        "uri" : "spotify:artist:6yBX3YVNN0RIdVGTFRo4Ay"
      } ],
      "disc_number" : 1,
      "duration_ms" : 365733,
      "explicit" : false,
      "external_ids" : {
        "isrc" : "NLY8X1800068"
      },
      "external_urls" : {
        "spotify" : "https://open.spotify.com/track/5qT2lpy9UkD2E2alpNNPwx"
      },
      "href" : "https://api.spotify.com/v1/tracks/5qT2lpy9UkD2E2alpNNPwx",
      "id" : "5qT2lpy9UkD2E2alpNNPwx",
      "is_local" : false,
      "is_playable" : true,
      "name" : "Once to Every Man and Nation",
      "popularity" : 0,
      "preview_url" : "https://p.scdn.co/mp3-preview/8d74ec8614e22d6b327fef4c9ca2b1d944aeda3f?cid=774b29d4f13844c495f206cafdad9c86",
      "track_number" : 6,
      "type" : "track",
      "uri" : "spotify:track:5qT2lpy9UkD2E2alpNNPwx"
    }, {
      "album" : {
        "album_type" : "album",
        "artists" : [ {
          "external_urls" : {
            "spotify" : "https://open.spotify.com/artist/5IDYzneznXPEbmA1Jq4wUj"
          },
          "href" : "https://api.spotify.com/v1/artists/5IDYzneznXPEbmA1Jq4wUj",
          "id" : "5IDYzneznXPEbmA1Jq4wUj",
          "name" : "Neal Ewers",
          "type" : "artist",
          "uri" : "spotify:artist:5IDYzneznXPEbmA1Jq4wUj"
        } ],
        "external_urls" : {
          "spotify" : "https://open.spotify.com/album/0Hza96RpTOPuz0PKatniwI"
        },
        "href" : "https://api.spotify.com/v1/albums/0Hza96RpTOPuz0PKatniwI",
        "id" : "0Hza96RpTOPuz0PKatniwI",
        "images" : [ {
          "height" : 640,
          "url" : "https://i.scdn.co/image/ab67616d0000b2733655941ec007288b96616ec4",
          "width" : 640
        }, {
          "height" : 300,
          "url" : "https://i.scdn.co/image/ab67616d00001e023655941ec007288b96616ec4",
          "width" : 300
        }, {
          "height" : 64,
          "url" : "https://i.scdn.co/image/ab67616d000048513655941ec007288b96616ec4",
          "width" : 64
        } ],
        "name" : "Amazing Grace and Other Traditional Hymns",
        "release_date" : "2003",
        "release_date_precision" : "year",
        "total_tracks" : 27,
        "type" : "album",
        "uri" : "spotify:album:0Hza96RpTOPuz0PKatniwI"
      },
      "artists" : [ {
        "external_urls" : {
          "spotify" : "https://open.spotify.com/artist/5IDYzneznXPEbmA1Jq4wUj"
        },
        "href" : "https://api.spotify.com/v1/artists/5IDYzneznXPEbmA1Jq4wUj",
        "id" : "5IDYzneznXPEbmA1Jq4wUj",
        "name" : "Neal Ewers",
        "type" : "artist",
        "uri" : "spotify:artist:5IDYzneznXPEbmA1Jq4wUj"
      } ],
      "disc_number" : 1,
      "duration_ms" : 135546,
      "explicit" : false,
      "external_ids" : {
        "isrc" : "ushm90662786"
      },
      "external_urls" : {
        "spotify" : "https://open.spotify.com/track/1UgecJXUBJie4WLi1jHTBe"
      },
      "href" : "https://api.spotify.com/v1/tracks/1UgecJXUBJie4WLi1jHTBe",
      "id" : "1UgecJXUBJie4WLi1jHTBe",
      "is_local" : false,
      "is_playable" : true,
      "name" : "Once to Every Man and Nation",
      "popularity" : 0,
      "preview_url" : "https://p.scdn.co/mp3-preview/d0ae29f294be53b5e461ac04bda2fa0b4ad55f60?cid=774b29d4f13844c495f206cafdad9c86",
      "track_number" : 11,
      "type" : "track",
      "uri" : "spotify:track:1UgecJXUBJie4WLi1jHTBe"
    }, {
      "album" : {
        "album_type" : "album",
        "artists" : [ {
          "external_urls" : {
            "spotify" : "https://open.spotify.com/artist/4LnLcJGLiMbcDiIYXeY2KQ"
          },
          "href" : "https://api.spotify.com/v1/artists/4LnLcJGLiMbcDiIYXeY2KQ",
          "id" : "4LnLcJGLiMbcDiIYXeY2KQ",
          "name" : "Bob Bellamy",
          "type" : "artist",
          "uri" : "spotify:artist:4LnLcJGLiMbcDiIYXeY2KQ"
        }, {
          "external_urls" : {
            "spotify" : "https://open.spotify.com/artist/3TWMObfkAbLXg9kfnxl17B"
          },
          "href" : "https://api.spotify.com/v1/artists/3TWMObfkAbLXg9kfnxl17B",
          "id" : "3TWMObfkAbLXg9kfnxl17B",
          "name" : "Wendy Barlow",
          "type" : "artist",
          "uri" : "spotify:artist:3TWMObfkAbLXg9kfnxl17B"
        } ],
        "external_urls" : {
          "spotify" : "https://open.spotify.com/album/2X38E1j4T7sYzvSAYJJI5f"
        },
        "href" : "https://api.spotify.com/v1/albums/2X38E1j4T7sYzvSAYJJI5f",
        "id" : "2X38E1j4T7sYzvSAYJJI5f",
        "images" : [ {
          "height" : 640,
          "url" : "https://i.scdn.co/image/ab67616d0000b273e76edde44d2cfa848090a21c",
          "width" : 640
        }, {
          "height" : 300,
          "url" : "https://i.scdn.co/image/ab67616d00001e02e76edde44d2cfa848090a21c",
          "width" : 300
        }, {
          "height" : 64,
          "url" : "https://i.scdn.co/image/ab67616d00004851e76edde44d2cfa848090a21c",
          "width" : 64
        } ],
        "name" : "Softly and Tenderly",
        "release_date" : "2004-09-01",
        "release_date_precision" : "day",
        "total_tracks" : 14,
        "type" : "album",
        "uri" : "spotify:album:2X38E1j4T7sYzvSAYJJI5f"
      },
      "artists" : [ {
        "external_urls" : {
          "spotify" : "https://open.spotify.com/artist/4LnLcJGLiMbcDiIYXeY2KQ"
        },
        "href" : "https://api.spotify.com/v1/artists/4LnLcJGLiMbcDiIYXeY2KQ",
        "id" : "4LnLcJGLiMbcDiIYXeY2KQ",
        "name" : "Bob Bellamy",
        "type" : "artist",
        "uri" : "spotify:artist:4LnLcJGLiMbcDiIYXeY2KQ"
      } ],
      "disc_number" : 1,
      "duration_ms" : 185440,
      "explicit" : false,
      "external_ids" : {
        "isrc" : "ushm81781244"
      },
      "external_urls" : {
        "spotify" : "https://open.spotify.com/track/3BRmsPNb9Lkm0mWn268WNi"
      },
      "href" : "https://api.spotify.com/v1/tracks/3BRmsPNb9Lkm0mWn268WNi",
      "id" : "3BRmsPNb9Lkm0mWn268WNi",
      "is_local" : false,
      "is_playable" : true,
      "name" : "Once to Every Man and Nation",
      "popularity" : 0,
      "preview_url" : "https://p.scdn.co/mp3-preview/a0bef682d01898e2bfac9c99fb44cc1c3dacc9d6?cid=774b29d4f13844c495f206cafdad9c86",
      "track_number" : 6,
      "type" : "track",
      "uri" : "spotify:track:3BRmsPNb9Lkm0mWn268WNi"
    }, {
      "album" : {
        "album_type" : "album",
        "artists" : [ {
          "external_urls" : {
            "spotify" : "https://open.spotify.com/artist/6gXQ2KemBfEPPiIksjd5Gm"
          },
          "href" : "https://api.spotify.com/v1/artists/6gXQ2KemBfEPPiIksjd5Gm",
          "id" : "6gXQ2KemBfEPPiIksjd5Gm",
          "name" : "Sun Ahn",
          "type" : "artist",
          "uri" : "spotify:artist:6gXQ2KemBfEPPiIksjd5Gm"
        } ],
        "external_urls" : {
          "spotify" : "https://open.spotify.com/album/4gU8ViNKWhdt5p0Pc2GbGp"
        },
        "href" : "https://api.spotify.com/v1/albums/4gU8ViNKWhdt5p0Pc2GbGp",
        "id" : "4gU8ViNKWhdt5p0Pc2GbGp",
        "images" : [ {
          "height" : 640,
          "url" : "https://i.scdn.co/image/ab67616d0000b273c3104daf9139cf3d948ea50a",
          "width" : 640
        }, {
          "height" : 300,
          "url" : "https://i.scdn.co/image/ab67616d00001e02c3104daf9139cf3d948ea50a",
          "width" : 300
        }, {
          "height" : 64,
          "url" : "https://i.scdn.co/image/ab67616d00004851c3104daf9139cf3d948ea50a",
          "width" : 64
        } ],
        "name" : "Truly Yours",
        "release_date" : "2013-05-21",
        "release_date_precision" : "day",
        "total_tracks" : 11,
        "type" : "album",
        "uri" : "spotify:album:4gU8ViNKWhdt5p0Pc2GbGp"
      },
      "artists" : [ {
        "external_urls" : {
          "spotify" : "https://open.spotify.com/artist/6gXQ2KemBfEPPiIksjd5Gm"
        },
        "href" : "https://api.spotify.com/v1/artists/6gXQ2KemBfEPPiIksjd5Gm",
        "id" : "6gXQ2KemBfEPPiIksjd5Gm",
        "name" : "Sun Ahn",
        "type" : "artist",
        "uri" : "spotify:artist:6gXQ2KemBfEPPiIksjd5Gm"
      } ],
      "disc_number" : 1,
      "duration_ms" : 291480,
      "explicit" : false,
      "external_ids" : {
        "isrc" : "ushm21344936"
      },
      "external_urls" : {
        "spotify" : "https://open.spotify.com/track/6QeublgTJXTImTMAFs9IiM"
      },
      "href" : "https://api.spotify.com/v1/tracks/6QeublgTJXTImTMAFs9IiM",
      "id" : "6QeublgTJXTImTMAFs9IiM",
      "is_local" : false,
      "is_playable" : true,
      "name" : "Once to Every Man and Nation",
      "popularity" : 0,
      "preview_url" : "https://p.scdn.co/mp3-preview/cf0353033f800e240e780327eb053b7a4552bd24?cid=774b29d4f13844c495f206cafdad9c86",
      "track_number" : 9,
      "type" : "track",
      "uri" : "spotify:track:6QeublgTJXTImTMAFs9IiM"
    }, {
      "album" : {
        "album_type" : "album",
        "artists" : [ {
          "external_urls" : {
            "spotify" : "https://open.spotify.com/artist/1Lwd3crEb3YBoQnmIHY6ZY"
          },
          "href" : "https://api.spotify.com/v1/artists/1Lwd3crEb3YBoQnmIHY6ZY",
          "id" : "1Lwd3crEb3YBoQnmIHY6ZY",
          "name" : "James Gilbert",
          "type" : "artist",
          "uri" : "spotify:artist:1Lwd3crEb3YBoQnmIHY6ZY"
        } ],
        "external_urls" : {
          "spotify" : "https://open.spotify.com/album/4eraeyHLeNsDRWXn0p16Iy"
        },
        "href" : "https://api.spotify.com/v1/albums/4eraeyHLeNsDRWXn0p16Iy",
        "id" : "4eraeyHLeNsDRWXn0p16Iy",
        "images" : [ {
          "height" : 640,
          "url" : "https://i.scdn.co/image/ab67616d0000b273f02c860c919e96a36b4a13b7",
          "width" : 640
        }, {
          "height" : 300,
          "url" : "https://i.scdn.co/image/ab67616d00001e02f02c860c919e96a36b4a13b7",
          "width" : 300
        }, {
          "height" : 64,
          "url" : "https://i.scdn.co/image/ab67616d00004851f02c860c919e96a36b4a13b7",
          "width" : 64
        } ],
        "name" : "Hymns: Plugged In",
        "release_date" : "2020-01-13",
        "release_date_precision" : "day",
        "total_tracks" : 11,
        "type" : "album",
        "uri" : "spotify:album:4eraeyHLeNsDRWXn0p16Iy"
      },
      "artists" : [ {
        "external_urls" : {
          "spotify" : "https://open.spotify.com/artist/1Lwd3crEb3YBoQnmIHY6ZY"
        },
        "href" : "https://api.spotify.com/v1/artists/1Lwd3crEb3YBoQnmIHY6ZY",
        "id" : "1Lwd3crEb3YBoQnmIHY6ZY",
        "name" : "James Gilbert",
        "type" : "artist",
        "uri" : "spotify:artist:1Lwd3crEb3YBoQnmIHY6ZY"
      } ],
      "disc_number" : 1,
      "duration_ms" : 185543,
      "explicit" : false,
      "external_ids" : {
        "isrc" : "uscgh2024330"
      },
      "external_urls" : {
        "spotify" : "https://open.spotify.com/track/1Gdf0y2gEO1vo5AlKPpBi4"
      },
      "href" : "https://api.spotify.com/v1/tracks/1Gdf0y2gEO1vo5AlKPpBi4",
      "id" : "1Gdf0y2gEO1vo5AlKPpBi4",
      "is_local" : false,
      "is_playable" : true,
      "name" : "Once to Every Man and Nation",
      "popularity" : 0,
      "preview_url" : "https://p.scdn.co/mp3-preview/dd0faa60a30b73fe6eb9c65ad5e5f23d52d5fffe?cid=774b29d4f13844c495f206cafdad9c86",
      "track_number" : 11,
      "type" : "track",
      "uri" : "spotify:track:1Gdf0y2gEO1vo5AlKPpBi4"
    }, {
      "album" : {
        "album_type" : "album",
        "artists" : [ {
          "external_urls" : {
            "spotify" : "https://open.spotify.com/artist/0dkxLbCmdF2qH1QWrsciD8"
          },
          "href" : "https://api.spotify.com/v1/artists/0dkxLbCmdF2qH1QWrsciD8",
          "id" : "0dkxLbCmdF2qH1QWrsciD8",
          "name" : "Junhee Kim",
          "type" : "artist",
          "uri" : "spotify:artist:0dkxLbCmdF2qH1QWrsciD8"
        } ],
        "external_urls" : {
          "spotify" : "https://open.spotify.com/album/1r9Z0LZvHCK5kSQj18h0e1"
        },
        "href" : "https://api.spotify.com/v1/albums/1r9Z0LZvHCK5kSQj18h0e1",
        "id" : "1r9Z0LZvHCK5kSQj18h0e1",
        "images" : [ {
          "height" : 640,
          "url" : "https://i.scdn.co/image/ab67616d0000b2732fc0a7783834c999b51ca77d",
          "width" : 640
        }, {
          "height" : 300,
          "url" : "https://i.scdn.co/image/ab67616d00001e022fc0a7783834c999b51ca77d",
          "width" : 300
        }, {
          "height" : 64,
          "url" : "https://i.scdn.co/image/ab67616d000048512fc0a7783834c999b51ca77d",
          "width" : 64
        } ],
        "name" : "Jun Hee Kim Piano Prayer",
        "release_date" : "2020-04-21",
        "release_date_precision" : "day",
        "total_tracks" : 15,
        "type" : "album",
        "uri" : "spotify:album:1r9Z0LZvHCK5kSQj18h0e1"
      },
      "artists" : [ {
        "external_urls" : {
          "spotify" : "https://open.spotify.com/artist/0dkxLbCmdF2qH1QWrsciD8"
        },
        "href" : "https://api.spotify.com/v1/artists/0dkxLbCmdF2qH1QWrsciD8",
        "id" : "0dkxLbCmdF2qH1QWrsciD8",
        "name" : "Junhee Kim",
        "type" : "artist",
        "uri" : "spotify:artist:0dkxLbCmdF2qH1QWrsciD8"
      } ],
      "disc_number" : 1,
      "duration_ms" : 275968,
      "explicit" : false,
      "external_ids" : {
        "isrc" : "KRF632001379"
      },
      "external_urls" : {
        "spotify" : "https://open.spotify.com/track/2XsLStjcFQ7WJ7NABWnAE9"
      },
      "href" : "https://api.spotify.com/v1/tracks/2XsLStjcFQ7WJ7NABWnAE9",
      "id" : "2XsLStjcFQ7WJ7NABWnAE9",
      "is_local" : false,
      "is_playable" : true,
      "name" : "Once to Every Man and Nation",
      "popularity" : 0,
      "preview_url" : "https://p.scdn.co/mp3-preview/e372588b2845533c6389881788c4f36d445209fa?cid=774b29d4f13844c495f206cafdad9c86",
      "track_number" : 1,
      "type" : "track",
      "uri" : "spotify:track:2XsLStjcFQ7WJ7NABWnAE9"
    } ],
    "limit" : 10,
    "next" : "https://api.spotify.com/v1/search?query=Once+to+Every+Man+and+Nation&type=track&market=US&offset=15&limit=10",
    "offset" : 5,
    "previous" : "https://api.spotify.com/v1/search?query=Once+to+Every+Man+and+Nation&type=track&market=US&offset=0&limit=10",
    "total" : 27
  }
}