{
  "tracks" : {
    "href" : "https://api.spotify.com/v1/search?query=Hark%21+Ten+Thousand+Harps+and+Voices&type=track&market=US&offset=5&limit=10",
    "items" : [ {
      "album" : {
        "album_type" : "album",
        "artists" : [ {
          "external_urls" : {
            "spotify" : "https://open.spotify.com/artist/5bRMwV4TfltR1AR4VsQ4eR"
          },
          "href" : "https://api.spotify.com/v1/artists/5bRMwV4TfltR1AR4VsQ4eR",
          "id" : "5bRMwV4TfltR1AR4VsQ4eR",
          "name" : "The Abilene Christian University Alumni Chorus",
          "type" : "artist",
          "uri" : "spotify:artist:5bRMwV4TfltR1AR4VsQ4eR"
        } ],
        "external_urls" : {
          "spotify" : "https://open.spotify.com/album/7kzhj4PiD8qvCXF7NaXnd7"
        },
        "href" : "https://api.spotify.com/v1/albums/7kzhj4PiD8qvCXF7NaXnd7",
        "id" : "7kzhj4PiD8qvCXF7NaXnd7",
        "images" : [ {
          "height" : 640,
          "url" : "https://i.scdn.co/image/ab67616d0000b273f147d315f5dcc1161cd018ee",
          "width" : 640
        }, {
          "height" : 300,
          "url" : "https://i.scdn.co/image/ab67616d00001e02f147d315f5dcc1161cd018ee",
          "width" : 300
        }, {
          "height" : 64,
          "url" : "https://i.scdn.co/image/ab67616d00004851f147d315f5dcc1161cd018ee",
          "width" : 64
        } ],
        "name" : "Come, Ye Thankful People, Come",
        "release_date" : "2008-01-01",
        "release_date_precision" : "day",
        "total_tracks" : 25,
        "type" : "album",
        "uri" : "spotify:album:7kzhj4PiD8qvCXF7NaXnd7"
      },
      "artists" : [ {
        "external_urls" : {
          "spotify" : "https://open.spotify.com/artist/5bRMwV4TfltR1AR4VsQ4eR"
        },
        "href" : "https://api.spotify.com/v1/artists/5bRMwV4TfltR1AR4VsQ4eR",
        "id" : "5bRMwV4TfltR1AR4VsQ4eR",
        "name" : "The Abilene Christian University Alumni Chorus",
        "type" : "artist",
        "uri" : "spotify:artist:5bRMwV4TfltR1AR4VsQ4eR"
      } ],
      "disc_number" : 1,
      "duration_ms" : 112320,
      "explicit" : false,
      "external_ids" : {
        "isrc" : "usy280713477"
      },
      "external_urls" : {
        "spotify" : "https://open.spotify.com/track/4bcpEb7JdIj45riJUWP4vX"
      },
      "href" : "https://api.spotify.com/v1/tracks/4bcpEb7JdIj45riJUWP4vX",
      "id" : "4bcpEb7JdIj45riJUWP4vX",
      "is_local" : false,
      "is_playable" : true,
      "name" : "Hark! Ten Thousand Harps And Voices",
      "popularity" : 1,
      "preview_url" : "https://p.scdn.co/mp3-preview/8350c660bd79fe7a783fd326f9af294cf194a4a7?cid=774b29d4f13844c495f206cafdad9c86",
      "track_number" : 4,
      "type" : "track",
      "uri" : "spotify:track:4bcpEb7JdIj45riJUWP4vX"
    }, {
      "album" : {
        "album_type" : "album",
        "artists" : [ {
          "external_urls" : {
            "spotify" : "https://open.spotify.com/artist/27HpKO5tx7PUZdRRhfBAD7"
          },
          "href" : "https://api.spotify.com/v1/artists/27HpKO5tx7PUZdRRhfBAD7",
          "id" : "27HpKO5tx7PUZdRRhfBAD7",
          "name" : "Lullaby & Prenatal Band",
          "type" : "artist",
          "uri" : "spotify:artist:27HpKO5tx7PUZdRRhfBAD7"
        } ],
        "external_urls" : {
          "spotify" : "https://open.spotify.com/album/2GhVeZkzOse1qyslTK52jo"
        },
        "href" : "https://api.spotify.com/v1/albums/2GhVeZkzOse1qyslTK52jo",
        "id" : "2GhVeZkzOse1qyslTK52jo",
        "images" : [ {
          "height" : 640,
          "url" : "https://i.scdn.co/image/ab67616d0000b2738be737f56e0ddf30a627ca86",
          "width" : 640
        }, {
          "height" : 300,
          "url" : "https://i.scdn.co/image/ab67616d00001e028be737f56e0ddf30a627ca86",
          "width" : 300
        }, {
          "height" : 64,
          "url" : "https://i.scdn.co/image/ab67616d000048518be737f56e0ddf30a627ca86",
          "width" : 64
        } ],
        "name" : "Jazz Piano for Prenatal Care, Collection",
        "release_date" : "2017-08-10",
        "release_date_precision" : "day",
        "total_tracks" : 32,
        "type" : "album",
        "uri" : "spotify:album:2GhVeZkzOse1qyslTK52jo"
      },
      "artists" : [ {
        "external_urls" : {
          "spotify" : "https://open.spotify.com/artist/27HpKO5tx7PUZdRRhfBAD7"
        },
        "href" : "https://api.spotify.com/v1/artists/27HpKO5tx7PUZdRRhfBAD7",
        "id" : "27HpKO5tx7PUZdRRhfBAD7",
        "name" : "Lullaby & Prenatal Band",
        "type" : "artist",
        "uri" : "spotify:artist:27HpKO5tx7PUZdRRhfBAD7"
      } ],
      "disc_number" : 1,
      "duration_ms" : 118000,
      "explicit" : false,
      "external_ids" : {
        "isrc" : "KRB921702510"
      },
      "external_urls" : {
        "spotify" : "https://open.spotify.com/track/6icLoKM6I5DvIO7uW7XAFP"
      },
      "href" : "https://api.spotify.com/v1/tracks/6icLoKM6I5DvIO7uW7XAFP",
      "id" : "6icLoKM6I5DvIO7uW7XAFP",
      "is_local" : false,
      "is_playable" : true,
      "name" : "Hark, Ten Thousand Harps and Voices",
      "popularity" : 0,
      "preview_url" : "https://p.scdn.co/mp3-preview/1485523d3f982a15f09e09b087513a87385e8687?cid=774b29d4f13844c495f206cafdad9c86",
      "track_number" : 2,
      "type" : "track",
      "uri" : "spotify:track:6icLoKM6I5DvIO7uW7XAFP"
    }, {
      "album" : {
        "album_type" : "single",
        "artists" : [ {
          "external_urls" : {
            "spotify" : "https://open.spotify.com/artist/27HpKO5tx7PUZdRRhfBAD7"
          },
          "href" : "https://api.spotify.com/v1/artists/27HpKO5tx7PUZdRRhfBAD7",
          "id" : "27HpKO5tx7PUZdRRhfBAD7",
          "name" : "Lullaby & Prenatal Band",
          "type" : "artist",
          "uri" : "spotify:artist:27HpKO5tx7PUZdRRhfBAD7"
        } ],
        "external_urls" : {
          "spotify" : "https://open.spotify.com/album/2jr0ewxTCXlmQqQ6nabKJ4"
        },
        "href" : "https://api.spotify.com/v1/albums/2jr0ewxTCXlmQqQ6nabKJ4",
        "id" : "2jr0ewxTCXlmQqQ6nabKJ4",
        "images" : [ {
          "height" : 640,
          "url" : "https://i.scdn.co/image/ab67616d0000b2737cea209af14463c2289686c3",
          "width" : 640
        }, {
          "height" : 300,
          "url" : "https://i.scdn.co/image/ab67616d00001e027cea209af14463c2289686c3",
          "width" : 300
        }, {
          "height" : 64,
          "url" : "https://i.scdn.co/image/ab67616d000048517cea209af14463c2289686c3",
          "width" : 64
        } ],
        "name" : "Lullaby Hymn for My Baby (Version 8)",
        "release_date" : "2016-01-28",
        "release_date_precision" : "day",
        "total_tracks" : 5,
        "type" : "album",
        "uri" : "spotify:album:2jr0ewxTCXlmQqQ6nabKJ4"
      },
      "artists" : [ {
        "external_urls" : {
          "spotify" : "https://open.spotify.com/artist/27HpKO5tx7PUZdRRhfBAD7"
        },
        "href" : "https://api.spotify.com/v1/artists/27HpKO5tx7PUZdRRhfBAD7",
        "id" : "27HpKO5tx7PUZdRRhfBAD7",
        "name" : "Lullaby & Prenatal Band",
        "type" : "artist",
        "uri" : "spotify:artist:27HpKO5tx7PUZdRRhfBAD7"
      } ],
      "disc_number" : 1,
      "duration_ms" : 117882,
      "explicit" : false,
      "external_ids" : {
        "isrc" : "KRB921400135"
      },
      "external_urls" : {
        "spotify" : "https://open.spotify.com/track/19HPlZDlYA9AkmAHMyij7z"
      },
      "href" : "https://api.spotify.com/v1/tracks/19HPlZDlYA9AkmAHMyij7z",
      "id" : "19HPlZDlYA9AkmAHMyij7z",
      "is_local" : false,
      "is_playable" : true,
      "name" : "Hark Ten Thousand Harps and Voices",
      "popularity" : 0,
      "preview_url" : "https://p.scdn.co/mp3-preview/2cab162855d1243e41d8b8c796542025b7b98954?cid=774b29d4f13844c495f206cafdad9c86",
      "track_number" : 2,
      "type" : "track",
      "uri" : "spotify:track:19HPlZDlYA9AkmAHMyij7z"
    }, {
      "album" : {
        "album_type" : "album",
        "artists" : [ {
          "external_urls" : {
            "spotify" : "https://open.spotify.com/artist/20rlbkwNSoLrLqQUR7GRcT"
          },
          "href" : "https://api.spotify.com/v1/artists/20rlbkwNSoLrLqQUR7GRcT",
          "id" : "20rlbkwNSoLrLqQUR7GRcT",
          "name" : "Mother’s Lullaby",
          "type" : "artist",
          "uri" : "spotify:artist:20rlbkwNSoLrLqQUR7GRcT"
        } ],
        "external_urls" : {
          "spotify" : "https://open.spotify.com/album/1RWIOWRzX98Ar3iSwbwxK3"
        },
        "href" : "https://api.spotify.com/v1/albums/1RWIOWRzX98Ar3iSwbwxK3",
        "id" : "1RWIOWRzX98Ar3iSwbwxK3",
        "images" : [ {
          "height" : 640,
          "url" : "https://i.scdn.co/image/ab67616d0000b2732273db898a842b78c49a1cc5",
          "width" : 640
        }, {
          "height" : 300,
          "url" : "https://i.scdn.co/image/ab67616d00001e022273db898a842b78c49a1cc5",
          "width" : 300
        }, {
          "height" : 64,
          "url" : "https://i.scdn.co/image/ab67616d000048512273db898a842b78c49a1cc5",
          "width" : 64
        } ],
        "name" : "Hymns Vol. 2 (#26~#50)",
        "release_date" : "2019-01-11",
        "release_date_precision" : "day",
        "total_tracks" : 25,
        "type" : "album",
        "uri" : "spotify:album:1RWIOWRzX98Ar3iSwbwxK3"
      },
      "artists" : [ {
        "external_urls" : {
          "spotify" : "https://open.spotify.com/artist/20rlbkwNSoLrLqQUR7GRcT"
        },
        "href" : "https://api.spotify.com/v1/artists/20rlbkwNSoLrLqQUR7GRcT",
        "id" : "20rlbkwNSoLrLqQUR7GRcT",
        "name" : "Mother’s Lullaby",
        "type" : "artist",
        "uri" : "spotify:artist:20rlbkwNSoLrLqQUR7GRcT"
      } ],
      "disc_number" : 1,
      "duration_ms" : 113124,
      "explicit" : false,
      "external_ids" : {
        "isrc" : "KRZ291901498"
      },
      "external_urls" : {
        "spotify" : "https://open.spotify.com/track/2Vz0pKZB89yaqstjfqXXKE"
      },
      "href" : "https://api.spotify.com/v1/tracks/2Vz0pKZB89yaqstjfqXXKE",
      "id" : "2Vz0pKZB89yaqstjfqXXKE",
      "is_local" : false,
      "is_playable" : true,
      "name" : "Hark, ten Thousand Harps and Voices",
      "popularity" : 0,
      "preview_url" : "https://p.scdn.co/mp3-preview/3c531330866b7bef3d8568017126641eca577dce?cid=774b29d4f13844c495f206cafdad9c86",
      "track_number" : 19,
      "type" : "track",
      "uri" : "spotify:track:2Vz0pKZB89yaqstjfqXXKE"
    }, {
      "album" : {
        "album_type" : "single",
        "artists" : [ {
          "external_urls" : {
            "spotify" : "https://open.spotify.com/artist/33c0BeAErD3vae90Gt4M80"
          },
          "href" : "https://api.spotify.com/v1/artists/33c0BeAErD3vae90Gt4M80",
          "id" : "33c0BeAErD3vae90Gt4M80",
          "name" : "HolyCow",
          "type" : "artist",
          "uri" : "spotify:artist:33c0BeAErD3vae90Gt4M80"
        } ],
        "external_urls" : {
          "spotify" : "https://open.spotify.com/album/4OV1tJtkYeAal3iQxwMp2p"
        },
        "href" : "https://api.spotify.com/v1/albums/4OV1tJtkYeAal3iQxwMp2p",
        "id" : "4OV1tJtkYeAal3iQxwMp2p",
        "images" : [ {
          "height" : 640,
          "url" : "https://i.scdn.co/image/ab67616d0000b273a2ee33a2fdb7e9af691a79df",
          "width" : 640
        }, {
          "height" : 300,
          "url" : "https://i.scdn.co/image/ab67616d00001e02a2ee33a2fdb7e9af691a79df",
          "width" : 300
        }, {
          "height" : 64,
          "url" : "https://i.scdn.co/image/ab67616d00004851a2ee33a2fdb7e9af691a79df",
          "width" : 64
        } ],
        "name" : "God Bless You, Vol. 24",
        "release_date" : "2018-12-07",
        "release_date_precision" : "day",
        "total_tracks" : 2,
        "type" : "album",
        "uri" : "spotify:album:4OV1tJtkYeAal3iQxwMp2p"
      },
      "artists" : [ {
        "external_urls" : {
          "spotify" : "https://open.spotify.com/artist/33c0BeAErD3vae90Gt4M80"
        },
        "href" : "https://api.spotify.com/v1/artists/33c0BeAErD3vae90Gt4M80",
        "id" : "33c0BeAErD3vae90Gt4M80",
        "name" : "HolyCow",
        "type" : "artist",
        "uri" : "spotify:artist:33c0BeAErD3vae90Gt4M80"
      } ],
      "disc_number" : 1,
      "duration_ms" : 132000,
      "explicit" : false,
      "external_ids" : {
        "isrc" : "KRB921718979"
      },
      "external_urls" : {
        "spotify" : "https://open.spotify.com/track/2PgDZRQRKQlDyAQHz0fyoY"
      },
      "href" : "https://api.spotify.com/v1/tracks/2PgDZRQRKQlDyAQHz0fyoY",
      "id" : "2PgDZRQRKQlDyAQHz0fyoY",
      "is_local" : false,
      "is_playable" : true,
      "name" : "Hark, Ten Thousand Harps and Voices",
      "popularity" : 0,
      "preview_url" : "https://p.scdn.co/mp3-preview/23e335070e2baf6036e63b954091692e06e1ca5f?cid=774b29d4f13844c495f206cafdad9c86",
      "track_number" : 1,
      "type" : "track",
      "uri" : "spotify:track:2PgDZRQRKQlDyAQHz0fyoY"
    }, {
      "album" : {
        "album_type" : "single",
        "artists" : [ {
          "external_urls" : {
            "spotify" : "https://open.spotify.com/artist/27HpKO5tx7PUZdRRhfBAD7"
          },
          "href" : "https://api.spotify.com/v1/artists/27HpKO5tx7PUZdRRhfBAD7",
          "id" : "27HpKO5tx7PUZdRRhfBAD7",
          "name" : "Lullaby & Prenatal Band",
          "type" : "artist",
          "uri" : "spotify:artist:27HpKO5tx7PUZdRRhfBAD7"
        } ],
        "external_urls" : {
          "spotify" : "https://open.spotify.com/album/2BxVIzcyqD8XHj2yAdxwPO"
        },
        "href" : "https://api.spotify.com/v1/albums/2BxVIzcyqD8XHj2yAdxwPO",
        "id" : "2BxVIzcyqD8XHj2yAdxwPO",
        "images" : [ {
          "height" : 640,
          "url" : "https://i.scdn.co/image/ab67616d0000b27349057fc243445593d6e67b9d",
          "width" : 640
        }, {
          "height" : 300,
          "url" : "https://i.scdn.co/image/ab67616d00001e0249057fc243445593d6e67b9d",
          "width" : 300
        }, {
          "height" : 64,
          "url" : "https://i.scdn.co/image/ab67616d0000485149057fc243445593d6e67b9d",
          "width" : 64
        } ],
        "name" : "Jazz for Hymn Piano Jazz Album, Vol. 1",
        "release_date" : "2016-01-28",
        "release_date_precision" : "day",
        "total_tracks" : 2,
        "type" : "album",
        "uri" : "spotify:album:2BxVIzcyqD8XHj2yAdxwPO"
      },
      "artists" : [ {
        "external_urls" : {
          "spotify" : "https://open.spotify.com/artist/27HpKO5tx7PUZdRRhfBAD7"
        },
        "href" : "https://api.spotify.com/v1/artists/27HpKO5tx7PUZdRRhfBAD7",
        "id" : "27HpKO5tx7PUZdRRhfBAD7",
        "name" : "Lullaby & Prenatal Band",
        "type" : "artist",
        "uri" : "spotify:artist:27HpKO5tx7PUZdRRhfBAD7"
      } ],
      "disc_number" : 1,
      "duration_ms" : 118000,
      "explicit" : false,
      "external_ids" : {
        "isrc" : "KRB921400161"
      },
      "external_urls" : {
        "spotify" : "https://open.spotify.com/track/2sScttKN9n9M0MSZWF4iYN"
      },
      "href" : "https://api.spotify.com/v1/tracks/2sScttKN9n9M0MSZWF4iYN",
      "id" : "2sScttKN9n9M0MSZWF4iYN",
      "is_local" : false,
      "is_playable" : true,
      "name" : "Hark, Ten Thousand Harps and Voices",
      "popularity" : 0,
      "preview_url" : "https://p.scdn.co/mp3-preview/1485523d3f982a15f09e09b087513a87385e8687?cid=774b29d4f13844c495f206cafdad9c86",
      "track_number" : 2,
      "type" : "track",
      "uri" : "spotify:track:2sScttKN9n9M0MSZWF4iYN"
    }, {
      "album" : {
        "album_type" : "album",
        "artists" : [ {
          "external_urls" : {
            "spotify" : "https://open.spotify.com/artist/1qVFsazLyUuCpkMHMlSHtv"
          },
          "href" : "https://api.spotify.com/v1/artists/1qVFsazLyUuCpkMHMlSHtv",
          "id" : "1qVFsazLyUuCpkMHMlSHtv",
          "name" : "Orgel Hymn",
          "type" : "artist",
          "uri" : "spotify:artist:1qVFsazLyUuCpkMHMlSHtv"
        } ],
        "external_urls" : {
          "spotify" : "https://open.spotify.com/album/180YEVMG05CryiTYuOPRWu"
        },
        "href" : "https://api.spotify.com/v1/albums/180YEVMG05CryiTYuOPRWu",
        "id" : "180YEVMG05CryiTYuOPRWu",
        "images" : [ {
          "height" : 640,
          "url" : "https://i.scdn.co/image/ab67616d0000b273f38224afad5521bf41bfc5da",
          "width" : 640
        }, {
          "height" : 300,
          "url" : "https://i.scdn.co/image/ab67616d00001e02f38224afad5521bf41bfc5da",
          "width" : 300
        }, {
          "height" : 64,
          "url" : "https://i.scdn.co/image/ab67616d00004851f38224afad5521bf41bfc5da",
          "width" : 64
        } ],
        "name" : "Orgel Hymn 5 - Praise (오르골 찬송가 5 - 찬양)",
        "release_date" : "2014-07-26",
        "release_date_precision" : "day",
        "total_tracks" : 8,
        "type" : "album",
        "uri" : "spotify:album:180YEVMG05CryiTYuOPRWu"
      },
      "artists" : [ {
        "external_urls" : {
          "spotify" : "https://open.spotify.com/artist/1qVFsazLyUuCpkMHMlSHtv"
        },
        "href" : "https://api.spotify.com/v1/artists/1qVFsazLyUuCpkMHMlSHtv",
        "id" : "1qVFsazLyUuCpkMHMlSHtv",
        "name" : "Orgel Hymn",
        "type" : "artist",
        "uri" : "spotify:artist:1qVFsazLyUuCpkMHMlSHtv"
      } ],
      "disc_number" : 1,
      "duration_ms" : 154475,
      "explicit" : false,
      "external_ids" : {
        "isrc" : "KRB361433746"
      },
      "external_urls" : {
        "spotify" : "https://open.spotify.com/track/1usclFN1OiDhDNcn3tG0g5"
      },
      "href" : "https://api.spotify.com/v1/tracks/1usclFN1OiDhDNcn3tG0g5",
      "id" : "1usclFN1OiDhDNcn3tG0g5",
      "is_local" : false,
      "is_playable" : true,
      "name" : "Hark, Ten Thousand Harps And Voices (찬송하는 소리 있어)",
      "popularity" : 0,
      "preview_url" : "https://p.scdn.co/mp3-preview/a0d6b556ff3b570b712e481cf0febdf4914f003c?cid=774b29d4f13844c495f206cafdad9c86",
      "track_number" : 1,
      "type" : "track",
      "uri" : "spotify:track:1usclFN1OiDhDNcn3tG0g5"
    }, {
      "album" : {
        "album_type" : "album",
        "artists" : [ {
          "external_urls" : {
            "spotify" : "https://open.spotify.com/artist/05sGBQhc6wrRAOZYo3gWqP"
          },
          "href" : "https://api.spotify.com/v1/artists/05sGBQhc6wrRAOZYo3gWqP",
          "id" : "05sGBQhc6wrRAOZYo3gWqP",
          "name" : "Worship Music Project",
          "type" : "artist",
          "uri" : "spotify:artist:05sGBQhc6wrRAOZYo3gWqP"
        } ],
        "external_urls" : {
          "spotify" : "https://open.spotify.com/album/0lDPsNNcEIOMADxB3ncZTF"
        },
        "href" : "https://api.spotify.com/v1/albums/0lDPsNNcEIOMADxB3ncZTF",
        "id" : "0lDPsNNcEIOMADxB3ncZTF",
        "images" : [ {
          "height" : 640,
          "url" : "https://i.scdn.co/image/ab67616d0000b273c048d357ee9fe4a301e60dff",
          "width" : 640
        }, {
          "height" : 300,
          "url" : "https://i.scdn.co/image/ab67616d00001e02c048d357ee9fe4a301e60dff",
          "width" : 300
        }, {
          "height" : 64,
          "url" : "https://i.scdn.co/image/ab67616d00004851c048d357ee9fe4a301e60dff",
          "width" : 64
        } ],
        "name" : "Endless Hymns For Opening Prayers 5 (기도를 여는 끊이지 않는 찬송가 5)",
        "release_date" : "2014-07-24",
        "release_date_precision" : "day",
        "total_tracks" : 8,
        "type" : "album",
        "uri" : "spotify:album:0lDPsNNcEIOMADxB3ncZTF"
      },
      "artists" : [ {
        "external_urls" : {
          "spotify" : "https://open.spotify.com/artist/05sGBQhc6wrRAOZYo3gWqP"
        },
        "href" : "https://api.spotify.com/v1/artists/05sGBQhc6wrRAOZYo3gWqP",
        "id" : "05sGBQhc6wrRAOZYo3gWqP",
        "name" : "Worship Music Project",
        "type" : "artist",
        "uri" : "spotify:artist:05sGBQhc6wrRAOZYo3gWqP"
      } ],
      "disc_number" : 1,
      "duration_ms" : 129166,
      "explicit" : false,
      "external_ids" : {
        "isrc" : "KRB361433128"
      },
      "external_urls" : {
        "spotify" : "https://open.spotify.com/track/5i0K1H35WEivJvQE0dTnYd"
      },
      "href" : "https://api.spotify.com/v1/tracks/5i0K1H35WEivJvQE0dTnYd",
      "id" : "5i0K1H35WEivJvQE0dTnYd",
      "is_local" : false,
      "is_playable" : true,
      "name" : "Hark, Ten Thousand Harps And Voices (찬송하는 소리 있어)",
      "popularity" : 1,
      "preview_url" : "https://p.scdn.co/mp3-preview/9b41dcf65a370e4879c3f18dba8e6ea88f88339b?cid=774b29d4f13844c495f206cafdad9c86",
      "track_number" : 2,
      "type" : "track",
      "uri" : "spotify:track:5i0K1H35WEivJvQE0dTnYd"
    }, {
      "album" : {
        "album_type" : "album",
        "artists" : [ {
          "external_urls" : {
            "spotify" : "https://open.spotify.com/artist/1hhVRdC328brlpNp3A8nRJ"
          },
          "href" : "https://api.spotify.com/v1/artists/1hhVRdC328brlpNp3A8nRJ",
          "id" : "1hhVRdC328brlpNp3A8nRJ",
          "name" : "A Project for Worship Music (예배필요음악프로젝트)",
          "type" : "artist",
          "uri" : "spotify:artist:1hhVRdC328brlpNp3A8nRJ"
        } ],
        "external_urls" : {
          "spotify" : "https://open.spotify.com/album/5JeixrJel7Gati3uqnHt2d"
        },
        "href" : "https://api.spotify.com/v1/albums/5JeixrJel7Gati3uqnHt2d",
        "id" : "5JeixrJel7Gati3uqnHt2d",
        "images" : [ {
          "height" : 640,
          "url" : "https://i.scdn.co/image/ab67616d0000b273762e20addd387200656dd669",
          "width" : 640
        }, {
          "height" : 300,
          "url" : "https://i.scdn.co/image/ab67616d00001e02762e20addd387200656dd669",
          "width" : 300
        }, {
          "height" : 64,
          "url" : "https://i.scdn.co/image/ab67616d00004851762e20addd387200656dd669",
          "width" : 64
        } ],
        "name" : "Worship Starter Hymn (예배를 여는 찬송가)",
        "release_date" : "2014-07-25",
        "release_date_precision" : "day",
        "total_tracks" : 8,
        "type" : "album",
        "uri" : "spotify:album:5JeixrJel7Gati3uqnHt2d"
      },
      "artists" : [ {
        "external_urls" : {
          "spotify" : "https://open.spotify.com/artist/1hhVRdC328brlpNp3A8nRJ"
        },
        "href" : "https://api.spotify.com/v1/artists/1hhVRdC328brlpNp3A8nRJ",
        "id" : "1hhVRdC328brlpNp3A8nRJ",
        "name" : "A Project for Worship Music (예배필요음악프로젝트)",
        "type" : "artist",
        "uri" : "spotify:artist:1hhVRdC328brlpNp3A8nRJ"
      } ],
      "disc_number" : 1,
      "duration_ms" : 261729,
      "explicit" : false,
      "external_ids" : {
        "isrc" : "KRB361433488"
      },
      "external_urls" : {
        "spotify" : "https://open.spotify.com/track/2K7ZdA816s2JdkVxGKuZjd"
      },
      "href" : "https://api.spotify.com/v1/tracks/2K7ZdA816s2JdkVxGKuZjd",
      "id" : "2K7ZdA816s2JdkVxGKuZjd",
      "is_local" : false,
      "is_playable" : true,
      "name" : "Hark, Ten Thousand Harps And Voices (찬송하는 소리 있어)",
      "popularity" : 0,
      "preview_url" : "https://p.scdn.co/mp3-preview/2a3e2fa498e54b25ddb45a55006d21af8e551ff0?cid=774b29d4f13844c495f206cafdad9c86",
      "track_number" : 1,
      "type" : "track",
      "uri" : "spotify:track:2K7ZdA816s2JdkVxGKuZjd"
    }, {
      "album" : {
        "album_type" : "album",
        "artists" : [ {
          "external_urls" : {
            "spotify" : "https://open.spotify.com/artist/6p21nVelZcO7t75I4LSaTe"
          },
          "href" : "https://api.spotify.com/v1/artists/6p21nVelZcO7t75I4LSaTe",
          "id" : "6p21nVelZcO7t75I4LSaTe",
          "name" : "Andy Joshua",
          "type" : "artist",
          "uri" : "spotify:artist:6p21nVelZcO7t75I4LSaTe"
        } ],
        "external_urls" : {
          "spotify" : "https://open.spotify.com/album/3Srmq1p4w0EunLs2OzOSu7"
        },
        "href" : "https://api.spotify.com/v1/albums/3Srmq1p4w0EunLs2OzOSu7",
        "id" : "3Srmq1p4w0EunLs2OzOSu7",
        "images" : [ {
          "height" : 640,
          "url" : "https://i.scdn.co/image/ab67616d0000b2732c17ec2ddd304019353ae29d",
          "width" : 640
        }, {
          "height" : 300,
          "url" : "https://i.scdn.co/image/ab67616d00001e022c17ec2ddd304019353ae29d",
          "width" : 300
        }, {
          "height" : 64,
          "url" : "https://i.scdn.co/image/ab67616d000048512c17ec2ddd304019353ae29d",
          "width" : 64
        } ],
        "name" : "재즈 찬송가 Jazz Hymns Best 8",
        "release_date" : "2020-05-08",
        "release_date_precision" : "day",
        "total_tracks" : 10,
        "type" : "album",
        "uri" : "spotify:album:3Srmq1p4w0EunLs2OzOSu7"
      },
      "artists" : [ {
        "external_urls" : {
          "spotify" : "https://open.spotify.com/artist/6p21nVelZcO7t75I4LSaTe"
        },
        "href" : "https://api.spotify.com/v1/artists/6p21nVelZcO7t75I4LSaTe",
        "id" : "6p21nVelZcO7t75I4LSaTe",
        "name" : "Andy Joshua",
        "type" : "artist",
        "uri" : "spotify:artist:6p21nVelZcO7t75I4LSaTe"
      } ],
      "disc_number" : 1,
      "duration_ms" : 166498,
      "explicit" : false,
      "external_ids" : {
        "isrc" : "KRA352000102"
      },
      "external_urls" : {
        "spotify" : "https://open.spotify.com/track/1dNIZr0pXeJgIUbSRO82dv"
      },
      "href" : "https://api.spotify.com/v1/tracks/1dNIZr0pXeJgIUbSRO82dv",
      "id" : "1dNIZr0pXeJgIUbSRO82dv",
      "is_local" : false,
      "is_playable" : true,
      "name" : "찬송하는 소리 있어 Hark, Ten Thousand Harps and Voices",
      "popularity" : 0,
      "preview_url" : "https://p.scdn.co/mp3-preview/2fd22b02288fd4718213d49049bade0457ff1276?cid=774b29d4f13844c495f206cafdad9c86",
      "track_number" : 8,
      "type" : "track",
      "uri" : "spotify:track:1dNIZr0pXeJgIUbSRO82dv"
    } ],
    "limit" : 10,
    "next" : "https://api.spotify.com/v1/search?query=Hark%21+Ten+Thousand+Harps+and+Voices&type=track&market=US&offset=15&limit=10",
    "offset" : 5,
    "previous" : "https://api.spotify.com/v1/search?query=Hark%21+Ten+Thousand+Harps+and+Voices&type=track&market=US&offset=0&limit=10",
    "total" : 17
  }
}