{
  "tracks" : {
    "href" : "https://api.spotify.com/v1/search?query=No+Night+There&type=track&market=US&offset=5&limit=10",
    "items" : [ {
      "album" : {
        "album_type" : "album",
        "artists" : [ {
          "external_urls" : {
            "spotify" : "https://open.spotify.com/artist/023YMawCG3OvACmRjWxLWC"
          },
          "href" : "https://api.spotify.com/v1/artists/023YMawCG3OvACmRjWxLWC",
          "id" : "023YMawCG3OvACmRjWxLWC",
          "name" : "The Cat Empire",
          "type" : "artist",
          "uri" : "spotify:artist:023YMawCG3OvACmRjWxLWC"
        } ],
        "external_urls" : {
          "spotify" : "https://open.spotify.com/album/2CAp15mHwLSnYJjyFFAhaH"
        },
        "href" : "https://api.spotify.com/v1/albums/2CAp15mHwLSnYJjyFFAhaH",
        "id" : "2CAp15mHwLSnYJjyFFAhaH",
        "images" : [ {
          "height" : 640,
          "url" : "https://i.scdn.co/image/ab67616d0000b273550a4c3804ae75b26f8118b2",
          "width" : 640
        }, {
          "height" : 300,
          "url" : "https://i.scdn.co/image/ab67616d00001e02550a4c3804ae75b26f8118b2",
          "width" : 300
        }, {
          "height" : 64,
          "url" : "https://i.scdn.co/image/ab67616d00004851550a4c3804ae75b26f8118b2",
          "width" : 64
        } ],
        "name" : "So Many Nights",
        "release_date" : "2007",
        "release_date_precision" : "year",
        "total_tracks" : 14,
        "type" : "album",
        "uri" : "spotify:album:2CAp15mHwLSnYJjyFFAhaH"
      },
      "artists" : [ {
        "external_urls" : {
          "spotify" : "https://open.spotify.com/artist/023YMawCG3OvACmRjWxLWC"
        },
        "href" : "https://api.spotify.com/v1/artists/023YMawCG3OvACmRjWxLWC",
        "id" : "023YMawCG3OvACmRjWxLWC",
        "name" : "The Cat Empire",
        "type" : "artist",
        "uri" : "spotify:artist:023YMawCG3OvACmRjWxLWC"
      } ],
      "disc_number" : 1,
      "duration_ms" : 236933,
      "explicit" : false,
      "external_ids" : {
        "isrc" : "AUTW00700006"
      },
      "external_urls" : {
        "spotify" : "https://open.spotify.com/track/0l6weuVWxwSUjDL8vK0VS0"
      },
      "href" : "https://api.spotify.com/v1/tracks/0l6weuVWxwSUjDL8vK0VS0",
      "id" : "0l6weuVWxwSUjDL8vK0VS0",
      "is_local" : false,
      "is_playable" : true,
      "name" : "No Longer There",
      "popularity" : 40,
      "preview_url" : "https://p.scdn.co/mp3-preview/99947c34f58257b6a0fd46a52f6c4c7b31ed78a3?cid=774b29d4f13844c495f206cafdad9c86",
      "track_number" : 5,
      "type" : "track",
      "uri" : "spotify:track:0l6weuVWxwSUjDL8vK0VS0"
    }, {
      "album" : {
        "album_type" : "album",
        "artists" : [ {
          "external_urls" : {
            "spotify" : "https://open.spotify.com/artist/006ibfxHXj6ewIkihKcaS2"
          },
          "href" : "https://api.spotify.com/v1/artists/006ibfxHXj6ewIkihKcaS2",
          "id" : "006ibfxHXj6ewIkihKcaS2",
          "name" : "Hello Meteor",
          "type" : "artist",
          "uri" : "spotify:artist:006ibfxHXj6ewIkihKcaS2"
        } ],
        "external_urls" : {
          "spotify" : "https://open.spotify.com/album/60Yk5fd1Mloj1COY9LN7IQ"
        },
        "href" : "https://api.spotify.com/v1/albums/60Yk5fd1Mloj1COY9LN7IQ",
        "id" : "60Yk5fd1Mloj1COY9LN7IQ",
        "images" : [ {
          "height" : 640,
          "url" : "https://i.scdn.co/image/ab67616d0000b27356e152e2a20303c2ddd0b26b",
          "width" : 640
        }, {
          "height" : 300,
          "url" : "https://i.scdn.co/image/ab67616d00001e0256e152e2a20303c2ddd0b26b",
          "width" : 300
        }, {
          "height" : 64,
          "url" : "https://i.scdn.co/image/ab67616d0000485156e152e2a20303c2ddd0b26b",
          "width" : 64
        } ],
        "name" : "Night Supply",
        "release_date" : "2020-05-05",
        "release_date_precision" : "day",
        "total_tracks" : 10,
        "type" : "album",
        "uri" : "spotify:album:60Yk5fd1Mloj1COY9LN7IQ"
      },
      "artists" : [ {
        "external_urls" : {
          "spotify" : "https://open.spotify.com/artist/006ibfxHXj6ewIkihKcaS2"
        },
        "href" : "https://api.spotify.com/v1/artists/006ibfxHXj6ewIkihKcaS2",
        "id" : "006ibfxHXj6ewIkihKcaS2",
        "name" : "Hello Meteor",
        "type" : "artist",
        "uri" : "spotify:artist:006ibfxHXj6ewIkihKcaS2"
      } ],
      "disc_number" : 1,
      "duration_ms" : 175071,
      "explicit" : false,
      "external_ids" : {
        "isrc" : "QZES62075844"
      },
      "external_urls" : {
        "spotify" : "https://open.spotify.com/track/3QsYL54DS5yBk7gZwSoOzN"
      },
      "href" : "https://api.spotify.com/v1/tracks/3QsYL54DS5yBk7gZwSoOzN",
      "id" : "3QsYL54DS5yBk7gZwSoOzN",
      "is_local" : false,
      "is_playable" : true,
      "name" : "There's No Rain Here",
      "popularity" : 21,
      "preview_url" : "https://p.scdn.co/mp3-preview/3dd3f6979710eb336c9379b4871f7f1a74e91b25?cid=774b29d4f13844c495f206cafdad9c86",
      "track_number" : 8,
      "type" : "track",
      "uri" : "spotify:track:3QsYL54DS5yBk7gZwSoOzN"
    }, {
      "album" : {
        "album_type" : "album",
        "artists" : [ {
          "external_urls" : {
            "spotify" : "https://open.spotify.com/artist/25W55yzID8F5bRKG8Zg2IA"
          },
          "href" : "https://api.spotify.com/v1/artists/25W55yzID8F5bRKG8Zg2IA",
          "id" : "25W55yzID8F5bRKG8Zg2IA",
          "name" : "Mary Black",
          "type" : "artist",
          "uri" : "spotify:artist:25W55yzID8F5bRKG8Zg2IA"
        } ],
        "external_urls" : {
          "spotify" : "https://open.spotify.com/album/0cp5VxAkj2ujTWuGwwwgNM"
        },
        "href" : "https://api.spotify.com/v1/albums/0cp5VxAkj2ujTWuGwwwgNM",
        "id" : "0cp5VxAkj2ujTWuGwwwgNM",
        "images" : [ {
          "height" : 640,
          "url" : "https://i.scdn.co/image/ab67616d0000b2734736d30579c8d31d086c3c21",
          "width" : 640
        }, {
          "height" : 300,
          "url" : "https://i.scdn.co/image/ab67616d00001e024736d30579c8d31d086c3c21",
          "width" : 300
        }, {
          "height" : 64,
          "url" : "https://i.scdn.co/image/ab67616d000048514736d30579c8d31d086c3c21",
          "width" : 64
        } ],
        "name" : "Mary Black Sings Jimmy MacCarthy",
        "release_date" : "2017-11-10",
        "release_date_precision" : "day",
        "total_tracks" : 11,
        "type" : "album",
        "uri" : "spotify:album:0cp5VxAkj2ujTWuGwwwgNM"
      },
      "artists" : [ {
        "external_urls" : {
          "spotify" : "https://open.spotify.com/artist/25W55yzID8F5bRKG8Zg2IA"
        },
        "href" : "https://api.spotify.com/v1/artists/25W55yzID8F5bRKG8Zg2IA",
        "id" : "25W55yzID8F5bRKG8Zg2IA",
        "name" : "Mary Black",
        "type" : "artist",
        "uri" : "spotify:artist:25W55yzID8F5bRKG8Zg2IA"
      } ],
      "disc_number" : 1,
      "duration_ms" : 305706,
      "explicit" : false,
      "external_ids" : {
        "isrc" : "IEAAR1700025"
      },
      "external_urls" : {
        "spotify" : "https://open.spotify.com/track/71oFDlIsR3zMvoXy0fGrA9"
      },
      "href" : "https://api.spotify.com/v1/tracks/71oFDlIsR3zMvoXy0fGrA9",
      "id" : "71oFDlIsR3zMvoXy0fGrA9",
      "is_local" : false,
      "is_playable" : true,
      "name" : "There Is No Night",
      "popularity" : 29,
      "preview_url" : "https://p.scdn.co/mp3-preview/4eddace852a64bc94ecea2a67aa8f27dace87d35?cid=774b29d4f13844c495f206cafdad9c86",
      "track_number" : 3,
      "type" : "track",
      "uri" : "spotify:track:71oFDlIsR3zMvoXy0fGrA9"
    }, {
      "album" : {
        "album_type" : "album",
        "artists" : [ {
          "external_urls" : {
            "spotify" : "https://open.spotify.com/artist/4MBEdlcsagKMlt3JvRFbRe"
          },
          "href" : "https://api.spotify.com/v1/artists/4MBEdlcsagKMlt3JvRFbRe",
          "id" : "4MBEdlcsagKMlt3JvRFbRe",
          "name" : "Mairead Nesbitt",
          "type" : "artist",
          "uri" : "spotify:artist:4MBEdlcsagKMlt3JvRFbRe"
        } ],
        "external_urls" : {
          "spotify" : "https://open.spotify.com/album/5hPJ2FImO8SYHkFM5ngve9"
        },
        "href" : "https://api.spotify.com/v1/albums/5hPJ2FImO8SYHkFM5ngve9",
        "id" : "5hPJ2FImO8SYHkFM5ngve9",
        "images" : [ {
          "height" : 640,
          "url" : "https://i.scdn.co/image/ab67616d0000b2730d195f8fc830d947079d2916",
          "width" : 640
        }, {
          "height" : 300,
          "url" : "https://i.scdn.co/image/ab67616d00001e020d195f8fc830d947079d2916",
          "width" : 300
        }, {
          "height" : 64,
          "url" : "https://i.scdn.co/image/ab67616d000048510d195f8fc830d947079d2916",
          "width" : 64
        } ],
        "name" : "Raining Up",
        "release_date" : "2005",
        "release_date_precision" : "year",
        "total_tracks" : 14,
        "type" : "album",
        "uri" : "spotify:album:5hPJ2FImO8SYHkFM5ngve9"
      },
      "artists" : [ {
        "external_urls" : {
          "spotify" : "https://open.spotify.com/artist/4MBEdlcsagKMlt3JvRFbRe"
        },
        "href" : "https://api.spotify.com/v1/artists/4MBEdlcsagKMlt3JvRFbRe",
        "id" : "4MBEdlcsagKMlt3JvRFbRe",
        "name" : "Mairead Nesbitt",
        "type" : "artist",
        "uri" : "spotify:artist:4MBEdlcsagKMlt3JvRFbRe"
      } ],
      "disc_number" : 1,
      "duration_ms" : 234146,
      "explicit" : false,
      "external_ids" : {
        "isrc" : "GBDFK0100107"
      },
      "external_urls" : {
        "spotify" : "https://open.spotify.com/track/623w9RbWyKIAm4t45uAWYM"
      },
      "href" : "https://api.spotify.com/v1/tracks/623w9RbWyKIAm4t45uAWYM",
      "id" : "623w9RbWyKIAm4t45uAWYM",
      "is_local" : false,
      "is_playable" : true,
      "name" : "There Is No Night",
      "popularity" : 21,
      "preview_url" : "https://p.scdn.co/mp3-preview/7839eea84ddd8c75c2ae7904a185ac921cecf2da?cid=774b29d4f13844c495f206cafdad9c86",
      "track_number" : 7,
      "type" : "track",
      "uri" : "spotify:track:623w9RbWyKIAm4t45uAWYM"
    }, {
      "album" : {
        "album_type" : "album",
        "artists" : [ {
          "external_urls" : {
            "spotify" : "https://open.spotify.com/artist/023YMawCG3OvACmRjWxLWC"
          },
          "href" : "https://api.spotify.com/v1/artists/023YMawCG3OvACmRjWxLWC",
          "id" : "023YMawCG3OvACmRjWxLWC",
          "name" : "The Cat Empire",
          "type" : "artist",
          "uri" : "spotify:artist:023YMawCG3OvACmRjWxLWC"
        } ],
        "external_urls" : {
          "spotify" : "https://open.spotify.com/album/0E9lVXZH3EmUtZ2mjDiKt4"
        },
        "href" : "https://api.spotify.com/v1/albums/0E9lVXZH3EmUtZ2mjDiKt4",
        "id" : "0E9lVXZH3EmUtZ2mjDiKt4",
        "images" : [ {
          "height" : 640,
          "url" : "https://i.scdn.co/image/ab67616d0000b273f693457dfcc9ba55208ff22e",
          "width" : 640
        }, {
          "height" : 300,
          "url" : "https://i.scdn.co/image/ab67616d00001e02f693457dfcc9ba55208ff22e",
          "width" : 300
        }, {
          "height" : 64,
          "url" : "https://i.scdn.co/image/ab67616d00004851f693457dfcc9ba55208ff22e",
          "width" : 64
        } ],
        "name" : "So Many Nights",
        "release_date" : "2008-01-01",
        "release_date_precision" : "day",
        "total_tracks" : 15,
        "type" : "album",
        "uri" : "spotify:album:0E9lVXZH3EmUtZ2mjDiKt4"
      },
      "artists" : [ {
        "external_urls" : {
          "spotify" : "https://open.spotify.com/artist/023YMawCG3OvACmRjWxLWC"
        },
        "href" : "https://api.spotify.com/v1/artists/023YMawCG3OvACmRjWxLWC",
        "id" : "023YMawCG3OvACmRjWxLWC",
        "name" : "The Cat Empire",
        "type" : "artist",
        "uri" : "spotify:artist:023YMawCG3OvACmRjWxLWC"
      } ],
      "disc_number" : 1,
      "duration_ms" : 236186,
      "explicit" : false,
      "external_ids" : {
        "isrc" : "AUTW00700006"
      },
      "external_urls" : {
        "spotify" : "https://open.spotify.com/track/1sg5SfNgLJqSWmQrmCsSF1"
      },
      "href" : "https://api.spotify.com/v1/tracks/1sg5SfNgLJqSWmQrmCsSF1",
      "id" : "1sg5SfNgLJqSWmQrmCsSF1",
      "is_local" : false,
      "is_playable" : true,
      "name" : "No Longer There",
      "popularity" : 16,
      "preview_url" : null,
      "track_number" : 8,
      "type" : "track",
      "uri" : "spotify:track:1sg5SfNgLJqSWmQrmCsSF1"
    }, {
      "album" : {
        "album_type" : "album",
        "artists" : [ {
          "external_urls" : {
            "spotify" : "https://open.spotify.com/artist/6ktZvEg5f6hLsWVGNmeFpo"
          },
          "href" : "https://api.spotify.com/v1/artists/6ktZvEg5f6hLsWVGNmeFpo",
          "id" : "6ktZvEg5f6hLsWVGNmeFpo",
          "name" : "Watchout! Theres Ghosts",
          "type" : "artist",
          "uri" : "spotify:artist:6ktZvEg5f6hLsWVGNmeFpo"
        } ],
        "external_urls" : {
          "spotify" : "https://open.spotify.com/album/1PWKORVEmyCTOSmVMjupaG"
        },
        "href" : "https://api.spotify.com/v1/albums/1PWKORVEmyCTOSmVMjupaG",
        "id" : "1PWKORVEmyCTOSmVMjupaG",
        "images" : [ {
          "height" : 640,
          "url" : "https://i.scdn.co/image/ab67616d0000b2738243597d58c2b51a57aff87c",
          "width" : 640
        }, {
          "height" : 300,
          "url" : "https://i.scdn.co/image/ab67616d00001e028243597d58c2b51a57aff87c",
          "width" : 300
        }, {
          "height" : 64,
          "url" : "https://i.scdn.co/image/ab67616d000048518243597d58c2b51a57aff87c",
          "width" : 64
        } ],
        "name" : "Ghost Town",
        "release_date" : "2009",
        "release_date_precision" : "year",
        "total_tracks" : 10,
        "type" : "album",
        "uri" : "spotify:album:1PWKORVEmyCTOSmVMjupaG"
      },
      "artists" : [ {
        "external_urls" : {
          "spotify" : "https://open.spotify.com/artist/6ktZvEg5f6hLsWVGNmeFpo"
        },
        "href" : "https://api.spotify.com/v1/artists/6ktZvEg5f6hLsWVGNmeFpo",
        "id" : "6ktZvEg5f6hLsWVGNmeFpo",
        "name" : "Watchout! Theres Ghosts",
        "type" : "artist",
        "uri" : "spotify:artist:6ktZvEg5f6hLsWVGNmeFpo"
      } ],
      "disc_number" : 1,
      "duration_ms" : 226880,
      "explicit" : false,
      "external_ids" : {
        "isrc" : "USEK70907504"
      },
      "external_urls" : {
        "spotify" : "https://open.spotify.com/track/4SuLTWSZztjAOvI5Hr7cDi"
      },
      "href" : "https://api.spotify.com/v1/tracks/4SuLTWSZztjAOvI5Hr7cDi",
      "id" : "4SuLTWSZztjAOvI5Hr7cDi",
      "is_local" : false,
      "is_playable" : true,
      "name" : "I Ruin Dreams, Not Nightmares",
      "popularity" : 15,
      "preview_url" : "https://p.scdn.co/mp3-preview/aad7f5ff82c9ef983ddb458dff8d8be1352a0520?cid=774b29d4f13844c495f206cafdad9c86",
      "track_number" : 4,
      "type" : "track",
      "uri" : "spotify:track:4SuLTWSZztjAOvI5Hr7cDi"
    }, {
      "album" : {
        "album_type" : "album",
        "artists" : [ {
          "external_urls" : {
            "spotify" : "https://open.spotify.com/artist/6xqlgBccdlxUh5DeJSx2ho"
          },
          "href" : "https://api.spotify.com/v1/artists/6xqlgBccdlxUh5DeJSx2ho",
          "id" : "6xqlgBccdlxUh5DeJSx2ho",
          "name" : "Eek-A-Mouse",
          "type" : "artist",
          "uri" : "spotify:artist:6xqlgBccdlxUh5DeJSx2ho"
        } ],
        "external_urls" : {
          "spotify" : "https://open.spotify.com/album/7Hebn7SAZVynGwDkTcg5Vq"
        },
        "href" : "https://api.spotify.com/v1/albums/7Hebn7SAZVynGwDkTcg5Vq",
        "id" : "7Hebn7SAZVynGwDkTcg5Vq",
        "images" : [ {
          "height" : 640,
          "url" : "https://i.scdn.co/image/ab67616d0000b273d2ff6689e4ec7c7868fc0910",
          "width" : 640
        }, {
          "height" : 300,
          "url" : "https://i.scdn.co/image/ab67616d00001e02d2ff6689e4ec7c7868fc0910",
          "width" : 300
        }, {
          "height" : 64,
          "url" : "https://i.scdn.co/image/ab67616d00004851d2ff6689e4ec7c7868fc0910",
          "width" : 64
        } ],
        "name" : "Noah & The Dna Ark",
        "release_date" : "2017-08-03",
        "release_date_precision" : "day",
        "total_tracks" : 10,
        "type" : "album",
        "uri" : "spotify:album:7Hebn7SAZVynGwDkTcg5Vq"
      },
      "artists" : [ {
        "external_urls" : {
          "spotify" : "https://open.spotify.com/artist/6xqlgBccdlxUh5DeJSx2ho"
        },
        "href" : "https://api.spotify.com/v1/artists/6xqlgBccdlxUh5DeJSx2ho",
        "id" : "6xqlgBccdlxUh5DeJSx2ho",
        "name" : "Eek-A-Mouse",
        "type" : "artist",
        "uri" : "spotify:artist:6xqlgBccdlxUh5DeJSx2ho"
      } ],
      "disc_number" : 1,
      "duration_ms" : 211173,
      "explicit" : false,
      "external_ids" : {
        "isrc" : "QMEZE1731316"
      },
      "external_urls" : {
        "spotify" : "https://open.spotify.com/track/3LAPoWLSAUCph1Jgxuoiox"
      },
      "href" : "https://api.spotify.com/v1/tracks/3LAPoWLSAUCph1Jgxuoiox",
      "id" : "3LAPoWLSAUCph1Jgxuoiox",
      "is_local" : false,
      "is_playable" : true,
      "name" : "Let There Be Night",
      "popularity" : 18,
      "preview_url" : "https://p.scdn.co/mp3-preview/88a19ac87e289b97eb2acacce8d3dd177510aedb?cid=774b29d4f13844c495f206cafdad9c86",
      "track_number" : 1,
      "type" : "track",
      "uri" : "spotify:track:3LAPoWLSAUCph1Jgxuoiox"
    }, {
      "album" : {
        "album_type" : "album",
        "artists" : [ {
          "external_urls" : {
            "spotify" : "https://open.spotify.com/artist/21Aa8MX3PsrO03NgH3TZGy"
          },
          "href" : "https://api.spotify.com/v1/artists/21Aa8MX3PsrO03NgH3TZGy",
          "id" : "21Aa8MX3PsrO03NgH3TZGy",
          "name" : "frumhere",
          "type" : "artist",
          "uri" : "spotify:artist:21Aa8MX3PsrO03NgH3TZGy"
        } ],
        "external_urls" : {
          "spotify" : "https://open.spotify.com/album/3Rqxmh59irLPBO1Fz9KQf6"
        },
        "href" : "https://api.spotify.com/v1/albums/3Rqxmh59irLPBO1Fz9KQf6",
        "id" : "3Rqxmh59irLPBO1Fz9KQf6",
        "images" : [ {
          "height" : 640,
          "url" : "https://i.scdn.co/image/ab67616d0000b27380d298aebb4d1f942e127799",
          "width" : 640
        }, {
          "height" : 300,
          "url" : "https://i.scdn.co/image/ab67616d00001e0280d298aebb4d1f942e127799",
          "width" : 300
        }, {
          "height" : 64,
          "url" : "https://i.scdn.co/image/ab67616d0000485180d298aebb4d1f942e127799",
          "width" : 64
        } ],
        "name" : "nostalgia marauder",
        "release_date" : "2018-12-14",
        "release_date_precision" : "day",
        "total_tracks" : 8,
        "type" : "album",
        "uri" : "spotify:album:3Rqxmh59irLPBO1Fz9KQf6"
      },
      "artists" : [ {
        "external_urls" : {
          "spotify" : "https://open.spotify.com/artist/21Aa8MX3PsrO03NgH3TZGy"
        },
        "href" : "https://api.spotify.com/v1/artists/21Aa8MX3PsrO03NgH3TZGy",
        "id" : "21Aa8MX3PsrO03NgH3TZGy",
        "name" : "frumhere",
        "type" : "artist",
        "uri" : "spotify:artist:21Aa8MX3PsrO03NgH3TZGy"
      }, {
        "external_urls" : {
          "spotify" : "https://open.spotify.com/artist/3PZHfGjZYUsm1Kr3YSALTx"
        },
        "href" : "https://api.spotify.com/v1/artists/3PZHfGjZYUsm1Kr3YSALTx",
        "id" : "3PZHfGjZYUsm1Kr3YSALTx",
        "name" : "Nov Nights",
        "type" : "artist",
        "uri" : "spotify:artist:3PZHfGjZYUsm1Kr3YSALTx"
      } ],
      "disc_number" : 1,
      "duration_ms" : 105836,
      "explicit" : false,
      "external_ids" : {
        "isrc" : "GBKPL1829164"
      },
      "external_urls" : {
        "spotify" : "https://open.spotify.com/track/50B8LF11TpYpKq8me1zcHQ"
      },
      "href" : "https://api.spotify.com/v1/tracks/50B8LF11TpYpKq8me1zcHQ",
      "id" : "50B8LF11TpYpKq8me1zcHQ",
      "is_local" : false,
      "is_playable" : true,
      "name" : "i'll be there for you",
      "popularity" : 18,
      "preview_url" : "https://p.scdn.co/mp3-preview/8859a3210dce3c1f8b0d7adac08f07113a93ef4f?cid=774b29d4f13844c495f206cafdad9c86",
      "track_number" : 7,
      "type" : "track",
      "uri" : "spotify:track:50B8LF11TpYpKq8me1zcHQ"
    }, {
      "album" : {
        "album_type" : "single",
        "artists" : [ {
          "external_urls" : {
            "spotify" : "https://open.spotify.com/artist/2ZNKJW7684rzzeQjogSaVf"
          },
          "href" : "https://api.spotify.com/v1/artists/2ZNKJW7684rzzeQjogSaVf",
          "id" : "2ZNKJW7684rzzeQjogSaVf",
          "name" : "Eli The Ambassador",
          "type" : "artist",
          "uri" : "spotify:artist:2ZNKJW7684rzzeQjogSaVf"
        } ],
        "external_urls" : {
          "spotify" : "https://open.spotify.com/album/3o9dpSa1jAmxNVaePfk9lx"
        },
        "href" : "https://api.spotify.com/v1/albums/3o9dpSa1jAmxNVaePfk9lx",
        "id" : "3o9dpSa1jAmxNVaePfk9lx",
        "images" : [ {
          "height" : 640,
          "url" : "https://i.scdn.co/image/ab67616d0000b2731116a93d0bd544eb4b400105",
          "width" : 640
        }, {
          "height" : 300,
          "url" : "https://i.scdn.co/image/ab67616d00001e021116a93d0bd544eb4b400105",
          "width" : 300
        }, {
          "height" : 64,
          "url" : "https://i.scdn.co/image/ab67616d000048511116a93d0bd544eb4b400105",
          "width" : 64
        } ],
        "name" : "No Night There",
        "release_date" : "2018-11-30",
        "release_date_precision" : "day",
        "total_tracks" : 1,
        "type" : "album",
        "uri" : "spotify:album:3o9dpSa1jAmxNVaePfk9lx"
      },
      "artists" : [ {
        "external_urls" : {
          "spotify" : "https://open.spotify.com/artist/2ZNKJW7684rzzeQjogSaVf"
        },
        "href" : "https://api.spotify.com/v1/artists/2ZNKJW7684rzzeQjogSaVf",
        "id" : "2ZNKJW7684rzzeQjogSaVf",
        "name" : "Eli The Ambassador",
        "type" : "artist",
        "uri" : "spotify:artist:2ZNKJW7684rzzeQjogSaVf"
      } ],
      "disc_number" : 1,
      "duration_ms" : 239386,
      "explicit" : false,
      "external_ids" : {
        "isrc" : "TCADI1795471"
      },
      "external_urls" : {
        "spotify" : "https://open.spotify.com/track/7xqaPw1RGnZKoegKGlxs4C"
      },
      "href" : "https://api.spotify.com/v1/tracks/7xqaPw1RGnZKoegKGlxs4C",
      "id" : "7xqaPw1RGnZKoegKGlxs4C",
      "is_local" : false,
      "is_playable" : true,
      "name" : "No Night There",
      "popularity" : 9,
      "preview_url" : "https://p.scdn.co/mp3-preview/24c28365a05017dc587a96c36275da484e4c4095?cid=774b29d4f13844c495f206cafdad9c86",
      "track_number" : 1,
      "type" : "track",
      "uri" : "spotify:track:7xqaPw1RGnZKoegKGlxs4C"
    }, {
      "album" : {
        "album_type" : "single",
        "artists" : [ {
          "external_urls" : {
            "spotify" : "https://open.spotify.com/artist/2Xk3Hc122tA7NeychRuT0u"
          },
          "href" : "https://api.spotify.com/v1/artists/2Xk3Hc122tA7NeychRuT0u",
          "id" : "2Xk3Hc122tA7NeychRuT0u",
          "name" : "Crows in the Rain",
          "type" : "artist",
          "uri" : "spotify:artist:2Xk3Hc122tA7NeychRuT0u"
        } ],
        "external_urls" : {
          "spotify" : "https://open.spotify.com/album/09hUV0Qm7hHR3DmfsXH2YN"
        },
        "href" : "https://api.spotify.com/v1/albums/09hUV0Qm7hHR3DmfsXH2YN",
        "id" : "09hUV0Qm7hHR3DmfsXH2YN",
        "images" : [ {
          "height" : 640,
          "url" : "https://i.scdn.co/image/ab67616d0000b2735fa4936760ed8fdd5d52ea94",
          "width" : 640
        }, {
          "height" : 300,
          "url" : "https://i.scdn.co/image/ab67616d00001e025fa4936760ed8fdd5d52ea94",
          "width" : 300
        }, {
          "height" : 64,
          "url" : "https://i.scdn.co/image/ab67616d000048515fa4936760ed8fdd5d52ea94",
          "width" : 64
        } ],
        "name" : "You Walked with Me Then, Before Night or Day",
        "release_date" : "2020-05-14",
        "release_date_precision" : "day",
        "total_tracks" : 3,
        "type" : "album",
        "uri" : "spotify:album:09hUV0Qm7hHR3DmfsXH2YN"
      },
      "artists" : [ {
        "external_urls" : {
          "spotify" : "https://open.spotify.com/artist/2Xk3Hc122tA7NeychRuT0u"
        },
        "href" : "https://api.spotify.com/v1/artists/2Xk3Hc122tA7NeychRuT0u",
        "id" : "2Xk3Hc122tA7NeychRuT0u",
        "name" : "Crows in the Rain",
        "type" : "artist",
        "uri" : "spotify:artist:2Xk3Hc122tA7NeychRuT0u"
      } ],
      "disc_number" : 1,
      "duration_ms" : 391296,
      "explicit" : false,
      "external_ids" : {
        "isrc" : "CACWV2066062"
      },
      "external_urls" : {
        "spotify" : "https://open.spotify.com/track/75ffZ9B8EmTtqoh9vdgeVq"
      },
      "href" : "https://api.spotify.com/v1/tracks/75ffZ9B8EmTtqoh9vdgeVq",
      "id" : "75ffZ9B8EmTtqoh9vdgeVq",
      "is_local" : false,
      "is_playable" : true,
      "name" : "When There Was Nothing",
      "popularity" : 16,
      "preview_url" : "https://p.scdn.co/mp3-preview/a3f764ce5d5eae9f2d233a3bbfa7415d73b874ca?cid=774b29d4f13844c495f206cafdad9c86",
      "track_number" : 3,
      "type" : "track",
      "uri" : "spotify:track:75ffZ9B8EmTtqoh9vdgeVq"
    } ],
    "limit" : 10,
    "next" : "https://api.spotify.com/v1/search?query=No+Night+There&type=track&market=US&offset=15&limit=10",
    "offset" : 5,
    "previous" : "https://api.spotify.com/v1/search?query=No+Night+There&type=track&market=US&offset=0&limit=10",
    "total" : 557
  }
}