{
  "tracks" : {
    "href" : "https://api.spotify.com/v1/search?query=May+the+Lord+Bless+and+Keep+You&type=track&market=US&offset=5&limit=10",
    "items" : [ {
      "album" : {
        "album_type" : "album",
        "artists" : [ {
          "external_urls" : {
            "spotify" : "https://open.spotify.com/artist/0cylxW7HGdK9xMdubw2oYW"
          },
          "href" : "https://api.spotify.com/v1/artists/0cylxW7HGdK9xMdubw2oYW",
          "id" : "0cylxW7HGdK9xMdubw2oYW",
          "name" : "The O'Neill Brothers Group",
          "type" : "artist",
          "uri" : "spotify:artist:0cylxW7HGdK9xMdubw2oYW"
        } ],
        "external_urls" : {
          "spotify" : "https://open.spotify.com/album/1z9QDboC7nfoObnlWt8kJR"
        },
        "href" : "https://api.spotify.com/v1/albums/1z9QDboC7nfoObnlWt8kJR",
        "id" : "1z9QDboC7nfoObnlWt8kJR",
        "images" : [ {
          "height" : 640,
          "url" : "https://i.scdn.co/image/ab67616d0000b273fc8353af3326a8b30b10b8e5",
          "width" : 640
        }, {
          "height" : 300,
          "url" : "https://i.scdn.co/image/ab67616d00001e02fc8353af3326a8b30b10b8e5",
          "width" : 300
        }, {
          "height" : 64,
          "url" : "https://i.scdn.co/image/ab67616d00004851fc8353af3326a8b30b10b8e5",
          "width" : 64
        } ],
        "name" : "Instrumental Piano Hymns of Praise and Worship",
        "release_date" : "2013-05-23",
        "release_date_precision" : "day",
        "total_tracks" : 19,
        "type" : "album",
        "uri" : "spotify:album:1z9QDboC7nfoObnlWt8kJR"
      },
      "artists" : [ {
        "external_urls" : {
          "spotify" : "https://open.spotify.com/artist/0cylxW7HGdK9xMdubw2oYW"
        },
        "href" : "https://api.spotify.com/v1/artists/0cylxW7HGdK9xMdubw2oYW",
        "id" : "0cylxW7HGdK9xMdubw2oYW",
        "name" : "The O'Neill Brothers Group",
        "type" : "artist",
        "uri" : "spotify:artist:0cylxW7HGdK9xMdubw2oYW"
      } ],
      "disc_number" : 1,
      "duration_ms" : 141026,
      "explicit" : false,
      "external_ids" : {
        "isrc" : "USA371357999"
      },
      "external_urls" : {
        "spotify" : "https://open.spotify.com/track/5o8dL38iGhuRExNxrBGhMh"
      },
      "href" : "https://api.spotify.com/v1/tracks/5o8dL38iGhuRExNxrBGhMh",
      "id" : "5o8dL38iGhuRExNxrBGhMh",
      "is_local" : false,
      "is_playable" : true,
      "name" : "May the Good Lord Bless & Keep You",
      "popularity" : 13,
      "preview_url" : "https://p.scdn.co/mp3-preview/f66236825b7c935e58a5810ac187745f1db2ae5d?cid=774b29d4f13844c495f206cafdad9c86",
      "track_number" : 16,
      "type" : "track",
      "uri" : "spotify:track:5o8dL38iGhuRExNxrBGhMh"
    }, {
      "album" : {
        "album_type" : "album",
        "artists" : [ {
          "external_urls" : {
            "spotify" : "https://open.spotify.com/artist/1diqAyfLKVwVEwidtEcM3J"
          },
          "href" : "https://api.spotify.com/v1/artists/1diqAyfLKVwVEwidtEcM3J",
          "id" : "1diqAyfLKVwVEwidtEcM3J",
          "name" : "Messianic Praise",
          "type" : "artist",
          "uri" : "spotify:artist:1diqAyfLKVwVEwidtEcM3J"
        } ],
        "external_urls" : {
          "spotify" : "https://open.spotify.com/album/77kTxGFirMmphRfFej66zl"
        },
        "href" : "https://api.spotify.com/v1/albums/77kTxGFirMmphRfFej66zl",
        "id" : "77kTxGFirMmphRfFej66zl",
        "images" : [ {
          "height" : 640,
          "url" : "https://i.scdn.co/image/ab67616d0000b273564c274c6119a99c6a217ea0",
          "width" : 640
        }, {
          "height" : 300,
          "url" : "https://i.scdn.co/image/ab67616d00001e02564c274c6119a99c6a217ea0",
          "width" : 300
        }, {
          "height" : 64,
          "url" : "https://i.scdn.co/image/ab67616d00004851564c274c6119a99c6a217ea0",
          "width" : 64
        } ],
        "name" : "Sing & Rejoice",
        "release_date" : "1993-01-01",
        "release_date_precision" : "day",
        "total_tracks" : 10,
        "type" : "album",
        "uri" : "spotify:album:77kTxGFirMmphRfFej66zl"
      },
      "artists" : [ {
        "external_urls" : {
          "spotify" : "https://open.spotify.com/artist/1diqAyfLKVwVEwidtEcM3J"
        },
        "href" : "https://api.spotify.com/v1/artists/1diqAyfLKVwVEwidtEcM3J",
        "id" : "1diqAyfLKVwVEwidtEcM3J",
        "name" : "Messianic Praise",
        "type" : "artist",
        "uri" : "spotify:artist:1diqAyfLKVwVEwidtEcM3J"
      } ],
      "disc_number" : 1,
      "duration_ms" : 239800,
      "explicit" : false,
      "external_ids" : {
        "isrc" : "USMN20604059"
      },
      "external_urls" : {
        "spotify" : "https://open.spotify.com/track/4zGkcajYsMev7SWerZ2usT"
      },
      "href" : "https://api.spotify.com/v1/tracks/4zGkcajYsMev7SWerZ2usT",
      "id" : "4zGkcajYsMev7SWerZ2usT",
      "is_local" : false,
      "is_playable" : true,
      "name" : "May The Lord Bless And Keep You",
      "popularity" : 10,
      "preview_url" : null,
      "track_number" : 9,
      "type" : "track",
      "uri" : "spotify:track:4zGkcajYsMev7SWerZ2usT"
    }, {
      "album" : {
        "album_type" : "album",
        "artists" : [ {
          "external_urls" : {
            "spotify" : "https://open.spotify.com/artist/5obkpruq3y0AJFeZnNLheK"
          },
          "href" : "https://api.spotify.com/v1/artists/5obkpruq3y0AJFeZnNLheK",
          "id" : "5obkpruq3y0AJFeZnNLheK",
          "name" : "Jim Nabors",
          "type" : "artist",
          "uri" : "spotify:artist:5obkpruq3y0AJFeZnNLheK"
        } ],
        "external_urls" : {
          "spotify" : "https://open.spotify.com/album/24LhRSHvbpCmN57U78rCpP"
        },
        "href" : "https://api.spotify.com/v1/albums/24LhRSHvbpCmN57U78rCpP",
        "id" : "24LhRSHvbpCmN57U78rCpP",
        "images" : [ {
          "height" : 640,
          "url" : "https://i.scdn.co/image/ab67616d0000b27394812361a47688dbd6a385e8",
          "width" : 640
        }, {
          "height" : 300,
          "url" : "https://i.scdn.co/image/ab67616d00001e0294812361a47688dbd6a385e8",
          "width" : 300
        }, {
          "height" : 64,
          "url" : "https://i.scdn.co/image/ab67616d0000485194812361a47688dbd6a385e8",
          "width" : 64
        } ],
        "name" : "More Songs Of Inspiration",
        "release_date" : "1966",
        "release_date_precision" : "year",
        "total_tracks" : 12,
        "type" : "album",
        "uri" : "spotify:album:24LhRSHvbpCmN57U78rCpP"
      },
      "artists" : [ {
        "external_urls" : {
          "spotify" : "https://open.spotify.com/artist/5obkpruq3y0AJFeZnNLheK"
        },
        "href" : "https://api.spotify.com/v1/artists/5obkpruq3y0AJFeZnNLheK",
        "id" : "5obkpruq3y0AJFeZnNLheK",
        "name" : "Jim Nabors",
        "type" : "artist",
        "uri" : "spotify:artist:5obkpruq3y0AJFeZnNLheK"
      } ],
      "disc_number" : 1,
      "duration_ms" : 187173,
      "explicit" : false,
      "external_ids" : {
        "isrc" : "USSM10313110"
      },
      "external_urls" : {
        "spotify" : "https://open.spotify.com/track/24OXEAgU51kyKLaeISaCfU"
      },
      "href" : "https://api.spotify.com/v1/tracks/24OXEAgU51kyKLaeISaCfU",
      "id" : "24OXEAgU51kyKLaeISaCfU",
      "is_local" : false,
      "is_playable" : true,
      "name" : "May The Good Lord Bless And Keep You",
      "popularity" : 7,
      "preview_url" : "https://p.scdn.co/mp3-preview/435e91c571fa33cf6f71b2f2645f0cec138a56e7?cid=774b29d4f13844c495f206cafdad9c86",
      "track_number" : 9,
      "type" : "track",
      "uri" : "spotify:track:24OXEAgU51kyKLaeISaCfU"
    }, {
      "album" : {
        "album_type" : "album",
        "artists" : [ {
          "external_urls" : {
            "spotify" : "https://open.spotify.com/artist/5v8jlSmAQfrkTjAlpUfWtu"
          },
          "href" : "https://api.spotify.com/v1/artists/5v8jlSmAQfrkTjAlpUfWtu",
          "id" : "5v8jlSmAQfrkTjAlpUfWtu",
          "name" : "Perry Como",
          "type" : "artist",
          "uri" : "spotify:artist:5v8jlSmAQfrkTjAlpUfWtu"
        } ],
        "external_urls" : {
          "spotify" : "https://open.spotify.com/album/1wEzhaNztqFAPXhNrMXbDi"
        },
        "href" : "https://api.spotify.com/v1/albums/1wEzhaNztqFAPXhNrMXbDi",
        "id" : "1wEzhaNztqFAPXhNrMXbDi",
        "images" : [ {
          "height" : 640,
          "url" : "https://i.scdn.co/image/ab67616d0000b27348b270798ec85ea374ce40a6",
          "width" : 640
        }, {
          "height" : 300,
          "url" : "https://i.scdn.co/image/ab67616d00001e0248b270798ec85ea374ce40a6",
          "width" : 300
        }, {
          "height" : 64,
          "url" : "https://i.scdn.co/image/ab67616d0000485148b270798ec85ea374ce40a6",
          "width" : 64
        } ],
        "name" : "Sings Songs Of Faith And Devotion",
        "release_date" : "2001-01-05",
        "release_date_precision" : "day",
        "total_tracks" : 17,
        "type" : "album",
        "uri" : "spotify:album:1wEzhaNztqFAPXhNrMXbDi"
      },
      "artists" : [ {
        "external_urls" : {
          "spotify" : "https://open.spotify.com/artist/5v8jlSmAQfrkTjAlpUfWtu"
        },
        "href" : "https://api.spotify.com/v1/artists/5v8jlSmAQfrkTjAlpUfWtu",
        "id" : "5v8jlSmAQfrkTjAlpUfWtu",
        "name" : "Perry Como",
        "type" : "artist",
        "uri" : "spotify:artist:5v8jlSmAQfrkTjAlpUfWtu"
      } ],
      "disc_number" : 1,
      "duration_ms" : 166773,
      "explicit" : false,
      "external_ids" : {
        "isrc" : "USRC10100981"
      },
      "external_urls" : {
        "spotify" : "https://open.spotify.com/track/4ShRM0EPwQpyjsQU2NoceM"
      },
      "href" : "https://api.spotify.com/v1/tracks/4ShRM0EPwQpyjsQU2NoceM",
      "id" : "4ShRM0EPwQpyjsQU2NoceM",
      "is_local" : false,
      "is_playable" : true,
      "name" : "May The Good Lord Bless You And Keep You",
      "popularity" : 8,
      "preview_url" : "https://p.scdn.co/mp3-preview/247dc4ebfbbd42026b35e8c00e634c1782bd3b25?cid=774b29d4f13844c495f206cafdad9c86",
      "track_number" : 2,
      "type" : "track",
      "uri" : "spotify:track:4ShRM0EPwQpyjsQU2NoceM"
    }, {
      "album" : {
        "album_type" : "album",
        "artists" : [ {
          "external_urls" : {
            "spotify" : "https://open.spotify.com/artist/1GeaYVIXCzBwEbjAvv0NYn"
          },
          "href" : "https://api.spotify.com/v1/artists/1GeaYVIXCzBwEbjAvv0NYn",
          "id" : "1GeaYVIXCzBwEbjAvv0NYn",
          "name" : "Aled Jones",
          "type" : "artist",
          "uri" : "spotify:artist:1GeaYVIXCzBwEbjAvv0NYn"
        }, {
          "external_urls" : {
            "spotify" : "https://open.spotify.com/artist/2hrfuB0LtVmFZ6MvPMIHTK"
          },
          "href" : "https://api.spotify.com/v1/artists/2hrfuB0LtVmFZ6MvPMIHTK",
          "id" : "2hrfuB0LtVmFZ6MvPMIHTK",
          "name" : "Russell Watson",
          "type" : "artist",
          "uri" : "spotify:artist:2hrfuB0LtVmFZ6MvPMIHTK"
        } ],
        "external_urls" : {
          "spotify" : "https://open.spotify.com/album/2QjdcIMXEny95djxh7lEN8"
        },
        "href" : "https://api.spotify.com/v1/albums/2QjdcIMXEny95djxh7lEN8",
        "id" : "2QjdcIMXEny95djxh7lEN8",
        "images" : [ {
          "height" : 640,
          "url" : "https://i.scdn.co/image/ab67616d0000b27303fbb5333ee2a2f22137ad00",
          "width" : 640
        }, {
          "height" : 300,
          "url" : "https://i.scdn.co/image/ab67616d00001e0203fbb5333ee2a2f22137ad00",
          "width" : 300
        }, {
          "height" : 64,
          "url" : "https://i.scdn.co/image/ab67616d0000485103fbb5333ee2a2f22137ad00",
          "width" : 64
        } ],
        "name" : "In Harmony",
        "release_date" : "2018-11-09",
        "release_date_precision" : "day",
        "total_tracks" : 14,
        "type" : "album",
        "uri" : "spotify:album:2QjdcIMXEny95djxh7lEN8"
      },
      "artists" : [ {
        "external_urls" : {
          "spotify" : "https://open.spotify.com/artist/1n55BzpMYv8IRkyM1UZXMY"
        },
        "href" : "https://api.spotify.com/v1/artists/1n55BzpMYv8IRkyM1UZXMY",
        "id" : "1n55BzpMYv8IRkyM1UZXMY",
        "name" : "Meredith Willson",
        "type" : "artist",
        "uri" : "spotify:artist:1n55BzpMYv8IRkyM1UZXMY"
      }, {
        "external_urls" : {
          "spotify" : "https://open.spotify.com/artist/1GeaYVIXCzBwEbjAvv0NYn"
        },
        "href" : "https://api.spotify.com/v1/artists/1GeaYVIXCzBwEbjAvv0NYn",
        "id" : "1GeaYVIXCzBwEbjAvv0NYn",
        "name" : "Aled Jones",
        "type" : "artist",
        "uri" : "spotify:artist:1GeaYVIXCzBwEbjAvv0NYn"
      }, {
        "external_urls" : {
          "spotify" : "https://open.spotify.com/artist/2hrfuB0LtVmFZ6MvPMIHTK"
        },
        "href" : "https://api.spotify.com/v1/artists/2hrfuB0LtVmFZ6MvPMIHTK",
        "id" : "2hrfuB0LtVmFZ6MvPMIHTK",
        "name" : "Russell Watson",
        "type" : "artist",
        "uri" : "spotify:artist:2hrfuB0LtVmFZ6MvPMIHTK"
      }, {
        "external_urls" : {
          "spotify" : "https://open.spotify.com/artist/3GLpFMa3feEODjzWx0XSIO"
        },
        "href" : "https://api.spotify.com/v1/artists/3GLpFMa3feEODjzWx0XSIO",
        "id" : "3GLpFMa3feEODjzWx0XSIO",
        "name" : "Tom Rainey",
        "type" : "artist",
        "uri" : "spotify:artist:3GLpFMa3feEODjzWx0XSIO"
      } ],
      "disc_number" : 1,
      "duration_ms" : 295906,
      "explicit" : false,
      "external_ids" : {
        "isrc" : "GB5KW1802834"
      },
      "external_urls" : {
        "spotify" : "https://open.spotify.com/track/2vXnI9hdoQ3TdXLAODnmnX"
      },
      "href" : "https://api.spotify.com/v1/tracks/2vXnI9hdoQ3TdXLAODnmnX",
      "id" : "2vXnI9hdoQ3TdXLAODnmnX",
      "is_local" : false,
      "is_playable" : true,
      "name" : "May the Good Lord Bless and Keep You",
      "popularity" : 19,
      "preview_url" : "https://p.scdn.co/mp3-preview/f400e445e1e3fe00cf8239da1c21857c8bca1c94?cid=774b29d4f13844c495f206cafdad9c86",
      "track_number" : 4,
      "type" : "track",
      "uri" : "spotify:track:2vXnI9hdoQ3TdXLAODnmnX"
    }, {
      "album" : {
        "album_type" : "album",
        "artists" : [ {
          "external_urls" : {
            "spotify" : "https://open.spotify.com/artist/5v8jlSmAQfrkTjAlpUfWtu"
          },
          "href" : "https://api.spotify.com/v1/artists/5v8jlSmAQfrkTjAlpUfWtu",
          "id" : "5v8jlSmAQfrkTjAlpUfWtu",
          "name" : "Perry Como",
          "type" : "artist",
          "uri" : "spotify:artist:5v8jlSmAQfrkTjAlpUfWtu"
        } ],
        "external_urls" : {
          "spotify" : "https://open.spotify.com/album/33B6FHkYJRbu9v9dxo1r7a"
        },
        "href" : "https://api.spotify.com/v1/albums/33B6FHkYJRbu9v9dxo1r7a",
        "id" : "33B6FHkYJRbu9v9dxo1r7a",
        "images" : [ {
          "height" : 640,
          "url" : "https://i.scdn.co/image/ab67616d0000b273679d536ce9e869990db5f5c1",
          "width" : 640
        }, {
          "height" : 300,
          "url" : "https://i.scdn.co/image/ab67616d00001e02679d536ce9e869990db5f5c1",
          "width" : 300
        }, {
          "height" : 64,
          "url" : "https://i.scdn.co/image/ab67616d00004851679d536ce9e869990db5f5c1",
          "width" : 64
        } ],
        "name" : "Greatest Gospel Songs",
        "release_date" : "2000-09-25",
        "release_date_precision" : "day",
        "total_tracks" : 21,
        "type" : "album",
        "uri" : "spotify:album:33B6FHkYJRbu9v9dxo1r7a"
      },
      "artists" : [ {
        "external_urls" : {
          "spotify" : "https://open.spotify.com/artist/5v8jlSmAQfrkTjAlpUfWtu"
        },
        "href" : "https://api.spotify.com/v1/artists/5v8jlSmAQfrkTjAlpUfWtu",
        "id" : "5v8jlSmAQfrkTjAlpUfWtu",
        "name" : "Perry Como",
        "type" : "artist",
        "uri" : "spotify:artist:5v8jlSmAQfrkTjAlpUfWtu"
      } ],
      "disc_number" : 1,
      "duration_ms" : 168426,
      "explicit" : false,
      "external_ids" : {
        "isrc" : "USRC10001099"
      },
      "external_urls" : {
        "spotify" : "https://open.spotify.com/track/63HBreyFlSWrlYyBdOSGxY"
      },
      "href" : "https://api.spotify.com/v1/tracks/63HBreyFlSWrlYyBdOSGxY",
      "id" : "63HBreyFlSWrlYyBdOSGxY",
      "is_local" : false,
      "is_playable" : true,
      "name" : "May the Good Lord Bless and Keep You",
      "popularity" : 7,
      "preview_url" : "https://p.scdn.co/mp3-preview/bf17c186fc1df296c9d10c3d61117199f8bace45?cid=774b29d4f13844c495f206cafdad9c86",
      "track_number" : 4,
      "type" : "track",
      "uri" : "spotify:track:63HBreyFlSWrlYyBdOSGxY"
    }, {
      "album" : {
        "album_type" : "album",
        "artists" : [ {
          "external_urls" : {
            "spotify" : "https://open.spotify.com/artist/5Lju8lxxuKL6ZxAg1leOFH"
          },
          "href" : "https://api.spotify.com/v1/artists/5Lju8lxxuKL6ZxAg1leOFH",
          "id" : "5Lju8lxxuKL6ZxAg1leOFH",
          "name" : "Lee Brothers",
          "type" : "artist",
          "uri" : "spotify:artist:5Lju8lxxuKL6ZxAg1leOFH"
        } ],
        "external_urls" : {
          "spotify" : "https://open.spotify.com/album/2k32SvlVjcmAtHhmsSrdaW"
        },
        "href" : "https://api.spotify.com/v1/albums/2k32SvlVjcmAtHhmsSrdaW",
        "id" : "2k32SvlVjcmAtHhmsSrdaW",
        "images" : [ {
          "height" : 640,
          "url" : "https://i.scdn.co/image/ab67616d0000b273e8adcb01d8994c86fb6681f6",
          "width" : 640
        }, {
          "height" : 300,
          "url" : "https://i.scdn.co/image/ab67616d00001e02e8adcb01d8994c86fb6681f6",
          "width" : 300
        }, {
          "height" : 64,
          "url" : "https://i.scdn.co/image/ab67616d00004851e8adcb01d8994c86fb6681f6",
          "width" : 64
        } ],
        "name" : "Lee Brothers Play \"Heaven Came Down\" on Steel Guitar",
        "release_date" : "2013-02-26",
        "release_date_precision" : "day",
        "total_tracks" : 12,
        "type" : "album",
        "uri" : "spotify:album:2k32SvlVjcmAtHhmsSrdaW"
      },
      "artists" : [ {
        "external_urls" : {
          "spotify" : "https://open.spotify.com/artist/5Lju8lxxuKL6ZxAg1leOFH"
        },
        "href" : "https://api.spotify.com/v1/artists/5Lju8lxxuKL6ZxAg1leOFH",
        "id" : "5Lju8lxxuKL6ZxAg1leOFH",
        "name" : "Lee Brothers",
        "type" : "artist",
        "uri" : "spotify:artist:5Lju8lxxuKL6ZxAg1leOFH"
      } ],
      "disc_number" : 1,
      "duration_ms" : 276933,
      "explicit" : false,
      "external_ids" : {
        "isrc" : "USASN1300293"
      },
      "external_urls" : {
        "spotify" : "https://open.spotify.com/track/7o9BuCVncIaQ0IQjkE9UMo"
      },
      "href" : "https://api.spotify.com/v1/tracks/7o9BuCVncIaQ0IQjkE9UMo",
      "id" : "7o9BuCVncIaQ0IQjkE9UMo",
      "is_local" : false,
      "is_playable" : true,
      "name" : "May the Good Lord Bless and Keep You",
      "popularity" : 4,
      "preview_url" : "https://p.scdn.co/mp3-preview/fb422f5148f53a1dd60a4a710cbfa8a7c1c5af22?cid=774b29d4f13844c495f206cafdad9c86",
      "track_number" : 3,
      "type" : "track",
      "uri" : "spotify:track:7o9BuCVncIaQ0IQjkE9UMo"
    }, {
      "album" : {
        "album_type" : "album",
        "artists" : [ {
          "external_urls" : {
            "spotify" : "https://open.spotify.com/artist/6dkXCmyrSrQteo0gwOGzFl"
          },
          "href" : "https://api.spotify.com/v1/artists/6dkXCmyrSrQteo0gwOGzFl",
          "id" : "6dkXCmyrSrQteo0gwOGzFl",
          "name" : "Katherine Jenkins",
          "type" : "artist",
          "uri" : "spotify:artist:6dkXCmyrSrQteo0gwOGzFl"
        } ],
        "external_urls" : {
          "spotify" : "https://open.spotify.com/album/16Ptcrg289nJ1wpAuqFsEk"
        },
        "href" : "https://api.spotify.com/v1/albums/16Ptcrg289nJ1wpAuqFsEk",
        "id" : "16Ptcrg289nJ1wpAuqFsEk",
        "images" : [ {
          "height" : 640,
          "url" : "https://i.scdn.co/image/ab67616d0000b27310975f9470f6153cdbbbc338",
          "width" : 640
        }, {
          "height" : 300,
          "url" : "https://i.scdn.co/image/ab67616d00001e0210975f9470f6153cdbbbc338",
          "width" : 300
        }, {
          "height" : 64,
          "url" : "https://i.scdn.co/image/ab67616d0000485110975f9470f6153cdbbbc338",
          "width" : 64
        } ],
        "name" : "Sacred Arias",
        "release_date" : "2008-01-01",
        "release_date_precision" : "day",
        "total_tracks" : 12,
        "type" : "album",
        "uri" : "spotify:album:16Ptcrg289nJ1wpAuqFsEk"
      },
      "artists" : [ {
        "external_urls" : {
          "spotify" : "https://open.spotify.com/artist/1n55BzpMYv8IRkyM1UZXMY"
        },
        "href" : "https://api.spotify.com/v1/artists/1n55BzpMYv8IRkyM1UZXMY",
        "id" : "1n55BzpMYv8IRkyM1UZXMY",
        "name" : "Meredith Willson",
        "type" : "artist",
        "uri" : "spotify:artist:1n55BzpMYv8IRkyM1UZXMY"
      }, {
        "external_urls" : {
          "spotify" : "https://open.spotify.com/artist/6dkXCmyrSrQteo0gwOGzFl"
        },
        "href" : "https://api.spotify.com/v1/artists/6dkXCmyrSrQteo0gwOGzFl",
        "id" : "6dkXCmyrSrQteo0gwOGzFl",
        "name" : "Katherine Jenkins",
        "type" : "artist",
        "uri" : "spotify:artist:6dkXCmyrSrQteo0gwOGzFl"
      }, {
        "external_urls" : {
          "spotify" : "https://open.spotify.com/artist/27XG5jv1E16iyAiRmV5nw4"
        },
        "href" : "https://api.spotify.com/v1/artists/27XG5jv1E16iyAiRmV5nw4",
        "id" : "27XG5jv1E16iyAiRmV5nw4",
        "name" : "The London Session Orchestra",
        "type" : "artist",
        "uri" : "spotify:artist:27XG5jv1E16iyAiRmV5nw4"
      }, {
        "external_urls" : {
          "spotify" : "https://open.spotify.com/artist/4oKiOJ0qPP6TFCv6ebRFKO"
        },
        "href" : "https://api.spotify.com/v1/artists/4oKiOJ0qPP6TFCv6ebRFKO",
        "id" : "4oKiOJ0qPP6TFCv6ebRFKO",
        "name" : "Nicholas Dodd",
        "type" : "artist",
        "uri" : "spotify:artist:4oKiOJ0qPP6TFCv6ebRFKO"
      }, {
        "external_urls" : {
          "spotify" : "https://open.spotify.com/artist/5z1FDKqosEGwr8HrgzNa0q"
        },
        "href" : "https://api.spotify.com/v1/artists/5z1FDKqosEGwr8HrgzNa0q",
        "id" : "5z1FDKqosEGwr8HrgzNa0q",
        "name" : "Crouch End Festival Chorus",
        "type" : "artist",
        "uri" : "spotify:artist:5z1FDKqosEGwr8HrgzNa0q"
      } ],
      "disc_number" : 1,
      "duration_ms" : 276093,
      "explicit" : false,
      "external_ids" : {
        "isrc" : "GBUM70810993"
      },
      "external_urls" : {
        "spotify" : "https://open.spotify.com/track/1a8qNeld7lsdIgjKYYnkZG"
      },
      "href" : "https://api.spotify.com/v1/tracks/1a8qNeld7lsdIgjKYYnkZG",
      "id" : "1a8qNeld7lsdIgjKYYnkZG",
      "is_local" : false,
      "is_playable" : true,
      "name" : "May The Good Lord Bless And Keep You",
      "popularity" : 5,
      "preview_url" : null,
      "track_number" : 5,
      "type" : "track",
      "uri" : "spotify:track:1a8qNeld7lsdIgjKYYnkZG"
    }, {
      "album" : {
        "album_type" : "album",
        "artists" : [ {
          "external_urls" : {
            "spotify" : "https://open.spotify.com/artist/6ZjFtWeHP9XN7FeKSUe80S"
          },
          "href" : "https://api.spotify.com/v1/artists/6ZjFtWeHP9XN7FeKSUe80S",
          "id" : "6ZjFtWeHP9XN7FeKSUe80S",
          "name" : "Bing Crosby",
          "type" : "artist",
          "uri" : "spotify:artist:6ZjFtWeHP9XN7FeKSUe80S"
        } ],
        "external_urls" : {
          "spotify" : "https://open.spotify.com/album/22mv9gHxxNN0w2z2vchx6X"
        },
        "href" : "https://api.spotify.com/v1/albums/22mv9gHxxNN0w2z2vchx6X",
        "id" : "22mv9gHxxNN0w2z2vchx6X",
        "images" : [ {
          "height" : 640,
          "url" : "https://i.scdn.co/image/ab67616d0000b273501394203177a6ae3caefc28",
          "width" : 640
        }, {
          "height" : 300,
          "url" : "https://i.scdn.co/image/ab67616d00001e02501394203177a6ae3caefc28",
          "width" : 300
        }, {
          "height" : 64,
          "url" : "https://i.scdn.co/image/ab67616d00004851501394203177a6ae3caefc28",
          "width" : 64
        } ],
        "name" : "Swingin' With Bing: Bing Crosby's Lost Radio Performances",
        "release_date" : "2004-01-01",
        "release_date_precision" : "day",
        "total_tracks" : 75,
        "type" : "album",
        "uri" : "spotify:album:22mv9gHxxNN0w2z2vchx6X"
      },
      "artists" : [ {
        "external_urls" : {
          "spotify" : "https://open.spotify.com/artist/6ZjFtWeHP9XN7FeKSUe80S"
        },
        "href" : "https://api.spotify.com/v1/artists/6ZjFtWeHP9XN7FeKSUe80S",
        "id" : "6ZjFtWeHP9XN7FeKSUe80S",
        "name" : "Bing Crosby",
        "type" : "artist",
        "uri" : "spotify:artist:6ZjFtWeHP9XN7FeKSUe80S"
      }, {
        "external_urls" : {
          "spotify" : "https://open.spotify.com/artist/7v4imS0moSyGdXyLgVTIV7"
        },
        "href" : "https://api.spotify.com/v1/artists/7v4imS0moSyGdXyLgVTIV7",
        "id" : "7v4imS0moSyGdXyLgVTIV7",
        "name" : "Nat King Cole",
        "type" : "artist",
        "uri" : "spotify:artist:7v4imS0moSyGdXyLgVTIV7"
      }, {
        "external_urls" : {
          "spotify" : "https://open.spotify.com/artist/2NCGI6dLTxLdI9XHdv7QfM"
        },
        "href" : "https://api.spotify.com/v1/artists/2NCGI6dLTxLdI9XHdv7QfM",
        "id" : "2NCGI6dLTxLdI9XHdv7QfM",
        "name" : "The Andrews Sisters",
        "type" : "artist",
        "uri" : "spotify:artist:2NCGI6dLTxLdI9XHdv7QfM"
      } ],
      "disc_number" : 1,
      "duration_ms" : 184653,
      "explicit" : false,
      "external_ids" : {
        "isrc" : "USSE90931089"
      },
      "external_urls" : {
        "spotify" : "https://open.spotify.com/track/7KuKD8AN9gZZw2SmBMJxOs"
      },
      "href" : "https://api.spotify.com/v1/tracks/7KuKD8AN9gZZw2SmBMJxOs",
      "id" : "7KuKD8AN9gZZw2SmBMJxOs",
      "is_local" : false,
      "is_playable" : true,
      "name" : "May The Good Lord Bless And Keep You",
      "popularity" : 4,
      "preview_url" : null,
      "track_number" : 25,
      "type" : "track",
      "uri" : "spotify:track:7KuKD8AN9gZZw2SmBMJxOs"
    }, {
      "album" : {
        "album_type" : "album",
        "artists" : [ {
          "external_urls" : {
            "spotify" : "https://open.spotify.com/artist/0Te1NusV6mkAMJ1VAkzJiX"
          },
          "href" : "https://api.spotify.com/v1/artists/0Te1NusV6mkAMJ1VAkzJiX",
          "id" : "0Te1NusV6mkAMJ1VAkzJiX",
          "name" : "Kate Smith",
          "type" : "artist",
          "uri" : "spotify:artist:0Te1NusV6mkAMJ1VAkzJiX"
        } ],
        "external_urls" : {
          "spotify" : "https://open.spotify.com/album/5FrhUnNND1MHc5zZn9VEZn"
        },
        "href" : "https://api.spotify.com/v1/albums/5FrhUnNND1MHc5zZn9VEZn",
        "id" : "5FrhUnNND1MHc5zZn9VEZn",
        "images" : [ {
          "height" : 640,
          "url" : "https://i.scdn.co/image/ab67616d0000b2731fa11fb4954d8b4417372853",
          "width" : 640
        }, {
          "height" : 300,
          "url" : "https://i.scdn.co/image/ab67616d00001e021fa11fb4954d8b4417372853",
          "width" : 300
        }, {
          "height" : 64,
          "url" : "https://i.scdn.co/image/ab67616d000048511fa11fb4954d8b4417372853",
          "width" : 64
        } ],
        "name" : "How Great Thou Art",
        "release_date" : "1966-09-12",
        "release_date_precision" : "day",
        "total_tracks" : 12,
        "type" : "album",
        "uri" : "spotify:album:5FrhUnNND1MHc5zZn9VEZn"
      },
      "artists" : [ {
        "external_urls" : {
          "spotify" : "https://open.spotify.com/artist/0Te1NusV6mkAMJ1VAkzJiX"
        },
        "href" : "https://api.spotify.com/v1/artists/0Te1NusV6mkAMJ1VAkzJiX",
        "id" : "0Te1NusV6mkAMJ1VAkzJiX",
        "name" : "Kate Smith",
        "type" : "artist",
        "uri" : "spotify:artist:0Te1NusV6mkAMJ1VAkzJiX"
      } ],
      "disc_number" : 1,
      "duration_ms" : 212693,
      "explicit" : false,
      "external_ids" : {
        "isrc" : "USRC11400926"
      },
      "external_urls" : {
        "spotify" : "https://open.spotify.com/track/03zX6ouhaLKP1jtrPvBMLB"
      },
      "href" : "https://api.spotify.com/v1/tracks/03zX6ouhaLKP1jtrPvBMLB",
      "id" : "03zX6ouhaLKP1jtrPvBMLB",
      "is_local" : false,
      "is_playable" : true,
      "name" : "May the Good Lord Bless You and Keep You",
      "popularity" : 6,
      "preview_url" : "https://p.scdn.co/mp3-preview/a5668e894cd93e1cdee0d6eb22703bf39bfe3308?cid=774b29d4f13844c495f206cafdad9c86",
      "track_number" : 8,
      "type" : "track",
      "uri" : "spotify:track:03zX6ouhaLKP1jtrPvBMLB"
    } ],
    "limit" : 10,
    "next" : "https://api.spotify.com/v1/search?query=May+the+Lord+Bless+and+Keep+You&type=track&market=US&offset=15&limit=10",
    "offset" : 5,
    "previous" : "https://api.spotify.com/v1/search?query=May+the+Lord+Bless+and+Keep+You&type=track&market=US&offset=0&limit=10",
    "total" : 162
  }
}