{
  "tracks" : {
    "href" : "https://api.spotify.com/v1/search?query=O+Morning+Star%2C+How+Fair+and+Bright&type=track&market=US&offset=5&limit=10",
    "items" : [ {
      "album" : {
        "album_type" : "album",
        "artists" : [ {
          "external_urls" : {
            "spotify" : "https://open.spotify.com/artist/69phyBnLtosmoyF9g5uW1k"
          },
          "href" : "https://api.spotify.com/v1/artists/69phyBnLtosmoyF9g5uW1k",
          "id" : "69phyBnLtosmoyF9g5uW1k",
          "name" : "The Los Angeles Philharmonic Trombones",
          "type" : "artist",
          "uri" : "spotify:artist:69phyBnLtosmoyF9g5uW1k"
        } ],
        "external_urls" : {
          "spotify" : "https://open.spotify.com/album/12kcOS1u3zDMcmQTGJXS7X"
        },
        "href" : "https://api.spotify.com/v1/albums/12kcOS1u3zDMcmQTGJXS7X",
        "id" : "12kcOS1u3zDMcmQTGJXS7X",
        "images" : [ {
          "height" : 640,
          "url" : "https://i.scdn.co/image/ab67616d0000b27332edf2becd38e9b3d768da89",
          "width" : 640
        }, {
          "height" : 300,
          "url" : "https://i.scdn.co/image/ab67616d00001e0232edf2becd38e9b3d768da89",
          "width" : 300
        }, {
          "height" : 64,
          "url" : "https://i.scdn.co/image/ab67616d0000485132edf2becd38e9b3d768da89",
          "width" : 64
        } ],
        "name" : "Abide With Me",
        "release_date" : "2009-07-08",
        "release_date_precision" : "day",
        "total_tracks" : 29,
        "type" : "album",
        "uri" : "spotify:album:12kcOS1u3zDMcmQTGJXS7X"
      },
      "artists" : [ {
        "external_urls" : {
          "spotify" : "https://open.spotify.com/artist/69phyBnLtosmoyF9g5uW1k"
        },
        "href" : "https://api.spotify.com/v1/artists/69phyBnLtosmoyF9g5uW1k",
        "id" : "69phyBnLtosmoyF9g5uW1k",
        "name" : "The Los Angeles Philharmonic Trombones",
        "type" : "artist",
        "uri" : "spotify:artist:69phyBnLtosmoyF9g5uW1k"
      } ],
      "disc_number" : 1,
      "duration_ms" : 71720,
      "explicit" : false,
      "external_ids" : {
        "isrc" : "uscgj1042980"
      },
      "external_urls" : {
        "spotify" : "https://open.spotify.com/track/1riKWxRmdOa8FVjOuYfvio"
      },
      "href" : "https://api.spotify.com/v1/tracks/1riKWxRmdOa8FVjOuYfvio",
      "id" : "1riKWxRmdOa8FVjOuYfvio",
      "is_local" : false,
      "is_playable" : true,
      "name" : "O Morning Star, How Fair And Bright",
      "popularity" : 2,
      "preview_url" : "https://p.scdn.co/mp3-preview/96af7a571e0366de57cdc489bdd2cf2b7785dcb4?cid=774b29d4f13844c495f206cafdad9c86",
      "track_number" : 4,
      "type" : "track",
      "uri" : "spotify:track:1riKWxRmdOa8FVjOuYfvio"
    }, {
      "album" : {
        "album_type" : "album",
        "artists" : [ {
          "external_urls" : {
            "spotify" : "https://open.spotify.com/artist/16jcT0d1rKkQS39quWnA9v"
          },
          "href" : "https://api.spotify.com/v1/artists/16jcT0d1rKkQS39quWnA9v",
          "id" : "16jcT0d1rKkQS39quWnA9v",
          "name" : "Higher Things",
          "type" : "artist",
          "uri" : "spotify:artist:16jcT0d1rKkQS39quWnA9v"
        } ],
        "external_urls" : {
          "spotify" : "https://open.spotify.com/album/10N6PsvtA3q7OgHxO6RuiC"
        },
        "href" : "https://api.spotify.com/v1/albums/10N6PsvtA3q7OgHxO6RuiC",
        "id" : "10N6PsvtA3q7OgHxO6RuiC",
        "images" : [ {
          "height" : 640,
          "url" : "https://i.scdn.co/image/ab67616d0000b273be85a2c04575478c8d78c607",
          "width" : 640
        }, {
          "height" : 300,
          "url" : "https://i.scdn.co/image/ab67616d00001e02be85a2c04575478c8d78c607",
          "width" : 300
        }, {
          "height" : 64,
          "url" : "https://i.scdn.co/image/ab67616d00004851be85a2c04575478c8d78c607",
          "width" : 64
        } ],
        "name" : "Evening and Morning",
        "release_date" : "2019-07-29",
        "release_date_precision" : "day",
        "total_tracks" : 10,
        "type" : "album",
        "uri" : "spotify:album:10N6PsvtA3q7OgHxO6RuiC"
      },
      "artists" : [ {
        "external_urls" : {
          "spotify" : "https://open.spotify.com/artist/16jcT0d1rKkQS39quWnA9v"
        },
        "href" : "https://api.spotify.com/v1/artists/16jcT0d1rKkQS39quWnA9v",
        "id" : "16jcT0d1rKkQS39quWnA9v",
        "name" : "Higher Things",
        "type" : "artist",
        "uri" : "spotify:artist:16jcT0d1rKkQS39quWnA9v"
      }, {
        "external_urls" : {
          "spotify" : "https://open.spotify.com/artist/4TQfFXTCIIWeaKZpmjmgId"
        },
        "href" : "https://api.spotify.com/v1/artists/4TQfFXTCIIWeaKZpmjmgId",
        "id" : "4TQfFXTCIIWeaKZpmjmgId",
        "name" : "Chris Loemker",
        "type" : "artist",
        "uri" : "spotify:artist:4TQfFXTCIIWeaKZpmjmgId"
      } ],
      "disc_number" : 1,
      "duration_ms" : 404026,
      "explicit" : false,
      "external_ids" : {
        "isrc" : "QMAAK1949362"
      },
      "external_urls" : {
        "spotify" : "https://open.spotify.com/track/524ZSj4zGiFOUuZ5V0mRxU"
      },
      "href" : "https://api.spotify.com/v1/tracks/524ZSj4zGiFOUuZ5V0mRxU",
      "id" : "524ZSj4zGiFOUuZ5V0mRxU",
      "is_local" : false,
      "is_playable" : true,
      "name" : "O Morning Star, How Fair and Bright",
      "popularity" : 1,
      "preview_url" : "https://p.scdn.co/mp3-preview/d416f119b99f06f2239c1146c75a4678d6d0a3a5?cid=774b29d4f13844c495f206cafdad9c86",
      "track_number" : 2,
      "type" : "track",
      "uri" : "spotify:track:524ZSj4zGiFOUuZ5V0mRxU"
    }, {
      "album" : {
        "album_type" : "album",
        "artists" : [ {
          "external_urls" : {
            "spotify" : "https://open.spotify.com/artist/6Uzm2WBycvXcKRqcEg6sHS"
          },
          "href" : "https://api.spotify.com/v1/artists/6Uzm2WBycvXcKRqcEg6sHS",
          "id" : "6Uzm2WBycvXcKRqcEg6sHS",
          "name" : "Katherine Murray & Norman Mackenzie",
          "type" : "artist",
          "uri" : "spotify:artist:6Uzm2WBycvXcKRqcEg6sHS"
        } ],
        "external_urls" : {
          "spotify" : "https://open.spotify.com/album/4d2caNjuPXKTws7mLMJiwo"
        },
        "href" : "https://api.spotify.com/v1/albums/4d2caNjuPXKTws7mLMJiwo",
        "id" : "4d2caNjuPXKTws7mLMJiwo",
        "images" : [ {
          "height" : 640,
          "url" : "https://i.scdn.co/image/ab67616d0000b273641839fd79e2882f375e6ce0",
          "width" : 640
        }, {
          "height" : 300,
          "url" : "https://i.scdn.co/image/ab67616d00001e02641839fd79e2882f375e6ce0",
          "width" : 300
        }, {
          "height" : 64,
          "url" : "https://i.scdn.co/image/ab67616d00004851641839fd79e2882f375e6ce0",
          "width" : 64
        } ],
        "name" : "Peace, Love And Wonder - Songs Of Christmas",
        "release_date" : "2006-10-11",
        "release_date_precision" : "day",
        "total_tracks" : 22,
        "type" : "album",
        "uri" : "spotify:album:4d2caNjuPXKTws7mLMJiwo"
      },
      "artists" : [ {
        "external_urls" : {
          "spotify" : "https://open.spotify.com/artist/6Uzm2WBycvXcKRqcEg6sHS"
        },
        "href" : "https://api.spotify.com/v1/artists/6Uzm2WBycvXcKRqcEg6sHS",
        "id" : "6Uzm2WBycvXcKRqcEg6sHS",
        "name" : "Katherine Murray & Norman Mackenzie",
        "type" : "artist",
        "uri" : "spotify:artist:6Uzm2WBycvXcKRqcEg6sHS"
      } ],
      "disc_number" : 1,
      "duration_ms" : 272666,
      "explicit" : false,
      "external_ids" : {
        "isrc" : "USA370699414"
      },
      "external_urls" : {
        "spotify" : "https://open.spotify.com/track/1nAd2lsrKhrguQKnZ0qyoY"
      },
      "href" : "https://api.spotify.com/v1/tracks/1nAd2lsrKhrguQKnZ0qyoY",
      "id" : "1nAd2lsrKhrguQKnZ0qyoY",
      "is_local" : false,
      "is_playable" : true,
      "name" : "O Morning Star, How Fair And Bright",
      "popularity" : 0,
      "preview_url" : "https://p.scdn.co/mp3-preview/1053a8dd5ffc9bf291671e7a06fc5a1fd3866c24?cid=774b29d4f13844c495f206cafdad9c86",
      "track_number" : 5,
      "type" : "track",
      "uri" : "spotify:track:1nAd2lsrKhrguQKnZ0qyoY"
    }, {
      "album" : {
        "album_type" : "album",
        "artists" : [ {
          "external_urls" : {
            "spotify" : "https://open.spotify.com/artist/3ahCVEBA159DrwqwOSbdaf"
          },
          "href" : "https://api.spotify.com/v1/artists/3ahCVEBA159DrwqwOSbdaf",
          "id" : "3ahCVEBA159DrwqwOSbdaf",
          "name" : "Strikepoint",
          "type" : "artist",
          "uri" : "spotify:artist:3ahCVEBA159DrwqwOSbdaf"
        } ],
        "external_urls" : {
          "spotify" : "https://open.spotify.com/album/7eOSDCamsfxNYN4xpp0mVw"
        },
        "href" : "https://api.spotify.com/v1/albums/7eOSDCamsfxNYN4xpp0mVw",
        "id" : "7eOSDCamsfxNYN4xpp0mVw",
        "images" : [ {
          "height" : 640,
          "url" : "https://i.scdn.co/image/ab67616d0000b273e46c9f6ead5b4396abccea08",
          "width" : 640
        }, {
          "height" : 300,
          "url" : "https://i.scdn.co/image/ab67616d00001e02e46c9f6ead5b4396abccea08",
          "width" : 300
        }, {
          "height" : 64,
          "url" : "https://i.scdn.co/image/ab67616d00004851e46c9f6ead5b4396abccea08",
          "width" : 64
        } ],
        "name" : "Reflections",
        "release_date" : "2012-12-04",
        "release_date_precision" : "day",
        "total_tracks" : 13,
        "type" : "album",
        "uri" : "spotify:album:7eOSDCamsfxNYN4xpp0mVw"
      },
      "artists" : [ {
        "external_urls" : {
          "spotify" : "https://open.spotify.com/artist/3ahCVEBA159DrwqwOSbdaf"
        },
        "href" : "https://api.spotify.com/v1/artists/3ahCVEBA159DrwqwOSbdaf",
        "id" : "3ahCVEBA159DrwqwOSbdaf",
        "name" : "Strikepoint",
        "type" : "artist",
        "uri" : "spotify:artist:3ahCVEBA159DrwqwOSbdaf"
      } ],
      "disc_number" : 1,
      "duration_ms" : 274960,
      "explicit" : false,
      "external_ids" : {
        "isrc" : "usx9p1253841"
      },
      "external_urls" : {
        "spotify" : "https://open.spotify.com/track/678OAy30XoIEAZESBxeMLH"
      },
      "href" : "https://api.spotify.com/v1/tracks/678OAy30XoIEAZESBxeMLH",
      "id" : "678OAy30XoIEAZESBxeMLH",
      "is_local" : false,
      "is_playable" : true,
      "name" : "O Morning Star, How Fair and Bright",
      "popularity" : 0,
      "preview_url" : "https://p.scdn.co/mp3-preview/cf68f45cdf7bbf49d8cb78b248b1df78d4d4bca2?cid=774b29d4f13844c495f206cafdad9c86",
      "track_number" : 6,
      "type" : "track",
      "uri" : "spotify:track:678OAy30XoIEAZESBxeMLH"
    }, {
      "album" : {
        "album_type" : "album",
        "artists" : [ {
          "external_urls" : {
            "spotify" : "https://open.spotify.com/artist/4HqRAUvHHK0ymJNiGcepOf"
          },
          "href" : "https://api.spotify.com/v1/artists/4HqRAUvHHK0ymJNiGcepOf",
          "id" : "4HqRAUvHHK0ymJNiGcepOf",
          "name" : "Jiri Klokocka",
          "type" : "artist",
          "uri" : "spotify:artist:4HqRAUvHHK0ymJNiGcepOf"
        } ],
        "external_urls" : {
          "spotify" : "https://open.spotify.com/album/05A6L9rU3tX1lyviPWWPzK"
        },
        "href" : "https://api.spotify.com/v1/albums/05A6L9rU3tX1lyviPWWPzK",
        "id" : "05A6L9rU3tX1lyviPWWPzK",
        "images" : [ {
          "height" : 640,
          "url" : "https://i.scdn.co/image/ab67616d0000b27336e96390e54d681efd48684c",
          "width" : 640
        }, {
          "height" : 300,
          "url" : "https://i.scdn.co/image/ab67616d00001e0236e96390e54d681efd48684c",
          "width" : 300
        }, {
          "height" : 64,
          "url" : "https://i.scdn.co/image/ab67616d0000485136e96390e54d681efd48684c",
          "width" : 64
        } ],
        "name" : "Divine Harmony",
        "release_date" : "2012-06-21",
        "release_date_precision" : "day",
        "total_tracks" : 50,
        "type" : "album",
        "uri" : "spotify:album:05A6L9rU3tX1lyviPWWPzK"
      },
      "artists" : [ {
        "external_urls" : {
          "spotify" : "https://open.spotify.com/artist/4HqRAUvHHK0ymJNiGcepOf"
        },
        "href" : "https://api.spotify.com/v1/artists/4HqRAUvHHK0ymJNiGcepOf",
        "id" : "4HqRAUvHHK0ymJNiGcepOf",
        "name" : "Jiri Klokocka",
        "type" : "artist",
        "uri" : "spotify:artist:4HqRAUvHHK0ymJNiGcepOf"
      } ],
      "disc_number" : 1,
      "duration_ms" : 94622,
      "explicit" : false,
      "external_ids" : {
        "isrc" : "SEWHG1200611"
      },
      "external_urls" : {
        "spotify" : "https://open.spotify.com/track/0bJA2iO1cCMaLcmdyCrbbD"
      },
      "href" : "https://api.spotify.com/v1/tracks/0bJA2iO1cCMaLcmdyCrbbD",
      "id" : "0bJA2iO1cCMaLcmdyCrbbD",
      "is_local" : false,
      "is_playable" : true,
      "name" : "O Morning Star, How Fair and Bright",
      "popularity" : 0,
      "preview_url" : "https://p.scdn.co/mp3-preview/27d196db21ffadcc14d68bf586c59dd55745d085?cid=774b29d4f13844c495f206cafdad9c86",
      "track_number" : 11,
      "type" : "track",
      "uri" : "spotify:track:0bJA2iO1cCMaLcmdyCrbbD"
    }, {
      "album" : {
        "album_type" : "album",
        "artists" : [ {
          "external_urls" : {
            "spotify" : "https://open.spotify.com/artist/41N4x8ZUxk7JkHORj8M3bd"
          },
          "href" : "https://api.spotify.com/v1/artists/41N4x8ZUxk7JkHORj8M3bd",
          "id" : "41N4x8ZUxk7JkHORj8M3bd",
          "name" : "Concordia Publishing House",
          "type" : "artist",
          "uri" : "spotify:artist:41N4x8ZUxk7JkHORj8M3bd"
        } ],
        "external_urls" : {
          "spotify" : "https://open.spotify.com/album/30fH2rsQymrqLfoVJ5MWAP"
        },
        "href" : "https://api.spotify.com/v1/albums/30fH2rsQymrqLfoVJ5MWAP",
        "id" : "30fH2rsQymrqLfoVJ5MWAP",
        "images" : [ {
          "height" : 640,
          "url" : "https://i.scdn.co/image/ab67616d0000b273c3947e0801c35a83a5bbf725",
          "width" : 640
        }, {
          "height" : 300,
          "url" : "https://i.scdn.co/image/ab67616d00001e02c3947e0801c35a83a5bbf725",
          "width" : 300
        }, {
          "height" : 64,
          "url" : "https://i.scdn.co/image/ab67616d00004851c3947e0801c35a83a5bbf725",
          "width" : 64
        } ],
        "name" : "The Concordia Singer's Library-Choral 1",
        "release_date" : "2013-07-17",
        "release_date_precision" : "day",
        "total_tracks" : 20,
        "type" : "album",
        "uri" : "spotify:album:30fH2rsQymrqLfoVJ5MWAP"
      },
      "artists" : [ {
        "external_urls" : {
          "spotify" : "https://open.spotify.com/artist/41N4x8ZUxk7JkHORj8M3bd"
        },
        "href" : "https://api.spotify.com/v1/artists/41N4x8ZUxk7JkHORj8M3bd",
        "id" : "41N4x8ZUxk7JkHORj8M3bd",
        "name" : "Concordia Publishing House",
        "type" : "artist",
        "uri" : "spotify:artist:41N4x8ZUxk7JkHORj8M3bd"
      } ],
      "disc_number" : 1,
      "duration_ms" : 84453,
      "explicit" : false,
      "external_ids" : {
        "isrc" : "US3DF1312176"
      },
      "external_urls" : {
        "spotify" : "https://open.spotify.com/track/1MbKjBUmzKRXOLChKgZ8Dj"
      },
      "href" : "https://api.spotify.com/v1/tracks/1MbKjBUmzKRXOLChKgZ8Dj",
      "id" : "1MbKjBUmzKRXOLChKgZ8Dj",
      "is_local" : false,
      "is_playable" : true,
      "name" : "O Morning Star How Fair and Bright",
      "popularity" : 0,
      "preview_url" : "https://p.scdn.co/mp3-preview/7897360ca85c440bf55585c07d3ef9917f94a3f8?cid=774b29d4f13844c495f206cafdad9c86",
      "track_number" : 6,
      "type" : "track",
      "uri" : "spotify:track:1MbKjBUmzKRXOLChKgZ8Dj"
    }, {
      "album" : {
        "album_type" : "album",
        "artists" : [ {
          "external_urls" : {
            "spotify" : "https://open.spotify.com/artist/21JbgKq4dnty9nP1e1vh6f"
          },
          "href" : "https://api.spotify.com/v1/artists/21JbgKq4dnty9nP1e1vh6f",
          "id" : "21JbgKq4dnty9nP1e1vh6f",
          "name" : "Charles W. Ore",
          "type" : "artist",
          "uri" : "spotify:artist:21JbgKq4dnty9nP1e1vh6f"
        } ],
        "external_urls" : {
          "spotify" : "https://open.spotify.com/album/30SVFu5XK24gMeGYSBKcYP"
        },
        "href" : "https://api.spotify.com/v1/albums/30SVFu5XK24gMeGYSBKcYP",
        "id" : "30SVFu5XK24gMeGYSBKcYP",
        "images" : [ {
          "height" : 640,
          "url" : "https://i.scdn.co/image/ab67616d0000b273bf0bde4a83e2629408434d7a",
          "width" : 640
        }, {
          "height" : 300,
          "url" : "https://i.scdn.co/image/ab67616d00001e02bf0bde4a83e2629408434d7a",
          "width" : 300
        }, {
          "height" : 64,
          "url" : "https://i.scdn.co/image/ab67616d00004851bf0bde4a83e2629408434d7a",
          "width" : 64
        } ],
        "name" : "From My Perspective II",
        "release_date" : "1995-01-01",
        "release_date_precision" : "day",
        "total_tracks" : 14,
        "type" : "album",
        "uri" : "spotify:album:30SVFu5XK24gMeGYSBKcYP"
      },
      "artists" : [ {
        "external_urls" : {
          "spotify" : "https://open.spotify.com/artist/21JbgKq4dnty9nP1e1vh6f"
        },
        "href" : "https://api.spotify.com/v1/artists/21JbgKq4dnty9nP1e1vh6f",
        "id" : "21JbgKq4dnty9nP1e1vh6f",
        "name" : "Charles W. Ore",
        "type" : "artist",
        "uri" : "spotify:artist:21JbgKq4dnty9nP1e1vh6f"
      } ],
      "disc_number" : 1,
      "duration_ms" : 384040,
      "explicit" : false,
      "external_ids" : {
        "isrc" : "usl4q0737965"
      },
      "external_urls" : {
        "spotify" : "https://open.spotify.com/track/3XHlrnrKq9o2HhaGcwdrKG"
      },
      "href" : "https://api.spotify.com/v1/tracks/3XHlrnrKq9o2HhaGcwdrKG",
      "id" : "3XHlrnrKq9o2HhaGcwdrKG",
      "is_local" : false,
      "is_playable" : true,
      "name" : "O Morning Star, How Fair and Bright",
      "popularity" : 0,
      "preview_url" : "https://p.scdn.co/mp3-preview/1f18ce414974876b1eeaefba425fadbe684ed0d1?cid=774b29d4f13844c495f206cafdad9c86",
      "track_number" : 14,
      "type" : "track",
      "uri" : "spotify:track:3XHlrnrKq9o2HhaGcwdrKG"
    }, {
      "album" : {
        "album_type" : "album",
        "artists" : [ {
          "external_urls" : {
            "spotify" : "https://open.spotify.com/artist/21JbgKq4dnty9nP1e1vh6f"
          },
          "href" : "https://api.spotify.com/v1/artists/21JbgKq4dnty9nP1e1vh6f",
          "id" : "21JbgKq4dnty9nP1e1vh6f",
          "name" : "Charles W. Ore",
          "type" : "artist",
          "uri" : "spotify:artist:21JbgKq4dnty9nP1e1vh6f"
        } ],
        "external_urls" : {
          "spotify" : "https://open.spotify.com/album/30SVFu5XK24gMeGYSBKcYP"
        },
        "href" : "https://api.spotify.com/v1/albums/30SVFu5XK24gMeGYSBKcYP",
        "id" : "30SVFu5XK24gMeGYSBKcYP",
        "images" : [ {
          "height" : 640,
          "url" : "https://i.scdn.co/image/ab67616d0000b273bf0bde4a83e2629408434d7a",
          "width" : 640
        }, {
          "height" : 300,
          "url" : "https://i.scdn.co/image/ab67616d00001e02bf0bde4a83e2629408434d7a",
          "width" : 300
        }, {
          "height" : 64,
          "url" : "https://i.scdn.co/image/ab67616d00004851bf0bde4a83e2629408434d7a",
          "width" : 64
        } ],
        "name" : "From My Perspective II",
        "release_date" : "1995-01-01",
        "release_date_precision" : "day",
        "total_tracks" : 14,
        "type" : "album",
        "uri" : "spotify:album:30SVFu5XK24gMeGYSBKcYP"
      },
      "artists" : [ {
        "external_urls" : {
          "spotify" : "https://open.spotify.com/artist/21JbgKq4dnty9nP1e1vh6f"
        },
        "href" : "https://api.spotify.com/v1/artists/21JbgKq4dnty9nP1e1vh6f",
        "id" : "21JbgKq4dnty9nP1e1vh6f",
        "name" : "Charles W. Ore",
        "type" : "artist",
        "uri" : "spotify:artist:21JbgKq4dnty9nP1e1vh6f"
      } ],
      "disc_number" : 1,
      "duration_ms" : 198333,
      "explicit" : false,
      "external_ids" : {
        "isrc" : "usl4q0737964"
      },
      "external_urls" : {
        "spotify" : "https://open.spotify.com/track/6B9E2ipOGgogVQ7DlTi0GZ"
      },
      "href" : "https://api.spotify.com/v1/tracks/6B9E2ipOGgogVQ7DlTi0GZ",
      "id" : "6B9E2ipOGgogVQ7DlTi0GZ",
      "is_local" : false,
      "is_playable" : true,
      "name" : "O Morning Star, How Fair and Bright (Organ Prelude)",
      "popularity" : 0,
      "preview_url" : "https://p.scdn.co/mp3-preview/8bf3e626a0b88ed64503d3290a1acea3adc90f00?cid=774b29d4f13844c495f206cafdad9c86",
      "track_number" : 13,
      "type" : "track",
      "uri" : "spotify:track:6B9E2ipOGgogVQ7DlTi0GZ"
    }, {
      "album" : {
        "album_type" : "album",
        "artists" : [ {
          "external_urls" : {
            "spotify" : "https://open.spotify.com/artist/5IavkTcZ4ZhFbaExPHtBIA"
          },
          "href" : "https://api.spotify.com/v1/artists/5IavkTcZ4ZhFbaExPHtBIA",
          "id" : "5IavkTcZ4ZhFbaExPHtBIA",
          "name" : "Robert Vert",
          "type" : "artist",
          "uri" : "spotify:artist:5IavkTcZ4ZhFbaExPHtBIA"
        } ],
        "external_urls" : {
          "spotify" : "https://open.spotify.com/album/0TmQp394KIc2qXyj99BIcO"
        },
        "href" : "https://api.spotify.com/v1/albums/0TmQp394KIc2qXyj99BIcO",
        "id" : "0TmQp394KIc2qXyj99BIcO",
        "images" : [ {
          "height" : 640,
          "url" : "https://i.scdn.co/image/ab67616d0000b273b0fe8ed1f7bd9292b05115e5",
          "width" : 640
        }, {
          "height" : 300,
          "url" : "https://i.scdn.co/image/ab67616d00001e02b0fe8ed1f7bd9292b05115e5",
          "width" : 300
        }, {
          "height" : 64,
          "url" : "https://i.scdn.co/image/ab67616d00004851b0fe8ed1f7bd9292b05115e5",
          "width" : 64
        } ],
        "name" : "Piano Accompaniments, Vol. 26: Hymns",
        "release_date" : "2018-10-26",
        "release_date_precision" : "day",
        "total_tracks" : 27,
        "type" : "album",
        "uri" : "spotify:album:0TmQp394KIc2qXyj99BIcO"
      },
      "artists" : [ {
        "external_urls" : {
          "spotify" : "https://open.spotify.com/artist/5IavkTcZ4ZhFbaExPHtBIA"
        },
        "href" : "https://api.spotify.com/v1/artists/5IavkTcZ4ZhFbaExPHtBIA",
        "id" : "5IavkTcZ4ZhFbaExPHtBIA",
        "name" : "Robert Vert",
        "type" : "artist",
        "uri" : "spotify:artist:5IavkTcZ4ZhFbaExPHtBIA"
      } ],
      "disc_number" : 1,
      "duration_ms" : 120052,
      "explicit" : false,
      "external_ids" : {
        "isrc" : "ushm91897337"
      },
      "external_urls" : {
        "spotify" : "https://open.spotify.com/track/4gppatjZgSptaIkhjRNYPz"
      },
      "href" : "https://api.spotify.com/v1/tracks/4gppatjZgSptaIkhjRNYPz",
      "id" : "4gppatjZgSptaIkhjRNYPz",
      "is_local" : false,
      "is_playable" : true,
      "name" : "O Morning Star, How Fair and Bright (Piano Accompaniment Track)",
      "popularity" : 0,
      "preview_url" : "https://p.scdn.co/mp3-preview/25859789a29de47c6f1e0b64b57076ad7d33b13e?cid=774b29d4f13844c495f206cafdad9c86",
      "track_number" : 16,
      "type" : "track",
      "uri" : "spotify:track:4gppatjZgSptaIkhjRNYPz"
    }, {
      "album" : {
        "album_type" : "album",
        "artists" : [ {
          "external_urls" : {
            "spotify" : "https://open.spotify.com/artist/7dqIhj2BKHGauIaCEa6MC0"
          },
          "href" : "https://api.spotify.com/v1/artists/7dqIhj2BKHGauIaCEa6MC0",
          "id" : "7dqIhj2BKHGauIaCEa6MC0",
          "name" : "Michael Burkhardt",
          "type" : "artist",
          "uri" : "spotify:artist:7dqIhj2BKHGauIaCEa6MC0"
        } ],
        "external_urls" : {
          "spotify" : "https://open.spotify.com/album/77oHRjKfTMu7mCqGyER8MZ"
        },
        "href" : "https://api.spotify.com/v1/albums/77oHRjKfTMu7mCqGyER8MZ",
        "id" : "77oHRjKfTMu7mCqGyER8MZ",
        "images" : [ {
          "height" : 640,
          "url" : "https://i.scdn.co/image/ab67616d0000b273b1bdd930be54b28bb952928d",
          "width" : 640
        }, {
          "height" : 300,
          "url" : "https://i.scdn.co/image/ab67616d00001e02b1bdd930be54b28bb952928d",
          "width" : 300
        }, {
          "height" : 64,
          "url" : "https://i.scdn.co/image/ab67616d00004851b1bdd930be54b28bb952928d",
          "width" : 64
        } ],
        "name" : "Hymn Improvisations, Vol. 1",
        "release_date" : "2016-03-04",
        "release_date_precision" : "day",
        "total_tracks" : 20,
        "type" : "album",
        "uri" : "spotify:album:77oHRjKfTMu7mCqGyER8MZ"
      },
      "artists" : [ {
        "external_urls" : {
          "spotify" : "https://open.spotify.com/artist/7dqIhj2BKHGauIaCEa6MC0"
        },
        "href" : "https://api.spotify.com/v1/artists/7dqIhj2BKHGauIaCEa6MC0",
        "id" : "7dqIhj2BKHGauIaCEa6MC0",
        "name" : "Michael Burkhardt",
        "type" : "artist",
        "uri" : "spotify:artist:7dqIhj2BKHGauIaCEa6MC0"
      } ],
      "disc_number" : 1,
      "duration_ms" : 644133,
      "explicit" : false,
      "external_ids" : {
        "isrc" : "USAR99319408"
      },
      "external_urls" : {
        "spotify" : "https://open.spotify.com/track/7iB1SYonhEaQLl2NjoJREY"
      },
      "href" : "https://api.spotify.com/v1/tracks/7iB1SYonhEaQLl2NjoJREY",
      "id" : "7iB1SYonhEaQLl2NjoJREY",
      "is_local" : false,
      "is_playable" : true,
      "name" : "O Morning Star, How Fair and Bright (arr. M. Burkhardt for pipe organ)",
      "popularity" : 0,
      "preview_url" : "https://p.scdn.co/mp3-preview/1216e61ca7d393b5ced1d70c87b6c7b6a516309d?cid=774b29d4f13844c495f206cafdad9c86",
      "track_number" : 8,
      "type" : "track",
      "uri" : "spotify:track:7iB1SYonhEaQLl2NjoJREY"
    } ],
    "limit" : 10,
    "next" : "https://api.spotify.com/v1/search?query=O+Morning+Star%2C+How+Fair+and+Bright&type=track&market=US&offset=15&limit=10",
    "offset" : 5,
    "previous" : "https://api.spotify.com/v1/search?query=O+Morning+Star%2C+How+Fair+and+Bright&type=track&market=US&offset=0&limit=10",
    "total" : 18
  }
}