{
  "tracks" : {
    "href" : "https://api.spotify.com/v1/search?query=Jesus%2C+the+Very+Thought+of+Thee&type=track&market=US&offset=5&limit=10",
    "items" : [ {
      "album" : {
        "album_type" : "album",
        "artists" : [ {
          "external_urls" : {
            "spotify" : "https://open.spotify.com/artist/7IEVFZjwpvFGdbt1Wta3uZ"
          },
          "href" : "https://api.spotify.com/v1/artists/7IEVFZjwpvFGdbt1Wta3uZ",
          "id" : "7IEVFZjwpvFGdbt1Wta3uZ",
          "name" : "Seldom Seen Stevens",
          "type" : "artist",
          "uri" : "spotify:artist:7IEVFZjwpvFGdbt1Wta3uZ"
        } ],
        "external_urls" : {
          "spotify" : "https://open.spotify.com/album/14QxyP9MjaJFtgW3BESx64"
        },
        "href" : "https://api.spotify.com/v1/albums/14QxyP9MjaJFtgW3BESx64",
        "id" : "14QxyP9MjaJFtgW3BESx64",
        "images" : [ {
          "height" : 640,
          "url" : "https://i.scdn.co/image/ab67616d0000b273509b1d88e0d3220c7d919679",
          "width" : 640
        }, {
          "height" : 300,
          "url" : "https://i.scdn.co/image/ab67616d00001e02509b1d88e0d3220c7d919679",
          "width" : 300
        }, {
          "height" : 64,
          "url" : "https://i.scdn.co/image/ab67616d00004851509b1d88e0d3220c7d919679",
          "width" : 64
        } ],
        "name" : "In the Quiet of Sunday Morning",
        "release_date" : "2020-01-10",
        "release_date_precision" : "day",
        "total_tracks" : 18,
        "type" : "album",
        "uri" : "spotify:album:14QxyP9MjaJFtgW3BESx64"
      },
      "artists" : [ {
        "external_urls" : {
          "spotify" : "https://open.spotify.com/artist/7IEVFZjwpvFGdbt1Wta3uZ"
        },
        "href" : "https://api.spotify.com/v1/artists/7IEVFZjwpvFGdbt1Wta3uZ",
        "id" : "7IEVFZjwpvFGdbt1Wta3uZ",
        "name" : "Seldom Seen Stevens",
        "type" : "artist",
        "uri" : "spotify:artist:7IEVFZjwpvFGdbt1Wta3uZ"
      } ],
      "disc_number" : 1,
      "duration_ms" : 106000,
      "explicit" : false,
      "external_ids" : {
        "isrc" : "TCAEP2058428"
      },
      "external_urls" : {
        "spotify" : "https://open.spotify.com/track/3XQOr6j6vaHyO5cQQREUS7"
      },
      "href" : "https://api.spotify.com/v1/tracks/3XQOr6j6vaHyO5cQQREUS7",
      "id" : "3XQOr6j6vaHyO5cQQREUS7",
      "is_local" : false,
      "is_playable" : true,
      "name" : "Jesus the Very Thought of Thee",
      "popularity" : 18,
      "preview_url" : "https://p.scdn.co/mp3-preview/4db674dfbd2bc6f1fe27a0746827ff4d30f749c0?cid=774b29d4f13844c495f206cafdad9c86",
      "track_number" : 11,
      "type" : "track",
      "uri" : "spotify:track:3XQOr6j6vaHyO5cQQREUS7"
    }, {
      "album" : {
        "album_type" : "album",
        "artists" : [ {
          "external_urls" : {
            "spotify" : "https://open.spotify.com/artist/4tfY4Ej43I6BJdGaWaQE2z"
          },
          "href" : "https://api.spotify.com/v1/artists/4tfY4Ej43I6BJdGaWaQE2z",
          "id" : "4tfY4Ej43I6BJdGaWaQE2z",
          "name" : "Voice Male",
          "type" : "artist",
          "uri" : "spotify:artist:4tfY4Ej43I6BJdGaWaQE2z"
        } ],
        "external_urls" : {
          "spotify" : "https://open.spotify.com/album/5ZvzUJgTtqem54y2eoBTit"
        },
        "href" : "https://api.spotify.com/v1/albums/5ZvzUJgTtqem54y2eoBTit",
        "id" : "5ZvzUJgTtqem54y2eoBTit",
        "images" : [ {
          "height" : 640,
          "url" : "https://i.scdn.co/image/ab67616d0000b27359da149e04c292a1b58a2f27",
          "width" : 640
        }, {
          "height" : 300,
          "url" : "https://i.scdn.co/image/ab67616d00001e0259da149e04c292a1b58a2f27",
          "width" : 300
        }, {
          "height" : 64,
          "url" : "https://i.scdn.co/image/ab67616d0000485159da149e04c292a1b58a2f27",
          "width" : 64
        } ],
        "name" : "Hims II",
        "release_date" : "2003-11-20",
        "release_date_precision" : "day",
        "total_tracks" : 12,
        "type" : "album",
        "uri" : "spotify:album:5ZvzUJgTtqem54y2eoBTit"
      },
      "artists" : [ {
        "external_urls" : {
          "spotify" : "https://open.spotify.com/artist/4tfY4Ej43I6BJdGaWaQE2z"
        },
        "href" : "https://api.spotify.com/v1/artists/4tfY4Ej43I6BJdGaWaQE2z",
        "id" : "4tfY4Ej43I6BJdGaWaQE2z",
        "name" : "Voice Male",
        "type" : "artist",
        "uri" : "spotify:artist:4tfY4Ej43I6BJdGaWaQE2z"
      } ],
      "disc_number" : 1,
      "duration_ms" : 177533,
      "explicit" : false,
      "external_ids" : {
        "isrc" : "USR7D0800711"
      },
      "external_urls" : {
        "spotify" : "https://open.spotify.com/track/2ua8rAz8WdGBw735LcLpYk"
      },
      "href" : "https://api.spotify.com/v1/tracks/2ua8rAz8WdGBw735LcLpYk",
      "id" : "2ua8rAz8WdGBw735LcLpYk",
      "is_local" : false,
      "is_playable" : true,
      "name" : "Jesus, the Very Thought of Thee",
      "popularity" : 19,
      "preview_url" : "https://p.scdn.co/mp3-preview/efb3da8757ccb83b53b5b8e43774bdef46657f0f?cid=774b29d4f13844c495f206cafdad9c86",
      "track_number" : 11,
      "type" : "track",
      "uri" : "spotify:track:2ua8rAz8WdGBw735LcLpYk"
    }, {
      "album" : {
        "album_type" : "album",
        "artists" : [ {
          "external_urls" : {
            "spotify" : "https://open.spotify.com/artist/7FQRbf8gbKw8KZQZAJWxH2"
          },
          "href" : "https://api.spotify.com/v1/artists/7FQRbf8gbKw8KZQZAJWxH2",
          "id" : "7FQRbf8gbKw8KZQZAJWxH2",
          "name" : "Paul Cardall",
          "type" : "artist",
          "uri" : "spotify:artist:7FQRbf8gbKw8KZQZAJWxH2"
        } ],
        "external_urls" : {
          "spotify" : "https://open.spotify.com/album/60FhTD1ecsWyGqvoKdpIIz"
        },
        "href" : "https://api.spotify.com/v1/albums/60FhTD1ecsWyGqvoKdpIIz",
        "id" : "60FhTD1ecsWyGqvoKdpIIz",
        "images" : [ {
          "height" : 640,
          "url" : "https://i.scdn.co/image/ab67616d0000b2730a4250e04039ca80e4397341",
          "width" : 640
        }, {
          "height" : 300,
          "url" : "https://i.scdn.co/image/ab67616d00001e020a4250e04039ca80e4397341",
          "width" : 300
        }, {
          "height" : 64,
          "url" : "https://i.scdn.co/image/ab67616d000048510a4250e04039ca80e4397341",
          "width" : 64
        } ],
        "name" : "Hymns Vol. 2",
        "release_date" : "2000",
        "release_date_precision" : "year",
        "total_tracks" : 13,
        "type" : "album",
        "uri" : "spotify:album:60FhTD1ecsWyGqvoKdpIIz"
      },
      "artists" : [ {
        "external_urls" : {
          "spotify" : "https://open.spotify.com/artist/7FQRbf8gbKw8KZQZAJWxH2"
        },
        "href" : "https://api.spotify.com/v1/artists/7FQRbf8gbKw8KZQZAJWxH2",
        "id" : "7FQRbf8gbKw8KZQZAJWxH2",
        "name" : "Paul Cardall",
        "type" : "artist",
        "uri" : "spotify:artist:7FQRbf8gbKw8KZQZAJWxH2"
      } ],
      "disc_number" : 1,
      "duration_ms" : 155360,
      "explicit" : false,
      "external_ids" : {
        "isrc" : "uscgj0604100"
      },
      "external_urls" : {
        "spotify" : "https://open.spotify.com/track/2Cad8GiMP2uyIPKj7NcYpI"
      },
      "href" : "https://api.spotify.com/v1/tracks/2Cad8GiMP2uyIPKj7NcYpI",
      "id" : "2Cad8GiMP2uyIPKj7NcYpI",
      "is_local" : false,
      "is_playable" : true,
      "name" : "Jesus, The Very Thought of Thee",
      "popularity" : 19,
      "preview_url" : "https://p.scdn.co/mp3-preview/e45d84b7bdc7f7ad4b82c704befe075d3acf1ff6?cid=774b29d4f13844c495f206cafdad9c86",
      "track_number" : 9,
      "type" : "track",
      "uri" : "spotify:track:2Cad8GiMP2uyIPKj7NcYpI"
    }, {
      "album" : {
        "album_type" : "album",
        "artists" : [ {
          "external_urls" : {
            "spotify" : "https://open.spotify.com/artist/5LgTVKVSQKrJQQKzTHRd7u"
          },
          "href" : "https://api.spotify.com/v1/artists/5LgTVKVSQKrJQQKzTHRd7u",
          "id" : "5LgTVKVSQKrJQQKzTHRd7u",
          "name" : "Phillip Keveren & Anthony LaMarchina",
          "type" : "artist",
          "uri" : "spotify:artist:5LgTVKVSQKrJQQKzTHRd7u"
        } ],
        "external_urls" : {
          "spotify" : "https://open.spotify.com/album/5Jm4hupRKk79PJxggnovzj"
        },
        "href" : "https://api.spotify.com/v1/albums/5Jm4hupRKk79PJxggnovzj",
        "id" : "5Jm4hupRKk79PJxggnovzj",
        "images" : [ {
          "height" : 640,
          "url" : "https://i.scdn.co/image/ab67616d0000b27379dff20acbef03a6a0877b66",
          "width" : 640
        }, {
          "height" : 300,
          "url" : "https://i.scdn.co/image/ab67616d00001e0279dff20acbef03a6a0877b66",
          "width" : 300
        }, {
          "height" : 64,
          "url" : "https://i.scdn.co/image/ab67616d0000485179dff20acbef03a6a0877b66",
          "width" : 64
        } ],
        "name" : "Classical Praise Volume 3: Piano & Cello",
        "release_date" : "2005-09-01",
        "release_date_precision" : "day",
        "total_tracks" : 12,
        "type" : "album",
        "uri" : "spotify:album:5Jm4hupRKk79PJxggnovzj"
      },
      "artists" : [ {
        "external_urls" : {
          "spotify" : "https://open.spotify.com/artist/5LgTVKVSQKrJQQKzTHRd7u"
        },
        "href" : "https://api.spotify.com/v1/artists/5LgTVKVSQKrJQQKzTHRd7u",
        "id" : "5LgTVKVSQKrJQQKzTHRd7u",
        "name" : "Phillip Keveren & Anthony LaMarchina",
        "type" : "artist",
        "uri" : "spotify:artist:5LgTVKVSQKrJQQKzTHRd7u"
      } ],
      "disc_number" : 1,
      "duration_ms" : 172920,
      "explicit" : false,
      "external_ids" : {
        "isrc" : "USDHM0602555"
      },
      "external_urls" : {
        "spotify" : "https://open.spotify.com/track/3jTXkTC0ppf1yySts9tecF"
      },
      "href" : "https://api.spotify.com/v1/tracks/3jTXkTC0ppf1yySts9tecF",
      "id" : "3jTXkTC0ppf1yySts9tecF",
      "is_local" : false,
      "is_playable" : true,
      "name" : "Jesus, The Very Thought of Thee",
      "popularity" : 26,
      "preview_url" : "https://p.scdn.co/mp3-preview/1b35b72f82b020abaead17e1f75282925646ed5b?cid=774b29d4f13844c495f206cafdad9c86",
      "track_number" : 10,
      "type" : "track",
      "uri" : "spotify:track:3jTXkTC0ppf1yySts9tecF"
    }, {
      "album" : {
        "album_type" : "compilation",
        "artists" : [ {
          "external_urls" : {
            "spotify" : "https://open.spotify.com/artist/0LyfQWJT6nXafLPZqxe9Of"
          },
          "href" : "https://api.spotify.com/v1/artists/0LyfQWJT6nXafLPZqxe9Of",
          "id" : "0LyfQWJT6nXafLPZqxe9Of",
          "name" : "Various Artists",
          "type" : "artist",
          "uri" : "spotify:artist:0LyfQWJT6nXafLPZqxe9Of"
        } ],
        "external_urls" : {
          "spotify" : "https://open.spotify.com/album/5oOGXLgQtWaqjMSxwAEYEB"
        },
        "href" : "https://api.spotify.com/v1/albums/5oOGXLgQtWaqjMSxwAEYEB",
        "id" : "5oOGXLgQtWaqjMSxwAEYEB",
        "images" : [ {
          "height" : 640,
          "url" : "https://i.scdn.co/image/ab67616d0000b273f737f886f82e2315a07074f5",
          "width" : 640
        }, {
          "height" : 300,
          "url" : "https://i.scdn.co/image/ab67616d00001e02f737f886f82e2315a07074f5",
          "width" : 300
        }, {
          "height" : 64,
          "url" : "https://i.scdn.co/image/ab67616d00004851f737f886f82e2315a07074f5",
          "width" : 64
        } ],
        "name" : "Hymns 4 Worship, Vol. 2: Just As I Am",
        "release_date" : "2005-01-01",
        "release_date_precision" : "day",
        "total_tracks" : 22,
        "type" : "album",
        "uri" : "spotify:album:5oOGXLgQtWaqjMSxwAEYEB"
      },
      "artists" : [ {
        "external_urls" : {
          "spotify" : "https://open.spotify.com/artist/1KYA9tk1iUyyaU523Wy8bc"
        },
        "href" : "https://api.spotify.com/v1/artists/1KYA9tk1iUyyaU523Wy8bc",
        "id" : "1KYA9tk1iUyyaU523Wy8bc",
        "name" : "Gene Miller",
        "type" : "artist",
        "uri" : "spotify:artist:1KYA9tk1iUyyaU523Wy8bc"
      } ],
      "disc_number" : 1,
      "duration_ms" : 215693,
      "explicit" : false,
      "external_ids" : {
        "isrc" : "US25L0500192"
      },
      "external_urls" : {
        "spotify" : "https://open.spotify.com/track/2iZNxRKv4ewyI7u6IWw8FC"
      },
      "href" : "https://api.spotify.com/v1/tracks/2iZNxRKv4ewyI7u6IWw8FC",
      "id" : "2iZNxRKv4ewyI7u6IWw8FC",
      "is_local" : false,
      "is_playable" : true,
      "name" : "Jesus the Very Thought of Thee",
      "popularity" : 19,
      "preview_url" : "https://p.scdn.co/mp3-preview/081bc68d251ef7539e305a9829cf404a31e1b2bb?cid=774b29d4f13844c495f206cafdad9c86",
      "track_number" : 16,
      "type" : "track",
      "uri" : "spotify:track:2iZNxRKv4ewyI7u6IWw8FC"
    }, {
      "album" : {
        "album_type" : "album",
        "artists" : [ {
          "external_urls" : {
            "spotify" : "https://open.spotify.com/artist/27HpKO5tx7PUZdRRhfBAD7"
          },
          "href" : "https://api.spotify.com/v1/artists/27HpKO5tx7PUZdRRhfBAD7",
          "id" : "27HpKO5tx7PUZdRRhfBAD7",
          "name" : "Lullaby & Prenatal Band",
          "type" : "artist",
          "uri" : "spotify:artist:27HpKO5tx7PUZdRRhfBAD7"
        } ],
        "external_urls" : {
          "spotify" : "https://open.spotify.com/album/6mEtxbqUZWuK1ooFKWckrS"
        },
        "href" : "https://api.spotify.com/v1/albums/6mEtxbqUZWuK1ooFKWckrS",
        "id" : "6mEtxbqUZWuK1ooFKWckrS",
        "images" : [ {
          "height" : 640,
          "url" : "https://i.scdn.co/image/ab67616d0000b273c892420efffdda341b081632",
          "width" : 640
        }, {
          "height" : 300,
          "url" : "https://i.scdn.co/image/ab67616d00001e02c892420efffdda341b081632",
          "width" : 300
        }, {
          "height" : 64,
          "url" : "https://i.scdn.co/image/ab67616d00004851c892420efffdda341b081632",
          "width" : 64
        } ],
        "name" : "Lullaby Hymn for My Baby with Rain Sound, Best",
        "release_date" : "2017-02-03",
        "release_date_precision" : "day",
        "total_tracks" : 25,
        "type" : "album",
        "uri" : "spotify:album:6mEtxbqUZWuK1ooFKWckrS"
      },
      "artists" : [ {
        "external_urls" : {
          "spotify" : "https://open.spotify.com/artist/27HpKO5tx7PUZdRRhfBAD7"
        },
        "href" : "https://api.spotify.com/v1/artists/27HpKO5tx7PUZdRRhfBAD7",
        "id" : "27HpKO5tx7PUZdRRhfBAD7",
        "name" : "Lullaby & Prenatal Band",
        "type" : "artist",
        "uri" : "spotify:artist:27HpKO5tx7PUZdRRhfBAD7"
      } ],
      "disc_number" : 1,
      "duration_ms" : 85185,
      "explicit" : false,
      "external_ids" : {
        "isrc" : "KRB921700256"
      },
      "external_urls" : {
        "spotify" : "https://open.spotify.com/track/6LWBxnUJxn159eB4HUTSQM"
      },
      "href" : "https://api.spotify.com/v1/tracks/6LWBxnUJxn159eB4HUTSQM",
      "id" : "6LWBxnUJxn159eB4HUTSQM",
      "is_local" : false,
      "is_playable" : true,
      "name" : "Jesus, the Very Thought of Thee (Orgel With Rain Sound)",
      "popularity" : 19,
      "preview_url" : "https://p.scdn.co/mp3-preview/19202a34145daf81ce68ae953de84e00b0bac660?cid=774b29d4f13844c495f206cafdad9c86",
      "track_number" : 10,
      "type" : "track",
      "uri" : "spotify:track:6LWBxnUJxn159eB4HUTSQM"
    }, {
      "album" : {
        "album_type" : "album",
        "artists" : [ {
          "external_urls" : {
            "spotify" : "https://open.spotify.com/artist/2YQ4MY2VwOMv43C0GemUY5"
          },
          "href" : "https://api.spotify.com/v1/artists/2YQ4MY2VwOMv43C0GemUY5",
          "id" : "2YQ4MY2VwOMv43C0GemUY5",
          "name" : "Jon Schmidt",
          "type" : "artist",
          "uri" : "spotify:artist:2YQ4MY2VwOMv43C0GemUY5"
        } ],
        "external_urls" : {
          "spotify" : "https://open.spotify.com/album/70f7SiZJuSadrRJnaHysmn"
        },
        "href" : "https://api.spotify.com/v1/albums/70f7SiZJuSadrRJnaHysmn",
        "id" : "70f7SiZJuSadrRJnaHysmn",
        "images" : [ {
          "height" : 640,
          "url" : "https://i.scdn.co/image/ab67616d0000b27338bb998c35913f9e15716b15",
          "width" : 640
        }, {
          "height" : 300,
          "url" : "https://i.scdn.co/image/ab67616d00001e0238bb998c35913f9e15716b15",
          "width" : 300
        }, {
          "height" : 64,
          "url" : "https://i.scdn.co/image/ab67616d0000485138bb998c35913f9e15716b15",
          "width" : 64
        } ],
        "name" : "Hymns Without Words",
        "release_date" : "2006-07-20",
        "release_date_precision" : "day",
        "total_tracks" : 11,
        "type" : "album",
        "uri" : "spotify:album:70f7SiZJuSadrRJnaHysmn"
      },
      "artists" : [ {
        "external_urls" : {
          "spotify" : "https://open.spotify.com/artist/2YQ4MY2VwOMv43C0GemUY5"
        },
        "href" : "https://api.spotify.com/v1/artists/2YQ4MY2VwOMv43C0GemUY5",
        "id" : "2YQ4MY2VwOMv43C0GemUY5",
        "name" : "Jon Schmidt",
        "type" : "artist",
        "uri" : "spotify:artist:2YQ4MY2VwOMv43C0GemUY5"
      } ],
      "disc_number" : 1,
      "duration_ms" : 379706,
      "explicit" : false,
      "external_ids" : {
        "isrc" : "ushm20645003"
      },
      "external_urls" : {
        "spotify" : "https://open.spotify.com/track/4VaxaMDpiXQ5JutkAV4Qh1"
      },
      "href" : "https://api.spotify.com/v1/tracks/4VaxaMDpiXQ5JutkAV4Qh1",
      "id" : "4VaxaMDpiXQ5JutkAV4Qh1",
      "is_local" : false,
      "is_playable" : true,
      "name" : "Funeral Hymn (Jesus the Very Thought of Thee / Tribute / Abide w",
      "popularity" : 29,
      "preview_url" : "https://p.scdn.co/mp3-preview/f6a18bcd8c8e62030c8dc85fc7ad9a30a61a75a4?cid=774b29d4f13844c495f206cafdad9c86",
      "track_number" : 8,
      "type" : "track",
      "uri" : "spotify:track:4VaxaMDpiXQ5JutkAV4Qh1"
    }, {
      "album" : {
        "album_type" : "album",
        "artists" : [ {
          "external_urls" : {
            "spotify" : "https://open.spotify.com/artist/1cK8RxGvtGvSP8aWsWHmjD"
          },
          "href" : "https://api.spotify.com/v1/artists/1cK8RxGvtGvSP8aWsWHmjD",
          "id" : "1cK8RxGvtGvSP8aWsWHmjD",
          "name" : "나지혜 Na Ji Hye",
          "type" : "artist",
          "uri" : "spotify:artist:1cK8RxGvtGvSP8aWsWHmjD"
        } ],
        "external_urls" : {
          "spotify" : "https://open.spotify.com/album/4uxPdxZfyKD3pEDn3FcLsc"
        },
        "href" : "https://api.spotify.com/v1/albums/4uxPdxZfyKD3pEDn3FcLsc",
        "id" : "4uxPdxZfyKD3pEDn3FcLsc",
        "images" : [ {
          "height" : 640,
          "url" : "https://i.scdn.co/image/ab67616d0000b273734abb7eb517b05e17f7607a",
          "width" : 640
        }, {
          "height" : 300,
          "url" : "https://i.scdn.co/image/ab67616d00001e02734abb7eb517b05e17f7607a",
          "width" : 300
        }, {
          "height" : 64,
          "url" : "https://i.scdn.co/image/ab67616d00004851734abb7eb517b05e17f7607a",
          "width" : 64
        } ],
        "name" : "나지혜의 피아노 찬송가 Na Ji Hye's Piano Hymn 1",
        "release_date" : "2020-05-22",
        "release_date_precision" : "day",
        "total_tracks" : 11,
        "type" : "album",
        "uri" : "spotify:album:4uxPdxZfyKD3pEDn3FcLsc"
      },
      "artists" : [ {
        "external_urls" : {
          "spotify" : "https://open.spotify.com/artist/1cK8RxGvtGvSP8aWsWHmjD"
        },
        "href" : "https://api.spotify.com/v1/artists/1cK8RxGvtGvSP8aWsWHmjD",
        "id" : "1cK8RxGvtGvSP8aWsWHmjD",
        "name" : "나지혜 Na Ji Hye",
        "type" : "artist",
        "uri" : "spotify:artist:1cK8RxGvtGvSP8aWsWHmjD"
      } ],
      "disc_number" : 1,
      "duration_ms" : 132000,
      "explicit" : false,
      "external_ids" : {
        "isrc" : "KRA352001469"
      },
      "external_urls" : {
        "spotify" : "https://open.spotify.com/track/7qAygPjcdvrDbYtEkebQXH"
      },
      "href" : "https://api.spotify.com/v1/tracks/7qAygPjcdvrDbYtEkebQXH",
      "id" : "7qAygPjcdvrDbYtEkebQXH",
      "is_local" : false,
      "is_playable" : true,
      "name" : "구주를 생각만 해도 Jesus, The Very Thought of Thee",
      "popularity" : 0,
      "preview_url" : "https://p.scdn.co/mp3-preview/160133198dbf4d3fc5fe72e377a699566f0951bb?cid=774b29d4f13844c495f206cafdad9c86",
      "track_number" : 1,
      "type" : "track",
      "uri" : "spotify:track:7qAygPjcdvrDbYtEkebQXH"
    }, {
      "album" : {
        "album_type" : "album",
        "artists" : [ {
          "external_urls" : {
            "spotify" : "https://open.spotify.com/artist/7FQRbf8gbKw8KZQZAJWxH2"
          },
          "href" : "https://api.spotify.com/v1/artists/7FQRbf8gbKw8KZQZAJWxH2",
          "id" : "7FQRbf8gbKw8KZQZAJWxH2",
          "name" : "Paul Cardall",
          "type" : "artist",
          "uri" : "spotify:artist:7FQRbf8gbKw8KZQZAJWxH2"
        } ],
        "external_urls" : {
          "spotify" : "https://open.spotify.com/album/5bUjErybgeeTCua9Oeg1xw"
        },
        "href" : "https://api.spotify.com/v1/albums/5bUjErybgeeTCua9Oeg1xw",
        "id" : "5bUjErybgeeTCua9Oeg1xw",
        "images" : [ {
          "height" : 640,
          "url" : "https://i.scdn.co/image/ab67616d0000b2735e3f8dabf854285ad7e3da35",
          "width" : 640
        }, {
          "height" : 300,
          "url" : "https://i.scdn.co/image/ab67616d00001e025e3f8dabf854285ad7e3da35",
          "width" : 300
        }, {
          "height" : 64,
          "url" : "https://i.scdn.co/image/ab67616d000048515e3f8dabf854285ad7e3da35",
          "width" : 64
        } ],
        "name" : "40 Hymns for Forty Days",
        "release_date" : "2015-04-14",
        "release_date_precision" : "day",
        "total_tracks" : 40,
        "type" : "album",
        "uri" : "spotify:album:5bUjErybgeeTCua9Oeg1xw"
      },
      "artists" : [ {
        "external_urls" : {
          "spotify" : "https://open.spotify.com/artist/7FQRbf8gbKw8KZQZAJWxH2"
        },
        "href" : "https://api.spotify.com/v1/artists/7FQRbf8gbKw8KZQZAJWxH2",
        "id" : "7FQRbf8gbKw8KZQZAJWxH2",
        "name" : "Paul Cardall",
        "type" : "artist",
        "uri" : "spotify:artist:7FQRbf8gbKw8KZQZAJWxH2"
      } ],
      "disc_number" : 2,
      "duration_ms" : 132853,
      "explicit" : false,
      "external_ids" : {
        "isrc" : "uscgh1553153"
      },
      "external_urls" : {
        "spotify" : "https://open.spotify.com/track/1C5AiKzqRCOokJMdPOctLx"
      },
      "href" : "https://api.spotify.com/v1/tracks/1C5AiKzqRCOokJMdPOctLx",
      "id" : "1C5AiKzqRCOokJMdPOctLx",
      "is_local" : false,
      "is_playable" : true,
      "name" : "Jesus, the Very Thought of Thee",
      "popularity" : 28,
      "preview_url" : "https://p.scdn.co/mp3-preview/58e9b594f4f34dbc87d3635d2e33bcae52a4da45?cid=774b29d4f13844c495f206cafdad9c86",
      "track_number" : 10,
      "type" : "track",
      "uri" : "spotify:track:1C5AiKzqRCOokJMdPOctLx"
    }, {
      "album" : {
        "album_type" : "album",
        "artists" : [ {
          "external_urls" : {
            "spotify" : "https://open.spotify.com/artist/2duo4NJtUrLaI38trK0hht"
          },
          "href" : "https://api.spotify.com/v1/artists/2duo4NJtUrLaI38trK0hht",
          "id" : "2duo4NJtUrLaI38trK0hht",
          "name" : "Mormon Tabernacle Choir",
          "type" : "artist",
          "uri" : "spotify:artist:2duo4NJtUrLaI38trK0hht"
        }, {
          "external_urls" : {
            "spotify" : "https://open.spotify.com/artist/4kAIRZipPTtTbZBTudxcEA"
          },
          "href" : "https://api.spotify.com/v1/artists/4kAIRZipPTtTbZBTudxcEA",
          "id" : "4kAIRZipPTtTbZBTudxcEA",
          "name" : "Orchestra at Temple Square",
          "type" : "artist",
          "uri" : "spotify:artist:4kAIRZipPTtTbZBTudxcEA"
        }, {
          "external_urls" : {
            "spotify" : "https://open.spotify.com/artist/2Zpql3RdMQjunbDKk1bIiz"
          },
          "href" : "https://api.spotify.com/v1/artists/2Zpql3RdMQjunbDKk1bIiz",
          "id" : "2Zpql3RdMQjunbDKk1bIiz",
          "name" : "Mack Wilberg",
          "type" : "artist",
          "uri" : "spotify:artist:2Zpql3RdMQjunbDKk1bIiz"
        } ],
        "external_urls" : {
          "spotify" : "https://open.spotify.com/album/6fSmiRaGB1HZ05g7rr1VtH"
        },
        "href" : "https://api.spotify.com/v1/albums/6fSmiRaGB1HZ05g7rr1VtH",
        "id" : "6fSmiRaGB1HZ05g7rr1VtH",
        "images" : [ {
          "height" : 640,
          "url" : "https://i.scdn.co/image/ab67616d0000b2731ab677a6eb7ebf23fd2d7fc5",
          "width" : 640
        }, {
          "height" : 300,
          "url" : "https://i.scdn.co/image/ab67616d00001e021ab677a6eb7ebf23fd2d7fc5",
          "width" : 300
        }, {
          "height" : 64,
          "url" : "https://i.scdn.co/image/ab67616d000048511ab677a6eb7ebf23fd2d7fc5",
          "width" : 64
        } ],
        "name" : "This Is the Christ",
        "release_date" : "2011-06-07",
        "release_date_precision" : "day",
        "total_tracks" : 14,
        "type" : "album",
        "uri" : "spotify:album:6fSmiRaGB1HZ05g7rr1VtH"
      },
      "artists" : [ {
        "external_urls" : {
          "spotify" : "https://open.spotify.com/artist/0RXU7wB3BtRHV6KOZScQnt"
        },
        "href" : "https://api.spotify.com/v1/artists/0RXU7wB3BtRHV6KOZScQnt",
        "id" : "0RXU7wB3BtRHV6KOZScQnt",
        "name" : "John Bacchus Dykes",
        "type" : "artist",
        "uri" : "spotify:artist:0RXU7wB3BtRHV6KOZScQnt"
      }, {
        "external_urls" : {
          "spotify" : "https://open.spotify.com/artist/2duo4NJtUrLaI38trK0hht"
        },
        "href" : "https://api.spotify.com/v1/artists/2duo4NJtUrLaI38trK0hht",
        "id" : "2duo4NJtUrLaI38trK0hht",
        "name" : "Mormon Tabernacle Choir",
        "type" : "artist",
        "uri" : "spotify:artist:2duo4NJtUrLaI38trK0hht"
      }, {
        "external_urls" : {
          "spotify" : "https://open.spotify.com/artist/4kAIRZipPTtTbZBTudxcEA"
        },
        "href" : "https://api.spotify.com/v1/artists/4kAIRZipPTtTbZBTudxcEA",
        "id" : "4kAIRZipPTtTbZBTudxcEA",
        "name" : "Orchestra at Temple Square",
        "type" : "artist",
        "uri" : "spotify:artist:4kAIRZipPTtTbZBTudxcEA"
      }, {
        "external_urls" : {
          "spotify" : "https://open.spotify.com/artist/2Zpql3RdMQjunbDKk1bIiz"
        },
        "href" : "https://api.spotify.com/v1/artists/2Zpql3RdMQjunbDKk1bIiz",
        "id" : "2Zpql3RdMQjunbDKk1bIiz",
        "name" : "Mack Wilberg",
        "type" : "artist",
        "uri" : "spotify:artist:2Zpql3RdMQjunbDKk1bIiz"
      } ],
      "disc_number" : 1,
      "duration_ms" : 252560,
      "explicit" : false,
      "external_ids" : {
        "isrc" : "US23M1100054"
      },
      "external_urls" : {
        "spotify" : "https://open.spotify.com/track/0MEbaLICHuyEtMvA7ydsl3"
      },
      "href" : "https://api.spotify.com/v1/tracks/0MEbaLICHuyEtMvA7ydsl3",
      "id" : "0MEbaLICHuyEtMvA7ydsl3",
      "is_local" : false,
      "is_playable" : true,
      "name" : "Jesus, the Very Thought of Thee",
      "popularity" : 14,
      "preview_url" : "https://p.scdn.co/mp3-preview/306a95c3bd8d33afbca9b51bd4a47f441c53e0c2?cid=774b29d4f13844c495f206cafdad9c86",
      "track_number" : 10,
      "type" : "track",
      "uri" : "spotify:track:0MEbaLICHuyEtMvA7ydsl3"
    } ],
    "limit" : 10,
    "next" : "https://api.spotify.com/v1/search?query=Jesus%2C+the+Very+Thought+of+Thee&type=track&market=US&offset=15&limit=10",
    "offset" : 5,
    "previous" : "https://api.spotify.com/v1/search?query=Jesus%2C+the+Very+Thought+of+Thee&type=track&market=US&offset=0&limit=10",
    "total" : 202
  }
}