{
  "tracks" : {
    "href" : "https://api.spotify.com/v1/search?query=Lead+On%2C+O+King+Eternal&type=track&market=US&offset=5&limit=10",
    "items" : [ {
      "album" : {
        "album_type" : "album",
        "artists" : [ {
          "external_urls" : {
            "spotify" : "https://open.spotify.com/artist/0HoHU8SXe0g9jJGOfL8rDq"
          },
          "href" : "https://api.spotify.com/v1/artists/0HoHU8SXe0g9jJGOfL8rDq",
          "id" : "0HoHU8SXe0g9jJGOfL8rDq",
          "name" : "Indelible Grace Music",
          "type" : "artist",
          "uri" : "spotify:artist:0HoHU8SXe0g9jJGOfL8rDq"
        } ],
        "external_urls" : {
          "spotify" : "https://open.spotify.com/album/1Ibcxs7oCN4VFa4nfWMyCc"
        },
        "href" : "https://api.spotify.com/v1/albums/1Ibcxs7oCN4VFa4nfWMyCc",
        "id" : "1Ibcxs7oCN4VFa4nfWMyCc",
        "images" : [ {
          "height" : 640,
          "url" : "https://i.scdn.co/image/ab67616d0000b27344c663d7e1e74ea50da4f516",
          "width" : 640
        }, {
          "height" : 300,
          "url" : "https://i.scdn.co/image/ab67616d00001e0244c663d7e1e74ea50da4f516",
          "width" : 300
        }, {
          "height" : 64,
          "url" : "https://i.scdn.co/image/ab67616d0000485144c663d7e1e74ea50da4f516",
          "width" : 64
        } ],
        "name" : "Beams of Heaven: Indelible Grace IV",
        "release_date" : "2008-07-28",
        "release_date_precision" : "day",
        "total_tracks" : 15,
        "type" : "album",
        "uri" : "spotify:album:1Ibcxs7oCN4VFa4nfWMyCc"
      },
      "artists" : [ {
        "external_urls" : {
          "spotify" : "https://open.spotify.com/artist/0HoHU8SXe0g9jJGOfL8rDq"
        },
        "href" : "https://api.spotify.com/v1/artists/0HoHU8SXe0g9jJGOfL8rDq",
        "id" : "0HoHU8SXe0g9jJGOfL8rDq",
        "name" : "Indelible Grace Music",
        "type" : "artist",
        "uri" : "spotify:artist:0HoHU8SXe0g9jJGOfL8rDq"
      } ],
      "disc_number" : 1,
      "duration_ms" : 199453,
      "explicit" : false,
      "external_ids" : {
        "isrc" : "USTC60817661"
      },
      "external_urls" : {
        "spotify" : "https://open.spotify.com/track/2PHtWpWpwjPXGEAOvGkYqu"
      },
      "href" : "https://api.spotify.com/v1/tracks/2PHtWpWpwjPXGEAOvGkYqu",
      "id" : "2PHtWpWpwjPXGEAOvGkYqu",
      "is_local" : false,
      "is_playable" : true,
      "name" : "Lead on O King Eternal [Taylor Sorensen]",
      "popularity" : 10,
      "preview_url" : "https://p.scdn.co/mp3-preview/184370432d887d51b68d2ba9e9d851141247d525?cid=774b29d4f13844c495f206cafdad9c86",
      "track_number" : 7,
      "type" : "track",
      "uri" : "spotify:track:2PHtWpWpwjPXGEAOvGkYqu"
    }, {
      "album" : {
        "album_type" : "album",
        "artists" : [ {
          "external_urls" : {
            "spotify" : "https://open.spotify.com/artist/4rhwll8EPEHOW8diluKlrZ"
          },
          "href" : "https://api.spotify.com/v1/artists/4rhwll8EPEHOW8diluKlrZ",
          "id" : "4rhwll8EPEHOW8diluKlrZ",
          "name" : "Glad",
          "type" : "artist",
          "uri" : "spotify:artist:4rhwll8EPEHOW8diluKlrZ"
        } ],
        "external_urls" : {
          "spotify" : "https://open.spotify.com/album/2Cedx5QpLOJvFsVuMBbwAl"
        },
        "href" : "https://api.spotify.com/v1/albums/2Cedx5QpLOJvFsVuMBbwAl",
        "id" : "2Cedx5QpLOJvFsVuMBbwAl",
        "images" : [ {
          "height" : 640,
          "url" : "https://i.scdn.co/image/ab67616d0000b2737414383023c2b90365732ea9",
          "width" : 640
        }, {
          "height" : 300,
          "url" : "https://i.scdn.co/image/ab67616d00001e027414383023c2b90365732ea9",
          "width" : 300
        }, {
          "height" : 64,
          "url" : "https://i.scdn.co/image/ab67616d000048517414383023c2b90365732ea9",
          "width" : 64
        } ],
        "name" : "Acapella Hymns",
        "release_date" : "1993",
        "release_date_precision" : "year",
        "total_tracks" : 14,
        "type" : "album",
        "uri" : "spotify:album:2Cedx5QpLOJvFsVuMBbwAl"
      },
      "artists" : [ {
        "external_urls" : {
          "spotify" : "https://open.spotify.com/artist/4rhwll8EPEHOW8diluKlrZ"
        },
        "href" : "https://api.spotify.com/v1/artists/4rhwll8EPEHOW8diluKlrZ",
        "id" : "4rhwll8EPEHOW8diluKlrZ",
        "name" : "Glad",
        "type" : "artist",
        "uri" : "spotify:artist:4rhwll8EPEHOW8diluKlrZ"
      } ],
      "disc_number" : 1,
      "duration_ms" : 178666,
      "explicit" : false,
      "external_ids" : {
        "isrc" : "USA5W0404828"
      },
      "external_urls" : {
        "spotify" : "https://open.spotify.com/track/4vWtK9U6G5VHpDbYS0zZqd"
      },
      "href" : "https://api.spotify.com/v1/tracks/4vWtK9U6G5VHpDbYS0zZqd",
      "id" : "4vWtK9U6G5VHpDbYS0zZqd",
      "is_local" : false,
      "is_playable" : true,
      "name" : "Lead On, O King Eternal",
      "popularity" : 9,
      "preview_url" : "https://p.scdn.co/mp3-preview/4b09991b1a5c40d071abf97537719df2c10413f9?cid=774b29d4f13844c495f206cafdad9c86",
      "track_number" : 1,
      "type" : "track",
      "uri" : "spotify:track:4vWtK9U6G5VHpDbYS0zZqd"
    }, {
      "album" : {
        "album_type" : "album",
        "artists" : [ {
          "external_urls" : {
            "spotify" : "https://open.spotify.com/artist/6hJvFuD5q6sFhmgiDaN53o"
          },
          "href" : "https://api.spotify.com/v1/artists/6hJvFuD5q6sFhmgiDaN53o",
          "id" : "6hJvFuD5q6sFhmgiDaN53o",
          "name" : "Live Hymnal",
          "type" : "artist",
          "uri" : "spotify:artist:6hJvFuD5q6sFhmgiDaN53o"
        } ],
        "external_urls" : {
          "spotify" : "https://open.spotify.com/album/1JhjRYqR1Ay68eC8aamxUp"
        },
        "href" : "https://api.spotify.com/v1/albums/1JhjRYqR1Ay68eC8aamxUp",
        "id" : "1JhjRYqR1Ay68eC8aamxUp",
        "images" : [ {
          "height" : 640,
          "url" : "https://i.scdn.co/image/ab67616d0000b2738de80d5fc2d5ed86b8d72a03",
          "width" : 640
        }, {
          "height" : 300,
          "url" : "https://i.scdn.co/image/ab67616d00001e028de80d5fc2d5ed86b8d72a03",
          "width" : 300
        }, {
          "height" : 64,
          "url" : "https://i.scdn.co/image/ab67616d000048518de80d5fc2d5ed86b8d72a03",
          "width" : 64
        } ],
        "name" : "Word, Vol. III (Live)",
        "release_date" : "2018-06-01",
        "release_date_precision" : "day",
        "total_tracks" : 10,
        "type" : "album",
        "uri" : "spotify:album:1JhjRYqR1Ay68eC8aamxUp"
      },
      "artists" : [ {
        "external_urls" : {
          "spotify" : "https://open.spotify.com/artist/6hJvFuD5q6sFhmgiDaN53o"
        },
        "href" : "https://api.spotify.com/v1/artists/6hJvFuD5q6sFhmgiDaN53o",
        "id" : "6hJvFuD5q6sFhmgiDaN53o",
        "name" : "Live Hymnal",
        "type" : "artist",
        "uri" : "spotify:artist:6hJvFuD5q6sFhmgiDaN53o"
      } ],
      "disc_number" : 1,
      "duration_ms" : 221933,
      "explicit" : false,
      "external_ids" : {
        "isrc" : "QMDEJ1800003"
      },
      "external_urls" : {
        "spotify" : "https://open.spotify.com/track/0El5MGLnjqPVFstGjVP86m"
      },
      "href" : "https://api.spotify.com/v1/tracks/0El5MGLnjqPVFstGjVP86m",
      "id" : "0El5MGLnjqPVFstGjVP86m",
      "is_local" : false,
      "is_playable" : true,
      "name" : "Lead On, O King Eternal (Live)",
      "popularity" : 8,
      "preview_url" : "https://p.scdn.co/mp3-preview/3bbccb196b5150f9e2b7338fd2b936163b384109?cid=774b29d4f13844c495f206cafdad9c86",
      "track_number" : 3,
      "type" : "track",
      "uri" : "spotify:track:0El5MGLnjqPVFstGjVP86m"
    }, {
      "album" : {
        "album_type" : "album",
        "artists" : [ {
          "external_urls" : {
            "spotify" : "https://open.spotify.com/artist/1MmubZDiFWXhOXz941cRRp"
          },
          "href" : "https://api.spotify.com/v1/artists/1MmubZDiFWXhOXz941cRRp",
          "id" : "1MmubZDiFWXhOXz941cRRp",
          "name" : "Our Daily Bread",
          "type" : "artist",
          "uri" : "spotify:artist:1MmubZDiFWXhOXz941cRRp"
        } ],
        "external_urls" : {
          "spotify" : "https://open.spotify.com/album/0bcmINfKjrs1jUict1PY0P"
        },
        "href" : "https://api.spotify.com/v1/albums/0bcmINfKjrs1jUict1PY0P",
        "id" : "0bcmINfKjrs1jUict1PY0P",
        "images" : [ {
          "height" : 640,
          "url" : "https://i.scdn.co/image/ab67616d0000b2737174754e8046ab18c005a543",
          "width" : 640
        }, {
          "height" : 300,
          "url" : "https://i.scdn.co/image/ab67616d00001e027174754e8046ab18c005a543",
          "width" : 300
        }, {
          "height" : 64,
          "url" : "https://i.scdn.co/image/ab67616d000048517174754e8046ab18c005a543",
          "width" : 64
        } ],
        "name" : "Hymns of Gratitude and Hymns of Service",
        "release_date" : "2017-10-01",
        "release_date_precision" : "day",
        "total_tracks" : 20,
        "type" : "album",
        "uri" : "spotify:album:0bcmINfKjrs1jUict1PY0P"
      },
      "artists" : [ {
        "external_urls" : {
          "spotify" : "https://open.spotify.com/artist/1MmubZDiFWXhOXz941cRRp"
        },
        "href" : "https://api.spotify.com/v1/artists/1MmubZDiFWXhOXz941cRRp",
        "id" : "1MmubZDiFWXhOXz941cRRp",
        "name" : "Our Daily Bread",
        "type" : "artist",
        "uri" : "spotify:artist:1MmubZDiFWXhOXz941cRRp"
      } ],
      "disc_number" : 1,
      "duration_ms" : 234688,
      "explicit" : false,
      "external_ids" : {
        "isrc" : "USLF51702285"
      },
      "external_urls" : {
        "spotify" : "https://open.spotify.com/track/1yZoIO5U8Js2My7k4VZayA"
      },
      "href" : "https://api.spotify.com/v1/tracks/1yZoIO5U8Js2My7k4VZayA",
      "id" : "1yZoIO5U8Js2My7k4VZayA",
      "is_local" : false,
      "is_playable" : true,
      "name" : "Lead On, O King Eternal",
      "popularity" : 13,
      "preview_url" : "https://p.scdn.co/mp3-preview/2f0cd92b4a3ae30cd37d99e366e2cfec6dd900d2?cid=774b29d4f13844c495f206cafdad9c86",
      "track_number" : 15,
      "type" : "track",
      "uri" : "spotify:track:1yZoIO5U8Js2My7k4VZayA"
    }, {
      "album" : {
        "album_type" : "album",
        "artists" : [ {
          "external_urls" : {
            "spotify" : "https://open.spotify.com/artist/2duo4NJtUrLaI38trK0hht"
          },
          "href" : "https://api.spotify.com/v1/artists/2duo4NJtUrLaI38trK0hht",
          "id" : "2duo4NJtUrLaI38trK0hht",
          "name" : "Mormon Tabernacle Choir",
          "type" : "artist",
          "uri" : "spotify:artist:2duo4NJtUrLaI38trK0hht"
        } ],
        "external_urls" : {
          "spotify" : "https://open.spotify.com/album/1NXtfIy42uOWoEYudzzawo"
        },
        "href" : "https://api.spotify.com/v1/albums/1NXtfIy42uOWoEYudzzawo",
        "id" : "1NXtfIy42uOWoEYudzzawo",
        "images" : [ {
          "height" : 640,
          "url" : "https://i.scdn.co/image/ab67616d0000b27315bfd6e18634103ccc15ff95",
          "width" : 640
        }, {
          "height" : 300,
          "url" : "https://i.scdn.co/image/ab67616d00001e0215bfd6e18634103ccc15ff95",
          "width" : 300
        }, {
          "height" : 64,
          "url" : "https://i.scdn.co/image/ab67616d0000485115bfd6e18634103ccc15ff95",
          "width" : 64
        } ],
        "name" : "Hymns of Faith II (Legacy Series)",
        "release_date" : "1996-10-10",
        "release_date_precision" : "day",
        "total_tracks" : 21,
        "type" : "album",
        "uri" : "spotify:album:1NXtfIy42uOWoEYudzzawo"
      },
      "artists" : [ {
        "external_urls" : {
          "spotify" : "https://open.spotify.com/artist/2duo4NJtUrLaI38trK0hht"
        },
        "href" : "https://api.spotify.com/v1/artists/2duo4NJtUrLaI38trK0hht",
        "id" : "2duo4NJtUrLaI38trK0hht",
        "name" : "Mormon Tabernacle Choir",
        "type" : "artist",
        "uri" : "spotify:artist:2duo4NJtUrLaI38trK0hht"
      } ],
      "disc_number" : 1,
      "duration_ms" : 128106,
      "explicit" : false,
      "external_ids" : {
        "isrc" : "US23M0745594"
      },
      "external_urls" : {
        "spotify" : "https://open.spotify.com/track/31sL686Lt6mIQMcbFWzkTD"
      },
      "href" : "https://api.spotify.com/v1/tracks/31sL686Lt6mIQMcbFWzkTD",
      "id" : "31sL686Lt6mIQMcbFWzkTD",
      "is_local" : false,
      "is_playable" : true,
      "name" : "Lead On, O King Eternal",
      "popularity" : 4,
      "preview_url" : "https://p.scdn.co/mp3-preview/51707b74a3f735125fdec6fead6ff4757c5ebbf9?cid=774b29d4f13844c495f206cafdad9c86",
      "track_number" : 15,
      "type" : "track",
      "uri" : "spotify:track:31sL686Lt6mIQMcbFWzkTD"
    }, {
      "album" : {
        "album_type" : "album",
        "artists" : [ {
          "external_urls" : {
            "spotify" : "https://open.spotify.com/artist/6yHjh2kS1GE4StjNCe5vm0"
          },
          "href" : "https://api.spotify.com/v1/artists/6yHjh2kS1GE4StjNCe5vm0",
          "id" : "6yHjh2kS1GE4StjNCe5vm0",
          "name" : "Mark Baldwin",
          "type" : "artist",
          "uri" : "spotify:artist:6yHjh2kS1GE4StjNCe5vm0"
        } ],
        "external_urls" : {
          "spotify" : "https://open.spotify.com/album/5DQUkwkFJEm7qRyXqwVGdC"
        },
        "href" : "https://api.spotify.com/v1/albums/5DQUkwkFJEm7qRyXqwVGdC",
        "id" : "5DQUkwkFJEm7qRyXqwVGdC",
        "images" : [ {
          "height" : 640,
          "url" : "https://i.scdn.co/image/ab67616d0000b2731e2a71acd32b4602f8a90f06",
          "width" : 640
        }, {
          "height" : 300,
          "url" : "https://i.scdn.co/image/ab67616d00001e021e2a71acd32b4602f8a90f06",
          "width" : 300
        }, {
          "height" : 64,
          "url" : "https://i.scdn.co/image/ab67616d000048511e2a71acd32b4602f8a90f06",
          "width" : 64
        } ],
        "name" : "Our Daily Bread - Hymns of Service",
        "release_date" : "2013-09-01",
        "release_date_precision" : "day",
        "total_tracks" : 10,
        "type" : "album",
        "uri" : "spotify:album:5DQUkwkFJEm7qRyXqwVGdC"
      },
      "artists" : [ {
        "external_urls" : {
          "spotify" : "https://open.spotify.com/artist/6yHjh2kS1GE4StjNCe5vm0"
        },
        "href" : "https://api.spotify.com/v1/artists/6yHjh2kS1GE4StjNCe5vm0",
        "id" : "6yHjh2kS1GE4StjNCe5vm0",
        "name" : "Mark Baldwin",
        "type" : "artist",
        "uri" : "spotify:artist:6yHjh2kS1GE4StjNCe5vm0"
      } ],
      "disc_number" : 1,
      "duration_ms" : 237560,
      "explicit" : false,
      "external_ids" : {
        "isrc" : "USLF50801690"
      },
      "external_urls" : {
        "spotify" : "https://open.spotify.com/track/1QbOvq65Gs1AqK1u5O8z9c"
      },
      "href" : "https://api.spotify.com/v1/tracks/1QbOvq65Gs1AqK1u5O8z9c",
      "id" : "1QbOvq65Gs1AqK1u5O8z9c",
      "is_local" : false,
      "is_playable" : true,
      "name" : "Lead On, O King Eternal",
      "popularity" : 7,
      "preview_url" : "https://p.scdn.co/mp3-preview/d79cf8b85fcf78eeb1453fdd05e0f4648924df5e?cid=774b29d4f13844c495f206cafdad9c86",
      "track_number" : 5,
      "type" : "track",
      "uri" : "spotify:track:1QbOvq65Gs1AqK1u5O8z9c"
    }, {
      "album" : {
        "album_type" : "compilation",
        "artists" : [ {
          "external_urls" : {
            "spotify" : "https://open.spotify.com/artist/3oUFArLfOA0CK6C2AD7LqU"
          },
          "href" : "https://api.spotify.com/v1/artists/3oUFArLfOA0CK6C2AD7LqU",
          "id" : "3oUFArLfOA0CK6C2AD7LqU",
          "name" : "Hymns You Love to Sing Performers",
          "type" : "artist",
          "uri" : "spotify:artist:3oUFArLfOA0CK6C2AD7LqU"
        } ],
        "external_urls" : {
          "spotify" : "https://open.spotify.com/album/00H1HrMUugGp4jNWZjSLtF"
        },
        "href" : "https://api.spotify.com/v1/albums/00H1HrMUugGp4jNWZjSLtF",
        "id" : "00H1HrMUugGp4jNWZjSLtF",
        "images" : [ {
          "height" : 640,
          "url" : "https://i.scdn.co/image/ab67616d0000b273eca0dc97418a9b164be3610d",
          "width" : 640
        }, {
          "height" : 300,
          "url" : "https://i.scdn.co/image/ab67616d00001e02eca0dc97418a9b164be3610d",
          "width" : 300
        }, {
          "height" : 64,
          "url" : "https://i.scdn.co/image/ab67616d00004851eca0dc97418a9b164be3610d",
          "width" : 64
        } ],
        "name" : "50 Contemporary Hymns You Love To Sing",
        "release_date" : "2012-01-01",
        "release_date_precision" : "day",
        "total_tracks" : 28,
        "type" : "album",
        "uri" : "spotify:album:00H1HrMUugGp4jNWZjSLtF"
      },
      "artists" : [ {
        "external_urls" : {
          "spotify" : "https://open.spotify.com/artist/3oUFArLfOA0CK6C2AD7LqU"
        },
        "href" : "https://api.spotify.com/v1/artists/3oUFArLfOA0CK6C2AD7LqU",
        "id" : "3oUFArLfOA0CK6C2AD7LqU",
        "name" : "Hymns You Love to Sing Performers",
        "type" : "artist",
        "uri" : "spotify:artist:3oUFArLfOA0CK6C2AD7LqU"
      } ],
      "disc_number" : 2,
      "duration_ms" : 148373,
      "explicit" : false,
      "external_ids" : {
        "isrc" : "USSW19649905"
      },
      "external_urls" : {
        "spotify" : "https://open.spotify.com/track/2PG77WjESaMfBFPiAgCEsc"
      },
      "href" : "https://api.spotify.com/v1/tracks/2PG77WjESaMfBFPiAgCEsc",
      "id" : "2PG77WjESaMfBFPiAgCEsc",
      "is_local" : false,
      "is_playable" : true,
      "name" : "Lead On O King Eternal",
      "popularity" : 6,
      "preview_url" : null,
      "track_number" : 9,
      "type" : "track",
      "uri" : "spotify:track:2PG77WjESaMfBFPiAgCEsc"
    }, {
      "album" : {
        "album_type" : "album",
        "artists" : [ {
          "external_urls" : {
            "spotify" : "https://open.spotify.com/artist/12K3IF7yyYhFBcSBHjJegl"
          },
          "href" : "https://api.spotify.com/v1/artists/12K3IF7yyYhFBcSBHjJegl",
          "id" : "12K3IF7yyYhFBcSBHjJegl",
          "name" : "4 Hands 4 Him",
          "type" : "artist",
          "uri" : "spotify:artist:12K3IF7yyYhFBcSBHjJegl"
        } ],
        "external_urls" : {
          "spotify" : "https://open.spotify.com/album/76frHEmXsbjFmsFExs4Fyu"
        },
        "href" : "https://api.spotify.com/v1/albums/76frHEmXsbjFmsFExs4Fyu",
        "id" : "76frHEmXsbjFmsFExs4Fyu",
        "images" : [ {
          "height" : 640,
          "url" : "https://i.scdn.co/image/ab67616d0000b2733a5bf8a0f58880e76f944b83",
          "width" : 640
        }, {
          "height" : 300,
          "url" : "https://i.scdn.co/image/ab67616d00001e023a5bf8a0f58880e76f944b83",
          "width" : 300
        }, {
          "height" : 64,
          "url" : "https://i.scdn.co/image/ab67616d000048513a5bf8a0f58880e76f944b83",
          "width" : 64
        } ],
        "name" : "10 Years of Praise",
        "release_date" : "2018-11-15",
        "release_date_precision" : "day",
        "total_tracks" : 11,
        "type" : "album",
        "uri" : "spotify:album:76frHEmXsbjFmsFExs4Fyu"
      },
      "artists" : [ {
        "external_urls" : {
          "spotify" : "https://open.spotify.com/artist/12K3IF7yyYhFBcSBHjJegl"
        },
        "href" : "https://api.spotify.com/v1/artists/12K3IF7yyYhFBcSBHjJegl",
        "id" : "12K3IF7yyYhFBcSBHjJegl",
        "name" : "4 Hands 4 Him",
        "type" : "artist",
        "uri" : "spotify:artist:12K3IF7yyYhFBcSBHjJegl"
      } ],
      "disc_number" : 1,
      "duration_ms" : 308720,
      "explicit" : false,
      "external_ids" : {
        "isrc" : "QMBGL1800009"
      },
      "external_urls" : {
        "spotify" : "https://open.spotify.com/track/7cHYcuDWYusmee4Yq7KMR4"
      },
      "href" : "https://api.spotify.com/v1/tracks/7cHYcuDWYusmee4Yq7KMR4",
      "id" : "7cHYcuDWYusmee4Yq7KMR4",
      "is_local" : false,
      "is_playable" : true,
      "name" : "Lead On, O King Eternal",
      "popularity" : 4,
      "preview_url" : "https://p.scdn.co/mp3-preview/868c7806bb399c0b18d652322d8890e3637230fa?cid=774b29d4f13844c495f206cafdad9c86",
      "track_number" : 9,
      "type" : "track",
      "uri" : "spotify:track:7cHYcuDWYusmee4Yq7KMR4"
    }, {
      "album" : {
        "album_type" : "album",
        "artists" : [ {
          "external_urls" : {
            "spotify" : "https://open.spotify.com/artist/3xsb4ljqz3X0PeExrKqBgC"
          },
          "href" : "https://api.spotify.com/v1/artists/3xsb4ljqz3X0PeExrKqBgC",
          "id" : "3xsb4ljqz3X0PeExrKqBgC",
          "name" : "Enfield",
          "type" : "artist",
          "uri" : "spotify:artist:3xsb4ljqz3X0PeExrKqBgC"
        } ],
        "external_urls" : {
          "spotify" : "https://open.spotify.com/album/1p37Z5QXejcO9CACjj3oFI"
        },
        "href" : "https://api.spotify.com/v1/albums/1p37Z5QXejcO9CACjj3oFI",
        "id" : "1p37Z5QXejcO9CACjj3oFI",
        "images" : [ {
          "height" : 640,
          "url" : "https://i.scdn.co/image/ab67616d0000b27330a5894e0d3914c62d93353c",
          "width" : 640
        }, {
          "height" : 300,
          "url" : "https://i.scdn.co/image/ab67616d00001e0230a5894e0d3914c62d93353c",
          "width" : 300
        }, {
          "height" : 64,
          "url" : "https://i.scdn.co/image/ab67616d0000485130a5894e0d3914c62d93353c",
          "width" : 64
        } ],
        "name" : "Resolved Music, Vol. 1",
        "release_date" : "2010-06-25",
        "release_date_precision" : "day",
        "total_tracks" : 12,
        "type" : "album",
        "uri" : "spotify:album:1p37Z5QXejcO9CACjj3oFI"
      },
      "artists" : [ {
        "external_urls" : {
          "spotify" : "https://open.spotify.com/artist/3xsb4ljqz3X0PeExrKqBgC"
        },
        "href" : "https://api.spotify.com/v1/artists/3xsb4ljqz3X0PeExrKqBgC",
        "id" : "3xsb4ljqz3X0PeExrKqBgC",
        "name" : "Enfield",
        "type" : "artist",
        "uri" : "spotify:artist:3xsb4ljqz3X0PeExrKqBgC"
      } ],
      "disc_number" : 1,
      "duration_ms" : 287826,
      "explicit" : false,
      "external_ids" : {
        "isrc" : "USP791000004"
      },
      "external_urls" : {
        "spotify" : "https://open.spotify.com/track/6SDYHBqwNOyFcidf37xKCw"
      },
      "href" : "https://api.spotify.com/v1/tracks/6SDYHBqwNOyFcidf37xKCw",
      "id" : "6SDYHBqwNOyFcidf37xKCw",
      "is_local" : false,
      "is_playable" : true,
      "name" : "Lead On, O King Eternal (With Christian Ebner)",
      "popularity" : 4,
      "preview_url" : "https://p.scdn.co/mp3-preview/82daa9d60911132f452db65ab4b2ee94f3208eaa?cid=774b29d4f13844c495f206cafdad9c86",
      "track_number" : 4,
      "type" : "track",
      "uri" : "spotify:track:6SDYHBqwNOyFcidf37xKCw"
    }, {
      "album" : {
        "album_type" : "album",
        "artists" : [ {
          "external_urls" : {
            "spotify" : "https://open.spotify.com/artist/3EiSYPZlsHfQtvhe5HhLxc"
          },
          "href" : "https://api.spotify.com/v1/artists/3EiSYPZlsHfQtvhe5HhLxc",
          "id" : "3EiSYPZlsHfQtvhe5HhLxc",
          "name" : "The Vocal Majority",
          "type" : "artist",
          "uri" : "spotify:artist:3EiSYPZlsHfQtvhe5HhLxc"
        } ],
        "external_urls" : {
          "spotify" : "https://open.spotify.com/album/24NSSJRlrI57KiU6OOdfSp"
        },
        "href" : "https://api.spotify.com/v1/albums/24NSSJRlrI57KiU6OOdfSp",
        "id" : "24NSSJRlrI57KiU6OOdfSp",
        "images" : [ {
          "height" : 640,
          "url" : "https://i.scdn.co/image/ab67616d0000b273b99dd28341bdf0c8dbbd0cdf",
          "width" : 640
        }, {
          "height" : 300,
          "url" : "https://i.scdn.co/image/ab67616d00001e02b99dd28341bdf0c8dbbd0cdf",
          "width" : 300
        }, {
          "height" : 64,
          "url" : "https://i.scdn.co/image/ab67616d00004851b99dd28341bdf0c8dbbd0cdf",
          "width" : 64
        } ],
        "name" : "Then Sings My Soul",
        "release_date" : "2015-12-02",
        "release_date_precision" : "day",
        "total_tracks" : 12,
        "type" : "album",
        "uri" : "spotify:album:24NSSJRlrI57KiU6OOdfSp"
      },
      "artists" : [ {
        "external_urls" : {
          "spotify" : "https://open.spotify.com/artist/3EiSYPZlsHfQtvhe5HhLxc"
        },
        "href" : "https://api.spotify.com/v1/artists/3EiSYPZlsHfQtvhe5HhLxc",
        "id" : "3EiSYPZlsHfQtvhe5HhLxc",
        "name" : "The Vocal Majority",
        "type" : "artist",
        "uri" : "spotify:artist:3EiSYPZlsHfQtvhe5HhLxc"
      } ],
      "disc_number" : 1,
      "duration_ms" : 195999,
      "explicit" : false,
      "external_ids" : {
        "isrc" : "USPDG1570007"
      },
      "external_urls" : {
        "spotify" : "https://open.spotify.com/track/0rgjDA2JA33TB5nqFMPl7W"
      },
      "href" : "https://api.spotify.com/v1/tracks/0rgjDA2JA33TB5nqFMPl7W",
      "id" : "0rgjDA2JA33TB5nqFMPl7W",
      "is_local" : false,
      "is_playable" : true,
      "name" : "The King Hymn Medley: O Worship the King / Come Thou Almighty King / Lead On, O King Eternal",
      "popularity" : 3,
      "preview_url" : "https://p.scdn.co/mp3-preview/a0c4a5ee37695c1df388af7decebf7fb19d7135b?cid=774b29d4f13844c495f206cafdad9c86",
      "track_number" : 2,
      "type" : "track",
      "uri" : "spotify:track:0rgjDA2JA33TB5nqFMPl7W"
    } ],
    "limit" : 10,
    "next" : "https://api.spotify.com/v1/search?query=Lead+On%2C+O+King+Eternal&type=track&market=US&offset=15&limit=10",
    "offset" : 5,
    "previous" : "https://api.spotify.com/v1/search?query=Lead+On%2C+O+King+Eternal&type=track&market=US&offset=0&limit=10",
    "total" : 75
  }
}