{
  "tracks" : {
    "href" : "https://api.spotify.com/v1/search?query=O+Zion%2C+Haste&type=track&market=US&offset=5&limit=10",
    "items" : [ {
      "album" : {
        "album_type" : "album",
        "artists" : [ {
          "external_urls" : {
            "spotify" : "https://open.spotify.com/artist/0lIKYnfwagObGRF0DuU59k"
          },
          "href" : "https://api.spotify.com/v1/artists/0lIKYnfwagObGRF0DuU59k",
          "id" : "0lIKYnfwagObGRF0DuU59k",
          "name" : "8 Bit Music Lee",
          "type" : "artist",
          "uri" : "spotify:artist:0lIKYnfwagObGRF0DuU59k"
        } ],
        "external_urls" : {
          "spotify" : "https://open.spotify.com/album/7fo1SMUS84dIPHr1WoWLHQ"
        },
        "href" : "https://api.spotify.com/v1/albums/7fo1SMUS84dIPHr1WoWLHQ",
        "id" : "7fo1SMUS84dIPHr1WoWLHQ",
        "images" : [ {
          "height" : 640,
          "url" : "https://i.scdn.co/image/ab67616d0000b2737fd7e77f69bc6baafe131c76",
          "width" : 640
        }, {
          "height" : 300,
          "url" : "https://i.scdn.co/image/ab67616d00001e027fd7e77f69bc6baafe131c76",
          "width" : 300
        }, {
          "height" : 64,
          "url" : "https://i.scdn.co/image/ab67616d000048517fd7e77f69bc6baafe131c76",
          "width" : 64
        } ],
        "name" : "Hymns, Vol. XIV",
        "release_date" : "2020-03-29",
        "release_date_precision" : "day",
        "total_tracks" : 15,
        "type" : "album",
        "uri" : "spotify:album:7fo1SMUS84dIPHr1WoWLHQ"
      },
      "artists" : [ {
        "external_urls" : {
          "spotify" : "https://open.spotify.com/artist/0lIKYnfwagObGRF0DuU59k"
        },
        "href" : "https://api.spotify.com/v1/artists/0lIKYnfwagObGRF0DuU59k",
        "id" : "0lIKYnfwagObGRF0DuU59k",
        "name" : "8 Bit Music Lee",
        "type" : "artist",
        "uri" : "spotify:artist:0lIKYnfwagObGRF0DuU59k"
      } ],
      "disc_number" : 1,
      "duration_ms" : 252081,
      "explicit" : false,
      "external_ids" : {
        "isrc" : "QZDA62044751"
      },
      "external_urls" : {
        "spotify" : "https://open.spotify.com/track/33LfcW2yT8ROud5TVaEm87"
      },
      "href" : "https://api.spotify.com/v1/tracks/33LfcW2yT8ROud5TVaEm87",
      "id" : "33LfcW2yT8ROud5TVaEm87",
      "is_local" : false,
      "is_playable" : true,
      "name" : "O Zion Haste",
      "popularity" : 2,
      "preview_url" : "https://p.scdn.co/mp3-preview/942e03bf2c01bb406a12c5b69fb8dcc699547530?cid=774b29d4f13844c495f206cafdad9c86",
      "track_number" : 7,
      "type" : "track",
      "uri" : "spotify:track:33LfcW2yT8ROud5TVaEm87"
    }, {
      "album" : {
        "album_type" : "album",
        "artists" : [ {
          "external_urls" : {
            "spotify" : "https://open.spotify.com/artist/20rlbkwNSoLrLqQUR7GRcT"
          },
          "href" : "https://api.spotify.com/v1/artists/20rlbkwNSoLrLqQUR7GRcT",
          "id" : "20rlbkwNSoLrLqQUR7GRcT",
          "name" : "Mother’s Lullaby",
          "type" : "artist",
          "uri" : "spotify:artist:20rlbkwNSoLrLqQUR7GRcT"
        } ],
        "external_urls" : {
          "spotify" : "https://open.spotify.com/album/44RkAlks0HqphlpDFn1Vus"
        },
        "href" : "https://api.spotify.com/v1/albums/44RkAlks0HqphlpDFn1Vus",
        "id" : "44RkAlks0HqphlpDFn1Vus",
        "images" : [ {
          "height" : 640,
          "url" : "https://i.scdn.co/image/ab67616d0000b273ccb94073c7bdbed820df0457",
          "width" : 640
        }, {
          "height" : 300,
          "url" : "https://i.scdn.co/image/ab67616d00001e02ccb94073c7bdbed820df0457",
          "width" : 300
        }, {
          "height" : 64,
          "url" : "https://i.scdn.co/image/ab67616d00004851ccb94073c7bdbed820df0457",
          "width" : 64
        } ],
        "name" : "Hymns Vol.13 (#241~#260)",
        "release_date" : "2019-06-03",
        "release_date_precision" : "day",
        "total_tracks" : 20,
        "type" : "album",
        "uri" : "spotify:album:44RkAlks0HqphlpDFn1Vus"
      },
      "artists" : [ {
        "external_urls" : {
          "spotify" : "https://open.spotify.com/artist/20rlbkwNSoLrLqQUR7GRcT"
        },
        "href" : "https://api.spotify.com/v1/artists/20rlbkwNSoLrLqQUR7GRcT",
        "id" : "20rlbkwNSoLrLqQUR7GRcT",
        "name" : "Mother’s Lullaby",
        "type" : "artist",
        "uri" : "spotify:artist:20rlbkwNSoLrLqQUR7GRcT"
      } ],
      "disc_number" : 1,
      "duration_ms" : 231818,
      "explicit" : false,
      "external_ids" : {
        "isrc" : "QZEKE1864879"
      },
      "external_urls" : {
        "spotify" : "https://open.spotify.com/track/46cey2FSDvL82EErnwbOqx"
      },
      "href" : "https://api.spotify.com/v1/tracks/46cey2FSDvL82EErnwbOqx",
      "id" : "46cey2FSDvL82EErnwbOqx",
      "is_local" : false,
      "is_playable" : true,
      "name" : "O Zion Haste",
      "popularity" : 0,
      "preview_url" : "https://p.scdn.co/mp3-preview/2cc5f42f94b7f05931c16e814fa2174af721432b?cid=774b29d4f13844c495f206cafdad9c86",
      "track_number" : 15,
      "type" : "track",
      "uri" : "spotify:track:46cey2FSDvL82EErnwbOqx"
    }, {
      "album" : {
        "album_type" : "album",
        "artists" : [ {
          "external_urls" : {
            "spotify" : "https://open.spotify.com/artist/5aHE1EAT1F5E1kdvWCqObF"
          },
          "href" : "https://api.spotify.com/v1/artists/5aHE1EAT1F5E1kdvWCqObF",
          "id" : "5aHE1EAT1F5E1kdvWCqObF",
          "name" : "Steven Anderson",
          "type" : "artist",
          "uri" : "spotify:artist:5aHE1EAT1F5E1kdvWCqObF"
        } ],
        "external_urls" : {
          "spotify" : "https://open.spotify.com/album/3AQyb34kl40Vssdw6LhYwT"
        },
        "href" : "https://api.spotify.com/v1/albums/3AQyb34kl40Vssdw6LhYwT",
        "id" : "3AQyb34kl40Vssdw6LhYwT",
        "images" : [ {
          "height" : 640,
          "url" : "https://i.scdn.co/image/ab67616d0000b273acbe13e7d58b31c2d94603f7",
          "width" : 640
        }, {
          "height" : 300,
          "url" : "https://i.scdn.co/image/ab67616d00001e02acbe13e7d58b31c2d94603f7",
          "width" : 300
        }, {
          "height" : 64,
          "url" : "https://i.scdn.co/image/ab67616d00004851acbe13e7d58b31c2d94603f7",
          "width" : 64
        } ],
        "name" : "History Of The Hymnal (100 Classic Christian Hymns)",
        "release_date" : "2007-05-08",
        "release_date_precision" : "day",
        "total_tracks" : 100,
        "type" : "album",
        "uri" : "spotify:album:3AQyb34kl40Vssdw6LhYwT"
      },
      "artists" : [ {
        "external_urls" : {
          "spotify" : "https://open.spotify.com/artist/5aHE1EAT1F5E1kdvWCqObF"
        },
        "href" : "https://api.spotify.com/v1/artists/5aHE1EAT1F5E1kdvWCqObF",
        "id" : "5aHE1EAT1F5E1kdvWCqObF",
        "name" : "Steven Anderson",
        "type" : "artist",
        "uri" : "spotify:artist:5aHE1EAT1F5E1kdvWCqObF"
      } ],
      "disc_number" : 3,
      "duration_ms" : 125746,
      "explicit" : false,
      "external_ids" : {
        "isrc" : "CAM460701258"
      },
      "external_urls" : {
        "spotify" : "https://open.spotify.com/track/4BacKBjINiadVv7RhPqImx"
      },
      "href" : "https://api.spotify.com/v1/tracks/4BacKBjINiadVv7RhPqImx",
      "id" : "4BacKBjINiadVv7RhPqImx",
      "is_local" : false,
      "is_playable" : true,
      "name" : "O Zion, Haste",
      "popularity" : 2,
      "preview_url" : "https://p.scdn.co/mp3-preview/909dc4b3b1c1c3ac8f3cd0b024fbde63621b7293?cid=774b29d4f13844c495f206cafdad9c86",
      "track_number" : 16,
      "type" : "track",
      "uri" : "spotify:track:4BacKBjINiadVv7RhPqImx"
    }, {
      "album" : {
        "album_type" : "album",
        "artists" : [ {
          "external_urls" : {
            "spotify" : "https://open.spotify.com/artist/6ZJ0ZFJUx02NthS3RH3VYz"
          },
          "href" : "https://api.spotify.com/v1/artists/6ZJ0ZFJUx02NthS3RH3VYz",
          "id" : "6ZJ0ZFJUx02NthS3RH3VYz",
          "name" : "The Joyful Sounds",
          "type" : "artist",
          "uri" : "spotify:artist:6ZJ0ZFJUx02NthS3RH3VYz"
        } ],
        "external_urls" : {
          "spotify" : "https://open.spotify.com/album/4RgpD3TXOwCGQ8q0pRvxnf"
        },
        "href" : "https://api.spotify.com/v1/albums/4RgpD3TXOwCGQ8q0pRvxnf",
        "id" : "4RgpD3TXOwCGQ8q0pRvxnf",
        "images" : [ {
          "height" : 640,
          "url" : "https://i.scdn.co/image/ab67616d0000b2735f09476a9da1f88ffb5b5d06",
          "width" : 640
        }, {
          "height" : 300,
          "url" : "https://i.scdn.co/image/ab67616d00001e025f09476a9da1f88ffb5b5d06",
          "width" : 300
        }, {
          "height" : 64,
          "url" : "https://i.scdn.co/image/ab67616d000048515f09476a9da1f88ffb5b5d06",
          "width" : 64
        } ],
        "name" : "99 Beautiful songs pack vol.3",
        "release_date" : "2016-03-01",
        "release_date_precision" : "day",
        "total_tracks" : 99,
        "type" : "album",
        "uri" : "spotify:album:4RgpD3TXOwCGQ8q0pRvxnf"
      },
      "artists" : [ {
        "external_urls" : {
          "spotify" : "https://open.spotify.com/artist/6ZJ0ZFJUx02NthS3RH3VYz"
        },
        "href" : "https://api.spotify.com/v1/artists/6ZJ0ZFJUx02NthS3RH3VYz",
        "id" : "6ZJ0ZFJUx02NthS3RH3VYz",
        "name" : "The Joyful Sounds",
        "type" : "artist",
        "uri" : "spotify:artist:6ZJ0ZFJUx02NthS3RH3VYz"
      } ],
      "disc_number" : 1,
      "duration_ms" : 32299,
      "explicit" : false,
      "external_ids" : {
        "isrc" : "TCJPE1644927"
      },
      "external_urls" : {
        "spotify" : "https://open.spotify.com/track/6ColVhd1tEQNazl18oRmTb"
      },
      "href" : "https://api.spotify.com/v1/tracks/6ColVhd1tEQNazl18oRmTb",
      "id" : "6ColVhd1tEQNazl18oRmTb",
      "is_local" : false,
      "is_playable" : true,
      "name" : "O Zion, Haste",
      "popularity" : 0,
      "preview_url" : "https://p.scdn.co/mp3-preview/b84cd35c1bb50aa6d90c8f88a1ea98c07323c61f?cid=774b29d4f13844c495f206cafdad9c86",
      "track_number" : 71,
      "type" : "track",
      "uri" : "spotify:track:6ColVhd1tEQNazl18oRmTb"
    }, {
      "album" : {
        "album_type" : "album",
        "artists" : [ {
          "external_urls" : {
            "spotify" : "https://open.spotify.com/artist/6PkllwdYt53jxAXGgw3Jvb"
          },
          "href" : "https://api.spotify.com/v1/artists/6PkllwdYt53jxAXGgw3Jvb",
          "id" : "6PkllwdYt53jxAXGgw3Jvb",
          "name" : "Suzanne Shu",
          "type" : "artist",
          "uri" : "spotify:artist:6PkllwdYt53jxAXGgw3Jvb"
        } ],
        "external_urls" : {
          "spotify" : "https://open.spotify.com/album/2oY6r7kEBNumGACfwkiWvT"
        },
        "href" : "https://api.spotify.com/v1/albums/2oY6r7kEBNumGACfwkiWvT",
        "id" : "2oY6r7kEBNumGACfwkiWvT",
        "images" : [ {
          "height" : 640,
          "url" : "https://i.scdn.co/image/ab67616d0000b273c55ff9edc09326a086da7775",
          "width" : 640
        }, {
          "height" : 300,
          "url" : "https://i.scdn.co/image/ab67616d00001e02c55ff9edc09326a086da7775",
          "width" : 300
        }, {
          "height" : 64,
          "url" : "https://i.scdn.co/image/ab67616d00004851c55ff9edc09326a086da7775",
          "width" : 64
        } ],
        "name" : "Praise From Two Strings",
        "release_date" : "2000-03-07",
        "release_date_precision" : "day",
        "total_tracks" : 15,
        "type" : "album",
        "uri" : "spotify:album:2oY6r7kEBNumGACfwkiWvT"
      },
      "artists" : [ {
        "external_urls" : {
          "spotify" : "https://open.spotify.com/artist/6PkllwdYt53jxAXGgw3Jvb"
        },
        "href" : "https://api.spotify.com/v1/artists/6PkllwdYt53jxAXGgw3Jvb",
        "id" : "6PkllwdYt53jxAXGgw3Jvb",
        "name" : "Suzanne Shu",
        "type" : "artist",
        "uri" : "spotify:artist:6PkllwdYt53jxAXGgw3Jvb"
      } ],
      "disc_number" : 1,
      "duration_ms" : 175229,
      "explicit" : false,
      "external_ids" : {
        "isrc" : "USA370346819"
      },
      "external_urls" : {
        "spotify" : "https://open.spotify.com/track/23cgCNB2oeN6Mjtk84lZkD"
      },
      "href" : "https://api.spotify.com/v1/tracks/23cgCNB2oeN6Mjtk84lZkD",
      "id" : "23cgCNB2oeN6Mjtk84lZkD",
      "is_local" : false,
      "is_playable" : true,
      "name" : "O Zion, Haste",
      "popularity" : 0,
      "preview_url" : "https://p.scdn.co/mp3-preview/2bcdebbb81e5e0473b1eb77f74a0f6ea4a414606?cid=774b29d4f13844c495f206cafdad9c86",
      "track_number" : 3,
      "type" : "track",
      "uri" : "spotify:track:23cgCNB2oeN6Mjtk84lZkD"
    }, {
      "album" : {
        "album_type" : "album",
        "artists" : [ {
          "external_urls" : {
            "spotify" : "https://open.spotify.com/artist/0xtGTegKCrCcuakhs6XLWK"
          },
          "href" : "https://api.spotify.com/v1/artists/0xtGTegKCrCcuakhs6XLWK",
          "id" : "0xtGTegKCrCcuakhs6XLWK",
          "name" : "The Jubilate Singers",
          "type" : "artist",
          "uri" : "spotify:artist:0xtGTegKCrCcuakhs6XLWK"
        } ],
        "external_urls" : {
          "spotify" : "https://open.spotify.com/album/29a9nJb0mNy3EVW7tmqXSW"
        },
        "href" : "https://api.spotify.com/v1/albums/29a9nJb0mNy3EVW7tmqXSW",
        "id" : "29a9nJb0mNy3EVW7tmqXSW",
        "images" : [ {
          "height" : 640,
          "url" : "https://i.scdn.co/image/ab67616d0000b2738902e03cb00f3ba1bb44f089",
          "width" : 640
        }, {
          "height" : 300,
          "url" : "https://i.scdn.co/image/ab67616d00001e028902e03cb00f3ba1bb44f089",
          "width" : 300
        }, {
          "height" : 64,
          "url" : "https://i.scdn.co/image/ab67616d000048518902e03cb00f3ba1bb44f089",
          "width" : 64
        } ],
        "name" : "How Great Thou Art",
        "release_date" : "1995-01-01",
        "release_date_precision" : "day",
        "total_tracks" : 40,
        "type" : "album",
        "uri" : "spotify:album:29a9nJb0mNy3EVW7tmqXSW"
      },
      "artists" : [ {
        "external_urls" : {
          "spotify" : "https://open.spotify.com/artist/0xtGTegKCrCcuakhs6XLWK"
        },
        "href" : "https://api.spotify.com/v1/artists/0xtGTegKCrCcuakhs6XLWK",
        "id" : "0xtGTegKCrCcuakhs6XLWK",
        "name" : "The Jubilate Singers",
        "type" : "artist",
        "uri" : "spotify:artist:0xtGTegKCrCcuakhs6XLWK"
      } ],
      "disc_number" : 1,
      "duration_ms" : 155373,
      "explicit" : false,
      "external_ids" : {
        "isrc" : "AUV401448963"
      },
      "external_urls" : {
        "spotify" : "https://open.spotify.com/track/6dde6aXlGz6CSMBcPo55S5"
      },
      "href" : "https://api.spotify.com/v1/tracks/6dde6aXlGz6CSMBcPo55S5",
      "id" : "6dde6aXlGz6CSMBcPo55S5",
      "is_local" : false,
      "is_playable" : true,
      "name" : "O Zion Haste",
      "popularity" : 0,
      "preview_url" : "https://p.scdn.co/mp3-preview/a80ffd77db560ac3f286a6327db67ea83d187c1e?cid=774b29d4f13844c495f206cafdad9c86",
      "track_number" : 39,
      "type" : "track",
      "uri" : "spotify:track:6dde6aXlGz6CSMBcPo55S5"
    }, {
      "album" : {
        "album_type" : "album",
        "artists" : [ {
          "external_urls" : {
            "spotify" : "https://open.spotify.com/artist/0TDawBVAdjtdynsssZaeSd"
          },
          "href" : "https://api.spotify.com/v1/artists/0TDawBVAdjtdynsssZaeSd",
          "id" : "0TDawBVAdjtdynsssZaeSd",
          "name" : "Stacey Plays Hymns",
          "type" : "artist",
          "uri" : "spotify:artist:0TDawBVAdjtdynsssZaeSd"
        } ],
        "external_urls" : {
          "spotify" : "https://open.spotify.com/album/3mDllgVMF8WC7rur8Jx6Hz"
        },
        "href" : "https://api.spotify.com/v1/albums/3mDllgVMF8WC7rur8Jx6Hz",
        "id" : "3mDllgVMF8WC7rur8Jx6Hz",
        "images" : [ {
          "height" : 640,
          "url" : "https://i.scdn.co/image/ab67616d0000b273d1d038b08879ed659c6f3a77",
          "width" : 640
        }, {
          "height" : 300,
          "url" : "https://i.scdn.co/image/ab67616d00001e02d1d038b08879ed659c6f3a77",
          "width" : 300
        }, {
          "height" : 64,
          "url" : "https://i.scdn.co/image/ab67616d00004851d1d038b08879ed659c6f3a77",
          "width" : 64
        } ],
        "name" : "Hymn Meditations, Vol. 1",
        "release_date" : "2019-11-24",
        "release_date_precision" : "day",
        "total_tracks" : 15,
        "type" : "album",
        "uri" : "spotify:album:3mDllgVMF8WC7rur8Jx6Hz"
      },
      "artists" : [ {
        "external_urls" : {
          "spotify" : "https://open.spotify.com/artist/0TDawBVAdjtdynsssZaeSd"
        },
        "href" : "https://api.spotify.com/v1/artists/0TDawBVAdjtdynsssZaeSd",
        "id" : "0TDawBVAdjtdynsssZaeSd",
        "name" : "Stacey Plays Hymns",
        "type" : "artist",
        "uri" : "spotify:artist:0TDawBVAdjtdynsssZaeSd"
      } ],
      "disc_number" : 1,
      "duration_ms" : 195419,
      "explicit" : false,
      "external_ids" : {
        "isrc" : "CAVU31900001"
      },
      "external_urls" : {
        "spotify" : "https://open.spotify.com/track/1QfFWZ4cqO46NTZ4QbPJfp"
      },
      "href" : "https://api.spotify.com/v1/tracks/1QfFWZ4cqO46NTZ4QbPJfp",
      "id" : "1QfFWZ4cqO46NTZ4QbPJfp",
      "is_local" : false,
      "is_playable" : true,
      "name" : "Oh Zion, Haste",
      "popularity" : 0,
      "preview_url" : "https://p.scdn.co/mp3-preview/bd043063b4f3438620c795194e0239b33c35d35e?cid=774b29d4f13844c495f206cafdad9c86",
      "track_number" : 1,
      "type" : "track",
      "uri" : "spotify:track:1QfFWZ4cqO46NTZ4QbPJfp"
    }, {
      "album" : {
        "album_type" : "album",
        "artists" : [ {
          "external_urls" : {
            "spotify" : "https://open.spotify.com/artist/0SMQbY8l9Mph9d8NLv92oh"
          },
          "href" : "https://api.spotify.com/v1/artists/0SMQbY8l9Mph9d8NLv92oh",
          "id" : "0SMQbY8l9Mph9d8NLv92oh",
          "name" : "RiNG-O choir",
          "type" : "artist",
          "uri" : "spotify:artist:0SMQbY8l9Mph9d8NLv92oh"
        } ],
        "external_urls" : {
          "spotify" : "https://open.spotify.com/album/7xLG1TD2cBGXBICrz7l5T1"
        },
        "href" : "https://api.spotify.com/v1/albums/7xLG1TD2cBGXBICrz7l5T1",
        "id" : "7xLG1TD2cBGXBICrz7l5T1",
        "images" : [ {
          "height" : 640,
          "url" : "https://i.scdn.co/image/ab67616d0000b2735775986691ed74088afe0ea7",
          "width" : 640
        }, {
          "height" : 300,
          "url" : "https://i.scdn.co/image/ab67616d00001e025775986691ed74088afe0ea7",
          "width" : 300
        }, {
          "height" : 64,
          "url" : "https://i.scdn.co/image/ab67616d000048515775986691ed74088afe0ea7",
          "width" : 64
        } ],
        "name" : "Beautiful Hymn Melodies vol.26",
        "release_date" : "2016-03-01",
        "release_date_precision" : "day",
        "total_tracks" : 10,
        "type" : "album",
        "uri" : "spotify:album:7xLG1TD2cBGXBICrz7l5T1"
      },
      "artists" : [ {
        "external_urls" : {
          "spotify" : "https://open.spotify.com/artist/0SMQbY8l9Mph9d8NLv92oh"
        },
        "href" : "https://api.spotify.com/v1/artists/0SMQbY8l9Mph9d8NLv92oh",
        "id" : "0SMQbY8l9Mph9d8NLv92oh",
        "name" : "RiNG-O choir",
        "type" : "artist",
        "uri" : "spotify:artist:0SMQbY8l9Mph9d8NLv92oh"
      } ],
      "disc_number" : 1,
      "duration_ms" : 69339,
      "explicit" : false,
      "external_ids" : {
        "isrc" : "TCJPE1644489"
      },
      "external_urls" : {
        "spotify" : "https://open.spotify.com/track/1Ww1Hnf0K4P4M09i5Z0hAd"
      },
      "href" : "https://api.spotify.com/v1/tracks/1Ww1Hnf0K4P4M09i5Z0hAd",
      "id" : "1Ww1Hnf0K4P4M09i5Z0hAd",
      "is_local" : false,
      "is_playable" : true,
      "name" : "O Zion, Haste",
      "popularity" : 0,
      "preview_url" : "https://p.scdn.co/mp3-preview/32c9db73b43205719816491eb6b43573c5a67707?cid=774b29d4f13844c495f206cafdad9c86",
      "track_number" : 3,
      "type" : "track",
      "uri" : "spotify:track:1Ww1Hnf0K4P4M09i5Z0hAd"
    }, {
      "album" : {
        "album_type" : "compilation",
        "artists" : [ {
          "external_urls" : {
            "spotify" : "https://open.spotify.com/artist/0LyfQWJT6nXafLPZqxe9Of"
          },
          "href" : "https://api.spotify.com/v1/artists/0LyfQWJT6nXafLPZqxe9Of",
          "id" : "0LyfQWJT6nXafLPZqxe9Of",
          "name" : "Various Artists",
          "type" : "artist",
          "uri" : "spotify:artist:0LyfQWJT6nXafLPZqxe9Of"
        } ],
        "external_urls" : {
          "spotify" : "https://open.spotify.com/album/7L0AG0p9CAL2kBfKMJfZEa"
        },
        "href" : "https://api.spotify.com/v1/albums/7L0AG0p9CAL2kBfKMJfZEa",
        "id" : "7L0AG0p9CAL2kBfKMJfZEa",
        "images" : [ {
          "height" : 640,
          "url" : "https://i.scdn.co/image/ab67616d0000b273bf30138253d8cae864219aee",
          "width" : 640
        }, {
          "height" : 300,
          "url" : "https://i.scdn.co/image/ab67616d00001e02bf30138253d8cae864219aee",
          "width" : 300
        }, {
          "height" : 64,
          "url" : "https://i.scdn.co/image/ab67616d00004851bf30138253d8cae864219aee",
          "width" : 64
        } ],
        "name" : "Zone Nine, Vol. 6",
        "release_date" : "2016-05-01",
        "release_date_precision" : "day",
        "total_tracks" : 15,
        "type" : "album",
        "uri" : "spotify:album:7L0AG0p9CAL2kBfKMJfZEa"
      },
      "artists" : [ {
        "external_urls" : {
          "spotify" : "https://open.spotify.com/artist/4tB0oTiIVlyFnkF8AoC0Wl"
        },
        "href" : "https://api.spotify.com/v1/artists/4tB0oTiIVlyFnkF8AoC0Wl",
        "id" : "4tB0oTiIVlyFnkF8AoC0Wl",
        "name" : "El McMeen",
        "type" : "artist",
        "uri" : "spotify:artist:4tB0oTiIVlyFnkF8AoC0Wl"
      } ],
      "disc_number" : 1,
      "duration_ms" : 190680,
      "explicit" : false,
      "external_ids" : {
        "isrc" : "US5UL1529168"
      },
      "external_urls" : {
        "spotify" : "https://open.spotify.com/track/40V9N8L4ykgNiTh9jaSXHB"
      },
      "href" : "https://api.spotify.com/v1/tracks/40V9N8L4ykgNiTh9jaSXHB",
      "id" : "40V9N8L4ykgNiTh9jaSXHB",
      "is_local" : false,
      "is_playable" : true,
      "name" : "O Zion Haste",
      "popularity" : 0,
      "preview_url" : "https://p.scdn.co/mp3-preview/b47a538eb70404b992d928de2c8f0115584f414a?cid=774b29d4f13844c495f206cafdad9c86",
      "track_number" : 8,
      "type" : "track",
      "uri" : "spotify:track:40V9N8L4ykgNiTh9jaSXHB"
    }, {
      "album" : {
        "album_type" : "album",
        "artists" : [ {
          "external_urls" : {
            "spotify" : "https://open.spotify.com/artist/0Nca7W3ogv4nv9jWbv92rQ"
          },
          "href" : "https://api.spotify.com/v1/artists/0Nca7W3ogv4nv9jWbv92rQ",
          "id" : "0Nca7W3ogv4nv9jWbv92rQ",
          "name" : "Discover Worship",
          "type" : "artist",
          "uri" : "spotify:artist:0Nca7W3ogv4nv9jWbv92rQ"
        } ],
        "external_urls" : {
          "spotify" : "https://open.spotify.com/album/3ByQ1YlSmFcdI9O8SSHdUb"
        },
        "href" : "https://api.spotify.com/v1/albums/3ByQ1YlSmFcdI9O8SSHdUb",
        "id" : "3ByQ1YlSmFcdI9O8SSHdUb",
        "images" : [ {
          "height" : 640,
          "url" : "https://i.scdn.co/image/ab67616d0000b273b6bc8b458cde190efec37b94",
          "width" : 640
        }, {
          "height" : 300,
          "url" : "https://i.scdn.co/image/ab67616d00001e02b6bc8b458cde190efec37b94",
          "width" : 300
        }, {
          "height" : 64,
          "url" : "https://i.scdn.co/image/ab67616d00004851b6bc8b458cde190efec37b94",
          "width" : 64
        } ],
        "name" : "Voices in Worship: Remember Me",
        "release_date" : "2016-07-12",
        "release_date_precision" : "day",
        "total_tracks" : 10,
        "type" : "album",
        "uri" : "spotify:album:3ByQ1YlSmFcdI9O8SSHdUb"
      },
      "artists" : [ {
        "external_urls" : {
          "spotify" : "https://open.spotify.com/artist/0Nca7W3ogv4nv9jWbv92rQ"
        },
        "href" : "https://api.spotify.com/v1/artists/0Nca7W3ogv4nv9jWbv92rQ",
        "id" : "0Nca7W3ogv4nv9jWbv92rQ",
        "name" : "Discover Worship",
        "type" : "artist",
        "uri" : "spotify:artist:0Nca7W3ogv4nv9jWbv92rQ"
      } ],
      "disc_number" : 1,
      "duration_ms" : 350946,
      "explicit" : false,
      "external_ids" : {
        "isrc" : "QM7WK1600207"
      },
      "external_urls" : {
        "spotify" : "https://open.spotify.com/track/6ofmp0tlEnVoUqGNstyoIW"
      },
      "href" : "https://api.spotify.com/v1/tracks/6ofmp0tlEnVoUqGNstyoIW",
      "id" : "6ofmp0tlEnVoUqGNstyoIW",
      "is_local" : false,
      "is_playable" : true,
      "name" : "O Zion Haste",
      "popularity" : 0,
      "preview_url" : "https://p.scdn.co/mp3-preview/08ad870f61430794d67af45bf007b27c4b76b303?cid=774b29d4f13844c495f206cafdad9c86",
      "track_number" : 7,
      "type" : "track",
      "uri" : "spotify:track:6ofmp0tlEnVoUqGNstyoIW"
    } ],
    "limit" : 10,
    "next" : "https://api.spotify.com/v1/search?query=O+Zion%2C+Haste&type=track&market=US&offset=15&limit=10",
    "offset" : 5,
    "previous" : "https://api.spotify.com/v1/search?query=O+Zion%2C+Haste&type=track&market=US&offset=0&limit=10",
    "total" : 34
  }
}