{
  "tracks" : {
    "href" : "https://api.spotify.com/v1/search?query=Have+Thine+Own+Way+Lord&type=track&market=US&offset=5&limit=10",
    "items" : [ {
      "album" : {
        "album_type" : "album",
        "artists" : [ {
          "external_urls" : {
            "spotify" : "https://open.spotify.com/artist/6kACVPfCOnqzgfEF5ryl0x"
          },
          "href" : "https://api.spotify.com/v1/artists/6kACVPfCOnqzgfEF5ryl0x",
          "id" : "6kACVPfCOnqzgfEF5ryl0x",
          "name" : "Johnny Cash",
          "type" : "artist",
          "uri" : "spotify:artist:6kACVPfCOnqzgfEF5ryl0x"
        } ],
        "external_urls" : {
          "spotify" : "https://open.spotify.com/album/096qohNqDFdmGDDuvdeQEW"
        },
        "href" : "https://api.spotify.com/v1/albums/096qohNqDFdmGDDuvdeQEW",
        "id" : "096qohNqDFdmGDDuvdeQEW",
        "images" : [ {
          "height" : 640,
          "url" : "https://i.scdn.co/image/ab67616d0000b27315a535b3794295d1e9608d06",
          "width" : 640
        }, {
          "height" : 300,
          "url" : "https://i.scdn.co/image/ab67616d00001e0215a535b3794295d1e9608d06",
          "width" : 300
        }, {
          "height" : 64,
          "url" : "https://i.scdn.co/image/ab67616d0000485115a535b3794295d1e9608d06",
          "width" : 64
        } ],
        "name" : "Johnny Cash Sings Precious Memories",
        "release_date" : "1975-01-02",
        "release_date_precision" : "day",
        "total_tracks" : 11,
        "type" : "album",
        "uri" : "spotify:album:096qohNqDFdmGDDuvdeQEW"
      },
      "artists" : [ {
        "external_urls" : {
          "spotify" : "https://open.spotify.com/artist/6kACVPfCOnqzgfEF5ryl0x"
        },
        "href" : "https://api.spotify.com/v1/artists/6kACVPfCOnqzgfEF5ryl0x",
        "id" : "6kACVPfCOnqzgfEF5ryl0x",
        "name" : "Johnny Cash",
        "type" : "artist",
        "uri" : "spotify:artist:6kACVPfCOnqzgfEF5ryl0x"
      } ],
      "disc_number" : 1,
      "duration_ms" : 172080,
      "explicit" : false,
      "external_ids" : {
        "isrc" : "USSM19902597"
      },
      "external_urls" : {
        "spotify" : "https://open.spotify.com/track/3Dmhe67uGuifKAqcCYBeLB"
      },
      "href" : "https://api.spotify.com/v1/tracks/3Dmhe67uGuifKAqcCYBeLB",
      "id" : "3Dmhe67uGuifKAqcCYBeLB",
      "is_local" : false,
      "is_playable" : true,
      "name" : "Have Thine Own Way Lord",
      "popularity" : 17,
      "preview_url" : "https://p.scdn.co/mp3-preview/6b6437af04556022be37f4f0a70286ea5e1adc9c?cid=774b29d4f13844c495f206cafdad9c86",
      "track_number" : 11,
      "type" : "track",
      "uri" : "spotify:track:3Dmhe67uGuifKAqcCYBeLB"
    }, {
      "album" : {
        "album_type" : "album",
        "artists" : [ {
          "external_urls" : {
            "spotify" : "https://open.spotify.com/artist/6kACVPfCOnqzgfEF5ryl0x"
          },
          "href" : "https://api.spotify.com/v1/artists/6kACVPfCOnqzgfEF5ryl0x",
          "id" : "6kACVPfCOnqzgfEF5ryl0x",
          "name" : "Johnny Cash",
          "type" : "artist",
          "uri" : "spotify:artist:6kACVPfCOnqzgfEF5ryl0x"
        } ],
        "external_urls" : {
          "spotify" : "https://open.spotify.com/album/5TabR5rIBRxBD6XzWhCiBE"
        },
        "href" : "https://api.spotify.com/v1/albums/5TabR5rIBRxBD6XzWhCiBE",
        "id" : "5TabR5rIBRxBD6XzWhCiBE",
        "images" : [ {
          "height" : 640,
          "url" : "https://i.scdn.co/image/ab67616d0000b273e946530d2d0d19eb55dd1ce7",
          "width" : 640
        }, {
          "height" : 300,
          "url" : "https://i.scdn.co/image/ab67616d00001e02e946530d2d0d19eb55dd1ce7",
          "width" : 300
        }, {
          "height" : 64,
          "url" : "https://i.scdn.co/image/ab67616d00004851e946530d2d0d19eb55dd1ce7",
          "width" : 64
        } ],
        "name" : "Bootleg Vol. I: Personal File",
        "release_date" : "2006-05-23",
        "release_date_precision" : "day",
        "total_tracks" : 49,
        "type" : "album",
        "uri" : "spotify:album:5TabR5rIBRxBD6XzWhCiBE"
      },
      "artists" : [ {
        "external_urls" : {
          "spotify" : "https://open.spotify.com/artist/6kACVPfCOnqzgfEF5ryl0x"
        },
        "href" : "https://api.spotify.com/v1/artists/6kACVPfCOnqzgfEF5ryl0x",
        "id" : "6kACVPfCOnqzgfEF5ryl0x",
        "name" : "Johnny Cash",
        "type" : "artist",
        "uri" : "spotify:artist:6kACVPfCOnqzgfEF5ryl0x"
      } ],
      "disc_number" : 2,
      "duration_ms" : 222173,
      "explicit" : false,
      "external_ids" : {
        "isrc" : "USSM10506415"
      },
      "external_urls" : {
        "spotify" : "https://open.spotify.com/track/6xW17HElILRw3iNfFZjQPf"
      },
      "href" : "https://api.spotify.com/v1/tracks/6xW17HElILRw3iNfFZjQPf",
      "id" : "6xW17HElILRw3iNfFZjQPf",
      "is_local" : false,
      "is_playable" : true,
      "name" : "Have Thine Own Way Lord",
      "popularity" : 15,
      "preview_url" : "https://p.scdn.co/mp3-preview/7d342d931025a0945ca410884c0d634c16b16d8b?cid=774b29d4f13844c495f206cafdad9c86",
      "track_number" : 4,
      "type" : "track",
      "uri" : "spotify:track:6xW17HElILRw3iNfFZjQPf"
    }, {
      "album" : {
        "album_type" : "album",
        "artists" : [ {
          "external_urls" : {
            "spotify" : "https://open.spotify.com/artist/0XOGhQGVg5HkdudMPgyqYj"
          },
          "href" : "https://api.spotify.com/v1/artists/0XOGhQGVg5HkdudMPgyqYj",
          "id" : "0XOGhQGVg5HkdudMPgyqYj",
          "name" : "George Beverly Shea",
          "type" : "artist",
          "uri" : "spotify:artist:0XOGhQGVg5HkdudMPgyqYj"
        } ],
        "external_urls" : {
          "spotify" : "https://open.spotify.com/album/63jxAH27mH1jjeN41DuRl6"
        },
        "href" : "https://api.spotify.com/v1/albums/63jxAH27mH1jjeN41DuRl6",
        "id" : "63jxAH27mH1jjeN41DuRl6",
        "images" : [ {
          "height" : 640,
          "url" : "https://i.scdn.co/image/ab67616d0000b273ad4e87e8167ae95965f570fa",
          "width" : 640
        }, {
          "height" : 300,
          "url" : "https://i.scdn.co/image/ab67616d00001e02ad4e87e8167ae95965f570fa",
          "width" : 300
        }, {
          "height" : 64,
          "url" : "https://i.scdn.co/image/ab67616d00004851ad4e87e8167ae95965f570fa",
          "width" : 64
        } ],
        "name" : "I'd Rather Have Jesus",
        "release_date" : "2006-03-14",
        "release_date_precision" : "day",
        "total_tracks" : 20,
        "type" : "album",
        "uri" : "spotify:album:63jxAH27mH1jjeN41DuRl6"
      },
      "artists" : [ {
        "external_urls" : {
          "spotify" : "https://open.spotify.com/artist/0XOGhQGVg5HkdudMPgyqYj"
        },
        "href" : "https://api.spotify.com/v1/artists/0XOGhQGVg5HkdudMPgyqYj",
        "id" : "0XOGhQGVg5HkdudMPgyqYj",
        "name" : "George Beverly Shea",
        "type" : "artist",
        "uri" : "spotify:artist:0XOGhQGVg5HkdudMPgyqYj"
      } ],
      "disc_number" : 1,
      "duration_ms" : 209120,
      "explicit" : false,
      "external_ids" : {
        "isrc" : "USWR60251406"
      },
      "external_urls" : {
        "spotify" : "https://open.spotify.com/track/1HY5G6iHBSYwVst1n2YFYL"
      },
      "href" : "https://api.spotify.com/v1/tracks/1HY5G6iHBSYwVst1n2YFYL",
      "id" : "1HY5G6iHBSYwVst1n2YFYL",
      "is_local" : false,
      "is_playable" : true,
      "name" : "Have Thine Own Way Lord",
      "popularity" : 13,
      "preview_url" : "https://p.scdn.co/mp3-preview/fe52026091959730d3fb6b11fcaee6aead837904?cid=774b29d4f13844c495f206cafdad9c86",
      "track_number" : 12,
      "type" : "track",
      "uri" : "spotify:track:1HY5G6iHBSYwVst1n2YFYL"
    }, {
      "album" : {
        "album_type" : "album",
        "artists" : [ {
          "external_urls" : {
            "spotify" : "https://open.spotify.com/artist/4gjFkHMQ2r46oQ7gsIQaCF"
          },
          "href" : "https://api.spotify.com/v1/artists/4gjFkHMQ2r46oQ7gsIQaCF",
          "id" : "4gjFkHMQ2r46oQ7gsIQaCF",
          "name" : "Brian Blade & The Fellowship Band",
          "type" : "artist",
          "uri" : "spotify:artist:4gjFkHMQ2r46oQ7gsIQaCF"
        } ],
        "external_urls" : {
          "spotify" : "https://open.spotify.com/album/02LCzhJYIuhocX6uCzTPJh"
        },
        "href" : "https://api.spotify.com/v1/albums/02LCzhJYIuhocX6uCzTPJh",
        "id" : "02LCzhJYIuhocX6uCzTPJh",
        "images" : [ {
          "height" : 640,
          "url" : "https://i.scdn.co/image/ab67616d0000b273e40ad8762816da880fc0f211",
          "width" : 640
        }, {
          "height" : 300,
          "url" : "https://i.scdn.co/image/ab67616d00001e02e40ad8762816da880fc0f211",
          "width" : 300
        }, {
          "height" : 64,
          "url" : "https://i.scdn.co/image/ab67616d00004851e40ad8762816da880fc0f211",
          "width" : 64
        } ],
        "name" : "Body And Shadow",
        "release_date" : "2017-11-10",
        "release_date_precision" : "day",
        "total_tracks" : 9,
        "type" : "album",
        "uri" : "spotify:album:02LCzhJYIuhocX6uCzTPJh"
      },
      "artists" : [ {
        "external_urls" : {
          "spotify" : "https://open.spotify.com/artist/4gjFkHMQ2r46oQ7gsIQaCF"
        },
        "href" : "https://api.spotify.com/v1/artists/4gjFkHMQ2r46oQ7gsIQaCF",
        "id" : "4gjFkHMQ2r46oQ7gsIQaCF",
        "name" : "Brian Blade & The Fellowship Band",
        "type" : "artist",
        "uri" : "spotify:artist:4gjFkHMQ2r46oQ7gsIQaCF"
      } ],
      "disc_number" : 1,
      "duration_ms" : 80382,
      "explicit" : false,
      "external_ids" : {
        "isrc" : "USUG11701347"
      },
      "external_urls" : {
        "spotify" : "https://open.spotify.com/track/09wOVThwCT9kmUVkM4SWPV"
      },
      "href" : "https://api.spotify.com/v1/tracks/09wOVThwCT9kmUVkM4SWPV",
      "id" : "09wOVThwCT9kmUVkM4SWPV",
      "is_local" : false,
      "is_playable" : true,
      "name" : "Have Thine Own Way, Lord - Solo",
      "popularity" : 16,
      "preview_url" : null,
      "track_number" : 4,
      "type" : "track",
      "uri" : "spotify:track:09wOVThwCT9kmUVkM4SWPV"
    }, {
      "album" : {
        "album_type" : "album",
        "artists" : [ {
          "external_urls" : {
            "spotify" : "https://open.spotify.com/artist/2oNxWsB010NqmSgc4Yvc2U"
          },
          "href" : "https://api.spotify.com/v1/artists/2oNxWsB010NqmSgc4Yvc2U",
          "id" : "2oNxWsB010NqmSgc4Yvc2U",
          "name" : "Doug Gazlay",
          "type" : "artist",
          "uri" : "spotify:artist:2oNxWsB010NqmSgc4Yvc2U"
        } ],
        "external_urls" : {
          "spotify" : "https://open.spotify.com/album/4CSE7z6Gg1UUcoeIuh6aaV"
        },
        "href" : "https://api.spotify.com/v1/albums/4CSE7z6Gg1UUcoeIuh6aaV",
        "id" : "4CSE7z6Gg1UUcoeIuh6aaV",
        "images" : [ {
          "height" : 640,
          "url" : "https://i.scdn.co/image/ab67616d0000b2734b83aa7cc27c08c6a15fa370",
          "width" : 640
        }, {
          "height" : 300,
          "url" : "https://i.scdn.co/image/ab67616d00001e024b83aa7cc27c08c6a15fa370",
          "width" : 300
        }, {
          "height" : 64,
          "url" : "https://i.scdn.co/image/ab67616d000048514b83aa7cc27c08c6a15fa370",
          "width" : 64
        } ],
        "name" : "Just Piano Hymns 2",
        "release_date" : "2017-10-18",
        "release_date_precision" : "day",
        "total_tracks" : 10,
        "type" : "album",
        "uri" : "spotify:album:4CSE7z6Gg1UUcoeIuh6aaV"
      },
      "artists" : [ {
        "external_urls" : {
          "spotify" : "https://open.spotify.com/artist/2oNxWsB010NqmSgc4Yvc2U"
        },
        "href" : "https://api.spotify.com/v1/artists/2oNxWsB010NqmSgc4Yvc2U",
        "id" : "2oNxWsB010NqmSgc4Yvc2U",
        "name" : "Doug Gazlay",
        "type" : "artist",
        "uri" : "spotify:artist:2oNxWsB010NqmSgc4Yvc2U"
      } ],
      "disc_number" : 1,
      "duration_ms" : 188400,
      "explicit" : false,
      "external_ids" : {
        "isrc" : "ushm91729647"
      },
      "external_urls" : {
        "spotify" : "https://open.spotify.com/track/14FvWxPCJNNCGeRWvmiOnW"
      },
      "href" : "https://api.spotify.com/v1/tracks/14FvWxPCJNNCGeRWvmiOnW",
      "id" : "14FvWxPCJNNCGeRWvmiOnW",
      "is_local" : false,
      "is_playable" : true,
      "name" : "Have Thine Own Way, Lord",
      "popularity" : 10,
      "preview_url" : "https://p.scdn.co/mp3-preview/cbe7e904a76b8e4f225a7bde1d62f36c68e7d7bd?cid=774b29d4f13844c495f206cafdad9c86",
      "track_number" : 9,
      "type" : "track",
      "uri" : "spotify:track:14FvWxPCJNNCGeRWvmiOnW"
    }, {
      "album" : {
        "album_type" : "album",
        "artists" : [ {
          "external_urls" : {
            "spotify" : "https://open.spotify.com/artist/4l65AlrXvlx2y500dqKcI2"
          },
          "href" : "https://api.spotify.com/v1/artists/4l65AlrXvlx2y500dqKcI2",
          "id" : "4l65AlrXvlx2y500dqKcI2",
          "name" : "Cristy Lane",
          "type" : "artist",
          "uri" : "spotify:artist:4l65AlrXvlx2y500dqKcI2"
        } ],
        "external_urls" : {
          "spotify" : "https://open.spotify.com/album/01GQXksOG1t76AfBDNCe1c"
        },
        "href" : "https://api.spotify.com/v1/albums/01GQXksOG1t76AfBDNCe1c",
        "id" : "01GQXksOG1t76AfBDNCe1c",
        "images" : [ {
          "height" : 640,
          "url" : "https://i.scdn.co/image/ab67616d0000b2730514a55a1d3e3d4508de867a",
          "width" : 640
        }, {
          "height" : 300,
          "url" : "https://i.scdn.co/image/ab67616d00001e020514a55a1d3e3d4508de867a",
          "width" : 300
        }, {
          "height" : 64,
          "url" : "https://i.scdn.co/image/ab67616d000048510514a55a1d3e3d4508de867a",
          "width" : 64
        } ],
        "name" : "One Day At A Time Vol 1 & 2",
        "release_date" : "1985-01-01",
        "release_date_precision" : "day",
        "total_tracks" : 22,
        "type" : "album",
        "uri" : "spotify:album:01GQXksOG1t76AfBDNCe1c"
      },
      "artists" : [ {
        "external_urls" : {
          "spotify" : "https://open.spotify.com/artist/4l65AlrXvlx2y500dqKcI2"
        },
        "href" : "https://api.spotify.com/v1/artists/4l65AlrXvlx2y500dqKcI2",
        "id" : "4l65AlrXvlx2y500dqKcI2",
        "name" : "Cristy Lane",
        "type" : "artist",
        "uri" : "spotify:artist:4l65AlrXvlx2y500dqKcI2"
      } ],
      "disc_number" : 1,
      "duration_ms" : 205066,
      "explicit" : false,
      "external_ids" : {
        "isrc" : "USYDD0610026"
      },
      "external_urls" : {
        "spotify" : "https://open.spotify.com/track/6jeT2X0KtRc8nR0w5yRPKE"
      },
      "href" : "https://api.spotify.com/v1/tracks/6jeT2X0KtRc8nR0w5yRPKE",
      "id" : "6jeT2X0KtRc8nR0w5yRPKE",
      "is_local" : false,
      "is_playable" : true,
      "name" : "Have Thine Own Way Lord",
      "popularity" : 13,
      "preview_url" : null,
      "track_number" : 20,
      "type" : "track",
      "uri" : "spotify:track:6jeT2X0KtRc8nR0w5yRPKE"
    }, {
      "album" : {
        "album_type" : "album",
        "artists" : [ {
          "external_urls" : {
            "spotify" : "https://open.spotify.com/artist/4gjFkHMQ2r46oQ7gsIQaCF"
          },
          "href" : "https://api.spotify.com/v1/artists/4gjFkHMQ2r46oQ7gsIQaCF",
          "id" : "4gjFkHMQ2r46oQ7gsIQaCF",
          "name" : "Brian Blade & The Fellowship Band",
          "type" : "artist",
          "uri" : "spotify:artist:4gjFkHMQ2r46oQ7gsIQaCF"
        } ],
        "external_urls" : {
          "spotify" : "https://open.spotify.com/album/02LCzhJYIuhocX6uCzTPJh"
        },
        "href" : "https://api.spotify.com/v1/albums/02LCzhJYIuhocX6uCzTPJh",
        "id" : "02LCzhJYIuhocX6uCzTPJh",
        "images" : [ {
          "height" : 640,
          "url" : "https://i.scdn.co/image/ab67616d0000b273e40ad8762816da880fc0f211",
          "width" : 640
        }, {
          "height" : 300,
          "url" : "https://i.scdn.co/image/ab67616d00001e02e40ad8762816da880fc0f211",
          "width" : 300
        }, {
          "height" : 64,
          "url" : "https://i.scdn.co/image/ab67616d00004851e40ad8762816da880fc0f211",
          "width" : 64
        } ],
        "name" : "Body And Shadow",
        "release_date" : "2017-11-10",
        "release_date_precision" : "day",
        "total_tracks" : 9,
        "type" : "album",
        "uri" : "spotify:album:02LCzhJYIuhocX6uCzTPJh"
      },
      "artists" : [ {
        "external_urls" : {
          "spotify" : "https://open.spotify.com/artist/4gjFkHMQ2r46oQ7gsIQaCF"
        },
        "href" : "https://api.spotify.com/v1/artists/4gjFkHMQ2r46oQ7gsIQaCF",
        "id" : "4gjFkHMQ2r46oQ7gsIQaCF",
        "name" : "Brian Blade & The Fellowship Band",
        "type" : "artist",
        "uri" : "spotify:artist:4gjFkHMQ2r46oQ7gsIQaCF"
      } ],
      "disc_number" : 1,
      "duration_ms" : 74580,
      "explicit" : false,
      "external_ids" : {
        "isrc" : "USUG11701346"
      },
      "external_urls" : {
        "spotify" : "https://open.spotify.com/track/5jDAS96O4hByrVV7SI5gcK"
      },
      "href" : "https://api.spotify.com/v1/tracks/5jDAS96O4hByrVV7SI5gcK",
      "id" : "5jDAS96O4hByrVV7SI5gcK",
      "is_local" : false,
      "is_playable" : true,
      "name" : "Have Thine Own Way, Lord - Band",
      "popularity" : 16,
      "preview_url" : null,
      "track_number" : 5,
      "type" : "track",
      "uri" : "spotify:track:5jDAS96O4hByrVV7SI5gcK"
    }, {
      "album" : {
        "album_type" : "album",
        "artists" : [ {
          "external_urls" : {
            "spotify" : "https://open.spotify.com/artist/3lk8qatIcUand38OeCGxk9"
          },
          "href" : "https://api.spotify.com/v1/artists/3lk8qatIcUand38OeCGxk9",
          "id" : "3lk8qatIcUand38OeCGxk9",
          "name" : "Lorie Line",
          "type" : "artist",
          "uri" : "spotify:artist:3lk8qatIcUand38OeCGxk9"
        } ],
        "external_urls" : {
          "spotify" : "https://open.spotify.com/album/1b2NAkvxQ6Kg6vtLhTe1rP"
        },
        "href" : "https://api.spotify.com/v1/albums/1b2NAkvxQ6Kg6vtLhTe1rP",
        "id" : "1b2NAkvxQ6Kg6vtLhTe1rP",
        "images" : [ {
          "height" : 640,
          "url" : "https://i.scdn.co/image/ab67616d0000b273d4ea0112470225ed778ad977",
          "width" : 640
        }, {
          "height" : 300,
          "url" : "https://i.scdn.co/image/ab67616d00001e02d4ea0112470225ed778ad977",
          "width" : 300
        }, {
          "height" : 64,
          "url" : "https://i.scdn.co/image/ab67616d00004851d4ea0112470225ed778ad977",
          "width" : 64
        } ],
        "name" : "The Heritage Collection, Vol. 7",
        "release_date" : "2015-06-11",
        "release_date_precision" : "day",
        "total_tracks" : 14,
        "type" : "album",
        "uri" : "spotify:album:1b2NAkvxQ6Kg6vtLhTe1rP"
      },
      "artists" : [ {
        "external_urls" : {
          "spotify" : "https://open.spotify.com/artist/3lk8qatIcUand38OeCGxk9"
        },
        "href" : "https://api.spotify.com/v1/artists/3lk8qatIcUand38OeCGxk9",
        "id" : "3lk8qatIcUand38OeCGxk9",
        "name" : "Lorie Line",
        "type" : "artist",
        "uri" : "spotify:artist:3lk8qatIcUand38OeCGxk9"
      } ],
      "disc_number" : 1,
      "duration_ms" : 178693,
      "explicit" : false,
      "external_ids" : {
        "isrc" : "US42C1500673"
      },
      "external_urls" : {
        "spotify" : "https://open.spotify.com/track/4qtEmDTHFdzg8HwBkemttL"
      },
      "href" : "https://api.spotify.com/v1/tracks/4qtEmDTHFdzg8HwBkemttL",
      "id" : "4qtEmDTHFdzg8HwBkemttL",
      "is_local" : false,
      "is_playable" : true,
      "name" : "Have Thine Own Way, Lord",
      "popularity" : 8,
      "preview_url" : "https://p.scdn.co/mp3-preview/7dfb117018f4cb5065634f7af10b8c1c08d541a8?cid=774b29d4f13844c495f206cafdad9c86",
      "track_number" : 3,
      "type" : "track",
      "uri" : "spotify:track:4qtEmDTHFdzg8HwBkemttL"
    }, {
      "album" : {
        "album_type" : "album",
        "artists" : [ {
          "external_urls" : {
            "spotify" : "https://open.spotify.com/artist/7gjHSq6MQ3C2RNdlIkbYnG"
          },
          "href" : "https://api.spotify.com/v1/artists/7gjHSq6MQ3C2RNdlIkbYnG",
          "id" : "7gjHSq6MQ3C2RNdlIkbYnG",
          "name" : "Instrumental Christian Songs, Christian Piano Music",
          "type" : "artist",
          "uri" : "spotify:artist:7gjHSq6MQ3C2RNdlIkbYnG"
        }, {
          "external_urls" : {
            "spotify" : "https://open.spotify.com/artist/0rdBlsgJwmtrfJEjOo4fdQ"
          },
          "href" : "https://api.spotify.com/v1/artists/0rdBlsgJwmtrfJEjOo4fdQ",
          "id" : "0rdBlsgJwmtrfJEjOo4fdQ",
          "name" : "Simply Instrumental Worship",
          "type" : "artist",
          "uri" : "spotify:artist:0rdBlsgJwmtrfJEjOo4fdQ"
        }, {
          "external_urls" : {
            "spotify" : "https://open.spotify.com/artist/6Mpnuw1zAeDxd9Y7clGNrX"
          },
          "href" : "https://api.spotify.com/v1/artists/6Mpnuw1zAeDxd9Y7clGNrX",
          "id" : "6Mpnuw1zAeDxd9Y7clGNrX",
          "name" : "Christian Hymns Players",
          "type" : "artist",
          "uri" : "spotify:artist:6Mpnuw1zAeDxd9Y7clGNrX"
        } ],
        "external_urls" : {
          "spotify" : "https://open.spotify.com/album/3X31buBw7kBuikjSPEo8Rw"
        },
        "href" : "https://api.spotify.com/v1/albums/3X31buBw7kBuikjSPEo8Rw",
        "id" : "3X31buBw7kBuikjSPEo8Rw",
        "images" : [ {
          "height" : 640,
          "url" : "https://i.scdn.co/image/ab67616d0000b273b3d32a49d40b560c164fdaf7",
          "width" : 640
        }, {
          "height" : 300,
          "url" : "https://i.scdn.co/image/ab67616d00001e02b3d32a49d40b560c164fdaf7",
          "width" : 300
        }, {
          "height" : 64,
          "url" : "https://i.scdn.co/image/ab67616d00004851b3d32a49d40b560c164fdaf7",
          "width" : 64
        } ],
        "name" : "Piano Hymns for Prayer & Reflection",
        "release_date" : "2016-09-22",
        "release_date_precision" : "day",
        "total_tracks" : 15,
        "type" : "album",
        "uri" : "spotify:album:3X31buBw7kBuikjSPEo8Rw"
      },
      "artists" : [ {
        "external_urls" : {
          "spotify" : "https://open.spotify.com/artist/7gjHSq6MQ3C2RNdlIkbYnG"
        },
        "href" : "https://api.spotify.com/v1/artists/7gjHSq6MQ3C2RNdlIkbYnG",
        "id" : "7gjHSq6MQ3C2RNdlIkbYnG",
        "name" : "Instrumental Christian Songs, Christian Piano Music",
        "type" : "artist",
        "uri" : "spotify:artist:7gjHSq6MQ3C2RNdlIkbYnG"
      }, {
        "external_urls" : {
          "spotify" : "https://open.spotify.com/artist/0rdBlsgJwmtrfJEjOo4fdQ"
        },
        "href" : "https://api.spotify.com/v1/artists/0rdBlsgJwmtrfJEjOo4fdQ",
        "id" : "0rdBlsgJwmtrfJEjOo4fdQ",
        "name" : "Simply Instrumental Worship",
        "type" : "artist",
        "uri" : "spotify:artist:0rdBlsgJwmtrfJEjOo4fdQ"
      }, {
        "external_urls" : {
          "spotify" : "https://open.spotify.com/artist/6Mpnuw1zAeDxd9Y7clGNrX"
        },
        "href" : "https://api.spotify.com/v1/artists/6Mpnuw1zAeDxd9Y7clGNrX",
        "id" : "6Mpnuw1zAeDxd9Y7clGNrX",
        "name" : "Christian Hymns Players",
        "type" : "artist",
        "uri" : "spotify:artist:6Mpnuw1zAeDxd9Y7clGNrX"
      } ],
      "disc_number" : 1,
      "duration_ms" : 198453,
      "explicit" : false,
      "external_ids" : {
        "isrc" : "TCACS1610721"
      },
      "external_urls" : {
        "spotify" : "https://open.spotify.com/track/0LR6rWXZzsHXOiTNQpgkLd"
      },
      "href" : "https://api.spotify.com/v1/tracks/0LR6rWXZzsHXOiTNQpgkLd",
      "id" : "0LR6rWXZzsHXOiTNQpgkLd",
      "is_local" : false,
      "is_playable" : true,
      "name" : "Have Thine Own Way Lord (Instrumental Version)",
      "popularity" : 13,
      "preview_url" : "https://p.scdn.co/mp3-preview/c073e137ea03689d17f16b8a4b2d13629a343bb7?cid=774b29d4f13844c495f206cafdad9c86",
      "track_number" : 10,
      "type" : "track",
      "uri" : "spotify:track:0LR6rWXZzsHXOiTNQpgkLd"
    }, {
      "album" : {
        "album_type" : "album",
        "artists" : [ {
          "external_urls" : {
            "spotify" : "https://open.spotify.com/artist/6oLzN8cU382zotCKpCNcbT"
          },
          "href" : "https://api.spotify.com/v1/artists/6oLzN8cU382zotCKpCNcbT",
          "id" : "6oLzN8cU382zotCKpCNcbT",
          "name" : "Dino",
          "type" : "artist",
          "uri" : "spotify:artist:6oLzN8cU382zotCKpCNcbT"
        } ],
        "external_urls" : {
          "spotify" : "https://open.spotify.com/album/1Yu2GlduZZ74xBWppmyjm0"
        },
        "href" : "https://api.spotify.com/v1/albums/1Yu2GlduZZ74xBWppmyjm0",
        "id" : "1Yu2GlduZZ74xBWppmyjm0",
        "images" : [ {
          "height" : 640,
          "url" : "https://i.scdn.co/image/ab67616d0000b273cd43df891da35379793922be",
          "width" : 640
        }, {
          "height" : 300,
          "url" : "https://i.scdn.co/image/ab67616d00001e02cd43df891da35379793922be",
          "width" : 300
        }, {
          "height" : 64,
          "url" : "https://i.scdn.co/image/ab67616d00004851cd43df891da35379793922be",
          "width" : 64
        } ],
        "name" : "Sacred Piano: Hymns Collection, Vol. 1",
        "release_date" : "2006-01-01",
        "release_date_precision" : "day",
        "total_tracks" : 12,
        "type" : "album",
        "uri" : "spotify:album:1Yu2GlduZZ74xBWppmyjm0"
      },
      "artists" : [ {
        "external_urls" : {
          "spotify" : "https://open.spotify.com/artist/6oLzN8cU382zotCKpCNcbT"
        },
        "href" : "https://api.spotify.com/v1/artists/6oLzN8cU382zotCKpCNcbT",
        "id" : "6oLzN8cU382zotCKpCNcbT",
        "name" : "Dino",
        "type" : "artist",
        "uri" : "spotify:artist:6oLzN8cU382zotCKpCNcbT"
      } ],
      "disc_number" : 1,
      "duration_ms" : 209026,
      "explicit" : false,
      "external_ids" : {
        "isrc" : "USACX0800790"
      },
      "external_urls" : {
        "spotify" : "https://open.spotify.com/track/0BanSYE9CjmPvnR8XK8zZP"
      },
      "href" : "https://api.spotify.com/v1/tracks/0BanSYE9CjmPvnR8XK8zZP",
      "id" : "0BanSYE9CjmPvnR8XK8zZP",
      "is_local" : false,
      "is_playable" : true,
      "name" : "Have Thine Own Way Lord",
      "popularity" : 9,
      "preview_url" : "https://p.scdn.co/mp3-preview/edc8a1fc293992e1fb69424efdc3874d89571d37?cid=774b29d4f13844c495f206cafdad9c86",
      "track_number" : 7,
      "type" : "track",
      "uri" : "spotify:track:0BanSYE9CjmPvnR8XK8zZP"
    } ],
    "limit" : 10,
    "next" : "https://api.spotify.com/v1/search?query=Have+Thine+Own+Way+Lord&type=track&market=US&offset=15&limit=10",
    "offset" : 5,
    "previous" : "https://api.spotify.com/v1/search?query=Have+Thine+Own+Way+Lord&type=track&market=US&offset=0&limit=10",
    "total" : 217
  }
}