{
  "tracks" : {
    "href" : "https://api.spotify.com/v1/search?query=O+Perfect+Love&type=track&market=US&offset=5&limit=10",
    "items" : [ {
      "album" : {
        "album_type" : "compilation",
        "artists" : [ {
          "external_urls" : {
            "spotify" : "https://open.spotify.com/artist/0LyfQWJT6nXafLPZqxe9Of"
          },
          "href" : "https://api.spotify.com/v1/artists/0LyfQWJT6nXafLPZqxe9Of",
          "id" : "0LyfQWJT6nXafLPZqxe9Of",
          "name" : "Various Artists",
          "type" : "artist",
          "uri" : "spotify:artist:0LyfQWJT6nXafLPZqxe9Of"
        } ],
        "external_urls" : {
          "spotify" : "https://open.spotify.com/album/2ghztb1E7auvrtaXmcRqbV"
        },
        "href" : "https://api.spotify.com/v1/albums/2ghztb1E7auvrtaXmcRqbV",
        "id" : "2ghztb1E7auvrtaXmcRqbV",
        "images" : [ {
          "height" : 640,
          "url" : "https://i.scdn.co/image/ab67616d0000b27342ab4e36136073ce70675e78",
          "width" : 640
        }, {
          "height" : 300,
          "url" : "https://i.scdn.co/image/ab67616d00001e0242ab4e36136073ce70675e78",
          "width" : 300
        }, {
          "height" : 64,
          "url" : "https://i.scdn.co/image/ab67616d0000485142ab4e36136073ce70675e78",
          "width" : 64
        } ],
        "name" : "Pitch Perfect 3 (Original Motion Picture Soundtrack)",
        "release_date" : "2017-12-15",
        "release_date_precision" : "day",
        "total_tracks" : 19,
        "type" : "album",
        "uri" : "spotify:album:2ghztb1E7auvrtaXmcRqbV"
      },
      "artists" : [ {
        "external_urls" : {
          "spotify" : "https://open.spotify.com/artist/4pBZPaKdm0u7Joe6oAea6V"
        },
        "href" : "https://api.spotify.com/v1/artists/4pBZPaKdm0u7Joe6oAea6V",
        "id" : "4pBZPaKdm0u7Joe6oAea6V",
        "name" : "The Bellas",
        "type" : "artist",
        "uri" : "spotify:artist:4pBZPaKdm0u7Joe6oAea6V"
      } ],
      "disc_number" : 1,
      "duration_ms" : 239666,
      "explicit" : false,
      "external_ids" : {
        "isrc" : "USQ4E1703329"
      },
      "external_urls" : {
        "spotify" : "https://open.spotify.com/track/5g4ombYW8dzSHTK0p3pov0"
      },
      "href" : "https://api.spotify.com/v1/tracks/5g4ombYW8dzSHTK0p3pov0",
      "id" : "5g4ombYW8dzSHTK0p3pov0",
      "is_local" : false,
      "is_playable" : true,
      "name" : "I Don't Like It, I Love It",
      "popularity" : 54,
      "preview_url" : null,
      "track_number" : 9,
      "type" : "track",
      "uri" : "spotify:track:5g4ombYW8dzSHTK0p3pov0"
    }, {
      "album" : {
        "album_type" : "album",
        "artists" : [ {
          "external_urls" : {
            "spotify" : "https://open.spotify.com/artist/6U53xCCVXmyimAgsBjCS8P"
          },
          "href" : "https://api.spotify.com/v1/artists/6U53xCCVXmyimAgsBjCS8P",
          "id" : "6U53xCCVXmyimAgsBjCS8P",
          "name" : "Jess Benko",
          "type" : "artist",
          "uri" : "spotify:artist:6U53xCCVXmyimAgsBjCS8P"
        } ],
        "external_urls" : {
          "spotify" : "https://open.spotify.com/album/28B3NkA4cyPjPH0EJJTsN3"
        },
        "href" : "https://api.spotify.com/v1/albums/28B3NkA4cyPjPH0EJJTsN3",
        "id" : "28B3NkA4cyPjPH0EJJTsN3",
        "images" : [ {
          "height" : 640,
          "url" : "https://i.scdn.co/image/ab67616d0000b273aacb4d483af87300fa8333b4",
          "width" : 640
        }, {
          "height" : 300,
          "url" : "https://i.scdn.co/image/ab67616d00001e02aacb4d483af87300fa8333b4",
          "width" : 300
        }, {
          "height" : 64,
          "url" : "https://i.scdn.co/image/ab67616d00004851aacb4d483af87300fa8333b4",
          "width" : 64
        } ],
        "name" : "Do You Love Me, or Are You Just Lonely?",
        "release_date" : "2019-07-19",
        "release_date_precision" : "day",
        "total_tracks" : 10,
        "type" : "album",
        "uri" : "spotify:album:28B3NkA4cyPjPH0EJJTsN3"
      },
      "artists" : [ {
        "external_urls" : {
          "spotify" : "https://open.spotify.com/artist/6U53xCCVXmyimAgsBjCS8P"
        },
        "href" : "https://api.spotify.com/v1/artists/6U53xCCVXmyimAgsBjCS8P",
        "id" : "6U53xCCVXmyimAgsBjCS8P",
        "name" : "Jess Benko",
        "type" : "artist",
        "uri" : "spotify:artist:6U53xCCVXmyimAgsBjCS8P"
      } ],
      "disc_number" : 1,
      "duration_ms" : 291292,
      "explicit" : false,
      "external_ids" : {
        "isrc" : "QZFZ31954851"
      },
      "external_urls" : {
        "spotify" : "https://open.spotify.com/track/7eNo9ESORi0F5hR0GXGhJJ"
      },
      "href" : "https://api.spotify.com/v1/tracks/7eNo9ESORi0F5hR0GXGhJJ",
      "id" : "7eNo9ESORi0F5hR0GXGhJJ",
      "is_local" : false,
      "is_playable" : true,
      "name" : "I'm Not Perfect",
      "popularity" : 40,
      "preview_url" : "https://p.scdn.co/mp3-preview/98a4a11010c474f03d1f962d47c98f33bbd30fc5?cid=774b29d4f13844c495f206cafdad9c86",
      "track_number" : 3,
      "type" : "track",
      "uri" : "spotify:track:7eNo9ESORi0F5hR0GXGhJJ"
    }, {
      "album" : {
        "album_type" : "album",
        "artists" : [ {
          "external_urls" : {
            "spotify" : "https://open.spotify.com/artist/7gjAu1qr5C2grXeQFFOGeh"
          },
          "href" : "https://api.spotify.com/v1/artists/7gjAu1qr5C2grXeQFFOGeh",
          "id" : "7gjAu1qr5C2grXeQFFOGeh",
          "name" : "Passion Pit",
          "type" : "artist",
          "uri" : "spotify:artist:7gjAu1qr5C2grXeQFFOGeh"
        } ],
        "external_urls" : {
          "spotify" : "https://open.spotify.com/album/2UeAEO0Aa0gciG3rsvU11D"
        },
        "href" : "https://api.spotify.com/v1/albums/2UeAEO0Aa0gciG3rsvU11D",
        "id" : "2UeAEO0Aa0gciG3rsvU11D",
        "images" : [ {
          "height" : 640,
          "url" : "https://i.scdn.co/image/ab67616d0000b27357eb16d577c3ccc6e683645a",
          "width" : 640
        }, {
          "height" : 300,
          "url" : "https://i.scdn.co/image/ab67616d00001e0257eb16d577c3ccc6e683645a",
          "width" : 300
        }, {
          "height" : 64,
          "url" : "https://i.scdn.co/image/ab67616d0000485157eb16d577c3ccc6e683645a",
          "width" : 64
        } ],
        "name" : "Tremendous Sea of Love",
        "release_date" : "2017-07-28",
        "release_date_precision" : "day",
        "total_tracks" : 10,
        "type" : "album",
        "uri" : "spotify:album:2UeAEO0Aa0gciG3rsvU11D"
      },
      "artists" : [ {
        "external_urls" : {
          "spotify" : "https://open.spotify.com/artist/7gjAu1qr5C2grXeQFFOGeh"
        },
        "href" : "https://api.spotify.com/v1/artists/7gjAu1qr5C2grXeQFFOGeh",
        "id" : "7gjAu1qr5C2grXeQFFOGeh",
        "name" : "Passion Pit",
        "type" : "artist",
        "uri" : "spotify:artist:7gjAu1qr5C2grXeQFFOGeh"
      } ],
      "disc_number" : 1,
      "duration_ms" : 135665,
      "explicit" : false,
      "external_ids" : {
        "isrc" : "TCADE1709712"
      },
      "external_urls" : {
        "spotify" : "https://open.spotify.com/track/5fxrnG0VTla4dlTmjLkoPN"
      },
      "href" : "https://api.spotify.com/v1/tracks/5fxrnG0VTla4dlTmjLkoPN",
      "id" : "5fxrnG0VTla4dlTmjLkoPN",
      "is_local" : false,
      "is_playable" : true,
      "name" : "I'm Perfect",
      "popularity" : 35,
      "preview_url" : "https://p.scdn.co/mp3-preview/ff182c26bf93260dc70ce83b625fd7c1b783a089?cid=774b29d4f13844c495f206cafdad9c86",
      "track_number" : 6,
      "type" : "track",
      "uri" : "spotify:track:5fxrnG0VTla4dlTmjLkoPN"
    }, {
      "album" : {
        "album_type" : "album",
        "artists" : [ {
          "external_urls" : {
            "spotify" : "https://open.spotify.com/artist/4L9PX6lwPWo2NeuXL9kyJK"
          },
          "href" : "https://api.spotify.com/v1/artists/4L9PX6lwPWo2NeuXL9kyJK",
          "id" : "4L9PX6lwPWo2NeuXL9kyJK",
          "name" : "Spencer Brown",
          "type" : "artist",
          "uri" : "spotify:artist:4L9PX6lwPWo2NeuXL9kyJK"
        } ],
        "external_urls" : {
          "spotify" : "https://open.spotify.com/album/26medpL8stPGWfE0xRuJT2"
        },
        "href" : "https://api.spotify.com/v1/albums/26medpL8stPGWfE0xRuJT2",
        "id" : "26medpL8stPGWfE0xRuJT2",
        "images" : [ {
          "height" : 640,
          "url" : "https://i.scdn.co/image/ab67616d0000b273d3ac43b0fe3040eefc6d16e1",
          "width" : 640
        }, {
          "height" : 300,
          "url" : "https://i.scdn.co/image/ab67616d00001e02d3ac43b0fe3040eefc6d16e1",
          "width" : 300
        }, {
          "height" : 64,
          "url" : "https://i.scdn.co/image/ab67616d00004851d3ac43b0fe3040eefc6d16e1",
          "width" : 64
        } ],
        "name" : "Illusion of Perfection",
        "release_date" : "2018-05-11",
        "release_date_precision" : "day",
        "total_tracks" : 12,
        "type" : "album",
        "uri" : "spotify:album:26medpL8stPGWfE0xRuJT2"
      },
      "artists" : [ {
        "external_urls" : {
          "spotify" : "https://open.spotify.com/artist/4L9PX6lwPWo2NeuXL9kyJK"
        },
        "href" : "https://api.spotify.com/v1/artists/4L9PX6lwPWo2NeuXL9kyJK",
        "id" : "4L9PX6lwPWo2NeuXL9kyJK",
        "name" : "Spencer Brown",
        "type" : "artist",
        "uri" : "spotify:artist:4L9PX6lwPWo2NeuXL9kyJK"
      } ],
      "disc_number" : 1,
      "duration_ms" : 291466,
      "explicit" : false,
      "external_ids" : {
        "isrc" : "GBEWA1800654"
      },
      "external_urls" : {
        "spotify" : "https://open.spotify.com/track/2HYr8LZRlJKEfMbIgT0365"
      },
      "href" : "https://api.spotify.com/v1/tracks/2HYr8LZRlJKEfMbIgT0365",
      "id" : "2HYr8LZRlJKEfMbIgT0365",
      "is_local" : false,
      "is_playable" : true,
      "name" : "Will I Ever Find Love",
      "popularity" : 38,
      "preview_url" : "https://p.scdn.co/mp3-preview/219bd4a922de01b2eaa1028f444f2c076328d7ed?cid=774b29d4f13844c495f206cafdad9c86",
      "track_number" : 5,
      "type" : "track",
      "uri" : "spotify:track:2HYr8LZRlJKEfMbIgT0365"
    }, {
      "album" : {
        "album_type" : "album",
        "artists" : [ {
          "external_urls" : {
            "spotify" : "https://open.spotify.com/artist/0LyfQWJT6nXafLPZqxe9Of"
          },
          "href" : "https://api.spotify.com/v1/artists/0LyfQWJT6nXafLPZqxe9Of",
          "id" : "0LyfQWJT6nXafLPZqxe9Of",
          "name" : "Various Artists",
          "type" : "artist",
          "uri" : "spotify:artist:0LyfQWJT6nXafLPZqxe9Of"
        } ],
        "external_urls" : {
          "spotify" : "https://open.spotify.com/album/2ZfWWnhRIjenV6Nd72DGj2"
        },
        "href" : "https://api.spotify.com/v1/albums/2ZfWWnhRIjenV6Nd72DGj2",
        "id" : "2ZfWWnhRIjenV6Nd72DGj2",
        "images" : [ {
          "height" : 640,
          "url" : "https://i.scdn.co/image/ab67616d0000b2736910871fe0055e4afc54058d",
          "width" : 640
        }, {
          "height" : 300,
          "url" : "https://i.scdn.co/image/ab67616d00001e026910871fe0055e4afc54058d",
          "width" : 300
        }, {
          "height" : 64,
          "url" : "https://i.scdn.co/image/ab67616d000048516910871fe0055e4afc54058d",
          "width" : 64
        } ],
        "name" : "Perfect Background Music",
        "release_date" : "2020-05-29",
        "release_date_precision" : "day",
        "total_tracks" : 29,
        "type" : "album",
        "uri" : "spotify:album:2ZfWWnhRIjenV6Nd72DGj2"
      },
      "artists" : [ {
        "external_urls" : {
          "spotify" : "https://open.spotify.com/artist/24Wa5wIZIo1sPkzVGP0B5p"
        },
        "href" : "https://api.spotify.com/v1/artists/24Wa5wIZIo1sPkzVGP0B5p",
        "id" : "24Wa5wIZIo1sPkzVGP0B5p",
        "name" : "Pete Townshend",
        "type" : "artist",
        "uri" : "spotify:artist:24Wa5wIZIo1sPkzVGP0B5p"
      } ],
      "disc_number" : 1,
      "duration_ms" : 164267,
      "explicit" : false,
      "external_ids" : {
        "isrc" : "GBUM71500440"
      },
      "external_urls" : {
        "spotify" : "https://open.spotify.com/track/4UL8lcVS6aLHZMkD8TbGBs"
      },
      "href" : "https://api.spotify.com/v1/tracks/4UL8lcVS6aLHZMkD8TbGBs",
      "id" : "4UL8lcVS6aLHZMkD8TbGBs",
      "is_local" : false,
      "is_playable" : true,
      "name" : "Let My Love Open The Door",
      "popularity" : 0,
      "preview_url" : null,
      "track_number" : 29,
      "type" : "track",
      "uri" : "spotify:track:4UL8lcVS6aLHZMkD8TbGBs"
    }, {
      "album" : {
        "album_type" : "album",
        "artists" : [ {
          "external_urls" : {
            "spotify" : "https://open.spotify.com/artist/0LyfQWJT6nXafLPZqxe9Of"
          },
          "href" : "https://api.spotify.com/v1/artists/0LyfQWJT6nXafLPZqxe9Of",
          "id" : "0LyfQWJT6nXafLPZqxe9Of",
          "name" : "Various Artists",
          "type" : "artist",
          "uri" : "spotify:artist:0LyfQWJT6nXafLPZqxe9Of"
        } ],
        "external_urls" : {
          "spotify" : "https://open.spotify.com/album/3H6CYO93D8yAYVXuPXjq3k"
        },
        "href" : "https://api.spotify.com/v1/albums/3H6CYO93D8yAYVXuPXjq3k",
        "id" : "3H6CYO93D8yAYVXuPXjq3k",
        "images" : [ {
          "height" : 640,
          "url" : "https://i.scdn.co/image/ab67616d0000b2732279bedacbcce92479c7b442",
          "width" : 640
        }, {
          "height" : 300,
          "url" : "https://i.scdn.co/image/ab67616d00001e022279bedacbcce92479c7b442",
          "width" : 300
        }, {
          "height" : 64,
          "url" : "https://i.scdn.co/image/ab67616d000048512279bedacbcce92479c7b442",
          "width" : 64
        } ],
        "name" : "Amazing Spa - The Perfect Relaxation Symphony, Vol.4",
        "release_date" : "2020-05-20",
        "release_date_precision" : "day",
        "total_tracks" : 40,
        "type" : "album",
        "uri" : "spotify:album:3H6CYO93D8yAYVXuPXjq3k"
      },
      "artists" : [ {
        "external_urls" : {
          "spotify" : "https://open.spotify.com/artist/0JWyiWM8fihe9rTVVNBR4t"
        },
        "href" : "https://api.spotify.com/v1/artists/0JWyiWM8fihe9rTVVNBR4t",
        "id" : "0JWyiWM8fihe9rTVVNBR4t",
        "name" : "Serenity Calls",
        "type" : "artist",
        "uri" : "spotify:artist:0JWyiWM8fihe9rTVVNBR4t"
      } ],
      "disc_number" : 1,
      "duration_ms" : 262653,
      "explicit" : false,
      "external_ids" : {
        "isrc" : "ITZ071802857"
      },
      "external_urls" : {
        "spotify" : "https://open.spotify.com/track/32UIIJ0f2qCkHBTYWJqW2s"
      },
      "href" : "https://api.spotify.com/v1/tracks/32UIIJ0f2qCkHBTYWJqW2s",
      "id" : "32UIIJ0f2qCkHBTYWJqW2s",
      "is_local" : false,
      "is_playable" : true,
      "name" : "Nature's Love - Original Mix",
      "popularity" : 0,
      "preview_url" : "https://p.scdn.co/mp3-preview/1b38c9c0d53d08f2386b63486e3d6f3ffacc58b7?cid=774b29d4f13844c495f206cafdad9c86",
      "track_number" : 28,
      "type" : "track",
      "uri" : "spotify:track:32UIIJ0f2qCkHBTYWJqW2s"
    }, {
      "album" : {
        "album_type" : "compilation",
        "artists" : [ {
          "external_urls" : {
            "spotify" : "https://open.spotify.com/artist/0LyfQWJT6nXafLPZqxe9Of"
          },
          "href" : "https://api.spotify.com/v1/artists/0LyfQWJT6nXafLPZqxe9Of",
          "id" : "0LyfQWJT6nXafLPZqxe9Of",
          "name" : "Various Artists",
          "type" : "artist",
          "uri" : "spotify:artist:0LyfQWJT6nXafLPZqxe9Of"
        } ],
        "external_urls" : {
          "spotify" : "https://open.spotify.com/album/1kJFrRd4OyFXyEtFb7xSUY"
        },
        "href" : "https://api.spotify.com/v1/albums/1kJFrRd4OyFXyEtFb7xSUY",
        "id" : "1kJFrRd4OyFXyEtFb7xSUY",
        "images" : [ {
          "height" : 640,
          "url" : "https://i.scdn.co/image/ab67616d0000b273e3c4e88fcb8e18ad73645176",
          "width" : 640
        }, {
          "height" : 300,
          "url" : "https://i.scdn.co/image/ab67616d00001e02e3c4e88fcb8e18ad73645176",
          "width" : 300
        }, {
          "height" : 64,
          "url" : "https://i.scdn.co/image/ab67616d00004851e3c4e88fcb8e18ad73645176",
          "width" : 64
        } ],
        "name" : "Pitch Perfect 3 (Original Motion Picture Soundtrack - Special Edition)",
        "release_date" : "2018-03-02",
        "release_date_precision" : "day",
        "total_tracks" : 22,
        "type" : "album",
        "uri" : "spotify:album:1kJFrRd4OyFXyEtFb7xSUY"
      },
      "artists" : [ {
        "external_urls" : {
          "spotify" : "https://open.spotify.com/artist/4pBZPaKdm0u7Joe6oAea6V"
        },
        "href" : "https://api.spotify.com/v1/artists/4pBZPaKdm0u7Joe6oAea6V",
        "id" : "4pBZPaKdm0u7Joe6oAea6V",
        "name" : "The Bellas",
        "type" : "artist",
        "uri" : "spotify:artist:4pBZPaKdm0u7Joe6oAea6V"
      } ],
      "disc_number" : 1,
      "duration_ms" : 239668,
      "explicit" : false,
      "external_ids" : {
        "isrc" : "USQ4E1703329"
      },
      "external_urls" : {
        "spotify" : "https://open.spotify.com/track/2OtGUqxrb81hHndsXsyBlE"
      },
      "href" : "https://api.spotify.com/v1/tracks/2OtGUqxrb81hHndsXsyBlE",
      "id" : "2OtGUqxrb81hHndsXsyBlE",
      "is_local" : false,
      "is_playable" : true,
      "name" : "I Don't Like It, I Love It",
      "popularity" : 37,
      "preview_url" : null,
      "track_number" : 9,
      "type" : "track",
      "uri" : "spotify:track:2OtGUqxrb81hHndsXsyBlE"
    }, {
      "album" : {
        "album_type" : "album",
        "artists" : [ {
          "external_urls" : {
            "spotify" : "https://open.spotify.com/artist/0Onvkz1Nbs4wHXXUwOIGk8"
          },
          "href" : "https://api.spotify.com/v1/artists/0Onvkz1Nbs4wHXXUwOIGk8",
          "id" : "0Onvkz1Nbs4wHXXUwOIGk8",
          "name" : "Jesus Culture",
          "type" : "artist",
          "uri" : "spotify:artist:0Onvkz1Nbs4wHXXUwOIGk8"
        } ],
        "external_urls" : {
          "spotify" : "https://open.spotify.com/album/3Qpvw6jAhDlTvM90o4pbft"
        },
        "href" : "https://api.spotify.com/v1/albums/3Qpvw6jAhDlTvM90o4pbft",
        "id" : "3Qpvw6jAhDlTvM90o4pbft",
        "images" : [ {
          "height" : 640,
          "url" : "https://i.scdn.co/image/ab67616d0000b2737495b8473adad055b7522473",
          "width" : 640
        }, {
          "height" : 300,
          "url" : "https://i.scdn.co/image/ab67616d00001e027495b8473adad055b7522473",
          "width" : 300
        }, {
          "height" : 64,
          "url" : "https://i.scdn.co/image/ab67616d000048517495b8473adad055b7522473",
          "width" : 64
        } ],
        "name" : "Awakening - Live From Chicago",
        "release_date" : "2011-11-29",
        "release_date_precision" : "day",
        "total_tracks" : 16,
        "type" : "album",
        "uri" : "spotify:album:3Qpvw6jAhDlTvM90o4pbft"
      },
      "artists" : [ {
        "external_urls" : {
          "spotify" : "https://open.spotify.com/artist/0Onvkz1Nbs4wHXXUwOIGk8"
        },
        "href" : "https://api.spotify.com/v1/artists/0Onvkz1Nbs4wHXXUwOIGk8",
        "id" : "0Onvkz1Nbs4wHXXUwOIGk8",
        "name" : "Jesus Culture",
        "type" : "artist",
        "uri" : "spotify:artist:0Onvkz1Nbs4wHXXUwOIGk8"
      }, {
        "external_urls" : {
          "spotify" : "https://open.spotify.com/artist/4leTWyczsXYGlzUh8sFGSz"
        },
        "href" : "https://api.spotify.com/v1/artists/4leTWyczsXYGlzUh8sFGSz",
        "id" : "4leTWyczsXYGlzUh8sFGSz",
        "name" : "Kim Walker-Smith",
        "type" : "artist",
        "uri" : "spotify:artist:4leTWyczsXYGlzUh8sFGSz"
      } ],
      "disc_number" : 1,
      "duration_ms" : 275946,
      "explicit" : false,
      "external_ids" : {
        "isrc" : "USTCF1100003"
      },
      "external_urls" : {
        "spotify" : "https://open.spotify.com/track/18mT1Ld7MnmAhM6RkjcBwS"
      },
      "href" : "https://api.spotify.com/v1/tracks/18mT1Ld7MnmAhM6RkjcBwS",
      "id" : "18mT1Ld7MnmAhM6RkjcBwS",
      "is_local" : false,
      "is_playable" : true,
      "name" : "Perfect Love - Father of Lights Reprise/Live",
      "popularity" : 25,
      "preview_url" : null,
      "track_number" : 3,
      "type" : "track",
      "uri" : "spotify:track:18mT1Ld7MnmAhM6RkjcBwS"
    }, {
      "album" : {
        "album_type" : "single",
        "artists" : [ {
          "external_urls" : {
            "spotify" : "https://open.spotify.com/artist/5AU9URalvElrsPEA5dYazp"
          },
          "href" : "https://api.spotify.com/v1/artists/5AU9URalvElrsPEA5dYazp",
          "id" : "5AU9URalvElrsPEA5dYazp",
          "name" : "Sensory Psyche",
          "type" : "artist",
          "uri" : "spotify:artist:5AU9URalvElrsPEA5dYazp"
        } ],
        "external_urls" : {
          "spotify" : "https://open.spotify.com/album/3AbVLRP6unbkPs4OmyG0Tj"
        },
        "href" : "https://api.spotify.com/v1/albums/3AbVLRP6unbkPs4OmyG0Tj",
        "id" : "3AbVLRP6unbkPs4OmyG0Tj",
        "images" : [ {
          "height" : 640,
          "url" : "https://i.scdn.co/image/ab67616d0000b2737b95b52cd86fd10289bb5153",
          "width" : 640
        }, {
          "height" : 300,
          "url" : "https://i.scdn.co/image/ab67616d00001e027b95b52cd86fd10289bb5153",
          "width" : 300
        }, {
          "height" : 64,
          "url" : "https://i.scdn.co/image/ab67616d000048517b95b52cd86fd10289bb5153",
          "width" : 64
        } ],
        "name" : "The Perfect Day",
        "release_date" : "2020-03-27",
        "release_date_precision" : "day",
        "total_tracks" : 5,
        "type" : "album",
        "uri" : "spotify:album:3AbVLRP6unbkPs4OmyG0Tj"
      },
      "artists" : [ {
        "external_urls" : {
          "spotify" : "https://open.spotify.com/artist/5AU9URalvElrsPEA5dYazp"
        },
        "href" : "https://api.spotify.com/v1/artists/5AU9URalvElrsPEA5dYazp",
        "id" : "5AU9URalvElrsPEA5dYazp",
        "name" : "Sensory Psyche",
        "type" : "artist",
        "uri" : "spotify:artist:5AU9URalvElrsPEA5dYazp"
      } ],
      "disc_number" : 1,
      "duration_ms" : 204251,
      "explicit" : false,
      "external_ids" : {
        "isrc" : "QZDA62092692"
      },
      "external_urls" : {
        "spotify" : "https://open.spotify.com/track/1mq3pZBBPtwQ9V6132j85Z"
      },
      "href" : "https://api.spotify.com/v1/tracks/1mq3pZBBPtwQ9V6132j85Z",
      "id" : "1mq3pZBBPtwQ9V6132j85Z",
      "is_local" : false,
      "is_playable" : true,
      "name" : "Ocean Love",
      "popularity" : 22,
      "preview_url" : "https://p.scdn.co/mp3-preview/0e46f4d657e79e7fdea79de194f7e4cd2c3f07b4?cid=774b29d4f13844c495f206cafdad9c86",
      "track_number" : 5,
      "type" : "track",
      "uri" : "spotify:track:1mq3pZBBPtwQ9V6132j85Z"
    }, {
      "album" : {
        "album_type" : "album",
        "artists" : [ {
          "external_urls" : {
            "spotify" : "https://open.spotify.com/artist/3PhL2Vdao2v8SS8AptuhAr"
          },
          "href" : "https://api.spotify.com/v1/artists/3PhL2Vdao2v8SS8AptuhAr",
          "id" : "3PhL2Vdao2v8SS8AptuhAr",
          "name" : "James Horner",
          "type" : "artist",
          "uri" : "spotify:artist:3PhL2Vdao2v8SS8AptuhAr"
        } ],
        "external_urls" : {
          "spotify" : "https://open.spotify.com/album/4JUc2OmmvvbAtaXxuOM0h3"
        },
        "href" : "https://api.spotify.com/v1/albums/4JUc2OmmvvbAtaXxuOM0h3",
        "id" : "4JUc2OmmvvbAtaXxuOM0h3",
        "images" : [ {
          "height" : 640,
          "url" : "https://i.scdn.co/image/ab67616d0000b2731952585cf6040015d593e393",
          "width" : 640
        }, {
          "height" : 300,
          "url" : "https://i.scdn.co/image/ab67616d00001e021952585cf6040015d593e393",
          "width" : 300
        }, {
          "height" : 64,
          "url" : "https://i.scdn.co/image/ab67616d000048511952585cf6040015d593e393",
          "width" : 64
        } ],
        "name" : "The Perfect Storm (Original Score)",
        "release_date" : "2000-05-23",
        "release_date_precision" : "day",
        "total_tracks" : 10,
        "type" : "album",
        "uri" : "spotify:album:4JUc2OmmvvbAtaXxuOM0h3"
      },
      "artists" : [ {
        "external_urls" : {
          "spotify" : "https://open.spotify.com/artist/3PhL2Vdao2v8SS8AptuhAr"
        },
        "href" : "https://api.spotify.com/v1/artists/3PhL2Vdao2v8SS8AptuhAr",
        "id" : "3PhL2Vdao2v8SS8AptuhAr",
        "name" : "James Horner",
        "type" : "artist",
        "uri" : "spotify:artist:3PhL2Vdao2v8SS8AptuhAr"
      } ],
      "disc_number" : 1,
      "duration_ms" : 453106,
      "explicit" : false,
      "external_ids" : {
        "isrc" : "USSM10009387"
      },
      "external_urls" : {
        "spotify" : "https://open.spotify.com/track/7bptz4OBQfcwk706SGN6tW"
      },
      "href" : "https://api.spotify.com/v1/tracks/7bptz4OBQfcwk706SGN6tW",
      "id" : "7bptz4OBQfcwk706SGN6tW",
      "is_local" : false,
      "is_playable" : true,
      "name" : "There's No Goodbye... Only Love - Instrumental",
      "popularity" : 28,
      "preview_url" : "https://p.scdn.co/mp3-preview/4aa2c114b2b32f894c6a6f875fcb83b3df4c2048?cid=774b29d4f13844c495f206cafdad9c86",
      "track_number" : 9,
      "type" : "track",
      "uri" : "spotify:track:7bptz4OBQfcwk706SGN6tW"
    } ],
    "limit" : 10,
    "next" : "https://api.spotify.com/v1/search?query=O+Perfect+Love&type=track&market=US&offset=15&limit=10",
    "offset" : 5,
    "previous" : "https://api.spotify.com/v1/search?query=O+Perfect+Love&type=track&market=US&offset=0&limit=10",
    "total" : 5052
  }
}