{
  "tracks" : {
    "href" : "https://api.spotify.com/v1/search?query=At+the+Name+of+Jesus&type=track&market=US&offset=5&limit=10",
    "items" : [ {
      "album" : {
        "album_type" : "album",
        "artists" : [ {
          "external_urls" : {
            "spotify" : "https://open.spotify.com/artist/0I4Bk2s2BUJyykCwtxx8Xx"
          },
          "href" : "https://api.spotify.com/v1/artists/0I4Bk2s2BUJyykCwtxx8Xx",
          "id" : "0I4Bk2s2BUJyykCwtxx8Xx",
          "name" : "Keith & Kristyn Getty",
          "type" : "artist",
          "uri" : "spotify:artist:0I4Bk2s2BUJyykCwtxx8Xx"
        } ],
        "external_urls" : {
          "spotify" : "https://open.spotify.com/album/6c2wV1wW3nTz45RcSvqphh"
        },
        "href" : "https://api.spotify.com/v1/albums/6c2wV1wW3nTz45RcSvqphh",
        "id" : "6c2wV1wW3nTz45RcSvqphh",
        "images" : [ {
          "height" : 640,
          "url" : "https://i.scdn.co/image/ab67616d0000b2732c3da881b92e4952e6c21322",
          "width" : 640
        }, {
          "height" : 300,
          "url" : "https://i.scdn.co/image/ab67616d00001e022c3da881b92e4952e6c21322",
          "width" : 300
        }, {
          "height" : 64,
          "url" : "https://i.scdn.co/image/ab67616d000048512c3da881b92e4952e6c21322",
          "width" : 64
        } ],
        "name" : "Live At The Gospel Coalition",
        "release_date" : "2013-01-01",
        "release_date_precision" : "day",
        "total_tracks" : 16,
        "type" : "album",
        "uri" : "spotify:album:6c2wV1wW3nTz45RcSvqphh"
      },
      "artists" : [ {
        "external_urls" : {
          "spotify" : "https://open.spotify.com/artist/0I4Bk2s2BUJyykCwtxx8Xx"
        },
        "href" : "https://api.spotify.com/v1/artists/0I4Bk2s2BUJyykCwtxx8Xx",
        "id" : "0I4Bk2s2BUJyykCwtxx8Xx",
        "name" : "Keith & Kristyn Getty",
        "type" : "artist",
        "uri" : "spotify:artist:0I4Bk2s2BUJyykCwtxx8Xx"
      } ],
      "disc_number" : 1,
      "duration_ms" : 205253,
      "explicit" : false,
      "external_ids" : {
        "isrc" : "USY5K1300008"
      },
      "external_urls" : {
        "spotify" : "https://open.spotify.com/track/7t3PFF8ZyqFG6Z3caIAwwi"
      },
      "href" : "https://api.spotify.com/v1/tracks/7t3PFF8ZyqFG6Z3caIAwwi",
      "id" : "7t3PFF8ZyqFG6Z3caIAwwi",
      "is_local" : false,
      "is_playable" : true,
      "name" : "Lift High The Name Of Jesus - Live",
      "popularity" : 17,
      "preview_url" : null,
      "track_number" : 7,
      "type" : "track",
      "uri" : "spotify:track:7t3PFF8ZyqFG6Z3caIAwwi"
    }, {
      "album" : {
        "album_type" : "single",
        "artists" : [ {
          "external_urls" : {
            "spotify" : "https://open.spotify.com/artist/59FfqLqvVuyo9AIdEnR0HG"
          },
          "href" : "https://api.spotify.com/v1/artists/59FfqLqvVuyo9AIdEnR0HG",
          "id" : "59FfqLqvVuyo9AIdEnR0HG",
          "name" : "The Old Paths",
          "type" : "artist",
          "uri" : "spotify:artist:59FfqLqvVuyo9AIdEnR0HG"
        } ],
        "external_urls" : {
          "spotify" : "https://open.spotify.com/album/1PJIx9xOcgKlwAp5eAOogw"
        },
        "href" : "https://api.spotify.com/v1/albums/1PJIx9xOcgKlwAp5eAOogw",
        "id" : "1PJIx9xOcgKlwAp5eAOogw",
        "images" : [ {
          "height" : 640,
          "url" : "https://i.scdn.co/image/ab67616d0000b273fdbdddeda38a3906b9cab3f0",
          "width" : 640
        }, {
          "height" : 300,
          "url" : "https://i.scdn.co/image/ab67616d00001e02fdbdddeda38a3906b9cab3f0",
          "width" : 300
        }, {
          "height" : 64,
          "url" : "https://i.scdn.co/image/ab67616d00004851fdbdddeda38a3906b9cab3f0",
          "width" : 64
        } ],
        "name" : "Long Run",
        "release_date" : "2017-07-14",
        "release_date_precision" : "day",
        "total_tracks" : 6,
        "type" : "album",
        "uri" : "spotify:album:1PJIx9xOcgKlwAp5eAOogw"
      },
      "artists" : [ {
        "external_urls" : {
          "spotify" : "https://open.spotify.com/artist/59FfqLqvVuyo9AIdEnR0HG"
        },
        "href" : "https://api.spotify.com/v1/artists/59FfqLqvVuyo9AIdEnR0HG",
        "id" : "59FfqLqvVuyo9AIdEnR0HG",
        "name" : "The Old Paths",
        "type" : "artist",
        "uri" : "spotify:artist:59FfqLqvVuyo9AIdEnR0HG"
      } ],
      "disc_number" : 1,
      "duration_ms" : 266007,
      "explicit" : false,
      "external_ids" : {
        "isrc" : "USETB1700384"
      },
      "external_urls" : {
        "spotify" : "https://open.spotify.com/track/6RqRrFAz0jsdNyHoYqLSwI"
      },
      "href" : "https://api.spotify.com/v1/tracks/6RqRrFAz0jsdNyHoYqLSwI",
      "id" : "6RqRrFAz0jsdNyHoYqLSwI",
      "is_local" : false,
      "is_playable" : true,
      "name" : "At the Name Of Jesus",
      "popularity" : 10,
      "preview_url" : "https://p.scdn.co/mp3-preview/61b752ae46d71e249be92f7af2a0a394418d379d?cid=774b29d4f13844c495f206cafdad9c86",
      "track_number" : 5,
      "type" : "track",
      "uri" : "spotify:track:6RqRrFAz0jsdNyHoYqLSwI"
    }, {
      "album" : {
        "album_type" : "album",
        "artists" : [ {
          "external_urls" : {
            "spotify" : "https://open.spotify.com/artist/4FGuhMc7yWmxgyIZNGSKN7"
          },
          "href" : "https://api.spotify.com/v1/artists/4FGuhMc7yWmxgyIZNGSKN7",
          "id" : "4FGuhMc7yWmxgyIZNGSKN7",
          "name" : "Christ For The Nations Worship",
          "type" : "artist",
          "uri" : "spotify:artist:4FGuhMc7yWmxgyIZNGSKN7"
        } ],
        "external_urls" : {
          "spotify" : "https://open.spotify.com/album/28mvv27frlUSrC0en3sRxs"
        },
        "href" : "https://api.spotify.com/v1/albums/28mvv27frlUSrC0en3sRxs",
        "id" : "28mvv27frlUSrC0en3sRxs",
        "images" : [ {
          "height" : 640,
          "url" : "https://i.scdn.co/image/ab67616d0000b273cb5475b37733de26236d2001",
          "width" : 640
        }, {
          "height" : 300,
          "url" : "https://i.scdn.co/image/ab67616d00001e02cb5475b37733de26236d2001",
          "width" : 300
        }, {
          "height" : 64,
          "url" : "https://i.scdn.co/image/ab67616d00004851cb5475b37733de26236d2001",
          "width" : 64
        } ],
        "name" : "Melody of Love",
        "release_date" : "2017-05-05",
        "release_date_precision" : "day",
        "total_tracks" : 13,
        "type" : "album",
        "uri" : "spotify:album:28mvv27frlUSrC0en3sRxs"
      },
      "artists" : [ {
        "external_urls" : {
          "spotify" : "https://open.spotify.com/artist/4FGuhMc7yWmxgyIZNGSKN7"
        },
        "href" : "https://api.spotify.com/v1/artists/4FGuhMc7yWmxgyIZNGSKN7",
        "id" : "4FGuhMc7yWmxgyIZNGSKN7",
        "name" : "Christ For The Nations Worship",
        "type" : "artist",
        "uri" : "spotify:artist:4FGuhMc7yWmxgyIZNGSKN7"
      }, {
        "external_urls" : {
          "spotify" : "https://open.spotify.com/artist/4Z3Ru5YreAln9dZ1a3xH5Y"
        },
        "href" : "https://api.spotify.com/v1/artists/4Z3Ru5YreAln9dZ1a3xH5Y",
        "id" : "4Z3Ru5YreAln9dZ1a3xH5Y",
        "name" : "Amber Trent",
        "type" : "artist",
        "uri" : "spotify:artist:4Z3Ru5YreAln9dZ1a3xH5Y"
      } ],
      "disc_number" : 1,
      "duration_ms" : 331160,
      "explicit" : false,
      "external_ids" : {
        "isrc" : "QMDWM1700008"
      },
      "external_urls" : {
        "spotify" : "https://open.spotify.com/track/6z1EjS1okpx2PJTI04hkOJ"
      },
      "href" : "https://api.spotify.com/v1/tracks/6z1EjS1okpx2PJTI04hkOJ",
      "id" : "6z1EjS1okpx2PJTI04hkOJ",
      "is_local" : false,
      "is_playable" : true,
      "name" : "At the Name of Jesus",
      "popularity" : 11,
      "preview_url" : "https://p.scdn.co/mp3-preview/c860d201ce75529376772be5a69edaa87206c362?cid=774b29d4f13844c495f206cafdad9c86",
      "track_number" : 8,
      "type" : "track",
      "uri" : "spotify:track:6z1EjS1okpx2PJTI04hkOJ"
    }, {
      "album" : {
        "album_type" : "album",
        "artists" : [ {
          "external_urls" : {
            "spotify" : "https://open.spotify.com/artist/3Ki5vTxv9mywIUenEFLxHb"
          },
          "href" : "https://api.spotify.com/v1/artists/3Ki5vTxv9mywIUenEFLxHb",
          "id" : "3Ki5vTxv9mywIUenEFLxHb",
          "name" : "Christopher Walker",
          "type" : "artist",
          "uri" : "spotify:artist:3Ki5vTxv9mywIUenEFLxHb"
        } ],
        "external_urls" : {
          "spotify" : "https://open.spotify.com/album/0KOhvNQMuC2zihQ3uLQcmo"
        },
        "href" : "https://api.spotify.com/v1/albums/0KOhvNQMuC2zihQ3uLQcmo",
        "id" : "0KOhvNQMuC2zihQ3uLQcmo",
        "images" : [ {
          "height" : 640,
          "url" : "https://i.scdn.co/image/ab67616d0000b2732f5d83d02a0e6267af6251f7",
          "width" : 640
        }, {
          "height" : 300,
          "url" : "https://i.scdn.co/image/ab67616d00001e022f5d83d02a0e6267af6251f7",
          "width" : 300
        }, {
          "height" : 64,
          "url" : "https://i.scdn.co/image/ab67616d000048512f5d83d02a0e6267af6251f7",
          "width" : 64
        } ],
        "name" : "At the Name of Jesus",
        "release_date" : "2012-01-12",
        "release_date_precision" : "day",
        "total_tracks" : 15,
        "type" : "album",
        "uri" : "spotify:album:0KOhvNQMuC2zihQ3uLQcmo"
      },
      "artists" : [ {
        "external_urls" : {
          "spotify" : "https://open.spotify.com/artist/3Ki5vTxv9mywIUenEFLxHb"
        },
        "href" : "https://api.spotify.com/v1/artists/3Ki5vTxv9mywIUenEFLxHb",
        "id" : "3Ki5vTxv9mywIUenEFLxHb",
        "name" : "Christopher Walker",
        "type" : "artist",
        "uri" : "spotify:artist:3Ki5vTxv9mywIUenEFLxHb"
      } ],
      "disc_number" : 1,
      "duration_ms" : 281186,
      "explicit" : false,
      "external_ids" : {
        "isrc" : "USA4N0301522"
      },
      "external_urls" : {
        "spotify" : "https://open.spotify.com/track/332vfNDepOBUHr5VntPLs2"
      },
      "href" : "https://api.spotify.com/v1/tracks/332vfNDepOBUHr5VntPLs2",
      "id" : "332vfNDepOBUHr5VntPLs2",
      "is_local" : false,
      "is_playable" : true,
      "name" : "Laudate, Laudate Dominum",
      "popularity" : 16,
      "preview_url" : "https://p.scdn.co/mp3-preview/d5311c541bb9ea43f38e68cbabf3d0ea64590207?cid=774b29d4f13844c495f206cafdad9c86",
      "track_number" : 8,
      "type" : "track",
      "uri" : "spotify:track:332vfNDepOBUHr5VntPLs2"
    }, {
      "album" : {
        "album_type" : "album",
        "artists" : [ {
          "external_urls" : {
            "spotify" : "https://open.spotify.com/artist/3Ki5vTxv9mywIUenEFLxHb"
          },
          "href" : "https://api.spotify.com/v1/artists/3Ki5vTxv9mywIUenEFLxHb",
          "id" : "3Ki5vTxv9mywIUenEFLxHb",
          "name" : "Christopher Walker",
          "type" : "artist",
          "uri" : "spotify:artist:3Ki5vTxv9mywIUenEFLxHb"
        } ],
        "external_urls" : {
          "spotify" : "https://open.spotify.com/album/0KOhvNQMuC2zihQ3uLQcmo"
        },
        "href" : "https://api.spotify.com/v1/albums/0KOhvNQMuC2zihQ3uLQcmo",
        "id" : "0KOhvNQMuC2zihQ3uLQcmo",
        "images" : [ {
          "height" : 640,
          "url" : "https://i.scdn.co/image/ab67616d0000b2732f5d83d02a0e6267af6251f7",
          "width" : 640
        }, {
          "height" : 300,
          "url" : "https://i.scdn.co/image/ab67616d00001e022f5d83d02a0e6267af6251f7",
          "width" : 300
        }, {
          "height" : 64,
          "url" : "https://i.scdn.co/image/ab67616d000048512f5d83d02a0e6267af6251f7",
          "width" : 64
        } ],
        "name" : "At the Name of Jesus",
        "release_date" : "2012-01-12",
        "release_date_precision" : "day",
        "total_tracks" : 15,
        "type" : "album",
        "uri" : "spotify:album:0KOhvNQMuC2zihQ3uLQcmo"
      },
      "artists" : [ {
        "external_urls" : {
          "spotify" : "https://open.spotify.com/artist/3Ki5vTxv9mywIUenEFLxHb"
        },
        "href" : "https://api.spotify.com/v1/artists/3Ki5vTxv9mywIUenEFLxHb",
        "id" : "3Ki5vTxv9mywIUenEFLxHb",
        "name" : "Christopher Walker",
        "type" : "artist",
        "uri" : "spotify:artist:3Ki5vTxv9mywIUenEFLxHb"
      } ],
      "disc_number" : 1,
      "duration_ms" : 317413,
      "explicit" : false,
      "external_ids" : {
        "isrc" : "USA4N0301509"
      },
      "external_urls" : {
        "spotify" : "https://open.spotify.com/track/3Q8PJ9yh13nfom37mCiIHk"
      },
      "href" : "https://api.spotify.com/v1/tracks/3Q8PJ9yh13nfom37mCiIHk",
      "id" : "3Q8PJ9yh13nfom37mCiIHk",
      "is_local" : false,
      "is_playable" : true,
      "name" : "At the Name of Jesus",
      "popularity" : 11,
      "preview_url" : "https://p.scdn.co/mp3-preview/3c1827333d286132bc3d3c32b527653d7d2652c6?cid=774b29d4f13844c495f206cafdad9c86",
      "track_number" : 1,
      "type" : "track",
      "uri" : "spotify:track:3Q8PJ9yh13nfom37mCiIHk"
    }, {
      "album" : {
        "album_type" : "compilation",
        "artists" : [ {
          "external_urls" : {
            "spotify" : "https://open.spotify.com/artist/0LyfQWJT6nXafLPZqxe9Of"
          },
          "href" : "https://api.spotify.com/v1/artists/0LyfQWJT6nXafLPZqxe9Of",
          "id" : "0LyfQWJT6nXafLPZqxe9Of",
          "name" : "Various Artists",
          "type" : "artist",
          "uri" : "spotify:artist:0LyfQWJT6nXafLPZqxe9Of"
        } ],
        "external_urls" : {
          "spotify" : "https://open.spotify.com/album/0yZewTMFsWcQWtkumHzdZm"
        },
        "href" : "https://api.spotify.com/v1/albums/0yZewTMFsWcQWtkumHzdZm",
        "id" : "0yZewTMFsWcQWtkumHzdZm",
        "images" : [ {
          "height" : 640,
          "url" : "https://i.scdn.co/image/ab67616d0000b273a06b593a049b6d68ade64aeb",
          "width" : 640
        }, {
          "height" : 300,
          "url" : "https://i.scdn.co/image/ab67616d00001e02a06b593a049b6d68ade64aeb",
          "width" : 300
        }, {
          "height" : 64,
          "url" : "https://i.scdn.co/image/ab67616d00004851a06b593a049b6d68ade64aeb",
          "width" : 64
        } ],
        "name" : "Hymns of Grace (Live at Shepherds Conference)",
        "release_date" : "2018-03-01",
        "release_date_precision" : "day",
        "total_tracks" : 17,
        "type" : "album",
        "uri" : "spotify:album:0yZewTMFsWcQWtkumHzdZm"
      },
      "artists" : [ {
        "external_urls" : {
          "spotify" : "https://open.spotify.com/artist/5bQzMD1z8Ro11kEobEdYve"
        },
        "href" : "https://api.spotify.com/v1/artists/5bQzMD1z8Ro11kEobEdYve",
        "id" : "5bQzMD1z8Ro11kEobEdYve",
        "name" : "Clayton Erb",
        "type" : "artist",
        "uri" : "spotify:artist:5bQzMD1z8Ro11kEobEdYve"
      }, {
        "external_urls" : {
          "spotify" : "https://open.spotify.com/artist/6E55YmJOPWc0dMbr9hsZ3o"
        },
        "href" : "https://api.spotify.com/v1/artists/6E55YmJOPWc0dMbr9hsZ3o",
        "id" : "6E55YmJOPWc0dMbr9hsZ3o",
        "name" : "Grace Community Church",
        "type" : "artist",
        "uri" : "spotify:artist:6E55YmJOPWc0dMbr9hsZ3o"
      } ],
      "disc_number" : 1,
      "duration_ms" : 205610,
      "explicit" : false,
      "external_ids" : {
        "isrc" : "QZCF21800016"
      },
      "external_urls" : {
        "spotify" : "https://open.spotify.com/track/7CgEAP8vSh01DhGpB9YONL"
      },
      "href" : "https://api.spotify.com/v1/tracks/7CgEAP8vSh01DhGpB9YONL",
      "id" : "7CgEAP8vSh01DhGpB9YONL",
      "is_local" : false,
      "is_playable" : true,
      "name" : "All Hail the Power of Jesus Name (Live) [feat. Grace Community Church]",
      "popularity" : 11,
      "preview_url" : "https://p.scdn.co/mp3-preview/bcdc42ad2e9ff0dd4a0cd43293426cc05bc1c529?cid=774b29d4f13844c495f206cafdad9c86",
      "track_number" : 16,
      "type" : "track",
      "uri" : "spotify:track:7CgEAP8vSh01DhGpB9YONL"
    }, {
      "album" : {
        "album_type" : "album",
        "artists" : [ {
          "external_urls" : {
            "spotify" : "https://open.spotify.com/artist/5xttCD1o4YHy1YQj4zdQV8"
          },
          "href" : "https://api.spotify.com/v1/artists/5xttCD1o4YHy1YQj4zdQV8",
          "id" : "5xttCD1o4YHy1YQj4zdQV8",
          "name" : "Ordinary Time",
          "type" : "artist",
          "uri" : "spotify:artist:5xttCD1o4YHy1YQj4zdQV8"
        } ],
        "external_urls" : {
          "spotify" : "https://open.spotify.com/album/6YSc2jVteqoynCTfNdKGCK"
        },
        "href" : "https://api.spotify.com/v1/albums/6YSc2jVteqoynCTfNdKGCK",
        "id" : "6YSc2jVteqoynCTfNdKGCK",
        "images" : [ {
          "height" : 640,
          "url" : "https://i.scdn.co/image/ab67616d0000b2733ca9a7e345f6409fba524534",
          "width" : 640
        }, {
          "height" : 300,
          "url" : "https://i.scdn.co/image/ab67616d00001e023ca9a7e345f6409fba524534",
          "width" : 300
        }, {
          "height" : 64,
          "url" : "https://i.scdn.co/image/ab67616d000048513ca9a7e345f6409fba524534",
          "width" : 64
        } ],
        "name" : "At The Table",
        "release_date" : "2010-01-01",
        "release_date_precision" : "day",
        "total_tracks" : 13,
        "type" : "album",
        "uri" : "spotify:album:6YSc2jVteqoynCTfNdKGCK"
      },
      "artists" : [ {
        "external_urls" : {
          "spotify" : "https://open.spotify.com/artist/5xttCD1o4YHy1YQj4zdQV8"
        },
        "href" : "https://api.spotify.com/v1/artists/5xttCD1o4YHy1YQj4zdQV8",
        "id" : "5xttCD1o4YHy1YQj4zdQV8",
        "name" : "Ordinary Time",
        "type" : "artist",
        "uri" : "spotify:artist:5xttCD1o4YHy1YQj4zdQV8"
      } ],
      "disc_number" : 1,
      "duration_ms" : 197480,
      "explicit" : false,
      "external_ids" : {
        "isrc" : "usx9p0977486"
      },
      "external_urls" : {
        "spotify" : "https://open.spotify.com/track/0lGVf4mNj6BC2QwrOJbIzN"
      },
      "href" : "https://api.spotify.com/v1/tracks/0lGVf4mNj6BC2QwrOJbIzN",
      "id" : "0lGVf4mNj6BC2QwrOJbIzN",
      "is_local" : false,
      "is_playable" : true,
      "name" : "How Sweet the Name of Jesus Sounds",
      "popularity" : 8,
      "preview_url" : "https://p.scdn.co/mp3-preview/9b4f8b133cc53952ac9e9478908f302d9096bba9?cid=774b29d4f13844c495f206cafdad9c86",
      "track_number" : 9,
      "type" : "track",
      "uri" : "spotify:track:0lGVf4mNj6BC2QwrOJbIzN"
    }, {
      "album" : {
        "album_type" : "album",
        "artists" : [ {
          "external_urls" : {
            "spotify" : "https://open.spotify.com/artist/2oQJQUIpJFFnfKvHJA0xBu"
          },
          "href" : "https://api.spotify.com/v1/artists/2oQJQUIpJFFnfKvHJA0xBu",
          "id" : "2oQJQUIpJFFnfKvHJA0xBu",
          "name" : "The City of Prague Philharmonic Orchestra",
          "type" : "artist",
          "uri" : "spotify:artist:2oQJQUIpJFFnfKvHJA0xBu"
        } ],
        "external_urls" : {
          "spotify" : "https://open.spotify.com/album/7hfOPNePRHoYa6JPOfX97s"
        },
        "href" : "https://api.spotify.com/v1/albums/7hfOPNePRHoYa6JPOfX97s",
        "id" : "7hfOPNePRHoYa6JPOfX97s",
        "images" : [ {
          "height" : 640,
          "url" : "https://i.scdn.co/image/ab67616d0000b273b683f07a03ba248704cdbc7c",
          "width" : 640
        }, {
          "height" : 300,
          "url" : "https://i.scdn.co/image/ab67616d00001e02b683f07a03ba248704cdbc7c",
          "width" : 300
        }, {
          "height" : 64,
          "url" : "https://i.scdn.co/image/ab67616d00004851b683f07a03ba248704cdbc7c",
          "width" : 64
        } ],
        "name" : "Wonderful, Merciful Savior",
        "release_date" : "2012-08-28",
        "release_date_precision" : "day",
        "total_tracks" : 14,
        "type" : "album",
        "uri" : "spotify:album:7hfOPNePRHoYa6JPOfX97s"
      },
      "artists" : [ {
        "external_urls" : {
          "spotify" : "https://open.spotify.com/artist/2oQJQUIpJFFnfKvHJA0xBu"
        },
        "href" : "https://api.spotify.com/v1/artists/2oQJQUIpJFFnfKvHJA0xBu",
        "id" : "2oQJQUIpJFFnfKvHJA0xBu",
        "name" : "The City of Prague Philharmonic Orchestra",
        "type" : "artist",
        "uri" : "spotify:artist:2oQJQUIpJFFnfKvHJA0xBu"
      } ],
      "disc_number" : 1,
      "duration_ms" : 270493,
      "explicit" : false,
      "external_ids" : {
        "isrc" : "USG5S1290609"
      },
      "external_urls" : {
        "spotify" : "https://open.spotify.com/track/0VHskNXuOrGi1Im2v3ntQF"
      },
      "href" : "https://api.spotify.com/v1/tracks/0VHskNXuOrGi1Im2v3ntQF",
      "id" : "0VHskNXuOrGi1Im2v3ntQF",
      "is_local" : false,
      "is_playable" : true,
      "name" : "At The Name of Jesus",
      "popularity" : 10,
      "preview_url" : "https://p.scdn.co/mp3-preview/41e917f69368d39037dfd1bd6da3cc4748447116?cid=774b29d4f13844c495f206cafdad9c86",
      "track_number" : 9,
      "type" : "track",
      "uri" : "spotify:track:0VHskNXuOrGi1Im2v3ntQF"
    }, {
      "album" : {
        "album_type" : "album",
        "artists" : [ {
          "external_urls" : {
            "spotify" : "https://open.spotify.com/artist/79WVHfPz6NehWubOqTV5w3"
          },
          "href" : "https://api.spotify.com/v1/artists/79WVHfPz6NehWubOqTV5w3",
          "id" : "79WVHfPz6NehWubOqTV5w3",
          "name" : "Keith Lancaster",
          "type" : "artist",
          "uri" : "spotify:artist:79WVHfPz6NehWubOqTV5w3"
        }, {
          "external_urls" : {
            "spotify" : "https://open.spotify.com/artist/5qWYFKIrDUtFAmkN9yQxEy"
          },
          "href" : "https://api.spotify.com/v1/artists/5qWYFKIrDUtFAmkN9yQxEy",
          "id" : "5qWYFKIrDUtFAmkN9yQxEy",
          "name" : "The Acappella Company",
          "type" : "artist",
          "uri" : "spotify:artist:5qWYFKIrDUtFAmkN9yQxEy"
        } ],
        "external_urls" : {
          "spotify" : "https://open.spotify.com/album/2HfPev0AHuiHvD0ZSPybeG"
        },
        "href" : "https://api.spotify.com/v1/albums/2HfPev0AHuiHvD0ZSPybeG",
        "id" : "2HfPev0AHuiHvD0ZSPybeG",
        "images" : [ {
          "height" : 640,
          "url" : "https://i.scdn.co/image/ab67616d0000b2731d13ef76b0206be47ca7151a",
          "width" : 640
        }, {
          "height" : 300,
          "url" : "https://i.scdn.co/image/ab67616d00001e021d13ef76b0206be47ca7151a",
          "width" : 300
        }, {
          "height" : 64,
          "url" : "https://i.scdn.co/image/ab67616d000048511d13ef76b0206be47ca7151a",
          "width" : 64
        } ],
        "name" : "Righteous God: Praise & Harmony (A Cappella Worship)",
        "release_date" : "2015-07-10",
        "release_date_precision" : "day",
        "total_tracks" : 25,
        "type" : "album",
        "uri" : "spotify:album:2HfPev0AHuiHvD0ZSPybeG"
      },
      "artists" : [ {
        "external_urls" : {
          "spotify" : "https://open.spotify.com/artist/79WVHfPz6NehWubOqTV5w3"
        },
        "href" : "https://api.spotify.com/v1/artists/79WVHfPz6NehWubOqTV5w3",
        "id" : "79WVHfPz6NehWubOqTV5w3",
        "name" : "Keith Lancaster",
        "type" : "artist",
        "uri" : "spotify:artist:79WVHfPz6NehWubOqTV5w3"
      }, {
        "external_urls" : {
          "spotify" : "https://open.spotify.com/artist/5qWYFKIrDUtFAmkN9yQxEy"
        },
        "href" : "https://api.spotify.com/v1/artists/5qWYFKIrDUtFAmkN9yQxEy",
        "id" : "5qWYFKIrDUtFAmkN9yQxEy",
        "name" : "The Acappella Company",
        "type" : "artist",
        "uri" : "spotify:artist:5qWYFKIrDUtFAmkN9yQxEy"
      } ],
      "disc_number" : 1,
      "duration_ms" : 104595,
      "explicit" : false,
      "external_ids" : {
        "isrc" : "ushm21908725"
      },
      "external_urls" : {
        "spotify" : "https://open.spotify.com/track/1uiLuGkZ58VoyZCHELFxpj"
      },
      "href" : "https://api.spotify.com/v1/tracks/1uiLuGkZ58VoyZCHELFxpj",
      "id" : "1uiLuGkZ58VoyZCHELFxpj",
      "is_local" : false,
      "is_playable" : true,
      "name" : "At the Name of Jesus",
      "popularity" : 7,
      "preview_url" : "https://p.scdn.co/mp3-preview/67239e014d2a870199cd01f0da0c4bb1d7d1c746?cid=774b29d4f13844c495f206cafdad9c86",
      "track_number" : 2,
      "type" : "track",
      "uri" : "spotify:track:1uiLuGkZ58VoyZCHELFxpj"
    }, {
      "album" : {
        "album_type" : "album",
        "artists" : [ {
          "external_urls" : {
            "spotify" : "https://open.spotify.com/artist/09pwUI7fqIIx7tXDbCDBnE"
          },
          "href" : "https://api.spotify.com/v1/artists/09pwUI7fqIIx7tXDbCDBnE",
          "id" : "09pwUI7fqIIx7tXDbCDBnE",
          "name" : "Dennis Jernigan",
          "type" : "artist",
          "uri" : "spotify:artist:09pwUI7fqIIx7tXDbCDBnE"
        } ],
        "external_urls" : {
          "spotify" : "https://open.spotify.com/album/5Z4OebyA0dYqMjKHl9kAoX"
        },
        "href" : "https://api.spotify.com/v1/albums/5Z4OebyA0dYqMjKHl9kAoX",
        "id" : "5Z4OebyA0dYqMjKHl9kAoX",
        "images" : [ {
          "height" : 640,
          "url" : "https://i.scdn.co/image/ab67616d0000b273f848538af3fe7192c759de23",
          "width" : 640
        }, {
          "height" : 300,
          "url" : "https://i.scdn.co/image/ab67616d00001e02f848538af3fe7192c759de23",
          "width" : 300
        }, {
          "height" : 64,
          "url" : "https://i.scdn.co/image/ab67616d00004851f848538af3fe7192c759de23",
          "width" : 64
        } ],
        "name" : "The Dennis Jernigan Collection",
        "release_date" : "1998-10-01",
        "release_date_precision" : "day",
        "total_tracks" : 14,
        "type" : "album",
        "uri" : "spotify:album:5Z4OebyA0dYqMjKHl9kAoX"
      },
      "artists" : [ {
        "external_urls" : {
          "spotify" : "https://open.spotify.com/artist/09pwUI7fqIIx7tXDbCDBnE"
        },
        "href" : "https://api.spotify.com/v1/artists/09pwUI7fqIIx7tXDbCDBnE",
        "id" : "09pwUI7fqIIx7tXDbCDBnE",
        "name" : "Dennis Jernigan",
        "type" : "artist",
        "uri" : "spotify:artist:09pwUI7fqIIx7tXDbCDBnE"
      } ],
      "disc_number" : 1,
      "duration_ms" : 241933,
      "explicit" : false,
      "external_ids" : {
        "isrc" : "CAPB70990205"
      },
      "external_urls" : {
        "spotify" : "https://open.spotify.com/track/36kn3JbV3UmEifbe3sqFGw"
      },
      "href" : "https://api.spotify.com/v1/tracks/36kn3JbV3UmEifbe3sqFGw",
      "id" : "36kn3JbV3UmEifbe3sqFGw",
      "is_local" : false,
      "is_playable" : true,
      "name" : "At the Name of Jesus",
      "popularity" : 8,
      "preview_url" : "https://p.scdn.co/mp3-preview/24b4a41b4f7d46ba06c8ceb87b2b9b336948c38a?cid=774b29d4f13844c495f206cafdad9c86",
      "track_number" : 4,
      "type" : "track",
      "uri" : "spotify:track:36kn3JbV3UmEifbe3sqFGw"
    } ],
    "limit" : 10,
    "next" : "https://api.spotify.com/v1/search?query=At+the+Name+of+Jesus&type=track&market=US&offset=15&limit=10",
    "offset" : 5,
    "previous" : "https://api.spotify.com/v1/search?query=At+the+Name+of+Jesus&type=track&market=US&offset=0&limit=10",
    "total" : 176
  }
}