{
  "tracks" : {
    "href" : "https://api.spotify.com/v1/search?query=O+Worship+the+Lord&type=track&market=US&offset=5&limit=10",
    "items" : [ {
      "album" : {
        "album_type" : "album",
        "artists" : [ {
          "external_urls" : {
            "spotify" : "https://open.spotify.com/artist/1ULK7BJuhRju0pfOvbQtkc"
          },
          "href" : "https://api.spotify.com/v1/artists/1ULK7BJuhRju0pfOvbQtkc",
          "id" : "1ULK7BJuhRju0pfOvbQtkc",
          "name" : "David Bauer",
          "type" : "artist",
          "uri" : "spotify:artist:1ULK7BJuhRju0pfOvbQtkc"
        } ],
        "external_urls" : {
          "spotify" : "https://open.spotify.com/album/1pL9g4YreUb23GTI2fDUsf"
        },
        "href" : "https://api.spotify.com/v1/albums/1pL9g4YreUb23GTI2fDUsf",
        "id" : "1pL9g4YreUb23GTI2fDUsf",
        "images" : [ {
          "height" : 640,
          "url" : "https://i.scdn.co/image/ab67616d0000b2736140cc94093febfcddf48d86",
          "width" : 640
        }, {
          "height" : 300,
          "url" : "https://i.scdn.co/image/ab67616d00001e026140cc94093febfcddf48d86",
          "width" : 300
        }, {
          "height" : 64,
          "url" : "https://i.scdn.co/image/ab67616d000048516140cc94093febfcddf48d86",
          "width" : 64
        } ],
        "name" : "Quiet Moments of Instrumental Worship",
        "release_date" : "2000",
        "release_date_precision" : "year",
        "total_tracks" : 16,
        "type" : "album",
        "uri" : "spotify:album:1pL9g4YreUb23GTI2fDUsf"
      },
      "artists" : [ {
        "external_urls" : {
          "spotify" : "https://open.spotify.com/artist/1ULK7BJuhRju0pfOvbQtkc"
        },
        "href" : "https://api.spotify.com/v1/artists/1ULK7BJuhRju0pfOvbQtkc",
        "id" : "1ULK7BJuhRju0pfOvbQtkc",
        "name" : "David Bauer",
        "type" : "artist",
        "uri" : "spotify:artist:1ULK7BJuhRju0pfOvbQtkc"
      } ],
      "disc_number" : 1,
      "duration_ms" : 209666,
      "explicit" : false,
      "external_ids" : {
        "isrc" : "USA370337791"
      },
      "external_urls" : {
        "spotify" : "https://open.spotify.com/track/4lXYhEw3pvzVFf37Ymw2XD"
      },
      "href" : "https://api.spotify.com/v1/tracks/4lXYhEw3pvzVFf37Ymw2XD",
      "id" : "4lXYhEw3pvzVFf37Ymw2XD",
      "is_local" : false,
      "is_playable" : true,
      "name" : "Great is the Lord",
      "popularity" : 43,
      "preview_url" : "https://p.scdn.co/mp3-preview/834fd560c4bf242571d73c2aa1be1aa6389c8c54?cid=774b29d4f13844c495f206cafdad9c86",
      "track_number" : 4,
      "type" : "track",
      "uri" : "spotify:track:4lXYhEw3pvzVFf37Ymw2XD"
    }, {
      "album" : {
        "album_type" : "album",
        "artists" : [ {
          "external_urls" : {
            "spotify" : "https://open.spotify.com/artist/3SgHzT552wy2W8pNLaLk24"
          },
          "href" : "https://api.spotify.com/v1/artists/3SgHzT552wy2W8pNLaLk24",
          "id" : "3SgHzT552wy2W8pNLaLk24",
          "name" : "Hillsong Worship",
          "type" : "artist",
          "uri" : "spotify:artist:3SgHzT552wy2W8pNLaLk24"
        }, {
          "external_urls" : {
            "spotify" : "https://open.spotify.com/artist/72iDlGYfVrntfpKzmAv0Hn"
          },
          "href" : "https://api.spotify.com/v1/artists/72iDlGYfVrntfpKzmAv0Hn",
          "id" : "72iDlGYfVrntfpKzmAv0Hn",
          "name" : "Integrity's Hosanna! Music",
          "type" : "artist",
          "uri" : "spotify:artist:72iDlGYfVrntfpKzmAv0Hn"
        } ],
        "external_urls" : {
          "spotify" : "https://open.spotify.com/album/1oAH2mzkbV5UY9FvloQVHa"
        },
        "href" : "https://api.spotify.com/v1/albums/1oAH2mzkbV5UY9FvloQVHa",
        "id" : "1oAH2mzkbV5UY9FvloQVHa",
        "images" : [ {
          "height" : 640,
          "url" : "https://i.scdn.co/image/ab67616d0000b273d532d73082546da6df6d3e7d",
          "width" : 640
        }, {
          "height" : 300,
          "url" : "https://i.scdn.co/image/ab67616d00001e02d532d73082546da6df6d3e7d",
          "width" : 300
        }, {
          "height" : 64,
          "url" : "https://i.scdn.co/image/ab67616d00004851d532d73082546da6df6d3e7d",
          "width" : 64
        } ],
        "name" : "Shout to the Lord (Live)",
        "release_date" : "1996",
        "release_date_precision" : "year",
        "total_tracks" : 12,
        "type" : "album",
        "uri" : "spotify:album:1oAH2mzkbV5UY9FvloQVHa"
      },
      "artists" : [ {
        "external_urls" : {
          "spotify" : "https://open.spotify.com/artist/3SgHzT552wy2W8pNLaLk24"
        },
        "href" : "https://api.spotify.com/v1/artists/3SgHzT552wy2W8pNLaLk24",
        "id" : "3SgHzT552wy2W8pNLaLk24",
        "name" : "Hillsong Worship",
        "type" : "artist",
        "uri" : "spotify:artist:3SgHzT552wy2W8pNLaLk24"
      }, {
        "external_urls" : {
          "spotify" : "https://open.spotify.com/artist/72iDlGYfVrntfpKzmAv0Hn"
        },
        "href" : "https://api.spotify.com/v1/artists/72iDlGYfVrntfpKzmAv0Hn",
        "id" : "72iDlGYfVrntfpKzmAv0Hn",
        "name" : "Integrity's Hosanna! Music",
        "type" : "artist",
        "uri" : "spotify:artist:72iDlGYfVrntfpKzmAv0Hn"
      }, {
        "external_urls" : {
          "spotify" : "https://open.spotify.com/artist/6ZLy8YFk7VbamsI5qbYXtw"
        },
        "href" : "https://api.spotify.com/v1/artists/6ZLy8YFk7VbamsI5qbYXtw",
        "id" : "6ZLy8YFk7VbamsI5qbYXtw",
        "name" : "Darlene Zschech",
        "type" : "artist",
        "uri" : "spotify:artist:6ZLy8YFk7VbamsI5qbYXtw"
      } ],
      "disc_number" : 1,
      "duration_ms" : 302093,
      "explicit" : false,
      "external_ids" : {
        "isrc" : "USSM19703261"
      },
      "external_urls" : {
        "spotify" : "https://open.spotify.com/track/7cxJYR854kSbX8g4QFUU12"
      },
      "href" : "https://api.spotify.com/v1/tracks/7cxJYR854kSbX8g4QFUU12",
      "id" : "7cxJYR854kSbX8g4QFUU12",
      "is_local" : false,
      "is_playable" : true,
      "name" : "The Power of Your Love - Live",
      "popularity" : 48,
      "preview_url" : "https://p.scdn.co/mp3-preview/72605a813c7135c41bc46f409790f2146302252e?cid=774b29d4f13844c495f206cafdad9c86",
      "track_number" : 9,
      "type" : "track",
      "uri" : "spotify:track:7cxJYR854kSbX8g4QFUU12"
    }, {
      "album" : {
        "album_type" : "album",
        "artists" : [ {
          "external_urls" : {
            "spotify" : "https://open.spotify.com/artist/32DWM2tctxuDatAYWHjCtC"
          },
          "href" : "https://api.spotify.com/v1/artists/32DWM2tctxuDatAYWHjCtC",
          "id" : "32DWM2tctxuDatAYWHjCtC",
          "name" : "Hymns on Piano",
          "type" : "artist",
          "uri" : "spotify:artist:32DWM2tctxuDatAYWHjCtC"
        } ],
        "external_urls" : {
          "spotify" : "https://open.spotify.com/album/0h5Fw4mY2qlFCjQ2ukWdQp"
        },
        "href" : "https://api.spotify.com/v1/albums/0h5Fw4mY2qlFCjQ2ukWdQp",
        "id" : "0h5Fw4mY2qlFCjQ2ukWdQp",
        "images" : [ {
          "height" : 640,
          "url" : "https://i.scdn.co/image/ab67616d0000b27325d8c487d4186ca78b8d5c37",
          "width" : 640
        }, {
          "height" : 300,
          "url" : "https://i.scdn.co/image/ab67616d00001e0225d8c487d4186ca78b8d5c37",
          "width" : 300
        }, {
          "height" : 64,
          "url" : "https://i.scdn.co/image/ab67616d0000485125d8c487d4186ca78b8d5c37",
          "width" : 64
        } ],
        "name" : "Hymns of Worship, Vol. 2",
        "release_date" : "2016-04-14",
        "release_date_precision" : "day",
        "total_tracks" : 15,
        "type" : "album",
        "uri" : "spotify:album:0h5Fw4mY2qlFCjQ2ukWdQp"
      },
      "artists" : [ {
        "external_urls" : {
          "spotify" : "https://open.spotify.com/artist/32DWM2tctxuDatAYWHjCtC"
        },
        "href" : "https://api.spotify.com/v1/artists/32DWM2tctxuDatAYWHjCtC",
        "id" : "32DWM2tctxuDatAYWHjCtC",
        "name" : "Hymns on Piano",
        "type" : "artist",
        "uri" : "spotify:artist:32DWM2tctxuDatAYWHjCtC"
      } ],
      "disc_number" : 1,
      "duration_ms" : 302500,
      "explicit" : false,
      "external_ids" : {
        "isrc" : "USE831557073"
      },
      "external_urls" : {
        "spotify" : "https://open.spotify.com/track/36tJrFtmirZoLZhroyjJk6"
      },
      "href" : "https://api.spotify.com/v1/tracks/36tJrFtmirZoLZhroyjJk6",
      "id" : "36tJrFtmirZoLZhroyjJk6",
      "is_local" : false,
      "is_playable" : true,
      "name" : "Trust and Obey (When We Walk With the Lord)",
      "popularity" : 39,
      "preview_url" : "https://p.scdn.co/mp3-preview/67c88e54ce8fb21342ebbf17e0c8de938561b0ff?cid=774b29d4f13844c495f206cafdad9c86",
      "track_number" : 2,
      "type" : "track",
      "uri" : "spotify:track:36tJrFtmirZoLZhroyjJk6"
    }, {
      "album" : {
        "album_type" : "album",
        "artists" : [ {
          "external_urls" : {
            "spotify" : "https://open.spotify.com/artist/0HQiwspXm03L5BmzTgK1hV"
          },
          "href" : "https://api.spotify.com/v1/artists/0HQiwspXm03L5BmzTgK1hV",
          "id" : "0HQiwspXm03L5BmzTgK1hV",
          "name" : "The Maker & The Instrument",
          "type" : "artist",
          "uri" : "spotify:artist:0HQiwspXm03L5BmzTgK1hV"
        } ],
        "external_urls" : {
          "spotify" : "https://open.spotify.com/album/3DzhS9CumbDVCkB7WYvtEX"
        },
        "href" : "https://api.spotify.com/v1/albums/3DzhS9CumbDVCkB7WYvtEX",
        "id" : "3DzhS9CumbDVCkB7WYvtEX",
        "images" : [ {
          "height" : 640,
          "url" : "https://i.scdn.co/image/ab67616d0000b273212841acfc7fbe3fea94e941",
          "width" : 640
        }, {
          "height" : 300,
          "url" : "https://i.scdn.co/image/ab67616d00001e02212841acfc7fbe3fea94e941",
          "width" : 300
        }, {
          "height" : 64,
          "url" : "https://i.scdn.co/image/ab67616d00004851212841acfc7fbe3fea94e941",
          "width" : 64
        } ],
        "name" : "Instrumental Songs Of Worship",
        "release_date" : "2019-10-04",
        "release_date_precision" : "day",
        "total_tracks" : 10,
        "type" : "album",
        "uri" : "spotify:album:3DzhS9CumbDVCkB7WYvtEX"
      },
      "artists" : [ {
        "external_urls" : {
          "spotify" : "https://open.spotify.com/artist/0HQiwspXm03L5BmzTgK1hV"
        },
        "href" : "https://api.spotify.com/v1/artists/0HQiwspXm03L5BmzTgK1hV",
        "id" : "0HQiwspXm03L5BmzTgK1hV",
        "name" : "The Maker & The Instrument",
        "type" : "artist",
        "uri" : "spotify:artist:0HQiwspXm03L5BmzTgK1hV"
      } ],
      "disc_number" : 1,
      "duration_ms" : 291410,
      "explicit" : false,
      "external_ids" : {
        "isrc" : "USUG11903360"
      },
      "external_urls" : {
        "spotify" : "https://open.spotify.com/track/7INIvrY07vZU5exGsYMo2U"
      },
      "href" : "https://api.spotify.com/v1/tracks/7INIvrY07vZU5exGsYMo2U",
      "id" : "7INIvrY07vZU5exGsYMo2U",
      "is_local" : false,
      "is_playable" : true,
      "name" : "10,000 Reasons (Bless The Lord)",
      "popularity" : 37,
      "preview_url" : null,
      "track_number" : 5,
      "type" : "track",
      "uri" : "spotify:track:7INIvrY07vZU5exGsYMo2U"
    }, {
      "album" : {
        "album_type" : "album",
        "artists" : [ {
          "external_urls" : {
            "spotify" : "https://open.spotify.com/artist/7l0sphz32GV0AjjEhECpVg"
          },
          "href" : "https://api.spotify.com/v1/artists/7l0sphz32GV0AjjEhECpVg",
          "id" : "7l0sphz32GV0AjjEhECpVg",
          "name" : "Caleb and Kelsey",
          "type" : "artist",
          "uri" : "spotify:artist:7l0sphz32GV0AjjEhECpVg"
        } ],
        "external_urls" : {
          "spotify" : "https://open.spotify.com/album/2mbvCedc1bYX0JPj2pEald"
        },
        "href" : "https://api.spotify.com/v1/albums/2mbvCedc1bYX0JPj2pEald",
        "id" : "2mbvCedc1bYX0JPj2pEald",
        "images" : [ {
          "height" : 640,
          "url" : "https://i.scdn.co/image/ab67616d0000b2736d2c0bb0b0532389cfaf2e03",
          "width" : 640
        }, {
          "height" : 300,
          "url" : "https://i.scdn.co/image/ab67616d00001e026d2c0bb0b0532389cfaf2e03",
          "width" : 300
        }, {
          "height" : 64,
          "url" : "https://i.scdn.co/image/ab67616d000048516d2c0bb0b0532389cfaf2e03",
          "width" : 64
        } ],
        "name" : "Timeless Worship",
        "release_date" : "2018-08-03",
        "release_date_precision" : "day",
        "total_tracks" : 11,
        "type" : "album",
        "uri" : "spotify:album:2mbvCedc1bYX0JPj2pEald"
      },
      "artists" : [ {
        "external_urls" : {
          "spotify" : "https://open.spotify.com/artist/7l0sphz32GV0AjjEhECpVg"
        },
        "href" : "https://api.spotify.com/v1/artists/7l0sphz32GV0AjjEhECpVg",
        "id" : "7l0sphz32GV0AjjEhECpVg",
        "name" : "Caleb and Kelsey",
        "type" : "artist",
        "uri" : "spotify:artist:7l0sphz32GV0AjjEhECpVg"
      } ],
      "disc_number" : 1,
      "duration_ms" : 151127,
      "explicit" : false,
      "external_ids" : {
        "isrc" : "QMF921850039"
      },
      "external_urls" : {
        "spotify" : "https://open.spotify.com/track/7vZ1H0vo8L6w6k5odhkjEr"
      },
      "href" : "https://api.spotify.com/v1/tracks/7vZ1H0vo8L6w6k5odhkjEr",
      "id" : "7vZ1H0vo8L6w6k5odhkjEr",
      "is_local" : false,
      "is_playable" : true,
      "name" : "Open the Eyes of My Heart / Lord I Give You My Heart",
      "popularity" : 41,
      "preview_url" : "https://p.scdn.co/mp3-preview/cf8a50a6f38a01e6fe8766834d468b3c1b9b7619?cid=774b29d4f13844c495f206cafdad9c86",
      "track_number" : 8,
      "type" : "track",
      "uri" : "spotify:track:7vZ1H0vo8L6w6k5odhkjEr"
    }, {
      "album" : {
        "album_type" : "album",
        "artists" : [ {
          "external_urls" : {
            "spotify" : "https://open.spotify.com/artist/32DWM2tctxuDatAYWHjCtC"
          },
          "href" : "https://api.spotify.com/v1/artists/32DWM2tctxuDatAYWHjCtC",
          "id" : "32DWM2tctxuDatAYWHjCtC",
          "name" : "Hymns on Piano",
          "type" : "artist",
          "uri" : "spotify:artist:32DWM2tctxuDatAYWHjCtC"
        } ],
        "external_urls" : {
          "spotify" : "https://open.spotify.com/album/5fQB6By4CMRW3x9z8htgwx"
        },
        "href" : "https://api.spotify.com/v1/albums/5fQB6By4CMRW3x9z8htgwx",
        "id" : "5fQB6By4CMRW3x9z8htgwx",
        "images" : [ {
          "height" : 640,
          "url" : "https://i.scdn.co/image/ab67616d0000b273cdaab5da231683ce044564f9",
          "width" : 640
        }, {
          "height" : 300,
          "url" : "https://i.scdn.co/image/ab67616d00001e02cdaab5da231683ce044564f9",
          "width" : 300
        }, {
          "height" : 64,
          "url" : "https://i.scdn.co/image/ab67616d00004851cdaab5da231683ce044564f9",
          "width" : 64
        } ],
        "name" : "Hymns of Worship, Vol. 5",
        "release_date" : "2017-09-08",
        "release_date_precision" : "day",
        "total_tracks" : 15,
        "type" : "album",
        "uri" : "spotify:album:5fQB6By4CMRW3x9z8htgwx"
      },
      "artists" : [ {
        "external_urls" : {
          "spotify" : "https://open.spotify.com/artist/32DWM2tctxuDatAYWHjCtC"
        },
        "href" : "https://api.spotify.com/v1/artists/32DWM2tctxuDatAYWHjCtC",
        "id" : "32DWM2tctxuDatAYWHjCtC",
        "name" : "Hymns on Piano",
        "type" : "artist",
        "uri" : "spotify:artist:32DWM2tctxuDatAYWHjCtC"
      } ],
      "disc_number" : 1,
      "duration_ms" : 268982,
      "explicit" : false,
      "external_ids" : {
        "isrc" : "QZ22B1833441"
      },
      "external_urls" : {
        "spotify" : "https://open.spotify.com/track/0fYSlpw5UlanaRBnCsWQ7V"
      },
      "href" : "https://api.spotify.com/v1/tracks/0fYSlpw5UlanaRBnCsWQ7V",
      "id" : "0fYSlpw5UlanaRBnCsWQ7V",
      "is_local" : false,
      "is_playable" : true,
      "name" : "Were You There When They Crucified My Lord?",
      "popularity" : 36,
      "preview_url" : "https://p.scdn.co/mp3-preview/f504c122403dfec8c9a333ce1eb3a43c552a9e70?cid=774b29d4f13844c495f206cafdad9c86",
      "track_number" : 14,
      "type" : "track",
      "uri" : "spotify:track:0fYSlpw5UlanaRBnCsWQ7V"
    }, {
      "album" : {
        "album_type" : "album",
        "artists" : [ {
          "external_urls" : {
            "spotify" : "https://open.spotify.com/artist/1ULK7BJuhRju0pfOvbQtkc"
          },
          "href" : "https://api.spotify.com/v1/artists/1ULK7BJuhRju0pfOvbQtkc",
          "id" : "1ULK7BJuhRju0pfOvbQtkc",
          "name" : "David Bauer",
          "type" : "artist",
          "uri" : "spotify:artist:1ULK7BJuhRju0pfOvbQtkc"
        } ],
        "external_urls" : {
          "spotify" : "https://open.spotify.com/album/1pL9g4YreUb23GTI2fDUsf"
        },
        "href" : "https://api.spotify.com/v1/albums/1pL9g4YreUb23GTI2fDUsf",
        "id" : "1pL9g4YreUb23GTI2fDUsf",
        "images" : [ {
          "height" : 640,
          "url" : "https://i.scdn.co/image/ab67616d0000b2736140cc94093febfcddf48d86",
          "width" : 640
        }, {
          "height" : 300,
          "url" : "https://i.scdn.co/image/ab67616d00001e026140cc94093febfcddf48d86",
          "width" : 300
        }, {
          "height" : 64,
          "url" : "https://i.scdn.co/image/ab67616d000048516140cc94093febfcddf48d86",
          "width" : 64
        } ],
        "name" : "Quiet Moments of Instrumental Worship",
        "release_date" : "2000",
        "release_date_precision" : "year",
        "total_tracks" : 16,
        "type" : "album",
        "uri" : "spotify:album:1pL9g4YreUb23GTI2fDUsf"
      },
      "artists" : [ {
        "external_urls" : {
          "spotify" : "https://open.spotify.com/artist/1ULK7BJuhRju0pfOvbQtkc"
        },
        "href" : "https://api.spotify.com/v1/artists/1ULK7BJuhRju0pfOvbQtkc",
        "id" : "1ULK7BJuhRju0pfOvbQtkc",
        "name" : "David Bauer",
        "type" : "artist",
        "uri" : "spotify:artist:1ULK7BJuhRju0pfOvbQtkc"
      } ],
      "disc_number" : 1,
      "duration_ms" : 248706,
      "explicit" : false,
      "external_ids" : {
        "isrc" : "USA370337802"
      },
      "external_urls" : {
        "spotify" : "https://open.spotify.com/track/2b7I1z5JP00bZBOclrQyxb"
      },
      "href" : "https://api.spotify.com/v1/tracks/2b7I1z5JP00bZBOclrQyxb",
      "id" : "2b7I1z5JP00bZBOclrQyxb",
      "is_local" : false,
      "is_playable" : true,
      "name" : "I See the Lord",
      "popularity" : 38,
      "preview_url" : "https://p.scdn.co/mp3-preview/0b91d50bababa8848f623561226a8dddc78d9f78?cid=774b29d4f13844c495f206cafdad9c86",
      "track_number" : 15,
      "type" : "track",
      "uri" : "spotify:track:2b7I1z5JP00bZBOclrQyxb"
    }, {
      "album" : {
        "album_type" : "album",
        "artists" : [ {
          "external_urls" : {
            "spotify" : "https://open.spotify.com/artist/3SgHzT552wy2W8pNLaLk24"
          },
          "href" : "https://api.spotify.com/v1/artists/3SgHzT552wy2W8pNLaLk24",
          "id" : "3SgHzT552wy2W8pNLaLk24",
          "name" : "Hillsong Worship",
          "type" : "artist",
          "uri" : "spotify:artist:3SgHzT552wy2W8pNLaLk24"
        }, {
          "external_urls" : {
            "spotify" : "https://open.spotify.com/artist/72iDlGYfVrntfpKzmAv0Hn"
          },
          "href" : "https://api.spotify.com/v1/artists/72iDlGYfVrntfpKzmAv0Hn",
          "id" : "72iDlGYfVrntfpKzmAv0Hn",
          "name" : "Integrity's Hosanna! Music",
          "type" : "artist",
          "uri" : "spotify:artist:72iDlGYfVrntfpKzmAv0Hn"
        } ],
        "external_urls" : {
          "spotify" : "https://open.spotify.com/album/1oAH2mzkbV5UY9FvloQVHa"
        },
        "href" : "https://api.spotify.com/v1/albums/1oAH2mzkbV5UY9FvloQVHa",
        "id" : "1oAH2mzkbV5UY9FvloQVHa",
        "images" : [ {
          "height" : 640,
          "url" : "https://i.scdn.co/image/ab67616d0000b273d532d73082546da6df6d3e7d",
          "width" : 640
        }, {
          "height" : 300,
          "url" : "https://i.scdn.co/image/ab67616d00001e02d532d73082546da6df6d3e7d",
          "width" : 300
        }, {
          "height" : 64,
          "url" : "https://i.scdn.co/image/ab67616d00004851d532d73082546da6df6d3e7d",
          "width" : 64
        } ],
        "name" : "Shout to the Lord (Live)",
        "release_date" : "1996",
        "release_date_precision" : "year",
        "total_tracks" : 12,
        "type" : "album",
        "uri" : "spotify:album:1oAH2mzkbV5UY9FvloQVHa"
      },
      "artists" : [ {
        "external_urls" : {
          "spotify" : "https://open.spotify.com/artist/3SgHzT552wy2W8pNLaLk24"
        },
        "href" : "https://api.spotify.com/v1/artists/3SgHzT552wy2W8pNLaLk24",
        "id" : "3SgHzT552wy2W8pNLaLk24",
        "name" : "Hillsong Worship",
        "type" : "artist",
        "uri" : "spotify:artist:3SgHzT552wy2W8pNLaLk24"
      }, {
        "external_urls" : {
          "spotify" : "https://open.spotify.com/artist/72iDlGYfVrntfpKzmAv0Hn"
        },
        "href" : "https://api.spotify.com/v1/artists/72iDlGYfVrntfpKzmAv0Hn",
        "id" : "72iDlGYfVrntfpKzmAv0Hn",
        "name" : "Integrity's Hosanna! Music",
        "type" : "artist",
        "uri" : "spotify:artist:72iDlGYfVrntfpKzmAv0Hn"
      }, {
        "external_urls" : {
          "spotify" : "https://open.spotify.com/artist/6ZLy8YFk7VbamsI5qbYXtw"
        },
        "href" : "https://api.spotify.com/v1/artists/6ZLy8YFk7VbamsI5qbYXtw",
        "id" : "6ZLy8YFk7VbamsI5qbYXtw",
        "name" : "Darlene Zschech",
        "type" : "artist",
        "uri" : "spotify:artist:6ZLy8YFk7VbamsI5qbYXtw"
      } ],
      "disc_number" : 1,
      "duration_ms" : 215733,
      "explicit" : false,
      "external_ids" : {
        "isrc" : "USSM19703258"
      },
      "external_urls" : {
        "spotify" : "https://open.spotify.com/track/1hsbxu82J3uqLyvd5qxhdC"
      },
      "href" : "https://api.spotify.com/v1/tracks/1hsbxu82J3uqLyvd5qxhdC",
      "id" : "1hsbxu82J3uqLyvd5qxhdC",
      "is_local" : false,
      "is_playable" : true,
      "name" : "Jesus Lover of My Soul - Live",
      "popularity" : 42,
      "preview_url" : "https://p.scdn.co/mp3-preview/99fa44176db335136db70c24521078530a1e7b88?cid=774b29d4f13844c495f206cafdad9c86",
      "track_number" : 6,
      "type" : "track",
      "uri" : "spotify:track:1hsbxu82J3uqLyvd5qxhdC"
    }, {
      "album" : {
        "album_type" : "album",
        "artists" : [ {
          "external_urls" : {
            "spotify" : "https://open.spotify.com/artist/1ULK7BJuhRju0pfOvbQtkc"
          },
          "href" : "https://api.spotify.com/v1/artists/1ULK7BJuhRju0pfOvbQtkc",
          "id" : "1ULK7BJuhRju0pfOvbQtkc",
          "name" : "David Bauer",
          "type" : "artist",
          "uri" : "spotify:artist:1ULK7BJuhRju0pfOvbQtkc"
        } ],
        "external_urls" : {
          "spotify" : "https://open.spotify.com/album/1pL9g4YreUb23GTI2fDUsf"
        },
        "href" : "https://api.spotify.com/v1/albums/1pL9g4YreUb23GTI2fDUsf",
        "id" : "1pL9g4YreUb23GTI2fDUsf",
        "images" : [ {
          "height" : 640,
          "url" : "https://i.scdn.co/image/ab67616d0000b2736140cc94093febfcddf48d86",
          "width" : 640
        }, {
          "height" : 300,
          "url" : "https://i.scdn.co/image/ab67616d00001e026140cc94093febfcddf48d86",
          "width" : 300
        }, {
          "height" : 64,
          "url" : "https://i.scdn.co/image/ab67616d000048516140cc94093febfcddf48d86",
          "width" : 64
        } ],
        "name" : "Quiet Moments of Instrumental Worship",
        "release_date" : "2000",
        "release_date_precision" : "year",
        "total_tracks" : 16,
        "type" : "album",
        "uri" : "spotify:album:1pL9g4YreUb23GTI2fDUsf"
      },
      "artists" : [ {
        "external_urls" : {
          "spotify" : "https://open.spotify.com/artist/1ULK7BJuhRju0pfOvbQtkc"
        },
        "href" : "https://api.spotify.com/v1/artists/1ULK7BJuhRju0pfOvbQtkc",
        "id" : "1ULK7BJuhRju0pfOvbQtkc",
        "name" : "David Bauer",
        "type" : "artist",
        "uri" : "spotify:artist:1ULK7BJuhRju0pfOvbQtkc"
      } ],
      "disc_number" : 1,
      "duration_ms" : 254666,
      "explicit" : false,
      "external_ids" : {
        "isrc" : "USA370337792"
      },
      "external_urls" : {
        "spotify" : "https://open.spotify.com/track/6c0nM5bKjHv2GC5ckMXONu"
      },
      "href" : "https://api.spotify.com/v1/tracks/6c0nM5bKjHv2GC5ckMXONu",
      "id" : "6c0nM5bKjHv2GC5ckMXONu",
      "is_local" : false,
      "is_playable" : true,
      "name" : "Humble Thyself in the Sight of the Lord",
      "popularity" : 37,
      "preview_url" : "https://p.scdn.co/mp3-preview/78f99eaeca0b7aa8fd69e213c60bf55bb3b40c53?cid=774b29d4f13844c495f206cafdad9c86",
      "track_number" : 5,
      "type" : "track",
      "uri" : "spotify:track:6c0nM5bKjHv2GC5ckMXONu"
    }, {
      "album" : {
        "album_type" : "album",
        "artists" : [ {
          "external_urls" : {
            "spotify" : "https://open.spotify.com/artist/1TwYFIkuvKwm21CCns3fY2"
          },
          "href" : "https://api.spotify.com/v1/artists/1TwYFIkuvKwm21CCns3fY2",
          "id" : "1TwYFIkuvKwm21CCns3fY2",
          "name" : "Worship Music Piano",
          "type" : "artist",
          "uri" : "spotify:artist:1TwYFIkuvKwm21CCns3fY2"
        } ],
        "external_urls" : {
          "spotify" : "https://open.spotify.com/album/1Gahtuq806krrIAM4pakHk"
        },
        "href" : "https://api.spotify.com/v1/albums/1Gahtuq806krrIAM4pakHk",
        "id" : "1Gahtuq806krrIAM4pakHk",
        "images" : [ {
          "height" : 640,
          "url" : "https://i.scdn.co/image/ab67616d0000b2730c962b26ae4423718ca16af1",
          "width" : 640
        }, {
          "height" : 300,
          "url" : "https://i.scdn.co/image/ab67616d00001e020c962b26ae4423718ca16af1",
          "width" : 300
        }, {
          "height" : 64,
          "url" : "https://i.scdn.co/image/ab67616d000048510c962b26ae4423718ca16af1",
          "width" : 64
        } ],
        "name" : "Songs of Thanksgiving - Volume 1",
        "release_date" : "2015-11-13",
        "release_date_precision" : "day",
        "total_tracks" : 15,
        "type" : "album",
        "uri" : "spotify:album:1Gahtuq806krrIAM4pakHk"
      },
      "artists" : [ {
        "external_urls" : {
          "spotify" : "https://open.spotify.com/artist/1TwYFIkuvKwm21CCns3fY2"
        },
        "href" : "https://api.spotify.com/v1/artists/1TwYFIkuvKwm21CCns3fY2",
        "id" : "1TwYFIkuvKwm21CCns3fY2",
        "name" : "Worship Music Piano",
        "type" : "artist",
        "uri" : "spotify:artist:1TwYFIkuvKwm21CCns3fY2"
      } ],
      "disc_number" : 1,
      "duration_ms" : 265631,
      "explicit" : false,
      "external_ids" : {
        "isrc" : "USE831517018"
      },
      "external_urls" : {
        "spotify" : "https://open.spotify.com/track/59vGJwmwVJt4AAirfA8NmQ"
      },
      "href" : "https://api.spotify.com/v1/tracks/59vGJwmwVJt4AAirfA8NmQ",
      "id" : "59vGJwmwVJt4AAirfA8NmQ",
      "is_local" : false,
      "is_playable" : true,
      "name" : "10,000 Reasons (Bless the Lord)",
      "popularity" : 38,
      "preview_url" : "https://p.scdn.co/mp3-preview/bf500cac4e9bbcacd2683d5cb1dd8844b96e6094?cid=774b29d4f13844c495f206cafdad9c86",
      "track_number" : 6,
      "type" : "track",
      "uri" : "spotify:track:59vGJwmwVJt4AAirfA8NmQ"
    } ],
    "limit" : 10,
    "next" : "https://api.spotify.com/v1/search?query=O+Worship+the+Lord&type=track&market=US&offset=15&limit=10",
    "offset" : 5,
    "previous" : "https://api.spotify.com/v1/search?query=O+Worship+the+Lord&type=track&market=US&offset=0&limit=10",
    "total" : 2526
  }
}