{
  "tracks" : {
    "href" : "https://api.spotify.com/v1/search?query=Come%2C+Thou+Fount+of+Every+Blessing&type=track&market=US&offset=5&limit=10",
    "items" : [ {
      "album" : {
        "album_type" : "album",
        "artists" : [ {
          "external_urls" : {
            "spotify" : "https://open.spotify.com/artist/7zbq3gjHu4JAiMV7dWbUdv"
          },
          "href" : "https://api.spotify.com/v1/artists/7zbq3gjHu4JAiMV7dWbUdv",
          "id" : "7zbq3gjHu4JAiMV7dWbUdv",
          "name" : "David Nevue",
          "type" : "artist",
          "uri" : "spotify:artist:7zbq3gjHu4JAiMV7dWbUdv"
        } ],
        "external_urls" : {
          "spotify" : "https://open.spotify.com/album/5bc6WPPQfnqx5tgKuTQrlo"
        },
        "href" : "https://api.spotify.com/v1/albums/5bc6WPPQfnqx5tgKuTQrlo",
        "id" : "5bc6WPPQfnqx5tgKuTQrlo",
        "images" : [ {
          "height" : 640,
          "url" : "https://i.scdn.co/image/ab67616d0000b27311f4bb63adbe5e666015e0af",
          "width" : 640
        }, {
          "height" : 300,
          "url" : "https://i.scdn.co/image/ab67616d00001e0211f4bb63adbe5e666015e0af",
          "width" : 300
        }, {
          "height" : 64,
          "url" : "https://i.scdn.co/image/ab67616d0000485111f4bb63adbe5e666015e0af",
          "width" : 64
        } ],
        "name" : "Adoration: Solo Piano Hymns",
        "release_date" : "2007-11-28",
        "release_date_precision" : "day",
        "total_tracks" : 15,
        "type" : "album",
        "uri" : "spotify:album:5bc6WPPQfnqx5tgKuTQrlo"
      },
      "artists" : [ {
        "external_urls" : {
          "spotify" : "https://open.spotify.com/artist/7zbq3gjHu4JAiMV7dWbUdv"
        },
        "href" : "https://api.spotify.com/v1/artists/7zbq3gjHu4JAiMV7dWbUdv",
        "id" : "7zbq3gjHu4JAiMV7dWbUdv",
        "name" : "David Nevue",
        "type" : "artist",
        "uri" : "spotify:artist:7zbq3gjHu4JAiMV7dWbUdv"
      } ],
      "disc_number" : 1,
      "duration_ms" : 239466,
      "explicit" : false,
      "external_ids" : {
        "isrc" : "usl4q0775302"
      },
      "external_urls" : {
        "spotify" : "https://open.spotify.com/track/1Cq8eUQfdmW2Qwnv8CFLvB"
      },
      "href" : "https://api.spotify.com/v1/tracks/1Cq8eUQfdmW2Qwnv8CFLvB",
      "id" : "1Cq8eUQfdmW2Qwnv8CFLvB",
      "is_local" : false,
      "is_playable" : true,
      "name" : "Come Thou Fount Of Every Blessing",
      "popularity" : 39,
      "preview_url" : "https://p.scdn.co/mp3-preview/6a9d512dfd12023f586be05dd2517327ad3c0bd3?cid=774b29d4f13844c495f206cafdad9c86",
      "track_number" : 2,
      "type" : "track",
      "uri" : "spotify:track:1Cq8eUQfdmW2Qwnv8CFLvB"
    }, {
      "album" : {
        "album_type" : "album",
        "artists" : [ {
          "external_urls" : {
            "spotify" : "https://open.spotify.com/artist/2duo4NJtUrLaI38trK0hht"
          },
          "href" : "https://api.spotify.com/v1/artists/2duo4NJtUrLaI38trK0hht",
          "id" : "2duo4NJtUrLaI38trK0hht",
          "name" : "Mormon Tabernacle Choir",
          "type" : "artist",
          "uri" : "spotify:artist:2duo4NJtUrLaI38trK0hht"
        }, {
          "external_urls" : {
            "spotify" : "https://open.spotify.com/artist/4kAIRZipPTtTbZBTudxcEA"
          },
          "href" : "https://api.spotify.com/v1/artists/4kAIRZipPTtTbZBTudxcEA",
          "id" : "4kAIRZipPTtTbZBTudxcEA",
          "name" : "Orchestra at Temple Square",
          "type" : "artist",
          "uri" : "spotify:artist:4kAIRZipPTtTbZBTudxcEA"
        }, {
          "external_urls" : {
            "spotify" : "https://open.spotify.com/artist/2Zpql3RdMQjunbDKk1bIiz"
          },
          "href" : "https://api.spotify.com/v1/artists/2Zpql3RdMQjunbDKk1bIiz",
          "id" : "2Zpql3RdMQjunbDKk1bIiz",
          "name" : "Mack Wilberg",
          "type" : "artist",
          "uri" : "spotify:artist:2Zpql3RdMQjunbDKk1bIiz"
        } ],
        "external_urls" : {
          "spotify" : "https://open.spotify.com/album/6f2T40RUt8nuWyfaa8Pezq"
        },
        "href" : "https://api.spotify.com/v1/albums/6f2T40RUt8nuWyfaa8Pezq",
        "id" : "6f2T40RUt8nuWyfaa8Pezq",
        "images" : [ {
          "height" : 640,
          "url" : "https://i.scdn.co/image/ab67616d0000b2738283e8ba1cfe5cf2ab13a30d",
          "width" : 640
        }, {
          "height" : 300,
          "url" : "https://i.scdn.co/image/ab67616d00001e028283e8ba1cfe5cf2ab13a30d",
          "width" : 300
        }, {
          "height" : 64,
          "url" : "https://i.scdn.co/image/ab67616d000048518283e8ba1cfe5cf2ab13a30d",
          "width" : 64
        } ],
        "name" : "Come, Thou Fount of Every Blessing: American Folk Hymns & Spirituals",
        "release_date" : "2009-03-24",
        "release_date_precision" : "day",
        "total_tracks" : 17,
        "type" : "album",
        "uri" : "spotify:album:6f2T40RUt8nuWyfaa8Pezq"
      },
      "artists" : [ {
        "external_urls" : {
          "spotify" : "https://open.spotify.com/artist/2duo4NJtUrLaI38trK0hht"
        },
        "href" : "https://api.spotify.com/v1/artists/2duo4NJtUrLaI38trK0hht",
        "id" : "2duo4NJtUrLaI38trK0hht",
        "name" : "Mormon Tabernacle Choir",
        "type" : "artist",
        "uri" : "spotify:artist:2duo4NJtUrLaI38trK0hht"
      }, {
        "external_urls" : {
          "spotify" : "https://open.spotify.com/artist/4kAIRZipPTtTbZBTudxcEA"
        },
        "href" : "https://api.spotify.com/v1/artists/4kAIRZipPTtTbZBTudxcEA",
        "id" : "4kAIRZipPTtTbZBTudxcEA",
        "name" : "Orchestra at Temple Square",
        "type" : "artist",
        "uri" : "spotify:artist:4kAIRZipPTtTbZBTudxcEA"
      }, {
        "external_urls" : {
          "spotify" : "https://open.spotify.com/artist/2Zpql3RdMQjunbDKk1bIiz"
        },
        "href" : "https://api.spotify.com/v1/artists/2Zpql3RdMQjunbDKk1bIiz",
        "id" : "2Zpql3RdMQjunbDKk1bIiz",
        "name" : "Mack Wilberg",
        "type" : "artist",
        "uri" : "spotify:artist:2Zpql3RdMQjunbDKk1bIiz"
      } ],
      "disc_number" : 1,
      "duration_ms" : 378093,
      "explicit" : false,
      "external_ids" : {
        "isrc" : "US23M0900100"
      },
      "external_urls" : {
        "spotify" : "https://open.spotify.com/track/3ewplKBz7XnhotTji1qltE"
      },
      "href" : "https://api.spotify.com/v1/tracks/3ewplKBz7XnhotTji1qltE",
      "id" : "3ewplKBz7XnhotTji1qltE",
      "is_local" : false,
      "is_playable" : true,
      "name" : "Come, Thou Fount of Every Blessing",
      "popularity" : 36,
      "preview_url" : "https://p.scdn.co/mp3-preview/165ae7a4120eef5690534c66dd370eb79d4afb56?cid=774b29d4f13844c495f206cafdad9c86",
      "track_number" : 17,
      "type" : "track",
      "uri" : "spotify:track:3ewplKBz7XnhotTji1qltE"
    }, {
      "album" : {
        "album_type" : "album",
        "artists" : [ {
          "external_urls" : {
            "spotify" : "https://open.spotify.com/artist/6mGZXaZ4SWNh6IsJ57thCp"
          },
          "href" : "https://api.spotify.com/v1/artists/6mGZXaZ4SWNh6IsJ57thCp",
          "id" : "6mGZXaZ4SWNh6IsJ57thCp",
          "name" : "Fernando Ortega",
          "type" : "artist",
          "uri" : "spotify:artist:6mGZXaZ4SWNh6IsJ57thCp"
        } ],
        "external_urls" : {
          "spotify" : "https://open.spotify.com/album/6z9Nqnjlzshre4yCUD2CLf"
        },
        "href" : "https://api.spotify.com/v1/albums/6z9Nqnjlzshre4yCUD2CLf",
        "id" : "6z9Nqnjlzshre4yCUD2CLf",
        "images" : [ {
          "height" : 640,
          "url" : "https://i.scdn.co/image/ab67616d0000b273decae2b70531fb303778b5c5",
          "width" : 640
        }, {
          "height" : 300,
          "url" : "https://i.scdn.co/image/ab67616d00001e02decae2b70531fb303778b5c5",
          "width" : 300
        }, {
          "height" : 64,
          "url" : "https://i.scdn.co/image/ab67616d00004851decae2b70531fb303778b5c5",
          "width" : 64
        } ],
        "name" : "Hymns & Meditations",
        "release_date" : "1994-01-01",
        "release_date_precision" : "day",
        "total_tracks" : 10,
        "type" : "album",
        "uri" : "spotify:album:6z9Nqnjlzshre4yCUD2CLf"
      },
      "artists" : [ {
        "external_urls" : {
          "spotify" : "https://open.spotify.com/artist/6mGZXaZ4SWNh6IsJ57thCp"
        },
        "href" : "https://api.spotify.com/v1/artists/6mGZXaZ4SWNh6IsJ57thCp",
        "id" : "6mGZXaZ4SWNh6IsJ57thCp",
        "name" : "Fernando Ortega",
        "type" : "artist",
        "uri" : "spotify:artist:6mGZXaZ4SWNh6IsJ57thCp"
      } ],
      "disc_number" : 1,
      "duration_ms" : 269973,
      "explicit" : false,
      "external_ids" : {
        "isrc" : "ushm90539258"
      },
      "external_urls" : {
        "spotify" : "https://open.spotify.com/track/5plfMm5XyAW93RXWIKhwwz"
      },
      "href" : "https://api.spotify.com/v1/tracks/5plfMm5XyAW93RXWIKhwwz",
      "id" : "5plfMm5XyAW93RXWIKhwwz",
      "is_local" : false,
      "is_playable" : true,
      "name" : "Come Thou Fount of Every Blessing",
      "popularity" : 35,
      "preview_url" : "https://p.scdn.co/mp3-preview/d6528ea6f84e93f041f8ba0b307e39d50b1877b8?cid=774b29d4f13844c495f206cafdad9c86",
      "track_number" : 1,
      "type" : "track",
      "uri" : "spotify:track:5plfMm5XyAW93RXWIKhwwz"
    }, {
      "album" : {
        "album_type" : "single",
        "artists" : [ {
          "external_urls" : {
            "spotify" : "https://open.spotify.com/artist/1jmJ7gGsC5tgoQYXDnXArP"
          },
          "href" : "https://api.spotify.com/v1/artists/1jmJ7gGsC5tgoQYXDnXArP",
          "id" : "1jmJ7gGsC5tgoQYXDnXArP",
          "name" : "Cross Gray",
          "type" : "artist",
          "uri" : "spotify:artist:1jmJ7gGsC5tgoQYXDnXArP"
        } ],
        "external_urls" : {
          "spotify" : "https://open.spotify.com/album/0makQ28NRMiZ1RsM9sUozp"
        },
        "href" : "https://api.spotify.com/v1/albums/0makQ28NRMiZ1RsM9sUozp",
        "id" : "0makQ28NRMiZ1RsM9sUozp",
        "images" : [ {
          "height" : 640,
          "url" : "https://i.scdn.co/image/ab67616d0000b2731f8393bcf7cac81e2efcce42",
          "width" : 640
        }, {
          "height" : 300,
          "url" : "https://i.scdn.co/image/ab67616d00001e021f8393bcf7cac81e2efcce42",
          "width" : 300
        }, {
          "height" : 64,
          "url" : "https://i.scdn.co/image/ab67616d000048511f8393bcf7cac81e2efcce42",
          "width" : 64
        } ],
        "name" : "Come Thou Fount of Every Blessing",
        "release_date" : "2019-04-24",
        "release_date_precision" : "day",
        "total_tracks" : 1,
        "type" : "album",
        "uri" : "spotify:album:0makQ28NRMiZ1RsM9sUozp"
      },
      "artists" : [ {
        "external_urls" : {
          "spotify" : "https://open.spotify.com/artist/1jmJ7gGsC5tgoQYXDnXArP"
        },
        "href" : "https://api.spotify.com/v1/artists/1jmJ7gGsC5tgoQYXDnXArP",
        "id" : "1jmJ7gGsC5tgoQYXDnXArP",
        "name" : "Cross Gray",
        "type" : "artist",
        "uri" : "spotify:artist:1jmJ7gGsC5tgoQYXDnXArP"
      } ],
      "disc_number" : 1,
      "duration_ms" : 263954,
      "explicit" : false,
      "external_ids" : {
        "isrc" : "QZES71969219"
      },
      "external_urls" : {
        "spotify" : "https://open.spotify.com/track/5kbl04brVXsCOyDIHPVStj"
      },
      "href" : "https://api.spotify.com/v1/tracks/5kbl04brVXsCOyDIHPVStj",
      "id" : "5kbl04brVXsCOyDIHPVStj",
      "is_local" : false,
      "is_playable" : true,
      "name" : "Come Thou Fount of Every Blessing",
      "popularity" : 32,
      "preview_url" : "https://p.scdn.co/mp3-preview/fb8feac067248d48060d218e2f4330f338949e7a?cid=774b29d4f13844c495f206cafdad9c86",
      "track_number" : 1,
      "type" : "track",
      "uri" : "spotify:track:5kbl04brVXsCOyDIHPVStj"
    }, {
      "album" : {
        "album_type" : "single",
        "artists" : [ {
          "external_urls" : {
            "spotify" : "https://open.spotify.com/artist/7Lcufo2TcRg56x6KUmhlOc"
          },
          "href" : "https://api.spotify.com/v1/artists/7Lcufo2TcRg56x6KUmhlOc",
          "id" : "7Lcufo2TcRg56x6KUmhlOc",
          "name" : "John Bladh",
          "type" : "artist",
          "uri" : "spotify:artist:7Lcufo2TcRg56x6KUmhlOc"
        } ],
        "external_urls" : {
          "spotify" : "https://open.spotify.com/album/0ZqKApps6FNEiOGYhZ2MKZ"
        },
        "href" : "https://api.spotify.com/v1/albums/0ZqKApps6FNEiOGYhZ2MKZ",
        "id" : "0ZqKApps6FNEiOGYhZ2MKZ",
        "images" : [ {
          "height" : 640,
          "url" : "https://i.scdn.co/image/ab67616d0000b273b080ccf25596a8d7be623d30",
          "width" : 640
        }, {
          "height" : 300,
          "url" : "https://i.scdn.co/image/ab67616d00001e02b080ccf25596a8d7be623d30",
          "width" : 300
        }, {
          "height" : 64,
          "url" : "https://i.scdn.co/image/ab67616d00004851b080ccf25596a8d7be623d30",
          "width" : 64
        } ],
        "name" : "Joy Of Christmas",
        "release_date" : "2018-10-11",
        "release_date_precision" : "day",
        "total_tracks" : 3,
        "type" : "album",
        "uri" : "spotify:album:0ZqKApps6FNEiOGYhZ2MKZ"
      },
      "artists" : [ {
        "external_urls" : {
          "spotify" : "https://open.spotify.com/artist/7Lcufo2TcRg56x6KUmhlOc"
        },
        "href" : "https://api.spotify.com/v1/artists/7Lcufo2TcRg56x6KUmhlOc",
        "id" : "7Lcufo2TcRg56x6KUmhlOc",
        "name" : "John Bladh",
        "type" : "artist",
        "uri" : "spotify:artist:7Lcufo2TcRg56x6KUmhlOc"
      } ],
      "disc_number" : 1,
      "duration_ms" : 166457,
      "explicit" : false,
      "external_ids" : {
        "isrc" : "SE5ZO1802501"
      },
      "external_urls" : {
        "spotify" : "https://open.spotify.com/track/1m7kMiFTMuH3gBAZsNXC5B"
      },
      "href" : "https://api.spotify.com/v1/tracks/1m7kMiFTMuH3gBAZsNXC5B",
      "id" : "1m7kMiFTMuH3gBAZsNXC5B",
      "is_local" : false,
      "is_playable" : true,
      "name" : "Come Thou Fount Of Every Blessing",
      "popularity" : 33,
      "preview_url" : "https://p.scdn.co/mp3-preview/3f48e078d6aab4874cedb81f1e13154395fdf38a?cid=774b29d4f13844c495f206cafdad9c86",
      "track_number" : 1,
      "type" : "track",
      "uri" : "spotify:track:1m7kMiFTMuH3gBAZsNXC5B"
    }, {
      "album" : {
        "album_type" : "album",
        "artists" : [ {
          "external_urls" : {
            "spotify" : "https://open.spotify.com/artist/44nxpJ4QALHoSoUFpWiIQc"
          },
          "href" : "https://api.spotify.com/v1/artists/44nxpJ4QALHoSoUFpWiIQc",
          "id" : "44nxpJ4QALHoSoUFpWiIQc",
          "name" : "David Andrew",
          "type" : "artist",
          "uri" : "spotify:artist:44nxpJ4QALHoSoUFpWiIQc"
        } ],
        "external_urls" : {
          "spotify" : "https://open.spotify.com/album/7h6OVZnXZ0yVJLf2Ou96lK"
        },
        "href" : "https://api.spotify.com/v1/albums/7h6OVZnXZ0yVJLf2Ou96lK",
        "id" : "7h6OVZnXZ0yVJLf2Ou96lK",
        "images" : [ {
          "height" : 640,
          "url" : "https://i.scdn.co/image/ab67616d0000b27308c8470894966ce4724c041f",
          "width" : 640
        }, {
          "height" : 300,
          "url" : "https://i.scdn.co/image/ab67616d00001e0208c8470894966ce4724c041f",
          "width" : 300
        }, {
          "height" : 64,
          "url" : "https://i.scdn.co/image/ab67616d0000485108c8470894966ce4724c041f",
          "width" : 64
        } ],
        "name" : "Hymns",
        "release_date" : "2020-03-26",
        "release_date_precision" : "day",
        "total_tracks" : 11,
        "type" : "album",
        "uri" : "spotify:album:7h6OVZnXZ0yVJLf2Ou96lK"
      },
      "artists" : [ {
        "external_urls" : {
          "spotify" : "https://open.spotify.com/artist/44nxpJ4QALHoSoUFpWiIQc"
        },
        "href" : "https://api.spotify.com/v1/artists/44nxpJ4QALHoSoUFpWiIQc",
        "id" : "44nxpJ4QALHoSoUFpWiIQc",
        "name" : "David Andrew",
        "type" : "artist",
        "uri" : "spotify:artist:44nxpJ4QALHoSoUFpWiIQc"
      } ],
      "disc_number" : 1,
      "duration_ms" : 228437,
      "explicit" : false,
      "external_ids" : {
        "isrc" : "QZDA42028020"
      },
      "external_urls" : {
        "spotify" : "https://open.spotify.com/track/57XcN8nlNRgevprmkniOOO"
      },
      "href" : "https://api.spotify.com/v1/tracks/57XcN8nlNRgevprmkniOOO",
      "id" : "57XcN8nlNRgevprmkniOOO",
      "is_local" : false,
      "is_playable" : true,
      "name" : "Come Thou Fount of Every Blessing",
      "popularity" : 32,
      "preview_url" : "https://p.scdn.co/mp3-preview/eee29453dd0b912772afb1b38da3600929956a25?cid=774b29d4f13844c495f206cafdad9c86",
      "track_number" : 2,
      "type" : "track",
      "uri" : "spotify:track:57XcN8nlNRgevprmkniOOO"
    }, {
      "album" : {
        "album_type" : "album",
        "artists" : [ {
          "external_urls" : {
            "spotify" : "https://open.spotify.com/artist/3OvrUspbOHgGI6T7D5Fb6P"
          },
          "href" : "https://api.spotify.com/v1/artists/3OvrUspbOHgGI6T7D5Fb6P",
          "id" : "3OvrUspbOHgGI6T7D5Fb6P",
          "name" : "David Tolk",
          "type" : "artist",
          "uri" : "spotify:artist:3OvrUspbOHgGI6T7D5Fb6P"
        } ],
        "external_urls" : {
          "spotify" : "https://open.spotify.com/album/6GSgtoRRbRzR5zooxVCL7j"
        },
        "href" : "https://api.spotify.com/v1/albums/6GSgtoRRbRzR5zooxVCL7j",
        "id" : "6GSgtoRRbRzR5zooxVCL7j",
        "images" : [ {
          "height" : 640,
          "url" : "https://i.scdn.co/image/ab67616d0000b273676879a79339f0a158869c51",
          "width" : 640
        }, {
          "height" : 300,
          "url" : "https://i.scdn.co/image/ab67616d00001e02676879a79339f0a158869c51",
          "width" : 300
        }, {
          "height" : 64,
          "url" : "https://i.scdn.co/image/ab67616d00004851676879a79339f0a158869c51",
          "width" : 64
        } ],
        "name" : "In Reverence",
        "release_date" : "2006-10-26",
        "release_date_precision" : "day",
        "total_tracks" : 10,
        "type" : "album",
        "uri" : "spotify:album:6GSgtoRRbRzR5zooxVCL7j"
      },
      "artists" : [ {
        "external_urls" : {
          "spotify" : "https://open.spotify.com/artist/3OvrUspbOHgGI6T7D5Fb6P"
        },
        "href" : "https://api.spotify.com/v1/artists/3OvrUspbOHgGI6T7D5Fb6P",
        "id" : "3OvrUspbOHgGI6T7D5Fb6P",
        "name" : "David Tolk",
        "type" : "artist",
        "uri" : "spotify:artist:3OvrUspbOHgGI6T7D5Fb6P"
      } ],
      "disc_number" : 1,
      "duration_ms" : 314253,
      "explicit" : false,
      "external_ids" : {
        "isrc" : "ushm90657837"
      },
      "external_urls" : {
        "spotify" : "https://open.spotify.com/track/2kzo243k5Tw1lCwhG1lqjL"
      },
      "href" : "https://api.spotify.com/v1/tracks/2kzo243k5Tw1lCwhG1lqjL",
      "id" : "2kzo243k5Tw1lCwhG1lqjL",
      "is_local" : false,
      "is_playable" : true,
      "name" : "Come Thou Fount of Every Blessing",
      "popularity" : 28,
      "preview_url" : "https://p.scdn.co/mp3-preview/bcb587d8c987f4658a7c4c85fb6a650bdcd59789?cid=774b29d4f13844c495f206cafdad9c86",
      "track_number" : 8,
      "type" : "track",
      "uri" : "spotify:track:2kzo243k5Tw1lCwhG1lqjL"
    }, {
      "album" : {
        "album_type" : "album",
        "artists" : [ {
          "external_urls" : {
            "spotify" : "https://open.spotify.com/artist/6mGZXaZ4SWNh6IsJ57thCp"
          },
          "href" : "https://api.spotify.com/v1/artists/6mGZXaZ4SWNh6IsJ57thCp",
          "id" : "6mGZXaZ4SWNh6IsJ57thCp",
          "name" : "Fernando Ortega",
          "type" : "artist",
          "uri" : "spotify:artist:6mGZXaZ4SWNh6IsJ57thCp"
        } ],
        "external_urls" : {
          "spotify" : "https://open.spotify.com/album/6b5XytCLYrxIjlxTQgcoz7"
        },
        "href" : "https://api.spotify.com/v1/albums/6b5XytCLYrxIjlxTQgcoz7",
        "id" : "6b5XytCLYrxIjlxTQgcoz7",
        "images" : [ {
          "height" : 640,
          "url" : "https://i.scdn.co/image/ab67616d0000b273d93002fcb77598c2cf9b08c7",
          "width" : 640
        }, {
          "height" : 300,
          "url" : "https://i.scdn.co/image/ab67616d00001e02d93002fcb77598c2cf9b08c7",
          "width" : 300
        }, {
          "height" : 64,
          "url" : "https://i.scdn.co/image/ab67616d00004851d93002fcb77598c2cf9b08c7",
          "width" : 64
        } ],
        "name" : "BEGINNINGS - 2 CD Set",
        "release_date" : "2005-02-25",
        "release_date_precision" : "day",
        "total_tracks" : 34,
        "type" : "album",
        "uri" : "spotify:album:6b5XytCLYrxIjlxTQgcoz7"
      },
      "artists" : [ {
        "external_urls" : {
          "spotify" : "https://open.spotify.com/artist/6mGZXaZ4SWNh6IsJ57thCp"
        },
        "href" : "https://api.spotify.com/v1/artists/6mGZXaZ4SWNh6IsJ57thCp",
        "id" : "6mGZXaZ4SWNh6IsJ57thCp",
        "name" : "Fernando Ortega",
        "type" : "artist",
        "uri" : "spotify:artist:6mGZXaZ4SWNh6IsJ57thCp"
      } ],
      "disc_number" : 1,
      "duration_ms" : 271840,
      "explicit" : false,
      "external_ids" : {
        "isrc" : "ushm90539044"
      },
      "external_urls" : {
        "spotify" : "https://open.spotify.com/track/03mAy6iIM0mrsL7f84cNKR"
      },
      "href" : "https://api.spotify.com/v1/tracks/03mAy6iIM0mrsL7f84cNKR",
      "id" : "03mAy6iIM0mrsL7f84cNKR",
      "is_local" : false,
      "is_playable" : true,
      "name" : "Come Thou Fount Of Every Blessing",
      "popularity" : 29,
      "preview_url" : "https://p.scdn.co/mp3-preview/43f1f3b2af8f53e56bea73568b9fa9ea2b0e4288?cid=774b29d4f13844c495f206cafdad9c86",
      "track_number" : 1,
      "type" : "track",
      "uri" : "spotify:track:03mAy6iIM0mrsL7f84cNKR"
    }, {
      "album" : {
        "album_type" : "album",
        "artists" : [ {
          "external_urls" : {
            "spotify" : "https://open.spotify.com/artist/4BzWEkmu4xRDg4aaoyKrdT"
          },
          "href" : "https://api.spotify.com/v1/artists/4BzWEkmu4xRDg4aaoyKrdT",
          "id" : "4BzWEkmu4xRDg4aaoyKrdT",
          "name" : "Jonathan Keith",
          "type" : "artist",
          "uri" : "spotify:artist:4BzWEkmu4xRDg4aaoyKrdT"
        } ],
        "external_urls" : {
          "spotify" : "https://open.spotify.com/album/5tXap1krss2xkZRgtEJ6VT"
        },
        "href" : "https://api.spotify.com/v1/albums/5tXap1krss2xkZRgtEJ6VT",
        "id" : "5tXap1krss2xkZRgtEJ6VT",
        "images" : [ {
          "height" : 640,
          "url" : "https://i.scdn.co/image/ab67616d0000b273976c50bbec66473b5f73f793",
          "width" : 640
        }, {
          "height" : 300,
          "url" : "https://i.scdn.co/image/ab67616d00001e02976c50bbec66473b5f73f793",
          "width" : 300
        }, {
          "height" : 64,
          "url" : "https://i.scdn.co/image/ab67616d00004851976c50bbec66473b5f73f793",
          "width" : 64
        } ],
        "name" : "Heavens View",
        "release_date" : "2010-10-01",
        "release_date_precision" : "day",
        "total_tracks" : 11,
        "type" : "album",
        "uri" : "spotify:album:5tXap1krss2xkZRgtEJ6VT"
      },
      "artists" : [ {
        "external_urls" : {
          "spotify" : "https://open.spotify.com/artist/4BzWEkmu4xRDg4aaoyKrdT"
        },
        "href" : "https://api.spotify.com/v1/artists/4BzWEkmu4xRDg4aaoyKrdT",
        "id" : "4BzWEkmu4xRDg4aaoyKrdT",
        "name" : "Jonathan Keith",
        "type" : "artist",
        "uri" : "spotify:artist:4BzWEkmu4xRDg4aaoyKrdT"
      } ],
      "disc_number" : 1,
      "duration_ms" : 342029,
      "explicit" : false,
      "external_ids" : {
        "isrc" : "USA2P1009827"
      },
      "external_urls" : {
        "spotify" : "https://open.spotify.com/track/5czQzVuIQOpgql3zV9ywbq"
      },
      "href" : "https://api.spotify.com/v1/tracks/5czQzVuIQOpgql3zV9ywbq",
      "id" : "5czQzVuIQOpgql3zV9ywbq",
      "is_local" : false,
      "is_playable" : true,
      "name" : "Come Thou Fount of Every Blessing",
      "popularity" : 28,
      "preview_url" : "https://p.scdn.co/mp3-preview/b70d56eb836f9ad1c29ee8b455f4954bf2e543fd?cid=774b29d4f13844c495f206cafdad9c86",
      "track_number" : 6,
      "type" : "track",
      "uri" : "spotify:track:5czQzVuIQOpgql3zV9ywbq"
    }, {
      "album" : {
        "album_type" : "album",
        "artists" : [ {
          "external_urls" : {
            "spotify" : "https://open.spotify.com/artist/32DWM2tctxuDatAYWHjCtC"
          },
          "href" : "https://api.spotify.com/v1/artists/32DWM2tctxuDatAYWHjCtC",
          "id" : "32DWM2tctxuDatAYWHjCtC",
          "name" : "Hymns on Piano",
          "type" : "artist",
          "uri" : "spotify:artist:32DWM2tctxuDatAYWHjCtC"
        } ],
        "external_urls" : {
          "spotify" : "https://open.spotify.com/album/6dXrvNudBlYNwLurcV47WZ"
        },
        "href" : "https://api.spotify.com/v1/albums/6dXrvNudBlYNwLurcV47WZ",
        "id" : "6dXrvNudBlYNwLurcV47WZ",
        "images" : [ {
          "height" : 640,
          "url" : "https://i.scdn.co/image/ab67616d0000b2733e27d563a49a2564bed32a12",
          "width" : 640
        }, {
          "height" : 300,
          "url" : "https://i.scdn.co/image/ab67616d00001e023e27d563a49a2564bed32a12",
          "width" : 300
        }, {
          "height" : 64,
          "url" : "https://i.scdn.co/image/ab67616d000048513e27d563a49a2564bed32a12",
          "width" : 64
        } ],
        "name" : "Hymns of Thanksgiving - Volume 1",
        "release_date" : "2015-11-13",
        "release_date_precision" : "day",
        "total_tracks" : 15,
        "type" : "album",
        "uri" : "spotify:album:6dXrvNudBlYNwLurcV47WZ"
      },
      "artists" : [ {
        "external_urls" : {
          "spotify" : "https://open.spotify.com/artist/32DWM2tctxuDatAYWHjCtC"
        },
        "href" : "https://api.spotify.com/v1/artists/32DWM2tctxuDatAYWHjCtC",
        "id" : "32DWM2tctxuDatAYWHjCtC",
        "name" : "Hymns on Piano",
        "type" : "artist",
        "uri" : "spotify:artist:32DWM2tctxuDatAYWHjCtC"
      } ],
      "disc_number" : 1,
      "duration_ms" : 162002,
      "explicit" : false,
      "external_ids" : {
        "isrc" : "USE831519258"
      },
      "external_urls" : {
        "spotify" : "https://open.spotify.com/track/5e2e9f415OpXlULv50U0fb"
      },
      "href" : "https://api.spotify.com/v1/tracks/5e2e9f415OpXlULv50U0fb",
      "id" : "5e2e9f415OpXlULv50U0fb",
      "is_local" : false,
      "is_playable" : true,
      "name" : "Come, Thou Fount of Every Blessing (Nettleton)",
      "popularity" : 34,
      "preview_url" : "https://p.scdn.co/mp3-preview/a73e69665523ad4a783218a81c636cbf62aabc23?cid=774b29d4f13844c495f206cafdad9c86",
      "track_number" : 5,
      "type" : "track",
      "uri" : "spotify:track:5e2e9f415OpXlULv50U0fb"
    } ],
    "limit" : 10,
    "next" : "https://api.spotify.com/v1/search?query=Come%2C+Thou+Fount+of+Every+Blessing&type=track&market=US&offset=15&limit=10",
    "offset" : 5,
    "previous" : "https://api.spotify.com/v1/search?query=Come%2C+Thou+Fount+of+Every+Blessing&type=track&market=US&offset=0&limit=10",
    "total" : 1032
  }
}