{
  "tracks" : {
    "href" : "https://api.spotify.com/v1/search?query=Let+All+Things+Now+Living&type=track&market=US&offset=5&limit=10",
    "items" : [ {
      "album" : {
        "album_type" : "album",
        "artists" : [ {
          "external_urls" : {
            "spotify" : "https://open.spotify.com/artist/6PZYFmF3PH6cOREAzfXiAL"
          },
          "href" : "https://api.spotify.com/v1/artists/6PZYFmF3PH6cOREAzfXiAL",
          "id" : "6PZYFmF3PH6cOREAzfXiAL",
          "name" : "The Countdown Kids",
          "type" : "artist",
          "uri" : "spotify:artist:6PZYFmF3PH6cOREAzfXiAL"
        } ],
        "external_urls" : {
          "spotify" : "https://open.spotify.com/album/5cCs99eMsdLYsDlyuH9FxF"
        },
        "href" : "https://api.spotify.com/v1/albums/5cCs99eMsdLYsDlyuH9FxF",
        "id" : "5cCs99eMsdLYsDlyuH9FxF",
        "images" : [ {
          "height" : 640,
          "url" : "https://i.scdn.co/image/ab67616d0000b273d3471a4277d43735cb9a04c3",
          "width" : 640
        }, {
          "height" : 300,
          "url" : "https://i.scdn.co/image/ab67616d00001e02d3471a4277d43735cb9a04c3",
          "width" : 300
        }, {
          "height" : 64,
          "url" : "https://i.scdn.co/image/ab67616d00004851d3471a4277d43735cb9a04c3",
          "width" : 64
        } ],
        "name" : "Easter Songs & Hymns for Kids",
        "release_date" : "2020-03-27",
        "release_date_precision" : "day",
        "total_tracks" : 20,
        "type" : "album",
        "uri" : "spotify:album:5cCs99eMsdLYsDlyuH9FxF"
      },
      "artists" : [ {
        "external_urls" : {
          "spotify" : "https://open.spotify.com/artist/6PZYFmF3PH6cOREAzfXiAL"
        },
        "href" : "https://api.spotify.com/v1/artists/6PZYFmF3PH6cOREAzfXiAL",
        "id" : "6PZYFmF3PH6cOREAzfXiAL",
        "name" : "The Countdown Kids",
        "type" : "artist",
        "uri" : "spotify:artist:6PZYFmF3PH6cOREAzfXiAL"
      } ],
      "disc_number" : 1,
      "duration_ms" : 122080,
      "explicit" : false,
      "external_ids" : {
        "isrc" : "CAM460701509"
      },
      "external_urls" : {
        "spotify" : "https://open.spotify.com/track/0acEuZnG4o8GvNhxob7MdW"
      },
      "href" : "https://api.spotify.com/v1/tracks/0acEuZnG4o8GvNhxob7MdW",
      "id" : "0acEuZnG4o8GvNhxob7MdW",
      "is_local" : false,
      "is_playable" : true,
      "name" : "Let All Things Now Living",
      "popularity" : 7,
      "preview_url" : "https://p.scdn.co/mp3-preview/45ebae0c3e3676a90b55757d9d33d97ca8dd4c0f?cid=774b29d4f13844c495f206cafdad9c86",
      "track_number" : 18,
      "type" : "track",
      "uri" : "spotify:track:0acEuZnG4o8GvNhxob7MdW"
    }, {
      "album" : {
        "album_type" : "album",
        "artists" : [ {
          "external_urls" : {
            "spotify" : "https://open.spotify.com/artist/0zYyfhX87rISSc9dyJQK5t"
          },
          "href" : "https://api.spotify.com/v1/artists/0zYyfhX87rISSc9dyJQK5t",
          "id" : "0zYyfhX87rISSc9dyJQK5t",
          "name" : "Craig Duncan",
          "type" : "artist",
          "uri" : "spotify:artist:0zYyfhX87rISSc9dyJQK5t"
        } ],
        "external_urls" : {
          "spotify" : "https://open.spotify.com/album/1yg5pZMpvFao9fKBjN1dJT"
        },
        "href" : "https://api.spotify.com/v1/albums/1yg5pZMpvFao9fKBjN1dJT",
        "id" : "1yg5pZMpvFao9fKBjN1dJT",
        "images" : [ {
          "height" : 640,
          "url" : "https://i.scdn.co/image/ab67616d0000b273adce50585502f56f7ca744cd",
          "width" : 640
        }, {
          "height" : 300,
          "url" : "https://i.scdn.co/image/ab67616d00001e02adce50585502f56f7ca744cd",
          "width" : 300
        }, {
          "height" : 64,
          "url" : "https://i.scdn.co/image/ab67616d00004851adce50585502f56f7ca744cd",
          "width" : 64
        } ],
        "name" : "Old English Hymns",
        "release_date" : "1996-01-01",
        "release_date_precision" : "day",
        "total_tracks" : 14,
        "type" : "album",
        "uri" : "spotify:album:1yg5pZMpvFao9fKBjN1dJT"
      },
      "artists" : [ {
        "external_urls" : {
          "spotify" : "https://open.spotify.com/artist/0zYyfhX87rISSc9dyJQK5t"
        },
        "href" : "https://api.spotify.com/v1/artists/0zYyfhX87rISSc9dyJQK5t",
        "id" : "0zYyfhX87rISSc9dyJQK5t",
        "name" : "Craig Duncan",
        "type" : "artist",
        "uri" : "spotify:artist:0zYyfhX87rISSc9dyJQK5t"
      } ],
      "disc_number" : 1,
      "duration_ms" : 199706,
      "explicit" : false,
      "external_ids" : {
        "isrc" : "USB4U0850213"
      },
      "external_urls" : {
        "spotify" : "https://open.spotify.com/track/6bXa8FboV1QX3T4EWXMsU9"
      },
      "href" : "https://api.spotify.com/v1/tracks/6bXa8FboV1QX3T4EWXMsU9",
      "id" : "6bXa8FboV1QX3T4EWXMsU9",
      "is_local" : false,
      "is_playable" : true,
      "name" : "Let All Things Now Living - Old English Hymns Album Version",
      "popularity" : 6,
      "preview_url" : null,
      "track_number" : 2,
      "type" : "track",
      "uri" : "spotify:track:6bXa8FboV1QX3T4EWXMsU9"
    }, {
      "album" : {
        "album_type" : "compilation",
        "artists" : [ {
          "external_urls" : {
            "spotify" : "https://open.spotify.com/artist/0LyfQWJT6nXafLPZqxe9Of"
          },
          "href" : "https://api.spotify.com/v1/artists/0LyfQWJT6nXafLPZqxe9Of",
          "id" : "0LyfQWJT6nXafLPZqxe9Of",
          "name" : "Various Artists",
          "type" : "artist",
          "uri" : "spotify:artist:0LyfQWJT6nXafLPZqxe9Of"
        } ],
        "external_urls" : {
          "spotify" : "https://open.spotify.com/album/3Jv4z4AQGP4ExHljv23Wc0"
        },
        "href" : "https://api.spotify.com/v1/albums/3Jv4z4AQGP4ExHljv23Wc0",
        "id" : "3Jv4z4AQGP4ExHljv23Wc0",
        "images" : [ {
          "height" : 640,
          "url" : "https://i.scdn.co/image/ab67616d0000b273441c7ff5021577ebb89a546a",
          "width" : 640
        }, {
          "height" : 300,
          "url" : "https://i.scdn.co/image/ab67616d00001e02441c7ff5021577ebb89a546a",
          "width" : 300
        }, {
          "height" : 64,
          "url" : "https://i.scdn.co/image/ab67616d00004851441c7ff5021577ebb89a546a",
          "width" : 64
        } ],
        "name" : "Glory & Praise: Third Edition, Vol. 26",
        "release_date" : "2016-04-22",
        "release_date_precision" : "day",
        "total_tracks" : 27,
        "type" : "album",
        "uri" : "spotify:album:3Jv4z4AQGP4ExHljv23Wc0"
      },
      "artists" : [ {
        "external_urls" : {
          "spotify" : "https://open.spotify.com/artist/5zQqaxZGKmZ8hDeVC9VSPT"
        },
        "href" : "https://api.spotify.com/v1/artists/5zQqaxZGKmZ8hDeVC9VSPT",
        "id" : "5zQqaxZGKmZ8hDeVC9VSPT",
        "name" : "OCP Session Choir",
        "type" : "artist",
        "uri" : "spotify:artist:5zQqaxZGKmZ8hDeVC9VSPT"
      } ],
      "disc_number" : 1,
      "duration_ms" : 148146,
      "explicit" : false,
      "external_ids" : {
        "isrc" : "USA4N1600454"
      },
      "external_urls" : {
        "spotify" : "https://open.spotify.com/track/2NYfV4c5X8w71MM9QVVTXL"
      },
      "href" : "https://api.spotify.com/v1/tracks/2NYfV4c5X8w71MM9QVVTXL",
      "id" : "2NYfV4c5X8w71MM9QVVTXL",
      "is_local" : false,
      "is_playable" : true,
      "name" : "Let All Things Now Living",
      "popularity" : 2,
      "preview_url" : "https://p.scdn.co/mp3-preview/333dcbe955f0497f18d850b5fea2dd4b58eb51ec?cid=774b29d4f13844c495f206cafdad9c86",
      "track_number" : 7,
      "type" : "track",
      "uri" : "spotify:track:2NYfV4c5X8w71MM9QVVTXL"
    }, {
      "album" : {
        "album_type" : "album",
        "artists" : [ {
          "external_urls" : {
            "spotify" : "https://open.spotify.com/artist/1mmySIC8yK07j45SHfySfM"
          },
          "href" : "https://api.spotify.com/v1/artists/1mmySIC8yK07j45SHfySfM",
          "id" : "1mmySIC8yK07j45SHfySfM",
          "name" : "Studio Musicians",
          "type" : "artist",
          "uri" : "spotify:artist:1mmySIC8yK07j45SHfySfM"
        } ],
        "external_urls" : {
          "spotify" : "https://open.spotify.com/album/231C8dR3MOJntArh8k3lGg"
        },
        "href" : "https://api.spotify.com/v1/albums/231C8dR3MOJntArh8k3lGg",
        "id" : "231C8dR3MOJntArh8k3lGg",
        "images" : [ {
          "height" : 640,
          "url" : "https://i.scdn.co/image/ab67616d0000b2736765d8f88e6db2d611b23917",
          "width" : 640
        }, {
          "height" : 300,
          "url" : "https://i.scdn.co/image/ab67616d00001e026765d8f88e6db2d611b23917",
          "width" : 300
        }, {
          "height" : 64,
          "url" : "https://i.scdn.co/image/ab67616d000048516765d8f88e6db2d611b23917",
          "width" : 64
        } ],
        "name" : "Celtic Hymns",
        "release_date" : "1994-01-01",
        "release_date_precision" : "day",
        "total_tracks" : 12,
        "type" : "album",
        "uri" : "spotify:album:231C8dR3MOJntArh8k3lGg"
      },
      "artists" : [ {
        "external_urls" : {
          "spotify" : "https://open.spotify.com/artist/1mmySIC8yK07j45SHfySfM"
        },
        "href" : "https://api.spotify.com/v1/artists/1mmySIC8yK07j45SHfySfM",
        "id" : "1mmySIC8yK07j45SHfySfM",
        "name" : "Studio Musicians",
        "type" : "artist",
        "uri" : "spotify:artist:1mmySIC8yK07j45SHfySfM"
      } ],
      "disc_number" : 1,
      "duration_ms" : 141373,
      "explicit" : false,
      "external_ids" : {
        "isrc" : "USA5W0404356"
      },
      "external_urls" : {
        "spotify" : "https://open.spotify.com/track/4jFUePC07RTfVZH59DVvc1"
      },
      "href" : "https://api.spotify.com/v1/tracks/4jFUePC07RTfVZH59DVvc1",
      "id" : "4jFUePC07RTfVZH59DVvc1",
      "is_local" : false,
      "is_playable" : true,
      "name" : "Let All Things Now Living",
      "popularity" : 2,
      "preview_url" : "https://p.scdn.co/mp3-preview/e7fbd99a0778f566c229428a6267b64f823cb6ab?cid=774b29d4f13844c495f206cafdad9c86",
      "track_number" : 8,
      "type" : "track",
      "uri" : "spotify:track:4jFUePC07RTfVZH59DVvc1"
    }, {
      "album" : {
        "album_type" : "single",
        "artists" : [ {
          "external_urls" : {
            "spotify" : "https://open.spotify.com/artist/5CaDZr8sp8RjWM68W314fY"
          },
          "href" : "https://api.spotify.com/v1/artists/5CaDZr8sp8RjWM68W314fY",
          "id" : "5CaDZr8sp8RjWM68W314fY",
          "name" : "Erwin Nanasi",
          "type" : "artist",
          "uri" : "spotify:artist:5CaDZr8sp8RjWM68W314fY"
        } ],
        "external_urls" : {
          "spotify" : "https://open.spotify.com/album/4Gwrcubtcw6grUGnK3pfP5"
        },
        "href" : "https://api.spotify.com/v1/albums/4Gwrcubtcw6grUGnK3pfP5",
        "id" : "4Gwrcubtcw6grUGnK3pfP5",
        "images" : [ {
          "height" : 640,
          "url" : "https://i.scdn.co/image/ab67616d0000b273e4318b4647b66504814ffb0f",
          "width" : 640
        }, {
          "height" : 300,
          "url" : "https://i.scdn.co/image/ab67616d00001e02e4318b4647b66504814ffb0f",
          "width" : 300
        }, {
          "height" : 64,
          "url" : "https://i.scdn.co/image/ab67616d00004851e4318b4647b66504814ffb0f",
          "width" : 64
        } ],
        "name" : "Let All Things Now Living",
        "release_date" : "2017-11-22",
        "release_date_precision" : "day",
        "total_tracks" : 1,
        "type" : "album",
        "uri" : "spotify:album:4Gwrcubtcw6grUGnK3pfP5"
      },
      "artists" : [ {
        "external_urls" : {
          "spotify" : "https://open.spotify.com/artist/5CaDZr8sp8RjWM68W314fY"
        },
        "href" : "https://api.spotify.com/v1/artists/5CaDZr8sp8RjWM68W314fY",
        "id" : "5CaDZr8sp8RjWM68W314fY",
        "name" : "Erwin Nanasi",
        "type" : "artist",
        "uri" : "spotify:artist:5CaDZr8sp8RjWM68W314fY"
      } ],
      "disc_number" : 1,
      "duration_ms" : 181483,
      "explicit" : false,
      "external_ids" : {
        "isrc" : "usl4q1706178"
      },
      "external_urls" : {
        "spotify" : "https://open.spotify.com/track/4EVJakPL1aoF8BoGmnZoKB"
      },
      "href" : "https://api.spotify.com/v1/tracks/4EVJakPL1aoF8BoGmnZoKB",
      "id" : "4EVJakPL1aoF8BoGmnZoKB",
      "is_local" : false,
      "is_playable" : true,
      "name" : "Let All Things Now Living",
      "popularity" : 3,
      "preview_url" : "https://p.scdn.co/mp3-preview/1b0ee76066911e903f26bcb03f8b3a0edbe07740?cid=774b29d4f13844c495f206cafdad9c86",
      "track_number" : 1,
      "type" : "track",
      "uri" : "spotify:track:4EVJakPL1aoF8BoGmnZoKB"
    }, {
      "album" : {
        "album_type" : "album",
        "artists" : [ {
          "external_urls" : {
            "spotify" : "https://open.spotify.com/artist/78eOn43HorR25bBznTfeXA"
          },
          "href" : "https://api.spotify.com/v1/artists/78eOn43HorR25bBznTfeXA",
          "id" : "78eOn43HorR25bBznTfeXA",
          "name" : "The Dorff Family",
          "type" : "artist",
          "uri" : "spotify:artist:78eOn43HorR25bBznTfeXA"
        } ],
        "external_urls" : {
          "spotify" : "https://open.spotify.com/album/3Gazo9LE03FqsKh9zDud66"
        },
        "href" : "https://api.spotify.com/v1/albums/3Gazo9LE03FqsKh9zDud66",
        "id" : "3Gazo9LE03FqsKh9zDud66",
        "images" : [ {
          "height" : 640,
          "url" : "https://i.scdn.co/image/ab67616d0000b27360824485d8c11d5b381fa258",
          "width" : 640
        }, {
          "height" : 300,
          "url" : "https://i.scdn.co/image/ab67616d00001e0260824485d8c11d5b381fa258",
          "width" : 300
        }, {
          "height" : 64,
          "url" : "https://i.scdn.co/image/ab67616d0000485160824485d8c11d5b381fa258",
          "width" : 64
        } ],
        "name" : "Cool Water",
        "release_date" : "1995",
        "release_date_precision" : "year",
        "total_tracks" : 14,
        "type" : "album",
        "uri" : "spotify:album:3Gazo9LE03FqsKh9zDud66"
      },
      "artists" : [ {
        "external_urls" : {
          "spotify" : "https://open.spotify.com/artist/78eOn43HorR25bBznTfeXA"
        },
        "href" : "https://api.spotify.com/v1/artists/78eOn43HorR25bBznTfeXA",
        "id" : "78eOn43HorR25bBznTfeXA",
        "name" : "The Dorff Family",
        "type" : "artist",
        "uri" : "spotify:artist:78eOn43HorR25bBznTfeXA"
      } ],
      "disc_number" : 1,
      "duration_ms" : 126653,
      "explicit" : false,
      "external_ids" : {
        "isrc" : "ushm20969803"
      },
      "external_urls" : {
        "spotify" : "https://open.spotify.com/track/0XlJT7WyxzhullNDlhI2B1"
      },
      "href" : "https://api.spotify.com/v1/tracks/0XlJT7WyxzhullNDlhI2B1",
      "id" : "0XlJT7WyxzhullNDlhI2B1",
      "is_local" : false,
      "is_playable" : true,
      "name" : "Let All Things Now Living",
      "popularity" : 0,
      "preview_url" : "https://p.scdn.co/mp3-preview/fd4ca01d3464fdeaba1cc3db3efd9c95ba9a0527?cid=774b29d4f13844c495f206cafdad9c86",
      "track_number" : 7,
      "type" : "track",
      "uri" : "spotify:track:0XlJT7WyxzhullNDlhI2B1"
    }, {
      "album" : {
        "album_type" : "album",
        "artists" : [ {
          "external_urls" : {
            "spotify" : "https://open.spotify.com/artist/6RBxzlAZtvIi4MwI8PxyUp"
          },
          "href" : "https://api.spotify.com/v1/artists/6RBxzlAZtvIi4MwI8PxyUp",
          "id" : "6RBxzlAZtvIi4MwI8PxyUp",
          "name" : "Frank Voltz",
          "type" : "artist",
          "uri" : "spotify:artist:6RBxzlAZtvIi4MwI8PxyUp"
        } ],
        "external_urls" : {
          "spotify" : "https://open.spotify.com/album/1DxteMTnVUdHclEEJlkBS1"
        },
        "href" : "https://api.spotify.com/v1/albums/1DxteMTnVUdHclEEJlkBS1",
        "id" : "1DxteMTnVUdHclEEJlkBS1",
        "images" : [ {
          "height" : 640,
          "url" : "https://i.scdn.co/image/ab67616d0000b2738121a3f25dc625887b51fe2f",
          "width" : 640
        }, {
          "height" : 300,
          "url" : "https://i.scdn.co/image/ab67616d00001e028121a3f25dc625887b51fe2f",
          "width" : 300
        }, {
          "height" : 64,
          "url" : "https://i.scdn.co/image/ab67616d000048518121a3f25dc625887b51fe2f",
          "width" : 64
        } ],
        "name" : "The Harpist's Hymnal",
        "release_date" : "2016-11-21",
        "release_date_precision" : "day",
        "total_tracks" : 20,
        "type" : "album",
        "uri" : "spotify:album:1DxteMTnVUdHclEEJlkBS1"
      },
      "artists" : [ {
        "external_urls" : {
          "spotify" : "https://open.spotify.com/artist/6RBxzlAZtvIi4MwI8PxyUp"
        },
        "href" : "https://api.spotify.com/v1/artists/6RBxzlAZtvIi4MwI8PxyUp",
        "id" : "6RBxzlAZtvIi4MwI8PxyUp",
        "name" : "Frank Voltz",
        "type" : "artist",
        "uri" : "spotify:artist:6RBxzlAZtvIi4MwI8PxyUp"
      } ],
      "disc_number" : 1,
      "duration_ms" : 205360,
      "explicit" : false,
      "external_ids" : {
        "isrc" : "QM9A91602539"
      },
      "external_urls" : {
        "spotify" : "https://open.spotify.com/track/1w4yP9rhukelQrWpn8X3Vy"
      },
      "href" : "https://api.spotify.com/v1/tracks/1w4yP9rhukelQrWpn8X3Vy",
      "id" : "1w4yP9rhukelQrWpn8X3Vy",
      "is_local" : false,
      "is_playable" : true,
      "name" : "Let All Things Now Living",
      "popularity" : 0,
      "preview_url" : "https://p.scdn.co/mp3-preview/cb948c78a0d75f96416fafc52319482864996c43?cid=774b29d4f13844c495f206cafdad9c86",
      "track_number" : 17,
      "type" : "track",
      "uri" : "spotify:track:1w4yP9rhukelQrWpn8X3Vy"
    }, {
      "album" : {
        "album_type" : "album",
        "artists" : [ {
          "external_urls" : {
            "spotify" : "https://open.spotify.com/artist/5aHE1EAT1F5E1kdvWCqObF"
          },
          "href" : "https://api.spotify.com/v1/artists/5aHE1EAT1F5E1kdvWCqObF",
          "id" : "5aHE1EAT1F5E1kdvWCqObF",
          "name" : "Steven Anderson",
          "type" : "artist",
          "uri" : "spotify:artist:5aHE1EAT1F5E1kdvWCqObF"
        } ],
        "external_urls" : {
          "spotify" : "https://open.spotify.com/album/2zciAYdwyBYgWZBoVZ4If0"
        },
        "href" : "https://api.spotify.com/v1/albums/2zciAYdwyBYgWZBoVZ4If0",
        "id" : "2zciAYdwyBYgWZBoVZ4If0",
        "images" : [ {
          "height" : 640,
          "url" : "https://i.scdn.co/image/ab67616d0000b273b57487fa90e64b30e65e219a",
          "width" : 640
        }, {
          "height" : 300,
          "url" : "https://i.scdn.co/image/ab67616d00001e02b57487fa90e64b30e65e219a",
          "width" : 300
        }, {
          "height" : 64,
          "url" : "https://i.scdn.co/image/ab67616d00004851b57487fa90e64b30e65e219a",
          "width" : 64
        } ],
        "name" : "50 Songs for Sunday Inspirations",
        "release_date" : "2016-04-19",
        "release_date_precision" : "day",
        "total_tracks" : 50,
        "type" : "album",
        "uri" : "spotify:album:2zciAYdwyBYgWZBoVZ4If0"
      },
      "artists" : [ {
        "external_urls" : {
          "spotify" : "https://open.spotify.com/artist/5aHE1EAT1F5E1kdvWCqObF"
        },
        "href" : "https://api.spotify.com/v1/artists/5aHE1EAT1F5E1kdvWCqObF",
        "id" : "5aHE1EAT1F5E1kdvWCqObF",
        "name" : "Steven Anderson",
        "type" : "artist",
        "uri" : "spotify:artist:5aHE1EAT1F5E1kdvWCqObF"
      } ],
      "disc_number" : 1,
      "duration_ms" : 124573,
      "explicit" : false,
      "external_ids" : {
        "isrc" : "CAM460700407"
      },
      "external_urls" : {
        "spotify" : "https://open.spotify.com/track/45H4yiQ03rfOk8sLvLOHr3"
      },
      "href" : "https://api.spotify.com/v1/tracks/45H4yiQ03rfOk8sLvLOHr3",
      "id" : "45H4yiQ03rfOk8sLvLOHr3",
      "is_local" : false,
      "is_playable" : true,
      "name" : "Let All Things Now Living",
      "popularity" : 1,
      "preview_url" : "https://p.scdn.co/mp3-preview/f45b83f8469ea277bf22355e353669f16aa3964d?cid=774b29d4f13844c495f206cafdad9c86",
      "track_number" : 28,
      "type" : "track",
      "uri" : "spotify:track:45H4yiQ03rfOk8sLvLOHr3"
    }, {
      "album" : {
        "album_type" : "album",
        "artists" : [ {
          "external_urls" : {
            "spotify" : "https://open.spotify.com/artist/47IAOgilrD9qhyI2Rk4QWd"
          },
          "href" : "https://api.spotify.com/v1/artists/47IAOgilrD9qhyI2Rk4QWd",
          "id" : "47IAOgilrD9qhyI2Rk4QWd",
          "name" : "Sue Severson",
          "type" : "artist",
          "uri" : "spotify:artist:47IAOgilrD9qhyI2Rk4QWd"
        } ],
        "external_urls" : {
          "spotify" : "https://open.spotify.com/album/0PJp5rKSfBctEc6uGZWwr4"
        },
        "href" : "https://api.spotify.com/v1/albums/0PJp5rKSfBctEc6uGZWwr4",
        "id" : "0PJp5rKSfBctEc6uGZWwr4",
        "images" : [ {
          "height" : 640,
          "url" : "https://i.scdn.co/image/ab67616d0000b273bd0e873f57de9371d1aa16d6",
          "width" : 640
        }, {
          "height" : 300,
          "url" : "https://i.scdn.co/image/ab67616d00001e02bd0e873f57de9371d1aa16d6",
          "width" : 300
        }, {
          "height" : 64,
          "url" : "https://i.scdn.co/image/ab67616d00004851bd0e873f57de9371d1aa16d6",
          "width" : 64
        } ],
        "name" : "Hymnprov",
        "release_date" : "2020-02-12",
        "release_date_precision" : "day",
        "total_tracks" : 14,
        "type" : "album",
        "uri" : "spotify:album:0PJp5rKSfBctEc6uGZWwr4"
      },
      "artists" : [ {
        "external_urls" : {
          "spotify" : "https://open.spotify.com/artist/47IAOgilrD9qhyI2Rk4QWd"
        },
        "href" : "https://api.spotify.com/v1/artists/47IAOgilrD9qhyI2Rk4QWd",
        "id" : "47IAOgilrD9qhyI2Rk4QWd",
        "name" : "Sue Severson",
        "type" : "artist",
        "uri" : "spotify:artist:47IAOgilrD9qhyI2Rk4QWd"
      } ],
      "disc_number" : 1,
      "duration_ms" : 190537,
      "explicit" : false,
      "external_ids" : {
        "isrc" : "QZFZ32071669"
      },
      "external_urls" : {
        "spotify" : "https://open.spotify.com/track/72dBfVU7Ip6nM3Vw72NVoM"
      },
      "href" : "https://api.spotify.com/v1/tracks/72dBfVU7Ip6nM3Vw72NVoM",
      "id" : "72dBfVU7Ip6nM3Vw72NVoM",
      "is_local" : false,
      "is_playable" : true,
      "name" : "Let All Things Now Living",
      "popularity" : 0,
      "preview_url" : "https://p.scdn.co/mp3-preview/66c53e6d7b547b4a914835fe1ae1b4efc1aae773?cid=774b29d4f13844c495f206cafdad9c86",
      "track_number" : 12,
      "type" : "track",
      "uri" : "spotify:track:72dBfVU7Ip6nM3Vw72NVoM"
    }, {
      "album" : {
        "album_type" : "album",
        "artists" : [ {
          "external_urls" : {
            "spotify" : "https://open.spotify.com/artist/7b5X0aAElrKtuQe7d4dg58"
          },
          "href" : "https://api.spotify.com/v1/artists/7b5X0aAElrKtuQe7d4dg58",
          "id" : "7b5X0aAElrKtuQe7d4dg58",
          "name" : "The Mumfords",
          "type" : "artist",
          "uri" : "spotify:artist:7b5X0aAElrKtuQe7d4dg58"
        } ],
        "external_urls" : {
          "spotify" : "https://open.spotify.com/album/5bzGpfhiFGKn2m46a5iTtO"
        },
        "href" : "https://api.spotify.com/v1/albums/5bzGpfhiFGKn2m46a5iTtO",
        "id" : "5bzGpfhiFGKn2m46a5iTtO",
        "images" : [ {
          "height" : 640,
          "url" : "https://i.scdn.co/image/ab67616d0000b273719dc0c282998d24cc86449f",
          "width" : 640
        }, {
          "height" : 300,
          "url" : "https://i.scdn.co/image/ab67616d00001e02719dc0c282998d24cc86449f",
          "width" : 300
        }, {
          "height" : 64,
          "url" : "https://i.scdn.co/image/ab67616d00004851719dc0c282998d24cc86449f",
          "width" : 64
        } ],
        "name" : "Tender Mercies",
        "release_date" : "2009-12-16",
        "release_date_precision" : "day",
        "total_tracks" : 11,
        "type" : "album",
        "uri" : "spotify:album:5bzGpfhiFGKn2m46a5iTtO"
      },
      "artists" : [ {
        "external_urls" : {
          "spotify" : "https://open.spotify.com/artist/7b5X0aAElrKtuQe7d4dg58"
        },
        "href" : "https://api.spotify.com/v1/artists/7b5X0aAElrKtuQe7d4dg58",
        "id" : "7b5X0aAElrKtuQe7d4dg58",
        "name" : "The Mumfords",
        "type" : "artist",
        "uri" : "spotify:artist:7b5X0aAElrKtuQe7d4dg58"
      } ],
      "disc_number" : 1,
      "duration_ms" : 168400,
      "explicit" : false,
      "external_ids" : {
        "isrc" : "USTCC0915354"
      },
      "external_urls" : {
        "spotify" : "https://open.spotify.com/track/1MbUk7aDgP07dXQXpnWL4J"
      },
      "href" : "https://api.spotify.com/v1/tracks/1MbUk7aDgP07dXQXpnWL4J",
      "id" : "1MbUk7aDgP07dXQXpnWL4J",
      "is_local" : false,
      "is_playable" : true,
      "name" : "Let All Things Now Living",
      "popularity" : 3,
      "preview_url" : "https://p.scdn.co/mp3-preview/982bf5194ac8c246649d99690bfb76eb06427db7?cid=774b29d4f13844c495f206cafdad9c86",
      "track_number" : 7,
      "type" : "track",
      "uri" : "spotify:track:1MbUk7aDgP07dXQXpnWL4J"
    } ],
    "limit" : 10,
    "next" : "https://api.spotify.com/v1/search?query=Let+All+Things+Now+Living&type=track&market=US&offset=15&limit=10",
    "offset" : 5,
    "previous" : "https://api.spotify.com/v1/search?query=Let+All+Things+Now+Living&type=track&market=US&offset=0&limit=10",
    "total" : 54
  }
}