{
  "tracks" : {
    "href" : "https://api.spotify.com/v1/search?query=Give+of+Your+Best+to+the+Master&type=track&market=US&offset=5&limit=10",
    "items" : [ {
      "album" : {
        "album_type" : "album",
        "artists" : [ {
          "external_urls" : {
            "spotify" : "https://open.spotify.com/artist/5ceDNzyt5bIxxB90cxaV16"
          },
          "href" : "https://api.spotify.com/v1/artists/5ceDNzyt5bIxxB90cxaV16",
          "id" : "5ceDNzyt5bIxxB90cxaV16",
          "name" : "Joseph Niles",
          "type" : "artist",
          "uri" : "spotify:artist:5ceDNzyt5bIxxB90cxaV16"
        } ],
        "external_urls" : {
          "spotify" : "https://open.spotify.com/album/5qhDOWpefnlRXdmozINx7r"
        },
        "href" : "https://api.spotify.com/v1/albums/5qhDOWpefnlRXdmozINx7r",
        "id" : "5qhDOWpefnlRXdmozINx7r",
        "images" : [ {
          "height" : 640,
          "url" : "https://i.scdn.co/image/ab67616d0000b273de2019d7b6e59afec0174d60",
          "width" : 640
        }, {
          "height" : 300,
          "url" : "https://i.scdn.co/image/ab67616d00001e02de2019d7b6e59afec0174d60",
          "width" : 300
        }, {
          "height" : 64,
          "url" : "https://i.scdn.co/image/ab67616d00004851de2019d7b6e59afec0174d60",
          "width" : 64
        } ],
        "name" : "Count Your Blessings",
        "release_date" : "2009-01-14",
        "release_date_precision" : "day",
        "total_tracks" : 10,
        "type" : "album",
        "uri" : "spotify:album:5qhDOWpefnlRXdmozINx7r"
      },
      "artists" : [ {
        "external_urls" : {
          "spotify" : "https://open.spotify.com/artist/5ceDNzyt5bIxxB90cxaV16"
        },
        "href" : "https://api.spotify.com/v1/artists/5ceDNzyt5bIxxB90cxaV16",
        "id" : "5ceDNzyt5bIxxB90cxaV16",
        "name" : "Joseph Niles",
        "type" : "artist",
        "uri" : "spotify:artist:5ceDNzyt5bIxxB90cxaV16"
      } ],
      "disc_number" : 1,
      "duration_ms" : 251506,
      "explicit" : false,
      "external_ids" : {
        "isrc" : "USQY50929527"
      },
      "external_urls" : {
        "spotify" : "https://open.spotify.com/track/3vsi7FnZyq9LIaZ2eVaj4R"
      },
      "href" : "https://api.spotify.com/v1/tracks/3vsi7FnZyq9LIaZ2eVaj4R",
      "id" : "3vsi7FnZyq9LIaZ2eVaj4R",
      "is_local" : false,
      "is_playable" : true,
      "name" : "Give of Your Best to the Master",
      "popularity" : 1,
      "preview_url" : "https://p.scdn.co/mp3-preview/5a0fcec130f3f3e289a277281ead599bf50ccfe6?cid=774b29d4f13844c495f206cafdad9c86",
      "track_number" : 4,
      "type" : "track",
      "uri" : "spotify:track:3vsi7FnZyq9LIaZ2eVaj4R"
    }, {
      "album" : {
        "album_type" : "album",
        "artists" : [ {
          "external_urls" : {
            "spotify" : "https://open.spotify.com/artist/6ZJ0ZFJUx02NthS3RH3VYz"
          },
          "href" : "https://api.spotify.com/v1/artists/6ZJ0ZFJUx02NthS3RH3VYz",
          "id" : "6ZJ0ZFJUx02NthS3RH3VYz",
          "name" : "The Joyful Sounds",
          "type" : "artist",
          "uri" : "spotify:artist:6ZJ0ZFJUx02NthS3RH3VYz"
        } ],
        "external_urls" : {
          "spotify" : "https://open.spotify.com/album/4RgpD3TXOwCGQ8q0pRvxnf"
        },
        "href" : "https://api.spotify.com/v1/albums/4RgpD3TXOwCGQ8q0pRvxnf",
        "id" : "4RgpD3TXOwCGQ8q0pRvxnf",
        "images" : [ {
          "height" : 640,
          "url" : "https://i.scdn.co/image/ab67616d0000b2735f09476a9da1f88ffb5b5d06",
          "width" : 640
        }, {
          "height" : 300,
          "url" : "https://i.scdn.co/image/ab67616d00001e025f09476a9da1f88ffb5b5d06",
          "width" : 300
        }, {
          "height" : 64,
          "url" : "https://i.scdn.co/image/ab67616d000048515f09476a9da1f88ffb5b5d06",
          "width" : 64
        } ],
        "name" : "99 Beautiful songs pack vol.3",
        "release_date" : "2016-03-01",
        "release_date_precision" : "day",
        "total_tracks" : 99,
        "type" : "album",
        "uri" : "spotify:album:4RgpD3TXOwCGQ8q0pRvxnf"
      },
      "artists" : [ {
        "external_urls" : {
          "spotify" : "https://open.spotify.com/artist/6ZJ0ZFJUx02NthS3RH3VYz"
        },
        "href" : "https://api.spotify.com/v1/artists/6ZJ0ZFJUx02NthS3RH3VYz",
        "id" : "6ZJ0ZFJUx02NthS3RH3VYz",
        "name" : "The Joyful Sounds",
        "type" : "artist",
        "uri" : "spotify:artist:6ZJ0ZFJUx02NthS3RH3VYz"
      } ],
      "disc_number" : 1,
      "duration_ms" : 32299,
      "explicit" : false,
      "external_ids" : {
        "isrc" : "TCJPE1644945"
      },
      "external_urls" : {
        "spotify" : "https://open.spotify.com/track/0lsjDhbTehQKLHY0khUXy9"
      },
      "href" : "https://api.spotify.com/v1/tracks/0lsjDhbTehQKLHY0khUXy9",
      "id" : "0lsjDhbTehQKLHY0khUXy9",
      "is_local" : false,
      "is_playable" : true,
      "name" : "Give of Your Best to the Master",
      "popularity" : 0,
      "preview_url" : "https://p.scdn.co/mp3-preview/373ce6dc9f383f12c58e3e47ac594fe759f642df?cid=774b29d4f13844c495f206cafdad9c86",
      "track_number" : 87,
      "type" : "track",
      "uri" : "spotify:track:0lsjDhbTehQKLHY0khUXy9"
    }, {
      "album" : {
        "album_type" : "album",
        "artists" : [ {
          "external_urls" : {
            "spotify" : "https://open.spotify.com/artist/0T8RSaqKogEQoiAQvADHRm"
          },
          "href" : "https://api.spotify.com/v1/artists/0T8RSaqKogEQoiAQvADHRm",
          "id" : "0T8RSaqKogEQoiAQvADHRm",
          "name" : "Min Ho Ki",
          "type" : "artist",
          "uri" : "spotify:artist:0T8RSaqKogEQoiAQvADHRm"
        } ],
        "external_urls" : {
          "spotify" : "https://open.spotify.com/album/2QfCzzGiNW1F11xFDNvpKL"
        },
        "href" : "https://api.spotify.com/v1/albums/2QfCzzGiNW1F11xFDNvpKL",
        "id" : "2QfCzzGiNW1F11xFDNvpKL",
        "images" : [ {
          "height" : 640,
          "url" : "https://i.scdn.co/image/ab67616d0000b2731137fd6acb52df66e963eb6f",
          "width" : 640
        }, {
          "height" : 300,
          "url" : "https://i.scdn.co/image/ab67616d00001e021137fd6acb52df66e963eb6f",
          "width" : 300
        }, {
          "height" : 64,
          "url" : "https://i.scdn.co/image/ab67616d000048511137fd6acb52df66e963eb6f",
          "width" : 64
        } ],
        "name" : "Timeless Eternity, Hymns",
        "release_date" : "2020-03-06",
        "release_date_precision" : "day",
        "total_tracks" : 14,
        "type" : "album",
        "uri" : "spotify:album:2QfCzzGiNW1F11xFDNvpKL"
      },
      "artists" : [ {
        "external_urls" : {
          "spotify" : "https://open.spotify.com/artist/0T8RSaqKogEQoiAQvADHRm"
        },
        "href" : "https://api.spotify.com/v1/artists/0T8RSaqKogEQoiAQvADHRm",
        "id" : "0T8RSaqKogEQoiAQvADHRm",
        "name" : "Min Ho Ki",
        "type" : "artist",
        "uri" : "spotify:artist:0T8RSaqKogEQoiAQvADHRm"
      } ],
      "disc_number" : 1,
      "duration_ms" : 189040,
      "explicit" : false,
      "external_ids" : {
        "isrc" : "KRG012000070"
      },
      "external_urls" : {
        "spotify" : "https://open.spotify.com/track/2VpMXgvJxdAa1pDzBw7QiK"
      },
      "href" : "https://api.spotify.com/v1/tracks/2VpMXgvJxdAa1pDzBw7QiK",
      "id" : "2VpMXgvJxdAa1pDzBw7QiK",
      "is_local" : false,
      "is_playable" : true,
      "name" : "Give of Your Best to the Master",
      "popularity" : 0,
      "preview_url" : "https://p.scdn.co/mp3-preview/b7c3f87974c09f66f26dad4cb8fba7ed8391559b?cid=774b29d4f13844c495f206cafdad9c86",
      "track_number" : 3,
      "type" : "track",
      "uri" : "spotify:track:2VpMXgvJxdAa1pDzBw7QiK"
    }, {
      "album" : {
        "album_type" : "album",
        "artists" : [ {
          "external_urls" : {
            "spotify" : "https://open.spotify.com/artist/0SMQbY8l9Mph9d8NLv92oh"
          },
          "href" : "https://api.spotify.com/v1/artists/0SMQbY8l9Mph9d8NLv92oh",
          "id" : "0SMQbY8l9Mph9d8NLv92oh",
          "name" : "RiNG-O choir",
          "type" : "artist",
          "uri" : "spotify:artist:0SMQbY8l9Mph9d8NLv92oh"
        } ],
        "external_urls" : {
          "spotify" : "https://open.spotify.com/album/0FWc2OtNbGH3WYPHyYn4Kn"
        },
        "href" : "https://api.spotify.com/v1/albums/0FWc2OtNbGH3WYPHyYn4Kn",
        "id" : "0FWc2OtNbGH3WYPHyYn4Kn",
        "images" : [ {
          "height" : 640,
          "url" : "https://i.scdn.co/image/ab67616d0000b273b39eabd5ff524bc7e94608cf",
          "width" : 640
        }, {
          "height" : 300,
          "url" : "https://i.scdn.co/image/ab67616d00001e02b39eabd5ff524bc7e94608cf",
          "width" : 300
        }, {
          "height" : 64,
          "url" : "https://i.scdn.co/image/ab67616d00004851b39eabd5ff524bc7e94608cf",
          "width" : 64
        } ],
        "name" : "Beautiful Hymn Melodies vol.22",
        "release_date" : "2016-03-01",
        "release_date_precision" : "day",
        "total_tracks" : 10,
        "type" : "album",
        "uri" : "spotify:album:0FWc2OtNbGH3WYPHyYn4Kn"
      },
      "artists" : [ {
        "external_urls" : {
          "spotify" : "https://open.spotify.com/artist/0SMQbY8l9Mph9d8NLv92oh"
        },
        "href" : "https://api.spotify.com/v1/artists/0SMQbY8l9Mph9d8NLv92oh",
        "id" : "0SMQbY8l9Mph9d8NLv92oh",
        "name" : "RiNG-O choir",
        "type" : "artist",
        "uri" : "spotify:artist:0SMQbY8l9Mph9d8NLv92oh"
      } ],
      "disc_number" : 1,
      "duration_ms" : 108266,
      "explicit" : false,
      "external_ids" : {
        "isrc" : "TCJPE1644450"
      },
      "external_urls" : {
        "spotify" : "https://open.spotify.com/track/7eyqMyDHDi0rJWcvPFG6UB"
      },
      "href" : "https://api.spotify.com/v1/tracks/7eyqMyDHDi0rJWcvPFG6UB",
      "id" : "7eyqMyDHDi0rJWcvPFG6UB",
      "is_local" : false,
      "is_playable" : true,
      "name" : "Give of Your Best to the Master",
      "popularity" : 0,
      "preview_url" : "https://p.scdn.co/mp3-preview/23ce94ceb201c533b3671ad3fe429b9b439649fc?cid=774b29d4f13844c495f206cafdad9c86",
      "track_number" : 10,
      "type" : "track",
      "uri" : "spotify:track:7eyqMyDHDi0rJWcvPFG6UB"
    }, {
      "album" : {
        "album_type" : "album",
        "artists" : [ {
          "external_urls" : {
            "spotify" : "https://open.spotify.com/artist/7iIG7w3LrKaycEtVJlZVTv"
          },
          "href" : "https://api.spotify.com/v1/artists/7iIG7w3LrKaycEtVJlZVTv",
          "id" : "7iIG7w3LrKaycEtVJlZVTv",
          "name" : "The Messengers of Truth",
          "type" : "artist",
          "uri" : "spotify:artist:7iIG7w3LrKaycEtVJlZVTv"
        } ],
        "external_urls" : {
          "spotify" : "https://open.spotify.com/album/52DRD7OL9DUEQHDnCBZ9bw"
        },
        "href" : "https://api.spotify.com/v1/albums/52DRD7OL9DUEQHDnCBZ9bw",
        "id" : "52DRD7OL9DUEQHDnCBZ9bw",
        "images" : [ {
          "height" : 640,
          "url" : "https://i.scdn.co/image/ab67616d0000b27311432cf392294dde60df1df6",
          "width" : 640
        }, {
          "height" : 300,
          "url" : "https://i.scdn.co/image/ab67616d00001e0211432cf392294dde60df1df6",
          "width" : 300
        }, {
          "height" : 64,
          "url" : "https://i.scdn.co/image/ab67616d0000485111432cf392294dde60df1df6",
          "width" : 64
        } ],
        "name" : "Glorious Victory!",
        "release_date" : "2009-10-04",
        "release_date_precision" : "day",
        "total_tracks" : 12,
        "type" : "album",
        "uri" : "spotify:album:52DRD7OL9DUEQHDnCBZ9bw"
      },
      "artists" : [ {
        "external_urls" : {
          "spotify" : "https://open.spotify.com/artist/6Ej92FYsj9AIbNphVwAwuQ"
        },
        "href" : "https://api.spotify.com/v1/artists/6Ej92FYsj9AIbNphVwAwuQ",
        "id" : "6Ej92FYsj9AIbNphVwAwuQ",
        "name" : "The Messengers of Truth Men's Quartet",
        "type" : "artist",
        "uri" : "spotify:artist:6Ej92FYsj9AIbNphVwAwuQ"
      } ],
      "disc_number" : 1,
      "duration_ms" : 296320,
      "explicit" : false,
      "external_ids" : {
        "isrc" : "ushm90909498"
      },
      "external_urls" : {
        "spotify" : "https://open.spotify.com/track/7hvVkUPVppypNFqhRtzBEE"
      },
      "href" : "https://api.spotify.com/v1/tracks/7hvVkUPVppypNFqhRtzBEE",
      "id" : "7hvVkUPVppypNFqhRtzBEE",
      "is_local" : false,
      "is_playable" : true,
      "name" : "Give of Your Best to the Master",
      "popularity" : 0,
      "preview_url" : "https://p.scdn.co/mp3-preview/21ed6079bf110b4e2ce069704eb4305591786cce?cid=774b29d4f13844c495f206cafdad9c86",
      "track_number" : 12,
      "type" : "track",
      "uri" : "spotify:track:7hvVkUPVppypNFqhRtzBEE"
    }, {
      "album" : {
        "album_type" : "album",
        "artists" : [ {
          "external_urls" : {
            "spotify" : "https://open.spotify.com/artist/20rlbkwNSoLrLqQUR7GRcT"
          },
          "href" : "https://api.spotify.com/v1/artists/20rlbkwNSoLrLqQUR7GRcT",
          "id" : "20rlbkwNSoLrLqQUR7GRcT",
          "name" : "Mother’s Lullaby",
          "type" : "artist",
          "uri" : "spotify:artist:20rlbkwNSoLrLqQUR7GRcT"
        } ],
        "external_urls" : {
          "spotify" : "https://open.spotify.com/album/3qYmzvLuTYj4DjzvSkymbv"
        },
        "href" : "https://api.spotify.com/v1/albums/3qYmzvLuTYj4DjzvSkymbv",
        "id" : "3qYmzvLuTYj4DjzvSkymbv",
        "images" : [ {
          "height" : 640,
          "url" : "https://i.scdn.co/image/ab67616d0000b2732c4428c9bb194b7b1887eed4",
          "width" : 640
        }, {
          "height" : 300,
          "url" : "https://i.scdn.co/image/ab67616d00001e022c4428c9bb194b7b1887eed4",
          "width" : 300
        }, {
          "height" : 64,
          "url" : "https://i.scdn.co/image/ab67616d000048512c4428c9bb194b7b1887eed4",
          "width" : 64
        } ],
        "name" : "Hymns Vol.16",
        "release_date" : "2019-07-10",
        "release_date_precision" : "day",
        "total_tracks" : 20,
        "type" : "album",
        "uri" : "spotify:album:3qYmzvLuTYj4DjzvSkymbv"
      },
      "artists" : [ {
        "external_urls" : {
          "spotify" : "https://open.spotify.com/artist/20rlbkwNSoLrLqQUR7GRcT"
        },
        "href" : "https://api.spotify.com/v1/artists/20rlbkwNSoLrLqQUR7GRcT",
        "id" : "20rlbkwNSoLrLqQUR7GRcT",
        "name" : "Mother’s Lullaby",
        "type" : "artist",
        "uri" : "spotify:artist:20rlbkwNSoLrLqQUR7GRcT"
      } ],
      "disc_number" : 1,
      "duration_ms" : 275882,
      "explicit" : false,
      "external_ids" : {
        "isrc" : "QZEKE1877891"
      },
      "external_urls" : {
        "spotify" : "https://open.spotify.com/track/7rZ2n0GLqEOeiQvanLko1x"
      },
      "href" : "https://api.spotify.com/v1/tracks/7rZ2n0GLqEOeiQvanLko1x",
      "id" : "7rZ2n0GLqEOeiQvanLko1x",
      "is_local" : false,
      "is_playable" : true,
      "name" : "Give Of Your Best To The Master",
      "popularity" : 0,
      "preview_url" : "https://p.scdn.co/mp3-preview/9853a2833678315eafc2f425aa63b691287e7509?cid=774b29d4f13844c495f206cafdad9c86",
      "track_number" : 2,
      "type" : "track",
      "uri" : "spotify:track:7rZ2n0GLqEOeiQvanLko1x"
    }, {
      "album" : {
        "album_type" : "album",
        "artists" : [ {
          "external_urls" : {
            "spotify" : "https://open.spotify.com/artist/5yhGhyMZIceoVnGEYrgJAO"
          },
          "href" : "https://api.spotify.com/v1/artists/5yhGhyMZIceoVnGEYrgJAO",
          "id" : "5yhGhyMZIceoVnGEYrgJAO",
          "name" : "Malcolm Kerwin",
          "type" : "artist",
          "uri" : "spotify:artist:5yhGhyMZIceoVnGEYrgJAO"
        } ],
        "external_urls" : {
          "spotify" : "https://open.spotify.com/album/4evpBHlzmi5zoadSNWqSc8"
        },
        "href" : "https://api.spotify.com/v1/albums/4evpBHlzmi5zoadSNWqSc8",
        "id" : "4evpBHlzmi5zoadSNWqSc8",
        "images" : [ {
          "height" : 640,
          "url" : "https://i.scdn.co/image/ab67616d0000b2737fb569c63b04ef8fe04b4660",
          "width" : 640
        }, {
          "height" : 300,
          "url" : "https://i.scdn.co/image/ab67616d00001e027fb569c63b04ef8fe04b4660",
          "width" : 300
        }, {
          "height" : 64,
          "url" : "https://i.scdn.co/image/ab67616d000048517fb569c63b04ef8fe04b4660",
          "width" : 64
        } ],
        "name" : "Joyful Hymns of Worship (Instrumental)",
        "release_date" : "2014-06-16",
        "release_date_precision" : "day",
        "total_tracks" : 23,
        "type" : "album",
        "uri" : "spotify:album:4evpBHlzmi5zoadSNWqSc8"
      },
      "artists" : [ {
        "external_urls" : {
          "spotify" : "https://open.spotify.com/artist/5yhGhyMZIceoVnGEYrgJAO"
        },
        "href" : "https://api.spotify.com/v1/artists/5yhGhyMZIceoVnGEYrgJAO",
        "id" : "5yhGhyMZIceoVnGEYrgJAO",
        "name" : "Malcolm Kerwin",
        "type" : "artist",
        "uri" : "spotify:artist:5yhGhyMZIceoVnGEYrgJAO"
      } ],
      "disc_number" : 1,
      "duration_ms" : 161920,
      "explicit" : false,
      "external_ids" : {
        "isrc" : "ushm81501420"
      },
      "external_urls" : {
        "spotify" : "https://open.spotify.com/track/7dEeVMZWi53zTWsxZbJJAz"
      },
      "href" : "https://api.spotify.com/v1/tracks/7dEeVMZWi53zTWsxZbJJAz",
      "id" : "7dEeVMZWi53zTWsxZbJJAz",
      "is_local" : false,
      "is_playable" : true,
      "name" : "Give of Your Best to the Master (Instrumental)",
      "popularity" : 0,
      "preview_url" : "https://p.scdn.co/mp3-preview/c942b96a2cd16937ac560623ec0ecf5cd0c5fb8e?cid=774b29d4f13844c495f206cafdad9c86",
      "track_number" : 20,
      "type" : "track",
      "uri" : "spotify:track:7dEeVMZWi53zTWsxZbJJAz"
    }, {
      "album" : {
        "album_type" : "album",
        "artists" : [ {
          "external_urls" : {
            "spotify" : "https://open.spotify.com/artist/3qNSsKNzzgoxfmBBwAIHUy"
          },
          "href" : "https://api.spotify.com/v1/artists/3qNSsKNzzgoxfmBBwAIHUy",
          "id" : "3qNSsKNzzgoxfmBBwAIHUy",
          "name" : "Lana Kim",
          "type" : "artist",
          "uri" : "spotify:artist:3qNSsKNzzgoxfmBBwAIHUy"
        } ],
        "external_urls" : {
          "spotify" : "https://open.spotify.com/album/1dSMnA1NKsi5tUcgucFEXe"
        },
        "href" : "https://api.spotify.com/v1/albums/1dSMnA1NKsi5tUcgucFEXe",
        "id" : "1dSMnA1NKsi5tUcgucFEXe",
        "images" : [ {
          "height" : 640,
          "url" : "https://i.scdn.co/image/ab67616d0000b2734fff1d0a3ffa2f454bcdaa2f",
          "width" : 640
        }, {
          "height" : 300,
          "url" : "https://i.scdn.co/image/ab67616d00001e024fff1d0a3ffa2f454bcdaa2f",
          "width" : 300
        }, {
          "height" : 64,
          "url" : "https://i.scdn.co/image/ab67616d000048514fff1d0a3ffa2f454bcdaa2f",
          "width" : 64
        } ],
        "name" : "All Christian Hymns - Vol. 8",
        "release_date" : "2011-02-20",
        "release_date_precision" : "day",
        "total_tracks" : 40,
        "type" : "album",
        "uri" : "spotify:album:1dSMnA1NKsi5tUcgucFEXe"
      },
      "artists" : [ {
        "external_urls" : {
          "spotify" : "https://open.spotify.com/artist/3qNSsKNzzgoxfmBBwAIHUy"
        },
        "href" : "https://api.spotify.com/v1/artists/3qNSsKNzzgoxfmBBwAIHUy",
        "id" : "3qNSsKNzzgoxfmBBwAIHUy",
        "name" : "Lana Kim",
        "type" : "artist",
        "uri" : "spotify:artist:3qNSsKNzzgoxfmBBwAIHUy"
      } ],
      "disc_number" : 1,
      "duration_ms" : 112953,
      "explicit" : false,
      "external_ids" : {
        "isrc" : "USJ3V1085528"
      },
      "external_urls" : {
        "spotify" : "https://open.spotify.com/track/6OY5xKCFop1e2RVKptXBjw"
      },
      "href" : "https://api.spotify.com/v1/tracks/6OY5xKCFop1e2RVKptXBjw",
      "id" : "6OY5xKCFop1e2RVKptXBjw",
      "is_local" : false,
      "is_playable" : true,
      "name" : "302 Give Of Your Best To The Master",
      "popularity" : 0,
      "preview_url" : "https://p.scdn.co/mp3-preview/dbf50cfa915b04b4e8dc7ace53e8fae88a27984d?cid=774b29d4f13844c495f206cafdad9c86",
      "track_number" : 27,
      "type" : "track",
      "uri" : "spotify:track:6OY5xKCFop1e2RVKptXBjw"
    }, {
      "album" : {
        "album_type" : "album",
        "artists" : [ {
          "external_urls" : {
            "spotify" : "https://open.spotify.com/artist/5z4zHHL1CASzsG08ypL5mm"
          },
          "href" : "https://api.spotify.com/v1/artists/5z4zHHL1CASzsG08ypL5mm",
          "id" : "5z4zHHL1CASzsG08ypL5mm",
          "name" : "Kenneth Lip-Khoon Soh",
          "type" : "artist",
          "uri" : "spotify:artist:5z4zHHL1CASzsG08ypL5mm"
        } ],
        "external_urls" : {
          "spotify" : "https://open.spotify.com/album/6LLgDrW5hIMmbeR6q3Qtla"
        },
        "href" : "https://api.spotify.com/v1/albums/6LLgDrW5hIMmbeR6q3Qtla",
        "id" : "6LLgDrW5hIMmbeR6q3Qtla",
        "images" : [ {
          "height" : 640,
          "url" : "https://i.scdn.co/image/ab67616d0000b2735e7ff969718f19b6a8a73dd0",
          "width" : 640
        }, {
          "height" : 300,
          "url" : "https://i.scdn.co/image/ab67616d00001e025e7ff969718f19b6a8a73dd0",
          "width" : 300
        }, {
          "height" : 64,
          "url" : "https://i.scdn.co/image/ab67616d000048515e7ff969718f19b6a8a73dd0",
          "width" : 64
        } ],
        "name" : "Shines of Glory",
        "release_date" : "2011-08-12",
        "release_date_precision" : "day",
        "total_tracks" : 10,
        "type" : "album",
        "uri" : "spotify:album:6LLgDrW5hIMmbeR6q3Qtla"
      },
      "artists" : [ {
        "external_urls" : {
          "spotify" : "https://open.spotify.com/artist/5z4zHHL1CASzsG08ypL5mm"
        },
        "href" : "https://api.spotify.com/v1/artists/5z4zHHL1CASzsG08ypL5mm",
        "id" : "5z4zHHL1CASzsG08ypL5mm",
        "name" : "Kenneth Lip-Khoon Soh",
        "type" : "artist",
        "uri" : "spotify:artist:5z4zHHL1CASzsG08ypL5mm"
      } ],
      "disc_number" : 1,
      "duration_ms" : 273560,
      "explicit" : false,
      "external_ids" : {
        "isrc" : "ushm91129693"
      },
      "external_urls" : {
        "spotify" : "https://open.spotify.com/track/5VsGRAnkSNghMnpvJsNUmd"
      },
      "href" : "https://api.spotify.com/v1/tracks/5VsGRAnkSNghMnpvJsNUmd",
      "id" : "5VsGRAnkSNghMnpvJsNUmd",
      "is_local" : false,
      "is_playable" : true,
      "name" : "Give of Your Best to the Master, Op.16, No.2",
      "popularity" : 0,
      "preview_url" : "https://p.scdn.co/mp3-preview/3c05bc9a8e92b6f532cfd892dcfe3e06cf3d42b3?cid=774b29d4f13844c495f206cafdad9c86",
      "track_number" : 8,
      "type" : "track",
      "uri" : "spotify:track:5VsGRAnkSNghMnpvJsNUmd"
    }, {
      "album" : {
        "album_type" : "album",
        "artists" : [ {
          "external_urls" : {
            "spotify" : "https://open.spotify.com/artist/05sGBQhc6wrRAOZYo3gWqP"
          },
          "href" : "https://api.spotify.com/v1/artists/05sGBQhc6wrRAOZYo3gWqP",
          "id" : "05sGBQhc6wrRAOZYo3gWqP",
          "name" : "Worship Music Project",
          "type" : "artist",
          "uri" : "spotify:artist:05sGBQhc6wrRAOZYo3gWqP"
        } ],
        "external_urls" : {
          "spotify" : "https://open.spotify.com/album/3eRMfRTIMvBMRCDil3oJOL"
        },
        "href" : "https://api.spotify.com/v1/albums/3eRMfRTIMvBMRCDil3oJOL",
        "id" : "3eRMfRTIMvBMRCDil3oJOL",
        "images" : [ {
          "height" : 640,
          "url" : "https://i.scdn.co/image/ab67616d0000b273db6fb39516244b71db848a9c",
          "width" : 640
        }, {
          "height" : 300,
          "url" : "https://i.scdn.co/image/ab67616d00001e02db6fb39516244b71db848a9c",
          "width" : 300
        }, {
          "height" : 64,
          "url" : "https://i.scdn.co/image/ab67616d00004851db6fb39516244b71db848a9c",
          "width" : 64
        } ],
        "name" : "Endless Hymns For Opening Prayers 8 (기도를 여는 끊이지 않는 찬송가 8)",
        "release_date" : "2014-07-24",
        "release_date_precision" : "day",
        "total_tracks" : 8,
        "type" : "album",
        "uri" : "spotify:album:3eRMfRTIMvBMRCDil3oJOL"
      },
      "artists" : [ {
        "external_urls" : {
          "spotify" : "https://open.spotify.com/artist/05sGBQhc6wrRAOZYo3gWqP"
        },
        "href" : "https://api.spotify.com/v1/artists/05sGBQhc6wrRAOZYo3gWqP",
        "id" : "05sGBQhc6wrRAOZYo3gWqP",
        "name" : "Worship Music Project",
        "type" : "artist",
        "uri" : "spotify:artist:05sGBQhc6wrRAOZYo3gWqP"
      } ],
      "disc_number" : 1,
      "duration_ms" : 306001,
      "explicit" : false,
      "external_ids" : {
        "isrc" : "KRB361433156"
      },
      "external_urls" : {
        "spotify" : "https://open.spotify.com/track/7psKcz7xxuD0ER3GHGICln"
      },
      "href" : "https://api.spotify.com/v1/tracks/7psKcz7xxuD0ER3GHGICln",
      "id" : "7psKcz7xxuD0ER3GHGICln",
      "is_local" : false,
      "is_playable" : true,
      "name" : "Give of Your Best to The Master (주님께 귀한 것 드려)",
      "popularity" : 0,
      "preview_url" : "https://p.scdn.co/mp3-preview/8b6bea1ab6954b1d35cf4979b9ea67438aeff3eb?cid=774b29d4f13844c495f206cafdad9c86",
      "track_number" : 6,
      "type" : "track",
      "uri" : "spotify:track:7psKcz7xxuD0ER3GHGICln"
    } ],
    "limit" : 10,
    "next" : "https://api.spotify.com/v1/search?query=Give+of+Your+Best+to+the+Master&type=track&market=US&offset=15&limit=10",
    "offset" : 5,
    "previous" : "https://api.spotify.com/v1/search?query=Give+of+Your+Best+to+the+Master&type=track&market=US&offset=0&limit=10",
    "total" : 17
  }
}