{
  "tracks" : {
    "href" : "https://api.spotify.com/v1/search?query=More+About+Jesus&type=track&market=US&offset=5&limit=10",
    "items" : [ {
      "album" : {
        "album_type" : "album",
        "artists" : [ {
          "external_urls" : {
            "spotify" : "https://open.spotify.com/artist/11sAWrpIkFUPQlXoQqpeBV"
          },
          "href" : "https://api.spotify.com/v1/artists/11sAWrpIkFUPQlXoQqpeBV",
          "id" : "11sAWrpIkFUPQlXoQqpeBV",
          "name" : "Bill & Gloria Gaither",
          "type" : "artist",
          "uri" : "spotify:artist:11sAWrpIkFUPQlXoQqpeBV"
        } ],
        "external_urls" : {
          "spotify" : "https://open.spotify.com/album/2QegcGhKqpVst8qu55lqIp"
        },
        "href" : "https://api.spotify.com/v1/albums/2QegcGhKqpVst8qu55lqIp",
        "id" : "2QegcGhKqpVst8qu55lqIp",
        "images" : [ {
          "height" : 640,
          "url" : "https://i.scdn.co/image/ab67616d0000b273fd78272f3d05788970feab8d",
          "width" : 640
        }, {
          "height" : 300,
          "url" : "https://i.scdn.co/image/ab67616d00001e02fd78272f3d05788970feab8d",
          "width" : 300
        }, {
          "height" : 64,
          "url" : "https://i.scdn.co/image/ab67616d00004851fd78272f3d05788970feab8d",
          "width" : 64
        } ],
        "name" : "Country Bluegrass Homecoming Vol. 2",
        "release_date" : "2008-01-01",
        "release_date_precision" : "day",
        "total_tracks" : 20,
        "type" : "album",
        "uri" : "spotify:album:2QegcGhKqpVst8qu55lqIp"
      },
      "artists" : [ {
        "external_urls" : {
          "spotify" : "https://open.spotify.com/artist/3IhWQSrLj8EJjdvjFTpCyo"
        },
        "href" : "https://api.spotify.com/v1/artists/3IhWQSrLj8EJjdvjFTpCyo",
        "id" : "3IhWQSrLj8EJjdvjFTpCyo",
        "name" : "Vince Gill",
        "type" : "artist",
        "uri" : "spotify:artist:3IhWQSrLj8EJjdvjFTpCyo"
      } ],
      "disc_number" : 1,
      "duration_ms" : 249453,
      "explicit" : false,
      "external_ids" : {
        "isrc" : "US3270404610"
      },
      "external_urls" : {
        "spotify" : "https://open.spotify.com/track/5fvD3O1Wm9kaFOwzofUCli"
      },
      "href" : "https://api.spotify.com/v1/tracks/5fvD3O1Wm9kaFOwzofUCli",
      "id" : "5fvD3O1Wm9kaFOwzofUCli",
      "is_local" : false,
      "is_playable" : true,
      "name" : "Tell Me One More Time About Jesus",
      "popularity" : 9,
      "preview_url" : null,
      "track_number" : 20,
      "type" : "track",
      "uri" : "spotify:track:5fvD3O1Wm9kaFOwzofUCli"
    }, {
      "album" : {
        "album_type" : "compilation",
        "artists" : [ {
          "external_urls" : {
            "spotify" : "https://open.spotify.com/artist/0LyfQWJT6nXafLPZqxe9Of"
          },
          "href" : "https://api.spotify.com/v1/artists/0LyfQWJT6nXafLPZqxe9Of",
          "id" : "0LyfQWJT6nXafLPZqxe9Of",
          "name" : "Various Artists",
          "type" : "artist",
          "uri" : "spotify:artist:0LyfQWJT6nXafLPZqxe9Of"
        } ],
        "external_urls" : {
          "spotify" : "https://open.spotify.com/album/7hUXX6c6QkbujHhCmTlgNU"
        },
        "href" : "https://api.spotify.com/v1/albums/7hUXX6c6QkbujHhCmTlgNU",
        "id" : "7hUXX6c6QkbujHhCmTlgNU",
        "images" : [ {
          "height" : 640,
          "url" : "https://i.scdn.co/image/ab67616d0000b273fb539b0ddd9b32cb96845f98",
          "width" : 640
        }, {
          "height" : 300,
          "url" : "https://i.scdn.co/image/ab67616d00001e02fb539b0ddd9b32cb96845f98",
          "width" : 300
        }, {
          "height" : 64,
          "url" : "https://i.scdn.co/image/ab67616d00004851fb539b0ddd9b32cb96845f98",
          "width" : 64
        } ],
        "name" : "50 Golden Hymns",
        "release_date" : "2010-02-14",
        "release_date_precision" : "day",
        "total_tracks" : 50,
        "type" : "album",
        "uri" : "spotify:album:7hUXX6c6QkbujHhCmTlgNU"
      },
      "artists" : [ {
        "external_urls" : {
          "spotify" : "https://open.spotify.com/artist/5Ij0tzLgKrsZjPzyUvVjey"
        },
        "href" : "https://api.spotify.com/v1/artists/5Ij0tzLgKrsZjPzyUvVjey",
        "id" : "5Ij0tzLgKrsZjPzyUvVjey",
        "name" : "The Celebration Choir",
        "type" : "artist",
        "uri" : "spotify:artist:5Ij0tzLgKrsZjPzyUvVjey"
      } ],
      "disc_number" : 1,
      "duration_ms" : 141320,
      "explicit" : false,
      "external_ids" : {
        "isrc" : "GBBTM0910003"
      },
      "external_urls" : {
        "spotify" : "https://open.spotify.com/track/6Ib0viyuqQwnq9FaAMeCnI"
      },
      "href" : "https://api.spotify.com/v1/tracks/6Ib0viyuqQwnq9FaAMeCnI",
      "id" : "6Ib0viyuqQwnq9FaAMeCnI",
      "is_local" : false,
      "is_playable" : true,
      "name" : "More About Jesus Would I Know",
      "popularity" : 10,
      "preview_url" : "https://p.scdn.co/mp3-preview/caec7a5c075ccf88baeb39c7e98865628101df48?cid=774b29d4f13844c495f206cafdad9c86",
      "track_number" : 3,
      "type" : "track",
      "uri" : "spotify:track:6Ib0viyuqQwnq9FaAMeCnI"
    }, {
      "album" : {
        "album_type" : "album",
        "artists" : [ {
          "external_urls" : {
            "spotify" : "https://open.spotify.com/artist/4d8pFJwCoD1mX4wAn7Ax2h"
          },
          "href" : "https://api.spotify.com/v1/artists/4d8pFJwCoD1mX4wAn7Ax2h",
          "id" : "4d8pFJwCoD1mX4wAn7Ax2h",
          "name" : "Clovercroft Kids",
          "type" : "artist",
          "uri" : "spotify:artist:4d8pFJwCoD1mX4wAn7Ax2h"
        } ],
        "external_urls" : {
          "spotify" : "https://open.spotify.com/album/1fUH6Xh4HZmbOaYJBeWAZA"
        },
        "href" : "https://api.spotify.com/v1/albums/1fUH6Xh4HZmbOaYJBeWAZA",
        "id" : "1fUH6Xh4HZmbOaYJBeWAZA",
        "images" : [ {
          "height" : 640,
          "url" : "https://i.scdn.co/image/ab67616d0000b2735431f5e400f7da6b32106f40",
          "width" : 640
        }, {
          "height" : 300,
          "url" : "https://i.scdn.co/image/ab67616d00001e025431f5e400f7da6b32106f40",
          "width" : 300
        }, {
          "height" : 64,
          "url" : "https://i.scdn.co/image/ab67616d000048515431f5e400f7da6b32106f40",
          "width" : 64
        } ],
        "name" : "Hymns for Kids: Rock of Ages",
        "release_date" : "2014-09-30",
        "release_date_precision" : "day",
        "total_tracks" : 40,
        "type" : "album",
        "uri" : "spotify:album:1fUH6Xh4HZmbOaYJBeWAZA"
      },
      "artists" : [ {
        "external_urls" : {
          "spotify" : "https://open.spotify.com/artist/4d8pFJwCoD1mX4wAn7Ax2h"
        },
        "href" : "https://api.spotify.com/v1/artists/4d8pFJwCoD1mX4wAn7Ax2h",
        "id" : "4d8pFJwCoD1mX4wAn7Ax2h",
        "name" : "Clovercroft Kids",
        "type" : "artist",
        "uri" : "spotify:artist:4d8pFJwCoD1mX4wAn7Ax2h"
      } ],
      "disc_number" : 1,
      "duration_ms" : 128653,
      "explicit" : false,
      "external_ids" : {
        "isrc" : "USACX1401296"
      },
      "external_urls" : {
        "spotify" : "https://open.spotify.com/track/2sf468YqpBoNDlfI0LJ8tL"
      },
      "href" : "https://api.spotify.com/v1/tracks/2sf468YqpBoNDlfI0LJ8tL",
      "id" : "2sf468YqpBoNDlfI0LJ8tL",
      "is_local" : false,
      "is_playable" : true,
      "name" : "More About Jesus",
      "popularity" : 8,
      "preview_url" : "https://p.scdn.co/mp3-preview/53ca8bb7898220bb92d8f0f1cb181fc161e3f127?cid=774b29d4f13844c495f206cafdad9c86",
      "track_number" : 5,
      "type" : "track",
      "uri" : "spotify:track:2sf468YqpBoNDlfI0LJ8tL"
    }, {
      "album" : {
        "album_type" : "compilation",
        "artists" : [ {
          "external_urls" : {
            "spotify" : "https://open.spotify.com/artist/0LyfQWJT6nXafLPZqxe9Of"
          },
          "href" : "https://api.spotify.com/v1/artists/0LyfQWJT6nXafLPZqxe9Of",
          "id" : "0LyfQWJT6nXafLPZqxe9Of",
          "name" : "Various Artists",
          "type" : "artist",
          "uri" : "spotify:artist:0LyfQWJT6nXafLPZqxe9Of"
        } ],
        "external_urls" : {
          "spotify" : "https://open.spotify.com/album/0lCW2BxTNBHZTm05ZemzWk"
        },
        "href" : "https://api.spotify.com/v1/albums/0lCW2BxTNBHZTm05ZemzWk",
        "id" : "0lCW2BxTNBHZTm05ZemzWk",
        "images" : [ {
          "height" : 640,
          "url" : "https://i.scdn.co/image/ab67616d0000b273a6ced8240e1cf64ae271ad25",
          "width" : 640
        }, {
          "height" : 300,
          "url" : "https://i.scdn.co/image/ab67616d00001e02a6ced8240e1cf64ae271ad25",
          "width" : 300
        }, {
          "height" : 64,
          "url" : "https://i.scdn.co/image/ab67616d00004851a6ced8240e1cf64ae271ad25",
          "width" : 64
        } ],
        "name" : "Ultimate Hymns For Today",
        "release_date" : "2016-02-05",
        "release_date_precision" : "day",
        "total_tracks" : 30,
        "type" : "album",
        "uri" : "spotify:album:0lCW2BxTNBHZTm05ZemzWk"
      },
      "artists" : [ {
        "external_urls" : {
          "spotify" : "https://open.spotify.com/artist/1qQL3nrBEgsnUQn50CZPtL"
        },
        "href" : "https://api.spotify.com/v1/artists/1qQL3nrBEgsnUQn50CZPtL",
        "id" : "1qQL3nrBEgsnUQn50CZPtL",
        "name" : "Savannah Ellis",
        "type" : "artist",
        "uri" : "spotify:artist:1qQL3nrBEgsnUQn50CZPtL"
      } ],
      "disc_number" : 1,
      "duration_ms" : 209920,
      "explicit" : false,
      "external_ids" : {
        "isrc" : "US25L1501097"
      },
      "external_urls" : {
        "spotify" : "https://open.spotify.com/track/2UWhmnZ58J15l0nR8YGzYT"
      },
      "href" : "https://api.spotify.com/v1/tracks/2UWhmnZ58J15l0nR8YGzYT",
      "id" : "2UWhmnZ58J15l0nR8YGzYT",
      "is_local" : false,
      "is_playable" : true,
      "name" : "More About Jesus",
      "popularity" : 4,
      "preview_url" : "https://p.scdn.co/mp3-preview/f2f0d9addc2af6195f003fc629a43264c9137806?cid=774b29d4f13844c495f206cafdad9c86",
      "track_number" : 30,
      "type" : "track",
      "uri" : "spotify:track:2UWhmnZ58J15l0nR8YGzYT"
    }, {
      "album" : {
        "album_type" : "compilation",
        "artists" : [ {
          "external_urls" : {
            "spotify" : "https://open.spotify.com/artist/0LyfQWJT6nXafLPZqxe9Of"
          },
          "href" : "https://api.spotify.com/v1/artists/0LyfQWJT6nXafLPZqxe9Of",
          "id" : "0LyfQWJT6nXafLPZqxe9Of",
          "name" : "Various Artists",
          "type" : "artist",
          "uri" : "spotify:artist:0LyfQWJT6nXafLPZqxe9Of"
        } ],
        "external_urls" : {
          "spotify" : "https://open.spotify.com/album/2XWLo2aqR5JxJwsGDghB6w"
        },
        "href" : "https://api.spotify.com/v1/albums/2XWLo2aqR5JxJwsGDghB6w",
        "id" : "2XWLo2aqR5JxJwsGDghB6w",
        "images" : [ {
          "height" : 640,
          "url" : "https://i.scdn.co/image/ab67616d0000b273c9a87ccb5943d55fa2717c20",
          "width" : 640
        }, {
          "height" : 300,
          "url" : "https://i.scdn.co/image/ab67616d00001e02c9a87ccb5943d55fa2717c20",
          "width" : 300
        }, {
          "height" : 64,
          "url" : "https://i.scdn.co/image/ab67616d00004851c9a87ccb5943d55fa2717c20",
          "width" : 64
        } ],
        "name" : "Be the One",
        "release_date" : "2011-05-10",
        "release_date_precision" : "day",
        "total_tracks" : 14,
        "type" : "album",
        "uri" : "spotify:album:2XWLo2aqR5JxJwsGDghB6w"
      },
      "artists" : [ {
        "external_urls" : {
          "spotify" : "https://open.spotify.com/artist/3bGxpHKF2t7m2Eruz4Cbqq"
        },
        "href" : "https://api.spotify.com/v1/artists/3bGxpHKF2t7m2Eruz4Cbqq",
        "id" : "3bGxpHKF2t7m2Eruz4Cbqq",
        "name" : "Sons of the Prophets",
        "type" : "artist",
        "uri" : "spotify:artist:3bGxpHKF2t7m2Eruz4Cbqq"
      } ],
      "disc_number" : 1,
      "duration_ms" : 113320,
      "explicit" : false,
      "external_ids" : {
        "isrc" : "uscgh1465519"
      },
      "external_urls" : {
        "spotify" : "https://open.spotify.com/track/5xbUCBa0JWJWTcoBVRSScr"
      },
      "href" : "https://api.spotify.com/v1/tracks/5xbUCBa0JWJWTcoBVRSScr",
      "id" : "5xbUCBa0JWJWTcoBVRSScr",
      "is_local" : false,
      "is_playable" : true,
      "name" : "More About Jesus",
      "popularity" : 4,
      "preview_url" : "https://p.scdn.co/mp3-preview/3f60aec98861f57068ca7b0ad0f5b8329f8d1b2d?cid=774b29d4f13844c495f206cafdad9c86",
      "track_number" : 2,
      "type" : "track",
      "uri" : "spotify:track:5xbUCBa0JWJWTcoBVRSScr"
    }, {
      "album" : {
        "album_type" : "album",
        "artists" : [ {
          "external_urls" : {
            "spotify" : "https://open.spotify.com/artist/0jfpNnxAHtb2DC62Il99Tq"
          },
          "href" : "https://api.spotify.com/v1/artists/0jfpNnxAHtb2DC62Il99Tq",
          "id" : "0jfpNnxAHtb2DC62Il99Tq",
          "name" : "Gathan Graham",
          "type" : "artist",
          "uri" : "spotify:artist:0jfpNnxAHtb2DC62Il99Tq"
        } ],
        "external_urls" : {
          "spotify" : "https://open.spotify.com/album/1Mm1VZ8fADNfkTs7YXtEmq"
        },
        "href" : "https://api.spotify.com/v1/albums/1Mm1VZ8fADNfkTs7YXtEmq",
        "id" : "1Mm1VZ8fADNfkTs7YXtEmq",
        "images" : [ {
          "height" : 640,
          "url" : "https://i.scdn.co/image/ab67616d0000b273f19b11bf43eca03075b5c04c",
          "width" : 640
        }, {
          "height" : 300,
          "url" : "https://i.scdn.co/image/ab67616d00001e02f19b11bf43eca03075b5c04c",
          "width" : 300
        }, {
          "height" : 64,
          "url" : "https://i.scdn.co/image/ab67616d00004851f19b11bf43eca03075b5c04c",
          "width" : 64
        } ],
        "name" : "Quiet Moments of Comfort",
        "release_date" : "2015-04-01",
        "release_date_precision" : "day",
        "total_tracks" : 22,
        "type" : "album",
        "uri" : "spotify:album:1Mm1VZ8fADNfkTs7YXtEmq"
      },
      "artists" : [ {
        "external_urls" : {
          "spotify" : "https://open.spotify.com/artist/0jfpNnxAHtb2DC62Il99Tq"
        },
        "href" : "https://api.spotify.com/v1/artists/0jfpNnxAHtb2DC62Il99Tq",
        "id" : "0jfpNnxAHtb2DC62Il99Tq",
        "name" : "Gathan Graham",
        "type" : "artist",
        "uri" : "spotify:artist:0jfpNnxAHtb2DC62Il99Tq"
      } ],
      "disc_number" : 1,
      "duration_ms" : 166392,
      "explicit" : false,
      "external_ids" : {
        "isrc" : "uscgj1548168"
      },
      "external_urls" : {
        "spotify" : "https://open.spotify.com/track/7hq9DJOu4ExPGhubilgfJT"
      },
      "href" : "https://api.spotify.com/v1/tracks/7hq9DJOu4ExPGhubilgfJT",
      "id" : "7hq9DJOu4ExPGhubilgfJT",
      "is_local" : false,
      "is_playable" : true,
      "name" : "More About Jesus",
      "popularity" : 3,
      "preview_url" : "https://p.scdn.co/mp3-preview/5e38ffff7cfd1139e727a1e26ecc56b275eadaf9?cid=774b29d4f13844c495f206cafdad9c86",
      "track_number" : 7,
      "type" : "track",
      "uri" : "spotify:track:7hq9DJOu4ExPGhubilgfJT"
    }, {
      "album" : {
        "album_type" : "album",
        "artists" : [ {
          "external_urls" : {
            "spotify" : "https://open.spotify.com/artist/6zCKr405jB5b6QI1IfFnf2"
          },
          "href" : "https://api.spotify.com/v1/artists/6zCKr405jB5b6QI1IfFnf2",
          "id" : "6zCKr405jB5b6QI1IfFnf2",
          "name" : "Dallas Christian Adult Concert Choir",
          "type" : "artist",
          "uri" : "spotify:artist:6zCKr405jB5b6QI1IfFnf2"
        } ],
        "external_urls" : {
          "spotify" : "https://open.spotify.com/album/7CvZ87srcVquzpuAlThi4U"
        },
        "href" : "https://api.spotify.com/v1/albums/7CvZ87srcVquzpuAlThi4U",
        "id" : "7CvZ87srcVquzpuAlThi4U",
        "images" : [ {
          "height" : 640,
          "url" : "https://i.scdn.co/image/ab67616d0000b273bafdb26f6eac26bd3f70121f",
          "width" : 640
        }, {
          "height" : 300,
          "url" : "https://i.scdn.co/image/ab67616d00001e02bafdb26f6eac26bd3f70121f",
          "width" : 300
        }, {
          "height" : 64,
          "url" : "https://i.scdn.co/image/ab67616d00004851bafdb26f6eac26bd3f70121f",
          "width" : 64
        } ],
        "name" : "The Best of Congregational Singing",
        "release_date" : "2008-05-13",
        "release_date_precision" : "day",
        "total_tracks" : 61,
        "type" : "album",
        "uri" : "spotify:album:7CvZ87srcVquzpuAlThi4U"
      },
      "artists" : [ {
        "external_urls" : {
          "spotify" : "https://open.spotify.com/artist/6zCKr405jB5b6QI1IfFnf2"
        },
        "href" : "https://api.spotify.com/v1/artists/6zCKr405jB5b6QI1IfFnf2",
        "id" : "6zCKr405jB5b6QI1IfFnf2",
        "name" : "Dallas Christian Adult Concert Choir",
        "type" : "artist",
        "uri" : "spotify:artist:6zCKr405jB5b6QI1IfFnf2"
      } ],
      "disc_number" : 1,
      "duration_ms" : 107760,
      "explicit" : false,
      "external_ids" : {
        "isrc" : "USMZA0811581"
      },
      "external_urls" : {
        "spotify" : "https://open.spotify.com/track/3gocovDEjpGb3VUKlFX7em"
      },
      "href" : "https://api.spotify.com/v1/tracks/3gocovDEjpGb3VUKlFX7em",
      "id" : "3gocovDEjpGb3VUKlFX7em",
      "is_local" : false,
      "is_playable" : true,
      "name" : "More, More About Jesus - Congregational",
      "popularity" : 5,
      "preview_url" : "https://p.scdn.co/mp3-preview/3648214291dfd3cdd30898a7f65238cc42d947bf?cid=774b29d4f13844c495f206cafdad9c86",
      "track_number" : 25,
      "type" : "track",
      "uri" : "spotify:track:3gocovDEjpGb3VUKlFX7em"
    }, {
      "album" : {
        "album_type" : "album",
        "artists" : [ {
          "external_urls" : {
            "spotify" : "https://open.spotify.com/artist/0zAZS77fyK4sqjsEOGUERM"
          },
          "href" : "https://api.spotify.com/v1/artists/0zAZS77fyK4sqjsEOGUERM",
          "id" : "0zAZS77fyK4sqjsEOGUERM",
          "name" : "Big Country Bluegrass",
          "type" : "artist",
          "uri" : "spotify:artist:0zAZS77fyK4sqjsEOGUERM"
        } ],
        "external_urls" : {
          "spotify" : "https://open.spotify.com/album/3h4rVvLGxQmAxYyq39NbEW"
        },
        "href" : "https://api.spotify.com/v1/albums/3h4rVvLGxQmAxYyq39NbEW",
        "id" : "3h4rVvLGxQmAxYyq39NbEW",
        "images" : [ {
          "height" : 640,
          "url" : "https://i.scdn.co/image/ab67616d0000b2735806794ac26ae6078a016753",
          "width" : 640
        }, {
          "height" : 300,
          "url" : "https://i.scdn.co/image/ab67616d00001e025806794ac26ae6078a016753",
          "width" : 300
        }, {
          "height" : 64,
          "url" : "https://i.scdn.co/image/ab67616d000048515806794ac26ae6078a016753",
          "width" : 64
        } ],
        "name" : "Let Them Know I'm From Virginia",
        "release_date" : "2017-03-17",
        "release_date_precision" : "day",
        "total_tracks" : 12,
        "type" : "album",
        "uri" : "spotify:album:3h4rVvLGxQmAxYyq39NbEW"
      },
      "artists" : [ {
        "external_urls" : {
          "spotify" : "https://open.spotify.com/artist/0zAZS77fyK4sqjsEOGUERM"
        },
        "href" : "https://api.spotify.com/v1/artists/0zAZS77fyK4sqjsEOGUERM",
        "id" : "0zAZS77fyK4sqjsEOGUERM",
        "name" : "Big Country Bluegrass",
        "type" : "artist",
        "uri" : "spotify:artist:0zAZS77fyK4sqjsEOGUERM"
      } ],
      "disc_number" : 1,
      "duration_ms" : 242026,
      "explicit" : false,
      "external_ids" : {
        "isrc" : "US37G1686206"
      },
      "external_urls" : {
        "spotify" : "https://open.spotify.com/track/0Q0m3VjYCvzKlmuG9R6jEi"
      },
      "href" : "https://api.spotify.com/v1/tracks/0Q0m3VjYCvzKlmuG9R6jEi",
      "id" : "0Q0m3VjYCvzKlmuG9R6jEi",
      "is_local" : false,
      "is_playable" : true,
      "name" : "One More Time Let Me Tell You (About Jesus)",
      "popularity" : 5,
      "preview_url" : "https://p.scdn.co/mp3-preview/e8d31efe45a15239988a61ca5c51758e7da3823e?cid=774b29d4f13844c495f206cafdad9c86",
      "track_number" : 6,
      "type" : "track",
      "uri" : "spotify:track:0Q0m3VjYCvzKlmuG9R6jEi"
    }, {
      "album" : {
        "album_type" : "album",
        "artists" : [ {
          "external_urls" : {
            "spotify" : "https://open.spotify.com/artist/5ulhxex8OfCL5oji1V95aQ"
          },
          "href" : "https://api.spotify.com/v1/artists/5ulhxex8OfCL5oji1V95aQ",
          "id" : "5ulhxex8OfCL5oji1V95aQ",
          "name" : "Worship Service Resources",
          "type" : "artist",
          "uri" : "spotify:artist:5ulhxex8OfCL5oji1V95aQ"
        } ],
        "external_urls" : {
          "spotify" : "https://open.spotify.com/album/6cWocTqCelI23t2V0BHHb7"
        },
        "href" : "https://api.spotify.com/v1/albums/6cWocTqCelI23t2V0BHHb7",
        "id" : "6cWocTqCelI23t2V0BHHb7",
        "images" : [ {
          "height" : 640,
          "url" : "https://i.scdn.co/image/ab67616d0000b273b2f0663a4fd8179ec6442af9",
          "width" : 640
        }, {
          "height" : 300,
          "url" : "https://i.scdn.co/image/ab67616d00001e02b2f0663a4fd8179ec6442af9",
          "width" : 300
        }, {
          "height" : 64,
          "url" : "https://i.scdn.co/image/ab67616d00004851b2f0663a4fd8179ec6442af9",
          "width" : 64
        } ],
        "name" : "25 Inspirational Hymns: Volume I",
        "release_date" : "2012-02-07",
        "release_date_precision" : "day",
        "total_tracks" : 25,
        "type" : "album",
        "uri" : "spotify:album:6cWocTqCelI23t2V0BHHb7"
      },
      "artists" : [ {
        "external_urls" : {
          "spotify" : "https://open.spotify.com/artist/5ulhxex8OfCL5oji1V95aQ"
        },
        "href" : "https://api.spotify.com/v1/artists/5ulhxex8OfCL5oji1V95aQ",
        "id" : "5ulhxex8OfCL5oji1V95aQ",
        "name" : "Worship Service Resources",
        "type" : "artist",
        "uri" : "spotify:artist:5ulhxex8OfCL5oji1V95aQ"
      } ],
      "disc_number" : 1,
      "duration_ms" : 146880,
      "explicit" : false,
      "external_ids" : {
        "isrc" : "US79N1200069"
      },
      "external_urls" : {
        "spotify" : "https://open.spotify.com/track/7rn5RXTYdS8AwDgucfUglp"
      },
      "href" : "https://api.spotify.com/v1/tracks/7rn5RXTYdS8AwDgucfUglp",
      "id" : "7rn5RXTYdS8AwDgucfUglp",
      "is_local" : false,
      "is_playable" : true,
      "name" : "More About Jesus",
      "popularity" : 2,
      "preview_url" : "https://p.scdn.co/mp3-preview/c68950c40202186f812a282f84a0f8d8da7cf021?cid=774b29d4f13844c495f206cafdad9c86",
      "track_number" : 11,
      "type" : "track",
      "uri" : "spotify:track:7rn5RXTYdS8AwDgucfUglp"
    }, {
      "album" : {
        "album_type" : "album",
        "artists" : [ {
          "external_urls" : {
            "spotify" : "https://open.spotify.com/artist/3zlTh9JWD6uUz0CobG83Rv"
          },
          "href" : "https://api.spotify.com/v1/artists/3zlTh9JWD6uUz0CobG83Rv",
          "id" : "3zlTh9JWD6uUz0CobG83Rv",
          "name" : "The Christian Choristers",
          "type" : "artist",
          "uri" : "spotify:artist:3zlTh9JWD6uUz0CobG83Rv"
        } ],
        "external_urls" : {
          "spotify" : "https://open.spotify.com/album/7pEPdjs2iM67boCPsS7TcT"
        },
        "href" : "https://api.spotify.com/v1/albums/7pEPdjs2iM67boCPsS7TcT",
        "id" : "7pEPdjs2iM67boCPsS7TcT",
        "images" : [ {
          "height" : 640,
          "url" : "https://i.scdn.co/image/ab67616d0000b2732c9c428fa7d3924926c033c7",
          "width" : 640
        }, {
          "height" : 300,
          "url" : "https://i.scdn.co/image/ab67616d00001e022c9c428fa7d3924926c033c7",
          "width" : 300
        }, {
          "height" : 64,
          "url" : "https://i.scdn.co/image/ab67616d000048512c9c428fa7d3924926c033c7",
          "width" : 64
        } ],
        "name" : "Campmeeting Choruses",
        "release_date" : "2006-08-02",
        "release_date_precision" : "day",
        "total_tracks" : 10,
        "type" : "album",
        "uri" : "spotify:album:7pEPdjs2iM67boCPsS7TcT"
      },
      "artists" : [ {
        "external_urls" : {
          "spotify" : "https://open.spotify.com/artist/3zlTh9JWD6uUz0CobG83Rv"
        },
        "href" : "https://api.spotify.com/v1/artists/3zlTh9JWD6uUz0CobG83Rv",
        "id" : "3zlTh9JWD6uUz0CobG83Rv",
        "name" : "The Christian Choristers",
        "type" : "artist",
        "uri" : "spotify:artist:3zlTh9JWD6uUz0CobG83Rv"
      } ],
      "disc_number" : 1,
      "duration_ms" : 168453,
      "explicit" : false,
      "external_ids" : {
        "isrc" : "US4R30605262"
      },
      "external_urls" : {
        "spotify" : "https://open.spotify.com/track/1Zrisj3OPmpp5FwYPmJQKh"
      },
      "href" : "https://api.spotify.com/v1/tracks/1Zrisj3OPmpp5FwYPmJQKh",
      "id" : "1Zrisj3OPmpp5FwYPmJQKh",
      "is_local" : false,
      "is_playable" : true,
      "name" : "More About Jesus",
      "popularity" : 4,
      "preview_url" : "https://p.scdn.co/mp3-preview/eccedad895d438afc5ab9a7d4e1f2a0dd8ed53b1?cid=774b29d4f13844c495f206cafdad9c86",
      "track_number" : 3,
      "type" : "track",
      "uri" : "spotify:track:1Zrisj3OPmpp5FwYPmJQKh"
    } ],
    "limit" : 10,
    "next" : "https://api.spotify.com/v1/search?query=More+About+Jesus&type=track&market=US&offset=15&limit=10",
    "offset" : 5,
    "previous" : "https://api.spotify.com/v1/search?query=More+About+Jesus&type=track&market=US&offset=0&limit=10",
    "total" : 155
  }
}