{
  "tracks" : {
    "href" : "https://api.spotify.com/v1/search?query=Depth+of+Mercy&type=track&market=US&offset=5&limit=10",
    "items" : [ {
      "album" : {
        "album_type" : "album",
        "artists" : [ {
          "external_urls" : {
            "spotify" : "https://open.spotify.com/artist/2sHZLtiGJbXHAShjJIurVo"
          },
          "href" : "https://api.spotify.com/v1/artists/2sHZLtiGJbXHAShjJIurVo",
          "id" : "2sHZLtiGJbXHAShjJIurVo",
          "name" : "Red Mountain Church",
          "type" : "artist",
          "uri" : "spotify:artist:2sHZLtiGJbXHAShjJIurVo"
        } ],
        "external_urls" : {
          "spotify" : "https://open.spotify.com/album/6h57DTS1uIFRMoPaiUz9u1"
        },
        "href" : "https://api.spotify.com/v1/albums/6h57DTS1uIFRMoPaiUz9u1",
        "id" : "6h57DTS1uIFRMoPaiUz9u1",
        "images" : [ {
          "height" : 640,
          "url" : "https://i.scdn.co/image/ab67616d0000b273637e929377cd5877db3a2e12",
          "width" : 640
        }, {
          "height" : 300,
          "url" : "https://i.scdn.co/image/ab67616d00001e02637e929377cd5877db3a2e12",
          "width" : 300
        }, {
          "height" : 64,
          "url" : "https://i.scdn.co/image/ab67616d00004851637e929377cd5877db3a2e12",
          "width" : 64
        } ],
        "name" : "Depth of Mercy",
        "release_date" : "2003-12-01",
        "release_date_precision" : "day",
        "total_tracks" : 12,
        "type" : "album",
        "uri" : "spotify:album:6h57DTS1uIFRMoPaiUz9u1"
      },
      "artists" : [ {
        "external_urls" : {
          "spotify" : "https://open.spotify.com/artist/2sHZLtiGJbXHAShjJIurVo"
        },
        "href" : "https://api.spotify.com/v1/artists/2sHZLtiGJbXHAShjJIurVo",
        "id" : "2sHZLtiGJbXHAShjJIurVo",
        "name" : "Red Mountain Church",
        "type" : "artist",
        "uri" : "spotify:artist:2sHZLtiGJbXHAShjJIurVo"
      } ],
      "disc_number" : 1,
      "duration_ms" : 247431,
      "explicit" : false,
      "external_ids" : {
        "isrc" : "USDHM0703733"
      },
      "external_urls" : {
        "spotify" : "https://open.spotify.com/track/14l9osSJHGowV2GAGyR0fr"
      },
      "href" : "https://api.spotify.com/v1/tracks/14l9osSJHGowV2GAGyR0fr",
      "id" : "14l9osSJHGowV2GAGyR0fr",
      "is_local" : false,
      "is_playable" : true,
      "name" : "Depth of Mercy",
      "popularity" : 12,
      "preview_url" : "https://p.scdn.co/mp3-preview/01144382e4b9d6289c9df9f44a083748cd9941ce?cid=774b29d4f13844c495f206cafdad9c86",
      "track_number" : 3,
      "type" : "track",
      "uri" : "spotify:track:14l9osSJHGowV2GAGyR0fr"
    }, {
      "album" : {
        "album_type" : "single",
        "artists" : [ {
          "external_urls" : {
            "spotify" : "https://open.spotify.com/artist/4MNt4ilM1gZRHFqi9sros0"
          },
          "href" : "https://api.spotify.com/v1/artists/4MNt4ilM1gZRHFqi9sros0",
          "id" : "4MNt4ilM1gZRHFqi9sros0",
          "name" : "Kénosis",
          "type" : "artist",
          "uri" : "spotify:artist:4MNt4ilM1gZRHFqi9sros0"
        } ],
        "external_urls" : {
          "spotify" : "https://open.spotify.com/album/2XeyX0MAwF8bKssRnLXPQP"
        },
        "href" : "https://api.spotify.com/v1/albums/2XeyX0MAwF8bKssRnLXPQP",
        "id" : "2XeyX0MAwF8bKssRnLXPQP",
        "images" : [ {
          "height" : 640,
          "url" : "https://i.scdn.co/image/ab67616d0000b27311f4980450fb32bf74542db4",
          "width" : 640
        }, {
          "height" : 300,
          "url" : "https://i.scdn.co/image/ab67616d00001e0211f4980450fb32bf74542db4",
          "width" : 300
        }, {
          "height" : 64,
          "url" : "https://i.scdn.co/image/ab67616d0000485111f4980450fb32bf74542db4",
          "width" : 64
        } ],
        "name" : "Depth of Mercy",
        "release_date" : "2011-12-13",
        "release_date_precision" : "day",
        "total_tracks" : 4,
        "type" : "album",
        "uri" : "spotify:album:2XeyX0MAwF8bKssRnLXPQP"
      },
      "artists" : [ {
        "external_urls" : {
          "spotify" : "https://open.spotify.com/artist/4MNt4ilM1gZRHFqi9sros0"
        },
        "href" : "https://api.spotify.com/v1/artists/4MNt4ilM1gZRHFqi9sros0",
        "id" : "4MNt4ilM1gZRHFqi9sros0",
        "name" : "Kénosis",
        "type" : "artist",
        "uri" : "spotify:artist:4MNt4ilM1gZRHFqi9sros0"
      } ],
      "disc_number" : 1,
      "duration_ms" : 346240,
      "explicit" : false,
      "external_ids" : {
        "isrc" : "QMVP91100015"
      },
      "external_urls" : {
        "spotify" : "https://open.spotify.com/track/3MUgMXtPZWG5LmWuvfHb3Q"
      },
      "href" : "https://api.spotify.com/v1/tracks/3MUgMXtPZWG5LmWuvfHb3Q",
      "id" : "3MUgMXtPZWG5LmWuvfHb3Q",
      "is_local" : false,
      "is_playable" : true,
      "name" : "Depth of Mercy",
      "popularity" : 12,
      "preview_url" : "https://p.scdn.co/mp3-preview/06104c74b5ab0bbc5647ea186f4de94bbfe6e7d9?cid=774b29d4f13844c495f206cafdad9c86",
      "track_number" : 4,
      "type" : "track",
      "uri" : "spotify:track:3MUgMXtPZWG5LmWuvfHb3Q"
    }, {
      "album" : {
        "album_type" : "single",
        "artists" : [ {
          "external_urls" : {
            "spotify" : "https://open.spotify.com/artist/4MNt4ilM1gZRHFqi9sros0"
          },
          "href" : "https://api.spotify.com/v1/artists/4MNt4ilM1gZRHFqi9sros0",
          "id" : "4MNt4ilM1gZRHFqi9sros0",
          "name" : "Kénosis",
          "type" : "artist",
          "uri" : "spotify:artist:4MNt4ilM1gZRHFqi9sros0"
        } ],
        "external_urls" : {
          "spotify" : "https://open.spotify.com/album/2XeyX0MAwF8bKssRnLXPQP"
        },
        "href" : "https://api.spotify.com/v1/albums/2XeyX0MAwF8bKssRnLXPQP",
        "id" : "2XeyX0MAwF8bKssRnLXPQP",
        "images" : [ {
          "height" : 640,
          "url" : "https://i.scdn.co/image/ab67616d0000b27311f4980450fb32bf74542db4",
          "width" : 640
        }, {
          "height" : 300,
          "url" : "https://i.scdn.co/image/ab67616d00001e0211f4980450fb32bf74542db4",
          "width" : 300
        }, {
          "height" : 64,
          "url" : "https://i.scdn.co/image/ab67616d0000485111f4980450fb32bf74542db4",
          "width" : 64
        } ],
        "name" : "Depth of Mercy",
        "release_date" : "2011-12-13",
        "release_date_precision" : "day",
        "total_tracks" : 4,
        "type" : "album",
        "uri" : "spotify:album:2XeyX0MAwF8bKssRnLXPQP"
      },
      "artists" : [ {
        "external_urls" : {
          "spotify" : "https://open.spotify.com/artist/4MNt4ilM1gZRHFqi9sros0"
        },
        "href" : "https://api.spotify.com/v1/artists/4MNt4ilM1gZRHFqi9sros0",
        "id" : "4MNt4ilM1gZRHFqi9sros0",
        "name" : "Kénosis",
        "type" : "artist",
        "uri" : "spotify:artist:4MNt4ilM1gZRHFqi9sros0"
      } ],
      "disc_number" : 1,
      "duration_ms" : 270853,
      "explicit" : false,
      "external_ids" : {
        "isrc" : "QMVP91100012"
      },
      "external_urls" : {
        "spotify" : "https://open.spotify.com/track/5QJv3Q044PEMjz7gYE16rX"
      },
      "href" : "https://api.spotify.com/v1/tracks/5QJv3Q044PEMjz7gYE16rX",
      "id" : "5QJv3Q044PEMjz7gYE16rX",
      "is_local" : false,
      "is_playable" : true,
      "name" : "What Wondrous Love Is This?",
      "popularity" : 16,
      "preview_url" : "https://p.scdn.co/mp3-preview/530f8be03308e9479f7f016fec14fef1e0c96ffb?cid=774b29d4f13844c495f206cafdad9c86",
      "track_number" : 1,
      "type" : "track",
      "uri" : "spotify:track:5QJv3Q044PEMjz7gYE16rX"
    }, {
      "album" : {
        "album_type" : "album",
        "artists" : [ {
          "external_urls" : {
            "spotify" : "https://open.spotify.com/artist/2sHZLtiGJbXHAShjJIurVo"
          },
          "href" : "https://api.spotify.com/v1/artists/2sHZLtiGJbXHAShjJIurVo",
          "id" : "2sHZLtiGJbXHAShjJIurVo",
          "name" : "Red Mountain Church",
          "type" : "artist",
          "uri" : "spotify:artist:2sHZLtiGJbXHAShjJIurVo"
        } ],
        "external_urls" : {
          "spotify" : "https://open.spotify.com/album/6h57DTS1uIFRMoPaiUz9u1"
        },
        "href" : "https://api.spotify.com/v1/albums/6h57DTS1uIFRMoPaiUz9u1",
        "id" : "6h57DTS1uIFRMoPaiUz9u1",
        "images" : [ {
          "height" : 640,
          "url" : "https://i.scdn.co/image/ab67616d0000b273637e929377cd5877db3a2e12",
          "width" : 640
        }, {
          "height" : 300,
          "url" : "https://i.scdn.co/image/ab67616d00001e02637e929377cd5877db3a2e12",
          "width" : 300
        }, {
          "height" : 64,
          "url" : "https://i.scdn.co/image/ab67616d00004851637e929377cd5877db3a2e12",
          "width" : 64
        } ],
        "name" : "Depth of Mercy",
        "release_date" : "2003-12-01",
        "release_date_precision" : "day",
        "total_tracks" : 12,
        "type" : "album",
        "uri" : "spotify:album:6h57DTS1uIFRMoPaiUz9u1"
      },
      "artists" : [ {
        "external_urls" : {
          "spotify" : "https://open.spotify.com/artist/2sHZLtiGJbXHAShjJIurVo"
        },
        "href" : "https://api.spotify.com/v1/artists/2sHZLtiGJbXHAShjJIurVo",
        "id" : "2sHZLtiGJbXHAShjJIurVo",
        "name" : "Red Mountain Church",
        "type" : "artist",
        "uri" : "spotify:artist:2sHZLtiGJbXHAShjJIurVo"
      } ],
      "disc_number" : 1,
      "duration_ms" : 243983,
      "explicit" : false,
      "external_ids" : {
        "isrc" : "USDHM0703740"
      },
      "external_urls" : {
        "spotify" : "https://open.spotify.com/track/6hhfLQaQ7BXdPGbnPxkuN8"
      },
      "href" : "https://api.spotify.com/v1/tracks/6hhfLQaQ7BXdPGbnPxkuN8",
      "id" : "6hhfLQaQ7BXdPGbnPxkuN8",
      "is_local" : false,
      "is_playable" : true,
      "name" : "Jesus, Thou Joy of Loving Hearts",
      "popularity" : 14,
      "preview_url" : "https://p.scdn.co/mp3-preview/04c8b60f795d9e0fb5d04a9b883a060f5d015694?cid=774b29d4f13844c495f206cafdad9c86",
      "track_number" : 10,
      "type" : "track",
      "uri" : "spotify:track:6hhfLQaQ7BXdPGbnPxkuN8"
    }, {
      "album" : {
        "album_type" : "single",
        "artists" : [ {
          "external_urls" : {
            "spotify" : "https://open.spotify.com/artist/4MNt4ilM1gZRHFqi9sros0"
          },
          "href" : "https://api.spotify.com/v1/artists/4MNt4ilM1gZRHFqi9sros0",
          "id" : "4MNt4ilM1gZRHFqi9sros0",
          "name" : "Kénosis",
          "type" : "artist",
          "uri" : "spotify:artist:4MNt4ilM1gZRHFqi9sros0"
        } ],
        "external_urls" : {
          "spotify" : "https://open.spotify.com/album/2XeyX0MAwF8bKssRnLXPQP"
        },
        "href" : "https://api.spotify.com/v1/albums/2XeyX0MAwF8bKssRnLXPQP",
        "id" : "2XeyX0MAwF8bKssRnLXPQP",
        "images" : [ {
          "height" : 640,
          "url" : "https://i.scdn.co/image/ab67616d0000b27311f4980450fb32bf74542db4",
          "width" : 640
        }, {
          "height" : 300,
          "url" : "https://i.scdn.co/image/ab67616d00001e0211f4980450fb32bf74542db4",
          "width" : 300
        }, {
          "height" : 64,
          "url" : "https://i.scdn.co/image/ab67616d0000485111f4980450fb32bf74542db4",
          "width" : 64
        } ],
        "name" : "Depth of Mercy",
        "release_date" : "2011-12-13",
        "release_date_precision" : "day",
        "total_tracks" : 4,
        "type" : "album",
        "uri" : "spotify:album:2XeyX0MAwF8bKssRnLXPQP"
      },
      "artists" : [ {
        "external_urls" : {
          "spotify" : "https://open.spotify.com/artist/4MNt4ilM1gZRHFqi9sros0"
        },
        "href" : "https://api.spotify.com/v1/artists/4MNt4ilM1gZRHFqi9sros0",
        "id" : "4MNt4ilM1gZRHFqi9sros0",
        "name" : "Kénosis",
        "type" : "artist",
        "uri" : "spotify:artist:4MNt4ilM1gZRHFqi9sros0"
      } ],
      "disc_number" : 1,
      "duration_ms" : 284866,
      "explicit" : false,
      "external_ids" : {
        "isrc" : "QMVP91100014"
      },
      "external_urls" : {
        "spotify" : "https://open.spotify.com/track/0QXyvdZ62zmGT0VApFZfqg"
      },
      "href" : "https://api.spotify.com/v1/tracks/0QXyvdZ62zmGT0VApFZfqg",
      "id" : "0QXyvdZ62zmGT0VApFZfqg",
      "is_local" : false,
      "is_playable" : true,
      "name" : "All My Tears",
      "popularity" : 16,
      "preview_url" : "https://p.scdn.co/mp3-preview/21df8510de357bbfdf020798a9cb84d659e4b571?cid=774b29d4f13844c495f206cafdad9c86",
      "track_number" : 3,
      "type" : "track",
      "uri" : "spotify:track:0QXyvdZ62zmGT0VApFZfqg"
    }, {
      "album" : {
        "album_type" : "album",
        "artists" : [ {
          "external_urls" : {
            "spotify" : "https://open.spotify.com/artist/2sHZLtiGJbXHAShjJIurVo"
          },
          "href" : "https://api.spotify.com/v1/artists/2sHZLtiGJbXHAShjJIurVo",
          "id" : "2sHZLtiGJbXHAShjJIurVo",
          "name" : "Red Mountain Church",
          "type" : "artist",
          "uri" : "spotify:artist:2sHZLtiGJbXHAShjJIurVo"
        } ],
        "external_urls" : {
          "spotify" : "https://open.spotify.com/album/6h57DTS1uIFRMoPaiUz9u1"
        },
        "href" : "https://api.spotify.com/v1/albums/6h57DTS1uIFRMoPaiUz9u1",
        "id" : "6h57DTS1uIFRMoPaiUz9u1",
        "images" : [ {
          "height" : 640,
          "url" : "https://i.scdn.co/image/ab67616d0000b273637e929377cd5877db3a2e12",
          "width" : 640
        }, {
          "height" : 300,
          "url" : "https://i.scdn.co/image/ab67616d00001e02637e929377cd5877db3a2e12",
          "width" : 300
        }, {
          "height" : 64,
          "url" : "https://i.scdn.co/image/ab67616d00004851637e929377cd5877db3a2e12",
          "width" : 64
        } ],
        "name" : "Depth of Mercy",
        "release_date" : "2003-12-01",
        "release_date_precision" : "day",
        "total_tracks" : 12,
        "type" : "album",
        "uri" : "spotify:album:6h57DTS1uIFRMoPaiUz9u1"
      },
      "artists" : [ {
        "external_urls" : {
          "spotify" : "https://open.spotify.com/artist/2sHZLtiGJbXHAShjJIurVo"
        },
        "href" : "https://api.spotify.com/v1/artists/2sHZLtiGJbXHAShjJIurVo",
        "id" : "2sHZLtiGJbXHAShjJIurVo",
        "name" : "Red Mountain Church",
        "type" : "artist",
        "uri" : "spotify:artist:2sHZLtiGJbXHAShjJIurVo"
      } ],
      "disc_number" : 1,
      "duration_ms" : 181786,
      "explicit" : false,
      "external_ids" : {
        "isrc" : "USDHM0703735"
      },
      "external_urls" : {
        "spotify" : "https://open.spotify.com/track/1cVADzVSFAfL4tjTtyVVIr"
      },
      "href" : "https://api.spotify.com/v1/tracks/1cVADzVSFAfL4tjTtyVVIr",
      "id" : "1cVADzVSFAfL4tjTtyVVIr",
      "is_local" : false,
      "is_playable" : true,
      "name" : "Jesus Cast a Look on Me",
      "popularity" : 14,
      "preview_url" : "https://p.scdn.co/mp3-preview/4bacfc62dee13ce23a4cffb2223c3f8314e5681d?cid=774b29d4f13844c495f206cafdad9c86",
      "track_number" : 5,
      "type" : "track",
      "uri" : "spotify:track:1cVADzVSFAfL4tjTtyVVIr"
    }, {
      "album" : {
        "album_type" : "album",
        "artists" : [ {
          "external_urls" : {
            "spotify" : "https://open.spotify.com/artist/2sHZLtiGJbXHAShjJIurVo"
          },
          "href" : "https://api.spotify.com/v1/artists/2sHZLtiGJbXHAShjJIurVo",
          "id" : "2sHZLtiGJbXHAShjJIurVo",
          "name" : "Red Mountain Church",
          "type" : "artist",
          "uri" : "spotify:artist:2sHZLtiGJbXHAShjJIurVo"
        } ],
        "external_urls" : {
          "spotify" : "https://open.spotify.com/album/6h57DTS1uIFRMoPaiUz9u1"
        },
        "href" : "https://api.spotify.com/v1/albums/6h57DTS1uIFRMoPaiUz9u1",
        "id" : "6h57DTS1uIFRMoPaiUz9u1",
        "images" : [ {
          "height" : 640,
          "url" : "https://i.scdn.co/image/ab67616d0000b273637e929377cd5877db3a2e12",
          "width" : 640
        }, {
          "height" : 300,
          "url" : "https://i.scdn.co/image/ab67616d00001e02637e929377cd5877db3a2e12",
          "width" : 300
        }, {
          "height" : 64,
          "url" : "https://i.scdn.co/image/ab67616d00004851637e929377cd5877db3a2e12",
          "width" : 64
        } ],
        "name" : "Depth of Mercy",
        "release_date" : "2003-12-01",
        "release_date_precision" : "day",
        "total_tracks" : 12,
        "type" : "album",
        "uri" : "spotify:album:6h57DTS1uIFRMoPaiUz9u1"
      },
      "artists" : [ {
        "external_urls" : {
          "spotify" : "https://open.spotify.com/artist/2sHZLtiGJbXHAShjJIurVo"
        },
        "href" : "https://api.spotify.com/v1/artists/2sHZLtiGJbXHAShjJIurVo",
        "id" : "2sHZLtiGJbXHAShjJIurVo",
        "name" : "Red Mountain Church",
        "type" : "artist",
        "uri" : "spotify:artist:2sHZLtiGJbXHAShjJIurVo"
      } ],
      "disc_number" : 1,
      "duration_ms" : 275800,
      "explicit" : false,
      "external_ids" : {
        "isrc" : "USDHM0703738"
      },
      "external_urls" : {
        "spotify" : "https://open.spotify.com/track/3nvNYmwhdIy7IxCZK8mhL9"
      },
      "href" : "https://api.spotify.com/v1/tracks/3nvNYmwhdIy7IxCZK8mhL9",
      "id" : "3nvNYmwhdIy7IxCZK8mhL9",
      "is_local" : false,
      "is_playable" : true,
      "name" : "My Jesus, I Love Thee",
      "popularity" : 14,
      "preview_url" : "https://p.scdn.co/mp3-preview/52cca4d0162c680ed93e17b170dbef9b79bcc7e4?cid=774b29d4f13844c495f206cafdad9c86",
      "track_number" : 8,
      "type" : "track",
      "uri" : "spotify:track:3nvNYmwhdIy7IxCZK8mhL9"
    }, {
      "album" : {
        "album_type" : "single",
        "artists" : [ {
          "external_urls" : {
            "spotify" : "https://open.spotify.com/artist/4MNt4ilM1gZRHFqi9sros0"
          },
          "href" : "https://api.spotify.com/v1/artists/4MNt4ilM1gZRHFqi9sros0",
          "id" : "4MNt4ilM1gZRHFqi9sros0",
          "name" : "Kénosis",
          "type" : "artist",
          "uri" : "spotify:artist:4MNt4ilM1gZRHFqi9sros0"
        } ],
        "external_urls" : {
          "spotify" : "https://open.spotify.com/album/2XeyX0MAwF8bKssRnLXPQP"
        },
        "href" : "https://api.spotify.com/v1/albums/2XeyX0MAwF8bKssRnLXPQP",
        "id" : "2XeyX0MAwF8bKssRnLXPQP",
        "images" : [ {
          "height" : 640,
          "url" : "https://i.scdn.co/image/ab67616d0000b27311f4980450fb32bf74542db4",
          "width" : 640
        }, {
          "height" : 300,
          "url" : "https://i.scdn.co/image/ab67616d00001e0211f4980450fb32bf74542db4",
          "width" : 300
        }, {
          "height" : 64,
          "url" : "https://i.scdn.co/image/ab67616d0000485111f4980450fb32bf74542db4",
          "width" : 64
        } ],
        "name" : "Depth of Mercy",
        "release_date" : "2011-12-13",
        "release_date_precision" : "day",
        "total_tracks" : 4,
        "type" : "album",
        "uri" : "spotify:album:2XeyX0MAwF8bKssRnLXPQP"
      },
      "artists" : [ {
        "external_urls" : {
          "spotify" : "https://open.spotify.com/artist/4MNt4ilM1gZRHFqi9sros0"
        },
        "href" : "https://api.spotify.com/v1/artists/4MNt4ilM1gZRHFqi9sros0",
        "id" : "4MNt4ilM1gZRHFqi9sros0",
        "name" : "Kénosis",
        "type" : "artist",
        "uri" : "spotify:artist:4MNt4ilM1gZRHFqi9sros0"
      } ],
      "disc_number" : 1,
      "duration_ms" : 286293,
      "explicit" : false,
      "external_ids" : {
        "isrc" : "QMVP91100013"
      },
      "external_urls" : {
        "spotify" : "https://open.spotify.com/track/089u2YZdPO6nm573mJYCqq"
      },
      "href" : "https://api.spotify.com/v1/tracks/089u2YZdPO6nm573mJYCqq",
      "id" : "089u2YZdPO6nm573mJYCqq",
      "is_local" : false,
      "is_playable" : true,
      "name" : "How Deep the Father's Love",
      "popularity" : 14,
      "preview_url" : "https://p.scdn.co/mp3-preview/6098fada7b6087df302cbd93e2d2560ac2e9c856?cid=774b29d4f13844c495f206cafdad9c86",
      "track_number" : 2,
      "type" : "track",
      "uri" : "spotify:track:089u2YZdPO6nm573mJYCqq"
    }, {
      "album" : {
        "album_type" : "album",
        "artists" : [ {
          "external_urls" : {
            "spotify" : "https://open.spotify.com/artist/6fPNPLKhuTjgFjbeFSo8Sq"
          },
          "href" : "https://api.spotify.com/v1/artists/6fPNPLKhuTjgFjbeFSo8Sq",
          "id" : "6fPNPLKhuTjgFjbeFSo8Sq",
          "name" : "Hope Hymns",
          "type" : "artist",
          "uri" : "spotify:artist:6fPNPLKhuTjgFjbeFSo8Sq"
        } ],
        "external_urls" : {
          "spotify" : "https://open.spotify.com/album/63bJV9Ld0K7Dm9XskZm4r2"
        },
        "href" : "https://api.spotify.com/v1/albums/63bJV9Ld0K7Dm9XskZm4r2",
        "id" : "63bJV9Ld0K7Dm9XskZm4r2",
        "images" : [ {
          "height" : 640,
          "url" : "https://i.scdn.co/image/ab67616d0000b2730ae5f9bb022df1350a33af25",
          "width" : 640
        }, {
          "height" : 300,
          "url" : "https://i.scdn.co/image/ab67616d00001e020ae5f9bb022df1350a33af25",
          "width" : 300
        }, {
          "height" : 64,
          "url" : "https://i.scdn.co/image/ab67616d000048510ae5f9bb022df1350a33af25",
          "width" : 64
        } ],
        "name" : "Volume 1",
        "release_date" : "2012-10-23",
        "release_date_precision" : "day",
        "total_tracks" : 11,
        "type" : "album",
        "uri" : "spotify:album:63bJV9Ld0K7Dm9XskZm4r2"
      },
      "artists" : [ {
        "external_urls" : {
          "spotify" : "https://open.spotify.com/artist/6fPNPLKhuTjgFjbeFSo8Sq"
        },
        "href" : "https://api.spotify.com/v1/artists/6fPNPLKhuTjgFjbeFSo8Sq",
        "id" : "6fPNPLKhuTjgFjbeFSo8Sq",
        "name" : "Hope Hymns",
        "type" : "artist",
        "uri" : "spotify:artist:6fPNPLKhuTjgFjbeFSo8Sq"
      } ],
      "disc_number" : 1,
      "duration_ms" : 239613,
      "explicit" : false,
      "external_ids" : {
        "isrc" : "ushm91237195"
      },
      "external_urls" : {
        "spotify" : "https://open.spotify.com/track/2eRHbvnrfjytKfB8y9HXC6"
      },
      "href" : "https://api.spotify.com/v1/tracks/2eRHbvnrfjytKfB8y9HXC6",
      "id" : "2eRHbvnrfjytKfB8y9HXC6",
      "is_local" : false,
      "is_playable" : true,
      "name" : "Depth of Mercy",
      "popularity" : 6,
      "preview_url" : "https://p.scdn.co/mp3-preview/05e490e746ed09fa8be966bee97508895cd8d66e?cid=774b29d4f13844c495f206cafdad9c86",
      "track_number" : 5,
      "type" : "track",
      "uri" : "spotify:track:2eRHbvnrfjytKfB8y9HXC6"
    }, {
      "album" : {
        "album_type" : "album",
        "artists" : [ {
          "external_urls" : {
            "spotify" : "https://open.spotify.com/artist/2sHZLtiGJbXHAShjJIurVo"
          },
          "href" : "https://api.spotify.com/v1/artists/2sHZLtiGJbXHAShjJIurVo",
          "id" : "2sHZLtiGJbXHAShjJIurVo",
          "name" : "Red Mountain Church",
          "type" : "artist",
          "uri" : "spotify:artist:2sHZLtiGJbXHAShjJIurVo"
        } ],
        "external_urls" : {
          "spotify" : "https://open.spotify.com/album/6h57DTS1uIFRMoPaiUz9u1"
        },
        "href" : "https://api.spotify.com/v1/albums/6h57DTS1uIFRMoPaiUz9u1",
        "id" : "6h57DTS1uIFRMoPaiUz9u1",
        "images" : [ {
          "height" : 640,
          "url" : "https://i.scdn.co/image/ab67616d0000b273637e929377cd5877db3a2e12",
          "width" : 640
        }, {
          "height" : 300,
          "url" : "https://i.scdn.co/image/ab67616d00001e02637e929377cd5877db3a2e12",
          "width" : 300
        }, {
          "height" : 64,
          "url" : "https://i.scdn.co/image/ab67616d00004851637e929377cd5877db3a2e12",
          "width" : 64
        } ],
        "name" : "Depth of Mercy",
        "release_date" : "2003-12-01",
        "release_date_precision" : "day",
        "total_tracks" : 12,
        "type" : "album",
        "uri" : "spotify:album:6h57DTS1uIFRMoPaiUz9u1"
      },
      "artists" : [ {
        "external_urls" : {
          "spotify" : "https://open.spotify.com/artist/2sHZLtiGJbXHAShjJIurVo"
        },
        "href" : "https://api.spotify.com/v1/artists/2sHZLtiGJbXHAShjJIurVo",
        "id" : "2sHZLtiGJbXHAShjJIurVo",
        "name" : "Red Mountain Church",
        "type" : "artist",
        "uri" : "spotify:artist:2sHZLtiGJbXHAShjJIurVo"
      } ],
      "disc_number" : 1,
      "duration_ms" : 266553,
      "explicit" : false,
      "external_ids" : {
        "isrc" : "USDHM0703734"
      },
      "external_urls" : {
        "spotify" : "https://open.spotify.com/track/1Wb1P4xCF8A4x5xA6yBZy3"
      },
      "href" : "https://api.spotify.com/v1/tracks/1Wb1P4xCF8A4x5xA6yBZy3",
      "id" : "1Wb1P4xCF8A4x5xA6yBZy3",
      "is_local" : false,
      "is_playable" : true,
      "name" : "Narrow Little Road",
      "popularity" : 8,
      "preview_url" : "https://p.scdn.co/mp3-preview/47ae9876ad414bd2b983cda5aab8acf4e2b8cfa2?cid=774b29d4f13844c495f206cafdad9c86",
      "track_number" : 4,
      "type" : "track",
      "uri" : "spotify:track:1Wb1P4xCF8A4x5xA6yBZy3"
    } ],
    "limit" : 10,
    "next" : "https://api.spotify.com/v1/search?query=Depth+of+Mercy&type=track&market=US&offset=15&limit=10",
    "offset" : 5,
    "previous" : "https://api.spotify.com/v1/search?query=Depth+of+Mercy&type=track&market=US&offset=0&limit=10",
    "total" : 91
  }
}