{
  "tracks" : {
    "href" : "https://api.spotify.com/v1/search?query=Abide+With+Me&type=track&market=US&offset=5&limit=10",
    "items" : [ {
      "album" : {
        "album_type" : "album",
        "artists" : [ {
          "external_urls" : {
            "spotify" : "https://open.spotify.com/artist/56koGOp6EpWHZYOfuTTxRB"
          },
          "href" : "https://api.spotify.com/v1/artists/56koGOp6EpWHZYOfuTTxRB",
          "id" : "56koGOp6EpWHZYOfuTTxRB",
          "name" : "Thelonious Monk Septet",
          "type" : "artist",
          "uri" : "spotify:artist:56koGOp6EpWHZYOfuTTxRB"
        } ],
        "external_urls" : {
          "spotify" : "https://open.spotify.com/album/30b7gEVQNhrs74WkZl8Qo3"
        },
        "href" : "https://api.spotify.com/v1/albums/30b7gEVQNhrs74WkZl8Qo3",
        "id" : "30b7gEVQNhrs74WkZl8Qo3",
        "images" : [ {
          "height" : 640,
          "url" : "https://i.scdn.co/image/ab67616d0000b2731a5c8cde2988897d297331e6",
          "width" : 640
        }, {
          "height" : 300,
          "url" : "https://i.scdn.co/image/ab67616d00001e021a5c8cde2988897d297331e6",
          "width" : 300
        }, {
          "height" : 64,
          "url" : "https://i.scdn.co/image/ab67616d000048511a5c8cde2988897d297331e6",
          "width" : 64
        } ],
        "name" : "Monk's Music [Original Jazz Classics Remasters]",
        "release_date" : "1957",
        "release_date_precision" : "year",
        "total_tracks" : 9,
        "type" : "album",
        "uri" : "spotify:album:30b7gEVQNhrs74WkZl8Qo3"
      },
      "artists" : [ {
        "external_urls" : {
          "spotify" : "https://open.spotify.com/artist/56koGOp6EpWHZYOfuTTxRB"
        },
        "href" : "https://api.spotify.com/v1/artists/56koGOp6EpWHZYOfuTTxRB",
        "id" : "56koGOp6EpWHZYOfuTTxRB",
        "name" : "Thelonious Monk Septet",
        "type" : "artist",
        "uri" : "spotify:artist:56koGOp6EpWHZYOfuTTxRB"
      } ],
      "disc_number" : 1,
      "duration_ms" : 55200,
      "explicit" : false,
      "external_ids" : {
        "isrc" : "USC4R1016902"
      },
      "external_urls" : {
        "spotify" : "https://open.spotify.com/track/3jyf6lnLOgJERToaoUgXHs"
      },
      "href" : "https://api.spotify.com/v1/tracks/3jyf6lnLOgJERToaoUgXHs",
      "id" : "3jyf6lnLOgJERToaoUgXHs",
      "is_local" : false,
      "is_playable" : true,
      "name" : "Abide With Me",
      "popularity" : 37,
      "preview_url" : null,
      "track_number" : 1,
      "type" : "track",
      "uri" : "spotify:track:3jyf6lnLOgJERToaoUgXHs"
    }, {
      "album" : {
        "album_type" : "album",
        "artists" : [ {
          "external_urls" : {
            "spotify" : "https://open.spotify.com/artist/2duo4NJtUrLaI38trK0hht"
          },
          "href" : "https://api.spotify.com/v1/artists/2duo4NJtUrLaI38trK0hht",
          "id" : "2duo4NJtUrLaI38trK0hht",
          "name" : "Mormon Tabernacle Choir",
          "type" : "artist",
          "uri" : "spotify:artist:2duo4NJtUrLaI38trK0hht"
        }, {
          "external_urls" : {
            "spotify" : "https://open.spotify.com/artist/4kAIRZipPTtTbZBTudxcEA"
          },
          "href" : "https://api.spotify.com/v1/artists/4kAIRZipPTtTbZBTudxcEA",
          "id" : "4kAIRZipPTtTbZBTudxcEA",
          "name" : "Orchestra at Temple Square",
          "type" : "artist",
          "uri" : "spotify:artist:4kAIRZipPTtTbZBTudxcEA"
        } ],
        "external_urls" : {
          "spotify" : "https://open.spotify.com/album/65X6CeYJHBmTvhjtfYmxVf"
        },
        "href" : "https://api.spotify.com/v1/albums/65X6CeYJHBmTvhjtfYmxVf",
        "id" : "65X6CeYJHBmTvhjtfYmxVf",
        "images" : [ {
          "height" : 640,
          "url" : "https://i.scdn.co/image/ab67616d0000b27352bc8b8969ab4a4e4b01ed06",
          "width" : 640
        }, {
          "height" : 300,
          "url" : "https://i.scdn.co/image/ab67616d00001e0252bc8b8969ab4a4e4b01ed06",
          "width" : 300
        }, {
          "height" : 64,
          "url" : "https://i.scdn.co/image/ab67616d0000485152bc8b8969ab4a4e4b01ed06",
          "width" : 64
        } ],
        "name" : "Then Sings My Soul",
        "release_date" : "2006-05-26",
        "release_date_precision" : "day",
        "total_tracks" : 18,
        "type" : "album",
        "uri" : "spotify:album:65X6CeYJHBmTvhjtfYmxVf"
      },
      "artists" : [ {
        "external_urls" : {
          "spotify" : "https://open.spotify.com/artist/2duo4NJtUrLaI38trK0hht"
        },
        "href" : "https://api.spotify.com/v1/artists/2duo4NJtUrLaI38trK0hht",
        "id" : "2duo4NJtUrLaI38trK0hht",
        "name" : "Mormon Tabernacle Choir",
        "type" : "artist",
        "uri" : "spotify:artist:2duo4NJtUrLaI38trK0hht"
      }, {
        "external_urls" : {
          "spotify" : "https://open.spotify.com/artist/4kAIRZipPTtTbZBTudxcEA"
        },
        "href" : "https://api.spotify.com/v1/artists/4kAIRZipPTtTbZBTudxcEA",
        "id" : "4kAIRZipPTtTbZBTudxcEA",
        "name" : "Orchestra at Temple Square",
        "type" : "artist",
        "uri" : "spotify:artist:4kAIRZipPTtTbZBTudxcEA"
      }, {
        "external_urls" : {
          "spotify" : "https://open.spotify.com/artist/13iOctu8ZH8004y3Sy4e8p"
        },
        "href" : "https://api.spotify.com/v1/artists/13iOctu8ZH8004y3Sy4e8p",
        "id" : "13iOctu8ZH8004y3Sy4e8p",
        "name" : "Craig Jessop",
        "type" : "artist",
        "uri" : "spotify:artist:13iOctu8ZH8004y3Sy4e8p"
      }, {
        "external_urls" : {
          "spotify" : "https://open.spotify.com/artist/2Zpql3RdMQjunbDKk1bIiz"
        },
        "href" : "https://api.spotify.com/v1/artists/2Zpql3RdMQjunbDKk1bIiz",
        "id" : "2Zpql3RdMQjunbDKk1bIiz",
        "name" : "Mack Wilberg",
        "type" : "artist",
        "uri" : "spotify:artist:2Zpql3RdMQjunbDKk1bIiz"
      } ],
      "disc_number" : 1,
      "duration_ms" : 307066,
      "explicit" : false,
      "external_ids" : {
        "isrc" : "US23M0645420"
      },
      "external_urls" : {
        "spotify" : "https://open.spotify.com/track/0lqkX3ia5Z3lol5uLOS8UU"
      },
      "href" : "https://api.spotify.com/v1/tracks/0lqkX3ia5Z3lol5uLOS8UU",
      "id" : "0lqkX3ia5Z3lol5uLOS8UU",
      "is_local" : false,
      "is_playable" : true,
      "name" : "Abide With Me - 'Tis Eventide",
      "popularity" : 34,
      "preview_url" : "https://p.scdn.co/mp3-preview/c45de4a85972e1b88fa93715aef67b88c0605fb3?cid=774b29d4f13844c495f206cafdad9c86",
      "track_number" : 16,
      "type" : "track",
      "uri" : "spotify:track:0lqkX3ia5Z3lol5uLOS8UU"
    }, {
      "album" : {
        "album_type" : "single",
        "artists" : [ {
          "external_urls" : {
            "spotify" : "https://open.spotify.com/artist/1dPl8axUL09mso0myZqPZW"
          },
          "href" : "https://api.spotify.com/v1/artists/1dPl8axUL09mso0myZqPZW",
          "id" : "1dPl8axUL09mso0myZqPZW",
          "name" : "Matt Maher",
          "type" : "artist",
          "uri" : "spotify:artist:1dPl8axUL09mso0myZqPZW"
        } ],
        "external_urls" : {
          "spotify" : "https://open.spotify.com/album/6e6e5QP2FBLMKAMn5my95t"
        },
        "href" : "https://api.spotify.com/v1/albums/6e6e5QP2FBLMKAMn5my95t",
        "id" : "6e6e5QP2FBLMKAMn5my95t",
        "images" : [ {
          "height" : 640,
          "url" : "https://i.scdn.co/image/ab67616d0000b273fc17405ad1fca5cf8118482d",
          "width" : 640
        }, {
          "height" : 300,
          "url" : "https://i.scdn.co/image/ab67616d00001e02fc17405ad1fca5cf8118482d",
          "width" : 300
        }, {
          "height" : 64,
          "url" : "https://i.scdn.co/image/ab67616d00004851fc17405ad1fca5cf8118482d",
          "width" : 64
        } ],
        "name" : "Abide with Me (Radio Version)",
        "release_date" : "2016-03-25",
        "release_date_precision" : "day",
        "total_tracks" : 1,
        "type" : "album",
        "uri" : "spotify:album:6e6e5QP2FBLMKAMn5my95t"
      },
      "artists" : [ {
        "external_urls" : {
          "spotify" : "https://open.spotify.com/artist/1dPl8axUL09mso0myZqPZW"
        },
        "href" : "https://api.spotify.com/v1/artists/1dPl8axUL09mso0myZqPZW",
        "id" : "1dPl8axUL09mso0myZqPZW",
        "name" : "Matt Maher",
        "type" : "artist",
        "uri" : "spotify:artist:1dPl8axUL09mso0myZqPZW"
      } ],
      "disc_number" : 1,
      "duration_ms" : 221546,
      "explicit" : false,
      "external_ids" : {
        "isrc" : "USA5W1600010"
      },
      "external_urls" : {
        "spotify" : "https://open.spotify.com/track/5rsERw80XgOfKW98hLTYET"
      },
      "href" : "https://api.spotify.com/v1/tracks/5rsERw80XgOfKW98hLTYET",
      "id" : "5rsERw80XgOfKW98hLTYET",
      "is_local" : false,
      "is_playable" : true,
      "name" : "Abide with Me (Radio Version)",
      "popularity" : 35,
      "preview_url" : "https://p.scdn.co/mp3-preview/54c1db7a78db448cbceb9383487f92ffe3cfab21?cid=774b29d4f13844c495f206cafdad9c86",
      "track_number" : 1,
      "type" : "track",
      "uri" : "spotify:track:5rsERw80XgOfKW98hLTYET"
    }, {
      "album" : {
        "album_type" : "album",
        "artists" : [ {
          "external_urls" : {
            "spotify" : "https://open.spotify.com/artist/3OvrUspbOHgGI6T7D5Fb6P"
          },
          "href" : "https://api.spotify.com/v1/artists/3OvrUspbOHgGI6T7D5Fb6P",
          "id" : "3OvrUspbOHgGI6T7D5Fb6P",
          "name" : "David Tolk",
          "type" : "artist",
          "uri" : "spotify:artist:3OvrUspbOHgGI6T7D5Fb6P"
        } ],
        "external_urls" : {
          "spotify" : "https://open.spotify.com/album/6GSgtoRRbRzR5zooxVCL7j"
        },
        "href" : "https://api.spotify.com/v1/albums/6GSgtoRRbRzR5zooxVCL7j",
        "id" : "6GSgtoRRbRzR5zooxVCL7j",
        "images" : [ {
          "height" : 640,
          "url" : "https://i.scdn.co/image/ab67616d0000b273676879a79339f0a158869c51",
          "width" : 640
        }, {
          "height" : 300,
          "url" : "https://i.scdn.co/image/ab67616d00001e02676879a79339f0a158869c51",
          "width" : 300
        }, {
          "height" : 64,
          "url" : "https://i.scdn.co/image/ab67616d00004851676879a79339f0a158869c51",
          "width" : 64
        } ],
        "name" : "In Reverence",
        "release_date" : "2006-10-26",
        "release_date_precision" : "day",
        "total_tracks" : 10,
        "type" : "album",
        "uri" : "spotify:album:6GSgtoRRbRzR5zooxVCL7j"
      },
      "artists" : [ {
        "external_urls" : {
          "spotify" : "https://open.spotify.com/artist/3OvrUspbOHgGI6T7D5Fb6P"
        },
        "href" : "https://api.spotify.com/v1/artists/3OvrUspbOHgGI6T7D5Fb6P",
        "id" : "3OvrUspbOHgGI6T7D5Fb6P",
        "name" : "David Tolk",
        "type" : "artist",
        "uri" : "spotify:artist:3OvrUspbOHgGI6T7D5Fb6P"
      } ],
      "disc_number" : 1,
      "duration_ms" : 279213,
      "explicit" : false,
      "external_ids" : {
        "isrc" : "ushm90657831"
      },
      "external_urls" : {
        "spotify" : "https://open.spotify.com/track/2jjcm7kPcutayXMLnt13en"
      },
      "href" : "https://api.spotify.com/v1/tracks/2jjcm7kPcutayXMLnt13en",
      "id" : "2jjcm7kPcutayXMLnt13en",
      "is_local" : false,
      "is_playable" : true,
      "name" : "Abide With Me",
      "popularity" : 29,
      "preview_url" : "https://p.scdn.co/mp3-preview/205f93033b6a512a141c1e62ebc6ef274944685f?cid=774b29d4f13844c495f206cafdad9c86",
      "track_number" : 2,
      "type" : "track",
      "uri" : "spotify:track:2jjcm7kPcutayXMLnt13en"
    }, {
      "album" : {
        "album_type" : "album",
        "artists" : [ {
          "external_urls" : {
            "spotify" : "https://open.spotify.com/artist/4tfY4Ej43I6BJdGaWaQE2z"
          },
          "href" : "https://api.spotify.com/v1/artists/4tfY4Ej43I6BJdGaWaQE2z",
          "id" : "4tfY4Ej43I6BJdGaWaQE2z",
          "name" : "Voice Male",
          "type" : "artist",
          "uri" : "spotify:artist:4tfY4Ej43I6BJdGaWaQE2z"
        } ],
        "external_urls" : {
          "spotify" : "https://open.spotify.com/album/5ZvzUJgTtqem54y2eoBTit"
        },
        "href" : "https://api.spotify.com/v1/albums/5ZvzUJgTtqem54y2eoBTit",
        "id" : "5ZvzUJgTtqem54y2eoBTit",
        "images" : [ {
          "height" : 640,
          "url" : "https://i.scdn.co/image/ab67616d0000b27359da149e04c292a1b58a2f27",
          "width" : 640
        }, {
          "height" : 300,
          "url" : "https://i.scdn.co/image/ab67616d00001e0259da149e04c292a1b58a2f27",
          "width" : 300
        }, {
          "height" : 64,
          "url" : "https://i.scdn.co/image/ab67616d0000485159da149e04c292a1b58a2f27",
          "width" : 64
        } ],
        "name" : "Hims II",
        "release_date" : "2003-11-20",
        "release_date_precision" : "day",
        "total_tracks" : 12,
        "type" : "album",
        "uri" : "spotify:album:5ZvzUJgTtqem54y2eoBTit"
      },
      "artists" : [ {
        "external_urls" : {
          "spotify" : "https://open.spotify.com/artist/4tfY4Ej43I6BJdGaWaQE2z"
        },
        "href" : "https://api.spotify.com/v1/artists/4tfY4Ej43I6BJdGaWaQE2z",
        "id" : "4tfY4Ej43I6BJdGaWaQE2z",
        "name" : "Voice Male",
        "type" : "artist",
        "uri" : "spotify:artist:4tfY4Ej43I6BJdGaWaQE2z"
      } ],
      "disc_number" : 1,
      "duration_ms" : 191600,
      "explicit" : false,
      "external_ids" : {
        "isrc" : "USR7D0800703"
      },
      "external_urls" : {
        "spotify" : "https://open.spotify.com/track/76UeHr3nav0dZV386qI4NK"
      },
      "href" : "https://api.spotify.com/v1/tracks/76UeHr3nav0dZV386qI4NK",
      "id" : "76UeHr3nav0dZV386qI4NK",
      "is_local" : false,
      "is_playable" : true,
      "name" : "Abide With Me!",
      "popularity" : 29,
      "preview_url" : "https://p.scdn.co/mp3-preview/2bfbe32ca07ef6ac8e2bdca707df3f987905736b?cid=774b29d4f13844c495f206cafdad9c86",
      "track_number" : 3,
      "type" : "track",
      "uri" : "spotify:track:76UeHr3nav0dZV386qI4NK"
    }, {
      "album" : {
        "album_type" : "album",
        "artists" : [ {
          "external_urls" : {
            "spotify" : "https://open.spotify.com/artist/5ee6tRCf54hwB2pyXhRMb2"
          },
          "href" : "https://api.spotify.com/v1/artists/5ee6tRCf54hwB2pyXhRMb2",
          "id" : "5ee6tRCf54hwB2pyXhRMb2",
          "name" : "Ryan Tilby",
          "type" : "artist",
          "uri" : "spotify:artist:5ee6tRCf54hwB2pyXhRMb2"
        } ],
        "external_urls" : {
          "spotify" : "https://open.spotify.com/album/5bfCNBr7wYCXr6cECnPYT1"
        },
        "href" : "https://api.spotify.com/v1/albums/5bfCNBr7wYCXr6cECnPYT1",
        "id" : "5bfCNBr7wYCXr6cECnPYT1",
        "images" : [ {
          "height" : 640,
          "url" : "https://i.scdn.co/image/ab67616d0000b27388ccfdd6907406832bcf3921",
          "width" : 640
        }, {
          "height" : 300,
          "url" : "https://i.scdn.co/image/ab67616d00001e0288ccfdd6907406832bcf3921",
          "width" : 300
        }, {
          "height" : 64,
          "url" : "https://i.scdn.co/image/ab67616d0000485188ccfdd6907406832bcf3921",
          "width" : 64
        } ],
        "name" : "Guitar Hymns",
        "release_date" : "2009-01-01",
        "release_date_precision" : "day",
        "total_tracks" : 13,
        "type" : "album",
        "uri" : "spotify:album:5bfCNBr7wYCXr6cECnPYT1"
      },
      "artists" : [ {
        "external_urls" : {
          "spotify" : "https://open.spotify.com/artist/5ee6tRCf54hwB2pyXhRMb2"
        },
        "href" : "https://api.spotify.com/v1/artists/5ee6tRCf54hwB2pyXhRMb2",
        "id" : "5ee6tRCf54hwB2pyXhRMb2",
        "name" : "Ryan Tilby",
        "type" : "artist",
        "uri" : "spotify:artist:5ee6tRCf54hwB2pyXhRMb2"
      } ],
      "disc_number" : 1,
      "duration_ms" : 162093,
      "explicit" : false,
      "external_ids" : {
        "isrc" : "uscgh0926520"
      },
      "external_urls" : {
        "spotify" : "https://open.spotify.com/track/23Qfbu8RclZSLbw4sg69nZ"
      },
      "href" : "https://api.spotify.com/v1/tracks/23Qfbu8RclZSLbw4sg69nZ",
      "id" : "23Qfbu8RclZSLbw4sg69nZ",
      "is_local" : false,
      "is_playable" : true,
      "name" : "Abide With Me",
      "popularity" : 28,
      "preview_url" : "https://p.scdn.co/mp3-preview/e05a8abc6386d2bdd2b9982c74ba502cb0c4dd53?cid=774b29d4f13844c495f206cafdad9c86",
      "track_number" : 11,
      "type" : "track",
      "uri" : "spotify:track:23Qfbu8RclZSLbw4sg69nZ"
    }, {
      "album" : {
        "album_type" : "album",
        "artists" : [ {
          "external_urls" : {
            "spotify" : "https://open.spotify.com/artist/1dPl8axUL09mso0myZqPZW"
          },
          "href" : "https://api.spotify.com/v1/artists/1dPl8axUL09mso0myZqPZW",
          "id" : "1dPl8axUL09mso0myZqPZW",
          "name" : "Matt Maher",
          "type" : "artist",
          "uri" : "spotify:artist:1dPl8axUL09mso0myZqPZW"
        } ],
        "external_urls" : {
          "spotify" : "https://open.spotify.com/album/2p4nNg7P6ckP0D7MFOUTgP"
        },
        "href" : "https://api.spotify.com/v1/albums/2p4nNg7P6ckP0D7MFOUTgP",
        "id" : "2p4nNg7P6ckP0D7MFOUTgP",
        "images" : [ {
          "height" : 640,
          "url" : "https://i.scdn.co/image/ab67616d0000b2738843b661a6f74d3684b5bfcf",
          "width" : 640
        }, {
          "height" : 300,
          "url" : "https://i.scdn.co/image/ab67616d00001e028843b661a6f74d3684b5bfcf",
          "width" : 300
        }, {
          "height" : 64,
          "url" : "https://i.scdn.co/image/ab67616d000048518843b661a6f74d3684b5bfcf",
          "width" : 64
        } ],
        "name" : "Saints and Sinners",
        "release_date" : "2015-03-16",
        "release_date_precision" : "day",
        "total_tracks" : 18,
        "type" : "album",
        "uri" : "spotify:album:2p4nNg7P6ckP0D7MFOUTgP"
      },
      "artists" : [ {
        "external_urls" : {
          "spotify" : "https://open.spotify.com/artist/1dPl8axUL09mso0myZqPZW"
        },
        "href" : "https://api.spotify.com/v1/artists/1dPl8axUL09mso0myZqPZW",
        "id" : "1dPl8axUL09mso0myZqPZW",
        "name" : "Matt Maher",
        "type" : "artist",
        "uri" : "spotify:artist:1dPl8axUL09mso0myZqPZW"
      } ],
      "disc_number" : 1,
      "duration_ms" : 190280,
      "explicit" : false,
      "external_ids" : {
        "isrc" : "USA5W1500036"
      },
      "external_urls" : {
        "spotify" : "https://open.spotify.com/track/0ocaDYnVGNWAvu037JI0Pt"
      },
      "href" : "https://api.spotify.com/v1/tracks/0ocaDYnVGNWAvu037JI0Pt",
      "id" : "0ocaDYnVGNWAvu037JI0Pt",
      "is_local" : false,
      "is_playable" : true,
      "name" : "Abide With Me",
      "popularity" : 28,
      "preview_url" : "https://p.scdn.co/mp3-preview/94884a0424af0f434a540dd47b53f44c4f288632?cid=774b29d4f13844c495f206cafdad9c86",
      "track_number" : 11,
      "type" : "track",
      "uri" : "spotify:track:0ocaDYnVGNWAvu037JI0Pt"
    }, {
      "album" : {
        "album_type" : "album",
        "artists" : [ {
          "external_urls" : {
            "spotify" : "https://open.spotify.com/artist/1GKYNY4rIPnOuTfC0J1IWw"
          },
          "href" : "https://api.spotify.com/v1/artists/1GKYNY4rIPnOuTfC0J1IWw",
          "id" : "1GKYNY4rIPnOuTfC0J1IWw",
          "name" : "Audrey Assad",
          "type" : "artist",
          "uri" : "spotify:artist:1GKYNY4rIPnOuTfC0J1IWw"
        } ],
        "external_urls" : {
          "spotify" : "https://open.spotify.com/album/3h2GgAQ1xOlIRh3KiLedZB"
        },
        "href" : "https://api.spotify.com/v1/albums/3h2GgAQ1xOlIRh3KiLedZB",
        "id" : "3h2GgAQ1xOlIRh3KiLedZB",
        "images" : [ {
          "height" : 640,
          "url" : "https://i.scdn.co/image/ab67616d0000b273f89df0a7e56245e6fe9eb280",
          "width" : 640
        }, {
          "height" : 300,
          "url" : "https://i.scdn.co/image/ab67616d00001e02f89df0a7e56245e6fe9eb280",
          "width" : 300
        }, {
          "height" : 64,
          "url" : "https://i.scdn.co/image/ab67616d00004851f89df0a7e56245e6fe9eb280",
          "width" : 64
        } ],
        "name" : "Inheritance (Deluxe Edition)",
        "release_date" : "2016-10-07",
        "release_date_precision" : "day",
        "total_tracks" : 16,
        "type" : "album",
        "uri" : "spotify:album:3h2GgAQ1xOlIRh3KiLedZB"
      },
      "artists" : [ {
        "external_urls" : {
          "spotify" : "https://open.spotify.com/artist/1GKYNY4rIPnOuTfC0J1IWw"
        },
        "href" : "https://api.spotify.com/v1/artists/1GKYNY4rIPnOuTfC0J1IWw",
        "id" : "1GKYNY4rIPnOuTfC0J1IWw",
        "name" : "Audrey Assad",
        "type" : "artist",
        "uri" : "spotify:artist:1GKYNY4rIPnOuTfC0J1IWw"
      } ],
      "disc_number" : 1,
      "duration_ms" : 280143,
      "explicit" : false,
      "external_ids" : {
        "isrc" : "QMGVJ1500225"
      },
      "external_urls" : {
        "spotify" : "https://open.spotify.com/track/7vv0bWoT3iGCAjA39zUxPZ"
      },
      "href" : "https://api.spotify.com/v1/tracks/7vv0bWoT3iGCAjA39zUxPZ",
      "id" : "7vv0bWoT3iGCAjA39zUxPZ",
      "is_local" : false,
      "is_playable" : true,
      "name" : "Abide With Me",
      "popularity" : 28,
      "preview_url" : "https://p.scdn.co/mp3-preview/aa010cd4a19743ac3af89f494958f9de09be529c?cid=774b29d4f13844c495f206cafdad9c86",
      "track_number" : 11,
      "type" : "track",
      "uri" : "spotify:track:7vv0bWoT3iGCAjA39zUxPZ"
    }, {
      "album" : {
        "album_type" : "album",
        "artists" : [ {
          "external_urls" : {
            "spotify" : "https://open.spotify.com/artist/7FQRbf8gbKw8KZQZAJWxH2"
          },
          "href" : "https://api.spotify.com/v1/artists/7FQRbf8gbKw8KZQZAJWxH2",
          "id" : "7FQRbf8gbKw8KZQZAJWxH2",
          "name" : "Paul Cardall",
          "type" : "artist",
          "uri" : "spotify:artist:7FQRbf8gbKw8KZQZAJWxH2"
        } ],
        "external_urls" : {
          "spotify" : "https://open.spotify.com/album/0EpzfsQousFs65vjvTYbWY"
        },
        "href" : "https://api.spotify.com/v1/albums/0EpzfsQousFs65vjvTYbWY",
        "id" : "0EpzfsQousFs65vjvTYbWY",
        "images" : [ {
          "height" : 640,
          "url" : "https://i.scdn.co/image/ab67616d0000b273826ee667310c5fc1df79abf5",
          "width" : 640
        }, {
          "height" : 300,
          "url" : "https://i.scdn.co/image/ab67616d00001e02826ee667310c5fc1df79abf5",
          "width" : 300
        }, {
          "height" : 64,
          "url" : "https://i.scdn.co/image/ab67616d00004851826ee667310c5fc1df79abf5",
          "width" : 64
        } ],
        "name" : "Hymns",
        "release_date" : "1997",
        "release_date_precision" : "year",
        "total_tracks" : 16,
        "type" : "album",
        "uri" : "spotify:album:0EpzfsQousFs65vjvTYbWY"
      },
      "artists" : [ {
        "external_urls" : {
          "spotify" : "https://open.spotify.com/artist/7FQRbf8gbKw8KZQZAJWxH2"
        },
        "href" : "https://api.spotify.com/v1/artists/7FQRbf8gbKw8KZQZAJWxH2",
        "id" : "7FQRbf8gbKw8KZQZAJWxH2",
        "name" : "Paul Cardall",
        "type" : "artist",
        "uri" : "spotify:artist:7FQRbf8gbKw8KZQZAJWxH2"
      } ],
      "disc_number" : 1,
      "duration_ms" : 138066,
      "explicit" : false,
      "external_ids" : {
        "isrc" : "uscgj0604081"
      },
      "external_urls" : {
        "spotify" : "https://open.spotify.com/track/0JhFrnW0HgXjph5hKWrhZH"
      },
      "href" : "https://api.spotify.com/v1/tracks/0JhFrnW0HgXjph5hKWrhZH",
      "id" : "0JhFrnW0HgXjph5hKWrhZH",
      "is_local" : false,
      "is_playable" : true,
      "name" : "Abide With Me; 'Tis Eventide",
      "popularity" : 29,
      "preview_url" : "https://p.scdn.co/mp3-preview/3b4c104ff31398323079686a672952cbd24e0d0a?cid=774b29d4f13844c495f206cafdad9c86",
      "track_number" : 6,
      "type" : "track",
      "uri" : "spotify:track:0JhFrnW0HgXjph5hKWrhZH"
    }, {
      "album" : {
        "album_type" : "album",
        "artists" : [ {
          "external_urls" : {
            "spotify" : "https://open.spotify.com/artist/4sk2zZdhVRMhb1BEtcxUKf"
          },
          "href" : "https://api.spotify.com/v1/artists/4sk2zZdhVRMhb1BEtcxUKf",
          "id" : "4sk2zZdhVRMhb1BEtcxUKf",
          "name" : "GENTRI",
          "type" : "artist",
          "uri" : "spotify:artist:4sk2zZdhVRMhb1BEtcxUKf"
        } ],
        "external_urls" : {
          "spotify" : "https://open.spotify.com/album/242xPrRwxpbngf91ezaxU3"
        },
        "href" : "https://api.spotify.com/v1/albums/242xPrRwxpbngf91ezaxU3",
        "id" : "242xPrRwxpbngf91ezaxU3",
        "images" : [ {
          "height" : 640,
          "url" : "https://i.scdn.co/image/ab67616d0000b273fb2dbb940c1d889b11250edc",
          "width" : 640
        }, {
          "height" : 300,
          "url" : "https://i.scdn.co/image/ab67616d00001e02fb2dbb940c1d889b11250edc",
          "width" : 300
        }, {
          "height" : 64,
          "url" : "https://i.scdn.co/image/ab67616d00004851fb2dbb940c1d889b11250edc",
          "width" : 64
        } ],
        "name" : "Hymns",
        "release_date" : "2018-01-12",
        "release_date_precision" : "day",
        "total_tracks" : 12,
        "type" : "album",
        "uri" : "spotify:album:242xPrRwxpbngf91ezaxU3"
      },
      "artists" : [ {
        "external_urls" : {
          "spotify" : "https://open.spotify.com/artist/4sk2zZdhVRMhb1BEtcxUKf"
        },
        "href" : "https://api.spotify.com/v1/artists/4sk2zZdhVRMhb1BEtcxUKf",
        "id" : "4sk2zZdhVRMhb1BEtcxUKf",
        "name" : "GENTRI",
        "type" : "artist",
        "uri" : "spotify:artist:4sk2zZdhVRMhb1BEtcxUKf"
      } ],
      "disc_number" : 1,
      "duration_ms" : 329547,
      "explicit" : false,
      "external_ids" : {
        "isrc" : "US23M1700074"
      },
      "external_urls" : {
        "spotify" : "https://open.spotify.com/track/6P3NqcqK8QPFSf2IVB0GBb"
      },
      "href" : "https://api.spotify.com/v1/tracks/6P3NqcqK8QPFSf2IVB0GBb",
      "id" : "6P3NqcqK8QPFSf2IVB0GBb",
      "is_local" : false,
      "is_playable" : true,
      "name" : "Abide with Me!",
      "popularity" : 25,
      "preview_url" : "https://p.scdn.co/mp3-preview/6db6494600fcd9dde0d9ccc60b036cf1d4277c1e?cid=774b29d4f13844c495f206cafdad9c86",
      "track_number" : 10,
      "type" : "track",
      "uri" : "spotify:track:6P3NqcqK8QPFSf2IVB0GBb"
    } ],
    "limit" : 10,
    "next" : "https://api.spotify.com/v1/search?query=Abide+With+Me&type=track&market=US&offset=15&limit=10",
    "offset" : 5,
    "previous" : "https://api.spotify.com/v1/search?query=Abide+With+Me&type=track&market=US&offset=0&limit=10",
    "total" : 2815
  }
}