{
  "tracks" : {
    "href" : "https://api.spotify.com/v1/search?query=Heir+of+the+Kingdom&type=track&market=US&offset=5&limit=10",
    "items" : [ {
      "album" : {
        "album_type" : "album",
        "artists" : [ {
          "external_urls" : {
            "spotify" : "https://open.spotify.com/artist/6CPiQbiF0iVrQfGa4iDjqW"
          },
          "href" : "https://api.spotify.com/v1/artists/6CPiQbiF0iVrQfGa4iDjqW",
          "id" : "6CPiQbiF0iVrQfGa4iDjqW",
          "name" : "Kingdom Heirs",
          "type" : "artist",
          "uri" : "spotify:artist:6CPiQbiF0iVrQfGa4iDjqW"
        } ],
        "external_urls" : {
          "spotify" : "https://open.spotify.com/album/0Z6jOht56IKWD3IotwWYK3"
        },
        "href" : "https://api.spotify.com/v1/albums/0Z6jOht56IKWD3IotwWYK3",
        "id" : "0Z6jOht56IKWD3IotwWYK3",
        "images" : [ {
          "height" : 640,
          "url" : "https://i.scdn.co/image/ab67616d0000b2733226cea4ff9d5ea601bd7920",
          "width" : 640
        }, {
          "height" : 300,
          "url" : "https://i.scdn.co/image/ab67616d00001e023226cea4ff9d5ea601bd7920",
          "width" : 300
        }, {
          "height" : 64,
          "url" : "https://i.scdn.co/image/ab67616d000048513226cea4ff9d5ea601bd7920",
          "width" : 64
        } ],
        "name" : "The Last Big Thing",
        "release_date" : "2017-09-29",
        "release_date_precision" : "day",
        "total_tracks" : 11,
        "type" : "album",
        "uri" : "spotify:album:0Z6jOht56IKWD3IotwWYK3"
      },
      "artists" : [ {
        "external_urls" : {
          "spotify" : "https://open.spotify.com/artist/6CPiQbiF0iVrQfGa4iDjqW"
        },
        "href" : "https://api.spotify.com/v1/artists/6CPiQbiF0iVrQfGa4iDjqW",
        "id" : "6CPiQbiF0iVrQfGa4iDjqW",
        "name" : "Kingdom Heirs",
        "type" : "artist",
        "uri" : "spotify:artist:6CPiQbiF0iVrQfGa4iDjqW"
      } ],
      "disc_number" : 1,
      "duration_ms" : 203544,
      "explicit" : false,
      "external_ids" : {
        "isrc" : "USETB1700450"
      },
      "external_urls" : {
        "spotify" : "https://open.spotify.com/track/5nj3zxKXrAtIM76lIcVSrX"
      },
      "href" : "https://api.spotify.com/v1/tracks/5nj3zxKXrAtIM76lIcVSrX",
      "id" : "5nj3zxKXrAtIM76lIcVSrX",
      "is_local" : false,
      "is_playable" : true,
      "name" : "Heroes Of Faith",
      "popularity" : 13,
      "preview_url" : "https://p.scdn.co/mp3-preview/c99ffc05c92333192a5857153381da6e78ee8fc0?cid=774b29d4f13844c495f206cafdad9c86",
      "track_number" : 5,
      "type" : "track",
      "uri" : "spotify:track:5nj3zxKXrAtIM76lIcVSrX"
    }, {
      "album" : {
        "album_type" : "album",
        "artists" : [ {
          "external_urls" : {
            "spotify" : "https://open.spotify.com/artist/6CPiQbiF0iVrQfGa4iDjqW"
          },
          "href" : "https://api.spotify.com/v1/artists/6CPiQbiF0iVrQfGa4iDjqW",
          "id" : "6CPiQbiF0iVrQfGa4iDjqW",
          "name" : "Kingdom Heirs",
          "type" : "artist",
          "uri" : "spotify:artist:6CPiQbiF0iVrQfGa4iDjqW"
        } ],
        "external_urls" : {
          "spotify" : "https://open.spotify.com/album/1O4uzOtGuvFs3OAWIgf26o"
        },
        "href" : "https://api.spotify.com/v1/albums/1O4uzOtGuvFs3OAWIgf26o",
        "id" : "1O4uzOtGuvFs3OAWIgf26o",
        "images" : [ {
          "height" : 640,
          "url" : "https://i.scdn.co/image/ab67616d0000b27301a16dcba44dc9be36eb01e7",
          "width" : 640
        }, {
          "height" : 300,
          "url" : "https://i.scdn.co/image/ab67616d00001e0201a16dcba44dc9be36eb01e7",
          "width" : 300
        }, {
          "height" : 64,
          "url" : "https://i.scdn.co/image/ab67616d0000485101a16dcba44dc9be36eb01e7",
          "width" : 64
        } ],
        "name" : "Something Good Volume 2",
        "release_date" : "2019-04-26",
        "release_date_precision" : "day",
        "total_tracks" : 10,
        "type" : "album",
        "uri" : "spotify:album:1O4uzOtGuvFs3OAWIgf26o"
      },
      "artists" : [ {
        "external_urls" : {
          "spotify" : "https://open.spotify.com/artist/6CPiQbiF0iVrQfGa4iDjqW"
        },
        "href" : "https://api.spotify.com/v1/artists/6CPiQbiF0iVrQfGa4iDjqW",
        "id" : "6CPiQbiF0iVrQfGa4iDjqW",
        "name" : "Kingdom Heirs",
        "type" : "artist",
        "uri" : "spotify:artist:6CPiQbiF0iVrQfGa4iDjqW"
      } ],
      "disc_number" : 1,
      "duration_ms" : 180334,
      "explicit" : false,
      "external_ids" : {
        "isrc" : "USETB1900063"
      },
      "external_urls" : {
        "spotify" : "https://open.spotify.com/track/2rcHKcIHdRbtbyyWi0mOkG"
      },
      "href" : "https://api.spotify.com/v1/tracks/2rcHKcIHdRbtbyyWi0mOkG",
      "id" : "2rcHKcIHdRbtbyyWi0mOkG",
      "is_local" : false,
      "is_playable" : true,
      "name" : "The Lovely Name Of Jesus",
      "popularity" : 12,
      "preview_url" : "https://p.scdn.co/mp3-preview/ce36ee2c08017d259fb4a19aaa6ec494e46b23a7?cid=774b29d4f13844c495f206cafdad9c86",
      "track_number" : 4,
      "type" : "track",
      "uri" : "spotify:track:2rcHKcIHdRbtbyyWi0mOkG"
    }, {
      "album" : {
        "album_type" : "album",
        "artists" : [ {
          "external_urls" : {
            "spotify" : "https://open.spotify.com/artist/6CPiQbiF0iVrQfGa4iDjqW"
          },
          "href" : "https://api.spotify.com/v1/artists/6CPiQbiF0iVrQfGa4iDjqW",
          "id" : "6CPiQbiF0iVrQfGa4iDjqW",
          "name" : "Kingdom Heirs",
          "type" : "artist",
          "uri" : "spotify:artist:6CPiQbiF0iVrQfGa4iDjqW"
        } ],
        "external_urls" : {
          "spotify" : "https://open.spotify.com/album/5dLjBLqXZLKCCqdYg9QDx2"
        },
        "href" : "https://api.spotify.com/v1/albums/5dLjBLqXZLKCCqdYg9QDx2",
        "id" : "5dLjBLqXZLKCCqdYg9QDx2",
        "images" : [ {
          "height" : 640,
          "url" : "https://i.scdn.co/image/ab67616d0000b27363d11f0f238d1253c2635bd4",
          "width" : 640
        }, {
          "height" : 300,
          "url" : "https://i.scdn.co/image/ab67616d00001e0263d11f0f238d1253c2635bd4",
          "width" : 300
        }, {
          "height" : 64,
          "url" : "https://i.scdn.co/image/ab67616d0000485163d11f0f238d1253c2635bd4",
          "width" : 64
        } ],
        "name" : "True To The Call",
        "release_date" : "2007-04-16",
        "release_date_precision" : "day",
        "total_tracks" : 11,
        "type" : "album",
        "uri" : "spotify:album:5dLjBLqXZLKCCqdYg9QDx2"
      },
      "artists" : [ {
        "external_urls" : {
          "spotify" : "https://open.spotify.com/artist/6CPiQbiF0iVrQfGa4iDjqW"
        },
        "href" : "https://api.spotify.com/v1/artists/6CPiQbiF0iVrQfGa4iDjqW",
        "id" : "6CPiQbiF0iVrQfGa4iDjqW",
        "name" : "Kingdom Heirs",
        "type" : "artist",
        "uri" : "spotify:artist:6CPiQbiF0iVrQfGa4iDjqW"
      } ],
      "disc_number" : 1,
      "duration_ms" : 255960,
      "explicit" : false,
      "external_ids" : {
        "isrc" : "USETB0612075"
      },
      "external_urls" : {
        "spotify" : "https://open.spotify.com/track/2KraiDrzWNiCjLWAT3bquq"
      },
      "href" : "https://api.spotify.com/v1/tracks/2KraiDrzWNiCjLWAT3bquq",
      "id" : "2KraiDrzWNiCjLWAT3bquq",
      "is_local" : false,
      "is_playable" : true,
      "name" : "Jesus Made A Believer Out Of Me",
      "popularity" : 8,
      "preview_url" : "https://p.scdn.co/mp3-preview/9cfc614c6b203d21091dd9709ced0336a5f5f64e?cid=774b29d4f13844c495f206cafdad9c86",
      "track_number" : 6,
      "type" : "track",
      "uri" : "spotify:track:2KraiDrzWNiCjLWAT3bquq"
    }, {
      "album" : {
        "album_type" : "album",
        "artists" : [ {
          "external_urls" : {
            "spotify" : "https://open.spotify.com/artist/6CPiQbiF0iVrQfGa4iDjqW"
          },
          "href" : "https://api.spotify.com/v1/artists/6CPiQbiF0iVrQfGa4iDjqW",
          "id" : "6CPiQbiF0iVrQfGa4iDjqW",
          "name" : "Kingdom Heirs",
          "type" : "artist",
          "uri" : "spotify:artist:6CPiQbiF0iVrQfGa4iDjqW"
        } ],
        "external_urls" : {
          "spotify" : "https://open.spotify.com/album/0Z6jOht56IKWD3IotwWYK3"
        },
        "href" : "https://api.spotify.com/v1/albums/0Z6jOht56IKWD3IotwWYK3",
        "id" : "0Z6jOht56IKWD3IotwWYK3",
        "images" : [ {
          "height" : 640,
          "url" : "https://i.scdn.co/image/ab67616d0000b2733226cea4ff9d5ea601bd7920",
          "width" : 640
        }, {
          "height" : 300,
          "url" : "https://i.scdn.co/image/ab67616d00001e023226cea4ff9d5ea601bd7920",
          "width" : 300
        }, {
          "height" : 64,
          "url" : "https://i.scdn.co/image/ab67616d000048513226cea4ff9d5ea601bd7920",
          "width" : 64
        } ],
        "name" : "The Last Big Thing",
        "release_date" : "2017-09-29",
        "release_date_precision" : "day",
        "total_tracks" : 11,
        "type" : "album",
        "uri" : "spotify:album:0Z6jOht56IKWD3IotwWYK3"
      },
      "artists" : [ {
        "external_urls" : {
          "spotify" : "https://open.spotify.com/artist/6CPiQbiF0iVrQfGa4iDjqW"
        },
        "href" : "https://api.spotify.com/v1/artists/6CPiQbiF0iVrQfGa4iDjqW",
        "id" : "6CPiQbiF0iVrQfGa4iDjqW",
        "name" : "Kingdom Heirs",
        "type" : "artist",
        "uri" : "spotify:artist:6CPiQbiF0iVrQfGa4iDjqW"
      } ],
      "disc_number" : 1,
      "duration_ms" : 189894,
      "explicit" : false,
      "external_ids" : {
        "isrc" : "USETB1700446"
      },
      "external_urls" : {
        "spotify" : "https://open.spotify.com/track/19hHcu7xLmZT0DNZeU4vQW"
      },
      "href" : "https://api.spotify.com/v1/tracks/19hHcu7xLmZT0DNZeU4vQW",
      "id" : "19hHcu7xLmZT0DNZeU4vQW",
      "is_local" : false,
      "is_playable" : true,
      "name" : "Plenty Of Singing",
      "popularity" : 7,
      "preview_url" : "https://p.scdn.co/mp3-preview/773539314344dca2ed4cd5fecf6652307d881c0b?cid=774b29d4f13844c495f206cafdad9c86",
      "track_number" : 1,
      "type" : "track",
      "uri" : "spotify:track:19hHcu7xLmZT0DNZeU4vQW"
    }, {
      "album" : {
        "album_type" : "album",
        "artists" : [ {
          "external_urls" : {
            "spotify" : "https://open.spotify.com/artist/6CPiQbiF0iVrQfGa4iDjqW"
          },
          "href" : "https://api.spotify.com/v1/artists/6CPiQbiF0iVrQfGa4iDjqW",
          "id" : "6CPiQbiF0iVrQfGa4iDjqW",
          "name" : "Kingdom Heirs",
          "type" : "artist",
          "uri" : "spotify:artist:6CPiQbiF0iVrQfGa4iDjqW"
        } ],
        "external_urls" : {
          "spotify" : "https://open.spotify.com/album/4Jcm8aZMibSwdCpvGcTxfa"
        },
        "href" : "https://api.spotify.com/v1/albums/4Jcm8aZMibSwdCpvGcTxfa",
        "id" : "4Jcm8aZMibSwdCpvGcTxfa",
        "images" : [ {
          "height" : 640,
          "url" : "https://i.scdn.co/image/ab67616d0000b2731e796107e4633587e0858e46",
          "width" : 640
        }, {
          "height" : 300,
          "url" : "https://i.scdn.co/image/ab67616d00001e021e796107e4633587e0858e46",
          "width" : 300
        }, {
          "height" : 64,
          "url" : "https://i.scdn.co/image/ab67616d000048511e796107e4633587e0858e46",
          "width" : 64
        } ],
        "name" : "Give Me The Mountain",
        "release_date" : "2005-08-16",
        "release_date_precision" : "day",
        "total_tracks" : 10,
        "type" : "album",
        "uri" : "spotify:album:4Jcm8aZMibSwdCpvGcTxfa"
      },
      "artists" : [ {
        "external_urls" : {
          "spotify" : "https://open.spotify.com/artist/6CPiQbiF0iVrQfGa4iDjqW"
        },
        "href" : "https://api.spotify.com/v1/artists/6CPiQbiF0iVrQfGa4iDjqW",
        "id" : "6CPiQbiF0iVrQfGa4iDjqW",
        "name" : "Kingdom Heirs",
        "type" : "artist",
        "uri" : "spotify:artist:6CPiQbiF0iVrQfGa4iDjqW"
      } ],
      "disc_number" : 1,
      "duration_ms" : 215000,
      "explicit" : false,
      "external_ids" : {
        "isrc" : "USETB0611653"
      },
      "external_urls" : {
        "spotify" : "https://open.spotify.com/track/7dFE8QYRK07rXpxaJITLxm"
      },
      "href" : "https://api.spotify.com/v1/tracks/7dFE8QYRK07rXpxaJITLxm",
      "id" : "7dFE8QYRK07rXpxaJITLxm",
      "is_local" : false,
      "is_playable" : true,
      "name" : "My Anchor Of Hope",
      "popularity" : 6,
      "preview_url" : "https://p.scdn.co/mp3-preview/f2dd07aaa2b7e02e78d2ec1a0d1ab1be23fefd1c?cid=774b29d4f13844c495f206cafdad9c86",
      "track_number" : 7,
      "type" : "track",
      "uri" : "spotify:track:7dFE8QYRK07rXpxaJITLxm"
    }, {
      "album" : {
        "album_type" : "album",
        "artists" : [ {
          "external_urls" : {
            "spotify" : "https://open.spotify.com/artist/6CPiQbiF0iVrQfGa4iDjqW"
          },
          "href" : "https://api.spotify.com/v1/artists/6CPiQbiF0iVrQfGa4iDjqW",
          "id" : "6CPiQbiF0iVrQfGa4iDjqW",
          "name" : "Kingdom Heirs",
          "type" : "artist",
          "uri" : "spotify:artist:6CPiQbiF0iVrQfGa4iDjqW"
        } ],
        "external_urls" : {
          "spotify" : "https://open.spotify.com/album/1O4uzOtGuvFs3OAWIgf26o"
        },
        "href" : "https://api.spotify.com/v1/albums/1O4uzOtGuvFs3OAWIgf26o",
        "id" : "1O4uzOtGuvFs3OAWIgf26o",
        "images" : [ {
          "height" : 640,
          "url" : "https://i.scdn.co/image/ab67616d0000b27301a16dcba44dc9be36eb01e7",
          "width" : 640
        }, {
          "height" : 300,
          "url" : "https://i.scdn.co/image/ab67616d00001e0201a16dcba44dc9be36eb01e7",
          "width" : 300
        }, {
          "height" : 64,
          "url" : "https://i.scdn.co/image/ab67616d0000485101a16dcba44dc9be36eb01e7",
          "width" : 64
        } ],
        "name" : "Something Good Volume 2",
        "release_date" : "2019-04-26",
        "release_date_precision" : "day",
        "total_tracks" : 10,
        "type" : "album",
        "uri" : "spotify:album:1O4uzOtGuvFs3OAWIgf26o"
      },
      "artists" : [ {
        "external_urls" : {
          "spotify" : "https://open.spotify.com/artist/6CPiQbiF0iVrQfGa4iDjqW"
        },
        "href" : "https://api.spotify.com/v1/artists/6CPiQbiF0iVrQfGa4iDjqW",
        "id" : "6CPiQbiF0iVrQfGa4iDjqW",
        "name" : "Kingdom Heirs",
        "type" : "artist",
        "uri" : "spotify:artist:6CPiQbiF0iVrQfGa4iDjqW"
      } ],
      "disc_number" : 1,
      "duration_ms" : 248806,
      "explicit" : false,
      "external_ids" : {
        "isrc" : "USETB1900064"
      },
      "external_urls" : {
        "spotify" : "https://open.spotify.com/track/4IgRcDyQ9SHYPnVOD3ylXn"
      },
      "href" : "https://api.spotify.com/v1/tracks/4IgRcDyQ9SHYPnVOD3ylXn",
      "id" : "4IgRcDyQ9SHYPnVOD3ylXn",
      "is_local" : false,
      "is_playable" : true,
      "name" : "The Love Of God",
      "popularity" : 4,
      "preview_url" : "https://p.scdn.co/mp3-preview/adcfa9d53b0507d1fafded4c15d1b70139c8eae9?cid=774b29d4f13844c495f206cafdad9c86",
      "track_number" : 5,
      "type" : "track",
      "uri" : "spotify:track:4IgRcDyQ9SHYPnVOD3ylXn"
    }, {
      "album" : {
        "album_type" : "album",
        "artists" : [ {
          "external_urls" : {
            "spotify" : "https://open.spotify.com/artist/6CPiQbiF0iVrQfGa4iDjqW"
          },
          "href" : "https://api.spotify.com/v1/artists/6CPiQbiF0iVrQfGa4iDjqW",
          "id" : "6CPiQbiF0iVrQfGa4iDjqW",
          "name" : "Kingdom Heirs",
          "type" : "artist",
          "uri" : "spotify:artist:6CPiQbiF0iVrQfGa4iDjqW"
        } ],
        "external_urls" : {
          "spotify" : "https://open.spotify.com/album/5kVnQ5xp8T9Z1kLPZRfhnu"
        },
        "href" : "https://api.spotify.com/v1/albums/5kVnQ5xp8T9Z1kLPZRfhnu",
        "id" : "5kVnQ5xp8T9Z1kLPZRfhnu",
        "images" : [ {
          "height" : 640,
          "url" : "https://i.scdn.co/image/ab67616d0000b273d2b47089302f47ce5972a8bb",
          "width" : 640
        }, {
          "height" : 300,
          "url" : "https://i.scdn.co/image/ab67616d00001e02d2b47089302f47ce5972a8bb",
          "width" : 300
        }, {
          "height" : 64,
          "url" : "https://i.scdn.co/image/ab67616d00004851d2b47089302f47ce5972a8bb",
          "width" : 64
        } ],
        "name" : "Going On With The Song",
        "release_date" : "2003-06-17",
        "release_date_precision" : "day",
        "total_tracks" : 10,
        "type" : "album",
        "uri" : "spotify:album:5kVnQ5xp8T9Z1kLPZRfhnu"
      },
      "artists" : [ {
        "external_urls" : {
          "spotify" : "https://open.spotify.com/artist/6CPiQbiF0iVrQfGa4iDjqW"
        },
        "href" : "https://api.spotify.com/v1/artists/6CPiQbiF0iVrQfGa4iDjqW",
        "id" : "6CPiQbiF0iVrQfGa4iDjqW",
        "name" : "Kingdom Heirs",
        "type" : "artist",
        "uri" : "spotify:artist:6CPiQbiF0iVrQfGa4iDjqW"
      } ],
      "disc_number" : 1,
      "duration_ms" : 201666,
      "explicit" : false,
      "external_ids" : {
        "isrc" : "USETB0611465"
      },
      "external_urls" : {
        "spotify" : "https://open.spotify.com/track/5TiTFT2HGweGdRCz4yq5VZ"
      },
      "href" : "https://api.spotify.com/v1/tracks/5TiTFT2HGweGdRCz4yq5VZ",
      "id" : "5TiTFT2HGweGdRCz4yq5VZ",
      "is_local" : false,
      "is_playable" : true,
      "name" : "The Gift Of Salvation",
      "popularity" : 4,
      "preview_url" : "https://p.scdn.co/mp3-preview/a2d05f2aae7479c5b286a1fa224ce57eff43fc5d?cid=774b29d4f13844c495f206cafdad9c86",
      "track_number" : 2,
      "type" : "track",
      "uri" : "spotify:track:5TiTFT2HGweGdRCz4yq5VZ"
    }, {
      "album" : {
        "album_type" : "album",
        "artists" : [ {
          "external_urls" : {
            "spotify" : "https://open.spotify.com/artist/6CPiQbiF0iVrQfGa4iDjqW"
          },
          "href" : "https://api.spotify.com/v1/artists/6CPiQbiF0iVrQfGa4iDjqW",
          "id" : "6CPiQbiF0iVrQfGa4iDjqW",
          "name" : "Kingdom Heirs",
          "type" : "artist",
          "uri" : "spotify:artist:6CPiQbiF0iVrQfGa4iDjqW"
        } ],
        "external_urls" : {
          "spotify" : "https://open.spotify.com/album/1RXJt9uTabPHM0Jml6GQ2m"
        },
        "href" : "https://api.spotify.com/v1/albums/1RXJt9uTabPHM0Jml6GQ2m",
        "id" : "1RXJt9uTabPHM0Jml6GQ2m",
        "images" : [ {
          "height" : 640,
          "url" : "https://i.scdn.co/image/ab67616d0000b2738c08517dda2af8a4e3a29ab1",
          "width" : 640
        }, {
          "height" : 300,
          "url" : "https://i.scdn.co/image/ab67616d00001e028c08517dda2af8a4e3a29ab1",
          "width" : 300
        }, {
          "height" : 64,
          "url" : "https://i.scdn.co/image/ab67616d000048518c08517dda2af8a4e3a29ab1",
          "width" : 64
        } ],
        "name" : "Off The Record",
        "release_date" : "2006-11-27",
        "release_date_precision" : "day",
        "total_tracks" : 12,
        "type" : "album",
        "uri" : "spotify:album:1RXJt9uTabPHM0Jml6GQ2m"
      },
      "artists" : [ {
        "external_urls" : {
          "spotify" : "https://open.spotify.com/artist/6CPiQbiF0iVrQfGa4iDjqW"
        },
        "href" : "https://api.spotify.com/v1/artists/6CPiQbiF0iVrQfGa4iDjqW",
        "id" : "6CPiQbiF0iVrQfGa4iDjqW",
        "name" : "Kingdom Heirs",
        "type" : "artist",
        "uri" : "spotify:artist:6CPiQbiF0iVrQfGa4iDjqW"
      } ],
      "disc_number" : 1,
      "duration_ms" : 244493,
      "explicit" : false,
      "external_ids" : {
        "isrc" : "usx9s0600004"
      },
      "external_urls" : {
        "spotify" : "https://open.spotify.com/track/0yRNOGw3OUt5hVDktYWR3q"
      },
      "href" : "https://api.spotify.com/v1/tracks/0yRNOGw3OUt5hVDktYWR3q",
      "id" : "0yRNOGw3OUt5hVDktYWR3q",
      "is_local" : false,
      "is_playable" : true,
      "name" : "I Know He Heard My Prayer",
      "popularity" : 5,
      "preview_url" : "https://p.scdn.co/mp3-preview/97f017f65b09536c9ecf5d2e3cf51093200e594e?cid=774b29d4f13844c495f206cafdad9c86",
      "track_number" : 4,
      "type" : "track",
      "uri" : "spotify:track:0yRNOGw3OUt5hVDktYWR3q"
    }, {
      "album" : {
        "album_type" : "album",
        "artists" : [ {
          "external_urls" : {
            "spotify" : "https://open.spotify.com/artist/6CPiQbiF0iVrQfGa4iDjqW"
          },
          "href" : "https://api.spotify.com/v1/artists/6CPiQbiF0iVrQfGa4iDjqW",
          "id" : "6CPiQbiF0iVrQfGa4iDjqW",
          "name" : "Kingdom Heirs",
          "type" : "artist",
          "uri" : "spotify:artist:6CPiQbiF0iVrQfGa4iDjqW"
        } ],
        "external_urls" : {
          "spotify" : "https://open.spotify.com/album/1O4uzOtGuvFs3OAWIgf26o"
        },
        "href" : "https://api.spotify.com/v1/albums/1O4uzOtGuvFs3OAWIgf26o",
        "id" : "1O4uzOtGuvFs3OAWIgf26o",
        "images" : [ {
          "height" : 640,
          "url" : "https://i.scdn.co/image/ab67616d0000b27301a16dcba44dc9be36eb01e7",
          "width" : 640
        }, {
          "height" : 300,
          "url" : "https://i.scdn.co/image/ab67616d00001e0201a16dcba44dc9be36eb01e7",
          "width" : 300
        }, {
          "height" : 64,
          "url" : "https://i.scdn.co/image/ab67616d0000485101a16dcba44dc9be36eb01e7",
          "width" : 64
        } ],
        "name" : "Something Good Volume 2",
        "release_date" : "2019-04-26",
        "release_date_precision" : "day",
        "total_tracks" : 10,
        "type" : "album",
        "uri" : "spotify:album:1O4uzOtGuvFs3OAWIgf26o"
      },
      "artists" : [ {
        "external_urls" : {
          "spotify" : "https://open.spotify.com/artist/6CPiQbiF0iVrQfGa4iDjqW"
        },
        "href" : "https://api.spotify.com/v1/artists/6CPiQbiF0iVrQfGa4iDjqW",
        "id" : "6CPiQbiF0iVrQfGa4iDjqW",
        "name" : "Kingdom Heirs",
        "type" : "artist",
        "uri" : "spotify:artist:6CPiQbiF0iVrQfGa4iDjqW"
      } ],
      "disc_number" : 1,
      "duration_ms" : 209341,
      "explicit" : false,
      "external_ids" : {
        "isrc" : "USETB1900069"
      },
      "external_urls" : {
        "spotify" : "https://open.spotify.com/track/3ynClGbveZoLPw9bQLZ4oa"
      },
      "href" : "https://api.spotify.com/v1/tracks/3ynClGbveZoLPw9bQLZ4oa",
      "id" : "3ynClGbveZoLPw9bQLZ4oa",
      "is_local" : false,
      "is_playable" : true,
      "name" : "Joshua Fit The Battle Of Jericho",
      "popularity" : 4,
      "preview_url" : "https://p.scdn.co/mp3-preview/c56743135e742f5ebd61a99f53d69554680db4d7?cid=774b29d4f13844c495f206cafdad9c86",
      "track_number" : 10,
      "type" : "track",
      "uri" : "spotify:track:3ynClGbveZoLPw9bQLZ4oa"
    }, {
      "album" : {
        "album_type" : "album",
        "artists" : [ {
          "external_urls" : {
            "spotify" : "https://open.spotify.com/artist/6CPiQbiF0iVrQfGa4iDjqW"
          },
          "href" : "https://api.spotify.com/v1/artists/6CPiQbiF0iVrQfGa4iDjqW",
          "id" : "6CPiQbiF0iVrQfGa4iDjqW",
          "name" : "Kingdom Heirs",
          "type" : "artist",
          "uri" : "spotify:artist:6CPiQbiF0iVrQfGa4iDjqW"
        } ],
        "external_urls" : {
          "spotify" : "https://open.spotify.com/album/1RXJt9uTabPHM0Jml6GQ2m"
        },
        "href" : "https://api.spotify.com/v1/albums/1RXJt9uTabPHM0Jml6GQ2m",
        "id" : "1RXJt9uTabPHM0Jml6GQ2m",
        "images" : [ {
          "height" : 640,
          "url" : "https://i.scdn.co/image/ab67616d0000b2738c08517dda2af8a4e3a29ab1",
          "width" : 640
        }, {
          "height" : 300,
          "url" : "https://i.scdn.co/image/ab67616d00001e028c08517dda2af8a4e3a29ab1",
          "width" : 300
        }, {
          "height" : 64,
          "url" : "https://i.scdn.co/image/ab67616d000048518c08517dda2af8a4e3a29ab1",
          "width" : 64
        } ],
        "name" : "Off The Record",
        "release_date" : "2006-11-27",
        "release_date_precision" : "day",
        "total_tracks" : 12,
        "type" : "album",
        "uri" : "spotify:album:1RXJt9uTabPHM0Jml6GQ2m"
      },
      "artists" : [ {
        "external_urls" : {
          "spotify" : "https://open.spotify.com/artist/6CPiQbiF0iVrQfGa4iDjqW"
        },
        "href" : "https://api.spotify.com/v1/artists/6CPiQbiF0iVrQfGa4iDjqW",
        "id" : "6CPiQbiF0iVrQfGa4iDjqW",
        "name" : "Kingdom Heirs",
        "type" : "artist",
        "uri" : "spotify:artist:6CPiQbiF0iVrQfGa4iDjqW"
      } ],
      "disc_number" : 1,
      "duration_ms" : 155506,
      "explicit" : false,
      "external_ids" : {
        "isrc" : "usx9s0600003"
      },
      "external_urls" : {
        "spotify" : "https://open.spotify.com/track/1CNwt6yKkCEquU4ou0Qanw"
      },
      "href" : "https://api.spotify.com/v1/tracks/1CNwt6yKkCEquU4ou0Qanw",
      "id" : "1CNwt6yKkCEquU4ou0Qanw",
      "is_local" : false,
      "is_playable" : true,
      "name" : "I've Got Something To Shout About",
      "popularity" : 3,
      "preview_url" : "https://p.scdn.co/mp3-preview/4d703685fe3871c47cd9b69aaf08edcc8bf23d6d?cid=774b29d4f13844c495f206cafdad9c86",
      "track_number" : 3,
      "type" : "track",
      "uri" : "spotify:track:1CNwt6yKkCEquU4ou0Qanw"
    } ],
    "limit" : 10,
    "next" : "https://api.spotify.com/v1/search?query=Heir+of+the+Kingdom&type=track&market=US&offset=15&limit=10",
    "offset" : 5,
    "previous" : "https://api.spotify.com/v1/search?query=Heir+of+the+Kingdom&type=track&market=US&offset=0&limit=10",
    "total" : 141
  }
}