{
  "tracks" : {
    "href" : "https://api.spotify.com/v1/search?query=Hail+the+Day+That+Sees+Him+Rise&type=track&market=US&offset=5&limit=10",
    "items" : [ {
      "album" : {
        "album_type" : "album",
        "artists" : [ {
          "external_urls" : {
            "spotify" : "https://open.spotify.com/artist/4YpvNNsBs2exKjLrOMSNbu"
          },
          "href" : "https://api.spotify.com/v1/artists/4YpvNNsBs2exKjLrOMSNbu",
          "id" : "4YpvNNsBs2exKjLrOMSNbu",
          "name" : "Frederick Guntermann",
          "type" : "artist",
          "uri" : "spotify:artist:4YpvNNsBs2exKjLrOMSNbu"
        } ],
        "external_urls" : {
          "spotify" : "https://open.spotify.com/album/5k2FvMsV0atPtstx3Zp6hz"
        },
        "href" : "https://api.spotify.com/v1/albums/5k2FvMsV0atPtstx3Zp6hz",
        "id" : "5k2FvMsV0atPtstx3Zp6hz",
        "images" : [ {
          "height" : 640,
          "url" : "https://i.scdn.co/image/ab67616d0000b273af0b5077f32faa5b0c9bdc1f",
          "width" : 640
        }, {
          "height" : 300,
          "url" : "https://i.scdn.co/image/ab67616d00001e02af0b5077f32faa5b0c9bdc1f",
          "width" : 300
        }, {
          "height" : 64,
          "url" : "https://i.scdn.co/image/ab67616d00004851af0b5077f32faa5b0c9bdc1f",
          "width" : 64
        } ],
        "name" : "Easter Hymns: Organ Accompaniments for Worship Service",
        "release_date" : "2018-06-27",
        "release_date_precision" : "day",
        "total_tracks" : 33,
        "type" : "album",
        "uri" : "spotify:album:5k2FvMsV0atPtstx3Zp6hz"
      },
      "artists" : [ {
        "external_urls" : {
          "spotify" : "https://open.spotify.com/artist/4YpvNNsBs2exKjLrOMSNbu"
        },
        "href" : "https://api.spotify.com/v1/artists/4YpvNNsBs2exKjLrOMSNbu",
        "id" : "4YpvNNsBs2exKjLrOMSNbu",
        "name" : "Frederick Guntermann",
        "type" : "artist",
        "uri" : "spotify:artist:4YpvNNsBs2exKjLrOMSNbu"
      } ],
      "disc_number" : 1,
      "duration_ms" : 124340,
      "explicit" : false,
      "external_ids" : {
        "isrc" : "GB-SMU-53-52638"
      },
      "external_urls" : {
        "spotify" : "https://open.spotify.com/track/42iVHle9iDIIlfj5l1CsWT"
      },
      "href" : "https://api.spotify.com/v1/tracks/42iVHle9iDIIlfj5l1CsWT",
      "id" : "42iVHle9iDIIlfj5l1CsWT",
      "is_local" : false,
      "is_playable" : true,
      "name" : "Hail the Day That Sees Him Rise",
      "popularity" : 5,
      "preview_url" : "https://p.scdn.co/mp3-preview/6f1878e1076623757d899f2ed0743da8a509d1c1?cid=774b29d4f13844c495f206cafdad9c86",
      "track_number" : 32,
      "type" : "track",
      "uri" : "spotify:track:42iVHle9iDIIlfj5l1CsWT"
    }, {
      "album" : {
        "album_type" : "album",
        "artists" : [ {
          "external_urls" : {
            "spotify" : "https://open.spotify.com/artist/7rluHfxLiKAkAoMkuE1F8U"
          },
          "href" : "https://api.spotify.com/v1/artists/7rluHfxLiKAkAoMkuE1F8U",
          "id" : "7rluHfxLiKAkAoMkuE1F8U",
          "name" : "St. Michael's Singers",
          "type" : "artist",
          "uri" : "spotify:artist:7rluHfxLiKAkAoMkuE1F8U"
        } ],
        "external_urls" : {
          "spotify" : "https://open.spotify.com/album/6B0rBsZWacLCyjiJtNqc5m"
        },
        "href" : "https://api.spotify.com/v1/albums/6B0rBsZWacLCyjiJtNqc5m",
        "id" : "6B0rBsZWacLCyjiJtNqc5m",
        "images" : [ {
          "height" : 640,
          "url" : "https://i.scdn.co/image/ab67616d0000b2730e2cedf8573dcd811cb590b7",
          "width" : 640
        }, {
          "height" : 300,
          "url" : "https://i.scdn.co/image/ab67616d00001e020e2cedf8573dcd811cb590b7",
          "width" : 300
        }, {
          "height" : 64,
          "url" : "https://i.scdn.co/image/ab67616d000048510e2cedf8573dcd811cb590b7",
          "width" : 64
        } ],
        "name" : "The Hymn Makers: Charles Wesley (Vol. 2, Ye Servants of God)",
        "release_date" : "1996",
        "release_date_precision" : "year",
        "total_tracks" : 14,
        "type" : "album",
        "uri" : "spotify:album:6B0rBsZWacLCyjiJtNqc5m"
      },
      "artists" : [ {
        "external_urls" : {
          "spotify" : "https://open.spotify.com/artist/7rluHfxLiKAkAoMkuE1F8U"
        },
        "href" : "https://api.spotify.com/v1/artists/7rluHfxLiKAkAoMkuE1F8U",
        "id" : "7rluHfxLiKAkAoMkuE1F8U",
        "name" : "St. Michael's Singers",
        "type" : "artist",
        "uri" : "spotify:artist:7rluHfxLiKAkAoMkuE1F8U"
      } ],
      "disc_number" : 1,
      "duration_ms" : 282573,
      "explicit" : false,
      "external_ids" : {
        "isrc" : "GBBTM9689107"
      },
      "external_urls" : {
        "spotify" : "https://open.spotify.com/track/42SD6dSnJZP3sRpgITLfPr"
      },
      "href" : "https://api.spotify.com/v1/tracks/42SD6dSnJZP3sRpgITLfPr",
      "id" : "42SD6dSnJZP3sRpgITLfPr",
      "is_local" : false,
      "is_playable" : true,
      "name" : "Hail The Day That Sees Him Rise",
      "popularity" : 6,
      "preview_url" : "https://p.scdn.co/mp3-preview/d31b7a8d3ccbe1d5b97b2100f10179a38b69a020?cid=774b29d4f13844c495f206cafdad9c86",
      "track_number" : 7,
      "type" : "track",
      "uri" : "spotify:track:42SD6dSnJZP3sRpgITLfPr"
    }, {
      "album" : {
        "album_type" : "album",
        "artists" : [ {
          "external_urls" : {
            "spotify" : "https://open.spotify.com/artist/2yQZGNQJExPLfCB8kfTD88"
          },
          "href" : "https://api.spotify.com/v1/artists/2yQZGNQJExPLfCB8kfTD88",
          "id" : "2yQZGNQJExPLfCB8kfTD88",
          "name" : "Andrey Jackson",
          "type" : "artist",
          "uri" : "spotify:artist:2yQZGNQJExPLfCB8kfTD88"
        } ],
        "external_urls" : {
          "spotify" : "https://open.spotify.com/album/1RoX8hyn3SCtQGhqL7BiIr"
        },
        "href" : "https://api.spotify.com/v1/albums/1RoX8hyn3SCtQGhqL7BiIr",
        "id" : "1RoX8hyn3SCtQGhqL7BiIr",
        "images" : [ {
          "height" : 640,
          "url" : "https://i.scdn.co/image/ab67616d0000b273216269e70d1a7d605fc97175",
          "width" : 640
        }, {
          "height" : 300,
          "url" : "https://i.scdn.co/image/ab67616d00001e02216269e70d1a7d605fc97175",
          "width" : 300
        }, {
          "height" : 64,
          "url" : "https://i.scdn.co/image/ab67616d00004851216269e70d1a7d605fc97175",
          "width" : 64
        } ],
        "name" : "Christian Hymns for Easter, Organ Accompaniments (The Church Organist Series)",
        "release_date" : "2015-10-15",
        "release_date_precision" : "day",
        "total_tracks" : 40,
        "type" : "album",
        "uri" : "spotify:album:1RoX8hyn3SCtQGhqL7BiIr"
      },
      "artists" : [ {
        "external_urls" : {
          "spotify" : "https://open.spotify.com/artist/2yQZGNQJExPLfCB8kfTD88"
        },
        "href" : "https://api.spotify.com/v1/artists/2yQZGNQJExPLfCB8kfTD88",
        "id" : "2yQZGNQJExPLfCB8kfTD88",
        "name" : "Andrey Jackson",
        "type" : "artist",
        "uri" : "spotify:artist:2yQZGNQJExPLfCB8kfTD88"
      } ],
      "disc_number" : 1,
      "duration_ms" : 142044,
      "explicit" : false,
      "external_ids" : {
        "isrc" : "GB-SMU-23-62395"
      },
      "external_urls" : {
        "spotify" : "https://open.spotify.com/track/5FWG3koYI0xzkFbjaoowBJ"
      },
      "href" : "https://api.spotify.com/v1/tracks/5FWG3koYI0xzkFbjaoowBJ",
      "id" : "5FWG3koYI0xzkFbjaoowBJ",
      "is_local" : false,
      "is_playable" : true,
      "name" : "Hail the Day That Sees Him Rise",
      "popularity" : 4,
      "preview_url" : "https://p.scdn.co/mp3-preview/4c3b29eef8ad5ca3b6801175243f7c32e59bbec9?cid=774b29d4f13844c495f206cafdad9c86",
      "track_number" : 19,
      "type" : "track",
      "uri" : "spotify:track:5FWG3koYI0xzkFbjaoowBJ"
    }, {
      "album" : {
        "album_type" : "album",
        "artists" : [ {
          "external_urls" : {
            "spotify" : "https://open.spotify.com/artist/5zN0p884rqUfd0fG3LtVGc"
          },
          "href" : "https://api.spotify.com/v1/artists/5zN0p884rqUfd0fG3LtVGc",
          "id" : "5zN0p884rqUfd0fG3LtVGc",
          "name" : "Cardiphonia Music",
          "type" : "artist",
          "uri" : "spotify:artist:5zN0p884rqUfd0fG3LtVGc"
        } ],
        "external_urls" : {
          "spotify" : "https://open.spotify.com/album/2yYbhi3gt10BZvKCasKpq5"
        },
        "href" : "https://api.spotify.com/v1/albums/2yYbhi3gt10BZvKCasKpq5",
        "id" : "2yYbhi3gt10BZvKCasKpq5",
        "images" : [ {
          "height" : 640,
          "url" : "https://i.scdn.co/image/ab67616d0000b273990291f73e5fc46958b87489",
          "width" : 640
        }, {
          "height" : 300,
          "url" : "https://i.scdn.co/image/ab67616d00001e02990291f73e5fc46958b87489",
          "width" : 300
        }, {
          "height" : 64,
          "url" : "https://i.scdn.co/image/ab67616d00004851990291f73e5fc46958b87489",
          "width" : 64
        } ],
        "name" : "Ascension Songs",
        "release_date" : "2012-05-24",
        "release_date_precision" : "day",
        "total_tracks" : 14,
        "type" : "album",
        "uri" : "spotify:album:2yYbhi3gt10BZvKCasKpq5"
      },
      "artists" : [ {
        "external_urls" : {
          "spotify" : "https://open.spotify.com/artist/5zN0p884rqUfd0fG3LtVGc"
        },
        "href" : "https://api.spotify.com/v1/artists/5zN0p884rqUfd0fG3LtVGc",
        "id" : "5zN0p884rqUfd0fG3LtVGc",
        "name" : "Cardiphonia Music",
        "type" : "artist",
        "uri" : "spotify:artist:5zN0p884rqUfd0fG3LtVGc"
      }, {
        "external_urls" : {
          "spotify" : "https://open.spotify.com/artist/3tD5JbGZpZMPKn35lOM8te"
        },
        "href" : "https://api.spotify.com/v1/artists/3tD5JbGZpZMPKn35lOM8te",
        "id" : "3tD5JbGZpZMPKn35lOM8te",
        "name" : "Naaman Wood",
        "type" : "artist",
        "uri" : "spotify:artist:3tD5JbGZpZMPKn35lOM8te"
      } ],
      "disc_number" : 1,
      "duration_ms" : 217455,
      "explicit" : false,
      "external_ids" : {
        "isrc" : "QZB4J1878907"
      },
      "external_urls" : {
        "spotify" : "https://open.spotify.com/track/0xSXYzaVgwwi6Ety8EgzFA"
      },
      "href" : "https://api.spotify.com/v1/tracks/0xSXYzaVgwwi6Ety8EgzFA",
      "id" : "0xSXYzaVgwwi6Ety8EgzFA",
      "is_local" : false,
      "is_playable" : true,
      "name" : "Hail the Day That Sees Him Rise",
      "popularity" : 2,
      "preview_url" : "https://p.scdn.co/mp3-preview/e97483c8083defa4987efd7d8c51754a5e7082cf?cid=774b29d4f13844c495f206cafdad9c86",
      "track_number" : 9,
      "type" : "track",
      "uri" : "spotify:track:0xSXYzaVgwwi6Ety8EgzFA"
    }, {
      "album" : {
        "album_type" : "compilation",
        "artists" : [ {
          "external_urls" : {
            "spotify" : "https://open.spotify.com/artist/0LyfQWJT6nXafLPZqxe9Of"
          },
          "href" : "https://api.spotify.com/v1/artists/0LyfQWJT6nXafLPZqxe9Of",
          "id" : "0LyfQWJT6nXafLPZqxe9Of",
          "name" : "Various Artists",
          "type" : "artist",
          "uri" : "spotify:artist:0LyfQWJT6nXafLPZqxe9Of"
        } ],
        "external_urls" : {
          "spotify" : "https://open.spotify.com/album/15Lz8E6JBQSXHixf3ryJpd"
        },
        "href" : "https://api.spotify.com/v1/albums/15Lz8E6JBQSXHixf3ryJpd",
        "id" : "15Lz8E6JBQSXHixf3ryJpd",
        "images" : [ {
          "height" : 640,
          "url" : "https://i.scdn.co/image/ab67616d0000b27319ce2b2ef993e4115f0da93c",
          "width" : 640
        }, {
          "height" : 300,
          "url" : "https://i.scdn.co/image/ab67616d00001e0219ce2b2ef993e4115f0da93c",
          "width" : 300
        }, {
          "height" : 64,
          "url" : "https://i.scdn.co/image/ab67616d0000485119ce2b2ef993e4115f0da93c",
          "width" : 64
        } ],
        "name" : "Journeysongs Third Edition: Volume 13",
        "release_date" : "2012-05-01",
        "release_date_precision" : "day",
        "total_tracks" : 27,
        "type" : "album",
        "uri" : "spotify:album:15Lz8E6JBQSXHixf3ryJpd"
      },
      "artists" : [ {
        "external_urls" : {
          "spotify" : "https://open.spotify.com/artist/5zQqaxZGKmZ8hDeVC9VSPT"
        },
        "href" : "https://api.spotify.com/v1/artists/5zQqaxZGKmZ8hDeVC9VSPT",
        "id" : "5zQqaxZGKmZ8hDeVC9VSPT",
        "name" : "OCP Session Choir",
        "type" : "artist",
        "uri" : "spotify:artist:5zQqaxZGKmZ8hDeVC9VSPT"
      } ],
      "disc_number" : 1,
      "duration_ms" : 140068,
      "explicit" : false,
      "external_ids" : {
        "isrc" : "USA4N1301491"
      },
      "external_urls" : {
        "spotify" : "https://open.spotify.com/track/2Gqf2qwDznbVoAM1BXC3iS"
      },
      "href" : "https://api.spotify.com/v1/tracks/2Gqf2qwDznbVoAM1BXC3iS",
      "id" : "2Gqf2qwDznbVoAM1BXC3iS",
      "is_local" : false,
      "is_playable" : true,
      "name" : "Hail the Day That Sees Him Rise",
      "popularity" : 3,
      "preview_url" : "https://p.scdn.co/mp3-preview/acecc55632095bcffa1f4a1fe1d80ead5863d0fe?cid=774b29d4f13844c495f206cafdad9c86",
      "track_number" : 19,
      "type" : "track",
      "uri" : "spotify:track:2Gqf2qwDznbVoAM1BXC3iS"
    }, {
      "album" : {
        "album_type" : "album",
        "artists" : [ {
          "external_urls" : {
            "spotify" : "https://open.spotify.com/artist/419789HzGNQenqNsGyz12F"
          },
          "href" : "https://api.spotify.com/v1/artists/419789HzGNQenqNsGyz12F",
          "id" : "419789HzGNQenqNsGyz12F",
          "name" : "The St. Thomas Choir of Men and Boys",
          "type" : "artist",
          "uri" : "spotify:artist:419789HzGNQenqNsGyz12F"
        } ],
        "external_urls" : {
          "spotify" : "https://open.spotify.com/album/1KQl7wXjL3CJ354Os2Kw0D"
        },
        "href" : "https://api.spotify.com/v1/albums/1KQl7wXjL3CJ354Os2Kw0D",
        "id" : "1KQl7wXjL3CJ354Os2Kw0D",
        "images" : [ {
          "height" : 640,
          "url" : "https://i.scdn.co/image/ab67616d0000b2730435b6364b172a004e97301c",
          "width" : 640
        }, {
          "height" : 300,
          "url" : "https://i.scdn.co/image/ab67616d00001e020435b6364b172a004e97301c",
          "width" : 300
        }, {
          "height" : 64,
          "url" : "https://i.scdn.co/image/ab67616d000048510435b6364b172a004e97301c",
          "width" : 64
        } ],
        "name" : "Christ The Fair Glory",
        "release_date" : "2001-04-24",
        "release_date_precision" : "day",
        "total_tracks" : 32,
        "type" : "album",
        "uri" : "spotify:album:1KQl7wXjL3CJ354Os2Kw0D"
      },
      "artists" : [ {
        "external_urls" : {
          "spotify" : "https://open.spotify.com/artist/419789HzGNQenqNsGyz12F"
        },
        "href" : "https://api.spotify.com/v1/artists/419789HzGNQenqNsGyz12F",
        "id" : "419789HzGNQenqNsGyz12F",
        "name" : "The St. Thomas Choir of Men and Boys",
        "type" : "artist",
        "uri" : "spotify:artist:419789HzGNQenqNsGyz12F"
      }, {
        "external_urls" : {
          "spotify" : "https://open.spotify.com/artist/1bN8xBVBCzXsZe7kBB47Td"
        },
        "href" : "https://api.spotify.com/v1/artists/1bN8xBVBCzXsZe7kBB47Td",
        "id" : "1bN8xBVBCzXsZe7kBB47Td",
        "name" : "Gerre Hancock",
        "type" : "artist",
        "uri" : "spotify:artist:1bN8xBVBCzXsZe7kBB47Td"
      } ],
      "disc_number" : 2,
      "duration_ms" : 225493,
      "explicit" : false,
      "external_ids" : {
        "isrc" : "USKO10100247"
      },
      "external_urls" : {
        "spotify" : "https://open.spotify.com/track/72h8Ot31jrOoD9jWd0cWmm"
      },
      "href" : "https://api.spotify.com/v1/tracks/72h8Ot31jrOoD9jWd0cWmm",
      "id" : "72h8Ot31jrOoD9jWd0cWmm",
      "is_local" : false,
      "is_playable" : true,
      "name" : "Hail The Day That Sees Him Rise",
      "popularity" : 3,
      "preview_url" : "https://p.scdn.co/mp3-preview/c2a3923f40beae7ed0f8176d132061b23b3a786d?cid=774b29d4f13844c495f206cafdad9c86",
      "track_number" : 11,
      "type" : "track",
      "uri" : "spotify:track:72h8Ot31jrOoD9jWd0cWmm"
    }, {
      "album" : {
        "album_type" : "compilation",
        "artists" : [ {
          "external_urls" : {
            "spotify" : "https://open.spotify.com/artist/0LyfQWJT6nXafLPZqxe9Of"
          },
          "href" : "https://api.spotify.com/v1/artists/0LyfQWJT6nXafLPZqxe9Of",
          "id" : "0LyfQWJT6nXafLPZqxe9Of",
          "name" : "Various Artists",
          "type" : "artist",
          "uri" : "spotify:artist:0LyfQWJT6nXafLPZqxe9Of"
        } ],
        "external_urls" : {
          "spotify" : "https://open.spotify.com/album/5LPgWkivY6bBa9Q3fDY2VG"
        },
        "href" : "https://api.spotify.com/v1/albums/5LPgWkivY6bBa9Q3fDY2VG",
        "id" : "5LPgWkivY6bBa9Q3fDY2VG",
        "images" : [ {
          "height" : 640,
          "url" : "https://i.scdn.co/image/ab67616d0000b273a7e6c1b974e4e1d51c86cc6c",
          "width" : 640
        }, {
          "height" : 300,
          "url" : "https://i.scdn.co/image/ab67616d00001e02a7e6c1b974e4e1d51c86cc6c",
          "width" : 300
        }, {
          "height" : 64,
          "url" : "https://i.scdn.co/image/ab67616d00004851a7e6c1b974e4e1d51c86cc6c",
          "width" : 64
        } ],
        "name" : "Selections from the Hymnody of Summit Church, Vol. 1",
        "release_date" : "2012-08-23",
        "release_date_precision" : "day",
        "total_tracks" : 12,
        "type" : "album",
        "uri" : "spotify:album:5LPgWkivY6bBa9Q3fDY2VG"
      },
      "artists" : [ {
        "external_urls" : {
          "spotify" : "https://open.spotify.com/artist/12hF6EJdfpI4mZAkaXgZzj"
        },
        "href" : "https://api.spotify.com/v1/artists/12hF6EJdfpI4mZAkaXgZzj",
        "id" : "12hF6EJdfpI4mZAkaXgZzj",
        "name" : "Capitals",
        "type" : "artist",
        "uri" : "spotify:artist:12hF6EJdfpI4mZAkaXgZzj"
      } ],
      "disc_number" : 1,
      "duration_ms" : 283801,
      "explicit" : false,
      "external_ids" : {
        "isrc" : "TCACF1511888"
      },
      "external_urls" : {
        "spotify" : "https://open.spotify.com/track/79zz512JJvsdl08ahP51kM"
      },
      "href" : "https://api.spotify.com/v1/tracks/79zz512JJvsdl08ahP51kM",
      "id" : "79zz512JJvsdl08ahP51kM",
      "is_local" : false,
      "is_playable" : true,
      "name" : "Hail the Day That Sees Him Rise",
      "popularity" : 2,
      "preview_url" : "https://p.scdn.co/mp3-preview/46f886b0fd22bbeb6ed3c4159768726f4efb3108?cid=774b29d4f13844c495f206cafdad9c86",
      "track_number" : 10,
      "type" : "track",
      "uri" : "spotify:track:79zz512JJvsdl08ahP51kM"
    }, {
      "album" : {
        "album_type" : "compilation",
        "artists" : [ {
          "external_urls" : {
            "spotify" : "https://open.spotify.com/artist/0LyfQWJT6nXafLPZqxe9Of"
          },
          "href" : "https://api.spotify.com/v1/artists/0LyfQWJT6nXafLPZqxe9Of",
          "id" : "0LyfQWJT6nXafLPZqxe9Of",
          "name" : "Various Artists",
          "type" : "artist",
          "uri" : "spotify:artist:0LyfQWJT6nXafLPZqxe9Of"
        } ],
        "external_urls" : {
          "spotify" : "https://open.spotify.com/album/29CtdAGgi6psG4GLSy71NK"
        },
        "href" : "https://api.spotify.com/v1/albums/29CtdAGgi6psG4GLSy71NK",
        "id" : "29CtdAGgi6psG4GLSy71NK",
        "images" : [ {
          "height" : 640,
          "url" : "https://i.scdn.co/image/ab67616d0000b27351e2a082ff882ff1c4e2027d",
          "width" : 640
        }, {
          "height" : 300,
          "url" : "https://i.scdn.co/image/ab67616d00001e0251e2a082ff882ff1c4e2027d",
          "width" : 300
        }, {
          "height" : 64,
          "url" : "https://i.scdn.co/image/ab67616d0000485151e2a082ff882ff1c4e2027d",
          "width" : 64
        } ],
        "name" : "Spirit & Song: Disc H",
        "release_date" : "2013-11-15",
        "release_date_precision" : "day",
        "total_tracks" : 18,
        "type" : "album",
        "uri" : "spotify:album:29CtdAGgi6psG4GLSy71NK"
      },
      "artists" : [ {
        "external_urls" : {
          "spotify" : "https://open.spotify.com/artist/4EF0RAnVVvBgSA5c09MhmR"
        },
        "href" : "https://api.spotify.com/v1/artists/4EF0RAnVVvBgSA5c09MhmR",
        "id" : "4EF0RAnVVvBgSA5c09MhmR",
        "name" : "Trevor Thomson",
        "type" : "artist",
        "uri" : "spotify:artist:4EF0RAnVVvBgSA5c09MhmR"
      } ],
      "disc_number" : 1,
      "duration_ms" : 249053,
      "explicit" : false,
      "external_ids" : {
        "isrc" : "USA4N1303862"
      },
      "external_urls" : {
        "spotify" : "https://open.spotify.com/track/1Qj6waPULpJrcTCClw7mg5"
      },
      "href" : "https://api.spotify.com/v1/tracks/1Qj6waPULpJrcTCClw7mg5",
      "id" : "1Qj6waPULpJrcTCClw7mg5",
      "is_local" : false,
      "is_playable" : true,
      "name" : "Hail the Day That Sees Him Rise",
      "popularity" : 1,
      "preview_url" : "https://p.scdn.co/mp3-preview/b6db5bb82c5bbcfbaded553c340749e89eac3072?cid=774b29d4f13844c495f206cafdad9c86",
      "track_number" : 13,
      "type" : "track",
      "uri" : "spotify:track:1Qj6waPULpJrcTCClw7mg5"
    }, {
      "album" : {
        "album_type" : "album",
        "artists" : [ {
          "external_urls" : {
            "spotify" : "https://open.spotify.com/artist/0LyfQWJT6nXafLPZqxe9Of"
          },
          "href" : "https://api.spotify.com/v1/artists/0LyfQWJT6nXafLPZqxe9Of",
          "id" : "0LyfQWJT6nXafLPZqxe9Of",
          "name" : "Various Artists",
          "type" : "artist",
          "uri" : "spotify:artist:0LyfQWJT6nXafLPZqxe9Of"
        } ],
        "external_urls" : {
          "spotify" : "https://open.spotify.com/album/5dfVuLEHujJcrHbaS7OYGK"
        },
        "href" : "https://api.spotify.com/v1/albums/5dfVuLEHujJcrHbaS7OYGK",
        "id" : "5dfVuLEHujJcrHbaS7OYGK",
        "images" : [ {
          "height" : 640,
          "url" : "https://i.scdn.co/image/ab67616d0000b2730fe6db32c29530f27060a575",
          "width" : 640
        }, {
          "height" : 300,
          "url" : "https://i.scdn.co/image/ab67616d00001e020fe6db32c29530f27060a575",
          "width" : 300
        }, {
          "height" : 64,
          "url" : "https://i.scdn.co/image/ab67616d000048510fe6db32c29530f27060a575",
          "width" : 64
        } ],
        "name" : "Just Organ - Lent and Easter Hymns",
        "release_date" : "2003-04-08",
        "release_date_precision" : "day",
        "total_tracks" : 20,
        "type" : "album",
        "uri" : "spotify:album:5dfVuLEHujJcrHbaS7OYGK"
      },
      "artists" : [ {
        "external_urls" : {
          "spotify" : "https://open.spotify.com/artist/2th2VgEravL9cDXz4ce0VH"
        },
        "href" : "https://api.spotify.com/v1/artists/2th2VgEravL9cDXz4ce0VH",
        "id" : "2th2VgEravL9cDXz4ce0VH",
        "name" : "Charles Wesley",
        "type" : "artist",
        "uri" : "spotify:artist:2th2VgEravL9cDXz4ce0VH"
      } ],
      "disc_number" : 1,
      "duration_ms" : 349440,
      "explicit" : false,
      "external_ids" : {
        "isrc" : "TCAAU1177701"
      },
      "external_urls" : {
        "spotify" : "https://open.spotify.com/track/1vTV8DM9rnZybNQET4NEql"
      },
      "href" : "https://api.spotify.com/v1/tracks/1vTV8DM9rnZybNQET4NEql",
      "id" : "1vTV8DM9rnZybNQET4NEql",
      "is_local" : false,
      "is_playable" : true,
      "name" : "Hail the Day that Sees Him Rise",
      "popularity" : 1,
      "preview_url" : "https://p.scdn.co/mp3-preview/7b18c3e834e2f6cedd9a6a8d14242c764aa996de?cid=774b29d4f13844c495f206cafdad9c86",
      "track_number" : 8,
      "type" : "track",
      "uri" : "spotify:track:1vTV8DM9rnZybNQET4NEql"
    }, {
      "album" : {
        "album_type" : "album",
        "artists" : [ {
          "external_urls" : {
            "spotify" : "https://open.spotify.com/artist/6fmsTcZv8uq9g9MAOkUym4"
          },
          "href" : "https://api.spotify.com/v1/artists/6fmsTcZv8uq9g9MAOkUym4",
          "id" : "6fmsTcZv8uq9g9MAOkUym4",
          "name" : "Maddy Prior & The Carnival Band",
          "type" : "artist",
          "uri" : "spotify:artist:6fmsTcZv8uq9g9MAOkUym4"
        } ],
        "external_urls" : {
          "spotify" : "https://open.spotify.com/album/2OzPA6rifGo7qmXzQeK0b5"
        },
        "href" : "https://api.spotify.com/v1/albums/2OzPA6rifGo7qmXzQeK0b5",
        "id" : "2OzPA6rifGo7qmXzQeK0b5",
        "images" : [ {
          "height" : 640,
          "url" : "https://i.scdn.co/image/ab67616d0000b273fa851438834d8ae5758f6af9",
          "width" : 640
        }, {
          "height" : 300,
          "url" : "https://i.scdn.co/image/ab67616d00001e02fa851438834d8ae5758f6af9",
          "width" : 300
        }, {
          "height" : 64,
          "url" : "https://i.scdn.co/image/ab67616d00004851fa851438834d8ae5758f6af9",
          "width" : 64
        } ],
        "name" : "Paradise Found",
        "release_date" : "2007",
        "release_date_precision" : "year",
        "total_tracks" : 15,
        "type" : "album",
        "uri" : "spotify:album:2OzPA6rifGo7qmXzQeK0b5"
      },
      "artists" : [ {
        "external_urls" : {
          "spotify" : "https://open.spotify.com/artist/0YWgb96XJUX324cAWJOVq1"
        },
        "href" : "https://api.spotify.com/v1/artists/0YWgb96XJUX324cAWJOVq1",
        "id" : "0YWgb96XJUX324cAWJOVq1",
        "name" : "Maddy Prior & The Carnival...",
        "type" : "artist",
        "uri" : "spotify:artist:0YWgb96XJUX324cAWJOVq1"
      } ],
      "disc_number" : 1,
      "duration_ms" : 174997,
      "explicit" : false,
      "external_ids" : {
        "isrc" : "GBAVZ0749402"
      },
      "external_urls" : {
        "spotify" : "https://open.spotify.com/track/6yX0WX7gFykzshk1A4Szuz"
      },
      "href" : "https://api.spotify.com/v1/tracks/6yX0WX7gFykzshk1A4Szuz",
      "id" : "6yX0WX7gFykzshk1A4Szuz",
      "is_local" : false,
      "is_playable" : true,
      "name" : "Hail the Day That Sees Him Rise",
      "popularity" : 2,
      "preview_url" : "https://p.scdn.co/mp3-preview/7392ee7603b734cabea8c3e8c1aa7b0dfa6ee051?cid=774b29d4f13844c495f206cafdad9c86",
      "track_number" : 2,
      "type" : "track",
      "uri" : "spotify:track:6yX0WX7gFykzshk1A4Szuz"
    } ],
    "limit" : 10,
    "next" : "https://api.spotify.com/v1/search?query=Hail+the+Day+That+Sees+Him+Rise&type=track&market=US&offset=15&limit=10",
    "offset" : 5,
    "previous" : "https://api.spotify.com/v1/search?query=Hail+the+Day+That+Sees+Him+Rise&type=track&market=US&offset=0&limit=10",
    "total" : 41
  }
}