{
  "tracks" : {
    "href" : "https://api.spotify.com/v1/search?query=Amazing+Grace&type=track&market=US&offset=5&limit=10",
    "items" : [ {
      "album" : {
        "album_type" : "single",
        "artists" : [ {
          "external_urls" : {
            "spotify" : "https://open.spotify.com/artist/28hL1CMeKSmGDu43cUqsWW"
          },
          "href" : "https://api.spotify.com/v1/artists/28hL1CMeKSmGDu43cUqsWW",
          "id" : "28hL1CMeKSmGDu43cUqsWW",
          "name" : "Jesse Nielsen",
          "type" : "artist",
          "uri" : "spotify:artist:28hL1CMeKSmGDu43cUqsWW"
        } ],
        "external_urls" : {
          "spotify" : "https://open.spotify.com/album/4sdoVflpFPHQvnO79wZGuX"
        },
        "href" : "https://api.spotify.com/v1/albums/4sdoVflpFPHQvnO79wZGuX",
        "id" : "4sdoVflpFPHQvnO79wZGuX",
        "images" : [ {
          "height" : 640,
          "url" : "https://i.scdn.co/image/ab67616d0000b2732fa0c093f9a921b195d12406",
          "width" : 640
        }, {
          "height" : 300,
          "url" : "https://i.scdn.co/image/ab67616d00001e022fa0c093f9a921b195d12406",
          "width" : 300
        }, {
          "height" : 64,
          "url" : "https://i.scdn.co/image/ab67616d000048512fa0c093f9a921b195d12406",
          "width" : 64
        } ],
        "name" : "Lullabies on Harp Vol 1",
        "release_date" : "2019-11-04",
        "release_date_precision" : "day",
        "total_tracks" : 3,
        "type" : "album",
        "uri" : "spotify:album:4sdoVflpFPHQvnO79wZGuX"
      },
      "artists" : [ {
        "external_urls" : {
          "spotify" : "https://open.spotify.com/artist/28hL1CMeKSmGDu43cUqsWW"
        },
        "href" : "https://api.spotify.com/v1/artists/28hL1CMeKSmGDu43cUqsWW",
        "id" : "28hL1CMeKSmGDu43cUqsWW",
        "name" : "Jesse Nielsen",
        "type" : "artist",
        "uri" : "spotify:artist:28hL1CMeKSmGDu43cUqsWW"
      } ],
      "disc_number" : 1,
      "duration_ms" : 118448,
      "explicit" : false,
      "external_ids" : {
        "isrc" : "SE4RG1938903"
      },
      "external_urls" : {
        "spotify" : "https://open.spotify.com/track/1x82J9SGXuoZN6fF5NFxMR"
      },
      "href" : "https://api.spotify.com/v1/tracks/1x82J9SGXuoZN6fF5NFxMR",
      "id" : "1x82J9SGXuoZN6fF5NFxMR",
      "is_local" : false,
      "is_playable" : true,
      "name" : "Amazing Grace",
      "popularity" : 48,
      "preview_url" : "https://p.scdn.co/mp3-preview/a0dadfbf6d1a7670eb82c1a178bcce9280a3cded?cid=774b29d4f13844c495f206cafdad9c86",
      "track_number" : 3,
      "type" : "track",
      "uri" : "spotify:track:1x82J9SGXuoZN6fF5NFxMR"
    }, {
      "album" : {
        "album_type" : "single",
        "artists" : [ {
          "external_urls" : {
            "spotify" : "https://open.spotify.com/artist/0MeLMJJcouYXCymQSHPn8g"
          },
          "href" : "https://api.spotify.com/v1/artists/0MeLMJJcouYXCymQSHPn8g",
          "id" : "0MeLMJJcouYXCymQSHPn8g",
          "name" : "Sleeping At Last",
          "type" : "artist",
          "uri" : "spotify:artist:0MeLMJJcouYXCymQSHPn8g"
        } ],
        "external_urls" : {
          "spotify" : "https://open.spotify.com/album/6HTMMs1xSdKdqOuIzYqsvy"
        },
        "href" : "https://api.spotify.com/v1/albums/6HTMMs1xSdKdqOuIzYqsvy",
        "id" : "6HTMMs1xSdKdqOuIzYqsvy",
        "images" : [ {
          "height" : 640,
          "url" : "https://i.scdn.co/image/ab67616d0000b273f787f3e9958998165e2be42c",
          "width" : 640
        }, {
          "height" : 300,
          "url" : "https://i.scdn.co/image/ab67616d00001e02f787f3e9958998165e2be42c",
          "width" : 300
        }, {
          "height" : 64,
          "url" : "https://i.scdn.co/image/ab67616d00004851f787f3e9958998165e2be42c",
          "width" : 64
        } ],
        "name" : "Amazing Grace",
        "release_date" : "2020-02-25",
        "release_date_precision" : "day",
        "total_tracks" : 1,
        "type" : "album",
        "uri" : "spotify:album:6HTMMs1xSdKdqOuIzYqsvy"
      },
      "artists" : [ {
        "external_urls" : {
          "spotify" : "https://open.spotify.com/artist/0MeLMJJcouYXCymQSHPn8g"
        },
        "href" : "https://api.spotify.com/v1/artists/0MeLMJJcouYXCymQSHPn8g",
        "id" : "0MeLMJJcouYXCymQSHPn8g",
        "name" : "Sleeping At Last",
        "type" : "artist",
        "uri" : "spotify:artist:0MeLMJJcouYXCymQSHPn8g"
      } ],
      "disc_number" : 1,
      "duration_ms" : 235424,
      "explicit" : false,
      "external_ids" : {
        "isrc" : "USGES2002001"
      },
      "external_urls" : {
        "spotify" : "https://open.spotify.com/track/66noEhjjNfgq4KX99OzHAP"
      },
      "href" : "https://api.spotify.com/v1/tracks/66noEhjjNfgq4KX99OzHAP",
      "id" : "66noEhjjNfgq4KX99OzHAP",
      "is_local" : false,
      "is_playable" : true,
      "name" : "Amazing Grace",
      "popularity" : 47,
      "preview_url" : "https://p.scdn.co/mp3-preview/9064f2081984f4780705ca9e53a68b82ebfebd06?cid=774b29d4f13844c495f206cafdad9c86",
      "track_number" : 1,
      "type" : "track",
      "uri" : "spotify:track:66noEhjjNfgq4KX99OzHAP"
    }, {
      "album" : {
        "album_type" : "single",
        "artists" : [ {
          "external_urls" : {
            "spotify" : "https://open.spotify.com/artist/3EA9hVIzKfFiQI0Kikz2wo"
          },
          "href" : "https://api.spotify.com/v1/artists/3EA9hVIzKfFiQI0Kikz2wo",
          "id" : "3EA9hVIzKfFiQI0Kikz2wo",
          "name" : "Andrea Bocelli",
          "type" : "artist",
          "uri" : "spotify:artist:3EA9hVIzKfFiQI0Kikz2wo"
        } ],
        "external_urls" : {
          "spotify" : "https://open.spotify.com/album/58lwuQF3HPoqwMgV5bXIjj"
        },
        "href" : "https://api.spotify.com/v1/albums/58lwuQF3HPoqwMgV5bXIjj",
        "id" : "58lwuQF3HPoqwMgV5bXIjj",
        "images" : [ {
          "height" : 640,
          "url" : "https://i.scdn.co/image/ab67616d0000b2738d15624a5b1fbc413fc01508",
          "width" : 640
        }, {
          "height" : 300,
          "url" : "https://i.scdn.co/image/ab67616d00001e028d15624a5b1fbc413fc01508",
          "width" : 300
        }, {
          "height" : 64,
          "url" : "https://i.scdn.co/image/ab67616d000048518d15624a5b1fbc413fc01508",
          "width" : 64
        } ],
        "name" : "Music For Hope: From the Duomo di Milano",
        "release_date" : "2020-04-12",
        "release_date_precision" : "day",
        "total_tracks" : 5,
        "type" : "album",
        "uri" : "spotify:album:58lwuQF3HPoqwMgV5bXIjj"
      },
      "artists" : [ {
        "external_urls" : {
          "spotify" : "https://open.spotify.com/artist/0s64WzYrpQpkuTa0V3hOPe"
        },
        "href" : "https://api.spotify.com/v1/artists/0s64WzYrpQpkuTa0V3hOPe",
        "id" : "0s64WzYrpQpkuTa0V3hOPe",
        "name" : "John Newton",
        "type" : "artist",
        "uri" : "spotify:artist:0s64WzYrpQpkuTa0V3hOPe"
      }, {
        "external_urls" : {
          "spotify" : "https://open.spotify.com/artist/3EA9hVIzKfFiQI0Kikz2wo"
        },
        "href" : "https://api.spotify.com/v1/artists/3EA9hVIzKfFiQI0Kikz2wo",
        "id" : "3EA9hVIzKfFiQI0Kikz2wo",
        "name" : "Andrea Bocelli",
        "type" : "artist",
        "uri" : "spotify:artist:3EA9hVIzKfFiQI0Kikz2wo"
      }, {
        "external_urls" : {
          "spotify" : "https://open.spotify.com/artist/4QwB1zntRnSrgqcqqnDwAX"
        },
        "href" : "https://api.spotify.com/v1/artists/4QwB1zntRnSrgqcqqnDwAX",
        "id" : "4QwB1zntRnSrgqcqqnDwAX",
        "name" : "Czech National Symphony Orchestra",
        "type" : "artist",
        "uri" : "spotify:artist:4QwB1zntRnSrgqcqqnDwAX"
      } ],
      "disc_number" : 1,
      "duration_ms" : 262457,
      "explicit" : false,
      "external_ids" : {
        "isrc" : "ITZ042000067"
      },
      "external_urls" : {
        "spotify" : "https://open.spotify.com/track/2p6qtCgJz42Mae5p4zUwDl"
      },
      "href" : "https://api.spotify.com/v1/tracks/2p6qtCgJz42Mae5p4zUwDl",
      "id" : "2p6qtCgJz42Mae5p4zUwDl",
      "is_local" : false,
      "is_playable" : true,
      "name" : "Amazing Grace (Arr. William Ross)",
      "popularity" : 56,
      "preview_url" : null,
      "track_number" : 5,
      "type" : "track",
      "uri" : "spotify:track:2p6qtCgJz42Mae5p4zUwDl"
    }, {
      "album" : {
        "album_type" : "compilation",
        "artists" : [ {
          "external_urls" : {
            "spotify" : "https://open.spotify.com/artist/0LyfQWJT6nXafLPZqxe9Of"
          },
          "href" : "https://api.spotify.com/v1/artists/0LyfQWJT6nXafLPZqxe9Of",
          "id" : "0LyfQWJT6nXafLPZqxe9Of",
          "name" : "Various Artists",
          "type" : "artist",
          "uri" : "spotify:artist:0LyfQWJT6nXafLPZqxe9Of"
        } ],
        "external_urls" : {
          "spotify" : "https://open.spotify.com/album/1FsAHNrcHF3QVdRHloCnhV"
        },
        "href" : "https://api.spotify.com/v1/albums/1FsAHNrcHF3QVdRHloCnhV",
        "id" : "1FsAHNrcHF3QVdRHloCnhV",
        "images" : [ {
          "height" : 640,
          "url" : "https://i.scdn.co/image/ab67616d0000b273c0a56d753a4629ae14546dd1",
          "width" : 640
        }, {
          "height" : 300,
          "url" : "https://i.scdn.co/image/ab67616d00001e02c0a56d753a4629ae14546dd1",
          "width" : 300
        }, {
          "height" : 64,
          "url" : "https://i.scdn.co/image/ab67616d00004851c0a56d753a4629ae14546dd1",
          "width" : 64
        } ],
        "name" : "My Utmost For His Highest",
        "release_date" : "2017-09-29",
        "release_date_precision" : "day",
        "total_tracks" : 13,
        "type" : "album",
        "uri" : "spotify:album:1FsAHNrcHF3QVdRHloCnhV"
      },
      "artists" : [ {
        "external_urls" : {
          "spotify" : "https://open.spotify.com/artist/3sDbKMebVH2VYcRSl7u1VC"
        },
        "href" : "https://api.spotify.com/v1/artists/3sDbKMebVH2VYcRSl7u1VC",
        "id" : "3sDbKMebVH2VYcRSl7u1VC",
        "name" : "for KING & COUNTRY",
        "type" : "artist",
        "uri" : "spotify:artist:3sDbKMebVH2VYcRSl7u1VC"
      }, {
        "external_urls" : {
          "spotify" : "https://open.spotify.com/artist/1SaELUYn7deVoQ9kGDGUD9"
        },
        "href" : "https://api.spotify.com/v1/artists/1SaELUYn7deVoQ9kGDGUD9",
        "id" : "1SaELUYn7deVoQ9kGDGUD9",
        "name" : "Rebecca St. James",
        "type" : "artist",
        "uri" : "spotify:artist:1SaELUYn7deVoQ9kGDGUD9"
      } ],
      "disc_number" : 1,
      "duration_ms" : 201401,
      "explicit" : false,
      "external_ids" : {
        "isrc" : "USM1C1700026"
      },
      "external_urls" : {
        "spotify" : "https://open.spotify.com/track/0tXaXcuDbaX0Jhzns45Gx5"
      },
      "href" : "https://api.spotify.com/v1/tracks/0tXaXcuDbaX0Jhzns45Gx5",
      "id" : "0tXaXcuDbaX0Jhzns45Gx5",
      "is_local" : false,
      "is_playable" : true,
      "name" : "Amazing Grace",
      "popularity" : 44,
      "preview_url" : "https://p.scdn.co/mp3-preview/958fec4eca451348bb61b526e29e4841074a6335?cid=774b29d4f13844c495f206cafdad9c86",
      "track_number" : 1,
      "type" : "track",
      "uri" : "spotify:track:0tXaXcuDbaX0Jhzns45Gx5"
    }, {
      "album" : {
        "album_type" : "album",
        "artists" : [ {
          "external_urls" : {
            "spotify" : "https://open.spotify.com/artist/6NWtt9pNOL2Gx7kBykdE5x"
          },
          "href" : "https://api.spotify.com/v1/artists/6NWtt9pNOL2Gx7kBykdE5x",
          "id" : "6NWtt9pNOL2Gx7kBykdE5x",
          "name" : "Celtic Woman",
          "type" : "artist",
          "uri" : "spotify:artist:6NWtt9pNOL2Gx7kBykdE5x"
        } ],
        "external_urls" : {
          "spotify" : "https://open.spotify.com/album/7fa6mdn2l6gNvqmvZO6TIn"
        },
        "href" : "https://api.spotify.com/v1/albums/7fa6mdn2l6gNvqmvZO6TIn",
        "id" : "7fa6mdn2l6gNvqmvZO6TIn",
        "images" : [ {
          "height" : 640,
          "url" : "https://i.scdn.co/image/ab67616d0000b27321655b8afd669d689cc8de26",
          "width" : 640
        }, {
          "height" : 300,
          "url" : "https://i.scdn.co/image/ab67616d00001e0221655b8afd669d689cc8de26",
          "width" : 300
        }, {
          "height" : 64,
          "url" : "https://i.scdn.co/image/ab67616d0000485121655b8afd669d689cc8de26",
          "width" : 64
        } ],
        "name" : "Emerald: Musical Gems",
        "release_date" : "2014-01-01",
        "release_date_precision" : "day",
        "total_tracks" : 12,
        "type" : "album",
        "uri" : "spotify:album:7fa6mdn2l6gNvqmvZO6TIn"
      },
      "artists" : [ {
        "external_urls" : {
          "spotify" : "https://open.spotify.com/artist/6NWtt9pNOL2Gx7kBykdE5x"
        },
        "href" : "https://api.spotify.com/v1/artists/6NWtt9pNOL2Gx7kBykdE5x",
        "id" : "6NWtt9pNOL2Gx7kBykdE5x",
        "name" : "Celtic Woman",
        "type" : "artist",
        "uri" : "spotify:artist:6NWtt9pNOL2Gx7kBykdE5x"
      } ],
      "disc_number" : 1,
      "duration_ms" : 350413,
      "explicit" : false,
      "external_ids" : {
        "isrc" : "USUG11300901"
      },
      "external_urls" : {
        "spotify" : "https://open.spotify.com/track/5U5rysvkfySNqq6JzQ9apC"
      },
      "href" : "https://api.spotify.com/v1/tracks/5U5rysvkfySNqq6JzQ9apC",
      "id" : "5U5rysvkfySNqq6JzQ9apC",
      "is_local" : false,
      "is_playable" : true,
      "name" : "Amazing Grace",
      "popularity" : 48,
      "preview_url" : null,
      "track_number" : 4,
      "type" : "track",
      "uri" : "spotify:track:5U5rysvkfySNqq6JzQ9apC"
    }, {
      "album" : {
        "album_type" : "album",
        "artists" : [ {
          "external_urls" : {
            "spotify" : "https://open.spotify.com/artist/7vCtweS8UVAXTyau2j0rDT"
          },
          "href" : "https://api.spotify.com/v1/artists/7vCtweS8UVAXTyau2j0rDT",
          "id" : "7vCtweS8UVAXTyau2j0rDT",
          "name" : "Josh Turner",
          "type" : "artist",
          "uri" : "spotify:artist:7vCtweS8UVAXTyau2j0rDT"
        } ],
        "external_urls" : {
          "spotify" : "https://open.spotify.com/album/0qmQNcXPAl8V4wPFWC3QDx"
        },
        "href" : "https://api.spotify.com/v1/albums/0qmQNcXPAl8V4wPFWC3QDx",
        "id" : "0qmQNcXPAl8V4wPFWC3QDx",
        "images" : [ {
          "height" : 640,
          "url" : "https://i.scdn.co/image/ab67616d0000b273f9bd1c5734d0d3ddadb896f0",
          "width" : 640
        }, {
          "height" : 300,
          "url" : "https://i.scdn.co/image/ab67616d00001e02f9bd1c5734d0d3ddadb896f0",
          "width" : 300
        }, {
          "height" : 64,
          "url" : "https://i.scdn.co/image/ab67616d00004851f9bd1c5734d0d3ddadb896f0",
          "width" : 64
        } ],
        "name" : "I Serve A Savior",
        "release_date" : "2018-10-26",
        "release_date_precision" : "day",
        "total_tracks" : 12,
        "type" : "album",
        "uri" : "spotify:album:0qmQNcXPAl8V4wPFWC3QDx"
      },
      "artists" : [ {
        "external_urls" : {
          "spotify" : "https://open.spotify.com/artist/7vCtweS8UVAXTyau2j0rDT"
        },
        "href" : "https://api.spotify.com/v1/artists/7vCtweS8UVAXTyau2j0rDT",
        "id" : "7vCtweS8UVAXTyau2j0rDT",
        "name" : "Josh Turner",
        "type" : "artist",
        "uri" : "spotify:artist:7vCtweS8UVAXTyau2j0rDT"
      } ],
      "disc_number" : 1,
      "duration_ms" : 319493,
      "explicit" : false,
      "external_ids" : {
        "isrc" : "USUM71813872"
      },
      "external_urls" : {
        "spotify" : "https://open.spotify.com/track/3dfvMS6YVRqsms7JnMD6Ia"
      },
      "href" : "https://api.spotify.com/v1/tracks/3dfvMS6YVRqsms7JnMD6Ia",
      "id" : "3dfvMS6YVRqsms7JnMD6Ia",
      "is_local" : false,
      "is_playable" : true,
      "name" : "Amazing Grace",
      "popularity" : 41,
      "preview_url" : null,
      "track_number" : 9,
      "type" : "track",
      "uri" : "spotify:track:3dfvMS6YVRqsms7JnMD6Ia"
    }, {
      "album" : {
        "album_type" : "album",
        "artists" : [ {
          "external_urls" : {
            "spotify" : "https://open.spotify.com/artist/3paPKXFFD404Fuonc8DvnN"
          },
          "href" : "https://api.spotify.com/v1/artists/3paPKXFFD404Fuonc8DvnN",
          "id" : "3paPKXFFD404Fuonc8DvnN",
          "name" : "Bedtime Baby",
          "type" : "artist",
          "uri" : "spotify:artist:3paPKXFFD404Fuonc8DvnN"
        } ],
        "external_urls" : {
          "spotify" : "https://open.spotify.com/album/2JEjlZYmgMBOgTI5dzsxhz"
        },
        "href" : "https://api.spotify.com/v1/albums/2JEjlZYmgMBOgTI5dzsxhz",
        "id" : "2JEjlZYmgMBOgTI5dzsxhz",
        "images" : [ {
          "height" : 640,
          "url" : "https://i.scdn.co/image/ab67616d0000b273483cf81f0bb0591b49057738",
          "width" : 640
        }, {
          "height" : 300,
          "url" : "https://i.scdn.co/image/ab67616d00001e02483cf81f0bb0591b49057738",
          "width" : 300
        }, {
          "height" : 64,
          "url" : "https://i.scdn.co/image/ab67616d00004851483cf81f0bb0591b49057738",
          "width" : 64
        } ],
        "name" : "Baby Music: Help Your Baby Sleep Through The Night",
        "release_date" : "2009-12-01",
        "release_date_precision" : "day",
        "total_tracks" : 38,
        "type" : "album",
        "uri" : "spotify:album:2JEjlZYmgMBOgTI5dzsxhz"
      },
      "artists" : [ {
        "external_urls" : {
          "spotify" : "https://open.spotify.com/artist/3paPKXFFD404Fuonc8DvnN"
        },
        "href" : "https://api.spotify.com/v1/artists/3paPKXFFD404Fuonc8DvnN",
        "id" : "3paPKXFFD404Fuonc8DvnN",
        "name" : "Bedtime Baby",
        "type" : "artist",
        "uri" : "spotify:artist:3paPKXFFD404Fuonc8DvnN"
      } ],
      "disc_number" : 1,
      "duration_ms" : 102766,
      "explicit" : false,
      "external_ids" : {
        "isrc" : "US-TCC-10-43030"
      },
      "external_urls" : {
        "spotify" : "https://open.spotify.com/track/6DrJf53wzgZsVFWfod8Z3Z"
      },
      "href" : "https://api.spotify.com/v1/tracks/6DrJf53wzgZsVFWfod8Z3Z",
      "id" : "6DrJf53wzgZsVFWfod8Z3Z",
      "is_local" : false,
      "is_playable" : true,
      "name" : "Amazing Grace",
      "popularity" : 47,
      "preview_url" : "https://p.scdn.co/mp3-preview/a8cfc75d13e9964426c19283712e2afcbfd8b7d0?cid=774b29d4f13844c495f206cafdad9c86",
      "track_number" : 9,
      "type" : "track",
      "uri" : "spotify:track:6DrJf53wzgZsVFWfod8Z3Z"
    }, {
      "album" : {
        "album_type" : "album",
        "artists" : [ {
          "external_urls" : {
            "spotify" : "https://open.spotify.com/artist/7w9jdhcgHNdiPeNPUoFSlx"
          },
          "href" : "https://api.spotify.com/v1/artists/7w9jdhcgHNdiPeNPUoFSlx",
          "id" : "7w9jdhcgHNdiPeNPUoFSlx",
          "name" : "Dropkick Murphys",
          "type" : "artist",
          "uri" : "spotify:artist:7w9jdhcgHNdiPeNPUoFSlx"
        } ],
        "external_urls" : {
          "spotify" : "https://open.spotify.com/album/7wxC9iVmZ4ecJCh9rChMyy"
        },
        "href" : "https://api.spotify.com/v1/albums/7wxC9iVmZ4ecJCh9rChMyy",
        "id" : "7wxC9iVmZ4ecJCh9rChMyy",
        "images" : [ {
          "height" : 640,
          "url" : "https://i.scdn.co/image/ab67616d0000b273c48d268aa2aeb877ecdc343e",
          "width" : 640
        }, {
          "height" : 300,
          "url" : "https://i.scdn.co/image/ab67616d00001e02c48d268aa2aeb877ecdc343e",
          "width" : 300
        }, {
          "height" : 64,
          "url" : "https://i.scdn.co/image/ab67616d00004851c48d268aa2aeb877ecdc343e",
          "width" : 64
        } ],
        "name" : "The Gang's All Here",
        "release_date" : "1999-03-09",
        "release_date_precision" : "day",
        "total_tracks" : 16,
        "type" : "album",
        "uri" : "spotify:album:7wxC9iVmZ4ecJCh9rChMyy"
      },
      "artists" : [ {
        "external_urls" : {
          "spotify" : "https://open.spotify.com/artist/7w9jdhcgHNdiPeNPUoFSlx"
        },
        "href" : "https://api.spotify.com/v1/artists/7w9jdhcgHNdiPeNPUoFSlx",
        "id" : "7w9jdhcgHNdiPeNPUoFSlx",
        "name" : "Dropkick Murphys",
        "type" : "artist",
        "uri" : "spotify:artist:7w9jdhcgHNdiPeNPUoFSlx"
      } ],
      "disc_number" : 1,
      "duration_ms" : 158600,
      "explicit" : false,
      "external_ids" : {
        "isrc" : "USHEL0306215"
      },
      "external_urls" : {
        "spotify" : "https://open.spotify.com/track/7IABmPLWB1FEQckIPgl0oA"
      },
      "href" : "https://api.spotify.com/v1/tracks/7IABmPLWB1FEQckIPgl0oA",
      "id" : "7IABmPLWB1FEQckIPgl0oA",
      "is_local" : false,
      "is_playable" : true,
      "name" : "Amazing Grace",
      "popularity" : 46,
      "preview_url" : "https://p.scdn.co/mp3-preview/9e30e4fc24d42f28fb40f938a249e91d710bcd1b?cid=774b29d4f13844c495f206cafdad9c86",
      "track_number" : 15,
      "type" : "track",
      "uri" : "spotify:track:7IABmPLWB1FEQckIPgl0oA"
    }, {
      "album" : {
        "album_type" : "album",
        "artists" : [ {
          "external_urls" : {
            "spotify" : "https://open.spotify.com/artist/7nwUJBm0HE4ZxD3f5cy5ok"
          },
          "href" : "https://api.spotify.com/v1/artists/7nwUJBm0HE4ZxD3f5cy5ok",
          "id" : "7nwUJBm0HE4ZxD3f5cy5ok",
          "name" : "Aretha Franklin",
          "type" : "artist",
          "uri" : "spotify:artist:7nwUJBm0HE4ZxD3f5cy5ok"
        } ],
        "external_urls" : {
          "spotify" : "https://open.spotify.com/album/5pIUimaQ6XePPXbMUi3te0"
        },
        "href" : "https://api.spotify.com/v1/albums/5pIUimaQ6XePPXbMUi3te0",
        "id" : "5pIUimaQ6XePPXbMUi3te0",
        "images" : [ {
          "height" : 640,
          "url" : "https://i.scdn.co/image/ab67616d0000b2730c816c6765186e128dfdd515",
          "width" : 640
        }, {
          "height" : 300,
          "url" : "https://i.scdn.co/image/ab67616d00001e020c816c6765186e128dfdd515",
          "width" : 300
        }, {
          "height" : 64,
          "url" : "https://i.scdn.co/image/ab67616d000048510c816c6765186e128dfdd515",
          "width" : 64
        } ],
        "name" : "Amazing Grace",
        "release_date" : "1972",
        "release_date_precision" : "year",
        "total_tracks" : 14,
        "type" : "album",
        "uri" : "spotify:album:5pIUimaQ6XePPXbMUi3te0"
      },
      "artists" : [ {
        "external_urls" : {
          "spotify" : "https://open.spotify.com/artist/7nwUJBm0HE4ZxD3f5cy5ok"
        },
        "href" : "https://api.spotify.com/v1/artists/7nwUJBm0HE4ZxD3f5cy5ok",
        "id" : "7nwUJBm0HE4ZxD3f5cy5ok",
        "name" : "Aretha Franklin",
        "type" : "artist",
        "uri" : "spotify:artist:7nwUJBm0HE4ZxD3f5cy5ok"
      } ],
      "disc_number" : 1,
      "duration_ms" : 648826,
      "explicit" : false,
      "external_ids" : {
        "isrc" : "USAT21405126"
      },
      "external_urls" : {
        "spotify" : "https://open.spotify.com/track/62aEe7mLn8wdWr0o26shwx"
      },
      "href" : "https://api.spotify.com/v1/tracks/62aEe7mLn8wdWr0o26shwx",
      "id" : "62aEe7mLn8wdWr0o26shwx",
      "is_local" : false,
      "is_playable" : true,
      "name" : "Amazing Grace",
      "popularity" : 46,
      "preview_url" : "https://p.scdn.co/mp3-preview/d8369d72f3e6e9496e96b974dce93ba6fe437613?cid=774b29d4f13844c495f206cafdad9c86",
      "track_number" : 7,
      "type" : "track",
      "uri" : "spotify:track:62aEe7mLn8wdWr0o26shwx"
    }, {
      "album" : {
        "album_type" : "album",
        "artists" : [ {
          "external_urls" : {
            "spotify" : "https://open.spotify.com/artist/2q5QIs6iibW6xyHZZRSeh2"
          },
          "href" : "https://api.spotify.com/v1/artists/2q5QIs6iibW6xyHZZRSeh2",
          "id" : "2q5QIs6iibW6xyHZZRSeh2",
          "name" : "Hyper Fenton",
          "type" : "artist",
          "uri" : "spotify:artist:2q5QIs6iibW6xyHZZRSeh2"
        }, {
          "external_urls" : {
            "spotify" : "https://open.spotify.com/artist/6MPy3PayvN8uNYA8Wm3Z4a"
          },
          "href" : "https://api.spotify.com/v1/artists/6MPy3PayvN8uNYA8Wm3Z4a",
          "id" : "6MPy3PayvN8uNYA8Wm3Z4a",
          "name" : "Moflo Music",
          "type" : "artist",
          "uri" : "spotify:artist:6MPy3PayvN8uNYA8Wm3Z4a"
        } ],
        "external_urls" : {
          "spotify" : "https://open.spotify.com/album/4dziAM5y6HeViXiF5bAGbK"
        },
        "href" : "https://api.spotify.com/v1/albums/4dziAM5y6HeViXiF5bAGbK",
        "id" : "4dziAM5y6HeViXiF5bAGbK",
        "images" : [ {
          "height" : 640,
          "url" : "https://i.scdn.co/image/ab67616d0000b273b883897f667462e2cfa3254f",
          "width" : 640
        }, {
          "height" : 300,
          "url" : "https://i.scdn.co/image/ab67616d00001e02b883897f667462e2cfa3254f",
          "width" : 300
        }, {
          "height" : 64,
          "url" : "https://i.scdn.co/image/ab67616d00004851b883897f667462e2cfa3254f",
          "width" : 64
        } ],
        "name" : "Remembering Me",
        "release_date" : "2018-05-13",
        "release_date_precision" : "day",
        "total_tracks" : 9,
        "type" : "album",
        "uri" : "spotify:album:4dziAM5y6HeViXiF5bAGbK"
      },
      "artists" : [ {
        "external_urls" : {
          "spotify" : "https://open.spotify.com/artist/2q5QIs6iibW6xyHZZRSeh2"
        },
        "href" : "https://api.spotify.com/v1/artists/2q5QIs6iibW6xyHZZRSeh2",
        "id" : "2q5QIs6iibW6xyHZZRSeh2",
        "name" : "Hyper Fenton",
        "type" : "artist",
        "uri" : "spotify:artist:2q5QIs6iibW6xyHZZRSeh2"
      }, {
        "external_urls" : {
          "spotify" : "https://open.spotify.com/artist/6MPy3PayvN8uNYA8Wm3Z4a"
        },
        "href" : "https://api.spotify.com/v1/artists/6MPy3PayvN8uNYA8Wm3Z4a",
        "id" : "6MPy3PayvN8uNYA8Wm3Z4a",
        "name" : "Moflo Music",
        "type" : "artist",
        "uri" : "spotify:artist:6MPy3PayvN8uNYA8Wm3Z4a"
      }, {
        "external_urls" : {
          "spotify" : "https://open.spotify.com/artist/3qYzGjGmatPjz0jKkULj9p"
        },
        "href" : "https://api.spotify.com/v1/artists/3qYzGjGmatPjz0jKkULj9p",
        "id" : "3qYzGjGmatPjz0jKkULj9p",
        "name" : "HGHTS",
        "type" : "artist",
        "uri" : "spotify:artist:3qYzGjGmatPjz0jKkULj9p"
      } ],
      "disc_number" : 1,
      "duration_ms" : 160775,
      "explicit" : false,
      "external_ids" : {
        "isrc" : "QZCE61848743"
      },
      "external_urls" : {
        "spotify" : "https://open.spotify.com/track/51fJSFDs5Lnu7n7HfFR4qk"
      },
      "href" : "https://api.spotify.com/v1/tracks/51fJSFDs5Lnu7n7HfFR4qk",
      "id" : "51fJSFDs5Lnu7n7HfFR4qk",
      "is_local" : false,
      "is_playable" : true,
      "name" : "Amazing Grace - HGHTS Remix",
      "popularity" : 42,
      "preview_url" : "https://p.scdn.co/mp3-preview/36c5673d851ca84c27f3193caef4dfac3eaaacf5?cid=774b29d4f13844c495f206cafdad9c86",
      "track_number" : 9,
      "type" : "track",
      "uri" : "spotify:track:51fJSFDs5Lnu7n7HfFR4qk"
    } ],
    "limit" : 10,
    "next" : "https://api.spotify.com/v1/search?query=Amazing+Grace&type=track&market=US&offset=15&limit=10",
    "offset" : 5,
    "previous" : "https://api.spotify.com/v1/search?query=Amazing+Grace&type=track&market=US&offset=0&limit=10",
    "total" : 27471
  }
}