{
  "tracks" : {
    "href" : "https://api.spotify.com/v1/search?query=Now+the+Green+Blade+Rises&type=track&market=US&offset=5&limit=10",
    "items" : [ {
      "album" : {
        "album_type" : "compilation",
        "artists" : [ {
          "external_urls" : {
            "spotify" : "https://open.spotify.com/artist/0LyfQWJT6nXafLPZqxe9Of"
          },
          "href" : "https://api.spotify.com/v1/artists/0LyfQWJT6nXafLPZqxe9Of",
          "id" : "0LyfQWJT6nXafLPZqxe9Of",
          "name" : "Various Artists",
          "type" : "artist",
          "uri" : "spotify:artist:0LyfQWJT6nXafLPZqxe9Of"
        } ],
        "external_urls" : {
          "spotify" : "https://open.spotify.com/album/15Lz8E6JBQSXHixf3ryJpd"
        },
        "href" : "https://api.spotify.com/v1/albums/15Lz8E6JBQSXHixf3ryJpd",
        "id" : "15Lz8E6JBQSXHixf3ryJpd",
        "images" : [ {
          "height" : 640,
          "url" : "https://i.scdn.co/image/ab67616d0000b27319ce2b2ef993e4115f0da93c",
          "width" : 640
        }, {
          "height" : 300,
          "url" : "https://i.scdn.co/image/ab67616d00001e0219ce2b2ef993e4115f0da93c",
          "width" : 300
        }, {
          "height" : 64,
          "url" : "https://i.scdn.co/image/ab67616d0000485119ce2b2ef993e4115f0da93c",
          "width" : 64
        } ],
        "name" : "Journeysongs Third Edition: Volume 13",
        "release_date" : "2012-05-01",
        "release_date_precision" : "day",
        "total_tracks" : 27,
        "type" : "album",
        "uri" : "spotify:album:15Lz8E6JBQSXHixf3ryJpd"
      },
      "artists" : [ {
        "external_urls" : {
          "spotify" : "https://open.spotify.com/artist/11YxMalQjKnTQQJRJxYVoy"
        },
        "href" : "https://api.spotify.com/v1/artists/11YxMalQjKnTQQJRJxYVoy",
        "id" : "11YxMalQjKnTQQJRJxYVoy",
        "name" : "J. M. C. Crum",
        "type" : "artist",
        "uri" : "spotify:artist:11YxMalQjKnTQQJRJxYVoy"
      } ],
      "disc_number" : 1,
      "duration_ms" : 109113,
      "explicit" : false,
      "external_ids" : {
        "isrc" : "USA4N1301481"
      },
      "external_urls" : {
        "spotify" : "https://open.spotify.com/track/1j1VtipfADFfnsIXZlNl55"
      },
      "href" : "https://api.spotify.com/v1/tracks/1j1VtipfADFfnsIXZlNl55",
      "id" : "1j1VtipfADFfnsIXZlNl55",
      "is_local" : false,
      "is_playable" : true,
      "name" : "Now the Green Blade Rises",
      "popularity" : 3,
      "preview_url" : "https://p.scdn.co/mp3-preview/3e013f1f7942fa937ffcb2e2b8db96b65a9d35ed?cid=774b29d4f13844c495f206cafdad9c86",
      "track_number" : 12,
      "type" : "track",
      "uri" : "spotify:track:1j1VtipfADFfnsIXZlNl55"
    }, {
      "album" : {
        "album_type" : "compilation",
        "artists" : [ {
          "external_urls" : {
            "spotify" : "https://open.spotify.com/artist/0LyfQWJT6nXafLPZqxe9Of"
          },
          "href" : "https://api.spotify.com/v1/artists/0LyfQWJT6nXafLPZqxe9Of",
          "id" : "0LyfQWJT6nXafLPZqxe9Of",
          "name" : "Various Artists",
          "type" : "artist",
          "uri" : "spotify:artist:0LyfQWJT6nXafLPZqxe9Of"
        } ],
        "external_urls" : {
          "spotify" : "https://open.spotify.com/album/41FrViiUTT8DYAgqq0aQE6"
        },
        "href" : "https://api.spotify.com/v1/albums/41FrViiUTT8DYAgqq0aQE6",
        "id" : "41FrViiUTT8DYAgqq0aQE6",
        "images" : [ {
          "height" : 640,
          "url" : "https://i.scdn.co/image/ab67616d0000b273a44f597b9b26e4d18d02bdf1",
          "width" : 640
        }, {
          "height" : 300,
          "url" : "https://i.scdn.co/image/ab67616d00001e02a44f597b9b26e4d18d02bdf1",
          "width" : 300
        }, {
          "height" : 64,
          "url" : "https://i.scdn.co/image/ab67616d00004851a44f597b9b26e4d18d02bdf1",
          "width" : 64
        } ],
        "name" : "Connect Spirit and Body - Music for Meditation",
        "release_date" : "2019-09-20",
        "release_date_precision" : "day",
        "total_tracks" : 17,
        "type" : "album",
        "uri" : "spotify:album:41FrViiUTT8DYAgqq0aQE6"
      },
      "artists" : [ {
        "external_urls" : {
          "spotify" : "https://open.spotify.com/artist/6h0Bl9CjL9SlYtiN4i6azz"
        },
        "href" : "https://api.spotify.com/v1/artists/6h0Bl9CjL9SlYtiN4i6azz",
        "id" : "6h0Bl9CjL9SlYtiN4i6azz",
        "name" : "David Phillips",
        "type" : "artist",
        "uri" : "spotify:artist:6h0Bl9CjL9SlYtiN4i6azz"
      } ],
      "disc_number" : 1,
      "duration_ms" : 174849,
      "explicit" : false,
      "external_ids" : {
        "isrc" : "US5UL1821435"
      },
      "external_urls" : {
        "spotify" : "https://open.spotify.com/track/42OEHaKwcJpeNiOJp4DLz6"
      },
      "href" : "https://api.spotify.com/v1/tracks/42OEHaKwcJpeNiOJp4DLz6",
      "id" : "42OEHaKwcJpeNiOJp4DLz6",
      "is_local" : false,
      "is_playable" : true,
      "name" : "Now the Green Blade Rises",
      "popularity" : 0,
      "preview_url" : "https://p.scdn.co/mp3-preview/0637b8acbbab49eea781470c8880a76cafc40314?cid=774b29d4f13844c495f206cafdad9c86",
      "track_number" : 14,
      "type" : "track",
      "uri" : "spotify:track:42OEHaKwcJpeNiOJp4DLz6"
    }, {
      "album" : {
        "album_type" : "album",
        "artists" : [ {
          "external_urls" : {
            "spotify" : "https://open.spotify.com/artist/1IB6sEVZMMIZuW0ATBWSEN"
          },
          "href" : "https://api.spotify.com/v1/artists/1IB6sEVZMMIZuW0ATBWSEN",
          "id" : "1IB6sEVZMMIZuW0ATBWSEN",
          "name" : "Russell Schmidt",
          "type" : "artist",
          "uri" : "spotify:artist:1IB6sEVZMMIZuW0ATBWSEN"
        } ],
        "external_urls" : {
          "spotify" : "https://open.spotify.com/album/469pydroTAqKFOvZCKfuN3"
        },
        "href" : "https://api.spotify.com/v1/albums/469pydroTAqKFOvZCKfuN3",
        "id" : "469pydroTAqKFOvZCKfuN3",
        "images" : [ {
          "height" : 640,
          "url" : "https://i.scdn.co/image/ab67616d0000b273f5e3bf2e41e9994bc7a3194f",
          "width" : 640
        }, {
          "height" : 300,
          "url" : "https://i.scdn.co/image/ab67616d00001e02f5e3bf2e41e9994bc7a3194f",
          "width" : 300
        }, {
          "height" : 64,
          "url" : "https://i.scdn.co/image/ab67616d00004851f5e3bf2e41e9994bc7a3194f",
          "width" : 64
        } ],
        "name" : "Jazz Triptych, Vol. I: The Sacred",
        "release_date" : "2018-11-11",
        "release_date_precision" : "day",
        "total_tracks" : 9,
        "type" : "album",
        "uri" : "spotify:album:469pydroTAqKFOvZCKfuN3"
      },
      "artists" : [ {
        "external_urls" : {
          "spotify" : "https://open.spotify.com/artist/1IB6sEVZMMIZuW0ATBWSEN"
        },
        "href" : "https://api.spotify.com/v1/artists/1IB6sEVZMMIZuW0ATBWSEN",
        "id" : "1IB6sEVZMMIZuW0ATBWSEN",
        "name" : "Russell Schmidt",
        "type" : "artist",
        "uri" : "spotify:artist:1IB6sEVZMMIZuW0ATBWSEN"
      } ],
      "disc_number" : 1,
      "duration_ms" : 416928,
      "explicit" : false,
      "external_ids" : {
        "isrc" : "USCAK1800223"
      },
      "external_urls" : {
        "spotify" : "https://open.spotify.com/track/5XwnG2hp8DYaRvvNOA5GJ5"
      },
      "href" : "https://api.spotify.com/v1/tracks/5XwnG2hp8DYaRvvNOA5GJ5",
      "id" : "5XwnG2hp8DYaRvvNOA5GJ5",
      "is_local" : false,
      "is_playable" : true,
      "name" : "Now the Green Blade Rises",
      "popularity" : 0,
      "preview_url" : "https://p.scdn.co/mp3-preview/fedade8880feaf45ff9cfb44008d03b7e1c6460d?cid=774b29d4f13844c495f206cafdad9c86",
      "track_number" : 7,
      "type" : "track",
      "uri" : "spotify:track:5XwnG2hp8DYaRvvNOA5GJ5"
    }, {
      "album" : {
        "album_type" : "album",
        "artists" : [ {
          "external_urls" : {
            "spotify" : "https://open.spotify.com/artist/3crLZnd4xrGnISH7UoLaP1"
          },
          "href" : "https://api.spotify.com/v1/artists/3crLZnd4xrGnISH7UoLaP1",
          "id" : "3crLZnd4xrGnISH7UoLaP1",
          "name" : "Jazz Sunday",
          "type" : "artist",
          "uri" : "spotify:artist:3crLZnd4xrGnISH7UoLaP1"
        } ],
        "external_urls" : {
          "spotify" : "https://open.spotify.com/album/78khAbfiaqL2dRZ0lzkpH1"
        },
        "href" : "https://api.spotify.com/v1/albums/78khAbfiaqL2dRZ0lzkpH1",
        "id" : "78khAbfiaqL2dRZ0lzkpH1",
        "images" : [ {
          "height" : 640,
          "url" : "https://i.scdn.co/image/ab67616d0000b273b4635c1c6c5e12dcb5da00e5",
          "width" : 640
        }, {
          "height" : 300,
          "url" : "https://i.scdn.co/image/ab67616d00001e02b4635c1c6c5e12dcb5da00e5",
          "width" : 300
        }, {
          "height" : 64,
          "url" : "https://i.scdn.co/image/ab67616d00004851b4635c1c6c5e12dcb5da00e5",
          "width" : 64
        } ],
        "name" : "Marvelous Things",
        "release_date" : "2002-06-01",
        "release_date_precision" : "day",
        "total_tracks" : 12,
        "type" : "album",
        "uri" : "spotify:album:78khAbfiaqL2dRZ0lzkpH1"
      },
      "artists" : [ {
        "external_urls" : {
          "spotify" : "https://open.spotify.com/artist/3crLZnd4xrGnISH7UoLaP1"
        },
        "href" : "https://api.spotify.com/v1/artists/3crLZnd4xrGnISH7UoLaP1",
        "id" : "3crLZnd4xrGnISH7UoLaP1",
        "name" : "Jazz Sunday",
        "type" : "artist",
        "uri" : "spotify:artist:3crLZnd4xrGnISH7UoLaP1"
      } ],
      "disc_number" : 1,
      "duration_ms" : 167040,
      "explicit" : false,
      "external_ids" : {
        "isrc" : "QZES81803908"
      },
      "external_urls" : {
        "spotify" : "https://open.spotify.com/track/4NGn8FlybEa01tMFHy4RLG"
      },
      "href" : "https://api.spotify.com/v1/tracks/4NGn8FlybEa01tMFHy4RLG",
      "id" : "4NGn8FlybEa01tMFHy4RLG",
      "is_local" : false,
      "is_playable" : true,
      "name" : "Now the Green Blade Rises",
      "popularity" : 0,
      "preview_url" : "https://p.scdn.co/mp3-preview/069c9273509006b43d956babdfda47075739b20f?cid=774b29d4f13844c495f206cafdad9c86",
      "track_number" : 11,
      "type" : "track",
      "uri" : "spotify:track:4NGn8FlybEa01tMFHy4RLG"
    }, {
      "album" : {
        "album_type" : "album",
        "artists" : [ {
          "external_urls" : {
            "spotify" : "https://open.spotify.com/artist/43NEZUjcG05Lc3AzG8gte5"
          },
          "href" : "https://api.spotify.com/v1/artists/43NEZUjcG05Lc3AzG8gte5",
          "id" : "43NEZUjcG05Lc3AzG8gte5",
          "name" : "The Chapel of St. Ignatius Choir",
          "type" : "artist",
          "uri" : "spotify:artist:43NEZUjcG05Lc3AzG8gte5"
        } ],
        "external_urls" : {
          "spotify" : "https://open.spotify.com/album/429R6FsOciMSVrLyUEuEAK"
        },
        "href" : "https://api.spotify.com/v1/albums/429R6FsOciMSVrLyUEuEAK",
        "id" : "429R6FsOciMSVrLyUEuEAK",
        "images" : [ {
          "height" : 640,
          "url" : "https://i.scdn.co/image/ab67616d0000b273614150ca16ca501a55c9170d",
          "width" : 640
        }, {
          "height" : 300,
          "url" : "https://i.scdn.co/image/ab67616d00001e02614150ca16ca501a55c9170d",
          "width" : 300
        }, {
          "height" : 64,
          "url" : "https://i.scdn.co/image/ab67616d00004851614150ca16ca501a55c9170d",
          "width" : 64
        } ],
        "name" : "Light & Shadow",
        "release_date" : "2017-05-05",
        "release_date_precision" : "day",
        "total_tracks" : 17,
        "type" : "album",
        "uri" : "spotify:album:429R6FsOciMSVrLyUEuEAK"
      },
      "artists" : [ {
        "external_urls" : {
          "spotify" : "https://open.spotify.com/artist/43NEZUjcG05Lc3AzG8gte5"
        },
        "href" : "https://api.spotify.com/v1/artists/43NEZUjcG05Lc3AzG8gte5",
        "id" : "43NEZUjcG05Lc3AzG8gte5",
        "name" : "The Chapel of St. Ignatius Choir",
        "type" : "artist",
        "uri" : "spotify:artist:43NEZUjcG05Lc3AzG8gte5"
      } ],
      "disc_number" : 1,
      "duration_ms" : 235226,
      "explicit" : false,
      "external_ids" : {
        "isrc" : "usdy41714048"
      },
      "external_urls" : {
        "spotify" : "https://open.spotify.com/track/65SAbvGV7ExVFb8YVC7dT1"
      },
      "href" : "https://api.spotify.com/v1/tracks/65SAbvGV7ExVFb8YVC7dT1",
      "id" : "65SAbvGV7ExVFb8YVC7dT1",
      "is_local" : false,
      "is_playable" : true,
      "name" : "Now the Green Blade Rises",
      "popularity" : 1,
      "preview_url" : "https://p.scdn.co/mp3-preview/5ac37a2cb1dc217f4937833fac9503148e05d06e?cid=774b29d4f13844c495f206cafdad9c86",
      "track_number" : 10,
      "type" : "track",
      "uri" : "spotify:track:65SAbvGV7ExVFb8YVC7dT1"
    }, {
      "album" : {
        "album_type" : "album",
        "artists" : [ {
          "external_urls" : {
            "spotify" : "https://open.spotify.com/artist/56gEiVQ0bAyVB4xmRKnRQ9"
          },
          "href" : "https://api.spotify.com/v1/artists/56gEiVQ0bAyVB4xmRKnRQ9",
          "id" : "56gEiVQ0bAyVB4xmRKnRQ9",
          "name" : "Peter Pads",
          "type" : "artist",
          "uri" : "spotify:artist:56gEiVQ0bAyVB4xmRKnRQ9"
        } ],
        "external_urls" : {
          "spotify" : "https://open.spotify.com/album/1BxrIIu8h19ispkgL7zIXn"
        },
        "href" : "https://api.spotify.com/v1/albums/1BxrIIu8h19ispkgL7zIXn",
        "id" : "1BxrIIu8h19ispkgL7zIXn",
        "images" : [ {
          "height" : 640,
          "url" : "https://i.scdn.co/image/ab67616d0000b273e4db2b9f07a1dec3b5c9935e",
          "width" : 640
        }, {
          "height" : 300,
          "url" : "https://i.scdn.co/image/ab67616d00001e02e4db2b9f07a1dec3b5c9935e",
          "width" : 300
        }, {
          "height" : 64,
          "url" : "https://i.scdn.co/image/ab67616d00004851e4db2b9f07a1dec3b5c9935e",
          "width" : 64
        } ],
        "name" : "Country Enough (Extended Edition)",
        "release_date" : "2018-11-06",
        "release_date_precision" : "day",
        "total_tracks" : 35,
        "type" : "album",
        "uri" : "spotify:album:1BxrIIu8h19ispkgL7zIXn"
      },
      "artists" : [ {
        "external_urls" : {
          "spotify" : "https://open.spotify.com/artist/56gEiVQ0bAyVB4xmRKnRQ9"
        },
        "href" : "https://api.spotify.com/v1/artists/56gEiVQ0bAyVB4xmRKnRQ9",
        "id" : "56gEiVQ0bAyVB4xmRKnRQ9",
        "name" : "Peter Pads",
        "type" : "artist",
        "uri" : "spotify:artist:56gEiVQ0bAyVB4xmRKnRQ9"
      } ],
      "disc_number" : 1,
      "duration_ms" : 159033,
      "explicit" : false,
      "external_ids" : {
        "isrc" : "QZES61890096"
      },
      "external_urls" : {
        "spotify" : "https://open.spotify.com/track/0P8p8L63vxTs3BbksPFJYT"
      },
      "href" : "https://api.spotify.com/v1/tracks/0P8p8L63vxTs3BbksPFJYT",
      "id" : "0P8p8L63vxTs3BbksPFJYT",
      "is_local" : false,
      "is_playable" : true,
      "name" : "Now the Green Blade Rises",
      "popularity" : 0,
      "preview_url" : "https://p.scdn.co/mp3-preview/da2fda3756037614276dddfa9f1091e9ec5b5750?cid=774b29d4f13844c495f206cafdad9c86",
      "track_number" : 24,
      "type" : "track",
      "uri" : "spotify:track:0P8p8L63vxTs3BbksPFJYT"
    }, {
      "album" : {
        "album_type" : "compilation",
        "artists" : [ {
          "external_urls" : {
            "spotify" : "https://open.spotify.com/artist/0LyfQWJT6nXafLPZqxe9Of"
          },
          "href" : "https://api.spotify.com/v1/artists/0LyfQWJT6nXafLPZqxe9Of",
          "id" : "0LyfQWJT6nXafLPZqxe9Of",
          "name" : "Various Artists",
          "type" : "artist",
          "uri" : "spotify:artist:0LyfQWJT6nXafLPZqxe9Of"
        } ],
        "external_urls" : {
          "spotify" : "https://open.spotify.com/album/7xtw91DzqlPcRIe7SiZE21"
        },
        "href" : "https://api.spotify.com/v1/albums/7xtw91DzqlPcRIe7SiZE21",
        "id" : "7xtw91DzqlPcRIe7SiZE21",
        "images" : [ {
          "height" : 640,
          "url" : "https://i.scdn.co/image/ab67616d0000b2732233ee3a06dea72aba843152",
          "width" : 640
        }, {
          "height" : 300,
          "url" : "https://i.scdn.co/image/ab67616d00001e022233ee3a06dea72aba843152",
          "width" : 300
        }, {
          "height" : 64,
          "url" : "https://i.scdn.co/image/ab67616d000048512233ee3a06dea72aba843152",
          "width" : 64
        } ],
        "name" : "Christ the Lord Is Risen Today",
        "release_date" : "2020-04-09",
        "release_date_precision" : "day",
        "total_tracks" : 20,
        "type" : "album",
        "uri" : "spotify:album:7xtw91DzqlPcRIe7SiZE21"
      },
      "artists" : [ {
        "external_urls" : {
          "spotify" : "https://open.spotify.com/artist/6h0Bl9CjL9SlYtiN4i6azz"
        },
        "href" : "https://api.spotify.com/v1/artists/6h0Bl9CjL9SlYtiN4i6azz",
        "id" : "6h0Bl9CjL9SlYtiN4i6azz",
        "name" : "David Phillips",
        "type" : "artist",
        "uri" : "spotify:artist:6h0Bl9CjL9SlYtiN4i6azz"
      } ],
      "disc_number" : 1,
      "duration_ms" : 174849,
      "explicit" : false,
      "external_ids" : {
        "isrc" : "US5UL1821435"
      },
      "external_urls" : {
        "spotify" : "https://open.spotify.com/track/1ppvGskblssb5JM3qdKrr5"
      },
      "href" : "https://api.spotify.com/v1/tracks/1ppvGskblssb5JM3qdKrr5",
      "id" : "1ppvGskblssb5JM3qdKrr5",
      "is_local" : false,
      "is_playable" : true,
      "name" : "Now the Green Blade Rises",
      "popularity" : 0,
      "preview_url" : "https://p.scdn.co/mp3-preview/6ce717818c1cf845b78b03e74f83132c896d2ad3?cid=774b29d4f13844c495f206cafdad9c86",
      "track_number" : 18,
      "type" : "track",
      "uri" : "spotify:track:1ppvGskblssb5JM3qdKrr5"
    }, {
      "album" : {
        "album_type" : "album",
        "artists" : [ {
          "external_urls" : {
            "spotify" : "https://open.spotify.com/artist/4k5gaSPRZvEwn4eTxuevAX"
          },
          "href" : "https://api.spotify.com/v1/artists/4k5gaSPRZvEwn4eTxuevAX",
          "id" : "4k5gaSPRZvEwn4eTxuevAX",
          "name" : "Jon Sarta",
          "type" : "artist",
          "uri" : "spotify:artist:4k5gaSPRZvEwn4eTxuevAX"
        } ],
        "external_urls" : {
          "spotify" : "https://open.spotify.com/album/20aGkdHkk4fk1geCxmGNlT"
        },
        "href" : "https://api.spotify.com/v1/albums/20aGkdHkk4fk1geCxmGNlT",
        "id" : "20aGkdHkk4fk1geCxmGNlT",
        "images" : [ {
          "height" : 640,
          "url" : "https://i.scdn.co/image/ab67616d0000b273af7ceae2941f67e50c746ffc",
          "width" : 640
        }, {
          "height" : 300,
          "url" : "https://i.scdn.co/image/ab67616d00001e02af7ceae2941f67e50c746ffc",
          "width" : 300
        }, {
          "height" : 64,
          "url" : "https://i.scdn.co/image/ab67616d00004851af7ceae2941f67e50c746ffc",
          "width" : 64
        } ],
        "name" : "The Catholic Music Project VI: Easter",
        "release_date" : "2007-05-10",
        "release_date_precision" : "day",
        "total_tracks" : 14,
        "type" : "album",
        "uri" : "spotify:album:20aGkdHkk4fk1geCxmGNlT"
      },
      "artists" : [ {
        "external_urls" : {
          "spotify" : "https://open.spotify.com/artist/4k5gaSPRZvEwn4eTxuevAX"
        },
        "href" : "https://api.spotify.com/v1/artists/4k5gaSPRZvEwn4eTxuevAX",
        "id" : "4k5gaSPRZvEwn4eTxuevAX",
        "name" : "Jon Sarta",
        "type" : "artist",
        "uri" : "spotify:artist:4k5gaSPRZvEwn4eTxuevAX"
      } ],
      "disc_number" : 1,
      "duration_ms" : 119693,
      "explicit" : false,
      "external_ids" : {
        "isrc" : "ushm90762739"
      },
      "external_urls" : {
        "spotify" : "https://open.spotify.com/track/4hAYFtZwNcCyiz7YcRh5UB"
      },
      "href" : "https://api.spotify.com/v1/tracks/4hAYFtZwNcCyiz7YcRh5UB",
      "id" : "4hAYFtZwNcCyiz7YcRh5UB",
      "is_local" : false,
      "is_playable" : true,
      "name" : "Now The Green Blade Rises",
      "popularity" : 2,
      "preview_url" : "https://p.scdn.co/mp3-preview/c12976cfa0203a3a9d1b7f374f2f8a75a6c026e4?cid=774b29d4f13844c495f206cafdad9c86",
      "track_number" : 4,
      "type" : "track",
      "uri" : "spotify:track:4hAYFtZwNcCyiz7YcRh5UB"
    }, {
      "album" : {
        "album_type" : "album",
        "artists" : [ {
          "external_urls" : {
            "spotify" : "https://open.spotify.com/artist/2E3Mk82lCy1SxV0xglMTGQ"
          },
          "href" : "https://api.spotify.com/v1/artists/2E3Mk82lCy1SxV0xglMTGQ",
          "id" : "2E3Mk82lCy1SxV0xglMTGQ",
          "name" : "Celtica",
          "type" : "artist",
          "uri" : "spotify:artist:2E3Mk82lCy1SxV0xglMTGQ"
        } ],
        "external_urls" : {
          "spotify" : "https://open.spotify.com/album/6lAGEkajQAUCH8jAtOdppB"
        },
        "href" : "https://api.spotify.com/v1/albums/6lAGEkajQAUCH8jAtOdppB",
        "id" : "6lAGEkajQAUCH8jAtOdppB",
        "images" : [ {
          "height" : 640,
          "url" : "https://i.scdn.co/image/ab67616d0000b27384c3915bc1afd3a130e51a63",
          "width" : 640
        }, {
          "height" : 300,
          "url" : "https://i.scdn.co/image/ab67616d00001e0284c3915bc1afd3a130e51a63",
          "width" : 300
        }, {
          "height" : 64,
          "url" : "https://i.scdn.co/image/ab67616d0000485184c3915bc1afd3a130e51a63",
          "width" : 64
        } ],
        "name" : "Celtic Fire",
        "release_date" : "2017-03-13",
        "release_date_precision" : "day",
        "total_tracks" : 13,
        "type" : "album",
        "uri" : "spotify:album:6lAGEkajQAUCH8jAtOdppB"
      },
      "artists" : [ {
        "external_urls" : {
          "spotify" : "https://open.spotify.com/artist/2E3Mk82lCy1SxV0xglMTGQ"
        },
        "href" : "https://api.spotify.com/v1/artists/2E3Mk82lCy1SxV0xglMTGQ",
        "id" : "2E3Mk82lCy1SxV0xglMTGQ",
        "name" : "Celtica",
        "type" : "artist",
        "uri" : "spotify:artist:2E3Mk82lCy1SxV0xglMTGQ"
      } ],
      "disc_number" : 1,
      "duration_ms" : 136613,
      "explicit" : false,
      "external_ids" : {
        "isrc" : "uscgj1749242"
      },
      "external_urls" : {
        "spotify" : "https://open.spotify.com/track/1Mitcrsk73dVX1tS11FJBm"
      },
      "href" : "https://api.spotify.com/v1/tracks/1Mitcrsk73dVX1tS11FJBm",
      "id" : "1Mitcrsk73dVX1tS11FJBm",
      "is_local" : false,
      "is_playable" : true,
      "name" : "Now the Green Blade Rises",
      "popularity" : 5,
      "preview_url" : "https://p.scdn.co/mp3-preview/240737c178930c7b886323c4b12281fbea280d6d?cid=774b29d4f13844c495f206cafdad9c86",
      "track_number" : 9,
      "type" : "track",
      "uri" : "spotify:track:1Mitcrsk73dVX1tS11FJBm"
    }, {
      "album" : {
        "album_type" : "album",
        "artists" : [ {
          "external_urls" : {
            "spotify" : "https://open.spotify.com/artist/4NlxGy7aw9WHZAAp8ftHph"
          },
          "href" : "https://api.spotify.com/v1/artists/4NlxGy7aw9WHZAAp8ftHph",
          "id" : "4NlxGy7aw9WHZAAp8ftHph",
          "name" : "Stephanie Seefeldt",
          "type" : "artist",
          "uri" : "spotify:artist:4NlxGy7aw9WHZAAp8ftHph"
        } ],
        "external_urls" : {
          "spotify" : "https://open.spotify.com/album/19ShAiNW2p0HeQbcTZTUxW"
        },
        "href" : "https://api.spotify.com/v1/albums/19ShAiNW2p0HeQbcTZTUxW",
        "id" : "19ShAiNW2p0HeQbcTZTUxW",
        "images" : [ {
          "height" : 640,
          "url" : "https://i.scdn.co/image/ab67616d0000b27311f9b4d888a58b8f882a24a7",
          "width" : 640
        }, {
          "height" : 300,
          "url" : "https://i.scdn.co/image/ab67616d00001e0211f9b4d888a58b8f882a24a7",
          "width" : 300
        }, {
          "height" : 64,
          "url" : "https://i.scdn.co/image/ab67616d0000485111f9b4d888a58b8f882a24a7",
          "width" : 64
        } ],
        "name" : "Change in Time",
        "release_date" : "2011-01-18",
        "release_date_precision" : "day",
        "total_tracks" : 15,
        "type" : "album",
        "uri" : "spotify:album:19ShAiNW2p0HeQbcTZTUxW"
      },
      "artists" : [ {
        "external_urls" : {
          "spotify" : "https://open.spotify.com/artist/4NlxGy7aw9WHZAAp8ftHph"
        },
        "href" : "https://api.spotify.com/v1/artists/4NlxGy7aw9WHZAAp8ftHph",
        "id" : "4NlxGy7aw9WHZAAp8ftHph",
        "name" : "Stephanie Seefeldt",
        "type" : "artist",
        "uri" : "spotify:artist:4NlxGy7aw9WHZAAp8ftHph"
      } ],
      "disc_number" : 1,
      "duration_ms" : 171390,
      "explicit" : false,
      "external_ids" : {
        "isrc" : "uscgh1120237"
      },
      "external_urls" : {
        "spotify" : "https://open.spotify.com/track/00qKScNP0i9qTh5FHYcgwh"
      },
      "href" : "https://api.spotify.com/v1/tracks/00qKScNP0i9qTh5FHYcgwh",
      "id" : "00qKScNP0i9qTh5FHYcgwh",
      "is_local" : false,
      "is_playable" : true,
      "name" : "Now the Green Blade Rises",
      "popularity" : 1,
      "preview_url" : "https://p.scdn.co/mp3-preview/80292c5bc605f59814f321b0f779e9d5c18bd45d?cid=774b29d4f13844c495f206cafdad9c86",
      "track_number" : 1,
      "type" : "track",
      "uri" : "spotify:track:00qKScNP0i9qTh5FHYcgwh"
    } ],
    "limit" : 10,
    "next" : "https://api.spotify.com/v1/search?query=Now+the+Green+Blade+Rises&type=track&market=US&offset=15&limit=10",
    "offset" : 5,
    "previous" : "https://api.spotify.com/v1/search?query=Now+the+Green+Blade+Rises&type=track&market=US&offset=0&limit=10",
    "total" : 21
  }
}