{
  "tracks" : {
    "href" : "https://api.spotify.com/v1/search?query=Chief+of+Sinners&type=track&market=US&offset=5&limit=10",
    "items" : [ {
      "album" : {
        "album_type" : "album",
        "artists" : [ {
          "external_urls" : {
            "spotify" : "https://open.spotify.com/artist/7Jd98Mm2x1fQBzQmQOeX79"
          },
          "href" : "https://api.spotify.com/v1/artists/7Jd98Mm2x1fQBzQmQOeX79",
          "id" : "7Jd98Mm2x1fQBzQmQOeX79",
          "name" : "Austin Meade",
          "type" : "artist",
          "uri" : "spotify:artist:7Jd98Mm2x1fQBzQmQOeX79"
        } ],
        "external_urls" : {
          "spotify" : "https://open.spotify.com/album/1IhaJ2r9Fn4zcr5f73UPI5"
        },
        "href" : "https://api.spotify.com/v1/albums/1IhaJ2r9Fn4zcr5f73UPI5",
        "id" : "1IhaJ2r9Fn4zcr5f73UPI5",
        "images" : [ {
          "height" : 640,
          "url" : "https://i.scdn.co/image/ab67616d0000b273120b178f4a95bd9fbe6c3851",
          "width" : 640
        }, {
          "height" : 300,
          "url" : "https://i.scdn.co/image/ab67616d00001e02120b178f4a95bd9fbe6c3851",
          "width" : 300
        }, {
          "height" : 64,
          "url" : "https://i.scdn.co/image/ab67616d00004851120b178f4a95bd9fbe6c3851",
          "width" : 64
        } ],
        "name" : "Chief of the Sinners",
        "release_date" : "2014-11-01",
        "release_date_precision" : "day",
        "total_tracks" : 12,
        "type" : "album",
        "uri" : "spotify:album:1IhaJ2r9Fn4zcr5f73UPI5"
      },
      "artists" : [ {
        "external_urls" : {
          "spotify" : "https://open.spotify.com/artist/7Jd98Mm2x1fQBzQmQOeX79"
        },
        "href" : "https://api.spotify.com/v1/artists/7Jd98Mm2x1fQBzQmQOeX79",
        "id" : "7Jd98Mm2x1fQBzQmQOeX79",
        "name" : "Austin Meade",
        "type" : "artist",
        "uri" : "spotify:artist:7Jd98Mm2x1fQBzQmQOeX79"
      } ],
      "disc_number" : 1,
      "duration_ms" : 226840,
      "explicit" : false,
      "external_ids" : {
        "isrc" : "QM7MB1400010"
      },
      "external_urls" : {
        "spotify" : "https://open.spotify.com/track/5i9fVpEWD7sbs3aNCa3pnW"
      },
      "href" : "https://api.spotify.com/v1/tracks/5i9fVpEWD7sbs3aNCa3pnW",
      "id" : "5i9fVpEWD7sbs3aNCa3pnW",
      "is_local" : false,
      "is_playable" : true,
      "name" : "62 Years",
      "popularity" : 17,
      "preview_url" : "https://p.scdn.co/mp3-preview/4fd96b7a9347984a865a74d76b004a52840954a7?cid=774b29d4f13844c495f206cafdad9c86",
      "track_number" : 10,
      "type" : "track",
      "uri" : "spotify:track:5i9fVpEWD7sbs3aNCa3pnW"
    }, {
      "album" : {
        "album_type" : "album",
        "artists" : [ {
          "external_urls" : {
            "spotify" : "https://open.spotify.com/artist/7Jd98Mm2x1fQBzQmQOeX79"
          },
          "href" : "https://api.spotify.com/v1/artists/7Jd98Mm2x1fQBzQmQOeX79",
          "id" : "7Jd98Mm2x1fQBzQmQOeX79",
          "name" : "Austin Meade",
          "type" : "artist",
          "uri" : "spotify:artist:7Jd98Mm2x1fQBzQmQOeX79"
        } ],
        "external_urls" : {
          "spotify" : "https://open.spotify.com/album/1IhaJ2r9Fn4zcr5f73UPI5"
        },
        "href" : "https://api.spotify.com/v1/albums/1IhaJ2r9Fn4zcr5f73UPI5",
        "id" : "1IhaJ2r9Fn4zcr5f73UPI5",
        "images" : [ {
          "height" : 640,
          "url" : "https://i.scdn.co/image/ab67616d0000b273120b178f4a95bd9fbe6c3851",
          "width" : 640
        }, {
          "height" : 300,
          "url" : "https://i.scdn.co/image/ab67616d00001e02120b178f4a95bd9fbe6c3851",
          "width" : 300
        }, {
          "height" : 64,
          "url" : "https://i.scdn.co/image/ab67616d00004851120b178f4a95bd9fbe6c3851",
          "width" : 64
        } ],
        "name" : "Chief of the Sinners",
        "release_date" : "2014-11-01",
        "release_date_precision" : "day",
        "total_tracks" : 12,
        "type" : "album",
        "uri" : "spotify:album:1IhaJ2r9Fn4zcr5f73UPI5"
      },
      "artists" : [ {
        "external_urls" : {
          "spotify" : "https://open.spotify.com/artist/7Jd98Mm2x1fQBzQmQOeX79"
        },
        "href" : "https://api.spotify.com/v1/artists/7Jd98Mm2x1fQBzQmQOeX79",
        "id" : "7Jd98Mm2x1fQBzQmQOeX79",
        "name" : "Austin Meade",
        "type" : "artist",
        "uri" : "spotify:artist:7Jd98Mm2x1fQBzQmQOeX79"
      } ],
      "disc_number" : 1,
      "duration_ms" : 232586,
      "explicit" : false,
      "external_ids" : {
        "isrc" : "QM7MB1400001"
      },
      "external_urls" : {
        "spotify" : "https://open.spotify.com/track/2EFN9QVQN5eZU7YnjWeHkp"
      },
      "href" : "https://api.spotify.com/v1/tracks/2EFN9QVQN5eZU7YnjWeHkp",
      "id" : "2EFN9QVQN5eZU7YnjWeHkp",
      "is_local" : false,
      "is_playable" : true,
      "name" : "Let Me Be",
      "popularity" : 17,
      "preview_url" : "https://p.scdn.co/mp3-preview/cf75df67c963136a2aba51b806f4b3cbad267eb6?cid=774b29d4f13844c495f206cafdad9c86",
      "track_number" : 1,
      "type" : "track",
      "uri" : "spotify:track:2EFN9QVQN5eZU7YnjWeHkp"
    }, {
      "album" : {
        "album_type" : "album",
        "artists" : [ {
          "external_urls" : {
            "spotify" : "https://open.spotify.com/artist/7Jd98Mm2x1fQBzQmQOeX79"
          },
          "href" : "https://api.spotify.com/v1/artists/7Jd98Mm2x1fQBzQmQOeX79",
          "id" : "7Jd98Mm2x1fQBzQmQOeX79",
          "name" : "Austin Meade",
          "type" : "artist",
          "uri" : "spotify:artist:7Jd98Mm2x1fQBzQmQOeX79"
        } ],
        "external_urls" : {
          "spotify" : "https://open.spotify.com/album/1IhaJ2r9Fn4zcr5f73UPI5"
        },
        "href" : "https://api.spotify.com/v1/albums/1IhaJ2r9Fn4zcr5f73UPI5",
        "id" : "1IhaJ2r9Fn4zcr5f73UPI5",
        "images" : [ {
          "height" : 640,
          "url" : "https://i.scdn.co/image/ab67616d0000b273120b178f4a95bd9fbe6c3851",
          "width" : 640
        }, {
          "height" : 300,
          "url" : "https://i.scdn.co/image/ab67616d00001e02120b178f4a95bd9fbe6c3851",
          "width" : 300
        }, {
          "height" : 64,
          "url" : "https://i.scdn.co/image/ab67616d00004851120b178f4a95bd9fbe6c3851",
          "width" : 64
        } ],
        "name" : "Chief of the Sinners",
        "release_date" : "2014-11-01",
        "release_date_precision" : "day",
        "total_tracks" : 12,
        "type" : "album",
        "uri" : "spotify:album:1IhaJ2r9Fn4zcr5f73UPI5"
      },
      "artists" : [ {
        "external_urls" : {
          "spotify" : "https://open.spotify.com/artist/7Jd98Mm2x1fQBzQmQOeX79"
        },
        "href" : "https://api.spotify.com/v1/artists/7Jd98Mm2x1fQBzQmQOeX79",
        "id" : "7Jd98Mm2x1fQBzQmQOeX79",
        "name" : "Austin Meade",
        "type" : "artist",
        "uri" : "spotify:artist:7Jd98Mm2x1fQBzQmQOeX79"
      } ],
      "disc_number" : 1,
      "duration_ms" : 224653,
      "explicit" : false,
      "external_ids" : {
        "isrc" : "QM7MB1400006"
      },
      "external_urls" : {
        "spotify" : "https://open.spotify.com/track/2BCG18NEER4BcmEbXsGABb"
      },
      "href" : "https://api.spotify.com/v1/tracks/2BCG18NEER4BcmEbXsGABb",
      "id" : "2BCG18NEER4BcmEbXsGABb",
      "is_local" : false,
      "is_playable" : true,
      "name" : "Rushing This Life",
      "popularity" : 16,
      "preview_url" : "https://p.scdn.co/mp3-preview/66303a5887a6ffaecd31ce3b86778c9bb2b0b0c6?cid=774b29d4f13844c495f206cafdad9c86",
      "track_number" : 6,
      "type" : "track",
      "uri" : "spotify:track:2BCG18NEER4BcmEbXsGABb"
    }, {
      "album" : {
        "album_type" : "album",
        "artists" : [ {
          "external_urls" : {
            "spotify" : "https://open.spotify.com/artist/7Jd98Mm2x1fQBzQmQOeX79"
          },
          "href" : "https://api.spotify.com/v1/artists/7Jd98Mm2x1fQBzQmQOeX79",
          "id" : "7Jd98Mm2x1fQBzQmQOeX79",
          "name" : "Austin Meade",
          "type" : "artist",
          "uri" : "spotify:artist:7Jd98Mm2x1fQBzQmQOeX79"
        } ],
        "external_urls" : {
          "spotify" : "https://open.spotify.com/album/1IhaJ2r9Fn4zcr5f73UPI5"
        },
        "href" : "https://api.spotify.com/v1/albums/1IhaJ2r9Fn4zcr5f73UPI5",
        "id" : "1IhaJ2r9Fn4zcr5f73UPI5",
        "images" : [ {
          "height" : 640,
          "url" : "https://i.scdn.co/image/ab67616d0000b273120b178f4a95bd9fbe6c3851",
          "width" : 640
        }, {
          "height" : 300,
          "url" : "https://i.scdn.co/image/ab67616d00001e02120b178f4a95bd9fbe6c3851",
          "width" : 300
        }, {
          "height" : 64,
          "url" : "https://i.scdn.co/image/ab67616d00004851120b178f4a95bd9fbe6c3851",
          "width" : 64
        } ],
        "name" : "Chief of the Sinners",
        "release_date" : "2014-11-01",
        "release_date_precision" : "day",
        "total_tracks" : 12,
        "type" : "album",
        "uri" : "spotify:album:1IhaJ2r9Fn4zcr5f73UPI5"
      },
      "artists" : [ {
        "external_urls" : {
          "spotify" : "https://open.spotify.com/artist/7Jd98Mm2x1fQBzQmQOeX79"
        },
        "href" : "https://api.spotify.com/v1/artists/7Jd98Mm2x1fQBzQmQOeX79",
        "id" : "7Jd98Mm2x1fQBzQmQOeX79",
        "name" : "Austin Meade",
        "type" : "artist",
        "uri" : "spotify:artist:7Jd98Mm2x1fQBzQmQOeX79"
      } ],
      "disc_number" : 1,
      "duration_ms" : 192786,
      "explicit" : false,
      "external_ids" : {
        "isrc" : "QM7MB1400007"
      },
      "external_urls" : {
        "spotify" : "https://open.spotify.com/track/79GfAzviUmivCvP6XVOkZI"
      },
      "href" : "https://api.spotify.com/v1/tracks/79GfAzviUmivCvP6XVOkZI",
      "id" : "79GfAzviUmivCvP6XVOkZI",
      "is_local" : false,
      "is_playable" : true,
      "name" : "Dig My Grave",
      "popularity" : 16,
      "preview_url" : "https://p.scdn.co/mp3-preview/05ee16238b1d7879e8fb9abefad56e8d28801e74?cid=774b29d4f13844c495f206cafdad9c86",
      "track_number" : 7,
      "type" : "track",
      "uri" : "spotify:track:79GfAzviUmivCvP6XVOkZI"
    }, {
      "album" : {
        "album_type" : "album",
        "artists" : [ {
          "external_urls" : {
            "spotify" : "https://open.spotify.com/artist/7Jd98Mm2x1fQBzQmQOeX79"
          },
          "href" : "https://api.spotify.com/v1/artists/7Jd98Mm2x1fQBzQmQOeX79",
          "id" : "7Jd98Mm2x1fQBzQmQOeX79",
          "name" : "Austin Meade",
          "type" : "artist",
          "uri" : "spotify:artist:7Jd98Mm2x1fQBzQmQOeX79"
        } ],
        "external_urls" : {
          "spotify" : "https://open.spotify.com/album/1IhaJ2r9Fn4zcr5f73UPI5"
        },
        "href" : "https://api.spotify.com/v1/albums/1IhaJ2r9Fn4zcr5f73UPI5",
        "id" : "1IhaJ2r9Fn4zcr5f73UPI5",
        "images" : [ {
          "height" : 640,
          "url" : "https://i.scdn.co/image/ab67616d0000b273120b178f4a95bd9fbe6c3851",
          "width" : 640
        }, {
          "height" : 300,
          "url" : "https://i.scdn.co/image/ab67616d00001e02120b178f4a95bd9fbe6c3851",
          "width" : 300
        }, {
          "height" : 64,
          "url" : "https://i.scdn.co/image/ab67616d00004851120b178f4a95bd9fbe6c3851",
          "width" : 64
        } ],
        "name" : "Chief of the Sinners",
        "release_date" : "2014-11-01",
        "release_date_precision" : "day",
        "total_tracks" : 12,
        "type" : "album",
        "uri" : "spotify:album:1IhaJ2r9Fn4zcr5f73UPI5"
      },
      "artists" : [ {
        "external_urls" : {
          "spotify" : "https://open.spotify.com/artist/7Jd98Mm2x1fQBzQmQOeX79"
        },
        "href" : "https://api.spotify.com/v1/artists/7Jd98Mm2x1fQBzQmQOeX79",
        "id" : "7Jd98Mm2x1fQBzQmQOeX79",
        "name" : "Austin Meade",
        "type" : "artist",
        "uri" : "spotify:artist:7Jd98Mm2x1fQBzQmQOeX79"
      } ],
      "disc_number" : 1,
      "duration_ms" : 225840,
      "explicit" : false,
      "external_ids" : {
        "isrc" : "QM7MB1400009"
      },
      "external_urls" : {
        "spotify" : "https://open.spotify.com/track/1PgKMvCvX6xV6vYV3Yx1F6"
      },
      "href" : "https://api.spotify.com/v1/tracks/1PgKMvCvX6xV6vYV3Yx1F6",
      "id" : "1PgKMvCvX6xV6vYV3Yx1F6",
      "is_local" : false,
      "is_playable" : true,
      "name" : "Take It All",
      "popularity" : 15,
      "preview_url" : "https://p.scdn.co/mp3-preview/31b24b3efdab3737d0e4b6cff3c9f8f33331833c?cid=774b29d4f13844c495f206cafdad9c86",
      "track_number" : 9,
      "type" : "track",
      "uri" : "spotify:track:1PgKMvCvX6xV6vYV3Yx1F6"
    }, {
      "album" : {
        "album_type" : "album",
        "artists" : [ {
          "external_urls" : {
            "spotify" : "https://open.spotify.com/artist/7Jd98Mm2x1fQBzQmQOeX79"
          },
          "href" : "https://api.spotify.com/v1/artists/7Jd98Mm2x1fQBzQmQOeX79",
          "id" : "7Jd98Mm2x1fQBzQmQOeX79",
          "name" : "Austin Meade",
          "type" : "artist",
          "uri" : "spotify:artist:7Jd98Mm2x1fQBzQmQOeX79"
        } ],
        "external_urls" : {
          "spotify" : "https://open.spotify.com/album/1IhaJ2r9Fn4zcr5f73UPI5"
        },
        "href" : "https://api.spotify.com/v1/albums/1IhaJ2r9Fn4zcr5f73UPI5",
        "id" : "1IhaJ2r9Fn4zcr5f73UPI5",
        "images" : [ {
          "height" : 640,
          "url" : "https://i.scdn.co/image/ab67616d0000b273120b178f4a95bd9fbe6c3851",
          "width" : 640
        }, {
          "height" : 300,
          "url" : "https://i.scdn.co/image/ab67616d00001e02120b178f4a95bd9fbe6c3851",
          "width" : 300
        }, {
          "height" : 64,
          "url" : "https://i.scdn.co/image/ab67616d00004851120b178f4a95bd9fbe6c3851",
          "width" : 64
        } ],
        "name" : "Chief of the Sinners",
        "release_date" : "2014-11-01",
        "release_date_precision" : "day",
        "total_tracks" : 12,
        "type" : "album",
        "uri" : "spotify:album:1IhaJ2r9Fn4zcr5f73UPI5"
      },
      "artists" : [ {
        "external_urls" : {
          "spotify" : "https://open.spotify.com/artist/7Jd98Mm2x1fQBzQmQOeX79"
        },
        "href" : "https://api.spotify.com/v1/artists/7Jd98Mm2x1fQBzQmQOeX79",
        "id" : "7Jd98Mm2x1fQBzQmQOeX79",
        "name" : "Austin Meade",
        "type" : "artist",
        "uri" : "spotify:artist:7Jd98Mm2x1fQBzQmQOeX79"
      } ],
      "disc_number" : 1,
      "duration_ms" : 222013,
      "explicit" : false,
      "external_ids" : {
        "isrc" : "QM7MB1400008"
      },
      "external_urls" : {
        "spotify" : "https://open.spotify.com/track/0S9YUM4nLzWGxBEFXXl9Za"
      },
      "href" : "https://api.spotify.com/v1/tracks/0S9YUM4nLzWGxBEFXXl9Za",
      "id" : "0S9YUM4nLzWGxBEFXXl9Za",
      "is_local" : false,
      "is_playable" : true,
      "name" : "Doubts",
      "popularity" : 15,
      "preview_url" : "https://p.scdn.co/mp3-preview/6facad9ef3e65405726ce4e6a8d59829fa7a6fba?cid=774b29d4f13844c495f206cafdad9c86",
      "track_number" : 8,
      "type" : "track",
      "uri" : "spotify:track:0S9YUM4nLzWGxBEFXXl9Za"
    }, {
      "album" : {
        "album_type" : "album",
        "artists" : [ {
          "external_urls" : {
            "spotify" : "https://open.spotify.com/artist/7Jd98Mm2x1fQBzQmQOeX79"
          },
          "href" : "https://api.spotify.com/v1/artists/7Jd98Mm2x1fQBzQmQOeX79",
          "id" : "7Jd98Mm2x1fQBzQmQOeX79",
          "name" : "Austin Meade",
          "type" : "artist",
          "uri" : "spotify:artist:7Jd98Mm2x1fQBzQmQOeX79"
        } ],
        "external_urls" : {
          "spotify" : "https://open.spotify.com/album/1IhaJ2r9Fn4zcr5f73UPI5"
        },
        "href" : "https://api.spotify.com/v1/albums/1IhaJ2r9Fn4zcr5f73UPI5",
        "id" : "1IhaJ2r9Fn4zcr5f73UPI5",
        "images" : [ {
          "height" : 640,
          "url" : "https://i.scdn.co/image/ab67616d0000b273120b178f4a95bd9fbe6c3851",
          "width" : 640
        }, {
          "height" : 300,
          "url" : "https://i.scdn.co/image/ab67616d00001e02120b178f4a95bd9fbe6c3851",
          "width" : 300
        }, {
          "height" : 64,
          "url" : "https://i.scdn.co/image/ab67616d00004851120b178f4a95bd9fbe6c3851",
          "width" : 64
        } ],
        "name" : "Chief of the Sinners",
        "release_date" : "2014-11-01",
        "release_date_precision" : "day",
        "total_tracks" : 12,
        "type" : "album",
        "uri" : "spotify:album:1IhaJ2r9Fn4zcr5f73UPI5"
      },
      "artists" : [ {
        "external_urls" : {
          "spotify" : "https://open.spotify.com/artist/7Jd98Mm2x1fQBzQmQOeX79"
        },
        "href" : "https://api.spotify.com/v1/artists/7Jd98Mm2x1fQBzQmQOeX79",
        "id" : "7Jd98Mm2x1fQBzQmQOeX79",
        "name" : "Austin Meade",
        "type" : "artist",
        "uri" : "spotify:artist:7Jd98Mm2x1fQBzQmQOeX79"
      } ],
      "disc_number" : 1,
      "duration_ms" : 237813,
      "explicit" : false,
      "external_ids" : {
        "isrc" : "QM7MB1400012"
      },
      "external_urls" : {
        "spotify" : "https://open.spotify.com/track/4VfezAA5aj76WyLF6Otaaf"
      },
      "href" : "https://api.spotify.com/v1/tracks/4VfezAA5aj76WyLF6Otaaf",
      "id" : "4VfezAA5aj76WyLF6Otaaf",
      "is_local" : false,
      "is_playable" : true,
      "name" : "Trailer Prayer (Last Song)",
      "popularity" : 15,
      "preview_url" : "https://p.scdn.co/mp3-preview/8c38658cfc9d41da893a341adc5537d632756e97?cid=774b29d4f13844c495f206cafdad9c86",
      "track_number" : 12,
      "type" : "track",
      "uri" : "spotify:track:4VfezAA5aj76WyLF6Otaaf"
    }, {
      "album" : {
        "album_type" : "album",
        "artists" : [ {
          "external_urls" : {
            "spotify" : "https://open.spotify.com/artist/7bizRFC2Gv4F2XxgamNwNy"
          },
          "href" : "https://api.spotify.com/v1/artists/7bizRFC2Gv4F2XxgamNwNy",
          "id" : "7bizRFC2Gv4F2XxgamNwNy",
          "name" : "Koiné",
          "type" : "artist",
          "uri" : "spotify:artist:7bizRFC2Gv4F2XxgamNwNy"
        } ],
        "external_urls" : {
          "spotify" : "https://open.spotify.com/album/7KxzUhdfBzqheQJiN5mvzw"
        },
        "href" : "https://api.spotify.com/v1/albums/7KxzUhdfBzqheQJiN5mvzw",
        "id" : "7KxzUhdfBzqheQJiN5mvzw",
        "images" : [ {
          "height" : 640,
          "url" : "https://i.scdn.co/image/ab67616d0000b273b1712c4e354c097d50c1f9bd",
          "width" : 640
        }, {
          "height" : 300,
          "url" : "https://i.scdn.co/image/ab67616d00001e02b1712c4e354c097d50c1f9bd",
          "width" : 300
        }, {
          "height" : 64,
          "url" : "https://i.scdn.co/image/ab67616d00004851b1712c4e354c097d50c1f9bd",
          "width" : 64
        } ],
        "name" : "Koiné",
        "release_date" : "2006",
        "release_date_precision" : "year",
        "total_tracks" : 10,
        "type" : "album",
        "uri" : "spotify:album:7KxzUhdfBzqheQJiN5mvzw"
      },
      "artists" : [ {
        "external_urls" : {
          "spotify" : "https://open.spotify.com/artist/7bizRFC2Gv4F2XxgamNwNy"
        },
        "href" : "https://api.spotify.com/v1/artists/7bizRFC2Gv4F2XxgamNwNy",
        "id" : "7bizRFC2Gv4F2XxgamNwNy",
        "name" : "Koiné",
        "type" : "artist",
        "uri" : "spotify:artist:7bizRFC2Gv4F2XxgamNwNy"
      } ],
      "disc_number" : 1,
      "duration_ms" : 182453,
      "explicit" : false,
      "external_ids" : {
        "isrc" : "ushm90877182"
      },
      "external_urls" : {
        "spotify" : "https://open.spotify.com/track/0xu1XtOlgFwSjFPU26ieMP"
      },
      "href" : "https://api.spotify.com/v1/tracks/0xu1XtOlgFwSjFPU26ieMP",
      "id" : "0xu1XtOlgFwSjFPU26ieMP",
      "is_local" : false,
      "is_playable" : true,
      "name" : "Chief Of Sinners Though I Be",
      "popularity" : 6,
      "preview_url" : "https://p.scdn.co/mp3-preview/5a40bcd0b9af7aad669fe4aa0f04686d5fd77472?cid=774b29d4f13844c495f206cafdad9c86",
      "track_number" : 2,
      "type" : "track",
      "uri" : "spotify:track:0xu1XtOlgFwSjFPU26ieMP"
    }, {
      "album" : {
        "album_type" : "album",
        "artists" : [ {
          "external_urls" : {
            "spotify" : "https://open.spotify.com/artist/09TOgappqOohpamkrpP78c"
          },
          "href" : "https://api.spotify.com/v1/artists/09TOgappqOohpamkrpP78c",
          "id" : "09TOgappqOohpamkrpP78c",
          "name" : "Fountainview Academy Orchestra & Singers",
          "type" : "artist",
          "uri" : "spotify:artist:09TOgappqOohpamkrpP78c"
        } ],
        "external_urls" : {
          "spotify" : "https://open.spotify.com/album/5ChH6X9dwBOdLKljTbRttj"
        },
        "href" : "https://api.spotify.com/v1/albums/5ChH6X9dwBOdLKljTbRttj",
        "id" : "5ChH6X9dwBOdLKljTbRttj",
        "images" : [ {
          "height" : 640,
          "url" : "https://i.scdn.co/image/ab67616d0000b27379bd400ebea5ff353c6d0c80",
          "width" : 640
        }, {
          "height" : 300,
          "url" : "https://i.scdn.co/image/ab67616d00001e0279bd400ebea5ff353c6d0c80",
          "width" : 300
        }, {
          "height" : 64,
          "url" : "https://i.scdn.co/image/ab67616d0000485179bd400ebea5ff353c6d0c80",
          "width" : 64
        } ],
        "name" : "God So Loved The World - Winter",
        "release_date" : "2014",
        "release_date_precision" : "year",
        "total_tracks" : 17,
        "type" : "album",
        "uri" : "spotify:album:5ChH6X9dwBOdLKljTbRttj"
      },
      "artists" : [ {
        "external_urls" : {
          "spotify" : "https://open.spotify.com/artist/09TOgappqOohpamkrpP78c"
        },
        "href" : "https://api.spotify.com/v1/artists/09TOgappqOohpamkrpP78c",
        "id" : "09TOgappqOohpamkrpP78c",
        "name" : "Fountainview Academy Orchestra & Singers",
        "type" : "artist",
        "uri" : "spotify:artist:09TOgappqOohpamkrpP78c"
      } ],
      "disc_number" : 1,
      "duration_ms" : 150613,
      "explicit" : false,
      "external_ids" : {
        "isrc" : "QMEZE1915055"
      },
      "external_urls" : {
        "spotify" : "https://open.spotify.com/track/1pvdtxcpAJ8a61wCRiHaUT"
      },
      "href" : "https://api.spotify.com/v1/tracks/1pvdtxcpAJ8a61wCRiHaUT",
      "id" : "1pvdtxcpAJ8a61wCRiHaUT",
      "is_local" : false,
      "is_playable" : true,
      "name" : "Chief of Sinners",
      "popularity" : 9,
      "preview_url" : "https://p.scdn.co/mp3-preview/70869aca5016c7f42462e934f59b6a9b7640b728?cid=774b29d4f13844c495f206cafdad9c86",
      "track_number" : 4,
      "type" : "track",
      "uri" : "spotify:track:1pvdtxcpAJ8a61wCRiHaUT"
    }, {
      "album" : {
        "album_type" : "album",
        "artists" : [ {
          "external_urls" : {
            "spotify" : "https://open.spotify.com/artist/3Yl28cv5aKfgfwTQttsYvL"
          },
          "href" : "https://api.spotify.com/v1/artists/3Yl28cv5aKfgfwTQttsYvL",
          "id" : "3Yl28cv5aKfgfwTQttsYvL",
          "name" : "The Red Baron",
          "type" : "artist",
          "uri" : "spotify:artist:3Yl28cv5aKfgfwTQttsYvL"
        }, {
          "external_urls" : {
            "spotify" : "https://open.spotify.com/artist/31bnrd8MGVsYwoHKn5RPwC"
          },
          "href" : "https://api.spotify.com/v1/artists/31bnrd8MGVsYwoHKn5RPwC",
          "id" : "31bnrd8MGVsYwoHKn5RPwC",
          "name" : "Bishop",
          "type" : "artist",
          "uri" : "spotify:artist:31bnrd8MGVsYwoHKn5RPwC"
        } ],
        "external_urls" : {
          "spotify" : "https://open.spotify.com/album/0fduv1oCWMtI41SkZT7dK0"
        },
        "href" : "https://api.spotify.com/v1/albums/0fduv1oCWMtI41SkZT7dK0",
        "id" : "0fduv1oCWMtI41SkZT7dK0",
        "images" : [ {
          "height" : 640,
          "url" : "https://i.scdn.co/image/ab67616d0000b273097b9bbee0379bab23e8ee39",
          "width" : 640
        }, {
          "height" : 300,
          "url" : "https://i.scdn.co/image/ab67616d00001e02097b9bbee0379bab23e8ee39",
          "width" : 300
        }, {
          "height" : 64,
          "url" : "https://i.scdn.co/image/ab67616d00004851097b9bbee0379bab23e8ee39",
          "width" : 64
        } ],
        "name" : "Split",
        "release_date" : "2007-01-09",
        "release_date_precision" : "day",
        "total_tracks" : 10,
        "type" : "album",
        "uri" : "spotify:album:0fduv1oCWMtI41SkZT7dK0"
      },
      "artists" : [ {
        "external_urls" : {
          "spotify" : "https://open.spotify.com/artist/3Yl28cv5aKfgfwTQttsYvL"
        },
        "href" : "https://api.spotify.com/v1/artists/3Yl28cv5aKfgfwTQttsYvL",
        "id" : "3Yl28cv5aKfgfwTQttsYvL",
        "name" : "The Red Baron",
        "type" : "artist",
        "uri" : "spotify:artist:3Yl28cv5aKfgfwTQttsYvL"
      } ],
      "disc_number" : 1,
      "duration_ms" : 135080,
      "explicit" : false,
      "external_ids" : {
        "isrc" : "USRJX0800305"
      },
      "external_urls" : {
        "spotify" : "https://open.spotify.com/track/3doB0QLA3LlT5xaAS1orlO"
      },
      "href" : "https://api.spotify.com/v1/tracks/3doB0QLA3LlT5xaAS1orlO",
      "id" : "3doB0QLA3LlT5xaAS1orlO",
      "is_local" : false,
      "is_playable" : true,
      "name" : "Chief Of Sinners",
      "popularity" : 3,
      "preview_url" : "https://p.scdn.co/mp3-preview/69ff28c6ac311dc8516abc52e77dad54d74e9c2d?cid=774b29d4f13844c495f206cafdad9c86",
      "track_number" : 5,
      "type" : "track",
      "uri" : "spotify:track:3doB0QLA3LlT5xaAS1orlO"
    } ],
    "limit" : 10,
    "next" : "https://api.spotify.com/v1/search?query=Chief+of+Sinners&type=track&market=US&offset=15&limit=10",
    "offset" : 5,
    "previous" : "https://api.spotify.com/v1/search?query=Chief+of+Sinners&type=track&market=US&offset=0&limit=10",
    "total" : 39
  }
}