{
  "tracks" : {
    "href" : "https://api.spotify.com/v1/search?query=Now+Thank+We+All+Our+God&type=track&market=US&offset=5&limit=10",
    "items" : [ {
      "album" : {
        "album_type" : "album",
        "artists" : [ {
          "external_urls" : {
            "spotify" : "https://open.spotify.com/artist/0bygw4YfrraeRWR6j9HydK"
          },
          "href" : "https://api.spotify.com/v1/artists/0bygw4YfrraeRWR6j9HydK",
          "id" : "0bygw4YfrraeRWR6j9HydK",
          "name" : "Maranatha! Instrumental",
          "type" : "artist",
          "uri" : "spotify:artist:0bygw4YfrraeRWR6j9HydK"
        } ],
        "external_urls" : {
          "spotify" : "https://open.spotify.com/album/42UleOeQIMY2YgJahzmBig"
        },
        "href" : "https://api.spotify.com/v1/albums/42UleOeQIMY2YgJahzmBig",
        "id" : "42UleOeQIMY2YgJahzmBig",
        "images" : [ {
          "height" : 640,
          "url" : "https://i.scdn.co/image/ab67616d0000b273c328abcd5769224e72492415",
          "width" : 640
        }, {
          "height" : 300,
          "url" : "https://i.scdn.co/image/ab67616d00001e02c328abcd5769224e72492415",
          "width" : 300
        }, {
          "height" : 64,
          "url" : "https://i.scdn.co/image/ab67616d00004851c328abcd5769224e72492415",
          "width" : 64
        } ],
        "name" : "Colours",
        "release_date" : "2011-01-01",
        "release_date_precision" : "day",
        "total_tracks" : 17,
        "type" : "album",
        "uri" : "spotify:album:42UleOeQIMY2YgJahzmBig"
      },
      "artists" : [ {
        "external_urls" : {
          "spotify" : "https://open.spotify.com/artist/0bygw4YfrraeRWR6j9HydK"
        },
        "href" : "https://api.spotify.com/v1/artists/0bygw4YfrraeRWR6j9HydK",
        "id" : "0bygw4YfrraeRWR6j9HydK",
        "name" : "Maranatha! Instrumental",
        "type" : "artist",
        "uri" : "spotify:artist:0bygw4YfrraeRWR6j9HydK"
      } ],
      "disc_number" : 1,
      "duration_ms" : 236893,
      "explicit" : false,
      "external_ids" : {
        "isrc" : "USMN21100111"
      },
      "external_urls" : {
        "spotify" : "https://open.spotify.com/track/4t72v8q35q5ttn6QaGMiVf"
      },
      "href" : "https://api.spotify.com/v1/tracks/4t72v8q35q5ttn6QaGMiVf",
      "id" : "4t72v8q35q5ttn6QaGMiVf",
      "is_local" : false,
      "is_playable" : true,
      "name" : "Now Thank We All Our God - Instrumental",
      "popularity" : 19,
      "preview_url" : null,
      "track_number" : 14,
      "type" : "track",
      "uri" : "spotify:track:4t72v8q35q5ttn6QaGMiVf"
    }, {
      "album" : {
        "album_type" : "album",
        "artists" : [ {
          "external_urls" : {
            "spotify" : "https://open.spotify.com/artist/7dc9jcxR0GgRMoNasStnmZ"
          },
          "href" : "https://api.spotify.com/v1/artists/7dc9jcxR0GgRMoNasStnmZ",
          "id" : "7dc9jcxR0GgRMoNasStnmZ",
          "name" : "David Baroni",
          "type" : "artist",
          "uri" : "spotify:artist:7dc9jcxR0GgRMoNasStnmZ"
        } ],
        "external_urls" : {
          "spotify" : "https://open.spotify.com/album/08oXj679XBuPtLB8IhOQ3T"
        },
        "href" : "https://api.spotify.com/v1/albums/08oXj679XBuPtLB8IhOQ3T",
        "id" : "08oXj679XBuPtLB8IhOQ3T",
        "images" : [ {
          "height" : 640,
          "url" : "https://i.scdn.co/image/ab67616d0000b273e8c8e557d36cf3577b8937b1",
          "width" : 640
        }, {
          "height" : 300,
          "url" : "https://i.scdn.co/image/ab67616d00001e02e8c8e557d36cf3577b8937b1",
          "width" : 300
        }, {
          "height" : 64,
          "url" : "https://i.scdn.co/image/ab67616d00004851e8c8e557d36cf3577b8937b1",
          "width" : 64
        } ],
        "name" : "A Quiet Place: Instrumental Hymns, Vol. IV",
        "release_date" : "2016-01-23",
        "release_date_precision" : "day",
        "total_tracks" : 13,
        "type" : "album",
        "uri" : "spotify:album:08oXj679XBuPtLB8IhOQ3T"
      },
      "artists" : [ {
        "external_urls" : {
          "spotify" : "https://open.spotify.com/artist/7dc9jcxR0GgRMoNasStnmZ"
        },
        "href" : "https://api.spotify.com/v1/artists/7dc9jcxR0GgRMoNasStnmZ",
        "id" : "7dc9jcxR0GgRMoNasStnmZ",
        "name" : "David Baroni",
        "type" : "artist",
        "uri" : "spotify:artist:7dc9jcxR0GgRMoNasStnmZ"
      } ],
      "disc_number" : 1,
      "duration_ms" : 147619,
      "explicit" : false,
      "external_ids" : {
        "isrc" : "uscgh1632166"
      },
      "external_urls" : {
        "spotify" : "https://open.spotify.com/track/0bR0lY6ashc5we2CBgUQBy"
      },
      "href" : "https://api.spotify.com/v1/tracks/0bR0lY6ashc5we2CBgUQBy",
      "id" : "0bR0lY6ashc5we2CBgUQBy",
      "is_local" : false,
      "is_playable" : true,
      "name" : "Now Thank We All Our God (Alternate Version)",
      "popularity" : 21,
      "preview_url" : "https://p.scdn.co/mp3-preview/670e1ee9aab06692113c19ce8b3da35cb7228dce?cid=774b29d4f13844c495f206cafdad9c86",
      "track_number" : 13,
      "type" : "track",
      "uri" : "spotify:track:0bR0lY6ashc5we2CBgUQBy"
    }, {
      "album" : {
        "album_type" : "album",
        "artists" : [ {
          "external_urls" : {
            "spotify" : "https://open.spotify.com/artist/0ugRf6ECGBFRCHlv9iG1No"
          },
          "href" : "https://api.spotify.com/v1/artists/0ugRf6ECGBFRCHlv9iG1No",
          "id" : "0ugRf6ECGBFRCHlv9iG1No",
          "name" : "Stephen Cleobury",
          "type" : "artist",
          "uri" : "spotify:artist:0ugRf6ECGBFRCHlv9iG1No"
        }, {
          "external_urls" : {
            "spotify" : "https://open.spotify.com/artist/0f3PsS9IQ6whvNMFFKnpjl"
          },
          "href" : "https://api.spotify.com/v1/artists/0f3PsS9IQ6whvNMFFKnpjl",
          "id" : "0f3PsS9IQ6whvNMFFKnpjl",
          "name" : "Choir of King's College, Cambridge",
          "type" : "artist",
          "uri" : "spotify:artist:0f3PsS9IQ6whvNMFFKnpjl"
        } ],
        "external_urls" : {
          "spotify" : "https://open.spotify.com/album/2OSUdVeIir9W6mbum8qaui"
        },
        "href" : "https://api.spotify.com/v1/albums/2OSUdVeIir9W6mbum8qaui",
        "id" : "2OSUdVeIir9W6mbum8qaui",
        "images" : [ {
          "height" : 640,
          "url" : "https://i.scdn.co/image/ab67616d0000b27330136c83c2e767dfc4626ace",
          "width" : 640
        }, {
          "height" : 300,
          "url" : "https://i.scdn.co/image/ab67616d00001e0230136c83c2e767dfc4626ace",
          "width" : 300
        }, {
          "height" : 64,
          "url" : "https://i.scdn.co/image/ab67616d0000485130136c83c2e767dfc4626ace",
          "width" : 64
        } ],
        "name" : "Hymns from King's",
        "release_date" : "2016-06-10",
        "release_date_precision" : "day",
        "total_tracks" : 20,
        "type" : "album",
        "uri" : "spotify:album:2OSUdVeIir9W6mbum8qaui"
      },
      "artists" : [ {
        "external_urls" : {
          "spotify" : "https://open.spotify.com/artist/5N6fbJD9HqUsA9Qql4m91R"
        },
        "href" : "https://api.spotify.com/v1/artists/5N6fbJD9HqUsA9Qql4m91R",
        "id" : "5N6fbJD9HqUsA9Qql4m91R",
        "name" : "Johann Crüger",
        "type" : "artist",
        "uri" : "spotify:artist:5N6fbJD9HqUsA9Qql4m91R"
      }, {
        "external_urls" : {
          "spotify" : "https://open.spotify.com/artist/0f3PsS9IQ6whvNMFFKnpjl"
        },
        "href" : "https://api.spotify.com/v1/artists/0f3PsS9IQ6whvNMFFKnpjl",
        "id" : "0f3PsS9IQ6whvNMFFKnpjl",
        "name" : "Choir of King's College, Cambridge",
        "type" : "artist",
        "uri" : "spotify:artist:0f3PsS9IQ6whvNMFFKnpjl"
      }, {
        "external_urls" : {
          "spotify" : "https://open.spotify.com/artist/0ugRf6ECGBFRCHlv9iG1No"
        },
        "href" : "https://api.spotify.com/v1/artists/0ugRf6ECGBFRCHlv9iG1No",
        "id" : "0ugRf6ECGBFRCHlv9iG1No",
        "name" : "Stephen Cleobury",
        "type" : "artist",
        "uri" : "spotify:artist:0ugRf6ECGBFRCHlv9iG1No"
      } ],
      "disc_number" : 1,
      "duration_ms" : 166640,
      "explicit" : false,
      "external_ids" : {
        "isrc" : "GBMY51501407"
      },
      "external_urls" : {
        "spotify" : "https://open.spotify.com/track/1PV2MW1T66bWeQUMwJhd9v"
      },
      "href" : "https://api.spotify.com/v1/tracks/1PV2MW1T66bWeQUMwJhd9v",
      "id" : "1PV2MW1T66bWeQUMwJhd9v",
      "is_local" : false,
      "is_playable" : true,
      "name" : "Now Thank We All Our God (Nun Danket Alle Gott)",
      "popularity" : 18,
      "preview_url" : "https://p.scdn.co/mp3-preview/ef80d655b4df392d16ee69e5e8b19f81c38c73ca?cid=774b29d4f13844c495f206cafdad9c86",
      "track_number" : 7,
      "type" : "track",
      "uri" : "spotify:track:1PV2MW1T66bWeQUMwJhd9v"
    }, {
      "album" : {
        "album_type" : "album",
        "artists" : [ {
          "external_urls" : {
            "spotify" : "https://open.spotify.com/artist/3E68XyTjrEOthkuojIrdvS"
          },
          "href" : "https://api.spotify.com/v1/artists/3E68XyTjrEOthkuojIrdvS",
          "id" : "3E68XyTjrEOthkuojIrdvS",
          "name" : "Ralf Klotz",
          "type" : "artist",
          "uri" : "spotify:artist:3E68XyTjrEOthkuojIrdvS"
        } ],
        "external_urls" : {
          "spotify" : "https://open.spotify.com/album/5e8uTfsTSpB2e02RSaiAzo"
        },
        "href" : "https://api.spotify.com/v1/albums/5e8uTfsTSpB2e02RSaiAzo",
        "id" : "5e8uTfsTSpB2e02RSaiAzo",
        "images" : [ {
          "height" : 640,
          "url" : "https://i.scdn.co/image/ab67616d0000b273e1869c38f17992711ef03bdc",
          "width" : 640
        }, {
          "height" : 300,
          "url" : "https://i.scdn.co/image/ab67616d00001e02e1869c38f17992711ef03bdc",
          "width" : 300
        }, {
          "height" : 64,
          "url" : "https://i.scdn.co/image/ab67616d00004851e1869c38f17992711ef03bdc",
          "width" : 64
        } ],
        "name" : "Great Organ volume 1 - Famous organ music of Baroque, Classical and Romantic period",
        "release_date" : "2020-05-29",
        "release_date_precision" : "day",
        "total_tracks" : 8,
        "type" : "album",
        "uri" : "spotify:album:5e8uTfsTSpB2e02RSaiAzo"
      },
      "artists" : [ {
        "external_urls" : {
          "spotify" : "https://open.spotify.com/artist/3E68XyTjrEOthkuojIrdvS"
        },
        "href" : "https://api.spotify.com/v1/artists/3E68XyTjrEOthkuojIrdvS",
        "id" : "3E68XyTjrEOthkuojIrdvS",
        "name" : "Ralf Klotz",
        "type" : "artist",
        "uri" : "spotify:artist:3E68XyTjrEOthkuojIrdvS"
      } ],
      "disc_number" : 1,
      "duration_ms" : 220866,
      "explicit" : false,
      "external_ids" : {
        "isrc" : "DEP551913661"
      },
      "external_urls" : {
        "spotify" : "https://open.spotify.com/track/5N3K7VxtjOVIccYWkAdH6z"
      },
      "href" : "https://api.spotify.com/v1/tracks/5N3K7VxtjOVIccYWkAdH6z",
      "id" : "5N3K7VxtjOVIccYWkAdH6z",
      "is_local" : false,
      "is_playable" : true,
      "name" : "Now thank we all our God / Nun danket alle Gott (Pomposo) op. 65",
      "popularity" : 0,
      "preview_url" : "https://p.scdn.co/mp3-preview/2a052825cacf7cbeff335bebb8f9d9bae838e3bd?cid=774b29d4f13844c495f206cafdad9c86",
      "track_number" : 6,
      "type" : "track",
      "uri" : "spotify:track:5N3K7VxtjOVIccYWkAdH6z"
    }, {
      "album" : {
        "album_type" : "compilation",
        "artists" : [ {
          "external_urls" : {
            "spotify" : "https://open.spotify.com/artist/0LyfQWJT6nXafLPZqxe9Of"
          },
          "href" : "https://api.spotify.com/v1/artists/0LyfQWJT6nXafLPZqxe9Of",
          "id" : "0LyfQWJT6nXafLPZqxe9Of",
          "name" : "Various Artists",
          "type" : "artist",
          "uri" : "spotify:artist:0LyfQWJT6nXafLPZqxe9Of"
        } ],
        "external_urls" : {
          "spotify" : "https://open.spotify.com/album/07LMRzrld6xw3RFQa7QdIM"
        },
        "href" : "https://api.spotify.com/v1/albums/07LMRzrld6xw3RFQa7QdIM",
        "id" : "07LMRzrld6xw3RFQa7QdIM",
        "images" : [ {
          "height" : 640,
          "url" : "https://i.scdn.co/image/ab67616d0000b27360e21edc414ff46c3ed933ab",
          "width" : 640
        }, {
          "height" : 300,
          "url" : "https://i.scdn.co/image/ab67616d00001e0260e21edc414ff46c3ed933ab",
          "width" : 300
        }, {
          "height" : 64,
          "url" : "https://i.scdn.co/image/ab67616d0000485160e21edc414ff46c3ed933ab",
          "width" : 64
        } ],
        "name" : "I Can Only Imagine: Lullabies For a Peaceful Rest",
        "release_date" : "2003",
        "release_date_precision" : "year",
        "total_tracks" : 15,
        "type" : "album",
        "uri" : "spotify:album:07LMRzrld6xw3RFQa7QdIM"
      },
      "artists" : [ {
        "external_urls" : {
          "spotify" : "https://open.spotify.com/artist/3YbsMbM4cB5hb2mcRigiab"
        },
        "href" : "https://api.spotify.com/v1/artists/3YbsMbM4cB5hb2mcRigiab",
        "id" : "3YbsMbM4cB5hb2mcRigiab",
        "name" : "Toni Becker",
        "type" : "artist",
        "uri" : "spotify:artist:3YbsMbM4cB5hb2mcRigiab"
      } ],
      "disc_number" : 1,
      "duration_ms" : 237586,
      "explicit" : false,
      "external_ids" : {
        "isrc" : "USM2C0328113"
      },
      "external_urls" : {
        "spotify" : "https://open.spotify.com/track/7oeD6biqR3L2iVrCL1XusZ"
      },
      "href" : "https://api.spotify.com/v1/tracks/7oeD6biqR3L2iVrCL1XusZ",
      "id" : "7oeD6biqR3L2iVrCL1XusZ",
      "is_local" : false,
      "is_playable" : true,
      "name" : "Now Thank We All Our God",
      "popularity" : 15,
      "preview_url" : "https://p.scdn.co/mp3-preview/267c3bd130f03aac36696783ec9c5ee726b82570?cid=774b29d4f13844c495f206cafdad9c86",
      "track_number" : 12,
      "type" : "track",
      "uri" : "spotify:track:7oeD6biqR3L2iVrCL1XusZ"
    }, {
      "album" : {
        "album_type" : "album",
        "artists" : [ {
          "external_urls" : {
            "spotify" : "https://open.spotify.com/artist/7dc9jcxR0GgRMoNasStnmZ"
          },
          "href" : "https://api.spotify.com/v1/artists/7dc9jcxR0GgRMoNasStnmZ",
          "id" : "7dc9jcxR0GgRMoNasStnmZ",
          "name" : "David Baroni",
          "type" : "artist",
          "uri" : "spotify:artist:7dc9jcxR0GgRMoNasStnmZ"
        } ],
        "external_urls" : {
          "spotify" : "https://open.spotify.com/album/08oXj679XBuPtLB8IhOQ3T"
        },
        "href" : "https://api.spotify.com/v1/albums/08oXj679XBuPtLB8IhOQ3T",
        "id" : "08oXj679XBuPtLB8IhOQ3T",
        "images" : [ {
          "height" : 640,
          "url" : "https://i.scdn.co/image/ab67616d0000b273e8c8e557d36cf3577b8937b1",
          "width" : 640
        }, {
          "height" : 300,
          "url" : "https://i.scdn.co/image/ab67616d00001e02e8c8e557d36cf3577b8937b1",
          "width" : 300
        }, {
          "height" : 64,
          "url" : "https://i.scdn.co/image/ab67616d00004851e8c8e557d36cf3577b8937b1",
          "width" : 64
        } ],
        "name" : "A Quiet Place: Instrumental Hymns, Vol. IV",
        "release_date" : "2016-01-23",
        "release_date_precision" : "day",
        "total_tracks" : 13,
        "type" : "album",
        "uri" : "spotify:album:08oXj679XBuPtLB8IhOQ3T"
      },
      "artists" : [ {
        "external_urls" : {
          "spotify" : "https://open.spotify.com/artist/7dc9jcxR0GgRMoNasStnmZ"
        },
        "href" : "https://api.spotify.com/v1/artists/7dc9jcxR0GgRMoNasStnmZ",
        "id" : "7dc9jcxR0GgRMoNasStnmZ",
        "name" : "David Baroni",
        "type" : "artist",
        "uri" : "spotify:artist:7dc9jcxR0GgRMoNasStnmZ"
      } ],
      "disc_number" : 1,
      "duration_ms" : 218444,
      "explicit" : false,
      "external_ids" : {
        "isrc" : "uscgh1632160"
      },
      "external_urls" : {
        "spotify" : "https://open.spotify.com/track/5NOObzecTdtN6ZlP33Zlta"
      },
      "href" : "https://api.spotify.com/v1/tracks/5NOObzecTdtN6ZlP33Zlta",
      "id" : "5NOObzecTdtN6ZlP33Zlta",
      "is_local" : false,
      "is_playable" : true,
      "name" : "Now Thank We All Our God",
      "popularity" : 19,
      "preview_url" : "https://p.scdn.co/mp3-preview/20d1e111cf8f84effa40c2c226475a961b588ee1?cid=774b29d4f13844c495f206cafdad9c86",
      "track_number" : 7,
      "type" : "track",
      "uri" : "spotify:track:5NOObzecTdtN6ZlP33Zlta"
    }, {
      "album" : {
        "album_type" : "album",
        "artists" : [ {
          "external_urls" : {
            "spotify" : "https://open.spotify.com/artist/0cylxW7HGdK9xMdubw2oYW"
          },
          "href" : "https://api.spotify.com/v1/artists/0cylxW7HGdK9xMdubw2oYW",
          "id" : "0cylxW7HGdK9xMdubw2oYW",
          "name" : "The O'Neill Brothers Group",
          "type" : "artist",
          "uri" : "spotify:artist:0cylxW7HGdK9xMdubw2oYW"
        } ],
        "external_urls" : {
          "spotify" : "https://open.spotify.com/album/22ks09J5vktysh0kHTIKZV"
        },
        "href" : "https://api.spotify.com/v1/albums/22ks09J5vktysh0kHTIKZV",
        "id" : "22ks09J5vktysh0kHTIKZV",
        "images" : [ {
          "height" : 640,
          "url" : "https://i.scdn.co/image/ab67616d0000b273e43a83b1e049047436b83978",
          "width" : 640
        }, {
          "height" : 300,
          "url" : "https://i.scdn.co/image/ab67616d00001e02e43a83b1e049047436b83978",
          "width" : 300
        }, {
          "height" : 64,
          "url" : "https://i.scdn.co/image/ab67616d00004851e43a83b1e049047436b83978",
          "width" : 64
        } ],
        "name" : "Catholic Piano Hymns",
        "release_date" : "2013-05-29",
        "release_date_precision" : "day",
        "total_tracks" : 20,
        "type" : "album",
        "uri" : "spotify:album:22ks09J5vktysh0kHTIKZV"
      },
      "artists" : [ {
        "external_urls" : {
          "spotify" : "https://open.spotify.com/artist/0cylxW7HGdK9xMdubw2oYW"
        },
        "href" : "https://api.spotify.com/v1/artists/0cylxW7HGdK9xMdubw2oYW",
        "id" : "0cylxW7HGdK9xMdubw2oYW",
        "name" : "The O'Neill Brothers Group",
        "type" : "artist",
        "uri" : "spotify:artist:0cylxW7HGdK9xMdubw2oYW"
      } ],
      "disc_number" : 1,
      "duration_ms" : 164640,
      "explicit" : false,
      "external_ids" : {
        "isrc" : "USA371630440"
      },
      "external_urls" : {
        "spotify" : "https://open.spotify.com/track/5t1LCPQnZE8GpLFPDxfFeP"
      },
      "href" : "https://api.spotify.com/v1/tracks/5t1LCPQnZE8GpLFPDxfFeP",
      "id" : "5t1LCPQnZE8GpLFPDxfFeP",
      "is_local" : false,
      "is_playable" : true,
      "name" : "Now Thank We All Our God",
      "popularity" : 15,
      "preview_url" : "https://p.scdn.co/mp3-preview/72a32b04d1a3093a0cda3d9ee33152ef1011fd35?cid=774b29d4f13844c495f206cafdad9c86",
      "track_number" : 15,
      "type" : "track",
      "uri" : "spotify:track:5t1LCPQnZE8GpLFPDxfFeP"
    }, {
      "album" : {
        "album_type" : "album",
        "artists" : [ {
          "external_urls" : {
            "spotify" : "https://open.spotify.com/artist/2eHl5z1I0fPtpBGH66qa0i"
          },
          "href" : "https://api.spotify.com/v1/artists/2eHl5z1I0fPtpBGH66qa0i",
          "id" : "2eHl5z1I0fPtpBGH66qa0i",
          "name" : "Mark Magnuson",
          "type" : "artist",
          "uri" : "spotify:artist:2eHl5z1I0fPtpBGH66qa0i"
        } ],
        "external_urls" : {
          "spotify" : "https://open.spotify.com/album/4FVb2bQdE6HhgdepzeSynC"
        },
        "href" : "https://api.spotify.com/v1/albums/4FVb2bQdE6HhgdepzeSynC",
        "id" : "4FVb2bQdE6HhgdepzeSynC",
        "images" : [ {
          "height" : 640,
          "url" : "https://i.scdn.co/image/ab67616d0000b273398db352d00da73afd452005",
          "width" : 640
        }, {
          "height" : 300,
          "url" : "https://i.scdn.co/image/ab67616d00001e02398db352d00da73afd452005",
          "width" : 300
        }, {
          "height" : 64,
          "url" : "https://i.scdn.co/image/ab67616d00004851398db352d00da73afd452005",
          "width" : 64
        } ],
        "name" : "Acoustic Wedding",
        "release_date" : "2006-05-02",
        "release_date_precision" : "day",
        "total_tracks" : 20,
        "type" : "album",
        "uri" : "spotify:album:4FVb2bQdE6HhgdepzeSynC"
      },
      "artists" : [ {
        "external_urls" : {
          "spotify" : "https://open.spotify.com/artist/2eHl5z1I0fPtpBGH66qa0i"
        },
        "href" : "https://api.spotify.com/v1/artists/2eHl5z1I0fPtpBGH66qa0i",
        "id" : "2eHl5z1I0fPtpBGH66qa0i",
        "name" : "Mark Magnuson",
        "type" : "artist",
        "uri" : "spotify:artist:2eHl5z1I0fPtpBGH66qa0i"
      } ],
      "disc_number" : 1,
      "duration_ms" : 144480,
      "explicit" : false,
      "external_ids" : {
        "isrc" : "uscgj0663792"
      },
      "external_urls" : {
        "spotify" : "https://open.spotify.com/track/5pM6TyysKJ2mMnFGU9u7o9"
      },
      "href" : "https://api.spotify.com/v1/tracks/5pM6TyysKJ2mMnFGU9u7o9",
      "id" : "5pM6TyysKJ2mMnFGU9u7o9",
      "is_local" : false,
      "is_playable" : true,
      "name" : "Now Thank We All Our God",
      "popularity" : 14,
      "preview_url" : "https://p.scdn.co/mp3-preview/e41da62ba1248a07ad1db99eae03242f73df889c?cid=774b29d4f13844c495f206cafdad9c86",
      "track_number" : 17,
      "type" : "track",
      "uri" : "spotify:track:5pM6TyysKJ2mMnFGU9u7o9"
    }, {
      "album" : {
        "album_type" : "album",
        "artists" : [ {
          "external_urls" : {
            "spotify" : "https://open.spotify.com/artist/1U5zgr455OGyIkLNXvDdrf"
          },
          "href" : "https://api.spotify.com/v1/artists/1U5zgr455OGyIkLNXvDdrf",
          "id" : "1U5zgr455OGyIkLNXvDdrf",
          "name" : "Traditional",
          "type" : "artist",
          "uri" : "spotify:artist:1U5zgr455OGyIkLNXvDdrf"
        }, {
          "external_urls" : {
            "spotify" : "https://open.spotify.com/artist/2igGYNAMmRUQ4nUfy0NGtN"
          },
          "href" : "https://api.spotify.com/v1/artists/2igGYNAMmRUQ4nUfy0NGtN",
          "id" : "2igGYNAMmRUQ4nUfy0NGtN",
          "name" : "London Philharmonic Concert Society",
          "type" : "artist",
          "uri" : "spotify:artist:2igGYNAMmRUQ4nUfy0NGtN"
        }, {
          "external_urls" : {
            "spotify" : "https://open.spotify.com/artist/0WIY8dfLqdsgKUKngzcjCm"
          },
          "href" : "https://api.spotify.com/v1/artists/0WIY8dfLqdsgKUKngzcjCm",
          "id" : "0WIY8dfLqdsgKUKngzcjCm",
          "name" : "John Alldis",
          "type" : "artist",
          "uri" : "spotify:artist:0WIY8dfLqdsgKUKngzcjCm"
        }, {
          "external_urls" : {
            "spotify" : "https://open.spotify.com/artist/3PfJE6ebCbCHeuqO4BfNeA"
          },
          "href" : "https://api.spotify.com/v1/artists/3PfJE6ebCbCHeuqO4BfNeA",
          "id" : "3PfJE6ebCbCHeuqO4BfNeA",
          "name" : "London Philharmonic Orchestra",
          "type" : "artist",
          "uri" : "spotify:artist:3PfJE6ebCbCHeuqO4BfNeA"
        } ],
        "external_urls" : {
          "spotify" : "https://open.spotify.com/album/7vJBLM3TaskMnpCV49NLpO"
        },
        "href" : "https://api.spotify.com/v1/albums/7vJBLM3TaskMnpCV49NLpO",
        "id" : "7vJBLM3TaskMnpCV49NLpO",
        "images" : [ {
          "height" : 640,
          "url" : "https://i.scdn.co/image/ab67616d0000b2732aa9eea501b86f2d5f8b0b45",
          "width" : 640
        }, {
          "height" : 300,
          "url" : "https://i.scdn.co/image/ab67616d00001e022aa9eea501b86f2d5f8b0b45",
          "width" : 300
        }, {
          "height" : 64,
          "url" : "https://i.scdn.co/image/ab67616d000048512aa9eea501b86f2d5f8b0b45",
          "width" : 64
        } ],
        "name" : "Hymns Triumphant",
        "release_date" : "1988-01-01",
        "release_date_precision" : "day",
        "total_tracks" : 39,
        "type" : "album",
        "uri" : "spotify:album:7vJBLM3TaskMnpCV49NLpO"
      },
      "artists" : [ {
        "external_urls" : {
          "spotify" : "https://open.spotify.com/artist/1U5zgr455OGyIkLNXvDdrf"
        },
        "href" : "https://api.spotify.com/v1/artists/1U5zgr455OGyIkLNXvDdrf",
        "id" : "1U5zgr455OGyIkLNXvDdrf",
        "name" : "Traditional",
        "type" : "artist",
        "uri" : "spotify:artist:1U5zgr455OGyIkLNXvDdrf"
      }, {
        "external_urls" : {
          "spotify" : "https://open.spotify.com/artist/7GUhTBqD7CAbbIjjBd0SdN"
        },
        "href" : "https://api.spotify.com/v1/artists/7GUhTBqD7CAbbIjjBd0SdN",
        "id" : "7GUhTBqD7CAbbIjjBd0SdN",
        "name" : "London Philharmonic Choir",
        "type" : "artist",
        "uri" : "spotify:artist:7GUhTBqD7CAbbIjjBd0SdN"
      }, {
        "external_urls" : {
          "spotify" : "https://open.spotify.com/artist/0WIY8dfLqdsgKUKngzcjCm"
        },
        "href" : "https://api.spotify.com/v1/artists/0WIY8dfLqdsgKUKngzcjCm",
        "id" : "0WIY8dfLqdsgKUKngzcjCm",
        "name" : "John Alldis",
        "type" : "artist",
        "uri" : "spotify:artist:0WIY8dfLqdsgKUKngzcjCm"
      }, {
        "external_urls" : {
          "spotify" : "https://open.spotify.com/artist/2Ek1WGW7WeyDoxsZiu0AAd"
        },
        "href" : "https://api.spotify.com/v1/artists/2Ek1WGW7WeyDoxsZiu0AAd",
        "id" : "2Ek1WGW7WeyDoxsZiu0AAd",
        "name" : "National Philharmonic Orchestra",
        "type" : "artist",
        "uri" : "spotify:artist:2Ek1WGW7WeyDoxsZiu0AAd"
      } ],
      "disc_number" : 1,
      "duration_ms" : 159826,
      "explicit" : false,
      "external_ids" : {
        "isrc" : "USSP38847118"
      },
      "external_urls" : {
        "spotify" : "https://open.spotify.com/track/0Ffq9mPtZLLPSs3Sybn8KQ"
      },
      "href" : "https://api.spotify.com/v1/tracks/0Ffq9mPtZLLPSs3Sybn8KQ",
      "id" : "0Ffq9mPtZLLPSs3Sybn8KQ",
      "is_local" : false,
      "is_playable" : true,
      "name" : "Now Thank We All Our God",
      "popularity" : 13,
      "preview_url" : null,
      "track_number" : 22,
      "type" : "track",
      "uri" : "spotify:track:0Ffq9mPtZLLPSs3Sybn8KQ"
    }, {
      "album" : {
        "album_type" : "album",
        "artists" : [ {
          "external_urls" : {
            "spotify" : "https://open.spotify.com/artist/6fPNPLKhuTjgFjbeFSo8Sq"
          },
          "href" : "https://api.spotify.com/v1/artists/6fPNPLKhuTjgFjbeFSo8Sq",
          "id" : "6fPNPLKhuTjgFjbeFSo8Sq",
          "name" : "Hope Hymns",
          "type" : "artist",
          "uri" : "spotify:artist:6fPNPLKhuTjgFjbeFSo8Sq"
        } ],
        "external_urls" : {
          "spotify" : "https://open.spotify.com/album/7bFIYMD5yXDeeUZAMqOR5O"
        },
        "href" : "https://api.spotify.com/v1/albums/7bFIYMD5yXDeeUZAMqOR5O",
        "id" : "7bFIYMD5yXDeeUZAMqOR5O",
        "images" : [ {
          "height" : 640,
          "url" : "https://i.scdn.co/image/ab67616d0000b273ff777c739f2e034cfd10ae45",
          "width" : 640
        }, {
          "height" : 300,
          "url" : "https://i.scdn.co/image/ab67616d00001e02ff777c739f2e034cfd10ae45",
          "width" : 300
        }, {
          "height" : 64,
          "url" : "https://i.scdn.co/image/ab67616d00004851ff777c739f2e034cfd10ae45",
          "width" : 64
        } ],
        "name" : "Vol. III",
        "release_date" : "2017-12-08",
        "release_date_precision" : "day",
        "total_tracks" : 12,
        "type" : "album",
        "uri" : "spotify:album:7bFIYMD5yXDeeUZAMqOR5O"
      },
      "artists" : [ {
        "external_urls" : {
          "spotify" : "https://open.spotify.com/artist/6fPNPLKhuTjgFjbeFSo8Sq"
        },
        "href" : "https://api.spotify.com/v1/artists/6fPNPLKhuTjgFjbeFSo8Sq",
        "id" : "6fPNPLKhuTjgFjbeFSo8Sq",
        "name" : "Hope Hymns",
        "type" : "artist",
        "uri" : "spotify:artist:6fPNPLKhuTjgFjbeFSo8Sq"
      } ],
      "disc_number" : 1,
      "duration_ms" : 206626,
      "explicit" : false,
      "external_ids" : {
        "isrc" : "ushm91775180"
      },
      "external_urls" : {
        "spotify" : "https://open.spotify.com/track/44CyNTB23uDL36emrBxq3n"
      },
      "href" : "https://api.spotify.com/v1/tracks/44CyNTB23uDL36emrBxq3n",
      "id" : "44CyNTB23uDL36emrBxq3n",
      "is_local" : false,
      "is_playable" : true,
      "name" : "Now Thank We All Our God",
      "popularity" : 9,
      "preview_url" : "https://p.scdn.co/mp3-preview/8057fa6dc027e31be01b51ac4b06fd4cf46a7eb0?cid=774b29d4f13844c495f206cafdad9c86",
      "track_number" : 9,
      "type" : "track",
      "uri" : "spotify:track:44CyNTB23uDL36emrBxq3n"
    } ],
    "limit" : 10,
    "next" : "https://api.spotify.com/v1/search?query=Now+Thank+We+All+Our+God&type=track&market=US&offset=15&limit=10",
    "offset" : 5,
    "previous" : "https://api.spotify.com/v1/search?query=Now+Thank+We+All+Our+God&type=track&market=US&offset=0&limit=10",
    "total" : 447
  }
}