{
  "tracks" : {
    "href" : "https://api.spotify.com/v1/search?query=Worthy%2C+Worthy+is+the+Lamb&type=track&market=US&offset=5&limit=10",
    "items" : [ {
      "album" : {
        "album_type" : "album",
        "artists" : [ {
          "external_urls" : {
            "spotify" : "https://open.spotify.com/artist/6oGDuzaxim1teeU1yjhokP"
          },
          "href" : "https://api.spotify.com/v1/artists/6oGDuzaxim1teeU1yjhokP",
          "id" : "6oGDuzaxim1teeU1yjhokP",
          "name" : "Christian Music For Babies From I’m In Records",
          "type" : "artist",
          "uri" : "spotify:artist:6oGDuzaxim1teeU1yjhokP"
        } ],
        "external_urls" : {
          "spotify" : "https://open.spotify.com/album/0mY9y3qULyUHxWfBsHbzE8"
        },
        "href" : "https://api.spotify.com/v1/albums/0mY9y3qULyUHxWfBsHbzE8",
        "id" : "0mY9y3qULyUHxWfBsHbzE8",
        "images" : [ {
          "height" : 640,
          "url" : "https://i.scdn.co/image/ab67616d0000b2735441928fe0f708baebd0c6e9",
          "width" : 640
        }, {
          "height" : 300,
          "url" : "https://i.scdn.co/image/ab67616d00001e025441928fe0f708baebd0c6e9",
          "width" : 300
        }, {
          "height" : 64,
          "url" : "https://i.scdn.co/image/ab67616d000048515441928fe0f708baebd0c6e9",
          "width" : 64
        } ],
        "name" : "Lullaby Versions of Hillsong (Volume 1)",
        "release_date" : "2016-04-12",
        "release_date_precision" : "day",
        "total_tracks" : 10,
        "type" : "album",
        "uri" : "spotify:album:0mY9y3qULyUHxWfBsHbzE8"
      },
      "artists" : [ {
        "external_urls" : {
          "spotify" : "https://open.spotify.com/artist/6oGDuzaxim1teeU1yjhokP"
        },
        "href" : "https://api.spotify.com/v1/artists/6oGDuzaxim1teeU1yjhokP",
        "id" : "6oGDuzaxim1teeU1yjhokP",
        "name" : "Christian Music For Babies From I’m In Records",
        "type" : "artist",
        "uri" : "spotify:artist:6oGDuzaxim1teeU1yjhokP"
      } ],
      "disc_number" : 1,
      "duration_ms" : 338628,
      "explicit" : false,
      "external_ids" : {
        "isrc" : "BRITK1600312"
      },
      "external_urls" : {
        "spotify" : "https://open.spotify.com/track/5RWIIMjjUQUEAfEihiCWVk"
      },
      "href" : "https://api.spotify.com/v1/tracks/5RWIIMjjUQUEAfEihiCWVk",
      "id" : "5RWIIMjjUQUEAfEihiCWVk",
      "is_local" : false,
      "is_playable" : true,
      "name" : "Worthy Is The Lamb - Lullaby Version",
      "popularity" : 35,
      "preview_url" : "https://p.scdn.co/mp3-preview/19810f4e1127847c28eea1ae1da869525eeed0f3?cid=774b29d4f13844c495f206cafdad9c86",
      "track_number" : 2,
      "type" : "track",
      "uri" : "spotify:track:5RWIIMjjUQUEAfEihiCWVk"
    }, {
      "album" : {
        "album_type" : "album",
        "artists" : [ {
          "external_urls" : {
            "spotify" : "https://open.spotify.com/artist/67OFzndMlzj7cDF2BqnwYe"
          },
          "href" : "https://api.spotify.com/v1/artists/67OFzndMlzj7cDF2BqnwYe",
          "id" : "67OFzndMlzj7cDF2BqnwYe",
          "name" : "Maranatha! Music",
          "type" : "artist",
          "uri" : "spotify:artist:67OFzndMlzj7cDF2BqnwYe"
        } ],
        "external_urls" : {
          "spotify" : "https://open.spotify.com/album/44uMUPRCz28305p2k2TU6N"
        },
        "href" : "https://api.spotify.com/v1/albums/44uMUPRCz28305p2k2TU6N",
        "id" : "44uMUPRCz28305p2k2TU6N",
        "images" : [ {
          "height" : 640,
          "url" : "https://i.scdn.co/image/ab67616d0000b273929ce61cfa2ed51f4f64ba4d",
          "width" : 640
        }, {
          "height" : 300,
          "url" : "https://i.scdn.co/image/ab67616d00001e02929ce61cfa2ed51f4f64ba4d",
          "width" : 300
        }, {
          "height" : 64,
          "url" : "https://i.scdn.co/image/ab67616d00004851929ce61cfa2ed51f4f64ba4d",
          "width" : 64
        } ],
        "name" : "Top 100 Praise & Worship Songs 2012 Edition",
        "release_date" : "2012-01-01",
        "release_date_precision" : "day",
        "total_tracks" : 100,
        "type" : "album",
        "uri" : "spotify:album:44uMUPRCz28305p2k2TU6N"
      },
      "artists" : [ {
        "external_urls" : {
          "spotify" : "https://open.spotify.com/artist/67OFzndMlzj7cDF2BqnwYe"
        },
        "href" : "https://api.spotify.com/v1/artists/67OFzndMlzj7cDF2BqnwYe",
        "id" : "67OFzndMlzj7cDF2BqnwYe",
        "name" : "Maranatha! Music",
        "type" : "artist",
        "uri" : "spotify:artist:67OFzndMlzj7cDF2BqnwYe"
      } ],
      "disc_number" : 1,
      "duration_ms" : 318306,
      "explicit" : false,
      "external_ids" : {
        "isrc" : "USTVU1104540"
      },
      "external_urls" : {
        "spotify" : "https://open.spotify.com/track/0W6FiBRSKkbsvCrAbgrptU"
      },
      "href" : "https://api.spotify.com/v1/tracks/0W6FiBRSKkbsvCrAbgrptU",
      "id" : "0W6FiBRSKkbsvCrAbgrptU",
      "is_local" : false,
      "is_playable" : true,
      "name" : "Worthy Is The Lamb",
      "popularity" : 38,
      "preview_url" : null,
      "track_number" : 84,
      "type" : "track",
      "uri" : "spotify:track:0W6FiBRSKkbsvCrAbgrptU"
    }, {
      "album" : {
        "album_type" : "compilation",
        "artists" : [ {
          "external_urls" : {
            "spotify" : "https://open.spotify.com/artist/3SgHzT552wy2W8pNLaLk24"
          },
          "href" : "https://api.spotify.com/v1/artists/3SgHzT552wy2W8pNLaLk24",
          "id" : "3SgHzT552wy2W8pNLaLk24",
          "name" : "Hillsong Worship",
          "type" : "artist",
          "uri" : "spotify:artist:3SgHzT552wy2W8pNLaLk24"
        } ],
        "external_urls" : {
          "spotify" : "https://open.spotify.com/album/7q1lO2aZ4AJaUJlhljUfst"
        },
        "href" : "https://api.spotify.com/v1/albums/7q1lO2aZ4AJaUJlhljUfst",
        "id" : "7q1lO2aZ4AJaUJlhljUfst",
        "images" : [ {
          "height" : 640,
          "url" : "https://i.scdn.co/image/ab67616d0000b273e98d8cdfec28167ad28d4e99",
          "width" : 640
        }, {
          "height" : 300,
          "url" : "https://i.scdn.co/image/ab67616d00001e02e98d8cdfec28167ad28d4e99",
          "width" : 300
        }, {
          "height" : 64,
          "url" : "https://i.scdn.co/image/ab67616d00004851e98d8cdfec28167ad28d4e99",
          "width" : 64
        } ],
        "name" : "The Very Best Of Hillsong Live",
        "release_date" : "2010-05-18",
        "release_date_precision" : "day",
        "total_tracks" : 17,
        "type" : "album",
        "uri" : "spotify:album:7q1lO2aZ4AJaUJlhljUfst"
      },
      "artists" : [ {
        "external_urls" : {
          "spotify" : "https://open.spotify.com/artist/3SgHzT552wy2W8pNLaLk24"
        },
        "href" : "https://api.spotify.com/v1/artists/3SgHzT552wy2W8pNLaLk24",
        "id" : "3SgHzT552wy2W8pNLaLk24",
        "name" : "Hillsong Worship",
        "type" : "artist",
        "uri" : "spotify:artist:3SgHzT552wy2W8pNLaLk24"
      } ],
      "disc_number" : 1,
      "duration_ms" : 360053,
      "explicit" : false,
      "external_ids" : {
        "isrc" : "AUHS01003404"
      },
      "external_urls" : {
        "spotify" : "https://open.spotify.com/track/13UEvo5GzRpjLWxq949anQ"
      },
      "href" : "https://api.spotify.com/v1/tracks/13UEvo5GzRpjLWxq949anQ",
      "id" : "13UEvo5GzRpjLWxq949anQ",
      "is_local" : false,
      "is_playable" : true,
      "name" : "Worthy Is The Lamb - Live / The Very Best Of Hillsong Live Album Version",
      "popularity" : 27,
      "preview_url" : null,
      "track_number" : 5,
      "type" : "track",
      "uri" : "spotify:track:13UEvo5GzRpjLWxq949anQ"
    }, {
      "album" : {
        "album_type" : "single",
        "artists" : [ {
          "external_urls" : {
            "spotify" : "https://open.spotify.com/artist/4q7PS6zi0CyrEo23orQCkW"
          },
          "href" : "https://api.spotify.com/v1/artists/4q7PS6zi0CyrEo23orQCkW",
          "id" : "4q7PS6zi0CyrEo23orQCkW",
          "name" : "Travis Cottrell",
          "type" : "artist",
          "uri" : "spotify:artist:4q7PS6zi0CyrEo23orQCkW"
        } ],
        "external_urls" : {
          "spotify" : "https://open.spotify.com/album/372aWhpJJgS8Cu3mjr92C3"
        },
        "href" : "https://api.spotify.com/v1/albums/372aWhpJJgS8Cu3mjr92C3",
        "id" : "372aWhpJJgS8Cu3mjr92C3",
        "images" : [ {
          "height" : 640,
          "url" : "https://i.scdn.co/image/ab67616d0000b2734a7ef122e49733e796711fd1",
          "width" : 640
        }, {
          "height" : 300,
          "url" : "https://i.scdn.co/image/ab67616d00001e024a7ef122e49733e796711fd1",
          "width" : 300
        }, {
          "height" : 64,
          "url" : "https://i.scdn.co/image/ab67616d000048514a7ef122e49733e796711fd1",
          "width" : 64
        } ],
        "name" : "Worthy Is the Lamb / Crown Him With Many Crowns (Audio Performance Trax)",
        "release_date" : "2013",
        "release_date_precision" : "year",
        "total_tracks" : 5,
        "type" : "album",
        "uri" : "spotify:album:372aWhpJJgS8Cu3mjr92C3"
      },
      "artists" : [ {
        "external_urls" : {
          "spotify" : "https://open.spotify.com/artist/4q7PS6zi0CyrEo23orQCkW"
        },
        "href" : "https://api.spotify.com/v1/artists/4q7PS6zi0CyrEo23orQCkW",
        "id" : "4q7PS6zi0CyrEo23orQCkW",
        "name" : "Travis Cottrell",
        "type" : "artist",
        "uri" : "spotify:artist:4q7PS6zi0CyrEo23orQCkW"
      }, {
        "external_urls" : {
          "spotify" : "https://open.spotify.com/artist/064G0EZp2BVEjXfZR6bKZm"
        },
        "href" : "https://api.spotify.com/v1/artists/064G0EZp2BVEjXfZR6bKZm",
        "id" : "064G0EZp2BVEjXfZR6bKZm",
        "name" : "Angela Cruz",
        "type" : "artist",
        "uri" : "spotify:artist:064G0EZp2BVEjXfZR6bKZm"
      } ],
      "disc_number" : 1,
      "duration_ms" : 411466,
      "explicit" : false,
      "external_ids" : {
        "isrc" : "USSM10310688"
      },
      "external_urls" : {
        "spotify" : "https://open.spotify.com/track/3xii3C8i9jNgg5jQgGIViE"
      },
      "href" : "https://api.spotify.com/v1/tracks/3xii3C8i9jNgg5jQgGIViE",
      "id" : "3xii3C8i9jNgg5jQgGIViE",
      "is_local" : false,
      "is_playable" : true,
      "name" : "Medley: Worthy Is the Lamb / Crown Him With Many Crowns",
      "popularity" : 35,
      "preview_url" : "https://p.scdn.co/mp3-preview/29d7bb1b536af6d41d2fe0c0e5177909e0742466?cid=774b29d4f13844c495f206cafdad9c86",
      "track_number" : 5,
      "type" : "track",
      "uri" : "spotify:track:3xii3C8i9jNgg5jQgGIViE"
    }, {
      "album" : {
        "album_type" : "album",
        "artists" : [ {
          "external_urls" : {
            "spotify" : "https://open.spotify.com/artist/2fizYQ6PTbXb0JFOiDZJ63"
          },
          "href" : "https://api.spotify.com/v1/artists/2fizYQ6PTbXb0JFOiDZJ63",
          "id" : "2fizYQ6PTbXb0JFOiDZJ63",
          "name" : "Judson Mancebo",
          "type" : "artist",
          "uri" : "spotify:artist:2fizYQ6PTbXb0JFOiDZJ63"
        } ],
        "external_urls" : {
          "spotify" : "https://open.spotify.com/album/3McSEw9BqgDtHEp5HdKiEu"
        },
        "href" : "https://api.spotify.com/v1/albums/3McSEw9BqgDtHEp5HdKiEu",
        "id" : "3McSEw9BqgDtHEp5HdKiEu",
        "images" : [ {
          "height" : 640,
          "url" : "https://i.scdn.co/image/ab67616d0000b2730f40309e1086e745f74529a2",
          "width" : 640
        }, {
          "height" : 300,
          "url" : "https://i.scdn.co/image/ab67616d00001e020f40309e1086e745f74529a2",
          "width" : 300
        }, {
          "height" : 64,
          "url" : "https://i.scdn.co/image/ab67616d000048510f40309e1086e745f74529a2",
          "width" : 64
        } ],
        "name" : "Just for Babies: Lullaby Renditions of Hillsong",
        "release_date" : "2015-04-29",
        "release_date_precision" : "day",
        "total_tracks" : 10,
        "type" : "album",
        "uri" : "spotify:album:3McSEw9BqgDtHEp5HdKiEu"
      },
      "artists" : [ {
        "external_urls" : {
          "spotify" : "https://open.spotify.com/artist/2fizYQ6PTbXb0JFOiDZJ63"
        },
        "href" : "https://api.spotify.com/v1/artists/2fizYQ6PTbXb0JFOiDZJ63",
        "id" : "2fizYQ6PTbXb0JFOiDZJ63",
        "name" : "Judson Mancebo",
        "type" : "artist",
        "uri" : "spotify:artist:2fizYQ6PTbXb0JFOiDZJ63"
      } ],
      "disc_number" : 1,
      "duration_ms" : 358771,
      "explicit" : false,
      "external_ids" : {
        "isrc" : "BRITK0900007"
      },
      "external_urls" : {
        "spotify" : "https://open.spotify.com/track/5BM43WncB1UK3P22Q62DGS"
      },
      "href" : "https://api.spotify.com/v1/tracks/5BM43WncB1UK3P22Q62DGS",
      "id" : "5BM43WncB1UK3P22Q62DGS",
      "is_local" : false,
      "is_playable" : true,
      "name" : "Worthy Is The Lamb",
      "popularity" : 38,
      "preview_url" : "https://p.scdn.co/mp3-preview/266443dcd02921d3854206a02ae166a082b32e74?cid=774b29d4f13844c495f206cafdad9c86",
      "track_number" : 7,
      "type" : "track",
      "uri" : "spotify:track:5BM43WncB1UK3P22Q62DGS"
    }, {
      "album" : {
        "album_type" : "album",
        "artists" : [ {
          "external_urls" : {
            "spotify" : "https://open.spotify.com/artist/6oGDuzaxim1teeU1yjhokP"
          },
          "href" : "https://api.spotify.com/v1/artists/6oGDuzaxim1teeU1yjhokP",
          "id" : "6oGDuzaxim1teeU1yjhokP",
          "name" : "Christian Music For Babies From I’m In Records",
          "type" : "artist",
          "uri" : "spotify:artist:6oGDuzaxim1teeU1yjhokP"
        } ],
        "external_urls" : {
          "spotify" : "https://open.spotify.com/album/0rChVqYfd7L4MDE5gJ49oL"
        },
        "href" : "https://api.spotify.com/v1/albums/0rChVqYfd7L4MDE5gJ49oL",
        "id" : "0rChVqYfd7L4MDE5gJ49oL",
        "images" : [ {
          "height" : 640,
          "url" : "https://i.scdn.co/image/ab67616d0000b2733d7b81533c3c81705d4476d0",
          "width" : 640
        }, {
          "height" : 300,
          "url" : "https://i.scdn.co/image/ab67616d00001e023d7b81533c3c81705d4476d0",
          "width" : 300
        }, {
          "height" : 64,
          "url" : "https://i.scdn.co/image/ab67616d000048513d7b81533c3c81705d4476d0",
          "width" : 64
        } ],
        "name" : "Baby Worship (Piano Lullabies)",
        "release_date" : "2017-04-05",
        "release_date_precision" : "day",
        "total_tracks" : 14,
        "type" : "album",
        "uri" : "spotify:album:0rChVqYfd7L4MDE5gJ49oL"
      },
      "artists" : [ {
        "external_urls" : {
          "spotify" : "https://open.spotify.com/artist/6oGDuzaxim1teeU1yjhokP"
        },
        "href" : "https://api.spotify.com/v1/artists/6oGDuzaxim1teeU1yjhokP",
        "id" : "6oGDuzaxim1teeU1yjhokP",
        "name" : "Christian Music For Babies From I’m In Records",
        "type" : "artist",
        "uri" : "spotify:artist:6oGDuzaxim1teeU1yjhokP"
      } ],
      "disc_number" : 1,
      "duration_ms" : 362790,
      "explicit" : false,
      "external_ids" : {
        "isrc" : "BRITK1702143"
      },
      "external_urls" : {
        "spotify" : "https://open.spotify.com/track/0tTbFsLbLW4CbDAoSHQJUg"
      },
      "href" : "https://api.spotify.com/v1/tracks/0tTbFsLbLW4CbDAoSHQJUg",
      "id" : "0tTbFsLbLW4CbDAoSHQJUg",
      "is_local" : false,
      "is_playable" : true,
      "name" : "Worthy Is the Lamb",
      "popularity" : 32,
      "preview_url" : "https://p.scdn.co/mp3-preview/bdbdf8d84b0529a118a9220be2d251e374dade15?cid=774b29d4f13844c495f206cafdad9c86",
      "track_number" : 12,
      "type" : "track",
      "uri" : "spotify:track:0tTbFsLbLW4CbDAoSHQJUg"
    }, {
      "album" : {
        "album_type" : "album",
        "artists" : [ {
          "external_urls" : {
            "spotify" : "https://open.spotify.com/artist/6oGDuzaxim1teeU1yjhokP"
          },
          "href" : "https://api.spotify.com/v1/artists/6oGDuzaxim1teeU1yjhokP",
          "id" : "6oGDuzaxim1teeU1yjhokP",
          "name" : "Christian Music For Babies From I’m In Records",
          "type" : "artist",
          "uri" : "spotify:artist:6oGDuzaxim1teeU1yjhokP"
        } ],
        "external_urls" : {
          "spotify" : "https://open.spotify.com/album/0vwpyEFaefxgnSTRCuEdxF"
        },
        "href" : "https://api.spotify.com/v1/albums/0vwpyEFaefxgnSTRCuEdxF",
        "id" : "0vwpyEFaefxgnSTRCuEdxF",
        "images" : [ {
          "height" : 640,
          "url" : "https://i.scdn.co/image/ab67616d0000b273e8e40cfa9be98cd91cadf045",
          "width" : 640
        }, {
          "height" : 300,
          "url" : "https://i.scdn.co/image/ab67616d00001e02e8e40cfa9be98cd91cadf045",
          "width" : 300
        }, {
          "height" : 64,
          "url" : "https://i.scdn.co/image/ab67616d00004851e8e40cfa9be98cd91cadf045",
          "width" : 64
        } ],
        "name" : "Praise and Worship Lullabies",
        "release_date" : "2016-07-26",
        "release_date_precision" : "day",
        "total_tracks" : 10,
        "type" : "album",
        "uri" : "spotify:album:0vwpyEFaefxgnSTRCuEdxF"
      },
      "artists" : [ {
        "external_urls" : {
          "spotify" : "https://open.spotify.com/artist/6oGDuzaxim1teeU1yjhokP"
        },
        "href" : "https://api.spotify.com/v1/artists/6oGDuzaxim1teeU1yjhokP",
        "id" : "6oGDuzaxim1teeU1yjhokP",
        "name" : "Christian Music For Babies From I’m In Records",
        "type" : "artist",
        "uri" : "spotify:artist:6oGDuzaxim1teeU1yjhokP"
      } ],
      "disc_number" : 1,
      "duration_ms" : 338628,
      "explicit" : false,
      "external_ids" : {
        "isrc" : "BRITK1600312"
      },
      "external_urls" : {
        "spotify" : "https://open.spotify.com/track/2pMd08FPrB1BUwRYHCMRJp"
      },
      "href" : "https://api.spotify.com/v1/tracks/2pMd08FPrB1BUwRYHCMRJp",
      "id" : "2pMd08FPrB1BUwRYHCMRJp",
      "is_local" : false,
      "is_playable" : true,
      "name" : "Worthy Is the Lamb - Lullaby Version",
      "popularity" : 32,
      "preview_url" : "https://p.scdn.co/mp3-preview/19810f4e1127847c28eea1ae1da869525eeed0f3?cid=774b29d4f13844c495f206cafdad9c86",
      "track_number" : 1,
      "type" : "track",
      "uri" : "spotify:track:2pMd08FPrB1BUwRYHCMRJp"
    }, {
      "album" : {
        "album_type" : "album",
        "artists" : [ {
          "external_urls" : {
            "spotify" : "https://open.spotify.com/artist/6ZLy8YFk7VbamsI5qbYXtw"
          },
          "href" : "https://api.spotify.com/v1/artists/6ZLy8YFk7VbamsI5qbYXtw",
          "id" : "6ZLy8YFk7VbamsI5qbYXtw",
          "name" : "Darlene Zschech",
          "type" : "artist",
          "uri" : "spotify:artist:6ZLy8YFk7VbamsI5qbYXtw"
        } ],
        "external_urls" : {
          "spotify" : "https://open.spotify.com/album/5nl4wytHSeMq1mav6wty9b"
        },
        "href" : "https://api.spotify.com/v1/albums/5nl4wytHSeMq1mav6wty9b",
        "id" : "5nl4wytHSeMq1mav6wty9b",
        "images" : [ {
          "height" : 640,
          "url" : "https://i.scdn.co/image/ab67616d0000b2736c0e6f06742544d92270b41b",
          "width" : 640
        }, {
          "height" : 300,
          "url" : "https://i.scdn.co/image/ab67616d00001e026c0e6f06742544d92270b41b",
          "width" : 300
        }, {
          "height" : 64,
          "url" : "https://i.scdn.co/image/ab67616d000048516c0e6f06742544d92270b41b",
          "width" : 64
        } ],
        "name" : "In Jesus' Name: A Legacy of Worship & Faith",
        "release_date" : "2015-02-08",
        "release_date_precision" : "day",
        "total_tracks" : 14,
        "type" : "album",
        "uri" : "spotify:album:5nl4wytHSeMq1mav6wty9b"
      },
      "artists" : [ {
        "external_urls" : {
          "spotify" : "https://open.spotify.com/artist/6ZLy8YFk7VbamsI5qbYXtw"
        },
        "href" : "https://api.spotify.com/v1/artists/6ZLy8YFk7VbamsI5qbYXtw",
        "id" : "6ZLy8YFk7VbamsI5qbYXtw",
        "name" : "Darlene Zschech",
        "type" : "artist",
        "uri" : "spotify:artist:6ZLy8YFk7VbamsI5qbYXtw"
      } ],
      "disc_number" : 1,
      "duration_ms" : 375767,
      "explicit" : false,
      "external_ids" : {
        "isrc" : "AUHS00401951"
      },
      "external_urls" : {
        "spotify" : "https://open.spotify.com/track/1rrrhft8zR86O21JR7eV0b"
      },
      "href" : "https://api.spotify.com/v1/tracks/1rrrhft8zR86O21JR7eV0b",
      "id" : "1rrrhft8zR86O21JR7eV0b",
      "is_local" : false,
      "is_playable" : true,
      "name" : "Worthy Is the Lamb - Live",
      "popularity" : 35,
      "preview_url" : "https://p.scdn.co/mp3-preview/3978bb3ef14612395c298df91e9f3d15eb530dbc?cid=774b29d4f13844c495f206cafdad9c86",
      "track_number" : 4,
      "type" : "track",
      "uri" : "spotify:track:1rrrhft8zR86O21JR7eV0b"
    }, {
      "album" : {
        "album_type" : "album",
        "artists" : [ {
          "external_urls" : {
            "spotify" : "https://open.spotify.com/artist/2ndyVAdV9UqF1XjyTJt484"
          },
          "href" : "https://api.spotify.com/v1/artists/2ndyVAdV9UqF1XjyTJt484",
          "id" : "2ndyVAdV9UqF1XjyTJt484",
          "name" : "Fred Hammond",
          "type" : "artist",
          "uri" : "spotify:artist:2ndyVAdV9UqF1XjyTJt484"
        } ],
        "external_urls" : {
          "spotify" : "https://open.spotify.com/album/2lC14ntR7i7DrUWKVcJd8I"
        },
        "href" : "https://api.spotify.com/v1/albums/2lC14ntR7i7DrUWKVcJd8I",
        "id" : "2lC14ntR7i7DrUWKVcJd8I",
        "images" : [ {
          "height" : 640,
          "url" : "https://i.scdn.co/image/ab67616d0000b273d108540f56fe9819684b6f78",
          "width" : 640
        }, {
          "height" : 300,
          "url" : "https://i.scdn.co/image/ab67616d00001e02d108540f56fe9819684b6f78",
          "width" : 300
        }, {
          "height" : 64,
          "url" : "https://i.scdn.co/image/ab67616d00004851d108540f56fe9819684b6f78",
          "width" : 64
        } ],
        "name" : "Worship Journal (Live)",
        "release_date" : "2016-09-30",
        "release_date_precision" : "day",
        "total_tracks" : 12,
        "type" : "album",
        "uri" : "spotify:album:2lC14ntR7i7DrUWKVcJd8I"
      },
      "artists" : [ {
        "external_urls" : {
          "spotify" : "https://open.spotify.com/artist/2ndyVAdV9UqF1XjyTJt484"
        },
        "href" : "https://api.spotify.com/v1/artists/2ndyVAdV9UqF1XjyTJt484",
        "id" : "2ndyVAdV9UqF1XjyTJt484",
        "name" : "Fred Hammond",
        "type" : "artist",
        "uri" : "spotify:artist:2ndyVAdV9UqF1XjyTJt484"
      } ],
      "disc_number" : 1,
      "duration_ms" : 307346,
      "explicit" : false,
      "external_ids" : {
        "isrc" : "USRC11601216"
      },
      "external_urls" : {
        "spotify" : "https://open.spotify.com/track/2YyDmJzE9OEX9c3Hmf7y72"
      },
      "href" : "https://api.spotify.com/v1/tracks/2YyDmJzE9OEX9c3Hmf7y72",
      "id" : "2YyDmJzE9OEX9c3Hmf7y72",
      "is_local" : false,
      "is_playable" : true,
      "name" : "Worthy Is The Lamb (Live)",
      "popularity" : 26,
      "preview_url" : "https://p.scdn.co/mp3-preview/d26fee0462f8ee523a9d538ce91209a6d677c2f2?cid=774b29d4f13844c495f206cafdad9c86",
      "track_number" : 9,
      "type" : "track",
      "uri" : "spotify:track:2YyDmJzE9OEX9c3Hmf7y72"
    }, {
      "album" : {
        "album_type" : "album",
        "artists" : [ {
          "external_urls" : {
            "spotify" : "https://open.spotify.com/artist/1TwYFIkuvKwm21CCns3fY2"
          },
          "href" : "https://api.spotify.com/v1/artists/1TwYFIkuvKwm21CCns3fY2",
          "id" : "1TwYFIkuvKwm21CCns3fY2",
          "name" : "Worship Music Piano",
          "type" : "artist",
          "uri" : "spotify:artist:1TwYFIkuvKwm21CCns3fY2"
        } ],
        "external_urls" : {
          "spotify" : "https://open.spotify.com/album/1E7Irsd4oIl5OkMDLkk0pp"
        },
        "href" : "https://api.spotify.com/v1/albums/1E7Irsd4oIl5OkMDLkk0pp",
        "id" : "1E7Irsd4oIl5OkMDLkk0pp",
        "images" : [ {
          "height" : 640,
          "url" : "https://i.scdn.co/image/ab67616d0000b2731a0c54a14a7327323d0922e2",
          "width" : 640
        }, {
          "height" : 300,
          "url" : "https://i.scdn.co/image/ab67616d00001e021a0c54a14a7327323d0922e2",
          "width" : 300
        }, {
          "height" : 64,
          "url" : "https://i.scdn.co/image/ab67616d000048511a0c54a14a7327323d0922e2",
          "width" : 64
        } ],
        "name" : "Songs of Worship (1990s), Vol. 3",
        "release_date" : "2016-03-04",
        "release_date_precision" : "day",
        "total_tracks" : 15,
        "type" : "album",
        "uri" : "spotify:album:1E7Irsd4oIl5OkMDLkk0pp"
      },
      "artists" : [ {
        "external_urls" : {
          "spotify" : "https://open.spotify.com/artist/1TwYFIkuvKwm21CCns3fY2"
        },
        "href" : "https://api.spotify.com/v1/artists/1TwYFIkuvKwm21CCns3fY2",
        "id" : "1TwYFIkuvKwm21CCns3fY2",
        "name" : "Worship Music Piano",
        "type" : "artist",
        "uri" : "spotify:artist:1TwYFIkuvKwm21CCns3fY2"
      } ],
      "disc_number" : 1,
      "duration_ms" : 270002,
      "explicit" : false,
      "external_ids" : {
        "isrc" : "USE831541689"
      },
      "external_urls" : {
        "spotify" : "https://open.spotify.com/track/1FM4ufgSRxb8PUmrOCE82q"
      },
      "href" : "https://api.spotify.com/v1/tracks/1FM4ufgSRxb8PUmrOCE82q",
      "id" : "1FM4ufgSRxb8PUmrOCE82q",
      "is_local" : false,
      "is_playable" : true,
      "name" : "Agnus Dei (Worthy Is the Lamb)",
      "popularity" : 29,
      "preview_url" : "https://p.scdn.co/mp3-preview/bfa3677183c4984e8aee8b8424a6157a01511e92?cid=774b29d4f13844c495f206cafdad9c86",
      "track_number" : 14,
      "type" : "track",
      "uri" : "spotify:track:1FM4ufgSRxb8PUmrOCE82q"
    } ],
    "limit" : 10,
    "next" : "https://api.spotify.com/v1/search?query=Worthy%2C+Worthy+is+the+Lamb&type=track&market=US&offset=15&limit=10",
    "offset" : 5,
    "previous" : "https://api.spotify.com/v1/search?query=Worthy%2C+Worthy+is+the+Lamb&type=track&market=US&offset=0&limit=10",
    "total" : 975
  }
}