{
  "tracks" : {
    "href" : "https://api.spotify.com/v1/search?query=Faith+Is+the+Victory&type=track&market=US&offset=5&limit=10",
    "items" : [ {
      "album" : {
        "album_type" : "album",
        "artists" : [ {
          "external_urls" : {
            "spotify" : "https://open.spotify.com/artist/0qeIrPthrLHWQNCA5FguBY"
          },
          "href" : "https://api.spotify.com/v1/artists/0qeIrPthrLHWQNCA5FguBY",
          "id" : "0qeIrPthrLHWQNCA5FguBY",
          "name" : "Mike & Kelly Bowling",
          "type" : "artist",
          "uri" : "spotify:artist:0qeIrPthrLHWQNCA5FguBY"
        } ],
        "external_urls" : {
          "spotify" : "https://open.spotify.com/album/4yFY9OFhf5LcH4wUzuRrBZ"
        },
        "href" : "https://api.spotify.com/v1/albums/4yFY9OFhf5LcH4wUzuRrBZ",
        "id" : "4yFY9OFhf5LcH4wUzuRrBZ",
        "images" : [ {
          "height" : 640,
          "url" : "https://i.scdn.co/image/ab67616d0000b273a790b5b465ca204fe8eea9ef",
          "width" : 640
        }, {
          "height" : 300,
          "url" : "https://i.scdn.co/image/ab67616d00001e02a790b5b465ca204fe8eea9ef",
          "width" : 300
        }, {
          "height" : 64,
          "url" : "https://i.scdn.co/image/ab67616d00004851a790b5b465ca204fe8eea9ef",
          "width" : 64
        } ],
        "name" : "Faith To Believe",
        "release_date" : "2008-08-12",
        "release_date_precision" : "day",
        "total_tracks" : 12,
        "type" : "album",
        "uri" : "spotify:album:4yFY9OFhf5LcH4wUzuRrBZ"
      },
      "artists" : [ {
        "external_urls" : {
          "spotify" : "https://open.spotify.com/artist/0qeIrPthrLHWQNCA5FguBY"
        },
        "href" : "https://api.spotify.com/v1/artists/0qeIrPthrLHWQNCA5FguBY",
        "id" : "0qeIrPthrLHWQNCA5FguBY",
        "name" : "Mike & Kelly Bowling",
        "type" : "artist",
        "uri" : "spotify:artist:0qeIrPthrLHWQNCA5FguBY"
      } ],
      "disc_number" : 1,
      "duration_ms" : 146840,
      "explicit" : false,
      "external_ids" : {
        "isrc" : "USWR60801421"
      },
      "external_urls" : {
        "spotify" : "https://open.spotify.com/track/6p8KgvyYqTXr1WmYlv2KFN"
      },
      "href" : "https://api.spotify.com/v1/tracks/6p8KgvyYqTXr1WmYlv2KFN",
      "id" : "6p8KgvyYqTXr1WmYlv2KFN",
      "is_local" : false,
      "is_playable" : true,
      "name" : "Oh How Sweet Is the Victory",
      "popularity" : 3,
      "preview_url" : "https://p.scdn.co/mp3-preview/5acf9d4c6494ec854deb2ada36ee4f884055be3c?cid=774b29d4f13844c495f206cafdad9c86",
      "track_number" : 5,
      "type" : "track",
      "uri" : "spotify:track:6p8KgvyYqTXr1WmYlv2KFN"
    }, {
      "album" : {
        "album_type" : "album",
        "artists" : [ {
          "external_urls" : {
            "spotify" : "https://open.spotify.com/artist/7gjHSq6MQ3C2RNdlIkbYnG"
          },
          "href" : "https://api.spotify.com/v1/artists/7gjHSq6MQ3C2RNdlIkbYnG",
          "id" : "7gjHSq6MQ3C2RNdlIkbYnG",
          "name" : "Instrumental Christian Songs, Christian Piano Music",
          "type" : "artist",
          "uri" : "spotify:artist:7gjHSq6MQ3C2RNdlIkbYnG"
        } ],
        "external_urls" : {
          "spotify" : "https://open.spotify.com/album/1a9xlkJrwtWMG3GkglH2PZ"
        },
        "href" : "https://api.spotify.com/v1/albums/1a9xlkJrwtWMG3GkglH2PZ",
        "id" : "1a9xlkJrwtWMG3GkglH2PZ",
        "images" : [ {
          "height" : 640,
          "url" : "https://i.scdn.co/image/ab67616d0000b27396e8e56423831abe9b9357ce",
          "width" : 640
        }, {
          "height" : 300,
          "url" : "https://i.scdn.co/image/ab67616d00001e0296e8e56423831abe9b9357ce",
          "width" : 300
        }, {
          "height" : 64,
          "url" : "https://i.scdn.co/image/ab67616d0000485196e8e56423831abe9b9357ce",
          "width" : 64
        } ],
        "name" : "Give Thanks",
        "release_date" : "2019-04-26",
        "release_date_precision" : "day",
        "total_tracks" : 50,
        "type" : "album",
        "uri" : "spotify:album:1a9xlkJrwtWMG3GkglH2PZ"
      },
      "artists" : [ {
        "external_urls" : {
          "spotify" : "https://open.spotify.com/artist/7gjHSq6MQ3C2RNdlIkbYnG"
        },
        "href" : "https://api.spotify.com/v1/artists/7gjHSq6MQ3C2RNdlIkbYnG",
        "id" : "7gjHSq6MQ3C2RNdlIkbYnG",
        "name" : "Instrumental Christian Songs, Christian Piano Music",
        "type" : "artist",
        "uri" : "spotify:artist:7gjHSq6MQ3C2RNdlIkbYnG"
      } ],
      "disc_number" : 1,
      "duration_ms" : 158981,
      "explicit" : false,
      "external_ids" : {
        "isrc" : "ART0G1801260"
      },
      "external_urls" : {
        "spotify" : "https://open.spotify.com/track/7vVHlI1FK6nVpbGFx1UtjH"
      },
      "href" : "https://api.spotify.com/v1/tracks/7vVHlI1FK6nVpbGFx1UtjH",
      "id" : "7vVHlI1FK6nVpbGFx1UtjH",
      "is_local" : false,
      "is_playable" : true,
      "name" : "Faith is the Victory",
      "popularity" : 2,
      "preview_url" : "https://p.scdn.co/mp3-preview/b70cd4351d369fb889c8d5dc91700aeb3b3643fa?cid=774b29d4f13844c495f206cafdad9c86",
      "track_number" : 13,
      "type" : "track",
      "uri" : "spotify:track:7vVHlI1FK6nVpbGFx1UtjH"
    }, {
      "album" : {
        "album_type" : "album",
        "artists" : [ {
          "external_urls" : {
            "spotify" : "https://open.spotify.com/artist/4MSEJAKZo4mkG4H6ORgllP"
          },
          "href" : "https://api.spotify.com/v1/artists/4MSEJAKZo4mkG4H6ORgllP",
          "id" : "4MSEJAKZo4mkG4H6ORgllP",
          "name" : "Jonathan Reed",
          "type" : "artist",
          "uri" : "spotify:artist:4MSEJAKZo4mkG4H6ORgllP"
        } ],
        "external_urls" : {
          "spotify" : "https://open.spotify.com/album/1PJZXqWlKRhIm5ImHLfIuN"
        },
        "href" : "https://api.spotify.com/v1/albums/1PJZXqWlKRhIm5ImHLfIuN",
        "id" : "1PJZXqWlKRhIm5ImHLfIuN",
        "images" : [ {
          "height" : 640,
          "url" : "https://i.scdn.co/image/ab67616d0000b2737816bd2074912ccb3a7a4fe9",
          "width" : 640
        }, {
          "height" : 300,
          "url" : "https://i.scdn.co/image/ab67616d00001e027816bd2074912ccb3a7a4fe9",
          "width" : 300
        }, {
          "height" : 64,
          "url" : "https://i.scdn.co/image/ab67616d000048517816bd2074912ccb3a7a4fe9",
          "width" : 64
        } ],
        "name" : "All Hail the Power",
        "release_date" : "2005-06-01",
        "release_date_precision" : "day",
        "total_tracks" : 52,
        "type" : "album",
        "uri" : "spotify:album:1PJZXqWlKRhIm5ImHLfIuN"
      },
      "artists" : [ {
        "external_urls" : {
          "spotify" : "https://open.spotify.com/artist/4MSEJAKZo4mkG4H6ORgllP"
        },
        "href" : "https://api.spotify.com/v1/artists/4MSEJAKZo4mkG4H6ORgllP",
        "id" : "4MSEJAKZo4mkG4H6ORgllP",
        "name" : "Jonathan Reed",
        "type" : "artist",
        "uri" : "spotify:artist:4MSEJAKZo4mkG4H6ORgllP"
      } ],
      "disc_number" : 1,
      "duration_ms" : 64226,
      "explicit" : false,
      "external_ids" : {
        "isrc" : "ushm81491361"
      },
      "external_urls" : {
        "spotify" : "https://open.spotify.com/track/0XXZz7X2b7Hilg10CF5wVz"
      },
      "href" : "https://api.spotify.com/v1/tracks/0XXZz7X2b7Hilg10CF5wVz",
      "id" : "0XXZz7X2b7Hilg10CF5wVz",
      "is_local" : false,
      "is_playable" : true,
      "name" : "Faith Is the Victory",
      "popularity" : 6,
      "preview_url" : "https://p.scdn.co/mp3-preview/91a66340e5186b579f6ddbfe1ec6ca83c4312f73?cid=774b29d4f13844c495f206cafdad9c86",
      "track_number" : 11,
      "type" : "track",
      "uri" : "spotify:track:0XXZz7X2b7Hilg10CF5wVz"
    }, {
      "album" : {
        "album_type" : "album",
        "artists" : [ {
          "external_urls" : {
            "spotify" : "https://open.spotify.com/artist/7gjHSq6MQ3C2RNdlIkbYnG"
          },
          "href" : "https://api.spotify.com/v1/artists/7gjHSq6MQ3C2RNdlIkbYnG",
          "id" : "7gjHSq6MQ3C2RNdlIkbYnG",
          "name" : "Instrumental Christian Songs, Christian Piano Music",
          "type" : "artist",
          "uri" : "spotify:artist:7gjHSq6MQ3C2RNdlIkbYnG"
        } ],
        "external_urls" : {
          "spotify" : "https://open.spotify.com/album/4xBHNYCeK6vObwzgdiQ0yP"
        },
        "href" : "https://api.spotify.com/v1/albums/4xBHNYCeK6vObwzgdiQ0yP",
        "id" : "4xBHNYCeK6vObwzgdiQ0yP",
        "images" : [ {
          "height" : 640,
          "url" : "https://i.scdn.co/image/ab67616d0000b273110e8ef5b952e18039ac6fcb",
          "width" : 640
        }, {
          "height" : 300,
          "url" : "https://i.scdn.co/image/ab67616d00001e02110e8ef5b952e18039ac6fcb",
          "width" : 300
        }, {
          "height" : 64,
          "url" : "https://i.scdn.co/image/ab67616d00004851110e8ef5b952e18039ac6fcb",
          "width" : 64
        } ],
        "name" : "Sunday Service",
        "release_date" : "2019-02-11",
        "release_date_precision" : "day",
        "total_tracks" : 79,
        "type" : "album",
        "uri" : "spotify:album:4xBHNYCeK6vObwzgdiQ0yP"
      },
      "artists" : [ {
        "external_urls" : {
          "spotify" : "https://open.spotify.com/artist/7gjHSq6MQ3C2RNdlIkbYnG"
        },
        "href" : "https://api.spotify.com/v1/artists/7gjHSq6MQ3C2RNdlIkbYnG",
        "id" : "7gjHSq6MQ3C2RNdlIkbYnG",
        "name" : "Instrumental Christian Songs, Christian Piano Music",
        "type" : "artist",
        "uri" : "spotify:artist:7gjHSq6MQ3C2RNdlIkbYnG"
      } ],
      "disc_number" : 1,
      "duration_ms" : 158981,
      "explicit" : false,
      "external_ids" : {
        "isrc" : "ART0G1801260"
      },
      "external_urls" : {
        "spotify" : "https://open.spotify.com/track/0M1NDWSYjtraulFM3YTPE2"
      },
      "href" : "https://api.spotify.com/v1/tracks/0M1NDWSYjtraulFM3YTPE2",
      "id" : "0M1NDWSYjtraulFM3YTPE2",
      "is_local" : false,
      "is_playable" : true,
      "name" : "Faith is the Victory",
      "popularity" : 3,
      "preview_url" : "https://p.scdn.co/mp3-preview/b70cd4351d369fb889c8d5dc91700aeb3b3643fa?cid=774b29d4f13844c495f206cafdad9c86",
      "track_number" : 8,
      "type" : "track",
      "uri" : "spotify:track:0M1NDWSYjtraulFM3YTPE2"
    }, {
      "album" : {
        "album_type" : "album",
        "artists" : [ {
          "external_urls" : {
            "spotify" : "https://open.spotify.com/artist/642W6QvgBhtJunbbnScqRU"
          },
          "href" : "https://api.spotify.com/v1/artists/642W6QvgBhtJunbbnScqRU",
          "id" : "642W6QvgBhtJunbbnScqRU",
          "name" : "Elliot Bowman",
          "type" : "artist",
          "uri" : "spotify:artist:642W6QvgBhtJunbbnScqRU"
        } ],
        "external_urls" : {
          "spotify" : "https://open.spotify.com/album/6vjW9YoYyP2iUPKEgv7rrP"
        },
        "href" : "https://api.spotify.com/v1/albums/6vjW9YoYyP2iUPKEgv7rrP",
        "id" : "6vjW9YoYyP2iUPKEgv7rrP",
        "images" : [ {
          "height" : 640,
          "url" : "https://i.scdn.co/image/ab67616d0000b2730d51875bf12e60ba9b3089f1",
          "width" : 640
        }, {
          "height" : 300,
          "url" : "https://i.scdn.co/image/ab67616d00001e020d51875bf12e60ba9b3089f1",
          "width" : 300
        }, {
          "height" : 64,
          "url" : "https://i.scdn.co/image/ab67616d000048510d51875bf12e60ba9b3089f1",
          "width" : 64
        } ],
        "name" : "A Cappella Hymns: Album Four",
        "release_date" : "2018-10-27",
        "release_date_precision" : "day",
        "total_tracks" : 20,
        "type" : "album",
        "uri" : "spotify:album:6vjW9YoYyP2iUPKEgv7rrP"
      },
      "artists" : [ {
        "external_urls" : {
          "spotify" : "https://open.spotify.com/artist/642W6QvgBhtJunbbnScqRU"
        },
        "href" : "https://api.spotify.com/v1/artists/642W6QvgBhtJunbbnScqRU",
        "id" : "642W6QvgBhtJunbbnScqRU",
        "name" : "Elliot Bowman",
        "type" : "artist",
        "uri" : "spotify:artist:642W6QvgBhtJunbbnScqRU"
      } ],
      "disc_number" : 1,
      "duration_ms" : 159880,
      "explicit" : false,
      "external_ids" : {
        "isrc" : "ushm21990611"
      },
      "external_urls" : {
        "spotify" : "https://open.spotify.com/track/32mqbNQqeCZA79HDB1ThKy"
      },
      "href" : "https://api.spotify.com/v1/tracks/32mqbNQqeCZA79HDB1ThKy",
      "id" : "32mqbNQqeCZA79HDB1ThKy",
      "is_local" : false,
      "is_playable" : true,
      "name" : "Faith Is the Victory",
      "popularity" : 5,
      "preview_url" : "https://p.scdn.co/mp3-preview/d940dd9e6bcfc8eeb0521334b8ae6d4151bf4bf2?cid=774b29d4f13844c495f206cafdad9c86",
      "track_number" : 14,
      "type" : "track",
      "uri" : "spotify:track:32mqbNQqeCZA79HDB1ThKy"
    }, {
      "album" : {
        "album_type" : "album",
        "artists" : [ {
          "external_urls" : {
            "spotify" : "https://open.spotify.com/artist/5yFBNdRUEW4UnQSqksEzoG"
          },
          "href" : "https://api.spotify.com/v1/artists/5yFBNdRUEW4UnQSqksEzoG",
          "id" : "5yFBNdRUEW4UnQSqksEzoG",
          "name" : "Holly Aloise",
          "type" : "artist",
          "uri" : "spotify:artist:5yFBNdRUEW4UnQSqksEzoG"
        } ],
        "external_urls" : {
          "spotify" : "https://open.spotify.com/album/48rxkrcjFWCY9N7DjcFA9V"
        },
        "href" : "https://api.spotify.com/v1/albums/48rxkrcjFWCY9N7DjcFA9V",
        "id" : "48rxkrcjFWCY9N7DjcFA9V",
        "images" : [ {
          "height" : 640,
          "url" : "https://i.scdn.co/image/ab67616d0000b273306ff4a915f98b5c774becc9",
          "width" : 640
        }, {
          "height" : 300,
          "url" : "https://i.scdn.co/image/ab67616d00001e02306ff4a915f98b5c774becc9",
          "width" : 300
        }, {
          "height" : 64,
          "url" : "https://i.scdn.co/image/ab67616d00004851306ff4a915f98b5c774becc9",
          "width" : 64
        } ],
        "name" : "Piano Tracks 12",
        "release_date" : "2015-01-16",
        "release_date_precision" : "day",
        "total_tracks" : 25,
        "type" : "album",
        "uri" : "spotify:album:48rxkrcjFWCY9N7DjcFA9V"
      },
      "artists" : [ {
        "external_urls" : {
          "spotify" : "https://open.spotify.com/artist/5yFBNdRUEW4UnQSqksEzoG"
        },
        "href" : "https://api.spotify.com/v1/artists/5yFBNdRUEW4UnQSqksEzoG",
        "id" : "5yFBNdRUEW4UnQSqksEzoG",
        "name" : "Holly Aloise",
        "type" : "artist",
        "uri" : "spotify:artist:5yFBNdRUEW4UnQSqksEzoG"
      } ],
      "disc_number" : 1,
      "duration_ms" : 174027,
      "explicit" : false,
      "external_ids" : {
        "isrc" : "GB-SMU-19-40593"
      },
      "external_urls" : {
        "spotify" : "https://open.spotify.com/track/5mVboHRJ832bXCrBO8sDmT"
      },
      "href" : "https://api.spotify.com/v1/tracks/5mVboHRJ832bXCrBO8sDmT",
      "id" : "5mVboHRJ832bXCrBO8sDmT",
      "is_local" : false,
      "is_playable" : true,
      "name" : "Faith Is the Victory",
      "popularity" : 2,
      "preview_url" : "https://p.scdn.co/mp3-preview/fb95ee15d66fc21c645c9f8afccbc5d05643b694?cid=774b29d4f13844c495f206cafdad9c86",
      "track_number" : 5,
      "type" : "track",
      "uri" : "spotify:track:5mVboHRJ832bXCrBO8sDmT"
    }, {
      "album" : {
        "album_type" : "album",
        "artists" : [ {
          "external_urls" : {
            "spotify" : "https://open.spotify.com/artist/6Mpnuw1zAeDxd9Y7clGNrX"
          },
          "href" : "https://api.spotify.com/v1/artists/6Mpnuw1zAeDxd9Y7clGNrX",
          "id" : "6Mpnuw1zAeDxd9Y7clGNrX",
          "name" : "Christian Hymns Players",
          "type" : "artist",
          "uri" : "spotify:artist:6Mpnuw1zAeDxd9Y7clGNrX"
        }, {
          "external_urls" : {
            "spotify" : "https://open.spotify.com/artist/1fO0DHOhFIvuPtObA3LtHR"
          },
          "href" : "https://api.spotify.com/v1/artists/1fO0DHOhFIvuPtObA3LtHR",
          "id" : "1fO0DHOhFIvuPtObA3LtHR",
          "name" : "Christian Hymns",
          "type" : "artist",
          "uri" : "spotify:artist:1fO0DHOhFIvuPtObA3LtHR"
        } ],
        "external_urls" : {
          "spotify" : "https://open.spotify.com/album/4YqPHr1UR36zoJy31FXHlg"
        },
        "href" : "https://api.spotify.com/v1/albums/4YqPHr1UR36zoJy31FXHlg",
        "id" : "4YqPHr1UR36zoJy31FXHlg",
        "images" : [ {
          "height" : 640,
          "url" : "https://i.scdn.co/image/ab67616d0000b273011e0bcb0cab2609b77e14d3",
          "width" : 640
        }, {
          "height" : 300,
          "url" : "https://i.scdn.co/image/ab67616d00001e02011e0bcb0cab2609b77e14d3",
          "width" : 300
        }, {
          "height" : 64,
          "url" : "https://i.scdn.co/image/ab67616d00004851011e0bcb0cab2609b77e14d3",
          "width" : 64
        } ],
        "name" : "Heavenly Hymns",
        "release_date" : "2017-08-25",
        "release_date_precision" : "day",
        "total_tracks" : 15,
        "type" : "album",
        "uri" : "spotify:album:4YqPHr1UR36zoJy31FXHlg"
      },
      "artists" : [ {
        "external_urls" : {
          "spotify" : "https://open.spotify.com/artist/6Mpnuw1zAeDxd9Y7clGNrX"
        },
        "href" : "https://api.spotify.com/v1/artists/6Mpnuw1zAeDxd9Y7clGNrX",
        "id" : "6Mpnuw1zAeDxd9Y7clGNrX",
        "name" : "Christian Hymns Players",
        "type" : "artist",
        "uri" : "spotify:artist:6Mpnuw1zAeDxd9Y7clGNrX"
      }, {
        "external_urls" : {
          "spotify" : "https://open.spotify.com/artist/1fO0DHOhFIvuPtObA3LtHR"
        },
        "href" : "https://api.spotify.com/v1/artists/1fO0DHOhFIvuPtObA3LtHR",
        "id" : "1fO0DHOhFIvuPtObA3LtHR",
        "name" : "Christian Hymns",
        "type" : "artist",
        "uri" : "spotify:artist:1fO0DHOhFIvuPtObA3LtHR"
      } ],
      "disc_number" : 1,
      "duration_ms" : 185104,
      "explicit" : false,
      "external_ids" : {
        "isrc" : "TCADF1799308"
      },
      "external_urls" : {
        "spotify" : "https://open.spotify.com/track/5L4acZ2hRG1103eUgkuJKw"
      },
      "href" : "https://api.spotify.com/v1/tracks/5L4acZ2hRG1103eUgkuJKw",
      "id" : "5L4acZ2hRG1103eUgkuJKw",
      "is_local" : false,
      "is_playable" : true,
      "name" : "Faith Is the Victory (Instrumental Version)",
      "popularity" : 5,
      "preview_url" : "https://p.scdn.co/mp3-preview/688362e885370784c513787f71b811637ee7577d?cid=774b29d4f13844c495f206cafdad9c86",
      "track_number" : 15,
      "type" : "track",
      "uri" : "spotify:track:5L4acZ2hRG1103eUgkuJKw"
    }, {
      "album" : {
        "album_type" : "album",
        "artists" : [ {
          "external_urls" : {
            "spotify" : "https://open.spotify.com/artist/4Ne2K1RKOYw3Krk9gmvV5B"
          },
          "href" : "https://api.spotify.com/v1/artists/4Ne2K1RKOYw3Krk9gmvV5B",
          "id" : "4Ne2K1RKOYw3Krk9gmvV5B",
          "name" : "Michael Howard",
          "type" : "artist",
          "uri" : "spotify:artist:4Ne2K1RKOYw3Krk9gmvV5B"
        } ],
        "external_urls" : {
          "spotify" : "https://open.spotify.com/album/7pti31K1kym70IAVV0IQ9N"
        },
        "href" : "https://api.spotify.com/v1/albums/7pti31K1kym70IAVV0IQ9N",
        "id" : "7pti31K1kym70IAVV0IQ9N",
        "images" : [ {
          "height" : 640,
          "url" : "https://i.scdn.co/image/ab67616d0000b273964dbcc88fe120073821a420",
          "width" : 640
        }, {
          "height" : 300,
          "url" : "https://i.scdn.co/image/ab67616d00001e02964dbcc88fe120073821a420",
          "width" : 300
        }, {
          "height" : 64,
          "url" : "https://i.scdn.co/image/ab67616d00004851964dbcc88fe120073821a420",
          "width" : 64
        } ],
        "name" : "Victory: A Gospel Piano Collection",
        "release_date" : "2008-10-08",
        "release_date_precision" : "day",
        "total_tracks" : 10,
        "type" : "album",
        "uri" : "spotify:album:7pti31K1kym70IAVV0IQ9N"
      },
      "artists" : [ {
        "external_urls" : {
          "spotify" : "https://open.spotify.com/artist/4Ne2K1RKOYw3Krk9gmvV5B"
        },
        "href" : "https://api.spotify.com/v1/artists/4Ne2K1RKOYw3Krk9gmvV5B",
        "id" : "4Ne2K1RKOYw3Krk9gmvV5B",
        "name" : "Michael Howard",
        "type" : "artist",
        "uri" : "spotify:artist:4Ne2K1RKOYw3Krk9gmvV5B"
      } ],
      "disc_number" : 1,
      "duration_ms" : 267000,
      "explicit" : false,
      "external_ids" : {
        "isrc" : "ushm80829459"
      },
      "external_urls" : {
        "spotify" : "https://open.spotify.com/track/5381z5WQ9GS4MTpqVJ6is5"
      },
      "href" : "https://api.spotify.com/v1/tracks/5381z5WQ9GS4MTpqVJ6is5",
      "id" : "5381z5WQ9GS4MTpqVJ6is5",
      "is_local" : false,
      "is_playable" : true,
      "name" : "Great Is The Lord / Great Is Thy Faithfulness / How Great Thou Art",
      "popularity" : 7,
      "preview_url" : "https://p.scdn.co/mp3-preview/89524698122512056ae13bb9e7dc7e65a7259757?cid=774b29d4f13844c495f206cafdad9c86",
      "track_number" : 1,
      "type" : "track",
      "uri" : "spotify:track:5381z5WQ9GS4MTpqVJ6is5"
    }, {
      "album" : {
        "album_type" : "album",
        "artists" : [ {
          "external_urls" : {
            "spotify" : "https://open.spotify.com/artist/28fmIcdWAwhaUC6jfk3vC5"
          },
          "href" : "https://api.spotify.com/v1/artists/28fmIcdWAwhaUC6jfk3vC5",
          "id" : "28fmIcdWAwhaUC6jfk3vC5",
          "name" : "Justin Lynn",
          "type" : "artist",
          "uri" : "spotify:artist:28fmIcdWAwhaUC6jfk3vC5"
        } ],
        "external_urls" : {
          "spotify" : "https://open.spotify.com/album/5swyjXdm6lCa7njwmylcfP"
        },
        "href" : "https://api.spotify.com/v1/albums/5swyjXdm6lCa7njwmylcfP",
        "id" : "5swyjXdm6lCa7njwmylcfP",
        "images" : [ {
          "height" : 640,
          "url" : "https://i.scdn.co/image/ab67616d0000b273a55c2a326d9f008fe46a3e09",
          "width" : 640
        }, {
          "height" : 300,
          "url" : "https://i.scdn.co/image/ab67616d00001e02a55c2a326d9f008fe46a3e09",
          "width" : 300
        }, {
          "height" : 64,
          "url" : "https://i.scdn.co/image/ab67616d00004851a55c2a326d9f008fe46a3e09",
          "width" : 64
        } ],
        "name" : "Himspirations",
        "release_date" : "2012-11-05",
        "release_date_precision" : "day",
        "total_tracks" : 20,
        "type" : "album",
        "uri" : "spotify:album:5swyjXdm6lCa7njwmylcfP"
      },
      "artists" : [ {
        "external_urls" : {
          "spotify" : "https://open.spotify.com/artist/28fmIcdWAwhaUC6jfk3vC5"
        },
        "href" : "https://api.spotify.com/v1/artists/28fmIcdWAwhaUC6jfk3vC5",
        "id" : "28fmIcdWAwhaUC6jfk3vC5",
        "name" : "Justin Lynn",
        "type" : "artist",
        "uri" : "spotify:artist:28fmIcdWAwhaUC6jfk3vC5"
      } ],
      "disc_number" : 1,
      "duration_ms" : 200437,
      "explicit" : false,
      "external_ids" : {
        "isrc" : "ushm91285771"
      },
      "external_urls" : {
        "spotify" : "https://open.spotify.com/track/3R3bbDlvsKpHChiVN0GD0U"
      },
      "href" : "https://api.spotify.com/v1/tracks/3R3bbDlvsKpHChiVN0GD0U",
      "id" : "3R3bbDlvsKpHChiVN0GD0U",
      "is_local" : false,
      "is_playable" : true,
      "name" : "Faith Is the Victory! (Faith Is the Victory)",
      "popularity" : 0,
      "preview_url" : "https://p.scdn.co/mp3-preview/cc36981a5aecd44223c0700ef8105f7091b271e2?cid=774b29d4f13844c495f206cafdad9c86",
      "track_number" : 11,
      "type" : "track",
      "uri" : "spotify:track:3R3bbDlvsKpHChiVN0GD0U"
    }, {
      "album" : {
        "album_type" : "album",
        "artists" : [ {
          "external_urls" : {
            "spotify" : "https://open.spotify.com/artist/1hjNT0bSzd1dL3lDmgJ96P"
          },
          "href" : "https://api.spotify.com/v1/artists/1hjNT0bSzd1dL3lDmgJ96P",
          "id" : "1hjNT0bSzd1dL3lDmgJ96P",
          "name" : "Alicia A. Lewis",
          "type" : "artist",
          "uri" : "spotify:artist:1hjNT0bSzd1dL3lDmgJ96P"
        } ],
        "external_urls" : {
          "spotify" : "https://open.spotify.com/album/1zU6f0fyVhoikPrOFNcdS0"
        },
        "href" : "https://api.spotify.com/v1/albums/1zU6f0fyVhoikPrOFNcdS0",
        "id" : "1zU6f0fyVhoikPrOFNcdS0",
        "images" : [ {
          "height" : 640,
          "url" : "https://i.scdn.co/image/ab67616d0000b273cc084af2ec9f6f07148544a3",
          "width" : 640
        }, {
          "height" : 300,
          "url" : "https://i.scdn.co/image/ab67616d00001e02cc084af2ec9f6f07148544a3",
          "width" : 300
        }, {
          "height" : 64,
          "url" : "https://i.scdn.co/image/ab67616d00004851cc084af2ec9f6f07148544a3",
          "width" : 64
        } ],
        "name" : "Along With My Love I'll Go: Celtic Airs, Hymns, & Dances For Two Flutes And Piano",
        "release_date" : "2008-03-13",
        "release_date_precision" : "day",
        "total_tracks" : 23,
        "type" : "album",
        "uri" : "spotify:album:1zU6f0fyVhoikPrOFNcdS0"
      },
      "artists" : [ {
        "external_urls" : {
          "spotify" : "https://open.spotify.com/artist/1hjNT0bSzd1dL3lDmgJ96P"
        },
        "href" : "https://api.spotify.com/v1/artists/1hjNT0bSzd1dL3lDmgJ96P",
        "id" : "1hjNT0bSzd1dL3lDmgJ96P",
        "name" : "Alicia A. Lewis",
        "type" : "artist",
        "uri" : "spotify:artist:1hjNT0bSzd1dL3lDmgJ96P"
      }, {
        "external_urls" : {
          "spotify" : "https://open.spotify.com/artist/5DqVI9uqtLxbch0DlADz1F"
        },
        "href" : "https://api.spotify.com/v1/artists/5DqVI9uqtLxbch0DlADz1F",
        "id" : "5DqVI9uqtLxbch0DlADz1F",
        "name" : "Anne Carlson",
        "type" : "artist",
        "uri" : "spotify:artist:5DqVI9uqtLxbch0DlADz1F"
      }, {
        "external_urls" : {
          "spotify" : "https://open.spotify.com/artist/4eNcsj8bryEl6URpECK3Pl"
        },
        "href" : "https://api.spotify.com/v1/artists/4eNcsj8bryEl6URpECK3Pl",
        "id" : "4eNcsj8bryEl6URpECK3Pl",
        "name" : "Maya Lewis",
        "type" : "artist",
        "uri" : "spotify:artist:4eNcsj8bryEl6URpECK3Pl"
      } ],
      "disc_number" : 1,
      "duration_ms" : 111226,
      "explicit" : false,
      "external_ids" : {
        "isrc" : "usy280741602"
      },
      "external_urls" : {
        "spotify" : "https://open.spotify.com/track/3eKyhmsslgzofStKYQh2gG"
      },
      "href" : "https://api.spotify.com/v1/tracks/3eKyhmsslgzofStKYQh2gG",
      "id" : "3eKyhmsslgzofStKYQh2gG",
      "is_local" : false,
      "is_playable" : true,
      "name" : "Faith Is The Victory",
      "popularity" : 0,
      "preview_url" : "https://p.scdn.co/mp3-preview/d97b141118881fa8c43530e9aed828ddc91d78fb?cid=774b29d4f13844c495f206cafdad9c86",
      "track_number" : 18,
      "type" : "track",
      "uri" : "spotify:track:3eKyhmsslgzofStKYQh2gG"
    } ],
    "limit" : 10,
    "next" : "https://api.spotify.com/v1/search?query=Faith+Is+the+Victory&type=track&market=US&offset=15&limit=10",
    "offset" : 5,
    "previous" : "https://api.spotify.com/v1/search?query=Faith+Is+the+Victory&type=track&market=US&offset=0&limit=10",
    "total" : 42
  }
}