{
  "tracks" : {
    "href" : "https://api.spotify.com/v1/search?query=He+Leadeth+Me&type=track&market=US&offset=5&limit=10",
    "items" : [ {
      "album" : {
        "album_type" : "album",
        "artists" : [ {
          "external_urls" : {
            "spotify" : "https://open.spotify.com/artist/6MYKRhEIKscR8qdGlvpk9y"
          },
          "href" : "https://api.spotify.com/v1/artists/6MYKRhEIKscR8qdGlvpk9y",
          "id" : "6MYKRhEIKscR8qdGlvpk9y",
          "name" : "Sovereign Grace Music",
          "type" : "artist",
          "uri" : "spotify:artist:6MYKRhEIKscR8qdGlvpk9y"
        }, {
          "external_urls" : {
            "spotify" : "https://open.spotify.com/artist/3mWDcLkpeZ5aReUNWoOadU"
          },
          "href" : "https://api.spotify.com/v1/artists/3mWDcLkpeZ5aReUNWoOadU",
          "id" : "3mWDcLkpeZ5aReUNWoOadU",
          "name" : "Bob Kauflin",
          "type" : "artist",
          "uri" : "spotify:artist:3mWDcLkpeZ5aReUNWoOadU"
        } ],
        "external_urls" : {
          "spotify" : "https://open.spotify.com/album/1L8ux7GT04wMY8cCYZfTEE"
        },
        "href" : "https://api.spotify.com/v1/albums/1L8ux7GT04wMY8cCYZfTEE",
        "id" : "1L8ux7GT04wMY8cCYZfTEE",
        "images" : [ {
          "height" : 640,
          "url" : "https://i.scdn.co/image/ab67616d0000b273d7e594da44470d973c04c107",
          "width" : 640
        }, {
          "height" : 300,
          "url" : "https://i.scdn.co/image/ab67616d00001e02d7e594da44470d973c04c107",
          "width" : 300
        }, {
          "height" : 64,
          "url" : "https://i.scdn.co/image/ab67616d00004851d7e594da44470d973c04c107",
          "width" : 64
        } ],
        "name" : "Together for the Gospel IV (Live)",
        "release_date" : "2018-10-26",
        "release_date_precision" : "day",
        "total_tracks" : 15,
        "type" : "album",
        "uri" : "spotify:album:1L8ux7GT04wMY8cCYZfTEE"
      },
      "artists" : [ {
        "external_urls" : {
          "spotify" : "https://open.spotify.com/artist/6MYKRhEIKscR8qdGlvpk9y"
        },
        "href" : "https://api.spotify.com/v1/artists/6MYKRhEIKscR8qdGlvpk9y",
        "id" : "6MYKRhEIKscR8qdGlvpk9y",
        "name" : "Sovereign Grace Music",
        "type" : "artist",
        "uri" : "spotify:artist:6MYKRhEIKscR8qdGlvpk9y"
      }, {
        "external_urls" : {
          "spotify" : "https://open.spotify.com/artist/3mWDcLkpeZ5aReUNWoOadU"
        },
        "href" : "https://api.spotify.com/v1/artists/3mWDcLkpeZ5aReUNWoOadU",
        "id" : "3mWDcLkpeZ5aReUNWoOadU",
        "name" : "Bob Kauflin",
        "type" : "artist",
        "uri" : "spotify:artist:3mWDcLkpeZ5aReUNWoOadU"
      } ],
      "disc_number" : 1,
      "duration_ms" : 277063,
      "explicit" : false,
      "external_ids" : {
        "isrc" : "US25L1800475"
      },
      "external_urls" : {
        "spotify" : "https://open.spotify.com/track/6kfS1DT2nyHZpX29UbM2xH"
      },
      "href" : "https://api.spotify.com/v1/tracks/6kfS1DT2nyHZpX29UbM2xH",
      "id" : "6kfS1DT2nyHZpX29UbM2xH",
      "is_local" : false,
      "is_playable" : true,
      "name" : "He Leadeth Me - Live",
      "popularity" : 25,
      "preview_url" : "https://p.scdn.co/mp3-preview/388c20c1555073306969f1b8d87571e41866bf4e?cid=774b29d4f13844c495f206cafdad9c86",
      "track_number" : 12,
      "type" : "track",
      "uri" : "spotify:track:6kfS1DT2nyHZpX29UbM2xH"
    }, {
      "album" : {
        "album_type" : "album",
        "artists" : [ {
          "external_urls" : {
            "spotify" : "https://open.spotify.com/artist/3Be0FxZRoCJ8UPrkwe6Xuw"
          },
          "href" : "https://api.spotify.com/v1/artists/3Be0FxZRoCJ8UPrkwe6Xuw",
          "id" : "3Be0FxZRoCJ8UPrkwe6Xuw",
          "name" : "Stan Whitmire",
          "type" : "artist",
          "uri" : "spotify:artist:3Be0FxZRoCJ8UPrkwe6Xuw"
        } ],
        "external_urls" : {
          "spotify" : "https://open.spotify.com/album/4x46cTQvPPRX9GsCXwCftP"
        },
        "href" : "https://api.spotify.com/v1/albums/4x46cTQvPPRX9GsCXwCftP",
        "id" : "4x46cTQvPPRX9GsCXwCftP",
        "images" : [ {
          "height" : 640,
          "url" : "https://i.scdn.co/image/ab67616d0000b273178bbaaefd670dae116d5025",
          "width" : 640
        }, {
          "height" : 300,
          "url" : "https://i.scdn.co/image/ab67616d00001e02178bbaaefd670dae116d5025",
          "width" : 300
        }, {
          "height" : 64,
          "url" : "https://i.scdn.co/image/ab67616d00004851178bbaaefd670dae116d5025",
          "width" : 64
        } ],
        "name" : "He Leadeth Me: Hymns By Request",
        "release_date" : "2015-09-11",
        "release_date_precision" : "day",
        "total_tracks" : 13,
        "type" : "album",
        "uri" : "spotify:album:4x46cTQvPPRX9GsCXwCftP"
      },
      "artists" : [ {
        "external_urls" : {
          "spotify" : "https://open.spotify.com/artist/3Be0FxZRoCJ8UPrkwe6Xuw"
        },
        "href" : "https://api.spotify.com/v1/artists/3Be0FxZRoCJ8UPrkwe6Xuw",
        "id" : "3Be0FxZRoCJ8UPrkwe6Xuw",
        "name" : "Stan Whitmire",
        "type" : "artist",
        "uri" : "spotify:artist:3Be0FxZRoCJ8UPrkwe6Xuw"
      } ],
      "disc_number" : 1,
      "duration_ms" : 384453,
      "explicit" : false,
      "external_ids" : {
        "isrc" : "US86A1500024"
      },
      "external_urls" : {
        "spotify" : "https://open.spotify.com/track/3N5FEDrNnWApDJjZ46WJR5"
      },
      "href" : "https://api.spotify.com/v1/tracks/3N5FEDrNnWApDJjZ46WJR5",
      "id" : "3N5FEDrNnWApDJjZ46WJR5",
      "is_local" : false,
      "is_playable" : true,
      "name" : "He Leadeth Me / The Unseen Hand / When I've Traveled My Last Mile (He'll Hold My Hand) - Medley",
      "popularity" : 27,
      "preview_url" : null,
      "track_number" : 1,
      "type" : "track",
      "uri" : "spotify:track:3N5FEDrNnWApDJjZ46WJR5"
    }, {
      "album" : {
        "album_type" : "album",
        "artists" : [ {
          "external_urls" : {
            "spotify" : "https://open.spotify.com/artist/16dGAOg7n1wfPuLLwfdwur"
          },
          "href" : "https://api.spotify.com/v1/artists/16dGAOg7n1wfPuLLwfdwur",
          "id" : "16dGAOg7n1wfPuLLwfdwur",
          "name" : "Acapeldridge",
          "type" : "artist",
          "uri" : "spotify:artist:16dGAOg7n1wfPuLLwfdwur"
        } ],
        "external_urls" : {
          "spotify" : "https://open.spotify.com/album/6usmsAm92X0rAkjzsiaqRU"
        },
        "href" : "https://api.spotify.com/v1/albums/6usmsAm92X0rAkjzsiaqRU",
        "id" : "6usmsAm92X0rAkjzsiaqRU",
        "images" : [ {
          "height" : 640,
          "url" : "https://i.scdn.co/image/ab67616d0000b273756e882f223ffd8214f6eb9e",
          "width" : 640
        }, {
          "height" : 300,
          "url" : "https://i.scdn.co/image/ab67616d00001e02756e882f223ffd8214f6eb9e",
          "width" : 300
        }, {
          "height" : 64,
          "url" : "https://i.scdn.co/image/ab67616d00004851756e882f223ffd8214f6eb9e",
          "width" : 64
        } ],
        "name" : "Whatever Is True",
        "release_date" : "2017-11-03",
        "release_date_precision" : "day",
        "total_tracks" : 20,
        "type" : "album",
        "uri" : "spotify:album:6usmsAm92X0rAkjzsiaqRU"
      },
      "artists" : [ {
        "external_urls" : {
          "spotify" : "https://open.spotify.com/artist/16dGAOg7n1wfPuLLwfdwur"
        },
        "href" : "https://api.spotify.com/v1/artists/16dGAOg7n1wfPuLLwfdwur",
        "id" : "16dGAOg7n1wfPuLLwfdwur",
        "name" : "Acapeldridge",
        "type" : "artist",
        "uri" : "spotify:artist:16dGAOg7n1wfPuLLwfdwur"
      } ],
      "disc_number" : 1,
      "duration_ms" : 144750,
      "explicit" : false,
      "external_ids" : {
        "isrc" : "ushm91744667"
      },
      "external_urls" : {
        "spotify" : "https://open.spotify.com/track/1KWn8uXYvjXaPE6l1BKfV4"
      },
      "href" : "https://api.spotify.com/v1/tracks/1KWn8uXYvjXaPE6l1BKfV4",
      "id" : "1KWn8uXYvjXaPE6l1BKfV4",
      "is_local" : false,
      "is_playable" : true,
      "name" : "He Leadeth Me",
      "popularity" : 22,
      "preview_url" : "https://p.scdn.co/mp3-preview/94f063d888afadc1aa016202559046fac8b5a169?cid=774b29d4f13844c495f206cafdad9c86",
      "track_number" : 4,
      "type" : "track",
      "uri" : "spotify:track:1KWn8uXYvjXaPE6l1BKfV4"
    }, {
      "album" : {
        "album_type" : "album",
        "artists" : [ {
          "external_urls" : {
            "spotify" : "https://open.spotify.com/artist/73Pgynm8mcWRCeIGRNDBel"
          },
          "href" : "https://api.spotify.com/v1/artists/73Pgynm8mcWRCeIGRNDBel",
          "id" : "73Pgynm8mcWRCeIGRNDBel",
          "name" : "Joel Rosenberger",
          "type" : "artist",
          "uri" : "spotify:artist:73Pgynm8mcWRCeIGRNDBel"
        } ],
        "external_urls" : {
          "spotify" : "https://open.spotify.com/album/4SjXNie0ESd0hsXnmUqk8s"
        },
        "href" : "https://api.spotify.com/v1/albums/4SjXNie0ESd0hsXnmUqk8s",
        "id" : "4SjXNie0ESd0hsXnmUqk8s",
        "images" : [ {
          "height" : 640,
          "url" : "https://i.scdn.co/image/ab67616d0000b273612a777b55540a701299d54e",
          "width" : 640
        }, {
          "height" : 300,
          "url" : "https://i.scdn.co/image/ab67616d00001e02612a777b55540a701299d54e",
          "width" : 300
        }, {
          "height" : 64,
          "url" : "https://i.scdn.co/image/ab67616d00004851612a777b55540a701299d54e",
          "width" : 64
        } ],
        "name" : "Hymn Journeys: Contemporary Piano Interpretations",
        "release_date" : "2009-05-11",
        "release_date_precision" : "day",
        "total_tracks" : 19,
        "type" : "album",
        "uri" : "spotify:album:4SjXNie0ESd0hsXnmUqk8s"
      },
      "artists" : [ {
        "external_urls" : {
          "spotify" : "https://open.spotify.com/artist/73Pgynm8mcWRCeIGRNDBel"
        },
        "href" : "https://api.spotify.com/v1/artists/73Pgynm8mcWRCeIGRNDBel",
        "id" : "73Pgynm8mcWRCeIGRNDBel",
        "name" : "Joel Rosenberger",
        "type" : "artist",
        "uri" : "spotify:artist:73Pgynm8mcWRCeIGRNDBel"
      } ],
      "disc_number" : 1,
      "duration_ms" : 289640,
      "explicit" : false,
      "external_ids" : {
        "isrc" : "uscgj0913933"
      },
      "external_urls" : {
        "spotify" : "https://open.spotify.com/track/1mWECmnJFRjcsaughZqQdF"
      },
      "href" : "https://api.spotify.com/v1/tracks/1mWECmnJFRjcsaughZqQdF",
      "id" : "1mWECmnJFRjcsaughZqQdF",
      "is_local" : false,
      "is_playable" : true,
      "name" : "He Leadeth Me",
      "popularity" : 27,
      "preview_url" : "https://p.scdn.co/mp3-preview/2e8b0b53a2d402e3fd3895ff75ef0b8aceff6089?cid=774b29d4f13844c495f206cafdad9c86",
      "track_number" : 7,
      "type" : "track",
      "uri" : "spotify:track:1mWECmnJFRjcsaughZqQdF"
    }, {
      "album" : {
        "album_type" : "album",
        "artists" : [ {
          "external_urls" : {
            "spotify" : "https://open.spotify.com/artist/7uEFrOGxNHmiolKBiS7o9c"
          },
          "href" : "https://api.spotify.com/v1/artists/7uEFrOGxNHmiolKBiS7o9c",
          "id" : "7uEFrOGxNHmiolKBiS7o9c",
          "name" : "Classical Robot",
          "type" : "artist",
          "uri" : "spotify:artist:7uEFrOGxNHmiolKBiS7o9c"
        } ],
        "external_urls" : {
          "spotify" : "https://open.spotify.com/album/7aTnEc45QiTAYhtqxUa21C"
        },
        "href" : "https://api.spotify.com/v1/albums/7aTnEc45QiTAYhtqxUa21C",
        "id" : "7aTnEc45QiTAYhtqxUa21C",
        "images" : [ {
          "height" : 640,
          "url" : "https://i.scdn.co/image/ab67616d0000b2733ac5e26f7975692ef4f2bb83",
          "width" : 640
        }, {
          "height" : 300,
          "url" : "https://i.scdn.co/image/ab67616d00001e023ac5e26f7975692ef4f2bb83",
          "width" : 300
        }, {
          "height" : 64,
          "url" : "https://i.scdn.co/image/ab67616d000048513ac5e26f7975692ef4f2bb83",
          "width" : 64
        } ],
        "name" : "Classical Robot Goes to Church",
        "release_date" : "2019-05-03",
        "release_date_precision" : "day",
        "total_tracks" : 40,
        "type" : "album",
        "uri" : "spotify:album:7aTnEc45QiTAYhtqxUa21C"
      },
      "artists" : [ {
        "external_urls" : {
          "spotify" : "https://open.spotify.com/artist/7uEFrOGxNHmiolKBiS7o9c"
        },
        "href" : "https://api.spotify.com/v1/artists/7uEFrOGxNHmiolKBiS7o9c",
        "id" : "7uEFrOGxNHmiolKBiS7o9c",
        "name" : "Classical Robot",
        "type" : "artist",
        "uri" : "spotify:artist:7uEFrOGxNHmiolKBiS7o9c"
      } ],
      "disc_number" : 1,
      "duration_ms" : 98936,
      "explicit" : false,
      "external_ids" : {
        "isrc" : "TCAEF1921334"
      },
      "external_urls" : {
        "spotify" : "https://open.spotify.com/track/0dwKOPy8nXEqiK8kqlq18Z"
      },
      "href" : "https://api.spotify.com/v1/tracks/0dwKOPy8nXEqiK8kqlq18Z",
      "id" : "0dwKOPy8nXEqiK8kqlq18Z",
      "is_local" : false,
      "is_playable" : true,
      "name" : "He Leadeth Me",
      "popularity" : 17,
      "preview_url" : "https://p.scdn.co/mp3-preview/97efa2fa9242780e1ddb960cd6459f7f17aaf92d?cid=774b29d4f13844c495f206cafdad9c86",
      "track_number" : 14,
      "type" : "track",
      "uri" : "spotify:track:0dwKOPy8nXEqiK8kqlq18Z"
    }, {
      "album" : {
        "album_type" : "album",
        "artists" : [ {
          "external_urls" : {
            "spotify" : "https://open.spotify.com/artist/5X0KjwU1Uqj9PpACASaOM5"
          },
          "href" : "https://api.spotify.com/v1/artists/5X0KjwU1Uqj9PpACASaOM5",
          "id" : "5X0KjwU1Uqj9PpACASaOM5",
          "name" : "Josh Gray",
          "type" : "artist",
          "uri" : "spotify:artist:5X0KjwU1Uqj9PpACASaOM5"
        } ],
        "external_urls" : {
          "spotify" : "https://open.spotify.com/album/3nkQ2zdERrUzZmw8NHycIG"
        },
        "href" : "https://api.spotify.com/v1/albums/3nkQ2zdERrUzZmw8NHycIG",
        "id" : "3nkQ2zdERrUzZmw8NHycIG",
        "images" : [ {
          "height" : 640,
          "url" : "https://i.scdn.co/image/ab67616d0000b273a5b1fba126660cc06f0a4680",
          "width" : 640
        }, {
          "height" : 300,
          "url" : "https://i.scdn.co/image/ab67616d00001e02a5b1fba126660cc06f0a4680",
          "width" : 300
        }, {
          "height" : 64,
          "url" : "https://i.scdn.co/image/ab67616d00004851a5b1fba126660cc06f0a4680",
          "width" : 64
        } ],
        "name" : "Resurrection (Classic Hymns for Funeral Services)",
        "release_date" : "2016-02-13",
        "release_date_precision" : "day",
        "total_tracks" : 16,
        "type" : "album",
        "uri" : "spotify:album:3nkQ2zdERrUzZmw8NHycIG"
      },
      "artists" : [ {
        "external_urls" : {
          "spotify" : "https://open.spotify.com/artist/5X0KjwU1Uqj9PpACASaOM5"
        },
        "href" : "https://api.spotify.com/v1/artists/5X0KjwU1Uqj9PpACASaOM5",
        "id" : "5X0KjwU1Uqj9PpACASaOM5",
        "name" : "Josh Gray",
        "type" : "artist",
        "uri" : "spotify:artist:5X0KjwU1Uqj9PpACASaOM5"
      } ],
      "disc_number" : 1,
      "duration_ms" : 192000,
      "explicit" : false,
      "external_ids" : {
        "isrc" : "USLZJ1616703"
      },
      "external_urls" : {
        "spotify" : "https://open.spotify.com/track/0HXcLfGAHzmdcphurZ0CjI"
      },
      "href" : "https://api.spotify.com/v1/tracks/0HXcLfGAHzmdcphurZ0CjI",
      "id" : "0HXcLfGAHzmdcphurZ0CjI",
      "is_local" : false,
      "is_playable" : true,
      "name" : "He Leadeth Me",
      "popularity" : 20,
      "preview_url" : "https://p.scdn.co/mp3-preview/b9b565718c0a62c91798fe774071abcc936d2a7f?cid=774b29d4f13844c495f206cafdad9c86",
      "track_number" : 7,
      "type" : "track",
      "uri" : "spotify:track:0HXcLfGAHzmdcphurZ0CjI"
    }, {
      "album" : {
        "album_type" : "album",
        "artists" : [ {
          "external_urls" : {
            "spotify" : "https://open.spotify.com/artist/11sAWrpIkFUPQlXoQqpeBV"
          },
          "href" : "https://api.spotify.com/v1/artists/11sAWrpIkFUPQlXoQqpeBV",
          "id" : "11sAWrpIkFUPQlXoQqpeBV",
          "name" : "Bill & Gloria Gaither",
          "type" : "artist",
          "uri" : "spotify:artist:11sAWrpIkFUPQlXoQqpeBV"
        } ],
        "external_urls" : {
          "spotify" : "https://open.spotify.com/album/5oaS6yghWsfUykX3SXsw83"
        },
        "href" : "https://api.spotify.com/v1/albums/5oaS6yghWsfUykX3SXsw83",
        "id" : "5oaS6yghWsfUykX3SXsw83",
        "images" : [ {
          "height" : 640,
          "url" : "https://i.scdn.co/image/ab67616d0000b273fad618dd5c8aa95a7d18d8a0",
          "width" : 640
        }, {
          "height" : 300,
          "url" : "https://i.scdn.co/image/ab67616d00001e02fad618dd5c8aa95a7d18d8a0",
          "width" : 300
        }, {
          "height" : 64,
          "url" : "https://i.scdn.co/image/ab67616d00004851fad618dd5c8aa95a7d18d8a0",
          "width" : 64
        } ],
        "name" : "Precious Memories",
        "release_date" : "2007",
        "release_date_precision" : "year",
        "total_tracks" : 20,
        "type" : "album",
        "uri" : "spotify:album:5oaS6yghWsfUykX3SXsw83"
      },
      "artists" : [ {
        "external_urls" : {
          "spotify" : "https://open.spotify.com/artist/5C8kymLzxGEAPJ3aNdFciB"
        },
        "href" : "https://api.spotify.com/v1/artists/5C8kymLzxGEAPJ3aNdFciB",
        "id" : "5C8kymLzxGEAPJ3aNdFciB",
        "name" : "The Martins",
        "type" : "artist",
        "uri" : "spotify:artist:5C8kymLzxGEAPJ3aNdFciB"
      } ],
      "disc_number" : 1,
      "duration_ms" : 167960,
      "explicit" : false,
      "external_ids" : {
        "isrc" : "US3270401729"
      },
      "external_urls" : {
        "spotify" : "https://open.spotify.com/track/6rQf0yQ0TRBSZJTV6EIQSr"
      },
      "href" : "https://api.spotify.com/v1/tracks/6rQf0yQ0TRBSZJTV6EIQSr",
      "id" : "6rQf0yQ0TRBSZJTV6EIQSr",
      "is_local" : false,
      "is_playable" : true,
      "name" : "He Leadeth Me",
      "popularity" : 22,
      "preview_url" : null,
      "track_number" : 15,
      "type" : "track",
      "uri" : "spotify:track:6rQf0yQ0TRBSZJTV6EIQSr"
    }, {
      "album" : {
        "album_type" : "album",
        "artists" : [ {
          "external_urls" : {
            "spotify" : "https://open.spotify.com/artist/6zCKr405jB5b6QI1IfFnf2"
          },
          "href" : "https://api.spotify.com/v1/artists/6zCKr405jB5b6QI1IfFnf2",
          "id" : "6zCKr405jB5b6QI1IfFnf2",
          "name" : "Dallas Christian Adult Concert Choir",
          "type" : "artist",
          "uri" : "spotify:artist:6zCKr405jB5b6QI1IfFnf2"
        } ],
        "external_urls" : {
          "spotify" : "https://open.spotify.com/album/7wRvsnB6hhp0u7oecwXkpV"
        },
        "href" : "https://api.spotify.com/v1/albums/7wRvsnB6hhp0u7oecwXkpV",
        "id" : "7wRvsnB6hhp0u7oecwXkpV",
        "images" : [ {
          "height" : 640,
          "url" : "https://i.scdn.co/image/ab67616d0000b27355ef72d57c19e5a670b31ff8",
          "width" : 640
        }, {
          "height" : 300,
          "url" : "https://i.scdn.co/image/ab67616d00001e0255ef72d57c19e5a670b31ff8",
          "width" : 300
        }, {
          "height" : 64,
          "url" : "https://i.scdn.co/image/ab67616d0000485155ef72d57c19e5a670b31ff8",
          "width" : 64
        } ],
        "name" : "I Can Hear My Savior Calling",
        "release_date" : "2008-05-13",
        "release_date_precision" : "day",
        "total_tracks" : 26,
        "type" : "album",
        "uri" : "spotify:album:7wRvsnB6hhp0u7oecwXkpV"
      },
      "artists" : [ {
        "external_urls" : {
          "spotify" : "https://open.spotify.com/artist/6zCKr405jB5b6QI1IfFnf2"
        },
        "href" : "https://api.spotify.com/v1/artists/6zCKr405jB5b6QI1IfFnf2",
        "id" : "6zCKr405jB5b6QI1IfFnf2",
        "name" : "Dallas Christian Adult Concert Choir",
        "type" : "artist",
        "uri" : "spotify:artist:6zCKr405jB5b6QI1IfFnf2"
      } ],
      "disc_number" : 1,
      "duration_ms" : 176466,
      "explicit" : false,
      "external_ids" : {
        "isrc" : "USMZA0811453"
      },
      "external_urls" : {
        "spotify" : "https://open.spotify.com/track/7fXOEZwgBXmLdw0Ot3pAND"
      },
      "href" : "https://api.spotify.com/v1/tracks/7fXOEZwgBXmLdw0Ot3pAND",
      "id" : "7fXOEZwgBXmLdw0Ot3pAND",
      "is_local" : false,
      "is_playable" : true,
      "name" : "He Leadeth Me",
      "popularity" : 20,
      "preview_url" : "https://p.scdn.co/mp3-preview/8603ed61349e27247e2ead295237639768822f26?cid=774b29d4f13844c495f206cafdad9c86",
      "track_number" : 2,
      "type" : "track",
      "uri" : "spotify:track:7fXOEZwgBXmLdw0Ot3pAND"
    }, {
      "album" : {
        "album_type" : "album",
        "artists" : [ {
          "external_urls" : {
            "spotify" : "https://open.spotify.com/artist/652mJtf86ADYzaZM5WKD0T"
          },
          "href" : "https://api.spotify.com/v1/artists/652mJtf86ADYzaZM5WKD0T",
          "id" : "652mJtf86ADYzaZM5WKD0T",
          "name" : "Bruce Kurnow",
          "type" : "artist",
          "uri" : "spotify:artist:652mJtf86ADYzaZM5WKD0T"
        } ],
        "external_urls" : {
          "spotify" : "https://open.spotify.com/album/7DJGJFX6S7r8l3eBfVNF3U"
        },
        "href" : "https://api.spotify.com/v1/albums/7DJGJFX6S7r8l3eBfVNF3U",
        "id" : "7DJGJFX6S7r8l3eBfVNF3U",
        "images" : [ {
          "height" : 640,
          "url" : "https://i.scdn.co/image/ab67616d0000b273b2916584b125c2d21aa2a317",
          "width" : 640
        }, {
          "height" : 300,
          "url" : "https://i.scdn.co/image/ab67616d00001e02b2916584b125c2d21aa2a317",
          "width" : 300
        }, {
          "height" : 64,
          "url" : "https://i.scdn.co/image/ab67616d00004851b2916584b125c2d21aa2a317",
          "width" : 64
        } ],
        "name" : "Inspirational Harp: Hymns",
        "release_date" : "2014-01-01",
        "release_date_precision" : "day",
        "total_tracks" : 14,
        "type" : "album",
        "uri" : "spotify:album:7DJGJFX6S7r8l3eBfVNF3U"
      },
      "artists" : [ {
        "external_urls" : {
          "spotify" : "https://open.spotify.com/artist/652mJtf86ADYzaZM5WKD0T"
        },
        "href" : "https://api.spotify.com/v1/artists/652mJtf86ADYzaZM5WKD0T",
        "id" : "652mJtf86ADYzaZM5WKD0T",
        "name" : "Bruce Kurnow",
        "type" : "artist",
        "uri" : "spotify:artist:652mJtf86ADYzaZM5WKD0T"
      } ],
      "disc_number" : 1,
      "duration_ms" : 249933,
      "explicit" : false,
      "external_ids" : {
        "isrc" : "USP3J1006130"
      },
      "external_urls" : {
        "spotify" : "https://open.spotify.com/track/4csOAq4pfEg14G9J2OPGFx"
      },
      "href" : "https://api.spotify.com/v1/tracks/4csOAq4pfEg14G9J2OPGFx",
      "id" : "4csOAq4pfEg14G9J2OPGFx",
      "is_local" : false,
      "is_playable" : true,
      "name" : "He Leadeth Me",
      "popularity" : 18,
      "preview_url" : "https://p.scdn.co/mp3-preview/cd6014f2a250b745b67a5e83ab58364c35bbe414?cid=774b29d4f13844c495f206cafdad9c86",
      "track_number" : 5,
      "type" : "track",
      "uri" : "spotify:track:4csOAq4pfEg14G9J2OPGFx"
    }, {
      "album" : {
        "album_type" : "album",
        "artists" : [ {
          "external_urls" : {
            "spotify" : "https://open.spotify.com/artist/4XUltzTgP8sMvgKTOyjceo"
          },
          "href" : "https://api.spotify.com/v1/artists/4XUltzTgP8sMvgKTOyjceo",
          "id" : "4XUltzTgP8sMvgKTOyjceo",
          "name" : "Discovery Singers",
          "type" : "artist",
          "uri" : "spotify:artist:4XUltzTgP8sMvgKTOyjceo"
        } ],
        "external_urls" : {
          "spotify" : "https://open.spotify.com/album/3LNvnRus6OtSIbYnWfadf9"
        },
        "href" : "https://api.spotify.com/v1/albums/3LNvnRus6OtSIbYnWfadf9",
        "id" : "3LNvnRus6OtSIbYnWfadf9",
        "images" : [ {
          "height" : 640,
          "url" : "https://i.scdn.co/image/ab67616d0000b273072baa16109183d0adccffb9",
          "width" : 640
        }, {
          "height" : 300,
          "url" : "https://i.scdn.co/image/ab67616d00001e02072baa16109183d0adccffb9",
          "width" : 300
        }, {
          "height" : 64,
          "url" : "https://i.scdn.co/image/ab67616d00004851072baa16109183d0adccffb9",
          "width" : 64
        } ],
        "name" : "A Cappella Hymns: Great is Thy Faithfulness",
        "release_date" : "2006-09-20",
        "release_date_precision" : "day",
        "total_tracks" : 17,
        "type" : "album",
        "uri" : "spotify:album:3LNvnRus6OtSIbYnWfadf9"
      },
      "artists" : [ {
        "external_urls" : {
          "spotify" : "https://open.spotify.com/artist/4XUltzTgP8sMvgKTOyjceo"
        },
        "href" : "https://api.spotify.com/v1/artists/4XUltzTgP8sMvgKTOyjceo",
        "id" : "4XUltzTgP8sMvgKTOyjceo",
        "name" : "Discovery Singers",
        "type" : "artist",
        "uri" : "spotify:artist:4XUltzTgP8sMvgKTOyjceo"
      } ],
      "disc_number" : 1,
      "duration_ms" : 193640,
      "explicit" : false,
      "external_ids" : {
        "isrc" : "USDHM0602843"
      },
      "external_urls" : {
        "spotify" : "https://open.spotify.com/track/28oCkv7VDsOsdAe0U1PUq5"
      },
      "href" : "https://api.spotify.com/v1/tracks/28oCkv7VDsOsdAe0U1PUq5",
      "id" : "28oCkv7VDsOsdAe0U1PUq5",
      "is_local" : false,
      "is_playable" : true,
      "name" : "He Leadeth Me, O Blessed Thought",
      "popularity" : 22,
      "preview_url" : "https://p.scdn.co/mp3-preview/b63f15e2f1ebe8ab012bdf263f1972dc6d6c0375?cid=774b29d4f13844c495f206cafdad9c86",
      "track_number" : 10,
      "type" : "track",
      "uri" : "spotify:track:28oCkv7VDsOsdAe0U1PUq5"
    } ],
    "limit" : 10,
    "next" : "https://api.spotify.com/v1/search?query=He+Leadeth+Me&type=track&market=US&offset=15&limit=10",
    "offset" : 5,
    "previous" : "https://api.spotify.com/v1/search?query=He+Leadeth+Me&type=track&market=US&offset=0&limit=10",
    "total" : 604
  }
}