{
  "tracks" : {
    "href" : "https://api.spotify.com/v1/search?query=Come%2C+Holy+Spirit&type=track&market=US&offset=5&limit=10",
    "items" : [ {
      "album" : {
        "album_type" : "album",
        "artists" : [ {
          "external_urls" : {
            "spotify" : "https://open.spotify.com/artist/5A0SFJQSdSjFHGcndiGT1s"
          },
          "href" : "https://api.spotify.com/v1/artists/5A0SFJQSdSjFHGcndiGT1s",
          "id" : "5A0SFJQSdSjFHGcndiGT1s",
          "name" : "Planetshakers",
          "type" : "artist",
          "uri" : "spotify:artist:5A0SFJQSdSjFHGcndiGT1s"
        } ],
        "external_urls" : {
          "spotify" : "https://open.spotify.com/album/4B54yp1tZZAjz2LvYd2jDO"
        },
        "href" : "https://api.spotify.com/v1/albums/4B54yp1tZZAjz2LvYd2jDO",
        "id" : "4B54yp1tZZAjz2LvYd2jDO",
        "images" : [ {
          "height" : 640,
          "url" : "https://i.scdn.co/image/ab67616d0000b2739027ea36e18175c5a386d594",
          "width" : 640
        }, {
          "height" : 300,
          "url" : "https://i.scdn.co/image/ab67616d00001e029027ea36e18175c5a386d594",
          "width" : 300
        }, {
          "height" : 64,
          "url" : "https://i.scdn.co/image/ab67616d000048519027ea36e18175c5a386d594",
          "width" : 64
        } ],
        "name" : "All For Love",
        "release_date" : "2008-01-01",
        "release_date_precision" : "day",
        "total_tracks" : 12,
        "type" : "album",
        "uri" : "spotify:album:4B54yp1tZZAjz2LvYd2jDO"
      },
      "artists" : [ {
        "external_urls" : {
          "spotify" : "https://open.spotify.com/artist/5A0SFJQSdSjFHGcndiGT1s"
        },
        "href" : "https://api.spotify.com/v1/artists/5A0SFJQSdSjFHGcndiGT1s",
        "id" : "5A0SFJQSdSjFHGcndiGT1s",
        "name" : "Planetshakers",
        "type" : "artist",
        "uri" : "spotify:artist:5A0SFJQSdSjFHGcndiGT1s"
      } ],
      "disc_number" : 1,
      "duration_ms" : 352453,
      "explicit" : false,
      "external_ids" : {
        "isrc" : "AUWO80817010"
      },
      "external_urls" : {
        "spotify" : "https://open.spotify.com/track/39So2wAM6l3XKWDf5XjiIz"
      },
      "href" : "https://api.spotify.com/v1/tracks/39So2wAM6l3XKWDf5XjiIz",
      "id" : "39So2wAM6l3XKWDf5XjiIz",
      "is_local" : false,
      "is_playable" : true,
      "name" : "Come Holy Spirit",
      "popularity" : 34,
      "preview_url" : "https://p.scdn.co/mp3-preview/c0d8714b4a461211b1713561d5b9a469e053c66a?cid=774b29d4f13844c495f206cafdad9c86",
      "track_number" : 10,
      "type" : "track",
      "uri" : "spotify:track:39So2wAM6l3XKWDf5XjiIz"
    }, {
      "album" : {
        "album_type" : "album",
        "artists" : [ {
          "external_urls" : {
            "spotify" : "https://open.spotify.com/artist/1dPl8axUL09mso0myZqPZW"
          },
          "href" : "https://api.spotify.com/v1/artists/1dPl8axUL09mso0myZqPZW",
          "id" : "1dPl8axUL09mso0myZqPZW",
          "name" : "Matt Maher",
          "type" : "artist",
          "uri" : "spotify:artist:1dPl8axUL09mso0myZqPZW"
        } ],
        "external_urls" : {
          "spotify" : "https://open.spotify.com/album/1BxJ93fbfJSKQ4GWqUcQB9"
        },
        "href" : "https://api.spotify.com/v1/albums/1BxJ93fbfJSKQ4GWqUcQB9",
        "id" : "1BxJ93fbfJSKQ4GWqUcQB9",
        "images" : [ {
          "height" : 640,
          "url" : "https://i.scdn.co/image/ab67616d0000b273cb3bfbf45d3a9519c5cbba95",
          "width" : 640
        }, {
          "height" : 300,
          "url" : "https://i.scdn.co/image/ab67616d00001e02cb3bfbf45d3a9519c5cbba95",
          "width" : 300
        }, {
          "height" : 64,
          "url" : "https://i.scdn.co/image/ab67616d00004851cb3bfbf45d3a9519c5cbba95",
          "width" : 64
        } ],
        "name" : "Alive & Breathing",
        "release_date" : "2020-03-06",
        "release_date_precision" : "day",
        "total_tracks" : 14,
        "type" : "album",
        "uri" : "spotify:album:1BxJ93fbfJSKQ4GWqUcQB9"
      },
      "artists" : [ {
        "external_urls" : {
          "spotify" : "https://open.spotify.com/artist/1dPl8axUL09mso0myZqPZW"
        },
        "href" : "https://api.spotify.com/v1/artists/1dPl8axUL09mso0myZqPZW",
        "id" : "1dPl8axUL09mso0myZqPZW",
        "name" : "Matt Maher",
        "type" : "artist",
        "uri" : "spotify:artist:1dPl8axUL09mso0myZqPZW"
      }, {
        "external_urls" : {
          "spotify" : "https://open.spotify.com/artist/7ISMNhe95QNLqHgsCHAVeu"
        },
        "href" : "https://api.spotify.com/v1/artists/7ISMNhe95QNLqHgsCHAVeu",
        "id" : "7ISMNhe95QNLqHgsCHAVeu",
        "name" : "Martin Smith",
        "type" : "artist",
        "uri" : "spotify:artist:7ISMNhe95QNLqHgsCHAVeu"
      } ],
      "disc_number" : 1,
      "duration_ms" : 532626,
      "explicit" : false,
      "external_ids" : {
        "isrc" : "USA5W1900445"
      },
      "external_urls" : {
        "spotify" : "https://open.spotify.com/track/3UqKSaT0ngCzZvTOC9i62V"
      },
      "href" : "https://api.spotify.com/v1/tracks/3UqKSaT0ngCzZvTOC9i62V",
      "id" : "3UqKSaT0ngCzZvTOC9i62V",
      "is_local" : false,
      "is_playable" : true,
      "name" : "Come Holy Spirit (Live)",
      "popularity" : 26,
      "preview_url" : "https://p.scdn.co/mp3-preview/feba5d9c7dbf1e419859f0eaff2fbbabf4db6813?cid=774b29d4f13844c495f206cafdad9c86",
      "track_number" : 13,
      "type" : "track",
      "uri" : "spotify:track:3UqKSaT0ngCzZvTOC9i62V"
    }, {
      "album" : {
        "album_type" : "album",
        "artists" : [ {
          "external_urls" : {
            "spotify" : "https://open.spotify.com/artist/0wiD0pcfAS8545DNHBcriR"
          },
          "href" : "https://api.spotify.com/v1/artists/0wiD0pcfAS8545DNHBcriR",
          "id" : "0wiD0pcfAS8545DNHBcriR",
          "name" : "Martha Munizzi",
          "type" : "artist",
          "uri" : "spotify:artist:0wiD0pcfAS8545DNHBcriR"
        } ],
        "external_urls" : {
          "spotify" : "https://open.spotify.com/album/4b0cur2zVjFVJ9AoKuEAD8"
        },
        "href" : "https://api.spotify.com/v1/albums/4b0cur2zVjFVJ9AoKuEAD8",
        "id" : "4b0cur2zVjFVJ9AoKuEAD8",
        "images" : [ {
          "height" : 640,
          "url" : "https://i.scdn.co/image/ab67616d0000b273c6b36c4cddabb98c6dda753d",
          "width" : 640
        }, {
          "height" : 300,
          "url" : "https://i.scdn.co/image/ab67616d00001e02c6b36c4cddabb98c6dda753d",
          "width" : 300
        }, {
          "height" : 64,
          "url" : "https://i.scdn.co/image/ab67616d00004851c6b36c4cddabb98c6dda753d",
          "width" : 64
        } ],
        "name" : "No Limits",
        "release_date" : "2006-01-01",
        "release_date_precision" : "day",
        "total_tracks" : 22,
        "type" : "album",
        "uri" : "spotify:album:4b0cur2zVjFVJ9AoKuEAD8"
      },
      "artists" : [ {
        "external_urls" : {
          "spotify" : "https://open.spotify.com/artist/0wiD0pcfAS8545DNHBcriR"
        },
        "href" : "https://api.spotify.com/v1/artists/0wiD0pcfAS8545DNHBcriR",
        "id" : "0wiD0pcfAS8545DNHBcriR",
        "name" : "Martha Munizzi",
        "type" : "artist",
        "uri" : "spotify:artist:0wiD0pcfAS8545DNHBcriR"
      } ],
      "disc_number" : 1,
      "duration_ms" : 200426,
      "explicit" : false,
      "external_ids" : {
        "isrc" : "USACX1000245"
      },
      "external_urls" : {
        "spotify" : "https://open.spotify.com/track/2M9yFPQzHlFZiS9Lx0LB94"
      },
      "href" : "https://api.spotify.com/v1/tracks/2M9yFPQzHlFZiS9Lx0LB94",
      "id" : "2M9yFPQzHlFZiS9Lx0LB94",
      "is_local" : false,
      "is_playable" : true,
      "name" : "Come Holy Spirit",
      "popularity" : 21,
      "preview_url" : "https://p.scdn.co/mp3-preview/ef49e0ec62867a9f1b6c2cbd29aed09fd10ce469?cid=774b29d4f13844c495f206cafdad9c86",
      "track_number" : 15,
      "type" : "track",
      "uri" : "spotify:track:2M9yFPQzHlFZiS9Lx0LB94"
    }, {
      "album" : {
        "album_type" : "album",
        "artists" : [ {
          "external_urls" : {
            "spotify" : "https://open.spotify.com/artist/1FNmqPy2DuIQkZEWSzO3Cw"
          },
          "href" : "https://api.spotify.com/v1/artists/1FNmqPy2DuIQkZEWSzO3Cw",
          "id" : "1FNmqPy2DuIQkZEWSzO3Cw",
          "name" : "Bryan Duncan",
          "type" : "artist",
          "uri" : "spotify:artist:1FNmqPy2DuIQkZEWSzO3Cw"
        } ],
        "external_urls" : {
          "spotify" : "https://open.spotify.com/album/7wRiXztBlwWCnlsaLkWDxj"
        },
        "href" : "https://api.spotify.com/v1/albums/7wRiXztBlwWCnlsaLkWDxj",
        "id" : "7wRiXztBlwWCnlsaLkWDxj",
        "images" : [ {
          "height" : 640,
          "url" : "https://i.scdn.co/image/ab67616d0000b2738a497c410b98462915f08385",
          "width" : 640
        }, {
          "height" : 300,
          "url" : "https://i.scdn.co/image/ab67616d00001e028a497c410b98462915f08385",
          "width" : 300
        }, {
          "height" : 64,
          "url" : "https://i.scdn.co/image/ab67616d000048518a497c410b98462915f08385",
          "width" : 64
        } ],
        "name" : "My Utmost For His Highest Quiet Prayers",
        "release_date" : "1996-07-16",
        "release_date_precision" : "day",
        "total_tracks" : 11,
        "type" : "album",
        "uri" : "spotify:album:7wRiXztBlwWCnlsaLkWDxj"
      },
      "artists" : [ {
        "external_urls" : {
          "spotify" : "https://open.spotify.com/artist/1FNmqPy2DuIQkZEWSzO3Cw"
        },
        "href" : "https://api.spotify.com/v1/artists/1FNmqPy2DuIQkZEWSzO3Cw",
        "id" : "1FNmqPy2DuIQkZEWSzO3Cw",
        "name" : "Bryan Duncan",
        "type" : "artist",
        "uri" : "spotify:artist:1FNmqPy2DuIQkZEWSzO3Cw"
      } ],
      "disc_number" : 1,
      "duration_ms" : 206866,
      "explicit" : false,
      "external_ids" : {
        "isrc" : "USSM19600905"
      },
      "external_urls" : {
        "spotify" : "https://open.spotify.com/track/1PQe7gv4ShXs5f476pd10L"
      },
      "href" : "https://api.spotify.com/v1/tracks/1PQe7gv4ShXs5f476pd10L",
      "id" : "1PQe7gv4ShXs5f476pd10L",
      "is_local" : false,
      "is_playable" : true,
      "name" : "Come, Holy Spirit",
      "popularity" : 18,
      "preview_url" : "https://p.scdn.co/mp3-preview/b4f58454cbe88fb01a124f0ef267fd94faeb0a92?cid=774b29d4f13844c495f206cafdad9c86",
      "track_number" : 5,
      "type" : "track",
      "uri" : "spotify:track:1PQe7gv4ShXs5f476pd10L"
    }, {
      "album" : {
        "album_type" : "album",
        "artists" : [ {
          "external_urls" : {
            "spotify" : "https://open.spotify.com/artist/6XO3qvojcQqWmmzZnqFF8C"
          },
          "href" : "https://api.spotify.com/v1/artists/6XO3qvojcQqWmmzZnqFF8C",
          "id" : "6XO3qvojcQqWmmzZnqFF8C",
          "name" : "Jubilee Worship",
          "type" : "artist",
          "uri" : "spotify:artist:6XO3qvojcQqWmmzZnqFF8C"
        } ],
        "external_urls" : {
          "spotify" : "https://open.spotify.com/album/0sUrIcQc0Pk2jRMlWQIPXU"
        },
        "href" : "https://api.spotify.com/v1/albums/0sUrIcQc0Pk2jRMlWQIPXU",
        "id" : "0sUrIcQc0Pk2jRMlWQIPXU",
        "images" : [ {
          "height" : 640,
          "url" : "https://i.scdn.co/image/ab67616d0000b273d8ce3bd0a0d1c7aafec0b2f7",
          "width" : 640
        }, {
          "height" : 300,
          "url" : "https://i.scdn.co/image/ab67616d00001e02d8ce3bd0a0d1c7aafec0b2f7",
          "width" : 300
        }, {
          "height" : 64,
          "url" : "https://i.scdn.co/image/ab67616d00004851d8ce3bd0a0d1c7aafec0b2f7",
          "width" : 64
        } ],
        "name" : "Atmosphere Chapter 1",
        "release_date" : "2017-12-29",
        "release_date_precision" : "day",
        "total_tracks" : 6,
        "type" : "album",
        "uri" : "spotify:album:0sUrIcQc0Pk2jRMlWQIPXU"
      },
      "artists" : [ {
        "external_urls" : {
          "spotify" : "https://open.spotify.com/artist/6XO3qvojcQqWmmzZnqFF8C"
        },
        "href" : "https://api.spotify.com/v1/artists/6XO3qvojcQqWmmzZnqFF8C",
        "id" : "6XO3qvojcQqWmmzZnqFF8C",
        "name" : "Jubilee Worship",
        "type" : "artist",
        "uri" : "spotify:artist:6XO3qvojcQqWmmzZnqFF8C"
      } ],
      "disc_number" : 1,
      "duration_ms" : 520055,
      "explicit" : false,
      "external_ids" : {
        "isrc" : "QMEU31721946"
      },
      "external_urls" : {
        "spotify" : "https://open.spotify.com/track/5Y1qSCYhJeidMoPLWQXbHZ"
      },
      "href" : "https://api.spotify.com/v1/tracks/5Y1qSCYhJeidMoPLWQXbHZ",
      "id" : "5Y1qSCYhJeidMoPLWQXbHZ",
      "is_local" : false,
      "is_playable" : true,
      "name" : "Come Holy Spirit",
      "popularity" : 23,
      "preview_url" : "https://p.scdn.co/mp3-preview/a0d1ab727cf8e065322c0ba159791f3921fbc662?cid=774b29d4f13844c495f206cafdad9c86",
      "track_number" : 4,
      "type" : "track",
      "uri" : "spotify:track:5Y1qSCYhJeidMoPLWQXbHZ"
    }, {
      "album" : {
        "album_type" : "compilation",
        "artists" : [ {
          "external_urls" : {
            "spotify" : "https://open.spotify.com/artist/0LyfQWJT6nXafLPZqxe9Of"
          },
          "href" : "https://api.spotify.com/v1/artists/0LyfQWJT6nXafLPZqxe9Of",
          "id" : "0LyfQWJT6nXafLPZqxe9Of",
          "name" : "Various Artists",
          "type" : "artist",
          "uri" : "spotify:artist:0LyfQWJT6nXafLPZqxe9Of"
        } ],
        "external_urls" : {
          "spotify" : "https://open.spotify.com/album/43kzbiZ1oqQwXnqzNtYDlR"
        },
        "href" : "https://api.spotify.com/v1/albums/43kzbiZ1oqQwXnqzNtYDlR",
        "id" : "43kzbiZ1oqQwXnqzNtYDlR",
        "images" : [ {
          "height" : 640,
          "url" : "https://i.scdn.co/image/ab67616d0000b273363d2c2ace3d9a437a526a24",
          "width" : 640
        }, {
          "height" : 300,
          "url" : "https://i.scdn.co/image/ab67616d00001e02363d2c2ace3d9a437a526a24",
          "width" : 300
        }, {
          "height" : 64,
          "url" : "https://i.scdn.co/image/ab67616d00004851363d2c2ace3d9a437a526a24",
          "width" : 64
        } ],
        "name" : "Good God! Apocryphal Hymns",
        "release_date" : "2013-05-07",
        "release_date_precision" : "day",
        "total_tracks" : 19,
        "type" : "album",
        "uri" : "spotify:album:43kzbiZ1oqQwXnqzNtYDlR"
      },
      "artists" : [ {
        "external_urls" : {
          "spotify" : "https://open.spotify.com/artist/5Gzp6mHSFuMPAJmKo3nv1k"
        },
        "href" : "https://api.spotify.com/v1/artists/5Gzp6mHSFuMPAJmKo3nv1k",
        "id" : "5Gzp6mHSFuMPAJmKo3nv1k",
        "name" : "God's Band",
        "type" : "artist",
        "uri" : "spotify:artist:5Gzp6mHSFuMPAJmKo3nv1k"
      } ],
      "disc_number" : 1,
      "duration_ms" : 274213,
      "explicit" : false,
      "external_ids" : {
        "isrc" : "USCW61304013"
      },
      "external_urls" : {
        "spotify" : "https://open.spotify.com/track/4XlO8YA3A4qNUuYI76EmCk"
      },
      "href" : "https://api.spotify.com/v1/tracks/4XlO8YA3A4qNUuYI76EmCk",
      "id" : "4XlO8YA3A4qNUuYI76EmCk",
      "is_local" : false,
      "is_playable" : true,
      "name" : "Come Holy Spirit",
      "popularity" : 19,
      "preview_url" : "https://p.scdn.co/mp3-preview/1cbbbaddd548fd096dadd0baf1ee36c43f6d0a0b?cid=774b29d4f13844c495f206cafdad9c86",
      "track_number" : 13,
      "type" : "track",
      "uri" : "spotify:track:4XlO8YA3A4qNUuYI76EmCk"
    }, {
      "album" : {
        "album_type" : "album",
        "artists" : [ {
          "external_urls" : {
            "spotify" : "https://open.spotify.com/artist/3PM2Mavn4aG4UXgG07dxCg"
          },
          "href" : "https://api.spotify.com/v1/artists/3PM2Mavn4aG4UXgG07dxCg",
          "id" : "3PM2Mavn4aG4UXgG07dxCg",
          "name" : "Benny Hinn",
          "type" : "artist",
          "uri" : "spotify:artist:3PM2Mavn4aG4UXgG07dxCg"
        } ],
        "external_urls" : {
          "spotify" : "https://open.spotify.com/album/70j35xkIx78c4zHJsUfftw"
        },
        "href" : "https://api.spotify.com/v1/albums/70j35xkIx78c4zHJsUfftw",
        "id" : "70j35xkIx78c4zHJsUfftw",
        "images" : [ {
          "height" : 640,
          "url" : "https://i.scdn.co/image/ab67616d0000b2733678d3a6790e015b803ba0f9",
          "width" : 640
        }, {
          "height" : 300,
          "url" : "https://i.scdn.co/image/ab67616d00001e023678d3a6790e015b803ba0f9",
          "width" : 300
        }, {
          "height" : 64,
          "url" : "https://i.scdn.co/image/ab67616d000048513678d3a6790e015b803ba0f9",
          "width" : 64
        } ],
        "name" : "I Need Thee Every Hour",
        "release_date" : "2011-02-03",
        "release_date_precision" : "day",
        "total_tracks" : 14,
        "type" : "album",
        "uri" : "spotify:album:70j35xkIx78c4zHJsUfftw"
      },
      "artists" : [ {
        "external_urls" : {
          "spotify" : "https://open.spotify.com/artist/3PM2Mavn4aG4UXgG07dxCg"
        },
        "href" : "https://api.spotify.com/v1/artists/3PM2Mavn4aG4UXgG07dxCg",
        "id" : "3PM2Mavn4aG4UXgG07dxCg",
        "name" : "Benny Hinn",
        "type" : "artist",
        "uri" : "spotify:artist:3PM2Mavn4aG4UXgG07dxCg"
      } ],
      "disc_number" : 1,
      "duration_ms" : 172120,
      "explicit" : false,
      "external_ids" : {
        "isrc" : "QZFZ61949119"
      },
      "external_urls" : {
        "spotify" : "https://open.spotify.com/track/1JqJMbncTqv9Q142bYSVKN"
      },
      "href" : "https://api.spotify.com/v1/tracks/1JqJMbncTqv9Q142bYSVKN",
      "id" : "1JqJMbncTqv9Q142bYSVKN",
      "is_local" : false,
      "is_playable" : true,
      "name" : "Come Holy Spirit, I Need You",
      "popularity" : 31,
      "preview_url" : "https://p.scdn.co/mp3-preview/bd0b213b8dfce29dc1312ad8023cecb54e92b59c?cid=774b29d4f13844c495f206cafdad9c86",
      "track_number" : 11,
      "type" : "track",
      "uri" : "spotify:track:1JqJMbncTqv9Q142bYSVKN"
    }, {
      "album" : {
        "album_type" : "album",
        "artists" : [ {
          "external_urls" : {
            "spotify" : "https://open.spotify.com/artist/0RfIUGBdiUjh8ETvSbHDNj"
          },
          "href" : "https://api.spotify.com/v1/artists/0RfIUGBdiUjh8ETvSbHDNj",
          "id" : "0RfIUGBdiUjh8ETvSbHDNj",
          "name" : "Among Thorns",
          "type" : "artist",
          "uri" : "spotify:artist:0RfIUGBdiUjh8ETvSbHDNj"
        } ],
        "external_urls" : {
          "spotify" : "https://open.spotify.com/album/4ORT2NTzMNrCLZysekq524"
        },
        "href" : "https://api.spotify.com/v1/albums/4ORT2NTzMNrCLZysekq524",
        "id" : "4ORT2NTzMNrCLZysekq524",
        "images" : [ {
          "height" : 640,
          "url" : "https://i.scdn.co/image/ab67616d0000b273dce594e6fcdbc589c70a67c6",
          "width" : 640
        }, {
          "height" : 300,
          "url" : "https://i.scdn.co/image/ab67616d00001e02dce594e6fcdbc589c70a67c6",
          "width" : 300
        }, {
          "height" : 64,
          "url" : "https://i.scdn.co/image/ab67616d00004851dce594e6fcdbc589c70a67c6",
          "width" : 64
        } ],
        "name" : "Desperate",
        "release_date" : "2001-01-01",
        "release_date_precision" : "day",
        "total_tracks" : 10,
        "type" : "album",
        "uri" : "spotify:album:4ORT2NTzMNrCLZysekq524"
      },
      "artists" : [ {
        "external_urls" : {
          "spotify" : "https://open.spotify.com/artist/0RfIUGBdiUjh8ETvSbHDNj"
        },
        "href" : "https://api.spotify.com/v1/artists/0RfIUGBdiUjh8ETvSbHDNj",
        "id" : "0RfIUGBdiUjh8ETvSbHDNj",
        "name" : "Among Thorns",
        "type" : "artist",
        "uri" : "spotify:artist:0RfIUGBdiUjh8ETvSbHDNj"
      } ],
      "disc_number" : 1,
      "duration_ms" : 277432,
      "explicit" : false,
      "external_ids" : {
        "isrc" : "USTC40870506"
      },
      "external_urls" : {
        "spotify" : "https://open.spotify.com/track/17SZl7etwKCnDG9TNbHuXt"
      },
      "href" : "https://api.spotify.com/v1/tracks/17SZl7etwKCnDG9TNbHuXt",
      "id" : "17SZl7etwKCnDG9TNbHuXt",
      "is_local" : false,
      "is_playable" : true,
      "name" : "Come Holy Spirit",
      "popularity" : 19,
      "preview_url" : "https://p.scdn.co/mp3-preview/0c6e0e3125c339dc80517fa04a0d0629e978f16b?cid=774b29d4f13844c495f206cafdad9c86",
      "track_number" : 9,
      "type" : "track",
      "uri" : "spotify:track:17SZl7etwKCnDG9TNbHuXt"
    }, {
      "album" : {
        "album_type" : "album",
        "artists" : [ {
          "external_urls" : {
            "spotify" : "https://open.spotify.com/artist/00zOnfp2XbezHQUNAYH7ON"
          },
          "href" : "https://api.spotify.com/v1/artists/00zOnfp2XbezHQUNAYH7ON",
          "id" : "00zOnfp2XbezHQUNAYH7ON",
          "name" : "John Michael Talbot",
          "type" : "artist",
          "uri" : "spotify:artist:00zOnfp2XbezHQUNAYH7ON"
        } ],
        "external_urls" : {
          "spotify" : "https://open.spotify.com/album/4kPBGpvWtyvFNdPeOilymt"
        },
        "href" : "https://api.spotify.com/v1/albums/4kPBGpvWtyvFNdPeOilymt",
        "id" : "4kPBGpvWtyvFNdPeOilymt",
        "images" : [ {
          "height" : 640,
          "url" : "https://i.scdn.co/image/ab67616d0000b273690ae78df85838aa639be0fa",
          "width" : 640
        }, {
          "height" : 300,
          "url" : "https://i.scdn.co/image/ab67616d00001e02690ae78df85838aa639be0fa",
          "width" : 300
        }, {
          "height" : 64,
          "url" : "https://i.scdn.co/image/ab67616d00004851690ae78df85838aa639be0fa",
          "width" : 64
        } ],
        "name" : "The Troubadour Years",
        "release_date" : "2008-08-14",
        "release_date_precision" : "day",
        "total_tracks" : 34,
        "type" : "album",
        "uri" : "spotify:album:4kPBGpvWtyvFNdPeOilymt"
      },
      "artists" : [ {
        "external_urls" : {
          "spotify" : "https://open.spotify.com/artist/00zOnfp2XbezHQUNAYH7ON"
        },
        "href" : "https://api.spotify.com/v1/artists/00zOnfp2XbezHQUNAYH7ON",
        "id" : "00zOnfp2XbezHQUNAYH7ON",
        "name" : "John Michael Talbot",
        "type" : "artist",
        "uri" : "spotify:artist:00zOnfp2XbezHQUNAYH7ON"
      } ],
      "disc_number" : 1,
      "duration_ms" : 281546,
      "explicit" : false,
      "external_ids" : {
        "isrc" : "USTL10810004"
      },
      "external_urls" : {
        "spotify" : "https://open.spotify.com/track/2QNHzxIYTxfpncKKDLCXTY"
      },
      "href" : "https://api.spotify.com/v1/tracks/2QNHzxIYTxfpncKKDLCXTY",
      "id" : "2QNHzxIYTxfpncKKDLCXTY",
      "is_local" : false,
      "is_playable" : true,
      "name" : "Come Holy Spirit (Veni Sancti Spiritus)",
      "popularity" : 21,
      "preview_url" : "https://p.scdn.co/mp3-preview/18ab29e1a86e41875397ee4ced3534c87a10c75d?cid=774b29d4f13844c495f206cafdad9c86",
      "track_number" : 4,
      "type" : "track",
      "uri" : "spotify:track:2QNHzxIYTxfpncKKDLCXTY"
    }, {
      "album" : {
        "album_type" : "album",
        "artists" : [ {
          "external_urls" : {
            "spotify" : "https://open.spotify.com/artist/7ISMNhe95QNLqHgsCHAVeu"
          },
          "href" : "https://api.spotify.com/v1/artists/7ISMNhe95QNLqHgsCHAVeu",
          "id" : "7ISMNhe95QNLqHgsCHAVeu",
          "name" : "Martin Smith",
          "type" : "artist",
          "uri" : "spotify:artist:7ISMNhe95QNLqHgsCHAVeu"
        } ],
        "external_urls" : {
          "spotify" : "https://open.spotify.com/album/6YFDhLe3hFshvBnDyUWeDh"
        },
        "href" : "https://api.spotify.com/v1/albums/6YFDhLe3hFshvBnDyUWeDh",
        "id" : "6YFDhLe3hFshvBnDyUWeDh",
        "images" : [ {
          "height" : 640,
          "url" : "https://i.scdn.co/image/ab67616d0000b273083c635fa238bfd2396dd428",
          "width" : 640
        }, {
          "height" : 300,
          "url" : "https://i.scdn.co/image/ab67616d00001e02083c635fa238bfd2396dd428",
          "width" : 300
        }, {
          "height" : 64,
          "url" : "https://i.scdn.co/image/ab67616d00004851083c635fa238bfd2396dd428",
          "width" : 64
        } ],
        "name" : "Love Song for a City (Live)",
        "release_date" : "2018-07-13",
        "release_date_precision" : "day",
        "total_tracks" : 13,
        "type" : "album",
        "uri" : "spotify:album:6YFDhLe3hFshvBnDyUWeDh"
      },
      "artists" : [ {
        "external_urls" : {
          "spotify" : "https://open.spotify.com/artist/7ISMNhe95QNLqHgsCHAVeu"
        },
        "href" : "https://api.spotify.com/v1/artists/7ISMNhe95QNLqHgsCHAVeu",
        "id" : "7ISMNhe95QNLqHgsCHAVeu",
        "name" : "Martin Smith",
        "type" : "artist",
        "uri" : "spotify:artist:7ISMNhe95QNLqHgsCHAVeu"
      } ],
      "disc_number" : 1,
      "duration_ms" : 375410,
      "explicit" : false,
      "external_ids" : {
        "isrc" : "UKPLK1800002"
      },
      "external_urls" : {
        "spotify" : "https://open.spotify.com/track/7G24fBluYhrZ3tO8Nj2KpB"
      },
      "href" : "https://api.spotify.com/v1/tracks/7G24fBluYhrZ3tO8Nj2KpB",
      "id" : "7G24fBluYhrZ3tO8Nj2KpB",
      "is_local" : false,
      "is_playable" : true,
      "name" : "Come Holy Spirit - Live from San Diego, CA",
      "popularity" : 27,
      "preview_url" : "https://p.scdn.co/mp3-preview/0d8faab290b515546b1875725c2481ef9bdf9562?cid=774b29d4f13844c495f206cafdad9c86",
      "track_number" : 2,
      "type" : "track",
      "uri" : "spotify:track:7G24fBluYhrZ3tO8Nj2KpB"
    } ],
    "limit" : 10,
    "next" : "https://api.spotify.com/v1/search?query=Come%2C+Holy+Spirit&type=track&market=US&offset=15&limit=10",
    "offset" : 5,
    "previous" : "https://api.spotify.com/v1/search?query=Come%2C+Holy+Spirit&type=track&market=US&offset=0&limit=10",
    "total" : 929
  }
}