{
  "tracks" : {
    "href" : "https://api.spotify.com/v1/search?query=Jesus+Is+All+the+World+to+Me&type=track&market=US&offset=5&limit=10",
    "items" : [ {
      "album" : {
        "album_type" : "album",
        "artists" : [ {
          "external_urls" : {
            "spotify" : "https://open.spotify.com/artist/3MJUsEcavOpd7TBTrlUt0f"
          },
          "href" : "https://api.spotify.com/v1/artists/3MJUsEcavOpd7TBTrlUt0f",
          "id" : "3MJUsEcavOpd7TBTrlUt0f",
          "name" : "Harding University Concert Choir",
          "type" : "artist",
          "uri" : "spotify:artist:3MJUsEcavOpd7TBTrlUt0f"
        }, {
          "external_urls" : {
            "spotify" : "https://open.spotify.com/artist/6zCKr405jB5b6QI1IfFnf2"
          },
          "href" : "https://api.spotify.com/v1/artists/6zCKr405jB5b6QI1IfFnf2",
          "id" : "6zCKr405jB5b6QI1IfFnf2",
          "name" : "Dallas Christian Adult Concert Choir",
          "type" : "artist",
          "uri" : "spotify:artist:6zCKr405jB5b6QI1IfFnf2"
        } ],
        "external_urls" : {
          "spotify" : "https://open.spotify.com/album/6IfQTrRCMElgnAzBm2zPon"
        },
        "href" : "https://api.spotify.com/v1/albums/6IfQTrRCMElgnAzBm2zPon",
        "id" : "6IfQTrRCMElgnAzBm2zPon",
        "images" : [ {
          "height" : 640,
          "url" : "https://i.scdn.co/image/ab67616d0000b2737b35d162b16426542bd5fa75",
          "width" : 640
        }, {
          "height" : 300,
          "url" : "https://i.scdn.co/image/ab67616d00001e027b35d162b16426542bd5fa75",
          "width" : 300
        }, {
          "height" : 64,
          "url" : "https://i.scdn.co/image/ab67616d000048517b35d162b16426542bd5fa75",
          "width" : 64
        } ],
        "name" : "Mansions Over the Hilltop",
        "release_date" : "2008-05-13",
        "release_date_precision" : "day",
        "total_tracks" : 23,
        "type" : "album",
        "uri" : "spotify:album:6IfQTrRCMElgnAzBm2zPon"
      },
      "artists" : [ {
        "external_urls" : {
          "spotify" : "https://open.spotify.com/artist/6zCKr405jB5b6QI1IfFnf2"
        },
        "href" : "https://api.spotify.com/v1/artists/6zCKr405jB5b6QI1IfFnf2",
        "id" : "6zCKr405jB5b6QI1IfFnf2",
        "name" : "Dallas Christian Adult Concert Choir",
        "type" : "artist",
        "uri" : "spotify:artist:6zCKr405jB5b6QI1IfFnf2"
      } ],
      "disc_number" : 1,
      "duration_ms" : 111986,
      "explicit" : false,
      "external_ids" : {
        "isrc" : "USMZA0811780"
      },
      "external_urls" : {
        "spotify" : "https://open.spotify.com/track/5s5XqoGxffZy7ueuohW5V9"
      },
      "href" : "https://api.spotify.com/v1/tracks/5s5XqoGxffZy7ueuohW5V9",
      "id" : "5s5XqoGxffZy7ueuohW5V9",
      "is_local" : false,
      "is_playable" : true,
      "name" : "Jesus is All the World to Me",
      "popularity" : 16,
      "preview_url" : "https://p.scdn.co/mp3-preview/056751b4238c4821b579e8c2e35fbc6beaf9714b?cid=774b29d4f13844c495f206cafdad9c86",
      "track_number" : 14,
      "type" : "track",
      "uri" : "spotify:track:5s5XqoGxffZy7ueuohW5V9"
    }, {
      "album" : {
        "album_type" : "album",
        "artists" : [ {
          "external_urls" : {
            "spotify" : "https://open.spotify.com/artist/5ZKBQyNLXQd1VfNf2oH5yF"
          },
          "href" : "https://api.spotify.com/v1/artists/5ZKBQyNLXQd1VfNf2oH5yF",
          "id" : "5ZKBQyNLXQd1VfNf2oH5yF",
          "name" : "Phillip Keveren",
          "type" : "artist",
          "uri" : "spotify:artist:5ZKBQyNLXQd1VfNf2oH5yF"
        } ],
        "external_urls" : {
          "spotify" : "https://open.spotify.com/album/3BbbRS4oieyMJyeG3v6u18"
        },
        "href" : "https://api.spotify.com/v1/albums/3BbbRS4oieyMJyeG3v6u18",
        "id" : "3BbbRS4oieyMJyeG3v6u18",
        "images" : [ {
          "height" : 640,
          "url" : "https://i.scdn.co/image/ab67616d0000b27306af257e944d3a56766b23ab",
          "width" : 640
        }, {
          "height" : 300,
          "url" : "https://i.scdn.co/image/ab67616d00001e0206af257e944d3a56766b23ab",
          "width" : 300
        }, {
          "height" : 64,
          "url" : "https://i.scdn.co/image/ab67616d0000485106af257e944d3a56766b23ab",
          "width" : 64
        } ],
        "name" : "Wondrous Love - Piano and Praise",
        "release_date" : "2010-05-19",
        "release_date_precision" : "day",
        "total_tracks" : 14,
        "type" : "album",
        "uri" : "spotify:album:3BbbRS4oieyMJyeG3v6u18"
      },
      "artists" : [ {
        "external_urls" : {
          "spotify" : "https://open.spotify.com/artist/5ZKBQyNLXQd1VfNf2oH5yF"
        },
        "href" : "https://api.spotify.com/v1/artists/5ZKBQyNLXQd1VfNf2oH5yF",
        "id" : "5ZKBQyNLXQd1VfNf2oH5yF",
        "name" : "Phillip Keveren",
        "type" : "artist",
        "uri" : "spotify:artist:5ZKBQyNLXQd1VfNf2oH5yF"
      } ],
      "disc_number" : 1,
      "duration_ms" : 278106,
      "explicit" : false,
      "external_ids" : {
        "isrc" : "USLF50801277"
      },
      "external_urls" : {
        "spotify" : "https://open.spotify.com/track/1ZXKWK7n5zPInDkuE1oFsD"
      },
      "href" : "https://api.spotify.com/v1/tracks/1ZXKWK7n5zPInDkuE1oFsD",
      "id" : "1ZXKWK7n5zPInDkuE1oFsD",
      "is_local" : false,
      "is_playable" : true,
      "name" : "Jesus, the Very Thought of Thee / Jesus Is All the World to Me",
      "popularity" : 15,
      "preview_url" : "https://p.scdn.co/mp3-preview/aba017794282891b37063b03895e7b820a11ca0c?cid=774b29d4f13844c495f206cafdad9c86",
      "track_number" : 9,
      "type" : "track",
      "uri" : "spotify:track:1ZXKWK7n5zPInDkuE1oFsD"
    }, {
      "album" : {
        "album_type" : "album",
        "artists" : [ {
          "external_urls" : {
            "spotify" : "https://open.spotify.com/artist/05sGBQhc6wrRAOZYo3gWqP"
          },
          "href" : "https://api.spotify.com/v1/artists/05sGBQhc6wrRAOZYo3gWqP",
          "id" : "05sGBQhc6wrRAOZYo3gWqP",
          "name" : "Worship Music Project",
          "type" : "artist",
          "uri" : "spotify:artist:05sGBQhc6wrRAOZYo3gWqP"
        } ],
        "external_urls" : {
          "spotify" : "https://open.spotify.com/album/5680pYxlL9t9vU664S2m2E"
        },
        "href" : "https://api.spotify.com/v1/albums/5680pYxlL9t9vU664S2m2E",
        "id" : "5680pYxlL9t9vU664S2m2E",
        "images" : [ {
          "height" : 640,
          "url" : "https://i.scdn.co/image/ab67616d0000b27393be9ed05a8ac2b81bb50994",
          "width" : 640
        }, {
          "height" : 300,
          "url" : "https://i.scdn.co/image/ab67616d00001e0293be9ed05a8ac2b81bb50994",
          "width" : 300
        }, {
          "height" : 64,
          "url" : "https://i.scdn.co/image/ab67616d0000485193be9ed05a8ac2b81bb50994",
          "width" : 64
        } ],
        "name" : "Endless Hymns For Opening Prayers 10 (기도를 여는 끊이지 않는 찬송가 10)",
        "release_date" : "2014-07-25",
        "release_date_precision" : "day",
        "total_tracks" : 8,
        "type" : "album",
        "uri" : "spotify:album:5680pYxlL9t9vU664S2m2E"
      },
      "artists" : [ {
        "external_urls" : {
          "spotify" : "https://open.spotify.com/artist/05sGBQhc6wrRAOZYo3gWqP"
        },
        "href" : "https://api.spotify.com/v1/artists/05sGBQhc6wrRAOZYo3gWqP",
        "id" : "05sGBQhc6wrRAOZYo3gWqP",
        "name" : "Worship Music Project",
        "type" : "artist",
        "uri" : "spotify:artist:05sGBQhc6wrRAOZYo3gWqP"
      } ],
      "disc_number" : 1,
      "duration_ms" : 182500,
      "explicit" : false,
      "external_ids" : {
        "isrc" : "KRB361433478"
      },
      "external_urls" : {
        "spotify" : "https://open.spotify.com/track/3WIzxxBfeVK8OyPshP0HPb"
      },
      "href" : "https://api.spotify.com/v1/tracks/3WIzxxBfeVK8OyPshP0HPb",
      "id" : "3WIzxxBfeVK8OyPshP0HPb",
      "is_local" : false,
      "is_playable" : true,
      "name" : "Jesus Is All The World to Me (예수는 나의 힘이요)",
      "popularity" : 12,
      "preview_url" : "https://p.scdn.co/mp3-preview/d1bbd30a4f1333e21a3b1668c2bdc49bb831aa8c?cid=774b29d4f13844c495f206cafdad9c86",
      "track_number" : 7,
      "type" : "track",
      "uri" : "spotify:track:3WIzxxBfeVK8OyPshP0HPb"
    }, {
      "album" : {
        "album_type" : "album",
        "artists" : [ {
          "external_urls" : {
            "spotify" : "https://open.spotify.com/artist/66l6SXrWHLjXFHfv202kdA"
          },
          "href" : "https://api.spotify.com/v1/artists/66l6SXrWHLjXFHfv202kdA",
          "id" : "66l6SXrWHLjXFHfv202kdA",
          "name" : "Pastor T.L. Barrett and the Youth for Christ Choir",
          "type" : "artist",
          "uri" : "spotify:artist:66l6SXrWHLjXFHfv202kdA"
        } ],
        "external_urls" : {
          "spotify" : "https://open.spotify.com/album/1ZPyTp7MzaPdvibwqrbI1C"
        },
        "href" : "https://api.spotify.com/v1/albums/1ZPyTp7MzaPdvibwqrbI1C",
        "id" : "1ZPyTp7MzaPdvibwqrbI1C",
        "images" : [ {
          "height" : 640,
          "url" : "https://i.scdn.co/image/ab67616d0000b2731c3056a9cabb0de7b3b7f96d",
          "width" : 640
        }, {
          "height" : 300,
          "url" : "https://i.scdn.co/image/ab67616d00001e021c3056a9cabb0de7b3b7f96d",
          "width" : 300
        }, {
          "height" : 64,
          "url" : "https://i.scdn.co/image/ab67616d000048511c3056a9cabb0de7b3b7f96d",
          "width" : 64
        } ],
        "name" : "Do Not Pass Me By Vol. II",
        "release_date" : "2017-11-24",
        "release_date_precision" : "day",
        "total_tracks" : 10,
        "type" : "album",
        "uri" : "spotify:album:1ZPyTp7MzaPdvibwqrbI1C"
      },
      "artists" : [ {
        "external_urls" : {
          "spotify" : "https://open.spotify.com/artist/66l6SXrWHLjXFHfv202kdA"
        },
        "href" : "https://api.spotify.com/v1/artists/66l6SXrWHLjXFHfv202kdA",
        "id" : "66l6SXrWHLjXFHfv202kdA",
        "name" : "Pastor T.L. Barrett and the Youth for Christ Choir",
        "type" : "artist",
        "uri" : "spotify:artist:66l6SXrWHLjXFHfv202kdA"
      } ],
      "disc_number" : 1,
      "duration_ms" : 310240,
      "explicit" : false,
      "external_ids" : {
        "isrc" : "USCW61727001"
      },
      "external_urls" : {
        "spotify" : "https://open.spotify.com/track/0X7jgyiDcwTcGaSWyu8jgu"
      },
      "href" : "https://api.spotify.com/v1/tracks/0X7jgyiDcwTcGaSWyu8jgu",
      "id" : "0X7jgyiDcwTcGaSWyu8jgu",
      "is_local" : false,
      "is_playable" : true,
      "name" : "Jesus Is All the World to Me",
      "popularity" : 13,
      "preview_url" : "https://p.scdn.co/mp3-preview/11d090f28b895e6d14eaf872fe2e49329b11e07b?cid=774b29d4f13844c495f206cafdad9c86",
      "track_number" : 1,
      "type" : "track",
      "uri" : "spotify:track:0X7jgyiDcwTcGaSWyu8jgu"
    }, {
      "album" : {
        "album_type" : "album",
        "artists" : [ {
          "external_urls" : {
            "spotify" : "https://open.spotify.com/artist/6v2VjBVPcGVbBqJrUWYiG1"
          },
          "href" : "https://api.spotify.com/v1/artists/6v2VjBVPcGVbBqJrUWYiG1",
          "id" : "6v2VjBVPcGVbBqJrUWYiG1",
          "name" : "Kirk Whalum",
          "type" : "artist",
          "uri" : "spotify:artist:6v2VjBVPcGVbBqJrUWYiG1"
        } ],
        "external_urls" : {
          "spotify" : "https://open.spotify.com/album/32X0W4HRWDodzORBvVTzj5"
        },
        "href" : "https://api.spotify.com/v1/albums/32X0W4HRWDodzORBvVTzj5",
        "id" : "32X0W4HRWDodzORBvVTzj5",
        "images" : [ {
          "height" : 640,
          "url" : "https://i.scdn.co/image/ab67616d0000b2739d5f1fa7cf82e934d7cb9b21",
          "width" : 640
        }, {
          "height" : 300,
          "url" : "https://i.scdn.co/image/ab67616d00001e029d5f1fa7cf82e934d7cb9b21",
          "width" : 300
        }, {
          "height" : 64,
          "url" : "https://i.scdn.co/image/ab67616d000048519d5f1fa7cf82e934d7cb9b21",
          "width" : 64
        } ],
        "name" : "Hymns in the Garden",
        "release_date" : "2001-09-21",
        "release_date_precision" : "day",
        "total_tracks" : 13,
        "type" : "album",
        "uri" : "spotify:album:32X0W4HRWDodzORBvVTzj5"
      },
      "artists" : [ {
        "external_urls" : {
          "spotify" : "https://open.spotify.com/artist/6v2VjBVPcGVbBqJrUWYiG1"
        },
        "href" : "https://api.spotify.com/v1/artists/6v2VjBVPcGVbBqJrUWYiG1",
        "id" : "6v2VjBVPcGVbBqJrUWYiG1",
        "name" : "Kirk Whalum",
        "type" : "artist",
        "uri" : "spotify:artist:6v2VjBVPcGVbBqJrUWYiG1"
      } ],
      "disc_number" : 1,
      "duration_ms" : 355773,
      "explicit" : false,
      "external_ids" : {
        "isrc" : "US6PL0100007"
      },
      "external_urls" : {
        "spotify" : "https://open.spotify.com/track/0w7qxsu74MKZlYTWzaO5Dj"
      },
      "href" : "https://api.spotify.com/v1/tracks/0w7qxsu74MKZlYTWzaO5Dj",
      "id" : "0w7qxsu74MKZlYTWzaO5Dj",
      "is_local" : false,
      "is_playable" : true,
      "name" : "Jesus Is All the World to Me",
      "popularity" : 9,
      "preview_url" : "https://p.scdn.co/mp3-preview/125ad1ec1b0caff0d5320cf417e0abf50d6830f9?cid=774b29d4f13844c495f206cafdad9c86",
      "track_number" : 7,
      "type" : "track",
      "uri" : "spotify:track:0w7qxsu74MKZlYTWzaO5Dj"
    }, {
      "album" : {
        "album_type" : "album",
        "artists" : [ {
          "external_urls" : {
            "spotify" : "https://open.spotify.com/artist/6oLzN8cU382zotCKpCNcbT"
          },
          "href" : "https://api.spotify.com/v1/artists/6oLzN8cU382zotCKpCNcbT",
          "id" : "6oLzN8cU382zotCKpCNcbT",
          "name" : "Dino",
          "type" : "artist",
          "uri" : "spotify:artist:6oLzN8cU382zotCKpCNcbT"
        } ],
        "external_urls" : {
          "spotify" : "https://open.spotify.com/album/7fuNkteSa2XglF8XKlmPA3"
        },
        "href" : "https://api.spotify.com/v1/albums/7fuNkteSa2XglF8XKlmPA3",
        "id" : "7fuNkteSa2XglF8XKlmPA3",
        "images" : [ {
          "height" : 640,
          "url" : "https://i.scdn.co/image/ab67616d0000b273c5011daa18c497929b38898b",
          "width" : 640
        }, {
          "height" : 300,
          "url" : "https://i.scdn.co/image/ab67616d00001e02c5011daa18c497929b38898b",
          "width" : 300
        }, {
          "height" : 64,
          "url" : "https://i.scdn.co/image/ab67616d00004851c5011daa18c497929b38898b",
          "width" : 64
        } ],
        "name" : "Just Piano... Praise!",
        "release_date" : "1994-02-15",
        "release_date_precision" : "day",
        "total_tracks" : 29,
        "type" : "album",
        "uri" : "spotify:album:7fuNkteSa2XglF8XKlmPA3"
      },
      "artists" : [ {
        "external_urls" : {
          "spotify" : "https://open.spotify.com/artist/6oLzN8cU382zotCKpCNcbT"
        },
        "href" : "https://api.spotify.com/v1/artists/6oLzN8cU382zotCKpCNcbT",
        "id" : "6oLzN8cU382zotCKpCNcbT",
        "name" : "Dino",
        "type" : "artist",
        "uri" : "spotify:artist:6oLzN8cU382zotCKpCNcbT"
      } ],
      "disc_number" : 1,
      "duration_ms" : 79906,
      "explicit" : false,
      "external_ids" : {
        "isrc" : "USACX0690757"
      },
      "external_urls" : {
        "spotify" : "https://open.spotify.com/track/6Ed2rYG5bmGOFqD3iycHLX"
      },
      "href" : "https://api.spotify.com/v1/tracks/6Ed2rYG5bmGOFqD3iycHLX",
      "id" : "6Ed2rYG5bmGOFqD3iycHLX",
      "is_local" : false,
      "is_playable" : true,
      "name" : "Jesus Is All the World to Me",
      "popularity" : 9,
      "preview_url" : "https://p.scdn.co/mp3-preview/a607a2b5b61b6b7adf0df37ef2fedb56a6049ad3?cid=774b29d4f13844c495f206cafdad9c86",
      "track_number" : 10,
      "type" : "track",
      "uri" : "spotify:track:6Ed2rYG5bmGOFqD3iycHLX"
    }, {
      "album" : {
        "album_type" : "album",
        "artists" : [ {
          "external_urls" : {
            "spotify" : "https://open.spotify.com/artist/7pIlr6ZsVpOtKv0Kh46GwZ"
          },
          "href" : "https://api.spotify.com/v1/artists/7pIlr6ZsVpOtKv0Kh46GwZ",
          "id" : "7pIlr6ZsVpOtKv0Kh46GwZ",
          "name" : "Greg Howlett",
          "type" : "artist",
          "uri" : "spotify:artist:7pIlr6ZsVpOtKv0Kh46GwZ"
        } ],
        "external_urls" : {
          "spotify" : "https://open.spotify.com/album/1fi84pUuCueY4lzk9WrpBo"
        },
        "href" : "https://api.spotify.com/v1/albums/1fi84pUuCueY4lzk9WrpBo",
        "id" : "1fi84pUuCueY4lzk9WrpBo",
        "images" : [ {
          "height" : 640,
          "url" : "https://i.scdn.co/image/ab67616d0000b273aae195a4399a733585e255ee",
          "width" : 640
        }, {
          "height" : 300,
          "url" : "https://i.scdn.co/image/ab67616d00001e02aae195a4399a733585e255ee",
          "width" : 300
        }, {
          "height" : 64,
          "url" : "https://i.scdn.co/image/ab67616d00004851aae195a4399a733585e255ee",
          "width" : 64
        } ],
        "name" : "Reflections on a Journey",
        "release_date" : "2007-01-01",
        "release_date_precision" : "day",
        "total_tracks" : 10,
        "type" : "album",
        "uri" : "spotify:album:1fi84pUuCueY4lzk9WrpBo"
      },
      "artists" : [ {
        "external_urls" : {
          "spotify" : "https://open.spotify.com/artist/7pIlr6ZsVpOtKv0Kh46GwZ"
        },
        "href" : "https://api.spotify.com/v1/artists/7pIlr6ZsVpOtKv0Kh46GwZ",
        "id" : "7pIlr6ZsVpOtKv0Kh46GwZ",
        "name" : "Greg Howlett",
        "type" : "artist",
        "uri" : "spotify:artist:7pIlr6ZsVpOtKv0Kh46GwZ"
      } ],
      "disc_number" : 1,
      "duration_ms" : 222666,
      "explicit" : false,
      "external_ids" : {
        "isrc" : "uscgj0709574"
      },
      "external_urls" : {
        "spotify" : "https://open.spotify.com/track/7aPFh8TAdxWqyZ6slstIrx"
      },
      "href" : "https://api.spotify.com/v1/tracks/7aPFh8TAdxWqyZ6slstIrx",
      "id" : "7aPFh8TAdxWqyZ6slstIrx",
      "is_local" : false,
      "is_playable" : true,
      "name" : "Jesus Is All the World to Me",
      "popularity" : 11,
      "preview_url" : "https://p.scdn.co/mp3-preview/1e14cba5fdcb2943df7c5aaa1cea93f0539ae151?cid=774b29d4f13844c495f206cafdad9c86",
      "track_number" : 9,
      "type" : "track",
      "uri" : "spotify:track:7aPFh8TAdxWqyZ6slstIrx"
    }, {
      "album" : {
        "album_type" : "album",
        "artists" : [ {
          "external_urls" : {
            "spotify" : "https://open.spotify.com/artist/4jIDLWVNo4DuFa4ExLVudh"
          },
          "href" : "https://api.spotify.com/v1/artists/4jIDLWVNo4DuFa4ExLVudh",
          "id" : "4jIDLWVNo4DuFa4ExLVudh",
          "name" : "Smoky Mountain Strings",
          "type" : "artist",
          "uri" : "spotify:artist:4jIDLWVNo4DuFa4ExLVudh"
        } ],
        "external_urls" : {
          "spotify" : "https://open.spotify.com/album/6zcjz4dxN5BzeaitpbOMcu"
        },
        "href" : "https://api.spotify.com/v1/albums/6zcjz4dxN5BzeaitpbOMcu",
        "id" : "6zcjz4dxN5BzeaitpbOMcu",
        "images" : [ {
          "height" : 640,
          "url" : "https://i.scdn.co/image/ab67616d0000b273a74217c68a1983a05f375bb4",
          "width" : 640
        }, {
          "height" : 300,
          "url" : "https://i.scdn.co/image/ab67616d00001e02a74217c68a1983a05f375bb4",
          "width" : 300
        }, {
          "height" : 64,
          "url" : "https://i.scdn.co/image/ab67616d00004851a74217c68a1983a05f375bb4",
          "width" : 64
        } ],
        "name" : "Bluegrass Instrumentals",
        "release_date" : "2008-11-18",
        "release_date_precision" : "day",
        "total_tracks" : 16,
        "type" : "album",
        "uri" : "spotify:album:6zcjz4dxN5BzeaitpbOMcu"
      },
      "artists" : [ {
        "external_urls" : {
          "spotify" : "https://open.spotify.com/artist/4jIDLWVNo4DuFa4ExLVudh"
        },
        "href" : "https://api.spotify.com/v1/artists/4jIDLWVNo4DuFa4ExLVudh",
        "id" : "4jIDLWVNo4DuFa4ExLVudh",
        "name" : "Smoky Mountain Strings",
        "type" : "artist",
        "uri" : "spotify:artist:4jIDLWVNo4DuFa4ExLVudh"
      } ],
      "disc_number" : 1,
      "duration_ms" : 140706,
      "explicit" : false,
      "external_ids" : {
        "isrc" : "USZAJ0812107"
      },
      "external_urls" : {
        "spotify" : "https://open.spotify.com/track/6tjKwmLmROewOItuN8NvFM"
      },
      "href" : "https://api.spotify.com/v1/tracks/6tjKwmLmROewOItuN8NvFM",
      "id" : "6tjKwmLmROewOItuN8NvFM",
      "is_local" : false,
      "is_playable" : true,
      "name" : "Jesus Is All The World To Me",
      "popularity" : 10,
      "preview_url" : "https://p.scdn.co/mp3-preview/f473161acd031e7ef0c0288b825bea66e18517cd?cid=774b29d4f13844c495f206cafdad9c86",
      "track_number" : 7,
      "type" : "track",
      "uri" : "spotify:track:6tjKwmLmROewOItuN8NvFM"
    }, {
      "album" : {
        "album_type" : "album",
        "artists" : [ {
          "external_urls" : {
            "spotify" : "https://open.spotify.com/artist/6p21nVelZcO7t75I4LSaTe"
          },
          "href" : "https://api.spotify.com/v1/artists/6p21nVelZcO7t75I4LSaTe",
          "id" : "6p21nVelZcO7t75I4LSaTe",
          "name" : "Andy Joshua",
          "type" : "artist",
          "uri" : "spotify:artist:6p21nVelZcO7t75I4LSaTe"
        } ],
        "external_urls" : {
          "spotify" : "https://open.spotify.com/album/6cA7U9YJxSDDAXi4wX3LJk"
        },
        "href" : "https://api.spotify.com/v1/albums/6cA7U9YJxSDDAXi4wX3LJk",
        "id" : "6cA7U9YJxSDDAXi4wX3LJk",
        "images" : [ {
          "height" : 640,
          "url" : "https://i.scdn.co/image/ab67616d0000b27370518bb9018ca321ed8a22b5",
          "width" : 640
        }, {
          "height" : 300,
          "url" : "https://i.scdn.co/image/ab67616d00001e0270518bb9018ca321ed8a22b5",
          "width" : 300
        }, {
          "height" : 64,
          "url" : "https://i.scdn.co/image/ab67616d0000485170518bb9018ca321ed8a22b5",
          "width" : 64
        } ],
        "name" : "재즈 찬송가 Jazz Hymns Best 3",
        "release_date" : "2018-03-20",
        "release_date_precision" : "day",
        "total_tracks" : 10,
        "type" : "album",
        "uri" : "spotify:album:6cA7U9YJxSDDAXi4wX3LJk"
      },
      "artists" : [ {
        "external_urls" : {
          "spotify" : "https://open.spotify.com/artist/6p21nVelZcO7t75I4LSaTe"
        },
        "href" : "https://api.spotify.com/v1/artists/6p21nVelZcO7t75I4LSaTe",
        "id" : "6p21nVelZcO7t75I4LSaTe",
        "name" : "Andy Joshua",
        "type" : "artist",
        "uri" : "spotify:artist:6p21nVelZcO7t75I4LSaTe"
      } ],
      "disc_number" : 1,
      "duration_ms" : 250723,
      "explicit" : false,
      "external_ids" : {
        "isrc" : "KRA351800155"
      },
      "external_urls" : {
        "spotify" : "https://open.spotify.com/track/5pYtoNNDQkGPs3jJhV2Sxh"
      },
      "href" : "https://api.spotify.com/v1/tracks/5pYtoNNDQkGPs3jJhV2Sxh",
      "id" : "5pYtoNNDQkGPs3jJhV2Sxh",
      "is_local" : false,
      "is_playable" : true,
      "name" : "예수는 나의 힘이요 Jesus Is All the World to Me",
      "popularity" : 11,
      "preview_url" : "https://p.scdn.co/mp3-preview/d152eb976469f31cbaeb2d17a917e5a0efbde291?cid=774b29d4f13844c495f206cafdad9c86",
      "track_number" : 3,
      "type" : "track",
      "uri" : "spotify:track:5pYtoNNDQkGPs3jJhV2Sxh"
    }, {
      "album" : {
        "album_type" : "album",
        "artists" : [ {
          "external_urls" : {
            "spotify" : "https://open.spotify.com/artist/4Row5ZexEocO371edZivCt"
          },
          "href" : "https://api.spotify.com/v1/artists/4Row5ZexEocO371edZivCt",
          "id" : "4Row5ZexEocO371edZivCt",
          "name" : "Gary Prim",
          "type" : "artist",
          "uri" : "spotify:artist:4Row5ZexEocO371edZivCt"
        } ],
        "external_urls" : {
          "spotify" : "https://open.spotify.com/album/6gVNF5oeLcoCLRrRHDAjUf"
        },
        "href" : "https://api.spotify.com/v1/albums/6gVNF5oeLcoCLRrRHDAjUf",
        "id" : "6gVNF5oeLcoCLRrRHDAjUf",
        "images" : [ {
          "height" : 640,
          "url" : "https://i.scdn.co/image/ab67616d0000b273293c403d5a99e736343b88ca",
          "width" : 640
        }, {
          "height" : 300,
          "url" : "https://i.scdn.co/image/ab67616d00001e02293c403d5a99e736343b88ca",
          "width" : 300
        }, {
          "height" : 64,
          "url" : "https://i.scdn.co/image/ab67616d00004851293c403d5a99e736343b88ca",
          "width" : 64
        } ],
        "name" : "Inspirational Treasures",
        "release_date" : "2007-05-07",
        "release_date_precision" : "day",
        "total_tracks" : 18,
        "type" : "album",
        "uri" : "spotify:album:6gVNF5oeLcoCLRrRHDAjUf"
      },
      "artists" : [ {
        "external_urls" : {
          "spotify" : "https://open.spotify.com/artist/4Row5ZexEocO371edZivCt"
        },
        "href" : "https://api.spotify.com/v1/artists/4Row5ZexEocO371edZivCt",
        "id" : "4Row5ZexEocO371edZivCt",
        "name" : "Gary Prim",
        "type" : "artist",
        "uri" : "spotify:artist:4Row5ZexEocO371edZivCt"
      } ],
      "disc_number" : 1,
      "duration_ms" : 245733,
      "explicit" : false,
      "external_ids" : {
        "isrc" : "US3TS0900133"
      },
      "external_urls" : {
        "spotify" : "https://open.spotify.com/track/0jI7wC2Fy8pLpzjzqQPRV2"
      },
      "href" : "https://api.spotify.com/v1/tracks/0jI7wC2Fy8pLpzjzqQPRV2",
      "id" : "0jI7wC2Fy8pLpzjzqQPRV2",
      "is_local" : false,
      "is_playable" : true,
      "name" : "Jesus Is All The World To Me",
      "popularity" : 5,
      "preview_url" : "https://p.scdn.co/mp3-preview/a8385f9fea4bf7b8c4cba2d00e410640206dc965?cid=774b29d4f13844c495f206cafdad9c86",
      "track_number" : 5,
      "type" : "track",
      "uri" : "spotify:track:0jI7wC2Fy8pLpzjzqQPRV2"
    } ],
    "limit" : 10,
    "next" : "https://api.spotify.com/v1/search?query=Jesus+Is+All+the+World+to+Me&type=track&market=US&offset=15&limit=10",
    "offset" : 5,
    "previous" : "https://api.spotify.com/v1/search?query=Jesus+Is+All+the+World+to+Me&type=track&market=US&offset=0&limit=10",
    "total" : 214
  }
}