{
  "tracks" : {
    "href" : "https://api.spotify.com/v1/search?query=Lord+of+All+Good&type=track&market=US&offset=5&limit=10",
    "items" : [ {
      "album" : {
        "album_type" : "album",
        "artists" : [ {
          "external_urls" : {
            "spotify" : "https://open.spotify.com/artist/2JGLjTHV2t8u8wxmLaiFfe"
          },
          "href" : "https://api.spotify.com/v1/artists/2JGLjTHV2t8u8wxmLaiFfe",
          "id" : "2JGLjTHV2t8u8wxmLaiFfe",
          "name" : "Don Moen",
          "type" : "artist",
          "uri" : "spotify:artist:2JGLjTHV2t8u8wxmLaiFfe"
        } ],
        "external_urls" : {
          "spotify" : "https://open.spotify.com/album/3HTEf2dZrhHJ7dcEAIJKzt"
        },
        "href" : "https://api.spotify.com/v1/albums/3HTEf2dZrhHJ7dcEAIJKzt",
        "id" : "3HTEf2dZrhHJ7dcEAIJKzt",
        "images" : [ {
          "height" : 640,
          "url" : "https://i.scdn.co/image/ab67616d0000b27318d3fbbe13692578e8e36c18",
          "width" : 640
        }, {
          "height" : 300,
          "url" : "https://i.scdn.co/image/ab67616d00001e0218d3fbbe13692578e8e36c18",
          "width" : 300
        }, {
          "height" : 64,
          "url" : "https://i.scdn.co/image/ab67616d0000485118d3fbbe13692578e8e36c18",
          "width" : 64
        } ],
        "name" : "God For Us",
        "release_date" : "2009-01-26",
        "release_date_precision" : "day",
        "total_tracks" : 17,
        "type" : "album",
        "uri" : "spotify:album:3HTEf2dZrhHJ7dcEAIJKzt"
      },
      "artists" : [ {
        "external_urls" : {
          "spotify" : "https://open.spotify.com/artist/2JGLjTHV2t8u8wxmLaiFfe"
        },
        "href" : "https://api.spotify.com/v1/artists/2JGLjTHV2t8u8wxmLaiFfe",
        "id" : "2JGLjTHV2t8u8wxmLaiFfe",
        "name" : "Don Moen",
        "type" : "artist",
        "uri" : "spotify:artist:2JGLjTHV2t8u8wxmLaiFfe"
      } ],
      "disc_number" : 1,
      "duration_ms" : 199373,
      "explicit" : false,
      "external_ids" : {
        "isrc" : "US25L0900118"
      },
      "external_urls" : {
        "spotify" : "https://open.spotify.com/track/1GfPx1ADVtZ9Cs5s5KXsS0"
      },
      "href" : "https://api.spotify.com/v1/tracks/1GfPx1ADVtZ9Cs5s5KXsS0",
      "id" : "1GfPx1ADVtZ9Cs5s5KXsS0",
      "is_local" : false,
      "is_playable" : true,
      "name" : "Celebrate The Lord of Love God Is Good All the Time - Reprise",
      "popularity" : 11,
      "preview_url" : "https://p.scdn.co/mp3-preview/6fc82c35ab2ca1934f600f639f5f47f9793466e9?cid=774b29d4f13844c495f206cafdad9c86",
      "track_number" : 12,
      "type" : "track",
      "uri" : "spotify:track:1GfPx1ADVtZ9Cs5s5KXsS0"
    }, {
      "album" : {
        "album_type" : "album",
        "artists" : [ {
          "external_urls" : {
            "spotify" : "https://open.spotify.com/artist/15DxDnbUtBg8CGWFubjW39"
          },
          "href" : "https://api.spotify.com/v1/artists/15DxDnbUtBg8CGWFubjW39",
          "id" : "15DxDnbUtBg8CGWFubjW39",
          "name" : "The Schola Cantorum of St. Peter the Apostle",
          "type" : "artist",
          "uri" : "spotify:artist:15DxDnbUtBg8CGWFubjW39"
        } ],
        "external_urls" : {
          "spotify" : "https://open.spotify.com/album/0fIb6qsUavG8k3IeZhqdVA"
        },
        "href" : "https://api.spotify.com/v1/albums/0fIb6qsUavG8k3IeZhqdVA",
        "id" : "0fIb6qsUavG8k3IeZhqdVA",
        "images" : [ {
          "height" : 640,
          "url" : "https://i.scdn.co/image/ab67616d0000b273718ca89186435fce6dea1384",
          "width" : 640
        }, {
          "height" : 300,
          "url" : "https://i.scdn.co/image/ab67616d00001e02718ca89186435fce6dea1384",
          "width" : 300
        }, {
          "height" : 64,
          "url" : "https://i.scdn.co/image/ab67616d00004851718ca89186435fce6dea1384",
          "width" : 64
        } ],
        "name" : "Lord, By Your Cross & Resurrection (disc 1): Passion (Palm) Sunday-Good Friday",
        "release_date" : "2005",
        "release_date_precision" : "year",
        "total_tracks" : 51,
        "type" : "album",
        "uri" : "spotify:album:0fIb6qsUavG8k3IeZhqdVA"
      },
      "artists" : [ {
        "external_urls" : {
          "spotify" : "https://open.spotify.com/artist/15DxDnbUtBg8CGWFubjW39"
        },
        "href" : "https://api.spotify.com/v1/artists/15DxDnbUtBg8CGWFubjW39",
        "id" : "15DxDnbUtBg8CGWFubjW39",
        "name" : "The Schola Cantorum of St. Peter the Apostle",
        "type" : "artist",
        "uri" : "spotify:artist:15DxDnbUtBg8CGWFubjW39"
      } ],
      "disc_number" : 2,
      "duration_ms" : 105160,
      "explicit" : false,
      "external_ids" : {
        "isrc" : "USDRY1011136"
      },
      "external_urls" : {
        "spotify" : "https://open.spotify.com/track/4CF1mMeuVaCfd9z1GBCf9n"
      },
      "href" : "https://api.spotify.com/v1/tracks/4CF1mMeuVaCfd9z1GBCf9n",
      "id" : "4CF1mMeuVaCfd9z1GBCf9n",
      "is_local" : false,
      "is_playable" : true,
      "name" : "Alleluia, Alleluia, Alleluia",
      "popularity" : 3,
      "preview_url" : "https://p.scdn.co/mp3-preview/d3d3adda94475d0da5c40d4dfda2a9d835458051?cid=774b29d4f13844c495f206cafdad9c86",
      "track_number" : 23,
      "type" : "track",
      "uri" : "spotify:track:4CF1mMeuVaCfd9z1GBCf9n"
    }, {
      "album" : {
        "album_type" : "album",
        "artists" : [ {
          "external_urls" : {
            "spotify" : "https://open.spotify.com/artist/5zkmOYaXiNHBKxKnnd1rvl"
          },
          "href" : "https://api.spotify.com/v1/artists/5zkmOYaXiNHBKxKnnd1rvl",
          "id" : "5zkmOYaXiNHBKxKnnd1rvl",
          "name" : "John Keys",
          "type" : "artist",
          "uri" : "spotify:artist:5zkmOYaXiNHBKxKnnd1rvl"
        } ],
        "external_urls" : {
          "spotify" : "https://open.spotify.com/album/5M2hGC0KkmGo3f8g4myTFi"
        },
        "href" : "https://api.spotify.com/v1/albums/5M2hGC0KkmGo3f8g4myTFi",
        "id" : "5M2hGC0KkmGo3f8g4myTFi",
        "images" : [ {
          "height" : 640,
          "url" : "https://i.scdn.co/image/ab67616d0000b273e002a30dd098335896a13fe6",
          "width" : 640
        }, {
          "height" : 300,
          "url" : "https://i.scdn.co/image/ab67616d00001e02e002a30dd098335896a13fe6",
          "width" : 300
        }, {
          "height" : 64,
          "url" : "https://i.scdn.co/image/ab67616d00004851e002a30dd098335896a13fe6",
          "width" : 64
        } ],
        "name" : "Ultimate Hymn Organ Accompaniments, Vol. 44",
        "release_date" : "2014-10-17",
        "release_date_precision" : "day",
        "total_tracks" : 20,
        "type" : "album",
        "uri" : "spotify:album:5M2hGC0KkmGo3f8g4myTFi"
      },
      "artists" : [ {
        "external_urls" : {
          "spotify" : "https://open.spotify.com/artist/5zkmOYaXiNHBKxKnnd1rvl"
        },
        "href" : "https://api.spotify.com/v1/artists/5zkmOYaXiNHBKxKnnd1rvl",
        "id" : "5zkmOYaXiNHBKxKnnd1rvl",
        "name" : "John Keys",
        "type" : "artist",
        "uri" : "spotify:artist:5zkmOYaXiNHBKxKnnd1rvl"
      } ],
      "disc_number" : 1,
      "duration_ms" : 148277,
      "explicit" : false,
      "external_ids" : {
        "isrc" : "GBKPL1417272"
      },
      "external_urls" : {
        "spotify" : "https://open.spotify.com/track/6rZFlJihTJoMdnJsUdLZZN"
      },
      "href" : "https://api.spotify.com/v1/tracks/6rZFlJihTJoMdnJsUdLZZN",
      "id" : "6rZFlJihTJoMdnJsUdLZZN",
      "is_local" : false,
      "is_playable" : true,
      "name" : "Sing of the Lord's Goodness, Father of All Wisdom (Sing of the Lord's Goodness) - Instrumental Version",
      "popularity" : 0,
      "preview_url" : "https://p.scdn.co/mp3-preview/e44186215e24081901f67f9bbb13f8f8e93d1b62?cid=774b29d4f13844c495f206cafdad9c86",
      "track_number" : 3,
      "type" : "track",
      "uri" : "spotify:track:6rZFlJihTJoMdnJsUdLZZN"
    }, {
      "album" : {
        "album_type" : "album",
        "artists" : [ {
          "external_urls" : {
            "spotify" : "https://open.spotify.com/artist/0bjAH99mB4xv58viTYWs2s"
          },
          "href" : "https://api.spotify.com/v1/artists/0bjAH99mB4xv58viTYWs2s",
          "id" : "0bjAH99mB4xv58viTYWs2s",
          "name" : "Kensington Temple",
          "type" : "artist",
          "uri" : "spotify:artist:0bjAH99mB4xv58viTYWs2s"
        } ],
        "external_urls" : {
          "spotify" : "https://open.spotify.com/album/1aMGrfXGyclqR60jCI5BVY"
        },
        "href" : "https://api.spotify.com/v1/albums/1aMGrfXGyclqR60jCI5BVY",
        "id" : "1aMGrfXGyclqR60jCI5BVY",
        "images" : [ {
          "height" : 640,
          "url" : "https://i.scdn.co/image/ab67616d0000b273b0b32318bef8b107a45c52f1",
          "width" : 640
        }, {
          "height" : 300,
          "url" : "https://i.scdn.co/image/ab67616d00001e02b0b32318bef8b107a45c52f1",
          "width" : 300
        }, {
          "height" : 64,
          "url" : "https://i.scdn.co/image/ab67616d00004851b0b32318bef8b107a45c52f1",
          "width" : 64
        } ],
        "name" : "Our God Is Good",
        "release_date" : "1991-01-01",
        "release_date_precision" : "day",
        "total_tracks" : 15,
        "type" : "album",
        "uri" : "spotify:album:1aMGrfXGyclqR60jCI5BVY"
      },
      "artists" : [ {
        "external_urls" : {
          "spotify" : "https://open.spotify.com/artist/0bjAH99mB4xv58viTYWs2s"
        },
        "href" : "https://api.spotify.com/v1/artists/0bjAH99mB4xv58viTYWs2s",
        "id" : "0bjAH99mB4xv58viTYWs2s",
        "name" : "Kensington Temple",
        "type" : "artist",
        "uri" : "spotify:artist:0bjAH99mB4xv58viTYWs2s"
      } ],
      "disc_number" : 1,
      "duration_ms" : 163800,
      "explicit" : false,
      "external_ids" : {
        "isrc" : "US25L1602230"
      },
      "external_urls" : {
        "spotify" : "https://open.spotify.com/track/75ywTY9O9E4h84fBv2rlA3"
      },
      "href" : "https://api.spotify.com/v1/tracks/75ywTY9O9E4h84fBv2rlA3",
      "id" : "75ywTY9O9E4h84fBv2rlA3",
      "is_local" : false,
      "is_playable" : true,
      "name" : "Lord of All",
      "popularity" : 4,
      "preview_url" : "https://p.scdn.co/mp3-preview/ff89ca96a8e94a8dd1203c59b80b8b5f39ded1b0?cid=774b29d4f13844c495f206cafdad9c86",
      "track_number" : 1,
      "type" : "track",
      "uri" : "spotify:track:75ywTY9O9E4h84fBv2rlA3"
    }, {
      "album" : {
        "album_type" : "album",
        "artists" : [ {
          "external_urls" : {
            "spotify" : "https://open.spotify.com/artist/0ZK01Grs1PohiKZCP7GUl8"
          },
          "href" : "https://api.spotify.com/v1/artists/0ZK01Grs1PohiKZCP7GUl8",
          "id" : "0ZK01Grs1PohiKZCP7GUl8",
          "name" : "Jim, Marianne and Sandi Molinaro",
          "type" : "artist",
          "uri" : "spotify:artist:0ZK01Grs1PohiKZCP7GUl8"
        } ],
        "external_urls" : {
          "spotify" : "https://open.spotify.com/album/0wa1xkSHGFYgdXTVVeZbAv"
        },
        "href" : "https://api.spotify.com/v1/albums/0wa1xkSHGFYgdXTVVeZbAv",
        "id" : "0wa1xkSHGFYgdXTVVeZbAv",
        "images" : [ {
          "height" : 640,
          "url" : "https://i.scdn.co/image/ab67616d0000b273b6118285b9f2d850ade9a654",
          "width" : 640
        }, {
          "height" : 300,
          "url" : "https://i.scdn.co/image/ab67616d00001e02b6118285b9f2d850ade9a654",
          "width" : 300
        }, {
          "height" : 64,
          "url" : "https://i.scdn.co/image/ab67616d00004851b6118285b9f2d850ade9a654",
          "width" : 64
        } ],
        "name" : "All Creation Sings",
        "release_date" : "1999-04-20",
        "release_date_precision" : "day",
        "total_tracks" : 19,
        "type" : "album",
        "uri" : "spotify:album:0wa1xkSHGFYgdXTVVeZbAv"
      },
      "artists" : [ {
        "external_urls" : {
          "spotify" : "https://open.spotify.com/artist/0ZK01Grs1PohiKZCP7GUl8"
        },
        "href" : "https://api.spotify.com/v1/artists/0ZK01Grs1PohiKZCP7GUl8",
        "id" : "0ZK01Grs1PohiKZCP7GUl8",
        "name" : "Jim, Marianne and Sandi Molinaro",
        "type" : "artist",
        "uri" : "spotify:artist:0ZK01Grs1PohiKZCP7GUl8"
      } ],
      "disc_number" : 1,
      "duration_ms" : 161826,
      "explicit" : false,
      "external_ids" : {
        "isrc" : "USA370307182"
      },
      "external_urls" : {
        "spotify" : "https://open.spotify.com/track/4JEbeOw1NwiofGKUok48s1"
      },
      "href" : "https://api.spotify.com/v1/tracks/4JEbeOw1NwiofGKUok48s1",
      "id" : "4JEbeOw1NwiofGKUok48s1",
      "is_local" : false,
      "is_playable" : true,
      "name" : "Sing of the Lord's Goodness",
      "popularity" : 0,
      "preview_url" : "https://p.scdn.co/mp3-preview/54411e494b9bc3e192830e11eadab26debbaec12?cid=774b29d4f13844c495f206cafdad9c86",
      "track_number" : 15,
      "type" : "track",
      "uri" : "spotify:track:4JEbeOw1NwiofGKUok48s1"
    }, {
      "album" : {
        "album_type" : "album",
        "artists" : [ {
          "external_urls" : {
            "spotify" : "https://open.spotify.com/artist/63SAE3ARLanaxfYrP5sBK7"
          },
          "href" : "https://api.spotify.com/v1/artists/63SAE3ARLanaxfYrP5sBK7",
          "id" : "63SAE3ARLanaxfYrP5sBK7",
          "name" : "Kingdom Faith",
          "type" : "artist",
          "uri" : "spotify:artist:63SAE3ARLanaxfYrP5sBK7"
        } ],
        "external_urls" : {
          "spotify" : "https://open.spotify.com/album/36ozYzNAQxetydsObZruYf"
        },
        "href" : "https://api.spotify.com/v1/albums/36ozYzNAQxetydsObZruYf",
        "id" : "36ozYzNAQxetydsObZruYf",
        "images" : [ {
          "height" : 640,
          "url" : "https://i.scdn.co/image/ab67616d0000b2739c9bbf366c9c0ea8bef28c8d",
          "width" : 640
        }, {
          "height" : 300,
          "url" : "https://i.scdn.co/image/ab67616d00001e029c9bbf366c9c0ea8bef28c8d",
          "width" : 300
        }, {
          "height" : 64,
          "url" : "https://i.scdn.co/image/ab67616d000048519c9bbf366c9c0ea8bef28c8d",
          "width" : 64
        } ],
        "name" : "Celebrate The Goodness Of The Lord",
        "release_date" : "2001",
        "release_date_precision" : "year",
        "total_tracks" : 19,
        "type" : "album",
        "uri" : "spotify:album:36ozYzNAQxetydsObZruYf"
      },
      "artists" : [ {
        "external_urls" : {
          "spotify" : "https://open.spotify.com/artist/63SAE3ARLanaxfYrP5sBK7"
        },
        "href" : "https://api.spotify.com/v1/artists/63SAE3ARLanaxfYrP5sBK7",
        "id" : "63SAE3ARLanaxfYrP5sBK7",
        "name" : "Kingdom Faith",
        "type" : "artist",
        "uri" : "spotify:artist:63SAE3ARLanaxfYrP5sBK7"
      } ],
      "disc_number" : 1,
      "duration_ms" : 243906,
      "explicit" : false,
      "external_ids" : {
        "isrc" : "GBKDZ0283019"
      },
      "external_urls" : {
        "spotify" : "https://open.spotify.com/track/3g8gMH18b4JCRXhUG682jc"
      },
      "href" : "https://api.spotify.com/v1/tracks/3g8gMH18b4JCRXhUG682jc",
      "id" : "3g8gMH18b4JCRXhUG682jc",
      "is_local" : false,
      "is_playable" : true,
      "name" : "Jesus Lord Of All",
      "popularity" : 0,
      "preview_url" : "https://p.scdn.co/mp3-preview/bfcafff87d1ab146841db7dbfb9e8ac5c3bf23fb?cid=774b29d4f13844c495f206cafdad9c86",
      "track_number" : 16,
      "type" : "track",
      "uri" : "spotify:track:3g8gMH18b4JCRXhUG682jc"
    }, {
      "album" : {
        "album_type" : "album",
        "artists" : [ {
          "external_urls" : {
            "spotify" : "https://open.spotify.com/artist/4OEKl98p0EmPPp1A9mXQR0"
          },
          "href" : "https://api.spotify.com/v1/artists/4OEKl98p0EmPPp1A9mXQR0",
          "id" : "4OEKl98p0EmPPp1A9mXQR0",
          "name" : "Jeremy Gibson",
          "type" : "artist",
          "uri" : "spotify:artist:4OEKl98p0EmPPp1A9mXQR0"
        } ],
        "external_urls" : {
          "spotify" : "https://open.spotify.com/album/5EJgZGz7tUyE3UE3t5f16S"
        },
        "href" : "https://api.spotify.com/v1/albums/5EJgZGz7tUyE3UE3t5f16S",
        "id" : "5EJgZGz7tUyE3UE3t5f16S",
        "images" : [ {
          "height" : 640,
          "url" : "https://i.scdn.co/image/ab67616d0000b273e03b5aad10468f29bf10af3b",
          "width" : 640
        }, {
          "height" : 300,
          "url" : "https://i.scdn.co/image/ab67616d00001e02e03b5aad10468f29bf10af3b",
          "width" : 300
        }, {
          "height" : 64,
          "url" : "https://i.scdn.co/image/ab67616d00004851e03b5aad10468f29bf10af3b",
          "width" : 64
        } ],
        "name" : "Worthy Of It All",
        "release_date" : "2018-05-04",
        "release_date_precision" : "day",
        "total_tracks" : 10,
        "type" : "album",
        "uri" : "spotify:album:5EJgZGz7tUyE3UE3t5f16S"
      },
      "artists" : [ {
        "external_urls" : {
          "spotify" : "https://open.spotify.com/artist/4OEKl98p0EmPPp1A9mXQR0"
        },
        "href" : "https://api.spotify.com/v1/artists/4OEKl98p0EmPPp1A9mXQR0",
        "id" : "4OEKl98p0EmPPp1A9mXQR0",
        "name" : "Jeremy Gibson",
        "type" : "artist",
        "uri" : "spotify:artist:4OEKl98p0EmPPp1A9mXQR0"
      } ],
      "disc_number" : 1,
      "duration_ms" : 261240,
      "explicit" : false,
      "external_ids" : {
        "isrc" : "QMQ3X1800926"
      },
      "external_urls" : {
        "spotify" : "https://open.spotify.com/track/05FildWIouoSVyhzBpkrGg"
      },
      "href" : "https://api.spotify.com/v1/tracks/05FildWIouoSVyhzBpkrGg",
      "id" : "05FildWIouoSVyhzBpkrGg",
      "is_local" : false,
      "is_playable" : true,
      "name" : "The Lord Is Good - Live",
      "popularity" : 1,
      "preview_url" : null,
      "track_number" : 5,
      "type" : "track",
      "uri" : "spotify:track:05FildWIouoSVyhzBpkrGg"
    }, {
      "album" : {
        "album_type" : "album",
        "artists" : [ {
          "external_urls" : {
            "spotify" : "https://open.spotify.com/artist/0i9nMl8s88DUD9u08h6Cu8"
          },
          "href" : "https://api.spotify.com/v1/artists/0i9nMl8s88DUD9u08h6Cu8",
          "id" : "0i9nMl8s88DUD9u08h6Cu8",
          "name" : "Simon Thoumire",
          "type" : "artist",
          "uri" : "spotify:artist:0i9nMl8s88DUD9u08h6Cu8"
        } ],
        "external_urls" : {
          "spotify" : "https://open.spotify.com/album/29jppFlDKLbKzeRNVOPsbC"
        },
        "href" : "https://api.spotify.com/v1/albums/29jppFlDKLbKzeRNVOPsbC",
        "id" : "29jppFlDKLbKzeRNVOPsbC",
        "images" : [ {
          "height" : 640,
          "url" : "https://i.scdn.co/image/ab67616d0000b273c8182a3975f496bbc328775d",
          "width" : 640
        }, {
          "height" : 300,
          "url" : "https://i.scdn.co/image/ab67616d00001e02c8182a3975f496bbc328775d",
          "width" : 300
        }, {
          "height" : 64,
          "url" : "https://i.scdn.co/image/ab67616d00004851c8182a3975f496bbc328775d",
          "width" : 64
        } ],
        "name" : "Make Good Art 2014",
        "release_date" : "2015-01-25",
        "release_date_precision" : "day",
        "total_tracks" : 49,
        "type" : "album",
        "uri" : "spotify:album:29jppFlDKLbKzeRNVOPsbC"
      },
      "artists" : [ {
        "external_urls" : {
          "spotify" : "https://open.spotify.com/artist/0i9nMl8s88DUD9u08h6Cu8"
        },
        "href" : "https://api.spotify.com/v1/artists/0i9nMl8s88DUD9u08h6Cu8",
        "id" : "0i9nMl8s88DUD9u08h6Cu8",
        "name" : "Simon Thoumire",
        "type" : "artist",
        "uri" : "spotify:artist:0i9nMl8s88DUD9u08h6Cu8"
      } ],
      "disc_number" : 1,
      "duration_ms" : 198196,
      "explicit" : false,
      "external_ids" : {
        "isrc" : "QM6N21402512"
      },
      "external_urls" : {
        "spotify" : "https://open.spotify.com/track/2KzMDcnJyfXV5eyoB3oiTY"
      },
      "href" : "https://api.spotify.com/v1/tracks/2KzMDcnJyfXV5eyoB3oiTY",
      "id" : "2KzMDcnJyfXV5eyoB3oiTY",
      "is_local" : false,
      "is_playable" : true,
      "name" : "Blessed Are You, Lord, God of All Creation",
      "popularity" : 6,
      "preview_url" : "https://p.scdn.co/mp3-preview/115d27ca65cfd1270f154f102c19c0c4e4b94ef7?cid=774b29d4f13844c495f206cafdad9c86",
      "track_number" : 3,
      "type" : "track",
      "uri" : "spotify:track:2KzMDcnJyfXV5eyoB3oiTY"
    }, {
      "album" : {
        "album_type" : "single",
        "artists" : [ {
          "external_urls" : {
            "spotify" : "https://open.spotify.com/artist/1jxVVnKoD6ds48tuk8e9t8"
          },
          "href" : "https://api.spotify.com/v1/artists/1jxVVnKoD6ds48tuk8e9t8",
          "id" : "1jxVVnKoD6ds48tuk8e9t8",
          "name" : "Legend Of Dutch Savage",
          "type" : "artist",
          "uri" : "spotify:artist:1jxVVnKoD6ds48tuk8e9t8"
        } ],
        "external_urls" : {
          "spotify" : "https://open.spotify.com/album/1rAOMLuh6Cd3TvIZ9MaCVJ"
        },
        "href" : "https://api.spotify.com/v1/albums/1rAOMLuh6Cd3TvIZ9MaCVJ",
        "id" : "1rAOMLuh6Cd3TvIZ9MaCVJ",
        "images" : [ {
          "height" : 640,
          "url" : "https://i.scdn.co/image/ab67616d0000b273b9da9d5413c6b668d12f557e",
          "width" : 640
        }, {
          "height" : 300,
          "url" : "https://i.scdn.co/image/ab67616d00001e02b9da9d5413c6b668d12f557e",
          "width" : 300
        }, {
          "height" : 64,
          "url" : "https://i.scdn.co/image/ab67616d00004851b9da9d5413c6b668d12f557e",
          "width" : 64
        } ],
        "name" : "All will be good when I'm gone",
        "release_date" : "2006-01-01",
        "release_date_precision" : "day",
        "total_tracks" : 6,
        "type" : "album",
        "uri" : "spotify:album:1rAOMLuh6Cd3TvIZ9MaCVJ"
      },
      "artists" : [ {
        "external_urls" : {
          "spotify" : "https://open.spotify.com/artist/1jxVVnKoD6ds48tuk8e9t8"
        },
        "href" : "https://api.spotify.com/v1/artists/1jxVVnKoD6ds48tuk8e9t8",
        "id" : "1jxVVnKoD6ds48tuk8e9t8",
        "name" : "Legend Of Dutch Savage",
        "type" : "artist",
        "uri" : "spotify:artist:1jxVVnKoD6ds48tuk8e9t8"
      } ],
      "disc_number" : 1,
      "duration_ms" : 268333,
      "explicit" : false,
      "external_ids" : {
        "isrc" : "ushm90681758"
      },
      "external_urls" : {
        "spotify" : "https://open.spotify.com/track/6Tm0JWd1pIlhdMYMjz5gvN"
      },
      "href" : "https://api.spotify.com/v1/tracks/6Tm0JWd1pIlhdMYMjz5gvN",
      "id" : "6Tm0JWd1pIlhdMYMjz5gvN",
      "is_local" : false,
      "is_playable" : true,
      "name" : "lords of fremont",
      "popularity" : 0,
      "preview_url" : "https://p.scdn.co/mp3-preview/37f11374e964a8161c19b5eb37f083f215381fd1?cid=774b29d4f13844c495f206cafdad9c86",
      "track_number" : 5,
      "type" : "track",
      "uri" : "spotify:track:6Tm0JWd1pIlhdMYMjz5gvN"
    }, {
      "album" : {
        "album_type" : "compilation",
        "artists" : [ {
          "external_urls" : {
            "spotify" : "https://open.spotify.com/artist/0LyfQWJT6nXafLPZqxe9Of"
          },
          "href" : "https://api.spotify.com/v1/artists/0LyfQWJT6nXafLPZqxe9Of",
          "id" : "0LyfQWJT6nXafLPZqxe9Of",
          "name" : "Various Artists",
          "type" : "artist",
          "uri" : "spotify:artist:0LyfQWJT6nXafLPZqxe9Of"
        } ],
        "external_urls" : {
          "spotify" : "https://open.spotify.com/album/71M5woOCOif0r3VZqAq0AN"
        },
        "href" : "https://api.spotify.com/v1/albums/71M5woOCOif0r3VZqAq0AN",
        "id" : "71M5woOCOif0r3VZqAq0AN",
        "images" : [ {
          "height" : 640,
          "url" : "https://i.scdn.co/image/ab67616d0000b2736568120dd53cc42d96be08e6",
          "width" : 640
        }, {
          "height" : 300,
          "url" : "https://i.scdn.co/image/ab67616d00001e026568120dd53cc42d96be08e6",
          "width" : 300
        }, {
          "height" : 64,
          "url" : "https://i.scdn.co/image/ab67616d000048516568120dd53cc42d96be08e6",
          "width" : 64
        } ],
        "name" : "Journeysongs Third Edition: Volume 2",
        "release_date" : "2012-05-01",
        "release_date_precision" : "day",
        "total_tracks" : 24,
        "type" : "album",
        "uri" : "spotify:album:71M5woOCOif0r3VZqAq0AN"
      },
      "artists" : [ {
        "external_urls" : {
          "spotify" : "https://open.spotify.com/artist/6jEQI4TuyNUtuQiCFHbOl7"
        },
        "href" : "https://api.spotify.com/v1/artists/6jEQI4TuyNUtuQiCFHbOl7",
        "id" : "6jEQI4TuyNUtuQiCFHbOl7",
        "name" : "Kevin Keil",
        "type" : "artist",
        "uri" : "spotify:artist:6jEQI4TuyNUtuQiCFHbOl7"
      } ],
      "disc_number" : 1,
      "duration_ms" : 262320,
      "explicit" : false,
      "external_ids" : {
        "isrc" : "USA4N1301027"
      },
      "external_urls" : {
        "spotify" : "https://open.spotify.com/track/2Ix20i5iEvVDpRnGx0kvv9"
      },
      "href" : "https://api.spotify.com/v1/tracks/2Ix20i5iEvVDpRnGx0kvv9",
      "id" : "2Ix20i5iEvVDpRnGx0kvv9",
      "is_local" : false,
      "is_playable" : true,
      "name" : "Psalm 34: Taste and See the Goodness of the Lord/I Will Bless the Lord at All Times",
      "popularity" : 1,
      "preview_url" : "https://p.scdn.co/mp3-preview/99eae654c2c39642c556e01ccebc921dbeada772?cid=774b29d4f13844c495f206cafdad9c86",
      "track_number" : 11,
      "type" : "track",
      "uri" : "spotify:track:2Ix20i5iEvVDpRnGx0kvv9"
    } ],
    "limit" : 10,
    "next" : "https://api.spotify.com/v1/search?query=Lord+of+All+Good&type=track&market=US&offset=15&limit=10",
    "offset" : 5,
    "previous" : "https://api.spotify.com/v1/search?query=Lord+of+All+Good&type=track&market=US&offset=0&limit=10",
    "total" : 39
  }
}