{
  "tracks" : {
    "href" : "https://api.spotify.com/v1/search?query=O+Worship+the+King&type=track&market=US&offset=5&limit=10",
    "items" : [ {
      "album" : {
        "album_type" : "single",
        "artists" : [ {
          "external_urls" : {
            "spotify" : "https://open.spotify.com/artist/4s39KkIp4ZerdqkOgRaX1e"
          },
          "href" : "https://api.spotify.com/v1/artists/4s39KkIp4ZerdqkOgRaX1e",
          "id" : "4s39KkIp4ZerdqkOgRaX1e",
          "name" : "Worship Lullaby",
          "type" : "artist",
          "uri" : "spotify:artist:4s39KkIp4ZerdqkOgRaX1e"
        } ],
        "external_urls" : {
          "spotify" : "https://open.spotify.com/album/3NpsN7EzJt5zGUEyc9Ozfu"
        },
        "href" : "https://api.spotify.com/v1/albums/3NpsN7EzJt5zGUEyc9Ozfu",
        "id" : "3NpsN7EzJt5zGUEyc9Ozfu",
        "images" : [ {
          "height" : 640,
          "url" : "https://i.scdn.co/image/ab67616d0000b27388bf67f4ceb31aa23ba45fa4",
          "width" : 640
        }, {
          "height" : 300,
          "url" : "https://i.scdn.co/image/ab67616d00001e0288bf67f4ceb31aa23ba45fa4",
          "width" : 300
        }, {
          "height" : 64,
          "url" : "https://i.scdn.co/image/ab67616d0000485188bf67f4ceb31aa23ba45fa4",
          "width" : 64
        } ],
        "name" : "Classic Hymns, Vol. I",
        "release_date" : "2019-03-22",
        "release_date_precision" : "day",
        "total_tracks" : 6,
        "type" : "album",
        "uri" : "spotify:album:3NpsN7EzJt5zGUEyc9Ozfu"
      },
      "artists" : [ {
        "external_urls" : {
          "spotify" : "https://open.spotify.com/artist/4s39KkIp4ZerdqkOgRaX1e"
        },
        "href" : "https://api.spotify.com/v1/artists/4s39KkIp4ZerdqkOgRaX1e",
        "id" : "4s39KkIp4ZerdqkOgRaX1e",
        "name" : "Worship Lullaby",
        "type" : "artist",
        "uri" : "spotify:artist:4s39KkIp4ZerdqkOgRaX1e"
      } ],
      "disc_number" : 1,
      "duration_ms" : 147600,
      "explicit" : false,
      "external_ids" : {
        "isrc" : "uscgj1984274"
      },
      "external_urls" : {
        "spotify" : "https://open.spotify.com/track/7JqTGH7yXjWhoEiCIyDeUc"
      },
      "href" : "https://api.spotify.com/v1/tracks/7JqTGH7yXjWhoEiCIyDeUc",
      "id" : "7JqTGH7yXjWhoEiCIyDeUc",
      "is_local" : false,
      "is_playable" : true,
      "name" : "O Worship the King",
      "popularity" : 21,
      "preview_url" : "https://p.scdn.co/mp3-preview/e9180e678fc053771937e12711eb3027ced37e21?cid=774b29d4f13844c495f206cafdad9c86",
      "track_number" : 5,
      "type" : "track",
      "uri" : "spotify:track:7JqTGH7yXjWhoEiCIyDeUc"
    }, {
      "album" : {
        "album_type" : "album",
        "artists" : [ {
          "external_urls" : {
            "spotify" : "https://open.spotify.com/artist/5ljRAiIgLFVxzWg7vS1Rnl"
          },
          "href" : "https://api.spotify.com/v1/artists/5ljRAiIgLFVxzWg7vS1Rnl",
          "id" : "5ljRAiIgLFVxzWg7vS1Rnl",
          "name" : "Christian Devotion",
          "type" : "artist",
          "uri" : "spotify:artist:5ljRAiIgLFVxzWg7vS1Rnl"
        } ],
        "external_urls" : {
          "spotify" : "https://open.spotify.com/album/0MDMpSMhKVFj5oUe7TY56b"
        },
        "href" : "https://api.spotify.com/v1/albums/0MDMpSMhKVFj5oUe7TY56b",
        "id" : "0MDMpSMhKVFj5oUe7TY56b",
        "images" : [ {
          "height" : 640,
          "url" : "https://i.scdn.co/image/ab67616d0000b273a2d131105ae14f594da119ef",
          "width" : 640
        }, {
          "height" : 300,
          "url" : "https://i.scdn.co/image/ab67616d00001e02a2d131105ae14f594da119ef",
          "width" : 300
        }, {
          "height" : 64,
          "url" : "https://i.scdn.co/image/ab67616d00004851a2d131105ae14f594da119ef",
          "width" : 64
        } ],
        "name" : "Hymns for Peace",
        "release_date" : "2015-12-21",
        "release_date_precision" : "day",
        "total_tracks" : 18,
        "type" : "album",
        "uri" : "spotify:album:0MDMpSMhKVFj5oUe7TY56b"
      },
      "artists" : [ {
        "external_urls" : {
          "spotify" : "https://open.spotify.com/artist/5ljRAiIgLFVxzWg7vS1Rnl"
        },
        "href" : "https://api.spotify.com/v1/artists/5ljRAiIgLFVxzWg7vS1Rnl",
        "id" : "5ljRAiIgLFVxzWg7vS1Rnl",
        "name" : "Christian Devotion",
        "type" : "artist",
        "uri" : "spotify:artist:5ljRAiIgLFVxzWg7vS1Rnl"
      } ],
      "disc_number" : 1,
      "duration_ms" : 137669,
      "explicit" : false,
      "external_ids" : {
        "isrc" : "USA2P1563044"
      },
      "external_urls" : {
        "spotify" : "https://open.spotify.com/track/4j54v4FYBREZcu1lUcyqbw"
      },
      "href" : "https://api.spotify.com/v1/tracks/4j54v4FYBREZcu1lUcyqbw",
      "id" : "4j54v4FYBREZcu1lUcyqbw",
      "is_local" : false,
      "is_playable" : true,
      "name" : "O Worship the King",
      "popularity" : 18,
      "preview_url" : "https://p.scdn.co/mp3-preview/30535bcdd0f484f61bc21d01bb5bb3e596c57711?cid=774b29d4f13844c495f206cafdad9c86",
      "track_number" : 17,
      "type" : "track",
      "uri" : "spotify:track:4j54v4FYBREZcu1lUcyqbw"
    }, {
      "album" : {
        "album_type" : "album",
        "artists" : [ {
          "external_urls" : {
            "spotify" : "https://open.spotify.com/artist/6yHjh2kS1GE4StjNCe5vm0"
          },
          "href" : "https://api.spotify.com/v1/artists/6yHjh2kS1GE4StjNCe5vm0",
          "id" : "6yHjh2kS1GE4StjNCe5vm0",
          "name" : "Mark Baldwin",
          "type" : "artist",
          "uri" : "spotify:artist:6yHjh2kS1GE4StjNCe5vm0"
        } ],
        "external_urls" : {
          "spotify" : "https://open.spotify.com/album/2uqnXxzuhcUAUBEhNHDAeD"
        },
        "href" : "https://api.spotify.com/v1/albums/2uqnXxzuhcUAUBEhNHDAeD",
        "id" : "2uqnXxzuhcUAUBEhNHDAeD",
        "images" : [ {
          "height" : 640,
          "url" : "https://i.scdn.co/image/ab67616d0000b2733d0b6c9e7fe69c2ed8925901",
          "width" : 640
        }, {
          "height" : 300,
          "url" : "https://i.scdn.co/image/ab67616d00001e023d0b6c9e7fe69c2ed8925901",
          "width" : 300
        }, {
          "height" : 64,
          "url" : "https://i.scdn.co/image/ab67616d000048513d0b6c9e7fe69c2ed8925901",
          "width" : 64
        } ],
        "name" : "Quiet Reflections - Instrumental Worship Favorites",
        "release_date" : "2009-01-20",
        "release_date_precision" : "day",
        "total_tracks" : 10,
        "type" : "album",
        "uri" : "spotify:album:2uqnXxzuhcUAUBEhNHDAeD"
      },
      "artists" : [ {
        "external_urls" : {
          "spotify" : "https://open.spotify.com/artist/6yHjh2kS1GE4StjNCe5vm0"
        },
        "href" : "https://api.spotify.com/v1/artists/6yHjh2kS1GE4StjNCe5vm0",
        "id" : "6yHjh2kS1GE4StjNCe5vm0",
        "name" : "Mark Baldwin",
        "type" : "artist",
        "uri" : "spotify:artist:6yHjh2kS1GE4StjNCe5vm0"
      } ],
      "disc_number" : 1,
      "duration_ms" : 141280,
      "explicit" : false,
      "external_ids" : {
        "isrc" : "USLF50801080"
      },
      "external_urls" : {
        "spotify" : "https://open.spotify.com/track/6IiTP5mhFiAxDEsUTO1q6z"
      },
      "href" : "https://api.spotify.com/v1/tracks/6IiTP5mhFiAxDEsUTO1q6z",
      "id" : "6IiTP5mhFiAxDEsUTO1q6z",
      "is_local" : false,
      "is_playable" : true,
      "name" : "O Worship the King",
      "popularity" : 22,
      "preview_url" : "https://p.scdn.co/mp3-preview/7c74a45a7685e32aebb3a10c2667219c9e4de16c?cid=774b29d4f13844c495f206cafdad9c86",
      "track_number" : 3,
      "type" : "track",
      "uri" : "spotify:track:6IiTP5mhFiAxDEsUTO1q6z"
    }, {
      "album" : {
        "album_type" : "album",
        "artists" : [ {
          "external_urls" : {
            "spotify" : "https://open.spotify.com/artist/1MmubZDiFWXhOXz941cRRp"
          },
          "href" : "https://api.spotify.com/v1/artists/1MmubZDiFWXhOXz941cRRp",
          "id" : "1MmubZDiFWXhOXz941cRRp",
          "name" : "Our Daily Bread",
          "type" : "artist",
          "uri" : "spotify:artist:1MmubZDiFWXhOXz941cRRp"
        } ],
        "external_urls" : {
          "spotify" : "https://open.spotify.com/album/4YFlPRDS7PDX7pyw0a2Sv5"
        },
        "href" : "https://api.spotify.com/v1/albums/4YFlPRDS7PDX7pyw0a2Sv5",
        "id" : "4YFlPRDS7PDX7pyw0a2Sv5",
        "images" : [ {
          "height" : 640,
          "url" : "https://i.scdn.co/image/ab67616d0000b2736e240e03e483c72e6bb1ca37",
          "width" : 640
        }, {
          "height" : 300,
          "url" : "https://i.scdn.co/image/ab67616d00001e026e240e03e483c72e6bb1ca37",
          "width" : 300
        }, {
          "height" : 64,
          "url" : "https://i.scdn.co/image/ab67616d000048516e240e03e483c72e6bb1ca37",
          "width" : 64
        } ],
        "name" : "Hymns of Gratitude",
        "release_date" : "2009-08-18",
        "release_date_precision" : "day",
        "total_tracks" : 10,
        "type" : "album",
        "uri" : "spotify:album:4YFlPRDS7PDX7pyw0a2Sv5"
      },
      "artists" : [ {
        "external_urls" : {
          "spotify" : "https://open.spotify.com/artist/1MmubZDiFWXhOXz941cRRp"
        },
        "href" : "https://api.spotify.com/v1/artists/1MmubZDiFWXhOXz941cRRp",
        "id" : "1MmubZDiFWXhOXz941cRRp",
        "name" : "Our Daily Bread",
        "type" : "artist",
        "uri" : "spotify:artist:1MmubZDiFWXhOXz941cRRp"
      } ],
      "disc_number" : 1,
      "duration_ms" : 116506,
      "explicit" : false,
      "external_ids" : {
        "isrc" : "USLF50801173"
      },
      "external_urls" : {
        "spotify" : "https://open.spotify.com/track/5YnSERj0sJMHEgfIQp7Yo3"
      },
      "href" : "https://api.spotify.com/v1/tracks/5YnSERj0sJMHEgfIQp7Yo3",
      "id" : "5YnSERj0sJMHEgfIQp7Yo3",
      "is_local" : false,
      "is_playable" : true,
      "name" : "O Worship the King",
      "popularity" : 18,
      "preview_url" : "https://p.scdn.co/mp3-preview/02ff7f16e5b5339b6ff9a3b180cb4cf7e55ae4dc?cid=774b29d4f13844c495f206cafdad9c86",
      "track_number" : 5,
      "type" : "track",
      "uri" : "spotify:track:5YnSERj0sJMHEgfIQp7Yo3"
    }, {
      "album" : {
        "album_type" : "album",
        "artists" : [ {
          "external_urls" : {
            "spotify" : "https://open.spotify.com/artist/5Z7ndTqS6EPzpNn322s0Nw"
          },
          "href" : "https://api.spotify.com/v1/artists/5Z7ndTqS6EPzpNn322s0Nw",
          "id" : "5Z7ndTqS6EPzpNn322s0Nw",
          "name" : "Jaime Jorge",
          "type" : "artist",
          "uri" : "spotify:artist:5Z7ndTqS6EPzpNn322s0Nw"
        } ],
        "external_urls" : {
          "spotify" : "https://open.spotify.com/album/3JKW9m8gji0M6f1noWSWCU"
        },
        "href" : "https://api.spotify.com/v1/albums/3JKW9m8gji0M6f1noWSWCU",
        "id" : "3JKW9m8gji0M6f1noWSWCU",
        "images" : [ {
          "height" : 640,
          "url" : "https://i.scdn.co/image/ab67616d0000b273b15bca87bcc1b8ef41b0e0cf",
          "width" : 640
        }, {
          "height" : 300,
          "url" : "https://i.scdn.co/image/ab67616d00001e02b15bca87bcc1b8ef41b0e0cf",
          "width" : 300
        }, {
          "height" : 64,
          "url" : "https://i.scdn.co/image/ab67616d00004851b15bca87bcc1b8ef41b0e0cf",
          "width" : 64
        } ],
        "name" : "Rock of Ages",
        "release_date" : "2010-07-10",
        "release_date_precision" : "day",
        "total_tracks" : 12,
        "type" : "album",
        "uri" : "spotify:album:3JKW9m8gji0M6f1noWSWCU"
      },
      "artists" : [ {
        "external_urls" : {
          "spotify" : "https://open.spotify.com/artist/5Z7ndTqS6EPzpNn322s0Nw"
        },
        "href" : "https://api.spotify.com/v1/artists/5Z7ndTqS6EPzpNn322s0Nw",
        "id" : "5Z7ndTqS6EPzpNn322s0Nw",
        "name" : "Jaime Jorge",
        "type" : "artist",
        "uri" : "spotify:artist:5Z7ndTqS6EPzpNn322s0Nw"
      } ],
      "disc_number" : 1,
      "duration_ms" : 194280,
      "explicit" : false,
      "external_ids" : {
        "isrc" : "ushm81032031"
      },
      "external_urls" : {
        "spotify" : "https://open.spotify.com/track/2DwS0AOaxdMFJkxeIjFJao"
      },
      "href" : "https://api.spotify.com/v1/tracks/2DwS0AOaxdMFJkxeIjFJao",
      "id" : "2DwS0AOaxdMFJkxeIjFJao",
      "is_local" : false,
      "is_playable" : true,
      "name" : "O Worship the King",
      "popularity" : 20,
      "preview_url" : "https://p.scdn.co/mp3-preview/33de843b1c7432fc649a5e7e190ea21ca874a975?cid=774b29d4f13844c495f206cafdad9c86",
      "track_number" : 1,
      "type" : "track",
      "uri" : "spotify:track:2DwS0AOaxdMFJkxeIjFJao"
    }, {
      "album" : {
        "album_type" : "single",
        "artists" : [ {
          "external_urls" : {
            "spotify" : "https://open.spotify.com/artist/0DAvDMISBhtMkP4XIMMCs4"
          },
          "href" : "https://api.spotify.com/v1/artists/0DAvDMISBhtMkP4XIMMCs4",
          "id" : "0DAvDMISBhtMkP4XIMMCs4",
          "name" : "Sing Hosanna",
          "type" : "artist",
          "uri" : "spotify:artist:0DAvDMISBhtMkP4XIMMCs4"
        } ],
        "external_urls" : {
          "spotify" : "https://open.spotify.com/album/6ReoKIe1sSF52pgKL69L9w"
        },
        "href" : "https://api.spotify.com/v1/albums/6ReoKIe1sSF52pgKL69L9w",
        "id" : "6ReoKIe1sSF52pgKL69L9w",
        "images" : [ {
          "height" : 640,
          "url" : "https://i.scdn.co/image/ab67616d0000b2732de7cf8ce96a62353b0c1882",
          "width" : 640
        }, {
          "height" : 300,
          "url" : "https://i.scdn.co/image/ab67616d00001e022de7cf8ce96a62353b0c1882",
          "width" : 300
        }, {
          "height" : 64,
          "url" : "https://i.scdn.co/image/ab67616d000048512de7cf8ce96a62353b0c1882",
          "width" : 64
        } ],
        "name" : "O Worship The King",
        "release_date" : "2020-05-22",
        "release_date_precision" : "day",
        "total_tracks" : 1,
        "type" : "album",
        "uri" : "spotify:album:6ReoKIe1sSF52pgKL69L9w"
      },
      "artists" : [ {
        "external_urls" : {
          "spotify" : "https://open.spotify.com/artist/0DAvDMISBhtMkP4XIMMCs4"
        },
        "href" : "https://api.spotify.com/v1/artists/0DAvDMISBhtMkP4XIMMCs4",
        "id" : "0DAvDMISBhtMkP4XIMMCs4",
        "name" : "Sing Hosanna",
        "type" : "artist",
        "uri" : "spotify:artist:0DAvDMISBhtMkP4XIMMCs4"
      } ],
      "disc_number" : 1,
      "duration_ms" : 127018,
      "explicit" : false,
      "external_ids" : {
        "isrc" : "HKG292000067"
      },
      "external_urls" : {
        "spotify" : "https://open.spotify.com/track/3IMfvzfYJAPpyDyucdWEp2"
      },
      "href" : "https://api.spotify.com/v1/tracks/3IMfvzfYJAPpyDyucdWEp2",
      "id" : "3IMfvzfYJAPpyDyucdWEp2",
      "is_local" : false,
      "is_playable" : true,
      "name" : "O Worship The King",
      "popularity" : 0,
      "preview_url" : "https://p.scdn.co/mp3-preview/c45ae86b3c4a86e0a0bd740a8419fb10420a6d17?cid=774b29d4f13844c495f206cafdad9c86",
      "track_number" : 1,
      "type" : "track",
      "uri" : "spotify:track:3IMfvzfYJAPpyDyucdWEp2"
    }, {
      "album" : {
        "album_type" : "album",
        "artists" : [ {
          "external_urls" : {
            "spotify" : "https://open.spotify.com/artist/54ucyKvzWatFF2t7ldPkbN"
          },
          "href" : "https://api.spotify.com/v1/artists/54ucyKvzWatFF2t7ldPkbN",
          "id" : "54ucyKvzWatFF2t7ldPkbN",
          "name" : "Tanner Stahl",
          "type" : "artist",
          "uri" : "spotify:artist:54ucyKvzWatFF2t7ldPkbN"
        } ],
        "external_urls" : {
          "spotify" : "https://open.spotify.com/album/0ybxI4iaJpnE2t1Edu060w"
        },
        "href" : "https://api.spotify.com/v1/albums/0ybxI4iaJpnE2t1Edu060w",
        "id" : "0ybxI4iaJpnE2t1Edu060w",
        "images" : [ {
          "height" : 640,
          "url" : "https://i.scdn.co/image/ab67616d0000b2735aeca8d7243af8532e1a2e45",
          "width" : 640
        }, {
          "height" : 300,
          "url" : "https://i.scdn.co/image/ab67616d00001e025aeca8d7243af8532e1a2e45",
          "width" : 300
        }, {
          "height" : 64,
          "url" : "https://i.scdn.co/image/ab67616d000048515aeca8d7243af8532e1a2e45",
          "width" : 64
        } ],
        "name" : "Worship Hymn Volume. 2",
        "release_date" : "2020-05-16",
        "release_date_precision" : "day",
        "total_tracks" : 10,
        "type" : "album",
        "uri" : "spotify:album:0ybxI4iaJpnE2t1Edu060w"
      },
      "artists" : [ {
        "external_urls" : {
          "spotify" : "https://open.spotify.com/artist/54ucyKvzWatFF2t7ldPkbN"
        },
        "href" : "https://api.spotify.com/v1/artists/54ucyKvzWatFF2t7ldPkbN",
        "id" : "54ucyKvzWatFF2t7ldPkbN",
        "name" : "Tanner Stahl",
        "type" : "artist",
        "uri" : "spotify:artist:54ucyKvzWatFF2t7ldPkbN"
      } ],
      "disc_number" : 1,
      "duration_ms" : 274017,
      "explicit" : false,
      "external_ids" : {
        "isrc" : "QZES92081977"
      },
      "external_urls" : {
        "spotify" : "https://open.spotify.com/track/5zAC1d9eJ99QsPhL1ly0GU"
      },
      "href" : "https://api.spotify.com/v1/tracks/5zAC1d9eJ99QsPhL1ly0GU",
      "id" : "5zAC1d9eJ99QsPhL1ly0GU",
      "is_local" : false,
      "is_playable" : true,
      "name" : "O Worship the King",
      "popularity" : 0,
      "preview_url" : "https://p.scdn.co/mp3-preview/76b8e1617e06597a8b0ea5540511315614430800?cid=774b29d4f13844c495f206cafdad9c86",
      "track_number" : 10,
      "type" : "track",
      "uri" : "spotify:track:5zAC1d9eJ99QsPhL1ly0GU"
    }, {
      "album" : {
        "album_type" : "single",
        "artists" : [ {
          "external_urls" : {
            "spotify" : "https://open.spotify.com/artist/2LFbgsbEhfilNpQYW7mied"
          },
          "href" : "https://api.spotify.com/v1/artists/2LFbgsbEhfilNpQYW7mied",
          "id" : "2LFbgsbEhfilNpQYW7mied",
          "name" : "Shane & Shane",
          "type" : "artist",
          "uri" : "spotify:artist:2LFbgsbEhfilNpQYW7mied"
        } ],
        "external_urls" : {
          "spotify" : "https://open.spotify.com/album/4KwnvweCt5Tldn4Pf4RHuq"
        },
        "href" : "https://api.spotify.com/v1/albums/4KwnvweCt5Tldn4Pf4RHuq",
        "id" : "4KwnvweCt5Tldn4Pf4RHuq",
        "images" : [ {
          "height" : 640,
          "url" : "https://i.scdn.co/image/ab67616d0000b273889eaafb5b7c6715a1dbe73c",
          "width" : 640
        }, {
          "height" : 300,
          "url" : "https://i.scdn.co/image/ab67616d00001e02889eaafb5b7c6715a1dbe73c",
          "width" : 300
        }, {
          "height" : 64,
          "url" : "https://i.scdn.co/image/ab67616d00004851889eaafb5b7c6715a1dbe73c",
          "width" : 64
        } ],
        "name" : "King of My Heart (The Worship Initiative Accompaniment)",
        "release_date" : "2018-03-16",
        "release_date_precision" : "day",
        "total_tracks" : 3,
        "type" : "album",
        "uri" : "spotify:album:4KwnvweCt5Tldn4Pf4RHuq"
      },
      "artists" : [ {
        "external_urls" : {
          "spotify" : "https://open.spotify.com/artist/2LFbgsbEhfilNpQYW7mied"
        },
        "href" : "https://api.spotify.com/v1/artists/2LFbgsbEhfilNpQYW7mied",
        "id" : "2LFbgsbEhfilNpQYW7mied",
        "name" : "Shane & Shane",
        "type" : "artist",
        "uri" : "spotify:artist:2LFbgsbEhfilNpQYW7mied"
      }, {
        "external_urls" : {
          "spotify" : "https://open.spotify.com/artist/25UxrBdZpBLYwsoXmMulvF"
        },
        "href" : "https://api.spotify.com/v1/artists/25UxrBdZpBLYwsoXmMulvF",
        "id" : "25UxrBdZpBLYwsoXmMulvF",
        "name" : "Alex Kissinger",
        "type" : "artist",
        "uri" : "spotify:artist:25UxrBdZpBLYwsoXmMulvF"
      } ],
      "disc_number" : 1,
      "duration_ms" : 264599,
      "explicit" : false,
      "external_ids" : {
        "isrc" : "USDHM1718561"
      },
      "external_urls" : {
        "spotify" : "https://open.spotify.com/track/4AAQ0TRitUFubkNnRDUPng"
      },
      "href" : "https://api.spotify.com/v1/tracks/4AAQ0TRitUFubkNnRDUPng",
      "id" : "4AAQ0TRitUFubkNnRDUPng",
      "is_local" : false,
      "is_playable" : true,
      "name" : "King of My Heart",
      "popularity" : 49,
      "preview_url" : "https://p.scdn.co/mp3-preview/e82e6523ef1cf202174f143caeff8da05ef6ef9d?cid=774b29d4f13844c495f206cafdad9c86",
      "track_number" : 1,
      "type" : "track",
      "uri" : "spotify:track:4AAQ0TRitUFubkNnRDUPng"
    }, {
      "album" : {
        "album_type" : "album",
        "artists" : [ {
          "external_urls" : {
            "spotify" : "https://open.spotify.com/artist/1bMkQIx4MpNHLxoylvipdQ"
          },
          "href" : "https://api.spotify.com/v1/artists/1bMkQIx4MpNHLxoylvipdQ",
          "id" : "1bMkQIx4MpNHLxoylvipdQ",
          "name" : "The Worship Initiative",
          "type" : "artist",
          "uri" : "spotify:artist:1bMkQIx4MpNHLxoylvipdQ"
        }, {
          "external_urls" : {
            "spotify" : "https://open.spotify.com/artist/2LFbgsbEhfilNpQYW7mied"
          },
          "href" : "https://api.spotify.com/v1/artists/2LFbgsbEhfilNpQYW7mied",
          "id" : "2LFbgsbEhfilNpQYW7mied",
          "name" : "Shane & Shane",
          "type" : "artist",
          "uri" : "spotify:artist:2LFbgsbEhfilNpQYW7mied"
        } ],
        "external_urls" : {
          "spotify" : "https://open.spotify.com/album/1cNnDUzgbdJG0i4GVrb609"
        },
        "href" : "https://api.spotify.com/v1/albums/1cNnDUzgbdJG0i4GVrb609",
        "id" : "1cNnDUzgbdJG0i4GVrb609",
        "images" : [ {
          "height" : 640,
          "url" : "https://i.scdn.co/image/ab67616d0000b2736bef0a1f579c868093da7313",
          "width" : 640
        }, {
          "height" : 300,
          "url" : "https://i.scdn.co/image/ab67616d00001e026bef0a1f579c868093da7313",
          "width" : 300
        }, {
          "height" : 64,
          "url" : "https://i.scdn.co/image/ab67616d000048516bef0a1f579c868093da7313",
          "width" : 64
        } ],
        "name" : "The Worship Initiative, Vol. 18",
        "release_date" : "2020-01-17",
        "release_date_precision" : "day",
        "total_tracks" : 10,
        "type" : "album",
        "uri" : "spotify:album:1cNnDUzgbdJG0i4GVrb609"
      },
      "artists" : [ {
        "external_urls" : {
          "spotify" : "https://open.spotify.com/artist/1bMkQIx4MpNHLxoylvipdQ"
        },
        "href" : "https://api.spotify.com/v1/artists/1bMkQIx4MpNHLxoylvipdQ",
        "id" : "1bMkQIx4MpNHLxoylvipdQ",
        "name" : "The Worship Initiative",
        "type" : "artist",
        "uri" : "spotify:artist:1bMkQIx4MpNHLxoylvipdQ"
      }, {
        "external_urls" : {
          "spotify" : "https://open.spotify.com/artist/2LFbgsbEhfilNpQYW7mied"
        },
        "href" : "https://api.spotify.com/v1/artists/2LFbgsbEhfilNpQYW7mied",
        "id" : "2LFbgsbEhfilNpQYW7mied",
        "name" : "Shane & Shane",
        "type" : "artist",
        "uri" : "spotify:artist:2LFbgsbEhfilNpQYW7mied"
      }, {
        "external_urls" : {
          "spotify" : "https://open.spotify.com/artist/36Jk5sBdoGWR9iP4GX49EU"
        },
        "href" : "https://api.spotify.com/v1/artists/36Jk5sBdoGWR9iP4GX49EU",
        "id" : "36Jk5sBdoGWR9iP4GX49EU",
        "name" : "Davy Flowers",
        "type" : "artist",
        "uri" : "spotify:artist:36Jk5sBdoGWR9iP4GX49EU"
      } ],
      "disc_number" : 1,
      "duration_ms" : 264301,
      "explicit" : false,
      "external_ids" : {
        "isrc" : "USDHM1918942"
      },
      "external_urls" : {
        "spotify" : "https://open.spotify.com/track/6mn3jAQ2vWMEQWmVP2jBNa"
      },
      "href" : "https://api.spotify.com/v1/tracks/6mn3jAQ2vWMEQWmVP2jBNa",
      "id" : "6mn3jAQ2vWMEQWmVP2jBNa",
      "is_local" : false,
      "is_playable" : true,
      "name" : "King of Kings",
      "popularity" : 36,
      "preview_url" : "https://p.scdn.co/mp3-preview/dbc387bad499fce9ca99eaf965926125594b8aa5?cid=774b29d4f13844c495f206cafdad9c86",
      "track_number" : 4,
      "type" : "track",
      "uri" : "spotify:track:6mn3jAQ2vWMEQWmVP2jBNa"
    }, {
      "album" : {
        "album_type" : "single",
        "artists" : [ {
          "external_urls" : {
            "spotify" : "https://open.spotify.com/artist/1bMkQIx4MpNHLxoylvipdQ"
          },
          "href" : "https://api.spotify.com/v1/artists/1bMkQIx4MpNHLxoylvipdQ",
          "id" : "1bMkQIx4MpNHLxoylvipdQ",
          "name" : "The Worship Initiative",
          "type" : "artist",
          "uri" : "spotify:artist:1bMkQIx4MpNHLxoylvipdQ"
        }, {
          "external_urls" : {
            "spotify" : "https://open.spotify.com/artist/2LFbgsbEhfilNpQYW7mied"
          },
          "href" : "https://api.spotify.com/v1/artists/2LFbgsbEhfilNpQYW7mied",
          "id" : "2LFbgsbEhfilNpQYW7mied",
          "name" : "Shane & Shane",
          "type" : "artist",
          "uri" : "spotify:artist:2LFbgsbEhfilNpQYW7mied"
        } ],
        "external_urls" : {
          "spotify" : "https://open.spotify.com/album/3D0l0IwdhtBLUNjJAEBGX4"
        },
        "href" : "https://api.spotify.com/v1/albums/3D0l0IwdhtBLUNjJAEBGX4",
        "id" : "3D0l0IwdhtBLUNjJAEBGX4",
        "images" : [ {
          "height" : 640,
          "url" : "https://i.scdn.co/image/ab67616d0000b27344e0f8f06efbc341c9ac9fab",
          "width" : 640
        }, {
          "height" : 300,
          "url" : "https://i.scdn.co/image/ab67616d00001e0244e0f8f06efbc341c9ac9fab",
          "width" : 300
        }, {
          "height" : 64,
          "url" : "https://i.scdn.co/image/ab67616d0000485144e0f8f06efbc341c9ac9fab",
          "width" : 64
        } ],
        "name" : "The Worship Initiative, Vol. 13",
        "release_date" : "2017-09-22",
        "release_date_precision" : "day",
        "total_tracks" : 5,
        "type" : "album",
        "uri" : "spotify:album:3D0l0IwdhtBLUNjJAEBGX4"
      },
      "artists" : [ {
        "external_urls" : {
          "spotify" : "https://open.spotify.com/artist/1bMkQIx4MpNHLxoylvipdQ"
        },
        "href" : "https://api.spotify.com/v1/artists/1bMkQIx4MpNHLxoylvipdQ",
        "id" : "1bMkQIx4MpNHLxoylvipdQ",
        "name" : "The Worship Initiative",
        "type" : "artist",
        "uri" : "spotify:artist:1bMkQIx4MpNHLxoylvipdQ"
      }, {
        "external_urls" : {
          "spotify" : "https://open.spotify.com/artist/2LFbgsbEhfilNpQYW7mied"
        },
        "href" : "https://api.spotify.com/v1/artists/2LFbgsbEhfilNpQYW7mied",
        "id" : "2LFbgsbEhfilNpQYW7mied",
        "name" : "Shane & Shane",
        "type" : "artist",
        "uri" : "spotify:artist:2LFbgsbEhfilNpQYW7mied"
      }, {
        "external_urls" : {
          "spotify" : "https://open.spotify.com/artist/25UxrBdZpBLYwsoXmMulvF"
        },
        "href" : "https://api.spotify.com/v1/artists/25UxrBdZpBLYwsoXmMulvF",
        "id" : "25UxrBdZpBLYwsoXmMulvF",
        "name" : "Alex Kissinger",
        "type" : "artist",
        "uri" : "spotify:artist:25UxrBdZpBLYwsoXmMulvF"
      } ],
      "disc_number" : 1,
      "duration_ms" : 264599,
      "explicit" : false,
      "external_ids" : {
        "isrc" : "USDHM1718561"
      },
      "external_urls" : {
        "spotify" : "https://open.spotify.com/track/0mc95tIlAX2ondtvaKnwoD"
      },
      "href" : "https://api.spotify.com/v1/tracks/0mc95tIlAX2ondtvaKnwoD",
      "id" : "0mc95tIlAX2ondtvaKnwoD",
      "is_local" : false,
      "is_playable" : true,
      "name" : "King of My Heart",
      "popularity" : 38,
      "preview_url" : "https://p.scdn.co/mp3-preview/e82e6523ef1cf202174f143caeff8da05ef6ef9d?cid=774b29d4f13844c495f206cafdad9c86",
      "track_number" : 4,
      "type" : "track",
      "uri" : "spotify:track:0mc95tIlAX2ondtvaKnwoD"
    } ],
    "limit" : 10,
    "next" : "https://api.spotify.com/v1/search?query=O+Worship+the+King&type=track&market=US&offset=15&limit=10",
    "offset" : 5,
    "previous" : "https://api.spotify.com/v1/search?query=O+Worship+the+King&type=track&market=US&offset=0&limit=10",
    "total" : 1528
  }
}