{
  "tracks" : {
    "href" : "https://api.spotify.com/v1/search?query=Holy+God%2C+We+Praise+Your+Name&type=track&market=US&offset=5&limit=10",
    "items" : [ {
      "album" : {
        "album_type" : "album",
        "artists" : [ {
          "external_urls" : {
            "spotify" : "https://open.spotify.com/artist/0cylxW7HGdK9xMdubw2oYW"
          },
          "href" : "https://api.spotify.com/v1/artists/0cylxW7HGdK9xMdubw2oYW",
          "id" : "0cylxW7HGdK9xMdubw2oYW",
          "name" : "The O'Neill Brothers Group",
          "type" : "artist",
          "uri" : "spotify:artist:0cylxW7HGdK9xMdubw2oYW"
        } ],
        "external_urls" : {
          "spotify" : "https://open.spotify.com/album/28Hh3Ncumi5xxTAH4XrxN0"
        },
        "href" : "https://api.spotify.com/v1/albums/28Hh3Ncumi5xxTAH4XrxN0",
        "id" : "28Hh3Ncumi5xxTAH4XrxN0",
        "images" : [ {
          "height" : 640,
          "url" : "https://i.scdn.co/image/ab67616d0000b273dc7d66b2574b32820bee1db5",
          "width" : 640
        }, {
          "height" : 300,
          "url" : "https://i.scdn.co/image/ab67616d00001e02dc7d66b2574b32820bee1db5",
          "width" : 300
        }, {
          "height" : 64,
          "url" : "https://i.scdn.co/image/ab67616d00004851dc7d66b2574b32820bee1db5",
          "width" : 64
        } ],
        "name" : "Royalty Free Christian Piano Instrumentals",
        "release_date" : "2013-05-15",
        "release_date_precision" : "day",
        "total_tracks" : 20,
        "type" : "album",
        "uri" : "spotify:album:28Hh3Ncumi5xxTAH4XrxN0"
      },
      "artists" : [ {
        "external_urls" : {
          "spotify" : "https://open.spotify.com/artist/0cylxW7HGdK9xMdubw2oYW"
        },
        "href" : "https://api.spotify.com/v1/artists/0cylxW7HGdK9xMdubw2oYW",
        "id" : "0cylxW7HGdK9xMdubw2oYW",
        "name" : "The O'Neill Brothers Group",
        "type" : "artist",
        "uri" : "spotify:artist:0cylxW7HGdK9xMdubw2oYW"
      } ],
      "disc_number" : 1,
      "duration_ms" : 269706,
      "explicit" : false,
      "external_ids" : {
        "isrc" : "USA371358243"
      },
      "external_urls" : {
        "spotify" : "https://open.spotify.com/track/4qxwz6e0uCNL6F42W5ccYN"
      },
      "href" : "https://api.spotify.com/v1/tracks/4qxwz6e0uCNL6F42W5ccYN",
      "id" : "4qxwz6e0uCNL6F42W5ccYN",
      "is_local" : false,
      "is_playable" : true,
      "name" : "Holy God, We Praise Your Name/Sous Le Dome Epais",
      "popularity" : 5,
      "preview_url" : "https://p.scdn.co/mp3-preview/28600e1d1ee6d7ece11939df66ba8bbbe81844bb?cid=774b29d4f13844c495f206cafdad9c86",
      "track_number" : 4,
      "type" : "track",
      "uri" : "spotify:track:4qxwz6e0uCNL6F42W5ccYN"
    }, {
      "album" : {
        "album_type" : "album",
        "artists" : [ {
          "external_urls" : {
            "spotify" : "https://open.spotify.com/artist/2tK8bea1OuXJnmUlv8nnRX"
          },
          "href" : "https://api.spotify.com/v1/artists/2tK8bea1OuXJnmUlv8nnRX",
          "id" : "2tK8bea1OuXJnmUlv8nnRX",
          "name" : "The St. Olaf Choir",
          "type" : "artist",
          "uri" : "spotify:artist:2tK8bea1OuXJnmUlv8nnRX"
        } ],
        "external_urls" : {
          "spotify" : "https://open.spotify.com/album/0g4JLn12Q23vb7Xd8cLQAJ"
        },
        "href" : "https://api.spotify.com/v1/albums/0g4JLn12Q23vb7Xd8cLQAJ",
        "id" : "0g4JLn12Q23vb7Xd8cLQAJ",
        "images" : [ {
          "height" : 640,
          "url" : "https://i.scdn.co/image/ab67616d0000b2737ca3df8e5fe7115ea08d4cb0",
          "width" : 640
        }, {
          "height" : 300,
          "url" : "https://i.scdn.co/image/ab67616d00001e027ca3df8e5fe7115ea08d4cb0",
          "width" : 300
        }, {
          "height" : 64,
          "url" : "https://i.scdn.co/image/ab67616d000048517ca3df8e5fe7115ea08d4cb0",
          "width" : 64
        } ],
        "name" : "Te Deum: A Celebration in Song",
        "release_date" : "1994-01-01",
        "release_date_precision" : "day",
        "total_tracks" : 24,
        "type" : "album",
        "uri" : "spotify:album:0g4JLn12Q23vb7Xd8cLQAJ"
      },
      "artists" : [ {
        "external_urls" : {
          "spotify" : "https://open.spotify.com/artist/35y6unM66rGPWHTRFNrqKS"
        },
        "href" : "https://api.spotify.com/v1/artists/35y6unM66rGPWHTRFNrqKS",
        "id" : "35y6unM66rGPWHTRFNrqKS",
        "name" : "Anonymous ",
        "type" : "artist",
        "uri" : "spotify:artist:35y6unM66rGPWHTRFNrqKS"
      }, {
        "external_urls" : {
          "spotify" : "https://open.spotify.com/artist/3jHB5cfTarDh04pDTrRhg3"
        },
        "href" : "https://api.spotify.com/v1/artists/3jHB5cfTarDh04pDTrRhg3",
        "id" : "3jHB5cfTarDh04pDTrRhg3",
        "name" : "John Ferguson",
        "type" : "artist",
        "uri" : "spotify:artist:3jHB5cfTarDh04pDTrRhg3"
      }, {
        "external_urls" : {
          "spotify" : "https://open.spotify.com/artist/2tK8bea1OuXJnmUlv8nnRX"
        },
        "href" : "https://api.spotify.com/v1/artists/2tK8bea1OuXJnmUlv8nnRX",
        "id" : "2tK8bea1OuXJnmUlv8nnRX",
        "name" : "The St. Olaf Choir",
        "type" : "artist",
        "uri" : "spotify:artist:2tK8bea1OuXJnmUlv8nnRX"
      } ],
      "disc_number" : 1,
      "duration_ms" : 270733,
      "explicit" : false,
      "external_ids" : {
        "isrc" : "US7859410900"
      },
      "external_urls" : {
        "spotify" : "https://open.spotify.com/track/0cd822leRO78DuNbqlqd6x"
      },
      "href" : "https://api.spotify.com/v1/tracks/0cd822leRO78DuNbqlqd6x",
      "id" : "0cd822leRO78DuNbqlqd6x",
      "is_local" : false,
      "is_playable" : true,
      "name" : "Holy God, We Praise Your Name (arr. J. Ferguson for choir)",
      "popularity" : 2,
      "preview_url" : "https://p.scdn.co/mp3-preview/8852e8d7d1a24ed5b9a87396eef2a148bdb575b0?cid=774b29d4f13844c495f206cafdad9c86",
      "track_number" : 1,
      "type" : "track",
      "uri" : "spotify:track:0cd822leRO78DuNbqlqd6x"
    }, {
      "album" : {
        "album_type" : "album",
        "artists" : [ {
          "external_urls" : {
            "spotify" : "https://open.spotify.com/artist/02P1DMfeONaY7APNLccb5u"
          },
          "href" : "https://api.spotify.com/v1/artists/02P1DMfeONaY7APNLccb5u",
          "id" : "02P1DMfeONaY7APNLccb5u",
          "name" : "Cantorei",
          "type" : "artist",
          "uri" : "spotify:artist:02P1DMfeONaY7APNLccb5u"
        } ],
        "external_urls" : {
          "spotify" : "https://open.spotify.com/album/1tPAgLD1QZQ0EaQTsLPs2d"
        },
        "href" : "https://api.spotify.com/v1/albums/1tPAgLD1QZQ0EaQTsLPs2d",
        "id" : "1tPAgLD1QZQ0EaQTsLPs2d",
        "images" : [ {
          "height" : 640,
          "url" : "https://i.scdn.co/image/ab67616d0000b2738cca5d73268be3f146690bb2",
          "width" : 640
        }, {
          "height" : 300,
          "url" : "https://i.scdn.co/image/ab67616d00001e028cca5d73268be3f146690bb2",
          "width" : 300
        }, {
          "height" : 64,
          "url" : "https://i.scdn.co/image/ab67616d000048518cca5d73268be3f146690bb2",
          "width" : 64
        } ],
        "name" : "The Song Goes On",
        "release_date" : "2010-07-01",
        "release_date_precision" : "day",
        "total_tracks" : 28,
        "type" : "album",
        "uri" : "spotify:album:1tPAgLD1QZQ0EaQTsLPs2d"
      },
      "artists" : [ {
        "external_urls" : {
          "spotify" : "https://open.spotify.com/artist/02P1DMfeONaY7APNLccb5u"
        },
        "href" : "https://api.spotify.com/v1/artists/02P1DMfeONaY7APNLccb5u",
        "id" : "02P1DMfeONaY7APNLccb5u",
        "name" : "Cantorei",
        "type" : "artist",
        "uri" : "spotify:artist:02P1DMfeONaY7APNLccb5u"
      } ],
      "disc_number" : 1,
      "duration_ms" : 277613,
      "explicit" : false,
      "external_ids" : {
        "isrc" : "ushm81084193"
      },
      "external_urls" : {
        "spotify" : "https://open.spotify.com/track/1aQjDNOCMi6FSw7qbQHtly"
      },
      "href" : "https://api.spotify.com/v1/tracks/1aQjDNOCMi6FSw7qbQHtly",
      "id" : "1aQjDNOCMi6FSw7qbQHtly",
      "is_local" : false,
      "is_playable" : true,
      "name" : "Holy God, We Praise Your Name",
      "popularity" : 0,
      "preview_url" : "https://p.scdn.co/mp3-preview/19d3bffc733ee4dd30972efb5ca2e7f4c728edc6?cid=774b29d4f13844c495f206cafdad9c86",
      "track_number" : 3,
      "type" : "track",
      "uri" : "spotify:track:1aQjDNOCMi6FSw7qbQHtly"
    }, {
      "album" : {
        "album_type" : "album",
        "artists" : [ {
          "external_urls" : {
            "spotify" : "https://open.spotify.com/artist/0cylxW7HGdK9xMdubw2oYW"
          },
          "href" : "https://api.spotify.com/v1/artists/0cylxW7HGdK9xMdubw2oYW",
          "id" : "0cylxW7HGdK9xMdubw2oYW",
          "name" : "The O'Neill Brothers Group",
          "type" : "artist",
          "uri" : "spotify:artist:0cylxW7HGdK9xMdubw2oYW"
        } ],
        "external_urls" : {
          "spotify" : "https://open.spotify.com/album/5R2sL1CoVWkE2OCOueUKlb"
        },
        "href" : "https://api.spotify.com/v1/albums/5R2sL1CoVWkE2OCOueUKlb",
        "id" : "5R2sL1CoVWkE2OCOueUKlb",
        "images" : [ {
          "height" : 640,
          "url" : "https://i.scdn.co/image/ab67616d0000b2730f676766975279eaf357471a",
          "width" : 640
        }, {
          "height" : 300,
          "url" : "https://i.scdn.co/image/ab67616d00001e020f676766975279eaf357471a",
          "width" : 300
        }, {
          "height" : 64,
          "url" : "https://i.scdn.co/image/ab67616d000048510f676766975279eaf357471a",
          "width" : 64
        } ],
        "name" : "Royalty Free Catholic Piano Instrumentals",
        "release_date" : "2013-08-13",
        "release_date_precision" : "day",
        "total_tracks" : 15,
        "type" : "album",
        "uri" : "spotify:album:5R2sL1CoVWkE2OCOueUKlb"
      },
      "artists" : [ {
        "external_urls" : {
          "spotify" : "https://open.spotify.com/artist/0cylxW7HGdK9xMdubw2oYW"
        },
        "href" : "https://api.spotify.com/v1/artists/0cylxW7HGdK9xMdubw2oYW",
        "id" : "0cylxW7HGdK9xMdubw2oYW",
        "name" : "The O'Neill Brothers Group",
        "type" : "artist",
        "uri" : "spotify:artist:0cylxW7HGdK9xMdubw2oYW"
      } ],
      "disc_number" : 1,
      "duration_ms" : 269706,
      "explicit" : false,
      "external_ids" : {
        "isrc" : "USA371358243"
      },
      "external_urls" : {
        "spotify" : "https://open.spotify.com/track/6fBPSPdxebmvA8hPZgUQBi"
      },
      "href" : "https://api.spotify.com/v1/tracks/6fBPSPdxebmvA8hPZgUQBi",
      "id" : "6fBPSPdxebmvA8hPZgUQBi",
      "is_local" : false,
      "is_playable" : true,
      "name" : "Holy God, We Praise Your Name",
      "popularity" : 0,
      "preview_url" : "https://p.scdn.co/mp3-preview/28600e1d1ee6d7ece11939df66ba8bbbe81844bb?cid=774b29d4f13844c495f206cafdad9c86",
      "track_number" : 13,
      "type" : "track",
      "uri" : "spotify:track:6fBPSPdxebmvA8hPZgUQBi"
    }, {
      "album" : {
        "album_type" : "album",
        "artists" : [ {
          "external_urls" : {
            "spotify" : "https://open.spotify.com/artist/6mGZXaZ4SWNh6IsJ57thCp"
          },
          "href" : "https://api.spotify.com/v1/artists/6mGZXaZ4SWNh6IsJ57thCp",
          "id" : "6mGZXaZ4SWNh6IsJ57thCp",
          "name" : "Fernando Ortega",
          "type" : "artist",
          "uri" : "spotify:artist:6mGZXaZ4SWNh6IsJ57thCp"
        } ],
        "external_urls" : {
          "spotify" : "https://open.spotify.com/album/19jj08GUAc3o0ohqnEmzou"
        },
        "href" : "https://api.spotify.com/v1/albums/19jj08GUAc3o0ohqnEmzou",
        "id" : "19jj08GUAc3o0ohqnEmzou",
        "images" : [ {
          "height" : 640,
          "url" : "https://i.scdn.co/image/ab67616d0000b273ddfe473189605dd224717285",
          "width" : 640
        }, {
          "height" : 300,
          "url" : "https://i.scdn.co/image/ab67616d00001e02ddfe473189605dd224717285",
          "width" : 300
        }, {
          "height" : 64,
          "url" : "https://i.scdn.co/image/ab67616d00004851ddfe473189605dd224717285",
          "width" : 64
        } ],
        "name" : "The Urgency of Praise, Vol. 2",
        "release_date" : "1992-10-01",
        "release_date_precision" : "day",
        "total_tracks" : 10,
        "type" : "album",
        "uri" : "spotify:album:19jj08GUAc3o0ohqnEmzou"
      },
      "artists" : [ {
        "external_urls" : {
          "spotify" : "https://open.spotify.com/artist/6R0p06zJjHFNzlPhT7MC11"
        },
        "href" : "https://api.spotify.com/v1/artists/6R0p06zJjHFNzlPhT7MC11",
        "id" : "6R0p06zJjHFNzlPhT7MC11",
        "name" : "Bob Bennett",
        "type" : "artist",
        "uri" : "spotify:artist:6R0p06zJjHFNzlPhT7MC11"
      } ],
      "disc_number" : 1,
      "duration_ms" : 246933,
      "explicit" : false,
      "external_ids" : {
        "isrc" : "US8C50910024"
      },
      "external_urls" : {
        "spotify" : "https://open.spotify.com/track/1HbNF7oYqTHGMVdMY18Exr"
      },
      "href" : "https://api.spotify.com/v1/tracks/1HbNF7oYqTHGMVdMY18Exr",
      "id" : "1HbNF7oYqTHGMVdMY18Exr",
      "is_local" : false,
      "is_playable" : true,
      "name" : "Holy God We Praise Your Name",
      "popularity" : 1,
      "preview_url" : "https://p.scdn.co/mp3-preview/af22dc69ed1cadfe9020fb7c8feb8332bde297af?cid=774b29d4f13844c495f206cafdad9c86",
      "track_number" : 3,
      "type" : "track",
      "uri" : "spotify:track:1HbNF7oYqTHGMVdMY18Exr"
    }, {
      "album" : {
        "album_type" : "album",
        "artists" : [ {
          "external_urls" : {
            "spotify" : "https://open.spotify.com/artist/02P1DMfeONaY7APNLccb5u"
          },
          "href" : "https://api.spotify.com/v1/artists/02P1DMfeONaY7APNLccb5u",
          "id" : "02P1DMfeONaY7APNLccb5u",
          "name" : "Cantorei",
          "type" : "artist",
          "uri" : "spotify:artist:02P1DMfeONaY7APNLccb5u"
        } ],
        "external_urls" : {
          "spotify" : "https://open.spotify.com/album/7s9akNmqVapyLdI6A4IxsT"
        },
        "href" : "https://api.spotify.com/v1/albums/7s9akNmqVapyLdI6A4IxsT",
        "id" : "7s9akNmqVapyLdI6A4IxsT",
        "images" : [ {
          "height" : 640,
          "url" : "https://i.scdn.co/image/ab67616d0000b27316af5e68c3d1792f6d225ef3",
          "width" : 640
        }, {
          "height" : 300,
          "url" : "https://i.scdn.co/image/ab67616d00001e0216af5e68c3d1792f6d225ef3",
          "width" : 300
        }, {
          "height" : 64,
          "url" : "https://i.scdn.co/image/ab67616d0000485116af5e68c3d1792f6d225ef3",
          "width" : 64
        } ],
        "name" : "Te Deum",
        "release_date" : "2010-07-01",
        "release_date_precision" : "day",
        "total_tracks" : 24,
        "type" : "album",
        "uri" : "spotify:album:7s9akNmqVapyLdI6A4IxsT"
      },
      "artists" : [ {
        "external_urls" : {
          "spotify" : "https://open.spotify.com/artist/02P1DMfeONaY7APNLccb5u"
        },
        "href" : "https://api.spotify.com/v1/artists/02P1DMfeONaY7APNLccb5u",
        "id" : "02P1DMfeONaY7APNLccb5u",
        "name" : "Cantorei",
        "type" : "artist",
        "uri" : "spotify:artist:02P1DMfeONaY7APNLccb5u"
      } ],
      "disc_number" : 1,
      "duration_ms" : 270733,
      "explicit" : false,
      "external_ids" : {
        "isrc" : "ushm81006297"
      },
      "external_urls" : {
        "spotify" : "https://open.spotify.com/track/6I3sE55N9pkaFXnau6yMaz"
      },
      "href" : "https://api.spotify.com/v1/tracks/6I3sE55N9pkaFXnau6yMaz",
      "id" : "6I3sE55N9pkaFXnau6yMaz",
      "is_local" : false,
      "is_playable" : true,
      "name" : "Holy God, We Praise Your Name",
      "popularity" : 0,
      "preview_url" : "https://p.scdn.co/mp3-preview/ed1201f7651b1652f47bc805eadaa4441972403b?cid=774b29d4f13844c495f206cafdad9c86",
      "track_number" : 1,
      "type" : "track",
      "uri" : "spotify:track:6I3sE55N9pkaFXnau6yMaz"
    }, {
      "album" : {
        "album_type" : "album",
        "artists" : [ {
          "external_urls" : {
            "spotify" : "https://open.spotify.com/artist/1pkd5fisrGqDtXFJ1n3eYn"
          },
          "href" : "https://api.spotify.com/v1/artists/1pkd5fisrGqDtXFJ1n3eYn",
          "id" : "1pkd5fisrGqDtXFJ1n3eYn",
          "name" : "Cantorei, Catherine Rodland & John Ferguson",
          "type" : "artist",
          "uri" : "spotify:artist:1pkd5fisrGqDtXFJ1n3eYn"
        } ],
        "external_urls" : {
          "spotify" : "https://open.spotify.com/album/1czlDXBFSmVIYcgbqXn7So"
        },
        "href" : "https://api.spotify.com/v1/albums/1czlDXBFSmVIYcgbqXn7So",
        "id" : "1czlDXBFSmVIYcgbqXn7So",
        "images" : [ {
          "height" : 640,
          "url" : "https://i.scdn.co/image/ab67616d0000b27317ed4cbcca7091e273f9b979",
          "width" : 640
        }, {
          "height" : 300,
          "url" : "https://i.scdn.co/image/ab67616d00001e0217ed4cbcca7091e273f9b979",
          "width" : 300
        }, {
          "height" : 64,
          "url" : "https://i.scdn.co/image/ab67616d0000485117ed4cbcca7091e273f9b979",
          "width" : 64
        } ],
        "name" : "Celebration! Boe Memorial Chapel",
        "release_date" : "2010-07-01",
        "release_date_precision" : "day",
        "total_tracks" : 27,
        "type" : "album",
        "uri" : "spotify:album:1czlDXBFSmVIYcgbqXn7So"
      },
      "artists" : [ {
        "external_urls" : {
          "spotify" : "https://open.spotify.com/artist/02P1DMfeONaY7APNLccb5u"
        },
        "href" : "https://api.spotify.com/v1/artists/02P1DMfeONaY7APNLccb5u",
        "id" : "02P1DMfeONaY7APNLccb5u",
        "name" : "Cantorei",
        "type" : "artist",
        "uri" : "spotify:artist:02P1DMfeONaY7APNLccb5u"
      } ],
      "disc_number" : 1,
      "duration_ms" : 320560,
      "explicit" : false,
      "external_ids" : {
        "isrc" : "ushm81087666"
      },
      "external_urls" : {
        "spotify" : "https://open.spotify.com/track/7JdoHI5EmTYSMtjxIx9zZ4"
      },
      "href" : "https://api.spotify.com/v1/tracks/7JdoHI5EmTYSMtjxIx9zZ4",
      "id" : "7JdoHI5EmTYSMtjxIx9zZ4",
      "is_local" : false,
      "is_playable" : true,
      "name" : "Holy God, We Praise Your Name",
      "popularity" : 0,
      "preview_url" : "https://p.scdn.co/mp3-preview/ce76652add649d27222d5e1e8be4675a599f7d55?cid=774b29d4f13844c495f206cafdad9c86",
      "track_number" : 2,
      "type" : "track",
      "uri" : "spotify:track:7JdoHI5EmTYSMtjxIx9zZ4"
    }, {
      "album" : {
        "album_type" : "album",
        "artists" : [ {
          "external_urls" : {
            "spotify" : "https://open.spotify.com/artist/6NllMez54KDSj2MxJCqyHX"
          },
          "href" : "https://api.spotify.com/v1/artists/6NllMez54KDSj2MxJCqyHX",
          "id" : "6NllMez54KDSj2MxJCqyHX",
          "name" : "Jeff Tincher",
          "type" : "artist",
          "uri" : "spotify:artist:6NllMez54KDSj2MxJCqyHX"
        } ],
        "external_urls" : {
          "spotify" : "https://open.spotify.com/album/6CBTsquc5x6vZIjpBhz07F"
        },
        "href" : "https://api.spotify.com/v1/albums/6CBTsquc5x6vZIjpBhz07F",
        "id" : "6CBTsquc5x6vZIjpBhz07F",
        "images" : [ {
          "height" : 640,
          "url" : "https://i.scdn.co/image/ab67616d0000b273dac1043d31667778791d4bd6",
          "width" : 640
        }, {
          "height" : 300,
          "url" : "https://i.scdn.co/image/ab67616d00001e02dac1043d31667778791d4bd6",
          "width" : 300
        }, {
          "height" : 64,
          "url" : "https://i.scdn.co/image/ab67616d00004851dac1043d31667778791d4bd6",
          "width" : 64
        } ],
        "name" : "Make a Joyful Noise",
        "release_date" : "2005-10-07",
        "release_date_precision" : "day",
        "total_tracks" : 10,
        "type" : "album",
        "uri" : "spotify:album:6CBTsquc5x6vZIjpBhz07F"
      },
      "artists" : [ {
        "external_urls" : {
          "spotify" : "https://open.spotify.com/artist/6NllMez54KDSj2MxJCqyHX"
        },
        "href" : "https://api.spotify.com/v1/artists/6NllMez54KDSj2MxJCqyHX",
        "id" : "6NllMez54KDSj2MxJCqyHX",
        "name" : "Jeff Tincher",
        "type" : "artist",
        "uri" : "spotify:artist:6NllMez54KDSj2MxJCqyHX"
      } ],
      "disc_number" : 1,
      "duration_ms" : 298066,
      "explicit" : false,
      "external_ids" : {
        "isrc" : "US7630500203"
      },
      "external_urls" : {
        "spotify" : "https://open.spotify.com/track/2bWti4OhDJeDq3jmvtzW32"
      },
      "href" : "https://api.spotify.com/v1/tracks/2bWti4OhDJeDq3jmvtzW32",
      "id" : "2bWti4OhDJeDq3jmvtzW32",
      "is_local" : false,
      "is_playable" : true,
      "name" : "Holy God We Praise Your Name",
      "popularity" : 0,
      "preview_url" : "https://p.scdn.co/mp3-preview/5ecd456318c4a03183cb684c2206ef161b16f072?cid=774b29d4f13844c495f206cafdad9c86",
      "track_number" : 7,
      "type" : "track",
      "uri" : "spotify:track:2bWti4OhDJeDq3jmvtzW32"
    }, {
      "album" : {
        "album_type" : "single",
        "artists" : [ {
          "external_urls" : {
            "spotify" : "https://open.spotify.com/artist/6OFzMSGGOGcnuXxpqLLuK4"
          },
          "href" : "https://api.spotify.com/v1/artists/6OFzMSGGOGcnuXxpqLLuK4",
          "id" : "6OFzMSGGOGcnuXxpqLLuK4",
          "name" : "Tanabe Gatlin",
          "type" : "artist",
          "uri" : "spotify:artist:6OFzMSGGOGcnuXxpqLLuK4"
        } ],
        "external_urls" : {
          "spotify" : "https://open.spotify.com/album/4E9Pr4Fd5xMtLbyw3tBYm3"
        },
        "href" : "https://api.spotify.com/v1/albums/4E9Pr4Fd5xMtLbyw3tBYm3",
        "id" : "4E9Pr4Fd5xMtLbyw3tBYm3",
        "images" : [ {
          "height" : 640,
          "url" : "https://i.scdn.co/image/ab67616d0000b2735b12fb5f2c98a5f0b09f225e",
          "width" : 640
        }, {
          "height" : 300,
          "url" : "https://i.scdn.co/image/ab67616d00001e025b12fb5f2c98a5f0b09f225e",
          "width" : 300
        }, {
          "height" : 64,
          "url" : "https://i.scdn.co/image/ab67616d000048515b12fb5f2c98a5f0b09f225e",
          "width" : 64
        } ],
        "name" : "Keep on Praying",
        "release_date" : "2020-04-24",
        "release_date_precision" : "day",
        "total_tracks" : 5,
        "type" : "album",
        "uri" : "spotify:album:4E9Pr4Fd5xMtLbyw3tBYm3"
      },
      "artists" : [ {
        "external_urls" : {
          "spotify" : "https://open.spotify.com/artist/6OFzMSGGOGcnuXxpqLLuK4"
        },
        "href" : "https://api.spotify.com/v1/artists/6OFzMSGGOGcnuXxpqLLuK4",
        "id" : "6OFzMSGGOGcnuXxpqLLuK4",
        "name" : "Tanabe Gatlin",
        "type" : "artist",
        "uri" : "spotify:artist:6OFzMSGGOGcnuXxpqLLuK4"
      } ],
      "disc_number" : 1,
      "duration_ms" : 301349,
      "explicit" : false,
      "external_ids" : {
        "isrc" : "usdy42063029"
      },
      "external_urls" : {
        "spotify" : "https://open.spotify.com/track/4Dt0Hzw1liY3uJbsv2m3v3"
      },
      "href" : "https://api.spotify.com/v1/tracks/4Dt0Hzw1liY3uJbsv2m3v3",
      "id" : "4Dt0Hzw1liY3uJbsv2m3v3",
      "is_local" : false,
      "is_playable" : true,
      "name" : "Holy God We Praise Your Name",
      "popularity" : 0,
      "preview_url" : "https://p.scdn.co/mp3-preview/6fd206bd4041a92f87a656c07746f15cf35b26d7?cid=774b29d4f13844c495f206cafdad9c86",
      "track_number" : 4,
      "type" : "track",
      "uri" : "spotify:track:4Dt0Hzw1liY3uJbsv2m3v3"
    }, {
      "album" : {
        "album_type" : "album",
        "artists" : [ {
          "external_urls" : {
            "spotify" : "https://open.spotify.com/artist/2LSeKRi2evfdA0gkc1lb1i"
          },
          "href" : "https://api.spotify.com/v1/artists/2LSeKRi2evfdA0gkc1lb1i",
          "id" : "2LSeKRi2evfdA0gkc1lb1i",
          "name" : "Nelson Boschman",
          "type" : "artist",
          "uri" : "spotify:artist:2LSeKRi2evfdA0gkc1lb1i"
        } ],
        "external_urls" : {
          "spotify" : "https://open.spotify.com/album/0jdqPgsk5wpPUF6aymxKX1"
        },
        "href" : "https://api.spotify.com/v1/albums/0jdqPgsk5wpPUF6aymxKX1",
        "id" : "0jdqPgsk5wpPUF6aymxKX1",
        "images" : [ {
          "height" : 640,
          "url" : "https://i.scdn.co/image/ab67616d0000b273c13c13ba07ee1d354d2d87a7",
          "width" : 640
        }, {
          "height" : 300,
          "url" : "https://i.scdn.co/image/ab67616d00001e02c13c13ba07ee1d354d2d87a7",
          "width" : 300
        }, {
          "height" : 64,
          "url" : "https://i.scdn.co/image/ab67616d00004851c13c13ba07ee1d354d2d87a7",
          "width" : 64
        } ],
        "name" : "Keeping Time, volume 1",
        "release_date" : "2004",
        "release_date_precision" : "year",
        "total_tracks" : 13,
        "type" : "album",
        "uri" : "spotify:album:0jdqPgsk5wpPUF6aymxKX1"
      },
      "artists" : [ {
        "external_urls" : {
          "spotify" : "https://open.spotify.com/artist/2LSeKRi2evfdA0gkc1lb1i"
        },
        "href" : "https://api.spotify.com/v1/artists/2LSeKRi2evfdA0gkc1lb1i",
        "id" : "2LSeKRi2evfdA0gkc1lb1i",
        "name" : "Nelson Boschman",
        "type" : "artist",
        "uri" : "spotify:artist:2LSeKRi2evfdA0gkc1lb1i"
      } ],
      "disc_number" : 1,
      "duration_ms" : 290560,
      "explicit" : false,
      "external_ids" : {
        "isrc" : "USDHM0701777"
      },
      "external_urls" : {
        "spotify" : "https://open.spotify.com/track/27pVJGnfWbcnJKtPohkn1n"
      },
      "href" : "https://api.spotify.com/v1/tracks/27pVJGnfWbcnJKtPohkn1n",
      "id" : "27pVJGnfWbcnJKtPohkn1n",
      "is_local" : false,
      "is_playable" : true,
      "name" : "Holy God, We Praise Your Name",
      "popularity" : 0,
      "preview_url" : "https://p.scdn.co/mp3-preview/df6bfc6886e1d3959b69498e4d10b620da239e10?cid=774b29d4f13844c495f206cafdad9c86",
      "track_number" : 11,
      "type" : "track",
      "uri" : "spotify:track:27pVJGnfWbcnJKtPohkn1n"
    } ],
    "limit" : 10,
    "next" : "https://api.spotify.com/v1/search?query=Holy+God%2C+We+Praise+Your+Name&type=track&market=US&offset=15&limit=10",
    "offset" : 5,
    "previous" : "https://api.spotify.com/v1/search?query=Holy+God%2C+We+Praise+Your+Name&type=track&market=US&offset=0&limit=10",
    "total" : 33
  }
}