{
  "tracks" : {
    "href" : "https://api.spotify.com/v1/search?query=Lord+of+Our+Life&type=track&market=US&offset=5&limit=10",
    "items" : [ {
      "album" : {
        "album_type" : "album",
        "artists" : [ {
          "external_urls" : {
            "spotify" : "https://open.spotify.com/artist/78FoseyrIQpZEoiuBgiCmi"
          },
          "href" : "https://api.spotify.com/v1/artists/78FoseyrIQpZEoiuBgiCmi",
          "id" : "78FoseyrIQpZEoiuBgiCmi",
          "name" : "Tampere Orthodox Choir",
          "type" : "artist",
          "uri" : "spotify:artist:78FoseyrIQpZEoiuBgiCmi"
        } ],
        "external_urls" : {
          "spotify" : "https://open.spotify.com/album/3ypM9VYmwVOx4tIR9LGRf6"
        },
        "href" : "https://api.spotify.com/v1/albums/3ypM9VYmwVOx4tIR9LGRf6",
        "id" : "3ypM9VYmwVOx4tIR9LGRf6",
        "images" : [ {
          "height" : 640,
          "url" : "https://i.scdn.co/image/ab67616d0000b273f2ba091a279f92a8f818e2ee",
          "width" : 640
        }, {
          "height" : 300,
          "url" : "https://i.scdn.co/image/ab67616d00001e02f2ba091a279f92a8f818e2ee",
          "width" : 300
        }, {
          "height" : 64,
          "url" : "https://i.scdn.co/image/ab67616d00004851f2ba091a279f92a8f818e2ee",
          "width" : 64
        } ],
        "name" : "O Theotokos, Mother of Life - Hymns for the Feast of the Dormition of Our Most Holy Lady",
        "release_date" : "2000-01-01",
        "release_date_precision" : "day",
        "total_tracks" : 24,
        "type" : "album",
        "uri" : "spotify:album:3ypM9VYmwVOx4tIR9LGRf6"
      },
      "artists" : [ {
        "external_urls" : {
          "spotify" : "https://open.spotify.com/artist/0o7TvHMVIlWDZo98MCVume"
        },
        "href" : "https://api.spotify.com/v1/artists/0o7TvHMVIlWDZo98MCVume",
        "id" : "0o7TvHMVIlWDZo98MCVume",
        "name" : "Pavel Chesnokov",
        "type" : "artist",
        "uri" : "spotify:artist:0o7TvHMVIlWDZo98MCVume"
      }, {
        "external_urls" : {
          "spotify" : "https://open.spotify.com/artist/78FoseyrIQpZEoiuBgiCmi"
        },
        "href" : "https://api.spotify.com/v1/artists/78FoseyrIQpZEoiuBgiCmi",
        "id" : "78FoseyrIQpZEoiuBgiCmi",
        "name" : "Tampere Orthodox Choir",
        "type" : "artist",
        "uri" : "spotify:artist:78FoseyrIQpZEoiuBgiCmi"
      } ],
      "disc_number" : 1,
      "duration_ms" : 409706,
      "explicit" : false,
      "external_ids" : {
        "isrc" : "FIABA9500077"
      },
      "external_urls" : {
        "spotify" : "https://open.spotify.com/track/6feCYdxmbotVBG6yooKpR8"
      },
      "href" : "https://api.spotify.com/v1/tracks/6feCYdxmbotVBG6yooKpR8",
      "id" : "6feCYdxmbotVBG6yooKpR8",
      "is_local" : false,
      "is_playable" : true,
      "name" : "Blessed art Thou, O Lord: Matins: Troparia of the Resurrection: Blessed art Thou, O Lord",
      "popularity" : 4,
      "preview_url" : "https://p.scdn.co/mp3-preview/fe669f6e4dacab4dcc4de7e32a920af0f7aad2e7?cid=774b29d4f13844c495f206cafdad9c86",
      "track_number" : 8,
      "type" : "track",
      "uri" : "spotify:track:6feCYdxmbotVBG6yooKpR8"
    }, {
      "album" : {
        "album_type" : "album",
        "artists" : [ {
          "external_urls" : {
            "spotify" : "https://open.spotify.com/artist/78FoseyrIQpZEoiuBgiCmi"
          },
          "href" : "https://api.spotify.com/v1/artists/78FoseyrIQpZEoiuBgiCmi",
          "id" : "78FoseyrIQpZEoiuBgiCmi",
          "name" : "Tampere Orthodox Choir",
          "type" : "artist",
          "uri" : "spotify:artist:78FoseyrIQpZEoiuBgiCmi"
        } ],
        "external_urls" : {
          "spotify" : "https://open.spotify.com/album/3ypM9VYmwVOx4tIR9LGRf6"
        },
        "href" : "https://api.spotify.com/v1/albums/3ypM9VYmwVOx4tIR9LGRf6",
        "id" : "3ypM9VYmwVOx4tIR9LGRf6",
        "images" : [ {
          "height" : 640,
          "url" : "https://i.scdn.co/image/ab67616d0000b273f2ba091a279f92a8f818e2ee",
          "width" : 640
        }, {
          "height" : 300,
          "url" : "https://i.scdn.co/image/ab67616d00001e02f2ba091a279f92a8f818e2ee",
          "width" : 300
        }, {
          "height" : 64,
          "url" : "https://i.scdn.co/image/ab67616d00004851f2ba091a279f92a8f818e2ee",
          "width" : 64
        } ],
        "name" : "O Theotokos, Mother of Life - Hymns for the Feast of the Dormition of Our Most Holy Lady",
        "release_date" : "2000-01-01",
        "release_date_precision" : "day",
        "total_tracks" : 24,
        "type" : "album",
        "uri" : "spotify:album:3ypM9VYmwVOx4tIR9LGRf6"
      },
      "artists" : [ {
        "external_urls" : {
          "spotify" : "https://open.spotify.com/artist/7BEbwuYXjibuonPQv3kQrF"
        },
        "href" : "https://api.spotify.com/v1/artists/7BEbwuYXjibuonPQv3kQrF",
        "id" : "7BEbwuYXjibuonPQv3kQrF",
        "name" : "Timo Ruottinen",
        "type" : "artist",
        "uri" : "spotify:artist:7BEbwuYXjibuonPQv3kQrF"
      }, {
        "external_urls" : {
          "spotify" : "https://open.spotify.com/artist/78FoseyrIQpZEoiuBgiCmi"
        },
        "href" : "https://api.spotify.com/v1/artists/78FoseyrIQpZEoiuBgiCmi",
        "id" : "78FoseyrIQpZEoiuBgiCmi",
        "name" : "Tampere Orthodox Choir",
        "type" : "artist",
        "uri" : "spotify:artist:78FoseyrIQpZEoiuBgiCmi"
      } ],
      "disc_number" : 1,
      "duration_ms" : 183133,
      "explicit" : false,
      "external_ids" : {
        "isrc" : "FIABA9500071"
      },
      "external_urls" : {
        "spotify" : "https://open.spotify.com/track/3FE9SBojgqiwukAXUgq6dy"
      },
      "href" : "https://api.spotify.com/v1/tracks/3FE9SBojgqiwukAXUgq6dy",
      "id" : "3FE9SBojgqiwukAXUgq6dy",
      "is_local" : false,
      "is_playable" : true,
      "name" : "Psalm 104, \"Praise the Lord, O my soul\": Praise the Lord, O my soul, Ps 104",
      "popularity" : 4,
      "preview_url" : "https://p.scdn.co/mp3-preview/0694ab9157eb0d354ff849854f6528dc7b49652e?cid=774b29d4f13844c495f206cafdad9c86",
      "track_number" : 2,
      "type" : "track",
      "uri" : "spotify:track:3FE9SBojgqiwukAXUgq6dy"
    }, {
      "album" : {
        "album_type" : "album",
        "artists" : [ {
          "external_urls" : {
            "spotify" : "https://open.spotify.com/artist/78FoseyrIQpZEoiuBgiCmi"
          },
          "href" : "https://api.spotify.com/v1/artists/78FoseyrIQpZEoiuBgiCmi",
          "id" : "78FoseyrIQpZEoiuBgiCmi",
          "name" : "Tampere Orthodox Choir",
          "type" : "artist",
          "uri" : "spotify:artist:78FoseyrIQpZEoiuBgiCmi"
        } ],
        "external_urls" : {
          "spotify" : "https://open.spotify.com/album/3ypM9VYmwVOx4tIR9LGRf6"
        },
        "href" : "https://api.spotify.com/v1/albums/3ypM9VYmwVOx4tIR9LGRf6",
        "id" : "3ypM9VYmwVOx4tIR9LGRf6",
        "images" : [ {
          "height" : 640,
          "url" : "https://i.scdn.co/image/ab67616d0000b273f2ba091a279f92a8f818e2ee",
          "width" : 640
        }, {
          "height" : 300,
          "url" : "https://i.scdn.co/image/ab67616d00001e02f2ba091a279f92a8f818e2ee",
          "width" : 300
        }, {
          "height" : 64,
          "url" : "https://i.scdn.co/image/ab67616d00004851f2ba091a279f92a8f818e2ee",
          "width" : 64
        } ],
        "name" : "O Theotokos, Mother of Life - Hymns for the Feast of the Dormition of Our Most Holy Lady",
        "release_date" : "2000-01-01",
        "release_date_precision" : "day",
        "total_tracks" : 24,
        "type" : "album",
        "uri" : "spotify:album:3ypM9VYmwVOx4tIR9LGRf6"
      },
      "artists" : [ {
        "external_urls" : {
          "spotify" : "https://open.spotify.com/artist/2qYhXVfODAKmaY7LKuPv69"
        },
        "href" : "https://api.spotify.com/v1/artists/2qYhXVfODAKmaY7LKuPv69",
        "id" : "2qYhXVfODAKmaY7LKuPv69",
        "name" : "na Not Applicable",
        "type" : "artist",
        "uri" : "spotify:artist:2qYhXVfODAKmaY7LKuPv69"
      }, {
        "external_urls" : {
          "spotify" : "https://open.spotify.com/artist/78FoseyrIQpZEoiuBgiCmi"
        },
        "href" : "https://api.spotify.com/v1/artists/78FoseyrIQpZEoiuBgiCmi",
        "id" : "78FoseyrIQpZEoiuBgiCmi",
        "name" : "Tampere Orthodox Choir",
        "type" : "artist",
        "uri" : "spotify:artist:78FoseyrIQpZEoiuBgiCmi"
      } ],
      "disc_number" : 1,
      "duration_ms" : 391493,
      "explicit" : false,
      "external_ids" : {
        "isrc" : "FIABA9500072"
      },
      "external_urls" : {
        "spotify" : "https://open.spotify.com/track/3cqeric6aPkkQXJ94uh9xA"
      },
      "href" : "https://api.spotify.com/v1/tracks/3cqeric6aPkkQXJ94uh9xA",
      "id" : "3cqeric6aPkkQXJ94uh9xA",
      "is_local" : false,
      "is_playable" : true,
      "name" : "Vespers: Lord I call upon Thee, Ps 141",
      "popularity" : 6,
      "preview_url" : "https://p.scdn.co/mp3-preview/ad04491a69bde3c991c362c9ce17af5bdd4d9327?cid=774b29d4f13844c495f206cafdad9c86",
      "track_number" : 3,
      "type" : "track",
      "uri" : "spotify:track:3cqeric6aPkkQXJ94uh9xA"
    }, {
      "album" : {
        "album_type" : "album",
        "artists" : [ {
          "external_urls" : {
            "spotify" : "https://open.spotify.com/artist/7HynjrqybRysLyVdcfA4nK"
          },
          "href" : "https://api.spotify.com/v1/artists/7HynjrqybRysLyVdcfA4nK",
          "id" : "7HynjrqybRysLyVdcfA4nK",
          "name" : "Christian Hymn Series",
          "type" : "artist",
          "uri" : "spotify:artist:7HynjrqybRysLyVdcfA4nK"
        } ],
        "external_urls" : {
          "spotify" : "https://open.spotify.com/album/4MDEVzCXjzcwo2LVq2QOs4"
        },
        "href" : "https://api.spotify.com/v1/albums/4MDEVzCXjzcwo2LVq2QOs4",
        "id" : "4MDEVzCXjzcwo2LVq2QOs4",
        "images" : [ {
          "height" : 640,
          "url" : "https://i.scdn.co/image/ab67616d0000b273dbb34376e1ed67d8feca8bfe",
          "width" : 640
        }, {
          "height" : 300,
          "url" : "https://i.scdn.co/image/ab67616d00001e02dbb34376e1ed67d8feca8bfe",
          "width" : 300
        }, {
          "height" : 64,
          "url" : "https://i.scdn.co/image/ab67616d00004851dbb34376e1ed67d8feca8bfe",
          "width" : 64
        } ],
        "name" : "Hymns of the Church Militant",
        "release_date" : "2016-03-14",
        "release_date_precision" : "day",
        "total_tracks" : 14,
        "type" : "album",
        "uri" : "spotify:album:4MDEVzCXjzcwo2LVq2QOs4"
      },
      "artists" : [ {
        "external_urls" : {
          "spotify" : "https://open.spotify.com/artist/7HynjrqybRysLyVdcfA4nK"
        },
        "href" : "https://api.spotify.com/v1/artists/7HynjrqybRysLyVdcfA4nK",
        "id" : "7HynjrqybRysLyVdcfA4nK",
        "name" : "Christian Hymn Series",
        "type" : "artist",
        "uri" : "spotify:artist:7HynjrqybRysLyVdcfA4nK"
      } ],
      "disc_number" : 1,
      "duration_ms" : 208000,
      "explicit" : false,
      "external_ids" : {
        "isrc" : "uscgh1697966"
      },
      "external_urls" : {
        "spotify" : "https://open.spotify.com/track/5UXlFcKybZo22JDMxcoLnl"
      },
      "href" : "https://api.spotify.com/v1/tracks/5UXlFcKybZo22JDMxcoLnl",
      "id" : "5UXlFcKybZo22JDMxcoLnl",
      "is_local" : false,
      "is_playable" : true,
      "name" : "Lord of Our Life",
      "popularity" : 0,
      "preview_url" : "https://p.scdn.co/mp3-preview/ff74ce56d0a5328d20ae031215b446f9802a8799?cid=774b29d4f13844c495f206cafdad9c86",
      "track_number" : 3,
      "type" : "track",
      "uri" : "spotify:track:5UXlFcKybZo22JDMxcoLnl"
    }, {
      "album" : {
        "album_type" : "album",
        "artists" : [ {
          "external_urls" : {
            "spotify" : "https://open.spotify.com/artist/5VAyc9eTP8hiw5NScIjeSi"
          },
          "href" : "https://api.spotify.com/v1/artists/5VAyc9eTP8hiw5NScIjeSi",
          "id" : "5VAyc9eTP8hiw5NScIjeSi",
          "name" : "The Choir Of Seaford College Chapel",
          "type" : "artist",
          "uri" : "spotify:artist:5VAyc9eTP8hiw5NScIjeSi"
        } ],
        "external_urls" : {
          "spotify" : "https://open.spotify.com/album/2QHyDQVh8f4kvMCApOob4F"
        },
        "href" : "https://api.spotify.com/v1/albums/2QHyDQVh8f4kvMCApOob4F",
        "id" : "2QHyDQVh8f4kvMCApOob4F",
        "images" : [ {
          "height" : 640,
          "url" : "https://i.scdn.co/image/ab67616d0000b273ca835c4cbeb0595d306145ca",
          "width" : 640
        }, {
          "height" : 300,
          "url" : "https://i.scdn.co/image/ab67616d00001e02ca835c4cbeb0595d306145ca",
          "width" : 300
        }, {
          "height" : 64,
          "url" : "https://i.scdn.co/image/ab67616d00004851ca835c4cbeb0595d306145ca",
          "width" : 64
        } ],
        "name" : "Abide With Me",
        "release_date" : "2008-10-07",
        "release_date_precision" : "day",
        "total_tracks" : 16,
        "type" : "album",
        "uri" : "spotify:album:2QHyDQVh8f4kvMCApOob4F"
      },
      "artists" : [ {
        "external_urls" : {
          "spotify" : "https://open.spotify.com/artist/5VAyc9eTP8hiw5NScIjeSi"
        },
        "href" : "https://api.spotify.com/v1/artists/5VAyc9eTP8hiw5NScIjeSi",
        "id" : "5VAyc9eTP8hiw5NScIjeSi",
        "name" : "The Choir Of Seaford College Chapel",
        "type" : "artist",
        "uri" : "spotify:artist:5VAyc9eTP8hiw5NScIjeSi"
      } ],
      "disc_number" : 1,
      "duration_ms" : 143120,
      "explicit" : false,
      "external_ids" : {
        "isrc" : "GBSWE0701043"
      },
      "external_urls" : {
        "spotify" : "https://open.spotify.com/track/767j2mArIjz9Iu7Bf0nPt9"
      },
      "href" : "https://api.spotify.com/v1/tracks/767j2mArIjz9Iu7Bf0nPt9",
      "id" : "767j2mArIjz9Iu7Bf0nPt9",
      "is_local" : false,
      "is_playable" : true,
      "name" : "Lord Of Our Life",
      "popularity" : 1,
      "preview_url" : "https://p.scdn.co/mp3-preview/98d9d6a956def05ac0d9939636a61616c4ab0471?cid=774b29d4f13844c495f206cafdad9c86",
      "track_number" : 7,
      "type" : "track",
      "uri" : "spotify:track:767j2mArIjz9Iu7Bf0nPt9"
    }, {
      "album" : {
        "album_type" : "album",
        "artists" : [ {
          "external_urls" : {
            "spotify" : "https://open.spotify.com/artist/41N4x8ZUxk7JkHORj8M3bd"
          },
          "href" : "https://api.spotify.com/v1/artists/41N4x8ZUxk7JkHORj8M3bd",
          "id" : "41N4x8ZUxk7JkHORj8M3bd",
          "name" : "Concordia Publishing House",
          "type" : "artist",
          "uri" : "spotify:artist:41N4x8ZUxk7JkHORj8M3bd"
        } ],
        "external_urls" : {
          "spotify" : "https://open.spotify.com/album/7kZezI4GcKIyuoDF5EwKP7"
        },
        "href" : "https://api.spotify.com/v1/albums/7kZezI4GcKIyuoDF5EwKP7",
        "id" : "7kZezI4GcKIyuoDF5EwKP7",
        "images" : [ {
          "height" : 640,
          "url" : "https://i.scdn.co/image/ab67616d0000b273b4b3832d189ec6cb3d3c86f6",
          "width" : 640
        }, {
          "height" : 300,
          "url" : "https://i.scdn.co/image/ab67616d00001e02b4b3832d189ec6cb3d3c86f6",
          "width" : 300
        }, {
          "height" : 64,
          "url" : "https://i.scdn.co/image/ab67616d00004851b4b3832d189ec6cb3d3c86f6",
          "width" : 64
        } ],
        "name" : "Hymns of Faith",
        "release_date" : "2009-10-26",
        "release_date_precision" : "day",
        "total_tracks" : 25,
        "type" : "album",
        "uri" : "spotify:album:7kZezI4GcKIyuoDF5EwKP7"
      },
      "artists" : [ {
        "external_urls" : {
          "spotify" : "https://open.spotify.com/artist/41N4x8ZUxk7JkHORj8M3bd"
        },
        "href" : "https://api.spotify.com/v1/artists/41N4x8ZUxk7JkHORj8M3bd",
        "id" : "41N4x8ZUxk7JkHORj8M3bd",
        "name" : "Concordia Publishing House",
        "type" : "artist",
        "uri" : "spotify:artist:41N4x8ZUxk7JkHORj8M3bd"
      } ],
      "disc_number" : 1,
      "duration_ms" : 141680,
      "explicit" : false,
      "external_ids" : {
        "isrc" : "US2SL0900714"
      },
      "external_urls" : {
        "spotify" : "https://open.spotify.com/track/0bJ5X2yFzJhpPOW92eKeju"
      },
      "href" : "https://api.spotify.com/v1/tracks/0bJ5X2yFzJhpPOW92eKeju",
      "id" : "0bJ5X2yFzJhpPOW92eKeju",
      "is_local" : false,
      "is_playable" : true,
      "name" : "Lord of Our Life",
      "popularity" : 0,
      "preview_url" : "https://p.scdn.co/mp3-preview/f100adf9e329837d90482ad4b60e0f30eeb80007?cid=774b29d4f13844c495f206cafdad9c86",
      "track_number" : 13,
      "type" : "track",
      "uri" : "spotify:track:0bJ5X2yFzJhpPOW92eKeju"
    }, {
      "album" : {
        "album_type" : "album",
        "artists" : [ {
          "external_urls" : {
            "spotify" : "https://open.spotify.com/artist/3hhzOXDdqsBPAlfImIRE7p"
          },
          "href" : "https://api.spotify.com/v1/artists/3hhzOXDdqsBPAlfImIRE7p",
          "id" : "3hhzOXDdqsBPAlfImIRE7p",
          "name" : "8 Bit Music Zoe",
          "type" : "artist",
          "uri" : "spotify:artist:3hhzOXDdqsBPAlfImIRE7p"
        } ],
        "external_urls" : {
          "spotify" : "https://open.spotify.com/album/4PYyQgFeznR61LpuPHMbBt"
        },
        "href" : "https://api.spotify.com/v1/albums/4PYyQgFeznR61LpuPHMbBt",
        "id" : "4PYyQgFeznR61LpuPHMbBt",
        "images" : [ {
          "height" : 640,
          "url" : "https://i.scdn.co/image/ab67616d0000b273657b01f241b6d3ebaf5cdc8f",
          "width" : 640
        }, {
          "height" : 300,
          "url" : "https://i.scdn.co/image/ab67616d00001e02657b01f241b6d3ebaf5cdc8f",
          "width" : 300
        }, {
          "height" : 64,
          "url" : "https://i.scdn.co/image/ab67616d00004851657b01f241b6d3ebaf5cdc8f",
          "width" : 64
        } ],
        "name" : "Hymns, Vol VI",
        "release_date" : "2020-03-08",
        "release_date_precision" : "day",
        "total_tracks" : 15,
        "type" : "album",
        "uri" : "spotify:album:4PYyQgFeznR61LpuPHMbBt"
      },
      "artists" : [ {
        "external_urls" : {
          "spotify" : "https://open.spotify.com/artist/3hhzOXDdqsBPAlfImIRE7p"
        },
        "href" : "https://api.spotify.com/v1/artists/3hhzOXDdqsBPAlfImIRE7p",
        "id" : "3hhzOXDdqsBPAlfImIRE7p",
        "name" : "8 Bit Music Zoe",
        "type" : "artist",
        "uri" : "spotify:artist:3hhzOXDdqsBPAlfImIRE7p"
      } ],
      "disc_number" : 1,
      "duration_ms" : 132075,
      "explicit" : false,
      "external_ids" : {
        "isrc" : "QZFZ62053265"
      },
      "external_urls" : {
        "spotify" : "https://open.spotify.com/track/79KW9Cfi5qlz0CFLfcn2Ab"
      },
      "href" : "https://api.spotify.com/v1/tracks/79KW9Cfi5qlz0CFLfcn2Ab",
      "id" : "79KW9Cfi5qlz0CFLfcn2Ab",
      "is_local" : false,
      "is_playable" : true,
      "name" : "Lord of Our Life",
      "popularity" : 2,
      "preview_url" : "https://p.scdn.co/mp3-preview/683af25eb73ba378be0a5b6d4353e5ac8aa986b7?cid=774b29d4f13844c495f206cafdad9c86",
      "track_number" : 15,
      "type" : "track",
      "uri" : "spotify:track:79KW9Cfi5qlz0CFLfcn2Ab"
    }, {
      "album" : {
        "album_type" : "compilation",
        "artists" : [ {
          "external_urls" : {
            "spotify" : "https://open.spotify.com/artist/50MXQTlX6avlNBjJIqVuMn"
          },
          "href" : "https://api.spotify.com/v1/artists/50MXQTlX6avlNBjJIqVuMn",
          "id" : "50MXQTlX6avlNBjJIqVuMn",
          "name" : "Viktor Dick",
          "type" : "artist",
          "uri" : "spotify:artist:50MXQTlX6avlNBjJIqVuMn"
        } ],
        "external_urls" : {
          "spotify" : "https://open.spotify.com/album/0EpxadAcMwgjOI4s7ecpFh"
        },
        "href" : "https://api.spotify.com/v1/albums/0EpxadAcMwgjOI4s7ecpFh",
        "id" : "0EpxadAcMwgjOI4s7ecpFh",
        "images" : [ {
          "height" : 640,
          "url" : "https://i.scdn.co/image/ab67616d0000b273fabfeb9e5c45bbe69ccfad66",
          "width" : 640
        }, {
          "height" : 300,
          "url" : "https://i.scdn.co/image/ab67616d00001e02fabfeb9e5c45bbe69ccfad66",
          "width" : 300
        }, {
          "height" : 64,
          "url" : "https://i.scdn.co/image/ab67616d00004851fabfeb9e5c45bbe69ccfad66",
          "width" : 64
        } ],
        "name" : "Christian Hymns & Chorals, Vol. 6",
        "release_date" : "2017-08-01",
        "release_date_precision" : "day",
        "total_tracks" : 20,
        "type" : "album",
        "uri" : "spotify:album:0EpxadAcMwgjOI4s7ecpFh"
      },
      "artists" : [ {
        "external_urls" : {
          "spotify" : "https://open.spotify.com/artist/50MXQTlX6avlNBjJIqVuMn"
        },
        "href" : "https://api.spotify.com/v1/artists/50MXQTlX6avlNBjJIqVuMn",
        "id" : "50MXQTlX6avlNBjJIqVuMn",
        "name" : "Viktor Dick",
        "type" : "artist",
        "uri" : "spotify:artist:50MXQTlX6avlNBjJIqVuMn"
      } ],
      "disc_number" : 1,
      "duration_ms" : 200620,
      "explicit" : false,
      "external_ids" : {
        "isrc" : "DEAR41768337"
      },
      "external_urls" : {
        "spotify" : "https://open.spotify.com/track/1JGREyc6IbQxxbU18oNp4g"
      },
      "href" : "https://api.spotify.com/v1/tracks/1JGREyc6IbQxxbU18oNp4g",
      "id" : "1JGREyc6IbQxxbU18oNp4g",
      "is_local" : false,
      "is_playable" : true,
      "name" : "Lord of Our Life",
      "popularity" : 0,
      "preview_url" : "https://p.scdn.co/mp3-preview/064757da5378b9f44a421cdce52f0d61905b619d?cid=774b29d4f13844c495f206cafdad9c86",
      "track_number" : 10,
      "type" : "track",
      "uri" : "spotify:track:1JGREyc6IbQxxbU18oNp4g"
    }, {
      "album" : {
        "album_type" : "album",
        "artists" : [ {
          "external_urls" : {
            "spotify" : "https://open.spotify.com/artist/6iSzU9C3pMPAY4iraLTgSl"
          },
          "href" : "https://api.spotify.com/v1/artists/6iSzU9C3pMPAY4iraLTgSl",
          "id" : "6iSzU9C3pMPAY4iraLTgSl",
          "name" : "One Voice Choir",
          "type" : "artist",
          "uri" : "spotify:artist:6iSzU9C3pMPAY4iraLTgSl"
        } ],
        "external_urls" : {
          "spotify" : "https://open.spotify.com/album/6GkLexhnCrD6Yyp1HVKyUa"
        },
        "href" : "https://api.spotify.com/v1/albums/6GkLexhnCrD6Yyp1HVKyUa",
        "id" : "6GkLexhnCrD6Yyp1HVKyUa",
        "images" : [ {
          "height" : 640,
          "url" : "https://i.scdn.co/image/ab67616d0000b273b189c3f082867af2d8aaf825",
          "width" : 640
        }, {
          "height" : 300,
          "url" : "https://i.scdn.co/image/ab67616d00001e02b189c3f082867af2d8aaf825",
          "width" : 300
        }, {
          "height" : 64,
          "url" : "https://i.scdn.co/image/ab67616d00004851b189c3f082867af2d8aaf825",
          "width" : 64
        } ],
        "name" : "We Have This Hope",
        "release_date" : "2017-02-22",
        "release_date_precision" : "day",
        "total_tracks" : 12,
        "type" : "album",
        "uri" : "spotify:album:6GkLexhnCrD6Yyp1HVKyUa"
      },
      "artists" : [ {
        "external_urls" : {
          "spotify" : "https://open.spotify.com/artist/6iSzU9C3pMPAY4iraLTgSl"
        },
        "href" : "https://api.spotify.com/v1/artists/6iSzU9C3pMPAY4iraLTgSl",
        "id" : "6iSzU9C3pMPAY4iraLTgSl",
        "name" : "One Voice Choir",
        "type" : "artist",
        "uri" : "spotify:artist:6iSzU9C3pMPAY4iraLTgSl"
      } ],
      "disc_number" : 1,
      "duration_ms" : 223626,
      "explicit" : false,
      "external_ids" : {
        "isrc" : "QM4TW1786569"
      },
      "external_urls" : {
        "spotify" : "https://open.spotify.com/track/1rsjdyEpL7RrA0xIr4wpOX"
      },
      "href" : "https://api.spotify.com/v1/tracks/1rsjdyEpL7RrA0xIr4wpOX",
      "id" : "1rsjdyEpL7RrA0xIr4wpOX",
      "is_local" : false,
      "is_playable" : true,
      "name" : "Lord of Our Life",
      "popularity" : 1,
      "preview_url" : "https://p.scdn.co/mp3-preview/45565a9e57dfa2965c8407c8adcedca548db4530?cid=774b29d4f13844c495f206cafdad9c86",
      "track_number" : 5,
      "type" : "track",
      "uri" : "spotify:track:1rsjdyEpL7RrA0xIr4wpOX"
    }, {
      "album" : {
        "album_type" : "single",
        "artists" : [ {
          "external_urls" : {
            "spotify" : "https://open.spotify.com/artist/55tbvJFx2OH3H0aUmLEI6C"
          },
          "href" : "https://api.spotify.com/v1/artists/55tbvJFx2OH3H0aUmLEI6C",
          "id" : "55tbvJFx2OH3H0aUmLEI6C",
          "name" : "Richard M.S. Irwin",
          "type" : "artist",
          "uri" : "spotify:artist:55tbvJFx2OH3H0aUmLEI6C"
        } ],
        "external_urls" : {
          "spotify" : "https://open.spotify.com/album/08ixfacn6WHlWIVSVSJRdk"
        },
        "href" : "https://api.spotify.com/v1/albums/08ixfacn6WHlWIVSVSJRdk",
        "id" : "08ixfacn6WHlWIVSVSJRdk",
        "images" : [ {
          "height" : 640,
          "url" : "https://i.scdn.co/image/ab67616d0000b273c656f5e0ec7903b18ee4a32a",
          "width" : 640
        }, {
          "height" : 300,
          "url" : "https://i.scdn.co/image/ab67616d00001e02c656f5e0ec7903b18ee4a32a",
          "width" : 300
        }, {
          "height" : 64,
          "url" : "https://i.scdn.co/image/ab67616d00004851c656f5e0ec7903b18ee4a32a",
          "width" : 64
        } ],
        "name" : "Lord of Our Life (Cloisters)",
        "release_date" : "2020-01-07",
        "release_date_precision" : "day",
        "total_tracks" : 1,
        "type" : "album",
        "uri" : "spotify:album:08ixfacn6WHlWIVSVSJRdk"
      },
      "artists" : [ {
        "external_urls" : {
          "spotify" : "https://open.spotify.com/artist/55tbvJFx2OH3H0aUmLEI6C"
        },
        "href" : "https://api.spotify.com/v1/artists/55tbvJFx2OH3H0aUmLEI6C",
        "id" : "55tbvJFx2OH3H0aUmLEI6C",
        "name" : "Richard M.S. Irwin",
        "type" : "artist",
        "uri" : "spotify:artist:55tbvJFx2OH3H0aUmLEI6C"
      } ],
      "disc_number" : 1,
      "duration_ms" : 133312,
      "explicit" : false,
      "external_ids" : {
        "isrc" : "UKTU21900071"
      },
      "external_urls" : {
        "spotify" : "https://open.spotify.com/track/6Eawp521yuW0CqvX4Z56IY"
      },
      "href" : "https://api.spotify.com/v1/tracks/6Eawp521yuW0CqvX4Z56IY",
      "id" : "6Eawp521yuW0CqvX4Z56IY",
      "is_local" : false,
      "is_playable" : true,
      "name" : "Lord of Our Life (Cloisters)",
      "popularity" : 0,
      "preview_url" : "https://p.scdn.co/mp3-preview/1b69139cf59f691e845ced08a2084e38e372f0f8?cid=774b29d4f13844c495f206cafdad9c86",
      "track_number" : 1,
      "type" : "track",
      "uri" : "spotify:track:6Eawp521yuW0CqvX4Z56IY"
    } ],
    "limit" : 10,
    "next" : "https://api.spotify.com/v1/search?query=Lord+of+Our+Life&type=track&market=US&offset=15&limit=10",
    "offset" : 5,
    "previous" : "https://api.spotify.com/v1/search?query=Lord+of+Our+Life&type=track&market=US&offset=0&limit=10",
    "total" : 39
  }
}