{
  "tracks" : {
    "href" : "https://api.spotify.com/v1/search?query=Angels+We+Have+Heard+on+High&type=track&market=US&offset=5&limit=10",
    "items" : [ {
      "album" : {
        "album_type" : "single",
        "artists" : [ {
          "external_urls" : {
            "spotify" : "https://open.spotify.com/artist/1vSN1fsvrzpbttOYGsliDr"
          },
          "href" : "https://api.spotify.com/v1/artists/1vSN1fsvrzpbttOYGsliDr",
          "id" : "1vSN1fsvrzpbttOYGsliDr",
          "name" : "Tori Kelly",
          "type" : "artist",
          "uri" : "spotify:artist:1vSN1fsvrzpbttOYGsliDr"
        } ],
        "external_urls" : {
          "spotify" : "https://open.spotify.com/album/0jYV35MYyEIRXCuZWKK3Mw"
        },
        "href" : "https://api.spotify.com/v1/albums/0jYV35MYyEIRXCuZWKK3Mw",
        "id" : "0jYV35MYyEIRXCuZWKK3Mw",
        "images" : [ {
          "height" : 640,
          "url" : "https://i.scdn.co/image/ab67616d0000b273051983cd8d95bf66cf4323e7",
          "width" : 640
        }, {
          "height" : 300,
          "url" : "https://i.scdn.co/image/ab67616d00001e02051983cd8d95bf66cf4323e7",
          "width" : 300
        }, {
          "height" : 64,
          "url" : "https://i.scdn.co/image/ab67616d00004851051983cd8d95bf66cf4323e7",
          "width" : 64
        } ],
        "name" : "Angels We Have Heard On High (Recorded At Electric Lady Studios NYC)",
        "release_date" : "2019-11-22",
        "release_date_precision" : "day",
        "total_tracks" : 1,
        "type" : "album",
        "uri" : "spotify:album:0jYV35MYyEIRXCuZWKK3Mw"
      },
      "artists" : [ {
        "external_urls" : {
          "spotify" : "https://open.spotify.com/artist/1vSN1fsvrzpbttOYGsliDr"
        },
        "href" : "https://api.spotify.com/v1/artists/1vSN1fsvrzpbttOYGsliDr",
        "id" : "1vSN1fsvrzpbttOYGsliDr",
        "name" : "Tori Kelly",
        "type" : "artist",
        "uri" : "spotify:artist:1vSN1fsvrzpbttOYGsliDr"
      } ],
      "disc_number" : 1,
      "duration_ms" : 178973,
      "explicit" : false,
      "external_ids" : {
        "isrc" : "USUM71922620"
      },
      "external_urls" : {
        "spotify" : "https://open.spotify.com/track/3mORNTAlAguOAiP7Habmo2"
      },
      "href" : "https://api.spotify.com/v1/tracks/3mORNTAlAguOAiP7Habmo2",
      "id" : "3mORNTAlAguOAiP7Habmo2",
      "is_local" : false,
      "is_playable" : true,
      "name" : "Angels We Have Heard On High - Recorded At Electric Lady Studios NYC",
      "popularity" : 33,
      "preview_url" : null,
      "track_number" : 1,
      "type" : "track",
      "uri" : "spotify:track:3mORNTAlAguOAiP7Habmo2"
    }, {
      "album" : {
        "album_type" : "single",
        "artists" : [ {
          "external_urls" : {
            "spotify" : "https://open.spotify.com/artist/2RXeqFbm3UMssZ1sPwV2OF"
          },
          "href" : "https://api.spotify.com/v1/artists/2RXeqFbm3UMssZ1sPwV2OF",
          "id" : "2RXeqFbm3UMssZ1sPwV2OF",
          "name" : "Matty C Beats",
          "type" : "artist",
          "uri" : "spotify:artist:2RXeqFbm3UMssZ1sPwV2OF"
        } ],
        "external_urls" : {
          "spotify" : "https://open.spotify.com/album/3EpDvHEurlsuA4mbDbjaHy"
        },
        "href" : "https://api.spotify.com/v1/albums/3EpDvHEurlsuA4mbDbjaHy",
        "id" : "3EpDvHEurlsuA4mbDbjaHy",
        "images" : [ {
          "height" : 640,
          "url" : "https://i.scdn.co/image/ab67616d0000b273994a9836009f8725e1f992f8",
          "width" : 640
        }, {
          "height" : 300,
          "url" : "https://i.scdn.co/image/ab67616d00001e02994a9836009f8725e1f992f8",
          "width" : 300
        }, {
          "height" : 64,
          "url" : "https://i.scdn.co/image/ab67616d00004851994a9836009f8725e1f992f8",
          "width" : 64
        } ],
        "name" : "Christmas in Coolsville",
        "release_date" : "2018-12-21",
        "release_date_precision" : "day",
        "total_tracks" : 5,
        "type" : "album",
        "uri" : "spotify:album:3EpDvHEurlsuA4mbDbjaHy"
      },
      "artists" : [ {
        "external_urls" : {
          "spotify" : "https://open.spotify.com/artist/2RXeqFbm3UMssZ1sPwV2OF"
        },
        "href" : "https://api.spotify.com/v1/artists/2RXeqFbm3UMssZ1sPwV2OF",
        "id" : "2RXeqFbm3UMssZ1sPwV2OF",
        "name" : "Matty C Beats",
        "type" : "artist",
        "uri" : "spotify:artist:2RXeqFbm3UMssZ1sPwV2OF"
      } ],
      "disc_number" : 1,
      "duration_ms" : 144985,
      "explicit" : false,
      "external_ids" : {
        "isrc" : "QZ4JJ1807848"
      },
      "external_urls" : {
        "spotify" : "https://open.spotify.com/track/0rFUkvoD7NyX4DiWnXcHE1"
      },
      "href" : "https://api.spotify.com/v1/tracks/0rFUkvoD7NyX4DiWnXcHE1",
      "id" : "0rFUkvoD7NyX4DiWnXcHE1",
      "is_local" : false,
      "is_playable" : true,
      "name" : "Angels We Have Heard on High",
      "popularity" : 23,
      "preview_url" : "https://p.scdn.co/mp3-preview/e4b792ad83288540b0a2427f97800292935789d4?cid=774b29d4f13844c495f206cafdad9c86",
      "track_number" : 1,
      "type" : "track",
      "uri" : "spotify:track:0rFUkvoD7NyX4DiWnXcHE1"
    }, {
      "album" : {
        "album_type" : "album",
        "artists" : [ {
          "external_urls" : {
            "spotify" : "https://open.spotify.com/artist/6cXMpsP9x0SH4kFfMyVezF"
          },
          "href" : "https://api.spotify.com/v1/artists/6cXMpsP9x0SH4kFfMyVezF",
          "id" : "6cXMpsP9x0SH4kFfMyVezF",
          "name" : "Josh Groban",
          "type" : "artist",
          "uri" : "spotify:artist:6cXMpsP9x0SH4kFfMyVezF"
        } ],
        "external_urls" : {
          "spotify" : "https://open.spotify.com/album/4kqXw1yf9EKamws0zCarGt"
        },
        "href" : "https://api.spotify.com/v1/albums/4kqXw1yf9EKamws0zCarGt",
        "id" : "4kqXw1yf9EKamws0zCarGt",
        "images" : [ {
          "height" : 640,
          "url" : "https://i.scdn.co/image/ab67616d0000b273d5e8c6854f113f22c28be863",
          "width" : 640
        }, {
          "height" : 300,
          "url" : "https://i.scdn.co/image/ab67616d00001e02d5e8c6854f113f22c28be863",
          "width" : 300
        }, {
          "height" : 64,
          "url" : "https://i.scdn.co/image/ab67616d00004851d5e8c6854f113f22c28be863",
          "width" : 64
        } ],
        "name" : "Noël",
        "release_date" : "2007-10-09",
        "release_date_precision" : "day",
        "total_tracks" : 13,
        "type" : "album",
        "uri" : "spotify:album:4kqXw1yf9EKamws0zCarGt"
      },
      "artists" : [ {
        "external_urls" : {
          "spotify" : "https://open.spotify.com/artist/6cXMpsP9x0SH4kFfMyVezF"
        },
        "href" : "https://api.spotify.com/v1/artists/6cXMpsP9x0SH4kFfMyVezF",
        "id" : "6cXMpsP9x0SH4kFfMyVezF",
        "name" : "Josh Groban",
        "type" : "artist",
        "uri" : "spotify:artist:6cXMpsP9x0SH4kFfMyVezF"
      }, {
        "external_urls" : {
          "spotify" : "https://open.spotify.com/artist/6k0IBR0lU42s2GYpNX7kA9"
        },
        "href" : "https://api.spotify.com/v1/artists/6k0IBR0lU42s2GYpNX7kA9",
        "id" : "6k0IBR0lU42s2GYpNX7kA9",
        "name" : "Brian McKnight",
        "type" : "artist",
        "uri" : "spotify:artist:6k0IBR0lU42s2GYpNX7kA9"
      } ],
      "disc_number" : 1,
      "duration_ms" : 210933,
      "explicit" : false,
      "external_ids" : {
        "isrc" : "USRE10701712"
      },
      "external_urls" : {
        "spotify" : "https://open.spotify.com/track/7yPtjVIw1fQ86Pug1Tuzbd"
      },
      "href" : "https://api.spotify.com/v1/tracks/7yPtjVIw1fQ86Pug1Tuzbd",
      "id" : "7yPtjVIw1fQ86Pug1Tuzbd",
      "is_local" : false,
      "is_playable" : true,
      "name" : "Angels We Have Heard on High (with Brian McKnight)",
      "popularity" : 28,
      "preview_url" : "https://p.scdn.co/mp3-preview/8f85ab144d6978f8fa9131b1d4158faf3209aa57?cid=774b29d4f13844c495f206cafdad9c86",
      "track_number" : 5,
      "type" : "track",
      "uri" : "spotify:track:7yPtjVIw1fQ86Pug1Tuzbd"
    }, {
      "album" : {
        "album_type" : "album",
        "artists" : [ {
          "external_urls" : {
            "spotify" : "https://open.spotify.com/artist/3sDbKMebVH2VYcRSl7u1VC"
          },
          "href" : "https://api.spotify.com/v1/artists/3sDbKMebVH2VYcRSl7u1VC",
          "id" : "3sDbKMebVH2VYcRSl7u1VC",
          "name" : "for KING & COUNTRY",
          "type" : "artist",
          "uri" : "spotify:artist:3sDbKMebVH2VYcRSl7u1VC"
        } ],
        "external_urls" : {
          "spotify" : "https://open.spotify.com/album/2cPPsM97j2cUT3oiGVA2Q4"
        },
        "href" : "https://api.spotify.com/v1/albums/2cPPsM97j2cUT3oiGVA2Q4",
        "id" : "2cPPsM97j2cUT3oiGVA2Q4",
        "images" : [ {
          "height" : 640,
          "url" : "https://i.scdn.co/image/ab67616d0000b27311a53945aa9232352adb4ec0",
          "width" : 640
        }, {
          "height" : 300,
          "url" : "https://i.scdn.co/image/ab67616d00001e0211a53945aa9232352adb4ec0",
          "width" : 300
        }, {
          "height" : 64,
          "url" : "https://i.scdn.co/image/ab67616d0000485111a53945aa9232352adb4ec0",
          "width" : 64
        } ],
        "name" : "Christmas | LIVE from Phoenix",
        "release_date" : "2017-10-27",
        "release_date_precision" : "day",
        "total_tracks" : 10,
        "type" : "album",
        "uri" : "spotify:album:2cPPsM97j2cUT3oiGVA2Q4"
      },
      "artists" : [ {
        "external_urls" : {
          "spotify" : "https://open.spotify.com/artist/3sDbKMebVH2VYcRSl7u1VC"
        },
        "href" : "https://api.spotify.com/v1/artists/3sDbKMebVH2VYcRSl7u1VC",
        "id" : "3sDbKMebVH2VYcRSl7u1VC",
        "name" : "for KING & COUNTRY",
        "type" : "artist",
        "uri" : "spotify:artist:3sDbKMebVH2VYcRSl7u1VC"
      } ],
      "disc_number" : 1,
      "duration_ms" : 239386,
      "explicit" : false,
      "external_ids" : {
        "isrc" : "USM1C1700054"
      },
      "external_urls" : {
        "spotify" : "https://open.spotify.com/track/5L0McLUJ1jS8N6dPnv4251"
      },
      "href" : "https://api.spotify.com/v1/tracks/5L0McLUJ1jS8N6dPnv4251",
      "id" : "5L0McLUJ1jS8N6dPnv4251",
      "is_local" : false,
      "is_playable" : true,
      "name" : "Angels We Have Heard On High - Live",
      "popularity" : 29,
      "preview_url" : "https://p.scdn.co/mp3-preview/c4c1c0eac4e99bfba5233ce8935f76f1860483c6?cid=774b29d4f13844c495f206cafdad9c86",
      "track_number" : 5,
      "type" : "track",
      "uri" : "spotify:track:5L0McLUJ1jS8N6dPnv4251"
    }, {
      "album" : {
        "album_type" : "album",
        "artists" : [ {
          "external_urls" : {
            "spotify" : "https://open.spotify.com/artist/3Mqi8GYWkenzbP6702MUwZ"
          },
          "href" : "https://api.spotify.com/v1/artists/3Mqi8GYWkenzbP6702MUwZ",
          "id" : "3Mqi8GYWkenzbP6702MUwZ",
          "name" : "Little Drummer Boy Productions",
          "type" : "artist",
          "uri" : "spotify:artist:3Mqi8GYWkenzbP6702MUwZ"
        } ],
        "external_urls" : {
          "spotify" : "https://open.spotify.com/album/0Eq9BjdK0I8MNjmVuFn2zl"
        },
        "href" : "https://api.spotify.com/v1/albums/0Eq9BjdK0I8MNjmVuFn2zl",
        "id" : "0Eq9BjdK0I8MNjmVuFn2zl",
        "images" : [ {
          "height" : 640,
          "url" : "https://i.scdn.co/image/ab67616d0000b273d84701c3d553e5f5e15b4f93",
          "width" : 640
        }, {
          "height" : 300,
          "url" : "https://i.scdn.co/image/ab67616d00001e02d84701c3d553e5f5e15b4f93",
          "width" : 300
        }, {
          "height" : 64,
          "url" : "https://i.scdn.co/image/ab67616d00004851d84701c3d553e5f5e15b4f93",
          "width" : 64
        } ],
        "name" : "Ripley's Christmas Wish",
        "release_date" : "2019-04-02",
        "release_date_precision" : "day",
        "total_tracks" : 10,
        "type" : "album",
        "uri" : "spotify:album:0Eq9BjdK0I8MNjmVuFn2zl"
      },
      "artists" : [ {
        "external_urls" : {
          "spotify" : "https://open.spotify.com/artist/3Mqi8GYWkenzbP6702MUwZ"
        },
        "href" : "https://api.spotify.com/v1/artists/3Mqi8GYWkenzbP6702MUwZ",
        "id" : "3Mqi8GYWkenzbP6702MUwZ",
        "name" : "Little Drummer Boy Productions",
        "type" : "artist",
        "uri" : "spotify:artist:3Mqi8GYWkenzbP6702MUwZ"
      } ],
      "disc_number" : 1,
      "duration_ms" : 109035,
      "explicit" : false,
      "external_ids" : {
        "isrc" : "QZHNA1998035"
      },
      "external_urls" : {
        "spotify" : "https://open.spotify.com/track/6QhLlBHPaERFPbX56t1eiY"
      },
      "href" : "https://api.spotify.com/v1/tracks/6QhLlBHPaERFPbX56t1eiY",
      "id" : "6QhLlBHPaERFPbX56t1eiY",
      "is_local" : false,
      "is_playable" : true,
      "name" : "Angels We Have Heard on High",
      "popularity" : 22,
      "preview_url" : "https://p.scdn.co/mp3-preview/42745b29c9867b210ce0ea5f3edb331fbb0e504a?cid=774b29d4f13844c495f206cafdad9c86",
      "track_number" : 5,
      "type" : "track",
      "uri" : "spotify:track:6QhLlBHPaERFPbX56t1eiY"
    }, {
      "album" : {
        "album_type" : "single",
        "artists" : [ {
          "external_urls" : {
            "spotify" : "https://open.spotify.com/artist/6J4FeobN5L7NH7tVVRHP7n"
          },
          "href" : "https://api.spotify.com/v1/artists/6J4FeobN5L7NH7tVVRHP7n",
          "id" : "6J4FeobN5L7NH7tVVRHP7n",
          "name" : "Chad Lawson Trio",
          "type" : "artist",
          "uri" : "spotify:artist:6J4FeobN5L7NH7tVVRHP7n"
        } ],
        "external_urls" : {
          "spotify" : "https://open.spotify.com/album/4bqFz6hx54gnFFKBY8FEE7"
        },
        "href" : "https://api.spotify.com/v1/albums/4bqFz6hx54gnFFKBY8FEE7",
        "id" : "4bqFz6hx54gnFFKBY8FEE7",
        "images" : [ {
          "height" : 640,
          "url" : "https://i.scdn.co/image/ab67616d0000b273184f6faf5299c3d3f7d32634",
          "width" : 640
        }, {
          "height" : 300,
          "url" : "https://i.scdn.co/image/ab67616d00001e02184f6faf5299c3d3f7d32634",
          "width" : 300
        }, {
          "height" : 64,
          "url" : "https://i.scdn.co/image/ab67616d00004851184f6faf5299c3d3f7d32634",
          "width" : 64
        } ],
        "name" : "Jazz the Halls",
        "release_date" : "2016-11-11",
        "release_date_precision" : "day",
        "total_tracks" : 5,
        "type" : "album",
        "uri" : "spotify:album:4bqFz6hx54gnFFKBY8FEE7"
      },
      "artists" : [ {
        "external_urls" : {
          "spotify" : "https://open.spotify.com/artist/6J4FeobN5L7NH7tVVRHP7n"
        },
        "href" : "https://api.spotify.com/v1/artists/6J4FeobN5L7NH7tVVRHP7n",
        "id" : "6J4FeobN5L7NH7tVVRHP7n",
        "name" : "Chad Lawson Trio",
        "type" : "artist",
        "uri" : "spotify:artist:6J4FeobN5L7NH7tVVRHP7n"
      } ],
      "disc_number" : 1,
      "duration_ms" : 173520,
      "explicit" : false,
      "external_ids" : {
        "isrc" : "ushm81685305"
      },
      "external_urls" : {
        "spotify" : "https://open.spotify.com/track/5wcHHljUfrBxJh3Uk42u4m"
      },
      "href" : "https://api.spotify.com/v1/tracks/5wcHHljUfrBxJh3Uk42u4m",
      "id" : "5wcHHljUfrBxJh3Uk42u4m",
      "is_local" : false,
      "is_playable" : true,
      "name" : "Angels We Have Heard on High",
      "popularity" : 25,
      "preview_url" : "https://p.scdn.co/mp3-preview/d4158beb21d2aa165d6c2cc36cc7596734cacd4f?cid=774b29d4f13844c495f206cafdad9c86",
      "track_number" : 4,
      "type" : "track",
      "uri" : "spotify:track:5wcHHljUfrBxJh3Uk42u4m"
    }, {
      "album" : {
        "album_type" : "album",
        "artists" : [ {
          "external_urls" : {
            "spotify" : "https://open.spotify.com/artist/6wPGJjIqYiCqOhdhShu0nL"
          },
          "href" : "https://api.spotify.com/v1/artists/6wPGJjIqYiCqOhdhShu0nL",
          "id" : "6wPGJjIqYiCqOhdhShu0nL",
          "name" : "KiKstart",
          "type" : "artist",
          "uri" : "spotify:artist:6wPGJjIqYiCqOhdhShu0nL"
        } ],
        "external_urls" : {
          "spotify" : "https://open.spotify.com/album/4tLPCQG0eUwgvfUjPDFVkD"
        },
        "href" : "https://api.spotify.com/v1/albums/4tLPCQG0eUwgvfUjPDFVkD",
        "id" : "4tLPCQG0eUwgvfUjPDFVkD",
        "images" : [ {
          "height" : 640,
          "url" : "https://i.scdn.co/image/ab67616d0000b273ccdd02fc03d5245addb6f439",
          "width" : 640
        }, {
          "height" : 300,
          "url" : "https://i.scdn.co/image/ab67616d00001e02ccdd02fc03d5245addb6f439",
          "width" : 300
        }, {
          "height" : 64,
          "url" : "https://i.scdn.co/image/ab67616d00004851ccdd02fc03d5245addb6f439",
          "width" : 64
        } ],
        "name" : "Our Savior’s Birth",
        "release_date" : "2016-11-29",
        "release_date_precision" : "day",
        "total_tracks" : 7,
        "type" : "album",
        "uri" : "spotify:album:4tLPCQG0eUwgvfUjPDFVkD"
      },
      "artists" : [ {
        "external_urls" : {
          "spotify" : "https://open.spotify.com/artist/6wPGJjIqYiCqOhdhShu0nL"
        },
        "href" : "https://api.spotify.com/v1/artists/6wPGJjIqYiCqOhdhShu0nL",
        "id" : "6wPGJjIqYiCqOhdhShu0nL",
        "name" : "KiKstart",
        "type" : "artist",
        "uri" : "spotify:artist:6wPGJjIqYiCqOhdhShu0nL"
      } ],
      "disc_number" : 1,
      "duration_ms" : 206763,
      "explicit" : false,
      "external_ids" : {
        "isrc" : "ushm91629356"
      },
      "external_urls" : {
        "spotify" : "https://open.spotify.com/track/0BwD809SiXnKXDUVPZM2zG"
      },
      "href" : "https://api.spotify.com/v1/tracks/0BwD809SiXnKXDUVPZM2zG",
      "id" : "0BwD809SiXnKXDUVPZM2zG",
      "is_local" : false,
      "is_playable" : true,
      "name" : "Angels We Have Heard on High",
      "popularity" : 19,
      "preview_url" : "https://p.scdn.co/mp3-preview/89bfd6daa93c42236e887288f55599d7f3565fd0?cid=774b29d4f13844c495f206cafdad9c86",
      "track_number" : 6,
      "type" : "track",
      "uri" : "spotify:track:0BwD809SiXnKXDUVPZM2zG"
    }, {
      "album" : {
        "album_type" : "album",
        "artists" : [ {
          "external_urls" : {
            "spotify" : "https://open.spotify.com/artist/3EA9hVIzKfFiQI0Kikz2wo"
          },
          "href" : "https://api.spotify.com/v1/artists/3EA9hVIzKfFiQI0Kikz2wo",
          "id" : "3EA9hVIzKfFiQI0Kikz2wo",
          "name" : "Andrea Bocelli",
          "type" : "artist",
          "uri" : "spotify:artist:3EA9hVIzKfFiQI0Kikz2wo"
        } ],
        "external_urls" : {
          "spotify" : "https://open.spotify.com/album/37QhqwG2GFkVdlyRjvgKme"
        },
        "href" : "https://api.spotify.com/v1/albums/37QhqwG2GFkVdlyRjvgKme",
        "id" : "37QhqwG2GFkVdlyRjvgKme",
        "images" : [ {
          "height" : 640,
          "url" : "https://i.scdn.co/image/ab67616d0000b2733f599b345043a05e6ee5d272",
          "width" : 640
        }, {
          "height" : 300,
          "url" : "https://i.scdn.co/image/ab67616d00001e023f599b345043a05e6ee5d272",
          "width" : 300
        }, {
          "height" : 64,
          "url" : "https://i.scdn.co/image/ab67616d000048513f599b345043a05e6ee5d272",
          "width" : 64
        } ],
        "name" : "My Christmas (Remastered)",
        "release_date" : "2009-01-01",
        "release_date_precision" : "day",
        "total_tracks" : 14,
        "type" : "album",
        "uri" : "spotify:album:37QhqwG2GFkVdlyRjvgKme"
      },
      "artists" : [ {
        "external_urls" : {
          "spotify" : "https://open.spotify.com/artist/3EA9hVIzKfFiQI0Kikz2wo"
        },
        "href" : "https://api.spotify.com/v1/artists/3EA9hVIzKfFiQI0Kikz2wo",
        "id" : "3EA9hVIzKfFiQI0Kikz2wo",
        "name" : "Andrea Bocelli",
        "type" : "artist",
        "uri" : "spotify:artist:3EA9hVIzKfFiQI0Kikz2wo"
      } ],
      "disc_number" : 1,
      "duration_ms" : 234425,
      "explicit" : false,
      "external_ids" : {
        "isrc" : "ITZ040900061"
      },
      "external_urls" : {
        "spotify" : "https://open.spotify.com/track/1YYlPpeOtUVgyDCFXHJZcr"
      },
      "href" : "https://api.spotify.com/v1/tracks/1YYlPpeOtUVgyDCFXHJZcr",
      "id" : "1YYlPpeOtUVgyDCFXHJZcr",
      "is_local" : false,
      "is_playable" : true,
      "name" : "Angels We Have Heard On High",
      "popularity" : 26,
      "preview_url" : null,
      "track_number" : 2,
      "type" : "track",
      "uri" : "spotify:track:1YYlPpeOtUVgyDCFXHJZcr"
    }, {
      "album" : {
        "album_type" : "album",
        "artists" : [ {
          "external_urls" : {
            "spotify" : "https://open.spotify.com/artist/5d1JhBfyb58upMXCZOdbQu"
          },
          "href" : "https://api.spotify.com/v1/artists/5d1JhBfyb58upMXCZOdbQu",
          "id" : "5d1JhBfyb58upMXCZOdbQu",
          "name" : "Phil Wickham",
          "type" : "artist",
          "uri" : "spotify:artist:5d1JhBfyb58upMXCZOdbQu"
        } ],
        "external_urls" : {
          "spotify" : "https://open.spotify.com/album/1TzI5wwnlBtglKMxIW0Bx7"
        },
        "href" : "https://api.spotify.com/v1/albums/1TzI5wwnlBtglKMxIW0Bx7",
        "id" : "1TzI5wwnlBtglKMxIW0Bx7",
        "images" : [ {
          "height" : 640,
          "url" : "https://i.scdn.co/image/ab67616d0000b27370c9d8fa85c20febcd3ed0e7",
          "width" : 640
        }, {
          "height" : 300,
          "url" : "https://i.scdn.co/image/ab67616d00001e0270c9d8fa85c20febcd3ed0e7",
          "width" : 300
        }, {
          "height" : 64,
          "url" : "https://i.scdn.co/image/ab67616d0000485170c9d8fa85c20febcd3ed0e7",
          "width" : 64
        } ],
        "name" : "Christmas",
        "release_date" : "2019-10-04",
        "release_date_precision" : "day",
        "total_tracks" : 10,
        "type" : "album",
        "uri" : "spotify:album:1TzI5wwnlBtglKMxIW0Bx7"
      },
      "artists" : [ {
        "external_urls" : {
          "spotify" : "https://open.spotify.com/artist/5d1JhBfyb58upMXCZOdbQu"
        },
        "href" : "https://api.spotify.com/v1/artists/5d1JhBfyb58upMXCZOdbQu",
        "id" : "5d1JhBfyb58upMXCZOdbQu",
        "name" : "Phil Wickham",
        "type" : "artist",
        "uri" : "spotify:artist:5d1JhBfyb58upMXCZOdbQu"
      } ],
      "disc_number" : 1,
      "duration_ms" : 221546,
      "explicit" : false,
      "external_ids" : {
        "isrc" : "USM2C1901405"
      },
      "external_urls" : {
        "spotify" : "https://open.spotify.com/track/6r2uT3BQAYuNygl5BKv3v3"
      },
      "href" : "https://api.spotify.com/v1/tracks/6r2uT3BQAYuNygl5BKv3v3",
      "id" : "6r2uT3BQAYuNygl5BKv3v3",
      "is_local" : false,
      "is_playable" : true,
      "name" : "Angels We Have Heard On High",
      "popularity" : 18,
      "preview_url" : "https://p.scdn.co/mp3-preview/6dedd882404fb169920364e433e713b9dc2d78ea?cid=774b29d4f13844c495f206cafdad9c86",
      "track_number" : 4,
      "type" : "track",
      "uri" : "spotify:track:6r2uT3BQAYuNygl5BKv3v3"
    }, {
      "album" : {
        "album_type" : "single",
        "artists" : [ {
          "external_urls" : {
            "spotify" : "https://open.spotify.com/artist/3sDbKMebVH2VYcRSl7u1VC"
          },
          "href" : "https://api.spotify.com/v1/artists/3sDbKMebVH2VYcRSl7u1VC",
          "id" : "3sDbKMebVH2VYcRSl7u1VC",
          "name" : "for KING & COUNTRY",
          "type" : "artist",
          "uri" : "spotify:artist:3sDbKMebVH2VYcRSl7u1VC"
        } ],
        "external_urls" : {
          "spotify" : "https://open.spotify.com/album/72K9NLsisYGlynNMb1ywMB"
        },
        "href" : "https://api.spotify.com/v1/albums/72K9NLsisYGlynNMb1ywMB",
        "id" : "72K9NLsisYGlynNMb1ywMB",
        "images" : [ {
          "height" : 640,
          "url" : "https://i.scdn.co/image/ab67616d0000b273d8e53ccec966afa7a8f8ad93",
          "width" : 640
        }, {
          "height" : 300,
          "url" : "https://i.scdn.co/image/ab67616d00001e02d8e53ccec966afa7a8f8ad93",
          "width" : 300
        }, {
          "height" : 64,
          "url" : "https://i.scdn.co/image/ab67616d00004851d8e53ccec966afa7a8f8ad93",
          "width" : 64
        } ],
        "name" : "Into The Silent Night (Extended)",
        "release_date" : "2016-11-18",
        "release_date_precision" : "day",
        "total_tracks" : 6,
        "type" : "album",
        "uri" : "spotify:album:72K9NLsisYGlynNMb1ywMB"
      },
      "artists" : [ {
        "external_urls" : {
          "spotify" : "https://open.spotify.com/artist/3sDbKMebVH2VYcRSl7u1VC"
        },
        "href" : "https://api.spotify.com/v1/artists/3sDbKMebVH2VYcRSl7u1VC",
        "id" : "3sDbKMebVH2VYcRSl7u1VC",
        "name" : "for KING & COUNTRY",
        "type" : "artist",
        "uri" : "spotify:artist:3sDbKMebVH2VYcRSl7u1VC"
      } ],
      "disc_number" : 1,
      "duration_ms" : 228400,
      "explicit" : false,
      "external_ids" : {
        "isrc" : "USWR61300884"
      },
      "external_urls" : {
        "spotify" : "https://open.spotify.com/track/4NM1pBSyZylpcevZR8YW9v"
      },
      "href" : "https://api.spotify.com/v1/tracks/4NM1pBSyZylpcevZR8YW9v",
      "id" : "4NM1pBSyZylpcevZR8YW9v",
      "is_local" : false,
      "is_playable" : true,
      "name" : "Angels We Have Heard On High",
      "popularity" : 20,
      "preview_url" : "https://p.scdn.co/mp3-preview/f9c4ec89bedd50e0e19a1a7dbc9945ad9e43748c?cid=774b29d4f13844c495f206cafdad9c86",
      "track_number" : 2,
      "type" : "track",
      "uri" : "spotify:track:4NM1pBSyZylpcevZR8YW9v"
    } ],
    "limit" : 10,
    "next" : "https://api.spotify.com/v1/search?query=Angels+We+Have+Heard+on+High&type=track&market=US&offset=15&limit=10",
    "offset" : 5,
    "previous" : "https://api.spotify.com/v1/search?query=Angels+We+Have+Heard+on+High&type=track&market=US&offset=0&limit=10",
    "total" : 7166
  }
}