{
  "tracks" : {
    "href" : "https://api.spotify.com/v1/search?query=A+Shelter+in+the+Time+of+Storm&type=track&market=US&offset=5&limit=10",
    "items" : [ {
      "album" : {
        "album_type" : "album",
        "artists" : [ {
          "external_urls" : {
            "spotify" : "https://open.spotify.com/artist/6MrdwyCIKbpXmTKQBlG3uq"
          },
          "href" : "https://api.spotify.com/v1/artists/6MrdwyCIKbpXmTKQBlG3uq",
          "id" : "6MrdwyCIKbpXmTKQBlG3uq",
          "name" : "Z-Ro",
          "type" : "artist",
          "uri" : "spotify:artist:6MrdwyCIKbpXmTKQBlG3uq"
        } ],
        "external_urls" : {
          "spotify" : "https://open.spotify.com/album/1J7lOog6uB9N17Jbt96kn8"
        },
        "href" : "https://api.spotify.com/v1/albums/1J7lOog6uB9N17Jbt96kn8",
        "id" : "1J7lOog6uB9N17Jbt96kn8",
        "images" : [ {
          "height" : 640,
          "url" : "https://i.scdn.co/image/ab67616d0000b273897c010e6b363dfc9153008c",
          "width" : 640
        }, {
          "height" : 300,
          "url" : "https://i.scdn.co/image/ab67616d00001e02897c010e6b363dfc9153008c",
          "width" : 300
        }, {
          "height" : 64,
          "url" : "https://i.scdn.co/image/ab67616d00004851897c010e6b363dfc9153008c",
          "width" : 64
        } ],
        "name" : "4/20: The Smokers Anthem",
        "release_date" : "2006-06-29",
        "release_date_precision" : "day",
        "total_tracks" : 15,
        "type" : "album",
        "uri" : "spotify:album:1J7lOog6uB9N17Jbt96kn8"
      },
      "artists" : [ {
        "external_urls" : {
          "spotify" : "https://open.spotify.com/artist/6MrdwyCIKbpXmTKQBlG3uq"
        },
        "href" : "https://api.spotify.com/v1/artists/6MrdwyCIKbpXmTKQBlG3uq",
        "id" : "6MrdwyCIKbpXmTKQBlG3uq",
        "name" : "Z-Ro",
        "type" : "artist",
        "uri" : "spotify:artist:6MrdwyCIKbpXmTKQBlG3uq"
      } ],
      "disc_number" : 1,
      "duration_ms" : 209666,
      "explicit" : true,
      "external_ids" : {
        "isrc" : "USXQS1410607"
      },
      "external_urls" : {
        "spotify" : "https://open.spotify.com/track/1mSfCO3b2JPPbddvbxyUop"
      },
      "href" : "https://api.spotify.com/v1/tracks/1mSfCO3b2JPPbddvbxyUop",
      "id" : "1mSfCO3b2JPPbddvbxyUop",
      "is_local" : false,
      "is_playable" : true,
      "name" : "Shelter In Da Time Of Storm",
      "popularity" : 4,
      "preview_url" : "https://p.scdn.co/mp3-preview/49460a665a495b16413c650c39ba4454beddea51?cid=774b29d4f13844c495f206cafdad9c86",
      "track_number" : 13,
      "type" : "track",
      "uri" : "spotify:track:1mSfCO3b2JPPbddvbxyUop"
    }, {
      "album" : {
        "album_type" : "album",
        "artists" : [ {
          "external_urls" : {
            "spotify" : "https://open.spotify.com/artist/5fgy9wVz6NFWWR9J3MmYP8"
          },
          "href" : "https://api.spotify.com/v1/artists/5fgy9wVz6NFWWR9J3MmYP8",
          "id" : "5fgy9wVz6NFWWR9J3MmYP8",
          "name" : "Peace Ministry",
          "type" : "artist",
          "uri" : "spotify:artist:5fgy9wVz6NFWWR9J3MmYP8"
        } ],
        "external_urls" : {
          "spotify" : "https://open.spotify.com/album/42hjByf6GxhxMgBJRc4g2B"
        },
        "href" : "https://api.spotify.com/v1/albums/42hjByf6GxhxMgBJRc4g2B",
        "id" : "42hjByf6GxhxMgBJRc4g2B",
        "images" : [ {
          "height" : 640,
          "url" : "https://i.scdn.co/image/ab67616d0000b2730c49a8e7c6abbab959b5603b",
          "width" : 640
        }, {
          "height" : 300,
          "url" : "https://i.scdn.co/image/ab67616d00001e020c49a8e7c6abbab959b5603b",
          "width" : 300
        }, {
          "height" : 64,
          "url" : "https://i.scdn.co/image/ab67616d000048510c49a8e7c6abbab959b5603b",
          "width" : 64
        } ],
        "name" : "Christian Instrumental Relaxing Hymns",
        "release_date" : "2016-01-19",
        "release_date_precision" : "day",
        "total_tracks" : 14,
        "type" : "album",
        "uri" : "spotify:album:42hjByf6GxhxMgBJRc4g2B"
      },
      "artists" : [ {
        "external_urls" : {
          "spotify" : "https://open.spotify.com/artist/5fgy9wVz6NFWWR9J3MmYP8"
        },
        "href" : "https://api.spotify.com/v1/artists/5fgy9wVz6NFWWR9J3MmYP8",
        "id" : "5fgy9wVz6NFWWR9J3MmYP8",
        "name" : "Peace Ministry",
        "type" : "artist",
        "uri" : "spotify:artist:5fgy9wVz6NFWWR9J3MmYP8"
      } ],
      "disc_number" : 1,
      "duration_ms" : 217417,
      "explicit" : false,
      "external_ids" : {
        "isrc" : "GB-SMU-24-80124"
      },
      "external_urls" : {
        "spotify" : "https://open.spotify.com/track/5HbcCfFCcnRRyla79iz2nw"
      },
      "href" : "https://api.spotify.com/v1/tracks/5HbcCfFCcnRRyla79iz2nw",
      "id" : "5HbcCfFCcnRRyla79iz2nw",
      "is_local" : false,
      "is_playable" : true,
      "name" : "A Shelter In The Time Of Storm",
      "popularity" : 5,
      "preview_url" : "https://p.scdn.co/mp3-preview/92e0796f0884845e9d216e61d66d8f898b0eadfc?cid=774b29d4f13844c495f206cafdad9c86",
      "track_number" : 5,
      "type" : "track",
      "uri" : "spotify:track:5HbcCfFCcnRRyla79iz2nw"
    }, {
      "album" : {
        "album_type" : "album",
        "artists" : [ {
          "external_urls" : {
            "spotify" : "https://open.spotify.com/artist/1MmubZDiFWXhOXz941cRRp"
          },
          "href" : "https://api.spotify.com/v1/artists/1MmubZDiFWXhOXz941cRRp",
          "id" : "1MmubZDiFWXhOXz941cRRp",
          "name" : "Our Daily Bread",
          "type" : "artist",
          "uri" : "spotify:artist:1MmubZDiFWXhOXz941cRRp"
        } ],
        "external_urls" : {
          "spotify" : "https://open.spotify.com/album/0lgMBWhvSgtJb4IJKLz2gl"
        },
        "href" : "https://api.spotify.com/v1/albums/0lgMBWhvSgtJb4IJKLz2gl",
        "id" : "0lgMBWhvSgtJb4IJKLz2gl",
        "images" : [ {
          "height" : 640,
          "url" : "https://i.scdn.co/image/ab67616d0000b2735437a8bfdce2bd5891dad90e",
          "width" : 640
        }, {
          "height" : 300,
          "url" : "https://i.scdn.co/image/ab67616d00001e025437a8bfdce2bd5891dad90e",
          "width" : 300
        }, {
          "height" : 64,
          "url" : "https://i.scdn.co/image/ab67616d000048515437a8bfdce2bd5891dad90e",
          "width" : 64
        } ],
        "name" : "Hymns of Prayer and Hymns of Promise",
        "release_date" : "2016-04-09",
        "release_date_precision" : "day",
        "total_tracks" : 22,
        "type" : "album",
        "uri" : "spotify:album:0lgMBWhvSgtJb4IJKLz2gl"
      },
      "artists" : [ {
        "external_urls" : {
          "spotify" : "https://open.spotify.com/artist/1MmubZDiFWXhOXz941cRRp"
        },
        "href" : "https://api.spotify.com/v1/artists/1MmubZDiFWXhOXz941cRRp",
        "id" : "1MmubZDiFWXhOXz941cRRp",
        "name" : "Our Daily Bread",
        "type" : "artist",
        "uri" : "spotify:artist:1MmubZDiFWXhOXz941cRRp"
      } ],
      "disc_number" : 1,
      "duration_ms" : 228280,
      "explicit" : false,
      "external_ids" : {
        "isrc" : "USLF51602120"
      },
      "external_urls" : {
        "spotify" : "https://open.spotify.com/track/7mobo6bZgMxnsBlzEFCks2"
      },
      "href" : "https://api.spotify.com/v1/tracks/7mobo6bZgMxnsBlzEFCks2",
      "id" : "7mobo6bZgMxnsBlzEFCks2",
      "is_local" : false,
      "is_playable" : true,
      "name" : "A Shelter in the Time of Storm",
      "popularity" : 6,
      "preview_url" : "https://p.scdn.co/mp3-preview/61b00521e81c08e6b8bfebd52c437799185ea53a?cid=774b29d4f13844c495f206cafdad9c86",
      "track_number" : 18,
      "type" : "track",
      "uri" : "spotify:track:7mobo6bZgMxnsBlzEFCks2"
    }, {
      "album" : {
        "album_type" : "album",
        "artists" : [ {
          "external_urls" : {
            "spotify" : "https://open.spotify.com/artist/50KU5ljWxD0bFoSYJd9BRN"
          },
          "href" : "https://api.spotify.com/v1/artists/50KU5ljWxD0bFoSYJd9BRN",
          "id" : "50KU5ljWxD0bFoSYJd9BRN",
          "name" : "The Walking Roots Band",
          "type" : "artist",
          "uri" : "spotify:artist:50KU5ljWxD0bFoSYJd9BRN"
        } ],
        "external_urls" : {
          "spotify" : "https://open.spotify.com/album/2BZTr94bmu4pZrKiJnJiKF"
        },
        "href" : "https://api.spotify.com/v1/albums/2BZTr94bmu4pZrKiJnJiKF",
        "id" : "2BZTr94bmu4pZrKiJnJiKF",
        "images" : [ {
          "height" : 640,
          "url" : "https://i.scdn.co/image/ab67616d0000b2739f940e6110d010b2ba993ea7",
          "width" : 640
        }, {
          "height" : 300,
          "url" : "https://i.scdn.co/image/ab67616d00001e029f940e6110d010b2ba993ea7",
          "width" : 300
        }, {
          "height" : 64,
          "url" : "https://i.scdn.co/image/ab67616d000048519f940e6110d010b2ba993ea7",
          "width" : 64
        } ],
        "name" : "Shelter: A Hymn Reclamation Project",
        "release_date" : "2013-07-14",
        "release_date_precision" : "day",
        "total_tracks" : 11,
        "type" : "album",
        "uri" : "spotify:album:2BZTr94bmu4pZrKiJnJiKF"
      },
      "artists" : [ {
        "external_urls" : {
          "spotify" : "https://open.spotify.com/artist/50KU5ljWxD0bFoSYJd9BRN"
        },
        "href" : "https://api.spotify.com/v1/artists/50KU5ljWxD0bFoSYJd9BRN",
        "id" : "50KU5ljWxD0bFoSYJd9BRN",
        "name" : "The Walking Roots Band",
        "type" : "artist",
        "uri" : "spotify:artist:50KU5ljWxD0bFoSYJd9BRN"
      } ],
      "disc_number" : 1,
      "duration_ms" : 241092,
      "explicit" : false,
      "external_ids" : {
        "isrc" : "usdy42061383"
      },
      "external_urls" : {
        "spotify" : "https://open.spotify.com/track/63YCwsAnuCeKoIW5BYUJ3a"
      },
      "href" : "https://api.spotify.com/v1/tracks/63YCwsAnuCeKoIW5BYUJ3a",
      "id" : "63YCwsAnuCeKoIW5BYUJ3a",
      "is_local" : false,
      "is_playable" : true,
      "name" : "Shelter in the Time of Storm",
      "popularity" : 1,
      "preview_url" : "https://p.scdn.co/mp3-preview/47c1af66637f25efc1e6a4c332b53e7d7bfbde2e?cid=774b29d4f13844c495f206cafdad9c86",
      "track_number" : 2,
      "type" : "track",
      "uri" : "spotify:track:63YCwsAnuCeKoIW5BYUJ3a"
    }, {
      "album" : {
        "album_type" : "album",
        "artists" : [ {
          "external_urls" : {
            "spotify" : "https://open.spotify.com/artist/1CXJCTEydreEd8lJwTpgnN"
          },
          "href" : "https://api.spotify.com/v1/artists/1CXJCTEydreEd8lJwTpgnN",
          "id" : "1CXJCTEydreEd8lJwTpgnN",
          "name" : "John Troutman",
          "type" : "artist",
          "uri" : "spotify:artist:1CXJCTEydreEd8lJwTpgnN"
        } ],
        "external_urls" : {
          "spotify" : "https://open.spotify.com/album/0cC3zvXOsNHyCBbYaW8zJ6"
        },
        "href" : "https://api.spotify.com/v1/albums/0cC3zvXOsNHyCBbYaW8zJ6",
        "id" : "0cC3zvXOsNHyCBbYaW8zJ6",
        "images" : [ {
          "height" : 640,
          "url" : "https://i.scdn.co/image/ab67616d0000b27364280eb9d8282c25b5714c1e",
          "width" : 640
        }, {
          "height" : 300,
          "url" : "https://i.scdn.co/image/ab67616d00001e0264280eb9d8282c25b5714c1e",
          "width" : 300
        }, {
          "height" : 64,
          "url" : "https://i.scdn.co/image/ab67616d0000485164280eb9d8282c25b5714c1e",
          "width" : 64
        } ],
        "name" : "51 Instrumental Hymns",
        "release_date" : "2015-04-30",
        "release_date_precision" : "day",
        "total_tracks" : 51,
        "type" : "album",
        "uri" : "spotify:album:0cC3zvXOsNHyCBbYaW8zJ6"
      },
      "artists" : [ {
        "external_urls" : {
          "spotify" : "https://open.spotify.com/artist/1CXJCTEydreEd8lJwTpgnN"
        },
        "href" : "https://api.spotify.com/v1/artists/1CXJCTEydreEd8lJwTpgnN",
        "id" : "1CXJCTEydreEd8lJwTpgnN",
        "name" : "John Troutman",
        "type" : "artist",
        "uri" : "spotify:artist:1CXJCTEydreEd8lJwTpgnN"
      } ],
      "disc_number" : 1,
      "duration_ms" : 90957,
      "explicit" : false,
      "external_ids" : {
        "isrc" : "TCACF1560251"
      },
      "external_urls" : {
        "spotify" : "https://open.spotify.com/track/2ZmaCk14rbsIvVI1TOMiu6"
      },
      "href" : "https://api.spotify.com/v1/tracks/2ZmaCk14rbsIvVI1TOMiu6",
      "id" : "2ZmaCk14rbsIvVI1TOMiu6",
      "is_local" : false,
      "is_playable" : true,
      "name" : "A Shelter in the Time of Storm",
      "popularity" : 4,
      "preview_url" : "https://p.scdn.co/mp3-preview/6e0e4c9fd2d50b092a188fb8078d73c5291c98cd?cid=774b29d4f13844c495f206cafdad9c86",
      "track_number" : 29,
      "type" : "track",
      "uri" : "spotify:track:2ZmaCk14rbsIvVI1TOMiu6"
    }, {
      "album" : {
        "album_type" : "album",
        "artists" : [ {
          "external_urls" : {
            "spotify" : "https://open.spotify.com/artist/74nWdABaO7HFrdu2lrbAnD"
          },
          "href" : "https://api.spotify.com/v1/artists/74nWdABaO7HFrdu2lrbAnD",
          "id" : "74nWdABaO7HFrdu2lrbAnD",
          "name" : "Patti Drennan",
          "type" : "artist",
          "uri" : "spotify:artist:74nWdABaO7HFrdu2lrbAnD"
        } ],
        "external_urls" : {
          "spotify" : "https://open.spotify.com/album/0YsamNeC2AcOK7FWDX5cIh"
        },
        "href" : "https://api.spotify.com/v1/albums/0YsamNeC2AcOK7FWDX5cIh",
        "id" : "0YsamNeC2AcOK7FWDX5cIh",
        "images" : [ {
          "height" : 640,
          "url" : "https://i.scdn.co/image/ab67616d0000b27314214f484d07f84615269890",
          "width" : 640
        }, {
          "height" : 300,
          "url" : "https://i.scdn.co/image/ab67616d00001e0214214f484d07f84615269890",
          "width" : 300
        }, {
          "height" : 64,
          "url" : "https://i.scdn.co/image/ab67616d0000485114214f484d07f84615269890",
          "width" : 64
        } ],
        "name" : "A Shelter in the Time of Storm",
        "release_date" : "2007-08-10",
        "release_date_precision" : "day",
        "total_tracks" : 11,
        "type" : "album",
        "uri" : "spotify:album:0YsamNeC2AcOK7FWDX5cIh"
      },
      "artists" : [ {
        "external_urls" : {
          "spotify" : "https://open.spotify.com/artist/74nWdABaO7HFrdu2lrbAnD"
        },
        "href" : "https://api.spotify.com/v1/artists/74nWdABaO7HFrdu2lrbAnD",
        "id" : "74nWdABaO7HFrdu2lrbAnD",
        "name" : "Patti Drennan",
        "type" : "artist",
        "uri" : "spotify:artist:74nWdABaO7HFrdu2lrbAnD"
      } ],
      "disc_number" : 1,
      "duration_ms" : 187059,
      "explicit" : false,
      "external_ids" : {
        "isrc" : "uscgj1255619"
      },
      "external_urls" : {
        "spotify" : "https://open.spotify.com/track/34jjbMVyHtzeWX9Cz2Y2cz"
      },
      "href" : "https://api.spotify.com/v1/tracks/34jjbMVyHtzeWX9Cz2Y2cz",
      "id" : "34jjbMVyHtzeWX9Cz2Y2cz",
      "is_local" : false,
      "is_playable" : true,
      "name" : "A Shelter in the Time of Storm",
      "popularity" : 2,
      "preview_url" : "https://p.scdn.co/mp3-preview/26b81f86c8325ed5084d5d23f9a07cabb7285d47?cid=774b29d4f13844c495f206cafdad9c86",
      "track_number" : 3,
      "type" : "track",
      "uri" : "spotify:track:34jjbMVyHtzeWX9Cz2Y2cz"
    }, {
      "album" : {
        "album_type" : "album",
        "artists" : [ {
          "external_urls" : {
            "spotify" : "https://open.spotify.com/artist/388PL1NRNOBkw0DcuuKpDf"
          },
          "href" : "https://api.spotify.com/v1/artists/388PL1NRNOBkw0DcuuKpDf",
          "id" : "388PL1NRNOBkw0DcuuKpDf",
          "name" : "Haven",
          "type" : "artist",
          "uri" : "spotify:artist:388PL1NRNOBkw0DcuuKpDf"
        } ],
        "external_urls" : {
          "spotify" : "https://open.spotify.com/album/4xbpnAnHNGUsYFNWmsOCDk"
        },
        "href" : "https://api.spotify.com/v1/albums/4xbpnAnHNGUsYFNWmsOCDk",
        "id" : "4xbpnAnHNGUsYFNWmsOCDk",
        "images" : [ {
          "height" : 640,
          "url" : "https://i.scdn.co/image/ab67616d0000b273b4bb6c3b8eff456117a60542",
          "width" : 640
        }, {
          "height" : 300,
          "url" : "https://i.scdn.co/image/ab67616d00001e02b4bb6c3b8eff456117a60542",
          "width" : 300
        }, {
          "height" : 64,
          "url" : "https://i.scdn.co/image/ab67616d00004851b4bb6c3b8eff456117a60542",
          "width" : 64
        } ],
        "name" : "A Cappella",
        "release_date" : "2004-01-01",
        "release_date_precision" : "day",
        "total_tracks" : 20,
        "type" : "album",
        "uri" : "spotify:album:4xbpnAnHNGUsYFNWmsOCDk"
      },
      "artists" : [ {
        "external_urls" : {
          "spotify" : "https://open.spotify.com/artist/388PL1NRNOBkw0DcuuKpDf"
        },
        "href" : "https://api.spotify.com/v1/artists/388PL1NRNOBkw0DcuuKpDf",
        "id" : "388PL1NRNOBkw0DcuuKpDf",
        "name" : "Haven",
        "type" : "artist",
        "uri" : "spotify:artist:388PL1NRNOBkw0DcuuKpDf"
      } ],
      "disc_number" : 1,
      "duration_ms" : 139266,
      "explicit" : false,
      "external_ids" : {
        "isrc" : "uscgh0946688"
      },
      "external_urls" : {
        "spotify" : "https://open.spotify.com/track/6P0BY1jv6V1jvr7GQjhOej"
      },
      "href" : "https://api.spotify.com/v1/tracks/6P0BY1jv6V1jvr7GQjhOej",
      "id" : "6P0BY1jv6V1jvr7GQjhOej",
      "is_local" : false,
      "is_playable" : true,
      "name" : "A Shelter in the Time of Storm",
      "popularity" : 3,
      "preview_url" : "https://p.scdn.co/mp3-preview/75ece09b697ac7754c029280f040f7b68b8629fd?cid=774b29d4f13844c495f206cafdad9c86",
      "track_number" : 12,
      "type" : "track",
      "uri" : "spotify:track:6P0BY1jv6V1jvr7GQjhOej"
    }, {
      "album" : {
        "album_type" : "album",
        "artists" : [ {
          "external_urls" : {
            "spotify" : "https://open.spotify.com/artist/764gInKSmmHOzeuy0XfbcA"
          },
          "href" : "https://api.spotify.com/v1/artists/764gInKSmmHOzeuy0XfbcA",
          "id" : "764gInKSmmHOzeuy0XfbcA",
          "name" : "Anna Van V",
          "type" : "artist",
          "uri" : "spotify:artist:764gInKSmmHOzeuy0XfbcA"
        } ],
        "external_urls" : {
          "spotify" : "https://open.spotify.com/album/3ki4tFQedD6c73hB2QN07h"
        },
        "href" : "https://api.spotify.com/v1/albums/3ki4tFQedD6c73hB2QN07h",
        "id" : "3ki4tFQedD6c73hB2QN07h",
        "images" : [ {
          "height" : 640,
          "url" : "https://i.scdn.co/image/ab67616d0000b273c30baf2fd717d8ac1b4f85f2",
          "width" : 640
        }, {
          "height" : 300,
          "url" : "https://i.scdn.co/image/ab67616d00001e02c30baf2fd717d8ac1b4f85f2",
          "width" : 300
        }, {
          "height" : 64,
          "url" : "https://i.scdn.co/image/ab67616d00004851c30baf2fd717d8ac1b4f85f2",
          "width" : 64
        } ],
        "name" : "Shelter",
        "release_date" : "2014-05-16",
        "release_date_precision" : "day",
        "total_tracks" : 10,
        "type" : "album",
        "uri" : "spotify:album:3ki4tFQedD6c73hB2QN07h"
      },
      "artists" : [ {
        "external_urls" : {
          "spotify" : "https://open.spotify.com/artist/764gInKSmmHOzeuy0XfbcA"
        },
        "href" : "https://api.spotify.com/v1/artists/764gInKSmmHOzeuy0XfbcA",
        "id" : "764gInKSmmHOzeuy0XfbcA",
        "name" : "Anna Van V",
        "type" : "artist",
        "uri" : "spotify:artist:764gInKSmmHOzeuy0XfbcA"
      } ],
      "disc_number" : 1,
      "duration_ms" : 179040,
      "explicit" : false,
      "external_ids" : {
        "isrc" : "QMA5D1400009"
      },
      "external_urls" : {
        "spotify" : "https://open.spotify.com/track/19EblvhYmjS0AQ577rtiC1"
      },
      "href" : "https://api.spotify.com/v1/tracks/19EblvhYmjS0AQ577rtiC1",
      "id" : "19EblvhYmjS0AQ577rtiC1",
      "is_local" : false,
      "is_playable" : true,
      "name" : "Shelter in the Time of Storm",
      "popularity" : 0,
      "preview_url" : "https://p.scdn.co/mp3-preview/60d4a9181d057250654ce314c7cb42b56ca5220f?cid=774b29d4f13844c495f206cafdad9c86",
      "track_number" : 9,
      "type" : "track",
      "uri" : "spotify:track:19EblvhYmjS0AQ577rtiC1"
    }, {
      "album" : {
        "album_type" : "album",
        "artists" : [ {
          "external_urls" : {
            "spotify" : "https://open.spotify.com/artist/1WJuFU5gbyNKiz7O6ribUS"
          },
          "href" : "https://api.spotify.com/v1/artists/1WJuFU5gbyNKiz7O6ribUS",
          "id" : "1WJuFU5gbyNKiz7O6ribUS",
          "name" : "Edenlight",
          "type" : "artist",
          "uri" : "spotify:artist:1WJuFU5gbyNKiz7O6ribUS"
        } ],
        "external_urls" : {
          "spotify" : "https://open.spotify.com/album/34u5lYvgnpYRxttCyySSLr"
        },
        "href" : "https://api.spotify.com/v1/albums/34u5lYvgnpYRxttCyySSLr",
        "id" : "34u5lYvgnpYRxttCyySSLr",
        "images" : [ {
          "height" : 640,
          "url" : "https://i.scdn.co/image/ab67616d0000b2733781252f61d52426de62a011",
          "width" : 640
        }, {
          "height" : 300,
          "url" : "https://i.scdn.co/image/ab67616d00001e023781252f61d52426de62a011",
          "width" : 300
        }, {
          "height" : 64,
          "url" : "https://i.scdn.co/image/ab67616d000048513781252f61d52426de62a011",
          "width" : 64
        } ],
        "name" : "and yet....",
        "release_date" : "2004-12-23",
        "release_date_precision" : "day",
        "total_tracks" : 14,
        "type" : "album",
        "uri" : "spotify:album:34u5lYvgnpYRxttCyySSLr"
      },
      "artists" : [ {
        "external_urls" : {
          "spotify" : "https://open.spotify.com/artist/1WJuFU5gbyNKiz7O6ribUS"
        },
        "href" : "https://api.spotify.com/v1/artists/1WJuFU5gbyNKiz7O6ribUS",
        "id" : "1WJuFU5gbyNKiz7O6ribUS",
        "name" : "Edenlight",
        "type" : "artist",
        "uri" : "spotify:artist:1WJuFU5gbyNKiz7O6ribUS"
      } ],
      "disc_number" : 1,
      "duration_ms" : 175280,
      "explicit" : false,
      "external_ids" : {
        "isrc" : "usl4r0748609"
      },
      "external_urls" : {
        "spotify" : "https://open.spotify.com/track/24gFQ8sdmoqgwuOD6lut0b"
      },
      "href" : "https://api.spotify.com/v1/tracks/24gFQ8sdmoqgwuOD6lut0b",
      "id" : "24gFQ8sdmoqgwuOD6lut0b",
      "is_local" : false,
      "is_playable" : true,
      "name" : "Shelter in the Time of Storm",
      "popularity" : 0,
      "preview_url" : "https://p.scdn.co/mp3-preview/ad58caf16b3aadf1a699c05490915049e6863ea1?cid=774b29d4f13844c495f206cafdad9c86",
      "track_number" : 14,
      "type" : "track",
      "uri" : "spotify:track:24gFQ8sdmoqgwuOD6lut0b"
    }, {
      "album" : {
        "album_type" : "album",
        "artists" : [ {
          "external_urls" : {
            "spotify" : "https://open.spotify.com/artist/5oFUivIb6jH5DBsdaYxNQn"
          },
          "href" : "https://api.spotify.com/v1/artists/5oFUivIb6jH5DBsdaYxNQn",
          "id" : "5oFUivIb6jH5DBsdaYxNQn",
          "name" : "Wayne Pascall",
          "type" : "artist",
          "uri" : "spotify:artist:5oFUivIb6jH5DBsdaYxNQn"
        } ],
        "external_urls" : {
          "spotify" : "https://open.spotify.com/album/0AY6QV4KlQHLNpiqNc0CJR"
        },
        "href" : "https://api.spotify.com/v1/albums/0AY6QV4KlQHLNpiqNc0CJR",
        "id" : "0AY6QV4KlQHLNpiqNc0CJR",
        "images" : [ {
          "height" : 640,
          "url" : "https://i.scdn.co/image/ab67616d0000b273b130d313d1badfaa6c0c9048",
          "width" : 640
        }, {
          "height" : 300,
          "url" : "https://i.scdn.co/image/ab67616d00001e02b130d313d1badfaa6c0c9048",
          "width" : 300
        }, {
          "height" : 64,
          "url" : "https://i.scdn.co/image/ab67616d00004851b130d313d1badfaa6c0c9048",
          "width" : 64
        } ],
        "name" : "Acappella Gospel Classics 2",
        "release_date" : "2009-03-17",
        "release_date_precision" : "day",
        "total_tracks" : 19,
        "type" : "album",
        "uri" : "spotify:album:0AY6QV4KlQHLNpiqNc0CJR"
      },
      "artists" : [ {
        "external_urls" : {
          "spotify" : "https://open.spotify.com/artist/5oFUivIb6jH5DBsdaYxNQn"
        },
        "href" : "https://api.spotify.com/v1/artists/5oFUivIb6jH5DBsdaYxNQn",
        "id" : "5oFUivIb6jH5DBsdaYxNQn",
        "name" : "Wayne Pascall",
        "type" : "artist",
        "uri" : "spotify:artist:5oFUivIb6jH5DBsdaYxNQn"
      } ],
      "disc_number" : 1,
      "duration_ms" : 223746,
      "explicit" : false,
      "external_ids" : {
        "isrc" : "uscgj0918643"
      },
      "external_urls" : {
        "spotify" : "https://open.spotify.com/track/67dH1IM3pKzDBkiucnPRzr"
      },
      "href" : "https://api.spotify.com/v1/tracks/67dH1IM3pKzDBkiucnPRzr",
      "id" : "67dH1IM3pKzDBkiucnPRzr",
      "is_local" : false,
      "is_playable" : true,
      "name" : "Shelter In The Time Of Storm",
      "popularity" : 0,
      "preview_url" : "https://p.scdn.co/mp3-preview/54fcce594a4b466fff3787e06226c219833fc511?cid=774b29d4f13844c495f206cafdad9c86",
      "track_number" : 3,
      "type" : "track",
      "uri" : "spotify:track:67dH1IM3pKzDBkiucnPRzr"
    } ],
    "limit" : 10,
    "next" : "https://api.spotify.com/v1/search?query=A+Shelter+in+the+Time+of+Storm&type=track&market=US&offset=15&limit=10",
    "offset" : 5,
    "previous" : "https://api.spotify.com/v1/search?query=A+Shelter+in+the+Time+of+Storm&type=track&market=US&offset=0&limit=10",
    "total" : 68
  }
}