{
  "tracks" : {
    "href" : "https://api.spotify.com/v1/search?query=It+Is+Well+With+My+Soul&type=track&market=US&offset=5&limit=10",
    "items" : [ {
      "album" : {
        "album_type" : "album",
        "artists" : [ {
          "external_urls" : {
            "spotify" : "https://open.spotify.com/artist/32DWM2tctxuDatAYWHjCtC"
          },
          "href" : "https://api.spotify.com/v1/artists/32DWM2tctxuDatAYWHjCtC",
          "id" : "32DWM2tctxuDatAYWHjCtC",
          "name" : "Hymns on Piano",
          "type" : "artist",
          "uri" : "spotify:artist:32DWM2tctxuDatAYWHjCtC"
        } ],
        "external_urls" : {
          "spotify" : "https://open.spotify.com/album/2LCR7znfQs52tIyUet7PKx"
        },
        "href" : "https://api.spotify.com/v1/albums/2LCR7znfQs52tIyUet7PKx",
        "id" : "2LCR7znfQs52tIyUet7PKx",
        "images" : [ {
          "height" : 640,
          "url" : "https://i.scdn.co/image/ab67616d0000b2732a9995d7b449417eb1632d58",
          "width" : 640
        }, {
          "height" : 300,
          "url" : "https://i.scdn.co/image/ab67616d00001e022a9995d7b449417eb1632d58",
          "width" : 300
        }, {
          "height" : 64,
          "url" : "https://i.scdn.co/image/ab67616d000048512a9995d7b449417eb1632d58",
          "width" : 64
        } ],
        "name" : "Hymns of Worship - Volume 1",
        "release_date" : "2015-12-08",
        "release_date_precision" : "day",
        "total_tracks" : 15,
        "type" : "album",
        "uri" : "spotify:album:2LCR7znfQs52tIyUet7PKx"
      },
      "artists" : [ {
        "external_urls" : {
          "spotify" : "https://open.spotify.com/artist/32DWM2tctxuDatAYWHjCtC"
        },
        "href" : "https://api.spotify.com/v1/artists/32DWM2tctxuDatAYWHjCtC",
        "id" : "32DWM2tctxuDatAYWHjCtC",
        "name" : "Hymns on Piano",
        "type" : "artist",
        "uri" : "spotify:artist:32DWM2tctxuDatAYWHjCtC"
      } ],
      "disc_number" : 1,
      "duration_ms" : 315996,
      "explicit" : false,
      "external_ids" : {
        "isrc" : "USE831525005"
      },
      "external_urls" : {
        "spotify" : "https://open.spotify.com/track/0UTxv9mbny82CPQt932qDM"
      },
      "href" : "https://api.spotify.com/v1/tracks/0UTxv9mbny82CPQt932qDM",
      "id" : "0UTxv9mbny82CPQt932qDM",
      "is_local" : false,
      "is_playable" : true,
      "name" : "It Is Well With My Soul (When Peace Like a River)",
      "popularity" : 43,
      "preview_url" : "https://p.scdn.co/mp3-preview/4760219a866800dd29e7bbb6065be1806aa46652?cid=774b29d4f13844c495f206cafdad9c86",
      "track_number" : 4,
      "type" : "track",
      "uri" : "spotify:track:0UTxv9mbny82CPQt932qDM"
    }, {
      "album" : {
        "album_type" : "album",
        "artists" : [ {
          "external_urls" : {
            "spotify" : "https://open.spotify.com/artist/3kb5Da0lPehCHCE5SVLNQk"
          },
          "href" : "https://api.spotify.com/v1/artists/3kb5Da0lPehCHCE5SVLNQk",
          "id" : "3kb5Da0lPehCHCE5SVLNQk",
          "name" : "Hillsong Chapel",
          "type" : "artist",
          "uri" : "spotify:artist:3kb5Da0lPehCHCE5SVLNQk"
        } ],
        "external_urls" : {
          "spotify" : "https://open.spotify.com/album/56XEtE1RnN07Tm7Ce1dkTs"
        },
        "href" : "https://api.spotify.com/v1/albums/56XEtE1RnN07Tm7Ce1dkTs",
        "id" : "56XEtE1RnN07Tm7Ce1dkTs",
        "images" : [ {
          "height" : 640,
          "url" : "https://i.scdn.co/image/ab67616d0000b27349e39c46e296d0bdb6bcc794",
          "width" : 640
        }, {
          "height" : 300,
          "url" : "https://i.scdn.co/image/ab67616d00001e0249e39c46e296d0bdb6bcc794",
          "width" : 300
        }, {
          "height" : 64,
          "url" : "https://i.scdn.co/image/ab67616d0000485149e39c46e296d0bdb6bcc794",
          "width" : 64
        } ],
        "name" : "Forever Reign (Live)",
        "release_date" : "2012-01-01",
        "release_date_precision" : "day",
        "total_tracks" : 12,
        "type" : "album",
        "uri" : "spotify:album:56XEtE1RnN07Tm7Ce1dkTs"
      },
      "artists" : [ {
        "external_urls" : {
          "spotify" : "https://open.spotify.com/artist/3kb5Da0lPehCHCE5SVLNQk"
        },
        "href" : "https://api.spotify.com/v1/artists/3kb5Da0lPehCHCE5SVLNQk",
        "id" : "3kb5Da0lPehCHCE5SVLNQk",
        "name" : "Hillsong Chapel",
        "type" : "artist",
        "uri" : "spotify:artist:3kb5Da0lPehCHCE5SVLNQk"
      } ],
      "disc_number" : 1,
      "duration_ms" : 288293,
      "explicit" : false,
      "external_ids" : {
        "isrc" : "AUHS01204963"
      },
      "external_urls" : {
        "spotify" : "https://open.spotify.com/track/5YAJLX9LYJSX6jp1BF4aIm"
      },
      "href" : "https://api.spotify.com/v1/tracks/5YAJLX9LYJSX6jp1BF4aIm",
      "id" : "5YAJLX9LYJSX6jp1BF4aIm",
      "is_local" : false,
      "is_playable" : true,
      "name" : "It Is Well With My Soul - Live",
      "popularity" : 38,
      "preview_url" : null,
      "track_number" : 6,
      "type" : "track",
      "uri" : "spotify:track:5YAJLX9LYJSX6jp1BF4aIm"
    }, {
      "album" : {
        "album_type" : "album",
        "artists" : [ {
          "external_urls" : {
            "spotify" : "https://open.spotify.com/artist/31Esw1yHgJZBPcRa4nUyTP"
          },
          "href" : "https://api.spotify.com/v1/artists/31Esw1yHgJZBPcRa4nUyTP",
          "id" : "31Esw1yHgJZBPcRa4nUyTP",
          "name" : "Joey + Rory",
          "type" : "artist",
          "uri" : "spotify:artist:31Esw1yHgJZBPcRa4nUyTP"
        } ],
        "external_urls" : {
          "spotify" : "https://open.spotify.com/album/1nbMMdt6wb16OSPF81yBuT"
        },
        "href" : "https://api.spotify.com/v1/albums/1nbMMdt6wb16OSPF81yBuT",
        "id" : "1nbMMdt6wb16OSPF81yBuT",
        "images" : [ {
          "height" : 640,
          "url" : "https://i.scdn.co/image/ab67616d0000b273ed8396a200fc1a19c12f051d",
          "width" : 640
        }, {
          "height" : 300,
          "url" : "https://i.scdn.co/image/ab67616d00001e02ed8396a200fc1a19c12f051d",
          "width" : 300
        }, {
          "height" : 64,
          "url" : "https://i.scdn.co/image/ab67616d00004851ed8396a200fc1a19c12f051d",
          "width" : 64
        } ],
        "name" : "Hymns",
        "release_date" : "2016-02-12",
        "release_date_precision" : "day",
        "total_tracks" : 13,
        "type" : "album",
        "uri" : "spotify:album:1nbMMdt6wb16OSPF81yBuT"
      },
      "artists" : [ {
        "external_urls" : {
          "spotify" : "https://open.spotify.com/artist/31Esw1yHgJZBPcRa4nUyTP"
        },
        "href" : "https://api.spotify.com/v1/artists/31Esw1yHgJZBPcRa4nUyTP",
        "id" : "31Esw1yHgJZBPcRa4nUyTP",
        "name" : "Joey + Rory",
        "type" : "artist",
        "uri" : "spotify:artist:31Esw1yHgJZBPcRa4nUyTP"
      } ],
      "disc_number" : 1,
      "duration_ms" : 194706,
      "explicit" : false,
      "external_ids" : {
        "isrc" : "QMFDU1600006"
      },
      "external_urls" : {
        "spotify" : "https://open.spotify.com/track/3luEIXKsUZkogGwlTpnCbT"
      },
      "href" : "https://api.spotify.com/v1/tracks/3luEIXKsUZkogGwlTpnCbT",
      "id" : "3luEIXKsUZkogGwlTpnCbT",
      "is_local" : false,
      "is_playable" : true,
      "name" : "It Is Well With My Soul",
      "popularity" : 36,
      "preview_url" : null,
      "track_number" : 6,
      "type" : "track",
      "uri" : "spotify:track:3luEIXKsUZkogGwlTpnCbT"
    }, {
      "album" : {
        "album_type" : "compilation",
        "artists" : [ {
          "external_urls" : {
            "spotify" : "https://open.spotify.com/artist/1R486Y8DuEKEH01hypvW1B"
          },
          "href" : "https://api.spotify.com/v1/artists/1R486Y8DuEKEH01hypvW1B",
          "id" : "1R486Y8DuEKEH01hypvW1B",
          "name" : "David Phelps",
          "type" : "artist",
          "uri" : "spotify:artist:1R486Y8DuEKEH01hypvW1B"
        } ],
        "external_urls" : {
          "spotify" : "https://open.spotify.com/album/0CnXuIhmHbRzXqBG1RxkIu"
        },
        "href" : "https://api.spotify.com/v1/albums/0CnXuIhmHbRzXqBG1RxkIu",
        "id" : "0CnXuIhmHbRzXqBG1RxkIu",
        "images" : [ {
          "height" : 640,
          "url" : "https://i.scdn.co/image/ab67616d0000b273a8ac32be029a601f314be944",
          "width" : 640
        }, {
          "height" : 300,
          "url" : "https://i.scdn.co/image/ab67616d00001e02a8ac32be029a601f314be944",
          "width" : 300
        }, {
          "height" : 64,
          "url" : "https://i.scdn.co/image/ab67616d00004851a8ac32be029a601f314be944",
          "width" : 64
        } ],
        "name" : "The Best Of David Phelps",
        "release_date" : "2011-01-01",
        "release_date_precision" : "day",
        "total_tracks" : 17,
        "type" : "album",
        "uri" : "spotify:album:0CnXuIhmHbRzXqBG1RxkIu"
      },
      "artists" : [ {
        "external_urls" : {
          "spotify" : "https://open.spotify.com/artist/1R486Y8DuEKEH01hypvW1B"
        },
        "href" : "https://api.spotify.com/v1/artists/1R486Y8DuEKEH01hypvW1B",
        "id" : "1R486Y8DuEKEH01hypvW1B",
        "name" : "David Phelps",
        "type" : "artist",
        "uri" : "spotify:artist:1R486Y8DuEKEH01hypvW1B"
      } ],
      "disc_number" : 1,
      "duration_ms" : 268413,
      "explicit" : false,
      "external_ids" : {
        "isrc" : "US3271100087"
      },
      "external_urls" : {
        "spotify" : "https://open.spotify.com/track/3dXoYa9znTQYMsScKV7cLO"
      },
      "href" : "https://api.spotify.com/v1/tracks/3dXoYa9znTQYMsScKV7cLO",
      "id" : "3dXoYa9znTQYMsScKV7cLO",
      "is_local" : false,
      "is_playable" : true,
      "name" : "It Is Well With My Soul",
      "popularity" : 38,
      "preview_url" : null,
      "track_number" : 10,
      "type" : "track",
      "uri" : "spotify:track:3dXoYa9znTQYMsScKV7cLO"
    }, {
      "album" : {
        "album_type" : "album",
        "artists" : [ {
          "external_urls" : {
            "spotify" : "https://open.spotify.com/artist/5zhxxb24WP6q6rbLHAn2UQ"
          },
          "href" : "https://api.spotify.com/v1/artists/5zhxxb24WP6q6rbLHAn2UQ",
          "id" : "5zhxxb24WP6q6rbLHAn2UQ",
          "name" : "BYU Vocal Point",
          "type" : "artist",
          "uri" : "spotify:artist:5zhxxb24WP6q6rbLHAn2UQ"
        } ],
        "external_urls" : {
          "spotify" : "https://open.spotify.com/album/0l2oamFB45PG6y8x5xhM2i"
        },
        "href" : "https://api.spotify.com/v1/albums/0l2oamFB45PG6y8x5xhM2i",
        "id" : "0l2oamFB45PG6y8x5xhM2i",
        "images" : [ {
          "height" : 640,
          "url" : "https://i.scdn.co/image/ab67616d0000b273ec89813abbe3a699423c8023",
          "width" : 640
        }, {
          "height" : 300,
          "url" : "https://i.scdn.co/image/ab67616d00001e02ec89813abbe3a699423c8023",
          "width" : 300
        }, {
          "height" : 64,
          "url" : "https://i.scdn.co/image/ab67616d00004851ec89813abbe3a699423c8023",
          "width" : 64
        } ],
        "name" : "Music Video Hits, Vol. 2",
        "release_date" : "2018-03-30",
        "release_date_precision" : "day",
        "total_tracks" : 7,
        "type" : "album",
        "uri" : "spotify:album:0l2oamFB45PG6y8x5xhM2i"
      },
      "artists" : [ {
        "external_urls" : {
          "spotify" : "https://open.spotify.com/artist/5zhxxb24WP6q6rbLHAn2UQ"
        },
        "href" : "https://api.spotify.com/v1/artists/5zhxxb24WP6q6rbLHAn2UQ",
        "id" : "5zhxxb24WP6q6rbLHAn2UQ",
        "name" : "BYU Vocal Point",
        "type" : "artist",
        "uri" : "spotify:artist:5zhxxb24WP6q6rbLHAn2UQ"
      } ],
      "disc_number" : 1,
      "duration_ms" : 236491,
      "explicit" : false,
      "external_ids" : {
        "isrc" : "QMRB31700001"
      },
      "external_urls" : {
        "spotify" : "https://open.spotify.com/track/4mUrm4Zj1tpZJClI4A5RX6"
      },
      "href" : "https://api.spotify.com/v1/tracks/4mUrm4Zj1tpZJClI4A5RX6",
      "id" : "4mUrm4Zj1tpZJClI4A5RX6",
      "is_local" : false,
      "is_playable" : true,
      "name" : "It Is Well with My Soul",
      "popularity" : 36,
      "preview_url" : "https://p.scdn.co/mp3-preview/7c224208eb1c0ff1ddfdaf8be00b3dc6c0ee01d8?cid=774b29d4f13844c495f206cafdad9c86",
      "track_number" : 4,
      "type" : "track",
      "uri" : "spotify:track:4mUrm4Zj1tpZJClI4A5RX6"
    }, {
      "album" : {
        "album_type" : "album",
        "artists" : [ {
          "external_urls" : {
            "spotify" : "https://open.spotify.com/artist/4OnCEh1bwvvTuq9X0kM0iS"
          },
          "href" : "https://api.spotify.com/v1/artists/4OnCEh1bwvvTuq9X0kM0iS",
          "id" : "4OnCEh1bwvvTuq9X0kM0iS",
          "name" : "Daniel Martin Moore",
          "type" : "artist",
          "uri" : "spotify:artist:4OnCEh1bwvvTuq9X0kM0iS"
        } ],
        "external_urls" : {
          "spotify" : "https://open.spotify.com/album/1wS53IEcp2JCl0esfypphQ"
        },
        "href" : "https://api.spotify.com/v1/albums/1wS53IEcp2JCl0esfypphQ",
        "id" : "1wS53IEcp2JCl0esfypphQ",
        "images" : [ {
          "height" : 640,
          "url" : "https://i.scdn.co/image/ab67616d0000b273d9ed61e2041664ff8acbb119",
          "width" : 640
        }, {
          "height" : 300,
          "url" : "https://i.scdn.co/image/ab67616d00001e02d9ed61e2041664ff8acbb119",
          "width" : 300
        }, {
          "height" : 64,
          "url" : "https://i.scdn.co/image/ab67616d00004851d9ed61e2041664ff8acbb119",
          "width" : 64
        } ],
        "name" : "In the Cool of the Day",
        "release_date" : "2011-01-18",
        "release_date_precision" : "day",
        "total_tracks" : 11,
        "type" : "album",
        "uri" : "spotify:album:1wS53IEcp2JCl0esfypphQ"
      },
      "artists" : [ {
        "external_urls" : {
          "spotify" : "https://open.spotify.com/artist/4OnCEh1bwvvTuq9X0kM0iS"
        },
        "href" : "https://api.spotify.com/v1/artists/4OnCEh1bwvvTuq9X0kM0iS",
        "id" : "4OnCEh1bwvvTuq9X0kM0iS",
        "name" : "Daniel Martin Moore",
        "type" : "artist",
        "uri" : "spotify:artist:4OnCEh1bwvvTuq9X0kM0iS"
      } ],
      "disc_number" : 1,
      "duration_ms" : 151786,
      "explicit" : false,
      "external_ids" : {
        "isrc" : "USSUB1086009"
      },
      "external_urls" : {
        "spotify" : "https://open.spotify.com/track/46usmxwxy3C075DQxWcWBL"
      },
      "href" : "https://api.spotify.com/v1/tracks/46usmxwxy3C075DQxWcWBL",
      "id" : "46usmxwxy3C075DQxWcWBL",
      "is_local" : false,
      "is_playable" : true,
      "name" : "It Is Well With My Soul",
      "popularity" : 34,
      "preview_url" : "https://p.scdn.co/mp3-preview/a9044a2d46ae7f97488e06283e644cc8554409fe?cid=774b29d4f13844c495f206cafdad9c86",
      "track_number" : 9,
      "type" : "track",
      "uri" : "spotify:track:46usmxwxy3C075DQxWcWBL"
    }, {
      "album" : {
        "album_type" : "album",
        "artists" : [ {
          "external_urls" : {
            "spotify" : "https://open.spotify.com/artist/6jZbQXvNtDjnj18yoHMuvi"
          },
          "href" : "https://api.spotify.com/v1/artists/6jZbQXvNtDjnj18yoHMuvi",
          "id" : "6jZbQXvNtDjnj18yoHMuvi",
          "name" : "Jeremy Riddle",
          "type" : "artist",
          "uri" : "spotify:artist:6jZbQXvNtDjnj18yoHMuvi"
        } ],
        "external_urls" : {
          "spotify" : "https://open.spotify.com/album/1y94QGys74FLNTamOyxPoV"
        },
        "href" : "https://api.spotify.com/v1/albums/1y94QGys74FLNTamOyxPoV",
        "id" : "1y94QGys74FLNTamOyxPoV",
        "images" : [ {
          "height" : 640,
          "url" : "https://i.scdn.co/image/ab67616d0000b273106f8130760cd94f85469b51",
          "width" : 640
        }, {
          "height" : 300,
          "url" : "https://i.scdn.co/image/ab67616d00001e02106f8130760cd94f85469b51",
          "width" : 300
        }, {
          "height" : 64,
          "url" : "https://i.scdn.co/image/ab67616d00004851106f8130760cd94f85469b51",
          "width" : 64
        } ],
        "name" : "Prepare the Way (Live)",
        "release_date" : "2010-08-10",
        "release_date_precision" : "day",
        "total_tracks" : 10,
        "type" : "album",
        "uri" : "spotify:album:1y94QGys74FLNTamOyxPoV"
      },
      "artists" : [ {
        "external_urls" : {
          "spotify" : "https://open.spotify.com/artist/6jZbQXvNtDjnj18yoHMuvi"
        },
        "href" : "https://api.spotify.com/v1/artists/6jZbQXvNtDjnj18yoHMuvi",
        "id" : "6jZbQXvNtDjnj18yoHMuvi",
        "name" : "Jeremy Riddle",
        "type" : "artist",
        "uri" : "spotify:artist:6jZbQXvNtDjnj18yoHMuvi"
      } ],
      "disc_number" : 1,
      "duration_ms" : 330373,
      "explicit" : false,
      "external_ids" : {
        "isrc" : "US2T30901242"
      },
      "external_urls" : {
        "spotify" : "https://open.spotify.com/track/5hUcFlium9tRt1b49JrH3L"
      },
      "href" : "https://api.spotify.com/v1/tracks/5hUcFlium9tRt1b49JrH3L",
      "id" : "5hUcFlium9tRt1b49JrH3L",
      "is_local" : false,
      "is_playable" : true,
      "name" : "It Is Well With My Soul (Live)",
      "popularity" : 36,
      "preview_url" : "https://p.scdn.co/mp3-preview/d2ed4ce36140b59e3adba07577b619ba77d2e5b8?cid=774b29d4f13844c495f206cafdad9c86",
      "track_number" : 10,
      "type" : "track",
      "uri" : "spotify:track:5hUcFlium9tRt1b49JrH3L"
    }, {
      "album" : {
        "album_type" : "album",
        "artists" : [ {
          "external_urls" : {
            "spotify" : "https://open.spotify.com/artist/6RJYPm4gcrIuOjQiqu9VXu"
          },
          "href" : "https://api.spotify.com/v1/artists/6RJYPm4gcrIuOjQiqu9VXu",
          "id" : "6RJYPm4gcrIuOjQiqu9VXu",
          "name" : "Sandi Patty",
          "type" : "artist",
          "uri" : "spotify:artist:6RJYPm4gcrIuOjQiqu9VXu"
        } ],
        "external_urls" : {
          "spotify" : "https://open.spotify.com/album/2kvXUNQFs0WDZDI9hPHCaX"
        },
        "href" : "https://api.spotify.com/v1/albums/2kvXUNQFs0WDZDI9hPHCaX",
        "id" : "2kvXUNQFs0WDZDI9hPHCaX",
        "images" : [ {
          "height" : 640,
          "url" : "https://i.scdn.co/image/ab67616d0000b2738f049a64246d90f158f1db26",
          "width" : 640
        }, {
          "height" : 300,
          "url" : "https://i.scdn.co/image/ab67616d00001e028f049a64246d90f158f1db26",
          "width" : 300
        }, {
          "height" : 64,
          "url" : "https://i.scdn.co/image/ab67616d000048518f049a64246d90f158f1db26",
          "width" : 64
        } ],
        "name" : "Hymns Just for You",
        "release_date" : "1990",
        "release_date_precision" : "year",
        "total_tracks" : 10,
        "type" : "album",
        "uri" : "spotify:album:2kvXUNQFs0WDZDI9hPHCaX"
      },
      "artists" : [ {
        "external_urls" : {
          "spotify" : "https://open.spotify.com/artist/6RJYPm4gcrIuOjQiqu9VXu"
        },
        "href" : "https://api.spotify.com/v1/artists/6RJYPm4gcrIuOjQiqu9VXu",
        "id" : "6RJYPm4gcrIuOjQiqu9VXu",
        "name" : "Sandi Patty",
        "type" : "artist",
        "uri" : "spotify:artist:6RJYPm4gcrIuOjQiqu9VXu"
      } ],
      "disc_number" : 1,
      "duration_ms" : 263960,
      "explicit" : false,
      "external_ids" : {
        "isrc" : "USWR60250626"
      },
      "external_urls" : {
        "spotify" : "https://open.spotify.com/track/08sjHuyPdMJsMiNUQjruuz"
      },
      "href" : "https://api.spotify.com/v1/tracks/08sjHuyPdMJsMiNUQjruuz",
      "id" : "08sjHuyPdMJsMiNUQjruuz",
      "is_local" : false,
      "is_playable" : true,
      "name" : "It Is Well With My Soul",
      "popularity" : 33,
      "preview_url" : "https://p.scdn.co/mp3-preview/0baa6aca4958d159ac541e4880e053dcf6d66d1a?cid=774b29d4f13844c495f206cafdad9c86",
      "track_number" : 1,
      "type" : "track",
      "uri" : "spotify:track:08sjHuyPdMJsMiNUQjruuz"
    }, {
      "album" : {
        "album_type" : "album",
        "artists" : [ {
          "external_urls" : {
            "spotify" : "https://open.spotify.com/artist/1GKYNY4rIPnOuTfC0J1IWw"
          },
          "href" : "https://api.spotify.com/v1/artists/1GKYNY4rIPnOuTfC0J1IWw",
          "id" : "1GKYNY4rIPnOuTfC0J1IWw",
          "name" : "Audrey Assad",
          "type" : "artist",
          "uri" : "spotify:artist:1GKYNY4rIPnOuTfC0J1IWw"
        } ],
        "external_urls" : {
          "spotify" : "https://open.spotify.com/album/3h2GgAQ1xOlIRh3KiLedZB"
        },
        "href" : "https://api.spotify.com/v1/albums/3h2GgAQ1xOlIRh3KiLedZB",
        "id" : "3h2GgAQ1xOlIRh3KiLedZB",
        "images" : [ {
          "height" : 640,
          "url" : "https://i.scdn.co/image/ab67616d0000b273f89df0a7e56245e6fe9eb280",
          "width" : 640
        }, {
          "height" : 300,
          "url" : "https://i.scdn.co/image/ab67616d00001e02f89df0a7e56245e6fe9eb280",
          "width" : 300
        }, {
          "height" : 64,
          "url" : "https://i.scdn.co/image/ab67616d00004851f89df0a7e56245e6fe9eb280",
          "width" : 64
        } ],
        "name" : "Inheritance (Deluxe Edition)",
        "release_date" : "2016-10-07",
        "release_date_precision" : "day",
        "total_tracks" : 16,
        "type" : "album",
        "uri" : "spotify:album:3h2GgAQ1xOlIRh3KiLedZB"
      },
      "artists" : [ {
        "external_urls" : {
          "spotify" : "https://open.spotify.com/artist/1GKYNY4rIPnOuTfC0J1IWw"
        },
        "href" : "https://api.spotify.com/v1/artists/1GKYNY4rIPnOuTfC0J1IWw",
        "id" : "1GKYNY4rIPnOuTfC0J1IWw",
        "name" : "Audrey Assad",
        "type" : "artist",
        "uri" : "spotify:artist:1GKYNY4rIPnOuTfC0J1IWw"
      } ],
      "disc_number" : 1,
      "duration_ms" : 251303,
      "explicit" : false,
      "external_ids" : {
        "isrc" : "QMGVJ1500224"
      },
      "external_urls" : {
        "spotify" : "https://open.spotify.com/track/4wocTmaIsb1uWXY0SQttG1"
      },
      "href" : "https://api.spotify.com/v1/tracks/4wocTmaIsb1uWXY0SQttG1",
      "id" : "4wocTmaIsb1uWXY0SQttG1",
      "is_local" : false,
      "is_playable" : true,
      "name" : "It Is Well With My Soul",
      "popularity" : 30,
      "preview_url" : "https://p.scdn.co/mp3-preview/030464aaddf6e57f16054c27689eb88944cc91f2?cid=774b29d4f13844c495f206cafdad9c86",
      "track_number" : 9,
      "type" : "track",
      "uri" : "spotify:track:4wocTmaIsb1uWXY0SQttG1"
    }, {
      "album" : {
        "album_type" : "album",
        "artists" : [ {
          "external_urls" : {
            "spotify" : "https://open.spotify.com/artist/7dc9jcxR0GgRMoNasStnmZ"
          },
          "href" : "https://api.spotify.com/v1/artists/7dc9jcxR0GgRMoNasStnmZ",
          "id" : "7dc9jcxR0GgRMoNasStnmZ",
          "name" : "David Baroni",
          "type" : "artist",
          "uri" : "spotify:artist:7dc9jcxR0GgRMoNasStnmZ"
        } ],
        "external_urls" : {
          "spotify" : "https://open.spotify.com/album/0QOzN93Vhpw1rwTonEKrnf"
        },
        "href" : "https://api.spotify.com/v1/albums/0QOzN93Vhpw1rwTonEKrnf",
        "id" : "0QOzN93Vhpw1rwTonEKrnf",
        "images" : [ {
          "height" : 640,
          "url" : "https://i.scdn.co/image/ab67616d0000b273ddfd3808b869d69ac7b94ceb",
          "width" : 640
        }, {
          "height" : 300,
          "url" : "https://i.scdn.co/image/ab67616d00001e02ddfd3808b869d69ac7b94ceb",
          "width" : 300
        }, {
          "height" : 64,
          "url" : "https://i.scdn.co/image/ab67616d00004851ddfd3808b869d69ac7b94ceb",
          "width" : 64
        } ],
        "name" : "A Quiet Place: Instrumental Hymns",
        "release_date" : "2009-11-28",
        "release_date_precision" : "day",
        "total_tracks" : 12,
        "type" : "album",
        "uri" : "spotify:album:0QOzN93Vhpw1rwTonEKrnf"
      },
      "artists" : [ {
        "external_urls" : {
          "spotify" : "https://open.spotify.com/artist/7dc9jcxR0GgRMoNasStnmZ"
        },
        "href" : "https://api.spotify.com/v1/artists/7dc9jcxR0GgRMoNasStnmZ",
        "id" : "7dc9jcxR0GgRMoNasStnmZ",
        "name" : "David Baroni",
        "type" : "artist",
        "uri" : "spotify:artist:7dc9jcxR0GgRMoNasStnmZ"
      } ],
      "disc_number" : 1,
      "duration_ms" : 293973,
      "explicit" : false,
      "external_ids" : {
        "isrc" : "usx9p0933853"
      },
      "external_urls" : {
        "spotify" : "https://open.spotify.com/track/4kfFlAnt3iFG0T2c9Qr4Eh"
      },
      "href" : "https://api.spotify.com/v1/tracks/4kfFlAnt3iFG0T2c9Qr4Eh",
      "id" : "4kfFlAnt3iFG0T2c9Qr4Eh",
      "is_local" : false,
      "is_playable" : true,
      "name" : "It Is Well With My Soul",
      "popularity" : 32,
      "preview_url" : "https://p.scdn.co/mp3-preview/05179d741213974bff776658250250ef14955999?cid=774b29d4f13844c495f206cafdad9c86",
      "track_number" : 11,
      "type" : "track",
      "uri" : "spotify:track:4kfFlAnt3iFG0T2c9Qr4Eh"
    } ],
    "limit" : 10,
    "next" : "https://api.spotify.com/v1/search?query=It+Is+Well+With+My+Soul&type=track&market=US&offset=15&limit=10",
    "offset" : 5,
    "previous" : "https://api.spotify.com/v1/search?query=It+Is+Well+With+My+Soul&type=track&market=US&offset=0&limit=10",
    "total" : 2092
  }
}