{
  "tracks" : {
    "href" : "https://api.spotify.com/v1/search?query=We+Have+This+Hope&type=track&market=US&offset=5&limit=10",
    "items" : [ {
      "album" : {
        "album_type" : "single",
        "artists" : [ {
          "external_urls" : {
            "spotify" : "https://open.spotify.com/artist/2T5lNSEsiDTwk8v864OOjG"
          },
          "href" : "https://api.spotify.com/v1/artists/2T5lNSEsiDTwk8v864OOjG",
          "id" : "2T5lNSEsiDTwk8v864OOjG",
          "name" : "Out of Ether",
          "type" : "artist",
          "uri" : "spotify:artist:2T5lNSEsiDTwk8v864OOjG"
        } ],
        "external_urls" : {
          "spotify" : "https://open.spotify.com/album/02XExKNgPWyM3GWV2cAULd"
        },
        "href" : "https://api.spotify.com/v1/albums/02XExKNgPWyM3GWV2cAULd",
        "id" : "02XExKNgPWyM3GWV2cAULd",
        "images" : [ {
          "height" : 640,
          "url" : "https://i.scdn.co/image/ab67616d0000b273fec78b1f03bce1ff846ffc7a",
          "width" : 640
        }, {
          "height" : 300,
          "url" : "https://i.scdn.co/image/ab67616d00001e02fec78b1f03bce1ff846ffc7a",
          "width" : 300
        }, {
          "height" : 64,
          "url" : "https://i.scdn.co/image/ab67616d00004851fec78b1f03bce1ff846ffc7a",
          "width" : 64
        } ],
        "name" : "Hope. We Wanted to Call This Song Together We Have Hope But Apparently the Graphic Has to Match the Title Otherwise Retailers Get Confused. Artists Should Be Able to Name Their Work the Way They Want.",
        "release_date" : "2015-08-27",
        "release_date_precision" : "day",
        "total_tracks" : 1,
        "type" : "album",
        "uri" : "spotify:album:02XExKNgPWyM3GWV2cAULd"
      },
      "artists" : [ {
        "external_urls" : {
          "spotify" : "https://open.spotify.com/artist/2T5lNSEsiDTwk8v864OOjG"
        },
        "href" : "https://api.spotify.com/v1/artists/2T5lNSEsiDTwk8v864OOjG",
        "id" : "2T5lNSEsiDTwk8v864OOjG",
        "name" : "Out of Ether",
        "type" : "artist",
        "uri" : "spotify:artist:2T5lNSEsiDTwk8v864OOjG"
      } ],
      "disc_number" : 1,
      "duration_ms" : 184080,
      "explicit" : false,
      "external_ids" : {
        "isrc" : "ushm21514703"
      },
      "external_urls" : {
        "spotify" : "https://open.spotify.com/track/6gw2z6vuLCYWwb9KyF1JZR"
      },
      "href" : "https://api.spotify.com/v1/tracks/6gw2z6vuLCYWwb9KyF1JZR",
      "id" : "6gw2z6vuLCYWwb9KyF1JZR",
      "is_local" : false,
      "is_playable" : true,
      "name" : "Hope. We Wanted to Call This Song Together We Have Hope but Apparently the Graphic Has to Match the Title Otherwise Retailers Get Confused. Artists Should Be Able to Name Their Work the Way They Want.",
      "popularity" : 5,
      "preview_url" : "https://p.scdn.co/mp3-preview/1b5d5416aa8d12b800f7fdc2273ef7d227b72260?cid=774b29d4f13844c495f206cafdad9c86",
      "track_number" : 1,
      "type" : "track",
      "uri" : "spotify:track:6gw2z6vuLCYWwb9KyF1JZR"
    }, {
      "album" : {
        "album_type" : "album",
        "artists" : [ {
          "external_urls" : {
            "spotify" : "https://open.spotify.com/artist/2EIieTKupbLWvUukcGbdFd"
          },
          "href" : "https://api.spotify.com/v1/artists/2EIieTKupbLWvUukcGbdFd",
          "id" : "2EIieTKupbLWvUukcGbdFd",
          "name" : "West Means Home",
          "type" : "artist",
          "uri" : "spotify:artist:2EIieTKupbLWvUukcGbdFd"
        } ],
        "external_urls" : {
          "spotify" : "https://open.spotify.com/album/3JTRwfRKx53OH1rwFT0riv"
        },
        "href" : "https://api.spotify.com/v1/albums/3JTRwfRKx53OH1rwFT0riv",
        "id" : "3JTRwfRKx53OH1rwFT0riv",
        "images" : [ {
          "height" : 640,
          "url" : "https://i.scdn.co/image/ab67616d0000b273d87ea393fd06bd6eba328950",
          "width" : 640
        }, {
          "height" : 300,
          "url" : "https://i.scdn.co/image/ab67616d00001e02d87ea393fd06bd6eba328950",
          "width" : 300
        }, {
          "height" : 64,
          "url" : "https://i.scdn.co/image/ab67616d00004851d87ea393fd06bd6eba328950",
          "width" : 64
        } ],
        "name" : "Hope This Reaches You",
        "release_date" : "2019-05-10",
        "release_date_precision" : "day",
        "total_tracks" : 10,
        "type" : "album",
        "uri" : "spotify:album:3JTRwfRKx53OH1rwFT0riv"
      },
      "artists" : [ {
        "external_urls" : {
          "spotify" : "https://open.spotify.com/artist/2EIieTKupbLWvUukcGbdFd"
        },
        "href" : "https://api.spotify.com/v1/artists/2EIieTKupbLWvUukcGbdFd",
        "id" : "2EIieTKupbLWvUukcGbdFd",
        "name" : "West Means Home",
        "type" : "artist",
        "uri" : "spotify:artist:2EIieTKupbLWvUukcGbdFd"
      } ],
      "disc_number" : 1,
      "duration_ms" : 187378,
      "explicit" : false,
      "external_ids" : {
        "isrc" : "QZ6NW1600226"
      },
      "external_urls" : {
        "spotify" : "https://open.spotify.com/track/4npisuY7Z9ATKa9QP7YRO1"
      },
      "href" : "https://api.spotify.com/v1/tracks/4npisuY7Z9ATKa9QP7YRO1",
      "id" : "4npisuY7Z9ATKa9QP7YRO1",
      "is_local" : false,
      "is_playable" : true,
      "name" : "What Do You Have",
      "popularity" : 4,
      "preview_url" : "https://p.scdn.co/mp3-preview/6febd3506a672b78c45cff0893d8a78a454f0500?cid=774b29d4f13844c495f206cafdad9c86",
      "track_number" : 4,
      "type" : "track",
      "uri" : "spotify:track:4npisuY7Z9ATKa9QP7YRO1"
    }, {
      "album" : {
        "album_type" : "album",
        "artists" : [ {
          "external_urls" : {
            "spotify" : "https://open.spotify.com/artist/2BbrCWwzC2IiXldLT3mDvq"
          },
          "href" : "https://api.spotify.com/v1/artists/2BbrCWwzC2IiXldLT3mDvq",
          "id" : "2BbrCWwzC2IiXldLT3mDvq",
          "name" : "Eric Ramage",
          "type" : "artist",
          "uri" : "spotify:artist:2BbrCWwzC2IiXldLT3mDvq"
        } ],
        "external_urls" : {
          "spotify" : "https://open.spotify.com/album/6z85tDfsISdLiLvr9oINEw"
        },
        "href" : "https://api.spotify.com/v1/albums/6z85tDfsISdLiLvr9oINEw",
        "id" : "6z85tDfsISdLiLvr9oINEw",
        "images" : [ {
          "height" : 640,
          "url" : "https://i.scdn.co/image/ab67616d0000b273351af28bb69f1c2d601bae2e",
          "width" : 640
        }, {
          "height" : 300,
          "url" : "https://i.scdn.co/image/ab67616d00001e02351af28bb69f1c2d601bae2e",
          "width" : 300
        }, {
          "height" : 64,
          "url" : "https://i.scdn.co/image/ab67616d00004851351af28bb69f1c2d601bae2e",
          "width" : 64
        } ],
        "name" : "What A Day (songs of hope)",
        "release_date" : "2006-11-09",
        "release_date_precision" : "day",
        "total_tracks" : 10,
        "type" : "album",
        "uri" : "spotify:album:6z85tDfsISdLiLvr9oINEw"
      },
      "artists" : [ {
        "external_urls" : {
          "spotify" : "https://open.spotify.com/artist/2BbrCWwzC2IiXldLT3mDvq"
        },
        "href" : "https://api.spotify.com/v1/artists/2BbrCWwzC2IiXldLT3mDvq",
        "id" : "2BbrCWwzC2IiXldLT3mDvq",
        "name" : "Eric Ramage",
        "type" : "artist",
        "uri" : "spotify:artist:2BbrCWwzC2IiXldLT3mDvq"
      } ],
      "disc_number" : 1,
      "duration_ms" : 327253,
      "explicit" : false,
      "external_ids" : {
        "isrc" : "ushm90648736"
      },
      "external_urls" : {
        "spotify" : "https://open.spotify.com/track/6bsbBVQPsvBJ8TgWBCmTKF"
      },
      "href" : "https://api.spotify.com/v1/tracks/6bsbBVQPsvBJ8TgWBCmTKF",
      "id" : "6bsbBVQPsvBJ8TgWBCmTKF",
      "is_local" : false,
      "is_playable" : true,
      "name" : "We Have This Hope",
      "popularity" : 0,
      "preview_url" : "https://p.scdn.co/mp3-preview/bfb32e7296bfb260dbcc5446a38a24dc5dc49eab?cid=774b29d4f13844c495f206cafdad9c86",
      "track_number" : 9,
      "type" : "track",
      "uri" : "spotify:track:6bsbBVQPsvBJ8TgWBCmTKF"
    }, {
      "album" : {
        "album_type" : "album",
        "artists" : [ {
          "external_urls" : {
            "spotify" : "https://open.spotify.com/artist/2SBkRdknrPvbRyFJ9rSKg1"
          },
          "href" : "https://api.spotify.com/v1/artists/2SBkRdknrPvbRyFJ9rSKg1",
          "id" : "2SBkRdknrPvbRyFJ9rSKg1",
          "name" : "Campagna",
          "type" : "artist",
          "uri" : "spotify:artist:2SBkRdknrPvbRyFJ9rSKg1"
        } ],
        "external_urls" : {
          "spotify" : "https://open.spotify.com/album/68kg5qbz3p1QFBPO2j0ZQY"
        },
        "href" : "https://api.spotify.com/v1/albums/68kg5qbz3p1QFBPO2j0ZQY",
        "id" : "68kg5qbz3p1QFBPO2j0ZQY",
        "images" : [ {
          "height" : 640,
          "url" : "https://i.scdn.co/image/ab67616d0000b27382b878d41a73c618ab545375",
          "width" : 640
        }, {
          "height" : 300,
          "url" : "https://i.scdn.co/image/ab67616d00001e0282b878d41a73c618ab545375",
          "width" : 300
        }, {
          "height" : 64,
          "url" : "https://i.scdn.co/image/ab67616d0000485182b878d41a73c618ab545375",
          "width" : 64
        } ],
        "name" : "Hello Love",
        "release_date" : "2020-04-18",
        "release_date_precision" : "day",
        "total_tracks" : 14,
        "type" : "album",
        "uri" : "spotify:album:68kg5qbz3p1QFBPO2j0ZQY"
      },
      "artists" : [ {
        "external_urls" : {
          "spotify" : "https://open.spotify.com/artist/2SBkRdknrPvbRyFJ9rSKg1"
        },
        "href" : "https://api.spotify.com/v1/artists/2SBkRdknrPvbRyFJ9rSKg1",
        "id" : "2SBkRdknrPvbRyFJ9rSKg1",
        "name" : "Campagna",
        "type" : "artist",
        "uri" : "spotify:artist:2SBkRdknrPvbRyFJ9rSKg1"
      } ],
      "disc_number" : 1,
      "duration_ms" : 224262,
      "explicit" : false,
      "external_ids" : {
        "isrc" : "QZES52029876"
      },
      "external_urls" : {
        "spotify" : "https://open.spotify.com/track/0EQf4n5pTBScSsD0bslnfz"
      },
      "href" : "https://api.spotify.com/v1/tracks/0EQf4n5pTBScSsD0bslnfz",
      "id" : "0EQf4n5pTBScSsD0bslnfz",
      "is_local" : false,
      "is_playable" : true,
      "name" : "We Have This Hope",
      "popularity" : 0,
      "preview_url" : "https://p.scdn.co/mp3-preview/1cb3719ddd9a5c17dc44d615d43ae41b3b8afea4?cid=774b29d4f13844c495f206cafdad9c86",
      "track_number" : 4,
      "type" : "track",
      "uri" : "spotify:track:0EQf4n5pTBScSsD0bslnfz"
    }, {
      "album" : {
        "album_type" : "album",
        "artists" : [ {
          "external_urls" : {
            "spotify" : "https://open.spotify.com/artist/0w3ffJZP9CvZhxguIfHJgE"
          },
          "href" : "https://api.spotify.com/v1/artists/0w3ffJZP9CvZhxguIfHJgE",
          "id" : "0w3ffJZP9CvZhxguIfHJgE",
          "name" : "Message of Hope",
          "type" : "artist",
          "uri" : "spotify:artist:0w3ffJZP9CvZhxguIfHJgE"
        } ],
        "external_urls" : {
          "spotify" : "https://open.spotify.com/album/42NDZagjp97Ogt6LiFJLre"
        },
        "href" : "https://api.spotify.com/v1/albums/42NDZagjp97Ogt6LiFJLre",
        "id" : "42NDZagjp97Ogt6LiFJLre",
        "images" : [ {
          "height" : 640,
          "url" : "https://i.scdn.co/image/ab67616d0000b2735c21ace5ced2a24e4586cb5c",
          "width" : 640
        }, {
          "height" : 300,
          "url" : "https://i.scdn.co/image/ab67616d00001e025c21ace5ced2a24e4586cb5c",
          "width" : 300
        }, {
          "height" : 64,
          "url" : "https://i.scdn.co/image/ab67616d000048515c21ace5ced2a24e4586cb5c",
          "width" : 64
        } ],
        "name" : "It's a New Day Dawning",
        "release_date" : "2019-04-06",
        "release_date_precision" : "day",
        "total_tracks" : 14,
        "type" : "album",
        "uri" : "spotify:album:42NDZagjp97Ogt6LiFJLre"
      },
      "artists" : [ {
        "external_urls" : {
          "spotify" : "https://open.spotify.com/artist/0w3ffJZP9CvZhxguIfHJgE"
        },
        "href" : "https://api.spotify.com/v1/artists/0w3ffJZP9CvZhxguIfHJgE",
        "id" : "0w3ffJZP9CvZhxguIfHJgE",
        "name" : "Message of Hope",
        "type" : "artist",
        "uri" : "spotify:artist:0w3ffJZP9CvZhxguIfHJgE"
      } ],
      "disc_number" : 1,
      "duration_ms" : 140189,
      "explicit" : false,
      "external_ids" : {
        "isrc" : "usdy42075256"
      },
      "external_urls" : {
        "spotify" : "https://open.spotify.com/track/2F69Hhf9LOPkmCJQoWYple"
      },
      "href" : "https://api.spotify.com/v1/tracks/2F69Hhf9LOPkmCJQoWYple",
      "id" : "2F69Hhf9LOPkmCJQoWYple",
      "is_local" : false,
      "is_playable" : true,
      "name" : "We Have This Hope",
      "popularity" : 0,
      "preview_url" : "https://p.scdn.co/mp3-preview/d88c4d3dbf407d47dee0021924a82666f6a7d20b?cid=774b29d4f13844c495f206cafdad9c86",
      "track_number" : 14,
      "type" : "track",
      "uri" : "spotify:track:2F69Hhf9LOPkmCJQoWYple"
    }, {
      "album" : {
        "album_type" : "album",
        "artists" : [ {
          "external_urls" : {
            "spotify" : "https://open.spotify.com/artist/6iSzU9C3pMPAY4iraLTgSl"
          },
          "href" : "https://api.spotify.com/v1/artists/6iSzU9C3pMPAY4iraLTgSl",
          "id" : "6iSzU9C3pMPAY4iraLTgSl",
          "name" : "One Voice Choir",
          "type" : "artist",
          "uri" : "spotify:artist:6iSzU9C3pMPAY4iraLTgSl"
        } ],
        "external_urls" : {
          "spotify" : "https://open.spotify.com/album/6GkLexhnCrD6Yyp1HVKyUa"
        },
        "href" : "https://api.spotify.com/v1/albums/6GkLexhnCrD6Yyp1HVKyUa",
        "id" : "6GkLexhnCrD6Yyp1HVKyUa",
        "images" : [ {
          "height" : 640,
          "url" : "https://i.scdn.co/image/ab67616d0000b273b189c3f082867af2d8aaf825",
          "width" : 640
        }, {
          "height" : 300,
          "url" : "https://i.scdn.co/image/ab67616d00001e02b189c3f082867af2d8aaf825",
          "width" : 300
        }, {
          "height" : 64,
          "url" : "https://i.scdn.co/image/ab67616d00004851b189c3f082867af2d8aaf825",
          "width" : 64
        } ],
        "name" : "We Have This Hope",
        "release_date" : "2017-02-22",
        "release_date_precision" : "day",
        "total_tracks" : 12,
        "type" : "album",
        "uri" : "spotify:album:6GkLexhnCrD6Yyp1HVKyUa"
      },
      "artists" : [ {
        "external_urls" : {
          "spotify" : "https://open.spotify.com/artist/6iSzU9C3pMPAY4iraLTgSl"
        },
        "href" : "https://api.spotify.com/v1/artists/6iSzU9C3pMPAY4iraLTgSl",
        "id" : "6iSzU9C3pMPAY4iraLTgSl",
        "name" : "One Voice Choir",
        "type" : "artist",
        "uri" : "spotify:artist:6iSzU9C3pMPAY4iraLTgSl"
      } ],
      "disc_number" : 1,
      "duration_ms" : 188160,
      "explicit" : false,
      "external_ids" : {
        "isrc" : "QM4TW1786565"
      },
      "external_urls" : {
        "spotify" : "https://open.spotify.com/track/3NspvblViEkvmlh1atMqPF"
      },
      "href" : "https://api.spotify.com/v1/tracks/3NspvblViEkvmlh1atMqPF",
      "id" : "3NspvblViEkvmlh1atMqPF",
      "is_local" : false,
      "is_playable" : true,
      "name" : "We Have This Hope",
      "popularity" : 2,
      "preview_url" : "https://p.scdn.co/mp3-preview/42457085fac797326147ad1def9560b5c76e8494?cid=774b29d4f13844c495f206cafdad9c86",
      "track_number" : 1,
      "type" : "track",
      "uri" : "spotify:track:3NspvblViEkvmlh1atMqPF"
    }, {
      "album" : {
        "album_type" : "album",
        "artists" : [ {
          "external_urls" : {
            "spotify" : "https://open.spotify.com/artist/7t2MPY3YmHA37Vwk8efll1"
          },
          "href" : "https://api.spotify.com/v1/artists/7t2MPY3YmHA37Vwk8efll1",
          "id" : "7t2MPY3YmHA37Vwk8efll1",
          "name" : "Thomas Mayhew",
          "type" : "artist",
          "uri" : "spotify:artist:7t2MPY3YmHA37Vwk8efll1"
        } ],
        "external_urls" : {
          "spotify" : "https://open.spotify.com/album/1z4AfNUd9o4UcP3F9zqGmF"
        },
        "href" : "https://api.spotify.com/v1/albums/1z4AfNUd9o4UcP3F9zqGmF",
        "id" : "1z4AfNUd9o4UcP3F9zqGmF",
        "images" : [ {
          "height" : 640,
          "url" : "https://i.scdn.co/image/ab67616d0000b273c3ab0fd575df924a69b285ec",
          "width" : 640
        }, {
          "height" : 300,
          "url" : "https://i.scdn.co/image/ab67616d00001e02c3ab0fd575df924a69b285ec",
          "width" : 300
        }, {
          "height" : 64,
          "url" : "https://i.scdn.co/image/ab67616d00004851c3ab0fd575df924a69b285ec",
          "width" : 64
        } ],
        "name" : "Hymns of Worship",
        "release_date" : "2018-07-26",
        "release_date_precision" : "day",
        "total_tracks" : 12,
        "type" : "album",
        "uri" : "spotify:album:1z4AfNUd9o4UcP3F9zqGmF"
      },
      "artists" : [ {
        "external_urls" : {
          "spotify" : "https://open.spotify.com/artist/7t2MPY3YmHA37Vwk8efll1"
        },
        "href" : "https://api.spotify.com/v1/artists/7t2MPY3YmHA37Vwk8efll1",
        "id" : "7t2MPY3YmHA37Vwk8efll1",
        "name" : "Thomas Mayhew",
        "type" : "artist",
        "uri" : "spotify:artist:7t2MPY3YmHA37Vwk8efll1"
      } ],
      "disc_number" : 1,
      "duration_ms" : 94354,
      "explicit" : false,
      "external_ids" : {
        "isrc" : "QZDA71824308"
      },
      "external_urls" : {
        "spotify" : "https://open.spotify.com/track/7zfDNvyQ7fdJcJWngyiWbU"
      },
      "href" : "https://api.spotify.com/v1/tracks/7zfDNvyQ7fdJcJWngyiWbU",
      "id" : "7zfDNvyQ7fdJcJWngyiWbU",
      "is_local" : false,
      "is_playable" : true,
      "name" : "We Have This Hope",
      "popularity" : 0,
      "preview_url" : "https://p.scdn.co/mp3-preview/b7094ff48fb76c15ae97783f2d98e4f7fe694b75?cid=774b29d4f13844c495f206cafdad9c86",
      "track_number" : 12,
      "type" : "track",
      "uri" : "spotify:track:7zfDNvyQ7fdJcJWngyiWbU"
    }, {
      "album" : {
        "album_type" : "album",
        "artists" : [ {
          "external_urls" : {
            "spotify" : "https://open.spotify.com/artist/099N3emMWAZM8vDA9IlqlK"
          },
          "href" : "https://api.spotify.com/v1/artists/099N3emMWAZM8vDA9IlqlK",
          "id" : "099N3emMWAZM8vDA9IlqlK",
          "name" : "With Praise",
          "type" : "artist",
          "uri" : "spotify:artist:099N3emMWAZM8vDA9IlqlK"
        } ],
        "external_urls" : {
          "spotify" : "https://open.spotify.com/album/6bI50fVCRWN5RDVzoY274s"
        },
        "href" : "https://api.spotify.com/v1/albums/6bI50fVCRWN5RDVzoY274s",
        "id" : "6bI50fVCRWN5RDVzoY274s",
        "images" : [ {
          "height" : 640,
          "url" : "https://i.scdn.co/image/ab67616d0000b27330ce26d1bc2c6290a50db5fa",
          "width" : 640
        }, {
          "height" : 300,
          "url" : "https://i.scdn.co/image/ab67616d00001e0230ce26d1bc2c6290a50db5fa",
          "width" : 300
        }, {
          "height" : 64,
          "url" : "https://i.scdn.co/image/ab67616d0000485130ce26d1bc2c6290a50db5fa",
          "width" : 64
        } ],
        "name" : "Classic With Praise",
        "release_date" : "2003-01-01",
        "release_date_precision" : "day",
        "total_tracks" : 11,
        "type" : "album",
        "uri" : "spotify:album:6bI50fVCRWN5RDVzoY274s"
      },
      "artists" : [ {
        "external_urls" : {
          "spotify" : "https://open.spotify.com/artist/099N3emMWAZM8vDA9IlqlK"
        },
        "href" : "https://api.spotify.com/v1/artists/099N3emMWAZM8vDA9IlqlK",
        "id" : "099N3emMWAZM8vDA9IlqlK",
        "name" : "With Praise",
        "type" : "artist",
        "uri" : "spotify:artist:099N3emMWAZM8vDA9IlqlK"
      } ],
      "disc_number" : 1,
      "duration_ms" : 104920,
      "explicit" : false,
      "external_ids" : {
        "isrc" : "uscgj0542724"
      },
      "external_urls" : {
        "spotify" : "https://open.spotify.com/track/5hi2avzeF6OA1iTgGqbhUK"
      },
      "href" : "https://api.spotify.com/v1/tracks/5hi2avzeF6OA1iTgGqbhUK",
      "id" : "5hi2avzeF6OA1iTgGqbhUK",
      "is_local" : false,
      "is_playable" : true,
      "name" : "We Have This Hope",
      "popularity" : 3,
      "preview_url" : "https://p.scdn.co/mp3-preview/aabb503c83724041af190f5be09cd4ae567a7227?cid=774b29d4f13844c495f206cafdad9c86",
      "track_number" : 11,
      "type" : "track",
      "uri" : "spotify:track:5hi2avzeF6OA1iTgGqbhUK"
    }, {
      "album" : {
        "album_type" : "album",
        "artists" : [ {
          "external_urls" : {
            "spotify" : "https://open.spotify.com/artist/3PUoQr9GO6cH44PU2TAeSw"
          },
          "href" : "https://api.spotify.com/v1/artists/3PUoQr9GO6cH44PU2TAeSw",
          "id" : "3PUoQr9GO6cH44PU2TAeSw",
          "name" : "Barbara Irene Bennett",
          "type" : "artist",
          "uri" : "spotify:artist:3PUoQr9GO6cH44PU2TAeSw"
        } ],
        "external_urls" : {
          "spotify" : "https://open.spotify.com/album/4jIfEJlvTzOh37olWVXjnI"
        },
        "href" : "https://api.spotify.com/v1/albums/4jIfEJlvTzOh37olWVXjnI",
        "id" : "4jIfEJlvTzOh37olWVXjnI",
        "images" : [ {
          "height" : 640,
          "url" : "https://i.scdn.co/image/ab67616d0000b273c8eef6d855ef4bccfaebc2d7",
          "width" : 640
        }, {
          "height" : 300,
          "url" : "https://i.scdn.co/image/ab67616d00001e02c8eef6d855ef4bccfaebc2d7",
          "width" : 300
        }, {
          "height" : 64,
          "url" : "https://i.scdn.co/image/ab67616d00004851c8eef6d855ef4bccfaebc2d7",
          "width" : 64
        } ],
        "name" : "Almost Home: Hymns on the Second Coming of Jesus",
        "release_date" : "2018-12-08",
        "release_date_precision" : "day",
        "total_tracks" : 11,
        "type" : "album",
        "uri" : "spotify:album:4jIfEJlvTzOh37olWVXjnI"
      },
      "artists" : [ {
        "external_urls" : {
          "spotify" : "https://open.spotify.com/artist/3PUoQr9GO6cH44PU2TAeSw"
        },
        "href" : "https://api.spotify.com/v1/artists/3PUoQr9GO6cH44PU2TAeSw",
        "id" : "3PUoQr9GO6cH44PU2TAeSw",
        "name" : "Barbara Irene Bennett",
        "type" : "artist",
        "uri" : "spotify:artist:3PUoQr9GO6cH44PU2TAeSw"
      } ],
      "disc_number" : 1,
      "duration_ms" : 321155,
      "explicit" : false,
      "external_ids" : {
        "isrc" : "usl4q1883339"
      },
      "external_urls" : {
        "spotify" : "https://open.spotify.com/track/6sJEPoNxKuTQrOzyjDfxsX"
      },
      "href" : "https://api.spotify.com/v1/tracks/6sJEPoNxKuTQrOzyjDfxsX",
      "id" : "6sJEPoNxKuTQrOzyjDfxsX",
      "is_local" : false,
      "is_playable" : true,
      "name" : "We Have This Hope",
      "popularity" : 0,
      "preview_url" : "https://p.scdn.co/mp3-preview/b9c9197ad01d9e6bb4dc1b94140cf26686a92a5c?cid=774b29d4f13844c495f206cafdad9c86",
      "track_number" : 11,
      "type" : "track",
      "uri" : "spotify:track:6sJEPoNxKuTQrOzyjDfxsX"
    }, {
      "album" : {
        "album_type" : "album",
        "artists" : [ {
          "external_urls" : {
            "spotify" : "https://open.spotify.com/artist/3kXtcpG8ON4X8xT4FVNzg3"
          },
          "href" : "https://api.spotify.com/v1/artists/3kXtcpG8ON4X8xT4FVNzg3",
          "id" : "3kXtcpG8ON4X8xT4FVNzg3",
          "name" : "Lawrence Sumpter",
          "type" : "artist",
          "uri" : "spotify:artist:3kXtcpG8ON4X8xT4FVNzg3"
        } ],
        "external_urls" : {
          "spotify" : "https://open.spotify.com/album/6L65a6ziHrt7YyPHF9kZ2h"
        },
        "href" : "https://api.spotify.com/v1/albums/6L65a6ziHrt7YyPHF9kZ2h",
        "id" : "6L65a6ziHrt7YyPHF9kZ2h",
        "images" : [ {
          "height" : 640,
          "url" : "https://i.scdn.co/image/ab67616d0000b2737be1256e5f418e67e9b6b73a",
          "width" : 640
        }, {
          "height" : 300,
          "url" : "https://i.scdn.co/image/ab67616d00001e027be1256e5f418e67e9b6b73a",
          "width" : 300
        }, {
          "height" : 64,
          "url" : "https://i.scdn.co/image/ab67616d000048517be1256e5f418e67e9b6b73a",
          "width" : 64
        } ],
        "name" : "Creation",
        "release_date" : "2009-09-23",
        "release_date_precision" : "day",
        "total_tracks" : 12,
        "type" : "album",
        "uri" : "spotify:album:6L65a6ziHrt7YyPHF9kZ2h"
      },
      "artists" : [ {
        "external_urls" : {
          "spotify" : "https://open.spotify.com/artist/3kXtcpG8ON4X8xT4FVNzg3"
        },
        "href" : "https://api.spotify.com/v1/artists/3kXtcpG8ON4X8xT4FVNzg3",
        "id" : "3kXtcpG8ON4X8xT4FVNzg3",
        "name" : "Lawrence Sumpter",
        "type" : "artist",
        "uri" : "spotify:artist:3kXtcpG8ON4X8xT4FVNzg3"
      } ],
      "disc_number" : 1,
      "duration_ms" : 158690,
      "explicit" : false,
      "external_ids" : {
        "isrc" : "USTCZ0952657"
      },
      "external_urls" : {
        "spotify" : "https://open.spotify.com/track/0yIBnEdEOeVWGWwEEbeWwB"
      },
      "href" : "https://api.spotify.com/v1/tracks/0yIBnEdEOeVWGWwEEbeWwB",
      "id" : "0yIBnEdEOeVWGWwEEbeWwB",
      "is_local" : false,
      "is_playable" : true,
      "name" : "We Have This Hope",
      "popularity" : 0,
      "preview_url" : "https://p.scdn.co/mp3-preview/b10011260f100ac60872f4fcc7bf6c8a903a65dd?cid=774b29d4f13844c495f206cafdad9c86",
      "track_number" : 7,
      "type" : "track",
      "uri" : "spotify:track:0yIBnEdEOeVWGWwEEbeWwB"
    } ],
    "limit" : 10,
    "next" : "https://api.spotify.com/v1/search?query=We+Have+This+Hope&type=track&market=US&offset=15&limit=10",
    "offset" : 5,
    "previous" : "https://api.spotify.com/v1/search?query=We+Have+This+Hope&type=track&market=US&offset=0&limit=10",
    "total" : 68
  }
}