{
  "tracks" : {
    "href" : "https://api.spotify.com/v1/search?query=I+Come+With+Joy&type=track&market=US&offset=5&limit=10",
    "items" : [ {
      "album" : {
        "album_type" : "album",
        "artists" : [ {
          "external_urls" : {
            "spotify" : "https://open.spotify.com/artist/3meOVPAu9nM9BBGWSnaucj"
          },
          "href" : "https://api.spotify.com/v1/artists/3meOVPAu9nM9BBGWSnaucj",
          "id" : "3meOVPAu9nM9BBGWSnaucj",
          "name" : "Scripture Memory Songs",
          "type" : "artist",
          "uri" : "spotify:artist:3meOVPAu9nM9BBGWSnaucj"
        } ],
        "external_urls" : {
          "spotify" : "https://open.spotify.com/album/4i2OYQ04S2rNN1UfHMBZfC"
        },
        "href" : "https://api.spotify.com/v1/albums/4i2OYQ04S2rNN1UfHMBZfC",
        "id" : "4i2OYQ04S2rNN1UfHMBZfC",
        "images" : [ {
          "height" : 640,
          "url" : "https://i.scdn.co/image/ab67616d0000b273140dacb649e7cc56ec47df5e",
          "width" : 640
        }, {
          "height" : 300,
          "url" : "https://i.scdn.co/image/ab67616d00001e02140dacb649e7cc56ec47df5e",
          "width" : 300
        }, {
          "height" : 64,
          "url" : "https://i.scdn.co/image/ab67616d00004851140dacb649e7cc56ec47df5e",
          "width" : 64
        } ],
        "name" : "Integrity Music's Scripture Memory Songs: Strength That Endures",
        "release_date" : "1994-01-01",
        "release_date_precision" : "day",
        "total_tracks" : 10,
        "type" : "album",
        "uri" : "spotify:album:4i2OYQ04S2rNN1UfHMBZfC"
      },
      "artists" : [ {
        "external_urls" : {
          "spotify" : "https://open.spotify.com/artist/3meOVPAu9nM9BBGWSnaucj"
        },
        "href" : "https://api.spotify.com/v1/artists/3meOVPAu9nM9BBGWSnaucj",
        "id" : "3meOVPAu9nM9BBGWSnaucj",
        "name" : "Scripture Memory Songs",
        "type" : "artist",
        "uri" : "spotify:artist:3meOVPAu9nM9BBGWSnaucj"
      } ],
      "disc_number" : 1,
      "duration_ms" : 238293,
      "explicit" : false,
      "external_ids" : {
        "isrc" : "US25L0801391"
      },
      "external_urls" : {
        "spotify" : "https://open.spotify.com/track/799i0kTTvICNU6f1KQgLFe"
      },
      "href" : "https://api.spotify.com/v1/tracks/799i0kTTvICNU6f1KQgLFe",
      "id" : "799i0kTTvICNU6f1KQgLFe",
      "is_local" : false,
      "is_playable" : true,
      "name" : "Joy Comes With the Morning (Psalm 120:1, 30:5 – RSV)",
      "popularity" : 3,
      "preview_url" : "https://p.scdn.co/mp3-preview/d24f7c1a3b68d2293c8033003b97dc6355d80590?cid=774b29d4f13844c495f206cafdad9c86",
      "track_number" : 3,
      "type" : "track",
      "uri" : "spotify:track:799i0kTTvICNU6f1KQgLFe"
    }, {
      "album" : {
        "album_type" : "album",
        "artists" : [ {
          "external_urls" : {
            "spotify" : "https://open.spotify.com/artist/0gEPtMfgzgBfqYDBlgyCww"
          },
          "href" : "https://api.spotify.com/v1/artists/0gEPtMfgzgBfqYDBlgyCww",
          "id" : "0gEPtMfgzgBfqYDBlgyCww",
          "name" : "Peter Piano",
          "type" : "artist",
          "uri" : "spotify:artist:0gEPtMfgzgBfqYDBlgyCww"
        } ],
        "external_urls" : {
          "spotify" : "https://open.spotify.com/album/2xYkcMIJaAAJa6LYAgNws0"
        },
        "href" : "https://api.spotify.com/v1/albums/2xYkcMIJaAAJa6LYAgNws0",
        "id" : "2xYkcMIJaAAJa6LYAgNws0",
        "images" : [ {
          "height" : 640,
          "url" : "https://i.scdn.co/image/ab67616d0000b273d521dd0e791e3b0624cea5a7",
          "width" : 640
        }, {
          "height" : 300,
          "url" : "https://i.scdn.co/image/ab67616d00001e02d521dd0e791e3b0624cea5a7",
          "width" : 300
        }, {
          "height" : 64,
          "url" : "https://i.scdn.co/image/ab67616d00004851d521dd0e791e3b0624cea5a7",
          "width" : 64
        } ],
        "name" : "I Come With Joy - Music For Stress",
        "release_date" : "2018-05-18",
        "release_date_precision" : "day",
        "total_tracks" : 50,
        "type" : "album",
        "uri" : "spotify:album:2xYkcMIJaAAJa6LYAgNws0"
      },
      "artists" : [ {
        "external_urls" : {
          "spotify" : "https://open.spotify.com/artist/0gEPtMfgzgBfqYDBlgyCww"
        },
        "href" : "https://api.spotify.com/v1/artists/0gEPtMfgzgBfqYDBlgyCww",
        "id" : "0gEPtMfgzgBfqYDBlgyCww",
        "name" : "Peter Piano",
        "type" : "artist",
        "uri" : "spotify:artist:0gEPtMfgzgBfqYDBlgyCww"
      } ],
      "disc_number" : 1,
      "duration_ms" : 300000,
      "explicit" : false,
      "external_ids" : {
        "isrc" : "QZ22B1948434"
      },
      "external_urls" : {
        "spotify" : "https://open.spotify.com/track/1mG4bzachv3uXYx28H3fBu"
      },
      "href" : "https://api.spotify.com/v1/tracks/1mG4bzachv3uXYx28H3fBu",
      "id" : "1mG4bzachv3uXYx28H3fBu",
      "is_local" : false,
      "is_playable" : true,
      "name" : "Reagan's Chest",
      "popularity" : 5,
      "preview_url" : "https://p.scdn.co/mp3-preview/7b25629c3d5ada28d7777098d9d772380fc8011c?cid=774b29d4f13844c495f206cafdad9c86",
      "track_number" : 25,
      "type" : "track",
      "uri" : "spotify:track:1mG4bzachv3uXYx28H3fBu"
    }, {
      "album" : {
        "album_type" : "album",
        "artists" : [ {
          "external_urls" : {
            "spotify" : "https://open.spotify.com/artist/3PEIhzSd3182o9Xoj6kM7O"
          },
          "href" : "https://api.spotify.com/v1/artists/3PEIhzSd3182o9Xoj6kM7O",
          "id" : "3PEIhzSd3182o9Xoj6kM7O",
          "name" : "Alex Beaton",
          "type" : "artist",
          "uri" : "spotify:artist:3PEIhzSd3182o9Xoj6kM7O"
        } ],
        "external_urls" : {
          "spotify" : "https://open.spotify.com/album/1KQAU5TFFIjnHlPHATBg5L"
        },
        "href" : "https://api.spotify.com/v1/albums/1KQAU5TFFIjnHlPHATBg5L",
        "id" : "1KQAU5TFFIjnHlPHATBg5L",
        "images" : [ {
          "height" : 640,
          "url" : "https://i.scdn.co/image/ab67616d0000b273b7ac63cdca534544ea33c095",
          "width" : 640
        }, {
          "height" : 300,
          "url" : "https://i.scdn.co/image/ab67616d00001e02b7ac63cdca534544ea33c095",
          "width" : 300
        }, {
          "height" : 64,
          "url" : "https://i.scdn.co/image/ab67616d00004851b7ac63cdca534544ea33c095",
          "width" : 64
        } ],
        "name" : "Songs Of Praise, Pipes Of Peace",
        "release_date" : "1994-08-01",
        "release_date_precision" : "day",
        "total_tracks" : 10,
        "type" : "album",
        "uri" : "spotify:album:1KQAU5TFFIjnHlPHATBg5L"
      },
      "artists" : [ {
        "external_urls" : {
          "spotify" : "https://open.spotify.com/artist/3PEIhzSd3182o9Xoj6kM7O"
        },
        "href" : "https://api.spotify.com/v1/artists/3PEIhzSd3182o9Xoj6kM7O",
        "id" : "3PEIhzSd3182o9Xoj6kM7O",
        "name" : "Alex Beaton",
        "type" : "artist",
        "uri" : "spotify:artist:3PEIhzSd3182o9Xoj6kM7O"
      } ],
      "disc_number" : 1,
      "duration_ms" : 202663,
      "explicit" : false,
      "external_ids" : {
        "isrc" : "GBPQM1400208"
      },
      "external_urls" : {
        "spotify" : "https://open.spotify.com/track/0860WWIncA2h6oNd2Oo060"
      },
      "href" : "https://api.spotify.com/v1/tracks/0860WWIncA2h6oNd2Oo060",
      "id" : "0860WWIncA2h6oNd2Oo060",
      "is_local" : false,
      "is_playable" : true,
      "name" : "I Come With Joy",
      "popularity" : 0,
      "preview_url" : "https://p.scdn.co/mp3-preview/bd551650499c75f618f6fd3cc6f04e313b61978a?cid=774b29d4f13844c495f206cafdad9c86",
      "track_number" : 2,
      "type" : "track",
      "uri" : "spotify:track:0860WWIncA2h6oNd2Oo060"
    }, {
      "album" : {
        "album_type" : "album",
        "artists" : [ {
          "external_urls" : {
            "spotify" : "https://open.spotify.com/artist/56BgoBELdr6hntpQoVRatJ"
          },
          "href" : "https://api.spotify.com/v1/artists/56BgoBELdr6hntpQoVRatJ",
          "id" : "56BgoBELdr6hntpQoVRatJ",
          "name" : "Eric Rigler",
          "type" : "artist",
          "uri" : "spotify:artist:56BgoBELdr6hntpQoVRatJ"
        }, {
          "external_urls" : {
            "spotify" : "https://open.spotify.com/artist/40pDwE1lyy0GdqrMYzI1bx"
          },
          "href" : "https://api.spotify.com/v1/artists/40pDwE1lyy0GdqrMYzI1bx",
          "id" : "40pDwE1lyy0GdqrMYzI1bx",
          "name" : "Scarlet Rivera, Tommy Eyre",
          "type" : "artist",
          "uri" : "spotify:artist:40pDwE1lyy0GdqrMYzI1bx"
        } ],
        "external_urls" : {
          "spotify" : "https://open.spotify.com/album/3BqrHwLHXUrM714astkRj1"
        },
        "href" : "https://api.spotify.com/v1/albums/3BqrHwLHXUrM714astkRj1",
        "id" : "3BqrHwLHXUrM714astkRj1",
        "images" : [ {
          "height" : 640,
          "url" : "https://i.scdn.co/image/ab67616d0000b273b3a45b3a3aab6db9ef71da60",
          "width" : 640
        }, {
          "height" : 300,
          "url" : "https://i.scdn.co/image/ab67616d00001e02b3a45b3a3aab6db9ef71da60",
          "width" : 300
        }, {
          "height" : 64,
          "url" : "https://i.scdn.co/image/ab67616d00004851b3a45b3a3aab6db9ef71da60",
          "width" : 64
        } ],
        "name" : "Merry Christmas from Ireland and Scotland",
        "release_date" : "2015-08-06",
        "release_date_precision" : "day",
        "total_tracks" : 32,
        "type" : "album",
        "uri" : "spotify:album:3BqrHwLHXUrM714astkRj1"
      },
      "artists" : [ {
        "external_urls" : {
          "spotify" : "https://open.spotify.com/artist/56BgoBELdr6hntpQoVRatJ"
        },
        "href" : "https://api.spotify.com/v1/artists/56BgoBELdr6hntpQoVRatJ",
        "id" : "56BgoBELdr6hntpQoVRatJ",
        "name" : "Eric Rigler",
        "type" : "artist",
        "uri" : "spotify:artist:56BgoBELdr6hntpQoVRatJ"
      }, {
        "external_urls" : {
          "spotify" : "https://open.spotify.com/artist/5FjN7dLruHKgrSDbKtVCvx"
        },
        "href" : "https://api.spotify.com/v1/artists/5FjN7dLruHKgrSDbKtVCvx",
        "id" : "5FjN7dLruHKgrSDbKtVCvx",
        "name" : "Tommy Eyre",
        "type" : "artist",
        "uri" : "spotify:artist:5FjN7dLruHKgrSDbKtVCvx"
      } ],
      "disc_number" : 1,
      "duration_ms" : 259973,
      "explicit" : false,
      "external_ids" : {
        "isrc" : "DK5C50000886"
      },
      "external_urls" : {
        "spotify" : "https://open.spotify.com/track/6JpZ3AiSkSfpkSagYUPPc1"
      },
      "href" : "https://api.spotify.com/v1/tracks/6JpZ3AiSkSfpkSagYUPPc1",
      "id" : "6JpZ3AiSkSfpkSagYUPPc1",
      "is_local" : false,
      "is_playable" : true,
      "name" : "I Come With Joy",
      "popularity" : 0,
      "preview_url" : "https://p.scdn.co/mp3-preview/8f60dd992f18abc677a3dc4c6493306c0d1a72bd?cid=774b29d4f13844c495f206cafdad9c86",
      "track_number" : 25,
      "type" : "track",
      "uri" : "spotify:track:6JpZ3AiSkSfpkSagYUPPc1"
    }, {
      "album" : {
        "album_type" : "album",
        "artists" : [ {
          "external_urls" : {
            "spotify" : "https://open.spotify.com/artist/7depIg1kB9Vvwgc2QKXi5U"
          },
          "href" : "https://api.spotify.com/v1/artists/7depIg1kB9Vvwgc2QKXi5U",
          "id" : "7depIg1kB9Vvwgc2QKXi5U",
          "name" : "Russ Tapp",
          "type" : "artist",
          "uri" : "spotify:artist:7depIg1kB9Vvwgc2QKXi5U"
        } ],
        "external_urls" : {
          "spotify" : "https://open.spotify.com/album/2qFsEh5PDaUPYfmF7ZTTId"
        },
        "href" : "https://api.spotify.com/v1/albums/2qFsEh5PDaUPYfmF7ZTTId",
        "id" : "2qFsEh5PDaUPYfmF7ZTTId",
        "images" : [ {
          "height" : 640,
          "url" : "https://i.scdn.co/image/ab67616d0000b27307bc2bd805e93b26af8563d8",
          "width" : 640
        }, {
          "height" : 300,
          "url" : "https://i.scdn.co/image/ab67616d00001e0207bc2bd805e93b26af8563d8",
          "width" : 300
        }, {
          "height" : 64,
          "url" : "https://i.scdn.co/image/ab67616d0000485107bc2bd805e93b26af8563d8",
          "width" : 64
        } ],
        "name" : "Healing Presence: Instrumental Music for the Weary Soul",
        "release_date" : "2016-10-01",
        "release_date_precision" : "day",
        "total_tracks" : 10,
        "type" : "album",
        "uri" : "spotify:album:2qFsEh5PDaUPYfmF7ZTTId"
      },
      "artists" : [ {
        "external_urls" : {
          "spotify" : "https://open.spotify.com/artist/7depIg1kB9Vvwgc2QKXi5U"
        },
        "href" : "https://api.spotify.com/v1/artists/7depIg1kB9Vvwgc2QKXi5U",
        "id" : "7depIg1kB9Vvwgc2QKXi5U",
        "name" : "Russ Tapp",
        "type" : "artist",
        "uri" : "spotify:artist:7depIg1kB9Vvwgc2QKXi5U"
      } ],
      "disc_number" : 1,
      "duration_ms" : 300706,
      "explicit" : false,
      "external_ids" : {
        "isrc" : "ushm81602978"
      },
      "external_urls" : {
        "spotify" : "https://open.spotify.com/track/6ywJwWqM7NOFJlerO2Aa41"
      },
      "href" : "https://api.spotify.com/v1/tracks/6ywJwWqM7NOFJlerO2Aa41",
      "id" : "6ywJwWqM7NOFJlerO2Aa41",
      "is_local" : false,
      "is_playable" : true,
      "name" : "I Come with Joy",
      "popularity" : 0,
      "preview_url" : "https://p.scdn.co/mp3-preview/27fbc924ade4dfcbad614d2f88f5d19db1b7b08c?cid=774b29d4f13844c495f206cafdad9c86",
      "track_number" : 4,
      "type" : "track",
      "uri" : "spotify:track:6ywJwWqM7NOFJlerO2Aa41"
    }, {
      "album" : {
        "album_type" : "compilation",
        "artists" : [ {
          "external_urls" : {
            "spotify" : "https://open.spotify.com/artist/57l9tRCTqM7VAkwWr1avYL"
          },
          "href" : "https://api.spotify.com/v1/artists/57l9tRCTqM7VAkwWr1avYL",
          "id" : "57l9tRCTqM7VAkwWr1avYL",
          "name" : "Eric Rigler & Tommy Eyre",
          "type" : "artist",
          "uri" : "spotify:artist:57l9tRCTqM7VAkwWr1avYL"
        } ],
        "external_urls" : {
          "spotify" : "https://open.spotify.com/album/7E7gMMnUbZLtTrljzIT5cU"
        },
        "href" : "https://api.spotify.com/v1/albums/7E7gMMnUbZLtTrljzIT5cU",
        "id" : "7E7gMMnUbZLtTrljzIT5cU",
        "images" : [ {
          "height" : 640,
          "url" : "https://i.scdn.co/image/ab67616d0000b27365b1c534479b8aeaa13bd735",
          "width" : 640
        }, {
          "height" : 300,
          "url" : "https://i.scdn.co/image/ab67616d00001e0265b1c534479b8aeaa13bd735",
          "width" : 300
        }, {
          "height" : 64,
          "url" : "https://i.scdn.co/image/ab67616d0000485165b1c534479b8aeaa13bd735",
          "width" : 64
        } ],
        "name" : "Eric Rigler & Tommy Eyre - The Essentials",
        "release_date" : "2015-04-22",
        "release_date_precision" : "day",
        "total_tracks" : 17,
        "type" : "album",
        "uri" : "spotify:album:7E7gMMnUbZLtTrljzIT5cU"
      },
      "artists" : [ {
        "external_urls" : {
          "spotify" : "https://open.spotify.com/artist/56BgoBELdr6hntpQoVRatJ"
        },
        "href" : "https://api.spotify.com/v1/artists/56BgoBELdr6hntpQoVRatJ",
        "id" : "56BgoBELdr6hntpQoVRatJ",
        "name" : "Eric Rigler",
        "type" : "artist",
        "uri" : "spotify:artist:56BgoBELdr6hntpQoVRatJ"
      }, {
        "external_urls" : {
          "spotify" : "https://open.spotify.com/artist/5FjN7dLruHKgrSDbKtVCvx"
        },
        "href" : "https://api.spotify.com/v1/artists/5FjN7dLruHKgrSDbKtVCvx",
        "id" : "5FjN7dLruHKgrSDbKtVCvx",
        "name" : "Tommy Eyre",
        "type" : "artist",
        "uri" : "spotify:artist:5FjN7dLruHKgrSDbKtVCvx"
      } ],
      "disc_number" : 1,
      "duration_ms" : 259973,
      "explicit" : false,
      "external_ids" : {
        "isrc" : "DK5C50000886"
      },
      "external_urls" : {
        "spotify" : "https://open.spotify.com/track/3BHpyiP2VbVT0uUzo2jTnI"
      },
      "href" : "https://api.spotify.com/v1/tracks/3BHpyiP2VbVT0uUzo2jTnI",
      "id" : "3BHpyiP2VbVT0uUzo2jTnI",
      "is_local" : false,
      "is_playable" : true,
      "name" : "I Come With Joy",
      "popularity" : 0,
      "preview_url" : "https://p.scdn.co/mp3-preview/8f60dd992f18abc677a3dc4c6493306c0d1a72bd?cid=774b29d4f13844c495f206cafdad9c86",
      "track_number" : 5,
      "type" : "track",
      "uri" : "spotify:track:3BHpyiP2VbVT0uUzo2jTnI"
    }, {
      "album" : {
        "album_type" : "album",
        "artists" : [ {
          "external_urls" : {
            "spotify" : "https://open.spotify.com/artist/5SsZGIcVNS3TTwf4vDxEQN"
          },
          "href" : "https://api.spotify.com/v1/artists/5SsZGIcVNS3TTwf4vDxEQN",
          "id" : "5SsZGIcVNS3TTwf4vDxEQN",
          "name" : "Ellen Sheppard",
          "type" : "artist",
          "uri" : "spotify:artist:5SsZGIcVNS3TTwf4vDxEQN"
        } ],
        "external_urls" : {
          "spotify" : "https://open.spotify.com/album/3Av653HzkN1oXlmvebcIVY"
        },
        "href" : "https://api.spotify.com/v1/albums/3Av653HzkN1oXlmvebcIVY",
        "id" : "3Av653HzkN1oXlmvebcIVY",
        "images" : [ {
          "height" : 640,
          "url" : "https://i.scdn.co/image/ab67616d0000b273a95e9c70a97edfa3b1a765aa",
          "width" : 640
        }, {
          "height" : 300,
          "url" : "https://i.scdn.co/image/ab67616d00001e02a95e9c70a97edfa3b1a765aa",
          "width" : 300
        }, {
          "height" : 64,
          "url" : "https://i.scdn.co/image/ab67616d00004851a95e9c70a97edfa3b1a765aa",
          "width" : 64
        } ],
        "name" : "In Due Season",
        "release_date" : "2014-10-24",
        "release_date_precision" : "day",
        "total_tracks" : 15,
        "type" : "album",
        "uri" : "spotify:album:3Av653HzkN1oXlmvebcIVY"
      },
      "artists" : [ {
        "external_urls" : {
          "spotify" : "https://open.spotify.com/artist/5SsZGIcVNS3TTwf4vDxEQN"
        },
        "href" : "https://api.spotify.com/v1/artists/5SsZGIcVNS3TTwf4vDxEQN",
        "id" : "5SsZGIcVNS3TTwf4vDxEQN",
        "name" : "Ellen Sheppard",
        "type" : "artist",
        "uri" : "spotify:artist:5SsZGIcVNS3TTwf4vDxEQN"
      } ],
      "disc_number" : 1,
      "duration_ms" : 177066,
      "explicit" : false,
      "external_ids" : {
        "isrc" : "QM9AA1438437"
      },
      "external_urls" : {
        "spotify" : "https://open.spotify.com/track/6rm3B9VZjIfBXvrETeez5R"
      },
      "href" : "https://api.spotify.com/v1/tracks/6rm3B9VZjIfBXvrETeez5R",
      "id" : "6rm3B9VZjIfBXvrETeez5R",
      "is_local" : false,
      "is_playable" : true,
      "name" : "I Come With Joy",
      "popularity" : 0,
      "preview_url" : "https://p.scdn.co/mp3-preview/bd32e1238c9a7326b3f689e6316bc33ee4155b10?cid=774b29d4f13844c495f206cafdad9c86",
      "track_number" : 1,
      "type" : "track",
      "uri" : "spotify:track:6rm3B9VZjIfBXvrETeez5R"
    }, {
      "album" : {
        "album_type" : "album",
        "artists" : [ {
          "external_urls" : {
            "spotify" : "https://open.spotify.com/artist/6ilSJDADp3Xy1pIsKNXU9O"
          },
          "href" : "https://api.spotify.com/v1/artists/6ilSJDADp3Xy1pIsKNXU9O",
          "id" : "6ilSJDADp3Xy1pIsKNXU9O",
          "name" : "Braveheart Trio",
          "type" : "artist",
          "uri" : "spotify:artist:6ilSJDADp3Xy1pIsKNXU9O"
        } ],
        "external_urls" : {
          "spotify" : "https://open.spotify.com/album/1EL8VMwBdiaSkQ4GG3kZTI"
        },
        "href" : "https://api.spotify.com/v1/albums/1EL8VMwBdiaSkQ4GG3kZTI",
        "id" : "1EL8VMwBdiaSkQ4GG3kZTI",
        "images" : [ {
          "height" : 640,
          "url" : "https://i.scdn.co/image/ab67616d0000b2737f0fe91bb466915518853d5c",
          "width" : 640
        }, {
          "height" : 300,
          "url" : "https://i.scdn.co/image/ab67616d00001e027f0fe91bb466915518853d5c",
          "width" : 300
        }, {
          "height" : 64,
          "url" : "https://i.scdn.co/image/ab67616d000048517f0fe91bb466915518853d5c",
          "width" : 64
        } ],
        "name" : "A Highland Christmas",
        "release_date" : "2017-11-19",
        "release_date_precision" : "day",
        "total_tracks" : 12,
        "type" : "album",
        "uri" : "spotify:album:1EL8VMwBdiaSkQ4GG3kZTI"
      },
      "artists" : [ {
        "external_urls" : {
          "spotify" : "https://open.spotify.com/artist/6ilSJDADp3Xy1pIsKNXU9O"
        },
        "href" : "https://api.spotify.com/v1/artists/6ilSJDADp3Xy1pIsKNXU9O",
        "id" : "6ilSJDADp3Xy1pIsKNXU9O",
        "name" : "Braveheart Trio",
        "type" : "artist",
        "uri" : "spotify:artist:6ilSJDADp3Xy1pIsKNXU9O"
      } ],
      "disc_number" : 1,
      "duration_ms" : 258546,
      "explicit" : false,
      "external_ids" : {
        "isrc" : "GBJUT1025108"
      },
      "external_urls" : {
        "spotify" : "https://open.spotify.com/track/40VfOkEaC99WjcxT8XAUaM"
      },
      "href" : "https://api.spotify.com/v1/tracks/40VfOkEaC99WjcxT8XAUaM",
      "id" : "40VfOkEaC99WjcxT8XAUaM",
      "is_local" : false,
      "is_playable" : true,
      "name" : "I Come with Joy",
      "popularity" : 0,
      "preview_url" : "https://p.scdn.co/mp3-preview/0dbbf6eb9dbcef22aea77cd68d280da8a60c2fe7?cid=774b29d4f13844c495f206cafdad9c86",
      "track_number" : 3,
      "type" : "track",
      "uri" : "spotify:track:40VfOkEaC99WjcxT8XAUaM"
    }, {
      "album" : {
        "album_type" : "album",
        "artists" : [ {
          "external_urls" : {
            "spotify" : "https://open.spotify.com/artist/4nk4k8C8YeJ3l1gFQr4eym"
          },
          "href" : "https://api.spotify.com/v1/artists/4nk4k8C8YeJ3l1gFQr4eym",
          "id" : "4nk4k8C8YeJ3l1gFQr4eym",
          "name" : "Donna Jo Smith",
          "type" : "artist",
          "uri" : "spotify:artist:4nk4k8C8YeJ3l1gFQr4eym"
        } ],
        "external_urls" : {
          "spotify" : "https://open.spotify.com/album/6RkJfymeCo8iBMAkU0wt2j"
        },
        "href" : "https://api.spotify.com/v1/albums/6RkJfymeCo8iBMAkU0wt2j",
        "id" : "6RkJfymeCo8iBMAkU0wt2j",
        "images" : [ {
          "height" : 640,
          "url" : "https://i.scdn.co/image/ab67616d0000b273df422dcf987b315917e09da8",
          "width" : 640
        }, {
          "height" : 300,
          "url" : "https://i.scdn.co/image/ab67616d00001e02df422dcf987b315917e09da8",
          "width" : 300
        }, {
          "height" : 64,
          "url" : "https://i.scdn.co/image/ab67616d00004851df422dcf987b315917e09da8",
          "width" : 64
        } ],
        "name" : "Simple Gifts II Gospel Favorites",
        "release_date" : "2007-06-18",
        "release_date_precision" : "day",
        "total_tracks" : 16,
        "type" : "album",
        "uri" : "spotify:album:6RkJfymeCo8iBMAkU0wt2j"
      },
      "artists" : [ {
        "external_urls" : {
          "spotify" : "https://open.spotify.com/artist/4nk4k8C8YeJ3l1gFQr4eym"
        },
        "href" : "https://api.spotify.com/v1/artists/4nk4k8C8YeJ3l1gFQr4eym",
        "id" : "4nk4k8C8YeJ3l1gFQr4eym",
        "name" : "Donna Jo Smith",
        "type" : "artist",
        "uri" : "spotify:artist:4nk4k8C8YeJ3l1gFQr4eym"
      } ],
      "disc_number" : 1,
      "duration_ms" : 165906,
      "explicit" : false,
      "external_ids" : {
        "isrc" : "ushm80726853"
      },
      "external_urls" : {
        "spotify" : "https://open.spotify.com/track/5Vc5UIgAxvRlBbnxDDVYDP"
      },
      "href" : "https://api.spotify.com/v1/tracks/5Vc5UIgAxvRlBbnxDDVYDP",
      "id" : "5Vc5UIgAxvRlBbnxDDVYDP",
      "is_local" : false,
      "is_playable" : true,
      "name" : "I Come With Joy",
      "popularity" : 0,
      "preview_url" : "https://p.scdn.co/mp3-preview/68ea317f7798cff22932a4a7342fe67ce0312603?cid=774b29d4f13844c495f206cafdad9c86",
      "track_number" : 7,
      "type" : "track",
      "uri" : "spotify:track:5Vc5UIgAxvRlBbnxDDVYDP"
    }, {
      "album" : {
        "album_type" : "album",
        "artists" : [ {
          "external_urls" : {
            "spotify" : "https://open.spotify.com/artist/4RK1OFOWZv9Kt97QximGMy"
          },
          "href" : "https://api.spotify.com/v1/artists/4RK1OFOWZv9Kt97QximGMy",
          "id" : "4RK1OFOWZv9Kt97QximGMy",
          "name" : "Eric Larson",
          "type" : "artist",
          "uri" : "spotify:artist:4RK1OFOWZv9Kt97QximGMy"
        } ],
        "external_urls" : {
          "spotify" : "https://open.spotify.com/album/7IOFntyCcznSlKdKvWmSAz"
        },
        "href" : "https://api.spotify.com/v1/albums/7IOFntyCcznSlKdKvWmSAz",
        "id" : "7IOFntyCcznSlKdKvWmSAz",
        "images" : [ {
          "height" : 640,
          "url" : "https://i.scdn.co/image/ab67616d0000b273ca4338f140a283f4381fbb8c",
          "width" : 640
        }, {
          "height" : 300,
          "url" : "https://i.scdn.co/image/ab67616d00001e02ca4338f140a283f4381fbb8c",
          "width" : 300
        }, {
          "height" : 64,
          "url" : "https://i.scdn.co/image/ab67616d00004851ca4338f140a283f4381fbb8c",
          "width" : 64
        } ],
        "name" : "Where Is Your Voice?",
        "release_date" : "2011-10-31",
        "release_date_precision" : "day",
        "total_tracks" : 10,
        "type" : "album",
        "uri" : "spotify:album:7IOFntyCcznSlKdKvWmSAz"
      },
      "artists" : [ {
        "external_urls" : {
          "spotify" : "https://open.spotify.com/artist/4RK1OFOWZv9Kt97QximGMy"
        },
        "href" : "https://api.spotify.com/v1/artists/4RK1OFOWZv9Kt97QximGMy",
        "id" : "4RK1OFOWZv9Kt97QximGMy",
        "name" : "Eric Larson",
        "type" : "artist",
        "uri" : "spotify:artist:4RK1OFOWZv9Kt97QximGMy"
      } ],
      "disc_number" : 1,
      "duration_ms" : 347466,
      "explicit" : false,
      "external_ids" : {
        "isrc" : "ushm91139952"
      },
      "external_urls" : {
        "spotify" : "https://open.spotify.com/track/64mPHlAyiMqnyRitjOewCi"
      },
      "href" : "https://api.spotify.com/v1/tracks/64mPHlAyiMqnyRitjOewCi",
      "id" : "64mPHlAyiMqnyRitjOewCi",
      "is_local" : false,
      "is_playable" : true,
      "name" : "Come With Joy",
      "popularity" : 0,
      "preview_url" : "https://p.scdn.co/mp3-preview/ddd2653f9088951693aa5893dc21a887d5b829d3?cid=774b29d4f13844c495f206cafdad9c86",
      "track_number" : 7,
      "type" : "track",
      "uri" : "spotify:track:64mPHlAyiMqnyRitjOewCi"
    } ],
    "limit" : 10,
    "next" : "https://api.spotify.com/v1/search?query=I+Come+With+Joy&type=track&market=US&offset=15&limit=10",
    "offset" : 5,
    "previous" : "https://api.spotify.com/v1/search?query=I+Come+With+Joy&type=track&market=US&offset=0&limit=10",
    "total" : 109
  }
}