{
  "tracks" : {
    "href" : "https://api.spotify.com/v1/search?query=Jesus%2C+What+a+Friend+for+Sinners&type=track&market=US&offset=5&limit=10",
    "items" : [ {
      "album" : {
        "album_type" : "album",
        "artists" : [ {
          "external_urls" : {
            "spotify" : "https://open.spotify.com/artist/5xttCD1o4YHy1YQj4zdQV8"
          },
          "href" : "https://api.spotify.com/v1/artists/5xttCD1o4YHy1YQj4zdQV8",
          "id" : "5xttCD1o4YHy1YQj4zdQV8",
          "name" : "Ordinary Time",
          "type" : "artist",
          "uri" : "spotify:artist:5xttCD1o4YHy1YQj4zdQV8"
        } ],
        "external_urls" : {
          "spotify" : "https://open.spotify.com/album/6YSc2jVteqoynCTfNdKGCK"
        },
        "href" : "https://api.spotify.com/v1/albums/6YSc2jVteqoynCTfNdKGCK",
        "id" : "6YSc2jVteqoynCTfNdKGCK",
        "images" : [ {
          "height" : 640,
          "url" : "https://i.scdn.co/image/ab67616d0000b2733ca9a7e345f6409fba524534",
          "width" : 640
        }, {
          "height" : 300,
          "url" : "https://i.scdn.co/image/ab67616d00001e023ca9a7e345f6409fba524534",
          "width" : 300
        }, {
          "height" : 64,
          "url" : "https://i.scdn.co/image/ab67616d000048513ca9a7e345f6409fba524534",
          "width" : 64
        } ],
        "name" : "At The Table",
        "release_date" : "2010-01-01",
        "release_date_precision" : "day",
        "total_tracks" : 13,
        "type" : "album",
        "uri" : "spotify:album:6YSc2jVteqoynCTfNdKGCK"
      },
      "artists" : [ {
        "external_urls" : {
          "spotify" : "https://open.spotify.com/artist/5xttCD1o4YHy1YQj4zdQV8"
        },
        "href" : "https://api.spotify.com/v1/artists/5xttCD1o4YHy1YQj4zdQV8",
        "id" : "5xttCD1o4YHy1YQj4zdQV8",
        "name" : "Ordinary Time",
        "type" : "artist",
        "uri" : "spotify:artist:5xttCD1o4YHy1YQj4zdQV8"
      } ],
      "disc_number" : 1,
      "duration_ms" : 220920,
      "explicit" : false,
      "external_ids" : {
        "isrc" : "usx9p0977485"
      },
      "external_urls" : {
        "spotify" : "https://open.spotify.com/track/5owyVCMbsLcu064OYP4FGQ"
      },
      "href" : "https://api.spotify.com/v1/tracks/5owyVCMbsLcu064OYP4FGQ",
      "id" : "5owyVCMbsLcu064OYP4FGQ",
      "is_local" : false,
      "is_playable" : true,
      "name" : "Jesus! What a Friend For Sinners",
      "popularity" : 9,
      "preview_url" : "https://p.scdn.co/mp3-preview/dfb27a467b8cd85c0bc4d40595884d48708e14fe?cid=774b29d4f13844c495f206cafdad9c86",
      "track_number" : 8,
      "type" : "track",
      "uri" : "spotify:track:5owyVCMbsLcu064OYP4FGQ"
    }, {
      "album" : {
        "album_type" : "album",
        "artists" : [ {
          "external_urls" : {
            "spotify" : "https://open.spotify.com/artist/6zO6HdgPt1pOQsP6kC4i9B"
          },
          "href" : "https://api.spotify.com/v1/artists/6zO6HdgPt1pOQsP6kC4i9B",
          "id" : "6zO6HdgPt1pOQsP6kC4i9B",
          "name" : "Wendell Kimbrough",
          "type" : "artist",
          "uri" : "spotify:artist:6zO6HdgPt1pOQsP6kC4i9B"
        } ],
        "external_urls" : {
          "spotify" : "https://open.spotify.com/album/2pFMjs1wqF8eOJwGMXj3V7"
        },
        "href" : "https://api.spotify.com/v1/albums/2pFMjs1wqF8eOJwGMXj3V7",
        "id" : "2pFMjs1wqF8eOJwGMXj3V7",
        "images" : [ {
          "height" : 640,
          "url" : "https://i.scdn.co/image/ab67616d0000b2730345b90648c1a115b7b1a730",
          "width" : 640
        }, {
          "height" : 300,
          "url" : "https://i.scdn.co/image/ab67616d00001e020345b90648c1a115b7b1a730",
          "width" : 300
        }, {
          "height" : 64,
          "url" : "https://i.scdn.co/image/ab67616d000048510345b90648c1a115b7b1a730",
          "width" : 64
        } ],
        "name" : "Hymns and Friends",
        "release_date" : "2014-03-18",
        "release_date_precision" : "day",
        "total_tracks" : 12,
        "type" : "album",
        "uri" : "spotify:album:2pFMjs1wqF8eOJwGMXj3V7"
      },
      "artists" : [ {
        "external_urls" : {
          "spotify" : "https://open.spotify.com/artist/6zO6HdgPt1pOQsP6kC4i9B"
        },
        "href" : "https://api.spotify.com/v1/artists/6zO6HdgPt1pOQsP6kC4i9B",
        "id" : "6zO6HdgPt1pOQsP6kC4i9B",
        "name" : "Wendell Kimbrough",
        "type" : "artist",
        "uri" : "spotify:artist:6zO6HdgPt1pOQsP6kC4i9B"
      }, {
        "external_urls" : {
          "spotify" : "https://open.spotify.com/artist/5NZMoHh6Kj4jhimPWHp4by"
        },
        "href" : "https://api.spotify.com/v1/artists/5NZMoHh6Kj4jhimPWHp4by",
        "id" : "5NZMoHh6Kj4jhimPWHp4by",
        "name" : "Rachel Wilhelm",
        "type" : "artist",
        "uri" : "spotify:artist:5NZMoHh6Kj4jhimPWHp4by"
      } ],
      "disc_number" : 1,
      "duration_ms" : 295733,
      "explicit" : false,
      "external_ids" : {
        "isrc" : "USLZJ1964973"
      },
      "external_urls" : {
        "spotify" : "https://open.spotify.com/track/5iKLBaqPuPheYch1CLjmCl"
      },
      "href" : "https://api.spotify.com/v1/tracks/5iKLBaqPuPheYch1CLjmCl",
      "id" : "5iKLBaqPuPheYch1CLjmCl",
      "is_local" : false,
      "is_playable" : true,
      "name" : "Jesus What A Friend For Sinners",
      "popularity" : 8,
      "preview_url" : "https://p.scdn.co/mp3-preview/df5861a8c2844b04e83d56f1d14e6132ef2f41a5?cid=774b29d4f13844c495f206cafdad9c86",
      "track_number" : 8,
      "type" : "track",
      "uri" : "spotify:track:5iKLBaqPuPheYch1CLjmCl"
    }, {
      "album" : {
        "album_type" : "album",
        "artists" : [ {
          "external_urls" : {
            "spotify" : "https://open.spotify.com/artist/0zYyfhX87rISSc9dyJQK5t"
          },
          "href" : "https://api.spotify.com/v1/artists/0zYyfhX87rISSc9dyJQK5t",
          "id" : "0zYyfhX87rISSc9dyJQK5t",
          "name" : "Craig Duncan",
          "type" : "artist",
          "uri" : "spotify:artist:0zYyfhX87rISSc9dyJQK5t"
        } ],
        "external_urls" : {
          "spotify" : "https://open.spotify.com/album/0ob1zTtlONfPuxXFcKGleK"
        },
        "href" : "https://api.spotify.com/v1/albums/0ob1zTtlONfPuxXFcKGleK",
        "id" : "0ob1zTtlONfPuxXFcKGleK",
        "images" : [ {
          "height" : 640,
          "url" : "https://i.scdn.co/image/ab67616d0000b273a1175a048ec53a3baba55a37",
          "width" : 640
        }, {
          "height" : 300,
          "url" : "https://i.scdn.co/image/ab67616d00001e02a1175a048ec53a3baba55a37",
          "width" : 300
        }, {
          "height" : 64,
          "url" : "https://i.scdn.co/image/ab67616d00004851a1175a048ec53a3baba55a37",
          "width" : 64
        } ],
        "name" : "30 Favorite Celtic Hymns: 30 Hymns Featuring Traditional Irish Instruments",
        "release_date" : "2012-01-01",
        "release_date_precision" : "day",
        "total_tracks" : 30,
        "type" : "album",
        "uri" : "spotify:album:0ob1zTtlONfPuxXFcKGleK"
      },
      "artists" : [ {
        "external_urls" : {
          "spotify" : "https://open.spotify.com/artist/0zYyfhX87rISSc9dyJQK5t"
        },
        "href" : "https://api.spotify.com/v1/artists/0zYyfhX87rISSc9dyJQK5t",
        "id" : "0zYyfhX87rISSc9dyJQK5t",
        "name" : "Craig Duncan",
        "type" : "artist",
        "uri" : "spotify:artist:0zYyfhX87rISSc9dyJQK5t"
      } ],
      "disc_number" : 1,
      "duration_ms" : 226533,
      "explicit" : false,
      "external_ids" : {
        "isrc" : "USB4U0850325"
      },
      "external_urls" : {
        "spotify" : "https://open.spotify.com/track/7tSxxtoYQOvVwTdCOiZr7q"
      },
      "href" : "https://api.spotify.com/v1/tracks/7tSxxtoYQOvVwTdCOiZr7q",
      "id" : "7tSxxtoYQOvVwTdCOiZr7q",
      "is_local" : false,
      "is_playable" : true,
      "name" : "Jesus! What A Friend For Sinners - New England Sunday Album Version",
      "popularity" : 9,
      "preview_url" : null,
      "track_number" : 9,
      "type" : "track",
      "uri" : "spotify:track:7tSxxtoYQOvVwTdCOiZr7q"
    }, {
      "album" : {
        "album_type" : "album",
        "artists" : [ {
          "external_urls" : {
            "spotify" : "https://open.spotify.com/artist/0pjLiK5qb4Zr0PWRNkdd2o"
          },
          "href" : "https://api.spotify.com/v1/artists/0pjLiK5qb4Zr0PWRNkdd2o",
          "id" : "0pjLiK5qb4Zr0PWRNkdd2o",
          "name" : "Gaither Vocal Band",
          "type" : "artist",
          "uri" : "spotify:artist:0pjLiK5qb4Zr0PWRNkdd2o"
        } ],
        "external_urls" : {
          "spotify" : "https://open.spotify.com/album/2c9W8avskETrGMxaUsh9xa"
        },
        "href" : "https://api.spotify.com/v1/albums/2c9W8avskETrGMxaUsh9xa",
        "id" : "2c9W8avskETrGMxaUsh9xa",
        "images" : [ {
          "height" : 640,
          "url" : "https://i.scdn.co/image/ab67616d0000b2733d3deac00686e51e9a8a25e8",
          "width" : 640
        }, {
          "height" : 300,
          "url" : "https://i.scdn.co/image/ab67616d00001e023d3deac00686e51e9a8a25e8",
          "width" : 300
        }, {
          "height" : 64,
          "url" : "https://i.scdn.co/image/ab67616d000048513d3deac00686e51e9a8a25e8",
          "width" : 64
        } ],
        "name" : "A Cappella",
        "release_date" : "2003-01-01",
        "release_date_precision" : "day",
        "total_tracks" : 12,
        "type" : "album",
        "uri" : "spotify:album:2c9W8avskETrGMxaUsh9xa"
      },
      "artists" : [ {
        "external_urls" : {
          "spotify" : "https://open.spotify.com/artist/0pjLiK5qb4Zr0PWRNkdd2o"
        },
        "href" : "https://api.spotify.com/v1/artists/0pjLiK5qb4Zr0PWRNkdd2o",
        "id" : "0pjLiK5qb4Zr0PWRNkdd2o",
        "name" : "Gaither Vocal Band",
        "type" : "artist",
        "uri" : "spotify:artist:0pjLiK5qb4Zr0PWRNkdd2o"
      } ],
      "disc_number" : 1,
      "duration_ms" : 256493,
      "explicit" : false,
      "external_ids" : {
        "isrc" : "US3270403814"
      },
      "external_urls" : {
        "spotify" : "https://open.spotify.com/track/5WP9st6z8f1OZaQIS7LFF4"
      },
      "href" : "https://api.spotify.com/v1/tracks/5WP9st6z8f1OZaQIS7LFF4",
      "id" : "5WP9st6z8f1OZaQIS7LFF4",
      "is_local" : false,
      "is_playable" : true,
      "name" : "Jesus! What A Friend For Sinners - A Cappella",
      "popularity" : 10,
      "preview_url" : null,
      "track_number" : 6,
      "type" : "track",
      "uri" : "spotify:track:5WP9st6z8f1OZaQIS7LFF4"
    }, {
      "album" : {
        "album_type" : "album",
        "artists" : [ {
          "external_urls" : {
            "spotify" : "https://open.spotify.com/artist/36H3yV7O8YbQX0GQarIJGd"
          },
          "href" : "https://api.spotify.com/v1/artists/36H3yV7O8YbQX0GQarIJGd",
          "id" : "36H3yV7O8YbQX0GQarIJGd",
          "name" : "Bill Gaither Trio",
          "type" : "artist",
          "uri" : "spotify:artist:36H3yV7O8YbQX0GQarIJGd"
        } ],
        "external_urls" : {
          "spotify" : "https://open.spotify.com/album/4iTP8GHcr2eh9FqBzM3b5R"
        },
        "href" : "https://api.spotify.com/v1/albums/4iTP8GHcr2eh9FqBzM3b5R",
        "id" : "4iTP8GHcr2eh9FqBzM3b5R",
        "images" : [ {
          "height" : 640,
          "url" : "https://i.scdn.co/image/ab67616d0000b2730b199853b0a60f90b095ee28",
          "width" : 640
        }, {
          "height" : 300,
          "url" : "https://i.scdn.co/image/ab67616d00001e020b199853b0a60f90b095ee28",
          "width" : 300
        }, {
          "height" : 64,
          "url" : "https://i.scdn.co/image/ab67616d000048510b199853b0a60f90b095ee28",
          "width" : 64
        } ],
        "name" : "Hymn Classics",
        "release_date" : "1990-10-24",
        "release_date_precision" : "day",
        "total_tracks" : 13,
        "type" : "album",
        "uri" : "spotify:album:4iTP8GHcr2eh9FqBzM3b5R"
      },
      "artists" : [ {
        "external_urls" : {
          "spotify" : "https://open.spotify.com/artist/36H3yV7O8YbQX0GQarIJGd"
        },
        "href" : "https://api.spotify.com/v1/artists/36H3yV7O8YbQX0GQarIJGd",
        "id" : "36H3yV7O8YbQX0GQarIJGd",
        "name" : "Bill Gaither Trio",
        "type" : "artist",
        "uri" : "spotify:artist:36H3yV7O8YbQX0GQarIJGd"
      } ],
      "disc_number" : 1,
      "duration_ms" : 231400,
      "explicit" : false,
      "external_ids" : {
        "isrc" : "USWR60252228"
      },
      "external_urls" : {
        "spotify" : "https://open.spotify.com/track/1ye10gQDsc5rxKiNsj6IOi"
      },
      "href" : "https://api.spotify.com/v1/tracks/1ye10gQDsc5rxKiNsj6IOi",
      "id" : "1ye10gQDsc5rxKiNsj6IOi",
      "is_local" : false,
      "is_playable" : true,
      "name" : "Jesus, What a Friend for Sinners / I WIll Sing the Wondrous Story",
      "popularity" : 8,
      "preview_url" : "https://p.scdn.co/mp3-preview/77abea4daf7b801f6ccf241f85c619b81b1f7371?cid=774b29d4f13844c495f206cafdad9c86",
      "track_number" : 2,
      "type" : "track",
      "uri" : "spotify:track:1ye10gQDsc5rxKiNsj6IOi"
    }, {
      "album" : {
        "album_type" : "single",
        "artists" : [ {
          "external_urls" : {
            "spotify" : "https://open.spotify.com/artist/2ynvYxIcd028SLOf0pZflq"
          },
          "href" : "https://api.spotify.com/v1/artists/2ynvYxIcd028SLOf0pZflq",
          "id" : "2ynvYxIcd028SLOf0pZflq",
          "name" : "Long Hollow Worship",
          "type" : "artist",
          "uri" : "spotify:artist:2ynvYxIcd028SLOf0pZflq"
        } ],
        "external_urls" : {
          "spotify" : "https://open.spotify.com/album/29S9wlDGZf2ffemytwDYYM"
        },
        "href" : "https://api.spotify.com/v1/albums/29S9wlDGZf2ffemytwDYYM",
        "id" : "29S9wlDGZf2ffemytwDYYM",
        "images" : [ {
          "height" : 640,
          "url" : "https://i.scdn.co/image/ab67616d0000b2730dd76e0da0238b9b557cb418",
          "width" : 640
        }, {
          "height" : 300,
          "url" : "https://i.scdn.co/image/ab67616d00001e020dd76e0da0238b9b557cb418",
          "width" : 300
        }, {
          "height" : 64,
          "url" : "https://i.scdn.co/image/ab67616d000048510dd76e0da0238b9b557cb418",
          "width" : 64
        } ],
        "name" : "Hymns, Vol. 1",
        "release_date" : "2017-04-14",
        "release_date_precision" : "day",
        "total_tracks" : 5,
        "type" : "album",
        "uri" : "spotify:album:29S9wlDGZf2ffemytwDYYM"
      },
      "artists" : [ {
        "external_urls" : {
          "spotify" : "https://open.spotify.com/artist/2ynvYxIcd028SLOf0pZflq"
        },
        "href" : "https://api.spotify.com/v1/artists/2ynvYxIcd028SLOf0pZflq",
        "id" : "2ynvYxIcd028SLOf0pZflq",
        "name" : "Long Hollow Worship",
        "type" : "artist",
        "uri" : "spotify:artist:2ynvYxIcd028SLOf0pZflq"
      }, {
        "external_urls" : {
          "spotify" : "https://open.spotify.com/artist/61pdcjqHVQyj2TMUXYiChJ"
        },
        "href" : "https://api.spotify.com/v1/artists/61pdcjqHVQyj2TMUXYiChJ",
        "id" : "61pdcjqHVQyj2TMUXYiChJ",
        "name" : "Brooke Voland",
        "type" : "artist",
        "uri" : "spotify:artist:61pdcjqHVQyj2TMUXYiChJ"
      } ],
      "disc_number" : 1,
      "duration_ms" : 287903,
      "explicit" : false,
      "external_ids" : {
        "isrc" : "TCACZ1787226"
      },
      "external_urls" : {
        "spotify" : "https://open.spotify.com/track/3jrO6bbcXgEhAc3hZktNeO"
      },
      "href" : "https://api.spotify.com/v1/tracks/3jrO6bbcXgEhAc3hZktNeO",
      "id" : "3jrO6bbcXgEhAc3hZktNeO",
      "is_local" : false,
      "is_playable" : true,
      "name" : "Jesus What a Friend for Sinners (feat. Brooke Voland)",
      "popularity" : 7,
      "preview_url" : "https://p.scdn.co/mp3-preview/d14c4f21291bebddeb71de1612eaded14f56bff0?cid=774b29d4f13844c495f206cafdad9c86",
      "track_number" : 5,
      "type" : "track",
      "uri" : "spotify:track:3jrO6bbcXgEhAc3hZktNeO"
    }, {
      "album" : {
        "album_type" : "album",
        "artists" : [ {
          "external_urls" : {
            "spotify" : "https://open.spotify.com/artist/6ENcD6rUAiliA2XXi0PY4d"
          },
          "href" : "https://api.spotify.com/v1/artists/6ENcD6rUAiliA2XXi0PY4d",
          "id" : "6ENcD6rUAiliA2XXi0PY4d",
          "name" : "Jeremy Moore",
          "type" : "artist",
          "uri" : "spotify:artist:6ENcD6rUAiliA2XXi0PY4d"
        } ],
        "external_urls" : {
          "spotify" : "https://open.spotify.com/album/3nysPSSYf6FvjLxULbVyB4"
        },
        "href" : "https://api.spotify.com/v1/albums/3nysPSSYf6FvjLxULbVyB4",
        "id" : "3nysPSSYf6FvjLxULbVyB4",
        "images" : [ {
          "height" : 640,
          "url" : "https://i.scdn.co/image/ab67616d0000b27367cc9baa0a44c95660de669b",
          "width" : 640
        }, {
          "height" : 300,
          "url" : "https://i.scdn.co/image/ab67616d00001e0267cc9baa0a44c95660de669b",
          "width" : 300
        }, {
          "height" : 64,
          "url" : "https://i.scdn.co/image/ab67616d0000485167cc9baa0a44c95660de669b",
          "width" : 64
        } ],
        "name" : "Pillars",
        "release_date" : "2018-10-26",
        "release_date_precision" : "day",
        "total_tracks" : 10,
        "type" : "album",
        "uri" : "spotify:album:3nysPSSYf6FvjLxULbVyB4"
      },
      "artists" : [ {
        "external_urls" : {
          "spotify" : "https://open.spotify.com/artist/6ENcD6rUAiliA2XXi0PY4d"
        },
        "href" : "https://api.spotify.com/v1/artists/6ENcD6rUAiliA2XXi0PY4d",
        "id" : "6ENcD6rUAiliA2XXi0PY4d",
        "name" : "Jeremy Moore",
        "type" : "artist",
        "uri" : "spotify:artist:6ENcD6rUAiliA2XXi0PY4d"
      } ],
      "disc_number" : 1,
      "duration_ms" : 256690,
      "explicit" : false,
      "external_ids" : {
        "isrc" : "QM9AA1834584"
      },
      "external_urls" : {
        "spotify" : "https://open.spotify.com/track/0cn5d1EKCP9L2QDLqZFjEv"
      },
      "href" : "https://api.spotify.com/v1/tracks/0cn5d1EKCP9L2QDLqZFjEv",
      "id" : "0cn5d1EKCP9L2QDLqZFjEv",
      "is_local" : false,
      "is_playable" : true,
      "name" : "Jesus! What a Friend for Sinners",
      "popularity" : 4,
      "preview_url" : "https://p.scdn.co/mp3-preview/2dfe6f6228210b9e25ea4950f4d13551f3019869?cid=774b29d4f13844c495f206cafdad9c86",
      "track_number" : 10,
      "type" : "track",
      "uri" : "spotify:track:0cn5d1EKCP9L2QDLqZFjEv"
    }, {
      "album" : {
        "album_type" : "album",
        "artists" : [ {
          "external_urls" : {
            "spotify" : "https://open.spotify.com/artist/1Y2wYocZhjSCeyQIOsSDjr"
          },
          "href" : "https://api.spotify.com/v1/artists/1Y2wYocZhjSCeyQIOsSDjr",
          "id" : "1Y2wYocZhjSCeyQIOsSDjr",
          "name" : "Dave Cleveland",
          "type" : "artist",
          "uri" : "spotify:artist:1Y2wYocZhjSCeyQIOsSDjr"
        } ],
        "external_urls" : {
          "spotify" : "https://open.spotify.com/album/0dPOxEurLZZS5YOI0bVNlU"
        },
        "href" : "https://api.spotify.com/v1/albums/0dPOxEurLZZS5YOI0bVNlU",
        "id" : "0dPOxEurLZZS5YOI0bVNlU",
        "images" : [ {
          "height" : 640,
          "url" : "https://i.scdn.co/image/ab67616d0000b2734cba101c79c4aed4380d43eb",
          "width" : 640
        }, {
          "height" : 300,
          "url" : "https://i.scdn.co/image/ab67616d00001e024cba101c79c4aed4380d43eb",
          "width" : 300
        }, {
          "height" : 64,
          "url" : "https://i.scdn.co/image/ab67616d000048514cba101c79c4aed4380d43eb",
          "width" : 64
        } ],
        "name" : "Blessed Assurance",
        "release_date" : "2015-10-05",
        "release_date_precision" : "day",
        "total_tracks" : 10,
        "type" : "album",
        "uri" : "spotify:album:0dPOxEurLZZS5YOI0bVNlU"
      },
      "artists" : [ {
        "external_urls" : {
          "spotify" : "https://open.spotify.com/artist/1Y2wYocZhjSCeyQIOsSDjr"
        },
        "href" : "https://api.spotify.com/v1/artists/1Y2wYocZhjSCeyQIOsSDjr",
        "id" : "1Y2wYocZhjSCeyQIOsSDjr",
        "name" : "Dave Cleveland",
        "type" : "artist",
        "uri" : "spotify:artist:1Y2wYocZhjSCeyQIOsSDjr"
      } ],
      "disc_number" : 1,
      "duration_ms" : 146280,
      "explicit" : false,
      "external_ids" : {
        "isrc" : "USACX1501175"
      },
      "external_urls" : {
        "spotify" : "https://open.spotify.com/track/2LWZAYOdgy6Zl6M17o8u5O"
      },
      "href" : "https://api.spotify.com/v1/tracks/2LWZAYOdgy6Zl6M17o8u5O",
      "id" : "2LWZAYOdgy6Zl6M17o8u5O",
      "is_local" : false,
      "is_playable" : true,
      "name" : "Jesus! What A Friend For Sinners",
      "popularity" : 10,
      "preview_url" : "https://p.scdn.co/mp3-preview/d9fbad10a89f6c42c61ab3e5b48332451c385c8d?cid=774b29d4f13844c495f206cafdad9c86",
      "track_number" : 4,
      "type" : "track",
      "uri" : "spotify:track:2LWZAYOdgy6Zl6M17o8u5O"
    }, {
      "album" : {
        "album_type" : "album",
        "artists" : [ {
          "external_urls" : {
            "spotify" : "https://open.spotify.com/artist/7pIlr6ZsVpOtKv0Kh46GwZ"
          },
          "href" : "https://api.spotify.com/v1/artists/7pIlr6ZsVpOtKv0Kh46GwZ",
          "id" : "7pIlr6ZsVpOtKv0Kh46GwZ",
          "name" : "Greg Howlett",
          "type" : "artist",
          "uri" : "spotify:artist:7pIlr6ZsVpOtKv0Kh46GwZ"
        } ],
        "external_urls" : {
          "spotify" : "https://open.spotify.com/album/6DXRDFg3Ecpgf0W8h6mqCa"
        },
        "href" : "https://api.spotify.com/v1/albums/6DXRDFg3Ecpgf0W8h6mqCa",
        "id" : "6DXRDFg3Ecpgf0W8h6mqCa",
        "images" : [ {
          "height" : 640,
          "url" : "https://i.scdn.co/image/ab67616d0000b27305b0c2387a2a191544f3d296",
          "width" : 640
        }, {
          "height" : 300,
          "url" : "https://i.scdn.co/image/ab67616d00001e0205b0c2387a2a191544f3d296",
          "width" : 300
        }, {
          "height" : 64,
          "url" : "https://i.scdn.co/image/ab67616d0000485105b0c2387a2a191544f3d296",
          "width" : 64
        } ],
        "name" : "Solace",
        "release_date" : "2016-08-26",
        "release_date_precision" : "day",
        "total_tracks" : 10,
        "type" : "album",
        "uri" : "spotify:album:6DXRDFg3Ecpgf0W8h6mqCa"
      },
      "artists" : [ {
        "external_urls" : {
          "spotify" : "https://open.spotify.com/artist/7pIlr6ZsVpOtKv0Kh46GwZ"
        },
        "href" : "https://api.spotify.com/v1/artists/7pIlr6ZsVpOtKv0Kh46GwZ",
        "id" : "7pIlr6ZsVpOtKv0Kh46GwZ",
        "name" : "Greg Howlett",
        "type" : "artist",
        "uri" : "spotify:artist:7pIlr6ZsVpOtKv0Kh46GwZ"
      } ],
      "disc_number" : 1,
      "duration_ms" : 231640,
      "explicit" : false,
      "external_ids" : {
        "isrc" : "QM9AA1656885"
      },
      "external_urls" : {
        "spotify" : "https://open.spotify.com/track/14Sgw6VFAQPXj3KhoxwSj8"
      },
      "href" : "https://api.spotify.com/v1/tracks/14Sgw6VFAQPXj3KhoxwSj8",
      "id" : "14Sgw6VFAQPXj3KhoxwSj8",
      "is_local" : false,
      "is_playable" : true,
      "name" : "Jesus What a Friend for Sinners",
      "popularity" : 8,
      "preview_url" : "https://p.scdn.co/mp3-preview/95524ebf87b96ca4d15dc7da6420a0db07c0e1ef?cid=774b29d4f13844c495f206cafdad9c86",
      "track_number" : 10,
      "type" : "track",
      "uri" : "spotify:track:14Sgw6VFAQPXj3KhoxwSj8"
    }, {
      "album" : {
        "album_type" : "compilation",
        "artists" : [ {
          "external_urls" : {
            "spotify" : "https://open.spotify.com/artist/3oUFArLfOA0CK6C2AD7LqU"
          },
          "href" : "https://api.spotify.com/v1/artists/3oUFArLfOA0CK6C2AD7LqU",
          "id" : "3oUFArLfOA0CK6C2AD7LqU",
          "name" : "Hymns You Love to Sing Performers",
          "type" : "artist",
          "uri" : "spotify:artist:3oUFArLfOA0CK6C2AD7LqU"
        } ],
        "external_urls" : {
          "spotify" : "https://open.spotify.com/album/00H1HrMUugGp4jNWZjSLtF"
        },
        "href" : "https://api.spotify.com/v1/albums/00H1HrMUugGp4jNWZjSLtF",
        "id" : "00H1HrMUugGp4jNWZjSLtF",
        "images" : [ {
          "height" : 640,
          "url" : "https://i.scdn.co/image/ab67616d0000b273eca0dc97418a9b164be3610d",
          "width" : 640
        }, {
          "height" : 300,
          "url" : "https://i.scdn.co/image/ab67616d00001e02eca0dc97418a9b164be3610d",
          "width" : 300
        }, {
          "height" : 64,
          "url" : "https://i.scdn.co/image/ab67616d00004851eca0dc97418a9b164be3610d",
          "width" : 64
        } ],
        "name" : "50 Contemporary Hymns You Love To Sing",
        "release_date" : "2012-01-01",
        "release_date_precision" : "day",
        "total_tracks" : 28,
        "type" : "album",
        "uri" : "spotify:album:00H1HrMUugGp4jNWZjSLtF"
      },
      "artists" : [ {
        "external_urls" : {
          "spotify" : "https://open.spotify.com/artist/3oUFArLfOA0CK6C2AD7LqU"
        },
        "href" : "https://api.spotify.com/v1/artists/3oUFArLfOA0CK6C2AD7LqU",
        "id" : "3oUFArLfOA0CK6C2AD7LqU",
        "name" : "Hymns You Love to Sing Performers",
        "type" : "artist",
        "uri" : "spotify:artist:3oUFArLfOA0CK6C2AD7LqU"
      } ],
      "disc_number" : 2,
      "duration_ms" : 177725,
      "explicit" : false,
      "external_ids" : {
        "isrc" : "USSW19649904"
      },
      "external_urls" : {
        "spotify" : "https://open.spotify.com/track/4IFqlfHmDwlaabjOeZ9dLM"
      },
      "href" : "https://api.spotify.com/v1/tracks/4IFqlfHmDwlaabjOeZ9dLM",
      "id" : "4IFqlfHmDwlaabjOeZ9dLM",
      "is_local" : false,
      "is_playable" : true,
      "name" : "Jesus What A Friend For Sinners",
      "popularity" : 6,
      "preview_url" : null,
      "track_number" : 8,
      "type" : "track",
      "uri" : "spotify:track:4IFqlfHmDwlaabjOeZ9dLM"
    } ],
    "limit" : 10,
    "next" : "https://api.spotify.com/v1/search?query=Jesus%2C+What+a+Friend+for+Sinners&type=track&market=US&offset=15&limit=10",
    "offset" : 5,
    "previous" : "https://api.spotify.com/v1/search?query=Jesus%2C+What+a+Friend+for+Sinners&type=track&market=US&offset=0&limit=10",
    "total" : 61
  }
}