{
  "tracks" : {
    "href" : "https://api.spotify.com/v1/search?query=The+Lord+Is+in+His+Holy+Temple&type=track&market=US&offset=5&limit=10",
    "items" : [ {
      "album" : {
        "album_type" : "album",
        "artists" : [ {
          "external_urls" : {
            "spotify" : "https://open.spotify.com/artist/1UkHCANZmdkKyVNvTLMrcJ"
          },
          "href" : "https://api.spotify.com/v1/artists/1UkHCANZmdkKyVNvTLMrcJ",
          "id" : "1UkHCANZmdkKyVNvTLMrcJ",
          "name" : "Debby Boone",
          "type" : "artist",
          "uri" : "spotify:artist:1UkHCANZmdkKyVNvTLMrcJ"
        } ],
        "external_urls" : {
          "spotify" : "https://open.spotify.com/album/4Gc5b27cqHk5kIlmZsG9TS"
        },
        "href" : "https://api.spotify.com/v1/albums/4Gc5b27cqHk5kIlmZsG9TS",
        "id" : "4Gc5b27cqHk5kIlmZsG9TS",
        "images" : [ {
          "height" : 640,
          "url" : "https://i.scdn.co/image/ab67616d0000b2730a8622333d2d0ae8ba5d9ca3",
          "width" : 640
        }, {
          "height" : 300,
          "url" : "https://i.scdn.co/image/ab67616d00001e020a8622333d2d0ae8ba5d9ca3",
          "width" : 300
        }, {
          "height" : 64,
          "url" : "https://i.scdn.co/image/ab67616d000048510a8622333d2d0ae8ba5d9ca3",
          "width" : 64
        } ],
        "name" : "Be Thou My Vision",
        "release_date" : "2006-04-19",
        "release_date_precision" : "day",
        "total_tracks" : 10,
        "type" : "album",
        "uri" : "spotify:album:4Gc5b27cqHk5kIlmZsG9TS"
      },
      "artists" : [ {
        "external_urls" : {
          "spotify" : "https://open.spotify.com/artist/1UkHCANZmdkKyVNvTLMrcJ"
        },
        "href" : "https://api.spotify.com/v1/artists/1UkHCANZmdkKyVNvTLMrcJ",
        "id" : "1UkHCANZmdkKyVNvTLMrcJ",
        "name" : "Debby Boone",
        "type" : "artist",
        "uri" : "spotify:artist:1UkHCANZmdkKyVNvTLMrcJ"
      } ],
      "disc_number" : 1,
      "duration_ms" : 290333,
      "explicit" : false,
      "external_ids" : {
        "isrc" : "US2R30610138"
      },
      "external_urls" : {
        "spotify" : "https://open.spotify.com/track/11eU2mzdk02oI2nPdlKhVD"
      },
      "href" : "https://api.spotify.com/v1/tracks/11eU2mzdk02oI2nPdlKhVD",
      "id" : "11eU2mzdk02oI2nPdlKhVD",
      "is_local" : false,
      "is_playable" : true,
      "name" : "The Lord Is In His Holy Temple / Holy, Holy, Holy",
      "popularity" : 0,
      "preview_url" : "https://p.scdn.co/mp3-preview/3f18891a1bd1f8815b76c8dfc6d1bb539c263d2b?cid=774b29d4f13844c495f206cafdad9c86",
      "track_number" : 2,
      "type" : "track",
      "uri" : "spotify:track:11eU2mzdk02oI2nPdlKhVD"
    }, {
      "album" : {
        "album_type" : "album",
        "artists" : [ {
          "external_urls" : {
            "spotify" : "https://open.spotify.com/artist/1UkHCANZmdkKyVNvTLMrcJ"
          },
          "href" : "https://api.spotify.com/v1/artists/1UkHCANZmdkKyVNvTLMrcJ",
          "id" : "1UkHCANZmdkKyVNvTLMrcJ",
          "name" : "Debby Boone",
          "type" : "artist",
          "uri" : "spotify:artist:1UkHCANZmdkKyVNvTLMrcJ"
        } ],
        "external_urls" : {
          "spotify" : "https://open.spotify.com/album/0WPHAlM1elYCOyYtJiQ5K6"
        },
        "href" : "https://api.spotify.com/v1/albums/0WPHAlM1elYCOyYtJiQ5K6",
        "id" : "0WPHAlM1elYCOyYtJiQ5K6",
        "images" : [ {
          "height" : 640,
          "url" : "https://i.scdn.co/image/ab67616d0000b2733dcbbf15a654ff8c5a03ffaf",
          "width" : 640
        }, {
          "height" : 300,
          "url" : "https://i.scdn.co/image/ab67616d00001e023dcbbf15a654ff8c5a03ffaf",
          "width" : 300
        }, {
          "height" : 64,
          "url" : "https://i.scdn.co/image/ab67616d000048513dcbbf15a654ff8c5a03ffaf",
          "width" : 64
        } ],
        "name" : "Greatest Hymns",
        "release_date" : "2000-02-01",
        "release_date_precision" : "day",
        "total_tracks" : 10,
        "type" : "album",
        "uri" : "spotify:album:0WPHAlM1elYCOyYtJiQ5K6"
      },
      "artists" : [ {
        "external_urls" : {
          "spotify" : "https://open.spotify.com/artist/1UkHCANZmdkKyVNvTLMrcJ"
        },
        "href" : "https://api.spotify.com/v1/artists/1UkHCANZmdkKyVNvTLMrcJ",
        "id" : "1UkHCANZmdkKyVNvTLMrcJ",
        "name" : "Debby Boone",
        "type" : "artist",
        "uri" : "spotify:artist:1UkHCANZmdkKyVNvTLMrcJ"
      } ],
      "disc_number" : 1,
      "duration_ms" : 290373,
      "explicit" : false,
      "external_ids" : {
        "isrc" : "USLL29911142"
      },
      "external_urls" : {
        "spotify" : "https://open.spotify.com/track/5MDPt1NwhltxQxa3D4O7fZ"
      },
      "href" : "https://api.spotify.com/v1/tracks/5MDPt1NwhltxQxa3D4O7fZ",
      "id" : "5MDPt1NwhltxQxa3D4O7fZ",
      "is_local" : false,
      "is_playable" : true,
      "name" : "The Lord Is In His Holy Temple / Holy, Holy, Holy",
      "popularity" : 1,
      "preview_url" : "https://p.scdn.co/mp3-preview/a9b24db734a6dfb8a23828d4a02f1401346bff95?cid=774b29d4f13844c495f206cafdad9c86",
      "track_number" : 2,
      "type" : "track",
      "uri" : "spotify:track:5MDPt1NwhltxQxa3D4O7fZ"
    }, {
      "album" : {
        "album_type" : "album",
        "artists" : [ {
          "external_urls" : {
            "spotify" : "https://open.spotify.com/artist/50OOo75gSo1S0OxskwAhBn"
          },
          "href" : "https://api.spotify.com/v1/artists/50OOo75gSo1S0OxskwAhBn",
          "id" : "50OOo75gSo1S0OxskwAhBn",
          "name" : "Don Hodell Chilcote",
          "type" : "artist",
          "uri" : "spotify:artist:50OOo75gSo1S0OxskwAhBn"
        } ],
        "external_urls" : {
          "spotify" : "https://open.spotify.com/album/7H7oWmX8AG9lyWxbpxZi23"
        },
        "href" : "https://api.spotify.com/v1/albums/7H7oWmX8AG9lyWxbpxZi23",
        "id" : "7H7oWmX8AG9lyWxbpxZi23",
        "images" : [ {
          "height" : 640,
          "url" : "https://i.scdn.co/image/ab67616d0000b27356881adad382c4da0b94a8dd",
          "width" : 640
        }, {
          "height" : 300,
          "url" : "https://i.scdn.co/image/ab67616d00001e0256881adad382c4da0b94a8dd",
          "width" : 300
        }, {
          "height" : 64,
          "url" : "https://i.scdn.co/image/ab67616d0000485156881adad382c4da0b94a8dd",
          "width" : 64
        } ],
        "name" : "Dedication",
        "release_date" : "2015-12-30",
        "release_date_precision" : "day",
        "total_tracks" : 50,
        "type" : "album",
        "uri" : "spotify:album:7H7oWmX8AG9lyWxbpxZi23"
      },
      "artists" : [ {
        "external_urls" : {
          "spotify" : "https://open.spotify.com/artist/50OOo75gSo1S0OxskwAhBn"
        },
        "href" : "https://api.spotify.com/v1/artists/50OOo75gSo1S0OxskwAhBn",
        "id" : "50OOo75gSo1S0OxskwAhBn",
        "name" : "Don Hodell Chilcote",
        "type" : "artist",
        "uri" : "spotify:artist:50OOo75gSo1S0OxskwAhBn"
      } ],
      "disc_number" : 2,
      "duration_ms" : 355709,
      "explicit" : false,
      "external_ids" : {
        "isrc" : "ushm81587179"
      },
      "external_urls" : {
        "spotify" : "https://open.spotify.com/track/174JfMbQgWbwmf84gHpaBy"
      },
      "href" : "https://api.spotify.com/v1/tracks/174JfMbQgWbwmf84gHpaBy",
      "id" : "174JfMbQgWbwmf84gHpaBy",
      "is_local" : false,
      "is_playable" : true,
      "name" : "The Lord Is in His Holy Temple",
      "popularity" : 0,
      "preview_url" : "https://p.scdn.co/mp3-preview/ce4d69270a96f8d5297dee4e0861aab34900a584?cid=774b29d4f13844c495f206cafdad9c86",
      "track_number" : 9,
      "type" : "track",
      "uri" : "spotify:track:174JfMbQgWbwmf84gHpaBy"
    }, {
      "album" : {
        "album_type" : "album",
        "artists" : [ {
          "external_urls" : {
            "spotify" : "https://open.spotify.com/artist/6ZJ0ZFJUx02NthS3RH3VYz"
          },
          "href" : "https://api.spotify.com/v1/artists/6ZJ0ZFJUx02NthS3RH3VYz",
          "id" : "6ZJ0ZFJUx02NthS3RH3VYz",
          "name" : "The Joyful Sounds",
          "type" : "artist",
          "uri" : "spotify:artist:6ZJ0ZFJUx02NthS3RH3VYz"
        } ],
        "external_urls" : {
          "spotify" : "https://open.spotify.com/album/4CIsCdMx1SZwwTPVqVcRX1"
        },
        "href" : "https://api.spotify.com/v1/albums/4CIsCdMx1SZwwTPVqVcRX1",
        "id" : "4CIsCdMx1SZwwTPVqVcRX1",
        "images" : [ {
          "height" : 640,
          "url" : "https://i.scdn.co/image/ab67616d0000b273c3afe6956a3408dedb868399",
          "width" : 640
        }, {
          "height" : 300,
          "url" : "https://i.scdn.co/image/ab67616d00001e02c3afe6956a3408dedb868399",
          "width" : 300
        }, {
          "height" : 64,
          "url" : "https://i.scdn.co/image/ab67616d00004851c3afe6956a3408dedb868399",
          "width" : 64
        } ],
        "name" : "59 Beautiful songs pack vol.4",
        "release_date" : "2016-03-01",
        "release_date_precision" : "day",
        "total_tracks" : 59,
        "type" : "album",
        "uri" : "spotify:album:4CIsCdMx1SZwwTPVqVcRX1"
      },
      "artists" : [ {
        "external_urls" : {
          "spotify" : "https://open.spotify.com/artist/6ZJ0ZFJUx02NthS3RH3VYz"
        },
        "href" : "https://api.spotify.com/v1/artists/6ZJ0ZFJUx02NthS3RH3VYz",
        "id" : "6ZJ0ZFJUx02NthS3RH3VYz",
        "name" : "The Joyful Sounds",
        "type" : "artist",
        "uri" : "spotify:artist:6ZJ0ZFJUx02NthS3RH3VYz"
      } ],
      "disc_number" : 1,
      "duration_ms" : 32299,
      "explicit" : false,
      "external_ids" : {
        "isrc" : "TCJPE1645021"
      },
      "external_urls" : {
        "spotify" : "https://open.spotify.com/track/3TLNgudrAYsnbOm96m7Mv2"
      },
      "href" : "https://api.spotify.com/v1/tracks/3TLNgudrAYsnbOm96m7Mv2",
      "id" : "3TLNgudrAYsnbOm96m7Mv2",
      "is_local" : false,
      "is_playable" : true,
      "name" : "The Lord Is in His Holy Temple",
      "popularity" : 0,
      "preview_url" : "https://p.scdn.co/mp3-preview/3b6c2262ee8d73c8736e8af3a7053b57eb010a23?cid=774b29d4f13844c495f206cafdad9c86",
      "track_number" : 49,
      "type" : "track",
      "uri" : "spotify:track:3TLNgudrAYsnbOm96m7Mv2"
    }, {
      "album" : {
        "album_type" : "album",
        "artists" : [ {
          "external_urls" : {
            "spotify" : "https://open.spotify.com/artist/0Nca7W3ogv4nv9jWbv92rQ"
          },
          "href" : "https://api.spotify.com/v1/artists/0Nca7W3ogv4nv9jWbv92rQ",
          "id" : "0Nca7W3ogv4nv9jWbv92rQ",
          "name" : "Discover Worship",
          "type" : "artist",
          "uri" : "spotify:artist:0Nca7W3ogv4nv9jWbv92rQ"
        } ],
        "external_urls" : {
          "spotify" : "https://open.spotify.com/album/0zpCaJp0UwMqao6OGXTXdb"
        },
        "href" : "https://api.spotify.com/v1/albums/0zpCaJp0UwMqao6OGXTXdb",
        "id" : "0zpCaJp0UwMqao6OGXTXdb",
        "images" : [ {
          "height" : 640,
          "url" : "https://i.scdn.co/image/ab67616d0000b27333cdd8daeb1de6ea8016b9b9",
          "width" : 640
        }, {
          "height" : 300,
          "url" : "https://i.scdn.co/image/ab67616d00001e0233cdd8daeb1de6ea8016b9b9",
          "width" : 300
        }, {
          "height" : 64,
          "url" : "https://i.scdn.co/image/ab67616d0000485133cdd8daeb1de6ea8016b9b9",
          "width" : 64
        } ],
        "name" : "Just Piano Hymns: Near to the Heart of God",
        "release_date" : "2016-11-04",
        "release_date_precision" : "day",
        "total_tracks" : 10,
        "type" : "album",
        "uri" : "spotify:album:0zpCaJp0UwMqao6OGXTXdb"
      },
      "artists" : [ {
        "external_urls" : {
          "spotify" : "https://open.spotify.com/artist/0Nca7W3ogv4nv9jWbv92rQ"
        },
        "href" : "https://api.spotify.com/v1/artists/0Nca7W3ogv4nv9jWbv92rQ",
        "id" : "0Nca7W3ogv4nv9jWbv92rQ",
        "name" : "Discover Worship",
        "type" : "artist",
        "uri" : "spotify:artist:0Nca7W3ogv4nv9jWbv92rQ"
      } ],
      "disc_number" : 1,
      "duration_ms" : 142613,
      "explicit" : false,
      "external_ids" : {
        "isrc" : "QM7WK1600335"
      },
      "external_urls" : {
        "spotify" : "https://open.spotify.com/track/14xycDQPPNuQdjEruQ7YFM"
      },
      "href" : "https://api.spotify.com/v1/tracks/14xycDQPPNuQdjEruQ7YFM",
      "id" : "14xycDQPPNuQdjEruQ7YFM",
      "is_local" : false,
      "is_playable" : true,
      "name" : "The Lord Is in His Holy Temple",
      "popularity" : 0,
      "preview_url" : "https://p.scdn.co/mp3-preview/7bdbc0b518afd8585c8f12487236ce724ae0a983?cid=774b29d4f13844c495f206cafdad9c86",
      "track_number" : 5,
      "type" : "track",
      "uri" : "spotify:track:14xycDQPPNuQdjEruQ7YFM"
    }, {
      "album" : {
        "album_type" : "album",
        "artists" : [ {
          "external_urls" : {
            "spotify" : "https://open.spotify.com/artist/4e9KXOu93BZUx4WagJiAx2"
          },
          "href" : "https://api.spotify.com/v1/artists/4e9KXOu93BZUx4WagJiAx2",
          "id" : "4e9KXOu93BZUx4WagJiAx2",
          "name" : "Joybells",
          "type" : "artist",
          "uri" : "spotify:artist:4e9KXOu93BZUx4WagJiAx2"
        } ],
        "external_urls" : {
          "spotify" : "https://open.spotify.com/album/15ambvmKFJo1dYDCDOXzyj"
        },
        "href" : "https://api.spotify.com/v1/albums/15ambvmKFJo1dYDCDOXzyj",
        "id" : "15ambvmKFJo1dYDCDOXzyj",
        "images" : [ {
          "height" : 640,
          "url" : "https://i.scdn.co/image/ab67616d0000b273344e7774c42b0c7e75dc91fc",
          "width" : 640
        }, {
          "height" : 300,
          "url" : "https://i.scdn.co/image/ab67616d00001e02344e7774c42b0c7e75dc91fc",
          "width" : 300
        }, {
          "height" : 64,
          "url" : "https://i.scdn.co/image/ab67616d00004851344e7774c42b0c7e75dc91fc",
          "width" : 64
        } ],
        "name" : "Having Church",
        "release_date" : "2011-05-01",
        "release_date_precision" : "day",
        "total_tracks" : 14,
        "type" : "album",
        "uri" : "spotify:album:15ambvmKFJo1dYDCDOXzyj"
      },
      "artists" : [ {
        "external_urls" : {
          "spotify" : "https://open.spotify.com/artist/4e9KXOu93BZUx4WagJiAx2"
        },
        "href" : "https://api.spotify.com/v1/artists/4e9KXOu93BZUx4WagJiAx2",
        "id" : "4e9KXOu93BZUx4WagJiAx2",
        "name" : "Joybells",
        "type" : "artist",
        "uri" : "spotify:artist:4e9KXOu93BZUx4WagJiAx2"
      }, {
        "external_urls" : {
          "spotify" : "https://open.spotify.com/artist/1rCFmFMow5dvQNlgCEwTH0"
        },
        "href" : "https://api.spotify.com/v1/artists/1rCFmFMow5dvQNlgCEwTH0",
        "id" : "1rCFmFMow5dvQNlgCEwTH0",
        "name" : "Jonas Kahnberg",
        "type" : "artist",
        "uri" : "spotify:artist:1rCFmFMow5dvQNlgCEwTH0"
      }, {
        "external_urls" : {
          "spotify" : "https://open.spotify.com/artist/4cVkDttYj3aichgu07SMX9"
        },
        "href" : "https://api.spotify.com/v1/artists/4cVkDttYj3aichgu07SMX9",
        "id" : "4cVkDttYj3aichgu07SMX9",
        "name" : "Pelle Fernros",
        "type" : "artist",
        "uri" : "spotify:artist:4cVkDttYj3aichgu07SMX9"
      }, {
        "external_urls" : {
          "spotify" : "https://open.spotify.com/artist/0PzlpH4sOQdCoDhg7xM03q"
        },
        "href" : "https://api.spotify.com/v1/artists/0PzlpH4sOQdCoDhg7xM03q",
        "id" : "0PzlpH4sOQdCoDhg7xM03q",
        "name" : "Olle Ostling",
        "type" : "artist",
        "uri" : "spotify:artist:0PzlpH4sOQdCoDhg7xM03q"
      }, {
        "external_urls" : {
          "spotify" : "https://open.spotify.com/artist/7lPU1v6BWAFB03We40beQ6"
        },
        "href" : "https://api.spotify.com/v1/artists/7lPU1v6BWAFB03We40beQ6",
        "id" : "7lPU1v6BWAFB03We40beQ6",
        "name" : "Goran Bejstam",
        "type" : "artist",
        "uri" : "spotify:artist:7lPU1v6BWAFB03We40beQ6"
      }, {
        "external_urls" : {
          "spotify" : "https://open.spotify.com/artist/42nCIhaLEgoCgUT18Iibvj"
        },
        "href" : "https://api.spotify.com/v1/artists/42nCIhaLEgoCgUT18Iibvj",
        "id" : "42nCIhaLEgoCgUT18Iibvj",
        "name" : "Patric Wermeling",
        "type" : "artist",
        "uri" : "spotify:artist:42nCIhaLEgoCgUT18Iibvj"
      } ],
      "disc_number" : 1,
      "duration_ms" : 90266,
      "explicit" : false,
      "external_ids" : {
        "isrc" : "SEVLI0817401"
      },
      "external_urls" : {
        "spotify" : "https://open.spotify.com/track/6NhzfSw4w6PVNriVa8Gqie"
      },
      "href" : "https://api.spotify.com/v1/tracks/6NhzfSw4w6PVNriVa8Gqie",
      "id" : "6NhzfSw4w6PVNriVa8Gqie",
      "is_local" : false,
      "is_playable" : true,
      "name" : "The Lord is in His Holy Temple",
      "popularity" : 1,
      "preview_url" : "https://p.scdn.co/mp3-preview/2a9944ab14cb77713e1dc96276ce375d340c4381?cid=774b29d4f13844c495f206cafdad9c86",
      "track_number" : 1,
      "type" : "track",
      "uri" : "spotify:track:6NhzfSw4w6PVNriVa8Gqie"
    }, {
      "album" : {
        "album_type" : "album",
        "artists" : [ {
          "external_urls" : {
            "spotify" : "https://open.spotify.com/artist/0SMQbY8l9Mph9d8NLv92oh"
          },
          "href" : "https://api.spotify.com/v1/artists/0SMQbY8l9Mph9d8NLv92oh",
          "id" : "0SMQbY8l9Mph9d8NLv92oh",
          "name" : "RiNG-O choir",
          "type" : "artist",
          "uri" : "spotify:artist:0SMQbY8l9Mph9d8NLv92oh"
        } ],
        "external_urls" : {
          "spotify" : "https://open.spotify.com/album/6IkZ0qe8ttltJD6v7zzHVX"
        },
        "href" : "https://api.spotify.com/v1/albums/6IkZ0qe8ttltJD6v7zzHVX",
        "id" : "6IkZ0qe8ttltJD6v7zzHVX",
        "images" : [ {
          "height" : 640,
          "url" : "https://i.scdn.co/image/ab67616d0000b2732210be4a4a0339087381df9b",
          "width" : 640
        }, {
          "height" : 300,
          "url" : "https://i.scdn.co/image/ab67616d00001e022210be4a4a0339087381df9b",
          "width" : 300
        }, {
          "height" : 64,
          "url" : "https://i.scdn.co/image/ab67616d000048512210be4a4a0339087381df9b",
          "width" : 64
        } ],
        "name" : "Beautiful Hymn Melodies vol.28",
        "release_date" : "2016-03-01",
        "release_date_precision" : "day",
        "total_tracks" : 10,
        "type" : "album",
        "uri" : "spotify:album:6IkZ0qe8ttltJD6v7zzHVX"
      },
      "artists" : [ {
        "external_urls" : {
          "spotify" : "https://open.spotify.com/artist/0SMQbY8l9Mph9d8NLv92oh"
        },
        "href" : "https://api.spotify.com/v1/artists/0SMQbY8l9Mph9d8NLv92oh",
        "id" : "0SMQbY8l9Mph9d8NLv92oh",
        "name" : "RiNG-O choir",
        "type" : "artist",
        "uri" : "spotify:artist:0SMQbY8l9Mph9d8NLv92oh"
      } ],
      "disc_number" : 1,
      "duration_ms" : 50046,
      "explicit" : false,
      "external_ids" : {
        "isrc" : "TCJPE1644511"
      },
      "external_urls" : {
        "spotify" : "https://open.spotify.com/track/5J31PZwUhZKXWCh5SMn3GV"
      },
      "href" : "https://api.spotify.com/v1/tracks/5J31PZwUhZKXWCh5SMn3GV",
      "id" : "5J31PZwUhZKXWCh5SMn3GV",
      "is_local" : false,
      "is_playable" : true,
      "name" : "The Lord Is in His Holy Temple",
      "popularity" : 0,
      "preview_url" : "https://p.scdn.co/mp3-preview/d00c84392462169df16520cf62cb2a99e58e63d5?cid=774b29d4f13844c495f206cafdad9c86",
      "track_number" : 4,
      "type" : "track",
      "uri" : "spotify:track:5J31PZwUhZKXWCh5SMn3GV"
    }, {
      "album" : {
        "album_type" : "compilation",
        "artists" : [ {
          "external_urls" : {
            "spotify" : "https://open.spotify.com/artist/0LyfQWJT6nXafLPZqxe9Of"
          },
          "href" : "https://api.spotify.com/v1/artists/0LyfQWJT6nXafLPZqxe9Of",
          "id" : "0LyfQWJT6nXafLPZqxe9Of",
          "name" : "Various Artists",
          "type" : "artist",
          "uri" : "spotify:artist:0LyfQWJT6nXafLPZqxe9Of"
        } ],
        "external_urls" : {
          "spotify" : "https://open.spotify.com/album/1KPFQ2IFHwgH5JLgYIppOq"
        },
        "href" : "https://api.spotify.com/v1/albums/1KPFQ2IFHwgH5JLgYIppOq",
        "id" : "1KPFQ2IFHwgH5JLgYIppOq",
        "images" : [ {
          "height" : 640,
          "url" : "https://i.scdn.co/image/ab67616d0000b273eb089f4ff721176bc81aa4cf",
          "width" : 640
        }, {
          "height" : 300,
          "url" : "https://i.scdn.co/image/ab67616d00001e02eb089f4ff721176bc81aa4cf",
          "width" : 300
        }, {
          "height" : 64,
          "url" : "https://i.scdn.co/image/ab67616d00004851eb089f4ff721176bc81aa4cf",
          "width" : 64
        } ],
        "name" : "Eleven Offers",
        "release_date" : "2008-07-10",
        "release_date_precision" : "day",
        "total_tracks" : 11,
        "type" : "album",
        "uri" : "spotify:album:1KPFQ2IFHwgH5JLgYIppOq"
      },
      "artists" : [ {
        "external_urls" : {
          "spotify" : "https://open.spotify.com/artist/2nvgLfE7B4uuTHAfzcyjQ8"
        },
        "href" : "https://api.spotify.com/v1/artists/2nvgLfE7B4uuTHAfzcyjQ8",
        "id" : "2nvgLfE7B4uuTHAfzcyjQ8",
        "name" : "Joakim Arenius & Joybells",
        "type" : "artist",
        "uri" : "spotify:artist:2nvgLfE7B4uuTHAfzcyjQ8"
      } ],
      "disc_number" : 1,
      "duration_ms" : 86960,
      "explicit" : false,
      "external_ids" : {
        "isrc" : "USTCG1048966"
      },
      "external_urls" : {
        "spotify" : "https://open.spotify.com/track/5lrkLsZ9Izp2whGqwZEnpd"
      },
      "href" : "https://api.spotify.com/v1/tracks/5lrkLsZ9Izp2whGqwZEnpd",
      "id" : "5lrkLsZ9Izp2whGqwZEnpd",
      "is_local" : false,
      "is_playable" : true,
      "name" : "The Lord Is In His Holy Temple",
      "popularity" : 0,
      "preview_url" : "https://p.scdn.co/mp3-preview/400f6604d4d6e4563c0129da2a0802a4bf39203f?cid=774b29d4f13844c495f206cafdad9c86",
      "track_number" : 8,
      "type" : "track",
      "uri" : "spotify:track:5lrkLsZ9Izp2whGqwZEnpd"
    }, {
      "album" : {
        "album_type" : "album",
        "artists" : [ {
          "external_urls" : {
            "spotify" : "https://open.spotify.com/artist/13vi392E4vdrP8SV0ahXIb"
          },
          "href" : "https://api.spotify.com/v1/artists/13vi392E4vdrP8SV0ahXIb",
          "id" : "13vi392E4vdrP8SV0ahXIb",
          "name" : "David Slater",
          "type" : "artist",
          "uri" : "spotify:artist:13vi392E4vdrP8SV0ahXIb"
        } ],
        "external_urls" : {
          "spotify" : "https://open.spotify.com/album/6URDc3yctlCUqrU0s09O6S"
        },
        "href" : "https://api.spotify.com/v1/albums/6URDc3yctlCUqrU0s09O6S",
        "id" : "6URDc3yctlCUqrU0s09O6S",
        "images" : [ {
          "height" : 640,
          "url" : "https://i.scdn.co/image/ab67616d0000b2732ee8557d4c74f189893d64e3",
          "width" : 640
        }, {
          "height" : 300,
          "url" : "https://i.scdn.co/image/ab67616d00001e022ee8557d4c74f189893d64e3",
          "width" : 300
        }, {
          "height" : 64,
          "url" : "https://i.scdn.co/image/ab67616d000048512ee8557d4c74f189893d64e3",
          "width" : 64
        } ],
        "name" : "Since Jesus Is My Friend",
        "release_date" : "2008-03-25",
        "release_date_precision" : "day",
        "total_tracks" : 23,
        "type" : "album",
        "uri" : "spotify:album:6URDc3yctlCUqrU0s09O6S"
      },
      "artists" : [ {
        "external_urls" : {
          "spotify" : "https://open.spotify.com/artist/13vi392E4vdrP8SV0ahXIb"
        },
        "href" : "https://api.spotify.com/v1/artists/13vi392E4vdrP8SV0ahXIb",
        "id" : "13vi392E4vdrP8SV0ahXIb",
        "name" : "David Slater",
        "type" : "artist",
        "uri" : "spotify:artist:13vi392E4vdrP8SV0ahXIb"
      } ],
      "disc_number" : 1,
      "duration_ms" : 93746,
      "explicit" : false,
      "external_ids" : {
        "isrc" : "USMZA0810392"
      },
      "external_urls" : {
        "spotify" : "https://open.spotify.com/track/6mlZiHFxetfvNLjEIaTlQe"
      },
      "href" : "https://api.spotify.com/v1/tracks/6mlZiHFxetfvNLjEIaTlQe",
      "id" : "6mlZiHFxetfvNLjEIaTlQe",
      "is_local" : false,
      "is_playable" : true,
      "name" : "The Lord Is In His Holy Temple",
      "popularity" : 0,
      "preview_url" : "https://p.scdn.co/mp3-preview/ce6dcfad72a6059f833a7da2025e91c83cf0ed5e?cid=774b29d4f13844c495f206cafdad9c86",
      "track_number" : 13,
      "type" : "track",
      "uri" : "spotify:track:6mlZiHFxetfvNLjEIaTlQe"
    }, {
      "album" : {
        "album_type" : "album",
        "artists" : [ {
          "external_urls" : {
            "spotify" : "https://open.spotify.com/artist/7oDTYRJgwVbcxVCEIFz8Ye"
          },
          "href" : "https://api.spotify.com/v1/artists/7oDTYRJgwVbcxVCEIFz8Ye",
          "id" : "7oDTYRJgwVbcxVCEIFz8Ye",
          "name" : "William Bay",
          "type" : "artist",
          "uri" : "spotify:artist:7oDTYRJgwVbcxVCEIFz8Ye"
        } ],
        "external_urls" : {
          "spotify" : "https://open.spotify.com/album/4bbwdo3oqc8S2xCoodQBbe"
        },
        "href" : "https://api.spotify.com/v1/albums/4bbwdo3oqc8S2xCoodQBbe",
        "id" : "4bbwdo3oqc8S2xCoodQBbe",
        "images" : [ {
          "height" : 640,
          "url" : "https://i.scdn.co/image/ab67616d0000b273b020a70404cb16af7449cda0",
          "width" : 640
        }, {
          "height" : 300,
          "url" : "https://i.scdn.co/image/ab67616d00001e02b020a70404cb16af7449cda0",
          "width" : 300
        }, {
          "height" : 64,
          "url" : "https://i.scdn.co/image/ab67616d00004851b020a70404cb16af7449cda0",
          "width" : 64
        } ],
        "name" : "Trumpet and Guitar",
        "release_date" : "2019-04-25",
        "release_date_precision" : "day",
        "total_tracks" : 12,
        "type" : "album",
        "uri" : "spotify:album:4bbwdo3oqc8S2xCoodQBbe"
      },
      "artists" : [ {
        "external_urls" : {
          "spotify" : "https://open.spotify.com/artist/7oDTYRJgwVbcxVCEIFz8Ye"
        },
        "href" : "https://api.spotify.com/v1/artists/7oDTYRJgwVbcxVCEIFz8Ye",
        "id" : "7oDTYRJgwVbcxVCEIFz8Ye",
        "name" : "William Bay",
        "type" : "artist",
        "uri" : "spotify:artist:7oDTYRJgwVbcxVCEIFz8Ye"
      } ],
      "disc_number" : 1,
      "duration_ms" : 135312,
      "explicit" : false,
      "external_ids" : {
        "isrc" : "usdy41949932"
      },
      "external_urls" : {
        "spotify" : "https://open.spotify.com/track/20yewPEFYFodqTpZSSCDHV"
      },
      "href" : "https://api.spotify.com/v1/tracks/20yewPEFYFodqTpZSSCDHV",
      "id" : "20yewPEFYFodqTpZSSCDHV",
      "is_local" : false,
      "is_playable" : true,
      "name" : "The Lord Is in His Holy Temple",
      "popularity" : 0,
      "preview_url" : "https://p.scdn.co/mp3-preview/703c970c51f7bc0021df722e5f939c5b565c14e8?cid=774b29d4f13844c495f206cafdad9c86",
      "track_number" : 12,
      "type" : "track",
      "uri" : "spotify:track:20yewPEFYFodqTpZSSCDHV"
    } ],
    "limit" : 10,
    "next" : "https://api.spotify.com/v1/search?query=The+Lord+Is+in+His+Holy+Temple&type=track&market=US&offset=15&limit=10",
    "offset" : 5,
    "previous" : "https://api.spotify.com/v1/search?query=The+Lord+Is+in+His+Holy+Temple&type=track&market=US&offset=0&limit=10",
    "total" : 41
  }
}