{
  "tracks" : {
    "href" : "https://api.spotify.com/v1/search?query=Come%2C+Ye+Sinners&type=track&market=US&offset=5&limit=10",
    "items" : [ {
      "album" : {
        "album_type" : "album",
        "artists" : [ {
          "external_urls" : {
            "spotify" : "https://open.spotify.com/artist/6MYKRhEIKscR8qdGlvpk9y"
          },
          "href" : "https://api.spotify.com/v1/artists/6MYKRhEIKscR8qdGlvpk9y",
          "id" : "6MYKRhEIKscR8qdGlvpk9y",
          "name" : "Sovereign Grace Music",
          "type" : "artist",
          "uri" : "spotify:artist:6MYKRhEIKscR8qdGlvpk9y"
        }, {
          "external_urls" : {
            "spotify" : "https://open.spotify.com/artist/3mWDcLkpeZ5aReUNWoOadU"
          },
          "href" : "https://api.spotify.com/v1/artists/3mWDcLkpeZ5aReUNWoOadU",
          "id" : "3mWDcLkpeZ5aReUNWoOadU",
          "name" : "Bob Kauflin",
          "type" : "artist",
          "uri" : "spotify:artist:3mWDcLkpeZ5aReUNWoOadU"
        } ],
        "external_urls" : {
          "spotify" : "https://open.spotify.com/album/1L8ux7GT04wMY8cCYZfTEE"
        },
        "href" : "https://api.spotify.com/v1/albums/1L8ux7GT04wMY8cCYZfTEE",
        "id" : "1L8ux7GT04wMY8cCYZfTEE",
        "images" : [ {
          "height" : 640,
          "url" : "https://i.scdn.co/image/ab67616d0000b273d7e594da44470d973c04c107",
          "width" : 640
        }, {
          "height" : 300,
          "url" : "https://i.scdn.co/image/ab67616d00001e02d7e594da44470d973c04c107",
          "width" : 300
        }, {
          "height" : 64,
          "url" : "https://i.scdn.co/image/ab67616d00004851d7e594da44470d973c04c107",
          "width" : 64
        } ],
        "name" : "Together for the Gospel IV (Live)",
        "release_date" : "2018-10-26",
        "release_date_precision" : "day",
        "total_tracks" : 15,
        "type" : "album",
        "uri" : "spotify:album:1L8ux7GT04wMY8cCYZfTEE"
      },
      "artists" : [ {
        "external_urls" : {
          "spotify" : "https://open.spotify.com/artist/6MYKRhEIKscR8qdGlvpk9y"
        },
        "href" : "https://api.spotify.com/v1/artists/6MYKRhEIKscR8qdGlvpk9y",
        "id" : "6MYKRhEIKscR8qdGlvpk9y",
        "name" : "Sovereign Grace Music",
        "type" : "artist",
        "uri" : "spotify:artist:6MYKRhEIKscR8qdGlvpk9y"
      }, {
        "external_urls" : {
          "spotify" : "https://open.spotify.com/artist/3mWDcLkpeZ5aReUNWoOadU"
        },
        "href" : "https://api.spotify.com/v1/artists/3mWDcLkpeZ5aReUNWoOadU",
        "id" : "3mWDcLkpeZ5aReUNWoOadU",
        "name" : "Bob Kauflin",
        "type" : "artist",
        "uri" : "spotify:artist:3mWDcLkpeZ5aReUNWoOadU"
      } ],
      "disc_number" : 1,
      "duration_ms" : 222974,
      "explicit" : false,
      "external_ids" : {
        "isrc" : "US25L1800467"
      },
      "external_urls" : {
        "spotify" : "https://open.spotify.com/track/4eRvCBR0ofanEiFMb0dRDS"
      },
      "href" : "https://api.spotify.com/v1/tracks/4eRvCBR0ofanEiFMb0dRDS",
      "id" : "4eRvCBR0ofanEiFMb0dRDS",
      "is_local" : false,
      "is_playable" : true,
      "name" : "Come Ye Sinners - Live",
      "popularity" : 24,
      "preview_url" : "https://p.scdn.co/mp3-preview/ce3d33e872d5953f8700f759443eae34ba2d5ec8?cid=774b29d4f13844c495f206cafdad9c86",
      "track_number" : 4,
      "type" : "track",
      "uri" : "spotify:track:4eRvCBR0ofanEiFMb0dRDS"
    }, {
      "album" : {
        "album_type" : "album",
        "artists" : [ {
          "external_urls" : {
            "spotify" : "https://open.spotify.com/artist/3obIEwSdJCDahAb7WtFdjg"
          },
          "href" : "https://api.spotify.com/v1/artists/3obIEwSdJCDahAb7WtFdjg",
          "id" : "3obIEwSdJCDahAb7WtFdjg",
          "name" : "Sojourn",
          "type" : "artist",
          "uri" : "spotify:artist:3obIEwSdJCDahAb7WtFdjg"
        } ],
        "external_urls" : {
          "spotify" : "https://open.spotify.com/album/5a2NIXjbeEHgyUYqFzXZQp"
        },
        "href" : "https://api.spotify.com/v1/albums/5a2NIXjbeEHgyUYqFzXZQp",
        "id" : "5a2NIXjbeEHgyUYqFzXZQp",
        "images" : [ {
          "height" : 640,
          "url" : "https://i.scdn.co/image/ab67616d0000b273266b2da5a2f1fd14a21b9a26",
          "width" : 640
        }, {
          "height" : 300,
          "url" : "https://i.scdn.co/image/ab67616d00001e02266b2da5a2f1fd14a21b9a26",
          "width" : 300
        }, {
          "height" : 64,
          "url" : "https://i.scdn.co/image/ab67616d00004851266b2da5a2f1fd14a21b9a26",
          "width" : 64
        } ],
        "name" : "Come Ye Sinners",
        "release_date" : "2012-11-20",
        "release_date_precision" : "day",
        "total_tracks" : 11,
        "type" : "album",
        "uri" : "spotify:album:5a2NIXjbeEHgyUYqFzXZQp"
      },
      "artists" : [ {
        "external_urls" : {
          "spotify" : "https://open.spotify.com/artist/3obIEwSdJCDahAb7WtFdjg"
        },
        "href" : "https://api.spotify.com/v1/artists/3obIEwSdJCDahAb7WtFdjg",
        "id" : "3obIEwSdJCDahAb7WtFdjg",
        "name" : "Sojourn",
        "type" : "artist",
        "uri" : "spotify:artist:3obIEwSdJCDahAb7WtFdjg"
      } ],
      "disc_number" : 1,
      "duration_ms" : 308821,
      "explicit" : false,
      "external_ids" : {
        "isrc" : "US5BC1200104"
      },
      "external_urls" : {
        "spotify" : "https://open.spotify.com/track/0YdmZrXJ5uq7hKZdprdEf5"
      },
      "href" : "https://api.spotify.com/v1/tracks/0YdmZrXJ5uq7hKZdprdEf5",
      "id" : "0YdmZrXJ5uq7hKZdprdEf5",
      "is_local" : false,
      "is_playable" : true,
      "name" : "Come Ye Sinners",
      "popularity" : 19,
      "preview_url" : "https://p.scdn.co/mp3-preview/695bdc35449a53e2e7680a6c1ade181d6e246c00?cid=774b29d4f13844c495f206cafdad9c86",
      "track_number" : 4,
      "type" : "track",
      "uri" : "spotify:track:0YdmZrXJ5uq7hKZdprdEf5"
    }, {
      "album" : {
        "album_type" : "album",
        "artists" : [ {
          "external_urls" : {
            "spotify" : "https://open.spotify.com/artist/0HoHU8SXe0g9jJGOfL8rDq"
          },
          "href" : "https://api.spotify.com/v1/artists/0HoHU8SXe0g9jJGOfL8rDq",
          "id" : "0HoHU8SXe0g9jJGOfL8rDq",
          "name" : "Indelible Grace Music",
          "type" : "artist",
          "uri" : "spotify:artist:0HoHU8SXe0g9jJGOfL8rDq"
        } ],
        "external_urls" : {
          "spotify" : "https://open.spotify.com/album/1DjEafJtRkGyO1VEAdn65y"
        },
        "href" : "https://api.spotify.com/v1/albums/1DjEafJtRkGyO1VEAdn65y",
        "id" : "1DjEafJtRkGyO1VEAdn65y",
        "images" : [ {
          "height" : 640,
          "url" : "https://i.scdn.co/image/ab67616d0000b273bb0d81f386c0ace72c8d871e",
          "width" : 640
        }, {
          "height" : 300,
          "url" : "https://i.scdn.co/image/ab67616d00001e02bb0d81f386c0ace72c8d871e",
          "width" : 300
        }, {
          "height" : 64,
          "url" : "https://i.scdn.co/image/ab67616d00004851bb0d81f386c0ace72c8d871e",
          "width" : 64
        } ],
        "name" : "The Hymn Sing (Live in Nashville)",
        "release_date" : "2010-12-14",
        "release_date_precision" : "day",
        "total_tracks" : 18,
        "type" : "album",
        "uri" : "spotify:album:1DjEafJtRkGyO1VEAdn65y"
      },
      "artists" : [ {
        "external_urls" : {
          "spotify" : "https://open.spotify.com/artist/0HoHU8SXe0g9jJGOfL8rDq"
        },
        "href" : "https://api.spotify.com/v1/artists/0HoHU8SXe0g9jJGOfL8rDq",
        "id" : "0HoHU8SXe0g9jJGOfL8rDq",
        "name" : "Indelible Grace Music",
        "type" : "artist",
        "uri" : "spotify:artist:0HoHU8SXe0g9jJGOfL8rDq"
      } ],
      "disc_number" : 1,
      "duration_ms" : 241613,
      "explicit" : false,
      "external_ids" : {
        "isrc" : "TCAAT1078057"
      },
      "external_urls" : {
        "spotify" : "https://open.spotify.com/track/2WC6PHR3pX3mmXyaxwdhIA"
      },
      "href" : "https://api.spotify.com/v1/tracks/2WC6PHR3pX3mmXyaxwdhIA",
      "id" : "2WC6PHR3pX3mmXyaxwdhIA",
      "is_local" : false,
      "is_playable" : true,
      "name" : "Come Ye Sinners (Live)",
      "popularity" : 19,
      "preview_url" : "https://p.scdn.co/mp3-preview/1e160120e6284372818ac332ad929e1904848f5e?cid=774b29d4f13844c495f206cafdad9c86",
      "track_number" : 4,
      "type" : "track",
      "uri" : "spotify:track:2WC6PHR3pX3mmXyaxwdhIA"
    }, {
      "album" : {
        "album_type" : "album",
        "artists" : [ {
          "external_urls" : {
            "spotify" : "https://open.spotify.com/artist/6mGZXaZ4SWNh6IsJ57thCp"
          },
          "href" : "https://api.spotify.com/v1/artists/6mGZXaZ4SWNh6IsJ57thCp",
          "id" : "6mGZXaZ4SWNh6IsJ57thCp",
          "name" : "Fernando Ortega",
          "type" : "artist",
          "uri" : "spotify:artist:6mGZXaZ4SWNh6IsJ57thCp"
        } ],
        "external_urls" : {
          "spotify" : "https://open.spotify.com/album/6b5XytCLYrxIjlxTQgcoz7"
        },
        "href" : "https://api.spotify.com/v1/albums/6b5XytCLYrxIjlxTQgcoz7",
        "id" : "6b5XytCLYrxIjlxTQgcoz7",
        "images" : [ {
          "height" : 640,
          "url" : "https://i.scdn.co/image/ab67616d0000b273d93002fcb77598c2cf9b08c7",
          "width" : 640
        }, {
          "height" : 300,
          "url" : "https://i.scdn.co/image/ab67616d00001e02d93002fcb77598c2cf9b08c7",
          "width" : 300
        }, {
          "height" : 64,
          "url" : "https://i.scdn.co/image/ab67616d00004851d93002fcb77598c2cf9b08c7",
          "width" : 64
        } ],
        "name" : "BEGINNINGS - 2 CD Set",
        "release_date" : "2005-02-25",
        "release_date_precision" : "day",
        "total_tracks" : 34,
        "type" : "album",
        "uri" : "spotify:album:6b5XytCLYrxIjlxTQgcoz7"
      },
      "artists" : [ {
        "external_urls" : {
          "spotify" : "https://open.spotify.com/artist/6mGZXaZ4SWNh6IsJ57thCp"
        },
        "href" : "https://api.spotify.com/v1/artists/6mGZXaZ4SWNh6IsJ57thCp",
        "id" : "6mGZXaZ4SWNh6IsJ57thCp",
        "name" : "Fernando Ortega",
        "type" : "artist",
        "uri" : "spotify:artist:6mGZXaZ4SWNh6IsJ57thCp"
      } ],
      "disc_number" : 1,
      "duration_ms" : 486573,
      "explicit" : false,
      "external_ids" : {
        "isrc" : "ushm90539058"
      },
      "external_urls" : {
        "spotify" : "https://open.spotify.com/track/7bXL4PqyrxWgnZXoIISM9d"
      },
      "href" : "https://api.spotify.com/v1/tracks/7bXL4PqyrxWgnZXoIISM9d",
      "id" : "7bXL4PqyrxWgnZXoIISM9d",
      "is_local" : false,
      "is_playable" : true,
      "name" : "I Need Thee Every Hour- Just As I Am - Come Ye Sinners",
      "popularity" : 26,
      "preview_url" : "https://p.scdn.co/mp3-preview/65798d9be3ca6957db48cd72f63db85605aaa956?cid=774b29d4f13844c495f206cafdad9c86",
      "track_number" : 15,
      "type" : "track",
      "uri" : "spotify:track:7bXL4PqyrxWgnZXoIISM9d"
    }, {
      "album" : {
        "album_type" : "album",
        "artists" : [ {
          "external_urls" : {
            "spotify" : "https://open.spotify.com/artist/5ZQ1IRr5IWLExmkPDW3FeO"
          },
          "href" : "https://api.spotify.com/v1/artists/5ZQ1IRr5IWLExmkPDW3FeO",
          "id" : "5ZQ1IRr5IWLExmkPDW3FeO",
          "name" : "Maïgane Diop",
          "type" : "artist",
          "uri" : "spotify:artist:5ZQ1IRr5IWLExmkPDW3FeO"
        } ],
        "external_urls" : {
          "spotify" : "https://open.spotify.com/album/2lua7D9Av0DSXr6fxgPsXt"
        },
        "href" : "https://api.spotify.com/v1/albums/2lua7D9Av0DSXr6fxgPsXt",
        "id" : "2lua7D9Av0DSXr6fxgPsXt",
        "images" : [ {
          "height" : 640,
          "url" : "https://i.scdn.co/image/ab67616d0000b2738311c1d3692964fefbd03357",
          "width" : 640
        }, {
          "height" : 300,
          "url" : "https://i.scdn.co/image/ab67616d00001e028311c1d3692964fefbd03357",
          "width" : 300
        }, {
          "height" : 64,
          "url" : "https://i.scdn.co/image/ab67616d000048518311c1d3692964fefbd03357",
          "width" : 64
        } ],
        "name" : "Forward",
        "release_date" : "2020-05-22",
        "release_date_precision" : "day",
        "total_tracks" : 8,
        "type" : "album",
        "uri" : "spotify:album:2lua7D9Av0DSXr6fxgPsXt"
      },
      "artists" : [ {
        "external_urls" : {
          "spotify" : "https://open.spotify.com/artist/5ZQ1IRr5IWLExmkPDW3FeO"
        },
        "href" : "https://api.spotify.com/v1/artists/5ZQ1IRr5IWLExmkPDW3FeO",
        "id" : "5ZQ1IRr5IWLExmkPDW3FeO",
        "name" : "Maïgane Diop",
        "type" : "artist",
        "uri" : "spotify:artist:5ZQ1IRr5IWLExmkPDW3FeO"
      } ],
      "disc_number" : 1,
      "duration_ms" : 337160,
      "explicit" : false,
      "external_ids" : {
        "isrc" : "TCAEW2094581"
      },
      "external_urls" : {
        "spotify" : "https://open.spotify.com/track/7Fre5uIVDKP4OijsVdmn3O"
      },
      "href" : "https://api.spotify.com/v1/tracks/7Fre5uIVDKP4OijsVdmn3O",
      "id" : "7Fre5uIVDKP4OijsVdmn3O",
      "is_local" : false,
      "is_playable" : true,
      "name" : "Come, Ye Sinners",
      "popularity" : 1,
      "preview_url" : "https://p.scdn.co/mp3-preview/b1a763d19338f694661f1703d3f3c4adad273174?cid=774b29d4f13844c495f206cafdad9c86",
      "track_number" : 1,
      "type" : "track",
      "uri" : "spotify:track:7Fre5uIVDKP4OijsVdmn3O"
    }, {
      "album" : {
        "album_type" : "compilation",
        "artists" : [ {
          "external_urls" : {
            "spotify" : "https://open.spotify.com/artist/0LyfQWJT6nXafLPZqxe9Of"
          },
          "href" : "https://api.spotify.com/v1/artists/0LyfQWJT6nXafLPZqxe9Of",
          "id" : "0LyfQWJT6nXafLPZqxe9Of",
          "name" : "Various Artists",
          "type" : "artist",
          "uri" : "spotify:artist:0LyfQWJT6nXafLPZqxe9Of"
        } ],
        "external_urls" : {
          "spotify" : "https://open.spotify.com/album/5oOGXLgQtWaqjMSxwAEYEB"
        },
        "href" : "https://api.spotify.com/v1/albums/5oOGXLgQtWaqjMSxwAEYEB",
        "id" : "5oOGXLgQtWaqjMSxwAEYEB",
        "images" : [ {
          "height" : 640,
          "url" : "https://i.scdn.co/image/ab67616d0000b273f737f886f82e2315a07074f5",
          "width" : 640
        }, {
          "height" : 300,
          "url" : "https://i.scdn.co/image/ab67616d00001e02f737f886f82e2315a07074f5",
          "width" : 300
        }, {
          "height" : 64,
          "url" : "https://i.scdn.co/image/ab67616d00004851f737f886f82e2315a07074f5",
          "width" : 64
        } ],
        "name" : "Hymns 4 Worship, Vol. 2: Just As I Am",
        "release_date" : "2005-01-01",
        "release_date_precision" : "day",
        "total_tracks" : 22,
        "type" : "album",
        "uri" : "spotify:album:5oOGXLgQtWaqjMSxwAEYEB"
      },
      "artists" : [ {
        "external_urls" : {
          "spotify" : "https://open.spotify.com/artist/0rknP6vHRI8p1ZsfOgnNnC"
        },
        "href" : "https://api.spotify.com/v1/artists/0rknP6vHRI8p1ZsfOgnNnC",
        "id" : "0rknP6vHRI8p1ZsfOgnNnC",
        "name" : "Ruut Sallinen",
        "type" : "artist",
        "uri" : "spotify:artist:0rknP6vHRI8p1ZsfOgnNnC"
      } ],
      "disc_number" : 1,
      "duration_ms" : 260666,
      "explicit" : false,
      "external_ids" : {
        "isrc" : "US25L0500190"
      },
      "external_urls" : {
        "spotify" : "https://open.spotify.com/track/02tN3Dh1WY3XP3SUgAbavd"
      },
      "href" : "https://api.spotify.com/v1/tracks/02tN3Dh1WY3XP3SUgAbavd",
      "id" : "02tN3Dh1WY3XP3SUgAbavd",
      "is_local" : false,
      "is_playable" : true,
      "name" : "I Will Arise and Go to Jesus (Come Ye Sinners Poor and Needy)",
      "popularity" : 22,
      "preview_url" : "https://p.scdn.co/mp3-preview/44dc7891794b92904589706dea65f90bea082517?cid=774b29d4f13844c495f206cafdad9c86",
      "track_number" : 14,
      "type" : "track",
      "uri" : "spotify:track:02tN3Dh1WY3XP3SUgAbavd"
    }, {
      "album" : {
        "album_type" : "single",
        "artists" : [ {
          "external_urls" : {
            "spotify" : "https://open.spotify.com/artist/0ZREAfzu5USvZD9dn52j5F"
          },
          "href" : "https://api.spotify.com/v1/artists/0ZREAfzu5USvZD9dn52j5F",
          "id" : "0ZREAfzu5USvZD9dn52j5F",
          "name" : "Hymns of the People",
          "type" : "artist",
          "uri" : "spotify:artist:0ZREAfzu5USvZD9dn52j5F"
        } ],
        "external_urls" : {
          "spotify" : "https://open.spotify.com/album/07ylTx2YLZ5WffOPy4bEGu"
        },
        "href" : "https://api.spotify.com/v1/albums/07ylTx2YLZ5WffOPy4bEGu",
        "id" : "07ylTx2YLZ5WffOPy4bEGu",
        "images" : [ {
          "height" : 640,
          "url" : "https://i.scdn.co/image/ab67616d0000b273010cc5109aaa899aa2a29e7a",
          "width" : 640
        }, {
          "height" : 300,
          "url" : "https://i.scdn.co/image/ab67616d00001e02010cc5109aaa899aa2a29e7a",
          "width" : 300
        }, {
          "height" : 64,
          "url" : "https://i.scdn.co/image/ab67616d00004851010cc5109aaa899aa2a29e7a",
          "width" : 64
        } ],
        "name" : "Phase One and Phase Two",
        "release_date" : "2013-01-29",
        "release_date_precision" : "day",
        "total_tracks" : 6,
        "type" : "album",
        "uri" : "spotify:album:07ylTx2YLZ5WffOPy4bEGu"
      },
      "artists" : [ {
        "external_urls" : {
          "spotify" : "https://open.spotify.com/artist/0ZREAfzu5USvZD9dn52j5F"
        },
        "href" : "https://api.spotify.com/v1/artists/0ZREAfzu5USvZD9dn52j5F",
        "id" : "0ZREAfzu5USvZD9dn52j5F",
        "name" : "Hymns of the People",
        "type" : "artist",
        "uri" : "spotify:artist:0ZREAfzu5USvZD9dn52j5F"
      } ],
      "disc_number" : 1,
      "duration_ms" : 267546,
      "explicit" : false,
      "external_ids" : {
        "isrc" : "TCABL1209967"
      },
      "external_urls" : {
        "spotify" : "https://open.spotify.com/track/3R6PaM3AQV6qWw9EsbDze4"
      },
      "href" : "https://api.spotify.com/v1/tracks/3R6PaM3AQV6qWw9EsbDze4",
      "id" : "3R6PaM3AQV6qWw9EsbDze4",
      "is_local" : false,
      "is_playable" : true,
      "name" : "Come Ye Sinners",
      "popularity" : 16,
      "preview_url" : "https://p.scdn.co/mp3-preview/a5b4eedac6e120a5a03a40d3618d1a214eac8c4e?cid=774b29d4f13844c495f206cafdad9c86",
      "track_number" : 2,
      "type" : "track",
      "uri" : "spotify:track:3R6PaM3AQV6qWw9EsbDze4"
    }, {
      "album" : {
        "album_type" : "album",
        "artists" : [ {
          "external_urls" : {
            "spotify" : "https://open.spotify.com/artist/0HoHU8SXe0g9jJGOfL8rDq"
          },
          "href" : "https://api.spotify.com/v1/artists/0HoHU8SXe0g9jJGOfL8rDq",
          "id" : "0HoHU8SXe0g9jJGOfL8rDq",
          "name" : "Indelible Grace Music",
          "type" : "artist",
          "uri" : "spotify:artist:0HoHU8SXe0g9jJGOfL8rDq"
        } ],
        "external_urls" : {
          "spotify" : "https://open.spotify.com/album/5KckFSed5NacGkeRVEJj74"
        },
        "href" : "https://api.spotify.com/v1/albums/5KckFSed5NacGkeRVEJj74",
        "id" : "5KckFSed5NacGkeRVEJj74",
        "images" : [ {
          "height" : 640,
          "url" : "https://i.scdn.co/image/ab67616d0000b2733fe8b6e7747ad79d2391f4f4",
          "width" : 640
        }, {
          "height" : 300,
          "url" : "https://i.scdn.co/image/ab67616d00001e023fe8b6e7747ad79d2391f4f4",
          "width" : 300
        }, {
          "height" : 64,
          "url" : "https://i.scdn.co/image/ab67616d000048513fe8b6e7747ad79d2391f4f4",
          "width" : 64
        } ],
        "name" : "Indelible Grace Side A",
        "release_date" : "2008-10-05",
        "release_date_precision" : "day",
        "total_tracks" : 9,
        "type" : "album",
        "uri" : "spotify:album:5KckFSed5NacGkeRVEJj74"
      },
      "artists" : [ {
        "external_urls" : {
          "spotify" : "https://open.spotify.com/artist/0HoHU8SXe0g9jJGOfL8rDq"
        },
        "href" : "https://api.spotify.com/v1/artists/0HoHU8SXe0g9jJGOfL8rDq",
        "id" : "0HoHU8SXe0g9jJGOfL8rDq",
        "name" : "Indelible Grace Music",
        "type" : "artist",
        "uri" : "spotify:artist:0HoHU8SXe0g9jJGOfL8rDq"
      } ],
      "disc_number" : 1,
      "duration_ms" : 232733,
      "explicit" : false,
      "external_ids" : {
        "isrc" : "USTC60886774"
      },
      "external_urls" : {
        "spotify" : "https://open.spotify.com/track/1mI6EN2SPtIhWE7Bg0AEKR"
      },
      "href" : "https://api.spotify.com/v1/tracks/1mI6EN2SPtIhWE7Bg0AEKR",
      "id" : "1mI6EN2SPtIhWE7Bg0AEKR",
      "is_local" : false,
      "is_playable" : true,
      "name" : "Come Ye Sinners",
      "popularity" : 15,
      "preview_url" : "https://p.scdn.co/mp3-preview/3b28db158cacce4b67595a9d99732cf4b217af3b?cid=774b29d4f13844c495f206cafdad9c86",
      "track_number" : 1,
      "type" : "track",
      "uri" : "spotify:track:1mI6EN2SPtIhWE7Bg0AEKR"
    }, {
      "album" : {
        "album_type" : "album",
        "artists" : [ {
          "external_urls" : {
            "spotify" : "https://open.spotify.com/artist/4xPxYiZyp9SWFG3MIFkee5"
          },
          "href" : "https://api.spotify.com/v1/artists/4xPxYiZyp9SWFG3MIFkee5",
          "id" : "4xPxYiZyp9SWFG3MIFkee5",
          "name" : "Robbie Seay Band",
          "type" : "artist",
          "uri" : "spotify:artist:4xPxYiZyp9SWFG3MIFkee5"
        } ],
        "external_urls" : {
          "spotify" : "https://open.spotify.com/album/2Qayl24ZWvLkncqDORNrNg"
        },
        "href" : "https://api.spotify.com/v1/albums/2Qayl24ZWvLkncqDORNrNg",
        "id" : "2Qayl24ZWvLkncqDORNrNg",
        "images" : [ {
          "height" : 640,
          "url" : "https://i.scdn.co/image/ab67616d0000b273da3a425d1a0a071ceb653279",
          "width" : 640
        }, {
          "height" : 300,
          "url" : "https://i.scdn.co/image/ab67616d00001e02da3a425d1a0a071ceb653279",
          "width" : 300
        }, {
          "height" : 64,
          "url" : "https://i.scdn.co/image/ab67616d00004851da3a425d1a0a071ceb653279",
          "width" : 64
        } ],
        "name" : "Better Days",
        "release_date" : "2005-01-01",
        "release_date_precision" : "day",
        "total_tracks" : 11,
        "type" : "album",
        "uri" : "spotify:album:2Qayl24ZWvLkncqDORNrNg"
      },
      "artists" : [ {
        "external_urls" : {
          "spotify" : "https://open.spotify.com/artist/4xPxYiZyp9SWFG3MIFkee5"
        },
        "href" : "https://api.spotify.com/v1/artists/4xPxYiZyp9SWFG3MIFkee5",
        "id" : "4xPxYiZyp9SWFG3MIFkee5",
        "name" : "Robbie Seay Band",
        "type" : "artist",
        "uri" : "spotify:artist:4xPxYiZyp9SWFG3MIFkee5"
      } ],
      "disc_number" : 1,
      "duration_ms" : 239413,
      "explicit" : false,
      "external_ids" : {
        "isrc" : "USSP30500121"
      },
      "external_urls" : {
        "spotify" : "https://open.spotify.com/track/6wkrxYqe5ErEKj2frmMzxC"
      },
      "href" : "https://api.spotify.com/v1/tracks/6wkrxYqe5ErEKj2frmMzxC",
      "id" : "6wkrxYqe5ErEKj2frmMzxC",
      "is_local" : false,
      "is_playable" : true,
      "name" : "Come Ye Sinners - Better Days Album Version",
      "popularity" : 16,
      "preview_url" : null,
      "track_number" : 8,
      "type" : "track",
      "uri" : "spotify:track:6wkrxYqe5ErEKj2frmMzxC"
    }, {
      "album" : {
        "album_type" : "album",
        "artists" : [ {
          "external_urls" : {
            "spotify" : "https://open.spotify.com/artist/57swDg4BNcQS73YIJCchnf"
          },
          "href" : "https://api.spotify.com/v1/artists/57swDg4BNcQS73YIJCchnf",
          "id" : "57swDg4BNcQS73YIJCchnf",
          "name" : "Todd Agnew",
          "type" : "artist",
          "uri" : "spotify:artist:57swDg4BNcQS73YIJCchnf"
        } ],
        "external_urls" : {
          "spotify" : "https://open.spotify.com/album/6lZN8tlILszpYqPNlVZhV5"
        },
        "href" : "https://api.spotify.com/v1/albums/6lZN8tlILszpYqPNlVZhV5",
        "id" : "6lZN8tlILszpYqPNlVZhV5",
        "images" : [ {
          "height" : 640,
          "url" : "https://i.scdn.co/image/ab67616d0000b2737ec2768db1dfe49a4a2e1dc3",
          "width" : 640
        }, {
          "height" : 300,
          "url" : "https://i.scdn.co/image/ab67616d00001e027ec2768db1dfe49a4a2e1dc3",
          "width" : 300
        }, {
          "height" : 64,
          "url" : "https://i.scdn.co/image/ab67616d000048517ec2768db1dfe49a4a2e1dc3",
          "width" : 64
        } ],
        "name" : "Grace Like Rain",
        "release_date" : "2003-10-07",
        "release_date_precision" : "day",
        "total_tracks" : 12,
        "type" : "album",
        "uri" : "spotify:album:6lZN8tlILszpYqPNlVZhV5"
      },
      "artists" : [ {
        "external_urls" : {
          "spotify" : "https://open.spotify.com/artist/57swDg4BNcQS73YIJCchnf"
        },
        "href" : "https://api.spotify.com/v1/artists/57swDg4BNcQS73YIJCchnf",
        "id" : "57swDg4BNcQS73YIJCchnf",
        "name" : "Todd Agnew",
        "type" : "artist",
        "uri" : "spotify:artist:57swDg4BNcQS73YIJCchnf"
      } ],
      "disc_number" : 1,
      "duration_ms" : 301440,
      "explicit" : false,
      "external_ids" : {
        "isrc" : "USAR30300288"
      },
      "external_urls" : {
        "spotify" : "https://open.spotify.com/track/6F3gSOpJQFATopBuNBIyFX"
      },
      "href" : "https://api.spotify.com/v1/tracks/6F3gSOpJQFATopBuNBIyFX",
      "id" : "6F3gSOpJQFATopBuNBIyFX",
      "is_local" : false,
      "is_playable" : true,
      "name" : "Come Ye Sinners",
      "popularity" : 14,
      "preview_url" : "https://p.scdn.co/mp3-preview/3fdf09a58f676c5468c8a4303a376547463802c5?cid=774b29d4f13844c495f206cafdad9c86",
      "track_number" : 7,
      "type" : "track",
      "uri" : "spotify:track:6F3gSOpJQFATopBuNBIyFX"
    } ],
    "limit" : 10,
    "next" : "https://api.spotify.com/v1/search?query=Come%2C+Ye+Sinners&type=track&market=US&offset=15&limit=10",
    "offset" : 5,
    "previous" : "https://api.spotify.com/v1/search?query=Come%2C+Ye+Sinners&type=track&market=US&offset=0&limit=10",
    "total" : 259
  }
}