{
  "tracks" : {
    "href" : "https://api.spotify.com/v1/search?query=I+Lay+My+Sins+on+Jesus&type=track&market=US&offset=5&limit=10",
    "items" : [ {
      "album" : {
        "album_type" : "album",
        "artists" : [ {
          "external_urls" : {
            "spotify" : "https://open.spotify.com/artist/5ZwubZbVtEr49EpmJeUMVn"
          },
          "href" : "https://api.spotify.com/v1/artists/5ZwubZbVtEr49EpmJeUMVn",
          "id" : "5ZwubZbVtEr49EpmJeUMVn",
          "name" : "Littlepiano",
          "type" : "artist",
          "uri" : "spotify:artist:5ZwubZbVtEr49EpmJeUMVn"
        } ],
        "external_urls" : {
          "spotify" : "https://open.spotify.com/album/7GPmHhphNfdcQfooMbL8MC"
        },
        "href" : "https://api.spotify.com/v1/albums/7GPmHhphNfdcQfooMbL8MC",
        "id" : "7GPmHhphNfdcQfooMbL8MC",
        "images" : [ {
          "height" : 640,
          "url" : "https://i.scdn.co/image/ab67616d0000b2733519664269586ac965a1bcac",
          "width" : 640
        }, {
          "height" : 300,
          "url" : "https://i.scdn.co/image/ab67616d00001e023519664269586ac965a1bcac",
          "width" : 300
        }, {
          "height" : 64,
          "url" : "https://i.scdn.co/image/ab67616d000048513519664269586ac965a1bcac",
          "width" : 64
        } ],
        "name" : "My Little Piano Hymn 13 (Jesus) (내 작은 피아노 찬송가 13 (예수))",
        "release_date" : "2014-07-30",
        "release_date_precision" : "day",
        "total_tracks" : 8,
        "type" : "album",
        "uri" : "spotify:album:7GPmHhphNfdcQfooMbL8MC"
      },
      "artists" : [ {
        "external_urls" : {
          "spotify" : "https://open.spotify.com/artist/5ZwubZbVtEr49EpmJeUMVn"
        },
        "href" : "https://api.spotify.com/v1/artists/5ZwubZbVtEr49EpmJeUMVn",
        "id" : "5ZwubZbVtEr49EpmJeUMVn",
        "name" : "Littlepiano",
        "type" : "artist",
        "uri" : "spotify:artist:5ZwubZbVtEr49EpmJeUMVn"
      } ],
      "disc_number" : 1,
      "duration_ms" : 159750,
      "explicit" : false,
      "external_ids" : {
        "isrc" : "KRB361434567"
      },
      "external_urls" : {
        "spotify" : "https://open.spotify.com/track/4rv3hiKLbCxkqrKHqpp0fU"
      },
      "href" : "https://api.spotify.com/v1/tracks/4rv3hiKLbCxkqrKHqpp0fU",
      "id" : "4rv3hiKLbCxkqrKHqpp0fU",
      "is_local" : false,
      "is_playable" : true,
      "name" : "I Lay My Sins On Jesus (성부의 어린 양이)",
      "popularity" : 3,
      "preview_url" : "https://p.scdn.co/mp3-preview/1429939d9a39c8285218c815318b6b1cc282f16e?cid=774b29d4f13844c495f206cafdad9c86",
      "track_number" : 6,
      "type" : "track",
      "uri" : "spotify:track:4rv3hiKLbCxkqrKHqpp0fU"
    }, {
      "album" : {
        "album_type" : "album",
        "artists" : [ {
          "external_urls" : {
            "spotify" : "https://open.spotify.com/artist/20rlbkwNSoLrLqQUR7GRcT"
          },
          "href" : "https://api.spotify.com/v1/artists/20rlbkwNSoLrLqQUR7GRcT",
          "id" : "20rlbkwNSoLrLqQUR7GRcT",
          "name" : "Mother’s Lullaby",
          "type" : "artist",
          "uri" : "spotify:artist:20rlbkwNSoLrLqQUR7GRcT"
        } ],
        "external_urls" : {
          "spotify" : "https://open.spotify.com/album/1ShJqDFSSlkMNj5b6Ef1yb"
        },
        "href" : "https://api.spotify.com/v1/albums/1ShJqDFSSlkMNj5b6Ef1yb",
        "id" : "1ShJqDFSSlkMNj5b6Ef1yb",
        "images" : [ {
          "height" : 640,
          "url" : "https://i.scdn.co/image/ab67616d0000b273440e611433c0ba8e87438e83",
          "width" : 640
        }, {
          "height" : 300,
          "url" : "https://i.scdn.co/image/ab67616d00001e02440e611433c0ba8e87438e83",
          "width" : 300
        }, {
          "height" : 64,
          "url" : "https://i.scdn.co/image/ab67616d00004851440e611433c0ba8e87438e83",
          "width" : 64
        } ],
        "name" : "Hymns Vol.4 (#76~#100)",
        "release_date" : "2019-03-06",
        "release_date_precision" : "day",
        "total_tracks" : 25,
        "type" : "album",
        "uri" : "spotify:album:1ShJqDFSSlkMNj5b6Ef1yb"
      },
      "artists" : [ {
        "external_urls" : {
          "spotify" : "https://open.spotify.com/artist/20rlbkwNSoLrLqQUR7GRcT"
        },
        "href" : "https://api.spotify.com/v1/artists/20rlbkwNSoLrLqQUR7GRcT",
        "id" : "20rlbkwNSoLrLqQUR7GRcT",
        "name" : "Mother’s Lullaby",
        "type" : "artist",
        "uri" : "spotify:artist:20rlbkwNSoLrLqQUR7GRcT"
      } ],
      "disc_number" : 1,
      "duration_ms" : 200952,
      "explicit" : false,
      "external_ids" : {
        "isrc" : "KRZ291909484"
      },
      "external_urls" : {
        "spotify" : "https://open.spotify.com/track/1VL7HNMU1X6wiz3oOBXbkq"
      },
      "href" : "https://api.spotify.com/v1/tracks/1VL7HNMU1X6wiz3oOBXbkq",
      "id" : "1VL7HNMU1X6wiz3oOBXbkq",
      "is_local" : false,
      "is_playable" : true,
      "name" : "I Lay My Sins On Jesus",
      "popularity" : 0,
      "preview_url" : "https://p.scdn.co/mp3-preview/48765a979d701e4c5f7d1afcc2332a96576fa99e?cid=774b29d4f13844c495f206cafdad9c86",
      "track_number" : 15,
      "type" : "track",
      "uri" : "spotify:track:1VL7HNMU1X6wiz3oOBXbkq"
    }, {
      "album" : {
        "album_type" : "album",
        "artists" : [ {
          "external_urls" : {
            "spotify" : "https://open.spotify.com/artist/5GQ4q9Gr7wRGsVUSEeHHpX"
          },
          "href" : "https://api.spotify.com/v1/artists/5GQ4q9Gr7wRGsVUSEeHHpX",
          "id" : "5GQ4q9Gr7wRGsVUSEeHHpX",
          "name" : "Abe & Liza Philip",
          "type" : "artist",
          "uri" : "spotify:artist:5GQ4q9Gr7wRGsVUSEeHHpX"
        } ],
        "external_urls" : {
          "spotify" : "https://open.spotify.com/album/5W1pclpbpfeXqAN25GWw01"
        },
        "href" : "https://api.spotify.com/v1/albums/5W1pclpbpfeXqAN25GWw01",
        "id" : "5W1pclpbpfeXqAN25GWw01",
        "images" : [ {
          "height" : 640,
          "url" : "https://i.scdn.co/image/ab67616d0000b273c40ff0bf87fb2a338d1b0320",
          "width" : 640
        }, {
          "height" : 300,
          "url" : "https://i.scdn.co/image/ab67616d00001e02c40ff0bf87fb2a338d1b0320",
          "width" : 300
        }, {
          "height" : 64,
          "url" : "https://i.scdn.co/image/ab67616d00004851c40ff0bf87fb2a338d1b0320",
          "width" : 64
        } ],
        "name" : "Freedom Is Slavery to Christ",
        "release_date" : "2020-04-17",
        "release_date_precision" : "day",
        "total_tracks" : 14,
        "type" : "album",
        "uri" : "spotify:album:5W1pclpbpfeXqAN25GWw01"
      },
      "artists" : [ {
        "external_urls" : {
          "spotify" : "https://open.spotify.com/artist/5GQ4q9Gr7wRGsVUSEeHHpX"
        },
        "href" : "https://api.spotify.com/v1/artists/5GQ4q9Gr7wRGsVUSEeHHpX",
        "id" : "5GQ4q9Gr7wRGsVUSEeHHpX",
        "name" : "Abe & Liza Philip",
        "type" : "artist",
        "uri" : "spotify:artist:5GQ4q9Gr7wRGsVUSEeHHpX"
      } ],
      "disc_number" : 1,
      "duration_ms" : 237008,
      "explicit" : false,
      "external_ids" : {
        "isrc" : "usdy42065427"
      },
      "external_urls" : {
        "spotify" : "https://open.spotify.com/track/26rVG1R8rTNliDMp3lX7B3"
      },
      "href" : "https://api.spotify.com/v1/tracks/26rVG1R8rTNliDMp3lX7B3",
      "id" : "26rVG1R8rTNliDMp3lX7B3",
      "is_local" : false,
      "is_playable" : true,
      "name" : "I Lay My Sins on Jesus",
      "popularity" : 0,
      "preview_url" : "https://p.scdn.co/mp3-preview/83e2d6356de8aa74f690dd691e428a402c600cb6?cid=774b29d4f13844c495f206cafdad9c86",
      "track_number" : 10,
      "type" : "track",
      "uri" : "spotify:track:26rVG1R8rTNliDMp3lX7B3"
    }, {
      "album" : {
        "album_type" : "album",
        "artists" : [ {
          "external_urls" : {
            "spotify" : "https://open.spotify.com/artist/20rlbkwNSoLrLqQUR7GRcT"
          },
          "href" : "https://api.spotify.com/v1/artists/20rlbkwNSoLrLqQUR7GRcT",
          "id" : "20rlbkwNSoLrLqQUR7GRcT",
          "name" : "Mother’s Lullaby",
          "type" : "artist",
          "uri" : "spotify:artist:20rlbkwNSoLrLqQUR7GRcT"
        } ],
        "external_urls" : {
          "spotify" : "https://open.spotify.com/album/0qJoZ6A5AcEN1jfA7SkFMb"
        },
        "href" : "https://api.spotify.com/v1/albums/0qJoZ6A5AcEN1jfA7SkFMb",
        "id" : "0qJoZ6A5AcEN1jfA7SkFMb",
        "images" : [ {
          "height" : 640,
          "url" : "https://i.scdn.co/image/ab67616d0000b2731b1a8f0542a9d7ded39df326",
          "width" : 640
        }, {
          "height" : 300,
          "url" : "https://i.scdn.co/image/ab67616d00001e021b1a8f0542a9d7ded39df326",
          "width" : 300
        }, {
          "height" : 64,
          "url" : "https://i.scdn.co/image/ab67616d000048511b1a8f0542a9d7ded39df326",
          "width" : 64
        } ],
        "name" : "현악4중주 찬송가 연주곡집 Vol. 2",
        "release_date" : "2020-04-23",
        "release_date_precision" : "day",
        "total_tracks" : 50,
        "type" : "album",
        "uri" : "spotify:album:0qJoZ6A5AcEN1jfA7SkFMb"
      },
      "artists" : [ {
        "external_urls" : {
          "spotify" : "https://open.spotify.com/artist/20rlbkwNSoLrLqQUR7GRcT"
        },
        "href" : "https://api.spotify.com/v1/artists/20rlbkwNSoLrLqQUR7GRcT",
        "id" : "20rlbkwNSoLrLqQUR7GRcT",
        "name" : "Mother’s Lullaby",
        "type" : "artist",
        "uri" : "spotify:artist:20rlbkwNSoLrLqQUR7GRcT"
      } ],
      "disc_number" : 1,
      "duration_ms" : 192461,
      "explicit" : false,
      "external_ids" : {
        "isrc" : "QZEKE1933038"
      },
      "external_urls" : {
        "spotify" : "https://open.spotify.com/track/40sKyCCyAjRB9ZjESePzBd"
      },
      "href" : "https://api.spotify.com/v1/tracks/40sKyCCyAjRB9ZjESePzBd",
      "id" : "40sKyCCyAjRB9ZjESePzBd",
      "is_local" : false,
      "is_playable" : true,
      "name" : "I Lay My Sins On Jesus",
      "popularity" : 0,
      "preview_url" : "https://p.scdn.co/mp3-preview/f169f1981543c27664b076840612ec60503097fc?cid=774b29d4f13844c495f206cafdad9c86",
      "track_number" : 40,
      "type" : "track",
      "uri" : "spotify:track:40sKyCCyAjRB9ZjESePzBd"
    }, {
      "album" : {
        "album_type" : "album",
        "artists" : [ {
          "external_urls" : {
            "spotify" : "https://open.spotify.com/artist/488Hk968zdfUCx7Lou1MWp"
          },
          "href" : "https://api.spotify.com/v1/artists/488Hk968zdfUCx7Lou1MWp",
          "id" : "488Hk968zdfUCx7Lou1MWp",
          "name" : "Benjamin Jenkins",
          "type" : "artist",
          "uri" : "spotify:artist:488Hk968zdfUCx7Lou1MWp"
        } ],
        "external_urls" : {
          "spotify" : "https://open.spotify.com/album/4ibmkyt6R1muAq857MEPt4"
        },
        "href" : "https://api.spotify.com/v1/albums/4ibmkyt6R1muAq857MEPt4",
        "id" : "4ibmkyt6R1muAq857MEPt4",
        "images" : [ {
          "height" : 640,
          "url" : "https://i.scdn.co/image/ab67616d0000b273aefcca5aad77a721a9587f4c",
          "width" : 640
        }, {
          "height" : 300,
          "url" : "https://i.scdn.co/image/ab67616d00001e02aefcca5aad77a721a9587f4c",
          "width" : 300
        }, {
          "height" : 64,
          "url" : "https://i.scdn.co/image/ab67616d00004851aefcca5aad77a721a9587f4c",
          "width" : 64
        } ],
        "name" : "Praylude",
        "release_date" : "2014-04-02",
        "release_date_precision" : "day",
        "total_tracks" : 12,
        "type" : "album",
        "uri" : "spotify:album:4ibmkyt6R1muAq857MEPt4"
      },
      "artists" : [ {
        "external_urls" : {
          "spotify" : "https://open.spotify.com/artist/488Hk968zdfUCx7Lou1MWp"
        },
        "href" : "https://api.spotify.com/v1/artists/488Hk968zdfUCx7Lou1MWp",
        "id" : "488Hk968zdfUCx7Lou1MWp",
        "name" : "Benjamin Jenkins",
        "type" : "artist",
        "uri" : "spotify:artist:488Hk968zdfUCx7Lou1MWp"
      } ],
      "disc_number" : 1,
      "duration_ms" : 181720,
      "explicit" : false,
      "external_ids" : {
        "isrc" : "QZHN42046727"
      },
      "external_urls" : {
        "spotify" : "https://open.spotify.com/track/43I7YyduUob4aps6Gp8olX"
      },
      "href" : "https://api.spotify.com/v1/tracks/43I7YyduUob4aps6Gp8olX",
      "id" : "43I7YyduUob4aps6Gp8olX",
      "is_local" : false,
      "is_playable" : true,
      "name" : "I Lay My Sins on Jesus",
      "popularity" : 0,
      "preview_url" : "https://p.scdn.co/mp3-preview/bdb7e8cc2682abd1aa54ac321d050610f69a9637?cid=774b29d4f13844c495f206cafdad9c86",
      "track_number" : 6,
      "type" : "track",
      "uri" : "spotify:track:43I7YyduUob4aps6Gp8olX"
    }, {
      "album" : {
        "album_type" : "album",
        "artists" : [ {
          "external_urls" : {
            "spotify" : "https://open.spotify.com/artist/2BRbpumfqZ1vWpTbHxCYc1"
          },
          "href" : "https://api.spotify.com/v1/artists/2BRbpumfqZ1vWpTbHxCYc1",
          "id" : "2BRbpumfqZ1vWpTbHxCYc1",
          "name" : "Jacob Tilton",
          "type" : "artist",
          "uri" : "spotify:artist:2BRbpumfqZ1vWpTbHxCYc1"
        } ],
        "external_urls" : {
          "spotify" : "https://open.spotify.com/album/6xMnOvDhg5IazhcbnjfEHc"
        },
        "href" : "https://api.spotify.com/v1/albums/6xMnOvDhg5IazhcbnjfEHc",
        "id" : "6xMnOvDhg5IazhcbnjfEHc",
        "images" : [ {
          "height" : 640,
          "url" : "https://i.scdn.co/image/ab67616d0000b27332851a1409d196d6bd3982c9",
          "width" : 640
        }, {
          "height" : 300,
          "url" : "https://i.scdn.co/image/ab67616d00001e0232851a1409d196d6bd3982c9",
          "width" : 300
        }, {
          "height" : 64,
          "url" : "https://i.scdn.co/image/ab67616d0000485132851a1409d196d6bd3982c9",
          "width" : 64
        } ],
        "name" : "Awake, My Soul",
        "release_date" : "2020-01-22",
        "release_date_precision" : "day",
        "total_tracks" : 7,
        "type" : "album",
        "uri" : "spotify:album:6xMnOvDhg5IazhcbnjfEHc"
      },
      "artists" : [ {
        "external_urls" : {
          "spotify" : "https://open.spotify.com/artist/2BRbpumfqZ1vWpTbHxCYc1"
        },
        "href" : "https://api.spotify.com/v1/artists/2BRbpumfqZ1vWpTbHxCYc1",
        "id" : "2BRbpumfqZ1vWpTbHxCYc1",
        "name" : "Jacob Tilton",
        "type" : "artist",
        "uri" : "spotify:artist:2BRbpumfqZ1vWpTbHxCYc1"
      } ],
      "disc_number" : 1,
      "duration_ms" : 278000,
      "explicit" : false,
      "external_ids" : {
        "isrc" : "QZFYZ2012166"
      },
      "external_urls" : {
        "spotify" : "https://open.spotify.com/track/6C06pcpuxOzUWACT9tjpYE"
      },
      "href" : "https://api.spotify.com/v1/tracks/6C06pcpuxOzUWACT9tjpYE",
      "id" : "6C06pcpuxOzUWACT9tjpYE",
      "is_local" : false,
      "is_playable" : true,
      "name" : "I Lay My Sins on Jesus",
      "popularity" : 1,
      "preview_url" : "https://p.scdn.co/mp3-preview/161333f58144f6fecfeaca8b94ba5027ee536c40?cid=774b29d4f13844c495f206cafdad9c86",
      "track_number" : 3,
      "type" : "track",
      "uri" : "spotify:track:6C06pcpuxOzUWACT9tjpYE"
    }, {
      "album" : {
        "album_type" : "album",
        "artists" : [ {
          "external_urls" : {
            "spotify" : "https://open.spotify.com/artist/5Zx1YTqf6gz0GL73MMnCiZ"
          },
          "href" : "https://api.spotify.com/v1/artists/5Zx1YTqf6gz0GL73MMnCiZ",
          "id" : "5Zx1YTqf6gz0GL73MMnCiZ",
          "name" : "Jeffrey Joseph",
          "type" : "artist",
          "uri" : "spotify:artist:5Zx1YTqf6gz0GL73MMnCiZ"
        } ],
        "external_urls" : {
          "spotify" : "https://open.spotify.com/album/6kY1SKrlDZzIkHhcVNjgrp"
        },
        "href" : "https://api.spotify.com/v1/albums/6kY1SKrlDZzIkHhcVNjgrp",
        "id" : "6kY1SKrlDZzIkHhcVNjgrp",
        "images" : [ {
          "height" : 640,
          "url" : "https://i.scdn.co/image/ab67616d0000b27390007f91ff229a00f6edd431",
          "width" : 640
        }, {
          "height" : 300,
          "url" : "https://i.scdn.co/image/ab67616d00001e0290007f91ff229a00f6edd431",
          "width" : 300
        }, {
          "height" : 64,
          "url" : "https://i.scdn.co/image/ab67616d0000485190007f91ff229a00f6edd431",
          "width" : 64
        } ],
        "name" : "Kingdom Come",
        "release_date" : "2012-03-02",
        "release_date_precision" : "day",
        "total_tracks" : 11,
        "type" : "album",
        "uri" : "spotify:album:6kY1SKrlDZzIkHhcVNjgrp"
      },
      "artists" : [ {
        "external_urls" : {
          "spotify" : "https://open.spotify.com/artist/5Zx1YTqf6gz0GL73MMnCiZ"
        },
        "href" : "https://api.spotify.com/v1/artists/5Zx1YTqf6gz0GL73MMnCiZ",
        "id" : "5Zx1YTqf6gz0GL73MMnCiZ",
        "name" : "Jeffrey Joseph",
        "type" : "artist",
        "uri" : "spotify:artist:5Zx1YTqf6gz0GL73MMnCiZ"
      } ],
      "disc_number" : 1,
      "duration_ms" : 252000,
      "explicit" : false,
      "external_ids" : {
        "isrc" : "uscgh1296914"
      },
      "external_urls" : {
        "spotify" : "https://open.spotify.com/track/1SvH6NntCuLPbYqKJqlX8w"
      },
      "href" : "https://api.spotify.com/v1/tracks/1SvH6NntCuLPbYqKJqlX8w",
      "id" : "1SvH6NntCuLPbYqKJqlX8w",
      "is_local" : false,
      "is_playable" : true,
      "name" : "I Lay My Sins On Jesus",
      "popularity" : 0,
      "preview_url" : "https://p.scdn.co/mp3-preview/19fcc3488a4ae2cf006f293019e61c5243ebdbcf?cid=774b29d4f13844c495f206cafdad9c86",
      "track_number" : 8,
      "type" : "track",
      "uri" : "spotify:track:1SvH6NntCuLPbYqKJqlX8w"
    }, {
      "album" : {
        "album_type" : "album",
        "artists" : [ {
          "external_urls" : {
            "spotify" : "https://open.spotify.com/artist/6DK55bxelgGUPq1JoMiw2a"
          },
          "href" : "https://api.spotify.com/v1/artists/6DK55bxelgGUPq1JoMiw2a",
          "id" : "6DK55bxelgGUPq1JoMiw2a",
          "name" : "Harmonious Nightingales",
          "type" : "artist",
          "uri" : "spotify:artist:6DK55bxelgGUPq1JoMiw2a"
        } ],
        "external_urls" : {
          "spotify" : "https://open.spotify.com/album/71KWd0IPEN5HE0EOfN5zOA"
        },
        "href" : "https://api.spotify.com/v1/albums/71KWd0IPEN5HE0EOfN5zOA",
        "id" : "71KWd0IPEN5HE0EOfN5zOA",
        "images" : [ {
          "height" : 640,
          "url" : "https://i.scdn.co/image/ab67616d0000b27360ee7548cf195658cb99466e",
          "width" : 640
        }, {
          "height" : 300,
          "url" : "https://i.scdn.co/image/ab67616d00001e0260ee7548cf195658cb99466e",
          "width" : 300
        }, {
          "height" : 64,
          "url" : "https://i.scdn.co/image/ab67616d0000485160ee7548cf195658cb99466e",
          "width" : 64
        } ],
        "name" : "Evergreen Lent Hymns",
        "release_date" : "2019-11-29",
        "release_date_precision" : "day",
        "total_tracks" : 13,
        "type" : "album",
        "uri" : "spotify:album:71KWd0IPEN5HE0EOfN5zOA"
      },
      "artists" : [ {
        "external_urls" : {
          "spotify" : "https://open.spotify.com/artist/6DK55bxelgGUPq1JoMiw2a"
        },
        "href" : "https://api.spotify.com/v1/artists/6DK55bxelgGUPq1JoMiw2a",
        "id" : "6DK55bxelgGUPq1JoMiw2a",
        "name" : "Harmonious Nightingales",
        "type" : "artist",
        "uri" : "spotify:artist:6DK55bxelgGUPq1JoMiw2a"
      } ],
      "disc_number" : 1,
      "duration_ms" : 364068,
      "explicit" : false,
      "external_ids" : {
        "isrc" : "QZHNC1968637"
      },
      "external_urls" : {
        "spotify" : "https://open.spotify.com/track/5S0amKVDQduJFM1ihivr2N"
      },
      "href" : "https://api.spotify.com/v1/tracks/5S0amKVDQduJFM1ihivr2N",
      "id" : "5S0amKVDQduJFM1ihivr2N",
      "is_local" : false,
      "is_playable" : true,
      "name" : "I Lay My Sins on Jesus",
      "popularity" : 0,
      "preview_url" : "https://p.scdn.co/mp3-preview/b1ec10f02edb772905ce3c838674265d117f9732?cid=774b29d4f13844c495f206cafdad9c86",
      "track_number" : 2,
      "type" : "track",
      "uri" : "spotify:track:5S0amKVDQduJFM1ihivr2N"
    }, {
      "album" : {
        "album_type" : "album",
        "artists" : [ {
          "external_urls" : {
            "spotify" : "https://open.spotify.com/artist/0gEPtMfgzgBfqYDBlgyCww"
          },
          "href" : "https://api.spotify.com/v1/artists/0gEPtMfgzgBfqYDBlgyCww",
          "id" : "0gEPtMfgzgBfqYDBlgyCww",
          "name" : "Peter Piano",
          "type" : "artist",
          "uri" : "spotify:artist:0gEPtMfgzgBfqYDBlgyCww"
        } ],
        "external_urls" : {
          "spotify" : "https://open.spotify.com/album/0PEGHE3ijvIZAprpasW9oq"
        },
        "href" : "https://api.spotify.com/v1/albums/0PEGHE3ijvIZAprpasW9oq",
        "id" : "0PEGHE3ijvIZAprpasW9oq",
        "images" : [ {
          "height" : 640,
          "url" : "https://i.scdn.co/image/ab67616d0000b273856f6e8a0da91d9c0f2c85be",
          "width" : 640
        }, {
          "height" : 300,
          "url" : "https://i.scdn.co/image/ab67616d00001e02856f6e8a0da91d9c0f2c85be",
          "width" : 300
        }, {
          "height" : 64,
          "url" : "https://i.scdn.co/image/ab67616d00004851856f6e8a0da91d9c0f2c85be",
          "width" : 64
        } ],
        "name" : "Stronghold - Music For Intercession",
        "release_date" : "2018-05-18",
        "release_date_precision" : "day",
        "total_tracks" : 50,
        "type" : "album",
        "uri" : "spotify:album:0PEGHE3ijvIZAprpasW9oq"
      },
      "artists" : [ {
        "external_urls" : {
          "spotify" : "https://open.spotify.com/artist/0gEPtMfgzgBfqYDBlgyCww"
        },
        "href" : "https://api.spotify.com/v1/artists/0gEPtMfgzgBfqYDBlgyCww",
        "id" : "0gEPtMfgzgBfqYDBlgyCww",
        "name" : "Peter Piano",
        "type" : "artist",
        "uri" : "spotify:artist:0gEPtMfgzgBfqYDBlgyCww"
      } ],
      "disc_number" : 1,
      "duration_ms" : 300000,
      "explicit" : false,
      "external_ids" : {
        "isrc" : "QZ22B1948581"
      },
      "external_urls" : {
        "spotify" : "https://open.spotify.com/track/6eLA4VugM01dUxeEqvCjQl"
      },
      "href" : "https://api.spotify.com/v1/tracks/6eLA4VugM01dUxeEqvCjQl",
      "id" : "6eLA4VugM01dUxeEqvCjQl",
      "is_local" : false,
      "is_playable" : true,
      "name" : "I Lay My Sins On Jesus",
      "popularity" : 0,
      "preview_url" : "https://p.scdn.co/mp3-preview/2531bf4493d73e459ad1ff65981dbd93c7c24b08?cid=774b29d4f13844c495f206cafdad9c86",
      "track_number" : 20,
      "type" : "track",
      "uri" : "spotify:track:6eLA4VugM01dUxeEqvCjQl"
    }, {
      "album" : {
        "album_type" : "album",
        "artists" : [ {
          "external_urls" : {
            "spotify" : "https://open.spotify.com/artist/6pCvKH43UyleY59wz2DnRU"
          },
          "href" : "https://api.spotify.com/v1/artists/6pCvKH43UyleY59wz2DnRU",
          "id" : "6pCvKH43UyleY59wz2DnRU",
          "name" : "Gerard Sundberg",
          "type" : "artist",
          "uri" : "spotify:artist:6pCvKH43UyleY59wz2DnRU"
        } ],
        "external_urls" : {
          "spotify" : "https://open.spotify.com/album/5TFex98tKs5aSAqI65sDYr"
        },
        "href" : "https://api.spotify.com/v1/albums/5TFex98tKs5aSAqI65sDYr",
        "id" : "5TFex98tKs5aSAqI65sDYr",
        "images" : [ {
          "height" : 640,
          "url" : "https://i.scdn.co/image/ab67616d0000b273da011a63cad10bac646c2ce0",
          "width" : 640
        }, {
          "height" : 300,
          "url" : "https://i.scdn.co/image/ab67616d00001e02da011a63cad10bac646c2ce0",
          "width" : 300
        }, {
          "height" : 64,
          "url" : "https://i.scdn.co/image/ab67616d00004851da011a63cad10bac646c2ce0",
          "width" : 64
        } ],
        "name" : "Songs Through Endless Ages",
        "release_date" : "2008-06-20",
        "release_date_precision" : "day",
        "total_tracks" : 16,
        "type" : "album",
        "uri" : "spotify:album:5TFex98tKs5aSAqI65sDYr"
      },
      "artists" : [ {
        "external_urls" : {
          "spotify" : "https://open.spotify.com/artist/6pCvKH43UyleY59wz2DnRU"
        },
        "href" : "https://api.spotify.com/v1/artists/6pCvKH43UyleY59wz2DnRU",
        "id" : "6pCvKH43UyleY59wz2DnRU",
        "name" : "Gerard Sundberg",
        "type" : "artist",
        "uri" : "spotify:artist:6pCvKH43UyleY59wz2DnRU"
      } ],
      "disc_number" : 1,
      "duration_ms" : 283520,
      "explicit" : false,
      "external_ids" : {
        "isrc" : "ushm20813945"
      },
      "external_urls" : {
        "spotify" : "https://open.spotify.com/track/3a5UY8g6iIm3X2B4lv1PVt"
      },
      "href" : "https://api.spotify.com/v1/tracks/3a5UY8g6iIm3X2B4lv1PVt",
      "id" : "3a5UY8g6iIm3X2B4lv1PVt",
      "is_local" : false,
      "is_playable" : true,
      "name" : "I Lay My Sins On Jesus",
      "popularity" : 0,
      "preview_url" : "https://p.scdn.co/mp3-preview/625c5a7e76ab1d46c3b0a0b0fae39a9147009b3d?cid=774b29d4f13844c495f206cafdad9c86",
      "track_number" : 7,
      "type" : "track",
      "uri" : "spotify:track:3a5UY8g6iIm3X2B4lv1PVt"
    } ],
    "limit" : 10,
    "next" : "https://api.spotify.com/v1/search?query=I+Lay+My+Sins+on+Jesus&type=track&market=US&offset=15&limit=10",
    "offset" : 5,
    "previous" : "https://api.spotify.com/v1/search?query=I+Lay+My+Sins+on+Jesus&type=track&market=US&offset=0&limit=10",
    "total" : 31
  }
}