{
  "tracks" : {
    "href" : "https://api.spotify.com/v1/search?query=In+the+Hour+of+Trial&type=track&market=US&offset=5&limit=10",
    "items" : [ {
      "album" : {
        "album_type" : "album",
        "artists" : [ {
          "external_urls" : {
            "spotify" : "https://open.spotify.com/artist/5p43Datgto2gcfGNp9uHx5"
          },
          "href" : "https://api.spotify.com/v1/artists/5p43Datgto2gcfGNp9uHx5",
          "id" : "5p43Datgto2gcfGNp9uHx5",
          "name" : "Revel In Flesh",
          "type" : "artist",
          "uri" : "spotify:artist:5p43Datgto2gcfGNp9uHx5"
        } ],
        "external_urls" : {
          "spotify" : "https://open.spotify.com/album/1vXNFib8ODt2uuRMIkzYbt"
        },
        "href" : "https://api.spotify.com/v1/albums/1vXNFib8ODt2uuRMIkzYbt",
        "id" : "1vXNFib8ODt2uuRMIkzYbt",
        "images" : [ {
          "height" : 640,
          "url" : "https://i.scdn.co/image/ab67616d0000b27362a745fec218c44a5db7df4c",
          "width" : 640
        }, {
          "height" : 300,
          "url" : "https://i.scdn.co/image/ab67616d00001e0262a745fec218c44a5db7df4c",
          "width" : 300
        }, {
          "height" : 64,
          "url" : "https://i.scdn.co/image/ab67616d0000485162a745fec218c44a5db7df4c",
          "width" : 64
        } ],
        "name" : "The Hour Of The Avenger",
        "release_date" : "2019-11-29",
        "release_date_precision" : "day",
        "total_tracks" : 11,
        "type" : "album",
        "uri" : "spotify:album:1vXNFib8ODt2uuRMIkzYbt"
      },
      "artists" : [ {
        "external_urls" : {
          "spotify" : "https://open.spotify.com/artist/5p43Datgto2gcfGNp9uHx5"
        },
        "href" : "https://api.spotify.com/v1/artists/5p43Datgto2gcfGNp9uHx5",
        "id" : "5p43Datgto2gcfGNp9uHx5",
        "name" : "Revel In Flesh",
        "type" : "artist",
        "uri" : "spotify:artist:5p43Datgto2gcfGNp9uHx5"
      } ],
      "disc_number" : 1,
      "duration_ms" : 202106,
      "explicit" : true,
      "external_ids" : {
        "isrc" : "DELJ81962254"
      },
      "external_urls" : {
        "spotify" : "https://open.spotify.com/track/67Wcy8HL1laxr1Egf8gX10"
      },
      "href" : "https://api.spotify.com/v1/tracks/67Wcy8HL1laxr1Egf8gX10",
      "id" : "67Wcy8HL1laxr1Egf8gX10",
      "is_local" : false,
      "is_playable" : true,
      "name" : "My Trial",
      "popularity" : 14,
      "preview_url" : "https://p.scdn.co/mp3-preview/9ca40061cd3974a5805f978dd0944593eb5c8821?cid=774b29d4f13844c495f206cafdad9c86",
      "track_number" : 2,
      "type" : "track",
      "uri" : "spotify:track:67Wcy8HL1laxr1Egf8gX10"
    }, {
      "album" : {
        "album_type" : "album",
        "artists" : [ {
          "external_urls" : {
            "spotify" : "https://open.spotify.com/artist/27HpKO5tx7PUZdRRhfBAD7"
          },
          "href" : "https://api.spotify.com/v1/artists/27HpKO5tx7PUZdRRhfBAD7",
          "id" : "27HpKO5tx7PUZdRRhfBAD7",
          "name" : "Lullaby & Prenatal Band",
          "type" : "artist",
          "uri" : "spotify:artist:27HpKO5tx7PUZdRRhfBAD7"
        } ],
        "external_urls" : {
          "spotify" : "https://open.spotify.com/album/4JLiD1ohCmWPa4KwZosHA9"
        },
        "href" : "https://api.spotify.com/v1/albums/4JLiD1ohCmWPa4KwZosHA9",
        "id" : "4JLiD1ohCmWPa4KwZosHA9",
        "images" : [ {
          "height" : 640,
          "url" : "https://i.scdn.co/image/ab67616d0000b2737b1e7b48e6864ef368e10a11",
          "width" : 640
        }, {
          "height" : 300,
          "url" : "https://i.scdn.co/image/ab67616d00001e027b1e7b48e6864ef368e10a11",
          "width" : 300
        }, {
          "height" : 64,
          "url" : "https://i.scdn.co/image/ab67616d000048517b1e7b48e6864ef368e10a11",
          "width" : 64
        } ],
        "name" : "Lullaby Hymn for My Baby with Orgel, Collection",
        "release_date" : "2017-09-12",
        "release_date_precision" : "day",
        "total_tracks" : 28,
        "type" : "album",
        "uri" : "spotify:album:4JLiD1ohCmWPa4KwZosHA9"
      },
      "artists" : [ {
        "external_urls" : {
          "spotify" : "https://open.spotify.com/artist/27HpKO5tx7PUZdRRhfBAD7"
        },
        "href" : "https://api.spotify.com/v1/artists/27HpKO5tx7PUZdRRhfBAD7",
        "id" : "27HpKO5tx7PUZdRRhfBAD7",
        "name" : "Lullaby & Prenatal Band",
        "type" : "artist",
        "uri" : "spotify:artist:27HpKO5tx7PUZdRRhfBAD7"
      } ],
      "disc_number" : 1,
      "duration_ms" : 147107,
      "explicit" : false,
      "external_ids" : {
        "isrc" : "KRB921702752"
      },
      "external_urls" : {
        "spotify" : "https://open.spotify.com/track/00pubdyb9NL8wrDbsAj6sv"
      },
      "href" : "https://api.spotify.com/v1/tracks/00pubdyb9NL8wrDbsAj6sv",
      "id" : "00pubdyb9NL8wrDbsAj6sv",
      "is_local" : false,
      "is_playable" : true,
      "name" : "In the Hour of Trial",
      "popularity" : 7,
      "preview_url" : "https://p.scdn.co/mp3-preview/9e88eb442695858144f31e758bb679deebfc8cb1?cid=774b29d4f13844c495f206cafdad9c86",
      "track_number" : 11,
      "type" : "track",
      "uri" : "spotify:track:00pubdyb9NL8wrDbsAj6sv"
    }, {
      "album" : {
        "album_type" : "album",
        "artists" : [ {
          "external_urls" : {
            "spotify" : "https://open.spotify.com/artist/3lk8qatIcUand38OeCGxk9"
          },
          "href" : "https://api.spotify.com/v1/artists/3lk8qatIcUand38OeCGxk9",
          "id" : "3lk8qatIcUand38OeCGxk9",
          "name" : "Lorie Line",
          "type" : "artist",
          "uri" : "spotify:artist:3lk8qatIcUand38OeCGxk9"
        } ],
        "external_urls" : {
          "spotify" : "https://open.spotify.com/album/5xAA4fYTde1JNjUzgSq8EB"
        },
        "href" : "https://api.spotify.com/v1/albums/5xAA4fYTde1JNjUzgSq8EB",
        "id" : "5xAA4fYTde1JNjUzgSq8EB",
        "images" : [ {
          "height" : 640,
          "url" : "https://i.scdn.co/image/ab67616d0000b2730cd98d4c2156c956d7cc7ddf",
          "width" : 640
        }, {
          "height" : 300,
          "url" : "https://i.scdn.co/image/ab67616d00001e020cd98d4c2156c956d7cc7ddf",
          "width" : 300
        }, {
          "height" : 64,
          "url" : "https://i.scdn.co/image/ab67616d000048510cd98d4c2156c956d7cc7ddf",
          "width" : 64
        } ],
        "name" : "The Heritage Collection, Vol. V",
        "release_date" : "2009-05-04",
        "release_date_precision" : "day",
        "total_tracks" : 15,
        "type" : "album",
        "uri" : "spotify:album:5xAA4fYTde1JNjUzgSq8EB"
      },
      "artists" : [ {
        "external_urls" : {
          "spotify" : "https://open.spotify.com/artist/3lk8qatIcUand38OeCGxk9"
        },
        "href" : "https://api.spotify.com/v1/artists/3lk8qatIcUand38OeCGxk9",
        "id" : "3lk8qatIcUand38OeCGxk9",
        "name" : "Lorie Line",
        "type" : "artist",
        "uri" : "spotify:artist:3lk8qatIcUand38OeCGxk9"
      } ],
      "disc_number" : 1,
      "duration_ms" : 301173,
      "explicit" : false,
      "external_ids" : {
        "isrc" : "US42C0900431"
      },
      "external_urls" : {
        "spotify" : "https://open.spotify.com/track/0xbvMRH9BZ3hktmVAlqGHu"
      },
      "href" : "https://api.spotify.com/v1/tracks/0xbvMRH9BZ3hktmVAlqGHu",
      "id" : "0xbvMRH9BZ3hktmVAlqGHu",
      "is_local" : false,
      "is_playable" : true,
      "name" : "In the Hour of Trial",
      "popularity" : 0,
      "preview_url" : "https://p.scdn.co/mp3-preview/c0ad1e87ef2fb8fe3415dfbcc2fcdbcd3c631914?cid=774b29d4f13844c495f206cafdad9c86",
      "track_number" : 11,
      "type" : "track",
      "uri" : "spotify:track:0xbvMRH9BZ3hktmVAlqGHu"
    }, {
      "album" : {
        "album_type" : "album",
        "artists" : [ {
          "external_urls" : {
            "spotify" : "https://open.spotify.com/artist/27HpKO5tx7PUZdRRhfBAD7"
          },
          "href" : "https://api.spotify.com/v1/artists/27HpKO5tx7PUZdRRhfBAD7",
          "id" : "27HpKO5tx7PUZdRRhfBAD7",
          "name" : "Lullaby & Prenatal Band",
          "type" : "artist",
          "uri" : "spotify:artist:27HpKO5tx7PUZdRRhfBAD7"
        } ],
        "external_urls" : {
          "spotify" : "https://open.spotify.com/album/57oi4NpRSPCneDJxVIyPNF"
        },
        "href" : "https://api.spotify.com/v1/albums/57oi4NpRSPCneDJxVIyPNF",
        "id" : "57oi4NpRSPCneDJxVIyPNF",
        "images" : [ {
          "height" : 640,
          "url" : "https://i.scdn.co/image/ab67616d0000b273b485432d6a50433824ffedad",
          "width" : 640
        }, {
          "height" : 300,
          "url" : "https://i.scdn.co/image/ab67616d00001e02b485432d6a50433824ffedad",
          "width" : 300
        }, {
          "height" : 64,
          "url" : "https://i.scdn.co/image/ab67616d00004851b485432d6a50433824ffedad",
          "width" : 64
        } ],
        "name" : "Lullaby Hymn for My Baby with Orgel, Vol. 2",
        "release_date" : "2017-09-11",
        "release_date_precision" : "day",
        "total_tracks" : 7,
        "type" : "album",
        "uri" : "spotify:album:57oi4NpRSPCneDJxVIyPNF"
      },
      "artists" : [ {
        "external_urls" : {
          "spotify" : "https://open.spotify.com/artist/27HpKO5tx7PUZdRRhfBAD7"
        },
        "href" : "https://api.spotify.com/v1/artists/27HpKO5tx7PUZdRRhfBAD7",
        "id" : "27HpKO5tx7PUZdRRhfBAD7",
        "name" : "Lullaby & Prenatal Band",
        "type" : "artist",
        "uri" : "spotify:artist:27HpKO5tx7PUZdRRhfBAD7"
      } ],
      "disc_number" : 1,
      "duration_ms" : 147107,
      "explicit" : false,
      "external_ids" : {
        "isrc" : "KRB921702672"
      },
      "external_urls" : {
        "spotify" : "https://open.spotify.com/track/2L3KQ8pT4HMYrOJnc579fe"
      },
      "href" : "https://api.spotify.com/v1/tracks/2L3KQ8pT4HMYrOJnc579fe",
      "id" : "2L3KQ8pT4HMYrOJnc579fe",
      "is_local" : false,
      "is_playable" : true,
      "name" : "In the Hour of Trial",
      "popularity" : 0,
      "preview_url" : "https://p.scdn.co/mp3-preview/1608338a0e52f7d5f7b46342bd5e80d504643f64?cid=774b29d4f13844c495f206cafdad9c86",
      "track_number" : 4,
      "type" : "track",
      "uri" : "spotify:track:2L3KQ8pT4HMYrOJnc579fe"
    }, {
      "album" : {
        "album_type" : "album",
        "artists" : [ {
          "external_urls" : {
            "spotify" : "https://open.spotify.com/artist/27HpKO5tx7PUZdRRhfBAD7"
          },
          "href" : "https://api.spotify.com/v1/artists/27HpKO5tx7PUZdRRhfBAD7",
          "id" : "27HpKO5tx7PUZdRRhfBAD7",
          "name" : "Lullaby & Prenatal Band",
          "type" : "artist",
          "uri" : "spotify:artist:27HpKO5tx7PUZdRRhfBAD7"
        } ],
        "external_urls" : {
          "spotify" : "https://open.spotify.com/album/5zV9TC1PGpLMvNhmOJU9gr"
        },
        "href" : "https://api.spotify.com/v1/albums/5zV9TC1PGpLMvNhmOJU9gr",
        "id" : "5zV9TC1PGpLMvNhmOJU9gr",
        "images" : [ {
          "height" : 640,
          "url" : "https://i.scdn.co/image/ab67616d0000b273966974fdec75218302b7e91c",
          "width" : 640
        }, {
          "height" : 300,
          "url" : "https://i.scdn.co/image/ab67616d00001e02966974fdec75218302b7e91c",
          "width" : 300
        }, {
          "height" : 64,
          "url" : "https://i.scdn.co/image/ab67616d00004851966974fdec75218302b7e91c",
          "width" : 64
        } ],
        "name" : "Lullaby Hymn for My Baby Orgel and Rain Sound, Vol. 2",
        "release_date" : "2017-09-21",
        "release_date_precision" : "day",
        "total_tracks" : 7,
        "type" : "album",
        "uri" : "spotify:album:5zV9TC1PGpLMvNhmOJU9gr"
      },
      "artists" : [ {
        "external_urls" : {
          "spotify" : "https://open.spotify.com/artist/27HpKO5tx7PUZdRRhfBAD7"
        },
        "href" : "https://api.spotify.com/v1/artists/27HpKO5tx7PUZdRRhfBAD7",
        "id" : "27HpKO5tx7PUZdRRhfBAD7",
        "name" : "Lullaby & Prenatal Band",
        "type" : "artist",
        "uri" : "spotify:artist:27HpKO5tx7PUZdRRhfBAD7"
      } ],
      "disc_number" : 1,
      "duration_ms" : 151282,
      "explicit" : false,
      "external_ids" : {
        "isrc" : "KRB921703582"
      },
      "external_urls" : {
        "spotify" : "https://open.spotify.com/track/2ZbJ4b0caYZlTgLwcDpzHx"
      },
      "href" : "https://api.spotify.com/v1/tracks/2ZbJ4b0caYZlTgLwcDpzHx",
      "id" : "2ZbJ4b0caYZlTgLwcDpzHx",
      "is_local" : false,
      "is_playable" : true,
      "name" : "In the Hour of Trial",
      "popularity" : 1,
      "preview_url" : "https://p.scdn.co/mp3-preview/0980bd9f42ffbecb549b56106f5456b3351621f4?cid=774b29d4f13844c495f206cafdad9c86",
      "track_number" : 3,
      "type" : "track",
      "uri" : "spotify:track:2ZbJ4b0caYZlTgLwcDpzHx"
    }, {
      "album" : {
        "album_type" : "album",
        "artists" : [ {
          "external_urls" : {
            "spotify" : "https://open.spotify.com/artist/0YfJrCjZLeEXScArFslXgL"
          },
          "href" : "https://api.spotify.com/v1/artists/0YfJrCjZLeEXScArFslXgL",
          "id" : "0YfJrCjZLeEXScArFslXgL",
          "name" : "Dallas Christian Adult Concert Choir With David Slater",
          "type" : "artist",
          "uri" : "spotify:artist:0YfJrCjZLeEXScArFslXgL"
        } ],
        "external_urls" : {
          "spotify" : "https://open.spotify.com/album/5rnESpgeV8TcvngvLh1W1O"
        },
        "href" : "https://api.spotify.com/v1/albums/5rnESpgeV8TcvngvLh1W1O",
        "id" : "5rnESpgeV8TcvngvLh1W1O",
        "images" : [ {
          "height" : 640,
          "url" : "https://i.scdn.co/image/ab67616d0000b2737acf24947e14f7ca956ccffc",
          "width" : 640
        }, {
          "height" : 300,
          "url" : "https://i.scdn.co/image/ab67616d00001e027acf24947e14f7ca956ccffc",
          "width" : 300
        }, {
          "height" : 64,
          "url" : "https://i.scdn.co/image/ab67616d000048517acf24947e14f7ca956ccffc",
          "width" : 64
        } ],
        "name" : "Simply Trusting Every Day",
        "release_date" : "2008-03-25",
        "release_date_precision" : "day",
        "total_tracks" : 23,
        "type" : "album",
        "uri" : "spotify:album:5rnESpgeV8TcvngvLh1W1O"
      },
      "artists" : [ {
        "external_urls" : {
          "spotify" : "https://open.spotify.com/artist/6zCKr405jB5b6QI1IfFnf2"
        },
        "href" : "https://api.spotify.com/v1/artists/6zCKr405jB5b6QI1IfFnf2",
        "id" : "6zCKr405jB5b6QI1IfFnf2",
        "name" : "Dallas Christian Adult Concert Choir",
        "type" : "artist",
        "uri" : "spotify:artist:6zCKr405jB5b6QI1IfFnf2"
      } ],
      "disc_number" : 1,
      "duration_ms" : 117253,
      "explicit" : false,
      "external_ids" : {
        "isrc" : "USMZA0810425"
      },
      "external_urls" : {
        "spotify" : "https://open.spotify.com/track/7356Te95GS1j0Ml0ooB8Bd"
      },
      "href" : "https://api.spotify.com/v1/tracks/7356Te95GS1j0Ml0ooB8Bd",
      "id" : "7356Te95GS1j0Ml0ooB8Bd",
      "is_local" : false,
      "is_playable" : true,
      "name" : "In The Hour Of Trial",
      "popularity" : 0,
      "preview_url" : "https://p.scdn.co/mp3-preview/af96669d2e0320e3f7450e69adbfa5b70e70843c?cid=774b29d4f13844c495f206cafdad9c86",
      "track_number" : 23,
      "type" : "track",
      "uri" : "spotify:track:7356Te95GS1j0Ml0ooB8Bd"
    }, {
      "album" : {
        "album_type" : "album",
        "artists" : [ {
          "external_urls" : {
            "spotify" : "https://open.spotify.com/artist/3urht7QHdalYUxVpP2CaLR"
          },
          "href" : "https://api.spotify.com/v1/artists/3urht7QHdalYUxVpP2CaLR",
          "id" : "3urht7QHdalYUxVpP2CaLR",
          "name" : "Hymn Factory",
          "type" : "artist",
          "uri" : "spotify:artist:3urht7QHdalYUxVpP2CaLR"
        } ],
        "external_urls" : {
          "spotify" : "https://open.spotify.com/album/1MXoygV1UmuJcc4SOeBHE1"
        },
        "href" : "https://api.spotify.com/v1/albums/1MXoygV1UmuJcc4SOeBHE1",
        "id" : "1MXoygV1UmuJcc4SOeBHE1",
        "images" : [ {
          "height" : 640,
          "url" : "https://i.scdn.co/image/ab67616d0000b2738cdad4d31a42637d3c317976",
          "width" : 640
        }, {
          "height" : 300,
          "url" : "https://i.scdn.co/image/ab67616d00001e028cdad4d31a42637d3c317976",
          "width" : 300
        }, {
          "height" : 64,
          "url" : "https://i.scdn.co/image/ab67616d000048518cdad4d31a42637d3c317976",
          "width" : 64
        } ],
        "name" : "Sun Of My Soul",
        "release_date" : "2006-01-01",
        "release_date_precision" : "day",
        "total_tracks" : 12,
        "type" : "album",
        "uri" : "spotify:album:1MXoygV1UmuJcc4SOeBHE1"
      },
      "artists" : [ {
        "external_urls" : {
          "spotify" : "https://open.spotify.com/artist/3urht7QHdalYUxVpP2CaLR"
        },
        "href" : "https://api.spotify.com/v1/artists/3urht7QHdalYUxVpP2CaLR",
        "id" : "3urht7QHdalYUxVpP2CaLR",
        "name" : "Hymn Factory",
        "type" : "artist",
        "uri" : "spotify:artist:3urht7QHdalYUxVpP2CaLR"
      } ],
      "disc_number" : 1,
      "duration_ms" : 199093,
      "explicit" : false,
      "external_ids" : {
        "isrc" : "ushm80607914"
      },
      "external_urls" : {
        "spotify" : "https://open.spotify.com/track/2KhjSaij5Q0O4VOpt5Vz1h"
      },
      "href" : "https://api.spotify.com/v1/tracks/2KhjSaij5Q0O4VOpt5Vz1h",
      "id" : "2KhjSaij5Q0O4VOpt5Vz1h",
      "is_local" : false,
      "is_playable" : true,
      "name" : "In the Hour of Trial",
      "popularity" : 0,
      "preview_url" : "https://p.scdn.co/mp3-preview/dacc80aec122bc1fd3ab4f821484b12a404a276c?cid=774b29d4f13844c495f206cafdad9c86",
      "track_number" : 9,
      "type" : "track",
      "uri" : "spotify:track:2KhjSaij5Q0O4VOpt5Vz1h"
    }, {
      "album" : {
        "album_type" : "album",
        "artists" : [ {
          "external_urls" : {
            "spotify" : "https://open.spotify.com/artist/08g0yHi4uQSVc1rZt0NqZ0"
          },
          "href" : "https://api.spotify.com/v1/artists/08g0yHi4uQSVc1rZt0NqZ0",
          "id" : "08g0yHi4uQSVc1rZt0NqZ0",
          "name" : "Lluís Paloma, 'Patinet'",
          "type" : "artist",
          "uri" : "spotify:artist:08g0yHi4uQSVc1rZt0NqZ0"
        } ],
        "external_urls" : {
          "spotify" : "https://open.spotify.com/album/0ROfuoDooHFBMyBtc4kELz"
        },
        "href" : "https://api.spotify.com/v1/albums/0ROfuoDooHFBMyBtc4kELz",
        "id" : "0ROfuoDooHFBMyBtc4kELz",
        "images" : [ {
          "height" : 640,
          "url" : "https://i.scdn.co/image/ab67616d0000b273c50150ee87e489cc2262630e",
          "width" : 640
        }, {
          "height" : 300,
          "url" : "https://i.scdn.co/image/ab67616d00001e02c50150ee87e489cc2262630e",
          "width" : 300
        }, {
          "height" : 64,
          "url" : "https://i.scdn.co/image/ab67616d00004851c50150ee87e489cc2262630e",
          "width" : 64
        } ],
        "name" : "Hymns",
        "release_date" : "2012",
        "release_date_precision" : "year",
        "total_tracks" : 15,
        "type" : "album",
        "uri" : "spotify:album:0ROfuoDooHFBMyBtc4kELz"
      },
      "artists" : [ {
        "external_urls" : {
          "spotify" : "https://open.spotify.com/artist/08g0yHi4uQSVc1rZt0NqZ0"
        },
        "href" : "https://api.spotify.com/v1/artists/08g0yHi4uQSVc1rZt0NqZ0",
        "id" : "08g0yHi4uQSVc1rZt0NqZ0",
        "name" : "Lluís Paloma, 'Patinet'",
        "type" : "artist",
        "uri" : "spotify:artist:08g0yHi4uQSVc1rZt0NqZ0"
      } ],
      "disc_number" : 1,
      "duration_ms" : 112000,
      "explicit" : false,
      "external_ids" : {
        "isrc" : "GBSMU7003863"
      },
      "external_urls" : {
        "spotify" : "https://open.spotify.com/track/5fwBVsnJOZELgbFc0riCvX"
      },
      "href" : "https://api.spotify.com/v1/tracks/5fwBVsnJOZELgbFc0riCvX",
      "id" : "5fwBVsnJOZELgbFc0riCvX",
      "is_local" : false,
      "is_playable" : true,
      "name" : "In The Hour Of Trial",
      "popularity" : 0,
      "preview_url" : "https://p.scdn.co/mp3-preview/dd79074e8f6338f8e8d7cc735acd25e25d63b713?cid=774b29d4f13844c495f206cafdad9c86",
      "track_number" : 14,
      "type" : "track",
      "uri" : "spotify:track:5fwBVsnJOZELgbFc0riCvX"
    }, {
      "album" : {
        "album_type" : "album",
        "artists" : [ {
          "external_urls" : {
            "spotify" : "https://open.spotify.com/artist/6ZjYnINOqyWq8hTL6bsssz"
          },
          "href" : "https://api.spotify.com/v1/artists/6ZjYnINOqyWq8hTL6bsssz",
          "id" : "6ZjYnINOqyWq8hTL6bsssz",
          "name" : "Coram Deo Church",
          "type" : "artist",
          "uri" : "spotify:artist:6ZjYnINOqyWq8hTL6bsssz"
        } ],
        "external_urls" : {
          "spotify" : "https://open.spotify.com/album/7gIOfUTPM2hS2cUazYS5Ii"
        },
        "href" : "https://api.spotify.com/v1/albums/7gIOfUTPM2hS2cUazYS5Ii",
        "id" : "7gIOfUTPM2hS2cUazYS5Ii",
        "images" : [ {
          "height" : 640,
          "url" : "https://i.scdn.co/image/ab67616d0000b273e106da3b5e587e93c1010a15",
          "width" : 640
        }, {
          "height" : 300,
          "url" : "https://i.scdn.co/image/ab67616d00001e02e106da3b5e587e93c1010a15",
          "width" : 300
        }, {
          "height" : 64,
          "url" : "https://i.scdn.co/image/ab67616d00004851e106da3b5e587e93c1010a15",
          "width" : 64
        } ],
        "name" : "Awake My Soul",
        "release_date" : "2009-09-13",
        "release_date_precision" : "day",
        "total_tracks" : 12,
        "type" : "album",
        "uri" : "spotify:album:7gIOfUTPM2hS2cUazYS5Ii"
      },
      "artists" : [ {
        "external_urls" : {
          "spotify" : "https://open.spotify.com/artist/6ZjYnINOqyWq8hTL6bsssz"
        },
        "href" : "https://api.spotify.com/v1/artists/6ZjYnINOqyWq8hTL6bsssz",
        "id" : "6ZjYnINOqyWq8hTL6bsssz",
        "name" : "Coram Deo Church",
        "type" : "artist",
        "uri" : "spotify:artist:6ZjYnINOqyWq8hTL6bsssz"
      } ],
      "disc_number" : 1,
      "duration_ms" : 281533,
      "explicit" : false,
      "external_ids" : {
        "isrc" : "ushm21998107"
      },
      "external_urls" : {
        "spotify" : "https://open.spotify.com/track/4yFcA3TjvOrWHd1G7OuIXH"
      },
      "href" : "https://api.spotify.com/v1/tracks/4yFcA3TjvOrWHd1G7OuIXH",
      "id" : "4yFcA3TjvOrWHd1G7OuIXH",
      "is_local" : false,
      "is_playable" : true,
      "name" : "In the Hour of Trial",
      "popularity" : 0,
      "preview_url" : "https://p.scdn.co/mp3-preview/ad7dd26026e3236cd9e17f3685d4c53df6d4ddde?cid=774b29d4f13844c495f206cafdad9c86",
      "track_number" : 12,
      "type" : "track",
      "uri" : "spotify:track:4yFcA3TjvOrWHd1G7OuIXH"
    }, {
      "album" : {
        "album_type" : "album",
        "artists" : [ {
          "external_urls" : {
            "spotify" : "https://open.spotify.com/artist/27HpKO5tx7PUZdRRhfBAD7"
          },
          "href" : "https://api.spotify.com/v1/artists/27HpKO5tx7PUZdRRhfBAD7",
          "id" : "27HpKO5tx7PUZdRRhfBAD7",
          "name" : "Lullaby & Prenatal Band",
          "type" : "artist",
          "uri" : "spotify:artist:27HpKO5tx7PUZdRRhfBAD7"
        } ],
        "external_urls" : {
          "spotify" : "https://open.spotify.com/album/0mkzB8AZVvAyKHBS46tiVs"
        },
        "href" : "https://api.spotify.com/v1/albums/0mkzB8AZVvAyKHBS46tiVs",
        "id" : "0mkzB8AZVvAyKHBS46tiVs",
        "images" : [ {
          "height" : 640,
          "url" : "https://i.scdn.co/image/ab67616d0000b273b6fb37a2ac604ec147a5adb4",
          "width" : 640
        }, {
          "height" : 300,
          "url" : "https://i.scdn.co/image/ab67616d00001e02b6fb37a2ac604ec147a5adb4",
          "width" : 300
        }, {
          "height" : 64,
          "url" : "https://i.scdn.co/image/ab67616d00004851b6fb37a2ac604ec147a5adb4",
          "width" : 64
        } ],
        "name" : "Lullaby Hymn for My Baby Orgel and Rain Sound, Collection (Relaxing Music,Classical Lullaby,Prenatal Care,Prenatal Music,Pregnant Woman,Baby Sleep Music,Pregnancy Music)",
        "release_date" : "2017-09-28",
        "release_date_precision" : "day",
        "total_tracks" : 28,
        "type" : "album",
        "uri" : "spotify:album:0mkzB8AZVvAyKHBS46tiVs"
      },
      "artists" : [ {
        "external_urls" : {
          "spotify" : "https://open.spotify.com/artist/27HpKO5tx7PUZdRRhfBAD7"
        },
        "href" : "https://api.spotify.com/v1/artists/27HpKO5tx7PUZdRRhfBAD7",
        "id" : "27HpKO5tx7PUZdRRhfBAD7",
        "name" : "Lullaby & Prenatal Band",
        "type" : "artist",
        "uri" : "spotify:artist:27HpKO5tx7PUZdRRhfBAD7"
      } ],
      "disc_number" : 1,
      "duration_ms" : 151282,
      "explicit" : false,
      "external_ids" : {
        "isrc" : "KRB921703667"
      },
      "external_urls" : {
        "spotify" : "https://open.spotify.com/track/6I0RGgHEVlpdOdMBxSynuc"
      },
      "href" : "https://api.spotify.com/v1/tracks/6I0RGgHEVlpdOdMBxSynuc",
      "id" : "6I0RGgHEVlpdOdMBxSynuc",
      "is_local" : false,
      "is_playable" : true,
      "name" : "In the Hour of Trial",
      "popularity" : 2,
      "preview_url" : "https://p.scdn.co/mp3-preview/0980bd9f42ffbecb549b56106f5456b3351621f4?cid=774b29d4f13844c495f206cafdad9c86",
      "track_number" : 20,
      "type" : "track",
      "uri" : "spotify:track:6I0RGgHEVlpdOdMBxSynuc"
    } ],
    "limit" : 10,
    "next" : "https://api.spotify.com/v1/search?query=In+the+Hour+of+Trial&type=track&market=US&offset=15&limit=10",
    "offset" : 5,
    "previous" : "https://api.spotify.com/v1/search?query=In+the+Hour+of+Trial&type=track&market=US&offset=0&limit=10",
    "total" : 22
  }
}