{
  "tracks" : {
    "href" : "https://api.spotify.com/v1/search?query=Go+to+Dark+Gethsemane&type=track&market=US&offset=5&limit=10",
    "items" : [ {
      "album" : {
        "album_type" : "album",
        "artists" : [ {
          "external_urls" : {
            "spotify" : "https://open.spotify.com/artist/1QwpZetytdE0P1CTTCwXDo"
          },
          "href" : "https://api.spotify.com/v1/artists/1QwpZetytdE0P1CTTCwXDo",
          "id" : "1QwpZetytdE0P1CTTCwXDo",
          "name" : "Trinity Music",
          "type" : "artist",
          "uri" : "spotify:artist:1QwpZetytdE0P1CTTCwXDo"
        } ],
        "external_urls" : {
          "spotify" : "https://open.spotify.com/album/2G6cTuVBoWQ4ZMOVUzzojv"
        },
        "href" : "https://api.spotify.com/v1/albums/2G6cTuVBoWQ4ZMOVUzzojv",
        "id" : "2G6cTuVBoWQ4ZMOVUzzojv",
        "images" : [ {
          "height" : 640,
          "url" : "https://i.scdn.co/image/ab67616d0000b27325c909758bdb89b29379ffb2",
          "width" : 640
        }, {
          "height" : 300,
          "url" : "https://i.scdn.co/image/ab67616d00001e0225c909758bdb89b29379ffb2",
          "width" : 300
        }, {
          "height" : 64,
          "url" : "https://i.scdn.co/image/ab67616d0000485125c909758bdb89b29379ffb2",
          "width" : 64
        } ],
        "name" : "Hymns",
        "release_date" : "2007-01-01",
        "release_date_precision" : "day",
        "total_tracks" : 8,
        "type" : "album",
        "uri" : "spotify:album:2G6cTuVBoWQ4ZMOVUzzojv"
      },
      "artists" : [ {
        "external_urls" : {
          "spotify" : "https://open.spotify.com/artist/1QwpZetytdE0P1CTTCwXDo"
        },
        "href" : "https://api.spotify.com/v1/artists/1QwpZetytdE0P1CTTCwXDo",
        "id" : "1QwpZetytdE0P1CTTCwXDo",
        "name" : "Trinity Music",
        "type" : "artist",
        "uri" : "spotify:artist:1QwpZetytdE0P1CTTCwXDo"
      }, {
        "external_urls" : {
          "spotify" : "https://open.spotify.com/artist/78i0jhSon7lP8ED3WnS43w"
        },
        "href" : "https://api.spotify.com/v1/artists/78i0jhSon7lP8ED3WnS43w",
        "id" : "78i0jhSon7lP8ED3WnS43w",
        "name" : "Jen Reardon",
        "type" : "artist",
        "uri" : "spotify:artist:78i0jhSon7lP8ED3WnS43w"
      } ],
      "disc_number" : 1,
      "duration_ms" : 262661,
      "explicit" : false,
      "external_ids" : {
        "isrc" : "ushm91627827"
      },
      "external_urls" : {
        "spotify" : "https://open.spotify.com/track/70XqiSAN9mYGPQefXnqGbA"
      },
      "href" : "https://api.spotify.com/v1/tracks/70XqiSAN9mYGPQefXnqGbA",
      "id" : "70XqiSAN9mYGPQefXnqGbA",
      "is_local" : false,
      "is_playable" : true,
      "name" : "Go to Dark Gethsemane",
      "popularity" : 9,
      "preview_url" : "https://p.scdn.co/mp3-preview/b0c559a76cbae9ed0b12097dee805875c9e1fc52?cid=774b29d4f13844c495f206cafdad9c86",
      "track_number" : 8,
      "type" : "track",
      "uri" : "spotify:track:70XqiSAN9mYGPQefXnqGbA"
    }, {
      "album" : {
        "album_type" : "album",
        "artists" : [ {
          "external_urls" : {
            "spotify" : "https://open.spotify.com/artist/05irAQmXTqKOotHN63GXe7"
          },
          "href" : "https://api.spotify.com/v1/artists/05irAQmXTqKOotHN63GXe7",
          "id" : "05irAQmXTqKOotHN63GXe7",
          "name" : "Holy City Hymns",
          "type" : "artist",
          "uri" : "spotify:artist:05irAQmXTqKOotHN63GXe7"
        } ],
        "external_urls" : {
          "spotify" : "https://open.spotify.com/album/6shlJna5bpniawDh10Ejp8"
        },
        "href" : "https://api.spotify.com/v1/albums/6shlJna5bpniawDh10Ejp8",
        "id" : "6shlJna5bpniawDh10Ejp8",
        "images" : [ {
          "height" : 640,
          "url" : "https://i.scdn.co/image/ab67616d0000b2735763a2c658e2d6e3520c616d",
          "width" : 640
        }, {
          "height" : 300,
          "url" : "https://i.scdn.co/image/ab67616d00001e025763a2c658e2d6e3520c616d",
          "width" : 300
        }, {
          "height" : 64,
          "url" : "https://i.scdn.co/image/ab67616d000048515763a2c658e2d6e3520c616d",
          "width" : 64
        } ],
        "name" : "Not a Word",
        "release_date" : "2013-03-29",
        "release_date_precision" : "day",
        "total_tracks" : 7,
        "type" : "album",
        "uri" : "spotify:album:6shlJna5bpniawDh10Ejp8"
      },
      "artists" : [ {
        "external_urls" : {
          "spotify" : "https://open.spotify.com/artist/05irAQmXTqKOotHN63GXe7"
        },
        "href" : "https://api.spotify.com/v1/artists/05irAQmXTqKOotHN63GXe7",
        "id" : "05irAQmXTqKOotHN63GXe7",
        "name" : "Holy City Hymns",
        "type" : "artist",
        "uri" : "spotify:artist:05irAQmXTqKOotHN63GXe7"
      } ],
      "disc_number" : 1,
      "duration_ms" : 164680,
      "explicit" : false,
      "external_ids" : {
        "isrc" : "uscgj1346008"
      },
      "external_urls" : {
        "spotify" : "https://open.spotify.com/track/6xvydF4zHjIjWZPDBGHbnY"
      },
      "href" : "https://api.spotify.com/v1/tracks/6xvydF4zHjIjWZPDBGHbnY",
      "id" : "6xvydF4zHjIjWZPDBGHbnY",
      "is_local" : false,
      "is_playable" : true,
      "name" : "Go to Dark Gethsemane",
      "popularity" : 6,
      "preview_url" : "https://p.scdn.co/mp3-preview/a1095389af1204d4462a9e6f76749a83c158f349?cid=774b29d4f13844c495f206cafdad9c86",
      "track_number" : 5,
      "type" : "track",
      "uri" : "spotify:track:6xvydF4zHjIjWZPDBGHbnY"
    }, {
      "album" : {
        "album_type" : "album",
        "artists" : [ {
          "external_urls" : {
            "spotify" : "https://open.spotify.com/artist/41N4x8ZUxk7JkHORj8M3bd"
          },
          "href" : "https://api.spotify.com/v1/artists/41N4x8ZUxk7JkHORj8M3bd",
          "id" : "41N4x8ZUxk7JkHORj8M3bd",
          "name" : "Concordia Publishing House",
          "type" : "artist",
          "uri" : "spotify:artist:41N4x8ZUxk7JkHORj8M3bd"
        } ],
        "external_urls" : {
          "spotify" : "https://open.spotify.com/album/5hwcJebYIlFjD6nt6yhcJ6"
        },
        "href" : "https://api.spotify.com/v1/albums/5hwcJebYIlFjD6nt6yhcJ6",
        "id" : "5hwcJebYIlFjD6nt6yhcJ6",
        "images" : [ {
          "height" : 640,
          "url" : "https://i.scdn.co/image/ab67616d0000b27328903c223d34944ac7109318",
          "width" : 640
        }, {
          "height" : 300,
          "url" : "https://i.scdn.co/image/ab67616d00001e0228903c223d34944ac7109318",
          "width" : 300
        }, {
          "height" : 64,
          "url" : "https://i.scdn.co/image/ab67616d0000485128903c223d34944ac7109318",
          "width" : 64
        } ],
        "name" : "Hymns for All Saints: Lent, Easter, Pentecost",
        "release_date" : "2006",
        "release_date_precision" : "year",
        "total_tracks" : 20,
        "type" : "album",
        "uri" : "spotify:album:5hwcJebYIlFjD6nt6yhcJ6"
      },
      "artists" : [ {
        "external_urls" : {
          "spotify" : "https://open.spotify.com/artist/41N4x8ZUxk7JkHORj8M3bd"
        },
        "href" : "https://api.spotify.com/v1/artists/41N4x8ZUxk7JkHORj8M3bd",
        "id" : "41N4x8ZUxk7JkHORj8M3bd",
        "name" : "Concordia Publishing House",
        "type" : "artist",
        "uri" : "spotify:artist:41N4x8ZUxk7JkHORj8M3bd"
      } ],
      "disc_number" : 1,
      "duration_ms" : 195053,
      "explicit" : false,
      "external_ids" : {
        "isrc" : "ushm80856119"
      },
      "external_urls" : {
        "spotify" : "https://open.spotify.com/track/3syTZKkUZzvIRbSlnyBTea"
      },
      "href" : "https://api.spotify.com/v1/tracks/3syTZKkUZzvIRbSlnyBTea",
      "id" : "3syTZKkUZzvIRbSlnyBTea",
      "is_local" : false,
      "is_playable" : true,
      "name" : "Go to Dark Gethsemane",
      "popularity" : 4,
      "preview_url" : "https://p.scdn.co/mp3-preview/d87f453248cb6125a967e4e7dc7ea81e9c470ff6?cid=774b29d4f13844c495f206cafdad9c86",
      "track_number" : 2,
      "type" : "track",
      "uri" : "spotify:track:3syTZKkUZzvIRbSlnyBTea"
    }, {
      "album" : {
        "album_type" : "album",
        "artists" : [ {
          "external_urls" : {
            "spotify" : "https://open.spotify.com/artist/2uxYp5lsPE9t297UIoxAJz"
          },
          "href" : "https://api.spotify.com/v1/artists/2uxYp5lsPE9t297UIoxAJz",
          "id" : "2uxYp5lsPE9t297UIoxAJz",
          "name" : "Frontline Music",
          "type" : "artist",
          "uri" : "spotify:artist:2uxYp5lsPE9t297UIoxAJz"
        } ],
        "external_urls" : {
          "spotify" : "https://open.spotify.com/album/4upPRMBEd7ClnW91h8BWcD"
        },
        "href" : "https://api.spotify.com/v1/albums/4upPRMBEd7ClnW91h8BWcD",
        "id" : "4upPRMBEd7ClnW91h8BWcD",
        "images" : [ {
          "height" : 640,
          "url" : "https://i.scdn.co/image/ab67616d0000b273e35b9eefbc7dda8fdd5b44da",
          "width" : 640
        }, {
          "height" : 300,
          "url" : "https://i.scdn.co/image/ab67616d00001e02e35b9eefbc7dda8fdd5b44da",
          "width" : 300
        }, {
          "height" : 64,
          "url" : "https://i.scdn.co/image/ab67616d00004851e35b9eefbc7dda8fdd5b44da",
          "width" : 64
        } ],
        "name" : "The Cross",
        "release_date" : "2018-02-13",
        "release_date_precision" : "day",
        "total_tracks" : 16,
        "type" : "album",
        "uri" : "spotify:album:4upPRMBEd7ClnW91h8BWcD"
      },
      "artists" : [ {
        "external_urls" : {
          "spotify" : "https://open.spotify.com/artist/2uxYp5lsPE9t297UIoxAJz"
        },
        "href" : "https://api.spotify.com/v1/artists/2uxYp5lsPE9t297UIoxAJz",
        "id" : "2uxYp5lsPE9t297UIoxAJz",
        "name" : "Frontline Music",
        "type" : "artist",
        "uri" : "spotify:artist:2uxYp5lsPE9t297UIoxAJz"
      }, {
        "external_urls" : {
          "spotify" : "https://open.spotify.com/artist/3ruXDza0QrwGEqLYGMLiwH"
        },
        "href" : "https://api.spotify.com/v1/artists/3ruXDza0QrwGEqLYGMLiwH",
        "id" : "3ruXDza0QrwGEqLYGMLiwH",
        "name" : "Hilary Burkhart",
        "type" : "artist",
        "uri" : "spotify:artist:3ruXDza0QrwGEqLYGMLiwH"
      } ],
      "disc_number" : 1,
      "duration_ms" : 322573,
      "explicit" : false,
      "external_ids" : {
        "isrc" : "USDHM1802360"
      },
      "external_urls" : {
        "spotify" : "https://open.spotify.com/track/0V6T4SfZbLEf03lRsKo7gH"
      },
      "href" : "https://api.spotify.com/v1/tracks/0V6T4SfZbLEf03lRsKo7gH",
      "id" : "0V6T4SfZbLEf03lRsKo7gH",
      "is_local" : false,
      "is_playable" : true,
      "name" : "Go to Dark Gethsemane",
      "popularity" : 3,
      "preview_url" : "https://p.scdn.co/mp3-preview/c2d55d18641e73553a52b9aae6d59758bb4c3996?cid=774b29d4f13844c495f206cafdad9c86",
      "track_number" : 3,
      "type" : "track",
      "uri" : "spotify:track:0V6T4SfZbLEf03lRsKo7gH"
    }, {
      "album" : {
        "album_type" : "album",
        "artists" : [ {
          "external_urls" : {
            "spotify" : "https://open.spotify.com/artist/1IYk7Dbm3X8vVAgrK8tNbv"
          },
          "href" : "https://api.spotify.com/v1/artists/1IYk7Dbm3X8vVAgrK8tNbv",
          "id" : "1IYk7Dbm3X8vVAgrK8tNbv",
          "name" : "Eric Wyse",
          "type" : "artist",
          "uri" : "spotify:artist:1IYk7Dbm3X8vVAgrK8tNbv"
        } ],
        "external_urls" : {
          "spotify" : "https://open.spotify.com/album/58IMcvOjEFkhtvgUE1ZZ9d"
        },
        "href" : "https://api.spotify.com/v1/albums/58IMcvOjEFkhtvgUE1ZZ9d",
        "id" : "58IMcvOjEFkhtvgUE1ZZ9d",
        "images" : [ {
          "height" : 640,
          "url" : "https://i.scdn.co/image/ab67616d0000b273343b279e03c0ed7cd4cef7a8",
          "width" : 640
        }, {
          "height" : 300,
          "url" : "https://i.scdn.co/image/ab67616d00001e02343b279e03c0ed7cd4cef7a8",
          "width" : 300
        }, {
          "height" : 64,
          "url" : "https://i.scdn.co/image/ab67616d00004851343b279e03c0ed7cd4cef7a8",
          "width" : 64
        } ],
        "name" : "Reflections Volume 2 - 60 More Songs of Devotion",
        "release_date" : "2013-03-07",
        "release_date_precision" : "day",
        "total_tracks" : 60,
        "type" : "album",
        "uri" : "spotify:album:58IMcvOjEFkhtvgUE1ZZ9d"
      },
      "artists" : [ {
        "external_urls" : {
          "spotify" : "https://open.spotify.com/artist/1IYk7Dbm3X8vVAgrK8tNbv"
        },
        "href" : "https://api.spotify.com/v1/artists/1IYk7Dbm3X8vVAgrK8tNbv",
        "id" : "1IYk7Dbm3X8vVAgrK8tNbv",
        "name" : "Eric Wyse",
        "type" : "artist",
        "uri" : "spotify:artist:1IYk7Dbm3X8vVAgrK8tNbv"
      } ],
      "disc_number" : 1,
      "duration_ms" : 173346,
      "explicit" : false,
      "external_ids" : {
        "isrc" : "USG5S1296515"
      },
      "external_urls" : {
        "spotify" : "https://open.spotify.com/track/7m1Z8ypveKWcSAiI66kq8h"
      },
      "href" : "https://api.spotify.com/v1/tracks/7m1Z8ypveKWcSAiI66kq8h",
      "id" : "7m1Z8ypveKWcSAiI66kq8h",
      "is_local" : false,
      "is_playable" : true,
      "name" : "Go to Dark Gethsemane",
      "popularity" : 6,
      "preview_url" : "https://p.scdn.co/mp3-preview/4e752b1cf367ed722c728c5e93786a0366a9298e?cid=774b29d4f13844c495f206cafdad9c86",
      "track_number" : 15,
      "type" : "track",
      "uri" : "spotify:track:7m1Z8ypveKWcSAiI66kq8h"
    }, {
      "album" : {
        "album_type" : "album",
        "artists" : [ {
          "external_urls" : {
            "spotify" : "https://open.spotify.com/artist/1fO0DHOhFIvuPtObA3LtHR"
          },
          "href" : "https://api.spotify.com/v1/artists/1fO0DHOhFIvuPtObA3LtHR",
          "id" : "1fO0DHOhFIvuPtObA3LtHR",
          "name" : "Christian Hymns",
          "type" : "artist",
          "uri" : "spotify:artist:1fO0DHOhFIvuPtObA3LtHR"
        }, {
          "external_urls" : {
            "spotify" : "https://open.spotify.com/artist/0rdBlsgJwmtrfJEjOo4fdQ"
          },
          "href" : "https://api.spotify.com/v1/artists/0rdBlsgJwmtrfJEjOo4fdQ",
          "id" : "0rdBlsgJwmtrfJEjOo4fdQ",
          "name" : "Simply Instrumental Worship",
          "type" : "artist",
          "uri" : "spotify:artist:0rdBlsgJwmtrfJEjOo4fdQ"
        } ],
        "external_urls" : {
          "spotify" : "https://open.spotify.com/album/2fTuokRYOVDgYgTRohiuPw"
        },
        "href" : "https://api.spotify.com/v1/albums/2fTuokRYOVDgYgTRohiuPw",
        "id" : "2fTuokRYOVDgYgTRohiuPw",
        "images" : [ {
          "height" : 640,
          "url" : "https://i.scdn.co/image/ab67616d0000b2735749c5fee820ad6977d1b172",
          "width" : 640
        }, {
          "height" : 300,
          "url" : "https://i.scdn.co/image/ab67616d00001e025749c5fee820ad6977d1b172",
          "width" : 300
        }, {
          "height" : 64,
          "url" : "https://i.scdn.co/image/ab67616d000048515749c5fee820ad6977d1b172",
          "width" : 64
        } ],
        "name" : "Piano for Faith, Hope & Prayer",
        "release_date" : "2019-04-12",
        "release_date_precision" : "day",
        "total_tracks" : 16,
        "type" : "album",
        "uri" : "spotify:album:2fTuokRYOVDgYgTRohiuPw"
      },
      "artists" : [ {
        "external_urls" : {
          "spotify" : "https://open.spotify.com/artist/1fO0DHOhFIvuPtObA3LtHR"
        },
        "href" : "https://api.spotify.com/v1/artists/1fO0DHOhFIvuPtObA3LtHR",
        "id" : "1fO0DHOhFIvuPtObA3LtHR",
        "name" : "Christian Hymns",
        "type" : "artist",
        "uri" : "spotify:artist:1fO0DHOhFIvuPtObA3LtHR"
      }, {
        "external_urls" : {
          "spotify" : "https://open.spotify.com/artist/0rdBlsgJwmtrfJEjOo4fdQ"
        },
        "href" : "https://api.spotify.com/v1/artists/0rdBlsgJwmtrfJEjOo4fdQ",
        "id" : "0rdBlsgJwmtrfJEjOo4fdQ",
        "name" : "Simply Instrumental Worship",
        "type" : "artist",
        "uri" : "spotify:artist:0rdBlsgJwmtrfJEjOo4fdQ"
      } ],
      "disc_number" : 1,
      "duration_ms" : 234457,
      "explicit" : false,
      "external_ids" : {
        "isrc" : "TCAED1995617"
      },
      "external_urls" : {
        "spotify" : "https://open.spotify.com/track/4Jd7dNjO7MYMWZJn9vkjKE"
      },
      "href" : "https://api.spotify.com/v1/tracks/4Jd7dNjO7MYMWZJn9vkjKE",
      "id" : "4Jd7dNjO7MYMWZJn9vkjKE",
      "is_local" : false,
      "is_playable" : true,
      "name" : "Go to Dark Gethsemane (Instrumental Version)",
      "popularity" : 6,
      "preview_url" : "https://p.scdn.co/mp3-preview/f8b81f8d1d7a785cb41ba39eb3f597fed945bf44?cid=774b29d4f13844c495f206cafdad9c86",
      "track_number" : 13,
      "type" : "track",
      "uri" : "spotify:track:4Jd7dNjO7MYMWZJn9vkjKE"
    }, {
      "album" : {
        "album_type" : "album",
        "artists" : [ {
          "external_urls" : {
            "spotify" : "https://open.spotify.com/artist/5Ij0tzLgKrsZjPzyUvVjey"
          },
          "href" : "https://api.spotify.com/v1/artists/5Ij0tzLgKrsZjPzyUvVjey",
          "id" : "5Ij0tzLgKrsZjPzyUvVjey",
          "name" : "The Celebration Choir",
          "type" : "artist",
          "uri" : "spotify:artist:5Ij0tzLgKrsZjPzyUvVjey"
        } ],
        "external_urls" : {
          "spotify" : "https://open.spotify.com/album/2nzVH2kPzyMgc4tTADTALo"
        },
        "href" : "https://api.spotify.com/v1/albums/2nzVH2kPzyMgc4tTADTALo",
        "id" : "2nzVH2kPzyMgc4tTADTALo",
        "images" : [ {
          "height" : 640,
          "url" : "https://i.scdn.co/image/ab67616d0000b273e5613f210f6de1b65f092c75",
          "width" : 640
        }, {
          "height" : 300,
          "url" : "https://i.scdn.co/image/ab67616d00001e02e5613f210f6de1b65f092c75",
          "width" : 300
        }, {
          "height" : 64,
          "url" : "https://i.scdn.co/image/ab67616d00004851e5613f210f6de1b65f092c75",
          "width" : 64
        } ],
        "name" : "The Hymn Makers: James Montgomery (Hail To the Lord's Anointed)",
        "release_date" : "2007-07-30",
        "release_date_precision" : "day",
        "total_tracks" : 13,
        "type" : "album",
        "uri" : "spotify:album:2nzVH2kPzyMgc4tTADTALo"
      },
      "artists" : [ {
        "external_urls" : {
          "spotify" : "https://open.spotify.com/artist/5Ij0tzLgKrsZjPzyUvVjey"
        },
        "href" : "https://api.spotify.com/v1/artists/5Ij0tzLgKrsZjPzyUvVjey",
        "id" : "5Ij0tzLgKrsZjPzyUvVjey",
        "name" : "The Celebration Choir",
        "type" : "artist",
        "uri" : "spotify:artist:5Ij0tzLgKrsZjPzyUvVjey"
      } ],
      "disc_number" : 1,
      "duration_ms" : 195440,
      "explicit" : false,
      "external_ids" : {
        "isrc" : "GBBTM9366512"
      },
      "external_urls" : {
        "spotify" : "https://open.spotify.com/track/50G1wuHuNmu2Dt0cUDUOe3"
      },
      "href" : "https://api.spotify.com/v1/tracks/50G1wuHuNmu2Dt0cUDUOe3",
      "id" : "50G1wuHuNmu2Dt0cUDUOe3",
      "is_local" : false,
      "is_playable" : true,
      "name" : "Go and Dark Gethsemane",
      "popularity" : 4,
      "preview_url" : "https://p.scdn.co/mp3-preview/8db8e5eb50f1ec0c25b2668c6db371d5bc8cdcb8?cid=774b29d4f13844c495f206cafdad9c86",
      "track_number" : 12,
      "type" : "track",
      "uri" : "spotify:track:50G1wuHuNmu2Dt0cUDUOe3"
    }, {
      "album" : {
        "album_type" : "album",
        "artists" : [ {
          "external_urls" : {
            "spotify" : "https://open.spotify.com/artist/76OdpFEFynApLoa7gT5gN0"
          },
          "href" : "https://api.spotify.com/v1/artists/76OdpFEFynApLoa7gT5gN0",
          "id" : "76OdpFEFynApLoa7gT5gN0",
          "name" : "Lux Singers",
          "type" : "artist",
          "uri" : "spotify:artist:76OdpFEFynApLoa7gT5gN0"
        } ],
        "external_urls" : {
          "spotify" : "https://open.spotify.com/album/4PBDV2oEqgcwDtGcmP3q3Q"
        },
        "href" : "https://api.spotify.com/v1/albums/4PBDV2oEqgcwDtGcmP3q3Q",
        "id" : "4PBDV2oEqgcwDtGcmP3q3Q",
        "images" : [ {
          "height" : 640,
          "url" : "https://i.scdn.co/image/ab67616d0000b273fa3c632348355013f6cfbbfa",
          "width" : 640
        }, {
          "height" : 300,
          "url" : "https://i.scdn.co/image/ab67616d00001e02fa3c632348355013f6cfbbfa",
          "width" : 300
        }, {
          "height" : 64,
          "url" : "https://i.scdn.co/image/ab67616d00004851fa3c632348355013f6cfbbfa",
          "width" : 64
        } ],
        "name" : "Risen!",
        "release_date" : "2017-10-01",
        "release_date_precision" : "day",
        "total_tracks" : 12,
        "type" : "album",
        "uri" : "spotify:album:4PBDV2oEqgcwDtGcmP3q3Q"
      },
      "artists" : [ {
        "external_urls" : {
          "spotify" : "https://open.spotify.com/artist/76OdpFEFynApLoa7gT5gN0"
        },
        "href" : "https://api.spotify.com/v1/artists/76OdpFEFynApLoa7gT5gN0",
        "id" : "76OdpFEFynApLoa7gT5gN0",
        "name" : "Lux Singers",
        "type" : "artist",
        "uri" : "spotify:artist:76OdpFEFynApLoa7gT5gN0"
      } ],
      "disc_number" : 1,
      "duration_ms" : 279382,
      "explicit" : false,
      "external_ids" : {
        "isrc" : "TCADG1790429"
      },
      "external_urls" : {
        "spotify" : "https://open.spotify.com/track/3zhIPs5Y3naQEEaz4J09UA"
      },
      "href" : "https://api.spotify.com/v1/tracks/3zhIPs5Y3naQEEaz4J09UA",
      "id" : "3zhIPs5Y3naQEEaz4J09UA",
      "is_local" : false,
      "is_playable" : true,
      "name" : "Go to Dark Gethsemane",
      "popularity" : 2,
      "preview_url" : "https://p.scdn.co/mp3-preview/90f56e100125e077ae32f0de428d26c578363786?cid=774b29d4f13844c495f206cafdad9c86",
      "track_number" : 9,
      "type" : "track",
      "uri" : "spotify:track:3zhIPs5Y3naQEEaz4J09UA"
    }, {
      "album" : {
        "album_type" : "album",
        "artists" : [ {
          "external_urls" : {
            "spotify" : "https://open.spotify.com/artist/5iPCh0oqsz1m0henXpovFe"
          },
          "href" : "https://api.spotify.com/v1/artists/5iPCh0oqsz1m0henXpovFe",
          "id" : "5iPCh0oqsz1m0henXpovFe",
          "name" : "High Street Hymns",
          "type" : "artist",
          "uri" : "spotify:artist:5iPCh0oqsz1m0henXpovFe"
        } ],
        "external_urls" : {
          "spotify" : "https://open.spotify.com/album/2fRAJ2jOXd91Wol1Db8iJW"
        },
        "href" : "https://api.spotify.com/v1/albums/2fRAJ2jOXd91Wol1Db8iJW",
        "id" : "2fRAJ2jOXd91Wol1Db8iJW",
        "images" : [ {
          "height" : 640,
          "url" : "https://i.scdn.co/image/ab67616d0000b273f34283284fb27a6ab5d24a57",
          "width" : 640
        }, {
          "height" : 300,
          "url" : "https://i.scdn.co/image/ab67616d00001e02f34283284fb27a6ab5d24a57",
          "width" : 300
        }, {
          "height" : 64,
          "url" : "https://i.scdn.co/image/ab67616d00004851f34283284fb27a6ab5d24a57",
          "width" : 64
        } ],
        "name" : "Love Lives Again",
        "release_date" : "2012-10-23",
        "release_date_precision" : "day",
        "total_tracks" : 10,
        "type" : "album",
        "uri" : "spotify:album:2fRAJ2jOXd91Wol1Db8iJW"
      },
      "artists" : [ {
        "external_urls" : {
          "spotify" : "https://open.spotify.com/artist/5iPCh0oqsz1m0henXpovFe"
        },
        "href" : "https://api.spotify.com/v1/artists/5iPCh0oqsz1m0henXpovFe",
        "id" : "5iPCh0oqsz1m0henXpovFe",
        "name" : "High Street Hymns",
        "type" : "artist",
        "uri" : "spotify:artist:5iPCh0oqsz1m0henXpovFe"
      } ],
      "disc_number" : 1,
      "duration_ms" : 269061,
      "explicit" : false,
      "external_ids" : {
        "isrc" : "QZES81812264"
      },
      "external_urls" : {
        "spotify" : "https://open.spotify.com/track/1YIy94ieKWmOrfEXftxrju"
      },
      "href" : "https://api.spotify.com/v1/tracks/1YIy94ieKWmOrfEXftxrju",
      "id" : "1YIy94ieKWmOrfEXftxrju",
      "is_local" : false,
      "is_playable" : true,
      "name" : "Go to Dark Gethsemane",
      "popularity" : 3,
      "preview_url" : "https://p.scdn.co/mp3-preview/40a2ba20a8311650c39a4f856dcfa0d8a49897cb?cid=774b29d4f13844c495f206cafdad9c86",
      "track_number" : 5,
      "type" : "track",
      "uri" : "spotify:track:1YIy94ieKWmOrfEXftxrju"
    }, {
      "album" : {
        "album_type" : "album",
        "artists" : [ {
          "external_urls" : {
            "spotify" : "https://open.spotify.com/artist/41N4x8ZUxk7JkHORj8M3bd"
          },
          "href" : "https://api.spotify.com/v1/artists/41N4x8ZUxk7JkHORj8M3bd",
          "id" : "41N4x8ZUxk7JkHORj8M3bd",
          "name" : "Concordia Publishing House",
          "type" : "artist",
          "uri" : "spotify:artist:41N4x8ZUxk7JkHORj8M3bd"
        } ],
        "external_urls" : {
          "spotify" : "https://open.spotify.com/album/06EPgyJ2jfgKBjVHcwihlP"
        },
        "href" : "https://api.spotify.com/v1/albums/06EPgyJ2jfgKBjVHcwihlP",
        "id" : "06EPgyJ2jfgKBjVHcwihlP",
        "images" : [ {
          "height" : 640,
          "url" : "https://i.scdn.co/image/ab67616d0000b27353a3f53ea52e9b6e35f771b0",
          "width" : 640
        }, {
          "height" : 300,
          "url" : "https://i.scdn.co/image/ab67616d00001e0253a3f53ea52e9b6e35f771b0",
          "width" : 300
        }, {
          "height" : 64,
          "url" : "https://i.scdn.co/image/ab67616d0000485153a3f53ea52e9b6e35f771b0",
          "width" : 64
        } ],
        "name" : "My First Hymnal-Lent, Easter, Pentecost, Holy Trinity",
        "release_date" : "2012-08-21",
        "release_date_precision" : "day",
        "total_tracks" : 26,
        "type" : "album",
        "uri" : "spotify:album:06EPgyJ2jfgKBjVHcwihlP"
      },
      "artists" : [ {
        "external_urls" : {
          "spotify" : "https://open.spotify.com/artist/41N4x8ZUxk7JkHORj8M3bd"
        },
        "href" : "https://api.spotify.com/v1/artists/41N4x8ZUxk7JkHORj8M3bd",
        "id" : "41N4x8ZUxk7JkHORj8M3bd",
        "name" : "Concordia Publishing House",
        "type" : "artist",
        "uri" : "spotify:artist:41N4x8ZUxk7JkHORj8M3bd"
      } ],
      "disc_number" : 1,
      "duration_ms" : 130115,
      "explicit" : false,
      "external_ids" : {
        "isrc" : "US3DF1211088"
      },
      "external_urls" : {
        "spotify" : "https://open.spotify.com/track/5zCaTjoJyQRJzIEo1vtaU2"
      },
      "href" : "https://api.spotify.com/v1/tracks/5zCaTjoJyQRJzIEo1vtaU2",
      "id" : "5zCaTjoJyQRJzIEo1vtaU2",
      "is_local" : false,
      "is_playable" : true,
      "name" : "Go to Dark Gethsemane",
      "popularity" : 2,
      "preview_url" : "https://p.scdn.co/mp3-preview/e02dc8ac354cc144d712e56fe54232153e8dae15?cid=774b29d4f13844c495f206cafdad9c86",
      "track_number" : 11,
      "type" : "track",
      "uri" : "spotify:track:5zCaTjoJyQRJzIEo1vtaU2"
    } ],
    "limit" : 10,
    "next" : "https://api.spotify.com/v1/search?query=Go+to+Dark+Gethsemane&type=track&market=US&offset=15&limit=10",
    "offset" : 5,
    "previous" : "https://api.spotify.com/v1/search?query=Go+to+Dark+Gethsemane&type=track&market=US&offset=0&limit=10",
    "total" : 53
  }
}