{
  "tracks" : {
    "href" : "https://api.spotify.com/v1/search?query=There%E2%80%99s+Sunshine+in+My+Soul+Today&type=track&market=US&offset=5&limit=10",
    "items" : [ {
      "album" : {
        "album_type" : "album",
        "artists" : [ {
          "external_urls" : {
            "spotify" : "https://open.spotify.com/artist/4HVfhhAsJTmR8yyXhCdkh2"
          },
          "href" : "https://api.spotify.com/v1/artists/4HVfhhAsJTmR8yyXhCdkh2",
          "id" : "4HVfhhAsJTmR8yyXhCdkh2",
          "name" : "Lacie Kirk",
          "type" : "artist",
          "uri" : "spotify:artist:4HVfhhAsJTmR8yyXhCdkh2"
        } ],
        "external_urls" : {
          "spotify" : "https://open.spotify.com/album/7JQnz05Uzan2wnU1KiZ04m"
        },
        "href" : "https://api.spotify.com/v1/albums/7JQnz05Uzan2wnU1KiZ04m",
        "id" : "7JQnz05Uzan2wnU1KiZ04m",
        "images" : [ {
          "height" : 640,
          "url" : "https://i.scdn.co/image/ab67616d0000b27350e679d850162afb6e124dfe",
          "width" : 640
        }, {
          "height" : 300,
          "url" : "https://i.scdn.co/image/ab67616d00001e0250e679d850162afb6e124dfe",
          "width" : 300
        }, {
          "height" : 64,
          "url" : "https://i.scdn.co/image/ab67616d0000485150e679d850162afb6e124dfe",
          "width" : 64
        } ],
        "name" : "Preparing the Way",
        "release_date" : "2009-08-10",
        "release_date_precision" : "day",
        "total_tracks" : 12,
        "type" : "album",
        "uri" : "spotify:album:7JQnz05Uzan2wnU1KiZ04m"
      },
      "artists" : [ {
        "external_urls" : {
          "spotify" : "https://open.spotify.com/artist/4HVfhhAsJTmR8yyXhCdkh2"
        },
        "href" : "https://api.spotify.com/v1/artists/4HVfhhAsJTmR8yyXhCdkh2",
        "id" : "4HVfhhAsJTmR8yyXhCdkh2",
        "name" : "Lacie Kirk",
        "type" : "artist",
        "uri" : "spotify:artist:4HVfhhAsJTmR8yyXhCdkh2"
      } ],
      "disc_number" : 1,
      "duration_ms" : 222666,
      "explicit" : false,
      "external_ids" : {
        "isrc" : "ushm80975216"
      },
      "external_urls" : {
        "spotify" : "https://open.spotify.com/track/6vsuYLuUwPPzmHtO5dp1Dh"
      },
      "href" : "https://api.spotify.com/v1/tracks/6vsuYLuUwPPzmHtO5dp1Dh",
      "id" : "6vsuYLuUwPPzmHtO5dp1Dh",
      "is_local" : false,
      "is_playable" : true,
      "name" : "There is Sunshine in My Soul Today",
      "popularity" : 9,
      "preview_url" : "https://p.scdn.co/mp3-preview/ba194de01d8b15455949e410862ef4e85b5fbe08?cid=774b29d4f13844c495f206cafdad9c86",
      "track_number" : 4,
      "type" : "track",
      "uri" : "spotify:track:6vsuYLuUwPPzmHtO5dp1Dh"
    }, {
      "album" : {
        "album_type" : "single",
        "artists" : [ {
          "external_urls" : {
            "spotify" : "https://open.spotify.com/artist/0oqycKHsajVQAXB1PyGv3h"
          },
          "href" : "https://api.spotify.com/v1/artists/0oqycKHsajVQAXB1PyGv3h",
          "id" : "0oqycKHsajVQAXB1PyGv3h",
          "name" : "Jonah Taylor",
          "type" : "artist",
          "uri" : "spotify:artist:0oqycKHsajVQAXB1PyGv3h"
        } ],
        "external_urls" : {
          "spotify" : "https://open.spotify.com/album/4oIoUloSZ8LbmkFi2NV1a8"
        },
        "href" : "https://api.spotify.com/v1/albums/4oIoUloSZ8LbmkFi2NV1a8",
        "id" : "4oIoUloSZ8LbmkFi2NV1a8",
        "images" : [ {
          "height" : 640,
          "url" : "https://i.scdn.co/image/ab67616d0000b2736667d3c8e56102bb18e5918e",
          "width" : 640
        }, {
          "height" : 300,
          "url" : "https://i.scdn.co/image/ab67616d00001e026667d3c8e56102bb18e5918e",
          "width" : 300
        }, {
          "height" : 64,
          "url" : "https://i.scdn.co/image/ab67616d000048516667d3c8e56102bb18e5918e",
          "width" : 64
        } ],
        "name" : "There Is Sunshine in My Soul Today",
        "release_date" : "2016-06-01",
        "release_date_precision" : "day",
        "total_tracks" : 1,
        "type" : "album",
        "uri" : "spotify:album:4oIoUloSZ8LbmkFi2NV1a8"
      },
      "artists" : [ {
        "external_urls" : {
          "spotify" : "https://open.spotify.com/artist/0oqycKHsajVQAXB1PyGv3h"
        },
        "href" : "https://api.spotify.com/v1/artists/0oqycKHsajVQAXB1PyGv3h",
        "id" : "0oqycKHsajVQAXB1PyGv3h",
        "name" : "Jonah Taylor",
        "type" : "artist",
        "uri" : "spotify:artist:0oqycKHsajVQAXB1PyGv3h"
      } ],
      "disc_number" : 1,
      "duration_ms" : 186734,
      "explicit" : false,
      "external_ids" : {
        "isrc" : "TCACO1699008"
      },
      "external_urls" : {
        "spotify" : "https://open.spotify.com/track/0Xw5VBpfhM5pJrMgfxTetv"
      },
      "href" : "https://api.spotify.com/v1/tracks/0Xw5VBpfhM5pJrMgfxTetv",
      "id" : "0Xw5VBpfhM5pJrMgfxTetv",
      "is_local" : false,
      "is_playable" : true,
      "name" : "There Is Sunshine in My Soul Today",
      "popularity" : 8,
      "preview_url" : "https://p.scdn.co/mp3-preview/9fa8d83e7485113d867483fe57235be91c328d92?cid=774b29d4f13844c495f206cafdad9c86",
      "track_number" : 1,
      "type" : "track",
      "uri" : "spotify:track:0Xw5VBpfhM5pJrMgfxTetv"
    }, {
      "album" : {
        "album_type" : "album",
        "artists" : [ {
          "external_urls" : {
            "spotify" : "https://open.spotify.com/artist/0oqycKHsajVQAXB1PyGv3h"
          },
          "href" : "https://api.spotify.com/v1/artists/0oqycKHsajVQAXB1PyGv3h",
          "id" : "0oqycKHsajVQAXB1PyGv3h",
          "name" : "Jonah Taylor",
          "type" : "artist",
          "uri" : "spotify:artist:0oqycKHsajVQAXB1PyGv3h"
        } ],
        "external_urls" : {
          "spotify" : "https://open.spotify.com/album/63yZJb7yDn2p1J7gbQlWnG"
        },
        "href" : "https://api.spotify.com/v1/albums/63yZJb7yDn2p1J7gbQlWnG",
        "id" : "63yZJb7yDn2p1J7gbQlWnG",
        "images" : [ {
          "height" : 640,
          "url" : "https://i.scdn.co/image/ab67616d0000b27392ab613499440ae000eaeffd",
          "width" : 640
        }, {
          "height" : 300,
          "url" : "https://i.scdn.co/image/ab67616d00001e0292ab613499440ae000eaeffd",
          "width" : 300
        }, {
          "height" : 64,
          "url" : "https://i.scdn.co/image/ab67616d0000485192ab613499440ae000eaeffd",
          "width" : 64
        } ],
        "name" : "Songs from 6th East",
        "release_date" : "2017-01-25",
        "release_date_precision" : "day",
        "total_tracks" : 12,
        "type" : "album",
        "uri" : "spotify:album:63yZJb7yDn2p1J7gbQlWnG"
      },
      "artists" : [ {
        "external_urls" : {
          "spotify" : "https://open.spotify.com/artist/0oqycKHsajVQAXB1PyGv3h"
        },
        "href" : "https://api.spotify.com/v1/artists/0oqycKHsajVQAXB1PyGv3h",
        "id" : "0oqycKHsajVQAXB1PyGv3h",
        "name" : "Jonah Taylor",
        "type" : "artist",
        "uri" : "spotify:artist:0oqycKHsajVQAXB1PyGv3h"
      } ],
      "disc_number" : 1,
      "duration_ms" : 186734,
      "explicit" : false,
      "external_ids" : {
        "isrc" : "TCACW1735966"
      },
      "external_urls" : {
        "spotify" : "https://open.spotify.com/track/0fa8vBxjgIIRg7VD95SWqz"
      },
      "href" : "https://api.spotify.com/v1/tracks/0fa8vBxjgIIRg7VD95SWqz",
      "id" : "0fa8vBxjgIIRg7VD95SWqz",
      "is_local" : false,
      "is_playable" : true,
      "name" : "There Is Sunshine in My Soul Today",
      "popularity" : 8,
      "preview_url" : "https://p.scdn.co/mp3-preview/9fa8d83e7485113d867483fe57235be91c328d92?cid=774b29d4f13844c495f206cafdad9c86",
      "track_number" : 7,
      "type" : "track",
      "uri" : "spotify:track:0fa8vBxjgIIRg7VD95SWqz"
    }, {
      "album" : {
        "album_type" : "album",
        "artists" : [ {
          "external_urls" : {
            "spotify" : "https://open.spotify.com/artist/3lk8qatIcUand38OeCGxk9"
          },
          "href" : "https://api.spotify.com/v1/artists/3lk8qatIcUand38OeCGxk9",
          "id" : "3lk8qatIcUand38OeCGxk9",
          "name" : "Lorie Line",
          "type" : "artist",
          "uri" : "spotify:artist:3lk8qatIcUand38OeCGxk9"
        } ],
        "external_urls" : {
          "spotify" : "https://open.spotify.com/album/1b2NAkvxQ6Kg6vtLhTe1rP"
        },
        "href" : "https://api.spotify.com/v1/albums/1b2NAkvxQ6Kg6vtLhTe1rP",
        "id" : "1b2NAkvxQ6Kg6vtLhTe1rP",
        "images" : [ {
          "height" : 640,
          "url" : "https://i.scdn.co/image/ab67616d0000b273d4ea0112470225ed778ad977",
          "width" : 640
        }, {
          "height" : 300,
          "url" : "https://i.scdn.co/image/ab67616d00001e02d4ea0112470225ed778ad977",
          "width" : 300
        }, {
          "height" : 64,
          "url" : "https://i.scdn.co/image/ab67616d00004851d4ea0112470225ed778ad977",
          "width" : 64
        } ],
        "name" : "The Heritage Collection, Vol. 7",
        "release_date" : "2015-06-11",
        "release_date_precision" : "day",
        "total_tracks" : 14,
        "type" : "album",
        "uri" : "spotify:album:1b2NAkvxQ6Kg6vtLhTe1rP"
      },
      "artists" : [ {
        "external_urls" : {
          "spotify" : "https://open.spotify.com/artist/3lk8qatIcUand38OeCGxk9"
        },
        "href" : "https://api.spotify.com/v1/artists/3lk8qatIcUand38OeCGxk9",
        "id" : "3lk8qatIcUand38OeCGxk9",
        "name" : "Lorie Line",
        "type" : "artist",
        "uri" : "spotify:artist:3lk8qatIcUand38OeCGxk9"
      } ],
      "disc_number" : 1,
      "duration_ms" : 194533,
      "explicit" : false,
      "external_ids" : {
        "isrc" : "US42C1500671"
      },
      "external_urls" : {
        "spotify" : "https://open.spotify.com/track/4gObQKDxTx04YzYOvom4zo"
      },
      "href" : "https://api.spotify.com/v1/tracks/4gObQKDxTx04YzYOvom4zo",
      "id" : "4gObQKDxTx04YzYOvom4zo",
      "is_local" : false,
      "is_playable" : true,
      "name" : "There Is Sunshine in My Soul Today",
      "popularity" : 6,
      "preview_url" : "https://p.scdn.co/mp3-preview/da9cecf52e4159de7da5e5d877351195561c86a5?cid=774b29d4f13844c495f206cafdad9c86",
      "track_number" : 1,
      "type" : "track",
      "uri" : "spotify:track:4gObQKDxTx04YzYOvom4zo"
    }, {
      "album" : {
        "album_type" : "album",
        "artists" : [ {
          "external_urls" : {
            "spotify" : "https://open.spotify.com/artist/2crWLE0nbxqexlu75fLKVv"
          },
          "href" : "https://api.spotify.com/v1/artists/2crWLE0nbxqexlu75fLKVv",
          "id" : "2crWLE0nbxqexlu75fLKVv",
          "name" : "Linda Brown Burns",
          "type" : "artist",
          "uri" : "spotify:artist:2crWLE0nbxqexlu75fLKVv"
        } ],
        "external_urls" : {
          "spotify" : "https://open.spotify.com/album/2G2QpIWJ7A1SpyPIeFwk87"
        },
        "href" : "https://api.spotify.com/v1/albums/2G2QpIWJ7A1SpyPIeFwk87",
        "id" : "2G2QpIWJ7A1SpyPIeFwk87",
        "images" : [ {
          "height" : 640,
          "url" : "https://i.scdn.co/image/ab67616d0000b27386598092733bebd582dac67e",
          "width" : 640
        }, {
          "height" : 300,
          "url" : "https://i.scdn.co/image/ab67616d00001e0286598092733bebd582dac67e",
          "width" : 300
        }, {
          "height" : 64,
          "url" : "https://i.scdn.co/image/ab67616d0000485186598092733bebd582dac67e",
          "width" : 64
        } ],
        "name" : "Praising God",
        "release_date" : "2015-12-27",
        "release_date_precision" : "day",
        "total_tracks" : 23,
        "type" : "album",
        "uri" : "spotify:album:2G2QpIWJ7A1SpyPIeFwk87"
      },
      "artists" : [ {
        "external_urls" : {
          "spotify" : "https://open.spotify.com/artist/2crWLE0nbxqexlu75fLKVv"
        },
        "href" : "https://api.spotify.com/v1/artists/2crWLE0nbxqexlu75fLKVv",
        "id" : "2crWLE0nbxqexlu75fLKVv",
        "name" : "Linda Brown Burns",
        "type" : "artist",
        "uri" : "spotify:artist:2crWLE0nbxqexlu75fLKVv"
      } ],
      "disc_number" : 1,
      "duration_ms" : 155245,
      "explicit" : false,
      "external_ids" : {
        "isrc" : "USJ3V1379842"
      },
      "external_urls" : {
        "spotify" : "https://open.spotify.com/track/7jbb07wzak1ag03lZJZAli"
      },
      "href" : "https://api.spotify.com/v1/tracks/7jbb07wzak1ag03lZJZAli",
      "id" : "7jbb07wzak1ag03lZJZAli",
      "is_local" : false,
      "is_playable" : true,
      "name" : "There Is Sunshine in My Soul Today",
      "popularity" : 18,
      "preview_url" : "https://p.scdn.co/mp3-preview/8d9d52f61042c6e2ccba77f70abe657a1f32fa16?cid=774b29d4f13844c495f206cafdad9c86",
      "track_number" : 15,
      "type" : "track",
      "uri" : "spotify:track:7jbb07wzak1ag03lZJZAli"
    }, {
      "album" : {
        "album_type" : "album",
        "artists" : [ {
          "external_urls" : {
            "spotify" : "https://open.spotify.com/artist/4yIatqL69NFsOHiHSauqi5"
          },
          "href" : "https://api.spotify.com/v1/artists/4yIatqL69NFsOHiHSauqi5",
          "id" : "4yIatqL69NFsOHiHSauqi5",
          "name" : "Jeremy Morada",
          "type" : "artist",
          "uri" : "spotify:artist:4yIatqL69NFsOHiHSauqi5"
        } ],
        "external_urls" : {
          "spotify" : "https://open.spotify.com/album/17pHuDUmlfz5WUr77Q7hG3"
        },
        "href" : "https://api.spotify.com/v1/albums/17pHuDUmlfz5WUr77Q7hG3",
        "id" : "17pHuDUmlfz5WUr77Q7hG3",
        "images" : [ {
          "height" : 640,
          "url" : "https://i.scdn.co/image/ab67616d0000b2736d4139c8aa90166146288189",
          "width" : 640
        }, {
          "height" : 300,
          "url" : "https://i.scdn.co/image/ab67616d00001e026d4139c8aa90166146288189",
          "width" : 300
        }, {
          "height" : 64,
          "url" : "https://i.scdn.co/image/ab67616d000048516d4139c8aa90166146288189",
          "width" : 64
        } ],
        "name" : "Watch Ye Saints",
        "release_date" : "2009-05-21",
        "release_date_precision" : "day",
        "total_tracks" : 14,
        "type" : "album",
        "uri" : "spotify:album:17pHuDUmlfz5WUr77Q7hG3"
      },
      "artists" : [ {
        "external_urls" : {
          "spotify" : "https://open.spotify.com/artist/4yIatqL69NFsOHiHSauqi5"
        },
        "href" : "https://api.spotify.com/v1/artists/4yIatqL69NFsOHiHSauqi5",
        "id" : "4yIatqL69NFsOHiHSauqi5",
        "name" : "Jeremy Morada",
        "type" : "artist",
        "uri" : "spotify:artist:4yIatqL69NFsOHiHSauqi5"
      } ],
      "disc_number" : 1,
      "duration_ms" : 193413,
      "explicit" : false,
      "external_ids" : {
        "isrc" : "ushm20945457"
      },
      "external_urls" : {
        "spotify" : "https://open.spotify.com/track/2Z1sI8MPOjQe8h3AjjWf7Q"
      },
      "href" : "https://api.spotify.com/v1/tracks/2Z1sI8MPOjQe8h3AjjWf7Q",
      "id" : "2Z1sI8MPOjQe8h3AjjWf7Q",
      "is_local" : false,
      "is_playable" : true,
      "name" : "There Is Sunshine In My Soul Today",
      "popularity" : 6,
      "preview_url" : "https://p.scdn.co/mp3-preview/f416fb0b5bfca3b13c67f529c49de8758b201449?cid=774b29d4f13844c495f206cafdad9c86",
      "track_number" : 9,
      "type" : "track",
      "uri" : "spotify:track:2Z1sI8MPOjQe8h3AjjWf7Q"
    }, {
      "album" : {
        "album_type" : "album",
        "artists" : [ {
          "external_urls" : {
            "spotify" : "https://open.spotify.com/artist/4yFuk7dwQCJau68romiLDX"
          },
          "href" : "https://api.spotify.com/v1/artists/4yFuk7dwQCJau68romiLDX",
          "id" : "4yFuk7dwQCJau68romiLDX",
          "name" : "Anne Britt",
          "type" : "artist",
          "uri" : "spotify:artist:4yFuk7dwQCJau68romiLDX"
        } ],
        "external_urls" : {
          "spotify" : "https://open.spotify.com/album/1gOtCXtpSUuTvwTjuy9l1g"
        },
        "href" : "https://api.spotify.com/v1/albums/1gOtCXtpSUuTvwTjuy9l1g",
        "id" : "1gOtCXtpSUuTvwTjuy9l1g",
        "images" : [ {
          "height" : 640,
          "url" : "https://i.scdn.co/image/ab67616d0000b2735355ef05e9ce15a811c8e54a",
          "width" : 640
        }, {
          "height" : 300,
          "url" : "https://i.scdn.co/image/ab67616d00001e025355ef05e9ce15a811c8e54a",
          "width" : 300
        }, {
          "height" : 64,
          "url" : "https://i.scdn.co/image/ab67616d000048515355ef05e9ce15a811c8e54a",
          "width" : 64
        } ],
        "name" : "Eventide",
        "release_date" : "2014-06-22",
        "release_date_precision" : "day",
        "total_tracks" : 14,
        "type" : "album",
        "uri" : "spotify:album:1gOtCXtpSUuTvwTjuy9l1g"
      },
      "artists" : [ {
        "external_urls" : {
          "spotify" : "https://open.spotify.com/artist/4yFuk7dwQCJau68romiLDX"
        },
        "href" : "https://api.spotify.com/v1/artists/4yFuk7dwQCJau68romiLDX",
        "id" : "4yFuk7dwQCJau68romiLDX",
        "name" : "Anne Britt",
        "type" : "artist",
        "uri" : "spotify:artist:4yFuk7dwQCJau68romiLDX"
      } ],
      "disc_number" : 1,
      "duration_ms" : 176013,
      "explicit" : false,
      "external_ids" : {
        "isrc" : "QM9GA1400006"
      },
      "external_urls" : {
        "spotify" : "https://open.spotify.com/track/1YnGWzHtLK65p0OboNbc5W"
      },
      "href" : "https://api.spotify.com/v1/tracks/1YnGWzHtLK65p0OboNbc5W",
      "id" : "1YnGWzHtLK65p0OboNbc5W",
      "is_local" : false,
      "is_playable" : true,
      "name" : "There Is Sunshine in My Soul Today",
      "popularity" : 4,
      "preview_url" : "https://p.scdn.co/mp3-preview/da2428e90175d43e05c5565da49a9c8dbf341a7a?cid=774b29d4f13844c495f206cafdad9c86",
      "track_number" : 6,
      "type" : "track",
      "uri" : "spotify:track:1YnGWzHtLK65p0OboNbc5W"
    }, {
      "album" : {
        "album_type" : "album",
        "artists" : [ {
          "external_urls" : {
            "spotify" : "https://open.spotify.com/artist/2BFJk7fjqcbuKS7VUneGpe"
          },
          "href" : "https://api.spotify.com/v1/artists/2BFJk7fjqcbuKS7VUneGpe",
          "id" : "2BFJk7fjqcbuKS7VUneGpe",
          "name" : "The ACU Alumni Chorus",
          "type" : "artist",
          "uri" : "spotify:artist:2BFJk7fjqcbuKS7VUneGpe"
        } ],
        "external_urls" : {
          "spotify" : "https://open.spotify.com/album/2udQNrfvgbXP829ZURtTqZ"
        },
        "href" : "https://api.spotify.com/v1/albums/2udQNrfvgbXP829ZURtTqZ",
        "id" : "2udQNrfvgbXP829ZURtTqZ",
        "images" : [ {
          "height" : 640,
          "url" : "https://i.scdn.co/image/ab67616d0000b273e6c00fd37affeb79efc766ea",
          "width" : 640
        }, {
          "height" : 300,
          "url" : "https://i.scdn.co/image/ab67616d00001e02e6c00fd37affeb79efc766ea",
          "width" : 300
        }, {
          "height" : 64,
          "url" : "https://i.scdn.co/image/ab67616d00004851e6c00fd37affeb79efc766ea",
          "width" : 64
        } ],
        "name" : "Shall We Gather At the River",
        "release_date" : "2013-06-07",
        "release_date_precision" : "day",
        "total_tracks" : 19,
        "type" : "album",
        "uri" : "spotify:album:2udQNrfvgbXP829ZURtTqZ"
      },
      "artists" : [ {
        "external_urls" : {
          "spotify" : "https://open.spotify.com/artist/2BFJk7fjqcbuKS7VUneGpe"
        },
        "href" : "https://api.spotify.com/v1/artists/2BFJk7fjqcbuKS7VUneGpe",
        "id" : "2BFJk7fjqcbuKS7VUneGpe",
        "name" : "The ACU Alumni Chorus",
        "type" : "artist",
        "uri" : "spotify:artist:2BFJk7fjqcbuKS7VUneGpe"
      } ],
      "disc_number" : 1,
      "duration_ms" : 128889,
      "explicit" : false,
      "external_ids" : {
        "isrc" : "ushm21372847"
      },
      "external_urls" : {
        "spotify" : "https://open.spotify.com/track/6DdR8M4nvDmkRpI4Wr2GDR"
      },
      "href" : "https://api.spotify.com/v1/tracks/6DdR8M4nvDmkRpI4Wr2GDR",
      "id" : "6DdR8M4nvDmkRpI4Wr2GDR",
      "is_local" : false,
      "is_playable" : true,
      "name" : "There Is Sunshine in My Soul Today",
      "popularity" : 3,
      "preview_url" : "https://p.scdn.co/mp3-preview/d93d2d35bdf5dc03b0a2c7ca12544c9773994aa2?cid=774b29d4f13844c495f206cafdad9c86",
      "track_number" : 13,
      "type" : "track",
      "uri" : "spotify:track:6DdR8M4nvDmkRpI4Wr2GDR"
    }, {
      "album" : {
        "album_type" : "album",
        "artists" : [ {
          "external_urls" : {
            "spotify" : "https://open.spotify.com/artist/2lm0Nyiu7mmNQYIUWOfhlZ"
          },
          "href" : "https://api.spotify.com/v1/artists/2lm0Nyiu7mmNQYIUWOfhlZ",
          "id" : "2lm0Nyiu7mmNQYIUWOfhlZ",
          "name" : "동행 Dong Haeng",
          "type" : "artist",
          "uri" : "spotify:artist:2lm0Nyiu7mmNQYIUWOfhlZ"
        } ],
        "external_urls" : {
          "spotify" : "https://open.spotify.com/album/1Wq7d74S5MtJPQYMU9moxw"
        },
        "href" : "https://api.spotify.com/v1/albums/1Wq7d74S5MtJPQYMU9moxw",
        "id" : "1Wq7d74S5MtJPQYMU9moxw",
        "images" : [ {
          "height" : 640,
          "url" : "https://i.scdn.co/image/ab67616d0000b2739130b4ce1a0712e92a272b83",
          "width" : 640
        }, {
          "height" : 300,
          "url" : "https://i.scdn.co/image/ab67616d00001e029130b4ce1a0712e92a272b83",
          "width" : 300
        }, {
          "height" : 64,
          "url" : "https://i.scdn.co/image/ab67616d000048519130b4ce1a0712e92a272b83",
          "width" : 64
        } ],
        "name" : "Acoustic Hymns 2 - 예수 사랑하심은 Jesus Loves Me",
        "release_date" : "2017-12-08",
        "release_date_precision" : "day",
        "total_tracks" : 18,
        "type" : "album",
        "uri" : "spotify:album:1Wq7d74S5MtJPQYMU9moxw"
      },
      "artists" : [ {
        "external_urls" : {
          "spotify" : "https://open.spotify.com/artist/2lm0Nyiu7mmNQYIUWOfhlZ"
        },
        "href" : "https://api.spotify.com/v1/artists/2lm0Nyiu7mmNQYIUWOfhlZ",
        "id" : "2lm0Nyiu7mmNQYIUWOfhlZ",
        "name" : "동행 Dong Haeng",
        "type" : "artist",
        "uri" : "spotify:artist:2lm0Nyiu7mmNQYIUWOfhlZ"
      } ],
      "disc_number" : 1,
      "duration_ms" : 197345,
      "explicit" : false,
      "external_ids" : {
        "isrc" : "KRA351700677"
      },
      "external_urls" : {
        "spotify" : "https://open.spotify.com/track/0Y1Wf9y3vJnfjLjMLVD5wk"
      },
      "href" : "https://api.spotify.com/v1/tracks/0Y1Wf9y3vJnfjLjMLVD5wk",
      "id" : "0Y1Wf9y3vJnfjLjMLVD5wk",
      "is_local" : false,
      "is_playable" : true,
      "name" : "내 영혼에 햇빛 비치니 There’s Sunshine in My Soul Today",
      "popularity" : 6,
      "preview_url" : "https://p.scdn.co/mp3-preview/c060c1bb72695837149397387f0669c2d2737438?cid=774b29d4f13844c495f206cafdad9c86",
      "track_number" : 17,
      "type" : "track",
      "uri" : "spotify:track:0Y1Wf9y3vJnfjLjMLVD5wk"
    }, {
      "album" : {
        "album_type" : "album",
        "artists" : [ {
          "external_urls" : {
            "spotify" : "https://open.spotify.com/artist/6MgUTMMyT88i3BE7OqL0hZ"
          },
          "href" : "https://api.spotify.com/v1/artists/6MgUTMMyT88i3BE7OqL0hZ",
          "id" : "6MgUTMMyT88i3BE7OqL0hZ",
          "name" : "True Worshipers 12",
          "type" : "artist",
          "uri" : "spotify:artist:6MgUTMMyT88i3BE7OqL0hZ"
        } ],
        "external_urls" : {
          "spotify" : "https://open.spotify.com/album/7ALQZgugXVCDa4ohXjeWRw"
        },
        "href" : "https://api.spotify.com/v1/albums/7ALQZgugXVCDa4ohXjeWRw",
        "id" : "7ALQZgugXVCDa4ohXjeWRw",
        "images" : [ {
          "height" : 640,
          "url" : "https://i.scdn.co/image/ab67616d0000b27397af88eedc306e4bea7835a6",
          "width" : 640
        }, {
          "height" : 300,
          "url" : "https://i.scdn.co/image/ab67616d00001e0297af88eedc306e4bea7835a6",
          "width" : 300
        }, {
          "height" : 64,
          "url" : "https://i.scdn.co/image/ab67616d0000485197af88eedc306e4bea7835a6",
          "width" : 64
        } ],
        "name" : "아벨의 제사 (Abel's Offering)",
        "release_date" : "2010-06-01",
        "release_date_precision" : "day",
        "total_tracks" : 15,
        "type" : "album",
        "uri" : "spotify:album:7ALQZgugXVCDa4ohXjeWRw"
      },
      "artists" : [ {
        "external_urls" : {
          "spotify" : "https://open.spotify.com/artist/6MgUTMMyT88i3BE7OqL0hZ"
        },
        "href" : "https://api.spotify.com/v1/artists/6MgUTMMyT88i3BE7OqL0hZ",
        "id" : "6MgUTMMyT88i3BE7OqL0hZ",
        "name" : "True Worshipers 12",
        "type" : "artist",
        "uri" : "spotify:artist:6MgUTMMyT88i3BE7OqL0hZ"
      } ],
      "disc_number" : 1,
      "duration_ms" : 188893,
      "explicit" : false,
      "external_ids" : {
        "isrc" : "uscgj1223791"
      },
      "external_urls" : {
        "spotify" : "https://open.spotify.com/track/0CtyPynHaf5iHJfSCg6kqG"
      },
      "href" : "https://api.spotify.com/v1/tracks/0CtyPynHaf5iHJfSCg6kqG",
      "id" : "0CtyPynHaf5iHJfSCg6kqG",
      "is_local" : false,
      "is_playable" : true,
      "name" : "내 영혼에 햇빛 비치니 (There Is Sunshine In My Soul Today)",
      "popularity" : 4,
      "preview_url" : "https://p.scdn.co/mp3-preview/e9d1b2121ce78d7d7d908a09547cb50a2ca73787?cid=774b29d4f13844c495f206cafdad9c86",
      "track_number" : 5,
      "type" : "track",
      "uri" : "spotify:track:0CtyPynHaf5iHJfSCg6kqG"
    } ],
    "limit" : 10,
    "next" : "https://api.spotify.com/v1/search?query=There%E2%80%99s+Sunshine+in+My+Soul+Today&type=track&market=US&offset=15&limit=10",
    "offset" : 5,
    "previous" : "https://api.spotify.com/v1/search?query=There%E2%80%99s+Sunshine+in+My+Soul+Today&type=track&market=US&offset=0&limit=10",
    "total" : 46
  }
}