{
  "tracks" : {
    "href" : "https://api.spotify.com/v1/search?query=Alleluia%21+Sing+to+Jesus%21&type=track&market=US&offset=5&limit=10",
    "items" : [ {
      "album" : {
        "album_type" : "album",
        "artists" : [ {
          "external_urls" : {
            "spotify" : "https://open.spotify.com/artist/4ZJmHVZS6HW3x7MQYmqYeS"
          },
          "href" : "https://api.spotify.com/v1/artists/4ZJmHVZS6HW3x7MQYmqYeS",
          "id" : "4ZJmHVZS6HW3x7MQYmqYeS",
          "name" : "Urban Doxology",
          "type" : "artist",
          "uri" : "spotify:artist:4ZJmHVZS6HW3x7MQYmqYeS"
        } ],
        "external_urls" : {
          "spotify" : "https://open.spotify.com/album/4txF5o197sqo6SDcf869Kx"
        },
        "href" : "https://api.spotify.com/v1/albums/4txF5o197sqo6SDcf869Kx",
        "id" : "4txF5o197sqo6SDcf869Kx",
        "images" : [ {
          "height" : 640,
          "url" : "https://i.scdn.co/image/ab67616d0000b2739c5ab354631ed27ba93041ab",
          "width" : 640
        }, {
          "height" : 300,
          "url" : "https://i.scdn.co/image/ab67616d00001e029c5ab354631ed27ba93041ab",
          "width" : 300
        }, {
          "height" : 64,
          "url" : "https://i.scdn.co/image/ab67616d000048519c5ab354631ed27ba93041ab",
          "width" : 64
        } ],
        "name" : "Urban Doxology",
        "release_date" : "2014-10-21",
        "release_date_precision" : "day",
        "total_tracks" : 11,
        "type" : "album",
        "uri" : "spotify:album:4txF5o197sqo6SDcf869Kx"
      },
      "artists" : [ {
        "external_urls" : {
          "spotify" : "https://open.spotify.com/artist/4ZJmHVZS6HW3x7MQYmqYeS"
        },
        "href" : "https://api.spotify.com/v1/artists/4ZJmHVZS6HW3x7MQYmqYeS",
        "id" : "4ZJmHVZS6HW3x7MQYmqYeS",
        "name" : "Urban Doxology",
        "type" : "artist",
        "uri" : "spotify:artist:4ZJmHVZS6HW3x7MQYmqYeS"
      } ],
      "disc_number" : 1,
      "duration_ms" : 260240,
      "explicit" : false,
      "external_ids" : {
        "isrc" : "TCACA1492835"
      },
      "external_urls" : {
        "spotify" : "https://open.spotify.com/track/4GBb2SGejlkNYgYX7UU2Lk"
      },
      "href" : "https://api.spotify.com/v1/tracks/4GBb2SGejlkNYgYX7UU2Lk",
      "id" : "4GBb2SGejlkNYgYX7UU2Lk",
      "is_local" : false,
      "is_playable" : true,
      "name" : "Alleluia, Sing to Jesus",
      "popularity" : 10,
      "preview_url" : "https://p.scdn.co/mp3-preview/0049146d66eb2d223e22287d63d1ef74552f1174?cid=774b29d4f13844c495f206cafdad9c86",
      "track_number" : 9,
      "type" : "track",
      "uri" : "spotify:track:4GBb2SGejlkNYgYX7UU2Lk"
    }, {
      "album" : {
        "album_type" : "album",
        "artists" : [ {
          "external_urls" : {
            "spotify" : "https://open.spotify.com/artist/0FxZvLqFQaxTtCAiqflsjT"
          },
          "href" : "https://api.spotify.com/v1/artists/0FxZvLqFQaxTtCAiqflsjT",
          "id" : "0FxZvLqFQaxTtCAiqflsjT",
          "name" : "Bobby Fisher",
          "type" : "artist",
          "uri" : "spotify:artist:0FxZvLqFQaxTtCAiqflsjT"
        } ],
        "external_urls" : {
          "spotify" : "https://open.spotify.com/album/1PfRk59lihl3bstMfcjaJP"
        },
        "href" : "https://api.spotify.com/v1/albums/1PfRk59lihl3bstMfcjaJP",
        "id" : "1PfRk59lihl3bstMfcjaJP",
        "images" : [ {
          "height" : 640,
          "url" : "https://i.scdn.co/image/ab67616d0000b2733569f5e8f261f1868e70b8e0",
          "width" : 640
        }, {
          "height" : 300,
          "url" : "https://i.scdn.co/image/ab67616d00001e023569f5e8f261f1868e70b8e0",
          "width" : 300
        }, {
          "height" : 64,
          "url" : "https://i.scdn.co/image/ab67616d000048513569f5e8f261f1868e70b8e0",
          "width" : 64
        } ],
        "name" : "Guitar Prayer",
        "release_date" : "2005-01-01",
        "release_date_precision" : "day",
        "total_tracks" : 21,
        "type" : "album",
        "uri" : "spotify:album:1PfRk59lihl3bstMfcjaJP"
      },
      "artists" : [ {
        "external_urls" : {
          "spotify" : "https://open.spotify.com/artist/0FxZvLqFQaxTtCAiqflsjT"
        },
        "href" : "https://api.spotify.com/v1/artists/0FxZvLqFQaxTtCAiqflsjT",
        "id" : "0FxZvLqFQaxTtCAiqflsjT",
        "name" : "Bobby Fisher",
        "type" : "artist",
        "uri" : "spotify:artist:0FxZvLqFQaxTtCAiqflsjT"
      } ],
      "disc_number" : 1,
      "duration_ms" : 132800,
      "explicit" : false,
      "external_ids" : {
        "isrc" : "US7850610046"
      },
      "external_urls" : {
        "spotify" : "https://open.spotify.com/track/06d7fxM8LI7SNZZobk0Tuj"
      },
      "href" : "https://api.spotify.com/v1/tracks/06d7fxM8LI7SNZZobk0Tuj",
      "id" : "06d7fxM8LI7SNZZobk0Tuj",
      "is_local" : false,
      "is_playable" : true,
      "name" : "Hyfrydol (Alleluia, Sing to Jesus)",
      "popularity" : 9,
      "preview_url" : "https://p.scdn.co/mp3-preview/8d2cd7317814a365cdfe0e56da71821116c382a0?cid=774b29d4f13844c495f206cafdad9c86",
      "track_number" : 17,
      "type" : "track",
      "uri" : "spotify:track:06d7fxM8LI7SNZZobk0Tuj"
    }, {
      "album" : {
        "album_type" : "album",
        "artists" : [ {
          "external_urls" : {
            "spotify" : "https://open.spotify.com/artist/72SWPY3YDiQr8FF1qYBnIG"
          },
          "href" : "https://api.spotify.com/v1/artists/72SWPY3YDiQr8FF1qYBnIG",
          "id" : "72SWPY3YDiQr8FF1qYBnIG",
          "name" : "The Schola Cantorum of St. Peter's in the Loop",
          "type" : "artist",
          "uri" : "spotify:artist:72SWPY3YDiQr8FF1qYBnIG"
        } ],
        "external_urls" : {
          "spotify" : "https://open.spotify.com/album/3NjEOvmNCAhKkJ78W1trfF"
        },
        "href" : "https://api.spotify.com/v1/albums/3NjEOvmNCAhKkJ78W1trfF",
        "id" : "3NjEOvmNCAhKkJ78W1trfF",
        "images" : [ {
          "height" : 640,
          "url" : "https://i.scdn.co/image/ab67616d0000b2738182b70f411e055cb22c2840",
          "width" : 640
        }, {
          "height" : 300,
          "url" : "https://i.scdn.co/image/ab67616d00001e028182b70f411e055cb22c2840",
          "width" : 300
        }, {
          "height" : 64,
          "url" : "https://i.scdn.co/image/ab67616d000048518182b70f411e055cb22c2840",
          "width" : 64
        } ],
        "name" : "Praise To The Lord! : Great Hymns of the Church",
        "release_date" : "2005",
        "release_date_precision" : "year",
        "total_tracks" : 20,
        "type" : "album",
        "uri" : "spotify:album:3NjEOvmNCAhKkJ78W1trfF"
      },
      "artists" : [ {
        "external_urls" : {
          "spotify" : "https://open.spotify.com/artist/72SWPY3YDiQr8FF1qYBnIG"
        },
        "href" : "https://api.spotify.com/v1/artists/72SWPY3YDiQr8FF1qYBnIG",
        "id" : "72SWPY3YDiQr8FF1qYBnIG",
        "name" : "The Schola Cantorum of St. Peter's in the Loop",
        "type" : "artist",
        "uri" : "spotify:artist:72SWPY3YDiQr8FF1qYBnIG"
      } ],
      "disc_number" : 1,
      "duration_ms" : 235613,
      "explicit" : false,
      "external_ids" : {
        "isrc" : "USDRY1010984"
      },
      "external_urls" : {
        "spotify" : "https://open.spotify.com/track/49sZGibQzg6exqUKtHGW3N"
      },
      "href" : "https://api.spotify.com/v1/tracks/49sZGibQzg6exqUKtHGW3N",
      "id" : "49sZGibQzg6exqUKtHGW3N",
      "is_local" : false,
      "is_playable" : true,
      "name" : "Alleluia! Sing To Jesus",
      "popularity" : 9,
      "preview_url" : "https://p.scdn.co/mp3-preview/983251d3d04cc584a89955750a3e4e5aa4482a8d?cid=774b29d4f13844c495f206cafdad9c86",
      "track_number" : 16,
      "type" : "track",
      "uri" : "spotify:track:49sZGibQzg6exqUKtHGW3N"
    }, {
      "album" : {
        "album_type" : "album",
        "artists" : [ {
          "external_urls" : {
            "spotify" : "https://open.spotify.com/artist/7rluHfxLiKAkAoMkuE1F8U"
          },
          "href" : "https://api.spotify.com/v1/artists/7rluHfxLiKAkAoMkuE1F8U",
          "id" : "7rluHfxLiKAkAoMkuE1F8U",
          "name" : "St. Michael's Singers",
          "type" : "artist",
          "uri" : "spotify:artist:7rluHfxLiKAkAoMkuE1F8U"
        } ],
        "external_urls" : {
          "spotify" : "https://open.spotify.com/album/1hpuHrd12Wvgyrx5yZVRjH"
        },
        "href" : "https://api.spotify.com/v1/albums/1hpuHrd12Wvgyrx5yZVRjH",
        "id" : "1hpuHrd12Wvgyrx5yZVRjH",
        "images" : [ {
          "height" : 640,
          "url" : "https://i.scdn.co/image/ab67616d0000b2738dc67e9f1c562dd7d3b48932",
          "width" : 640
        }, {
          "height" : 300,
          "url" : "https://i.scdn.co/image/ab67616d00001e028dc67e9f1c562dd7d3b48932",
          "width" : 300
        }, {
          "height" : 64,
          "url" : "https://i.scdn.co/image/ab67616d000048518dc67e9f1c562dd7d3b48932",
          "width" : 64
        } ],
        "name" : "Alleluia, Sing!",
        "release_date" : "2008-12-02",
        "release_date_precision" : "day",
        "total_tracks" : 12,
        "type" : "album",
        "uri" : "spotify:album:1hpuHrd12Wvgyrx5yZVRjH"
      },
      "artists" : [ {
        "external_urls" : {
          "spotify" : "https://open.spotify.com/artist/7rluHfxLiKAkAoMkuE1F8U"
        },
        "href" : "https://api.spotify.com/v1/artists/7rluHfxLiKAkAoMkuE1F8U",
        "id" : "7rluHfxLiKAkAoMkuE1F8U",
        "name" : "St. Michael's Singers",
        "type" : "artist",
        "uri" : "spotify:artist:7rluHfxLiKAkAoMkuE1F8U"
      } ],
      "disc_number" : 1,
      "duration_ms" : 257000,
      "explicit" : false,
      "external_ids" : {
        "isrc" : "GBCEU0120402"
      },
      "external_urls" : {
        "spotify" : "https://open.spotify.com/track/57blP5IzoLiSzIdl2E5OTS"
      },
      "href" : "https://api.spotify.com/v1/tracks/57blP5IzoLiSzIdl2E5OTS",
      "id" : "57blP5IzoLiSzIdl2E5OTS",
      "is_local" : false,
      "is_playable" : true,
      "name" : "Alleluia Sing to Jesus",
      "popularity" : 11,
      "preview_url" : "https://p.scdn.co/mp3-preview/8583deaa3f88704db556cf3f551d81345dd641c9?cid=774b29d4f13844c495f206cafdad9c86",
      "track_number" : 2,
      "type" : "track",
      "uri" : "spotify:track:57blP5IzoLiSzIdl2E5OTS"
    }, {
      "album" : {
        "album_type" : "album",
        "artists" : [ {
          "external_urls" : {
            "spotify" : "https://open.spotify.com/artist/4yANo5kd8UdZ90uQKj5zPP"
          },
          "href" : "https://api.spotify.com/v1/artists/4yANo5kd8UdZ90uQKj5zPP",
          "id" : "4yANo5kd8UdZ90uQKj5zPP",
          "name" : "Simon Johnson",
          "type" : "artist",
          "uri" : "spotify:artist:4yANo5kd8UdZ90uQKj5zPP"
        }, {
          "external_urls" : {
            "spotify" : "https://open.spotify.com/artist/6OLegABYqaWXx6d2SNh1Dw"
          },
          "href" : "https://api.spotify.com/v1/artists/6OLegABYqaWXx6d2SNh1Dw",
          "id" : "6OLegABYqaWXx6d2SNh1Dw",
          "name" : "Norwich Cathedral Choir",
          "type" : "artist",
          "uri" : "spotify:artist:6OLegABYqaWXx6d2SNh1Dw"
        }, {
          "external_urls" : {
            "spotify" : "https://open.spotify.com/artist/3th0fmbYOynihCppJzNJLM"
          },
          "href" : "https://api.spotify.com/v1/artists/3th0fmbYOynihCppJzNJLM",
          "id" : "3th0fmbYOynihCppJzNJLM",
          "name" : "Neil Taylor",
          "type" : "artist",
          "uri" : "spotify:artist:3th0fmbYOynihCppJzNJLM"
        } ],
        "external_urls" : {
          "spotify" : "https://open.spotify.com/album/2xCCYpQLlVvFcjaC83qc5x"
        },
        "href" : "https://api.spotify.com/v1/albums/2xCCYpQLlVvFcjaC83qc5x",
        "id" : "2xCCYpQLlVvFcjaC83qc5x",
        "images" : [ {
          "height" : 640,
          "url" : "https://i.scdn.co/image/ab67616d0000b273809b83defef8bbe0a6709a14",
          "width" : 640
        }, {
          "height" : 300,
          "url" : "https://i.scdn.co/image/ab67616d00001e02809b83defef8bbe0a6709a14",
          "width" : 300
        }, {
          "height" : 64,
          "url" : "https://i.scdn.co/image/ab67616d00004851809b83defef8bbe0a6709a14",
          "width" : 64
        } ],
        "name" : "23 Favourite Hymns",
        "release_date" : "2017-06-16",
        "release_date_precision" : "day",
        "total_tracks" : 23,
        "type" : "album",
        "uri" : "spotify:album:2xCCYpQLlVvFcjaC83qc5x"
      },
      "artists" : [ {
        "external_urls" : {
          "spotify" : "https://open.spotify.com/artist/1U7XZNjTN9HrNr4zpC4UeU"
        },
        "href" : "https://api.spotify.com/v1/artists/1U7XZNjTN9HrNr4zpC4UeU",
        "id" : "1U7XZNjTN9HrNr4zpC4UeU",
        "name" : "Rowland Hugh Prichard",
        "type" : "artist",
        "uri" : "spotify:artist:1U7XZNjTN9HrNr4zpC4UeU"
      }, {
        "external_urls" : {
          "spotify" : "https://open.spotify.com/artist/6OLegABYqaWXx6d2SNh1Dw"
        },
        "href" : "https://api.spotify.com/v1/artists/6OLegABYqaWXx6d2SNh1Dw",
        "id" : "6OLegABYqaWXx6d2SNh1Dw",
        "name" : "Norwich Cathedral Choir",
        "type" : "artist",
        "uri" : "spotify:artist:6OLegABYqaWXx6d2SNh1Dw"
      }, {
        "external_urls" : {
          "spotify" : "https://open.spotify.com/artist/4yANo5kd8UdZ90uQKj5zPP"
        },
        "href" : "https://api.spotify.com/v1/artists/4yANo5kd8UdZ90uQKj5zPP",
        "id" : "4yANo5kd8UdZ90uQKj5zPP",
        "name" : "Simon Johnson",
        "type" : "artist",
        "uri" : "spotify:artist:4yANo5kd8UdZ90uQKj5zPP"
      }, {
        "external_urls" : {
          "spotify" : "https://open.spotify.com/artist/3th0fmbYOynihCppJzNJLM"
        },
        "href" : "https://api.spotify.com/v1/artists/3th0fmbYOynihCppJzNJLM",
        "id" : "3th0fmbYOynihCppJzNJLM",
        "name" : "Neil Taylor",
        "type" : "artist",
        "uri" : "spotify:artist:3th0fmbYOynihCppJzNJLM"
      } ],
      "disc_number" : 1,
      "duration_ms" : 296493,
      "explicit" : false,
      "external_ids" : {
        "isrc" : "GBXUX0701814"
      },
      "external_urls" : {
        "spotify" : "https://open.spotify.com/track/5Mb6zH2LiJ6XZpBEzW1DSM"
      },
      "href" : "https://api.spotify.com/v1/tracks/5Mb6zH2LiJ6XZpBEzW1DSM",
      "id" : "5Mb6zH2LiJ6XZpBEzW1DSM",
      "is_local" : false,
      "is_playable" : true,
      "name" : "Alleluia! Sing to Jesus!",
      "popularity" : 12,
      "preview_url" : "https://p.scdn.co/mp3-preview/f67e20b3b08719f4abcb04ecc5153d9ccfd8ee90?cid=774b29d4f13844c495f206cafdad9c86",
      "track_number" : 14,
      "type" : "track",
      "uri" : "spotify:track:5Mb6zH2LiJ6XZpBEzW1DSM"
    }, {
      "album" : {
        "album_type" : "album",
        "artists" : [ {
          "external_urls" : {
            "spotify" : "https://open.spotify.com/artist/4k5gaSPRZvEwn4eTxuevAX"
          },
          "href" : "https://api.spotify.com/v1/artists/4k5gaSPRZvEwn4eTxuevAX",
          "id" : "4k5gaSPRZvEwn4eTxuevAX",
          "name" : "Jon Sarta",
          "type" : "artist",
          "uri" : "spotify:artist:4k5gaSPRZvEwn4eTxuevAX"
        } ],
        "external_urls" : {
          "spotify" : "https://open.spotify.com/album/2LdTF9ooK8Y4yuy03gqplJ"
        },
        "href" : "https://api.spotify.com/v1/albums/2LdTF9ooK8Y4yuy03gqplJ",
        "id" : "2LdTF9ooK8Y4yuy03gqplJ",
        "images" : [ {
          "height" : 640,
          "url" : "https://i.scdn.co/image/ab67616d0000b273d2a823b3487c852700b477e8",
          "width" : 640
        }, {
          "height" : 300,
          "url" : "https://i.scdn.co/image/ab67616d00001e02d2a823b3487c852700b477e8",
          "width" : 300
        }, {
          "height" : 64,
          "url" : "https://i.scdn.co/image/ab67616d00004851d2a823b3487c852700b477e8",
          "width" : 64
        } ],
        "name" : "The Catholic Music Project Volume II",
        "release_date" : "2005-10-29",
        "release_date_precision" : "day",
        "total_tracks" : 16,
        "type" : "album",
        "uri" : "spotify:album:2LdTF9ooK8Y4yuy03gqplJ"
      },
      "artists" : [ {
        "external_urls" : {
          "spotify" : "https://open.spotify.com/artist/4k5gaSPRZvEwn4eTxuevAX"
        },
        "href" : "https://api.spotify.com/v1/artists/4k5gaSPRZvEwn4eTxuevAX",
        "id" : "4k5gaSPRZvEwn4eTxuevAX",
        "name" : "Jon Sarta",
        "type" : "artist",
        "uri" : "spotify:artist:4k5gaSPRZvEwn4eTxuevAX"
      } ],
      "disc_number" : 1,
      "duration_ms" : 178560,
      "explicit" : false,
      "external_ids" : {
        "isrc" : "uscgh0550017"
      },
      "external_urls" : {
        "spotify" : "https://open.spotify.com/track/3z34HcgWD2qPCofeRmVStK"
      },
      "href" : "https://api.spotify.com/v1/tracks/3z34HcgWD2qPCofeRmVStK",
      "id" : "3z34HcgWD2qPCofeRmVStK",
      "is_local" : false,
      "is_playable" : true,
      "name" : "Alleluia, Sing To Jesus",
      "popularity" : 8,
      "preview_url" : "https://p.scdn.co/mp3-preview/36993de8fe3aefec6dfcc06beab438ea5be4b338?cid=774b29d4f13844c495f206cafdad9c86",
      "track_number" : 4,
      "type" : "track",
      "uri" : "spotify:track:3z34HcgWD2qPCofeRmVStK"
    }, {
      "album" : {
        "album_type" : "album",
        "artists" : [ {
          "external_urls" : {
            "spotify" : "https://open.spotify.com/artist/0cylxW7HGdK9xMdubw2oYW"
          },
          "href" : "https://api.spotify.com/v1/artists/0cylxW7HGdK9xMdubw2oYW",
          "id" : "0cylxW7HGdK9xMdubw2oYW",
          "name" : "The O'Neill Brothers Group",
          "type" : "artist",
          "uri" : "spotify:artist:0cylxW7HGdK9xMdubw2oYW"
        }, {
          "external_urls" : {
            "spotify" : "https://open.spotify.com/artist/1fO0DHOhFIvuPtObA3LtHR"
          },
          "href" : "https://api.spotify.com/v1/artists/1fO0DHOhFIvuPtObA3LtHR",
          "id" : "1fO0DHOhFIvuPtObA3LtHR",
          "name" : "Christian Hymns",
          "type" : "artist",
          "uri" : "spotify:artist:1fO0DHOhFIvuPtObA3LtHR"
        } ],
        "external_urls" : {
          "spotify" : "https://open.spotify.com/album/37fAD49mBJLxdBa15uUv01"
        },
        "href" : "https://api.spotify.com/v1/albums/37fAD49mBJLxdBa15uUv01",
        "id" : "37fAD49mBJLxdBa15uUv01",
        "images" : [ {
          "height" : 640,
          "url" : "https://i.scdn.co/image/ab67616d0000b273abf01c3d98a5ffc4ffea5ba7",
          "width" : 640
        }, {
          "height" : 300,
          "url" : "https://i.scdn.co/image/ab67616d00001e02abf01c3d98a5ffc4ffea5ba7",
          "width" : 300
        }, {
          "height" : 64,
          "url" : "https://i.scdn.co/image/ab67616d00004851abf01c3d98a5ffc4ffea5ba7",
          "width" : 64
        } ],
        "name" : "Christian Meditation on Acoustic Guitar",
        "release_date" : "2020-03-16",
        "release_date_precision" : "day",
        "total_tracks" : 15,
        "type" : "album",
        "uri" : "spotify:album:37fAD49mBJLxdBa15uUv01"
      },
      "artists" : [ {
        "external_urls" : {
          "spotify" : "https://open.spotify.com/artist/0cylxW7HGdK9xMdubw2oYW"
        },
        "href" : "https://api.spotify.com/v1/artists/0cylxW7HGdK9xMdubw2oYW",
        "id" : "0cylxW7HGdK9xMdubw2oYW",
        "name" : "The O'Neill Brothers Group",
        "type" : "artist",
        "uri" : "spotify:artist:0cylxW7HGdK9xMdubw2oYW"
      }, {
        "external_urls" : {
          "spotify" : "https://open.spotify.com/artist/1fO0DHOhFIvuPtObA3LtHR"
        },
        "href" : "https://api.spotify.com/v1/artists/1fO0DHOhFIvuPtObA3LtHR",
        "id" : "1fO0DHOhFIvuPtObA3LtHR",
        "name" : "Christian Hymns",
        "type" : "artist",
        "uri" : "spotify:artist:1fO0DHOhFIvuPtObA3LtHR"
      } ],
      "disc_number" : 1,
      "duration_ms" : 359866,
      "explicit" : false,
      "external_ids" : {
        "isrc" : "TCAER2003965"
      },
      "external_urls" : {
        "spotify" : "https://open.spotify.com/track/4wfdBxdVTrJo22l8S2e682"
      },
      "href" : "https://api.spotify.com/v1/tracks/4wfdBxdVTrJo22l8S2e682",
      "id" : "4wfdBxdVTrJo22l8S2e682",
      "is_local" : false,
      "is_playable" : true,
      "name" : "Redemption (Alleluia! Sing to Jesus) [Instrumental Version]",
      "popularity" : 11,
      "preview_url" : "https://p.scdn.co/mp3-preview/1b23a94619c234e1935e8c6e5c73b21e573662aa?cid=774b29d4f13844c495f206cafdad9c86",
      "track_number" : 12,
      "type" : "track",
      "uri" : "spotify:track:4wfdBxdVTrJo22l8S2e682"
    }, {
      "album" : {
        "album_type" : "compilation",
        "artists" : [ {
          "external_urls" : {
            "spotify" : "https://open.spotify.com/artist/0LyfQWJT6nXafLPZqxe9Of"
          },
          "href" : "https://api.spotify.com/v1/artists/0LyfQWJT6nXafLPZqxe9Of",
          "id" : "0LyfQWJT6nXafLPZqxe9Of",
          "name" : "Various Artists",
          "type" : "artist",
          "uri" : "spotify:artist:0LyfQWJT6nXafLPZqxe9Of"
        } ],
        "external_urls" : {
          "spotify" : "https://open.spotify.com/album/7jbCBSDTVL7n32VamKnxT7"
        },
        "href" : "https://api.spotify.com/v1/albums/7jbCBSDTVL7n32VamKnxT7",
        "id" : "7jbCBSDTVL7n32VamKnxT7",
        "images" : [ {
          "height" : 640,
          "url" : "https://i.scdn.co/image/ab67616d0000b273e822abfb5ec1c351381fe89b",
          "width" : 640
        }, {
          "height" : 300,
          "url" : "https://i.scdn.co/image/ab67616d00001e02e822abfb5ec1c351381fe89b",
          "width" : 300
        }, {
          "height" : 64,
          "url" : "https://i.scdn.co/image/ab67616d00004851e822abfb5ec1c351381fe89b",
          "width" : 64
        } ],
        "name" : "Journeysongs Third Edition: Volume 14",
        "release_date" : "2012-05-01",
        "release_date_precision" : "day",
        "total_tracks" : 31,
        "type" : "album",
        "uri" : "spotify:album:7jbCBSDTVL7n32VamKnxT7"
      },
      "artists" : [ {
        "external_urls" : {
          "spotify" : "https://open.spotify.com/artist/4KFTWoCcR5qsYzeoN9J6AU"
        },
        "href" : "https://api.spotify.com/v1/artists/4KFTWoCcR5qsYzeoN9J6AU",
        "id" : "4KFTWoCcR5qsYzeoN9J6AU",
        "name" : "Rowland H. Pritchard",
        "type" : "artist",
        "uri" : "spotify:artist:4KFTWoCcR5qsYzeoN9J6AU"
      }, {
        "external_urls" : {
          "spotify" : "https://open.spotify.com/artist/39flwQYQv8Gl6M38m3TgDC"
        },
        "href" : "https://api.spotify.com/v1/artists/39flwQYQv8Gl6M38m3TgDC",
        "id" : "39flwQYQv8Gl6M38m3TgDC",
        "name" : "William C. Dix",
        "type" : "artist",
        "uri" : "spotify:artist:39flwQYQv8Gl6M38m3TgDC"
      }, {
        "external_urls" : {
          "spotify" : "https://open.spotify.com/artist/4b2dgNvisag0MOigK9wiw5"
        },
        "href" : "https://api.spotify.com/v1/artists/4b2dgNvisag0MOigK9wiw5",
        "id" : "4b2dgNvisag0MOigK9wiw5",
        "name" : "Robert E. Kreutz",
        "type" : "artist",
        "uri" : "spotify:artist:4b2dgNvisag0MOigK9wiw5"
      }, {
        "external_urls" : {
          "spotify" : "https://open.spotify.com/artist/7lv2GyLOrGHZLA7zaeZoZv"
        },
        "href" : "https://api.spotify.com/v1/artists/7lv2GyLOrGHZLA7zaeZoZv",
        "id" : "7lv2GyLOrGHZLA7zaeZoZv",
        "name" : "Randall DeBruyn",
        "type" : "artist",
        "uri" : "spotify:artist:7lv2GyLOrGHZLA7zaeZoZv"
      } ],
      "disc_number" : 1,
      "duration_ms" : 142080,
      "explicit" : false,
      "external_ids" : {
        "isrc" : "USA4N1301480"
      },
      "external_urls" : {
        "spotify" : "https://open.spotify.com/track/1gPMFCnAg7W3BCisyjYnLl"
      },
      "href" : "https://api.spotify.com/v1/tracks/1gPMFCnAg7W3BCisyjYnLl",
      "id" : "1gPMFCnAg7W3BCisyjYnLl",
      "is_local" : false,
      "is_playable" : true,
      "name" : "Alleluia! Sing to Jesus",
      "popularity" : 6,
      "preview_url" : "https://p.scdn.co/mp3-preview/95fe0aa4cec7885aa3eb410b8184fbee63d7cd5c?cid=774b29d4f13844c495f206cafdad9c86",
      "track_number" : 20,
      "type" : "track",
      "uri" : "spotify:track:1gPMFCnAg7W3BCisyjYnLl"
    }, {
      "album" : {
        "album_type" : "album",
        "artists" : [ {
          "external_urls" : {
            "spotify" : "https://open.spotify.com/artist/5aHE1EAT1F5E1kdvWCqObF"
          },
          "href" : "https://api.spotify.com/v1/artists/5aHE1EAT1F5E1kdvWCqObF",
          "id" : "5aHE1EAT1F5E1kdvWCqObF",
          "name" : "Steven Anderson",
          "type" : "artist",
          "uri" : "spotify:artist:5aHE1EAT1F5E1kdvWCqObF"
        } ],
        "external_urls" : {
          "spotify" : "https://open.spotify.com/album/10FM5L0AUvY6RhV3yFMLrU"
        },
        "href" : "https://api.spotify.com/v1/albums/10FM5L0AUvY6RhV3yFMLrU",
        "id" : "10FM5L0AUvY6RhV3yFMLrU",
        "images" : [ {
          "height" : 640,
          "url" : "https://i.scdn.co/image/ab67616d0000b273cb9034ace3fab7cadbe8cc0d",
          "width" : 640
        }, {
          "height" : 300,
          "url" : "https://i.scdn.co/image/ab67616d00001e02cb9034ace3fab7cadbe8cc0d",
          "width" : 300
        }, {
          "height" : 64,
          "url" : "https://i.scdn.co/image/ab67616d00004851cb9034ace3fab7cadbe8cc0d",
          "width" : 64
        } ],
        "name" : "40 Inspirational Piano Hymns",
        "release_date" : "2016-04-22",
        "release_date_precision" : "day",
        "total_tracks" : 40,
        "type" : "album",
        "uri" : "spotify:album:10FM5L0AUvY6RhV3yFMLrU"
      },
      "artists" : [ {
        "external_urls" : {
          "spotify" : "https://open.spotify.com/artist/5aHE1EAT1F5E1kdvWCqObF"
        },
        "href" : "https://api.spotify.com/v1/artists/5aHE1EAT1F5E1kdvWCqObF",
        "id" : "5aHE1EAT1F5E1kdvWCqObF",
        "name" : "Steven Anderson",
        "type" : "artist",
        "uri" : "spotify:artist:5aHE1EAT1F5E1kdvWCqObF"
      } ],
      "disc_number" : 1,
      "duration_ms" : 114680,
      "explicit" : false,
      "external_ids" : {
        "isrc" : "CAM460603318"
      },
      "external_urls" : {
        "spotify" : "https://open.spotify.com/track/7dED8sGbkAKmxlUDTPVW9l"
      },
      "href" : "https://api.spotify.com/v1/tracks/7dED8sGbkAKmxlUDTPVW9l",
      "id" : "7dED8sGbkAKmxlUDTPVW9l",
      "is_local" : false,
      "is_playable" : true,
      "name" : "Alleluia Sing to Jesus",
      "popularity" : 7,
      "preview_url" : "https://p.scdn.co/mp3-preview/530b4d0a75530126c9acfcc869447c46d8051be8?cid=774b29d4f13844c495f206cafdad9c86",
      "track_number" : 27,
      "type" : "track",
      "uri" : "spotify:track:7dED8sGbkAKmxlUDTPVW9l"
    }, {
      "album" : {
        "album_type" : "album",
        "artists" : [ {
          "external_urls" : {
            "spotify" : "https://open.spotify.com/artist/0QFh56task141SLyLmeAIm"
          },
          "href" : "https://api.spotify.com/v1/artists/0QFh56task141SLyLmeAIm",
          "id" : "0QFh56task141SLyLmeAIm",
          "name" : "Steven C Music",
          "type" : "artist",
          "uri" : "spotify:artist:0QFh56task141SLyLmeAIm"
        } ],
        "external_urls" : {
          "spotify" : "https://open.spotify.com/album/1AufXiCGAsUL3bskTCaIVt"
        },
        "href" : "https://api.spotify.com/v1/albums/1AufXiCGAsUL3bskTCaIVt",
        "id" : "1AufXiCGAsUL3bskTCaIVt",
        "images" : [ {
          "height" : 640,
          "url" : "https://i.scdn.co/image/ab67616d0000b2734e9e07d8f3f6a298a7dbb73a",
          "width" : 640
        }, {
          "height" : 300,
          "url" : "https://i.scdn.co/image/ab67616d00001e024e9e07d8f3f6a298a7dbb73a",
          "width" : 300
        }, {
          "height" : 64,
          "url" : "https://i.scdn.co/image/ab67616d000048514e9e07d8f3f6a298a7dbb73a",
          "width" : 64
        } ],
        "name" : "100 Church Classics For Kids",
        "release_date" : "2003",
        "release_date_precision" : "year",
        "total_tracks" : 100,
        "type" : "album",
        "uri" : "spotify:album:1AufXiCGAsUL3bskTCaIVt"
      },
      "artists" : [ {
        "external_urls" : {
          "spotify" : "https://open.spotify.com/artist/0QFh56task141SLyLmeAIm"
        },
        "href" : "https://api.spotify.com/v1/artists/0QFh56task141SLyLmeAIm",
        "id" : "0QFh56task141SLyLmeAIm",
        "name" : "Steven C Music",
        "type" : "artist",
        "uri" : "spotify:artist:0QFh56task141SLyLmeAIm"
      } ],
      "disc_number" : 1,
      "duration_ms" : 139853,
      "explicit" : false,
      "external_ids" : {
        "isrc" : "CAM460701483"
      },
      "external_urls" : {
        "spotify" : "https://open.spotify.com/track/2PuMj57liOzSSBsEwp454Q"
      },
      "href" : "https://api.spotify.com/v1/tracks/2PuMj57liOzSSBsEwp454Q",
      "id" : "2PuMj57liOzSSBsEwp454Q",
      "is_local" : false,
      "is_playable" : true,
      "name" : "Alleluia, Sing To Jesus",
      "popularity" : 8,
      "preview_url" : "https://p.scdn.co/mp3-preview/c424555db3db1efee76c1a60ddd49839a4943e40?cid=774b29d4f13844c495f206cafdad9c86",
      "track_number" : 2,
      "type" : "track",
      "uri" : "spotify:track:2PuMj57liOzSSBsEwp454Q"
    } ],
    "limit" : 10,
    "next" : "https://api.spotify.com/v1/search?query=Alleluia%21+Sing+to+Jesus%21&type=track&market=US&offset=15&limit=10",
    "offset" : 5,
    "previous" : "https://api.spotify.com/v1/search?query=Alleluia%21+Sing+to+Jesus%21&type=track&market=US&offset=0&limit=10",
    "total" : 136
  }
}