{
  "tracks" : {
    "href" : "https://api.spotify.com/v1/search?query=O+Jesus+Christ%2C+to+You&type=track&market=US&offset=5&limit=10",
    "items" : [ {
      "album" : {
        "album_type" : "compilation",
        "artists" : [ {
          "external_urls" : {
            "spotify" : "https://open.spotify.com/artist/0LyfQWJT6nXafLPZqxe9Of"
          },
          "href" : "https://api.spotify.com/v1/artists/0LyfQWJT6nXafLPZqxe9Of",
          "id" : "0LyfQWJT6nXafLPZqxe9Of",
          "name" : "Various Artists",
          "type" : "artist",
          "uri" : "spotify:artist:0LyfQWJT6nXafLPZqxe9Of"
        } ],
        "external_urls" : {
          "spotify" : "https://open.spotify.com/album/4ZvNCN9WjMYUvQhoGSNMBm"
        },
        "href" : "https://api.spotify.com/v1/albums/4ZvNCN9WjMYUvQhoGSNMBm",
        "id" : "4ZvNCN9WjMYUvQhoGSNMBm",
        "images" : [ {
          "height" : 640,
          "url" : "https://i.scdn.co/image/ab67616d0000b27305eb74bce833f578eec675eb",
          "width" : 640
        }, {
          "height" : 300,
          "url" : "https://i.scdn.co/image/ab67616d00001e0205eb74bce833f578eec675eb",
          "width" : 300
        }, {
          "height" : 64,
          "url" : "https://i.scdn.co/image/ab67616d0000485105eb74bce833f578eec675eb",
          "width" : 64
        } ],
        "name" : "Flor y Canto Tercera Edición: Disco 2",
        "release_date" : "2011",
        "release_date_precision" : "year",
        "total_tracks" : 52,
        "type" : "album",
        "uri" : "spotify:album:4ZvNCN9WjMYUvQhoGSNMBm"
      },
      "artists" : [ {
        "external_urls" : {
          "spotify" : "https://open.spotify.com/artist/2HATQwtxr8KvTnN5t1D8rf"
        },
        "href" : "https://api.spotify.com/v1/artists/2HATQwtxr8KvTnN5t1D8rf",
        "id" : "2HATQwtxr8KvTnN5t1D8rf",
        "name" : "Mauricio Centeno",
        "type" : "artist",
        "uri" : "spotify:artist:2HATQwtxr8KvTnN5t1D8rf"
      }, {
        "external_urls" : {
          "spotify" : "https://open.spotify.com/artist/0ZrFTYQ5XMl5fMb6RK3Pqi"
        },
        "href" : "https://api.spotify.com/v1/artists/0ZrFTYQ5XMl5fMb6RK3Pqi",
        "id" : "0ZrFTYQ5XMl5fMb6RK3Pqi",
        "name" : "José Córdova",
        "type" : "artist",
        "uri" : "spotify:artist:0ZrFTYQ5XMl5fMb6RK3Pqi"
      } ],
      "disc_number" : 1,
      "duration_ms" : 142786,
      "explicit" : false,
      "external_ids" : {
        "isrc" : "USA4N1200696"
      },
      "external_urls" : {
        "spotify" : "https://open.spotify.com/track/6mtmx95h4sTfm6JZqJVlha"
      },
      "href" : "https://api.spotify.com/v1/tracks/6mtmx95h4sTfm6JZqJVlha",
      "id" : "6mtmx95h4sTfm6JZqJVlha",
      "is_local" : false,
      "is_playable" : true,
      "name" : "Alabanza a Ti, Oh Cristo/Praise To You, Lord Jesus Christ",
      "popularity" : 2,
      "preview_url" : "https://p.scdn.co/mp3-preview/98ba7c662e203b858303a4d42944d6fd514d06bf?cid=774b29d4f13844c495f206cafdad9c86",
      "track_number" : 34,
      "type" : "track",
      "uri" : "spotify:track:6mtmx95h4sTfm6JZqJVlha"
    }, {
      "album" : {
        "album_type" : "album",
        "artists" : [ {
          "external_urls" : {
            "spotify" : "https://open.spotify.com/artist/4CjW3q7f4bZdIOQJ1Pb9P9"
          },
          "href" : "https://api.spotify.com/v1/artists/4CjW3q7f4bZdIOQJ1Pb9P9",
          "id" : "4CjW3q7f4bZdIOQJ1Pb9P9",
          "name" : "Sherrell Mitchell",
          "type" : "artist",
          "uri" : "spotify:artist:4CjW3q7f4bZdIOQJ1Pb9P9"
        } ],
        "external_urls" : {
          "spotify" : "https://open.spotify.com/album/3sXqZPpDqsX4q1pe3ROVaY"
        },
        "href" : "https://api.spotify.com/v1/albums/3sXqZPpDqsX4q1pe3ROVaY",
        "id" : "3sXqZPpDqsX4q1pe3ROVaY",
        "images" : [ {
          "height" : 640,
          "url" : "https://i.scdn.co/image/ab67616d0000b27308d55c7711ed137a9d013056",
          "width" : 640
        }, {
          "height" : 300,
          "url" : "https://i.scdn.co/image/ab67616d00001e0208d55c7711ed137a9d013056",
          "width" : 300
        }, {
          "height" : 64,
          "url" : "https://i.scdn.co/image/ab67616d0000485108d55c7711ed137a9d013056",
          "width" : 64
        } ],
        "name" : "The Mass of New Vision",
        "release_date" : "2016-01-19",
        "release_date_precision" : "day",
        "total_tracks" : 11,
        "type" : "album",
        "uri" : "spotify:album:3sXqZPpDqsX4q1pe3ROVaY"
      },
      "artists" : [ {
        "external_urls" : {
          "spotify" : "https://open.spotify.com/artist/4CjW3q7f4bZdIOQJ1Pb9P9"
        },
        "href" : "https://api.spotify.com/v1/artists/4CjW3q7f4bZdIOQJ1Pb9P9",
        "id" : "4CjW3q7f4bZdIOQJ1Pb9P9",
        "name" : "Sherrell Mitchell",
        "type" : "artist",
        "uri" : "spotify:artist:4CjW3q7f4bZdIOQJ1Pb9P9"
      }, {
        "external_urls" : {
          "spotify" : "https://open.spotify.com/artist/5kddiuE7Ht2nLXYfXJlM5L"
        },
        "href" : "https://api.spotify.com/v1/artists/5kddiuE7Ht2nLXYfXJlM5L",
        "id" : "5kddiuE7Ht2nLXYfXJlM5L",
        "name" : "The Gospel Truth Choir",
        "type" : "artist",
        "uri" : "spotify:artist:5kddiuE7Ht2nLXYfXJlM5L"
      } ],
      "disc_number" : 1,
      "duration_ms" : 114257,
      "explicit" : false,
      "external_ids" : {
        "isrc" : "QZKWA2001828"
      },
      "external_urls" : {
        "spotify" : "https://open.spotify.com/track/04mqSew3RadxZSJMcy8IkJ"
      },
      "href" : "https://api.spotify.com/v1/tracks/04mqSew3RadxZSJMcy8IkJ",
      "id" : "04mqSew3RadxZSJMcy8IkJ",
      "is_local" : false,
      "is_playable" : true,
      "name" : "Praise to You Lord Jesus Christ",
      "popularity" : 0,
      "preview_url" : "https://p.scdn.co/mp3-preview/dd1b31246437e4c7bb1e89ca12e1942f343cff65?cid=774b29d4f13844c495f206cafdad9c86",
      "track_number" : 4,
      "type" : "track",
      "uri" : "spotify:track:04mqSew3RadxZSJMcy8IkJ"
    }, {
      "album" : {
        "album_type" : "album",
        "artists" : [ {
          "external_urls" : {
            "spotify" : "https://open.spotify.com/artist/5RtTfMMKT06x7vXGN8hWsZ"
          },
          "href" : "https://api.spotify.com/v1/artists/5RtTfMMKT06x7vXGN8hWsZ",
          "id" : "5RtTfMMKT06x7vXGN8hWsZ",
          "name" : "Kilyawan Consortium of Voices",
          "type" : "artist",
          "uri" : "spotify:artist:5RtTfMMKT06x7vXGN8hWsZ"
        }, {
          "external_urls" : {
            "spotify" : "https://open.spotify.com/artist/6g9gWlknl4aWt24FE75ZEz"
          },
          "href" : "https://api.spotify.com/v1/artists/6g9gWlknl4aWt24FE75ZEz",
          "id" : "6g9gWlknl4aWt24FE75ZEz",
          "name" : "PraySing Ministry Chorale",
          "type" : "artist",
          "uri" : "spotify:artist:6g9gWlknl4aWt24FE75ZEz"
        }, {
          "external_urls" : {
            "spotify" : "https://open.spotify.com/artist/3IHxehttsiwPM4afvMv9JK"
          },
          "href" : "https://api.spotify.com/v1/artists/3IHxehttsiwPM4afvMv9JK",
          "id" : "3IHxehttsiwPM4afvMv9JK",
          "name" : "Alejandro D. Consolacion II",
          "type" : "artist",
          "uri" : "spotify:artist:3IHxehttsiwPM4afvMv9JK"
        } ],
        "external_urls" : {
          "spotify" : "https://open.spotify.com/album/4IpoDcqPs1lp2t39ajVN1s"
        },
        "href" : "https://api.spotify.com/v1/albums/4IpoDcqPs1lp2t39ajVN1s",
        "id" : "4IpoDcqPs1lp2t39ajVN1s",
        "images" : [ {
          "height" : 640,
          "url" : "https://i.scdn.co/image/ab67616d0000b273823932832c1528c069db99ab",
          "width" : 640
        }, {
          "height" : 300,
          "url" : "https://i.scdn.co/image/ab67616d00001e02823932832c1528c069db99ab",
          "width" : 300
        }, {
          "height" : 64,
          "url" : "https://i.scdn.co/image/ab67616d00004851823932832c1528c069db99ab",
          "width" : 64
        } ],
        "name" : "Gaudium Mass (Songs for the New English Translation of the Roman Missal)",
        "release_date" : "2012-11-17",
        "release_date_precision" : "day",
        "total_tracks" : 29,
        "type" : "album",
        "uri" : "spotify:album:4IpoDcqPs1lp2t39ajVN1s"
      },
      "artists" : [ {
        "external_urls" : {
          "spotify" : "https://open.spotify.com/artist/6g9gWlknl4aWt24FE75ZEz"
        },
        "href" : "https://api.spotify.com/v1/artists/6g9gWlknl4aWt24FE75ZEz",
        "id" : "6g9gWlknl4aWt24FE75ZEz",
        "name" : "PraySing Ministry Chorale",
        "type" : "artist",
        "uri" : "spotify:artist:6g9gWlknl4aWt24FE75ZEz"
      }, {
        "external_urls" : {
          "spotify" : "https://open.spotify.com/artist/3IHxehttsiwPM4afvMv9JK"
        },
        "href" : "https://api.spotify.com/v1/artists/3IHxehttsiwPM4afvMv9JK",
        "id" : "3IHxehttsiwPM4afvMv9JK",
        "name" : "Alejandro D. Consolacion II",
        "type" : "artist",
        "uri" : "spotify:artist:3IHxehttsiwPM4afvMv9JK"
      }, {
        "external_urls" : {
          "spotify" : "https://open.spotify.com/artist/0jBoQ9BvgSVD6s5E3l2yNr"
        },
        "href" : "https://api.spotify.com/v1/artists/0jBoQ9BvgSVD6s5E3l2yNr",
        "id" : "0jBoQ9BvgSVD6s5E3l2yNr",
        "name" : "Ericka Jane Nera",
        "type" : "artist",
        "uri" : "spotify:artist:0jBoQ9BvgSVD6s5E3l2yNr"
      } ],
      "disc_number" : 1,
      "duration_ms" : 75893,
      "explicit" : false,
      "external_ids" : {
        "isrc" : "FR2X41524241"
      },
      "external_urls" : {
        "spotify" : "https://open.spotify.com/track/0AWybd6nDP1f2xxfAVyOdy"
      },
      "href" : "https://api.spotify.com/v1/tracks/0AWybd6nDP1f2xxfAVyOdy",
      "id" : "0AWybd6nDP1f2xxfAVyOdy",
      "is_local" : false,
      "is_playable" : true,
      "name" : "Praise to You, Lord Jesus Christ",
      "popularity" : 1,
      "preview_url" : "https://p.scdn.co/mp3-preview/d00042fe9721d05e087fd83cb46fcc79fe418d7c?cid=774b29d4f13844c495f206cafdad9c86",
      "track_number" : 26,
      "type" : "track",
      "uri" : "spotify:track:0AWybd6nDP1f2xxfAVyOdy"
    }, {
      "album" : {
        "album_type" : "album",
        "artists" : [ {
          "external_urls" : {
            "spotify" : "https://open.spotify.com/artist/34LlBV6HVxxRzF0JT68s8E"
          },
          "href" : "https://api.spotify.com/v1/artists/34LlBV6HVxxRzF0JT68s8E",
          "id" : "34LlBV6HVxxRzF0JT68s8E",
          "name" : "The Christian Crooner",
          "type" : "artist",
          "uri" : "spotify:artist:34LlBV6HVxxRzF0JT68s8E"
        } ],
        "external_urls" : {
          "spotify" : "https://open.spotify.com/album/6v88wtFs2ZfHoh80D49XPg"
        },
        "href" : "https://api.spotify.com/v1/albums/6v88wtFs2ZfHoh80D49XPg",
        "id" : "6v88wtFs2ZfHoh80D49XPg",
        "images" : [ {
          "height" : 640,
          "url" : "https://i.scdn.co/image/ab67616d0000b273ea2204998904415a8e5a06b5",
          "width" : 640
        }, {
          "height" : 300,
          "url" : "https://i.scdn.co/image/ab67616d00001e02ea2204998904415a8e5a06b5",
          "width" : 300
        }, {
          "height" : 64,
          "url" : "https://i.scdn.co/image/ab67616d00004851ea2204998904415a8e5a06b5",
          "width" : 64
        } ],
        "name" : "The Christian Crooner Sings His Original Songs, Vol. 1",
        "release_date" : "2013-08-24",
        "release_date_precision" : "day",
        "total_tracks" : 15,
        "type" : "album",
        "uri" : "spotify:album:6v88wtFs2ZfHoh80D49XPg"
      },
      "artists" : [ {
        "external_urls" : {
          "spotify" : "https://open.spotify.com/artist/34LlBV6HVxxRzF0JT68s8E"
        },
        "href" : "https://api.spotify.com/v1/artists/34LlBV6HVxxRzF0JT68s8E",
        "id" : "34LlBV6HVxxRzF0JT68s8E",
        "name" : "The Christian Crooner",
        "type" : "artist",
        "uri" : "spotify:artist:34LlBV6HVxxRzF0JT68s8E"
      } ],
      "disc_number" : 1,
      "duration_ms" : 184482,
      "explicit" : false,
      "external_ids" : {
        "isrc" : "ushm81359727"
      },
      "external_urls" : {
        "spotify" : "https://open.spotify.com/track/482jUyiSr2141Jiw1wStsq"
      },
      "href" : "https://api.spotify.com/v1/tracks/482jUyiSr2141Jiw1wStsq",
      "id" : "482jUyiSr2141Jiw1wStsq",
      "is_local" : false,
      "is_playable" : true,
      "name" : "What Will You Give to Jesus? (Christmas)",
      "popularity" : 0,
      "preview_url" : "https://p.scdn.co/mp3-preview/1b11561db051a0ba3240a92391c916991d371369?cid=774b29d4f13844c495f206cafdad9c86",
      "track_number" : 15,
      "type" : "track",
      "uri" : "spotify:track:482jUyiSr2141Jiw1wStsq"
    }, {
      "album" : {
        "album_type" : "album",
        "artists" : [ {
          "external_urls" : {
            "spotify" : "https://open.spotify.com/artist/2LzLmLOfTG4uS1Cgt6dcD3"
          },
          "href" : "https://api.spotify.com/v1/artists/2LzLmLOfTG4uS1Cgt6dcD3",
          "id" : "2LzLmLOfTG4uS1Cgt6dcD3",
          "name" : "Darko the Super",
          "type" : "artist",
          "uri" : "spotify:artist:2LzLmLOfTG4uS1Cgt6dcD3"
        } ],
        "external_urls" : {
          "spotify" : "https://open.spotify.com/album/6F6zpOmcfKRSfFVaYUWcSJ"
        },
        "href" : "https://api.spotify.com/v1/albums/6F6zpOmcfKRSfFVaYUWcSJ",
        "id" : "6F6zpOmcfKRSfFVaYUWcSJ",
        "images" : [ {
          "height" : 640,
          "url" : "https://i.scdn.co/image/ab67616d0000b273a7aba386479a14906a4cb36a",
          "width" : 640
        }, {
          "height" : 300,
          "url" : "https://i.scdn.co/image/ab67616d00001e02a7aba386479a14906a4cb36a",
          "width" : 300
        }, {
          "height" : 64,
          "url" : "https://i.scdn.co/image/ab67616d00004851a7aba386479a14906a4cb36a",
          "width" : 64
        } ],
        "name" : "Thank You Based God",
        "release_date" : "2018-07-16",
        "release_date_precision" : "day",
        "total_tracks" : 11,
        "type" : "album",
        "uri" : "spotify:album:6F6zpOmcfKRSfFVaYUWcSJ"
      },
      "artists" : [ {
        "external_urls" : {
          "spotify" : "https://open.spotify.com/artist/2LzLmLOfTG4uS1Cgt6dcD3"
        },
        "href" : "https://api.spotify.com/v1/artists/2LzLmLOfTG4uS1Cgt6dcD3",
        "id" : "2LzLmLOfTG4uS1Cgt6dcD3",
        "name" : "Darko the Super",
        "type" : "artist",
        "uri" : "spotify:artist:2LzLmLOfTG4uS1Cgt6dcD3"
      }, {
        "external_urls" : {
          "spotify" : "https://open.spotify.com/artist/7G9ZUoEjbi5Z2bR5w60S0h"
        },
        "href" : "https://api.spotify.com/v1/artists/7G9ZUoEjbi5Z2bR5w60S0h",
        "id" : "7G9ZUoEjbi5Z2bR5w60S0h",
        "name" : "Moka Only",
        "type" : "artist",
        "uri" : "spotify:artist:7G9ZUoEjbi5Z2bR5w60S0h"
      } ],
      "disc_number" : 1,
      "duration_ms" : 130324,
      "explicit" : true,
      "external_ids" : {
        "isrc" : "NLS6R1855704"
      },
      "external_urls" : {
        "spotify" : "https://open.spotify.com/track/1I2EuUtKBCpTNEKtWAoZ2P"
      },
      "href" : "https://api.spotify.com/v1/tracks/1I2EuUtKBCpTNEKtWAoZ2P",
      "id" : "1I2EuUtKBCpTNEKtWAoZ2P",
      "is_local" : false,
      "is_playable" : true,
      "name" : "Jesus Christ Wants to Be Based",
      "popularity" : 0,
      "preview_url" : "https://p.scdn.co/mp3-preview/c060f98f8865dc7614383742a50bd54999da2db0?cid=774b29d4f13844c495f206cafdad9c86",
      "track_number" : 7,
      "type" : "track",
      "uri" : "spotify:track:1I2EuUtKBCpTNEKtWAoZ2P"
    }, {
      "album" : {
        "album_type" : "album",
        "artists" : [ {
          "external_urls" : {
            "spotify" : "https://open.spotify.com/artist/7AoH0xlzkxNOJc3Cw65h9N"
          },
          "href" : "https://api.spotify.com/v1/artists/7AoH0xlzkxNOJc3Cw65h9N",
          "id" : "7AoH0xlzkxNOJc3Cw65h9N",
          "name" : "Darlene Smith Jackson",
          "type" : "artist",
          "uri" : "spotify:artist:7AoH0xlzkxNOJc3Cw65h9N"
        } ],
        "external_urls" : {
          "spotify" : "https://open.spotify.com/album/1cqYuNtQTtPVLtyY2mJBWI"
        },
        "href" : "https://api.spotify.com/v1/albums/1cqYuNtQTtPVLtyY2mJBWI",
        "id" : "1cqYuNtQTtPVLtyY2mJBWI",
        "images" : [ {
          "height" : 640,
          "url" : "https://i.scdn.co/image/ab67616d0000b2739864d9d3387dc2f87e788a48",
          "width" : 640
        }, {
          "height" : 300,
          "url" : "https://i.scdn.co/image/ab67616d00001e029864d9d3387dc2f87e788a48",
          "width" : 300
        }, {
          "height" : 64,
          "url" : "https://i.scdn.co/image/ab67616d000048519864d9d3387dc2f87e788a48",
          "width" : 64
        } ],
        "name" : "Songs From My Heart To Yours II",
        "release_date" : "2010-06-26",
        "release_date_precision" : "day",
        "total_tracks" : 10,
        "type" : "album",
        "uri" : "spotify:album:1cqYuNtQTtPVLtyY2mJBWI"
      },
      "artists" : [ {
        "external_urls" : {
          "spotify" : "https://open.spotify.com/artist/7AoH0xlzkxNOJc3Cw65h9N"
        },
        "href" : "https://api.spotify.com/v1/artists/7AoH0xlzkxNOJc3Cw65h9N",
        "id" : "7AoH0xlzkxNOJc3Cw65h9N",
        "name" : "Darlene Smith Jackson",
        "type" : "artist",
        "uri" : "spotify:artist:7AoH0xlzkxNOJc3Cw65h9N"
      } ],
      "disc_number" : 1,
      "duration_ms" : 250240,
      "explicit" : false,
      "external_ids" : {
        "isrc" : "ushm81013965"
      },
      "external_urls" : {
        "spotify" : "https://open.spotify.com/track/06Y7xqnItt8a9Lzx0DA6zl"
      },
      "href" : "https://api.spotify.com/v1/tracks/06Y7xqnItt8a9Lzx0DA6zl",
      "id" : "06Y7xqnItt8a9Lzx0DA6zl",
      "is_local" : false,
      "is_playable" : true,
      "name" : "Call On Jesus Christ",
      "popularity" : 0,
      "preview_url" : "https://p.scdn.co/mp3-preview/addc5fffa1fa3523a6f6ca1a276a30fcdd235889?cid=774b29d4f13844c495f206cafdad9c86",
      "track_number" : 4,
      "type" : "track",
      "uri" : "spotify:track:06Y7xqnItt8a9Lzx0DA6zl"
    }, {
      "album" : {
        "album_type" : "album",
        "artists" : [ {
          "external_urls" : {
            "spotify" : "https://open.spotify.com/artist/6PxTgekBXMv1JXzVI6dQiC"
          },
          "href" : "https://api.spotify.com/v1/artists/6PxTgekBXMv1JXzVI6dQiC",
          "id" : "6PxTgekBXMv1JXzVI6dQiC",
          "name" : "Time to Wake Up",
          "type" : "artist",
          "uri" : "spotify:artist:6PxTgekBXMv1JXzVI6dQiC"
        } ],
        "external_urls" : {
          "spotify" : "https://open.spotify.com/album/72p9BXzqYrNbeU9uu7Uvr1"
        },
        "href" : "https://api.spotify.com/v1/albums/72p9BXzqYrNbeU9uu7Uvr1",
        "id" : "72p9BXzqYrNbeU9uu7Uvr1",
        "images" : [ {
          "height" : 640,
          "url" : "https://i.scdn.co/image/ab67616d0000b27346c374a21a23b1bf1e6fe6ed",
          "width" : 640
        }, {
          "height" : 300,
          "url" : "https://i.scdn.co/image/ab67616d00001e0246c374a21a23b1bf1e6fe6ed",
          "width" : 300
        }, {
          "height" : 64,
          "url" : "https://i.scdn.co/image/ab67616d0000485146c374a21a23b1bf1e6fe6ed",
          "width" : 64
        } ],
        "name" : "Peace Trilogy, Vol. 3: The Eternal Reign of God's King",
        "release_date" : "2019-11-28",
        "release_date_precision" : "day",
        "total_tracks" : 12,
        "type" : "album",
        "uri" : "spotify:album:72p9BXzqYrNbeU9uu7Uvr1"
      },
      "artists" : [ {
        "external_urls" : {
          "spotify" : "https://open.spotify.com/artist/6PxTgekBXMv1JXzVI6dQiC"
        },
        "href" : "https://api.spotify.com/v1/artists/6PxTgekBXMv1JXzVI6dQiC",
        "id" : "6PxTgekBXMv1JXzVI6dQiC",
        "name" : "Time to Wake Up",
        "type" : "artist",
        "uri" : "spotify:artist:6PxTgekBXMv1JXzVI6dQiC"
      } ],
      "disc_number" : 1,
      "duration_ms" : 202069,
      "explicit" : false,
      "external_ids" : {
        "isrc" : "DEHY11901859"
      },
      "external_urls" : {
        "spotify" : "https://open.spotify.com/track/5pVx7dsUo3CeDgq5mdjYei"
      },
      "href" : "https://api.spotify.com/v1/tracks/5pVx7dsUo3CeDgq5mdjYei",
      "id" : "5pVx7dsUo3CeDgq5mdjYei",
      "is_local" : false,
      "is_playable" : true,
      "name" : "Will You Have Jesus Christ to Be Your King Eternally?",
      "popularity" : 0,
      "preview_url" : "https://p.scdn.co/mp3-preview/da4ec98f3eaab7fadc2bd3999c81513251b90ce1?cid=774b29d4f13844c495f206cafdad9c86",
      "track_number" : 7,
      "type" : "track",
      "uri" : "spotify:track:5pVx7dsUo3CeDgq5mdjYei"
    }, {
      "album" : {
        "album_type" : "album",
        "artists" : [ {
          "external_urls" : {
            "spotify" : "https://open.spotify.com/artist/6pNbaQHCPJsShq47PPaycj"
          },
          "href" : "https://api.spotify.com/v1/artists/6pNbaQHCPJsShq47PPaycj",
          "id" : "6pNbaQHCPJsShq47PPaycj",
          "name" : "Andrew Brandon",
          "type" : "artist",
          "uri" : "spotify:artist:6pNbaQHCPJsShq47PPaycj"
        } ],
        "external_urls" : {
          "spotify" : "https://open.spotify.com/album/4Q7YQE7mo5plK4c0Ln2uBZ"
        },
        "href" : "https://api.spotify.com/v1/albums/4Q7YQE7mo5plK4c0Ln2uBZ",
        "id" : "4Q7YQE7mo5plK4c0Ln2uBZ",
        "images" : [ {
          "height" : 640,
          "url" : "https://i.scdn.co/image/ab67616d0000b27326c67e25fe0cd9d140c1c8a2",
          "width" : 640
        }, {
          "height" : 300,
          "url" : "https://i.scdn.co/image/ab67616d00001e0226c67e25fe0cd9d140c1c8a2",
          "width" : 300
        }, {
          "height" : 64,
          "url" : "https://i.scdn.co/image/ab67616d0000485126c67e25fe0cd9d140c1c8a2",
          "width" : 64
        } ],
        "name" : "Oh to Have a Savior",
        "release_date" : "2018-03-08",
        "release_date_precision" : "day",
        "total_tracks" : 18,
        "type" : "album",
        "uri" : "spotify:album:4Q7YQE7mo5plK4c0Ln2uBZ"
      },
      "artists" : [ {
        "external_urls" : {
          "spotify" : "https://open.spotify.com/artist/6pNbaQHCPJsShq47PPaycj"
        },
        "href" : "https://api.spotify.com/v1/artists/6pNbaQHCPJsShq47PPaycj",
        "id" : "6pNbaQHCPJsShq47PPaycj",
        "name" : "Andrew Brandon",
        "type" : "artist",
        "uri" : "spotify:artist:6pNbaQHCPJsShq47PPaycj"
      } ],
      "disc_number" : 1,
      "duration_ms" : 206471,
      "explicit" : false,
      "external_ids" : {
        "isrc" : "QZBRF1845172"
      },
      "external_urls" : {
        "spotify" : "https://open.spotify.com/track/78aPA0XVQeNMFaGNEBlvgB"
      },
      "href" : "https://api.spotify.com/v1/tracks/78aPA0XVQeNMFaGNEBlvgB",
      "id" : "78aPA0XVQeNMFaGNEBlvgB",
      "is_local" : false,
      "is_playable" : true,
      "name" : "Jesus Christ Your Holy Name",
      "popularity" : 0,
      "preview_url" : "https://p.scdn.co/mp3-preview/38e5b41ae16cde00aa079c2e6caf174c1448dea6?cid=774b29d4f13844c495f206cafdad9c86",
      "track_number" : 18,
      "type" : "track",
      "uri" : "spotify:track:78aPA0XVQeNMFaGNEBlvgB"
    }, {
      "album" : {
        "album_type" : "compilation",
        "artists" : [ {
          "external_urls" : {
            "spotify" : "https://open.spotify.com/artist/0LyfQWJT6nXafLPZqxe9Of"
          },
          "href" : "https://api.spotify.com/v1/artists/0LyfQWJT6nXafLPZqxe9Of",
          "id" : "0LyfQWJT6nXafLPZqxe9Of",
          "name" : "Various Artists",
          "type" : "artist",
          "uri" : "spotify:artist:0LyfQWJT6nXafLPZqxe9Of"
        } ],
        "external_urls" : {
          "spotify" : "https://open.spotify.com/album/2TtVgVtcZhTcl0u5Lotbok"
        },
        "href" : "https://api.spotify.com/v1/albums/2TtVgVtcZhTcl0u5Lotbok",
        "id" : "2TtVgVtcZhTcl0u5Lotbok",
        "images" : [ {
          "height" : 640,
          "url" : "https://i.scdn.co/image/ab67616d0000b273ccc111f27d49dc78a883c1c4",
          "width" : 640
        }, {
          "height" : 300,
          "url" : "https://i.scdn.co/image/ab67616d00001e02ccc111f27d49dc78a883c1c4",
          "width" : 300
        }, {
          "height" : 64,
          "url" : "https://i.scdn.co/image/ab67616d00004851ccc111f27d49dc78a883c1c4",
          "width" : 64
        } ],
        "name" : "Christmas Music for Your Xmas dinner",
        "release_date" : "2012-10-23",
        "release_date_precision" : "day",
        "total_tracks" : 50,
        "type" : "album",
        "uri" : "spotify:album:2TtVgVtcZhTcl0u5Lotbok"
      },
      "artists" : [ {
        "external_urls" : {
          "spotify" : "https://open.spotify.com/artist/4Ty9IkZ89a93AEwhLGTjo6"
        },
        "href" : "https://api.spotify.com/v1/artists/4Ty9IkZ89a93AEwhLGTjo6",
        "id" : "4Ty9IkZ89a93AEwhLGTjo6",
        "name" : "Atlanta Symphony Orchestra",
        "type" : "artist",
        "uri" : "spotify:artist:4Ty9IkZ89a93AEwhLGTjo6"
      } ],
      "disc_number" : 1,
      "duration_ms" : 161007,
      "explicit" : false,
      "external_ids" : {
        "isrc" : "USZDG0602481"
      },
      "external_urls" : {
        "spotify" : "https://open.spotify.com/track/3dgIdtSas2S5iYirlKdaZr"
      },
      "href" : "https://api.spotify.com/v1/tracks/3dgIdtSas2S5iYirlKdaZr",
      "id" : "3dgIdtSas2S5iYirlKdaZr",
      "is_local" : false,
      "is_playable" : true,
      "name" : "Christmas Oratorio, BWV 248: Jesus, Shepherd My Beginning",
      "popularity" : 0,
      "preview_url" : "https://p.scdn.co/mp3-preview/9aa7e859d9d67be5bffd9fa8577787f6ad2f52aa?cid=774b29d4f13844c495f206cafdad9c86",
      "track_number" : 46,
      "type" : "track",
      "uri" : "spotify:track:3dgIdtSas2S5iYirlKdaZr"
    }, {
      "album" : {
        "album_type" : "album",
        "artists" : [ {
          "external_urls" : {
            "spotify" : "https://open.spotify.com/artist/6pNbaQHCPJsShq47PPaycj"
          },
          "href" : "https://api.spotify.com/v1/artists/6pNbaQHCPJsShq47PPaycj",
          "id" : "6pNbaQHCPJsShq47PPaycj",
          "name" : "Andrew Brandon",
          "type" : "artist",
          "uri" : "spotify:artist:6pNbaQHCPJsShq47PPaycj"
        } ],
        "external_urls" : {
          "spotify" : "https://open.spotify.com/album/2ecdWY6s0VySHAfW7FZ9EP"
        },
        "href" : "https://api.spotify.com/v1/albums/2ecdWY6s0VySHAfW7FZ9EP",
        "id" : "2ecdWY6s0VySHAfW7FZ9EP",
        "images" : [ {
          "height" : 640,
          "url" : "https://i.scdn.co/image/ab67616d0000b273608045f127a0b623c6154712",
          "width" : 640
        }, {
          "height" : 300,
          "url" : "https://i.scdn.co/image/ab67616d00001e02608045f127a0b623c6154712",
          "width" : 300
        }, {
          "height" : 64,
          "url" : "https://i.scdn.co/image/ab67616d00004851608045f127a0b623c6154712",
          "width" : 64
        } ],
        "name" : "Oh to Have a Savior (Extended Version)",
        "release_date" : "2018-03-01",
        "release_date_precision" : "day",
        "total_tracks" : 18,
        "type" : "album",
        "uri" : "spotify:album:2ecdWY6s0VySHAfW7FZ9EP"
      },
      "artists" : [ {
        "external_urls" : {
          "spotify" : "https://open.spotify.com/artist/6pNbaQHCPJsShq47PPaycj"
        },
        "href" : "https://api.spotify.com/v1/artists/6pNbaQHCPJsShq47PPaycj",
        "id" : "6pNbaQHCPJsShq47PPaycj",
        "name" : "Andrew Brandon",
        "type" : "artist",
        "uri" : "spotify:artist:6pNbaQHCPJsShq47PPaycj"
      } ],
      "disc_number" : 1,
      "duration_ms" : 206386,
      "explicit" : false,
      "external_ids" : {
        "isrc" : "uscgj1858666"
      },
      "external_urls" : {
        "spotify" : "https://open.spotify.com/track/3DCV87CgF9d9ZzbN6uUm8o"
      },
      "href" : "https://api.spotify.com/v1/tracks/3DCV87CgF9d9ZzbN6uUm8o",
      "id" : "3DCV87CgF9d9ZzbN6uUm8o",
      "is_local" : false,
      "is_playable" : true,
      "name" : "Jesus Christ Your Holy Name",
      "popularity" : 0,
      "preview_url" : "https://p.scdn.co/mp3-preview/18f68459f5c1e2ec702341fdb8dbede4d3cf613a?cid=774b29d4f13844c495f206cafdad9c86",
      "track_number" : 18,
      "type" : "track",
      "uri" : "spotify:track:3DCV87CgF9d9ZzbN6uUm8o"
    } ],
    "limit" : 10,
    "next" : "https://api.spotify.com/v1/search?query=O+Jesus+Christ%2C+to+You&type=track&market=US&offset=15&limit=10",
    "offset" : 5,
    "previous" : "https://api.spotify.com/v1/search?query=O+Jesus+Christ%2C+to+You&type=track&market=US&offset=0&limit=10",
    "total" : 134
  }
}