{
  "tracks" : {
    "href" : "https://api.spotify.com/v1/search?query=Christ+Is+Coming&type=track&market=US&offset=5&limit=10",
    "items" : [ {
      "album" : {
        "album_type" : "album",
        "artists" : [ {
          "external_urls" : {
            "spotify" : "https://open.spotify.com/artist/1GxkXlMwML1oSg5eLPiAz3"
          },
          "href" : "https://api.spotify.com/v1/artists/1GxkXlMwML1oSg5eLPiAz3",
          "id" : "1GxkXlMwML1oSg5eLPiAz3",
          "name" : "Michael Bublé",
          "type" : "artist",
          "uri" : "spotify:artist:1GxkXlMwML1oSg5eLPiAz3"
        } ],
        "external_urls" : {
          "spotify" : "https://open.spotify.com/album/3CKVXhODttZebJAzjUs2un"
        },
        "href" : "https://api.spotify.com/v1/albums/3CKVXhODttZebJAzjUs2un",
        "id" : "3CKVXhODttZebJAzjUs2un",
        "images" : [ {
          "height" : 640,
          "url" : "https://i.scdn.co/image/ab67616d0000b27395517befb15ad5d63af701ab",
          "width" : 640
        }, {
          "height" : 300,
          "url" : "https://i.scdn.co/image/ab67616d00001e0295517befb15ad5d63af701ab",
          "width" : 300
        }, {
          "height" : 64,
          "url" : "https://i.scdn.co/image/ab67616d0000485195517befb15ad5d63af701ab",
          "width" : 64
        } ],
        "name" : "Christmas",
        "release_date" : "2011-10-14",
        "release_date_precision" : "day",
        "total_tracks" : 16,
        "type" : "album",
        "uri" : "spotify:album:3CKVXhODttZebJAzjUs2un"
      },
      "artists" : [ {
        "external_urls" : {
          "spotify" : "https://open.spotify.com/artist/1GxkXlMwML1oSg5eLPiAz3"
        },
        "href" : "https://api.spotify.com/v1/artists/1GxkXlMwML1oSg5eLPiAz3",
        "id" : "1GxkXlMwML1oSg5eLPiAz3",
        "name" : "Michael Bublé",
        "type" : "artist",
        "uri" : "spotify:artist:1GxkXlMwML1oSg5eLPiAz3"
      } ],
      "disc_number" : 1,
      "duration_ms" : 171093,
      "explicit" : false,
      "external_ids" : {
        "isrc" : "USRE11100701"
      },
      "external_urls" : {
        "spotify" : "https://open.spotify.com/track/5Ber68jZ7ytegr2UISEdb7"
      },
      "href" : "https://api.spotify.com/v1/tracks/5Ber68jZ7ytegr2UISEdb7",
      "id" : "5Ber68jZ7ytegr2UISEdb7",
      "is_local" : false,
      "is_playable" : true,
      "name" : "Santa Claus Is Coming to Town",
      "popularity" : 30,
      "preview_url" : "https://p.scdn.co/mp3-preview/bd010602753203f389e32bd1c7bec2a88c020aa8?cid=774b29d4f13844c495f206cafdad9c86",
      "track_number" : 2,
      "type" : "track",
      "uri" : "spotify:track:5Ber68jZ7ytegr2UISEdb7"
    }, {
      "album" : {
        "album_type" : "album",
        "artists" : [ {
          "external_urls" : {
            "spotify" : "https://open.spotify.com/artist/26AHtbjWKiwYzsoGoUZq53"
          },
          "href" : "https://api.spotify.com/v1/artists/26AHtbjWKiwYzsoGoUZq53",
          "id" : "26AHtbjWKiwYzsoGoUZq53",
          "name" : "Pentatonix",
          "type" : "artist",
          "uri" : "spotify:artist:26AHtbjWKiwYzsoGoUZq53"
        } ],
        "external_urls" : {
          "spotify" : "https://open.spotify.com/album/082VlX7cBth0o8xqDGclNn"
        },
        "href" : "https://api.spotify.com/v1/albums/082VlX7cBth0o8xqDGclNn",
        "id" : "082VlX7cBth0o8xqDGclNn",
        "images" : [ {
          "height" : 640,
          "url" : "https://i.scdn.co/image/ab67616d0000b273e0283afa7dd6c6ac806fb67c",
          "width" : 640
        }, {
          "height" : 300,
          "url" : "https://i.scdn.co/image/ab67616d00001e02e0283afa7dd6c6ac806fb67c",
          "width" : 300
        }, {
          "height" : 64,
          "url" : "https://i.scdn.co/image/ab67616d00004851e0283afa7dd6c6ac806fb67c",
          "width" : 64
        } ],
        "name" : "That's Christmas To Me (Deluxe Edition)",
        "release_date" : "2015-10-30",
        "release_date_precision" : "day",
        "total_tracks" : 16,
        "type" : "album",
        "uri" : "spotify:album:082VlX7cBth0o8xqDGclNn"
      },
      "artists" : [ {
        "external_urls" : {
          "spotify" : "https://open.spotify.com/artist/26AHtbjWKiwYzsoGoUZq53"
        },
        "href" : "https://api.spotify.com/v1/artists/26AHtbjWKiwYzsoGoUZq53",
        "id" : "26AHtbjWKiwYzsoGoUZq53",
        "name" : "Pentatonix",
        "type" : "artist",
        "uri" : "spotify:artist:26AHtbjWKiwYzsoGoUZq53"
      } ],
      "disc_number" : 1,
      "duration_ms" : 162186,
      "explicit" : false,
      "external_ids" : {
        "isrc" : "USRC11402154"
      },
      "external_urls" : {
        "spotify" : "https://open.spotify.com/track/4CjzPBRBwyP0kgR1gjaDjo"
      },
      "href" : "https://api.spotify.com/v1/tracks/4CjzPBRBwyP0kgR1gjaDjo",
      "id" : "4CjzPBRBwyP0kgR1gjaDjo",
      "is_local" : false,
      "is_playable" : true,
      "name" : "Santa Claus is Coming to Town",
      "popularity" : 34,
      "preview_url" : "https://p.scdn.co/mp3-preview/6d7453e359b75f504f7a0e56ca87a8d73914e54e?cid=774b29d4f13844c495f206cafdad9c86",
      "track_number" : 9,
      "type" : "track",
      "uri" : "spotify:track:4CjzPBRBwyP0kgR1gjaDjo"
    }, {
      "album" : {
        "album_type" : "compilation",
        "artists" : [ {
          "external_urls" : {
            "spotify" : "https://open.spotify.com/artist/4ytkhMSAnrDP8XzRNlw9FS"
          },
          "href" : "https://api.spotify.com/v1/artists/4ytkhMSAnrDP8XzRNlw9FS",
          "id" : "4ytkhMSAnrDP8XzRNlw9FS",
          "name" : "Vince Guaraldi Trio",
          "type" : "artist",
          "uri" : "spotify:artist:4ytkhMSAnrDP8XzRNlw9FS"
        } ],
        "external_urls" : {
          "spotify" : "https://open.spotify.com/album/1JJ4vlKFmUCxYc1HGrMsRG"
        },
        "href" : "https://api.spotify.com/v1/albums/1JJ4vlKFmUCxYc1HGrMsRG",
        "id" : "1JJ4vlKFmUCxYc1HGrMsRG",
        "images" : [ {
          "height" : 640,
          "url" : "https://i.scdn.co/image/ab67616d0000b2736bb02a6c90689f48e7fbb585",
          "width" : 640
        }, {
          "height" : 300,
          "url" : "https://i.scdn.co/image/ab67616d00001e026bb02a6c90689f48e7fbb585",
          "width" : 300
        }, {
          "height" : 64,
          "url" : "https://i.scdn.co/image/ab67616d000048516bb02a6c90689f48e7fbb585",
          "width" : 64
        } ],
        "name" : "Peanuts Greatest Hits (Music From The TV Specials)",
        "release_date" : "2015-01-01",
        "release_date_precision" : "day",
        "total_tracks" : 12,
        "type" : "album",
        "uri" : "spotify:album:1JJ4vlKFmUCxYc1HGrMsRG"
      },
      "artists" : [ {
        "external_urls" : {
          "spotify" : "https://open.spotify.com/artist/4ytkhMSAnrDP8XzRNlw9FS"
        },
        "href" : "https://api.spotify.com/v1/artists/4ytkhMSAnrDP8XzRNlw9FS",
        "id" : "4ytkhMSAnrDP8XzRNlw9FS",
        "name" : "Vince Guaraldi Trio",
        "type" : "artist",
        "uri" : "spotify:artist:4ytkhMSAnrDP8XzRNlw9FS"
      } ],
      "disc_number" : 1,
      "duration_ms" : 204160,
      "explicit" : false,
      "external_ids" : {
        "isrc" : "USC4R1201101"
      },
      "external_urls" : {
        "spotify" : "https://open.spotify.com/track/5so3UcpE6VOGP4CCV6qOT3"
      },
      "href" : "https://api.spotify.com/v1/tracks/5so3UcpE6VOGP4CCV6qOT3",
      "id" : "5so3UcpE6VOGP4CCV6qOT3",
      "is_local" : false,
      "is_playable" : true,
      "name" : "Christmas Is Coming",
      "popularity" : 25,
      "preview_url" : null,
      "track_number" : 9,
      "type" : "track",
      "uri" : "spotify:track:5so3UcpE6VOGP4CCV6qOT3"
    }, {
      "album" : {
        "album_type" : "album",
        "artists" : [ {
          "external_urls" : {
            "spotify" : "https://open.spotify.com/artist/27M9shmwhIjRo7WntpT9Rp"
          },
          "href" : "https://api.spotify.com/v1/artists/27M9shmwhIjRo7WntpT9Rp",
          "id" : "27M9shmwhIjRo7WntpT9Rp",
          "name" : "Frank Turner",
          "type" : "artist",
          "uri" : "spotify:artist:27M9shmwhIjRo7WntpT9Rp"
        } ],
        "external_urls" : {
          "spotify" : "https://open.spotify.com/album/6Effd1QWWU5gknolsjqg2I"
        },
        "href" : "https://api.spotify.com/v1/albums/6Effd1QWWU5gknolsjqg2I",
        "id" : "6Effd1QWWU5gknolsjqg2I",
        "images" : [ {
          "height" : 640,
          "url" : "https://i.scdn.co/image/ab67616d0000b273fcfd5863538f21ef2eb4df2c",
          "width" : 640
        }, {
          "height" : 300,
          "url" : "https://i.scdn.co/image/ab67616d00001e02fcfd5863538f21ef2eb4df2c",
          "width" : 300
        }, {
          "height" : 64,
          "url" : "https://i.scdn.co/image/ab67616d00004851fcfd5863538f21ef2eb4df2c",
          "width" : 64
        } ],
        "name" : "Love Ire & Song",
        "release_date" : "2009-05-18",
        "release_date_precision" : "day",
        "total_tracks" : 12,
        "type" : "album",
        "uri" : "spotify:album:6Effd1QWWU5gknolsjqg2I"
      },
      "artists" : [ {
        "external_urls" : {
          "spotify" : "https://open.spotify.com/artist/27M9shmwhIjRo7WntpT9Rp"
        },
        "href" : "https://api.spotify.com/v1/artists/27M9shmwhIjRo7WntpT9Rp",
        "id" : "27M9shmwhIjRo7WntpT9Rp",
        "name" : "Frank Turner",
        "type" : "artist",
        "uri" : "spotify:artist:27M9shmwhIjRo7WntpT9Rp"
      } ],
      "disc_number" : 1,
      "duration_ms" : 190213,
      "explicit" : false,
      "external_ids" : {
        "isrc" : "GBHAH0800026"
      },
      "external_urls" : {
        "spotify" : "https://open.spotify.com/track/2omcSicuBD7dVkcqUWn4Zh"
      },
      "href" : "https://api.spotify.com/v1/tracks/2omcSicuBD7dVkcqUWn4Zh",
      "id" : "2omcSicuBD7dVkcqUWn4Zh",
      "is_local" : false,
      "is_playable" : true,
      "name" : "St. Christopher Is Coming Home",
      "popularity" : 25,
      "preview_url" : "https://p.scdn.co/mp3-preview/22930b65dadcddd35eccbca74cfc45f7865e67f4?cid=774b29d4f13844c495f206cafdad9c86",
      "track_number" : 11,
      "type" : "track",
      "uri" : "spotify:track:2omcSicuBD7dVkcqUWn4Zh"
    }, {
      "album" : {
        "album_type" : "album",
        "artists" : [ {
          "external_urls" : {
            "spotify" : "https://open.spotify.com/artist/1Mxqyy3pSjf8kZZL4QVxS0"
          },
          "href" : "https://api.spotify.com/v1/artists/1Mxqyy3pSjf8kZZL4QVxS0",
          "id" : "1Mxqyy3pSjf8kZZL4QVxS0",
          "name" : "Frank Sinatra",
          "type" : "artist",
          "uri" : "spotify:artist:1Mxqyy3pSjf8kZZL4QVxS0"
        } ],
        "external_urls" : {
          "spotify" : "https://open.spotify.com/album/1gCLWt3kXk5kNTZdsx6P8a"
        },
        "href" : "https://api.spotify.com/v1/albums/1gCLWt3kXk5kNTZdsx6P8a",
        "id" : "1gCLWt3kXk5kNTZdsx6P8a",
        "images" : [ {
          "height" : 640,
          "url" : "https://i.scdn.co/image/ab67616d0000b273292a3767391b5767f95e708f",
          "width" : 640
        }, {
          "height" : 300,
          "url" : "https://i.scdn.co/image/ab67616d00001e02292a3767391b5767f95e708f",
          "width" : 300
        }, {
          "height" : 64,
          "url" : "https://i.scdn.co/image/ab67616d00004851292a3767391b5767f95e708f",
          "width" : 64
        } ],
        "name" : "Ultimate Christmas",
        "release_date" : "2017-10-06",
        "release_date_precision" : "day",
        "total_tracks" : 20,
        "type" : "album",
        "uri" : "spotify:album:1gCLWt3kXk5kNTZdsx6P8a"
      },
      "artists" : [ {
        "external_urls" : {
          "spotify" : "https://open.spotify.com/artist/1Mxqyy3pSjf8kZZL4QVxS0"
        },
        "href" : "https://api.spotify.com/v1/artists/1Mxqyy3pSjf8kZZL4QVxS0",
        "id" : "1Mxqyy3pSjf8kZZL4QVxS0",
        "name" : "Frank Sinatra",
        "type" : "artist",
        "uri" : "spotify:artist:1Mxqyy3pSjf8kZZL4QVxS0"
      } ],
      "disc_number" : 1,
      "duration_ms" : 134826,
      "explicit" : false,
      "external_ids" : {
        "isrc" : "USRH10903365"
      },
      "external_urls" : {
        "spotify" : "https://open.spotify.com/track/6syO6UTl8QiiWADJy3Uy2d"
      },
      "href" : "https://api.spotify.com/v1/tracks/6syO6UTl8QiiWADJy3Uy2d",
      "id" : "6syO6UTl8QiiWADJy3Uy2d",
      "is_local" : false,
      "is_playable" : true,
      "name" : "Santa Claus Is Coming To Town",
      "popularity" : 30,
      "preview_url" : null,
      "track_number" : 9,
      "type" : "track",
      "uri" : "spotify:track:6syO6UTl8QiiWADJy3Uy2d"
    }, {
      "album" : {
        "album_type" : "single",
        "artists" : [ {
          "external_urls" : {
            "spotify" : "https://open.spotify.com/artist/4hSI1OrHGZDgjt9ZzNfZkN"
          },
          "href" : "https://api.spotify.com/v1/artists/4hSI1OrHGZDgjt9ZzNfZkN",
          "id" : "4hSI1OrHGZDgjt9ZzNfZkN",
          "name" : "Louis Brecker",
          "type" : "artist",
          "uri" : "spotify:artist:4hSI1OrHGZDgjt9ZzNfZkN"
        } ],
        "external_urls" : {
          "spotify" : "https://open.spotify.com/album/0tOah8hWK3a7KP9aMdgIyY"
        },
        "href" : "https://api.spotify.com/v1/albums/0tOah8hWK3a7KP9aMdgIyY",
        "id" : "0tOah8hWK3a7KP9aMdgIyY",
        "images" : [ {
          "height" : 640,
          "url" : "https://i.scdn.co/image/ab67616d0000b273ca078a72723ee2f0f2b16449",
          "width" : 640
        }, {
          "height" : 300,
          "url" : "https://i.scdn.co/image/ab67616d00001e02ca078a72723ee2f0f2b16449",
          "width" : 300
        }, {
          "height" : 64,
          "url" : "https://i.scdn.co/image/ab67616d00004851ca078a72723ee2f0f2b16449",
          "width" : 64
        } ],
        "name" : "Have Yourself A Jazzy Little Christmas",
        "release_date" : "2019-10-28",
        "release_date_precision" : "day",
        "total_tracks" : 2,
        "type" : "album",
        "uri" : "spotify:album:0tOah8hWK3a7KP9aMdgIyY"
      },
      "artists" : [ {
        "external_urls" : {
          "spotify" : "https://open.spotify.com/artist/4hSI1OrHGZDgjt9ZzNfZkN"
        },
        "href" : "https://api.spotify.com/v1/artists/4hSI1OrHGZDgjt9ZzNfZkN",
        "id" : "4hSI1OrHGZDgjt9ZzNfZkN",
        "name" : "Louis Brecker",
        "type" : "artist",
        "uri" : "spotify:artist:4hSI1OrHGZDgjt9ZzNfZkN"
      } ],
      "disc_number" : 1,
      "duration_ms" : 185881,
      "explicit" : false,
      "external_ids" : {
        "isrc" : "QZAKB1910495"
      },
      "external_urls" : {
        "spotify" : "https://open.spotify.com/track/12OzqVIimK1bu3u7CdhKKu"
      },
      "href" : "https://api.spotify.com/v1/tracks/12OzqVIimK1bu3u7CdhKKu",
      "id" : "12OzqVIimK1bu3u7CdhKKu",
      "is_local" : false,
      "is_playable" : true,
      "name" : "Santa Claus Is Coming To Town",
      "popularity" : 26,
      "preview_url" : "https://p.scdn.co/mp3-preview/86cea157fb9c5d1d579b673690c1cde8c933b7d1?cid=774b29d4f13844c495f206cafdad9c86",
      "track_number" : 2,
      "type" : "track",
      "uri" : "spotify:track:12OzqVIimK1bu3u7CdhKKu"
    }, {
      "album" : {
        "album_type" : "album",
        "artists" : [ {
          "external_urls" : {
            "spotify" : "https://open.spotify.com/artist/3qNVuliS40BLgXGxhdBdqu"
          },
          "href" : "https://api.spotify.com/v1/artists/3qNVuliS40BLgXGxhdBdqu",
          "id" : "3qNVuliS40BLgXGxhdBdqu",
          "name" : "TAEYEON",
          "type" : "artist",
          "uri" : "spotify:artist:3qNVuliS40BLgXGxhdBdqu"
        } ],
        "external_urls" : {
          "spotify" : "https://open.spotify.com/album/1U3KyC9Key12NSi9ETVExx"
        },
        "href" : "https://api.spotify.com/v1/albums/1U3KyC9Key12NSi9ETVExx",
        "id" : "1U3KyC9Key12NSi9ETVExx",
        "images" : [ {
          "height" : 640,
          "url" : "https://i.scdn.co/image/ab67616d0000b273ff45701e8447016848c70485",
          "width" : 640
        }, {
          "height" : 300,
          "url" : "https://i.scdn.co/image/ab67616d00001e02ff45701e8447016848c70485",
          "width" : 300
        }, {
          "height" : 64,
          "url" : "https://i.scdn.co/image/ab67616d00004851ff45701e8447016848c70485",
          "width" : 64
        } ],
        "name" : "This Christmas – Winter is Coming",
        "release_date" : "2017-12-12",
        "release_date_precision" : "day",
        "total_tracks" : 8,
        "type" : "album",
        "uri" : "spotify:album:1U3KyC9Key12NSi9ETVExx"
      },
      "artists" : [ {
        "external_urls" : {
          "spotify" : "https://open.spotify.com/artist/3qNVuliS40BLgXGxhdBdqu"
        },
        "href" : "https://api.spotify.com/v1/artists/3qNVuliS40BLgXGxhdBdqu",
        "id" : "3qNVuliS40BLgXGxhdBdqu",
        "name" : "TAEYEON",
        "type" : "artist",
        "uri" : "spotify:artist:3qNVuliS40BLgXGxhdBdqu"
      } ],
      "disc_number" : 1,
      "duration_ms" : 267250,
      "explicit" : false,
      "external_ids" : {
        "isrc" : "KRA301700660"
      },
      "external_urls" : {
        "spotify" : "https://open.spotify.com/track/6eAMa0e7WCbjM7ivbAhvkq"
      },
      "href" : "https://api.spotify.com/v1/tracks/6eAMa0e7WCbjM7ivbAhvkq",
      "id" : "6eAMa0e7WCbjM7ivbAhvkq",
      "is_local" : false,
      "is_playable" : true,
      "name" : "This Christmas",
      "popularity" : 36,
      "preview_url" : "https://p.scdn.co/mp3-preview/2c565d62f5b5b78ff81ed666eb45061270fec6ec?cid=774b29d4f13844c495f206cafdad9c86",
      "track_number" : 2,
      "type" : "track",
      "uri" : "spotify:track:6eAMa0e7WCbjM7ivbAhvkq"
    }, {
      "album" : {
        "album_type" : "album",
        "artists" : [ {
          "external_urls" : {
            "spotify" : "https://open.spotify.com/artist/57bUPid8xztkieZfS7OlEV"
          },
          "href" : "https://api.spotify.com/v1/artists/57bUPid8xztkieZfS7OlEV",
          "id" : "57bUPid8xztkieZfS7OlEV",
          "name" : "The Supremes",
          "type" : "artist",
          "uri" : "spotify:artist:57bUPid8xztkieZfS7OlEV"
        } ],
        "external_urls" : {
          "spotify" : "https://open.spotify.com/album/6wP6F93vo81jsyGMnHvFGP"
        },
        "href" : "https://api.spotify.com/v1/albums/6wP6F93vo81jsyGMnHvFGP",
        "id" : "6wP6F93vo81jsyGMnHvFGP",
        "images" : [ {
          "height" : 640,
          "url" : "https://i.scdn.co/image/ab67616d0000b273d7236d2934293e64197ad529",
          "width" : 640
        }, {
          "height" : 300,
          "url" : "https://i.scdn.co/image/ab67616d00001e02d7236d2934293e64197ad529",
          "width" : 300
        }, {
          "height" : 64,
          "url" : "https://i.scdn.co/image/ab67616d00004851d7236d2934293e64197ad529",
          "width" : 64
        } ],
        "name" : "Merry Christmas",
        "release_date" : "1965-11-01",
        "release_date_precision" : "day",
        "total_tracks" : 12,
        "type" : "album",
        "uri" : "spotify:album:6wP6F93vo81jsyGMnHvFGP"
      },
      "artists" : [ {
        "external_urls" : {
          "spotify" : "https://open.spotify.com/artist/57bUPid8xztkieZfS7OlEV"
        },
        "href" : "https://api.spotify.com/v1/artists/57bUPid8xztkieZfS7OlEV",
        "id" : "57bUPid8xztkieZfS7OlEV",
        "name" : "The Supremes",
        "type" : "artist",
        "uri" : "spotify:artist:57bUPid8xztkieZfS7OlEV"
      } ],
      "disc_number" : 1,
      "duration_ms" : 161200,
      "explicit" : false,
      "external_ids" : {
        "isrc" : "USMO16500522"
      },
      "external_urls" : {
        "spotify" : "https://open.spotify.com/track/1O2dsMjC5U0Pg8YPCgwGIn"
      },
      "href" : "https://api.spotify.com/v1/tracks/1O2dsMjC5U0Pg8YPCgwGIn",
      "id" : "1O2dsMjC5U0Pg8YPCgwGIn",
      "is_local" : false,
      "is_playable" : true,
      "name" : "Santa Claus Is Coming To Town - Stereo",
      "popularity" : 26,
      "preview_url" : null,
      "track_number" : 8,
      "type" : "track",
      "uri" : "spotify:track:1O2dsMjC5U0Pg8YPCgwGIn"
    }, {
      "album" : {
        "album_type" : "album",
        "artists" : [ {
          "external_urls" : {
            "spotify" : "https://open.spotify.com/artist/1Vvvx45Apu6dQqwuZQxtgW"
          },
          "href" : "https://api.spotify.com/v1/artists/1Vvvx45Apu6dQqwuZQxtgW",
          "id" : "1Vvvx45Apu6dQqwuZQxtgW",
          "name" : "Kidz Bop Kids",
          "type" : "artist",
          "uri" : "spotify:artist:1Vvvx45Apu6dQqwuZQxtgW"
        } ],
        "external_urls" : {
          "spotify" : "https://open.spotify.com/album/7GJVFlUmqCb71CJRDzm5E5"
        },
        "href" : "https://api.spotify.com/v1/albums/7GJVFlUmqCb71CJRDzm5E5",
        "id" : "7GJVFlUmqCb71CJRDzm5E5",
        "images" : [ {
          "height" : 640,
          "url" : "https://i.scdn.co/image/ab67616d0000b273cf55748b4b24b8b48fe1f7b6",
          "width" : 640
        }, {
          "height" : 300,
          "url" : "https://i.scdn.co/image/ab67616d00001e02cf55748b4b24b8b48fe1f7b6",
          "width" : 300
        }, {
          "height" : 64,
          "url" : "https://i.scdn.co/image/ab67616d00004851cf55748b4b24b8b48fe1f7b6",
          "width" : 64
        } ],
        "name" : "KIDZ BOP Christmas",
        "release_date" : "2018-09-14",
        "release_date_precision" : "day",
        "total_tracks" : 25,
        "type" : "album",
        "uri" : "spotify:album:7GJVFlUmqCb71CJRDzm5E5"
      },
      "artists" : [ {
        "external_urls" : {
          "spotify" : "https://open.spotify.com/artist/1Vvvx45Apu6dQqwuZQxtgW"
        },
        "href" : "https://api.spotify.com/v1/artists/1Vvvx45Apu6dQqwuZQxtgW",
        "id" : "1Vvvx45Apu6dQqwuZQxtgW",
        "name" : "Kidz Bop Kids",
        "type" : "artist",
        "uri" : "spotify:artist:1Vvvx45Apu6dQqwuZQxtgW"
      } ],
      "disc_number" : 1,
      "duration_ms" : 147333,
      "explicit" : false,
      "external_ids" : {
        "isrc" : "USRZR1023906"
      },
      "external_urls" : {
        "spotify" : "https://open.spotify.com/track/2L0tXtF9f83cSXSAjZEcwO"
      },
      "href" : "https://api.spotify.com/v1/tracks/2L0tXtF9f83cSXSAjZEcwO",
      "id" : "2L0tXtF9f83cSXSAjZEcwO",
      "is_local" : false,
      "is_playable" : true,
      "name" : "Santa Claus Is Coming To Town",
      "popularity" : 22,
      "preview_url" : null,
      "track_number" : 2,
      "type" : "track",
      "uri" : "spotify:track:2L0tXtF9f83cSXSAjZEcwO"
    }, {
      "album" : {
        "album_type" : "album",
        "artists" : [ {
          "external_urls" : {
            "spotify" : "https://open.spotify.com/artist/3qNVuliS40BLgXGxhdBdqu"
          },
          "href" : "https://api.spotify.com/v1/artists/3qNVuliS40BLgXGxhdBdqu",
          "id" : "3qNVuliS40BLgXGxhdBdqu",
          "name" : "TAEYEON",
          "type" : "artist",
          "uri" : "spotify:artist:3qNVuliS40BLgXGxhdBdqu"
        } ],
        "external_urls" : {
          "spotify" : "https://open.spotify.com/album/1U3KyC9Key12NSi9ETVExx"
        },
        "href" : "https://api.spotify.com/v1/albums/1U3KyC9Key12NSi9ETVExx",
        "id" : "1U3KyC9Key12NSi9ETVExx",
        "images" : [ {
          "height" : 640,
          "url" : "https://i.scdn.co/image/ab67616d0000b273ff45701e8447016848c70485",
          "width" : 640
        }, {
          "height" : 300,
          "url" : "https://i.scdn.co/image/ab67616d00001e02ff45701e8447016848c70485",
          "width" : 300
        }, {
          "height" : 64,
          "url" : "https://i.scdn.co/image/ab67616d00004851ff45701e8447016848c70485",
          "width" : 64
        } ],
        "name" : "This Christmas – Winter is Coming",
        "release_date" : "2017-12-12",
        "release_date_precision" : "day",
        "total_tracks" : 8,
        "type" : "album",
        "uri" : "spotify:album:1U3KyC9Key12NSi9ETVExx"
      },
      "artists" : [ {
        "external_urls" : {
          "spotify" : "https://open.spotify.com/artist/3qNVuliS40BLgXGxhdBdqu"
        },
        "href" : "https://api.spotify.com/v1/artists/3qNVuliS40BLgXGxhdBdqu",
        "id" : "3qNVuliS40BLgXGxhdBdqu",
        "name" : "TAEYEON",
        "type" : "artist",
        "uri" : "spotify:artist:3qNVuliS40BLgXGxhdBdqu"
      } ],
      "disc_number" : 1,
      "duration_ms" : 215101,
      "explicit" : false,
      "external_ids" : {
        "isrc" : "KRA301700665"
      },
      "external_urls" : {
        "spotify" : "https://open.spotify.com/track/7KJUpJgGaQTdSq3L5StCfi"
      },
      "href" : "https://api.spotify.com/v1/tracks/7KJUpJgGaQTdSq3L5StCfi",
      "id" : "7KJUpJgGaQTdSq3L5StCfi",
      "is_local" : false,
      "is_playable" : true,
      "name" : "겨울나무 I’m all ears",
      "popularity" : 36,
      "preview_url" : "https://p.scdn.co/mp3-preview/d2bd68893fbf380b837c89d2a10537cc9a3b3acf?cid=774b29d4f13844c495f206cafdad9c86",
      "track_number" : 7,
      "type" : "track",
      "uri" : "spotify:track:7KJUpJgGaQTdSq3L5StCfi"
    } ],
    "limit" : 10,
    "next" : "https://api.spotify.com/v1/search?query=Christ+Is+Coming&type=track&market=US&offset=15&limit=10",
    "offset" : 5,
    "previous" : "https://api.spotify.com/v1/search?query=Christ+Is+Coming&type=track&market=US&offset=0&limit=10",
    "total" : 7055
  }
}