{
  "tracks" : {
    "href" : "https://api.spotify.com/v1/search?query=Lead+Me+to+Calvary&type=track&market=US&offset=5&limit=10",
    "items" : [ {
      "album" : {
        "album_type" : "album",
        "artists" : [ {
          "external_urls" : {
            "spotify" : "https://open.spotify.com/artist/5ZKBQyNLXQd1VfNf2oH5yF"
          },
          "href" : "https://api.spotify.com/v1/artists/5ZKBQyNLXQd1VfNf2oH5yF",
          "id" : "5ZKBQyNLXQd1VfNf2oH5yF",
          "name" : "Phillip Keveren",
          "type" : "artist",
          "uri" : "spotify:artist:5ZKBQyNLXQd1VfNf2oH5yF"
        } ],
        "external_urls" : {
          "spotify" : "https://open.spotify.com/album/0vRab7MmcKDN084ajk21Tq"
        },
        "href" : "https://api.spotify.com/v1/albums/0vRab7MmcKDN084ajk21Tq",
        "id" : "0vRab7MmcKDN084ajk21Tq",
        "images" : [ {
          "height" : 640,
          "url" : "https://i.scdn.co/image/ab67616d0000b27312f64ede8eb8be1407631d8e",
          "width" : 640
        }, {
          "height" : 300,
          "url" : "https://i.scdn.co/image/ab67616d00001e0212f64ede8eb8be1407631d8e",
          "width" : 300
        }, {
          "height" : 64,
          "url" : "https://i.scdn.co/image/ab67616d0000485112f64ede8eb8be1407631d8e",
          "width" : 64
        } ],
        "name" : "Classical Praise Easter",
        "release_date" : "2011-02-16",
        "release_date_precision" : "day",
        "total_tracks" : 10,
        "type" : "album",
        "uri" : "spotify:album:0vRab7MmcKDN084ajk21Tq"
      },
      "artists" : [ {
        "external_urls" : {
          "spotify" : "https://open.spotify.com/artist/5ZKBQyNLXQd1VfNf2oH5yF"
        },
        "href" : "https://api.spotify.com/v1/artists/5ZKBQyNLXQd1VfNf2oH5yF",
        "id" : "5ZKBQyNLXQd1VfNf2oH5yF",
        "name" : "Phillip Keveren",
        "type" : "artist",
        "uri" : "spotify:artist:5ZKBQyNLXQd1VfNf2oH5yF"
      } ],
      "disc_number" : 1,
      "duration_ms" : 110560,
      "explicit" : false,
      "external_ids" : {
        "isrc" : "USLF50801386"
      },
      "external_urls" : {
        "spotify" : "https://open.spotify.com/track/39DnBsbVb4xwQ3ojFSvePF"
      },
      "href" : "https://api.spotify.com/v1/tracks/39DnBsbVb4xwQ3ojFSvePF",
      "id" : "39DnBsbVb4xwQ3ojFSvePF",
      "is_local" : false,
      "is_playable" : true,
      "name" : "Lead Me to Calvary",
      "popularity" : 12,
      "preview_url" : "https://p.scdn.co/mp3-preview/cb03d3a140efdcb7cba1825749de2de63b5d9284?cid=774b29d4f13844c495f206cafdad9c86",
      "track_number" : 5,
      "type" : "track",
      "uri" : "spotify:track:39DnBsbVb4xwQ3ojFSvePF"
    }, {
      "album" : {
        "album_type" : "album",
        "artists" : [ {
          "external_urls" : {
            "spotify" : "https://open.spotify.com/artist/1JIAVlXIuqqarZIT5vt5NQ"
          },
          "href" : "https://api.spotify.com/v1/artists/1JIAVlXIuqqarZIT5vt5NQ",
          "id" : "1JIAVlXIuqqarZIT5vt5NQ",
          "name" : "Terri Geisel",
          "type" : "artist",
          "uri" : "spotify:artist:1JIAVlXIuqqarZIT5vt5NQ"
        } ],
        "external_urls" : {
          "spotify" : "https://open.spotify.com/album/6UmP7L8jk00FPbKeKTJbNf"
        },
        "href" : "https://api.spotify.com/v1/albums/6UmP7L8jk00FPbKeKTJbNf",
        "id" : "6UmP7L8jk00FPbKeKTJbNf",
        "images" : [ {
          "height" : 640,
          "url" : "https://i.scdn.co/image/ab67616d0000b2731111676251069b13daeee450",
          "width" : 640
        }, {
          "height" : 300,
          "url" : "https://i.scdn.co/image/ab67616d00001e021111676251069b13daeee450",
          "width" : 300
        }, {
          "height" : 64,
          "url" : "https://i.scdn.co/image/ab67616d000048511111676251069b13daeee450",
          "width" : 64
        } ],
        "name" : "Sweet Worship Hymns and Instrumental Soaking Prayer Music",
        "release_date" : "2015-01-15",
        "release_date_precision" : "day",
        "total_tracks" : 16,
        "type" : "album",
        "uri" : "spotify:album:6UmP7L8jk00FPbKeKTJbNf"
      },
      "artists" : [ {
        "external_urls" : {
          "spotify" : "https://open.spotify.com/artist/1JIAVlXIuqqarZIT5vt5NQ"
        },
        "href" : "https://api.spotify.com/v1/artists/1JIAVlXIuqqarZIT5vt5NQ",
        "id" : "1JIAVlXIuqqarZIT5vt5NQ",
        "name" : "Terri Geisel",
        "type" : "artist",
        "uri" : "spotify:artist:1JIAVlXIuqqarZIT5vt5NQ"
      } ],
      "disc_number" : 1,
      "duration_ms" : 306050,
      "explicit" : false,
      "external_ids" : {
        "isrc" : "TCACD1526866"
      },
      "external_urls" : {
        "spotify" : "https://open.spotify.com/track/675fahCSpB7OPxyZcvlBCI"
      },
      "href" : "https://api.spotify.com/v1/tracks/675fahCSpB7OPxyZcvlBCI",
      "id" : "675fahCSpB7OPxyZcvlBCI",
      "is_local" : false,
      "is_playable" : true,
      "name" : "Lead Me to Calvary",
      "popularity" : 11,
      "preview_url" : "https://p.scdn.co/mp3-preview/2956cffb4a14a0fa7a878efc2d72c87224d77706?cid=774b29d4f13844c495f206cafdad9c86",
      "track_number" : 8,
      "type" : "track",
      "uri" : "spotify:track:675fahCSpB7OPxyZcvlBCI"
    }, {
      "album" : {
        "album_type" : "album",
        "artists" : [ {
          "external_urls" : {
            "spotify" : "https://open.spotify.com/artist/1MmubZDiFWXhOXz941cRRp"
          },
          "href" : "https://api.spotify.com/v1/artists/1MmubZDiFWXhOXz941cRRp",
          "id" : "1MmubZDiFWXhOXz941cRRp",
          "name" : "Our Daily Bread",
          "type" : "artist",
          "uri" : "spotify:artist:1MmubZDiFWXhOXz941cRRp"
        } ],
        "external_urls" : {
          "spotify" : "https://open.spotify.com/album/4Pu4TSZ3OGTytjifmu9WdC"
        },
        "href" : "https://api.spotify.com/v1/albums/4Pu4TSZ3OGTytjifmu9WdC",
        "id" : "4Pu4TSZ3OGTytjifmu9WdC",
        "images" : [ {
          "height" : 640,
          "url" : "https://i.scdn.co/image/ab67616d0000b27317d736905066747d3cba46cc",
          "width" : 640
        }, {
          "height" : 300,
          "url" : "https://i.scdn.co/image/ab67616d00001e0217d736905066747d3cba46cc",
          "width" : 300
        }, {
          "height" : 64,
          "url" : "https://i.scdn.co/image/ab67616d0000485117d736905066747d3cba46cc",
          "width" : 64
        } ],
        "name" : "Celtic Hymns",
        "release_date" : "2005-11-01",
        "release_date_precision" : "day",
        "total_tracks" : 11,
        "type" : "album",
        "uri" : "spotify:album:4Pu4TSZ3OGTytjifmu9WdC"
      },
      "artists" : [ {
        "external_urls" : {
          "spotify" : "https://open.spotify.com/artist/1MmubZDiFWXhOXz941cRRp"
        },
        "href" : "https://api.spotify.com/v1/artists/1MmubZDiFWXhOXz941cRRp",
        "id" : "1MmubZDiFWXhOXz941cRRp",
        "name" : "Our Daily Bread",
        "type" : "artist",
        "uri" : "spotify:artist:1MmubZDiFWXhOXz941cRRp"
      } ],
      "disc_number" : 1,
      "duration_ms" : 209226,
      "explicit" : false,
      "external_ids" : {
        "isrc" : "USDHM0602429"
      },
      "external_urls" : {
        "spotify" : "https://open.spotify.com/track/4oRcNJT2UIR3qCFmhzekXe"
      },
      "href" : "https://api.spotify.com/v1/tracks/4oRcNJT2UIR3qCFmhzekXe",
      "id" : "4oRcNJT2UIR3qCFmhzekXe",
      "is_local" : false,
      "is_playable" : true,
      "name" : "My Faith Looks Up to Thee / Lead Me to Calvary",
      "popularity" : 10,
      "preview_url" : "https://p.scdn.co/mp3-preview/23ed97f512d2ceffef17db8251d0d6423ad79a8f?cid=774b29d4f13844c495f206cafdad9c86",
      "track_number" : 8,
      "type" : "track",
      "uri" : "spotify:track:4oRcNJT2UIR3qCFmhzekXe"
    }, {
      "album" : {
        "album_type" : "album",
        "artists" : [ {
          "external_urls" : {
            "spotify" : "https://open.spotify.com/artist/4TS4Ys7NQq98iZykEXCFie"
          },
          "href" : "https://api.spotify.com/v1/artists/4TS4Ys7NQq98iZykEXCFie",
          "id" : "4TS4Ys7NQq98iZykEXCFie",
          "name" : "The Brent Rochester Family",
          "type" : "artist",
          "uri" : "spotify:artist:4TS4Ys7NQq98iZykEXCFie"
        } ],
        "external_urls" : {
          "spotify" : "https://open.spotify.com/album/1pxyyoUH3bbucJBL3i0bEf"
        },
        "href" : "https://api.spotify.com/v1/albums/1pxyyoUH3bbucJBL3i0bEf",
        "id" : "1pxyyoUH3bbucJBL3i0bEf",
        "images" : [ {
          "height" : 640,
          "url" : "https://i.scdn.co/image/ab67616d0000b273c16c35280b2d6b8166231d53",
          "width" : 640
        }, {
          "height" : 300,
          "url" : "https://i.scdn.co/image/ab67616d00001e02c16c35280b2d6b8166231d53",
          "width" : 300
        }, {
          "height" : 64,
          "url" : "https://i.scdn.co/image/ab67616d00004851c16c35280b2d6b8166231d53",
          "width" : 64
        } ],
        "name" : "Lead Me to Calvary",
        "release_date" : "2016-10-17",
        "release_date_precision" : "day",
        "total_tracks" : 12,
        "type" : "album",
        "uri" : "spotify:album:1pxyyoUH3bbucJBL3i0bEf"
      },
      "artists" : [ {
        "external_urls" : {
          "spotify" : "https://open.spotify.com/artist/4TS4Ys7NQq98iZykEXCFie"
        },
        "href" : "https://api.spotify.com/v1/artists/4TS4Ys7NQq98iZykEXCFie",
        "id" : "4TS4Ys7NQq98iZykEXCFie",
        "name" : "The Brent Rochester Family",
        "type" : "artist",
        "uri" : "spotify:artist:4TS4Ys7NQq98iZykEXCFie"
      } ],
      "disc_number" : 1,
      "duration_ms" : 212546,
      "explicit" : false,
      "external_ids" : {
        "isrc" : "QZ5WQ1600002"
      },
      "external_urls" : {
        "spotify" : "https://open.spotify.com/track/4PooMCD69GbVY0EGV0m1sc"
      },
      "href" : "https://api.spotify.com/v1/tracks/4PooMCD69GbVY0EGV0m1sc",
      "id" : "4PooMCD69GbVY0EGV0m1sc",
      "is_local" : false,
      "is_playable" : true,
      "name" : "He Strengthens Me",
      "popularity" : 9,
      "preview_url" : "https://p.scdn.co/mp3-preview/6762a96d9c6f9ac709f5cd7103cf97af51f30223?cid=774b29d4f13844c495f206cafdad9c86",
      "track_number" : 2,
      "type" : "track",
      "uri" : "spotify:track:4PooMCD69GbVY0EGV0m1sc"
    }, {
      "album" : {
        "album_type" : "album",
        "artists" : [ {
          "external_urls" : {
            "spotify" : "https://open.spotify.com/artist/06um8wdbBpbr6AEIv63vm1"
          },
          "href" : "https://api.spotify.com/v1/artists/06um8wdbBpbr6AEIv63vm1",
          "id" : "06um8wdbBpbr6AEIv63vm1",
          "name" : "Kaleb Brasee",
          "type" : "artist",
          "uri" : "spotify:artist:06um8wdbBpbr6AEIv63vm1"
        } ],
        "external_urls" : {
          "spotify" : "https://open.spotify.com/album/5O2JywWrCMpTfuBVfQC246"
        },
        "href" : "https://api.spotify.com/v1/albums/5O2JywWrCMpTfuBVfQC246",
        "id" : "5O2JywWrCMpTfuBVfQC246",
        "images" : [ {
          "height" : 640,
          "url" : "https://i.scdn.co/image/ab67616d0000b27386a94581367b65eb42b0f8e8",
          "width" : 640
        }, {
          "height" : 300,
          "url" : "https://i.scdn.co/image/ab67616d00001e0286a94581367b65eb42b0f8e8",
          "width" : 300
        }, {
          "height" : 64,
          "url" : "https://i.scdn.co/image/ab67616d0000485186a94581367b65eb42b0f8e8",
          "width" : 64
        } ],
        "name" : "He Is Risen! Hymns on Piano",
        "release_date" : "2016-03-03",
        "release_date_precision" : "day",
        "total_tracks" : 15,
        "type" : "album",
        "uri" : "spotify:album:5O2JywWrCMpTfuBVfQC246"
      },
      "artists" : [ {
        "external_urls" : {
          "spotify" : "https://open.spotify.com/artist/06um8wdbBpbr6AEIv63vm1"
        },
        "href" : "https://api.spotify.com/v1/artists/06um8wdbBpbr6AEIv63vm1",
        "id" : "06um8wdbBpbr6AEIv63vm1",
        "name" : "Kaleb Brasee",
        "type" : "artist",
        "uri" : "spotify:artist:06um8wdbBpbr6AEIv63vm1"
      } ],
      "disc_number" : 1,
      "duration_ms" : 154853,
      "explicit" : false,
      "external_ids" : {
        "isrc" : "QMPKX1684004"
      },
      "external_urls" : {
        "spotify" : "https://open.spotify.com/track/4EVc1HbLPHx1kRTnCSW9WL"
      },
      "href" : "https://api.spotify.com/v1/tracks/4EVc1HbLPHx1kRTnCSW9WL",
      "id" : "4EVc1HbLPHx1kRTnCSW9WL",
      "is_local" : false,
      "is_playable" : true,
      "name" : "Lead Me to Calvary",
      "popularity" : 13,
      "preview_url" : "https://p.scdn.co/mp3-preview/452a31d8498572b8d8859f4d5e1a5f29c6f5261e?cid=774b29d4f13844c495f206cafdad9c86",
      "track_number" : 4,
      "type" : "track",
      "uri" : "spotify:track:4EVc1HbLPHx1kRTnCSW9WL"
    }, {
      "album" : {
        "album_type" : "album",
        "artists" : [ {
          "external_urls" : {
            "spotify" : "https://open.spotify.com/artist/1bZKspL8h396R1WihOiPb5"
          },
          "href" : "https://api.spotify.com/v1/artists/1bZKspL8h396R1WihOiPb5",
          "id" : "1bZKspL8h396R1WihOiPb5",
          "name" : "The Soul Stirrers",
          "type" : "artist",
          "uri" : "spotify:artist:1bZKspL8h396R1WihOiPb5"
        } ],
        "external_urls" : {
          "spotify" : "https://open.spotify.com/album/77SOSnkJLGtgzyiQ1uuxCG"
        },
        "href" : "https://api.spotify.com/v1/albums/77SOSnkJLGtgzyiQ1uuxCG",
        "id" : "77SOSnkJLGtgzyiQ1uuxCG",
        "images" : [ {
          "height" : 640,
          "url" : "https://i.scdn.co/image/ab67616d0000b273350127dfd7e588cc56c99509",
          "width" : 640
        }, {
          "height" : 300,
          "url" : "https://i.scdn.co/image/ab67616d00001e02350127dfd7e588cc56c99509",
          "width" : 300
        }, {
          "height" : 64,
          "url" : "https://i.scdn.co/image/ab67616d00004851350127dfd7e588cc56c99509",
          "width" : 64
        } ],
        "name" : "Joy In My Soul: The Complete SAR Recordings",
        "release_date" : "1965-01-01",
        "release_date_precision" : "day",
        "total_tracks" : 33,
        "type" : "album",
        "uri" : "spotify:album:77SOSnkJLGtgzyiQ1uuxCG"
      },
      "artists" : [ {
        "external_urls" : {
          "spotify" : "https://open.spotify.com/artist/1bZKspL8h396R1WihOiPb5"
        },
        "href" : "https://api.spotify.com/v1/artists/1bZKspL8h396R1WihOiPb5",
        "id" : "1bZKspL8h396R1WihOiPb5",
        "name" : "The Soul Stirrers",
        "type" : "artist",
        "uri" : "spotify:artist:1bZKspL8h396R1WihOiPb5"
      } ],
      "disc_number" : 1,
      "duration_ms" : 174840,
      "explicit" : false,
      "external_ids" : {
        "isrc" : "USA171420033"
      },
      "external_urls" : {
        "spotify" : "https://open.spotify.com/track/4i17eAF2OelllqfMCsIWD7"
      },
      "href" : "https://api.spotify.com/v1/tracks/4i17eAF2OelllqfMCsIWD7",
      "id" : "4i17eAF2OelllqfMCsIWD7",
      "is_local" : false,
      "is_playable" : true,
      "name" : "Lead Me To Calvary",
      "popularity" : 7,
      "preview_url" : null,
      "track_number" : 31,
      "type" : "track",
      "uri" : "spotify:track:4i17eAF2OelllqfMCsIWD7"
    }, {
      "album" : {
        "album_type" : "album",
        "artists" : [ {
          "external_urls" : {
            "spotify" : "https://open.spotify.com/artist/4TS4Ys7NQq98iZykEXCFie"
          },
          "href" : "https://api.spotify.com/v1/artists/4TS4Ys7NQq98iZykEXCFie",
          "id" : "4TS4Ys7NQq98iZykEXCFie",
          "name" : "The Brent Rochester Family",
          "type" : "artist",
          "uri" : "spotify:artist:4TS4Ys7NQq98iZykEXCFie"
        } ],
        "external_urls" : {
          "spotify" : "https://open.spotify.com/album/1pxyyoUH3bbucJBL3i0bEf"
        },
        "href" : "https://api.spotify.com/v1/albums/1pxyyoUH3bbucJBL3i0bEf",
        "id" : "1pxyyoUH3bbucJBL3i0bEf",
        "images" : [ {
          "height" : 640,
          "url" : "https://i.scdn.co/image/ab67616d0000b273c16c35280b2d6b8166231d53",
          "width" : 640
        }, {
          "height" : 300,
          "url" : "https://i.scdn.co/image/ab67616d00001e02c16c35280b2d6b8166231d53",
          "width" : 300
        }, {
          "height" : 64,
          "url" : "https://i.scdn.co/image/ab67616d00004851c16c35280b2d6b8166231d53",
          "width" : 64
        } ],
        "name" : "Lead Me to Calvary",
        "release_date" : "2016-10-17",
        "release_date_precision" : "day",
        "total_tracks" : 12,
        "type" : "album",
        "uri" : "spotify:album:1pxyyoUH3bbucJBL3i0bEf"
      },
      "artists" : [ {
        "external_urls" : {
          "spotify" : "https://open.spotify.com/artist/4TS4Ys7NQq98iZykEXCFie"
        },
        "href" : "https://api.spotify.com/v1/artists/4TS4Ys7NQq98iZykEXCFie",
        "id" : "4TS4Ys7NQq98iZykEXCFie",
        "name" : "The Brent Rochester Family",
        "type" : "artist",
        "uri" : "spotify:artist:4TS4Ys7NQq98iZykEXCFie"
      } ],
      "disc_number" : 1,
      "duration_ms" : 221080,
      "explicit" : false,
      "external_ids" : {
        "isrc" : "QZ5WQ1600009"
      },
      "external_urls" : {
        "spotify" : "https://open.spotify.com/track/00oMPK6t237KNsVnQgxdFg"
      },
      "href" : "https://api.spotify.com/v1/tracks/00oMPK6t237KNsVnQgxdFg",
      "id" : "00oMPK6t237KNsVnQgxdFg",
      "is_local" : false,
      "is_playable" : true,
      "name" : "Scarlet Purple Robe",
      "popularity" : 9,
      "preview_url" : "https://p.scdn.co/mp3-preview/a4e01689e95ef29357ddee60987b1451e7a5779d?cid=774b29d4f13844c495f206cafdad9c86",
      "track_number" : 9,
      "type" : "track",
      "uri" : "spotify:track:00oMPK6t237KNsVnQgxdFg"
    }, {
      "album" : {
        "album_type" : "album",
        "artists" : [ {
          "external_urls" : {
            "spotify" : "https://open.spotify.com/artist/4TS4Ys7NQq98iZykEXCFie"
          },
          "href" : "https://api.spotify.com/v1/artists/4TS4Ys7NQq98iZykEXCFie",
          "id" : "4TS4Ys7NQq98iZykEXCFie",
          "name" : "The Brent Rochester Family",
          "type" : "artist",
          "uri" : "spotify:artist:4TS4Ys7NQq98iZykEXCFie"
        } ],
        "external_urls" : {
          "spotify" : "https://open.spotify.com/album/1pxyyoUH3bbucJBL3i0bEf"
        },
        "href" : "https://api.spotify.com/v1/albums/1pxyyoUH3bbucJBL3i0bEf",
        "id" : "1pxyyoUH3bbucJBL3i0bEf",
        "images" : [ {
          "height" : 640,
          "url" : "https://i.scdn.co/image/ab67616d0000b273c16c35280b2d6b8166231d53",
          "width" : 640
        }, {
          "height" : 300,
          "url" : "https://i.scdn.co/image/ab67616d00001e02c16c35280b2d6b8166231d53",
          "width" : 300
        }, {
          "height" : 64,
          "url" : "https://i.scdn.co/image/ab67616d00004851c16c35280b2d6b8166231d53",
          "width" : 64
        } ],
        "name" : "Lead Me to Calvary",
        "release_date" : "2016-10-17",
        "release_date_precision" : "day",
        "total_tracks" : 12,
        "type" : "album",
        "uri" : "spotify:album:1pxyyoUH3bbucJBL3i0bEf"
      },
      "artists" : [ {
        "external_urls" : {
          "spotify" : "https://open.spotify.com/artist/4TS4Ys7NQq98iZykEXCFie"
        },
        "href" : "https://api.spotify.com/v1/artists/4TS4Ys7NQq98iZykEXCFie",
        "id" : "4TS4Ys7NQq98iZykEXCFie",
        "name" : "The Brent Rochester Family",
        "type" : "artist",
        "uri" : "spotify:artist:4TS4Ys7NQq98iZykEXCFie"
      } ],
      "disc_number" : 1,
      "duration_ms" : 174346,
      "explicit" : false,
      "external_ids" : {
        "isrc" : "QZ5WQ1600003"
      },
      "external_urls" : {
        "spotify" : "https://open.spotify.com/track/3B4Kgjn4Qrh33TO6bKOxUi"
      },
      "href" : "https://api.spotify.com/v1/tracks/3B4Kgjn4Qrh33TO6bKOxUi",
      "id" : "3B4Kgjn4Qrh33TO6bKOxUi",
      "is_local" : false,
      "is_playable" : true,
      "name" : "Seeking the Lost",
      "popularity" : 11,
      "preview_url" : "https://p.scdn.co/mp3-preview/00e41604a05104c13795ad12acb7aba3cd3923d9?cid=774b29d4f13844c495f206cafdad9c86",
      "track_number" : 3,
      "type" : "track",
      "uri" : "spotify:track:3B4Kgjn4Qrh33TO6bKOxUi"
    }, {
      "album" : {
        "album_type" : "album",
        "artists" : [ {
          "external_urls" : {
            "spotify" : "https://open.spotify.com/artist/4TS4Ys7NQq98iZykEXCFie"
          },
          "href" : "https://api.spotify.com/v1/artists/4TS4Ys7NQq98iZykEXCFie",
          "id" : "4TS4Ys7NQq98iZykEXCFie",
          "name" : "The Brent Rochester Family",
          "type" : "artist",
          "uri" : "spotify:artist:4TS4Ys7NQq98iZykEXCFie"
        } ],
        "external_urls" : {
          "spotify" : "https://open.spotify.com/album/1pxyyoUH3bbucJBL3i0bEf"
        },
        "href" : "https://api.spotify.com/v1/albums/1pxyyoUH3bbucJBL3i0bEf",
        "id" : "1pxyyoUH3bbucJBL3i0bEf",
        "images" : [ {
          "height" : 640,
          "url" : "https://i.scdn.co/image/ab67616d0000b273c16c35280b2d6b8166231d53",
          "width" : 640
        }, {
          "height" : 300,
          "url" : "https://i.scdn.co/image/ab67616d00001e02c16c35280b2d6b8166231d53",
          "width" : 300
        }, {
          "height" : 64,
          "url" : "https://i.scdn.co/image/ab67616d00004851c16c35280b2d6b8166231d53",
          "width" : 64
        } ],
        "name" : "Lead Me to Calvary",
        "release_date" : "2016-10-17",
        "release_date_precision" : "day",
        "total_tracks" : 12,
        "type" : "album",
        "uri" : "spotify:album:1pxyyoUH3bbucJBL3i0bEf"
      },
      "artists" : [ {
        "external_urls" : {
          "spotify" : "https://open.spotify.com/artist/4TS4Ys7NQq98iZykEXCFie"
        },
        "href" : "https://api.spotify.com/v1/artists/4TS4Ys7NQq98iZykEXCFie",
        "id" : "4TS4Ys7NQq98iZykEXCFie",
        "name" : "The Brent Rochester Family",
        "type" : "artist",
        "uri" : "spotify:artist:4TS4Ys7NQq98iZykEXCFie"
      } ],
      "disc_number" : 1,
      "duration_ms" : 230920,
      "explicit" : false,
      "external_ids" : {
        "isrc" : "QZ5WQ1600010"
      },
      "external_urls" : {
        "spotify" : "https://open.spotify.com/track/4WLug7PoJqdb3qCdktBBrx"
      },
      "href" : "https://api.spotify.com/v1/tracks/4WLug7PoJqdb3qCdktBBrx",
      "id" : "4WLug7PoJqdb3qCdktBBrx",
      "is_local" : false,
      "is_playable" : true,
      "name" : "Down from His Glory",
      "popularity" : 10,
      "preview_url" : "https://p.scdn.co/mp3-preview/ba7ba7260500bf81d5aaec7f94ea155e84d627f5?cid=774b29d4f13844c495f206cafdad9c86",
      "track_number" : 10,
      "type" : "track",
      "uri" : "spotify:track:4WLug7PoJqdb3qCdktBBrx"
    }, {
      "album" : {
        "album_type" : "album",
        "artists" : [ {
          "external_urls" : {
            "spotify" : "https://open.spotify.com/artist/7HDwWB9AsuPIeP9EPbCj4f"
          },
          "href" : "https://api.spotify.com/v1/artists/7HDwWB9AsuPIeP9EPbCj4f",
          "id" : "7HDwWB9AsuPIeP9EPbCj4f",
          "name" : "Shelly Hamilton",
          "type" : "artist",
          "uri" : "spotify:artist:7HDwWB9AsuPIeP9EPbCj4f"
        }, {
          "external_urls" : {
            "spotify" : "https://open.spotify.com/artist/3BwYNW15CmlEEKsfiwWgP4"
          },
          "href" : "https://api.spotify.com/v1/artists/3BwYNW15CmlEEKsfiwWgP4",
          "id" : "3BwYNW15CmlEEKsfiwWgP4",
          "name" : "Majesty Orchestra",
          "type" : "artist",
          "uri" : "spotify:artist:3BwYNW15CmlEEKsfiwWgP4"
        } ],
        "external_urls" : {
          "spotify" : "https://open.spotify.com/album/42tsGD2m5pXDWoXYw4Nuuh"
        },
        "href" : "https://api.spotify.com/v1/albums/42tsGD2m5pXDWoXYw4Nuuh",
        "id" : "42tsGD2m5pXDWoXYw4Nuuh",
        "images" : [ {
          "height" : 640,
          "url" : "https://i.scdn.co/image/ab67616d0000b273cb680b34da8f1cecd66f8e08",
          "width" : 640
        }, {
          "height" : 300,
          "url" : "https://i.scdn.co/image/ab67616d00001e02cb680b34da8f1cecd66f8e08",
          "width" : 300
        }, {
          "height" : 64,
          "url" : "https://i.scdn.co/image/ab67616d00004851cb680b34da8f1cecd66f8e08",
          "width" : 64
        } ],
        "name" : "Majesty Masterpieces",
        "release_date" : "2013-07-01",
        "release_date_precision" : "day",
        "total_tracks" : 12,
        "type" : "album",
        "uri" : "spotify:album:42tsGD2m5pXDWoXYw4Nuuh"
      },
      "artists" : [ {
        "external_urls" : {
          "spotify" : "https://open.spotify.com/artist/7HDwWB9AsuPIeP9EPbCj4f"
        },
        "href" : "https://api.spotify.com/v1/artists/7HDwWB9AsuPIeP9EPbCj4f",
        "id" : "7HDwWB9AsuPIeP9EPbCj4f",
        "name" : "Shelly Hamilton",
        "type" : "artist",
        "uri" : "spotify:artist:7HDwWB9AsuPIeP9EPbCj4f"
      }, {
        "external_urls" : {
          "spotify" : "https://open.spotify.com/artist/3BwYNW15CmlEEKsfiwWgP4"
        },
        "href" : "https://api.spotify.com/v1/artists/3BwYNW15CmlEEKsfiwWgP4",
        "id" : "3BwYNW15CmlEEKsfiwWgP4",
        "name" : "Majesty Orchestra",
        "type" : "artist",
        "uri" : "spotify:artist:3BwYNW15CmlEEKsfiwWgP4"
      } ],
      "disc_number" : 1,
      "duration_ms" : 206266,
      "explicit" : false,
      "external_ids" : {
        "isrc" : "usx9p1331209"
      },
      "external_urls" : {
        "spotify" : "https://open.spotify.com/track/3erfv9PPsPWrRJp01Blci3"
      },
      "href" : "https://api.spotify.com/v1/tracks/3erfv9PPsPWrRJp01Blci3",
      "id" : "3erfv9PPsPWrRJp01Blci3",
      "is_local" : false,
      "is_playable" : true,
      "name" : "Lead Me to Calvary",
      "popularity" : 7,
      "preview_url" : "https://p.scdn.co/mp3-preview/e21b7c4c006d605928ad3163e172b429fb65ac09?cid=774b29d4f13844c495f206cafdad9c86",
      "track_number" : 11,
      "type" : "track",
      "uri" : "spotify:track:3erfv9PPsPWrRJp01Blci3"
    } ],
    "limit" : 10,
    "next" : "https://api.spotify.com/v1/search?query=Lead+Me+to+Calvary&type=track&market=US&offset=15&limit=10",
    "offset" : 5,
    "previous" : "https://api.spotify.com/v1/search?query=Lead+Me+to+Calvary&type=track&market=US&offset=0&limit=10",
    "total" : 172
  }
}