{
  "tracks" : {
    "href" : "https://api.spotify.com/v1/search?query=I%E2%80%99m+But+a+Stranger+Here&type=track&market=US&offset=5&limit=10",
    "items" : [ {
      "album" : {
        "album_type" : "album",
        "artists" : [ {
          "external_urls" : {
            "spotify" : "https://open.spotify.com/artist/2AocWx5pyaB8bnSiQe06ZG"
          },
          "href" : "https://api.spotify.com/v1/artists/2AocWx5pyaB8bnSiQe06ZG",
          "id" : "2AocWx5pyaB8bnSiQe06ZG",
          "name" : "Kirk Meyer",
          "type" : "artist",
          "uri" : "spotify:artist:2AocWx5pyaB8bnSiQe06ZG"
        } ],
        "external_urls" : {
          "spotify" : "https://open.spotify.com/album/76bNp4fopKs1tr2QAyXcWc"
        },
        "href" : "https://api.spotify.com/v1/albums/76bNp4fopKs1tr2QAyXcWc",
        "id" : "76bNp4fopKs1tr2QAyXcWc",
        "images" : [ {
          "height" : 640,
          "url" : "https://i.scdn.co/image/ab67616d0000b2735c7a30959f711a84bf911aa5",
          "width" : 640
        }, {
          "height" : 300,
          "url" : "https://i.scdn.co/image/ab67616d00001e025c7a30959f711a84bf911aa5",
          "width" : 300
        }, {
          "height" : 64,
          "url" : "https://i.scdn.co/image/ab67616d000048515c7a30959f711a84bf911aa5",
          "width" : 64
        } ],
        "name" : "The Heavens Declare His Glory",
        "release_date" : "2004-01-01",
        "release_date_precision" : "day",
        "total_tracks" : 80,
        "type" : "album",
        "uri" : "spotify:album:76bNp4fopKs1tr2QAyXcWc"
      },
      "artists" : [ {
        "external_urls" : {
          "spotify" : "https://open.spotify.com/artist/2AocWx5pyaB8bnSiQe06ZG"
        },
        "href" : "https://api.spotify.com/v1/artists/2AocWx5pyaB8bnSiQe06ZG",
        "id" : "2AocWx5pyaB8bnSiQe06ZG",
        "name" : "Kirk Meyer",
        "type" : "artist",
        "uri" : "spotify:artist:2AocWx5pyaB8bnSiQe06ZG"
      } ],
      "disc_number" : 1,
      "duration_ms" : 67400,
      "explicit" : false,
      "external_ids" : {
        "isrc" : "ushm20536029"
      },
      "external_urls" : {
        "spotify" : "https://open.spotify.com/track/69GgLPjDmYO7rIPDe3R8Ga"
      },
      "href" : "https://api.spotify.com/v1/tracks/69GgLPjDmYO7rIPDe3R8Ga",
      "id" : "69GgLPjDmYO7rIPDe3R8Ga",
      "is_local" : false,
      "is_playable" : true,
      "name" : "I'm But a Stranger Here",
      "popularity" : 0,
      "preview_url" : "https://p.scdn.co/mp3-preview/749850d6c02b95832eb67b39c7b8dbe19a6dac01?cid=774b29d4f13844c495f206cafdad9c86",
      "track_number" : 56,
      "type" : "track",
      "uri" : "spotify:track:69GgLPjDmYO7rIPDe3R8Ga"
    }, {
      "album" : {
        "album_type" : "album",
        "artists" : [ {
          "external_urls" : {
            "spotify" : "https://open.spotify.com/artist/20rlbkwNSoLrLqQUR7GRcT"
          },
          "href" : "https://api.spotify.com/v1/artists/20rlbkwNSoLrLqQUR7GRcT",
          "id" : "20rlbkwNSoLrLqQUR7GRcT",
          "name" : "Mother’s Lullaby",
          "type" : "artist",
          "uri" : "spotify:artist:20rlbkwNSoLrLqQUR7GRcT"
        } ],
        "external_urls" : {
          "spotify" : "https://open.spotify.com/album/60nqL8eWiwSGJWOSKfz7cl"
        },
        "href" : "https://api.spotify.com/v1/albums/60nqL8eWiwSGJWOSKfz7cl",
        "id" : "60nqL8eWiwSGJWOSKfz7cl",
        "images" : [ {
          "height" : 640,
          "url" : "https://i.scdn.co/image/ab67616d0000b2734020cee22cee5c13a443380f",
          "width" : 640
        }, {
          "height" : 300,
          "url" : "https://i.scdn.co/image/ab67616d00001e024020cee22cee5c13a443380f",
          "width" : 300
        }, {
          "height" : 64,
          "url" : "https://i.scdn.co/image/ab67616d000048514020cee22cee5c13a443380f",
          "width" : 64
        } ],
        "name" : "Hymns Vol.15 (#281~#300)",
        "release_date" : "2019-06-11",
        "release_date_precision" : "day",
        "total_tracks" : 20,
        "type" : "album",
        "uri" : "spotify:album:60nqL8eWiwSGJWOSKfz7cl"
      },
      "artists" : [ {
        "external_urls" : {
          "spotify" : "https://open.spotify.com/artist/20rlbkwNSoLrLqQUR7GRcT"
        },
        "href" : "https://api.spotify.com/v1/artists/20rlbkwNSoLrLqQUR7GRcT",
        "id" : "20rlbkwNSoLrLqQUR7GRcT",
        "name" : "Mother’s Lullaby",
        "type" : "artist",
        "uri" : "spotify:artist:20rlbkwNSoLrLqQUR7GRcT"
      } ],
      "disc_number" : 1,
      "duration_ms" : 116086,
      "explicit" : false,
      "external_ids" : {
        "isrc" : "QZEKE1865271"
      },
      "external_urls" : {
        "spotify" : "https://open.spotify.com/track/1tk8Qvdh0qfR7Zsj50K9r2"
      },
      "href" : "https://api.spotify.com/v1/tracks/1tk8Qvdh0qfR7Zsj50K9r2",
      "id" : "1tk8Qvdh0qfR7Zsj50K9r2",
      "is_local" : false,
      "is_playable" : true,
      "name" : "I'm But a Stranger Here",
      "popularity" : 0,
      "preview_url" : "https://p.scdn.co/mp3-preview/c4b0f31467e9cc68f162465a10fae5f631a2e9b2?cid=774b29d4f13844c495f206cafdad9c86",
      "track_number" : 10,
      "type" : "track",
      "uri" : "spotify:track:1tk8Qvdh0qfR7Zsj50K9r2"
    }, {
      "album" : {
        "album_type" : "album",
        "artists" : [ {
          "external_urls" : {
            "spotify" : "https://open.spotify.com/artist/6hGyBS6aw2CrjbQGaP8nel"
          },
          "href" : "https://api.spotify.com/v1/artists/6hGyBS6aw2CrjbQGaP8nel",
          "id" : "6hGyBS6aw2CrjbQGaP8nel",
          "name" : "Julie",
          "type" : "artist",
          "uri" : "spotify:artist:6hGyBS6aw2CrjbQGaP8nel"
        } ],
        "external_urls" : {
          "spotify" : "https://open.spotify.com/album/4SFvIoQ2vxSaCdM8Pfq9cY"
        },
        "href" : "https://api.spotify.com/v1/albums/4SFvIoQ2vxSaCdM8Pfq9cY",
        "id" : "4SFvIoQ2vxSaCdM8Pfq9cY",
        "images" : [ {
          "height" : 640,
          "url" : "https://i.scdn.co/image/ab67616d0000b273ceb990ec34949106920e8a5f",
          "width" : 640
        }, {
          "height" : 300,
          "url" : "https://i.scdn.co/image/ab67616d00001e02ceb990ec34949106920e8a5f",
          "width" : 300
        }, {
          "height" : 64,
          "url" : "https://i.scdn.co/image/ab67616d00004851ceb990ec34949106920e8a5f",
          "width" : 64
        } ],
        "name" : "Moment By Moment",
        "release_date" : "2005",
        "release_date_precision" : "year",
        "total_tracks" : 11,
        "type" : "album",
        "uri" : "spotify:album:4SFvIoQ2vxSaCdM8Pfq9cY"
      },
      "artists" : [ {
        "external_urls" : {
          "spotify" : "https://open.spotify.com/artist/6hGyBS6aw2CrjbQGaP8nel"
        },
        "href" : "https://api.spotify.com/v1/artists/6hGyBS6aw2CrjbQGaP8nel",
        "id" : "6hGyBS6aw2CrjbQGaP8nel",
        "name" : "Julie",
        "type" : "artist",
        "uri" : "spotify:artist:6hGyBS6aw2CrjbQGaP8nel"
      } ],
      "disc_number" : 1,
      "duration_ms" : 306186,
      "explicit" : false,
      "external_ids" : {
        "isrc" : "ushm90852061"
      },
      "external_urls" : {
        "spotify" : "https://open.spotify.com/track/614lGuiZTLYPxrfcK9AhZk"
      },
      "href" : "https://api.spotify.com/v1/tracks/614lGuiZTLYPxrfcK9AhZk",
      "id" : "614lGuiZTLYPxrfcK9AhZk",
      "is_local" : false,
      "is_playable" : true,
      "name" : "I'm But A Stranger Here",
      "popularity" : 0,
      "preview_url" : "https://p.scdn.co/mp3-preview/f1efb5b6d546d8192acdb2f0b539568c3fccdc29?cid=774b29d4f13844c495f206cafdad9c86",
      "track_number" : 2,
      "type" : "track",
      "uri" : "spotify:track:614lGuiZTLYPxrfcK9AhZk"
    }, {
      "album" : {
        "album_type" : "single",
        "artists" : [ {
          "external_urls" : {
            "spotify" : "https://open.spotify.com/artist/386P3892gHt4jucpdWKUyZ"
          },
          "href" : "https://api.spotify.com/v1/artists/386P3892gHt4jucpdWKUyZ",
          "id" : "386P3892gHt4jucpdWKUyZ",
          "name" : "Vladimir Khlysta Jazz Quartet",
          "type" : "artist",
          "uri" : "spotify:artist:386P3892gHt4jucpdWKUyZ"
        } ],
        "external_urls" : {
          "spotify" : "https://open.spotify.com/album/5xdKnhVAs12HJC8l0FJFIv"
        },
        "href" : "https://api.spotify.com/v1/albums/5xdKnhVAs12HJC8l0FJFIv",
        "id" : "5xdKnhVAs12HJC8l0FJFIv",
        "images" : [ {
          "height" : 640,
          "url" : "https://i.scdn.co/image/ab67616d0000b273940eeacba512b35c7985a682",
          "width" : 640
        }, {
          "height" : 300,
          "url" : "https://i.scdn.co/image/ab67616d00001e02940eeacba512b35c7985a682",
          "width" : 300
        }, {
          "height" : 64,
          "url" : "https://i.scdn.co/image/ab67616d00004851940eeacba512b35c7985a682",
          "width" : 64
        } ],
        "name" : "Favorite Hymns in Jazz",
        "release_date" : "2017-08-29",
        "release_date_precision" : "day",
        "total_tracks" : 11,
        "type" : "album",
        "uri" : "spotify:album:5xdKnhVAs12HJC8l0FJFIv"
      },
      "artists" : [ {
        "external_urls" : {
          "spotify" : "https://open.spotify.com/artist/386P3892gHt4jucpdWKUyZ"
        },
        "href" : "https://api.spotify.com/v1/artists/386P3892gHt4jucpdWKUyZ",
        "id" : "386P3892gHt4jucpdWKUyZ",
        "name" : "Vladimir Khlysta Jazz Quartet",
        "type" : "artist",
        "uri" : "spotify:artist:386P3892gHt4jucpdWKUyZ"
      } ],
      "disc_number" : 1,
      "duration_ms" : 209270,
      "explicit" : false,
      "external_ids" : {
        "isrc" : "RUA3R1703742"
      },
      "external_urls" : {
        "spotify" : "https://open.spotify.com/track/2oamn34Vu0o5414aeHbyjS"
      },
      "href" : "https://api.spotify.com/v1/tracks/2oamn34Vu0o5414aeHbyjS",
      "id" : "2oamn34Vu0o5414aeHbyjS",
      "is_local" : false,
      "is_playable" : true,
      "name" : "I'm but a Stranger Here",
      "popularity" : 1,
      "preview_url" : "https://p.scdn.co/mp3-preview/c0e8ff2bf6fb9a31737f438e6465f81e4bd59ae8?cid=774b29d4f13844c495f206cafdad9c86",
      "track_number" : 9,
      "type" : "track",
      "uri" : "spotify:track:2oamn34Vu0o5414aeHbyjS"
    }, {
      "album" : {
        "album_type" : "album",
        "artists" : [ {
          "external_urls" : {
            "spotify" : "https://open.spotify.com/artist/2x0QHABqKaBBvAOzvoevXJ"
          },
          "href" : "https://api.spotify.com/v1/artists/2x0QHABqKaBBvAOzvoevXJ",
          "id" : "2x0QHABqKaBBvAOzvoevXJ",
          "name" : "The Scottish Festival Singers",
          "type" : "artist",
          "uri" : "spotify:artist:2x0QHABqKaBBvAOzvoevXJ"
        } ],
        "external_urls" : {
          "spotify" : "https://open.spotify.com/album/2pw8rL5XXupQWqXmyXBLdS"
        },
        "href" : "https://api.spotify.com/v1/albums/2pw8rL5XXupQWqXmyXBLdS",
        "id" : "2pw8rL5XXupQWqXmyXBLdS",
        "images" : [ {
          "height" : 640,
          "url" : "https://i.scdn.co/image/ab67616d0000b273ba2be96d9e53203e65a45bc3",
          "width" : 640
        }, {
          "height" : 300,
          "url" : "https://i.scdn.co/image/ab67616d00001e02ba2be96d9e53203e65a45bc3",
          "width" : 300
        }, {
          "height" : 64,
          "url" : "https://i.scdn.co/image/ab67616d00004851ba2be96d9e53203e65a45bc3",
          "width" : 64
        } ],
        "name" : "The Hymn Makers - Arthur Seymour Sullivan",
        "release_date" : "2000",
        "release_date_precision" : "year",
        "total_tracks" : 14,
        "type" : "album",
        "uri" : "spotify:album:2pw8rL5XXupQWqXmyXBLdS"
      },
      "artists" : [ {
        "external_urls" : {
          "spotify" : "https://open.spotify.com/artist/2x0QHABqKaBBvAOzvoevXJ"
        },
        "href" : "https://api.spotify.com/v1/artists/2x0QHABqKaBBvAOzvoevXJ",
        "id" : "2x0QHABqKaBBvAOzvoevXJ",
        "name" : "The Scottish Festival Singers",
        "type" : "artist",
        "uri" : "spotify:artist:2x0QHABqKaBBvAOzvoevXJ"
      } ],
      "disc_number" : 1,
      "duration_ms" : 210506,
      "explicit" : false,
      "external_ids" : {
        "isrc" : "GBBTM0027711"
      },
      "external_urls" : {
        "spotify" : "https://open.spotify.com/track/33PIy1pDF4xG0WtqSu1rb1"
      },
      "href" : "https://api.spotify.com/v1/tracks/33PIy1pDF4xG0WtqSu1rb1",
      "id" : "33PIy1pDF4xG0WtqSu1rb1",
      "is_local" : false,
      "is_playable" : true,
      "name" : "I'm But a Stranger Here",
      "popularity" : 0,
      "preview_url" : "https://p.scdn.co/mp3-preview/2112bca24790602c442a8b79448e2396593cfff2?cid=774b29d4f13844c495f206cafdad9c86",
      "track_number" : 11,
      "type" : "track",
      "uri" : "spotify:track:33PIy1pDF4xG0WtqSu1rb1"
    }, {
      "album" : {
        "album_type" : "album",
        "artists" : [ {
          "external_urls" : {
            "spotify" : "https://open.spotify.com/artist/6ixtJpVnRZnGKIYGhUppx1"
          },
          "href" : "https://api.spotify.com/v1/artists/6ixtJpVnRZnGKIYGhUppx1",
          "id" : "6ixtJpVnRZnGKIYGhUppx1",
          "name" : "Christian Family Band",
          "type" : "artist",
          "uri" : "spotify:artist:6ixtJpVnRZnGKIYGhUppx1"
        } ],
        "external_urls" : {
          "spotify" : "https://open.spotify.com/album/4KJ7DiESpiItDMh02c6GFf"
        },
        "href" : "https://api.spotify.com/v1/albums/4KJ7DiESpiItDMh02c6GFf",
        "id" : "4KJ7DiESpiItDMh02c6GFf",
        "images" : [ {
          "height" : 640,
          "url" : "https://i.scdn.co/image/ab67616d0000b2737d7632dd6d6b2904525ee32a",
          "width" : 640
        }, {
          "height" : 300,
          "url" : "https://i.scdn.co/image/ab67616d00001e027d7632dd6d6b2904525ee32a",
          "width" : 300
        }, {
          "height" : 64,
          "url" : "https://i.scdn.co/image/ab67616d000048517d7632dd6d6b2904525ee32a",
          "width" : 64
        } ],
        "name" : "Christian Music, Vol. 4 (Special Edition)",
        "release_date" : "2013-03-26",
        "release_date_precision" : "day",
        "total_tracks" : 17,
        "type" : "album",
        "uri" : "spotify:album:4KJ7DiESpiItDMh02c6GFf"
      },
      "artists" : [ {
        "external_urls" : {
          "spotify" : "https://open.spotify.com/artist/6ixtJpVnRZnGKIYGhUppx1"
        },
        "href" : "https://api.spotify.com/v1/artists/6ixtJpVnRZnGKIYGhUppx1",
        "id" : "6ixtJpVnRZnGKIYGhUppx1",
        "name" : "Christian Family Band",
        "type" : "artist",
        "uri" : "spotify:artist:6ixtJpVnRZnGKIYGhUppx1"
      } ],
      "disc_number" : 1,
      "duration_ms" : 137925,
      "explicit" : false,
      "external_ids" : {
        "isrc" : "USA561393925"
      },
      "external_urls" : {
        "spotify" : "https://open.spotify.com/track/4Gi4QJCcOFS2vp25kt7wrC"
      },
      "href" : "https://api.spotify.com/v1/tracks/4Gi4QJCcOFS2vp25kt7wrC",
      "id" : "4Gi4QJCcOFS2vp25kt7wrC",
      "is_local" : false,
      "is_playable" : true,
      "name" : "I'm But a Stranger Here",
      "popularity" : 0,
      "preview_url" : "https://p.scdn.co/mp3-preview/9585bf19089ea00516528f934c42c726f80e44d5?cid=774b29d4f13844c495f206cafdad9c86",
      "track_number" : 2,
      "type" : "track",
      "uri" : "spotify:track:4Gi4QJCcOFS2vp25kt7wrC"
    }, {
      "album" : {
        "album_type" : "single",
        "artists" : [ {
          "external_urls" : {
            "spotify" : "https://open.spotify.com/artist/7Gbhs14qEzheeN71lJ1kXt"
          },
          "href" : "https://api.spotify.com/v1/artists/7Gbhs14qEzheeN71lJ1kXt",
          "id" : "7Gbhs14qEzheeN71lJ1kXt",
          "name" : "Waldham Grove Orchestra",
          "type" : "artist",
          "uri" : "spotify:artist:7Gbhs14qEzheeN71lJ1kXt"
        } ],
        "external_urls" : {
          "spotify" : "https://open.spotify.com/album/51fAW343x5U6PhjNnRblDF"
        },
        "href" : "https://api.spotify.com/v1/albums/51fAW343x5U6PhjNnRblDF",
        "id" : "51fAW343x5U6PhjNnRblDF",
        "images" : [ {
          "height" : 640,
          "url" : "https://i.scdn.co/image/ab67616d0000b27323ed315f48c64e8d0653518f",
          "width" : 640
        }, {
          "height" : 300,
          "url" : "https://i.scdn.co/image/ab67616d00001e0223ed315f48c64e8d0653518f",
          "width" : 300
        }, {
          "height" : 64,
          "url" : "https://i.scdn.co/image/ab67616d0000485123ed315f48c64e8d0653518f",
          "width" : 64
        } ],
        "name" : "Hymns of Heaven",
        "release_date" : "2016-01-31",
        "release_date_precision" : "day",
        "total_tracks" : 4,
        "type" : "album",
        "uri" : "spotify:album:51fAW343x5U6PhjNnRblDF"
      },
      "artists" : [ {
        "external_urls" : {
          "spotify" : "https://open.spotify.com/artist/7Gbhs14qEzheeN71lJ1kXt"
        },
        "href" : "https://api.spotify.com/v1/artists/7Gbhs14qEzheeN71lJ1kXt",
        "id" : "7Gbhs14qEzheeN71lJ1kXt",
        "name" : "Waldham Grove Orchestra",
        "type" : "artist",
        "uri" : "spotify:artist:7Gbhs14qEzheeN71lJ1kXt"
      } ],
      "disc_number" : 1,
      "duration_ms" : 149491,
      "explicit" : false,
      "external_ids" : {
        "isrc" : "QMPKX1641453"
      },
      "external_urls" : {
        "spotify" : "https://open.spotify.com/track/7B7gdPRY3UsbsteY7ITS7n"
      },
      "href" : "https://api.spotify.com/v1/tracks/7B7gdPRY3UsbsteY7ITS7n",
      "id" : "7B7gdPRY3UsbsteY7ITS7n",
      "is_local" : false,
      "is_playable" : true,
      "name" : "I'm but a Stranger Here",
      "popularity" : 0,
      "preview_url" : "https://p.scdn.co/mp3-preview/b663874e90db34e6a4086ca2563032771ba2084a?cid=774b29d4f13844c495f206cafdad9c86",
      "track_number" : 3,
      "type" : "track",
      "uri" : "spotify:track:7B7gdPRY3UsbsteY7ITS7n"
    }, {
      "album" : {
        "album_type" : "compilation",
        "artists" : [ {
          "external_urls" : {
            "spotify" : "https://open.spotify.com/artist/0LyfQWJT6nXafLPZqxe9Of"
          },
          "href" : "https://api.spotify.com/v1/artists/0LyfQWJT6nXafLPZqxe9Of",
          "id" : "0LyfQWJT6nXafLPZqxe9Of",
          "name" : "Various Artists",
          "type" : "artist",
          "uri" : "spotify:artist:0LyfQWJT6nXafLPZqxe9Of"
        } ],
        "external_urls" : {
          "spotify" : "https://open.spotify.com/album/5MO4uHF7jVkcuQko9q8gVy"
        },
        "href" : "https://api.spotify.com/v1/albums/5MO4uHF7jVkcuQko9q8gVy",
        "id" : "5MO4uHF7jVkcuQko9q8gVy",
        "images" : [ {
          "height" : 640,
          "url" : "https://i.scdn.co/image/ab67616d0000b27308c154c4927f1bd34a5539d7",
          "width" : 640
        }, {
          "height" : 300,
          "url" : "https://i.scdn.co/image/ab67616d00001e0208c154c4927f1bd34a5539d7",
          "width" : 300
        }, {
          "height" : 64,
          "url" : "https://i.scdn.co/image/ab67616d0000485108c154c4927f1bd34a5539d7",
          "width" : 64
        } ],
        "name" : "Folk Music of the Newport Folk Festival, Vol. 1",
        "release_date" : "1961-01-01",
        "release_date_precision" : "day",
        "total_tracks" : 11,
        "type" : "album",
        "uri" : "spotify:album:5MO4uHF7jVkcuQko9q8gVy"
      },
      "artists" : [ {
        "external_urls" : {
          "spotify" : "https://open.spotify.com/artist/79cCLD3tqvinoymirlfGbB"
        },
        "href" : "https://api.spotify.com/v1/artists/79cCLD3tqvinoymirlfGbB",
        "id" : "79cCLD3tqvinoymirlfGbB",
        "name" : "Willie Thomas and Butch Cage",
        "type" : "artist",
        "uri" : "spotify:artist:79cCLD3tqvinoymirlfGbB"
      } ],
      "disc_number" : 1,
      "duration_ms" : 184386,
      "explicit" : false,
      "external_ids" : {
        "isrc" : "USSF16143103"
      },
      "external_urls" : {
        "spotify" : "https://open.spotify.com/track/4Z3cfr5fhjMQbZ9UglTbIA"
      },
      "href" : "https://api.spotify.com/v1/tracks/4Z3cfr5fhjMQbZ9UglTbIA",
      "id" : "4Z3cfr5fhjMQbZ9UglTbIA",
      "is_local" : false,
      "is_playable" : true,
      "name" : "Stranger Blues (I'm a Stranger Here)",
      "popularity" : 0,
      "preview_url" : "https://p.scdn.co/mp3-preview/0968163afd8b4c05665ed89b6d58ca7e5d8934a1?cid=774b29d4f13844c495f206cafdad9c86",
      "track_number" : 3,
      "type" : "track",
      "uri" : "spotify:track:4Z3cfr5fhjMQbZ9UglTbIA"
    }, {
      "album" : {
        "album_type" : "album",
        "artists" : [ {
          "external_urls" : {
            "spotify" : "https://open.spotify.com/artist/0Nc79lkTxXLSIIHDB8mqJC"
          },
          "href" : "https://api.spotify.com/v1/artists/0Nc79lkTxXLSIIHDB8mqJC",
          "id" : "0Nc79lkTxXLSIIHDB8mqJC",
          "name" : "Tiny Tim",
          "type" : "artist",
          "uri" : "spotify:artist:0Nc79lkTxXLSIIHDB8mqJC"
        } ],
        "external_urls" : {
          "spotify" : "https://open.spotify.com/album/1DXy9aACVdbZ8zeEQHIFMI"
        },
        "href" : "https://api.spotify.com/v1/albums/1DXy9aACVdbZ8zeEQHIFMI",
        "id" : "1DXy9aACVdbZ8zeEQHIFMI",
        "images" : [ {
          "height" : 640,
          "url" : "https://i.scdn.co/image/ab67616d0000b273aef9e00d3ea1fc0bbe42c0f9",
          "width" : 640
        }, {
          "height" : 300,
          "url" : "https://i.scdn.co/image/ab67616d00001e02aef9e00d3ea1fc0bbe42c0f9",
          "width" : 300
        }, {
          "height" : 64,
          "url" : "https://i.scdn.co/image/ab67616d00004851aef9e00d3ea1fc0bbe42c0f9",
          "width" : 64
        } ],
        "name" : "Spirits of the Past: Lost & Found, Vol. 4",
        "release_date" : "2020-03-15",
        "release_date_precision" : "day",
        "total_tracks" : 36,
        "type" : "album",
        "uri" : "spotify:album:1DXy9aACVdbZ8zeEQHIFMI"
      },
      "artists" : [ {
        "external_urls" : {
          "spotify" : "https://open.spotify.com/artist/0Nc79lkTxXLSIIHDB8mqJC"
        },
        "href" : "https://api.spotify.com/v1/artists/0Nc79lkTxXLSIIHDB8mqJC",
        "id" : "0Nc79lkTxXLSIIHDB8mqJC",
        "name" : "Tiny Tim",
        "type" : "artist",
        "uri" : "spotify:artist:0Nc79lkTxXLSIIHDB8mqJC"
      } ],
      "disc_number" : 1,
      "duration_ms" : 95620,
      "explicit" : false,
      "external_ids" : {
        "isrc" : "uscgj2099945"
      },
      "external_urls" : {
        "spotify" : "https://open.spotify.com/track/6jA3xQYsr7xg4Y7CSsvma7"
      },
      "href" : "https://api.spotify.com/v1/tracks/6jA3xQYsr7xg4Y7CSsvma7",
      "id" : "6jA3xQYsr7xg4Y7CSsvma7",
      "is_local" : false,
      "is_playable" : true,
      "name" : "I'm but a Stranger Here (Heaven Is My Home)",
      "popularity" : 2,
      "preview_url" : "https://p.scdn.co/mp3-preview/e3fa9a22f2520e696e321617aed9eddfd15bb121?cid=774b29d4f13844c495f206cafdad9c86",
      "track_number" : 35,
      "type" : "track",
      "uri" : "spotify:track:6jA3xQYsr7xg4Y7CSsvma7"
    }, {
      "album" : {
        "album_type" : "album",
        "artists" : [ {
          "external_urls" : {
            "spotify" : "https://open.spotify.com/artist/3qNSsKNzzgoxfmBBwAIHUy"
          },
          "href" : "https://api.spotify.com/v1/artists/3qNSsKNzzgoxfmBBwAIHUy",
          "id" : "3qNSsKNzzgoxfmBBwAIHUy",
          "name" : "Lana Kim",
          "type" : "artist",
          "uri" : "spotify:artist:3qNSsKNzzgoxfmBBwAIHUy"
        } ],
        "external_urls" : {
          "spotify" : "https://open.spotify.com/album/1dSMnA1NKsi5tUcgucFEXe"
        },
        "href" : "https://api.spotify.com/v1/albums/1dSMnA1NKsi5tUcgucFEXe",
        "id" : "1dSMnA1NKsi5tUcgucFEXe",
        "images" : [ {
          "height" : 640,
          "url" : "https://i.scdn.co/image/ab67616d0000b2734fff1d0a3ffa2f454bcdaa2f",
          "width" : 640
        }, {
          "height" : 300,
          "url" : "https://i.scdn.co/image/ab67616d00001e024fff1d0a3ffa2f454bcdaa2f",
          "width" : 300
        }, {
          "height" : 64,
          "url" : "https://i.scdn.co/image/ab67616d000048514fff1d0a3ffa2f454bcdaa2f",
          "width" : 64
        } ],
        "name" : "All Christian Hymns - Vol. 8",
        "release_date" : "2011-02-20",
        "release_date_precision" : "day",
        "total_tracks" : 40,
        "type" : "album",
        "uri" : "spotify:album:1dSMnA1NKsi5tUcgucFEXe"
      },
      "artists" : [ {
        "external_urls" : {
          "spotify" : "https://open.spotify.com/artist/3qNSsKNzzgoxfmBBwAIHUy"
        },
        "href" : "https://api.spotify.com/v1/artists/3qNSsKNzzgoxfmBBwAIHUy",
        "id" : "3qNSsKNzzgoxfmBBwAIHUy",
        "name" : "Lana Kim",
        "type" : "artist",
        "uri" : "spotify:artist:3qNSsKNzzgoxfmBBwAIHUy"
      } ],
      "disc_number" : 1,
      "duration_ms" : 57338,
      "explicit" : false,
      "external_ids" : {
        "isrc" : "USJ3V1085516"
      },
      "external_urls" : {
        "spotify" : "https://open.spotify.com/track/2zNOzzi57pGNpqz4cLtW1s"
      },
      "href" : "https://api.spotify.com/v1/tracks/2zNOzzi57pGNpqz4cLtW1s",
      "id" : "2zNOzzi57pGNpqz4cLtW1s",
      "is_local" : false,
      "is_playable" : true,
      "name" : "290 I'm But A Stranger Here, Heaven Is My Home",
      "popularity" : 0,
      "preview_url" : "https://p.scdn.co/mp3-preview/50c96722a5dc03e8413508c13faaeb93248c3f84?cid=774b29d4f13844c495f206cafdad9c86",
      "track_number" : 15,
      "type" : "track",
      "uri" : "spotify:track:2zNOzzi57pGNpqz4cLtW1s"
    } ],
    "limit" : 10,
    "next" : "https://api.spotify.com/v1/search?query=I%E2%80%99m+But+a+Stranger+Here&type=track&market=US&offset=15&limit=10",
    "offset" : 5,
    "previous" : "https://api.spotify.com/v1/search?query=I%E2%80%99m+But+a+Stranger+Here&type=track&market=US&offset=0&limit=10",
    "total" : 18
  }
}