{
  "tracks" : {
    "href" : "https://api.spotify.com/v1/search?query=Silent+Night%2C+Holy+Night&type=track&market=US&offset=5&limit=10",
    "items" : [ {
      "album" : {
        "album_type" : "album",
        "artists" : [ {
          "external_urls" : {
            "spotify" : "https://open.spotify.com/artist/1Mxqyy3pSjf8kZZL4QVxS0"
          },
          "href" : "https://api.spotify.com/v1/artists/1Mxqyy3pSjf8kZZL4QVxS0",
          "id" : "1Mxqyy3pSjf8kZZL4QVxS0",
          "name" : "Frank Sinatra",
          "type" : "artist",
          "uri" : "spotify:artist:1Mxqyy3pSjf8kZZL4QVxS0"
        } ],
        "external_urls" : {
          "spotify" : "https://open.spotify.com/album/4XbPmVHP7EYBMoE7ZVjKCU"
        },
        "href" : "https://api.spotify.com/v1/albums/4XbPmVHP7EYBMoE7ZVjKCU",
        "id" : "4XbPmVHP7EYBMoE7ZVjKCU",
        "images" : [ {
          "height" : 640,
          "url" : "https://i.scdn.co/image/ab67616d0000b273df1066335619efa75889bcfc",
          "width" : 640
        }, {
          "height" : 300,
          "url" : "https://i.scdn.co/image/ab67616d00001e02df1066335619efa75889bcfc",
          "width" : 300
        }, {
          "height" : 64,
          "url" : "https://i.scdn.co/image/ab67616d00004851df1066335619efa75889bcfc",
          "width" : 64
        } ],
        "name" : "Christmas Songs by Sinatra",
        "release_date" : "1994-11-08",
        "release_date_precision" : "day",
        "total_tracks" : 14,
        "type" : "album",
        "uri" : "spotify:album:4XbPmVHP7EYBMoE7ZVjKCU"
      },
      "artists" : [ {
        "external_urls" : {
          "spotify" : "https://open.spotify.com/artist/1Mxqyy3pSjf8kZZL4QVxS0"
        },
        "href" : "https://api.spotify.com/v1/artists/1Mxqyy3pSjf8kZZL4QVxS0",
        "id" : "1Mxqyy3pSjf8kZZL4QVxS0",
        "name" : "Frank Sinatra",
        "type" : "artist",
        "uri" : "spotify:artist:1Mxqyy3pSjf8kZZL4QVxS0"
      }, {
        "external_urls" : {
          "spotify" : "https://open.spotify.com/artist/0TPlgv7eySSCChc2vKRIml"
        },
        "href" : "https://api.spotify.com/v1/artists/0TPlgv7eySSCChc2vKRIml",
        "id" : "0TPlgv7eySSCChc2vKRIml",
        "name" : "Ken Lane Singers",
        "type" : "artist",
        "uri" : "spotify:artist:0TPlgv7eySSCChc2vKRIml"
      } ],
      "disc_number" : 1,
      "duration_ms" : 197213,
      "explicit" : false,
      "external_ids" : {
        "isrc" : "USSM10018225"
      },
      "external_urls" : {
        "spotify" : "https://open.spotify.com/track/7zqTinlz0qOZlZrDfHGCeA"
      },
      "href" : "https://api.spotify.com/v1/tracks/7zqTinlz0qOZlZrDfHGCeA",
      "id" : "7zqTinlz0qOZlZrDfHGCeA",
      "is_local" : false,
      "is_playable" : true,
      "name" : "Silent Night, Holy Night (with The Ken Lane Singers)",
      "popularity" : 22,
      "preview_url" : "https://p.scdn.co/mp3-preview/999c2a4601f1d5a4e0a27d0d027ba23853e1a27b?cid=774b29d4f13844c495f206cafdad9c86",
      "track_number" : 2,
      "type" : "track",
      "uri" : "spotify:track:7zqTinlz0qOZlZrDfHGCeA"
    }, {
      "album" : {
        "album_type" : "album",
        "artists" : [ {
          "external_urls" : {
            "spotify" : "https://open.spotify.com/artist/21LGsW7bziR4Ledx7WZ1Wf"
          },
          "href" : "https://api.spotify.com/v1/artists/21LGsW7bziR4Ledx7WZ1Wf",
          "id" : "21LGsW7bziR4Ledx7WZ1Wf",
          "name" : "Johnny Mathis",
          "type" : "artist",
          "uri" : "spotify:artist:21LGsW7bziR4Ledx7WZ1Wf"
        } ],
        "external_urls" : {
          "spotify" : "https://open.spotify.com/album/3pHNZvjNOHJX8G9Y0OmIzG"
        },
        "href" : "https://api.spotify.com/v1/albums/3pHNZvjNOHJX8G9Y0OmIzG",
        "id" : "3pHNZvjNOHJX8G9Y0OmIzG",
        "images" : [ {
          "height" : 640,
          "url" : "https://i.scdn.co/image/ab67616d0000b273c233ef0dd00596da38625eb0",
          "width" : 640
        }, {
          "height" : 300,
          "url" : "https://i.scdn.co/image/ab67616d00001e02c233ef0dd00596da38625eb0",
          "width" : 300
        }, {
          "height" : 64,
          "url" : "https://i.scdn.co/image/ab67616d00004851c233ef0dd00596da38625eb0",
          "width" : 64
        } ],
        "name" : "Merry Christmas",
        "release_date" : "1958-10-06",
        "release_date_precision" : "day",
        "total_tracks" : 12,
        "type" : "album",
        "uri" : "spotify:album:3pHNZvjNOHJX8G9Y0OmIzG"
      },
      "artists" : [ {
        "external_urls" : {
          "spotify" : "https://open.spotify.com/artist/21LGsW7bziR4Ledx7WZ1Wf"
        },
        "href" : "https://api.spotify.com/v1/artists/21LGsW7bziR4Ledx7WZ1Wf",
        "id" : "21LGsW7bziR4Ledx7WZ1Wf",
        "name" : "Johnny Mathis",
        "type" : "artist",
        "uri" : "spotify:artist:21LGsW7bziR4Ledx7WZ1Wf"
      }, {
        "external_urls" : {
          "spotify" : "https://open.spotify.com/artist/24DQLSng7bKZD4GXLIaQbv"
        },
        "href" : "https://api.spotify.com/v1/artists/24DQLSng7bKZD4GXLIaQbv",
        "id" : "24DQLSng7bKZD4GXLIaQbv",
        "name" : "Percy Faith & His Orchestra",
        "type" : "artist",
        "uri" : "spotify:artist:24DQLSng7bKZD4GXLIaQbv"
      } ],
      "disc_number" : 1,
      "duration_ms" : 229346,
      "explicit" : false,
      "external_ids" : {
        "isrc" : "USSM19904140"
      },
      "external_urls" : {
        "spotify" : "https://open.spotify.com/track/4Sj3djQIFuaH3VICDN3uAA"
      },
      "href" : "https://api.spotify.com/v1/tracks/4Sj3djQIFuaH3VICDN3uAA",
      "id" : "4Sj3djQIFuaH3VICDN3uAA",
      "is_local" : false,
      "is_playable" : true,
      "name" : "Silent Night, Holy Night (with Percy Faith & His Orchestra)",
      "popularity" : 17,
      "preview_url" : "https://p.scdn.co/mp3-preview/0e4b92caa27d532015ef083098e9a2429e5759c1?cid=774b29d4f13844c495f206cafdad9c86",
      "track_number" : 12,
      "type" : "track",
      "uri" : "spotify:track:4Sj3djQIFuaH3VICDN3uAA"
    }, {
      "album" : {
        "album_type" : "album",
        "artists" : [ {
          "external_urls" : {
            "spotify" : "https://open.spotify.com/artist/6QBUIuGCAJSAtefEY1EEdB"
          },
          "href" : "https://api.spotify.com/v1/artists/6QBUIuGCAJSAtefEY1EEdB",
          "id" : "6QBUIuGCAJSAtefEY1EEdB",
          "name" : "Mahalia Jackson",
          "type" : "artist",
          "uri" : "spotify:artist:6QBUIuGCAJSAtefEY1EEdB"
        } ],
        "external_urls" : {
          "spotify" : "https://open.spotify.com/album/5xInXUBHp3zpSTpwUsgvmp"
        },
        "href" : "https://api.spotify.com/v1/albums/5xInXUBHp3zpSTpwUsgvmp",
        "id" : "5xInXUBHp3zpSTpwUsgvmp",
        "images" : [ {
          "height" : 640,
          "url" : "https://i.scdn.co/image/ab67616d0000b273cc993136a19d0ad0ed5b7ced",
          "width" : 640
        }, {
          "height" : 300,
          "url" : "https://i.scdn.co/image/ab67616d00001e02cc993136a19d0ad0ed5b7ced",
          "width" : 300
        }, {
          "height" : 64,
          "url" : "https://i.scdn.co/image/ab67616d00004851cc993136a19d0ad0ed5b7ced",
          "width" : 64
        } ],
        "name" : "Silent Night: Songs For Christmas",
        "release_date" : "1962",
        "release_date_precision" : "year",
        "total_tracks" : 10,
        "type" : "album",
        "uri" : "spotify:album:5xInXUBHp3zpSTpwUsgvmp"
      },
      "artists" : [ {
        "external_urls" : {
          "spotify" : "https://open.spotify.com/artist/6QBUIuGCAJSAtefEY1EEdB"
        },
        "href" : "https://api.spotify.com/v1/artists/6QBUIuGCAJSAtefEY1EEdB",
        "id" : "6QBUIuGCAJSAtefEY1EEdB",
        "name" : "Mahalia Jackson",
        "type" : "artist",
        "uri" : "spotify:artist:6QBUIuGCAJSAtefEY1EEdB"
      } ],
      "disc_number" : 1,
      "duration_ms" : 302800,
      "explicit" : false,
      "external_ids" : {
        "isrc" : "USSM19915081"
      },
      "external_urls" : {
        "spotify" : "https://open.spotify.com/track/0Sn8vim5lTr9xPeC1hqBrD"
      },
      "href" : "https://api.spotify.com/v1/tracks/0Sn8vim5lTr9xPeC1hqBrD",
      "id" : "0Sn8vim5lTr9xPeC1hqBrD",
      "is_local" : false,
      "is_playable" : true,
      "name" : "Silent Night, Holy Night",
      "popularity" : 18,
      "preview_url" : "https://p.scdn.co/mp3-preview/eceb18177b5479803eb3748e2756f1f80739d06c?cid=774b29d4f13844c495f206cafdad9c86",
      "track_number" : 10,
      "type" : "track",
      "uri" : "spotify:track:0Sn8vim5lTr9xPeC1hqBrD"
    }, {
      "album" : {
        "album_type" : "single",
        "artists" : [ {
          "external_urls" : {
            "spotify" : "https://open.spotify.com/artist/3Fe3pszR2t4TOBVz41B1WR"
          },
          "href" : "https://api.spotify.com/v1/artists/3Fe3pszR2t4TOBVz41B1WR",
          "id" : "3Fe3pszR2t4TOBVz41B1WR",
          "name" : "The Oh Hellos",
          "type" : "artist",
          "uri" : "spotify:artist:3Fe3pszR2t4TOBVz41B1WR"
        } ],
        "external_urls" : {
          "spotify" : "https://open.spotify.com/album/1cv8WBFQPnstQvRZgg2Bw4"
        },
        "href" : "https://api.spotify.com/v1/albums/1cv8WBFQPnstQvRZgg2Bw4",
        "id" : "1cv8WBFQPnstQvRZgg2Bw4",
        "images" : [ {
          "height" : 640,
          "url" : "https://i.scdn.co/image/ab67616d0000b273080c5cd1b6f2c67a95515798",
          "width" : 640
        }, {
          "height" : 300,
          "url" : "https://i.scdn.co/image/ab67616d00001e02080c5cd1b6f2c67a95515798",
          "width" : 300
        }, {
          "height" : 64,
          "url" : "https://i.scdn.co/image/ab67616d00004851080c5cd1b6f2c67a95515798",
          "width" : 64
        } ],
        "name" : "The Oh Hellos' Family Christmas Album",
        "release_date" : "2014-12-05",
        "release_date_precision" : "day",
        "total_tracks" : 4,
        "type" : "album",
        "uri" : "spotify:album:1cv8WBFQPnstQvRZgg2Bw4"
      },
      "artists" : [ {
        "external_urls" : {
          "spotify" : "https://open.spotify.com/artist/3Fe3pszR2t4TOBVz41B1WR"
        },
        "href" : "https://api.spotify.com/v1/artists/3Fe3pszR2t4TOBVz41B1WR",
        "id" : "3Fe3pszR2t4TOBVz41B1WR",
        "name" : "The Oh Hellos",
        "type" : "artist",
        "uri" : "spotify:artist:3Fe3pszR2t4TOBVz41B1WR"
      } ],
      "disc_number" : 1,
      "duration_ms" : 280544,
      "explicit" : false,
      "external_ids" : {
        "isrc" : "TCACC1437666"
      },
      "external_urls" : {
        "spotify" : "https://open.spotify.com/track/6Xqp0SumI26pe0Il1tktuf"
      },
      "href" : "https://api.spotify.com/v1/tracks/6Xqp0SumI26pe0Il1tktuf",
      "id" : "6Xqp0SumI26pe0Il1tktuf",
      "is_local" : false,
      "is_playable" : true,
      "name" : "Mvmt III, \"Silent Night, Holy Night\"",
      "popularity" : 24,
      "preview_url" : "https://p.scdn.co/mp3-preview/a539a20caebe87d7e16c1a8f1dfe4b15277865e5?cid=774b29d4f13844c495f206cafdad9c86",
      "track_number" : 3,
      "type" : "track",
      "uri" : "spotify:track:6Xqp0SumI26pe0Il1tktuf"
    }, {
      "album" : {
        "album_type" : "album",
        "artists" : [ {
          "external_urls" : {
            "spotify" : "https://open.spotify.com/artist/25NQNriVT2YbSW80ILRWJa"
          },
          "href" : "https://api.spotify.com/v1/artists/25NQNriVT2YbSW80ILRWJa",
          "id" : "25NQNriVT2YbSW80ILRWJa",
          "name" : "Faith Hill",
          "type" : "artist",
          "uri" : "spotify:artist:25NQNriVT2YbSW80ILRWJa"
        } ],
        "external_urls" : {
          "spotify" : "https://open.spotify.com/album/1ufWN12kJj7YQR1PAfE4YB"
        },
        "href" : "https://api.spotify.com/v1/albums/1ufWN12kJj7YQR1PAfE4YB",
        "id" : "1ufWN12kJj7YQR1PAfE4YB",
        "images" : [ {
          "height" : 640,
          "url" : "https://i.scdn.co/image/ab67616d0000b2735b52d0d1f36984866d617453",
          "width" : 640
        }, {
          "height" : 300,
          "url" : "https://i.scdn.co/image/ab67616d00001e025b52d0d1f36984866d617453",
          "width" : 300
        }, {
          "height" : 64,
          "url" : "https://i.scdn.co/image/ab67616d000048515b52d0d1f36984866d617453",
          "width" : 64
        } ],
        "name" : "Joy to the World!",
        "release_date" : "2008-09-01",
        "release_date_precision" : "day",
        "total_tracks" : 11,
        "type" : "album",
        "uri" : "spotify:album:1ufWN12kJj7YQR1PAfE4YB"
      },
      "artists" : [ {
        "external_urls" : {
          "spotify" : "https://open.spotify.com/artist/25NQNriVT2YbSW80ILRWJa"
        },
        "href" : "https://api.spotify.com/v1/artists/25NQNriVT2YbSW80ILRWJa",
        "id" : "25NQNriVT2YbSW80ILRWJa",
        "name" : "Faith Hill",
        "type" : "artist",
        "uri" : "spotify:artist:25NQNriVT2YbSW80ILRWJa"
      } ],
      "disc_number" : 1,
      "duration_ms" : 188685,
      "explicit" : false,
      "external_ids" : {
        "isrc" : "USWB10803729"
      },
      "external_urls" : {
        "spotify" : "https://open.spotify.com/track/7eNLKaU5U9tIS6K4mWYrYm"
      },
      "href" : "https://api.spotify.com/v1/tracks/7eNLKaU5U9tIS6K4mWYrYm",
      "id" : "7eNLKaU5U9tIS6K4mWYrYm",
      "is_local" : false,
      "is_playable" : true,
      "name" : "Silent Night, Holy Night!",
      "popularity" : 13,
      "preview_url" : "https://p.scdn.co/mp3-preview/098eb592cc2e22a3965ec2796819513a4eea8274?cid=774b29d4f13844c495f206cafdad9c86",
      "track_number" : 10,
      "type" : "track",
      "uri" : "spotify:track:7eNLKaU5U9tIS6K4mWYrYm"
    }, {
      "album" : {
        "album_type" : "album",
        "artists" : [ {
          "external_urls" : {
            "spotify" : "https://open.spotify.com/artist/7EK1bQADBoqbYXnT4Cqv9w"
          },
          "href" : "https://api.spotify.com/v1/artists/7EK1bQADBoqbYXnT4Cqv9w",
          "id" : "7EK1bQADBoqbYXnT4Cqv9w",
          "name" : "John Denver",
          "type" : "artist",
          "uri" : "spotify:artist:7EK1bQADBoqbYXnT4Cqv9w"
        } ],
        "external_urls" : {
          "spotify" : "https://open.spotify.com/album/0T1OPbbHzWErKBMdZrbhCQ"
        },
        "href" : "https://api.spotify.com/v1/albums/0T1OPbbHzWErKBMdZrbhCQ",
        "id" : "0T1OPbbHzWErKBMdZrbhCQ",
        "images" : [ {
          "height" : 640,
          "url" : "https://i.scdn.co/image/ab67616d0000b2734c9dede40f86ce4b25eb8fb9",
          "width" : 640
        }, {
          "height" : 300,
          "url" : "https://i.scdn.co/image/ab67616d00001e024c9dede40f86ce4b25eb8fb9",
          "width" : 300
        }, {
          "height" : 64,
          "url" : "https://i.scdn.co/image/ab67616d000048514c9dede40f86ce4b25eb8fb9",
          "width" : 64
        } ],
        "name" : "Rocky Mountain Christmas",
        "release_date" : "1975-10-01",
        "release_date_precision" : "day",
        "total_tracks" : 12,
        "type" : "album",
        "uri" : "spotify:album:0T1OPbbHzWErKBMdZrbhCQ"
      },
      "artists" : [ {
        "external_urls" : {
          "spotify" : "https://open.spotify.com/artist/7EK1bQADBoqbYXnT4Cqv9w"
        },
        "href" : "https://api.spotify.com/v1/artists/7EK1bQADBoqbYXnT4Cqv9w",
        "id" : "7EK1bQADBoqbYXnT4Cqv9w",
        "name" : "John Denver",
        "type" : "artist",
        "uri" : "spotify:artist:7EK1bQADBoqbYXnT4Cqv9w"
      } ],
      "disc_number" : 1,
      "duration_ms" : 208720,
      "explicit" : false,
      "external_ids" : {
        "isrc" : "USRC17507384"
      },
      "external_urls" : {
        "spotify" : "https://open.spotify.com/track/5qXD16VZmq0kjRDAvJbcbJ"
      },
      "href" : "https://api.spotify.com/v1/tracks/5qXD16VZmq0kjRDAvJbcbJ",
      "id" : "5qXD16VZmq0kjRDAvJbcbJ",
      "is_local" : false,
      "is_playable" : true,
      "name" : "Silent Night, Holy Night",
      "popularity" : 11,
      "preview_url" : "https://p.scdn.co/mp3-preview/cd4fa164fb4a9eb038bc7543d0c85cbeb649a290?cid=774b29d4f13844c495f206cafdad9c86",
      "track_number" : 11,
      "type" : "track",
      "uri" : "spotify:track:5qXD16VZmq0kjRDAvJbcbJ"
    }, {
      "album" : {
        "album_type" : "album",
        "artists" : [ {
          "external_urls" : {
            "spotify" : "https://open.spotify.com/artist/0QAXlPCDGgzH24mSqZYjIo"
          },
          "href" : "https://api.spotify.com/v1/artists/0QAXlPCDGgzH24mSqZYjIo",
          "id" : "0QAXlPCDGgzH24mSqZYjIo",
          "name" : "Cory Reese",
          "type" : "artist",
          "uri" : "spotify:artist:0QAXlPCDGgzH24mSqZYjIo"
        } ],
        "external_urls" : {
          "spotify" : "https://open.spotify.com/album/3JtTBtyRDwfHmTsggSdayK"
        },
        "href" : "https://api.spotify.com/v1/albums/3JtTBtyRDwfHmTsggSdayK",
        "id" : "3JtTBtyRDwfHmTsggSdayK",
        "images" : [ {
          "height" : 640,
          "url" : "https://i.scdn.co/image/ab67616d0000b273e8dd10d4e5f4e7ca42bd238e",
          "width" : 640
        }, {
          "height" : 300,
          "url" : "https://i.scdn.co/image/ab67616d00001e02e8dd10d4e5f4e7ca42bd238e",
          "width" : 300
        }, {
          "height" : 64,
          "url" : "https://i.scdn.co/image/ab67616d00004851e8dd10d4e5f4e7ca42bd238e",
          "width" : 64
        } ],
        "name" : "Silent Night",
        "release_date" : "2006-03-20",
        "release_date_precision" : "day",
        "total_tracks" : 10,
        "type" : "album",
        "uri" : "spotify:album:3JtTBtyRDwfHmTsggSdayK"
      },
      "artists" : [ {
        "external_urls" : {
          "spotify" : "https://open.spotify.com/artist/0QAXlPCDGgzH24mSqZYjIo"
        },
        "href" : "https://api.spotify.com/v1/artists/0QAXlPCDGgzH24mSqZYjIo",
        "id" : "0QAXlPCDGgzH24mSqZYjIo",
        "name" : "Cory Reese",
        "type" : "artist",
        "uri" : "spotify:artist:0QAXlPCDGgzH24mSqZYjIo"
      } ],
      "disc_number" : 1,
      "duration_ms" : 389226,
      "explicit" : false,
      "external_ids" : {
        "isrc" : "ushm80610119"
      },
      "external_urls" : {
        "spotify" : "https://open.spotify.com/track/3biNFct7PrWWZqonZ1100N"
      },
      "href" : "https://api.spotify.com/v1/tracks/3biNFct7PrWWZqonZ1100N",
      "id" : "3biNFct7PrWWZqonZ1100N",
      "is_local" : false,
      "is_playable" : true,
      "name" : "O Holy Night",
      "popularity" : 13,
      "preview_url" : "https://p.scdn.co/mp3-preview/23f4524394ee89a7f55894e233781b6ceed246b4?cid=774b29d4f13844c495f206cafdad9c86",
      "track_number" : 6,
      "type" : "track",
      "uri" : "spotify:track:3biNFct7PrWWZqonZ1100N"
    }, {
      "album" : {
        "album_type" : "album",
        "artists" : [ {
          "external_urls" : {
            "spotify" : "https://open.spotify.com/artist/7l0sphz32GV0AjjEhECpVg"
          },
          "href" : "https://api.spotify.com/v1/artists/7l0sphz32GV0AjjEhECpVg",
          "id" : "7l0sphz32GV0AjjEhECpVg",
          "name" : "Caleb and Kelsey",
          "type" : "artist",
          "uri" : "spotify:artist:7l0sphz32GV0AjjEhECpVg"
        } ],
        "external_urls" : {
          "spotify" : "https://open.spotify.com/album/1zzsntUeay0lhpV9ks4Wk3"
        },
        "href" : "https://api.spotify.com/v1/albums/1zzsntUeay0lhpV9ks4Wk3",
        "id" : "1zzsntUeay0lhpV9ks4Wk3",
        "images" : [ {
          "height" : 640,
          "url" : "https://i.scdn.co/image/ab67616d0000b27358424c89857360cd093d0e57",
          "width" : 640
        }, {
          "height" : 300,
          "url" : "https://i.scdn.co/image/ab67616d00001e0258424c89857360cd093d0e57",
          "width" : 300
        }, {
          "height" : 64,
          "url" : "https://i.scdn.co/image/ab67616d0000485158424c89857360cd093d0e57",
          "width" : 64
        } ],
        "name" : "Christmas Together",
        "release_date" : "2018-11-28",
        "release_date_precision" : "day",
        "total_tracks" : 8,
        "type" : "album",
        "uri" : "spotify:album:1zzsntUeay0lhpV9ks4Wk3"
      },
      "artists" : [ {
        "external_urls" : {
          "spotify" : "https://open.spotify.com/artist/7l0sphz32GV0AjjEhECpVg"
        },
        "href" : "https://api.spotify.com/v1/artists/7l0sphz32GV0AjjEhECpVg",
        "id" : "7l0sphz32GV0AjjEhECpVg",
        "name" : "Caleb and Kelsey",
        "type" : "artist",
        "uri" : "spotify:artist:7l0sphz32GV0AjjEhECpVg"
      } ],
      "disc_number" : 1,
      "duration_ms" : 291642,
      "explicit" : false,
      "external_ids" : {
        "isrc" : "QMF921850198"
      },
      "external_urls" : {
        "spotify" : "https://open.spotify.com/track/5GkeEuel5nEv9Kxo91QpiG"
      },
      "href" : "https://api.spotify.com/v1/tracks/5GkeEuel5nEv9Kxo91QpiG",
      "id" : "5GkeEuel5nEv9Kxo91QpiG",
      "is_local" : false,
      "is_playable" : true,
      "name" : "O Holy Night/Silent Night",
      "popularity" : 14,
      "preview_url" : "https://p.scdn.co/mp3-preview/68a39129bc4abe0aa1998bd47f483730e4141f38?cid=774b29d4f13844c495f206cafdad9c86",
      "track_number" : 4,
      "type" : "track",
      "uri" : "spotify:track:5GkeEuel5nEv9Kxo91QpiG"
    }, {
      "album" : {
        "album_type" : "compilation",
        "artists" : [ {
          "external_urls" : {
            "spotify" : "https://open.spotify.com/artist/0LyfQWJT6nXafLPZqxe9Of"
          },
          "href" : "https://api.spotify.com/v1/artists/0LyfQWJT6nXafLPZqxe9Of",
          "id" : "0LyfQWJT6nXafLPZqxe9Of",
          "name" : "Various Artists",
          "type" : "artist",
          "uri" : "spotify:artist:0LyfQWJT6nXafLPZqxe9Of"
        } ],
        "external_urls" : {
          "spotify" : "https://open.spotify.com/album/1ebYTYWdBkZAQ4FmzTzlYl"
        },
        "href" : "https://api.spotify.com/v1/albums/1ebYTYWdBkZAQ4FmzTzlYl",
        "id" : "1ebYTYWdBkZAQ4FmzTzlYl",
        "images" : [ {
          "height" : 640,
          "url" : "https://i.scdn.co/image/ab67616d0000b273e6a23de718538af23d7fe7cf",
          "width" : 640
        }, {
          "height" : 300,
          "url" : "https://i.scdn.co/image/ab67616d00001e02e6a23de718538af23d7fe7cf",
          "width" : 300
        }, {
          "height" : 64,
          "url" : "https://i.scdn.co/image/ab67616d00004851e6a23de718538af23d7fe7cf",
          "width" : 64
        } ],
        "name" : "Christmas 16 Most Requested Songs",
        "release_date" : "1949",
        "release_date_precision" : "year",
        "total_tracks" : 16,
        "type" : "album",
        "uri" : "spotify:album:1ebYTYWdBkZAQ4FmzTzlYl"
      },
      "artists" : [ {
        "external_urls" : {
          "spotify" : "https://open.spotify.com/artist/5RdqZVi36tpDPYNPw8jJbO"
        },
        "href" : "https://api.spotify.com/v1/artists/5RdqZVi36tpDPYNPw8jJbO",
        "id" : "5RdqZVi36tpDPYNPw8jJbO",
        "name" : "Julie Andrews",
        "type" : "artist",
        "uri" : "spotify:artist:5RdqZVi36tpDPYNPw8jJbO"
      } ],
      "disc_number" : 1,
      "duration_ms" : 141960,
      "explicit" : false,
      "external_ids" : {
        "isrc" : "USSM10028726"
      },
      "external_urls" : {
        "spotify" : "https://open.spotify.com/track/5hgkmxlHJdClFuOEF26kzJ"
      },
      "href" : "https://api.spotify.com/v1/tracks/5hgkmxlHJdClFuOEF26kzJ",
      "id" : "5hgkmxlHJdClFuOEF26kzJ",
      "is_local" : false,
      "is_playable" : true,
      "name" : "Silent Night, Holy Night",
      "popularity" : 10,
      "preview_url" : "https://p.scdn.co/mp3-preview/5b05befb3b9f2fb4c577ef1982a2adb75febc581?cid=774b29d4f13844c495f206cafdad9c86",
      "track_number" : 15,
      "type" : "track",
      "uri" : "spotify:track:5hgkmxlHJdClFuOEF26kzJ"
    }, {
      "album" : {
        "album_type" : "album",
        "artists" : [ {
          "external_urls" : {
            "spotify" : "https://open.spotify.com/artist/3WNUkxJcJeliFx9KXWXMgs"
          },
          "href" : "https://api.spotify.com/v1/artists/3WNUkxJcJeliFx9KXWXMgs",
          "id" : "3WNUkxJcJeliFx9KXWXMgs",
          "name" : "Bebe & Cece Winans",
          "type" : "artist",
          "uri" : "spotify:artist:3WNUkxJcJeliFx9KXWXMgs"
        } ],
        "external_urls" : {
          "spotify" : "https://open.spotify.com/album/34TpQar6QnutagRwdtiNpl"
        },
        "href" : "https://api.spotify.com/v1/albums/34TpQar6QnutagRwdtiNpl",
        "id" : "34TpQar6QnutagRwdtiNpl",
        "images" : [ {
          "height" : 640,
          "url" : "https://i.scdn.co/image/ab67616d0000b273859a3904243a4c88a441e680",
          "width" : 640
        }, {
          "height" : 300,
          "url" : "https://i.scdn.co/image/ab67616d00001e02859a3904243a4c88a441e680",
          "width" : 300
        }, {
          "height" : 64,
          "url" : "https://i.scdn.co/image/ab67616d00004851859a3904243a4c88a441e680",
          "width" : 64
        } ],
        "name" : "First Christmas",
        "release_date" : "1993-01-01",
        "release_date_precision" : "day",
        "total_tracks" : 12,
        "type" : "album",
        "uri" : "spotify:album:34TpQar6QnutagRwdtiNpl"
      },
      "artists" : [ {
        "external_urls" : {
          "spotify" : "https://open.spotify.com/artist/3WNUkxJcJeliFx9KXWXMgs"
        },
        "href" : "https://api.spotify.com/v1/artists/3WNUkxJcJeliFx9KXWXMgs",
        "id" : "3WNUkxJcJeliFx9KXWXMgs",
        "name" : "Bebe & Cece Winans",
        "type" : "artist",
        "uri" : "spotify:artist:3WNUkxJcJeliFx9KXWXMgs"
      } ],
      "disc_number" : 1,
      "duration_ms" : 324160,
      "explicit" : false,
      "external_ids" : {
        "isrc" : "USCA29301507"
      },
      "external_urls" : {
        "spotify" : "https://open.spotify.com/track/7by9QasewukzoIVcRoE4ss"
      },
      "href" : "https://api.spotify.com/v1/tracks/7by9QasewukzoIVcRoE4ss",
      "id" : "7by9QasewukzoIVcRoE4ss",
      "is_local" : false,
      "is_playable" : true,
      "name" : "Silent Night, Holy Night",
      "popularity" : 11,
      "preview_url" : null,
      "track_number" : 6,
      "type" : "track",
      "uri" : "spotify:track:7by9QasewukzoIVcRoE4ss"
    } ],
    "limit" : 10,
    "next" : "https://api.spotify.com/v1/search?query=Silent+Night%2C+Holy+Night&type=track&market=US&offset=15&limit=10",
    "offset" : 5,
    "previous" : "https://api.spotify.com/v1/search?query=Silent+Night%2C+Holy+Night&type=track&market=US&offset=0&limit=10",
    "total" : 1851
  }
}