{
  "tracks" : {
    "href" : "https://api.spotify.com/v1/search?query=Come%2C+Ye+Disconsolate&type=track&market=US&offset=5&limit=10",
    "items" : [ {
      "album" : {
        "album_type" : "album",
        "artists" : [ {
          "external_urls" : {
            "spotify" : "https://open.spotify.com/artist/4SMAMPGnHmiXnIjEtwb2Qt"
          },
          "href" : "https://api.spotify.com/v1/artists/4SMAMPGnHmiXnIjEtwb2Qt",
          "id" : "4SMAMPGnHmiXnIjEtwb2Qt",
          "name" : "Roberta Flack & Donny Hathaway",
          "type" : "artist",
          "uri" : "spotify:artist:4SMAMPGnHmiXnIjEtwb2Qt"
        } ],
        "external_urls" : {
          "spotify" : "https://open.spotify.com/album/3t3Ql46lQfRm2Co3SFXkrp"
        },
        "href" : "https://api.spotify.com/v1/albums/3t3Ql46lQfRm2Co3SFXkrp",
        "id" : "3t3Ql46lQfRm2Co3SFXkrp",
        "images" : [ {
          "height" : 640,
          "url" : "https://i.scdn.co/image/ab67616d0000b2739d1e554706f2792f2e8d3e23",
          "width" : 640
        }, {
          "height" : 300,
          "url" : "https://i.scdn.co/image/ab67616d00001e029d1e554706f2792f2e8d3e23",
          "width" : 300
        }, {
          "height" : 64,
          "url" : "https://i.scdn.co/image/ab67616d000048519d1e554706f2792f2e8d3e23",
          "width" : 64
        } ],
        "name" : "Roberta Flack & Donny Hathaway",
        "release_date" : "1972",
        "release_date_precision" : "year",
        "total_tracks" : 10,
        "type" : "album",
        "uri" : "spotify:album:3t3Ql46lQfRm2Co3SFXkrp"
      },
      "artists" : [ {
        "external_urls" : {
          "spotify" : "https://open.spotify.com/artist/0W498bDDNlJIrYMKXdpLHA"
        },
        "href" : "https://api.spotify.com/v1/artists/0W498bDDNlJIrYMKXdpLHA",
        "id" : "0W498bDDNlJIrYMKXdpLHA",
        "name" : "Roberta Flack",
        "type" : "artist",
        "uri" : "spotify:artist:0W498bDDNlJIrYMKXdpLHA"
      }, {
        "external_urls" : {
          "spotify" : "https://open.spotify.com/artist/0HU0U9kdXEHZVxUNbuQe8S"
        },
        "href" : "https://api.spotify.com/v1/artists/0HU0U9kdXEHZVxUNbuQe8S",
        "id" : "0HU0U9kdXEHZVxUNbuQe8S",
        "name" : "Donny Hathaway",
        "type" : "artist",
        "uri" : "spotify:artist:0HU0U9kdXEHZVxUNbuQe8S"
      } ],
      "disc_number" : 1,
      "duration_ms" : 292840,
      "explicit" : false,
      "external_ids" : {
        "isrc" : "USAT20002654"
      },
      "external_urls" : {
        "spotify" : "https://open.spotify.com/track/53hI2E4KnHEwrn4laNVeEw"
      },
      "href" : "https://api.spotify.com/v1/tracks/53hI2E4KnHEwrn4laNVeEw",
      "id" : "53hI2E4KnHEwrn4laNVeEw",
      "is_local" : false,
      "is_playable" : true,
      "name" : "Come Ye Disconsolate",
      "popularity" : 15,
      "preview_url" : "https://p.scdn.co/mp3-preview/edba902aa7e1793396b6b0b930dabd2c391988c1?cid=774b29d4f13844c495f206cafdad9c86",
      "track_number" : 9,
      "type" : "track",
      "uri" : "spotify:track:53hI2E4KnHEwrn4laNVeEw"
    }, {
      "album" : {
        "album_type" : "album",
        "artists" : [ {
          "external_urls" : {
            "spotify" : "https://open.spotify.com/artist/5gWZC3kXTwxQGc9q3M16vK"
          },
          "href" : "https://api.spotify.com/v1/artists/5gWZC3kXTwxQGc9q3M16vK",
          "id" : "5gWZC3kXTwxQGc9q3M16vK",
          "name" : "LDS Piano",
          "type" : "artist",
          "uri" : "spotify:artist:5gWZC3kXTwxQGc9q3M16vK"
        } ],
        "external_urls" : {
          "spotify" : "https://open.spotify.com/album/0rEByM6yin72PB9LJGEHLC"
        },
        "href" : "https://api.spotify.com/v1/albums/0rEByM6yin72PB9LJGEHLC",
        "id" : "0rEByM6yin72PB9LJGEHLC",
        "images" : [ {
          "height" : 640,
          "url" : "https://i.scdn.co/image/ab67616d0000b2730a99c8e25744f48895556f94",
          "width" : 640
        }, {
          "height" : 300,
          "url" : "https://i.scdn.co/image/ab67616d00001e020a99c8e25744f48895556f94",
          "width" : 300
        }, {
          "height" : 64,
          "url" : "https://i.scdn.co/image/ab67616d000048510a99c8e25744f48895556f94",
          "width" : 64
        } ],
        "name" : "The Mormon Hymnbook: Prayer & Supplication Hymns Volume 1",
        "release_date" : "2019-03-14",
        "release_date_precision" : "day",
        "total_tracks" : 18,
        "type" : "album",
        "uri" : "spotify:album:0rEByM6yin72PB9LJGEHLC"
      },
      "artists" : [ {
        "external_urls" : {
          "spotify" : "https://open.spotify.com/artist/5gWZC3kXTwxQGc9q3M16vK"
        },
        "href" : "https://api.spotify.com/v1/artists/5gWZC3kXTwxQGc9q3M16vK",
        "id" : "5gWZC3kXTwxQGc9q3M16vK",
        "name" : "LDS Piano",
        "type" : "artist",
        "uri" : "spotify:artist:5gWZC3kXTwxQGc9q3M16vK"
      } ],
      "disc_number" : 1,
      "duration_ms" : 150270,
      "explicit" : false,
      "external_ids" : {
        "isrc" : "GBSMU6194794"
      },
      "external_urls" : {
        "spotify" : "https://open.spotify.com/track/6GnlRCwCZSSr4bYKG2LuTw"
      },
      "href" : "https://api.spotify.com/v1/tracks/6GnlRCwCZSSr4bYKG2LuTw",
      "id" : "6GnlRCwCZSSr4bYKG2LuTw",
      "is_local" : false,
      "is_playable" : true,
      "name" : "Come Ye Disconsolate",
      "popularity" : 11,
      "preview_url" : "https://p.scdn.co/mp3-preview/54948c5389660e0d835919b7fdd1201891cda11a?cid=774b29d4f13844c495f206cafdad9c86",
      "track_number" : 10,
      "type" : "track",
      "uri" : "spotify:track:6GnlRCwCZSSr4bYKG2LuTw"
    }, {
      "album" : {
        "album_type" : "album",
        "artists" : [ {
          "external_urls" : {
            "spotify" : "https://open.spotify.com/artist/4WIRlLxuzmZciQ8JS2b3jP"
          },
          "href" : "https://api.spotify.com/v1/artists/4WIRlLxuzmZciQ8JS2b3jP",
          "id" : "4WIRlLxuzmZciQ8JS2b3jP",
          "name" : "Richard Smallwood",
          "type" : "artist",
          "uri" : "spotify:artist:4WIRlLxuzmZciQ8JS2b3jP"
        } ],
        "external_urls" : {
          "spotify" : "https://open.spotify.com/album/7lLZWkVSAsNcwk1tMUzzdR"
        },
        "href" : "https://api.spotify.com/v1/albums/7lLZWkVSAsNcwk1tMUzzdR",
        "id" : "7lLZWkVSAsNcwk1tMUzzdR",
        "images" : [ {
          "height" : 640,
          "url" : "https://i.scdn.co/image/ab67616d0000b2732771c663c7aceb1bce0666f2",
          "width" : 640
        }, {
          "height" : 300,
          "url" : "https://i.scdn.co/image/ab67616d00001e022771c663c7aceb1bce0666f2",
          "width" : 300
        }, {
          "height" : 64,
          "url" : "https://i.scdn.co/image/ab67616d000048512771c663c7aceb1bce0666f2",
          "width" : 64
        } ],
        "name" : "Persuaded",
        "release_date" : "2001",
        "release_date_precision" : "year",
        "total_tracks" : 18,
        "type" : "album",
        "uri" : "spotify:album:7lLZWkVSAsNcwk1tMUzzdR"
      },
      "artists" : [ {
        "external_urls" : {
          "spotify" : "https://open.spotify.com/artist/4WIRlLxuzmZciQ8JS2b3jP"
        },
        "href" : "https://api.spotify.com/v1/artists/4WIRlLxuzmZciQ8JS2b3jP",
        "id" : "4WIRlLxuzmZciQ8JS2b3jP",
        "name" : "Richard Smallwood",
        "type" : "artist",
        "uri" : "spotify:artist:4WIRlLxuzmZciQ8JS2b3jP"
      }, {
        "external_urls" : {
          "spotify" : "https://open.spotify.com/artist/28vGUslhbTPQaqt8pmnK5m"
        },
        "href" : "https://api.spotify.com/v1/artists/28vGUslhbTPQaqt8pmnK5m",
        "id" : "28vGUslhbTPQaqt8pmnK5m",
        "name" : "Vision",
        "type" : "artist",
        "uri" : "spotify:artist:28vGUslhbTPQaqt8pmnK5m"
      } ],
      "disc_number" : 1,
      "duration_ms" : 362000,
      "explicit" : false,
      "external_ids" : {
        "isrc" : "USVE20100126"
      },
      "external_urls" : {
        "spotify" : "https://open.spotify.com/track/0DbTfqXC3I99jvygL9Anyd"
      },
      "href" : "https://api.spotify.com/v1/tracks/0DbTfqXC3I99jvygL9Anyd",
      "id" : "0DbTfqXC3I99jvygL9Anyd",
      "is_local" : false,
      "is_playable" : true,
      "name" : "It Is Well With My Soul/Come Ye Disconsolate (Piano Solo)",
      "popularity" : 12,
      "preview_url" : "https://p.scdn.co/mp3-preview/4b269a2f0ed49e1f31836ff8efbbd7010eaa88c3?cid=774b29d4f13844c495f206cafdad9c86",
      "track_number" : 11,
      "type" : "track",
      "uri" : "spotify:track:0DbTfqXC3I99jvygL9Anyd"
    }, {
      "album" : {
        "album_type" : "album",
        "artists" : [ {
          "external_urls" : {
            "spotify" : "https://open.spotify.com/artist/0HoHU8SXe0g9jJGOfL8rDq"
          },
          "href" : "https://api.spotify.com/v1/artists/0HoHU8SXe0g9jJGOfL8rDq",
          "id" : "0HoHU8SXe0g9jJGOfL8rDq",
          "name" : "Indelible Grace Music",
          "type" : "artist",
          "uri" : "spotify:artist:0HoHU8SXe0g9jJGOfL8rDq"
        } ],
        "external_urls" : {
          "spotify" : "https://open.spotify.com/album/1Ibcxs7oCN4VFa4nfWMyCc"
        },
        "href" : "https://api.spotify.com/v1/albums/1Ibcxs7oCN4VFa4nfWMyCc",
        "id" : "1Ibcxs7oCN4VFa4nfWMyCc",
        "images" : [ {
          "height" : 640,
          "url" : "https://i.scdn.co/image/ab67616d0000b27344c663d7e1e74ea50da4f516",
          "width" : 640
        }, {
          "height" : 300,
          "url" : "https://i.scdn.co/image/ab67616d00001e0244c663d7e1e74ea50da4f516",
          "width" : 300
        }, {
          "height" : 64,
          "url" : "https://i.scdn.co/image/ab67616d0000485144c663d7e1e74ea50da4f516",
          "width" : 64
        } ],
        "name" : "Beams of Heaven: Indelible Grace IV",
        "release_date" : "2008-07-28",
        "release_date_precision" : "day",
        "total_tracks" : 15,
        "type" : "album",
        "uri" : "spotify:album:1Ibcxs7oCN4VFa4nfWMyCc"
      },
      "artists" : [ {
        "external_urls" : {
          "spotify" : "https://open.spotify.com/artist/0HoHU8SXe0g9jJGOfL8rDq"
        },
        "href" : "https://api.spotify.com/v1/artists/0HoHU8SXe0g9jJGOfL8rDq",
        "id" : "0HoHU8SXe0g9jJGOfL8rDq",
        "name" : "Indelible Grace Music",
        "type" : "artist",
        "uri" : "spotify:artist:0HoHU8SXe0g9jJGOfL8rDq"
      } ],
      "disc_number" : 1,
      "duration_ms" : 226520,
      "explicit" : false,
      "external_ids" : {
        "isrc" : "USTC60817668"
      },
      "external_urls" : {
        "spotify" : "https://open.spotify.com/track/7C4hTEkHw8Pdv8IsrRMAUJ"
      },
      "href" : "https://api.spotify.com/v1/tracks/7C4hTEkHw8Pdv8IsrRMAUJ",
      "id" : "7C4hTEkHw8Pdv8IsrRMAUJ",
      "is_local" : false,
      "is_playable" : true,
      "name" : "Come Ye Disconsolate [Rachel Briggs]",
      "popularity" : 11,
      "preview_url" : "https://p.scdn.co/mp3-preview/00b552511e1614b4a51150eb4a1aea756ac2c765?cid=774b29d4f13844c495f206cafdad9c86",
      "track_number" : 9,
      "type" : "track",
      "uri" : "spotify:track:7C4hTEkHw8Pdv8IsrRMAUJ"
    }, {
      "album" : {
        "album_type" : "album",
        "artists" : [ {
          "external_urls" : {
            "spotify" : "https://open.spotify.com/artist/0HU0U9kdXEHZVxUNbuQe8S"
          },
          "href" : "https://api.spotify.com/v1/artists/0HU0U9kdXEHZVxUNbuQe8S",
          "id" : "0HU0U9kdXEHZVxUNbuQe8S",
          "name" : "Donny Hathaway",
          "type" : "artist",
          "uri" : "spotify:artist:0HU0U9kdXEHZVxUNbuQe8S"
        } ],
        "external_urls" : {
          "spotify" : "https://open.spotify.com/album/4kINvyMdIqyuXAtpoCKGIO"
        },
        "href" : "https://api.spotify.com/v1/albums/4kINvyMdIqyuXAtpoCKGIO",
        "id" : "4kINvyMdIqyuXAtpoCKGIO",
        "images" : [ {
          "height" : 640,
          "url" : "https://i.scdn.co/image/ab67616d0000b2734fe227fca31cc64bc03ad854",
          "width" : 640
        }, {
          "height" : 300,
          "url" : "https://i.scdn.co/image/ab67616d00001e024fe227fca31cc64bc03ad854",
          "width" : 300
        }, {
          "height" : 64,
          "url" : "https://i.scdn.co/image/ab67616d000048514fe227fca31cc64bc03ad854",
          "width" : 64
        } ],
        "name" : "Never My Love: The Anthology",
        "release_date" : "2013-11-05",
        "release_date_precision" : "day",
        "total_tracks" : 58,
        "type" : "album",
        "uri" : "spotify:album:4kINvyMdIqyuXAtpoCKGIO"
      },
      "artists" : [ {
        "external_urls" : {
          "spotify" : "https://open.spotify.com/artist/0W498bDDNlJIrYMKXdpLHA"
        },
        "href" : "https://api.spotify.com/v1/artists/0W498bDDNlJIrYMKXdpLHA",
        "id" : "0W498bDDNlJIrYMKXdpLHA",
        "name" : "Roberta Flack",
        "type" : "artist",
        "uri" : "spotify:artist:0W498bDDNlJIrYMKXdpLHA"
      }, {
        "external_urls" : {
          "spotify" : "https://open.spotify.com/artist/0HU0U9kdXEHZVxUNbuQe8S"
        },
        "href" : "https://api.spotify.com/v1/artists/0HU0U9kdXEHZVxUNbuQe8S",
        "id" : "0HU0U9kdXEHZVxUNbuQe8S",
        "name" : "Donny Hathaway",
        "type" : "artist",
        "uri" : "spotify:artist:0HU0U9kdXEHZVxUNbuQe8S"
      } ],
      "disc_number" : 4,
      "duration_ms" : 292840,
      "explicit" : false,
      "external_ids" : {
        "isrc" : "USAT20002654"
      },
      "external_urls" : {
        "spotify" : "https://open.spotify.com/track/69mMgwYMTfsdtkOn878vOv"
      },
      "href" : "https://api.spotify.com/v1/tracks/69mMgwYMTfsdtkOn878vOv",
      "id" : "69mMgwYMTfsdtkOn878vOv",
      "is_local" : false,
      "is_playable" : true,
      "name" : "Come Ye Disconsolate",
      "popularity" : 13,
      "preview_url" : "https://p.scdn.co/mp3-preview/edba902aa7e1793396b6b0b930dabd2c391988c1?cid=774b29d4f13844c495f206cafdad9c86",
      "track_number" : 9,
      "type" : "track",
      "uri" : "spotify:track:69mMgwYMTfsdtkOn878vOv"
    }, {
      "album" : {
        "album_type" : "compilation",
        "artists" : [ {
          "external_urls" : {
            "spotify" : "https://open.spotify.com/artist/0LyfQWJT6nXafLPZqxe9Of"
          },
          "href" : "https://api.spotify.com/v1/artists/0LyfQWJT6nXafLPZqxe9Of",
          "id" : "0LyfQWJT6nXafLPZqxe9Of",
          "name" : "Various Artists",
          "type" : "artist",
          "uri" : "spotify:artist:0LyfQWJT6nXafLPZqxe9Of"
        } ],
        "external_urls" : {
          "spotify" : "https://open.spotify.com/album/1CTHn37F4HsoRpQtRQSCwj"
        },
        "href" : "https://api.spotify.com/v1/albums/1CTHn37F4HsoRpQtRQSCwj",
        "id" : "1CTHn37F4HsoRpQtRQSCwj",
        "images" : [ {
          "height" : 640,
          "url" : "https://i.scdn.co/image/ab67616d0000b273b8ec519f4de4bf761586fd2c",
          "width" : 640
        }, {
          "height" : 300,
          "url" : "https://i.scdn.co/image/ab67616d00001e02b8ec519f4de4bf761586fd2c",
          "width" : 300
        }, {
          "height" : 64,
          "url" : "https://i.scdn.co/image/ab67616d00004851b8ec519f4de4bf761586fd2c",
          "width" : 64
        } ],
        "name" : "Another Testament: Music of the Living Savior",
        "release_date" : "2009-10-13",
        "release_date_precision" : "day",
        "total_tracks" : 12,
        "type" : "album",
        "uri" : "spotify:album:1CTHn37F4HsoRpQtRQSCwj"
      },
      "artists" : [ {
        "external_urls" : {
          "spotify" : "https://open.spotify.com/artist/0WRxaMws83cgdKYVsu22Au"
        },
        "href" : "https://api.spotify.com/v1/artists/0WRxaMws83cgdKYVsu22Au",
        "id" : "0WRxaMws83cgdKYVsu22Au",
        "name" : "Freddie Ashby",
        "type" : "artist",
        "uri" : "spotify:artist:0WRxaMws83cgdKYVsu22Au"
      } ],
      "disc_number" : 1,
      "duration_ms" : 400706,
      "explicit" : false,
      "external_ids" : {
        "isrc" : "US23M0900287"
      },
      "external_urls" : {
        "spotify" : "https://open.spotify.com/track/7b0g3wRxq0fh76LUgZ8A9b"
      },
      "href" : "https://api.spotify.com/v1/tracks/7b0g3wRxq0fh76LUgZ8A9b",
      "id" : "7b0g3wRxq0fh76LUgZ8A9b",
      "is_local" : false,
      "is_playable" : true,
      "name" : "Come, Ye Disconsolate",
      "popularity" : 9,
      "preview_url" : "https://p.scdn.co/mp3-preview/c9127ed19b947497dc4f2bc8631719d2334a4009?cid=774b29d4f13844c495f206cafdad9c86",
      "track_number" : 8,
      "type" : "track",
      "uri" : "spotify:track:7b0g3wRxq0fh76LUgZ8A9b"
    }, {
      "album" : {
        "album_type" : "album",
        "artists" : [ {
          "external_urls" : {
            "spotify" : "https://open.spotify.com/artist/39ib8pqVcqDu3hucdrKaQn"
          },
          "href" : "https://api.spotify.com/v1/artists/39ib8pqVcqDu3hucdrKaQn",
          "id" : "39ib8pqVcqDu3hucdrKaQn",
          "name" : "Rob Gardner, Spire Chorus & London Symphony Orchestra",
          "type" : "artist",
          "uri" : "spotify:artist:39ib8pqVcqDu3hucdrKaQn"
        } ],
        "external_urls" : {
          "spotify" : "https://open.spotify.com/album/4v9zTgWdKDaWia7k8DCWNU"
        },
        "href" : "https://api.spotify.com/v1/albums/4v9zTgWdKDaWia7k8DCWNU",
        "id" : "4v9zTgWdKDaWia7k8DCWNU",
        "images" : [ {
          "height" : 640,
          "url" : "https://i.scdn.co/image/ab67616d0000b2734c53550ec511356146222b56",
          "width" : 640
        }, {
          "height" : 300,
          "url" : "https://i.scdn.co/image/ab67616d00001e024c53550ec511356146222b56",
          "width" : 300
        }, {
          "height" : 64,
          "url" : "https://i.scdn.co/image/ab67616d000048514c53550ec511356146222b56",
          "width" : 64
        } ],
        "name" : "We Must Sing",
        "release_date" : "2012-11-06",
        "release_date_precision" : "day",
        "total_tracks" : 19,
        "type" : "album",
        "uri" : "spotify:album:4v9zTgWdKDaWia7k8DCWNU"
      },
      "artists" : [ {
        "external_urls" : {
          "spotify" : "https://open.spotify.com/artist/39ib8pqVcqDu3hucdrKaQn"
        },
        "href" : "https://api.spotify.com/v1/artists/39ib8pqVcqDu3hucdrKaQn",
        "id" : "39ib8pqVcqDu3hucdrKaQn",
        "name" : "Rob Gardner, Spire Chorus & London Symphony Orchestra",
        "type" : "artist",
        "uri" : "spotify:artist:39ib8pqVcqDu3hucdrKaQn"
      } ],
      "disc_number" : 1,
      "duration_ms" : 287741,
      "explicit" : false,
      "external_ids" : {
        "isrc" : "ushm91282829"
      },
      "external_urls" : {
        "spotify" : "https://open.spotify.com/track/4c86fY0xkGSC8bIMpdeUqQ"
      },
      "href" : "https://api.spotify.com/v1/tracks/4c86fY0xkGSC8bIMpdeUqQ",
      "id" : "4c86fY0xkGSC8bIMpdeUqQ",
      "is_local" : false,
      "is_playable" : true,
      "name" : "Come, Ye Disconsolate",
      "popularity" : 9,
      "preview_url" : "https://p.scdn.co/mp3-preview/93d540b07b8872f902028104455d3df65e5536f9?cid=774b29d4f13844c495f206cafdad9c86",
      "track_number" : 14,
      "type" : "track",
      "uri" : "spotify:track:4c86fY0xkGSC8bIMpdeUqQ"
    }, {
      "album" : {
        "album_type" : "album",
        "artists" : [ {
          "external_urls" : {
            "spotify" : "https://open.spotify.com/artist/6nezkdChBrDq5RSdO3ZdfZ"
          },
          "href" : "https://api.spotify.com/v1/artists/6nezkdChBrDq5RSdO3ZdfZ",
          "id" : "6nezkdChBrDq5RSdO3ZdfZ",
          "name" : "Lyle Hadlock",
          "type" : "artist",
          "uri" : "spotify:artist:6nezkdChBrDq5RSdO3ZdfZ"
        } ],
        "external_urls" : {
          "spotify" : "https://open.spotify.com/album/7aFRjE35lIorTJ7Ac0DfHi"
        },
        "href" : "https://api.spotify.com/v1/albums/7aFRjE35lIorTJ7Ac0DfHi",
        "id" : "7aFRjE35lIorTJ7Ac0DfHi",
        "images" : [ {
          "height" : 640,
          "url" : "https://i.scdn.co/image/ab67616d0000b273a0072b5e76bb45efcd7a5bce",
          "width" : 640
        }, {
          "height" : 300,
          "url" : "https://i.scdn.co/image/ab67616d00001e02a0072b5e76bb45efcd7a5bce",
          "width" : 300
        }, {
          "height" : 64,
          "url" : "https://i.scdn.co/image/ab67616d00004851a0072b5e76bb45efcd7a5bce",
          "width" : 64
        } ],
        "name" : "Take Time to Be Holy",
        "release_date" : "2009-11-17",
        "release_date_precision" : "day",
        "total_tracks" : 11,
        "type" : "album",
        "uri" : "spotify:album:7aFRjE35lIorTJ7Ac0DfHi"
      },
      "artists" : [ {
        "external_urls" : {
          "spotify" : "https://open.spotify.com/artist/6nezkdChBrDq5RSdO3ZdfZ"
        },
        "href" : "https://api.spotify.com/v1/artists/6nezkdChBrDq5RSdO3ZdfZ",
        "id" : "6nezkdChBrDq5RSdO3ZdfZ",
        "name" : "Lyle Hadlock",
        "type" : "artist",
        "uri" : "spotify:artist:6nezkdChBrDq5RSdO3ZdfZ"
      } ],
      "disc_number" : 1,
      "duration_ms" : 255986,
      "explicit" : false,
      "external_ids" : {
        "isrc" : "USTCB0953599"
      },
      "external_urls" : {
        "spotify" : "https://open.spotify.com/track/4FdPdkPAzUZPK4hNDh485K"
      },
      "href" : "https://api.spotify.com/v1/tracks/4FdPdkPAzUZPK4hNDh485K",
      "id" : "4FdPdkPAzUZPK4hNDh485K",
      "is_local" : false,
      "is_playable" : true,
      "name" : "Come, Ye Disconsolate / Sheep May Safely Graze",
      "popularity" : 10,
      "preview_url" : "https://p.scdn.co/mp3-preview/a26d8d4654977c443751a939672bdc703a131854?cid=774b29d4f13844c495f206cafdad9c86",
      "track_number" : 2,
      "type" : "track",
      "uri" : "spotify:track:4FdPdkPAzUZPK4hNDh485K"
    }, {
      "album" : {
        "album_type" : "album",
        "artists" : [ {
          "external_urls" : {
            "spotify" : "https://open.spotify.com/artist/0LyfQWJT6nXafLPZqxe9Of"
          },
          "href" : "https://api.spotify.com/v1/artists/0LyfQWJT6nXafLPZqxe9Of",
          "id" : "0LyfQWJT6nXafLPZqxe9Of",
          "name" : "Various Artists",
          "type" : "artist",
          "uri" : "spotify:artist:0LyfQWJT6nXafLPZqxe9Of"
        } ],
        "external_urls" : {
          "spotify" : "https://open.spotify.com/album/2Og5mYAvk2tIN6Wv9FgLTB"
        },
        "href" : "https://api.spotify.com/v1/albums/2Og5mYAvk2tIN6Wv9FgLTB",
        "id" : "2Og5mYAvk2tIN6Wv9FgLTB",
        "images" : [ {
          "height" : 640,
          "url" : "https://i.scdn.co/image/ab67616d0000b273ec4c6379f59e839809bdafcd",
          "width" : 640
        }, {
          "height" : 300,
          "url" : "https://i.scdn.co/image/ab67616d00001e02ec4c6379f59e839809bdafcd",
          "width" : 300
        }, {
          "height" : 64,
          "url" : "https://i.scdn.co/image/ab67616d00004851ec4c6379f59e839809bdafcd",
          "width" : 64
        } ],
        "name" : "My Cry Ascends: New Parish Psalms",
        "release_date" : "2010-04-23",
        "release_date_precision" : "day",
        "total_tracks" : 16,
        "type" : "album",
        "uri" : "spotify:album:2Og5mYAvk2tIN6Wv9FgLTB"
      },
      "artists" : [ {
        "external_urls" : {
          "spotify" : "https://open.spotify.com/artist/3hjYpUBTyp2v0JwuxRJGKR"
        },
        "href" : "https://api.spotify.com/v1/artists/3hjYpUBTyp2v0JwuxRJGKR",
        "id" : "3hjYpUBTyp2v0JwuxRJGKR",
        "name" : "Nathan Clark George",
        "type" : "artist",
        "uri" : "spotify:artist:3hjYpUBTyp2v0JwuxRJGKR"
      } ],
      "disc_number" : 1,
      "duration_ms" : 197583,
      "explicit" : false,
      "external_ids" : {
        "isrc" : "usdy42075499"
      },
      "external_urls" : {
        "spotify" : "https://open.spotify.com/track/4ILcW9rUzOtRWpKm1aRiQK"
      },
      "href" : "https://api.spotify.com/v1/tracks/4ILcW9rUzOtRWpKm1aRiQK",
      "id" : "4ILcW9rUzOtRWpKm1aRiQK",
      "is_local" : false,
      "is_playable" : true,
      "name" : "Come Ye Disconsolate Where're Ye Languish",
      "popularity" : 7,
      "preview_url" : "https://p.scdn.co/mp3-preview/c034630709dcd7dce4655f6add0b968b851462f8?cid=774b29d4f13844c495f206cafdad9c86",
      "track_number" : 8,
      "type" : "track",
      "uri" : "spotify:track:4ILcW9rUzOtRWpKm1aRiQK"
    }, {
      "album" : {
        "album_type" : "album",
        "artists" : [ {
          "external_urls" : {
            "spotify" : "https://open.spotify.com/artist/1MmubZDiFWXhOXz941cRRp"
          },
          "href" : "https://api.spotify.com/v1/artists/1MmubZDiFWXhOXz941cRRp",
          "id" : "1MmubZDiFWXhOXz941cRRp",
          "name" : "Our Daily Bread",
          "type" : "artist",
          "uri" : "spotify:artist:1MmubZDiFWXhOXz941cRRp"
        } ],
        "external_urls" : {
          "spotify" : "https://open.spotify.com/album/1rXuOoosy5TOjlHe1dy8VQ"
        },
        "href" : "https://api.spotify.com/v1/albums/1rXuOoosy5TOjlHe1dy8VQ",
        "id" : "1rXuOoosy5TOjlHe1dy8VQ",
        "images" : [ {
          "height" : 640,
          "url" : "https://i.scdn.co/image/ab67616d0000b27359e9049f1b339d22644a8385",
          "width" : 640
        }, {
          "height" : 300,
          "url" : "https://i.scdn.co/image/ab67616d00001e0259e9049f1b339d22644a8385",
          "width" : 300
        }, {
          "height" : 64,
          "url" : "https://i.scdn.co/image/ab67616d0000485159e9049f1b339d22644a8385",
          "width" : 64
        } ],
        "name" : "Our Daily Bread Hymns of Praise & Wonder and Hymns for the Wounded Heart",
        "release_date" : "2017-10-02",
        "release_date_precision" : "day",
        "total_tracks" : 20,
        "type" : "album",
        "uri" : "spotify:album:1rXuOoosy5TOjlHe1dy8VQ"
      },
      "artists" : [ {
        "external_urls" : {
          "spotify" : "https://open.spotify.com/artist/1MmubZDiFWXhOXz941cRRp"
        },
        "href" : "https://api.spotify.com/v1/artists/1MmubZDiFWXhOXz941cRRp",
        "id" : "1MmubZDiFWXhOXz941cRRp",
        "name" : "Our Daily Bread",
        "type" : "artist",
        "uri" : "spotify:artist:1MmubZDiFWXhOXz941cRRp"
      } ],
      "disc_number" : 1,
      "duration_ms" : 164158,
      "explicit" : false,
      "external_ids" : {
        "isrc" : "USLF51702303"
      },
      "external_urls" : {
        "spotify" : "https://open.spotify.com/track/1hqQiUo3cZUPYgdoY3zKTj"
      },
      "href" : "https://api.spotify.com/v1/tracks/1hqQiUo3cZUPYgdoY3zKTj",
      "id" : "1hqQiUo3cZUPYgdoY3zKTj",
      "is_local" : false,
      "is_playable" : true,
      "name" : "Come Ye, Disconsolate",
      "popularity" : 13,
      "preview_url" : "https://p.scdn.co/mp3-preview/5c64218ffef53bc085de22df82b4e8ee3a2343f6?cid=774b29d4f13844c495f206cafdad9c86",
      "track_number" : 13,
      "type" : "track",
      "uri" : "spotify:track:1hqQiUo3cZUPYgdoY3zKTj"
    } ],
    "limit" : 10,
    "next" : "https://api.spotify.com/v1/search?query=Come%2C+Ye+Disconsolate&type=track&market=US&offset=15&limit=10",
    "offset" : 5,
    "previous" : "https://api.spotify.com/v1/search?query=Come%2C+Ye+Disconsolate&type=track&market=US&offset=0&limit=10",
    "total" : 138
  }
}