{
  "tracks" : {
    "href" : "https://api.spotify.com/v1/search?query=I+Heard+the+Voice+of+Jesus&type=track&market=US&offset=5&limit=10",
    "items" : [ {
      "album" : {
        "album_type" : "album",
        "artists" : [ {
          "external_urls" : {
            "spotify" : "https://open.spotify.com/artist/7gjHSq6MQ3C2RNdlIkbYnG"
          },
          "href" : "https://api.spotify.com/v1/artists/7gjHSq6MQ3C2RNdlIkbYnG",
          "id" : "7gjHSq6MQ3C2RNdlIkbYnG",
          "name" : "Instrumental Christian Songs, Christian Piano Music",
          "type" : "artist",
          "uri" : "spotify:artist:7gjHSq6MQ3C2RNdlIkbYnG"
        }, {
          "external_urls" : {
            "spotify" : "https://open.spotify.com/artist/1tJVia5eeqSOYTb6pQZeDg"
          },
          "href" : "https://api.spotify.com/v1/artists/1tJVia5eeqSOYTb6pQZeDg",
          "id" : "1tJVia5eeqSOYTb6pQZeDg",
          "name" : "Catholic Hymns",
          "type" : "artist",
          "uri" : "spotify:artist:1tJVia5eeqSOYTb6pQZeDg"
        } ],
        "external_urls" : {
          "spotify" : "https://open.spotify.com/album/5XFvWr2ehct4LlhKV7gDLV"
        },
        "href" : "https://api.spotify.com/v1/albums/5XFvWr2ehct4LlhKV7gDLV",
        "id" : "5XFvWr2ehct4LlhKV7gDLV",
        "images" : [ {
          "height" : 640,
          "url" : "https://i.scdn.co/image/ab67616d0000b273aed20226ddf8b7bcab55d566",
          "width" : 640
        }, {
          "height" : 300,
          "url" : "https://i.scdn.co/image/ab67616d00001e02aed20226ddf8b7bcab55d566",
          "width" : 300
        }, {
          "height" : 64,
          "url" : "https://i.scdn.co/image/ab67616d00004851aed20226ddf8b7bcab55d566",
          "width" : 64
        } ],
        "name" : "Healing Hymns for Religious Retreats",
        "release_date" : "2020-03-06",
        "release_date_precision" : "day",
        "total_tracks" : 15,
        "type" : "album",
        "uri" : "spotify:album:5XFvWr2ehct4LlhKV7gDLV"
      },
      "artists" : [ {
        "external_urls" : {
          "spotify" : "https://open.spotify.com/artist/7gjHSq6MQ3C2RNdlIkbYnG"
        },
        "href" : "https://api.spotify.com/v1/artists/7gjHSq6MQ3C2RNdlIkbYnG",
        "id" : "7gjHSq6MQ3C2RNdlIkbYnG",
        "name" : "Instrumental Christian Songs, Christian Piano Music",
        "type" : "artist",
        "uri" : "spotify:artist:7gjHSq6MQ3C2RNdlIkbYnG"
      }, {
        "external_urls" : {
          "spotify" : "https://open.spotify.com/artist/1tJVia5eeqSOYTb6pQZeDg"
        },
        "href" : "https://api.spotify.com/v1/artists/1tJVia5eeqSOYTb6pQZeDg",
        "id" : "1tJVia5eeqSOYTb6pQZeDg",
        "name" : "Catholic Hymns",
        "type" : "artist",
        "uri" : "spotify:artist:1tJVia5eeqSOYTb6pQZeDg"
      } ],
      "disc_number" : 1,
      "duration_ms" : 244901,
      "explicit" : false,
      "external_ids" : {
        "isrc" : "TCAER2003963"
      },
      "external_urls" : {
        "spotify" : "https://open.spotify.com/track/2w3Utm59JqQL6ShXUPbLqM"
      },
      "href" : "https://api.spotify.com/v1/tracks/2w3Utm59JqQL6ShXUPbLqM",
      "id" : "2w3Utm59JqQL6ShXUPbLqM",
      "is_local" : false,
      "is_playable" : true,
      "name" : "Night Sky (I Heard the Voice of Jesus Say) [Instrumental Version]",
      "popularity" : 19,
      "preview_url" : "https://p.scdn.co/mp3-preview/cde277a051aba4129a7783d3ecdaa20cd8bb5342?cid=774b29d4f13844c495f206cafdad9c86",
      "track_number" : 9,
      "type" : "track",
      "uri" : "spotify:track:2w3Utm59JqQL6ShXUPbLqM"
    }, {
      "album" : {
        "album_type" : "album",
        "artists" : [ {
          "external_urls" : {
            "spotify" : "https://open.spotify.com/artist/5aHE1EAT1F5E1kdvWCqObF"
          },
          "href" : "https://api.spotify.com/v1/artists/5aHE1EAT1F5E1kdvWCqObF",
          "id" : "5aHE1EAT1F5E1kdvWCqObF",
          "name" : "Steven Anderson",
          "type" : "artist",
          "uri" : "spotify:artist:5aHE1EAT1F5E1kdvWCqObF"
        } ],
        "external_urls" : {
          "spotify" : "https://open.spotify.com/album/6MZS1etLxJvBzpsVjohKuy"
        },
        "href" : "https://api.spotify.com/v1/albums/6MZS1etLxJvBzpsVjohKuy",
        "id" : "6MZS1etLxJvBzpsVjohKuy",
        "images" : [ {
          "height" : 640,
          "url" : "https://i.scdn.co/image/ab67616d0000b273efca516eb6732d9692e558fe",
          "width" : 640
        }, {
          "height" : 300,
          "url" : "https://i.scdn.co/image/ab67616d00001e02efca516eb6732d9692e558fe",
          "width" : 300
        }, {
          "height" : 64,
          "url" : "https://i.scdn.co/image/ab67616d00004851efca516eb6732d9692e558fe",
          "width" : 64
        } ],
        "name" : "101 Classic Piano Hymns",
        "release_date" : "2005",
        "release_date_precision" : "year",
        "total_tracks" : 101,
        "type" : "album",
        "uri" : "spotify:album:6MZS1etLxJvBzpsVjohKuy"
      },
      "artists" : [ {
        "external_urls" : {
          "spotify" : "https://open.spotify.com/artist/5aHE1EAT1F5E1kdvWCqObF"
        },
        "href" : "https://api.spotify.com/v1/artists/5aHE1EAT1F5E1kdvWCqObF",
        "id" : "5aHE1EAT1F5E1kdvWCqObF",
        "name" : "Steven Anderson",
        "type" : "artist",
        "uri" : "spotify:artist:5aHE1EAT1F5E1kdvWCqObF"
      } ],
      "disc_number" : 1,
      "duration_ms" : 117320,
      "explicit" : false,
      "external_ids" : {
        "isrc" : "CAM460603205"
      },
      "external_urls" : {
        "spotify" : "https://open.spotify.com/track/4aWGgw19Kg1BYKNsahmjp9"
      },
      "href" : "https://api.spotify.com/v1/tracks/4aWGgw19Kg1BYKNsahmjp9",
      "id" : "4aWGgw19Kg1BYKNsahmjp9",
      "is_local" : false,
      "is_playable" : true,
      "name" : "I Heard The Voice Of Jesus",
      "popularity" : 15,
      "preview_url" : "https://p.scdn.co/mp3-preview/eb29d4fd993999e29d214f28bf329a91156452ec?cid=774b29d4f13844c495f206cafdad9c86",
      "track_number" : 5,
      "type" : "track",
      "uri" : "spotify:track:4aWGgw19Kg1BYKNsahmjp9"
    }, {
      "album" : {
        "album_type" : "album",
        "artists" : [ {
          "external_urls" : {
            "spotify" : "https://open.spotify.com/artist/7uEFrOGxNHmiolKBiS7o9c"
          },
          "href" : "https://api.spotify.com/v1/artists/7uEFrOGxNHmiolKBiS7o9c",
          "id" : "7uEFrOGxNHmiolKBiS7o9c",
          "name" : "Classical Robot",
          "type" : "artist",
          "uri" : "spotify:artist:7uEFrOGxNHmiolKBiS7o9c"
        } ],
        "external_urls" : {
          "spotify" : "https://open.spotify.com/album/7aTnEc45QiTAYhtqxUa21C"
        },
        "href" : "https://api.spotify.com/v1/albums/7aTnEc45QiTAYhtqxUa21C",
        "id" : "7aTnEc45QiTAYhtqxUa21C",
        "images" : [ {
          "height" : 640,
          "url" : "https://i.scdn.co/image/ab67616d0000b2733ac5e26f7975692ef4f2bb83",
          "width" : 640
        }, {
          "height" : 300,
          "url" : "https://i.scdn.co/image/ab67616d00001e023ac5e26f7975692ef4f2bb83",
          "width" : 300
        }, {
          "height" : 64,
          "url" : "https://i.scdn.co/image/ab67616d000048513ac5e26f7975692ef4f2bb83",
          "width" : 64
        } ],
        "name" : "Classical Robot Goes to Church",
        "release_date" : "2019-05-03",
        "release_date_precision" : "day",
        "total_tracks" : 40,
        "type" : "album",
        "uri" : "spotify:album:7aTnEc45QiTAYhtqxUa21C"
      },
      "artists" : [ {
        "external_urls" : {
          "spotify" : "https://open.spotify.com/artist/7uEFrOGxNHmiolKBiS7o9c"
        },
        "href" : "https://api.spotify.com/v1/artists/7uEFrOGxNHmiolKBiS7o9c",
        "id" : "7uEFrOGxNHmiolKBiS7o9c",
        "name" : "Classical Robot",
        "type" : "artist",
        "uri" : "spotify:artist:7uEFrOGxNHmiolKBiS7o9c"
      } ],
      "disc_number" : 1,
      "duration_ms" : 100565,
      "explicit" : false,
      "external_ids" : {
        "isrc" : "TCAEF1921379"
      },
      "external_urls" : {
        "spotify" : "https://open.spotify.com/track/2bNtVxsIrPgk0XdqeFjLiv"
      },
      "href" : "https://api.spotify.com/v1/tracks/2bNtVxsIrPgk0XdqeFjLiv",
      "id" : "2bNtVxsIrPgk0XdqeFjLiv",
      "is_local" : false,
      "is_playable" : true,
      "name" : "I Heard the Voice of Jesus Say",
      "popularity" : 13,
      "preview_url" : "https://p.scdn.co/mp3-preview/4900180b3366401df5c87d8adf026f6699c3ef67?cid=774b29d4f13844c495f206cafdad9c86",
      "track_number" : 39,
      "type" : "track",
      "uri" : "spotify:track:2bNtVxsIrPgk0XdqeFjLiv"
    }, {
      "album" : {
        "album_type" : "album",
        "artists" : [ {
          "external_urls" : {
            "spotify" : "https://open.spotify.com/artist/35ufIa5SJNtsQMIKrQeYfN"
          },
          "href" : "https://api.spotify.com/v1/artists/35ufIa5SJNtsQMIKrQeYfN",
          "id" : "35ufIa5SJNtsQMIKrQeYfN",
          "name" : "Michael Card",
          "type" : "artist",
          "uri" : "spotify:artist:35ufIa5SJNtsQMIKrQeYfN"
        } ],
        "external_urls" : {
          "spotify" : "https://open.spotify.com/album/0uui431NrPMsfsIlvUH2Kz"
        },
        "href" : "https://api.spotify.com/v1/albums/0uui431NrPMsfsIlvUH2Kz",
        "id" : "0uui431NrPMsfsIlvUH2Kz",
        "images" : [ {
          "height" : 640,
          "url" : "https://i.scdn.co/image/ab67616d0000b27343c04a8b1da30e7702f59e24",
          "width" : 640
        }, {
          "height" : 300,
          "url" : "https://i.scdn.co/image/ab67616d00001e0243c04a8b1da30e7702f59e24",
          "width" : 300
        }, {
          "height" : 64,
          "url" : "https://i.scdn.co/image/ab67616d0000485143c04a8b1da30e7702f59e24",
          "width" : 64
        } ],
        "name" : "Starkindler: A Celtic Conversation Across Time",
        "release_date" : "1998-10-28",
        "release_date_precision" : "day",
        "total_tracks" : 10,
        "type" : "album",
        "uri" : "spotify:album:0uui431NrPMsfsIlvUH2Kz"
      },
      "artists" : [ {
        "external_urls" : {
          "spotify" : "https://open.spotify.com/artist/35ufIa5SJNtsQMIKrQeYfN"
        },
        "href" : "https://api.spotify.com/v1/artists/35ufIa5SJNtsQMIKrQeYfN",
        "id" : "35ufIa5SJNtsQMIKrQeYfN",
        "name" : "Michael Card",
        "type" : "artist",
        "uri" : "spotify:artist:35ufIa5SJNtsQMIKrQeYfN"
      } ],
      "disc_number" : 1,
      "duration_ms" : 286200,
      "explicit" : false,
      "external_ids" : {
        "isrc" : "USSM19803474"
      },
      "external_urls" : {
        "spotify" : "https://open.spotify.com/track/1VBuBSQkF15Ufhmx83ULjt"
      },
      "href" : "https://api.spotify.com/v1/tracks/1VBuBSQkF15Ufhmx83ULjt",
      "id" : "1VBuBSQkF15Ufhmx83ULjt",
      "is_local" : false,
      "is_playable" : true,
      "name" : "I Heard The Voice Of Jesus Say/Blarney Pilgrim",
      "popularity" : 12,
      "preview_url" : "https://p.scdn.co/mp3-preview/a0047b1625512738c34e75eecb620f3409920c34?cid=774b29d4f13844c495f206cafdad9c86",
      "track_number" : 8,
      "type" : "track",
      "uri" : "spotify:track:1VBuBSQkF15Ufhmx83ULjt"
    }, {
      "album" : {
        "album_type" : "album",
        "artists" : [ {
          "external_urls" : {
            "spotify" : "https://open.spotify.com/artist/1X0LWRcdNgYOWiGEd6ahuG"
          },
          "href" : "https://api.spotify.com/v1/artists/1X0LWRcdNgYOWiGEd6ahuG",
          "id" : "1X0LWRcdNgYOWiGEd6ahuG",
          "name" : "St. Andrews Hymns",
          "type" : "artist",
          "uri" : "spotify:artist:1X0LWRcdNgYOWiGEd6ahuG"
        } ],
        "external_urls" : {
          "spotify" : "https://open.spotify.com/album/2hKN1zQudHlE4ecyMsEb8K"
        },
        "href" : "https://api.spotify.com/v1/albums/2hKN1zQudHlE4ecyMsEb8K",
        "id" : "2hKN1zQudHlE4ecyMsEb8K",
        "images" : [ {
          "height" : 640,
          "url" : "https://i.scdn.co/image/ab67616d0000b2734874f846b5e8554a6810b426",
          "width" : 640
        }, {
          "height" : 300,
          "url" : "https://i.scdn.co/image/ab67616d00001e024874f846b5e8554a6810b426",
          "width" : 300
        }, {
          "height" : 64,
          "url" : "https://i.scdn.co/image/ab67616d000048514874f846b5e8554a6810b426",
          "width" : 64
        } ],
        "name" : "Safely Home",
        "release_date" : "2012-06-12",
        "release_date_precision" : "day",
        "total_tracks" : 12,
        "type" : "album",
        "uri" : "spotify:album:2hKN1zQudHlE4ecyMsEb8K"
      },
      "artists" : [ {
        "external_urls" : {
          "spotify" : "https://open.spotify.com/artist/1X0LWRcdNgYOWiGEd6ahuG"
        },
        "href" : "https://api.spotify.com/v1/artists/1X0LWRcdNgYOWiGEd6ahuG",
        "id" : "1X0LWRcdNgYOWiGEd6ahuG",
        "name" : "St. Andrews Hymns",
        "type" : "artist",
        "uri" : "spotify:artist:1X0LWRcdNgYOWiGEd6ahuG"
      } ],
      "disc_number" : 1,
      "duration_ms" : 209066,
      "explicit" : false,
      "external_ids" : {
        "isrc" : "TCABG1290499"
      },
      "external_urls" : {
        "spotify" : "https://open.spotify.com/track/1QkGOwBpEEbACndAXDVf42"
      },
      "href" : "https://api.spotify.com/v1/tracks/1QkGOwBpEEbACndAXDVf42",
      "id" : "1QkGOwBpEEbACndAXDVf42",
      "is_local" : false,
      "is_playable" : true,
      "name" : "I Heard the Voice of Jesus Say",
      "popularity" : 13,
      "preview_url" : "https://p.scdn.co/mp3-preview/ab5cc9a4c5ea3e49d856482603d9ca78de472744?cid=774b29d4f13844c495f206cafdad9c86",
      "track_number" : 2,
      "type" : "track",
      "uri" : "spotify:track:1QkGOwBpEEbACndAXDVf42"
    }, {
      "album" : {
        "album_type" : "album",
        "artists" : [ {
          "external_urls" : {
            "spotify" : "https://open.spotify.com/artist/1TRZYAlP0bNz0dZCbWAjsI"
          },
          "href" : "https://api.spotify.com/v1/artists/1TRZYAlP0bNz0dZCbWAjsI",
          "id" : "1TRZYAlP0bNz0dZCbWAjsI",
          "name" : "Steve Petrunak",
          "type" : "artist",
          "uri" : "spotify:artist:1TRZYAlP0bNz0dZCbWAjsI"
        } ],
        "external_urls" : {
          "spotify" : "https://open.spotify.com/album/22yOZJ3mUJxsejpN72fIfG"
        },
        "href" : "https://api.spotify.com/v1/albums/22yOZJ3mUJxsejpN72fIfG",
        "id" : "22yOZJ3mUJxsejpN72fIfG",
        "images" : [ {
          "height" : 640,
          "url" : "https://i.scdn.co/image/ab67616d0000b273cb5dd37eb233c5c5a8e520b3",
          "width" : 640
        }, {
          "height" : 300,
          "url" : "https://i.scdn.co/image/ab67616d00001e02cb5dd37eb233c5c5a8e520b3",
          "width" : 300
        }, {
          "height" : 64,
          "url" : "https://i.scdn.co/image/ab67616d00004851cb5dd37eb233c5c5a8e520b3",
          "width" : 64
        } ],
        "name" : "Guitar for Spiritual Reflection",
        "release_date" : "2020-02-27",
        "release_date_precision" : "day",
        "total_tracks" : 15,
        "type" : "album",
        "uri" : "spotify:album:22yOZJ3mUJxsejpN72fIfG"
      },
      "artists" : [ {
        "external_urls" : {
          "spotify" : "https://open.spotify.com/artist/1TRZYAlP0bNz0dZCbWAjsI"
        },
        "href" : "https://api.spotify.com/v1/artists/1TRZYAlP0bNz0dZCbWAjsI",
        "id" : "1TRZYAlP0bNz0dZCbWAjsI",
        "name" : "Steve Petrunak",
        "type" : "artist",
        "uri" : "spotify:artist:1TRZYAlP0bNz0dZCbWAjsI"
      } ],
      "disc_number" : 1,
      "duration_ms" : 244901,
      "explicit" : false,
      "external_ids" : {
        "isrc" : "TCAER2003963"
      },
      "external_urls" : {
        "spotify" : "https://open.spotify.com/track/1wx34Itf8ZANXLxhxGemnl"
      },
      "href" : "https://api.spotify.com/v1/tracks/1wx34Itf8ZANXLxhxGemnl",
      "id" : "1wx34Itf8ZANXLxhxGemnl",
      "is_local" : false,
      "is_playable" : true,
      "name" : "Night Sky (I Heard the Voice of Jesus Say) [Instrumental Version]",
      "popularity" : 15,
      "preview_url" : "https://p.scdn.co/mp3-preview/cde277a051aba4129a7783d3ecdaa20cd8bb5342?cid=774b29d4f13844c495f206cafdad9c86",
      "track_number" : 6,
      "type" : "track",
      "uri" : "spotify:track:1wx34Itf8ZANXLxhxGemnl"
    }, {
      "album" : {
        "album_type" : "compilation",
        "artists" : [ {
          "external_urls" : {
            "spotify" : "https://open.spotify.com/artist/0LyfQWJT6nXafLPZqxe9Of"
          },
          "href" : "https://api.spotify.com/v1/artists/0LyfQWJT6nXafLPZqxe9Of",
          "id" : "0LyfQWJT6nXafLPZqxe9Of",
          "name" : "Various Artists",
          "type" : "artist",
          "uri" : "spotify:artist:0LyfQWJT6nXafLPZqxe9Of"
        } ],
        "external_urls" : {
          "spotify" : "https://open.spotify.com/album/3B8RDo8TQOuZY1XW7f8Q7j"
        },
        "href" : "https://api.spotify.com/v1/albums/3B8RDo8TQOuZY1XW7f8Q7j",
        "id" : "3B8RDo8TQOuZY1XW7f8Q7j",
        "images" : [ {
          "height" : 640,
          "url" : "https://i.scdn.co/image/ab67616d0000b273557e583a229f5763d0bade9e",
          "width" : 640
        }, {
          "height" : 300,
          "url" : "https://i.scdn.co/image/ab67616d00001e02557e583a229f5763d0bade9e",
          "width" : 300
        }, {
          "height" : 64,
          "url" : "https://i.scdn.co/image/ab67616d00004851557e583a229f5763d0bade9e",
          "width" : 64
        } ],
        "name" : "Journeysongs Third Edition: Volume 23",
        "release_date" : "2012-05-01",
        "release_date_precision" : "day",
        "total_tracks" : 25,
        "type" : "album",
        "uri" : "spotify:album:3B8RDo8TQOuZY1XW7f8Q7j"
      },
      "artists" : [ {
        "external_urls" : {
          "spotify" : "https://open.spotify.com/artist/6hum8SNBrQuPDimy0noNsD"
        },
        "href" : "https://api.spotify.com/v1/artists/6hum8SNBrQuPDimy0noNsD",
        "id" : "6hum8SNBrQuPDimy0noNsD",
        "name" : "Horatius Bonar",
        "type" : "artist",
        "uri" : "spotify:artist:6hum8SNBrQuPDimy0noNsD"
      }, {
        "external_urls" : {
          "spotify" : "https://open.spotify.com/artist/7lv2GyLOrGHZLA7zaeZoZv"
        },
        "href" : "https://api.spotify.com/v1/artists/7lv2GyLOrGHZLA7zaeZoZv",
        "id" : "7lv2GyLOrGHZLA7zaeZoZv",
        "name" : "Randall DeBruyn",
        "type" : "artist",
        "uri" : "spotify:artist:7lv2GyLOrGHZLA7zaeZoZv"
      }, {
        "external_urls" : {
          "spotify" : "https://open.spotify.com/artist/7wNkISK49lKeXuRaZcQVFe"
        },
        "href" : "https://api.spotify.com/v1/artists/7wNkISK49lKeXuRaZcQVFe",
        "id" : "7wNkISK49lKeXuRaZcQVFe",
        "name" : "Ralph Vaughan Williams",
        "type" : "artist",
        "uri" : "spotify:artist:7wNkISK49lKeXuRaZcQVFe"
      } ],
      "disc_number" : 1,
      "duration_ms" : 199627,
      "explicit" : false,
      "external_ids" : {
        "isrc" : "USA4N1301748"
      },
      "external_urls" : {
        "spotify" : "https://open.spotify.com/track/3z70Uq0JHC3xFS1vmqkgsz"
      },
      "href" : "https://api.spotify.com/v1/tracks/3z70Uq0JHC3xFS1vmqkgsz",
      "id" : "3z70Uq0JHC3xFS1vmqkgsz",
      "is_local" : false,
      "is_playable" : true,
      "name" : "I Heard the Voice of Jesus",
      "popularity" : 10,
      "preview_url" : "https://p.scdn.co/mp3-preview/14e7803f164fc2a7c7cd85d63e96261d08cefef0?cid=774b29d4f13844c495f206cafdad9c86",
      "track_number" : 4,
      "type" : "track",
      "uri" : "spotify:track:3z70Uq0JHC3xFS1vmqkgsz"
    }, {
      "album" : {
        "album_type" : "album",
        "artists" : [ {
          "external_urls" : {
            "spotify" : "https://open.spotify.com/artist/0HoHU8SXe0g9jJGOfL8rDq"
          },
          "href" : "https://api.spotify.com/v1/artists/0HoHU8SXe0g9jJGOfL8rDq",
          "id" : "0HoHU8SXe0g9jJGOfL8rDq",
          "name" : "Indelible Grace Music",
          "type" : "artist",
          "uri" : "spotify:artist:0HoHU8SXe0g9jJGOfL8rDq"
        } ],
        "external_urls" : {
          "spotify" : "https://open.spotify.com/album/6RMHbntVPReDCl3HIQJkIE"
        },
        "href" : "https://api.spotify.com/v1/albums/6RMHbntVPReDCl3HIQJkIE",
        "id" : "6RMHbntVPReDCl3HIQJkIE",
        "images" : [ {
          "height" : 640,
          "url" : "https://i.scdn.co/image/ab67616d0000b273fd6baab031e6f68eb1a70780",
          "width" : 640
        }, {
          "height" : 300,
          "url" : "https://i.scdn.co/image/ab67616d00001e02fd6baab031e6f68eb1a70780",
          "width" : 300
        }, {
          "height" : 64,
          "url" : "https://i.scdn.co/image/ab67616d00004851fd6baab031e6f68eb1a70780",
          "width" : 64
        } ],
        "name" : "Indelible Grace Side B",
        "release_date" : "2008-10-06",
        "release_date_precision" : "day",
        "total_tracks" : 10,
        "type" : "album",
        "uri" : "spotify:album:6RMHbntVPReDCl3HIQJkIE"
      },
      "artists" : [ {
        "external_urls" : {
          "spotify" : "https://open.spotify.com/artist/0HoHU8SXe0g9jJGOfL8rDq"
        },
        "href" : "https://api.spotify.com/v1/artists/0HoHU8SXe0g9jJGOfL8rDq",
        "id" : "0HoHU8SXe0g9jJGOfL8rDq",
        "name" : "Indelible Grace Music",
        "type" : "artist",
        "uri" : "spotify:artist:0HoHU8SXe0g9jJGOfL8rDq"
      } ],
      "disc_number" : 1,
      "duration_ms" : 259440,
      "explicit" : false,
      "external_ids" : {
        "isrc" : "USTC60888378"
      },
      "external_urls" : {
        "spotify" : "https://open.spotify.com/track/0hPJ8Cd3X51FvZB5zPMQ03"
      },
      "href" : "https://api.spotify.com/v1/tracks/0hPJ8Cd3X51FvZB5zPMQ03",
      "id" : "0hPJ8Cd3X51FvZB5zPMQ03",
      "is_local" : false,
      "is_playable" : true,
      "name" : "I Heard the Voice of Jesus Say",
      "popularity" : 11,
      "preview_url" : "https://p.scdn.co/mp3-preview/5164cf92a29e83de6bd6bd73339d0e498e1d4e90?cid=774b29d4f13844c495f206cafdad9c86",
      "track_number" : 4,
      "type" : "track",
      "uri" : "spotify:track:0hPJ8Cd3X51FvZB5zPMQ03"
    }, {
      "album" : {
        "album_type" : "album",
        "artists" : [ {
          "external_urls" : {
            "spotify" : "https://open.spotify.com/artist/5oz3xnIptNFH4sJvH7ffe2"
          },
          "href" : "https://api.spotify.com/v1/artists/5oz3xnIptNFH4sJvH7ffe2",
          "id" : "5oz3xnIptNFH4sJvH7ffe2",
          "name" : "Joel Clarkson",
          "type" : "artist",
          "uri" : "spotify:artist:5oz3xnIptNFH4sJvH7ffe2"
        } ],
        "external_urls" : {
          "spotify" : "https://open.spotify.com/album/1Y2OqV58xKHXQdSuqDdxEM"
        },
        "href" : "https://api.spotify.com/v1/albums/1Y2OqV58xKHXQdSuqDdxEM",
        "id" : "1Y2OqV58xKHXQdSuqDdxEM",
        "images" : [ {
          "height" : 640,
          "url" : "https://i.scdn.co/image/ab67616d0000b273d16340cbed61173db51dd9c1",
          "width" : 640
        }, {
          "height" : 300,
          "url" : "https://i.scdn.co/image/ab67616d00001e02d16340cbed61173db51dd9c1",
          "width" : 300
        }, {
          "height" : 64,
          "url" : "https://i.scdn.co/image/ab67616d00004851d16340cbed61173db51dd9c1",
          "width" : 64
        } ],
        "name" : "Hymns for the Lifegiving Home",
        "release_date" : "2017-01-20",
        "release_date_precision" : "day",
        "total_tracks" : 10,
        "type" : "album",
        "uri" : "spotify:album:1Y2OqV58xKHXQdSuqDdxEM"
      },
      "artists" : [ {
        "external_urls" : {
          "spotify" : "https://open.spotify.com/artist/5oz3xnIptNFH4sJvH7ffe2"
        },
        "href" : "https://api.spotify.com/v1/artists/5oz3xnIptNFH4sJvH7ffe2",
        "id" : "5oz3xnIptNFH4sJvH7ffe2",
        "name" : "Joel Clarkson",
        "type" : "artist",
        "uri" : "spotify:artist:5oz3xnIptNFH4sJvH7ffe2"
      } ],
      "disc_number" : 1,
      "duration_ms" : 188250,
      "explicit" : false,
      "external_ids" : {
        "isrc" : "QM9A91649012"
      },
      "external_urls" : {
        "spotify" : "https://open.spotify.com/track/1jLFaUGhFFbEmV5YV42xeq"
      },
      "href" : "https://api.spotify.com/v1/tracks/1jLFaUGhFFbEmV5YV42xeq",
      "id" : "1jLFaUGhFFbEmV5YV42xeq",
      "is_local" : false,
      "is_playable" : true,
      "name" : "I Heard the Voice of Jesus Say",
      "popularity" : 10,
      "preview_url" : "https://p.scdn.co/mp3-preview/15492db43ce7283654b9759ccc26c731e8081ef2?cid=774b29d4f13844c495f206cafdad9c86",
      "track_number" : 4,
      "type" : "track",
      "uri" : "spotify:track:1jLFaUGhFFbEmV5YV42xeq"
    }, {
      "album" : {
        "album_type" : "album",
        "artists" : [ {
          "external_urls" : {
            "spotify" : "https://open.spotify.com/artist/7xn0dNayS3daHN5MrgmIrc"
          },
          "href" : "https://api.spotify.com/v1/artists/7xn0dNayS3daHN5MrgmIrc",
          "id" : "7xn0dNayS3daHN5MrgmIrc",
          "name" : "Mark Howard",
          "type" : "artist",
          "uri" : "spotify:artist:7xn0dNayS3daHN5MrgmIrc"
        }, {
          "external_urls" : {
            "spotify" : "https://open.spotify.com/artist/53pmIwVqcTM68qW6PVhjW2"
          },
          "href" : "https://api.spotify.com/v1/artists/53pmIwVqcTM68qW6PVhjW2",
          "id" : "53pmIwVqcTM68qW6PVhjW2",
          "name" : "Stuart Duncan",
          "type" : "artist",
          "uri" : "spotify:artist:53pmIwVqcTM68qW6PVhjW2"
        }, {
          "external_urls" : {
            "spotify" : "https://open.spotify.com/artist/5oW7xntz397IxAiDinC6Tk"
          },
          "href" : "https://api.spotify.com/v1/artists/5oW7xntz397IxAiDinC6Tk",
          "id" : "5oW7xntz397IxAiDinC6Tk",
          "name" : "John Mock",
          "type" : "artist",
          "uri" : "spotify:artist:5oW7xntz397IxAiDinC6Tk"
        } ],
        "external_urls" : {
          "spotify" : "https://open.spotify.com/album/4pxgDQte6nErDYRtnDd7JY"
        },
        "href" : "https://api.spotify.com/v1/albums/4pxgDQte6nErDYRtnDd7JY",
        "id" : "4pxgDQte6nErDYRtnDd7JY",
        "images" : [ {
          "height" : 640,
          "url" : "https://i.scdn.co/image/ab67616d0000b27395074ca62165b7a803e0b487",
          "width" : 640
        }, {
          "height" : 300,
          "url" : "https://i.scdn.co/image/ab67616d00001e0295074ca62165b7a803e0b487",
          "width" : 300
        }, {
          "height" : 64,
          "url" : "https://i.scdn.co/image/ab67616d0000485195074ca62165b7a803e0b487",
          "width" : 64
        } ],
        "name" : "Irish Hymns",
        "release_date" : "2009-06-09",
        "release_date_precision" : "day",
        "total_tracks" : 13,
        "type" : "album",
        "uri" : "spotify:album:4pxgDQte6nErDYRtnDd7JY"
      },
      "artists" : [ {
        "external_urls" : {
          "spotify" : "https://open.spotify.com/artist/7xn0dNayS3daHN5MrgmIrc"
        },
        "href" : "https://api.spotify.com/v1/artists/7xn0dNayS3daHN5MrgmIrc",
        "id" : "7xn0dNayS3daHN5MrgmIrc",
        "name" : "Mark Howard",
        "type" : "artist",
        "uri" : "spotify:artist:7xn0dNayS3daHN5MrgmIrc"
      }, {
        "external_urls" : {
          "spotify" : "https://open.spotify.com/artist/5oW7xntz397IxAiDinC6Tk"
        },
        "href" : "https://api.spotify.com/v1/artists/5oW7xntz397IxAiDinC6Tk",
        "id" : "5oW7xntz397IxAiDinC6Tk",
        "name" : "John Mock",
        "type" : "artist",
        "uri" : "spotify:artist:5oW7xntz397IxAiDinC6Tk"
      }, {
        "external_urls" : {
          "spotify" : "https://open.spotify.com/artist/53pmIwVqcTM68qW6PVhjW2"
        },
        "href" : "https://api.spotify.com/v1/artists/53pmIwVqcTM68qW6PVhjW2",
        "id" : "53pmIwVqcTM68qW6PVhjW2",
        "name" : "Stuart Duncan",
        "type" : "artist",
        "uri" : "spotify:artist:53pmIwVqcTM68qW6PVhjW2"
      } ],
      "disc_number" : 1,
      "duration_ms" : 166693,
      "explicit" : false,
      "external_ids" : {
        "isrc" : "US43Z0910235"
      },
      "external_urls" : {
        "spotify" : "https://open.spotify.com/track/5Z8PMX4y4I0JDKJQJrE6HW"
      },
      "href" : "https://api.spotify.com/v1/tracks/5Z8PMX4y4I0JDKJQJrE6HW",
      "id" : "5Z8PMX4y4I0JDKJQJrE6HW",
      "is_local" : false,
      "is_playable" : true,
      "name" : "I Heard The Voice Of Jesus Say - Instrumental",
      "popularity" : 11,
      "preview_url" : "https://p.scdn.co/mp3-preview/0a2e38ecfc084cb4bbb7644c21c5f22f599cfe04?cid=774b29d4f13844c495f206cafdad9c86",
      "track_number" : 5,
      "type" : "track",
      "uri" : "spotify:track:5Z8PMX4y4I0JDKJQJrE6HW"
    } ],
    "limit" : 10,
    "next" : "https://api.spotify.com/v1/search?query=I+Heard+the+Voice+of+Jesus&type=track&market=US&offset=15&limit=10",
    "offset" : 5,
    "previous" : "https://api.spotify.com/v1/search?query=I+Heard+the+Voice+of+Jesus&type=track&market=US&offset=0&limit=10",
    "total" : 266
  }
}