{
  "tracks" : {
    "href" : "https://api.spotify.com/v1/search?query=Never+Part+Again&type=track&market=US&offset=5&limit=10",
    "items" : [ {
      "album" : {
        "album_type" : "single",
        "artists" : [ {
          "external_urls" : {
            "spotify" : "https://open.spotify.com/artist/6tvrEIVX5eKJlipdzt11wi"
          },
          "href" : "https://api.spotify.com/v1/artists/6tvrEIVX5eKJlipdzt11wi",
          "id" : "6tvrEIVX5eKJlipdzt11wi",
          "name" : "Park Boram",
          "type" : "artist",
          "uri" : "spotify:artist:6tvrEIVX5eKJlipdzt11wi"
        } ],
        "external_urls" : {
          "spotify" : "https://open.spotify.com/album/23T8IExqplmEeLrmNhXpQR"
        },
        "href" : "https://api.spotify.com/v1/albums/23T8IExqplmEeLrmNhXpQR",
        "id" : "23T8IExqplmEeLrmNhXpQR",
        "images" : [ {
          "height" : 640,
          "url" : "https://i.scdn.co/image/ab67616d0000b273889e3d2782d10d33adada691",
          "width" : 640
        }, {
          "height" : 300,
          "url" : "https://i.scdn.co/image/ab67616d00001e02889e3d2782d10d33adada691",
          "width" : 300
        }, {
          "height" : 64,
          "url" : "https://i.scdn.co/image/ab67616d00004851889e3d2782d10d33adada691",
          "width" : 64
        } ],
        "name" : "Once again OST Part 1",
        "release_date" : "2020-05-16",
        "release_date_precision" : "day",
        "total_tracks" : 2,
        "type" : "album",
        "uri" : "spotify:album:23T8IExqplmEeLrmNhXpQR"
      },
      "artists" : [ {
        "external_urls" : {
          "spotify" : "https://open.spotify.com/artist/6tvrEIVX5eKJlipdzt11wi"
        },
        "href" : "https://api.spotify.com/v1/artists/6tvrEIVX5eKJlipdzt11wi",
        "id" : "6tvrEIVX5eKJlipdzt11wi",
        "name" : "Park Boram",
        "type" : "artist",
        "uri" : "spotify:artist:6tvrEIVX5eKJlipdzt11wi"
      } ],
      "disc_number" : 1,
      "duration_ms" : 216830,
      "explicit" : false,
      "external_ids" : {
        "isrc" : "KRA382001551"
      },
      "external_urls" : {
        "spotify" : "https://open.spotify.com/track/2hMlAswPg9FJlYZdl4u1ZK"
      },
      "href" : "https://api.spotify.com/v1/tracks/2hMlAswPg9FJlYZdl4u1ZK",
      "id" : "2hMlAswPg9FJlYZdl4u1ZK",
      "is_local" : false,
      "is_playable" : true,
      "name" : "Let`s never meet again (Inst.)",
      "popularity" : 6,
      "preview_url" : "https://p.scdn.co/mp3-preview/74ba3b7202949cedaaf3ea303147b88f969e87e1?cid=774b29d4f13844c495f206cafdad9c86",
      "track_number" : 2,
      "type" : "track",
      "uri" : "spotify:track:2hMlAswPg9FJlYZdl4u1ZK"
    }, {
      "album" : {
        "album_type" : "album",
        "artists" : [ {
          "external_urls" : {
            "spotify" : "https://open.spotify.com/artist/3QK4fNtQUGr2PbZYC5lQzH"
          },
          "href" : "https://api.spotify.com/v1/artists/3QK4fNtQUGr2PbZYC5lQzH",
          "id" : "3QK4fNtQUGr2PbZYC5lQzH",
          "name" : "Kathleen Ferrier",
          "type" : "artist",
          "uri" : "spotify:artist:3QK4fNtQUGr2PbZYC5lQzH"
        } ],
        "external_urls" : {
          "spotify" : "https://open.spotify.com/album/7EutUhyBXEtB7ueFTUxrlt"
        },
        "href" : "https://api.spotify.com/v1/albums/7EutUhyBXEtB7ueFTUxrlt",
        "id" : "7EutUhyBXEtB7ueFTUxrlt",
        "images" : [ {
          "height" : 640,
          "url" : "https://i.scdn.co/image/ab67616d0000b2736feb061432f2888dece0eba6",
          "width" : 640
        }, {
          "height" : 300,
          "url" : "https://i.scdn.co/image/ab67616d00001e026feb061432f2888dece0eba6",
          "width" : 300
        }, {
          "height" : 64,
          "url" : "https://i.scdn.co/image/ab67616d000048516feb061432f2888dece0eba6",
          "width" : 64
        } ],
        "name" : "What Is Life? Songs, Arias And Sacred Pieces From Purcell, Handel, Pergolesi, J.S. Bach, Gluck, Mendelssohn And Britten",
        "release_date" : "1997",
        "release_date_precision" : "year",
        "total_tracks" : 18,
        "type" : "album",
        "uri" : "spotify:album:7EutUhyBXEtB7ueFTUxrlt"
      },
      "artists" : [ {
        "external_urls" : {
          "spotify" : "https://open.spotify.com/artist/3QK4fNtQUGr2PbZYC5lQzH"
        },
        "href" : "https://api.spotify.com/v1/artists/3QK4fNtQUGr2PbZYC5lQzH",
        "id" : "3QK4fNtQUGr2PbZYC5lQzH",
        "name" : "Kathleen Ferrier",
        "type" : "artist",
        "uri" : "spotify:artist:3QK4fNtQUGr2PbZYC5lQzH"
      } ],
      "disc_number" : 1,
      "duration_ms" : 470645,
      "explicit" : false,
      "external_ids" : {
        "isrc" : "GBBPG9744018"
      },
      "external_urls" : {
        "spotify" : "https://open.spotify.com/track/6wSQbnECfiXpBnLPiDw7k6"
      },
      "href" : "https://api.spotify.com/v1/tracks/6wSQbnECfiXpBnLPiDw7k6",
      "id" : "6wSQbnECfiXpBnLPiDw7k6",
      "is_local" : false,
      "is_playable" : true,
      "name" : "Lucretia! Lucretia! O Never Again Must We Two Dare To Part (The Rape Of Lucretia: Britten)",
      "popularity" : 28,
      "preview_url" : "https://p.scdn.co/mp3-preview/f7a00e8a3f24b4263de8e4286079a84fbaf56e9a?cid=774b29d4f13844c495f206cafdad9c86",
      "track_number" : 18,
      "type" : "track",
      "uri" : "spotify:track:6wSQbnECfiXpBnLPiDw7k6"
    }, {
      "album" : {
        "album_type" : "album",
        "artists" : [ {
          "external_urls" : {
            "spotify" : "https://open.spotify.com/artist/01GKiTphQwz4guZQntMha8"
          },
          "href" : "https://api.spotify.com/v1/artists/01GKiTphQwz4guZQntMha8",
          "id" : "01GKiTphQwz4guZQntMha8",
          "name" : "Sunny War",
          "type" : "artist",
          "uri" : "spotify:artist:01GKiTphQwz4guZQntMha8"
        }, {
          "external_urls" : {
            "spotify" : "https://open.spotify.com/artist/5dwBB4lz6Gmuo8v7cgaFli"
          },
          "href" : "https://api.spotify.com/v1/artists/5dwBB4lz6Gmuo8v7cgaFli",
          "id" : "5dwBB4lz6Gmuo8v7cgaFli",
          "name" : "Particle Kid",
          "type" : "artist",
          "uri" : "spotify:artist:5dwBB4lz6Gmuo8v7cgaFli"
        } ],
        "external_urls" : {
          "spotify" : "https://open.spotify.com/album/1fheblTM3HZ0XYf5JTNvfN"
        },
        "href" : "https://api.spotify.com/v1/albums/1fheblTM3HZ0XYf5JTNvfN",
        "id" : "1fheblTM3HZ0XYf5JTNvfN",
        "images" : [ {
          "height" : 640,
          "url" : "https://i.scdn.co/image/ab67616d0000b2730551343707674b45257a67f7",
          "width" : 640
        }, {
          "height" : 300,
          "url" : "https://i.scdn.co/image/ab67616d00001e020551343707674b45257a67f7",
          "width" : 300
        }, {
          "height" : 64,
          "url" : "https://i.scdn.co/image/ab67616d000048510551343707674b45257a67f7",
          "width" : 64
        } ],
        "name" : "Particle War",
        "release_date" : "2018-04-20",
        "release_date_precision" : "day",
        "total_tracks" : 12,
        "type" : "album",
        "uri" : "spotify:album:1fheblTM3HZ0XYf5JTNvfN"
      },
      "artists" : [ {
        "external_urls" : {
          "spotify" : "https://open.spotify.com/artist/5dwBB4lz6Gmuo8v7cgaFli"
        },
        "href" : "https://api.spotify.com/v1/artists/5dwBB4lz6Gmuo8v7cgaFli",
        "id" : "5dwBB4lz6Gmuo8v7cgaFli",
        "name" : "Particle Kid",
        "type" : "artist",
        "uri" : "spotify:artist:5dwBB4lz6Gmuo8v7cgaFli"
      }, {
        "external_urls" : {
          "spotify" : "https://open.spotify.com/artist/01GKiTphQwz4guZQntMha8"
        },
        "href" : "https://api.spotify.com/v1/artists/01GKiTphQwz4guZQntMha8",
        "id" : "01GKiTphQwz4guZQntMha8",
        "name" : "Sunny War",
        "type" : "artist",
        "uri" : "spotify:artist:01GKiTphQwz4guZQntMha8"
      } ],
      "disc_number" : 1,
      "duration_ms" : 281880,
      "explicit" : false,
      "external_ids" : {
        "isrc" : "USXUV1700020"
      },
      "external_urls" : {
        "spotify" : "https://open.spotify.com/track/7HcWVegvCZObug4nW8BtPn"
      },
      "href" : "https://api.spotify.com/v1/tracks/7HcWVegvCZObug4nW8BtPn",
      "id" : "7HcWVegvCZObug4nW8BtPn",
      "is_local" : false,
      "is_playable" : true,
      "name" : "Never Let Me Down Again",
      "popularity" : 13,
      "preview_url" : "https://p.scdn.co/mp3-preview/b9d619c040b57b95d1eb8debfdb6e3966cef8e3f?cid=774b29d4f13844c495f206cafdad9c86",
      "track_number" : 7,
      "type" : "track",
      "uri" : "spotify:track:7HcWVegvCZObug4nW8BtPn"
    }, {
      "album" : {
        "album_type" : "album",
        "artists" : [ {
          "external_urls" : {
            "spotify" : "https://open.spotify.com/artist/32vWCbZh0xZ4o9gkz4PsEU"
          },
          "href" : "https://api.spotify.com/v1/artists/32vWCbZh0xZ4o9gkz4PsEU",
          "id" : "32vWCbZh0xZ4o9gkz4PsEU",
          "name" : "Dolly Parton",
          "type" : "artist",
          "uri" : "spotify:artist:32vWCbZh0xZ4o9gkz4PsEU"
        } ],
        "external_urls" : {
          "spotify" : "https://open.spotify.com/album/5G8Qf6CgCuGyOGh7i97wkH"
        },
        "href" : "https://api.spotify.com/v1/albums/5G8Qf6CgCuGyOGh7i97wkH",
        "id" : "5G8Qf6CgCuGyOGh7i97wkH",
        "images" : [ {
          "height" : 640,
          "url" : "https://i.scdn.co/image/ab67616d0000b273109039dc29c6874976864ef7",
          "width" : 640
        }, {
          "height" : 300,
          "url" : "https://i.scdn.co/image/ab67616d00001e02109039dc29c6874976864ef7",
          "width" : 300
        }, {
          "height" : 64,
          "url" : "https://i.scdn.co/image/ab67616d00004851109039dc29c6874976864ef7",
          "width" : 64
        } ],
        "name" : "Hungry Again",
        "release_date" : "1998-09-29",
        "release_date_precision" : "day",
        "total_tracks" : 12,
        "type" : "album",
        "uri" : "spotify:album:5G8Qf6CgCuGyOGh7i97wkH"
      },
      "artists" : [ {
        "external_urls" : {
          "spotify" : "https://open.spotify.com/artist/32vWCbZh0xZ4o9gkz4PsEU"
        },
        "href" : "https://api.spotify.com/v1/artists/32vWCbZh0xZ4o9gkz4PsEU",
        "id" : "32vWCbZh0xZ4o9gkz4PsEU",
        "name" : "Dolly Parton",
        "type" : "artist",
        "uri" : "spotify:artist:32vWCbZh0xZ4o9gkz4PsEU"
      } ],
      "disc_number" : 1,
      "duration_ms" : 190450,
      "explicit" : false,
      "external_ids" : {
        "isrc" : "USMC19801367"
      },
      "external_urls" : {
        "spotify" : "https://open.spotify.com/track/5JQXHHNHgeWZVY0bryjaxa"
      },
      "href" : "https://api.spotify.com/v1/tracks/5JQXHHNHgeWZVY0bryjaxa",
      "id" : "5JQXHHNHgeWZVY0bryjaxa",
      "is_local" : false,
      "is_playable" : true,
      "name" : "I'll Never Say Goodbye",
      "popularity" : 13,
      "preview_url" : null,
      "track_number" : 8,
      "type" : "track",
      "uri" : "spotify:track:5JQXHHNHgeWZVY0bryjaxa"
    }, {
      "album" : {
        "album_type" : "album",
        "artists" : [ {
          "external_urls" : {
            "spotify" : "https://open.spotify.com/artist/7MJ1pB5d6Vjmzep2zQlorn"
          },
          "href" : "https://api.spotify.com/v1/artists/7MJ1pB5d6Vjmzep2zQlorn",
          "id" : "7MJ1pB5d6Vjmzep2zQlorn",
          "name" : "Benjamin Britten",
          "type" : "artist",
          "uri" : "spotify:artist:7MJ1pB5d6Vjmzep2zQlorn"
        }, {
          "external_urls" : {
            "spotify" : "https://open.spotify.com/artist/50iHvvJi30RIq1mogfCwDr"
          },
          "href" : "https://api.spotify.com/v1/artists/50iHvvJi30RIq1mogfCwDr",
          "id" : "50iHvvJi30RIq1mogfCwDr",
          "name" : "Aldeburgh Festival Ensemble",
          "type" : "artist",
          "uri" : "spotify:artist:50iHvvJi30RIq1mogfCwDr"
        } ],
        "external_urls" : {
          "spotify" : "https://open.spotify.com/album/6nefa9ZiDMvu0peT03Tdtr"
        },
        "href" : "https://api.spotify.com/v1/albums/6nefa9ZiDMvu0peT03Tdtr",
        "id" : "6nefa9ZiDMvu0peT03Tdtr",
        "images" : [ {
          "height" : 640,
          "url" : "https://i.scdn.co/image/ab67616d0000b273b532fb5eac141aa63e30ee48",
          "width" : 640
        }, {
          "height" : 300,
          "url" : "https://i.scdn.co/image/ab67616d00001e02b532fb5eac141aa63e30ee48",
          "width" : 300
        }, {
          "height" : 64,
          "url" : "https://i.scdn.co/image/ab67616d00004851b532fb5eac141aa63e30ee48",
          "width" : 64
        } ],
        "name" : "Britten: The Rape of Lucretia",
        "release_date" : "2012-12-28",
        "release_date_precision" : "day",
        "total_tracks" : 28,
        "type" : "album",
        "uri" : "spotify:album:6nefa9ZiDMvu0peT03Tdtr"
      },
      "artists" : [ {
        "external_urls" : {
          "spotify" : "https://open.spotify.com/artist/7MJ1pB5d6Vjmzep2zQlorn"
        },
        "href" : "https://api.spotify.com/v1/artists/7MJ1pB5d6Vjmzep2zQlorn",
        "id" : "7MJ1pB5d6Vjmzep2zQlorn",
        "name" : "Benjamin Britten",
        "type" : "artist",
        "uri" : "spotify:artist:7MJ1pB5d6Vjmzep2zQlorn"
      }, {
        "external_urls" : {
          "spotify" : "https://open.spotify.com/artist/229td0cozZOy6qzFuXI9kK"
        },
        "href" : "https://api.spotify.com/v1/artists/229td0cozZOy6qzFuXI9kK",
        "id" : "229td0cozZOy6qzFuXI9kK",
        "name" : "Aldeburgh Festival Ensemble/Oliver Knussen/Angelika Kirchschlager/Christopher Purves",
        "type" : "artist",
        "uri" : "spotify:artist:229td0cozZOy6qzFuXI9kK"
      }, {
        "external_urls" : {
          "spotify" : "https://open.spotify.com/artist/3m4IJPdirkdwwxa8hK55QN"
        },
        "href" : "https://api.spotify.com/v1/artists/3m4IJPdirkdwwxa8hK55QN",
        "id" : "3m4IJPdirkdwwxa8hK55QN",
        "name" : "Oliver Knussen",
        "type" : "artist",
        "uri" : "spotify:artist:3m4IJPdirkdwwxa8hK55QN"
      }, {
        "external_urls" : {
          "spotify" : "https://open.spotify.com/artist/50iHvvJi30RIq1mogfCwDr"
        },
        "href" : "https://api.spotify.com/v1/artists/50iHvvJi30RIq1mogfCwDr",
        "id" : "50iHvvJi30RIq1mogfCwDr",
        "name" : "Aldeburgh Festival Ensemble",
        "type" : "artist",
        "uri" : "spotify:artist:50iHvvJi30RIq1mogfCwDr"
      } ],
      "disc_number" : 2,
      "duration_ms" : 290330,
      "explicit" : false,
      "external_ids" : {
        "isrc" : "GBPFW1200252"
      },
      "external_urls" : {
        "spotify" : "https://open.spotify.com/track/2Oy2MTAsF4RIn97KEf7Omz"
      },
      "href" : "https://api.spotify.com/v1/tracks/2Oy2MTAsF4RIn97KEf7Omz",
      "id" : "2Oy2MTAsF4RIn97KEf7Omz",
      "is_local" : false,
      "is_playable" : true,
      "name" : "Rape of Lucretia, Act II, Scene II: Lucretia! O, never again must we two dare to part",
      "popularity" : 15,
      "preview_url" : "https://p.scdn.co/mp3-preview/11c3ac9ccc67fcbf6f4331648383d256b277af63?cid=774b29d4f13844c495f206cafdad9c86",
      "track_number" : 11,
      "type" : "track",
      "uri" : "spotify:track:2Oy2MTAsF4RIn97KEf7Omz"
    }, {
      "album" : {
        "album_type" : "single",
        "artists" : [ {
          "external_urls" : {
            "spotify" : "https://open.spotify.com/artist/4ZBFYNEPYK4KVEdIIbuu6J"
          },
          "href" : "https://api.spotify.com/v1/artists/4ZBFYNEPYK4KVEdIIbuu6J",
          "id" : "4ZBFYNEPYK4KVEdIIbuu6J",
          "name" : "Partwart",
          "type" : "artist",
          "uri" : "spotify:artist:4ZBFYNEPYK4KVEdIIbuu6J"
        } ],
        "external_urls" : {
          "spotify" : "https://open.spotify.com/album/5Q5dfnoCrQrBD88B4ugnWp"
        },
        "href" : "https://api.spotify.com/v1/albums/5Q5dfnoCrQrBD88B4ugnWp",
        "id" : "5Q5dfnoCrQrBD88B4ugnWp",
        "images" : [ {
          "height" : 640,
          "url" : "https://i.scdn.co/image/ab67616d0000b27392f61e8258fa1d16c8cd91fa",
          "width" : 640
        }, {
          "height" : 300,
          "url" : "https://i.scdn.co/image/ab67616d00001e0292f61e8258fa1d16c8cd91fa",
          "width" : 300
        }, {
          "height" : 64,
          "url" : "https://i.scdn.co/image/ab67616d0000485192f61e8258fa1d16c8cd91fa",
          "width" : 64
        } ],
        "name" : "Starting Again",
        "release_date" : "2020-02-28",
        "release_date_precision" : "day",
        "total_tracks" : 6,
        "type" : "album",
        "uri" : "spotify:album:5Q5dfnoCrQrBD88B4ugnWp"
      },
      "artists" : [ {
        "external_urls" : {
          "spotify" : "https://open.spotify.com/artist/4ZBFYNEPYK4KVEdIIbuu6J"
        },
        "href" : "https://api.spotify.com/v1/artists/4ZBFYNEPYK4KVEdIIbuu6J",
        "id" : "4ZBFYNEPYK4KVEdIIbuu6J",
        "name" : "Partwart",
        "type" : "artist",
        "uri" : "spotify:artist:4ZBFYNEPYK4KVEdIIbuu6J"
      } ],
      "disc_number" : 1,
      "duration_ms" : 93422,
      "explicit" : false,
      "external_ids" : {
        "isrc" : "GBMA22069281"
      },
      "external_urls" : {
        "spotify" : "https://open.spotify.com/track/4iXamaLjOoQ3DWAQmLfBVE"
      },
      "href" : "https://api.spotify.com/v1/tracks/4iXamaLjOoQ3DWAQmLfBVE",
      "id" : "4iXamaLjOoQ3DWAQmLfBVE",
      "is_local" : false,
      "is_playable" : true,
      "name" : "Never Stop Dreaming",
      "popularity" : 12,
      "preview_url" : "https://p.scdn.co/mp3-preview/bcc8ccf49f098eaa361570d6124b78436eca0e73?cid=774b29d4f13844c495f206cafdad9c86",
      "track_number" : 3,
      "type" : "track",
      "uri" : "spotify:track:4iXamaLjOoQ3DWAQmLfBVE"
    }, {
      "album" : {
        "album_type" : "album",
        "artists" : [ {
          "external_urls" : {
            "spotify" : "https://open.spotify.com/artist/1PkfHC4LBy4o9UNU2k1yw4"
          },
          "href" : "https://api.spotify.com/v1/artists/1PkfHC4LBy4o9UNU2k1yw4",
          "id" : "1PkfHC4LBy4o9UNU2k1yw4",
          "name" : "Party Nails",
          "type" : "artist",
          "uri" : "spotify:artist:1PkfHC4LBy4o9UNU2k1yw4"
        } ],
        "external_urls" : {
          "spotify" : "https://open.spotify.com/album/7519dtC47VC50DkDZdEJi9"
        },
        "href" : "https://api.spotify.com/v1/albums/7519dtC47VC50DkDZdEJi9",
        "id" : "7519dtC47VC50DkDZdEJi9",
        "images" : [ {
          "height" : 640,
          "url" : "https://i.scdn.co/image/ab67616d0000b273b53a0c4cded8f427567925a8",
          "width" : 640
        }, {
          "height" : 300,
          "url" : "https://i.scdn.co/image/ab67616d00001e02b53a0c4cded8f427567925a8",
          "width" : 300
        }, {
          "height" : 64,
          "url" : "https://i.scdn.co/image/ab67616d00004851b53a0c4cded8f427567925a8",
          "width" : 64
        } ],
        "name" : "Past Lives and Paychecks",
        "release_date" : "2018-10-19",
        "release_date_precision" : "day",
        "total_tracks" : 12,
        "type" : "album",
        "uri" : "spotify:album:7519dtC47VC50DkDZdEJi9"
      },
      "artists" : [ {
        "external_urls" : {
          "spotify" : "https://open.spotify.com/artist/1PkfHC4LBy4o9UNU2k1yw4"
        },
        "href" : "https://api.spotify.com/v1/artists/1PkfHC4LBy4o9UNU2k1yw4",
        "id" : "1PkfHC4LBy4o9UNU2k1yw4",
        "name" : "Party Nails",
        "type" : "artist",
        "uri" : "spotify:artist:1PkfHC4LBy4o9UNU2k1yw4"
      } ],
      "disc_number" : 1,
      "duration_ms" : 200713,
      "explicit" : false,
      "external_ids" : {
        "isrc" : "US92U1800947"
      },
      "external_urls" : {
        "spotify" : "https://open.spotify.com/track/3b2aUn6dDN2O8JWq1S1ev5"
      },
      "href" : "https://api.spotify.com/v1/tracks/3b2aUn6dDN2O8JWq1S1ev5",
      "id" : "3b2aUn6dDN2O8JWq1S1ev5",
      "is_local" : false,
      "is_playable" : true,
      "name" : "Never Look Again",
      "popularity" : 7,
      "preview_url" : "https://p.scdn.co/mp3-preview/811c3fa7668d9d74fcc3413a4b9cfb14efdf8588?cid=774b29d4f13844c495f206cafdad9c86",
      "track_number" : 3,
      "type" : "track",
      "uri" : "spotify:track:3b2aUn6dDN2O8JWq1S1ev5"
    }, {
      "album" : {
        "album_type" : "album",
        "artists" : [ {
          "external_urls" : {
            "spotify" : "https://open.spotify.com/artist/3HGpQkENCx0Yl4vFTPde3t"
          },
          "href" : "https://api.spotify.com/v1/artists/3HGpQkENCx0Yl4vFTPde3t",
          "id" : "3HGpQkENCx0Yl4vFTPde3t",
          "name" : "Robbins Island Music Group",
          "type" : "artist",
          "uri" : "spotify:artist:3HGpQkENCx0Yl4vFTPde3t"
        } ],
        "external_urls" : {
          "spotify" : "https://open.spotify.com/album/1PtwrSc1hi718yeYEWFcp2"
        },
        "href" : "https://api.spotify.com/v1/albums/1PtwrSc1hi718yeYEWFcp2",
        "id" : "1PtwrSc1hi718yeYEWFcp2",
        "images" : [ {
          "height" : 640,
          "url" : "https://i.scdn.co/image/ab67616d0000b2730b5e8ae46ece0aa1ff0ab3d2",
          "width" : 640
        }, {
          "height" : 300,
          "url" : "https://i.scdn.co/image/ab67616d00001e020b5e8ae46ece0aa1ff0ab3d2",
          "width" : 300
        }, {
          "height" : 64,
          "url" : "https://i.scdn.co/image/ab67616d000048510b5e8ae46ece0aa1ff0ab3d2",
          "width" : 64
        } ],
        "name" : "Instrumental Dinner Music: Soothing Background Music for Your Dinner Party",
        "release_date" : "2014-03-02",
        "release_date_precision" : "day",
        "total_tracks" : 15,
        "type" : "album",
        "uri" : "spotify:album:1PtwrSc1hi718yeYEWFcp2"
      },
      "artists" : [ {
        "external_urls" : {
          "spotify" : "https://open.spotify.com/artist/3HGpQkENCx0Yl4vFTPde3t"
        },
        "href" : "https://api.spotify.com/v1/artists/3HGpQkENCx0Yl4vFTPde3t",
        "id" : "3HGpQkENCx0Yl4vFTPde3t",
        "name" : "Robbins Island Music Group",
        "type" : "artist",
        "uri" : "spotify:artist:3HGpQkENCx0Yl4vFTPde3t"
      } ],
      "disc_number" : 1,
      "duration_ms" : 294000,
      "explicit" : false,
      "external_ids" : {
        "isrc" : "uscgh1497860"
      },
      "external_urls" : {
        "spotify" : "https://open.spotify.com/track/6ik59a5YSs43f1FyFKGfJS"
      },
      "href" : "https://api.spotify.com/v1/tracks/6ik59a5YSs43f1FyFKGfJS",
      "id" : "6ik59a5YSs43f1FyFKGfJS",
      "is_local" : false,
      "is_playable" : true,
      "name" : "I'll Never Fall in Love Again (Instrumental Piano)",
      "popularity" : 7,
      "preview_url" : "https://p.scdn.co/mp3-preview/3feeeb961fe5355f22d128e385795dc10a3a7147?cid=774b29d4f13844c495f206cafdad9c86",
      "track_number" : 2,
      "type" : "track",
      "uri" : "spotify:track:6ik59a5YSs43f1FyFKGfJS"
    }, {
      "album" : {
        "album_type" : "album",
        "artists" : [ {
          "external_urls" : {
            "spotify" : "https://open.spotify.com/artist/7tPMstbTIWDy0DVGwTvLJn"
          },
          "href" : "https://api.spotify.com/v1/artists/7tPMstbTIWDy0DVGwTvLJn",
          "id" : "7tPMstbTIWDy0DVGwTvLJn",
          "name" : "Slumber Party",
          "type" : "artist",
          "uri" : "spotify:artist:7tPMstbTIWDy0DVGwTvLJn"
        } ],
        "external_urls" : {
          "spotify" : "https://open.spotify.com/album/4AKs4Cmf8rJQHuY7ZMPLM7"
        },
        "href" : "https://api.spotify.com/v1/albums/4AKs4Cmf8rJQHuY7ZMPLM7",
        "id" : "4AKs4Cmf8rJQHuY7ZMPLM7",
        "images" : [ {
          "height" : 640,
          "url" : "https://i.scdn.co/image/ab67616d0000b273eef5ba7c7fdf5652cdc4c9bf",
          "width" : 640
        }, {
          "height" : 300,
          "url" : "https://i.scdn.co/image/ab67616d00001e02eef5ba7c7fdf5652cdc4c9bf",
          "width" : 300
        }, {
          "height" : 64,
          "url" : "https://i.scdn.co/image/ab67616d00004851eef5ba7c7fdf5652cdc4c9bf",
          "width" : 64
        } ],
        "name" : "Psychedelicate",
        "release_date" : "2001",
        "release_date_precision" : "year",
        "total_tracks" : 11,
        "type" : "album",
        "uri" : "spotify:album:4AKs4Cmf8rJQHuY7ZMPLM7"
      },
      "artists" : [ {
        "external_urls" : {
          "spotify" : "https://open.spotify.com/artist/7tPMstbTIWDy0DVGwTvLJn"
        },
        "href" : "https://api.spotify.com/v1/artists/7tPMstbTIWDy0DVGwTvLJn",
        "id" : "7tPMstbTIWDy0DVGwTvLJn",
        "name" : "Slumber Party",
        "type" : "artist",
        "uri" : "spotify:artist:7tPMstbTIWDy0DVGwTvLJn"
      } ],
      "disc_number" : 1,
      "duration_ms" : 167960,
      "explicit" : false,
      "external_ids" : {
        "isrc" : "USKRS0337702"
      },
      "external_urls" : {
        "spotify" : "https://open.spotify.com/track/1Kzg2RIIQ3UMTlAWB3otTa"
      },
      "href" : "https://api.spotify.com/v1/tracks/1Kzg2RIIQ3UMTlAWB3otTa",
      "id" : "1Kzg2RIIQ3UMTlAWB3otTa",
      "is_local" : false,
      "is_playable" : true,
      "name" : "Never Again",
      "popularity" : 3,
      "preview_url" : "https://p.scdn.co/mp3-preview/569127bdfaf8e86eca4848d506389f51b781e325?cid=774b29d4f13844c495f206cafdad9c86",
      "track_number" : 2,
      "type" : "track",
      "uri" : "spotify:track:1Kzg2RIIQ3UMTlAWB3otTa"
    }, {
      "album" : {
        "album_type" : "album",
        "artists" : [ {
          "external_urls" : {
            "spotify" : "https://open.spotify.com/artist/1X6zCKoqOOBE8rdqKmCJMP"
          },
          "href" : "https://api.spotify.com/v1/artists/1X6zCKoqOOBE8rdqKmCJMP",
          "id" : "1X6zCKoqOOBE8rdqKmCJMP",
          "name" : "Wine Drinking & Robbins Island Music Artists",
          "type" : "artist",
          "uri" : "spotify:artist:1X6zCKoqOOBE8rdqKmCJMP"
        } ],
        "external_urls" : {
          "spotify" : "https://open.spotify.com/album/3ZIigkCdZVxVAUF6muEQPR"
        },
        "href" : "https://api.spotify.com/v1/albums/3ZIigkCdZVxVAUF6muEQPR",
        "id" : "3ZIigkCdZVxVAUF6muEQPR",
        "images" : [ {
          "height" : 640,
          "url" : "https://i.scdn.co/image/ab67616d0000b273248f3d86d8555eb6e2999d8b",
          "width" : 640
        }, {
          "height" : 300,
          "url" : "https://i.scdn.co/image/ab67616d00001e02248f3d86d8555eb6e2999d8b",
          "width" : 300
        }, {
          "height" : 64,
          "url" : "https://i.scdn.co/image/ab67616d00004851248f3d86d8555eb6e2999d8b",
          "width" : 64
        } ],
        "name" : "Music to Enjoy Wine by: Relaxing Instrumentals for Wine Drinking, Drink Wine Party, Cocktail Hour",
        "release_date" : "2011-01-08",
        "release_date_precision" : "day",
        "total_tracks" : 15,
        "type" : "album",
        "uri" : "spotify:album:3ZIigkCdZVxVAUF6muEQPR"
      },
      "artists" : [ {
        "external_urls" : {
          "spotify" : "https://open.spotify.com/artist/1X6zCKoqOOBE8rdqKmCJMP"
        },
        "href" : "https://api.spotify.com/v1/artists/1X6zCKoqOOBE8rdqKmCJMP",
        "id" : "1X6zCKoqOOBE8rdqKmCJMP",
        "name" : "Wine Drinking & Robbins Island Music Artists",
        "type" : "artist",
        "uri" : "spotify:artist:1X6zCKoqOOBE8rdqKmCJMP"
      } ],
      "disc_number" : 1,
      "duration_ms" : 296013,
      "explicit" : false,
      "external_ids" : {
        "isrc" : "uscgh1142743"
      },
      "external_urls" : {
        "spotify" : "https://open.spotify.com/track/1E6orXTAVZboZlKHYXbzqY"
      },
      "href" : "https://api.spotify.com/v1/tracks/1E6orXTAVZboZlKHYXbzqY",
      "id" : "1E6orXTAVZboZlKHYXbzqY",
      "is_local" : false,
      "is_playable" : true,
      "name" : "I'll Never Fall In Love Again",
      "popularity" : 2,
      "preview_url" : "https://p.scdn.co/mp3-preview/e21634b14935ab05d74b92f2b1fb66f9ef6863d2?cid=774b29d4f13844c495f206cafdad9c86",
      "track_number" : 11,
      "type" : "track",
      "uri" : "spotify:track:1E6orXTAVZboZlKHYXbzqY"
    } ],
    "limit" : 10,
    "next" : "https://api.spotify.com/v1/search?query=Never+Part+Again&type=track&market=US&offset=15&limit=10",
    "offset" : 5,
    "previous" : "https://api.spotify.com/v1/search?query=Never+Part+Again&type=track&market=US&offset=0&limit=10",
    "total" : 128
  }
}