{
  "tracks" : {
    "href" : "https://api.spotify.com/v1/search?query=My+Faith+Looks+Up+to+Thee&type=track&market=US&offset=5&limit=10",
    "items" : [ {
      "album" : {
        "album_type" : "album",
        "artists" : [ {
          "external_urls" : {
            "spotify" : "https://open.spotify.com/artist/6eGXFEwOdfD1dIPyu6c5cG"
          },
          "href" : "https://api.spotify.com/v1/artists/6eGXFEwOdfD1dIPyu6c5cG",
          "id" : "6eGXFEwOdfD1dIPyu6c5cG",
          "name" : "Steve Green",
          "type" : "artist",
          "uri" : "spotify:artist:6eGXFEwOdfD1dIPyu6c5cG"
        } ],
        "external_urls" : {
          "spotify" : "https://open.spotify.com/album/599EqUWIHFJuePqXS2vpfu"
        },
        "href" : "https://api.spotify.com/v1/albums/599EqUWIHFJuePqXS2vpfu",
        "id" : "599EqUWIHFJuePqXS2vpfu",
        "images" : [ {
          "height" : 640,
          "url" : "https://i.scdn.co/image/ab67616d0000b2732a4251cf1150b9691024bc56",
          "width" : 640
        }, {
          "height" : 300,
          "url" : "https://i.scdn.co/image/ab67616d00001e022a4251cf1150b9691024bc56",
          "width" : 300
        }, {
          "height" : 64,
          "url" : "https://i.scdn.co/image/ab67616d000048512a4251cf1150b9691024bc56",
          "width" : 64
        } ],
        "name" : "Hymns",
        "release_date" : "2014-09-30",
        "release_date_precision" : "day",
        "total_tracks" : 12,
        "type" : "album",
        "uri" : "spotify:album:599EqUWIHFJuePqXS2vpfu"
      },
      "artists" : [ {
        "external_urls" : {
          "spotify" : "https://open.spotify.com/artist/6eGXFEwOdfD1dIPyu6c5cG"
        },
        "href" : "https://api.spotify.com/v1/artists/6eGXFEwOdfD1dIPyu6c5cG",
        "id" : "6eGXFEwOdfD1dIPyu6c5cG",
        "name" : "Steve Green",
        "type" : "artist",
        "uri" : "spotify:artist:6eGXFEwOdfD1dIPyu6c5cG"
      } ],
      "disc_number" : 1,
      "duration_ms" : 206106,
      "explicit" : false,
      "external_ids" : {
        "isrc" : "US8W71400078"
      },
      "external_urls" : {
        "spotify" : "https://open.spotify.com/track/2SgfvMLRzDEd9nj86KtsIv"
      },
      "href" : "https://api.spotify.com/v1/tracks/2SgfvMLRzDEd9nj86KtsIv",
      "id" : "2SgfvMLRzDEd9nj86KtsIv",
      "is_local" : false,
      "is_playable" : true,
      "name" : "My Faith Looks up to Thee",
      "popularity" : 14,
      "preview_url" : "https://p.scdn.co/mp3-preview/170eb32970d99c65def30f93634ce34c206f2bf5?cid=774b29d4f13844c495f206cafdad9c86",
      "track_number" : 11,
      "type" : "track",
      "uri" : "spotify:track:2SgfvMLRzDEd9nj86KtsIv"
    }, {
      "album" : {
        "album_type" : "album",
        "artists" : [ {
          "external_urls" : {
            "spotify" : "https://open.spotify.com/artist/0fW7wYpfi0yzlc8JPP12jA"
          },
          "href" : "https://api.spotify.com/v1/artists/0fW7wYpfi0yzlc8JPP12jA",
          "id" : "0fW7wYpfi0yzlc8JPP12jA",
          "name" : "Kim Burrell",
          "type" : "artist",
          "uri" : "spotify:artist:0fW7wYpfi0yzlc8JPP12jA"
        } ],
        "external_urls" : {
          "spotify" : "https://open.spotify.com/album/5Q2V6g0F8aABldDTZhUeKk"
        },
        "href" : "https://api.spotify.com/v1/albums/5Q2V6g0F8aABldDTZhUeKk",
        "id" : "5Q2V6g0F8aABldDTZhUeKk",
        "images" : [ {
          "height" : 640,
          "url" : "https://i.scdn.co/image/ab67616d0000b273f152ea704404580e960408f4",
          "width" : 640
        }, {
          "height" : 300,
          "url" : "https://i.scdn.co/image/ab67616d00001e02f152ea704404580e960408f4",
          "width" : 300
        }, {
          "height" : 64,
          "url" : "https://i.scdn.co/image/ab67616d00004851f152ea704404580e960408f4",
          "width" : 64
        } ],
        "name" : "No Ways Tired",
        "release_date" : "2009-04-07",
        "release_date_precision" : "day",
        "total_tracks" : 12,
        "type" : "album",
        "uri" : "spotify:album:5Q2V6g0F8aABldDTZhUeKk"
      },
      "artists" : [ {
        "external_urls" : {
          "spotify" : "https://open.spotify.com/artist/0fW7wYpfi0yzlc8JPP12jA"
        },
        "href" : "https://api.spotify.com/v1/artists/0fW7wYpfi0yzlc8JPP12jA",
        "id" : "0fW7wYpfi0yzlc8JPP12jA",
        "name" : "Kim Burrell",
        "type" : "artist",
        "uri" : "spotify:artist:0fW7wYpfi0yzlc8JPP12jA"
      } ],
      "disc_number" : 1,
      "duration_ms" : 314440,
      "explicit" : false,
      "external_ids" : {
        "isrc" : "USQY50914052"
      },
      "external_urls" : {
        "spotify" : "https://open.spotify.com/track/5VmCZkDATTQNxLcNyc1Z1Z"
      },
      "href" : "https://api.spotify.com/v1/tracks/5VmCZkDATTQNxLcNyc1Z1Z",
      "id" : "5VmCZkDATTQNxLcNyc1Z1Z",
      "is_local" : false,
      "is_playable" : true,
      "name" : "My Faith Looks Up To Thee",
      "popularity" : 11,
      "preview_url" : "https://p.scdn.co/mp3-preview/bc13f3153103ec082944762a157e26b88bf9d577?cid=774b29d4f13844c495f206cafdad9c86",
      "track_number" : 8,
      "type" : "track",
      "uri" : "spotify:track:5VmCZkDATTQNxLcNyc1Z1Z"
    }, {
      "album" : {
        "album_type" : "album",
        "artists" : [ {
          "external_urls" : {
            "spotify" : "https://open.spotify.com/artist/6SGhROQYSIxgiCvxfXfp4p"
          },
          "href" : "https://api.spotify.com/v1/artists/6SGhROQYSIxgiCvxfXfp4p",
          "id" : "6SGhROQYSIxgiCvxfXfp4p",
          "name" : "Maurette Brown Clark",
          "type" : "artist",
          "uri" : "spotify:artist:6SGhROQYSIxgiCvxfXfp4p"
        } ],
        "external_urls" : {
          "spotify" : "https://open.spotify.com/album/7tkKOcab5iPrhJ3lNnknQk"
        },
        "href" : "https://api.spotify.com/v1/albums/7tkKOcab5iPrhJ3lNnknQk",
        "id" : "7tkKOcab5iPrhJ3lNnknQk",
        "images" : [ {
          "height" : 640,
          "url" : "https://i.scdn.co/image/ab67616d0000b2733a478d481b15abf813057d4e",
          "width" : 640
        }, {
          "height" : 300,
          "url" : "https://i.scdn.co/image/ab67616d00001e023a478d481b15abf813057d4e",
          "width" : 300
        }, {
          "height" : 64,
          "url" : "https://i.scdn.co/image/ab67616d000048513a478d481b15abf813057d4e",
          "width" : 64
        } ],
        "name" : "The Sound of Victory",
        "release_date" : "2011-11-08",
        "release_date_precision" : "day",
        "total_tracks" : 12,
        "type" : "album",
        "uri" : "spotify:album:7tkKOcab5iPrhJ3lNnknQk"
      },
      "artists" : [ {
        "external_urls" : {
          "spotify" : "https://open.spotify.com/artist/6SGhROQYSIxgiCvxfXfp4p"
        },
        "href" : "https://api.spotify.com/v1/artists/6SGhROQYSIxgiCvxfXfp4p",
        "id" : "6SGhROQYSIxgiCvxfXfp4p",
        "name" : "Maurette Brown Clark",
        "type" : "artist",
        "uri" : "spotify:artist:6SGhROQYSIxgiCvxfXfp4p"
      } ],
      "disc_number" : 1,
      "duration_ms" : 188333,
      "explicit" : false,
      "external_ids" : {
        "isrc" : "USAL11101365"
      },
      "external_urls" : {
        "spotify" : "https://open.spotify.com/track/2mqp4MhHkzjsD0FkQHujMN"
      },
      "href" : "https://api.spotify.com/v1/tracks/2mqp4MhHkzjsD0FkQHujMN",
      "id" : "2mqp4MhHkzjsD0FkQHujMN",
      "is_local" : false,
      "is_playable" : true,
      "name" : "My Faith Looks Up to Thee",
      "popularity" : 9,
      "preview_url" : "https://p.scdn.co/mp3-preview/215cb702499ac106ff6953a7d34f325d9d21dd5c?cid=774b29d4f13844c495f206cafdad9c86",
      "track_number" : 10,
      "type" : "track",
      "uri" : "spotify:track:2mqp4MhHkzjsD0FkQHujMN"
    }, {
      "album" : {
        "album_type" : "album",
        "artists" : [ {
          "external_urls" : {
            "spotify" : "https://open.spotify.com/artist/6v2VjBVPcGVbBqJrUWYiG1"
          },
          "href" : "https://api.spotify.com/v1/artists/6v2VjBVPcGVbBqJrUWYiG1",
          "id" : "6v2VjBVPcGVbBqJrUWYiG1",
          "name" : "Kirk Whalum",
          "type" : "artist",
          "uri" : "spotify:artist:6v2VjBVPcGVbBqJrUWYiG1"
        } ],
        "external_urls" : {
          "spotify" : "https://open.spotify.com/album/32X0W4HRWDodzORBvVTzj5"
        },
        "href" : "https://api.spotify.com/v1/albums/32X0W4HRWDodzORBvVTzj5",
        "id" : "32X0W4HRWDodzORBvVTzj5",
        "images" : [ {
          "height" : 640,
          "url" : "https://i.scdn.co/image/ab67616d0000b2739d5f1fa7cf82e934d7cb9b21",
          "width" : 640
        }, {
          "height" : 300,
          "url" : "https://i.scdn.co/image/ab67616d00001e029d5f1fa7cf82e934d7cb9b21",
          "width" : 300
        }, {
          "height" : 64,
          "url" : "https://i.scdn.co/image/ab67616d000048519d5f1fa7cf82e934d7cb9b21",
          "width" : 64
        } ],
        "name" : "Hymns in the Garden",
        "release_date" : "2001-09-21",
        "release_date_precision" : "day",
        "total_tracks" : 13,
        "type" : "album",
        "uri" : "spotify:album:32X0W4HRWDodzORBvVTzj5"
      },
      "artists" : [ {
        "external_urls" : {
          "spotify" : "https://open.spotify.com/artist/6v2VjBVPcGVbBqJrUWYiG1"
        },
        "href" : "https://api.spotify.com/v1/artists/6v2VjBVPcGVbBqJrUWYiG1",
        "id" : "6v2VjBVPcGVbBqJrUWYiG1",
        "name" : "Kirk Whalum",
        "type" : "artist",
        "uri" : "spotify:artist:6v2VjBVPcGVbBqJrUWYiG1"
      } ],
      "disc_number" : 1,
      "duration_ms" : 319346,
      "explicit" : false,
      "external_ids" : {
        "isrc" : "US6PL0100006"
      },
      "external_urls" : {
        "spotify" : "https://open.spotify.com/track/1CKURnwFQ2bD0XWCZiTAiB"
      },
      "href" : "https://api.spotify.com/v1/tracks/1CKURnwFQ2bD0XWCZiTAiB",
      "id" : "1CKURnwFQ2bD0XWCZiTAiB",
      "is_local" : false,
      "is_playable" : true,
      "name" : "My Faith Looks up to Thee",
      "popularity" : 9,
      "preview_url" : "https://p.scdn.co/mp3-preview/0a3d7ca143c2309c99c2772153c3c2ed21b08c48?cid=774b29d4f13844c495f206cafdad9c86",
      "track_number" : 6,
      "type" : "track",
      "uri" : "spotify:track:1CKURnwFQ2bD0XWCZiTAiB"
    }, {
      "album" : {
        "album_type" : "album",
        "artists" : [ {
          "external_urls" : {
            "spotify" : "https://open.spotify.com/artist/1MmubZDiFWXhOXz941cRRp"
          },
          "href" : "https://api.spotify.com/v1/artists/1MmubZDiFWXhOXz941cRRp",
          "id" : "1MmubZDiFWXhOXz941cRRp",
          "name" : "Our Daily Bread",
          "type" : "artist",
          "uri" : "spotify:artist:1MmubZDiFWXhOXz941cRRp"
        } ],
        "external_urls" : {
          "spotify" : "https://open.spotify.com/album/4Pu4TSZ3OGTytjifmu9WdC"
        },
        "href" : "https://api.spotify.com/v1/albums/4Pu4TSZ3OGTytjifmu9WdC",
        "id" : "4Pu4TSZ3OGTytjifmu9WdC",
        "images" : [ {
          "height" : 640,
          "url" : "https://i.scdn.co/image/ab67616d0000b27317d736905066747d3cba46cc",
          "width" : 640
        }, {
          "height" : 300,
          "url" : "https://i.scdn.co/image/ab67616d00001e0217d736905066747d3cba46cc",
          "width" : 300
        }, {
          "height" : 64,
          "url" : "https://i.scdn.co/image/ab67616d0000485117d736905066747d3cba46cc",
          "width" : 64
        } ],
        "name" : "Celtic Hymns",
        "release_date" : "2005-11-01",
        "release_date_precision" : "day",
        "total_tracks" : 11,
        "type" : "album",
        "uri" : "spotify:album:4Pu4TSZ3OGTytjifmu9WdC"
      },
      "artists" : [ {
        "external_urls" : {
          "spotify" : "https://open.spotify.com/artist/1MmubZDiFWXhOXz941cRRp"
        },
        "href" : "https://api.spotify.com/v1/artists/1MmubZDiFWXhOXz941cRRp",
        "id" : "1MmubZDiFWXhOXz941cRRp",
        "name" : "Our Daily Bread",
        "type" : "artist",
        "uri" : "spotify:artist:1MmubZDiFWXhOXz941cRRp"
      } ],
      "disc_number" : 1,
      "duration_ms" : 209226,
      "explicit" : false,
      "external_ids" : {
        "isrc" : "USDHM0602429"
      },
      "external_urls" : {
        "spotify" : "https://open.spotify.com/track/4oRcNJT2UIR3qCFmhzekXe"
      },
      "href" : "https://api.spotify.com/v1/tracks/4oRcNJT2UIR3qCFmhzekXe",
      "id" : "4oRcNJT2UIR3qCFmhzekXe",
      "is_local" : false,
      "is_playable" : true,
      "name" : "My Faith Looks Up to Thee / Lead Me to Calvary",
      "popularity" : 10,
      "preview_url" : "https://p.scdn.co/mp3-preview/23ed97f512d2ceffef17db8251d0d6423ad79a8f?cid=774b29d4f13844c495f206cafdad9c86",
      "track_number" : 8,
      "type" : "track",
      "uri" : "spotify:track:4oRcNJT2UIR3qCFmhzekXe"
    }, {
      "album" : {
        "album_type" : "album",
        "artists" : [ {
          "external_urls" : {
            "spotify" : "https://open.spotify.com/artist/2rQeK4adHAUvol1qPnxJoA"
          },
          "href" : "https://api.spotify.com/v1/artists/2rQeK4adHAUvol1qPnxJoA",
          "id" : "2rQeK4adHAUvol1qPnxJoA",
          "name" : "Christopher Phillips",
          "type" : "artist",
          "uri" : "spotify:artist:2rQeK4adHAUvol1qPnxJoA"
        } ],
        "external_urls" : {
          "spotify" : "https://open.spotify.com/album/5KhFgayAzbmCS1was5uAzI"
        },
        "href" : "https://api.spotify.com/v1/albums/5KhFgayAzbmCS1was5uAzI",
        "id" : "5KhFgayAzbmCS1was5uAzI",
        "images" : [ {
          "height" : 640,
          "url" : "https://i.scdn.co/image/ab67616d0000b273cda63e7da25f7c9e9e991766",
          "width" : 640
        }, {
          "height" : 300,
          "url" : "https://i.scdn.co/image/ab67616d00001e02cda63e7da25f7c9e9e991766",
          "width" : 300
        }, {
          "height" : 64,
          "url" : "https://i.scdn.co/image/ab67616d00004851cda63e7da25f7c9e9e991766",
          "width" : 64
        } ],
        "name" : "A Conversation With God",
        "release_date" : "2006-01-01",
        "release_date_precision" : "day",
        "total_tracks" : 30,
        "type" : "album",
        "uri" : "spotify:album:5KhFgayAzbmCS1was5uAzI"
      },
      "artists" : [ {
        "external_urls" : {
          "spotify" : "https://open.spotify.com/artist/2rQeK4adHAUvol1qPnxJoA"
        },
        "href" : "https://api.spotify.com/v1/artists/2rQeK4adHAUvol1qPnxJoA",
        "id" : "2rQeK4adHAUvol1qPnxJoA",
        "name" : "Christopher Phillips",
        "type" : "artist",
        "uri" : "spotify:artist:2rQeK4adHAUvol1qPnxJoA"
      } ],
      "disc_number" : 1,
      "duration_ms" : 136800,
      "explicit" : false,
      "external_ids" : {
        "isrc" : "usx9p0636479"
      },
      "external_urls" : {
        "spotify" : "https://open.spotify.com/track/0PCmIOvLMahd3KFKixMm0P"
      },
      "href" : "https://api.spotify.com/v1/tracks/0PCmIOvLMahd3KFKixMm0P",
      "id" : "0PCmIOvLMahd3KFKixMm0P",
      "is_local" : false,
      "is_playable" : true,
      "name" : "My Faith Looks Up to Thee",
      "popularity" : 7,
      "preview_url" : "https://p.scdn.co/mp3-preview/dc2e85aa1e7039a736ed4921b92833f09319da06?cid=774b29d4f13844c495f206cafdad9c86",
      "track_number" : 2,
      "type" : "track",
      "uri" : "spotify:track:0PCmIOvLMahd3KFKixMm0P"
    }, {
      "album" : {
        "album_type" : "album",
        "artists" : [ {
          "external_urls" : {
            "spotify" : "https://open.spotify.com/artist/0N2I3Lxe5y3qybvymBen0T"
          },
          "href" : "https://api.spotify.com/v1/artists/0N2I3Lxe5y3qybvymBen0T",
          "id" : "0N2I3Lxe5y3qybvymBen0T",
          "name" : "Regi Stone",
          "type" : "artist",
          "uri" : "spotify:artist:0N2I3Lxe5y3qybvymBen0T"
        } ],
        "external_urls" : {
          "spotify" : "https://open.spotify.com/album/7raS4gGPRovuro4gfND5Iq"
        },
        "href" : "https://api.spotify.com/v1/albums/7raS4gGPRovuro4gfND5Iq",
        "id" : "7raS4gGPRovuro4gfND5Iq",
        "images" : [ {
          "height" : 640,
          "url" : "https://i.scdn.co/image/ab67616d0000b273ab0c963023262ce3ac0a6dd8",
          "width" : 640
        }, {
          "height" : 300,
          "url" : "https://i.scdn.co/image/ab67616d00001e02ab0c963023262ce3ac0a6dd8",
          "width" : 300
        }, {
          "height" : 64,
          "url" : "https://i.scdn.co/image/ab67616d00004851ab0c963023262ce3ac0a6dd8",
          "width" : 64
        } ],
        "name" : "Peaceful Moments: Worship",
        "release_date" : "2003",
        "release_date_precision" : "year",
        "total_tracks" : 11,
        "type" : "album",
        "uri" : "spotify:album:7raS4gGPRovuro4gfND5Iq"
      },
      "artists" : [ {
        "external_urls" : {
          "spotify" : "https://open.spotify.com/artist/0N2I3Lxe5y3qybvymBen0T"
        },
        "href" : "https://api.spotify.com/v1/artists/0N2I3Lxe5y3qybvymBen0T",
        "id" : "0N2I3Lxe5y3qybvymBen0T",
        "name" : "Regi Stone",
        "type" : "artist",
        "uri" : "spotify:artist:0N2I3Lxe5y3qybvymBen0T"
      } ],
      "disc_number" : 1,
      "duration_ms" : 391173,
      "explicit" : false,
      "external_ids" : {
        "isrc" : "QM6N21587910"
      },
      "external_urls" : {
        "spotify" : "https://open.spotify.com/track/0eeQyrCftmHHrpBEh3iOQF"
      },
      "href" : "https://api.spotify.com/v1/tracks/0eeQyrCftmHHrpBEh3iOQF",
      "id" : "0eeQyrCftmHHrpBEh3iOQF",
      "is_local" : false,
      "is_playable" : true,
      "name" : "My Faith Looks up to Thee",
      "popularity" : 14,
      "preview_url" : "https://p.scdn.co/mp3-preview/45984b6f78207494d615cc232b0dff8aa13e49ab?cid=774b29d4f13844c495f206cafdad9c86",
      "track_number" : 10,
      "type" : "track",
      "uri" : "spotify:track:0eeQyrCftmHHrpBEh3iOQF"
    }, {
      "album" : {
        "album_type" : "album",
        "artists" : [ {
          "external_urls" : {
            "spotify" : "https://open.spotify.com/artist/6zCKr405jB5b6QI1IfFnf2"
          },
          "href" : "https://api.spotify.com/v1/artists/6zCKr405jB5b6QI1IfFnf2",
          "id" : "6zCKr405jB5b6QI1IfFnf2",
          "name" : "Dallas Christian Adult Concert Choir",
          "type" : "artist",
          "uri" : "spotify:artist:6zCKr405jB5b6QI1IfFnf2"
        } ],
        "external_urls" : {
          "spotify" : "https://open.spotify.com/album/2t7QLk7fuwldcC7Dx3b3os"
        },
        "href" : "https://api.spotify.com/v1/albums/2t7QLk7fuwldcC7Dx3b3os",
        "id" : "2t7QLk7fuwldcC7Dx3b3os",
        "images" : [ {
          "height" : 640,
          "url" : "https://i.scdn.co/image/ab67616d0000b27340a50b2d526fa7b88aa4462b",
          "width" : 640
        }, {
          "height" : 300,
          "url" : "https://i.scdn.co/image/ab67616d00001e0240a50b2d526fa7b88aa4462b",
          "width" : 300
        }, {
          "height" : 64,
          "url" : "https://i.scdn.co/image/ab67616d0000485140a50b2d526fa7b88aa4462b",
          "width" : 64
        } ],
        "name" : "I Need Thee Every Hour",
        "release_date" : "2008-05-13",
        "release_date_precision" : "day",
        "total_tracks" : 22,
        "type" : "album",
        "uri" : "spotify:album:2t7QLk7fuwldcC7Dx3b3os"
      },
      "artists" : [ {
        "external_urls" : {
          "spotify" : "https://open.spotify.com/artist/6zCKr405jB5b6QI1IfFnf2"
        },
        "href" : "https://api.spotify.com/v1/artists/6zCKr405jB5b6QI1IfFnf2",
        "id" : "6zCKr405jB5b6QI1IfFnf2",
        "name" : "Dallas Christian Adult Concert Choir",
        "type" : "artist",
        "uri" : "spotify:artist:6zCKr405jB5b6QI1IfFnf2"
      } ],
      "disc_number" : 1,
      "duration_ms" : 168333,
      "explicit" : false,
      "external_ids" : {
        "isrc" : "USMZA0811489"
      },
      "external_urls" : {
        "spotify" : "https://open.spotify.com/track/1rAsHYwHlClP0bfkFy76iW"
      },
      "href" : "https://api.spotify.com/v1/tracks/1rAsHYwHlClP0bfkFy76iW",
      "id" : "1rAsHYwHlClP0bfkFy76iW",
      "is_local" : false,
      "is_playable" : true,
      "name" : "My Faith Looks Up to Thee",
      "popularity" : 9,
      "preview_url" : "https://p.scdn.co/mp3-preview/f26f7116c798e4b3d4c57dc72dac7c6365179eaf?cid=774b29d4f13844c495f206cafdad9c86",
      "track_number" : 12,
      "type" : "track",
      "uri" : "spotify:track:1rAsHYwHlClP0bfkFy76iW"
    }, {
      "album" : {
        "album_type" : "album",
        "artists" : [ {
          "external_urls" : {
            "spotify" : "https://open.spotify.com/artist/4hTc2gZc0kjxzNXs2f8pbT"
          },
          "href" : "https://api.spotify.com/v1/artists/4hTc2gZc0kjxzNXs2f8pbT",
          "id" : "4hTc2gZc0kjxzNXs2f8pbT",
          "name" : "Billy Ray Hearn",
          "type" : "artist",
          "uri" : "spotify:artist:4hTc2gZc0kjxzNXs2f8pbT"
        }, {
          "external_urls" : {
            "spotify" : "https://open.spotify.com/artist/1YPs3oQUB7FkXhzcNo82fa"
          },
          "href" : "https://api.spotify.com/v1/artists/1YPs3oQUB7FkXhzcNo82fa",
          "id" : "1YPs3oQUB7FkXhzcNo82fa",
          "name" : "Tom Fettke",
          "type" : "artist",
          "uri" : "spotify:artist:1YPs3oQUB7FkXhzcNo82fa"
        } ],
        "external_urls" : {
          "spotify" : "https://open.spotify.com/album/1N0FpaZ9Ep0i7lCzlvh3d3"
        },
        "href" : "https://api.spotify.com/v1/albums/1N0FpaZ9Ep0i7lCzlvh3d3",
        "id" : "1N0FpaZ9Ep0i7lCzlvh3d3",
        "images" : [ {
          "height" : 640,
          "url" : "https://i.scdn.co/image/ab67616d0000b273f2aba7169438ad20685cda20",
          "width" : 640
        }, {
          "height" : 300,
          "url" : "https://i.scdn.co/image/ab67616d00001e02f2aba7169438ad20685cda20",
          "width" : 300
        }, {
          "height" : 64,
          "url" : "https://i.scdn.co/image/ab67616d00004851f2aba7169438ad20685cda20",
          "width" : 64
        } ],
        "name" : "The Majesty And Glory Of The Resurrection",
        "release_date" : "2014-01-01",
        "release_date_precision" : "day",
        "total_tracks" : 9,
        "type" : "album",
        "uri" : "spotify:album:1N0FpaZ9Ep0i7lCzlvh3d3"
      },
      "artists" : [ {
        "external_urls" : {
          "spotify" : "https://open.spotify.com/artist/4hTc2gZc0kjxzNXs2f8pbT"
        },
        "href" : "https://api.spotify.com/v1/artists/4hTc2gZc0kjxzNXs2f8pbT",
        "id" : "4hTc2gZc0kjxzNXs2f8pbT",
        "name" : "Billy Ray Hearn",
        "type" : "artist",
        "uri" : "spotify:artist:4hTc2gZc0kjxzNXs2f8pbT"
      }, {
        "external_urls" : {
          "spotify" : "https://open.spotify.com/artist/1YPs3oQUB7FkXhzcNo82fa"
        },
        "href" : "https://api.spotify.com/v1/artists/1YPs3oQUB7FkXhzcNo82fa",
        "id" : "1YPs3oQUB7FkXhzcNo82fa",
        "name" : "Tom Fettke",
        "type" : "artist",
        "uri" : "spotify:artist:1YPs3oQUB7FkXhzcNo82fa"
      } ],
      "disc_number" : 1,
      "duration_ms" : 298800,
      "explicit" : false,
      "external_ids" : {
        "isrc" : "USUM71319829"
      },
      "external_urls" : {
        "spotify" : "https://open.spotify.com/track/27MyUAQFWvBy4uTfR1J1Fx"
      },
      "href" : "https://api.spotify.com/v1/tracks/27MyUAQFWvBy4uTfR1J1Fx",
      "id" : "27MyUAQFWvBy4uTfR1J1Fx",
      "is_local" : false,
      "is_playable" : true,
      "name" : "My Faith Looks Up To Thee/Lamb Of Glory/Worthy Is The Lamb (Medley)",
      "popularity" : 11,
      "preview_url" : null,
      "track_number" : 6,
      "type" : "track",
      "uri" : "spotify:track:27MyUAQFWvBy4uTfR1J1Fx"
    }, {
      "album" : {
        "album_type" : "album",
        "artists" : [ {
          "external_urls" : {
            "spotify" : "https://open.spotify.com/artist/5WP9JhlTJdAU8fY9Fl1YMo"
          },
          "href" : "https://api.spotify.com/v1/artists/5WP9JhlTJdAU8fY9Fl1YMo",
          "id" : "5WP9JhlTJdAU8fY9Fl1YMo",
          "name" : "John Stephens",
          "type" : "artist",
          "uri" : "spotify:artist:5WP9JhlTJdAU8fY9Fl1YMo"
        }, {
          "external_urls" : {
            "spotify" : "https://open.spotify.com/artist/1tJVia5eeqSOYTb6pQZeDg"
          },
          "href" : "https://api.spotify.com/v1/artists/1tJVia5eeqSOYTb6pQZeDg",
          "id" : "1tJVia5eeqSOYTb6pQZeDg",
          "name" : "Catholic Hymns",
          "type" : "artist",
          "uri" : "spotify:artist:1tJVia5eeqSOYTb6pQZeDg"
        } ],
        "external_urls" : {
          "spotify" : "https://open.spotify.com/album/43k6kkdWeKwJXSY36mSgMk"
        },
        "href" : "https://api.spotify.com/v1/albums/43k6kkdWeKwJXSY36mSgMk",
        "id" : "43k6kkdWeKwJXSY36mSgMk",
        "images" : [ {
          "height" : 640,
          "url" : "https://i.scdn.co/image/ab67616d0000b27385be5a4225f0279cd62cb43b",
          "width" : 640
        }, {
          "height" : 300,
          "url" : "https://i.scdn.co/image/ab67616d00001e0285be5a4225f0279cd62cb43b",
          "width" : 300
        }, {
          "height" : 64,
          "url" : "https://i.scdn.co/image/ab67616d0000485185be5a4225f0279cd62cb43b",
          "width" : 64
        } ],
        "name" : "Catholic Hymns on Piano - Softly and Tenderly",
        "release_date" : "2018-02-19",
        "release_date_precision" : "day",
        "total_tracks" : 18,
        "type" : "album",
        "uri" : "spotify:album:43k6kkdWeKwJXSY36mSgMk"
      },
      "artists" : [ {
        "external_urls" : {
          "spotify" : "https://open.spotify.com/artist/5WP9JhlTJdAU8fY9Fl1YMo"
        },
        "href" : "https://api.spotify.com/v1/artists/5WP9JhlTJdAU8fY9Fl1YMo",
        "id" : "5WP9JhlTJdAU8fY9Fl1YMo",
        "name" : "John Stephens",
        "type" : "artist",
        "uri" : "spotify:artist:5WP9JhlTJdAU8fY9Fl1YMo"
      }, {
        "external_urls" : {
          "spotify" : "https://open.spotify.com/artist/1tJVia5eeqSOYTb6pQZeDg"
        },
        "href" : "https://api.spotify.com/v1/artists/1tJVia5eeqSOYTb6pQZeDg",
        "id" : "1tJVia5eeqSOYTb6pQZeDg",
        "name" : "Catholic Hymns",
        "type" : "artist",
        "uri" : "spotify:artist:1tJVia5eeqSOYTb6pQZeDg"
      } ],
      "disc_number" : 1,
      "duration_ms" : 167916,
      "explicit" : false,
      "external_ids" : {
        "isrc" : "TCADM1893117"
      },
      "external_urls" : {
        "spotify" : "https://open.spotify.com/track/76gabOWcDcIlZZPSjuj4hx"
      },
      "href" : "https://api.spotify.com/v1/tracks/76gabOWcDcIlZZPSjuj4hx",
      "id" : "76gabOWcDcIlZZPSjuj4hx",
      "is_local" : false,
      "is_playable" : true,
      "name" : "My Faith Looks up to Thee (Instrumental Version)",
      "popularity" : 9,
      "preview_url" : "https://p.scdn.co/mp3-preview/ea499e744a90976126be12910a6b422af9c28cdf?cid=774b29d4f13844c495f206cafdad9c86",
      "track_number" : 6,
      "type" : "track",
      "uri" : "spotify:track:76gabOWcDcIlZZPSjuj4hx"
    } ],
    "limit" : 10,
    "next" : "https://api.spotify.com/v1/search?query=My+Faith+Looks+Up+to+Thee&type=track&market=US&offset=15&limit=10",
    "offset" : 5,
    "previous" : "https://api.spotify.com/v1/search?query=My+Faith+Looks+Up+to+Thee&type=track&market=US&offset=0&limit=10",
    "total" : 274
  }
}