{
  "tracks" : {
    "href" : "https://api.spotify.com/v1/search?query=From+the+Eastern+Mountains&type=track&market=US&offset=5&limit=10",
    "items" : [ {
      "album" : {
        "album_type" : "album",
        "artists" : [ {
          "external_urls" : {
            "spotify" : "https://open.spotify.com/artist/5c3InDo8PabRBb7TxGzvSY"
          },
          "href" : "https://api.spotify.com/v1/artists/5c3InDo8PabRBb7TxGzvSY",
          "id" : "5c3InDo8PabRBb7TxGzvSY",
          "name" : "Jolanda",
          "type" : "artist",
          "uri" : "spotify:artist:5c3InDo8PabRBb7TxGzvSY"
        } ],
        "external_urls" : {
          "spotify" : "https://open.spotify.com/album/5yAxhrgmnftyuWUO87vUT3"
        },
        "href" : "https://api.spotify.com/v1/albums/5yAxhrgmnftyuWUO87vUT3",
        "id" : "5yAxhrgmnftyuWUO87vUT3",
        "images" : [ {
          "height" : 640,
          "url" : "https://i.scdn.co/image/ab67616d0000b273e52cde2360312f5d9104b211",
          "width" : 640
        }, {
          "height" : 300,
          "url" : "https://i.scdn.co/image/ab67616d00001e02e52cde2360312f5d9104b211",
          "width" : 300
        }, {
          "height" : 64,
          "url" : "https://i.scdn.co/image/ab67616d00004851e52cde2360312f5d9104b211",
          "width" : 64
        } ],
        "name" : "Christmas Rose",
        "release_date" : "2010-11-05",
        "release_date_precision" : "day",
        "total_tracks" : 13,
        "type" : "album",
        "uri" : "spotify:album:5yAxhrgmnftyuWUO87vUT3"
      },
      "artists" : [ {
        "external_urls" : {
          "spotify" : "https://open.spotify.com/artist/5c3InDo8PabRBb7TxGzvSY"
        },
        "href" : "https://api.spotify.com/v1/artists/5c3InDo8PabRBb7TxGzvSY",
        "id" : "5c3InDo8PabRBb7TxGzvSY",
        "name" : "Jolanda",
        "type" : "artist",
        "uri" : "spotify:artist:5c3InDo8PabRBb7TxGzvSY"
      } ],
      "disc_number" : 1,
      "duration_ms" : 62000,
      "explicit" : false,
      "external_ids" : {
        "isrc" : "ushm91076169"
      },
      "external_urls" : {
        "spotify" : "https://open.spotify.com/track/2Ed8CSfGD7lFnPEcc7ogrn"
      },
      "href" : "https://api.spotify.com/v1/tracks/2Ed8CSfGD7lFnPEcc7ogrn",
      "id" : "2Ed8CSfGD7lFnPEcc7ogrn",
      "is_local" : false,
      "is_playable" : true,
      "name" : "From the Eastern Mountains",
      "popularity" : 0,
      "preview_url" : "https://p.scdn.co/mp3-preview/8606824af8b5d1e9cd399c1ed36bfa73e6febb0b?cid=774b29d4f13844c495f206cafdad9c86",
      "track_number" : 7,
      "type" : "track",
      "uri" : "spotify:track:2Ed8CSfGD7lFnPEcc7ogrn"
    }, {
      "album" : {
        "album_type" : "album",
        "artists" : [ {
          "external_urls" : {
            "spotify" : "https://open.spotify.com/artist/4YNwYlgMLlf1sviSR9JeQy"
          },
          "href" : "https://api.spotify.com/v1/artists/4YNwYlgMLlf1sviSR9JeQy",
          "id" : "4YNwYlgMLlf1sviSR9JeQy",
          "name" : "Karen Mitzo Hilderbrand",
          "type" : "artist",
          "uri" : "spotify:artist:4YNwYlgMLlf1sviSR9JeQy"
        } ],
        "external_urls" : {
          "spotify" : "https://open.spotify.com/album/07ELtsP9Zxwa4TKhyLrptr"
        },
        "href" : "https://api.spotify.com/v1/albums/07ELtsP9Zxwa4TKhyLrptr",
        "id" : "07ELtsP9Zxwa4TKhyLrptr",
        "images" : [ {
          "height" : 640,
          "url" : "https://i.scdn.co/image/ab67616d0000b2731e922d06d611f4f9c94e0555",
          "width" : 640
        }, {
          "height" : 300,
          "url" : "https://i.scdn.co/image/ab67616d00001e021e922d06d611f4f9c94e0555",
          "width" : 300
        }, {
          "height" : 64,
          "url" : "https://i.scdn.co/image/ab67616d000048511e922d06d611f4f9c94e0555",
          "width" : 64
        } ],
        "name" : "Twin Sisters: Easy Listening Christmas",
        "release_date" : "2004",
        "release_date_precision" : "year",
        "total_tracks" : 23,
        "type" : "album",
        "uri" : "spotify:album:07ELtsP9Zxwa4TKhyLrptr"
      },
      "artists" : [ {
        "external_urls" : {
          "spotify" : "https://open.spotify.com/artist/258Dm9AVtfbZA1w7gnEtzq"
        },
        "href" : "https://api.spotify.com/v1/artists/258Dm9AVtfbZA1w7gnEtzq",
        "id" : "258Dm9AVtfbZA1w7gnEtzq",
        "name" : "Kim Mitzo Thompson",
        "type" : "artist",
        "uri" : "spotify:artist:258Dm9AVtfbZA1w7gnEtzq"
      }, {
        "external_urls" : {
          "spotify" : "https://open.spotify.com/artist/4YNwYlgMLlf1sviSR9JeQy"
        },
        "href" : "https://api.spotify.com/v1/artists/4YNwYlgMLlf1sviSR9JeQy",
        "id" : "4YNwYlgMLlf1sviSR9JeQy",
        "name" : "Karen Mitzo Hilderbrand",
        "type" : "artist",
        "uri" : "spotify:artist:4YNwYlgMLlf1sviSR9JeQy"
      } ],
      "disc_number" : 1,
      "duration_ms" : 107400,
      "explicit" : false,
      "external_ids" : {
        "isrc" : "USFEY1220421"
      },
      "external_urls" : {
        "spotify" : "https://open.spotify.com/track/4MlIWwI0w4JWgLRXAe3Fge"
      },
      "href" : "https://api.spotify.com/v1/tracks/4MlIWwI0w4JWgLRXAe3Fge",
      "id" : "4MlIWwI0w4JWgLRXAe3Fge",
      "is_local" : false,
      "is_playable" : true,
      "name" : "From the Eastern Mountains",
      "popularity" : 0,
      "preview_url" : "https://p.scdn.co/mp3-preview/f75be6ecfd42d8ec1a42421e0502907003410905?cid=774b29d4f13844c495f206cafdad9c86",
      "track_number" : 19,
      "type" : "track",
      "uri" : "spotify:track:4MlIWwI0w4JWgLRXAe3Fge"
    }, {
      "album" : {
        "album_type" : "album",
        "artists" : [ {
          "external_urls" : {
            "spotify" : "https://open.spotify.com/artist/258Dm9AVtfbZA1w7gnEtzq"
          },
          "href" : "https://api.spotify.com/v1/artists/258Dm9AVtfbZA1w7gnEtzq",
          "id" : "258Dm9AVtfbZA1w7gnEtzq",
          "name" : "Kim Mitzo Thompson",
          "type" : "artist",
          "uri" : "spotify:artist:258Dm9AVtfbZA1w7gnEtzq"
        }, {
          "external_urls" : {
            "spotify" : "https://open.spotify.com/artist/4YNwYlgMLlf1sviSR9JeQy"
          },
          "href" : "https://api.spotify.com/v1/artists/4YNwYlgMLlf1sviSR9JeQy",
          "id" : "4YNwYlgMLlf1sviSR9JeQy",
          "name" : "Karen Mitzo Hilderbrand",
          "type" : "artist",
          "uri" : "spotify:artist:4YNwYlgMLlf1sviSR9JeQy"
        } ],
        "external_urls" : {
          "spotify" : "https://open.spotify.com/album/5vIi0EcbG0TXU96a63sznR"
        },
        "href" : "https://api.spotify.com/v1/albums/5vIi0EcbG0TXU96a63sznR",
        "id" : "5vIi0EcbG0TXU96a63sznR",
        "images" : [ {
          "height" : 640,
          "url" : "https://i.scdn.co/image/ab67616d0000b2733da321ec52ad5a6f521237a9",
          "width" : 640
        }, {
          "height" : 300,
          "url" : "https://i.scdn.co/image/ab67616d00001e023da321ec52ad5a6f521237a9",
          "width" : 300
        }, {
          "height" : 64,
          "url" : "https://i.scdn.co/image/ab67616d000048513da321ec52ad5a6f521237a9",
          "width" : 64
        } ],
        "name" : "Twin Sisters: Christmas Dinner",
        "release_date" : "2008",
        "release_date_precision" : "year",
        "total_tracks" : 47,
        "type" : "album",
        "uri" : "spotify:album:5vIi0EcbG0TXU96a63sznR"
      },
      "artists" : [ {
        "external_urls" : {
          "spotify" : "https://open.spotify.com/artist/258Dm9AVtfbZA1w7gnEtzq"
        },
        "href" : "https://api.spotify.com/v1/artists/258Dm9AVtfbZA1w7gnEtzq",
        "id" : "258Dm9AVtfbZA1w7gnEtzq",
        "name" : "Kim Mitzo Thompson",
        "type" : "artist",
        "uri" : "spotify:artist:258Dm9AVtfbZA1w7gnEtzq"
      }, {
        "external_urls" : {
          "spotify" : "https://open.spotify.com/artist/4YNwYlgMLlf1sviSR9JeQy"
        },
        "href" : "https://api.spotify.com/v1/artists/4YNwYlgMLlf1sviSR9JeQy",
        "id" : "4YNwYlgMLlf1sviSR9JeQy",
        "name" : "Karen Mitzo Hilderbrand",
        "type" : "artist",
        "uri" : "spotify:artist:4YNwYlgMLlf1sviSR9JeQy"
      } ],
      "disc_number" : 1,
      "duration_ms" : 107400,
      "explicit" : false,
      "external_ids" : {
        "isrc" : "USFEY1220421"
      },
      "external_urls" : {
        "spotify" : "https://open.spotify.com/track/2iOPU3SZeGGVuR81OSJN82"
      },
      "href" : "https://api.spotify.com/v1/tracks/2iOPU3SZeGGVuR81OSJN82",
      "id" : "2iOPU3SZeGGVuR81OSJN82",
      "is_local" : false,
      "is_playable" : true,
      "name" : "From the Eastern Mountains",
      "popularity" : 0,
      "preview_url" : "https://p.scdn.co/mp3-preview/f75be6ecfd42d8ec1a42421e0502907003410905?cid=774b29d4f13844c495f206cafdad9c86",
      "track_number" : 43,
      "type" : "track",
      "uri" : "spotify:track:2iOPU3SZeGGVuR81OSJN82"
    }, {
      "album" : {
        "album_type" : "album",
        "artists" : [ {
          "external_urls" : {
            "spotify" : "https://open.spotify.com/artist/258Dm9AVtfbZA1w7gnEtzq"
          },
          "href" : "https://api.spotify.com/v1/artists/258Dm9AVtfbZA1w7gnEtzq",
          "id" : "258Dm9AVtfbZA1w7gnEtzq",
          "name" : "Kim Mitzo Thompson",
          "type" : "artist",
          "uri" : "spotify:artist:258Dm9AVtfbZA1w7gnEtzq"
        } ],
        "external_urls" : {
          "spotify" : "https://open.spotify.com/album/2KDAmml3lSTxjzja5svdaj"
        },
        "href" : "https://api.spotify.com/v1/albums/2KDAmml3lSTxjzja5svdaj",
        "id" : "2KDAmml3lSTxjzja5svdaj",
        "images" : [ {
          "height" : 640,
          "url" : "https://i.scdn.co/image/ab67616d0000b273cb9f9da90001b29042150327",
          "width" : 640
        }, {
          "height" : 300,
          "url" : "https://i.scdn.co/image/ab67616d00001e02cb9f9da90001b29042150327",
          "width" : 300
        }, {
          "height" : 64,
          "url" : "https://i.scdn.co/image/ab67616d00004851cb9f9da90001b29042150327",
          "width" : 64
        } ],
        "name" : "Christmas Dinner",
        "release_date" : "2013-01-16",
        "release_date_precision" : "day",
        "total_tracks" : 47,
        "type" : "album",
        "uri" : "spotify:album:2KDAmml3lSTxjzja5svdaj"
      },
      "artists" : [ {
        "external_urls" : {
          "spotify" : "https://open.spotify.com/artist/258Dm9AVtfbZA1w7gnEtzq"
        },
        "href" : "https://api.spotify.com/v1/artists/258Dm9AVtfbZA1w7gnEtzq",
        "id" : "258Dm9AVtfbZA1w7gnEtzq",
        "name" : "Kim Mitzo Thompson",
        "type" : "artist",
        "uri" : "spotify:artist:258Dm9AVtfbZA1w7gnEtzq"
      } ],
      "disc_number" : 1,
      "duration_ms" : 107369,
      "explicit" : false,
      "external_ids" : {
        "isrc" : "FR6V81554634"
      },
      "external_urls" : {
        "spotify" : "https://open.spotify.com/track/7zsmWby6DMpjzEqDj3qcWX"
      },
      "href" : "https://api.spotify.com/v1/tracks/7zsmWby6DMpjzEqDj3qcWX",
      "id" : "7zsmWby6DMpjzEqDj3qcWX",
      "is_local" : false,
      "is_playable" : true,
      "name" : "From the Eastern Mountains",
      "popularity" : 0,
      "preview_url" : "https://p.scdn.co/mp3-preview/68cc3822b6d4f4a27580ceaba38aa40abbe2a65a?cid=774b29d4f13844c495f206cafdad9c86",
      "track_number" : 43,
      "type" : "track",
      "uri" : "spotify:track:7zsmWby6DMpjzEqDj3qcWX"
    }, {
      "album" : {
        "album_type" : "album",
        "artists" : [ {
          "external_urls" : {
            "spotify" : "https://open.spotify.com/artist/5adHWBSp4dAozlMcVax7p6"
          },
          "href" : "https://api.spotify.com/v1/artists/5adHWBSp4dAozlMcVax7p6",
          "id" : "5adHWBSp4dAozlMcVax7p6",
          "name" : "Piano Music Reflection",
          "type" : "artist",
          "uri" : "spotify:artist:5adHWBSp4dAozlMcVax7p6"
        } ],
        "external_urls" : {
          "spotify" : "https://open.spotify.com/album/1I24uqIiEJ24nZY9fHcXLu"
        },
        "href" : "https://api.spotify.com/v1/albums/1I24uqIiEJ24nZY9fHcXLu",
        "id" : "1I24uqIiEJ24nZY9fHcXLu",
        "images" : [ {
          "height" : 640,
          "url" : "https://i.scdn.co/image/ab67616d0000b2739ed4e3203bff22cee797d1d4",
          "width" : 640
        }, {
          "height" : 300,
          "url" : "https://i.scdn.co/image/ab67616d00001e029ed4e3203bff22cee797d1d4",
          "width" : 300
        }, {
          "height" : 64,
          "url" : "https://i.scdn.co/image/ab67616d000048519ed4e3203bff22cee797d1d4",
          "width" : 64
        } ],
        "name" : "Merry Christmas 2016 - Top 20 Piano Songs for Xmas: Magic Winter Holiday, Amazing Time with Family, Traditional & Beautiful Christmas Carols",
        "release_date" : "2016-11-03",
        "release_date_precision" : "day",
        "total_tracks" : 20,
        "type" : "album",
        "uri" : "spotify:album:1I24uqIiEJ24nZY9fHcXLu"
      },
      "artists" : [ {
        "external_urls" : {
          "spotify" : "https://open.spotify.com/artist/5adHWBSp4dAozlMcVax7p6"
        },
        "href" : "https://api.spotify.com/v1/artists/5adHWBSp4dAozlMcVax7p6",
        "id" : "5adHWBSp4dAozlMcVax7p6",
        "name" : "Piano Music Reflection",
        "type" : "artist",
        "uri" : "spotify:artist:5adHWBSp4dAozlMcVax7p6"
      } ],
      "disc_number" : 1,
      "duration_ms" : 198276,
      "explicit" : false,
      "external_ids" : {
        "isrc" : "PLL431517208"
      },
      "external_urls" : {
        "spotify" : "https://open.spotify.com/track/6M8EGJPYya4N6EqHWKz2Ur"
      },
      "href" : "https://api.spotify.com/v1/tracks/6M8EGJPYya4N6EqHWKz2Ur",
      "id" : "6M8EGJPYya4N6EqHWKz2Ur",
      "is_local" : false,
      "is_playable" : true,
      "name" : "From the Eastern Mountains",
      "popularity" : 0,
      "preview_url" : "https://p.scdn.co/mp3-preview/b8ea94e24e084e08f7989358602aa0306da2a631?cid=774b29d4f13844c495f206cafdad9c86",
      "track_number" : 7,
      "type" : "track",
      "uri" : "spotify:track:6M8EGJPYya4N6EqHWKz2Ur"
    }, {
      "album" : {
        "album_type" : "album",
        "artists" : [ {
          "external_urls" : {
            "spotify" : "https://open.spotify.com/artist/3lk8qatIcUand38OeCGxk9"
          },
          "href" : "https://api.spotify.com/v1/artists/3lk8qatIcUand38OeCGxk9",
          "id" : "3lk8qatIcUand38OeCGxk9",
          "name" : "Lorie Line",
          "type" : "artist",
          "uri" : "spotify:artist:3lk8qatIcUand38OeCGxk9"
        } ],
        "external_urls" : {
          "spotify" : "https://open.spotify.com/album/2Wmy5xZZtXn2RZSEdKV9QF"
        },
        "href" : "https://api.spotify.com/v1/albums/2Wmy5xZZtXn2RZSEdKV9QF",
        "id" : "2Wmy5xZZtXn2RZSEdKV9QF",
        "images" : [ {
          "height" : 640,
          "url" : "https://i.scdn.co/image/ab67616d0000b273b0d568f0b00e37cbd077a2e3",
          "width" : 640
        }, {
          "height" : 300,
          "url" : "https://i.scdn.co/image/ab67616d00001e02b0d568f0b00e37cbd077a2e3",
          "width" : 300
        }, {
          "height" : 64,
          "url" : "https://i.scdn.co/image/ab67616d00004851b0d568f0b00e37cbd077a2e3",
          "width" : 64
        } ],
        "name" : "Immanuel (A Holiday Album)",
        "release_date" : "2012-10-20",
        "release_date_precision" : "day",
        "total_tracks" : 14,
        "type" : "album",
        "uri" : "spotify:album:2Wmy5xZZtXn2RZSEdKV9QF"
      },
      "artists" : [ {
        "external_urls" : {
          "spotify" : "https://open.spotify.com/artist/3lk8qatIcUand38OeCGxk9"
        },
        "href" : "https://api.spotify.com/v1/artists/3lk8qatIcUand38OeCGxk9",
        "id" : "3lk8qatIcUand38OeCGxk9",
        "name" : "Lorie Line",
        "type" : "artist",
        "uri" : "spotify:artist:3lk8qatIcUand38OeCGxk9"
      } ],
      "disc_number" : 1,
      "duration_ms" : 241626,
      "explicit" : false,
      "external_ids" : {
        "isrc" : "US42C1200604"
      },
      "external_urls" : {
        "spotify" : "https://open.spotify.com/track/2Et3oWmDRE6XvwHs9214U0"
      },
      "href" : "https://api.spotify.com/v1/tracks/2Et3oWmDRE6XvwHs9214U0",
      "id" : "2Et3oWmDRE6XvwHs9214U0",
      "is_local" : false,
      "is_playable" : true,
      "name" : "From the Eastern Mountains",
      "popularity" : 0,
      "preview_url" : "https://p.scdn.co/mp3-preview/c03db91be08b6bcc698d4436c4adae15bad6a2dc?cid=774b29d4f13844c495f206cafdad9c86",
      "track_number" : 14,
      "type" : "track",
      "uri" : "spotify:track:2Et3oWmDRE6XvwHs9214U0"
    }, {
      "album" : {
        "album_type" : "album",
        "artists" : [ {
          "external_urls" : {
            "spotify" : "https://open.spotify.com/artist/258Dm9AVtfbZA1w7gnEtzq"
          },
          "href" : "https://api.spotify.com/v1/artists/258Dm9AVtfbZA1w7gnEtzq",
          "id" : "258Dm9AVtfbZA1w7gnEtzq",
          "name" : "Kim Mitzo Thompson",
          "type" : "artist",
          "uri" : "spotify:artist:258Dm9AVtfbZA1w7gnEtzq"
        } ],
        "external_urls" : {
          "spotify" : "https://open.spotify.com/album/09cVpqfdiwYGLNz5IRFl5D"
        },
        "href" : "https://api.spotify.com/v1/albums/09cVpqfdiwYGLNz5IRFl5D",
        "id" : "09cVpqfdiwYGLNz5IRFl5D",
        "images" : [ {
          "height" : 640,
          "url" : "https://i.scdn.co/image/ab67616d0000b27327a6b211a61de8c3af609364",
          "width" : 640
        }, {
          "height" : 300,
          "url" : "https://i.scdn.co/image/ab67616d00001e0227a6b211a61de8c3af609364",
          "width" : 300
        }, {
          "height" : 64,
          "url" : "https://i.scdn.co/image/ab67616d0000485127a6b211a61de8c3af609364",
          "width" : 64
        } ],
        "name" : "Easy Listening Christmas",
        "release_date" : "2013-01-09",
        "release_date_precision" : "day",
        "total_tracks" : 23,
        "type" : "album",
        "uri" : "spotify:album:09cVpqfdiwYGLNz5IRFl5D"
      },
      "artists" : [ {
        "external_urls" : {
          "spotify" : "https://open.spotify.com/artist/258Dm9AVtfbZA1w7gnEtzq"
        },
        "href" : "https://api.spotify.com/v1/artists/258Dm9AVtfbZA1w7gnEtzq",
        "id" : "258Dm9AVtfbZA1w7gnEtzq",
        "name" : "Kim Mitzo Thompson",
        "type" : "artist",
        "uri" : "spotify:artist:258Dm9AVtfbZA1w7gnEtzq"
      } ],
      "disc_number" : 1,
      "duration_ms" : 107369,
      "explicit" : false,
      "external_ids" : {
        "isrc" : "FR6V81539385"
      },
      "external_urls" : {
        "spotify" : "https://open.spotify.com/track/63dwJygYFSke1LcThDhauy"
      },
      "href" : "https://api.spotify.com/v1/tracks/63dwJygYFSke1LcThDhauy",
      "id" : "63dwJygYFSke1LcThDhauy",
      "is_local" : false,
      "is_playable" : true,
      "name" : "From the Eastern Mountains",
      "popularity" : 0,
      "preview_url" : "https://p.scdn.co/mp3-preview/68cc3822b6d4f4a27580ceaba38aa40abbe2a65a?cid=774b29d4f13844c495f206cafdad9c86",
      "track_number" : 19,
      "type" : "track",
      "uri" : "spotify:track:63dwJygYFSke1LcThDhauy"
    }, {
      "album" : {
        "album_type" : "album",
        "artists" : [ {
          "external_urls" : {
            "spotify" : "https://open.spotify.com/artist/4hz8VK4eTDQqGwv8agVIvv"
          },
          "href" : "https://api.spotify.com/v1/artists/4hz8VK4eTDQqGwv8agVIvv",
          "id" : "4hz8VK4eTDQqGwv8agVIvv",
          "name" : "FUN CLASSICAL MUSIC",
          "type" : "artist",
          "uri" : "spotify:artist:4hz8VK4eTDQqGwv8agVIvv"
        } ],
        "external_urls" : {
          "spotify" : "https://open.spotify.com/album/1a4RvmnpsCKbICm7LQMvJN"
        },
        "href" : "https://api.spotify.com/v1/albums/1a4RvmnpsCKbICm7LQMvJN",
        "id" : "1a4RvmnpsCKbICm7LQMvJN",
        "images" : [ {
          "height" : 640,
          "url" : "https://i.scdn.co/image/ab67616d0000b273dab6dbd64c3b2dff4593034f",
          "width" : 640
        }, {
          "height" : 300,
          "url" : "https://i.scdn.co/image/ab67616d00001e02dab6dbd64c3b2dff4593034f",
          "width" : 300
        }, {
          "height" : 64,
          "url" : "https://i.scdn.co/image/ab67616d00004851dab6dbd64c3b2dff4593034f",
          "width" : 64
        } ],
        "name" : "大聖堂で聞く聖歌の世界 1~新しいクリスマスキャロル集 ノエル 他",
        "release_date" : "2018-12-12",
        "release_date_precision" : "day",
        "total_tracks" : 13,
        "type" : "album",
        "uri" : "spotify:album:1a4RvmnpsCKbICm7LQMvJN"
      },
      "artists" : [ {
        "external_urls" : {
          "spotify" : "https://open.spotify.com/artist/2Q8CT4BXxx2vm5KcaeLoQz"
        },
        "href" : "https://api.spotify.com/v1/artists/2Q8CT4BXxx2vm5KcaeLoQz",
        "id" : "2Q8CT4BXxx2vm5KcaeLoQz",
        "name" : "Worcester Cathedral Choir",
        "type" : "artist",
        "uri" : "spotify:artist:2Q8CT4BXxx2vm5KcaeLoQz"
      }, {
        "external_urls" : {
          "spotify" : "https://open.spotify.com/artist/6ZTHh9HLMPeFoZfYfCtIwX"
        },
        "href" : "https://api.spotify.com/v1/artists/6ZTHh9HLMPeFoZfYfCtIwX",
        "id" : "6ZTHh9HLMPeFoZfYfCtIwX",
        "name" : "Adrian Lucas Conductor",
        "type" : "artist",
        "uri" : "spotify:artist:6ZTHh9HLMPeFoZfYfCtIwX"
      }, {
        "external_urls" : {
          "spotify" : "https://open.spotify.com/artist/4fehyFmEwrFrfDpi2UjkiN"
        },
        "href" : "https://api.spotify.com/v1/artists/4fehyFmEwrFrfDpi2UjkiN",
        "id" : "4fehyFmEwrFrfDpi2UjkiN",
        "name" : "Brian Davis Harp",
        "type" : "artist",
        "uri" : "spotify:artist:4fehyFmEwrFrfDpi2UjkiN"
      }, {
        "external_urls" : {
          "spotify" : "https://open.spotify.com/artist/4N9caFCOamU8FkMZ60Wfre"
        },
        "href" : "https://api.spotify.com/v1/artists/4N9caFCOamU8FkMZ60Wfre",
        "id" : "4N9caFCOamU8FkMZ60Wfre",
        "name" : "Daniel Phillips Organ",
        "type" : "artist",
        "uri" : "spotify:artist:4N9caFCOamU8FkMZ60Wfre"
      } ],
      "disc_number" : 1,
      "duration_ms" : 191253,
      "explicit" : false,
      "external_ids" : {
        "isrc" : "GBC7N1042229"
      },
      "external_urls" : {
        "spotify" : "https://open.spotify.com/track/2QVuxGzTtqec1s689T92dk"
      },
      "href" : "https://api.spotify.com/v1/tracks/2QVuxGzTtqec1s689T92dk",
      "id" : "2QVuxGzTtqec1s689T92dk",
      "is_local" : false,
      "is_playable" : true,
      "name" : "ノエル~IX. From the Eastern Mountains",
      "popularity" : 0,
      "preview_url" : "https://p.scdn.co/mp3-preview/9c04c35fe0861741384995fa19cdb7cadd806458?cid=774b29d4f13844c495f206cafdad9c86",
      "track_number" : 12,
      "type" : "track",
      "uri" : "spotify:track:2QVuxGzTtqec1s689T92dk"
    }, {
      "album" : {
        "album_type" : "album",
        "artists" : [ {
          "external_urls" : {
            "spotify" : "https://open.spotify.com/artist/5zkmOYaXiNHBKxKnnd1rvl"
          },
          "href" : "https://api.spotify.com/v1/artists/5zkmOYaXiNHBKxKnnd1rvl",
          "id" : "5zkmOYaXiNHBKxKnnd1rvl",
          "name" : "John Keys",
          "type" : "artist",
          "uri" : "spotify:artist:5zkmOYaXiNHBKxKnnd1rvl"
        } ],
        "external_urls" : {
          "spotify" : "https://open.spotify.com/album/1ydDp3UtRa1qyaAMEuA9IO"
        },
        "href" : "https://api.spotify.com/v1/albums/1ydDp3UtRa1qyaAMEuA9IO",
        "id" : "1ydDp3UtRa1qyaAMEuA9IO",
        "images" : [ {
          "height" : 640,
          "url" : "https://i.scdn.co/image/ab67616d0000b273436a23ae8b945230152616dd",
          "width" : 640
        }, {
          "height" : 300,
          "url" : "https://i.scdn.co/image/ab67616d00001e02436a23ae8b945230152616dd",
          "width" : 300
        }, {
          "height" : 64,
          "url" : "https://i.scdn.co/image/ab67616d00004851436a23ae8b945230152616dd",
          "width" : 64
        } ],
        "name" : "Ultimate Hymn Organ Accompaniments, Vol. 6",
        "release_date" : "2013-04-15",
        "release_date_precision" : "day",
        "total_tracks" : 20,
        "type" : "album",
        "uri" : "spotify:album:1ydDp3UtRa1qyaAMEuA9IO"
      },
      "artists" : [ {
        "external_urls" : {
          "spotify" : "https://open.spotify.com/artist/5zkmOYaXiNHBKxKnnd1rvl"
        },
        "href" : "https://api.spotify.com/v1/artists/5zkmOYaXiNHBKxKnnd1rvl",
        "id" : "5zkmOYaXiNHBKxKnnd1rvl",
        "name" : "John Keys",
        "type" : "artist",
        "uri" : "spotify:artist:5zkmOYaXiNHBKxKnnd1rvl"
      } ],
      "disc_number" : 1,
      "duration_ms" : 225265,
      "explicit" : false,
      "external_ids" : {
        "isrc" : "GBKPL1355235"
      },
      "external_urls" : {
        "spotify" : "https://open.spotify.com/track/5dufG1GmM1n4vdcOXsG97B"
      },
      "href" : "https://api.spotify.com/v1/tracks/5dufG1GmM1n4vdcOXsG97B",
      "id" : "5dufG1GmM1n4vdcOXsG97B",
      "is_local" : false,
      "is_playable" : true,
      "name" : "From the Eastern Mountains (Evelyns) - Instrumental Version",
      "popularity" : 0,
      "preview_url" : "https://p.scdn.co/mp3-preview/d2c69f3b028fae09bf83630314c34343a93d438a?cid=774b29d4f13844c495f206cafdad9c86",
      "track_number" : 6,
      "type" : "track",
      "uri" : "spotify:track:5dufG1GmM1n4vdcOXsG97B"
    }, {
      "album" : {
        "album_type" : "album",
        "artists" : [ {
          "external_urls" : {
            "spotify" : "https://open.spotify.com/artist/5zkmOYaXiNHBKxKnnd1rvl"
          },
          "href" : "https://api.spotify.com/v1/artists/5zkmOYaXiNHBKxKnnd1rvl",
          "id" : "5zkmOYaXiNHBKxKnnd1rvl",
          "name" : "John Keys",
          "type" : "artist",
          "uri" : "spotify:artist:5zkmOYaXiNHBKxKnnd1rvl"
        } ],
        "external_urls" : {
          "spotify" : "https://open.spotify.com/album/1ydDp3UtRa1qyaAMEuA9IO"
        },
        "href" : "https://api.spotify.com/v1/albums/1ydDp3UtRa1qyaAMEuA9IO",
        "id" : "1ydDp3UtRa1qyaAMEuA9IO",
        "images" : [ {
          "height" : 640,
          "url" : "https://i.scdn.co/image/ab67616d0000b273436a23ae8b945230152616dd",
          "width" : 640
        }, {
          "height" : 300,
          "url" : "https://i.scdn.co/image/ab67616d00001e02436a23ae8b945230152616dd",
          "width" : 300
        }, {
          "height" : 64,
          "url" : "https://i.scdn.co/image/ab67616d00004851436a23ae8b945230152616dd",
          "width" : 64
        } ],
        "name" : "Ultimate Hymn Organ Accompaniments, Vol. 6",
        "release_date" : "2013-04-15",
        "release_date_precision" : "day",
        "total_tracks" : 20,
        "type" : "album",
        "uri" : "spotify:album:1ydDp3UtRa1qyaAMEuA9IO"
      },
      "artists" : [ {
        "external_urls" : {
          "spotify" : "https://open.spotify.com/artist/5zkmOYaXiNHBKxKnnd1rvl"
        },
        "href" : "https://api.spotify.com/v1/artists/5zkmOYaXiNHBKxKnnd1rvl",
        "id" : "5zkmOYaXiNHBKxKnnd1rvl",
        "name" : "John Keys",
        "type" : "artist",
        "uri" : "spotify:artist:5zkmOYaXiNHBKxKnnd1rvl"
      } ],
      "disc_number" : 1,
      "duration_ms" : 177957,
      "explicit" : false,
      "external_ids" : {
        "isrc" : "GBKPL1355236"
      },
      "external_urls" : {
        "spotify" : "https://open.spotify.com/track/64PXkaPbg9BaBrGVLC78LW"
      },
      "href" : "https://api.spotify.com/v1/tracks/64PXkaPbg9BaBrGVLC78LW",
      "id" : "64PXkaPbg9BaBrGVLC78LW",
      "is_local" : false,
      "is_playable" : true,
      "name" : "From the Eastern Mountains (King's Weston) - Instrumental Version",
      "popularity" : 0,
      "preview_url" : "https://p.scdn.co/mp3-preview/826e4befae7e704b513fa1d05f06e7059921576a?cid=774b29d4f13844c495f206cafdad9c86",
      "track_number" : 7,
      "type" : "track",
      "uri" : "spotify:track:64PXkaPbg9BaBrGVLC78LW"
    } ],
    "limit" : 10,
    "next" : "https://api.spotify.com/v1/search?query=From+the+Eastern+Mountains&type=track&market=US&offset=15&limit=10",
    "offset" : 5,
    "previous" : "https://api.spotify.com/v1/search?query=From+the+Eastern+Mountains&type=track&market=US&offset=0&limit=10",
    "total" : 33
  }
}