{
  "tracks" : {
    "href" : "https://api.spotify.com/v1/search?query=And+Can+It+Be%3F&type=track&market=US&offset=5&limit=10",
    "items" : [ {
      "album" : {
        "album_type" : "album",
        "artists" : [ {
          "external_urls" : {
            "spotify" : "https://open.spotify.com/artist/0HoHU8SXe0g9jJGOfL8rDq"
          },
          "href" : "https://api.spotify.com/v1/artists/0HoHU8SXe0g9jJGOfL8rDq",
          "id" : "0HoHU8SXe0g9jJGOfL8rDq",
          "name" : "Indelible Grace Music",
          "type" : "artist",
          "uri" : "spotify:artist:0HoHU8SXe0g9jJGOfL8rDq"
        } ],
        "external_urls" : {
          "spotify" : "https://open.spotify.com/album/5KckFSed5NacGkeRVEJj74"
        },
        "href" : "https://api.spotify.com/v1/albums/5KckFSed5NacGkeRVEJj74",
        "id" : "5KckFSed5NacGkeRVEJj74",
        "images" : [ {
          "height" : 640,
          "url" : "https://i.scdn.co/image/ab67616d0000b2733fe8b6e7747ad79d2391f4f4",
          "width" : 640
        }, {
          "height" : 300,
          "url" : "https://i.scdn.co/image/ab67616d00001e023fe8b6e7747ad79d2391f4f4",
          "width" : 300
        }, {
          "height" : 64,
          "url" : "https://i.scdn.co/image/ab67616d000048513fe8b6e7747ad79d2391f4f4",
          "width" : 64
        } ],
        "name" : "Indelible Grace Side A",
        "release_date" : "2008-10-05",
        "release_date_precision" : "day",
        "total_tracks" : 9,
        "type" : "album",
        "uri" : "spotify:album:5KckFSed5NacGkeRVEJj74"
      },
      "artists" : [ {
        "external_urls" : {
          "spotify" : "https://open.spotify.com/artist/0HoHU8SXe0g9jJGOfL8rDq"
        },
        "href" : "https://api.spotify.com/v1/artists/0HoHU8SXe0g9jJGOfL8rDq",
        "id" : "0HoHU8SXe0g9jJGOfL8rDq",
        "name" : "Indelible Grace Music",
        "type" : "artist",
        "uri" : "spotify:artist:0HoHU8SXe0g9jJGOfL8rDq"
      } ],
      "disc_number" : 1,
      "duration_ms" : 240200,
      "explicit" : false,
      "external_ids" : {
        "isrc" : "USTC60886799"
      },
      "external_urls" : {
        "spotify" : "https://open.spotify.com/track/6RwIqZnBJLYgiZhN3WA8ZJ"
      },
      "href" : "https://api.spotify.com/v1/tracks/6RwIqZnBJLYgiZhN3WA8ZJ",
      "id" : "6RwIqZnBJLYgiZhN3WA8ZJ",
      "is_local" : false,
      "is_playable" : true,
      "name" : "And Can It Be",
      "popularity" : 19,
      "preview_url" : "https://p.scdn.co/mp3-preview/11cc0c28508c2b75f35e353066250d57d1506dd6?cid=774b29d4f13844c495f206cafdad9c86",
      "track_number" : 2,
      "type" : "track",
      "uri" : "spotify:track:6RwIqZnBJLYgiZhN3WA8ZJ"
    }, {
      "album" : {
        "album_type" : "album",
        "artists" : [ {
          "external_urls" : {
            "spotify" : "https://open.spotify.com/artist/5TB43hYVZMxI193JCzyQJb"
          },
          "href" : "https://api.spotify.com/v1/artists/5TB43hYVZMxI193JCzyQJb",
          "id" : "5TB43hYVZMxI193JCzyQJb",
          "name" : "Page CXVI",
          "type" : "artist",
          "uri" : "spotify:artist:5TB43hYVZMxI193JCzyQJb"
        } ],
        "external_urls" : {
          "spotify" : "https://open.spotify.com/album/2NYpgPQoDpF1UdPsaM1zU2"
        },
        "href" : "https://api.spotify.com/v1/albums/2NYpgPQoDpF1UdPsaM1zU2",
        "id" : "2NYpgPQoDpF1UdPsaM1zU2",
        "images" : [ {
          "height" : 640,
          "url" : "https://i.scdn.co/image/ab67616d0000b273579fe2cd98c4119f5481404e",
          "width" : 640
        }, {
          "height" : 300,
          "url" : "https://i.scdn.co/image/ab67616d00001e02579fe2cd98c4119f5481404e",
          "width" : 300
        }, {
          "height" : 64,
          "url" : "https://i.scdn.co/image/ab67616d00004851579fe2cd98c4119f5481404e",
          "width" : 64
        } ],
        "name" : "Lent to Maundy Thursday (Remastered)",
        "release_date" : "2014-03-04",
        "release_date_precision" : "day",
        "total_tracks" : 7,
        "type" : "album",
        "uri" : "spotify:album:2NYpgPQoDpF1UdPsaM1zU2"
      },
      "artists" : [ {
        "external_urls" : {
          "spotify" : "https://open.spotify.com/artist/5TB43hYVZMxI193JCzyQJb"
        },
        "href" : "https://api.spotify.com/v1/artists/5TB43hYVZMxI193JCzyQJb",
        "id" : "5TB43hYVZMxI193JCzyQJb",
        "name" : "Page CXVI",
        "type" : "artist",
        "uri" : "spotify:artist:5TB43hYVZMxI193JCzyQJb"
      } ],
      "disc_number" : 1,
      "duration_ms" : 228719,
      "explicit" : false,
      "external_ids" : {
        "isrc" : "US9YS1400001"
      },
      "external_urls" : {
        "spotify" : "https://open.spotify.com/track/7uqfnK3dhx0CudCMPkfFbg"
      },
      "href" : "https://api.spotify.com/v1/tracks/7uqfnK3dhx0CudCMPkfFbg",
      "id" : "7uqfnK3dhx0CudCMPkfFbg",
      "is_local" : false,
      "is_playable" : true,
      "name" : "And Can It Be",
      "popularity" : 20,
      "preview_url" : "https://p.scdn.co/mp3-preview/fb408512c68fd9485764062f77df7df57e32cd40?cid=774b29d4f13844c495f206cafdad9c86",
      "track_number" : 1,
      "type" : "track",
      "uri" : "spotify:track:7uqfnK3dhx0CudCMPkfFbg"
    }, {
      "album" : {
        "album_type" : "album",
        "artists" : [ {
          "external_urls" : {
            "spotify" : "https://open.spotify.com/artist/4rhwll8EPEHOW8diluKlrZ"
          },
          "href" : "https://api.spotify.com/v1/artists/4rhwll8EPEHOW8diluKlrZ",
          "id" : "4rhwll8EPEHOW8diluKlrZ",
          "name" : "Glad",
          "type" : "artist",
          "uri" : "spotify:artist:4rhwll8EPEHOW8diluKlrZ"
        } ],
        "external_urls" : {
          "spotify" : "https://open.spotify.com/album/4XcU6Um0G0tCkdFShNNtLf"
        },
        "href" : "https://api.spotify.com/v1/albums/4XcU6Um0G0tCkdFShNNtLf",
        "id" : "4XcU6Um0G0tCkdFShNNtLf",
        "images" : [ {
          "height" : 640,
          "url" : "https://i.scdn.co/image/ab67616d0000b2733418ad7e23188be34c9610c1",
          "width" : 640
        }, {
          "height" : 300,
          "url" : "https://i.scdn.co/image/ab67616d00001e023418ad7e23188be34c9610c1",
          "width" : 300
        }, {
          "height" : 64,
          "url" : "https://i.scdn.co/image/ab67616d000048513418ad7e23188be34c9610c1",
          "width" : 64
        } ],
        "name" : "Acapella Project Vol. 1",
        "release_date" : "1988",
        "release_date_precision" : "year",
        "total_tracks" : 13,
        "type" : "album",
        "uri" : "spotify:album:4XcU6Um0G0tCkdFShNNtLf"
      },
      "artists" : [ {
        "external_urls" : {
          "spotify" : "https://open.spotify.com/artist/4rhwll8EPEHOW8diluKlrZ"
        },
        "href" : "https://api.spotify.com/v1/artists/4rhwll8EPEHOW8diluKlrZ",
        "id" : "4rhwll8EPEHOW8diluKlrZ",
        "name" : "Glad",
        "type" : "artist",
        "uri" : "spotify:artist:4rhwll8EPEHOW8diluKlrZ"
      } ],
      "disc_number" : 1,
      "duration_ms" : 241333,
      "explicit" : false,
      "external_ids" : {
        "isrc" : "USA5W0402846"
      },
      "external_urls" : {
        "spotify" : "https://open.spotify.com/track/2ykVZ95sPOfV5z8YPFW8nR"
      },
      "href" : "https://api.spotify.com/v1/tracks/2ykVZ95sPOfV5z8YPFW8nR",
      "id" : "2ykVZ95sPOfV5z8YPFW8nR",
      "is_local" : false,
      "is_playable" : true,
      "name" : "And Can It Be",
      "popularity" : 18,
      "preview_url" : "https://p.scdn.co/mp3-preview/cb238bb64ecf64310f6e35abaad500387ade7440?cid=774b29d4f13844c495f206cafdad9c86",
      "track_number" : 12,
      "type" : "track",
      "uri" : "spotify:track:2ykVZ95sPOfV5z8YPFW8nR"
    }, {
      "album" : {
        "album_type" : "album",
        "artists" : [ {
          "external_urls" : {
            "spotify" : "https://open.spotify.com/artist/73Pgynm8mcWRCeIGRNDBel"
          },
          "href" : "https://api.spotify.com/v1/artists/73Pgynm8mcWRCeIGRNDBel",
          "id" : "73Pgynm8mcWRCeIGRNDBel",
          "name" : "Joel Rosenberger",
          "type" : "artist",
          "uri" : "spotify:artist:73Pgynm8mcWRCeIGRNDBel"
        } ],
        "external_urls" : {
          "spotify" : "https://open.spotify.com/album/4SjXNie0ESd0hsXnmUqk8s"
        },
        "href" : "https://api.spotify.com/v1/albums/4SjXNie0ESd0hsXnmUqk8s",
        "id" : "4SjXNie0ESd0hsXnmUqk8s",
        "images" : [ {
          "height" : 640,
          "url" : "https://i.scdn.co/image/ab67616d0000b273612a777b55540a701299d54e",
          "width" : 640
        }, {
          "height" : 300,
          "url" : "https://i.scdn.co/image/ab67616d00001e02612a777b55540a701299d54e",
          "width" : 300
        }, {
          "height" : 64,
          "url" : "https://i.scdn.co/image/ab67616d00004851612a777b55540a701299d54e",
          "width" : 64
        } ],
        "name" : "Hymn Journeys: Contemporary Piano Interpretations",
        "release_date" : "2009-05-11",
        "release_date_precision" : "day",
        "total_tracks" : 19,
        "type" : "album",
        "uri" : "spotify:album:4SjXNie0ESd0hsXnmUqk8s"
      },
      "artists" : [ {
        "external_urls" : {
          "spotify" : "https://open.spotify.com/artist/73Pgynm8mcWRCeIGRNDBel"
        },
        "href" : "https://api.spotify.com/v1/artists/73Pgynm8mcWRCeIGRNDBel",
        "id" : "73Pgynm8mcWRCeIGRNDBel",
        "name" : "Joel Rosenberger",
        "type" : "artist",
        "uri" : "spotify:artist:73Pgynm8mcWRCeIGRNDBel"
      } ],
      "disc_number" : 1,
      "duration_ms" : 258000,
      "explicit" : false,
      "external_ids" : {
        "isrc" : "uscgj0913928"
      },
      "external_urls" : {
        "spotify" : "https://open.spotify.com/track/2L4f1FBCB6QWwF0TtCFOzt"
      },
      "href" : "https://api.spotify.com/v1/tracks/2L4f1FBCB6QWwF0TtCFOzt",
      "id" : "2L4f1FBCB6QWwF0TtCFOzt",
      "is_local" : false,
      "is_playable" : true,
      "name" : "And Can It Be",
      "popularity" : 24,
      "preview_url" : "https://p.scdn.co/mp3-preview/cc0c25ab56f7b94262c52a311dcbd218a31c7c29?cid=774b29d4f13844c495f206cafdad9c86",
      "track_number" : 2,
      "type" : "track",
      "uri" : "spotify:track:2L4f1FBCB6QWwF0TtCFOzt"
    }, {
      "album" : {
        "album_type" : "album",
        "artists" : [ {
          "external_urls" : {
            "spotify" : "https://open.spotify.com/artist/1gcSO6vOt5yPvs93ptmSq9"
          },
          "href" : "https://api.spotify.com/v1/artists/1gcSO6vOt5yPvs93ptmSq9",
          "id" : "1gcSO6vOt5yPvs93ptmSq9",
          "name" : "Forrest Wakeman",
          "type" : "artist",
          "uri" : "spotify:artist:1gcSO6vOt5yPvs93ptmSq9"
        } ],
        "external_urls" : {
          "spotify" : "https://open.spotify.com/album/408TMF0VfQmNzcSLflglBs"
        },
        "href" : "https://api.spotify.com/v1/albums/408TMF0VfQmNzcSLflglBs",
        "id" : "408TMF0VfQmNzcSLflglBs",
        "images" : [ {
          "height" : 640,
          "url" : "https://i.scdn.co/image/ab67616d0000b2732cc4b3268fe0559190023aeb",
          "width" : 640
        }, {
          "height" : 300,
          "url" : "https://i.scdn.co/image/ab67616d00001e022cc4b3268fe0559190023aeb",
          "width" : 300
        }, {
          "height" : 64,
          "url" : "https://i.scdn.co/image/ab67616d000048512cc4b3268fe0559190023aeb",
          "width" : 64
        } ],
        "name" : "Instrumental Hymns",
        "release_date" : "2012-12-19",
        "release_date_precision" : "day",
        "total_tracks" : 12,
        "type" : "album",
        "uri" : "spotify:album:408TMF0VfQmNzcSLflglBs"
      },
      "artists" : [ {
        "external_urls" : {
          "spotify" : "https://open.spotify.com/artist/1gcSO6vOt5yPvs93ptmSq9"
        },
        "href" : "https://api.spotify.com/v1/artists/1gcSO6vOt5yPvs93ptmSq9",
        "id" : "1gcSO6vOt5yPvs93ptmSq9",
        "name" : "Forrest Wakeman",
        "type" : "artist",
        "uri" : "spotify:artist:1gcSO6vOt5yPvs93ptmSq9"
      } ],
      "disc_number" : 1,
      "duration_ms" : 189546,
      "explicit" : false,
      "external_ids" : {
        "isrc" : "usx9p1261642"
      },
      "external_urls" : {
        "spotify" : "https://open.spotify.com/track/4lM910VslWZPaqdzCTiC1c"
      },
      "href" : "https://api.spotify.com/v1/tracks/4lM910VslWZPaqdzCTiC1c",
      "id" : "4lM910VslWZPaqdzCTiC1c",
      "is_local" : false,
      "is_playable" : true,
      "name" : "And Can It Be",
      "popularity" : 18,
      "preview_url" : "https://p.scdn.co/mp3-preview/b2ecff22aecb7412a727ae8cfae1e17cf7b37387?cid=774b29d4f13844c495f206cafdad9c86",
      "track_number" : 10,
      "type" : "track",
      "uri" : "spotify:track:4lM910VslWZPaqdzCTiC1c"
    }, {
      "album" : {
        "album_type" : "album",
        "artists" : [ {
          "external_urls" : {
            "spotify" : "https://open.spotify.com/artist/0USh2zLOFGDKyRBZRPE7iL"
          },
          "href" : "https://api.spotify.com/v1/artists/0USh2zLOFGDKyRBZRPE7iL",
          "id" : "0USh2zLOFGDKyRBZRPE7iL",
          "name" : "Robin Mark",
          "type" : "artist",
          "uri" : "spotify:artist:0USh2zLOFGDKyRBZRPE7iL"
        } ],
        "external_urls" : {
          "spotify" : "https://open.spotify.com/album/1QZHuAPeBtMqbJNmguxV6S"
        },
        "href" : "https://api.spotify.com/v1/albums/1QZHuAPeBtMqbJNmguxV6S",
        "id" : "1QZHuAPeBtMqbJNmguxV6S",
        "images" : [ {
          "height" : 640,
          "url" : "https://i.scdn.co/image/ab67616d0000b273eb5969ae0ff6ac10484cca26",
          "width" : 640
        }, {
          "height" : 300,
          "url" : "https://i.scdn.co/image/ab67616d00001e02eb5969ae0ff6ac10484cca26",
          "width" : 300
        }, {
          "height" : 64,
          "url" : "https://i.scdn.co/image/ab67616d00004851eb5969ae0ff6ac10484cca26",
          "width" : 64
        } ],
        "name" : "Living the Adventure - Mandate 2007",
        "release_date" : "2009-06-12",
        "release_date_precision" : "day",
        "total_tracks" : 12,
        "type" : "album",
        "uri" : "spotify:album:1QZHuAPeBtMqbJNmguxV6S"
      },
      "artists" : [ {
        "external_urls" : {
          "spotify" : "https://open.spotify.com/artist/0USh2zLOFGDKyRBZRPE7iL"
        },
        "href" : "https://api.spotify.com/v1/artists/0USh2zLOFGDKyRBZRPE7iL",
        "id" : "0USh2zLOFGDKyRBZRPE7iL",
        "name" : "Robin Mark",
        "type" : "artist",
        "uri" : "spotify:artist:0USh2zLOFGDKyRBZRPE7iL"
      } ],
      "disc_number" : 1,
      "duration_ms" : 445200,
      "explicit" : false,
      "external_ids" : {
        "isrc" : "GBFLJ0801380"
      },
      "external_urls" : {
        "spotify" : "https://open.spotify.com/track/5vY8cmEZ6wpNzSeR9NtZjn"
      },
      "href" : "https://api.spotify.com/v1/tracks/5vY8cmEZ6wpNzSeR9NtZjn",
      "id" : "5vY8cmEZ6wpNzSeR9NtZjn",
      "is_local" : false,
      "is_playable" : true,
      "name" : "And Can It Be",
      "popularity" : 22,
      "preview_url" : "https://p.scdn.co/mp3-preview/49e331c98dba51104d549f5815e1c0a633d5b99e?cid=774b29d4f13844c495f206cafdad9c86",
      "track_number" : 7,
      "type" : "track",
      "uri" : "spotify:track:5vY8cmEZ6wpNzSeR9NtZjn"
    }, {
      "album" : {
        "album_type" : "album",
        "artists" : [ {
          "external_urls" : {
            "spotify" : "https://open.spotify.com/artist/2G5uXRzRvQILLfvQCsnSUV"
          },
          "href" : "https://api.spotify.com/v1/artists/2G5uXRzRvQILLfvQCsnSUV",
          "id" : "2G5uXRzRvQILLfvQCsnSUV",
          "name" : "New Wine Worship",
          "type" : "artist",
          "uri" : "spotify:artist:2G5uXRzRvQILLfvQCsnSUV"
        } ],
        "external_urls" : {
          "spotify" : "https://open.spotify.com/album/2vBQ6WdlR01gc6iJbwFJdI"
        },
        "href" : "https://api.spotify.com/v1/albums/2vBQ6WdlR01gc6iJbwFJdI",
        "id" : "2vBQ6WdlR01gc6iJbwFJdI",
        "images" : [ {
          "height" : 640,
          "url" : "https://i.scdn.co/image/ab67616d0000b273ed4f955caab525ed44cc38bd",
          "width" : 640
        }, {
          "height" : 300,
          "url" : "https://i.scdn.co/image/ab67616d00001e02ed4f955caab525ed44cc38bd",
          "width" : 300
        }, {
          "height" : 64,
          "url" : "https://i.scdn.co/image/ab67616d00004851ed4f955caab525ed44cc38bd",
          "width" : 64
        } ],
        "name" : "This Is Love (Live)",
        "release_date" : "2019-07-26",
        "release_date_precision" : "day",
        "total_tracks" : 10,
        "type" : "album",
        "uri" : "spotify:album:2vBQ6WdlR01gc6iJbwFJdI"
      },
      "artists" : [ {
        "external_urls" : {
          "spotify" : "https://open.spotify.com/artist/2G5uXRzRvQILLfvQCsnSUV"
        },
        "href" : "https://api.spotify.com/v1/artists/2G5uXRzRvQILLfvQCsnSUV",
        "id" : "2G5uXRzRvQILLfvQCsnSUV",
        "name" : "New Wine Worship",
        "type" : "artist",
        "uri" : "spotify:artist:2G5uXRzRvQILLfvQCsnSUV"
      } ],
      "disc_number" : 1,
      "duration_ms" : 150505,
      "explicit" : false,
      "external_ids" : {
        "isrc" : "US25L1900200"
      },
      "external_urls" : {
        "spotify" : "https://open.spotify.com/track/5ZXdr5ykXvfNbf32iyNH9v"
      },
      "href" : "https://api.spotify.com/v1/tracks/5ZXdr5ykXvfNbf32iyNH9v",
      "id" : "5ZXdr5ykXvfNbf32iyNH9v",
      "is_local" : false,
      "is_playable" : true,
      "name" : "And Can It Be - Live",
      "popularity" : 19,
      "preview_url" : "https://p.scdn.co/mp3-preview/ee771618740ecb336617119ec1e77477efb203e3?cid=774b29d4f13844c495f206cafdad9c86",
      "track_number" : 4,
      "type" : "track",
      "uri" : "spotify:track:5ZXdr5ykXvfNbf32iyNH9v"
    }, {
      "album" : {
        "album_type" : "album",
        "artists" : [ {
          "external_urls" : {
            "spotify" : "https://open.spotify.com/artist/2IhNdbMUUa1aedvZVZsZmv"
          },
          "href" : "https://api.spotify.com/v1/artists/2IhNdbMUUa1aedvZVZsZmv",
          "id" : "2IhNdbMUUa1aedvZVZsZmv",
          "name" : "Luke Gard",
          "type" : "artist",
          "uri" : "spotify:artist:2IhNdbMUUa1aedvZVZsZmv"
        } ],
        "external_urls" : {
          "spotify" : "https://open.spotify.com/album/2omdKoz7ZpkBiBbcU3Ocyl"
        },
        "href" : "https://api.spotify.com/v1/albums/2omdKoz7ZpkBiBbcU3Ocyl",
        "id" : "2omdKoz7ZpkBiBbcU3Ocyl",
        "images" : [ {
          "height" : 640,
          "url" : "https://i.scdn.co/image/ab67616d0000b273c04d7a1134eafa2596777f01",
          "width" : 640
        }, {
          "height" : 300,
          "url" : "https://i.scdn.co/image/ab67616d00001e02c04d7a1134eafa2596777f01",
          "width" : 300
        }, {
          "height" : 64,
          "url" : "https://i.scdn.co/image/ab67616d00004851c04d7a1134eafa2596777f01",
          "width" : 64
        } ],
        "name" : "As You Go: Hymns of Hope",
        "release_date" : "2020-05-15",
        "release_date_precision" : "day",
        "total_tracks" : 12,
        "type" : "album",
        "uri" : "spotify:album:2omdKoz7ZpkBiBbcU3Ocyl"
      },
      "artists" : [ {
        "external_urls" : {
          "spotify" : "https://open.spotify.com/artist/2IhNdbMUUa1aedvZVZsZmv"
        },
        "href" : "https://api.spotify.com/v1/artists/2IhNdbMUUa1aedvZVZsZmv",
        "id" : "2IhNdbMUUa1aedvZVZsZmv",
        "name" : "Luke Gard",
        "type" : "artist",
        "uri" : "spotify:artist:2IhNdbMUUa1aedvZVZsZmv"
      } ],
      "disc_number" : 1,
      "duration_ms" : 192986,
      "explicit" : false,
      "external_ids" : {
        "isrc" : "QMTJ82000102"
      },
      "external_urls" : {
        "spotify" : "https://open.spotify.com/track/5mCGC715b9Rg1ElYzy6PKj"
      },
      "href" : "https://api.spotify.com/v1/tracks/5mCGC715b9Rg1ElYzy6PKj",
      "id" : "5mCGC715b9Rg1ElYzy6PKj",
      "is_local" : false,
      "is_playable" : true,
      "name" : "And Can It Be",
      "popularity" : 1,
      "preview_url" : "https://p.scdn.co/mp3-preview/8c3902777f6e426098e40bdc5d103d5d7c1675be?cid=774b29d4f13844c495f206cafdad9c86",
      "track_number" : 2,
      "type" : "track",
      "uri" : "spotify:track:5mCGC715b9Rg1ElYzy6PKj"
    }, {
      "album" : {
        "album_type" : "album",
        "artists" : [ {
          "external_urls" : {
            "spotify" : "https://open.spotify.com/artist/6eGXFEwOdfD1dIPyu6c5cG"
          },
          "href" : "https://api.spotify.com/v1/artists/6eGXFEwOdfD1dIPyu6c5cG",
          "id" : "6eGXFEwOdfD1dIPyu6c5cG",
          "name" : "Steve Green",
          "type" : "artist",
          "uri" : "spotify:artist:6eGXFEwOdfD1dIPyu6c5cG"
        } ],
        "external_urls" : {
          "spotify" : "https://open.spotify.com/album/0eyPx8rHeZz6AhmrGi3F5N"
        },
        "href" : "https://api.spotify.com/v1/albums/0eyPx8rHeZz6AhmrGi3F5N",
        "id" : "0eyPx8rHeZz6AhmrGi3F5N",
        "images" : [ {
          "height" : 640,
          "url" : "https://i.scdn.co/image/ab67616d0000b273890a7be5127aa0764343c6f5",
          "width" : 640
        }, {
          "height" : 300,
          "url" : "https://i.scdn.co/image/ab67616d00001e02890a7be5127aa0764343c6f5",
          "width" : 300
        }, {
          "height" : 64,
          "url" : "https://i.scdn.co/image/ab67616d00004851890a7be5127aa0764343c6f5",
          "width" : 64
        } ],
        "name" : "Himnos: Un Retrato De Cristo",
        "release_date" : "1992-01-01",
        "release_date_precision" : "day",
        "total_tracks" : 10,
        "type" : "album",
        "uri" : "spotify:album:0eyPx8rHeZz6AhmrGi3F5N"
      },
      "artists" : [ {
        "external_urls" : {
          "spotify" : "https://open.spotify.com/artist/6eGXFEwOdfD1dIPyu6c5cG"
        },
        "href" : "https://api.spotify.com/v1/artists/6eGXFEwOdfD1dIPyu6c5cG",
        "id" : "6eGXFEwOdfD1dIPyu6c5cG",
        "name" : "Steve Green",
        "type" : "artist",
        "uri" : "spotify:artist:6eGXFEwOdfD1dIPyu6c5cG"
      } ],
      "disc_number" : 1,
      "duration_ms" : 220386,
      "explicit" : false,
      "external_ids" : {
        "isrc" : "USSP39247554"
      },
      "external_urls" : {
        "spotify" : "https://open.spotify.com/track/3RHjNnZHvyttCNrBpikPAR"
      },
      "href" : "https://api.spotify.com/v1/tracks/3RHjNnZHvyttCNrBpikPAR",
      "id" : "3RHjNnZHvyttCNrBpikPAR",
      "is_local" : false,
      "is_playable" : true,
      "name" : "Maravilloso Es El Gran Amor (And Can It Be)",
      "popularity" : 19,
      "preview_url" : null,
      "track_number" : 5,
      "type" : "track",
      "uri" : "spotify:track:3RHjNnZHvyttCNrBpikPAR"
    }, {
      "album" : {
        "album_type" : "album",
        "artists" : [ {
          "external_urls" : {
            "spotify" : "https://open.spotify.com/artist/7K9Q4cGPr0wZiMwiE5LcsU"
          },
          "href" : "https://api.spotify.com/v1/artists/7K9Q4cGPr0wZiMwiE5LcsU",
          "id" : "7K9Q4cGPr0wZiMwiE5LcsU",
          "name" : "Acapella Praise",
          "type" : "artist",
          "uri" : "spotify:artist:7K9Q4cGPr0wZiMwiE5LcsU"
        } ],
        "external_urls" : {
          "spotify" : "https://open.spotify.com/album/3hmqEXcUyrN6VUV9H6MeNm"
        },
        "href" : "https://api.spotify.com/v1/albums/3hmqEXcUyrN6VUV9H6MeNm",
        "id" : "3hmqEXcUyrN6VUV9H6MeNm",
        "images" : [ {
          "height" : 640,
          "url" : "https://i.scdn.co/image/ab67616d0000b27348a76d045d126d998483dd95",
          "width" : 640
        }, {
          "height" : 300,
          "url" : "https://i.scdn.co/image/ab67616d00001e0248a76d045d126d998483dd95",
          "width" : 300
        }, {
          "height" : 64,
          "url" : "https://i.scdn.co/image/ab67616d0000485148a76d045d126d998483dd95",
          "width" : 64
        } ],
        "name" : "Acapella Praise 2",
        "release_date" : "1993-01-01",
        "release_date_precision" : "day",
        "total_tracks" : 10,
        "type" : "album",
        "uri" : "spotify:album:3hmqEXcUyrN6VUV9H6MeNm"
      },
      "artists" : [ {
        "external_urls" : {
          "spotify" : "https://open.spotify.com/artist/7K9Q4cGPr0wZiMwiE5LcsU"
        },
        "href" : "https://api.spotify.com/v1/artists/7K9Q4cGPr0wZiMwiE5LcsU",
        "id" : "7K9Q4cGPr0wZiMwiE5LcsU",
        "name" : "Acapella Praise",
        "type" : "artist",
        "uri" : "spotify:artist:7K9Q4cGPr0wZiMwiE5LcsU"
      } ],
      "disc_number" : 1,
      "duration_ms" : 265840,
      "explicit" : false,
      "external_ids" : {
        "isrc" : "US25L1500426"
      },
      "external_urls" : {
        "spotify" : "https://open.spotify.com/track/567s6XfYBUAEuPrnYxaJQm"
      },
      "href" : "https://api.spotify.com/v1/tracks/567s6XfYBUAEuPrnYxaJQm",
      "id" : "567s6XfYBUAEuPrnYxaJQm",
      "is_local" : false,
      "is_playable" : true,
      "name" : "Amazing Love / And Can It Be - Medley",
      "popularity" : 19,
      "preview_url" : "https://p.scdn.co/mp3-preview/4ccba9eacb54174b74a922edadcabfa62b9651ef?cid=774b29d4f13844c495f206cafdad9c86",
      "track_number" : 4,
      "type" : "track",
      "uri" : "spotify:track:567s6XfYBUAEuPrnYxaJQm"
    } ],
    "limit" : 10,
    "next" : "https://api.spotify.com/v1/search?query=And+Can+It+Be%3F&type=track&market=US&offset=15&limit=10",
    "offset" : 5,
    "previous" : "https://api.spotify.com/v1/search?query=And+Can+It+Be%3F&type=track&market=US&offset=0&limit=10",
    "total" : 3956
  }
}