{
  "tracks" : {
    "href" : "https://api.spotify.com/v1/search?query=We+Gather+Together&type=track&market=US&offset=5&limit=10",
    "items" : [ {
      "album" : {
        "album_type" : "album",
        "artists" : [ {
          "external_urls" : {
            "spotify" : "https://open.spotify.com/artist/652mJtf86ADYzaZM5WKD0T"
          },
          "href" : "https://api.spotify.com/v1/artists/652mJtf86ADYzaZM5WKD0T",
          "id" : "652mJtf86ADYzaZM5WKD0T",
          "name" : "Bruce Kurnow",
          "type" : "artist",
          "uri" : "spotify:artist:652mJtf86ADYzaZM5WKD0T"
        } ],
        "external_urls" : {
          "spotify" : "https://open.spotify.com/album/7DJGJFX6S7r8l3eBfVNF3U"
        },
        "href" : "https://api.spotify.com/v1/albums/7DJGJFX6S7r8l3eBfVNF3U",
        "id" : "7DJGJFX6S7r8l3eBfVNF3U",
        "images" : [ {
          "height" : 640,
          "url" : "https://i.scdn.co/image/ab67616d0000b273b2916584b125c2d21aa2a317",
          "width" : 640
        }, {
          "height" : 300,
          "url" : "https://i.scdn.co/image/ab67616d00001e02b2916584b125c2d21aa2a317",
          "width" : 300
        }, {
          "height" : 64,
          "url" : "https://i.scdn.co/image/ab67616d00004851b2916584b125c2d21aa2a317",
          "width" : 64
        } ],
        "name" : "Inspirational Harp: Hymns",
        "release_date" : "2014-01-01",
        "release_date_precision" : "day",
        "total_tracks" : 14,
        "type" : "album",
        "uri" : "spotify:album:7DJGJFX6S7r8l3eBfVNF3U"
      },
      "artists" : [ {
        "external_urls" : {
          "spotify" : "https://open.spotify.com/artist/652mJtf86ADYzaZM5WKD0T"
        },
        "href" : "https://api.spotify.com/v1/artists/652mJtf86ADYzaZM5WKD0T",
        "id" : "652mJtf86ADYzaZM5WKD0T",
        "name" : "Bruce Kurnow",
        "type" : "artist",
        "uri" : "spotify:artist:652mJtf86ADYzaZM5WKD0T"
      } ],
      "disc_number" : 1,
      "duration_ms" : 233813,
      "explicit" : false,
      "external_ids" : {
        "isrc" : "USP3J1006131"
      },
      "external_urls" : {
        "spotify" : "https://open.spotify.com/track/1TEO19WfK5q5RCq8nmP8pg"
      },
      "href" : "https://api.spotify.com/v1/tracks/1TEO19WfK5q5RCq8nmP8pg",
      "id" : "1TEO19WfK5q5RCq8nmP8pg",
      "is_local" : false,
      "is_playable" : true,
      "name" : "We Gather Together",
      "popularity" : 18,
      "preview_url" : "https://p.scdn.co/mp3-preview/92efd6eec7f31bf106d9dc5b60ab6714b4d9ff78?cid=774b29d4f13844c495f206cafdad9c86",
      "track_number" : 6,
      "type" : "track",
      "uri" : "spotify:track:1TEO19WfK5q5RCq8nmP8pg"
    }, {
      "album" : {
        "album_type" : "album",
        "artists" : [ {
          "external_urls" : {
            "spotify" : "https://open.spotify.com/artist/3HGpQkENCx0Yl4vFTPde3t"
          },
          "href" : "https://api.spotify.com/v1/artists/3HGpQkENCx0Yl4vFTPde3t",
          "id" : "3HGpQkENCx0Yl4vFTPde3t",
          "name" : "Robbins Island Music Group",
          "type" : "artist",
          "uri" : "spotify:artist:3HGpQkENCx0Yl4vFTPde3t"
        } ],
        "external_urls" : {
          "spotify" : "https://open.spotify.com/album/3bcEhKhpzRr4Fr0jpf6IG2"
        },
        "href" : "https://api.spotify.com/v1/albums/3bcEhKhpzRr4Fr0jpf6IG2",
        "id" : "3bcEhKhpzRr4Fr0jpf6IG2",
        "images" : [ {
          "height" : 640,
          "url" : "https://i.scdn.co/image/ab67616d0000b273134c76c05748535a87ce37d2",
          "width" : 640
        }, {
          "height" : 300,
          "url" : "https://i.scdn.co/image/ab67616d00001e02134c76c05748535a87ce37d2",
          "width" : 300
        }, {
          "height" : 64,
          "url" : "https://i.scdn.co/image/ab67616d00004851134c76c05748535a87ce37d2",
          "width" : 64
        } ],
        "name" : "Baby's First Hymns With Sounds of Nature: Soothing Christian Lullabies for Babies With Organic Nature Sounds",
        "release_date" : "2014-09-28",
        "release_date_precision" : "day",
        "total_tracks" : 14,
        "type" : "album",
        "uri" : "spotify:album:3bcEhKhpzRr4Fr0jpf6IG2"
      },
      "artists" : [ {
        "external_urls" : {
          "spotify" : "https://open.spotify.com/artist/3HGpQkENCx0Yl4vFTPde3t"
        },
        "href" : "https://api.spotify.com/v1/artists/3HGpQkENCx0Yl4vFTPde3t",
        "id" : "3HGpQkENCx0Yl4vFTPde3t",
        "name" : "Robbins Island Music Group",
        "type" : "artist",
        "uri" : "spotify:artist:3HGpQkENCx0Yl4vFTPde3t"
      } ],
      "disc_number" : 1,
      "duration_ms" : 304000,
      "explicit" : false,
      "external_ids" : {
        "isrc" : "ushm91415003"
      },
      "external_urls" : {
        "spotify" : "https://open.spotify.com/track/5w5LGtHr1QDR8MUAcDsaUt"
      },
      "href" : "https://api.spotify.com/v1/tracks/5w5LGtHr1QDR8MUAcDsaUt",
      "id" : "5w5LGtHr1QDR8MUAcDsaUt",
      "is_local" : false,
      "is_playable" : true,
      "name" : "We Gather Together (On a Sandy Shore)",
      "popularity" : 19,
      "preview_url" : "https://p.scdn.co/mp3-preview/039c9d6adaeeb26546f97f14778e3d4eaf5daf6f?cid=774b29d4f13844c495f206cafdad9c86",
      "track_number" : 12,
      "type" : "track",
      "uri" : "spotify:track:5w5LGtHr1QDR8MUAcDsaUt"
    }, {
      "album" : {
        "album_type" : "single",
        "artists" : [ {
          "external_urls" : {
            "spotify" : "https://open.spotify.com/artist/2qAOVsSeDczqT4oSWJ2q2s"
          },
          "href" : "https://api.spotify.com/v1/artists/2qAOVsSeDczqT4oSWJ2q2s",
          "id" : "2qAOVsSeDczqT4oSWJ2q2s",
          "name" : "Brad Jacobsen",
          "type" : "artist",
          "uri" : "spotify:artist:2qAOVsSeDczqT4oSWJ2q2s"
        } ],
        "external_urls" : {
          "spotify" : "https://open.spotify.com/album/6r3YkSKMdR6xWAI7ZWfDUB"
        },
        "href" : "https://api.spotify.com/v1/albums/6r3YkSKMdR6xWAI7ZWfDUB",
        "id" : "6r3YkSKMdR6xWAI7ZWfDUB",
        "images" : [ {
          "height" : 640,
          "url" : "https://i.scdn.co/image/ab67616d0000b273f03118bff97a30faf8e41afe",
          "width" : 640
        }, {
          "height" : 300,
          "url" : "https://i.scdn.co/image/ab67616d00001e02f03118bff97a30faf8e41afe",
          "width" : 300
        }, {
          "height" : 64,
          "url" : "https://i.scdn.co/image/ab67616d00004851f03118bff97a30faf8e41afe",
          "width" : 64
        } ],
        "name" : "Thanksgiving Medley (Over the River / We Gather Together)",
        "release_date" : "2018-09-07",
        "release_date_precision" : "day",
        "total_tracks" : 1,
        "type" : "album",
        "uri" : "spotify:album:6r3YkSKMdR6xWAI7ZWfDUB"
      },
      "artists" : [ {
        "external_urls" : {
          "spotify" : "https://open.spotify.com/artist/2qAOVsSeDczqT4oSWJ2q2s"
        },
        "href" : "https://api.spotify.com/v1/artists/2qAOVsSeDczqT4oSWJ2q2s",
        "id" : "2qAOVsSeDczqT4oSWJ2q2s",
        "name" : "Brad Jacobsen",
        "type" : "artist",
        "uri" : "spotify:artist:2qAOVsSeDczqT4oSWJ2q2s"
      } ],
      "disc_number" : 1,
      "duration_ms" : 251000,
      "explicit" : false,
      "external_ids" : {
        "isrc" : "TCADU1822778"
      },
      "external_urls" : {
        "spotify" : "https://open.spotify.com/track/144GZQ9yGRfmAk8RoeFwGf"
      },
      "href" : "https://api.spotify.com/v1/tracks/144GZQ9yGRfmAk8RoeFwGf",
      "id" : "144GZQ9yGRfmAk8RoeFwGf",
      "is_local" : false,
      "is_playable" : true,
      "name" : "Thanksgiving Medley (Over the River / We Gather Together)",
      "popularity" : 37,
      "preview_url" : "https://p.scdn.co/mp3-preview/6263b13927318b59c9ea4634ebf523684d1b2ddf?cid=774b29d4f13844c495f206cafdad9c86",
      "track_number" : 1,
      "type" : "track",
      "uri" : "spotify:track:144GZQ9yGRfmAk8RoeFwGf"
    }, {
      "album" : {
        "album_type" : "compilation",
        "artists" : [ {
          "external_urls" : {
            "spotify" : "https://open.spotify.com/artist/6h0Bl9CjL9SlYtiN4i6azz"
          },
          "href" : "https://api.spotify.com/v1/artists/6h0Bl9CjL9SlYtiN4i6azz",
          "id" : "6h0Bl9CjL9SlYtiN4i6azz",
          "name" : "David Phillips",
          "type" : "artist",
          "uri" : "spotify:artist:6h0Bl9CjL9SlYtiN4i6azz"
        } ],
        "external_urls" : {
          "spotify" : "https://open.spotify.com/album/71AnEva1G4zUn0NaStB9jC"
        },
        "href" : "https://api.spotify.com/v1/albums/71AnEva1G4zUn0NaStB9jC",
        "id" : "71AnEva1G4zUn0NaStB9jC",
        "images" : [ {
          "height" : 640,
          "url" : "https://i.scdn.co/image/ab67616d0000b27301ec3d058288d0d9a79c4439",
          "width" : 640
        }, {
          "height" : 300,
          "url" : "https://i.scdn.co/image/ab67616d00001e0201ec3d058288d0d9a79c4439",
          "width" : 300
        }, {
          "height" : 64,
          "url" : "https://i.scdn.co/image/ab67616d0000485101ec3d058288d0d9a79c4439",
          "width" : 64
        } ],
        "name" : "David Phillips, Vol. 14",
        "release_date" : "2020-05-22",
        "release_date_precision" : "day",
        "total_tracks" : 50,
        "type" : "album",
        "uri" : "spotify:album:71AnEva1G4zUn0NaStB9jC"
      },
      "artists" : [ {
        "external_urls" : {
          "spotify" : "https://open.spotify.com/artist/6h0Bl9CjL9SlYtiN4i6azz"
        },
        "href" : "https://api.spotify.com/v1/artists/6h0Bl9CjL9SlYtiN4i6azz",
        "id" : "6h0Bl9CjL9SlYtiN4i6azz",
        "name" : "David Phillips",
        "type" : "artist",
        "uri" : "spotify:artist:6h0Bl9CjL9SlYtiN4i6azz"
      } ],
      "disc_number" : 1,
      "duration_ms" : 155925,
      "explicit" : false,
      "external_ids" : {
        "isrc" : "US5UL1543272"
      },
      "external_urls" : {
        "spotify" : "https://open.spotify.com/track/6x3qxMZuANc5p9CNMJlqDZ"
      },
      "href" : "https://api.spotify.com/v1/tracks/6x3qxMZuANc5p9CNMJlqDZ",
      "id" : "6x3qxMZuANc5p9CNMJlqDZ",
      "is_local" : false,
      "is_playable" : true,
      "name" : "We Gather Together",
      "popularity" : 0,
      "preview_url" : "https://p.scdn.co/mp3-preview/c75d2e7d20d5f11f370c2bcf2a2252c5d7097f3a?cid=774b29d4f13844c495f206cafdad9c86",
      "track_number" : 30,
      "type" : "track",
      "uri" : "spotify:track:6x3qxMZuANc5p9CNMJlqDZ"
    }, {
      "album" : {
        "album_type" : "single",
        "artists" : [ {
          "external_urls" : {
            "spotify" : "https://open.spotify.com/artist/4E5OsYWj9dBk4cIyGEkWdJ"
          },
          "href" : "https://api.spotify.com/v1/artists/4E5OsYWj9dBk4cIyGEkWdJ",
          "id" : "4E5OsYWj9dBk4cIyGEkWdJ",
          "name" : "Keys of Peace",
          "type" : "artist",
          "uri" : "spotify:artist:4E5OsYWj9dBk4cIyGEkWdJ"
        } ],
        "external_urls" : {
          "spotify" : "https://open.spotify.com/album/0PK3XocaFj7itpRuTQOcG4"
        },
        "href" : "https://api.spotify.com/v1/albums/0PK3XocaFj7itpRuTQOcG4",
        "id" : "0PK3XocaFj7itpRuTQOcG4",
        "images" : [ {
          "height" : 640,
          "url" : "https://i.scdn.co/image/ab67616d0000b2737f1e434e0d07d55ec9956c5f",
          "width" : 640
        }, {
          "height" : 300,
          "url" : "https://i.scdn.co/image/ab67616d00001e027f1e434e0d07d55ec9956c5f",
          "width" : 300
        }, {
          "height" : 64,
          "url" : "https://i.scdn.co/image/ab67616d000048517f1e434e0d07d55ec9956c5f",
          "width" : 64
        } ],
        "name" : "We Gather Together (Instrumental)",
        "release_date" : "2020-05-16",
        "release_date_precision" : "day",
        "total_tracks" : 1,
        "type" : "album",
        "uri" : "spotify:album:0PK3XocaFj7itpRuTQOcG4"
      },
      "artists" : [ {
        "external_urls" : {
          "spotify" : "https://open.spotify.com/artist/4E5OsYWj9dBk4cIyGEkWdJ"
        },
        "href" : "https://api.spotify.com/v1/artists/4E5OsYWj9dBk4cIyGEkWdJ",
        "id" : "4E5OsYWj9dBk4cIyGEkWdJ",
        "name" : "Keys of Peace",
        "type" : "artist",
        "uri" : "spotify:artist:4E5OsYWj9dBk4cIyGEkWdJ"
      } ],
      "disc_number" : 1,
      "duration_ms" : 668452,
      "explicit" : false,
      "external_ids" : {
        "isrc" : "QZHN32003872"
      },
      "external_urls" : {
        "spotify" : "https://open.spotify.com/track/0UnFSHS7hgEofXbU32sWmD"
      },
      "href" : "https://api.spotify.com/v1/tracks/0UnFSHS7hgEofXbU32sWmD",
      "id" : "0UnFSHS7hgEofXbU32sWmD",
      "is_local" : false,
      "is_playable" : true,
      "name" : "We Gather Together - Instrumental",
      "popularity" : 0,
      "preview_url" : "https://p.scdn.co/mp3-preview/60218555464019bcc134626e72137f1020d79d74?cid=774b29d4f13844c495f206cafdad9c86",
      "track_number" : 1,
      "type" : "track",
      "uri" : "spotify:track:0UnFSHS7hgEofXbU32sWmD"
    }, {
      "album" : {
        "album_type" : "compilation",
        "artists" : [ {
          "external_urls" : {
            "spotify" : "https://open.spotify.com/artist/1PCJfBD2SVVE8cGqpg1pC9"
          },
          "href" : "https://api.spotify.com/v1/artists/1PCJfBD2SVVE8cGqpg1pC9",
          "id" : "1PCJfBD2SVVE8cGqpg1pC9",
          "name" : "Hal Wright",
          "type" : "artist",
          "uri" : "spotify:artist:1PCJfBD2SVVE8cGqpg1pC9"
        } ],
        "external_urls" : {
          "spotify" : "https://open.spotify.com/album/5oWBMNvHBpJEJbIuuWYIEO"
        },
        "href" : "https://api.spotify.com/v1/albums/5oWBMNvHBpJEJbIuuWYIEO",
        "id" : "5oWBMNvHBpJEJbIuuWYIEO",
        "images" : [ {
          "height" : 640,
          "url" : "https://i.scdn.co/image/ab67616d0000b273b27b0222733203b3fa0d9301",
          "width" : 640
        }, {
          "height" : 300,
          "url" : "https://i.scdn.co/image/ab67616d00001e02b27b0222733203b3fa0d9301",
          "width" : 300
        }, {
          "height" : 64,
          "url" : "https://i.scdn.co/image/ab67616d00004851b27b0222733203b3fa0d9301",
          "width" : 64
        } ],
        "name" : "Instrumental Hymns 1",
        "release_date" : "2020-05-22",
        "release_date_precision" : "day",
        "total_tracks" : 25,
        "type" : "album",
        "uri" : "spotify:album:5oWBMNvHBpJEJbIuuWYIEO"
      },
      "artists" : [ {
        "external_urls" : {
          "spotify" : "https://open.spotify.com/artist/1PCJfBD2SVVE8cGqpg1pC9"
        },
        "href" : "https://api.spotify.com/v1/artists/1PCJfBD2SVVE8cGqpg1pC9",
        "id" : "1PCJfBD2SVVE8cGqpg1pC9",
        "name" : "Hal Wright",
        "type" : "artist",
        "uri" : "spotify:artist:1PCJfBD2SVVE8cGqpg1pC9"
      }, {
        "external_urls" : {
          "spotify" : "https://open.spotify.com/artist/5Aerx1PdoW4F5Yvrus4bDE"
        },
        "href" : "https://api.spotify.com/v1/artists/5Aerx1PdoW4F5Yvrus4bDE",
        "id" : "5Aerx1PdoW4F5Yvrus4bDE",
        "name" : "Twin Sisters",
        "type" : "artist",
        "uri" : "spotify:artist:5Aerx1PdoW4F5Yvrus4bDE"
      } ],
      "disc_number" : 1,
      "duration_ms" : 119040,
      "explicit" : false,
      "external_ids" : {
        "isrc" : "US6PD1903958"
      },
      "external_urls" : {
        "spotify" : "https://open.spotify.com/track/3OOSc8nX6rxKVqUR1khznd"
      },
      "href" : "https://api.spotify.com/v1/tracks/3OOSc8nX6rxKVqUR1khznd",
      "id" : "3OOSc8nX6rxKVqUR1khznd",
      "is_local" : false,
      "is_playable" : true,
      "name" : "We Gather Together",
      "popularity" : 0,
      "preview_url" : "https://p.scdn.co/mp3-preview/73236f7166def5834ee34cce9989acd788cf328e?cid=774b29d4f13844c495f206cafdad9c86",
      "track_number" : 22,
      "type" : "track",
      "uri" : "spotify:track:3OOSc8nX6rxKVqUR1khznd"
    }, {
      "album" : {
        "album_type" : "album",
        "artists" : [ {
          "external_urls" : {
            "spotify" : "https://open.spotify.com/artist/0zYyfhX87rISSc9dyJQK5t"
          },
          "href" : "https://api.spotify.com/v1/artists/0zYyfhX87rISSc9dyJQK5t",
          "id" : "0zYyfhX87rISSc9dyJQK5t",
          "name" : "Craig Duncan",
          "type" : "artist",
          "uri" : "spotify:artist:0zYyfhX87rISSc9dyJQK5t"
        } ],
        "external_urls" : {
          "spotify" : "https://open.spotify.com/album/7vEap4aXugwJDa3KjuuySr"
        },
        "href" : "https://api.spotify.com/v1/albums/7vEap4aXugwJDa3KjuuySr",
        "id" : "7vEap4aXugwJDa3KjuuySr",
        "images" : [ {
          "height" : 640,
          "url" : "https://i.scdn.co/image/ab67616d0000b2735ac77e2cfeda835e0483a637",
          "width" : 640
        }, {
          "height" : 300,
          "url" : "https://i.scdn.co/image/ab67616d00001e025ac77e2cfeda835e0483a637",
          "width" : 300
        }, {
          "height" : 64,
          "url" : "https://i.scdn.co/image/ab67616d000048515ac77e2cfeda835e0483a637",
          "width" : 64
        } ],
        "name" : "We Gather Together: 14 Thanksgiving Hymns",
        "release_date" : "2011-01-01",
        "release_date_precision" : "day",
        "total_tracks" : 14,
        "type" : "album",
        "uri" : "spotify:album:7vEap4aXugwJDa3KjuuySr"
      },
      "artists" : [ {
        "external_urls" : {
          "spotify" : "https://open.spotify.com/artist/0zYyfhX87rISSc9dyJQK5t"
        },
        "href" : "https://api.spotify.com/v1/artists/0zYyfhX87rISSc9dyJQK5t",
        "id" : "0zYyfhX87rISSc9dyJQK5t",
        "name" : "Craig Duncan",
        "type" : "artist",
        "uri" : "spotify:artist:0zYyfhX87rISSc9dyJQK5t"
      } ],
      "disc_number" : 1,
      "duration_ms" : 195093,
      "explicit" : false,
      "external_ids" : {
        "isrc" : "USB4U1150091"
      },
      "external_urls" : {
        "spotify" : "https://open.spotify.com/track/5OF7hyt8JAEq2PQZO8jFoo"
      },
      "href" : "https://api.spotify.com/v1/tracks/5OF7hyt8JAEq2PQZO8jFoo",
      "id" : "5OF7hyt8JAEq2PQZO8jFoo",
      "is_local" : false,
      "is_playable" : true,
      "name" : "We Gather Together - We Gather Together: 14 Thanksgiving Hymns Album Version",
      "popularity" : 16,
      "preview_url" : null,
      "track_number" : 1,
      "type" : "track",
      "uri" : "spotify:track:5OF7hyt8JAEq2PQZO8jFoo"
    }, {
      "album" : {
        "album_type" : "album",
        "artists" : [ {
          "external_urls" : {
            "spotify" : "https://open.spotify.com/artist/6FsXOVxLro1VeFa5c6jK1y"
          },
          "href" : "https://api.spotify.com/v1/artists/6FsXOVxLro1VeFa5c6jK1y",
          "id" : "6FsXOVxLro1VeFa5c6jK1y",
          "name" : "Christopher West",
          "type" : "artist",
          "uri" : "spotify:artist:6FsXOVxLro1VeFa5c6jK1y"
        } ],
        "external_urls" : {
          "spotify" : "https://open.spotify.com/album/4tsteVMYm1TYe48X8D6Xu7"
        },
        "href" : "https://api.spotify.com/v1/albums/4tsteVMYm1TYe48X8D6Xu7",
        "id" : "4tsteVMYm1TYe48X8D6Xu7",
        "images" : [ {
          "height" : 640,
          "url" : "https://i.scdn.co/image/ab67616d0000b27342b847271e203cbbf8926a33",
          "width" : 640
        }, {
          "height" : 300,
          "url" : "https://i.scdn.co/image/ab67616d00001e0242b847271e203cbbf8926a33",
          "width" : 300
        }, {
          "height" : 64,
          "url" : "https://i.scdn.co/image/ab67616d0000485142b847271e203cbbf8926a33",
          "width" : 64
        } ],
        "name" : "Instrumental Praise",
        "release_date" : "2007-03-13",
        "release_date_precision" : "day",
        "total_tracks" : 14,
        "type" : "album",
        "uri" : "spotify:album:4tsteVMYm1TYe48X8D6Xu7"
      },
      "artists" : [ {
        "external_urls" : {
          "spotify" : "https://open.spotify.com/artist/6FsXOVxLro1VeFa5c6jK1y"
        },
        "href" : "https://api.spotify.com/v1/artists/6FsXOVxLro1VeFa5c6jK1y",
        "id" : "6FsXOVxLro1VeFa5c6jK1y",
        "name" : "Christopher West",
        "type" : "artist",
        "uri" : "spotify:artist:6FsXOVxLro1VeFa5c6jK1y"
      } ],
      "disc_number" : 1,
      "duration_ms" : 117920,
      "explicit" : false,
      "external_ids" : {
        "isrc" : "USY9R0710145"
      },
      "external_urls" : {
        "spotify" : "https://open.spotify.com/track/75K3NxNP8WyF3UdbOfeLN2"
      },
      "href" : "https://api.spotify.com/v1/tracks/75K3NxNP8WyF3UdbOfeLN2",
      "id" : "75K3NxNP8WyF3UdbOfeLN2",
      "is_local" : false,
      "is_playable" : true,
      "name" : "We Gather Together",
      "popularity" : 17,
      "preview_url" : "https://p.scdn.co/mp3-preview/7146ec6e237c29333d15d4aff4bf5d2b6d738125?cid=774b29d4f13844c495f206cafdad9c86",
      "track_number" : 5,
      "type" : "track",
      "uri" : "spotify:track:75K3NxNP8WyF3UdbOfeLN2"
    }, {
      "album" : {
        "album_type" : "album",
        "artists" : [ {
          "external_urls" : {
            "spotify" : "https://open.spotify.com/artist/5BcEbeQq5n2fz8HbhI9CWU"
          },
          "href" : "https://api.spotify.com/v1/artists/5BcEbeQq5n2fz8HbhI9CWU",
          "id" : "5BcEbeQq5n2fz8HbhI9CWU",
          "name" : "Emile Pandolfi",
          "type" : "artist",
          "uri" : "spotify:artist:5BcEbeQq5n2fz8HbhI9CWU"
        } ],
        "external_urls" : {
          "spotify" : "https://open.spotify.com/album/4R1RTyKqYhvEOczoia1a8g"
        },
        "href" : "https://api.spotify.com/v1/albums/4R1RTyKqYhvEOczoia1a8g",
        "id" : "4R1RTyKqYhvEOczoia1a8g",
        "images" : [ {
          "height" : 640,
          "url" : "https://i.scdn.co/image/ab67616d0000b2737752b140e013933fdb243624",
          "width" : 640
        }, {
          "height" : 300,
          "url" : "https://i.scdn.co/image/ab67616d00001e027752b140e013933fdb243624",
          "width" : 300
        }, {
          "height" : 64,
          "url" : "https://i.scdn.co/image/ab67616d000048517752b140e013933fdb243624",
          "width" : 64
        } ],
        "name" : "How Sweet The Sound!",
        "release_date" : "2007-09-06",
        "release_date_precision" : "day",
        "total_tracks" : 13,
        "type" : "album",
        "uri" : "spotify:album:4R1RTyKqYhvEOczoia1a8g"
      },
      "artists" : [ {
        "external_urls" : {
          "spotify" : "https://open.spotify.com/artist/5BcEbeQq5n2fz8HbhI9CWU"
        },
        "href" : "https://api.spotify.com/v1/artists/5BcEbeQq5n2fz8HbhI9CWU",
        "id" : "5BcEbeQq5n2fz8HbhI9CWU",
        "name" : "Emile Pandolfi",
        "type" : "artist",
        "uri" : "spotify:artist:5BcEbeQq5n2fz8HbhI9CWU"
      } ],
      "disc_number" : 1,
      "duration_ms" : 245573,
      "explicit" : false,
      "external_ids" : {
        "isrc" : "usy280769227"
      },
      "external_urls" : {
        "spotify" : "https://open.spotify.com/track/3uTg0wLbmyi3AtxQOspTdp"
      },
      "href" : "https://api.spotify.com/v1/tracks/3uTg0wLbmyi3AtxQOspTdp",
      "id" : "3uTg0wLbmyi3AtxQOspTdp",
      "is_local" : false,
      "is_playable" : true,
      "name" : "We Gather Together",
      "popularity" : 14,
      "preview_url" : "https://p.scdn.co/mp3-preview/92177103f166601616f4975a995dcda9c9c35aff?cid=774b29d4f13844c495f206cafdad9c86",
      "track_number" : 10,
      "type" : "track",
      "uri" : "spotify:track:3uTg0wLbmyi3AtxQOspTdp"
    }, {
      "album" : {
        "album_type" : "album",
        "artists" : [ {
          "external_urls" : {
            "spotify" : "https://open.spotify.com/artist/0zYyfhX87rISSc9dyJQK5t"
          },
          "href" : "https://api.spotify.com/v1/artists/0zYyfhX87rISSc9dyJQK5t",
          "id" : "0zYyfhX87rISSc9dyJQK5t",
          "name" : "Craig Duncan",
          "type" : "artist",
          "uri" : "spotify:artist:0zYyfhX87rISSc9dyJQK5t"
        } ],
        "external_urls" : {
          "spotify" : "https://open.spotify.com/album/7vEap4aXugwJDa3KjuuySr"
        },
        "href" : "https://api.spotify.com/v1/albums/7vEap4aXugwJDa3KjuuySr",
        "id" : "7vEap4aXugwJDa3KjuuySr",
        "images" : [ {
          "height" : 640,
          "url" : "https://i.scdn.co/image/ab67616d0000b2735ac77e2cfeda835e0483a637",
          "width" : 640
        }, {
          "height" : 300,
          "url" : "https://i.scdn.co/image/ab67616d00001e025ac77e2cfeda835e0483a637",
          "width" : 300
        }, {
          "height" : 64,
          "url" : "https://i.scdn.co/image/ab67616d000048515ac77e2cfeda835e0483a637",
          "width" : 64
        } ],
        "name" : "We Gather Together: 14 Thanksgiving Hymns",
        "release_date" : "2011-01-01",
        "release_date_precision" : "day",
        "total_tracks" : 14,
        "type" : "album",
        "uri" : "spotify:album:7vEap4aXugwJDa3KjuuySr"
      },
      "artists" : [ {
        "external_urls" : {
          "spotify" : "https://open.spotify.com/artist/0zYyfhX87rISSc9dyJQK5t"
        },
        "href" : "https://api.spotify.com/v1/artists/0zYyfhX87rISSc9dyJQK5t",
        "id" : "0zYyfhX87rISSc9dyJQK5t",
        "name" : "Craig Duncan",
        "type" : "artist",
        "uri" : "spotify:artist:0zYyfhX87rISSc9dyJQK5t"
      } ],
      "disc_number" : 1,
      "duration_ms" : 268626,
      "explicit" : false,
      "external_ids" : {
        "isrc" : "USB4U1150093"
      },
      "external_urls" : {
        "spotify" : "https://open.spotify.com/track/20wNq2KUiznW9Ci1K9B3mD"
      },
      "href" : "https://api.spotify.com/v1/tracks/20wNq2KUiznW9Ci1K9B3mD",
      "id" : "20wNq2KUiznW9Ci1K9B3mD",
      "is_local" : false,
      "is_playable" : true,
      "name" : "Simple Gifts - We Gather Together: 14 Thanksgiving Hymns Album Version",
      "popularity" : 13,
      "preview_url" : null,
      "track_number" : 3,
      "type" : "track",
      "uri" : "spotify:track:20wNq2KUiznW9Ci1K9B3mD"
    } ],
    "limit" : 10,
    "next" : "https://api.spotify.com/v1/search?query=We+Gather+Together&type=track&market=US&offset=15&limit=10",
    "offset" : 5,
    "previous" : "https://api.spotify.com/v1/search?query=We+Gather+Together&type=track&market=US&offset=0&limit=10",
    "total" : 675
  }
}