{
  "tracks" : {
    "href" : "https://api.spotify.com/v1/search?query=Face+to+Face&type=track&market=US&offset=5&limit=10",
    "items" : [ {
      "album" : {
        "album_type" : "single",
        "artists" : [ {
          "external_urls" : {
            "spotify" : "https://open.spotify.com/artist/1qBsABYUrxg9afpMtyoFKz"
          },
          "href" : "https://api.spotify.com/v1/artists/1qBsABYUrxg9afpMtyoFKz",
          "id" : "1qBsABYUrxg9afpMtyoFKz",
          "name" : "WayV",
          "type" : "artist",
          "uri" : "spotify:artist:1qBsABYUrxg9afpMtyoFKz"
        } ],
        "external_urls" : {
          "spotify" : "https://open.spotify.com/album/4ha80ucjDvhmQPLT77yyob"
        },
        "href" : "https://api.spotify.com/v1/albums/4ha80ucjDvhmQPLT77yyob",
        "id" : "4ha80ucjDvhmQPLT77yyob",
        "images" : [ {
          "height" : 640,
          "url" : "https://i.scdn.co/image/ab67616d0000b273374ed0d3862263ef52df6828",
          "width" : 640
        }, {
          "height" : 300,
          "url" : "https://i.scdn.co/image/ab67616d00001e02374ed0d3862263ef52df6828",
          "width" : 300
        }, {
          "height" : 64,
          "url" : "https://i.scdn.co/image/ab67616d00004851374ed0d3862263ef52df6828",
          "width" : 64
        } ],
        "name" : "Take Over The Moon - The 2nd Mini Album",
        "release_date" : "2019-10-29",
        "release_date_precision" : "day",
        "total_tracks" : 6,
        "type" : "album",
        "uri" : "spotify:album:4ha80ucjDvhmQPLT77yyob"
      },
      "artists" : [ {
        "external_urls" : {
          "spotify" : "https://open.spotify.com/artist/1qBsABYUrxg9afpMtyoFKz"
        },
        "href" : "https://api.spotify.com/v1/artists/1qBsABYUrxg9afpMtyoFKz",
        "id" : "1qBsABYUrxg9afpMtyoFKz",
        "name" : "WayV",
        "type" : "artist",
        "uri" : "spotify:artist:1qBsABYUrxg9afpMtyoFKz"
      } ],
      "disc_number" : 1,
      "duration_ms" : 207172,
      "explicit" : false,
      "external_ids" : {
        "isrc" : "KRA301900492"
      },
      "external_urls" : {
        "spotify" : "https://open.spotify.com/track/3Zr1trnK5GcmwMMm40Fjyb"
      },
      "href" : "https://api.spotify.com/v1/tracks/3Zr1trnK5GcmwMMm40Fjyb",
      "id" : "3Zr1trnK5GcmwMMm40Fjyb",
      "is_local" : false,
      "is_playable" : true,
      "name" : "Face to Face",
      "popularity" : 51,
      "preview_url" : "https://p.scdn.co/mp3-preview/2bcad0792540fd509133eaf60fc8b391414a6a26?cid=774b29d4f13844c495f206cafdad9c86",
      "track_number" : 5,
      "type" : "track",
      "uri" : "spotify:track:3Zr1trnK5GcmwMMm40Fjyb"
    }, {
      "album" : {
        "album_type" : "album",
        "artists" : [ {
          "external_urls" : {
            "spotify" : "https://open.spotify.com/artist/6g10GEtmIVqIQBhPZh4ScQ"
          },
          "href" : "https://api.spotify.com/v1/artists/6g10GEtmIVqIQBhPZh4ScQ",
          "id" : "6g10GEtmIVqIQBhPZh4ScQ",
          "name" : "Zach Williams",
          "type" : "artist",
          "uri" : "spotify:artist:6g10GEtmIVqIQBhPZh4ScQ"
        } ],
        "external_urls" : {
          "spotify" : "https://open.spotify.com/album/4TlLYmspdNdUAIitDn3WEk"
        },
        "href" : "https://api.spotify.com/v1/albums/4TlLYmspdNdUAIitDn3WEk",
        "id" : "4TlLYmspdNdUAIitDn3WEk",
        "images" : [ {
          "height" : 640,
          "url" : "https://i.scdn.co/image/ab67616d0000b27338b1ef92af7d2b7844ad3808",
          "width" : 640
        }, {
          "height" : 300,
          "url" : "https://i.scdn.co/image/ab67616d00001e0238b1ef92af7d2b7844ad3808",
          "width" : 300
        }, {
          "height" : 64,
          "url" : "https://i.scdn.co/image/ab67616d0000485138b1ef92af7d2b7844ad3808",
          "width" : 64
        } ],
        "name" : "Rescue Story",
        "release_date" : "2019-10-04",
        "release_date_precision" : "day",
        "total_tracks" : 10,
        "type" : "album",
        "uri" : "spotify:album:4TlLYmspdNdUAIitDn3WEk"
      },
      "artists" : [ {
        "external_urls" : {
          "spotify" : "https://open.spotify.com/artist/6g10GEtmIVqIQBhPZh4ScQ"
        },
        "href" : "https://api.spotify.com/v1/artists/6g10GEtmIVqIQBhPZh4ScQ",
        "id" : "6g10GEtmIVqIQBhPZh4ScQ",
        "name" : "Zach Williams",
        "type" : "artist",
        "uri" : "spotify:artist:6g10GEtmIVqIQBhPZh4ScQ"
      } ],
      "disc_number" : 1,
      "duration_ms" : 203890,
      "explicit" : false,
      "external_ids" : {
        "isrc" : "USA5W1900241"
      },
      "external_urls" : {
        "spotify" : "https://open.spotify.com/track/1uQlig4QpLyEiqQ5SVDMMe"
      },
      "href" : "https://api.spotify.com/v1/tracks/1uQlig4QpLyEiqQ5SVDMMe",
      "id" : "1uQlig4QpLyEiqQ5SVDMMe",
      "is_local" : false,
      "is_playable" : true,
      "name" : "Face to Face",
      "popularity" : 40,
      "preview_url" : "https://p.scdn.co/mp3-preview/3ba812d7eaf40c607b1009b5c9778e277357145f?cid=774b29d4f13844c495f206cafdad9c86",
      "track_number" : 10,
      "type" : "track",
      "uri" : "spotify:track:1uQlig4QpLyEiqQ5SVDMMe"
    }, {
      "album" : {
        "album_type" : "album",
        "artists" : [ {
          "external_urls" : {
            "spotify" : "https://open.spotify.com/artist/4p07QU02SrLsaORo25h2Lg"
          },
          "href" : "https://api.spotify.com/v1/artists/4p07QU02SrLsaORo25h2Lg",
          "id" : "4p07QU02SrLsaORo25h2Lg",
          "name" : "Sammie",
          "type" : "artist",
          "uri" : "spotify:artist:4p07QU02SrLsaORo25h2Lg"
        } ],
        "external_urls" : {
          "spotify" : "https://open.spotify.com/album/15T2sxEXeWt1HVqCR2TOoC"
        },
        "href" : "https://api.spotify.com/v1/albums/15T2sxEXeWt1HVqCR2TOoC",
        "id" : "15T2sxEXeWt1HVqCR2TOoC",
        "images" : [ {
          "height" : 640,
          "url" : "https://i.scdn.co/image/ab67616d0000b273288b7fea13b1f33a6df60808",
          "width" : 640
        }, {
          "height" : 300,
          "url" : "https://i.scdn.co/image/ab67616d00001e02288b7fea13b1f33a6df60808",
          "width" : 300
        }, {
          "height" : 64,
          "url" : "https://i.scdn.co/image/ab67616d00004851288b7fea13b1f33a6df60808",
          "width" : 64
        } ],
        "name" : "Everlasting",
        "release_date" : "2019-03-01",
        "release_date_precision" : "day",
        "total_tracks" : 13,
        "type" : "album",
        "uri" : "spotify:album:15T2sxEXeWt1HVqCR2TOoC"
      },
      "artists" : [ {
        "external_urls" : {
          "spotify" : "https://open.spotify.com/artist/4p07QU02SrLsaORo25h2Lg"
        },
        "href" : "https://api.spotify.com/v1/artists/4p07QU02SrLsaORo25h2Lg",
        "id" : "4p07QU02SrLsaORo25h2Lg",
        "name" : "Sammie",
        "type" : "artist",
        "uri" : "spotify:artist:4p07QU02SrLsaORo25h2Lg"
      } ],
      "disc_number" : 1,
      "duration_ms" : 178494,
      "explicit" : true,
      "external_ids" : {
        "isrc" : "USUYG1239847"
      },
      "external_urls" : {
        "spotify" : "https://open.spotify.com/track/65POe3qIlqf2lzeUlNz0s0"
      },
      "href" : "https://api.spotify.com/v1/tracks/65POe3qIlqf2lzeUlNz0s0",
      "id" : "65POe3qIlqf2lzeUlNz0s0",
      "is_local" : false,
      "is_playable" : true,
      "name" : "Face to Face",
      "popularity" : 39,
      "preview_url" : "https://p.scdn.co/mp3-preview/0449afc9bb4aa1440f32ac0d53937762be3a864b?cid=774b29d4f13844c495f206cafdad9c86",
      "track_number" : 3,
      "type" : "track",
      "uri" : "spotify:track:65POe3qIlqf2lzeUlNz0s0"
    }, {
      "album" : {
        "album_type" : "album",
        "artists" : [ {
          "external_urls" : {
            "spotify" : "https://open.spotify.com/artist/4tZwfgrHOc3mvqYlEYSvVi"
          },
          "href" : "https://api.spotify.com/v1/artists/4tZwfgrHOc3mvqYlEYSvVi",
          "id" : "4tZwfgrHOc3mvqYlEYSvVi",
          "name" : "Daft Punk",
          "type" : "artist",
          "uri" : "spotify:artist:4tZwfgrHOc3mvqYlEYSvVi"
        } ],
        "external_urls" : {
          "spotify" : "https://open.spotify.com/album/7u6zL7kqpgLPISZYXNTgYk"
        },
        "href" : "https://api.spotify.com/v1/albums/7u6zL7kqpgLPISZYXNTgYk",
        "id" : "7u6zL7kqpgLPISZYXNTgYk",
        "images" : [ {
          "height" : 640,
          "url" : "https://i.scdn.co/image/ab67616d0000b273673288fb985e5c194536ae27",
          "width" : 640
        }, {
          "height" : 300,
          "url" : "https://i.scdn.co/image/ab67616d00001e02673288fb985e5c194536ae27",
          "width" : 300
        }, {
          "height" : 64,
          "url" : "https://i.scdn.co/image/ab67616d00004851673288fb985e5c194536ae27",
          "width" : 64
        } ],
        "name" : "Alive 2007",
        "release_date" : "2007-11-16",
        "release_date_precision" : "day",
        "total_tracks" : 13,
        "type" : "album",
        "uri" : "spotify:album:7u6zL7kqpgLPISZYXNTgYk"
      },
      "artists" : [ {
        "external_urls" : {
          "spotify" : "https://open.spotify.com/artist/4tZwfgrHOc3mvqYlEYSvVi"
        },
        "href" : "https://api.spotify.com/v1/artists/4tZwfgrHOc3mvqYlEYSvVi",
        "id" : "4tZwfgrHOc3mvqYlEYSvVi",
        "name" : "Daft Punk",
        "type" : "artist",
        "uri" : "spotify:artist:4tZwfgrHOc3mvqYlEYSvVi"
      } ],
      "disc_number" : 1,
      "duration_ms" : 295226,
      "explicit" : false,
      "external_ids" : {
        "isrc" : "GBDUW0700007"
      },
      "external_urls" : {
        "spotify" : "https://open.spotify.com/track/5XzGyYZemDuCG3OdbhVFvh"
      },
      "href" : "https://api.spotify.com/v1/tracks/5XzGyYZemDuCG3OdbhVFvh",
      "id" : "5XzGyYZemDuCG3OdbhVFvh",
      "is_local" : false,
      "is_playable" : true,
      "name" : "Face to Face / Short Circuit",
      "popularity" : 45,
      "preview_url" : "https://p.scdn.co/mp3-preview/450c0665956327d2dda4c41c361979e6a4a46ec1?cid=774b29d4f13844c495f206cafdad9c86",
      "track_number" : 7,
      "type" : "track",
      "uri" : "spotify:track:5XzGyYZemDuCG3OdbhVFvh"
    }, {
      "album" : {
        "album_type" : "album",
        "artists" : [ {
          "external_urls" : {
            "spotify" : "https://open.spotify.com/artist/4nhvb6x9ZhPiYCzrHDNia9"
          },
          "href" : "https://api.spotify.com/v1/artists/4nhvb6x9ZhPiYCzrHDNia9",
          "id" : "4nhvb6x9ZhPiYCzrHDNia9",
          "name" : "Daphni",
          "type" : "artist",
          "uri" : "spotify:artist:4nhvb6x9ZhPiYCzrHDNia9"
        } ],
        "external_urls" : {
          "spotify" : "https://open.spotify.com/album/2NF7kUOEaNYhCWLANV85Aj"
        },
        "href" : "https://api.spotify.com/v1/albums/2NF7kUOEaNYhCWLANV85Aj",
        "id" : "2NF7kUOEaNYhCWLANV85Aj",
        "images" : [ {
          "height" : 640,
          "url" : "https://i.scdn.co/image/ab67616d0000b2730ed3b03e9025fbfde6150f31",
          "width" : 640
        }, {
          "height" : 300,
          "url" : "https://i.scdn.co/image/ab67616d00001e020ed3b03e9025fbfde6150f31",
          "width" : 300
        }, {
          "height" : 64,
          "url" : "https://i.scdn.co/image/ab67616d000048510ed3b03e9025fbfde6150f31",
          "width" : 64
        } ],
        "name" : "Joli Mai",
        "release_date" : "2017-10-06",
        "release_date_precision" : "day",
        "total_tracks" : 12,
        "type" : "album",
        "uri" : "spotify:album:2NF7kUOEaNYhCWLANV85Aj"
      },
      "artists" : [ {
        "external_urls" : {
          "spotify" : "https://open.spotify.com/artist/4nhvb6x9ZhPiYCzrHDNia9"
        },
        "href" : "https://api.spotify.com/v1/artists/4nhvb6x9ZhPiYCzrHDNia9",
        "id" : "4nhvb6x9ZhPiYCzrHDNia9",
        "name" : "Daphni",
        "type" : "artist",
        "uri" : "spotify:artist:4nhvb6x9ZhPiYCzrHDNia9"
      } ],
      "disc_number" : 1,
      "duration_ms" : 342671,
      "explicit" : false,
      "external_ids" : {
        "isrc" : "GBAL71719001"
      },
      "external_urls" : {
        "spotify" : "https://open.spotify.com/track/1RIpbO5B8B4GiND7WT40xB"
      },
      "href" : "https://api.spotify.com/v1/tracks/1RIpbO5B8B4GiND7WT40xB",
      "id" : "1RIpbO5B8B4GiND7WT40xB",
      "is_local" : false,
      "is_playable" : true,
      "name" : "Face to Face",
      "popularity" : 49,
      "preview_url" : "https://p.scdn.co/mp3-preview/81d726cf006c7cf85a503ca9b115242ef7689f21?cid=774b29d4f13844c495f206cafdad9c86",
      "track_number" : 2,
      "type" : "track",
      "uri" : "spotify:track:1RIpbO5B8B4GiND7WT40xB"
    }, {
      "album" : {
        "album_type" : "album",
        "artists" : [ {
          "external_urls" : {
            "spotify" : "https://open.spotify.com/artist/24eDfi2MSYo3A87hCcgpIL"
          },
          "href" : "https://api.spotify.com/v1/artists/24eDfi2MSYo3A87hCcgpIL",
          "id" : "24eDfi2MSYo3A87hCcgpIL",
          "name" : "Ludwig Goransson",
          "type" : "artist",
          "uri" : "spotify:artist:24eDfi2MSYo3A87hCcgpIL"
        } ],
        "external_urls" : {
          "spotify" : "https://open.spotify.com/album/4xFmHg5dYvaqmn9ZNQpjWL"
        },
        "href" : "https://api.spotify.com/v1/albums/4xFmHg5dYvaqmn9ZNQpjWL",
        "id" : "4xFmHg5dYvaqmn9ZNQpjWL",
        "images" : [ {
          "height" : 640,
          "url" : "https://i.scdn.co/image/ab67616d0000b273d35e660d944b0601765fc32a",
          "width" : 640
        }, {
          "height" : 300,
          "url" : "https://i.scdn.co/image/ab67616d00001e02d35e660d944b0601765fc32a",
          "width" : 300
        }, {
          "height" : 64,
          "url" : "https://i.scdn.co/image/ab67616d00004851d35e660d944b0601765fc32a",
          "width" : 64
        } ],
        "name" : "The Mandalorian: Chapter 1 (Original Score)",
        "release_date" : "2019-11-12",
        "release_date_precision" : "day",
        "total_tracks" : 9,
        "type" : "album",
        "uri" : "spotify:album:4xFmHg5dYvaqmn9ZNQpjWL"
      },
      "artists" : [ {
        "external_urls" : {
          "spotify" : "https://open.spotify.com/artist/24eDfi2MSYo3A87hCcgpIL"
        },
        "href" : "https://api.spotify.com/v1/artists/24eDfi2MSYo3A87hCcgpIL",
        "id" : "24eDfi2MSYo3A87hCcgpIL",
        "name" : "Ludwig Goransson",
        "type" : "artist",
        "uri" : "spotify:artist:24eDfi2MSYo3A87hCcgpIL"
      } ],
      "disc_number" : 1,
      "duration_ms" : 312988,
      "explicit" : false,
      "external_ids" : {
        "isrc" : "USWD11995111"
      },
      "external_urls" : {
        "spotify" : "https://open.spotify.com/track/46ZTVbgiChSTxWcZyveJqu"
      },
      "href" : "https://api.spotify.com/v1/tracks/46ZTVbgiChSTxWcZyveJqu",
      "id" : "46ZTVbgiChSTxWcZyveJqu",
      "is_local" : false,
      "is_playable" : true,
      "name" : "Face to Face",
      "popularity" : 42,
      "preview_url" : null,
      "track_number" : 2,
      "type" : "track",
      "uri" : "spotify:track:46ZTVbgiChSTxWcZyveJqu"
    }, {
      "album" : {
        "album_type" : "single",
        "artists" : [ {
          "external_urls" : {
            "spotify" : "https://open.spotify.com/artist/1jHRZA0r7hkbSC3bXAEh67"
          },
          "href" : "https://api.spotify.com/v1/artists/1jHRZA0r7hkbSC3bXAEh67",
          "id" : "1jHRZA0r7hkbSC3bXAEh67",
          "name" : "Kings of the Earth",
          "type" : "artist",
          "uri" : "spotify:artist:1jHRZA0r7hkbSC3bXAEh67"
        } ],
        "external_urls" : {
          "spotify" : "https://open.spotify.com/album/7zZBsbAhHwdzJk4fxCX4Rw"
        },
        "href" : "https://api.spotify.com/v1/albums/7zZBsbAhHwdzJk4fxCX4Rw",
        "id" : "7zZBsbAhHwdzJk4fxCX4Rw",
        "images" : [ {
          "height" : 640,
          "url" : "https://i.scdn.co/image/ab67616d0000b273f9e6a3842226cfc206ed5e8e",
          "width" : 640
        }, {
          "height" : 300,
          "url" : "https://i.scdn.co/image/ab67616d00001e02f9e6a3842226cfc206ed5e8e",
          "width" : 300
        }, {
          "height" : 64,
          "url" : "https://i.scdn.co/image/ab67616d00004851f9e6a3842226cfc206ed5e8e",
          "width" : 64
        } ],
        "name" : "Face to Face",
        "release_date" : "2020-04-30",
        "release_date_precision" : "day",
        "total_tracks" : 1,
        "type" : "album",
        "uri" : "spotify:album:7zZBsbAhHwdzJk4fxCX4Rw"
      },
      "artists" : [ {
        "external_urls" : {
          "spotify" : "https://open.spotify.com/artist/1jHRZA0r7hkbSC3bXAEh67"
        },
        "href" : "https://api.spotify.com/v1/artists/1jHRZA0r7hkbSC3bXAEh67",
        "id" : "1jHRZA0r7hkbSC3bXAEh67",
        "name" : "Kings of the Earth",
        "type" : "artist",
        "uri" : "spotify:artist:1jHRZA0r7hkbSC3bXAEh67"
      } ],
      "disc_number" : 1,
      "duration_ms" : 228458,
      "explicit" : false,
      "external_ids" : {
        "isrc" : "QZF5G2050160"
      },
      "external_urls" : {
        "spotify" : "https://open.spotify.com/track/1F1E4DXtvCwKJMy93pOoIj"
      },
      "href" : "https://api.spotify.com/v1/tracks/1F1E4DXtvCwKJMy93pOoIj",
      "id" : "1F1E4DXtvCwKJMy93pOoIj",
      "is_local" : false,
      "is_playable" : true,
      "name" : "Face to Face",
      "popularity" : 38,
      "preview_url" : "https://p.scdn.co/mp3-preview/8aa14e64c9c7e22ef8ba7f365edaf879f62c6148?cid=774b29d4f13844c495f206cafdad9c86",
      "track_number" : 1,
      "type" : "track",
      "uri" : "spotify:track:1F1E4DXtvCwKJMy93pOoIj"
    }, {
      "album" : {
        "album_type" : "album",
        "artists" : [ {
          "external_urls" : {
            "spotify" : "https://open.spotify.com/artist/4l9ufn9GC6LLYXvIanDlLd"
          },
          "href" : "https://api.spotify.com/v1/artists/4l9ufn9GC6LLYXvIanDlLd",
          "id" : "4l9ufn9GC6LLYXvIanDlLd",
          "name" : "Face To Face",
          "type" : "artist",
          "uri" : "spotify:artist:4l9ufn9GC6LLYXvIanDlLd"
        } ],
        "external_urls" : {
          "spotify" : "https://open.spotify.com/album/30Agxug9JulUpt5I3mUNM4"
        },
        "href" : "https://api.spotify.com/v1/albums/30Agxug9JulUpt5I3mUNM4",
        "id" : "30Agxug9JulUpt5I3mUNM4",
        "images" : [ {
          "height" : 640,
          "url" : "https://i.scdn.co/image/ab67616d0000b273e5d41cb0cf51946ad9a4bca9",
          "width" : 640
        }, {
          "height" : 300,
          "url" : "https://i.scdn.co/image/ab67616d00001e02e5d41cb0cf51946ad9a4bca9",
          "width" : 300
        }, {
          "height" : 64,
          "url" : "https://i.scdn.co/image/ab67616d00004851e5d41cb0cf51946ad9a4bca9",
          "width" : 64
        } ],
        "name" : "Don't Turn Away",
        "release_date" : "1992",
        "release_date_precision" : "year",
        "total_tracks" : 13,
        "type" : "album",
        "uri" : "spotify:album:30Agxug9JulUpt5I3mUNM4"
      },
      "artists" : [ {
        "external_urls" : {
          "spotify" : "https://open.spotify.com/artist/4l9ufn9GC6LLYXvIanDlLd"
        },
        "href" : "https://api.spotify.com/v1/artists/4l9ufn9GC6LLYXvIanDlLd",
        "id" : "4l9ufn9GC6LLYXvIanDlLd",
        "name" : "Face To Face",
        "type" : "artist",
        "uri" : "spotify:artist:4l9ufn9GC6LLYXvIanDlLd"
      } ],
      "disc_number" : 1,
      "duration_ms" : 207733,
      "explicit" : false,
      "external_ids" : {
        "isrc" : "USFW40451503"
      },
      "external_urls" : {
        "spotify" : "https://open.spotify.com/track/4TOIJR7F0dH2k32a70YS8F"
      },
      "href" : "https://api.spotify.com/v1/tracks/4TOIJR7F0dH2k32a70YS8F",
      "id" : "4TOIJR7F0dH2k32a70YS8F",
      "is_local" : false,
      "is_playable" : true,
      "name" : "Disconnected",
      "popularity" : 52,
      "preview_url" : "https://p.scdn.co/mp3-preview/3aab79f6e350554c2782a6d7c9736e90dbc820aa?cid=774b29d4f13844c495f206cafdad9c86",
      "track_number" : 3,
      "type" : "track",
      "uri" : "spotify:track:4TOIJR7F0dH2k32a70YS8F"
    }, {
      "album" : {
        "album_type" : "single",
        "artists" : [ {
          "external_urls" : {
            "spotify" : "https://open.spotify.com/artist/5Lhj3Zhqnh4r33iU0tnecc"
          },
          "href" : "https://api.spotify.com/v1/artists/5Lhj3Zhqnh4r33iU0tnecc",
          "id" : "5Lhj3Zhqnh4r33iU0tnecc",
          "name" : "Janice Gaines",
          "type" : "artist",
          "uri" : "spotify:artist:5Lhj3Zhqnh4r33iU0tnecc"
        } ],
        "external_urls" : {
          "spotify" : "https://open.spotify.com/album/24meiwHt0vVV3nuYUuBIh8"
        },
        "href" : "https://api.spotify.com/v1/albums/24meiwHt0vVV3nuYUuBIh8",
        "id" : "24meiwHt0vVV3nuYUuBIh8",
        "images" : [ {
          "height" : 640,
          "url" : "https://i.scdn.co/image/ab67616d0000b2730b625d0adfbb2b3f1260282d",
          "width" : 640
        }, {
          "height" : 300,
          "url" : "https://i.scdn.co/image/ab67616d00001e020b625d0adfbb2b3f1260282d",
          "width" : 300
        }, {
          "height" : 64,
          "url" : "https://i.scdn.co/image/ab67616d000048510b625d0adfbb2b3f1260282d",
          "width" : 64
        } ],
        "name" : "Face to Face (Live)",
        "release_date" : "2019-11-08",
        "release_date_precision" : "day",
        "total_tracks" : 1,
        "type" : "album",
        "uri" : "spotify:album:24meiwHt0vVV3nuYUuBIh8"
      },
      "artists" : [ {
        "external_urls" : {
          "spotify" : "https://open.spotify.com/artist/5Lhj3Zhqnh4r33iU0tnecc"
        },
        "href" : "https://api.spotify.com/v1/artists/5Lhj3Zhqnh4r33iU0tnecc",
        "id" : "5Lhj3Zhqnh4r33iU0tnecc",
        "name" : "Janice Gaines",
        "type" : "artist",
        "uri" : "spotify:artist:5Lhj3Zhqnh4r33iU0tnecc"
      } ],
      "disc_number" : 1,
      "duration_ms" : 179989,
      "explicit" : false,
      "external_ids" : {
        "isrc" : "TCAEL1959327"
      },
      "external_urls" : {
        "spotify" : "https://open.spotify.com/track/3o7oKz79IhY0cvysOXZpZR"
      },
      "href" : "https://api.spotify.com/v1/tracks/3o7oKz79IhY0cvysOXZpZR",
      "id" : "3o7oKz79IhY0cvysOXZpZR",
      "is_local" : false,
      "is_playable" : true,
      "name" : "Face to Face (Live)",
      "popularity" : 36,
      "preview_url" : "https://p.scdn.co/mp3-preview/a089ef3c3cdaed0e29fc385ba9ce40e90fc92604?cid=774b29d4f13844c495f206cafdad9c86",
      "track_number" : 1,
      "type" : "track",
      "uri" : "spotify:track:3o7oKz79IhY0cvysOXZpZR"
    }, {
      "album" : {
        "album_type" : "single",
        "artists" : [ {
          "external_urls" : {
            "spotify" : "https://open.spotify.com/artist/4KihRC0JCRb7aBMYuPAOzA"
          },
          "href" : "https://api.spotify.com/v1/artists/4KihRC0JCRb7aBMYuPAOzA",
          "id" : "4KihRC0JCRb7aBMYuPAOzA",
          "name" : "Kéo",
          "type" : "artist",
          "uri" : "spotify:artist:4KihRC0JCRb7aBMYuPAOzA"
        } ],
        "external_urls" : {
          "spotify" : "https://open.spotify.com/album/2FsHJYZM0j7PAP7TI812VA"
        },
        "href" : "https://api.spotify.com/v1/albums/2FsHJYZM0j7PAP7TI812VA",
        "id" : "2FsHJYZM0j7PAP7TI812VA",
        "images" : [ {
          "height" : 640,
          "url" : "https://i.scdn.co/image/ab67616d0000b273c09443c2d28c6f3270d75a49",
          "width" : 640
        }, {
          "height" : 300,
          "url" : "https://i.scdn.co/image/ab67616d00001e02c09443c2d28c6f3270d75a49",
          "width" : 300
        }, {
          "height" : 64,
          "url" : "https://i.scdn.co/image/ab67616d00004851c09443c2d28c6f3270d75a49",
          "width" : 64
        } ],
        "name" : "Face to Face",
        "release_date" : "2020-01-31",
        "release_date_precision" : "day",
        "total_tracks" : 1,
        "type" : "album",
        "uri" : "spotify:album:2FsHJYZM0j7PAP7TI812VA"
      },
      "artists" : [ {
        "external_urls" : {
          "spotify" : "https://open.spotify.com/artist/4KihRC0JCRb7aBMYuPAOzA"
        },
        "href" : "https://api.spotify.com/v1/artists/4KihRC0JCRb7aBMYuPAOzA",
        "id" : "4KihRC0JCRb7aBMYuPAOzA",
        "name" : "Kéo",
        "type" : "artist",
        "uri" : "spotify:artist:4KihRC0JCRb7aBMYuPAOzA"
      } ],
      "disc_number" : 1,
      "duration_ms" : 149260,
      "explicit" : false,
      "external_ids" : {
        "isrc" : "QZFYX2042278"
      },
      "external_urls" : {
        "spotify" : "https://open.spotify.com/track/21RaU9DOmR4ZIJTpBJ48Pc"
      },
      "href" : "https://api.spotify.com/v1/tracks/21RaU9DOmR4ZIJTpBJ48Pc",
      "id" : "21RaU9DOmR4ZIJTpBJ48Pc",
      "is_local" : false,
      "is_playable" : true,
      "name" : "Face to Face",
      "popularity" : 35,
      "preview_url" : "https://p.scdn.co/mp3-preview/a6e884307d352c3b0583a25cdd8a64bdabb00bdb?cid=774b29d4f13844c495f206cafdad9c86",
      "track_number" : 1,
      "type" : "track",
      "uri" : "spotify:track:21RaU9DOmR4ZIJTpBJ48Pc"
    } ],
    "limit" : 10,
    "next" : "https://api.spotify.com/v1/search?query=Face+to+Face&type=track&market=US&offset=15&limit=10",
    "offset" : 5,
    "previous" : "https://api.spotify.com/v1/search?query=Face+to+Face&type=track&market=US&offset=0&limit=10",
    "total" : 39215
  }
}