{
  "tracks" : {
    "href" : "https://api.spotify.com/v1/search?query=Go%2C+Preach+My+Gospel&type=track&market=US&offset=5&limit=10",
    "items" : [ {
      "album" : {
        "album_type" : "album",
        "artists" : [ {
          "external_urls" : {
            "spotify" : "https://open.spotify.com/artist/1v2O4H1NUyUyQyMTLnghHn"
          },
          "href" : "https://api.spotify.com/v1/artists/1v2O4H1NUyUyQyMTLnghHn",
          "id" : "1v2O4H1NUyUyQyMTLnghHn",
          "name" : "Back Settlement Band",
          "type" : "artist",
          "uri" : "spotify:artist:1v2O4H1NUyUyQyMTLnghHn"
        } ],
        "external_urls" : {
          "spotify" : "https://open.spotify.com/album/5cJkzS3vLudgZdlUHWnpcR"
        },
        "href" : "https://api.spotify.com/v1/albums/5cJkzS3vLudgZdlUHWnpcR",
        "id" : "5cJkzS3vLudgZdlUHWnpcR",
        "images" : [ {
          "height" : 640,
          "url" : "https://i.scdn.co/image/ab67616d0000b273dfb5947d3e9bfbd30f8a2167",
          "width" : 640
        }, {
          "height" : 300,
          "url" : "https://i.scdn.co/image/ab67616d00001e02dfb5947d3e9bfbd30f8a2167",
          "width" : 300
        }, {
          "height" : 64,
          "url" : "https://i.scdn.co/image/ab67616d00004851dfb5947d3e9bfbd30f8a2167",
          "width" : 64
        } ],
        "name" : "Ojibwe Revival",
        "release_date" : "2003-01-01",
        "release_date_precision" : "day",
        "total_tracks" : 14,
        "type" : "album",
        "uri" : "spotify:album:5cJkzS3vLudgZdlUHWnpcR"
      },
      "artists" : [ {
        "external_urls" : {
          "spotify" : "https://open.spotify.com/artist/1v2O4H1NUyUyQyMTLnghHn"
        },
        "href" : "https://api.spotify.com/v1/artists/1v2O4H1NUyUyQyMTLnghHn",
        "id" : "1v2O4H1NUyUyQyMTLnghHn",
        "name" : "Back Settlement Band",
        "type" : "artist",
        "uri" : "spotify:artist:1v2O4H1NUyUyQyMTLnghHn"
      } ],
      "disc_number" : 1,
      "duration_ms" : 212480,
      "explicit" : false,
      "external_ids" : {
        "isrc" : "ushm90639826"
      },
      "external_urls" : {
        "spotify" : "https://open.spotify.com/track/5hc5BWqUhfFx7jGYGCvLbS"
      },
      "href" : "https://api.spotify.com/v1/tracks/5hc5BWqUhfFx7jGYGCvLbS",
      "id" : "5hc5BWqUhfFx7jGYGCvLbS",
      "is_local" : false,
      "is_playable" : true,
      "name" : "Go, Preach My Gospel",
      "popularity" : 0,
      "preview_url" : "https://p.scdn.co/mp3-preview/f97146116105efdfefadaf94794fc6782867ccbc?cid=774b29d4f13844c495f206cafdad9c86",
      "track_number" : 6,
      "type" : "track",
      "uri" : "spotify:track:5hc5BWqUhfFx7jGYGCvLbS"
    }, {
      "album" : {
        "album_type" : "album",
        "artists" : [ {
          "external_urls" : {
            "spotify" : "https://open.spotify.com/artist/2GY4RFo6kGTLQP4UY5OLN3"
          },
          "href" : "https://api.spotify.com/v1/artists/2GY4RFo6kGTLQP4UY5OLN3",
          "id" : "2GY4RFo6kGTLQP4UY5OLN3",
          "name" : "Marion Williams",
          "type" : "artist",
          "uri" : "spotify:artist:2GY4RFo6kGTLQP4UY5OLN3"
        } ],
        "external_urls" : {
          "spotify" : "https://open.spotify.com/album/1UxIGx1ZYqNg028EktLDBe"
        },
        "href" : "https://api.spotify.com/v1/albums/1UxIGx1ZYqNg028EktLDBe",
        "id" : "1UxIGx1ZYqNg028EktLDBe",
        "images" : [ {
          "height" : 640,
          "url" : "https://i.scdn.co/image/ab67616d0000b273ad15d14b72a7906eca1dcb44",
          "width" : 640
        }, {
          "height" : 300,
          "url" : "https://i.scdn.co/image/ab67616d00001e02ad15d14b72a7906eca1dcb44",
          "width" : 300
        }, {
          "height" : 64,
          "url" : "https://i.scdn.co/image/ab67616d00004851ad15d14b72a7906eca1dcb44",
          "width" : 64
        } ],
        "name" : "The Gospel Soul of Marion Williams",
        "release_date" : "2005-06-20",
        "release_date_precision" : "day",
        "total_tracks" : 24,
        "type" : "album",
        "uri" : "spotify:album:1UxIGx1ZYqNg028EktLDBe"
      },
      "artists" : [ {
        "external_urls" : {
          "spotify" : "https://open.spotify.com/artist/2GY4RFo6kGTLQP4UY5OLN3"
        },
        "href" : "https://api.spotify.com/v1/artists/2GY4RFo6kGTLQP4UY5OLN3",
        "id" : "2GY4RFo6kGTLQP4UY5OLN3",
        "name" : "Marion Williams",
        "type" : "artist",
        "uri" : "spotify:artist:2GY4RFo6kGTLQP4UY5OLN3"
      } ],
      "disc_number" : 1,
      "duration_ms" : 111933,
      "explicit" : false,
      "external_ids" : {
        "isrc" : "USA560546768"
      },
      "external_urls" : {
        "spotify" : "https://open.spotify.com/track/14if3veELddzbNPIaZnDuS"
      },
      "href" : "https://api.spotify.com/v1/tracks/14if3veELddzbNPIaZnDuS",
      "id" : "14if3veELddzbNPIaZnDuS",
      "is_local" : false,
      "is_playable" : true,
      "name" : "Go Preach My Gospel",
      "popularity" : 0,
      "preview_url" : "https://p.scdn.co/mp3-preview/c768c9e9451aa9c9d9294828ed16f59fe884424d?cid=774b29d4f13844c495f206cafdad9c86",
      "track_number" : 22,
      "type" : "track",
      "uri" : "spotify:track:14if3veELddzbNPIaZnDuS"
    }, {
      "album" : {
        "album_type" : "album",
        "artists" : [ {
          "external_urls" : {
            "spotify" : "https://open.spotify.com/artist/3Xj7mDtHU4Ms9z9bBTbnK7"
          },
          "href" : "https://api.spotify.com/v1/artists/3Xj7mDtHU4Ms9z9bBTbnK7",
          "id" : "3Xj7mDtHU4Ms9z9bBTbnK7",
          "name" : "Chicago a Cappella",
          "type" : "artist",
          "uri" : "spotify:artist:3Xj7mDtHU4Ms9z9bBTbnK7"
        } ],
        "external_urls" : {
          "spotify" : "https://open.spotify.com/album/6nPuICzKRNIWd6kxrAy5df"
        },
        "href" : "https://api.spotify.com/v1/albums/6nPuICzKRNIWd6kxrAy5df",
        "id" : "6nPuICzKRNIWd6kxrAy5df",
        "images" : [ {
          "height" : 640,
          "url" : "https://i.scdn.co/image/ab67616d0000b2730b0e67dccf5eaa95dcd1dc27",
          "width" : 640
        }, {
          "height" : 300,
          "url" : "https://i.scdn.co/image/ab67616d00001e020b0e67dccf5eaa95dcd1dc27",
          "width" : 300
        }, {
          "height" : 64,
          "url" : "https://i.scdn.co/image/ab67616d000048510b0e67dccf5eaa95dcd1dc27",
          "width" : 64
        } ],
        "name" : "Go Down, Moses",
        "release_date" : "2001-03-20",
        "release_date_precision" : "day",
        "total_tracks" : 16,
        "type" : "album",
        "uri" : "spotify:album:6nPuICzKRNIWd6kxrAy5df"
      },
      "artists" : [ {
        "external_urls" : {
          "spotify" : "https://open.spotify.com/artist/3Xj7mDtHU4Ms9z9bBTbnK7"
        },
        "href" : "https://api.spotify.com/v1/artists/3Xj7mDtHU4Ms9z9bBTbnK7",
        "id" : "3Xj7mDtHU4Ms9z9bBTbnK7",
        "name" : "Chicago a Cappella",
        "type" : "artist",
        "uri" : "spotify:artist:3Xj7mDtHU4Ms9z9bBTbnK7"
      } ],
      "disc_number" : 1,
      "duration_ms" : 392333,
      "explicit" : false,
      "external_ids" : {
        "isrc" : "USA370382664"
      },
      "external_urls" : {
        "spotify" : "https://open.spotify.com/track/2IiZGu3stk8Za5fFJK5Bkx"
      },
      "href" : "https://api.spotify.com/v1/tracks/2IiZGu3stk8Za5fFJK5Bkx",
      "id" : "2IiZGu3stk8Za5fFJK5Bkx",
      "is_local" : false,
      "is_playable" : true,
      "name" : "Go, preach my gospel",
      "popularity" : 0,
      "preview_url" : "https://p.scdn.co/mp3-preview/10d4bf06bb755bf02a59e47d1635a9d2af79210a?cid=774b29d4f13844c495f206cafdad9c86",
      "track_number" : 8,
      "type" : "track",
      "uri" : "spotify:track:2IiZGu3stk8Za5fFJK5Bkx"
    }, {
      "album" : {
        "album_type" : "album",
        "artists" : [ {
          "external_urls" : {
            "spotify" : "https://open.spotify.com/artist/2GY4RFo6kGTLQP4UY5OLN3"
          },
          "href" : "https://api.spotify.com/v1/artists/2GY4RFo6kGTLQP4UY5OLN3",
          "id" : "2GY4RFo6kGTLQP4UY5OLN3",
          "name" : "Marion Williams",
          "type" : "artist",
          "uri" : "spotify:artist:2GY4RFo6kGTLQP4UY5OLN3"
        } ],
        "external_urls" : {
          "spotify" : "https://open.spotify.com/album/1Rcw1DHZ0jrnBYzYtYbSyh"
        },
        "href" : "https://api.spotify.com/v1/albums/1Rcw1DHZ0jrnBYzYtYbSyh",
        "id" : "1Rcw1DHZ0jrnBYzYtYbSyh",
        "images" : [ {
          "height" : 640,
          "url" : "https://i.scdn.co/image/ab67616d0000b2733774770ab05f033604005180",
          "width" : 640
        }, {
          "height" : 300,
          "url" : "https://i.scdn.co/image/ab67616d00001e023774770ab05f033604005180",
          "width" : 300
        }, {
          "height" : 64,
          "url" : "https://i.scdn.co/image/ab67616d000048513774770ab05f033604005180",
          "width" : 64
        } ],
        "name" : "The Gospel Soul of Marion Williams",
        "release_date" : "2005-06-20",
        "release_date_precision" : "day",
        "total_tracks" : 24,
        "type" : "album",
        "uri" : "spotify:album:1Rcw1DHZ0jrnBYzYtYbSyh"
      },
      "artists" : [ {
        "external_urls" : {
          "spotify" : "https://open.spotify.com/artist/2GY4RFo6kGTLQP4UY5OLN3"
        },
        "href" : "https://api.spotify.com/v1/artists/2GY4RFo6kGTLQP4UY5OLN3",
        "id" : "2GY4RFo6kGTLQP4UY5OLN3",
        "name" : "Marion Williams",
        "type" : "artist",
        "uri" : "spotify:artist:2GY4RFo6kGTLQP4UY5OLN3"
      } ],
      "disc_number" : 1,
      "duration_ms" : 111933,
      "explicit" : false,
      "external_ids" : {
        "isrc" : "USA560546768"
      },
      "external_urls" : {
        "spotify" : "https://open.spotify.com/track/1Atn7HUWSn7MyIs5pctZSP"
      },
      "href" : "https://api.spotify.com/v1/tracks/1Atn7HUWSn7MyIs5pctZSP",
      "id" : "1Atn7HUWSn7MyIs5pctZSP",
      "is_local" : false,
      "is_playable" : true,
      "name" : "Go Preach My Gospel",
      "popularity" : 0,
      "preview_url" : "https://p.scdn.co/mp3-preview/734c2309167ae5d072f91b2ccb33eb9712897a90?cid=774b29d4f13844c495f206cafdad9c86",
      "track_number" : 22,
      "type" : "track",
      "uri" : "spotify:track:1Atn7HUWSn7MyIs5pctZSP"
    }, {
      "album" : {
        "album_type" : "album",
        "artists" : [ {
          "external_urls" : {
            "spotify" : "https://open.spotify.com/artist/5rJmWmtMV4tnNlu4hvSA62"
          },
          "href" : "https://api.spotify.com/v1/artists/5rJmWmtMV4tnNlu4hvSA62",
          "id" : "5rJmWmtMV4tnNlu4hvSA62",
          "name" : "Freddie Lee Boatman",
          "type" : "artist",
          "uri" : "spotify:artist:5rJmWmtMV4tnNlu4hvSA62"
        } ],
        "external_urls" : {
          "spotify" : "https://open.spotify.com/album/2WfHrQqytqJ8pcf2tenUwy"
        },
        "href" : "https://api.spotify.com/v1/albums/2WfHrQqytqJ8pcf2tenUwy",
        "id" : "2WfHrQqytqJ8pcf2tenUwy",
        "images" : [ {
          "height" : 640,
          "url" : "https://i.scdn.co/image/ab67616d0000b273cf7991d21e17997751724678",
          "width" : 640
        }, {
          "height" : 300,
          "url" : "https://i.scdn.co/image/ab67616d00001e02cf7991d21e17997751724678",
          "width" : 300
        }, {
          "height" : 64,
          "url" : "https://i.scdn.co/image/ab67616d00004851cf7991d21e17997751724678",
          "width" : 64
        } ],
        "name" : "Kickin' Back",
        "release_date" : "2009-05-28",
        "release_date_precision" : "day",
        "total_tracks" : 12,
        "type" : "album",
        "uri" : "spotify:album:2WfHrQqytqJ8pcf2tenUwy"
      },
      "artists" : [ {
        "external_urls" : {
          "spotify" : "https://open.spotify.com/artist/5rJmWmtMV4tnNlu4hvSA62"
        },
        "href" : "https://api.spotify.com/v1/artists/5rJmWmtMV4tnNlu4hvSA62",
        "id" : "5rJmWmtMV4tnNlu4hvSA62",
        "name" : "Freddie Lee Boatman",
        "type" : "artist",
        "uri" : "spotify:artist:5rJmWmtMV4tnNlu4hvSA62"
      } ],
      "disc_number" : 1,
      "duration_ms" : 198733,
      "explicit" : false,
      "external_ids" : {
        "isrc" : "ushm20924629"
      },
      "external_urls" : {
        "spotify" : "https://open.spotify.com/track/63TVTFTZLr8bnnB1IMOlNO"
      },
      "href" : "https://api.spotify.com/v1/tracks/63TVTFTZLr8bnnB1IMOlNO",
      "id" : "63TVTFTZLr8bnnB1IMOlNO",
      "is_local" : false,
      "is_playable" : true,
      "name" : "Go Preach My Gospel Instrumental",
      "popularity" : 0,
      "preview_url" : "https://p.scdn.co/mp3-preview/f1c102790b2e8f47c687143b0f43a8f655959aa5?cid=774b29d4f13844c495f206cafdad9c86",
      "track_number" : 6,
      "type" : "track",
      "uri" : "spotify:track:63TVTFTZLr8bnnB1IMOlNO"
    }, {
      "album" : {
        "album_type" : "album",
        "artists" : [ {
          "external_urls" : {
            "spotify" : "https://open.spotify.com/artist/3OcgJN5mGlGgiRYu6Al3eR"
          },
          "href" : "https://api.spotify.com/v1/artists/3OcgJN5mGlGgiRYu6Al3eR",
          "id" : "3OcgJN5mGlGgiRYu6Al3eR",
          "name" : "Agency",
          "type" : "artist",
          "uri" : "spotify:artist:3OcgJN5mGlGgiRYu6Al3eR"
        } ],
        "external_urls" : {
          "spotify" : "https://open.spotify.com/album/0It7BvSmukFfOrgznseoo0"
        },
        "href" : "https://api.spotify.com/v1/albums/0It7BvSmukFfOrgznseoo0",
        "id" : "0It7BvSmukFfOrgznseoo0",
        "images" : [ {
          "height" : 640,
          "url" : "https://i.scdn.co/image/ab67616d0000b27338e1b46821debb86387661e6",
          "width" : 640
        }, {
          "height" : 300,
          "url" : "https://i.scdn.co/image/ab67616d00001e0238e1b46821debb86387661e6",
          "width" : 300
        }, {
          "height" : 64,
          "url" : "https://i.scdn.co/image/ab67616d0000485138e1b46821debb86387661e6",
          "width" : 64
        } ],
        "name" : "Bleed Like You",
        "release_date" : "2019-05-24",
        "release_date_precision" : "day",
        "total_tracks" : 20,
        "type" : "album",
        "uri" : "spotify:album:0It7BvSmukFfOrgznseoo0"
      },
      "artists" : [ {
        "external_urls" : {
          "spotify" : "https://open.spotify.com/artist/3OcgJN5mGlGgiRYu6Al3eR"
        },
        "href" : "https://api.spotify.com/v1/artists/3OcgJN5mGlGgiRYu6Al3eR",
        "id" : "3OcgJN5mGlGgiRYu6Al3eR",
        "name" : "Agency",
        "type" : "artist",
        "uri" : "spotify:artist:3OcgJN5mGlGgiRYu6Al3eR"
      } ],
      "disc_number" : 1,
      "duration_ms" : 34149,
      "explicit" : false,
      "external_ids" : {
        "isrc" : "GBKQU1921181"
      },
      "external_urls" : {
        "spotify" : "https://open.spotify.com/track/7tvvF1Cmszqm8VdszR8oEi"
      },
      "href" : "https://api.spotify.com/v1/tracks/7tvvF1Cmszqm8VdszR8oEi",
      "id" : "7tvvF1Cmszqm8VdszR8oEi",
      "is_local" : false,
      "is_playable" : true,
      "name" : "Go Preach My Gospel (Interlude)",
      "popularity" : 0,
      "preview_url" : "https://p.scdn.co/mp3-preview/f67f4f43a85f6fd72394ea1b64ab9faf05e54221?cid=774b29d4f13844c495f206cafdad9c86",
      "track_number" : 15,
      "type" : "track",
      "uri" : "spotify:track:7tvvF1Cmszqm8VdszR8oEi"
    }, {
      "album" : {
        "album_type" : "album",
        "artists" : [ {
          "external_urls" : {
            "spotify" : "https://open.spotify.com/artist/5MzghpjtuAt35yKJZ6oPdW"
          },
          "href" : "https://api.spotify.com/v1/artists/5MzghpjtuAt35yKJZ6oPdW",
          "id" : "5MzghpjtuAt35yKJZ6oPdW",
          "name" : "République du Salém",
          "type" : "artist",
          "uri" : "spotify:artist:5MzghpjtuAt35yKJZ6oPdW"
        } ],
        "external_urls" : {
          "spotify" : "https://open.spotify.com/album/6MjH0rbuQwp0bkGLFaI3dc"
        },
        "href" : "https://api.spotify.com/v1/albums/6MjH0rbuQwp0bkGLFaI3dc",
        "id" : "6MjH0rbuQwp0bkGLFaI3dc",
        "images" : [ {
          "height" : 640,
          "url" : "https://i.scdn.co/image/ab67616d0000b273953074b89e6c40feae392fad",
          "width" : 640
        }, {
          "height" : 300,
          "url" : "https://i.scdn.co/image/ab67616d00001e02953074b89e6c40feae392fad",
          "width" : 300
        }, {
          "height" : 64,
          "url" : "https://i.scdn.co/image/ab67616d00004851953074b89e6c40feae392fad",
          "width" : 64
        } ],
        "name" : "Republique Du Salem",
        "release_date" : "2015-07-16",
        "release_date_precision" : "day",
        "total_tracks" : 11,
        "type" : "album",
        "uri" : "spotify:album:6MjH0rbuQwp0bkGLFaI3dc"
      },
      "artists" : [ {
        "external_urls" : {
          "spotify" : "https://open.spotify.com/artist/5MzghpjtuAt35yKJZ6oPdW"
        },
        "href" : "https://api.spotify.com/v1/artists/5MzghpjtuAt35yKJZ6oPdW",
        "id" : "5MzghpjtuAt35yKJZ6oPdW",
        "name" : "République du Salém",
        "type" : "artist",
        "uri" : "spotify:artist:5MzghpjtuAt35yKJZ6oPdW"
      } ],
      "disc_number" : 1,
      "duration_ms" : 239120,
      "explicit" : false,
      "external_ids" : {
        "isrc" : "BR9GN1500075"
      },
      "external_urls" : {
        "spotify" : "https://open.spotify.com/track/51Ddd1afv3iwVdRudmxRzz"
      },
      "href" : "https://api.spotify.com/v1/tracks/51Ddd1afv3iwVdRudmxRzz",
      "id" : "51Ddd1afv3iwVdRudmxRzz",
      "is_local" : false,
      "is_playable" : true,
      "name" : "Go Ye and Preach My Gospel",
      "popularity" : 1,
      "preview_url" : "https://p.scdn.co/mp3-preview/ba9bcc5700318a726574ab2670a0d28001d70857?cid=774b29d4f13844c495f206cafdad9c86",
      "track_number" : 11,
      "type" : "track",
      "uri" : "spotify:track:51Ddd1afv3iwVdRudmxRzz"
    }, {
      "album" : {
        "album_type" : "album",
        "artists" : [ {
          "external_urls" : {
            "spotify" : "https://open.spotify.com/artist/5cgQkmCYwdCn7fSKk56eHt"
          },
          "href" : "https://api.spotify.com/v1/artists/5cgQkmCYwdCn7fSKk56eHt",
          "id" : "5cgQkmCYwdCn7fSKk56eHt",
          "name" : "Rev. H.R. Tomlin & Rev. S.J. Worell",
          "type" : "artist",
          "uri" : "spotify:artist:5cgQkmCYwdCn7fSKk56eHt"
        } ],
        "external_urls" : {
          "spotify" : "https://open.spotify.com/album/0pVAAJQRXvNR0BqoX8Bh7y"
        },
        "href" : "https://api.spotify.com/v1/albums/0pVAAJQRXvNR0BqoX8Bh7y",
        "id" : "0pVAAJQRXvNR0BqoX8Bh7y",
        "images" : [ {
          "height" : 640,
          "url" : "https://i.scdn.co/image/ab67616d0000b27360d58d5e3fe5512bbedf4b3d",
          "width" : 640
        }, {
          "height" : 300,
          "url" : "https://i.scdn.co/image/ab67616d00001e0260d58d5e3fe5512bbedf4b3d",
          "width" : 300
        }, {
          "height" : 64,
          "url" : "https://i.scdn.co/image/ab67616d0000485160d58d5e3fe5512bbedf4b3d",
          "width" : 64
        } ],
        "name" : "Rev. H.R. Tomlin & Rev. S.J. Worell (1926-1927)",
        "release_date" : "1995",
        "release_date_precision" : "year",
        "total_tracks" : 22,
        "type" : "album",
        "uri" : "spotify:album:0pVAAJQRXvNR0BqoX8Bh7y"
      },
      "artists" : [ {
        "external_urls" : {
          "spotify" : "https://open.spotify.com/artist/15EieX8Yl3dPXQNu3ZAF3O"
        },
        "href" : "https://api.spotify.com/v1/artists/15EieX8Yl3dPXQNu3ZAF3O",
        "id" : "15EieX8Yl3dPXQNu3ZAF3O",
        "name" : "Rev. S.J. Worell - Steamboat Bill",
        "type" : "artist",
        "uri" : "spotify:artist:15EieX8Yl3dPXQNu3ZAF3O"
      } ],
      "disc_number" : 1,
      "duration_ms" : 181551,
      "explicit" : false,
      "external_ids" : {
        "isrc" : "USA560569328"
      },
      "external_urls" : {
        "spotify" : "https://open.spotify.com/track/1FM5f6PjLu6Q4o7z99Uh9o"
      },
      "href" : "https://api.spotify.com/v1/tracks/1FM5f6PjLu6Q4o7z99Uh9o",
      "id" : "1FM5f6PjLu6Q4o7z99Uh9o",
      "is_local" : false,
      "is_playable" : true,
      "name" : "Go Thou And Preach My Gospel",
      "popularity" : 0,
      "preview_url" : "https://p.scdn.co/mp3-preview/a75d5251d6fbd3729c202d61dc549ba9c27ea916?cid=774b29d4f13844c495f206cafdad9c86",
      "track_number" : 13,
      "type" : "track",
      "uri" : "spotify:track:1FM5f6PjLu6Q4o7z99Uh9o"
    }, {
      "album" : {
        "album_type" : "album",
        "artists" : [ {
          "external_urls" : {
            "spotify" : "https://open.spotify.com/artist/1aJP09xws2wQWFGYimGF0Z"
          },
          "href" : "https://api.spotify.com/v1/artists/1aJP09xws2wQWFGYimGF0Z",
          "id" : "1aJP09xws2wQWFGYimGF0Z",
          "name" : "Timothy Flemming Sr",
          "type" : "artist",
          "uri" : "spotify:artist:1aJP09xws2wQWFGYimGF0Z"
        } ],
        "external_urls" : {
          "spotify" : "https://open.spotify.com/album/7akhuc3Rw76GRqGrgtH43H"
        },
        "href" : "https://api.spotify.com/v1/albums/7akhuc3Rw76GRqGrgtH43H",
        "id" : "7akhuc3Rw76GRqGrgtH43H",
        "images" : [ {
          "height" : 640,
          "url" : "https://i.scdn.co/image/ab67616d0000b27397722b86f1e230283cd895c8",
          "width" : 640
        }, {
          "height" : 300,
          "url" : "https://i.scdn.co/image/ab67616d00001e0297722b86f1e230283cd895c8",
          "width" : 300
        }, {
          "height" : 64,
          "url" : "https://i.scdn.co/image/ab67616d0000485197722b86f1e230283cd895c8",
          "width" : 64
        } ],
        "name" : "Just Old Meter Hymns",
        "release_date" : "2012-01-01",
        "release_date_precision" : "day",
        "total_tracks" : 14,
        "type" : "album",
        "uri" : "spotify:album:7akhuc3Rw76GRqGrgtH43H"
      },
      "artists" : [ {
        "external_urls" : {
          "spotify" : "https://open.spotify.com/artist/1aJP09xws2wQWFGYimGF0Z"
        },
        "href" : "https://api.spotify.com/v1/artists/1aJP09xws2wQWFGYimGF0Z",
        "id" : "1aJP09xws2wQWFGYimGF0Z",
        "name" : "Timothy Flemming Sr",
        "type" : "artist",
        "uri" : "spotify:artist:1aJP09xws2wQWFGYimGF0Z"
      } ],
      "disc_number" : 1,
      "duration_ms" : 307786,
      "explicit" : false,
      "external_ids" : {
        "isrc" : "uscgh1237640"
      },
      "external_urls" : {
        "spotify" : "https://open.spotify.com/track/2AAosgCy42xqT9pogSOPpA"
      },
      "href" : "https://api.spotify.com/v1/tracks/2AAosgCy42xqT9pogSOPpA",
      "id" : "2AAosgCy42xqT9pogSOPpA",
      "is_local" : false,
      "is_playable" : true,
      "name" : "Go Preach My Gospel Said yhe Lord",
      "popularity" : 0,
      "preview_url" : "https://p.scdn.co/mp3-preview/c8322f0840ae1b293311c28d3b881a2e081a3f0d?cid=774b29d4f13844c495f206cafdad9c86",
      "track_number" : 7,
      "type" : "track",
      "uri" : "spotify:track:2AAosgCy42xqT9pogSOPpA"
    }, {
      "album" : {
        "album_type" : "album",
        "artists" : [ {
          "external_urls" : {
            "spotify" : "https://open.spotify.com/artist/3cbDxLJxgNZuAmcSaJXDog"
          },
          "href" : "https://api.spotify.com/v1/artists/3cbDxLJxgNZuAmcSaJXDog",
          "id" : "3cbDxLJxgNZuAmcSaJXDog",
          "name" : "Dirty Pat Walsh",
          "type" : "artist",
          "uri" : "spotify:artist:3cbDxLJxgNZuAmcSaJXDog"
        } ],
        "external_urls" : {
          "spotify" : "https://open.spotify.com/album/0m7oyJLNUj1mPBprWmCdCj"
        },
        "href" : "https://api.spotify.com/v1/albums/0m7oyJLNUj1mPBprWmCdCj",
        "id" : "0m7oyJLNUj1mPBprWmCdCj",
        "images" : [ {
          "height" : 640,
          "url" : "https://i.scdn.co/image/ab67616d0000b2739af8f3e8867c753d2a176f07",
          "width" : 640
        }, {
          "height" : 300,
          "url" : "https://i.scdn.co/image/ab67616d00001e029af8f3e8867c753d2a176f07",
          "width" : 300
        }, {
          "height" : 64,
          "url" : "https://i.scdn.co/image/ab67616d000048519af8f3e8867c753d2a176f07",
          "width" : 64
        } ],
        "name" : "Corey, Darling Corey",
        "release_date" : "2019-01-15",
        "release_date_precision" : "day",
        "total_tracks" : 10,
        "type" : "album",
        "uri" : "spotify:album:0m7oyJLNUj1mPBprWmCdCj"
      },
      "artists" : [ {
        "external_urls" : {
          "spotify" : "https://open.spotify.com/artist/3cbDxLJxgNZuAmcSaJXDog"
        },
        "href" : "https://api.spotify.com/v1/artists/3cbDxLJxgNZuAmcSaJXDog",
        "id" : "3cbDxLJxgNZuAmcSaJXDog",
        "name" : "Dirty Pat Walsh",
        "type" : "artist",
        "uri" : "spotify:artist:3cbDxLJxgNZuAmcSaJXDog"
      } ],
      "disc_number" : 1,
      "duration_ms" : 116604,
      "explicit" : false,
      "external_ids" : {
        "isrc" : "USA2P1908174"
      },
      "external_urls" : {
        "spotify" : "https://open.spotify.com/track/2CK2HJ9ZaYS5rNTHlKpmMG"
      },
      "href" : "https://api.spotify.com/v1/tracks/2CK2HJ9ZaYS5rNTHlKpmMG",
      "id" : "2CK2HJ9ZaYS5rNTHlKpmMG",
      "is_local" : false,
      "is_playable" : true,
      "name" : "Go Ye Forth and Preach My Gospel",
      "popularity" : 0,
      "preview_url" : "https://p.scdn.co/mp3-preview/5d1977c184d7294ccb03366301cccbda594e7ac2?cid=774b29d4f13844c495f206cafdad9c86",
      "track_number" : 1,
      "type" : "track",
      "uri" : "spotify:track:2CK2HJ9ZaYS5rNTHlKpmMG"
    } ],
    "limit" : 10,
    "next" : "https://api.spotify.com/v1/search?query=Go%2C+Preach+My+Gospel&type=track&market=US&offset=15&limit=10",
    "offset" : 5,
    "previous" : "https://api.spotify.com/v1/search?query=Go%2C+Preach+My+Gospel&type=track&market=US&offset=0&limit=10",
    "total" : 28
  }
}