{
  "tracks" : {
    "href" : "https://api.spotify.com/v1/search?query=Pass+Me+Not%2C+O+Gentle+Savior&type=track&market=US&offset=5&limit=10",
    "items" : [ {
      "album" : {
        "album_type" : "album",
        "artists" : [ {
          "external_urls" : {
            "spotify" : "https://open.spotify.com/artist/0pjLiK5qb4Zr0PWRNkdd2o"
          },
          "href" : "https://api.spotify.com/v1/artists/0pjLiK5qb4Zr0PWRNkdd2o",
          "id" : "0pjLiK5qb4Zr0PWRNkdd2o",
          "name" : "Gaither Vocal Band",
          "type" : "artist",
          "uri" : "spotify:artist:0pjLiK5qb4Zr0PWRNkdd2o"
        } ],
        "external_urls" : {
          "spotify" : "https://open.spotify.com/album/1RYBZgwSVD3211dmEI1PhD"
        },
        "href" : "https://api.spotify.com/v1/albums/1RYBZgwSVD3211dmEI1PhD",
        "id" : "1RYBZgwSVD3211dmEI1PhD",
        "images" : [ {
          "height" : 640,
          "url" : "https://i.scdn.co/image/ab67616d0000b2739189c6110414c2f857989873",
          "width" : 640
        }, {
          "height" : 300,
          "url" : "https://i.scdn.co/image/ab67616d00001e029189c6110414c2f857989873",
          "width" : 300
        }, {
          "height" : 64,
          "url" : "https://i.scdn.co/image/ab67616d000048519189c6110414c2f857989873",
          "width" : 64
        } ],
        "name" : "Hymns",
        "release_date" : "2014-01-01",
        "release_date_precision" : "day",
        "total_tracks" : 12,
        "type" : "album",
        "uri" : "spotify:album:1RYBZgwSVD3211dmEI1PhD"
      },
      "artists" : [ {
        "external_urls" : {
          "spotify" : "https://open.spotify.com/artist/0pjLiK5qb4Zr0PWRNkdd2o"
        },
        "href" : "https://api.spotify.com/v1/artists/0pjLiK5qb4Zr0PWRNkdd2o",
        "id" : "0pjLiK5qb4Zr0PWRNkdd2o",
        "name" : "Gaither Vocal Band",
        "type" : "artist",
        "uri" : "spotify:artist:0pjLiK5qb4Zr0PWRNkdd2o"
      } ],
      "disc_number" : 1,
      "duration_ms" : 324653,
      "explicit" : false,
      "external_ids" : {
        "isrc" : "US3271400011"
      },
      "external_urls" : {
        "spotify" : "https://open.spotify.com/track/24yyR0I8iQG3a1f0NkEa8W"
      },
      "href" : "https://api.spotify.com/v1/tracks/24yyR0I8iQG3a1f0NkEa8W",
      "id" : "24yyR0I8iQG3a1f0NkEa8W",
      "is_local" : false,
      "is_playable" : true,
      "name" : "Pass Me Not, O Gentle Savior",
      "popularity" : 22,
      "preview_url" : null,
      "track_number" : 11,
      "type" : "track",
      "uri" : "spotify:track:24yyR0I8iQG3a1f0NkEa8W"
    }, {
      "album" : {
        "album_type" : "album",
        "artists" : [ {
          "external_urls" : {
            "spotify" : "https://open.spotify.com/artist/11sAWrpIkFUPQlXoQqpeBV"
          },
          "href" : "https://api.spotify.com/v1/artists/11sAWrpIkFUPQlXoQqpeBV",
          "id" : "11sAWrpIkFUPQlXoQqpeBV",
          "name" : "Bill & Gloria Gaither",
          "type" : "artist",
          "uri" : "spotify:artist:11sAWrpIkFUPQlXoQqpeBV"
        } ],
        "external_urls" : {
          "spotify" : "https://open.spotify.com/album/3jLYVGQDp4je2ayWff9BZ9"
        },
        "href" : "https://api.spotify.com/v1/albums/3jLYVGQDp4je2ayWff9BZ9",
        "id" : "3jLYVGQDp4je2ayWff9BZ9",
        "images" : [ {
          "height" : 640,
          "url" : "https://i.scdn.co/image/ab67616d0000b273cdbf3f4a7173adef4e56bae3",
          "width" : 640
        }, {
          "height" : 300,
          "url" : "https://i.scdn.co/image/ab67616d00001e02cdbf3f4a7173adef4e56bae3",
          "width" : 300
        }, {
          "height" : 64,
          "url" : "https://i.scdn.co/image/ab67616d00004851cdbf3f4a7173adef4e56bae3",
          "width" : 64
        } ],
        "name" : "Amazing Grace",
        "release_date" : "2007-01-01",
        "release_date_precision" : "day",
        "total_tracks" : 17,
        "type" : "album",
        "uri" : "spotify:album:3jLYVGQDp4je2ayWff9BZ9"
      },
      "artists" : [ {
        "external_urls" : {
          "spotify" : "https://open.spotify.com/artist/11sAWrpIkFUPQlXoQqpeBV"
        },
        "href" : "https://api.spotify.com/v1/artists/11sAWrpIkFUPQlXoQqpeBV",
        "id" : "11sAWrpIkFUPQlXoQqpeBV",
        "name" : "Bill & Gloria Gaither",
        "type" : "artist",
        "uri" : "spotify:artist:11sAWrpIkFUPQlXoQqpeBV"
      } ],
      "disc_number" : 1,
      "duration_ms" : 268146,
      "explicit" : false,
      "external_ids" : {
        "isrc" : "US3270402673"
      },
      "external_urls" : {
        "spotify" : "https://open.spotify.com/track/1qSd4vIv5PxCxvHC8sXAI0"
      },
      "href" : "https://api.spotify.com/v1/tracks/1qSd4vIv5PxCxvHC8sXAI0",
      "id" : "1qSd4vIv5PxCxvHC8sXAI0",
      "is_local" : false,
      "is_playable" : true,
      "name" : "Pass Me Not. O Gentle Savior - Amazing Grace Album Version",
      "popularity" : 22,
      "preview_url" : null,
      "track_number" : 4,
      "type" : "track",
      "uri" : "spotify:track:1qSd4vIv5PxCxvHC8sXAI0"
    }, {
      "album" : {
        "album_type" : "album",
        "artists" : [ {
          "external_urls" : {
            "spotify" : "https://open.spotify.com/artist/2STVYmc2T02GlvvWZl7umj"
          },
          "href" : "https://api.spotify.com/v1/artists/2STVYmc2T02GlvvWZl7umj",
          "id" : "2STVYmc2T02GlvvWZl7umj",
          "name" : "Victor Wooten",
          "type" : "artist",
          "uri" : "spotify:artist:2STVYmc2T02GlvvWZl7umj"
        } ],
        "external_urls" : {
          "spotify" : "https://open.spotify.com/album/3DjaxhqtTv9u06V7HBNPyV"
        },
        "href" : "https://api.spotify.com/v1/albums/3DjaxhqtTv9u06V7HBNPyV",
        "id" : "3DjaxhqtTv9u06V7HBNPyV",
        "images" : [ {
          "height" : 640,
          "url" : "https://i.scdn.co/image/ab67616d0000b273ed32844dd127280f69f5cc41",
          "width" : 640
        }, {
          "height" : 300,
          "url" : "https://i.scdn.co/image/ab67616d00001e02ed32844dd127280f69f5cc41",
          "width" : 300
        }, {
          "height" : 64,
          "url" : "https://i.scdn.co/image/ab67616d00004851ed32844dd127280f69f5cc41",
          "width" : 64
        } ],
        "name" : "Sword and Stone",
        "release_date" : "2016-03-06",
        "release_date_precision" : "day",
        "total_tracks" : 14,
        "type" : "album",
        "uri" : "spotify:album:3DjaxhqtTv9u06V7HBNPyV"
      },
      "artists" : [ {
        "external_urls" : {
          "spotify" : "https://open.spotify.com/artist/2STVYmc2T02GlvvWZl7umj"
        },
        "href" : "https://api.spotify.com/v1/artists/2STVYmc2T02GlvvWZl7umj",
        "id" : "2STVYmc2T02GlvvWZl7umj",
        "name" : "Victor Wooten",
        "type" : "artist",
        "uri" : "spotify:artist:2STVYmc2T02GlvvWZl7umj"
      } ],
      "disc_number" : 1,
      "duration_ms" : 211026,
      "explicit" : false,
      "external_ids" : {
        "isrc" : "USAPX1200033"
      },
      "external_urls" : {
        "spotify" : "https://open.spotify.com/track/5PZ2dt4SMJg1PCgVFzDE18"
      },
      "href" : "https://api.spotify.com/v1/tracks/5PZ2dt4SMJg1PCgVFzDE18",
      "id" : "5PZ2dt4SMJg1PCgVFzDE18",
      "is_local" : false,
      "is_playable" : true,
      "name" : "Pass Me Not, O Gentle Savior",
      "popularity" : 19,
      "preview_url" : "https://p.scdn.co/mp3-preview/00293dbab56efc15db40298e62a82c1028d18619?cid=774b29d4f13844c495f206cafdad9c86",
      "track_number" : 3,
      "type" : "track",
      "uri" : "spotify:track:5PZ2dt4SMJg1PCgVFzDE18"
    }, {
      "album" : {
        "album_type" : "album",
        "artists" : [ {
          "external_urls" : {
            "spotify" : "https://open.spotify.com/artist/5dZiRoY9Vpp6qrxqXNRwPE"
          },
          "href" : "https://api.spotify.com/v1/artists/5dZiRoY9Vpp6qrxqXNRwPE",
          "id" : "5dZiRoY9Vpp6qrxqXNRwPE",
          "name" : "Selah",
          "type" : "artist",
          "uri" : "spotify:artist:5dZiRoY9Vpp6qrxqXNRwPE"
        } ],
        "external_urls" : {
          "spotify" : "https://open.spotify.com/album/0Db1d5xscMf4bZnZePFHfJ"
        },
        "href" : "https://api.spotify.com/v1/albums/0Db1d5xscMf4bZnZePFHfJ",
        "id" : "0Db1d5xscMf4bZnZePFHfJ",
        "images" : [ {
          "height" : 640,
          "url" : "https://i.scdn.co/image/ab67616d0000b273fd46e58f911f51ecf82d4b79",
          "width" : 640
        }, {
          "height" : 300,
          "url" : "https://i.scdn.co/image/ab67616d00001e02fd46e58f911f51ecf82d4b79",
          "width" : 300
        }, {
          "height" : 64,
          "url" : "https://i.scdn.co/image/ab67616d00004851fd46e58f911f51ecf82d4b79",
          "width" : 64
        } ],
        "name" : "Be Still My Soul",
        "release_date" : "1998-09-01",
        "release_date_precision" : "day",
        "total_tracks" : 11,
        "type" : "album",
        "uri" : "spotify:album:0Db1d5xscMf4bZnZePFHfJ"
      },
      "artists" : [ {
        "external_urls" : {
          "spotify" : "https://open.spotify.com/artist/5dZiRoY9Vpp6qrxqXNRwPE"
        },
        "href" : "https://api.spotify.com/v1/artists/5dZiRoY9Vpp6qrxqXNRwPE",
        "id" : "5dZiRoY9Vpp6qrxqXNRwPE",
        "name" : "Selah",
        "type" : "artist",
        "uri" : "spotify:artist:5dZiRoY9Vpp6qrxqXNRwPE"
      } ],
      "disc_number" : 1,
      "duration_ms" : 342080,
      "explicit" : false,
      "external_ids" : {
        "isrc" : "USCRB9800053"
      },
      "external_urls" : {
        "spotify" : "https://open.spotify.com/track/0tBeRTXz1NxXrw239I9POL"
      },
      "href" : "https://api.spotify.com/v1/tracks/0tBeRTXz1NxXrw239I9POL",
      "id" : "0tBeRTXz1NxXrw239I9POL",
      "is_local" : false,
      "is_playable" : true,
      "name" : "Bika Mono Ve (Pass Me Not, O Gentle Savior) / It Is Well With My Soul",
      "popularity" : 29,
      "preview_url" : "https://p.scdn.co/mp3-preview/c628b270e27fe293bcb4877829054d30f4807d86?cid=774b29d4f13844c495f206cafdad9c86",
      "track_number" : 1,
      "type" : "track",
      "uri" : "spotify:track:0tBeRTXz1NxXrw239I9POL"
    }, {
      "album" : {
        "album_type" : "album",
        "artists" : [ {
          "external_urls" : {
            "spotify" : "https://open.spotify.com/artist/20rlbkwNSoLrLqQUR7GRcT"
          },
          "href" : "https://api.spotify.com/v1/artists/20rlbkwNSoLrLqQUR7GRcT",
          "id" : "20rlbkwNSoLrLqQUR7GRcT",
          "name" : "Mother’s Lullaby",
          "type" : "artist",
          "uri" : "spotify:artist:20rlbkwNSoLrLqQUR7GRcT"
        } ],
        "external_urls" : {
          "spotify" : "https://open.spotify.com/album/3UIYMn7azZE5C6cSAam26w"
        },
        "href" : "https://api.spotify.com/v1/albums/3UIYMn7azZE5C6cSAam26w",
        "id" : "3UIYMn7azZE5C6cSAam26w",
        "images" : [ {
          "height" : 640,
          "url" : "https://i.scdn.co/image/ab67616d0000b27347639e86fcfe8ae1c4746787",
          "width" : 640
        }, {
          "height" : 300,
          "url" : "https://i.scdn.co/image/ab67616d00001e0247639e86fcfe8ae1c4746787",
          "width" : 300
        }, {
          "height" : 64,
          "url" : "https://i.scdn.co/image/ab67616d0000485147639e86fcfe8ae1c4746787",
          "width" : 64
        } ],
        "name" : "현악4중주 찬송가 연주곡집 Vol. 7",
        "release_date" : "2020-05-28",
        "release_date_precision" : "day",
        "total_tracks" : 50,
        "type" : "album",
        "uri" : "spotify:album:3UIYMn7azZE5C6cSAam26w"
      },
      "artists" : [ {
        "external_urls" : {
          "spotify" : "https://open.spotify.com/artist/20rlbkwNSoLrLqQUR7GRcT"
        },
        "href" : "https://api.spotify.com/v1/artists/20rlbkwNSoLrLqQUR7GRcT",
        "id" : "20rlbkwNSoLrLqQUR7GRcT",
        "name" : "Mother’s Lullaby",
        "type" : "artist",
        "uri" : "spotify:artist:20rlbkwNSoLrLqQUR7GRcT"
      } ],
      "disc_number" : 1,
      "duration_ms" : 190333,
      "explicit" : false,
      "external_ids" : {
        "isrc" : "QZEKE2002493"
      },
      "external_urls" : {
        "spotify" : "https://open.spotify.com/track/2sJNv7xOA5UWkgzLbIikaT"
      },
      "href" : "https://api.spotify.com/v1/tracks/2sJNv7xOA5UWkgzLbIikaT",
      "id" : "2sJNv7xOA5UWkgzLbIikaT",
      "is_local" : false,
      "is_playable" : true,
      "name" : "Pass Me Not, O Gentle Savior)",
      "popularity" : 0,
      "preview_url" : "https://p.scdn.co/mp3-preview/7443a898b8d20150212c63605a23f298f62cb0ce?cid=774b29d4f13844c495f206cafdad9c86",
      "track_number" : 37,
      "type" : "track",
      "uri" : "spotify:track:2sJNv7xOA5UWkgzLbIikaT"
    }, {
      "album" : {
        "album_type" : "album",
        "artists" : [ {
          "external_urls" : {
            "spotify" : "https://open.spotify.com/artist/5PSWc8Y94zFsAtZlTe7ipI"
          },
          "href" : "https://api.spotify.com/v1/artists/5PSWc8Y94zFsAtZlTe7ipI",
          "id" : "5PSWc8Y94zFsAtZlTe7ipI",
          "name" : "The Statler Brothers",
          "type" : "artist",
          "uri" : "spotify:artist:5PSWc8Y94zFsAtZlTe7ipI"
        } ],
        "external_urls" : {
          "spotify" : "https://open.spotify.com/album/1FzhXCFcisNUv52nfjgVPN"
        },
        "href" : "https://api.spotify.com/v1/albums/1FzhXCFcisNUv52nfjgVPN",
        "id" : "1FzhXCFcisNUv52nfjgVPN",
        "images" : [ {
          "height" : 640,
          "url" : "https://i.scdn.co/image/ab67616d0000b273c39525ce972f9f2797dcf88f",
          "width" : 640
        }, {
          "height" : 300,
          "url" : "https://i.scdn.co/image/ab67616d00001e02c39525ce972f9f2797dcf88f",
          "width" : 300
        }, {
          "height" : 64,
          "url" : "https://i.scdn.co/image/ab67616d00004851c39525ce972f9f2797dcf88f",
          "width" : 64
        } ],
        "name" : "The Gospel Music Of The Statler Brothers Volume Two",
        "release_date" : "2010-01-01",
        "release_date_precision" : "day",
        "total_tracks" : 19,
        "type" : "album",
        "uri" : "spotify:album:1FzhXCFcisNUv52nfjgVPN"
      },
      "artists" : [ {
        "external_urls" : {
          "spotify" : "https://open.spotify.com/artist/5PSWc8Y94zFsAtZlTe7ipI"
        },
        "href" : "https://api.spotify.com/v1/artists/5PSWc8Y94zFsAtZlTe7ipI",
        "id" : "5PSWc8Y94zFsAtZlTe7ipI",
        "name" : "The Statler Brothers",
        "type" : "artist",
        "uri" : "spotify:artist:5PSWc8Y94zFsAtZlTe7ipI"
      } ],
      "disc_number" : 1,
      "duration_ms" : 138373,
      "explicit" : false,
      "external_ids" : {
        "isrc" : "US3271000197"
      },
      "external_urls" : {
        "spotify" : "https://open.spotify.com/track/0vZnmbyGD2BZzWIXr4o0zg"
      },
      "href" : "https://api.spotify.com/v1/tracks/0vZnmbyGD2BZzWIXr4o0zg",
      "id" : "0vZnmbyGD2BZzWIXr4o0zg",
      "is_local" : false,
      "is_playable" : true,
      "name" : "Pass Me Not, O Gentle Savior",
      "popularity" : 16,
      "preview_url" : null,
      "track_number" : 5,
      "type" : "track",
      "uri" : "spotify:track:0vZnmbyGD2BZzWIXr4o0zg"
    }, {
      "album" : {
        "album_type" : "single",
        "artists" : [ {
          "external_urls" : {
            "spotify" : "https://open.spotify.com/artist/0CdQn1tj7KqCtWALiZlV7M"
          },
          "href" : "https://api.spotify.com/v1/artists/0CdQn1tj7KqCtWALiZlV7M",
          "id" : "0CdQn1tj7KqCtWALiZlV7M",
          "name" : "Hasan Green",
          "type" : "artist",
          "uri" : "spotify:artist:0CdQn1tj7KqCtWALiZlV7M"
        } ],
        "external_urls" : {
          "spotify" : "https://open.spotify.com/album/5isIzsmZmrtRtdV2r53w06"
        },
        "href" : "https://api.spotify.com/v1/albums/5isIzsmZmrtRtdV2r53w06",
        "id" : "5isIzsmZmrtRtdV2r53w06",
        "images" : [ {
          "height" : 640,
          "url" : "https://i.scdn.co/image/ab67616d0000b273696e55e186bbabb06631f0d5",
          "width" : 640
        }, {
          "height" : 300,
          "url" : "https://i.scdn.co/image/ab67616d00001e02696e55e186bbabb06631f0d5",
          "width" : 300
        }, {
          "height" : 64,
          "url" : "https://i.scdn.co/image/ab67616d00004851696e55e186bbabb06631f0d5",
          "width" : 64
        } ],
        "name" : "Pass Me Not O Gentle Savior",
        "release_date" : "2014-01-22",
        "release_date_precision" : "day",
        "total_tracks" : 1,
        "type" : "album",
        "uri" : "spotify:album:5isIzsmZmrtRtdV2r53w06"
      },
      "artists" : [ {
        "external_urls" : {
          "spotify" : "https://open.spotify.com/artist/0CdQn1tj7KqCtWALiZlV7M"
        },
        "href" : "https://api.spotify.com/v1/artists/0CdQn1tj7KqCtWALiZlV7M",
        "id" : "0CdQn1tj7KqCtWALiZlV7M",
        "name" : "Hasan Green",
        "type" : "artist",
        "uri" : "spotify:artist:0CdQn1tj7KqCtWALiZlV7M"
      } ],
      "disc_number" : 1,
      "duration_ms" : 262544,
      "explicit" : false,
      "external_ids" : {
        "isrc" : "TCABT1456860"
      },
      "external_urls" : {
        "spotify" : "https://open.spotify.com/track/0d9QvUDQ5yqilHak1uECQM"
      },
      "href" : "https://api.spotify.com/v1/tracks/0d9QvUDQ5yqilHak1uECQM",
      "id" : "0d9QvUDQ5yqilHak1uECQM",
      "is_local" : false,
      "is_playable" : true,
      "name" : "Pass Me Not O Gentle Savior",
      "popularity" : 15,
      "preview_url" : "https://p.scdn.co/mp3-preview/45ade5570e6ed1c0e17e1cb20b56f0d4db444f0a?cid=774b29d4f13844c495f206cafdad9c86",
      "track_number" : 1,
      "type" : "track",
      "uri" : "spotify:track:0d9QvUDQ5yqilHak1uECQM"
    }, {
      "album" : {
        "album_type" : "album",
        "artists" : [ {
          "external_urls" : {
            "spotify" : "https://open.spotify.com/artist/5dZiRoY9Vpp6qrxqXNRwPE"
          },
          "href" : "https://api.spotify.com/v1/artists/5dZiRoY9Vpp6qrxqXNRwPE",
          "id" : "5dZiRoY9Vpp6qrxqXNRwPE",
          "name" : "Selah",
          "type" : "artist",
          "uri" : "spotify:artist:5dZiRoY9Vpp6qrxqXNRwPE"
        } ],
        "external_urls" : {
          "spotify" : "https://open.spotify.com/album/2k6RX4wf7ugNg7wsZ6CZw7"
        },
        "href" : "https://api.spotify.com/v1/albums/2k6RX4wf7ugNg7wsZ6CZw7",
        "id" : "2k6RX4wf7ugNg7wsZ6CZw7",
        "images" : [ {
          "height" : 640,
          "url" : "https://i.scdn.co/image/ab67616d0000b273202136f0098673f1b0b441c3",
          "width" : 640
        }, {
          "height" : 300,
          "url" : "https://i.scdn.co/image/ab67616d00001e02202136f0098673f1b0b441c3",
          "width" : 300
        }, {
          "height" : 64,
          "url" : "https://i.scdn.co/image/ab67616d00004851202136f0098673f1b0b441c3",
          "width" : 64
        } ],
        "name" : "Timeless: The Selah Music Collection",
        "release_date" : "2007-10-09",
        "release_date_precision" : "day",
        "total_tracks" : 47,
        "type" : "album",
        "uri" : "spotify:album:2k6RX4wf7ugNg7wsZ6CZw7"
      },
      "artists" : [ {
        "external_urls" : {
          "spotify" : "https://open.spotify.com/artist/5dZiRoY9Vpp6qrxqXNRwPE"
        },
        "href" : "https://api.spotify.com/v1/artists/5dZiRoY9Vpp6qrxqXNRwPE",
        "id" : "5dZiRoY9Vpp6qrxqXNRwPE",
        "name" : "Selah",
        "type" : "artist",
        "uri" : "spotify:artist:5dZiRoY9Vpp6qrxqXNRwPE"
      } ],
      "disc_number" : 1,
      "duration_ms" : 342080,
      "explicit" : false,
      "external_ids" : {
        "isrc" : "USCRB9800053"
      },
      "external_urls" : {
        "spotify" : "https://open.spotify.com/track/2vHLRpiaFOpQKh480IWwZR"
      },
      "href" : "https://api.spotify.com/v1/tracks/2vHLRpiaFOpQKh480IWwZR",
      "id" : "2vHLRpiaFOpQKh480IWwZR",
      "is_local" : false,
      "is_playable" : true,
      "name" : "Bika Mono Ve (Pass Me Not, O Gentle Savior) / It Is Well With My Soul",
      "popularity" : 16,
      "preview_url" : "https://p.scdn.co/mp3-preview/72be95f0158ff7d9cf55ff1e863010c7ccd04707?cid=774b29d4f13844c495f206cafdad9c86",
      "track_number" : 1,
      "type" : "track",
      "uri" : "spotify:track:2vHLRpiaFOpQKh480IWwZR"
    }, {
      "album" : {
        "album_type" : "album",
        "artists" : [ {
          "external_urls" : {
            "spotify" : "https://open.spotify.com/artist/2lWvR5mZE1r4NE0nDzzz2C"
          },
          "href" : "https://api.spotify.com/v1/artists/2lWvR5mZE1r4NE0nDzzz2C",
          "id" : "2lWvR5mZE1r4NE0nDzzz2C",
          "name" : "Rodrigo Rodriguez",
          "type" : "artist",
          "uri" : "spotify:artist:2lWvR5mZE1r4NE0nDzzz2C"
        } ],
        "external_urls" : {
          "spotify" : "https://open.spotify.com/album/3NSznINsVd8F1SgkDTEuab"
        },
        "href" : "https://api.spotify.com/v1/albums/3NSznINsVd8F1SgkDTEuab",
        "id" : "3NSznINsVd8F1SgkDTEuab",
        "images" : [ {
          "height" : 640,
          "url" : "https://i.scdn.co/image/ab67616d0000b27379a41930448987e2b66ebc3e",
          "width" : 640
        }, {
          "height" : 300,
          "url" : "https://i.scdn.co/image/ab67616d00001e0279a41930448987e2b66ebc3e",
          "width" : 300
        }, {
          "height" : 64,
          "url" : "https://i.scdn.co/image/ab67616d0000485179a41930448987e2b66ebc3e",
          "width" : 64
        } ],
        "name" : "Hold My Hand",
        "release_date" : "2013-01-01",
        "release_date_precision" : "day",
        "total_tracks" : 21,
        "type" : "album",
        "uri" : "spotify:album:3NSznINsVd8F1SgkDTEuab"
      },
      "artists" : [ {
        "external_urls" : {
          "spotify" : "https://open.spotify.com/artist/2lWvR5mZE1r4NE0nDzzz2C"
        },
        "href" : "https://api.spotify.com/v1/artists/2lWvR5mZE1r4NE0nDzzz2C",
        "id" : "2lWvR5mZE1r4NE0nDzzz2C",
        "name" : "Rodrigo Rodriguez",
        "type" : "artist",
        "uri" : "spotify:artist:2lWvR5mZE1r4NE0nDzzz2C"
      } ],
      "disc_number" : 1,
      "duration_ms" : 170053,
      "explicit" : false,
      "external_ids" : {
        "isrc" : "ushm21307368"
      },
      "external_urls" : {
        "spotify" : "https://open.spotify.com/track/3pLHq0RCCYVuaV3796RdNZ"
      },
      "href" : "https://api.spotify.com/v1/tracks/3pLHq0RCCYVuaV3796RdNZ",
      "id" : "3pLHq0RCCYVuaV3796RdNZ",
      "is_local" : false,
      "is_playable" : true,
      "name" : "Pass Me Not Oh Gentle Savior",
      "popularity" : 13,
      "preview_url" : "https://p.scdn.co/mp3-preview/381485e4ca7945646fe9fcf9dd75328a5de672a5?cid=774b29d4f13844c495f206cafdad9c86",
      "track_number" : 6,
      "type" : "track",
      "uri" : "spotify:track:3pLHq0RCCYVuaV3796RdNZ"
    }, {
      "album" : {
        "album_type" : "album",
        "artists" : [ {
          "external_urls" : {
            "spotify" : "https://open.spotify.com/artist/5WWuo8k0komiDBmtec6gHI"
          },
          "href" : "https://api.spotify.com/v1/artists/5WWuo8k0komiDBmtec6gHI",
          "id" : "5WWuo8k0komiDBmtec6gHI",
          "name" : "Lynda Randle",
          "type" : "artist",
          "uri" : "spotify:artist:5WWuo8k0komiDBmtec6gHI"
        } ],
        "external_urls" : {
          "spotify" : "https://open.spotify.com/album/03hOdVBr01xUYtXgC4fu9q"
        },
        "href" : "https://api.spotify.com/v1/albums/03hOdVBr01xUYtXgC4fu9q",
        "id" : "03hOdVBr01xUYtXgC4fu9q",
        "images" : [ {
          "height" : 640,
          "url" : "https://i.scdn.co/image/ab67616d0000b2731c14fe8f8489c6007c5910db",
          "width" : 640
        }, {
          "height" : 300,
          "url" : "https://i.scdn.co/image/ab67616d00001e021c14fe8f8489c6007c5910db",
          "width" : 300
        }, {
          "height" : 64,
          "url" : "https://i.scdn.co/image/ab67616d000048511c14fe8f8489c6007c5910db",
          "width" : 64
        } ],
        "name" : "Hymns",
        "release_date" : "2005-01-01",
        "release_date_precision" : "day",
        "total_tracks" : 13,
        "type" : "album",
        "uri" : "spotify:album:03hOdVBr01xUYtXgC4fu9q"
      },
      "artists" : [ {
        "external_urls" : {
          "spotify" : "https://open.spotify.com/artist/5WWuo8k0komiDBmtec6gHI"
        },
        "href" : "https://api.spotify.com/v1/artists/5WWuo8k0komiDBmtec6gHI",
        "id" : "5WWuo8k0komiDBmtec6gHI",
        "name" : "Lynda Randle",
        "type" : "artist",
        "uri" : "spotify:artist:5WWuo8k0komiDBmtec6gHI"
      } ],
      "disc_number" : 1,
      "duration_ms" : 261560,
      "explicit" : false,
      "external_ids" : {
        "isrc" : "US3270401799"
      },
      "external_urls" : {
        "spotify" : "https://open.spotify.com/track/1kw6enVBYCEIh5cBUlGRb0"
      },
      "href" : "https://api.spotify.com/v1/tracks/1kw6enVBYCEIh5cBUlGRb0",
      "id" : "1kw6enVBYCEIh5cBUlGRb0",
      "is_local" : false,
      "is_playable" : true,
      "name" : "Pass Me Not O Gentle Savior/I Need Thee Every Hour",
      "popularity" : 17,
      "preview_url" : null,
      "track_number" : 9,
      "type" : "track",
      "uri" : "spotify:track:1kw6enVBYCEIh5cBUlGRb0"
    } ],
    "limit" : 10,
    "next" : "https://api.spotify.com/v1/search?query=Pass+Me+Not%2C+O+Gentle+Savior&type=track&market=US&offset=15&limit=10",
    "offset" : 5,
    "previous" : "https://api.spotify.com/v1/search?query=Pass+Me+Not%2C+O+Gentle+Savior&type=track&market=US&offset=0&limit=10",
    "total" : 229
  }
}