{
  "tracks" : {
    "href" : "https://api.spotify.com/v1/search?query=I+Am+Trusting+Thee%2C+Lord+Jesus&type=track&market=US&offset=5&limit=10",
    "items" : [ {
      "album" : {
        "album_type" : "album",
        "artists" : [ {
          "external_urls" : {
            "spotify" : "https://open.spotify.com/artist/1IYk7Dbm3X8vVAgrK8tNbv"
          },
          "href" : "https://api.spotify.com/v1/artists/1IYk7Dbm3X8vVAgrK8tNbv",
          "id" : "1IYk7Dbm3X8vVAgrK8tNbv",
          "name" : "Eric Wyse",
          "type" : "artist",
          "uri" : "spotify:artist:1IYk7Dbm3X8vVAgrK8tNbv"
        } ],
        "external_urls" : {
          "spotify" : "https://open.spotify.com/album/58IMcvOjEFkhtvgUE1ZZ9d"
        },
        "href" : "https://api.spotify.com/v1/albums/58IMcvOjEFkhtvgUE1ZZ9d",
        "id" : "58IMcvOjEFkhtvgUE1ZZ9d",
        "images" : [ {
          "height" : 640,
          "url" : "https://i.scdn.co/image/ab67616d0000b273343b279e03c0ed7cd4cef7a8",
          "width" : 640
        }, {
          "height" : 300,
          "url" : "https://i.scdn.co/image/ab67616d00001e02343b279e03c0ed7cd4cef7a8",
          "width" : 300
        }, {
          "height" : 64,
          "url" : "https://i.scdn.co/image/ab67616d00004851343b279e03c0ed7cd4cef7a8",
          "width" : 64
        } ],
        "name" : "Reflections Volume 2 - 60 More Songs of Devotion",
        "release_date" : "2013-03-07",
        "release_date_precision" : "day",
        "total_tracks" : 60,
        "type" : "album",
        "uri" : "spotify:album:58IMcvOjEFkhtvgUE1ZZ9d"
      },
      "artists" : [ {
        "external_urls" : {
          "spotify" : "https://open.spotify.com/artist/1IYk7Dbm3X8vVAgrK8tNbv"
        },
        "href" : "https://api.spotify.com/v1/artists/1IYk7Dbm3X8vVAgrK8tNbv",
        "id" : "1IYk7Dbm3X8vVAgrK8tNbv",
        "name" : "Eric Wyse",
        "type" : "artist",
        "uri" : "spotify:artist:1IYk7Dbm3X8vVAgrK8tNbv"
      } ],
      "disc_number" : 3,
      "duration_ms" : 151600,
      "explicit" : false,
      "external_ids" : {
        "isrc" : "USG5S1296549"
      },
      "external_urls" : {
        "spotify" : "https://open.spotify.com/track/5J08NKhkYi26NFbQcjw0Mo"
      },
      "href" : "https://api.spotify.com/v1/tracks/5J08NKhkYi26NFbQcjw0Mo",
      "id" : "5J08NKhkYi26NFbQcjw0Mo",
      "is_local" : false,
      "is_playable" : true,
      "name" : "I Am Trusting Thee Lord Jesus",
      "popularity" : 3,
      "preview_url" : "https://p.scdn.co/mp3-preview/cfe9a916aa88ce2eb407aa0ebf3a7c26d336beba?cid=774b29d4f13844c495f206cafdad9c86",
      "track_number" : 9,
      "type" : "track",
      "uri" : "spotify:track:5J08NKhkYi26NFbQcjw0Mo"
    }, {
      "album" : {
        "album_type" : "album",
        "artists" : [ {
          "external_urls" : {
            "spotify" : "https://open.spotify.com/artist/41N4x8ZUxk7JkHORj8M3bd"
          },
          "href" : "https://api.spotify.com/v1/artists/41N4x8ZUxk7JkHORj8M3bd",
          "id" : "41N4x8ZUxk7JkHORj8M3bd",
          "name" : "Concordia Publishing House",
          "type" : "artist",
          "uri" : "spotify:artist:41N4x8ZUxk7JkHORj8M3bd"
        } ],
        "external_urls" : {
          "spotify" : "https://open.spotify.com/album/5Z7uWaRCqb4skqppnI2cnv"
        },
        "href" : "https://api.spotify.com/v1/albums/5Z7uWaRCqb4skqppnI2cnv",
        "id" : "5Z7uWaRCqb4skqppnI2cnv",
        "images" : [ {
          "height" : 640,
          "url" : "https://i.scdn.co/image/ab67616d0000b2734687d48ceda4bc856cedceea",
          "width" : 640
        }, {
          "height" : 300,
          "url" : "https://i.scdn.co/image/ab67616d00001e024687d48ceda4bc856cedceea",
          "width" : 300
        }, {
          "height" : 64,
          "url" : "https://i.scdn.co/image/ab67616d000048514687d48ceda4bc856cedceea",
          "width" : 64
        } ],
        "name" : "My First Hymnal-Jesus, The Church",
        "release_date" : "2012-08-21",
        "release_date_precision" : "day",
        "total_tracks" : 26,
        "type" : "album",
        "uri" : "spotify:album:5Z7uWaRCqb4skqppnI2cnv"
      },
      "artists" : [ {
        "external_urls" : {
          "spotify" : "https://open.spotify.com/artist/41N4x8ZUxk7JkHORj8M3bd"
        },
        "href" : "https://api.spotify.com/v1/artists/41N4x8ZUxk7JkHORj8M3bd",
        "id" : "41N4x8ZUxk7JkHORj8M3bd",
        "name" : "Concordia Publishing House",
        "type" : "artist",
        "uri" : "spotify:artist:41N4x8ZUxk7JkHORj8M3bd"
      } ],
      "disc_number" : 1,
      "duration_ms" : 75363,
      "explicit" : false,
      "external_ids" : {
        "isrc" : "US3DF1211170"
      },
      "external_urls" : {
        "spotify" : "https://open.spotify.com/track/75BufhI2y2KIne5OK3CxDo"
      },
      "href" : "https://api.spotify.com/v1/tracks/75BufhI2y2KIne5OK3CxDo",
      "id" : "75BufhI2y2KIne5OK3CxDo",
      "is_local" : false,
      "is_playable" : true,
      "name" : "I Am Trusting Thee, Lord Jesus (Acc)",
      "popularity" : 1,
      "preview_url" : "https://p.scdn.co/mp3-preview/1a93e48f642ddc38c84bf4acb7ee6c8e9ea9ea04?cid=774b29d4f13844c495f206cafdad9c86",
      "track_number" : 14,
      "type" : "track",
      "uri" : "spotify:track:75BufhI2y2KIne5OK3CxDo"
    }, {
      "album" : {
        "album_type" : "compilation",
        "artists" : [ {
          "external_urls" : {
            "spotify" : "https://open.spotify.com/artist/0LyfQWJT6nXafLPZqxe9Of"
          },
          "href" : "https://api.spotify.com/v1/artists/0LyfQWJT6nXafLPZqxe9Of",
          "id" : "0LyfQWJT6nXafLPZqxe9Of",
          "name" : "Various Artists",
          "type" : "artist",
          "uri" : "spotify:artist:0LyfQWJT6nXafLPZqxe9Of"
        } ],
        "external_urls" : {
          "spotify" : "https://open.spotify.com/album/4DgWjajhM1HRREBFCnCQ3c"
        },
        "href" : "https://api.spotify.com/v1/albums/4DgWjajhM1HRREBFCnCQ3c",
        "id" : "4DgWjajhM1HRREBFCnCQ3c",
        "images" : [ {
          "height" : 640,
          "url" : "https://i.scdn.co/image/ab67616d0000b273d95622aaf7b8b0346a4ad751",
          "width" : 640
        }, {
          "height" : 300,
          "url" : "https://i.scdn.co/image/ab67616d00001e02d95622aaf7b8b0346a4ad751",
          "width" : 300
        }, {
          "height" : 64,
          "url" : "https://i.scdn.co/image/ab67616d00004851d95622aaf7b8b0346a4ad751",
          "width" : 64
        } ],
        "name" : "Monuments Of Faith - When I Survey",
        "release_date" : "2009-06-01",
        "release_date_precision" : "day",
        "total_tracks" : 12,
        "type" : "album",
        "uri" : "spotify:album:4DgWjajhM1HRREBFCnCQ3c"
      },
      "artists" : [ {
        "external_urls" : {
          "spotify" : "https://open.spotify.com/artist/7rluHfxLiKAkAoMkuE1F8U"
        },
        "href" : "https://api.spotify.com/v1/artists/7rluHfxLiKAkAoMkuE1F8U",
        "id" : "7rluHfxLiKAkAoMkuE1F8U",
        "name" : "St. Michael's Singers",
        "type" : "artist",
        "uri" : "spotify:artist:7rluHfxLiKAkAoMkuE1F8U"
      } ],
      "disc_number" : 1,
      "duration_ms" : 171173,
      "explicit" : false,
      "external_ids" : {
        "isrc" : "GBBTM0997109"
      },
      "external_urls" : {
        "spotify" : "https://open.spotify.com/track/2g8KlFs2m4o3HX4RqbvR63"
      },
      "href" : "https://api.spotify.com/v1/tracks/2g8KlFs2m4o3HX4RqbvR63",
      "id" : "2g8KlFs2m4o3HX4RqbvR63",
      "is_local" : false,
      "is_playable" : true,
      "name" : "I Am Trusting Thee Lord Jesus",
      "popularity" : 1,
      "preview_url" : "https://p.scdn.co/mp3-preview/f8a56cc0a1c4a7a1313ced3b7ab1e74ed29d9bdd?cid=774b29d4f13844c495f206cafdad9c86",
      "track_number" : 9,
      "type" : "track",
      "uri" : "spotify:track:2g8KlFs2m4o3HX4RqbvR63"
    }, {
      "album" : {
        "album_type" : "compilation",
        "artists" : [ {
          "external_urls" : {
            "spotify" : "https://open.spotify.com/artist/0LyfQWJT6nXafLPZqxe9Of"
          },
          "href" : "https://api.spotify.com/v1/artists/0LyfQWJT6nXafLPZqxe9Of",
          "id" : "0LyfQWJT6nXafLPZqxe9Of",
          "name" : "Various Artists",
          "type" : "artist",
          "uri" : "spotify:artist:0LyfQWJT6nXafLPZqxe9Of"
        } ],
        "external_urls" : {
          "spotify" : "https://open.spotify.com/album/0COyBou6mSr9YqNEBo4Omp"
        },
        "href" : "https://api.spotify.com/v1/albums/0COyBou6mSr9YqNEBo4Omp",
        "id" : "0COyBou6mSr9YqNEBo4Omp",
        "images" : [ {
          "height" : 640,
          "url" : "https://i.scdn.co/image/ab67616d0000b273712197a0df6f1c19c768ae34",
          "width" : 640
        }, {
          "height" : 300,
          "url" : "https://i.scdn.co/image/ab67616d00001e02712197a0df6f1c19c768ae34",
          "width" : 300
        }, {
          "height" : 64,
          "url" : "https://i.scdn.co/image/ab67616d00004851712197a0df6f1c19c768ae34",
          "width" : 64
        } ],
        "name" : "The Hymn Makers: Hymns of Faithfulness",
        "release_date" : "2011-07-24",
        "release_date_precision" : "day",
        "total_tracks" : 10,
        "type" : "album",
        "uri" : "spotify:album:0COyBou6mSr9YqNEBo4Omp"
      },
      "artists" : [ {
        "external_urls" : {
          "spotify" : "https://open.spotify.com/artist/7rluHfxLiKAkAoMkuE1F8U"
        },
        "href" : "https://api.spotify.com/v1/artists/7rluHfxLiKAkAoMkuE1F8U",
        "id" : "7rluHfxLiKAkAoMkuE1F8U",
        "name" : "St. Michael's Singers",
        "type" : "artist",
        "uri" : "spotify:artist:7rluHfxLiKAkAoMkuE1F8U"
      } ],
      "disc_number" : 1,
      "duration_ms" : 173613,
      "explicit" : false,
      "external_ids" : {
        "isrc" : "GBBTM9585108"
      },
      "external_urls" : {
        "spotify" : "https://open.spotify.com/track/3frWlfkEU16LF2BhGUFgq0"
      },
      "href" : "https://api.spotify.com/v1/tracks/3frWlfkEU16LF2BhGUFgq0",
      "id" : "3frWlfkEU16LF2BhGUFgq0",
      "is_local" : false,
      "is_playable" : true,
      "name" : "I Am Trusting Thee Lord Jesus",
      "popularity" : 0,
      "preview_url" : "https://p.scdn.co/mp3-preview/554974b1dae1c7678a24307cde5e12eed8b651f2?cid=774b29d4f13844c495f206cafdad9c86",
      "track_number" : 5,
      "type" : "track",
      "uri" : "spotify:track:3frWlfkEU16LF2BhGUFgq0"
    }, {
      "album" : {
        "album_type" : "album",
        "artists" : [ {
          "external_urls" : {
            "spotify" : "https://open.spotify.com/artist/5kvtkE0zlXkz3uTIBZb6J8"
          },
          "href" : "https://api.spotify.com/v1/artists/5kvtkE0zlXkz3uTIBZb6J8",
          "id" : "5kvtkE0zlXkz3uTIBZb6J8",
          "name" : "Hymn Singers",
          "type" : "artist",
          "uri" : "spotify:artist:5kvtkE0zlXkz3uTIBZb6J8"
        } ],
        "external_urls" : {
          "spotify" : "https://open.spotify.com/album/1J6wHhrEjHW5ObLzaQfe8s"
        },
        "href" : "https://api.spotify.com/v1/albums/1J6wHhrEjHW5ObLzaQfe8s",
        "id" : "1J6wHhrEjHW5ObLzaQfe8s",
        "images" : [ {
          "height" : 640,
          "url" : "https://i.scdn.co/image/ab67616d0000b2730172f979aba26c1786bd3d33",
          "width" : 640
        }, {
          "height" : 300,
          "url" : "https://i.scdn.co/image/ab67616d00001e020172f979aba26c1786bd3d33",
          "width" : 300
        }, {
          "height" : 64,
          "url" : "https://i.scdn.co/image/ab67616d000048510172f979aba26c1786bd3d33",
          "width" : 64
        } ],
        "name" : "A'capella Praise",
        "release_date" : "2018-04-25",
        "release_date_precision" : "day",
        "total_tracks" : 18,
        "type" : "album",
        "uri" : "spotify:album:1J6wHhrEjHW5ObLzaQfe8s"
      },
      "artists" : [ {
        "external_urls" : {
          "spotify" : "https://open.spotify.com/artist/5kvtkE0zlXkz3uTIBZb6J8"
        },
        "href" : "https://api.spotify.com/v1/artists/5kvtkE0zlXkz3uTIBZb6J8",
        "id" : "5kvtkE0zlXkz3uTIBZb6J8",
        "name" : "Hymn Singers",
        "type" : "artist",
        "uri" : "spotify:artist:5kvtkE0zlXkz3uTIBZb6J8"
      } ],
      "disc_number" : 1,
      "duration_ms" : 166800,
      "explicit" : false,
      "external_ids" : {
        "isrc" : "QM4TW1866603"
      },
      "external_urls" : {
        "spotify" : "https://open.spotify.com/track/1QFxltdClNsLScA1qGVoRm"
      },
      "href" : "https://api.spotify.com/v1/tracks/1QFxltdClNsLScA1qGVoRm",
      "id" : "1QFxltdClNsLScA1qGVoRm",
      "is_local" : false,
      "is_playable" : true,
      "name" : "I Am Trusting Thee, Lord Jesus",
      "popularity" : 1,
      "preview_url" : "https://p.scdn.co/mp3-preview/22ac9067a44321205eb6de6200bbd87dcb0313f6?cid=774b29d4f13844c495f206cafdad9c86",
      "track_number" : 15,
      "type" : "track",
      "uri" : "spotify:track:1QFxltdClNsLScA1qGVoRm"
    }, {
      "album" : {
        "album_type" : "compilation",
        "artists" : [ {
          "external_urls" : {
            "spotify" : "https://open.spotify.com/artist/0LyfQWJT6nXafLPZqxe9Of"
          },
          "href" : "https://api.spotify.com/v1/artists/0LyfQWJT6nXafLPZqxe9Of",
          "id" : "0LyfQWJT6nXafLPZqxe9Of",
          "name" : "Various Artists",
          "type" : "artist",
          "uri" : "spotify:artist:0LyfQWJT6nXafLPZqxe9Of"
        } ],
        "external_urls" : {
          "spotify" : "https://open.spotify.com/album/2vSco0DzMOnUd9xKaFP9WW"
        },
        "href" : "https://api.spotify.com/v1/albums/2vSco0DzMOnUd9xKaFP9WW",
        "id" : "2vSco0DzMOnUd9xKaFP9WW",
        "images" : [ {
          "height" : 640,
          "url" : "https://i.scdn.co/image/ab67616d0000b2732a11ea90677f7f5bc6e3b5f1",
          "width" : 640
        }, {
          "height" : 300,
          "url" : "https://i.scdn.co/image/ab67616d00001e022a11ea90677f7f5bc6e3b5f1",
          "width" : 300
        }, {
          "height" : 64,
          "url" : "https://i.scdn.co/image/ab67616d000048512a11ea90677f7f5bc6e3b5f1",
          "width" : 64
        } ],
        "name" : "Hymns of Remembrance - Lest We Forget",
        "release_date" : "2014-09-21",
        "release_date_precision" : "day",
        "total_tracks" : 34,
        "type" : "album",
        "uri" : "spotify:album:2vSco0DzMOnUd9xKaFP9WW"
      },
      "artists" : [ {
        "external_urls" : {
          "spotify" : "https://open.spotify.com/artist/7rluHfxLiKAkAoMkuE1F8U"
        },
        "href" : "https://api.spotify.com/v1/artists/7rluHfxLiKAkAoMkuE1F8U",
        "id" : "7rluHfxLiKAkAoMkuE1F8U",
        "name" : "St. Michael's Singers",
        "type" : "artist",
        "uri" : "spotify:artist:7rluHfxLiKAkAoMkuE1F8U"
      } ],
      "disc_number" : 1,
      "duration_ms" : 173933,
      "explicit" : false,
      "external_ids" : {
        "isrc" : "GBBTM9585108"
      },
      "external_urls" : {
        "spotify" : "https://open.spotify.com/track/16CWgS0dMzLcUahs4RmYl4"
      },
      "href" : "https://api.spotify.com/v1/tracks/16CWgS0dMzLcUahs4RmYl4",
      "id" : "16CWgS0dMzLcUahs4RmYl4",
      "is_local" : false,
      "is_playable" : true,
      "name" : "I Am Trusting Thee Lord Jesus",
      "popularity" : 0,
      "preview_url" : "https://p.scdn.co/mp3-preview/d30261e5dfae47aaa2a3d61c5e3026b716474267?cid=774b29d4f13844c495f206cafdad9c86",
      "track_number" : 29,
      "type" : "track",
      "uri" : "spotify:track:16CWgS0dMzLcUahs4RmYl4"
    }, {
      "album" : {
        "album_type" : "compilation",
        "artists" : [ {
          "external_urls" : {
            "spotify" : "https://open.spotify.com/artist/0LyfQWJT6nXafLPZqxe9Of"
          },
          "href" : "https://api.spotify.com/v1/artists/0LyfQWJT6nXafLPZqxe9Of",
          "id" : "0LyfQWJT6nXafLPZqxe9Of",
          "name" : "Various Artists",
          "type" : "artist",
          "uri" : "spotify:artist:0LyfQWJT6nXafLPZqxe9Of"
        } ],
        "external_urls" : {
          "spotify" : "https://open.spotify.com/album/03InW7jqdVFq5IJ22vrIMb"
        },
        "href" : "https://api.spotify.com/v1/albums/03InW7jqdVFq5IJ22vrIMb",
        "id" : "03InW7jqdVFq5IJ22vrIMb",
        "images" : [ {
          "height" : 640,
          "url" : "https://i.scdn.co/image/ab67616d0000b273794b8b41f096e9ccfdc7ec15",
          "width" : 640
        }, {
          "height" : 300,
          "url" : "https://i.scdn.co/image/ab67616d00001e02794b8b41f096e9ccfdc7ec15",
          "width" : 300
        }, {
          "height" : 64,
          "url" : "https://i.scdn.co/image/ab67616d00004851794b8b41f096e9ccfdc7ec15",
          "width" : 64
        } ],
        "name" : "50 Golden Hymns - Volume 2 - Great Is Thy Faithfulness",
        "release_date" : "2005",
        "release_date_precision" : "year",
        "total_tracks" : 16,
        "type" : "album",
        "uri" : "spotify:album:03InW7jqdVFq5IJ22vrIMb"
      },
      "artists" : [ {
        "external_urls" : {
          "spotify" : "https://open.spotify.com/artist/3fZ1FMwZqpQGJW82eeg2YN"
        },
        "href" : "https://api.spotify.com/v1/artists/3fZ1FMwZqpQGJW82eeg2YN",
        "id" : "3fZ1FMwZqpQGJW82eeg2YN",
        "name" : "David Shelley Ensemble",
        "type" : "artist",
        "uri" : "spotify:artist:3fZ1FMwZqpQGJW82eeg2YN"
      } ],
      "disc_number" : 1,
      "duration_ms" : 167266,
      "explicit" : false,
      "external_ids" : {
        "isrc" : "GBCEU0034514"
      },
      "external_urls" : {
        "spotify" : "https://open.spotify.com/track/5X6IKwFHaN3Qj5sdzv6WnG"
      },
      "href" : "https://api.spotify.com/v1/tracks/5X6IKwFHaN3Qj5sdzv6WnG",
      "id" : "5X6IKwFHaN3Qj5sdzv6WnG",
      "is_local" : false,
      "is_playable" : true,
      "name" : "I Am Trusting Thee, Lord Jesus",
      "popularity" : 1,
      "preview_url" : "https://p.scdn.co/mp3-preview/cf1bb40e274fc9963eb952df70dd4b72978ea607?cid=774b29d4f13844c495f206cafdad9c86",
      "track_number" : 14,
      "type" : "track",
      "uri" : "spotify:track:5X6IKwFHaN3Qj5sdzv6WnG"
    }, {
      "album" : {
        "album_type" : "album",
        "artists" : [ {
          "external_urls" : {
            "spotify" : "https://open.spotify.com/artist/5CYswfJ7zFsVEXJZTynPLr"
          },
          "href" : "https://api.spotify.com/v1/artists/5CYswfJ7zFsVEXJZTynPLr",
          "id" : "5CYswfJ7zFsVEXJZTynPLr",
          "name" : "Roger Jones",
          "type" : "artist",
          "uri" : "spotify:artist:5CYswfJ7zFsVEXJZTynPLr"
        } ],
        "external_urls" : {
          "spotify" : "https://open.spotify.com/album/6JRogUOYNxcqZQtv0hHPhp"
        },
        "href" : "https://api.spotify.com/v1/albums/6JRogUOYNxcqZQtv0hHPhp",
        "id" : "6JRogUOYNxcqZQtv0hHPhp",
        "images" : [ {
          "height" : 640,
          "url" : "https://i.scdn.co/image/ab67616d0000b2737acd823b341d68e1b436ed86",
          "width" : 640
        }, {
          "height" : 300,
          "url" : "https://i.scdn.co/image/ab67616d00001e027acd823b341d68e1b436ed86",
          "width" : 300
        }, {
          "height" : 64,
          "url" : "https://i.scdn.co/image/ab67616d000048517acd823b341d68e1b436ed86",
          "width" : 64
        } ],
        "name" : "The Roger Jones Hymn Collection",
        "release_date" : "2015-01-01",
        "release_date_precision" : "day",
        "total_tracks" : 41,
        "type" : "album",
        "uri" : "spotify:album:6JRogUOYNxcqZQtv0hHPhp"
      },
      "artists" : [ {
        "external_urls" : {
          "spotify" : "https://open.spotify.com/artist/5CYswfJ7zFsVEXJZTynPLr"
        },
        "href" : "https://api.spotify.com/v1/artists/5CYswfJ7zFsVEXJZTynPLr",
        "id" : "5CYswfJ7zFsVEXJZTynPLr",
        "name" : "Roger Jones",
        "type" : "artist",
        "uri" : "spotify:artist:5CYswfJ7zFsVEXJZTynPLr"
      } ],
      "disc_number" : 1,
      "duration_ms" : 156053,
      "explicit" : false,
      "external_ids" : {
        "isrc" : "usdy41871668"
      },
      "external_urls" : {
        "spotify" : "https://open.spotify.com/track/0cRss3kPay9m7qVmh6ELI1"
      },
      "href" : "https://api.spotify.com/v1/tracks/0cRss3kPay9m7qVmh6ELI1",
      "id" : "0cRss3kPay9m7qVmh6ELI1",
      "is_local" : false,
      "is_playable" : true,
      "name" : "I Am Trusting Thee Lord Jesus",
      "popularity" : 0,
      "preview_url" : "https://p.scdn.co/mp3-preview/233e7aea11d534e6c6f80aaed7c527c2af13fe1e?cid=774b29d4f13844c495f206cafdad9c86",
      "track_number" : 13,
      "type" : "track",
      "uri" : "spotify:track:0cRss3kPay9m7qVmh6ELI1"
    }, {
      "album" : {
        "album_type" : "album",
        "artists" : [ {
          "external_urls" : {
            "spotify" : "https://open.spotify.com/artist/57fiSnpzQICriJFSFuqHoa"
          },
          "href" : "https://api.spotify.com/v1/artists/57fiSnpzQICriJFSFuqHoa",
          "id" : "57fiSnpzQICriJFSFuqHoa",
          "name" : "Classic Worship",
          "type" : "artist",
          "uri" : "spotify:artist:57fiSnpzQICriJFSFuqHoa"
        } ],
        "external_urls" : {
          "spotify" : "https://open.spotify.com/album/0adBXU7arcFg4XkcCFY5I8"
        },
        "href" : "https://api.spotify.com/v1/albums/0adBXU7arcFg4XkcCFY5I8",
        "id" : "0adBXU7arcFg4XkcCFY5I8",
        "images" : [ {
          "height" : 640,
          "url" : "https://i.scdn.co/image/ab67616d0000b2735bf9c0e2b50f3ec5ebab67ca",
          "width" : 640
        }, {
          "height" : 300,
          "url" : "https://i.scdn.co/image/ab67616d00001e025bf9c0e2b50f3ec5ebab67ca",
          "width" : 300
        }, {
          "height" : 64,
          "url" : "https://i.scdn.co/image/ab67616d000048515bf9c0e2b50f3ec5ebab67ca",
          "width" : 64
        } ],
        "name" : "My Faith Looks Up To Thee - Hymns Of Hope from the Classic Worship series",
        "release_date" : "2013-03-08",
        "release_date_precision" : "day",
        "total_tracks" : 10,
        "type" : "album",
        "uri" : "spotify:album:0adBXU7arcFg4XkcCFY5I8"
      },
      "artists" : [ {
        "external_urls" : {
          "spotify" : "https://open.spotify.com/artist/1iEr9JmktmIMlaDLcSZFAL"
        },
        "href" : "https://api.spotify.com/v1/artists/1iEr9JmktmIMlaDLcSZFAL",
        "id" : "1iEr9JmktmIMlaDLcSZFAL",
        "name" : "The London Fox Players",
        "type" : "artist",
        "uri" : "spotify:artist:1iEr9JmktmIMlaDLcSZFAL"
      } ],
      "disc_number" : 1,
      "duration_ms" : 167933,
      "explicit" : false,
      "external_ids" : {
        "isrc" : "USG5S1223209"
      },
      "external_urls" : {
        "spotify" : "https://open.spotify.com/track/3DsSCg9JQ0vUGF6QncojbT"
      },
      "href" : "https://api.spotify.com/v1/tracks/3DsSCg9JQ0vUGF6QncojbT",
      "id" : "3DsSCg9JQ0vUGF6QncojbT",
      "is_local" : false,
      "is_playable" : true,
      "name" : "I Am Trusting Thee, Lord Jesus",
      "popularity" : 3,
      "preview_url" : "https://p.scdn.co/mp3-preview/1ee80c52ef513177a1cb169a7d4f482cc43afe4f?cid=774b29d4f13844c495f206cafdad9c86",
      "track_number" : 9,
      "type" : "track",
      "uri" : "spotify:track:3DsSCg9JQ0vUGF6QncojbT"
    }, {
      "album" : {
        "album_type" : "album",
        "artists" : [ {
          "external_urls" : {
            "spotify" : "https://open.spotify.com/artist/7HynjrqybRysLyVdcfA4nK"
          },
          "href" : "https://api.spotify.com/v1/artists/7HynjrqybRysLyVdcfA4nK",
          "id" : "7HynjrqybRysLyVdcfA4nK",
          "name" : "Christian Hymn Series",
          "type" : "artist",
          "uri" : "spotify:artist:7HynjrqybRysLyVdcfA4nK"
        } ],
        "external_urls" : {
          "spotify" : "https://open.spotify.com/album/0RDD3KtMubsYejRMcvTamn"
        },
        "href" : "https://api.spotify.com/v1/albums/0RDD3KtMubsYejRMcvTamn",
        "id" : "0RDD3KtMubsYejRMcvTamn",
        "images" : [ {
          "height" : 640,
          "url" : "https://i.scdn.co/image/ab67616d0000b27353f5843c51376444d11195ca",
          "width" : 640
        }, {
          "height" : 300,
          "url" : "https://i.scdn.co/image/ab67616d00001e0253f5843c51376444d11195ca",
          "width" : 300
        }, {
          "height" : 64,
          "url" : "https://i.scdn.co/image/ab67616d0000485153f5843c51376444d11195ca",
          "width" : 64
        } ],
        "name" : "Hymns of Trust",
        "release_date" : "2015-11-09",
        "release_date_precision" : "day",
        "total_tracks" : 24,
        "type" : "album",
        "uri" : "spotify:album:0RDD3KtMubsYejRMcvTamn"
      },
      "artists" : [ {
        "external_urls" : {
          "spotify" : "https://open.spotify.com/artist/7HynjrqybRysLyVdcfA4nK"
        },
        "href" : "https://api.spotify.com/v1/artists/7HynjrqybRysLyVdcfA4nK",
        "id" : "7HynjrqybRysLyVdcfA4nK",
        "name" : "Christian Hymn Series",
        "type" : "artist",
        "uri" : "spotify:artist:7HynjrqybRysLyVdcfA4nK"
      } ],
      "disc_number" : 1,
      "duration_ms" : 168000,
      "explicit" : false,
      "external_ids" : {
        "isrc" : "ushm81507839"
      },
      "external_urls" : {
        "spotify" : "https://open.spotify.com/track/3JP7zD4bmudT77Q3wk6z1p"
      },
      "href" : "https://api.spotify.com/v1/tracks/3JP7zD4bmudT77Q3wk6z1p",
      "id" : "3JP7zD4bmudT77Q3wk6z1p",
      "is_local" : false,
      "is_playable" : true,
      "name" : "I Am Trusting Thee Lord Jesus",
      "popularity" : 0,
      "preview_url" : "https://p.scdn.co/mp3-preview/18d7a61db2ecf414a1ad49176917b431cf8711fd?cid=774b29d4f13844c495f206cafdad9c86",
      "track_number" : 8,
      "type" : "track",
      "uri" : "spotify:track:3JP7zD4bmudT77Q3wk6z1p"
    } ],
    "limit" : 10,
    "next" : "https://api.spotify.com/v1/search?query=I+Am+Trusting+Thee%2C+Lord+Jesus&type=track&market=US&offset=15&limit=10",
    "offset" : 5,
    "previous" : "https://api.spotify.com/v1/search?query=I+Am+Trusting+Thee%2C+Lord+Jesus&type=track&market=US&offset=0&limit=10",
    "total" : 33
  }
}