{
  "tracks" : {
    "href" : "https://api.spotify.com/v1/search?query=It+Came+Upon+the+Midnight+Clear&type=track&market=US&offset=5&limit=10",
    "items" : [ {
      "album" : {
        "album_type" : "album",
        "artists" : [ {
          "external_urls" : {
            "spotify" : "https://open.spotify.com/artist/6ZjFtWeHP9XN7FeKSUe80S"
          },
          "href" : "https://api.spotify.com/v1/artists/6ZjFtWeHP9XN7FeKSUe80S",
          "id" : "6ZjFtWeHP9XN7FeKSUe80S",
          "name" : "Bing Crosby",
          "type" : "artist",
          "uri" : "spotify:artist:6ZjFtWeHP9XN7FeKSUe80S"
        } ],
        "external_urls" : {
          "spotify" : "https://open.spotify.com/album/3My4DXwRjAS5HXontsJx1A"
        },
        "href" : "https://api.spotify.com/v1/albums/3My4DXwRjAS5HXontsJx1A",
        "id" : "3My4DXwRjAS5HXontsJx1A",
        "images" : [ {
          "height" : 640,
          "url" : "https://i.scdn.co/image/ab67616d0000b2737459a0913548d00ff4455259",
          "width" : 640
        }, {
          "height" : 300,
          "url" : "https://i.scdn.co/image/ab67616d00001e027459a0913548d00ff4455259",
          "width" : 300
        }, {
          "height" : 64,
          "url" : "https://i.scdn.co/image/ab67616d000048517459a0913548d00ff4455259",
          "width" : 64
        } ],
        "name" : "Bing Crosby - Christmas Classics",
        "release_date" : "2006-01-01",
        "release_date_precision" : "day",
        "total_tracks" : 16,
        "type" : "album",
        "uri" : "spotify:album:3My4DXwRjAS5HXontsJx1A"
      },
      "artists" : [ {
        "external_urls" : {
          "spotify" : "https://open.spotify.com/artist/6ZjFtWeHP9XN7FeKSUe80S"
        },
        "href" : "https://api.spotify.com/v1/artists/6ZjFtWeHP9XN7FeKSUe80S",
        "id" : "6ZjFtWeHP9XN7FeKSUe80S",
        "name" : "Bing Crosby",
        "type" : "artist",
        "uri" : "spotify:artist:6ZjFtWeHP9XN7FeKSUe80S"
      } ],
      "disc_number" : 1,
      "duration_ms" : 186066,
      "explicit" : false,
      "external_ids" : {
        "isrc" : "USCA20600971"
      },
      "external_urls" : {
        "spotify" : "https://open.spotify.com/track/4BgkhT5HythXhIBqU2WvhX"
      },
      "href" : "https://api.spotify.com/v1/tracks/4BgkhT5HythXhIBqU2WvhX",
      "id" : "4BgkhT5HythXhIBqU2WvhX",
      "is_local" : false,
      "is_playable" : true,
      "name" : "Hark! The Herald Angels Sing/It Came Upon A Midnight Clear - Medley / Remastered 2006",
      "popularity" : 35,
      "preview_url" : null,
      "track_number" : 9,
      "type" : "track",
      "uri" : "spotify:track:4BgkhT5HythXhIBqU2WvhX"
    }, {
      "album" : {
        "album_type" : "album",
        "artists" : [ {
          "external_urls" : {
            "spotify" : "https://open.spotify.com/artist/0cylxW7HGdK9xMdubw2oYW"
          },
          "href" : "https://api.spotify.com/v1/artists/0cylxW7HGdK9xMdubw2oYW",
          "id" : "0cylxW7HGdK9xMdubw2oYW",
          "name" : "The O'Neill Brothers Group",
          "type" : "artist",
          "uri" : "spotify:artist:0cylxW7HGdK9xMdubw2oYW"
        } ],
        "external_urls" : {
          "spotify" : "https://open.spotify.com/album/3tVViOJ9rhKL3wR3POaQZ5"
        },
        "href" : "https://api.spotify.com/v1/albums/3tVViOJ9rhKL3wR3POaQZ5",
        "id" : "3tVViOJ9rhKL3wR3POaQZ5",
        "images" : [ {
          "height" : 640,
          "url" : "https://i.scdn.co/image/ab67616d0000b27303e440c02cbbc889da08f245",
          "width" : 640
        }, {
          "height" : 300,
          "url" : "https://i.scdn.co/image/ab67616d00001e0203e440c02cbbc889da08f245",
          "width" : 300
        }, {
          "height" : 64,
          "url" : "https://i.scdn.co/image/ab67616d0000485103e440c02cbbc889da08f245",
          "width" : 64
        } ],
        "name" : "Christmas Instrumentals: Piano & Cello",
        "release_date" : "2013-10-08",
        "release_date_precision" : "day",
        "total_tracks" : 17,
        "type" : "album",
        "uri" : "spotify:album:3tVViOJ9rhKL3wR3POaQZ5"
      },
      "artists" : [ {
        "external_urls" : {
          "spotify" : "https://open.spotify.com/artist/0cylxW7HGdK9xMdubw2oYW"
        },
        "href" : "https://api.spotify.com/v1/artists/0cylxW7HGdK9xMdubw2oYW",
        "id" : "0cylxW7HGdK9xMdubw2oYW",
        "name" : "The O'Neill Brothers Group",
        "type" : "artist",
        "uri" : "spotify:artist:0cylxW7HGdK9xMdubw2oYW"
      } ],
      "disc_number" : 1,
      "duration_ms" : 186466,
      "explicit" : false,
      "external_ids" : {
        "isrc" : "USV291352946"
      },
      "external_urls" : {
        "spotify" : "https://open.spotify.com/track/0I2R95c3LFQBXkBVUIp0gL"
      },
      "href" : "https://api.spotify.com/v1/tracks/0I2R95c3LFQBXkBVUIp0gL",
      "id" : "0I2R95c3LFQBXkBVUIp0gL",
      "is_local" : false,
      "is_playable" : true,
      "name" : "It Came Upon a Midnight Clear",
      "popularity" : 21,
      "preview_url" : "https://p.scdn.co/mp3-preview/23a9c3f544171bc47397428b3768fdd158c98bad?cid=774b29d4f13844c495f206cafdad9c86",
      "track_number" : 2,
      "type" : "track",
      "uri" : "spotify:track:0I2R95c3LFQBXkBVUIp0gL"
    }, {
      "album" : {
        "album_type" : "album",
        "artists" : [ {
          "external_urls" : {
            "spotify" : "https://open.spotify.com/artist/6bMxHu7FlVXvoTWra0a5eW"
          },
          "href" : "https://api.spotify.com/v1/artists/6bMxHu7FlVXvoTWra0a5eW",
          "id" : "6bMxHu7FlVXvoTWra0a5eW",
          "name" : "The LDS Christmas Ensemble",
          "type" : "artist",
          "uri" : "spotify:artist:6bMxHu7FlVXvoTWra0a5eW"
        } ],
        "external_urls" : {
          "spotify" : "https://open.spotify.com/album/14Cn23PXCwbiZhNnUKoKGd"
        },
        "href" : "https://api.spotify.com/v1/albums/14Cn23PXCwbiZhNnUKoKGd",
        "id" : "14Cn23PXCwbiZhNnUKoKGd",
        "images" : [ {
          "height" : 640,
          "url" : "https://i.scdn.co/image/ab67616d0000b27348f78bd3fcce8165c6c182fa",
          "width" : 640
        }, {
          "height" : 300,
          "url" : "https://i.scdn.co/image/ab67616d00001e0248f78bd3fcce8165c6c182fa",
          "width" : 300
        }, {
          "height" : 64,
          "url" : "https://i.scdn.co/image/ab67616d0000485148f78bd3fcce8165c6c182fa",
          "width" : 64
        } ],
        "name" : "Christmas Joy",
        "release_date" : "2015-05-10",
        "release_date_precision" : "day",
        "total_tracks" : 18,
        "type" : "album",
        "uri" : "spotify:album:14Cn23PXCwbiZhNnUKoKGd"
      },
      "artists" : [ {
        "external_urls" : {
          "spotify" : "https://open.spotify.com/artist/6bMxHu7FlVXvoTWra0a5eW"
        },
        "href" : "https://api.spotify.com/v1/artists/6bMxHu7FlVXvoTWra0a5eW",
        "id" : "6bMxHu7FlVXvoTWra0a5eW",
        "name" : "The LDS Christmas Ensemble",
        "type" : "artist",
        "uri" : "spotify:artist:6bMxHu7FlVXvoTWra0a5eW"
      } ],
      "disc_number" : 1,
      "duration_ms" : 122033,
      "explicit" : false,
      "external_ids" : {
        "isrc" : "USLZJ1523928"
      },
      "external_urls" : {
        "spotify" : "https://open.spotify.com/track/5OC5d0GwWk8DTZk78aUjPv"
      },
      "href" : "https://api.spotify.com/v1/tracks/5OC5d0GwWk8DTZk78aUjPv",
      "id" : "5OC5d0GwWk8DTZk78aUjPv",
      "is_local" : false,
      "is_playable" : true,
      "name" : "It Came Upon A Midnight Clear",
      "popularity" : 14,
      "preview_url" : "https://p.scdn.co/mp3-preview/adc5a99b3fd085f384eaa376555d7faadab56f21?cid=774b29d4f13844c495f206cafdad9c86",
      "track_number" : 8,
      "type" : "track",
      "uri" : "spotify:track:5OC5d0GwWk8DTZk78aUjPv"
    }, {
      "album" : {
        "album_type" : "album",
        "artists" : [ {
          "external_urls" : {
            "spotify" : "https://open.spotify.com/artist/1eEfMU2AhEo7XnKgL7c304"
          },
          "href" : "https://api.spotify.com/v1/artists/1eEfMU2AhEo7XnKgL7c304",
          "id" : "1eEfMU2AhEo7XnKgL7c304",
          "name" : "Carpenters",
          "type" : "artist",
          "uri" : "spotify:artist:1eEfMU2AhEo7XnKgL7c304"
        } ],
        "external_urls" : {
          "spotify" : "https://open.spotify.com/album/5GMAtv4CU6GYQMo36Uuiqc"
        },
        "href" : "https://api.spotify.com/v1/albums/5GMAtv4CU6GYQMo36Uuiqc",
        "id" : "5GMAtv4CU6GYQMo36Uuiqc",
        "images" : [ {
          "height" : 640,
          "url" : "https://i.scdn.co/image/ab67616d0000b273d044360064a0177e4208a870",
          "width" : 640
        }, {
          "height" : 300,
          "url" : "https://i.scdn.co/image/ab67616d00001e02d044360064a0177e4208a870",
          "width" : 300
        }, {
          "height" : 64,
          "url" : "https://i.scdn.co/image/ab67616d00004851d044360064a0177e4208a870",
          "width" : 64
        } ],
        "name" : "Christmas Portrait (Special Edition/Reissue)",
        "release_date" : "1978-10-13",
        "release_date_precision" : "day",
        "total_tracks" : 21,
        "type" : "album",
        "uri" : "spotify:album:5GMAtv4CU6GYQMo36Uuiqc"
      },
      "artists" : [ {
        "external_urls" : {
          "spotify" : "https://open.spotify.com/artist/1eEfMU2AhEo7XnKgL7c304"
        },
        "href" : "https://api.spotify.com/v1/artists/1eEfMU2AhEo7XnKgL7c304",
        "id" : "1eEfMU2AhEo7XnKgL7c304",
        "name" : "Carpenters",
        "type" : "artist",
        "uri" : "spotify:artist:1eEfMU2AhEo7XnKgL7c304"
      } ],
      "disc_number" : 1,
      "duration_ms" : 44160,
      "explicit" : false,
      "external_ids" : {
        "isrc" : "USAM18400372"
      },
      "external_urls" : {
        "spotify" : "https://open.spotify.com/track/7tW58JlsE69cQl6MRiH3ru"
      },
      "href" : "https://api.spotify.com/v1/tracks/7tW58JlsE69cQl6MRiH3ru",
      "id" : "7tW58JlsE69cQl6MRiH3ru",
      "is_local" : false,
      "is_playable" : true,
      "name" : "It Came Upon A Midnight Clear",
      "popularity" : 17,
      "preview_url" : null,
      "track_number" : 1,
      "type" : "track",
      "uri" : "spotify:track:7tW58JlsE69cQl6MRiH3ru"
    }, {
      "album" : {
        "album_type" : "album",
        "artists" : [ {
          "external_urls" : {
            "spotify" : "https://open.spotify.com/artist/3fRnAgLmIBdCFQ9LrI15pV"
          },
          "href" : "https://api.spotify.com/v1/artists/3fRnAgLmIBdCFQ9LrI15pV",
          "id" : "3fRnAgLmIBdCFQ9LrI15pV",
          "name" : "Amanda of the Choir",
          "type" : "artist",
          "uri" : "spotify:artist:3fRnAgLmIBdCFQ9LrI15pV"
        } ],
        "external_urls" : {
          "spotify" : "https://open.spotify.com/album/2BPhQ1KVinIX0LF1wuZP1O"
        },
        "href" : "https://api.spotify.com/v1/albums/2BPhQ1KVinIX0LF1wuZP1O",
        "id" : "2BPhQ1KVinIX0LF1wuZP1O",
        "images" : [ {
          "height" : 640,
          "url" : "https://i.scdn.co/image/ab67616d0000b27309100a18d3ce1058afead113",
          "width" : 640
        }, {
          "height" : 300,
          "url" : "https://i.scdn.co/image/ab67616d00001e0209100a18d3ce1058afead113",
          "width" : 300
        }, {
          "height" : 64,
          "url" : "https://i.scdn.co/image/ab67616d0000485109100a18d3ce1058afead113",
          "width" : 64
        } ],
        "name" : "Pink Christmas",
        "release_date" : "2013-06-05",
        "release_date_precision" : "day",
        "total_tracks" : 16,
        "type" : "album",
        "uri" : "spotify:album:2BPhQ1KVinIX0LF1wuZP1O"
      },
      "artists" : [ {
        "external_urls" : {
          "spotify" : "https://open.spotify.com/artist/3fRnAgLmIBdCFQ9LrI15pV"
        },
        "href" : "https://api.spotify.com/v1/artists/3fRnAgLmIBdCFQ9LrI15pV",
        "id" : "3fRnAgLmIBdCFQ9LrI15pV",
        "name" : "Amanda of the Choir",
        "type" : "artist",
        "uri" : "spotify:artist:3fRnAgLmIBdCFQ9LrI15pV"
      } ],
      "disc_number" : 1,
      "duration_ms" : 203053,
      "explicit" : false,
      "external_ids" : {
        "isrc" : "ushm21377340"
      },
      "external_urls" : {
        "spotify" : "https://open.spotify.com/track/34RO4T66BVBR86p65VSbHS"
      },
      "href" : "https://api.spotify.com/v1/tracks/34RO4T66BVBR86p65VSbHS",
      "id" : "34RO4T66BVBR86p65VSbHS",
      "is_local" : false,
      "is_playable" : true,
      "name" : "It Came Upon a Midnight Clear/ What Child Is This",
      "popularity" : 14,
      "preview_url" : "https://p.scdn.co/mp3-preview/a666c329f9570196fdbd2f7144b0f8684301a690?cid=774b29d4f13844c495f206cafdad9c86",
      "track_number" : 15,
      "type" : "track",
      "uri" : "spotify:track:34RO4T66BVBR86p65VSbHS"
    }, {
      "album" : {
        "album_type" : "album",
        "artists" : [ {
          "external_urls" : {
            "spotify" : "https://open.spotify.com/artist/21LGsW7bziR4Ledx7WZ1Wf"
          },
          "href" : "https://api.spotify.com/v1/artists/21LGsW7bziR4Ledx7WZ1Wf",
          "id" : "21LGsW7bziR4Ledx7WZ1Wf",
          "name" : "Johnny Mathis",
          "type" : "artist",
          "uri" : "spotify:artist:21LGsW7bziR4Ledx7WZ1Wf"
        } ],
        "external_urls" : {
          "spotify" : "https://open.spotify.com/album/3pHNZvjNOHJX8G9Y0OmIzG"
        },
        "href" : "https://api.spotify.com/v1/albums/3pHNZvjNOHJX8G9Y0OmIzG",
        "id" : "3pHNZvjNOHJX8G9Y0OmIzG",
        "images" : [ {
          "height" : 640,
          "url" : "https://i.scdn.co/image/ab67616d0000b273c233ef0dd00596da38625eb0",
          "width" : 640
        }, {
          "height" : 300,
          "url" : "https://i.scdn.co/image/ab67616d00001e02c233ef0dd00596da38625eb0",
          "width" : 300
        }, {
          "height" : 64,
          "url" : "https://i.scdn.co/image/ab67616d00004851c233ef0dd00596da38625eb0",
          "width" : 64
        } ],
        "name" : "Merry Christmas",
        "release_date" : "1958-10-06",
        "release_date_precision" : "day",
        "total_tracks" : 12,
        "type" : "album",
        "uri" : "spotify:album:3pHNZvjNOHJX8G9Y0OmIzG"
      },
      "artists" : [ {
        "external_urls" : {
          "spotify" : "https://open.spotify.com/artist/21LGsW7bziR4Ledx7WZ1Wf"
        },
        "href" : "https://api.spotify.com/v1/artists/21LGsW7bziR4Ledx7WZ1Wf",
        "id" : "21LGsW7bziR4Ledx7WZ1Wf",
        "name" : "Johnny Mathis",
        "type" : "artist",
        "uri" : "spotify:artist:21LGsW7bziR4Ledx7WZ1Wf"
      } ],
      "disc_number" : 1,
      "duration_ms" : 188106,
      "explicit" : false,
      "external_ids" : {
        "isrc" : "USSM10018739"
      },
      "external_urls" : {
        "spotify" : "https://open.spotify.com/track/7LaqOApHAiVWy9t1xCqEru"
      },
      "href" : "https://api.spotify.com/v1/tracks/7LaqOApHAiVWy9t1xCqEru",
      "id" : "7LaqOApHAiVWy9t1xCqEru",
      "is_local" : false,
      "is_playable" : true,
      "name" : "It Came Upon the Midnight Clear",
      "popularity" : 14,
      "preview_url" : "https://p.scdn.co/mp3-preview/76ad59cd40979c21df006f4aef7afb737e6fa900?cid=774b29d4f13844c495f206cafdad9c86",
      "track_number" : 11,
      "type" : "track",
      "uri" : "spotify:track:7LaqOApHAiVWy9t1xCqEru"
    }, {
      "album" : {
        "album_type" : "album",
        "artists" : [ {
          "external_urls" : {
            "spotify" : "https://open.spotify.com/artist/5CFfNUXGquazppSsaD7BdT"
          },
          "href" : "https://api.spotify.com/v1/artists/5CFfNUXGquazppSsaD7BdT",
          "id" : "5CFfNUXGquazppSsaD7BdT",
          "name" : "Amy B. Hansen",
          "type" : "artist",
          "uri" : "spotify:artist:5CFfNUXGquazppSsaD7BdT"
        } ],
        "external_urls" : {
          "spotify" : "https://open.spotify.com/album/0jA4LGMGYkkvrDL5IhgT67"
        },
        "href" : "https://api.spotify.com/v1/albums/0jA4LGMGYkkvrDL5IhgT67",
        "id" : "0jA4LGMGYkkvrDL5IhgT67",
        "images" : [ {
          "height" : 640,
          "url" : "https://i.scdn.co/image/ab67616d0000b273cb6d013af7db92f57df35851",
          "width" : 640
        }, {
          "height" : 300,
          "url" : "https://i.scdn.co/image/ab67616d00001e02cb6d013af7db92f57df35851",
          "width" : 300
        }, {
          "height" : 64,
          "url" : "https://i.scdn.co/image/ab67616d00004851cb6d013af7db92f57df35851",
          "width" : 64
        } ],
        "name" : "Piano Noel Classics",
        "release_date" : "2010-11-01",
        "release_date_precision" : "day",
        "total_tracks" : 9,
        "type" : "album",
        "uri" : "spotify:album:0jA4LGMGYkkvrDL5IhgT67"
      },
      "artists" : [ {
        "external_urls" : {
          "spotify" : "https://open.spotify.com/artist/5CFfNUXGquazppSsaD7BdT"
        },
        "href" : "https://api.spotify.com/v1/artists/5CFfNUXGquazppSsaD7BdT",
        "id" : "5CFfNUXGquazppSsaD7BdT",
        "name" : "Amy B. Hansen",
        "type" : "artist",
        "uri" : "spotify:artist:5CFfNUXGquazppSsaD7BdT"
      } ],
      "disc_number" : 1,
      "duration_ms" : 233893,
      "explicit" : false,
      "external_ids" : {
        "isrc" : "ushm91048102"
      },
      "external_urls" : {
        "spotify" : "https://open.spotify.com/track/6fXAe2Lhh6FqzlTW7reLP8"
      },
      "href" : "https://api.spotify.com/v1/tracks/6fXAe2Lhh6FqzlTW7reLP8",
      "id" : "6fXAe2Lhh6FqzlTW7reLP8",
      "is_local" : false,
      "is_playable" : true,
      "name" : "It Came Upon the Midnight Clear",
      "popularity" : 13,
      "preview_url" : "https://p.scdn.co/mp3-preview/75abaf143d20ae88a3b915041aa296680b34656e?cid=774b29d4f13844c495f206cafdad9c86",
      "track_number" : 2,
      "type" : "track",
      "uri" : "spotify:track:6fXAe2Lhh6FqzlTW7reLP8"
    }, {
      "album" : {
        "album_type" : "album",
        "artists" : [ {
          "external_urls" : {
            "spotify" : "https://open.spotify.com/artist/6APm8EjxOHSYM5B4i3vT3q"
          },
          "href" : "https://api.spotify.com/v1/artists/6APm8EjxOHSYM5B4i3vT3q",
          "id" : "6APm8EjxOHSYM5B4i3vT3q",
          "name" : "MercyMe",
          "type" : "artist",
          "uri" : "spotify:artist:6APm8EjxOHSYM5B4i3vT3q"
        } ],
        "external_urls" : {
          "spotify" : "https://open.spotify.com/album/4Y7m2tcSdLbnw0KKolFZg3"
        },
        "href" : "https://api.spotify.com/v1/albums/4Y7m2tcSdLbnw0KKolFZg3",
        "id" : "4Y7m2tcSdLbnw0KKolFZg3",
        "images" : [ {
          "height" : 640,
          "url" : "https://i.scdn.co/image/ab67616d0000b273e33ec39a81a0d2965ac93256",
          "width" : 640
        }, {
          "height" : 300,
          "url" : "https://i.scdn.co/image/ab67616d00001e02e33ec39a81a0d2965ac93256",
          "width" : 300
        }, {
          "height" : 64,
          "url" : "https://i.scdn.co/image/ab67616d00004851e33ec39a81a0d2965ac93256",
          "width" : 64
        } ],
        "name" : "The Christmas Sessions",
        "release_date" : "2005-09-27",
        "release_date_precision" : "day",
        "total_tracks" : 12,
        "type" : "album",
        "uri" : "spotify:album:4Y7m2tcSdLbnw0KKolFZg3"
      },
      "artists" : [ {
        "external_urls" : {
          "spotify" : "https://open.spotify.com/artist/6APm8EjxOHSYM5B4i3vT3q"
        },
        "href" : "https://api.spotify.com/v1/artists/6APm8EjxOHSYM5B4i3vT3q",
        "id" : "6APm8EjxOHSYM5B4i3vT3q",
        "name" : "MercyMe",
        "type" : "artist",
        "uri" : "spotify:artist:6APm8EjxOHSYM5B4i3vT3q"
      } ],
      "disc_number" : 1,
      "duration_ms" : 278533,
      "explicit" : false,
      "external_ids" : {
        "isrc" : "USM2C0556301"
      },
      "external_urls" : {
        "spotify" : "https://open.spotify.com/track/5K5t0iVoucoNl7q5gxVLfr"
      },
      "href" : "https://api.spotify.com/v1/tracks/5K5t0iVoucoNl7q5gxVLfr",
      "id" : "5K5t0iVoucoNl7q5gxVLfr",
      "is_local" : false,
      "is_playable" : true,
      "name" : "It Came Upon A Midnight Clear",
      "popularity" : 11,
      "preview_url" : "https://p.scdn.co/mp3-preview/2b16575011e1ee3c6f8c20046bb0b1f07c14c6fb?cid=774b29d4f13844c495f206cafdad9c86",
      "track_number" : 1,
      "type" : "track",
      "uri" : "spotify:track:5K5t0iVoucoNl7q5gxVLfr"
    }, {
      "album" : {
        "album_type" : "album",
        "artists" : [ {
          "external_urls" : {
            "spotify" : "https://open.spotify.com/artist/5gYIhpLwCYoxh3V8KANZpI"
          },
          "href" : "https://api.spotify.com/v1/artists/5gYIhpLwCYoxh3V8KANZpI",
          "id" : "5gYIhpLwCYoxh3V8KANZpI",
          "name" : "Beegie Adair",
          "type" : "artist",
          "uri" : "spotify:artist:5gYIhpLwCYoxh3V8KANZpI"
        } ],
        "external_urls" : {
          "spotify" : "https://open.spotify.com/album/5UA8tyVUcZI7EzW1O2JFFx"
        },
        "href" : "https://api.spotify.com/v1/albums/5UA8tyVUcZI7EzW1O2JFFx",
        "id" : "5UA8tyVUcZI7EzW1O2JFFx",
        "images" : [ {
          "height" : 640,
          "url" : "https://i.scdn.co/image/ab67616d0000b273c4768ede62d9ff79ce7dd90d",
          "width" : 640
        }, {
          "height" : 300,
          "url" : "https://i.scdn.co/image/ab67616d00001e02c4768ede62d9ff79ce7dd90d",
          "width" : 300
        }, {
          "height" : 64,
          "url" : "https://i.scdn.co/image/ab67616d00004851c4768ede62d9ff79ce7dd90d",
          "width" : 64
        } ],
        "name" : "The Ultimate Christmas Playlist",
        "release_date" : "2016-11-18",
        "release_date_precision" : "day",
        "total_tracks" : 22,
        "type" : "album",
        "uri" : "spotify:album:5UA8tyVUcZI7EzW1O2JFFx"
      },
      "artists" : [ {
        "external_urls" : {
          "spotify" : "https://open.spotify.com/artist/5gYIhpLwCYoxh3V8KANZpI"
        },
        "href" : "https://api.spotify.com/v1/artists/5gYIhpLwCYoxh3V8KANZpI",
        "id" : "5gYIhpLwCYoxh3V8KANZpI",
        "name" : "Beegie Adair",
        "type" : "artist",
        "uri" : "spotify:artist:5gYIhpLwCYoxh3V8KANZpI"
      } ],
      "disc_number" : 1,
      "duration_ms" : 132013,
      "explicit" : false,
      "external_ids" : {
        "isrc" : "QMQME1200109"
      },
      "external_urls" : {
        "spotify" : "https://open.spotify.com/track/5pGOgKRORds44367sedg3t"
      },
      "href" : "https://api.spotify.com/v1/tracks/5pGOgKRORds44367sedg3t",
      "id" : "5pGOgKRORds44367sedg3t",
      "is_local" : false,
      "is_playable" : true,
      "name" : "It Came Upon A Midnight Clear",
      "popularity" : 16,
      "preview_url" : null,
      "track_number" : 12,
      "type" : "track",
      "uri" : "spotify:track:5pGOgKRORds44367sedg3t"
    }, {
      "album" : {
        "album_type" : "album",
        "artists" : [ {
          "external_urls" : {
            "spotify" : "https://open.spotify.com/artist/5Pqc0ZFA20Y9zGJZ3ojUin"
          },
          "href" : "https://api.spotify.com/v1/artists/5Pqc0ZFA20Y9zGJZ3ojUin",
          "id" : "5Pqc0ZFA20Y9zGJZ3ojUin",
          "name" : "Charlie Haden",
          "type" : "artist",
          "uri" : "spotify:artist:5Pqc0ZFA20Y9zGJZ3ojUin"
        }, {
          "external_urls" : {
            "spotify" : "https://open.spotify.com/artist/0BhFfJmScFj7OzqVaDqnSv"
          },
          "href" : "https://api.spotify.com/v1/artists/0BhFfJmScFj7OzqVaDqnSv",
          "id" : "0BhFfJmScFj7OzqVaDqnSv",
          "name" : "Hank Jones",
          "type" : "artist",
          "uri" : "spotify:artist:0BhFfJmScFj7OzqVaDqnSv"
        } ],
        "external_urls" : {
          "spotify" : "https://open.spotify.com/album/2ntGI3niS9mmoSvTdt4BtS"
        },
        "href" : "https://api.spotify.com/v1/albums/2ntGI3niS9mmoSvTdt4BtS",
        "id" : "2ntGI3niS9mmoSvTdt4BtS",
        "images" : [ {
          "height" : 640,
          "url" : "https://i.scdn.co/image/ab67616d0000b273657c1cea0ff28521394e0b0d",
          "width" : 640
        }, {
          "height" : 300,
          "url" : "https://i.scdn.co/image/ab67616d00001e02657c1cea0ff28521394e0b0d",
          "width" : 300
        }, {
          "height" : 64,
          "url" : "https://i.scdn.co/image/ab67616d00004851657c1cea0ff28521394e0b0d",
          "width" : 64
        } ],
        "name" : "Come Sunday",
        "release_date" : "2012",
        "release_date_precision" : "year",
        "total_tracks" : 14,
        "type" : "album",
        "uri" : "spotify:album:2ntGI3niS9mmoSvTdt4BtS"
      },
      "artists" : [ {
        "external_urls" : {
          "spotify" : "https://open.spotify.com/artist/5Pqc0ZFA20Y9zGJZ3ojUin"
        },
        "href" : "https://api.spotify.com/v1/artists/5Pqc0ZFA20Y9zGJZ3ojUin",
        "id" : "5Pqc0ZFA20Y9zGJZ3ojUin",
        "name" : "Charlie Haden",
        "type" : "artist",
        "uri" : "spotify:artist:5Pqc0ZFA20Y9zGJZ3ojUin"
      }, {
        "external_urls" : {
          "spotify" : "https://open.spotify.com/artist/0BhFfJmScFj7OzqVaDqnSv"
        },
        "href" : "https://api.spotify.com/v1/artists/0BhFfJmScFj7OzqVaDqnSv",
        "id" : "0BhFfJmScFj7OzqVaDqnSv",
        "name" : "Hank Jones",
        "type" : "artist",
        "uri" : "spotify:artist:0BhFfJmScFj7OzqVaDqnSv"
      } ],
      "disc_number" : 1,
      "duration_ms" : 176653,
      "explicit" : false,
      "external_ids" : {
        "isrc" : "GBUM71110378"
      },
      "external_urls" : {
        "spotify" : "https://open.spotify.com/track/7gbZeIU3TGScmZthBfv7n8"
      },
      "href" : "https://api.spotify.com/v1/tracks/7gbZeIU3TGScmZthBfv7n8",
      "id" : "7gbZeIU3TGScmZthBfv7n8",
      "is_local" : false,
      "is_playable" : true,
      "name" : "It Came Upon The Midnight Clear",
      "popularity" : 15,
      "preview_url" : null,
      "track_number" : 6,
      "type" : "track",
      "uri" : "spotify:track:7gbZeIU3TGScmZthBfv7n8"
    } ],
    "limit" : 10,
    "next" : "https://api.spotify.com/v1/search?query=It+Came+Upon+the+Midnight+Clear&type=track&market=US&offset=15&limit=10",
    "offset" : 5,
    "previous" : "https://api.spotify.com/v1/search?query=It+Came+Upon+the+Midnight+Clear&type=track&market=US&offset=0&limit=10",
    "total" : 3039
  }
}