{
  "tracks" : {
    "href" : "https://api.spotify.com/v1/search?query=Rescue+the+Perishing&type=track&market=US&offset=5&limit=10",
    "items" : [ {
      "album" : {
        "album_type" : "album",
        "artists" : [ {
          "external_urls" : {
            "spotify" : "https://open.spotify.com/artist/7gU0P9itaDZysz7DMkuL3l"
          },
          "href" : "https://api.spotify.com/v1/artists/7gU0P9itaDZysz7DMkuL3l",
          "id" : "7gU0P9itaDZysz7DMkuL3l",
          "name" : "Rasmussen Family",
          "type" : "artist",
          "uri" : "spotify:artist:7gU0P9itaDZysz7DMkuL3l"
        } ],
        "external_urls" : {
          "spotify" : "https://open.spotify.com/album/2YcSUI07DFpFPSMgPLc2Hz"
        },
        "href" : "https://api.spotify.com/v1/albums/2YcSUI07DFpFPSMgPLc2Hz",
        "id" : "2YcSUI07DFpFPSMgPLc2Hz",
        "images" : [ {
          "height" : 640,
          "url" : "https://i.scdn.co/image/ab67616d0000b2736246f10a703036c3cecaff73",
          "width" : 640
        }, {
          "height" : 300,
          "url" : "https://i.scdn.co/image/ab67616d00001e026246f10a703036c3cecaff73",
          "width" : 300
        }, {
          "height" : 64,
          "url" : "https://i.scdn.co/image/ab67616d000048516246f10a703036c3cecaff73",
          "width" : 64
        } ],
        "name" : "My Soul Restored",
        "release_date" : "2017-04-04",
        "release_date_precision" : "day",
        "total_tracks" : 14,
        "type" : "album",
        "uri" : "spotify:album:2YcSUI07DFpFPSMgPLc2Hz"
      },
      "artists" : [ {
        "external_urls" : {
          "spotify" : "https://open.spotify.com/artist/7gU0P9itaDZysz7DMkuL3l"
        },
        "href" : "https://api.spotify.com/v1/artists/7gU0P9itaDZysz7DMkuL3l",
        "id" : "7gU0P9itaDZysz7DMkuL3l",
        "name" : "Rasmussen Family",
        "type" : "artist",
        "uri" : "spotify:artist:7gU0P9itaDZysz7DMkuL3l"
      } ],
      "disc_number" : 1,
      "duration_ms" : 219892,
      "explicit" : false,
      "external_ids" : {
        "isrc" : "uscgj1771429"
      },
      "external_urls" : {
        "spotify" : "https://open.spotify.com/track/4oT6qYoFUSGY5O85Jshcsl"
      },
      "href" : "https://api.spotify.com/v1/tracks/4oT6qYoFUSGY5O85Jshcsl",
      "id" : "4oT6qYoFUSGY5O85Jshcsl",
      "is_local" : false,
      "is_playable" : true,
      "name" : "Rescue the Perishing",
      "popularity" : 9,
      "preview_url" : "https://p.scdn.co/mp3-preview/0422f36a782d63850b2e804e261023688afc82d2?cid=774b29d4f13844c495f206cafdad9c86",
      "track_number" : 5,
      "type" : "track",
      "uri" : "spotify:track:4oT6qYoFUSGY5O85Jshcsl"
    }, {
      "album" : {
        "album_type" : "compilation",
        "artists" : [ {
          "external_urls" : {
            "spotify" : "https://open.spotify.com/artist/0LyfQWJT6nXafLPZqxe9Of"
          },
          "href" : "https://api.spotify.com/v1/artists/0LyfQWJT6nXafLPZqxe9Of",
          "id" : "0LyfQWJT6nXafLPZqxe9Of",
          "name" : "Various Artists",
          "type" : "artist",
          "uri" : "spotify:artist:0LyfQWJT6nXafLPZqxe9Of"
        } ],
        "external_urls" : {
          "spotify" : "https://open.spotify.com/album/4tMWO8uwtzX7rj6KbojSnm"
        },
        "href" : "https://api.spotify.com/v1/albums/4tMWO8uwtzX7rj6KbojSnm",
        "id" : "4tMWO8uwtzX7rj6KbojSnm",
        "images" : [ {
          "height" : 640,
          "url" : "https://i.scdn.co/image/ab67616d0000b2734acafa2804b2fadf0ae183fc",
          "width" : 640
        }, {
          "height" : 300,
          "url" : "https://i.scdn.co/image/ab67616d00001e024acafa2804b2fadf0ae183fc",
          "width" : 300
        }, {
          "height" : 64,
          "url" : "https://i.scdn.co/image/ab67616d000048514acafa2804b2fadf0ae183fc",
          "width" : 64
        } ],
        "name" : "Requested Favorites And New Songs",
        "release_date" : "2008-04-22",
        "release_date_precision" : "day",
        "total_tracks" : 40,
        "type" : "album",
        "uri" : "spotify:album:4tMWO8uwtzX7rj6KbojSnm"
      },
      "artists" : [ {
        "external_urls" : {
          "spotify" : "https://open.spotify.com/artist/6zCKr405jB5b6QI1IfFnf2"
        },
        "href" : "https://api.spotify.com/v1/artists/6zCKr405jB5b6QI1IfFnf2",
        "id" : "6zCKr405jB5b6QI1IfFnf2",
        "name" : "Dallas Christian Adult Concert Choir",
        "type" : "artist",
        "uri" : "spotify:artist:6zCKr405jB5b6QI1IfFnf2"
      } ],
      "disc_number" : 1,
      "duration_ms" : 128759,
      "explicit" : false,
      "external_ids" : {
        "isrc" : "USMZA0811366"
      },
      "external_urls" : {
        "spotify" : "https://open.spotify.com/track/7zv7P56D9G7MSw64cmU17s"
      },
      "href" : "https://api.spotify.com/v1/tracks/7zv7P56D9G7MSw64cmU17s",
      "id" : "7zv7P56D9G7MSw64cmU17s",
      "is_local" : false,
      "is_playable" : true,
      "name" : "Rescue The Perishing",
      "popularity" : 10,
      "preview_url" : "https://p.scdn.co/mp3-preview/5650e23f5aa764ca64ab616f647fd69653393262?cid=774b29d4f13844c495f206cafdad9c86",
      "track_number" : 16,
      "type" : "track",
      "uri" : "spotify:track:7zv7P56D9G7MSw64cmU17s"
    }, {
      "album" : {
        "album_type" : "album",
        "artists" : [ {
          "external_urls" : {
            "spotify" : "https://open.spotify.com/artist/41hCpLaR1bEW5ETK3aPvDB"
          },
          "href" : "https://api.spotify.com/v1/artists/41hCpLaR1bEW5ETK3aPvDB",
          "id" : "41hCpLaR1bEW5ETK3aPvDB",
          "name" : "The Eden Symphony Orchestra",
          "type" : "artist",
          "uri" : "spotify:artist:41hCpLaR1bEW5ETK3aPvDB"
        } ],
        "external_urls" : {
          "spotify" : "https://open.spotify.com/album/0H7uBYBzinOh4h39BxZE7u"
        },
        "href" : "https://api.spotify.com/v1/albums/0H7uBYBzinOh4h39BxZE7u",
        "id" : "0H7uBYBzinOh4h39BxZE7u",
        "images" : [ {
          "height" : 640,
          "url" : "https://i.scdn.co/image/ab67616d0000b2739580f0296eb7ae45530f1b9a",
          "width" : 640
        }, {
          "height" : 300,
          "url" : "https://i.scdn.co/image/ab67616d00001e029580f0296eb7ae45530f1b9a",
          "width" : 300
        }, {
          "height" : 64,
          "url" : "https://i.scdn.co/image/ab67616d000048519580f0296eb7ae45530f1b9a",
          "width" : 64
        } ],
        "name" : "50 Orchestral Hymns 3CD",
        "release_date" : "2005",
        "release_date_precision" : "year",
        "total_tracks" : 50,
        "type" : "album",
        "uri" : "spotify:album:0H7uBYBzinOh4h39BxZE7u"
      },
      "artists" : [ {
        "external_urls" : {
          "spotify" : "https://open.spotify.com/artist/31QCeiOTLj23gESPlqEB9v"
        },
        "href" : "https://api.spotify.com/v1/artists/31QCeiOTLj23gESPlqEB9v",
        "id" : "31QCeiOTLj23gESPlqEB9v",
        "name" : "William H Doane",
        "type" : "artist",
        "uri" : "spotify:artist:31QCeiOTLj23gESPlqEB9v"
      }, {
        "external_urls" : {
          "spotify" : "https://open.spotify.com/artist/41hCpLaR1bEW5ETK3aPvDB"
        },
        "href" : "https://api.spotify.com/v1/artists/41hCpLaR1bEW5ETK3aPvDB",
        "id" : "41hCpLaR1bEW5ETK3aPvDB",
        "name" : "The Eden Symphony Orchestra",
        "type" : "artist",
        "uri" : "spotify:artist:41hCpLaR1bEW5ETK3aPvDB"
      } ],
      "disc_number" : 3,
      "duration_ms" : 228520,
      "explicit" : false,
      "external_ids" : {
        "isrc" : "GBCEU0570046"
      },
      "external_urls" : {
        "spotify" : "https://open.spotify.com/track/0i30pe3LEC0u7rr8FIEKhZ"
      },
      "href" : "https://api.spotify.com/v1/tracks/0i30pe3LEC0u7rr8FIEKhZ",
      "id" : "0i30pe3LEC0u7rr8FIEKhZ",
      "is_local" : false,
      "is_playable" : true,
      "name" : "Rescue The Perishing",
      "popularity" : 7,
      "preview_url" : "https://p.scdn.co/mp3-preview/03f0bbbd865f5445103e3a1bddd77346fc73f3d0?cid=774b29d4f13844c495f206cafdad9c86",
      "track_number" : 12,
      "type" : "track",
      "uri" : "spotify:track:0i30pe3LEC0u7rr8FIEKhZ"
    }, {
      "album" : {
        "album_type" : "album",
        "artists" : [ {
          "external_urls" : {
            "spotify" : "https://open.spotify.com/artist/514XPT3CBMEERyJoZbEVCf"
          },
          "href" : "https://api.spotify.com/v1/artists/514XPT3CBMEERyJoZbEVCf",
          "id" : "514XPT3CBMEERyJoZbEVCf",
          "name" : "Hayes Family",
          "type" : "artist",
          "uri" : "spotify:artist:514XPT3CBMEERyJoZbEVCf"
        } ],
        "external_urls" : {
          "spotify" : "https://open.spotify.com/album/2QjLR8jjhuLJLm5mxs9uky"
        },
        "href" : "https://api.spotify.com/v1/albums/2QjLR8jjhuLJLm5mxs9uky",
        "id" : "2QjLR8jjhuLJLm5mxs9uky",
        "images" : [ {
          "height" : 640,
          "url" : "https://i.scdn.co/image/ab67616d0000b273f8d03d767e25aa91f8e2aebd",
          "width" : 640
        }, {
          "height" : 300,
          "url" : "https://i.scdn.co/image/ab67616d00001e02f8d03d767e25aa91f8e2aebd",
          "width" : 300
        }, {
          "height" : 64,
          "url" : "https://i.scdn.co/image/ab67616d00004851f8d03d767e25aa91f8e2aebd",
          "width" : 64
        } ],
        "name" : "Hymns Of The Faith",
        "release_date" : "2008-09-22",
        "release_date_precision" : "day",
        "total_tracks" : 12,
        "type" : "album",
        "uri" : "spotify:album:2QjLR8jjhuLJLm5mxs9uky"
      },
      "artists" : [ {
        "external_urls" : {
          "spotify" : "https://open.spotify.com/artist/514XPT3CBMEERyJoZbEVCf"
        },
        "href" : "https://api.spotify.com/v1/artists/514XPT3CBMEERyJoZbEVCf",
        "id" : "514XPT3CBMEERyJoZbEVCf",
        "name" : "Hayes Family",
        "type" : "artist",
        "uri" : "spotify:artist:514XPT3CBMEERyJoZbEVCf"
      } ],
      "disc_number" : 1,
      "duration_ms" : 251493,
      "explicit" : false,
      "external_ids" : {
        "isrc" : "USETB0710050"
      },
      "external_urls" : {
        "spotify" : "https://open.spotify.com/track/6p36SANcngnJwei76KjzXe"
      },
      "href" : "https://api.spotify.com/v1/tracks/6p36SANcngnJwei76KjzXe",
      "id" : "6p36SANcngnJwei76KjzXe",
      "is_local" : false,
      "is_playable" : true,
      "name" : "Rescue The Perishing",
      "popularity" : 5,
      "preview_url" : "https://p.scdn.co/mp3-preview/990e522f8241b12c88bd8614c707b8b6a48b34df?cid=774b29d4f13844c495f206cafdad9c86",
      "track_number" : 6,
      "type" : "track",
      "uri" : "spotify:track:6p36SANcngnJwei76KjzXe"
    }, {
      "album" : {
        "album_type" : "album",
        "artists" : [ {
          "external_urls" : {
            "spotify" : "https://open.spotify.com/artist/00g1hZIIn1xKwrbZd6nDUY"
          },
          "href" : "https://api.spotify.com/v1/artists/00g1hZIIn1xKwrbZd6nDUY",
          "id" : "00g1hZIIn1xKwrbZd6nDUY",
          "name" : "Elevation",
          "type" : "artist",
          "uri" : "spotify:artist:00g1hZIIn1xKwrbZd6nDUY"
        } ],
        "external_urls" : {
          "spotify" : "https://open.spotify.com/album/4nKQuwe85qZC9XWqnMAb39"
        },
        "href" : "https://api.spotify.com/v1/albums/4nKQuwe85qZC9XWqnMAb39",
        "id" : "4nKQuwe85qZC9XWqnMAb39",
        "images" : [ {
          "height" : 640,
          "url" : "https://i.scdn.co/image/ab67616d0000b2732cb0c70ab9fd6dfab85831ff",
          "width" : 640
        }, {
          "height" : 300,
          "url" : "https://i.scdn.co/image/ab67616d00001e022cb0c70ab9fd6dfab85831ff",
          "width" : 300
        }, {
          "height" : 64,
          "url" : "https://i.scdn.co/image/ab67616d000048512cb0c70ab9fd6dfab85831ff",
          "width" : 64
        } ],
        "name" : "Fanny Crosby: Safe in the Arms of Jesus",
        "release_date" : "2015-02-10",
        "release_date_precision" : "day",
        "total_tracks" : 20,
        "type" : "album",
        "uri" : "spotify:album:4nKQuwe85qZC9XWqnMAb39"
      },
      "artists" : [ {
        "external_urls" : {
          "spotify" : "https://open.spotify.com/artist/00g1hZIIn1xKwrbZd6nDUY"
        },
        "href" : "https://api.spotify.com/v1/artists/00g1hZIIn1xKwrbZd6nDUY",
        "id" : "00g1hZIIn1xKwrbZd6nDUY",
        "name" : "Elevation",
        "type" : "artist",
        "uri" : "spotify:artist:00g1hZIIn1xKwrbZd6nDUY"
      } ],
      "disc_number" : 1,
      "duration_ms" : 169333,
      "explicit" : false,
      "external_ids" : {
        "isrc" : "GBCEU1563205"
      },
      "external_urls" : {
        "spotify" : "https://open.spotify.com/track/60lpbyOac2kxspy9iP2ky5"
      },
      "href" : "https://api.spotify.com/v1/tracks/60lpbyOac2kxspy9iP2ky5",
      "id" : "60lpbyOac2kxspy9iP2ky5",
      "is_local" : false,
      "is_playable" : true,
      "name" : "Rescue the Perishing",
      "popularity" : 8,
      "preview_url" : "https://p.scdn.co/mp3-preview/49b9ba7091d3b85a9ac050de643160313c5f4fdb?cid=774b29d4f13844c495f206cafdad9c86",
      "track_number" : 5,
      "type" : "track",
      "uri" : "spotify:track:60lpbyOac2kxspy9iP2ky5"
    }, {
      "album" : {
        "album_type" : "album",
        "artists" : [ {
          "external_urls" : {
            "spotify" : "https://open.spotify.com/artist/3MJUsEcavOpd7TBTrlUt0f"
          },
          "href" : "https://api.spotify.com/v1/artists/3MJUsEcavOpd7TBTrlUt0f",
          "id" : "3MJUsEcavOpd7TBTrlUt0f",
          "name" : "Harding University Concert Choir",
          "type" : "artist",
          "uri" : "spotify:artist:3MJUsEcavOpd7TBTrlUt0f"
        } ],
        "external_urls" : {
          "spotify" : "https://open.spotify.com/album/5DdySR8zVsKaYu9QviEXLJ"
        },
        "href" : "https://api.spotify.com/v1/albums/5DdySR8zVsKaYu9QviEXLJ",
        "id" : "5DdySR8zVsKaYu9QviEXLJ",
        "images" : [ {
          "height" : 640,
          "url" : "https://i.scdn.co/image/ab67616d0000b273231e9fbefdcd5ba678fedc6f",
          "width" : 640
        }, {
          "height" : 300,
          "url" : "https://i.scdn.co/image/ab67616d00001e02231e9fbefdcd5ba678fedc6f",
          "width" : 300
        }, {
          "height" : 64,
          "url" : "https://i.scdn.co/image/ab67616d00004851231e9fbefdcd5ba678fedc6f",
          "width" : 64
        } ],
        "name" : "Songs of Fanny J. Crosby: This Is My Story",
        "release_date" : "2008-05-13",
        "release_date_precision" : "day",
        "total_tracks" : 36,
        "type" : "album",
        "uri" : "spotify:album:5DdySR8zVsKaYu9QviEXLJ"
      },
      "artists" : [ {
        "external_urls" : {
          "spotify" : "https://open.spotify.com/artist/3MJUsEcavOpd7TBTrlUt0f"
        },
        "href" : "https://api.spotify.com/v1/artists/3MJUsEcavOpd7TBTrlUt0f",
        "id" : "3MJUsEcavOpd7TBTrlUt0f",
        "name" : "Harding University Concert Choir",
        "type" : "artist",
        "uri" : "spotify:artist:3MJUsEcavOpd7TBTrlUt0f"
      } ],
      "disc_number" : 1,
      "duration_ms" : 151280,
      "explicit" : false,
      "external_ids" : {
        "isrc" : "USMZA0811683"
      },
      "external_urls" : {
        "spotify" : "https://open.spotify.com/track/7ucx4ujaxGQdbB7nPbynOQ"
      },
      "href" : "https://api.spotify.com/v1/tracks/7ucx4ujaxGQdbB7nPbynOQ",
      "id" : "7ucx4ujaxGQdbB7nPbynOQ",
      "is_local" : false,
      "is_playable" : true,
      "name" : "Rescue the Perishing",
      "popularity" : 5,
      "preview_url" : "https://p.scdn.co/mp3-preview/b98a2ccbb4aa52e387ef7b5c111c28f0c1083177?cid=774b29d4f13844c495f206cafdad9c86",
      "track_number" : 10,
      "type" : "track",
      "uri" : "spotify:track:7ucx4ujaxGQdbB7nPbynOQ"
    }, {
      "album" : {
        "album_type" : "album",
        "artists" : [ {
          "external_urls" : {
            "spotify" : "https://open.spotify.com/artist/41hCpLaR1bEW5ETK3aPvDB"
          },
          "href" : "https://api.spotify.com/v1/artists/41hCpLaR1bEW5ETK3aPvDB",
          "id" : "41hCpLaR1bEW5ETK3aPvDB",
          "name" : "The Eden Symphony Orchestra",
          "type" : "artist",
          "uri" : "spotify:artist:41hCpLaR1bEW5ETK3aPvDB"
        } ],
        "external_urls" : {
          "spotify" : "https://open.spotify.com/album/5mGdP1Rh2VrRxCjJwItZaA"
        },
        "href" : "https://api.spotify.com/v1/albums/5mGdP1Rh2VrRxCjJwItZaA",
        "id" : "5mGdP1Rh2VrRxCjJwItZaA",
        "images" : [ {
          "height" : 640,
          "url" : "https://i.scdn.co/image/ab67616d0000b27314c4fec8e14bd1c2984ce0d2",
          "width" : 640
        }, {
          "height" : 300,
          "url" : "https://i.scdn.co/image/ab67616d00001e0214c4fec8e14bd1c2984ce0d2",
          "width" : 300
        }, {
          "height" : 64,
          "url" : "https://i.scdn.co/image/ab67616d0000485114c4fec8e14bd1c2984ce0d2",
          "width" : 64
        } ],
        "name" : "Philharmonic Hymns - Orchestral Hymns Vol. 1",
        "release_date" : "2006-01-01",
        "release_date_precision" : "day",
        "total_tracks" : 10,
        "type" : "album",
        "uri" : "spotify:album:5mGdP1Rh2VrRxCjJwItZaA"
      },
      "artists" : [ {
        "external_urls" : {
          "spotify" : "https://open.spotify.com/artist/41hCpLaR1bEW5ETK3aPvDB"
        },
        "href" : "https://api.spotify.com/v1/artists/41hCpLaR1bEW5ETK3aPvDB",
        "id" : "41hCpLaR1bEW5ETK3aPvDB",
        "name" : "The Eden Symphony Orchestra",
        "type" : "artist",
        "uri" : "spotify:artist:41hCpLaR1bEW5ETK3aPvDB"
      } ],
      "disc_number" : 1,
      "duration_ms" : 232506,
      "explicit" : false,
      "external_ids" : {
        "isrc" : "GBCEU0677409"
      },
      "external_urls" : {
        "spotify" : "https://open.spotify.com/track/6FswE8Q5LFbvf6AvJTRphE"
      },
      "href" : "https://api.spotify.com/v1/tracks/6FswE8Q5LFbvf6AvJTRphE",
      "id" : "6FswE8Q5LFbvf6AvJTRphE",
      "is_local" : false,
      "is_playable" : true,
      "name" : "Rescue the Perishing",
      "popularity" : 4,
      "preview_url" : "https://p.scdn.co/mp3-preview/97a9cb82d26cca5b31a61ae54ea8d3389676d590?cid=774b29d4f13844c495f206cafdad9c86",
      "track_number" : 9,
      "type" : "track",
      "uri" : "spotify:track:6FswE8Q5LFbvf6AvJTRphE"
    }, {
      "album" : {
        "album_type" : "album",
        "artists" : [ {
          "external_urls" : {
            "spotify" : "https://open.spotify.com/artist/4d8pFJwCoD1mX4wAn7Ax2h"
          },
          "href" : "https://api.spotify.com/v1/artists/4d8pFJwCoD1mX4wAn7Ax2h",
          "id" : "4d8pFJwCoD1mX4wAn7Ax2h",
          "name" : "Clovercroft Kids",
          "type" : "artist",
          "uri" : "spotify:artist:4d8pFJwCoD1mX4wAn7Ax2h"
        } ],
        "external_urls" : {
          "spotify" : "https://open.spotify.com/album/1fUH6Xh4HZmbOaYJBeWAZA"
        },
        "href" : "https://api.spotify.com/v1/albums/1fUH6Xh4HZmbOaYJBeWAZA",
        "id" : "1fUH6Xh4HZmbOaYJBeWAZA",
        "images" : [ {
          "height" : 640,
          "url" : "https://i.scdn.co/image/ab67616d0000b2735431f5e400f7da6b32106f40",
          "width" : 640
        }, {
          "height" : 300,
          "url" : "https://i.scdn.co/image/ab67616d00001e025431f5e400f7da6b32106f40",
          "width" : 300
        }, {
          "height" : 64,
          "url" : "https://i.scdn.co/image/ab67616d000048515431f5e400f7da6b32106f40",
          "width" : 64
        } ],
        "name" : "Hymns for Kids: Rock of Ages",
        "release_date" : "2014-09-30",
        "release_date_precision" : "day",
        "total_tracks" : 40,
        "type" : "album",
        "uri" : "spotify:album:1fUH6Xh4HZmbOaYJBeWAZA"
      },
      "artists" : [ {
        "external_urls" : {
          "spotify" : "https://open.spotify.com/artist/4d8pFJwCoD1mX4wAn7Ax2h"
        },
        "href" : "https://api.spotify.com/v1/artists/4d8pFJwCoD1mX4wAn7Ax2h",
        "id" : "4d8pFJwCoD1mX4wAn7Ax2h",
        "name" : "Clovercroft Kids",
        "type" : "artist",
        "uri" : "spotify:artist:4d8pFJwCoD1mX4wAn7Ax2h"
      } ],
      "disc_number" : 1,
      "duration_ms" : 136266,
      "explicit" : false,
      "external_ids" : {
        "isrc" : "USACX1401305"
      },
      "external_urls" : {
        "spotify" : "https://open.spotify.com/track/6iqotF6hYmQuJnCzK2N2S7"
      },
      "href" : "https://api.spotify.com/v1/tracks/6iqotF6hYmQuJnCzK2N2S7",
      "id" : "6iqotF6hYmQuJnCzK2N2S7",
      "is_local" : false,
      "is_playable" : true,
      "name" : "Rescue the Perishing",
      "popularity" : 4,
      "preview_url" : "https://p.scdn.co/mp3-preview/ca58f6beb703e41b8582c00fe7fd1cdc7ba2abd3?cid=774b29d4f13844c495f206cafdad9c86",
      "track_number" : 14,
      "type" : "track",
      "uri" : "spotify:track:6iqotF6hYmQuJnCzK2N2S7"
    }, {
      "album" : {
        "album_type" : "album",
        "artists" : [ {
          "external_urls" : {
            "spotify" : "https://open.spotify.com/artist/2x0QHABqKaBBvAOzvoevXJ"
          },
          "href" : "https://api.spotify.com/v1/artists/2x0QHABqKaBBvAOzvoevXJ",
          "id" : "2x0QHABqKaBBvAOzvoevXJ",
          "name" : "The Scottish Festival Singers",
          "type" : "artist",
          "uri" : "spotify:artist:2x0QHABqKaBBvAOzvoevXJ"
        } ],
        "external_urls" : {
          "spotify" : "https://open.spotify.com/album/4GUN0KPnTQGStRZzQ2xg4h"
        },
        "href" : "https://api.spotify.com/v1/albums/4GUN0KPnTQGStRZzQ2xg4h",
        "id" : "4GUN0KPnTQGStRZzQ2xg4h",
        "images" : [ {
          "height" : 640,
          "url" : "https://i.scdn.co/image/ab67616d0000b273e500b6de39b9bb01111ca72b",
          "width" : 640
        }, {
          "height" : 300,
          "url" : "https://i.scdn.co/image/ab67616d00001e02e500b6de39b9bb01111ca72b",
          "width" : 300
        }, {
          "height" : 64,
          "url" : "https://i.scdn.co/image/ab67616d00004851e500b6de39b9bb01111ca72b",
          "width" : 64
        } ],
        "name" : "90 Favorite Hymns",
        "release_date" : "2014-10-21",
        "release_date_precision" : "day",
        "total_tracks" : 90,
        "type" : "album",
        "uri" : "spotify:album:4GUN0KPnTQGStRZzQ2xg4h"
      },
      "artists" : [ {
        "external_urls" : {
          "spotify" : "https://open.spotify.com/artist/2x0QHABqKaBBvAOzvoevXJ"
        },
        "href" : "https://api.spotify.com/v1/artists/2x0QHABqKaBBvAOzvoevXJ",
        "id" : "2x0QHABqKaBBvAOzvoevXJ",
        "name" : "The Scottish Festival Singers",
        "type" : "artist",
        "uri" : "spotify:artist:2x0QHABqKaBBvAOzvoevXJ"
      } ],
      "disc_number" : 1,
      "duration_ms" : 126813,
      "explicit" : false,
      "external_ids" : {
        "isrc" : "USACX1401604"
      },
      "external_urls" : {
        "spotify" : "https://open.spotify.com/track/7i93DQEX20OhfMTNGxmIsX"
      },
      "href" : "https://api.spotify.com/v1/tracks/7i93DQEX20OhfMTNGxmIsX",
      "id" : "7i93DQEX20OhfMTNGxmIsX",
      "is_local" : false,
      "is_playable" : true,
      "name" : "Rescue The Perishing",
      "popularity" : 4,
      "preview_url" : "https://p.scdn.co/mp3-preview/26f66eddb704b165016be51332ecc64d760b0bc8?cid=774b29d4f13844c495f206cafdad9c86",
      "track_number" : 56,
      "type" : "track",
      "uri" : "spotify:track:7i93DQEX20OhfMTNGxmIsX"
    }, {
      "album" : {
        "album_type" : "album",
        "artists" : [ {
          "external_urls" : {
            "spotify" : "https://open.spotify.com/artist/6zCKr405jB5b6QI1IfFnf2"
          },
          "href" : "https://api.spotify.com/v1/artists/6zCKr405jB5b6QI1IfFnf2",
          "id" : "6zCKr405jB5b6QI1IfFnf2",
          "name" : "Dallas Christian Adult Concert Choir",
          "type" : "artist",
          "uri" : "spotify:artist:6zCKr405jB5b6QI1IfFnf2"
        } ],
        "external_urls" : {
          "spotify" : "https://open.spotify.com/album/6lJqjHX6QJKGzgxEeM6jKq"
        },
        "href" : "https://api.spotify.com/v1/albums/6lJqjHX6QJKGzgxEeM6jKq",
        "id" : "6lJqjHX6QJKGzgxEeM6jKq",
        "images" : [ {
          "height" : 640,
          "url" : "https://i.scdn.co/image/ab67616d0000b273f0b64f08bd14554ad8a1c5bf",
          "width" : 640
        }, {
          "height" : 300,
          "url" : "https://i.scdn.co/image/ab67616d00001e02f0b64f08bd14554ad8a1c5bf",
          "width" : 300
        }, {
          "height" : 64,
          "url" : "https://i.scdn.co/image/ab67616d00004851f0b64f08bd14554ad8a1c5bf",
          "width" : 64
        } ],
        "name" : "Walking Alone At Eve",
        "release_date" : "2008-03-18",
        "release_date_precision" : "day",
        "total_tracks" : 22,
        "type" : "album",
        "uri" : "spotify:album:6lJqjHX6QJKGzgxEeM6jKq"
      },
      "artists" : [ {
        "external_urls" : {
          "spotify" : "https://open.spotify.com/artist/6zCKr405jB5b6QI1IfFnf2"
        },
        "href" : "https://api.spotify.com/v1/artists/6zCKr405jB5b6QI1IfFnf2",
        "id" : "6zCKr405jB5b6QI1IfFnf2",
        "name" : "Dallas Christian Adult Concert Choir",
        "type" : "artist",
        "uri" : "spotify:artist:6zCKr405jB5b6QI1IfFnf2"
      } ],
      "disc_number" : 1,
      "duration_ms" : 125786,
      "explicit" : false,
      "external_ids" : {
        "isrc" : "USMZA0810207"
      },
      "external_urls" : {
        "spotify" : "https://open.spotify.com/track/2HBlsMerech7zoJzoyMBLy"
      },
      "href" : "https://api.spotify.com/v1/tracks/2HBlsMerech7zoJzoyMBLy",
      "id" : "2HBlsMerech7zoJzoyMBLy",
      "is_local" : false,
      "is_playable" : true,
      "name" : "Rescue The Perishing",
      "popularity" : 2,
      "preview_url" : "https://p.scdn.co/mp3-preview/159458624848d9c23b1587544a8d4da0076b08ce?cid=774b29d4f13844c495f206cafdad9c86",
      "track_number" : 8,
      "type" : "track",
      "uri" : "spotify:track:2HBlsMerech7zoJzoyMBLy"
    } ],
    "limit" : 10,
    "next" : "https://api.spotify.com/v1/search?query=Rescue+the+Perishing&type=track&market=US&offset=15&limit=10",
    "offset" : 5,
    "previous" : "https://api.spotify.com/v1/search?query=Rescue+the+Perishing&type=track&market=US&offset=0&limit=10",
    "total" : 89
  }
}