{
  "tracks" : {
    "href" : "https://api.spotify.com/v1/search?query=O+Sacred+Head+Now+Wounded&type=track&market=US&offset=5&limit=10",
    "items" : [ {
      "album" : {
        "album_type" : "album",
        "artists" : [ {
          "external_urls" : {
            "spotify" : "https://open.spotify.com/artist/1U5zgr455OGyIkLNXvDdrf"
          },
          "href" : "https://api.spotify.com/v1/artists/1U5zgr455OGyIkLNXvDdrf",
          "id" : "1U5zgr455OGyIkLNXvDdrf",
          "name" : "Traditional",
          "type" : "artist",
          "uri" : "spotify:artist:1U5zgr455OGyIkLNXvDdrf"
        }, {
          "external_urls" : {
            "spotify" : "https://open.spotify.com/artist/5oW7xntz397IxAiDinC6Tk"
          },
          "href" : "https://api.spotify.com/v1/artists/5oW7xntz397IxAiDinC6Tk",
          "id" : "5oW7xntz397IxAiDinC6Tk",
          "name" : "John Mock",
          "type" : "artist",
          "uri" : "spotify:artist:5oW7xntz397IxAiDinC6Tk"
        } ],
        "external_urls" : {
          "spotify" : "https://open.spotify.com/album/7qo3kF0rtYhhCjS0qdJbkL"
        },
        "href" : "https://api.spotify.com/v1/albums/7qo3kF0rtYhhCjS0qdJbkL",
        "id" : "7qo3kF0rtYhhCjS0qdJbkL",
        "images" : [ {
          "height" : 640,
          "url" : "https://i.scdn.co/image/ab67616d0000b273655f886ff599f4a68a49abe6",
          "width" : 640
        }, {
          "height" : 300,
          "url" : "https://i.scdn.co/image/ab67616d00001e02655f886ff599f4a68a49abe6",
          "width" : 300
        }, {
          "height" : 64,
          "url" : "https://i.scdn.co/image/ab67616d00004851655f886ff599f4a68a49abe6",
          "width" : 64
        } ],
        "name" : "Classical Hymns",
        "release_date" : "1995-01-01",
        "release_date_precision" : "day",
        "total_tracks" : 15,
        "type" : "album",
        "uri" : "spotify:album:7qo3kF0rtYhhCjS0qdJbkL"
      },
      "artists" : [ {
        "external_urls" : {
          "spotify" : "https://open.spotify.com/artist/1U5zgr455OGyIkLNXvDdrf"
        },
        "href" : "https://api.spotify.com/v1/artists/1U5zgr455OGyIkLNXvDdrf",
        "id" : "1U5zgr455OGyIkLNXvDdrf",
        "name" : "Traditional",
        "type" : "artist",
        "uri" : "spotify:artist:1U5zgr455OGyIkLNXvDdrf"
      }, {
        "external_urls" : {
          "spotify" : "https://open.spotify.com/artist/5oW7xntz397IxAiDinC6Tk"
        },
        "href" : "https://api.spotify.com/v1/artists/5oW7xntz397IxAiDinC6Tk",
        "id" : "5oW7xntz397IxAiDinC6Tk",
        "name" : "John Mock",
        "type" : "artist",
        "uri" : "spotify:artist:5oW7xntz397IxAiDinC6Tk"
      } ],
      "disc_number" : 1,
      "duration_ms" : 200466,
      "explicit" : false,
      "external_ids" : {
        "isrc" : "USB4U0850847"
      },
      "external_urls" : {
        "spotify" : "https://open.spotify.com/track/4jFq3tpwVKf2dP2XyMZ9Vs"
      },
      "href" : "https://api.spotify.com/v1/tracks/4jFq3tpwVKf2dP2XyMZ9Vs",
      "id" : "4jFq3tpwVKf2dP2XyMZ9Vs",
      "is_local" : false,
      "is_playable" : true,
      "name" : "O Sacred Head, Now Wounded-Invention #1 - Classical Hymns Album Version",
      "popularity" : 19,
      "preview_url" : null,
      "track_number" : 7,
      "type" : "track",
      "uri" : "spotify:track:4jFq3tpwVKf2dP2XyMZ9Vs"
    }, {
      "album" : {
        "album_type" : "single",
        "artists" : [ {
          "external_urls" : {
            "spotify" : "https://open.spotify.com/artist/5TB43hYVZMxI193JCzyQJb"
          },
          "href" : "https://api.spotify.com/v1/artists/5TB43hYVZMxI193JCzyQJb",
          "id" : "5TB43hYVZMxI193JCzyQJb",
          "name" : "Page CXVI",
          "type" : "artist",
          "uri" : "spotify:artist:5TB43hYVZMxI193JCzyQJb"
        } ],
        "external_urls" : {
          "spotify" : "https://open.spotify.com/album/15WTyXSnf4QqN3wNb9gDny"
        },
        "href" : "https://api.spotify.com/v1/albums/15WTyXSnf4QqN3wNb9gDny",
        "id" : "15WTyXSnf4QqN3wNb9gDny",
        "images" : [ {
          "height" : 640,
          "url" : "https://i.scdn.co/image/ab67616d0000b2732a639e254105b9d641424689",
          "width" : 640
        }, {
          "height" : 300,
          "url" : "https://i.scdn.co/image/ab67616d00001e022a639e254105b9d641424689",
          "width" : 300
        }, {
          "height" : 64,
          "url" : "https://i.scdn.co/image/ab67616d000048512a639e254105b9d641424689",
          "width" : 64
        } ],
        "name" : "Hymns - B Sides",
        "release_date" : "2012-04-19",
        "release_date_precision" : "day",
        "total_tracks" : 3,
        "type" : "album",
        "uri" : "spotify:album:15WTyXSnf4QqN3wNb9gDny"
      },
      "artists" : [ {
        "external_urls" : {
          "spotify" : "https://open.spotify.com/artist/5TB43hYVZMxI193JCzyQJb"
        },
        "href" : "https://api.spotify.com/v1/artists/5TB43hYVZMxI193JCzyQJb",
        "id" : "5TB43hYVZMxI193JCzyQJb",
        "name" : "Page CXVI",
        "type" : "artist",
        "uri" : "spotify:artist:5TB43hYVZMxI193JCzyQJb"
      } ],
      "disc_number" : 1,
      "duration_ms" : 320980,
      "explicit" : false,
      "external_ids" : {
        "isrc" : "US9YS1100028"
      },
      "external_urls" : {
        "spotify" : "https://open.spotify.com/track/3LaIj5osKeH9Gue1E72eYy"
      },
      "href" : "https://api.spotify.com/v1/tracks/3LaIj5osKeH9Gue1E72eYy",
      "id" : "3LaIj5osKeH9Gue1E72eYy",
      "is_local" : false,
      "is_playable" : true,
      "name" : "Oh Sacred Head Now Wounded",
      "popularity" : 24,
      "preview_url" : "https://p.scdn.co/mp3-preview/9d7be696b0090d112ebde8358ed999b899e7f25c?cid=774b29d4f13844c495f206cafdad9c86",
      "track_number" : 1,
      "type" : "track",
      "uri" : "spotify:track:3LaIj5osKeH9Gue1E72eYy"
    }, {
      "album" : {
        "album_type" : "album",
        "artists" : [ {
          "external_urls" : {
            "spotify" : "https://open.spotify.com/artist/0zJMRRK3Kx6Sv6nTlq4nSX"
          },
          "href" : "https://api.spotify.com/v1/artists/0zJMRRK3Kx6Sv6nTlq4nSX",
          "id" : "0zJMRRK3Kx6Sv6nTlq4nSX",
          "name" : "The Forty Day Journey",
          "type" : "artist",
          "uri" : "spotify:artist:0zJMRRK3Kx6Sv6nTlq4nSX"
        } ],
        "external_urls" : {
          "spotify" : "https://open.spotify.com/album/3FkG6EKFbRNNX265o3fwwp"
        },
        "href" : "https://api.spotify.com/v1/albums/3FkG6EKFbRNNX265o3fwwp",
        "id" : "3FkG6EKFbRNNX265o3fwwp",
        "images" : [ {
          "height" : 640,
          "url" : "https://i.scdn.co/image/ab67616d0000b273898ba200bb416afe79c45791",
          "width" : 640
        }, {
          "height" : 300,
          "url" : "https://i.scdn.co/image/ab67616d00001e02898ba200bb416afe79c45791",
          "width" : 300
        }, {
          "height" : 64,
          "url" : "https://i.scdn.co/image/ab67616d00004851898ba200bb416afe79c45791",
          "width" : 64
        } ],
        "name" : "Lent",
        "release_date" : "2015-12-27",
        "release_date_precision" : "day",
        "total_tracks" : 20,
        "type" : "album",
        "uri" : "spotify:album:3FkG6EKFbRNNX265o3fwwp"
      },
      "artists" : [ {
        "external_urls" : {
          "spotify" : "https://open.spotify.com/artist/0zJMRRK3Kx6Sv6nTlq4nSX"
        },
        "href" : "https://api.spotify.com/v1/artists/0zJMRRK3Kx6Sv6nTlq4nSX",
        "id" : "0zJMRRK3Kx6Sv6nTlq4nSX",
        "name" : "The Forty Day Journey",
        "type" : "artist",
        "uri" : "spotify:artist:0zJMRRK3Kx6Sv6nTlq4nSX"
      } ],
      "disc_number" : 1,
      "duration_ms" : 161500,
      "explicit" : false,
      "external_ids" : {
        "isrc" : "USLZJ1597905"
      },
      "external_urls" : {
        "spotify" : "https://open.spotify.com/track/2u9mbtvMa4FYqachDlyOCo"
      },
      "href" : "https://api.spotify.com/v1/tracks/2u9mbtvMa4FYqachDlyOCo",
      "id" : "2u9mbtvMa4FYqachDlyOCo",
      "is_local" : false,
      "is_playable" : true,
      "name" : "O Sacred Head Now Wounded",
      "popularity" : 13,
      "preview_url" : "https://p.scdn.co/mp3-preview/039289abcf41defb414acc7f2717e8f51c691450?cid=774b29d4f13844c495f206cafdad9c86",
      "track_number" : 12,
      "type" : "track",
      "uri" : "spotify:track:2u9mbtvMa4FYqachDlyOCo"
    }, {
      "album" : {
        "album_type" : "album",
        "artists" : [ {
          "external_urls" : {
            "spotify" : "https://open.spotify.com/artist/7pIlr6ZsVpOtKv0Kh46GwZ"
          },
          "href" : "https://api.spotify.com/v1/artists/7pIlr6ZsVpOtKv0Kh46GwZ",
          "id" : "7pIlr6ZsVpOtKv0Kh46GwZ",
          "name" : "Greg Howlett",
          "type" : "artist",
          "uri" : "spotify:artist:7pIlr6ZsVpOtKv0Kh46GwZ"
        } ],
        "external_urls" : {
          "spotify" : "https://open.spotify.com/album/7o1uMirC2JAvD32BL7urJs"
        },
        "href" : "https://api.spotify.com/v1/albums/7o1uMirC2JAvD32BL7urJs",
        "id" : "7o1uMirC2JAvD32BL7urJs",
        "images" : [ {
          "height" : 640,
          "url" : "https://i.scdn.co/image/ab67616d0000b273bce75d09e678f4d2139d5dac",
          "width" : 640
        }, {
          "height" : 300,
          "url" : "https://i.scdn.co/image/ab67616d00001e02bce75d09e678f4d2139d5dac",
          "width" : 300
        }, {
          "height" : 64,
          "url" : "https://i.scdn.co/image/ab67616d00004851bce75d09e678f4d2139d5dac",
          "width" : 64
        } ],
        "name" : "Quiet Place",
        "release_date" : "2010-12-01",
        "release_date_precision" : "day",
        "total_tracks" : 10,
        "type" : "album",
        "uri" : "spotify:album:7o1uMirC2JAvD32BL7urJs"
      },
      "artists" : [ {
        "external_urls" : {
          "spotify" : "https://open.spotify.com/artist/7pIlr6ZsVpOtKv0Kh46GwZ"
        },
        "href" : "https://api.spotify.com/v1/artists/7pIlr6ZsVpOtKv0Kh46GwZ",
        "id" : "7pIlr6ZsVpOtKv0Kh46GwZ",
        "name" : "Greg Howlett",
        "type" : "artist",
        "uri" : "spotify:artist:7pIlr6ZsVpOtKv0Kh46GwZ"
      } ],
      "disc_number" : 1,
      "duration_ms" : 314120,
      "explicit" : false,
      "external_ids" : {
        "isrc" : "usx9p1045240"
      },
      "external_urls" : {
        "spotify" : "https://open.spotify.com/track/4otYTIgA12eVYAsl3XQbd1"
      },
      "href" : "https://api.spotify.com/v1/tracks/4otYTIgA12eVYAsl3XQbd1",
      "id" : "4otYTIgA12eVYAsl3XQbd1",
      "is_local" : false,
      "is_playable" : true,
      "name" : "O Sacred Head Now Wounded",
      "popularity" : 16,
      "preview_url" : "https://p.scdn.co/mp3-preview/1158c22127683b08b49b0ff5a170ffaf331d0617?cid=774b29d4f13844c495f206cafdad9c86",
      "track_number" : 5,
      "type" : "track",
      "uri" : "spotify:track:4otYTIgA12eVYAsl3XQbd1"
    }, {
      "album" : {
        "album_type" : "album",
        "artists" : [ {
          "external_urls" : {
            "spotify" : "https://open.spotify.com/artist/5F211gZjfoqvH8v7erGdsy"
          },
          "href" : "https://api.spotify.com/v1/artists/5F211gZjfoqvH8v7erGdsy",
          "id" : "5F211gZjfoqvH8v7erGdsy",
          "name" : "4Him",
          "type" : "artist",
          "uri" : "spotify:artist:5F211gZjfoqvH8v7erGdsy"
        } ],
        "external_urls" : {
          "spotify" : "https://open.spotify.com/album/0ucd9V91sbhnKPE3ycOoqL"
        },
        "href" : "https://api.spotify.com/v1/albums/0ucd9V91sbhnKPE3ycOoqL",
        "id" : "0ucd9V91sbhnKPE3ycOoqL",
        "images" : [ {
          "height" : 640,
          "url" : "https://i.scdn.co/image/ab67616d0000b2731a72f5e934003f1c88eaf728",
          "width" : 640
        }, {
          "height" : 300,
          "url" : "https://i.scdn.co/image/ab67616d00001e021a72f5e934003f1c88eaf728",
          "width" : 300
        }, {
          "height" : 64,
          "url" : "https://i.scdn.co/image/ab67616d000048511a72f5e934003f1c88eaf728",
          "width" : 64
        } ],
        "name" : "Hymns: A Place Of Worship",
        "release_date" : "2000",
        "release_date_precision" : "year",
        "total_tracks" : 14,
        "type" : "album",
        "uri" : "spotify:album:0ucd9V91sbhnKPE3ycOoqL"
      },
      "artists" : [ {
        "external_urls" : {
          "spotify" : "https://open.spotify.com/artist/5F211gZjfoqvH8v7erGdsy"
        },
        "href" : "https://api.spotify.com/v1/artists/5F211gZjfoqvH8v7erGdsy",
        "id" : "5F211gZjfoqvH8v7erGdsy",
        "name" : "4Him",
        "type" : "artist",
        "uri" : "spotify:artist:5F211gZjfoqvH8v7erGdsy"
      } ],
      "disc_number" : 1,
      "duration_ms" : 368918,
      "explicit" : false,
      "external_ids" : {
        "isrc" : "USBE10000006"
      },
      "external_urls" : {
        "spotify" : "https://open.spotify.com/track/6N9PEfVUghd4ziWofLU4Y2"
      },
      "href" : "https://api.spotify.com/v1/tracks/6N9PEfVUghd4ziWofLU4Y2",
      "id" : "6N9PEfVUghd4ziWofLU4Y2",
      "is_local" : false,
      "is_playable" : true,
      "name" : "O Sacred Head, Now Wounded",
      "popularity" : 13,
      "preview_url" : "https://p.scdn.co/mp3-preview/eb70614af703e982d0a8441f6626839f9e312e33?cid=774b29d4f13844c495f206cafdad9c86",
      "track_number" : 6,
      "type" : "track",
      "uri" : "spotify:track:6N9PEfVUghd4ziWofLU4Y2"
    }, {
      "album" : {
        "album_type" : "album",
        "artists" : [ {
          "external_urls" : {
            "spotify" : "https://open.spotify.com/artist/0pmTKjAS7GwJD8TSdUqW1Q"
          },
          "href" : "https://api.spotify.com/v1/artists/0pmTKjAS7GwJD8TSdUqW1Q",
          "id" : "0pmTKjAS7GwJD8TSdUqW1Q",
          "name" : "Steven Terwilliger",
          "type" : "artist",
          "uri" : "spotify:artist:0pmTKjAS7GwJD8TSdUqW1Q"
        } ],
        "external_urls" : {
          "spotify" : "https://open.spotify.com/album/3r4O9eXeUuKpmi6bMPV0OB"
        },
        "href" : "https://api.spotify.com/v1/albums/3r4O9eXeUuKpmi6bMPV0OB",
        "id" : "3r4O9eXeUuKpmi6bMPV0OB",
        "images" : [ {
          "height" : 640,
          "url" : "https://i.scdn.co/image/ab67616d0000b273ea5bcd1e594ec36ccf303fba",
          "width" : 640
        }, {
          "height" : 300,
          "url" : "https://i.scdn.co/image/ab67616d00001e02ea5bcd1e594ec36ccf303fba",
          "width" : 300
        }, {
          "height" : 64,
          "url" : "https://i.scdn.co/image/ab67616d00004851ea5bcd1e594ec36ccf303fba",
          "width" : 64
        } ],
        "name" : "Hymns for Classical Guitar",
        "release_date" : "2012-12-01",
        "release_date_precision" : "day",
        "total_tracks" : 10,
        "type" : "album",
        "uri" : "spotify:album:3r4O9eXeUuKpmi6bMPV0OB"
      },
      "artists" : [ {
        "external_urls" : {
          "spotify" : "https://open.spotify.com/artist/0pmTKjAS7GwJD8TSdUqW1Q"
        },
        "href" : "https://api.spotify.com/v1/artists/0pmTKjAS7GwJD8TSdUqW1Q",
        "id" : "0pmTKjAS7GwJD8TSdUqW1Q",
        "name" : "Steven Terwilliger",
        "type" : "artist",
        "uri" : "spotify:artist:0pmTKjAS7GwJD8TSdUqW1Q"
      } ],
      "disc_number" : 1,
      "duration_ms" : 201985,
      "explicit" : false,
      "external_ids" : {
        "isrc" : "usx9p1227349"
      },
      "external_urls" : {
        "spotify" : "https://open.spotify.com/track/3oUSej9dxYgX2p5Jxy3nyx"
      },
      "href" : "https://api.spotify.com/v1/tracks/3oUSej9dxYgX2p5Jxy3nyx",
      "id" : "3oUSej9dxYgX2p5Jxy3nyx",
      "is_local" : false,
      "is_playable" : true,
      "name" : "O Sacred Head Now Wounded",
      "popularity" : 13,
      "preview_url" : "https://p.scdn.co/mp3-preview/1c926de163cbc5387f508f05a91c575d3dbbd30a?cid=774b29d4f13844c495f206cafdad9c86",
      "track_number" : 6,
      "type" : "track",
      "uri" : "spotify:track:3oUSej9dxYgX2p5Jxy3nyx"
    }, {
      "album" : {
        "album_type" : "album",
        "artists" : [ {
          "external_urls" : {
            "spotify" : "https://open.spotify.com/artist/6eGXFEwOdfD1dIPyu6c5cG"
          },
          "href" : "https://api.spotify.com/v1/artists/6eGXFEwOdfD1dIPyu6c5cG",
          "id" : "6eGXFEwOdfD1dIPyu6c5cG",
          "name" : "Steve Green",
          "type" : "artist",
          "uri" : "spotify:artist:6eGXFEwOdfD1dIPyu6c5cG"
        } ],
        "external_urls" : {
          "spotify" : "https://open.spotify.com/album/599EqUWIHFJuePqXS2vpfu"
        },
        "href" : "https://api.spotify.com/v1/albums/599EqUWIHFJuePqXS2vpfu",
        "id" : "599EqUWIHFJuePqXS2vpfu",
        "images" : [ {
          "height" : 640,
          "url" : "https://i.scdn.co/image/ab67616d0000b2732a4251cf1150b9691024bc56",
          "width" : 640
        }, {
          "height" : 300,
          "url" : "https://i.scdn.co/image/ab67616d00001e022a4251cf1150b9691024bc56",
          "width" : 300
        }, {
          "height" : 64,
          "url" : "https://i.scdn.co/image/ab67616d000048512a4251cf1150b9691024bc56",
          "width" : 64
        } ],
        "name" : "Hymns",
        "release_date" : "2014-09-30",
        "release_date_precision" : "day",
        "total_tracks" : 12,
        "type" : "album",
        "uri" : "spotify:album:599EqUWIHFJuePqXS2vpfu"
      },
      "artists" : [ {
        "external_urls" : {
          "spotify" : "https://open.spotify.com/artist/6eGXFEwOdfD1dIPyu6c5cG"
        },
        "href" : "https://api.spotify.com/v1/artists/6eGXFEwOdfD1dIPyu6c5cG",
        "id" : "6eGXFEwOdfD1dIPyu6c5cG",
        "name" : "Steve Green",
        "type" : "artist",
        "uri" : "spotify:artist:6eGXFEwOdfD1dIPyu6c5cG"
      } ],
      "disc_number" : 1,
      "duration_ms" : 263560,
      "explicit" : false,
      "external_ids" : {
        "isrc" : "US8W71400069"
      },
      "external_urls" : {
        "spotify" : "https://open.spotify.com/track/0GI3ENGlTcTprf20zfOKPl"
      },
      "href" : "https://api.spotify.com/v1/tracks/0GI3ENGlTcTprf20zfOKPl",
      "id" : "0GI3ENGlTcTprf20zfOKPl",
      "is_local" : false,
      "is_playable" : true,
      "name" : "O Sacred Head Now Wounded",
      "popularity" : 13,
      "preview_url" : "https://p.scdn.co/mp3-preview/9c39c8bf08fe8b04f5a181dd22f5db094f666f97?cid=774b29d4f13844c495f206cafdad9c86",
      "track_number" : 2,
      "type" : "track",
      "uri" : "spotify:track:0GI3ENGlTcTprf20zfOKPl"
    }, {
      "album" : {
        "album_type" : "album",
        "artists" : [ {
          "external_urls" : {
            "spotify" : "https://open.spotify.com/artist/5ZKBQyNLXQd1VfNf2oH5yF"
          },
          "href" : "https://api.spotify.com/v1/artists/5ZKBQyNLXQd1VfNf2oH5yF",
          "id" : "5ZKBQyNLXQd1VfNf2oH5yF",
          "name" : "Phillip Keveren",
          "type" : "artist",
          "uri" : "spotify:artist:5ZKBQyNLXQd1VfNf2oH5yF"
        } ],
        "external_urls" : {
          "spotify" : "https://open.spotify.com/album/0vRab7MmcKDN084ajk21Tq"
        },
        "href" : "https://api.spotify.com/v1/albums/0vRab7MmcKDN084ajk21Tq",
        "id" : "0vRab7MmcKDN084ajk21Tq",
        "images" : [ {
          "height" : 640,
          "url" : "https://i.scdn.co/image/ab67616d0000b27312f64ede8eb8be1407631d8e",
          "width" : 640
        }, {
          "height" : 300,
          "url" : "https://i.scdn.co/image/ab67616d00001e0212f64ede8eb8be1407631d8e",
          "width" : 300
        }, {
          "height" : 64,
          "url" : "https://i.scdn.co/image/ab67616d0000485112f64ede8eb8be1407631d8e",
          "width" : 64
        } ],
        "name" : "Classical Praise Easter",
        "release_date" : "2011-02-16",
        "release_date_precision" : "day",
        "total_tracks" : 10,
        "type" : "album",
        "uri" : "spotify:album:0vRab7MmcKDN084ajk21Tq"
      },
      "artists" : [ {
        "external_urls" : {
          "spotify" : "https://open.spotify.com/artist/5ZKBQyNLXQd1VfNf2oH5yF"
        },
        "href" : "https://api.spotify.com/v1/artists/5ZKBQyNLXQd1VfNf2oH5yF",
        "id" : "5ZKBQyNLXQd1VfNf2oH5yF",
        "name" : "Phillip Keveren",
        "type" : "artist",
        "uri" : "spotify:artist:5ZKBQyNLXQd1VfNf2oH5yF"
      } ],
      "disc_number" : 1,
      "duration_ms" : 235240,
      "explicit" : false,
      "external_ids" : {
        "isrc" : "USLF50801383"
      },
      "external_urls" : {
        "spotify" : "https://open.spotify.com/track/4jB2j1lmduJdOxE69MzZoE"
      },
      "href" : "https://api.spotify.com/v1/tracks/4jB2j1lmduJdOxE69MzZoE",
      "id" : "4jB2j1lmduJdOxE69MzZoE",
      "is_local" : false,
      "is_playable" : true,
      "name" : "O Sacred Head, Now Wounded",
      "popularity" : 12,
      "preview_url" : "https://p.scdn.co/mp3-preview/346e47aac3bfe6c0830b712e67c0d852dd4b4b5c?cid=774b29d4f13844c495f206cafdad9c86",
      "track_number" : 2,
      "type" : "track",
      "uri" : "spotify:track:4jB2j1lmduJdOxE69MzZoE"
    }, {
      "album" : {
        "album_type" : "album",
        "artists" : [ {
          "external_urls" : {
            "spotify" : "https://open.spotify.com/artist/0Us5KnZKEz3Y5eand0peXC"
          },
          "href" : "https://api.spotify.com/v1/artists/0Us5KnZKEz3Y5eand0peXC",
          "id" : "0Us5KnZKEz3Y5eand0peXC",
          "name" : "2nd Chapter Of Acts",
          "type" : "artist",
          "uri" : "spotify:artist:0Us5KnZKEz3Y5eand0peXC"
        } ],
        "external_urls" : {
          "spotify" : "https://open.spotify.com/album/3li6uEWkxAl0roMYAcFFYo"
        },
        "href" : "https://api.spotify.com/v1/albums/3li6uEWkxAl0roMYAcFFYo",
        "id" : "3li6uEWkxAl0roMYAcFFYo",
        "images" : [ {
          "height" : 640,
          "url" : "https://i.scdn.co/image/ab67616d0000b27320c5cdb42a52aee8516a4f13",
          "width" : 640
        }, {
          "height" : 300,
          "url" : "https://i.scdn.co/image/ab67616d00001e0220c5cdb42a52aee8516a4f13",
          "width" : 300
        }, {
          "height" : 64,
          "url" : "https://i.scdn.co/image/ab67616d0000485120c5cdb42a52aee8516a4f13",
          "width" : 64
        } ],
        "name" : "Hymns Collection",
        "release_date" : "2003-01-01",
        "release_date_precision" : "day",
        "total_tracks" : 40,
        "type" : "album",
        "uri" : "spotify:album:3li6uEWkxAl0roMYAcFFYo"
      },
      "artists" : [ {
        "external_urls" : {
          "spotify" : "https://open.spotify.com/artist/0Us5KnZKEz3Y5eand0peXC"
        },
        "href" : "https://api.spotify.com/v1/artists/0Us5KnZKEz3Y5eand0peXC",
        "id" : "0Us5KnZKEz3Y5eand0peXC",
        "name" : "2nd Chapter Of Acts",
        "type" : "artist",
        "uri" : "spotify:artist:0Us5KnZKEz3Y5eand0peXC"
      } ],
      "disc_number" : 3,
      "duration_ms" : 308466,
      "explicit" : false,
      "external_ids" : {
        "isrc" : "USSP39157938"
      },
      "external_urls" : {
        "spotify" : "https://open.spotify.com/track/4pgHzmGptlTlQV0wO4ZOzr"
      },
      "href" : "https://api.spotify.com/v1/tracks/4pgHzmGptlTlQV0wO4ZOzr",
      "id" : "4pgHzmGptlTlQV0wO4ZOzr",
      "is_local" : false,
      "is_playable" : true,
      "name" : "O Sacred Head, Now Wounded",
      "popularity" : 14,
      "preview_url" : null,
      "track_number" : 9,
      "type" : "track",
      "uri" : "spotify:track:4pgHzmGptlTlQV0wO4ZOzr"
    }, {
      "album" : {
        "album_type" : "album",
        "artists" : [ {
          "external_urls" : {
            "spotify" : "https://open.spotify.com/artist/7plcCuYAfwxST9cnnJZhuf"
          },
          "href" : "https://api.spotify.com/v1/artists/7plcCuYAfwxST9cnnJZhuf",
          "id" : "7plcCuYAfwxST9cnnJZhuf",
          "name" : "The Hymn Ensemble",
          "type" : "artist",
          "uri" : "spotify:artist:7plcCuYAfwxST9cnnJZhuf"
        } ],
        "external_urls" : {
          "spotify" : "https://open.spotify.com/album/0gtT7lZYLthC6nH4JRuokr"
        },
        "href" : "https://api.spotify.com/v1/albums/0gtT7lZYLthC6nH4JRuokr",
        "id" : "0gtT7lZYLthC6nH4JRuokr",
        "images" : [ {
          "height" : 640,
          "url" : "https://i.scdn.co/image/ab67616d0000b273d1c2aa08cda92438e4ddc212",
          "width" : 640
        }, {
          "height" : 300,
          "url" : "https://i.scdn.co/image/ab67616d00001e02d1c2aa08cda92438e4ddc212",
          "width" : 300
        }, {
          "height" : 64,
          "url" : "https://i.scdn.co/image/ab67616d00004851d1c2aa08cda92438e4ddc212",
          "width" : 64
        } ],
        "name" : "Instrumental Gospel: Gospel Hymns",
        "release_date" : "2012-06-13",
        "release_date_precision" : "day",
        "total_tracks" : 15,
        "type" : "album",
        "uri" : "spotify:album:0gtT7lZYLthC6nH4JRuokr"
      },
      "artists" : [ {
        "external_urls" : {
          "spotify" : "https://open.spotify.com/artist/7plcCuYAfwxST9cnnJZhuf"
        },
        "href" : "https://api.spotify.com/v1/artists/7plcCuYAfwxST9cnnJZhuf",
        "id" : "7plcCuYAfwxST9cnnJZhuf",
        "name" : "The Hymn Ensemble",
        "type" : "artist",
        "uri" : "spotify:artist:7plcCuYAfwxST9cnnJZhuf"
      } ],
      "disc_number" : 1,
      "duration_ms" : 137640,
      "explicit" : false,
      "external_ids" : {
        "isrc" : "USA371237683"
      },
      "external_urls" : {
        "spotify" : "https://open.spotify.com/track/6Lq2icriBbJr7WqBaKlCvH"
      },
      "href" : "https://api.spotify.com/v1/tracks/6Lq2icriBbJr7WqBaKlCvH",
      "id" : "6Lq2icriBbJr7WqBaKlCvH",
      "is_local" : false,
      "is_playable" : true,
      "name" : "O Sacred Head, Now Wounded",
      "popularity" : 15,
      "preview_url" : "https://p.scdn.co/mp3-preview/48c3074ec718d7488be7a9b04b49895bdcb4eb45?cid=774b29d4f13844c495f206cafdad9c86",
      "track_number" : 4,
      "type" : "track",
      "uri" : "spotify:track:6Lq2icriBbJr7WqBaKlCvH"
    } ],
    "limit" : 10,
    "next" : "https://api.spotify.com/v1/search?query=O+Sacred+Head+Now+Wounded&type=track&market=US&offset=15&limit=10",
    "offset" : 5,
    "previous" : "https://api.spotify.com/v1/search?query=O+Sacred+Head+Now+Wounded&type=track&market=US&offset=0&limit=10",
    "total" : 335
  }
}