{
  "tracks" : {
    "href" : "https://api.spotify.com/v1/search?query=Day+Is+Dying+in+the+West&type=track&market=US&offset=5&limit=10",
    "items" : [ {
      "album" : {
        "album_type" : "album",
        "artists" : [ {
          "external_urls" : {
            "spotify" : "https://open.spotify.com/artist/0Mh5R3oH7nKkiDyULFzD5y"
          },
          "href" : "https://api.spotify.com/v1/artists/0Mh5R3oH7nKkiDyULFzD5y",
          "id" : "0Mh5R3oH7nKkiDyULFzD5y",
          "name" : "The Sweet Potatoes",
          "type" : "artist",
          "uri" : "spotify:artist:0Mh5R3oH7nKkiDyULFzD5y"
        } ],
        "external_urls" : {
          "spotify" : "https://open.spotify.com/album/4RsjfhXXeIl69NsQ80V5AX"
        },
        "href" : "https://api.spotify.com/v1/albums/4RsjfhXXeIl69NsQ80V5AX",
        "id" : "4RsjfhXXeIl69NsQ80V5AX",
        "images" : [ {
          "height" : 640,
          "url" : "https://i.scdn.co/image/ab67616d0000b273591e9fa0dc4f6c44e51f4a57",
          "width" : 640
        }, {
          "height" : 300,
          "url" : "https://i.scdn.co/image/ab67616d00001e02591e9fa0dc4f6c44e51f4a57",
          "width" : 300
        }, {
          "height" : 64,
          "url" : "https://i.scdn.co/image/ab67616d00004851591e9fa0dc4f6c44e51f4a57",
          "width" : 64
        } ],
        "name" : "The Sweet Potatoes",
        "release_date" : "2010-07-16",
        "release_date_precision" : "day",
        "total_tracks" : 13,
        "type" : "album",
        "uri" : "spotify:album:4RsjfhXXeIl69NsQ80V5AX"
      },
      "artists" : [ {
        "external_urls" : {
          "spotify" : "https://open.spotify.com/artist/0Mh5R3oH7nKkiDyULFzD5y"
        },
        "href" : "https://api.spotify.com/v1/artists/0Mh5R3oH7nKkiDyULFzD5y",
        "id" : "0Mh5R3oH7nKkiDyULFzD5y",
        "name" : "The Sweet Potatoes",
        "type" : "artist",
        "uri" : "spotify:artist:0Mh5R3oH7nKkiDyULFzD5y"
      } ],
      "disc_number" : 1,
      "duration_ms" : 119866,
      "explicit" : false,
      "external_ids" : {
        "isrc" : "ushm81002548"
      },
      "external_urls" : {
        "spotify" : "https://open.spotify.com/track/0JJAn8RglkgqmyZxvOPsjB"
      },
      "href" : "https://api.spotify.com/v1/tracks/0JJAn8RglkgqmyZxvOPsjB",
      "id" : "0JJAn8RglkgqmyZxvOPsjB",
      "is_local" : false,
      "is_playable" : true,
      "name" : "Day Is Dying In The West",
      "popularity" : 0,
      "preview_url" : "https://p.scdn.co/mp3-preview/9b826657963459a7647b65abc145811ddb383c8c?cid=774b29d4f13844c495f206cafdad9c86",
      "track_number" : 13,
      "type" : "track",
      "uri" : "spotify:track:0JJAn8RglkgqmyZxvOPsjB"
    }, {
      "album" : {
        "album_type" : "album",
        "artists" : [ {
          "external_urls" : {
            "spotify" : "https://open.spotify.com/artist/20rlbkwNSoLrLqQUR7GRcT"
          },
          "href" : "https://api.spotify.com/v1/artists/20rlbkwNSoLrLqQUR7GRcT",
          "id" : "20rlbkwNSoLrLqQUR7GRcT",
          "name" : "Mother’s Lullaby",
          "type" : "artist",
          "uri" : "spotify:artist:20rlbkwNSoLrLqQUR7GRcT"
        } ],
        "external_urls" : {
          "spotify" : "https://open.spotify.com/album/74mS5VsGCnCbR1hxN5oCpn"
        },
        "href" : "https://api.spotify.com/v1/albums/74mS5VsGCnCbR1hxN5oCpn",
        "id" : "74mS5VsGCnCbR1hxN5oCpn",
        "images" : [ {
          "height" : 640,
          "url" : "https://i.scdn.co/image/ab67616d0000b27335b71daa5107db21a9c3a43f",
          "width" : 640
        }, {
          "height" : 300,
          "url" : "https://i.scdn.co/image/ab67616d00001e0235b71daa5107db21a9c3a43f",
          "width" : 300
        }, {
          "height" : 64,
          "url" : "https://i.scdn.co/image/ab67616d0000485135b71daa5107db21a9c3a43f",
          "width" : 64
        } ],
        "name" : "Hymns Vol.3 (#51~#75)",
        "release_date" : "2019-02-22",
        "release_date_precision" : "day",
        "total_tracks" : 25,
        "type" : "album",
        "uri" : "spotify:album:74mS5VsGCnCbR1hxN5oCpn"
      },
      "artists" : [ {
        "external_urls" : {
          "spotify" : "https://open.spotify.com/artist/20rlbkwNSoLrLqQUR7GRcT"
        },
        "href" : "https://api.spotify.com/v1/artists/20rlbkwNSoLrLqQUR7GRcT",
        "id" : "20rlbkwNSoLrLqQUR7GRcT",
        "name" : "Mother’s Lullaby",
        "type" : "artist",
        "uri" : "spotify:artist:20rlbkwNSoLrLqQUR7GRcT"
      } ],
      "disc_number" : 1,
      "duration_ms" : 231857,
      "explicit" : false,
      "external_ids" : {
        "isrc" : "KRZ291908376"
      },
      "external_urls" : {
        "spotify" : "https://open.spotify.com/track/1FWLGWChNJcN213eR41xkG"
      },
      "href" : "https://api.spotify.com/v1/tracks/1FWLGWChNJcN213eR41xkG",
      "id" : "1FWLGWChNJcN213eR41xkG",
      "is_local" : false,
      "is_playable" : true,
      "name" : "Day Is Dying In The West",
      "popularity" : 0,
      "preview_url" : "https://p.scdn.co/mp3-preview/62a7462b31df1cdf2e7efdf49ec3ee6666fe400f?cid=774b29d4f13844c495f206cafdad9c86",
      "track_number" : 13,
      "type" : "track",
      "uri" : "spotify:track:1FWLGWChNJcN213eR41xkG"
    }, {
      "album" : {
        "album_type" : "single",
        "artists" : [ {
          "external_urls" : {
            "spotify" : "https://open.spotify.com/artist/33c0BeAErD3vae90Gt4M80"
          },
          "href" : "https://api.spotify.com/v1/artists/33c0BeAErD3vae90Gt4M80",
          "id" : "33c0BeAErD3vae90Gt4M80",
          "name" : "HolyCow",
          "type" : "artist",
          "uri" : "spotify:artist:33c0BeAErD3vae90Gt4M80"
        } ],
        "external_urls" : {
          "spotify" : "https://open.spotify.com/album/4CQ9vPVSXevEXerT1OWQId"
        },
        "href" : "https://api.spotify.com/v1/albums/4CQ9vPVSXevEXerT1OWQId",
        "id" : "4CQ9vPVSXevEXerT1OWQId",
        "images" : [ {
          "height" : 640,
          "url" : "https://i.scdn.co/image/ab67616d0000b27345b6b2ea4b82fa8d64c6ad04",
          "width" : 640
        }, {
          "height" : 300,
          "url" : "https://i.scdn.co/image/ab67616d00001e0245b6b2ea4b82fa8d64c6ad04",
          "width" : 300
        }, {
          "height" : 64,
          "url" : "https://i.scdn.co/image/ab67616d0000485145b6b2ea4b82fa8d64c6ad04",
          "width" : 64
        } ],
        "name" : "Hymns Piano for Prayer and Meditation Vol. 2 (Meditation Prayer, Dawn Prayer, Rest, Meditation, Prayer Music, Healing, Healing, Hymn, CCM)",
        "release_date" : "2019-04-16",
        "release_date_precision" : "day",
        "total_tracks" : 2,
        "type" : "album",
        "uri" : "spotify:album:4CQ9vPVSXevEXerT1OWQId"
      },
      "artists" : [ {
        "external_urls" : {
          "spotify" : "https://open.spotify.com/artist/33c0BeAErD3vae90Gt4M80"
        },
        "href" : "https://api.spotify.com/v1/artists/33c0BeAErD3vae90Gt4M80",
        "id" : "33c0BeAErD3vae90Gt4M80",
        "name" : "HolyCow",
        "type" : "artist",
        "uri" : "spotify:artist:33c0BeAErD3vae90Gt4M80"
      } ],
      "disc_number" : 1,
      "duration_ms" : 429533,
      "explicit" : false,
      "external_ids" : {
        "isrc" : "KRB921723225"
      },
      "external_urls" : {
        "spotify" : "https://open.spotify.com/track/3tQ19rP4WGAZTKOaahQY0m"
      },
      "href" : "https://api.spotify.com/v1/tracks/3tQ19rP4WGAZTKOaahQY0m",
      "id" : "3tQ19rP4WGAZTKOaahQY0m",
      "is_local" : false,
      "is_playable" : true,
      "name" : "Day is Dying in the West",
      "popularity" : 0,
      "preview_url" : "https://p.scdn.co/mp3-preview/e8829bcbbb0fffcc6281028ede02e34ff46de02f?cid=774b29d4f13844c495f206cafdad9c86",
      "track_number" : 1,
      "type" : "track",
      "uri" : "spotify:track:3tQ19rP4WGAZTKOaahQY0m"
    }, {
      "album" : {
        "album_type" : "album",
        "artists" : [ {
          "external_urls" : {
            "spotify" : "https://open.spotify.com/artist/1CYJxm806HoF0PuLEhAOaA"
          },
          "href" : "https://api.spotify.com/v1/artists/1CYJxm806HoF0PuLEhAOaA",
          "id" : "1CYJxm806HoF0PuLEhAOaA",
          "name" : "Brian Oaks",
          "type" : "artist",
          "uri" : "spotify:artist:1CYJxm806HoF0PuLEhAOaA"
        } ],
        "external_urls" : {
          "spotify" : "https://open.spotify.com/album/5GAkVcknZ1WAWoIVCX3N6t"
        },
        "href" : "https://api.spotify.com/v1/albums/5GAkVcknZ1WAWoIVCX3N6t",
        "id" : "5GAkVcknZ1WAWoIVCX3N6t",
        "images" : [ {
          "height" : 640,
          "url" : "https://i.scdn.co/image/ab67616d0000b2737ce0899e245f906d18e1cab0",
          "width" : 640
        }, {
          "height" : 300,
          "url" : "https://i.scdn.co/image/ab67616d00001e027ce0899e245f906d18e1cab0",
          "width" : 300
        }, {
          "height" : 64,
          "url" : "https://i.scdn.co/image/ab67616d000048517ce0899e245f906d18e1cab0",
          "width" : 64
        } ],
        "name" : "There Still Is Room",
        "release_date" : "2007-01-01",
        "release_date_precision" : "day",
        "total_tracks" : 11,
        "type" : "album",
        "uri" : "spotify:album:5GAkVcknZ1WAWoIVCX3N6t"
      },
      "artists" : [ {
        "external_urls" : {
          "spotify" : "https://open.spotify.com/artist/1CYJxm806HoF0PuLEhAOaA"
        },
        "href" : "https://api.spotify.com/v1/artists/1CYJxm806HoF0PuLEhAOaA",
        "id" : "1CYJxm806HoF0PuLEhAOaA",
        "name" : "Brian Oaks",
        "type" : "artist",
        "uri" : "spotify:artist:1CYJxm806HoF0PuLEhAOaA"
      } ],
      "disc_number" : 1,
      "duration_ms" : 270840,
      "explicit" : false,
      "external_ids" : {
        "isrc" : "ushm20731959"
      },
      "external_urls" : {
        "spotify" : "https://open.spotify.com/track/49qTSFpha7Y3IJ7Vjtw8It"
      },
      "href" : "https://api.spotify.com/v1/tracks/49qTSFpha7Y3IJ7Vjtw8It",
      "id" : "49qTSFpha7Y3IJ7Vjtw8It",
      "is_local" : false,
      "is_playable" : true,
      "name" : "Day Is Dying In The West",
      "popularity" : 1,
      "preview_url" : "https://p.scdn.co/mp3-preview/ddcf650c17aff035d8e328fbcb0a06595532030e?cid=774b29d4f13844c495f206cafdad9c86",
      "track_number" : 8,
      "type" : "track",
      "uri" : "spotify:track:49qTSFpha7Y3IJ7Vjtw8It"
    }, {
      "album" : {
        "album_type" : "album",
        "artists" : [ {
          "external_urls" : {
            "spotify" : "https://open.spotify.com/artist/0XOGhQGVg5HkdudMPgyqYj"
          },
          "href" : "https://api.spotify.com/v1/artists/0XOGhQGVg5HkdudMPgyqYj",
          "id" : "0XOGhQGVg5HkdudMPgyqYj",
          "name" : "George Beverly Shea",
          "type" : "artist",
          "uri" : "spotify:artist:0XOGhQGVg5HkdudMPgyqYj"
        } ],
        "external_urls" : {
          "spotify" : "https://open.spotify.com/album/2rH7U7ncDf5EUmDdPlq7P3"
        },
        "href" : "https://api.spotify.com/v1/albums/2rH7U7ncDf5EUmDdPlq7P3",
        "id" : "2rH7U7ncDf5EUmDdPlq7P3",
        "images" : [ {
          "height" : 640,
          "url" : "https://i.scdn.co/image/ab67616d0000b2730dbfda3c2bbf90374abd71e0",
          "width" : 640
        }, {
          "height" : 300,
          "url" : "https://i.scdn.co/image/ab67616d00001e020dbfda3c2bbf90374abd71e0",
          "width" : 300
        }, {
          "height" : 64,
          "url" : "https://i.scdn.co/image/ab67616d000048510dbfda3c2bbf90374abd71e0",
          "width" : 64
        } ],
        "name" : "Sings Hymns of Sunrise and Sunset",
        "release_date" : "1964",
        "release_date_precision" : "year",
        "total_tracks" : 12,
        "type" : "album",
        "uri" : "spotify:album:2rH7U7ncDf5EUmDdPlq7P3"
      },
      "artists" : [ {
        "external_urls" : {
          "spotify" : "https://open.spotify.com/artist/0XOGhQGVg5HkdudMPgyqYj"
        },
        "href" : "https://api.spotify.com/v1/artists/0XOGhQGVg5HkdudMPgyqYj",
        "id" : "0XOGhQGVg5HkdudMPgyqYj",
        "name" : "George Beverly Shea",
        "type" : "artist",
        "uri" : "spotify:artist:0XOGhQGVg5HkdudMPgyqYj"
      } ],
      "disc_number" : 1,
      "duration_ms" : 196253,
      "explicit" : false,
      "external_ids" : {
        "isrc" : "USRC11402943"
      },
      "external_urls" : {
        "spotify" : "https://open.spotify.com/track/19emQ3QLVfAi28psGWw6Tj"
      },
      "href" : "https://api.spotify.com/v1/tracks/19emQ3QLVfAi28psGWw6Tj",
      "id" : "19emQ3QLVfAi28psGWw6Tj",
      "is_local" : false,
      "is_playable" : true,
      "name" : "Day Is Dying in the West",
      "popularity" : 1,
      "preview_url" : "https://p.scdn.co/mp3-preview/d14f0bcf9cba54362869608ada48e95bd68d1681?cid=774b29d4f13844c495f206cafdad9c86",
      "track_number" : 11,
      "type" : "track",
      "uri" : "spotify:track:19emQ3QLVfAi28psGWw6Tj"
    }, {
      "album" : {
        "album_type" : "album",
        "artists" : [ {
          "external_urls" : {
            "spotify" : "https://open.spotify.com/artist/3dwjrb6k9qG1E7sEthEv52"
          },
          "href" : "https://api.spotify.com/v1/artists/3dwjrb6k9qG1E7sEthEv52",
          "id" : "3dwjrb6k9qG1E7sEthEv52",
          "name" : "Betty Johnson Lydia Gray Elisabeth Gray",
          "type" : "artist",
          "uri" : "spotify:artist:3dwjrb6k9qG1E7sEthEv52"
        } ],
        "external_urls" : {
          "spotify" : "https://open.spotify.com/album/3LFi2k9uxzWjCpQvSeQkH6"
        },
        "href" : "https://api.spotify.com/v1/albums/3LFi2k9uxzWjCpQvSeQkH6",
        "id" : "3LFi2k9uxzWjCpQvSeQkH6",
        "images" : [ {
          "height" : 640,
          "url" : "https://i.scdn.co/image/ab67616d0000b273cfe85f19f2346302e746a320",
          "width" : 640
        }, {
          "height" : 300,
          "url" : "https://i.scdn.co/image/ab67616d00001e02cfe85f19f2346302e746a320",
          "width" : 300
        }, {
          "height" : 64,
          "url" : "https://i.scdn.co/image/ab67616d00004851cfe85f19f2346302e746a320",
          "width" : 64
        } ],
        "name" : "In The Garden",
        "release_date" : "2000",
        "release_date_precision" : "year",
        "total_tracks" : 17,
        "type" : "album",
        "uri" : "spotify:album:3LFi2k9uxzWjCpQvSeQkH6"
      },
      "artists" : [ {
        "external_urls" : {
          "spotify" : "https://open.spotify.com/artist/5sd5HUqs2WPo6rD6qiGOfv"
        },
        "href" : "https://api.spotify.com/v1/artists/5sd5HUqs2WPo6rD6qiGOfv",
        "id" : "5sd5HUqs2WPo6rD6qiGOfv",
        "name" : "Bettty Johnson",
        "type" : "artist",
        "uri" : "spotify:artist:5sd5HUqs2WPo6rD6qiGOfv"
      } ],
      "disc_number" : 1,
      "duration_ms" : 153306,
      "explicit" : false,
      "external_ids" : {
        "isrc" : "ushm20409863"
      },
      "external_urls" : {
        "spotify" : "https://open.spotify.com/track/62F9V5wKP0gZT71f6zWf4c"
      },
      "href" : "https://api.spotify.com/v1/tracks/62F9V5wKP0gZT71f6zWf4c",
      "id" : "62F9V5wKP0gZT71f6zWf4c",
      "is_local" : false,
      "is_playable" : true,
      "name" : "Day Is Dying in the West",
      "popularity" : 0,
      "preview_url" : "https://p.scdn.co/mp3-preview/b214630881892327cf5ee45c3fb42f4e7af16949?cid=774b29d4f13844c495f206cafdad9c86",
      "track_number" : 2,
      "type" : "track",
      "uri" : "spotify:track:62F9V5wKP0gZT71f6zWf4c"
    }, {
      "album" : {
        "album_type" : "album",
        "artists" : [ {
          "external_urls" : {
            "spotify" : "https://open.spotify.com/artist/6zCKr405jB5b6QI1IfFnf2"
          },
          "href" : "https://api.spotify.com/v1/artists/6zCKr405jB5b6QI1IfFnf2",
          "id" : "6zCKr405jB5b6QI1IfFnf2",
          "name" : "Dallas Christian Adult Concert Choir",
          "type" : "artist",
          "uri" : "spotify:artist:6zCKr405jB5b6QI1IfFnf2"
        } ],
        "external_urls" : {
          "spotify" : "https://open.spotify.com/album/36YcI3PIcjXrNpXQZ5miiB"
        },
        "href" : "https://api.spotify.com/v1/albums/36YcI3PIcjXrNpXQZ5miiB",
        "id" : "36YcI3PIcjXrNpXQZ5miiB",
        "images" : [ {
          "height" : 640,
          "url" : "https://i.scdn.co/image/ab67616d0000b2734c83d6e0268a41ceec1cfb4b",
          "width" : 640
        }, {
          "height" : 300,
          "url" : "https://i.scdn.co/image/ab67616d00001e024c83d6e0268a41ceec1cfb4b",
          "width" : 300
        }, {
          "height" : 64,
          "url" : "https://i.scdn.co/image/ab67616d000048514c83d6e0268a41ceec1cfb4b",
          "width" : 64
        } ],
        "name" : "He Lifted Me",
        "release_date" : "2008-03-25",
        "release_date_precision" : "day",
        "total_tracks" : 20,
        "type" : "album",
        "uri" : "spotify:album:36YcI3PIcjXrNpXQZ5miiB"
      },
      "artists" : [ {
        "external_urls" : {
          "spotify" : "https://open.spotify.com/artist/6zCKr405jB5b6QI1IfFnf2"
        },
        "href" : "https://api.spotify.com/v1/artists/6zCKr405jB5b6QI1IfFnf2",
        "id" : "6zCKr405jB5b6QI1IfFnf2",
        "name" : "Dallas Christian Adult Concert Choir",
        "type" : "artist",
        "uri" : "spotify:artist:6zCKr405jB5b6QI1IfFnf2"
      } ],
      "disc_number" : 1,
      "duration_ms" : 134813,
      "explicit" : false,
      "external_ids" : {
        "isrc" : "USMZA0810549"
      },
      "external_urls" : {
        "spotify" : "https://open.spotify.com/track/4MXRHD85e42siqp12QeMvc"
      },
      "href" : "https://api.spotify.com/v1/tracks/4MXRHD85e42siqp12QeMvc",
      "id" : "4MXRHD85e42siqp12QeMvc",
      "is_local" : false,
      "is_playable" : true,
      "name" : "Day Is Dying In The West",
      "popularity" : 1,
      "preview_url" : "https://p.scdn.co/mp3-preview/3d47944162f8b1562fa26d755f17c6f6c1ee8762?cid=774b29d4f13844c495f206cafdad9c86",
      "track_number" : 6,
      "type" : "track",
      "uri" : "spotify:track:4MXRHD85e42siqp12QeMvc"
    }, {
      "album" : {
        "album_type" : "album",
        "artists" : [ {
          "external_urls" : {
            "spotify" : "https://open.spotify.com/artist/0SMQbY8l9Mph9d8NLv92oh"
          },
          "href" : "https://api.spotify.com/v1/artists/0SMQbY8l9Mph9d8NLv92oh",
          "id" : "0SMQbY8l9Mph9d8NLv92oh",
          "name" : "RiNG-O choir",
          "type" : "artist",
          "uri" : "spotify:artist:0SMQbY8l9Mph9d8NLv92oh"
        } ],
        "external_urls" : {
          "spotify" : "https://open.spotify.com/album/5hH2EM8nmVa9h2ayJc3OeB"
        },
        "href" : "https://api.spotify.com/v1/albums/5hH2EM8nmVa9h2ayJc3OeB",
        "id" : "5hH2EM8nmVa9h2ayJc3OeB",
        "images" : [ {
          "height" : 640,
          "url" : "https://i.scdn.co/image/ab67616d0000b273953737fabee2e3f59a50162f",
          "width" : 640
        }, {
          "height" : 300,
          "url" : "https://i.scdn.co/image/ab67616d00001e02953737fabee2e3f59a50162f",
          "width" : 300
        }, {
          "height" : 64,
          "url" : "https://i.scdn.co/image/ab67616d00004851953737fabee2e3f59a50162f",
          "width" : 64
        } ],
        "name" : "Beautiful Hymn Melodies vol.19",
        "release_date" : "2016-03-01",
        "release_date_precision" : "day",
        "total_tracks" : 10,
        "type" : "album",
        "uri" : "spotify:album:5hH2EM8nmVa9h2ayJc3OeB"
      },
      "artists" : [ {
        "external_urls" : {
          "spotify" : "https://open.spotify.com/artist/0SMQbY8l9Mph9d8NLv92oh"
        },
        "href" : "https://api.spotify.com/v1/artists/0SMQbY8l9Mph9d8NLv92oh",
        "id" : "0SMQbY8l9Mph9d8NLv92oh",
        "name" : "RiNG-O choir",
        "type" : "artist",
        "uri" : "spotify:artist:0SMQbY8l9Mph9d8NLv92oh"
      } ],
      "disc_number" : 1,
      "duration_ms" : 90070,
      "explicit" : false,
      "external_ids" : {
        "isrc" : "TCJPE1644415"
      },
      "external_urls" : {
        "spotify" : "https://open.spotify.com/track/2qoxsqL3tckNDfgH3kPffO"
      },
      "href" : "https://api.spotify.com/v1/tracks/2qoxsqL3tckNDfgH3kPffO",
      "id" : "2qoxsqL3tckNDfgH3kPffO",
      "is_local" : false,
      "is_playable" : true,
      "name" : "Day Is Dying in the West",
      "popularity" : 1,
      "preview_url" : "https://p.scdn.co/mp3-preview/aabca934965f0f03cae2c6d413566f5c71b51097?cid=774b29d4f13844c495f206cafdad9c86",
      "track_number" : 10,
      "type" : "track",
      "uri" : "spotify:track:2qoxsqL3tckNDfgH3kPffO"
    }, {
      "album" : {
        "album_type" : "album",
        "artists" : [ {
          "external_urls" : {
            "spotify" : "https://open.spotify.com/artist/1l6ZPZRLXJaKdXIcLb3EIL"
          },
          "href" : "https://api.spotify.com/v1/artists/1l6ZPZRLXJaKdXIcLb3EIL",
          "id" : "1l6ZPZRLXJaKdXIcLb3EIL",
          "name" : "Rick Lange",
          "type" : "artist",
          "uri" : "spotify:artist:1l6ZPZRLXJaKdXIcLb3EIL"
        } ],
        "external_urls" : {
          "spotify" : "https://open.spotify.com/album/4j58tK1DObxFcdZqPj8e3Y"
        },
        "href" : "https://api.spotify.com/v1/albums/4j58tK1DObxFcdZqPj8e3Y",
        "id" : "4j58tK1DObxFcdZqPj8e3Y",
        "images" : [ {
          "height" : 640,
          "url" : "https://i.scdn.co/image/ab67616d0000b2735fb7c75280bde18fddb5a827",
          "width" : 640
        }, {
          "height" : 300,
          "url" : "https://i.scdn.co/image/ab67616d00001e025fb7c75280bde18fddb5a827",
          "width" : 300
        }, {
          "height" : 64,
          "url" : "https://i.scdn.co/image/ab67616d000048515fb7c75280bde18fddb5a827",
          "width" : 64
        } ],
        "name" : "Majestic Hymns",
        "release_date" : "2019-08-15",
        "release_date_precision" : "day",
        "total_tracks" : 13,
        "type" : "album",
        "uri" : "spotify:album:4j58tK1DObxFcdZqPj8e3Y"
      },
      "artists" : [ {
        "external_urls" : {
          "spotify" : "https://open.spotify.com/artist/1l6ZPZRLXJaKdXIcLb3EIL"
        },
        "href" : "https://api.spotify.com/v1/artists/1l6ZPZRLXJaKdXIcLb3EIL",
        "id" : "1l6ZPZRLXJaKdXIcLb3EIL",
        "name" : "Rick Lange",
        "type" : "artist",
        "uri" : "spotify:artist:1l6ZPZRLXJaKdXIcLb3EIL"
      } ],
      "disc_number" : 1,
      "duration_ms" : 321307,
      "explicit" : false,
      "external_ids" : {
        "isrc" : "ushm91972171"
      },
      "external_urls" : {
        "spotify" : "https://open.spotify.com/track/4NyYokEOb9u09NQhQk1gt3"
      },
      "href" : "https://api.spotify.com/v1/tracks/4NyYokEOb9u09NQhQk1gt3",
      "id" : "4NyYokEOb9u09NQhQk1gt3",
      "is_local" : false,
      "is_playable" : true,
      "name" : "Day Is Dying in the West",
      "popularity" : 0,
      "preview_url" : "https://p.scdn.co/mp3-preview/e4cbf4393423391db970ab9bee3b8e3007ace75a?cid=774b29d4f13844c495f206cafdad9c86",
      "track_number" : 9,
      "type" : "track",
      "uri" : "spotify:track:4NyYokEOb9u09NQhQk1gt3"
    }, {
      "album" : {
        "album_type" : "album",
        "artists" : [ {
          "external_urls" : {
            "spotify" : "https://open.spotify.com/artist/3lk8qatIcUand38OeCGxk9"
          },
          "href" : "https://api.spotify.com/v1/artists/3lk8qatIcUand38OeCGxk9",
          "id" : "3lk8qatIcUand38OeCGxk9",
          "name" : "Lorie Line",
          "type" : "artist",
          "uri" : "spotify:artist:3lk8qatIcUand38OeCGxk9"
        } ],
        "external_urls" : {
          "spotify" : "https://open.spotify.com/album/6GVnDcL9DLowrB4PpcfmJn"
        },
        "href" : "https://api.spotify.com/v1/albums/6GVnDcL9DLowrB4PpcfmJn",
        "id" : "6GVnDcL9DLowrB4PpcfmJn",
        "images" : [ {
          "height" : 640,
          "url" : "https://i.scdn.co/image/ab67616d0000b2739f47e4d83c3fc2ce178e8c3b",
          "width" : 640
        }, {
          "height" : 300,
          "url" : "https://i.scdn.co/image/ab67616d00001e029f47e4d83c3fc2ce178e8c3b",
          "width" : 300
        }, {
          "height" : 64,
          "url" : "https://i.scdn.co/image/ab67616d000048519f47e4d83c3fc2ce178e8c3b",
          "width" : 64
        } ],
        "name" : "The Heritage Collection, Vol. 8",
        "release_date" : "2017-08-17",
        "release_date_precision" : "day",
        "total_tracks" : 14,
        "type" : "album",
        "uri" : "spotify:album:6GVnDcL9DLowrB4PpcfmJn"
      },
      "artists" : [ {
        "external_urls" : {
          "spotify" : "https://open.spotify.com/artist/3lk8qatIcUand38OeCGxk9"
        },
        "href" : "https://api.spotify.com/v1/artists/3lk8qatIcUand38OeCGxk9",
        "id" : "3lk8qatIcUand38OeCGxk9",
        "name" : "Lorie Line",
        "type" : "artist",
        "uri" : "spotify:artist:3lk8qatIcUand38OeCGxk9"
      } ],
      "disc_number" : 1,
      "duration_ms" : 206333,
      "explicit" : false,
      "external_ids" : {
        "isrc" : "US42C1700739"
      },
      "external_urls" : {
        "spotify" : "https://open.spotify.com/track/11MEGjAmQUaf3msuPX49Gr"
      },
      "href" : "https://api.spotify.com/v1/tracks/11MEGjAmQUaf3msuPX49Gr",
      "id" : "11MEGjAmQUaf3msuPX49Gr",
      "is_local" : false,
      "is_playable" : true,
      "name" : "Day Is Dying in the West",
      "popularity" : 0,
      "preview_url" : "https://p.scdn.co/mp3-preview/cde7b4bcba8e9a24db699dc793134b7d358ca93b?cid=774b29d4f13844c495f206cafdad9c86",
      "track_number" : 9,
      "type" : "track",
      "uri" : "spotify:track:11MEGjAmQUaf3msuPX49Gr"
    } ],
    "limit" : 10,
    "next" : "https://api.spotify.com/v1/search?query=Day+Is+Dying+in+the+West&type=track&market=US&offset=15&limit=10",
    "offset" : 5,
    "previous" : "https://api.spotify.com/v1/search?query=Day+Is+Dying+in+the+West&type=track&market=US&offset=0&limit=10",
    "total" : 28
  }
}