{
  "tracks" : {
    "href" : "https://api.spotify.com/v1/search?query=The+Homeland&type=track&market=US&offset=5&limit=10",
    "items" : [ {
      "album" : {
        "album_type" : "album",
        "artists" : [ {
          "external_urls" : {
            "spotify" : "https://open.spotify.com/artist/5itJHkE0MNCpDbj3SSwIL8"
          },
          "href" : "https://api.spotify.com/v1/artists/5itJHkE0MNCpDbj3SSwIL8",
          "id" : "5itJHkE0MNCpDbj3SSwIL8",
          "name" : "Toners",
          "type" : "artist",
          "uri" : "spotify:artist:5itJHkE0MNCpDbj3SSwIL8"
        } ],
        "external_urls" : {
          "spotify" : "https://open.spotify.com/album/6fLHXJCiuIbwAx271WYFTw"
        },
        "href" : "https://api.spotify.com/v1/albums/6fLHXJCiuIbwAx271WYFTw",
        "id" : "6fLHXJCiuIbwAx271WYFTw",
        "images" : [ {
          "height" : 640,
          "url" : "https://i.scdn.co/image/ab67616d0000b273ce67e766b1b239743da48a58",
          "width" : 640
        }, {
          "height" : 300,
          "url" : "https://i.scdn.co/image/ab67616d00001e02ce67e766b1b239743da48a58",
          "width" : 300
        }, {
          "height" : 64,
          "url" : "https://i.scdn.co/image/ab67616d00004851ce67e766b1b239743da48a58",
          "width" : 64
        } ],
        "name" : "Tunes Now: Themes, Vol. 4",
        "release_date" : "2014-03-24",
        "release_date_precision" : "day",
        "total_tracks" : 26,
        "type" : "album",
        "uri" : "spotify:album:6fLHXJCiuIbwAx271WYFTw"
      },
      "artists" : [ {
        "external_urls" : {
          "spotify" : "https://open.spotify.com/artist/5itJHkE0MNCpDbj3SSwIL8"
        },
        "href" : "https://api.spotify.com/v1/artists/5itJHkE0MNCpDbj3SSwIL8",
        "id" : "5itJHkE0MNCpDbj3SSwIL8",
        "name" : "Toners",
        "type" : "artist",
        "uri" : "spotify:artist:5itJHkE0MNCpDbj3SSwIL8"
      } ],
      "disc_number" : 1,
      "duration_ms" : 34612,
      "explicit" : false,
      "external_ids" : {
        "isrc" : "USGN61310927"
      },
      "external_urls" : {
        "spotify" : "https://open.spotify.com/track/6ZROOZtME7fQrG5sibB81y"
      },
      "href" : "https://api.spotify.com/v1/tracks/6ZROOZtME7fQrG5sibB81y",
      "id" : "6ZROOZtME7fQrG5sibB81y",
      "is_local" : false,
      "is_playable" : true,
      "name" : "Homeland Theme (Terminal 7)",
      "popularity" : 30,
      "preview_url" : "https://p.scdn.co/mp3-preview/cbe20897fc123a9852babb63ceceb7467e854a74?cid=774b29d4f13844c495f206cafdad9c86",
      "track_number" : 7,
      "type" : "track",
      "uri" : "spotify:track:6ZROOZtME7fQrG5sibB81y"
    }, {
      "album" : {
        "album_type" : "compilation",
        "artists" : [ {
          "external_urls" : {
            "spotify" : "https://open.spotify.com/artist/6wXjctGBzxkT0ghwfQ8FC0"
          },
          "href" : "https://api.spotify.com/v1/artists/6wXjctGBzxkT0ghwfQ8FC0",
          "id" : "6wXjctGBzxkT0ghwfQ8FC0",
          "name" : "The High Kings",
          "type" : "artist",
          "uri" : "spotify:artist:6wXjctGBzxkT0ghwfQ8FC0"
        } ],
        "external_urls" : {
          "spotify" : "https://open.spotify.com/album/4t4UpDb4Tp2stjAQGBQ1IQ"
        },
        "href" : "https://api.spotify.com/v1/albums/4t4UpDb4Tp2stjAQGBQ1IQ",
        "id" : "4t4UpDb4Tp2stjAQGBQ1IQ",
        "images" : [ {
          "height" : 640,
          "url" : "https://i.scdn.co/image/ab67616d0000b273e92b807f9523ca21fba9600d",
          "width" : 640
        }, {
          "height" : 300,
          "url" : "https://i.scdn.co/image/ab67616d00001e02e92b807f9523ca21fba9600d",
          "width" : 300
        }, {
          "height" : 64,
          "url" : "https://i.scdn.co/image/ab67616d00004851e92b807f9523ca21fba9600d",
          "width" : 64
        } ],
        "name" : "Decade: Best Of The High Kings",
        "release_date" : "2017-11-17",
        "release_date_precision" : "day",
        "total_tracks" : 18,
        "type" : "album",
        "uri" : "spotify:album:4t4UpDb4Tp2stjAQGBQ1IQ"
      },
      "artists" : [ {
        "external_urls" : {
          "spotify" : "https://open.spotify.com/artist/6wXjctGBzxkT0ghwfQ8FC0"
        },
        "href" : "https://api.spotify.com/v1/artists/6wXjctGBzxkT0ghwfQ8FC0",
        "id" : "6wXjctGBzxkT0ghwfQ8FC0",
        "name" : "The High Kings",
        "type" : "artist",
        "uri" : "spotify:artist:6wXjctGBzxkT0ghwfQ8FC0"
      } ],
      "disc_number" : 1,
      "duration_ms" : 254040,
      "explicit" : false,
      "external_ids" : {
        "isrc" : "IEAAO1700030"
      },
      "external_urls" : {
        "spotify" : "https://open.spotify.com/track/0lMVF5OBzsFbAhxZXgQqN9"
      },
      "href" : "https://api.spotify.com/v1/tracks/0lMVF5OBzsFbAhxZXgQqN9",
      "id" : "0lMVF5OBzsFbAhxZXgQqN9",
      "is_local" : false,
      "is_playable" : true,
      "name" : "Homeland",
      "popularity" : 24,
      "preview_url" : null,
      "track_number" : 9,
      "type" : "track",
      "uri" : "spotify:track:0lMVF5OBzsFbAhxZXgQqN9"
    }, {
      "album" : {
        "album_type" : "album",
        "artists" : [ {
          "external_urls" : {
            "spotify" : "https://open.spotify.com/artist/54qL6HOA0vyhhnFw5inqXq"
          },
          "href" : "https://api.spotify.com/v1/artists/54qL6HOA0vyhhnFw5inqXq",
          "id" : "54qL6HOA0vyhhnFw5inqXq",
          "name" : "Mount Royal Orchestra",
          "type" : "artist",
          "uri" : "spotify:artist:54qL6HOA0vyhhnFw5inqXq"
        } ],
        "external_urls" : {
          "spotify" : "https://open.spotify.com/album/50mdlu5hcGia8P5FToBxl0"
        },
        "href" : "https://api.spotify.com/v1/albums/50mdlu5hcGia8P5FToBxl0",
        "id" : "50mdlu5hcGia8P5FToBxl0",
        "images" : [ {
          "height" : 640,
          "url" : "https://i.scdn.co/image/ab67616d0000b2735a973b5c9c5c83389d3b283a",
          "width" : 640
        }, {
          "height" : 300,
          "url" : "https://i.scdn.co/image/ab67616d00001e025a973b5c9c5c83389d3b283a",
          "width" : 300
        }, {
          "height" : 64,
          "url" : "https://i.scdn.co/image/ab67616d000048515a973b5c9c5c83389d3b283a",
          "width" : 64
        } ],
        "name" : "Best Instrumental TV Hits v2",
        "release_date" : "2016-08-24",
        "release_date_precision" : "day",
        "total_tracks" : 21,
        "type" : "album",
        "uri" : "spotify:album:50mdlu5hcGia8P5FToBxl0"
      },
      "artists" : [ {
        "external_urls" : {
          "spotify" : "https://open.spotify.com/artist/54qL6HOA0vyhhnFw5inqXq"
        },
        "href" : "https://api.spotify.com/v1/artists/54qL6HOA0vyhhnFw5inqXq",
        "id" : "54qL6HOA0vyhhnFw5inqXq",
        "name" : "Mount Royal Orchestra",
        "type" : "artist",
        "uri" : "spotify:artist:54qL6HOA0vyhhnFw5inqXq"
      } ],
      "disc_number" : 1,
      "duration_ms" : 96287,
      "explicit" : false,
      "external_ids" : {
        "isrc" : "GBLFP1620390"
      },
      "external_urls" : {
        "spotify" : "https://open.spotify.com/track/4ScuTjNcrqKr2yIHnUl4XO"
      },
      "href" : "https://api.spotify.com/v1/tracks/4ScuTjNcrqKr2yIHnUl4XO",
      "id" : "4ScuTjNcrqKr2yIHnUl4XO",
      "is_local" : false,
      "is_playable" : true,
      "name" : "Homeland (Theme)",
      "popularity" : 22,
      "preview_url" : "https://p.scdn.co/mp3-preview/1429558ccb3d82204c8f5f79756cfd7f37373646?cid=774b29d4f13844c495f206cafdad9c86",
      "track_number" : 16,
      "type" : "track",
      "uri" : "spotify:track:4ScuTjNcrqKr2yIHnUl4XO"
    }, {
      "album" : {
        "album_type" : "compilation",
        "artists" : [ {
          "external_urls" : {
            "spotify" : "https://open.spotify.com/artist/0LyfQWJT6nXafLPZqxe9Of"
          },
          "href" : "https://api.spotify.com/v1/artists/0LyfQWJT6nXafLPZqxe9Of",
          "id" : "0LyfQWJT6nXafLPZqxe9Of",
          "name" : "Various Artists",
          "type" : "artist",
          "uri" : "spotify:artist:0LyfQWJT6nXafLPZqxe9Of"
        } ],
        "external_urls" : {
          "spotify" : "https://open.spotify.com/album/00buc4TyAb8lLoTx4PRDrP"
        },
        "href" : "https://api.spotify.com/v1/albums/00buc4TyAb8lLoTx4PRDrP",
        "id" : "00buc4TyAb8lLoTx4PRDrP",
        "images" : [ {
          "height" : 640,
          "url" : "https://i.scdn.co/image/ab67616d0000b27384b0d5f9f20e8cd48493a59e",
          "width" : 640
        }, {
          "height" : 300,
          "url" : "https://i.scdn.co/image/ab67616d00001e0284b0d5f9f20e8cd48493a59e",
          "width" : 300
        }, {
          "height" : 64,
          "url" : "https://i.scdn.co/image/ab67616d0000485184b0d5f9f20e8cd48493a59e",
          "width" : 64
        } ],
        "name" : "The Color Purple (2015 Broadway Cast Recording)",
        "release_date" : "2016-02-19",
        "release_date_precision" : "day",
        "total_tracks" : 26,
        "type" : "album",
        "uri" : "spotify:album:00buc4TyAb8lLoTx4PRDrP"
      },
      "artists" : [ {
        "external_urls" : {
          "spotify" : "https://open.spotify.com/artist/46UMQ0cW8ToR8egkBRwAxZ"
        },
        "href" : "https://api.spotify.com/v1/artists/46UMQ0cW8ToR8egkBRwAxZ",
        "id" : "46UMQ0cW8ToR8egkBRwAxZ",
        "name" : "Cynthia Erivo",
        "type" : "artist",
        "uri" : "spotify:artist:46UMQ0cW8ToR8egkBRwAxZ"
      }, {
        "external_urls" : {
          "spotify" : "https://open.spotify.com/artist/3Kjgv5fhGVXArNy7yJY8CG"
        },
        "href" : "https://api.spotify.com/v1/artists/3Kjgv5fhGVXArNy7yJY8CG",
        "id" : "3Kjgv5fhGVXArNy7yJY8CG",
        "name" : "Joaquina Kalukango",
        "type" : "artist",
        "uri" : "spotify:artist:3Kjgv5fhGVXArNy7yJY8CG"
      }, {
        "external_urls" : {
          "spotify" : "https://open.spotify.com/artist/0FVBYoe38AFhKsgDCefY9D"
        },
        "href" : "https://api.spotify.com/v1/artists/0FVBYoe38AFhKsgDCefY9D",
        "id" : "0FVBYoe38AFhKsgDCefY9D",
        "name" : "2015 Broadway Cast",
        "type" : "artist",
        "uri" : "spotify:artist:0FVBYoe38AFhKsgDCefY9D"
      } ],
      "disc_number" : 1,
      "duration_ms" : 485146,
      "explicit" : false,
      "external_ids" : {
        "isrc" : "QMQYB1605918"
      },
      "external_urls" : {
        "spotify" : "https://open.spotify.com/track/6RRAY68NBlzQM1i2gM5gQ8"
      },
      "href" : "https://api.spotify.com/v1/tracks/6RRAY68NBlzQM1i2gM5gQ8",
      "id" : "6RRAY68NBlzQM1i2gM5gQ8",
      "is_local" : false,
      "is_playable" : true,
      "name" : "African Homeland",
      "popularity" : 23,
      "preview_url" : "https://p.scdn.co/mp3-preview/261810b3e54620a09364e1a8b16d3b9b6be77240?cid=774b29d4f13844c495f206cafdad9c86",
      "track_number" : 18,
      "type" : "track",
      "uri" : "spotify:track:6RRAY68NBlzQM1i2gM5gQ8"
    }, {
      "album" : {
        "album_type" : "album",
        "artists" : [ {
          "external_urls" : {
            "spotify" : "https://open.spotify.com/artist/0VeT7hHTJFJZcENGekjCsB"
          },
          "href" : "https://api.spotify.com/v1/artists/0VeT7hHTJFJZcENGekjCsB",
          "id" : "0VeT7hHTJFJZcENGekjCsB",
          "name" : "London Music Works",
          "type" : "artist",
          "uri" : "spotify:artist:0VeT7hHTJFJZcENGekjCsB"
        }, {
          "external_urls" : {
            "spotify" : "https://open.spotify.com/artist/2oQJQUIpJFFnfKvHJA0xBu"
          },
          "href" : "https://api.spotify.com/v1/artists/2oQJQUIpJFFnfKvHJA0xBu",
          "id" : "2oQJQUIpJFFnfKvHJA0xBu",
          "name" : "The City of Prague Philharmonic Orchestra",
          "type" : "artist",
          "uri" : "spotify:artist:2oQJQUIpJFFnfKvHJA0xBu"
        } ],
        "external_urls" : {
          "spotify" : "https://open.spotify.com/album/6ofiQUdoW20sQpwDVGkdGW"
        },
        "href" : "https://api.spotify.com/v1/albums/6ofiQUdoW20sQpwDVGkdGW",
        "id" : "6ofiQUdoW20sQpwDVGkdGW",
        "images" : [ {
          "height" : 640,
          "url" : "https://i.scdn.co/image/ab67616d0000b273173f2841f445182ee7ca4738",
          "width" : 640
        }, {
          "height" : 300,
          "url" : "https://i.scdn.co/image/ab67616d00001e02173f2841f445182ee7ca4738",
          "width" : 300
        }, {
          "height" : 64,
          "url" : "https://i.scdn.co/image/ab67616d00004851173f2841f445182ee7ca4738",
          "width" : 64
        } ],
        "name" : "The Music of Hans Zimmer: The Definitive Collection",
        "release_date" : "2014-09-02",
        "release_date_precision" : "day",
        "total_tracks" : 77,
        "type" : "album",
        "uri" : "spotify:album:6ofiQUdoW20sQpwDVGkdGW"
      },
      "artists" : [ {
        "external_urls" : {
          "spotify" : "https://open.spotify.com/artist/0VeT7hHTJFJZcENGekjCsB"
        },
        "href" : "https://api.spotify.com/v1/artists/0VeT7hHTJFJZcENGekjCsB",
        "id" : "0VeT7hHTJFJZcENGekjCsB",
        "name" : "London Music Works",
        "type" : "artist",
        "uri" : "spotify:artist:0VeT7hHTJFJZcENGekjCsB"
      } ],
      "disc_number" : 5,
      "duration_ms" : 216613,
      "explicit" : false,
      "external_ids" : {
        "isrc" : "GBAJC1100100"
      },
      "external_urls" : {
        "spotify" : "https://open.spotify.com/track/3SSlhbbQX33Bxgb9BpkEp7"
      },
      "href" : "https://api.spotify.com/v1/tracks/3SSlhbbQX33Bxgb9BpkEp7",
      "id" : "3SSlhbbQX33Bxgb9BpkEp7",
      "is_local" : false,
      "is_playable" : true,
      "name" : "Homeland (From \"Spirit: Stallion of the Cimarron\")",
      "popularity" : 19,
      "preview_url" : "https://p.scdn.co/mp3-preview/2494c2b49098bddf2d69a301295d33b818591f1e?cid=774b29d4f13844c495f206cafdad9c86",
      "track_number" : 6,
      "type" : "track",
      "uri" : "spotify:track:3SSlhbbQX33Bxgb9BpkEp7"
    }, {
      "album" : {
        "album_type" : "album",
        "artists" : [ {
          "external_urls" : {
            "spotify" : "https://open.spotify.com/artist/4s2yjPOxprl8aMVVguceHC"
          },
          "href" : "https://api.spotify.com/v1/artists/4s2yjPOxprl8aMVVguceHC",
          "id" : "4s2yjPOxprl8aMVVguceHC",
          "name" : "Heloisa Funk",
          "type" : "artist",
          "uri" : "spotify:artist:4s2yjPOxprl8aMVVguceHC"
        } ],
        "external_urls" : {
          "spotify" : "https://open.spotify.com/album/1LmjBYABDS9QbY8QNxUXcu"
        },
        "href" : "https://api.spotify.com/v1/albums/1LmjBYABDS9QbY8QNxUXcu",
        "id" : "1LmjBYABDS9QbY8QNxUXcu",
        "images" : [ {
          "height" : 640,
          "url" : "https://i.scdn.co/image/ab67616d0000b27318f17d8da4a2ca427e5a4f3d",
          "width" : 640
        }, {
          "height" : 300,
          "url" : "https://i.scdn.co/image/ab67616d00001e0218f17d8da4a2ca427e5a4f3d",
          "width" : 300
        }, {
          "height" : 64,
          "url" : "https://i.scdn.co/image/ab67616d0000485118f17d8da4a2ca427e5a4f3d",
          "width" : 64
        } ],
        "name" : "The Day",
        "release_date" : "2018-11-23",
        "release_date_precision" : "day",
        "total_tracks" : 10,
        "type" : "album",
        "uri" : "spotify:album:1LmjBYABDS9QbY8QNxUXcu"
      },
      "artists" : [ {
        "external_urls" : {
          "spotify" : "https://open.spotify.com/artist/4s2yjPOxprl8aMVVguceHC"
        },
        "href" : "https://api.spotify.com/v1/artists/4s2yjPOxprl8aMVVguceHC",
        "id" : "4s2yjPOxprl8aMVVguceHC",
        "name" : "Heloisa Funk",
        "type" : "artist",
        "uri" : "spotify:artist:4s2yjPOxprl8aMVVguceHC"
      } ],
      "disc_number" : 1,
      "duration_ms" : 122189,
      "explicit" : false,
      "external_ids" : {
        "isrc" : "DEAR41864064"
      },
      "external_urls" : {
        "spotify" : "https://open.spotify.com/track/1zttcoZAvHvgCihW4AQOdl"
      },
      "href" : "https://api.spotify.com/v1/tracks/1zttcoZAvHvgCihW4AQOdl",
      "id" : "1zttcoZAvHvgCihW4AQOdl",
      "is_local" : false,
      "is_playable" : true,
      "name" : "Homeland",
      "popularity" : 24,
      "preview_url" : "https://p.scdn.co/mp3-preview/1e6a0862c1c06d3bf8511d4081c30b349c562c2a?cid=774b29d4f13844c495f206cafdad9c86",
      "track_number" : 7,
      "type" : "track",
      "uri" : "spotify:track:1zttcoZAvHvgCihW4AQOdl"
    }, {
      "album" : {
        "album_type" : "album",
        "artists" : [ {
          "external_urls" : {
            "spotify" : "https://open.spotify.com/artist/01uI1SCsA0pLwWa2ENV6Gv"
          },
          "href" : "https://api.spotify.com/v1/artists/01uI1SCsA0pLwWa2ENV6Gv",
          "id" : "01uI1SCsA0pLwWa2ENV6Gv",
          "name" : "The Booth Brothers",
          "type" : "artist",
          "uri" : "spotify:artist:01uI1SCsA0pLwWa2ENV6Gv"
        } ],
        "external_urls" : {
          "spotify" : "https://open.spotify.com/album/2ZTQtkHn27UOoYxXCEWBPY"
        },
        "href" : "https://api.spotify.com/v1/albums/2ZTQtkHn27UOoYxXCEWBPY",
        "id" : "2ZTQtkHn27UOoYxXCEWBPY",
        "images" : [ {
          "height" : 640,
          "url" : "https://i.scdn.co/image/ab67616d0000b27329bfbe0d2a8e56d3ce0dc016",
          "width" : 640
        }, {
          "height" : 300,
          "url" : "https://i.scdn.co/image/ab67616d00001e0229bfbe0d2a8e56d3ce0dc016",
          "width" : 300
        }, {
          "height" : 64,
          "url" : "https://i.scdn.co/image/ab67616d0000485129bfbe0d2a8e56d3ce0dc016",
          "width" : 64
        } ],
        "name" : "Pure Southern Gospel",
        "release_date" : "2008-09-01",
        "release_date_precision" : "day",
        "total_tracks" : 10,
        "type" : "album",
        "uri" : "spotify:album:2ZTQtkHn27UOoYxXCEWBPY"
      },
      "artists" : [ {
        "external_urls" : {
          "spotify" : "https://open.spotify.com/artist/01uI1SCsA0pLwWa2ENV6Gv"
        },
        "href" : "https://api.spotify.com/v1/artists/01uI1SCsA0pLwWa2ENV6Gv",
        "id" : "01uI1SCsA0pLwWa2ENV6Gv",
        "name" : "The Booth Brothers",
        "type" : "artist",
        "uri" : "spotify:artist:01uI1SCsA0pLwWa2ENV6Gv"
      } ],
      "disc_number" : 1,
      "duration_ms" : 185546,
      "explicit" : false,
      "external_ids" : {
        "isrc" : "US3U80890067"
      },
      "external_urls" : {
        "spotify" : "https://open.spotify.com/track/17cvgqDNjfZIk7cgjcOCAH"
      },
      "href" : "https://api.spotify.com/v1/tracks/17cvgqDNjfZIk7cgjcOCAH",
      "id" : "17cvgqDNjfZIk7cgjcOCAH",
      "is_local" : false,
      "is_playable" : true,
      "name" : "Homeland",
      "popularity" : 16,
      "preview_url" : "https://p.scdn.co/mp3-preview/7b922e947e96598601c548e6913442c4d58c9bbe?cid=774b29d4f13844c495f206cafdad9c86",
      "track_number" : 3,
      "type" : "track",
      "uri" : "spotify:track:17cvgqDNjfZIk7cgjcOCAH"
    }, {
      "album" : {
        "album_type" : "album",
        "artists" : [ {
          "external_urls" : {
            "spotify" : "https://open.spotify.com/artist/3DH5T3XE9zij8BRWAxW6SF"
          },
          "href" : "https://api.spotify.com/v1/artists/3DH5T3XE9zij8BRWAxW6SF",
          "id" : "3DH5T3XE9zij8BRWAxW6SF",
          "name" : "Marco Sfogli",
          "type" : "artist",
          "uri" : "spotify:artist:3DH5T3XE9zij8BRWAxW6SF"
        } ],
        "external_urls" : {
          "spotify" : "https://open.spotify.com/album/3qpPGP9Zmkab4GEMSLyWLl"
        },
        "href" : "https://api.spotify.com/v1/albums/3qpPGP9Zmkab4GEMSLyWLl",
        "id" : "3qpPGP9Zmkab4GEMSLyWLl",
        "images" : [ {
          "height" : 640,
          "url" : "https://i.scdn.co/image/ab67616d0000b27332c0524c0b846ed1057fe41f",
          "width" : 640
        }, {
          "height" : 300,
          "url" : "https://i.scdn.co/image/ab67616d00001e0232c0524c0b846ed1057fe41f",
          "width" : 300
        }, {
          "height" : 64,
          "url" : "https://i.scdn.co/image/ab67616d0000485132c0524c0b846ed1057fe41f",
          "width" : 64
        } ],
        "name" : "Homeland",
        "release_date" : "2019-02-22",
        "release_date_precision" : "day",
        "total_tracks" : 9,
        "type" : "album",
        "uri" : "spotify:album:3qpPGP9Zmkab4GEMSLyWLl"
      },
      "artists" : [ {
        "external_urls" : {
          "spotify" : "https://open.spotify.com/artist/3DH5T3XE9zij8BRWAxW6SF"
        },
        "href" : "https://api.spotify.com/v1/artists/3DH5T3XE9zij8BRWAxW6SF",
        "id" : "3DH5T3XE9zij8BRWAxW6SF",
        "name" : "Marco Sfogli",
        "type" : "artist",
        "uri" : "spotify:artist:3DH5T3XE9zij8BRWAxW6SF"
      } ],
      "disc_number" : 1,
      "duration_ms" : 283400,
      "explicit" : false,
      "external_ids" : {
        "isrc" : "GBS8U1250201"
      },
      "external_urls" : {
        "spotify" : "https://open.spotify.com/track/1S7LDIJFVGYDZVuuU5IbD7"
      },
      "href" : "https://api.spotify.com/v1/tracks/1S7LDIJFVGYDZVuuU5IbD7",
      "id" : "1S7LDIJFVGYDZVuuU5IbD7",
      "is_local" : false,
      "is_playable" : true,
      "name" : "The 12th Hour",
      "popularity" : 26,
      "preview_url" : "https://p.scdn.co/mp3-preview/f017c8324416390d8f4f28075ac233a887295208?cid=774b29d4f13844c495f206cafdad9c86",
      "track_number" : 1,
      "type" : "track",
      "uri" : "spotify:track:1S7LDIJFVGYDZVuuU5IbD7"
    }, {
      "album" : {
        "album_type" : "compilation",
        "artists" : [ {
          "external_urls" : {
            "spotify" : "https://open.spotify.com/artist/0LyfQWJT6nXafLPZqxe9Of"
          },
          "href" : "https://api.spotify.com/v1/artists/0LyfQWJT6nXafLPZqxe9Of",
          "id" : "0LyfQWJT6nXafLPZqxe9Of",
          "name" : "Various Artists",
          "type" : "artist",
          "uri" : "spotify:artist:0LyfQWJT6nXafLPZqxe9Of"
        } ],
        "external_urls" : {
          "spotify" : "https://open.spotify.com/album/5AJPUyac5F4Rv1cwifPg8j"
        },
        "href" : "https://api.spotify.com/v1/albums/5AJPUyac5F4Rv1cwifPg8j",
        "id" : "5AJPUyac5F4Rv1cwifPg8j",
        "images" : [ {
          "height" : 640,
          "url" : "https://i.scdn.co/image/ab67616d0000b273c0845ed428423c5e9ac3f3cf",
          "width" : 640
        }, {
          "height" : 300,
          "url" : "https://i.scdn.co/image/ab67616d00001e02c0845ed428423c5e9ac3f3cf",
          "width" : 300
        }, {
          "height" : 64,
          "url" : "https://i.scdn.co/image/ab67616d00004851c0845ed428423c5e9ac3f3cf",
          "width" : 64
        } ],
        "name" : "Homeland Radio Hits Vol 6",
        "release_date" : "2018-04-24",
        "release_date_precision" : "day",
        "total_tracks" : 10,
        "type" : "album",
        "uri" : "spotify:album:5AJPUyac5F4Rv1cwifPg8j"
      },
      "artists" : [ {
        "external_urls" : {
          "spotify" : "https://open.spotify.com/artist/4Xz7wnBsB19sVuWsR9lONh"
        },
        "href" : "https://api.spotify.com/v1/artists/4Xz7wnBsB19sVuWsR9lONh",
        "id" : "4Xz7wnBsB19sVuWsR9lONh",
        "name" : "Kevin Spencer Family",
        "type" : "artist",
        "uri" : "spotify:artist:4Xz7wnBsB19sVuWsR9lONh"
      } ],
      "disc_number" : 1,
      "duration_ms" : 230360,
      "explicit" : false,
      "external_ids" : {
        "isrc" : "QM4TW1864288"
      },
      "external_urls" : {
        "spotify" : "https://open.spotify.com/track/3VvaHlr4qOvuwRIFPS8gjf"
      },
      "href" : "https://api.spotify.com/v1/tracks/3VvaHlr4qOvuwRIFPS8gjf",
      "id" : "3VvaHlr4qOvuwRIFPS8gjf",
      "is_local" : false,
      "is_playable" : true,
      "name" : "The Blood is Still There",
      "popularity" : 17,
      "preview_url" : "https://p.scdn.co/mp3-preview/45882c064173f76bd4387eb65a96d203a6878470?cid=774b29d4f13844c495f206cafdad9c86",
      "track_number" : 10,
      "type" : "track",
      "uri" : "spotify:track:3VvaHlr4qOvuwRIFPS8gjf"
    }, {
      "album" : {
        "album_type" : "album",
        "artists" : [ {
          "external_urls" : {
            "spotify" : "https://open.spotify.com/artist/758yIKdhJhWL6oTuTSFVV6"
          },
          "href" : "https://api.spotify.com/v1/artists/758yIKdhJhWL6oTuTSFVV6",
          "id" : "758yIKdhJhWL6oTuTSFVV6",
          "name" : "Dirk Maassen",
          "type" : "artist",
          "uri" : "spotify:artist:758yIKdhJhWL6oTuTSFVV6"
        } ],
        "external_urls" : {
          "spotify" : "https://open.spotify.com/album/2IOYol3hcKqgBL5JqxrmIr"
        },
        "href" : "https://api.spotify.com/v1/albums/2IOYol3hcKqgBL5JqxrmIr",
        "id" : "2IOYol3hcKqgBL5JqxrmIr",
        "images" : [ {
          "height" : 640,
          "url" : "https://i.scdn.co/image/ab67616d0000b273329245b8f55e76ed8af87a77",
          "width" : 640
        }, {
          "height" : 300,
          "url" : "https://i.scdn.co/image/ab67616d00001e02329245b8f55e76ed8af87a77",
          "width" : 300
        }, {
          "height" : 64,
          "url" : "https://i.scdn.co/image/ab67616d00004851329245b8f55e76ed8af87a77",
          "width" : 64
        } ],
        "name" : "The Sitting Room Piano (Chapter I)",
        "release_date" : "2014-04-05",
        "release_date_precision" : "day",
        "total_tracks" : 8,
        "type" : "album",
        "uri" : "spotify:album:2IOYol3hcKqgBL5JqxrmIr"
      },
      "artists" : [ {
        "external_urls" : {
          "spotify" : "https://open.spotify.com/artist/758yIKdhJhWL6oTuTSFVV6"
        },
        "href" : "https://api.spotify.com/v1/artists/758yIKdhJhWL6oTuTSFVV6",
        "id" : "758yIKdhJhWL6oTuTSFVV6",
        "name" : "Dirk Maassen",
        "type" : "artist",
        "uri" : "spotify:artist:758yIKdhJhWL6oTuTSFVV6"
      } ],
      "disc_number" : 1,
      "duration_ms" : 204890,
      "explicit" : false,
      "external_ids" : {
        "isrc" : "TCABW1442697"
      },
      "external_urls" : {
        "spotify" : "https://open.spotify.com/track/5Mqkdai2RPn4Hy6B6zYuiG"
      },
      "href" : "https://api.spotify.com/v1/tracks/5Mqkdai2RPn4Hy6B6zYuiG",
      "id" : "5Mqkdai2RPn4Hy6B6zYuiG",
      "is_local" : false,
      "is_playable" : true,
      "name" : "Homeland",
      "popularity" : 27,
      "preview_url" : "https://p.scdn.co/mp3-preview/1cb448ef3f20fe4d1393d724752dec7cb1fa63be?cid=774b29d4f13844c495f206cafdad9c86",
      "track_number" : 4,
      "type" : "track",
      "uri" : "spotify:track:5Mqkdai2RPn4Hy6B6zYuiG"
    } ],
    "limit" : 10,
    "next" : "https://api.spotify.com/v1/search?query=The+Homeland&type=track&market=US&offset=15&limit=10",
    "offset" : 5,
    "previous" : "https://api.spotify.com/v1/search?query=The+Homeland&type=track&market=US&offset=0&limit=10",
    "total" : 1958
  }
}