{
  "tracks" : {
    "href" : "https://api.spotify.com/v1/search?query=Songs+of+Thankfulness+and+Praise&type=track&market=US&offset=5&limit=10",
    "items" : [ {
      "album" : {
        "album_type" : "album",
        "artists" : [ {
          "external_urls" : {
            "spotify" : "https://open.spotify.com/artist/7s5ckY4PPs3xL4oREuHdNv"
          },
          "href" : "https://api.spotify.com/v1/artists/7s5ckY4PPs3xL4oREuHdNv",
          "id" : "7s5ckY4PPs3xL4oREuHdNv",
          "name" : "Alleluia Chorus",
          "type" : "artist",
          "uri" : "spotify:artist:7s5ckY4PPs3xL4oREuHdNv"
        } ],
        "external_urls" : {
          "spotify" : "https://open.spotify.com/album/36lfPFoUX8unYEvmMkxGuA"
        },
        "href" : "https://api.spotify.com/v1/albums/36lfPFoUX8unYEvmMkxGuA",
        "id" : "36lfPFoUX8unYEvmMkxGuA",
        "images" : [ {
          "height" : 640,
          "url" : "https://i.scdn.co/image/ab67616d0000b273344eb003a83ca9f694d762ff",
          "width" : 640
        }, {
          "height" : 300,
          "url" : "https://i.scdn.co/image/ab67616d00001e02344eb003a83ca9f694d762ff",
          "width" : 300
        }, {
          "height" : 64,
          "url" : "https://i.scdn.co/image/ab67616d00004851344eb003a83ca9f694d762ff",
          "width" : 64
        } ],
        "name" : "Festival Of Church Classics",
        "release_date" : "2010-03-09",
        "release_date_precision" : "day",
        "total_tracks" : 20,
        "type" : "album",
        "uri" : "spotify:album:36lfPFoUX8unYEvmMkxGuA"
      },
      "artists" : [ {
        "external_urls" : {
          "spotify" : "https://open.spotify.com/artist/7s5ckY4PPs3xL4oREuHdNv"
        },
        "href" : "https://api.spotify.com/v1/artists/7s5ckY4PPs3xL4oREuHdNv",
        "id" : "7s5ckY4PPs3xL4oREuHdNv",
        "name" : "Alleluia Chorus",
        "type" : "artist",
        "uri" : "spotify:artist:7s5ckY4PPs3xL4oREuHdNv"
      } ],
      "disc_number" : 1,
      "duration_ms" : 133813,
      "explicit" : false,
      "external_ids" : {
        "isrc" : "CAM460700474"
      },
      "external_urls" : {
        "spotify" : "https://open.spotify.com/track/3hqbrAUN5k0XiZJ4C1I7Yy"
      },
      "href" : "https://api.spotify.com/v1/tracks/3hqbrAUN5k0XiZJ4C1I7Yy",
      "id" : "3hqbrAUN5k0XiZJ4C1I7Yy",
      "is_local" : false,
      "is_playable" : true,
      "name" : "Songs Of Thankfulness And Praise",
      "popularity" : 0,
      "preview_url" : "https://p.scdn.co/mp3-preview/8e4e2c666a75b7c80ad750438184c4e7ee46fe8d?cid=774b29d4f13844c495f206cafdad9c86",
      "track_number" : 17,
      "type" : "track",
      "uri" : "spotify:track:3hqbrAUN5k0XiZJ4C1I7Yy"
    }, {
      "album" : {
        "album_type" : "album",
        "artists" : [ {
          "external_urls" : {
            "spotify" : "https://open.spotify.com/artist/08dsaoVeGLJhTdUCgiFIUJ"
          },
          "href" : "https://api.spotify.com/v1/artists/08dsaoVeGLJhTdUCgiFIUJ",
          "id" : "08dsaoVeGLJhTdUCgiFIUJ",
          "name" : "Kevin Mayhew Ltd",
          "type" : "artist",
          "uri" : "spotify:artist:08dsaoVeGLJhTdUCgiFIUJ"
        } ],
        "external_urls" : {
          "spotify" : "https://open.spotify.com/album/3cCmuecJUtY1wdarWiMnXl"
        },
        "href" : "https://api.spotify.com/v1/albums/3cCmuecJUtY1wdarWiMnXl",
        "id" : "3cCmuecJUtY1wdarWiMnXl",
        "images" : [ {
          "height" : 640,
          "url" : "https://i.scdn.co/image/ab67616d0000b2733d0e6d339a893d57763197a7",
          "width" : 640
        }, {
          "height" : 300,
          "url" : "https://i.scdn.co/image/ab67616d00001e023d0e6d339a893d57763197a7",
          "width" : 300
        }, {
          "height" : 64,
          "url" : "https://i.scdn.co/image/ab67616d000048513d0e6d339a893d57763197a7",
          "width" : 64
        } ],
        "name" : "No Organist? No Problem! Cd 10",
        "release_date" : "2002-04-15",
        "release_date_precision" : "day",
        "total_tracks" : 20,
        "type" : "album",
        "uri" : "spotify:album:3cCmuecJUtY1wdarWiMnXl"
      },
      "artists" : [ {
        "external_urls" : {
          "spotify" : "https://open.spotify.com/artist/08dsaoVeGLJhTdUCgiFIUJ"
        },
        "href" : "https://api.spotify.com/v1/artists/08dsaoVeGLJhTdUCgiFIUJ",
        "id" : "08dsaoVeGLJhTdUCgiFIUJ",
        "name" : "Kevin Mayhew Ltd",
        "type" : "artist",
        "uri" : "spotify:artist:08dsaoVeGLJhTdUCgiFIUJ"
      } ],
      "disc_number" : 1,
      "duration_ms" : 230800,
      "explicit" : false,
      "external_ids" : {
        "isrc" : "TCAAZ1102665"
      },
      "external_urls" : {
        "spotify" : "https://open.spotify.com/track/4bwtrOMzmB71wjyiEXf0qj"
      },
      "href" : "https://api.spotify.com/v1/tracks/4bwtrOMzmB71wjyiEXf0qj",
      "id" : "4bwtrOMzmB71wjyiEXf0qj",
      "is_local" : false,
      "is_playable" : true,
      "name" : "Songs of Thankfulness and Praise",
      "popularity" : 0,
      "preview_url" : "https://p.scdn.co/mp3-preview/0610145a9feac2c39bb686ab1b18706085fa929a?cid=774b29d4f13844c495f206cafdad9c86",
      "track_number" : 15,
      "type" : "track",
      "uri" : "spotify:track:4bwtrOMzmB71wjyiEXf0qj"
    }, {
      "album" : {
        "album_type" : "album",
        "artists" : [ {
          "external_urls" : {
            "spotify" : "https://open.spotify.com/artist/7Gbhs14qEzheeN71lJ1kXt"
          },
          "href" : "https://api.spotify.com/v1/artists/7Gbhs14qEzheeN71lJ1kXt",
          "id" : "7Gbhs14qEzheeN71lJ1kXt",
          "name" : "Waldham Grove Orchestra",
          "type" : "artist",
          "uri" : "spotify:artist:7Gbhs14qEzheeN71lJ1kXt"
        } ],
        "external_urls" : {
          "spotify" : "https://open.spotify.com/album/5tJfL215gupvKQKWVZSu8v"
        },
        "href" : "https://api.spotify.com/v1/albums/5tJfL215gupvKQKWVZSu8v",
        "id" : "5tJfL215gupvKQKWVZSu8v",
        "images" : [ {
          "height" : 640,
          "url" : "https://i.scdn.co/image/ab67616d0000b273bbf690637ea743cf1393fd63",
          "width" : 640
        }, {
          "height" : 300,
          "url" : "https://i.scdn.co/image/ab67616d00001e02bbf690637ea743cf1393fd63",
          "width" : 300
        }, {
          "height" : 64,
          "url" : "https://i.scdn.co/image/ab67616d00004851bbf690637ea743cf1393fd63",
          "width" : 64
        } ],
        "name" : "Hymns of the Epiphany",
        "release_date" : "2015-11-11",
        "release_date_precision" : "day",
        "total_tracks" : 8,
        "type" : "album",
        "uri" : "spotify:album:5tJfL215gupvKQKWVZSu8v"
      },
      "artists" : [ {
        "external_urls" : {
          "spotify" : "https://open.spotify.com/artist/7Gbhs14qEzheeN71lJ1kXt"
        },
        "href" : "https://api.spotify.com/v1/artists/7Gbhs14qEzheeN71lJ1kXt",
        "id" : "7Gbhs14qEzheeN71lJ1kXt",
        "name" : "Waldham Grove Orchestra",
        "type" : "artist",
        "uri" : "spotify:artist:7Gbhs14qEzheeN71lJ1kXt"
      } ],
      "disc_number" : 1,
      "duration_ms" : 176552,
      "explicit" : false,
      "external_ids" : {
        "isrc" : "QM2PV1567334"
      },
      "external_urls" : {
        "spotify" : "https://open.spotify.com/track/5M6atcV7RYJtedByeloUx5"
      },
      "href" : "https://api.spotify.com/v1/tracks/5M6atcV7RYJtedByeloUx5",
      "id" : "5M6atcV7RYJtedByeloUx5",
      "is_local" : false,
      "is_playable" : true,
      "name" : "Songs of Thankfulness and Praise",
      "popularity" : 0,
      "preview_url" : "https://p.scdn.co/mp3-preview/b61a0f94df952a202eac3fc30ad450644e243c48?cid=774b29d4f13844c495f206cafdad9c86",
      "track_number" : 1,
      "type" : "track",
      "uri" : "spotify:track:5M6atcV7RYJtedByeloUx5"
    }, {
      "album" : {
        "album_type" : "album",
        "artists" : [ {
          "external_urls" : {
            "spotify" : "https://open.spotify.com/artist/7Gbhs14qEzheeN71lJ1kXt"
          },
          "href" : "https://api.spotify.com/v1/artists/7Gbhs14qEzheeN71lJ1kXt",
          "id" : "7Gbhs14qEzheeN71lJ1kXt",
          "name" : "Waldham Grove Orchestra",
          "type" : "artist",
          "uri" : "spotify:artist:7Gbhs14qEzheeN71lJ1kXt"
        } ],
        "external_urls" : {
          "spotify" : "https://open.spotify.com/album/76cXaPoYrYThTHJEQW0B2K"
        },
        "href" : "https://api.spotify.com/v1/albums/76cXaPoYrYThTHJEQW0B2K",
        "id" : "76cXaPoYrYThTHJEQW0B2K",
        "images" : [ {
          "height" : 640,
          "url" : "https://i.scdn.co/image/ab67616d0000b273417796c6d168bba9fa2921eb",
          "width" : 640
        }, {
          "height" : 300,
          "url" : "https://i.scdn.co/image/ab67616d00001e02417796c6d168bba9fa2921eb",
          "width" : 300
        }, {
          "height" : 64,
          "url" : "https://i.scdn.co/image/ab67616d00004851417796c6d168bba9fa2921eb",
          "width" : 64
        } ],
        "name" : "The Traditional Classic Hymns Volume Six",
        "release_date" : "2016-01-22",
        "release_date_precision" : "day",
        "total_tracks" : 38,
        "type" : "album",
        "uri" : "spotify:album:76cXaPoYrYThTHJEQW0B2K"
      },
      "artists" : [ {
        "external_urls" : {
          "spotify" : "https://open.spotify.com/artist/7Gbhs14qEzheeN71lJ1kXt"
        },
        "href" : "https://api.spotify.com/v1/artists/7Gbhs14qEzheeN71lJ1kXt",
        "id" : "7Gbhs14qEzheeN71lJ1kXt",
        "name" : "Waldham Grove Orchestra",
        "type" : "artist",
        "uri" : "spotify:artist:7Gbhs14qEzheeN71lJ1kXt"
      } ],
      "disc_number" : 1,
      "duration_ms" : 179741,
      "explicit" : false,
      "external_ids" : {
        "isrc" : "QMPKX1629181"
      },
      "external_urls" : {
        "spotify" : "https://open.spotify.com/track/6EO96kIiGICAkq0g3UybJW"
      },
      "href" : "https://api.spotify.com/v1/tracks/6EO96kIiGICAkq0g3UybJW",
      "id" : "6EO96kIiGICAkq0g3UybJW",
      "is_local" : false,
      "is_playable" : true,
      "name" : "Songs of Thankfulness and Praise",
      "popularity" : 0,
      "preview_url" : "https://p.scdn.co/mp3-preview/4d862a9e8f08d333b9ff9fde074da1a33e5bbc3d?cid=774b29d4f13844c495f206cafdad9c86",
      "track_number" : 16,
      "type" : "track",
      "uri" : "spotify:track:6EO96kIiGICAkq0g3UybJW"
    }, {
      "album" : {
        "album_type" : "album",
        "artists" : [ {
          "external_urls" : {
            "spotify" : "https://open.spotify.com/artist/5MFX3lSx7yGhxAXa0kP1Pi"
          },
          "href" : "https://api.spotify.com/v1/artists/5MFX3lSx7yGhxAXa0kP1Pi",
          "id" : "5MFX3lSx7yGhxAXa0kP1Pi",
          "name" : "Gospel Kids",
          "type" : "artist",
          "uri" : "spotify:artist:5MFX3lSx7yGhxAXa0kP1Pi"
        } ],
        "external_urls" : {
          "spotify" : "https://open.spotify.com/album/40aVAQ5p6t41ehjZDyN3P2"
        },
        "href" : "https://api.spotify.com/v1/albums/40aVAQ5p6t41ehjZDyN3P2",
        "id" : "40aVAQ5p6t41ehjZDyN3P2",
        "images" : [ {
          "height" : 640,
          "url" : "https://i.scdn.co/image/ab67616d0000b273e2c71f63b37591f0b056e430",
          "width" : 640
        }, {
          "height" : 300,
          "url" : "https://i.scdn.co/image/ab67616d00001e02e2c71f63b37591f0b056e430",
          "width" : 300
        }, {
          "height" : 64,
          "url" : "https://i.scdn.co/image/ab67616d00004851e2c71f63b37591f0b056e430",
          "width" : 64
        } ],
        "name" : "Sunday School Songs (Special Edition)",
        "release_date" : "2013-02-26",
        "release_date_precision" : "day",
        "total_tracks" : 12,
        "type" : "album",
        "uri" : "spotify:album:40aVAQ5p6t41ehjZDyN3P2"
      },
      "artists" : [ {
        "external_urls" : {
          "spotify" : "https://open.spotify.com/artist/5MFX3lSx7yGhxAXa0kP1Pi"
        },
        "href" : "https://api.spotify.com/v1/artists/5MFX3lSx7yGhxAXa0kP1Pi",
        "id" : "5MFX3lSx7yGhxAXa0kP1Pi",
        "name" : "Gospel Kids",
        "type" : "artist",
        "uri" : "spotify:artist:5MFX3lSx7yGhxAXa0kP1Pi"
      } ],
      "disc_number" : 1,
      "duration_ms" : 166836,
      "explicit" : false,
      "external_ids" : {
        "isrc" : "USA561388452"
      },
      "external_urls" : {
        "spotify" : "https://open.spotify.com/track/6hcrf0j0XIxiMZ5fvS0usA"
      },
      "href" : "https://api.spotify.com/v1/tracks/6hcrf0j0XIxiMZ5fvS0usA",
      "id" : "6hcrf0j0XIxiMZ5fvS0usA",
      "is_local" : false,
      "is_playable" : true,
      "name" : "Songs of Thankfulness and Praise",
      "popularity" : 0,
      "preview_url" : "https://p.scdn.co/mp3-preview/d0460cb27a0003d3f009dd5155ff532436c4087e?cid=774b29d4f13844c495f206cafdad9c86",
      "track_number" : 7,
      "type" : "track",
      "uri" : "spotify:track:6hcrf0j0XIxiMZ5fvS0usA"
    }, {
      "album" : {
        "album_type" : "album",
        "artists" : [ {
          "external_urls" : {
            "spotify" : "https://open.spotify.com/artist/589xLczrjOGVNbpiCMz33z"
          },
          "href" : "https://api.spotify.com/v1/artists/589xLczrjOGVNbpiCMz33z",
          "id" : "589xLczrjOGVNbpiCMz33z",
          "name" : "John Michael McCluney",
          "type" : "artist",
          "uri" : "spotify:artist:589xLczrjOGVNbpiCMz33z"
        } ],
        "external_urls" : {
          "spotify" : "https://open.spotify.com/album/0DtAruxjEQr1yvUE5l1liw"
        },
        "href" : "https://api.spotify.com/v1/albums/0DtAruxjEQr1yvUE5l1liw",
        "id" : "0DtAruxjEQr1yvUE5l1liw",
        "images" : [ {
          "height" : 640,
          "url" : "https://i.scdn.co/image/ab67616d0000b273648d66d91354b3dfe7fccb2b",
          "width" : 640
        }, {
          "height" : 300,
          "url" : "https://i.scdn.co/image/ab67616d00001e02648d66d91354b3dfe7fccb2b",
          "width" : 300
        }, {
          "height" : 64,
          "url" : "https://i.scdn.co/image/ab67616d00004851648d66d91354b3dfe7fccb2b",
          "width" : 64
        } ],
        "name" : "In the Moon of Wintertime",
        "release_date" : "2004-01-01",
        "release_date_precision" : "day",
        "total_tracks" : 24,
        "type" : "album",
        "uri" : "spotify:album:0DtAruxjEQr1yvUE5l1liw"
      },
      "artists" : [ {
        "external_urls" : {
          "spotify" : "https://open.spotify.com/artist/589xLczrjOGVNbpiCMz33z"
        },
        "href" : "https://api.spotify.com/v1/artists/589xLczrjOGVNbpiCMz33z",
        "id" : "589xLczrjOGVNbpiCMz33z",
        "name" : "John Michael McCluney",
        "type" : "artist",
        "uri" : "spotify:artist:589xLczrjOGVNbpiCMz33z"
      } ],
      "disc_number" : 1,
      "duration_ms" : 204013,
      "explicit" : false,
      "external_ids" : {
        "isrc" : "ushm90578559"
      },
      "external_urls" : {
        "spotify" : "https://open.spotify.com/track/6myQ8cpUSbjJ401GXc60aS"
      },
      "href" : "https://api.spotify.com/v1/tracks/6myQ8cpUSbjJ401GXc60aS",
      "id" : "6myQ8cpUSbjJ401GXc60aS",
      "is_local" : false,
      "is_playable" : true,
      "name" : "Songs of Thankfulness and Praise",
      "popularity" : 0,
      "preview_url" : "https://p.scdn.co/mp3-preview/436beba8185af1c771b5b644d851db7bd18f1d37?cid=774b29d4f13844c495f206cafdad9c86",
      "track_number" : 24,
      "type" : "track",
      "uri" : "spotify:track:6myQ8cpUSbjJ401GXc60aS"
    }, {
      "album" : {
        "album_type" : "compilation",
        "artists" : [ {
          "external_urls" : {
            "spotify" : "https://open.spotify.com/artist/0LyfQWJT6nXafLPZqxe9Of"
          },
          "href" : "https://api.spotify.com/v1/artists/0LyfQWJT6nXafLPZqxe9Of",
          "id" : "0LyfQWJT6nXafLPZqxe9Of",
          "name" : "Various Artists",
          "type" : "artist",
          "uri" : "spotify:artist:0LyfQWJT6nXafLPZqxe9Of"
        } ],
        "external_urls" : {
          "spotify" : "https://open.spotify.com/album/2E1sHGmfrOIknPALh2gBhM"
        },
        "href" : "https://api.spotify.com/v1/albums/2E1sHGmfrOIknPALh2gBhM",
        "id" : "2E1sHGmfrOIknPALh2gBhM",
        "images" : [ {
          "height" : 640,
          "url" : "https://i.scdn.co/image/ab67616d0000b2734f58d455f1686a81f1e7ce5c",
          "width" : 640
        }, {
          "height" : 300,
          "url" : "https://i.scdn.co/image/ab67616d00001e024f58d455f1686a81f1e7ce5c",
          "width" : 300
        }, {
          "height" : 64,
          "url" : "https://i.scdn.co/image/ab67616d000048514f58d455f1686a81f1e7ce5c",
          "width" : 64
        } ],
        "name" : "Glory & Praise: Third Edition, Vol. 8",
        "release_date" : "2016-04-22",
        "release_date_precision" : "day",
        "total_tracks" : 26,
        "type" : "album",
        "uri" : "spotify:album:2E1sHGmfrOIknPALh2gBhM"
      },
      "artists" : [ {
        "external_urls" : {
          "spotify" : "https://open.spotify.com/artist/5zQqaxZGKmZ8hDeVC9VSPT"
        },
        "href" : "https://api.spotify.com/v1/artists/5zQqaxZGKmZ8hDeVC9VSPT",
        "id" : "5zQqaxZGKmZ8hDeVC9VSPT",
        "name" : "OCP Session Choir",
        "type" : "artist",
        "uri" : "spotify:artist:5zQqaxZGKmZ8hDeVC9VSPT"
      } ],
      "disc_number" : 1,
      "duration_ms" : 158133,
      "explicit" : false,
      "external_ids" : {
        "isrc" : "USA4N1600198"
      },
      "external_urls" : {
        "spotify" : "https://open.spotify.com/track/7HSr74rOQTSYYEKAbLnPwz"
      },
      "href" : "https://api.spotify.com/v1/tracks/7HSr74rOQTSYYEKAbLnPwz",
      "id" : "7HSr74rOQTSYYEKAbLnPwz",
      "is_local" : false,
      "is_playable" : true,
      "name" : "Songs of Thankfulness and Praise",
      "popularity" : 0,
      "preview_url" : "https://p.scdn.co/mp3-preview/282f48a6c590357c960f927a79bcedfeb67ab811?cid=774b29d4f13844c495f206cafdad9c86",
      "track_number" : 6,
      "type" : "track",
      "uri" : "spotify:track:7HSr74rOQTSYYEKAbLnPwz"
    }, {
      "album" : {
        "album_type" : "album",
        "artists" : [ {
          "external_urls" : {
            "spotify" : "https://open.spotify.com/artist/0NMQPbX6WDzL3kTUxNrQjB"
          },
          "href" : "https://api.spotify.com/v1/artists/0NMQPbX6WDzL3kTUxNrQjB",
          "id" : "0NMQPbX6WDzL3kTUxNrQjB",
          "name" : "Stan Thomas Band",
          "type" : "artist",
          "uri" : "spotify:artist:0NMQPbX6WDzL3kTUxNrQjB"
        } ],
        "external_urls" : {
          "spotify" : "https://open.spotify.com/album/7zAAYN8XWKcaf92di3js2q"
        },
        "href" : "https://api.spotify.com/v1/albums/7zAAYN8XWKcaf92di3js2q",
        "id" : "7zAAYN8XWKcaf92di3js2q",
        "images" : [ {
          "height" : 640,
          "url" : "https://i.scdn.co/image/ab67616d0000b27364caf2f7ccb5bc8650844efc",
          "width" : 640
        }, {
          "height" : 300,
          "url" : "https://i.scdn.co/image/ab67616d00001e0264caf2f7ccb5bc8650844efc",
          "width" : 300
        }, {
          "height" : 64,
          "url" : "https://i.scdn.co/image/ab67616d0000485164caf2f7ccb5bc8650844efc",
          "width" : 64
        } ],
        "name" : "Assumption of Mary Music, Vol. 4",
        "release_date" : "2014-10-21",
        "release_date_precision" : "day",
        "total_tracks" : 10,
        "type" : "album",
        "uri" : "spotify:album:7zAAYN8XWKcaf92di3js2q"
      },
      "artists" : [ {
        "external_urls" : {
          "spotify" : "https://open.spotify.com/artist/0NMQPbX6WDzL3kTUxNrQjB"
        },
        "href" : "https://api.spotify.com/v1/artists/0NMQPbX6WDzL3kTUxNrQjB",
        "id" : "0NMQPbX6WDzL3kTUxNrQjB",
        "name" : "Stan Thomas Band",
        "type" : "artist",
        "uri" : "spotify:artist:0NMQPbX6WDzL3kTUxNrQjB"
      } ],
      "disc_number" : 1,
      "duration_ms" : 166836,
      "explicit" : false,
      "external_ids" : {
        "isrc" : "USA561388452"
      },
      "external_urls" : {
        "spotify" : "https://open.spotify.com/track/1oUC7DvpGUldUvutB4jEjF"
      },
      "href" : "https://api.spotify.com/v1/tracks/1oUC7DvpGUldUvutB4jEjF",
      "id" : "1oUC7DvpGUldUvutB4jEjF",
      "is_local" : false,
      "is_playable" : true,
      "name" : "Songs of Thankfulness and Praise",
      "popularity" : 0,
      "preview_url" : "https://p.scdn.co/mp3-preview/d0460cb27a0003d3f009dd5155ff532436c4087e?cid=774b29d4f13844c495f206cafdad9c86",
      "track_number" : 7,
      "type" : "track",
      "uri" : "spotify:track:1oUC7DvpGUldUvutB4jEjF"
    }, {
      "album" : {
        "album_type" : "album",
        "artists" : [ {
          "external_urls" : {
            "spotify" : "https://open.spotify.com/artist/3HJKdfCMxTrirNbb7cykOm"
          },
          "href" : "https://api.spotify.com/v1/artists/3HJKdfCMxTrirNbb7cykOm",
          "id" : "3HJKdfCMxTrirNbb7cykOm",
          "name" : "The Festival Choir and Hosanna Chorus",
          "type" : "artist",
          "uri" : "spotify:artist:3HJKdfCMxTrirNbb7cykOm"
        } ],
        "external_urls" : {
          "spotify" : "https://open.spotify.com/album/42MeVJOaeQeUm1BtOQdkFZ"
        },
        "href" : "https://api.spotify.com/v1/albums/42MeVJOaeQeUm1BtOQdkFZ",
        "id" : "42MeVJOaeQeUm1BtOQdkFZ",
        "images" : [ {
          "height" : 640,
          "url" : "https://i.scdn.co/image/ab67616d0000b2736377652d6ee1fd6faff00fa7",
          "width" : 640
        }, {
          "height" : 300,
          "url" : "https://i.scdn.co/image/ab67616d00001e026377652d6ee1fd6faff00fa7",
          "width" : 300
        }, {
          "height" : 64,
          "url" : "https://i.scdn.co/image/ab67616d000048516377652d6ee1fd6faff00fa7",
          "width" : 64
        } ],
        "name" : "100 Church Classics",
        "release_date" : "2004",
        "release_date_precision" : "year",
        "total_tracks" : 100,
        "type" : "album",
        "uri" : "spotify:album:42MeVJOaeQeUm1BtOQdkFZ"
      },
      "artists" : [ {
        "external_urls" : {
          "spotify" : "https://open.spotify.com/artist/3HJKdfCMxTrirNbb7cykOm"
        },
        "href" : "https://api.spotify.com/v1/artists/3HJKdfCMxTrirNbb7cykOm",
        "id" : "3HJKdfCMxTrirNbb7cykOm",
        "name" : "The Festival Choir and Hosanna Chorus",
        "type" : "artist",
        "uri" : "spotify:artist:3HJKdfCMxTrirNbb7cykOm"
      } ],
      "disc_number" : 3,
      "duration_ms" : 136786,
      "explicit" : false,
      "external_ids" : {
        "isrc" : "CAM460700474"
      },
      "external_urls" : {
        "spotify" : "https://open.spotify.com/track/1pg6lyao9KgjDb3N1Wmcn3"
      },
      "href" : "https://api.spotify.com/v1/tracks/1pg6lyao9KgjDb3N1Wmcn3",
      "id" : "1pg6lyao9KgjDb3N1Wmcn3",
      "is_local" : false,
      "is_playable" : true,
      "name" : "Songs Of Thankfulness And Praise",
      "popularity" : 0,
      "preview_url" : "https://p.scdn.co/mp3-preview/3ff7686912a5a5c464350966af0ebf421a0faaa0?cid=774b29d4f13844c495f206cafdad9c86",
      "track_number" : 30,
      "type" : "track",
      "uri" : "spotify:track:1pg6lyao9KgjDb3N1Wmcn3"
    }, {
      "album" : {
        "album_type" : "album",
        "artists" : [ {
          "external_urls" : {
            "spotify" : "https://open.spotify.com/artist/3HJKdfCMxTrirNbb7cykOm"
          },
          "href" : "https://api.spotify.com/v1/artists/3HJKdfCMxTrirNbb7cykOm",
          "id" : "3HJKdfCMxTrirNbb7cykOm",
          "name" : "The Festival Choir and Hosanna Chorus",
          "type" : "artist",
          "uri" : "spotify:artist:3HJKdfCMxTrirNbb7cykOm"
        } ],
        "external_urls" : {
          "spotify" : "https://open.spotify.com/album/1DpqheOW1TBkteX7prVygp"
        },
        "href" : "https://api.spotify.com/v1/albums/1DpqheOW1TBkteX7prVygp",
        "id" : "1DpqheOW1TBkteX7prVygp",
        "images" : [ {
          "height" : 640,
          "url" : "https://i.scdn.co/image/ab67616d0000b273fb0f973fc37ef59e3935f1a2",
          "width" : 640
        }, {
          "height" : 300,
          "url" : "https://i.scdn.co/image/ab67616d00001e02fb0f973fc37ef59e3935f1a2",
          "width" : 300
        }, {
          "height" : 64,
          "url" : "https://i.scdn.co/image/ab67616d00004851fb0f973fc37ef59e3935f1a2",
          "width" : 64
        } ],
        "name" : "100 Church Classics",
        "release_date" : "2004",
        "release_date_precision" : "year",
        "total_tracks" : 100,
        "type" : "album",
        "uri" : "spotify:album:1DpqheOW1TBkteX7prVygp"
      },
      "artists" : [ {
        "external_urls" : {
          "spotify" : "https://open.spotify.com/artist/3HJKdfCMxTrirNbb7cykOm"
        },
        "href" : "https://api.spotify.com/v1/artists/3HJKdfCMxTrirNbb7cykOm",
        "id" : "3HJKdfCMxTrirNbb7cykOm",
        "name" : "The Festival Choir and Hosanna Chorus",
        "type" : "artist",
        "uri" : "spotify:artist:3HJKdfCMxTrirNbb7cykOm"
      } ],
      "disc_number" : 3,
      "duration_ms" : 136786,
      "explicit" : false,
      "external_ids" : {
        "isrc" : "CAM460700474"
      },
      "external_urls" : {
        "spotify" : "https://open.spotify.com/track/21Tu7JynBwny8NwIE2YfPH"
      },
      "href" : "https://api.spotify.com/v1/tracks/21Tu7JynBwny8NwIE2YfPH",
      "id" : "21Tu7JynBwny8NwIE2YfPH",
      "is_local" : false,
      "is_playable" : true,
      "name" : "Songs Of Thankfulness And Praise",
      "popularity" : 0,
      "preview_url" : "https://p.scdn.co/mp3-preview/7459ec701f3bb31883f64194edcf713163860ac7?cid=774b29d4f13844c495f206cafdad9c86",
      "track_number" : 30,
      "type" : "track",
      "uri" : "spotify:track:21Tu7JynBwny8NwIE2YfPH"
    } ],
    "limit" : 10,
    "next" : "https://api.spotify.com/v1/search?query=Songs+of+Thankfulness+and+Praise&type=track&market=US&offset=15&limit=10",
    "offset" : 5,
    "previous" : "https://api.spotify.com/v1/search?query=Songs+of+Thankfulness+and+Praise&type=track&market=US&offset=0&limit=10",
    "total" : 30
  }
}