{
  "tracks" : {
    "href" : "https://api.spotify.com/v1/search?query=Now+the+Day+Is+Over&type=track&market=US&offset=5&limit=10",
    "items" : [ {
      "album" : {
        "album_type" : "album",
        "artists" : [ {
          "external_urls" : {
            "spotify" : "https://open.spotify.com/artist/4VcTmgGKGuJn56Ac2zNhiH"
          },
          "href" : "https://api.spotify.com/v1/artists/4VcTmgGKGuJn56Ac2zNhiH",
          "id" : "4VcTmgGKGuJn56Ac2zNhiH",
          "name" : "The Innocence Mission",
          "type" : "artist",
          "uri" : "spotify:artist:4VcTmgGKGuJn56Ac2zNhiH"
        } ],
        "external_urls" : {
          "spotify" : "https://open.spotify.com/album/4Q4WWEbTuNgJ5fNyh1mBh2"
        },
        "href" : "https://api.spotify.com/v1/albums/4Q4WWEbTuNgJ5fNyh1mBh2",
        "id" : "4Q4WWEbTuNgJ5fNyh1mBh2",
        "images" : [ {
          "height" : 640,
          "url" : "https://i.scdn.co/image/ab67616d0000b273fdfae3806ec5c146bedf8ad8",
          "width" : 640
        }, {
          "height" : 300,
          "url" : "https://i.scdn.co/image/ab67616d00001e02fdfae3806ec5c146bedf8ad8",
          "width" : 300
        }, {
          "height" : 64,
          "url" : "https://i.scdn.co/image/ab67616d00004851fdfae3806ec5c146bedf8ad8",
          "width" : 64
        } ],
        "name" : "Now The Day Is Over",
        "release_date" : "2004-11-09",
        "release_date_precision" : "day",
        "total_tracks" : 13,
        "type" : "album",
        "uri" : "spotify:album:4Q4WWEbTuNgJ5fNyh1mBh2"
      },
      "artists" : [ {
        "external_urls" : {
          "spotify" : "https://open.spotify.com/artist/4VcTmgGKGuJn56Ac2zNhiH"
        },
        "href" : "https://api.spotify.com/v1/artists/4VcTmgGKGuJn56Ac2zNhiH",
        "id" : "4VcTmgGKGuJn56Ac2zNhiH",
        "name" : "The Innocence Mission",
        "type" : "artist",
        "uri" : "spotify:artist:4VcTmgGKGuJn56Ac2zNhiH"
      } ],
      "disc_number" : 1,
      "duration_ms" : 167800,
      "explicit" : false,
      "external_ids" : {
        "isrc" : "US36Y0400297"
      },
      "external_urls" : {
        "spotify" : "https://open.spotify.com/track/1Lp1uBloFHEkXmpjx5IqT2"
      },
      "href" : "https://api.spotify.com/v1/tracks/1Lp1uBloFHEkXmpjx5IqT2",
      "id" : "1Lp1uBloFHEkXmpjx5IqT2",
      "is_local" : false,
      "is_playable" : true,
      "name" : "Moon River",
      "popularity" : 36,
      "preview_url" : "https://p.scdn.co/mp3-preview/70ffc4a787a1a8bb995736ac6f5fdbb178993dc7?cid=774b29d4f13844c495f206cafdad9c86",
      "track_number" : 4,
      "type" : "track",
      "uri" : "spotify:track:1Lp1uBloFHEkXmpjx5IqT2"
    }, {
      "album" : {
        "album_type" : "album",
        "artists" : [ {
          "external_urls" : {
            "spotify" : "https://open.spotify.com/artist/4VcTmgGKGuJn56Ac2zNhiH"
          },
          "href" : "https://api.spotify.com/v1/artists/4VcTmgGKGuJn56Ac2zNhiH",
          "id" : "4VcTmgGKGuJn56Ac2zNhiH",
          "name" : "The Innocence Mission",
          "type" : "artist",
          "uri" : "spotify:artist:4VcTmgGKGuJn56Ac2zNhiH"
        } ],
        "external_urls" : {
          "spotify" : "https://open.spotify.com/album/4Q4WWEbTuNgJ5fNyh1mBh2"
        },
        "href" : "https://api.spotify.com/v1/albums/4Q4WWEbTuNgJ5fNyh1mBh2",
        "id" : "4Q4WWEbTuNgJ5fNyh1mBh2",
        "images" : [ {
          "height" : 640,
          "url" : "https://i.scdn.co/image/ab67616d0000b273fdfae3806ec5c146bedf8ad8",
          "width" : 640
        }, {
          "height" : 300,
          "url" : "https://i.scdn.co/image/ab67616d00001e02fdfae3806ec5c146bedf8ad8",
          "width" : 300
        }, {
          "height" : 64,
          "url" : "https://i.scdn.co/image/ab67616d00004851fdfae3806ec5c146bedf8ad8",
          "width" : 64
        } ],
        "name" : "Now The Day Is Over",
        "release_date" : "2004-11-09",
        "release_date_precision" : "day",
        "total_tracks" : 13,
        "type" : "album",
        "uri" : "spotify:album:4Q4WWEbTuNgJ5fNyh1mBh2"
      },
      "artists" : [ {
        "external_urls" : {
          "spotify" : "https://open.spotify.com/artist/4VcTmgGKGuJn56Ac2zNhiH"
        },
        "href" : "https://api.spotify.com/v1/artists/4VcTmgGKGuJn56Ac2zNhiH",
        "id" : "4VcTmgGKGuJn56Ac2zNhiH",
        "name" : "The Innocence Mission",
        "type" : "artist",
        "uri" : "spotify:artist:4VcTmgGKGuJn56Ac2zNhiH"
      } ],
      "disc_number" : 1,
      "duration_ms" : 136120,
      "explicit" : false,
      "external_ids" : {
        "isrc" : "US36Y0400302"
      },
      "external_urls" : {
        "spotify" : "https://open.spotify.com/track/3SkWRGEMXf8f3d6WT4shGw"
      },
      "href" : "https://api.spotify.com/v1/tracks/3SkWRGEMXf8f3d6WT4shGw",
      "id" : "3SkWRGEMXf8f3d6WT4shGw",
      "is_local" : false,
      "is_playable" : true,
      "name" : "Edelweiss",
      "popularity" : 30,
      "preview_url" : "https://p.scdn.co/mp3-preview/724d7d433e08a553992075527fdaaf266ed7bae7?cid=774b29d4f13844c495f206cafdad9c86",
      "track_number" : 9,
      "type" : "track",
      "uri" : "spotify:track:3SkWRGEMXf8f3d6WT4shGw"
    }, {
      "album" : {
        "album_type" : "album",
        "artists" : [ {
          "external_urls" : {
            "spotify" : "https://open.spotify.com/artist/4VcTmgGKGuJn56Ac2zNhiH"
          },
          "href" : "https://api.spotify.com/v1/artists/4VcTmgGKGuJn56Ac2zNhiH",
          "id" : "4VcTmgGKGuJn56Ac2zNhiH",
          "name" : "The Innocence Mission",
          "type" : "artist",
          "uri" : "spotify:artist:4VcTmgGKGuJn56Ac2zNhiH"
        } ],
        "external_urls" : {
          "spotify" : "https://open.spotify.com/album/4Q4WWEbTuNgJ5fNyh1mBh2"
        },
        "href" : "https://api.spotify.com/v1/albums/4Q4WWEbTuNgJ5fNyh1mBh2",
        "id" : "4Q4WWEbTuNgJ5fNyh1mBh2",
        "images" : [ {
          "height" : 640,
          "url" : "https://i.scdn.co/image/ab67616d0000b273fdfae3806ec5c146bedf8ad8",
          "width" : 640
        }, {
          "height" : 300,
          "url" : "https://i.scdn.co/image/ab67616d00001e02fdfae3806ec5c146bedf8ad8",
          "width" : 300
        }, {
          "height" : 64,
          "url" : "https://i.scdn.co/image/ab67616d00004851fdfae3806ec5c146bedf8ad8",
          "width" : 64
        } ],
        "name" : "Now The Day Is Over",
        "release_date" : "2004-11-09",
        "release_date_precision" : "day",
        "total_tracks" : 13,
        "type" : "album",
        "uri" : "spotify:album:4Q4WWEbTuNgJ5fNyh1mBh2"
      },
      "artists" : [ {
        "external_urls" : {
          "spotify" : "https://open.spotify.com/artist/4VcTmgGKGuJn56Ac2zNhiH"
        },
        "href" : "https://api.spotify.com/v1/artists/4VcTmgGKGuJn56Ac2zNhiH",
        "id" : "4VcTmgGKGuJn56Ac2zNhiH",
        "name" : "The Innocence Mission",
        "type" : "artist",
        "uri" : "spotify:artist:4VcTmgGKGuJn56Ac2zNhiH"
      } ],
      "disc_number" : 1,
      "duration_ms" : 174000,
      "explicit" : false,
      "external_ids" : {
        "isrc" : "US36Y0400296"
      },
      "external_urls" : {
        "spotify" : "https://open.spotify.com/track/0SdCulXHyxYyPRvHyUVMTw"
      },
      "href" : "https://api.spotify.com/v1/tracks/0SdCulXHyxYyPRvHyUVMTw",
      "id" : "0SdCulXHyxYyPRvHyUVMTw",
      "is_local" : false,
      "is_playable" : true,
      "name" : "What A Wonderful World",
      "popularity" : 31,
      "preview_url" : "https://p.scdn.co/mp3-preview/41238a4fc10c38482c74642b8a9cdd8562f0b8dd?cid=774b29d4f13844c495f206cafdad9c86",
      "track_number" : 3,
      "type" : "track",
      "uri" : "spotify:track:0SdCulXHyxYyPRvHyUVMTw"
    }, {
      "album" : {
        "album_type" : "album",
        "artists" : [ {
          "external_urls" : {
            "spotify" : "https://open.spotify.com/artist/4VcTmgGKGuJn56Ac2zNhiH"
          },
          "href" : "https://api.spotify.com/v1/artists/4VcTmgGKGuJn56Ac2zNhiH",
          "id" : "4VcTmgGKGuJn56Ac2zNhiH",
          "name" : "The Innocence Mission",
          "type" : "artist",
          "uri" : "spotify:artist:4VcTmgGKGuJn56Ac2zNhiH"
        } ],
        "external_urls" : {
          "spotify" : "https://open.spotify.com/album/4Q4WWEbTuNgJ5fNyh1mBh2"
        },
        "href" : "https://api.spotify.com/v1/albums/4Q4WWEbTuNgJ5fNyh1mBh2",
        "id" : "4Q4WWEbTuNgJ5fNyh1mBh2",
        "images" : [ {
          "height" : 640,
          "url" : "https://i.scdn.co/image/ab67616d0000b273fdfae3806ec5c146bedf8ad8",
          "width" : 640
        }, {
          "height" : 300,
          "url" : "https://i.scdn.co/image/ab67616d00001e02fdfae3806ec5c146bedf8ad8",
          "width" : 300
        }, {
          "height" : 64,
          "url" : "https://i.scdn.co/image/ab67616d00004851fdfae3806ec5c146bedf8ad8",
          "width" : 64
        } ],
        "name" : "Now The Day Is Over",
        "release_date" : "2004-11-09",
        "release_date_precision" : "day",
        "total_tracks" : 13,
        "type" : "album",
        "uri" : "spotify:album:4Q4WWEbTuNgJ5fNyh1mBh2"
      },
      "artists" : [ {
        "external_urls" : {
          "spotify" : "https://open.spotify.com/artist/4VcTmgGKGuJn56Ac2zNhiH"
        },
        "href" : "https://api.spotify.com/v1/artists/4VcTmgGKGuJn56Ac2zNhiH",
        "id" : "4VcTmgGKGuJn56Ac2zNhiH",
        "name" : "The Innocence Mission",
        "type" : "artist",
        "uri" : "spotify:artist:4VcTmgGKGuJn56Ac2zNhiH"
      } ],
      "disc_number" : 1,
      "duration_ms" : 78533,
      "explicit" : false,
      "external_ids" : {
        "isrc" : "US36Y0400305"
      },
      "external_urls" : {
        "spotify" : "https://open.spotify.com/track/58G3lJW7Rd4ykHtSU5rNoJ"
      },
      "href" : "https://api.spotify.com/v1/tracks/58G3lJW7Rd4ykHtSU5rNoJ",
      "id" : "58G3lJW7Rd4ykHtSU5rNoJ",
      "is_local" : false,
      "is_playable" : true,
      "name" : "It Is Well With My Soul",
      "popularity" : 27,
      "preview_url" : "https://p.scdn.co/mp3-preview/51e0e634ea94013c9e2651c3fc3dd361f6cb9c99?cid=774b29d4f13844c495f206cafdad9c86",
      "track_number" : 12,
      "type" : "track",
      "uri" : "spotify:track:58G3lJW7Rd4ykHtSU5rNoJ"
    }, {
      "album" : {
        "album_type" : "album",
        "artists" : [ {
          "external_urls" : {
            "spotify" : "https://open.spotify.com/artist/4VcTmgGKGuJn56Ac2zNhiH"
          },
          "href" : "https://api.spotify.com/v1/artists/4VcTmgGKGuJn56Ac2zNhiH",
          "id" : "4VcTmgGKGuJn56Ac2zNhiH",
          "name" : "The Innocence Mission",
          "type" : "artist",
          "uri" : "spotify:artist:4VcTmgGKGuJn56Ac2zNhiH"
        } ],
        "external_urls" : {
          "spotify" : "https://open.spotify.com/album/4Q4WWEbTuNgJ5fNyh1mBh2"
        },
        "href" : "https://api.spotify.com/v1/albums/4Q4WWEbTuNgJ5fNyh1mBh2",
        "id" : "4Q4WWEbTuNgJ5fNyh1mBh2",
        "images" : [ {
          "height" : 640,
          "url" : "https://i.scdn.co/image/ab67616d0000b273fdfae3806ec5c146bedf8ad8",
          "width" : 640
        }, {
          "height" : 300,
          "url" : "https://i.scdn.co/image/ab67616d00001e02fdfae3806ec5c146bedf8ad8",
          "width" : 300
        }, {
          "height" : 64,
          "url" : "https://i.scdn.co/image/ab67616d00004851fdfae3806ec5c146bedf8ad8",
          "width" : 64
        } ],
        "name" : "Now The Day Is Over",
        "release_date" : "2004-11-09",
        "release_date_precision" : "day",
        "total_tracks" : 13,
        "type" : "album",
        "uri" : "spotify:album:4Q4WWEbTuNgJ5fNyh1mBh2"
      },
      "artists" : [ {
        "external_urls" : {
          "spotify" : "https://open.spotify.com/artist/4VcTmgGKGuJn56Ac2zNhiH"
        },
        "href" : "https://api.spotify.com/v1/artists/4VcTmgGKGuJn56Ac2zNhiH",
        "id" : "4VcTmgGKGuJn56Ac2zNhiH",
        "name" : "The Innocence Mission",
        "type" : "artist",
        "uri" : "spotify:artist:4VcTmgGKGuJn56Ac2zNhiH"
      } ],
      "disc_number" : 1,
      "duration_ms" : 113160,
      "explicit" : false,
      "external_ids" : {
        "isrc" : "US36Y0400303"
      },
      "external_urls" : {
        "spotify" : "https://open.spotify.com/track/01wiE3Ro8u5S5dOWO9HMww"
      },
      "href" : "https://api.spotify.com/v1/tracks/01wiE3Ro8u5S5dOWO9HMww",
      "id" : "01wiE3Ro8u5S5dOWO9HMww",
      "is_local" : false,
      "is_playable" : true,
      "name" : "Sonata No. 8",
      "popularity" : 27,
      "preview_url" : "https://p.scdn.co/mp3-preview/119e333aacfa171f3b7d3e0ca0fef1b2819bcace?cid=774b29d4f13844c495f206cafdad9c86",
      "track_number" : 10,
      "type" : "track",
      "uri" : "spotify:track:01wiE3Ro8u5S5dOWO9HMww"
    }, {
      "album" : {
        "album_type" : "album",
        "artists" : [ {
          "external_urls" : {
            "spotify" : "https://open.spotify.com/artist/4VcTmgGKGuJn56Ac2zNhiH"
          },
          "href" : "https://api.spotify.com/v1/artists/4VcTmgGKGuJn56Ac2zNhiH",
          "id" : "4VcTmgGKGuJn56Ac2zNhiH",
          "name" : "The Innocence Mission",
          "type" : "artist",
          "uri" : "spotify:artist:4VcTmgGKGuJn56Ac2zNhiH"
        } ],
        "external_urls" : {
          "spotify" : "https://open.spotify.com/album/4Q4WWEbTuNgJ5fNyh1mBh2"
        },
        "href" : "https://api.spotify.com/v1/albums/4Q4WWEbTuNgJ5fNyh1mBh2",
        "id" : "4Q4WWEbTuNgJ5fNyh1mBh2",
        "images" : [ {
          "height" : 640,
          "url" : "https://i.scdn.co/image/ab67616d0000b273fdfae3806ec5c146bedf8ad8",
          "width" : 640
        }, {
          "height" : 300,
          "url" : "https://i.scdn.co/image/ab67616d00001e02fdfae3806ec5c146bedf8ad8",
          "width" : 300
        }, {
          "height" : 64,
          "url" : "https://i.scdn.co/image/ab67616d00004851fdfae3806ec5c146bedf8ad8",
          "width" : 64
        } ],
        "name" : "Now The Day Is Over",
        "release_date" : "2004-11-09",
        "release_date_precision" : "day",
        "total_tracks" : 13,
        "type" : "album",
        "uri" : "spotify:album:4Q4WWEbTuNgJ5fNyh1mBh2"
      },
      "artists" : [ {
        "external_urls" : {
          "spotify" : "https://open.spotify.com/artist/4VcTmgGKGuJn56Ac2zNhiH"
        },
        "href" : "https://api.spotify.com/v1/artists/4VcTmgGKGuJn56Ac2zNhiH",
        "id" : "4VcTmgGKGuJn56Ac2zNhiH",
        "name" : "The Innocence Mission",
        "type" : "artist",
        "uri" : "spotify:artist:4VcTmgGKGuJn56Ac2zNhiH"
      } ],
      "disc_number" : 1,
      "duration_ms" : 203520,
      "explicit" : false,
      "external_ids" : {
        "isrc" : "US36Y0400294"
      },
      "external_urls" : {
        "spotify" : "https://open.spotify.com/track/7JcTmcm0i5gCHY2XatQ7Th"
      },
      "href" : "https://api.spotify.com/v1/tracks/7JcTmcm0i5gCHY2XatQ7Th",
      "id" : "7JcTmcm0i5gCHY2XatQ7Th",
      "is_local" : false,
      "is_playable" : true,
      "name" : "Stay Awake",
      "popularity" : 27,
      "preview_url" : "https://p.scdn.co/mp3-preview/83705e414a4b56a862ed49c59aad52b4de9f07da?cid=774b29d4f13844c495f206cafdad9c86",
      "track_number" : 1,
      "type" : "track",
      "uri" : "spotify:track:7JcTmcm0i5gCHY2XatQ7Th"
    }, {
      "album" : {
        "album_type" : "album",
        "artists" : [ {
          "external_urls" : {
            "spotify" : "https://open.spotify.com/artist/4VcTmgGKGuJn56Ac2zNhiH"
          },
          "href" : "https://api.spotify.com/v1/artists/4VcTmgGKGuJn56Ac2zNhiH",
          "id" : "4VcTmgGKGuJn56Ac2zNhiH",
          "name" : "The Innocence Mission",
          "type" : "artist",
          "uri" : "spotify:artist:4VcTmgGKGuJn56Ac2zNhiH"
        } ],
        "external_urls" : {
          "spotify" : "https://open.spotify.com/album/4Q4WWEbTuNgJ5fNyh1mBh2"
        },
        "href" : "https://api.spotify.com/v1/albums/4Q4WWEbTuNgJ5fNyh1mBh2",
        "id" : "4Q4WWEbTuNgJ5fNyh1mBh2",
        "images" : [ {
          "height" : 640,
          "url" : "https://i.scdn.co/image/ab67616d0000b273fdfae3806ec5c146bedf8ad8",
          "width" : 640
        }, {
          "height" : 300,
          "url" : "https://i.scdn.co/image/ab67616d00001e02fdfae3806ec5c146bedf8ad8",
          "width" : 300
        }, {
          "height" : 64,
          "url" : "https://i.scdn.co/image/ab67616d00004851fdfae3806ec5c146bedf8ad8",
          "width" : 64
        } ],
        "name" : "Now The Day Is Over",
        "release_date" : "2004-11-09",
        "release_date_precision" : "day",
        "total_tracks" : 13,
        "type" : "album",
        "uri" : "spotify:album:4Q4WWEbTuNgJ5fNyh1mBh2"
      },
      "artists" : [ {
        "external_urls" : {
          "spotify" : "https://open.spotify.com/artist/4VcTmgGKGuJn56Ac2zNhiH"
        },
        "href" : "https://api.spotify.com/v1/artists/4VcTmgGKGuJn56Ac2zNhiH",
        "id" : "4VcTmgGKGuJn56Ac2zNhiH",
        "name" : "The Innocence Mission",
        "type" : "artist",
        "uri" : "spotify:artist:4VcTmgGKGuJn56Ac2zNhiH"
      } ],
      "disc_number" : 1,
      "duration_ms" : 172480,
      "explicit" : false,
      "external_ids" : {
        "isrc" : "US36Y0400301"
      },
      "external_urls" : {
        "spotify" : "https://open.spotify.com/track/6XmdH5B3npFNxjjclTUmwH"
      },
      "href" : "https://api.spotify.com/v1/tracks/6XmdH5B3npFNxjjclTUmwH",
      "id" : "6XmdH5B3npFNxjjclTUmwH",
      "is_local" : false,
      "is_playable" : true,
      "name" : "My Love Goes With You",
      "popularity" : 25,
      "preview_url" : "https://p.scdn.co/mp3-preview/bb6a6104e38d2bf2a102f384efabde285b839f93?cid=774b29d4f13844c495f206cafdad9c86",
      "track_number" : 8,
      "type" : "track",
      "uri" : "spotify:track:6XmdH5B3npFNxjjclTUmwH"
    }, {
      "album" : {
        "album_type" : "album",
        "artists" : [ {
          "external_urls" : {
            "spotify" : "https://open.spotify.com/artist/4VcTmgGKGuJn56Ac2zNhiH"
          },
          "href" : "https://api.spotify.com/v1/artists/4VcTmgGKGuJn56Ac2zNhiH",
          "id" : "4VcTmgGKGuJn56Ac2zNhiH",
          "name" : "The Innocence Mission",
          "type" : "artist",
          "uri" : "spotify:artist:4VcTmgGKGuJn56Ac2zNhiH"
        } ],
        "external_urls" : {
          "spotify" : "https://open.spotify.com/album/4Q4WWEbTuNgJ5fNyh1mBh2"
        },
        "href" : "https://api.spotify.com/v1/albums/4Q4WWEbTuNgJ5fNyh1mBh2",
        "id" : "4Q4WWEbTuNgJ5fNyh1mBh2",
        "images" : [ {
          "height" : 640,
          "url" : "https://i.scdn.co/image/ab67616d0000b273fdfae3806ec5c146bedf8ad8",
          "width" : 640
        }, {
          "height" : 300,
          "url" : "https://i.scdn.co/image/ab67616d00001e02fdfae3806ec5c146bedf8ad8",
          "width" : 300
        }, {
          "height" : 64,
          "url" : "https://i.scdn.co/image/ab67616d00004851fdfae3806ec5c146bedf8ad8",
          "width" : 64
        } ],
        "name" : "Now The Day Is Over",
        "release_date" : "2004-11-09",
        "release_date_precision" : "day",
        "total_tracks" : 13,
        "type" : "album",
        "uri" : "spotify:album:4Q4WWEbTuNgJ5fNyh1mBh2"
      },
      "artists" : [ {
        "external_urls" : {
          "spotify" : "https://open.spotify.com/artist/4VcTmgGKGuJn56Ac2zNhiH"
        },
        "href" : "https://api.spotify.com/v1/artists/4VcTmgGKGuJn56Ac2zNhiH",
        "id" : "4VcTmgGKGuJn56Ac2zNhiH",
        "name" : "The Innocence Mission",
        "type" : "artist",
        "uri" : "spotify:artist:4VcTmgGKGuJn56Ac2zNhiH"
      } ],
      "disc_number" : 1,
      "duration_ms" : 97240,
      "explicit" : false,
      "external_ids" : {
        "isrc" : "US36Y0400298"
      },
      "external_urls" : {
        "spotify" : "https://open.spotify.com/track/06yrnAUlXIB8QGaRQXHG65"
      },
      "href" : "https://api.spotify.com/v1/tracks/06yrnAUlXIB8QGaRQXHG65",
      "id" : "06yrnAUlXIB8QGaRQXHG65",
      "is_local" : false,
      "is_playable" : true,
      "name" : "Somewhere A Star Shines For Everyone",
      "popularity" : 25,
      "preview_url" : "https://p.scdn.co/mp3-preview/cbe4523b736385666f9ac16b23b0d1221755a51b?cid=774b29d4f13844c495f206cafdad9c86",
      "track_number" : 5,
      "type" : "track",
      "uri" : "spotify:track:06yrnAUlXIB8QGaRQXHG65"
    }, {
      "album" : {
        "album_type" : "album",
        "artists" : [ {
          "external_urls" : {
            "spotify" : "https://open.spotify.com/artist/4VcTmgGKGuJn56Ac2zNhiH"
          },
          "href" : "https://api.spotify.com/v1/artists/4VcTmgGKGuJn56Ac2zNhiH",
          "id" : "4VcTmgGKGuJn56Ac2zNhiH",
          "name" : "The Innocence Mission",
          "type" : "artist",
          "uri" : "spotify:artist:4VcTmgGKGuJn56Ac2zNhiH"
        } ],
        "external_urls" : {
          "spotify" : "https://open.spotify.com/album/4Q4WWEbTuNgJ5fNyh1mBh2"
        },
        "href" : "https://api.spotify.com/v1/albums/4Q4WWEbTuNgJ5fNyh1mBh2",
        "id" : "4Q4WWEbTuNgJ5fNyh1mBh2",
        "images" : [ {
          "height" : 640,
          "url" : "https://i.scdn.co/image/ab67616d0000b273fdfae3806ec5c146bedf8ad8",
          "width" : 640
        }, {
          "height" : 300,
          "url" : "https://i.scdn.co/image/ab67616d00001e02fdfae3806ec5c146bedf8ad8",
          "width" : 300
        }, {
          "height" : 64,
          "url" : "https://i.scdn.co/image/ab67616d00004851fdfae3806ec5c146bedf8ad8",
          "width" : 64
        } ],
        "name" : "Now The Day Is Over",
        "release_date" : "2004-11-09",
        "release_date_precision" : "day",
        "total_tracks" : 13,
        "type" : "album",
        "uri" : "spotify:album:4Q4WWEbTuNgJ5fNyh1mBh2"
      },
      "artists" : [ {
        "external_urls" : {
          "spotify" : "https://open.spotify.com/artist/4VcTmgGKGuJn56Ac2zNhiH"
        },
        "href" : "https://api.spotify.com/v1/artists/4VcTmgGKGuJn56Ac2zNhiH",
        "id" : "4VcTmgGKGuJn56Ac2zNhiH",
        "name" : "The Innocence Mission",
        "type" : "artist",
        "uri" : "spotify:artist:4VcTmgGKGuJn56Ac2zNhiH"
      } ],
      "disc_number" : 1,
      "duration_ms" : 72973,
      "explicit" : false,
      "external_ids" : {
        "isrc" : "US36Y0400304"
      },
      "external_urls" : {
        "spotify" : "https://open.spotify.com/track/3NpsFUsxZJ4ahrUCSLNLxs"
      },
      "href" : "https://api.spotify.com/v1/tracks/3NpsFUsxZJ4ahrUCSLNLxs",
      "id" : "3NpsFUsxZJ4ahrUCSLNLxs",
      "is_local" : false,
      "is_playable" : true,
      "name" : "Bye-Lo",
      "popularity" : 25,
      "preview_url" : "https://p.scdn.co/mp3-preview/b173972f46cceeba4799be9b322b26d1d45cd03d?cid=774b29d4f13844c495f206cafdad9c86",
      "track_number" : 11,
      "type" : "track",
      "uri" : "spotify:track:3NpsFUsxZJ4ahrUCSLNLxs"
    }, {
      "album" : {
        "album_type" : "album",
        "artists" : [ {
          "external_urls" : {
            "spotify" : "https://open.spotify.com/artist/4VcTmgGKGuJn56Ac2zNhiH"
          },
          "href" : "https://api.spotify.com/v1/artists/4VcTmgGKGuJn56Ac2zNhiH",
          "id" : "4VcTmgGKGuJn56Ac2zNhiH",
          "name" : "The Innocence Mission",
          "type" : "artist",
          "uri" : "spotify:artist:4VcTmgGKGuJn56Ac2zNhiH"
        } ],
        "external_urls" : {
          "spotify" : "https://open.spotify.com/album/4Q4WWEbTuNgJ5fNyh1mBh2"
        },
        "href" : "https://api.spotify.com/v1/albums/4Q4WWEbTuNgJ5fNyh1mBh2",
        "id" : "4Q4WWEbTuNgJ5fNyh1mBh2",
        "images" : [ {
          "height" : 640,
          "url" : "https://i.scdn.co/image/ab67616d0000b273fdfae3806ec5c146bedf8ad8",
          "width" : 640
        }, {
          "height" : 300,
          "url" : "https://i.scdn.co/image/ab67616d00001e02fdfae3806ec5c146bedf8ad8",
          "width" : 300
        }, {
          "height" : 64,
          "url" : "https://i.scdn.co/image/ab67616d00004851fdfae3806ec5c146bedf8ad8",
          "width" : 64
        } ],
        "name" : "Now The Day Is Over",
        "release_date" : "2004-11-09",
        "release_date_precision" : "day",
        "total_tracks" : 13,
        "type" : "album",
        "uri" : "spotify:album:4Q4WWEbTuNgJ5fNyh1mBh2"
      },
      "artists" : [ {
        "external_urls" : {
          "spotify" : "https://open.spotify.com/artist/4VcTmgGKGuJn56Ac2zNhiH"
        },
        "href" : "https://api.spotify.com/v1/artists/4VcTmgGKGuJn56Ac2zNhiH",
        "id" : "4VcTmgGKGuJn56Ac2zNhiH",
        "name" : "The Innocence Mission",
        "type" : "artist",
        "uri" : "spotify:artist:4VcTmgGKGuJn56Ac2zNhiH"
      } ],
      "disc_number" : 1,
      "duration_ms" : 121240,
      "explicit" : false,
      "external_ids" : {
        "isrc" : "US36Y0400299"
      },
      "external_urls" : {
        "spotify" : "https://open.spotify.com/track/00C6XaIM3B7XrhYFMs5FRm"
      },
      "href" : "https://api.spotify.com/v1/tracks/00C6XaIM3B7XrhYFMs5FRm",
      "id" : "00C6XaIM3B7XrhYFMs5FRm",
      "is_local" : false,
      "is_playable" : true,
      "name" : "Prelude In A",
      "popularity" : 25,
      "preview_url" : "https://p.scdn.co/mp3-preview/116f9ac9198f2c1f434bd3cbf9f61bd09103bb26?cid=774b29d4f13844c495f206cafdad9c86",
      "track_number" : 6,
      "type" : "track",
      "uri" : "spotify:track:00C6XaIM3B7XrhYFMs5FRm"
    } ],
    "limit" : 10,
    "next" : "https://api.spotify.com/v1/search?query=Now+the+Day+Is+Over&type=track&market=US&offset=15&limit=10",
    "offset" : 5,
    "previous" : "https://api.spotify.com/v1/search?query=Now+the+Day+Is+Over&type=track&market=US&offset=0&limit=10",
    "total" : 428
  }
}