{
  "tracks" : {
    "href" : "https://api.spotify.com/v1/search?query=Whiter+Than+Snow&type=track&market=US&offset=5&limit=10",
    "items" : [ {
      "album" : {
        "album_type" : "album",
        "artists" : [ {
          "external_urls" : {
            "spotify" : "https://open.spotify.com/artist/2cw7QQfN0zs6QUUGvhYp56"
          },
          "href" : "https://api.spotify.com/v1/artists/2cw7QQfN0zs6QUUGvhYp56",
          "id" : "2cw7QQfN0zs6QUUGvhYp56",
          "name" : "Galkin Evangelistic Team",
          "type" : "artist",
          "uri" : "spotify:artist:2cw7QQfN0zs6QUUGvhYp56"
        } ],
        "external_urls" : {
          "spotify" : "https://open.spotify.com/album/5fN1wtnJRv1kXT3zu24hWD"
        },
        "href" : "https://api.spotify.com/v1/albums/5fN1wtnJRv1kXT3zu24hWD",
        "id" : "5fN1wtnJRv1kXT3zu24hWD",
        "images" : [ {
          "height" : 640,
          "url" : "https://i.scdn.co/image/ab67616d0000b273066d753902a8d1587fb69345",
          "width" : 640
        }, {
          "height" : 300,
          "url" : "https://i.scdn.co/image/ab67616d00001e02066d753902a8d1587fb69345",
          "width" : 300
        }, {
          "height" : 64,
          "url" : "https://i.scdn.co/image/ab67616d00004851066d753902a8d1587fb69345",
          "width" : 64
        } ],
        "name" : "By Faith",
        "release_date" : "2012-05-25",
        "release_date_precision" : "day",
        "total_tracks" : 16,
        "type" : "album",
        "uri" : "spotify:album:5fN1wtnJRv1kXT3zu24hWD"
      },
      "artists" : [ {
        "external_urls" : {
          "spotify" : "https://open.spotify.com/artist/2cw7QQfN0zs6QUUGvhYp56"
        },
        "href" : "https://api.spotify.com/v1/artists/2cw7QQfN0zs6QUUGvhYp56",
        "id" : "2cw7QQfN0zs6QUUGvhYp56",
        "name" : "Galkin Evangelistic Team",
        "type" : "artist",
        "uri" : "spotify:artist:2cw7QQfN0zs6QUUGvhYp56"
      } ],
      "disc_number" : 1,
      "duration_ms" : 233480,
      "explicit" : false,
      "external_ids" : {
        "isrc" : "uscgh1257767"
      },
      "external_urls" : {
        "spotify" : "https://open.spotify.com/track/5euupS1136EWLXwmtepel3"
      },
      "href" : "https://api.spotify.com/v1/tracks/5euupS1136EWLXwmtepel3",
      "id" : "5euupS1136EWLXwmtepel3",
      "is_local" : false,
      "is_playable" : true,
      "name" : "Whiter Than Snow",
      "popularity" : 14,
      "preview_url" : "https://p.scdn.co/mp3-preview/72aa040b9b55c844e3ad2693c2d62946f6a25eea?cid=774b29d4f13844c495f206cafdad9c86",
      "track_number" : 8,
      "type" : "track",
      "uri" : "spotify:track:5euupS1136EWLXwmtepel3"
    }, {
      "album" : {
        "album_type" : "album",
        "artists" : [ {
          "external_urls" : {
            "spotify" : "https://open.spotify.com/artist/06um8wdbBpbr6AEIv63vm1"
          },
          "href" : "https://api.spotify.com/v1/artists/06um8wdbBpbr6AEIv63vm1",
          "id" : "06um8wdbBpbr6AEIv63vm1",
          "name" : "Kaleb Brasee",
          "type" : "artist",
          "uri" : "spotify:artist:06um8wdbBpbr6AEIv63vm1"
        } ],
        "external_urls" : {
          "spotify" : "https://open.spotify.com/album/6AvCOW2bU3X5C0gtqhE2KB"
        },
        "href" : "https://api.spotify.com/v1/albums/6AvCOW2bU3X5C0gtqhE2KB",
        "id" : "6AvCOW2bU3X5C0gtqhE2KB",
        "images" : [ {
          "height" : 640,
          "url" : "https://i.scdn.co/image/ab67616d0000b2734569b55b5cb2fca7ac27a3d6",
          "width" : 640
        }, {
          "height" : 300,
          "url" : "https://i.scdn.co/image/ab67616d00001e024569b55b5cb2fca7ac27a3d6",
          "width" : 300
        }, {
          "height" : 64,
          "url" : "https://i.scdn.co/image/ab67616d000048514569b55b5cb2fca7ac27a3d6",
          "width" : 64
        } ],
        "name" : "One More Hour of Relaxing Hymns on Piano",
        "release_date" : "2015-05-24",
        "release_date_precision" : "day",
        "total_tracks" : 23,
        "type" : "album",
        "uri" : "spotify:album:6AvCOW2bU3X5C0gtqhE2KB"
      },
      "artists" : [ {
        "external_urls" : {
          "spotify" : "https://open.spotify.com/artist/06um8wdbBpbr6AEIv63vm1"
        },
        "href" : "https://api.spotify.com/v1/artists/06um8wdbBpbr6AEIv63vm1",
        "id" : "06um8wdbBpbr6AEIv63vm1",
        "name" : "Kaleb Brasee",
        "type" : "artist",
        "uri" : "spotify:artist:06um8wdbBpbr6AEIv63vm1"
      } ],
      "disc_number" : 1,
      "duration_ms" : 179539,
      "explicit" : false,
      "external_ids" : {
        "isrc" : "QM4DW1513848"
      },
      "external_urls" : {
        "spotify" : "https://open.spotify.com/track/74dzpkKv7uk1H1WnlZRFF6"
      },
      "href" : "https://api.spotify.com/v1/tracks/74dzpkKv7uk1H1WnlZRFF6",
      "id" : "74dzpkKv7uk1H1WnlZRFF6",
      "is_local" : false,
      "is_playable" : true,
      "name" : "Whiter Than Snow",
      "popularity" : 14,
      "preview_url" : "https://p.scdn.co/mp3-preview/876c4e6e382c9d2f1bd98e1c4ac2668de1b8d980?cid=774b29d4f13844c495f206cafdad9c86",
      "track_number" : 16,
      "type" : "track",
      "uri" : "spotify:track:74dzpkKv7uk1H1WnlZRFF6"
    }, {
      "album" : {
        "album_type" : "album",
        "artists" : [ {
          "external_urls" : {
            "spotify" : "https://open.spotify.com/artist/5jNGQ7VOU87x5402JjhTtd"
          },
          "href" : "https://api.spotify.com/v1/artists/5jNGQ7VOU87x5402JjhTtd",
          "id" : "5jNGQ7VOU87x5402JjhTtd",
          "name" : "Deniece Williams",
          "type" : "artist",
          "uri" : "spotify:artist:5jNGQ7VOU87x5402JjhTtd"
        } ],
        "external_urls" : {
          "spotify" : "https://open.spotify.com/album/5SQ28k8Esr8yY55ZKvgC5u"
        },
        "href" : "https://api.spotify.com/v1/albums/5SQ28k8Esr8yY55ZKvgC5u",
        "id" : "5SQ28k8Esr8yY55ZKvgC5u",
        "images" : [ {
          "height" : 640,
          "url" : "https://i.scdn.co/image/ab67616d0000b273d80928fb032fdf43d32399d2",
          "width" : 640
        }, {
          "height" : 300,
          "url" : "https://i.scdn.co/image/ab67616d00001e02d80928fb032fdf43d32399d2",
          "width" : 300
        }, {
          "height" : 64,
          "url" : "https://i.scdn.co/image/ab67616d00004851d80928fb032fdf43d32399d2",
          "width" : 64
        } ],
        "name" : "Let's Hear It for the Boy (Expanded Edition)",
        "release_date" : "2016-04-01",
        "release_date_precision" : "day",
        "total_tracks" : 14,
        "type" : "album",
        "uri" : "spotify:album:5SQ28k8Esr8yY55ZKvgC5u"
      },
      "artists" : [ {
        "external_urls" : {
          "spotify" : "https://open.spotify.com/artist/5jNGQ7VOU87x5402JjhTtd"
        },
        "href" : "https://api.spotify.com/v1/artists/5jNGQ7VOU87x5402JjhTtd",
        "id" : "5jNGQ7VOU87x5402JjhTtd",
        "name" : "Deniece Williams",
        "type" : "artist",
        "uri" : "spotify:artist:5jNGQ7VOU87x5402JjhTtd"
      } ],
      "disc_number" : 1,
      "duration_ms" : 226933,
      "explicit" : false,
      "external_ids" : {
        "isrc" : "USSM10027891"
      },
      "external_urls" : {
        "spotify" : "https://open.spotify.com/track/36PeXj2Mg5sD7MuWWtbPM8"
      },
      "href" : "https://api.spotify.com/v1/tracks/36PeXj2Mg5sD7MuWWtbPM8",
      "id" : "36PeXj2Mg5sD7MuWWtbPM8",
      "is_local" : false,
      "is_playable" : true,
      "name" : "Whiter Than Snow",
      "popularity" : 11,
      "preview_url" : "https://p.scdn.co/mp3-preview/bdf672fbb84577d7150d62dd9c1fadd01a246243?cid=774b29d4f13844c495f206cafdad9c86",
      "track_number" : 10,
      "type" : "track",
      "uri" : "spotify:track:36PeXj2Mg5sD7MuWWtbPM8"
    }, {
      "album" : {
        "album_type" : "album",
        "artists" : [ {
          "external_urls" : {
            "spotify" : "https://open.spotify.com/artist/3PM2Mavn4aG4UXgG07dxCg"
          },
          "href" : "https://api.spotify.com/v1/artists/3PM2Mavn4aG4UXgG07dxCg",
          "id" : "3PM2Mavn4aG4UXgG07dxCg",
          "name" : "Benny Hinn",
          "type" : "artist",
          "uri" : "spotify:artist:3PM2Mavn4aG4UXgG07dxCg"
        } ],
        "external_urls" : {
          "spotify" : "https://open.spotify.com/album/5oWYmb6YYRbjPQxbqtYvIS"
        },
        "href" : "https://api.spotify.com/v1/albums/5oWYmb6YYRbjPQxbqtYvIS",
        "id" : "5oWYmb6YYRbjPQxbqtYvIS",
        "images" : [ {
          "height" : 640,
          "url" : "https://i.scdn.co/image/ab67616d0000b27336a4eda16cbe0367489ea0f6",
          "width" : 640
        }, {
          "height" : 300,
          "url" : "https://i.scdn.co/image/ab67616d00001e0236a4eda16cbe0367489ea0f6",
          "width" : 300
        }, {
          "height" : 64,
          "url" : "https://i.scdn.co/image/ab67616d0000485136a4eda16cbe0367489ea0f6",
          "width" : 64
        } ],
        "name" : "Wings of Worship",
        "release_date" : "2003-10-21",
        "release_date_precision" : "day",
        "total_tracks" : 26,
        "type" : "album",
        "uri" : "spotify:album:5oWYmb6YYRbjPQxbqtYvIS"
      },
      "artists" : [ {
        "external_urls" : {
          "spotify" : "https://open.spotify.com/artist/3PM2Mavn4aG4UXgG07dxCg"
        },
        "href" : "https://api.spotify.com/v1/artists/3PM2Mavn4aG4UXgG07dxCg",
        "id" : "3PM2Mavn4aG4UXgG07dxCg",
        "name" : "Benny Hinn",
        "type" : "artist",
        "uri" : "spotify:artist:3PM2Mavn4aG4UXgG07dxCg"
      } ],
      "disc_number" : 1,
      "duration_ms" : 90827,
      "explicit" : false,
      "external_ids" : {
        "isrc" : "QZFZ61942552"
      },
      "external_urls" : {
        "spotify" : "https://open.spotify.com/track/5yrDgKRQ3jRzGlpALHUqr3"
      },
      "href" : "https://api.spotify.com/v1/tracks/5yrDgKRQ3jRzGlpALHUqr3",
      "id" : "5yrDgKRQ3jRzGlpALHUqr3",
      "is_local" : false,
      "is_playable" : true,
      "name" : "Whiter Than Snow",
      "popularity" : 14,
      "preview_url" : "https://p.scdn.co/mp3-preview/27089c02a4df11533f1d854a5293d0164544170f?cid=774b29d4f13844c495f206cafdad9c86",
      "track_number" : 2,
      "type" : "track",
      "uri" : "spotify:track:5yrDgKRQ3jRzGlpALHUqr3"
    }, {
      "album" : {
        "album_type" : "album",
        "artists" : [ {
          "external_urls" : {
            "spotify" : "https://open.spotify.com/artist/5JFJOaaFOrcQQNvUFgCWtW"
          },
          "href" : "https://api.spotify.com/v1/artists/5JFJOaaFOrcQQNvUFgCWtW",
          "id" : "5JFJOaaFOrcQQNvUFgCWtW",
          "name" : "Aaron and Kelly",
          "type" : "artist",
          "uri" : "spotify:artist:5JFJOaaFOrcQQNvUFgCWtW"
        } ],
        "external_urls" : {
          "spotify" : "https://open.spotify.com/album/6uXppmvuQvVBWHIougD3Wq"
        },
        "href" : "https://api.spotify.com/v1/albums/6uXppmvuQvVBWHIougD3Wq",
        "id" : "6uXppmvuQvVBWHIougD3Wq",
        "images" : [ {
          "height" : 640,
          "url" : "https://i.scdn.co/image/ab67616d0000b2730710f912dc9916030e3537d1",
          "width" : 640
        }, {
          "height" : 300,
          "url" : "https://i.scdn.co/image/ab67616d00001e020710f912dc9916030e3537d1",
          "width" : 300
        }, {
          "height" : 64,
          "url" : "https://i.scdn.co/image/ab67616d000048510710f912dc9916030e3537d1",
          "width" : 64
        } ],
        "name" : "Come Home",
        "release_date" : "2012-09-25",
        "release_date_precision" : "day",
        "total_tracks" : 10,
        "type" : "album",
        "uri" : "spotify:album:6uXppmvuQvVBWHIougD3Wq"
      },
      "artists" : [ {
        "external_urls" : {
          "spotify" : "https://open.spotify.com/artist/5JFJOaaFOrcQQNvUFgCWtW"
        },
        "href" : "https://api.spotify.com/v1/artists/5JFJOaaFOrcQQNvUFgCWtW",
        "id" : "5JFJOaaFOrcQQNvUFgCWtW",
        "name" : "Aaron and Kelly",
        "type" : "artist",
        "uri" : "spotify:artist:5JFJOaaFOrcQQNvUFgCWtW"
      } ],
      "disc_number" : 1,
      "duration_ms" : 263168,
      "explicit" : false,
      "external_ids" : {
        "isrc" : "USTJY1200001"
      },
      "external_urls" : {
        "spotify" : "https://open.spotify.com/track/4R1cnfenTdoSaFQ2giVTY3"
      },
      "href" : "https://api.spotify.com/v1/tracks/4R1cnfenTdoSaFQ2giVTY3",
      "id" : "4R1cnfenTdoSaFQ2giVTY3",
      "is_local" : false,
      "is_playable" : true,
      "name" : "Whiter Than Snow | If Ever I Loved Thee",
      "popularity" : 9,
      "preview_url" : "https://p.scdn.co/mp3-preview/d19cdedd6bd5f9287a79a78e334fa13c3d25bfc2?cid=774b29d4f13844c495f206cafdad9c86",
      "track_number" : 1,
      "type" : "track",
      "uri" : "spotify:track:4R1cnfenTdoSaFQ2giVTY3"
    }, {
      "album" : {
        "album_type" : "album",
        "artists" : [ {
          "external_urls" : {
            "spotify" : "https://open.spotify.com/artist/2bOMiPcHHX8Mk3B7azCSko"
          },
          "href" : "https://api.spotify.com/v1/artists/2bOMiPcHHX8Mk3B7azCSko",
          "id" : "2bOMiPcHHX8Mk3B7azCSko",
          "name" : "Steve Pettit Evangelistic Team",
          "type" : "artist",
          "uri" : "spotify:artist:2bOMiPcHHX8Mk3B7azCSko"
        } ],
        "external_urls" : {
          "spotify" : "https://open.spotify.com/album/0IzEYGlECMKBReEHYYIuA2"
        },
        "href" : "https://api.spotify.com/v1/albums/0IzEYGlECMKBReEHYYIuA2",
        "id" : "0IzEYGlECMKBReEHYYIuA2",
        "images" : [ {
          "height" : 640,
          "url" : "https://i.scdn.co/image/ab67616d0000b2739c4b3ccc715c0b7d1d03c217",
          "width" : 640
        }, {
          "height" : 300,
          "url" : "https://i.scdn.co/image/ab67616d00001e029c4b3ccc715c0b7d1d03c217",
          "width" : 300
        }, {
          "height" : 64,
          "url" : "https://i.scdn.co/image/ab67616d000048519c4b3ccc715c0b7d1d03c217",
          "width" : 64
        } ],
        "name" : "Higher Ground",
        "release_date" : "2005",
        "release_date_precision" : "year",
        "total_tracks" : 13,
        "type" : "album",
        "uri" : "spotify:album:0IzEYGlECMKBReEHYYIuA2"
      },
      "artists" : [ {
        "external_urls" : {
          "spotify" : "https://open.spotify.com/artist/2bOMiPcHHX8Mk3B7azCSko"
        },
        "href" : "https://api.spotify.com/v1/artists/2bOMiPcHHX8Mk3B7azCSko",
        "id" : "2bOMiPcHHX8Mk3B7azCSko",
        "name" : "Steve Pettit Evangelistic Team",
        "type" : "artist",
        "uri" : "spotify:artist:2bOMiPcHHX8Mk3B7azCSko"
      } ],
      "disc_number" : 1,
      "duration_ms" : 171906,
      "explicit" : false,
      "external_ids" : {
        "isrc" : "usju30500009"
      },
      "external_urls" : {
        "spotify" : "https://open.spotify.com/track/1xjxuhrBls0NYUbbYZZn30"
      },
      "href" : "https://api.spotify.com/v1/tracks/1xjxuhrBls0NYUbbYZZn30",
      "id" : "1xjxuhrBls0NYUbbYZZn30",
      "is_local" : false,
      "is_playable" : true,
      "name" : "Whiter Than Snow",
      "popularity" : 8,
      "preview_url" : "https://p.scdn.co/mp3-preview/052747e55491275b5f009227df7aefb1af921214?cid=774b29d4f13844c495f206cafdad9c86",
      "track_number" : 9,
      "type" : "track",
      "uri" : "spotify:track:1xjxuhrBls0NYUbbYZZn30"
    }, {
      "album" : {
        "album_type" : "album",
        "artists" : [ {
          "external_urls" : {
            "spotify" : "https://open.spotify.com/artist/3kTcyaSYP5fqlqrNUvxiER"
          },
          "href" : "https://api.spotify.com/v1/artists/3kTcyaSYP5fqlqrNUvxiER",
          "id" : "3kTcyaSYP5fqlqrNUvxiER",
          "name" : "Carman",
          "type" : "artist",
          "uri" : "spotify:artist:3kTcyaSYP5fqlqrNUvxiER"
        } ],
        "external_urls" : {
          "spotify" : "https://open.spotify.com/album/1yko51v87Gt3B4ys3Pgh2B"
        },
        "href" : "https://api.spotify.com/v1/albums/1yko51v87Gt3B4ys3Pgh2B",
        "id" : "1yko51v87Gt3B4ys3Pgh2B",
        "images" : [ {
          "height" : 640,
          "url" : "https://i.scdn.co/image/ab67616d0000b273b8621e7661fc1b3fb6eae96e",
          "width" : 640
        }, {
          "height" : 300,
          "url" : "https://i.scdn.co/image/ab67616d00001e02b8621e7661fc1b3fb6eae96e",
          "width" : 300
        }, {
          "height" : 64,
          "url" : "https://i.scdn.co/image/ab67616d00004851b8621e7661fc1b3fb6eae96e",
          "width" : 64
        } ],
        "name" : "Righteous Invasion Of Truth",
        "release_date" : "1995-01-01",
        "release_date_precision" : "day",
        "total_tracks" : 10,
        "type" : "album",
        "uri" : "spotify:album:1yko51v87Gt3B4ys3Pgh2B"
      },
      "artists" : [ {
        "external_urls" : {
          "spotify" : "https://open.spotify.com/artist/3kTcyaSYP5fqlqrNUvxiER"
        },
        "href" : "https://api.spotify.com/v1/artists/3kTcyaSYP5fqlqrNUvxiER",
        "id" : "3kTcyaSYP5fqlqrNUvxiER",
        "name" : "Carman",
        "type" : "artist",
        "uri" : "spotify:artist:3kTcyaSYP5fqlqrNUvxiER"
      } ],
      "disc_number" : 1,
      "duration_ms" : 549093,
      "explicit" : false,
      "external_ids" : {
        "isrc" : "USSP39523190"
      },
      "external_urls" : {
        "spotify" : "https://open.spotify.com/track/5eZY489nEj1oaH4jIu3sv1"
      },
      "href" : "https://api.spotify.com/v1/tracks/5eZY489nEj1oaH4jIu3sv1",
      "id" : "5eZY489nEj1oaH4jIu3sv1",
      "is_local" : false,
      "is_playable" : true,
      "name" : "Whiter Than Snow - Riot Album Version",
      "popularity" : 7,
      "preview_url" : null,
      "track_number" : 4,
      "type" : "track",
      "uri" : "spotify:track:5eZY489nEj1oaH4jIu3sv1"
    }, {
      "album" : {
        "album_type" : "single",
        "artists" : [ {
          "external_urls" : {
            "spotify" : "https://open.spotify.com/artist/1QwpZetytdE0P1CTTCwXDo"
          },
          "href" : "https://api.spotify.com/v1/artists/1QwpZetytdE0P1CTTCwXDo",
          "id" : "1QwpZetytdE0P1CTTCwXDo",
          "name" : "Trinity Music",
          "type" : "artist",
          "uri" : "spotify:artist:1QwpZetytdE0P1CTTCwXDo"
        } ],
        "external_urls" : {
          "spotify" : "https://open.spotify.com/album/1KB1ek6kySYmkTYY2n21Ft"
        },
        "href" : "https://api.spotify.com/v1/albums/1KB1ek6kySYmkTYY2n21Ft",
        "id" : "1KB1ek6kySYmkTYY2n21Ft",
        "images" : [ {
          "height" : 640,
          "url" : "https://i.scdn.co/image/ab67616d0000b273f335aad6b510598ae5e16c6a",
          "width" : 640
        }, {
          "height" : 300,
          "url" : "https://i.scdn.co/image/ab67616d00001e02f335aad6b510598ae5e16c6a",
          "width" : 300
        }, {
          "height" : 64,
          "url" : "https://i.scdn.co/image/ab67616d00004851f335aad6b510598ae5e16c6a",
          "width" : 64
        } ],
        "name" : "Whiter Than Snow",
        "release_date" : "2017-03-01",
        "release_date_precision" : "day",
        "total_tracks" : 1,
        "type" : "album",
        "uri" : "spotify:album:1KB1ek6kySYmkTYY2n21Ft"
      },
      "artists" : [ {
        "external_urls" : {
          "spotify" : "https://open.spotify.com/artist/1QwpZetytdE0P1CTTCwXDo"
        },
        "href" : "https://api.spotify.com/v1/artists/1QwpZetytdE0P1CTTCwXDo",
        "id" : "1QwpZetytdE0P1CTTCwXDo",
        "name" : "Trinity Music",
        "type" : "artist",
        "uri" : "spotify:artist:1QwpZetytdE0P1CTTCwXDo"
      }, {
        "external_urls" : {
          "spotify" : "https://open.spotify.com/artist/5iWzBuj3f0T0PNzA8k4HYI"
        },
        "href" : "https://api.spotify.com/v1/artists/5iWzBuj3f0T0PNzA8k4HYI",
        "id" : "5iWzBuj3f0T0PNzA8k4HYI",
        "name" : "Marty Reardon",
        "type" : "artist",
        "uri" : "spotify:artist:5iWzBuj3f0T0PNzA8k4HYI"
      } ],
      "disc_number" : 1,
      "duration_ms" : 142488,
      "explicit" : false,
      "external_ids" : {
        "isrc" : "uscgj1709915"
      },
      "external_urls" : {
        "spotify" : "https://open.spotify.com/track/7pzzgEqJNP5NeCTsoJYc4w"
      },
      "href" : "https://api.spotify.com/v1/tracks/7pzzgEqJNP5NeCTsoJYc4w",
      "id" : "7pzzgEqJNP5NeCTsoJYc4w",
      "is_local" : false,
      "is_playable" : true,
      "name" : "Whiter Than Snow",
      "popularity" : 6,
      "preview_url" : "https://p.scdn.co/mp3-preview/8ea6178c4c501801caa2f1515c60fb7d1f986701?cid=774b29d4f13844c495f206cafdad9c86",
      "track_number" : 1,
      "type" : "track",
      "uri" : "spotify:track:7pzzgEqJNP5NeCTsoJYc4w"
    }, {
      "album" : {
        "album_type" : "album",
        "artists" : [ {
          "external_urls" : {
            "spotify" : "https://open.spotify.com/artist/6jWosXUd9GUshdTV9iC1Rn"
          },
          "href" : "https://api.spotify.com/v1/artists/6jWosXUd9GUshdTV9iC1Rn",
          "id" : "6jWosXUd9GUshdTV9iC1Rn",
          "name" : "Mississippi Children's Choir",
          "type" : "artist",
          "uri" : "spotify:artist:6jWosXUd9GUshdTV9iC1Rn"
        } ],
        "external_urls" : {
          "spotify" : "https://open.spotify.com/album/6aHHfdN0k5Gjff3hHYsjQm"
        },
        "href" : "https://api.spotify.com/v1/albums/6aHHfdN0k5Gjff3hHYsjQm",
        "id" : "6aHHfdN0k5Gjff3hHYsjQm",
        "images" : [ {
          "height" : 640,
          "url" : "https://i.scdn.co/image/ab67616d0000b27348d0d14ada730ae6806cb851",
          "width" : 640
        }, {
          "height" : 300,
          "url" : "https://i.scdn.co/image/ab67616d00001e0248d0d14ada730ae6806cb851",
          "width" : 300
        }, {
          "height" : 64,
          "url" : "https://i.scdn.co/image/ab67616d0000485148d0d14ada730ae6806cb851",
          "width" : 64
        } ],
        "name" : "When God's Children Get Together",
        "release_date" : "1998-03-03",
        "release_date_precision" : "day",
        "total_tracks" : 11,
        "type" : "album",
        "uri" : "spotify:album:6aHHfdN0k5Gjff3hHYsjQm"
      },
      "artists" : [ {
        "external_urls" : {
          "spotify" : "https://open.spotify.com/artist/6jWosXUd9GUshdTV9iC1Rn"
        },
        "href" : "https://api.spotify.com/v1/artists/6jWosXUd9GUshdTV9iC1Rn",
        "id" : "6jWosXUd9GUshdTV9iC1Rn",
        "name" : "Mississippi Children's Choir",
        "type" : "artist",
        "uri" : "spotify:artist:6jWosXUd9GUshdTV9iC1Rn"
      } ],
      "disc_number" : 1,
      "duration_ms" : 248560,
      "explicit" : false,
      "external_ids" : {
        "isrc" : "USMR50941565"
      },
      "external_urls" : {
        "spotify" : "https://open.spotify.com/track/7KODaqXO43CLgzdQBRdWLu"
      },
      "href" : "https://api.spotify.com/v1/tracks/7KODaqXO43CLgzdQBRdWLu",
      "id" : "7KODaqXO43CLgzdQBRdWLu",
      "is_local" : false,
      "is_playable" : true,
      "name" : "Whiter Than Snow",
      "popularity" : 5,
      "preview_url" : "https://p.scdn.co/mp3-preview/8099f2e096c8458aab041e31a6aec4975ca69a42?cid=774b29d4f13844c495f206cafdad9c86",
      "track_number" : 5,
      "type" : "track",
      "uri" : "spotify:track:7KODaqXO43CLgzdQBRdWLu"
    }, {
      "album" : {
        "album_type" : "album",
        "artists" : [ {
          "external_urls" : {
            "spotify" : "https://open.spotify.com/artist/09TOgappqOohpamkrpP78c"
          },
          "href" : "https://api.spotify.com/v1/artists/09TOgappqOohpamkrpP78c",
          "id" : "09TOgappqOohpamkrpP78c",
          "name" : "Fountainview Academy Orchestra & Singers",
          "type" : "artist",
          "uri" : "spotify:artist:09TOgappqOohpamkrpP78c"
        } ],
        "external_urls" : {
          "spotify" : "https://open.spotify.com/album/5mLkULb2utshaeQwPccrWM"
        },
        "href" : "https://api.spotify.com/v1/albums/5mLkULb2utshaeQwPccrWM",
        "id" : "5mLkULb2utshaeQwPccrWM",
        "images" : [ {
          "height" : 640,
          "url" : "https://i.scdn.co/image/ab67616d0000b273e81f1db2b74389a069d5356e",
          "width" : 640
        }, {
          "height" : 300,
          "url" : "https://i.scdn.co/image/ab67616d00001e02e81f1db2b74389a069d5356e",
          "width" : 300
        }, {
          "height" : 64,
          "url" : "https://i.scdn.co/image/ab67616d00004851e81f1db2b74389a069d5356e",
          "width" : 64
        } ],
        "name" : "A Child of The King",
        "release_date" : "2020-02-03",
        "release_date_precision" : "day",
        "total_tracks" : 13,
        "type" : "album",
        "uri" : "spotify:album:5mLkULb2utshaeQwPccrWM"
      },
      "artists" : [ {
        "external_urls" : {
          "spotify" : "https://open.spotify.com/artist/09TOgappqOohpamkrpP78c"
        },
        "href" : "https://api.spotify.com/v1/artists/09TOgappqOohpamkrpP78c",
        "id" : "09TOgappqOohpamkrpP78c",
        "name" : "Fountainview Academy Orchestra & Singers",
        "type" : "artist",
        "uri" : "spotify:artist:09TOgappqOohpamkrpP78c"
      } ],
      "disc_number" : 1,
      "duration_ms" : 203973,
      "explicit" : false,
      "external_ids" : {
        "isrc" : "QMEZE2014469"
      },
      "external_urls" : {
        "spotify" : "https://open.spotify.com/track/7rvhUUd0MEVtihMdbaegrP"
      },
      "href" : "https://api.spotify.com/v1/tracks/7rvhUUd0MEVtihMdbaegrP",
      "id" : "7rvhUUd0MEVtihMdbaegrP",
      "is_local" : false,
      "is_playable" : true,
      "name" : "Whiter Than Snow",
      "popularity" : 12,
      "preview_url" : "https://p.scdn.co/mp3-preview/da9239991fffc166f923325f92fede3292bc3db9?cid=774b29d4f13844c495f206cafdad9c86",
      "track_number" : 7,
      "type" : "track",
      "uri" : "spotify:track:7rvhUUd0MEVtihMdbaegrP"
    } ],
    "limit" : 10,
    "next" : "https://api.spotify.com/v1/search?query=Whiter+Than+Snow&type=track&market=US&offset=15&limit=10",
    "offset" : 5,
    "previous" : "https://api.spotify.com/v1/search?query=Whiter+Than+Snow&type=track&market=US&offset=0&limit=10",
    "total" : 273
  }
}