{
  "tracks" : {
    "href" : "https://api.spotify.com/v1/search?query=As+With+Gladness+Men+of+Old&type=track&market=US&offset=5&limit=10",
    "items" : [ {
      "album" : {
        "album_type" : "album",
        "artists" : [ {
          "external_urls" : {
            "spotify" : "https://open.spotify.com/artist/0ugRf6ECGBFRCHlv9iG1No"
          },
          "href" : "https://api.spotify.com/v1/artists/0ugRf6ECGBFRCHlv9iG1No",
          "id" : "0ugRf6ECGBFRCHlv9iG1No",
          "name" : "Stephen Cleobury",
          "type" : "artist",
          "uri" : "spotify:artist:0ugRf6ECGBFRCHlv9iG1No"
        }, {
          "external_urls" : {
            "spotify" : "https://open.spotify.com/artist/0f3PsS9IQ6whvNMFFKnpjl"
          },
          "href" : "https://api.spotify.com/v1/artists/0f3PsS9IQ6whvNMFFKnpjl",
          "id" : "0f3PsS9IQ6whvNMFFKnpjl",
          "name" : "Choir of King's College, Cambridge",
          "type" : "artist",
          "uri" : "spotify:artist:0f3PsS9IQ6whvNMFFKnpjl"
        } ],
        "external_urls" : {
          "spotify" : "https://open.spotify.com/album/2OSUdVeIir9W6mbum8qaui"
        },
        "href" : "https://api.spotify.com/v1/albums/2OSUdVeIir9W6mbum8qaui",
        "id" : "2OSUdVeIir9W6mbum8qaui",
        "images" : [ {
          "height" : 640,
          "url" : "https://i.scdn.co/image/ab67616d0000b27330136c83c2e767dfc4626ace",
          "width" : 640
        }, {
          "height" : 300,
          "url" : "https://i.scdn.co/image/ab67616d00001e0230136c83c2e767dfc4626ace",
          "width" : 300
        }, {
          "height" : 64,
          "url" : "https://i.scdn.co/image/ab67616d0000485130136c83c2e767dfc4626ace",
          "width" : 64
        } ],
        "name" : "Hymns from King's",
        "release_date" : "2016-06-10",
        "release_date_precision" : "day",
        "total_tracks" : 20,
        "type" : "album",
        "uri" : "spotify:album:2OSUdVeIir9W6mbum8qaui"
      },
      "artists" : [ {
        "external_urls" : {
          "spotify" : "https://open.spotify.com/artist/1asseq1Wwf4J4wrXW9rhmw"
        },
        "href" : "https://api.spotify.com/v1/artists/1asseq1Wwf4J4wrXW9rhmw",
        "id" : "1asseq1Wwf4J4wrXW9rhmw",
        "name" : "Conrad Kocher",
        "type" : "artist",
        "uri" : "spotify:artist:1asseq1Wwf4J4wrXW9rhmw"
      }, {
        "external_urls" : {
          "spotify" : "https://open.spotify.com/artist/61GYUvvf0liMZ5x0HC9oRk"
        },
        "href" : "https://api.spotify.com/v1/artists/61GYUvvf0liMZ5x0HC9oRk",
        "id" : "61GYUvvf0liMZ5x0HC9oRk",
        "name" : "William Henry Monk",
        "type" : "artist",
        "uri" : "spotify:artist:61GYUvvf0liMZ5x0HC9oRk"
      }, {
        "external_urls" : {
          "spotify" : "https://open.spotify.com/artist/0f3PsS9IQ6whvNMFFKnpjl"
        },
        "href" : "https://api.spotify.com/v1/artists/0f3PsS9IQ6whvNMFFKnpjl",
        "id" : "0f3PsS9IQ6whvNMFFKnpjl",
        "name" : "Choir of King's College, Cambridge",
        "type" : "artist",
        "uri" : "spotify:artist:0f3PsS9IQ6whvNMFFKnpjl"
      }, {
        "external_urls" : {
          "spotify" : "https://open.spotify.com/artist/0ugRf6ECGBFRCHlv9iG1No"
        },
        "href" : "https://api.spotify.com/v1/artists/0ugRf6ECGBFRCHlv9iG1No",
        "id" : "0ugRf6ECGBFRCHlv9iG1No",
        "name" : "Stephen Cleobury",
        "type" : "artist",
        "uri" : "spotify:artist:0ugRf6ECGBFRCHlv9iG1No"
      } ],
      "disc_number" : 1,
      "duration_ms" : 190800,
      "explicit" : false,
      "external_ids" : {
        "isrc" : "GBMY51501414"
      },
      "external_urls" : {
        "spotify" : "https://open.spotify.com/track/0FL3Il93xZqolo5xEx2G1M"
      },
      "href" : "https://api.spotify.com/v1/tracks/0FL3Il93xZqolo5xEx2G1M",
      "id" : "0FL3Il93xZqolo5xEx2G1M",
      "is_local" : false,
      "is_playable" : true,
      "name" : "As With Gladness Men of Old (Dix)",
      "popularity" : 15,
      "preview_url" : "https://p.scdn.co/mp3-preview/369a235d238d742616bf4ab009d27e69654527c8?cid=774b29d4f13844c495f206cafdad9c86",
      "track_number" : 14,
      "type" : "track",
      "uri" : "spotify:track:0FL3Il93xZqolo5xEx2G1M"
    }, {
      "album" : {
        "album_type" : "compilation",
        "artists" : [ {
          "external_urls" : {
            "spotify" : "https://open.spotify.com/artist/0LyfQWJT6nXafLPZqxe9Of"
          },
          "href" : "https://api.spotify.com/v1/artists/0LyfQWJT6nXafLPZqxe9Of",
          "id" : "0LyfQWJT6nXafLPZqxe9Of",
          "name" : "Various Artists",
          "type" : "artist",
          "uri" : "spotify:artist:0LyfQWJT6nXafLPZqxe9Of"
        } ],
        "external_urls" : {
          "spotify" : "https://open.spotify.com/album/4CedK4dcXVQagB7CT8fZB1"
        },
        "href" : "https://api.spotify.com/v1/albums/4CedK4dcXVQagB7CT8fZB1",
        "id" : "4CedK4dcXVQagB7CT8fZB1",
        "images" : [ {
          "height" : 640,
          "url" : "https://i.scdn.co/image/ab67616d0000b273e4194d2c4905462046a3a250",
          "width" : 640
        }, {
          "height" : 300,
          "url" : "https://i.scdn.co/image/ab67616d00001e02e4194d2c4905462046a3a250",
          "width" : 300
        }, {
          "height" : 64,
          "url" : "https://i.scdn.co/image/ab67616d00004851e4194d2c4905462046a3a250",
          "width" : 64
        } ],
        "name" : "100 Best Hymns",
        "release_date" : "2011-03-29",
        "release_date_precision" : "day",
        "total_tracks" : 100,
        "type" : "album",
        "uri" : "spotify:album:4CedK4dcXVQagB7CT8fZB1"
      },
      "artists" : [ {
        "external_urls" : {
          "spotify" : "https://open.spotify.com/artist/6dYrkwrKdY8nKIvtNAfeog"
        },
        "href" : "https://api.spotify.com/v1/artists/6dYrkwrKdY8nKIvtNAfeog",
        "id" : "6dYrkwrKdY8nKIvtNAfeog",
        "name" : "C. Kocher",
        "type" : "artist",
        "uri" : "spotify:artist:6dYrkwrKdY8nKIvtNAfeog"
      }, {
        "external_urls" : {
          "spotify" : "https://open.spotify.com/artist/0f3PsS9IQ6whvNMFFKnpjl"
        },
        "href" : "https://api.spotify.com/v1/artists/0f3PsS9IQ6whvNMFFKnpjl",
        "id" : "0f3PsS9IQ6whvNMFFKnpjl",
        "name" : "Choir of King's College, Cambridge",
        "type" : "artist",
        "uri" : "spotify:artist:0f3PsS9IQ6whvNMFFKnpjl"
      }, {
        "external_urls" : {
          "spotify" : "https://open.spotify.com/artist/1EzwcfuxpwfMTbHzpGxmtw"
        },
        "href" : "https://api.spotify.com/v1/artists/1EzwcfuxpwfMTbHzpGxmtw",
        "id" : "1EzwcfuxpwfMTbHzpGxmtw",
        "name" : "Ian Hare",
        "type" : "artist",
        "uri" : "spotify:artist:1EzwcfuxpwfMTbHzpGxmtw"
      }, {
        "external_urls" : {
          "spotify" : "https://open.spotify.com/artist/3adMGKhs0hyGuTVpe7hnqC"
        },
        "href" : "https://api.spotify.com/v1/artists/3adMGKhs0hyGuTVpe7hnqC",
        "id" : "3adMGKhs0hyGuTVpe7hnqC",
        "name" : "Sir David Willcocks",
        "type" : "artist",
        "uri" : "spotify:artist:3adMGKhs0hyGuTVpe7hnqC"
      } ],
      "disc_number" : 6,
      "duration_ms" : 124346,
      "explicit" : false,
      "external_ids" : {
        "isrc" : "GBAYC1002856"
      },
      "external_urls" : {
        "spotify" : "https://open.spotify.com/track/5DQ2yWHqESFf09zJp9RE6Q"
      },
      "href" : "https://api.spotify.com/v1/tracks/5DQ2yWHqESFf09zJp9RE6Q",
      "id" : "5DQ2yWHqESFf09zJp9RE6Q",
      "is_local" : false,
      "is_playable" : true,
      "name" : "As with gladness men of old (Dix) - 1994 Remastered Version",
      "popularity" : 7,
      "preview_url" : "https://p.scdn.co/mp3-preview/051a05c1be47d691efaf5adb4eefbc912e62e3a8?cid=774b29d4f13844c495f206cafdad9c86",
      "track_number" : 6,
      "type" : "track",
      "uri" : "spotify:track:5DQ2yWHqESFf09zJp9RE6Q"
    }, {
      "album" : {
        "album_type" : "album",
        "artists" : [ {
          "external_urls" : {
            "spotify" : "https://open.spotify.com/artist/6TRcBSUMkNoHL49YHcyL8m"
          },
          "href" : "https://api.spotify.com/v1/artists/6TRcBSUMkNoHL49YHcyL8m",
          "id" : "6TRcBSUMkNoHL49YHcyL8m",
          "name" : "The Choir Of Selwyn College, Cambridge",
          "type" : "artist",
          "uri" : "spotify:artist:6TRcBSUMkNoHL49YHcyL8m"
        } ],
        "external_urls" : {
          "spotify" : "https://open.spotify.com/album/35z1t9AIGig8k4tNx2GknW"
        },
        "href" : "https://api.spotify.com/v1/albums/35z1t9AIGig8k4tNx2GknW",
        "id" : "35z1t9AIGig8k4tNx2GknW",
        "images" : [ {
          "height" : 640,
          "url" : "https://i.scdn.co/image/ab67616d0000b273b22a03e285ef89fd2484f4a1",
          "width" : 640
        }, {
          "height" : 300,
          "url" : "https://i.scdn.co/image/ab67616d00001e02b22a03e285ef89fd2484f4a1",
          "width" : 300
        }, {
          "height" : 64,
          "url" : "https://i.scdn.co/image/ab67616d00004851b22a03e285ef89fd2484f4a1",
          "width" : 64
        } ],
        "name" : "Complete New English Hymnal Vol. 14",
        "release_date" : "2003-07-31",
        "release_date_precision" : "day",
        "total_tracks" : 22,
        "type" : "album",
        "uri" : "spotify:album:35z1t9AIGig8k4tNx2GknW"
      },
      "artists" : [ {
        "external_urls" : {
          "spotify" : "https://open.spotify.com/artist/6TRcBSUMkNoHL49YHcyL8m"
        },
        "href" : "https://api.spotify.com/v1/artists/6TRcBSUMkNoHL49YHcyL8m",
        "id" : "6TRcBSUMkNoHL49YHcyL8m",
        "name" : "The Choir Of Selwyn College, Cambridge",
        "type" : "artist",
        "uri" : "spotify:artist:6TRcBSUMkNoHL49YHcyL8m"
      } ],
      "disc_number" : 1,
      "duration_ms" : 176533,
      "explicit" : false,
      "external_ids" : {
        "isrc" : "GBXUX0871416"
      },
      "external_urls" : {
        "spotify" : "https://open.spotify.com/track/3s0ubcYFh2M3da98Hu5Iqp"
      },
      "href" : "https://api.spotify.com/v1/tracks/3s0ubcYFh2M3da98Hu5Iqp",
      "id" : "3s0ubcYFh2M3da98Hu5Iqp",
      "is_local" : false,
      "is_playable" : true,
      "name" : "As with Gladness Men of Old",
      "popularity" : 7,
      "preview_url" : "https://p.scdn.co/mp3-preview/35885144d87f5787d8585dbffa2a6841b63c1c48?cid=774b29d4f13844c495f206cafdad9c86",
      "track_number" : 16,
      "type" : "track",
      "uri" : "spotify:track:3s0ubcYFh2M3da98Hu5Iqp"
    }, {
      "album" : {
        "album_type" : "single",
        "artists" : [ {
          "external_urls" : {
            "spotify" : "https://open.spotify.com/artist/5iPCh0oqsz1m0henXpovFe"
          },
          "href" : "https://api.spotify.com/v1/artists/5iPCh0oqsz1m0henXpovFe",
          "id" : "5iPCh0oqsz1m0henXpovFe",
          "name" : "High Street Hymns",
          "type" : "artist",
          "uri" : "spotify:artist:5iPCh0oqsz1m0henXpovFe"
        } ],
        "external_urls" : {
          "spotify" : "https://open.spotify.com/album/0OcLdoOFrqJm8Oe8TXvCgJ"
        },
        "href" : "https://api.spotify.com/v1/albums/0OcLdoOFrqJm8Oe8TXvCgJ",
        "id" : "0OcLdoOFrqJm8Oe8TXvCgJ",
        "images" : [ {
          "height" : 640,
          "url" : "https://i.scdn.co/image/ab67616d0000b273d78648df4495fea1f4979955",
          "width" : 640
        }, {
          "height" : 300,
          "url" : "https://i.scdn.co/image/ab67616d00001e02d78648df4495fea1f4979955",
          "width" : 300
        }, {
          "height" : 64,
          "url" : "https://i.scdn.co/image/ab67616d00004851d78648df4495fea1f4979955",
          "width" : 64
        } ],
        "name" : "As With Gladness, Men Of Old",
        "release_date" : "2014-12-30",
        "release_date_precision" : "day",
        "total_tracks" : 1,
        "type" : "album",
        "uri" : "spotify:album:0OcLdoOFrqJm8Oe8TXvCgJ"
      },
      "artists" : [ {
        "external_urls" : {
          "spotify" : "https://open.spotify.com/artist/5iPCh0oqsz1m0henXpovFe"
        },
        "href" : "https://api.spotify.com/v1/artists/5iPCh0oqsz1m0henXpovFe",
        "id" : "5iPCh0oqsz1m0henXpovFe",
        "name" : "High Street Hymns",
        "type" : "artist",
        "uri" : "spotify:artist:5iPCh0oqsz1m0henXpovFe"
      } ],
      "disc_number" : 1,
      "duration_ms" : 175167,
      "explicit" : false,
      "external_ids" : {
        "isrc" : "QM6AD1400002"
      },
      "external_urls" : {
        "spotify" : "https://open.spotify.com/track/1UADLQMRR0LWMhslEoHHBU"
      },
      "href" : "https://api.spotify.com/v1/tracks/1UADLQMRR0LWMhslEoHHBU",
      "id" : "1UADLQMRR0LWMhslEoHHBU",
      "is_local" : false,
      "is_playable" : true,
      "name" : "As With Gladness, Men Of Old",
      "popularity" : 7,
      "preview_url" : "https://p.scdn.co/mp3-preview/af4bdd701dbbcc7ad10ef4f3a2dd697b5b263018?cid=774b29d4f13844c495f206cafdad9c86",
      "track_number" : 1,
      "type" : "track",
      "uri" : "spotify:track:1UADLQMRR0LWMhslEoHHBU"
    }, {
      "album" : {
        "album_type" : "album",
        "artists" : [ {
          "external_urls" : {
            "spotify" : "https://open.spotify.com/artist/2yQZGNQJExPLfCB8kfTD88"
          },
          "href" : "https://api.spotify.com/v1/artists/2yQZGNQJExPLfCB8kfTD88",
          "id" : "2yQZGNQJExPLfCB8kfTD88",
          "name" : "Andrey Jackson",
          "type" : "artist",
          "uri" : "spotify:artist:2yQZGNQJExPLfCB8kfTD88"
        } ],
        "external_urls" : {
          "spotify" : "https://open.spotify.com/album/4vFDRgetVoSJ0nZA7OxioF"
        },
        "href" : "https://api.spotify.com/v1/albums/4vFDRgetVoSJ0nZA7OxioF",
        "id" : "4vFDRgetVoSJ0nZA7OxioF",
        "images" : [ {
          "height" : 640,
          "url" : "https://i.scdn.co/image/ab67616d0000b2735f0c531d64843889c70a0279",
          "width" : 640
        }, {
          "height" : 300,
          "url" : "https://i.scdn.co/image/ab67616d00001e025f0c531d64843889c70a0279",
          "width" : 300
        }, {
          "height" : 64,
          "url" : "https://i.scdn.co/image/ab67616d000048515f0c531d64843889c70a0279",
          "width" : 64
        } ],
        "name" : "Christian Hymns, Vol. 1, Organ Accompaniments (The Church Organist Series)",
        "release_date" : "2015-11-13",
        "release_date_precision" : "day",
        "total_tracks" : 30,
        "type" : "album",
        "uri" : "spotify:album:4vFDRgetVoSJ0nZA7OxioF"
      },
      "artists" : [ {
        "external_urls" : {
          "spotify" : "https://open.spotify.com/artist/2yQZGNQJExPLfCB8kfTD88"
        },
        "href" : "https://api.spotify.com/v1/artists/2yQZGNQJExPLfCB8kfTD88",
        "id" : "2yQZGNQJExPLfCB8kfTD88",
        "name" : "Andrey Jackson",
        "type" : "artist",
        "uri" : "spotify:artist:2yQZGNQJExPLfCB8kfTD88"
      } ],
      "disc_number" : 1,
      "duration_ms" : 124657,
      "explicit" : false,
      "external_ids" : {
        "isrc" : "GB-SMU-24-07453"
      },
      "external_urls" : {
        "spotify" : "https://open.spotify.com/track/2JZ5EJbvhrCIwhDkpFMDBj"
      },
      "href" : "https://api.spotify.com/v1/tracks/2JZ5EJbvhrCIwhDkpFMDBj",
      "id" : "2JZ5EJbvhrCIwhDkpFMDBj",
      "is_local" : false,
      "is_playable" : true,
      "name" : "As With Gladness Men of Old (3 verses)",
      "popularity" : 5,
      "preview_url" : "https://p.scdn.co/mp3-preview/2c0890b1284b990c05616d9f4bcaf75175c25fe1?cid=774b29d4f13844c495f206cafdad9c86",
      "track_number" : 22,
      "type" : "track",
      "uri" : "spotify:track:2JZ5EJbvhrCIwhDkpFMDBj"
    }, {
      "album" : {
        "album_type" : "album",
        "artists" : [ {
          "external_urls" : {
            "spotify" : "https://open.spotify.com/artist/41N4x8ZUxk7JkHORj8M3bd"
          },
          "href" : "https://api.spotify.com/v1/artists/41N4x8ZUxk7JkHORj8M3bd",
          "id" : "41N4x8ZUxk7JkHORj8M3bd",
          "name" : "Concordia Publishing House",
          "type" : "artist",
          "uri" : "spotify:artist:41N4x8ZUxk7JkHORj8M3bd"
        } ],
        "external_urls" : {
          "spotify" : "https://open.spotify.com/album/6XGnGoNmqY1Ud2ljK99HH3"
        },
        "href" : "https://api.spotify.com/v1/albums/6XGnGoNmqY1Ud2ljK99HH3",
        "id" : "6XGnGoNmqY1Ud2ljK99HH3",
        "images" : [ {
          "height" : 640,
          "url" : "https://i.scdn.co/image/ab67616d0000b2732e293edf858388fe15200686",
          "width" : 640
        }, {
          "height" : 300,
          "url" : "https://i.scdn.co/image/ab67616d00001e022e293edf858388fe15200686",
          "width" : 300
        }, {
          "height" : 64,
          "url" : "https://i.scdn.co/image/ab67616d000048512e293edf858388fe15200686",
          "width" : 64
        } ],
        "name" : "My First Hymnal-Advent, Christmas, Epiphany",
        "release_date" : "2012-08-21",
        "release_date_precision" : "day",
        "total_tracks" : 24,
        "type" : "album",
        "uri" : "spotify:album:6XGnGoNmqY1Ud2ljK99HH3"
      },
      "artists" : [ {
        "external_urls" : {
          "spotify" : "https://open.spotify.com/artist/41N4x8ZUxk7JkHORj8M3bd"
        },
        "href" : "https://api.spotify.com/v1/artists/41N4x8ZUxk7JkHORj8M3bd",
        "id" : "41N4x8ZUxk7JkHORj8M3bd",
        "name" : "Concordia Publishing House",
        "type" : "artist",
        "uri" : "spotify:artist:41N4x8ZUxk7JkHORj8M3bd"
      } ],
      "disc_number" : 1,
      "duration_ms" : 92577,
      "explicit" : false,
      "external_ids" : {
        "isrc" : "US3DF1211124"
      },
      "external_urls" : {
        "spotify" : "https://open.spotify.com/track/6Nk4ERujGIEmoL5q80oTs4"
      },
      "href" : "https://api.spotify.com/v1/tracks/6Nk4ERujGIEmoL5q80oTs4",
      "id" : "6Nk4ERujGIEmoL5q80oTs4",
      "is_local" : false,
      "is_playable" : true,
      "name" : "As with Gladness Men of Old",
      "popularity" : 4,
      "preview_url" : "https://p.scdn.co/mp3-preview/ccbc4fedaf60e41af296238d8e778eb0b178819a?cid=774b29d4f13844c495f206cafdad9c86",
      "track_number" : 21,
      "type" : "track",
      "uri" : "spotify:track:6Nk4ERujGIEmoL5q80oTs4"
    }, {
      "album" : {
        "album_type" : "album",
        "artists" : [ {
          "external_urls" : {
            "spotify" : "https://open.spotify.com/artist/06um8wdbBpbr6AEIv63vm1"
          },
          "href" : "https://api.spotify.com/v1/artists/06um8wdbBpbr6AEIv63vm1",
          "id" : "06um8wdbBpbr6AEIv63vm1",
          "name" : "Kaleb Brasee",
          "type" : "artist",
          "uri" : "spotify:artist:06um8wdbBpbr6AEIv63vm1"
        } ],
        "external_urls" : {
          "spotify" : "https://open.spotify.com/album/3QROZVwCM6esJ1cYbWikdw"
        },
        "href" : "https://api.spotify.com/v1/albums/3QROZVwCM6esJ1cYbWikdw",
        "id" : "3QROZVwCM6esJ1cYbWikdw",
        "images" : [ {
          "height" : 640,
          "url" : "https://i.scdn.co/image/ab67616d0000b273806743844a537f46def6f977",
          "width" : 640
        }, {
          "height" : 300,
          "url" : "https://i.scdn.co/image/ab67616d00001e02806743844a537f46def6f977",
          "width" : 300
        }, {
          "height" : 64,
          "url" : "https://i.scdn.co/image/ab67616d00004851806743844a537f46def6f977",
          "width" : 64
        } ],
        "name" : "One Hour of Peaceful Christmas Songs on Piano (Instrumental)",
        "release_date" : "2018-12-06",
        "release_date_precision" : "day",
        "total_tracks" : 22,
        "type" : "album",
        "uri" : "spotify:album:3QROZVwCM6esJ1cYbWikdw"
      },
      "artists" : [ {
        "external_urls" : {
          "spotify" : "https://open.spotify.com/artist/06um8wdbBpbr6AEIv63vm1"
        },
        "href" : "https://api.spotify.com/v1/artists/06um8wdbBpbr6AEIv63vm1",
        "id" : "06um8wdbBpbr6AEIv63vm1",
        "name" : "Kaleb Brasee",
        "type" : "artist",
        "uri" : "spotify:artist:06um8wdbBpbr6AEIv63vm1"
      } ],
      "disc_number" : 1,
      "duration_ms" : 136172,
      "explicit" : false,
      "external_ids" : {
        "isrc" : "QZES91803305"
      },
      "external_urls" : {
        "spotify" : "https://open.spotify.com/track/6Ox0HwlfZhlnenMEdAOE4z"
      },
      "href" : "https://api.spotify.com/v1/tracks/6Ox0HwlfZhlnenMEdAOE4z",
      "id" : "6Ox0HwlfZhlnenMEdAOE4z",
      "is_local" : false,
      "is_playable" : true,
      "name" : "As With Gladness Men of Old - Instrumental",
      "popularity" : 6,
      "preview_url" : "https://p.scdn.co/mp3-preview/4b28441dd5ba71d11febbc480a8265a4f29ec551?cid=774b29d4f13844c495f206cafdad9c86",
      "track_number" : 14,
      "type" : "track",
      "uri" : "spotify:track:6Ox0HwlfZhlnenMEdAOE4z"
    }, {
      "album" : {
        "album_type" : "album",
        "artists" : [ {
          "external_urls" : {
            "spotify" : "https://open.spotify.com/artist/41N4x8ZUxk7JkHORj8M3bd"
          },
          "href" : "https://api.spotify.com/v1/artists/41N4x8ZUxk7JkHORj8M3bd",
          "id" : "41N4x8ZUxk7JkHORj8M3bd",
          "name" : "Concordia Publishing House",
          "type" : "artist",
          "uri" : "spotify:artist:41N4x8ZUxk7JkHORj8M3bd"
        } ],
        "external_urls" : {
          "spotify" : "https://open.spotify.com/album/6XGnGoNmqY1Ud2ljK99HH3"
        },
        "href" : "https://api.spotify.com/v1/albums/6XGnGoNmqY1Ud2ljK99HH3",
        "id" : "6XGnGoNmqY1Ud2ljK99HH3",
        "images" : [ {
          "height" : 640,
          "url" : "https://i.scdn.co/image/ab67616d0000b2732e293edf858388fe15200686",
          "width" : 640
        }, {
          "height" : 300,
          "url" : "https://i.scdn.co/image/ab67616d00001e022e293edf858388fe15200686",
          "width" : 300
        }, {
          "height" : 64,
          "url" : "https://i.scdn.co/image/ab67616d000048512e293edf858388fe15200686",
          "width" : 64
        } ],
        "name" : "My First Hymnal-Advent, Christmas, Epiphany",
        "release_date" : "2012-08-21",
        "release_date_precision" : "day",
        "total_tracks" : 24,
        "type" : "album",
        "uri" : "spotify:album:6XGnGoNmqY1Ud2ljK99HH3"
      },
      "artists" : [ {
        "external_urls" : {
          "spotify" : "https://open.spotify.com/artist/41N4x8ZUxk7JkHORj8M3bd"
        },
        "href" : "https://api.spotify.com/v1/artists/41N4x8ZUxk7JkHORj8M3bd",
        "id" : "41N4x8ZUxk7JkHORj8M3bd",
        "name" : "Concordia Publishing House",
        "type" : "artist",
        "uri" : "spotify:artist:41N4x8ZUxk7JkHORj8M3bd"
      } ],
      "disc_number" : 1,
      "duration_ms" : 92577,
      "explicit" : false,
      "external_ids" : {
        "isrc" : "US3DF1211125"
      },
      "external_urls" : {
        "spotify" : "https://open.spotify.com/track/5sHkDOph75vzLu3Dpo5QoN"
      },
      "href" : "https://api.spotify.com/v1/tracks/5sHkDOph75vzLu3Dpo5QoN",
      "id" : "5sHkDOph75vzLu3Dpo5QoN",
      "is_local" : false,
      "is_playable" : true,
      "name" : "As with Gladness Men of Old (Acc)",
      "popularity" : 3,
      "preview_url" : "https://p.scdn.co/mp3-preview/519d09fa558c351a6446a7cf69431b7b4853edaa?cid=774b29d4f13844c495f206cafdad9c86",
      "track_number" : 22,
      "type" : "track",
      "uri" : "spotify:track:5sHkDOph75vzLu3Dpo5QoN"
    }, {
      "album" : {
        "album_type" : "album",
        "artists" : [ {
          "external_urls" : {
            "spotify" : "https://open.spotify.com/artist/258Dm9AVtfbZA1w7gnEtzq"
          },
          "href" : "https://api.spotify.com/v1/artists/258Dm9AVtfbZA1w7gnEtzq",
          "id" : "258Dm9AVtfbZA1w7gnEtzq",
          "name" : "Kim Mitzo Thompson",
          "type" : "artist",
          "uri" : "spotify:artist:258Dm9AVtfbZA1w7gnEtzq"
        } ],
        "external_urls" : {
          "spotify" : "https://open.spotify.com/album/2KbHWqOo7J5ny7I3J27W5c"
        },
        "href" : "https://api.spotify.com/v1/albums/2KbHWqOo7J5ny7I3J27W5c",
        "id" : "2KbHWqOo7J5ny7I3J27W5c",
        "images" : [ {
          "height" : 640,
          "url" : "https://i.scdn.co/image/ab67616d0000b2736ceb59df26ab958f9f49f7af",
          "width" : 640
        }, {
          "height" : 300,
          "url" : "https://i.scdn.co/image/ab67616d00001e026ceb59df26ab958f9f49f7af",
          "width" : 300
        }, {
          "height" : 64,
          "url" : "https://i.scdn.co/image/ab67616d000048516ceb59df26ab958f9f49f7af",
          "width" : 64
        } ],
        "name" : "25 Christmas Favorites",
        "release_date" : "2012-12-21",
        "release_date_precision" : "day",
        "total_tracks" : 15,
        "type" : "album",
        "uri" : "spotify:album:2KbHWqOo7J5ny7I3J27W5c"
      },
      "artists" : [ {
        "external_urls" : {
          "spotify" : "https://open.spotify.com/artist/258Dm9AVtfbZA1w7gnEtzq"
        },
        "href" : "https://api.spotify.com/v1/artists/258Dm9AVtfbZA1w7gnEtzq",
        "id" : "258Dm9AVtfbZA1w7gnEtzq",
        "name" : "Kim Mitzo Thompson",
        "type" : "artist",
        "uri" : "spotify:artist:258Dm9AVtfbZA1w7gnEtzq"
      } ],
      "disc_number" : 1,
      "duration_ms" : 264707,
      "explicit" : false,
      "external_ids" : {
        "isrc" : "FR6V81518227"
      },
      "external_urls" : {
        "spotify" : "https://open.spotify.com/track/449hxzsP9nog0awZRcidIq"
      },
      "href" : "https://api.spotify.com/v1/tracks/449hxzsP9nog0awZRcidIq",
      "id" : "449hxzsP9nog0awZRcidIq",
      "is_local" : false,
      "is_playable" : true,
      "name" : "As With Gladness, Men of Old / We Three Kings",
      "popularity" : 4,
      "preview_url" : "https://p.scdn.co/mp3-preview/0a1383e4d72b8772c1886bfbb27f64ed21a7b9c4?cid=774b29d4f13844c495f206cafdad9c86",
      "track_number" : 4,
      "type" : "track",
      "uri" : "spotify:track:449hxzsP9nog0awZRcidIq"
    }, {
      "album" : {
        "album_type" : "album",
        "artists" : [ {
          "external_urls" : {
            "spotify" : "https://open.spotify.com/artist/06um8wdbBpbr6AEIv63vm1"
          },
          "href" : "https://api.spotify.com/v1/artists/06um8wdbBpbr6AEIv63vm1",
          "id" : "06um8wdbBpbr6AEIv63vm1",
          "name" : "Kaleb Brasee",
          "type" : "artist",
          "uri" : "spotify:artist:06um8wdbBpbr6AEIv63vm1"
        } ],
        "external_urls" : {
          "spotify" : "https://open.spotify.com/album/3oOhuxZtssmRoU6x3sig4O"
        },
        "href" : "https://api.spotify.com/v1/albums/3oOhuxZtssmRoU6x3sig4O",
        "id" : "3oOhuxZtssmRoU6x3sig4O",
        "images" : [ {
          "height" : 640,
          "url" : "https://i.scdn.co/image/ab67616d0000b27381d52277907bed6e53430c9f",
          "width" : 640
        }, {
          "height" : 300,
          "url" : "https://i.scdn.co/image/ab67616d00001e0281d52277907bed6e53430c9f",
          "width" : 300
        }, {
          "height" : 64,
          "url" : "https://i.scdn.co/image/ab67616d0000485181d52277907bed6e53430c9f",
          "width" : 64
        } ],
        "name" : "Christmas Memories: Classic Christmas Songs on Piano",
        "release_date" : "2014-11-11",
        "release_date_precision" : "day",
        "total_tracks" : 12,
        "type" : "album",
        "uri" : "spotify:album:3oOhuxZtssmRoU6x3sig4O"
      },
      "artists" : [ {
        "external_urls" : {
          "spotify" : "https://open.spotify.com/artist/06um8wdbBpbr6AEIv63vm1"
        },
        "href" : "https://api.spotify.com/v1/artists/06um8wdbBpbr6AEIv63vm1",
        "id" : "06um8wdbBpbr6AEIv63vm1",
        "name" : "Kaleb Brasee",
        "type" : "artist",
        "uri" : "spotify:artist:06um8wdbBpbr6AEIv63vm1"
      } ],
      "disc_number" : 1,
      "duration_ms" : 245838,
      "explicit" : false,
      "external_ids" : {
        "isrc" : "UST8K1405331"
      },
      "external_urls" : {
        "spotify" : "https://open.spotify.com/track/3W8HbuLIooncUwPrFZPOfC"
      },
      "href" : "https://api.spotify.com/v1/tracks/3W8HbuLIooncUwPrFZPOfC",
      "id" : "3W8HbuLIooncUwPrFZPOfC",
      "is_local" : false,
      "is_playable" : true,
      "name" : "As With Gladness Men of Old",
      "popularity" : 4,
      "preview_url" : "https://p.scdn.co/mp3-preview/c11abadf5f468e69b21098978d29a62cd6ae1576?cid=774b29d4f13844c495f206cafdad9c86",
      "track_number" : 5,
      "type" : "track",
      "uri" : "spotify:track:3W8HbuLIooncUwPrFZPOfC"
    } ],
    "limit" : 10,
    "next" : "https://api.spotify.com/v1/search?query=As+With+Gladness+Men+of+Old&type=track&market=US&offset=15&limit=10",
    "offset" : 5,
    "previous" : "https://api.spotify.com/v1/search?query=As+With+Gladness+Men+of+Old&type=track&market=US&offset=0&limit=10",
    "total" : 318
  }
}