{
  "tracks" : {
    "href" : "https://api.spotify.com/v1/search?query=Holy+Spirit%2C+Light+Divine&type=track&market=US&offset=5&limit=10",
    "items" : [ {
      "album" : {
        "album_type" : "album",
        "artists" : [ {
          "external_urls" : {
            "spotify" : "https://open.spotify.com/artist/41N4x8ZUxk7JkHORj8M3bd"
          },
          "href" : "https://api.spotify.com/v1/artists/41N4x8ZUxk7JkHORj8M3bd",
          "id" : "41N4x8ZUxk7JkHORj8M3bd",
          "name" : "Concordia Publishing House",
          "type" : "artist",
          "uri" : "spotify:artist:41N4x8ZUxk7JkHORj8M3bd"
        } ],
        "external_urls" : {
          "spotify" : "https://open.spotify.com/album/06EPgyJ2jfgKBjVHcwihlP"
        },
        "href" : "https://api.spotify.com/v1/albums/06EPgyJ2jfgKBjVHcwihlP",
        "id" : "06EPgyJ2jfgKBjVHcwihlP",
        "images" : [ {
          "height" : 640,
          "url" : "https://i.scdn.co/image/ab67616d0000b27353a3f53ea52e9b6e35f771b0",
          "width" : 640
        }, {
          "height" : 300,
          "url" : "https://i.scdn.co/image/ab67616d00001e0253a3f53ea52e9b6e35f771b0",
          "width" : 300
        }, {
          "height" : 64,
          "url" : "https://i.scdn.co/image/ab67616d0000485153a3f53ea52e9b6e35f771b0",
          "width" : 64
        } ],
        "name" : "My First Hymnal-Lent, Easter, Pentecost, Holy Trinity",
        "release_date" : "2012-08-21",
        "release_date_precision" : "day",
        "total_tracks" : 26,
        "type" : "album",
        "uri" : "spotify:album:06EPgyJ2jfgKBjVHcwihlP"
      },
      "artists" : [ {
        "external_urls" : {
          "spotify" : "https://open.spotify.com/artist/41N4x8ZUxk7JkHORj8M3bd"
        },
        "href" : "https://api.spotify.com/v1/artists/41N4x8ZUxk7JkHORj8M3bd",
        "id" : "41N4x8ZUxk7JkHORj8M3bd",
        "name" : "Concordia Publishing House",
        "type" : "artist",
        "uri" : "spotify:artist:41N4x8ZUxk7JkHORj8M3bd"
      } ],
      "disc_number" : 1,
      "duration_ms" : 107833,
      "explicit" : false,
      "external_ids" : {
        "isrc" : "US3DF1211098"
      },
      "external_urls" : {
        "spotify" : "https://open.spotify.com/track/6FQAggC3BYxk5tYa2WgCDa"
      },
      "href" : "https://api.spotify.com/v1/tracks/6FQAggC3BYxk5tYa2WgCDa",
      "id" : "6FQAggC3BYxk5tYa2WgCDa",
      "is_local" : false,
      "is_playable" : true,
      "name" : "Holy Spirit, Light Divine",
      "popularity" : 1,
      "preview_url" : "https://p.scdn.co/mp3-preview/4bedb9186bf50939a143048fc009a0636e6c8725?cid=774b29d4f13844c495f206cafdad9c86",
      "track_number" : 21,
      "type" : "track",
      "uri" : "spotify:track:6FQAggC3BYxk5tYa2WgCDa"
    }, {
      "album" : {
        "album_type" : "album",
        "artists" : [ {
          "external_urls" : {
            "spotify" : "https://open.spotify.com/artist/3KiSt5OLHTxicq05HMbNnx"
          },
          "href" : "https://api.spotify.com/v1/artists/3KiSt5OLHTxicq05HMbNnx",
          "id" : "3KiSt5OLHTxicq05HMbNnx",
          "name" : "Roots Worship Collective",
          "type" : "artist",
          "uri" : "spotify:artist:3KiSt5OLHTxicq05HMbNnx"
        } ],
        "external_urls" : {
          "spotify" : "https://open.spotify.com/album/4dZuYmXnCvY2NhMpJMY2sB"
        },
        "href" : "https://api.spotify.com/v1/albums/4dZuYmXnCvY2NhMpJMY2sB",
        "id" : "4dZuYmXnCvY2NhMpJMY2sB",
        "images" : [ {
          "height" : 640,
          "url" : "https://i.scdn.co/image/ab67616d0000b27394af3f6af1c84aabdb8ba3f1",
          "width" : 640
        }, {
          "height" : 300,
          "url" : "https://i.scdn.co/image/ab67616d00001e0294af3f6af1c84aabdb8ba3f1",
          "width" : 300
        }, {
          "height" : 64,
          "url" : "https://i.scdn.co/image/ab67616d0000485194af3f6af1c84aabdb8ba3f1",
          "width" : 64
        } ],
        "name" : "Chicago Chapter",
        "release_date" : "2018-03-15",
        "release_date_precision" : "day",
        "total_tracks" : 12,
        "type" : "album",
        "uri" : "spotify:album:4dZuYmXnCvY2NhMpJMY2sB"
      },
      "artists" : [ {
        "external_urls" : {
          "spotify" : "https://open.spotify.com/artist/3KiSt5OLHTxicq05HMbNnx"
        },
        "href" : "https://api.spotify.com/v1/artists/3KiSt5OLHTxicq05HMbNnx",
        "id" : "3KiSt5OLHTxicq05HMbNnx",
        "name" : "Roots Worship Collective",
        "type" : "artist",
        "uri" : "spotify:artist:3KiSt5OLHTxicq05HMbNnx"
      } ],
      "disc_number" : 1,
      "duration_ms" : 188112,
      "explicit" : false,
      "external_ids" : {
        "isrc" : "QZBRF1873577"
      },
      "external_urls" : {
        "spotify" : "https://open.spotify.com/track/1mYADpGGXPGnBsu5zHd8e5"
      },
      "href" : "https://api.spotify.com/v1/tracks/1mYADpGGXPGnBsu5zHd8e5",
      "id" : "1mYADpGGXPGnBsu5zHd8e5",
      "is_local" : false,
      "is_playable" : true,
      "name" : "Holy Spirit Light Divine",
      "popularity" : 1,
      "preview_url" : "https://p.scdn.co/mp3-preview/1ddfa5b517d84d5da06dfa5880923f58d82137a2?cid=774b29d4f13844c495f206cafdad9c86",
      "track_number" : 2,
      "type" : "track",
      "uri" : "spotify:track:1mYADpGGXPGnBsu5zHd8e5"
    }, {
      "album" : {
        "album_type" : "album",
        "artists" : [ {
          "external_urls" : {
            "spotify" : "https://open.spotify.com/artist/5O2jDrnXblIKXjvSp6Sogr"
          },
          "href" : "https://api.spotify.com/v1/artists/5O2jDrnXblIKXjvSp6Sogr",
          "id" : "5O2jDrnXblIKXjvSp6Sogr",
          "name" : "Jennifer McMullen",
          "type" : "artist",
          "uri" : "spotify:artist:5O2jDrnXblIKXjvSp6Sogr"
        } ],
        "external_urls" : {
          "spotify" : "https://open.spotify.com/album/3abvAs7iLQvWW09GYHFOY2"
        },
        "href" : "https://api.spotify.com/v1/albums/3abvAs7iLQvWW09GYHFOY2",
        "id" : "3abvAs7iLQvWW09GYHFOY2",
        "images" : [ {
          "height" : 640,
          "url" : "https://i.scdn.co/image/ab67616d0000b273509841fa8057d1ffb6cb0961",
          "width" : 640
        }, {
          "height" : 300,
          "url" : "https://i.scdn.co/image/ab67616d00001e02509841fa8057d1ffb6cb0961",
          "width" : 300
        }, {
          "height" : 64,
          "url" : "https://i.scdn.co/image/ab67616d00004851509841fa8057d1ffb6cb0961",
          "width" : 64
        } ],
        "name" : "God from A to Z",
        "release_date" : "2017-04-05",
        "release_date_precision" : "day",
        "total_tracks" : 26,
        "type" : "album",
        "uri" : "spotify:album:3abvAs7iLQvWW09GYHFOY2"
      },
      "artists" : [ {
        "external_urls" : {
          "spotify" : "https://open.spotify.com/artist/5O2jDrnXblIKXjvSp6Sogr"
        },
        "href" : "https://api.spotify.com/v1/artists/5O2jDrnXblIKXjvSp6Sogr",
        "id" : "5O2jDrnXblIKXjvSp6Sogr",
        "name" : "Jennifer McMullen",
        "type" : "artist",
        "uri" : "spotify:artist:5O2jDrnXblIKXjvSp6Sogr"
      } ],
      "disc_number" : 1,
      "duration_ms" : 73373,
      "explicit" : false,
      "external_ids" : {
        "isrc" : "QM9A91673087"
      },
      "external_urls" : {
        "spotify" : "https://open.spotify.com/track/2Ab7vCTx2HrhfKEjjBD3AE"
      },
      "href" : "https://api.spotify.com/v1/tracks/2Ab7vCTx2HrhfKEjjBD3AE",
      "id" : "2Ab7vCTx2HrhfKEjjBD3AE",
      "is_local" : false,
      "is_playable" : true,
      "name" : "Holy Spirit, Light Divine",
      "popularity" : 0,
      "preview_url" : "https://p.scdn.co/mp3-preview/849b2273621ada67d04735bd2abb43df65634dd8?cid=774b29d4f13844c495f206cafdad9c86",
      "track_number" : 19,
      "type" : "track",
      "uri" : "spotify:track:2Ab7vCTx2HrhfKEjjBD3AE"
    }, {
      "album" : {
        "album_type" : "album",
        "artists" : [ {
          "external_urls" : {
            "spotify" : "https://open.spotify.com/artist/4ivsuE83leJT3eM2uI3P0p"
          },
          "href" : "https://api.spotify.com/v1/artists/4ivsuE83leJT3eM2uI3P0p",
          "id" : "4ivsuE83leJT3eM2uI3P0p",
          "name" : "Maurice Horne",
          "type" : "artist",
          "uri" : "spotify:artist:4ivsuE83leJT3eM2uI3P0p"
        } ],
        "external_urls" : {
          "spotify" : "https://open.spotify.com/album/6SyDh9mGUqZsZkPqdwMT0w"
        },
        "href" : "https://api.spotify.com/v1/albums/6SyDh9mGUqZsZkPqdwMT0w",
        "id" : "6SyDh9mGUqZsZkPqdwMT0w",
        "images" : [ {
          "height" : 640,
          "url" : "https://i.scdn.co/image/ab67616d0000b273f41264b49eb0e460804dc33d",
          "width" : 640
        }, {
          "height" : 300,
          "url" : "https://i.scdn.co/image/ab67616d00001e02f41264b49eb0e460804dc33d",
          "width" : 300
        }, {
          "height" : 64,
          "url" : "https://i.scdn.co/image/ab67616d00004851f41264b49eb0e460804dc33d",
          "width" : 64
        } ],
        "name" : "The Music Of Angels: 20 Traditional Hymns",
        "release_date" : "2004-04-24",
        "release_date_precision" : "day",
        "total_tracks" : 21,
        "type" : "album",
        "uri" : "spotify:album:6SyDh9mGUqZsZkPqdwMT0w"
      },
      "artists" : [ {
        "external_urls" : {
          "spotify" : "https://open.spotify.com/artist/4ivsuE83leJT3eM2uI3P0p"
        },
        "href" : "https://api.spotify.com/v1/artists/4ivsuE83leJT3eM2uI3P0p",
        "id" : "4ivsuE83leJT3eM2uI3P0p",
        "name" : "Maurice Horne",
        "type" : "artist",
        "uri" : "spotify:artist:4ivsuE83leJT3eM2uI3P0p"
      } ],
      "disc_number" : 1,
      "duration_ms" : 81266,
      "explicit" : false,
      "external_ids" : {
        "isrc" : "ushm80404549"
      },
      "external_urls" : {
        "spotify" : "https://open.spotify.com/track/5jEXax8Ca0TlEKBUwzStfu"
      },
      "href" : "https://api.spotify.com/v1/tracks/5jEXax8Ca0TlEKBUwzStfu",
      "id" : "5jEXax8Ca0TlEKBUwzStfu",
      "is_local" : false,
      "is_playable" : true,
      "name" : "Holy Spirit, Light Divine",
      "popularity" : 1,
      "preview_url" : "https://p.scdn.co/mp3-preview/c90d3c299ef9d5ef69930fbce07bfc58c11fc57e?cid=774b29d4f13844c495f206cafdad9c86",
      "track_number" : 5,
      "type" : "track",
      "uri" : "spotify:track:5jEXax8Ca0TlEKBUwzStfu"
    }, {
      "album" : {
        "album_type" : "album",
        "artists" : [ {
          "external_urls" : {
            "spotify" : "https://open.spotify.com/artist/5zN0p884rqUfd0fG3LtVGc"
          },
          "href" : "https://api.spotify.com/v1/artists/5zN0p884rqUfd0fG3LtVGc",
          "id" : "5zN0p884rqUfd0fG3LtVGc",
          "name" : "Cardiphonia Music",
          "type" : "artist",
          "uri" : "spotify:artist:5zN0p884rqUfd0fG3LtVGc"
        } ],
        "external_urls" : {
          "spotify" : "https://open.spotify.com/album/3QmPSVx6KGkthV8cY68yzZ"
        },
        "href" : "https://api.spotify.com/v1/albums/3QmPSVx6KGkthV8cY68yzZ",
        "id" : "3QmPSVx6KGkthV8cY68yzZ",
        "images" : [ {
          "height" : 640,
          "url" : "https://i.scdn.co/image/ab67616d0000b273a267b087ddd5fdf9c4036b9a",
          "width" : 640
        }, {
          "height" : 300,
          "url" : "https://i.scdn.co/image/ab67616d00001e02a267b087ddd5fdf9c4036b9a",
          "width" : 300
        }, {
          "height" : 64,
          "url" : "https://i.scdn.co/image/ab67616d00004851a267b087ddd5fdf9c4036b9a",
          "width" : 64
        } ],
        "name" : "Pentecost Songs",
        "release_date" : "2011-06-07",
        "release_date_precision" : "day",
        "total_tracks" : 22,
        "type" : "album",
        "uri" : "spotify:album:3QmPSVx6KGkthV8cY68yzZ"
      },
      "artists" : [ {
        "external_urls" : {
          "spotify" : "https://open.spotify.com/artist/5zN0p884rqUfd0fG3LtVGc"
        },
        "href" : "https://api.spotify.com/v1/artists/5zN0p884rqUfd0fG3LtVGc",
        "id" : "5zN0p884rqUfd0fG3LtVGc",
        "name" : "Cardiphonia Music",
        "type" : "artist",
        "uri" : "spotify:artist:5zN0p884rqUfd0fG3LtVGc"
      }, {
        "external_urls" : {
          "spotify" : "https://open.spotify.com/artist/7uAPuIIBPwuc7svUv5rNzi"
        },
        "href" : "https://api.spotify.com/v1/artists/7uAPuIIBPwuc7svUv5rNzi",
        "id" : "7uAPuIIBPwuc7svUv5rNzi",
        "name" : "Anne-Marie Strohman",
        "type" : "artist",
        "uri" : "spotify:artist:7uAPuIIBPwuc7svUv5rNzi"
      } ],
      "disc_number" : 1,
      "duration_ms" : 208037,
      "explicit" : false,
      "external_ids" : {
        "isrc" : "QZB4J1879604"
      },
      "external_urls" : {
        "spotify" : "https://open.spotify.com/track/4fb3D1DNQsM2fvQK4wRoM4"
      },
      "href" : "https://api.spotify.com/v1/tracks/4fb3D1DNQsM2fvQK4wRoM4",
      "id" : "4fb3D1DNQsM2fvQK4wRoM4",
      "is_local" : false,
      "is_playable" : true,
      "name" : "Holy Spirit, Light Divine",
      "popularity" : 1,
      "preview_url" : "https://p.scdn.co/mp3-preview/26332d7d8c09f793a420b2a6db8b1a423b9bb3c3?cid=774b29d4f13844c495f206cafdad9c86",
      "track_number" : 11,
      "type" : "track",
      "uri" : "spotify:track:4fb3D1DNQsM2fvQK4wRoM4"
    }, {
      "album" : {
        "album_type" : "album",
        "artists" : [ {
          "external_urls" : {
            "spotify" : "https://open.spotify.com/artist/41N4x8ZUxk7JkHORj8M3bd"
          },
          "href" : "https://api.spotify.com/v1/artists/41N4x8ZUxk7JkHORj8M3bd",
          "id" : "41N4x8ZUxk7JkHORj8M3bd",
          "name" : "Concordia Publishing House",
          "type" : "artist",
          "uri" : "spotify:artist:41N4x8ZUxk7JkHORj8M3bd"
        } ],
        "external_urls" : {
          "spotify" : "https://open.spotify.com/album/06EPgyJ2jfgKBjVHcwihlP"
        },
        "href" : "https://api.spotify.com/v1/albums/06EPgyJ2jfgKBjVHcwihlP",
        "id" : "06EPgyJ2jfgKBjVHcwihlP",
        "images" : [ {
          "height" : 640,
          "url" : "https://i.scdn.co/image/ab67616d0000b27353a3f53ea52e9b6e35f771b0",
          "width" : 640
        }, {
          "height" : 300,
          "url" : "https://i.scdn.co/image/ab67616d00001e0253a3f53ea52e9b6e35f771b0",
          "width" : 300
        }, {
          "height" : 64,
          "url" : "https://i.scdn.co/image/ab67616d0000485153a3f53ea52e9b6e35f771b0",
          "width" : 64
        } ],
        "name" : "My First Hymnal-Lent, Easter, Pentecost, Holy Trinity",
        "release_date" : "2012-08-21",
        "release_date_precision" : "day",
        "total_tracks" : 26,
        "type" : "album",
        "uri" : "spotify:album:06EPgyJ2jfgKBjVHcwihlP"
      },
      "artists" : [ {
        "external_urls" : {
          "spotify" : "https://open.spotify.com/artist/41N4x8ZUxk7JkHORj8M3bd"
        },
        "href" : "https://api.spotify.com/v1/artists/41N4x8ZUxk7JkHORj8M3bd",
        "id" : "41N4x8ZUxk7JkHORj8M3bd",
        "name" : "Concordia Publishing House",
        "type" : "artist",
        "uri" : "spotify:artist:41N4x8ZUxk7JkHORj8M3bd"
      } ],
      "disc_number" : 1,
      "duration_ms" : 107833,
      "explicit" : false,
      "external_ids" : {
        "isrc" : "US3DF1211099"
      },
      "external_urls" : {
        "spotify" : "https://open.spotify.com/track/4cENEQtjBxK9kLEN96ezOp"
      },
      "href" : "https://api.spotify.com/v1/tracks/4cENEQtjBxK9kLEN96ezOp",
      "id" : "4cENEQtjBxK9kLEN96ezOp",
      "is_local" : false,
      "is_playable" : true,
      "name" : "Holy Spirit, Light Divine (Acc)",
      "popularity" : 1,
      "preview_url" : "https://p.scdn.co/mp3-preview/5d60068d56191f6de958b3eca398dbccab92cc75?cid=774b29d4f13844c495f206cafdad9c86",
      "track_number" : 22,
      "type" : "track",
      "uri" : "spotify:track:4cENEQtjBxK9kLEN96ezOp"
    }, {
      "album" : {
        "album_type" : "album",
        "artists" : [ {
          "external_urls" : {
            "spotify" : "https://open.spotify.com/artist/41N4x8ZUxk7JkHORj8M3bd"
          },
          "href" : "https://api.spotify.com/v1/artists/41N4x8ZUxk7JkHORj8M3bd",
          "id" : "41N4x8ZUxk7JkHORj8M3bd",
          "name" : "Concordia Publishing House",
          "type" : "artist",
          "uri" : "spotify:artist:41N4x8ZUxk7JkHORj8M3bd"
        } ],
        "external_urls" : {
          "spotify" : "https://open.spotify.com/album/5MnRzAa4v2KYqDq2UVWxeq"
        },
        "href" : "https://api.spotify.com/v1/albums/5MnRzAa4v2KYqDq2UVWxeq",
        "id" : "5MnRzAa4v2KYqDq2UVWxeq",
        "images" : [ {
          "height" : 640,
          "url" : "https://i.scdn.co/image/ab67616d0000b2738db5dca54dccf5864050bc10",
          "width" : 640
        }, {
          "height" : 300,
          "url" : "https://i.scdn.co/image/ab67616d00001e028db5dca54dccf5864050bc10",
          "width" : 300
        }, {
          "height" : 64,
          "url" : "https://i.scdn.co/image/ab67616d000048518db5dca54dccf5864050bc10",
          "width" : 64
        } ],
        "name" : "One in Christ: Hymns of the Season",
        "release_date" : "2011-08-10",
        "release_date_precision" : "day",
        "total_tracks" : 120,
        "type" : "album",
        "uri" : "spotify:album:5MnRzAa4v2KYqDq2UVWxeq"
      },
      "artists" : [ {
        "external_urls" : {
          "spotify" : "https://open.spotify.com/artist/41N4x8ZUxk7JkHORj8M3bd"
        },
        "href" : "https://api.spotify.com/v1/artists/41N4x8ZUxk7JkHORj8M3bd",
        "id" : "41N4x8ZUxk7JkHORj8M3bd",
        "name" : "Concordia Publishing House",
        "type" : "artist",
        "uri" : "spotify:artist:41N4x8ZUxk7JkHORj8M3bd"
      } ],
      "disc_number" : 10,
      "duration_ms" : 109840,
      "explicit" : false,
      "external_ids" : {
        "isrc" : "US3DF1108995"
      },
      "external_urls" : {
        "spotify" : "https://open.spotify.com/track/1a2zkU8Za7aA86LfM6ohzy"
      },
      "href" : "https://api.spotify.com/v1/tracks/1a2zkU8Za7aA86LfM6ohzy",
      "id" : "1a2zkU8Za7aA86LfM6ohzy",
      "is_local" : false,
      "is_playable" : true,
      "name" : "Gr. 3 - Holy Spirit, Light Divine",
      "popularity" : 0,
      "preview_url" : "https://p.scdn.co/mp3-preview/d24502335165ef840090bf57bdfae7e6a27edef1?cid=774b29d4f13844c495f206cafdad9c86",
      "track_number" : 1,
      "type" : "track",
      "uri" : "spotify:track:1a2zkU8Za7aA86LfM6ohzy"
    }, {
      "album" : {
        "album_type" : "album",
        "artists" : [ {
          "external_urls" : {
            "spotify" : "https://open.spotify.com/artist/41N4x8ZUxk7JkHORj8M3bd"
          },
          "href" : "https://api.spotify.com/v1/artists/41N4x8ZUxk7JkHORj8M3bd",
          "id" : "41N4x8ZUxk7JkHORj8M3bd",
          "name" : "Concordia Publishing House",
          "type" : "artist",
          "uri" : "spotify:artist:41N4x8ZUxk7JkHORj8M3bd"
        } ],
        "external_urls" : {
          "spotify" : "https://open.spotify.com/album/5MnRzAa4v2KYqDq2UVWxeq"
        },
        "href" : "https://api.spotify.com/v1/albums/5MnRzAa4v2KYqDq2UVWxeq",
        "id" : "5MnRzAa4v2KYqDq2UVWxeq",
        "images" : [ {
          "height" : 640,
          "url" : "https://i.scdn.co/image/ab67616d0000b2738db5dca54dccf5864050bc10",
          "width" : 640
        }, {
          "height" : 300,
          "url" : "https://i.scdn.co/image/ab67616d00001e028db5dca54dccf5864050bc10",
          "width" : 300
        }, {
          "height" : 64,
          "url" : "https://i.scdn.co/image/ab67616d000048518db5dca54dccf5864050bc10",
          "width" : 64
        } ],
        "name" : "One in Christ: Hymns of the Season",
        "release_date" : "2011-08-10",
        "release_date_precision" : "day",
        "total_tracks" : 120,
        "type" : "album",
        "uri" : "spotify:album:5MnRzAa4v2KYqDq2UVWxeq"
      },
      "artists" : [ {
        "external_urls" : {
          "spotify" : "https://open.spotify.com/artist/41N4x8ZUxk7JkHORj8M3bd"
        },
        "href" : "https://api.spotify.com/v1/artists/41N4x8ZUxk7JkHORj8M3bd",
        "id" : "41N4x8ZUxk7JkHORj8M3bd",
        "name" : "Concordia Publishing House",
        "type" : "artist",
        "uri" : "spotify:artist:41N4x8ZUxk7JkHORj8M3bd"
      } ],
      "disc_number" : 10,
      "duration_ms" : 109840,
      "explicit" : false,
      "external_ids" : {
        "isrc" : "US3DF1109001"
      },
      "external_urls" : {
        "spotify" : "https://open.spotify.com/track/5xBcn3pveCdgVyiD2SoNEC"
      },
      "href" : "https://api.spotify.com/v1/tracks/5xBcn3pveCdgVyiD2SoNEC",
      "id" : "5xBcn3pveCdgVyiD2SoNEC",
      "is_local" : false,
      "is_playable" : true,
      "name" : "Gr. 3 - Holy Spirit, Light Divine (Accompaniment Only)",
      "popularity" : 0,
      "preview_url" : "https://p.scdn.co/mp3-preview/1492c8be333a0c9ec89e25154bcea9c801e09186?cid=774b29d4f13844c495f206cafdad9c86",
      "track_number" : 7,
      "type" : "track",
      "uri" : "spotify:track:5xBcn3pveCdgVyiD2SoNEC"
    }, {
      "album" : {
        "album_type" : "album",
        "artists" : [ {
          "external_urls" : {
            "spotify" : "https://open.spotify.com/artist/3qkAN3rtcVKh6x9t11K6Se"
          },
          "href" : "https://api.spotify.com/v1/artists/3qkAN3rtcVKh6x9t11K6Se",
          "id" : "3qkAN3rtcVKh6x9t11K6Se",
          "name" : "David Phillips His Majesty's Musicians",
          "type" : "artist",
          "uri" : "spotify:artist:3qkAN3rtcVKh6x9t11K6Se"
        } ],
        "external_urls" : {
          "spotify" : "https://open.spotify.com/album/52Ge47DZdQqRfFH2KqmWRG"
        },
        "href" : "https://api.spotify.com/v1/albums/52Ge47DZdQqRfFH2KqmWRG",
        "id" : "52Ge47DZdQqRfFH2KqmWRG",
        "images" : [ {
          "height" : 640,
          "url" : "https://i.scdn.co/image/ab67616d0000b2732ad582106aa3d144bd798549",
          "width" : 640
        }, {
          "height" : 300,
          "url" : "https://i.scdn.co/image/ab67616d00001e022ad582106aa3d144bd798549",
          "width" : 300
        }, {
          "height" : 64,
          "url" : "https://i.scdn.co/image/ab67616d000048512ad582106aa3d144bd798549",
          "width" : 64
        } ],
        "name" : "O Love Divine",
        "release_date" : "2009-08-15",
        "release_date_precision" : "day",
        "total_tracks" : 12,
        "type" : "album",
        "uri" : "spotify:album:52Ge47DZdQqRfFH2KqmWRG"
      },
      "artists" : [ {
        "external_urls" : {
          "spotify" : "https://open.spotify.com/artist/3qkAN3rtcVKh6x9t11K6Se"
        },
        "href" : "https://api.spotify.com/v1/artists/3qkAN3rtcVKh6x9t11K6Se",
        "id" : "3qkAN3rtcVKh6x9t11K6Se",
        "name" : "David Phillips His Majesty's Musicians",
        "type" : "artist",
        "uri" : "spotify:artist:3qkAN3rtcVKh6x9t11K6Se"
      } ],
      "disc_number" : 1,
      "duration_ms" : 194653,
      "explicit" : false,
      "external_ids" : {
        "isrc" : "ushm80950183"
      },
      "external_urls" : {
        "spotify" : "https://open.spotify.com/track/2ariStv8sUeAX9qFaxqVcd"
      },
      "href" : "https://api.spotify.com/v1/tracks/2ariStv8sUeAX9qFaxqVcd",
      "id" : "2ariStv8sUeAX9qFaxqVcd",
      "is_local" : false,
      "is_playable" : true,
      "name" : "Holy Spirit, Lord of Light",
      "popularity" : 0,
      "preview_url" : "https://p.scdn.co/mp3-preview/885dbced0b723c7f5c6551065b8e1abe675bd2e0?cid=774b29d4f13844c495f206cafdad9c86",
      "track_number" : 9,
      "type" : "track",
      "uri" : "spotify:track:2ariStv8sUeAX9qFaxqVcd"
    }, {
      "album" : {
        "album_type" : "album",
        "artists" : [ {
          "external_urls" : {
            "spotify" : "https://open.spotify.com/artist/2JypO2e7kveCnqlR5ucP5b"
          },
          "href" : "https://api.spotify.com/v1/artists/2JypO2e7kveCnqlR5ucP5b",
          "id" : "2JypO2e7kveCnqlR5ucP5b",
          "name" : "Bible Study Music",
          "type" : "artist",
          "uri" : "spotify:artist:2JypO2e7kveCnqlR5ucP5b"
        }, {
          "external_urls" : {
            "spotify" : "https://open.spotify.com/artist/5rSvtbQxMVM7qM07T4Hpor"
          },
          "href" : "https://api.spotify.com/v1/artists/5rSvtbQxMVM7qM07T4Hpor",
          "id" : "5rSvtbQxMVM7qM07T4Hpor",
          "name" : "Spiritual Music Collection",
          "type" : "artist",
          "uri" : "spotify:artist:5rSvtbQxMVM7qM07T4Hpor"
        } ],
        "external_urls" : {
          "spotify" : "https://open.spotify.com/album/2bshOP1j4hCvpJYt2gto5G"
        },
        "href" : "https://api.spotify.com/v1/albums/2bshOP1j4hCvpJYt2gto5G",
        "id" : "2bshOP1j4hCvpJYt2gto5G",
        "images" : [ {
          "height" : 640,
          "url" : "https://i.scdn.co/image/ab67616d0000b27322b3261b4b307e031f92012c",
          "width" : 640
        }, {
          "height" : 300,
          "url" : "https://i.scdn.co/image/ab67616d00001e0222b3261b4b307e031f92012c",
          "width" : 300
        }, {
          "height" : 64,
          "url" : "https://i.scdn.co/image/ab67616d0000485122b3261b4b307e031f92012c",
          "width" : 64
        } ],
        "name" : "Deep Prayer: Christian Praise - Meditation, Good Morning Holy Spirit, Morning Devotional Music",
        "release_date" : "2018-10-23",
        "release_date_precision" : "day",
        "total_tracks" : 30,
        "type" : "album",
        "uri" : "spotify:album:2bshOP1j4hCvpJYt2gto5G"
      },
      "artists" : [ {
        "external_urls" : {
          "spotify" : "https://open.spotify.com/artist/5rSvtbQxMVM7qM07T4Hpor"
        },
        "href" : "https://api.spotify.com/v1/artists/5rSvtbQxMVM7qM07T4Hpor",
        "id" : "5rSvtbQxMVM7qM07T4Hpor",
        "name" : "Spiritual Music Collection",
        "type" : "artist",
        "uri" : "spotify:artist:5rSvtbQxMVM7qM07T4Hpor"
      } ],
      "disc_number" : 1,
      "duration_ms" : 217176,
      "explicit" : false,
      "external_ids" : {
        "isrc" : "UKR4Q1806826"
      },
      "external_urls" : {
        "spotify" : "https://open.spotify.com/track/0iWXgeuK0KsSNEzshFZZsh"
      },
      "href" : "https://api.spotify.com/v1/tracks/0iWXgeuK0KsSNEzshFZZsh",
      "id" : "0iWXgeuK0KsSNEzshFZZsh",
      "is_local" : false,
      "is_playable" : true,
      "name" : "Divine Light",
      "popularity" : 2,
      "preview_url" : "https://p.scdn.co/mp3-preview/7164d50e808f3a8d1e5907d902456595f4305666?cid=774b29d4f13844c495f206cafdad9c86",
      "track_number" : 16,
      "type" : "track",
      "uri" : "spotify:track:0iWXgeuK0KsSNEzshFZZsh"
    } ],
    "limit" : 10,
    "next" : "https://api.spotify.com/v1/search?query=Holy+Spirit%2C+Light+Divine&type=track&market=US&offset=15&limit=10",
    "offset" : 5,
    "previous" : "https://api.spotify.com/v1/search?query=Holy+Spirit%2C+Light+Divine&type=track&market=US&offset=0&limit=10",
    "total" : 19
  }
}