{
  "tracks" : {
    "href" : "https://api.spotify.com/v1/search?query=Our+Father%2C+by+Whose+Name&type=track&market=US&offset=5&limit=10",
    "items" : [ {
      "album" : {
        "album_type" : "album",
        "artists" : [ {
          "external_urls" : {
            "spotify" : "https://open.spotify.com/artist/15WWcNQdZWCY1AAVPbZ6Hi"
          },
          "href" : "https://api.spotify.com/v1/artists/15WWcNQdZWCY1AAVPbZ6Hi",
          "id" : "15WWcNQdZWCY1AAVPbZ6Hi",
          "name" : "Utah Hymnal Association",
          "type" : "artist",
          "uri" : "spotify:artist:15WWcNQdZWCY1AAVPbZ6Hi"
        } ],
        "external_urls" : {
          "spotify" : "https://open.spotify.com/album/6AtfT6OIzaPjKDOrbWrYn9"
        },
        "href" : "https://api.spotify.com/v1/albums/6AtfT6OIzaPjKDOrbWrYn9",
        "id" : "6AtfT6OIzaPjKDOrbWrYn9",
        "images" : [ {
          "height" : 640,
          "url" : "https://i.scdn.co/image/ab67616d0000b273bdd7075358c663a951026755",
          "width" : 640
        }, {
          "height" : 300,
          "url" : "https://i.scdn.co/image/ab67616d00001e02bdd7075358c663a951026755",
          "width" : 300
        }, {
          "height" : 64,
          "url" : "https://i.scdn.co/image/ab67616d00004851bdd7075358c663a951026755",
          "width" : 64
        } ],
        "name" : "Father, Cheer Our Souls Tonight",
        "release_date" : "2016-03-01",
        "release_date_precision" : "day",
        "total_tracks" : 10,
        "type" : "album",
        "uri" : "spotify:album:6AtfT6OIzaPjKDOrbWrYn9"
      },
      "artists" : [ {
        "external_urls" : {
          "spotify" : "https://open.spotify.com/artist/15WWcNQdZWCY1AAVPbZ6Hi"
        },
        "href" : "https://api.spotify.com/v1/artists/15WWcNQdZWCY1AAVPbZ6Hi",
        "id" : "15WWcNQdZWCY1AAVPbZ6Hi",
        "name" : "Utah Hymnal Association",
        "type" : "artist",
        "uri" : "spotify:artist:15WWcNQdZWCY1AAVPbZ6Hi"
      } ],
      "disc_number" : 1,
      "duration_ms" : 49257,
      "explicit" : false,
      "external_ids" : {
        "isrc" : "TCJPE1643937"
      },
      "external_urls" : {
        "spotify" : "https://open.spotify.com/track/0XgTA7naPCwgVroNflYdo0"
      },
      "href" : "https://api.spotify.com/v1/tracks/0XgTA7naPCwgVroNflYdo0",
      "id" : "0XgTA7naPCwgVroNflYdo0",
      "is_local" : false,
      "is_playable" : true,
      "name" : "Our Father, by Whose Name",
      "popularity" : 0,
      "preview_url" : "https://p.scdn.co/mp3-preview/6006321fe899e02f20c02febf5ebc1985a438a92?cid=774b29d4f13844c495f206cafdad9c86",
      "track_number" : 8,
      "type" : "track",
      "uri" : "spotify:track:0XgTA7naPCwgVroNflYdo0"
    }, {
      "album" : {
        "album_type" : "compilation",
        "artists" : [ {
          "external_urls" : {
            "spotify" : "https://open.spotify.com/artist/0LyfQWJT6nXafLPZqxe9Of"
          },
          "href" : "https://api.spotify.com/v1/artists/0LyfQWJT6nXafLPZqxe9Of",
          "id" : "0LyfQWJT6nXafLPZqxe9Of",
          "name" : "Various Artists",
          "type" : "artist",
          "uri" : "spotify:artist:0LyfQWJT6nXafLPZqxe9Of"
        } ],
        "external_urls" : {
          "spotify" : "https://open.spotify.com/album/48BmErxFX9cYIyg3ajCGwh"
        },
        "href" : "https://api.spotify.com/v1/albums/48BmErxFX9cYIyg3ajCGwh",
        "id" : "48BmErxFX9cYIyg3ajCGwh",
        "images" : [ {
          "height" : 640,
          "url" : "https://i.scdn.co/image/ab67616d0000b273911b148040fe339b9f994e25",
          "width" : 640
        }, {
          "height" : 300,
          "url" : "https://i.scdn.co/image/ab67616d00001e02911b148040fe339b9f994e25",
          "width" : 300
        }, {
          "height" : 64,
          "url" : "https://i.scdn.co/image/ab67616d00004851911b148040fe339b9f994e25",
          "width" : 64
        } ],
        "name" : "Songs for Sunday Worship",
        "release_date" : "2013-08-05",
        "release_date_precision" : "day",
        "total_tracks" : 75,
        "type" : "album",
        "uri" : "spotify:album:48BmErxFX9cYIyg3ajCGwh"
      },
      "artists" : [ {
        "external_urls" : {
          "spotify" : "https://open.spotify.com/artist/2Z9cPQMzK4bbDI4FHiGmNi"
        },
        "href" : "https://api.spotify.com/v1/artists/2Z9cPQMzK4bbDI4FHiGmNi",
        "id" : "2Z9cPQMzK4bbDI4FHiGmNi",
        "name" : "The Festival Choir",
        "type" : "artist",
        "uri" : "spotify:artist:2Z9cPQMzK4bbDI4FHiGmNi"
      }, {
        "external_urls" : {
          "spotify" : "https://open.spotify.com/artist/4n377ubUwL2wvarbWxzUmS"
        },
        "href" : "https://api.spotify.com/v1/artists/4n377ubUwL2wvarbWxzUmS",
        "id" : "4n377ubUwL2wvarbWxzUmS",
        "name" : "Hosanna Chorus",
        "type" : "artist",
        "uri" : "spotify:artist:4n377ubUwL2wvarbWxzUmS"
      } ],
      "disc_number" : 1,
      "duration_ms" : 112786,
      "explicit" : false,
      "external_ids" : {
        "isrc" : "CAM460700928"
      },
      "external_urls" : {
        "spotify" : "https://open.spotify.com/track/2383pdkk5dLI4b9lh4Q7G7"
      },
      "href" : "https://api.spotify.com/v1/tracks/2383pdkk5dLI4b9lh4Q7G7",
      "id" : "2383pdkk5dLI4b9lh4Q7G7",
      "is_local" : false,
      "is_playable" : true,
      "name" : "Our Father, By Whose Name",
      "popularity" : 0,
      "preview_url" : "https://p.scdn.co/mp3-preview/44da9792baccc6b09490f249cb211d9a42a7cebb?cid=774b29d4f13844c495f206cafdad9c86",
      "track_number" : 26,
      "type" : "track",
      "uri" : "spotify:track:2383pdkk5dLI4b9lh4Q7G7"
    }, {
      "album" : {
        "album_type" : "album",
        "artists" : [ {
          "external_urls" : {
            "spotify" : "https://open.spotify.com/artist/3gSOxxHbfAIWPjAyr0EsO7"
          },
          "href" : "https://api.spotify.com/v1/artists/3gSOxxHbfAIWPjAyr0EsO7",
          "id" : "3gSOxxHbfAIWPjAyr0EsO7",
          "name" : "Saltlake Hymnal Association",
          "type" : "artist",
          "uri" : "spotify:artist:3gSOxxHbfAIWPjAyr0EsO7"
        } ],
        "external_urls" : {
          "spotify" : "https://open.spotify.com/album/7x1yA8JBo8aG0mjMkaY2IH"
        },
        "href" : "https://api.spotify.com/v1/albums/7x1yA8JBo8aG0mjMkaY2IH",
        "id" : "7x1yA8JBo8aG0mjMkaY2IH",
        "images" : [ {
          "height" : 640,
          "url" : "https://i.scdn.co/image/ab67616d0000b2732c0c61f68cab97ab78185fb5",
          "width" : 640
        }, {
          "height" : 300,
          "url" : "https://i.scdn.co/image/ab67616d00001e022c0c61f68cab97ab78185fb5",
          "width" : 300
        }, {
          "height" : 64,
          "url" : "https://i.scdn.co/image/ab67616d000048512c0c61f68cab97ab78185fb5",
          "width" : 64
        } ],
        "name" : "Quiet tender melodies for Christian II",
        "release_date" : "2016-03-01",
        "release_date_precision" : "day",
        "total_tracks" : 54,
        "type" : "album",
        "uri" : "spotify:album:7x1yA8JBo8aG0mjMkaY2IH"
      },
      "artists" : [ {
        "external_urls" : {
          "spotify" : "https://open.spotify.com/artist/3gSOxxHbfAIWPjAyr0EsO7"
        },
        "href" : "https://api.spotify.com/v1/artists/3gSOxxHbfAIWPjAyr0EsO7",
        "id" : "3gSOxxHbfAIWPjAyr0EsO7",
        "name" : "Saltlake Hymnal Association",
        "type" : "artist",
        "uri" : "spotify:artist:3gSOxxHbfAIWPjAyr0EsO7"
      } ],
      "disc_number" : 1,
      "duration_ms" : 32299,
      "explicit" : false,
      "external_ids" : {
        "isrc" : "TCJPE1644182"
      },
      "external_urls" : {
        "spotify" : "https://open.spotify.com/track/38g59a3yEjg7vouDlQwyNK"
      },
      "href" : "https://api.spotify.com/v1/tracks/38g59a3yEjg7vouDlQwyNK",
      "id" : "38g59a3yEjg7vouDlQwyNK",
      "is_local" : false,
      "is_playable" : true,
      "name" : "Our Father, by Whose Name",
      "popularity" : 0,
      "preview_url" : "https://p.scdn.co/mp3-preview/8d41f093b78b761ed5d610e5fcafd8ac74cbf851?cid=774b29d4f13844c495f206cafdad9c86",
      "track_number" : 40,
      "type" : "track",
      "uri" : "spotify:track:38g59a3yEjg7vouDlQwyNK"
    }, {
      "album" : {
        "album_type" : "album",
        "artists" : [ {
          "external_urls" : {
            "spotify" : "https://open.spotify.com/artist/15WWcNQdZWCY1AAVPbZ6Hi"
          },
          "href" : "https://api.spotify.com/v1/artists/15WWcNQdZWCY1AAVPbZ6Hi",
          "id" : "15WWcNQdZWCY1AAVPbZ6Hi",
          "name" : "Utah Hymnal Association",
          "type" : "artist",
          "uri" : "spotify:artist:15WWcNQdZWCY1AAVPbZ6Hi"
        } ],
        "external_urls" : {
          "spotify" : "https://open.spotify.com/album/00u99vWgbd4BKoWg1tqIIr"
        },
        "href" : "https://api.spotify.com/v1/albums/00u99vWgbd4BKoWg1tqIIr",
        "id" : "00u99vWgbd4BKoWg1tqIIr",
        "images" : [ {
          "height" : 640,
          "url" : "https://i.scdn.co/image/ab67616d0000b273b5f5a5e9bf6b7941489ef0ce",
          "width" : 640
        }, {
          "height" : 300,
          "url" : "https://i.scdn.co/image/ab67616d00001e02b5f5a5e9bf6b7941489ef0ce",
          "width" : 300
        }, {
          "height" : 64,
          "url" : "https://i.scdn.co/image/ab67616d00004851b5f5a5e9bf6b7941489ef0ce",
          "width" : 64
        } ],
        "name" : "Come, Let Us Anew",
        "release_date" : "2016-03-01",
        "release_date_precision" : "day",
        "total_tracks" : 16,
        "type" : "album",
        "uri" : "spotify:album:00u99vWgbd4BKoWg1tqIIr"
      },
      "artists" : [ {
        "external_urls" : {
          "spotify" : "https://open.spotify.com/artist/15WWcNQdZWCY1AAVPbZ6Hi"
        },
        "href" : "https://api.spotify.com/v1/artists/15WWcNQdZWCY1AAVPbZ6Hi",
        "id" : "15WWcNQdZWCY1AAVPbZ6Hi",
        "name" : "Utah Hymnal Association",
        "type" : "artist",
        "uri" : "spotify:artist:15WWcNQdZWCY1AAVPbZ6Hi"
      } ],
      "disc_number" : 1,
      "duration_ms" : 49357,
      "explicit" : false,
      "external_ids" : {
        "isrc" : "TCJPE1643955"
      },
      "external_urls" : {
        "spotify" : "https://open.spotify.com/track/7LeWVBp6yvupLMSibITGkV"
      },
      "href" : "https://api.spotify.com/v1/tracks/7LeWVBp6yvupLMSibITGkV",
      "id" : "7LeWVBp6yvupLMSibITGkV",
      "is_local" : false,
      "is_playable" : true,
      "name" : "Our Father, by Whose Name",
      "popularity" : 0,
      "preview_url" : "https://p.scdn.co/mp3-preview/06e09f8f9501e2b301c57eeed9a3c341c8def004?cid=774b29d4f13844c495f206cafdad9c86",
      "track_number" : 15,
      "type" : "track",
      "uri" : "spotify:track:7LeWVBp6yvupLMSibITGkV"
    }, {
      "album" : {
        "album_type" : "album",
        "artists" : [ {
          "external_urls" : {
            "spotify" : "https://open.spotify.com/artist/15WWcNQdZWCY1AAVPbZ6Hi"
          },
          "href" : "https://api.spotify.com/v1/artists/15WWcNQdZWCY1AAVPbZ6Hi",
          "id" : "15WWcNQdZWCY1AAVPbZ6Hi",
          "name" : "Utah Hymnal Association",
          "type" : "artist",
          "uri" : "spotify:artist:15WWcNQdZWCY1AAVPbZ6Hi"
        } ],
        "external_urls" : {
          "spotify" : "https://open.spotify.com/album/6IqWpdmDZZFsVwc9BEQlwX"
        },
        "href" : "https://api.spotify.com/v1/albums/6IqWpdmDZZFsVwc9BEQlwX",
        "id" : "6IqWpdmDZZFsVwc9BEQlwX",
        "images" : [ {
          "height" : 640,
          "url" : "https://i.scdn.co/image/ab67616d0000b2738e8cd8cb3e5b0326bc63e0b6",
          "width" : 640
        }, {
          "height" : 300,
          "url" : "https://i.scdn.co/image/ab67616d00001e028e8cd8cb3e5b0326bc63e0b6",
          "width" : 300
        }, {
          "height" : 64,
          "url" : "https://i.scdn.co/image/ab67616d000048518e8cd8cb3e5b0326bc63e0b6",
          "width" : 64
        } ],
        "name" : "O Thou Rock of Our Salvation",
        "release_date" : "2016-03-01",
        "release_date_precision" : "day",
        "total_tracks" : 15,
        "type" : "album",
        "uri" : "spotify:album:6IqWpdmDZZFsVwc9BEQlwX"
      },
      "artists" : [ {
        "external_urls" : {
          "spotify" : "https://open.spotify.com/artist/15WWcNQdZWCY1AAVPbZ6Hi"
        },
        "href" : "https://api.spotify.com/v1/artists/15WWcNQdZWCY1AAVPbZ6Hi",
        "id" : "15WWcNQdZWCY1AAVPbZ6Hi",
        "name" : "Utah Hymnal Association",
        "type" : "artist",
        "uri" : "spotify:artist:15WWcNQdZWCY1AAVPbZ6Hi"
      } ],
      "disc_number" : 1,
      "duration_ms" : 49057,
      "explicit" : false,
      "external_ids" : {
        "isrc" : "TCJPE1643760"
      },
      "external_urls" : {
        "spotify" : "https://open.spotify.com/track/4bhjX1xmgn2N8wiX8moOig"
      },
      "href" : "https://api.spotify.com/v1/tracks/4bhjX1xmgn2N8wiX8moOig",
      "id" : "4bhjX1xmgn2N8wiX8moOig",
      "is_local" : false,
      "is_playable" : true,
      "name" : "Our Father, by Whose Name",
      "popularity" : 0,
      "preview_url" : "https://p.scdn.co/mp3-preview/2c53e8ed50d4c7bf410a7db4a539ec9d4398c2f9?cid=774b29d4f13844c495f206cafdad9c86",
      "track_number" : 12,
      "type" : "track",
      "uri" : "spotify:track:4bhjX1xmgn2N8wiX8moOig"
    }, {
      "album" : {
        "album_type" : "album",
        "artists" : [ {
          "external_urls" : {
            "spotify" : "https://open.spotify.com/artist/1sLpCr5xThZkGHLw4H0mNE"
          },
          "href" : "https://api.spotify.com/v1/artists/1sLpCr5xThZkGHLw4H0mNE",
          "id" : "1sLpCr5xThZkGHLw4H0mNE",
          "name" : "101 Strings Orchestra",
          "type" : "artist",
          "uri" : "spotify:artist:1sLpCr5xThZkGHLw4H0mNE"
        }, {
          "external_urls" : {
            "spotify" : "https://open.spotify.com/artist/751BjdF8k0qMZiY0gaQWmq"
          },
          "href" : "https://api.spotify.com/v1/artists/751BjdF8k0qMZiY0gaQWmq",
          "id" : "751BjdF8k0qMZiY0gaQWmq",
          "name" : "Amade String Orchestra",
          "type" : "artist",
          "uri" : "spotify:artist:751BjdF8k0qMZiY0gaQWmq"
        } ],
        "external_urls" : {
          "spotify" : "https://open.spotify.com/album/10It1TcY6p7ciNiqEeslKr"
        },
        "href" : "https://api.spotify.com/v1/albums/10It1TcY6p7ciNiqEeslKr",
        "id" : "10It1TcY6p7ciNiqEeslKr",
        "images" : [ {
          "height" : 640,
          "url" : "https://i.scdn.co/image/ab67616d0000b273e78e8f4459de797dc7de20a0",
          "width" : 640
        }, {
          "height" : 300,
          "url" : "https://i.scdn.co/image/ab67616d00001e02e78e8f4459de797dc7de20a0",
          "width" : 300
        }, {
          "height" : 64,
          "url" : "https://i.scdn.co/image/ab67616d00004851e78e8f4459de797dc7de20a0",
          "width" : 64
        } ],
        "name" : "Thanksgiving with The Lord",
        "release_date" : "2012-01-01",
        "release_date_precision" : "day",
        "total_tracks" : 28,
        "type" : "album",
        "uri" : "spotify:album:10It1TcY6p7ciNiqEeslKr"
      },
      "artists" : [ {
        "external_urls" : {
          "spotify" : "https://open.spotify.com/artist/751BjdF8k0qMZiY0gaQWmq"
        },
        "href" : "https://api.spotify.com/v1/artists/751BjdF8k0qMZiY0gaQWmq",
        "id" : "751BjdF8k0qMZiY0gaQWmq",
        "name" : "Amade String Orchestra",
        "type" : "artist",
        "uri" : "spotify:artist:751BjdF8k0qMZiY0gaQWmq"
      } ],
      "disc_number" : 1,
      "duration_ms" : 134813,
      "explicit" : false,
      "external_ids" : {
        "isrc" : "CAM460603186"
      },
      "external_urls" : {
        "spotify" : "https://open.spotify.com/track/7eQic0GHjzovgjbvY7bW3v"
      },
      "href" : "https://api.spotify.com/v1/tracks/7eQic0GHjzovgjbvY7bW3v",
      "id" : "7eQic0GHjzovgjbvY7bW3v",
      "is_local" : false,
      "is_playable" : true,
      "name" : "Our Father by Whose Name",
      "popularity" : 0,
      "preview_url" : "https://p.scdn.co/mp3-preview/fbb6021165fd50e22292f9c6d28956a24d0d9350?cid=774b29d4f13844c495f206cafdad9c86",
      "track_number" : 24,
      "type" : "track",
      "uri" : "spotify:track:7eQic0GHjzovgjbvY7bW3v"
    }, {
      "album" : {
        "album_type" : "album",
        "artists" : [ {
          "external_urls" : {
            "spotify" : "https://open.spotify.com/artist/31R1NoblfesIe8X2tmJWBD"
          },
          "href" : "https://api.spotify.com/v1/artists/31R1NoblfesIe8X2tmJWBD",
          "id" : "31R1NoblfesIe8X2tmJWBD",
          "name" : "Festival Choir and Hossana Chorus",
          "type" : "artist",
          "uri" : "spotify:artist:31R1NoblfesIe8X2tmJWBD"
        } ],
        "external_urls" : {
          "spotify" : "https://open.spotify.com/album/3JH1Lv6tnASUb2jxGCaiIY"
        },
        "href" : "https://api.spotify.com/v1/albums/3JH1Lv6tnASUb2jxGCaiIY",
        "id" : "3JH1Lv6tnASUb2jxGCaiIY",
        "images" : [ {
          "height" : 640,
          "url" : "https://i.scdn.co/image/ab67616d0000b2735eaa1ee5d57305e0256a554a",
          "width" : 640
        }, {
          "height" : 300,
          "url" : "https://i.scdn.co/image/ab67616d00001e025eaa1ee5d57305e0256a554a",
          "width" : 300
        }, {
          "height" : 64,
          "url" : "https://i.scdn.co/image/ab67616d000048515eaa1ee5d57305e0256a554a",
          "width" : 64
        } ],
        "name" : "Christian Choir Favorites",
        "release_date" : "2014-08-26",
        "release_date_precision" : "day",
        "total_tracks" : 80,
        "type" : "album",
        "uri" : "spotify:album:3JH1Lv6tnASUb2jxGCaiIY"
      },
      "artists" : [ {
        "external_urls" : {
          "spotify" : "https://open.spotify.com/artist/31R1NoblfesIe8X2tmJWBD"
        },
        "href" : "https://api.spotify.com/v1/artists/31R1NoblfesIe8X2tmJWBD",
        "id" : "31R1NoblfesIe8X2tmJWBD",
        "name" : "Festival Choir and Hossana Chorus",
        "type" : "artist",
        "uri" : "spotify:artist:31R1NoblfesIe8X2tmJWBD"
      } ],
      "disc_number" : 1,
      "duration_ms" : 112786,
      "explicit" : false,
      "external_ids" : {
        "isrc" : "CAM460700928"
      },
      "external_urls" : {
        "spotify" : "https://open.spotify.com/track/5X26r5fqJsnF141DgjQCrB"
      },
      "href" : "https://api.spotify.com/v1/tracks/5X26r5fqJsnF141DgjQCrB",
      "id" : "5X26r5fqJsnF141DgjQCrB",
      "is_local" : false,
      "is_playable" : true,
      "name" : "Our Father By Whose Name",
      "popularity" : 0,
      "preview_url" : "https://p.scdn.co/mp3-preview/9c4109f2b7a214a29d5574c7574f5aa2db5bf140?cid=774b29d4f13844c495f206cafdad9c86",
      "track_number" : 30,
      "type" : "track",
      "uri" : "spotify:track:5X26r5fqJsnF141DgjQCrB"
    }, {
      "album" : {
        "album_type" : "album",
        "artists" : [ {
          "external_urls" : {
            "spotify" : "https://open.spotify.com/artist/5cgvfe62iKws0ztBdWc0G0"
          },
          "href" : "https://api.spotify.com/v1/artists/5cgvfe62iKws0ztBdWc0G0",
          "id" : "5cgvfe62iKws0ztBdWc0G0",
          "name" : "Amade String Orchestra & Singers",
          "type" : "artist",
          "uri" : "spotify:artist:5cgvfe62iKws0ztBdWc0G0"
        } ],
        "external_urls" : {
          "spotify" : "https://open.spotify.com/album/6nAmuBbtW864ITaW0BaF0b"
        },
        "href" : "https://api.spotify.com/v1/albums/6nAmuBbtW864ITaW0BaF0b",
        "id" : "6nAmuBbtW864ITaW0BaF0b",
        "images" : [ {
          "height" : 640,
          "url" : "https://i.scdn.co/image/ab67616d0000b2738a4ae0dcd4e98285b22ce527",
          "width" : 640
        }, {
          "height" : 300,
          "url" : "https://i.scdn.co/image/ab67616d00001e028a4ae0dcd4e98285b22ce527",
          "width" : 300
        }, {
          "height" : 64,
          "url" : "https://i.scdn.co/image/ab67616d000048518a4ae0dcd4e98285b22ce527",
          "width" : 64
        } ],
        "name" : "Streaming the Hits - Christian Music Favorites",
        "release_date" : "2014-10-28",
        "release_date_precision" : "day",
        "total_tracks" : 40,
        "type" : "album",
        "uri" : "spotify:album:6nAmuBbtW864ITaW0BaF0b"
      },
      "artists" : [ {
        "external_urls" : {
          "spotify" : "https://open.spotify.com/artist/751BjdF8k0qMZiY0gaQWmq"
        },
        "href" : "https://api.spotify.com/v1/artists/751BjdF8k0qMZiY0gaQWmq",
        "id" : "751BjdF8k0qMZiY0gaQWmq",
        "name" : "Amade String Orchestra",
        "type" : "artist",
        "uri" : "spotify:artist:751BjdF8k0qMZiY0gaQWmq"
      } ],
      "disc_number" : 1,
      "duration_ms" : 134813,
      "explicit" : false,
      "external_ids" : {
        "isrc" : "CAM460603186"
      },
      "external_urls" : {
        "spotify" : "https://open.spotify.com/track/0OOhaiSd2n2Hi6KkTSbdRn"
      },
      "href" : "https://api.spotify.com/v1/tracks/0OOhaiSd2n2Hi6KkTSbdRn",
      "id" : "0OOhaiSd2n2Hi6KkTSbdRn",
      "is_local" : false,
      "is_playable" : true,
      "name" : "Our Father By Whose Name",
      "popularity" : 0,
      "preview_url" : "https://p.scdn.co/mp3-preview/fbb6021165fd50e22292f9c6d28956a24d0d9350?cid=774b29d4f13844c495f206cafdad9c86",
      "track_number" : 11,
      "type" : "track",
      "uri" : "spotify:track:0OOhaiSd2n2Hi6KkTSbdRn"
    }, {
      "album" : {
        "album_type" : "album",
        "artists" : [ {
          "external_urls" : {
            "spotify" : "https://open.spotify.com/artist/3HJKdfCMxTrirNbb7cykOm"
          },
          "href" : "https://api.spotify.com/v1/artists/3HJKdfCMxTrirNbb7cykOm",
          "id" : "3HJKdfCMxTrirNbb7cykOm",
          "name" : "The Festival Choir and Hosanna Chorus",
          "type" : "artist",
          "uri" : "spotify:artist:3HJKdfCMxTrirNbb7cykOm"
        } ],
        "external_urls" : {
          "spotify" : "https://open.spotify.com/album/4H5zpFzC8pn39Nz5YlU16F"
        },
        "href" : "https://api.spotify.com/v1/albums/4H5zpFzC8pn39Nz5YlU16F",
        "id" : "4H5zpFzC8pn39Nz5YlU16F",
        "images" : [ {
          "height" : 640,
          "url" : "https://i.scdn.co/image/ab67616d0000b2732ee89aba48a32eb74fac134a",
          "width" : 640
        }, {
          "height" : 300,
          "url" : "https://i.scdn.co/image/ab67616d00001e022ee89aba48a32eb74fac134a",
          "width" : 300
        }, {
          "height" : 64,
          "url" : "https://i.scdn.co/image/ab67616d000048512ee89aba48a32eb74fac134a",
          "width" : 64
        } ],
        "name" : "Shout to the Lord",
        "release_date" : "2013",
        "release_date_precision" : "year",
        "total_tracks" : 60,
        "type" : "album",
        "uri" : "spotify:album:4H5zpFzC8pn39Nz5YlU16F"
      },
      "artists" : [ {
        "external_urls" : {
          "spotify" : "https://open.spotify.com/artist/3HJKdfCMxTrirNbb7cykOm"
        },
        "href" : "https://api.spotify.com/v1/artists/3HJKdfCMxTrirNbb7cykOm",
        "id" : "3HJKdfCMxTrirNbb7cykOm",
        "name" : "The Festival Choir and Hosanna Chorus",
        "type" : "artist",
        "uri" : "spotify:artist:3HJKdfCMxTrirNbb7cykOm"
      } ],
      "disc_number" : 1,
      "duration_ms" : 112786,
      "explicit" : false,
      "external_ids" : {
        "isrc" : "CAM460700928"
      },
      "external_urls" : {
        "spotify" : "https://open.spotify.com/track/60JlzVvK6oL19Wi0oi8OEK"
      },
      "href" : "https://api.spotify.com/v1/tracks/60JlzVvK6oL19Wi0oi8OEK",
      "id" : "60JlzVvK6oL19Wi0oi8OEK",
      "is_local" : false,
      "is_playable" : true,
      "name" : "Our Father By Whose Name",
      "popularity" : 0,
      "preview_url" : "https://p.scdn.co/mp3-preview/9c4109f2b7a214a29d5574c7574f5aa2db5bf140?cid=774b29d4f13844c495f206cafdad9c86",
      "track_number" : 28,
      "type" : "track",
      "uri" : "spotify:track:60JlzVvK6oL19Wi0oi8OEK"
    }, {
      "album" : {
        "album_type" : "album",
        "artists" : [ {
          "external_urls" : {
            "spotify" : "https://open.spotify.com/artist/3HJKdfCMxTrirNbb7cykOm"
          },
          "href" : "https://api.spotify.com/v1/artists/3HJKdfCMxTrirNbb7cykOm",
          "id" : "3HJKdfCMxTrirNbb7cykOm",
          "name" : "The Festival Choir and Hosanna Chorus",
          "type" : "artist",
          "uri" : "spotify:artist:3HJKdfCMxTrirNbb7cykOm"
        } ],
        "external_urls" : {
          "spotify" : "https://open.spotify.com/album/45NiGVaRJKuCTycoFOOhRj"
        },
        "href" : "https://api.spotify.com/v1/albums/45NiGVaRJKuCTycoFOOhRj",
        "id" : "45NiGVaRJKuCTycoFOOhRj",
        "images" : [ {
          "height" : 640,
          "url" : "https://i.scdn.co/image/ab67616d0000b273eebd5ba3540812309924fd91",
          "width" : 640
        }, {
          "height" : 300,
          "url" : "https://i.scdn.co/image/ab67616d00001e02eebd5ba3540812309924fd91",
          "width" : 300
        }, {
          "height" : 64,
          "url" : "https://i.scdn.co/image/ab67616d00004851eebd5ba3540812309924fd91",
          "width" : 64
        } ],
        "name" : "Sweet Hour of Prayer-60 Classic Church Hymns",
        "release_date" : "2014-03-04",
        "release_date_precision" : "day",
        "total_tracks" : 60,
        "type" : "album",
        "uri" : "spotify:album:45NiGVaRJKuCTycoFOOhRj"
      },
      "artists" : [ {
        "external_urls" : {
          "spotify" : "https://open.spotify.com/artist/3HJKdfCMxTrirNbb7cykOm"
        },
        "href" : "https://api.spotify.com/v1/artists/3HJKdfCMxTrirNbb7cykOm",
        "id" : "3HJKdfCMxTrirNbb7cykOm",
        "name" : "The Festival Choir and Hosanna Chorus",
        "type" : "artist",
        "uri" : "spotify:artist:3HJKdfCMxTrirNbb7cykOm"
      } ],
      "disc_number" : 1,
      "duration_ms" : 112786,
      "explicit" : false,
      "external_ids" : {
        "isrc" : "CAM460700928"
      },
      "external_urls" : {
        "spotify" : "https://open.spotify.com/track/1z2SJtUoDu8ytbwxdTvtZ7"
      },
      "href" : "https://api.spotify.com/v1/tracks/1z2SJtUoDu8ytbwxdTvtZ7",
      "id" : "1z2SJtUoDu8ytbwxdTvtZ7",
      "is_local" : false,
      "is_playable" : true,
      "name" : "Our Father By Whose Name",
      "popularity" : 0,
      "preview_url" : "https://p.scdn.co/mp3-preview/9c4109f2b7a214a29d5574c7574f5aa2db5bf140?cid=774b29d4f13844c495f206cafdad9c86",
      "track_number" : 28,
      "type" : "track",
      "uri" : "spotify:track:1z2SJtUoDu8ytbwxdTvtZ7"
    } ],
    "limit" : 10,
    "next" : "https://api.spotify.com/v1/search?query=Our+Father%2C+by+Whose+Name&type=track&market=US&offset=15&limit=10",
    "offset" : 5,
    "previous" : "https://api.spotify.com/v1/search?query=Our+Father%2C+by+Whose+Name&type=track&market=US&offset=0&limit=10",
    "total" : 18
  }
}