{
  "tracks" : {
    "href" : "https://api.spotify.com/v1/search?query=My+Hope+is+Built+on+Nothing+Less&type=track&market=US&offset=5&limit=10",
    "items" : [ {
      "album" : {
        "album_type" : "album",
        "artists" : [ {
          "external_urls" : {
            "spotify" : "https://open.spotify.com/artist/6QHA0Ju1zeevkCUGlFG04w"
          },
          "href" : "https://api.spotify.com/v1/artists/6QHA0Ju1zeevkCUGlFG04w",
          "id" : "6QHA0Ju1zeevkCUGlFG04w",
          "name" : "DappyTKeys",
          "type" : "artist",
          "uri" : "spotify:artist:6QHA0Ju1zeevkCUGlFG04w"
        } ],
        "external_urls" : {
          "spotify" : "https://open.spotify.com/album/5Xo4BUKrMl6lDHB4GtJGk7"
        },
        "href" : "https://api.spotify.com/v1/albums/5Xo4BUKrMl6lDHB4GtJGk7",
        "id" : "5Xo4BUKrMl6lDHB4GtJGk7",
        "images" : [ {
          "height" : 640,
          "url" : "https://i.scdn.co/image/ab67616d0000b273c68a9c5bb3dd0c2670d9cb21",
          "width" : 640
        }, {
          "height" : 300,
          "url" : "https://i.scdn.co/image/ab67616d00001e02c68a9c5bb3dd0c2670d9cb21",
          "width" : 300
        }, {
          "height" : 64,
          "url" : "https://i.scdn.co/image/ab67616d00004851c68a9c5bb3dd0c2670d9cb21",
          "width" : 64
        } ],
        "name" : "Hymns Collection, Vol. 1",
        "release_date" : "2020-01-03",
        "release_date_precision" : "day",
        "total_tracks" : 15,
        "type" : "album",
        "uri" : "spotify:album:5Xo4BUKrMl6lDHB4GtJGk7"
      },
      "artists" : [ {
        "external_urls" : {
          "spotify" : "https://open.spotify.com/artist/6QHA0Ju1zeevkCUGlFG04w"
        },
        "href" : "https://api.spotify.com/v1/artists/6QHA0Ju1zeevkCUGlFG04w",
        "id" : "6QHA0Ju1zeevkCUGlFG04w",
        "name" : "DappyTKeys",
        "type" : "artist",
        "uri" : "spotify:artist:6QHA0Ju1zeevkCUGlFG04w"
      } ],
      "disc_number" : 1,
      "duration_ms" : 229198,
      "explicit" : false,
      "external_ids" : {
        "isrc" : "TCAEO1967695"
      },
      "external_urls" : {
        "spotify" : "https://open.spotify.com/track/1SeBFF274muvPS8P2tycsN"
      },
      "href" : "https://api.spotify.com/v1/tracks/1SeBFF274muvPS8P2tycsN",
      "id" : "1SeBFF274muvPS8P2tycsN",
      "is_local" : false,
      "is_playable" : true,
      "name" : "My Hope Is Built on Nothing Less",
      "popularity" : 21,
      "preview_url" : "https://p.scdn.co/mp3-preview/56782964c8fcf45194eb865109f10be1938a0602?cid=774b29d4f13844c495f206cafdad9c86",
      "track_number" : 6,
      "type" : "track",
      "uri" : "spotify:track:1SeBFF274muvPS8P2tycsN"
    }, {
      "album" : {
        "album_type" : "album",
        "artists" : [ {
          "external_urls" : {
            "spotify" : "https://open.spotify.com/artist/4nZHUAZ0iTfvxYe8IoqmKe"
          },
          "href" : "https://api.spotify.com/v1/artists/4nZHUAZ0iTfvxYe8IoqmKe",
          "id" : "4nZHUAZ0iTfvxYe8IoqmKe",
          "name" : "Buller, Balzer & Aichele",
          "type" : "artist",
          "uri" : "spotify:artist:4nZHUAZ0iTfvxYe8IoqmKe"
        } ],
        "external_urls" : {
          "spotify" : "https://open.spotify.com/album/1JEyOTW4BStWghZzrbrzeO"
        },
        "href" : "https://api.spotify.com/v1/albums/1JEyOTW4BStWghZzrbrzeO",
        "id" : "1JEyOTW4BStWghZzrbrzeO",
        "images" : [ {
          "height" : 640,
          "url" : "https://i.scdn.co/image/ab67616d0000b273047ee62a6f32e88568422215",
          "width" : 640
        }, {
          "height" : 300,
          "url" : "https://i.scdn.co/image/ab67616d00001e02047ee62a6f32e88568422215",
          "width" : 300
        }, {
          "height" : 64,
          "url" : "https://i.scdn.co/image/ab67616d00004851047ee62a6f32e88568422215",
          "width" : 64
        } ],
        "name" : "the Hymn Project",
        "release_date" : "2007-01-01",
        "release_date_precision" : "day",
        "total_tracks" : 13,
        "type" : "album",
        "uri" : "spotify:album:1JEyOTW4BStWghZzrbrzeO"
      },
      "artists" : [ {
        "external_urls" : {
          "spotify" : "https://open.spotify.com/artist/4nZHUAZ0iTfvxYe8IoqmKe"
        },
        "href" : "https://api.spotify.com/v1/artists/4nZHUAZ0iTfvxYe8IoqmKe",
        "id" : "4nZHUAZ0iTfvxYe8IoqmKe",
        "name" : "Buller, Balzer & Aichele",
        "type" : "artist",
        "uri" : "spotify:artist:4nZHUAZ0iTfvxYe8IoqmKe"
      } ],
      "disc_number" : 1,
      "duration_ms" : 246546,
      "explicit" : false,
      "external_ids" : {
        "isrc" : "usl4q0784667"
      },
      "external_urls" : {
        "spotify" : "https://open.spotify.com/track/6MVqiJIL5b9Pj5ClObQr8M"
      },
      "href" : "https://api.spotify.com/v1/tracks/6MVqiJIL5b9Pj5ClObQr8M",
      "id" : "6MVqiJIL5b9Pj5ClObQr8M",
      "is_local" : false,
      "is_playable" : true,
      "name" : "My Hope is Built on Nothing Less",
      "popularity" : 19,
      "preview_url" : "https://p.scdn.co/mp3-preview/e742405445bf8eb32652500d45752fbbd533b21b?cid=774b29d4f13844c495f206cafdad9c86",
      "track_number" : 1,
      "type" : "track",
      "uri" : "spotify:track:6MVqiJIL5b9Pj5ClObQr8M"
    }, {
      "album" : {
        "album_type" : "album",
        "artists" : [ {
          "external_urls" : {
            "spotify" : "https://open.spotify.com/artist/4d8pFJwCoD1mX4wAn7Ax2h"
          },
          "href" : "https://api.spotify.com/v1/artists/4d8pFJwCoD1mX4wAn7Ax2h",
          "id" : "4d8pFJwCoD1mX4wAn7Ax2h",
          "name" : "Clovercroft Kids",
          "type" : "artist",
          "uri" : "spotify:artist:4d8pFJwCoD1mX4wAn7Ax2h"
        } ],
        "external_urls" : {
          "spotify" : "https://open.spotify.com/album/4JgA5EnChX7MuaSfLr4EW0"
        },
        "href" : "https://api.spotify.com/v1/albums/4JgA5EnChX7MuaSfLr4EW0",
        "id" : "4JgA5EnChX7MuaSfLr4EW0",
        "images" : [ {
          "height" : 640,
          "url" : "https://i.scdn.co/image/ab67616d0000b273f49f911735089505b12a3597",
          "width" : 640
        }, {
          "height" : 300,
          "url" : "https://i.scdn.co/image/ab67616d00001e02f49f911735089505b12a3597",
          "width" : 300
        }, {
          "height" : 64,
          "url" : "https://i.scdn.co/image/ab67616d00004851f49f911735089505b12a3597",
          "width" : 64
        } ],
        "name" : "Hymns for Kids: Jesus Loves Me",
        "release_date" : "2014-09-30",
        "release_date_precision" : "day",
        "total_tracks" : 20,
        "type" : "album",
        "uri" : "spotify:album:4JgA5EnChX7MuaSfLr4EW0"
      },
      "artists" : [ {
        "external_urls" : {
          "spotify" : "https://open.spotify.com/artist/4d8pFJwCoD1mX4wAn7Ax2h"
        },
        "href" : "https://api.spotify.com/v1/artists/4d8pFJwCoD1mX4wAn7Ax2h",
        "id" : "4d8pFJwCoD1mX4wAn7Ax2h",
        "name" : "Clovercroft Kids",
        "type" : "artist",
        "uri" : "spotify:artist:4d8pFJwCoD1mX4wAn7Ax2h"
      } ],
      "disc_number" : 1,
      "duration_ms" : 157280,
      "explicit" : false,
      "external_ids" : {
        "isrc" : "USACX1401345"
      },
      "external_urls" : {
        "spotify" : "https://open.spotify.com/track/17EXUyDTrWal4t11zxvoBc"
      },
      "href" : "https://api.spotify.com/v1/tracks/17EXUyDTrWal4t11zxvoBc",
      "id" : "17EXUyDTrWal4t11zxvoBc",
      "is_local" : false,
      "is_playable" : true,
      "name" : "My Hope Is Built On Nothing Less",
      "popularity" : 18,
      "preview_url" : "https://p.scdn.co/mp3-preview/bb64e613422a8c05390b852bc389259c124c1f0f?cid=774b29d4f13844c495f206cafdad9c86",
      "track_number" : 14,
      "type" : "track",
      "uri" : "spotify:track:17EXUyDTrWal4t11zxvoBc"
    }, {
      "album" : {
        "album_type" : "album",
        "artists" : [ {
          "external_urls" : {
            "spotify" : "https://open.spotify.com/artist/7Eeb7Pe7xVmbl8Vwi0a9pC"
          },
          "href" : "https://api.spotify.com/v1/artists/7Eeb7Pe7xVmbl8Vwi0a9pC",
          "id" : "7Eeb7Pe7xVmbl8Vwi0a9pC",
          "name" : "생활속 찬송가 Lifestyle Hymn",
          "type" : "artist",
          "uri" : "spotify:artist:7Eeb7Pe7xVmbl8Vwi0a9pC"
        } ],
        "external_urls" : {
          "spotify" : "https://open.spotify.com/album/5Kc4Qnq6gnowcANOt6azE5"
        },
        "href" : "https://api.spotify.com/v1/albums/5Kc4Qnq6gnowcANOt6azE5",
        "id" : "5Kc4Qnq6gnowcANOt6azE5",
        "images" : [ {
          "height" : 640,
          "url" : "https://i.scdn.co/image/ab67616d0000b273d0d569ccfa41fa14b226ee84",
          "width" : 640
        }, {
          "height" : 300,
          "url" : "https://i.scdn.co/image/ab67616d00001e02d0d569ccfa41fa14b226ee84",
          "width" : 300
        }, {
          "height" : 64,
          "url" : "https://i.scdn.co/image/ab67616d00004851d0d569ccfa41fa14b226ee84",
          "width" : 64
        } ],
        "name" : "Lullaby Hymn in the Forest",
        "release_date" : "2020-05-19",
        "release_date_precision" : "day",
        "total_tracks" : 10,
        "type" : "album",
        "uri" : "spotify:album:5Kc4Qnq6gnowcANOt6azE5"
      },
      "artists" : [ {
        "external_urls" : {
          "spotify" : "https://open.spotify.com/artist/7Eeb7Pe7xVmbl8Vwi0a9pC"
        },
        "href" : "https://api.spotify.com/v1/artists/7Eeb7Pe7xVmbl8Vwi0a9pC",
        "id" : "7Eeb7Pe7xVmbl8Vwi0a9pC",
        "name" : "생활속 찬송가 Lifestyle Hymn",
        "type" : "artist",
        "uri" : "spotify:artist:7Eeb7Pe7xVmbl8Vwi0a9pC"
      } ],
      "disc_number" : 1,
      "duration_ms" : 171692,
      "explicit" : false,
      "external_ids" : {
        "isrc" : "KRMIM2012456"
      },
      "external_urls" : {
        "spotify" : "https://open.spotify.com/track/0ibGbpL3caThAdred2Cddn"
      },
      "href" : "https://api.spotify.com/v1/tracks/0ibGbpL3caThAdred2Cddn",
      "id" : "0ibGbpL3caThAdred2Cddn",
      "is_local" : false,
      "is_playable" : true,
      "name" : "My hope is built on nothing less",
      "popularity" : 0,
      "preview_url" : "https://p.scdn.co/mp3-preview/fdba7b10d4ca2152d6e926673597b02864bebc2a?cid=774b29d4f13844c495f206cafdad9c86",
      "track_number" : 5,
      "type" : "track",
      "uri" : "spotify:track:0ibGbpL3caThAdred2Cddn"
    }, {
      "album" : {
        "album_type" : "album",
        "artists" : [ {
          "external_urls" : {
            "spotify" : "https://open.spotify.com/artist/1R2XZ4GRGYqhRV4QHado6o"
          },
          "href" : "https://api.spotify.com/v1/artists/1R2XZ4GRGYqhRV4QHado6o",
          "id" : "1R2XZ4GRGYqhRV4QHado6o",
          "name" : "Andrew Kiteck",
          "type" : "artist",
          "uri" : "spotify:artist:1R2XZ4GRGYqhRV4QHado6o"
        } ],
        "external_urls" : {
          "spotify" : "https://open.spotify.com/album/2wTGAATm4EFWekdZpH7XRF"
        },
        "href" : "https://api.spotify.com/v1/albums/2wTGAATm4EFWekdZpH7XRF",
        "id" : "2wTGAATm4EFWekdZpH7XRF",
        "images" : [ {
          "height" : 640,
          "url" : "https://i.scdn.co/image/ab67616d0000b273532b497581b4b5d4a92a0999",
          "width" : 640
        }, {
          "height" : 300,
          "url" : "https://i.scdn.co/image/ab67616d00001e02532b497581b4b5d4a92a0999",
          "width" : 300
        }, {
          "height" : 64,
          "url" : "https://i.scdn.co/image/ab67616d00004851532b497581b4b5d4a92a0999",
          "width" : 64
        } ],
        "name" : "Hymns on Piano",
        "release_date" : "2019-04-23",
        "release_date_precision" : "day",
        "total_tracks" : 24,
        "type" : "album",
        "uri" : "spotify:album:2wTGAATm4EFWekdZpH7XRF"
      },
      "artists" : [ {
        "external_urls" : {
          "spotify" : "https://open.spotify.com/artist/1R2XZ4GRGYqhRV4QHado6o"
        },
        "href" : "https://api.spotify.com/v1/artists/1R2XZ4GRGYqhRV4QHado6o",
        "id" : "1R2XZ4GRGYqhRV4QHado6o",
        "name" : "Andrew Kiteck",
        "type" : "artist",
        "uri" : "spotify:artist:1R2XZ4GRGYqhRV4QHado6o"
      } ],
      "disc_number" : 1,
      "duration_ms" : 264500,
      "explicit" : false,
      "external_ids" : {
        "isrc" : "TCAEF1909417"
      },
      "external_urls" : {
        "spotify" : "https://open.spotify.com/track/1z4nHUHpqzRi613vsHnm5A"
      },
      "href" : "https://api.spotify.com/v1/tracks/1z4nHUHpqzRi613vsHnm5A",
      "id" : "1z4nHUHpqzRi613vsHnm5A",
      "is_local" : false,
      "is_playable" : true,
      "name" : "My Hope Is Built on Nothing Less",
      "popularity" : 14,
      "preview_url" : "https://p.scdn.co/mp3-preview/b66b29ca9eae2f7e30c8d7135e47c30336440ea3?cid=774b29d4f13844c495f206cafdad9c86",
      "track_number" : 13,
      "type" : "track",
      "uri" : "spotify:track:1z4nHUHpqzRi613vsHnm5A"
    }, {
      "album" : {
        "album_type" : "album",
        "artists" : [ {
          "external_urls" : {
            "spotify" : "https://open.spotify.com/artist/05sGBQhc6wrRAOZYo3gWqP"
          },
          "href" : "https://api.spotify.com/v1/artists/05sGBQhc6wrRAOZYo3gWqP",
          "id" : "05sGBQhc6wrRAOZYo3gWqP",
          "name" : "Worship Music Project",
          "type" : "artist",
          "uri" : "spotify:artist:05sGBQhc6wrRAOZYo3gWqP"
        } ],
        "external_urls" : {
          "spotify" : "https://open.spotify.com/album/3eRMfRTIMvBMRCDil3oJOL"
        },
        "href" : "https://api.spotify.com/v1/albums/3eRMfRTIMvBMRCDil3oJOL",
        "id" : "3eRMfRTIMvBMRCDil3oJOL",
        "images" : [ {
          "height" : 640,
          "url" : "https://i.scdn.co/image/ab67616d0000b273db6fb39516244b71db848a9c",
          "width" : 640
        }, {
          "height" : 300,
          "url" : "https://i.scdn.co/image/ab67616d00001e02db6fb39516244b71db848a9c",
          "width" : 300
        }, {
          "height" : 64,
          "url" : "https://i.scdn.co/image/ab67616d00004851db6fb39516244b71db848a9c",
          "width" : 64
        } ],
        "name" : "Endless Hymns For Opening Prayers 8 (기도를 여는 끊이지 않는 찬송가 8)",
        "release_date" : "2014-07-24",
        "release_date_precision" : "day",
        "total_tracks" : 8,
        "type" : "album",
        "uri" : "spotify:album:3eRMfRTIMvBMRCDil3oJOL"
      },
      "artists" : [ {
        "external_urls" : {
          "spotify" : "https://open.spotify.com/artist/05sGBQhc6wrRAOZYo3gWqP"
        },
        "href" : "https://api.spotify.com/v1/artists/05sGBQhc6wrRAOZYo3gWqP",
        "id" : "05sGBQhc6wrRAOZYo3gWqP",
        "name" : "Worship Music Project",
        "type" : "artist",
        "uri" : "spotify:artist:05sGBQhc6wrRAOZYo3gWqP"
      } ],
      "disc_number" : 1,
      "duration_ms" : 92349,
      "explicit" : false,
      "external_ids" : {
        "isrc" : "KRB361433155"
      },
      "external_urls" : {
        "spotify" : "https://open.spotify.com/track/158KROioRIvZ1CaFwIc3dS"
      },
      "href" : "https://api.spotify.com/v1/tracks/158KROioRIvZ1CaFwIc3dS",
      "id" : "158KROioRIvZ1CaFwIc3dS",
      "is_local" : false,
      "is_playable" : true,
      "name" : "My Hope Is Built On Nothing Less (이 몸의 소망 무언가)",
      "popularity" : 13,
      "preview_url" : "https://p.scdn.co/mp3-preview/dce2390ba293ba3efb92e1d1a6cc8e8874a7e27c?cid=774b29d4f13844c495f206cafdad9c86",
      "track_number" : 5,
      "type" : "track",
      "uri" : "spotify:track:158KROioRIvZ1CaFwIc3dS"
    }, {
      "album" : {
        "album_type" : "album",
        "artists" : [ {
          "external_urls" : {
            "spotify" : "https://open.spotify.com/artist/6zCKr405jB5b6QI1IfFnf2"
          },
          "href" : "https://api.spotify.com/v1/artists/6zCKr405jB5b6QI1IfFnf2",
          "id" : "6zCKr405jB5b6QI1IfFnf2",
          "name" : "Dallas Christian Adult Concert Choir",
          "type" : "artist",
          "uri" : "spotify:artist:6zCKr405jB5b6QI1IfFnf2"
        } ],
        "external_urls" : {
          "spotify" : "https://open.spotify.com/album/7CvZ87srcVquzpuAlThi4U"
        },
        "href" : "https://api.spotify.com/v1/albums/7CvZ87srcVquzpuAlThi4U",
        "id" : "7CvZ87srcVquzpuAlThi4U",
        "images" : [ {
          "height" : 640,
          "url" : "https://i.scdn.co/image/ab67616d0000b273bafdb26f6eac26bd3f70121f",
          "width" : 640
        }, {
          "height" : 300,
          "url" : "https://i.scdn.co/image/ab67616d00001e02bafdb26f6eac26bd3f70121f",
          "width" : 300
        }, {
          "height" : 64,
          "url" : "https://i.scdn.co/image/ab67616d00004851bafdb26f6eac26bd3f70121f",
          "width" : 64
        } ],
        "name" : "The Best of Congregational Singing",
        "release_date" : "2008-05-13",
        "release_date_precision" : "day",
        "total_tracks" : 61,
        "type" : "album",
        "uri" : "spotify:album:7CvZ87srcVquzpuAlThi4U"
      },
      "artists" : [ {
        "external_urls" : {
          "spotify" : "https://open.spotify.com/artist/6zCKr405jB5b6QI1IfFnf2"
        },
        "href" : "https://api.spotify.com/v1/artists/6zCKr405jB5b6QI1IfFnf2",
        "id" : "6zCKr405jB5b6QI1IfFnf2",
        "name" : "Dallas Christian Adult Concert Choir",
        "type" : "artist",
        "uri" : "spotify:artist:6zCKr405jB5b6QI1IfFnf2"
      } ],
      "disc_number" : 2,
      "duration_ms" : 132200,
      "explicit" : false,
      "external_ids" : {
        "isrc" : "USMZA0811605"
      },
      "external_urls" : {
        "spotify" : "https://open.spotify.com/track/5f1IbM3Ug3CnJ6hQYAB3tc"
      },
      "href" : "https://api.spotify.com/v1/tracks/5f1IbM3Ug3CnJ6hQYAB3tc",
      "id" : "5f1IbM3Ug3CnJ6hQYAB3tc",
      "is_local" : false,
      "is_playable" : true,
      "name" : "My Hope Is Built on Nothing Less - Congregational",
      "popularity" : 10,
      "preview_url" : "https://p.scdn.co/mp3-preview/2630b7ee707212e1cb508e23e8e1afe6563248e4?cid=774b29d4f13844c495f206cafdad9c86",
      "track_number" : 19,
      "type" : "track",
      "uri" : "spotify:track:5f1IbM3Ug3CnJ6hQYAB3tc"
    }, {
      "album" : {
        "album_type" : "album",
        "artists" : [ {
          "external_urls" : {
            "spotify" : "https://open.spotify.com/artist/4cFPIL4ZfBANnCRq5PNsTo"
          },
          "href" : "https://api.spotify.com/v1/artists/4cFPIL4ZfBANnCRq5PNsTo",
          "id" : "4cFPIL4ZfBANnCRq5PNsTo",
          "name" : "Mary Beth Carlson",
          "type" : "artist",
          "uri" : "spotify:artist:4cFPIL4ZfBANnCRq5PNsTo"
        } ],
        "external_urls" : {
          "spotify" : "https://open.spotify.com/album/5iCJOWwQsJMWbpGXhadCMx"
        },
        "href" : "https://api.spotify.com/v1/albums/5iCJOWwQsJMWbpGXhadCMx",
        "id" : "5iCJOWwQsJMWbpGXhadCMx",
        "images" : [ {
          "height" : 640,
          "url" : "https://i.scdn.co/image/ab67616d0000b2731bb297540758df31e5363c54",
          "width" : 640
        }, {
          "height" : 300,
          "url" : "https://i.scdn.co/image/ab67616d00001e021bb297540758df31e5363c54",
          "width" : 300
        }, {
          "height" : 64,
          "url" : "https://i.scdn.co/image/ab67616d000048511bb297540758df31e5363c54",
          "width" : 64
        } ],
        "name" : "Whisper Hope (Inspirational Music Of Faith)",
        "release_date" : "2001",
        "release_date_precision" : "year",
        "total_tracks" : 16,
        "type" : "album",
        "uri" : "spotify:album:5iCJOWwQsJMWbpGXhadCMx"
      },
      "artists" : [ {
        "external_urls" : {
          "spotify" : "https://open.spotify.com/artist/4cFPIL4ZfBANnCRq5PNsTo"
        },
        "href" : "https://api.spotify.com/v1/artists/4cFPIL4ZfBANnCRq5PNsTo",
        "id" : "4cFPIL4ZfBANnCRq5PNsTo",
        "name" : "Mary Beth Carlson",
        "type" : "artist",
        "uri" : "spotify:artist:4cFPIL4ZfBANnCRq5PNsTo"
      } ],
      "disc_number" : 1,
      "duration_ms" : 188453,
      "explicit" : false,
      "external_ids" : {
        "isrc" : "ushm80662724"
      },
      "external_urls" : {
        "spotify" : "https://open.spotify.com/track/2UP2dlRH26n6Ou58N2YwCE"
      },
      "href" : "https://api.spotify.com/v1/tracks/2UP2dlRH26n6Ou58N2YwCE",
      "id" : "2UP2dlRH26n6Ou58N2YwCE",
      "is_local" : false,
      "is_playable" : true,
      "name" : "My Hope Is Built On Nothing Less (The Solid Rock)",
      "popularity" : 11,
      "preview_url" : "https://p.scdn.co/mp3-preview/237af1a44ef8a24510c32ad60254f25b493d9ab1?cid=774b29d4f13844c495f206cafdad9c86",
      "track_number" : 1,
      "type" : "track",
      "uri" : "spotify:track:2UP2dlRH26n6Ou58N2YwCE"
    }, {
      "album" : {
        "album_type" : "album",
        "artists" : [ {
          "external_urls" : {
            "spotify" : "https://open.spotify.com/artist/7wsNLF8H90xfMjkjGlxbQV"
          },
          "href" : "https://api.spotify.com/v1/artists/7wsNLF8H90xfMjkjGlxbQV",
          "id" : "7wsNLF8H90xfMjkjGlxbQV",
          "name" : "Rob Hainstock",
          "type" : "artist",
          "uri" : "spotify:artist:7wsNLF8H90xfMjkjGlxbQV"
        } ],
        "external_urls" : {
          "spotify" : "https://open.spotify.com/album/1OVwfIMWmOH5nsnjXhqQmk"
        },
        "href" : "https://api.spotify.com/v1/albums/1OVwfIMWmOH5nsnjXhqQmk",
        "id" : "1OVwfIMWmOH5nsnjXhqQmk",
        "images" : [ {
          "height" : 640,
          "url" : "https://i.scdn.co/image/ab67616d0000b2732c88cdded7d1e650f87a9e44",
          "width" : 640
        }, {
          "height" : 300,
          "url" : "https://i.scdn.co/image/ab67616d00001e022c88cdded7d1e650f87a9e44",
          "width" : 300
        }, {
          "height" : 64,
          "url" : "https://i.scdn.co/image/ab67616d000048512c88cdded7d1e650f87a9e44",
          "width" : 64
        } ],
        "name" : "Hymns, Vol. 1",
        "release_date" : "2019-11-11",
        "release_date_precision" : "day",
        "total_tracks" : 11,
        "type" : "album",
        "uri" : "spotify:album:1OVwfIMWmOH5nsnjXhqQmk"
      },
      "artists" : [ {
        "external_urls" : {
          "spotify" : "https://open.spotify.com/artist/7wsNLF8H90xfMjkjGlxbQV"
        },
        "href" : "https://api.spotify.com/v1/artists/7wsNLF8H90xfMjkjGlxbQV",
        "id" : "7wsNLF8H90xfMjkjGlxbQV",
        "name" : "Rob Hainstock",
        "type" : "artist",
        "uri" : "spotify:artist:7wsNLF8H90xfMjkjGlxbQV"
      } ],
      "disc_number" : 1,
      "duration_ms" : 166280,
      "explicit" : false,
      "external_ids" : {
        "isrc" : "usl4q1947782"
      },
      "external_urls" : {
        "spotify" : "https://open.spotify.com/track/4SkomlmGRPtHf1nIuTl3JW"
      },
      "href" : "https://api.spotify.com/v1/tracks/4SkomlmGRPtHf1nIuTl3JW",
      "id" : "4SkomlmGRPtHf1nIuTl3JW",
      "is_local" : false,
      "is_playable" : true,
      "name" : "My Hope Is Built on Nothing Less",
      "popularity" : 14,
      "preview_url" : "https://p.scdn.co/mp3-preview/99b6431860824692c50b23d4938769dc790c108c?cid=774b29d4f13844c495f206cafdad9c86",
      "track_number" : 6,
      "type" : "track",
      "uri" : "spotify:track:4SkomlmGRPtHf1nIuTl3JW"
    }, {
      "album" : {
        "album_type" : "album",
        "artists" : [ {
          "external_urls" : {
            "spotify" : "https://open.spotify.com/artist/3f6qVRsU5TTzy8OjfZesBT"
          },
          "href" : "https://api.spotify.com/v1/artists/3f6qVRsU5TTzy8OjfZesBT",
          "id" : "3f6qVRsU5TTzy8OjfZesBT",
          "name" : "Oasis Worship",
          "type" : "artist",
          "uri" : "spotify:artist:3f6qVRsU5TTzy8OjfZesBT"
        }, {
          "external_urls" : {
            "spotify" : "https://open.spotify.com/artist/5dxwBcSBqJ8nlpzYqgbkGd"
          },
          "href" : "https://api.spotify.com/v1/artists/5dxwBcSBqJ8nlpzYqgbkGd",
          "id" : "5dxwBcSBqJ8nlpzYqgbkGd",
          "name" : "Jud Field",
          "type" : "artist",
          "uri" : "spotify:artist:5dxwBcSBqJ8nlpzYqgbkGd"
        }, {
          "external_urls" : {
            "spotify" : "https://open.spotify.com/artist/6q1AR3Xt7PIjUSv2LN28Ii"
          },
          "href" : "https://api.spotify.com/v1/artists/6q1AR3Xt7PIjUSv2LN28Ii",
          "id" : "6q1AR3Xt7PIjUSv2LN28Ii",
          "name" : "Kerrie-Ann Butler",
          "type" : "artist",
          "uri" : "spotify:artist:6q1AR3Xt7PIjUSv2LN28Ii"
        } ],
        "external_urls" : {
          "spotify" : "https://open.spotify.com/album/6nSfTzvTearXRiDZcy6zZx"
        },
        "href" : "https://api.spotify.com/v1/albums/6nSfTzvTearXRiDZcy6zZx",
        "id" : "6nSfTzvTearXRiDZcy6zZx",
        "images" : [ {
          "height" : 640,
          "url" : "https://i.scdn.co/image/ab67616d0000b273d448609e47f9808e4cdfb3e8",
          "width" : 640
        }, {
          "height" : 300,
          "url" : "https://i.scdn.co/image/ab67616d00001e02d448609e47f9808e4cdfb3e8",
          "width" : 300
        }, {
          "height" : 64,
          "url" : "https://i.scdn.co/image/ab67616d00004851d448609e47f9808e4cdfb3e8",
          "width" : 64
        } ],
        "name" : "Shout to the Lord: Top 100 Worship Songs, Vol. 8",
        "release_date" : "2017-05-12",
        "release_date_precision" : "day",
        "total_tracks" : 20,
        "type" : "album",
        "uri" : "spotify:album:6nSfTzvTearXRiDZcy6zZx"
      },
      "artists" : [ {
        "external_urls" : {
          "spotify" : "https://open.spotify.com/artist/3f6qVRsU5TTzy8OjfZesBT"
        },
        "href" : "https://api.spotify.com/v1/artists/3f6qVRsU5TTzy8OjfZesBT",
        "id" : "3f6qVRsU5TTzy8OjfZesBT",
        "name" : "Oasis Worship",
        "type" : "artist",
        "uri" : "spotify:artist:3f6qVRsU5TTzy8OjfZesBT"
      } ],
      "disc_number" : 1,
      "duration_ms" : 348944,
      "explicit" : false,
      "external_ids" : {
        "isrc" : "GBCEU1741508"
      },
      "external_urls" : {
        "spotify" : "https://open.spotify.com/track/3Yu0nh8m2qAfkWCwMoY1jI"
      },
      "href" : "https://api.spotify.com/v1/tracks/3Yu0nh8m2qAfkWCwMoY1jI",
      "id" : "3Yu0nh8m2qAfkWCwMoY1jI",
      "is_local" : false,
      "is_playable" : true,
      "name" : "Cornerstone - My Hope Is Built on Nothing Less",
      "popularity" : 12,
      "preview_url" : "https://p.scdn.co/mp3-preview/66f04bbb0a8efb86ce1a51ed7c0c1d1e44598dfc?cid=774b29d4f13844c495f206cafdad9c86",
      "track_number" : 8,
      "type" : "track",
      "uri" : "spotify:track:3Yu0nh8m2qAfkWCwMoY1jI"
    } ],
    "limit" : 10,
    "next" : "https://api.spotify.com/v1/search?query=My+Hope+is+Built+on+Nothing+Less&type=track&market=US&offset=15&limit=10",
    "offset" : 5,
    "previous" : "https://api.spotify.com/v1/search?query=My+Hope+is+Built+on+Nothing+Less&type=track&market=US&offset=0&limit=10",
    "total" : 124
  }
}