{
  "tracks" : {
    "href" : "https://api.spotify.com/v1/search?query=Jesus%2C+I+Come&type=track&market=US&offset=5&limit=10",
    "items" : [ {
      "album" : {
        "album_type" : "album",
        "artists" : [ {
          "external_urls" : {
            "spotify" : "https://open.spotify.com/artist/0HoHU8SXe0g9jJGOfL8rDq"
          },
          "href" : "https://api.spotify.com/v1/artists/0HoHU8SXe0g9jJGOfL8rDq",
          "id" : "0HoHU8SXe0g9jJGOfL8rDq",
          "name" : "Indelible Grace Music",
          "type" : "artist",
          "uri" : "spotify:artist:0HoHU8SXe0g9jJGOfL8rDq"
        } ],
        "external_urls" : {
          "spotify" : "https://open.spotify.com/album/3KspjtTfkisFlIBfsyopf3"
        },
        "href" : "https://api.spotify.com/v1/albums/3KspjtTfkisFlIBfsyopf3",
        "id" : "3KspjtTfkisFlIBfsyopf3",
        "images" : [ {
          "height" : 640,
          "url" : "https://i.scdn.co/image/ab67616d0000b273955303e66356858f9eb6343d",
          "width" : 640
        }, {
          "height" : 300,
          "url" : "https://i.scdn.co/image/ab67616d00001e02955303e66356858f9eb6343d",
          "width" : 300
        }, {
          "height" : 64,
          "url" : "https://i.scdn.co/image/ab67616d00004851955303e66356858f9eb6343d",
          "width" : 64
        } ],
        "name" : "For All the Saints: Indelible Grace III",
        "release_date" : "2008-07-28",
        "release_date_precision" : "day",
        "total_tracks" : 14,
        "type" : "album",
        "uri" : "spotify:album:3KspjtTfkisFlIBfsyopf3"
      },
      "artists" : [ {
        "external_urls" : {
          "spotify" : "https://open.spotify.com/artist/0HoHU8SXe0g9jJGOfL8rDq"
        },
        "href" : "https://api.spotify.com/v1/artists/0HoHU8SXe0g9jJGOfL8rDq",
        "id" : "0HoHU8SXe0g9jJGOfL8rDq",
        "name" : "Indelible Grace Music",
        "type" : "artist",
        "uri" : "spotify:artist:0HoHU8SXe0g9jJGOfL8rDq"
      } ],
      "disc_number" : 1,
      "duration_ms" : 237906,
      "explicit" : false,
      "external_ids" : {
        "isrc" : "USTC60817012"
      },
      "external_urls" : {
        "spotify" : "https://open.spotify.com/track/3Of3UMBgrM4cYV76b1qFxj"
      },
      "href" : "https://api.spotify.com/v1/tracks/3Of3UMBgrM4cYV76b1qFxj",
      "id" : "3Of3UMBgrM4cYV76b1qFxj",
      "is_local" : false,
      "is_playable" : true,
      "name" : "Jesus I Come (Out of My Bondage) [Mp Jones]",
      "popularity" : 17,
      "preview_url" : "https://p.scdn.co/mp3-preview/d5dbe52498887cfe5fb34049cd42c14169d5a71e?cid=774b29d4f13844c495f206cafdad9c86",
      "track_number" : 1,
      "type" : "track",
      "uri" : "spotify:track:3Of3UMBgrM4cYV76b1qFxj"
    }, {
      "album" : {
        "album_type" : "album",
        "artists" : [ {
          "external_urls" : {
            "spotify" : "https://open.spotify.com/artist/3YCKuqpv9nCsIhJ2v8SMix"
          },
          "href" : "https://api.spotify.com/v1/artists/3YCKuqpv9nCsIhJ2v8SMix",
          "id" : "3YCKuqpv9nCsIhJ2v8SMix",
          "name" : "Elevation Worship",
          "type" : "artist",
          "uri" : "spotify:artist:3YCKuqpv9nCsIhJ2v8SMix"
        } ],
        "external_urls" : {
          "spotify" : "https://open.spotify.com/album/5Fei3OXDpZtPrsjwt6CDYx"
        },
        "href" : "https://api.spotify.com/v1/albums/5Fei3OXDpZtPrsjwt6CDYx",
        "id" : "5Fei3OXDpZtPrsjwt6CDYx",
        "images" : [ {
          "height" : 640,
          "url" : "https://i.scdn.co/image/ab67616d0000b27348eddb3c08aebf1f390fa0eb",
          "width" : 640
        }, {
          "height" : 300,
          "url" : "https://i.scdn.co/image/ab67616d00001e0248eddb3c08aebf1f390fa0eb",
          "width" : 300
        }, {
          "height" : 64,
          "url" : "https://i.scdn.co/image/ab67616d0000485148eddb3c08aebf1f390fa0eb",
          "width" : 64
        } ],
        "name" : "Lo Harás Otra Vez",
        "release_date" : "2017-08-18",
        "release_date_precision" : "day",
        "total_tracks" : 8,
        "type" : "album",
        "uri" : "spotify:album:5Fei3OXDpZtPrsjwt6CDYx"
      },
      "artists" : [ {
        "external_urls" : {
          "spotify" : "https://open.spotify.com/artist/3YCKuqpv9nCsIhJ2v8SMix"
        },
        "href" : "https://api.spotify.com/v1/artists/3YCKuqpv9nCsIhJ2v8SMix",
        "id" : "3YCKuqpv9nCsIhJ2v8SMix",
        "name" : "Elevation Worship",
        "type" : "artist",
        "uri" : "spotify:artist:3YCKuqpv9nCsIhJ2v8SMix"
      }, {
        "external_urls" : {
          "spotify" : "https://open.spotify.com/artist/4vEpUOtKWtpotWkuv0Vlx4"
        },
        "href" : "https://api.spotify.com/v1/artists/4vEpUOtKWtpotWkuv0Vlx4",
        "id" : "4vEpUOtKWtpotWkuv0Vlx4",
        "name" : "Evan Craft",
        "type" : "artist",
        "uri" : "spotify:artist:4vEpUOtKWtpotWkuv0Vlx4"
      } ],
      "disc_number" : 1,
      "duration_ms" : 356080,
      "explicit" : false,
      "external_ids" : {
        "isrc" : "USPJT1700031"
      },
      "external_urls" : {
        "spotify" : "https://open.spotify.com/track/6O5u0c1NOwzFiuRNqUlbBG"
      },
      "href" : "https://api.spotify.com/v1/tracks/6O5u0c1NOwzFiuRNqUlbBG",
      "id" : "6O5u0c1NOwzFiuRNqUlbBG",
      "is_local" : false,
      "is_playable" : true,
      "name" : "Jesús Vengo A Ti (Jesus I Come) [feat. Evan Craft]",
      "popularity" : 49,
      "preview_url" : "https://p.scdn.co/mp3-preview/1d9124f6ef269f6ef15ae006a467a6abd3676e19?cid=774b29d4f13844c495f206cafdad9c86",
      "track_number" : 6,
      "type" : "track",
      "uri" : "spotify:track:6O5u0c1NOwzFiuRNqUlbBG"
    }, {
      "album" : {
        "album_type" : "album",
        "artists" : [ {
          "external_urls" : {
            "spotify" : "https://open.spotify.com/artist/3jB6QGZ8yLygO5TvEPjx8a"
          },
          "href" : "https://api.spotify.com/v1/artists/3jB6QGZ8yLygO5TvEPjx8a",
          "id" : "3jB6QGZ8yLygO5TvEPjx8a",
          "name" : "Awaken Generation",
          "type" : "artist",
          "uri" : "spotify:artist:3jB6QGZ8yLygO5TvEPjx8a"
        } ],
        "external_urls" : {
          "spotify" : "https://open.spotify.com/album/0HUENXK3x0wlU4OiOhZUOU"
        },
        "href" : "https://api.spotify.com/v1/albums/0HUENXK3x0wlU4OiOhZUOU",
        "id" : "0HUENXK3x0wlU4OiOhZUOU",
        "images" : [ {
          "height" : 640,
          "url" : "https://i.scdn.co/image/ab67616d0000b27325497c5094c195240cff7858",
          "width" : 640
        }, {
          "height" : 300,
          "url" : "https://i.scdn.co/image/ab67616d00001e0225497c5094c195240cff7858",
          "width" : 300
        }, {
          "height" : 64,
          "url" : "https://i.scdn.co/image/ab67616d0000485125497c5094c195240cff7858",
          "width" : 64
        } ],
        "name" : "Our Light Has Come",
        "release_date" : "2018-10-24",
        "release_date_precision" : "day",
        "total_tracks" : 9,
        "type" : "album",
        "uri" : "spotify:album:0HUENXK3x0wlU4OiOhZUOU"
      },
      "artists" : [ {
        "external_urls" : {
          "spotify" : "https://open.spotify.com/artist/3jB6QGZ8yLygO5TvEPjx8a"
        },
        "href" : "https://api.spotify.com/v1/artists/3jB6QGZ8yLygO5TvEPjx8a",
        "id" : "3jB6QGZ8yLygO5TvEPjx8a",
        "name" : "Awaken Generation",
        "type" : "artist",
        "uri" : "spotify:artist:3jB6QGZ8yLygO5TvEPjx8a"
      }, {
        "external_urls" : {
          "spotify" : "https://open.spotify.com/artist/1bIJRbWCp0gBVPcDzYNZT8"
        },
        "href" : "https://api.spotify.com/v1/artists/1bIJRbWCp0gBVPcDzYNZT8",
        "id" : "1bIJRbWCp0gBVPcDzYNZT8",
        "name" : "Alarice",
        "type" : "artist",
        "uri" : "spotify:artist:1bIJRbWCp0gBVPcDzYNZT8"
      } ],
      "disc_number" : 1,
      "duration_ms" : 339026,
      "explicit" : false,
      "external_ids" : {
        "isrc" : "TCADX1838781"
      },
      "external_urls" : {
        "spotify" : "https://open.spotify.com/track/0U9tMlme07wZxJnMlNDY8U"
      },
      "href" : "https://api.spotify.com/v1/tracks/0U9tMlme07wZxJnMlNDY8U",
      "id" : "0U9tMlme07wZxJnMlNDY8U",
      "is_local" : false,
      "is_playable" : true,
      "name" : "Jesus I Come",
      "popularity" : 28,
      "preview_url" : "https://p.scdn.co/mp3-preview/061a41359856a83e156c29a23fc254eda04ecb10?cid=774b29d4f13844c495f206cafdad9c86",
      "track_number" : 5,
      "type" : "track",
      "uri" : "spotify:track:0U9tMlme07wZxJnMlNDY8U"
    }, {
      "album" : {
        "album_type" : "album",
        "artists" : [ {
          "external_urls" : {
            "spotify" : "https://open.spotify.com/artist/6kACVPfCOnqzgfEF5ryl0x"
          },
          "href" : "https://api.spotify.com/v1/artists/6kACVPfCOnqzgfEF5ryl0x",
          "id" : "6kACVPfCOnqzgfEF5ryl0x",
          "name" : "Johnny Cash",
          "type" : "artist",
          "uri" : "spotify:artist:6kACVPfCOnqzgfEF5ryl0x"
        } ],
        "external_urls" : {
          "spotify" : "https://open.spotify.com/album/2BlL4Gv2DLPu8p58Wcmlm9"
        },
        "href" : "https://api.spotify.com/v1/albums/2BlL4Gv2DLPu8p58Wcmlm9",
        "id" : "2BlL4Gv2DLPu8p58Wcmlm9",
        "images" : [ {
          "height" : 640,
          "url" : "https://i.scdn.co/image/ab67616d0000b2736f4f62da3d811b6501a69ffa",
          "width" : 640
        }, {
          "height" : 300,
          "url" : "https://i.scdn.co/image/ab67616d00001e026f4f62da3d811b6501a69ffa",
          "width" : 300
        }, {
          "height" : 64,
          "url" : "https://i.scdn.co/image/ab67616d000048516f4f62da3d811b6501a69ffa",
          "width" : 64
        } ],
        "name" : "American IV: The Man Comes Around",
        "release_date" : "2002-01-01",
        "release_date_precision" : "day",
        "total_tracks" : 15,
        "type" : "album",
        "uri" : "spotify:album:2BlL4Gv2DLPu8p58Wcmlm9"
      },
      "artists" : [ {
        "external_urls" : {
          "spotify" : "https://open.spotify.com/artist/6kACVPfCOnqzgfEF5ryl0x"
        },
        "href" : "https://api.spotify.com/v1/artists/6kACVPfCOnqzgfEF5ryl0x",
        "id" : "6kACVPfCOnqzgfEF5ryl0x",
        "name" : "Johnny Cash",
        "type" : "artist",
        "uri" : "spotify:artist:6kACVPfCOnqzgfEF5ryl0x"
      } ],
      "disc_number" : 1,
      "duration_ms" : 199240,
      "explicit" : false,
      "external_ids" : {
        "isrc" : "USDJ20200647"
      },
      "external_urls" : {
        "spotify" : "https://open.spotify.com/track/5dcwiQFqn0mTcWewYIv7MV"
      },
      "href" : "https://api.spotify.com/v1/tracks/5dcwiQFqn0mTcWewYIv7MV",
      "id" : "5dcwiQFqn0mTcWewYIv7MV",
      "is_local" : false,
      "is_playable" : true,
      "name" : "Personal Jesus",
      "popularity" : 60,
      "preview_url" : null,
      "track_number" : 7,
      "type" : "track",
      "uri" : "spotify:track:5dcwiQFqn0mTcWewYIv7MV"
    }, {
      "album" : {
        "album_type" : "album",
        "artists" : [ {
          "external_urls" : {
            "spotify" : "https://open.spotify.com/artist/6lrt7LngdzxaQtLIXMraSR"
          },
          "href" : "https://api.spotify.com/v1/artists/6lrt7LngdzxaQtLIXMraSR",
          "id" : "6lrt7LngdzxaQtLIXMraSR",
          "name" : "Joe Rogan",
          "type" : "artist",
          "uri" : "spotify:artist:6lrt7LngdzxaQtLIXMraSR"
        } ],
        "external_urls" : {
          "spotify" : "https://open.spotify.com/album/31QwhCjSQurAqWZLfCuwSY"
        },
        "href" : "https://api.spotify.com/v1/albums/31QwhCjSQurAqWZLfCuwSY",
        "id" : "31QwhCjSQurAqWZLfCuwSY",
        "images" : [ {
          "height" : 640,
          "url" : "https://i.scdn.co/image/ab67616d0000b273cddcc0d5d9bf5fcb0039b4c4",
          "width" : 640
        }, {
          "height" : 300,
          "url" : "https://i.scdn.co/image/ab67616d00001e02cddcc0d5d9bf5fcb0039b4c4",
          "width" : 300
        }, {
          "height" : 64,
          "url" : "https://i.scdn.co/image/ab67616d00004851cddcc0d5d9bf5fcb0039b4c4",
          "width" : 64
        } ],
        "name" : "Talking Monkeys In Space",
        "release_date" : "2010",
        "release_date_precision" : "year",
        "total_tracks" : 29,
        "type" : "album",
        "uri" : "spotify:album:31QwhCjSQurAqWZLfCuwSY"
      },
      "artists" : [ {
        "external_urls" : {
          "spotify" : "https://open.spotify.com/artist/6lrt7LngdzxaQtLIXMraSR"
        },
        "href" : "https://api.spotify.com/v1/artists/6lrt7LngdzxaQtLIXMraSR",
        "id" : "6lrt7LngdzxaQtLIXMraSR",
        "name" : "Joe Rogan",
        "type" : "artist",
        "uri" : "spotify:artist:6lrt7LngdzxaQtLIXMraSR"
      } ],
      "disc_number" : 1,
      "duration_ms" : 104773,
      "explicit" : true,
      "external_ids" : {
        "isrc" : "US85P1091008"
      },
      "external_urls" : {
        "spotify" : "https://open.spotify.com/track/2z9G4b9QjlwlCx2Pkwl6Lc"
      },
      "href" : "https://api.spotify.com/v1/tracks/2z9G4b9QjlwlCx2Pkwl6Lc",
      "id" : "2z9G4b9QjlwlCx2Pkwl6Lc",
      "is_local" : false,
      "is_playable" : true,
      "name" : "I Didn't Come From a Monkey, I Came From Jesus/Evolution",
      "popularity" : 43,
      "preview_url" : "https://p.scdn.co/mp3-preview/1bfcb7d4415dcfd2dfcba2b137cf76ad3290adc9?cid=774b29d4f13844c495f206cafdad9c86",
      "track_number" : 8,
      "type" : "track",
      "uri" : "spotify:track:2z9G4b9QjlwlCx2Pkwl6Lc"
    }, {
      "album" : {
        "album_type" : "album",
        "artists" : [ {
          "external_urls" : {
            "spotify" : "https://open.spotify.com/artist/0Onvkz1Nbs4wHXXUwOIGk8"
          },
          "href" : "https://api.spotify.com/v1/artists/0Onvkz1Nbs4wHXXUwOIGk8",
          "id" : "0Onvkz1Nbs4wHXXUwOIGk8",
          "name" : "Jesus Culture",
          "type" : "artist",
          "uri" : "spotify:artist:0Onvkz1Nbs4wHXXUwOIGk8"
        } ],
        "external_urls" : {
          "spotify" : "https://open.spotify.com/album/2L4TJGv4npQYBHpiU7tHMI"
        },
        "href" : "https://api.spotify.com/v1/albums/2L4TJGv4npQYBHpiU7tHMI",
        "id" : "2L4TJGv4npQYBHpiU7tHMI",
        "images" : [ {
          "height" : 640,
          "url" : "https://i.scdn.co/image/ab67616d0000b273e56c05d7ef8ffbd828d0bd40",
          "width" : 640
        }, {
          "height" : 300,
          "url" : "https://i.scdn.co/image/ab67616d00001e02e56c05d7ef8ffbd828d0bd40",
          "width" : 300
        }, {
          "height" : 64,
          "url" : "https://i.scdn.co/image/ab67616d00004851e56c05d7ef8ffbd828d0bd40",
          "width" : 64
        } ],
        "name" : "Come Away (Live)",
        "release_date" : "2010-11-23",
        "release_date_precision" : "day",
        "total_tracks" : 10,
        "type" : "album",
        "uri" : "spotify:album:2L4TJGv4npQYBHpiU7tHMI"
      },
      "artists" : [ {
        "external_urls" : {
          "spotify" : "https://open.spotify.com/artist/0Onvkz1Nbs4wHXXUwOIGk8"
        },
        "href" : "https://api.spotify.com/v1/artists/0Onvkz1Nbs4wHXXUwOIGk8",
        "id" : "0Onvkz1Nbs4wHXXUwOIGk8",
        "name" : "Jesus Culture",
        "type" : "artist",
        "uri" : "spotify:artist:0Onvkz1Nbs4wHXXUwOIGk8"
      }, {
        "external_urls" : {
          "spotify" : "https://open.spotify.com/artist/45HXIkMqrQerbaPuw6FgKD"
        },
        "href" : "https://api.spotify.com/v1/artists/45HXIkMqrQerbaPuw6FgKD",
        "id" : "45HXIkMqrQerbaPuw6FgKD",
        "name" : "Chris Quilala",
        "type" : "artist",
        "uri" : "spotify:artist:45HXIkMqrQerbaPuw6FgKD"
      } ],
      "disc_number" : 1,
      "duration_ms" : 420386,
      "explicit" : false,
      "external_ids" : {
        "isrc" : "USTCF1000007"
      },
      "external_urls" : {
        "spotify" : "https://open.spotify.com/track/35WuqC0pMixNnnljOx1wjc"
      },
      "href" : "https://api.spotify.com/v1/tracks/35WuqC0pMixNnnljOx1wjc",
      "id" : "35WuqC0pMixNnnljOx1wjc",
      "is_local" : false,
      "is_playable" : true,
      "name" : "Let It Rain - Live",
      "popularity" : 44,
      "preview_url" : null,
      "track_number" : 7,
      "type" : "track",
      "uri" : "spotify:track:35WuqC0pMixNnnljOx1wjc"
    }, {
      "album" : {
        "album_type" : "album",
        "artists" : [ {
          "external_urls" : {
            "spotify" : "https://open.spotify.com/artist/2bBRxQ6hEba2rm64HLgFTo"
          },
          "href" : "https://api.spotify.com/v1/artists/2bBRxQ6hEba2rm64HLgFTo",
          "id" : "2bBRxQ6hEba2rm64HLgFTo",
          "name" : "Scripture Lullabies",
          "type" : "artist",
          "uri" : "spotify:artist:2bBRxQ6hEba2rm64HLgFTo"
        } ],
        "external_urls" : {
          "spotify" : "https://open.spotify.com/album/130Oz9WUZt6fPh3WWTCIcX"
        },
        "href" : "https://api.spotify.com/v1/albums/130Oz9WUZt6fPh3WWTCIcX",
        "id" : "130Oz9WUZt6fPh3WWTCIcX",
        "images" : [ {
          "height" : 640,
          "url" : "https://i.scdn.co/image/ab67616d0000b27346540450b17ee59f837ef1df",
          "width" : 640
        }, {
          "height" : 300,
          "url" : "https://i.scdn.co/image/ab67616d00001e0246540450b17ee59f837ef1df",
          "width" : 300
        }, {
          "height" : 64,
          "url" : "https://i.scdn.co/image/ab67616d0000485146540450b17ee59f837ef1df",
          "width" : 64
        } ],
        "name" : "Hidden in My Heart (A Lullaby Journey Through the Life of Jesus), Vol. 3",
        "release_date" : "2013-12-13",
        "release_date_precision" : "day",
        "total_tracks" : 15,
        "type" : "album",
        "uri" : "spotify:album:130Oz9WUZt6fPh3WWTCIcX"
      },
      "artists" : [ {
        "external_urls" : {
          "spotify" : "https://open.spotify.com/artist/2bBRxQ6hEba2rm64HLgFTo"
        },
        "href" : "https://api.spotify.com/v1/artists/2bBRxQ6hEba2rm64HLgFTo",
        "id" : "2bBRxQ6hEba2rm64HLgFTo",
        "name" : "Scripture Lullabies",
        "type" : "artist",
        "uri" : "spotify:artist:2bBRxQ6hEba2rm64HLgFTo"
      } ],
      "disc_number" : 1,
      "duration_ms" : 214586,
      "explicit" : false,
      "external_ids" : {
        "isrc" : "US8CK1300003"
      },
      "external_urls" : {
        "spotify" : "https://open.spotify.com/track/7tK3va8eGl7tjQArjtN09V"
      },
      "href" : "https://api.spotify.com/v1/tracks/7tK3va8eGl7tjQArjtN09V",
      "id" : "7tK3va8eGl7tjQArjtN09V",
      "is_local" : false,
      "is_playable" : true,
      "name" : "Come to Me",
      "popularity" : 36,
      "preview_url" : "https://p.scdn.co/mp3-preview/78b8893642e22aea14eadcad91c626f652f4b908?cid=774b29d4f13844c495f206cafdad9c86",
      "track_number" : 3,
      "type" : "track",
      "uri" : "spotify:track:7tK3va8eGl7tjQArjtN09V"
    }, {
      "album" : {
        "album_type" : "album",
        "artists" : [ {
          "external_urls" : {
            "spotify" : "https://open.spotify.com/artist/1LpieXNHBu8d1hEAmr4rvH"
          },
          "href" : "https://api.spotify.com/v1/artists/1LpieXNHBu8d1hEAmr4rvH",
          "id" : "1LpieXNHBu8d1hEAmr4rvH",
          "name" : "Capital City Music",
          "type" : "artist",
          "uri" : "spotify:artist:1LpieXNHBu8d1hEAmr4rvH"
        } ],
        "external_urls" : {
          "spotify" : "https://open.spotify.com/album/00k6ygAQhIav9FwyGX8oqJ"
        },
        "href" : "https://api.spotify.com/v1/albums/00k6ygAQhIav9FwyGX8oqJ",
        "id" : "00k6ygAQhIav9FwyGX8oqJ",
        "images" : [ {
          "height" : 640,
          "url" : "https://i.scdn.co/image/ab67616d0000b2736e4cffe7e89651f3d1d8b863",
          "width" : 640
        }, {
          "height" : 300,
          "url" : "https://i.scdn.co/image/ab67616d00001e026e4cffe7e89651f3d1d8b863",
          "width" : 300
        }, {
          "height" : 64,
          "url" : "https://i.scdn.co/image/ab67616d000048516e4cffe7e89651f3d1d8b863",
          "width" : 64
        } ],
        "name" : "Kingdom Come (Live)",
        "release_date" : "2018-01-23",
        "release_date_precision" : "day",
        "total_tracks" : 14,
        "type" : "album",
        "uri" : "spotify:album:00k6ygAQhIav9FwyGX8oqJ"
      },
      "artists" : [ {
        "external_urls" : {
          "spotify" : "https://open.spotify.com/artist/1LpieXNHBu8d1hEAmr4rvH"
        },
        "href" : "https://api.spotify.com/v1/artists/1LpieXNHBu8d1hEAmr4rvH",
        "id" : "1LpieXNHBu8d1hEAmr4rvH",
        "name" : "Capital City Music",
        "type" : "artist",
        "uri" : "spotify:artist:1LpieXNHBu8d1hEAmr4rvH"
      }, {
        "external_urls" : {
          "spotify" : "https://open.spotify.com/artist/3vRlp48MEXs2uuVGKhZtro"
        },
        "href" : "https://api.spotify.com/v1/artists/3vRlp48MEXs2uuVGKhZtro",
        "id" : "3vRlp48MEXs2uuVGKhZtro",
        "name" : "Jacob Cantrell",
        "type" : "artist",
        "uri" : "spotify:artist:3vRlp48MEXs2uuVGKhZtro"
      } ],
      "disc_number" : 1,
      "duration_ms" : 375884,
      "explicit" : false,
      "external_ids" : {
        "isrc" : "TCADK1775697"
      },
      "external_urls" : {
        "spotify" : "https://open.spotify.com/track/1Al4csP7hLMbLtu1TDgXqC"
      },
      "href" : "https://api.spotify.com/v1/tracks/1Al4csP7hLMbLtu1TDgXqC",
      "id" : "1Al4csP7hLMbLtu1TDgXqC",
      "is_local" : false,
      "is_playable" : true,
      "name" : "All in All / My Jesus (feat. Jacob Cantrell)",
      "popularity" : 38,
      "preview_url" : "https://p.scdn.co/mp3-preview/f6308da97b4bc6c71f3d2db8154acb65455bd2b7?cid=774b29d4f13844c495f206cafdad9c86",
      "track_number" : 6,
      "type" : "track",
      "uri" : "spotify:track:1Al4csP7hLMbLtu1TDgXqC"
    }, {
      "album" : {
        "album_type" : "album",
        "artists" : [ {
          "external_urls" : {
            "spotify" : "https://open.spotify.com/artist/2UWqAbbrZK9eL1UQCuhT6J"
          },
          "href" : "https://api.spotify.com/v1/artists/2UWqAbbrZK9eL1UQCuhT6J",
          "id" : "2UWqAbbrZK9eL1UQCuhT6J",
          "name" : "Indiana Bible College Choir",
          "type" : "artist",
          "uri" : "spotify:artist:2UWqAbbrZK9eL1UQCuhT6J"
        } ],
        "external_urls" : {
          "spotify" : "https://open.spotify.com/album/4CbOfP3yxekbuQRn87RK5O"
        },
        "href" : "https://api.spotify.com/v1/albums/4CbOfP3yxekbuQRn87RK5O",
        "id" : "4CbOfP3yxekbuQRn87RK5O",
        "images" : [ {
          "height" : 640,
          "url" : "https://i.scdn.co/image/ab67616d0000b273c2ded77d6b098ee9dfdc9a17",
          "width" : 640
        }, {
          "height" : 300,
          "url" : "https://i.scdn.co/image/ab67616d00001e02c2ded77d6b098ee9dfdc9a17",
          "width" : 300
        }, {
          "height" : 64,
          "url" : "https://i.scdn.co/image/ab67616d00004851c2ded77d6b098ee9dfdc9a17",
          "width" : 64
        } ],
        "name" : "Come Home",
        "release_date" : "2010-04-15",
        "release_date_precision" : "day",
        "total_tracks" : 13,
        "type" : "album",
        "uri" : "spotify:album:4CbOfP3yxekbuQRn87RK5O"
      },
      "artists" : [ {
        "external_urls" : {
          "spotify" : "https://open.spotify.com/artist/2UWqAbbrZK9eL1UQCuhT6J"
        },
        "href" : "https://api.spotify.com/v1/artists/2UWqAbbrZK9eL1UQCuhT6J",
        "id" : "2UWqAbbrZK9eL1UQCuhT6J",
        "name" : "Indiana Bible College Choir",
        "type" : "artist",
        "uri" : "spotify:artist:2UWqAbbrZK9eL1UQCuhT6J"
      } ],
      "disc_number" : 1,
      "duration_ms" : 395320,
      "explicit" : false,
      "external_ids" : {
        "isrc" : "USA2P1118315"
      },
      "external_urls" : {
        "spotify" : "https://open.spotify.com/track/3nGtKwvtxbSiuYoIVbGSCR"
      },
      "href" : "https://api.spotify.com/v1/tracks/3nGtKwvtxbSiuYoIVbGSCR",
      "id" : "3nGtKwvtxbSiuYoIVbGSCR",
      "is_local" : false,
      "is_playable" : true,
      "name" : "Jesus Said It",
      "popularity" : 29,
      "preview_url" : "https://p.scdn.co/mp3-preview/c1974c60edae2ac973c96f493a6b45af87b959e0?cid=774b29d4f13844c495f206cafdad9c86",
      "track_number" : 13,
      "type" : "track",
      "uri" : "spotify:track:3nGtKwvtxbSiuYoIVbGSCR"
    }, {
      "album" : {
        "album_type" : "album",
        "artists" : [ {
          "external_urls" : {
            "spotify" : "https://open.spotify.com/artist/35ufIa5SJNtsQMIKrQeYfN"
          },
          "href" : "https://api.spotify.com/v1/artists/35ufIa5SJNtsQMIKrQeYfN",
          "id" : "35ufIa5SJNtsQMIKrQeYfN",
          "name" : "Michael Card",
          "type" : "artist",
          "uri" : "spotify:artist:35ufIa5SJNtsQMIKrQeYfN"
        } ],
        "external_urls" : {
          "spotify" : "https://open.spotify.com/album/3zlveNkjZuxh7Ubgnb2kCw"
        },
        "href" : "https://api.spotify.com/v1/albums/3zlveNkjZuxh7Ubgnb2kCw",
        "id" : "3zlveNkjZuxh7Ubgnb2kCw",
        "images" : [ {
          "height" : 640,
          "url" : "https://i.scdn.co/image/ab67616d0000b273e14c9f491face083d2df1495",
          "width" : 640
        }, {
          "height" : 300,
          "url" : "https://i.scdn.co/image/ab67616d00001e02e14c9f491face083d2df1495",
          "width" : 300
        }, {
          "height" : 64,
          "url" : "https://i.scdn.co/image/ab67616d00004851e14c9f491face083d2df1495",
          "width" : 64
        } ],
        "name" : "Sleep Sound In Jesus (Deluxe Edition)",
        "release_date" : "2013-01-01",
        "release_date_precision" : "day",
        "total_tracks" : 17,
        "type" : "album",
        "uri" : "spotify:album:3zlveNkjZuxh7Ubgnb2kCw"
      },
      "artists" : [ {
        "external_urls" : {
          "spotify" : "https://open.spotify.com/artist/35ufIa5SJNtsQMIKrQeYfN"
        },
        "href" : "https://api.spotify.com/v1/artists/35ufIa5SJNtsQMIKrQeYfN",
        "id" : "35ufIa5SJNtsQMIKrQeYfN",
        "name" : "Michael Card",
        "type" : "artist",
        "uri" : "spotify:artist:35ufIa5SJNtsQMIKrQeYfN"
      } ],
      "disc_number" : 1,
      "duration_ms" : 160506,
      "explicit" : false,
      "external_ids" : {
        "isrc" : "USSP38959554"
      },
      "external_urls" : {
        "spotify" : "https://open.spotify.com/track/48jeV3OhwcN7Bt6f5j6Lir"
      },
      "href" : "https://api.spotify.com/v1/tracks/48jeV3OhwcN7Bt6f5j6Lir",
      "id" : "48jeV3OhwcN7Bt6f5j6Lir",
      "is_local" : false,
      "is_playable" : true,
      "name" : "Jesus Let Us Come To Know You",
      "popularity" : 28,
      "preview_url" : null,
      "track_number" : 11,
      "type" : "track",
      "uri" : "spotify:track:48jeV3OhwcN7Bt6f5j6Lir"
    } ],
    "limit" : 10,
    "next" : "https://api.spotify.com/v1/search?query=Jesus%2C+I+Come&type=track&market=US&offset=15&limit=10",
    "offset" : 5,
    "previous" : "https://api.spotify.com/v1/search?query=Jesus%2C+I+Come&type=track&market=US&offset=0&limit=10",
    "total" : 1695
  }
}