{
  "tracks" : {
    "href" : "https://api.spotify.com/v1/search?query=How+Firm+a+Foundation&type=track&market=US&offset=5&limit=10",
    "items" : [ {
      "album" : {
        "album_type" : "album",
        "artists" : [ {
          "external_urls" : {
            "spotify" : "https://open.spotify.com/artist/6mGZXaZ4SWNh6IsJ57thCp"
          },
          "href" : "https://api.spotify.com/v1/artists/6mGZXaZ4SWNh6IsJ57thCp",
          "id" : "6mGZXaZ4SWNh6IsJ57thCp",
          "name" : "Fernando Ortega",
          "type" : "artist",
          "uri" : "spotify:artist:6mGZXaZ4SWNh6IsJ57thCp"
        } ],
        "external_urls" : {
          "spotify" : "https://open.spotify.com/album/4f8QsRCDU92p3aZGQxlWLB"
        },
        "href" : "https://api.spotify.com/v1/albums/4f8QsRCDU92p3aZGQxlWLB",
        "id" : "4f8QsRCDU92p3aZGQxlWLB",
        "images" : [ {
          "height" : 640,
          "url" : "https://i.scdn.co/image/ab67616d0000b273ef6a7fff8318b536f804dfa3",
          "width" : 640
        }, {
          "height" : 300,
          "url" : "https://i.scdn.co/image/ab67616d00001e02ef6a7fff8318b536f804dfa3",
          "width" : 300
        }, {
          "height" : 64,
          "url" : "https://i.scdn.co/image/ab67616d00004851ef6a7fff8318b536f804dfa3",
          "width" : 64
        } ],
        "name" : "Give Me Jesus: The Biggest Hits Of Fernando Ortega",
        "release_date" : "2017-10-27",
        "release_date_precision" : "day",
        "total_tracks" : 10,
        "type" : "album",
        "uri" : "spotify:album:4f8QsRCDU92p3aZGQxlWLB"
      },
      "artists" : [ {
        "external_urls" : {
          "spotify" : "https://open.spotify.com/artist/6mGZXaZ4SWNh6IsJ57thCp"
        },
        "href" : "https://api.spotify.com/v1/artists/6mGZXaZ4SWNh6IsJ57thCp",
        "id" : "6mGZXaZ4SWNh6IsJ57thCp",
        "name" : "Fernando Ortega",
        "type" : "artist",
        "uri" : "spotify:artist:6mGZXaZ4SWNh6IsJ57thCp"
      } ],
      "disc_number" : 1,
      "duration_ms" : 203560,
      "explicit" : false,
      "external_ids" : {
        "isrc" : "USWR61400995"
      },
      "external_urls" : {
        "spotify" : "https://open.spotify.com/track/3UPU55uwdgWJNzMYQiYizg"
      },
      "href" : "https://api.spotify.com/v1/tracks/3UPU55uwdgWJNzMYQiYizg",
      "id" : "3UPU55uwdgWJNzMYQiYizg",
      "is_local" : false,
      "is_playable" : true,
      "name" : "How Firm a Foundation",
      "popularity" : 27,
      "preview_url" : "https://p.scdn.co/mp3-preview/ddeca950d26712b1487da172306e4b2d4bd7ad25?cid=774b29d4f13844c495f206cafdad9c86",
      "track_number" : 9,
      "type" : "track",
      "uri" : "spotify:track:3UPU55uwdgWJNzMYQiYizg"
    }, {
      "album" : {
        "album_type" : "album",
        "artists" : [ {
          "external_urls" : {
            "spotify" : "https://open.spotify.com/artist/4tfY4Ej43I6BJdGaWaQE2z"
          },
          "href" : "https://api.spotify.com/v1/artists/4tfY4Ej43I6BJdGaWaQE2z",
          "id" : "4tfY4Ej43I6BJdGaWaQE2z",
          "name" : "Voice Male",
          "type" : "artist",
          "uri" : "spotify:artist:4tfY4Ej43I6BJdGaWaQE2z"
        } ],
        "external_urls" : {
          "spotify" : "https://open.spotify.com/album/5ZvzUJgTtqem54y2eoBTit"
        },
        "href" : "https://api.spotify.com/v1/albums/5ZvzUJgTtqem54y2eoBTit",
        "id" : "5ZvzUJgTtqem54y2eoBTit",
        "images" : [ {
          "height" : 640,
          "url" : "https://i.scdn.co/image/ab67616d0000b27359da149e04c292a1b58a2f27",
          "width" : 640
        }, {
          "height" : 300,
          "url" : "https://i.scdn.co/image/ab67616d00001e0259da149e04c292a1b58a2f27",
          "width" : 300
        }, {
          "height" : 64,
          "url" : "https://i.scdn.co/image/ab67616d0000485159da149e04c292a1b58a2f27",
          "width" : 64
        } ],
        "name" : "Hims II",
        "release_date" : "2003-11-20",
        "release_date_precision" : "day",
        "total_tracks" : 12,
        "type" : "album",
        "uri" : "spotify:album:5ZvzUJgTtqem54y2eoBTit"
      },
      "artists" : [ {
        "external_urls" : {
          "spotify" : "https://open.spotify.com/artist/4tfY4Ej43I6BJdGaWaQE2z"
        },
        "href" : "https://api.spotify.com/v1/artists/4tfY4Ej43I6BJdGaWaQE2z",
        "id" : "4tfY4Ej43I6BJdGaWaQE2z",
        "name" : "Voice Male",
        "type" : "artist",
        "uri" : "spotify:artist:4tfY4Ej43I6BJdGaWaQE2z"
      } ],
      "disc_number" : 1,
      "duration_ms" : 301466,
      "explicit" : false,
      "external_ids" : {
        "isrc" : "USR7D0800706"
      },
      "external_urls" : {
        "spotify" : "https://open.spotify.com/track/0zF61Nfz8eROUrN6GSrIf4"
      },
      "href" : "https://api.spotify.com/v1/tracks/0zF61Nfz8eROUrN6GSrIf4",
      "id" : "0zF61Nfz8eROUrN6GSrIf4",
      "is_local" : false,
      "is_playable" : true,
      "name" : "How Firm a Foundation",
      "popularity" : 26,
      "preview_url" : "https://p.scdn.co/mp3-preview/ea9b9741d65afd59e21d0a35a1317ebc8ce77a57?cid=774b29d4f13844c495f206cafdad9c86",
      "track_number" : 6,
      "type" : "track",
      "uri" : "spotify:track:0zF61Nfz8eROUrN6GSrIf4"
    }, {
      "album" : {
        "album_type" : "single",
        "artists" : [ {
          "external_urls" : {
            "spotify" : "https://open.spotify.com/artist/0ZREAfzu5USvZD9dn52j5F"
          },
          "href" : "https://api.spotify.com/v1/artists/0ZREAfzu5USvZD9dn52j5F",
          "id" : "0ZREAfzu5USvZD9dn52j5F",
          "name" : "Hymns of the People",
          "type" : "artist",
          "uri" : "spotify:artist:0ZREAfzu5USvZD9dn52j5F"
        } ],
        "external_urls" : {
          "spotify" : "https://open.spotify.com/album/07ylTx2YLZ5WffOPy4bEGu"
        },
        "href" : "https://api.spotify.com/v1/albums/07ylTx2YLZ5WffOPy4bEGu",
        "id" : "07ylTx2YLZ5WffOPy4bEGu",
        "images" : [ {
          "height" : 640,
          "url" : "https://i.scdn.co/image/ab67616d0000b273010cc5109aaa899aa2a29e7a",
          "width" : 640
        }, {
          "height" : 300,
          "url" : "https://i.scdn.co/image/ab67616d00001e02010cc5109aaa899aa2a29e7a",
          "width" : 300
        }, {
          "height" : 64,
          "url" : "https://i.scdn.co/image/ab67616d00004851010cc5109aaa899aa2a29e7a",
          "width" : 64
        } ],
        "name" : "Phase One and Phase Two",
        "release_date" : "2013-01-29",
        "release_date_precision" : "day",
        "total_tracks" : 6,
        "type" : "album",
        "uri" : "spotify:album:07ylTx2YLZ5WffOPy4bEGu"
      },
      "artists" : [ {
        "external_urls" : {
          "spotify" : "https://open.spotify.com/artist/0ZREAfzu5USvZD9dn52j5F"
        },
        "href" : "https://api.spotify.com/v1/artists/0ZREAfzu5USvZD9dn52j5F",
        "id" : "0ZREAfzu5USvZD9dn52j5F",
        "name" : "Hymns of the People",
        "type" : "artist",
        "uri" : "spotify:artist:0ZREAfzu5USvZD9dn52j5F"
      } ],
      "disc_number" : 1,
      "duration_ms" : 229960,
      "explicit" : false,
      "external_ids" : {
        "isrc" : "TCABL1209966"
      },
      "external_urls" : {
        "spotify" : "https://open.spotify.com/track/4P59twabgXks84BximvNEB"
      },
      "href" : "https://api.spotify.com/v1/tracks/4P59twabgXks84BximvNEB",
      "id" : "4P59twabgXks84BximvNEB",
      "is_local" : false,
      "is_playable" : true,
      "name" : "How Firm a Foundation",
      "popularity" : 26,
      "preview_url" : "https://p.scdn.co/mp3-preview/ff978df4f388de44e181a42134020eb627093b6c?cid=774b29d4f13844c495f206cafdad9c86",
      "track_number" : 1,
      "type" : "track",
      "uri" : "spotify:track:4P59twabgXks84BximvNEB"
    }, {
      "album" : {
        "album_type" : "album",
        "artists" : [ {
          "external_urls" : {
            "spotify" : "https://open.spotify.com/artist/6jjuxOU1va94mNHZpHTdWn"
          },
          "href" : "https://api.spotify.com/v1/artists/6jjuxOU1va94mNHZpHTdWn",
          "id" : "6jjuxOU1va94mNHZpHTdWn",
          "name" : "Michael Ethington",
          "type" : "artist",
          "uri" : "spotify:artist:6jjuxOU1va94mNHZpHTdWn"
        } ],
        "external_urls" : {
          "spotify" : "https://open.spotify.com/album/23QhAd7IsendqPyLF0tVuU"
        },
        "href" : "https://api.spotify.com/v1/albums/23QhAd7IsendqPyLF0tVuU",
        "id" : "23QhAd7IsendqPyLF0tVuU",
        "images" : [ {
          "height" : 640,
          "url" : "https://i.scdn.co/image/ab67616d0000b273597a0035ee55b6f1d512e4d4",
          "width" : 640
        }, {
          "height" : 300,
          "url" : "https://i.scdn.co/image/ab67616d00001e02597a0035ee55b6f1d512e4d4",
          "width" : 300
        }, {
          "height" : 64,
          "url" : "https://i.scdn.co/image/ab67616d00004851597a0035ee55b6f1d512e4d4",
          "width" : 64
        } ],
        "name" : "BECOME",
        "release_date" : "2011-12-01",
        "release_date_precision" : "day",
        "total_tracks" : 13,
        "type" : "album",
        "uri" : "spotify:album:23QhAd7IsendqPyLF0tVuU"
      },
      "artists" : [ {
        "external_urls" : {
          "spotify" : "https://open.spotify.com/artist/6jjuxOU1va94mNHZpHTdWn"
        },
        "href" : "https://api.spotify.com/v1/artists/6jjuxOU1va94mNHZpHTdWn",
        "id" : "6jjuxOU1va94mNHZpHTdWn",
        "name" : "Michael Ethington",
        "type" : "artist",
        "uri" : "spotify:artist:6jjuxOU1va94mNHZpHTdWn"
      } ],
      "disc_number" : 1,
      "duration_ms" : 266520,
      "explicit" : false,
      "external_ids" : {
        "isrc" : "ushm91180671"
      },
      "external_urls" : {
        "spotify" : "https://open.spotify.com/track/7Gt0bQX5KNGwn1g2Efva6W"
      },
      "href" : "https://api.spotify.com/v1/tracks/7Gt0bQX5KNGwn1g2Efva6W",
      "id" : "7Gt0bQX5KNGwn1g2Efva6W",
      "is_local" : false,
      "is_playable" : true,
      "name" : "How Firm a Foundation",
      "popularity" : 24,
      "preview_url" : "https://p.scdn.co/mp3-preview/af4e8d243b47955a8a1f72a22aa4e87d512da2a0?cid=774b29d4f13844c495f206cafdad9c86",
      "track_number" : 9,
      "type" : "track",
      "uri" : "spotify:track:7Gt0bQX5KNGwn1g2Efva6W"
    }, {
      "album" : {
        "album_type" : "album",
        "artists" : [ {
          "external_urls" : {
            "spotify" : "https://open.spotify.com/artist/6MYKRhEIKscR8qdGlvpk9y"
          },
          "href" : "https://api.spotify.com/v1/artists/6MYKRhEIKscR8qdGlvpk9y",
          "id" : "6MYKRhEIKscR8qdGlvpk9y",
          "name" : "Sovereign Grace Music",
          "type" : "artist",
          "uri" : "spotify:artist:6MYKRhEIKscR8qdGlvpk9y"
        }, {
          "external_urls" : {
            "spotify" : "https://open.spotify.com/artist/3mWDcLkpeZ5aReUNWoOadU"
          },
          "href" : "https://api.spotify.com/v1/artists/3mWDcLkpeZ5aReUNWoOadU",
          "id" : "3mWDcLkpeZ5aReUNWoOadU",
          "name" : "Bob Kauflin",
          "type" : "artist",
          "uri" : "spotify:artist:3mWDcLkpeZ5aReUNWoOadU"
        } ],
        "external_urls" : {
          "spotify" : "https://open.spotify.com/album/02YQE7jfnG2cOF6qJ6KI9E"
        },
        "href" : "https://api.spotify.com/v1/albums/02YQE7jfnG2cOF6qJ6KI9E",
        "id" : "02YQE7jfnG2cOF6qJ6KI9E",
        "images" : [ {
          "height" : 640,
          "url" : "https://i.scdn.co/image/ab67616d0000b2738108be026d28c5fec232f6b3",
          "width" : 640
        }, {
          "height" : 300,
          "url" : "https://i.scdn.co/image/ab67616d00001e028108be026d28c5fec232f6b3",
          "width" : 300
        }, {
          "height" : 64,
          "url" : "https://i.scdn.co/image/ab67616d000048518108be026d28c5fec232f6b3",
          "width" : 64
        } ],
        "name" : "Together for the Gospel (Live)",
        "release_date" : "2008-01-01",
        "release_date_precision" : "day",
        "total_tracks" : 16,
        "type" : "album",
        "uri" : "spotify:album:02YQE7jfnG2cOF6qJ6KI9E"
      },
      "artists" : [ {
        "external_urls" : {
          "spotify" : "https://open.spotify.com/artist/6MYKRhEIKscR8qdGlvpk9y"
        },
        "href" : "https://api.spotify.com/v1/artists/6MYKRhEIKscR8qdGlvpk9y",
        "id" : "6MYKRhEIKscR8qdGlvpk9y",
        "name" : "Sovereign Grace Music",
        "type" : "artist",
        "uri" : "spotify:artist:6MYKRhEIKscR8qdGlvpk9y"
      }, {
        "external_urls" : {
          "spotify" : "https://open.spotify.com/artist/3mWDcLkpeZ5aReUNWoOadU"
        },
        "href" : "https://api.spotify.com/v1/artists/3mWDcLkpeZ5aReUNWoOadU",
        "id" : "3mWDcLkpeZ5aReUNWoOadU",
        "name" : "Bob Kauflin",
        "type" : "artist",
        "uri" : "spotify:artist:3mWDcLkpeZ5aReUNWoOadU"
      } ],
      "disc_number" : 1,
      "duration_ms" : 178920,
      "explicit" : false,
      "external_ids" : {
        "isrc" : "USL4Q0827023"
      },
      "external_urls" : {
        "spotify" : "https://open.spotify.com/track/0hp4q6QqqM5e0U69C4rwpj"
      },
      "href" : "https://api.spotify.com/v1/tracks/0hp4q6QqqM5e0U69C4rwpj",
      "id" : "0hp4q6QqqM5e0U69C4rwpj",
      "is_local" : false,
      "is_playable" : true,
      "name" : "How Firm a Foundation - Live",
      "popularity" : 27,
      "preview_url" : "https://p.scdn.co/mp3-preview/89e9d0b394c6642c09505c3acfdbee28a24500c0?cid=774b29d4f13844c495f206cafdad9c86",
      "track_number" : 3,
      "type" : "track",
      "uri" : "spotify:track:0hp4q6QqqM5e0U69C4rwpj"
    }, {
      "album" : {
        "album_type" : "album",
        "artists" : [ {
          "external_urls" : {
            "spotify" : "https://open.spotify.com/artist/4W2mcEq4BtIpUc3vlvXOpy"
          },
          "href" : "https://api.spotify.com/v1/artists/4W2mcEq4BtIpUc3vlvXOpy",
          "id" : "4W2mcEq4BtIpUc3vlvXOpy",
          "name" : "Jay R. Powell",
          "type" : "artist",
          "uri" : "spotify:artist:4W2mcEq4BtIpUc3vlvXOpy"
        } ],
        "external_urls" : {
          "spotify" : "https://open.spotify.com/album/32ILW0ERvU3X8TW9aIx98n"
        },
        "href" : "https://api.spotify.com/v1/albums/32ILW0ERvU3X8TW9aIx98n",
        "id" : "32ILW0ERvU3X8TW9aIx98n",
        "images" : [ {
          "height" : 640,
          "url" : "https://i.scdn.co/image/ab67616d0000b273ab0c91e3f1522d8f41b16c68",
          "width" : 640
        }, {
          "height" : 300,
          "url" : "https://i.scdn.co/image/ab67616d00001e02ab0c91e3f1522d8f41b16c68",
          "width" : 300
        }, {
          "height" : 64,
          "url" : "https://i.scdn.co/image/ab67616d00004851ab0c91e3f1522d8f41b16c68",
          "width" : 64
        } ],
        "name" : "Lost No More",
        "release_date" : "2009-05-18",
        "release_date_precision" : "day",
        "total_tracks" : 12,
        "type" : "album",
        "uri" : "spotify:album:32ILW0ERvU3X8TW9aIx98n"
      },
      "artists" : [ {
        "external_urls" : {
          "spotify" : "https://open.spotify.com/artist/4W2mcEq4BtIpUc3vlvXOpy"
        },
        "href" : "https://api.spotify.com/v1/artists/4W2mcEq4BtIpUc3vlvXOpy",
        "id" : "4W2mcEq4BtIpUc3vlvXOpy",
        "name" : "Jay R. Powell",
        "type" : "artist",
        "uri" : "spotify:artist:4W2mcEq4BtIpUc3vlvXOpy"
      } ],
      "disc_number" : 1,
      "duration_ms" : 281546,
      "explicit" : false,
      "external_ids" : {
        "isrc" : "usl4q0854495"
      },
      "external_urls" : {
        "spotify" : "https://open.spotify.com/track/7oKJcnHZyhFcdKWUVCC7is"
      },
      "href" : "https://api.spotify.com/v1/tracks/7oKJcnHZyhFcdKWUVCC7is",
      "id" : "7oKJcnHZyhFcdKWUVCC7is",
      "is_local" : false,
      "is_playable" : true,
      "name" : "How Firm A Foundation",
      "popularity" : 24,
      "preview_url" : "https://p.scdn.co/mp3-preview/5e7a0d59e769793d038e5e88c4e52380cded8a93?cid=774b29d4f13844c495f206cafdad9c86",
      "track_number" : 9,
      "type" : "track",
      "uri" : "spotify:track:7oKJcnHZyhFcdKWUVCC7is"
    }, {
      "album" : {
        "album_type" : "album",
        "artists" : [ {
          "external_urls" : {
            "spotify" : "https://open.spotify.com/artist/2duo4NJtUrLaI38trK0hht"
          },
          "href" : "https://api.spotify.com/v1/artists/2duo4NJtUrLaI38trK0hht",
          "id" : "2duo4NJtUrLaI38trK0hht",
          "name" : "Mormon Tabernacle Choir",
          "type" : "artist",
          "uri" : "spotify:artist:2duo4NJtUrLaI38trK0hht"
        }, {
          "external_urls" : {
            "spotify" : "https://open.spotify.com/artist/4kAIRZipPTtTbZBTudxcEA"
          },
          "href" : "https://api.spotify.com/v1/artists/4kAIRZipPTtTbZBTudxcEA",
          "id" : "4kAIRZipPTtTbZBTudxcEA",
          "name" : "Orchestra at Temple Square",
          "type" : "artist",
          "uri" : "spotify:artist:4kAIRZipPTtTbZBTudxcEA"
        } ],
        "external_urls" : {
          "spotify" : "https://open.spotify.com/album/74aMZqsjTLXepcAQDgwJck"
        },
        "href" : "https://api.spotify.com/v1/albums/74aMZqsjTLXepcAQDgwJck",
        "id" : "74aMZqsjTLXepcAQDgwJck",
        "images" : [ {
          "height" : 640,
          "url" : "https://i.scdn.co/image/ab67616d0000b2731a46fc2caf06c4ad26e34fd2",
          "width" : 640
        }, {
          "height" : 300,
          "url" : "https://i.scdn.co/image/ab67616d00001e021a46fc2caf06c4ad26e34fd2",
          "width" : 300
        }, {
          "height" : 64,
          "url" : "https://i.scdn.co/image/ab67616d000048511a46fc2caf06c4ad26e34fd2",
          "width" : 64
        } ],
        "name" : "Called to Serve",
        "release_date" : "2008-01-01",
        "release_date_precision" : "day",
        "total_tracks" : 15,
        "type" : "album",
        "uri" : "spotify:album:74aMZqsjTLXepcAQDgwJck"
      },
      "artists" : [ {
        "external_urls" : {
          "spotify" : "https://open.spotify.com/artist/2duo4NJtUrLaI38trK0hht"
        },
        "href" : "https://api.spotify.com/v1/artists/2duo4NJtUrLaI38trK0hht",
        "id" : "2duo4NJtUrLaI38trK0hht",
        "name" : "Mormon Tabernacle Choir",
        "type" : "artist",
        "uri" : "spotify:artist:2duo4NJtUrLaI38trK0hht"
      }, {
        "external_urls" : {
          "spotify" : "https://open.spotify.com/artist/4kAIRZipPTtTbZBTudxcEA"
        },
        "href" : "https://api.spotify.com/v1/artists/4kAIRZipPTtTbZBTudxcEA",
        "id" : "4kAIRZipPTtTbZBTudxcEA",
        "name" : "Orchestra at Temple Square",
        "type" : "artist",
        "uri" : "spotify:artist:4kAIRZipPTtTbZBTudxcEA"
      }, {
        "external_urls" : {
          "spotify" : "https://open.spotify.com/artist/2Zpql3RdMQjunbDKk1bIiz"
        },
        "href" : "https://api.spotify.com/v1/artists/2Zpql3RdMQjunbDKk1bIiz",
        "id" : "2Zpql3RdMQjunbDKk1bIiz",
        "name" : "Mack Wilberg",
        "type" : "artist",
        "uri" : "spotify:artist:2Zpql3RdMQjunbDKk1bIiz"
      } ],
      "disc_number" : 1,
      "duration_ms" : 276853,
      "explicit" : false,
      "external_ids" : {
        "isrc" : "US23M0800140"
      },
      "external_urls" : {
        "spotify" : "https://open.spotify.com/track/7liKAcb3PRM8HO5PbtMMgR"
      },
      "href" : "https://api.spotify.com/v1/tracks/7liKAcb3PRM8HO5PbtMMgR",
      "id" : "7liKAcb3PRM8HO5PbtMMgR",
      "is_local" : false,
      "is_playable" : true,
      "name" : "How Firm a Foundation",
      "popularity" : 21,
      "preview_url" : "https://p.scdn.co/mp3-preview/fc2d6683ea2d9ae5220ab549caef1ef8b91423f0?cid=774b29d4f13844c495f206cafdad9c86",
      "track_number" : 4,
      "type" : "track",
      "uri" : "spotify:track:7liKAcb3PRM8HO5PbtMMgR"
    }, {
      "album" : {
        "album_type" : "album",
        "artists" : [ {
          "external_urls" : {
            "spotify" : "https://open.spotify.com/artist/0HVhrcczr4gd8oNtUsTqWg"
          },
          "href" : "https://api.spotify.com/v1/artists/0HVhrcczr4gd8oNtUsTqWg",
          "id" : "0HVhrcczr4gd8oNtUsTqWg",
          "name" : "Bow and Ivory",
          "type" : "artist",
          "uri" : "spotify:artist:0HVhrcczr4gd8oNtUsTqWg"
        } ],
        "external_urls" : {
          "spotify" : "https://open.spotify.com/album/4HAaEQuEphXWQs3jGxKTvi"
        },
        "href" : "https://api.spotify.com/v1/albums/4HAaEQuEphXWQs3jGxKTvi",
        "id" : "4HAaEQuEphXWQs3jGxKTvi",
        "images" : [ {
          "height" : 640,
          "url" : "https://i.scdn.co/image/ab67616d0000b2733c766cbf257f2b8b26d975d0",
          "width" : 640
        }, {
          "height" : 300,
          "url" : "https://i.scdn.co/image/ab67616d00001e023c766cbf257f2b8b26d975d0",
          "width" : 300
        }, {
          "height" : 64,
          "url" : "https://i.scdn.co/image/ab67616d000048513c766cbf257f2b8b26d975d0",
          "width" : 64
        } ],
        "name" : "Hymns for Piano and Violin",
        "release_date" : "2017-06-03",
        "release_date_precision" : "day",
        "total_tracks" : 10,
        "type" : "album",
        "uri" : "spotify:album:4HAaEQuEphXWQs3jGxKTvi"
      },
      "artists" : [ {
        "external_urls" : {
          "spotify" : "https://open.spotify.com/artist/0HVhrcczr4gd8oNtUsTqWg"
        },
        "href" : "https://api.spotify.com/v1/artists/0HVhrcczr4gd8oNtUsTqWg",
        "id" : "0HVhrcczr4gd8oNtUsTqWg",
        "name" : "Bow and Ivory",
        "type" : "artist",
        "uri" : "spotify:artist:0HVhrcczr4gd8oNtUsTqWg"
      } ],
      "disc_number" : 1,
      "duration_ms" : 217823,
      "explicit" : false,
      "external_ids" : {
        "isrc" : "TCADC1735594"
      },
      "external_urls" : {
        "spotify" : "https://open.spotify.com/track/4J0ZVP9WhBMbup9sbrQza9"
      },
      "href" : "https://api.spotify.com/v1/tracks/4J0ZVP9WhBMbup9sbrQza9",
      "id" : "4J0ZVP9WhBMbup9sbrQza9",
      "is_local" : false,
      "is_playable" : true,
      "name" : "How Firm a Foundation",
      "popularity" : 22,
      "preview_url" : "https://p.scdn.co/mp3-preview/bf0c91a6935d4ff74180ae454980516bd58a0a2f?cid=774b29d4f13844c495f206cafdad9c86",
      "track_number" : 1,
      "type" : "track",
      "uri" : "spotify:track:4J0ZVP9WhBMbup9sbrQza9"
    }, {
      "album" : {
        "album_type" : "album",
        "artists" : [ {
          "external_urls" : {
            "spotify" : "https://open.spotify.com/artist/7dwgF5A7mYh6TXThNIETno"
          },
          "href" : "https://api.spotify.com/v1/artists/7dwgF5A7mYh6TXThNIETno",
          "id" : "7dwgF5A7mYh6TXThNIETno",
          "name" : "Salt Lake City LDS Ensemble",
          "type" : "artist",
          "uri" : "spotify:artist:7dwgF5A7mYh6TXThNIETno"
        } ],
        "external_urls" : {
          "spotify" : "https://open.spotify.com/album/7zKv0nVGjZvlzPRmhacYWl"
        },
        "href" : "https://api.spotify.com/v1/albums/7zKv0nVGjZvlzPRmhacYWl",
        "id" : "7zKv0nVGjZvlzPRmhacYWl",
        "images" : [ {
          "height" : 640,
          "url" : "https://i.scdn.co/image/ab67616d0000b273d6f99033ee9151ebf6a4db7a",
          "width" : 640
        }, {
          "height" : 300,
          "url" : "https://i.scdn.co/image/ab67616d00001e02d6f99033ee9151ebf6a4db7a",
          "width" : 300
        }, {
          "height" : 64,
          "url" : "https://i.scdn.co/image/ab67616d00004851d6f99033ee9151ebf6a4db7a",
          "width" : 64
        } ],
        "name" : "Mormon Hymns",
        "release_date" : "2015-08-16",
        "release_date_precision" : "day",
        "total_tracks" : 29,
        "type" : "album",
        "uri" : "spotify:album:7zKv0nVGjZvlzPRmhacYWl"
      },
      "artists" : [ {
        "external_urls" : {
          "spotify" : "https://open.spotify.com/artist/7dwgF5A7mYh6TXThNIETno"
        },
        "href" : "https://api.spotify.com/v1/artists/7dwgF5A7mYh6TXThNIETno",
        "id" : "7dwgF5A7mYh6TXThNIETno",
        "name" : "Salt Lake City LDS Ensemble",
        "type" : "artist",
        "uri" : "spotify:artist:7dwgF5A7mYh6TXThNIETno"
      } ],
      "disc_number" : 1,
      "duration_ms" : 103250,
      "explicit" : false,
      "external_ids" : {
        "isrc" : "USLZJ1545099"
      },
      "external_urls" : {
        "spotify" : "https://open.spotify.com/track/05TWdeTJ2WdCBCwRkgqU8P"
      },
      "href" : "https://api.spotify.com/v1/tracks/05TWdeTJ2WdCBCwRkgqU8P",
      "id" : "05TWdeTJ2WdCBCwRkgqU8P",
      "is_local" : false,
      "is_playable" : true,
      "name" : "How Firm A Foundation",
      "popularity" : 19,
      "preview_url" : "https://p.scdn.co/mp3-preview/5049293bcb5a54c2e6f42adc2cc931e6f47a8df7?cid=774b29d4f13844c495f206cafdad9c86",
      "track_number" : 9,
      "type" : "track",
      "uri" : "spotify:track:05TWdeTJ2WdCBCwRkgqU8P"
    }, {
      "album" : {
        "album_type" : "album",
        "artists" : [ {
          "external_urls" : {
            "spotify" : "https://open.spotify.com/artist/6gpOLOIn9tu4nfK52nrAIM"
          },
          "href" : "https://api.spotify.com/v1/artists/6gpOLOIn9tu4nfK52nrAIM",
          "id" : "6gpOLOIn9tu4nfK52nrAIM",
          "name" : "Zeno",
          "type" : "artist",
          "uri" : "spotify:artist:6gpOLOIn9tu4nfK52nrAIM"
        } ],
        "external_urls" : {
          "spotify" : "https://open.spotify.com/album/6MV6MlGgVD0B8722YKDav0"
        },
        "href" : "https://api.spotify.com/v1/albums/6MV6MlGgVD0B8722YKDav0",
        "id" : "6MV6MlGgVD0B8722YKDav0",
        "images" : [ {
          "height" : 640,
          "url" : "https://i.scdn.co/image/ab67616d0000b27351ee6177bc1a631c2c5402ab",
          "width" : 640
        }, {
          "height" : 300,
          "url" : "https://i.scdn.co/image/ab67616d00001e0251ee6177bc1a631c2c5402ab",
          "width" : 300
        }, {
          "height" : 64,
          "url" : "https://i.scdn.co/image/ab67616d0000485151ee6177bc1a631c2c5402ab",
          "width" : 64
        } ],
        "name" : "Fingerstyle Hymns Simple Guitar Arrangements 1",
        "release_date" : "2015-11-30",
        "release_date_precision" : "day",
        "total_tracks" : 10,
        "type" : "album",
        "uri" : "spotify:album:6MV6MlGgVD0B8722YKDav0"
      },
      "artists" : [ {
        "external_urls" : {
          "spotify" : "https://open.spotify.com/artist/6gpOLOIn9tu4nfK52nrAIM"
        },
        "href" : "https://api.spotify.com/v1/artists/6gpOLOIn9tu4nfK52nrAIM",
        "id" : "6gpOLOIn9tu4nfK52nrAIM",
        "name" : "Zeno",
        "type" : "artist",
        "uri" : "spotify:artist:6gpOLOIn9tu4nfK52nrAIM"
      } ],
      "disc_number" : 1,
      "duration_ms" : 61000,
      "explicit" : false,
      "external_ids" : {
        "isrc" : "USE831522646"
      },
      "external_urls" : {
        "spotify" : "https://open.spotify.com/track/4ECfvEL1Tky4ZHtLsrx2F1"
      },
      "href" : "https://api.spotify.com/v1/tracks/4ECfvEL1Tky4ZHtLsrx2F1",
      "id" : "4ECfvEL1Tky4ZHtLsrx2F1",
      "is_local" : false,
      "is_playable" : true,
      "name" : "How Firm A Foundation - Instrumental Guitar",
      "popularity" : 26,
      "preview_url" : "https://p.scdn.co/mp3-preview/23096a8cfd4b97cf80b7fa6a3b1dca9314c264d6?cid=774b29d4f13844c495f206cafdad9c86",
      "track_number" : 7,
      "type" : "track",
      "uri" : "spotify:track:4ECfvEL1Tky4ZHtLsrx2F1"
    } ],
    "limit" : 10,
    "next" : "https://api.spotify.com/v1/search?query=How+Firm+a+Foundation&type=track&market=US&offset=15&limit=10",
    "offset" : 5,
    "previous" : "https://api.spotify.com/v1/search?query=How+Firm+a+Foundation&type=track&market=US&offset=0&limit=10",
    "total" : 431
  }
}