{
  "tracks" : {
    "href" : "https://api.spotify.com/v1/search?query=Praise+Him%21+Praise+Him%21&type=track&market=US&offset=5&limit=10",
    "items" : [ {
      "album" : {
        "album_type" : "album",
        "artists" : [ {
          "external_urls" : {
            "spotify" : "https://open.spotify.com/artist/1qKLikeNYpQFSsDAjg7HpI"
          },
          "href" : "https://api.spotify.com/v1/artists/1qKLikeNYpQFSsDAjg7HpI",
          "id" : "1qKLikeNYpQFSsDAjg7HpI",
          "name" : "The Kiboomers",
          "type" : "artist",
          "uri" : "spotify:artist:1qKLikeNYpQFSsDAjg7HpI"
        } ],
        "external_urls" : {
          "spotify" : "https://open.spotify.com/album/5XW5tAFp0ujOQ12lVWBHvs"
        },
        "href" : "https://api.spotify.com/v1/albums/5XW5tAFp0ujOQ12lVWBHvs",
        "id" : "5XW5tAFp0ujOQ12lVWBHvs",
        "images" : [ {
          "height" : 640,
          "url" : "https://i.scdn.co/image/ab67616d0000b27384d2acc74602f52ca6608636",
          "width" : 640
        }, {
          "height" : 300,
          "url" : "https://i.scdn.co/image/ab67616d00001e0284d2acc74602f52ca6608636",
          "width" : 300
        }, {
          "height" : 64,
          "url" : "https://i.scdn.co/image/ab67616d0000485184d2acc74602f52ca6608636",
          "width" : 64
        } ],
        "name" : "Baby Christian Sleep Music - Relaxing Worship Lullabies",
        "release_date" : "2017-06-26",
        "release_date_precision" : "day",
        "total_tracks" : 20,
        "type" : "album",
        "uri" : "spotify:album:5XW5tAFp0ujOQ12lVWBHvs"
      },
      "artists" : [ {
        "external_urls" : {
          "spotify" : "https://open.spotify.com/artist/1qKLikeNYpQFSsDAjg7HpI"
        },
        "href" : "https://api.spotify.com/v1/artists/1qKLikeNYpQFSsDAjg7HpI",
        "id" : "1qKLikeNYpQFSsDAjg7HpI",
        "name" : "The Kiboomers",
        "type" : "artist",
        "uri" : "spotify:artist:1qKLikeNYpQFSsDAjg7HpI"
      } ],
      "disc_number" : 1,
      "duration_ms" : 182124,
      "explicit" : false,
      "external_ids" : {
        "isrc" : "QM6N21716089"
      },
      "external_urls" : {
        "spotify" : "https://open.spotify.com/track/14VZZ9wUVAL8rgzFyj7eNx"
      },
      "href" : "https://api.spotify.com/v1/tracks/14VZZ9wUVAL8rgzFyj7eNx",
      "id" : "14VZZ9wUVAL8rgzFyj7eNx",
      "is_local" : false,
      "is_playable" : true,
      "name" : "Praise Him, Praise Him - Music Box Lullaby and Nature Sounds",
      "popularity" : 29,
      "preview_url" : "https://p.scdn.co/mp3-preview/86329a4b452f7d0a18598a497dd8a9c8dd2fef92?cid=774b29d4f13844c495f206cafdad9c86",
      "track_number" : 15,
      "type" : "track",
      "uri" : "spotify:track:14VZZ9wUVAL8rgzFyj7eNx"
    }, {
      "album" : {
        "album_type" : "album",
        "artists" : [ {
          "external_urls" : {
            "spotify" : "https://open.spotify.com/artist/5OBtjVnJ57P1dGt7sfyYxJ"
          },
          "href" : "https://api.spotify.com/v1/artists/5OBtjVnJ57P1dGt7sfyYxJ",
          "id" : "5OBtjVnJ57P1dGt7sfyYxJ",
          "name" : "St. John's Children's Choir",
          "type" : "artist",
          "uri" : "spotify:artist:5OBtjVnJ57P1dGt7sfyYxJ"
        } ],
        "external_urls" : {
          "spotify" : "https://open.spotify.com/album/4czi23GoHQn8ed0Jupejim"
        },
        "href" : "https://api.spotify.com/v1/albums/4czi23GoHQn8ed0Jupejim",
        "id" : "4czi23GoHQn8ed0Jupejim",
        "images" : [ {
          "height" : 640,
          "url" : "https://i.scdn.co/image/ab67616d0000b273f11fcfc68c976f0b47616fa3",
          "width" : 640
        }, {
          "height" : 300,
          "url" : "https://i.scdn.co/image/ab67616d00001e02f11fcfc68c976f0b47616fa3",
          "width" : 300
        }, {
          "height" : 64,
          "url" : "https://i.scdn.co/image/ab67616d00004851f11fcfc68c976f0b47616fa3",
          "width" : 64
        } ],
        "name" : "Bible Songs for Kids, Vol. 1",
        "release_date" : "2002-01-01",
        "release_date_precision" : "day",
        "total_tracks" : 34,
        "type" : "album",
        "uri" : "spotify:album:4czi23GoHQn8ed0Jupejim"
      },
      "artists" : [ {
        "external_urls" : {
          "spotify" : "https://open.spotify.com/artist/5OBtjVnJ57P1dGt7sfyYxJ"
        },
        "href" : "https://api.spotify.com/v1/artists/5OBtjVnJ57P1dGt7sfyYxJ",
        "id" : "5OBtjVnJ57P1dGt7sfyYxJ",
        "name" : "St. John's Children's Choir",
        "type" : "artist",
        "uri" : "spotify:artist:5OBtjVnJ57P1dGt7sfyYxJ"
      } ],
      "disc_number" : 1,
      "duration_ms" : 97466,
      "explicit" : false,
      "external_ids" : {
        "isrc" : "CAM460430917"
      },
      "external_urls" : {
        "spotify" : "https://open.spotify.com/track/4BmssT5raaKii5KJFolcio"
      },
      "href" : "https://api.spotify.com/v1/tracks/4BmssT5raaKii5KJFolcio",
      "id" : "4BmssT5raaKii5KJFolcio",
      "is_local" : false,
      "is_playable" : true,
      "name" : "Praise Him, Praise Him All Ye Little Children",
      "popularity" : 23,
      "preview_url" : "https://p.scdn.co/mp3-preview/55ee0ee398b15d4b163fdc637d0206ad3c03f571?cid=774b29d4f13844c495f206cafdad9c86",
      "track_number" : 29,
      "type" : "track",
      "uri" : "spotify:track:4BmssT5raaKii5KJFolcio"
    }, {
      "album" : {
        "album_type" : "album",
        "artists" : [ {
          "external_urls" : {
            "spotify" : "https://open.spotify.com/artist/17nxEt3oZte3eUuVio6W55"
          },
          "href" : "https://api.spotify.com/v1/artists/17nxEt3oZte3eUuVio6W55",
          "id" : "17nxEt3oZte3eUuVio6W55",
          "name" : "Larry Hall",
          "type" : "artist",
          "uri" : "spotify:artist:17nxEt3oZte3eUuVio6W55"
        } ],
        "external_urls" : {
          "spotify" : "https://open.spotify.com/album/4PHRgV2VfqAIbiLZcwCntl"
        },
        "href" : "https://api.spotify.com/v1/albums/4PHRgV2VfqAIbiLZcwCntl",
        "id" : "4PHRgV2VfqAIbiLZcwCntl",
        "images" : [ {
          "height" : 640,
          "url" : "https://i.scdn.co/image/ab67616d0000b2734e8b0e0ef231b3ee09f94323",
          "width" : 640
        }, {
          "height" : 300,
          "url" : "https://i.scdn.co/image/ab67616d00001e024e8b0e0ef231b3ee09f94323",
          "width" : 300
        }, {
          "height" : 64,
          "url" : "https://i.scdn.co/image/ab67616d000048514e8b0e0ef231b3ee09f94323",
          "width" : 64
        } ],
        "name" : "Hymn Scenes",
        "release_date" : "2009-07-21",
        "release_date_precision" : "day",
        "total_tracks" : 12,
        "type" : "album",
        "uri" : "spotify:album:4PHRgV2VfqAIbiLZcwCntl"
      },
      "artists" : [ {
        "external_urls" : {
          "spotify" : "https://open.spotify.com/artist/17nxEt3oZte3eUuVio6W55"
        },
        "href" : "https://api.spotify.com/v1/artists/17nxEt3oZte3eUuVio6W55",
        "id" : "17nxEt3oZte3eUuVio6W55",
        "name" : "Larry Hall",
        "type" : "artist",
        "uri" : "spotify:artist:17nxEt3oZte3eUuVio6W55"
      } ],
      "disc_number" : 1,
      "duration_ms" : 344160,
      "explicit" : false,
      "external_ids" : {
        "isrc" : "US6BM0910146"
      },
      "external_urls" : {
        "spotify" : "https://open.spotify.com/track/6BJuYhklUr9ZtDGdtk0Trm"
      },
      "href" : "https://api.spotify.com/v1/tracks/6BJuYhklUr9ZtDGdtk0Trm",
      "id" : "6BJuYhklUr9ZtDGdtk0Trm",
      "is_local" : false,
      "is_playable" : true,
      "name" : "Praise Him, Praise Him",
      "popularity" : 17,
      "preview_url" : "https://p.scdn.co/mp3-preview/187817f5d7aa16bce8c4c69eff66185a5ad16241?cid=774b29d4f13844c495f206cafdad9c86",
      "track_number" : 7,
      "type" : "track",
      "uri" : "spotify:track:6BJuYhklUr9ZtDGdtk0Trm"
    }, {
      "album" : {
        "album_type" : "album",
        "artists" : [ {
          "external_urls" : {
            "spotify" : "https://open.spotify.com/artist/7dc9jcxR0GgRMoNasStnmZ"
          },
          "href" : "https://api.spotify.com/v1/artists/7dc9jcxR0GgRMoNasStnmZ",
          "id" : "7dc9jcxR0GgRMoNasStnmZ",
          "name" : "David Baroni",
          "type" : "artist",
          "uri" : "spotify:artist:7dc9jcxR0GgRMoNasStnmZ"
        } ],
        "external_urls" : {
          "spotify" : "https://open.spotify.com/album/08oXj679XBuPtLB8IhOQ3T"
        },
        "href" : "https://api.spotify.com/v1/albums/08oXj679XBuPtLB8IhOQ3T",
        "id" : "08oXj679XBuPtLB8IhOQ3T",
        "images" : [ {
          "height" : 640,
          "url" : "https://i.scdn.co/image/ab67616d0000b273e8c8e557d36cf3577b8937b1",
          "width" : 640
        }, {
          "height" : 300,
          "url" : "https://i.scdn.co/image/ab67616d00001e02e8c8e557d36cf3577b8937b1",
          "width" : 300
        }, {
          "height" : 64,
          "url" : "https://i.scdn.co/image/ab67616d00004851e8c8e557d36cf3577b8937b1",
          "width" : 64
        } ],
        "name" : "A Quiet Place: Instrumental Hymns, Vol. IV",
        "release_date" : "2016-01-23",
        "release_date_precision" : "day",
        "total_tracks" : 13,
        "type" : "album",
        "uri" : "spotify:album:08oXj679XBuPtLB8IhOQ3T"
      },
      "artists" : [ {
        "external_urls" : {
          "spotify" : "https://open.spotify.com/artist/7dc9jcxR0GgRMoNasStnmZ"
        },
        "href" : "https://api.spotify.com/v1/artists/7dc9jcxR0GgRMoNasStnmZ",
        "id" : "7dc9jcxR0GgRMoNasStnmZ",
        "name" : "David Baroni",
        "type" : "artist",
        "uri" : "spotify:artist:7dc9jcxR0GgRMoNasStnmZ"
      } ],
      "disc_number" : 1,
      "duration_ms" : 261540,
      "explicit" : false,
      "external_ids" : {
        "isrc" : "uscgh1632163"
      },
      "external_urls" : {
        "spotify" : "https://open.spotify.com/track/2eLcFn1CisS8MWu9Bl0MdR"
      },
      "href" : "https://api.spotify.com/v1/tracks/2eLcFn1CisS8MWu9Bl0MdR",
      "id" : "2eLcFn1CisS8MWu9Bl0MdR",
      "is_local" : false,
      "is_playable" : true,
      "name" : "Praise Him! Praise Him!",
      "popularity" : 21,
      "preview_url" : "https://p.scdn.co/mp3-preview/7928eef48741732edac7d8e3e3695b29a50ecb2e?cid=774b29d4f13844c495f206cafdad9c86",
      "track_number" : 10,
      "type" : "track",
      "uri" : "spotify:track:2eLcFn1CisS8MWu9Bl0MdR"
    }, {
      "album" : {
        "album_type" : "album",
        "artists" : [ {
          "external_urls" : {
            "spotify" : "https://open.spotify.com/artist/5Ij0tzLgKrsZjPzyUvVjey"
          },
          "href" : "https://api.spotify.com/v1/artists/5Ij0tzLgKrsZjPzyUvVjey",
          "id" : "5Ij0tzLgKrsZjPzyUvVjey",
          "name" : "The Celebration Choir",
          "type" : "artist",
          "uri" : "spotify:artist:5Ij0tzLgKrsZjPzyUvVjey"
        } ],
        "external_urls" : {
          "spotify" : "https://open.spotify.com/album/3QXYAHzTKxYMVgh1GpQwSd"
        },
        "href" : "https://api.spotify.com/v1/albums/3QXYAHzTKxYMVgh1GpQwSd",
        "id" : "3QXYAHzTKxYMVgh1GpQwSd",
        "images" : [ {
          "height" : 640,
          "url" : "https://i.scdn.co/image/ab67616d0000b2730ef6d88ac756fdde39ccaf60",
          "width" : 640
        }, {
          "height" : 300,
          "url" : "https://i.scdn.co/image/ab67616d00001e020ef6d88ac756fdde39ccaf60",
          "width" : 300
        }, {
          "height" : 64,
          "url" : "https://i.scdn.co/image/ab67616d000048510ef6d88ac756fdde39ccaf60",
          "width" : 64
        } ],
        "name" : "The Hymn Makers: Fanny Crosby (Blessed Assurance)",
        "release_date" : "1995",
        "release_date_precision" : "year",
        "total_tracks" : 14,
        "type" : "album",
        "uri" : "spotify:album:3QXYAHzTKxYMVgh1GpQwSd"
      },
      "artists" : [ {
        "external_urls" : {
          "spotify" : "https://open.spotify.com/artist/5Ij0tzLgKrsZjPzyUvVjey"
        },
        "href" : "https://api.spotify.com/v1/artists/5Ij0tzLgKrsZjPzyUvVjey",
        "id" : "5Ij0tzLgKrsZjPzyUvVjey",
        "name" : "The Celebration Choir",
        "type" : "artist",
        "uri" : "spotify:artist:5Ij0tzLgKrsZjPzyUvVjey"
      } ],
      "disc_number" : 1,
      "duration_ms" : 196800,
      "explicit" : false,
      "external_ids" : {
        "isrc" : "GBBTM9576708"
      },
      "external_urls" : {
        "spotify" : "https://open.spotify.com/track/2T4jJVKdlRllX7LhaXWbB0"
      },
      "href" : "https://api.spotify.com/v1/tracks/2T4jJVKdlRllX7LhaXWbB0",
      "id" : "2T4jJVKdlRllX7LhaXWbB0",
      "is_local" : false,
      "is_playable" : true,
      "name" : "Praise Him, Praise Him!",
      "popularity" : 17,
      "preview_url" : "https://p.scdn.co/mp3-preview/f3abdd14f14dc72baef342af943ae889ba233164?cid=774b29d4f13844c495f206cafdad9c86",
      "track_number" : 8,
      "type" : "track",
      "uri" : "spotify:track:2T4jJVKdlRllX7LhaXWbB0"
    }, {
      "album" : {
        "album_type" : "album",
        "artists" : [ {
          "external_urls" : {
            "spotify" : "https://open.spotify.com/artist/0MCU2OpgnSB7rm5UPUMHgt"
          },
          "href" : "https://api.spotify.com/v1/artists/0MCU2OpgnSB7rm5UPUMHgt",
          "id" : "0MCU2OpgnSB7rm5UPUMHgt",
          "name" : "Cedarmont Kids",
          "type" : "artist",
          "uri" : "spotify:artist:0MCU2OpgnSB7rm5UPUMHgt"
        } ],
        "external_urls" : {
          "spotify" : "https://open.spotify.com/album/5TTqr5vik8DK5RwVbS82QJ"
        },
        "href" : "https://api.spotify.com/v1/albums/5TTqr5vik8DK5RwVbS82QJ",
        "id" : "5TTqr5vik8DK5RwVbS82QJ",
        "images" : [ {
          "height" : 640,
          "url" : "https://i.scdn.co/image/ab67616d0000b2732a77c12234cb5e27a317f27e",
          "width" : 640
        }, {
          "height" : 300,
          "url" : "https://i.scdn.co/image/ab67616d00001e022a77c12234cb5e27a317f27e",
          "width" : 300
        }, {
          "height" : 64,
          "url" : "https://i.scdn.co/image/ab67616d000048512a77c12234cb5e27a317f27e",
          "width" : 64
        } ],
        "name" : "Toddler Bible Songs",
        "release_date" : "2002-09-24",
        "release_date_precision" : "day",
        "total_tracks" : 44,
        "type" : "album",
        "uri" : "spotify:album:5TTqr5vik8DK5RwVbS82QJ"
      },
      "artists" : [ {
        "external_urls" : {
          "spotify" : "https://open.spotify.com/artist/0MCU2OpgnSB7rm5UPUMHgt"
        },
        "href" : "https://api.spotify.com/v1/artists/0MCU2OpgnSB7rm5UPUMHgt",
        "id" : "0MCU2OpgnSB7rm5UPUMHgt",
        "name" : "Cedarmont Kids",
        "type" : "artist",
        "uri" : "spotify:artist:0MCU2OpgnSB7rm5UPUMHgt"
      } ],
      "disc_number" : 1,
      "duration_ms" : 128733,
      "explicit" : false,
      "external_ids" : {
        "isrc" : "USA5W0400217"
      },
      "external_urls" : {
        "spotify" : "https://open.spotify.com/track/3fN9Bst9Z6bchVPLGkVY5b"
      },
      "href" : "https://api.spotify.com/v1/tracks/3fN9Bst9Z6bchVPLGkVY5b",
      "id" : "3fN9Bst9Z6bchVPLGkVY5b",
      "is_local" : false,
      "is_playable" : true,
      "name" : "Medley: Jesus Loves The Little Children/Praise Him, Praise Him/Jesus Loves Me",
      "popularity" : 22,
      "preview_url" : "https://p.scdn.co/mp3-preview/d8a91ef8302760254054117cd6b833648b230416?cid=774b29d4f13844c495f206cafdad9c86",
      "track_number" : 14,
      "type" : "track",
      "uri" : "spotify:track:3fN9Bst9Z6bchVPLGkVY5b"
    }, {
      "album" : {
        "album_type" : "album",
        "artists" : [ {
          "external_urls" : {
            "spotify" : "https://open.spotify.com/artist/5r0KYGxdIZEHZ6z6XbkVbo"
          },
          "href" : "https://api.spotify.com/v1/artists/5r0KYGxdIZEHZ6z6XbkVbo",
          "id" : "5r0KYGxdIZEHZ6z6XbkVbo",
          "name" : "Marvin Sapp",
          "type" : "artist",
          "uri" : "spotify:artist:5r0KYGxdIZEHZ6z6XbkVbo"
        } ],
        "external_urls" : {
          "spotify" : "https://open.spotify.com/album/04IAkH0X6ZDu6T35zD8KQy"
        },
        "href" : "https://api.spotify.com/v1/albums/04IAkH0X6ZDu6T35zD8KQy",
        "id" : "04IAkH0X6ZDu6T35zD8KQy",
        "images" : [ {
          "height" : 640,
          "url" : "https://i.scdn.co/image/ab67616d0000b2735f38cfcd2dbdfea59b36cd4d",
          "width" : 640
        }, {
          "height" : 300,
          "url" : "https://i.scdn.co/image/ab67616d00001e025f38cfcd2dbdfea59b36cd4d",
          "width" : 300
        }, {
          "height" : 64,
          "url" : "https://i.scdn.co/image/ab67616d000048515f38cfcd2dbdfea59b36cd4d",
          "width" : 64
        } ],
        "name" : "Thirsty",
        "release_date" : "2007-07-03",
        "release_date_precision" : "day",
        "total_tracks" : 13,
        "type" : "album",
        "uri" : "spotify:album:04IAkH0X6ZDu6T35zD8KQy"
      },
      "artists" : [ {
        "external_urls" : {
          "spotify" : "https://open.spotify.com/artist/5r0KYGxdIZEHZ6z6XbkVbo"
        },
        "href" : "https://api.spotify.com/v1/artists/5r0KYGxdIZEHZ6z6XbkVbo",
        "id" : "5r0KYGxdIZEHZ6z6XbkVbo",
        "name" : "Marvin Sapp",
        "type" : "artist",
        "uri" : "spotify:artist:5r0KYGxdIZEHZ6z6XbkVbo"
      } ],
      "disc_number" : 1,
      "duration_ms" : 325973,
      "explicit" : false,
      "external_ids" : {
        "isrc" : "USVE20700053"
      },
      "external_urls" : {
        "spotify" : "https://open.spotify.com/track/3fJ1I1XNSSs7BcLkOxSCUp"
      },
      "href" : "https://api.spotify.com/v1/tracks/3fJ1I1XNSSs7BcLkOxSCUp",
      "id" : "3fJ1I1XNSSs7BcLkOxSCUp",
      "is_local" : false,
      "is_playable" : true,
      "name" : "Praise Him In Advance",
      "popularity" : 52,
      "preview_url" : "https://p.scdn.co/mp3-preview/813152bc8d2a97c4c24a4d4b514e68a8ffa0c20c?cid=774b29d4f13844c495f206cafdad9c86",
      "track_number" : 6,
      "type" : "track",
      "uri" : "spotify:track:3fJ1I1XNSSs7BcLkOxSCUp"
    }, {
      "album" : {
        "album_type" : "album",
        "artists" : [ {
          "external_urls" : {
            "spotify" : "https://open.spotify.com/artist/7DhP3bGT7dzr1dCkkH5mTS"
          },
          "href" : "https://api.spotify.com/v1/artists/7DhP3bGT7dzr1dCkkH5mTS",
          "id" : "7DhP3bGT7dzr1dCkkH5mTS",
          "name" : "David Crowder Band",
          "type" : "artist",
          "uri" : "spotify:artist:7DhP3bGT7dzr1dCkkH5mTS"
        } ],
        "external_urls" : {
          "spotify" : "https://open.spotify.com/album/1YWOoJNdvfCfQXaSSzYTVd"
        },
        "href" : "https://api.spotify.com/v1/albums/1YWOoJNdvfCfQXaSSzYTVd",
        "id" : "1YWOoJNdvfCfQXaSSzYTVd",
        "images" : [ {
          "height" : 640,
          "url" : "https://i.scdn.co/image/ab67616d0000b27328ae1582b7220a38e62f001a",
          "width" : 640
        }, {
          "height" : 300,
          "url" : "https://i.scdn.co/image/ab67616d00001e0228ae1582b7220a38e62f001a",
          "width" : 300
        }, {
          "height" : 64,
          "url" : "https://i.scdn.co/image/ab67616d0000485128ae1582b7220a38e62f001a",
          "width" : 64
        } ],
        "name" : "Illuminate",
        "release_date" : "2003-01-01",
        "release_date_precision" : "day",
        "total_tracks" : 16,
        "type" : "album",
        "uri" : "spotify:album:1YWOoJNdvfCfQXaSSzYTVd"
      },
      "artists" : [ {
        "external_urls" : {
          "spotify" : "https://open.spotify.com/artist/7DhP3bGT7dzr1dCkkH5mTS"
        },
        "href" : "https://api.spotify.com/v1/artists/7DhP3bGT7dzr1dCkkH5mTS",
        "id" : "7DhP3bGT7dzr1dCkkH5mTS",
        "name" : "David Crowder Band",
        "type" : "artist",
        "uri" : "spotify:artist:7DhP3bGT7dzr1dCkkH5mTS"
      } ],
      "disc_number" : 1,
      "duration_ms" : 348400,
      "explicit" : false,
      "external_ids" : {
        "isrc" : "USSP30320489"
      },
      "external_urls" : {
        "spotify" : "https://open.spotify.com/track/2iFqa5oxkAE3eJor4tVE8v"
      },
      "href" : "https://api.spotify.com/v1/tracks/2iFqa5oxkAE3eJor4tVE8v",
      "id" : "2iFqa5oxkAE3eJor4tVE8v",
      "is_local" : false,
      "is_playable" : true,
      "name" : "O Praise Him (All This For A King)",
      "popularity" : 42,
      "preview_url" : null,
      "track_number" : 3,
      "type" : "track",
      "uri" : "spotify:track:2iFqa5oxkAE3eJor4tVE8v"
    }, {
      "album" : {
        "album_type" : "album",
        "artists" : [ {
          "external_urls" : {
            "spotify" : "https://open.spotify.com/artist/16QSVsPKl743hu4U5C18R8"
          },
          "href" : "https://api.spotify.com/v1/artists/16QSVsPKl743hu4U5C18R8",
          "id" : "16QSVsPKl743hu4U5C18R8",
          "name" : "Josh Garrels",
          "type" : "artist",
          "uri" : "spotify:artist:16QSVsPKl743hu4U5C18R8"
        } ],
        "external_urls" : {
          "spotify" : "https://open.spotify.com/album/4nB0hSgVRau0z3smGvzqfA"
        },
        "href" : "https://api.spotify.com/v1/albums/4nB0hSgVRau0z3smGvzqfA",
        "id" : "4nB0hSgVRau0z3smGvzqfA",
        "images" : [ {
          "height" : 640,
          "url" : "https://i.scdn.co/image/ab67616d0000b273b7f0ab81bc4fe35d7ff60947",
          "width" : 640
        }, {
          "height" : 300,
          "url" : "https://i.scdn.co/image/ab67616d00001e02b7f0ab81bc4fe35d7ff60947",
          "width" : 300
        }, {
          "height" : 64,
          "url" : "https://i.scdn.co/image/ab67616d00004851b7f0ab81bc4fe35d7ff60947",
          "width" : 64
        } ],
        "name" : "Chrysaline",
        "release_date" : "2019-08-09",
        "release_date_precision" : "day",
        "total_tracks" : 15,
        "type" : "album",
        "uri" : "spotify:album:4nB0hSgVRau0z3smGvzqfA"
      },
      "artists" : [ {
        "external_urls" : {
          "spotify" : "https://open.spotify.com/artist/16QSVsPKl743hu4U5C18R8"
        },
        "href" : "https://api.spotify.com/v1/artists/16QSVsPKl743hu4U5C18R8",
        "id" : "16QSVsPKl743hu4U5C18R8",
        "name" : "Josh Garrels",
        "type" : "artist",
        "uri" : "spotify:artist:16QSVsPKl743hu4U5C18R8"
      }, {
        "external_urls" : {
          "spotify" : "https://open.spotify.com/artist/0iskZoN6TBUm6YYDHzZ6r8"
        },
        "href" : "https://api.spotify.com/v1/artists/0iskZoN6TBUm6YYDHzZ6r8",
        "id" : "0iskZoN6TBUm6YYDHzZ6r8",
        "name" : "Songs Of Water",
        "type" : "artist",
        "uri" : "spotify:artist:0iskZoN6TBUm6YYDHzZ6r8"
      } ],
      "disc_number" : 1,
      "duration_ms" : 232374,
      "explicit" : false,
      "external_ids" : {
        "isrc" : "ushm21983702"
      },
      "external_urls" : {
        "spotify" : "https://open.spotify.com/track/5v9gTAyQ8thpZ6j3F0aeub"
      },
      "href" : "https://api.spotify.com/v1/tracks/5v9gTAyQ8thpZ6j3F0aeub",
      "id" : "5v9gTAyQ8thpZ6j3F0aeub",
      "is_local" : false,
      "is_playable" : true,
      "name" : "Praise Him",
      "popularity" : 42,
      "preview_url" : "https://p.scdn.co/mp3-preview/e48ed3def4f50051e3de3bafc147825255e86359?cid=774b29d4f13844c495f206cafdad9c86",
      "track_number" : 8,
      "type" : "track",
      "uri" : "spotify:track:5v9gTAyQ8thpZ6j3F0aeub"
    }, {
      "album" : {
        "album_type" : "album",
        "artists" : [ {
          "external_urls" : {
            "spotify" : "https://open.spotify.com/artist/6piIAIurGAryW5h1rqQC16"
          },
          "href" : "https://api.spotify.com/v1/artists/6piIAIurGAryW5h1rqQC16",
          "id" : "6piIAIurGAryW5h1rqQC16",
          "name" : "Passion",
          "type" : "artist",
          "uri" : "spotify:artist:6piIAIurGAryW5h1rqQC16"
        } ],
        "external_urls" : {
          "spotify" : "https://open.spotify.com/album/3TlEGcbneZP4tE2V0dn1em"
        },
        "href" : "https://api.spotify.com/v1/albums/3TlEGcbneZP4tE2V0dn1em",
        "id" : "3TlEGcbneZP4tE2V0dn1em",
        "images" : [ {
          "height" : 640,
          "url" : "https://i.scdn.co/image/ab67616d0000b2732854491e3ccca2d6b373e3ae",
          "width" : 640
        }, {
          "height" : 300,
          "url" : "https://i.scdn.co/image/ab67616d00001e022854491e3ccca2d6b373e3ae",
          "width" : 300
        }, {
          "height" : 64,
          "url" : "https://i.scdn.co/image/ab67616d000048512854491e3ccca2d6b373e3ae",
          "width" : 64
        } ],
        "name" : "Roar (Live From Passion 2020)",
        "release_date" : "2020-03-06",
        "release_date_precision" : "day",
        "total_tracks" : 12,
        "type" : "album",
        "uri" : "spotify:album:3TlEGcbneZP4tE2V0dn1em"
      },
      "artists" : [ {
        "external_urls" : {
          "spotify" : "https://open.spotify.com/artist/6piIAIurGAryW5h1rqQC16"
        },
        "href" : "https://api.spotify.com/v1/artists/6piIAIurGAryW5h1rqQC16",
        "id" : "6piIAIurGAryW5h1rqQC16",
        "name" : "Passion",
        "type" : "artist",
        "uri" : "spotify:artist:6piIAIurGAryW5h1rqQC16"
      }, {
        "external_urls" : {
          "spotify" : "https://open.spotify.com/artist/0ex9uIrMyFOJ64RCl0yuB3"
        },
        "href" : "https://api.spotify.com/v1/artists/0ex9uIrMyFOJ64RCl0yuB3",
        "id" : "0ex9uIrMyFOJ64RCl0yuB3",
        "name" : "Melodie Malone",
        "type" : "artist",
        "uri" : "spotify:artist:0ex9uIrMyFOJ64RCl0yuB3"
      } ],
      "disc_number" : 1,
      "duration_ms" : 323381,
      "explicit" : false,
      "external_ids" : {
        "isrc" : "USUM72002867"
      },
      "external_urls" : {
        "spotify" : "https://open.spotify.com/track/7k8rHM3tyEEOmKORldi4sI"
      },
      "href" : "https://api.spotify.com/v1/tracks/7k8rHM3tyEEOmKORldi4sI",
      "id" : "7k8rHM3tyEEOmKORldi4sI",
      "is_local" : false,
      "is_playable" : true,
      "name" : "Praise Him - Live From Passion 2020",
      "popularity" : 41,
      "preview_url" : null,
      "track_number" : 7,
      "type" : "track",
      "uri" : "spotify:track:7k8rHM3tyEEOmKORldi4sI"
    } ],
    "limit" : 10,
    "next" : "https://api.spotify.com/v1/search?query=Praise+Him%21+Praise+Him%21&type=track&market=US&offset=15&limit=10",
    "offset" : 5,
    "previous" : "https://api.spotify.com/v1/search?query=Praise+Him%21+Praise+Him%21&type=track&market=US&offset=0&limit=10",
    "total" : 6488
  }
}