{
  "tracks" : {
    "href" : "https://api.spotify.com/v1/search?query=Lift+Up+Your+Heads&type=track&market=US&offset=5&limit=10",
    "items" : [ {
      "album" : {
        "album_type" : "album",
        "artists" : [ {
          "external_urls" : {
            "spotify" : "https://open.spotify.com/artist/2QA4wAiQbu9hqN5lq2oVdg"
          },
          "href" : "https://api.spotify.com/v1/artists/2QA4wAiQbu9hqN5lq2oVdg",
          "id" : "2QA4wAiQbu9hqN5lq2oVdg",
          "name" : "Kent Henry",
          "type" : "artist",
          "uri" : "spotify:artist:2QA4wAiQbu9hqN5lq2oVdg"
        }, {
          "external_urls" : {
            "spotify" : "https://open.spotify.com/artist/72iDlGYfVrntfpKzmAv0Hn"
          },
          "href" : "https://api.spotify.com/v1/artists/72iDlGYfVrntfpKzmAv0Hn",
          "id" : "72iDlGYfVrntfpKzmAv0Hn",
          "name" : "Integrity's Hosanna! Music",
          "type" : "artist",
          "uri" : "spotify:artist:72iDlGYfVrntfpKzmAv0Hn"
        } ],
        "external_urls" : {
          "spotify" : "https://open.spotify.com/album/6tqCZ64j3jGFB5K6Xd7oRO"
        },
        "href" : "https://api.spotify.com/v1/albums/6tqCZ64j3jGFB5K6Xd7oRO",
        "id" : "6tqCZ64j3jGFB5K6Xd7oRO",
        "images" : [ {
          "height" : 640,
          "url" : "https://i.scdn.co/image/ab67616d0000b2738aac6cf2bbc4f24b79fcc869",
          "width" : 640
        }, {
          "height" : 300,
          "url" : "https://i.scdn.co/image/ab67616d00001e028aac6cf2bbc4f24b79fcc869",
          "width" : 300
        }, {
          "height" : 64,
          "url" : "https://i.scdn.co/image/ab67616d000048518aac6cf2bbc4f24b79fcc869",
          "width" : 64
        } ],
        "name" : "All Hail King Jesus",
        "release_date" : "1985-01-01",
        "release_date_precision" : "day",
        "total_tracks" : 17,
        "type" : "album",
        "uri" : "spotify:album:6tqCZ64j3jGFB5K6Xd7oRO"
      },
      "artists" : [ {
        "external_urls" : {
          "spotify" : "https://open.spotify.com/artist/2QA4wAiQbu9hqN5lq2oVdg"
        },
        "href" : "https://api.spotify.com/v1/artists/2QA4wAiQbu9hqN5lq2oVdg",
        "id" : "2QA4wAiQbu9hqN5lq2oVdg",
        "name" : "Kent Henry",
        "type" : "artist",
        "uri" : "spotify:artist:2QA4wAiQbu9hqN5lq2oVdg"
      }, {
        "external_urls" : {
          "spotify" : "https://open.spotify.com/artist/72iDlGYfVrntfpKzmAv0Hn"
        },
        "href" : "https://api.spotify.com/v1/artists/72iDlGYfVrntfpKzmAv0Hn",
        "id" : "72iDlGYfVrntfpKzmAv0Hn",
        "name" : "Integrity's Hosanna! Music",
        "type" : "artist",
        "uri" : "spotify:artist:72iDlGYfVrntfpKzmAv0Hn"
      } ],
      "disc_number" : 1,
      "duration_ms" : 129466,
      "explicit" : false,
      "external_ids" : {
        "isrc" : "US25L0700696"
      },
      "external_urls" : {
        "spotify" : "https://open.spotify.com/track/26defrz3M8kRx6niVnqUue"
      },
      "href" : "https://api.spotify.com/v1/tracks/26defrz3M8kRx6niVnqUue",
      "id" : "26defrz3M8kRx6niVnqUue",
      "is_local" : false,
      "is_playable" : true,
      "name" : "Lift Up Your Heads",
      "popularity" : 15,
      "preview_url" : "https://p.scdn.co/mp3-preview/e38b7818bd9dbb71d7b6c86a1cb8fd05ac0a909d?cid=774b29d4f13844c495f206cafdad9c86",
      "track_number" : 12,
      "type" : "track",
      "uri" : "spotify:track:26defrz3M8kRx6niVnqUue"
    }, {
      "album" : {
        "album_type" : "album",
        "artists" : [ {
          "external_urls" : {
            "spotify" : "https://open.spotify.com/artist/4MXUO7sVCaFgFjoTI5ox5c"
          },
          "href" : "https://api.spotify.com/v1/artists/4MXUO7sVCaFgFjoTI5ox5c",
          "id" : "4MXUO7sVCaFgFjoTI5ox5c",
          "name" : "Sufjan Stevens",
          "type" : "artist",
          "uri" : "spotify:artist:4MXUO7sVCaFgFjoTI5ox5c"
        } ],
        "external_urls" : {
          "spotify" : "https://open.spotify.com/album/0AVvBrOZ4Hy3yCW8SguJLy"
        },
        "href" : "https://api.spotify.com/v1/albums/0AVvBrOZ4Hy3yCW8SguJLy",
        "id" : "0AVvBrOZ4Hy3yCW8SguJLy",
        "images" : [ {
          "height" : 640,
          "url" : "https://i.scdn.co/image/ab67616d0000b273cec0767c5c65a58b1a97eb7f",
          "width" : 640
        }, {
          "height" : 300,
          "url" : "https://i.scdn.co/image/ab67616d00001e02cec0767c5c65a58b1a97eb7f",
          "width" : 300
        }, {
          "height" : 64,
          "url" : "https://i.scdn.co/image/ab67616d00004851cec0767c5c65a58b1a97eb7f",
          "width" : 64
        } ],
        "name" : "Silver & Gold",
        "release_date" : "2012-11-13",
        "release_date_precision" : "day",
        "total_tracks" : 58,
        "type" : "album",
        "uri" : "spotify:album:0AVvBrOZ4Hy3yCW8SguJLy"
      },
      "artists" : [ {
        "external_urls" : {
          "spotify" : "https://open.spotify.com/artist/4MXUO7sVCaFgFjoTI5ox5c"
        },
        "href" : "https://api.spotify.com/v1/artists/4MXUO7sVCaFgFjoTI5ox5c",
        "id" : "4MXUO7sVCaFgFjoTI5ox5c",
        "name" : "Sufjan Stevens",
        "type" : "artist",
        "uri" : "spotify:artist:4MXUO7sVCaFgFjoTI5ox5c"
      } ],
      "disc_number" : 2,
      "duration_ms" : 80120,
      "explicit" : false,
      "external_ids" : {
        "isrc" : "US64G1210015"
      },
      "external_urls" : {
        "spotify" : "https://open.spotify.com/track/5AiuhlIQV0j34ZN6RGLPdc"
      },
      "href" : "https://api.spotify.com/v1/tracks/5AiuhlIQV0j34ZN6RGLPdc",
      "id" : "5AiuhlIQV0j34ZN6RGLPdc",
      "is_local" : false,
      "is_playable" : true,
      "name" : "Lift Up Your Heads Ye Mighty Gates",
      "popularity" : 15,
      "preview_url" : "https://p.scdn.co/mp3-preview/1d3a95a49355ff0234dd68cf03ad566d1da76413?cid=774b29d4f13844c495f206cafdad9c86",
      "track_number" : 7,
      "type" : "track",
      "uri" : "spotify:track:5AiuhlIQV0j34ZN6RGLPdc"
    }, {
      "album" : {
        "album_type" : "album",
        "artists" : [ {
          "external_urls" : {
            "spotify" : "https://open.spotify.com/artist/5WglKKRgHpAp0K1wvW2dVI"
          },
          "href" : "https://api.spotify.com/v1/artists/5WglKKRgHpAp0K1wvW2dVI",
          "id" : "5WglKKRgHpAp0K1wvW2dVI",
          "name" : "Preashea Hilliard",
          "type" : "artist",
          "uri" : "spotify:artist:5WglKKRgHpAp0K1wvW2dVI"
        } ],
        "external_urls" : {
          "spotify" : "https://open.spotify.com/album/5jabxKBPvEXARWeXQF2Udv"
        },
        "href" : "https://api.spotify.com/v1/albums/5jabxKBPvEXARWeXQF2Udv",
        "id" : "5jabxKBPvEXARWeXQF2Udv",
        "images" : [ {
          "height" : 640,
          "url" : "https://i.scdn.co/image/ab67616d0000b27373a5f532d4addc0214f1de96",
          "width" : 640
        }, {
          "height" : 300,
          "url" : "https://i.scdn.co/image/ab67616d00001e0273a5f532d4addc0214f1de96",
          "width" : 300
        }, {
          "height" : 64,
          "url" : "https://i.scdn.co/image/ab67616d0000485173a5f532d4addc0214f1de96",
          "width" : 64
        } ],
        "name" : "Live out Loud",
        "release_date" : "2010-11-04",
        "release_date_precision" : "day",
        "total_tracks" : 13,
        "type" : "album",
        "uri" : "spotify:album:5jabxKBPvEXARWeXQF2Udv"
      },
      "artists" : [ {
        "external_urls" : {
          "spotify" : "https://open.spotify.com/artist/5WglKKRgHpAp0K1wvW2dVI"
        },
        "href" : "https://api.spotify.com/v1/artists/5WglKKRgHpAp0K1wvW2dVI",
        "id" : "5WglKKRgHpAp0K1wvW2dVI",
        "name" : "Preashea Hilliard",
        "type" : "artist",
        "uri" : "spotify:artist:5WglKKRgHpAp0K1wvW2dVI"
      } ],
      "disc_number" : 1,
      "duration_ms" : 319569,
      "explicit" : false,
      "external_ids" : {
        "isrc" : "USW7G1000002"
      },
      "external_urls" : {
        "spotify" : "https://open.spotify.com/track/3CiiHB7C2k3ne45CRlvBGW"
      },
      "href" : "https://api.spotify.com/v1/tracks/3CiiHB7C2k3ne45CRlvBGW",
      "id" : "3CiiHB7C2k3ne45CRlvBGW",
      "is_local" : false,
      "is_playable" : true,
      "name" : "Lift Up Your Heads",
      "popularity" : 11,
      "preview_url" : "https://p.scdn.co/mp3-preview/d6602b52bfdc28429989812f13337e19fbd064f1?cid=774b29d4f13844c495f206cafdad9c86",
      "track_number" : 2,
      "type" : "track",
      "uri" : "spotify:track:3CiiHB7C2k3ne45CRlvBGW"
    }, {
      "album" : {
        "album_type" : "album",
        "artists" : [ {
          "external_urls" : {
            "spotify" : "https://open.spotify.com/artist/3wHqDK1ZjeMWN2nlcKR7ju"
          },
          "href" : "https://api.spotify.com/v1/artists/3wHqDK1ZjeMWN2nlcKR7ju",
          "id" : "3wHqDK1ZjeMWN2nlcKR7ju",
          "name" : "New G (The New Generation Chorale)",
          "type" : "artist",
          "uri" : "spotify:artist:3wHqDK1ZjeMWN2nlcKR7ju"
        }, {
          "external_urls" : {
            "spotify" : "https://open.spotify.com/artist/3EDwVZensg15abkTt5zfTM"
          },
          "href" : "https://api.spotify.com/v1/artists/3EDwVZensg15abkTt5zfTM",
          "id" : "3EDwVZensg15abkTt5zfTM",
          "name" : "Ricky Dillard",
          "type" : "artist",
          "uri" : "spotify:artist:3EDwVZensg15abkTt5zfTM"
        } ],
        "external_urls" : {
          "spotify" : "https://open.spotify.com/album/1H1auMQcEnYj8TqYKnJsNm"
        },
        "href" : "https://api.spotify.com/v1/albums/1H1auMQcEnYj8TqYKnJsNm",
        "id" : "1H1auMQcEnYj8TqYKnJsNm",
        "images" : [ {
          "height" : 640,
          "url" : "https://i.scdn.co/image/ab67616d0000b2730ccfd4c595a0267b43ae491f",
          "width" : 640
        }, {
          "height" : 300,
          "url" : "https://i.scdn.co/image/ab67616d00001e020ccfd4c595a0267b43ae491f",
          "width" : 300
        }, {
          "height" : 64,
          "url" : "https://i.scdn.co/image/ab67616d000048510ccfd4c595a0267b43ae491f",
          "width" : 64
        } ],
        "name" : "Worked It Out",
        "release_date" : "1996-09-19",
        "release_date_precision" : "day",
        "total_tracks" : 13,
        "type" : "album",
        "uri" : "spotify:album:1H1auMQcEnYj8TqYKnJsNm"
      },
      "artists" : [ {
        "external_urls" : {
          "spotify" : "https://open.spotify.com/artist/3wHqDK1ZjeMWN2nlcKR7ju"
        },
        "href" : "https://api.spotify.com/v1/artists/3wHqDK1ZjeMWN2nlcKR7ju",
        "id" : "3wHqDK1ZjeMWN2nlcKR7ju",
        "name" : "New G (The New Generation Chorale)",
        "type" : "artist",
        "uri" : "spotify:artist:3wHqDK1ZjeMWN2nlcKR7ju"
      }, {
        "external_urls" : {
          "spotify" : "https://open.spotify.com/artist/3EDwVZensg15abkTt5zfTM"
        },
        "href" : "https://api.spotify.com/v1/artists/3EDwVZensg15abkTt5zfTM",
        "id" : "3EDwVZensg15abkTt5zfTM",
        "name" : "Ricky Dillard",
        "type" : "artist",
        "uri" : "spotify:artist:3EDwVZensg15abkTt5zfTM"
      } ],
      "disc_number" : 1,
      "duration_ms" : 248666,
      "explicit" : false,
      "external_ids" : {
        "isrc" : "USCR89612913"
      },
      "external_urls" : {
        "spotify" : "https://open.spotify.com/track/1SNREWJkQmXaHqZm4kyWHU"
      },
      "href" : "https://api.spotify.com/v1/tracks/1SNREWJkQmXaHqZm4kyWHU",
      "id" : "1SNREWJkQmXaHqZm4kyWHU",
      "is_local" : false,
      "is_playable" : true,
      "name" : "Lift Up Your Heads",
      "popularity" : 8,
      "preview_url" : "https://p.scdn.co/mp3-preview/38c9041f87fb14ca211cec863442f8e247e214e0?cid=774b29d4f13844c495f206cafdad9c86",
      "track_number" : 13,
      "type" : "track",
      "uri" : "spotify:track:1SNREWJkQmXaHqZm4kyWHU"
    }, {
      "album" : {
        "album_type" : "album",
        "artists" : [ {
          "external_urls" : {
            "spotify" : "https://open.spotify.com/artist/70T4ckh7hE9UKACoT9bHuw"
          },
          "href" : "https://api.spotify.com/v1/artists/70T4ckh7hE9UKACoT9bHuw",
          "id" : "70T4ckh7hE9UKACoT9bHuw",
          "name" : "Congregation Shemen Sasson",
          "type" : "artist",
          "uri" : "spotify:artist:70T4ckh7hE9UKACoT9bHuw"
        } ],
        "external_urls" : {
          "spotify" : "https://open.spotify.com/album/1X1QUrLBHCD3tnWXmOpXBx"
        },
        "href" : "https://api.spotify.com/v1/albums/1X1QUrLBHCD3tnWXmOpXBx",
        "id" : "1X1QUrLBHCD3tnWXmOpXBx",
        "images" : [ {
          "height" : 640,
          "url" : "https://i.scdn.co/image/ab67616d0000b2738bae1caa12a699f1d436a691",
          "width" : 640
        }, {
          "height" : 300,
          "url" : "https://i.scdn.co/image/ab67616d00001e028bae1caa12a699f1d436a691",
          "width" : 300
        }, {
          "height" : 64,
          "url" : "https://i.scdn.co/image/ab67616d000048518bae1caa12a699f1d436a691",
          "width" : 64
        } ],
        "name" : "Yigdal Adonai - יגדל אדוני (feat. Sheli Myers)",
        "release_date" : "2013-01-21",
        "release_date_precision" : "day",
        "total_tracks" : 13,
        "type" : "album",
        "uri" : "spotify:album:1X1QUrLBHCD3tnWXmOpXBx"
      },
      "artists" : [ {
        "external_urls" : {
          "spotify" : "https://open.spotify.com/artist/70T4ckh7hE9UKACoT9bHuw"
        },
        "href" : "https://api.spotify.com/v1/artists/70T4ckh7hE9UKACoT9bHuw",
        "id" : "70T4ckh7hE9UKACoT9bHuw",
        "name" : "Congregation Shemen Sasson",
        "type" : "artist",
        "uri" : "spotify:artist:70T4ckh7hE9UKACoT9bHuw"
      } ],
      "disc_number" : 1,
      "duration_ms" : 354576,
      "explicit" : false,
      "external_ids" : {
        "isrc" : "TCABL1371261"
      },
      "external_urls" : {
        "spotify" : "https://open.spotify.com/track/3flhhmxz9UeOVEfqbb5hNK"
      },
      "href" : "https://api.spotify.com/v1/tracks/3flhhmxz9UeOVEfqbb5hNK",
      "id" : "3flhhmxz9UeOVEfqbb5hNK",
      "is_local" : false,
      "is_playable" : true,
      "name" : "Seu Shearim - Lift up Your Heads - שאו שערים",
      "popularity" : 15,
      "preview_url" : "https://p.scdn.co/mp3-preview/e8f845f9d7920a2f80f8885d26aca08982adcbeb?cid=774b29d4f13844c495f206cafdad9c86",
      "track_number" : 6,
      "type" : "track",
      "uri" : "spotify:track:3flhhmxz9UeOVEfqbb5hNK"
    }, {
      "album" : {
        "album_type" : "album",
        "artists" : [ {
          "external_urls" : {
            "spotify" : "https://open.spotify.com/artist/5ljRAiIgLFVxzWg7vS1Rnl"
          },
          "href" : "https://api.spotify.com/v1/artists/5ljRAiIgLFVxzWg7vS1Rnl",
          "id" : "5ljRAiIgLFVxzWg7vS1Rnl",
          "name" : "Christian Devotion",
          "type" : "artist",
          "uri" : "spotify:artist:5ljRAiIgLFVxzWg7vS1Rnl"
        } ],
        "external_urls" : {
          "spotify" : "https://open.spotify.com/album/5qR3O4U7NpxK4ORGlELvIF"
        },
        "href" : "https://api.spotify.com/v1/albums/5qR3O4U7NpxK4ORGlELvIF",
        "id" : "5qR3O4U7NpxK4ORGlELvIF",
        "images" : [ {
          "height" : 640,
          "url" : "https://i.scdn.co/image/ab67616d0000b27352cc89c1b49ef94fed413951",
          "width" : 640
        }, {
          "height" : 300,
          "url" : "https://i.scdn.co/image/ab67616d00001e0252cc89c1b49ef94fed413951",
          "width" : 300
        }, {
          "height" : 64,
          "url" : "https://i.scdn.co/image/ab67616d0000485152cc89c1b49ef94fed413951",
          "width" : 64
        } ],
        "name" : "Quiet Time",
        "release_date" : "2015-12-21",
        "release_date_precision" : "day",
        "total_tracks" : 18,
        "type" : "album",
        "uri" : "spotify:album:5qR3O4U7NpxK4ORGlELvIF"
      },
      "artists" : [ {
        "external_urls" : {
          "spotify" : "https://open.spotify.com/artist/5ljRAiIgLFVxzWg7vS1Rnl"
        },
        "href" : "https://api.spotify.com/v1/artists/5ljRAiIgLFVxzWg7vS1Rnl",
        "id" : "5ljRAiIgLFVxzWg7vS1Rnl",
        "name" : "Christian Devotion",
        "type" : "artist",
        "uri" : "spotify:artist:5ljRAiIgLFVxzWg7vS1Rnl"
      } ],
      "disc_number" : 1,
      "duration_ms" : 92113,
      "explicit" : false,
      "external_ids" : {
        "isrc" : "USA2P1563049"
      },
      "external_urls" : {
        "spotify" : "https://open.spotify.com/track/1Q7u3FAORn3rEaFxc8uiQr"
      },
      "href" : "https://api.spotify.com/v1/tracks/1Q7u3FAORn3rEaFxc8uiQr",
      "id" : "1Q7u3FAORn3rEaFxc8uiQr",
      "is_local" : false,
      "is_playable" : true,
      "name" : "Lift up Your Heads, Ye Mighty Gates (Christ Is Alive)",
      "popularity" : 9,
      "preview_url" : "https://p.scdn.co/mp3-preview/1fe9ee3540730d21b08e6a91424c97c6de42cf62?cid=774b29d4f13844c495f206cafdad9c86",
      "track_number" : 4,
      "type" : "track",
      "uri" : "spotify:track:1Q7u3FAORn3rEaFxc8uiQr"
    }, {
      "album" : {
        "album_type" : "album",
        "artists" : [ {
          "external_urls" : {
            "spotify" : "https://open.spotify.com/artist/6XQO13vaBxckfbw752V4ni"
          },
          "href" : "https://api.spotify.com/v1/artists/6XQO13vaBxckfbw752V4ni",
          "id" : "6XQO13vaBxckfbw752V4ni",
          "name" : "St. Olaf Choral Ensembles",
          "type" : "artist",
          "uri" : "spotify:artist:6XQO13vaBxckfbw752V4ni"
        } ],
        "external_urls" : {
          "spotify" : "https://open.spotify.com/album/7yFkRPDyleESiX710ytkx3"
        },
        "href" : "https://api.spotify.com/v1/albums/7yFkRPDyleESiX710ytkx3",
        "id" : "7yFkRPDyleESiX710ytkx3",
        "images" : [ {
          "height" : 640,
          "url" : "https://i.scdn.co/image/ab67616d0000b273966c0f6417271726c39e1a3f",
          "width" : 640
        }, {
          "height" : 300,
          "url" : "https://i.scdn.co/image/ab67616d00001e02966c0f6417271726c39e1a3f",
          "width" : 300
        }, {
          "height" : 64,
          "url" : "https://i.scdn.co/image/ab67616d00004851966c0f6417271726c39e1a3f",
          "width" : 64
        } ],
        "name" : "O Come to Us, Abide with Us Our Lord Immanuel",
        "release_date" : "2010-07-01",
        "release_date_precision" : "day",
        "total_tracks" : 32,
        "type" : "album",
        "uri" : "spotify:album:7yFkRPDyleESiX710ytkx3"
      },
      "artists" : [ {
        "external_urls" : {
          "spotify" : "https://open.spotify.com/artist/6XQO13vaBxckfbw752V4ni"
        },
        "href" : "https://api.spotify.com/v1/artists/6XQO13vaBxckfbw752V4ni",
        "id" : "6XQO13vaBxckfbw752V4ni",
        "name" : "St. Olaf Choral Ensembles",
        "type" : "artist",
        "uri" : "spotify:artist:6XQO13vaBxckfbw752V4ni"
      } ],
      "disc_number" : 1,
      "duration_ms" : 97946,
      "explicit" : false,
      "external_ids" : {
        "isrc" : "ushm81004850"
      },
      "external_urls" : {
        "spotify" : "https://open.spotify.com/track/3bXskWHcbJxIuF3dfCIDWc"
      },
      "href" : "https://api.spotify.com/v1/tracks/3bXskWHcbJxIuF3dfCIDWc",
      "id" : "3bXskWHcbJxIuF3dfCIDWc",
      "is_local" : false,
      "is_playable" : true,
      "name" : "Lift Up Your Heads",
      "popularity" : 7,
      "preview_url" : "https://p.scdn.co/mp3-preview/ec6b20d70c42abe7f76893913a5d1ad254afb3c3?cid=774b29d4f13844c495f206cafdad9c86",
      "track_number" : 7,
      "type" : "track",
      "uri" : "spotify:track:3bXskWHcbJxIuF3dfCIDWc"
    }, {
      "album" : {
        "album_type" : "album",
        "artists" : [ {
          "external_urls" : {
            "spotify" : "https://open.spotify.com/artist/4bvoA0eiuvuBBRfUFJGqpC"
          },
          "href" : "https://api.spotify.com/v1/artists/4bvoA0eiuvuBBRfUFJGqpC",
          "id" : "4bvoA0eiuvuBBRfUFJGqpC",
          "name" : "Matthew Brown",
          "type" : "artist",
          "uri" : "spotify:artist:4bvoA0eiuvuBBRfUFJGqpC"
        } ],
        "external_urls" : {
          "spotify" : "https://open.spotify.com/album/17eClCeTzTFM32T1xJ99eq"
        },
        "href" : "https://api.spotify.com/v1/albums/17eClCeTzTFM32T1xJ99eq",
        "id" : "17eClCeTzTFM32T1xJ99eq",
        "images" : [ {
          "height" : 640,
          "url" : "https://i.scdn.co/image/ab67616d0000b2730857b28183cdcd4ed009f311",
          "width" : 640
        }, {
          "height" : 300,
          "url" : "https://i.scdn.co/image/ab67616d00001e020857b28183cdcd4ed009f311",
          "width" : 300
        }, {
          "height" : 64,
          "url" : "https://i.scdn.co/image/ab67616d000048510857b28183cdcd4ed009f311",
          "width" : 64
        } ],
        "name" : "Sanctus, Sanctus, Sanctus! Traditional Instrumental Catholic Hymns",
        "release_date" : "2016-01-29",
        "release_date_precision" : "day",
        "total_tracks" : 15,
        "type" : "album",
        "uri" : "spotify:album:17eClCeTzTFM32T1xJ99eq"
      },
      "artists" : [ {
        "external_urls" : {
          "spotify" : "https://open.spotify.com/artist/4bvoA0eiuvuBBRfUFJGqpC"
        },
        "href" : "https://api.spotify.com/v1/artists/4bvoA0eiuvuBBRfUFJGqpC",
        "id" : "4bvoA0eiuvuBBRfUFJGqpC",
        "name" : "Matthew Brown",
        "type" : "artist",
        "uri" : "spotify:artist:4bvoA0eiuvuBBRfUFJGqpC"
      } ],
      "disc_number" : 1,
      "duration_ms" : 92113,
      "explicit" : false,
      "external_ids" : {
        "isrc" : "USA2P1603970"
      },
      "external_urls" : {
        "spotify" : "https://open.spotify.com/track/3V04NzYgY8ldqXqkePP4MB"
      },
      "href" : "https://api.spotify.com/v1/tracks/3V04NzYgY8ldqXqkePP4MB",
      "id" : "3V04NzYgY8ldqXqkePP4MB",
      "is_local" : false,
      "is_playable" : true,
      "name" : "Lift up Your Heads, Ye Mighty Gates (Christ Is Alive)",
      "popularity" : 8,
      "preview_url" : "https://p.scdn.co/mp3-preview/1fe9ee3540730d21b08e6a91424c97c6de42cf62?cid=774b29d4f13844c495f206cafdad9c86",
      "track_number" : 1,
      "type" : "track",
      "uri" : "spotify:track:3V04NzYgY8ldqXqkePP4MB"
    }, {
      "album" : {
        "album_type" : "album",
        "artists" : [ {
          "external_urls" : {
            "spotify" : "https://open.spotify.com/artist/5C2dIwIuXbLy9O4iwhx6cz"
          },
          "href" : "https://api.spotify.com/v1/artists/5C2dIwIuXbLy9O4iwhx6cz",
          "id" : "5C2dIwIuXbLy9O4iwhx6cz",
          "name" : "Josh Bales",
          "type" : "artist",
          "uri" : "spotify:artist:5C2dIwIuXbLy9O4iwhx6cz"
        } ],
        "external_urls" : {
          "spotify" : "https://open.spotify.com/album/61oGAex5TR01eOwgW43Bu2"
        },
        "href" : "https://api.spotify.com/v1/albums/61oGAex5TR01eOwgW43Bu2",
        "id" : "61oGAex5TR01eOwgW43Bu2",
        "images" : [ {
          "height" : 640,
          "url" : "https://i.scdn.co/image/ab67616d0000b2737f38fd7d183c13c6848eb74e",
          "width" : 640
        }, {
          "height" : 300,
          "url" : "https://i.scdn.co/image/ab67616d00001e027f38fd7d183c13c6848eb74e",
          "width" : 300
        }, {
          "height" : 64,
          "url" : "https://i.scdn.co/image/ab67616d000048517f38fd7d183c13c6848eb74e",
          "width" : 64
        } ],
        "name" : "Come Away from Rush and Hurry",
        "release_date" : "2018-09-04",
        "release_date_precision" : "day",
        "total_tracks" : 10,
        "type" : "album",
        "uri" : "spotify:album:61oGAex5TR01eOwgW43Bu2"
      },
      "artists" : [ {
        "external_urls" : {
          "spotify" : "https://open.spotify.com/artist/5C2dIwIuXbLy9O4iwhx6cz"
        },
        "href" : "https://api.spotify.com/v1/artists/5C2dIwIuXbLy9O4iwhx6cz",
        "id" : "5C2dIwIuXbLy9O4iwhx6cz",
        "name" : "Josh Bales",
        "type" : "artist",
        "uri" : "spotify:artist:5C2dIwIuXbLy9O4iwhx6cz"
      } ],
      "disc_number" : 1,
      "duration_ms" : 217317,
      "explicit" : false,
      "external_ids" : {
        "isrc" : "TCADU1822045"
      },
      "external_urls" : {
        "spotify" : "https://open.spotify.com/track/6rFV0ZZquQQHRIHwqY9S7z"
      },
      "href" : "https://api.spotify.com/v1/tracks/6rFV0ZZquQQHRIHwqY9S7z",
      "id" : "6rFV0ZZquQQHRIHwqY9S7z",
      "is_local" : false,
      "is_playable" : true,
      "name" : "Lift up Your Heads, Ye Mighty Gates",
      "popularity" : 7,
      "preview_url" : "https://p.scdn.co/mp3-preview/490f5260528db803fa85c598892674b9ad5e373d?cid=774b29d4f13844c495f206cafdad9c86",
      "track_number" : 1,
      "type" : "track",
      "uri" : "spotify:track:6rFV0ZZquQQHRIHwqY9S7z"
    }, {
      "album" : {
        "album_type" : "album",
        "artists" : [ {
          "external_urls" : {
            "spotify" : "https://open.spotify.com/artist/1QL7yTHrdahRMpvNtn6rI2"
          },
          "href" : "https://api.spotify.com/v1/artists/1QL7yTHrdahRMpvNtn6rI2",
          "id" : "1QL7yTHrdahRMpvNtn6rI2",
          "name" : "George Frideric Handel",
          "type" : "artist",
          "uri" : "spotify:artist:1QL7yTHrdahRMpvNtn6rI2"
        }, {
          "external_urls" : {
            "spotify" : "https://open.spotify.com/artist/3PfJE6ebCbCHeuqO4BfNeA"
          },
          "href" : "https://api.spotify.com/v1/artists/3PfJE6ebCbCHeuqO4BfNeA",
          "id" : "3PfJE6ebCbCHeuqO4BfNeA",
          "name" : "London Philharmonic Orchestra",
          "type" : "artist",
          "uri" : "spotify:artist:3PfJE6ebCbCHeuqO4BfNeA"
        }, {
          "external_urls" : {
            "spotify" : "https://open.spotify.com/artist/7GUhTBqD7CAbbIjjBd0SdN"
          },
          "href" : "https://api.spotify.com/v1/artists/7GUhTBqD7CAbbIjjBd0SdN",
          "id" : "7GUhTBqD7CAbbIjjBd0SdN",
          "name" : "London Philharmonic Choir",
          "type" : "artist",
          "uri" : "spotify:artist:7GUhTBqD7CAbbIjjBd0SdN"
        }, {
          "external_urls" : {
            "spotify" : "https://open.spotify.com/artist/0WIY8dfLqdsgKUKngzcjCm"
          },
          "href" : "https://api.spotify.com/v1/artists/0WIY8dfLqdsgKUKngzcjCm",
          "id" : "0WIY8dfLqdsgKUKngzcjCm",
          "name" : "John Alldis",
          "type" : "artist",
          "uri" : "spotify:artist:0WIY8dfLqdsgKUKngzcjCm"
        } ],
        "external_urls" : {
          "spotify" : "https://open.spotify.com/album/1Ufdvm3MnCm3GOC9NZSmM4"
        },
        "href" : "https://api.spotify.com/v1/albums/1Ufdvm3MnCm3GOC9NZSmM4",
        "id" : "1Ufdvm3MnCm3GOC9NZSmM4",
        "images" : [ {
          "height" : 640,
          "url" : "https://i.scdn.co/image/ab67616d0000b273f0912ed39db6223a2e98e121",
          "width" : 640
        }, {
          "height" : 300,
          "url" : "https://i.scdn.co/image/ab67616d00001e02f0912ed39db6223a2e98e121",
          "width" : 300
        }, {
          "height" : 64,
          "url" : "https://i.scdn.co/image/ab67616d00004851f0912ed39db6223a2e98e121",
          "width" : 64
        } ],
        "name" : "The Messiah (Platinum Edition)",
        "release_date" : "2013-01-01",
        "release_date_precision" : "day",
        "total_tracks" : 49,
        "type" : "album",
        "uri" : "spotify:album:1Ufdvm3MnCm3GOC9NZSmM4"
      },
      "artists" : [ {
        "external_urls" : {
          "spotify" : "https://open.spotify.com/artist/1QL7yTHrdahRMpvNtn6rI2"
        },
        "href" : "https://api.spotify.com/v1/artists/1QL7yTHrdahRMpvNtn6rI2",
        "id" : "1QL7yTHrdahRMpvNtn6rI2",
        "name" : "George Frideric Handel",
        "type" : "artist",
        "uri" : "spotify:artist:1QL7yTHrdahRMpvNtn6rI2"
      }, {
        "external_urls" : {
          "spotify" : "https://open.spotify.com/artist/3PfJE6ebCbCHeuqO4BfNeA"
        },
        "href" : "https://api.spotify.com/v1/artists/3PfJE6ebCbCHeuqO4BfNeA",
        "id" : "3PfJE6ebCbCHeuqO4BfNeA",
        "name" : "London Philharmonic Orchestra",
        "type" : "artist",
        "uri" : "spotify:artist:3PfJE6ebCbCHeuqO4BfNeA"
      }, {
        "external_urls" : {
          "spotify" : "https://open.spotify.com/artist/7GUhTBqD7CAbbIjjBd0SdN"
        },
        "href" : "https://api.spotify.com/v1/artists/7GUhTBqD7CAbbIjjBd0SdN",
        "id" : "7GUhTBqD7CAbbIjjBd0SdN",
        "name" : "London Philharmonic Choir",
        "type" : "artist",
        "uri" : "spotify:artist:7GUhTBqD7CAbbIjjBd0SdN"
      }, {
        "external_urls" : {
          "spotify" : "https://open.spotify.com/artist/0WIY8dfLqdsgKUKngzcjCm"
        },
        "href" : "https://api.spotify.com/v1/artists/0WIY8dfLqdsgKUKngzcjCm",
        "id" : "0WIY8dfLqdsgKUKngzcjCm",
        "name" : "John Alldis",
        "type" : "artist",
        "uri" : "spotify:artist:0WIY8dfLqdsgKUKngzcjCm"
      } ],
      "disc_number" : 2,
      "duration_ms" : 217773,
      "explicit" : false,
      "external_ids" : {
        "isrc" : "USSP39847031"
      },
      "external_urls" : {
        "spotify" : "https://open.spotify.com/track/5KADriIfHHsxhcCddLQz2x"
      },
      "href" : "https://api.spotify.com/v1/tracks/5KADriIfHHsxhcCddLQz2x",
      "id" : "5KADriIfHHsxhcCddLQz2x",
      "is_local" : false,
      "is_playable" : true,
      "name" : "Messiah, HWV 56 / Pt. 2: Lift Up Your Heads, O Ye Gates",
      "popularity" : 10,
      "preview_url" : null,
      "track_number" : 10,
      "type" : "track",
      "uri" : "spotify:track:5KADriIfHHsxhcCddLQz2x"
    } ],
    "limit" : 10,
    "next" : "https://api.spotify.com/v1/search?query=Lift+Up+Your+Heads&type=track&market=US&offset=15&limit=10",
    "offset" : 5,
    "previous" : "https://api.spotify.com/v1/search?query=Lift+Up+Your+Heads&type=track&market=US&offset=0&limit=10",
    "total" : 541
  }
}