{
  "tracks" : {
    "href" : "https://api.spotify.com/v1/search?query=More+Love+to+Thee&type=track&market=US&offset=5&limit=10",
    "items" : [ {
      "album" : {
        "album_type" : "album",
        "artists" : [ {
          "external_urls" : {
            "spotify" : "https://open.spotify.com/artist/6xBX4T6jaTDWozdYdXEX2Y"
          },
          "href" : "https://api.spotify.com/v1/artists/6xBX4T6jaTDWozdYdXEX2Y",
          "id" : "6xBX4T6jaTDWozdYdXEX2Y",
          "name" : "Barbi Franklin",
          "type" : "artist",
          "uri" : "spotify:artist:6xBX4T6jaTDWozdYdXEX2Y"
        } ],
        "external_urls" : {
          "spotify" : "https://open.spotify.com/album/2nftYsaes6tm8qLOL5mwP5"
        },
        "href" : "https://api.spotify.com/v1/albums/2nftYsaes6tm8qLOL5mwP5",
        "id" : "2nftYsaes6tm8qLOL5mwP5",
        "images" : [ {
          "height" : 640,
          "url" : "https://i.scdn.co/image/ab67616d0000b273c9394d59989efe645625696c",
          "width" : 640
        }, {
          "height" : 300,
          "url" : "https://i.scdn.co/image/ab67616d00001e02c9394d59989efe645625696c",
          "width" : 300
        }, {
          "height" : 64,
          "url" : "https://i.scdn.co/image/ab67616d00004851c9394d59989efe645625696c",
          "width" : 64
        } ],
        "name" : "Violin Worship, Vol. 2",
        "release_date" : "2014-12-01",
        "release_date_precision" : "day",
        "total_tracks" : 9,
        "type" : "album",
        "uri" : "spotify:album:2nftYsaes6tm8qLOL5mwP5"
      },
      "artists" : [ {
        "external_urls" : {
          "spotify" : "https://open.spotify.com/artist/6xBX4T6jaTDWozdYdXEX2Y"
        },
        "href" : "https://api.spotify.com/v1/artists/6xBX4T6jaTDWozdYdXEX2Y",
        "id" : "6xBX4T6jaTDWozdYdXEX2Y",
        "name" : "Barbi Franklin",
        "type" : "artist",
        "uri" : "spotify:artist:6xBX4T6jaTDWozdYdXEX2Y"
      } ],
      "disc_number" : 1,
      "duration_ms" : 234160,
      "explicit" : false,
      "external_ids" : {
        "isrc" : "USSEU1400018"
      },
      "external_urls" : {
        "spotify" : "https://open.spotify.com/track/0cqI3cxm5K81FuYQpc40pv"
      },
      "href" : "https://api.spotify.com/v1/tracks/0cqI3cxm5K81FuYQpc40pv",
      "id" : "0cqI3cxm5K81FuYQpc40pv",
      "is_local" : false,
      "is_playable" : true,
      "name" : "More Precious Than Silver / My Jesus, I Love Thee",
      "popularity" : 32,
      "preview_url" : "https://p.scdn.co/mp3-preview/6ce462d98a0f3fb7add8110b3c7a923762aa611b?cid=774b29d4f13844c495f206cafdad9c86",
      "track_number" : 2,
      "type" : "track",
      "uri" : "spotify:track:0cqI3cxm5K81FuYQpc40pv"
    }, {
      "album" : {
        "album_type" : "album",
        "artists" : [ {
          "external_urls" : {
            "spotify" : "https://open.spotify.com/artist/17nxEt3oZte3eUuVio6W55"
          },
          "href" : "https://api.spotify.com/v1/artists/17nxEt3oZte3eUuVio6W55",
          "id" : "17nxEt3oZte3eUuVio6W55",
          "name" : "Larry Hall",
          "type" : "artist",
          "uri" : "spotify:artist:17nxEt3oZte3eUuVio6W55"
        } ],
        "external_urls" : {
          "spotify" : "https://open.spotify.com/album/4PHRgV2VfqAIbiLZcwCntl"
        },
        "href" : "https://api.spotify.com/v1/albums/4PHRgV2VfqAIbiLZcwCntl",
        "id" : "4PHRgV2VfqAIbiLZcwCntl",
        "images" : [ {
          "height" : 640,
          "url" : "https://i.scdn.co/image/ab67616d0000b2734e8b0e0ef231b3ee09f94323",
          "width" : 640
        }, {
          "height" : 300,
          "url" : "https://i.scdn.co/image/ab67616d00001e024e8b0e0ef231b3ee09f94323",
          "width" : 300
        }, {
          "height" : 64,
          "url" : "https://i.scdn.co/image/ab67616d000048514e8b0e0ef231b3ee09f94323",
          "width" : 64
        } ],
        "name" : "Hymn Scenes",
        "release_date" : "2009-07-21",
        "release_date_precision" : "day",
        "total_tracks" : 12,
        "type" : "album",
        "uri" : "spotify:album:4PHRgV2VfqAIbiLZcwCntl"
      },
      "artists" : [ {
        "external_urls" : {
          "spotify" : "https://open.spotify.com/artist/17nxEt3oZte3eUuVio6W55"
        },
        "href" : "https://api.spotify.com/v1/artists/17nxEt3oZte3eUuVio6W55",
        "id" : "17nxEt3oZte3eUuVio6W55",
        "name" : "Larry Hall",
        "type" : "artist",
        "uri" : "spotify:artist:17nxEt3oZte3eUuVio6W55"
      } ],
      "disc_number" : 1,
      "duration_ms" : 253346,
      "explicit" : false,
      "external_ids" : {
        "isrc" : "US6BM0910145"
      },
      "external_urls" : {
        "spotify" : "https://open.spotify.com/track/79EbGZHIejjbHm1ODGNDBU"
      },
      "href" : "https://api.spotify.com/v1/tracks/79EbGZHIejjbHm1ODGNDBU",
      "id" : "79EbGZHIejjbHm1ODGNDBU",
      "is_local" : false,
      "is_playable" : true,
      "name" : "More Love to Thee, O Christ",
      "popularity" : 16,
      "preview_url" : "https://p.scdn.co/mp3-preview/13f11c65cab6f0967803818558b39e8d56a33ba4?cid=774b29d4f13844c495f206cafdad9c86",
      "track_number" : 6,
      "type" : "track",
      "uri" : "spotify:track:79EbGZHIejjbHm1ODGNDBU"
    }, {
      "album" : {
        "album_type" : "album",
        "artists" : [ {
          "external_urls" : {
            "spotify" : "https://open.spotify.com/artist/732M8zwzAvnsQGLb83WY7A"
          },
          "href" : "https://api.spotify.com/v1/artists/732M8zwzAvnsQGLb83WY7A",
          "id" : "732M8zwzAvnsQGLb83WY7A",
          "name" : "Ingrid Chun",
          "type" : "artist",
          "uri" : "spotify:artist:732M8zwzAvnsQGLb83WY7A"
        } ],
        "external_urls" : {
          "spotify" : "https://open.spotify.com/album/2F8ZZcOQCUiDEF5wxj6X7l"
        },
        "href" : "https://api.spotify.com/v1/albums/2F8ZZcOQCUiDEF5wxj6X7l",
        "id" : "2F8ZZcOQCUiDEF5wxj6X7l",
        "images" : [ {
          "height" : 640,
          "url" : "https://i.scdn.co/image/ab67616d0000b273101d2b2901b880b086f11410",
          "width" : 640
        }, {
          "height" : 300,
          "url" : "https://i.scdn.co/image/ab67616d00001e02101d2b2901b880b086f11410",
          "width" : 300
        }, {
          "height" : 64,
          "url" : "https://i.scdn.co/image/ab67616d00004851101d2b2901b880b086f11410",
          "width" : 64
        } ],
        "name" : "What A Friend - Violin Hymns",
        "release_date" : "2000-01-01",
        "release_date_precision" : "day",
        "total_tracks" : 10,
        "type" : "album",
        "uri" : "spotify:album:2F8ZZcOQCUiDEF5wxj6X7l"
      },
      "artists" : [ {
        "external_urls" : {
          "spotify" : "https://open.spotify.com/artist/732M8zwzAvnsQGLb83WY7A"
        },
        "href" : "https://api.spotify.com/v1/artists/732M8zwzAvnsQGLb83WY7A",
        "id" : "732M8zwzAvnsQGLb83WY7A",
        "name" : "Ingrid Chun",
        "type" : "artist",
        "uri" : "spotify:artist:732M8zwzAvnsQGLb83WY7A"
      } ],
      "disc_number" : 1,
      "duration_ms" : 247693,
      "explicit" : false,
      "external_ids" : {
        "isrc" : "uscgj0861005"
      },
      "external_urls" : {
        "spotify" : "https://open.spotify.com/track/1M1PbM3RT64e3FQ1JeataE"
      },
      "href" : "https://api.spotify.com/v1/tracks/1M1PbM3RT64e3FQ1JeataE",
      "id" : "1M1PbM3RT64e3FQ1JeataE",
      "is_local" : false,
      "is_playable" : true,
      "name" : "More Love To Thee",
      "popularity" : 15,
      "preview_url" : "https://p.scdn.co/mp3-preview/ac0dec3f25613ae914cda16f73916029423578ea?cid=774b29d4f13844c495f206cafdad9c86",
      "track_number" : 8,
      "type" : "track",
      "uri" : "spotify:track:1M1PbM3RT64e3FQ1JeataE"
    }, {
      "album" : {
        "album_type" : "album",
        "artists" : [ {
          "external_urls" : {
            "spotify" : "https://open.spotify.com/artist/0HoHU8SXe0g9jJGOfL8rDq"
          },
          "href" : "https://api.spotify.com/v1/artists/0HoHU8SXe0g9jJGOfL8rDq",
          "id" : "0HoHU8SXe0g9jJGOfL8rDq",
          "name" : "Indelible Grace Music",
          "type" : "artist",
          "uri" : "spotify:artist:0HoHU8SXe0g9jJGOfL8rDq"
        } ],
        "external_urls" : {
          "spotify" : "https://open.spotify.com/album/1Ibcxs7oCN4VFa4nfWMyCc"
        },
        "href" : "https://api.spotify.com/v1/albums/1Ibcxs7oCN4VFa4nfWMyCc",
        "id" : "1Ibcxs7oCN4VFa4nfWMyCc",
        "images" : [ {
          "height" : 640,
          "url" : "https://i.scdn.co/image/ab67616d0000b27344c663d7e1e74ea50da4f516",
          "width" : 640
        }, {
          "height" : 300,
          "url" : "https://i.scdn.co/image/ab67616d00001e0244c663d7e1e74ea50da4f516",
          "width" : 300
        }, {
          "height" : 64,
          "url" : "https://i.scdn.co/image/ab67616d0000485144c663d7e1e74ea50da4f516",
          "width" : 64
        } ],
        "name" : "Beams of Heaven: Indelible Grace IV",
        "release_date" : "2008-07-28",
        "release_date_precision" : "day",
        "total_tracks" : 15,
        "type" : "album",
        "uri" : "spotify:album:1Ibcxs7oCN4VFa4nfWMyCc"
      },
      "artists" : [ {
        "external_urls" : {
          "spotify" : "https://open.spotify.com/artist/0HoHU8SXe0g9jJGOfL8rDq"
        },
        "href" : "https://api.spotify.com/v1/artists/0HoHU8SXe0g9jJGOfL8rDq",
        "id" : "0HoHU8SXe0g9jJGOfL8rDq",
        "name" : "Indelible Grace Music",
        "type" : "artist",
        "uri" : "spotify:artist:0HoHU8SXe0g9jJGOfL8rDq"
      } ],
      "disc_number" : 1,
      "duration_ms" : 209413,
      "explicit" : false,
      "external_ids" : {
        "isrc" : "USTC60817294"
      },
      "external_urls" : {
        "spotify" : "https://open.spotify.com/track/4hUulIEmONBtejnMrVAY85"
      },
      "href" : "https://api.spotify.com/v1/tracks/4hUulIEmONBtejnMrVAY85",
      "id" : "4hUulIEmONBtejnMrVAY85",
      "is_local" : false,
      "is_playable" : true,
      "name" : "More Love to Thee [Matthew Smith]",
      "popularity" : 9,
      "preview_url" : "https://p.scdn.co/mp3-preview/cccba9ffbc959e77fe4f60835945f7098a044fdd?cid=774b29d4f13844c495f206cafdad9c86",
      "track_number" : 2,
      "type" : "track",
      "uri" : "spotify:track:4hUulIEmONBtejnMrVAY85"
    }, {
      "album" : {
        "album_type" : "album",
        "artists" : [ {
          "external_urls" : {
            "spotify" : "https://open.spotify.com/artist/7gjHSq6MQ3C2RNdlIkbYnG"
          },
          "href" : "https://api.spotify.com/v1/artists/7gjHSq6MQ3C2RNdlIkbYnG",
          "id" : "7gjHSq6MQ3C2RNdlIkbYnG",
          "name" : "Instrumental Christian Songs, Christian Piano Music",
          "type" : "artist",
          "uri" : "spotify:artist:7gjHSq6MQ3C2RNdlIkbYnG"
        }, {
          "external_urls" : {
            "spotify" : "https://open.spotify.com/artist/0rdBlsgJwmtrfJEjOo4fdQ"
          },
          "href" : "https://api.spotify.com/v1/artists/0rdBlsgJwmtrfJEjOo4fdQ",
          "id" : "0rdBlsgJwmtrfJEjOo4fdQ",
          "name" : "Simply Instrumental Worship",
          "type" : "artist",
          "uri" : "spotify:artist:0rdBlsgJwmtrfJEjOo4fdQ"
        }, {
          "external_urls" : {
            "spotify" : "https://open.spotify.com/artist/6Mpnuw1zAeDxd9Y7clGNrX"
          },
          "href" : "https://api.spotify.com/v1/artists/6Mpnuw1zAeDxd9Y7clGNrX",
          "id" : "6Mpnuw1zAeDxd9Y7clGNrX",
          "name" : "Christian Hymns Players",
          "type" : "artist",
          "uri" : "spotify:artist:6Mpnuw1zAeDxd9Y7clGNrX"
        } ],
        "external_urls" : {
          "spotify" : "https://open.spotify.com/album/3X31buBw7kBuikjSPEo8Rw"
        },
        "href" : "https://api.spotify.com/v1/albums/3X31buBw7kBuikjSPEo8Rw",
        "id" : "3X31buBw7kBuikjSPEo8Rw",
        "images" : [ {
          "height" : 640,
          "url" : "https://i.scdn.co/image/ab67616d0000b273b3d32a49d40b560c164fdaf7",
          "width" : 640
        }, {
          "height" : 300,
          "url" : "https://i.scdn.co/image/ab67616d00001e02b3d32a49d40b560c164fdaf7",
          "width" : 300
        }, {
          "height" : 64,
          "url" : "https://i.scdn.co/image/ab67616d00004851b3d32a49d40b560c164fdaf7",
          "width" : 64
        } ],
        "name" : "Piano Hymns for Prayer & Reflection",
        "release_date" : "2016-09-22",
        "release_date_precision" : "day",
        "total_tracks" : 15,
        "type" : "album",
        "uri" : "spotify:album:3X31buBw7kBuikjSPEo8Rw"
      },
      "artists" : [ {
        "external_urls" : {
          "spotify" : "https://open.spotify.com/artist/7gjHSq6MQ3C2RNdlIkbYnG"
        },
        "href" : "https://api.spotify.com/v1/artists/7gjHSq6MQ3C2RNdlIkbYnG",
        "id" : "7gjHSq6MQ3C2RNdlIkbYnG",
        "name" : "Instrumental Christian Songs, Christian Piano Music",
        "type" : "artist",
        "uri" : "spotify:artist:7gjHSq6MQ3C2RNdlIkbYnG"
      }, {
        "external_urls" : {
          "spotify" : "https://open.spotify.com/artist/0rdBlsgJwmtrfJEjOo4fdQ"
        },
        "href" : "https://api.spotify.com/v1/artists/0rdBlsgJwmtrfJEjOo4fdQ",
        "id" : "0rdBlsgJwmtrfJEjOo4fdQ",
        "name" : "Simply Instrumental Worship",
        "type" : "artist",
        "uri" : "spotify:artist:0rdBlsgJwmtrfJEjOo4fdQ"
      }, {
        "external_urls" : {
          "spotify" : "https://open.spotify.com/artist/6Mpnuw1zAeDxd9Y7clGNrX"
        },
        "href" : "https://api.spotify.com/v1/artists/6Mpnuw1zAeDxd9Y7clGNrX",
        "id" : "6Mpnuw1zAeDxd9Y7clGNrX",
        "name" : "Christian Hymns Players",
        "type" : "artist",
        "uri" : "spotify:artist:6Mpnuw1zAeDxd9Y7clGNrX"
      } ],
      "disc_number" : 1,
      "duration_ms" : 233927,
      "explicit" : false,
      "external_ids" : {
        "isrc" : "TCACS1610703"
      },
      "external_urls" : {
        "spotify" : "https://open.spotify.com/track/7LC57YY8KKHHRRjpj61Tuh"
      },
      "href" : "https://api.spotify.com/v1/tracks/7LC57YY8KKHHRRjpj61Tuh",
      "id" : "7LC57YY8KKHHRRjpj61Tuh",
      "is_local" : false,
      "is_playable" : true,
      "name" : "More Love to Thee (Instrumental Version)",
      "popularity" : 10,
      "preview_url" : "https://p.scdn.co/mp3-preview/a5f5f58c693b3a1f4ae60fe4ad2223c65b83823b?cid=774b29d4f13844c495f206cafdad9c86",
      "track_number" : 3,
      "type" : "track",
      "uri" : "spotify:track:7LC57YY8KKHHRRjpj61Tuh"
    }, {
      "album" : {
        "album_type" : "album",
        "artists" : [ {
          "external_urls" : {
            "spotify" : "https://open.spotify.com/artist/41hCpLaR1bEW5ETK3aPvDB"
          },
          "href" : "https://api.spotify.com/v1/artists/41hCpLaR1bEW5ETK3aPvDB",
          "id" : "41hCpLaR1bEW5ETK3aPvDB",
          "name" : "The Eden Symphony Orchestra",
          "type" : "artist",
          "uri" : "spotify:artist:41hCpLaR1bEW5ETK3aPvDB"
        } ],
        "external_urls" : {
          "spotify" : "https://open.spotify.com/album/0HrBOuDaTuhhBQKgNKuRIe"
        },
        "href" : "https://api.spotify.com/v1/albums/0HrBOuDaTuhhBQKgNKuRIe",
        "id" : "0HrBOuDaTuhhBQKgNKuRIe",
        "images" : [ {
          "height" : 640,
          "url" : "https://i.scdn.co/image/ab67616d0000b273932454a7f073f6be1d77df9b",
          "width" : 640
        }, {
          "height" : 300,
          "url" : "https://i.scdn.co/image/ab67616d00001e02932454a7f073f6be1d77df9b",
          "width" : 300
        }, {
          "height" : 64,
          "url" : "https://i.scdn.co/image/ab67616d00004851932454a7f073f6be1d77df9b",
          "width" : 64
        } ],
        "name" : "Philharmonic Hymns - Orchestral Hymns Vol. 8",
        "release_date" : "2009-05-26",
        "release_date_precision" : "day",
        "total_tracks" : 10,
        "type" : "album",
        "uri" : "spotify:album:0HrBOuDaTuhhBQKgNKuRIe"
      },
      "artists" : [ {
        "external_urls" : {
          "spotify" : "https://open.spotify.com/artist/41hCpLaR1bEW5ETK3aPvDB"
        },
        "href" : "https://api.spotify.com/v1/artists/41hCpLaR1bEW5ETK3aPvDB",
        "id" : "41hCpLaR1bEW5ETK3aPvDB",
        "name" : "The Eden Symphony Orchestra",
        "type" : "artist",
        "uri" : "spotify:artist:41hCpLaR1bEW5ETK3aPvDB"
      } ],
      "disc_number" : 1,
      "duration_ms" : 312160,
      "explicit" : false,
      "external_ids" : {
        "isrc" : "GBCEU0678105"
      },
      "external_urls" : {
        "spotify" : "https://open.spotify.com/track/3ytcKogYG8CFSFCdFYrkg9"
      },
      "href" : "https://api.spotify.com/v1/tracks/3ytcKogYG8CFSFCdFYrkg9",
      "id" : "3ytcKogYG8CFSFCdFYrkg9",
      "is_local" : false,
      "is_playable" : true,
      "name" : "More Love To Thee, O Christ",
      "popularity" : 10,
      "preview_url" : "https://p.scdn.co/mp3-preview/7c6f083b7e1078658ad6ab41631965e1e913c72f?cid=774b29d4f13844c495f206cafdad9c86",
      "track_number" : 5,
      "type" : "track",
      "uri" : "spotify:track:3ytcKogYG8CFSFCdFYrkg9"
    }, {
      "album" : {
        "album_type" : "album",
        "artists" : [ {
          "external_urls" : {
            "spotify" : "https://open.spotify.com/artist/0cylxW7HGdK9xMdubw2oYW"
          },
          "href" : "https://api.spotify.com/v1/artists/0cylxW7HGdK9xMdubw2oYW",
          "id" : "0cylxW7HGdK9xMdubw2oYW",
          "name" : "The O'Neill Brothers Group",
          "type" : "artist",
          "uri" : "spotify:artist:0cylxW7HGdK9xMdubw2oYW"
        } ],
        "external_urls" : {
          "spotify" : "https://open.spotify.com/album/7H8GXwx2Z2cKnxec68mgjT"
        },
        "href" : "https://api.spotify.com/v1/albums/7H8GXwx2Z2cKnxec68mgjT",
        "id" : "7H8GXwx2Z2cKnxec68mgjT",
        "images" : [ {
          "height" : 640,
          "url" : "https://i.scdn.co/image/ab67616d0000b273d85c3827dc04fd9dd2295065",
          "width" : 640
        }, {
          "height" : 300,
          "url" : "https://i.scdn.co/image/ab67616d00001e02d85c3827dc04fd9dd2295065",
          "width" : 300
        }, {
          "height" : 64,
          "url" : "https://i.scdn.co/image/ab67616d00004851d85c3827dc04fd9dd2295065",
          "width" : 64
        } ],
        "name" : "Well Known Hymns on Piano",
        "release_date" : "2016-05-24",
        "release_date_precision" : "day",
        "total_tracks" : 13,
        "type" : "album",
        "uri" : "spotify:album:7H8GXwx2Z2cKnxec68mgjT"
      },
      "artists" : [ {
        "external_urls" : {
          "spotify" : "https://open.spotify.com/artist/0cylxW7HGdK9xMdubw2oYW"
        },
        "href" : "https://api.spotify.com/v1/artists/0cylxW7HGdK9xMdubw2oYW",
        "id" : "0cylxW7HGdK9xMdubw2oYW",
        "name" : "The O'Neill Brothers Group",
        "type" : "artist",
        "uri" : "spotify:artist:0cylxW7HGdK9xMdubw2oYW"
      } ],
      "disc_number" : 1,
      "duration_ms" : 233927,
      "explicit" : false,
      "external_ids" : {
        "isrc" : "TCACO1682446"
      },
      "external_urls" : {
        "spotify" : "https://open.spotify.com/track/4nB79ztyc06FPteSVj0I7e"
      },
      "href" : "https://api.spotify.com/v1/tracks/4nB79ztyc06FPteSVj0I7e",
      "id" : "4nB79ztyc06FPteSVj0I7e",
      "is_local" : false,
      "is_playable" : true,
      "name" : "More Love to Thee (Instrumental Version)",
      "popularity" : 8,
      "preview_url" : "https://p.scdn.co/mp3-preview/a5f5f58c693b3a1f4ae60fe4ad2223c65b83823b?cid=774b29d4f13844c495f206cafdad9c86",
      "track_number" : 12,
      "type" : "track",
      "uri" : "spotify:track:4nB79ztyc06FPteSVj0I7e"
    }, {
      "album" : {
        "album_type" : "album",
        "artists" : [ {
          "external_urls" : {
            "spotify" : "https://open.spotify.com/artist/5WP9JhlTJdAU8fY9Fl1YMo"
          },
          "href" : "https://api.spotify.com/v1/artists/5WP9JhlTJdAU8fY9Fl1YMo",
          "id" : "5WP9JhlTJdAU8fY9Fl1YMo",
          "name" : "John Stephens",
          "type" : "artist",
          "uri" : "spotify:artist:5WP9JhlTJdAU8fY9Fl1YMo"
        }, {
          "external_urls" : {
            "spotify" : "https://open.spotify.com/artist/1tJVia5eeqSOYTb6pQZeDg"
          },
          "href" : "https://api.spotify.com/v1/artists/1tJVia5eeqSOYTb6pQZeDg",
          "id" : "1tJVia5eeqSOYTb6pQZeDg",
          "name" : "Catholic Hymns",
          "type" : "artist",
          "uri" : "spotify:artist:1tJVia5eeqSOYTb6pQZeDg"
        } ],
        "external_urls" : {
          "spotify" : "https://open.spotify.com/album/43k6kkdWeKwJXSY36mSgMk"
        },
        "href" : "https://api.spotify.com/v1/albums/43k6kkdWeKwJXSY36mSgMk",
        "id" : "43k6kkdWeKwJXSY36mSgMk",
        "images" : [ {
          "height" : 640,
          "url" : "https://i.scdn.co/image/ab67616d0000b27385be5a4225f0279cd62cb43b",
          "width" : 640
        }, {
          "height" : 300,
          "url" : "https://i.scdn.co/image/ab67616d00001e0285be5a4225f0279cd62cb43b",
          "width" : 300
        }, {
          "height" : 64,
          "url" : "https://i.scdn.co/image/ab67616d0000485185be5a4225f0279cd62cb43b",
          "width" : 64
        } ],
        "name" : "Catholic Hymns on Piano - Softly and Tenderly",
        "release_date" : "2018-02-19",
        "release_date_precision" : "day",
        "total_tracks" : 18,
        "type" : "album",
        "uri" : "spotify:album:43k6kkdWeKwJXSY36mSgMk"
      },
      "artists" : [ {
        "external_urls" : {
          "spotify" : "https://open.spotify.com/artist/5WP9JhlTJdAU8fY9Fl1YMo"
        },
        "href" : "https://api.spotify.com/v1/artists/5WP9JhlTJdAU8fY9Fl1YMo",
        "id" : "5WP9JhlTJdAU8fY9Fl1YMo",
        "name" : "John Stephens",
        "type" : "artist",
        "uri" : "spotify:artist:5WP9JhlTJdAU8fY9Fl1YMo"
      }, {
        "external_urls" : {
          "spotify" : "https://open.spotify.com/artist/1tJVia5eeqSOYTb6pQZeDg"
        },
        "href" : "https://api.spotify.com/v1/artists/1tJVia5eeqSOYTb6pQZeDg",
        "id" : "1tJVia5eeqSOYTb6pQZeDg",
        "name" : "Catholic Hymns",
        "type" : "artist",
        "uri" : "spotify:artist:1tJVia5eeqSOYTb6pQZeDg"
      } ],
      "disc_number" : 1,
      "duration_ms" : 233927,
      "explicit" : false,
      "external_ids" : {
        "isrc" : "TCADM1893114"
      },
      "external_urls" : {
        "spotify" : "https://open.spotify.com/track/3KSHA7QXzLS3jT0EVRCTtb"
      },
      "href" : "https://api.spotify.com/v1/tracks/3KSHA7QXzLS3jT0EVRCTtb",
      "id" : "3KSHA7QXzLS3jT0EVRCTtb",
      "is_local" : false,
      "is_playable" : true,
      "name" : "More Love to Thee (Instrumental Version)",
      "popularity" : 9,
      "preview_url" : "https://p.scdn.co/mp3-preview/a5f5f58c693b3a1f4ae60fe4ad2223c65b83823b?cid=774b29d4f13844c495f206cafdad9c86",
      "track_number" : 3,
      "type" : "track",
      "uri" : "spotify:track:3KSHA7QXzLS3jT0EVRCTtb"
    }, {
      "album" : {
        "album_type" : "album",
        "artists" : [ {
          "external_urls" : {
            "spotify" : "https://open.spotify.com/artist/397vMytaNjxUchUUljK6NW"
          },
          "href" : "https://api.spotify.com/v1/artists/397vMytaNjxUchUUljK6NW",
          "id" : "397vMytaNjxUchUUljK6NW",
          "name" : "온누리 워십 미니스트리 Onnuri Worship Ministry",
          "type" : "artist",
          "uri" : "spotify:artist:397vMytaNjxUchUUljK6NW"
        } ],
        "external_urls" : {
          "spotify" : "https://open.spotify.com/album/55mreJXdNhz8xf3QEG5iSB"
        },
        "href" : "https://api.spotify.com/v1/albums/55mreJXdNhz8xf3QEG5iSB",
        "id" : "55mreJXdNhz8xf3QEG5iSB",
        "images" : [ {
          "height" : 640,
          "url" : "https://i.scdn.co/image/ab67616d0000b2730463a92aad80f2c40d99daf4",
          "width" : 640
        }, {
          "height" : 300,
          "url" : "https://i.scdn.co/image/ab67616d00001e020463a92aad80f2c40d99daf4",
          "width" : 300
        }, {
          "height" : 64,
          "url" : "https://i.scdn.co/image/ab67616d000048510463a92aad80f2c40d99daf4",
          "width" : 64
        } ],
        "name" : "2014 온누리 워십 라이브 Onnuri Worship Live",
        "release_date" : "2014-09-01",
        "release_date_precision" : "day",
        "total_tracks" : 11,
        "type" : "album",
        "uri" : "spotify:album:55mreJXdNhz8xf3QEG5iSB"
      },
      "artists" : [ {
        "external_urls" : {
          "spotify" : "https://open.spotify.com/artist/397vMytaNjxUchUUljK6NW"
        },
        "href" : "https://api.spotify.com/v1/artists/397vMytaNjxUchUUljK6NW",
        "id" : "397vMytaNjxUchUUljK6NW",
        "name" : "온누리 워십 미니스트리 Onnuri Worship Ministry",
        "type" : "artist",
        "uri" : "spotify:artist:397vMytaNjxUchUUljK6NW"
      } ],
      "disc_number" : 1,
      "duration_ms" : 322453,
      "explicit" : false,
      "external_ids" : {
        "isrc" : "KRA351404351"
      },
      "external_urls" : {
        "spotify" : "https://open.spotify.com/track/1g7Ut8wzzhnEFcokZ50XN3"
      },
      "href" : "https://api.spotify.com/v1/tracks/1g7Ut8wzzhnEFcokZ50XN3",
      "id" : "1g7Ut8wzzhnEFcokZ50XN3",
      "is_local" : false,
      "is_playable" : true,
      "name" : "내 구주 예수를 더욱 사랑 More Love to Thee",
      "popularity" : 8,
      "preview_url" : "https://p.scdn.co/mp3-preview/6e27b197f56554711812a2e3268782555812710c?cid=774b29d4f13844c495f206cafdad9c86",
      "track_number" : 8,
      "type" : "track",
      "uri" : "spotify:track:1g7Ut8wzzhnEFcokZ50XN3"
    }, {
      "album" : {
        "album_type" : "album",
        "artists" : [ {
          "external_urls" : {
            "spotify" : "https://open.spotify.com/artist/6p21nVelZcO7t75I4LSaTe"
          },
          "href" : "https://api.spotify.com/v1/artists/6p21nVelZcO7t75I4LSaTe",
          "id" : "6p21nVelZcO7t75I4LSaTe",
          "name" : "Andy Joshua",
          "type" : "artist",
          "uri" : "spotify:artist:6p21nVelZcO7t75I4LSaTe"
        } ],
        "external_urls" : {
          "spotify" : "https://open.spotify.com/album/6cA7U9YJxSDDAXi4wX3LJk"
        },
        "href" : "https://api.spotify.com/v1/albums/6cA7U9YJxSDDAXi4wX3LJk",
        "id" : "6cA7U9YJxSDDAXi4wX3LJk",
        "images" : [ {
          "height" : 640,
          "url" : "https://i.scdn.co/image/ab67616d0000b27370518bb9018ca321ed8a22b5",
          "width" : 640
        }, {
          "height" : 300,
          "url" : "https://i.scdn.co/image/ab67616d00001e0270518bb9018ca321ed8a22b5",
          "width" : 300
        }, {
          "height" : 64,
          "url" : "https://i.scdn.co/image/ab67616d0000485170518bb9018ca321ed8a22b5",
          "width" : 64
        } ],
        "name" : "재즈 찬송가 Jazz Hymns Best 3",
        "release_date" : "2018-03-20",
        "release_date_precision" : "day",
        "total_tracks" : 10,
        "type" : "album",
        "uri" : "spotify:album:6cA7U9YJxSDDAXi4wX3LJk"
      },
      "artists" : [ {
        "external_urls" : {
          "spotify" : "https://open.spotify.com/artist/6p21nVelZcO7t75I4LSaTe"
        },
        "href" : "https://api.spotify.com/v1/artists/6p21nVelZcO7t75I4LSaTe",
        "id" : "6p21nVelZcO7t75I4LSaTe",
        "name" : "Andy Joshua",
        "type" : "artist",
        "uri" : "spotify:artist:6p21nVelZcO7t75I4LSaTe"
      } ],
      "disc_number" : 1,
      "duration_ms" : 266057,
      "explicit" : false,
      "external_ids" : {
        "isrc" : "KRA351800158"
      },
      "external_urls" : {
        "spotify" : "https://open.spotify.com/track/0S4JxBQlTzhKdwEvfueVGY"
      },
      "href" : "https://api.spotify.com/v1/tracks/0S4JxBQlTzhKdwEvfueVGY",
      "id" : "0S4JxBQlTzhKdwEvfueVGY",
      "is_local" : false,
      "is_playable" : true,
      "name" : "내 구주 예수를 더욱 사랑 More Love to Thee, O Christ",
      "popularity" : 10,
      "preview_url" : "https://p.scdn.co/mp3-preview/6aaff215f2a08ccfcb6d0f37377167d63734a767?cid=774b29d4f13844c495f206cafdad9c86",
      "track_number" : 6,
      "type" : "track",
      "uri" : "spotify:track:0S4JxBQlTzhKdwEvfueVGY"
    } ],
    "limit" : 10,
    "next" : "https://api.spotify.com/v1/search?query=More+Love+to+Thee&type=track&market=US&offset=15&limit=10",
    "offset" : 5,
    "previous" : "https://api.spotify.com/v1/search?query=More+Love+to+Thee&type=track&market=US&offset=0&limit=10",
    "total" : 226
  }
}