{
  "tracks" : {
    "href" : "https://api.spotify.com/v1/search?query=Nothing+Between&type=track&market=US&offset=5&limit=10",
    "items" : [ {
      "album" : {
        "album_type" : "album",
        "artists" : [ {
          "external_urls" : {
            "spotify" : "https://open.spotify.com/artist/2vd2HnNh4pdYa9gDVHFjEu"
          },
          "href" : "https://api.spotify.com/v1/artists/2vd2HnNh4pdYa9gDVHFjEu",
          "id" : "2vd2HnNh4pdYa9gDVHFjEu",
          "name" : "As I Lay Dying",
          "type" : "artist",
          "uri" : "spotify:artist:2vd2HnNh4pdYa9gDVHFjEu"
        } ],
        "external_urls" : {
          "spotify" : "https://open.spotify.com/album/2hghqPOGmfBdEfWeMsQWdN"
        },
        "href" : "https://api.spotify.com/v1/albums/2hghqPOGmfBdEfWeMsQWdN",
        "id" : "2hghqPOGmfBdEfWeMsQWdN",
        "images" : [ {
          "height" : 640,
          "url" : "https://i.scdn.co/image/ab67616d0000b273ebfdb4416c9a8290b8378521",
          "width" : 640
        }, {
          "height" : 300,
          "url" : "https://i.scdn.co/image/ab67616d00001e02ebfdb4416c9a8290b8378521",
          "width" : 300
        }, {
          "height" : 64,
          "url" : "https://i.scdn.co/image/ab67616d00004851ebfdb4416c9a8290b8378521",
          "width" : 64
        } ],
        "name" : "An Ocean Between Us",
        "release_date" : "2007-08-21",
        "release_date_precision" : "day",
        "total_tracks" : 12,
        "type" : "album",
        "uri" : "spotify:album:2hghqPOGmfBdEfWeMsQWdN"
      },
      "artists" : [ {
        "external_urls" : {
          "spotify" : "https://open.spotify.com/artist/2vd2HnNh4pdYa9gDVHFjEu"
        },
        "href" : "https://api.spotify.com/v1/artists/2vd2HnNh4pdYa9gDVHFjEu",
        "id" : "2vd2HnNh4pdYa9gDVHFjEu",
        "name" : "As I Lay Dying",
        "type" : "artist",
        "uri" : "spotify:artist:2vd2HnNh4pdYa9gDVHFjEu"
      } ],
      "disc_number" : 1,
      "duration_ms" : 223653,
      "explicit" : false,
      "external_ids" : {
        "isrc" : "USMBR0705297"
      },
      "external_urls" : {
        "spotify" : "https://open.spotify.com/track/2zy79BntQ1kumEUeqM5O84"
      },
      "href" : "https://api.spotify.com/v1/tracks/2zy79BntQ1kumEUeqM5O84",
      "id" : "2zy79BntQ1kumEUeqM5O84",
      "is_local" : false,
      "is_playable" : true,
      "name" : "Nothing Left",
      "popularity" : 55,
      "preview_url" : "https://p.scdn.co/mp3-preview/29b3b45240d0dfebe430e03d7381f6f3da95a71e?cid=774b29d4f13844c495f206cafdad9c86",
      "track_number" : 2,
      "type" : "track",
      "uri" : "spotify:track:2zy79BntQ1kumEUeqM5O84"
    }, {
      "album" : {
        "album_type" : "album",
        "artists" : [ {
          "external_urls" : {
            "spotify" : "https://open.spotify.com/artist/5QEQTOTzN3kxmK41BaLFK5"
          },
          "href" : "https://api.spotify.com/v1/artists/5QEQTOTzN3kxmK41BaLFK5",
          "id" : "5QEQTOTzN3kxmK41BaLFK5",
          "name" : "Grady Spencer & the Work",
          "type" : "artist",
          "uri" : "spotify:artist:5QEQTOTzN3kxmK41BaLFK5"
        } ],
        "external_urls" : {
          "spotify" : "https://open.spotify.com/album/0mLQMmcTKrBn2jJSxgYwdT"
        },
        "href" : "https://api.spotify.com/v1/albums/0mLQMmcTKrBn2jJSxgYwdT",
        "id" : "0mLQMmcTKrBn2jJSxgYwdT",
        "images" : [ {
          "height" : 640,
          "url" : "https://i.scdn.co/image/ab67616d0000b27387b9240bff8634630e0b8493",
          "width" : 640
        }, {
          "height" : 300,
          "url" : "https://i.scdn.co/image/ab67616d00001e0287b9240bff8634630e0b8493",
          "width" : 300
        }, {
          "height" : 64,
          "url" : "https://i.scdn.co/image/ab67616d0000485187b9240bff8634630e0b8493",
          "width" : 64
        } ],
        "name" : "The Line Between",
        "release_date" : "2016-04-22",
        "release_date_precision" : "day",
        "total_tracks" : 13,
        "type" : "album",
        "uri" : "spotify:album:0mLQMmcTKrBn2jJSxgYwdT"
      },
      "artists" : [ {
        "external_urls" : {
          "spotify" : "https://open.spotify.com/artist/5QEQTOTzN3kxmK41BaLFK5"
        },
        "href" : "https://api.spotify.com/v1/artists/5QEQTOTzN3kxmK41BaLFK5",
        "id" : "5QEQTOTzN3kxmK41BaLFK5",
        "name" : "Grady Spencer & the Work",
        "type" : "artist",
        "uri" : "spotify:artist:5QEQTOTzN3kxmK41BaLFK5"
      } ],
      "disc_number" : 1,
      "duration_ms" : 245906,
      "explicit" : false,
      "external_ids" : {
        "isrc" : "QMAAK1659364"
      },
      "external_urls" : {
        "spotify" : "https://open.spotify.com/track/3MLmUZ3cd1zBHJa7A5IMOM"
      },
      "href" : "https://api.spotify.com/v1/tracks/3MLmUZ3cd1zBHJa7A5IMOM",
      "id" : "3MLmUZ3cd1zBHJa7A5IMOM",
      "is_local" : false,
      "is_playable" : true,
      "name" : "Nothing Is Bad",
      "popularity" : 49,
      "preview_url" : "https://p.scdn.co/mp3-preview/8c251b58543bc5b7dd26e40904283861f1ee18c7?cid=774b29d4f13844c495f206cafdad9c86",
      "track_number" : 3,
      "type" : "track",
      "uri" : "spotify:track:3MLmUZ3cd1zBHJa7A5IMOM"
    }, {
      "album" : {
        "album_type" : "compilation",
        "artists" : [ {
          "external_urls" : {
            "spotify" : "https://open.spotify.com/artist/47zz7sob9NUcODy0BTDvKx"
          },
          "href" : "https://api.spotify.com/v1/artists/47zz7sob9NUcODy0BTDvKx",
          "id" : "47zz7sob9NUcODy0BTDvKx",
          "name" : "Sade",
          "type" : "artist",
          "uri" : "spotify:artist:47zz7sob9NUcODy0BTDvKx"
        } ],
        "external_urls" : {
          "spotify" : "https://open.spotify.com/album/3JYT9f8X9LOfpTzbKDWN4a"
        },
        "href" : "https://api.spotify.com/v1/albums/3JYT9f8X9LOfpTzbKDWN4a",
        "id" : "3JYT9f8X9LOfpTzbKDWN4a",
        "images" : [ {
          "height" : 640,
          "url" : "https://i.scdn.co/image/ab67616d0000b273fc221d8a9119a2d1ab41c8b1",
          "width" : 640
        }, {
          "height" : 300,
          "url" : "https://i.scdn.co/image/ab67616d00001e02fc221d8a9119a2d1ab41c8b1",
          "width" : 300
        }, {
          "height" : 64,
          "url" : "https://i.scdn.co/image/ab67616d00004851fc221d8a9119a2d1ab41c8b1",
          "width" : 64
        } ],
        "name" : "The Ultimate Collection",
        "release_date" : "2011-04-29",
        "release_date_precision" : "day",
        "total_tracks" : 29,
        "type" : "album",
        "uri" : "spotify:album:3JYT9f8X9LOfpTzbKDWN4a"
      },
      "artists" : [ {
        "external_urls" : {
          "spotify" : "https://open.spotify.com/artist/47zz7sob9NUcODy0BTDvKx"
        },
        "href" : "https://api.spotify.com/v1/artists/47zz7sob9NUcODy0BTDvKx",
        "id" : "47zz7sob9NUcODy0BTDvKx",
        "name" : "Sade",
        "type" : "artist",
        "uri" : "spotify:artist:47zz7sob9NUcODy0BTDvKx"
      } ],
      "disc_number" : 1,
      "duration_ms" : 232666,
      "explicit" : false,
      "external_ids" : {
        "isrc" : "GBARL1100327"
      },
      "external_urls" : {
        "spotify" : "https://open.spotify.com/track/6pBDa5KwQ51kbs4WusIPPw"
      },
      "href" : "https://api.spotify.com/v1/tracks/6pBDa5KwQ51kbs4WusIPPw",
      "id" : "6pBDa5KwQ51kbs4WusIPPw",
      "is_local" : false,
      "is_playable" : true,
      "name" : "Nothing Can Come Between Us - Remastered",
      "popularity" : 52,
      "preview_url" : "https://p.scdn.co/mp3-preview/64d1de298213f59e9eef78075f030afd56237ccd?cid=774b29d4f13844c495f206cafdad9c86",
      "track_number" : 10,
      "type" : "track",
      "uri" : "spotify:track:6pBDa5KwQ51kbs4WusIPPw"
    }, {
      "album" : {
        "album_type" : "album",
        "artists" : [ {
          "external_urls" : {
            "spotify" : "https://open.spotify.com/artist/1Fr6agZ6iSM5Ynn2k4C8sc"
          },
          "href" : "https://api.spotify.com/v1/artists/1Fr6agZ6iSM5Ynn2k4C8sc",
          "id" : "1Fr6agZ6iSM5Ynn2k4C8sc",
          "name" : "VÉRITÉ",
          "type" : "artist",
          "uri" : "spotify:artist:1Fr6agZ6iSM5Ynn2k4C8sc"
        } ],
        "external_urls" : {
          "spotify" : "https://open.spotify.com/album/4HV40LQx2FfWOkpcJdRt9M"
        },
        "href" : "https://api.spotify.com/v1/albums/4HV40LQx2FfWOkpcJdRt9M",
        "id" : "4HV40LQx2FfWOkpcJdRt9M",
        "images" : [ {
          "height" : 640,
          "url" : "https://i.scdn.co/image/ab67616d0000b273e9fe0cc337df756814dbc984",
          "width" : 640
        }, {
          "height" : 300,
          "url" : "https://i.scdn.co/image/ab67616d00001e02e9fe0cc337df756814dbc984",
          "width" : 300
        }, {
          "height" : 64,
          "url" : "https://i.scdn.co/image/ab67616d00004851e9fe0cc337df756814dbc984",
          "width" : 64
        } ],
        "name" : "Somewhere in Between",
        "release_date" : "2017-06-23",
        "release_date_precision" : "day",
        "total_tracks" : 13,
        "type" : "album",
        "uri" : "spotify:album:4HV40LQx2FfWOkpcJdRt9M"
      },
      "artists" : [ {
        "external_urls" : {
          "spotify" : "https://open.spotify.com/artist/1Fr6agZ6iSM5Ynn2k4C8sc"
        },
        "href" : "https://api.spotify.com/v1/artists/1Fr6agZ6iSM5Ynn2k4C8sc",
        "id" : "1Fr6agZ6iSM5Ynn2k4C8sc",
        "name" : "VÉRITÉ",
        "type" : "artist",
        "uri" : "spotify:artist:1Fr6agZ6iSM5Ynn2k4C8sc"
      } ],
      "disc_number" : 1,
      "duration_ms" : 191186,
      "explicit" : false,
      "external_ids" : {
        "isrc" : "GBWWP1702735"
      },
      "external_urls" : {
        "spotify" : "https://open.spotify.com/track/4SnnymSyahBjczzbcp9vs3"
      },
      "href" : "https://api.spotify.com/v1/tracks/4SnnymSyahBjczzbcp9vs3",
      "id" : "4SnnymSyahBjczzbcp9vs3",
      "is_local" : false,
      "is_playable" : true,
      "name" : "Nothing",
      "popularity" : 41,
      "preview_url" : "https://p.scdn.co/mp3-preview/1159738c2db59f38a6ef8946852724c9eb77fe57?cid=774b29d4f13844c495f206cafdad9c86",
      "track_number" : 11,
      "type" : "track",
      "uri" : "spotify:track:4SnnymSyahBjczzbcp9vs3"
    }, {
      "album" : {
        "album_type" : "compilation",
        "artists" : [ {
          "external_urls" : {
            "spotify" : "https://open.spotify.com/artist/47zz7sob9NUcODy0BTDvKx"
          },
          "href" : "https://api.spotify.com/v1/artists/47zz7sob9NUcODy0BTDvKx",
          "id" : "47zz7sob9NUcODy0BTDvKx",
          "name" : "Sade",
          "type" : "artist",
          "uri" : "spotify:artist:47zz7sob9NUcODy0BTDvKx"
        } ],
        "external_urls" : {
          "spotify" : "https://open.spotify.com/album/5eLHiRRgWKHtzEbQCew8pK"
        },
        "href" : "https://api.spotify.com/v1/albums/5eLHiRRgWKHtzEbQCew8pK",
        "id" : "5eLHiRRgWKHtzEbQCew8pK",
        "images" : [ {
          "height" : 640,
          "url" : "https://i.scdn.co/image/ab67616d0000b2733980db35e4113b2cdf55ed12",
          "width" : 640
        }, {
          "height" : 300,
          "url" : "https://i.scdn.co/image/ab67616d00001e023980db35e4113b2cdf55ed12",
          "width" : 300
        }, {
          "height" : 64,
          "url" : "https://i.scdn.co/image/ab67616d000048513980db35e4113b2cdf55ed12",
          "width" : 64
        } ],
        "name" : "The Best Of Sade",
        "release_date" : "1994-10-31",
        "release_date_precision" : "day",
        "total_tracks" : 16,
        "type" : "album",
        "uri" : "spotify:album:5eLHiRRgWKHtzEbQCew8pK"
      },
      "artists" : [ {
        "external_urls" : {
          "spotify" : "https://open.spotify.com/artist/47zz7sob9NUcODy0BTDvKx"
        },
        "href" : "https://api.spotify.com/v1/artists/47zz7sob9NUcODy0BTDvKx",
        "id" : "47zz7sob9NUcODy0BTDvKx",
        "name" : "Sade",
        "type" : "artist",
        "uri" : "spotify:artist:47zz7sob9NUcODy0BTDvKx"
      } ],
      "disc_number" : 1,
      "duration_ms" : 234666,
      "explicit" : false,
      "external_ids" : {
        "isrc" : "GBBBM8800001"
      },
      "external_urls" : {
        "spotify" : "https://open.spotify.com/track/5FIJIyaG5I5UeSEPvWt1nd"
      },
      "href" : "https://api.spotify.com/v1/tracks/5FIJIyaG5I5UeSEPvWt1nd",
      "id" : "5FIJIyaG5I5UeSEPvWt1nd",
      "is_local" : false,
      "is_playable" : true,
      "name" : "Nothing Can Come Between Us",
      "popularity" : 46,
      "preview_url" : "https://p.scdn.co/mp3-preview/070b8c4e2ade9e4934dd0f69207087a2f3349e09?cid=774b29d4f13844c495f206cafdad9c86",
      "track_number" : 10,
      "type" : "track",
      "uri" : "spotify:track:5FIJIyaG5I5UeSEPvWt1nd"
    }, {
      "album" : {
        "album_type" : "album",
        "artists" : [ {
          "external_urls" : {
            "spotify" : "https://open.spotify.com/artist/4v9TwSGVrHPLX0APn1z0XU"
          },
          "href" : "https://api.spotify.com/v1/artists/4v9TwSGVrHPLX0APn1z0XU",
          "id" : "4v9TwSGVrHPLX0APn1z0XU",
          "name" : "The Ocean Blue",
          "type" : "artist",
          "uri" : "spotify:artist:4v9TwSGVrHPLX0APn1z0XU"
        } ],
        "external_urls" : {
          "spotify" : "https://open.spotify.com/album/6jxqTcePlQDTeSzeYkLV2T"
        },
        "href" : "https://api.spotify.com/v1/albums/6jxqTcePlQDTeSzeYkLV2T",
        "id" : "6jxqTcePlQDTeSzeYkLV2T",
        "images" : [ {
          "height" : 640,
          "url" : "https://i.scdn.co/image/ab67616d0000b27318fbfa31beeef5cf912f82ce",
          "width" : 640
        }, {
          "height" : 300,
          "url" : "https://i.scdn.co/image/ab67616d00001e0218fbfa31beeef5cf912f82ce",
          "width" : 300
        }, {
          "height" : 64,
          "url" : "https://i.scdn.co/image/ab67616d0000485118fbfa31beeef5cf912f82ce",
          "width" : 64
        } ],
        "name" : "The Ocean Blue",
        "release_date" : "1989-07-21",
        "release_date_precision" : "day",
        "total_tracks" : 12,
        "type" : "album",
        "uri" : "spotify:album:6jxqTcePlQDTeSzeYkLV2T"
      },
      "artists" : [ {
        "external_urls" : {
          "spotify" : "https://open.spotify.com/artist/4v9TwSGVrHPLX0APn1z0XU"
        },
        "href" : "https://api.spotify.com/v1/artists/4v9TwSGVrHPLX0APn1z0XU",
        "id" : "4v9TwSGVrHPLX0APn1z0XU",
        "name" : "The Ocean Blue",
        "type" : "artist",
        "uri" : "spotify:artist:4v9TwSGVrHPLX0APn1z0XU"
      } ],
      "disc_number" : 1,
      "duration_ms" : 242026,
      "explicit" : false,
      "external_ids" : {
        "isrc" : "USRE10100001"
      },
      "external_urls" : {
        "spotify" : "https://open.spotify.com/track/1Nm7gI6fbdeUMWSA1YSpEk"
      },
      "href" : "https://api.spotify.com/v1/tracks/1Nm7gI6fbdeUMWSA1YSpEk",
      "id" : "1Nm7gI6fbdeUMWSA1YSpEk",
      "is_local" : false,
      "is_playable" : true,
      "name" : "Between Something and Nothing",
      "popularity" : 41,
      "preview_url" : "https://p.scdn.co/mp3-preview/68d686caa20a619a94cdd224e735130c884153e3?cid=774b29d4f13844c495f206cafdad9c86",
      "track_number" : 1,
      "type" : "track",
      "uri" : "spotify:track:1Nm7gI6fbdeUMWSA1YSpEk"
    }, {
      "album" : {
        "album_type" : "album",
        "artists" : [ {
          "external_urls" : {
            "spotify" : "https://open.spotify.com/artist/47zz7sob9NUcODy0BTDvKx"
          },
          "href" : "https://api.spotify.com/v1/artists/47zz7sob9NUcODy0BTDvKx",
          "id" : "47zz7sob9NUcODy0BTDvKx",
          "name" : "Sade",
          "type" : "artist",
          "uri" : "spotify:artist:47zz7sob9NUcODy0BTDvKx"
        } ],
        "external_urls" : {
          "spotify" : "https://open.spotify.com/album/6uitRl1P04zFg325MmqOlw"
        },
        "href" : "https://api.spotify.com/v1/albums/6uitRl1P04zFg325MmqOlw",
        "id" : "6uitRl1P04zFg325MmqOlw",
        "images" : [ {
          "height" : 640,
          "url" : "https://i.scdn.co/image/ab67616d0000b2731b33536319570c73e1392b90",
          "width" : 640
        }, {
          "height" : 300,
          "url" : "https://i.scdn.co/image/ab67616d00001e021b33536319570c73e1392b90",
          "width" : 300
        }, {
          "height" : 64,
          "url" : "https://i.scdn.co/image/ab67616d000048511b33536319570c73e1392b90",
          "width" : 64
        } ],
        "name" : "Bring Me Home - Live 2011",
        "release_date" : "2012-05-21",
        "release_date_precision" : "day",
        "total_tracks" : 13,
        "type" : "album",
        "uri" : "spotify:album:6uitRl1P04zFg325MmqOlw"
      },
      "artists" : [ {
        "external_urls" : {
          "spotify" : "https://open.spotify.com/artist/47zz7sob9NUcODy0BTDvKx"
        },
        "href" : "https://api.spotify.com/v1/artists/47zz7sob9NUcODy0BTDvKx",
        "id" : "47zz7sob9NUcODy0BTDvKx",
        "name" : "Sade",
        "type" : "artist",
        "uri" : "spotify:artist:47zz7sob9NUcODy0BTDvKx"
      } ],
      "disc_number" : 1,
      "duration_ms" : 382000,
      "explicit" : false,
      "external_ids" : {
        "isrc" : "GBARL1200324"
      },
      "external_urls" : {
        "spotify" : "https://open.spotify.com/track/5sSrhbjKD0u1uqyU0gMW0R"
      },
      "href" : "https://api.spotify.com/v1/tracks/5sSrhbjKD0u1uqyU0gMW0R",
      "id" : "5sSrhbjKD0u1uqyU0gMW0R",
      "is_local" : false,
      "is_playable" : true,
      "name" : "Paradise / Nothing Can Come Between Us - Live 2011",
      "popularity" : 45,
      "preview_url" : "https://p.scdn.co/mp3-preview/234e7f9c38263f457450e019e24269519466dc10?cid=774b29d4f13844c495f206cafdad9c86",
      "track_number" : 8,
      "type" : "track",
      "uri" : "spotify:track:5sSrhbjKD0u1uqyU0gMW0R"
    }, {
      "album" : {
        "album_type" : "album",
        "artists" : [ {
          "external_urls" : {
            "spotify" : "https://open.spotify.com/artist/1Fr6agZ6iSM5Ynn2k4C8sc"
          },
          "href" : "https://api.spotify.com/v1/artists/1Fr6agZ6iSM5Ynn2k4C8sc",
          "id" : "1Fr6agZ6iSM5Ynn2k4C8sc",
          "name" : "VÉRITÉ",
          "type" : "artist",
          "uri" : "spotify:artist:1Fr6agZ6iSM5Ynn2k4C8sc"
        } ],
        "external_urls" : {
          "spotify" : "https://open.spotify.com/album/4HV40LQx2FfWOkpcJdRt9M"
        },
        "href" : "https://api.spotify.com/v1/albums/4HV40LQx2FfWOkpcJdRt9M",
        "id" : "4HV40LQx2FfWOkpcJdRt9M",
        "images" : [ {
          "height" : 640,
          "url" : "https://i.scdn.co/image/ab67616d0000b273e9fe0cc337df756814dbc984",
          "width" : 640
        }, {
          "height" : 300,
          "url" : "https://i.scdn.co/image/ab67616d00001e02e9fe0cc337df756814dbc984",
          "width" : 300
        }, {
          "height" : 64,
          "url" : "https://i.scdn.co/image/ab67616d00004851e9fe0cc337df756814dbc984",
          "width" : 64
        } ],
        "name" : "Somewhere in Between",
        "release_date" : "2017-06-23",
        "release_date_precision" : "day",
        "total_tracks" : 13,
        "type" : "album",
        "uri" : "spotify:album:4HV40LQx2FfWOkpcJdRt9M"
      },
      "artists" : [ {
        "external_urls" : {
          "spotify" : "https://open.spotify.com/artist/1Fr6agZ6iSM5Ynn2k4C8sc"
        },
        "href" : "https://api.spotify.com/v1/artists/1Fr6agZ6iSM5Ynn2k4C8sc",
        "id" : "1Fr6agZ6iSM5Ynn2k4C8sc",
        "name" : "VÉRITÉ",
        "type" : "artist",
        "uri" : "spotify:artist:1Fr6agZ6iSM5Ynn2k4C8sc"
      } ],
      "disc_number" : 1,
      "duration_ms" : 221946,
      "explicit" : false,
      "external_ids" : {
        "isrc" : "GBWWP1702730"
      },
      "external_urls" : {
        "spotify" : "https://open.spotify.com/track/3peHeqaa3c0bDIA3whCWR0"
      },
      "href" : "https://api.spotify.com/v1/tracks/3peHeqaa3c0bDIA3whCWR0",
      "id" : "3peHeqaa3c0bDIA3whCWR0",
      "is_local" : false,
      "is_playable" : true,
      "name" : "Need Nothing",
      "popularity" : 42,
      "preview_url" : "https://p.scdn.co/mp3-preview/fcba08b80b951640c4757e31d76a6647505e850f?cid=774b29d4f13844c495f206cafdad9c86",
      "track_number" : 6,
      "type" : "track",
      "uri" : "spotify:track:3peHeqaa3c0bDIA3whCWR0"
    }, {
      "album" : {
        "album_type" : "album",
        "artists" : [ {
          "external_urls" : {
            "spotify" : "https://open.spotify.com/artist/74eX4C98E4FCrAMl39qRsJ"
          },
          "href" : "https://api.spotify.com/v1/artists/74eX4C98E4FCrAMl39qRsJ",
          "id" : "74eX4C98E4FCrAMl39qRsJ",
          "name" : "Theory of a Deadman",
          "type" : "artist",
          "uri" : "spotify:artist:74eX4C98E4FCrAMl39qRsJ"
        } ],
        "external_urls" : {
          "spotify" : "https://open.spotify.com/album/7AzUvy7LiiOVoVTrVKXsas"
        },
        "href" : "https://api.spotify.com/v1/albums/7AzUvy7LiiOVoVTrVKXsas",
        "id" : "7AzUvy7LiiOVoVTrVKXsas",
        "images" : [ {
          "height" : 640,
          "url" : "https://i.scdn.co/image/ab67616d0000b2739211fa1ec9bc3883eb837d92",
          "width" : 640
        }, {
          "height" : 300,
          "url" : "https://i.scdn.co/image/ab67616d00001e029211fa1ec9bc3883eb837d92",
          "width" : 300
        }, {
          "height" : 64,
          "url" : "https://i.scdn.co/image/ab67616d000048519211fa1ec9bc3883eb837d92",
          "width" : 64
        } ],
        "name" : "Theory Of A Deadman",
        "release_date" : "2002-01-01",
        "release_date_precision" : "day",
        "total_tracks" : 10,
        "type" : "album",
        "uri" : "spotify:album:7AzUvy7LiiOVoVTrVKXsas"
      },
      "artists" : [ {
        "external_urls" : {
          "spotify" : "https://open.spotify.com/artist/74eX4C98E4FCrAMl39qRsJ"
        },
        "href" : "https://api.spotify.com/v1/artists/74eX4C98E4FCrAMl39qRsJ",
        "id" : "74eX4C98E4FCrAMl39qRsJ",
        "name" : "Theory of a Deadman",
        "type" : "artist",
        "uri" : "spotify:artist:74eX4C98E4FCrAMl39qRsJ"
      } ],
      "disc_number" : 1,
      "duration_ms" : 205373,
      "explicit" : false,
      "external_ids" : {
        "isrc" : "NLA320219834"
      },
      "external_urls" : {
        "spotify" : "https://open.spotify.com/track/2mXJIYpRZGDpNPjR18tPPs"
      },
      "href" : "https://api.spotify.com/v1/tracks/2mXJIYpRZGDpNPjR18tPPs",
      "id" : "2mXJIYpRZGDpNPjR18tPPs",
      "is_local" : false,
      "is_playable" : true,
      "name" : "Nothing Could Come Between Us",
      "popularity" : 35,
      "preview_url" : null,
      "track_number" : 2,
      "type" : "track",
      "uri" : "spotify:track:2mXJIYpRZGDpNPjR18tPPs"
    }, {
      "album" : {
        "album_type" : "album",
        "artists" : [ {
          "external_urls" : {
            "spotify" : "https://open.spotify.com/artist/47zz7sob9NUcODy0BTDvKx"
          },
          "href" : "https://api.spotify.com/v1/artists/47zz7sob9NUcODy0BTDvKx",
          "id" : "47zz7sob9NUcODy0BTDvKx",
          "name" : "Sade",
          "type" : "artist",
          "uri" : "spotify:artist:47zz7sob9NUcODy0BTDvKx"
        } ],
        "external_urls" : {
          "spotify" : "https://open.spotify.com/album/5FeiZwAMqXeirKjp60E03b"
        },
        "href" : "https://api.spotify.com/v1/albums/5FeiZwAMqXeirKjp60E03b",
        "id" : "5FeiZwAMqXeirKjp60E03b",
        "images" : [ {
          "height" : 640,
          "url" : "https://i.scdn.co/image/ab67616d0000b2734464b3337ead52657dd8405c",
          "width" : 640
        }, {
          "height" : 300,
          "url" : "https://i.scdn.co/image/ab67616d00001e024464b3337ead52657dd8405c",
          "width" : 300
        }, {
          "height" : 64,
          "url" : "https://i.scdn.co/image/ab67616d000048514464b3337ead52657dd8405c",
          "width" : 64
        } ],
        "name" : "Stronger Than Pride",
        "release_date" : "1988-10-28",
        "release_date_precision" : "day",
        "total_tracks" : 10,
        "type" : "album",
        "uri" : "spotify:album:5FeiZwAMqXeirKjp60E03b"
      },
      "artists" : [ {
        "external_urls" : {
          "spotify" : "https://open.spotify.com/artist/47zz7sob9NUcODy0BTDvKx"
        },
        "href" : "https://api.spotify.com/v1/artists/47zz7sob9NUcODy0BTDvKx",
        "id" : "47zz7sob9NUcODy0BTDvKx",
        "name" : "Sade",
        "type" : "artist",
        "uri" : "spotify:artist:47zz7sob9NUcODy0BTDvKx"
      } ],
      "disc_number" : 1,
      "duration_ms" : 262800,
      "explicit" : false,
      "external_ids" : {
        "isrc" : "GBBBM8802020"
      },
      "external_urls" : {
        "spotify" : "https://open.spotify.com/track/6fM23mbGiKidAOuTExfpdv"
      },
      "href" : "https://api.spotify.com/v1/tracks/6fM23mbGiKidAOuTExfpdv",
      "id" : "6fM23mbGiKidAOuTExfpdv",
      "is_local" : false,
      "is_playable" : true,
      "name" : "Nothing Can Come Between Us",
      "popularity" : 43,
      "preview_url" : "https://p.scdn.co/mp3-preview/29c53cc914c86e1320cb53fd2fa06c08fb6a72d5?cid=774b29d4f13844c495f206cafdad9c86",
      "track_number" : 3,
      "type" : "track",
      "uri" : "spotify:track:6fM23mbGiKidAOuTExfpdv"
    } ],
    "limit" : 10,
    "next" : "https://api.spotify.com/v1/search?query=Nothing+Between&type=track&market=US&offset=15&limit=10",
    "offset" : 5,
    "previous" : "https://api.spotify.com/v1/search?query=Nothing+Between&type=track&market=US&offset=0&limit=10",
    "total" : 1032
  }
}