{
  "tracks" : {
    "href" : "https://api.spotify.com/v1/search?query=Jesus%2C+Priceless+Treasure&type=track&market=US&offset=5&limit=10",
    "items" : [ {
      "album" : {
        "album_type" : "album",
        "artists" : [ {
          "external_urls" : {
            "spotify" : "https://open.spotify.com/artist/3x8JKYweUaLjF441vguZ2D"
          },
          "href" : "https://api.spotify.com/v1/artists/3x8JKYweUaLjF441vguZ2D",
          "id" : "3x8JKYweUaLjF441vguZ2D",
          "name" : "Altar of Praise Chorale",
          "type" : "artist",
          "uri" : "spotify:artist:3x8JKYweUaLjF441vguZ2D"
        } ],
        "external_urls" : {
          "spotify" : "https://open.spotify.com/album/2yUmF4odISKzwKBwecUtPW"
        },
        "href" : "https://api.spotify.com/v1/albums/2yUmF4odISKzwKBwecUtPW",
        "id" : "2yUmF4odISKzwKBwecUtPW",
        "images" : [ {
          "height" : 640,
          "url" : "https://i.scdn.co/image/ab67616d0000b273b87d18ae83d5942b8996cefe",
          "width" : 640
        }, {
          "height" : 300,
          "url" : "https://i.scdn.co/image/ab67616d00001e02b87d18ae83d5942b8996cefe",
          "width" : 300
        }, {
          "height" : 64,
          "url" : "https://i.scdn.co/image/ab67616d00004851b87d18ae83d5942b8996cefe",
          "width" : 64
        } ],
        "name" : "Joyful, Joyful, We Adore Thee",
        "release_date" : "2020-04-29",
        "release_date_precision" : "day",
        "total_tracks" : 15,
        "type" : "album",
        "uri" : "spotify:album:2yUmF4odISKzwKBwecUtPW"
      },
      "artists" : [ {
        "external_urls" : {
          "spotify" : "https://open.spotify.com/artist/3x8JKYweUaLjF441vguZ2D"
        },
        "href" : "https://api.spotify.com/v1/artists/3x8JKYweUaLjF441vguZ2D",
        "id" : "3x8JKYweUaLjF441vguZ2D",
        "name" : "Altar of Praise Chorale",
        "type" : "artist",
        "uri" : "spotify:artist:3x8JKYweUaLjF441vguZ2D"
      } ],
      "disc_number" : 1,
      "duration_ms" : 195906,
      "explicit" : false,
      "external_ids" : {
        "isrc" : "usdy42099532"
      },
      "external_urls" : {
        "spotify" : "https://open.spotify.com/track/2IJyCjKBrSepwzPKzfBPoo"
      },
      "href" : "https://api.spotify.com/v1/tracks/2IJyCjKBrSepwzPKzfBPoo",
      "id" : "2IJyCjKBrSepwzPKzfBPoo",
      "is_local" : false,
      "is_playable" : true,
      "name" : "Jesus, Priceless Treasure",
      "popularity" : 1,
      "preview_url" : "https://p.scdn.co/mp3-preview/e57ccdf7216ef9b09ba1ccce672173487d5d4abd?cid=774b29d4f13844c495f206cafdad9c86",
      "track_number" : 7,
      "type" : "track",
      "uri" : "spotify:track:2IJyCjKBrSepwzPKzfBPoo"
    }, {
      "album" : {
        "album_type" : "single",
        "artists" : [ {
          "external_urls" : {
            "spotify" : "https://open.spotify.com/artist/70Q9QpYy0Yl7X7f6E4wZ9C"
          },
          "href" : "https://api.spotify.com/v1/artists/70Q9QpYy0Yl7X7f6E4wZ9C",
          "id" : "70Q9QpYy0Yl7X7f6E4wZ9C",
          "name" : "Renee Allsbrook",
          "type" : "artist",
          "uri" : "spotify:artist:70Q9QpYy0Yl7X7f6E4wZ9C"
        } ],
        "external_urls" : {
          "spotify" : "https://open.spotify.com/album/1PX4JLNxyIr1B0GZuw0xF1"
        },
        "href" : "https://api.spotify.com/v1/albums/1PX4JLNxyIr1B0GZuw0xF1",
        "id" : "1PX4JLNxyIr1B0GZuw0xF1",
        "images" : [ {
          "height" : 640,
          "url" : "https://i.scdn.co/image/ab67616d0000b273547fd9dbc3db3426ee345063",
          "width" : 640
        }, {
          "height" : 300,
          "url" : "https://i.scdn.co/image/ab67616d00001e02547fd9dbc3db3426ee345063",
          "width" : 300
        }, {
          "height" : 64,
          "url" : "https://i.scdn.co/image/ab67616d00004851547fd9dbc3db3426ee345063",
          "width" : 64
        } ],
        "name" : "Jesus, Priceless Treasure",
        "release_date" : "2020-03-24",
        "release_date_precision" : "day",
        "total_tracks" : 1,
        "type" : "album",
        "uri" : "spotify:album:1PX4JLNxyIr1B0GZuw0xF1"
      },
      "artists" : [ {
        "external_urls" : {
          "spotify" : "https://open.spotify.com/artist/70Q9QpYy0Yl7X7f6E4wZ9C"
        },
        "href" : "https://api.spotify.com/v1/artists/70Q9QpYy0Yl7X7f6E4wZ9C",
        "id" : "70Q9QpYy0Yl7X7f6E4wZ9C",
        "name" : "Renee Allsbrook",
        "type" : "artist",
        "uri" : "spotify:artist:70Q9QpYy0Yl7X7f6E4wZ9C"
      } ],
      "disc_number" : 1,
      "duration_ms" : 296479,
      "explicit" : false,
      "external_ids" : {
        "isrc" : "uscgj2089998"
      },
      "external_urls" : {
        "spotify" : "https://open.spotify.com/track/41q7xsrDeIwgKqtmV4UDfb"
      },
      "href" : "https://api.spotify.com/v1/tracks/41q7xsrDeIwgKqtmV4UDfb",
      "id" : "41q7xsrDeIwgKqtmV4UDfb",
      "is_local" : false,
      "is_playable" : true,
      "name" : "Jesus, Priceless Treasure",
      "popularity" : 0,
      "preview_url" : "https://p.scdn.co/mp3-preview/ce8980996c73e38ad0f6cf6fb4005e4dda65bd0b?cid=774b29d4f13844c495f206cafdad9c86",
      "track_number" : 1,
      "type" : "track",
      "uri" : "spotify:track:41q7xsrDeIwgKqtmV4UDfb"
    }, {
      "album" : {
        "album_type" : "album",
        "artists" : [ {
          "external_urls" : {
            "spotify" : "https://open.spotify.com/artist/7C8sut1Q2LevntLwKUQgMi"
          },
          "href" : "https://api.spotify.com/v1/artists/7C8sut1Q2LevntLwKUQgMi",
          "id" : "7C8sut1Q2LevntLwKUQgMi",
          "name" : "The Kantorei of Concordia Theological Seminary, Fort Wayne",
          "type" : "artist",
          "uri" : "spotify:artist:7C8sut1Q2LevntLwKUQgMi"
        }, {
          "external_urls" : {
            "spotify" : "https://open.spotify.com/artist/5WQkNzAAJwor9C0XNtUmKh"
          },
          "href" : "https://api.spotify.com/v1/artists/5WQkNzAAJwor9C0XNtUmKh",
          "id" : "5WQkNzAAJwor9C0XNtUmKh",
          "name" : "Kevin Hildebrand",
          "type" : "artist",
          "uri" : "spotify:artist:5WQkNzAAJwor9C0XNtUmKh"
        } ],
        "external_urls" : {
          "spotify" : "https://open.spotify.com/album/09Zz5ZOGlA6riSsiSDhQBN"
        },
        "href" : "https://api.spotify.com/v1/albums/09Zz5ZOGlA6riSsiSDhQBN",
        "id" : "09Zz5ZOGlA6riSsiSDhQBN",
        "images" : [ {
          "height" : 640,
          "url" : "https://i.scdn.co/image/ab67616d0000b27331261a31f5d1839708eb31ea",
          "width" : 640
        }, {
          "height" : 300,
          "url" : "https://i.scdn.co/image/ab67616d00001e0231261a31f5d1839708eb31ea",
          "width" : 300
        }, {
          "height" : 64,
          "url" : "https://i.scdn.co/image/ab67616d0000485131261a31f5d1839708eb31ea",
          "width" : 64
        } ],
        "name" : "Oh, Praise Our God",
        "release_date" : "2019-04-15",
        "release_date_precision" : "day",
        "total_tracks" : 18,
        "type" : "album",
        "uri" : "spotify:album:09Zz5ZOGlA6riSsiSDhQBN"
      },
      "artists" : [ {
        "external_urls" : {
          "spotify" : "https://open.spotify.com/artist/4xpFJ59XzXnBngXKoH9Uld"
        },
        "href" : "https://api.spotify.com/v1/artists/4xpFJ59XzXnBngXKoH9Uld",
        "id" : "4xpFJ59XzXnBngXKoH9Uld",
        "name" : "Traditional Song",
        "type" : "artist",
        "uri" : "spotify:artist:4xpFJ59XzXnBngXKoH9Uld"
      }, {
        "external_urls" : {
          "spotify" : "https://open.spotify.com/artist/7C8sut1Q2LevntLwKUQgMi"
        },
        "href" : "https://api.spotify.com/v1/artists/7C8sut1Q2LevntLwKUQgMi",
        "id" : "7C8sut1Q2LevntLwKUQgMi",
        "name" : "The Kantorei of Concordia Theological Seminary, Fort Wayne",
        "type" : "artist",
        "uri" : "spotify:artist:7C8sut1Q2LevntLwKUQgMi"
      }, {
        "external_urls" : {
          "spotify" : "https://open.spotify.com/artist/5WQkNzAAJwor9C0XNtUmKh"
        },
        "href" : "https://api.spotify.com/v1/artists/5WQkNzAAJwor9C0XNtUmKh",
        "id" : "5WQkNzAAJwor9C0XNtUmKh",
        "name" : "Kevin Hildebrand",
        "type" : "artist",
        "uri" : "spotify:artist:5WQkNzAAJwor9C0XNtUmKh"
      } ],
      "disc_number" : 1,
      "duration_ms" : 174506,
      "explicit" : false,
      "external_ids" : {
        "isrc" : "QM9A91822356"
      },
      "external_urls" : {
        "spotify" : "https://open.spotify.com/track/43BdP8WcZ2M7GOwaiCCHPL"
      },
      "href" : "https://api.spotify.com/v1/tracks/43BdP8WcZ2M7GOwaiCCHPL",
      "id" : "43BdP8WcZ2M7GOwaiCCHPL",
      "is_local" : false,
      "is_playable" : true,
      "name" : "Jesus, Priceless Treasure",
      "popularity" : 0,
      "preview_url" : "https://p.scdn.co/mp3-preview/2199f28b63b018fcebb02e70f85c94b0d2bb3c6e?cid=774b29d4f13844c495f206cafdad9c86",
      "track_number" : 17,
      "type" : "track",
      "uri" : "spotify:track:43BdP8WcZ2M7GOwaiCCHPL"
    }, {
      "album" : {
        "album_type" : "album",
        "artists" : [ {
          "external_urls" : {
            "spotify" : "https://open.spotify.com/artist/01AXustJlffGxXaDQBG8tJ"
          },
          "href" : "https://api.spotify.com/v1/artists/01AXustJlffGxXaDQBG8tJ",
          "id" : "01AXustJlffGxXaDQBG8tJ",
          "name" : "Table Singers",
          "type" : "artist",
          "uri" : "spotify:artist:01AXustJlffGxXaDQBG8tJ"
        } ],
        "external_urls" : {
          "spotify" : "https://open.spotify.com/album/6B7109sK5B8Y5xoMXTGm5R"
        },
        "href" : "https://api.spotify.com/v1/albums/6B7109sK5B8Y5xoMXTGm5R",
        "id" : "6B7109sK5B8Y5xoMXTGm5R",
        "images" : [ {
          "height" : 640,
          "url" : "https://i.scdn.co/image/ab67616d0000b27391d60e84ffa8495d1ed3b1a9",
          "width" : 640
        }, {
          "height" : 300,
          "url" : "https://i.scdn.co/image/ab67616d00001e0291d60e84ffa8495d1ed3b1a9",
          "width" : 300
        }, {
          "height" : 64,
          "url" : "https://i.scdn.co/image/ab67616d0000485191d60e84ffa8495d1ed3b1a9",
          "width" : 64
        } ],
        "name" : "Songs of the Church",
        "release_date" : "1991-01-01",
        "release_date_precision" : "day",
        "total_tracks" : 20,
        "type" : "album",
        "uri" : "spotify:album:6B7109sK5B8Y5xoMXTGm5R"
      },
      "artists" : [ {
        "external_urls" : {
          "spotify" : "https://open.spotify.com/artist/01AXustJlffGxXaDQBG8tJ"
        },
        "href" : "https://api.spotify.com/v1/artists/01AXustJlffGxXaDQBG8tJ",
        "id" : "01AXustJlffGxXaDQBG8tJ",
        "name" : "Table Singers",
        "type" : "artist",
        "uri" : "spotify:artist:01AXustJlffGxXaDQBG8tJ"
      } ],
      "disc_number" : 1,
      "duration_ms" : 262466,
      "explicit" : false,
      "external_ids" : {
        "isrc" : "ushm21959622"
      },
      "external_urls" : {
        "spotify" : "https://open.spotify.com/track/5yZJxhVUlhDtEBDN29HfaL"
      },
      "href" : "https://api.spotify.com/v1/tracks/5yZJxhVUlhDtEBDN29HfaL",
      "id" : "5yZJxhVUlhDtEBDN29HfaL",
      "is_local" : false,
      "is_playable" : true,
      "name" : "Jesus, Priceless Treasure",
      "popularity" : 0,
      "preview_url" : "https://p.scdn.co/mp3-preview/79b6efc4f5a87717f983c3b6b0e15ece58728acd?cid=774b29d4f13844c495f206cafdad9c86",
      "track_number" : 8,
      "type" : "track",
      "uri" : "spotify:track:5yZJxhVUlhDtEBDN29HfaL"
    }, {
      "album" : {
        "album_type" : "album",
        "artists" : [ {
          "external_urls" : {
            "spotify" : "https://open.spotify.com/artist/2AocWx5pyaB8bnSiQe06ZG"
          },
          "href" : "https://api.spotify.com/v1/artists/2AocWx5pyaB8bnSiQe06ZG",
          "id" : "2AocWx5pyaB8bnSiQe06ZG",
          "name" : "Kirk Meyer",
          "type" : "artist",
          "uri" : "spotify:artist:2AocWx5pyaB8bnSiQe06ZG"
        } ],
        "external_urls" : {
          "spotify" : "https://open.spotify.com/album/76bNp4fopKs1tr2QAyXcWc"
        },
        "href" : "https://api.spotify.com/v1/albums/76bNp4fopKs1tr2QAyXcWc",
        "id" : "76bNp4fopKs1tr2QAyXcWc",
        "images" : [ {
          "height" : 640,
          "url" : "https://i.scdn.co/image/ab67616d0000b2735c7a30959f711a84bf911aa5",
          "width" : 640
        }, {
          "height" : 300,
          "url" : "https://i.scdn.co/image/ab67616d00001e025c7a30959f711a84bf911aa5",
          "width" : 300
        }, {
          "height" : 64,
          "url" : "https://i.scdn.co/image/ab67616d000048515c7a30959f711a84bf911aa5",
          "width" : 64
        } ],
        "name" : "The Heavens Declare His Glory",
        "release_date" : "2004-01-01",
        "release_date_precision" : "day",
        "total_tracks" : 80,
        "type" : "album",
        "uri" : "spotify:album:76bNp4fopKs1tr2QAyXcWc"
      },
      "artists" : [ {
        "external_urls" : {
          "spotify" : "https://open.spotify.com/artist/2AocWx5pyaB8bnSiQe06ZG"
        },
        "href" : "https://api.spotify.com/v1/artists/2AocWx5pyaB8bnSiQe06ZG",
        "id" : "2AocWx5pyaB8bnSiQe06ZG",
        "name" : "Kirk Meyer",
        "type" : "artist",
        "uri" : "spotify:artist:2AocWx5pyaB8bnSiQe06ZG"
      } ],
      "disc_number" : 1,
      "duration_ms" : 66626,
      "explicit" : false,
      "external_ids" : {
        "isrc" : "ushm20535997"
      },
      "external_urls" : {
        "spotify" : "https://open.spotify.com/track/7m1RyUITy9mJrJT89l5nyL"
      },
      "href" : "https://api.spotify.com/v1/tracks/7m1RyUITy9mJrJT89l5nyL",
      "id" : "7m1RyUITy9mJrJT89l5nyL",
      "is_local" : false,
      "is_playable" : true,
      "name" : "Jesus, Priceless Treasure",
      "popularity" : 0,
      "preview_url" : "https://p.scdn.co/mp3-preview/f50ab1ac8c4aaa9ea8b81637382c58b1d11d3e5c?cid=774b29d4f13844c495f206cafdad9c86",
      "track_number" : 24,
      "type" : "track",
      "uri" : "spotify:track:7m1RyUITy9mJrJT89l5nyL"
    }, {
      "album" : {
        "album_type" : "album",
        "artists" : [ {
          "external_urls" : {
            "spotify" : "https://open.spotify.com/artist/20rlbkwNSoLrLqQUR7GRcT"
          },
          "href" : "https://api.spotify.com/v1/artists/20rlbkwNSoLrLqQUR7GRcT",
          "id" : "20rlbkwNSoLrLqQUR7GRcT",
          "name" : "Mother’s Lullaby",
          "type" : "artist",
          "uri" : "spotify:artist:20rlbkwNSoLrLqQUR7GRcT"
        } ],
        "external_urls" : {
          "spotify" : "https://open.spotify.com/album/3OabjLPG2KhNByCso5xvo3"
        },
        "href" : "https://api.spotify.com/v1/albums/3OabjLPG2KhNByCso5xvo3",
        "id" : "3OabjLPG2KhNByCso5xvo3",
        "images" : [ {
          "height" : 640,
          "url" : "https://i.scdn.co/image/ab67616d0000b2731c4a0fd78c1e67d68c066f85",
          "width" : 640
        }, {
          "height" : 300,
          "url" : "https://i.scdn.co/image/ab67616d00001e021c4a0fd78c1e67d68c066f85",
          "width" : 300
        }, {
          "height" : 64,
          "url" : "https://i.scdn.co/image/ab67616d000048511c4a0fd78c1e67d68c066f85",
          "width" : 64
        } ],
        "name" : "Hymns Vol.23",
        "release_date" : "2019-12-18",
        "release_date_precision" : "day",
        "total_tracks" : 50,
        "type" : "album",
        "uri" : "spotify:album:3OabjLPG2KhNByCso5xvo3"
      },
      "artists" : [ {
        "external_urls" : {
          "spotify" : "https://open.spotify.com/artist/20rlbkwNSoLrLqQUR7GRcT"
        },
        "href" : "https://api.spotify.com/v1/artists/20rlbkwNSoLrLqQUR7GRcT",
        "id" : "20rlbkwNSoLrLqQUR7GRcT",
        "name" : "Mother’s Lullaby",
        "type" : "artist",
        "uri" : "spotify:artist:20rlbkwNSoLrLqQUR7GRcT"
      } ],
      "disc_number" : 1,
      "duration_ms" : 175500,
      "explicit" : false,
      "external_ids" : {
        "isrc" : "QZEKE1915854"
      },
      "external_urls" : {
        "spotify" : "https://open.spotify.com/track/1udraXuZTVVK7dQiT7aOeq"
      },
      "href" : "https://api.spotify.com/v1/tracks/1udraXuZTVVK7dQiT7aOeq",
      "id" : "1udraXuZTVVK7dQiT7aOeq",
      "is_local" : false,
      "is_playable" : true,
      "name" : "Jesus, Priceless Treasure",
      "popularity" : 0,
      "preview_url" : "https://p.scdn.co/mp3-preview/3644eb5ffc295618bbb033d29ac1ffd468774b5e?cid=774b29d4f13844c495f206cafdad9c86",
      "track_number" : 2,
      "type" : "track",
      "uri" : "spotify:track:1udraXuZTVVK7dQiT7aOeq"
    }, {
      "album" : {
        "album_type" : "album",
        "artists" : [ {
          "external_urls" : {
            "spotify" : "https://open.spotify.com/artist/0hvcaiVX8KZ0YrAjiXdBor"
          },
          "href" : "https://api.spotify.com/v1/artists/0hvcaiVX8KZ0YrAjiXdBor",
          "id" : "0hvcaiVX8KZ0YrAjiXdBor",
          "name" : "Dieter Falk",
          "type" : "artist",
          "uri" : "spotify:artist:0hvcaiVX8KZ0YrAjiXdBor"
        } ],
        "external_urls" : {
          "spotify" : "https://open.spotify.com/album/6L6IFHuc5D4lavErNNYl7p"
        },
        "href" : "https://api.spotify.com/v1/albums/6L6IFHuc5D4lavErNNYl7p",
        "id" : "6L6IFHuc5D4lavErNNYl7p",
        "images" : [ {
          "height" : 640,
          "url" : "https://i.scdn.co/image/ab67616d0000b2738575876aab0d067aadff96b8",
          "width" : 640
        }, {
          "height" : 300,
          "url" : "https://i.scdn.co/image/ab67616d00001e028575876aab0d067aadff96b8",
          "width" : 300
        }, {
          "height" : 64,
          "url" : "https://i.scdn.co/image/ab67616d000048518575876aab0d067aadff96b8",
          "width" : 64
        } ],
        "name" : "Instrumental Journey",
        "release_date" : "1985-02-04",
        "release_date_precision" : "day",
        "total_tracks" : 10,
        "type" : "album",
        "uri" : "spotify:album:6L6IFHuc5D4lavErNNYl7p"
      },
      "artists" : [ {
        "external_urls" : {
          "spotify" : "https://open.spotify.com/artist/0hvcaiVX8KZ0YrAjiXdBor"
        },
        "href" : "https://api.spotify.com/v1/artists/0hvcaiVX8KZ0YrAjiXdBor",
        "id" : "0hvcaiVX8KZ0YrAjiXdBor",
        "name" : "Dieter Falk",
        "type" : "artist",
        "uri" : "spotify:artist:0hvcaiVX8KZ0YrAjiXdBor"
      } ],
      "disc_number" : 1,
      "duration_ms" : 321666,
      "explicit" : false,
      "external_ids" : {
        "isrc" : "DEVG41900215"
      },
      "external_urls" : {
        "spotify" : "https://open.spotify.com/track/5vwg8YvUaPTUCUdiIxmtXS"
      },
      "href" : "https://api.spotify.com/v1/tracks/5vwg8YvUaPTUCUdiIxmtXS",
      "id" : "5vwg8YvUaPTUCUdiIxmtXS",
      "is_local" : false,
      "is_playable" : true,
      "name" : "Jesus, Priceless Treasure",
      "popularity" : 2,
      "preview_url" : "https://p.scdn.co/mp3-preview/d2831336ab727fcfaeea4a439b444f50c8aec45d?cid=774b29d4f13844c495f206cafdad9c86",
      "track_number" : 2,
      "type" : "track",
      "uri" : "spotify:track:5vwg8YvUaPTUCUdiIxmtXS"
    }, {
      "album" : {
        "album_type" : "album",
        "artists" : [ {
          "external_urls" : {
            "spotify" : "https://open.spotify.com/artist/5qtuWs6X04DKKNuqvdSLvs"
          },
          "href" : "https://api.spotify.com/v1/artists/5qtuWs6X04DKKNuqvdSLvs",
          "id" : "5qtuWs6X04DKKNuqvdSLvs",
          "name" : "Michael Gayle",
          "type" : "artist",
          "uri" : "spotify:artist:5qtuWs6X04DKKNuqvdSLvs"
        } ],
        "external_urls" : {
          "spotify" : "https://open.spotify.com/album/4xVAVR4ppgyVOFgsnUkbXy"
        },
        "href" : "https://api.spotify.com/v1/albums/4xVAVR4ppgyVOFgsnUkbXy",
        "id" : "4xVAVR4ppgyVOFgsnUkbXy",
        "images" : [ {
          "height" : 640,
          "url" : "https://i.scdn.co/image/ab67616d0000b2735d04500cac351b12484ef71e",
          "width" : 640
        }, {
          "height" : 300,
          "url" : "https://i.scdn.co/image/ab67616d00001e025d04500cac351b12484ef71e",
          "width" : 300
        }, {
          "height" : 64,
          "url" : "https://i.scdn.co/image/ab67616d000048515d04500cac351b12484ef71e",
          "width" : 64
        } ],
        "name" : "Classic Hymns, Vol. 2",
        "release_date" : "2017-01-02",
        "release_date_precision" : "day",
        "total_tracks" : 12,
        "type" : "album",
        "uri" : "spotify:album:4xVAVR4ppgyVOFgsnUkbXy"
      },
      "artists" : [ {
        "external_urls" : {
          "spotify" : "https://open.spotify.com/artist/5qtuWs6X04DKKNuqvdSLvs"
        },
        "href" : "https://api.spotify.com/v1/artists/5qtuWs6X04DKKNuqvdSLvs",
        "id" : "5qtuWs6X04DKKNuqvdSLvs",
        "name" : "Michael Gayle",
        "type" : "artist",
        "uri" : "spotify:artist:5qtuWs6X04DKKNuqvdSLvs"
      } ],
      "disc_number" : 1,
      "duration_ms" : 95122,
      "explicit" : false,
      "external_ids" : {
        "isrc" : "QZ4JJ1703468"
      },
      "external_urls" : {
        "spotify" : "https://open.spotify.com/track/1gnKTQSmohHZsXfpdetxeT"
      },
      "href" : "https://api.spotify.com/v1/tracks/1gnKTQSmohHZsXfpdetxeT",
      "id" : "1gnKTQSmohHZsXfpdetxeT",
      "is_local" : false,
      "is_playable" : true,
      "name" : "Jesus, Priceless Treasure",
      "popularity" : 0,
      "preview_url" : "https://p.scdn.co/mp3-preview/5525f4a7058d7c832b66f5b54796f78278c5268e?cid=774b29d4f13844c495f206cafdad9c86",
      "track_number" : 1,
      "type" : "track",
      "uri" : "spotify:track:1gnKTQSmohHZsXfpdetxeT"
    }, {
      "album" : {
        "album_type" : "album",
        "artists" : [ {
          "external_urls" : {
            "spotify" : "https://open.spotify.com/artist/6zIm2MOFEcNKS0u6SZnbWO"
          },
          "href" : "https://api.spotify.com/v1/artists/6zIm2MOFEcNKS0u6SZnbWO",
          "id" : "6zIm2MOFEcNKS0u6SZnbWO",
          "name" : "Penny Rodriguez",
          "type" : "artist",
          "uri" : "spotify:artist:6zIm2MOFEcNKS0u6SZnbWO"
        } ],
        "external_urls" : {
          "spotify" : "https://open.spotify.com/album/6pfKaBdv6ZmuqdoQOB8iCW"
        },
        "href" : "https://api.spotify.com/v1/albums/6pfKaBdv6ZmuqdoQOB8iCW",
        "id" : "6pfKaBdv6ZmuqdoQOB8iCW",
        "images" : [ {
          "height" : 640,
          "url" : "https://i.scdn.co/image/ab67616d0000b273bc036c6d904022eeefb66718",
          "width" : 640
        }, {
          "height" : 300,
          "url" : "https://i.scdn.co/image/ab67616d00001e02bc036c6d904022eeefb66718",
          "width" : 300
        }, {
          "height" : 64,
          "url" : "https://i.scdn.co/image/ab67616d00004851bc036c6d904022eeefb66718",
          "width" : 64
        } ],
        "name" : "Images",
        "release_date" : "1997",
        "release_date_precision" : "year",
        "total_tracks" : 18,
        "type" : "album",
        "uri" : "spotify:album:6pfKaBdv6ZmuqdoQOB8iCW"
      },
      "artists" : [ {
        "external_urls" : {
          "spotify" : "https://open.spotify.com/artist/6zIm2MOFEcNKS0u6SZnbWO"
        },
        "href" : "https://api.spotify.com/v1/artists/6zIm2MOFEcNKS0u6SZnbWO",
        "id" : "6zIm2MOFEcNKS0u6SZnbWO",
        "name" : "Penny Rodriguez",
        "type" : "artist",
        "uri" : "spotify:artist:6zIm2MOFEcNKS0u6SZnbWO"
      } ],
      "disc_number" : 1,
      "duration_ms" : 164866,
      "explicit" : false,
      "external_ids" : {
        "isrc" : "uscgh0571608"
      },
      "external_urls" : {
        "spotify" : "https://open.spotify.com/track/2ir8dUegjA9dwMrq01lqqF"
      },
      "href" : "https://api.spotify.com/v1/tracks/2ir8dUegjA9dwMrq01lqqF",
      "id" : "2ir8dUegjA9dwMrq01lqqF",
      "is_local" : false,
      "is_playable" : true,
      "name" : "Jesus, Priceless Treasure",
      "popularity" : 0,
      "preview_url" : "https://p.scdn.co/mp3-preview/076bdb0f419177e6bda5f8d37b965c176940b64c?cid=774b29d4f13844c495f206cafdad9c86",
      "track_number" : 6,
      "type" : "track",
      "uri" : "spotify:track:2ir8dUegjA9dwMrq01lqqF"
    }, {
      "album" : {
        "album_type" : "album",
        "artists" : [ {
          "external_urls" : {
            "spotify" : "https://open.spotify.com/artist/16D4VkKiC33cJxAmMxIyiz"
          },
          "href" : "https://api.spotify.com/v1/artists/16D4VkKiC33cJxAmMxIyiz",
          "id" : "16D4VkKiC33cJxAmMxIyiz",
          "name" : "Monica Joy",
          "type" : "artist",
          "uri" : "spotify:artist:16D4VkKiC33cJxAmMxIyiz"
        } ],
        "external_urls" : {
          "spotify" : "https://open.spotify.com/album/3e26xhqpgvtIU0C9pQk4f6"
        },
        "href" : "https://api.spotify.com/v1/albums/3e26xhqpgvtIU0C9pQk4f6",
        "id" : "3e26xhqpgvtIU0C9pQk4f6",
        "images" : [ {
          "height" : 640,
          "url" : "https://i.scdn.co/image/ab67616d0000b273dbb6e9ee308c09db86b4bcd8",
          "width" : 640
        }, {
          "height" : 300,
          "url" : "https://i.scdn.co/image/ab67616d00001e02dbb6e9ee308c09db86b4bcd8",
          "width" : 300
        }, {
          "height" : 64,
          "url" : "https://i.scdn.co/image/ab67616d00004851dbb6e9ee308c09db86b4bcd8",
          "width" : 64
        } ],
        "name" : "If Everything is Lost",
        "release_date" : "2005-01-01",
        "release_date_precision" : "day",
        "total_tracks" : 13,
        "type" : "album",
        "uri" : "spotify:album:3e26xhqpgvtIU0C9pQk4f6"
      },
      "artists" : [ {
        "external_urls" : {
          "spotify" : "https://open.spotify.com/artist/16D4VkKiC33cJxAmMxIyiz"
        },
        "href" : "https://api.spotify.com/v1/artists/16D4VkKiC33cJxAmMxIyiz",
        "id" : "16D4VkKiC33cJxAmMxIyiz",
        "name" : "Monica Joy",
        "type" : "artist",
        "uri" : "spotify:artist:16D4VkKiC33cJxAmMxIyiz"
      } ],
      "disc_number" : 1,
      "duration_ms" : 206853,
      "explicit" : false,
      "external_ids" : {
        "isrc" : "ushm90551812"
      },
      "external_urls" : {
        "spotify" : "https://open.spotify.com/track/3nJRriyYZmtK0EG1SmZJij"
      },
      "href" : "https://api.spotify.com/v1/tracks/3nJRriyYZmtK0EG1SmZJij",
      "id" : "3nJRriyYZmtK0EG1SmZJij",
      "is_local" : false,
      "is_playable" : true,
      "name" : "Jesus, Priceless Treasure",
      "popularity" : 0,
      "preview_url" : "https://p.scdn.co/mp3-preview/13b18344b46b633ce2abbac3bee2e8d45e8ee558?cid=774b29d4f13844c495f206cafdad9c86",
      "track_number" : 9,
      "type" : "track",
      "uri" : "spotify:track:3nJRriyYZmtK0EG1SmZJij"
    } ],
    "limit" : 10,
    "next" : "https://api.spotify.com/v1/search?query=Jesus%2C+Priceless+Treasure&type=track&market=US&offset=15&limit=10",
    "offset" : 5,
    "previous" : "https://api.spotify.com/v1/search?query=Jesus%2C+Priceless+Treasure&type=track&market=US&offset=0&limit=10",
    "total" : 45
  }
}