{
  "tracks" : {
    "href" : "https://api.spotify.com/v1/search?query=I+Want+Jesus+to+Walk+With+Me&type=track&market=US&offset=5&limit=10",
    "items" : [ {
      "album" : {
        "album_type" : "album",
        "artists" : [ {
          "external_urls" : {
            "spotify" : "https://open.spotify.com/artist/6v2VjBVPcGVbBqJrUWYiG1"
          },
          "href" : "https://api.spotify.com/v1/artists/6v2VjBVPcGVbBqJrUWYiG1",
          "id" : "6v2VjBVPcGVbBqJrUWYiG1",
          "name" : "Kirk Whalum",
          "type" : "artist",
          "uri" : "spotify:artist:6v2VjBVPcGVbBqJrUWYiG1"
        } ],
        "external_urls" : {
          "spotify" : "https://open.spotify.com/album/32X0W4HRWDodzORBvVTzj5"
        },
        "href" : "https://api.spotify.com/v1/albums/32X0W4HRWDodzORBvVTzj5",
        "id" : "32X0W4HRWDodzORBvVTzj5",
        "images" : [ {
          "height" : 640,
          "url" : "https://i.scdn.co/image/ab67616d0000b2739d5f1fa7cf82e934d7cb9b21",
          "width" : 640
        }, {
          "height" : 300,
          "url" : "https://i.scdn.co/image/ab67616d00001e029d5f1fa7cf82e934d7cb9b21",
          "width" : 300
        }, {
          "height" : 64,
          "url" : "https://i.scdn.co/image/ab67616d000048519d5f1fa7cf82e934d7cb9b21",
          "width" : 64
        } ],
        "name" : "Hymns in the Garden",
        "release_date" : "2001-09-21",
        "release_date_precision" : "day",
        "total_tracks" : 13,
        "type" : "album",
        "uri" : "spotify:album:32X0W4HRWDodzORBvVTzj5"
      },
      "artists" : [ {
        "external_urls" : {
          "spotify" : "https://open.spotify.com/artist/6v2VjBVPcGVbBqJrUWYiG1"
        },
        "href" : "https://api.spotify.com/v1/artists/6v2VjBVPcGVbBqJrUWYiG1",
        "id" : "6v2VjBVPcGVbBqJrUWYiG1",
        "name" : "Kirk Whalum",
        "type" : "artist",
        "uri" : "spotify:artist:6v2VjBVPcGVbBqJrUWYiG1"
      } ],
      "disc_number" : 1,
      "duration_ms" : 326960,
      "explicit" : false,
      "external_ids" : {
        "isrc" : "US6PL0100012"
      },
      "external_urls" : {
        "spotify" : "https://open.spotify.com/track/1a5mwYMHB8x7b7jpY8Is3g"
      },
      "href" : "https://api.spotify.com/v1/tracks/1a5mwYMHB8x7b7jpY8Is3g",
      "id" : "1a5mwYMHB8x7b7jpY8Is3g",
      "is_local" : false,
      "is_playable" : true,
      "name" : "I Want Jesus to Walk With Me",
      "popularity" : 9,
      "preview_url" : "https://p.scdn.co/mp3-preview/bf9b33579d04d86c831e8b2b5ab07c58bcc22317?cid=774b29d4f13844c495f206cafdad9c86",
      "track_number" : 12,
      "type" : "track",
      "uri" : "spotify:track:1a5mwYMHB8x7b7jpY8Is3g"
    }, {
      "album" : {
        "album_type" : "single",
        "artists" : [ {
          "external_urls" : {
            "spotify" : "https://open.spotify.com/artist/7GwzQ68nAdSyPtl9OCapTL"
          },
          "href" : "https://api.spotify.com/v1/artists/7GwzQ68nAdSyPtl9OCapTL",
          "id" : "7GwzQ68nAdSyPtl9OCapTL",
          "name" : "The Bonner Family",
          "type" : "artist",
          "uri" : "spotify:artist:7GwzQ68nAdSyPtl9OCapTL"
        } ],
        "external_urls" : {
          "spotify" : "https://open.spotify.com/album/67KY12pe1hEoShd0V0uI7Z"
        },
        "href" : "https://api.spotify.com/v1/albums/67KY12pe1hEoShd0V0uI7Z",
        "id" : "67KY12pe1hEoShd0V0uI7Z",
        "images" : [ {
          "height" : 640,
          "url" : "https://i.scdn.co/image/ab67616d0000b2734d086e2fe5aa68ef3c859bd9",
          "width" : 640
        }, {
          "height" : 300,
          "url" : "https://i.scdn.co/image/ab67616d00001e024d086e2fe5aa68ef3c859bd9",
          "width" : 300
        }, {
          "height" : 64,
          "url" : "https://i.scdn.co/image/ab67616d000048514d086e2fe5aa68ef3c859bd9",
          "width" : 64
        } ],
        "name" : "The Bonner Family",
        "release_date" : "2018-10-26",
        "release_date_precision" : "day",
        "total_tracks" : 6,
        "type" : "album",
        "uri" : "spotify:album:67KY12pe1hEoShd0V0uI7Z"
      },
      "artists" : [ {
        "external_urls" : {
          "spotify" : "https://open.spotify.com/artist/7GwzQ68nAdSyPtl9OCapTL"
        },
        "href" : "https://api.spotify.com/v1/artists/7GwzQ68nAdSyPtl9OCapTL",
        "id" : "7GwzQ68nAdSyPtl9OCapTL",
        "name" : "The Bonner Family",
        "type" : "artist",
        "uri" : "spotify:artist:7GwzQ68nAdSyPtl9OCapTL"
      } ],
      "disc_number" : 1,
      "duration_ms" : 106093,
      "explicit" : false,
      "external_ids" : {
        "isrc" : "US23M1800078"
      },
      "external_urls" : {
        "spotify" : "https://open.spotify.com/track/0ezENANCeQd7pKs8KplGcw"
      },
      "href" : "https://api.spotify.com/v1/tracks/0ezENANCeQd7pKs8KplGcw",
      "id" : "0ezENANCeQd7pKs8KplGcw",
      "is_local" : false,
      "is_playable" : true,
      "name" : "I Want Jesus to Walk With Me",
      "popularity" : 9,
      "preview_url" : "https://p.scdn.co/mp3-preview/d03a3534abdfe1a2a18edb4f56eb652a87d36f64?cid=774b29d4f13844c495f206cafdad9c86",
      "track_number" : 3,
      "type" : "track",
      "uri" : "spotify:track:0ezENANCeQd7pKs8KplGcw"
    }, {
      "album" : {
        "album_type" : "album",
        "artists" : [ {
          "external_urls" : {
            "spotify" : "https://open.spotify.com/artist/6ITCQmtnocRGNJ9HSMCkXT"
          },
          "href" : "https://api.spotify.com/v1/artists/6ITCQmtnocRGNJ9HSMCkXT",
          "id" : "6ITCQmtnocRGNJ9HSMCkXT",
          "name" : "Ryan Clair Music",
          "type" : "artist",
          "uri" : "spotify:artist:6ITCQmtnocRGNJ9HSMCkXT"
        } ],
        "external_urls" : {
          "spotify" : "https://open.spotify.com/album/78muKzI7BkYQvO62VpAh38"
        },
        "href" : "https://api.spotify.com/v1/albums/78muKzI7BkYQvO62VpAh38",
        "id" : "78muKzI7BkYQvO62VpAh38",
        "images" : [ {
          "height" : 640,
          "url" : "https://i.scdn.co/image/ab67616d0000b273aa2b5b35826149189335c786",
          "width" : 640
        }, {
          "height" : 300,
          "url" : "https://i.scdn.co/image/ab67616d00001e02aa2b5b35826149189335c786",
          "width" : 300
        }, {
          "height" : 64,
          "url" : "https://i.scdn.co/image/ab67616d00004851aa2b5b35826149189335c786",
          "width" : 64
        } ],
        "name" : "Less Traveled Road",
        "release_date" : "2018-01-26",
        "release_date_precision" : "day",
        "total_tracks" : 10,
        "type" : "album",
        "uri" : "spotify:album:78muKzI7BkYQvO62VpAh38"
      },
      "artists" : [ {
        "external_urls" : {
          "spotify" : "https://open.spotify.com/artist/6ITCQmtnocRGNJ9HSMCkXT"
        },
        "href" : "https://api.spotify.com/v1/artists/6ITCQmtnocRGNJ9HSMCkXT",
        "id" : "6ITCQmtnocRGNJ9HSMCkXT",
        "name" : "Ryan Clair Music",
        "type" : "artist",
        "uri" : "spotify:artist:6ITCQmtnocRGNJ9HSMCkXT"
      } ],
      "disc_number" : 1,
      "duration_ms" : 253933,
      "explicit" : false,
      "external_ids" : {
        "isrc" : "QM6781800016"
      },
      "external_urls" : {
        "spotify" : "https://open.spotify.com/track/5gW1sXzMQ3i1FyFhoftzxR"
      },
      "href" : "https://api.spotify.com/v1/tracks/5gW1sXzMQ3i1FyFhoftzxR",
      "id" : "5gW1sXzMQ3i1FyFhoftzxR",
      "is_local" : false,
      "is_playable" : true,
      "name" : "I Want Jesus to Walk with Me (The Valley)",
      "popularity" : 8,
      "preview_url" : "https://p.scdn.co/mp3-preview/72d72d388eaa50b322aee05b917733aeb237dced?cid=774b29d4f13844c495f206cafdad9c86",
      "track_number" : 6,
      "type" : "track",
      "uri" : "spotify:track:5gW1sXzMQ3i1FyFhoftzxR"
    }, {
      "album" : {
        "album_type" : "album",
        "artists" : [ {
          "external_urls" : {
            "spotify" : "https://open.spotify.com/artist/2uNcfNhlVJUyEX0t0NG1m1"
          },
          "href" : "https://api.spotify.com/v1/artists/2uNcfNhlVJUyEX0t0NG1m1",
          "id" : "2uNcfNhlVJUyEX0t0NG1m1",
          "name" : "Eric Bibb",
          "type" : "artist",
          "uri" : "spotify:artist:2uNcfNhlVJUyEX0t0NG1m1"
        } ],
        "external_urls" : {
          "spotify" : "https://open.spotify.com/album/5XDSdu70LrkjtRWSSEXBlU"
        },
        "href" : "https://api.spotify.com/v1/albums/5XDSdu70LrkjtRWSSEXBlU",
        "id" : "5XDSdu70LrkjtRWSSEXBlU",
        "images" : [ {
          "height" : 640,
          "url" : "https://i.scdn.co/image/ab67616d0000b2730a3167547e7a4cd522beee99",
          "width" : 640
        }, {
          "height" : 300,
          "url" : "https://i.scdn.co/image/ab67616d00001e020a3167547e7a4cd522beee99",
          "width" : 300
        }, {
          "height" : 64,
          "url" : "https://i.scdn.co/image/ab67616d000048510a3167547e7a4cd522beee99",
          "width" : 64
        } ],
        "name" : "Spirit & The Blues",
        "release_date" : "1994-09-04",
        "release_date_precision" : "day",
        "total_tracks" : 15,
        "type" : "album",
        "uri" : "spotify:album:5XDSdu70LrkjtRWSSEXBlU"
      },
      "artists" : [ {
        "external_urls" : {
          "spotify" : "https://open.spotify.com/artist/2uNcfNhlVJUyEX0t0NG1m1"
        },
        "href" : "https://api.spotify.com/v1/artists/2uNcfNhlVJUyEX0t0NG1m1",
        "id" : "2uNcfNhlVJUyEX0t0NG1m1",
        "name" : "Eric Bibb",
        "type" : "artist",
        "uri" : "spotify:artist:2uNcfNhlVJUyEX0t0NG1m1"
      } ],
      "disc_number" : 1,
      "duration_ms" : 254173,
      "explicit" : false,
      "external_ids" : {
        "isrc" : "SEYOK1633329"
      },
      "external_urls" : {
        "spotify" : "https://open.spotify.com/track/7alhFqqwuXIBP9svrxLMbb"
      },
      "href" : "https://api.spotify.com/v1/tracks/7alhFqqwuXIBP9svrxLMbb",
      "id" : "7alhFqqwuXIBP9svrxLMbb",
      "is_local" : false,
      "is_playable" : true,
      "name" : "I Want Jesus To Walk With Me",
      "popularity" : 13,
      "preview_url" : "https://p.scdn.co/mp3-preview/3aaddddeca4a8f75c8f484a87c4ecbf49c3f50fe?cid=774b29d4f13844c495f206cafdad9c86",
      "track_number" : 8,
      "type" : "track",
      "uri" : "spotify:track:7alhFqqwuXIBP9svrxLMbb"
    }, {
      "album" : {
        "album_type" : "album",
        "artists" : [ {
          "external_urls" : {
            "spotify" : "https://open.spotify.com/artist/3CA74UrbYCrhPg02RqEG9g"
          },
          "href" : "https://api.spotify.com/v1/artists/3CA74UrbYCrhPg02RqEG9g",
          "id" : "3CA74UrbYCrhPg02RqEG9g",
          "name" : "The Jean-Pierre Pianists",
          "type" : "artist",
          "uri" : "spotify:artist:3CA74UrbYCrhPg02RqEG9g"
        } ],
        "external_urls" : {
          "spotify" : "https://open.spotify.com/album/5TLUqnD2ISULiqn12s6Cks"
        },
        "href" : "https://api.spotify.com/v1/albums/5TLUqnD2ISULiqn12s6Cks",
        "id" : "5TLUqnD2ISULiqn12s6Cks",
        "images" : [ {
          "height" : 640,
          "url" : "https://i.scdn.co/image/ab67616d0000b2733a24f52d9c12735083aa54df",
          "width" : 640
        }, {
          "height" : 300,
          "url" : "https://i.scdn.co/image/ab67616d00001e023a24f52d9c12735083aa54df",
          "width" : 300
        }, {
          "height" : 64,
          "url" : "https://i.scdn.co/image/ab67616d000048513a24f52d9c12735083aa54df",
          "width" : 64
        } ],
        "name" : "Hymns of Meditation for the Soul",
        "release_date" : "2015-05-17",
        "release_date_precision" : "day",
        "total_tracks" : 11,
        "type" : "album",
        "uri" : "spotify:album:5TLUqnD2ISULiqn12s6Cks"
      },
      "artists" : [ {
        "external_urls" : {
          "spotify" : "https://open.spotify.com/artist/3CA74UrbYCrhPg02RqEG9g"
        },
        "href" : "https://api.spotify.com/v1/artists/3CA74UrbYCrhPg02RqEG9g",
        "id" : "3CA74UrbYCrhPg02RqEG9g",
        "name" : "The Jean-Pierre Pianists",
        "type" : "artist",
        "uri" : "spotify:artist:3CA74UrbYCrhPg02RqEG9g"
      } ],
      "disc_number" : 1,
      "duration_ms" : 322783,
      "explicit" : false,
      "external_ids" : {
        "isrc" : "usdy41571963"
      },
      "external_urls" : {
        "spotify" : "https://open.spotify.com/track/7xzVkEqKGOFjugjtLW9KuL"
      },
      "href" : "https://api.spotify.com/v1/tracks/7xzVkEqKGOFjugjtLW9KuL",
      "id" : "7xzVkEqKGOFjugjtLW9KuL",
      "is_local" : false,
      "is_playable" : true,
      "name" : "I Want Jesus to Walk With Me",
      "popularity" : 6,
      "preview_url" : "https://p.scdn.co/mp3-preview/c0a8374ba6de626fe5f5c0ecedfd6de988e928df?cid=774b29d4f13844c495f206cafdad9c86",
      "track_number" : 11,
      "type" : "track",
      "uri" : "spotify:track:7xzVkEqKGOFjugjtLW9KuL"
    }, {
      "album" : {
        "album_type" : "compilation",
        "artists" : [ {
          "external_urls" : {
            "spotify" : "https://open.spotify.com/artist/4xls23Ye9WR9yy3yYMpAMm"
          },
          "href" : "https://api.spotify.com/v1/artists/4xls23Ye9WR9yy3yYMpAMm",
          "id" : "4xls23Ye9WR9yy3yYMpAMm",
          "name" : "Little Richard",
          "type" : "artist",
          "uri" : "spotify:artist:4xls23Ye9WR9yy3yYMpAMm"
        } ],
        "external_urls" : {
          "spotify" : "https://open.spotify.com/album/7ylqk1j4daAhNC1vtnYC7P"
        },
        "href" : "https://api.spotify.com/v1/albums/7ylqk1j4daAhNC1vtnYC7P",
        "id" : "7ylqk1j4daAhNC1vtnYC7P",
        "images" : [ {
          "height" : 640,
          "url" : "https://i.scdn.co/image/ab67616d0000b27320cd2a2efbdaa6a7b83f15b1",
          "width" : 640
        }, {
          "height" : 300,
          "url" : "https://i.scdn.co/image/ab67616d00001e0220cd2a2efbdaa6a7b83f15b1",
          "width" : 300
        }, {
          "height" : 64,
          "url" : "https://i.scdn.co/image/ab67616d0000485120cd2a2efbdaa6a7b83f15b1",
          "width" : 64
        } ],
        "name" : "Little Richard Sings The Gospel",
        "release_date" : "1995-01-01",
        "release_date_precision" : "day",
        "total_tracks" : 10,
        "type" : "album",
        "uri" : "spotify:album:7ylqk1j4daAhNC1vtnYC7P"
      },
      "artists" : [ {
        "external_urls" : {
          "spotify" : "https://open.spotify.com/artist/4xls23Ye9WR9yy3yYMpAMm"
        },
        "href" : "https://api.spotify.com/v1/artists/4xls23Ye9WR9yy3yYMpAMm",
        "id" : "4xls23Ye9WR9yy3yYMpAMm",
        "name" : "Little Richard",
        "type" : "artist",
        "uri" : "spotify:artist:4xls23Ye9WR9yy3yYMpAMm"
      } ],
      "disc_number" : 1,
      "duration_ms" : 182866,
      "explicit" : false,
      "external_ids" : {
        "isrc" : "USMC19959110"
      },
      "external_urls" : {
        "spotify" : "https://open.spotify.com/track/7hLskoM33P70EyHKyk2soL"
      },
      "href" : "https://api.spotify.com/v1/tracks/7hLskoM33P70EyHKyk2soL",
      "id" : "7hLskoM33P70EyHKyk2soL",
      "is_local" : false,
      "is_playable" : true,
      "name" : "I Want Jesus To Walk With Me",
      "popularity" : 9,
      "preview_url" : null,
      "track_number" : 6,
      "type" : "track",
      "uri" : "spotify:track:7hLskoM33P70EyHKyk2soL"
    }, {
      "album" : {
        "album_type" : "album",
        "artists" : [ {
          "external_urls" : {
            "spotify" : "https://open.spotify.com/artist/2OeN0JVfTWYog354hHhQ2S"
          },
          "href" : "https://api.spotify.com/v1/artists/2OeN0JVfTWYog354hHhQ2S",
          "id" : "2OeN0JVfTWYog354hHhQ2S",
          "name" : "Paul Jackson, Jr.",
          "type" : "artist",
          "uri" : "spotify:artist:2OeN0JVfTWYog354hHhQ2S"
        } ],
        "external_urls" : {
          "spotify" : "https://open.spotify.com/album/1J3thzHDiOTWvsrnezHJb0"
        },
        "href" : "https://api.spotify.com/v1/albums/1J3thzHDiOTWvsrnezHJb0",
        "id" : "1J3thzHDiOTWvsrnezHJb0",
        "images" : [ {
          "height" : 640,
          "url" : "https://i.scdn.co/image/ab67616d0000b27340315925012f52126c90b72f",
          "width" : 640
        }, {
          "height" : 300,
          "url" : "https://i.scdn.co/image/ab67616d00001e0240315925012f52126c90b72f",
          "width" : 300
        }, {
          "height" : 64,
          "url" : "https://i.scdn.co/image/ab67616d0000485140315925012f52126c90b72f",
          "width" : 64
        } ],
        "name" : "Out Of The Shadows",
        "release_date" : "1990",
        "release_date_precision" : "year",
        "total_tracks" : 12,
        "type" : "album",
        "uri" : "spotify:album:1J3thzHDiOTWvsrnezHJb0"
      },
      "artists" : [ {
        "external_urls" : {
          "spotify" : "https://open.spotify.com/artist/2OeN0JVfTWYog354hHhQ2S"
        },
        "href" : "https://api.spotify.com/v1/artists/2OeN0JVfTWYog354hHhQ2S",
        "id" : "2OeN0JVfTWYog354hHhQ2S",
        "name" : "Paul Jackson, Jr.",
        "type" : "artist",
        "uri" : "spotify:artist:2OeN0JVfTWYog354hHhQ2S"
      } ],
      "disc_number" : 1,
      "duration_ms" : 327866,
      "explicit" : false,
      "external_ids" : {
        "isrc" : "USAT20002915"
      },
      "external_urls" : {
        "spotify" : "https://open.spotify.com/track/1Iz5GoaI0uCIAcS7Ad20Uu"
      },
      "href" : "https://api.spotify.com/v1/tracks/1Iz5GoaI0uCIAcS7Ad20Uu",
      "id" : "1Iz5GoaI0uCIAcS7Ad20Uu",
      "is_local" : false,
      "is_playable" : true,
      "name" : "I Want Jesus to Walk with Me",
      "popularity" : 6,
      "preview_url" : "https://p.scdn.co/mp3-preview/d33978960d768ad066789eb69ef0cfcc2da3ef32?cid=774b29d4f13844c495f206cafdad9c86",
      "track_number" : 10,
      "type" : "track",
      "uri" : "spotify:track:1Iz5GoaI0uCIAcS7Ad20Uu"
    }, {
      "album" : {
        "album_type" : "album",
        "artists" : [ {
          "external_urls" : {
            "spotify" : "https://open.spotify.com/artist/6LHWAAIQjVBca6KMLbIGv0"
          },
          "href" : "https://api.spotify.com/v1/artists/6LHWAAIQjVBca6KMLbIGv0",
          "id" : "6LHWAAIQjVBca6KMLbIGv0",
          "name" : "Laudate Mennonite Ensemble",
          "type" : "artist",
          "uri" : "spotify:artist:6LHWAAIQjVBca6KMLbIGv0"
        } ],
        "external_urls" : {
          "spotify" : "https://open.spotify.com/album/1obbDy7tKF8pm7TSbcVMrP"
        },
        "href" : "https://api.spotify.com/v1/albums/1obbDy7tKF8pm7TSbcVMrP",
        "id" : "1obbDy7tKF8pm7TSbcVMrP",
        "images" : [ {
          "height" : 640,
          "url" : "https://i.scdn.co/image/ab67616d0000b273478da53ed926320ced4821b9",
          "width" : 640
        }, {
          "height" : 300,
          "url" : "https://i.scdn.co/image/ab67616d00001e02478da53ed926320ced4821b9",
          "width" : 300
        }, {
          "height" : 64,
          "url" : "https://i.scdn.co/image/ab67616d00004851478da53ed926320ced4821b9",
          "width" : 64
        } ],
        "name" : "Wondrous Love",
        "release_date" : "2009-12-23",
        "release_date_precision" : "day",
        "total_tracks" : 21,
        "type" : "album",
        "uri" : "spotify:album:1obbDy7tKF8pm7TSbcVMrP"
      },
      "artists" : [ {
        "external_urls" : {
          "spotify" : "https://open.spotify.com/artist/6LHWAAIQjVBca6KMLbIGv0"
        },
        "href" : "https://api.spotify.com/v1/artists/6LHWAAIQjVBca6KMLbIGv0",
        "id" : "6LHWAAIQjVBca6KMLbIGv0",
        "name" : "Laudate Mennonite Ensemble",
        "type" : "artist",
        "uri" : "spotify:artist:6LHWAAIQjVBca6KMLbIGv0"
      } ],
      "disc_number" : 1,
      "duration_ms" : 150546,
      "explicit" : false,
      "external_ids" : {
        "isrc" : "USTCC0941737"
      },
      "external_urls" : {
        "spotify" : "https://open.spotify.com/track/1XQwFo4TiMWOFRtuxoUnFq"
      },
      "href" : "https://api.spotify.com/v1/tracks/1XQwFo4TiMWOFRtuxoUnFq",
      "id" : "1XQwFo4TiMWOFRtuxoUnFq",
      "is_local" : false,
      "is_playable" : true,
      "name" : "I Want Jesus to Walk With Me",
      "popularity" : 4,
      "preview_url" : "https://p.scdn.co/mp3-preview/b4470468b78b4702184187a09e847fce95ee30f8?cid=774b29d4f13844c495f206cafdad9c86",
      "track_number" : 14,
      "type" : "track",
      "uri" : "spotify:track:1XQwFo4TiMWOFRtuxoUnFq"
    }, {
      "album" : {
        "album_type" : "compilation",
        "artists" : [ {
          "external_urls" : {
            "spotify" : "https://open.spotify.com/artist/0LyfQWJT6nXafLPZqxe9Of"
          },
          "href" : "https://api.spotify.com/v1/artists/0LyfQWJT6nXafLPZqxe9Of",
          "id" : "0LyfQWJT6nXafLPZqxe9Of",
          "name" : "Various Artists",
          "type" : "artist",
          "uri" : "spotify:artist:0LyfQWJT6nXafLPZqxe9Of"
        } ],
        "external_urls" : {
          "spotify" : "https://open.spotify.com/album/2MQMLFDBfgm3CNM24sK0TT"
        },
        "href" : "https://api.spotify.com/v1/albums/2MQMLFDBfgm3CNM24sK0TT",
        "id" : "2MQMLFDBfgm3CNM24sK0TT",
        "images" : [ {
          "height" : 640,
          "url" : "https://i.scdn.co/image/ab67616d0000b273131827ed9d00538c5c65ea4c",
          "width" : 640
        }, {
          "height" : 300,
          "url" : "https://i.scdn.co/image/ab67616d00001e02131827ed9d00538c5c65ea4c",
          "width" : 300
        }, {
          "height" : 64,
          "url" : "https://i.scdn.co/image/ab67616d00004851131827ed9d00538c5c65ea4c",
          "width" : 64
        } ],
        "name" : "Sounds Of The South",
        "release_date" : "1993",
        "release_date_precision" : "year",
        "total_tracks" : 105,
        "type" : "album",
        "uri" : "spotify:album:2MQMLFDBfgm3CNM24sK0TT"
      },
      "artists" : [ {
        "external_urls" : {
          "spotify" : "https://open.spotify.com/artist/57Lb7HNZpyuW3YjCh3kPSY"
        },
        "href" : "https://api.spotify.com/v1/artists/57Lb7HNZpyuW3YjCh3kPSY",
        "id" : "57Lb7HNZpyuW3YjCh3kPSY",
        "name" : "James Shorty",
        "type" : "artist",
        "uri" : "spotify:artist:57Lb7HNZpyuW3YjCh3kPSY"
      } ],
      "disc_number" : 3,
      "duration_ms" : 223373,
      "explicit" : false,
      "external_ids" : {
        "isrc" : "USAT20106907"
      },
      "external_urls" : {
        "spotify" : "https://open.spotify.com/track/5U9k66O2qHfXlSAcI6MmlI"
      },
      "href" : "https://api.spotify.com/v1/tracks/5U9k66O2qHfXlSAcI6MmlI",
      "id" : "5U9k66O2qHfXlSAcI6MmlI",
      "is_local" : false,
      "is_playable" : true,
      "name" : "I Want Jesus to Walk with Me",
      "popularity" : 10,
      "preview_url" : "https://p.scdn.co/mp3-preview/796b317da01170fdf406888e8d26bdd98355dfe7?cid=774b29d4f13844c495f206cafdad9c86",
      "track_number" : 2,
      "type" : "track",
      "uri" : "spotify:track:5U9k66O2qHfXlSAcI6MmlI"
    }, {
      "album" : {
        "album_type" : "album",
        "artists" : [ {
          "external_urls" : {
            "spotify" : "https://open.spotify.com/artist/6XuSkkWUytwAkDFSzrP3wF"
          },
          "href" : "https://api.spotify.com/v1/artists/6XuSkkWUytwAkDFSzrP3wF",
          "id" : "6XuSkkWUytwAkDFSzrP3wF",
          "name" : "Jon Augustine",
          "type" : "artist",
          "uri" : "spotify:artist:6XuSkkWUytwAkDFSzrP3wF"
        } ],
        "external_urls" : {
          "spotify" : "https://open.spotify.com/album/4URadKrOpr4RlVjTeUXYuA"
        },
        "href" : "https://api.spotify.com/v1/albums/4URadKrOpr4RlVjTeUXYuA",
        "id" : "4URadKrOpr4RlVjTeUXYuA",
        "images" : [ {
          "height" : 640,
          "url" : "https://i.scdn.co/image/ab67616d0000b273ba8b3f651ad656223e13332e",
          "width" : 640
        }, {
          "height" : 300,
          "url" : "https://i.scdn.co/image/ab67616d00001e02ba8b3f651ad656223e13332e",
          "width" : 300
        }, {
          "height" : 64,
          "url" : "https://i.scdn.co/image/ab67616d00004851ba8b3f651ad656223e13332e",
          "width" : 64
        } ],
        "name" : "Carry Me Home",
        "release_date" : "2006-11-24",
        "release_date_precision" : "day",
        "total_tracks" : 11,
        "type" : "album",
        "uri" : "spotify:album:4URadKrOpr4RlVjTeUXYuA"
      },
      "artists" : [ {
        "external_urls" : {
          "spotify" : "https://open.spotify.com/artist/6XuSkkWUytwAkDFSzrP3wF"
        },
        "href" : "https://api.spotify.com/v1/artists/6XuSkkWUytwAkDFSzrP3wF",
        "id" : "6XuSkkWUytwAkDFSzrP3wF",
        "name" : "Jon Augustine",
        "type" : "artist",
        "uri" : "spotify:artist:6XuSkkWUytwAkDFSzrP3wF"
      } ],
      "disc_number" : 1,
      "duration_ms" : 216666,
      "explicit" : false,
      "external_ids" : {
        "isrc" : "usx9p0601663"
      },
      "external_urls" : {
        "spotify" : "https://open.spotify.com/track/5qJqngERqRH19kABZkbAZ2"
      },
      "href" : "https://api.spotify.com/v1/tracks/5qJqngERqRH19kABZkbAZ2",
      "id" : "5qJqngERqRH19kABZkbAZ2",
      "is_local" : false,
      "is_playable" : true,
      "name" : "I Want Jesus To Walk With Me (1 Jn 2)",
      "popularity" : 5,
      "preview_url" : "https://p.scdn.co/mp3-preview/cf520a9b83815f51ce919b917c07819736259ff0?cid=774b29d4f13844c495f206cafdad9c86",
      "track_number" : 6,
      "type" : "track",
      "uri" : "spotify:track:5qJqngERqRH19kABZkbAZ2"
    } ],
    "limit" : 10,
    "next" : "https://api.spotify.com/v1/search?query=I+Want+Jesus+to+Walk+With+Me&type=track&market=US&offset=15&limit=10",
    "offset" : 5,
    "previous" : "https://api.spotify.com/v1/search?query=I+Want+Jesus+to+Walk+With+Me&type=track&market=US&offset=0&limit=10",
    "total" : 211
  }
}