{
  "tracks" : {
    "href" : "https://api.spotify.com/v1/search?query=Only+Trust+Him&type=track&market=US&offset=5&limit=10",
    "items" : [ {
      "album" : {
        "album_type" : "album",
        "artists" : [ {
          "external_urls" : {
            "spotify" : "https://open.spotify.com/artist/41hCpLaR1bEW5ETK3aPvDB"
          },
          "href" : "https://api.spotify.com/v1/artists/41hCpLaR1bEW5ETK3aPvDB",
          "id" : "41hCpLaR1bEW5ETK3aPvDB",
          "name" : "The Eden Symphony Orchestra",
          "type" : "artist",
          "uri" : "spotify:artist:41hCpLaR1bEW5ETK3aPvDB"
        }, {
          "external_urls" : {
            "spotify" : "https://open.spotify.com/artist/2oQJQUIpJFFnfKvHJA0xBu"
          },
          "href" : "https://api.spotify.com/v1/artists/2oQJQUIpJFFnfKvHJA0xBu",
          "id" : "2oQJQUIpJFFnfKvHJA0xBu",
          "name" : "The City of Prague Philharmonic Orchestra",
          "type" : "artist",
          "uri" : "spotify:artist:2oQJQUIpJFFnfKvHJA0xBu"
        } ],
        "external_urls" : {
          "spotify" : "https://open.spotify.com/album/50YHwRY00Swirfcp2HVMbt"
        },
        "href" : "https://api.spotify.com/v1/albums/50YHwRY00Swirfcp2HVMbt",
        "id" : "50YHwRY00Swirfcp2HVMbt",
        "images" : [ {
          "height" : 640,
          "url" : "https://i.scdn.co/image/ab67616d0000b2730d4d994d4c249f46a71c7fb3",
          "width" : 640
        }, {
          "height" : 300,
          "url" : "https://i.scdn.co/image/ab67616d00001e020d4d994d4c249f46a71c7fb3",
          "width" : 300
        }, {
          "height" : 64,
          "url" : "https://i.scdn.co/image/ab67616d000048510d4d994d4c249f46a71c7fb3",
          "width" : 64
        } ],
        "name" : "Great Hymns Collection: To God Be The Glory (Orchestral)",
        "release_date" : "2012-05-09",
        "release_date_precision" : "day",
        "total_tracks" : 16,
        "type" : "album",
        "uri" : "spotify:album:50YHwRY00Swirfcp2HVMbt"
      },
      "artists" : [ {
        "external_urls" : {
          "spotify" : "https://open.spotify.com/artist/41hCpLaR1bEW5ETK3aPvDB"
        },
        "href" : "https://api.spotify.com/v1/artists/41hCpLaR1bEW5ETK3aPvDB",
        "id" : "41hCpLaR1bEW5ETK3aPvDB",
        "name" : "The Eden Symphony Orchestra",
        "type" : "artist",
        "uri" : "spotify:artist:41hCpLaR1bEW5ETK3aPvDB"
      } ],
      "disc_number" : 1,
      "duration_ms" : 253026,
      "explicit" : false,
      "external_ids" : {
        "isrc" : "GBCEU1111707"
      },
      "external_urls" : {
        "spotify" : "https://open.spotify.com/track/5ZBVsH2qol5moePSgSW2xs"
      },
      "href" : "https://api.spotify.com/v1/tracks/5ZBVsH2qol5moePSgSW2xs",
      "id" : "5ZBVsH2qol5moePSgSW2xs",
      "is_local" : false,
      "is_playable" : true,
      "name" : "Only Trust Him",
      "popularity" : 10,
      "preview_url" : "https://p.scdn.co/mp3-preview/e924b277ff924a0e83d645f119d4eb83ea6eb297?cid=774b29d4f13844c495f206cafdad9c86",
      "track_number" : 7,
      "type" : "track",
      "uri" : "spotify:track:5ZBVsH2qol5moePSgSW2xs"
    }, {
      "album" : {
        "album_type" : "album",
        "artists" : [ {
          "external_urls" : {
            "spotify" : "https://open.spotify.com/artist/4eDpQV93UILljVxohKoLUs"
          },
          "href" : "https://api.spotify.com/v1/artists/4eDpQV93UILljVxohKoLUs",
          "id" : "4eDpQV93UILljVxohKoLUs",
          "name" : "The Brooklyn Tabernacle Choir",
          "type" : "artist",
          "uri" : "spotify:artist:4eDpQV93UILljVxohKoLUs"
        } ],
        "external_urls" : {
          "spotify" : "https://open.spotify.com/album/6Cn200d8pc8D2r8JJM4OMx"
        },
        "href" : "https://api.spotify.com/v1/albums/6Cn200d8pc8D2r8JJM4OMx",
        "id" : "6Cn200d8pc8D2r8JJM4OMx",
        "images" : [ {
          "height" : 640,
          "url" : "https://i.scdn.co/image/ab67616d0000b2737667db4364beb1668d1a5a90",
          "width" : 640
        }, {
          "height" : 300,
          "url" : "https://i.scdn.co/image/ab67616d00001e027667db4364beb1668d1a5a90",
          "width" : 300
        }, {
          "height" : 64,
          "url" : "https://i.scdn.co/image/ab67616d000048517667db4364beb1668d1a5a90",
          "width" : 64
        } ],
        "name" : "Only to Him",
        "release_date" : "1992-11-10",
        "release_date_precision" : "day",
        "total_tracks" : 11,
        "type" : "album",
        "uri" : "spotify:album:6Cn200d8pc8D2r8JJM4OMx"
      },
      "artists" : [ {
        "external_urls" : {
          "spotify" : "https://open.spotify.com/artist/4eDpQV93UILljVxohKoLUs"
        },
        "href" : "https://api.spotify.com/v1/artists/4eDpQV93UILljVxohKoLUs",
        "id" : "4eDpQV93UILljVxohKoLUs",
        "name" : "The Brooklyn Tabernacle Choir",
        "type" : "artist",
        "uri" : "spotify:artist:4eDpQV93UILljVxohKoLUs"
      }, {
        "external_urls" : {
          "spotify" : "https://open.spotify.com/artist/1P3rVmnyRGShokek1rKFod"
        },
        "href" : "https://api.spotify.com/v1/artists/1P3rVmnyRGShokek1rKFod",
        "id" : "1P3rVmnyRGShokek1rKFod",
        "name" : "Damaris Carbaugh",
        "type" : "artist",
        "uri" : "spotify:artist:1P3rVmnyRGShokek1rKFod"
      } ],
      "disc_number" : 1,
      "duration_ms" : 150333,
      "explicit" : false,
      "external_ids" : {
        "isrc" : "USM2C0803603"
      },
      "external_urls" : {
        "spotify" : "https://open.spotify.com/track/5Lsyr5Nkx5l1XJcCgitflg"
      },
      "href" : "https://api.spotify.com/v1/tracks/5Lsyr5Nkx5l1XJcCgitflg",
      "id" : "5Lsyr5Nkx5l1XJcCgitflg",
      "is_local" : false,
      "is_playable" : true,
      "name" : "Put All Your Trust in Jesus (feat. Damaris Carbaugh)",
      "popularity" : 10,
      "preview_url" : "https://p.scdn.co/mp3-preview/9548dc34effdf13e1af9c80337fd95122cefe5a8?cid=774b29d4f13844c495f206cafdad9c86",
      "track_number" : 3,
      "type" : "track",
      "uri" : "spotify:track:5Lsyr5Nkx5l1XJcCgitflg"
    }, {
      "album" : {
        "album_type" : "album",
        "artists" : [ {
          "external_urls" : {
            "spotify" : "https://open.spotify.com/artist/0kinks9LXlnKPyp5TSWHOS"
          },
          "href" : "https://api.spotify.com/v1/artists/0kinks9LXlnKPyp5TSWHOS",
          "id" : "0kinks9LXlnKPyp5TSWHOS",
          "name" : "John Jones",
          "type" : "artist",
          "uri" : "spotify:artist:0kinks9LXlnKPyp5TSWHOS"
        } ],
        "external_urls" : {
          "spotify" : "https://open.spotify.com/album/6DUm05ooFIM9eqvEGtvbql"
        },
        "href" : "https://api.spotify.com/v1/albums/6DUm05ooFIM9eqvEGtvbql",
        "id" : "6DUm05ooFIM9eqvEGtvbql",
        "images" : [ {
          "height" : 640,
          "url" : "https://i.scdn.co/image/ab67616d0000b273e4ca813a382bed2f69e54baf",
          "width" : 640
        }, {
          "height" : 300,
          "url" : "https://i.scdn.co/image/ab67616d00001e02e4ca813a382bed2f69e54baf",
          "width" : 300
        }, {
          "height" : 64,
          "url" : "https://i.scdn.co/image/ab67616d00004851e4ca813a382bed2f69e54baf",
          "width" : 64
        } ],
        "name" : "100 Sacred Hymns #2",
        "release_date" : "2007-12-05",
        "release_date_precision" : "day",
        "total_tracks" : 25,
        "type" : "album",
        "uri" : "spotify:album:6DUm05ooFIM9eqvEGtvbql"
      },
      "artists" : [ {
        "external_urls" : {
          "spotify" : "https://open.spotify.com/artist/0kinks9LXlnKPyp5TSWHOS"
        },
        "href" : "https://api.spotify.com/v1/artists/0kinks9LXlnKPyp5TSWHOS",
        "id" : "0kinks9LXlnKPyp5TSWHOS",
        "name" : "John Jones",
        "type" : "artist",
        "uri" : "spotify:artist:0kinks9LXlnKPyp5TSWHOS"
      } ],
      "disc_number" : 1,
      "duration_ms" : 90986,
      "explicit" : false,
      "external_ids" : {
        "isrc" : "usl4q0746513"
      },
      "external_urls" : {
        "spotify" : "https://open.spotify.com/track/2ymwD3fh3dBeyP7YhAEYdr"
      },
      "href" : "https://api.spotify.com/v1/tracks/2ymwD3fh3dBeyP7YhAEYdr",
      "id" : "2ymwD3fh3dBeyP7YhAEYdr",
      "is_local" : false,
      "is_playable" : true,
      "name" : "Only Trust Him",
      "popularity" : 9,
      "preview_url" : "https://p.scdn.co/mp3-preview/790b7d3bf5e510546b4ab8460496a08a478a5fcc?cid=774b29d4f13844c495f206cafdad9c86",
      "track_number" : 3,
      "type" : "track",
      "uri" : "spotify:track:2ymwD3fh3dBeyP7YhAEYdr"
    }, {
      "album" : {
        "album_type" : "album",
        "artists" : [ {
          "external_urls" : {
            "spotify" : "https://open.spotify.com/artist/41hCpLaR1bEW5ETK3aPvDB"
          },
          "href" : "https://api.spotify.com/v1/artists/41hCpLaR1bEW5ETK3aPvDB",
          "id" : "41hCpLaR1bEW5ETK3aPvDB",
          "name" : "The Eden Symphony Orchestra",
          "type" : "artist",
          "uri" : "spotify:artist:41hCpLaR1bEW5ETK3aPvDB"
        } ],
        "external_urls" : {
          "spotify" : "https://open.spotify.com/album/0H7uBYBzinOh4h39BxZE7u"
        },
        "href" : "https://api.spotify.com/v1/albums/0H7uBYBzinOh4h39BxZE7u",
        "id" : "0H7uBYBzinOh4h39BxZE7u",
        "images" : [ {
          "height" : 640,
          "url" : "https://i.scdn.co/image/ab67616d0000b2739580f0296eb7ae45530f1b9a",
          "width" : 640
        }, {
          "height" : 300,
          "url" : "https://i.scdn.co/image/ab67616d00001e029580f0296eb7ae45530f1b9a",
          "width" : 300
        }, {
          "height" : 64,
          "url" : "https://i.scdn.co/image/ab67616d000048519580f0296eb7ae45530f1b9a",
          "width" : 64
        } ],
        "name" : "50 Orchestral Hymns 3CD",
        "release_date" : "2005",
        "release_date_precision" : "year",
        "total_tracks" : 50,
        "type" : "album",
        "uri" : "spotify:album:0H7uBYBzinOh4h39BxZE7u"
      },
      "artists" : [ {
        "external_urls" : {
          "spotify" : "https://open.spotify.com/artist/6gsabz3mlFdc1vnQQZT1cQ"
        },
        "href" : "https://api.spotify.com/v1/artists/6gsabz3mlFdc1vnQQZT1cQ",
        "id" : "6gsabz3mlFdc1vnQQZT1cQ",
        "name" : "I Yakushenko",
        "type" : "artist",
        "uri" : "spotify:artist:6gsabz3mlFdc1vnQQZT1cQ"
      }, {
        "external_urls" : {
          "spotify" : "https://open.spotify.com/artist/41hCpLaR1bEW5ETK3aPvDB"
        },
        "href" : "https://api.spotify.com/v1/artists/41hCpLaR1bEW5ETK3aPvDB",
        "id" : "41hCpLaR1bEW5ETK3aPvDB",
        "name" : "The Eden Symphony Orchestra",
        "type" : "artist",
        "uri" : "spotify:artist:41hCpLaR1bEW5ETK3aPvDB"
      } ],
      "disc_number" : 2,
      "duration_ms" : 253920,
      "explicit" : false,
      "external_ids" : {
        "isrc" : "GBCEU0570028"
      },
      "external_urls" : {
        "spotify" : "https://open.spotify.com/track/4a7nZDPIfyC2IrIywlpwHp"
      },
      "href" : "https://api.spotify.com/v1/tracks/4a7nZDPIfyC2IrIywlpwHp",
      "id" : "4a7nZDPIfyC2IrIywlpwHp",
      "is_local" : false,
      "is_playable" : true,
      "name" : "Only Trust Him",
      "popularity" : 7,
      "preview_url" : "https://p.scdn.co/mp3-preview/2cf0ef3dbc878771461c809fc914823a4bc6fd60?cid=774b29d4f13844c495f206cafdad9c86",
      "track_number" : 11,
      "type" : "track",
      "uri" : "spotify:track:4a7nZDPIfyC2IrIywlpwHp"
    }, {
      "album" : {
        "album_type" : "album",
        "artists" : [ {
          "external_urls" : {
            "spotify" : "https://open.spotify.com/artist/52DLvFAmyEIiIZzzaKx7e3"
          },
          "href" : "https://api.spotify.com/v1/artists/52DLvFAmyEIiIZzzaKx7e3",
          "id" : "52DLvFAmyEIiIZzzaKx7e3",
          "name" : "Majesty Strings",
          "type" : "artist",
          "uri" : "spotify:artist:52DLvFAmyEIiIZzzaKx7e3"
        } ],
        "external_urls" : {
          "spotify" : "https://open.spotify.com/album/2x5ilEDd0hky5PllqVhWcV"
        },
        "href" : "https://api.spotify.com/v1/albums/2x5ilEDd0hky5PllqVhWcV",
        "id" : "2x5ilEDd0hky5PllqVhWcV",
        "images" : [ {
          "height" : 640,
          "url" : "https://i.scdn.co/image/ab67616d0000b27393ac1883243e8c597d26addb",
          "width" : 640
        }, {
          "height" : 300,
          "url" : "https://i.scdn.co/image/ab67616d00001e0293ac1883243e8c597d26addb",
          "width" : 300
        }, {
          "height" : 64,
          "url" : "https://i.scdn.co/image/ab67616d0000485193ac1883243e8c597d26addb",
          "width" : 64
        } ],
        "name" : "Jesus, I Come",
        "release_date" : "2002-10-15",
        "release_date_precision" : "day",
        "total_tracks" : 17,
        "type" : "album",
        "uri" : "spotify:album:2x5ilEDd0hky5PllqVhWcV"
      },
      "artists" : [ {
        "external_urls" : {
          "spotify" : "https://open.spotify.com/artist/52DLvFAmyEIiIZzzaKx7e3"
        },
        "href" : "https://api.spotify.com/v1/artists/52DLvFAmyEIiIZzzaKx7e3",
        "id" : "52DLvFAmyEIiIZzzaKx7e3",
        "name" : "Majesty Strings",
        "type" : "artist",
        "uri" : "spotify:artist:52DLvFAmyEIiIZzzaKx7e3"
      } ],
      "disc_number" : 1,
      "duration_ms" : 190906,
      "explicit" : false,
      "external_ids" : {
        "isrc" : "uscgj1600620"
      },
      "external_urls" : {
        "spotify" : "https://open.spotify.com/track/5AjI3wyBbcbBTxPqhmOsxD"
      },
      "href" : "https://api.spotify.com/v1/tracks/5AjI3wyBbcbBTxPqhmOsxD",
      "id" : "5AjI3wyBbcbBTxPqhmOsxD",
      "is_local" : false,
      "is_playable" : true,
      "name" : "Only Trust Him",
      "popularity" : 6,
      "preview_url" : "https://p.scdn.co/mp3-preview/e29b0a83605f8393b88b648ad55f6bdbb5574bbb?cid=774b29d4f13844c495f206cafdad9c86",
      "track_number" : 9,
      "type" : "track",
      "uri" : "spotify:track:5AjI3wyBbcbBTxPqhmOsxD"
    }, {
      "album" : {
        "album_type" : "album",
        "artists" : [ {
          "external_urls" : {
            "spotify" : "https://open.spotify.com/artist/3dBDFDpmwhATSAEB1AiNOG"
          },
          "href" : "https://api.spotify.com/v1/artists/3dBDFDpmwhATSAEB1AiNOG",
          "id" : "3dBDFDpmwhATSAEB1AiNOG",
          "name" : "The Bluegrass Gospel Group",
          "type" : "artist",
          "uri" : "spotify:artist:3dBDFDpmwhATSAEB1AiNOG"
        } ],
        "external_urls" : {
          "spotify" : "https://open.spotify.com/album/7lNn2Z2VMeVga9HF4JKcvL"
        },
        "href" : "https://api.spotify.com/v1/albums/7lNn2Z2VMeVga9HF4JKcvL",
        "id" : "7lNn2Z2VMeVga9HF4JKcvL",
        "images" : [ {
          "height" : 640,
          "url" : "https://i.scdn.co/image/ab67616d0000b2737b0f0c6bf5fc752c618f19d3",
          "width" : 640
        }, {
          "height" : 300,
          "url" : "https://i.scdn.co/image/ab67616d00001e027b0f0c6bf5fc752c618f19d3",
          "width" : 300
        }, {
          "height" : 64,
          "url" : "https://i.scdn.co/image/ab67616d000048517b0f0c6bf5fc752c618f19d3",
          "width" : 64
        } ],
        "name" : "The Beauty Of Bluegrass: 40 Songs of Faith",
        "release_date" : "2018-08-10",
        "release_date_precision" : "day",
        "total_tracks" : 40,
        "type" : "album",
        "uri" : "spotify:album:7lNn2Z2VMeVga9HF4JKcvL"
      },
      "artists" : [ {
        "external_urls" : {
          "spotify" : "https://open.spotify.com/artist/3dBDFDpmwhATSAEB1AiNOG"
        },
        "href" : "https://api.spotify.com/v1/artists/3dBDFDpmwhATSAEB1AiNOG",
        "id" : "3dBDFDpmwhATSAEB1AiNOG",
        "name" : "The Bluegrass Gospel Group",
        "type" : "artist",
        "uri" : "spotify:artist:3dBDFDpmwhATSAEB1AiNOG"
      } ],
      "disc_number" : 1,
      "duration_ms" : 154618,
      "explicit" : false,
      "external_ids" : {
        "isrc" : "CAM460440457"
      },
      "external_urls" : {
        "spotify" : "https://open.spotify.com/track/4p60S9VcJ3ppP5AScaGbGR"
      },
      "href" : "https://api.spotify.com/v1/tracks/4p60S9VcJ3ppP5AScaGbGR",
      "id" : "4p60S9VcJ3ppP5AScaGbGR",
      "is_local" : false,
      "is_playable" : true,
      "name" : "Only Trust Him",
      "popularity" : 6,
      "preview_url" : "https://p.scdn.co/mp3-preview/4e103ebb87db2c6cac2353484aa56166e30069c0?cid=774b29d4f13844c495f206cafdad9c86",
      "track_number" : 29,
      "type" : "track",
      "uri" : "spotify:track:4p60S9VcJ3ppP5AScaGbGR"
    }, {
      "album" : {
        "album_type" : "album",
        "artists" : [ {
          "external_urls" : {
            "spotify" : "https://open.spotify.com/artist/1umc3Ce1b7KedwbryyxOsj"
          },
          "href" : "https://api.spotify.com/v1/artists/1umc3Ce1b7KedwbryyxOsj",
          "id" : "1umc3Ce1b7KedwbryyxOsj",
          "name" : "Hymnscapes",
          "type" : "artist",
          "uri" : "spotify:artist:1umc3Ce1b7KedwbryyxOsj"
        } ],
        "external_urls" : {
          "spotify" : "https://open.spotify.com/album/53ZTaVsik8dksoY11Dq0OT"
        },
        "href" : "https://api.spotify.com/v1/albums/53ZTaVsik8dksoY11Dq0OT",
        "id" : "53ZTaVsik8dksoY11Dq0OT",
        "images" : [ {
          "height" : 640,
          "url" : "https://i.scdn.co/image/ab67616d0000b273208b6034a03662e41eea9e59",
          "width" : 640
        }, {
          "height" : 300,
          "url" : "https://i.scdn.co/image/ab67616d00001e02208b6034a03662e41eea9e59",
          "width" : 300
        }, {
          "height" : 64,
          "url" : "https://i.scdn.co/image/ab67616d00004851208b6034a03662e41eea9e59",
          "width" : 64
        } ],
        "name" : "Volume 11 - Peace",
        "release_date" : "1999-01-01",
        "release_date_precision" : "day",
        "total_tracks" : 10,
        "type" : "album",
        "uri" : "spotify:album:53ZTaVsik8dksoY11Dq0OT"
      },
      "artists" : [ {
        "external_urls" : {
          "spotify" : "https://open.spotify.com/artist/1umc3Ce1b7KedwbryyxOsj"
        },
        "href" : "https://api.spotify.com/v1/artists/1umc3Ce1b7KedwbryyxOsj",
        "id" : "1umc3Ce1b7KedwbryyxOsj",
        "name" : "Hymnscapes",
        "type" : "artist",
        "uri" : "spotify:artist:1umc3Ce1b7KedwbryyxOsj"
      } ],
      "disc_number" : 1,
      "duration_ms" : 303760,
      "explicit" : false,
      "external_ids" : {
        "isrc" : "USETB0810750"
      },
      "external_urls" : {
        "spotify" : "https://open.spotify.com/track/0YSbNZS1aEZ4PmEJ0sRrr1"
      },
      "href" : "https://api.spotify.com/v1/tracks/0YSbNZS1aEZ4PmEJ0sRrr1",
      "id" : "0YSbNZS1aEZ4PmEJ0sRrr1",
      "is_local" : false,
      "is_playable" : true,
      "name" : "Only Trust Him",
      "popularity" : 5,
      "preview_url" : "https://p.scdn.co/mp3-preview/8fe40e22dc30e75c89b842c2402fa244974b3151?cid=774b29d4f13844c495f206cafdad9c86",
      "track_number" : 4,
      "type" : "track",
      "uri" : "spotify:track:0YSbNZS1aEZ4PmEJ0sRrr1"
    }, {
      "album" : {
        "album_type" : "album",
        "artists" : [ {
          "external_urls" : {
            "spotify" : "https://open.spotify.com/artist/5OWt6MX85BzO7ydFi4IFYN"
          },
          "href" : "https://api.spotify.com/v1/artists/5OWt6MX85BzO7ydFi4IFYN",
          "id" : "5OWt6MX85BzO7ydFi4IFYN",
          "name" : "Mark Burchfield",
          "type" : "artist",
          "uri" : "spotify:artist:5OWt6MX85BzO7ydFi4IFYN"
        } ],
        "external_urls" : {
          "spotify" : "https://open.spotify.com/album/4Zic42casBSTRdRdZ8Q1ro"
        },
        "href" : "https://api.spotify.com/v1/albums/4Zic42casBSTRdRdZ8Q1ro",
        "id" : "4Zic42casBSTRdRdZ8Q1ro",
        "images" : [ {
          "height" : 640,
          "url" : "https://i.scdn.co/image/ab67616d0000b273f9eb38045ddc39ddd52b3430",
          "width" : 640
        }, {
          "height" : 300,
          "url" : "https://i.scdn.co/image/ab67616d00001e02f9eb38045ddc39ddd52b3430",
          "width" : 300
        }, {
          "height" : 64,
          "url" : "https://i.scdn.co/image/ab67616d00004851f9eb38045ddc39ddd52b3430",
          "width" : 64
        } ],
        "name" : "Church In The Wildwood",
        "release_date" : "2004-01-01",
        "release_date_precision" : "day",
        "total_tracks" : 25,
        "type" : "album",
        "uri" : "spotify:album:4Zic42casBSTRdRdZ8Q1ro"
      },
      "artists" : [ {
        "external_urls" : {
          "spotify" : "https://open.spotify.com/artist/5OWt6MX85BzO7ydFi4IFYN"
        },
        "href" : "https://api.spotify.com/v1/artists/5OWt6MX85BzO7ydFi4IFYN",
        "id" : "5OWt6MX85BzO7ydFi4IFYN",
        "name" : "Mark Burchfield",
        "type" : "artist",
        "uri" : "spotify:artist:5OWt6MX85BzO7ydFi4IFYN"
      } ],
      "disc_number" : 1,
      "duration_ms" : 138306,
      "explicit" : false,
      "external_ids" : {
        "isrc" : "USB4U0650882"
      },
      "external_urls" : {
        "spotify" : "https://open.spotify.com/track/0AO48QXdJmaK3IqEAOmskt"
      },
      "href" : "https://api.spotify.com/v1/tracks/0AO48QXdJmaK3IqEAOmskt",
      "id" : "0AO48QXdJmaK3IqEAOmskt",
      "is_local" : false,
      "is_playable" : true,
      "name" : "Only Trust Him",
      "popularity" : 4,
      "preview_url" : null,
      "track_number" : 4,
      "type" : "track",
      "uri" : "spotify:track:0AO48QXdJmaK3IqEAOmskt"
    }, {
      "album" : {
        "album_type" : "album",
        "artists" : [ {
          "external_urls" : {
            "spotify" : "https://open.spotify.com/artist/4PObECTgGi99FoQHHOdaUv"
          },
          "href" : "https://api.spotify.com/v1/artists/4PObECTgGi99FoQHHOdaUv",
          "id" : "4PObECTgGi99FoQHHOdaUv",
          "name" : "Dick Bolks",
          "type" : "artist",
          "uri" : "spotify:artist:4PObECTgGi99FoQHHOdaUv"
        } ],
        "external_urls" : {
          "spotify" : "https://open.spotify.com/album/4AgWuVZmiEZ35dJVzotfjX"
        },
        "href" : "https://api.spotify.com/v1/albums/4AgWuVZmiEZ35dJVzotfjX",
        "id" : "4AgWuVZmiEZ35dJVzotfjX",
        "images" : [ {
          "height" : 640,
          "url" : "https://i.scdn.co/image/ab67616d0000b273f0d59edf6c80927c46f3e745",
          "width" : 640
        }, {
          "height" : 300,
          "url" : "https://i.scdn.co/image/ab67616d00001e02f0d59edf6c80927c46f3e745",
          "width" : 300
        }, {
          "height" : 64,
          "url" : "https://i.scdn.co/image/ab67616d00004851f0d59edf6c80927c46f3e745",
          "width" : 64
        } ],
        "name" : "Wonderful Peace",
        "release_date" : "2017-03-04",
        "release_date_precision" : "day",
        "total_tracks" : 26,
        "type" : "album",
        "uri" : "spotify:album:4AgWuVZmiEZ35dJVzotfjX"
      },
      "artists" : [ {
        "external_urls" : {
          "spotify" : "https://open.spotify.com/artist/4PObECTgGi99FoQHHOdaUv"
        },
        "href" : "https://api.spotify.com/v1/artists/4PObECTgGi99FoQHHOdaUv",
        "id" : "4PObECTgGi99FoQHHOdaUv",
        "name" : "Dick Bolks",
        "type" : "artist",
        "uri" : "spotify:artist:4PObECTgGi99FoQHHOdaUv"
      } ],
      "disc_number" : 1,
      "duration_ms" : 127066,
      "explicit" : false,
      "external_ids" : {
        "isrc" : "uscgh1730041"
      },
      "external_urls" : {
        "spotify" : "https://open.spotify.com/track/0kBmIBAuiBCWASHQyig2o2"
      },
      "href" : "https://api.spotify.com/v1/tracks/0kBmIBAuiBCWASHQyig2o2",
      "id" : "0kBmIBAuiBCWASHQyig2o2",
      "is_local" : false,
      "is_playable" : true,
      "name" : "Only Trust Him",
      "popularity" : 4,
      "preview_url" : "https://p.scdn.co/mp3-preview/d01948bfaadce9a5198a42ba0824f4a0e69a2785?cid=774b29d4f13844c495f206cafdad9c86",
      "track_number" : 6,
      "type" : "track",
      "uri" : "spotify:track:0kBmIBAuiBCWASHQyig2o2"
    }, {
      "album" : {
        "album_type" : "album",
        "artists" : [ {
          "external_urls" : {
            "spotify" : "https://open.spotify.com/artist/41hCpLaR1bEW5ETK3aPvDB"
          },
          "href" : "https://api.spotify.com/v1/artists/41hCpLaR1bEW5ETK3aPvDB",
          "id" : "41hCpLaR1bEW5ETK3aPvDB",
          "name" : "The Eden Symphony Orchestra",
          "type" : "artist",
          "uri" : "spotify:artist:41hCpLaR1bEW5ETK3aPvDB"
        } ],
        "external_urls" : {
          "spotify" : "https://open.spotify.com/album/3EYfLpGqUHyjAosCu4zuA6"
        },
        "href" : "https://api.spotify.com/v1/albums/3EYfLpGqUHyjAosCu4zuA6",
        "id" : "3EYfLpGqUHyjAosCu4zuA6",
        "images" : [ {
          "height" : 640,
          "url" : "https://i.scdn.co/image/ab67616d0000b273eafa7fd48ccd2128f01f2f12",
          "width" : 640
        }, {
          "height" : 300,
          "url" : "https://i.scdn.co/image/ab67616d00001e02eafa7fd48ccd2128f01f2f12",
          "width" : 300
        }, {
          "height" : 64,
          "url" : "https://i.scdn.co/image/ab67616d00004851eafa7fd48ccd2128f01f2f12",
          "width" : 64
        } ],
        "name" : "Philharmonic Hymns - Orchestral Hymns Vol. 5",
        "release_date" : "2006-01-01",
        "release_date_precision" : "day",
        "total_tracks" : 10,
        "type" : "album",
        "uri" : "spotify:album:3EYfLpGqUHyjAosCu4zuA6"
      },
      "artists" : [ {
        "external_urls" : {
          "spotify" : "https://open.spotify.com/artist/41hCpLaR1bEW5ETK3aPvDB"
        },
        "href" : "https://api.spotify.com/v1/artists/41hCpLaR1bEW5ETK3aPvDB",
        "id" : "41hCpLaR1bEW5ETK3aPvDB",
        "name" : "The Eden Symphony Orchestra",
        "type" : "artist",
        "uri" : "spotify:artist:41hCpLaR1bEW5ETK3aPvDB"
      } ],
      "disc_number" : 1,
      "duration_ms" : 255840,
      "explicit" : false,
      "external_ids" : {
        "isrc" : "GBCEU0677803"
      },
      "external_urls" : {
        "spotify" : "https://open.spotify.com/track/5zuKvK3VFX9oRJHwbMewUg"
      },
      "href" : "https://api.spotify.com/v1/tracks/5zuKvK3VFX9oRJHwbMewUg",
      "id" : "5zuKvK3VFX9oRJHwbMewUg",
      "is_local" : false,
      "is_playable" : true,
      "name" : "Only Trust Him",
      "popularity" : 4,
      "preview_url" : "https://p.scdn.co/mp3-preview/d6b6b321cd05e43e2f79f5251dbed154b08343be?cid=774b29d4f13844c495f206cafdad9c86",
      "track_number" : 3,
      "type" : "track",
      "uri" : "spotify:track:5zuKvK3VFX9oRJHwbMewUg"
    } ],
    "limit" : 10,
    "next" : "https://api.spotify.com/v1/search?query=Only+Trust+Him&type=track&market=US&offset=15&limit=10",
    "offset" : 5,
    "previous" : "https://api.spotify.com/v1/search?query=Only+Trust+Him&type=track&market=US&offset=0&limit=10",
    "total" : 145
  }
}