{
  "tracks" : {
    "href" : "https://api.spotify.com/v1/search?query=My+Shepherd+Will+Supply+My+Need&type=track&market=US&offset=5&limit=10",
    "items" : [ {
      "album" : {
        "album_type" : "compilation",
        "artists" : [ {
          "external_urls" : {
            "spotify" : "https://open.spotify.com/artist/0LyfQWJT6nXafLPZqxe9Of"
          },
          "href" : "https://api.spotify.com/v1/artists/0LyfQWJT6nXafLPZqxe9Of",
          "id" : "0LyfQWJT6nXafLPZqxe9Of",
          "name" : "Various Artists",
          "type" : "artist",
          "uri" : "spotify:artist:0LyfQWJT6nXafLPZqxe9Of"
        } ],
        "external_urls" : {
          "spotify" : "https://open.spotify.com/album/3B8RDo8TQOuZY1XW7f8Q7j"
        },
        "href" : "https://api.spotify.com/v1/albums/3B8RDo8TQOuZY1XW7f8Q7j",
        "id" : "3B8RDo8TQOuZY1XW7f8Q7j",
        "images" : [ {
          "height" : 640,
          "url" : "https://i.scdn.co/image/ab67616d0000b273557e583a229f5763d0bade9e",
          "width" : 640
        }, {
          "height" : 300,
          "url" : "https://i.scdn.co/image/ab67616d00001e02557e583a229f5763d0bade9e",
          "width" : 300
        }, {
          "height" : 64,
          "url" : "https://i.scdn.co/image/ab67616d00004851557e583a229f5763d0bade9e",
          "width" : 64
        } ],
        "name" : "Journeysongs Third Edition: Volume 23",
        "release_date" : "2012-05-01",
        "release_date_precision" : "day",
        "total_tracks" : 25,
        "type" : "album",
        "uri" : "spotify:album:3B8RDo8TQOuZY1XW7f8Q7j"
      },
      "artists" : [ {
        "external_urls" : {
          "spotify" : "https://open.spotify.com/artist/3KGumRhvUgsfBlaEvHP7E1"
        },
        "href" : "https://api.spotify.com/v1/artists/3KGumRhvUgsfBlaEvHP7E1",
        "id" : "3KGumRhvUgsfBlaEvHP7E1",
        "name" : "Isaac Watts",
        "type" : "artist",
        "uri" : "spotify:artist:3KGumRhvUgsfBlaEvHP7E1"
      } ],
      "disc_number" : 1,
      "duration_ms" : 162351,
      "explicit" : false,
      "external_ids" : {
        "isrc" : "USA4N1301761"
      },
      "external_urls" : {
        "spotify" : "https://open.spotify.com/track/2hjxFme94WUJgINvzYy4qN"
      },
      "href" : "https://api.spotify.com/v1/tracks/2hjxFme94WUJgINvzYy4qN",
      "id" : "2hjxFme94WUJgINvzYy4qN",
      "is_local" : false,
      "is_playable" : true,
      "name" : "My Shepherd Will Supply My Need",
      "popularity" : 9,
      "preview_url" : "https://p.scdn.co/mp3-preview/e730c5bb742b4f8acf4419e3eee1f4641d68068d?cid=774b29d4f13844c495f206cafdad9c86",
      "track_number" : 11,
      "type" : "track",
      "uri" : "spotify:track:2hjxFme94WUJgINvzYy4qN"
    }, {
      "album" : {
        "album_type" : "album",
        "artists" : [ {
          "external_urls" : {
            "spotify" : "https://open.spotify.com/artist/0esCo1bO2OZi9z7vcsD8xg"
          },
          "href" : "https://api.spotify.com/v1/artists/0esCo1bO2OZi9z7vcsD8xg",
          "id" : "0esCo1bO2OZi9z7vcsD8xg",
          "name" : "BYU Combined Choirs and Orchestra",
          "type" : "artist",
          "uri" : "spotify:artist:0esCo1bO2OZi9z7vcsD8xg"
        } ],
        "external_urls" : {
          "spotify" : "https://open.spotify.com/album/7dp7wafhCxqQzjJfWnBRkg"
        },
        "href" : "https://api.spotify.com/v1/albums/7dp7wafhCxqQzjJfWnBRkg",
        "id" : "7dp7wafhCxqQzjJfWnBRkg",
        "images" : [ {
          "height" : 640,
          "url" : "https://i.scdn.co/image/ab67616d0000b2734616e0e8fa046c4a293a3a7f",
          "width" : 640
        }, {
          "height" : 300,
          "url" : "https://i.scdn.co/image/ab67616d00001e024616e0e8fa046c4a293a3a7f",
          "width" : 300
        }, {
          "height" : 64,
          "url" : "https://i.scdn.co/image/ab67616d000048514616e0e8fa046c4a293a3a7f",
          "width" : 64
        } ],
        "name" : "Echoes of the Sabbath",
        "release_date" : "2015-05-12",
        "release_date_precision" : "day",
        "total_tracks" : 13,
        "type" : "album",
        "uri" : "spotify:album:7dp7wafhCxqQzjJfWnBRkg"
      },
      "artists" : [ {
        "external_urls" : {
          "spotify" : "https://open.spotify.com/artist/2Zpql3RdMQjunbDKk1bIiz"
        },
        "href" : "https://api.spotify.com/v1/artists/2Zpql3RdMQjunbDKk1bIiz",
        "id" : "2Zpql3RdMQjunbDKk1bIiz",
        "name" : "Mack Wilberg",
        "type" : "artist",
        "uri" : "spotify:artist:2Zpql3RdMQjunbDKk1bIiz"
      }, {
        "external_urls" : {
          "spotify" : "https://open.spotify.com/artist/4S9stNWh6HlDqRowRuQQxI"
        },
        "href" : "https://api.spotify.com/v1/artists/4S9stNWh6HlDqRowRuQQxI",
        "id" : "4S9stNWh6HlDqRowRuQQxI",
        "name" : "William Bradbury",
        "type" : "artist",
        "uri" : "spotify:artist:4S9stNWh6HlDqRowRuQQxI"
      }, {
        "external_urls" : {
          "spotify" : "https://open.spotify.com/artist/4e1s6vSvOSpD0smGbgCVRH"
        },
        "href" : "https://api.spotify.com/v1/artists/4e1s6vSvOSpD0smGbgCVRH",
        "id" : "4e1s6vSvOSpD0smGbgCVRH",
        "name" : "BYU Concert Choir and Orchestra",
        "type" : "artist",
        "uri" : "spotify:artist:4e1s6vSvOSpD0smGbgCVRH"
      } ],
      "disc_number" : 1,
      "duration_ms" : 297258,
      "explicit" : false,
      "external_ids" : {
        "isrc" : "QMRB31400092"
      },
      "external_urls" : {
        "spotify" : "https://open.spotify.com/track/16fh0fw3Po3YPC9i7Ht6uv"
      },
      "href" : "https://api.spotify.com/v1/tracks/16fh0fw3Po3YPC9i7Ht6uv",
      "id" : "16fh0fw3Po3YPC9i7Ht6uv",
      "is_local" : false,
      "is_playable" : true,
      "name" : "My Shepherd Will Supply My Need (Arr. M. Wilberg for Choir)",
      "popularity" : 10,
      "preview_url" : "https://p.scdn.co/mp3-preview/95cdce6faa97403bdc830669a4d7fd82d1a4df48?cid=774b29d4f13844c495f206cafdad9c86",
      "track_number" : 8,
      "type" : "track",
      "uri" : "spotify:track:16fh0fw3Po3YPC9i7Ht6uv"
    }, {
      "album" : {
        "album_type" : "album",
        "artists" : [ {
          "external_urls" : {
            "spotify" : "https://open.spotify.com/artist/7e52styi8cmsOUXsXKEdgD"
          },
          "href" : "https://api.spotify.com/v1/artists/7e52styi8cmsOUXsXKEdgD",
          "id" : "7e52styi8cmsOUXsXKEdgD",
          "name" : "Allyse Smith",
          "type" : "artist",
          "uri" : "spotify:artist:7e52styi8cmsOUXsXKEdgD"
        } ],
        "external_urls" : {
          "spotify" : "https://open.spotify.com/album/7wtXz6fBIs1XjsXId6k9jx"
        },
        "href" : "https://api.spotify.com/v1/albums/7wtXz6fBIs1XjsXId6k9jx",
        "id" : "7wtXz6fBIs1XjsXId6k9jx",
        "images" : [ {
          "height" : 640,
          "url" : "https://i.scdn.co/image/ab67616d0000b273ec0f38677b371f3c66df0af5",
          "width" : 640
        }, {
          "height" : 300,
          "url" : "https://i.scdn.co/image/ab67616d00001e02ec0f38677b371f3c66df0af5",
          "width" : 300
        }, {
          "height" : 64,
          "url" : "https://i.scdn.co/image/ab67616d00004851ec0f38677b371f3c66df0af5",
          "width" : 64
        } ],
        "name" : "Come Thou Fount",
        "release_date" : "2007-01-01",
        "release_date_precision" : "day",
        "total_tracks" : 14,
        "type" : "album",
        "uri" : "spotify:album:7wtXz6fBIs1XjsXId6k9jx"
      },
      "artists" : [ {
        "external_urls" : {
          "spotify" : "https://open.spotify.com/artist/7e52styi8cmsOUXsXKEdgD"
        },
        "href" : "https://api.spotify.com/v1/artists/7e52styi8cmsOUXsXKEdgD",
        "id" : "7e52styi8cmsOUXsXKEdgD",
        "name" : "Allyse Smith",
        "type" : "artist",
        "uri" : "spotify:artist:7e52styi8cmsOUXsXKEdgD"
      } ],
      "disc_number" : 1,
      "duration_ms" : 312146,
      "explicit" : false,
      "external_ids" : {
        "isrc" : "uscgj0892349"
      },
      "external_urls" : {
        "spotify" : "https://open.spotify.com/track/4i6uPn0dVXX8KAkZ7xGJ4Y"
      },
      "href" : "https://api.spotify.com/v1/tracks/4i6uPn0dVXX8KAkZ7xGJ4Y",
      "id" : "4i6uPn0dVXX8KAkZ7xGJ4Y",
      "is_local" : false,
      "is_playable" : true,
      "name" : "My Shepherd Will Supply My Need",
      "popularity" : 10,
      "preview_url" : "https://p.scdn.co/mp3-preview/81960ee81d938e061e2f183d8bb8608510d41267?cid=774b29d4f13844c495f206cafdad9c86",
      "track_number" : 8,
      "type" : "track",
      "uri" : "spotify:track:4i6uPn0dVXX8KAkZ7xGJ4Y"
    }, {
      "album" : {
        "album_type" : "album",
        "artists" : [ {
          "external_urls" : {
            "spotify" : "https://open.spotify.com/artist/0zYyfhX87rISSc9dyJQK5t"
          },
          "href" : "https://api.spotify.com/v1/artists/0zYyfhX87rISSc9dyJQK5t",
          "id" : "0zYyfhX87rISSc9dyJQK5t",
          "name" : "Craig Duncan",
          "type" : "artist",
          "uri" : "spotify:artist:0zYyfhX87rISSc9dyJQK5t"
        } ],
        "external_urls" : {
          "spotify" : "https://open.spotify.com/album/0ob1zTtlONfPuxXFcKGleK"
        },
        "href" : "https://api.spotify.com/v1/albums/0ob1zTtlONfPuxXFcKGleK",
        "id" : "0ob1zTtlONfPuxXFcKGleK",
        "images" : [ {
          "height" : 640,
          "url" : "https://i.scdn.co/image/ab67616d0000b273a1175a048ec53a3baba55a37",
          "width" : 640
        }, {
          "height" : 300,
          "url" : "https://i.scdn.co/image/ab67616d00001e02a1175a048ec53a3baba55a37",
          "width" : 300
        }, {
          "height" : 64,
          "url" : "https://i.scdn.co/image/ab67616d00004851a1175a048ec53a3baba55a37",
          "width" : 64
        } ],
        "name" : "30 Favorite Celtic Hymns: 30 Hymns Featuring Traditional Irish Instruments",
        "release_date" : "2012-01-01",
        "release_date_precision" : "day",
        "total_tracks" : 30,
        "type" : "album",
        "uri" : "spotify:album:0ob1zTtlONfPuxXFcKGleK"
      },
      "artists" : [ {
        "external_urls" : {
          "spotify" : "https://open.spotify.com/artist/0zYyfhX87rISSc9dyJQK5t"
        },
        "href" : "https://api.spotify.com/v1/artists/0zYyfhX87rISSc9dyJQK5t",
        "id" : "0zYyfhX87rISSc9dyJQK5t",
        "name" : "Craig Duncan",
        "type" : "artist",
        "uri" : "spotify:artist:0zYyfhX87rISSc9dyJQK5t"
      } ],
      "disc_number" : 2,
      "duration_ms" : 208120,
      "explicit" : false,
      "external_ids" : {
        "isrc" : "USB4U0850222"
      },
      "external_urls" : {
        "spotify" : "https://open.spotify.com/track/1d9LfYxM2tP6DQTRwe6r1b"
      },
      "href" : "https://api.spotify.com/v1/tracks/1d9LfYxM2tP6DQTRwe6r1b",
      "id" : "1d9LfYxM2tP6DQTRwe6r1b",
      "is_local" : false,
      "is_playable" : true,
      "name" : "My Shepherd Will Supply All My Need - Old English Hymns Album Version",
      "popularity" : 9,
      "preview_url" : null,
      "track_number" : 3,
      "type" : "track",
      "uri" : "spotify:track:1d9LfYxM2tP6DQTRwe6r1b"
    }, {
      "album" : {
        "album_type" : "album",
        "artists" : [ {
          "external_urls" : {
            "spotify" : "https://open.spotify.com/artist/7HDwWB9AsuPIeP9EPbCj4f"
          },
          "href" : "https://api.spotify.com/v1/artists/7HDwWB9AsuPIeP9EPbCj4f",
          "id" : "7HDwWB9AsuPIeP9EPbCj4f",
          "name" : "Shelly Hamilton",
          "type" : "artist",
          "uri" : "spotify:artist:7HDwWB9AsuPIeP9EPbCj4f"
        }, {
          "external_urls" : {
            "spotify" : "https://open.spotify.com/artist/3BwYNW15CmlEEKsfiwWgP4"
          },
          "href" : "https://api.spotify.com/v1/artists/3BwYNW15CmlEEKsfiwWgP4",
          "id" : "3BwYNW15CmlEEKsfiwWgP4",
          "name" : "Majesty Orchestra",
          "type" : "artist",
          "uri" : "spotify:artist:3BwYNW15CmlEEKsfiwWgP4"
        } ],
        "external_urls" : {
          "spotify" : "https://open.spotify.com/album/42tsGD2m5pXDWoXYw4Nuuh"
        },
        "href" : "https://api.spotify.com/v1/albums/42tsGD2m5pXDWoXYw4Nuuh",
        "id" : "42tsGD2m5pXDWoXYw4Nuuh",
        "images" : [ {
          "height" : 640,
          "url" : "https://i.scdn.co/image/ab67616d0000b273cb680b34da8f1cecd66f8e08",
          "width" : 640
        }, {
          "height" : 300,
          "url" : "https://i.scdn.co/image/ab67616d00001e02cb680b34da8f1cecd66f8e08",
          "width" : 300
        }, {
          "height" : 64,
          "url" : "https://i.scdn.co/image/ab67616d00004851cb680b34da8f1cecd66f8e08",
          "width" : 64
        } ],
        "name" : "Majesty Masterpieces",
        "release_date" : "2013-07-01",
        "release_date_precision" : "day",
        "total_tracks" : 12,
        "type" : "album",
        "uri" : "spotify:album:42tsGD2m5pXDWoXYw4Nuuh"
      },
      "artists" : [ {
        "external_urls" : {
          "spotify" : "https://open.spotify.com/artist/7HDwWB9AsuPIeP9EPbCj4f"
        },
        "href" : "https://api.spotify.com/v1/artists/7HDwWB9AsuPIeP9EPbCj4f",
        "id" : "7HDwWB9AsuPIeP9EPbCj4f",
        "name" : "Shelly Hamilton",
        "type" : "artist",
        "uri" : "spotify:artist:7HDwWB9AsuPIeP9EPbCj4f"
      }, {
        "external_urls" : {
          "spotify" : "https://open.spotify.com/artist/3BwYNW15CmlEEKsfiwWgP4"
        },
        "href" : "https://api.spotify.com/v1/artists/3BwYNW15CmlEEKsfiwWgP4",
        "id" : "3BwYNW15CmlEEKsfiwWgP4",
        "name" : "Majesty Orchestra",
        "type" : "artist",
        "uri" : "spotify:artist:3BwYNW15CmlEEKsfiwWgP4"
      } ],
      "disc_number" : 1,
      "duration_ms" : 325226,
      "explicit" : false,
      "external_ids" : {
        "isrc" : "usx9p1331203"
      },
      "external_urls" : {
        "spotify" : "https://open.spotify.com/track/2aQx8uWaZLmx1YC75VOWJi"
      },
      "href" : "https://api.spotify.com/v1/tracks/2aQx8uWaZLmx1YC75VOWJi",
      "id" : "2aQx8uWaZLmx1YC75VOWJi",
      "is_local" : false,
      "is_playable" : true,
      "name" : "My Shepherd Will Supply My Need",
      "popularity" : 8,
      "preview_url" : "https://p.scdn.co/mp3-preview/8dd13f1f920eecdb43545b50429408f994af5d2b?cid=774b29d4f13844c495f206cafdad9c86",
      "track_number" : 5,
      "type" : "track",
      "uri" : "spotify:track:2aQx8uWaZLmx1YC75VOWJi"
    }, {
      "album" : {
        "album_type" : "album",
        "artists" : [ {
          "external_urls" : {
            "spotify" : "https://open.spotify.com/artist/5ee6tRCf54hwB2pyXhRMb2"
          },
          "href" : "https://api.spotify.com/v1/artists/5ee6tRCf54hwB2pyXhRMb2",
          "id" : "5ee6tRCf54hwB2pyXhRMb2",
          "name" : "Ryan Tilby",
          "type" : "artist",
          "uri" : "spotify:artist:5ee6tRCf54hwB2pyXhRMb2"
        } ],
        "external_urls" : {
          "spotify" : "https://open.spotify.com/album/08KbJqRHzcL20HfaMaU3i8"
        },
        "href" : "https://api.spotify.com/v1/albums/08KbJqRHzcL20HfaMaU3i8",
        "id" : "08KbJqRHzcL20HfaMaU3i8",
        "images" : [ {
          "height" : 640,
          "url" : "https://i.scdn.co/image/ab67616d0000b273e6cc3a1ffb16120cbabd51fd",
          "width" : 640
        }, {
          "height" : 300,
          "url" : "https://i.scdn.co/image/ab67616d00001e02e6cc3a1ffb16120cbabd51fd",
          "width" : 300
        }, {
          "height" : 64,
          "url" : "https://i.scdn.co/image/ab67616d00004851e6cc3a1ffb16120cbabd51fd",
          "width" : 64
        } ],
        "name" : "Hymns of the New World",
        "release_date" : "2019-08-16",
        "release_date_precision" : "day",
        "total_tracks" : 11,
        "type" : "album",
        "uri" : "spotify:album:08KbJqRHzcL20HfaMaU3i8"
      },
      "artists" : [ {
        "external_urls" : {
          "spotify" : "https://open.spotify.com/artist/5ee6tRCf54hwB2pyXhRMb2"
        },
        "href" : "https://api.spotify.com/v1/artists/5ee6tRCf54hwB2pyXhRMb2",
        "id" : "5ee6tRCf54hwB2pyXhRMb2",
        "name" : "Ryan Tilby",
        "type" : "artist",
        "uri" : "spotify:artist:5ee6tRCf54hwB2pyXhRMb2"
      } ],
      "disc_number" : 1,
      "duration_ms" : 256788,
      "explicit" : false,
      "external_ids" : {
        "isrc" : "USLZJ1957524"
      },
      "external_urls" : {
        "spotify" : "https://open.spotify.com/track/3y9s5j0VZ9HG8Qwpu9eUjF"
      },
      "href" : "https://api.spotify.com/v1/tracks/3y9s5j0VZ9HG8Qwpu9eUjF",
      "id" : "3y9s5j0VZ9HG8Qwpu9eUjF",
      "is_local" : false,
      "is_playable" : true,
      "name" : "My Shepherd Will Supply My Need",
      "popularity" : 7,
      "preview_url" : "https://p.scdn.co/mp3-preview/47f964588c8e718b303e68bcc84006cc39407ded?cid=774b29d4f13844c495f206cafdad9c86",
      "track_number" : 7,
      "type" : "track",
      "uri" : "spotify:track:3y9s5j0VZ9HG8Qwpu9eUjF"
    }, {
      "album" : {
        "album_type" : "album",
        "artists" : [ {
          "external_urls" : {
            "spotify" : "https://open.spotify.com/artist/5zN0p884rqUfd0fG3LtVGc"
          },
          "href" : "https://api.spotify.com/v1/artists/5zN0p884rqUfd0fG3LtVGc",
          "id" : "5zN0p884rqUfd0fG3LtVGc",
          "name" : "Cardiphonia Music",
          "type" : "artist",
          "uri" : "spotify:artist:5zN0p884rqUfd0fG3LtVGc"
        } ],
        "external_urls" : {
          "spotify" : "https://open.spotify.com/album/2Ynedwr8oQYG2sJdZQ3VwF"
        },
        "href" : "https://api.spotify.com/v1/albums/2Ynedwr8oQYG2sJdZQ3VwF",
        "id" : "2Ynedwr8oQYG2sJdZQ3VwF",
        "images" : [ {
          "height" : 640,
          "url" : "https://i.scdn.co/image/ab67616d0000b273d475b28b30bb677e26dd8a99",
          "width" : 640
        }, {
          "height" : 300,
          "url" : "https://i.scdn.co/image/ab67616d00001e02d475b28b30bb677e26dd8a99",
          "width" : 300
        }, {
          "height" : 64,
          "url" : "https://i.scdn.co/image/ab67616d00004851d475b28b30bb677e26dd8a99",
          "width" : 64
        } ],
        "name" : "Hollow Square Hymnal",
        "release_date" : "2016-02-11",
        "release_date_precision" : "day",
        "total_tracks" : 20,
        "type" : "album",
        "uri" : "spotify:album:2Ynedwr8oQYG2sJdZQ3VwF"
      },
      "artists" : [ {
        "external_urls" : {
          "spotify" : "https://open.spotify.com/artist/5zN0p884rqUfd0fG3LtVGc"
        },
        "href" : "https://api.spotify.com/v1/artists/5zN0p884rqUfd0fG3LtVGc",
        "id" : "5zN0p884rqUfd0fG3LtVGc",
        "name" : "Cardiphonia Music",
        "type" : "artist",
        "uri" : "spotify:artist:5zN0p884rqUfd0fG3LtVGc"
      }, {
        "external_urls" : {
          "spotify" : "https://open.spotify.com/artist/7tk6E0CtBF43Ve1aa10u0l"
        },
        "href" : "https://api.spotify.com/v1/artists/7tk6E0CtBF43Ve1aa10u0l",
        "id" : "7tk6E0CtBF43Ve1aa10u0l",
        "name" : "Lauren Hofer",
        "type" : "artist",
        "uri" : "spotify:artist:7tk6E0CtBF43Ve1aa10u0l"
      }, {
        "external_urls" : {
          "spotify" : "https://open.spotify.com/artist/6zO6HdgPt1pOQsP6kC4i9B"
        },
        "href" : "https://api.spotify.com/v1/artists/6zO6HdgPt1pOQsP6kC4i9B",
        "id" : "6zO6HdgPt1pOQsP6kC4i9B",
        "name" : "Wendell Kimbrough",
        "type" : "artist",
        "uri" : "spotify:artist:6zO6HdgPt1pOQsP6kC4i9B"
      } ],
      "disc_number" : 1,
      "duration_ms" : 193053,
      "explicit" : false,
      "external_ids" : {
        "isrc" : "QZB4J1886077"
      },
      "external_urls" : {
        "spotify" : "https://open.spotify.com/track/1canKMLM6yBx2JPyc1IEit"
      },
      "href" : "https://api.spotify.com/v1/tracks/1canKMLM6yBx2JPyc1IEit",
      "id" : "1canKMLM6yBx2JPyc1IEit",
      "is_local" : false,
      "is_playable" : true,
      "name" : "My Shepherd Will Supply My Need",
      "popularity" : 6,
      "preview_url" : "https://p.scdn.co/mp3-preview/724409273d823f01f06d7c455707a01050c3f863?cid=774b29d4f13844c495f206cafdad9c86",
      "track_number" : 15,
      "type" : "track",
      "uri" : "spotify:track:1canKMLM6yBx2JPyc1IEit"
    }, {
      "album" : {
        "album_type" : "album",
        "artists" : [ {
          "external_urls" : {
            "spotify" : "https://open.spotify.com/artist/4t9lDJyLaeHNzcSf6F8LfR"
          },
          "href" : "https://api.spotify.com/v1/artists/4t9lDJyLaeHNzcSf6F8LfR",
          "id" : "4t9lDJyLaeHNzcSf6F8LfR",
          "name" : "Letting Go",
          "type" : "artist",
          "uri" : "spotify:artist:4t9lDJyLaeHNzcSf6F8LfR"
        } ],
        "external_urls" : {
          "spotify" : "https://open.spotify.com/album/2ehnulmUmGdInN5RPDKHWn"
        },
        "href" : "https://api.spotify.com/v1/albums/2ehnulmUmGdInN5RPDKHWn",
        "id" : "2ehnulmUmGdInN5RPDKHWn",
        "images" : [ {
          "height" : 640,
          "url" : "https://i.scdn.co/image/ab67616d0000b2735189888d9e2ed509e8bf17f1",
          "width" : 640
        }, {
          "height" : 300,
          "url" : "https://i.scdn.co/image/ab67616d00001e025189888d9e2ed509e8bf17f1",
          "width" : 300
        }, {
          "height" : 64,
          "url" : "https://i.scdn.co/image/ab67616d000048515189888d9e2ed509e8bf17f1",
          "width" : 64
        } ],
        "name" : "Angels & Rainbows",
        "release_date" : "2009-01-21",
        "release_date_precision" : "day",
        "total_tracks" : 14,
        "type" : "album",
        "uri" : "spotify:album:2ehnulmUmGdInN5RPDKHWn"
      },
      "artists" : [ {
        "external_urls" : {
          "spotify" : "https://open.spotify.com/artist/4t9lDJyLaeHNzcSf6F8LfR"
        },
        "href" : "https://api.spotify.com/v1/artists/4t9lDJyLaeHNzcSf6F8LfR",
        "id" : "4t9lDJyLaeHNzcSf6F8LfR",
        "name" : "Letting Go",
        "type" : "artist",
        "uri" : "spotify:artist:4t9lDJyLaeHNzcSf6F8LfR"
      } ],
      "disc_number" : 1,
      "duration_ms" : 200693,
      "explicit" : false,
      "external_ids" : {
        "isrc" : "usl4q0892795"
      },
      "external_urls" : {
        "spotify" : "https://open.spotify.com/track/6YW4tt2rAvt1yTIaviW6VX"
      },
      "href" : "https://api.spotify.com/v1/tracks/6YW4tt2rAvt1yTIaviW6VX",
      "id" : "6YW4tt2rAvt1yTIaviW6VX",
      "is_local" : false,
      "is_playable" : true,
      "name" : "My Shepherd Will Supply My Need",
      "popularity" : 7,
      "preview_url" : "https://p.scdn.co/mp3-preview/1dacd9d634e26dcb422402552a81d932daff2676?cid=774b29d4f13844c495f206cafdad9c86",
      "track_number" : 14,
      "type" : "track",
      "uri" : "spotify:track:6YW4tt2rAvt1yTIaviW6VX"
    }, {
      "album" : {
        "album_type" : "album",
        "artists" : [ {
          "external_urls" : {
            "spotify" : "https://open.spotify.com/artist/6Jt3T3r5FQJxiMjrIpB1ES"
          },
          "href" : "https://api.spotify.com/v1/artists/6Jt3T3r5FQJxiMjrIpB1ES",
          "id" : "6Jt3T3r5FQJxiMjrIpB1ES",
          "name" : "Michael McCarthy",
          "type" : "artist",
          "uri" : "spotify:artist:6Jt3T3r5FQJxiMjrIpB1ES"
        } ],
        "external_urls" : {
          "spotify" : "https://open.spotify.com/album/5SrASiwndQOAI1HsVdrDzh"
        },
        "href" : "https://api.spotify.com/v1/albums/5SrASiwndQOAI1HsVdrDzh",
        "id" : "5SrASiwndQOAI1HsVdrDzh",
        "images" : [ {
          "height" : 640,
          "url" : "https://i.scdn.co/image/ab67616d0000b273b67428cc88b8132af334ed93",
          "width" : 640
        }, {
          "height" : 300,
          "url" : "https://i.scdn.co/image/ab67616d00001e02b67428cc88b8132af334ed93",
          "width" : 300
        }, {
          "height" : 64,
          "url" : "https://i.scdn.co/image/ab67616d00004851b67428cc88b8132af334ed93",
          "width" : 64
        } ],
        "name" : "America the Beautiful",
        "release_date" : "2010-08-01",
        "release_date_precision" : "day",
        "total_tracks" : 16,
        "type" : "album",
        "uri" : "spotify:album:5SrASiwndQOAI1HsVdrDzh"
      },
      "artists" : [ {
        "external_urls" : {
          "spotify" : "https://open.spotify.com/artist/1ucvqiCLdOj84dNEKXS5mr"
        },
        "href" : "https://api.spotify.com/v1/artists/1ucvqiCLdOj84dNEKXS5mr",
        "id" : "1ucvqiCLdOj84dNEKXS5mr",
        "name" : "Virgil Thomson",
        "type" : "artist",
        "uri" : "spotify:artist:1ucvqiCLdOj84dNEKXS5mr"
      }, {
        "external_urls" : {
          "spotify" : "https://open.spotify.com/artist/1U5zgr455OGyIkLNXvDdrf"
        },
        "href" : "https://api.spotify.com/v1/artists/1U5zgr455OGyIkLNXvDdrf",
        "id" : "1U5zgr455OGyIkLNXvDdrf",
        "name" : "Traditional",
        "type" : "artist",
        "uri" : "spotify:artist:1U5zgr455OGyIkLNXvDdrf"
      }, {
        "external_urls" : {
          "spotify" : "https://open.spotify.com/artist/12MmJgOB4tvMGWHuroHPev"
        },
        "href" : "https://api.spotify.com/v1/artists/12MmJgOB4tvMGWHuroHPev",
        "id" : "12MmJgOB4tvMGWHuroHPev",
        "name" : "Washington National Cathedral Choir",
        "type" : "artist",
        "uri" : "spotify:artist:12MmJgOB4tvMGWHuroHPev"
      }, {
        "external_urls" : {
          "spotify" : "https://open.spotify.com/artist/6Jt3T3r5FQJxiMjrIpB1ES"
        },
        "href" : "https://api.spotify.com/v1/artists/6Jt3T3r5FQJxiMjrIpB1ES",
        "id" : "6Jt3T3r5FQJxiMjrIpB1ES",
        "name" : "Michael McCarthy",
        "type" : "artist",
        "uri" : "spotify:artist:6Jt3T3r5FQJxiMjrIpB1ES"
      } ],
      "disc_number" : 1,
      "duration_ms" : 257466,
      "explicit" : false,
      "external_ids" : {
        "isrc" : "US42R0550105"
      },
      "external_urls" : {
        "spotify" : "https://open.spotify.com/track/019qPWcjsNjnYR19wuLsI3"
      },
      "href" : "https://api.spotify.com/v1/tracks/019qPWcjsNjnYR19wuLsI3",
      "id" : "019qPWcjsNjnYR19wuLsI3",
      "is_local" : false,
      "is_playable" : true,
      "name" : "My Shepherd Will Supply My Need (arr. V. Thomson)",
      "popularity" : 7,
      "preview_url" : "https://p.scdn.co/mp3-preview/fe29396fdf5f36f9405e50d76af030ce33387589?cid=774b29d4f13844c495f206cafdad9c86",
      "track_number" : 5,
      "type" : "track",
      "uri" : "spotify:track:019qPWcjsNjnYR19wuLsI3"
    }, {
      "album" : {
        "album_type" : "album",
        "artists" : [ {
          "external_urls" : {
            "spotify" : "https://open.spotify.com/artist/72SWPY3YDiQr8FF1qYBnIG"
          },
          "href" : "https://api.spotify.com/v1/artists/72SWPY3YDiQr8FF1qYBnIG",
          "id" : "72SWPY3YDiQr8FF1qYBnIG",
          "name" : "The Schola Cantorum of St. Peter's in the Loop",
          "type" : "artist",
          "uri" : "spotify:artist:72SWPY3YDiQr8FF1qYBnIG"
        } ],
        "external_urls" : {
          "spotify" : "https://open.spotify.com/album/3NjEOvmNCAhKkJ78W1trfF"
        },
        "href" : "https://api.spotify.com/v1/albums/3NjEOvmNCAhKkJ78W1trfF",
        "id" : "3NjEOvmNCAhKkJ78W1trfF",
        "images" : [ {
          "height" : 640,
          "url" : "https://i.scdn.co/image/ab67616d0000b2738182b70f411e055cb22c2840",
          "width" : 640
        }, {
          "height" : 300,
          "url" : "https://i.scdn.co/image/ab67616d00001e028182b70f411e055cb22c2840",
          "width" : 300
        }, {
          "height" : 64,
          "url" : "https://i.scdn.co/image/ab67616d000048518182b70f411e055cb22c2840",
          "width" : 64
        } ],
        "name" : "Praise To The Lord! : Great Hymns of the Church",
        "release_date" : "2005",
        "release_date_precision" : "year",
        "total_tracks" : 20,
        "type" : "album",
        "uri" : "spotify:album:3NjEOvmNCAhKkJ78W1trfF"
      },
      "artists" : [ {
        "external_urls" : {
          "spotify" : "https://open.spotify.com/artist/72SWPY3YDiQr8FF1qYBnIG"
        },
        "href" : "https://api.spotify.com/v1/artists/72SWPY3YDiQr8FF1qYBnIG",
        "id" : "72SWPY3YDiQr8FF1qYBnIG",
        "name" : "The Schola Cantorum of St. Peter's in the Loop",
        "type" : "artist",
        "uri" : "spotify:artist:72SWPY3YDiQr8FF1qYBnIG"
      } ],
      "disc_number" : 1,
      "duration_ms" : 295093,
      "explicit" : false,
      "external_ids" : {
        "isrc" : "USDRY1010971"
      },
      "external_urls" : {
        "spotify" : "https://open.spotify.com/track/2dkOLcsX9XiLhJlPTS0atY"
      },
      "href" : "https://api.spotify.com/v1/tracks/2dkOLcsX9XiLhJlPTS0atY",
      "id" : "2dkOLcsX9XiLhJlPTS0atY",
      "is_local" : false,
      "is_playable" : true,
      "name" : "My Shepherd Will Supply My Need",
      "popularity" : 7,
      "preview_url" : "https://p.scdn.co/mp3-preview/2bfde83bc99040f134f2b560bff3dc6ffe6fd63c?cid=774b29d4f13844c495f206cafdad9c86",
      "track_number" : 3,
      "type" : "track",
      "uri" : "spotify:track:2dkOLcsX9XiLhJlPTS0atY"
    } ],
    "limit" : 10,
    "next" : "https://api.spotify.com/v1/search?query=My+Shepherd+Will+Supply+My+Need&type=track&market=US&offset=15&limit=10",
    "offset" : 5,
    "previous" : "https://api.spotify.com/v1/search?query=My+Shepherd+Will+Supply+My+Need&type=track&market=US&offset=0&limit=10",
    "total" : 124
  }
}