{
  "tracks" : {
    "href" : "https://api.spotify.com/v1/search?query=Of+the+Father%E2%80%99s+Love+Begotten&type=track&market=US&offset=5&limit=10",
    "items" : [ {
      "album" : {
        "album_type" : "album",
        "artists" : [ {
          "external_urls" : {
            "spotify" : "https://open.spotify.com/artist/00zOnfp2XbezHQUNAYH7ON"
          },
          "href" : "https://api.spotify.com/v1/artists/00zOnfp2XbezHQUNAYH7ON",
          "id" : "00zOnfp2XbezHQUNAYH7ON",
          "name" : "John Michael Talbot",
          "type" : "artist",
          "uri" : "spotify:artist:00zOnfp2XbezHQUNAYH7ON"
        } ],
        "external_urls" : {
          "spotify" : "https://open.spotify.com/album/520nuXTdQySGUSpNEnDzgi"
        },
        "href" : "https://api.spotify.com/v1/albums/520nuXTdQySGUSpNEnDzgi",
        "id" : "520nuXTdQySGUSpNEnDzgi",
        "images" : [ {
          "height" : 640,
          "url" : "https://i.scdn.co/image/ab67616d0000b273b50f5010750354cd89d3db0d",
          "width" : 640
        }, {
          "height" : 300,
          "url" : "https://i.scdn.co/image/ab67616d00001e02b50f5010750354cd89d3db0d",
          "width" : 300
        }, {
          "height" : 64,
          "url" : "https://i.scdn.co/image/ab67616d00004851b50f5010750354cd89d3db0d",
          "width" : 64
        } ],
        "name" : "The Birth Of Jesus: Celebration",
        "release_date" : "1990-01-01",
        "release_date_precision" : "day",
        "total_tracks" : 12,
        "type" : "album",
        "uri" : "spotify:album:520nuXTdQySGUSpNEnDzgi"
      },
      "artists" : [ {
        "external_urls" : {
          "spotify" : "https://open.spotify.com/artist/00zOnfp2XbezHQUNAYH7ON"
        },
        "href" : "https://api.spotify.com/v1/artists/00zOnfp2XbezHQUNAYH7ON",
        "id" : "00zOnfp2XbezHQUNAYH7ON",
        "name" : "John Michael Talbot",
        "type" : "artist",
        "uri" : "spotify:artist:00zOnfp2XbezHQUNAYH7ON"
      } ],
      "disc_number" : 1,
      "duration_ms" : 143573,
      "explicit" : false,
      "external_ids" : {
        "isrc" : "USSP39047453"
      },
      "external_urls" : {
        "spotify" : "https://open.spotify.com/track/57Hlv1c6b30gKM4lFVZgBN"
      },
      "href" : "https://api.spotify.com/v1/tracks/57Hlv1c6b30gKM4lFVZgBN",
      "id" : "57Hlv1c6b30gKM4lFVZgBN",
      "is_local" : false,
      "is_playable" : true,
      "name" : "Of The Father's Love Begotten",
      "popularity" : 9,
      "preview_url" : null,
      "track_number" : 6,
      "type" : "track",
      "uri" : "spotify:track:57Hlv1c6b30gKM4lFVZgBN"
    }, {
      "album" : {
        "album_type" : "album",
        "artists" : [ {
          "external_urls" : {
            "spotify" : "https://open.spotify.com/artist/7hz41KzAPU4K0qUXDCc2ki"
          },
          "href" : "https://api.spotify.com/v1/artists/7hz41KzAPU4K0qUXDCc2ki",
          "id" : "7hz41KzAPU4K0qUXDCc2ki",
          "name" : "The National Lutheran Choir",
          "type" : "artist",
          "uri" : "spotify:artist:7hz41KzAPU4K0qUXDCc2ki"
        } ],
        "external_urls" : {
          "spotify" : "https://open.spotify.com/album/1HSjRaWFOQ1jiQL6oDmUro"
        },
        "href" : "https://api.spotify.com/v1/albums/1HSjRaWFOQ1jiQL6oDmUro",
        "id" : "1HSjRaWFOQ1jiQL6oDmUro",
        "images" : [ {
          "height" : 640,
          "url" : "https://i.scdn.co/image/ab67616d0000b27374ee5540f7fb9434cedb1656",
          "width" : 640
        }, {
          "height" : 300,
          "url" : "https://i.scdn.co/image/ab67616d00001e0274ee5540f7fb9434cedb1656",
          "width" : 300
        }, {
          "height" : 64,
          "url" : "https://i.scdn.co/image/ab67616d0000485174ee5540f7fb9434cedb1656",
          "width" : 64
        } ],
        "name" : "Hymns We Love to Sing",
        "release_date" : "2005",
        "release_date_precision" : "year",
        "total_tracks" : 14,
        "type" : "album",
        "uri" : "spotify:album:1HSjRaWFOQ1jiQL6oDmUro"
      },
      "artists" : [ {
        "external_urls" : {
          "spotify" : "https://open.spotify.com/artist/7hz41KzAPU4K0qUXDCc2ki"
        },
        "href" : "https://api.spotify.com/v1/artists/7hz41KzAPU4K0qUXDCc2ki",
        "id" : "7hz41KzAPU4K0qUXDCc2ki",
        "name" : "The National Lutheran Choir",
        "type" : "artist",
        "uri" : "spotify:artist:7hz41KzAPU4K0qUXDCc2ki"
      } ],
      "disc_number" : 1,
      "duration_ms" : 595359,
      "explicit" : false,
      "external_ids" : {
        "isrc" : "USDHM0903037"
      },
      "external_urls" : {
        "spotify" : "https://open.spotify.com/track/4Dht7VYtvd3ujBvDZo8rYo"
      },
      "href" : "https://api.spotify.com/v1/tracks/4Dht7VYtvd3ujBvDZo8rYo",
      "id" : "4Dht7VYtvd3ujBvDZo8rYo",
      "is_local" : false,
      "is_playable" : true,
      "name" : "Of the Father's Love Begotten",
      "popularity" : 10,
      "preview_url" : "https://p.scdn.co/mp3-preview/b069b2d5a73c7defd96143edf5bc6d01e8f382c6?cid=774b29d4f13844c495f206cafdad9c86",
      "track_number" : 3,
      "type" : "track",
      "uri" : "spotify:track:4Dht7VYtvd3ujBvDZo8rYo"
    }, {
      "album" : {
        "album_type" : "single",
        "artists" : [ {
          "external_urls" : {
            "spotify" : "https://open.spotify.com/artist/0I4Bk2s2BUJyykCwtxx8Xx"
          },
          "href" : "https://api.spotify.com/v1/artists/0I4Bk2s2BUJyykCwtxx8Xx",
          "id" : "0I4Bk2s2BUJyykCwtxx8Xx",
          "name" : "Keith & Kristyn Getty",
          "type" : "artist",
          "uri" : "spotify:artist:0I4Bk2s2BUJyykCwtxx8Xx"
        } ],
        "external_urls" : {
          "spotify" : "https://open.spotify.com/album/5GC2bW4PxeIqjklIpjP8GI"
        },
        "href" : "https://api.spotify.com/v1/albums/5GC2bW4PxeIqjklIpjP8GI",
        "id" : "5GC2bW4PxeIqjklIpjP8GI",
        "images" : [ {
          "height" : 640,
          "url" : "https://i.scdn.co/image/ab67616d0000b27355b891aeb6a6fc2f135f54d8",
          "width" : 640
        }, {
          "height" : 300,
          "url" : "https://i.scdn.co/image/ab67616d00001e0255b891aeb6a6fc2f135f54d8",
          "width" : 300
        }, {
          "height" : 64,
          "url" : "https://i.scdn.co/image/ab67616d0000485155b891aeb6a6fc2f135f54d8",
          "width" : 64
        } ],
        "name" : "Across The Lands (Incarnation / Of the Father's Love Begotten) [Live]",
        "release_date" : "2019-11-08",
        "release_date_precision" : "day",
        "total_tracks" : 1,
        "type" : "album",
        "uri" : "spotify:album:5GC2bW4PxeIqjklIpjP8GI"
      },
      "artists" : [ {
        "external_urls" : {
          "spotify" : "https://open.spotify.com/artist/0I4Bk2s2BUJyykCwtxx8Xx"
        },
        "href" : "https://api.spotify.com/v1/artists/0I4Bk2s2BUJyykCwtxx8Xx",
        "id" : "0I4Bk2s2BUJyykCwtxx8Xx",
        "name" : "Keith & Kristyn Getty",
        "type" : "artist",
        "uri" : "spotify:artist:0I4Bk2s2BUJyykCwtxx8Xx"
      } ],
      "disc_number" : 1,
      "duration_ms" : 434706,
      "explicit" : false,
      "external_ids" : {
        "isrc" : "USY5K1900186"
      },
      "external_urls" : {
        "spotify" : "https://open.spotify.com/track/6abzlwhVZOtMX6wqyxYCgR"
      },
      "href" : "https://api.spotify.com/v1/tracks/6abzlwhVZOtMX6wqyxYCgR",
      "id" : "6abzlwhVZOtMX6wqyxYCgR",
      "is_local" : false,
      "is_playable" : true,
      "name" : "Across The Lands (Incarnation / Of the Father's Love Begotten) - Live",
      "popularity" : 8,
      "preview_url" : null,
      "track_number" : 1,
      "type" : "track",
      "uri" : "spotify:track:6abzlwhVZOtMX6wqyxYCgR"
    }, {
      "album" : {
        "album_type" : "album",
        "artists" : [ {
          "external_urls" : {
            "spotify" : "https://open.spotify.com/artist/7kud6XIx1X9kouRwys0OIM"
          },
          "href" : "https://api.spotify.com/v1/artists/7kud6XIx1X9kouRwys0OIM",
          "id" : "7kud6XIx1X9kouRwys0OIM",
          "name" : "Dominican Sisters of Mary, Mother of the Eucharist",
          "type" : "artist",
          "uri" : "spotify:artist:7kud6XIx1X9kouRwys0OIM"
        } ],
        "external_urls" : {
          "spotify" : "https://open.spotify.com/album/3yu5XbhtZF9V7B22nAY7Dm"
        },
        "href" : "https://api.spotify.com/v1/albums/3yu5XbhtZF9V7B22nAY7Dm",
        "id" : "3yu5XbhtZF9V7B22nAY7Dm",
        "images" : [ {
          "height" : 640,
          "url" : "https://i.scdn.co/image/ab67616d0000b273135dccbb76db1420e0fa90f2",
          "width" : 640
        }, {
          "height" : 300,
          "url" : "https://i.scdn.co/image/ab67616d00001e02135dccbb76db1420e0fa90f2",
          "width" : 300
        }, {
          "height" : 64,
          "url" : "https://i.scdn.co/image/ab67616d00004851135dccbb76db1420e0fa90f2",
          "width" : 64
        } ],
        "name" : "Jesu, Joy of Man's Desiring: Christmas with The Dominican Sisters of Mary",
        "release_date" : "2017-10-13",
        "release_date_precision" : "day",
        "total_tracks" : 16,
        "type" : "album",
        "uri" : "spotify:album:3yu5XbhtZF9V7B22nAY7Dm"
      },
      "artists" : [ {
        "external_urls" : {
          "spotify" : "https://open.spotify.com/artist/1U5zgr455OGyIkLNXvDdrf"
        },
        "href" : "https://api.spotify.com/v1/artists/1U5zgr455OGyIkLNXvDdrf",
        "id" : "1U5zgr455OGyIkLNXvDdrf",
        "name" : "Traditional",
        "type" : "artist",
        "uri" : "spotify:artist:1U5zgr455OGyIkLNXvDdrf"
      }, {
        "external_urls" : {
          "spotify" : "https://open.spotify.com/artist/7kud6XIx1X9kouRwys0OIM"
        },
        "href" : "https://api.spotify.com/v1/artists/7kud6XIx1X9kouRwys0OIM",
        "id" : "7kud6XIx1X9kouRwys0OIM",
        "name" : "Dominican Sisters of Mary, Mother of the Eucharist",
        "type" : "artist",
        "uri" : "spotify:artist:7kud6XIx1X9kouRwys0OIM"
      } ],
      "disc_number" : 1,
      "duration_ms" : 353520,
      "explicit" : false,
      "external_ids" : {
        "isrc" : "QML6R1700512"
      },
      "external_urls" : {
        "spotify" : "https://open.spotify.com/track/25dhHmtAhECQzMOEcdPG9M"
      },
      "href" : "https://api.spotify.com/v1/tracks/25dhHmtAhECQzMOEcdPG9M",
      "id" : "25dhHmtAhECQzMOEcdPG9M",
      "is_local" : false,
      "is_playable" : true,
      "name" : "Of the Father's Love Begotten",
      "popularity" : 6,
      "preview_url" : "https://p.scdn.co/mp3-preview/51a0905bc941a7e3c7b892532b108dfe2fe4f182?cid=774b29d4f13844c495f206cafdad9c86",
      "track_number" : 13,
      "type" : "track",
      "uri" : "spotify:track:25dhHmtAhECQzMOEcdPG9M"
    }, {
      "album" : {
        "album_type" : "album",
        "artists" : [ {
          "external_urls" : {
            "spotify" : "https://open.spotify.com/artist/5xttCD1o4YHy1YQj4zdQV8"
          },
          "href" : "https://api.spotify.com/v1/artists/5xttCD1o4YHy1YQj4zdQV8",
          "id" : "5xttCD1o4YHy1YQj4zdQV8",
          "name" : "Ordinary Time",
          "type" : "artist",
          "uri" : "spotify:artist:5xttCD1o4YHy1YQj4zdQV8"
        } ],
        "external_urls" : {
          "spotify" : "https://open.spotify.com/album/7cVYQVfr2za8w9JogTIG7W"
        },
        "href" : "https://api.spotify.com/v1/albums/7cVYQVfr2za8w9JogTIG7W",
        "id" : "7cVYQVfr2za8w9JogTIG7W",
        "images" : [ {
          "height" : 640,
          "url" : "https://i.scdn.co/image/ab67616d0000b273dd404f6653abf9b805abc229",
          "width" : 640
        }, {
          "height" : 300,
          "url" : "https://i.scdn.co/image/ab67616d00001e02dd404f6653abf9b805abc229",
          "width" : 300
        }, {
          "height" : 64,
          "url" : "https://i.scdn.co/image/ab67616d00004851dd404f6653abf9b805abc229",
          "width" : 64
        } ],
        "name" : "Until He Comes",
        "release_date" : "2008-05-27",
        "release_date_precision" : "day",
        "total_tracks" : 13,
        "type" : "album",
        "uri" : "spotify:album:7cVYQVfr2za8w9JogTIG7W"
      },
      "artists" : [ {
        "external_urls" : {
          "spotify" : "https://open.spotify.com/artist/5xttCD1o4YHy1YQj4zdQV8"
        },
        "href" : "https://api.spotify.com/v1/artists/5xttCD1o4YHy1YQj4zdQV8",
        "id" : "5xttCD1o4YHy1YQj4zdQV8",
        "name" : "Ordinary Time",
        "type" : "artist",
        "uri" : "spotify:artist:5xttCD1o4YHy1YQj4zdQV8"
      } ],
      "disc_number" : 1,
      "duration_ms" : 148520,
      "explicit" : false,
      "external_ids" : {
        "isrc" : "uscgj0845622"
      },
      "external_urls" : {
        "spotify" : "https://open.spotify.com/track/2NZayHcOJvWHk2t1aUHZoH"
      },
      "href" : "https://api.spotify.com/v1/tracks/2NZayHcOJvWHk2t1aUHZoH",
      "id" : "2NZayHcOJvWHk2t1aUHZoH",
      "is_local" : false,
      "is_playable" : true,
      "name" : "Of the Father's Love Begotten",
      "popularity" : 7,
      "preview_url" : "https://p.scdn.co/mp3-preview/301873a34afe9c9a94c8735c2f8d70afa3f8a2e7?cid=774b29d4f13844c495f206cafdad9c86",
      "track_number" : 7,
      "type" : "track",
      "uri" : "spotify:track:2NZayHcOJvWHk2t1aUHZoH"
    }, {
      "album" : {
        "album_type" : "album",
        "artists" : [ {
          "external_urls" : {
            "spotify" : "https://open.spotify.com/artist/7svIR74ziDhK5QwUXHPeyX"
          },
          "href" : "https://api.spotify.com/v1/artists/7svIR74ziDhK5QwUXHPeyX",
          "id" : "7svIR74ziDhK5QwUXHPeyX",
          "name" : "Donovan Raitt",
          "type" : "artist",
          "uri" : "spotify:artist:7svIR74ziDhK5QwUXHPeyX"
        } ],
        "external_urls" : {
          "spotify" : "https://open.spotify.com/album/4bnrS8sMHhTsazzKxcxxrA"
        },
        "href" : "https://api.spotify.com/v1/albums/4bnrS8sMHhTsazzKxcxxrA",
        "id" : "4bnrS8sMHhTsazzKxcxxrA",
        "images" : [ {
          "height" : 640,
          "url" : "https://i.scdn.co/image/ab67616d0000b273defb82165ef4be3e19ef353c",
          "width" : 640
        }, {
          "height" : 300,
          "url" : "https://i.scdn.co/image/ab67616d00001e02defb82165ef4be3e19ef353c",
          "width" : 300
        }, {
          "height" : 64,
          "url" : "https://i.scdn.co/image/ab67616d00004851defb82165ef4be3e19ef353c",
          "width" : 64
        } ],
        "name" : "Guitar Hymns, Vol. 2",
        "release_date" : "2015-08-26",
        "release_date_precision" : "day",
        "total_tracks" : 10,
        "type" : "album",
        "uri" : "spotify:album:4bnrS8sMHhTsazzKxcxxrA"
      },
      "artists" : [ {
        "external_urls" : {
          "spotify" : "https://open.spotify.com/artist/7svIR74ziDhK5QwUXHPeyX"
        },
        "href" : "https://api.spotify.com/v1/artists/7svIR74ziDhK5QwUXHPeyX",
        "id" : "7svIR74ziDhK5QwUXHPeyX",
        "name" : "Donovan Raitt",
        "type" : "artist",
        "uri" : "spotify:artist:7svIR74ziDhK5QwUXHPeyX"
      } ],
      "disc_number" : 1,
      "duration_ms" : 187493,
      "explicit" : false,
      "external_ids" : {
        "isrc" : "QM9AA1539516"
      },
      "external_urls" : {
        "spotify" : "https://open.spotify.com/track/55RB4IQHPFrQbUuAGCifFJ"
      },
      "href" : "https://api.spotify.com/v1/tracks/55RB4IQHPFrQbUuAGCifFJ",
      "id" : "55RB4IQHPFrQbUuAGCifFJ",
      "is_local" : false,
      "is_playable" : true,
      "name" : "Of the Father's Love Begotten",
      "popularity" : 6,
      "preview_url" : "https://p.scdn.co/mp3-preview/e2dcf3e2d64bd4a982e5034d335c7fed28640d1a?cid=774b29d4f13844c495f206cafdad9c86",
      "track_number" : 7,
      "type" : "track",
      "uri" : "spotify:track:55RB4IQHPFrQbUuAGCifFJ"
    }, {
      "album" : {
        "album_type" : "album",
        "artists" : [ {
          "external_urls" : {
            "spotify" : "https://open.spotify.com/artist/64mXwTe92xIUKqJCTdfRnK"
          },
          "href" : "https://api.spotify.com/v1/artists/64mXwTe92xIUKqJCTdfRnK",
          "id" : "64mXwTe92xIUKqJCTdfRnK",
          "name" : "Musica Sacra",
          "type" : "artist",
          "uri" : "spotify:artist:64mXwTe92xIUKqJCTdfRnK"
        } ],
        "external_urls" : {
          "spotify" : "https://open.spotify.com/album/1RcnzodfCcrzMvvQY62VXl"
        },
        "href" : "https://api.spotify.com/v1/albums/1RcnzodfCcrzMvvQY62VXl",
        "id" : "1RcnzodfCcrzMvvQY62VXl",
        "images" : [ {
          "height" : 640,
          "url" : "https://i.scdn.co/image/ab67616d0000b27364f2549ad93268e61eebe6f4",
          "width" : 640
        }, {
          "height" : 300,
          "url" : "https://i.scdn.co/image/ab67616d00001e0264f2549ad93268e61eebe6f4",
          "width" : 300
        }, {
          "height" : 64,
          "url" : "https://i.scdn.co/image/ab67616d0000485164f2549ad93268e61eebe6f4",
          "width" : 64
        } ],
        "name" : "Christian Hymns, Vol. 4: A Comprehensive Collection of Traditional Sacred Christmas Songs and Carols from the English Hymnal",
        "release_date" : "2019-10-17",
        "release_date_precision" : "day",
        "total_tracks" : 27,
        "type" : "album",
        "uri" : "spotify:album:1RcnzodfCcrzMvvQY62VXl"
      },
      "artists" : [ {
        "external_urls" : {
          "spotify" : "https://open.spotify.com/artist/64mXwTe92xIUKqJCTdfRnK"
        },
        "href" : "https://api.spotify.com/v1/artists/64mXwTe92xIUKqJCTdfRnK",
        "id" : "64mXwTe92xIUKqJCTdfRnK",
        "name" : "Musica Sacra",
        "type" : "artist",
        "uri" : "spotify:artist:64mXwTe92xIUKqJCTdfRnK"
      } ],
      "disc_number" : 1,
      "duration_ms" : 98566,
      "explicit" : false,
      "external_ids" : {
        "isrc" : "TCAEM1921279"
      },
      "external_urls" : {
        "spotify" : "https://open.spotify.com/track/49BCAc0cbzis1WDtIRMeMG"
      },
      "href" : "https://api.spotify.com/v1/tracks/49BCAc0cbzis1WDtIRMeMG",
      "id" : "49BCAc0cbzis1WDtIRMeMG",
      "is_local" : false,
      "is_playable" : true,
      "name" : "Of the Father's Love Begotten",
      "popularity" : 7,
      "preview_url" : "https://p.scdn.co/mp3-preview/712c2cb2b7999c0dedeeb382fe9dfd295d66e906?cid=774b29d4f13844c495f206cafdad9c86",
      "track_number" : 13,
      "type" : "track",
      "uri" : "spotify:track:49BCAc0cbzis1WDtIRMeMG"
    }, {
      "album" : {
        "album_type" : "album",
        "artists" : [ {
          "external_urls" : {
            "spotify" : "https://open.spotify.com/artist/6vDRCH24uCYgMzUXyBO3NT"
          },
          "href" : "https://api.spotify.com/v1/artists/6vDRCH24uCYgMzUXyBO3NT",
          "id" : "6vDRCH24uCYgMzUXyBO3NT",
          "name" : "St. Martin's Chamber Choir",
          "type" : "artist",
          "uri" : "spotify:artist:6vDRCH24uCYgMzUXyBO3NT"
        } ],
        "external_urls" : {
          "spotify" : "https://open.spotify.com/album/7lOmL0hEGXCcnIDdMXXIJt"
        },
        "href" : "https://api.spotify.com/v1/albums/7lOmL0hEGXCcnIDdMXXIJt",
        "id" : "7lOmL0hEGXCcnIDdMXXIJt",
        "images" : [ {
          "height" : 640,
          "url" : "https://i.scdn.co/image/ab67616d0000b2730d0c01250c0f43a07f65736f",
          "width" : 640
        }, {
          "height" : 300,
          "url" : "https://i.scdn.co/image/ab67616d00001e020d0c01250c0f43a07f65736f",
          "width" : 300
        }, {
          "height" : 64,
          "url" : "https://i.scdn.co/image/ab67616d000048510d0c01250c0f43a07f65736f",
          "width" : 64
        } ],
        "name" : "The Waking: Choral Music of Terry Schlenker",
        "release_date" : "2009-06-05",
        "release_date_precision" : "day",
        "total_tracks" : 16,
        "type" : "album",
        "uri" : "spotify:album:7lOmL0hEGXCcnIDdMXXIJt"
      },
      "artists" : [ {
        "external_urls" : {
          "spotify" : "https://open.spotify.com/artist/6vDRCH24uCYgMzUXyBO3NT"
        },
        "href" : "https://api.spotify.com/v1/artists/6vDRCH24uCYgMzUXyBO3NT",
        "id" : "6vDRCH24uCYgMzUXyBO3NT",
        "name" : "St. Martin's Chamber Choir",
        "type" : "artist",
        "uri" : "spotify:artist:6vDRCH24uCYgMzUXyBO3NT"
      }, {
        "external_urls" : {
          "spotify" : "https://open.spotify.com/artist/7jouAuaFrctMTZmLLeuuuL"
        },
        "href" : "https://api.spotify.com/v1/artists/7jouAuaFrctMTZmLLeuuuL",
        "id" : "7jouAuaFrctMTZmLLeuuuL",
        "name" : "Terry Schlenker",
        "type" : "artist",
        "uri" : "spotify:artist:7jouAuaFrctMTZmLLeuuuL"
      }, {
        "external_urls" : {
          "spotify" : "https://open.spotify.com/artist/43Ze8zw633d6jDWRqOBux4"
        },
        "href" : "https://api.spotify.com/v1/artists/43Ze8zw633d6jDWRqOBux4",
        "id" : "43Ze8zw633d6jDWRqOBux4",
        "name" : "Timothy J. Krueger",
        "type" : "artist",
        "uri" : "spotify:artist:43Ze8zw633d6jDWRqOBux4"
      } ],
      "disc_number" : 1,
      "duration_ms" : 270360,
      "explicit" : false,
      "external_ids" : {
        "isrc" : "USA370918150"
      },
      "external_urls" : {
        "spotify" : "https://open.spotify.com/track/1u6JbR0fxQGDc1rZURY1Yl"
      },
      "href" : "https://api.spotify.com/v1/tracks/1u6JbR0fxQGDc1rZURY1Yl",
      "id" : "1u6JbR0fxQGDc1rZURY1Yl",
      "is_local" : false,
      "is_playable" : true,
      "name" : "Of the Father's Love Begotten",
      "popularity" : 5,
      "preview_url" : "https://p.scdn.co/mp3-preview/157d0b3a72a81f4e5c51192e59ba8ebcb905187d?cid=774b29d4f13844c495f206cafdad9c86",
      "track_number" : 4,
      "type" : "track",
      "uri" : "spotify:track:1u6JbR0fxQGDc1rZURY1Yl"
    }, {
      "album" : {
        "album_type" : "album",
        "artists" : [ {
          "external_urls" : {
            "spotify" : "https://open.spotify.com/artist/7gjHSq6MQ3C2RNdlIkbYnG"
          },
          "href" : "https://api.spotify.com/v1/artists/7gjHSq6MQ3C2RNdlIkbYnG",
          "id" : "7gjHSq6MQ3C2RNdlIkbYnG",
          "name" : "Instrumental Christian Songs, Christian Piano Music",
          "type" : "artist",
          "uri" : "spotify:artist:7gjHSq6MQ3C2RNdlIkbYnG"
        }, {
          "external_urls" : {
            "spotify" : "https://open.spotify.com/artist/1uQeX1AaJ9dMJipUZsVeNc"
          },
          "href" : "https://api.spotify.com/v1/artists/1uQeX1AaJ9dMJipUZsVeNc",
          "id" : "1uQeX1AaJ9dMJipUZsVeNc",
          "name" : "Joyous Holiday Players",
          "type" : "artist",
          "uri" : "spotify:artist:1uQeX1AaJ9dMJipUZsVeNc"
        } ],
        "external_urls" : {
          "spotify" : "https://open.spotify.com/album/0hw4hbft3MyWAHdj5HAI2A"
        },
        "href" : "https://api.spotify.com/v1/albums/0hw4hbft3MyWAHdj5HAI2A",
        "id" : "0hw4hbft3MyWAHdj5HAI2A",
        "images" : [ {
          "height" : 640,
          "url" : "https://i.scdn.co/image/ab67616d0000b273bf309e0c0f05e2fcfc463dbc",
          "width" : 640
        }, {
          "height" : 300,
          "url" : "https://i.scdn.co/image/ab67616d00001e02bf309e0c0f05e2fcfc463dbc",
          "width" : 300
        }, {
          "height" : 64,
          "url" : "https://i.scdn.co/image/ab67616d00004851bf309e0c0f05e2fcfc463dbc",
          "width" : 64
        } ],
        "name" : "Heavenly Harp Christmas Carols",
        "release_date" : "2018-11-27",
        "release_date_precision" : "day",
        "total_tracks" : 15,
        "type" : "album",
        "uri" : "spotify:album:0hw4hbft3MyWAHdj5HAI2A"
      },
      "artists" : [ {
        "external_urls" : {
          "spotify" : "https://open.spotify.com/artist/7gjHSq6MQ3C2RNdlIkbYnG"
        },
        "href" : "https://api.spotify.com/v1/artists/7gjHSq6MQ3C2RNdlIkbYnG",
        "id" : "7gjHSq6MQ3C2RNdlIkbYnG",
        "name" : "Instrumental Christian Songs, Christian Piano Music",
        "type" : "artist",
        "uri" : "spotify:artist:7gjHSq6MQ3C2RNdlIkbYnG"
      }, {
        "external_urls" : {
          "spotify" : "https://open.spotify.com/artist/1uQeX1AaJ9dMJipUZsVeNc"
        },
        "href" : "https://api.spotify.com/v1/artists/1uQeX1AaJ9dMJipUZsVeNc",
        "id" : "1uQeX1AaJ9dMJipUZsVeNc",
        "name" : "Joyous Holiday Players",
        "type" : "artist",
        "uri" : "spotify:artist:1uQeX1AaJ9dMJipUZsVeNc"
      } ],
      "disc_number" : 1,
      "duration_ms" : 133511,
      "explicit" : false,
      "external_ids" : {
        "isrc" : "TCADZ1823064"
      },
      "external_urls" : {
        "spotify" : "https://open.spotify.com/track/2G911UhxrORZQtaARFjGJV"
      },
      "href" : "https://api.spotify.com/v1/tracks/2G911UhxrORZQtaARFjGJV",
      "id" : "2G911UhxrORZQtaARFjGJV",
      "is_local" : false,
      "is_playable" : true,
      "name" : "Of the Father's Love Begotten (Instrumental Version)",
      "popularity" : 6,
      "preview_url" : "https://p.scdn.co/mp3-preview/73bbd81771565c4c9e32885c4f8a73385d88c4a0?cid=774b29d4f13844c495f206cafdad9c86",
      "track_number" : 10,
      "type" : "track",
      "uri" : "spotify:track:2G911UhxrORZQtaARFjGJV"
    }, {
      "album" : {
        "album_type" : "single",
        "artists" : [ {
          "external_urls" : {
            "spotify" : "https://open.spotify.com/artist/5Y1jWJ5ZerUoW4hnXOwhwh"
          },
          "href" : "https://api.spotify.com/v1/artists/5Y1jWJ5ZerUoW4hnXOwhwh",
          "id" : "5Y1jWJ5ZerUoW4hnXOwhwh",
          "name" : "Matt Riley",
          "type" : "artist",
          "uri" : "spotify:artist:5Y1jWJ5ZerUoW4hnXOwhwh"
        } ],
        "external_urls" : {
          "spotify" : "https://open.spotify.com/album/4ZYL6W13nKmnuDYMVjggdi"
        },
        "href" : "https://api.spotify.com/v1/albums/4ZYL6W13nKmnuDYMVjggdi",
        "id" : "4ZYL6W13nKmnuDYMVjggdi",
        "images" : [ {
          "height" : 640,
          "url" : "https://i.scdn.co/image/ab67616d0000b2739fd561b0225883375e8e1e82",
          "width" : 640
        }, {
          "height" : 300,
          "url" : "https://i.scdn.co/image/ab67616d00001e029fd561b0225883375e8e1e82",
          "width" : 300
        }, {
          "height" : 64,
          "url" : "https://i.scdn.co/image/ab67616d000048519fd561b0225883375e8e1e82",
          "width" : 64
        } ],
        "name" : "Of the Father's Love Begotten (Live) [Violin & Pop Orchestra]",
        "release_date" : "2014-08-30",
        "release_date_precision" : "day",
        "total_tracks" : 1,
        "type" : "album",
        "uri" : "spotify:album:4ZYL6W13nKmnuDYMVjggdi"
      },
      "artists" : [ {
        "external_urls" : {
          "spotify" : "https://open.spotify.com/artist/5Y1jWJ5ZerUoW4hnXOwhwh"
        },
        "href" : "https://api.spotify.com/v1/artists/5Y1jWJ5ZerUoW4hnXOwhwh",
        "id" : "5Y1jWJ5ZerUoW4hnXOwhwh",
        "name" : "Matt Riley",
        "type" : "artist",
        "uri" : "spotify:artist:5Y1jWJ5ZerUoW4hnXOwhwh"
      } ],
      "disc_number" : 1,
      "duration_ms" : 215208,
      "explicit" : false,
      "external_ids" : {
        "isrc" : "ushm81481037"
      },
      "external_urls" : {
        "spotify" : "https://open.spotify.com/track/1ZVmivMeYsjIdfhy9mncTO"
      },
      "href" : "https://api.spotify.com/v1/tracks/1ZVmivMeYsjIdfhy9mncTO",
      "id" : "1ZVmivMeYsjIdfhy9mncTO",
      "is_local" : false,
      "is_playable" : true,
      "name" : "Of the Father's Love Begotten (Live) [Violin & Pop Orchestra]",
      "popularity" : 5,
      "preview_url" : "https://p.scdn.co/mp3-preview/bb41055f24c8f8ac457db0e532d12c3ade13e7a3?cid=774b29d4f13844c495f206cafdad9c86",
      "track_number" : 1,
      "type" : "track",
      "uri" : "spotify:track:1ZVmivMeYsjIdfhy9mncTO"
    } ],
    "limit" : 10,
    "next" : "https://api.spotify.com/v1/search?query=Of+the+Father%E2%80%99s+Love+Begotten&type=track&market=US&offset=15&limit=10",
    "offset" : 5,
    "previous" : "https://api.spotify.com/v1/search?query=Of+the+Father%E2%80%99s+Love+Begotten&type=track&market=US&offset=0&limit=10",
    "total" : 313
  }
}