{
  "tracks" : {
    "href" : "https://api.spotify.com/v1/search?query=I+Know+Whom+I+Have+Believed&type=track&market=US&offset=5&limit=10",
    "items" : [ {
      "album" : {
        "album_type" : "album",
        "artists" : [ {
          "external_urls" : {
            "spotify" : "https://open.spotify.com/artist/64wHpTaHeYzda4NY0EMVaS"
          },
          "href" : "https://api.spotify.com/v1/artists/64wHpTaHeYzda4NY0EMVaS",
          "id" : "64wHpTaHeYzda4NY0EMVaS",
          "name" : "The Weaver Family",
          "type" : "artist",
          "uri" : "spotify:artist:64wHpTaHeYzda4NY0EMVaS"
        } ],
        "external_urls" : {
          "spotify" : "https://open.spotify.com/album/39ELjCF7v5EY3Yq2fGzgB4"
        },
        "href" : "https://api.spotify.com/v1/albums/39ELjCF7v5EY3Yq2fGzgB4",
        "id" : "39ELjCF7v5EY3Yq2fGzgB4",
        "images" : [ {
          "height" : 640,
          "url" : "https://i.scdn.co/image/ab67616d0000b273bf77a8b3e5db57459c9a8330",
          "width" : 640
        }, {
          "height" : 300,
          "url" : "https://i.scdn.co/image/ab67616d00001e02bf77a8b3e5db57459c9a8330",
          "width" : 300
        }, {
          "height" : 64,
          "url" : "https://i.scdn.co/image/ab67616d00004851bf77a8b3e5db57459c9a8330",
          "width" : 64
        } ],
        "name" : "Mighty to Save",
        "release_date" : "2018-01-01",
        "release_date_precision" : "day",
        "total_tracks" : 13,
        "type" : "album",
        "uri" : "spotify:album:39ELjCF7v5EY3Yq2fGzgB4"
      },
      "artists" : [ {
        "external_urls" : {
          "spotify" : "https://open.spotify.com/artist/64wHpTaHeYzda4NY0EMVaS"
        },
        "href" : "https://api.spotify.com/v1/artists/64wHpTaHeYzda4NY0EMVaS",
        "id" : "64wHpTaHeYzda4NY0EMVaS",
        "name" : "The Weaver Family",
        "type" : "artist",
        "uri" : "spotify:artist:64wHpTaHeYzda4NY0EMVaS"
      } ],
      "disc_number" : 1,
      "duration_ms" : 163693,
      "explicit" : false,
      "external_ids" : {
        "isrc" : "uscgj1883978"
      },
      "external_urls" : {
        "spotify" : "https://open.spotify.com/track/18YRsMqS6EXBHO5lYDCWlA"
      },
      "href" : "https://api.spotify.com/v1/tracks/18YRsMqS6EXBHO5lYDCWlA",
      "id" : "18YRsMqS6EXBHO5lYDCWlA",
      "is_local" : false,
      "is_playable" : true,
      "name" : "I Know Whom I Have Believed",
      "popularity" : 8,
      "preview_url" : "https://p.scdn.co/mp3-preview/9eff11c3226b654bd72dfd663262d6388c8109a7?cid=774b29d4f13844c495f206cafdad9c86",
      "track_number" : 13,
      "type" : "track",
      "uri" : "spotify:track:18YRsMqS6EXBHO5lYDCWlA"
    }, {
      "album" : {
        "album_type" : "album",
        "artists" : [ {
          "external_urls" : {
            "spotify" : "https://open.spotify.com/artist/3wsFR5PQ9okL1W9irRkOMU"
          },
          "href" : "https://api.spotify.com/v1/artists/3wsFR5PQ9okL1W9irRkOMU",
          "id" : "3wsFR5PQ9okL1W9irRkOMU",
          "name" : "Redeemer Church of the Shoals",
          "type" : "artist",
          "uri" : "spotify:artist:3wsFR5PQ9okL1W9irRkOMU"
        } ],
        "external_urls" : {
          "spotify" : "https://open.spotify.com/album/5qwMo5Jvsm9gxpHrxfcD7u"
        },
        "href" : "https://api.spotify.com/v1/albums/5qwMo5Jvsm9gxpHrxfcD7u",
        "id" : "5qwMo5Jvsm9gxpHrxfcD7u",
        "images" : [ {
          "height" : 640,
          "url" : "https://i.scdn.co/image/ab67616d0000b273adfe5b3852d57356ff03e5c3",
          "width" : 640
        }, {
          "height" : 300,
          "url" : "https://i.scdn.co/image/ab67616d00001e02adfe5b3852d57356ff03e5c3",
          "width" : 300
        }, {
          "height" : 64,
          "url" : "https://i.scdn.co/image/ab67616d00004851adfe5b3852d57356ff03e5c3",
          "width" : 64
        } ],
        "name" : "My Song Through Endless Ages",
        "release_date" : "2013-03-30",
        "release_date_precision" : "day",
        "total_tracks" : 10,
        "type" : "album",
        "uri" : "spotify:album:5qwMo5Jvsm9gxpHrxfcD7u"
      },
      "artists" : [ {
        "external_urls" : {
          "spotify" : "https://open.spotify.com/artist/3wsFR5PQ9okL1W9irRkOMU"
        },
        "href" : "https://api.spotify.com/v1/artists/3wsFR5PQ9okL1W9irRkOMU",
        "id" : "3wsFR5PQ9okL1W9irRkOMU",
        "name" : "Redeemer Church of the Shoals",
        "type" : "artist",
        "uri" : "spotify:artist:3wsFR5PQ9okL1W9irRkOMU"
      } ],
      "disc_number" : 1,
      "duration_ms" : 285860,
      "explicit" : false,
      "external_ids" : {
        "isrc" : "QMHGF1300109"
      },
      "external_urls" : {
        "spotify" : "https://open.spotify.com/track/4F5DC3PDZ2sjaybcjYf23j"
      },
      "href" : "https://api.spotify.com/v1/tracks/4F5DC3PDZ2sjaybcjYf23j",
      "id" : "4F5DC3PDZ2sjaybcjYf23j",
      "is_local" : false,
      "is_playable" : true,
      "name" : "I Know Whom I Have Believed",
      "popularity" : 10,
      "preview_url" : "https://p.scdn.co/mp3-preview/572355033094ae7908a4a874cd94bc3e44338d4b?cid=774b29d4f13844c495f206cafdad9c86",
      "track_number" : 9,
      "type" : "track",
      "uri" : "spotify:track:4F5DC3PDZ2sjaybcjYf23j"
    }, {
      "album" : {
        "album_type" : "album",
        "artists" : [ {
          "external_urls" : {
            "spotify" : "https://open.spotify.com/artist/3dBDFDpmwhATSAEB1AiNOG"
          },
          "href" : "https://api.spotify.com/v1/artists/3dBDFDpmwhATSAEB1AiNOG",
          "id" : "3dBDFDpmwhATSAEB1AiNOG",
          "name" : "The Bluegrass Gospel Group",
          "type" : "artist",
          "uri" : "spotify:artist:3dBDFDpmwhATSAEB1AiNOG"
        } ],
        "external_urls" : {
          "spotify" : "https://open.spotify.com/album/7lNn2Z2VMeVga9HF4JKcvL"
        },
        "href" : "https://api.spotify.com/v1/albums/7lNn2Z2VMeVga9HF4JKcvL",
        "id" : "7lNn2Z2VMeVga9HF4JKcvL",
        "images" : [ {
          "height" : 640,
          "url" : "https://i.scdn.co/image/ab67616d0000b2737b0f0c6bf5fc752c618f19d3",
          "width" : 640
        }, {
          "height" : 300,
          "url" : "https://i.scdn.co/image/ab67616d00001e027b0f0c6bf5fc752c618f19d3",
          "width" : 300
        }, {
          "height" : 64,
          "url" : "https://i.scdn.co/image/ab67616d000048517b0f0c6bf5fc752c618f19d3",
          "width" : 64
        } ],
        "name" : "The Beauty Of Bluegrass: 40 Songs of Faith",
        "release_date" : "2018-08-10",
        "release_date_precision" : "day",
        "total_tracks" : 40,
        "type" : "album",
        "uri" : "spotify:album:7lNn2Z2VMeVga9HF4JKcvL"
      },
      "artists" : [ {
        "external_urls" : {
          "spotify" : "https://open.spotify.com/artist/3dBDFDpmwhATSAEB1AiNOG"
        },
        "href" : "https://api.spotify.com/v1/artists/3dBDFDpmwhATSAEB1AiNOG",
        "id" : "3dBDFDpmwhATSAEB1AiNOG",
        "name" : "The Bluegrass Gospel Group",
        "type" : "artist",
        "uri" : "spotify:artist:3dBDFDpmwhATSAEB1AiNOG"
      } ],
      "disc_number" : 1,
      "duration_ms" : 105952,
      "explicit" : false,
      "external_ids" : {
        "isrc" : "CAM460440473"
      },
      "external_urls" : {
        "spotify" : "https://open.spotify.com/track/390OFMtOPD79ivORn1GUgr"
      },
      "href" : "https://api.spotify.com/v1/tracks/390OFMtOPD79ivORn1GUgr",
      "id" : "390OFMtOPD79ivORn1GUgr",
      "is_local" : false,
      "is_playable" : true,
      "name" : "I Know Whom I Have Believed",
      "popularity" : 7,
      "preview_url" : "https://p.scdn.co/mp3-preview/67a63279d43e5ef8fc71c58e40640d9f3c315a61?cid=774b29d4f13844c495f206cafdad9c86",
      "track_number" : 24,
      "type" : "track",
      "uri" : "spotify:track:390OFMtOPD79ivORn1GUgr"
    }, {
      "album" : {
        "album_type" : "album",
        "artists" : [ {
          "external_urls" : {
            "spotify" : "https://open.spotify.com/artist/6sN1asC2wUO6gDNLfA4T00"
          },
          "href" : "https://api.spotify.com/v1/artists/6sN1asC2wUO6gDNLfA4T00",
          "id" : "6sN1asC2wUO6gDNLfA4T00",
          "name" : "Out Of Eden",
          "type" : "artist",
          "uri" : "spotify:artist:6sN1asC2wUO6gDNLfA4T00"
        } ],
        "external_urls" : {
          "spotify" : "https://open.spotify.com/album/3K4kTndcwPgE6biOvgD0T1"
        },
        "href" : "https://api.spotify.com/v1/albums/3K4kTndcwPgE6biOvgD0T1",
        "id" : "3K4kTndcwPgE6biOvgD0T1",
        "images" : [ {
          "height" : 640,
          "url" : "https://i.scdn.co/image/ab67616d0000b273b6395be4c7c8aa50428b7201",
          "width" : 640
        }, {
          "height" : 300,
          "url" : "https://i.scdn.co/image/ab67616d00001e02b6395be4c7c8aa50428b7201",
          "width" : 300
        }, {
          "height" : 64,
          "url" : "https://i.scdn.co/image/ab67616d00004851b6395be4c7c8aa50428b7201",
          "width" : 64
        } ],
        "name" : "Hymns",
        "release_date" : "2005-03-29",
        "release_date_precision" : "day",
        "total_tracks" : 13,
        "type" : "album",
        "uri" : "spotify:album:3K4kTndcwPgE6biOvgD0T1"
      },
      "artists" : [ {
        "external_urls" : {
          "spotify" : "https://open.spotify.com/artist/6sN1asC2wUO6gDNLfA4T00"
        },
        "href" : "https://api.spotify.com/v1/artists/6sN1asC2wUO6gDNLfA4T00",
        "id" : "6sN1asC2wUO6gDNLfA4T00",
        "name" : "Out Of Eden",
        "type" : "artist",
        "uri" : "spotify:artist:6sN1asC2wUO6gDNLfA4T00"
      } ],
      "disc_number" : 1,
      "duration_ms" : 250400,
      "explicit" : false,
      "external_ids" : {
        "isrc" : "USGOT0408104"
      },
      "external_urls" : {
        "spotify" : "https://open.spotify.com/track/7uiT5nmfyvumfZPFbU3eW9"
      },
      "href" : "https://api.spotify.com/v1/tracks/7uiT5nmfyvumfZPFbU3eW9",
      "id" : "7uiT5nmfyvumfZPFbU3eW9",
      "is_local" : false,
      "is_playable" : true,
      "name" : "I Know Whom I Have Believed",
      "popularity" : 7,
      "preview_url" : "https://p.scdn.co/mp3-preview/2220709cfb840ba91a8442880c9c390ffde90f35?cid=774b29d4f13844c495f206cafdad9c86",
      "track_number" : 3,
      "type" : "track",
      "uri" : "spotify:track:7uiT5nmfyvumfZPFbU3eW9"
    }, {
      "album" : {
        "album_type" : "single",
        "artists" : [ {
          "external_urls" : {
            "spotify" : "https://open.spotify.com/artist/20z0jiovxcVxxmfsmB1RgX"
          },
          "href" : "https://api.spotify.com/v1/artists/20z0jiovxcVxxmfsmB1RgX",
          "id" : "20z0jiovxcVxxmfsmB1RgX",
          "name" : "Meteoric Stream",
          "type" : "artist",
          "uri" : "spotify:artist:20z0jiovxcVxxmfsmB1RgX"
        } ],
        "external_urls" : {
          "spotify" : "https://open.spotify.com/album/4uVRJTtC3zCMy9NYMEVALF"
        },
        "href" : "https://api.spotify.com/v1/albums/4uVRJTtC3zCMy9NYMEVALF",
        "id" : "4uVRJTtC3zCMy9NYMEVALF",
        "images" : [ {
          "height" : 640,
          "url" : "https://i.scdn.co/image/ab67616d0000b27311fdd0bb4cd6c0dce1d12530",
          "width" : 640
        }, {
          "height" : 300,
          "url" : "https://i.scdn.co/image/ab67616d00001e0211fdd0bb4cd6c0dce1d12530",
          "width" : 300
        }, {
          "height" : 64,
          "url" : "https://i.scdn.co/image/ab67616d0000485111fdd0bb4cd6c0dce1d12530",
          "width" : 64
        } ],
        "name" : "I Know Whom I Have Believed - Hymn Piano Instrumental",
        "release_date" : "2014-05-29",
        "release_date_precision" : "day",
        "total_tracks" : 1,
        "type" : "album",
        "uri" : "spotify:album:4uVRJTtC3zCMy9NYMEVALF"
      },
      "artists" : [ {
        "external_urls" : {
          "spotify" : "https://open.spotify.com/artist/20z0jiovxcVxxmfsmB1RgX"
        },
        "href" : "https://api.spotify.com/v1/artists/20z0jiovxcVxxmfsmB1RgX",
        "id" : "20z0jiovxcVxxmfsmB1RgX",
        "name" : "Meteoric Stream",
        "type" : "artist",
        "uri" : "spotify:artist:20z0jiovxcVxxmfsmB1RgX"
      } ],
      "disc_number" : 1,
      "duration_ms" : 266292,
      "explicit" : false,
      "external_ids" : {
        "isrc" : "QMPKX1439180"
      },
      "external_urls" : {
        "spotify" : "https://open.spotify.com/track/1YXC64D3UTRiMGLmge31md"
      },
      "href" : "https://api.spotify.com/v1/tracks/1YXC64D3UTRiMGLmge31md",
      "id" : "1YXC64D3UTRiMGLmge31md",
      "is_local" : false,
      "is_playable" : true,
      "name" : "I Know Whom I Have Believed - Hymn Piano Instrumental",
      "popularity" : 13,
      "preview_url" : "https://p.scdn.co/mp3-preview/624ee487092c9a9eaf1fc13946004ff0d6cd891a?cid=774b29d4f13844c495f206cafdad9c86",
      "track_number" : 1,
      "type" : "track",
      "uri" : "spotify:track:1YXC64D3UTRiMGLmge31md"
    }, {
      "album" : {
        "album_type" : "album",
        "artists" : [ {
          "external_urls" : {
            "spotify" : "https://open.spotify.com/artist/18gbwbHc2d3A4l66Mqhg62"
          },
          "href" : "https://api.spotify.com/v1/artists/18gbwbHc2d3A4l66Mqhg62",
          "id" : "18gbwbHc2d3A4l66Mqhg62",
          "name" : "Jami Smith",
          "type" : "artist",
          "uri" : "spotify:artist:18gbwbHc2d3A4l66Mqhg62"
        } ],
        "external_urls" : {
          "spotify" : "https://open.spotify.com/album/571YAbkhFw6VGw4dTONbE5"
        },
        "href" : "https://api.spotify.com/v1/albums/571YAbkhFw6VGw4dTONbE5",
        "id" : "571YAbkhFw6VGw4dTONbE5",
        "images" : [ {
          "height" : 640,
          "url" : "https://i.scdn.co/image/ab67616d0000b2737d658f4596cb770553e61714",
          "width" : 640
        }, {
          "height" : 300,
          "url" : "https://i.scdn.co/image/ab67616d00001e027d658f4596cb770553e61714",
          "width" : 300
        }, {
          "height" : 64,
          "url" : "https://i.scdn.co/image/ab67616d000048517d658f4596cb770553e61714",
          "width" : 64
        } ],
        "name" : "Americana Hymns, Vol. 1",
        "release_date" : "2013-11-25",
        "release_date_precision" : "day",
        "total_tracks" : 14,
        "type" : "album",
        "uri" : "spotify:album:571YAbkhFw6VGw4dTONbE5"
      },
      "artists" : [ {
        "external_urls" : {
          "spotify" : "https://open.spotify.com/artist/18gbwbHc2d3A4l66Mqhg62"
        },
        "href" : "https://api.spotify.com/v1/artists/18gbwbHc2d3A4l66Mqhg62",
        "id" : "18gbwbHc2d3A4l66Mqhg62",
        "name" : "Jami Smith",
        "type" : "artist",
        "uri" : "spotify:artist:18gbwbHc2d3A4l66Mqhg62"
      } ],
      "disc_number" : 1,
      "duration_ms" : 222773,
      "explicit" : false,
      "external_ids" : {
        "isrc" : "QMDJF1300049"
      },
      "external_urls" : {
        "spotify" : "https://open.spotify.com/track/6OlRJn1fKaLXVX9zeDgPII"
      },
      "href" : "https://api.spotify.com/v1/tracks/6OlRJn1fKaLXVX9zeDgPII",
      "id" : "6OlRJn1fKaLXVX9zeDgPII",
      "is_local" : false,
      "is_playable" : true,
      "name" : "I Know Whom I Have Believed",
      "popularity" : 6,
      "preview_url" : "https://p.scdn.co/mp3-preview/2eb3b8ca7c2cb3dbf6ec702a4456ff2f87264a68?cid=774b29d4f13844c495f206cafdad9c86",
      "track_number" : 6,
      "type" : "track",
      "uri" : "spotify:track:6OlRJn1fKaLXVX9zeDgPII"
    }, {
      "album" : {
        "album_type" : "album",
        "artists" : [ {
          "external_urls" : {
            "spotify" : "https://open.spotify.com/artist/2XwmERN9muiq3x8zp2ffAH"
          },
          "href" : "https://api.spotify.com/v1/artists/2XwmERN9muiq3x8zp2ffAH",
          "id" : "2XwmERN9muiq3x8zp2ffAH",
          "name" : "Blackwood Brothers Quartet",
          "type" : "artist",
          "uri" : "spotify:artist:2XwmERN9muiq3x8zp2ffAH"
        } ],
        "external_urls" : {
          "spotify" : "https://open.spotify.com/album/6vPk10tx1o4cy6HVikmTqX"
        },
        "href" : "https://api.spotify.com/v1/albums/6vPk10tx1o4cy6HVikmTqX",
        "id" : "6vPk10tx1o4cy6HVikmTqX",
        "images" : [ {
          "height" : 640,
          "url" : "https://i.scdn.co/image/ab67616d0000b27339c78ea663e9dfe073539274",
          "width" : 640
        }, {
          "height" : 300,
          "url" : "https://i.scdn.co/image/ab67616d00001e0239c78ea663e9dfe073539274",
          "width" : 300
        }, {
          "height" : 64,
          "url" : "https://i.scdn.co/image/ab67616d0000485139c78ea663e9dfe073539274",
          "width" : 64
        } ],
        "name" : "Forever: 80th Anniversary Recording",
        "release_date" : "2014-11-18",
        "release_date_precision" : "day",
        "total_tracks" : 10,
        "type" : "album",
        "uri" : "spotify:album:6vPk10tx1o4cy6HVikmTqX"
      },
      "artists" : [ {
        "external_urls" : {
          "spotify" : "https://open.spotify.com/artist/2XwmERN9muiq3x8zp2ffAH"
        },
        "href" : "https://api.spotify.com/v1/artists/2XwmERN9muiq3x8zp2ffAH",
        "id" : "2XwmERN9muiq3x8zp2ffAH",
        "name" : "Blackwood Brothers Quartet",
        "type" : "artist",
        "uri" : "spotify:artist:2XwmERN9muiq3x8zp2ffAH"
      } ],
      "disc_number" : 1,
      "duration_ms" : 311066,
      "explicit" : false,
      "external_ids" : {
        "isrc" : "US3U81400145"
      },
      "external_urls" : {
        "spotify" : "https://open.spotify.com/track/78UwEmZ2FcFuYT1d6Rih4o"
      },
      "href" : "https://api.spotify.com/v1/tracks/78UwEmZ2FcFuYT1d6Rih4o",
      "id" : "78UwEmZ2FcFuYT1d6Rih4o",
      "is_local" : false,
      "is_playable" : true,
      "name" : "I Know in Whom I Have Believed",
      "popularity" : 6,
      "preview_url" : "https://p.scdn.co/mp3-preview/672f7eccd731e500b5ed59381bc9108328d3cce3?cid=774b29d4f13844c495f206cafdad9c86",
      "track_number" : 8,
      "type" : "track",
      "uri" : "spotify:track:78UwEmZ2FcFuYT1d6Rih4o"
    }, {
      "album" : {
        "album_type" : "album",
        "artists" : [ {
          "external_urls" : {
            "spotify" : "https://open.spotify.com/artist/45c12EQeH4ORrkM9tvdNMI"
          },
          "href" : "https://api.spotify.com/v1/artists/45c12EQeH4ORrkM9tvdNMI",
          "id" : "45c12EQeH4ORrkM9tvdNMI",
          "name" : "3 Heath Brothers",
          "type" : "artist",
          "uri" : "spotify:artist:45c12EQeH4ORrkM9tvdNMI"
        } ],
        "external_urls" : {
          "spotify" : "https://open.spotify.com/album/0P9hcZjVUIfliUDQ2QAd5e"
        },
        "href" : "https://api.spotify.com/v1/albums/0P9hcZjVUIfliUDQ2QAd5e",
        "id" : "0P9hcZjVUIfliUDQ2QAd5e",
        "images" : [ {
          "height" : 640,
          "url" : "https://i.scdn.co/image/ab67616d0000b273b748f0d67f192cdbfeb8dc0e",
          "width" : 640
        }, {
          "height" : 300,
          "url" : "https://i.scdn.co/image/ab67616d00001e02b748f0d67f192cdbfeb8dc0e",
          "width" : 300
        }, {
          "height" : 64,
          "url" : "https://i.scdn.co/image/ab67616d00004851b748f0d67f192cdbfeb8dc0e",
          "width" : 64
        } ],
        "name" : "Everywhere I Go",
        "release_date" : "2018-02-01",
        "release_date_precision" : "day",
        "total_tracks" : 13,
        "type" : "album",
        "uri" : "spotify:album:0P9hcZjVUIfliUDQ2QAd5e"
      },
      "artists" : [ {
        "external_urls" : {
          "spotify" : "https://open.spotify.com/artist/45c12EQeH4ORrkM9tvdNMI"
        },
        "href" : "https://api.spotify.com/v1/artists/45c12EQeH4ORrkM9tvdNMI",
        "id" : "45c12EQeH4ORrkM9tvdNMI",
        "name" : "3 Heath Brothers",
        "type" : "artist",
        "uri" : "spotify:artist:45c12EQeH4ORrkM9tvdNMI"
      } ],
      "disc_number" : 1,
      "duration_ms" : 191640,
      "explicit" : false,
      "external_ids" : {
        "isrc" : "usdy41822022"
      },
      "external_urls" : {
        "spotify" : "https://open.spotify.com/track/7n8Tua17k8AH4hRUS2qgh0"
      },
      "href" : "https://api.spotify.com/v1/tracks/7n8Tua17k8AH4hRUS2qgh0",
      "id" : "7n8Tua17k8AH4hRUS2qgh0",
      "is_local" : false,
      "is_playable" : true,
      "name" : "For I Know Whom I Have Believed",
      "popularity" : 5,
      "preview_url" : "https://p.scdn.co/mp3-preview/11ef8c68676695f9d19bd8bcc95c3db64fc4441d?cid=774b29d4f13844c495f206cafdad9c86",
      "track_number" : 4,
      "type" : "track",
      "uri" : "spotify:track:7n8Tua17k8AH4hRUS2qgh0"
    }, {
      "album" : {
        "album_type" : "album",
        "artists" : [ {
          "external_urls" : {
            "spotify" : "https://open.spotify.com/artist/3jiQ4t07tyKTNkbp25Znjn"
          },
          "href" : "https://api.spotify.com/v1/artists/3jiQ4t07tyKTNkbp25Znjn",
          "id" : "3jiQ4t07tyKTNkbp25Znjn",
          "name" : "The Joslin Grove Choral Society",
          "type" : "artist",
          "uri" : "spotify:artist:3jiQ4t07tyKTNkbp25Znjn"
        } ],
        "external_urls" : {
          "spotify" : "https://open.spotify.com/album/7j1AaKfh2sphhvXoEichP3"
        },
        "href" : "https://api.spotify.com/v1/albums/7j1AaKfh2sphhvXoEichP3",
        "id" : "7j1AaKfh2sphhvXoEichP3",
        "images" : [ {
          "height" : 640,
          "url" : "https://i.scdn.co/image/ab67616d0000b27326c794206fa4871528a213e2",
          "width" : 640
        }, {
          "height" : 300,
          "url" : "https://i.scdn.co/image/ab67616d00001e0226c794206fa4871528a213e2",
          "width" : 300
        }, {
          "height" : 64,
          "url" : "https://i.scdn.co/image/ab67616d0000485126c794206fa4871528a213e2",
          "width" : 64
        } ],
        "name" : "Favorite Hymns",
        "release_date" : "2013-07-30",
        "release_date_precision" : "day",
        "total_tracks" : 20,
        "type" : "album",
        "uri" : "spotify:album:7j1AaKfh2sphhvXoEichP3"
      },
      "artists" : [ {
        "external_urls" : {
          "spotify" : "https://open.spotify.com/artist/3jiQ4t07tyKTNkbp25Znjn"
        },
        "href" : "https://api.spotify.com/v1/artists/3jiQ4t07tyKTNkbp25Znjn",
        "id" : "3jiQ4t07tyKTNkbp25Znjn",
        "name" : "The Joslin Grove Choral Society",
        "type" : "artist",
        "uri" : "spotify:artist:3jiQ4t07tyKTNkbp25Znjn"
      } ],
      "disc_number" : 1,
      "duration_ms" : 119493,
      "explicit" : false,
      "external_ids" : {
        "isrc" : "CAM460601740"
      },
      "external_urls" : {
        "spotify" : "https://open.spotify.com/track/20pptisDmpxi8QSDpSqBop"
      },
      "href" : "https://api.spotify.com/v1/tracks/20pptisDmpxi8QSDpSqBop",
      "id" : "20pptisDmpxi8QSDpSqBop",
      "is_local" : false,
      "is_playable" : true,
      "name" : "I Know Whom I Have Believed",
      "popularity" : 6,
      "preview_url" : "https://p.scdn.co/mp3-preview/af03f40e5ffe4262d7907b9b5c74ca51706421bb?cid=774b29d4f13844c495f206cafdad9c86",
      "track_number" : 9,
      "type" : "track",
      "uri" : "spotify:track:20pptisDmpxi8QSDpSqBop"
    }, {
      "album" : {
        "album_type" : "album",
        "artists" : [ {
          "external_urls" : {
            "spotify" : "https://open.spotify.com/artist/4HBiRX8Ok4gM6SwksbtyQz"
          },
          "href" : "https://api.spotify.com/v1/artists/4HBiRX8Ok4gM6SwksbtyQz",
          "id" : "4HBiRX8Ok4gM6SwksbtyQz",
          "name" : "Herbster Trio",
          "type" : "artist",
          "uri" : "spotify:artist:4HBiRX8Ok4gM6SwksbtyQz"
        } ],
        "external_urls" : {
          "spotify" : "https://open.spotify.com/album/4OFlz2g8eGEsVqitqkPY8B"
        },
        "href" : "https://api.spotify.com/v1/albums/4OFlz2g8eGEsVqitqkPY8B",
        "id" : "4OFlz2g8eGEsVqitqkPY8B",
        "images" : [ {
          "height" : 640,
          "url" : "https://i.scdn.co/image/ab67616d0000b2739c7aaf71141f175355b35ed0",
          "width" : 640
        }, {
          "height" : 300,
          "url" : "https://i.scdn.co/image/ab67616d00001e029c7aaf71141f175355b35ed0",
          "width" : 300
        }, {
          "height" : 64,
          "url" : "https://i.scdn.co/image/ab67616d000048519c7aaf71141f175355b35ed0",
          "width" : 64
        } ],
        "name" : "Hymns of Grateful Praise",
        "release_date" : "2013-02-24",
        "release_date_precision" : "day",
        "total_tracks" : 18,
        "type" : "album",
        "uri" : "spotify:album:4OFlz2g8eGEsVqitqkPY8B"
      },
      "artists" : [ {
        "external_urls" : {
          "spotify" : "https://open.spotify.com/artist/4HBiRX8Ok4gM6SwksbtyQz"
        },
        "href" : "https://api.spotify.com/v1/artists/4HBiRX8Ok4gM6SwksbtyQz",
        "id" : "4HBiRX8Ok4gM6SwksbtyQz",
        "name" : "Herbster Trio",
        "type" : "artist",
        "uri" : "spotify:artist:4HBiRX8Ok4gM6SwksbtyQz"
      } ],
      "disc_number" : 1,
      "duration_ms" : 231560,
      "explicit" : false,
      "external_ids" : {
        "isrc" : "TCABM1342448"
      },
      "external_urls" : {
        "spotify" : "https://open.spotify.com/track/34yD3WWTFljVuiLmB2crAH"
      },
      "href" : "https://api.spotify.com/v1/tracks/34yD3WWTFljVuiLmB2crAH",
      "id" : "34yD3WWTFljVuiLmB2crAH",
      "is_local" : false,
      "is_playable" : true,
      "name" : "I Know in Whom I Have Believed",
      "popularity" : 4,
      "preview_url" : "https://p.scdn.co/mp3-preview/848fefa6915eaf8fc2c7a07a3ba0cc646a50e8ff?cid=774b29d4f13844c495f206cafdad9c86",
      "track_number" : 3,
      "type" : "track",
      "uri" : "spotify:track:34yD3WWTFljVuiLmB2crAH"
    } ],
    "limit" : 10,
    "next" : "https://api.spotify.com/v1/search?query=I+Know+Whom+I+Have+Believed&type=track&market=US&offset=15&limit=10",
    "offset" : 5,
    "previous" : "https://api.spotify.com/v1/search?query=I+Know+Whom+I+Have+Believed&type=track&market=US&offset=0&limit=10",
    "total" : 150
  }
}