{
  "tracks" : {
    "href" : "https://api.spotify.com/v1/search?query=We+Plow+the+Fields&type=track&market=US&offset=5&limit=10",
    "items" : [ {
      "album" : {
        "album_type" : "album",
        "artists" : [ {
          "external_urls" : {
            "spotify" : "https://open.spotify.com/artist/1IEICAjQ2utMbLHi7zoc5f"
          },
          "href" : "https://api.spotify.com/v1/artists/1IEICAjQ2utMbLHi7zoc5f",
          "id" : "1IEICAjQ2utMbLHi7zoc5f",
          "name" : "John Stewart",
          "type" : "artist",
          "uri" : "spotify:artist:1IEICAjQ2utMbLHi7zoc5f"
        } ],
        "external_urls" : {
          "spotify" : "https://open.spotify.com/album/0COE6mLqys9kLZwqWQlcuK"
        },
        "href" : "https://api.spotify.com/v1/albums/0COE6mLqys9kLZwqWQlcuK",
        "id" : "0COE6mLqys9kLZwqWQlcuK",
        "images" : [ {
          "height" : 640,
          "url" : "https://i.scdn.co/image/ab67616d0000b2732ba3a6bfde9cce719162a1ef",
          "width" : 640
        }, {
          "height" : 300,
          "url" : "https://i.scdn.co/image/ab67616d00001e022ba3a6bfde9cce719162a1ef",
          "width" : 300
        }, {
          "height" : 64,
          "url" : "https://i.scdn.co/image/ab67616d000048512ba3a6bfde9cce719162a1ef",
          "width" : 64
        } ],
        "name" : "Songs for the Home Zion, Vol. 1",
        "release_date" : "2015-06-01",
        "release_date_precision" : "day",
        "total_tracks" : 13,
        "type" : "album",
        "uri" : "spotify:album:0COE6mLqys9kLZwqWQlcuK"
      },
      "artists" : [ {
        "external_urls" : {
          "spotify" : "https://open.spotify.com/artist/1IEICAjQ2utMbLHi7zoc5f"
        },
        "href" : "https://api.spotify.com/v1/artists/1IEICAjQ2utMbLHi7zoc5f",
        "id" : "1IEICAjQ2utMbLHi7zoc5f",
        "name" : "John Stewart",
        "type" : "artist",
        "uri" : "spotify:artist:1IEICAjQ2utMbLHi7zoc5f"
      } ],
      "disc_number" : 1,
      "duration_ms" : 161080,
      "explicit" : false,
      "external_ids" : {
        "isrc" : "usdy41890596"
      },
      "external_urls" : {
        "spotify" : "https://open.spotify.com/track/6xIYE083p5RQWrc0xDQGBh"
      },
      "href" : "https://api.spotify.com/v1/tracks/6xIYE083p5RQWrc0xDQGBh",
      "id" : "6xIYE083p5RQWrc0xDQGBh",
      "is_local" : false,
      "is_playable" : true,
      "name" : "We Plow the Fields",
      "popularity" : 2,
      "preview_url" : "https://p.scdn.co/mp3-preview/9f29353465d44c27f89d073bab3f70a212ba2ee4?cid=774b29d4f13844c495f206cafdad9c86",
      "track_number" : 13,
      "type" : "track",
      "uri" : "spotify:track:6xIYE083p5RQWrc0xDQGBh"
    }, {
      "album" : {
        "album_type" : "album",
        "artists" : [ {
          "external_urls" : {
            "spotify" : "https://open.spotify.com/artist/4hdd6WRlN1EcACmO8ft0HZ"
          },
          "href" : "https://api.spotify.com/v1/artists/4hdd6WRlN1EcACmO8ft0HZ",
          "id" : "4hdd6WRlN1EcACmO8ft0HZ",
          "name" : "Ralph Carmichael",
          "type" : "artist",
          "uri" : "spotify:artist:4hdd6WRlN1EcACmO8ft0HZ"
        } ],
        "external_urls" : {
          "spotify" : "https://open.spotify.com/album/11qm3Cbbb1P2V90JMQWLsN"
        },
        "href" : "https://api.spotify.com/v1/albums/11qm3Cbbb1P2V90JMQWLsN",
        "id" : "11qm3Cbbb1P2V90JMQWLsN",
        "images" : [ {
          "height" : 640,
          "url" : "https://i.scdn.co/image/ab67616d0000b273491485ae0888bc62088b4914",
          "width" : 640
        }, {
          "height" : 300,
          "url" : "https://i.scdn.co/image/ab67616d00001e02491485ae0888bc62088b4914",
          "width" : 300
        }, {
          "height" : 64,
          "url" : "https://i.scdn.co/image/ab67616d00004851491485ae0888bc62088b4914",
          "width" : 64
        } ],
        "name" : "Ahh Capella Hymns",
        "release_date" : "2008-02-19",
        "release_date_precision" : "day",
        "total_tracks" : 10,
        "type" : "album",
        "uri" : "spotify:album:11qm3Cbbb1P2V90JMQWLsN"
      },
      "artists" : [ {
        "external_urls" : {
          "spotify" : "https://open.spotify.com/artist/4hdd6WRlN1EcACmO8ft0HZ"
        },
        "href" : "https://api.spotify.com/v1/artists/4hdd6WRlN1EcACmO8ft0HZ",
        "id" : "4hdd6WRlN1EcACmO8ft0HZ",
        "name" : "Ralph Carmichael",
        "type" : "artist",
        "uri" : "spotify:artist:4hdd6WRlN1EcACmO8ft0HZ"
      } ],
      "disc_number" : 1,
      "duration_ms" : 193573,
      "explicit" : false,
      "external_ids" : {
        "isrc" : "US2CS0800061"
      },
      "external_urls" : {
        "spotify" : "https://open.spotify.com/track/0755IDhjBcZ6iXDBXFCKeb"
      },
      "href" : "https://api.spotify.com/v1/tracks/0755IDhjBcZ6iXDBXFCKeb",
      "id" : "0755IDhjBcZ6iXDBXFCKeb",
      "is_local" : false,
      "is_playable" : true,
      "name" : "We Plow the Fields",
      "popularity" : 1,
      "preview_url" : "https://p.scdn.co/mp3-preview/49d14a9b629b6d590dbaf9eedc3ae5abb46fcb54?cid=774b29d4f13844c495f206cafdad9c86",
      "track_number" : 3,
      "type" : "track",
      "uri" : "spotify:track:0755IDhjBcZ6iXDBXFCKeb"
    }, {
      "album" : {
        "album_type" : "album",
        "artists" : [ {
          "external_urls" : {
            "spotify" : "https://open.spotify.com/artist/3qNSsKNzzgoxfmBBwAIHUy"
          },
          "href" : "https://api.spotify.com/v1/artists/3qNSsKNzzgoxfmBBwAIHUy",
          "id" : "3qNSsKNzzgoxfmBBwAIHUy",
          "name" : "Lana Kim",
          "type" : "artist",
          "uri" : "spotify:artist:3qNSsKNzzgoxfmBBwAIHUy"
        } ],
        "external_urls" : {
          "spotify" : "https://open.spotify.com/album/1dSMnA1NKsi5tUcgucFEXe"
        },
        "href" : "https://api.spotify.com/v1/albums/1dSMnA1NKsi5tUcgucFEXe",
        "id" : "1dSMnA1NKsi5tUcgucFEXe",
        "images" : [ {
          "height" : 640,
          "url" : "https://i.scdn.co/image/ab67616d0000b2734fff1d0a3ffa2f454bcdaa2f",
          "width" : 640
        }, {
          "height" : 300,
          "url" : "https://i.scdn.co/image/ab67616d00001e024fff1d0a3ffa2f454bcdaa2f",
          "width" : 300
        }, {
          "height" : 64,
          "url" : "https://i.scdn.co/image/ab67616d000048514fff1d0a3ffa2f454bcdaa2f",
          "width" : 64
        } ],
        "name" : "All Christian Hymns - Vol. 8",
        "release_date" : "2011-02-20",
        "release_date_precision" : "day",
        "total_tracks" : 40,
        "type" : "album",
        "uri" : "spotify:album:1dSMnA1NKsi5tUcgucFEXe"
      },
      "artists" : [ {
        "external_urls" : {
          "spotify" : "https://open.spotify.com/artist/3qNSsKNzzgoxfmBBwAIHUy"
        },
        "href" : "https://api.spotify.com/v1/artists/3qNSsKNzzgoxfmBBwAIHUy",
        "id" : "3qNSsKNzzgoxfmBBwAIHUy",
        "name" : "Lana Kim",
        "type" : "artist",
        "uri" : "spotify:artist:3qNSsKNzzgoxfmBBwAIHUy"
      } ],
      "disc_number" : 1,
      "duration_ms" : 77531,
      "explicit" : false,
      "external_ids" : {
        "isrc" : "USJ3V1085536"
      },
      "external_urls" : {
        "spotify" : "https://open.spotify.com/track/5iMdkZj1LQdUZuIeU0syTB"
      },
      "href" : "https://api.spotify.com/v1/tracks/5iMdkZj1LQdUZuIeU0syTB",
      "id" : "5iMdkZj1LQdUZuIeU0syTB",
      "is_local" : false,
      "is_playable" : true,
      "name" : "310 Wee Plow The Fields",
      "popularity" : 0,
      "preview_url" : "https://p.scdn.co/mp3-preview/a6e23c3456861394ca2343f0fb04b51c6915579d?cid=774b29d4f13844c495f206cafdad9c86",
      "track_number" : 35,
      "type" : "track",
      "uri" : "spotify:track:5iMdkZj1LQdUZuIeU0syTB"
    }, {
      "album" : {
        "album_type" : "album",
        "artists" : [ {
          "external_urls" : {
            "spotify" : "https://open.spotify.com/artist/5oTQhQkSBzwWKoJpZ9tZrB"
          },
          "href" : "https://api.spotify.com/v1/artists/5oTQhQkSBzwWKoJpZ9tZrB",
          "id" : "5oTQhQkSBzwWKoJpZ9tZrB",
          "name" : "Seoul Chamber Singers",
          "type" : "artist",
          "uri" : "spotify:artist:5oTQhQkSBzwWKoJpZ9tZrB"
        }, {
          "external_urls" : {
            "spotify" : "https://open.spotify.com/artist/01qd5GUm9ggFodZgZw0Iij"
          },
          "href" : "https://api.spotify.com/v1/artists/01qd5GUm9ggFodZgZw0Iij",
          "id" : "01qd5GUm9ggFodZgZw0Iij",
          "name" : "Jubilate praise singers",
          "type" : "artist",
          "uri" : "spotify:artist:01qd5GUm9ggFodZgZw0Iij"
        } ],
        "external_urls" : {
          "spotify" : "https://open.spotify.com/album/1NkEMGZYEmjSzpGk4WZUus"
        },
        "href" : "https://api.spotify.com/v1/albums/1NkEMGZYEmjSzpGk4WZUus",
        "id" : "1NkEMGZYEmjSzpGk4WZUus",
        "images" : [ {
          "height" : 640,
          "url" : "https://i.scdn.co/image/ab67616d0000b273e26429334e04c642d2ea66d6",
          "width" : 640
        }, {
          "height" : 300,
          "url" : "https://i.scdn.co/image/ab67616d00001e02e26429334e04c642d2ea66d6",
          "width" : 300
        }, {
          "height" : 64,
          "url" : "https://i.scdn.co/image/ab67616d00004851e26429334e04c642d2ea66d6",
          "width" : 64
        } ],
        "name" : "Jubilate Vol.35 As the deer panteth for the water",
        "release_date" : "2020-04-10",
        "release_date_precision" : "day",
        "total_tracks" : 30,
        "type" : "album",
        "uri" : "spotify:album:1NkEMGZYEmjSzpGk4WZUus"
      },
      "artists" : [ {
        "external_urls" : {
          "spotify" : "https://open.spotify.com/artist/5oTQhQkSBzwWKoJpZ9tZrB"
        },
        "href" : "https://api.spotify.com/v1/artists/5oTQhQkSBzwWKoJpZ9tZrB",
        "id" : "5oTQhQkSBzwWKoJpZ9tZrB",
        "name" : "Seoul Chamber Singers",
        "type" : "artist",
        "uri" : "spotify:artist:5oTQhQkSBzwWKoJpZ9tZrB"
      } ],
      "disc_number" : 1,
      "duration_ms" : 228337,
      "explicit" : false,
      "external_ids" : {
        "isrc" : "KRNAR1801934"
      },
      "external_urls" : {
        "spotify" : "https://open.spotify.com/track/6UJgU8mH6ktuwsEGLiCDp8"
      },
      "href" : "https://api.spotify.com/v1/tracks/6UJgU8mH6ktuwsEGLiCDp8",
      "id" : "6UJgU8mH6ktuwsEGLiCDp8",
      "is_local" : false,
      "is_playable" : true,
      "name" : "We Plow the Fields, and Scatter",
      "popularity" : 0,
      "preview_url" : "https://p.scdn.co/mp3-preview/fd3a290c9405eeebbe95330c658822a0d570707b?cid=774b29d4f13844c495f206cafdad9c86",
      "track_number" : 24,
      "type" : "track",
      "uri" : "spotify:track:6UJgU8mH6ktuwsEGLiCDp8"
    }, {
      "album" : {
        "album_type" : "album",
        "artists" : [ {
          "external_urls" : {
            "spotify" : "https://open.spotify.com/artist/41N4x8ZUxk7JkHORj8M3bd"
          },
          "href" : "https://api.spotify.com/v1/artists/41N4x8ZUxk7JkHORj8M3bd",
          "id" : "41N4x8ZUxk7JkHORj8M3bd",
          "name" : "Concordia Publishing House",
          "type" : "artist",
          "uri" : "spotify:artist:41N4x8ZUxk7JkHORj8M3bd"
        } ],
        "external_urls" : {
          "spotify" : "https://open.spotify.com/album/6Db5Mw3wDgYOmTcIFPye8k"
        },
        "href" : "https://api.spotify.com/v1/albums/6Db5Mw3wDgYOmTcIFPye8k",
        "id" : "6Db5Mw3wDgYOmTcIFPye8k",
        "images" : [ {
          "height" : 640,
          "url" : "https://i.scdn.co/image/ab67616d0000b27323b567cdf7b36554f6496794",
          "width" : 640
        }, {
          "height" : 300,
          "url" : "https://i.scdn.co/image/ab67616d00001e0223b567cdf7b36554f6496794",
          "width" : 300
        }, {
          "height" : 64,
          "url" : "https://i.scdn.co/image/ab67616d0000485123b567cdf7b36554f6496794",
          "width" : 64
        } ],
        "name" : "Little Ones Sing Praise",
        "release_date" : "2011-08-10",
        "release_date_precision" : "day",
        "total_tracks" : 148,
        "type" : "album",
        "uri" : "spotify:album:6Db5Mw3wDgYOmTcIFPye8k"
      },
      "artists" : [ {
        "external_urls" : {
          "spotify" : "https://open.spotify.com/artist/41N4x8ZUxk7JkHORj8M3bd"
        },
        "href" : "https://api.spotify.com/v1/artists/41N4x8ZUxk7JkHORj8M3bd",
        "id" : "41N4x8ZUxk7JkHORj8M3bd",
        "name" : "Concordia Publishing House",
        "type" : "artist",
        "uri" : "spotify:artist:41N4x8ZUxk7JkHORj8M3bd"
      } ],
      "disc_number" : 4,
      "duration_ms" : 50039,
      "explicit" : false,
      "external_ids" : {
        "isrc" : "US3DF1109445"
      },
      "external_urls" : {
        "spotify" : "https://open.spotify.com/track/1qvqoZeeX1Ce1M4iSlpr9f"
      },
      "href" : "https://api.spotify.com/v1/tracks/1qvqoZeeX1Ce1M4iSlpr9f",
      "id" : "1qvqoZeeX1Ce1M4iSlpr9f",
      "is_local" : false,
      "is_playable" : true,
      "name" : "We Plow the Fields and Scatter",
      "popularity" : 0,
      "preview_url" : "https://p.scdn.co/mp3-preview/606c0cf562adb3fe2ec46047569a50479351f9f8?cid=774b29d4f13844c495f206cafdad9c86",
      "track_number" : 28,
      "type" : "track",
      "uri" : "spotify:track:1qvqoZeeX1Ce1M4iSlpr9f"
    }, {
      "album" : {
        "album_type" : "album",
        "artists" : [ {
          "external_urls" : {
            "spotify" : "https://open.spotify.com/artist/150aUu6bxQMS9WqE78QRBC"
          },
          "href" : "https://api.spotify.com/v1/artists/150aUu6bxQMS9WqE78QRBC",
          "id" : "150aUu6bxQMS9WqE78QRBC",
          "name" : "London Christian Chior",
          "type" : "artist",
          "uri" : "spotify:artist:150aUu6bxQMS9WqE78QRBC"
        } ],
        "external_urls" : {
          "spotify" : "https://open.spotify.com/album/08EAXDJIo3x15a0g7TZj5s"
        },
        "href" : "https://api.spotify.com/v1/albums/08EAXDJIo3x15a0g7TZj5s",
        "id" : "08EAXDJIo3x15a0g7TZj5s",
        "images" : [ {
          "height" : 640,
          "url" : "https://i.scdn.co/image/ab67616d0000b2736008eeba7e746f35b8c0542a",
          "width" : 640
        }, {
          "height" : 300,
          "url" : "https://i.scdn.co/image/ab67616d00001e026008eeba7e746f35b8c0542a",
          "width" : 300
        }, {
          "height" : 64,
          "url" : "https://i.scdn.co/image/ab67616d000048516008eeba7e746f35b8c0542a",
          "width" : 64
        } ],
        "name" : "25 Christian Hymns",
        "release_date" : "2019-10-31",
        "release_date_precision" : "day",
        "total_tracks" : 25,
        "type" : "album",
        "uri" : "spotify:album:08EAXDJIo3x15a0g7TZj5s"
      },
      "artists" : [ {
        "external_urls" : {
          "spotify" : "https://open.spotify.com/artist/150aUu6bxQMS9WqE78QRBC"
        },
        "href" : "https://api.spotify.com/v1/artists/150aUu6bxQMS9WqE78QRBC",
        "id" : "150aUu6bxQMS9WqE78QRBC",
        "name" : "London Christian Chior",
        "type" : "artist",
        "uri" : "spotify:artist:150aUu6bxQMS9WqE78QRBC"
      } ],
      "disc_number" : 1,
      "duration_ms" : 109191,
      "explicit" : false,
      "external_ids" : {
        "isrc" : "GBWUL1913350"
      },
      "external_urls" : {
        "spotify" : "https://open.spotify.com/track/5mpppSj7z7oJViA1s2Sbh8"
      },
      "href" : "https://api.spotify.com/v1/tracks/5mpppSj7z7oJViA1s2Sbh8",
      "id" : "5mpppSj7z7oJViA1s2Sbh8",
      "is_local" : false,
      "is_playable" : true,
      "name" : "We Plow the Fields and Scatter",
      "popularity" : 0,
      "preview_url" : "https://p.scdn.co/mp3-preview/07e107f9a89af58e2ed7f737fe6ce1238a95719c?cid=774b29d4f13844c495f206cafdad9c86",
      "track_number" : 24,
      "type" : "track",
      "uri" : "spotify:track:5mpppSj7z7oJViA1s2Sbh8"
    }, {
      "album" : {
        "album_type" : "album",
        "artists" : [ {
          "external_urls" : {
            "spotify" : "https://open.spotify.com/artist/20rlbkwNSoLrLqQUR7GRcT"
          },
          "href" : "https://api.spotify.com/v1/artists/20rlbkwNSoLrLqQUR7GRcT",
          "id" : "20rlbkwNSoLrLqQUR7GRcT",
          "name" : "Mother’s Lullaby",
          "type" : "artist",
          "uri" : "spotify:artist:20rlbkwNSoLrLqQUR7GRcT"
        } ],
        "external_urls" : {
          "spotify" : "https://open.spotify.com/album/3qYmzvLuTYj4DjzvSkymbv"
        },
        "href" : "https://api.spotify.com/v1/albums/3qYmzvLuTYj4DjzvSkymbv",
        "id" : "3qYmzvLuTYj4DjzvSkymbv",
        "images" : [ {
          "height" : 640,
          "url" : "https://i.scdn.co/image/ab67616d0000b2732c4428c9bb194b7b1887eed4",
          "width" : 640
        }, {
          "height" : 300,
          "url" : "https://i.scdn.co/image/ab67616d00001e022c4428c9bb194b7b1887eed4",
          "width" : 300
        }, {
          "height" : 64,
          "url" : "https://i.scdn.co/image/ab67616d000048512c4428c9bb194b7b1887eed4",
          "width" : 64
        } ],
        "name" : "Hymns Vol.16",
        "release_date" : "2019-07-10",
        "release_date_precision" : "day",
        "total_tracks" : 20,
        "type" : "album",
        "uri" : "spotify:album:3qYmzvLuTYj4DjzvSkymbv"
      },
      "artists" : [ {
        "external_urls" : {
          "spotify" : "https://open.spotify.com/artist/20rlbkwNSoLrLqQUR7GRcT"
        },
        "href" : "https://api.spotify.com/v1/artists/20rlbkwNSoLrLqQUR7GRcT",
        "id" : "20rlbkwNSoLrLqQUR7GRcT",
        "name" : "Mother’s Lullaby",
        "type" : "artist",
        "uri" : "spotify:artist:20rlbkwNSoLrLqQUR7GRcT"
      } ],
      "disc_number" : 1,
      "duration_ms" : 190555,
      "explicit" : false,
      "external_ids" : {
        "isrc" : "QZEKE1877899"
      },
      "external_urls" : {
        "spotify" : "https://open.spotify.com/track/5YQDsFN6nP7nb1LBpNO3Co"
      },
      "href" : "https://api.spotify.com/v1/tracks/5YQDsFN6nP7nb1LBpNO3Co",
      "id" : "5YQDsFN6nP7nb1LBpNO3Co",
      "is_local" : false,
      "is_playable" : true,
      "name" : "We Plow the Fields and Scatter",
      "popularity" : 0,
      "preview_url" : "https://p.scdn.co/mp3-preview/68a6542db189dab6c0d1cafbcdea537d6faa9809?cid=774b29d4f13844c495f206cafdad9c86",
      "track_number" : 10,
      "type" : "track",
      "uri" : "spotify:track:5YQDsFN6nP7nb1LBpNO3Co"
    }, {
      "album" : {
        "album_type" : "compilation",
        "artists" : [ {
          "external_urls" : {
            "spotify" : "https://open.spotify.com/artist/6Uu3MCphBuvf16BzqKYgIa"
          },
          "href" : "https://api.spotify.com/v1/artists/6Uu3MCphBuvf16BzqKYgIa",
          "id" : "6Uu3MCphBuvf16BzqKYgIa",
          "name" : "Elmadon",
          "type" : "artist",
          "uri" : "spotify:artist:6Uu3MCphBuvf16BzqKYgIa"
        }, {
          "external_urls" : {
            "spotify" : "https://open.spotify.com/artist/3zeP87tnKZvXmCyX8gYtFQ"
          },
          "href" : "https://api.spotify.com/v1/artists/3zeP87tnKZvXmCyX8gYtFQ",
          "id" : "3zeP87tnKZvXmCyX8gYtFQ",
          "name" : "Magnam Gloriam",
          "type" : "artist",
          "uri" : "spotify:artist:3zeP87tnKZvXmCyX8gYtFQ"
        } ],
        "external_urls" : {
          "spotify" : "https://open.spotify.com/album/0bLSVYq5AQtAz62qHEB31Y"
        },
        "href" : "https://api.spotify.com/v1/albums/0bLSVYq5AQtAz62qHEB31Y",
        "id" : "0bLSVYq5AQtAz62qHEB31Y",
        "images" : [ {
          "height" : 640,
          "url" : "https://i.scdn.co/image/ab67616d0000b27351195ce91aab3c178006913c",
          "width" : 640
        }, {
          "height" : 300,
          "url" : "https://i.scdn.co/image/ab67616d00001e0251195ce91aab3c178006913c",
          "width" : 300
        }, {
          "height" : 64,
          "url" : "https://i.scdn.co/image/ab67616d0000485151195ce91aab3c178006913c",
          "width" : 64
        } ],
        "name" : "Chillout (Summer-Edition)",
        "release_date" : "2018-05-05",
        "release_date_precision" : "day",
        "total_tracks" : 23,
        "type" : "album",
        "uri" : "spotify:album:0bLSVYq5AQtAz62qHEB31Y"
      },
      "artists" : [ {
        "external_urls" : {
          "spotify" : "https://open.spotify.com/artist/3zeP87tnKZvXmCyX8gYtFQ"
        },
        "href" : "https://api.spotify.com/v1/artists/3zeP87tnKZvXmCyX8gYtFQ",
        "id" : "3zeP87tnKZvXmCyX8gYtFQ",
        "name" : "Magnam Gloriam",
        "type" : "artist",
        "uri" : "spotify:artist:3zeP87tnKZvXmCyX8gYtFQ"
      }, {
        "external_urls" : {
          "spotify" : "https://open.spotify.com/artist/6Uu3MCphBuvf16BzqKYgIa"
        },
        "href" : "https://api.spotify.com/v1/artists/6Uu3MCphBuvf16BzqKYgIa",
        "id" : "6Uu3MCphBuvf16BzqKYgIa",
        "name" : "Elmadon",
        "type" : "artist",
        "uri" : "spotify:artist:6Uu3MCphBuvf16BzqKYgIa"
      } ],
      "disc_number" : 1,
      "duration_ms" : 214000,
      "explicit" : false,
      "external_ids" : {
        "isrc" : "ATLA71000190"
      },
      "external_urls" : {
        "spotify" : "https://open.spotify.com/track/2zP74wnDBz9H8ICluwbTuy"
      },
      "href" : "https://api.spotify.com/v1/tracks/2zP74wnDBz9H8ICluwbTuy",
      "id" : "2zP74wnDBz9H8ICluwbTuy",
      "is_local" : false,
      "is_playable" : true,
      "name" : "We Plow the Fields - Elmadon Mystic Trance Remix",
      "popularity" : 0,
      "preview_url" : "https://p.scdn.co/mp3-preview/8112acc8d39d584e0cdf12bfe9ceb933b9c7df43?cid=774b29d4f13844c495f206cafdad9c86",
      "track_number" : 23,
      "type" : "track",
      "uri" : "spotify:track:2zP74wnDBz9H8ICluwbTuy"
    }, {
      "album" : {
        "album_type" : "compilation",
        "artists" : [ {
          "external_urls" : {
            "spotify" : "https://open.spotify.com/artist/3zeP87tnKZvXmCyX8gYtFQ"
          },
          "href" : "https://api.spotify.com/v1/artists/3zeP87tnKZvXmCyX8gYtFQ",
          "id" : "3zeP87tnKZvXmCyX8gYtFQ",
          "name" : "Magnam Gloriam",
          "type" : "artist",
          "uri" : "spotify:artist:3zeP87tnKZvXmCyX8gYtFQ"
        }, {
          "external_urls" : {
            "spotify" : "https://open.spotify.com/artist/6Uu3MCphBuvf16BzqKYgIa"
          },
          "href" : "https://api.spotify.com/v1/artists/6Uu3MCphBuvf16BzqKYgIa",
          "id" : "6Uu3MCphBuvf16BzqKYgIa",
          "name" : "Elmadon",
          "type" : "artist",
          "uri" : "spotify:artist:6Uu3MCphBuvf16BzqKYgIa"
        }, {
          "external_urls" : {
            "spotify" : "https://open.spotify.com/artist/695SPFvEMPOoQhxsqRjR0y"
          },
          "href" : "https://api.spotify.com/v1/artists/695SPFvEMPOoQhxsqRjR0y",
          "id" : "695SPFvEMPOoQhxsqRjR0y",
          "name" : "Magnam Gloriam & Elmadon",
          "type" : "artist",
          "uri" : "spotify:artist:695SPFvEMPOoQhxsqRjR0y"
        } ],
        "external_urls" : {
          "spotify" : "https://open.spotify.com/album/72rxnfuoJ3a7ItA1MrAIpy"
        },
        "href" : "https://api.spotify.com/v1/albums/72rxnfuoJ3a7ItA1MrAIpy",
        "id" : "72rxnfuoJ3a7ItA1MrAIpy",
        "images" : [ {
          "height" : 640,
          "url" : "https://i.scdn.co/image/ab67616d0000b273c523d0f249bffb97f3d37591",
          "width" : 640
        }, {
          "height" : 300,
          "url" : "https://i.scdn.co/image/ab67616d00001e02c523d0f249bffb97f3d37591",
          "width" : 300
        }, {
          "height" : 64,
          "url" : "https://i.scdn.co/image/ab67616d00004851c523d0f249bffb97f3d37591",
          "width" : 64
        } ],
        "name" : "Top 40 Elmadonmusic-Highlights 2009-2014",
        "release_date" : "2014-10-06",
        "release_date_precision" : "day",
        "total_tracks" : 40,
        "type" : "album",
        "uri" : "spotify:album:72rxnfuoJ3a7ItA1MrAIpy"
      },
      "artists" : [ {
        "external_urls" : {
          "spotify" : "https://open.spotify.com/artist/3zeP87tnKZvXmCyX8gYtFQ"
        },
        "href" : "https://api.spotify.com/v1/artists/3zeP87tnKZvXmCyX8gYtFQ",
        "id" : "3zeP87tnKZvXmCyX8gYtFQ",
        "name" : "Magnam Gloriam",
        "type" : "artist",
        "uri" : "spotify:artist:3zeP87tnKZvXmCyX8gYtFQ"
      } ],
      "disc_number" : 1,
      "duration_ms" : 214000,
      "explicit" : false,
      "external_ids" : {
        "isrc" : "ATLA71000190"
      },
      "external_urls" : {
        "spotify" : "https://open.spotify.com/track/4VphkE7a2oeQPAizCKbHjH"
      },
      "href" : "https://api.spotify.com/v1/tracks/4VphkE7a2oeQPAizCKbHjH",
      "id" : "4VphkE7a2oeQPAizCKbHjH",
      "is_local" : false,
      "is_playable" : true,
      "name" : "We Plow the Fields - Elmadon Mystic Trance Remix",
      "popularity" : 0,
      "preview_url" : "https://p.scdn.co/mp3-preview/17f11497720d6ad039c4167413e7df890c944bf0?cid=774b29d4f13844c495f206cafdad9c86",
      "track_number" : 32,
      "type" : "track",
      "uri" : "spotify:track:4VphkE7a2oeQPAizCKbHjH"
    }, {
      "album" : {
        "album_type" : "album",
        "artists" : [ {
          "external_urls" : {
            "spotify" : "https://open.spotify.com/artist/3zeP87tnKZvXmCyX8gYtFQ"
          },
          "href" : "https://api.spotify.com/v1/artists/3zeP87tnKZvXmCyX8gYtFQ",
          "id" : "3zeP87tnKZvXmCyX8gYtFQ",
          "name" : "Magnam Gloriam",
          "type" : "artist",
          "uri" : "spotify:artist:3zeP87tnKZvXmCyX8gYtFQ"
        } ],
        "external_urls" : {
          "spotify" : "https://open.spotify.com/album/57Cg38FYPWW6BZDFRgujFg"
        },
        "href" : "https://api.spotify.com/v1/albums/57Cg38FYPWW6BZDFRgujFg",
        "id" : "57Cg38FYPWW6BZDFRgujFg",
        "images" : [ {
          "height" : 640,
          "url" : "https://i.scdn.co/image/ab67616d0000b27397a3a142ab0d821dfbc443ca",
          "width" : 640
        }, {
          "height" : 300,
          "url" : "https://i.scdn.co/image/ab67616d00001e0297a3a142ab0d821dfbc443ca",
          "width" : 300
        }, {
          "height" : 64,
          "url" : "https://i.scdn.co/image/ab67616d0000485197a3a142ab0d821dfbc443ca",
          "width" : 64
        } ],
        "name" : "Spring",
        "release_date" : "2014-03-30",
        "release_date_precision" : "day",
        "total_tracks" : 13,
        "type" : "album",
        "uri" : "spotify:album:57Cg38FYPWW6BZDFRgujFg"
      },
      "artists" : [ {
        "external_urls" : {
          "spotify" : "https://open.spotify.com/artist/3zeP87tnKZvXmCyX8gYtFQ"
        },
        "href" : "https://api.spotify.com/v1/artists/3zeP87tnKZvXmCyX8gYtFQ",
        "id" : "3zeP87tnKZvXmCyX8gYtFQ",
        "name" : "Magnam Gloriam",
        "type" : "artist",
        "uri" : "spotify:artist:3zeP87tnKZvXmCyX8gYtFQ"
      } ],
      "disc_number" : 1,
      "duration_ms" : 214000,
      "explicit" : false,
      "external_ids" : {
        "isrc" : "ATLA71000190"
      },
      "external_urls" : {
        "spotify" : "https://open.spotify.com/track/5dguNlgvVz0100YyPaXA0L"
      },
      "href" : "https://api.spotify.com/v1/tracks/5dguNlgvVz0100YyPaXA0L",
      "id" : "5dguNlgvVz0100YyPaXA0L",
      "is_local" : false,
      "is_playable" : true,
      "name" : "We Plow the Fields - Elmadon Mystic Trance Remix",
      "popularity" : 0,
      "preview_url" : "https://p.scdn.co/mp3-preview/17f11497720d6ad039c4167413e7df890c944bf0?cid=774b29d4f13844c495f206cafdad9c86",
      "track_number" : 13,
      "type" : "track",
      "uri" : "spotify:track:5dguNlgvVz0100YyPaXA0L"
    } ],
    "limit" : 10,
    "next" : "https://api.spotify.com/v1/search?query=We+Plow+the+Fields&type=track&market=US&offset=15&limit=10",
    "offset" : 5,
    "previous" : "https://api.spotify.com/v1/search?query=We+Plow+the+Fields&type=track&market=US&offset=0&limit=10",
    "total" : 20
  }
}