{
  "tracks" : {
    "href" : "https://api.spotify.com/v1/search?query=O+Come%2C+O+Come%2C+Immanuel&type=track&market=US&offset=5&limit=10",
    "items" : [ {
      "album" : {
        "album_type" : "album",
        "artists" : [ {
          "external_urls" : {
            "spotify" : "https://open.spotify.com/artist/6XQO13vaBxckfbw752V4ni"
          },
          "href" : "https://api.spotify.com/v1/artists/6XQO13vaBxckfbw752V4ni",
          "id" : "6XQO13vaBxckfbw752V4ni",
          "name" : "St. Olaf Choral Ensembles",
          "type" : "artist",
          "uri" : "spotify:artist:6XQO13vaBxckfbw752V4ni"
        } ],
        "external_urls" : {
          "spotify" : "https://open.spotify.com/album/7yFkRPDyleESiX710ytkx3"
        },
        "href" : "https://api.spotify.com/v1/albums/7yFkRPDyleESiX710ytkx3",
        "id" : "7yFkRPDyleESiX710ytkx3",
        "images" : [ {
          "height" : 640,
          "url" : "https://i.scdn.co/image/ab67616d0000b273966c0f6417271726c39e1a3f",
          "width" : 640
        }, {
          "height" : 300,
          "url" : "https://i.scdn.co/image/ab67616d00001e02966c0f6417271726c39e1a3f",
          "width" : 300
        }, {
          "height" : 64,
          "url" : "https://i.scdn.co/image/ab67616d00004851966c0f6417271726c39e1a3f",
          "width" : 64
        } ],
        "name" : "O Come to Us, Abide with Us Our Lord Immanuel",
        "release_date" : "2010-07-01",
        "release_date_precision" : "day",
        "total_tracks" : 32,
        "type" : "album",
        "uri" : "spotify:album:7yFkRPDyleESiX710ytkx3"
      },
      "artists" : [ {
        "external_urls" : {
          "spotify" : "https://open.spotify.com/artist/6XQO13vaBxckfbw752V4ni"
        },
        "href" : "https://api.spotify.com/v1/artists/6XQO13vaBxckfbw752V4ni",
        "id" : "6XQO13vaBxckfbw752V4ni",
        "name" : "St. Olaf Choral Ensembles",
        "type" : "artist",
        "uri" : "spotify:artist:6XQO13vaBxckfbw752V4ni"
      } ],
      "disc_number" : 1,
      "duration_ms" : 290813,
      "explicit" : false,
      "external_ids" : {
        "isrc" : "ushm81004848"
      },
      "external_urls" : {
        "spotify" : "https://open.spotify.com/track/5Jt3vE2B4QSfiizS8yoXOr"
      },
      "href" : "https://api.spotify.com/v1/tracks/5Jt3vE2B4QSfiizS8yoXOr",
      "id" : "5Jt3vE2B4QSfiizS8yoXOr",
      "is_local" : false,
      "is_playable" : true,
      "name" : "Come Thou Long-Expected Jesus",
      "popularity" : 6,
      "preview_url" : "https://p.scdn.co/mp3-preview/1ecd59c67526f6fd596f641fa5ed5a36804b9ceb?cid=774b29d4f13844c495f206cafdad9c86",
      "track_number" : 5,
      "type" : "track",
      "uri" : "spotify:track:5Jt3vE2B4QSfiizS8yoXOr"
    }, {
      "album" : {
        "album_type" : "album",
        "artists" : [ {
          "external_urls" : {
            "spotify" : "https://open.spotify.com/artist/6XQO13vaBxckfbw752V4ni"
          },
          "href" : "https://api.spotify.com/v1/artists/6XQO13vaBxckfbw752V4ni",
          "id" : "6XQO13vaBxckfbw752V4ni",
          "name" : "St. Olaf Choral Ensembles",
          "type" : "artist",
          "uri" : "spotify:artist:6XQO13vaBxckfbw752V4ni"
        } ],
        "external_urls" : {
          "spotify" : "https://open.spotify.com/album/7yFkRPDyleESiX710ytkx3"
        },
        "href" : "https://api.spotify.com/v1/albums/7yFkRPDyleESiX710ytkx3",
        "id" : "7yFkRPDyleESiX710ytkx3",
        "images" : [ {
          "height" : 640,
          "url" : "https://i.scdn.co/image/ab67616d0000b273966c0f6417271726c39e1a3f",
          "width" : 640
        }, {
          "height" : 300,
          "url" : "https://i.scdn.co/image/ab67616d00001e02966c0f6417271726c39e1a3f",
          "width" : 300
        }, {
          "height" : 64,
          "url" : "https://i.scdn.co/image/ab67616d00004851966c0f6417271726c39e1a3f",
          "width" : 64
        } ],
        "name" : "O Come to Us, Abide with Us Our Lord Immanuel",
        "release_date" : "2010-07-01",
        "release_date_precision" : "day",
        "total_tracks" : 32,
        "type" : "album",
        "uri" : "spotify:album:7yFkRPDyleESiX710ytkx3"
      },
      "artists" : [ {
        "external_urls" : {
          "spotify" : "https://open.spotify.com/artist/6XQO13vaBxckfbw752V4ni"
        },
        "href" : "https://api.spotify.com/v1/artists/6XQO13vaBxckfbw752V4ni",
        "id" : "6XQO13vaBxckfbw752V4ni",
        "name" : "St. Olaf Choral Ensembles",
        "type" : "artist",
        "uri" : "spotify:artist:6XQO13vaBxckfbw752V4ni"
      } ],
      "disc_number" : 2,
      "duration_ms" : 162373,
      "explicit" : false,
      "external_ids" : {
        "isrc" : "ushm81004874"
      },
      "external_urls" : {
        "spotify" : "https://open.spotify.com/track/59FvjIhVbhaKD5cdkGLDav"
      },
      "href" : "https://api.spotify.com/v1/tracks/59FvjIhVbhaKD5cdkGLDav",
      "id" : "59FvjIhVbhaKD5cdkGLDav",
      "is_local" : false,
      "is_playable" : true,
      "name" : "Stay With Us (Captive and Free)",
      "popularity" : 5,
      "preview_url" : "https://p.scdn.co/mp3-preview/1e88a21650fdec4f2527d10550351eeec55d853b?cid=774b29d4f13844c495f206cafdad9c86",
      "track_number" : 15,
      "type" : "track",
      "uri" : "spotify:track:59FvjIhVbhaKD5cdkGLDav"
    }, {
      "album" : {
        "album_type" : "single",
        "artists" : [ {
          "external_urls" : {
            "spotify" : "https://open.spotify.com/artist/1OTrNqFamkWWbjkyN0fWiw"
          },
          "href" : "https://api.spotify.com/v1/artists/1OTrNqFamkWWbjkyN0fWiw",
          "id" : "1OTrNqFamkWWbjkyN0fWiw",
          "name" : "Pine Hills Worship",
          "type" : "artist",
          "uri" : "spotify:artist:1OTrNqFamkWWbjkyN0fWiw"
        } ],
        "external_urls" : {
          "spotify" : "https://open.spotify.com/album/2V8T1Wzz4PvodC6yC6mFlH"
        },
        "href" : "https://api.spotify.com/v1/albums/2V8T1Wzz4PvodC6yC6mFlH",
        "id" : "2V8T1Wzz4PvodC6yC6mFlH",
        "images" : [ {
          "height" : 640,
          "url" : "https://i.scdn.co/image/ab67616d0000b273f0a450565330096b9ec9130d",
          "width" : 640
        }, {
          "height" : 300,
          "url" : "https://i.scdn.co/image/ab67616d00001e02f0a450565330096b9ec9130d",
          "width" : 300
        }, {
          "height" : 64,
          "url" : "https://i.scdn.co/image/ab67616d00004851f0a450565330096b9ec9130d",
          "width" : 64
        } ],
        "name" : "Be Our Peace",
        "release_date" : "2019-12-01",
        "release_date_precision" : "day",
        "total_tracks" : 2,
        "type" : "album",
        "uri" : "spotify:album:2V8T1Wzz4PvodC6yC6mFlH"
      },
      "artists" : [ {
        "external_urls" : {
          "spotify" : "https://open.spotify.com/artist/1OTrNqFamkWWbjkyN0fWiw"
        },
        "href" : "https://api.spotify.com/v1/artists/1OTrNqFamkWWbjkyN0fWiw",
        "id" : "1OTrNqFamkWWbjkyN0fWiw",
        "name" : "Pine Hills Worship",
        "type" : "artist",
        "uri" : "spotify:artist:1OTrNqFamkWWbjkyN0fWiw"
      } ],
      "disc_number" : 1,
      "duration_ms" : 260547,
      "explicit" : false,
      "external_ids" : {
        "isrc" : "QZHNC1954086"
      },
      "external_urls" : {
        "spotify" : "https://open.spotify.com/track/5TcCpGX2jo7p4QzEuPMZDl"
      },
      "href" : "https://api.spotify.com/v1/tracks/5TcCpGX2jo7p4QzEuPMZDl",
      "id" : "5TcCpGX2jo7p4QzEuPMZDl",
      "is_local" : false,
      "is_playable" : true,
      "name" : "Oh Come, Oh Come, Immanuel",
      "popularity" : 3,
      "preview_url" : "https://p.scdn.co/mp3-preview/00cb88421e2145a108d3c13d43d0ce2a3f180a9b?cid=774b29d4f13844c495f206cafdad9c86",
      "track_number" : 1,
      "type" : "track",
      "uri" : "spotify:track:5TcCpGX2jo7p4QzEuPMZDl"
    }, {
      "album" : {
        "album_type" : "album",
        "artists" : [ {
          "external_urls" : {
            "spotify" : "https://open.spotify.com/artist/5t0xraPRt33RhMtxid60z1"
          },
          "href" : "https://api.spotify.com/v1/artists/5t0xraPRt33RhMtxid60z1",
          "id" : "5t0xraPRt33RhMtxid60z1",
          "name" : "Hollywind 'n' Wood",
          "type" : "artist",
          "uri" : "spotify:artist:5t0xraPRt33RhMtxid60z1"
        } ],
        "external_urls" : {
          "spotify" : "https://open.spotify.com/album/4M1XT8Kk9dNSWdKAV35iSb"
        },
        "href" : "https://api.spotify.com/v1/albums/4M1XT8Kk9dNSWdKAV35iSb",
        "id" : "4M1XT8Kk9dNSWdKAV35iSb",
        "images" : [ {
          "height" : 640,
          "url" : "https://i.scdn.co/image/ab67616d0000b2739da75def03db9bbc9b48ffd4",
          "width" : 640
        }, {
          "height" : 300,
          "url" : "https://i.scdn.co/image/ab67616d00001e029da75def03db9bbc9b48ffd4",
          "width" : 300
        }, {
          "height" : 64,
          "url" : "https://i.scdn.co/image/ab67616d000048519da75def03db9bbc9b48ffd4",
          "width" : 64
        } ],
        "name" : "It's Christmas Time Again",
        "release_date" : "1997-10-01",
        "release_date_precision" : "day",
        "total_tracks" : 15,
        "type" : "album",
        "uri" : "spotify:album:4M1XT8Kk9dNSWdKAV35iSb"
      },
      "artists" : [ {
        "external_urls" : {
          "spotify" : "https://open.spotify.com/artist/5t0xraPRt33RhMtxid60z1"
        },
        "href" : "https://api.spotify.com/v1/artists/5t0xraPRt33RhMtxid60z1",
        "id" : "5t0xraPRt33RhMtxid60z1",
        "name" : "Hollywind 'n' Wood",
        "type" : "artist",
        "uri" : "spotify:artist:5t0xraPRt33RhMtxid60z1"
      } ],
      "disc_number" : 1,
      "duration_ms" : 181893,
      "explicit" : false,
      "external_ids" : {
        "isrc" : "ushm91257209"
      },
      "external_urls" : {
        "spotify" : "https://open.spotify.com/track/02fogVXKGTKJXftEOg0A4k"
      },
      "href" : "https://api.spotify.com/v1/tracks/02fogVXKGTKJXftEOg0A4k",
      "id" : "02fogVXKGTKJXftEOg0A4k",
      "is_local" : false,
      "is_playable" : true,
      "name" : "O Come, O Come, Immanuel",
      "popularity" : 2,
      "preview_url" : "https://p.scdn.co/mp3-preview/44d3c011d67961b37c768d5106f58d57987892dc?cid=774b29d4f13844c495f206cafdad9c86",
      "track_number" : 13,
      "type" : "track",
      "uri" : "spotify:track:02fogVXKGTKJXftEOg0A4k"
    }, {
      "album" : {
        "album_type" : "album",
        "artists" : [ {
          "external_urls" : {
            "spotify" : "https://open.spotify.com/artist/5Qjiv42SCdIi5Tovnt2Emp"
          },
          "href" : "https://api.spotify.com/v1/artists/5Qjiv42SCdIi5Tovnt2Emp",
          "id" : "5Qjiv42SCdIi5Tovnt2Emp",
          "name" : "John Stoddart",
          "type" : "artist",
          "uri" : "spotify:artist:5Qjiv42SCdIi5Tovnt2Emp"
        } ],
        "external_urls" : {
          "spotify" : "https://open.spotify.com/album/515tPRARxGTeECkO43sDxx"
        },
        "href" : "https://api.spotify.com/v1/albums/515tPRARxGTeECkO43sDxx",
        "id" : "515tPRARxGTeECkO43sDxx",
        "images" : [ {
          "height" : 640,
          "url" : "https://i.scdn.co/image/ab67616d0000b2734636d37a257b2bc854bc0d5c",
          "width" : 640
        }, {
          "height" : 300,
          "url" : "https://i.scdn.co/image/ab67616d00001e024636d37a257b2bc854bc0d5c",
          "width" : 300
        }, {
          "height" : 64,
          "url" : "https://i.scdn.co/image/ab67616d000048514636d37a257b2bc854bc0d5c",
          "width" : 64
        } ],
        "name" : "Only On Christmas Day",
        "release_date" : "2013-11-19",
        "release_date_precision" : "day",
        "total_tracks" : 11,
        "type" : "album",
        "uri" : "spotify:album:515tPRARxGTeECkO43sDxx"
      },
      "artists" : [ {
        "external_urls" : {
          "spotify" : "https://open.spotify.com/artist/5Qjiv42SCdIi5Tovnt2Emp"
        },
        "href" : "https://api.spotify.com/v1/artists/5Qjiv42SCdIi5Tovnt2Emp",
        "id" : "5Qjiv42SCdIi5Tovnt2Emp",
        "name" : "John Stoddart",
        "type" : "artist",
        "uri" : "spotify:artist:5Qjiv42SCdIi5Tovnt2Emp"
      }, {
        "external_urls" : {
          "spotify" : "https://open.spotify.com/artist/6v2VjBVPcGVbBqJrUWYiG1"
        },
        "href" : "https://api.spotify.com/v1/artists/6v2VjBVPcGVbBqJrUWYiG1",
        "id" : "6v2VjBVPcGVbBqJrUWYiG1",
        "name" : "Kirk Whalum",
        "type" : "artist",
        "uri" : "spotify:artist:6v2VjBVPcGVbBqJrUWYiG1"
      } ],
      "disc_number" : 1,
      "duration_ms" : 301946,
      "explicit" : false,
      "external_ids" : {
        "isrc" : "USGRX0893607"
      },
      "external_urls" : {
        "spotify" : "https://open.spotify.com/track/1xNqQDLa28WXcBEYqQ2vOF"
      },
      "href" : "https://api.spotify.com/v1/tracks/1xNqQDLa28WXcBEYqQ2vOF",
      "id" : "1xNqQDLa28WXcBEYqQ2vOF",
      "is_local" : false,
      "is_playable" : true,
      "name" : "O, Come Immanuel (feat. Kirk Whalum)",
      "popularity" : 3,
      "preview_url" : "https://p.scdn.co/mp3-preview/0d37db34ccb7ae5c9a3baa3f8ff6e30115af7538?cid=774b29d4f13844c495f206cafdad9c86",
      "track_number" : 1,
      "type" : "track",
      "uri" : "spotify:track:1xNqQDLa28WXcBEYqQ2vOF"
    }, {
      "album" : {
        "album_type" : "album",
        "artists" : [ {
          "external_urls" : {
            "spotify" : "https://open.spotify.com/artist/5Z7ndTqS6EPzpNn322s0Nw"
          },
          "href" : "https://api.spotify.com/v1/artists/5Z7ndTqS6EPzpNn322s0Nw",
          "id" : "5Z7ndTqS6EPzpNn322s0Nw",
          "name" : "Jaime Jorge",
          "type" : "artist",
          "uri" : "spotify:artist:5Z7ndTqS6EPzpNn322s0Nw"
        } ],
        "external_urls" : {
          "spotify" : "https://open.spotify.com/album/6rZjgpBfH2dEd7XTAqeWqN"
        },
        "href" : "https://api.spotify.com/v1/albums/6rZjgpBfH2dEd7XTAqeWqN",
        "id" : "6rZjgpBfH2dEd7XTAqeWqN",
        "images" : [ {
          "height" : 640,
          "url" : "https://i.scdn.co/image/ab67616d0000b2736212858eea9adfcc88a1c255",
          "width" : 640
        }, {
          "height" : 300,
          "url" : "https://i.scdn.co/image/ab67616d00001e026212858eea9adfcc88a1c255",
          "width" : 300
        }, {
          "height" : 64,
          "url" : "https://i.scdn.co/image/ab67616d000048516212858eea9adfcc88a1c255",
          "width" : 64
        } ],
        "name" : "Christmas In The Aire",
        "release_date" : "2009-12-01",
        "release_date_precision" : "day",
        "total_tracks" : 12,
        "type" : "album",
        "uri" : "spotify:album:6rZjgpBfH2dEd7XTAqeWqN"
      },
      "artists" : [ {
        "external_urls" : {
          "spotify" : "https://open.spotify.com/artist/5Z7ndTqS6EPzpNn322s0Nw"
        },
        "href" : "https://api.spotify.com/v1/artists/5Z7ndTqS6EPzpNn322s0Nw",
        "id" : "5Z7ndTqS6EPzpNn322s0Nw",
        "name" : "Jaime Jorge",
        "type" : "artist",
        "uri" : "spotify:artist:5Z7ndTqS6EPzpNn322s0Nw"
      } ],
      "disc_number" : 1,
      "duration_ms" : 247200,
      "explicit" : false,
      "external_ids" : {
        "isrc" : "ushm91175504"
      },
      "external_urls" : {
        "spotify" : "https://open.spotify.com/track/0xabbxWKzObPnGh4bQiLLY"
      },
      "href" : "https://api.spotify.com/v1/tracks/0xabbxWKzObPnGh4bQiLLY",
      "id" : "0xabbxWKzObPnGh4bQiLLY",
      "is_local" : false,
      "is_playable" : true,
      "name" : "O Come, O Come, Immanuel",
      "popularity" : 4,
      "preview_url" : "https://p.scdn.co/mp3-preview/a0488d5ada205cdcff56ec663cfbd50caf5ba28b?cid=774b29d4f13844c495f206cafdad9c86",
      "track_number" : 7,
      "type" : "track",
      "uri" : "spotify:track:0xabbxWKzObPnGh4bQiLLY"
    }, {
      "album" : {
        "album_type" : "album",
        "artists" : [ {
          "external_urls" : {
            "spotify" : "https://open.spotify.com/artist/1S1AgYRq77YunmE3lvNEiO"
          },
          "href" : "https://api.spotify.com/v1/artists/1S1AgYRq77YunmE3lvNEiO",
          "id" : "1S1AgYRq77YunmE3lvNEiO",
          "name" : "David Masterson",
          "type" : "artist",
          "uri" : "spotify:artist:1S1AgYRq77YunmE3lvNEiO"
        } ],
        "external_urls" : {
          "spotify" : "https://open.spotify.com/album/0hB8ea31JHF29lpMOUVI27"
        },
        "href" : "https://api.spotify.com/v1/albums/0hB8ea31JHF29lpMOUVI27",
        "id" : "0hB8ea31JHF29lpMOUVI27",
        "images" : [ {
          "height" : 640,
          "url" : "https://i.scdn.co/image/ab67616d0000b273269ba3cc690eac89b9c300b3",
          "width" : 640
        }, {
          "height" : 300,
          "url" : "https://i.scdn.co/image/ab67616d00001e02269ba3cc690eac89b9c300b3",
          "width" : 300
        }, {
          "height" : 64,
          "url" : "https://i.scdn.co/image/ab67616d00004851269ba3cc690eac89b9c300b3",
          "width" : 64
        } ],
        "name" : "Winter Praise",
        "release_date" : "2012-12-05",
        "release_date_precision" : "day",
        "total_tracks" : 10,
        "type" : "album",
        "uri" : "spotify:album:0hB8ea31JHF29lpMOUVI27"
      },
      "artists" : [ {
        "external_urls" : {
          "spotify" : "https://open.spotify.com/artist/1S1AgYRq77YunmE3lvNEiO"
        },
        "href" : "https://api.spotify.com/v1/artists/1S1AgYRq77YunmE3lvNEiO",
        "id" : "1S1AgYRq77YunmE3lvNEiO",
        "name" : "David Masterson",
        "type" : "artist",
        "uri" : "spotify:artist:1S1AgYRq77YunmE3lvNEiO"
      } ],
      "disc_number" : 1,
      "duration_ms" : 248240,
      "explicit" : false,
      "external_ids" : {
        "isrc" : "usx9p1240215"
      },
      "external_urls" : {
        "spotify" : "https://open.spotify.com/track/2APD1cAMc55kt0xhIp7H6v"
      },
      "href" : "https://api.spotify.com/v1/tracks/2APD1cAMc55kt0xhIp7H6v",
      "id" : "2APD1cAMc55kt0xhIp7H6v",
      "is_local" : false,
      "is_playable" : true,
      "name" : "O Come O Come Immanuel",
      "popularity" : 0,
      "preview_url" : "https://p.scdn.co/mp3-preview/bfd921071dbcda8ce9773764a828ac9b9f4ac05c?cid=774b29d4f13844c495f206cafdad9c86",
      "track_number" : 6,
      "type" : "track",
      "uri" : "spotify:track:2APD1cAMc55kt0xhIp7H6v"
    }, {
      "album" : {
        "album_type" : "compilation",
        "artists" : [ {
          "external_urls" : {
            "spotify" : "https://open.spotify.com/artist/0LyfQWJT6nXafLPZqxe9Of"
          },
          "href" : "https://api.spotify.com/v1/artists/0LyfQWJT6nXafLPZqxe9Of",
          "id" : "0LyfQWJT6nXafLPZqxe9Of",
          "name" : "Various Artists",
          "type" : "artist",
          "uri" : "spotify:artist:0LyfQWJT6nXafLPZqxe9Of"
        } ],
        "external_urls" : {
          "spotify" : "https://open.spotify.com/album/7k8jXxuKffbrXRsE1SnFoE"
        },
        "href" : "https://api.spotify.com/v1/albums/7k8jXxuKffbrXRsE1SnFoE",
        "id" : "7k8jXxuKffbrXRsE1SnFoE",
        "images" : [ {
          "height" : 640,
          "url" : "https://i.scdn.co/image/f36bf9ef3ff328f31ca9e89c1d647ad969459b96",
          "width" : 640
        }, {
          "height" : 300,
          "url" : "https://i.scdn.co/image/9cd5e4eac16b0ecd7d2b01e072cbb4151fd2d34a",
          "width" : 300
        }, {
          "height" : 64,
          "url" : "https://i.scdn.co/image/110805a902c78dacd3b3cf22c76e6713bbf7bc0a",
          "width" : 64
        } ],
        "name" : "More Mistletoe Magic",
        "release_date" : "2007-06-19",
        "release_date_precision" : "day",
        "total_tracks" : 10,
        "type" : "album",
        "uri" : "spotify:album:7k8jXxuKffbrXRsE1SnFoE"
      },
      "artists" : [ {
        "external_urls" : {
          "spotify" : "https://open.spotify.com/artist/4rSNnSYhElaJVKXzax4Eov"
        },
        "href" : "https://api.spotify.com/v1/artists/4rSNnSYhElaJVKXzax4Eov",
        "id" : "4rSNnSYhElaJVKXzax4Eov",
        "name" : "David Friesen",
        "type" : "artist",
        "uri" : "spotify:artist:4rSNnSYhElaJVKXzax4Eov"
      }, {
        "external_urls" : {
          "spotify" : "https://open.spotify.com/artist/4ZuxBDZAUwfolsPhkqcTl2"
        },
        "href" : "https://api.spotify.com/v1/artists/4ZuxBDZAUwfolsPhkqcTl2",
        "id" : "4ZuxBDZAUwfolsPhkqcTl2",
        "name" : "Jeff Johnson",
        "type" : "artist",
        "uri" : "spotify:artist:4ZuxBDZAUwfolsPhkqcTl2"
      } ],
      "disc_number" : 1,
      "duration_ms" : 298533,
      "explicit" : false,
      "external_ids" : {
        "isrc" : "USRS60710264"
      },
      "external_urls" : {
        "spotify" : "https://open.spotify.com/track/5rg4e5ozWglNfUO4ft7q4o"
      },
      "href" : "https://api.spotify.com/v1/tracks/5rg4e5ozWglNfUO4ft7q4o",
      "id" : "5rg4e5ozWglNfUO4ft7q4o",
      "is_local" : false,
      "is_playable" : true,
      "name" : "O Come, O Come, Immanuel",
      "popularity" : 0,
      "preview_url" : "https://p.scdn.co/mp3-preview/2360e8b7781c4135ed6edd984f998e2c4f424bc0?cid=774b29d4f13844c495f206cafdad9c86",
      "track_number" : 3,
      "type" : "track",
      "uri" : "spotify:track:5rg4e5ozWglNfUO4ft7q4o"
    }, {
      "album" : {
        "album_type" : "album",
        "artists" : [ {
          "external_urls" : {
            "spotify" : "https://open.spotify.com/artist/5F7jX4OXPHntZyklC3Gjx8"
          },
          "href" : "https://api.spotify.com/v1/artists/5F7jX4OXPHntZyklC3Gjx8",
          "id" : "5F7jX4OXPHntZyklC3Gjx8",
          "name" : "Klaviermusik Akademie",
          "type" : "artist",
          "uri" : "spotify:artist:5F7jX4OXPHntZyklC3Gjx8"
        } ],
        "external_urls" : {
          "spotify" : "https://open.spotify.com/album/6fNmzBRfryotz4kg3EH3zo"
        },
        "href" : "https://api.spotify.com/v1/albums/6fNmzBRfryotz4kg3EH3zo",
        "id" : "6fNmzBRfryotz4kg3EH3zo",
        "images" : [ {
          "height" : 640,
          "url" : "https://i.scdn.co/image/ab67616d0000b273a870bf4744b46a169fe5be38",
          "width" : 640
        }, {
          "height" : 300,
          "url" : "https://i.scdn.co/image/ab67616d00001e02a870bf4744b46a169fe5be38",
          "width" : 300
        }, {
          "height" : 64,
          "url" : "https://i.scdn.co/image/ab67616d00004851a870bf4744b46a169fe5be38",
          "width" : 64
        } ],
        "name" : "Klaviermusik Weihnachtszeit",
        "release_date" : "2011-12-07",
        "release_date_precision" : "day",
        "total_tracks" : 33,
        "type" : "album",
        "uri" : "spotify:album:6fNmzBRfryotz4kg3EH3zo"
      },
      "artists" : [ {
        "external_urls" : {
          "spotify" : "https://open.spotify.com/artist/5F7jX4OXPHntZyklC3Gjx8"
        },
        "href" : "https://api.spotify.com/v1/artists/5F7jX4OXPHntZyklC3Gjx8",
        "id" : "5F7jX4OXPHntZyklC3Gjx8",
        "name" : "Klaviermusik Akademie",
        "type" : "artist",
        "uri" : "spotify:artist:5F7jX4OXPHntZyklC3Gjx8"
      } ],
      "disc_number" : 1,
      "duration_ms" : 103937,
      "explicit" : false,
      "external_ids" : {
        "isrc" : "ITO101168006"
      },
      "external_urls" : {
        "spotify" : "https://open.spotify.com/track/2ZZZmygeinQcb6p1jFTZFi"
      },
      "href" : "https://api.spotify.com/v1/tracks/2ZZZmygeinQcb6p1jFTZFi",
      "id" : "2ZZZmygeinQcb6p1jFTZFi",
      "is_local" : false,
      "is_playable" : true,
      "name" : "O Come, O Come Immanuel",
      "popularity" : 0,
      "preview_url" : "https://p.scdn.co/mp3-preview/035c9405131fb5f8376636a5990ee6d9bcec610e?cid=774b29d4f13844c495f206cafdad9c86",
      "track_number" : 32,
      "type" : "track",
      "uri" : "spotify:track:2ZZZmygeinQcb6p1jFTZFi"
    }, {
      "album" : {
        "album_type" : "album",
        "artists" : [ {
          "external_urls" : {
            "spotify" : "https://open.spotify.com/artist/4JTBoZtp1nxwKseE9TBmpR"
          },
          "href" : "https://api.spotify.com/v1/artists/4JTBoZtp1nxwKseE9TBmpR",
          "id" : "4JTBoZtp1nxwKseE9TBmpR",
          "name" : "Don Anderson",
          "type" : "artist",
          "uri" : "spotify:artist:4JTBoZtp1nxwKseE9TBmpR"
        } ],
        "external_urls" : {
          "spotify" : "https://open.spotify.com/album/04HgVkla37INmV4nH2HZ0w"
        },
        "href" : "https://api.spotify.com/v1/albums/04HgVkla37INmV4nH2HZ0w",
        "id" : "04HgVkla37INmV4nH2HZ0w",
        "images" : [ {
          "height" : 640,
          "url" : "https://i.scdn.co/image/ab67616d0000b273c01ce6696e26290fa394f5f0",
          "width" : 640
        }, {
          "height" : 300,
          "url" : "https://i.scdn.co/image/ab67616d00001e02c01ce6696e26290fa394f5f0",
          "width" : 300
        }, {
          "height" : 64,
          "url" : "https://i.scdn.co/image/ab67616d00004851c01ce6696e26290fa394f5f0",
          "width" : 64
        } ],
        "name" : "Easy Listening Christmas Music with Don Anderson",
        "release_date" : "2017-10-17",
        "release_date_precision" : "day",
        "total_tracks" : 20,
        "type" : "album",
        "uri" : "spotify:album:04HgVkla37INmV4nH2HZ0w"
      },
      "artists" : [ {
        "external_urls" : {
          "spotify" : "https://open.spotify.com/artist/4JTBoZtp1nxwKseE9TBmpR"
        },
        "href" : "https://api.spotify.com/v1/artists/4JTBoZtp1nxwKseE9TBmpR",
        "id" : "4JTBoZtp1nxwKseE9TBmpR",
        "name" : "Don Anderson",
        "type" : "artist",
        "uri" : "spotify:artist:4JTBoZtp1nxwKseE9TBmpR"
      } ],
      "disc_number" : 1,
      "duration_ms" : 98093,
      "explicit" : false,
      "external_ids" : {
        "isrc" : "ushm91742503"
      },
      "external_urls" : {
        "spotify" : "https://open.spotify.com/track/6NmQ4h5sCpKZkzyE8CX4WU"
      },
      "href" : "https://api.spotify.com/v1/tracks/6NmQ4h5sCpKZkzyE8CX4WU",
      "id" : "6NmQ4h5sCpKZkzyE8CX4WU",
      "is_local" : false,
      "is_playable" : true,
      "name" : "O Come, O Come Immanuel",
      "popularity" : 0,
      "preview_url" : "https://p.scdn.co/mp3-preview/dabc7e89155848c77e58581e2fd11c7b6d8e8f68?cid=774b29d4f13844c495f206cafdad9c86",
      "track_number" : 6,
      "type" : "track",
      "uri" : "spotify:track:6NmQ4h5sCpKZkzyE8CX4WU"
    } ],
    "limit" : 10,
    "next" : "https://api.spotify.com/v1/search?query=O+Come%2C+O+Come%2C+Immanuel&type=track&market=US&offset=15&limit=10",
    "offset" : 5,
    "previous" : "https://api.spotify.com/v1/search?query=O+Come%2C+O+Come%2C+Immanuel&type=track&market=US&offset=0&limit=10",
    "total" : 158
  }
}