{
  "tracks" : {
    "href" : "https://api.spotify.com/v1/search?query=Jesus+Saves&type=track&market=US&offset=5&limit=10",
    "items" : [ {
      "album" : {
        "album_type" : "album",
        "artists" : [ {
          "external_urls" : {
            "spotify" : "https://open.spotify.com/artist/01uI1SCsA0pLwWa2ENV6Gv"
          },
          "href" : "https://api.spotify.com/v1/artists/01uI1SCsA0pLwWa2ENV6Gv",
          "id" : "01uI1SCsA0pLwWa2ENV6Gv",
          "name" : "The Booth Brothers",
          "type" : "artist",
          "uri" : "spotify:artist:01uI1SCsA0pLwWa2ENV6Gv"
        } ],
        "external_urls" : {
          "spotify" : "https://open.spotify.com/album/3yYBYAheSocJTyNpAxo1tZ"
        },
        "href" : "https://api.spotify.com/v1/albums/3yYBYAheSocJTyNpAxo1tZ",
        "id" : "3yYBYAheSocJTyNpAxo1tZ",
        "images" : [ {
          "height" : 640,
          "url" : "https://i.scdn.co/image/ab67616d0000b273b3a3be0cfea45f1e81d5b771",
          "width" : 640
        }, {
          "height" : 300,
          "url" : "https://i.scdn.co/image/ab67616d00001e02b3a3be0cfea45f1e81d5b771",
          "width" : 300
        }, {
          "height" : 64,
          "url" : "https://i.scdn.co/image/ab67616d00004851b3a3be0cfea45f1e81d5b771",
          "width" : 64
        } ],
        "name" : "Still",
        "release_date" : "2015-07-31",
        "release_date_precision" : "day",
        "total_tracks" : 10,
        "type" : "album",
        "uri" : "spotify:album:3yYBYAheSocJTyNpAxo1tZ"
      },
      "artists" : [ {
        "external_urls" : {
          "spotify" : "https://open.spotify.com/artist/01uI1SCsA0pLwWa2ENV6Gv"
        },
        "href" : "https://api.spotify.com/v1/artists/01uI1SCsA0pLwWa2ENV6Gv",
        "id" : "01uI1SCsA0pLwWa2ENV6Gv",
        "name" : "The Booth Brothers",
        "type" : "artist",
        "uri" : "spotify:artist:01uI1SCsA0pLwWa2ENV6Gv"
      } ],
      "disc_number" : 1,
      "duration_ms" : 321413,
      "explicit" : false,
      "external_ids" : {
        "isrc" : "QM8WH1500010"
      },
      "external_urls" : {
        "spotify" : "https://open.spotify.com/track/6erUilj5sMexyx418yQgCM"
      },
      "href" : "https://api.spotify.com/v1/tracks/6erUilj5sMexyx418yQgCM",
      "id" : "6erUilj5sMexyx418yQgCM",
      "is_local" : false,
      "is_playable" : true,
      "name" : "Jesus Saves",
      "popularity" : 32,
      "preview_url" : null,
      "track_number" : 10,
      "type" : "track",
      "uri" : "spotify:track:6erUilj5sMexyx418yQgCM"
    }, {
      "album" : {
        "album_type" : "album",
        "artists" : [ {
          "external_urls" : {
            "spotify" : "https://open.spotify.com/artist/2bOMiPcHHX8Mk3B7azCSko"
          },
          "href" : "https://api.spotify.com/v1/artists/2bOMiPcHHX8Mk3B7azCSko",
          "id" : "2bOMiPcHHX8Mk3B7azCSko",
          "name" : "Steve Pettit Evangelistic Team",
          "type" : "artist",
          "uri" : "spotify:artist:2bOMiPcHHX8Mk3B7azCSko"
        } ],
        "external_urls" : {
          "spotify" : "https://open.spotify.com/album/4ZVyZhtNJ1f6jK2fMjqbpB"
        },
        "href" : "https://api.spotify.com/v1/albums/4ZVyZhtNJ1f6jK2fMjqbpB",
        "id" : "4ZVyZhtNJ1f6jK2fMjqbpB",
        "images" : [ {
          "height" : 640,
          "url" : "https://i.scdn.co/image/ab67616d0000b27399063bafd717caf2901bd458",
          "width" : 640
        }, {
          "height" : 300,
          "url" : "https://i.scdn.co/image/ab67616d00001e0299063bafd717caf2901bd458",
          "width" : 300
        }, {
          "height" : 64,
          "url" : "https://i.scdn.co/image/ab67616d0000485199063bafd717caf2901bd458",
          "width" : 64
        } ],
        "name" : "Before You Now",
        "release_date" : "2012-10-01",
        "release_date_precision" : "day",
        "total_tracks" : 12,
        "type" : "album",
        "uri" : "spotify:album:4ZVyZhtNJ1f6jK2fMjqbpB"
      },
      "artists" : [ {
        "external_urls" : {
          "spotify" : "https://open.spotify.com/artist/2bOMiPcHHX8Mk3B7azCSko"
        },
        "href" : "https://api.spotify.com/v1/artists/2bOMiPcHHX8Mk3B7azCSko",
        "id" : "2bOMiPcHHX8Mk3B7azCSko",
        "name" : "Steve Pettit Evangelistic Team",
        "type" : "artist",
        "uri" : "spotify:artist:2bOMiPcHHX8Mk3B7azCSko"
      } ],
      "disc_number" : 1,
      "duration_ms" : 209960,
      "explicit" : false,
      "external_ids" : {
        "isrc" : "ushm91226975"
      },
      "external_urls" : {
        "spotify" : "https://open.spotify.com/track/2DNbSeC5u04StesPt4xLrg"
      },
      "href" : "https://api.spotify.com/v1/tracks/2DNbSeC5u04StesPt4xLrg",
      "id" : "2DNbSeC5u04StesPt4xLrg",
      "is_local" : false,
      "is_playable" : true,
      "name" : "Jesus Saves",
      "popularity" : 29,
      "preview_url" : "https://p.scdn.co/mp3-preview/703e5facc51341b5b050baecadb120a34bb8876c?cid=774b29d4f13844c495f206cafdad9c86",
      "track_number" : 6,
      "type" : "track",
      "uri" : "spotify:track:2DNbSeC5u04StesPt4xLrg"
    }, {
      "album" : {
        "album_type" : "album",
        "artists" : [ {
          "external_urls" : {
            "spotify" : "https://open.spotify.com/artist/5bacVzt9GLSZEEjHKXwaEo"
          },
          "href" : "https://api.spotify.com/v1/artists/5bacVzt9GLSZEEjHKXwaEo",
          "id" : "5bacVzt9GLSZEEjHKXwaEo",
          "name" : "Marvin Winans And The Perfected Praise Choir",
          "type" : "artist",
          "uri" : "spotify:artist:5bacVzt9GLSZEEjHKXwaEo"
        } ],
        "external_urls" : {
          "spotify" : "https://open.spotify.com/album/5Y3JhsPmHYR31DRQOe4o96"
        },
        "href" : "https://api.spotify.com/v1/albums/5Y3JhsPmHYR31DRQOe4o96",
        "id" : "5Y3JhsPmHYR31DRQOe4o96",
        "images" : [ {
          "height" : 640,
          "url" : "https://i.scdn.co/image/ab67616d0000b273074f22aa0a1e5e0658319328",
          "width" : 640
        }, {
          "height" : 300,
          "url" : "https://i.scdn.co/image/ab67616d00001e02074f22aa0a1e5e0658319328",
          "width" : 300
        }, {
          "height" : 64,
          "url" : "https://i.scdn.co/image/ab67616d00004851074f22aa0a1e5e0658319328",
          "width" : 64
        } ],
        "name" : "Introducing Perfected Praise",
        "release_date" : "1992-11-17",
        "release_date_precision" : "day",
        "total_tracks" : 11,
        "type" : "album",
        "uri" : "spotify:album:5Y3JhsPmHYR31DRQOe4o96"
      },
      "artists" : [ {
        "external_urls" : {
          "spotify" : "https://open.spotify.com/artist/5bacVzt9GLSZEEjHKXwaEo"
        },
        "href" : "https://api.spotify.com/v1/artists/5bacVzt9GLSZEEjHKXwaEo",
        "id" : "5bacVzt9GLSZEEjHKXwaEo",
        "name" : "Marvin Winans And The Perfected Praise Choir",
        "type" : "artist",
        "uri" : "spotify:artist:5bacVzt9GLSZEEjHKXwaEo"
      } ],
      "disc_number" : 1,
      "duration_ms" : 541893,
      "explicit" : false,
      "external_ids" : {
        "isrc" : "USTC90985166"
      },
      "external_urls" : {
        "spotify" : "https://open.spotify.com/track/0ZHkUuCSPch90Levz43rW5"
      },
      "href" : "https://api.spotify.com/v1/tracks/0ZHkUuCSPch90Levz43rW5",
      "id" : "0ZHkUuCSPch90Levz43rW5",
      "is_local" : false,
      "is_playable" : true,
      "name" : "Jesus Saves",
      "popularity" : 24,
      "preview_url" : "https://p.scdn.co/mp3-preview/79aff3b9c92b01f46524a4999bfaa7609ae4fa40?cid=774b29d4f13844c495f206cafdad9c86",
      "track_number" : 10,
      "type" : "track",
      "uri" : "spotify:track:0ZHkUuCSPch90Levz43rW5"
    }, {
      "album" : {
        "album_type" : "album",
        "artists" : [ {
          "external_urls" : {
            "spotify" : "https://open.spotify.com/artist/2k7eX9JBghoFsvRljRzi01"
          },
          "href" : "https://api.spotify.com/v1/artists/2k7eX9JBghoFsvRljRzi01",
          "id" : "2k7eX9JBghoFsvRljRzi01",
          "name" : "Daryl Coley",
          "type" : "artist",
          "uri" : "spotify:artist:2k7eX9JBghoFsvRljRzi01"
        } ],
        "external_urls" : {
          "spotify" : "https://open.spotify.com/album/5yyCYkV9z1cDcw6cbKRCDT"
        },
        "href" : "https://api.spotify.com/v1/albums/5yyCYkV9z1cDcw6cbKRCDT",
        "id" : "5yyCYkV9z1cDcw6cbKRCDT",
        "images" : [ {
          "height" : 640,
          "url" : "https://i.scdn.co/image/ab67616d0000b273e1053d8a69936ef9ce6ba23d",
          "width" : 640
        }, {
          "height" : 300,
          "url" : "https://i.scdn.co/image/ab67616d00001e02e1053d8a69936ef9ce6ba23d",
          "width" : 300
        }, {
          "height" : 64,
          "url" : "https://i.scdn.co/image/ab67616d00004851e1053d8a69936ef9ce6ba23d",
          "width" : 64
        } ],
        "name" : "Praise & Worship",
        "release_date" : "1990",
        "release_date_precision" : "year",
        "total_tracks" : 14,
        "type" : "album",
        "uri" : "spotify:album:5yyCYkV9z1cDcw6cbKRCDT"
      },
      "artists" : [ {
        "external_urls" : {
          "spotify" : "https://open.spotify.com/artist/2k7eX9JBghoFsvRljRzi01"
        },
        "href" : "https://api.spotify.com/v1/artists/2k7eX9JBghoFsvRljRzi01",
        "id" : "2k7eX9JBghoFsvRljRzi01",
        "name" : "Daryl Coley",
        "type" : "artist",
        "uri" : "spotify:artist:2k7eX9JBghoFsvRljRzi01"
      } ],
      "disc_number" : 1,
      "duration_ms" : 298666,
      "explicit" : false,
      "external_ids" : {
        "isrc" : "USVE20200199"
      },
      "external_urls" : {
        "spotify" : "https://open.spotify.com/track/38Z6tJAwKJI6XI3Kf17dQ6"
      },
      "href" : "https://api.spotify.com/v1/tracks/38Z6tJAwKJI6XI3Kf17dQ6",
      "id" : "38Z6tJAwKJI6XI3Kf17dQ6",
      "is_local" : false,
      "is_playable" : true,
      "name" : "Jesus Saves",
      "popularity" : 22,
      "preview_url" : "https://p.scdn.co/mp3-preview/105d4c28dff1aea6c284e6067a34c26fa338e1bc?cid=774b29d4f13844c495f206cafdad9c86",
      "track_number" : 10,
      "type" : "track",
      "uri" : "spotify:track:38Z6tJAwKJI6XI3Kf17dQ6"
    }, {
      "album" : {
        "album_type" : "album",
        "artists" : [ {
          "external_urls" : {
            "spotify" : "https://open.spotify.com/artist/7bcbShaqKdcyjnmv4Ix8j6"
          },
          "href" : "https://api.spotify.com/v1/artists/7bcbShaqKdcyjnmv4Ix8j6",
          "id" : "7bcbShaqKdcyjnmv4Ix8j6",
          "name" : "St. Vincent",
          "type" : "artist",
          "uri" : "spotify:artist:7bcbShaqKdcyjnmv4Ix8j6"
        } ],
        "external_urls" : {
          "spotify" : "https://open.spotify.com/album/338T7GIYUEuyeeHeZnSJta"
        },
        "href" : "https://api.spotify.com/v1/albums/338T7GIYUEuyeeHeZnSJta",
        "id" : "338T7GIYUEuyeeHeZnSJta",
        "images" : [ {
          "height" : 640,
          "url" : "https://i.scdn.co/image/ab67616d0000b27329276161f08b49a5f02e8f97",
          "width" : 640
        }, {
          "height" : 300,
          "url" : "https://i.scdn.co/image/ab67616d00001e0229276161f08b49a5f02e8f97",
          "width" : 300
        }, {
          "height" : 64,
          "url" : "https://i.scdn.co/image/ab67616d0000485129276161f08b49a5f02e8f97",
          "width" : 64
        } ],
        "name" : "Marry Me",
        "release_date" : "2007-07-10",
        "release_date_precision" : "day",
        "total_tracks" : 11,
        "type" : "album",
        "uri" : "spotify:album:338T7GIYUEuyeeHeZnSJta"
      },
      "artists" : [ {
        "external_urls" : {
          "spotify" : "https://open.spotify.com/artist/7bcbShaqKdcyjnmv4Ix8j6"
        },
        "href" : "https://api.spotify.com/v1/artists/7bcbShaqKdcyjnmv4Ix8j6",
        "id" : "7bcbShaqKdcyjnmv4Ix8j6",
        "name" : "St. Vincent",
        "type" : "artist",
        "uri" : "spotify:artist:7bcbShaqKdcyjnmv4Ix8j6"
      } ],
      "disc_number" : 1,
      "duration_ms" : 236853,
      "explicit" : false,
      "external_ids" : {
        "isrc" : "GBAZP0700018"
      },
      "external_urls" : {
        "spotify" : "https://open.spotify.com/track/04qxUwz5hEe3LsYD1UJNeB"
      },
      "href" : "https://api.spotify.com/v1/tracks/04qxUwz5hEe3LsYD1UJNeB",
      "id" : "04qxUwz5hEe3LsYD1UJNeB",
      "is_local" : false,
      "is_playable" : true,
      "name" : "Jesus Saves, I Spend",
      "popularity" : 25,
      "preview_url" : "https://p.scdn.co/mp3-preview/9bdf18d2dc267eaecd6b0537003def2998939725?cid=774b29d4f13844c495f206cafdad9c86",
      "track_number" : 2,
      "type" : "track",
      "uri" : "spotify:track:04qxUwz5hEe3LsYD1UJNeB"
    }, {
      "album" : {
        "album_type" : "album",
        "artists" : [ {
          "external_urls" : {
            "spotify" : "https://open.spotify.com/artist/29YJnMJ7MoLKPM04siMnP5"
          },
          "href" : "https://api.spotify.com/v1/artists/29YJnMJ7MoLKPM04siMnP5",
          "id" : "29YJnMJ7MoLKPM04siMnP5",
          "name" : "Coffey Anderson",
          "type" : "artist",
          "uri" : "spotify:artist:29YJnMJ7MoLKPM04siMnP5"
        } ],
        "external_urls" : {
          "spotify" : "https://open.spotify.com/album/0LNmHHs49sHToICuw5Ufx2"
        },
        "href" : "https://api.spotify.com/v1/albums/0LNmHHs49sHToICuw5Ufx2",
        "id" : "0LNmHHs49sHToICuw5Ufx2",
        "images" : [ {
          "height" : 640,
          "url" : "https://i.scdn.co/image/ab67616d0000b273d2e62351c1ce4be5720e18a9",
          "width" : 640
        }, {
          "height" : 300,
          "url" : "https://i.scdn.co/image/ab67616d00001e02d2e62351c1ce4be5720e18a9",
          "width" : 300
        }, {
          "height" : 64,
          "url" : "https://i.scdn.co/image/ab67616d00004851d2e62351c1ce4be5720e18a9",
          "width" : 64
        } ],
        "name" : "God Is Enough",
        "release_date" : "2017-04-14",
        "release_date_precision" : "day",
        "total_tracks" : 10,
        "type" : "album",
        "uri" : "spotify:album:0LNmHHs49sHToICuw5Ufx2"
      },
      "artists" : [ {
        "external_urls" : {
          "spotify" : "https://open.spotify.com/artist/29YJnMJ7MoLKPM04siMnP5"
        },
        "href" : "https://api.spotify.com/v1/artists/29YJnMJ7MoLKPM04siMnP5",
        "id" : "29YJnMJ7MoLKPM04siMnP5",
        "name" : "Coffey Anderson",
        "type" : "artist",
        "uri" : "spotify:artist:29YJnMJ7MoLKPM04siMnP5"
      }, {
        "external_urls" : {
          "spotify" : "https://open.spotify.com/artist/1O1wRbwgQIxu6nl98Idrsl"
        },
        "href" : "https://api.spotify.com/v1/artists/1O1wRbwgQIxu6nl98Idrsl",
        "id" : "1O1wRbwgQIxu6nl98Idrsl",
        "name" : "Manwell",
        "type" : "artist",
        "uri" : "spotify:artist:1O1wRbwgQIxu6nl98Idrsl"
      } ],
      "disc_number" : 1,
      "duration_ms" : 223500,
      "explicit" : false,
      "external_ids" : {
        "isrc" : "QMPKX1723374"
      },
      "external_urls" : {
        "spotify" : "https://open.spotify.com/track/1sninGvCnbMVCX1BQggfQO"
      },
      "href" : "https://api.spotify.com/v1/tracks/1sninGvCnbMVCX1BQggfQO",
      "id" : "1sninGvCnbMVCX1BQggfQO",
      "is_local" : false,
      "is_playable" : true,
      "name" : "Jesus Saves",
      "popularity" : 19,
      "preview_url" : "https://p.scdn.co/mp3-preview/a53451e0b60a4e0a5f6032532db14cf30108615d?cid=774b29d4f13844c495f206cafdad9c86",
      "track_number" : 2,
      "type" : "track",
      "uri" : "spotify:track:1sninGvCnbMVCX1BQggfQO"
    }, {
      "album" : {
        "album_type" : "album",
        "artists" : [ {
          "external_urls" : {
            "spotify" : "https://open.spotify.com/artist/4q7PS6zi0CyrEo23orQCkW"
          },
          "href" : "https://api.spotify.com/v1/artists/4q7PS6zi0CyrEo23orQCkW",
          "id" : "4q7PS6zi0CyrEo23orQCkW",
          "name" : "Travis Cottrell",
          "type" : "artist",
          "uri" : "spotify:artist:4q7PS6zi0CyrEo23orQCkW"
        } ],
        "external_urls" : {
          "spotify" : "https://open.spotify.com/album/5W4GScFSyqp7l3g5QjapjW"
        },
        "href" : "https://api.spotify.com/v1/albums/5W4GScFSyqp7l3g5QjapjW",
        "id" : "5W4GScFSyqp7l3g5QjapjW",
        "images" : [ {
          "height" : 640,
          "url" : "https://i.scdn.co/image/ab67616d0000b273232c594ac14aea9d8046fff1",
          "width" : 640
        }, {
          "height" : 300,
          "url" : "https://i.scdn.co/image/ab67616d00001e02232c594ac14aea9d8046fff1",
          "width" : 300
        }, {
          "height" : 64,
          "url" : "https://i.scdn.co/image/ab67616d00004851232c594ac14aea9d8046fff1",
          "width" : 64
        } ],
        "name" : "Jesus Saves (Live)",
        "release_date" : "2016-03-11",
        "release_date_precision" : "day",
        "total_tracks" : 14,
        "type" : "album",
        "uri" : "spotify:album:5W4GScFSyqp7l3g5QjapjW"
      },
      "artists" : [ {
        "external_urls" : {
          "spotify" : "https://open.spotify.com/artist/4q7PS6zi0CyrEo23orQCkW"
        },
        "href" : "https://api.spotify.com/v1/artists/4q7PS6zi0CyrEo23orQCkW",
        "id" : "4q7PS6zi0CyrEo23orQCkW",
        "name" : "Travis Cottrell",
        "type" : "artist",
        "uri" : "spotify:artist:4q7PS6zi0CyrEo23orQCkW"
      } ],
      "disc_number" : 1,
      "duration_ms" : 260000,
      "explicit" : false,
      "external_ids" : {
        "isrc" : "uscgh1688702"
      },
      "external_urls" : {
        "spotify" : "https://open.spotify.com/track/01J2RdG1rJim2mR58D5oyA"
      },
      "href" : "https://api.spotify.com/v1/tracks/01J2RdG1rJim2mR58D5oyA",
      "id" : "01J2RdG1rJim2mR58D5oyA",
      "is_local" : false,
      "is_playable" : true,
      "name" : "Jesus Saves (Live)",
      "popularity" : 20,
      "preview_url" : "https://p.scdn.co/mp3-preview/929ec19af8804a2a2d24f9bef21945f396b11cc0?cid=774b29d4f13844c495f206cafdad9c86",
      "track_number" : 13,
      "type" : "track",
      "uri" : "spotify:track:01J2RdG1rJim2mR58D5oyA"
    }, {
      "album" : {
        "album_type" : "album",
        "artists" : [ {
          "external_urls" : {
            "spotify" : "https://open.spotify.com/artist/2LuUALONla8DJRSCiGONBp"
          },
          "href" : "https://api.spotify.com/v1/artists/2LuUALONla8DJRSCiGONBp",
          "id" : "2LuUALONla8DJRSCiGONBp",
          "name" : "Diggy",
          "type" : "artist",
          "uri" : "spotify:artist:2LuUALONla8DJRSCiGONBp"
        } ],
        "external_urls" : {
          "spotify" : "https://open.spotify.com/album/2cOUZ5AnAz7dCO2sdIg3Ic"
        },
        "href" : "https://api.spotify.com/v1/albums/2cOUZ5AnAz7dCO2sdIg3Ic",
        "id" : "2cOUZ5AnAz7dCO2sdIg3Ic",
        "images" : [ {
          "height" : 640,
          "url" : "https://i.scdn.co/image/ab67616d0000b27385317048ad6015fbd6288cfa",
          "width" : 640
        }, {
          "height" : 300,
          "url" : "https://i.scdn.co/image/ab67616d00001e0285317048ad6015fbd6288cfa",
          "width" : 300
        }, {
          "height" : 64,
          "url" : "https://i.scdn.co/image/ab67616d0000485185317048ad6015fbd6288cfa",
          "width" : 64
        } ],
        "name" : "Lighten Up",
        "release_date" : "2018-11-09",
        "release_date_precision" : "day",
        "total_tracks" : 8,
        "type" : "album",
        "uri" : "spotify:album:2cOUZ5AnAz7dCO2sdIg3Ic"
      },
      "artists" : [ {
        "external_urls" : {
          "spotify" : "https://open.spotify.com/artist/2LuUALONla8DJRSCiGONBp"
        },
        "href" : "https://api.spotify.com/v1/artists/2LuUALONla8DJRSCiGONBp",
        "id" : "2LuUALONla8DJRSCiGONBp",
        "name" : "Diggy",
        "type" : "artist",
        "uri" : "spotify:artist:2LuUALONla8DJRSCiGONBp"
      } ],
      "disc_number" : 1,
      "duration_ms" : 212046,
      "explicit" : true,
      "external_ids" : {
        "isrc" : "USUYG1225434"
      },
      "external_urls" : {
        "spotify" : "https://open.spotify.com/track/12QhBpYgyO3llIRC0WHTkq"
      },
      "href" : "https://api.spotify.com/v1/tracks/12QhBpYgyO3llIRC0WHTkq",
      "id" : "12QhBpYgyO3llIRC0WHTkq",
      "is_local" : false,
      "is_playable" : true,
      "name" : "Jesus Saves",
      "popularity" : 19,
      "preview_url" : "https://p.scdn.co/mp3-preview/d9e7833ccd70fe38673666d605c7aca8b87fdea0?cid=774b29d4f13844c495f206cafdad9c86",
      "track_number" : 2,
      "type" : "track",
      "uri" : "spotify:track:12QhBpYgyO3llIRC0WHTkq"
    }, {
      "album" : {
        "album_type" : "album",
        "artists" : [ {
          "external_urls" : {
            "spotify" : "https://open.spotify.com/artist/1IQ2e1buppatiN1bxUVkrk"
          },
          "href" : "https://api.spotify.com/v1/artists/1IQ2e1buppatiN1bxUVkrk",
          "id" : "1IQ2e1buppatiN1bxUVkrk",
          "name" : "Slayer",
          "type" : "artist",
          "uri" : "spotify:artist:1IQ2e1buppatiN1bxUVkrk"
        } ],
        "external_urls" : {
          "spotify" : "https://open.spotify.com/album/0x6sQPn26dKLzsmfLbXUG2"
        },
        "href" : "https://api.spotify.com/v1/albums/0x6sQPn26dKLzsmfLbXUG2",
        "id" : "0x6sQPn26dKLzsmfLbXUG2",
        "images" : [ {
          "height" : 640,
          "url" : "https://i.scdn.co/image/ab67616d0000b2730c3b93b8e3e116592d7b5b46",
          "width" : 640
        }, {
          "height" : 300,
          "url" : "https://i.scdn.co/image/ab67616d00001e020c3b93b8e3e116592d7b5b46",
          "width" : 300
        }, {
          "height" : 64,
          "url" : "https://i.scdn.co/image/ab67616d000048510c3b93b8e3e116592d7b5b46",
          "width" : 64
        } ],
        "name" : "Live: Decade Of Aggression",
        "release_date" : "1991-01-01",
        "release_date_precision" : "day",
        "total_tracks" : 21,
        "type" : "album",
        "uri" : "spotify:album:0x6sQPn26dKLzsmfLbXUG2"
      },
      "artists" : [ {
        "external_urls" : {
          "spotify" : "https://open.spotify.com/artist/1IQ2e1buppatiN1bxUVkrk"
        },
        "href" : "https://api.spotify.com/v1/artists/1IQ2e1buppatiN1bxUVkrk",
        "id" : "1IQ2e1buppatiN1bxUVkrk",
        "name" : "Slayer",
        "type" : "artist",
        "uri" : "spotify:artist:1IQ2e1buppatiN1bxUVkrk"
      } ],
      "disc_number" : 1,
      "duration_ms" : 174666,
      "explicit" : true,
      "external_ids" : {
        "isrc" : "USSM19100238"
      },
      "external_urls" : {
        "spotify" : "https://open.spotify.com/track/3KeF3KZpAAwLU7xUH7QdLN"
      },
      "href" : "https://api.spotify.com/v1/tracks/3KeF3KZpAAwLU7xUH7QdLN",
      "id" : "3KeF3KZpAAwLU7xUH7QdLN",
      "is_local" : false,
      "is_playable" : true,
      "name" : "Jesus Saves - Live At The Lakeland Coliseum / 1991",
      "popularity" : 24,
      "preview_url" : null,
      "track_number" : 7,
      "type" : "track",
      "uri" : "spotify:track:3KeF3KZpAAwLU7xUH7QdLN"
    }, {
      "album" : {
        "album_type" : "album",
        "artists" : [ {
          "external_urls" : {
            "spotify" : "https://open.spotify.com/artist/4V4LiXIFJ3wwD2TvPCkh46"
          },
          "href" : "https://api.spotify.com/v1/artists/4V4LiXIFJ3wwD2TvPCkh46",
          "id" : "4V4LiXIFJ3wwD2TvPCkh46",
          "name" : "West Coast Baptist College",
          "type" : "artist",
          "uri" : "spotify:artist:4V4LiXIFJ3wwD2TvPCkh46"
        } ],
        "external_urls" : {
          "spotify" : "https://open.spotify.com/album/1XgB6Lt5NjoU3Ndo7eG6Ty"
        },
        "href" : "https://api.spotify.com/v1/albums/1XgB6Lt5NjoU3Ndo7eG6Ty",
        "id" : "1XgB6Lt5NjoU3Ndo7eG6Ty",
        "images" : [ {
          "height" : 640,
          "url" : "https://i.scdn.co/image/ab67616d0000b27393e31584f3907a6abb61e154",
          "width" : 640
        }, {
          "height" : 300,
          "url" : "https://i.scdn.co/image/ab67616d00001e0293e31584f3907a6abb61e154",
          "width" : 300
        }, {
          "height" : 64,
          "url" : "https://i.scdn.co/image/ab67616d0000485193e31584f3907a6abb61e154",
          "width" : 64
        } ],
        "name" : "Because He Lives",
        "release_date" : "2018-05-01",
        "release_date_precision" : "day",
        "total_tracks" : 13,
        "type" : "album",
        "uri" : "spotify:album:1XgB6Lt5NjoU3Ndo7eG6Ty"
      },
      "artists" : [ {
        "external_urls" : {
          "spotify" : "https://open.spotify.com/artist/4V4LiXIFJ3wwD2TvPCkh46"
        },
        "href" : "https://api.spotify.com/v1/artists/4V4LiXIFJ3wwD2TvPCkh46",
        "id" : "4V4LiXIFJ3wwD2TvPCkh46",
        "name" : "West Coast Baptist College",
        "type" : "artist",
        "uri" : "spotify:artist:4V4LiXIFJ3wwD2TvPCkh46"
      } ],
      "disc_number" : 1,
      "duration_ms" : 250147,
      "explicit" : false,
      "external_ids" : {
        "isrc" : "usdy41833688"
      },
      "external_urls" : {
        "spotify" : "https://open.spotify.com/track/5on5ZVigeybaNAlwBneky3"
      },
      "href" : "https://api.spotify.com/v1/tracks/5on5ZVigeybaNAlwBneky3",
      "id" : "5on5ZVigeybaNAlwBneky3",
      "is_local" : false,
      "is_playable" : true,
      "name" : "Jesus Saves",
      "popularity" : 19,
      "preview_url" : "https://p.scdn.co/mp3-preview/a1c937057bc7d8f7c0af36c6bc5bcb944f434b94?cid=774b29d4f13844c495f206cafdad9c86",
      "track_number" : 13,
      "type" : "track",
      "uri" : "spotify:track:5on5ZVigeybaNAlwBneky3"
    } ],
    "limit" : 10,
    "next" : "https://api.spotify.com/v1/search?query=Jesus+Saves&type=track&market=US&offset=15&limit=10",
    "offset" : 5,
    "previous" : "https://api.spotify.com/v1/search?query=Jesus+Saves&type=track&market=US&offset=0&limit=10",
    "total" : 950
  }
}