{
  "tracks" : {
    "href" : "https://api.spotify.com/v1/search?query=When+We+All+Get+to+Heaven&type=track&market=US&offset=5&limit=10",
    "items" : [ {
      "album" : {
        "album_type" : "single",
        "artists" : [ {
          "external_urls" : {
            "spotify" : "https://open.spotify.com/artist/0bz9hDpUbAw5JElgEiuIYZ"
          },
          "href" : "https://api.spotify.com/v1/artists/0bz9hDpUbAw5JElgEiuIYZ",
          "id" : "0bz9hDpUbAw5JElgEiuIYZ",
          "name" : "Matt Redman",
          "type" : "artist",
          "uri" : "spotify:artist:0bz9hDpUbAw5JElgEiuIYZ"
        } ],
        "external_urls" : {
          "spotify" : "https://open.spotify.com/album/7e29saxIrdoJVfPJYpPtW7"
        },
        "href" : "https://api.spotify.com/v1/albums/7e29saxIrdoJVfPJYpPtW7",
        "id" : "7e29saxIrdoJVfPJYpPtW7",
        "images" : [ {
          "height" : 640,
          "url" : "https://i.scdn.co/image/ab67616d0000b2736b0e7f5755a966735c87349f",
          "width" : 640
        }, {
          "height" : 300,
          "url" : "https://i.scdn.co/image/ab67616d00001e026b0e7f5755a966735c87349f",
          "width" : 300
        }, {
          "height" : 64,
          "url" : "https://i.scdn.co/image/ab67616d000048516b0e7f5755a966735c87349f",
          "width" : 64
        } ],
        "name" : "One Day (When We All Get To Heaven) [Radio Version]",
        "release_date" : "2018-06-15",
        "release_date_precision" : "day",
        "total_tracks" : 1,
        "type" : "album",
        "uri" : "spotify:album:7e29saxIrdoJVfPJYpPtW7"
      },
      "artists" : [ {
        "external_urls" : {
          "spotify" : "https://open.spotify.com/artist/0bz9hDpUbAw5JElgEiuIYZ"
        },
        "href" : "https://api.spotify.com/v1/artists/0bz9hDpUbAw5JElgEiuIYZ",
        "id" : "0bz9hDpUbAw5JElgEiuIYZ",
        "name" : "Matt Redman",
        "type" : "artist",
        "uri" : "spotify:artist:0bz9hDpUbAw5JElgEiuIYZ"
      } ],
      "disc_number" : 1,
      "duration_ms" : 230026,
      "explicit" : false,
      "external_ids" : {
        "isrc" : "USUM71806773"
      },
      "external_urls" : {
        "spotify" : "https://open.spotify.com/track/1e2ShXB96jVtJfd3KemRXn"
      },
      "href" : "https://api.spotify.com/v1/tracks/1e2ShXB96jVtJfd3KemRXn",
      "id" : "1e2ShXB96jVtJfd3KemRXn",
      "is_local" : false,
      "is_playable" : true,
      "name" : "One Day (When We All Get To Heaven) - Radio Version",
      "popularity" : 47,
      "preview_url" : null,
      "track_number" : 1,
      "type" : "track",
      "uri" : "spotify:track:1e2ShXB96jVtJfd3KemRXn"
    }, {
      "album" : {
        "album_type" : "album",
        "artists" : [ {
          "external_urls" : {
            "spotify" : "https://open.spotify.com/artist/5WWuo8k0komiDBmtec6gHI"
          },
          "href" : "https://api.spotify.com/v1/artists/5WWuo8k0komiDBmtec6gHI",
          "id" : "5WWuo8k0komiDBmtec6gHI",
          "name" : "Lynda Randle",
          "type" : "artist",
          "uri" : "spotify:artist:5WWuo8k0komiDBmtec6gHI"
        } ],
        "external_urls" : {
          "spotify" : "https://open.spotify.com/album/2Gw2nyV2cZpWfQ1OLPeYeE"
        },
        "href" : "https://api.spotify.com/v1/albums/2Gw2nyV2cZpWfQ1OLPeYeE",
        "id" : "2Gw2nyV2cZpWfQ1OLPeYeE",
        "images" : [ {
          "height" : 640,
          "url" : "https://i.scdn.co/image/ab67616d0000b273166d8ad467f004b932aa4093",
          "width" : 640
        }, {
          "height" : 300,
          "url" : "https://i.scdn.co/image/ab67616d00001e02166d8ad467f004b932aa4093",
          "width" : 300
        }, {
          "height" : 64,
          "url" : "https://i.scdn.co/image/ab67616d00004851166d8ad467f004b932aa4093",
          "width" : 64
        } ],
        "name" : "The Ultimate Playlist",
        "release_date" : "2018-10-12",
        "release_date_precision" : "day",
        "total_tracks" : 35,
        "type" : "album",
        "uri" : "spotify:album:2Gw2nyV2cZpWfQ1OLPeYeE"
      },
      "artists" : [ {
        "external_urls" : {
          "spotify" : "https://open.spotify.com/artist/5WWuo8k0komiDBmtec6gHI"
        },
        "href" : "https://api.spotify.com/v1/artists/5WWuo8k0komiDBmtec6gHI",
        "id" : "5WWuo8k0komiDBmtec6gHI",
        "name" : "Lynda Randle",
        "type" : "artist",
        "uri" : "spotify:artist:5WWuo8k0komiDBmtec6gHI"
      } ],
      "disc_number" : 1,
      "duration_ms" : 226933,
      "explicit" : false,
      "external_ids" : {
        "isrc" : "US3270402413"
      },
      "external_urls" : {
        "spotify" : "https://open.spotify.com/track/6I249Z78unHKggq5uroHMj"
      },
      "href" : "https://api.spotify.com/v1/tracks/6I249Z78unHKggq5uroHMj",
      "id" : "6I249Z78unHKggq5uroHMj",
      "is_local" : false,
      "is_playable" : true,
      "name" : "When We All Get To Heaven - Live",
      "popularity" : 17,
      "preview_url" : null,
      "track_number" : 10,
      "type" : "track",
      "uri" : "spotify:track:6I249Z78unHKggq5uroHMj"
    }, {
      "album" : {
        "album_type" : "album",
        "artists" : [ {
          "external_urls" : {
            "spotify" : "https://open.spotify.com/artist/0bz9hDpUbAw5JElgEiuIYZ"
          },
          "href" : "https://api.spotify.com/v1/artists/0bz9hDpUbAw5JElgEiuIYZ",
          "id" : "0bz9hDpUbAw5JElgEiuIYZ",
          "name" : "Matt Redman",
          "type" : "artist",
          "uri" : "spotify:artist:0bz9hDpUbAw5JElgEiuIYZ"
        } ],
        "external_urls" : {
          "spotify" : "https://open.spotify.com/album/1NxngYgTVoZp0kDOe8EdDo"
        },
        "href" : "https://api.spotify.com/v1/albums/1NxngYgTVoZp0kDOe8EdDo",
        "id" : "1NxngYgTVoZp0kDOe8EdDo",
        "images" : [ {
          "height" : 640,
          "url" : "https://i.scdn.co/image/ab67616d0000b2734082ab8027b3afea2c89c391",
          "width" : 640
        }, {
          "height" : 300,
          "url" : "https://i.scdn.co/image/ab67616d00001e024082ab8027b3afea2c89c391",
          "width" : 300
        }, {
          "height" : 64,
          "url" : "https://i.scdn.co/image/ab67616d000048514082ab8027b3afea2c89c391",
          "width" : 64
        } ],
        "name" : "Glory Song",
        "release_date" : "2017-09-29",
        "release_date_precision" : "day",
        "total_tracks" : 13,
        "type" : "album",
        "uri" : "spotify:album:1NxngYgTVoZp0kDOe8EdDo"
      },
      "artists" : [ {
        "external_urls" : {
          "spotify" : "https://open.spotify.com/artist/0bz9hDpUbAw5JElgEiuIYZ"
        },
        "href" : "https://api.spotify.com/v1/artists/0bz9hDpUbAw5JElgEiuIYZ",
        "id" : "0bz9hDpUbAw5JElgEiuIYZ",
        "name" : "Matt Redman",
        "type" : "artist",
        "uri" : "spotify:artist:0bz9hDpUbAw5JElgEiuIYZ"
      } ],
      "disc_number" : 1,
      "duration_ms" : 342160,
      "explicit" : false,
      "external_ids" : {
        "isrc" : "USUM71708517"
      },
      "external_urls" : {
        "spotify" : "https://open.spotify.com/track/1JdjGLGkCBfFjgkwH4oVGd"
      },
      "href" : "https://api.spotify.com/v1/tracks/1JdjGLGkCBfFjgkwH4oVGd",
      "id" : "1JdjGLGkCBfFjgkwH4oVGd",
      "is_local" : false,
      "is_playable" : true,
      "name" : "One Day (When We All Get To Heaven)",
      "popularity" : 37,
      "preview_url" : null,
      "track_number" : 5,
      "type" : "track",
      "uri" : "spotify:track:1JdjGLGkCBfFjgkwH4oVGd"
    }, {
      "album" : {
        "album_type" : "compilation",
        "artists" : [ {
          "external_urls" : {
            "spotify" : "https://open.spotify.com/artist/1PCJfBD2SVVE8cGqpg1pC9"
          },
          "href" : "https://api.spotify.com/v1/artists/1PCJfBD2SVVE8cGqpg1pC9",
          "id" : "1PCJfBD2SVVE8cGqpg1pC9",
          "name" : "Hal Wright",
          "type" : "artist",
          "uri" : "spotify:artist:1PCJfBD2SVVE8cGqpg1pC9"
        } ],
        "external_urls" : {
          "spotify" : "https://open.spotify.com/album/56dWHx0V7Dq1JoMVaizLyv"
        },
        "href" : "https://api.spotify.com/v1/albums/56dWHx0V7Dq1JoMVaizLyv",
        "id" : "56dWHx0V7Dq1JoMVaizLyv",
        "images" : [ {
          "height" : 640,
          "url" : "https://i.scdn.co/image/ab67616d0000b2733096bb2f31858e62799a9e48",
          "width" : 640
        }, {
          "height" : 300,
          "url" : "https://i.scdn.co/image/ab67616d00001e023096bb2f31858e62799a9e48",
          "width" : 300
        }, {
          "height" : 64,
          "url" : "https://i.scdn.co/image/ab67616d000048513096bb2f31858e62799a9e48",
          "width" : 64
        } ],
        "name" : "Instrumental Hymns 2",
        "release_date" : "2020-05-22",
        "release_date_precision" : "day",
        "total_tracks" : 26,
        "type" : "album",
        "uri" : "spotify:album:56dWHx0V7Dq1JoMVaizLyv"
      },
      "artists" : [ {
        "external_urls" : {
          "spotify" : "https://open.spotify.com/artist/1PCJfBD2SVVE8cGqpg1pC9"
        },
        "href" : "https://api.spotify.com/v1/artists/1PCJfBD2SVVE8cGqpg1pC9",
        "id" : "1PCJfBD2SVVE8cGqpg1pC9",
        "name" : "Hal Wright",
        "type" : "artist",
        "uri" : "spotify:artist:1PCJfBD2SVVE8cGqpg1pC9"
      }, {
        "external_urls" : {
          "spotify" : "https://open.spotify.com/artist/5Aerx1PdoW4F5Yvrus4bDE"
        },
        "href" : "https://api.spotify.com/v1/artists/5Aerx1PdoW4F5Yvrus4bDE",
        "id" : "5Aerx1PdoW4F5Yvrus4bDE",
        "name" : "Twin Sisters",
        "type" : "artist",
        "uri" : "spotify:artist:5Aerx1PdoW4F5Yvrus4bDE"
      } ],
      "disc_number" : 1,
      "duration_ms" : 89746,
      "explicit" : false,
      "external_ids" : {
        "isrc" : "US6PD1903964"
      },
      "external_urls" : {
        "spotify" : "https://open.spotify.com/track/0rmKtJIXwFQuTzsXZpBSzb"
      },
      "href" : "https://api.spotify.com/v1/tracks/0rmKtJIXwFQuTzsXZpBSzb",
      "id" : "0rmKtJIXwFQuTzsXZpBSzb",
      "is_local" : false,
      "is_playable" : true,
      "name" : "When We All Get To Heaven",
      "popularity" : 0,
      "preview_url" : "https://p.scdn.co/mp3-preview/35a336335b91cb1c2fe67ef30b422fe2322f9897?cid=774b29d4f13844c495f206cafdad9c86",
      "track_number" : 3,
      "type" : "track",
      "uri" : "spotify:track:0rmKtJIXwFQuTzsXZpBSzb"
    }, {
      "album" : {
        "album_type" : "album",
        "artists" : [ {
          "external_urls" : {
            "spotify" : "https://open.spotify.com/artist/6BXJ73P2FCMksXko3ElG0y"
          },
          "href" : "https://api.spotify.com/v1/artists/6BXJ73P2FCMksXko3ElG0y",
          "id" : "6BXJ73P2FCMksXko3ElG0y",
          "name" : "LuWayne Arnold",
          "type" : "artist",
          "uri" : "spotify:artist:6BXJ73P2FCMksXko3ElG0y"
        } ],
        "external_urls" : {
          "spotify" : "https://open.spotify.com/album/6CpRIWJTKCNnfwSwXXAqzx"
        },
        "href" : "https://api.spotify.com/v1/albums/6CpRIWJTKCNnfwSwXXAqzx",
        "id" : "6CpRIWJTKCNnfwSwXXAqzx",
        "images" : [ {
          "height" : 640,
          "url" : "https://i.scdn.co/image/ab67616d0000b2731d2623798c3e1432e59eda1f",
          "width" : 640
        }, {
          "height" : 300,
          "url" : "https://i.scdn.co/image/ab67616d00001e021d2623798c3e1432e59eda1f",
          "width" : 300
        }, {
          "height" : 64,
          "url" : "https://i.scdn.co/image/ab67616d000048511d2623798c3e1432e59eda1f",
          "width" : 64
        } ],
        "name" : "America’s Favorite Gospel by LuWayne",
        "release_date" : "2020-05-23",
        "release_date_precision" : "day",
        "total_tracks" : 12,
        "type" : "album",
        "uri" : "spotify:album:6CpRIWJTKCNnfwSwXXAqzx"
      },
      "artists" : [ {
        "external_urls" : {
          "spotify" : "https://open.spotify.com/artist/6BXJ73P2FCMksXko3ElG0y"
        },
        "href" : "https://api.spotify.com/v1/artists/6BXJ73P2FCMksXko3ElG0y",
        "id" : "6BXJ73P2FCMksXko3ElG0y",
        "name" : "LuWayne Arnold",
        "type" : "artist",
        "uri" : "spotify:artist:6BXJ73P2FCMksXko3ElG0y"
      } ],
      "disc_number" : 1,
      "duration_ms" : 111493,
      "explicit" : false,
      "external_ids" : {
        "isrc" : "TCAEU2058654"
      },
      "external_urls" : {
        "spotify" : "https://open.spotify.com/track/4ILQ1oKCmFzv4cXdN5jwvB"
      },
      "href" : "https://api.spotify.com/v1/tracks/4ILQ1oKCmFzv4cXdN5jwvB",
      "id" : "4ILQ1oKCmFzv4cXdN5jwvB",
      "is_local" : false,
      "is_playable" : true,
      "name" : "When We All Get to Heaven",
      "popularity" : 0,
      "preview_url" : "https://p.scdn.co/mp3-preview/42e2d68107d0af8510aebad716648619504daaac?cid=774b29d4f13844c495f206cafdad9c86",
      "track_number" : 11,
      "type" : "track",
      "uri" : "spotify:track:4ILQ1oKCmFzv4cXdN5jwvB"
    }, {
      "album" : {
        "album_type" : "album",
        "artists" : [ {
          "external_urls" : {
            "spotify" : "https://open.spotify.com/artist/4mxWe1mtYIYfP040G38yvS"
          },
          "href" : "https://api.spotify.com/v1/artists/4mxWe1mtYIYfP040G38yvS",
          "id" : "4mxWe1mtYIYfP040G38yvS",
          "name" : "Alan Jackson",
          "type" : "artist",
          "uri" : "spotify:artist:4mxWe1mtYIYfP040G38yvS"
        } ],
        "external_urls" : {
          "spotify" : "https://open.spotify.com/album/3otkui6GGLYq0O1jD3obAo"
        },
        "href" : "https://api.spotify.com/v1/albums/3otkui6GGLYq0O1jD3obAo",
        "id" : "3otkui6GGLYq0O1jD3obAo",
        "images" : [ {
          "height" : 640,
          "url" : "https://i.scdn.co/image/ab67616d0000b273b0a36143ee09188135ee6973",
          "width" : 640
        }, {
          "height" : 300,
          "url" : "https://i.scdn.co/image/ab67616d00001e02b0a36143ee09188135ee6973",
          "width" : 300
        }, {
          "height" : 64,
          "url" : "https://i.scdn.co/image/ab67616d00004851b0a36143ee09188135ee6973",
          "width" : 64
        } ],
        "name" : "Precious Memories Collection",
        "release_date" : "2016-10-28",
        "release_date_precision" : "day",
        "total_tracks" : 28,
        "type" : "album",
        "uri" : "spotify:album:3otkui6GGLYq0O1jD3obAo"
      },
      "artists" : [ {
        "external_urls" : {
          "spotify" : "https://open.spotify.com/artist/4mxWe1mtYIYfP040G38yvS"
        },
        "href" : "https://api.spotify.com/v1/artists/4mxWe1mtYIYfP040G38yvS",
        "id" : "4mxWe1mtYIYfP040G38yvS",
        "name" : "Alan Jackson",
        "type" : "artist",
        "uri" : "spotify:artist:4mxWe1mtYIYfP040G38yvS"
      } ],
      "disc_number" : 2,
      "duration_ms" : 104080,
      "explicit" : false,
      "external_ids" : {
        "isrc" : "USCN11200043"
      },
      "external_urls" : {
        "spotify" : "https://open.spotify.com/track/3ZWVr4GAffvOzsLMTzS6qN"
      },
      "href" : "https://api.spotify.com/v1/tracks/3ZWVr4GAffvOzsLMTzS6qN",
      "id" : "3ZWVr4GAffvOzsLMTzS6qN",
      "is_local" : false,
      "is_playable" : true,
      "name" : "When We All Get To Heaven",
      "popularity" : 31,
      "preview_url" : null,
      "track_number" : 4,
      "type" : "track",
      "uri" : "spotify:track:3ZWVr4GAffvOzsLMTzS6qN"
    }, {
      "album" : {
        "album_type" : "album",
        "artists" : [ {
          "external_urls" : {
            "spotify" : "https://open.spotify.com/artist/60yKIk5WTQfPrkZPcdohVC"
          },
          "href" : "https://api.spotify.com/v1/artists/60yKIk5WTQfPrkZPcdohVC",
          "id" : "60yKIk5WTQfPrkZPcdohVC",
          "name" : "Triumphant Quartet",
          "type" : "artist",
          "uri" : "spotify:artist:60yKIk5WTQfPrkZPcdohVC"
        } ],
        "external_urls" : {
          "spotify" : "https://open.spotify.com/album/2CowaYNmO56liPLba4d0w0"
        },
        "href" : "https://api.spotify.com/v1/albums/2CowaYNmO56liPLba4d0w0",
        "id" : "2CowaYNmO56liPLba4d0w0",
        "images" : [ {
          "height" : 640,
          "url" : "https://i.scdn.co/image/ab67616d0000b273d030b0f3c0fc2a7a58facc39",
          "width" : 640
        }, {
          "height" : 300,
          "url" : "https://i.scdn.co/image/ab67616d00001e02d030b0f3c0fc2a7a58facc39",
          "width" : 300
        }, {
          "height" : 64,
          "url" : "https://i.scdn.co/image/ab67616d00004851d030b0f3c0fc2a7a58facc39",
          "width" : 64
        } ],
        "name" : "Hymns Collection",
        "release_date" : "2012-09-11",
        "release_date_precision" : "day",
        "total_tracks" : 15,
        "type" : "album",
        "uri" : "spotify:album:2CowaYNmO56liPLba4d0w0"
      },
      "artists" : [ {
        "external_urls" : {
          "spotify" : "https://open.spotify.com/artist/60yKIk5WTQfPrkZPcdohVC"
        },
        "href" : "https://api.spotify.com/v1/artists/60yKIk5WTQfPrkZPcdohVC",
        "id" : "60yKIk5WTQfPrkZPcdohVC",
        "name" : "Triumphant Quartet",
        "type" : "artist",
        "uri" : "spotify:artist:60yKIk5WTQfPrkZPcdohVC"
      } ],
      "disc_number" : 1,
      "duration_ms" : 124960,
      "explicit" : false,
      "external_ids" : {
        "isrc" : "ushm91209921"
      },
      "external_urls" : {
        "spotify" : "https://open.spotify.com/track/4ZEvXNX3z3qu9i2hcKk1kh"
      },
      "href" : "https://api.spotify.com/v1/tracks/4ZEvXNX3z3qu9i2hcKk1kh",
      "id" : "4ZEvXNX3z3qu9i2hcKk1kh",
      "is_local" : false,
      "is_playable" : true,
      "name" : "When We All Get to Heaven",
      "popularity" : 15,
      "preview_url" : "https://p.scdn.co/mp3-preview/3e2baa8fd12bc9991f67d5ecfe27184264c86a79?cid=774b29d4f13844c495f206cafdad9c86",
      "track_number" : 6,
      "type" : "track",
      "uri" : "spotify:track:4ZEvXNX3z3qu9i2hcKk1kh"
    }, {
      "album" : {
        "album_type" : "album",
        "artists" : [ {
          "external_urls" : {
            "spotify" : "https://open.spotify.com/artist/1nCT9uoN7dBI1vXtcGvE9m"
          },
          "href" : "https://api.spotify.com/v1/artists/1nCT9uoN7dBI1vXtcGvE9m",
          "id" : "1nCT9uoN7dBI1vXtcGvE9m",
          "name" : "Soul'd Out Quartet",
          "type" : "artist",
          "uri" : "spotify:artist:1nCT9uoN7dBI1vXtcGvE9m"
        } ],
        "external_urls" : {
          "spotify" : "https://open.spotify.com/album/1EZGE1bUrP9zrJjJsounax"
        },
        "href" : "https://api.spotify.com/v1/albums/1EZGE1bUrP9zrJjJsounax",
        "id" : "1EZGE1bUrP9zrJjJsounax",
        "images" : [ {
          "height" : 640,
          "url" : "https://i.scdn.co/image/ab67616d0000b27390738bb0d61f88932f1433d5",
          "width" : 640
        }, {
          "height" : 300,
          "url" : "https://i.scdn.co/image/ab67616d00001e0290738bb0d61f88932f1433d5",
          "width" : 300
        }, {
          "height" : 64,
          "url" : "https://i.scdn.co/image/ab67616d0000485190738bb0d61f88932f1433d5",
          "width" : 64
        } ],
        "name" : "Re-Soul'd, Vol. 3",
        "release_date" : "2014-01-01",
        "release_date_precision" : "day",
        "total_tracks" : 10,
        "type" : "album",
        "uri" : "spotify:album:1EZGE1bUrP9zrJjJsounax"
      },
      "artists" : [ {
        "external_urls" : {
          "spotify" : "https://open.spotify.com/artist/1nCT9uoN7dBI1vXtcGvE9m"
        },
        "href" : "https://api.spotify.com/v1/artists/1nCT9uoN7dBI1vXtcGvE9m",
        "id" : "1nCT9uoN7dBI1vXtcGvE9m",
        "name" : "Soul'd Out Quartet",
        "type" : "artist",
        "uri" : "spotify:artist:1nCT9uoN7dBI1vXtcGvE9m"
      } ],
      "disc_number" : 1,
      "duration_ms" : 226352,
      "explicit" : false,
      "external_ids" : {
        "isrc" : "uscgh1401018"
      },
      "external_urls" : {
        "spotify" : "https://open.spotify.com/track/0VTfgXcsakzn5xQYoM0g8o"
      },
      "href" : "https://api.spotify.com/v1/tracks/0VTfgXcsakzn5xQYoM0g8o",
      "id" : "0VTfgXcsakzn5xQYoM0g8o",
      "is_local" : false,
      "is_playable" : true,
      "name" : "Heaven Medley: When We All Get to Heaven, I Feel Like Traveling On, Victory Road",
      "popularity" : 15,
      "preview_url" : "https://p.scdn.co/mp3-preview/36950fbf965ec9f24e95a4813eb35f5ef3fe274c?cid=774b29d4f13844c495f206cafdad9c86",
      "track_number" : 1,
      "type" : "track",
      "uri" : "spotify:track:0VTfgXcsakzn5xQYoM0g8o"
    }, {
      "album" : {
        "album_type" : "compilation",
        "artists" : [ {
          "external_urls" : {
            "spotify" : "https://open.spotify.com/artist/0LyfQWJT6nXafLPZqxe9Of"
          },
          "href" : "https://api.spotify.com/v1/artists/0LyfQWJT6nXafLPZqxe9Of",
          "id" : "0LyfQWJT6nXafLPZqxe9Of",
          "name" : "Various Artists",
          "type" : "artist",
          "uri" : "spotify:artist:0LyfQWJT6nXafLPZqxe9Of"
        } ],
        "external_urls" : {
          "spotify" : "https://open.spotify.com/album/5q5T2QTyvv6lxUQSlRLXAe"
        },
        "href" : "https://api.spotify.com/v1/albums/5q5T2QTyvv6lxUQSlRLXAe",
        "id" : "5q5T2QTyvv6lxUQSlRLXAe",
        "images" : [ {
          "height" : 640,
          "url" : "https://i.scdn.co/image/ab67616d0000b27347af8963621d8ea73a64fb22",
          "width" : 640
        }, {
          "height" : 300,
          "url" : "https://i.scdn.co/image/ab67616d00001e0247af8963621d8ea73a64fb22",
          "width" : 300
        }, {
          "height" : 64,
          "url" : "https://i.scdn.co/image/ab67616d0000485147af8963621d8ea73a64fb22",
          "width" : 64
        } ],
        "name" : "30 Favorite Bluegrass Hymns: Instrumental Bluegrass Gospel Favorites",
        "release_date" : "2011-01-01",
        "release_date_precision" : "day",
        "total_tracks" : 30,
        "type" : "album",
        "uri" : "spotify:album:5q5T2QTyvv6lxUQSlRLXAe"
      },
      "artists" : [ {
        "external_urls" : {
          "spotify" : "https://open.spotify.com/artist/5OWt6MX85BzO7ydFi4IFYN"
        },
        "href" : "https://api.spotify.com/v1/artists/5OWt6MX85BzO7ydFi4IFYN",
        "id" : "5OWt6MX85BzO7ydFi4IFYN",
        "name" : "Mark Burchfield",
        "type" : "artist",
        "uri" : "spotify:artist:5OWt6MX85BzO7ydFi4IFYN"
      } ],
      "disc_number" : 1,
      "duration_ms" : 153480,
      "explicit" : false,
      "external_ids" : {
        "isrc" : "USB4U0650895"
      },
      "external_urls" : {
        "spotify" : "https://open.spotify.com/track/16IANdxPhvm4NICNUzf3XF"
      },
      "href" : "https://api.spotify.com/v1/tracks/16IANdxPhvm4NICNUzf3XF",
      "id" : "16IANdxPhvm4NICNUzf3XF",
      "is_local" : false,
      "is_playable" : true,
      "name" : "When We All Get To Heaven",
      "popularity" : 14,
      "preview_url" : null,
      "track_number" : 9,
      "type" : "track",
      "uri" : "spotify:track:16IANdxPhvm4NICNUzf3XF"
    }, {
      "album" : {
        "album_type" : "album",
        "artists" : [ {
          "external_urls" : {
            "spotify" : "https://open.spotify.com/artist/4B43yyRlfQgDEhDPq35wUc"
          },
          "href" : "https://api.spotify.com/v1/artists/4B43yyRlfQgDEhDPq35wUc",
          "id" : "4B43yyRlfQgDEhDPq35wUc",
          "name" : "The Collingsworth Family",
          "type" : "artist",
          "uri" : "spotify:artist:4B43yyRlfQgDEhDPq35wUc"
        } ],
        "external_urls" : {
          "spotify" : "https://open.spotify.com/album/4ukMv3zJ8tWmwuttaeOk4f"
        },
        "href" : "https://api.spotify.com/v1/albums/4ukMv3zJ8tWmwuttaeOk4f",
        "id" : "4ukMv3zJ8tWmwuttaeOk4f",
        "images" : [ {
          "height" : 640,
          "url" : "https://i.scdn.co/image/ab67616d0000b27370892f665c0955870ad99cae",
          "width" : 640
        }, {
          "height" : 300,
          "url" : "https://i.scdn.co/image/ab67616d00001e0270892f665c0955870ad99cae",
          "width" : 300
        }, {
          "height" : 64,
          "url" : "https://i.scdn.co/image/ab67616d0000485170892f665c0955870ad99cae",
          "width" : 64
        } ],
        "name" : "Hymns From Home",
        "release_date" : "2013-09-06",
        "release_date_precision" : "day",
        "total_tracks" : 18,
        "type" : "album",
        "uri" : "spotify:album:4ukMv3zJ8tWmwuttaeOk4f"
      },
      "artists" : [ {
        "external_urls" : {
          "spotify" : "https://open.spotify.com/artist/4B43yyRlfQgDEhDPq35wUc"
        },
        "href" : "https://api.spotify.com/v1/artists/4B43yyRlfQgDEhDPq35wUc",
        "id" : "4B43yyRlfQgDEhDPq35wUc",
        "name" : "The Collingsworth Family",
        "type" : "artist",
        "uri" : "spotify:artist:4B43yyRlfQgDEhDPq35wUc"
      } ],
      "disc_number" : 1,
      "duration_ms" : 114826,
      "explicit" : false,
      "external_ids" : {
        "isrc" : "USC5G1300228"
      },
      "external_urls" : {
        "spotify" : "https://open.spotify.com/track/00Q4NTlUnN6gWbXJva4XoD"
      },
      "href" : "https://api.spotify.com/v1/tracks/00Q4NTlUnN6gWbXJva4XoD",
      "id" : "00Q4NTlUnN6gWbXJva4XoD",
      "is_local" : false,
      "is_playable" : true,
      "name" : "When We All Get to Heaven",
      "popularity" : 17,
      "preview_url" : "https://p.scdn.co/mp3-preview/92eadd17b69c730c4f67d82fc70af32061400949?cid=774b29d4f13844c495f206cafdad9c86",
      "track_number" : 10,
      "type" : "track",
      "uri" : "spotify:track:00Q4NTlUnN6gWbXJva4XoD"
    } ],
    "limit" : 10,
    "next" : "https://api.spotify.com/v1/search?query=When+We+All+Get+to+Heaven&type=track&market=US&offset=15&limit=10",
    "offset" : 5,
    "previous" : "https://api.spotify.com/v1/search?query=When+We+All+Get+to+Heaven&type=track&market=US&offset=0&limit=10",
    "total" : 614
  }
}