{
  "tracks" : {
    "href" : "https://api.spotify.com/v1/search?query=My+Song+Is+Love+Unknown&type=track&market=US&offset=5&limit=10",
    "items" : [ {
      "album" : {
        "album_type" : "album",
        "artists" : [ {
          "external_urls" : {
            "spotify" : "https://open.spotify.com/artist/0zJMRRK3Kx6Sv6nTlq4nSX"
          },
          "href" : "https://api.spotify.com/v1/artists/0zJMRRK3Kx6Sv6nTlq4nSX",
          "id" : "0zJMRRK3Kx6Sv6nTlq4nSX",
          "name" : "The Forty Day Journey",
          "type" : "artist",
          "uri" : "spotify:artist:0zJMRRK3Kx6Sv6nTlq4nSX"
        } ],
        "external_urls" : {
          "spotify" : "https://open.spotify.com/album/3FkG6EKFbRNNX265o3fwwp"
        },
        "href" : "https://api.spotify.com/v1/albums/3FkG6EKFbRNNX265o3fwwp",
        "id" : "3FkG6EKFbRNNX265o3fwwp",
        "images" : [ {
          "height" : 640,
          "url" : "https://i.scdn.co/image/ab67616d0000b273898ba200bb416afe79c45791",
          "width" : 640
        }, {
          "height" : 300,
          "url" : "https://i.scdn.co/image/ab67616d00001e02898ba200bb416afe79c45791",
          "width" : 300
        }, {
          "height" : 64,
          "url" : "https://i.scdn.co/image/ab67616d00004851898ba200bb416afe79c45791",
          "width" : 64
        } ],
        "name" : "Lent",
        "release_date" : "2015-12-27",
        "release_date_precision" : "day",
        "total_tracks" : 20,
        "type" : "album",
        "uri" : "spotify:album:3FkG6EKFbRNNX265o3fwwp"
      },
      "artists" : [ {
        "external_urls" : {
          "spotify" : "https://open.spotify.com/artist/0zJMRRK3Kx6Sv6nTlq4nSX"
        },
        "href" : "https://api.spotify.com/v1/artists/0zJMRRK3Kx6Sv6nTlq4nSX",
        "id" : "0zJMRRK3Kx6Sv6nTlq4nSX",
        "name" : "The Forty Day Journey",
        "type" : "artist",
        "uri" : "spotify:artist:0zJMRRK3Kx6Sv6nTlq4nSX"
      } ],
      "disc_number" : 1,
      "duration_ms" : 108750,
      "explicit" : false,
      "external_ids" : {
        "isrc" : "USLZJ1597902"
      },
      "external_urls" : {
        "spotify" : "https://open.spotify.com/track/4vNrClVy910GOOaGpcn59K"
      },
      "href" : "https://api.spotify.com/v1/tracks/4vNrClVy910GOOaGpcn59K",
      "id" : "4vNrClVy910GOOaGpcn59K",
      "is_local" : false,
      "is_playable" : true,
      "name" : "My Song Is Love Unknown",
      "popularity" : 13,
      "preview_url" : "https://p.scdn.co/mp3-preview/e84457518ff584677466ea434a54290806f368ff?cid=774b29d4f13844c495f206cafdad9c86",
      "track_number" : 15,
      "type" : "track",
      "uri" : "spotify:track:4vNrClVy910GOOaGpcn59K"
    }, {
      "album" : {
        "album_type" : "album",
        "artists" : [ {
          "external_urls" : {
            "spotify" : "https://open.spotify.com/artist/6mGZXaZ4SWNh6IsJ57thCp"
          },
          "href" : "https://api.spotify.com/v1/artists/6mGZXaZ4SWNh6IsJ57thCp",
          "id" : "6mGZXaZ4SWNh6IsJ57thCp",
          "name" : "Fernando Ortega",
          "type" : "artist",
          "uri" : "spotify:artist:6mGZXaZ4SWNh6IsJ57thCp"
        } ],
        "external_urls" : {
          "spotify" : "https://open.spotify.com/album/6b5XytCLYrxIjlxTQgcoz7"
        },
        "href" : "https://api.spotify.com/v1/albums/6b5XytCLYrxIjlxTQgcoz7",
        "id" : "6b5XytCLYrxIjlxTQgcoz7",
        "images" : [ {
          "height" : 640,
          "url" : "https://i.scdn.co/image/ab67616d0000b273d93002fcb77598c2cf9b08c7",
          "width" : 640
        }, {
          "height" : 300,
          "url" : "https://i.scdn.co/image/ab67616d00001e02d93002fcb77598c2cf9b08c7",
          "width" : 300
        }, {
          "height" : 64,
          "url" : "https://i.scdn.co/image/ab67616d00004851d93002fcb77598c2cf9b08c7",
          "width" : 64
        } ],
        "name" : "BEGINNINGS - 2 CD Set",
        "release_date" : "2005-02-25",
        "release_date_precision" : "day",
        "total_tracks" : 34,
        "type" : "album",
        "uri" : "spotify:album:6b5XytCLYrxIjlxTQgcoz7"
      },
      "artists" : [ {
        "external_urls" : {
          "spotify" : "https://open.spotify.com/artist/6mGZXaZ4SWNh6IsJ57thCp"
        },
        "href" : "https://api.spotify.com/v1/artists/6mGZXaZ4SWNh6IsJ57thCp",
        "id" : "6mGZXaZ4SWNh6IsJ57thCp",
        "name" : "Fernando Ortega",
        "type" : "artist",
        "uri" : "spotify:artist:6mGZXaZ4SWNh6IsJ57thCp"
      } ],
      "disc_number" : 1,
      "duration_ms" : 308653,
      "explicit" : false,
      "external_ids" : {
        "isrc" : "ushm90539062"
      },
      "external_urls" : {
        "spotify" : "https://open.spotify.com/track/5Pn0hm7Xs7jNX6Fvl4BVAJ"
      },
      "href" : "https://api.spotify.com/v1/tracks/5Pn0hm7Xs7jNX6Fvl4BVAJ",
      "id" : "5Pn0hm7Xs7jNX6Fvl4BVAJ",
      "is_local" : false,
      "is_playable" : true,
      "name" : "My Song Is Love Unknown",
      "popularity" : 14,
      "preview_url" : "https://p.scdn.co/mp3-preview/25b0b445bc79501459cb279d57ab6c0e17cea980?cid=774b29d4f13844c495f206cafdad9c86",
      "track_number" : 19,
      "type" : "track",
      "uri" : "spotify:track:5Pn0hm7Xs7jNX6Fvl4BVAJ"
    }, {
      "album" : {
        "album_type" : "album",
        "artists" : [ {
          "external_urls" : {
            "spotify" : "https://open.spotify.com/artist/6mGZXaZ4SWNh6IsJ57thCp"
          },
          "href" : "https://api.spotify.com/v1/artists/6mGZXaZ4SWNh6IsJ57thCp",
          "id" : "6mGZXaZ4SWNh6IsJ57thCp",
          "name" : "Fernando Ortega",
          "type" : "artist",
          "uri" : "spotify:artist:6mGZXaZ4SWNh6IsJ57thCp"
        } ],
        "external_urls" : {
          "spotify" : "https://open.spotify.com/album/6E4yKCYbN1K1xbzM7P8T35"
        },
        "href" : "https://api.spotify.com/v1/albums/6E4yKCYbN1K1xbzM7P8T35",
        "id" : "6E4yKCYbN1K1xbzM7P8T35",
        "images" : [ {
          "height" : 640,
          "url" : "https://i.scdn.co/image/ab67616d0000b273b93b0717115a6b6fcf45c312",
          "width" : 640
        }, {
          "height" : 300,
          "url" : "https://i.scdn.co/image/ab67616d00001e02b93b0717115a6b6fcf45c312",
          "width" : 300
        }, {
          "height" : 64,
          "url" : "https://i.scdn.co/image/ab67616d00004851b93b0717115a6b6fcf45c312",
          "width" : 64
        } ],
        "name" : "Night Of Your Return",
        "release_date" : "2002",
        "release_date_precision" : "year",
        "total_tracks" : 12,
        "type" : "album",
        "uri" : "spotify:album:6E4yKCYbN1K1xbzM7P8T35"
      },
      "artists" : [ {
        "external_urls" : {
          "spotify" : "https://open.spotify.com/artist/6mGZXaZ4SWNh6IsJ57thCp"
        },
        "href" : "https://api.spotify.com/v1/artists/6mGZXaZ4SWNh6IsJ57thCp",
        "id" : "6mGZXaZ4SWNh6IsJ57thCp",
        "name" : "Fernando Ortega",
        "type" : "artist",
        "uri" : "spotify:artist:6mGZXaZ4SWNh6IsJ57thCp"
      } ],
      "disc_number" : 1,
      "duration_ms" : 309226,
      "explicit" : false,
      "external_ids" : {
        "isrc" : "ushm90539288"
      },
      "external_urls" : {
        "spotify" : "https://open.spotify.com/track/3chQF50WwDcuxyspcDcDIq"
      },
      "href" : "https://api.spotify.com/v1/tracks/3chQF50WwDcuxyspcDcDIq",
      "id" : "3chQF50WwDcuxyspcDcDIq",
      "is_local" : false,
      "is_playable" : true,
      "name" : "My Song Is Love Unknown",
      "popularity" : 9,
      "preview_url" : "https://p.scdn.co/mp3-preview/71586bcf82b2fb75fc3c72170839d83f62e0121c?cid=774b29d4f13844c495f206cafdad9c86",
      "track_number" : 1,
      "type" : "track",
      "uri" : "spotify:track:3chQF50WwDcuxyspcDcDIq"
    }, {
      "album" : {
        "album_type" : "album",
        "artists" : [ {
          "external_urls" : {
            "spotify" : "https://open.spotify.com/artist/5Nh5GEZY57C1D83PAyCnH9"
          },
          "href" : "https://api.spotify.com/v1/artists/5Nh5GEZY57C1D83PAyCnH9",
          "id" : "5Nh5GEZY57C1D83PAyCnH9",
          "name" : "Easter Hymns Band",
          "type" : "artist",
          "uri" : "spotify:artist:5Nh5GEZY57C1D83PAyCnH9"
        } ],
        "external_urls" : {
          "spotify" : "https://open.spotify.com/album/7JYvFXObhjwQhKqErZxCyU"
        },
        "href" : "https://api.spotify.com/v1/albums/7JYvFXObhjwQhKqErZxCyU",
        "id" : "7JYvFXObhjwQhKqErZxCyU",
        "images" : [ {
          "height" : 640,
          "url" : "https://i.scdn.co/image/ab67616d0000b2735f7146cfe16f78fe1c3d63dd",
          "width" : 640
        }, {
          "height" : 300,
          "url" : "https://i.scdn.co/image/ab67616d00001e025f7146cfe16f78fe1c3d63dd",
          "width" : 300
        }, {
          "height" : 64,
          "url" : "https://i.scdn.co/image/ab67616d000048515f7146cfe16f78fe1c3d63dd",
          "width" : 64
        } ],
        "name" : "20 Favourite Easter Hymns",
        "release_date" : "2007-02-09",
        "release_date_precision" : "day",
        "total_tracks" : 20,
        "type" : "album",
        "uri" : "spotify:album:7JYvFXObhjwQhKqErZxCyU"
      },
      "artists" : [ {
        "external_urls" : {
          "spotify" : "https://open.spotify.com/artist/5Nh5GEZY57C1D83PAyCnH9"
        },
        "href" : "https://api.spotify.com/v1/artists/5Nh5GEZY57C1D83PAyCnH9",
        "id" : "5Nh5GEZY57C1D83PAyCnH9",
        "name" : "Easter Hymns Band",
        "type" : "artist",
        "uri" : "spotify:artist:5Nh5GEZY57C1D83PAyCnH9"
      } ],
      "disc_number" : 1,
      "duration_ms" : 178640,
      "explicit" : false,
      "external_ids" : {
        "isrc" : "GBCBN0742709"
      },
      "external_urls" : {
        "spotify" : "https://open.spotify.com/track/6H3AlLIdyxFBT0uZ6gq9nZ"
      },
      "href" : "https://api.spotify.com/v1/tracks/6H3AlLIdyxFBT0uZ6gq9nZ",
      "id" : "6H3AlLIdyxFBT0uZ6gq9nZ",
      "is_local" : false,
      "is_playable" : true,
      "name" : "My Song Is Love Unknown",
      "popularity" : 12,
      "preview_url" : "https://p.scdn.co/mp3-preview/f9bd316d6baab4085bb7bbc1316499585fb3b609?cid=774b29d4f13844c495f206cafdad9c86",
      "track_number" : 9,
      "type" : "track",
      "uri" : "spotify:track:6H3AlLIdyxFBT0uZ6gq9nZ"
    }, {
      "album" : {
        "album_type" : "album",
        "artists" : [ {
          "external_urls" : {
            "spotify" : "https://open.spotify.com/artist/5zkmOYaXiNHBKxKnnd1rvl"
          },
          "href" : "https://api.spotify.com/v1/artists/5zkmOYaXiNHBKxKnnd1rvl",
          "id" : "5zkmOYaXiNHBKxKnnd1rvl",
          "name" : "John Keys",
          "type" : "artist",
          "uri" : "spotify:artist:5zkmOYaXiNHBKxKnnd1rvl"
        } ],
        "external_urls" : {
          "spotify" : "https://open.spotify.com/album/02EmfHKg4VGBnJeohNhKw0"
        },
        "href" : "https://api.spotify.com/v1/albums/02EmfHKg4VGBnJeohNhKw0",
        "id" : "02EmfHKg4VGBnJeohNhKw0",
        "images" : [ {
          "height" : 640,
          "url" : "https://i.scdn.co/image/ab67616d0000b2734f2ef9c6b551b8265cf4f2be",
          "width" : 640
        }, {
          "height" : 300,
          "url" : "https://i.scdn.co/image/ab67616d00001e024f2ef9c6b551b8265cf4f2be",
          "width" : 300
        }, {
          "height" : 64,
          "url" : "https://i.scdn.co/image/ab67616d000048514f2ef9c6b551b8265cf4f2be",
          "width" : 64
        } ],
        "name" : "Ultimate Hymn Organ Accompaniments, Vol. 8",
        "release_date" : "2013-04-22",
        "release_date_precision" : "day",
        "total_tracks" : 20,
        "type" : "album",
        "uri" : "spotify:album:02EmfHKg4VGBnJeohNhKw0"
      },
      "artists" : [ {
        "external_urls" : {
          "spotify" : "https://open.spotify.com/artist/5zkmOYaXiNHBKxKnnd1rvl"
        },
        "href" : "https://api.spotify.com/v1/artists/5zkmOYaXiNHBKxKnnd1rvl",
        "id" : "5zkmOYaXiNHBKxKnnd1rvl",
        "name" : "John Keys",
        "type" : "artist",
        "uri" : "spotify:artist:5zkmOYaXiNHBKxKnnd1rvl"
      } ],
      "disc_number" : 1,
      "duration_ms" : 283794,
      "explicit" : false,
      "external_ids" : {
        "isrc" : "GBKPL1355871"
      },
      "external_urls" : {
        "spotify" : "https://open.spotify.com/track/3o6ktF9d4eqkUYBvqawmUQ"
      },
      "href" : "https://api.spotify.com/v1/tracks/3o6ktF9d4eqkUYBvqawmUQ",
      "id" : "3o6ktF9d4eqkUYBvqawmUQ",
      "is_local" : false,
      "is_playable" : true,
      "name" : "My Song Is Love Unknown (Love Unknown) - Instrumental Version",
      "popularity" : 10,
      "preview_url" : "https://p.scdn.co/mp3-preview/019bffef8c6622c2875426b01386a5244c0747c5?cid=774b29d4f13844c495f206cafdad9c86",
      "track_number" : 20,
      "type" : "track",
      "uri" : "spotify:track:3o6ktF9d4eqkUYBvqawmUQ"
    }, {
      "album" : {
        "album_type" : "album",
        "artists" : [ {
          "external_urls" : {
            "spotify" : "https://open.spotify.com/artist/4YpvNNsBs2exKjLrOMSNbu"
          },
          "href" : "https://api.spotify.com/v1/artists/4YpvNNsBs2exKjLrOMSNbu",
          "id" : "4YpvNNsBs2exKjLrOMSNbu",
          "name" : "Frederick Guntermann",
          "type" : "artist",
          "uri" : "spotify:artist:4YpvNNsBs2exKjLrOMSNbu"
        } ],
        "external_urls" : {
          "spotify" : "https://open.spotify.com/album/5k2FvMsV0atPtstx3Zp6hz"
        },
        "href" : "https://api.spotify.com/v1/albums/5k2FvMsV0atPtstx3Zp6hz",
        "id" : "5k2FvMsV0atPtstx3Zp6hz",
        "images" : [ {
          "height" : 640,
          "url" : "https://i.scdn.co/image/ab67616d0000b273af0b5077f32faa5b0c9bdc1f",
          "width" : 640
        }, {
          "height" : 300,
          "url" : "https://i.scdn.co/image/ab67616d00001e02af0b5077f32faa5b0c9bdc1f",
          "width" : 300
        }, {
          "height" : 64,
          "url" : "https://i.scdn.co/image/ab67616d00004851af0b5077f32faa5b0c9bdc1f",
          "width" : 64
        } ],
        "name" : "Easter Hymns: Organ Accompaniments for Worship Service",
        "release_date" : "2018-06-27",
        "release_date_precision" : "day",
        "total_tracks" : 33,
        "type" : "album",
        "uri" : "spotify:album:5k2FvMsV0atPtstx3Zp6hz"
      },
      "artists" : [ {
        "external_urls" : {
          "spotify" : "https://open.spotify.com/artist/4YpvNNsBs2exKjLrOMSNbu"
        },
        "href" : "https://api.spotify.com/v1/artists/4YpvNNsBs2exKjLrOMSNbu",
        "id" : "4YpvNNsBs2exKjLrOMSNbu",
        "name" : "Frederick Guntermann",
        "type" : "artist",
        "uri" : "spotify:artist:4YpvNNsBs2exKjLrOMSNbu"
      } ],
      "disc_number" : 1,
      "duration_ms" : 148843,
      "explicit" : false,
      "external_ids" : {
        "isrc" : "GB-SMU-53-52511"
      },
      "external_urls" : {
        "spotify" : "https://open.spotify.com/track/4ne3dLl61iV2VgnjVoVqJq"
      },
      "href" : "https://api.spotify.com/v1/tracks/4ne3dLl61iV2VgnjVoVqJq",
      "id" : "4ne3dLl61iV2VgnjVoVqJq",
      "is_local" : false,
      "is_playable" : true,
      "name" : "My Song Is Love Unknown",
      "popularity" : 7,
      "preview_url" : "https://p.scdn.co/mp3-preview/7c61a5d0e83881b626e84d48099f4ac2ed566175?cid=774b29d4f13844c495f206cafdad9c86",
      "track_number" : 3,
      "type" : "track",
      "uri" : "spotify:track:4ne3dLl61iV2VgnjVoVqJq"
    }, {
      "album" : {
        "album_type" : "album",
        "artists" : [ {
          "external_urls" : {
            "spotify" : "https://open.spotify.com/artist/5C2dIwIuXbLy9O4iwhx6cz"
          },
          "href" : "https://api.spotify.com/v1/artists/5C2dIwIuXbLy9O4iwhx6cz",
          "id" : "5C2dIwIuXbLy9O4iwhx6cz",
          "name" : "Josh Bales",
          "type" : "artist",
          "uri" : "spotify:artist:5C2dIwIuXbLy9O4iwhx6cz"
        } ],
        "external_urls" : {
          "spotify" : "https://open.spotify.com/album/61oGAex5TR01eOwgW43Bu2"
        },
        "href" : "https://api.spotify.com/v1/albums/61oGAex5TR01eOwgW43Bu2",
        "id" : "61oGAex5TR01eOwgW43Bu2",
        "images" : [ {
          "height" : 640,
          "url" : "https://i.scdn.co/image/ab67616d0000b2737f38fd7d183c13c6848eb74e",
          "width" : 640
        }, {
          "height" : 300,
          "url" : "https://i.scdn.co/image/ab67616d00001e027f38fd7d183c13c6848eb74e",
          "width" : 300
        }, {
          "height" : 64,
          "url" : "https://i.scdn.co/image/ab67616d000048517f38fd7d183c13c6848eb74e",
          "width" : 64
        } ],
        "name" : "Come Away from Rush and Hurry",
        "release_date" : "2018-09-04",
        "release_date_precision" : "day",
        "total_tracks" : 10,
        "type" : "album",
        "uri" : "spotify:album:61oGAex5TR01eOwgW43Bu2"
      },
      "artists" : [ {
        "external_urls" : {
          "spotify" : "https://open.spotify.com/artist/5C2dIwIuXbLy9O4iwhx6cz"
        },
        "href" : "https://api.spotify.com/v1/artists/5C2dIwIuXbLy9O4iwhx6cz",
        "id" : "5C2dIwIuXbLy9O4iwhx6cz",
        "name" : "Josh Bales",
        "type" : "artist",
        "uri" : "spotify:artist:5C2dIwIuXbLy9O4iwhx6cz"
      } ],
      "disc_number" : 1,
      "duration_ms" : 205615,
      "explicit" : false,
      "external_ids" : {
        "isrc" : "TCADU1822076"
      },
      "external_urls" : {
        "spotify" : "https://open.spotify.com/track/2pxDXVH6bimJn6ndbbYuhN"
      },
      "href" : "https://api.spotify.com/v1/tracks/2pxDXVH6bimJn6ndbbYuhN",
      "id" : "2pxDXVH6bimJn6ndbbYuhN",
      "is_local" : false,
      "is_playable" : true,
      "name" : "My Song Is Love Unknown",
      "popularity" : 5,
      "preview_url" : "https://p.scdn.co/mp3-preview/595374db2c9dbf24d2d6bda953dc38cfbd48d081?cid=774b29d4f13844c495f206cafdad9c86",
      "track_number" : 8,
      "type" : "track",
      "uri" : "spotify:track:2pxDXVH6bimJn6ndbbYuhN"
    }, {
      "album" : {
        "album_type" : "album",
        "artists" : [ {
          "external_urls" : {
            "spotify" : "https://open.spotify.com/artist/7rluHfxLiKAkAoMkuE1F8U"
          },
          "href" : "https://api.spotify.com/v1/artists/7rluHfxLiKAkAoMkuE1F8U",
          "id" : "7rluHfxLiKAkAoMkuE1F8U",
          "name" : "St. Michael's Singers",
          "type" : "artist",
          "uri" : "spotify:artist:7rluHfxLiKAkAoMkuE1F8U"
        } ],
        "external_urls" : {
          "spotify" : "https://open.spotify.com/album/3VylNJs55Ct7UGwIHJpX2n"
        },
        "href" : "https://api.spotify.com/v1/albums/3VylNJs55Ct7UGwIHJpX2n",
        "id" : "3VylNJs55Ct7UGwIHJpX2n",
        "images" : [ {
          "height" : 640,
          "url" : "https://i.scdn.co/image/ab67616d0000b273d05a7748c0ac44931bad9b51",
          "width" : 640
        }, {
          "height" : 300,
          "url" : "https://i.scdn.co/image/ab67616d00001e02d05a7748c0ac44931bad9b51",
          "width" : 300
        }, {
          "height" : 64,
          "url" : "https://i.scdn.co/image/ab67616d00004851d05a7748c0ac44931bad9b51",
          "width" : 64
        } ],
        "name" : "The Hymn Makers: There Is a Green Hill Far Away (A Selection of Easter Hymns)",
        "release_date" : "2001",
        "release_date_precision" : "year",
        "total_tracks" : 14,
        "type" : "album",
        "uri" : "spotify:album:3VylNJs55Ct7UGwIHJpX2n"
      },
      "artists" : [ {
        "external_urls" : {
          "spotify" : "https://open.spotify.com/artist/7rluHfxLiKAkAoMkuE1F8U"
        },
        "href" : "https://api.spotify.com/v1/artists/7rluHfxLiKAkAoMkuE1F8U",
        "id" : "7rluHfxLiKAkAoMkuE1F8U",
        "name" : "St. Michael's Singers",
        "type" : "artist",
        "uri" : "spotify:artist:7rluHfxLiKAkAoMkuE1F8U"
      } ],
      "disc_number" : 1,
      "duration_ms" : 229493,
      "explicit" : false,
      "external_ids" : {
        "isrc" : "GBBTM0120803"
      },
      "external_urls" : {
        "spotify" : "https://open.spotify.com/track/0T3GOr8iTcW9rqazoDTdjf"
      },
      "href" : "https://api.spotify.com/v1/tracks/0T3GOr8iTcW9rqazoDTdjf",
      "id" : "0T3GOr8iTcW9rqazoDTdjf",
      "is_local" : false,
      "is_playable" : true,
      "name" : "My Song Is Love Unknown",
      "popularity" : 10,
      "preview_url" : "https://p.scdn.co/mp3-preview/8cbb096276d1535de5f74d9e5f49e7e421ebd220?cid=774b29d4f13844c495f206cafdad9c86",
      "track_number" : 3,
      "type" : "track",
      "uri" : "spotify:track:0T3GOr8iTcW9rqazoDTdjf"
    }, {
      "album" : {
        "album_type" : "compilation",
        "artists" : [ {
          "external_urls" : {
            "spotify" : "https://open.spotify.com/artist/0LyfQWJT6nXafLPZqxe9Of"
          },
          "href" : "https://api.spotify.com/v1/artists/0LyfQWJT6nXafLPZqxe9Of",
          "id" : "0LyfQWJT6nXafLPZqxe9Of",
          "name" : "Various Artists",
          "type" : "artist",
          "uri" : "spotify:artist:0LyfQWJT6nXafLPZqxe9Of"
        } ],
        "external_urls" : {
          "spotify" : "https://open.spotify.com/album/4CedK4dcXVQagB7CT8fZB1"
        },
        "href" : "https://api.spotify.com/v1/albums/4CedK4dcXVQagB7CT8fZB1",
        "id" : "4CedK4dcXVQagB7CT8fZB1",
        "images" : [ {
          "height" : 640,
          "url" : "https://i.scdn.co/image/ab67616d0000b273e4194d2c4905462046a3a250",
          "width" : 640
        }, {
          "height" : 300,
          "url" : "https://i.scdn.co/image/ab67616d00001e02e4194d2c4905462046a3a250",
          "width" : 300
        }, {
          "height" : 64,
          "url" : "https://i.scdn.co/image/ab67616d00004851e4194d2c4905462046a3a250",
          "width" : 64
        } ],
        "name" : "100 Best Hymns",
        "release_date" : "2011-03-29",
        "release_date_precision" : "day",
        "total_tracks" : 100,
        "type" : "album",
        "uri" : "spotify:album:4CedK4dcXVQagB7CT8fZB1"
      },
      "artists" : [ {
        "external_urls" : {
          "spotify" : "https://open.spotify.com/artist/0QzZLY6jZif9KbXnxaLIUV"
        },
        "href" : "https://api.spotify.com/v1/artists/0QzZLY6jZif9KbXnxaLIUV",
        "id" : "0QzZLY6jZif9KbXnxaLIUV",
        "name" : "John Ireland",
        "type" : "artist",
        "uri" : "spotify:artist:0QzZLY6jZif9KbXnxaLIUV"
      }, {
        "external_urls" : {
          "spotify" : "https://open.spotify.com/artist/0f3PsS9IQ6whvNMFFKnpjl"
        },
        "href" : "https://api.spotify.com/v1/artists/0f3PsS9IQ6whvNMFFKnpjl",
        "id" : "0f3PsS9IQ6whvNMFFKnpjl",
        "name" : "Choir of King's College, Cambridge",
        "type" : "artist",
        "uri" : "spotify:artist:0f3PsS9IQ6whvNMFFKnpjl"
      }, {
        "external_urls" : {
          "spotify" : "https://open.spotify.com/artist/0ugRf6ECGBFRCHlv9iG1No"
        },
        "href" : "https://api.spotify.com/v1/artists/0ugRf6ECGBFRCHlv9iG1No",
        "id" : "0ugRf6ECGBFRCHlv9iG1No",
        "name" : "Stephen Cleobury",
        "type" : "artist",
        "uri" : "spotify:artist:0ugRf6ECGBFRCHlv9iG1No"
      }, {
        "external_urls" : {
          "spotify" : "https://open.spotify.com/artist/7DWCdsikS7EF1kvCafcCFn"
        },
        "href" : "https://api.spotify.com/v1/artists/7DWCdsikS7EF1kvCafcCFn",
        "id" : "7DWCdsikS7EF1kvCafcCFn",
        "name" : "Thomas Williamson",
        "type" : "artist",
        "uri" : "spotify:artist:7DWCdsikS7EF1kvCafcCFn"
      } ],
      "disc_number" : 1,
      "duration_ms" : 207386,
      "explicit" : false,
      "external_ids" : {
        "isrc" : "GBAYC0002445"
      },
      "external_urls" : {
        "spotify" : "https://open.spotify.com/track/5UicW8D8B0oeD2PqXlJ5bL"
      },
      "href" : "https://api.spotify.com/v1/tracks/5UicW8D8B0oeD2PqXlJ5bL",
      "id" : "5UicW8D8B0oeD2PqXlJ5bL",
      "is_local" : false,
      "is_playable" : true,
      "name" : "My song is love unknown (Love Unknown)",
      "popularity" : 5,
      "preview_url" : "https://p.scdn.co/mp3-preview/1de64004f444d4f2c4c505db191284f50adace49?cid=774b29d4f13844c495f206cafdad9c86",
      "track_number" : 12,
      "type" : "track",
      "uri" : "spotify:track:5UicW8D8B0oeD2PqXlJ5bL"
    }, {
      "album" : {
        "album_type" : "single",
        "artists" : [ {
          "external_urls" : {
            "spotify" : "https://open.spotify.com/artist/6mGZXaZ4SWNh6IsJ57thCp"
          },
          "href" : "https://api.spotify.com/v1/artists/6mGZXaZ4SWNh6IsJ57thCp",
          "id" : "6mGZXaZ4SWNh6IsJ57thCp",
          "name" : "Fernando Ortega",
          "type" : "artist",
          "uri" : "spotify:artist:6mGZXaZ4SWNh6IsJ57thCp"
        } ],
        "external_urls" : {
          "spotify" : "https://open.spotify.com/album/2pOJC6RUZShVitzGyJgZEq"
        },
        "href" : "https://api.spotify.com/v1/albums/2pOJC6RUZShVitzGyJgZEq",
        "id" : "2pOJC6RUZShVitzGyJgZEq",
        "images" : [ {
          "height" : 640,
          "url" : "https://i.scdn.co/image/ab67616d0000b27391e060aff94ff5f1982416fb",
          "width" : 640
        }, {
          "height" : 300,
          "url" : "https://i.scdn.co/image/ab67616d00001e0291e060aff94ff5f1982416fb",
          "width" : 300
        }, {
          "height" : 64,
          "url" : "https://i.scdn.co/image/ab67616d0000485191e060aff94ff5f1982416fb",
          "width" : 64
        } ],
        "name" : "My Song Is Love Unknown",
        "release_date" : "2017-04-06",
        "release_date_precision" : "day",
        "total_tracks" : 1,
        "type" : "album",
        "uri" : "spotify:album:2pOJC6RUZShVitzGyJgZEq"
      },
      "artists" : [ {
        "external_urls" : {
          "spotify" : "https://open.spotify.com/artist/6mGZXaZ4SWNh6IsJ57thCp"
        },
        "href" : "https://api.spotify.com/v1/artists/6mGZXaZ4SWNh6IsJ57thCp",
        "id" : "6mGZXaZ4SWNh6IsJ57thCp",
        "name" : "Fernando Ortega",
        "type" : "artist",
        "uri" : "spotify:artist:6mGZXaZ4SWNh6IsJ57thCp"
      } ],
      "disc_number" : 1,
      "duration_ms" : 336226,
      "explicit" : false,
      "external_ids" : {
        "isrc" : "USTME1750163"
      },
      "external_urls" : {
        "spotify" : "https://open.spotify.com/track/3tq7BEEXp0SQCLkaEThjm3"
      },
      "href" : "https://api.spotify.com/v1/tracks/3tq7BEEXp0SQCLkaEThjm3",
      "id" : "3tq7BEEXp0SQCLkaEThjm3",
      "is_local" : false,
      "is_playable" : true,
      "name" : "My Song Is Love Unknown",
      "popularity" : 6,
      "preview_url" : "https://p.scdn.co/mp3-preview/656c5450e018144e2347ac85b5d4d1cf6d9d21c1?cid=774b29d4f13844c495f206cafdad9c86",
      "track_number" : 1,
      "type" : "track",
      "uri" : "spotify:track:3tq7BEEXp0SQCLkaEThjm3"
    } ],
    "limit" : 10,
    "next" : "https://api.spotify.com/v1/search?query=My+Song+Is+Love+Unknown&type=track&market=US&offset=15&limit=10",
    "offset" : 5,
    "previous" : "https://api.spotify.com/v1/search?query=My+Song+Is+Love+Unknown&type=track&market=US&offset=0&limit=10",
    "total" : 140
  }
}