{
  "tracks" : {
    "href" : "https://api.spotify.com/v1/search?query=Wonderful+Words+of+Life&type=track&market=US&offset=5&limit=10",
    "items" : [ {
      "album" : {
        "album_type" : "album",
        "artists" : [ {
          "external_urls" : {
            "spotify" : "https://open.spotify.com/artist/5Z7ndTqS6EPzpNn322s0Nw"
          },
          "href" : "https://api.spotify.com/v1/artists/5Z7ndTqS6EPzpNn322s0Nw",
          "id" : "5Z7ndTqS6EPzpNn322s0Nw",
          "name" : "Jaime Jorge",
          "type" : "artist",
          "uri" : "spotify:artist:5Z7ndTqS6EPzpNn322s0Nw"
        } ],
        "external_urls" : {
          "spotify" : "https://open.spotify.com/album/5GbSadBoBzlHzD4m8uNEqv"
        },
        "href" : "https://api.spotify.com/v1/albums/5GbSadBoBzlHzD4m8uNEqv",
        "id" : "5GbSadBoBzlHzD4m8uNEqv",
        "images" : [ {
          "height" : 640,
          "url" : "https://i.scdn.co/image/ab67616d0000b273d7acd13c5de68f1469b0f005",
          "width" : 640
        }, {
          "height" : 300,
          "url" : "https://i.scdn.co/image/ab67616d00001e02d7acd13c5de68f1469b0f005",
          "width" : 300
        }, {
          "height" : 64,
          "url" : "https://i.scdn.co/image/ab67616d00004851d7acd13c5de68f1469b0f005",
          "width" : 64
        } ],
        "name" : "Blessed Assurance",
        "release_date" : "2006",
        "release_date_precision" : "year",
        "total_tracks" : 12,
        "type" : "album",
        "uri" : "spotify:album:5GbSadBoBzlHzD4m8uNEqv"
      },
      "artists" : [ {
        "external_urls" : {
          "spotify" : "https://open.spotify.com/artist/5Z7ndTqS6EPzpNn322s0Nw"
        },
        "href" : "https://api.spotify.com/v1/artists/5Z7ndTqS6EPzpNn322s0Nw",
        "id" : "5Z7ndTqS6EPzpNn322s0Nw",
        "name" : "Jaime Jorge",
        "type" : "artist",
        "uri" : "spotify:artist:5Z7ndTqS6EPzpNn322s0Nw"
      } ],
      "disc_number" : 1,
      "duration_ms" : 184373,
      "explicit" : false,
      "external_ids" : {
        "isrc" : "usy280734556"
      },
      "external_urls" : {
        "spotify" : "https://open.spotify.com/track/2WGxFBrGRxvFmhO7JpjRaM"
      },
      "href" : "https://api.spotify.com/v1/tracks/2WGxFBrGRxvFmhO7JpjRaM",
      "id" : "2WGxFBrGRxvFmhO7JpjRaM",
      "is_local" : false,
      "is_playable" : true,
      "name" : "Wonderful Words Of Life",
      "popularity" : 20,
      "preview_url" : "https://p.scdn.co/mp3-preview/5814dcd5abebe6dabae42ddeb4a5010e1906c413?cid=774b29d4f13844c495f206cafdad9c86",
      "track_number" : 7,
      "type" : "track",
      "uri" : "spotify:track:2WGxFBrGRxvFmhO7JpjRaM"
    }, {
      "album" : {
        "album_type" : "album",
        "artists" : [ {
          "external_urls" : {
            "spotify" : "https://open.spotify.com/artist/0kR7XYMH583I9XyakShf9f"
          },
          "href" : "https://api.spotify.com/v1/artists/0kR7XYMH583I9XyakShf9f",
          "id" : "0kR7XYMH583I9XyakShf9f",
          "name" : "Jeffrey Althouse",
          "type" : "artist",
          "uri" : "spotify:artist:0kR7XYMH583I9XyakShf9f"
        } ],
        "external_urls" : {
          "spotify" : "https://open.spotify.com/album/1qfcFZwJNOwvRmYLPhp9Cg"
        },
        "href" : "https://api.spotify.com/v1/albums/1qfcFZwJNOwvRmYLPhp9Cg",
        "id" : "1qfcFZwJNOwvRmYLPhp9Cg",
        "images" : [ {
          "height" : 640,
          "url" : "https://i.scdn.co/image/ab67616d0000b273512c80d323bd5f2ae3ca091d",
          "width" : 640
        }, {
          "height" : 300,
          "url" : "https://i.scdn.co/image/ab67616d00001e02512c80d323bd5f2ae3ca091d",
          "width" : 300
        }, {
          "height" : 64,
          "url" : "https://i.scdn.co/image/ab67616d00004851512c80d323bd5f2ae3ca091d",
          "width" : 64
        } ],
        "name" : "Church Hymns of Worship Piano Accompaniments, Vol. 2",
        "release_date" : "2010-07-05",
        "release_date_precision" : "day",
        "total_tracks" : 41,
        "type" : "album",
        "uri" : "spotify:album:1qfcFZwJNOwvRmYLPhp9Cg"
      },
      "artists" : [ {
        "external_urls" : {
          "spotify" : "https://open.spotify.com/artist/0kR7XYMH583I9XyakShf9f"
        },
        "href" : "https://api.spotify.com/v1/artists/0kR7XYMH583I9XyakShf9f",
        "id" : "0kR7XYMH583I9XyakShf9f",
        "name" : "Jeffrey Althouse",
        "type" : "artist",
        "uri" : "spotify:artist:0kR7XYMH583I9XyakShf9f"
      } ],
      "disc_number" : 1,
      "duration_ms" : 138020,
      "explicit" : false,
      "external_ids" : {
        "isrc" : "USTCG1023241"
      },
      "external_urls" : {
        "spotify" : "https://open.spotify.com/track/3DBy8k3ZrgbF7IY45dwx5n"
      },
      "href" : "https://api.spotify.com/v1/tracks/3DBy8k3ZrgbF7IY45dwx5n",
      "id" : "3DBy8k3ZrgbF7IY45dwx5n",
      "is_local" : false,
      "is_playable" : true,
      "name" : "Wonderful Words of Life (Piano)",
      "popularity" : 17,
      "preview_url" : "https://p.scdn.co/mp3-preview/5121c73bb121c7735a97981fe19d80b3be993a63?cid=774b29d4f13844c495f206cafdad9c86",
      "track_number" : 41,
      "type" : "track",
      "uri" : "spotify:track:3DBy8k3ZrgbF7IY45dwx5n"
    }, {
      "album" : {
        "album_type" : "compilation",
        "artists" : [ {
          "external_urls" : {
            "spotify" : "https://open.spotify.com/artist/1PCJfBD2SVVE8cGqpg1pC9"
          },
          "href" : "https://api.spotify.com/v1/artists/1PCJfBD2SVVE8cGqpg1pC9",
          "id" : "1PCJfBD2SVVE8cGqpg1pC9",
          "name" : "Hal Wright",
          "type" : "artist",
          "uri" : "spotify:artist:1PCJfBD2SVVE8cGqpg1pC9"
        } ],
        "external_urls" : {
          "spotify" : "https://open.spotify.com/album/5oWBMNvHBpJEJbIuuWYIEO"
        },
        "href" : "https://api.spotify.com/v1/albums/5oWBMNvHBpJEJbIuuWYIEO",
        "id" : "5oWBMNvHBpJEJbIuuWYIEO",
        "images" : [ {
          "height" : 640,
          "url" : "https://i.scdn.co/image/ab67616d0000b273b27b0222733203b3fa0d9301",
          "width" : 640
        }, {
          "height" : 300,
          "url" : "https://i.scdn.co/image/ab67616d00001e02b27b0222733203b3fa0d9301",
          "width" : 300
        }, {
          "height" : 64,
          "url" : "https://i.scdn.co/image/ab67616d00004851b27b0222733203b3fa0d9301",
          "width" : 64
        } ],
        "name" : "Instrumental Hymns 1",
        "release_date" : "2020-05-22",
        "release_date_precision" : "day",
        "total_tracks" : 25,
        "type" : "album",
        "uri" : "spotify:album:5oWBMNvHBpJEJbIuuWYIEO"
      },
      "artists" : [ {
        "external_urls" : {
          "spotify" : "https://open.spotify.com/artist/1PCJfBD2SVVE8cGqpg1pC9"
        },
        "href" : "https://api.spotify.com/v1/artists/1PCJfBD2SVVE8cGqpg1pC9",
        "id" : "1PCJfBD2SVVE8cGqpg1pC9",
        "name" : "Hal Wright",
        "type" : "artist",
        "uri" : "spotify:artist:1PCJfBD2SVVE8cGqpg1pC9"
      }, {
        "external_urls" : {
          "spotify" : "https://open.spotify.com/artist/5Aerx1PdoW4F5Yvrus4bDE"
        },
        "href" : "https://api.spotify.com/v1/artists/5Aerx1PdoW4F5Yvrus4bDE",
        "id" : "5Aerx1PdoW4F5Yvrus4bDE",
        "name" : "Twin Sisters",
        "type" : "artist",
        "uri" : "spotify:artist:5Aerx1PdoW4F5Yvrus4bDE"
      } ],
      "disc_number" : 1,
      "duration_ms" : 108680,
      "explicit" : false,
      "external_ids" : {
        "isrc" : "US6PD1903957"
      },
      "external_urls" : {
        "spotify" : "https://open.spotify.com/track/3pdtJE1gHHnOBkgZHTiXHL"
      },
      "href" : "https://api.spotify.com/v1/tracks/3pdtJE1gHHnOBkgZHTiXHL",
      "id" : "3pdtJE1gHHnOBkgZHTiXHL",
      "is_local" : false,
      "is_playable" : true,
      "name" : "Wonderful Words Of Life",
      "popularity" : 0,
      "preview_url" : "https://p.scdn.co/mp3-preview/9746781d1ce6b88382744ffde1fde0d125ecd106?cid=774b29d4f13844c495f206cafdad9c86",
      "track_number" : 21,
      "type" : "track",
      "uri" : "spotify:track:3pdtJE1gHHnOBkgZHTiXHL"
    }, {
      "album" : {
        "album_type" : "album",
        "artists" : [ {
          "external_urls" : {
            "spotify" : "https://open.spotify.com/artist/11sAWrpIkFUPQlXoQqpeBV"
          },
          "href" : "https://api.spotify.com/v1/artists/11sAWrpIkFUPQlXoQqpeBV",
          "id" : "11sAWrpIkFUPQlXoQqpeBV",
          "name" : "Bill & Gloria Gaither",
          "type" : "artist",
          "uri" : "spotify:artist:11sAWrpIkFUPQlXoQqpeBV"
        } ],
        "external_urls" : {
          "spotify" : "https://open.spotify.com/album/4OYy5718s3tVrpk7KGEWpV"
        },
        "href" : "https://api.spotify.com/v1/albums/4OYy5718s3tVrpk7KGEWpV",
        "id" : "4OYy5718s3tVrpk7KGEWpV",
        "images" : [ {
          "height" : 640,
          "url" : "https://i.scdn.co/image/ab67616d0000b273f9e25753d77656726b91887e",
          "width" : 640
        }, {
          "height" : 300,
          "url" : "https://i.scdn.co/image/ab67616d00001e02f9e25753d77656726b91887e",
          "width" : 300
        }, {
          "height" : 64,
          "url" : "https://i.scdn.co/image/ab67616d00004851f9e25753d77656726b91887e",
          "width" : 64
        } ],
        "name" : "Church In The Wildwood",
        "release_date" : "2005-01-01",
        "release_date_precision" : "day",
        "total_tracks" : 21,
        "type" : "album",
        "uri" : "spotify:album:4OYy5718s3tVrpk7KGEWpV"
      },
      "artists" : [ {
        "external_urls" : {
          "spotify" : "https://open.spotify.com/artist/11sAWrpIkFUPQlXoQqpeBV"
        },
        "href" : "https://api.spotify.com/v1/artists/11sAWrpIkFUPQlXoQqpeBV",
        "id" : "11sAWrpIkFUPQlXoQqpeBV",
        "name" : "Bill & Gloria Gaither",
        "type" : "artist",
        "uri" : "spotify:artist:11sAWrpIkFUPQlXoQqpeBV"
      } ],
      "disc_number" : 1,
      "duration_ms" : 196520,
      "explicit" : false,
      "external_ids" : {
        "isrc" : "USNPD0714194"
      },
      "external_urls" : {
        "spotify" : "https://open.spotify.com/track/6dsvZvPuwbWujFbLFt4qDB"
      },
      "href" : "https://api.spotify.com/v1/tracks/6dsvZvPuwbWujFbLFt4qDB",
      "id" : "6dsvZvPuwbWujFbLFt4qDB",
      "is_local" : false,
      "is_playable" : true,
      "name" : "Wonderful Words Of Life",
      "popularity" : 14,
      "preview_url" : null,
      "track_number" : 18,
      "type" : "track",
      "uri" : "spotify:track:6dsvZvPuwbWujFbLFt4qDB"
    }, {
      "album" : {
        "album_type" : "single",
        "artists" : [ {
          "external_urls" : {
            "spotify" : "https://open.spotify.com/artist/3PM2Mavn4aG4UXgG07dxCg"
          },
          "href" : "https://api.spotify.com/v1/artists/3PM2Mavn4aG4UXgG07dxCg",
          "id" : "3PM2Mavn4aG4UXgG07dxCg",
          "name" : "Benny Hinn",
          "type" : "artist",
          "uri" : "spotify:artist:3PM2Mavn4aG4UXgG07dxCg"
        } ],
        "external_urls" : {
          "spotify" : "https://open.spotify.com/album/2z4rXcVvJoj61xJNKzdGkr"
        },
        "href" : "https://api.spotify.com/v1/albums/2z4rXcVvJoj61xJNKzdGkr",
        "id" : "2z4rXcVvJoj61xJNKzdGkr",
        "images" : [ {
          "height" : 640,
          "url" : "https://i.scdn.co/image/ab67616d0000b273131ef8ddd48daa7711e81349",
          "width" : 640
        }, {
          "height" : 300,
          "url" : "https://i.scdn.co/image/ab67616d00001e02131ef8ddd48daa7711e81349",
          "width" : 300
        }, {
          "height" : 64,
          "url" : "https://i.scdn.co/image/ab67616d00004851131ef8ddd48daa7711e81349",
          "width" : 64
        } ],
        "name" : "Wonderful Words of Life",
        "release_date" : "2005-05-04",
        "release_date_precision" : "day",
        "total_tracks" : 1,
        "type" : "album",
        "uri" : "spotify:album:2z4rXcVvJoj61xJNKzdGkr"
      },
      "artists" : [ {
        "external_urls" : {
          "spotify" : "https://open.spotify.com/artist/3PM2Mavn4aG4UXgG07dxCg"
        },
        "href" : "https://api.spotify.com/v1/artists/3PM2Mavn4aG4UXgG07dxCg",
        "id" : "3PM2Mavn4aG4UXgG07dxCg",
        "name" : "Benny Hinn",
        "type" : "artist",
        "uri" : "spotify:artist:3PM2Mavn4aG4UXgG07dxCg"
      } ],
      "disc_number" : 1,
      "duration_ms" : 3160607,
      "explicit" : false,
      "external_ids" : {
        "isrc" : "QZFZ41975054"
      },
      "external_urls" : {
        "spotify" : "https://open.spotify.com/track/5RSEzOtih81VwWK76EEX4h"
      },
      "href" : "https://api.spotify.com/v1/tracks/5RSEzOtih81VwWK76EEX4h",
      "id" : "5RSEzOtih81VwWK76EEX4h",
      "is_local" : false,
      "is_playable" : true,
      "name" : "Wonderful Words of Life",
      "popularity" : 16,
      "preview_url" : "https://p.scdn.co/mp3-preview/67ae605305637814a00c60aebe6522958a21a0a3?cid=774b29d4f13844c495f206cafdad9c86",
      "track_number" : 1,
      "type" : "track",
      "uri" : "spotify:track:5RSEzOtih81VwWK76EEX4h"
    }, {
      "album" : {
        "album_type" : "single",
        "artists" : [ {
          "external_urls" : {
            "spotify" : "https://open.spotify.com/artist/7kaoEfFtyk3jx2RaJQPbtC"
          },
          "href" : "https://api.spotify.com/v1/artists/7kaoEfFtyk3jx2RaJQPbtC",
          "id" : "7kaoEfFtyk3jx2RaJQPbtC",
          "name" : "Hymn Ideas",
          "type" : "artist",
          "uri" : "spotify:artist:7kaoEfFtyk3jx2RaJQPbtC"
        } ],
        "external_urls" : {
          "spotify" : "https://open.spotify.com/album/5NNElr1UTApqnGJkhk7IpC"
        },
        "href" : "https://api.spotify.com/v1/albums/5NNElr1UTApqnGJkhk7IpC",
        "id" : "5NNElr1UTApqnGJkhk7IpC",
        "images" : [ {
          "height" : 640,
          "url" : "https://i.scdn.co/image/ab67616d0000b27343895482fa5551679eff0697",
          "width" : 640
        }, {
          "height" : 300,
          "url" : "https://i.scdn.co/image/ab67616d00001e0243895482fa5551679eff0697",
          "width" : 300
        }, {
          "height" : 64,
          "url" : "https://i.scdn.co/image/ab67616d0000485143895482fa5551679eff0697",
          "width" : 64
        } ],
        "name" : "Hymn Drafts, Vol. 1",
        "release_date" : "2020-01-17",
        "release_date_precision" : "day",
        "total_tracks" : 5,
        "type" : "album",
        "uri" : "spotify:album:5NNElr1UTApqnGJkhk7IpC"
      },
      "artists" : [ {
        "external_urls" : {
          "spotify" : "https://open.spotify.com/artist/7kaoEfFtyk3jx2RaJQPbtC"
        },
        "href" : "https://api.spotify.com/v1/artists/7kaoEfFtyk3jx2RaJQPbtC",
        "id" : "7kaoEfFtyk3jx2RaJQPbtC",
        "name" : "Hymn Ideas",
        "type" : "artist",
        "uri" : "spotify:artist:7kaoEfFtyk3jx2RaJQPbtC"
      } ],
      "disc_number" : 1,
      "duration_ms" : 156000,
      "explicit" : false,
      "external_ids" : {
        "isrc" : "QZGWW2024916"
      },
      "external_urls" : {
        "spotify" : "https://open.spotify.com/track/0OoXUKCqkBjpCMMCW9Bv7q"
      },
      "href" : "https://api.spotify.com/v1/tracks/0OoXUKCqkBjpCMMCW9Bv7q",
      "id" : "0OoXUKCqkBjpCMMCW9Bv7q",
      "is_local" : false,
      "is_playable" : true,
      "name" : "Wonderful Words of Life - 286",
      "popularity" : 9,
      "preview_url" : "https://p.scdn.co/mp3-preview/0e99202458dde389ff78dc3c3bf289484a3c6cbe?cid=774b29d4f13844c495f206cafdad9c86",
      "track_number" : 3,
      "type" : "track",
      "uri" : "spotify:track:0OoXUKCqkBjpCMMCW9Bv7q"
    }, {
      "album" : {
        "album_type" : "album",
        "artists" : [ {
          "external_urls" : {
            "spotify" : "https://open.spotify.com/artist/01p7wcDseepC5krjJF9wr3"
          },
          "href" : "https://api.spotify.com/v1/artists/01p7wcDseepC5krjJF9wr3",
          "id" : "01p7wcDseepC5krjJF9wr3",
          "name" : "New Heights Quartet",
          "type" : "artist",
          "uri" : "spotify:artist:01p7wcDseepC5krjJF9wr3"
        } ],
        "external_urls" : {
          "spotify" : "https://open.spotify.com/album/1ieFFRqjbYDm0FIlekTh3a"
        },
        "href" : "https://api.spotify.com/v1/albums/1ieFFRqjbYDm0FIlekTh3a",
        "id" : "1ieFFRqjbYDm0FIlekTh3a",
        "images" : [ {
          "height" : 640,
          "url" : "https://i.scdn.co/image/ab67616d0000b273c9f424005c348ed6b751a43d",
          "width" : 640
        }, {
          "height" : 300,
          "url" : "https://i.scdn.co/image/ab67616d00001e02c9f424005c348ed6b751a43d",
          "width" : 300
        }, {
          "height" : 64,
          "url" : "https://i.scdn.co/image/ab67616d00004851c9f424005c348ed6b751a43d",
          "width" : 64
        } ],
        "name" : "Calmly Resting in the Lord",
        "release_date" : "2019-11-18",
        "release_date_precision" : "day",
        "total_tracks" : 12,
        "type" : "album",
        "uri" : "spotify:album:1ieFFRqjbYDm0FIlekTh3a"
      },
      "artists" : [ {
        "external_urls" : {
          "spotify" : "https://open.spotify.com/artist/01p7wcDseepC5krjJF9wr3"
        },
        "href" : "https://api.spotify.com/v1/artists/01p7wcDseepC5krjJF9wr3",
        "id" : "01p7wcDseepC5krjJF9wr3",
        "name" : "New Heights Quartet",
        "type" : "artist",
        "uri" : "spotify:artist:01p7wcDseepC5krjJF9wr3"
      } ],
      "disc_number" : 1,
      "duration_ms" : 135994,
      "explicit" : false,
      "external_ids" : {
        "isrc" : "usl4q1982849"
      },
      "external_urls" : {
        "spotify" : "https://open.spotify.com/track/1tX4srDqgOeruGiPojJoPR"
      },
      "href" : "https://api.spotify.com/v1/tracks/1tX4srDqgOeruGiPojJoPR",
      "id" : "1tX4srDqgOeruGiPojJoPR",
      "is_local" : false,
      "is_playable" : true,
      "name" : "Wonderful Words of Life",
      "popularity" : 9,
      "preview_url" : "https://p.scdn.co/mp3-preview/732af8a533812d6a52ef83727eb0787eab61cc7f?cid=774b29d4f13844c495f206cafdad9c86",
      "track_number" : 7,
      "type" : "track",
      "uri" : "spotify:track:1tX4srDqgOeruGiPojJoPR"
    }, {
      "album" : {
        "album_type" : "album",
        "artists" : [ {
          "external_urls" : {
            "spotify" : "https://open.spotify.com/artist/1MmubZDiFWXhOXz941cRRp"
          },
          "href" : "https://api.spotify.com/v1/artists/1MmubZDiFWXhOXz941cRRp",
          "id" : "1MmubZDiFWXhOXz941cRRp",
          "name" : "Our Daily Bread",
          "type" : "artist",
          "uri" : "spotify:artist:1MmubZDiFWXhOXz941cRRp"
        } ],
        "external_urls" : {
          "spotify" : "https://open.spotify.com/album/1rXuOoosy5TOjlHe1dy8VQ"
        },
        "href" : "https://api.spotify.com/v1/albums/1rXuOoosy5TOjlHe1dy8VQ",
        "id" : "1rXuOoosy5TOjlHe1dy8VQ",
        "images" : [ {
          "height" : 640,
          "url" : "https://i.scdn.co/image/ab67616d0000b27359e9049f1b339d22644a8385",
          "width" : 640
        }, {
          "height" : 300,
          "url" : "https://i.scdn.co/image/ab67616d00001e0259e9049f1b339d22644a8385",
          "width" : 300
        }, {
          "height" : 64,
          "url" : "https://i.scdn.co/image/ab67616d0000485159e9049f1b339d22644a8385",
          "width" : 64
        } ],
        "name" : "Our Daily Bread Hymns of Praise & Wonder and Hymns for the Wounded Heart",
        "release_date" : "2017-10-02",
        "release_date_precision" : "day",
        "total_tracks" : 20,
        "type" : "album",
        "uri" : "spotify:album:1rXuOoosy5TOjlHe1dy8VQ"
      },
      "artists" : [ {
        "external_urls" : {
          "spotify" : "https://open.spotify.com/artist/1MmubZDiFWXhOXz941cRRp"
        },
        "href" : "https://api.spotify.com/v1/artists/1MmubZDiFWXhOXz941cRRp",
        "id" : "1MmubZDiFWXhOXz941cRRp",
        "name" : "Our Daily Bread",
        "type" : "artist",
        "uri" : "spotify:artist:1MmubZDiFWXhOXz941cRRp"
      } ],
      "disc_number" : 1,
      "duration_ms" : 276741,
      "explicit" : false,
      "external_ids" : {
        "isrc" : "USLF51702297"
      },
      "external_urls" : {
        "spotify" : "https://open.spotify.com/track/1D3XBzizQHbu4T3eDpgeqW"
      },
      "href" : "https://api.spotify.com/v1/tracks/1D3XBzizQHbu4T3eDpgeqW",
      "id" : "1D3XBzizQHbu4T3eDpgeqW",
      "is_local" : false,
      "is_playable" : true,
      "name" : "Wonderful Words of Life",
      "popularity" : 15,
      "preview_url" : "https://p.scdn.co/mp3-preview/494f376816d22d0f78a205cd23e71fbfff9db898?cid=774b29d4f13844c495f206cafdad9c86",
      "track_number" : 7,
      "type" : "track",
      "uri" : "spotify:track:1D3XBzizQHbu4T3eDpgeqW"
    }, {
      "album" : {
        "album_type" : "album",
        "artists" : [ {
          "external_urls" : {
            "spotify" : "https://open.spotify.com/artist/5QSXj8YPKcFbwT0D7ZejLQ"
          },
          "href" : "https://api.spotify.com/v1/artists/5QSXj8YPKcFbwT0D7ZejLQ",
          "id" : "5QSXj8YPKcFbwT0D7ZejLQ",
          "name" : "The Ben Speer Singers",
          "type" : "artist",
          "uri" : "spotify:artist:5QSXj8YPKcFbwT0D7ZejLQ"
        } ],
        "external_urls" : {
          "spotify" : "https://open.spotify.com/album/63SmZrJcKA8N09lBnuHf0i"
        },
        "href" : "https://api.spotify.com/v1/albums/63SmZrJcKA8N09lBnuHf0i",
        "id" : "63SmZrJcKA8N09lBnuHf0i",
        "images" : [ {
          "height" : 640,
          "url" : "https://i.scdn.co/image/ab67616d0000b2731cd6296d061e6e8e45a8a5e8",
          "width" : 640
        }, {
          "height" : 300,
          "url" : "https://i.scdn.co/image/ab67616d00001e021cd6296d061e6e8e45a8a5e8",
          "width" : 300
        }, {
          "height" : 64,
          "url" : "https://i.scdn.co/image/ab67616d000048511cd6296d061e6e8e45a8a5e8",
          "width" : 64
        } ],
        "name" : "20 Campmeeting Classics - Volume 6",
        "release_date" : "2010-11-18",
        "release_date_precision" : "day",
        "total_tracks" : 20,
        "type" : "album",
        "uri" : "spotify:album:63SmZrJcKA8N09lBnuHf0i"
      },
      "artists" : [ {
        "external_urls" : {
          "spotify" : "https://open.spotify.com/artist/5QSXj8YPKcFbwT0D7ZejLQ"
        },
        "href" : "https://api.spotify.com/v1/artists/5QSXj8YPKcFbwT0D7ZejLQ",
        "id" : "5QSXj8YPKcFbwT0D7ZejLQ",
        "name" : "The Ben Speer Singers",
        "type" : "artist",
        "uri" : "spotify:artist:5QSXj8YPKcFbwT0D7ZejLQ"
      } ],
      "disc_number" : 1,
      "duration_ms" : 131133,
      "explicit" : false,
      "external_ids" : {
        "isrc" : "US4R31017862"
      },
      "external_urls" : {
        "spotify" : "https://open.spotify.com/track/5cdCJ6dK6KN5xjC8A0Eq5t"
      },
      "href" : "https://api.spotify.com/v1/tracks/5cdCJ6dK6KN5xjC8A0Eq5t",
      "id" : "5cdCJ6dK6KN5xjC8A0Eq5t",
      "is_local" : false,
      "is_playable" : true,
      "name" : "Wonderful Words of Life",
      "popularity" : 16,
      "preview_url" : "https://p.scdn.co/mp3-preview/dc4ef95769aef47757ab0729699b051be68aeb41?cid=774b29d4f13844c495f206cafdad9c86",
      "track_number" : 8,
      "type" : "track",
      "uri" : "spotify:track:5cdCJ6dK6KN5xjC8A0Eq5t"
    }, {
      "album" : {
        "album_type" : "album",
        "artists" : [ {
          "external_urls" : {
            "spotify" : "https://open.spotify.com/artist/1MmubZDiFWXhOXz941cRRp"
          },
          "href" : "https://api.spotify.com/v1/artists/1MmubZDiFWXhOXz941cRRp",
          "id" : "1MmubZDiFWXhOXz941cRRp",
          "name" : "Our Daily Bread",
          "type" : "artist",
          "uri" : "spotify:artist:1MmubZDiFWXhOXz941cRRp"
        } ],
        "external_urls" : {
          "spotify" : "https://open.spotify.com/album/7a4rwrE9cxQSl3tLFofyt4"
        },
        "href" : "https://api.spotify.com/v1/albums/7a4rwrE9cxQSl3tLFofyt4",
        "id" : "7a4rwrE9cxQSl3tLFofyt4",
        "images" : [ {
          "height" : 640,
          "url" : "https://i.scdn.co/image/ab67616d0000b273058cb1fdcb331d44668e2b9e",
          "width" : 640
        }, {
          "height" : 300,
          "url" : "https://i.scdn.co/image/ab67616d00001e02058cb1fdcb331d44668e2b9e",
          "width" : 300
        }, {
          "height" : 64,
          "url" : "https://i.scdn.co/image/ab67616d00004851058cb1fdcb331d44668e2b9e",
          "width" : 64
        } ],
        "name" : "Hymns of Assurance",
        "release_date" : "2006-05-16",
        "release_date_precision" : "day",
        "total_tracks" : 11,
        "type" : "album",
        "uri" : "spotify:album:7a4rwrE9cxQSl3tLFofyt4"
      },
      "artists" : [ {
        "external_urls" : {
          "spotify" : "https://open.spotify.com/artist/1MmubZDiFWXhOXz941cRRp"
        },
        "href" : "https://api.spotify.com/v1/artists/1MmubZDiFWXhOXz941cRRp",
        "id" : "1MmubZDiFWXhOXz941cRRp",
        "name" : "Our Daily Bread",
        "type" : "artist",
        "uri" : "spotify:artist:1MmubZDiFWXhOXz941cRRp"
      } ],
      "disc_number" : 1,
      "duration_ms" : 226600,
      "explicit" : false,
      "external_ids" : {
        "isrc" : "USDHM0603209"
      },
      "external_urls" : {
        "spotify" : "https://open.spotify.com/track/5RHebpOvvzyhJwQoaaedH6"
      },
      "href" : "https://api.spotify.com/v1/tracks/5RHebpOvvzyhJwQoaaedH6",
      "id" : "5RHebpOvvzyhJwQoaaedH6",
      "is_local" : false,
      "is_playable" : true,
      "name" : "Wonderful Words of Life",
      "popularity" : 9,
      "preview_url" : "https://p.scdn.co/mp3-preview/69daaf310ab03309dc4ddeecf313a57203e3adb6?cid=774b29d4f13844c495f206cafdad9c86",
      "track_number" : 6,
      "type" : "track",
      "uri" : "spotify:track:5RHebpOvvzyhJwQoaaedH6"
    } ],
    "limit" : 10,
    "next" : "https://api.spotify.com/v1/search?query=Wonderful+Words+of+Life&type=track&market=US&offset=15&limit=10",
    "offset" : 5,
    "previous" : "https://api.spotify.com/v1/search?query=Wonderful+Words+of+Life&type=track&market=US&offset=0&limit=10",
    "total" : 362
  }
}