{
  "tracks" : {
    "href" : "https://api.spotify.com/v1/search?query=What+Child+Is+This%3F&type=track&market=US&offset=5&limit=10",
    "items" : [ {
      "album" : {
        "album_type" : "album",
        "artists" : [ {
          "external_urls" : {
            "spotify" : "https://open.spotify.com/artist/0jW6R8CVyVohuUJVcuweDI"
          },
          "href" : "https://api.spotify.com/v1/artists/0jW6R8CVyVohuUJVcuweDI",
          "id" : "0jW6R8CVyVohuUJVcuweDI",
          "name" : "The Piano Guys",
          "type" : "artist",
          "uri" : "spotify:artist:0jW6R8CVyVohuUJVcuweDI"
        } ],
        "external_urls" : {
          "spotify" : "https://open.spotify.com/album/6l7eh2iJ25bUDYHFpMZLBM"
        },
        "href" : "https://api.spotify.com/v1/albums/6l7eh2iJ25bUDYHFpMZLBM",
        "id" : "6l7eh2iJ25bUDYHFpMZLBM",
        "images" : [ {
          "height" : 640,
          "url" : "https://i.scdn.co/image/ab67616d0000b2736bdbcfe41624fc6c8b250b0f",
          "width" : 640
        }, {
          "height" : 300,
          "url" : "https://i.scdn.co/image/ab67616d00001e026bdbcfe41624fc6c8b250b0f",
          "width" : 300
        }, {
          "height" : 64,
          "url" : "https://i.scdn.co/image/ab67616d000048516bdbcfe41624fc6c8b250b0f",
          "width" : 64
        } ],
        "name" : "Christmas Together",
        "release_date" : "2017-10-27",
        "release_date_precision" : "day",
        "total_tracks" : 12,
        "type" : "album",
        "uri" : "spotify:album:6l7eh2iJ25bUDYHFpMZLBM"
      },
      "artists" : [ {
        "external_urls" : {
          "spotify" : "https://open.spotify.com/artist/0jW6R8CVyVohuUJVcuweDI"
        },
        "href" : "https://api.spotify.com/v1/artists/0jW6R8CVyVohuUJVcuweDI",
        "id" : "0jW6R8CVyVohuUJVcuweDI",
        "name" : "The Piano Guys",
        "type" : "artist",
        "uri" : "spotify:artist:0jW6R8CVyVohuUJVcuweDI"
      } ],
      "disc_number" : 1,
      "duration_ms" : 178800,
      "explicit" : false,
      "external_ids" : {
        "isrc" : "USQX91701826"
      },
      "external_urls" : {
        "spotify" : "https://open.spotify.com/track/40LRZ7NA5Pv7PVgsV7sQW1"
      },
      "href" : "https://api.spotify.com/v1/tracks/40LRZ7NA5Pv7PVgsV7sQW1",
      "id" : "40LRZ7NA5Pv7PVgsV7sQW1",
      "is_local" : false,
      "is_playable" : true,
      "name" : "What Child is This",
      "popularity" : 32,
      "preview_url" : "https://p.scdn.co/mp3-preview/0909e560e1e1dfd7b57e975b708879757e9b5d46?cid=774b29d4f13844c495f206cafdad9c86",
      "track_number" : 5,
      "type" : "track",
      "uri" : "spotify:track:40LRZ7NA5Pv7PVgsV7sQW1"
    }, {
      "album" : {
        "album_type" : "single",
        "artists" : [ {
          "external_urls" : {
            "spotify" : "https://open.spotify.com/artist/5zhxxb24WP6q6rbLHAn2UQ"
          },
          "href" : "https://api.spotify.com/v1/artists/5zhxxb24WP6q6rbLHAn2UQ",
          "id" : "5zhxxb24WP6q6rbLHAn2UQ",
          "name" : "BYU Vocal Point",
          "type" : "artist",
          "uri" : "spotify:artist:5zhxxb24WP6q6rbLHAn2UQ"
        } ],
        "external_urls" : {
          "spotify" : "https://open.spotify.com/album/3aQZ10ux9DWCMkmW8Er0b9"
        },
        "href" : "https://api.spotify.com/v1/albums/3aQZ10ux9DWCMkmW8Er0b9",
        "id" : "3aQZ10ux9DWCMkmW8Er0b9",
        "images" : [ {
          "height" : 640,
          "url" : "https://i.scdn.co/image/ab67616d0000b27315f5f0693de3c8e828495627",
          "width" : 640
        }, {
          "height" : 300,
          "url" : "https://i.scdn.co/image/ab67616d00001e0215f5f0693de3c8e828495627",
          "width" : 300
        }, {
          "height" : 64,
          "url" : "https://i.scdn.co/image/ab67616d0000485115f5f0693de3c8e828495627",
          "width" : 64
        } ],
        "name" : "What Child Is This?",
        "release_date" : "2018-12-07",
        "release_date_precision" : "day",
        "total_tracks" : 1,
        "type" : "album",
        "uri" : "spotify:album:3aQZ10ux9DWCMkmW8Er0b9"
      },
      "artists" : [ {
        "external_urls" : {
          "spotify" : "https://open.spotify.com/artist/5zhxxb24WP6q6rbLHAn2UQ"
        },
        "href" : "https://api.spotify.com/v1/artists/5zhxxb24WP6q6rbLHAn2UQ",
        "id" : "5zhxxb24WP6q6rbLHAn2UQ",
        "name" : "BYU Vocal Point",
        "type" : "artist",
        "uri" : "spotify:artist:5zhxxb24WP6q6rbLHAn2UQ"
      } ],
      "disc_number" : 1,
      "duration_ms" : 230533,
      "explicit" : false,
      "external_ids" : {
        "isrc" : "USUM71820503"
      },
      "external_urls" : {
        "spotify" : "https://open.spotify.com/track/0iqlkEDYTQFMDclftabf7X"
      },
      "href" : "https://api.spotify.com/v1/tracks/0iqlkEDYTQFMDclftabf7X",
      "id" : "0iqlkEDYTQFMDclftabf7X",
      "is_local" : false,
      "is_playable" : true,
      "name" : "What Child Is This?",
      "popularity" : 25,
      "preview_url" : null,
      "track_number" : 1,
      "type" : "track",
      "uri" : "spotify:track:0iqlkEDYTQFMDclftabf7X"
    }, {
      "album" : {
        "album_type" : "album",
        "artists" : [ {
          "external_urls" : {
            "spotify" : "https://open.spotify.com/artist/6cXMpsP9x0SH4kFfMyVezF"
          },
          "href" : "https://api.spotify.com/v1/artists/6cXMpsP9x0SH4kFfMyVezF",
          "id" : "6cXMpsP9x0SH4kFfMyVezF",
          "name" : "Josh Groban",
          "type" : "artist",
          "uri" : "spotify:artist:6cXMpsP9x0SH4kFfMyVezF"
        } ],
        "external_urls" : {
          "spotify" : "https://open.spotify.com/album/4kqXw1yf9EKamws0zCarGt"
        },
        "href" : "https://api.spotify.com/v1/albums/4kqXw1yf9EKamws0zCarGt",
        "id" : "4kqXw1yf9EKamws0zCarGt",
        "images" : [ {
          "height" : 640,
          "url" : "https://i.scdn.co/image/ab67616d0000b273d5e8c6854f113f22c28be863",
          "width" : 640
        }, {
          "height" : 300,
          "url" : "https://i.scdn.co/image/ab67616d00001e02d5e8c6854f113f22c28be863",
          "width" : 300
        }, {
          "height" : 64,
          "url" : "https://i.scdn.co/image/ab67616d00004851d5e8c6854f113f22c28be863",
          "width" : 64
        } ],
        "name" : "Noël",
        "release_date" : "2007-10-09",
        "release_date_precision" : "day",
        "total_tracks" : 13,
        "type" : "album",
        "uri" : "spotify:album:4kqXw1yf9EKamws0zCarGt"
      },
      "artists" : [ {
        "external_urls" : {
          "spotify" : "https://open.spotify.com/artist/6cXMpsP9x0SH4kFfMyVezF"
        },
        "href" : "https://api.spotify.com/v1/artists/6cXMpsP9x0SH4kFfMyVezF",
        "id" : "6cXMpsP9x0SH4kFfMyVezF",
        "name" : "Josh Groban",
        "type" : "artist",
        "uri" : "spotify:artist:6cXMpsP9x0SH4kFfMyVezF"
      } ],
      "disc_number" : 1,
      "duration_ms" : 231933,
      "explicit" : false,
      "external_ids" : {
        "isrc" : "USRE10701715"
      },
      "external_urls" : {
        "spotify" : "https://open.spotify.com/track/3YV3ZrhT6fGPXQieT3Zsrp"
      },
      "href" : "https://api.spotify.com/v1/tracks/3YV3ZrhT6fGPXQieT3Zsrp",
      "id" : "3YV3ZrhT6fGPXQieT3Zsrp",
      "is_local" : false,
      "is_playable" : true,
      "name" : "What Child Is This?",
      "popularity" : 24,
      "preview_url" : "https://p.scdn.co/mp3-preview/f48bad14f9726a261e4c9f5353d6a668d28514e8?cid=774b29d4f13844c495f206cafdad9c86",
      "track_number" : 8,
      "type" : "track",
      "uri" : "spotify:track:3YV3ZrhT6fGPXQieT3Zsrp"
    }, {
      "album" : {
        "album_type" : "album",
        "artists" : [ {
          "external_urls" : {
            "spotify" : "https://open.spotify.com/artist/2X1SZFqImVgl59tWagfjcl"
          },
          "href" : "https://api.spotify.com/v1/artists/2X1SZFqImVgl59tWagfjcl",
          "id" : "2X1SZFqImVgl59tWagfjcl",
          "name" : "Marilyn Horne",
          "type" : "artist",
          "uri" : "spotify:artist:2X1SZFqImVgl59tWagfjcl"
        } ],
        "external_urls" : {
          "spotify" : "https://open.spotify.com/album/25HrKkgukW8C2N02e7uuFL"
        },
        "href" : "https://api.spotify.com/v1/albums/25HrKkgukW8C2N02e7uuFL",
        "id" : "25HrKkgukW8C2N02e7uuFL",
        "images" : [ {
          "height" : 640,
          "url" : "https://i.scdn.co/image/ab67616d0000b273216680aa28420c74ac83b721",
          "width" : 640
        }, {
          "height" : 300,
          "url" : "https://i.scdn.co/image/ab67616d00001e02216680aa28420c74ac83b721",
          "width" : 300
        }, {
          "height" : 64,
          "url" : "https://i.scdn.co/image/ab67616d00004851216680aa28420c74ac83b721",
          "width" : 64
        } ],
        "name" : "O Holy Night: Christmas With Marilyn Horne and The Mormon Tabernacle Choir",
        "release_date" : "1960",
        "release_date_precision" : "year",
        "total_tracks" : 17,
        "type" : "album",
        "uri" : "spotify:album:25HrKkgukW8C2N02e7uuFL"
      },
      "artists" : [ {
        "external_urls" : {
          "spotify" : "https://open.spotify.com/artist/2duo4NJtUrLaI38trK0hht"
        },
        "href" : "https://api.spotify.com/v1/artists/2duo4NJtUrLaI38trK0hht",
        "id" : "2duo4NJtUrLaI38trK0hht",
        "name" : "Mormon Tabernacle Choir",
        "type" : "artist",
        "uri" : "spotify:artist:2duo4NJtUrLaI38trK0hht"
      } ],
      "disc_number" : 1,
      "duration_ms" : 222986,
      "explicit" : false,
      "external_ids" : {
        "isrc" : "USSM10503710"
      },
      "external_urls" : {
        "spotify" : "https://open.spotify.com/track/6PtzDFf5LbDUqZdQKvx13U"
      },
      "href" : "https://api.spotify.com/v1/tracks/6PtzDFf5LbDUqZdQKvx13U",
      "id" : "6PtzDFf5LbDUqZdQKvx13U",
      "is_local" : false,
      "is_playable" : true,
      "name" : "What Child Is This?",
      "popularity" : 20,
      "preview_url" : "https://p.scdn.co/mp3-preview/9f2aed4338ad16114059b6ec38078ab44755b623?cid=774b29d4f13844c495f206cafdad9c86",
      "track_number" : 17,
      "type" : "track",
      "uri" : "spotify:track:6PtzDFf5LbDUqZdQKvx13U"
    }, {
      "album" : {
        "album_type" : "album",
        "artists" : [ {
          "external_urls" : {
            "spotify" : "https://open.spotify.com/artist/4PpBfy9zXy2F3u0HbIkhfm"
          },
          "href" : "https://api.spotify.com/v1/artists/4PpBfy9zXy2F3u0HbIkhfm",
          "id" : "4PpBfy9zXy2F3u0HbIkhfm",
          "name" : "Instrumental Worship Project from I’m In Records",
          "type" : "artist",
          "uri" : "spotify:artist:4PpBfy9zXy2F3u0HbIkhfm"
        } ],
        "external_urls" : {
          "spotify" : "https://open.spotify.com/album/3wOpWgy37MLCj2jCAgdEHK"
        },
        "href" : "https://api.spotify.com/v1/albums/3wOpWgy37MLCj2jCAgdEHK",
        "id" : "3wOpWgy37MLCj2jCAgdEHK",
        "images" : [ {
          "height" : 640,
          "url" : "https://i.scdn.co/image/ab67616d0000b273955948f1fb06d52254fa97fc",
          "width" : 640
        }, {
          "height" : 300,
          "url" : "https://i.scdn.co/image/ab67616d00001e02955948f1fb06d52254fa97fc",
          "width" : 300
        }, {
          "height" : 64,
          "url" : "https://i.scdn.co/image/ab67616d00004851955948f1fb06d52254fa97fc",
          "width" : 64
        } ],
        "name" : "Christmas Classics",
        "release_date" : "2019-11-16",
        "release_date_precision" : "day",
        "total_tracks" : 9,
        "type" : "album",
        "uri" : "spotify:album:3wOpWgy37MLCj2jCAgdEHK"
      },
      "artists" : [ {
        "external_urls" : {
          "spotify" : "https://open.spotify.com/artist/4PpBfy9zXy2F3u0HbIkhfm"
        },
        "href" : "https://api.spotify.com/v1/artists/4PpBfy9zXy2F3u0HbIkhfm",
        "id" : "4PpBfy9zXy2F3u0HbIkhfm",
        "name" : "Instrumental Worship Project from I’m In Records",
        "type" : "artist",
        "uri" : "spotify:artist:4PpBfy9zXy2F3u0HbIkhfm"
      } ],
      "disc_number" : 1,
      "duration_ms" : 181909,
      "explicit" : false,
      "external_ids" : {
        "isrc" : "BRITK1909609"
      },
      "external_urls" : {
        "spotify" : "https://open.spotify.com/track/5sEFoKaHcyMqs0d2SOXM2M"
      },
      "href" : "https://api.spotify.com/v1/tracks/5sEFoKaHcyMqs0d2SOXM2M",
      "id" : "5sEFoKaHcyMqs0d2SOXM2M",
      "is_local" : false,
      "is_playable" : true,
      "name" : "What Child Is This",
      "popularity" : 29,
      "preview_url" : "https://p.scdn.co/mp3-preview/81b084d67ad81984df438a08451863c09403fadf?cid=774b29d4f13844c495f206cafdad9c86",
      "track_number" : 5,
      "type" : "track",
      "uri" : "spotify:track:5sEFoKaHcyMqs0d2SOXM2M"
    }, {
      "album" : {
        "album_type" : "album",
        "artists" : [ {
          "external_urls" : {
            "spotify" : "https://open.spotify.com/artist/3EA9hVIzKfFiQI0Kikz2wo"
          },
          "href" : "https://api.spotify.com/v1/artists/3EA9hVIzKfFiQI0Kikz2wo",
          "id" : "3EA9hVIzKfFiQI0Kikz2wo",
          "name" : "Andrea Bocelli",
          "type" : "artist",
          "uri" : "spotify:artist:3EA9hVIzKfFiQI0Kikz2wo"
        } ],
        "external_urls" : {
          "spotify" : "https://open.spotify.com/album/37QhqwG2GFkVdlyRjvgKme"
        },
        "href" : "https://api.spotify.com/v1/albums/37QhqwG2GFkVdlyRjvgKme",
        "id" : "37QhqwG2GFkVdlyRjvgKme",
        "images" : [ {
          "height" : 640,
          "url" : "https://i.scdn.co/image/ab67616d0000b2733f599b345043a05e6ee5d272",
          "width" : 640
        }, {
          "height" : 300,
          "url" : "https://i.scdn.co/image/ab67616d00001e023f599b345043a05e6ee5d272",
          "width" : 300
        }, {
          "height" : 64,
          "url" : "https://i.scdn.co/image/ab67616d000048513f599b345043a05e6ee5d272",
          "width" : 64
        } ],
        "name" : "My Christmas (Remastered)",
        "release_date" : "2009-01-01",
        "release_date_precision" : "day",
        "total_tracks" : 14,
        "type" : "album",
        "uri" : "spotify:album:37QhqwG2GFkVdlyRjvgKme"
      },
      "artists" : [ {
        "external_urls" : {
          "spotify" : "https://open.spotify.com/artist/3EA9hVIzKfFiQI0Kikz2wo"
        },
        "href" : "https://api.spotify.com/v1/artists/3EA9hVIzKfFiQI0Kikz2wo",
        "id" : "3EA9hVIzKfFiQI0Kikz2wo",
        "name" : "Andrea Bocelli",
        "type" : "artist",
        "uri" : "spotify:artist:3EA9hVIzKfFiQI0Kikz2wo"
      }, {
        "external_urls" : {
          "spotify" : "https://open.spotify.com/artist/1XkoF8ryArs86LZvFOkbyr"
        },
        "href" : "https://api.spotify.com/v1/artists/1XkoF8ryArs86LZvFOkbyr",
        "id" : "1XkoF8ryArs86LZvFOkbyr",
        "name" : "Mary J. Blige",
        "type" : "artist",
        "uri" : "spotify:artist:1XkoF8ryArs86LZvFOkbyr"
      } ],
      "disc_number" : 1,
      "duration_ms" : 271513,
      "explicit" : false,
      "external_ids" : {
        "isrc" : "ITZ040900065"
      },
      "external_urls" : {
        "spotify" : "https://open.spotify.com/track/2z1ZqvD08zrfACPZFZB3tr"
      },
      "href" : "https://api.spotify.com/v1/tracks/2z1ZqvD08zrfACPZFZB3tr",
      "id" : "2z1ZqvD08zrfACPZFZB3tr",
      "is_local" : false,
      "is_playable" : true,
      "name" : "What Child Is This",
      "popularity" : 28,
      "preview_url" : null,
      "track_number" : 6,
      "type" : "track",
      "uri" : "spotify:track:2z1ZqvD08zrfACPZFZB3tr"
    }, {
      "album" : {
        "album_type" : "compilation",
        "artists" : [ {
          "external_urls" : {
            "spotify" : "https://open.spotify.com/artist/0LyfQWJT6nXafLPZqxe9Of"
          },
          "href" : "https://api.spotify.com/v1/artists/0LyfQWJT6nXafLPZqxe9Of",
          "id" : "0LyfQWJT6nXafLPZqxe9Of",
          "name" : "Various Artists",
          "type" : "artist",
          "uri" : "spotify:artist:0LyfQWJT6nXafLPZqxe9Of"
        } ],
        "external_urls" : {
          "spotify" : "https://open.spotify.com/album/4lpYJ1dP2HsH1dWPDEHPUT"
        },
        "href" : "https://api.spotify.com/v1/albums/4lpYJ1dP2HsH1dWPDEHPUT",
        "id" : "4lpYJ1dP2HsH1dWPDEHPUT",
        "images" : [ {
          "height" : 640,
          "url" : "https://i.scdn.co/image/ab67616d0000b273f091d76a4be8c17aafd815fe",
          "width" : 640
        }, {
          "height" : 300,
          "url" : "https://i.scdn.co/image/ab67616d00001e02f091d76a4be8c17aafd815fe",
          "width" : 300
        }, {
          "height" : 64,
          "url" : "https://i.scdn.co/image/ab67616d00004851f091d76a4be8c17aafd815fe",
          "width" : 64
        } ],
        "name" : "Christmas Jazz",
        "release_date" : "2012-10-01",
        "release_date_precision" : "day",
        "total_tracks" : 15,
        "type" : "album",
        "uri" : "spotify:album:4lpYJ1dP2HsH1dWPDEHPUT"
      },
      "artists" : [ {
        "external_urls" : {
          "spotify" : "https://open.spotify.com/artist/7vo2Hl0NDiBr6GcyGDSLFZ"
        },
        "href" : "https://api.spotify.com/v1/artists/7vo2Hl0NDiBr6GcyGDSLFZ",
        "id" : "7vo2Hl0NDiBr6GcyGDSLFZ",
        "name" : "Jack Jezzro",
        "type" : "artist",
        "uri" : "spotify:artist:7vo2Hl0NDiBr6GcyGDSLFZ"
      } ],
      "disc_number" : 1,
      "duration_ms" : 203586,
      "explicit" : false,
      "external_ids" : {
        "isrc" : "ushm20835873"
      },
      "external_urls" : {
        "spotify" : "https://open.spotify.com/track/0govQa8afjDLDPZCsuGquw"
      },
      "href" : "https://api.spotify.com/v1/tracks/0govQa8afjDLDPZCsuGquw",
      "id" : "0govQa8afjDLDPZCsuGquw",
      "is_local" : false,
      "is_playable" : true,
      "name" : "What Child Is This?",
      "popularity" : 24,
      "preview_url" : "https://p.scdn.co/mp3-preview/56342e80a2baf127593c88d3c322ff15d470255d?cid=774b29d4f13844c495f206cafdad9c86",
      "track_number" : 15,
      "type" : "track",
      "uri" : "spotify:track:0govQa8afjDLDPZCsuGquw"
    }, {
      "album" : {
        "album_type" : "album",
        "artists" : [ {
          "external_urls" : {
            "spotify" : "https://open.spotify.com/artist/0q4Gc8YuoF6mB9RHIi9FDQ"
          },
          "href" : "https://api.spotify.com/v1/artists/0q4Gc8YuoF6mB9RHIi9FDQ",
          "id" : "0q4Gc8YuoF6mB9RHIi9FDQ",
          "name" : "Jill Pitz",
          "type" : "artist",
          "uri" : "spotify:artist:0q4Gc8YuoF6mB9RHIi9FDQ"
        }, {
          "external_urls" : {
            "spotify" : "https://open.spotify.com/artist/2QYf4fFPNKLq2miKubXR0n"
          },
          "href" : "https://api.spotify.com/v1/artists/2QYf4fFPNKLq2miKubXR0n",
          "id" : "2QYf4fFPNKLq2miKubXR0n",
          "name" : "Marjorie Hanna",
          "type" : "artist",
          "uri" : "spotify:artist:2QYf4fFPNKLq2miKubXR0n"
        } ],
        "external_urls" : {
          "spotify" : "https://open.spotify.com/album/123hrI7QAnWUXiZHVgKHca"
        },
        "href" : "https://api.spotify.com/v1/albums/123hrI7QAnWUXiZHVgKHca",
        "id" : "123hrI7QAnWUXiZHVgKHca",
        "images" : [ {
          "height" : 640,
          "url" : "https://i.scdn.co/image/ab67616d0000b273ad0eeed2dd2c82d601b575bf",
          "width" : 640
        }, {
          "height" : 300,
          "url" : "https://i.scdn.co/image/ab67616d00001e02ad0eeed2dd2c82d601b575bf",
          "width" : 300
        }, {
          "height" : 64,
          "url" : "https://i.scdn.co/image/ab67616d00004851ad0eeed2dd2c82d601b575bf",
          "width" : 64
        } ],
        "name" : "The First Noel",
        "release_date" : "2017-11-20",
        "release_date_precision" : "day",
        "total_tracks" : 16,
        "type" : "album",
        "uri" : "spotify:album:123hrI7QAnWUXiZHVgKHca"
      },
      "artists" : [ {
        "external_urls" : {
          "spotify" : "https://open.spotify.com/artist/0q4Gc8YuoF6mB9RHIi9FDQ"
        },
        "href" : "https://api.spotify.com/v1/artists/0q4Gc8YuoF6mB9RHIi9FDQ",
        "id" : "0q4Gc8YuoF6mB9RHIi9FDQ",
        "name" : "Jill Pitz",
        "type" : "artist",
        "uri" : "spotify:artist:0q4Gc8YuoF6mB9RHIi9FDQ"
      }, {
        "external_urls" : {
          "spotify" : "https://open.spotify.com/artist/2QYf4fFPNKLq2miKubXR0n"
        },
        "href" : "https://api.spotify.com/v1/artists/2QYf4fFPNKLq2miKubXR0n",
        "id" : "2QYf4fFPNKLq2miKubXR0n",
        "name" : "Marjorie Hanna",
        "type" : "artist",
        "uri" : "spotify:artist:2QYf4fFPNKLq2miKubXR0n"
      } ],
      "disc_number" : 1,
      "duration_ms" : 144640,
      "explicit" : false,
      "external_ids" : {
        "isrc" : "TCADJ1739082"
      },
      "external_urls" : {
        "spotify" : "https://open.spotify.com/track/2ITVOYAPc3tUdqtqt4fIdk"
      },
      "href" : "https://api.spotify.com/v1/tracks/2ITVOYAPc3tUdqtqt4fIdk",
      "id" : "2ITVOYAPc3tUdqtqt4fIdk",
      "is_local" : false,
      "is_playable" : true,
      "name" : "What Child Is This",
      "popularity" : 20,
      "preview_url" : "https://p.scdn.co/mp3-preview/3fb25f94dd05737080dd11e969e51b99e57ee385?cid=774b29d4f13844c495f206cafdad9c86",
      "track_number" : 16,
      "type" : "track",
      "uri" : "spotify:track:2ITVOYAPc3tUdqtqt4fIdk"
    }, {
      "album" : {
        "album_type" : "album",
        "artists" : [ {
          "external_urls" : {
            "spotify" : "https://open.spotify.com/artist/3Wl6XL61V0pRkj13dgItId"
          },
          "href" : "https://api.spotify.com/v1/artists/3Wl6XL61V0pRkj13dgItId",
          "id" : "3Wl6XL61V0pRkj13dgItId",
          "name" : "Chemayne",
          "type" : "artist",
          "uri" : "spotify:artist:3Wl6XL61V0pRkj13dgItId"
        } ],
        "external_urls" : {
          "spotify" : "https://open.spotify.com/album/70IMAyBu1KzdLsY5bwanHs"
        },
        "href" : "https://api.spotify.com/v1/albums/70IMAyBu1KzdLsY5bwanHs",
        "id" : "70IMAyBu1KzdLsY5bwanHs",
        "images" : [ {
          "height" : 640,
          "url" : "https://i.scdn.co/image/ab67616d0000b273c312706f6c85687561d1f330",
          "width" : 640
        }, {
          "height" : 300,
          "url" : "https://i.scdn.co/image/ab67616d00001e02c312706f6c85687561d1f330",
          "width" : 300
        }, {
          "height" : 64,
          "url" : "https://i.scdn.co/image/ab67616d00004851c312706f6c85687561d1f330",
          "width" : 64
        } ],
        "name" : "Christmas Piano",
        "release_date" : "2013-01-01",
        "release_date_precision" : "day",
        "total_tracks" : 15,
        "type" : "album",
        "uri" : "spotify:album:70IMAyBu1KzdLsY5bwanHs"
      },
      "artists" : [ {
        "external_urls" : {
          "spotify" : "https://open.spotify.com/artist/3Wl6XL61V0pRkj13dgItId"
        },
        "href" : "https://api.spotify.com/v1/artists/3Wl6XL61V0pRkj13dgItId",
        "id" : "3Wl6XL61V0pRkj13dgItId",
        "name" : "Chemayne",
        "type" : "artist",
        "uri" : "spotify:artist:3Wl6XL61V0pRkj13dgItId"
      } ],
      "disc_number" : 1,
      "duration_ms" : 290866,
      "explicit" : false,
      "external_ids" : {
        "isrc" : "CASD10500819"
      },
      "external_urls" : {
        "spotify" : "https://open.spotify.com/track/0u0HgXV4HHzbiCvbKbhNLO"
      },
      "href" : "https://api.spotify.com/v1/tracks/0u0HgXV4HHzbiCvbKbhNLO",
      "id" : "0u0HgXV4HHzbiCvbKbhNLO",
      "is_local" : false,
      "is_playable" : true,
      "name" : "What Child Is This?",
      "popularity" : 21,
      "preview_url" : "https://p.scdn.co/mp3-preview/1774f3c854d6c4990fa91fb098feef166046b89c?cid=774b29d4f13844c495f206cafdad9c86",
      "track_number" : 5,
      "type" : "track",
      "uri" : "spotify:track:0u0HgXV4HHzbiCvbKbhNLO"
    }, {
      "album" : {
        "album_type" : "album",
        "artists" : [ {
          "external_urls" : {
            "spotify" : "https://open.spotify.com/artist/5aBxFPaaGk9204ssHUvXWN"
          },
          "href" : "https://api.spotify.com/v1/artists/5aBxFPaaGk9204ssHUvXWN",
          "id" : "5aBxFPaaGk9204ssHUvXWN",
          "name" : "Michael W. Smith",
          "type" : "artist",
          "uri" : "spotify:artist:5aBxFPaaGk9204ssHUvXWN"
        } ],
        "external_urls" : {
          "spotify" : "https://open.spotify.com/album/11vKP9wxsaoQ0Ooosbute9"
        },
        "href" : "https://api.spotify.com/v1/albums/11vKP9wxsaoQ0Ooosbute9",
        "id" : "11vKP9wxsaoQ0Ooosbute9",
        "images" : [ {
          "height" : 640,
          "url" : "https://i.scdn.co/image/ab67616d0000b273e35334e7d4d7c6de73180c4d",
          "width" : 640
        }, {
          "height" : 300,
          "url" : "https://i.scdn.co/image/ab67616d00001e02e35334e7d4d7c6de73180c4d",
          "width" : 300
        }, {
          "height" : 64,
          "url" : "https://i.scdn.co/image/ab67616d00004851e35334e7d4d7c6de73180c4d",
          "width" : 64
        } ],
        "name" : "The Spirit Of Christmas",
        "release_date" : "2014-09-30",
        "release_date_precision" : "day",
        "total_tracks" : 14,
        "type" : "album",
        "uri" : "spotify:album:11vKP9wxsaoQ0Ooosbute9"
      },
      "artists" : [ {
        "external_urls" : {
          "spotify" : "https://open.spotify.com/artist/5aBxFPaaGk9204ssHUvXWN"
        },
        "href" : "https://api.spotify.com/v1/artists/5aBxFPaaGk9204ssHUvXWN",
        "id" : "5aBxFPaaGk9204ssHUvXWN",
        "name" : "Michael W. Smith",
        "type" : "artist",
        "uri" : "spotify:artist:5aBxFPaaGk9204ssHUvXWN"
      }, {
        "external_urls" : {
          "spotify" : "https://open.spotify.com/artist/3P33qFNGBVXl86yQYWspFj"
        },
        "href" : "https://api.spotify.com/v1/artists/3P33qFNGBVXl86yQYWspFj",
        "id" : "3P33qFNGBVXl86yQYWspFj",
        "name" : "Martina McBride",
        "type" : "artist",
        "uri" : "spotify:artist:3P33qFNGBVXl86yQYWspFj"
      } ],
      "disc_number" : 1,
      "duration_ms" : 260173,
      "explicit" : false,
      "external_ids" : {
        "isrc" : "USUG11401317"
      },
      "external_urls" : {
        "spotify" : "https://open.spotify.com/track/3b5YTLovzX8B0ayUkgXAA2"
      },
      "href" : "https://api.spotify.com/v1/tracks/3b5YTLovzX8B0ayUkgXAA2",
      "id" : "3b5YTLovzX8B0ayUkgXAA2",
      "is_local" : false,
      "is_playable" : true,
      "name" : "What Child Is This",
      "popularity" : 17,
      "preview_url" : null,
      "track_number" : 9,
      "type" : "track",
      "uri" : "spotify:track:3b5YTLovzX8B0ayUkgXAA2"
    } ],
    "limit" : 10,
    "next" : "https://api.spotify.com/v1/search?query=What+Child+Is+This%3F&type=track&market=US&offset=15&limit=10",
    "offset" : 5,
    "previous" : "https://api.spotify.com/v1/search?query=What+Child+Is+This%3F&type=track&market=US&offset=0&limit=10",
    "total" : 8602
  }
}