{
  "tracks" : {
    "href" : "https://api.spotify.com/v1/search?query=Come%2C+Thou+Long+Expected+Jesus&type=track&market=US&offset=5&limit=10",
    "items" : [ {
      "album" : {
        "album_type" : "album",
        "artists" : [ {
          "external_urls" : {
            "spotify" : "https://open.spotify.com/artist/5uv6BYoPhTJPZ9KE6QxyTo"
          },
          "href" : "https://api.spotify.com/v1/artists/5uv6BYoPhTJPZ9KE6QxyTo",
          "id" : "5uv6BYoPhTJPZ9KE6QxyTo",
          "name" : "Phillip Keveren & David Angell",
          "type" : "artist",
          "uri" : "spotify:artist:5uv6BYoPhTJPZ9KE6QxyTo"
        } ],
        "external_urls" : {
          "spotify" : "https://open.spotify.com/album/7J0IEeWXtjhrjsMUxKUR4o"
        },
        "href" : "https://api.spotify.com/v1/albums/7J0IEeWXtjhrjsMUxKUR4o",
        "id" : "7J0IEeWXtjhrjsMUxKUR4o",
        "images" : [ {
          "height" : 640,
          "url" : "https://i.scdn.co/image/ab67616d0000b273cc62cf7204ab4c3a8ebf4410",
          "width" : 640
        }, {
          "height" : 300,
          "url" : "https://i.scdn.co/image/ab67616d00001e02cc62cf7204ab4c3a8ebf4410",
          "width" : 300
        }, {
          "height" : 64,
          "url" : "https://i.scdn.co/image/ab67616d00004851cc62cf7204ab4c3a8ebf4410",
          "width" : 64
        } ],
        "name" : "Classical Praise Volume 2: Piano & Violin",
        "release_date" : "2005-07-01",
        "release_date_precision" : "day",
        "total_tracks" : 12,
        "type" : "album",
        "uri" : "spotify:album:7J0IEeWXtjhrjsMUxKUR4o"
      },
      "artists" : [ {
        "external_urls" : {
          "spotify" : "https://open.spotify.com/artist/5uv6BYoPhTJPZ9KE6QxyTo"
        },
        "href" : "https://api.spotify.com/v1/artists/5uv6BYoPhTJPZ9KE6QxyTo",
        "id" : "5uv6BYoPhTJPZ9KE6QxyTo",
        "name" : "Phillip Keveren & David Angell",
        "type" : "artist",
        "uri" : "spotify:artist:5uv6BYoPhTJPZ9KE6QxyTo"
      } ],
      "disc_number" : 1,
      "duration_ms" : 238440,
      "explicit" : false,
      "external_ids" : {
        "isrc" : "USDHM0602537"
      },
      "external_urls" : {
        "spotify" : "https://open.spotify.com/track/0rNVQPFoPonYFhiOtrW5BG"
      },
      "href" : "https://api.spotify.com/v1/tracks/0rNVQPFoPonYFhiOtrW5BG",
      "id" : "0rNVQPFoPonYFhiOtrW5BG",
      "is_local" : false,
      "is_playable" : true,
      "name" : "Come, Thou Long Expected Jesus",
      "popularity" : 24,
      "preview_url" : "https://p.scdn.co/mp3-preview/044327d3eada277bdfbed58db769a4d6d52b1160?cid=774b29d4f13844c495f206cafdad9c86",
      "track_number" : 4,
      "type" : "track",
      "uri" : "spotify:track:0rNVQPFoPonYFhiOtrW5BG"
    }, {
      "album" : {
        "album_type" : "album",
        "artists" : [ {
          "external_urls" : {
            "spotify" : "https://open.spotify.com/artist/2sHZLtiGJbXHAShjJIurVo"
          },
          "href" : "https://api.spotify.com/v1/artists/2sHZLtiGJbXHAShjJIurVo",
          "id" : "2sHZLtiGJbXHAShjJIurVo",
          "name" : "Red Mountain Church",
          "type" : "artist",
          "uri" : "spotify:artist:2sHZLtiGJbXHAShjJIurVo"
        } ],
        "external_urls" : {
          "spotify" : "https://open.spotify.com/album/5HavhdFyNgLGGbolkhVOUE"
        },
        "href" : "https://api.spotify.com/v1/albums/5HavhdFyNgLGGbolkhVOUE",
        "id" : "5HavhdFyNgLGGbolkhVOUE",
        "images" : [ {
          "height" : 640,
          "url" : "https://i.scdn.co/image/ab67616d0000b2737b38275b86f9173bb7015938",
          "width" : 640
        }, {
          "height" : 300,
          "url" : "https://i.scdn.co/image/ab67616d00001e027b38275b86f9173bb7015938",
          "width" : 300
        }, {
          "height" : 64,
          "url" : "https://i.scdn.co/image/ab67616d000048517b38275b86f9173bb7015938",
          "width" : 64
        } ],
        "name" : "Silent Night",
        "release_date" : "2008-10-20",
        "release_date_precision" : "day",
        "total_tracks" : 9,
        "type" : "album",
        "uri" : "spotify:album:5HavhdFyNgLGGbolkhVOUE"
      },
      "artists" : [ {
        "external_urls" : {
          "spotify" : "https://open.spotify.com/artist/2sHZLtiGJbXHAShjJIurVo"
        },
        "href" : "https://api.spotify.com/v1/artists/2sHZLtiGJbXHAShjJIurVo",
        "id" : "2sHZLtiGJbXHAShjJIurVo",
        "name" : "Red Mountain Church",
        "type" : "artist",
        "uri" : "spotify:artist:2sHZLtiGJbXHAShjJIurVo"
      } ],
      "disc_number" : 1,
      "duration_ms" : 303647,
      "explicit" : false,
      "external_ids" : {
        "isrc" : "USDHM0806942"
      },
      "external_urls" : {
        "spotify" : "https://open.spotify.com/track/5XJDe14Y54Vn85XJgWpt7w"
      },
      "href" : "https://api.spotify.com/v1/tracks/5XJDe14Y54Vn85XJgWpt7w",
      "id" : "5XJDe14Y54Vn85XJgWpt7w",
      "is_local" : false,
      "is_playable" : true,
      "name" : "Come, Thou Long Expected Jesus",
      "popularity" : 17,
      "preview_url" : "https://p.scdn.co/mp3-preview/91eb293f715020bdc581811eda52ce9edf39b248?cid=774b29d4f13844c495f206cafdad9c86",
      "track_number" : 9,
      "type" : "track",
      "uri" : "spotify:track:5XJDe14Y54Vn85XJgWpt7w"
    }, {
      "album" : {
        "album_type" : "album",
        "artists" : [ {
          "external_urls" : {
            "spotify" : "https://open.spotify.com/artist/2PAjAnpGH93C6vXOa8ZKzD"
          },
          "href" : "https://api.spotify.com/v1/artists/2PAjAnpGH93C6vXOa8ZKzD",
          "id" : "2PAjAnpGH93C6vXOa8ZKzD",
          "name" : "Future Of Forestry",
          "type" : "artist",
          "uri" : "spotify:artist:2PAjAnpGH93C6vXOa8ZKzD"
        } ],
        "external_urls" : {
          "spotify" : "https://open.spotify.com/album/5xC9QjqRII9XD6iPFqkkSq"
        },
        "href" : "https://api.spotify.com/v1/albums/5xC9QjqRII9XD6iPFqkkSq",
        "id" : "5xC9QjqRII9XD6iPFqkkSq",
        "images" : [ {
          "height" : 640,
          "url" : "https://i.scdn.co/image/ab67616d0000b2735b916dc8d8b2f71a324f5dc6",
          "width" : 640
        }, {
          "height" : 300,
          "url" : "https://i.scdn.co/image/ab67616d00001e025b916dc8d8b2f71a324f5dc6",
          "width" : 300
        }, {
          "height" : 64,
          "url" : "https://i.scdn.co/image/ab67616d000048515b916dc8d8b2f71a324f5dc6",
          "width" : 64
        } ],
        "name" : "Light Has Come: Christmas",
        "release_date" : "2019-11-14",
        "release_date_precision" : "day",
        "total_tracks" : 7,
        "type" : "album",
        "uri" : "spotify:album:5xC9QjqRII9XD6iPFqkkSq"
      },
      "artists" : [ {
        "external_urls" : {
          "spotify" : "https://open.spotify.com/artist/2PAjAnpGH93C6vXOa8ZKzD"
        },
        "href" : "https://api.spotify.com/v1/artists/2PAjAnpGH93C6vXOa8ZKzD",
        "id" : "2PAjAnpGH93C6vXOa8ZKzD",
        "name" : "Future Of Forestry",
        "type" : "artist",
        "uri" : "spotify:artist:2PAjAnpGH93C6vXOa8ZKzD"
      } ],
      "disc_number" : 1,
      "duration_ms" : 362968,
      "explicit" : false,
      "external_ids" : {
        "isrc" : "USW2K1600036"
      },
      "external_urls" : {
        "spotify" : "https://open.spotify.com/track/3tWOYs6Nx588yH1VJ50xEF"
      },
      "href" : "https://api.spotify.com/v1/tracks/3tWOYs6Nx588yH1VJ50xEF",
      "id" : "3tWOYs6Nx588yH1VJ50xEF",
      "is_local" : false,
      "is_playable" : true,
      "name" : "Come Thou Long Expected Jesus",
      "popularity" : 17,
      "preview_url" : "https://p.scdn.co/mp3-preview/fa7b47466cda01d99327f7b7aa7b87b3aba086e1?cid=774b29d4f13844c495f206cafdad9c86",
      "track_number" : 2,
      "type" : "track",
      "uri" : "spotify:track:3tWOYs6Nx588yH1VJ50xEF"
    }, {
      "album" : {
        "album_type" : "album",
        "artists" : [ {
          "external_urls" : {
            "spotify" : "https://open.spotify.com/artist/6wl6yVIxkL6zz60qDZsNAn"
          },
          "href" : "https://api.spotify.com/v1/artists/6wl6yVIxkL6zz60qDZsNAn",
          "id" : "6wl6yVIxkL6zz60qDZsNAn",
          "name" : "Tim Brace",
          "type" : "artist",
          "uri" : "spotify:artist:6wl6yVIxkL6zz60qDZsNAn"
        } ],
        "external_urls" : {
          "spotify" : "https://open.spotify.com/album/59gYh1EK8oGsvIqQfIA0E4"
        },
        "href" : "https://api.spotify.com/v1/albums/59gYh1EK8oGsvIqQfIA0E4",
        "id" : "59gYh1EK8oGsvIqQfIA0E4",
        "images" : [ {
          "height" : 640,
          "url" : "https://i.scdn.co/image/ab67616d0000b2734dd12ed01329b89b0bf7c8aa",
          "width" : 640
        }, {
          "height" : 300,
          "url" : "https://i.scdn.co/image/ab67616d00001e024dd12ed01329b89b0bf7c8aa",
          "width" : 300
        }, {
          "height" : 64,
          "url" : "https://i.scdn.co/image/ab67616d000048514dd12ed01329b89b0bf7c8aa",
          "width" : 64
        } ],
        "name" : "Songs Of Healing: Hymns For Classical Guitar",
        "release_date" : "2005-10-24",
        "release_date_precision" : "day",
        "total_tracks" : 15,
        "type" : "album",
        "uri" : "spotify:album:59gYh1EK8oGsvIqQfIA0E4"
      },
      "artists" : [ {
        "external_urls" : {
          "spotify" : "https://open.spotify.com/artist/6wl6yVIxkL6zz60qDZsNAn"
        },
        "href" : "https://api.spotify.com/v1/artists/6wl6yVIxkL6zz60qDZsNAn",
        "id" : "6wl6yVIxkL6zz60qDZsNAn",
        "name" : "Tim Brace",
        "type" : "artist",
        "uri" : "spotify:artist:6wl6yVIxkL6zz60qDZsNAn"
      } ],
      "disc_number" : 1,
      "duration_ms" : 111906,
      "explicit" : false,
      "external_ids" : {
        "isrc" : "uscgh0535444"
      },
      "external_urls" : {
        "spotify" : "https://open.spotify.com/track/3CEHsgNvHzGlMZjIjCd2vY"
      },
      "href" : "https://api.spotify.com/v1/tracks/3CEHsgNvHzGlMZjIjCd2vY",
      "id" : "3CEHsgNvHzGlMZjIjCd2vY",
      "is_local" : false,
      "is_playable" : true,
      "name" : "Come, Thou Long-Expected Jesus",
      "popularity" : 22,
      "preview_url" : "https://p.scdn.co/mp3-preview/bd1148d21d2d5fa3a632ec7374fa61d8b1d4a48b?cid=774b29d4f13844c495f206cafdad9c86",
      "track_number" : 12,
      "type" : "track",
      "uri" : "spotify:track:3CEHsgNvHzGlMZjIjCd2vY"
    }, {
      "album" : {
        "album_type" : "album",
        "artists" : [ {
          "external_urls" : {
            "spotify" : "https://open.spotify.com/artist/6pRi6EIPXz4QJEOEsBaA0m"
          },
          "href" : "https://api.spotify.com/v1/artists/6pRi6EIPXz4QJEOEsBaA0m",
          "id" : "6pRi6EIPXz4QJEOEsBaA0m",
          "name" : "Chris Tomlin",
          "type" : "artist",
          "uri" : "spotify:artist:6pRi6EIPXz4QJEOEsBaA0m"
        } ],
        "external_urls" : {
          "spotify" : "https://open.spotify.com/album/1a2gUlUBypmai0CzuIVXQo"
        },
        "href" : "https://api.spotify.com/v1/albums/1a2gUlUBypmai0CzuIVXQo",
        "id" : "1a2gUlUBypmai0CzuIVXQo",
        "images" : [ {
          "height" : 640,
          "url" : "https://i.scdn.co/image/ab67616d0000b2736d4ffa7dac093a0abb6c2836",
          "width" : 640
        }, {
          "height" : 300,
          "url" : "https://i.scdn.co/image/ab67616d00001e026d4ffa7dac093a0abb6c2836",
          "width" : 300
        }, {
          "height" : 64,
          "url" : "https://i.scdn.co/image/ab67616d000048516d4ffa7dac093a0abb6c2836",
          "width" : 64
        } ],
        "name" : "Glory In The Highest: Christmas Songs Of Worship",
        "release_date" : "2009-01-01",
        "release_date_precision" : "day",
        "total_tracks" : 12,
        "type" : "album",
        "uri" : "spotify:album:1a2gUlUBypmai0CzuIVXQo"
      },
      "artists" : [ {
        "external_urls" : {
          "spotify" : "https://open.spotify.com/artist/6pRi6EIPXz4QJEOEsBaA0m"
        },
        "href" : "https://api.spotify.com/v1/artists/6pRi6EIPXz4QJEOEsBaA0m",
        "id" : "6pRi6EIPXz4QJEOEsBaA0m",
        "name" : "Chris Tomlin",
        "type" : "artist",
        "uri" : "spotify:artist:6pRi6EIPXz4QJEOEsBaA0m"
      }, {
        "external_urls" : {
          "spotify" : "https://open.spotify.com/artist/0XFBXku1ro7p7bjFQk98o6"
        },
        "href" : "https://api.spotify.com/v1/artists/0XFBXku1ro7p7bjFQk98o6",
        "id" : "0XFBXku1ro7p7bjFQk98o6",
        "name" : "Christy Nockels",
        "type" : "artist",
        "uri" : "spotify:artist:0XFBXku1ro7p7bjFQk98o6"
      } ],
      "disc_number" : 1,
      "duration_ms" : 179026,
      "explicit" : false,
      "external_ids" : {
        "isrc" : "USSP30900612"
      },
      "external_urls" : {
        "spotify" : "https://open.spotify.com/track/772u0BD76oq8c4JqCLxpUH"
      },
      "href" : "https://api.spotify.com/v1/tracks/772u0BD76oq8c4JqCLxpUH",
      "id" : "772u0BD76oq8c4JqCLxpUH",
      "is_local" : false,
      "is_playable" : true,
      "name" : "Come Thou Long Expected Jesus",
      "popularity" : 17,
      "preview_url" : null,
      "track_number" : 9,
      "type" : "track",
      "uri" : "spotify:track:772u0BD76oq8c4JqCLxpUH"
    }, {
      "album" : {
        "album_type" : "single",
        "artists" : [ {
          "external_urls" : {
            "spotify" : "https://open.spotify.com/artist/4E5OsYWj9dBk4cIyGEkWdJ"
          },
          "href" : "https://api.spotify.com/v1/artists/4E5OsYWj9dBk4cIyGEkWdJ",
          "id" : "4E5OsYWj9dBk4cIyGEkWdJ",
          "name" : "Keys of Peace",
          "type" : "artist",
          "uri" : "spotify:artist:4E5OsYWj9dBk4cIyGEkWdJ"
        } ],
        "external_urls" : {
          "spotify" : "https://open.spotify.com/album/35t6bMlsENG6TUFnlRWnmP"
        },
        "href" : "https://api.spotify.com/v1/albums/35t6bMlsENG6TUFnlRWnmP",
        "id" : "35t6bMlsENG6TUFnlRWnmP",
        "images" : [ {
          "height" : 640,
          "url" : "https://i.scdn.co/image/ab67616d0000b2732742282f129bc7efbaf0440b",
          "width" : 640
        }, {
          "height" : 300,
          "url" : "https://i.scdn.co/image/ab67616d00001e022742282f129bc7efbaf0440b",
          "width" : 300
        }, {
          "height" : 64,
          "url" : "https://i.scdn.co/image/ab67616d000048512742282f129bc7efbaf0440b",
          "width" : 64
        } ],
        "name" : "Come, Thou Long-Expected Jesus (Instrumental)",
        "release_date" : "2020-05-28",
        "release_date_precision" : "day",
        "total_tracks" : 1,
        "type" : "album",
        "uri" : "spotify:album:35t6bMlsENG6TUFnlRWnmP"
      },
      "artists" : [ {
        "external_urls" : {
          "spotify" : "https://open.spotify.com/artist/4E5OsYWj9dBk4cIyGEkWdJ"
        },
        "href" : "https://api.spotify.com/v1/artists/4E5OsYWj9dBk4cIyGEkWdJ",
        "id" : "4E5OsYWj9dBk4cIyGEkWdJ",
        "name" : "Keys of Peace",
        "type" : "artist",
        "uri" : "spotify:artist:4E5OsYWj9dBk4cIyGEkWdJ"
      } ],
      "disc_number" : 1,
      "duration_ms" : 627075,
      "explicit" : false,
      "external_ids" : {
        "isrc" : "QZHN42073058"
      },
      "external_urls" : {
        "spotify" : "https://open.spotify.com/track/6zE6cHjEao1fNjBq7qnUdE"
      },
      "href" : "https://api.spotify.com/v1/tracks/6zE6cHjEao1fNjBq7qnUdE",
      "id" : "6zE6cHjEao1fNjBq7qnUdE",
      "is_local" : false,
      "is_playable" : true,
      "name" : "Come, Thou Long-Expected Jesus - Instrumental",
      "popularity" : 0,
      "preview_url" : "https://p.scdn.co/mp3-preview/2a93bac20f3866557599d5eb3618f6520beb8f21?cid=774b29d4f13844c495f206cafdad9c86",
      "track_number" : 1,
      "type" : "track",
      "uri" : "spotify:track:6zE6cHjEao1fNjBq7qnUdE"
    }, {
      "album" : {
        "album_type" : "compilation",
        "artists" : [ {
          "external_urls" : {
            "spotify" : "https://open.spotify.com/artist/1PCJfBD2SVVE8cGqpg1pC9"
          },
          "href" : "https://api.spotify.com/v1/artists/1PCJfBD2SVVE8cGqpg1pC9",
          "id" : "1PCJfBD2SVVE8cGqpg1pC9",
          "name" : "Hal Wright",
          "type" : "artist",
          "uri" : "spotify:artist:1PCJfBD2SVVE8cGqpg1pC9"
        } ],
        "external_urls" : {
          "spotify" : "https://open.spotify.com/album/6Vq0YRd2WYawkT1cuaBPEc"
        },
        "href" : "https://api.spotify.com/v1/albums/6Vq0YRd2WYawkT1cuaBPEc",
        "id" : "6Vq0YRd2WYawkT1cuaBPEc",
        "images" : [ {
          "height" : 640,
          "url" : "https://i.scdn.co/image/ab67616d0000b273e2f79cba7af16db2adcd91d4",
          "width" : 640
        }, {
          "height" : 300,
          "url" : "https://i.scdn.co/image/ab67616d00001e02e2f79cba7af16db2adcd91d4",
          "width" : 300
        }, {
          "height" : 64,
          "url" : "https://i.scdn.co/image/ab67616d00004851e2f79cba7af16db2adcd91d4",
          "width" : 64
        } ],
        "name" : "Christmas Treasures",
        "release_date" : "2020-05-22",
        "release_date_precision" : "day",
        "total_tracks" : 24,
        "type" : "album",
        "uri" : "spotify:album:6Vq0YRd2WYawkT1cuaBPEc"
      },
      "artists" : [ {
        "external_urls" : {
          "spotify" : "https://open.spotify.com/artist/1PCJfBD2SVVE8cGqpg1pC9"
        },
        "href" : "https://api.spotify.com/v1/artists/1PCJfBD2SVVE8cGqpg1pC9",
        "id" : "1PCJfBD2SVVE8cGqpg1pC9",
        "name" : "Hal Wright",
        "type" : "artist",
        "uri" : "spotify:artist:1PCJfBD2SVVE8cGqpg1pC9"
      }, {
        "external_urls" : {
          "spotify" : "https://open.spotify.com/artist/5Aerx1PdoW4F5Yvrus4bDE"
        },
        "href" : "https://api.spotify.com/v1/artists/5Aerx1PdoW4F5Yvrus4bDE",
        "id" : "5Aerx1PdoW4F5Yvrus4bDE",
        "name" : "Twin Sisters",
        "type" : "artist",
        "uri" : "spotify:artist:5Aerx1PdoW4F5Yvrus4bDE"
      } ],
      "disc_number" : 1,
      "duration_ms" : 102240,
      "explicit" : false,
      "external_ids" : {
        "isrc" : "US6PD1903928"
      },
      "external_urls" : {
        "spotify" : "https://open.spotify.com/track/15M5VoEHoSfG7R0wWvll8A"
      },
      "href" : "https://api.spotify.com/v1/tracks/15M5VoEHoSfG7R0wWvll8A",
      "id" : "15M5VoEHoSfG7R0wWvll8A",
      "is_local" : false,
      "is_playable" : true,
      "name" : "Come, Thou Long Expected Jesus",
      "popularity" : 0,
      "preview_url" : "https://p.scdn.co/mp3-preview/109f95643befe1bd1c5106e8885b451ce0310c53?cid=774b29d4f13844c495f206cafdad9c86",
      "track_number" : 16,
      "type" : "track",
      "uri" : "spotify:track:15M5VoEHoSfG7R0wWvll8A"
    }, {
      "album" : {
        "album_type" : "album",
        "artists" : [ {
          "external_urls" : {
            "spotify" : "https://open.spotify.com/artist/7dwgF5A7mYh6TXThNIETno"
          },
          "href" : "https://api.spotify.com/v1/artists/7dwgF5A7mYh6TXThNIETno",
          "id" : "7dwgF5A7mYh6TXThNIETno",
          "name" : "Salt Lake City LDS Ensemble",
          "type" : "artist",
          "uri" : "spotify:artist:7dwgF5A7mYh6TXThNIETno"
        } ],
        "external_urls" : {
          "spotify" : "https://open.spotify.com/album/7zKv0nVGjZvlzPRmhacYWl"
        },
        "href" : "https://api.spotify.com/v1/albums/7zKv0nVGjZvlzPRmhacYWl",
        "id" : "7zKv0nVGjZvlzPRmhacYWl",
        "images" : [ {
          "height" : 640,
          "url" : "https://i.scdn.co/image/ab67616d0000b273d6f99033ee9151ebf6a4db7a",
          "width" : 640
        }, {
          "height" : 300,
          "url" : "https://i.scdn.co/image/ab67616d00001e02d6f99033ee9151ebf6a4db7a",
          "width" : 300
        }, {
          "height" : 64,
          "url" : "https://i.scdn.co/image/ab67616d00004851d6f99033ee9151ebf6a4db7a",
          "width" : 64
        } ],
        "name" : "Mormon Hymns",
        "release_date" : "2015-08-16",
        "release_date_precision" : "day",
        "total_tracks" : 29,
        "type" : "album",
        "uri" : "spotify:album:7zKv0nVGjZvlzPRmhacYWl"
      },
      "artists" : [ {
        "external_urls" : {
          "spotify" : "https://open.spotify.com/artist/7dwgF5A7mYh6TXThNIETno"
        },
        "href" : "https://api.spotify.com/v1/artists/7dwgF5A7mYh6TXThNIETno",
        "id" : "7dwgF5A7mYh6TXThNIETno",
        "name" : "Salt Lake City LDS Ensemble",
        "type" : "artist",
        "uri" : "spotify:artist:7dwgF5A7mYh6TXThNIETno"
      } ],
      "disc_number" : 1,
      "duration_ms" : 144291,
      "explicit" : false,
      "external_ids" : {
        "isrc" : "USLZJ1545113"
      },
      "external_urls" : {
        "spotify" : "https://open.spotify.com/track/6NUATsRS85HthOKXDAXey4"
      },
      "href" : "https://api.spotify.com/v1/tracks/6NUATsRS85HthOKXDAXey4",
      "id" : "6NUATsRS85HthOKXDAXey4",
      "is_local" : false,
      "is_playable" : true,
      "name" : "Come Thou Long Expected Jesus",
      "popularity" : 16,
      "preview_url" : "https://p.scdn.co/mp3-preview/1cffac6db1f1171a006f73324566c7b96f9f40a8?cid=774b29d4f13844c495f206cafdad9c86",
      "track_number" : 20,
      "type" : "track",
      "uri" : "spotify:track:6NUATsRS85HthOKXDAXey4"
    }, {
      "album" : {
        "album_type" : "album",
        "artists" : [ {
          "external_urls" : {
            "spotify" : "https://open.spotify.com/artist/0BMoQeAvgTIVa2il9WIGkA"
          },
          "href" : "https://api.spotify.com/v1/artists/0BMoQeAvgTIVa2il9WIGkA",
          "id" : "0BMoQeAvgTIVa2il9WIGkA",
          "name" : "Rain For Roots",
          "type" : "artist",
          "uri" : "spotify:artist:0BMoQeAvgTIVa2il9WIGkA"
        } ],
        "external_urls" : {
          "spotify" : "https://open.spotify.com/album/15eKUrXicdTPdpkxuisEtW"
        },
        "href" : "https://api.spotify.com/v1/albums/15eKUrXicdTPdpkxuisEtW",
        "id" : "15eKUrXicdTPdpkxuisEtW",
        "images" : [ {
          "height" : 640,
          "url" : "https://i.scdn.co/image/ab67616d0000b27322a73419a75ab4cfb7981ea3",
          "width" : 640
        }, {
          "height" : 300,
          "url" : "https://i.scdn.co/image/ab67616d00001e0222a73419a75ab4cfb7981ea3",
          "width" : 300
        }, {
          "height" : 64,
          "url" : "https://i.scdn.co/image/ab67616d0000485122a73419a75ab4cfb7981ea3",
          "width" : 64
        } ],
        "name" : "Waiting Songs",
        "release_date" : "2015-11-10",
        "release_date_precision" : "day",
        "total_tracks" : 10,
        "type" : "album",
        "uri" : "spotify:album:15eKUrXicdTPdpkxuisEtW"
      },
      "artists" : [ {
        "external_urls" : {
          "spotify" : "https://open.spotify.com/artist/0BMoQeAvgTIVa2il9WIGkA"
        },
        "href" : "https://api.spotify.com/v1/artists/0BMoQeAvgTIVa2il9WIGkA",
        "id" : "0BMoQeAvgTIVa2il9WIGkA",
        "name" : "Rain For Roots",
        "type" : "artist",
        "uri" : "spotify:artist:0BMoQeAvgTIVa2il9WIGkA"
      }, {
        "external_urls" : {
          "spotify" : "https://open.spotify.com/artist/3IyntoWfeAJCEl8Xm9Jq8L"
        },
        "href" : "https://api.spotify.com/v1/artists/3IyntoWfeAJCEl8Xm9Jq8L",
        "id" : "3IyntoWfeAJCEl8Xm9Jq8L",
        "name" : "Flo Paris",
        "type" : "artist",
        "uri" : "spotify:artist:3IyntoWfeAJCEl8Xm9Jq8L"
      }, {
        "external_urls" : {
          "spotify" : "https://open.spotify.com/artist/4vfluN3t4iqEk2gpy3aRUm"
        },
        "href" : "https://api.spotify.com/v1/artists/4vfluN3t4iqEk2gpy3aRUm",
        "id" : "4vfluN3t4iqEk2gpy3aRUm",
        "name" : "Sera Oakes",
        "type" : "artist",
        "uri" : "spotify:artist:4vfluN3t4iqEk2gpy3aRUm"
      } ],
      "disc_number" : 1,
      "duration_ms" : 248414,
      "explicit" : false,
      "external_ids" : {
        "isrc" : "TCACH1593176"
      },
      "external_urls" : {
        "spotify" : "https://open.spotify.com/track/0HSVuaZrayR7AFjFxHcAVr"
      },
      "href" : "https://api.spotify.com/v1/tracks/0HSVuaZrayR7AFjFxHcAVr",
      "id" : "0HSVuaZrayR7AFjFxHcAVr",
      "is_local" : false,
      "is_playable" : true,
      "name" : "Come Thou Long Expected Jesus (feat. Flo Paris & Sera Oakes)",
      "popularity" : 17,
      "preview_url" : "https://p.scdn.co/mp3-preview/80ec46e7a35183f44b72a03401424b8b15b990b9?cid=774b29d4f13844c495f206cafdad9c86",
      "track_number" : 10,
      "type" : "track",
      "uri" : "spotify:track:0HSVuaZrayR7AFjFxHcAVr"
    }, {
      "album" : {
        "album_type" : "album",
        "artists" : [ {
          "external_urls" : {
            "spotify" : "https://open.spotify.com/artist/3QSNunV4pABJJFRWYL66Ml"
          },
          "href" : "https://api.spotify.com/v1/artists/3QSNunV4pABJJFRWYL66Ml",
          "id" : "3QSNunV4pABJJFRWYL66Ml",
          "name" : "Jake Erickson",
          "type" : "artist",
          "uri" : "spotify:artist:3QSNunV4pABJJFRWYL66Ml"
        } ],
        "external_urls" : {
          "spotify" : "https://open.spotify.com/album/2EAdqSUeOWV4h8wU7xSTTX"
        },
        "href" : "https://api.spotify.com/v1/albums/2EAdqSUeOWV4h8wU7xSTTX",
        "id" : "2EAdqSUeOWV4h8wU7xSTTX",
        "images" : [ {
          "height" : 640,
          "url" : "https://i.scdn.co/image/ab67616d0000b27341d279931e41ab303d038979",
          "width" : 640
        }, {
          "height" : 300,
          "url" : "https://i.scdn.co/image/ab67616d00001e0241d279931e41ab303d038979",
          "width" : 300
        }, {
          "height" : 64,
          "url" : "https://i.scdn.co/image/ab67616d0000485141d279931e41ab303d038979",
          "width" : 64
        } ],
        "name" : "Christian Piano Hymns",
        "release_date" : "2017-05-20",
        "release_date_precision" : "day",
        "total_tracks" : 14,
        "type" : "album",
        "uri" : "spotify:album:2EAdqSUeOWV4h8wU7xSTTX"
      },
      "artists" : [ {
        "external_urls" : {
          "spotify" : "https://open.spotify.com/artist/3QSNunV4pABJJFRWYL66Ml"
        },
        "href" : "https://api.spotify.com/v1/artists/3QSNunV4pABJJFRWYL66Ml",
        "id" : "3QSNunV4pABJJFRWYL66Ml",
        "name" : "Jake Erickson",
        "type" : "artist",
        "uri" : "spotify:artist:3QSNunV4pABJJFRWYL66Ml"
      } ],
      "disc_number" : 1,
      "duration_ms" : 144291,
      "explicit" : false,
      "external_ids" : {
        "isrc" : "GB-SMU-36-62686"
      },
      "external_urls" : {
        "spotify" : "https://open.spotify.com/track/7rdDhjgDSDV3LD00yJb9BY"
      },
      "href" : "https://api.spotify.com/v1/tracks/7rdDhjgDSDV3LD00yJb9BY",
      "id" : "7rdDhjgDSDV3LD00yJb9BY",
      "is_local" : false,
      "is_playable" : true,
      "name" : "Come Thou Long Expected Jesus",
      "popularity" : 14,
      "preview_url" : "https://p.scdn.co/mp3-preview/94d85e4592f6ee55f84b11e0a0b83ca2ca02adf8?cid=774b29d4f13844c495f206cafdad9c86",
      "track_number" : 5,
      "type" : "track",
      "uri" : "spotify:track:7rdDhjgDSDV3LD00yJb9BY"
    } ],
    "limit" : 10,
    "next" : "https://api.spotify.com/v1/search?query=Come%2C+Thou+Long+Expected+Jesus&type=track&market=US&offset=15&limit=10",
    "offset" : 5,
    "previous" : "https://api.spotify.com/v1/search?query=Come%2C+Thou+Long+Expected+Jesus&type=track&market=US&offset=0&limit=10",
    "total" : 609
  }
}