{
  "tracks" : {
    "href" : "https://api.spotify.com/v1/search?query=When+the+Roll+Is+Called+Up+Yonder&type=track&market=US&offset=5&limit=10",
    "items" : [ {
      "album" : {
        "album_type" : "album",
        "artists" : [ {
          "external_urls" : {
            "spotify" : "https://open.spotify.com/artist/6MvOzxAHNN6TBpM9TqXwum"
          },
          "href" : "https://api.spotify.com/v1/artists/6MvOzxAHNN6TBpM9TqXwum",
          "id" : "6MvOzxAHNN6TBpM9TqXwum",
          "name" : "The Chuck Wagon Gang",
          "type" : "artist",
          "uri" : "spotify:artist:6MvOzxAHNN6TBpM9TqXwum"
        } ],
        "external_urls" : {
          "spotify" : "https://open.spotify.com/album/79rUKpfKENADTyAAgZkAQ4"
        },
        "href" : "https://api.spotify.com/v1/albums/79rUKpfKENADTyAAgZkAQ4",
        "id" : "79rUKpfKENADTyAAgZkAQ4",
        "images" : [ {
          "height" : 640,
          "url" : "https://i.scdn.co/image/ab67616d0000b273b88e4074f4a04000c479ddf3",
          "width" : 640
        }, {
          "height" : 300,
          "url" : "https://i.scdn.co/image/ab67616d00001e02b88e4074f4a04000c479ddf3",
          "width" : 300
        }, {
          "height" : 64,
          "url" : "https://i.scdn.co/image/ab67616d00004851b88e4074f4a04000c479ddf3",
          "width" : 64
        } ],
        "name" : "Country Gospel Treasures",
        "release_date" : "2009-03-17",
        "release_date_precision" : "day",
        "total_tracks" : 13,
        "type" : "album",
        "uri" : "spotify:album:79rUKpfKENADTyAAgZkAQ4"
      },
      "artists" : [ {
        "external_urls" : {
          "spotify" : "https://open.spotify.com/artist/6MvOzxAHNN6TBpM9TqXwum"
        },
        "href" : "https://api.spotify.com/v1/artists/6MvOzxAHNN6TBpM9TqXwum",
        "id" : "6MvOzxAHNN6TBpM9TqXwum",
        "name" : "The Chuck Wagon Gang",
        "type" : "artist",
        "uri" : "spotify:artist:6MvOzxAHNN6TBpM9TqXwum"
      } ],
      "disc_number" : 1,
      "duration_ms" : 134000,
      "explicit" : false,
      "external_ids" : {
        "isrc" : "USQY50814775"
      },
      "external_urls" : {
        "spotify" : "https://open.spotify.com/track/56otRHKbSPESX0pVdrzUPq"
      },
      "href" : "https://api.spotify.com/v1/tracks/56otRHKbSPESX0pVdrzUPq",
      "id" : "56otRHKbSPESX0pVdrzUPq",
      "is_local" : false,
      "is_playable" : true,
      "name" : "When The Roll Is Called Up Yonder",
      "popularity" : 23,
      "preview_url" : "https://p.scdn.co/mp3-preview/9fb2778835c5c2d89ea04d8c297a52b2fa285970?cid=774b29d4f13844c495f206cafdad9c86",
      "track_number" : 1,
      "type" : "track",
      "uri" : "spotify:track:56otRHKbSPESX0pVdrzUPq"
    }, {
      "album" : {
        "album_type" : "album",
        "artists" : [ {
          "external_urls" : {
            "spotify" : "https://open.spotify.com/artist/5W5bDNCqJ1jbCgTxDD0Cb3"
          },
          "href" : "https://api.spotify.com/v1/artists/5W5bDNCqJ1jbCgTxDD0Cb3",
          "id" : "5W5bDNCqJ1jbCgTxDD0Cb3",
          "name" : "Willie Nelson",
          "type" : "artist",
          "uri" : "spotify:artist:5W5bDNCqJ1jbCgTxDD0Cb3"
        } ],
        "external_urls" : {
          "spotify" : "https://open.spotify.com/album/3tIzC5vxFacmLt6vMNtX4x"
        },
        "href" : "https://api.spotify.com/v1/albums/3tIzC5vxFacmLt6vMNtX4x",
        "id" : "3tIzC5vxFacmLt6vMNtX4x",
        "images" : [ {
          "height" : 640,
          "url" : "https://i.scdn.co/image/ab67616d0000b2739adf318c3b7cc0c3ddadcb0c",
          "width" : 640
        }, {
          "height" : 300,
          "url" : "https://i.scdn.co/image/ab67616d00001e029adf318c3b7cc0c3ddadcb0c",
          "width" : 300
        }, {
          "height" : 64,
          "url" : "https://i.scdn.co/image/ab67616d000048519adf318c3b7cc0c3ddadcb0c",
          "width" : 64
        } ],
        "name" : "The Troublemaker",
        "release_date" : "1976-09-01",
        "release_date_precision" : "day",
        "total_tracks" : 11,
        "type" : "album",
        "uri" : "spotify:album:3tIzC5vxFacmLt6vMNtX4x"
      },
      "artists" : [ {
        "external_urls" : {
          "spotify" : "https://open.spotify.com/artist/5W5bDNCqJ1jbCgTxDD0Cb3"
        },
        "href" : "https://api.spotify.com/v1/artists/5W5bDNCqJ1jbCgTxDD0Cb3",
        "id" : "5W5bDNCqJ1jbCgTxDD0Cb3",
        "name" : "Willie Nelson",
        "type" : "artist",
        "uri" : "spotify:artist:5W5bDNCqJ1jbCgTxDD0Cb3"
      } ],
      "disc_number" : 1,
      "duration_ms" : 163213,
      "explicit" : false,
      "external_ids" : {
        "isrc" : "USSM19904751"
      },
      "external_urls" : {
        "spotify" : "https://open.spotify.com/track/3xzeQXzz87k1FM04fgNnqs"
      },
      "href" : "https://api.spotify.com/v1/tracks/3xzeQXzz87k1FM04fgNnqs",
      "id" : "3xzeQXzz87k1FM04fgNnqs",
      "is_local" : false,
      "is_playable" : true,
      "name" : "When the Roll Is Called Up Yonder",
      "popularity" : 18,
      "preview_url" : "https://p.scdn.co/mp3-preview/f1fd336e2553a2bfe57ffef1a765a848742843bf?cid=774b29d4f13844c495f206cafdad9c86",
      "track_number" : 2,
      "type" : "track",
      "uri" : "spotify:track:3xzeQXzz87k1FM04fgNnqs"
    }, {
      "album" : {
        "album_type" : "album",
        "artists" : [ {
          "external_urls" : {
            "spotify" : "https://open.spotify.com/artist/16dGAOg7n1wfPuLLwfdwur"
          },
          "href" : "https://api.spotify.com/v1/artists/16dGAOg7n1wfPuLLwfdwur",
          "id" : "16dGAOg7n1wfPuLLwfdwur",
          "name" : "Acapeldridge",
          "type" : "artist",
          "uri" : "spotify:artist:16dGAOg7n1wfPuLLwfdwur"
        } ],
        "external_urls" : {
          "spotify" : "https://open.spotify.com/album/1A0pceN8WiPvcm9eNEwmad"
        },
        "href" : "https://api.spotify.com/v1/albums/1A0pceN8WiPvcm9eNEwmad",
        "id" : "1A0pceN8WiPvcm9eNEwmad",
        "images" : [ {
          "height" : 640,
          "url" : "https://i.scdn.co/image/ab67616d0000b273bce02fe85a942c85df75604f",
          "width" : 640
        }, {
          "height" : 300,
          "url" : "https://i.scdn.co/image/ab67616d00001e02bce02fe85a942c85df75604f",
          "width" : 300
        }, {
          "height" : 64,
          "url" : "https://i.scdn.co/image/ab67616d00004851bce02fe85a942c85df75604f",
          "width" : 64
        } ],
        "name" : "Whatever Is Just",
        "release_date" : "2018-11-02",
        "release_date_precision" : "day",
        "total_tracks" : 20,
        "type" : "album",
        "uri" : "spotify:album:1A0pceN8WiPvcm9eNEwmad"
      },
      "artists" : [ {
        "external_urls" : {
          "spotify" : "https://open.spotify.com/artist/16dGAOg7n1wfPuLLwfdwur"
        },
        "href" : "https://api.spotify.com/v1/artists/16dGAOg7n1wfPuLLwfdwur",
        "id" : "16dGAOg7n1wfPuLLwfdwur",
        "name" : "Acapeldridge",
        "type" : "artist",
        "uri" : "spotify:artist:16dGAOg7n1wfPuLLwfdwur"
      } ],
      "disc_number" : 1,
      "duration_ms" : 122160,
      "explicit" : false,
      "external_ids" : {
        "isrc" : "ushm91860056"
      },
      "external_urls" : {
        "spotify" : "https://open.spotify.com/track/46wMU7Fy3jJ1xq6bXaPtkm"
      },
      "href" : "https://api.spotify.com/v1/tracks/46wMU7Fy3jJ1xq6bXaPtkm",
      "id" : "46wMU7Fy3jJ1xq6bXaPtkm",
      "is_local" : false,
      "is_playable" : true,
      "name" : "When the Roll Is Called up Yonder",
      "popularity" : 20,
      "preview_url" : "https://p.scdn.co/mp3-preview/5f3ee37d65db4ce7558c9dd318cf36bd4ad3fb2f?cid=774b29d4f13844c495f206cafdad9c86",
      "track_number" : 10,
      "type" : "track",
      "uri" : "spotify:track:46wMU7Fy3jJ1xq6bXaPtkm"
    }, {
      "album" : {
        "album_type" : "album",
        "artists" : [ {
          "external_urls" : {
            "spotify" : "https://open.spotify.com/artist/08EFt670UCZCyxbhI1VtxG"
          },
          "href" : "https://api.spotify.com/v1/artists/08EFt670UCZCyxbhI1VtxG",
          "id" : "08EFt670UCZCyxbhI1VtxG",
          "name" : "Gordon Mote",
          "type" : "artist",
          "uri" : "spotify:artist:08EFt670UCZCyxbhI1VtxG"
        } ],
        "external_urls" : {
          "spotify" : "https://open.spotify.com/album/5AuYfhKLsXYF1zBWEZAWCk"
        },
        "href" : "https://api.spotify.com/v1/albums/5AuYfhKLsXYF1zBWEZAWCk",
        "id" : "5AuYfhKLsXYF1zBWEZAWCk",
        "images" : [ {
          "height" : 640,
          "url" : "https://i.scdn.co/image/ab67616d0000b273121e5787735f4d1c2584b989",
          "width" : 640
        }, {
          "height" : 300,
          "url" : "https://i.scdn.co/image/ab67616d00001e02121e5787735f4d1c2584b989",
          "width" : 300
        }, {
          "height" : 64,
          "url" : "https://i.scdn.co/image/ab67616d00004851121e5787735f4d1c2584b989",
          "width" : 64
        } ],
        "name" : "Piano Hymns",
        "release_date" : "2004-01-01",
        "release_date_precision" : "day",
        "total_tracks" : 14,
        "type" : "album",
        "uri" : "spotify:album:5AuYfhKLsXYF1zBWEZAWCk"
      },
      "artists" : [ {
        "external_urls" : {
          "spotify" : "https://open.spotify.com/artist/08EFt670UCZCyxbhI1VtxG"
        },
        "href" : "https://api.spotify.com/v1/artists/08EFt670UCZCyxbhI1VtxG",
        "id" : "08EFt670UCZCyxbhI1VtxG",
        "name" : "Gordon Mote",
        "type" : "artist",
        "uri" : "spotify:artist:08EFt670UCZCyxbhI1VtxG"
      } ],
      "disc_number" : 1,
      "duration_ms" : 170693,
      "explicit" : false,
      "external_ids" : {
        "isrc" : "USB4U0500603"
      },
      "external_urls" : {
        "spotify" : "https://open.spotify.com/track/3o3NGGK97A2NpINjuIKEK7"
      },
      "href" : "https://api.spotify.com/v1/tracks/3o3NGGK97A2NpINjuIKEK7",
      "id" : "3o3NGGK97A2NpINjuIKEK7",
      "is_local" : false,
      "is_playable" : true,
      "name" : "When The Roll Is Called Up Yonder",
      "popularity" : 21,
      "preview_url" : null,
      "track_number" : 8,
      "type" : "track",
      "uri" : "spotify:track:3o3NGGK97A2NpINjuIKEK7"
    }, {
      "album" : {
        "album_type" : "album",
        "artists" : [ {
          "external_urls" : {
            "spotify" : "https://open.spotify.com/artist/11sAWrpIkFUPQlXoQqpeBV"
          },
          "href" : "https://api.spotify.com/v1/artists/11sAWrpIkFUPQlXoQqpeBV",
          "id" : "11sAWrpIkFUPQlXoQqpeBV",
          "name" : "Bill & Gloria Gaither",
          "type" : "artist",
          "uri" : "spotify:artist:11sAWrpIkFUPQlXoQqpeBV"
        } ],
        "external_urls" : {
          "spotify" : "https://open.spotify.com/album/1CjS1S7ymAdbC6JmKZtxPC"
        },
        "href" : "https://api.spotify.com/v1/albums/1CjS1S7ymAdbC6JmKZtxPC",
        "id" : "1CjS1S7ymAdbC6JmKZtxPC",
        "images" : [ {
          "height" : 640,
          "url" : "https://i.scdn.co/image/ab67616d0000b27341463f7ebdda485039bc63a4",
          "width" : 640
        }, {
          "height" : 300,
          "url" : "https://i.scdn.co/image/ab67616d00001e0241463f7ebdda485039bc63a4",
          "width" : 300
        }, {
          "height" : 64,
          "url" : "https://i.scdn.co/image/ab67616d0000485141463f7ebdda485039bc63a4",
          "width" : 64
        } ],
        "name" : "Bill & Gloria Gaither And Their Homecoming Friends",
        "release_date" : "2012-01-01",
        "release_date_precision" : "day",
        "total_tracks" : 50,
        "type" : "album",
        "uri" : "spotify:album:1CjS1S7ymAdbC6JmKZtxPC"
      },
      "artists" : [ {
        "external_urls" : {
          "spotify" : "https://open.spotify.com/artist/11sAWrpIkFUPQlXoQqpeBV"
        },
        "href" : "https://api.spotify.com/v1/artists/11sAWrpIkFUPQlXoQqpeBV",
        "id" : "11sAWrpIkFUPQlXoQqpeBV",
        "name" : "Bill & Gloria Gaither",
        "type" : "artist",
        "uri" : "spotify:artist:11sAWrpIkFUPQlXoQqpeBV"
      } ],
      "disc_number" : 1,
      "duration_ms" : 212760,
      "explicit" : false,
      "external_ids" : {
        "isrc" : "US3270402784"
      },
      "external_urls" : {
        "spotify" : "https://open.spotify.com/track/6rZ18bk8Mipm5T5jmDBqJy"
      },
      "href" : "https://api.spotify.com/v1/tracks/6rZ18bk8Mipm5T5jmDBqJy",
      "id" : "6rZ18bk8Mipm5T5jmDBqJy",
      "is_local" : false,
      "is_playable" : true,
      "name" : "When The Roll Is Called Up Yonder - Live",
      "popularity" : 21,
      "preview_url" : null,
      "track_number" : 7,
      "type" : "track",
      "uri" : "spotify:track:6rZ18bk8Mipm5T5jmDBqJy"
    }, {
      "album" : {
        "album_type" : "album",
        "artists" : [ {
          "external_urls" : {
            "spotify" : "https://open.spotify.com/artist/0U0Vlp1HGGUpeXgiqoLwf6"
          },
          "href" : "https://api.spotify.com/v1/artists/0U0Vlp1HGGUpeXgiqoLwf6",
          "id" : "0U0Vlp1HGGUpeXgiqoLwf6",
          "name" : "Anthony Burger",
          "type" : "artist",
          "uri" : "spotify:artist:0U0Vlp1HGGUpeXgiqoLwf6"
        } ],
        "external_urls" : {
          "spotify" : "https://open.spotify.com/album/5jbwOux9XlXlYADVzTIhsq"
        },
        "href" : "https://api.spotify.com/v1/albums/5jbwOux9XlXlYADVzTIhsq",
        "id" : "5jbwOux9XlXlYADVzTIhsq",
        "images" : [ {
          "height" : 640,
          "url" : "https://i.scdn.co/image/ab67616d0000b273f4b6d86ceff7c1c608bc854c",
          "width" : 640
        }, {
          "height" : 300,
          "url" : "https://i.scdn.co/image/ab67616d00001e02f4b6d86ceff7c1c608bc854c",
          "width" : 300
        }, {
          "height" : 64,
          "url" : "https://i.scdn.co/image/ab67616d00004851f4b6d86ceff7c1c608bc854c",
          "width" : 64
        } ],
        "name" : "Hymns Collection",
        "release_date" : "2008-01-01",
        "release_date_precision" : "day",
        "total_tracks" : 19,
        "type" : "album",
        "uri" : "spotify:album:5jbwOux9XlXlYADVzTIhsq"
      },
      "artists" : [ {
        "external_urls" : {
          "spotify" : "https://open.spotify.com/artist/0U0Vlp1HGGUpeXgiqoLwf6"
        },
        "href" : "https://api.spotify.com/v1/artists/0U0Vlp1HGGUpeXgiqoLwf6",
        "id" : "0U0Vlp1HGGUpeXgiqoLwf6",
        "name" : "Anthony Burger",
        "type" : "artist",
        "uri" : "spotify:artist:0U0Vlp1HGGUpeXgiqoLwf6"
      } ],
      "disc_number" : 1,
      "duration_ms" : 264800,
      "explicit" : false,
      "external_ids" : {
        "isrc" : "USB4U0800116"
      },
      "external_urls" : {
        "spotify" : "https://open.spotify.com/track/50XXPe4BdMoydJAxuigz8z"
      },
      "href" : "https://api.spotify.com/v1/tracks/50XXPe4BdMoydJAxuigz8z",
      "id" : "50XXPe4BdMoydJAxuigz8z",
      "is_local" : false,
      "is_playable" : true,
      "name" : "Amazing Grace/When The Roll Is Called Up Yonder/Blessed Be The Name - Medley",
      "popularity" : 19,
      "preview_url" : null,
      "track_number" : 13,
      "type" : "track",
      "uri" : "spotify:track:50XXPe4BdMoydJAxuigz8z"
    }, {
      "album" : {
        "album_type" : "compilation",
        "artists" : [ {
          "external_urls" : {
            "spotify" : "https://open.spotify.com/artist/1PCJfBD2SVVE8cGqpg1pC9"
          },
          "href" : "https://api.spotify.com/v1/artists/1PCJfBD2SVVE8cGqpg1pC9",
          "id" : "1PCJfBD2SVVE8cGqpg1pC9",
          "name" : "Hal Wright",
          "type" : "artist",
          "uri" : "spotify:artist:1PCJfBD2SVVE8cGqpg1pC9"
        } ],
        "external_urls" : {
          "spotify" : "https://open.spotify.com/album/2sKmZ8kxh0qxQCf0qlvylw"
        },
        "href" : "https://api.spotify.com/v1/albums/2sKmZ8kxh0qxQCf0qlvylw",
        "id" : "2sKmZ8kxh0qxQCf0qlvylw",
        "images" : [ {
          "height" : 640,
          "url" : "https://i.scdn.co/image/ab67616d0000b2739bd7b37123792b83e0235c59",
          "width" : 640
        }, {
          "height" : 300,
          "url" : "https://i.scdn.co/image/ab67616d00001e029bd7b37123792b83e0235c59",
          "width" : 300
        }, {
          "height" : 64,
          "url" : "https://i.scdn.co/image/ab67616d000048519bd7b37123792b83e0235c59",
          "width" : 64
        } ],
        "name" : "Instrumental Hymns 3",
        "release_date" : "2020-05-22",
        "release_date_precision" : "day",
        "total_tracks" : 25,
        "type" : "album",
        "uri" : "spotify:album:2sKmZ8kxh0qxQCf0qlvylw"
      },
      "artists" : [ {
        "external_urls" : {
          "spotify" : "https://open.spotify.com/artist/1PCJfBD2SVVE8cGqpg1pC9"
        },
        "href" : "https://api.spotify.com/v1/artists/1PCJfBD2SVVE8cGqpg1pC9",
        "id" : "1PCJfBD2SVVE8cGqpg1pC9",
        "name" : "Hal Wright",
        "type" : "artist",
        "uri" : "spotify:artist:1PCJfBD2SVVE8cGqpg1pC9"
      }, {
        "external_urls" : {
          "spotify" : "https://open.spotify.com/artist/5Aerx1PdoW4F5Yvrus4bDE"
        },
        "href" : "https://api.spotify.com/v1/artists/5Aerx1PdoW4F5Yvrus4bDE",
        "id" : "5Aerx1PdoW4F5Yvrus4bDE",
        "name" : "Twin Sisters",
        "type" : "artist",
        "uri" : "spotify:artist:5Aerx1PdoW4F5Yvrus4bDE"
      } ],
      "disc_number" : 1,
      "duration_ms" : 134826,
      "explicit" : false,
      "external_ids" : {
        "isrc" : "US6PD1903993"
      },
      "external_urls" : {
        "spotify" : "https://open.spotify.com/track/0oEaMHwLqN9UTMPNdGmRCS"
      },
      "href" : "https://api.spotify.com/v1/tracks/0oEaMHwLqN9UTMPNdGmRCS",
      "id" : "0oEaMHwLqN9UTMPNdGmRCS",
      "is_local" : false,
      "is_playable" : true,
      "name" : "When The Roll Is Called Up Yonder",
      "popularity" : 0,
      "preview_url" : "https://p.scdn.co/mp3-preview/6721e9b9e071f3a8c06361637a5dfe520ef4c0fe?cid=774b29d4f13844c495f206cafdad9c86",
      "track_number" : 6,
      "type" : "track",
      "uri" : "spotify:track:0oEaMHwLqN9UTMPNdGmRCS"
    }, {
      "album" : {
        "album_type" : "album",
        "artists" : [ {
          "external_urls" : {
            "spotify" : "https://open.spotify.com/artist/4mxWe1mtYIYfP040G38yvS"
          },
          "href" : "https://api.spotify.com/v1/artists/4mxWe1mtYIYfP040G38yvS",
          "id" : "4mxWe1mtYIYfP040G38yvS",
          "name" : "Alan Jackson",
          "type" : "artist",
          "uri" : "spotify:artist:4mxWe1mtYIYfP040G38yvS"
        } ],
        "external_urls" : {
          "spotify" : "https://open.spotify.com/album/3otkui6GGLYq0O1jD3obAo"
        },
        "href" : "https://api.spotify.com/v1/albums/3otkui6GGLYq0O1jD3obAo",
        "id" : "3otkui6GGLYq0O1jD3obAo",
        "images" : [ {
          "height" : 640,
          "url" : "https://i.scdn.co/image/ab67616d0000b273b0a36143ee09188135ee6973",
          "width" : 640
        }, {
          "height" : 300,
          "url" : "https://i.scdn.co/image/ab67616d00001e02b0a36143ee09188135ee6973",
          "width" : 300
        }, {
          "height" : 64,
          "url" : "https://i.scdn.co/image/ab67616d00004851b0a36143ee09188135ee6973",
          "width" : 64
        } ],
        "name" : "Precious Memories Collection",
        "release_date" : "2016-10-28",
        "release_date_precision" : "day",
        "total_tracks" : 28,
        "type" : "album",
        "uri" : "spotify:album:3otkui6GGLYq0O1jD3obAo"
      },
      "artists" : [ {
        "external_urls" : {
          "spotify" : "https://open.spotify.com/artist/4mxWe1mtYIYfP040G38yvS"
        },
        "href" : "https://api.spotify.com/v1/artists/4mxWe1mtYIYfP040G38yvS",
        "id" : "4mxWe1mtYIYfP040G38yvS",
        "name" : "Alan Jackson",
        "type" : "artist",
        "uri" : "spotify:artist:4mxWe1mtYIYfP040G38yvS"
      } ],
      "disc_number" : 1,
      "duration_ms" : 141120,
      "explicit" : false,
      "external_ids" : {
        "isrc" : "USCN11300082"
      },
      "external_urls" : {
        "spotify" : "https://open.spotify.com/track/5VQK1QJRfSagWGuviRJtwo"
      },
      "href" : "https://api.spotify.com/v1/tracks/5VQK1QJRfSagWGuviRJtwo",
      "id" : "5VQK1QJRfSagWGuviRJtwo",
      "is_local" : false,
      "is_playable" : true,
      "name" : "When The Roll Is Called Up Yonder",
      "popularity" : 32,
      "preview_url" : null,
      "track_number" : 10,
      "type" : "track",
      "uri" : "spotify:track:5VQK1QJRfSagWGuviRJtwo"
    }, {
      "album" : {
        "album_type" : "album",
        "artists" : [ {
          "external_urls" : {
            "spotify" : "https://open.spotify.com/artist/6kACVPfCOnqzgfEF5ryl0x"
          },
          "href" : "https://api.spotify.com/v1/artists/6kACVPfCOnqzgfEF5ryl0x",
          "id" : "6kACVPfCOnqzgfEF5ryl0x",
          "name" : "Johnny Cash",
          "type" : "artist",
          "uri" : "spotify:artist:6kACVPfCOnqzgfEF5ryl0x"
        } ],
        "external_urls" : {
          "spotify" : "https://open.spotify.com/album/5xeMctXQWNmMq4aAjwuR3e"
        },
        "href" : "https://api.spotify.com/v1/albums/5xeMctXQWNmMq4aAjwuR3e",
        "id" : "5xeMctXQWNmMq4aAjwuR3e",
        "images" : [ {
          "height" : 640,
          "url" : "https://i.scdn.co/image/ab67616d0000b273b905a2b99e3510c2fd7d07c2",
          "width" : 640
        }, {
          "height" : 300,
          "url" : "https://i.scdn.co/image/ab67616d00001e02b905a2b99e3510c2fd7d07c2",
          "width" : 300
        }, {
          "height" : 64,
          "url" : "https://i.scdn.co/image/ab67616d00004851b905a2b99e3510c2fd7d07c2",
          "width" : 64
        } ],
        "name" : "Unearthed",
        "release_date" : "2003-01-01",
        "release_date_precision" : "day",
        "total_tracks" : 79,
        "type" : "album",
        "uri" : "spotify:album:5xeMctXQWNmMq4aAjwuR3e"
      },
      "artists" : [ {
        "external_urls" : {
          "spotify" : "https://open.spotify.com/artist/6kACVPfCOnqzgfEF5ryl0x"
        },
        "href" : "https://api.spotify.com/v1/artists/6kACVPfCOnqzgfEF5ryl0x",
        "id" : "6kACVPfCOnqzgfEF5ryl0x",
        "name" : "Johnny Cash",
        "type" : "artist",
        "uri" : "spotify:artist:6kACVPfCOnqzgfEF5ryl0x"
      } ],
      "disc_number" : 4,
      "duration_ms" : 95693,
      "explicit" : false,
      "external_ids" : {
        "isrc" : "USDJ20301211"
      },
      "external_urls" : {
        "spotify" : "https://open.spotify.com/track/7B8MBeKxvItlQaMXV7C8hr"
      },
      "href" : "https://api.spotify.com/v1/tracks/7B8MBeKxvItlQaMXV7C8hr",
      "id" : "7B8MBeKxvItlQaMXV7C8hr",
      "is_local" : false,
      "is_playable" : true,
      "name" : "When The Roll Is Called Up Yonder",
      "popularity" : 25,
      "preview_url" : null,
      "track_number" : 5,
      "type" : "track",
      "uri" : "spotify:track:7B8MBeKxvItlQaMXV7C8hr"
    }, {
      "album" : {
        "album_type" : "album",
        "artists" : [ {
          "external_urls" : {
            "spotify" : "https://open.spotify.com/artist/6kACVPfCOnqzgfEF5ryl0x"
          },
          "href" : "https://api.spotify.com/v1/artists/6kACVPfCOnqzgfEF5ryl0x",
          "id" : "6kACVPfCOnqzgfEF5ryl0x",
          "name" : "Johnny Cash",
          "type" : "artist",
          "uri" : "spotify:artist:6kACVPfCOnqzgfEF5ryl0x"
        } ],
        "external_urls" : {
          "spotify" : "https://open.spotify.com/album/096qohNqDFdmGDDuvdeQEW"
        },
        "href" : "https://api.spotify.com/v1/albums/096qohNqDFdmGDDuvdeQEW",
        "id" : "096qohNqDFdmGDDuvdeQEW",
        "images" : [ {
          "height" : 640,
          "url" : "https://i.scdn.co/image/ab67616d0000b27315a535b3794295d1e9608d06",
          "width" : 640
        }, {
          "height" : 300,
          "url" : "https://i.scdn.co/image/ab67616d00001e0215a535b3794295d1e9608d06",
          "width" : 300
        }, {
          "height" : 64,
          "url" : "https://i.scdn.co/image/ab67616d0000485115a535b3794295d1e9608d06",
          "width" : 64
        } ],
        "name" : "Johnny Cash Sings Precious Memories",
        "release_date" : "1975-01-02",
        "release_date_precision" : "day",
        "total_tracks" : 11,
        "type" : "album",
        "uri" : "spotify:album:096qohNqDFdmGDDuvdeQEW"
      },
      "artists" : [ {
        "external_urls" : {
          "spotify" : "https://open.spotify.com/artist/6kACVPfCOnqzgfEF5ryl0x"
        },
        "href" : "https://api.spotify.com/v1/artists/6kACVPfCOnqzgfEF5ryl0x",
        "id" : "6kACVPfCOnqzgfEF5ryl0x",
        "name" : "Johnny Cash",
        "type" : "artist",
        "uri" : "spotify:artist:6kACVPfCOnqzgfEF5ryl0x"
      } ],
      "disc_number" : 1,
      "duration_ms" : 125066,
      "explicit" : false,
      "external_ids" : {
        "isrc" : "USSM19902600"
      },
      "external_urls" : {
        "spotify" : "https://open.spotify.com/track/1RSVFS9QNS5MJRG16hMGfg"
      },
      "href" : "https://api.spotify.com/v1/tracks/1RSVFS9QNS5MJRG16hMGfg",
      "id" : "1RSVFS9QNS5MJRG16hMGfg",
      "is_local" : false,
      "is_playable" : true,
      "name" : "When The Roll Is Called Up Yonder",
      "popularity" : 22,
      "preview_url" : "https://p.scdn.co/mp3-preview/2f7455b5973d53034abc4f3130143f1bfc72fd32?cid=774b29d4f13844c495f206cafdad9c86",
      "track_number" : 8,
      "type" : "track",
      "uri" : "spotify:track:1RSVFS9QNS5MJRG16hMGfg"
    } ],
    "limit" : 10,
    "next" : "https://api.spotify.com/v1/search?query=When+the+Roll+Is+Called+Up+Yonder&type=track&market=US&offset=15&limit=10",
    "offset" : 5,
    "previous" : "https://api.spotify.com/v1/search?query=When+the+Roll+Is+Called+Up+Yonder&type=track&market=US&offset=0&limit=10",
    "total" : 629
  }
}