{
  "tracks" : {
    "href" : "https://api.spotify.com/v1/search?query=The+God+of+Abraham+Praise&type=track&market=US&offset=5&limit=10",
    "items" : [ {
      "album" : {
        "album_type" : "album",
        "artists" : [ {
          "external_urls" : {
            "spotify" : "https://open.spotify.com/artist/3UuY3RrWbM3JWy0FZh6EKg"
          },
          "href" : "https://api.spotify.com/v1/artists/3UuY3RrWbM3JWy0FZh6EKg",
          "id" : "3UuY3RrWbM3JWy0FZh6EKg",
          "name" : "The Haven Quartet",
          "type" : "artist",
          "uri" : "spotify:artist:3UuY3RrWbM3JWy0FZh6EKg"
        } ],
        "external_urls" : {
          "spotify" : "https://open.spotify.com/album/6ZAAGn5a8SoXwipAl7bvaJ"
        },
        "href" : "https://api.spotify.com/v1/albums/6ZAAGn5a8SoXwipAl7bvaJ",
        "id" : "6ZAAGn5a8SoXwipAl7bvaJ",
        "images" : [ {
          "height" : 640,
          "url" : "https://i.scdn.co/image/ab67616d0000b2733d0fe05659533eb87c581190",
          "width" : 640
        }, {
          "height" : 300,
          "url" : "https://i.scdn.co/image/ab67616d00001e023d0fe05659533eb87c581190",
          "width" : 300
        }, {
          "height" : 64,
          "url" : "https://i.scdn.co/image/ab67616d000048513d0fe05659533eb87c581190",
          "width" : 64
        } ],
        "name" : "Heritage of Hymns",
        "release_date" : "1999",
        "release_date_precision" : "year",
        "total_tracks" : 17,
        "type" : "album",
        "uri" : "spotify:album:6ZAAGn5a8SoXwipAl7bvaJ"
      },
      "artists" : [ {
        "external_urls" : {
          "spotify" : "https://open.spotify.com/artist/3UuY3RrWbM3JWy0FZh6EKg"
        },
        "href" : "https://api.spotify.com/v1/artists/3UuY3RrWbM3JWy0FZh6EKg",
        "id" : "3UuY3RrWbM3JWy0FZh6EKg",
        "name" : "The Haven Quartet",
        "type" : "artist",
        "uri" : "spotify:artist:3UuY3RrWbM3JWy0FZh6EKg"
      } ],
      "disc_number" : 1,
      "duration_ms" : 164560,
      "explicit" : false,
      "external_ids" : {
        "isrc" : "ushm81015055"
      },
      "external_urls" : {
        "spotify" : "https://open.spotify.com/track/1IQr2l2fLHvPdBUJxEcgBh"
      },
      "href" : "https://api.spotify.com/v1/tracks/1IQr2l2fLHvPdBUJxEcgBh",
      "id" : "1IQr2l2fLHvPdBUJxEcgBh",
      "is_local" : false,
      "is_playable" : true,
      "name" : "The God Of Abraham Praise",
      "popularity" : 7,
      "preview_url" : "https://p.scdn.co/mp3-preview/40ed3e32f3c92eed44fdb589d07294b9b004fb4c?cid=774b29d4f13844c495f206cafdad9c86",
      "track_number" : 7,
      "type" : "track",
      "uri" : "spotify:track:1IQr2l2fLHvPdBUJxEcgBh"
    }, {
      "album" : {
        "album_type" : "album",
        "artists" : [ {
          "external_urls" : {
            "spotify" : "https://open.spotify.com/artist/3akUqAy3Q1WqRZqceC4jW9"
          },
          "href" : "https://api.spotify.com/v1/artists/3akUqAy3Q1WqRZqceC4jW9",
          "id" : "3akUqAy3Q1WqRZqceC4jW9",
          "name" : "London Festival Orchestra",
          "type" : "artist",
          "uri" : "spotify:artist:3akUqAy3Q1WqRZqceC4jW9"
        }, {
          "external_urls" : {
            "spotify" : "https://open.spotify.com/artist/5MNYQfJK1uWAYLVHoKjNfU"
          },
          "href" : "https://api.spotify.com/v1/artists/5MNYQfJK1uWAYLVHoKjNfU",
          "id" : "5MNYQfJK1uWAYLVHoKjNfU",
          "name" : "The Thomas/Cumberland Choir",
          "type" : "artist",
          "uri" : "spotify:artist:5MNYQfJK1uWAYLVHoKjNfU"
        } ],
        "external_urls" : {
          "spotify" : "https://open.spotify.com/album/7ul6G7G0sOjZQzTauPl4VP"
        },
        "href" : "https://api.spotify.com/v1/albums/7ul6G7G0sOjZQzTauPl4VP",
        "id" : "7ul6G7G0sOjZQzTauPl4VP",
        "images" : [ {
          "height" : 640,
          "url" : "https://i.scdn.co/image/ab67616d0000b273fc45d1e4073bd68567770b88",
          "width" : 640
        }, {
          "height" : 300,
          "url" : "https://i.scdn.co/image/ab67616d00001e02fc45d1e4073bd68567770b88",
          "width" : 300
        }, {
          "height" : 64,
          "url" : "https://i.scdn.co/image/ab67616d00004851fc45d1e4073bd68567770b88",
          "width" : 64
        } ],
        "name" : "32 Great Hymns Of The Faith",
        "release_date" : "1999-01-01",
        "release_date_precision" : "day",
        "total_tracks" : 27,
        "type" : "album",
        "uri" : "spotify:album:7ul6G7G0sOjZQzTauPl4VP"
      },
      "artists" : [ {
        "external_urls" : {
          "spotify" : "https://open.spotify.com/artist/4hTc2gZc0kjxzNXs2f8pbT"
        },
        "href" : "https://api.spotify.com/v1/artists/4hTc2gZc0kjxzNXs2f8pbT",
        "id" : "4hTc2gZc0kjxzNXs2f8pbT",
        "name" : "Billy Ray Hearn",
        "type" : "artist",
        "uri" : "spotify:artist:4hTc2gZc0kjxzNXs2f8pbT"
      } ],
      "disc_number" : 1,
      "duration_ms" : 90560,
      "explicit" : false,
      "external_ids" : {
        "isrc" : "USSP39911611"
      },
      "external_urls" : {
        "spotify" : "https://open.spotify.com/track/3oTG8SgKzoNFOzqDDXZfdF"
      },
      "href" : "https://api.spotify.com/v1/tracks/3oTG8SgKzoNFOzqDDXZfdF",
      "id" : "3oTG8SgKzoNFOzqDDXZfdF",
      "is_local" : false,
      "is_playable" : true,
      "name" : "The God Of Abraham Praise - Hymns Album Version",
      "popularity" : 5,
      "preview_url" : null,
      "track_number" : 8,
      "type" : "track",
      "uri" : "spotify:track:3oTG8SgKzoNFOzqDDXZfdF"
    }, {
      "album" : {
        "album_type" : "album",
        "artists" : [ {
          "external_urls" : {
            "spotify" : "https://open.spotify.com/artist/7gjHSq6MQ3C2RNdlIkbYnG"
          },
          "href" : "https://api.spotify.com/v1/artists/7gjHSq6MQ3C2RNdlIkbYnG",
          "id" : "7gjHSq6MQ3C2RNdlIkbYnG",
          "name" : "Instrumental Christian Songs, Christian Piano Music",
          "type" : "artist",
          "uri" : "spotify:artist:7gjHSq6MQ3C2RNdlIkbYnG"
        }, {
          "external_urls" : {
            "spotify" : "https://open.spotify.com/artist/07MOqUaJ2WqGGHQlpcz9H3"
          },
          "href" : "https://api.spotify.com/v1/artists/07MOqUaJ2WqGGHQlpcz9H3",
          "id" : "07MOqUaJ2WqGGHQlpcz9H3",
          "name" : "Praise and Worship",
          "type" : "artist",
          "uri" : "spotify:artist:07MOqUaJ2WqGGHQlpcz9H3"
        }, {
          "external_urls" : {
            "spotify" : "https://open.spotify.com/artist/7cAyByeTxjKcuNTW1IXpGR"
          },
          "href" : "https://api.spotify.com/v1/artists/7cAyByeTxjKcuNTW1IXpGR",
          "id" : "7cAyByeTxjKcuNTW1IXpGR",
          "name" : "Musica Cristiana",
          "type" : "artist",
          "uri" : "spotify:artist:7cAyByeTxjKcuNTW1IXpGR"
        } ],
        "external_urls" : {
          "spotify" : "https://open.spotify.com/album/4J3BGn0B1leVpKTL9FtJ22"
        },
        "href" : "https://api.spotify.com/v1/albums/4J3BGn0B1leVpKTL9FtJ22",
        "id" : "4J3BGn0B1leVpKTL9FtJ22",
        "images" : [ {
          "height" : 640,
          "url" : "https://i.scdn.co/image/ab67616d0000b273f8d7fb37a98333c67edc2f45",
          "width" : 640
        }, {
          "height" : 300,
          "url" : "https://i.scdn.co/image/ab67616d00001e02f8d7fb37a98333c67edc2f45",
          "width" : 300
        }, {
          "height" : 64,
          "url" : "https://i.scdn.co/image/ab67616d00004851f8d7fb37a98333c67edc2f45",
          "width" : 64
        } ],
        "name" : "Amen, Amen! Instrumental Christian Songs",
        "release_date" : "2016-10-20",
        "release_date_precision" : "day",
        "total_tracks" : 15,
        "type" : "album",
        "uri" : "spotify:album:4J3BGn0B1leVpKTL9FtJ22"
      },
      "artists" : [ {
        "external_urls" : {
          "spotify" : "https://open.spotify.com/artist/7gjHSq6MQ3C2RNdlIkbYnG"
        },
        "href" : "https://api.spotify.com/v1/artists/7gjHSq6MQ3C2RNdlIkbYnG",
        "id" : "7gjHSq6MQ3C2RNdlIkbYnG",
        "name" : "Instrumental Christian Songs, Christian Piano Music",
        "type" : "artist",
        "uri" : "spotify:artist:7gjHSq6MQ3C2RNdlIkbYnG"
      }, {
        "external_urls" : {
          "spotify" : "https://open.spotify.com/artist/07MOqUaJ2WqGGHQlpcz9H3"
        },
        "href" : "https://api.spotify.com/v1/artists/07MOqUaJ2WqGGHQlpcz9H3",
        "id" : "07MOqUaJ2WqGGHQlpcz9H3",
        "name" : "Praise and Worship",
        "type" : "artist",
        "uri" : "spotify:artist:07MOqUaJ2WqGGHQlpcz9H3"
      }, {
        "external_urls" : {
          "spotify" : "https://open.spotify.com/artist/7cAyByeTxjKcuNTW1IXpGR"
        },
        "href" : "https://api.spotify.com/v1/artists/7cAyByeTxjKcuNTW1IXpGR",
        "id" : "7cAyByeTxjKcuNTW1IXpGR",
        "name" : "Musica Cristiana",
        "type" : "artist",
        "uri" : "spotify:artist:7cAyByeTxjKcuNTW1IXpGR"
      } ],
      "disc_number" : 1,
      "duration_ms" : 112466,
      "explicit" : false,
      "external_ids" : {
        "isrc" : "TCACS1687381"
      },
      "external_urls" : {
        "spotify" : "https://open.spotify.com/track/6hD8jZpWeS1YRbnKCloCRT"
      },
      "href" : "https://api.spotify.com/v1/tracks/6hD8jZpWeS1YRbnKCloCRT",
      "id" : "6hD8jZpWeS1YRbnKCloCRT",
      "is_local" : false,
      "is_playable" : true,
      "name" : "The God of Abraham (Instrumental Version)",
      "popularity" : 7,
      "preview_url" : "https://p.scdn.co/mp3-preview/5ee65365d270a0f1336aaafa157f67e1b485cbb4?cid=774b29d4f13844c495f206cafdad9c86",
      "track_number" : 13,
      "type" : "track",
      "uri" : "spotify:track:6hD8jZpWeS1YRbnKCloCRT"
    }, {
      "album" : {
        "album_type" : "album",
        "artists" : [ {
          "external_urls" : {
            "spotify" : "https://open.spotify.com/artist/0U76qHnOeDlShHkjDhpwIN"
          },
          "href" : "https://api.spotify.com/v1/artists/0U76qHnOeDlShHkjDhpwIN",
          "id" : "0U76qHnOeDlShHkjDhpwIN",
          "name" : "Truro Cathedral Choir",
          "type" : "artist",
          "uri" : "spotify:artist:0U76qHnOeDlShHkjDhpwIN"
        } ],
        "external_urls" : {
          "spotify" : "https://open.spotify.com/album/66D5nsBrGpLeDML13b8U5l"
        },
        "href" : "https://api.spotify.com/v1/albums/66D5nsBrGpLeDML13b8U5l",
        "id" : "66D5nsBrGpLeDML13b8U5l",
        "images" : [ {
          "height" : 640,
          "url" : "https://i.scdn.co/image/ab67616d0000b2735d3fa66912d9d0f9ca7867f6",
          "width" : 640
        }, {
          "height" : 300,
          "url" : "https://i.scdn.co/image/ab67616d00001e025d3fa66912d9d0f9ca7867f6",
          "width" : 300
        }, {
          "height" : 64,
          "url" : "https://i.scdn.co/image/ab67616d000048515d3fa66912d9d0f9ca7867f6",
          "width" : 64
        } ],
        "name" : "Complete New English Hymnal Vol. 10",
        "release_date" : "2001",
        "release_date_precision" : "year",
        "total_tracks" : 21,
        "type" : "album",
        "uri" : "spotify:album:66D5nsBrGpLeDML13b8U5l"
      },
      "artists" : [ {
        "external_urls" : {
          "spotify" : "https://open.spotify.com/artist/0U76qHnOeDlShHkjDhpwIN"
        },
        "href" : "https://api.spotify.com/v1/artists/0U76qHnOeDlShHkjDhpwIN",
        "id" : "0U76qHnOeDlShHkjDhpwIN",
        "name" : "Truro Cathedral Choir",
        "type" : "artist",
        "uri" : "spotify:artist:0U76qHnOeDlShHkjDhpwIN"
      } ],
      "disc_number" : 1,
      "duration_ms" : 372293,
      "explicit" : false,
      "external_ids" : {
        "isrc" : "GBXUX0871019"
      },
      "external_urls" : {
        "spotify" : "https://open.spotify.com/track/2QR0W5JXn19TrswwurIH8Q"
      },
      "href" : "https://api.spotify.com/v1/tracks/2QR0W5JXn19TrswwurIH8Q",
      "id" : "2QR0W5JXn19TrswwurIH8Q",
      "is_local" : false,
      "is_playable" : true,
      "name" : "The God of Abraham Praise",
      "popularity" : 4,
      "preview_url" : "https://p.scdn.co/mp3-preview/e160d79b91f0e521fd3c60d6e3b198ee3b975563?cid=774b29d4f13844c495f206cafdad9c86",
      "track_number" : 19,
      "type" : "track",
      "uri" : "spotify:track:2QR0W5JXn19TrswwurIH8Q"
    }, {
      "album" : {
        "album_type" : "album",
        "artists" : [ {
          "external_urls" : {
            "spotify" : "https://open.spotify.com/artist/6OLegABYqaWXx6d2SNh1Dw"
          },
          "href" : "https://api.spotify.com/v1/artists/6OLegABYqaWXx6d2SNh1Dw",
          "id" : "6OLegABYqaWXx6d2SNh1Dw",
          "name" : "Norwich Cathedral Choir",
          "type" : "artist",
          "uri" : "spotify:artist:6OLegABYqaWXx6d2SNh1Dw"
        }, {
          "external_urls" : {
            "spotify" : "https://open.spotify.com/artist/3th0fmbYOynihCppJzNJLM"
          },
          "href" : "https://api.spotify.com/v1/artists/3th0fmbYOynihCppJzNJLM",
          "id" : "3th0fmbYOynihCppJzNJLM",
          "name" : "Neil Taylor",
          "type" : "artist",
          "uri" : "spotify:artist:3th0fmbYOynihCppJzNJLM"
        }, {
          "external_urls" : {
            "spotify" : "https://open.spotify.com/artist/4yANo5kd8UdZ90uQKj5zPP"
          },
          "href" : "https://api.spotify.com/v1/artists/4yANo5kd8UdZ90uQKj5zPP",
          "id" : "4yANo5kd8UdZ90uQKj5zPP",
          "name" : "Simon Johnson",
          "type" : "artist",
          "uri" : "spotify:artist:4yANo5kd8UdZ90uQKj5zPP"
        } ],
        "external_urls" : {
          "spotify" : "https://open.spotify.com/album/2Gb4kFXxDFYCqkggOPCfCw"
        },
        "href" : "https://api.spotify.com/v1/albums/2Gb4kFXxDFYCqkggOPCfCw",
        "id" : "2Gb4kFXxDFYCqkggOPCfCw",
        "images" : [ ],
        "name" : "23 Favourite Hymns",
        "release_date" : "1992-12-11",
        "release_date_precision" : "day",
        "total_tracks" : 23,
        "type" : "album",
        "uri" : "spotify:album:2Gb4kFXxDFYCqkggOPCfCw"
      },
      "artists" : [ {
        "external_urls" : {
          "spotify" : "https://open.spotify.com/artist/1U5zgr455OGyIkLNXvDdrf"
        },
        "href" : "https://api.spotify.com/v1/artists/1U5zgr455OGyIkLNXvDdrf",
        "id" : "1U5zgr455OGyIkLNXvDdrf",
        "name" : "Traditional",
        "type" : "artist",
        "uri" : "spotify:artist:1U5zgr455OGyIkLNXvDdrf"
      }, {
        "external_urls" : {
          "spotify" : "https://open.spotify.com/artist/6OLegABYqaWXx6d2SNh1Dw"
        },
        "href" : "https://api.spotify.com/v1/artists/6OLegABYqaWXx6d2SNh1Dw",
        "id" : "6OLegABYqaWXx6d2SNh1Dw",
        "name" : "Norwich Cathedral Choir",
        "type" : "artist",
        "uri" : "spotify:artist:6OLegABYqaWXx6d2SNh1Dw"
      }, {
        "external_urls" : {
          "spotify" : "https://open.spotify.com/artist/3th0fmbYOynihCppJzNJLM"
        },
        "href" : "https://api.spotify.com/v1/artists/3th0fmbYOynihCppJzNJLM",
        "id" : "3th0fmbYOynihCppJzNJLM",
        "name" : "Neil Taylor",
        "type" : "artist",
        "uri" : "spotify:artist:3th0fmbYOynihCppJzNJLM"
      }, {
        "external_urls" : {
          "spotify" : "https://open.spotify.com/artist/4yANo5kd8UdZ90uQKj5zPP"
        },
        "href" : "https://api.spotify.com/v1/artists/4yANo5kd8UdZ90uQKj5zPP",
        "id" : "4yANo5kd8UdZ90uQKj5zPP",
        "name" : "Simon Johnson",
        "type" : "artist",
        "uri" : "spotify:artist:4yANo5kd8UdZ90uQKj5zPP"
      } ],
      "disc_number" : 1,
      "duration_ms" : 195933,
      "explicit" : false,
      "external_ids" : {
        "isrc" : "GBXUX0701809"
      },
      "external_urls" : {
        "spotify" : "https://open.spotify.com/track/4LfHsxhakj5bHtFSvnQFPf"
      },
      "href" : "https://api.spotify.com/v1/tracks/4LfHsxhakj5bHtFSvnQFPf",
      "id" : "4LfHsxhakj5bHtFSvnQFPf",
      "is_local" : false,
      "is_playable" : true,
      "name" : "The God Of Abraham Praise",
      "popularity" : 4,
      "preview_url" : "https://p.scdn.co/mp3-preview/868b04bcd99415081f2246c555dfe029bc86f4e3?cid=774b29d4f13844c495f206cafdad9c86",
      "track_number" : 9,
      "type" : "track",
      "uri" : "spotify:track:4LfHsxhakj5bHtFSvnQFPf"
    }, {
      "album" : {
        "album_type" : "album",
        "artists" : [ {
          "external_urls" : {
            "spotify" : "https://open.spotify.com/artist/2duo4NJtUrLaI38trK0hht"
          },
          "href" : "https://api.spotify.com/v1/artists/2duo4NJtUrLaI38trK0hht",
          "id" : "2duo4NJtUrLaI38trK0hht",
          "name" : "Mormon Tabernacle Choir",
          "type" : "artist",
          "uri" : "spotify:artist:2duo4NJtUrLaI38trK0hht"
        } ],
        "external_urls" : {
          "spotify" : "https://open.spotify.com/album/1NXtfIy42uOWoEYudzzawo"
        },
        "href" : "https://api.spotify.com/v1/albums/1NXtfIy42uOWoEYudzzawo",
        "id" : "1NXtfIy42uOWoEYudzzawo",
        "images" : [ {
          "height" : 640,
          "url" : "https://i.scdn.co/image/ab67616d0000b27315bfd6e18634103ccc15ff95",
          "width" : 640
        }, {
          "height" : 300,
          "url" : "https://i.scdn.co/image/ab67616d00001e0215bfd6e18634103ccc15ff95",
          "width" : 300
        }, {
          "height" : 64,
          "url" : "https://i.scdn.co/image/ab67616d0000485115bfd6e18634103ccc15ff95",
          "width" : 64
        } ],
        "name" : "Hymns of Faith II (Legacy Series)",
        "release_date" : "1996-10-10",
        "release_date_precision" : "day",
        "total_tracks" : 21,
        "type" : "album",
        "uri" : "spotify:album:1NXtfIy42uOWoEYudzzawo"
      },
      "artists" : [ {
        "external_urls" : {
          "spotify" : "https://open.spotify.com/artist/2duo4NJtUrLaI38trK0hht"
        },
        "href" : "https://api.spotify.com/v1/artists/2duo4NJtUrLaI38trK0hht",
        "id" : "2duo4NJtUrLaI38trK0hht",
        "name" : "Mormon Tabernacle Choir",
        "type" : "artist",
        "uri" : "spotify:artist:2duo4NJtUrLaI38trK0hht"
      } ],
      "disc_number" : 1,
      "duration_ms" : 127546,
      "explicit" : false,
      "external_ids" : {
        "isrc" : "US23M0745583"
      },
      "external_urls" : {
        "spotify" : "https://open.spotify.com/track/5xmCd4fJwNU26mHAPj7pFI"
      },
      "href" : "https://api.spotify.com/v1/tracks/5xmCd4fJwNU26mHAPj7pFI",
      "id" : "5xmCd4fJwNU26mHAPj7pFI",
      "is_local" : false,
      "is_playable" : true,
      "name" : "The God of Abraham Praise",
      "popularity" : 3,
      "preview_url" : "https://p.scdn.co/mp3-preview/6be214259b87b956b1a84cd9b9ceff57ada308eb?cid=774b29d4f13844c495f206cafdad9c86",
      "track_number" : 4,
      "type" : "track",
      "uri" : "spotify:track:5xmCd4fJwNU26mHAPj7pFI"
    }, {
      "album" : {
        "album_type" : "album",
        "artists" : [ {
          "external_urls" : {
            "spotify" : "https://open.spotify.com/artist/2k00DWZVuBYDShc48bRZuM"
          },
          "href" : "https://api.spotify.com/v1/artists/2k00DWZVuBYDShc48bRZuM",
          "id" : "2k00DWZVuBYDShc48bRZuM",
          "name" : "Funky Ones",
          "type" : "artist",
          "uri" : "spotify:artist:2k00DWZVuBYDShc48bRZuM"
        } ],
        "external_urls" : {
          "spotify" : "https://open.spotify.com/album/2b3VpEFlQjrvZXlgU4lq6m"
        },
        "href" : "https://api.spotify.com/v1/albums/2b3VpEFlQjrvZXlgU4lq6m",
        "id" : "2b3VpEFlQjrvZXlgU4lq6m",
        "images" : [ {
          "height" : 640,
          "url" : "https://i.scdn.co/image/ab67616d0000b273cadc1de3fa2ef1839f15c044",
          "width" : 640
        }, {
          "height" : 300,
          "url" : "https://i.scdn.co/image/ab67616d00001e02cadc1de3fa2ef1839f15c044",
          "width" : 300
        }, {
          "height" : 64,
          "url" : "https://i.scdn.co/image/ab67616d00004851cadc1de3fa2ef1839f15c044",
          "width" : 64
        } ],
        "name" : "Music for Christmas, Vol. 4 (Special Edition)",
        "release_date" : "2013-02-12",
        "release_date_precision" : "day",
        "total_tracks" : 11,
        "type" : "album",
        "uri" : "spotify:album:2b3VpEFlQjrvZXlgU4lq6m"
      },
      "artists" : [ {
        "external_urls" : {
          "spotify" : "https://open.spotify.com/artist/2k00DWZVuBYDShc48bRZuM"
        },
        "href" : "https://api.spotify.com/v1/artists/2k00DWZVuBYDShc48bRZuM",
        "id" : "2k00DWZVuBYDShc48bRZuM",
        "name" : "Funky Ones",
        "type" : "artist",
        "uri" : "spotify:artist:2k00DWZVuBYDShc48bRZuM"
      } ],
      "disc_number" : 1,
      "duration_ms" : 131235,
      "explicit" : false,
      "external_ids" : {
        "isrc" : "USA561346985"
      },
      "external_urls" : {
        "spotify" : "https://open.spotify.com/track/1Iun4KeePGqx6IEBOtMuGk"
      },
      "href" : "https://api.spotify.com/v1/tracks/1Iun4KeePGqx6IEBOtMuGk",
      "id" : "1Iun4KeePGqx6IEBOtMuGk",
      "is_local" : false,
      "is_playable" : true,
      "name" : "The God of Abraham Praise",
      "popularity" : 0,
      "preview_url" : "https://p.scdn.co/mp3-preview/ec09873e6dfdcf0328d05b40876ddcdff035a8f8?cid=774b29d4f13844c495f206cafdad9c86",
      "track_number" : 5,
      "type" : "track",
      "uri" : "spotify:track:1Iun4KeePGqx6IEBOtMuGk"
    }, {
      "album" : {
        "album_type" : "album",
        "artists" : [ {
          "external_urls" : {
            "spotify" : "https://open.spotify.com/artist/3I6r3dlooiDGf0FwFVsuaJ"
          },
          "href" : "https://api.spotify.com/v1/artists/3I6r3dlooiDGf0FwFVsuaJ",
          "id" : "3I6r3dlooiDGf0FwFVsuaJ",
          "name" : "Inspirational Organs",
          "type" : "artist",
          "uri" : "spotify:artist:3I6r3dlooiDGf0FwFVsuaJ"
        } ],
        "external_urls" : {
          "spotify" : "https://open.spotify.com/album/5jG5AhfxUy6FBxAQXEcPqi"
        },
        "href" : "https://api.spotify.com/v1/albums/5jG5AhfxUy6FBxAQXEcPqi",
        "id" : "5jG5AhfxUy6FBxAQXEcPqi",
        "images" : [ {
          "height" : 640,
          "url" : "https://i.scdn.co/image/ab67616d0000b273a8ee17502de5ed1c01f8ede9",
          "width" : 640
        }, {
          "height" : 300,
          "url" : "https://i.scdn.co/image/ab67616d00001e02a8ee17502de5ed1c01f8ede9",
          "width" : 300
        }, {
          "height" : 64,
          "url" : "https://i.scdn.co/image/ab67616d00004851a8ee17502de5ed1c01f8ede9",
          "width" : 64
        } ],
        "name" : "Nearer, My God, to Thee",
        "release_date" : "2016-02-10",
        "release_date_precision" : "day",
        "total_tracks" : 13,
        "type" : "album",
        "uri" : "spotify:album:5jG5AhfxUy6FBxAQXEcPqi"
      },
      "artists" : [ {
        "external_urls" : {
          "spotify" : "https://open.spotify.com/artist/3I6r3dlooiDGf0FwFVsuaJ"
        },
        "href" : "https://api.spotify.com/v1/artists/3I6r3dlooiDGf0FwFVsuaJ",
        "id" : "3I6r3dlooiDGf0FwFVsuaJ",
        "name" : "Inspirational Organs",
        "type" : "artist",
        "uri" : "spotify:artist:3I6r3dlooiDGf0FwFVsuaJ"
      } ],
      "disc_number" : 1,
      "duration_ms" : 273498,
      "explicit" : false,
      "external_ids" : {
        "isrc" : "QMPKX1656065"
      },
      "external_urls" : {
        "spotify" : "https://open.spotify.com/track/16TT06sjQwIso5RrqbUktd"
      },
      "href" : "https://api.spotify.com/v1/tracks/16TT06sjQwIso5RrqbUktd",
      "id" : "16TT06sjQwIso5RrqbUktd",
      "is_local" : false,
      "is_playable" : true,
      "name" : "The God of Abraham Praise",
      "popularity" : 0,
      "preview_url" : "https://p.scdn.co/mp3-preview/650a87a7a0beb2faf3f93c8e1fe88d7bbe99994f?cid=774b29d4f13844c495f206cafdad9c86",
      "track_number" : 4,
      "type" : "track",
      "uri" : "spotify:track:16TT06sjQwIso5RrqbUktd"
    }, {
      "album" : {
        "album_type" : "album",
        "artists" : [ {
          "external_urls" : {
            "spotify" : "https://open.spotify.com/artist/01Er12nK5rrnHx8usFPJAs"
          },
          "href" : "https://api.spotify.com/v1/artists/01Er12nK5rrnHx8usFPJAs",
          "id" : "01Er12nK5rrnHx8usFPJAs",
          "name" : "Derek Fiechter",
          "type" : "artist",
          "uri" : "spotify:artist:01Er12nK5rrnHx8usFPJAs"
        }, {
          "external_urls" : {
            "spotify" : "https://open.spotify.com/artist/2XDOBQOobSTxtmFhWKdm6x"
          },
          "href" : "https://api.spotify.com/v1/artists/2XDOBQOobSTxtmFhWKdm6x",
          "id" : "2XDOBQOobSTxtmFhWKdm6x",
          "name" : "Brandon Fiechter",
          "type" : "artist",
          "uri" : "spotify:artist:2XDOBQOobSTxtmFhWKdm6x"
        } ],
        "external_urls" : {
          "spotify" : "https://open.spotify.com/album/5skTki0x26oVYPNZPD4MxG"
        },
        "href" : "https://api.spotify.com/v1/albums/5skTki0x26oVYPNZPD4MxG",
        "id" : "5skTki0x26oVYPNZPD4MxG",
        "images" : [ {
          "height" : 640,
          "url" : "https://i.scdn.co/image/ab67616d0000b273be7614b687751925727c6486",
          "width" : 640
        }, {
          "height" : 300,
          "url" : "https://i.scdn.co/image/ab67616d00001e02be7614b687751925727c6486",
          "width" : 300
        }, {
          "height" : 64,
          "url" : "https://i.scdn.co/image/ab67616d00004851be7614b687751925727c6486",
          "width" : 64
        } ],
        "name" : "Mystery Hymns",
        "release_date" : "2018-08-01",
        "release_date_precision" : "day",
        "total_tracks" : 20,
        "type" : "album",
        "uri" : "spotify:album:5skTki0x26oVYPNZPD4MxG"
      },
      "artists" : [ {
        "external_urls" : {
          "spotify" : "https://open.spotify.com/artist/01Er12nK5rrnHx8usFPJAs"
        },
        "href" : "https://api.spotify.com/v1/artists/01Er12nK5rrnHx8usFPJAs",
        "id" : "01Er12nK5rrnHx8usFPJAs",
        "name" : "Derek Fiechter",
        "type" : "artist",
        "uri" : "spotify:artist:01Er12nK5rrnHx8usFPJAs"
      }, {
        "external_urls" : {
          "spotify" : "https://open.spotify.com/artist/2XDOBQOobSTxtmFhWKdm6x"
        },
        "href" : "https://api.spotify.com/v1/artists/2XDOBQOobSTxtmFhWKdm6x",
        "id" : "2XDOBQOobSTxtmFhWKdm6x",
        "name" : "Brandon Fiechter",
        "type" : "artist",
        "uri" : "spotify:artist:2XDOBQOobSTxtmFhWKdm6x"
      } ],
      "disc_number" : 1,
      "duration_ms" : 183448,
      "explicit" : false,
      "external_ids" : {
        "isrc" : "ushm81846706"
      },
      "external_urls" : {
        "spotify" : "https://open.spotify.com/track/4UH2L5fl6F0AypCXcLTh95"
      },
      "href" : "https://api.spotify.com/v1/tracks/4UH2L5fl6F0AypCXcLTh95",
      "id" : "4UH2L5fl6F0AypCXcLTh95",
      "is_local" : false,
      "is_playable" : true,
      "name" : "The God of Abraham Praise",
      "popularity" : 1,
      "preview_url" : "https://p.scdn.co/mp3-preview/e2d622bea4f14d1d62d96fab11d31e5b4490ed15?cid=774b29d4f13844c495f206cafdad9c86",
      "track_number" : 6,
      "type" : "track",
      "uri" : "spotify:track:4UH2L5fl6F0AypCXcLTh95"
    }, {
      "album" : {
        "album_type" : "album",
        "artists" : [ {
          "external_urls" : {
            "spotify" : "https://open.spotify.com/artist/6MUmixTPL1jQhUrOQJGwTk"
          },
          "href" : "https://api.spotify.com/v1/artists/6MUmixTPL1jQhUrOQJGwTk",
          "id" : "6MUmixTPL1jQhUrOQJGwTk",
          "name" : "Vince T. Taylor",
          "type" : "artist",
          "uri" : "spotify:artist:6MUmixTPL1jQhUrOQJGwTk"
        } ],
        "external_urls" : {
          "spotify" : "https://open.spotify.com/album/0HkFcjVs4gYq4rRs8MA696"
        },
        "href" : "https://api.spotify.com/v1/albums/0HkFcjVs4gYq4rRs8MA696",
        "id" : "0HkFcjVs4gYq4rRs8MA696",
        "images" : [ {
          "height" : 640,
          "url" : "https://i.scdn.co/image/ab67616d0000b273656dd51617175b13f7d8add0",
          "width" : 640
        }, {
          "height" : 300,
          "url" : "https://i.scdn.co/image/ab67616d00001e02656dd51617175b13f7d8add0",
          "width" : 300
        }, {
          "height" : 64,
          "url" : "https://i.scdn.co/image/ab67616d00004851656dd51617175b13f7d8add0",
          "width" : 64
        } ],
        "name" : "Hymn Music, Vol. 1 (Instrumental)",
        "release_date" : "2015-04-07",
        "release_date_precision" : "day",
        "total_tracks" : 10,
        "type" : "album",
        "uri" : "spotify:album:0HkFcjVs4gYq4rRs8MA696"
      },
      "artists" : [ {
        "external_urls" : {
          "spotify" : "https://open.spotify.com/artist/6MUmixTPL1jQhUrOQJGwTk"
        },
        "href" : "https://api.spotify.com/v1/artists/6MUmixTPL1jQhUrOQJGwTk",
        "id" : "6MUmixTPL1jQhUrOQJGwTk",
        "name" : "Vince T. Taylor",
        "type" : "artist",
        "uri" : "spotify:artist:6MUmixTPL1jQhUrOQJGwTk"
      } ],
      "disc_number" : 1,
      "duration_ms" : 396201,
      "explicit" : false,
      "external_ids" : {
        "isrc" : "QMBZ91402711"
      },
      "external_urls" : {
        "spotify" : "https://open.spotify.com/track/5GG7IVBny8tqL88FkzsoYy"
      },
      "href" : "https://api.spotify.com/v1/tracks/5GG7IVBny8tqL88FkzsoYy",
      "id" : "5GG7IVBny8tqL88FkzsoYy",
      "is_local" : false,
      "is_playable" : true,
      "name" : "The God of Abraham Praise",
      "popularity" : 0,
      "preview_url" : "https://p.scdn.co/mp3-preview/5740e205069d603542d916d1d37c98e43446fd92?cid=774b29d4f13844c495f206cafdad9c86",
      "track_number" : 4,
      "type" : "track",
      "uri" : "spotify:track:5GG7IVBny8tqL88FkzsoYy"
    } ],
    "limit" : 10,
    "next" : "https://api.spotify.com/v1/search?query=The+God+of+Abraham+Praise&type=track&market=US&offset=15&limit=10",
    "offset" : 5,
    "previous" : "https://api.spotify.com/v1/search?query=The+God+of+Abraham+Praise&type=track&market=US&offset=0&limit=10",
    "total" : 68
  }
}