{
  "tracks" : {
    "href" : "https://api.spotify.com/v1/search?query=The+Wonder+of+It+All&type=track&market=US&offset=5&limit=10",
    "items" : [ {
      "album" : {
        "album_type" : "album",
        "artists" : [ {
          "external_urls" : {
            "spotify" : "https://open.spotify.com/artist/3Be0FxZRoCJ8UPrkwe6Xuw"
          },
          "href" : "https://api.spotify.com/v1/artists/3Be0FxZRoCJ8UPrkwe6Xuw",
          "id" : "3Be0FxZRoCJ8UPrkwe6Xuw",
          "name" : "Stan Whitmire",
          "type" : "artist",
          "uri" : "spotify:artist:3Be0FxZRoCJ8UPrkwe6Xuw"
        } ],
        "external_urls" : {
          "spotify" : "https://open.spotify.com/album/4x46cTQvPPRX9GsCXwCftP"
        },
        "href" : "https://api.spotify.com/v1/albums/4x46cTQvPPRX9GsCXwCftP",
        "id" : "4x46cTQvPPRX9GsCXwCftP",
        "images" : [ {
          "height" : 640,
          "url" : "https://i.scdn.co/image/ab67616d0000b273178bbaaefd670dae116d5025",
          "width" : 640
        }, {
          "height" : 300,
          "url" : "https://i.scdn.co/image/ab67616d00001e02178bbaaefd670dae116d5025",
          "width" : 300
        }, {
          "height" : 64,
          "url" : "https://i.scdn.co/image/ab67616d00004851178bbaaefd670dae116d5025",
          "width" : 64
        } ],
        "name" : "He Leadeth Me: Hymns By Request",
        "release_date" : "2015-09-11",
        "release_date_precision" : "day",
        "total_tracks" : 13,
        "type" : "album",
        "uri" : "spotify:album:4x46cTQvPPRX9GsCXwCftP"
      },
      "artists" : [ {
        "external_urls" : {
          "spotify" : "https://open.spotify.com/artist/3Be0FxZRoCJ8UPrkwe6Xuw"
        },
        "href" : "https://api.spotify.com/v1/artists/3Be0FxZRoCJ8UPrkwe6Xuw",
        "id" : "3Be0FxZRoCJ8UPrkwe6Xuw",
        "name" : "Stan Whitmire",
        "type" : "artist",
        "uri" : "spotify:artist:3Be0FxZRoCJ8UPrkwe6Xuw"
      } ],
      "disc_number" : 1,
      "duration_ms" : 289173,
      "explicit" : false,
      "external_ids" : {
        "isrc" : "US86A1500028"
      },
      "external_urls" : {
        "spotify" : "https://open.spotify.com/track/1ZAnafaojdVmNiFi15FNiA"
      },
      "href" : "https://api.spotify.com/v1/tracks/1ZAnafaojdVmNiFi15FNiA",
      "id" : "1ZAnafaojdVmNiFi15FNiA",
      "is_local" : false,
      "is_playable" : true,
      "name" : "Jesus Loves Me / Why Should He Love Me So? / The Wonder Of It All - Medley",
      "popularity" : 18,
      "preview_url" : null,
      "track_number" : 5,
      "type" : "track",
      "uri" : "spotify:track:1ZAnafaojdVmNiFi15FNiA"
    }, {
      "album" : {
        "album_type" : "album",
        "artists" : [ {
          "external_urls" : {
            "spotify" : "https://open.spotify.com/artist/3zAxGWQqKmDnAsCY57ihKR"
          },
          "href" : "https://api.spotify.com/v1/artists/3zAxGWQqKmDnAsCY57ihKR",
          "id" : "3zAxGWQqKmDnAsCY57ihKR",
          "name" : "Long Beach Dub Allstars",
          "type" : "artist",
          "uri" : "spotify:artist:3zAxGWQqKmDnAsCY57ihKR"
        } ],
        "external_urls" : {
          "spotify" : "https://open.spotify.com/album/1mL3ujun8jq6Jd8Mp24kp6"
        },
        "href" : "https://api.spotify.com/v1/albums/1mL3ujun8jq6Jd8Mp24kp6",
        "id" : "1mL3ujun8jq6Jd8Mp24kp6",
        "images" : [ {
          "height" : 640,
          "url" : "https://i.scdn.co/image/ab67616d0000b2737773583cb9309d99fdfec053",
          "width" : 640
        }, {
          "height" : 300,
          "url" : "https://i.scdn.co/image/ab67616d00001e027773583cb9309d99fdfec053",
          "width" : 300
        }, {
          "height" : 64,
          "url" : "https://i.scdn.co/image/ab67616d000048517773583cb9309d99fdfec053",
          "width" : 64
        } ],
        "name" : "Wonders Of The World",
        "release_date" : "2001-01-01",
        "release_date_precision" : "day",
        "total_tracks" : 17,
        "type" : "album",
        "uri" : "spotify:album:1mL3ujun8jq6Jd8Mp24kp6"
      },
      "artists" : [ {
        "external_urls" : {
          "spotify" : "https://open.spotify.com/artist/3zAxGWQqKmDnAsCY57ihKR"
        },
        "href" : "https://api.spotify.com/v1/artists/3zAxGWQqKmDnAsCY57ihKR",
        "id" : "3zAxGWQqKmDnAsCY57ihKR",
        "name" : "Long Beach Dub Allstars",
        "type" : "artist",
        "uri" : "spotify:artist:3zAxGWQqKmDnAsCY57ihKR"
      } ],
      "disc_number" : 1,
      "duration_ms" : 203000,
      "explicit" : false,
      "external_ids" : {
        "isrc" : "USDW10110379"
      },
      "external_urls" : {
        "spotify" : "https://open.spotify.com/track/3x2n70GMYuJsSb6kb1nObc"
      },
      "href" : "https://api.spotify.com/v1/tracks/3x2n70GMYuJsSb6kb1nObc",
      "id" : "3x2n70GMYuJsSb6kb1nObc",
      "is_local" : false,
      "is_playable" : true,
      "name" : "It Ain't Easy",
      "popularity" : 37,
      "preview_url" : null,
      "track_number" : 7,
      "type" : "track",
      "uri" : "spotify:track:3x2n70GMYuJsSb6kb1nObc"
    }, {
      "album" : {
        "album_type" : "album",
        "artists" : [ {
          "external_urls" : {
            "spotify" : "https://open.spotify.com/artist/25qvzGCp2vdKFLjVCcypHs"
          },
          "href" : "https://api.spotify.com/v1/artists/25qvzGCp2vdKFLjVCcypHs",
          "id" : "25qvzGCp2vdKFLjVCcypHs",
          "name" : "Kate Kelly",
          "type" : "artist",
          "uri" : "spotify:artist:25qvzGCp2vdKFLjVCcypHs"
        } ],
        "external_urls" : {
          "spotify" : "https://open.spotify.com/album/2ntnjAIZXJQ6mMt3WZLq7v"
        },
        "href" : "https://api.spotify.com/v1/albums/2ntnjAIZXJQ6mMt3WZLq7v",
        "id" : "2ntnjAIZXJQ6mMt3WZLq7v",
        "images" : [ {
          "height" : 640,
          "url" : "https://i.scdn.co/image/ab67616d0000b273e007fed29400deee11296ebf",
          "width" : 640
        }, {
          "height" : 300,
          "url" : "https://i.scdn.co/image/ab67616d00001e02e007fed29400deee11296ebf",
          "width" : 300
        }, {
          "height" : 64,
          "url" : "https://i.scdn.co/image/ab67616d00004851e007fed29400deee11296ebf",
          "width" : 64
        } ],
        "name" : "The Wonder of It All",
        "release_date" : "2018-10-26",
        "release_date_precision" : "day",
        "total_tracks" : 8,
        "type" : "album",
        "uri" : "spotify:album:2ntnjAIZXJQ6mMt3WZLq7v"
      },
      "artists" : [ {
        "external_urls" : {
          "spotify" : "https://open.spotify.com/artist/25qvzGCp2vdKFLjVCcypHs"
        },
        "href" : "https://api.spotify.com/v1/artists/25qvzGCp2vdKFLjVCcypHs",
        "id" : "25qvzGCp2vdKFLjVCcypHs",
        "name" : "Kate Kelly",
        "type" : "artist",
        "uri" : "spotify:artist:25qvzGCp2vdKFLjVCcypHs"
      } ],
      "disc_number" : 1,
      "duration_ms" : 190751,
      "explicit" : false,
      "external_ids" : {
        "isrc" : "TCADS1874348"
      },
      "external_urls" : {
        "spotify" : "https://open.spotify.com/track/2FbIxiSm4M8cpOqnEfPgOV"
      },
      "href" : "https://api.spotify.com/v1/tracks/2FbIxiSm4M8cpOqnEfPgOV",
      "id" : "2FbIxiSm4M8cpOqnEfPgOV",
      "is_local" : false,
      "is_playable" : true,
      "name" : "Honey",
      "popularity" : 31,
      "preview_url" : "https://p.scdn.co/mp3-preview/4d92d58d1582bb95a563413feaf261b309a2b68d?cid=774b29d4f13844c495f206cafdad9c86",
      "track_number" : 4,
      "type" : "track",
      "uri" : "spotify:track:2FbIxiSm4M8cpOqnEfPgOV"
    }, {
      "album" : {
        "album_type" : "album",
        "artists" : [ {
          "external_urls" : {
            "spotify" : "https://open.spotify.com/artist/3zAxGWQqKmDnAsCY57ihKR"
          },
          "href" : "https://api.spotify.com/v1/artists/3zAxGWQqKmDnAsCY57ihKR",
          "id" : "3zAxGWQqKmDnAsCY57ihKR",
          "name" : "Long Beach Dub Allstars",
          "type" : "artist",
          "uri" : "spotify:artist:3zAxGWQqKmDnAsCY57ihKR"
        } ],
        "external_urls" : {
          "spotify" : "https://open.spotify.com/album/1mL3ujun8jq6Jd8Mp24kp6"
        },
        "href" : "https://api.spotify.com/v1/albums/1mL3ujun8jq6Jd8Mp24kp6",
        "id" : "1mL3ujun8jq6Jd8Mp24kp6",
        "images" : [ {
          "height" : 640,
          "url" : "https://i.scdn.co/image/ab67616d0000b2737773583cb9309d99fdfec053",
          "width" : 640
        }, {
          "height" : 300,
          "url" : "https://i.scdn.co/image/ab67616d00001e027773583cb9309d99fdfec053",
          "width" : 300
        }, {
          "height" : 64,
          "url" : "https://i.scdn.co/image/ab67616d000048517773583cb9309d99fdfec053",
          "width" : 64
        } ],
        "name" : "Wonders Of The World",
        "release_date" : "2001-01-01",
        "release_date_precision" : "day",
        "total_tracks" : 17,
        "type" : "album",
        "uri" : "spotify:album:1mL3ujun8jq6Jd8Mp24kp6"
      },
      "artists" : [ {
        "external_urls" : {
          "spotify" : "https://open.spotify.com/artist/3zAxGWQqKmDnAsCY57ihKR"
        },
        "href" : "https://api.spotify.com/v1/artists/3zAxGWQqKmDnAsCY57ihKR",
        "id" : "3zAxGWQqKmDnAsCY57ihKR",
        "name" : "Long Beach Dub Allstars",
        "type" : "artist",
        "uri" : "spotify:artist:3zAxGWQqKmDnAsCY57ihKR"
      } ],
      "disc_number" : 1,
      "duration_ms" : 278066,
      "explicit" : false,
      "external_ids" : {
        "isrc" : "USDW10110387"
      },
      "external_urls" : {
        "spotify" : "https://open.spotify.com/track/1gN9pP5Pi7WmjmaE36hfDZ"
      },
      "href" : "https://api.spotify.com/v1/tracks/1gN9pP5Pi7WmjmaE36hfDZ",
      "id" : "1gN9pP5Pi7WmjmaE36hfDZ",
      "is_local" : false,
      "is_playable" : true,
      "name" : "Kablammin' It",
      "popularity" : 25,
      "preview_url" : null,
      "track_number" : 15,
      "type" : "track",
      "uri" : "spotify:track:1gN9pP5Pi7WmjmaE36hfDZ"
    }, {
      "album" : {
        "album_type" : "album",
        "artists" : [ {
          "external_urls" : {
            "spotify" : "https://open.spotify.com/artist/71lGEtP9qYXDsSXjfexTqO"
          },
          "href" : "https://api.spotify.com/v1/artists/71lGEtP9qYXDsSXjfexTqO",
          "id" : "71lGEtP9qYXDsSXjfexTqO",
          "name" : "Sonny & Cher",
          "type" : "artist",
          "uri" : "spotify:artist:71lGEtP9qYXDsSXjfexTqO"
        } ],
        "external_urls" : {
          "spotify" : "https://open.spotify.com/album/6mAI29URqF3tCpt2FTksXh"
        },
        "href" : "https://api.spotify.com/v1/albums/6mAI29URqF3tCpt2FTksXh",
        "id" : "6mAI29URqF3tCpt2FTksXh",
        "images" : [ {
          "height" : 640,
          "url" : "https://i.scdn.co/image/ab67616d0000b273e268c8ba3f679ba4192bbd8d",
          "width" : 640
        }, {
          "height" : 300,
          "url" : "https://i.scdn.co/image/ab67616d00001e02e268c8ba3f679ba4192bbd8d",
          "width" : 300
        }, {
          "height" : 64,
          "url" : "https://i.scdn.co/image/ab67616d00004851e268c8ba3f679ba4192bbd8d",
          "width" : 64
        } ],
        "name" : "The Wonderous World Of Sonny & Cher",
        "release_date" : "1966-05-01",
        "release_date_precision" : "day",
        "total_tracks" : 15,
        "type" : "album",
        "uri" : "spotify:album:6mAI29URqF3tCpt2FTksXh"
      },
      "artists" : [ {
        "external_urls" : {
          "spotify" : "https://open.spotify.com/artist/71lGEtP9qYXDsSXjfexTqO"
        },
        "href" : "https://api.spotify.com/v1/artists/71lGEtP9qYXDsSXjfexTqO",
        "id" : "71lGEtP9qYXDsSXjfexTqO",
        "name" : "Sonny & Cher",
        "type" : "artist",
        "uri" : "spotify:artist:71lGEtP9qYXDsSXjfexTqO"
      } ],
      "disc_number" : 1,
      "duration_ms" : 138466,
      "explicit" : false,
      "external_ids" : {
        "isrc" : "USAT20505246"
      },
      "external_urls" : {
        "spotify" : "https://open.spotify.com/track/1NNftuPggIHO7DNZr7h3xS"
      },
      "href" : "https://api.spotify.com/v1/tracks/1NNftuPggIHO7DNZr7h3xS",
      "id" : "1NNftuPggIHO7DNZr7h3xS",
      "is_local" : false,
      "is_playable" : true,
      "name" : "I'm Leaving It All up to You",
      "popularity" : 29,
      "preview_url" : "https://p.scdn.co/mp3-preview/faeaefdfd4ce5ab8684da97a74d0e6919cb7d650?cid=774b29d4f13844c495f206cafdad9c86",
      "track_number" : 3,
      "type" : "track",
      "uri" : "spotify:track:1NNftuPggIHO7DNZr7h3xS"
    }, {
      "album" : {
        "album_type" : "album",
        "artists" : [ {
          "external_urls" : {
            "spotify" : "https://open.spotify.com/artist/20UltlhZa5iKdeQeEpdiX9"
          },
          "href" : "https://api.spotify.com/v1/artists/20UltlhZa5iKdeQeEpdiX9",
          "id" : "20UltlhZa5iKdeQeEpdiX9",
          "name" : "Ian Tyson",
          "type" : "artist",
          "uri" : "spotify:artist:20UltlhZa5iKdeQeEpdiX9"
        } ],
        "external_urls" : {
          "spotify" : "https://open.spotify.com/album/3bbSERI3Eqj9WwMokgPZLr"
        },
        "href" : "https://api.spotify.com/v1/albums/3bbSERI3Eqj9WwMokgPZLr",
        "id" : "3bbSERI3Eqj9WwMokgPZLr",
        "images" : [ {
          "height" : 640,
          "url" : "https://i.scdn.co/image/ab67616d0000b273cbaa9ee11ab54cb3c013c174",
          "width" : 640
        }, {
          "height" : 300,
          "url" : "https://i.scdn.co/image/ab67616d00001e02cbaa9ee11ab54cb3c013c174",
          "width" : 300
        }, {
          "height" : 64,
          "url" : "https://i.scdn.co/image/ab67616d00004851cbaa9ee11ab54cb3c013c174",
          "width" : 64
        } ],
        "name" : "All The Good 'Uns",
        "release_date" : "1996-01-01",
        "release_date_precision" : "day",
        "total_tracks" : 19,
        "type" : "album",
        "uri" : "spotify:album:3bbSERI3Eqj9WwMokgPZLr"
      },
      "artists" : [ {
        "external_urls" : {
          "spotify" : "https://open.spotify.com/artist/20UltlhZa5iKdeQeEpdiX9"
        },
        "href" : "https://api.spotify.com/v1/artists/20UltlhZa5iKdeQeEpdiX9",
        "id" : "20UltlhZa5iKdeQeEpdiX9",
        "name" : "Ian Tyson",
        "type" : "artist",
        "uri" : "spotify:artist:20UltlhZa5iKdeQeEpdiX9"
      } ],
      "disc_number" : 1,
      "duration_ms" : 185266,
      "explicit" : false,
      "external_ids" : {
        "isrc" : "USVG29652878"
      },
      "external_urls" : {
        "spotify" : "https://open.spotify.com/track/48xsMmIQ87Lzg1CZ7IcyDo"
      },
      "href" : "https://api.spotify.com/v1/tracks/48xsMmIQ87Lzg1CZ7IcyDo",
      "id" : "48xsMmIQ87Lzg1CZ7IcyDo",
      "is_local" : false,
      "is_playable" : true,
      "name" : "The Wonder Of It All",
      "popularity" : 16,
      "preview_url" : null,
      "track_number" : 1,
      "type" : "track",
      "uri" : "spotify:track:48xsMmIQ87Lzg1CZ7IcyDo"
    }, {
      "album" : {
        "album_type" : "album",
        "artists" : [ {
          "external_urls" : {
            "spotify" : "https://open.spotify.com/artist/7guDJrEfX3qb6FEbdPA5qi"
          },
          "href" : "https://api.spotify.com/v1/artists/7guDJrEfX3qb6FEbdPA5qi",
          "id" : "7guDJrEfX3qb6FEbdPA5qi",
          "name" : "Stevie Wonder",
          "type" : "artist",
          "uri" : "spotify:artist:7guDJrEfX3qb6FEbdPA5qi"
        } ],
        "external_urls" : {
          "spotify" : "https://open.spotify.com/album/04giHQ9zptJUHUvtIyxL9Z"
        },
        "href" : "https://api.spotify.com/v1/albums/04giHQ9zptJUHUvtIyxL9Z",
        "id" : "04giHQ9zptJUHUvtIyxL9Z",
        "images" : [ {
          "height" : 640,
          "url" : "https://i.scdn.co/image/ab67616d0000b273f97219e49a23bfdd4de7eed1",
          "width" : 640
        }, {
          "height" : 300,
          "url" : "https://i.scdn.co/image/ab67616d00001e02f97219e49a23bfdd4de7eed1",
          "width" : 300
        }, {
          "height" : 64,
          "url" : "https://i.scdn.co/image/ab67616d00004851f97219e49a23bfdd4de7eed1",
          "width" : 64
        } ],
        "name" : "At The Close Of A Century",
        "release_date" : "1999-11-23",
        "release_date_precision" : "day",
        "total_tracks" : 70,
        "type" : "album",
        "uri" : "spotify:album:04giHQ9zptJUHUvtIyxL9Z"
      },
      "artists" : [ {
        "external_urls" : {
          "spotify" : "https://open.spotify.com/artist/7guDJrEfX3qb6FEbdPA5qi"
        },
        "href" : "https://api.spotify.com/v1/artists/7guDJrEfX3qb6FEbdPA5qi",
        "id" : "7guDJrEfX3qb6FEbdPA5qi",
        "name" : "Stevie Wonder",
        "type" : "artist",
        "uri" : "spotify:artist:7guDJrEfX3qb6FEbdPA5qi"
      } ],
      "disc_number" : 2,
      "duration_ms" : 333840,
      "explicit" : false,
      "external_ids" : {
        "isrc" : "USMO17382778"
      },
      "external_urls" : {
        "spotify" : "https://open.spotify.com/track/2MClNEPCQhOxxeggmtSdRH"
      },
      "href" : "https://api.spotify.com/v1/tracks/2MClNEPCQhOxxeggmtSdRH",
      "id" : "2MClNEPCQhOxxeggmtSdRH",
      "is_local" : false,
      "is_playable" : true,
      "name" : "He's Misstra Know-It-All",
      "popularity" : 25,
      "preview_url" : null,
      "track_number" : 12,
      "type" : "track",
      "uri" : "spotify:track:2MClNEPCQhOxxeggmtSdRH"
    }, {
      "album" : {
        "album_type" : "album",
        "artists" : [ {
          "external_urls" : {
            "spotify" : "https://open.spotify.com/artist/25qvzGCp2vdKFLjVCcypHs"
          },
          "href" : "https://api.spotify.com/v1/artists/25qvzGCp2vdKFLjVCcypHs",
          "id" : "25qvzGCp2vdKFLjVCcypHs",
          "name" : "Kate Kelly",
          "type" : "artist",
          "uri" : "spotify:artist:25qvzGCp2vdKFLjVCcypHs"
        } ],
        "external_urls" : {
          "spotify" : "https://open.spotify.com/album/2ntnjAIZXJQ6mMt3WZLq7v"
        },
        "href" : "https://api.spotify.com/v1/albums/2ntnjAIZXJQ6mMt3WZLq7v",
        "id" : "2ntnjAIZXJQ6mMt3WZLq7v",
        "images" : [ {
          "height" : 640,
          "url" : "https://i.scdn.co/image/ab67616d0000b273e007fed29400deee11296ebf",
          "width" : 640
        }, {
          "height" : 300,
          "url" : "https://i.scdn.co/image/ab67616d00001e02e007fed29400deee11296ebf",
          "width" : 300
        }, {
          "height" : 64,
          "url" : "https://i.scdn.co/image/ab67616d00004851e007fed29400deee11296ebf",
          "width" : 64
        } ],
        "name" : "The Wonder of It All",
        "release_date" : "2018-10-26",
        "release_date_precision" : "day",
        "total_tracks" : 8,
        "type" : "album",
        "uri" : "spotify:album:2ntnjAIZXJQ6mMt3WZLq7v"
      },
      "artists" : [ {
        "external_urls" : {
          "spotify" : "https://open.spotify.com/artist/25qvzGCp2vdKFLjVCcypHs"
        },
        "href" : "https://api.spotify.com/v1/artists/25qvzGCp2vdKFLjVCcypHs",
        "id" : "25qvzGCp2vdKFLjVCcypHs",
        "name" : "Kate Kelly",
        "type" : "artist",
        "uri" : "spotify:artist:25qvzGCp2vdKFLjVCcypHs"
      } ],
      "disc_number" : 1,
      "duration_ms" : 247098,
      "explicit" : false,
      "external_ids" : {
        "isrc" : "TCADT1896863"
      },
      "external_urls" : {
        "spotify" : "https://open.spotify.com/track/2Wu2McaWFECECEbJc1mbGI"
      },
      "href" : "https://api.spotify.com/v1/tracks/2Wu2McaWFECECEbJc1mbGI",
      "id" : "2Wu2McaWFECECEbJc1mbGI",
      "is_local" : false,
      "is_playable" : true,
      "name" : "The Garden",
      "popularity" : 19,
      "preview_url" : "https://p.scdn.co/mp3-preview/9a37a18f620cb4c771eca3b656e0eb547ea99312?cid=774b29d4f13844c495f206cafdad9c86",
      "track_number" : 3,
      "type" : "track",
      "uri" : "spotify:track:2Wu2McaWFECECEbJc1mbGI"
    }, {
      "album" : {
        "album_type" : "album",
        "artists" : [ {
          "external_urls" : {
            "spotify" : "https://open.spotify.com/artist/25qvzGCp2vdKFLjVCcypHs"
          },
          "href" : "https://api.spotify.com/v1/artists/25qvzGCp2vdKFLjVCcypHs",
          "id" : "25qvzGCp2vdKFLjVCcypHs",
          "name" : "Kate Kelly",
          "type" : "artist",
          "uri" : "spotify:artist:25qvzGCp2vdKFLjVCcypHs"
        } ],
        "external_urls" : {
          "spotify" : "https://open.spotify.com/album/2ntnjAIZXJQ6mMt3WZLq7v"
        },
        "href" : "https://api.spotify.com/v1/albums/2ntnjAIZXJQ6mMt3WZLq7v",
        "id" : "2ntnjAIZXJQ6mMt3WZLq7v",
        "images" : [ {
          "height" : 640,
          "url" : "https://i.scdn.co/image/ab67616d0000b273e007fed29400deee11296ebf",
          "width" : 640
        }, {
          "height" : 300,
          "url" : "https://i.scdn.co/image/ab67616d00001e02e007fed29400deee11296ebf",
          "width" : 300
        }, {
          "height" : 64,
          "url" : "https://i.scdn.co/image/ab67616d00004851e007fed29400deee11296ebf",
          "width" : 64
        } ],
        "name" : "The Wonder of It All",
        "release_date" : "2018-10-26",
        "release_date_precision" : "day",
        "total_tracks" : 8,
        "type" : "album",
        "uri" : "spotify:album:2ntnjAIZXJQ6mMt3WZLq7v"
      },
      "artists" : [ {
        "external_urls" : {
          "spotify" : "https://open.spotify.com/artist/25qvzGCp2vdKFLjVCcypHs"
        },
        "href" : "https://api.spotify.com/v1/artists/25qvzGCp2vdKFLjVCcypHs",
        "id" : "25qvzGCp2vdKFLjVCcypHs",
        "name" : "Kate Kelly",
        "type" : "artist",
        "uri" : "spotify:artist:25qvzGCp2vdKFLjVCcypHs"
      } ],
      "disc_number" : 1,
      "duration_ms" : 199212,
      "explicit" : false,
      "external_ids" : {
        "isrc" : "TCADW1853958"
      },
      "external_urls" : {
        "spotify" : "https://open.spotify.com/track/1vYNDiAMNEYGwMA59g9H6A"
      },
      "href" : "https://api.spotify.com/v1/tracks/1vYNDiAMNEYGwMA59g9H6A",
      "id" : "1vYNDiAMNEYGwMA59g9H6A",
      "is_local" : false,
      "is_playable" : true,
      "name" : "The Book We Made",
      "popularity" : 18,
      "preview_url" : "https://p.scdn.co/mp3-preview/2ed09ab97444d2b374321d1d44b03901e4bf4c2f?cid=774b29d4f13844c495f206cafdad9c86",
      "track_number" : 1,
      "type" : "track",
      "uri" : "spotify:track:1vYNDiAMNEYGwMA59g9H6A"
    }, {
      "album" : {
        "album_type" : "album",
        "artists" : [ {
          "external_urls" : {
            "spotify" : "https://open.spotify.com/artist/4KQZcyr3Dn3NEr5Qu7dxuc"
          },
          "href" : "https://api.spotify.com/v1/artists/4KQZcyr3Dn3NEr5Qu7dxuc",
          "id" : "4KQZcyr3Dn3NEr5Qu7dxuc",
          "name" : "Rush Of Fools",
          "type" : "artist",
          "uri" : "spotify:artist:4KQZcyr3Dn3NEr5Qu7dxuc"
        } ],
        "external_urls" : {
          "spotify" : "https://open.spotify.com/album/69k6QM55kwrRdJFEgKYUm1"
        },
        "href" : "https://api.spotify.com/v1/albums/69k6QM55kwrRdJFEgKYUm1",
        "id" : "69k6QM55kwrRdJFEgKYUm1",
        "images" : [ {
          "height" : 640,
          "url" : "https://i.scdn.co/image/ab67616d0000b2739ba160ffa5765183846b9ae7",
          "width" : 640
        }, {
          "height" : 300,
          "url" : "https://i.scdn.co/image/ab67616d00001e029ba160ffa5765183846b9ae7",
          "width" : 300
        }, {
          "height" : 64,
          "url" : "https://i.scdn.co/image/ab67616d000048519ba160ffa5765183846b9ae7",
          "width" : 64
        } ],
        "name" : "Wonder of the World",
        "release_date" : "2008-09-16",
        "release_date_precision" : "day",
        "total_tracks" : 11,
        "type" : "album",
        "uri" : "spotify:album:69k6QM55kwrRdJFEgKYUm1"
      },
      "artists" : [ {
        "external_urls" : {
          "spotify" : "https://open.spotify.com/artist/4KQZcyr3Dn3NEr5Qu7dxuc"
        },
        "href" : "https://api.spotify.com/v1/artists/4KQZcyr3Dn3NEr5Qu7dxuc",
        "id" : "4KQZcyr3Dn3NEr5Qu7dxuc",
        "name" : "Rush Of Fools",
        "type" : "artist",
        "uri" : "spotify:artist:4KQZcyr3Dn3NEr5Qu7dxuc"
      } ],
      "disc_number" : 1,
      "duration_ms" : 190680,
      "explicit" : false,
      "external_ids" : {
        "isrc" : "US2F50800309"
      },
      "external_urls" : {
        "spotify" : "https://open.spotify.com/track/2JNDK9JcIA58VgA7HwiuCm"
      },
      "href" : "https://api.spotify.com/v1/tracks/2JNDK9JcIA58VgA7HwiuCm",
      "id" : "2JNDK9JcIA58VgA7HwiuCm",
      "is_local" : false,
      "is_playable" : true,
      "name" : "Lose It All",
      "popularity" : 14,
      "preview_url" : "https://p.scdn.co/mp3-preview/0cac482d1556ab029d5ed9b1e77a0c6d098cf7c3?cid=774b29d4f13844c495f206cafdad9c86",
      "track_number" : 5,
      "type" : "track",
      "uri" : "spotify:track:2JNDK9JcIA58VgA7HwiuCm"
    } ],
    "limit" : 10,
    "next" : "https://api.spotify.com/v1/search?query=The+Wonder+of+It+All&type=track&market=US&offset=15&limit=10",
    "offset" : 5,
    "previous" : "https://api.spotify.com/v1/search?query=The+Wonder+of+It+All&type=track&market=US&offset=0&limit=10",
    "total" : 527
  }
}