{
  "tracks" : {
    "href" : "https://api.spotify.com/v1/search?query=Thine+Is+the+Glory&type=track&market=US&offset=5&limit=10",
    "items" : [ {
      "album" : {
        "album_type" : "album",
        "artists" : [ {
          "external_urls" : {
            "spotify" : "https://open.spotify.com/artist/6okBvpENAfIe6u7n5bdFDK"
          },
          "href" : "https://api.spotify.com/v1/artists/6okBvpENAfIe6u7n5bdFDK",
          "id" : "6okBvpENAfIe6u7n5bdFDK",
          "name" : "Spring Harvest",
          "type" : "artist",
          "uri" : "spotify:artist:6okBvpENAfIe6u7n5bdFDK"
        } ],
        "external_urls" : {
          "spotify" : "https://open.spotify.com/album/5Knxwc5w2R1DVv3Xgqa1p5"
        },
        "href" : "https://api.spotify.com/v1/albums/5Knxwc5w2R1DVv3Xgqa1p5",
        "id" : "5Knxwc5w2R1DVv3Xgqa1p5",
        "images" : [ {
          "height" : 640,
          "url" : "https://i.scdn.co/image/ab67616d0000b273cf759f9aa928f45c6e578864",
          "width" : 640
        }, {
          "height" : 300,
          "url" : "https://i.scdn.co/image/ab67616d00001e02cf759f9aa928f45c6e578864",
          "width" : 300
        }, {
          "height" : 64,
          "url" : "https://i.scdn.co/image/ab67616d00004851cf759f9aa928f45c6e578864",
          "width" : 64
        } ],
        "name" : "Spring Harvest Hymns, Vol. 1: Great Is Thy Faithfulness",
        "release_date" : "2003-03-05",
        "release_date_precision" : "day",
        "total_tracks" : 12,
        "type" : "album",
        "uri" : "spotify:album:5Knxwc5w2R1DVv3Xgqa1p5"
      },
      "artists" : [ {
        "external_urls" : {
          "spotify" : "https://open.spotify.com/artist/6okBvpENAfIe6u7n5bdFDK"
        },
        "href" : "https://api.spotify.com/v1/artists/6okBvpENAfIe6u7n5bdFDK",
        "id" : "6okBvpENAfIe6u7n5bdFDK",
        "name" : "Spring Harvest",
        "type" : "artist",
        "uri" : "spotify:artist:6okBvpENAfIe6u7n5bdFDK"
      } ],
      "disc_number" : 1,
      "duration_ms" : 225226,
      "explicit" : false,
      "external_ids" : {
        "isrc" : "GBDPR0369401"
      },
      "external_urls" : {
        "spotify" : "https://open.spotify.com/track/6Mtj8HIOla9vvfKPdKKXxn"
      },
      "href" : "https://api.spotify.com/v1/tracks/6Mtj8HIOla9vvfKPdKKXxn",
      "id" : "6Mtj8HIOla9vvfKPdKKXxn",
      "is_local" : false,
      "is_playable" : true,
      "name" : "Thine Be the Glory",
      "popularity" : 18,
      "preview_url" : "https://p.scdn.co/mp3-preview/073f1dbf42833c446f670009bcb9ff36efbb3c46?cid=774b29d4f13844c495f206cafdad9c86",
      "track_number" : 1,
      "type" : "track",
      "uri" : "spotify:track:6Mtj8HIOla9vvfKPdKKXxn"
    }, {
      "album" : {
        "album_type" : "album",
        "artists" : [ {
          "external_urls" : {
            "spotify" : "https://open.spotify.com/artist/5aHE1EAT1F5E1kdvWCqObF"
          },
          "href" : "https://api.spotify.com/v1/artists/5aHE1EAT1F5E1kdvWCqObF",
          "id" : "5aHE1EAT1F5E1kdvWCqObF",
          "name" : "Steven Anderson",
          "type" : "artist",
          "uri" : "spotify:artist:5aHE1EAT1F5E1kdvWCqObF"
        } ],
        "external_urls" : {
          "spotify" : "https://open.spotify.com/album/2Ci3Ej4tQtj3vvit0tBTUj"
        },
        "href" : "https://api.spotify.com/v1/albums/2Ci3Ej4tQtj3vvit0tBTUj",
        "id" : "2Ci3Ej4tQtj3vvit0tBTUj",
        "images" : [ {
          "height" : 640,
          "url" : "https://i.scdn.co/image/ab67616d0000b2739ab9daf3e890b3a030e48b96",
          "width" : 640
        }, {
          "height" : 300,
          "url" : "https://i.scdn.co/image/ab67616d00001e029ab9daf3e890b3a030e48b96",
          "width" : 300
        }, {
          "height" : 64,
          "url" : "https://i.scdn.co/image/ab67616d000048519ab9daf3e890b3a030e48b96",
          "width" : 64
        } ],
        "name" : "Christian Classics for Baby",
        "release_date" : "2002-01-01",
        "release_date_precision" : "day",
        "total_tracks" : 20,
        "type" : "album",
        "uri" : "spotify:album:2Ci3Ej4tQtj3vvit0tBTUj"
      },
      "artists" : [ {
        "external_urls" : {
          "spotify" : "https://open.spotify.com/artist/5aHE1EAT1F5E1kdvWCqObF"
        },
        "href" : "https://api.spotify.com/v1/artists/5aHE1EAT1F5E1kdvWCqObF",
        "id" : "5aHE1EAT1F5E1kdvWCqObF",
        "name" : "Steven Anderson",
        "type" : "artist",
        "uri" : "spotify:artist:5aHE1EAT1F5E1kdvWCqObF"
      } ],
      "disc_number" : 1,
      "duration_ms" : 153946,
      "explicit" : false,
      "external_ids" : {
        "isrc" : "CAM460700514"
      },
      "external_urls" : {
        "spotify" : "https://open.spotify.com/track/0Qho1Yz3w00xzQTH9qe6tZ"
      },
      "href" : "https://api.spotify.com/v1/tracks/0Qho1Yz3w00xzQTH9qe6tZ",
      "id" : "0Qho1Yz3w00xzQTH9qe6tZ",
      "is_local" : false,
      "is_playable" : true,
      "name" : "Thine Is the Glory - From \"Judas Maccabeus\"",
      "popularity" : 7,
      "preview_url" : "https://p.scdn.co/mp3-preview/12544a65123e6cb9d54fab56e50763e5230f0629?cid=774b29d4f13844c495f206cafdad9c86",
      "track_number" : 3,
      "type" : "track",
      "uri" : "spotify:track:0Qho1Yz3w00xzQTH9qe6tZ"
    }, {
      "album" : {
        "album_type" : "compilation",
        "artists" : [ {
          "external_urls" : {
            "spotify" : "https://open.spotify.com/artist/0LyfQWJT6nXafLPZqxe9Of"
          },
          "href" : "https://api.spotify.com/v1/artists/0LyfQWJT6nXafLPZqxe9Of",
          "id" : "0LyfQWJT6nXafLPZqxe9Of",
          "name" : "Various Artists",
          "type" : "artist",
          "uri" : "spotify:artist:0LyfQWJT6nXafLPZqxe9Of"
        } ],
        "external_urls" : {
          "spotify" : "https://open.spotify.com/album/0aVLx4P3i2l7E6U6FH8rd0"
        },
        "href" : "https://api.spotify.com/v1/albums/0aVLx4P3i2l7E6U6FH8rd0",
        "id" : "0aVLx4P3i2l7E6U6FH8rd0",
        "images" : [ {
          "height" : 640,
          "url" : "https://i.scdn.co/image/ab67616d0000b273fbbb98d9933b26f00263262c",
          "width" : 640
        }, {
          "height" : 300,
          "url" : "https://i.scdn.co/image/ab67616d00001e02fbbb98d9933b26f00263262c",
          "width" : 300
        }, {
          "height" : 64,
          "url" : "https://i.scdn.co/image/ab67616d00004851fbbb98d9933b26f00263262c",
          "width" : 64
        } ],
        "name" : "100 Favorite Hymns",
        "release_date" : "2012-06-01",
        "release_date_precision" : "day",
        "total_tracks" : 100,
        "type" : "album",
        "uri" : "spotify:album:0aVLx4P3i2l7E6U6FH8rd0"
      },
      "artists" : [ {
        "external_urls" : {
          "spotify" : "https://open.spotify.com/artist/4baAtY5PSKehkiN9ISON8l"
        },
        "href" : "https://api.spotify.com/v1/artists/4baAtY5PSKehkiN9ISON8l",
        "id" : "4baAtY5PSKehkiN9ISON8l",
        "name" : "The London Fox Singers",
        "type" : "artist",
        "uri" : "spotify:artist:4baAtY5PSKehkiN9ISON8l"
      }, {
        "external_urls" : {
          "spotify" : "https://open.spotify.com/artist/3kKSlgb9Xa9lD4ZljuR46y"
        },
        "href" : "https://api.spotify.com/v1/artists/3kKSlgb9Xa9lD4ZljuR46y",
        "id" : "3kKSlgb9Xa9lD4ZljuR46y",
        "name" : "The London Sinfonia",
        "type" : "artist",
        "uri" : "spotify:artist:3kKSlgb9Xa9lD4ZljuR46y"
      } ],
      "disc_number" : 1,
      "duration_ms" : 119466,
      "explicit" : false,
      "external_ids" : {
        "isrc" : "GBCEU0781909"
      },
      "external_urls" : {
        "spotify" : "https://open.spotify.com/track/1rPsH6SdpA9K8hL7nFvmV4"
      },
      "href" : "https://api.spotify.com/v1/tracks/1rPsH6SdpA9K8hL7nFvmV4",
      "id" : "1rPsH6SdpA9K8hL7nFvmV4",
      "is_local" : false,
      "is_playable" : true,
      "name" : "Thine Is the Glory",
      "popularity" : 7,
      "preview_url" : "https://p.scdn.co/mp3-preview/8fdaa32f887f215b55d77f8f16f913f45f4a2d72?cid=774b29d4f13844c495f206cafdad9c86",
      "track_number" : 9,
      "type" : "track",
      "uri" : "spotify:track:1rPsH6SdpA9K8hL7nFvmV4"
    }, {
      "album" : {
        "album_type" : "album",
        "artists" : [ {
          "external_urls" : {
            "spotify" : "https://open.spotify.com/artist/5ZKBQyNLXQd1VfNf2oH5yF"
          },
          "href" : "https://api.spotify.com/v1/artists/5ZKBQyNLXQd1VfNf2oH5yF",
          "id" : "5ZKBQyNLXQd1VfNf2oH5yF",
          "name" : "Phillip Keveren",
          "type" : "artist",
          "uri" : "spotify:artist:5ZKBQyNLXQd1VfNf2oH5yF"
        } ],
        "external_urls" : {
          "spotify" : "https://open.spotify.com/album/4vgpVKpbEzw89AQ7yiV8AV"
        },
        "href" : "https://api.spotify.com/v1/albums/4vgpVKpbEzw89AQ7yiV8AV",
        "id" : "4vgpVKpbEzw89AQ7yiV8AV",
        "images" : [ {
          "height" : 640,
          "url" : "https://i.scdn.co/image/ab67616d0000b273e789b5a8298fb6f27716ab3c",
          "width" : 640
        }, {
          "height" : 300,
          "url" : "https://i.scdn.co/image/ab67616d00001e02e789b5a8298fb6f27716ab3c",
          "width" : 300
        }, {
          "height" : 64,
          "url" : "https://i.scdn.co/image/ab67616d00004851e789b5a8298fb6f27716ab3c",
          "width" : 64
        } ],
        "name" : "He Is Risen",
        "release_date" : "2014-02-01",
        "release_date_precision" : "day",
        "total_tracks" : 16,
        "type" : "album",
        "uri" : "spotify:album:4vgpVKpbEzw89AQ7yiV8AV"
      },
      "artists" : [ {
        "external_urls" : {
          "spotify" : "https://open.spotify.com/artist/5ZKBQyNLXQd1VfNf2oH5yF"
        },
        "href" : "https://api.spotify.com/v1/artists/5ZKBQyNLXQd1VfNf2oH5yF",
        "id" : "5ZKBQyNLXQd1VfNf2oH5yF",
        "name" : "Phillip Keveren",
        "type" : "artist",
        "uri" : "spotify:artist:5ZKBQyNLXQd1VfNf2oH5yF"
      } ],
      "disc_number" : 1,
      "duration_ms" : 105720,
      "explicit" : false,
      "external_ids" : {
        "isrc" : "USLF50801726"
      },
      "external_urls" : {
        "spotify" : "https://open.spotify.com/track/3AMlvDUaX0UoKhHk2aWVdG"
      },
      "href" : "https://api.spotify.com/v1/tracks/3AMlvDUaX0UoKhHk2aWVdG",
      "id" : "3AMlvDUaX0UoKhHk2aWVdG",
      "is_local" : false,
      "is_playable" : true,
      "name" : "Thine Is the Glory",
      "popularity" : 5,
      "preview_url" : "https://p.scdn.co/mp3-preview/76e99d0cc01c9f76b43cc7680a560f42b5bfe013?cid=774b29d4f13844c495f206cafdad9c86",
      "track_number" : 10,
      "type" : "track",
      "uri" : "spotify:track:3AMlvDUaX0UoKhHk2aWVdG"
    }, {
      "album" : {
        "album_type" : "album",
        "artists" : [ {
          "external_urls" : {
            "spotify" : "https://open.spotify.com/artist/45QNqncmJi3M3qyWrlcvif"
          },
          "href" : "https://api.spotify.com/v1/artists/45QNqncmJi3M3qyWrlcvif",
          "id" : "45QNqncmJi3M3qyWrlcvif",
          "name" : "William Neil",
          "type" : "artist",
          "uri" : "spotify:artist:45QNqncmJi3M3qyWrlcvif"
        } ],
        "external_urls" : {
          "spotify" : "https://open.spotify.com/album/7rPdMvzDAFVrOKxi91CQc8"
        },
        "href" : "https://api.spotify.com/v1/albums/7rPdMvzDAFVrOKxi91CQc8",
        "id" : "7rPdMvzDAFVrOKxi91CQc8",
        "images" : [ {
          "height" : 640,
          "url" : "https://i.scdn.co/image/ab67616d0000b2736c663bed0854394a6c7c02b4",
          "width" : 640
        }, {
          "height" : 300,
          "url" : "https://i.scdn.co/image/ab67616d00001e026c663bed0854394a6c7c02b4",
          "width" : 300
        }, {
          "height" : 64,
          "url" : "https://i.scdn.co/image/ab67616d000048516c663bed0854394a6c7c02b4",
          "width" : 64
        } ],
        "name" : "He Is Risen! - Favorite Hymns of the Easter Season",
        "release_date" : "2007-10-02",
        "release_date_precision" : "day",
        "total_tracks" : 23,
        "type" : "album",
        "uri" : "spotify:album:7rPdMvzDAFVrOKxi91CQc8"
      },
      "artists" : [ {
        "external_urls" : {
          "spotify" : "https://open.spotify.com/artist/1QL7yTHrdahRMpvNtn6rI2"
        },
        "href" : "https://api.spotify.com/v1/artists/1QL7yTHrdahRMpvNtn6rI2",
        "id" : "1QL7yTHrdahRMpvNtn6rI2",
        "name" : "George Frideric Handel",
        "type" : "artist",
        "uri" : "spotify:artist:1QL7yTHrdahRMpvNtn6rI2"
      }, {
        "external_urls" : {
          "spotify" : "https://open.spotify.com/artist/45QNqncmJi3M3qyWrlcvif"
        },
        "href" : "https://api.spotify.com/v1/artists/45QNqncmJi3M3qyWrlcvif",
        "id" : "45QNqncmJi3M3qyWrlcvif",
        "name" : "William Neil",
        "type" : "artist",
        "uri" : "spotify:artist:45QNqncmJi3M3qyWrlcvif"
      } ],
      "disc_number" : 1,
      "duration_ms" : 175386,
      "explicit" : false,
      "external_ids" : {
        "isrc" : "USBZ90711177"
      },
      "external_urls" : {
        "spotify" : "https://open.spotify.com/track/0nmcdibwiU7kpvi0GMoobm"
      },
      "href" : "https://api.spotify.com/v1/tracks/0nmcdibwiU7kpvi0GMoobm",
      "id" : "0nmcdibwiU7kpvi0GMoobm",
      "is_local" : false,
      "is_playable" : true,
      "name" : "Thine is the Glory - Easter",
      "popularity" : 4,
      "preview_url" : "https://p.scdn.co/mp3-preview/29c5a4d34145ba76f5bd031db8d5ce97628af789?cid=774b29d4f13844c495f206cafdad9c86",
      "track_number" : 22,
      "type" : "track",
      "uri" : "spotify:track:0nmcdibwiU7kpvi0GMoobm"
    }, {
      "album" : {
        "album_type" : "album",
        "artists" : [ {
          "external_urls" : {
            "spotify" : "https://open.spotify.com/artist/20z0jiovxcVxxmfsmB1RgX"
          },
          "href" : "https://api.spotify.com/v1/artists/20z0jiovxcVxxmfsmB1RgX",
          "id" : "20z0jiovxcVxxmfsmB1RgX",
          "name" : "Meteoric Stream",
          "type" : "artist",
          "uri" : "spotify:artist:20z0jiovxcVxxmfsmB1RgX"
        } ],
        "external_urls" : {
          "spotify" : "https://open.spotify.com/album/32NQb6DyWPnmj0IWkE1E2a"
        },
        "href" : "https://api.spotify.com/v1/albums/32NQb6DyWPnmj0IWkE1E2a",
        "id" : "32NQb6DyWPnmj0IWkE1E2a",
        "images" : [ {
          "height" : 640,
          "url" : "https://i.scdn.co/image/ab67616d0000b27300c838d98cf300170fb5f717",
          "width" : 640
        }, {
          "height" : 300,
          "url" : "https://i.scdn.co/image/ab67616d00001e0200c838d98cf300170fb5f717",
          "width" : 300
        }, {
          "height" : 64,
          "url" : "https://i.scdn.co/image/ab67616d0000485100c838d98cf300170fb5f717",
          "width" : 64
        } ],
        "name" : "Harp Hymn Collection",
        "release_date" : "2017-06-09",
        "release_date_precision" : "day",
        "total_tracks" : 30,
        "type" : "album",
        "uri" : "spotify:album:32NQb6DyWPnmj0IWkE1E2a"
      },
      "artists" : [ {
        "external_urls" : {
          "spotify" : "https://open.spotify.com/artist/20z0jiovxcVxxmfsmB1RgX"
        },
        "href" : "https://api.spotify.com/v1/artists/20z0jiovxcVxxmfsmB1RgX",
        "id" : "20z0jiovxcVxxmfsmB1RgX",
        "name" : "Meteoric Stream",
        "type" : "artist",
        "uri" : "spotify:artist:20z0jiovxcVxxmfsmB1RgX"
      } ],
      "disc_number" : 1,
      "duration_ms" : 138052,
      "explicit" : false,
      "external_ids" : {
        "isrc" : "QZ22B1803439"
      },
      "external_urls" : {
        "spotify" : "https://open.spotify.com/track/6M9GLdNuGr3leTDNuHR6aP"
      },
      "href" : "https://api.spotify.com/v1/tracks/6M9GLdNuGr3leTDNuHR6aP",
      "id" : "6M9GLdNuGr3leTDNuHR6aP",
      "is_local" : false,
      "is_playable" : true,
      "name" : "Thine Is the Glory - Harp Instrumental",
      "popularity" : 7,
      "preview_url" : "https://p.scdn.co/mp3-preview/48d72d54b42ae4aa4f7973e75af0a3fbd7834496?cid=774b29d4f13844c495f206cafdad9c86",
      "track_number" : 29,
      "type" : "track",
      "uri" : "spotify:track:6M9GLdNuGr3leTDNuHR6aP"
    }, {
      "album" : {
        "album_type" : "compilation",
        "artists" : [ {
          "external_urls" : {
            "spotify" : "https://open.spotify.com/artist/2J6VSRznWL0dTKZGbmAGo4"
          },
          "href" : "https://api.spotify.com/v1/artists/2J6VSRznWL0dTKZGbmAGo4",
          "id" : "2J6VSRznWL0dTKZGbmAGo4",
          "name" : "Tim Zimmerman and the King's Brass",
          "type" : "artist",
          "uri" : "spotify:artist:2J6VSRznWL0dTKZGbmAGo4"
        } ],
        "external_urls" : {
          "spotify" : "https://open.spotify.com/album/7GpAnamyTJYLSNeDUgxarn"
        },
        "href" : "https://api.spotify.com/v1/albums/7GpAnamyTJYLSNeDUgxarn",
        "id" : "7GpAnamyTJYLSNeDUgxarn",
        "images" : [ {
          "height" : 640,
          "url" : "https://i.scdn.co/image/ab67616d0000b27309092a59c13d11a49b895766",
          "width" : 640
        }, {
          "height" : 300,
          "url" : "https://i.scdn.co/image/ab67616d00001e0209092a59c13d11a49b895766",
          "width" : 300
        }, {
          "height" : 64,
          "url" : "https://i.scdn.co/image/ab67616d0000485109092a59c13d11a49b895766",
          "width" : 64
        } ],
        "name" : "The Best of Brass & Organ",
        "release_date" : "2005-06-16",
        "release_date_precision" : "day",
        "total_tracks" : 19,
        "type" : "album",
        "uri" : "spotify:album:7GpAnamyTJYLSNeDUgxarn"
      },
      "artists" : [ {
        "external_urls" : {
          "spotify" : "https://open.spotify.com/artist/2J6VSRznWL0dTKZGbmAGo4"
        },
        "href" : "https://api.spotify.com/v1/artists/2J6VSRznWL0dTKZGbmAGo4",
        "id" : "2J6VSRznWL0dTKZGbmAGo4",
        "name" : "Tim Zimmerman and the King's Brass",
        "type" : "artist",
        "uri" : "spotify:artist:2J6VSRznWL0dTKZGbmAGo4"
      } ],
      "disc_number" : 1,
      "duration_ms" : 151746,
      "explicit" : false,
      "external_ids" : {
        "isrc" : "US9930511741"
      },
      "external_urls" : {
        "spotify" : "https://open.spotify.com/track/3hsLwNwObIkW8bhoHTnIvA"
      },
      "href" : "https://api.spotify.com/v1/tracks/3hsLwNwObIkW8bhoHTnIvA",
      "id" : "3hsLwNwObIkW8bhoHTnIvA",
      "is_local" : false,
      "is_playable" : true,
      "name" : "Thine is the Glory",
      "popularity" : 3,
      "preview_url" : "https://p.scdn.co/mp3-preview/1dfec94a92569e8e9b667ba4dd7d9a72777ddd6c?cid=774b29d4f13844c495f206cafdad9c86",
      "track_number" : 8,
      "type" : "track",
      "uri" : "spotify:track:3hsLwNwObIkW8bhoHTnIvA"
    }, {
      "album" : {
        "album_type" : "album",
        "artists" : [ {
          "external_urls" : {
            "spotify" : "https://open.spotify.com/artist/27HpKO5tx7PUZdRRhfBAD7"
          },
          "href" : "https://api.spotify.com/v1/artists/27HpKO5tx7PUZdRRhfBAD7",
          "id" : "27HpKO5tx7PUZdRRhfBAD7",
          "name" : "Lullaby & Prenatal Band",
          "type" : "artist",
          "uri" : "spotify:artist:27HpKO5tx7PUZdRRhfBAD7"
        } ],
        "external_urls" : {
          "spotify" : "https://open.spotify.com/album/4JLiD1ohCmWPa4KwZosHA9"
        },
        "href" : "https://api.spotify.com/v1/albums/4JLiD1ohCmWPa4KwZosHA9",
        "id" : "4JLiD1ohCmWPa4KwZosHA9",
        "images" : [ {
          "height" : 640,
          "url" : "https://i.scdn.co/image/ab67616d0000b2737b1e7b48e6864ef368e10a11",
          "width" : 640
        }, {
          "height" : 300,
          "url" : "https://i.scdn.co/image/ab67616d00001e027b1e7b48e6864ef368e10a11",
          "width" : 300
        }, {
          "height" : 64,
          "url" : "https://i.scdn.co/image/ab67616d000048517b1e7b48e6864ef368e10a11",
          "width" : 64
        } ],
        "name" : "Lullaby Hymn for My Baby with Orgel, Collection",
        "release_date" : "2017-09-12",
        "release_date_precision" : "day",
        "total_tracks" : 28,
        "type" : "album",
        "uri" : "spotify:album:4JLiD1ohCmWPa4KwZosHA9"
      },
      "artists" : [ {
        "external_urls" : {
          "spotify" : "https://open.spotify.com/artist/27HpKO5tx7PUZdRRhfBAD7"
        },
        "href" : "https://api.spotify.com/v1/artists/27HpKO5tx7PUZdRRhfBAD7",
        "id" : "27HpKO5tx7PUZdRRhfBAD7",
        "name" : "Lullaby & Prenatal Band",
        "type" : "artist",
        "uri" : "spotify:artist:27HpKO5tx7PUZdRRhfBAD7"
      } ],
      "disc_number" : 1,
      "duration_ms" : 169014,
      "explicit" : false,
      "external_ids" : {
        "isrc" : "KRB921702763"
      },
      "external_urls" : {
        "spotify" : "https://open.spotify.com/track/2E7WWBr5sOHRcU7iVBCirs"
      },
      "href" : "https://api.spotify.com/v1/tracks/2E7WWBr5sOHRcU7iVBCirs",
      "id" : "2E7WWBr5sOHRcU7iVBCirs",
      "is_local" : false,
      "is_playable" : true,
      "name" : "Thine Is the Glory",
      "popularity" : 6,
      "preview_url" : "https://p.scdn.co/mp3-preview/6603ac2ab747d9b7a71a3e9313f7469095ba57d4?cid=774b29d4f13844c495f206cafdad9c86",
      "track_number" : 22,
      "type" : "track",
      "uri" : "spotify:track:2E7WWBr5sOHRcU7iVBCirs"
    }, {
      "album" : {
        "album_type" : "single",
        "artists" : [ {
          "external_urls" : {
            "spotify" : "https://open.spotify.com/artist/7sM3Vaa1bJOb9PEmhfWIHx"
          },
          "href" : "https://api.spotify.com/v1/artists/7sM3Vaa1bJOb9PEmhfWIHx",
          "id" : "7sM3Vaa1bJOb9PEmhfWIHx",
          "name" : "Jackson A Taylor",
          "type" : "artist",
          "uri" : "spotify:artist:7sM3Vaa1bJOb9PEmhfWIHx"
        } ],
        "external_urls" : {
          "spotify" : "https://open.spotify.com/album/6giLCVkvZqK5iXB0x9FvKG"
        },
        "href" : "https://api.spotify.com/v1/albums/6giLCVkvZqK5iXB0x9FvKG",
        "id" : "6giLCVkvZqK5iXB0x9FvKG",
        "images" : [ {
          "height" : 640,
          "url" : "https://i.scdn.co/image/ab67616d0000b273e5b4b54df072a9739a203370",
          "width" : 640
        }, {
          "height" : 300,
          "url" : "https://i.scdn.co/image/ab67616d00001e02e5b4b54df072a9739a203370",
          "width" : 300
        }, {
          "height" : 64,
          "url" : "https://i.scdn.co/image/ab67616d00004851e5b4b54df072a9739a203370",
          "width" : 64
        } ],
        "name" : "Thine Is The Glory",
        "release_date" : "2011-04-05",
        "release_date_precision" : "day",
        "total_tracks" : 1,
        "type" : "album",
        "uri" : "spotify:album:6giLCVkvZqK5iXB0x9FvKG"
      },
      "artists" : [ {
        "external_urls" : {
          "spotify" : "https://open.spotify.com/artist/7sM3Vaa1bJOb9PEmhfWIHx"
        },
        "href" : "https://api.spotify.com/v1/artists/7sM3Vaa1bJOb9PEmhfWIHx",
        "id" : "7sM3Vaa1bJOb9PEmhfWIHx",
        "name" : "Jackson A Taylor",
        "type" : "artist",
        "uri" : "spotify:artist:7sM3Vaa1bJOb9PEmhfWIHx"
      } ],
      "disc_number" : 1,
      "duration_ms" : 140721,
      "explicit" : false,
      "external_ids" : {
        "isrc" : "USJ3V1092715"
      },
      "external_urls" : {
        "spotify" : "https://open.spotify.com/track/3b4UwWX9Mw9uSVm1hJkr7d"
      },
      "href" : "https://api.spotify.com/v1/tracks/3b4UwWX9Mw9uSVm1hJkr7d",
      "id" : "3b4UwWX9Mw9uSVm1hJkr7d",
      "is_local" : false,
      "is_playable" : true,
      "name" : "Thine Is The Glory",
      "popularity" : 4,
      "preview_url" : "https://p.scdn.co/mp3-preview/23a42423775b9c880ca386b1ef7554a4f16ed475?cid=774b29d4f13844c495f206cafdad9c86",
      "track_number" : 1,
      "type" : "track",
      "uri" : "spotify:track:3b4UwWX9Mw9uSVm1hJkr7d"
    }, {
      "album" : {
        "album_type" : "album",
        "artists" : [ {
          "external_urls" : {
            "spotify" : "https://open.spotify.com/artist/2lm0Nyiu7mmNQYIUWOfhlZ"
          },
          "href" : "https://api.spotify.com/v1/artists/2lm0Nyiu7mmNQYIUWOfhlZ",
          "id" : "2lm0Nyiu7mmNQYIUWOfhlZ",
          "name" : "동행 Dong Haeng",
          "type" : "artist",
          "uri" : "spotify:artist:2lm0Nyiu7mmNQYIUWOfhlZ"
        } ],
        "external_urls" : {
          "spotify" : "https://open.spotify.com/album/4u5ydqx4a34sb22K2CR5Nf"
        },
        "href" : "https://api.spotify.com/v1/albums/4u5ydqx4a34sb22K2CR5Nf",
        "id" : "4u5ydqx4a34sb22K2CR5Nf",
        "images" : [ {
          "height" : 640,
          "url" : "https://i.scdn.co/image/ab67616d0000b273e547a67aa82ed42526397702",
          "width" : 640
        }, {
          "height" : 300,
          "url" : "https://i.scdn.co/image/ab67616d00001e02e547a67aa82ed42526397702",
          "width" : 300
        }, {
          "height" : 64,
          "url" : "https://i.scdn.co/image/ab67616d00004851e547a67aa82ed42526397702",
          "width" : 64
        } ],
        "name" : "Acoustic Hymns 1",
        "release_date" : "2015-12-22",
        "release_date_precision" : "day",
        "total_tracks" : 20,
        "type" : "album",
        "uri" : "spotify:album:4u5ydqx4a34sb22K2CR5Nf"
      },
      "artists" : [ {
        "external_urls" : {
          "spotify" : "https://open.spotify.com/artist/2lm0Nyiu7mmNQYIUWOfhlZ"
        },
        "href" : "https://api.spotify.com/v1/artists/2lm0Nyiu7mmNQYIUWOfhlZ",
        "id" : "2lm0Nyiu7mmNQYIUWOfhlZ",
        "name" : "동행 Dong Haeng",
        "type" : "artist",
        "uri" : "spotify:artist:2lm0Nyiu7mmNQYIUWOfhlZ"
      } ],
      "disc_number" : 1,
      "duration_ms" : 195968,
      "explicit" : false,
      "external_ids" : {
        "isrc" : "KRA351700080"
      },
      "external_urls" : {
        "spotify" : "https://open.spotify.com/track/4YLwwtuFhxQ1tw7IVlcD9T"
      },
      "href" : "https://api.spotify.com/v1/tracks/4YLwwtuFhxQ1tw7IVlcD9T",
      "id" : "4YLwwtuFhxQ1tw7IVlcD9T",
      "is_local" : false,
      "is_playable" : true,
      "name" : "주님께 영광 Thine Is the Glory",
      "popularity" : 5,
      "preview_url" : "https://p.scdn.co/mp3-preview/1593d46c35537ac7b93be782f21953aae4bf81fb?cid=774b29d4f13844c495f206cafdad9c86",
      "track_number" : 8,
      "type" : "track",
      "uri" : "spotify:track:4YLwwtuFhxQ1tw7IVlcD9T"
    } ],
    "limit" : 10,
    "next" : "https://api.spotify.com/v1/search?query=Thine+Is+the+Glory&type=track&market=US&offset=15&limit=10",
    "offset" : 5,
    "previous" : "https://api.spotify.com/v1/search?query=Thine+Is+the+Glory&type=track&market=US&offset=0&limit=10",
    "total" : 77
  }
}