{
  "tracks" : {
    "href" : "https://api.spotify.com/v1/search?query=God+Himself+Is+With+Us&type=track&market=US&offset=5&limit=10",
    "items" : [ {
      "album" : {
        "album_type" : "album",
        "artists" : [ {
          "external_urls" : {
            "spotify" : "https://open.spotify.com/artist/13vi392E4vdrP8SV0ahXIb"
          },
          "href" : "https://api.spotify.com/v1/artists/13vi392E4vdrP8SV0ahXIb",
          "id" : "13vi392E4vdrP8SV0ahXIb",
          "name" : "David Slater",
          "type" : "artist",
          "uri" : "spotify:artist:13vi392E4vdrP8SV0ahXIb"
        } ],
        "external_urls" : {
          "spotify" : "https://open.spotify.com/album/6URDc3yctlCUqrU0s09O6S"
        },
        "href" : "https://api.spotify.com/v1/albums/6URDc3yctlCUqrU0s09O6S",
        "id" : "6URDc3yctlCUqrU0s09O6S",
        "images" : [ {
          "height" : 640,
          "url" : "https://i.scdn.co/image/ab67616d0000b2732ee8557d4c74f189893d64e3",
          "width" : 640
        }, {
          "height" : 300,
          "url" : "https://i.scdn.co/image/ab67616d00001e022ee8557d4c74f189893d64e3",
          "width" : 300
        }, {
          "height" : 64,
          "url" : "https://i.scdn.co/image/ab67616d000048512ee8557d4c74f189893d64e3",
          "width" : 64
        } ],
        "name" : "Since Jesus Is My Friend",
        "release_date" : "2008-03-25",
        "release_date_precision" : "day",
        "total_tracks" : 23,
        "type" : "album",
        "uri" : "spotify:album:6URDc3yctlCUqrU0s09O6S"
      },
      "artists" : [ {
        "external_urls" : {
          "spotify" : "https://open.spotify.com/artist/13vi392E4vdrP8SV0ahXIb"
        },
        "href" : "https://api.spotify.com/v1/artists/13vi392E4vdrP8SV0ahXIb",
        "id" : "13vi392E4vdrP8SV0ahXIb",
        "name" : "David Slater",
        "type" : "artist",
        "uri" : "spotify:artist:13vi392E4vdrP8SV0ahXIb"
      } ],
      "disc_number" : 1,
      "duration_ms" : 62680,
      "explicit" : false,
      "external_ids" : {
        "isrc" : "USMZA0810394"
      },
      "external_urls" : {
        "spotify" : "https://open.spotify.com/track/4cRJkBeFcXnm9sncM4xrwL"
      },
      "href" : "https://api.spotify.com/v1/tracks/4cRJkBeFcXnm9sncM4xrwL",
      "id" : "4cRJkBeFcXnm9sncM4xrwL",
      "is_local" : false,
      "is_playable" : true,
      "name" : "God Himself Is With Us",
      "popularity" : 3,
      "preview_url" : "https://p.scdn.co/mp3-preview/c67212abc06c43e56f5f6ab0331f1b36812218a4?cid=774b29d4f13844c495f206cafdad9c86",
      "track_number" : 15,
      "type" : "track",
      "uri" : "spotify:track:4cRJkBeFcXnm9sncM4xrwL"
    }, {
      "album" : {
        "album_type" : "album",
        "artists" : [ {
          "external_urls" : {
            "spotify" : "https://open.spotify.com/artist/2plxC6id9kZ9MNPqf3ovbg"
          },
          "href" : "https://api.spotify.com/v1/artists/2plxC6id9kZ9MNPqf3ovbg",
          "id" : "2plxC6id9kZ9MNPqf3ovbg",
          "name" : "Scott & Becky Aniol",
          "type" : "artist",
          "uri" : "spotify:artist:2plxC6id9kZ9MNPqf3ovbg"
        } ],
        "external_urls" : {
          "spotify" : "https://open.spotify.com/album/5PNIIDp9r6SwZAJiKa4OSN"
        },
        "href" : "https://api.spotify.com/v1/albums/5PNIIDp9r6SwZAJiKa4OSN",
        "id" : "5PNIIDp9r6SwZAJiKa4OSN",
        "images" : [ {
          "height" : 640,
          "url" : "https://i.scdn.co/image/ab67616d0000b2735fa87c02b31cd6c14ec0d5fd",
          "width" : 640
        }, {
          "height" : 300,
          "url" : "https://i.scdn.co/image/ab67616d00001e025fa87c02b31cd6c14ec0d5fd",
          "width" : 300
        }, {
          "height" : 64,
          "url" : "https://i.scdn.co/image/ab67616d000048515fa87c02b31cd6c14ec0d5fd",
          "width" : 64
        } ],
        "name" : "God Himself Is With Us: The Gospel Proclaimed Through Hymns",
        "release_date" : "2009-04-06",
        "release_date_precision" : "day",
        "total_tracks" : 16,
        "type" : "album",
        "uri" : "spotify:album:5PNIIDp9r6SwZAJiKa4OSN"
      },
      "artists" : [ {
        "external_urls" : {
          "spotify" : "https://open.spotify.com/artist/2plxC6id9kZ9MNPqf3ovbg"
        },
        "href" : "https://api.spotify.com/v1/artists/2plxC6id9kZ9MNPqf3ovbg",
        "id" : "2plxC6id9kZ9MNPqf3ovbg",
        "name" : "Scott & Becky Aniol",
        "type" : "artist",
        "uri" : "spotify:artist:2plxC6id9kZ9MNPqf3ovbg"
      } ],
      "disc_number" : 1,
      "duration_ms" : 317600,
      "explicit" : false,
      "external_ids" : {
        "isrc" : "usju30900001"
      },
      "external_urls" : {
        "spotify" : "https://open.spotify.com/track/6lQ1i1RnQhe0nuJR8CfK1S"
      },
      "href" : "https://api.spotify.com/v1/tracks/6lQ1i1RnQhe0nuJR8CfK1S",
      "id" : "6lQ1i1RnQhe0nuJR8CfK1S",
      "is_local" : false,
      "is_playable" : true,
      "name" : "God Himself Is With Us",
      "popularity" : 3,
      "preview_url" : "https://p.scdn.co/mp3-preview/705675f96b129beaf215cd78cb7645bb6ee32a2a?cid=774b29d4f13844c495f206cafdad9c86",
      "track_number" : 1,
      "type" : "track",
      "uri" : "spotify:track:6lQ1i1RnQhe0nuJR8CfK1S"
    }, {
      "album" : {
        "album_type" : "album",
        "artists" : [ {
          "external_urls" : {
            "spotify" : "https://open.spotify.com/artist/20rlbkwNSoLrLqQUR7GRcT"
          },
          "href" : "https://api.spotify.com/v1/artists/20rlbkwNSoLrLqQUR7GRcT",
          "id" : "20rlbkwNSoLrLqQUR7GRcT",
          "name" : "Mother’s Lullaby",
          "type" : "artist",
          "uri" : "spotify:artist:20rlbkwNSoLrLqQUR7GRcT"
        } ],
        "external_urls" : {
          "spotify" : "https://open.spotify.com/album/74mS5VsGCnCbR1hxN5oCpn"
        },
        "href" : "https://api.spotify.com/v1/albums/74mS5VsGCnCbR1hxN5oCpn",
        "id" : "74mS5VsGCnCbR1hxN5oCpn",
        "images" : [ {
          "height" : 640,
          "url" : "https://i.scdn.co/image/ab67616d0000b27335b71daa5107db21a9c3a43f",
          "width" : 640
        }, {
          "height" : 300,
          "url" : "https://i.scdn.co/image/ab67616d00001e0235b71daa5107db21a9c3a43f",
          "width" : 300
        }, {
          "height" : 64,
          "url" : "https://i.scdn.co/image/ab67616d0000485135b71daa5107db21a9c3a43f",
          "width" : 64
        } ],
        "name" : "Hymns Vol.3 (#51~#75)",
        "release_date" : "2019-02-22",
        "release_date_precision" : "day",
        "total_tracks" : 25,
        "type" : "album",
        "uri" : "spotify:album:74mS5VsGCnCbR1hxN5oCpn"
      },
      "artists" : [ {
        "external_urls" : {
          "spotify" : "https://open.spotify.com/artist/20rlbkwNSoLrLqQUR7GRcT"
        },
        "href" : "https://api.spotify.com/v1/artists/20rlbkwNSoLrLqQUR7GRcT",
        "id" : "20rlbkwNSoLrLqQUR7GRcT",
        "name" : "Mother’s Lullaby",
        "type" : "artist",
        "uri" : "spotify:artist:20rlbkwNSoLrLqQUR7GRcT"
      } ],
      "disc_number" : 1,
      "duration_ms" : 206428,
      "explicit" : false,
      "external_ids" : {
        "isrc" : "KRZ291908367"
      },
      "external_urls" : {
        "spotify" : "https://open.spotify.com/track/2DKr0OEsGJ7ca4hyeZvoBe"
      },
      "href" : "https://api.spotify.com/v1/tracks/2DKr0OEsGJ7ca4hyeZvoBe",
      "id" : "2DKr0OEsGJ7ca4hyeZvoBe",
      "is_local" : false,
      "is_playable" : true,
      "name" : "God Himself is With Us",
      "popularity" : 0,
      "preview_url" : "https://p.scdn.co/mp3-preview/3061966568dfc0f33262d913ed0dd7bae512a6ad?cid=774b29d4f13844c495f206cafdad9c86",
      "track_number" : 4,
      "type" : "track",
      "uri" : "spotify:track:2DKr0OEsGJ7ca4hyeZvoBe"
    }, {
      "album" : {
        "album_type" : "album",
        "artists" : [ {
          "external_urls" : {
            "spotify" : "https://open.spotify.com/artist/20rlbkwNSoLrLqQUR7GRcT"
          },
          "href" : "https://api.spotify.com/v1/artists/20rlbkwNSoLrLqQUR7GRcT",
          "id" : "20rlbkwNSoLrLqQUR7GRcT",
          "name" : "Mother’s Lullaby",
          "type" : "artist",
          "uri" : "spotify:artist:20rlbkwNSoLrLqQUR7GRcT"
        } ],
        "external_urls" : {
          "spotify" : "https://open.spotify.com/album/0qJoZ6A5AcEN1jfA7SkFMb"
        },
        "href" : "https://api.spotify.com/v1/albums/0qJoZ6A5AcEN1jfA7SkFMb",
        "id" : "0qJoZ6A5AcEN1jfA7SkFMb",
        "images" : [ {
          "height" : 640,
          "url" : "https://i.scdn.co/image/ab67616d0000b2731b1a8f0542a9d7ded39df326",
          "width" : 640
        }, {
          "height" : 300,
          "url" : "https://i.scdn.co/image/ab67616d00001e021b1a8f0542a9d7ded39df326",
          "width" : 300
        }, {
          "height" : 64,
          "url" : "https://i.scdn.co/image/ab67616d000048511b1a8f0542a9d7ded39df326",
          "width" : 64
        } ],
        "name" : "현악4중주 찬송가 연주곡집 Vol. 2",
        "release_date" : "2020-04-23",
        "release_date_precision" : "day",
        "total_tracks" : 50,
        "type" : "album",
        "uri" : "spotify:album:0qJoZ6A5AcEN1jfA7SkFMb"
      },
      "artists" : [ {
        "external_urls" : {
          "spotify" : "https://open.spotify.com/artist/20rlbkwNSoLrLqQUR7GRcT"
        },
        "href" : "https://api.spotify.com/v1/artists/20rlbkwNSoLrLqQUR7GRcT",
        "id" : "20rlbkwNSoLrLqQUR7GRcT",
        "name" : "Mother’s Lullaby",
        "type" : "artist",
        "uri" : "spotify:artist:20rlbkwNSoLrLqQUR7GRcT"
      } ],
      "disc_number" : 1,
      "duration_ms" : 137796,
      "explicit" : false,
      "external_ids" : {
        "isrc" : "QZEKE1933002"
      },
      "external_urls" : {
        "spotify" : "https://open.spotify.com/track/5i8JFyym6r267nui0ciK4u"
      },
      "href" : "https://api.spotify.com/v1/tracks/5i8JFyym6r267nui0ciK4u",
      "id" : "5i8JFyym6r267nui0ciK4u",
      "is_local" : false,
      "is_playable" : true,
      "name" : "God Himself is With Us",
      "popularity" : 0,
      "preview_url" : "https://p.scdn.co/mp3-preview/bcfd8468d6fba5906f2ec8d8d523f8808f6aeda1?cid=774b29d4f13844c495f206cafdad9c86",
      "track_number" : 4,
      "type" : "track",
      "uri" : "spotify:track:5i8JFyym6r267nui0ciK4u"
    }, {
      "album" : {
        "album_type" : "single",
        "artists" : [ {
          "external_urls" : {
            "spotify" : "https://open.spotify.com/artist/33c0BeAErD3vae90Gt4M80"
          },
          "href" : "https://api.spotify.com/v1/artists/33c0BeAErD3vae90Gt4M80",
          "id" : "33c0BeAErD3vae90Gt4M80",
          "name" : "HolyCow",
          "type" : "artist",
          "uri" : "spotify:artist:33c0BeAErD3vae90Gt4M80"
        } ],
        "external_urls" : {
          "spotify" : "https://open.spotify.com/album/4J2lwbZc1zrhUtlkEf2VrL"
        },
        "href" : "https://api.spotify.com/v1/albums/4J2lwbZc1zrhUtlkEf2VrL",
        "id" : "4J2lwbZc1zrhUtlkEf2VrL",
        "images" : [ {
          "height" : 640,
          "url" : "https://i.scdn.co/image/ab67616d0000b273d91a017d3d01bae350f2c289",
          "width" : 640
        }, {
          "height" : 300,
          "url" : "https://i.scdn.co/image/ab67616d00001e02d91a017d3d01bae350f2c289",
          "width" : 300
        }, {
          "height" : 64,
          "url" : "https://i.scdn.co/image/ab67616d00004851d91a017d3d01bae350f2c289",
          "width" : 64
        } ],
        "name" : "God Bless You, Vol. 29",
        "release_date" : "2018-12-24",
        "release_date_precision" : "day",
        "total_tracks" : 2,
        "type" : "album",
        "uri" : "spotify:album:4J2lwbZc1zrhUtlkEf2VrL"
      },
      "artists" : [ {
        "external_urls" : {
          "spotify" : "https://open.spotify.com/artist/33c0BeAErD3vae90Gt4M80"
        },
        "href" : "https://api.spotify.com/v1/artists/33c0BeAErD3vae90Gt4M80",
        "id" : "33c0BeAErD3vae90Gt4M80",
        "name" : "HolyCow",
        "type" : "artist",
        "uri" : "spotify:artist:33c0BeAErD3vae90Gt4M80"
      } ],
      "disc_number" : 1,
      "duration_ms" : 158857,
      "explicit" : false,
      "external_ids" : {
        "isrc" : "KRB921719007"
      },
      "external_urls" : {
        "spotify" : "https://open.spotify.com/track/60IcmI4MGmtgxlmgc1fq23"
      },
      "href" : "https://api.spotify.com/v1/tracks/60IcmI4MGmtgxlmgc1fq23",
      "id" : "60IcmI4MGmtgxlmgc1fq23",
      "is_local" : false,
      "is_playable" : true,
      "name" : "God Himself is With Us",
      "popularity" : 0,
      "preview_url" : "https://p.scdn.co/mp3-preview/c4ce26ebf9cefe0df72831939216f6dd3f5d7e9a?cid=774b29d4f13844c495f206cafdad9c86",
      "track_number" : 2,
      "type" : "track",
      "uri" : "spotify:track:60IcmI4MGmtgxlmgc1fq23"
    }, {
      "album" : {
        "album_type" : "album",
        "artists" : [ {
          "external_urls" : {
            "spotify" : "https://open.spotify.com/artist/3hhzOXDdqsBPAlfImIRE7p"
          },
          "href" : "https://api.spotify.com/v1/artists/3hhzOXDdqsBPAlfImIRE7p",
          "id" : "3hhzOXDdqsBPAlfImIRE7p",
          "name" : "8 Bit Music Zoe",
          "type" : "artist",
          "uri" : "spotify:artist:3hhzOXDdqsBPAlfImIRE7p"
        } ],
        "external_urls" : {
          "spotify" : "https://open.spotify.com/album/1r4iyFFeIKZZDN0OsxNfcy"
        },
        "href" : "https://api.spotify.com/v1/albums/1r4iyFFeIKZZDN0OsxNfcy",
        "id" : "1r4iyFFeIKZZDN0OsxNfcy",
        "images" : [ {
          "height" : 640,
          "url" : "https://i.scdn.co/image/ab67616d0000b273fd873c8241c4a60a5e1c6076",
          "width" : 640
        }, {
          "height" : 300,
          "url" : "https://i.scdn.co/image/ab67616d00001e02fd873c8241c4a60a5e1c6076",
          "width" : 300
        }, {
          "height" : 64,
          "url" : "https://i.scdn.co/image/ab67616d00004851fd873c8241c4a60a5e1c6076",
          "width" : 64
        } ],
        "name" : "Hymns, Vol. II",
        "release_date" : "2020-03-06",
        "release_date_precision" : "day",
        "total_tracks" : 18,
        "type" : "album",
        "uri" : "spotify:album:1r4iyFFeIKZZDN0OsxNfcy"
      },
      "artists" : [ {
        "external_urls" : {
          "spotify" : "https://open.spotify.com/artist/3hhzOXDdqsBPAlfImIRE7p"
        },
        "href" : "https://api.spotify.com/v1/artists/3hhzOXDdqsBPAlfImIRE7p",
        "id" : "3hhzOXDdqsBPAlfImIRE7p",
        "name" : "8 Bit Music Zoe",
        "type" : "artist",
        "uri" : "spotify:artist:3hhzOXDdqsBPAlfImIRE7p"
      } ],
      "disc_number" : 1,
      "duration_ms" : 168150,
      "explicit" : false,
      "external_ids" : {
        "isrc" : "QZFZ62036730"
      },
      "external_urls" : {
        "spotify" : "https://open.spotify.com/track/4hHh21NYrHkLDBn3Q8y1Hu"
      },
      "href" : "https://api.spotify.com/v1/tracks/4hHh21NYrHkLDBn3Q8y1Hu",
      "id" : "4hHh21NYrHkLDBn3Q8y1Hu",
      "is_local" : false,
      "is_playable" : true,
      "name" : "God Himself Is With Us",
      "popularity" : 4,
      "preview_url" : "https://p.scdn.co/mp3-preview/a210ea88792a775ead25db9e3db4f51075db30ec?cid=774b29d4f13844c495f206cafdad9c86",
      "track_number" : 5,
      "type" : "track",
      "uri" : "spotify:track:4hHh21NYrHkLDBn3Q8y1Hu"
    }, {
      "album" : {
        "album_type" : "album",
        "artists" : [ {
          "external_urls" : {
            "spotify" : "https://open.spotify.com/artist/0OJai4MCI7XKfOU5GRPgJd"
          },
          "href" : "https://api.spotify.com/v1/artists/0OJai4MCI7XKfOU5GRPgJd",
          "id" : "0OJai4MCI7XKfOU5GRPgJd",
          "name" : "Grace Seattle Experimental Orchestra",
          "type" : "artist",
          "uri" : "spotify:artist:0OJai4MCI7XKfOU5GRPgJd"
        } ],
        "external_urls" : {
          "spotify" : "https://open.spotify.com/album/6np6Asyqwt2FjMacR3y4HL"
        },
        "href" : "https://api.spotify.com/v1/albums/6np6Asyqwt2FjMacR3y4HL",
        "id" : "6np6Asyqwt2FjMacR3y4HL",
        "images" : [ {
          "height" : 640,
          "url" : "https://i.scdn.co/image/ab67616d0000b273fc0e3819bd2af48047138b76",
          "width" : 640
        }, {
          "height" : 300,
          "url" : "https://i.scdn.co/image/ab67616d00001e02fc0e3819bd2af48047138b76",
          "width" : 300
        }, {
          "height" : 64,
          "url" : "https://i.scdn.co/image/ab67616d00004851fc0e3819bd2af48047138b76",
          "width" : 64
        } ],
        "name" : "Depth Of Mercy",
        "release_date" : "2005-06-10",
        "release_date_precision" : "day",
        "total_tracks" : 16,
        "type" : "album",
        "uri" : "spotify:album:6np6Asyqwt2FjMacR3y4HL"
      },
      "artists" : [ {
        "external_urls" : {
          "spotify" : "https://open.spotify.com/artist/0OJai4MCI7XKfOU5GRPgJd"
        },
        "href" : "https://api.spotify.com/v1/artists/0OJai4MCI7XKfOU5GRPgJd",
        "id" : "0OJai4MCI7XKfOU5GRPgJd",
        "name" : "Grace Seattle Experimental Orchestra",
        "type" : "artist",
        "uri" : "spotify:artist:0OJai4MCI7XKfOU5GRPgJd"
      } ],
      "disc_number" : 1,
      "duration_ms" : 100520,
      "explicit" : false,
      "external_ids" : {
        "isrc" : "ushm90558042"
      },
      "external_urls" : {
        "spotify" : "https://open.spotify.com/track/3cvENR5i1eyDZLZoCsP6RU"
      },
      "href" : "https://api.spotify.com/v1/tracks/3cvENR5i1eyDZLZoCsP6RU",
      "id" : "3cvENR5i1eyDZLZoCsP6RU",
      "is_local" : false,
      "is_playable" : true,
      "name" : "God Himself Is With Us",
      "popularity" : 0,
      "preview_url" : "https://p.scdn.co/mp3-preview/b3f97d76d212f4110c0fa8e2cad89ce8968e90fe?cid=774b29d4f13844c495f206cafdad9c86",
      "track_number" : 13,
      "type" : "track",
      "uri" : "spotify:track:3cvENR5i1eyDZLZoCsP6RU"
    }, {
      "album" : {
        "album_type" : "album",
        "artists" : [ {
          "external_urls" : {
            "spotify" : "https://open.spotify.com/artist/1e22XPr2CnmGETo2oFxE8t"
          },
          "href" : "https://api.spotify.com/v1/artists/1e22XPr2CnmGETo2oFxE8t",
          "id" : "1e22XPr2CnmGETo2oFxE8t",
          "name" : "The Surface of the Deep",
          "type" : "artist",
          "uri" : "spotify:artist:1e22XPr2CnmGETo2oFxE8t"
        } ],
        "external_urls" : {
          "spotify" : "https://open.spotify.com/album/5ZvQmIC7rnH3LdVFdOCpYK"
        },
        "href" : "https://api.spotify.com/v1/albums/5ZvQmIC7rnH3LdVFdOCpYK",
        "id" : "5ZvQmIC7rnH3LdVFdOCpYK",
        "images" : [ {
          "height" : 640,
          "url" : "https://i.scdn.co/image/ab67616d0000b273c85863f3ae44445f9b5dc867",
          "width" : 640
        }, {
          "height" : 300,
          "url" : "https://i.scdn.co/image/ab67616d00001e02c85863f3ae44445f9b5dc867",
          "width" : 300
        }, {
          "height" : 64,
          "url" : "https://i.scdn.co/image/ab67616d00004851c85863f3ae44445f9b5dc867",
          "width" : 64
        } ],
        "name" : "Sunday Bulletin",
        "release_date" : "2016-12-04",
        "release_date_precision" : "day",
        "total_tracks" : 14,
        "type" : "album",
        "uri" : "spotify:album:5ZvQmIC7rnH3LdVFdOCpYK"
      },
      "artists" : [ {
        "external_urls" : {
          "spotify" : "https://open.spotify.com/artist/1e22XPr2CnmGETo2oFxE8t"
        },
        "href" : "https://api.spotify.com/v1/artists/1e22XPr2CnmGETo2oFxE8t",
        "id" : "1e22XPr2CnmGETo2oFxE8t",
        "name" : "The Surface of the Deep",
        "type" : "artist",
        "uri" : "spotify:artist:1e22XPr2CnmGETo2oFxE8t"
      } ],
      "disc_number" : 1,
      "duration_ms" : 135080,
      "explicit" : false,
      "external_ids" : {
        "isrc" : "QM9A91616354"
      },
      "external_urls" : {
        "spotify" : "https://open.spotify.com/track/41NL3jC6w2sBiXWBUJ6yJ8"
      },
      "href" : "https://api.spotify.com/v1/tracks/41NL3jC6w2sBiXWBUJ6yJ8",
      "id" : "41NL3jC6w2sBiXWBUJ6yJ8",
      "is_local" : false,
      "is_playable" : true,
      "name" : "God Himself Is with Us",
      "popularity" : 0,
      "preview_url" : "https://p.scdn.co/mp3-preview/e91e4877e85438d04f3806b78a1d2f35fbd5a161?cid=774b29d4f13844c495f206cafdad9c86",
      "track_number" : 1,
      "type" : "track",
      "uri" : "spotify:track:41NL3jC6w2sBiXWBUJ6yJ8"
    }, {
      "album" : {
        "album_type" : "album",
        "artists" : [ {
          "external_urls" : {
            "spotify" : "https://open.spotify.com/artist/3oZGBPaFsAOf2FuTjhZPXN"
          },
          "href" : "https://api.spotify.com/v1/artists/3oZGBPaFsAOf2FuTjhZPXN",
          "id" : "3oZGBPaFsAOf2FuTjhZPXN",
          "name" : "Aaron Antoon",
          "type" : "artist",
          "uri" : "spotify:artist:3oZGBPaFsAOf2FuTjhZPXN"
        } ],
        "external_urls" : {
          "spotify" : "https://open.spotify.com/album/1f8FX19zIwuiXmOlyisWAq"
        },
        "href" : "https://api.spotify.com/v1/albums/1f8FX19zIwuiXmOlyisWAq",
        "id" : "1f8FX19zIwuiXmOlyisWAq",
        "images" : [ {
          "height" : 640,
          "url" : "https://i.scdn.co/image/ab67616d0000b273f05f5fd051822ad92d1b8480",
          "width" : 640
        }, {
          "height" : 300,
          "url" : "https://i.scdn.co/image/ab67616d00001e02f05f5fd051822ad92d1b8480",
          "width" : 300
        }, {
          "height" : 64,
          "url" : "https://i.scdn.co/image/ab67616d00004851f05f5fd051822ad92d1b8480",
          "width" : 64
        } ],
        "name" : "Swift and Beautiful",
        "release_date" : "2012-05-15",
        "release_date_precision" : "day",
        "total_tracks" : 9,
        "type" : "album",
        "uri" : "spotify:album:1f8FX19zIwuiXmOlyisWAq"
      },
      "artists" : [ {
        "external_urls" : {
          "spotify" : "https://open.spotify.com/artist/3oZGBPaFsAOf2FuTjhZPXN"
        },
        "href" : "https://api.spotify.com/v1/artists/3oZGBPaFsAOf2FuTjhZPXN",
        "id" : "3oZGBPaFsAOf2FuTjhZPXN",
        "name" : "Aaron Antoon",
        "type" : "artist",
        "uri" : "spotify:artist:3oZGBPaFsAOf2FuTjhZPXN"
      } ],
      "disc_number" : 1,
      "duration_ms" : 253090,
      "explicit" : false,
      "external_ids" : {
        "isrc" : "ushm91407474"
      },
      "external_urls" : {
        "spotify" : "https://open.spotify.com/track/1GwwMsv9a5jaUIh8Vn1s87"
      },
      "href" : "https://api.spotify.com/v1/tracks/1GwwMsv9a5jaUIh8Vn1s87",
      "id" : "1GwwMsv9a5jaUIh8Vn1s87",
      "is_local" : false,
      "is_playable" : true,
      "name" : "God Himself Is With Us",
      "popularity" : 2,
      "preview_url" : "https://p.scdn.co/mp3-preview/1398eff7faee572b0e7f9e166010ee1c5bf64cf0?cid=774b29d4f13844c495f206cafdad9c86",
      "track_number" : 4,
      "type" : "track",
      "uri" : "spotify:track:1GwwMsv9a5jaUIh8Vn1s87"
    }, {
      "album" : {
        "album_type" : "album",
        "artists" : [ {
          "external_urls" : {
            "spotify" : "https://open.spotify.com/artist/2zsTdkwRfcVwR0poatiaQy"
          },
          "href" : "https://api.spotify.com/v1/artists/2zsTdkwRfcVwR0poatiaQy",
          "id" : "2zsTdkwRfcVwR0poatiaQy",
          "name" : "The York College Concert Choir",
          "type" : "artist",
          "uri" : "spotify:artist:2zsTdkwRfcVwR0poatiaQy"
        } ],
        "external_urls" : {
          "spotify" : "https://open.spotify.com/album/7CJHG0e5Huwjkjh3D1DyyH"
        },
        "href" : "https://api.spotify.com/v1/albums/7CJHG0e5Huwjkjh3D1DyyH",
        "id" : "7CJHG0e5Huwjkjh3D1DyyH",
        "images" : [ {
          "height" : 640,
          "url" : "https://i.scdn.co/image/ab67616d0000b273fe79e033d654a552ea81dc10",
          "width" : 640
        }, {
          "height" : 300,
          "url" : "https://i.scdn.co/image/ab67616d00001e02fe79e033d654a552ea81dc10",
          "width" : 300
        }, {
          "height" : 64,
          "url" : "https://i.scdn.co/image/ab67616d00004851fe79e033d654a552ea81dc10",
          "width" : 64
        } ],
        "name" : "Concert Favorites",
        "release_date" : "2008-06-10",
        "release_date_precision" : "day",
        "total_tracks" : 39,
        "type" : "album",
        "uri" : "spotify:album:7CJHG0e5Huwjkjh3D1DyyH"
      },
      "artists" : [ {
        "external_urls" : {
          "spotify" : "https://open.spotify.com/artist/6zCKr405jB5b6QI1IfFnf2"
        },
        "href" : "https://api.spotify.com/v1/artists/6zCKr405jB5b6QI1IfFnf2",
        "id" : "6zCKr405jB5b6QI1IfFnf2",
        "name" : "Dallas Christian Adult Concert Choir",
        "type" : "artist",
        "uri" : "spotify:artist:6zCKr405jB5b6QI1IfFnf2"
      } ],
      "disc_number" : 2,
      "duration_ms" : 150493,
      "explicit" : false,
      "external_ids" : {
        "isrc" : "USMZA0811872"
      },
      "external_urls" : {
        "spotify" : "https://open.spotify.com/track/4P9FeC1pD886C4wZqeHjMD"
      },
      "href" : "https://api.spotify.com/v1/tracks/4P9FeC1pD886C4wZqeHjMD",
      "id" : "4P9FeC1pD886C4wZqeHjMD",
      "is_local" : false,
      "is_playable" : true,
      "name" : "God Himself Is With Us",
      "popularity" : 2,
      "preview_url" : "https://p.scdn.co/mp3-preview/0610e283f4994e6fbcfbf60fff22cb13444efdcc?cid=774b29d4f13844c495f206cafdad9c86",
      "track_number" : 6,
      "type" : "track",
      "uri" : "spotify:track:4P9FeC1pD886C4wZqeHjMD"
    } ],
    "limit" : 10,
    "next" : "https://api.spotify.com/v1/search?query=God+Himself+Is+With+Us&type=track&market=US&offset=15&limit=10",
    "offset" : 5,
    "previous" : "https://api.spotify.com/v1/search?query=God+Himself+Is+With+Us&type=track&market=US&offset=0&limit=10",
    "total" : 40
  }
}