{
  "tracks" : {
    "href" : "https://api.spotify.com/v1/search?query=Praise+and+Thanksgiving&type=track&market=US&offset=5&limit=10",
    "items" : [ {
      "album" : {
        "album_type" : "album",
        "artists" : [ {
          "external_urls" : {
            "spotify" : "https://open.spotify.com/artist/4lzlU08DosVqrpEoOvf3DQ"
          },
          "href" : "https://api.spotify.com/v1/artists/4lzlU08DosVqrpEoOvf3DQ",
          "id" : "4lzlU08DosVqrpEoOvf3DQ",
          "name" : "Wee Sing",
          "type" : "artist",
          "uri" : "spotify:artist:4lzlU08DosVqrpEoOvf3DQ"
        } ],
        "external_urls" : {
          "spotify" : "https://open.spotify.com/album/7JAOqODhlPafMaOYIZderu"
        },
        "href" : "https://api.spotify.com/v1/albums/7JAOqODhlPafMaOYIZderu",
        "id" : "7JAOqODhlPafMaOYIZderu",
        "images" : [ {
          "height" : 640,
          "url" : "https://i.scdn.co/image/ab67616d0000b273235b20fffb00ddacf369b7a6",
          "width" : 640
        }, {
          "height" : 300,
          "url" : "https://i.scdn.co/image/ab67616d00001e02235b20fffb00ddacf369b7a6",
          "width" : 300
        }, {
          "height" : 64,
          "url" : "https://i.scdn.co/image/ab67616d00004851235b20fffb00ddacf369b7a6",
          "width" : 64
        } ],
        "name" : "Wee Sing More Bible Songs",
        "release_date" : "2011-04-08",
        "release_date_precision" : "day",
        "total_tracks" : 47,
        "type" : "album",
        "uri" : "spotify:album:7JAOqODhlPafMaOYIZderu"
      },
      "artists" : [ {
        "external_urls" : {
          "spotify" : "https://open.spotify.com/artist/4lzlU08DosVqrpEoOvf3DQ"
        },
        "href" : "https://api.spotify.com/v1/artists/4lzlU08DosVqrpEoOvf3DQ",
        "id" : "4lzlU08DosVqrpEoOvf3DQ",
        "name" : "Wee Sing",
        "type" : "artist",
        "uri" : "spotify:artist:4lzlU08DosVqrpEoOvf3DQ"
      } ],
      "disc_number" : 1,
      "duration_ms" : 74560,
      "explicit" : false,
      "external_ids" : {
        "isrc" : "TCAAX1138046"
      },
      "external_urls" : {
        "spotify" : "https://open.spotify.com/track/05AU1Ls7nWqA3K24iKVddq"
      },
      "href" : "https://api.spotify.com/v1/tracks/05AU1Ls7nWqA3K24iKVddq",
      "id" : "05AU1Ls7nWqA3K24iKVddq",
      "is_local" : false,
      "is_playable" : true,
      "name" : "Praise and Thanksgiving",
      "popularity" : 4,
      "preview_url" : "https://p.scdn.co/mp3-preview/c52a766d927756755aafda08b3fcc80fcdecce53?cid=774b29d4f13844c495f206cafdad9c86",
      "track_number" : 14,
      "type" : "track",
      "uri" : "spotify:track:05AU1Ls7nWqA3K24iKVddq"
    }, {
      "album" : {
        "album_type" : "album",
        "artists" : [ {
          "external_urls" : {
            "spotify" : "https://open.spotify.com/artist/7GkPZD0O1btf2e5dtRZyfI"
          },
          "href" : "https://api.spotify.com/v1/artists/7GkPZD0O1btf2e5dtRZyfI",
          "id" : "7GkPZD0O1btf2e5dtRZyfI",
          "name" : "The Wonder Kids",
          "type" : "artist",
          "uri" : "spotify:artist:7GkPZD0O1btf2e5dtRZyfI"
        } ],
        "external_urls" : {
          "spotify" : "https://open.spotify.com/album/2rRjgSR8uLETCNvyTx8tsM"
        },
        "href" : "https://api.spotify.com/v1/albums/2rRjgSR8uLETCNvyTx8tsM",
        "id" : "2rRjgSR8uLETCNvyTx8tsM",
        "images" : [ {
          "height" : 640,
          "url" : "https://i.scdn.co/image/ab67616d0000b2733d4546287f9f5bc8735aa842",
          "width" : 640
        }, {
          "height" : 300,
          "url" : "https://i.scdn.co/image/ab67616d00001e023d4546287f9f5bc8735aa842",
          "width" : 300
        }, {
          "height" : 64,
          "url" : "https://i.scdn.co/image/ab67616d000048513d4546287f9f5bc8735aa842",
          "width" : 64
        } ],
        "name" : "The Word and Song Listening Bible: Exodus - Job",
        "release_date" : "2013-01-01",
        "release_date_precision" : "day",
        "total_tracks" : 19,
        "type" : "album",
        "uri" : "spotify:album:2rRjgSR8uLETCNvyTx8tsM"
      },
      "artists" : [ {
        "external_urls" : {
          "spotify" : "https://open.spotify.com/artist/7GkPZD0O1btf2e5dtRZyfI"
        },
        "href" : "https://api.spotify.com/v1/artists/7GkPZD0O1btf2e5dtRZyfI",
        "id" : "7GkPZD0O1btf2e5dtRZyfI",
        "name" : "The Wonder Kids",
        "type" : "artist",
        "uri" : "spotify:artist:7GkPZD0O1btf2e5dtRZyfI"
      } ],
      "disc_number" : 1,
      "duration_ms" : 189399,
      "explicit" : false,
      "external_ids" : {
        "isrc" : "uscgh1324651"
      },
      "external_urls" : {
        "spotify" : "https://open.spotify.com/track/7rj721vPd2pJBjO8I5vwU4"
      },
      "href" : "https://api.spotify.com/v1/tracks/7rj721vPd2pJBjO8I5vwU4",
      "id" : "7rj721vPd2pJBjO8I5vwU4",
      "is_local" : false,
      "is_playable" : true,
      "name" : "Ezra (With Praise and Thanksgiving)",
      "popularity" : 5,
      "preview_url" : "https://p.scdn.co/mp3-preview/c406573c040d844fd0d31e6bd7fa25ea4f3ab809?cid=774b29d4f13844c495f206cafdad9c86",
      "track_number" : 16,
      "type" : "track",
      "uri" : "spotify:track:7rj721vPd2pJBjO8I5vwU4"
    }, {
      "album" : {
        "album_type" : "album",
        "artists" : [ {
          "external_urls" : {
            "spotify" : "https://open.spotify.com/artist/4k5gaSPRZvEwn4eTxuevAX"
          },
          "href" : "https://api.spotify.com/v1/artists/4k5gaSPRZvEwn4eTxuevAX",
          "id" : "4k5gaSPRZvEwn4eTxuevAX",
          "name" : "Jon Sarta",
          "type" : "artist",
          "uri" : "spotify:artist:4k5gaSPRZvEwn4eTxuevAX"
        } ],
        "external_urls" : {
          "spotify" : "https://open.spotify.com/album/20aGkdHkk4fk1geCxmGNlT"
        },
        "href" : "https://api.spotify.com/v1/albums/20aGkdHkk4fk1geCxmGNlT",
        "id" : "20aGkdHkk4fk1geCxmGNlT",
        "images" : [ {
          "height" : 640,
          "url" : "https://i.scdn.co/image/ab67616d0000b273af7ceae2941f67e50c746ffc",
          "width" : 640
        }, {
          "height" : 300,
          "url" : "https://i.scdn.co/image/ab67616d00001e02af7ceae2941f67e50c746ffc",
          "width" : 300
        }, {
          "height" : 64,
          "url" : "https://i.scdn.co/image/ab67616d00004851af7ceae2941f67e50c746ffc",
          "width" : 64
        } ],
        "name" : "The Catholic Music Project VI: Easter",
        "release_date" : "2007-05-10",
        "release_date_precision" : "day",
        "total_tracks" : 14,
        "type" : "album",
        "uri" : "spotify:album:20aGkdHkk4fk1geCxmGNlT"
      },
      "artists" : [ {
        "external_urls" : {
          "spotify" : "https://open.spotify.com/artist/4k5gaSPRZvEwn4eTxuevAX"
        },
        "href" : "https://api.spotify.com/v1/artists/4k5gaSPRZvEwn4eTxuevAX",
        "id" : "4k5gaSPRZvEwn4eTxuevAX",
        "name" : "Jon Sarta",
        "type" : "artist",
        "uri" : "spotify:artist:4k5gaSPRZvEwn4eTxuevAX"
      } ],
      "disc_number" : 1,
      "duration_ms" : 129773,
      "explicit" : false,
      "external_ids" : {
        "isrc" : "ushm90762748"
      },
      "external_urls" : {
        "spotify" : "https://open.spotify.com/track/382sZ1PUSF8iXTIGjYFc92"
      },
      "href" : "https://api.spotify.com/v1/tracks/382sZ1PUSF8iXTIGjYFc92",
      "id" : "382sZ1PUSF8iXTIGjYFc92",
      "is_local" : false,
      "is_playable" : true,
      "name" : "All Praise And Glad Thanksgiving",
      "popularity" : 3,
      "preview_url" : "https://p.scdn.co/mp3-preview/955a1250011b5c5055f30477bb513d17c47c7851?cid=774b29d4f13844c495f206cafdad9c86",
      "track_number" : 13,
      "type" : "track",
      "uri" : "spotify:track:382sZ1PUSF8iXTIGjYFc92"
    }, {
      "album" : {
        "album_type" : "album",
        "artists" : [ {
          "external_urls" : {
            "spotify" : "https://open.spotify.com/artist/5pECl3lGqlL7VfZXxrkAlF"
          },
          "href" : "https://api.spotify.com/v1/artists/5pECl3lGqlL7VfZXxrkAlF",
          "id" : "5pECl3lGqlL7VfZXxrkAlF",
          "name" : "Paul Hillier",
          "type" : "artist",
          "uri" : "spotify:artist:5pECl3lGqlL7VfZXxrkAlF"
        }, {
          "external_urls" : {
            "spotify" : "https://open.spotify.com/artist/4XFASxAPCD5LZ6omKGJI56"
          },
          "href" : "https://api.spotify.com/v1/artists/4XFASxAPCD5LZ6omKGJI56",
          "id" : "4XFASxAPCD5LZ6omKGJI56",
          "name" : "Theatre Of Voices",
          "type" : "artist",
          "uri" : "spotify:artist:4XFASxAPCD5LZ6omKGJI56"
        }, {
          "external_urls" : {
            "spotify" : "https://open.spotify.com/artist/5QTRneqg7fAWIMHd5tSWVL"
          },
          "href" : "https://api.spotify.com/v1/artists/5QTRneqg7fAWIMHd5tSWVL",
          "id" : "5QTRneqg7fAWIMHd5tSWVL",
          "name" : "His Majestie's Clerkes",
          "type" : "artist",
          "uri" : "spotify:artist:5QTRneqg7fAWIMHd5tSWVL"
        } ],
        "external_urls" : {
          "spotify" : "https://open.spotify.com/album/3GuMXRPgf4V91NZTYhE7Kb"
        },
        "href" : "https://api.spotify.com/v1/albums/3GuMXRPgf4V91NZTYhE7Kb",
        "id" : "3GuMXRPgf4V91NZTYhE7Kb",
        "images" : [ {
          "height" : 640,
          "url" : "https://i.scdn.co/image/ab67616d0000b273b0a7ec2d5efe2cef33797f86",
          "width" : 640
        }, {
          "height" : 300,
          "url" : "https://i.scdn.co/image/ab67616d00001e02b0a7ec2d5efe2cef33797f86",
          "width" : 300
        }, {
          "height" : 64,
          "url" : "https://i.scdn.co/image/ab67616d00004851b0a7ec2d5efe2cef33797f86",
          "width" : 64
        } ],
        "name" : "Home to Thanksgiving - Songs of Thanks and Praise",
        "release_date" : "1999",
        "release_date_precision" : "year",
        "total_tracks" : 19,
        "type" : "album",
        "uri" : "spotify:album:3GuMXRPgf4V91NZTYhE7Kb"
      },
      "artists" : [ {
        "external_urls" : {
          "spotify" : "https://open.spotify.com/artist/2wqMB8bWGc53kP74XLbQX1"
        },
        "href" : "https://api.spotify.com/v1/artists/2wqMB8bWGc53kP74XLbQX1",
        "id" : "2wqMB8bWGc53kP74XLbQX1",
        "name" : "William Billings",
        "type" : "artist",
        "uri" : "spotify:artist:2wqMB8bWGc53kP74XLbQX1"
      }, {
        "external_urls" : {
          "spotify" : "https://open.spotify.com/artist/5pECl3lGqlL7VfZXxrkAlF"
        },
        "href" : "https://api.spotify.com/v1/artists/5pECl3lGqlL7VfZXxrkAlF",
        "id" : "5pECl3lGqlL7VfZXxrkAlF",
        "name" : "Paul Hillier",
        "type" : "artist",
        "uri" : "spotify:artist:5pECl3lGqlL7VfZXxrkAlF"
      }, {
        "external_urls" : {
          "spotify" : "https://open.spotify.com/artist/5QTRneqg7fAWIMHd5tSWVL"
        },
        "href" : "https://api.spotify.com/v1/artists/5QTRneqg7fAWIMHd5tSWVL",
        "id" : "5QTRneqg7fAWIMHd5tSWVL",
        "name" : "His Majestie's Clerkes",
        "type" : "artist",
        "uri" : "spotify:artist:5QTRneqg7fAWIMHd5tSWVL"
      } ],
      "disc_number" : 1,
      "duration_ms" : 141133,
      "explicit" : false,
      "external_ids" : {
        "isrc" : "USHM19926418"
      },
      "external_urls" : {
        "spotify" : "https://open.spotify.com/track/0BMEBw9UbGOptrXTIyesSf"
      },
      "href" : "https://api.spotify.com/v1/tracks/0BMEBw9UbGOptrXTIyesSf",
      "id" : "0BMEBw9UbGOptrXTIyesSf",
      "is_local" : false,
      "is_playable" : true,
      "name" : "Chester: \"Let the tyrants shake their iron rod\"",
      "popularity" : 2,
      "preview_url" : "https://p.scdn.co/mp3-preview/546885e8a73846e337f1bf8d1b458587a760837b?cid=774b29d4f13844c495f206cafdad9c86",
      "track_number" : 18,
      "type" : "track",
      "uri" : "spotify:track:0BMEBw9UbGOptrXTIyesSf"
    }, {
      "album" : {
        "album_type" : "album",
        "artists" : [ {
          "external_urls" : {
            "spotify" : "https://open.spotify.com/artist/2JypO2e7kveCnqlR5ucP5b"
          },
          "href" : "https://api.spotify.com/v1/artists/2JypO2e7kveCnqlR5ucP5b",
          "id" : "2JypO2e7kveCnqlR5ucP5b",
          "name" : "Bible Study Music",
          "type" : "artist",
          "uri" : "spotify:artist:2JypO2e7kveCnqlR5ucP5b"
        } ],
        "external_urls" : {
          "spotify" : "https://open.spotify.com/album/6m9WZYbHL3Dd3CLYztQxGK"
        },
        "href" : "https://api.spotify.com/v1/albums/6m9WZYbHL3Dd3CLYztQxGK",
        "id" : "6m9WZYbHL3Dd3CLYztQxGK",
        "images" : [ {
          "height" : 640,
          "url" : "https://i.scdn.co/image/ab67616d0000b273a3cf62b3a1a6f0f45afb779b",
          "width" : 640
        }, {
          "height" : 300,
          "url" : "https://i.scdn.co/image/ab67616d00001e02a3cf62b3a1a6f0f45afb779b",
          "width" : 300
        }, {
          "height" : 64,
          "url" : "https://i.scdn.co/image/ab67616d00004851a3cf62b3a1a6f0f45afb779b",
          "width" : 64
        } ],
        "name" : "Christian Contemplation - Music for Praise and Thanksgiving Prayer, Reading and Meditating on the Holy Scriptures, Inner Contemplation and Meditation on the Word of God",
        "release_date" : "2019-07-09",
        "release_date_precision" : "day",
        "total_tracks" : 15,
        "type" : "album",
        "uri" : "spotify:album:6m9WZYbHL3Dd3CLYztQxGK"
      },
      "artists" : [ {
        "external_urls" : {
          "spotify" : "https://open.spotify.com/artist/2JypO2e7kveCnqlR5ucP5b"
        },
        "href" : "https://api.spotify.com/v1/artists/2JypO2e7kveCnqlR5ucP5b",
        "id" : "2JypO2e7kveCnqlR5ucP5b",
        "name" : "Bible Study Music",
        "type" : "artist",
        "uri" : "spotify:artist:2JypO2e7kveCnqlR5ucP5b"
      } ],
      "disc_number" : 1,
      "duration_ms" : 275606,
      "explicit" : false,
      "external_ids" : {
        "isrc" : "PLS811616558"
      },
      "external_urls" : {
        "spotify" : "https://open.spotify.com/track/0Ty9SN1NahlKY4WfybPGIU"
      },
      "href" : "https://api.spotify.com/v1/tracks/0Ty9SN1NahlKY4WfybPGIU",
      "id" : "0Ty9SN1NahlKY4WfybPGIU",
      "is_local" : false,
      "is_playable" : true,
      "name" : "Baptized into Christ",
      "popularity" : 2,
      "preview_url" : "https://p.scdn.co/mp3-preview/e245e81aa5519dbd66591d7e479a4def297b53ba?cid=774b29d4f13844c495f206cafdad9c86",
      "track_number" : 13,
      "type" : "track",
      "uri" : "spotify:track:0Ty9SN1NahlKY4WfybPGIU"
    }, {
      "album" : {
        "album_type" : "album",
        "artists" : [ {
          "external_urls" : {
            "spotify" : "https://open.spotify.com/artist/2JypO2e7kveCnqlR5ucP5b"
          },
          "href" : "https://api.spotify.com/v1/artists/2JypO2e7kveCnqlR5ucP5b",
          "id" : "2JypO2e7kveCnqlR5ucP5b",
          "name" : "Bible Study Music",
          "type" : "artist",
          "uri" : "spotify:artist:2JypO2e7kveCnqlR5ucP5b"
        } ],
        "external_urls" : {
          "spotify" : "https://open.spotify.com/album/6m9WZYbHL3Dd3CLYztQxGK"
        },
        "href" : "https://api.spotify.com/v1/albums/6m9WZYbHL3Dd3CLYztQxGK",
        "id" : "6m9WZYbHL3Dd3CLYztQxGK",
        "images" : [ {
          "height" : 640,
          "url" : "https://i.scdn.co/image/ab67616d0000b273a3cf62b3a1a6f0f45afb779b",
          "width" : 640
        }, {
          "height" : 300,
          "url" : "https://i.scdn.co/image/ab67616d00001e02a3cf62b3a1a6f0f45afb779b",
          "width" : 300
        }, {
          "height" : 64,
          "url" : "https://i.scdn.co/image/ab67616d00004851a3cf62b3a1a6f0f45afb779b",
          "width" : 64
        } ],
        "name" : "Christian Contemplation - Music for Praise and Thanksgiving Prayer, Reading and Meditating on the Holy Scriptures, Inner Contemplation and Meditation on the Word of God",
        "release_date" : "2019-07-09",
        "release_date_precision" : "day",
        "total_tracks" : 15,
        "type" : "album",
        "uri" : "spotify:album:6m9WZYbHL3Dd3CLYztQxGK"
      },
      "artists" : [ {
        "external_urls" : {
          "spotify" : "https://open.spotify.com/artist/2JypO2e7kveCnqlR5ucP5b"
        },
        "href" : "https://api.spotify.com/v1/artists/2JypO2e7kveCnqlR5ucP5b",
        "id" : "2JypO2e7kveCnqlR5ucP5b",
        "name" : "Bible Study Music",
        "type" : "artist",
        "uri" : "spotify:artist:2JypO2e7kveCnqlR5ucP5b"
      } ],
      "disc_number" : 1,
      "duration_ms" : 248597,
      "explicit" : false,
      "external_ids" : {
        "isrc" : "PLS811616549"
      },
      "external_urls" : {
        "spotify" : "https://open.spotify.com/track/5MstZBrS6yvtEN4WOq0hro"
      },
      "href" : "https://api.spotify.com/v1/tracks/5MstZBrS6yvtEN4WOq0hro",
      "id" : "5MstZBrS6yvtEN4WOq0hro",
      "is_local" : false,
      "is_playable" : true,
      "name" : "In His Presence",
      "popularity" : 3,
      "preview_url" : "https://p.scdn.co/mp3-preview/0a4510ac6c68fed0f079d7555410c0fcaf9e3b08?cid=774b29d4f13844c495f206cafdad9c86",
      "track_number" : 4,
      "type" : "track",
      "uri" : "spotify:track:5MstZBrS6yvtEN4WOq0hro"
    }, {
      "album" : {
        "album_type" : "album",
        "artists" : [ {
          "external_urls" : {
            "spotify" : "https://open.spotify.com/artist/2JypO2e7kveCnqlR5ucP5b"
          },
          "href" : "https://api.spotify.com/v1/artists/2JypO2e7kveCnqlR5ucP5b",
          "id" : "2JypO2e7kveCnqlR5ucP5b",
          "name" : "Bible Study Music",
          "type" : "artist",
          "uri" : "spotify:artist:2JypO2e7kveCnqlR5ucP5b"
        } ],
        "external_urls" : {
          "spotify" : "https://open.spotify.com/album/6m9WZYbHL3Dd3CLYztQxGK"
        },
        "href" : "https://api.spotify.com/v1/albums/6m9WZYbHL3Dd3CLYztQxGK",
        "id" : "6m9WZYbHL3Dd3CLYztQxGK",
        "images" : [ {
          "height" : 640,
          "url" : "https://i.scdn.co/image/ab67616d0000b273a3cf62b3a1a6f0f45afb779b",
          "width" : 640
        }, {
          "height" : 300,
          "url" : "https://i.scdn.co/image/ab67616d00001e02a3cf62b3a1a6f0f45afb779b",
          "width" : 300
        }, {
          "height" : 64,
          "url" : "https://i.scdn.co/image/ab67616d00004851a3cf62b3a1a6f0f45afb779b",
          "width" : 64
        } ],
        "name" : "Christian Contemplation - Music for Praise and Thanksgiving Prayer, Reading and Meditating on the Holy Scriptures, Inner Contemplation and Meditation on the Word of God",
        "release_date" : "2019-07-09",
        "release_date_precision" : "day",
        "total_tracks" : 15,
        "type" : "album",
        "uri" : "spotify:album:6m9WZYbHL3Dd3CLYztQxGK"
      },
      "artists" : [ {
        "external_urls" : {
          "spotify" : "https://open.spotify.com/artist/2JypO2e7kveCnqlR5ucP5b"
        },
        "href" : "https://api.spotify.com/v1/artists/2JypO2e7kveCnqlR5ucP5b",
        "id" : "2JypO2e7kveCnqlR5ucP5b",
        "name" : "Bible Study Music",
        "type" : "artist",
        "uri" : "spotify:artist:2JypO2e7kveCnqlR5ucP5b"
      } ],
      "disc_number" : 1,
      "duration_ms" : 244227,
      "explicit" : false,
      "external_ids" : {
        "isrc" : "PLS811616547"
      },
      "external_urls" : {
        "spotify" : "https://open.spotify.com/track/0fPYvb7Ibipil7go56LwLM"
      },
      "href" : "https://api.spotify.com/v1/tracks/0fPYvb7Ibipil7go56LwLM",
      "id" : "0fPYvb7Ibipil7go56LwLM",
      "is_local" : false,
      "is_playable" : true,
      "name" : "Spiritual Cleansing",
      "popularity" : 3,
      "preview_url" : "https://p.scdn.co/mp3-preview/834099f78794ad54421da24b0ccffeb553b827a5?cid=774b29d4f13844c495f206cafdad9c86",
      "track_number" : 2,
      "type" : "track",
      "uri" : "spotify:track:0fPYvb7Ibipil7go56LwLM"
    }, {
      "album" : {
        "album_type" : "album",
        "artists" : [ {
          "external_urls" : {
            "spotify" : "https://open.spotify.com/artist/2JypO2e7kveCnqlR5ucP5b"
          },
          "href" : "https://api.spotify.com/v1/artists/2JypO2e7kveCnqlR5ucP5b",
          "id" : "2JypO2e7kveCnqlR5ucP5b",
          "name" : "Bible Study Music",
          "type" : "artist",
          "uri" : "spotify:artist:2JypO2e7kveCnqlR5ucP5b"
        } ],
        "external_urls" : {
          "spotify" : "https://open.spotify.com/album/6m9WZYbHL3Dd3CLYztQxGK"
        },
        "href" : "https://api.spotify.com/v1/albums/6m9WZYbHL3Dd3CLYztQxGK",
        "id" : "6m9WZYbHL3Dd3CLYztQxGK",
        "images" : [ {
          "height" : 640,
          "url" : "https://i.scdn.co/image/ab67616d0000b273a3cf62b3a1a6f0f45afb779b",
          "width" : 640
        }, {
          "height" : 300,
          "url" : "https://i.scdn.co/image/ab67616d00001e02a3cf62b3a1a6f0f45afb779b",
          "width" : 300
        }, {
          "height" : 64,
          "url" : "https://i.scdn.co/image/ab67616d00004851a3cf62b3a1a6f0f45afb779b",
          "width" : 64
        } ],
        "name" : "Christian Contemplation - Music for Praise and Thanksgiving Prayer, Reading and Meditating on the Holy Scriptures, Inner Contemplation and Meditation on the Word of God",
        "release_date" : "2019-07-09",
        "release_date_precision" : "day",
        "total_tracks" : 15,
        "type" : "album",
        "uri" : "spotify:album:6m9WZYbHL3Dd3CLYztQxGK"
      },
      "artists" : [ {
        "external_urls" : {
          "spotify" : "https://open.spotify.com/artist/2JypO2e7kveCnqlR5ucP5b"
        },
        "href" : "https://api.spotify.com/v1/artists/2JypO2e7kveCnqlR5ucP5b",
        "id" : "2JypO2e7kveCnqlR5ucP5b",
        "name" : "Bible Study Music",
        "type" : "artist",
        "uri" : "spotify:artist:2JypO2e7kveCnqlR5ucP5b"
      } ],
      "disc_number" : 1,
      "duration_ms" : 247424,
      "explicit" : false,
      "external_ids" : {
        "isrc" : "PLS811616546"
      },
      "external_urls" : {
        "spotify" : "https://open.spotify.com/track/4zjPtPzyTBRiRgLFpdKpYC"
      },
      "href" : "https://api.spotify.com/v1/tracks/4zjPtPzyTBRiRgLFpdKpYC",
      "id" : "4zjPtPzyTBRiRgLFpdKpYC",
      "is_local" : false,
      "is_playable" : true,
      "name" : "God’s Creation",
      "popularity" : 3,
      "preview_url" : "https://p.scdn.co/mp3-preview/f69b362831f3fcb732007c0debe3873217314d2f?cid=774b29d4f13844c495f206cafdad9c86",
      "track_number" : 1,
      "type" : "track",
      "uri" : "spotify:track:4zjPtPzyTBRiRgLFpdKpYC"
    }, {
      "album" : {
        "album_type" : "album",
        "artists" : [ {
          "external_urls" : {
            "spotify" : "https://open.spotify.com/artist/2JypO2e7kveCnqlR5ucP5b"
          },
          "href" : "https://api.spotify.com/v1/artists/2JypO2e7kveCnqlR5ucP5b",
          "id" : "2JypO2e7kveCnqlR5ucP5b",
          "name" : "Bible Study Music",
          "type" : "artist",
          "uri" : "spotify:artist:2JypO2e7kveCnqlR5ucP5b"
        } ],
        "external_urls" : {
          "spotify" : "https://open.spotify.com/album/6m9WZYbHL3Dd3CLYztQxGK"
        },
        "href" : "https://api.spotify.com/v1/albums/6m9WZYbHL3Dd3CLYztQxGK",
        "id" : "6m9WZYbHL3Dd3CLYztQxGK",
        "images" : [ {
          "height" : 640,
          "url" : "https://i.scdn.co/image/ab67616d0000b273a3cf62b3a1a6f0f45afb779b",
          "width" : 640
        }, {
          "height" : 300,
          "url" : "https://i.scdn.co/image/ab67616d00001e02a3cf62b3a1a6f0f45afb779b",
          "width" : 300
        }, {
          "height" : 64,
          "url" : "https://i.scdn.co/image/ab67616d00004851a3cf62b3a1a6f0f45afb779b",
          "width" : 64
        } ],
        "name" : "Christian Contemplation - Music for Praise and Thanksgiving Prayer, Reading and Meditating on the Holy Scriptures, Inner Contemplation and Meditation on the Word of God",
        "release_date" : "2019-07-09",
        "release_date_precision" : "day",
        "total_tracks" : 15,
        "type" : "album",
        "uri" : "spotify:album:6m9WZYbHL3Dd3CLYztQxGK"
      },
      "artists" : [ {
        "external_urls" : {
          "spotify" : "https://open.spotify.com/artist/2JypO2e7kveCnqlR5ucP5b"
        },
        "href" : "https://api.spotify.com/v1/artists/2JypO2e7kveCnqlR5ucP5b",
        "id" : "2JypO2e7kveCnqlR5ucP5b",
        "name" : "Bible Study Music",
        "type" : "artist",
        "uri" : "spotify:artist:2JypO2e7kveCnqlR5ucP5b"
      } ],
      "disc_number" : 1,
      "duration_ms" : 240767,
      "explicit" : false,
      "external_ids" : {
        "isrc" : "PLS811616559"
      },
      "external_urls" : {
        "spotify" : "https://open.spotify.com/track/1NP2XUgwxiSIf1vgvuJeVD"
      },
      "href" : "https://api.spotify.com/v1/tracks/1NP2XUgwxiSIf1vgvuJeVD",
      "id" : "1NP2XUgwxiSIf1vgvuJeVD",
      "is_local" : false,
      "is_playable" : true,
      "name" : "Promise of Heaven",
      "popularity" : 2,
      "preview_url" : "https://p.scdn.co/mp3-preview/b82cc090e57fabb7ac3c4675f2f0904c250b156b?cid=774b29d4f13844c495f206cafdad9c86",
      "track_number" : 14,
      "type" : "track",
      "uri" : "spotify:track:1NP2XUgwxiSIf1vgvuJeVD"
    }, {
      "album" : {
        "album_type" : "album",
        "artists" : [ {
          "external_urls" : {
            "spotify" : "https://open.spotify.com/artist/2JypO2e7kveCnqlR5ucP5b"
          },
          "href" : "https://api.spotify.com/v1/artists/2JypO2e7kveCnqlR5ucP5b",
          "id" : "2JypO2e7kveCnqlR5ucP5b",
          "name" : "Bible Study Music",
          "type" : "artist",
          "uri" : "spotify:artist:2JypO2e7kveCnqlR5ucP5b"
        } ],
        "external_urls" : {
          "spotify" : "https://open.spotify.com/album/6m9WZYbHL3Dd3CLYztQxGK"
        },
        "href" : "https://api.spotify.com/v1/albums/6m9WZYbHL3Dd3CLYztQxGK",
        "id" : "6m9WZYbHL3Dd3CLYztQxGK",
        "images" : [ {
          "height" : 640,
          "url" : "https://i.scdn.co/image/ab67616d0000b273a3cf62b3a1a6f0f45afb779b",
          "width" : 640
        }, {
          "height" : 300,
          "url" : "https://i.scdn.co/image/ab67616d00001e02a3cf62b3a1a6f0f45afb779b",
          "width" : 300
        }, {
          "height" : 64,
          "url" : "https://i.scdn.co/image/ab67616d00004851a3cf62b3a1a6f0f45afb779b",
          "width" : 64
        } ],
        "name" : "Christian Contemplation - Music for Praise and Thanksgiving Prayer, Reading and Meditating on the Holy Scriptures, Inner Contemplation and Meditation on the Word of God",
        "release_date" : "2019-07-09",
        "release_date_precision" : "day",
        "total_tracks" : 15,
        "type" : "album",
        "uri" : "spotify:album:6m9WZYbHL3Dd3CLYztQxGK"
      },
      "artists" : [ {
        "external_urls" : {
          "spotify" : "https://open.spotify.com/artist/2JypO2e7kveCnqlR5ucP5b"
        },
        "href" : "https://api.spotify.com/v1/artists/2JypO2e7kveCnqlR5ucP5b",
        "id" : "2JypO2e7kveCnqlR5ucP5b",
        "name" : "Bible Study Music",
        "type" : "artist",
        "uri" : "spotify:artist:2JypO2e7kveCnqlR5ucP5b"
      } ],
      "disc_number" : 1,
      "duration_ms" : 197204,
      "explicit" : false,
      "external_ids" : {
        "isrc" : "PLS811616548"
      },
      "external_urls" : {
        "spotify" : "https://open.spotify.com/track/2b6ccqI49cSY2KADXvCMVw"
      },
      "href" : "https://api.spotify.com/v1/tracks/2b6ccqI49cSY2KADXvCMVw",
      "id" : "2b6ccqI49cSY2KADXvCMVw",
      "is_local" : false,
      "is_playable" : true,
      "name" : "Evening Prayer",
      "popularity" : 3,
      "preview_url" : "https://p.scdn.co/mp3-preview/ebd41faedd0f0d2a33db83cd32f644c4112cc30c?cid=774b29d4f13844c495f206cafdad9c86",
      "track_number" : 3,
      "type" : "track",
      "uri" : "spotify:track:2b6ccqI49cSY2KADXvCMVw"
    } ],
    "limit" : 10,
    "next" : "https://api.spotify.com/v1/search?query=Praise+and+Thanksgiving&type=track&market=US&offset=15&limit=10",
    "offset" : 5,
    "previous" : "https://api.spotify.com/v1/search?query=Praise+and+Thanksgiving&type=track&market=US&offset=0&limit=10",
    "total" : 196
  }
}