{
  "tracks" : {
    "href" : "https://api.spotify.com/v1/search?query=When+in+Our+Music+God+Is+Glorified&type=track&market=US&offset=5&limit=10",
    "items" : [ {
      "album" : {
        "album_type" : "album",
        "artists" : [ {
          "external_urls" : {
            "spotify" : "https://open.spotify.com/artist/2duo4NJtUrLaI38trK0hht"
          },
          "href" : "https://api.spotify.com/v1/artists/2duo4NJtUrLaI38trK0hht",
          "id" : "2duo4NJtUrLaI38trK0hht",
          "name" : "Mormon Tabernacle Choir",
          "type" : "artist",
          "uri" : "spotify:artist:2duo4NJtUrLaI38trK0hht"
        } ],
        "external_urls" : {
          "spotify" : "https://open.spotify.com/album/1NXtfIy42uOWoEYudzzawo"
        },
        "href" : "https://api.spotify.com/v1/albums/1NXtfIy42uOWoEYudzzawo",
        "id" : "1NXtfIy42uOWoEYudzzawo",
        "images" : [ {
          "height" : 640,
          "url" : "https://i.scdn.co/image/ab67616d0000b27315bfd6e18634103ccc15ff95",
          "width" : 640
        }, {
          "height" : 300,
          "url" : "https://i.scdn.co/image/ab67616d00001e0215bfd6e18634103ccc15ff95",
          "width" : 300
        }, {
          "height" : 64,
          "url" : "https://i.scdn.co/image/ab67616d0000485115bfd6e18634103ccc15ff95",
          "width" : 64
        } ],
        "name" : "Hymns of Faith II (Legacy Series)",
        "release_date" : "1996-10-10",
        "release_date_precision" : "day",
        "total_tracks" : 21,
        "type" : "album",
        "uri" : "spotify:album:1NXtfIy42uOWoEYudzzawo"
      },
      "artists" : [ {
        "external_urls" : {
          "spotify" : "https://open.spotify.com/artist/2duo4NJtUrLaI38trK0hht"
        },
        "href" : "https://api.spotify.com/v1/artists/2duo4NJtUrLaI38trK0hht",
        "id" : "2duo4NJtUrLaI38trK0hht",
        "name" : "Mormon Tabernacle Choir",
        "type" : "artist",
        "uri" : "spotify:artist:2duo4NJtUrLaI38trK0hht"
      } ],
      "disc_number" : 1,
      "duration_ms" : 163586,
      "explicit" : false,
      "external_ids" : {
        "isrc" : "US23M0745580"
      },
      "external_urls" : {
        "spotify" : "https://open.spotify.com/track/6YewfHxsuwvZnQ1xj0VlLT"
      },
      "href" : "https://api.spotify.com/v1/tracks/6YewfHxsuwvZnQ1xj0VlLT",
      "id" : "6YewfHxsuwvZnQ1xj0VlLT",
      "is_local" : false,
      "is_playable" : true,
      "name" : "When in Our Music God Is Glorified",
      "popularity" : 4,
      "preview_url" : "https://p.scdn.co/mp3-preview/3ffa097710ffedf6591e3f78c88feb01cc44fcdf?cid=774b29d4f13844c495f206cafdad9c86",
      "track_number" : 1,
      "type" : "track",
      "uri" : "spotify:track:6YewfHxsuwvZnQ1xj0VlLT"
    }, {
      "album" : {
        "album_type" : "album",
        "artists" : [ {
          "external_urls" : {
            "spotify" : "https://open.spotify.com/artist/7bizRFC2Gv4F2XxgamNwNy"
          },
          "href" : "https://api.spotify.com/v1/artists/7bizRFC2Gv4F2XxgamNwNy",
          "id" : "7bizRFC2Gv4F2XxgamNwNy",
          "name" : "Koiné",
          "type" : "artist",
          "uri" : "spotify:artist:7bizRFC2Gv4F2XxgamNwNy"
        } ],
        "external_urls" : {
          "spotify" : "https://open.spotify.com/album/5CpdgxXTqZpdFQdK1hAOE4"
        },
        "href" : "https://api.spotify.com/v1/albums/5CpdgxXTqZpdFQdK1hAOE4",
        "id" : "5CpdgxXTqZpdFQdK1hAOE4",
        "images" : [ {
          "height" : 640,
          "url" : "https://i.scdn.co/image/ab67616d0000b2738784fe67d39b2a396b1842ae",
          "width" : 640
        }, {
          "height" : 300,
          "url" : "https://i.scdn.co/image/ab67616d00001e028784fe67d39b2a396b1842ae",
          "width" : 300
        }, {
          "height" : 64,
          "url" : "https://i.scdn.co/image/ab67616d000048518784fe67d39b2a396b1842ae",
          "width" : 64
        } ],
        "name" : "Visit",
        "release_date" : "2014-12-01",
        "release_date_precision" : "day",
        "total_tracks" : 18,
        "type" : "album",
        "uri" : "spotify:album:5CpdgxXTqZpdFQdK1hAOE4"
      },
      "artists" : [ {
        "external_urls" : {
          "spotify" : "https://open.spotify.com/artist/7bizRFC2Gv4F2XxgamNwNy"
        },
        "href" : "https://api.spotify.com/v1/artists/7bizRFC2Gv4F2XxgamNwNy",
        "id" : "7bizRFC2Gv4F2XxgamNwNy",
        "name" : "Koiné",
        "type" : "artist",
        "uri" : "spotify:artist:7bizRFC2Gv4F2XxgamNwNy"
      } ],
      "disc_number" : 1,
      "duration_ms" : 364986,
      "explicit" : false,
      "external_ids" : {
        "isrc" : "usx9p1427177"
      },
      "external_urls" : {
        "spotify" : "https://open.spotify.com/track/4lsVu7mSZ00AYzG944nTvw"
      },
      "href" : "https://api.spotify.com/v1/tracks/4lsVu7mSZ00AYzG944nTvw",
      "id" : "4lsVu7mSZ00AYzG944nTvw",
      "is_local" : false,
      "is_playable" : true,
      "name" : "When in Our Music God Is Glorified",
      "popularity" : 2,
      "preview_url" : "https://p.scdn.co/mp3-preview/d255d7318daa42c071dc6a95b6b2cd985d6b290d?cid=774b29d4f13844c495f206cafdad9c86",
      "track_number" : 18,
      "type" : "track",
      "uri" : "spotify:track:4lsVu7mSZ00AYzG944nTvw"
    }, {
      "album" : {
        "album_type" : "album",
        "artists" : [ {
          "external_urls" : {
            "spotify" : "https://open.spotify.com/artist/1pkd5fisrGqDtXFJ1n3eYn"
          },
          "href" : "https://api.spotify.com/v1/artists/1pkd5fisrGqDtXFJ1n3eYn",
          "id" : "1pkd5fisrGqDtXFJ1n3eYn",
          "name" : "Cantorei, Catherine Rodland & John Ferguson",
          "type" : "artist",
          "uri" : "spotify:artist:1pkd5fisrGqDtXFJ1n3eYn"
        } ],
        "external_urls" : {
          "spotify" : "https://open.spotify.com/album/1czlDXBFSmVIYcgbqXn7So"
        },
        "href" : "https://api.spotify.com/v1/albums/1czlDXBFSmVIYcgbqXn7So",
        "id" : "1czlDXBFSmVIYcgbqXn7So",
        "images" : [ {
          "height" : 640,
          "url" : "https://i.scdn.co/image/ab67616d0000b27317ed4cbcca7091e273f9b979",
          "width" : 640
        }, {
          "height" : 300,
          "url" : "https://i.scdn.co/image/ab67616d00001e0217ed4cbcca7091e273f9b979",
          "width" : 300
        }, {
          "height" : 64,
          "url" : "https://i.scdn.co/image/ab67616d0000485117ed4cbcca7091e273f9b979",
          "width" : 64
        } ],
        "name" : "Celebration! Boe Memorial Chapel",
        "release_date" : "2010-07-01",
        "release_date_precision" : "day",
        "total_tracks" : 27,
        "type" : "album",
        "uri" : "spotify:album:1czlDXBFSmVIYcgbqXn7So"
      },
      "artists" : [ {
        "external_urls" : {
          "spotify" : "https://open.spotify.com/artist/02P1DMfeONaY7APNLccb5u"
        },
        "href" : "https://api.spotify.com/v1/artists/02P1DMfeONaY7APNLccb5u",
        "id" : "02P1DMfeONaY7APNLccb5u",
        "name" : "Cantorei",
        "type" : "artist",
        "uri" : "spotify:artist:02P1DMfeONaY7APNLccb5u"
      } ],
      "disc_number" : 1,
      "duration_ms" : 306733,
      "explicit" : false,
      "external_ids" : {
        "isrc" : "ushm81087677"
      },
      "external_urls" : {
        "spotify" : "https://open.spotify.com/track/6Y87HWmuEGlZ4i1hz1Z6T7"
      },
      "href" : "https://api.spotify.com/v1/tracks/6Y87HWmuEGlZ4i1hz1Z6T7",
      "id" : "6Y87HWmuEGlZ4i1hz1Z6T7",
      "is_local" : false,
      "is_playable" : true,
      "name" : "When in Our Music God is Glorified",
      "popularity" : 0,
      "preview_url" : "https://p.scdn.co/mp3-preview/7f8f23146a93b6b5934bf2969ed3db6b52be575f?cid=774b29d4f13844c495f206cafdad9c86",
      "track_number" : 13,
      "type" : "track",
      "uri" : "spotify:track:6Y87HWmuEGlZ4i1hz1Z6T7"
    }, {
      "album" : {
        "album_type" : "album",
        "artists" : [ {
          "external_urls" : {
            "spotify" : "https://open.spotify.com/artist/3rUKEGWxUy7CUsWsaXKASv"
          },
          "href" : "https://api.spotify.com/v1/artists/3rUKEGWxUy7CUsWsaXKASv",
          "id" : "3rUKEGWxUy7CUsWsaXKASv",
          "name" : "Charles Manning",
          "type" : "artist",
          "uri" : "spotify:artist:3rUKEGWxUy7CUsWsaXKASv"
        } ],
        "external_urls" : {
          "spotify" : "https://open.spotify.com/album/0woPDKAullfoaQVVjL7Zn8"
        },
        "href" : "https://api.spotify.com/v1/albums/0woPDKAullfoaQVVjL7Zn8",
        "id" : "0woPDKAullfoaQVVjL7Zn8",
        "images" : [ {
          "height" : 640,
          "url" : "https://i.scdn.co/image/ab67616d0000b273da0424314271df1ceeecd037",
          "width" : 640
        }, {
          "height" : 300,
          "url" : "https://i.scdn.co/image/ab67616d00001e02da0424314271df1ceeecd037",
          "width" : 300
        }, {
          "height" : 64,
          "url" : "https://i.scdn.co/image/ab67616d00004851da0424314271df1ceeecd037",
          "width" : 64
        } ],
        "name" : "For All the Saints",
        "release_date" : "2007-11-01",
        "release_date_precision" : "day",
        "total_tracks" : 17,
        "type" : "album",
        "uri" : "spotify:album:0woPDKAullfoaQVVjL7Zn8"
      },
      "artists" : [ {
        "external_urls" : {
          "spotify" : "https://open.spotify.com/artist/3rUKEGWxUy7CUsWsaXKASv"
        },
        "href" : "https://api.spotify.com/v1/artists/3rUKEGWxUy7CUsWsaXKASv",
        "id" : "3rUKEGWxUy7CUsWsaXKASv",
        "name" : "Charles Manning",
        "type" : "artist",
        "uri" : "spotify:artist:3rUKEGWxUy7CUsWsaXKASv"
      } ],
      "disc_number" : 1,
      "duration_ms" : 204106,
      "explicit" : false,
      "external_ids" : {
        "isrc" : "ushm81823020"
      },
      "external_urls" : {
        "spotify" : "https://open.spotify.com/track/6doBJHCRTyN0GAcKJ3WtET"
      },
      "href" : "https://api.spotify.com/v1/tracks/6doBJHCRTyN0GAcKJ3WtET",
      "id" : "6doBJHCRTyN0GAcKJ3WtET",
      "is_local" : false,
      "is_playable" : true,
      "name" : "When in Our Music God Is Glorified",
      "popularity" : 0,
      "preview_url" : "https://p.scdn.co/mp3-preview/90a76abf58e72bc2021602b22ad7cc009674bfae?cid=774b29d4f13844c495f206cafdad9c86",
      "track_number" : 1,
      "type" : "track",
      "uri" : "spotify:track:6doBJHCRTyN0GAcKJ3WtET"
    }, {
      "album" : {
        "album_type" : "album",
        "artists" : [ {
          "external_urls" : {
            "spotify" : "https://open.spotify.com/artist/02P1DMfeONaY7APNLccb5u"
          },
          "href" : "https://api.spotify.com/v1/artists/02P1DMfeONaY7APNLccb5u",
          "id" : "02P1DMfeONaY7APNLccb5u",
          "name" : "Cantorei",
          "type" : "artist",
          "uri" : "spotify:artist:02P1DMfeONaY7APNLccb5u"
        } ],
        "external_urls" : {
          "spotify" : "https://open.spotify.com/album/6w2yTNZerry09zZU9Pm5AY"
        },
        "href" : "https://api.spotify.com/v1/albums/6w2yTNZerry09zZU9Pm5AY",
        "id" : "6w2yTNZerry09zZU9Pm5AY",
        "images" : [ {
          "height" : 640,
          "url" : "https://i.scdn.co/image/ab67616d0000b273ba40dbf3c8367799150312d2",
          "width" : 640
        }, {
          "height" : 300,
          "url" : "https://i.scdn.co/image/ab67616d00001e02ba40dbf3c8367799150312d2",
          "width" : 300
        }, {
          "height" : 64,
          "url" : "https://i.scdn.co/image/ab67616d00004851ba40dbf3c8367799150312d2",
          "width" : 64
        } ],
        "name" : "Hidden in Humbleness",
        "release_date" : "2010-07-01",
        "release_date_precision" : "day",
        "total_tracks" : 16,
        "type" : "album",
        "uri" : "spotify:album:6w2yTNZerry09zZU9Pm5AY"
      },
      "artists" : [ {
        "external_urls" : {
          "spotify" : "https://open.spotify.com/artist/02P1DMfeONaY7APNLccb5u"
        },
        "href" : "https://api.spotify.com/v1/artists/02P1DMfeONaY7APNLccb5u",
        "id" : "02P1DMfeONaY7APNLccb5u",
        "name" : "Cantorei",
        "type" : "artist",
        "uri" : "spotify:artist:02P1DMfeONaY7APNLccb5u"
      } ],
      "disc_number" : 1,
      "duration_ms" : 198186,
      "explicit" : false,
      "external_ids" : {
        "isrc" : "ushm21099887"
      },
      "external_urls" : {
        "spotify" : "https://open.spotify.com/track/00b9humcfRhNVK3q3V5maY"
      },
      "href" : "https://api.spotify.com/v1/tracks/00b9humcfRhNVK3q3V5maY",
      "id" : "00b9humcfRhNVK3q3V5maY",
      "is_local" : false,
      "is_playable" : true,
      "name" : "When in Our Music God is Glorified",
      "popularity" : 0,
      "preview_url" : "https://p.scdn.co/mp3-preview/04643390389bce447fad49775946989d0a91c2cf?cid=774b29d4f13844c495f206cafdad9c86",
      "track_number" : 15,
      "type" : "track",
      "uri" : "spotify:track:00b9humcfRhNVK3q3V5maY"
    }, {
      "album" : {
        "album_type" : "album",
        "artists" : [ {
          "external_urls" : {
            "spotify" : "https://open.spotify.com/artist/3itDY0SBqfuXp8IpKjNTrf"
          },
          "href" : "https://api.spotify.com/v1/artists/3itDY0SBqfuXp8IpKjNTrf",
          "id" : "3itDY0SBqfuXp8IpKjNTrf",
          "name" : "Ephrem Feeley",
          "type" : "artist",
          "uri" : "spotify:artist:3itDY0SBqfuXp8IpKjNTrf"
        } ],
        "external_urls" : {
          "spotify" : "https://open.spotify.com/album/1RHHIPcb2Wd7dVVxwppCcR"
        },
        "href" : "https://api.spotify.com/v1/albums/1RHHIPcb2Wd7dVVxwppCcR",
        "id" : "1RHHIPcb2Wd7dVVxwppCcR",
        "images" : [ {
          "height" : 640,
          "url" : "https://i.scdn.co/image/ab67616d0000b273d84e38da725357bc95166c83",
          "width" : 640
        }, {
          "height" : 300,
          "url" : "https://i.scdn.co/image/ab67616d00001e02d84e38da725357bc95166c83",
          "width" : 300
        }, {
          "height" : 64,
          "url" : "https://i.scdn.co/image/ab67616d00004851d84e38da725357bc95166c83",
          "width" : 64
        } ],
        "name" : "Our Hearts Are Restless",
        "release_date" : "2018-10-19",
        "release_date_precision" : "day",
        "total_tracks" : 12,
        "type" : "album",
        "uri" : "spotify:album:1RHHIPcb2Wd7dVVxwppCcR"
      },
      "artists" : [ {
        "external_urls" : {
          "spotify" : "https://open.spotify.com/artist/3itDY0SBqfuXp8IpKjNTrf"
        },
        "href" : "https://api.spotify.com/v1/artists/3itDY0SBqfuXp8IpKjNTrf",
        "id" : "3itDY0SBqfuXp8IpKjNTrf",
        "name" : "Ephrem Feeley",
        "type" : "artist",
        "uri" : "spotify:artist:3itDY0SBqfuXp8IpKjNTrf"
      } ],
      "disc_number" : 1,
      "duration_ms" : 211373,
      "explicit" : false,
      "external_ids" : {
        "isrc" : "US7851800011"
      },
      "external_urls" : {
        "spotify" : "https://open.spotify.com/track/5JJq2XjrjKTRMO0dsyigKF"
      },
      "href" : "https://api.spotify.com/v1/tracks/5JJq2XjrjKTRMO0dsyigKF",
      "id" : "5JJq2XjrjKTRMO0dsyigKF",
      "is_local" : false,
      "is_playable" : true,
      "name" : "When in Our Music God Is Glorified",
      "popularity" : 0,
      "preview_url" : "https://p.scdn.co/mp3-preview/937788e9359af8c1603e39a564e90da2c1a2bc7e?cid=774b29d4f13844c495f206cafdad9c86",
      "track_number" : 12,
      "type" : "track",
      "uri" : "spotify:track:5JJq2XjrjKTRMO0dsyigKF"
    }, {
      "album" : {
        "album_type" : "album",
        "artists" : [ {
          "external_urls" : {
            "spotify" : "https://open.spotify.com/artist/1yCrsGsMa4nSumbVozKxkq"
          },
          "href" : "https://api.spotify.com/v1/artists/1yCrsGsMa4nSumbVozKxkq",
          "id" : "1yCrsGsMa4nSumbVozKxkq",
          "name" : "Carrie Melbourne",
          "type" : "artist",
          "uri" : "spotify:artist:1yCrsGsMa4nSumbVozKxkq"
        } ],
        "external_urls" : {
          "spotify" : "https://open.spotify.com/album/2gbxUeicK2swHxj9rWVla5"
        },
        "href" : "https://api.spotify.com/v1/albums/2gbxUeicK2swHxj9rWVla5",
        "id" : "2gbxUeicK2swHxj9rWVla5",
        "images" : [ {
          "height" : 640,
          "url" : "https://i.scdn.co/image/ab67616d0000b2739471ae1e69abb667e780c17f",
          "width" : 640
        }, {
          "height" : 300,
          "url" : "https://i.scdn.co/image/ab67616d00001e029471ae1e69abb667e780c17f",
          "width" : 300
        }, {
          "height" : 64,
          "url" : "https://i.scdn.co/image/ab67616d000048519471ae1e69abb667e780c17f",
          "width" : 64
        } ],
        "name" : "Et Spiritu Sancti",
        "release_date" : "2009-11-15",
        "release_date_precision" : "day",
        "total_tracks" : 11,
        "type" : "album",
        "uri" : "spotify:album:2gbxUeicK2swHxj9rWVla5"
      },
      "artists" : [ {
        "external_urls" : {
          "spotify" : "https://open.spotify.com/artist/1yCrsGsMa4nSumbVozKxkq"
        },
        "href" : "https://api.spotify.com/v1/artists/1yCrsGsMa4nSumbVozKxkq",
        "id" : "1yCrsGsMa4nSumbVozKxkq",
        "name" : "Carrie Melbourne",
        "type" : "artist",
        "uri" : "spotify:artist:1yCrsGsMa4nSumbVozKxkq"
      } ],
      "disc_number" : 1,
      "duration_ms" : 179960,
      "explicit" : false,
      "external_ids" : {
        "isrc" : "ushm80984131"
      },
      "external_urls" : {
        "spotify" : "https://open.spotify.com/track/3D2eJYdha3RuUMFo3rEvxG"
      },
      "href" : "https://api.spotify.com/v1/tracks/3D2eJYdha3RuUMFo3rEvxG",
      "id" : "3D2eJYdha3RuUMFo3rEvxG",
      "is_local" : false,
      "is_playable" : true,
      "name" : "When in Our Music God is Glorified",
      "popularity" : 0,
      "preview_url" : "https://p.scdn.co/mp3-preview/932c70dcd29cbf46caf1416846f2f945a98fa0b4?cid=774b29d4f13844c495f206cafdad9c86",
      "track_number" : 7,
      "type" : "track",
      "uri" : "spotify:track:3D2eJYdha3RuUMFo3rEvxG"
    }, {
      "album" : {
        "album_type" : "album",
        "artists" : [ {
          "external_urls" : {
            "spotify" : "https://open.spotify.com/artist/0PpvyAA7TrUCaHjsy3fxgD"
          },
          "href" : "https://api.spotify.com/v1/artists/0PpvyAA7TrUCaHjsy3fxgD",
          "id" : "0PpvyAA7TrUCaHjsy3fxgD",
          "name" : "James Abbington",
          "type" : "artist",
          "uri" : "spotify:artist:0PpvyAA7TrUCaHjsy3fxgD"
        } ],
        "external_urls" : {
          "spotify" : "https://open.spotify.com/album/6BUer4KU39gcLkdRjDsL4Q"
        },
        "href" : "https://api.spotify.com/v1/albums/6BUer4KU39gcLkdRjDsL4Q",
        "id" : "6BUer4KU39gcLkdRjDsL4Q",
        "images" : [ {
          "height" : 640,
          "url" : "https://i.scdn.co/image/ab67616d0000b273cad6d9e28dffe263edfa6bee",
          "width" : 640
        }, {
          "height" : 300,
          "url" : "https://i.scdn.co/image/ab67616d00001e02cad6d9e28dffe263edfa6bee",
          "width" : 300
        }, {
          "height" : 64,
          "url" : "https://i.scdn.co/image/ab67616d00004851cad6d9e28dffe263edfa6bee",
          "width" : 64
        } ],
        "name" : "49 Hidden Treasures from the African American Heritage Hymnal",
        "release_date" : "2005-01-01",
        "release_date_precision" : "day",
        "total_tracks" : 49,
        "type" : "album",
        "uri" : "spotify:album:6BUer4KU39gcLkdRjDsL4Q"
      },
      "artists" : [ {
        "external_urls" : {
          "spotify" : "https://open.spotify.com/artist/256hBSJmjdCUS3ZQLhlbjM"
        },
        "href" : "https://api.spotify.com/v1/artists/256hBSJmjdCUS3ZQLhlbjM",
        "id" : "256hBSJmjdCUS3ZQLhlbjM",
        "name" : "Morgan State University Choir",
        "type" : "artist",
        "uri" : "spotify:artist:256hBSJmjdCUS3ZQLhlbjM"
      } ],
      "disc_number" : 1,
      "duration_ms" : 147213,
      "explicit" : false,
      "external_ids" : {
        "isrc" : "US7850610079"
      },
      "external_urls" : {
        "spotify" : "https://open.spotify.com/track/6wrgiP9OQfm56MATyUoEJR"
      },
      "href" : "https://api.spotify.com/v1/tracks/6wrgiP9OQfm56MATyUoEJR",
      "id" : "6wrgiP9OQfm56MATyUoEJR",
      "is_local" : false,
      "is_playable" : true,
      "name" : "When, in Our Music, God Is Glorified",
      "popularity" : 1,
      "preview_url" : "https://p.scdn.co/mp3-preview/74596dc2367bce4a40f112027ddcd393ef2ce927?cid=774b29d4f13844c495f206cafdad9c86",
      "track_number" : 2,
      "type" : "track",
      "uri" : "spotify:track:6wrgiP9OQfm56MATyUoEJR"
    }, {
      "album" : {
        "album_type" : "album",
        "artists" : [ {
          "external_urls" : {
            "spotify" : "https://open.spotify.com/artist/3PaYAXe7Y4WSAm51Vhh97s"
          },
          "href" : "https://api.spotify.com/v1/artists/3PaYAXe7Y4WSAm51Vhh97s",
          "id" : "3PaYAXe7Y4WSAm51Vhh97s",
          "name" : "Robert Tall",
          "type" : "artist",
          "uri" : "spotify:artist:3PaYAXe7Y4WSAm51Vhh97s"
        } ],
        "external_urls" : {
          "spotify" : "https://open.spotify.com/album/2m90kucwHZcTpoq1Ng0IRd"
        },
        "href" : "https://api.spotify.com/v1/albums/2m90kucwHZcTpoq1Ng0IRd",
        "id" : "2m90kucwHZcTpoq1Ng0IRd",
        "images" : [ {
          "height" : 640,
          "url" : "https://i.scdn.co/image/ab67616d0000b273f4b8c5fef10e74a281140deb",
          "width" : 640
        }, {
          "height" : 300,
          "url" : "https://i.scdn.co/image/ab67616d00001e02f4b8c5fef10e74a281140deb",
          "width" : 300
        }, {
          "height" : 64,
          "url" : "https://i.scdn.co/image/ab67616d00004851f4b8c5fef10e74a281140deb",
          "width" : 64
        } ],
        "name" : "Land of Hope and Glory",
        "release_date" : "2008-04-21",
        "release_date_precision" : "day",
        "total_tracks" : 9,
        "type" : "album",
        "uri" : "spotify:album:2m90kucwHZcTpoq1Ng0IRd"
      },
      "artists" : [ {
        "external_urls" : {
          "spotify" : "https://open.spotify.com/artist/3PaYAXe7Y4WSAm51Vhh97s"
        },
        "href" : "https://api.spotify.com/v1/artists/3PaYAXe7Y4WSAm51Vhh97s",
        "id" : "3PaYAXe7Y4WSAm51Vhh97s",
        "name" : "Robert Tall",
        "type" : "artist",
        "uri" : "spotify:artist:3PaYAXe7Y4WSAm51Vhh97s"
      } ],
      "disc_number" : 1,
      "duration_ms" : 97750,
      "explicit" : false,
      "external_ids" : {
        "isrc" : "USJ3V0802858"
      },
      "external_urls" : {
        "spotify" : "https://open.spotify.com/track/75SYdmNe0FttkNNpe8WBBk"
      },
      "href" : "https://api.spotify.com/v1/tracks/75SYdmNe0FttkNNpe8WBBk",
      "id" : "75SYdmNe0FttkNNpe8WBBk",
      "is_local" : false,
      "is_playable" : true,
      "name" : "When In Our Music God is Glorified",
      "popularity" : 0,
      "preview_url" : "https://p.scdn.co/mp3-preview/5afe554b06a2f6c0a27f369166160ca84325a25b?cid=774b29d4f13844c495f206cafdad9c86",
      "track_number" : 9,
      "type" : "track",
      "uri" : "spotify:track:75SYdmNe0FttkNNpe8WBBk"
    }, {
      "album" : {
        "album_type" : "album",
        "artists" : [ {
          "external_urls" : {
            "spotify" : "https://open.spotify.com/artist/3pSC7R2x1hvn4CMi1vTv7s"
          },
          "href" : "https://api.spotify.com/v1/artists/3pSC7R2x1hvn4CMi1vTv7s",
          "id" : "3pSC7R2x1hvn4CMi1vTv7s",
          "name" : "Marty Haugen",
          "type" : "artist",
          "uri" : "spotify:artist:3pSC7R2x1hvn4CMi1vTv7s"
        } ],
        "external_urls" : {
          "spotify" : "https://open.spotify.com/album/4DDH4mrmQa0M2HeIyYBJkX"
        },
        "href" : "https://api.spotify.com/v1/albums/4DDH4mrmQa0M2HeIyYBJkX",
        "id" : "4DDH4mrmQa0M2HeIyYBJkX",
        "images" : [ {
          "height" : 640,
          "url" : "https://i.scdn.co/image/ab67616d0000b27359f40ed92fe824228206ed99",
          "width" : 640
        }, {
          "height" : 300,
          "url" : "https://i.scdn.co/image/ab67616d00001e0259f40ed92fe824228206ed99",
          "width" : 300
        }, {
          "height" : 64,
          "url" : "https://i.scdn.co/image/ab67616d0000485159f40ed92fe824228206ed99",
          "width" : 64
        } ],
        "name" : "Tales of Wonder",
        "release_date" : "1990-01-01",
        "release_date_precision" : "day",
        "total_tracks" : 10,
        "type" : "album",
        "uri" : "spotify:album:4DDH4mrmQa0M2HeIyYBJkX"
      },
      "artists" : [ {
        "external_urls" : {
          "spotify" : "https://open.spotify.com/artist/3pSC7R2x1hvn4CMi1vTv7s"
        },
        "href" : "https://api.spotify.com/v1/artists/3pSC7R2x1hvn4CMi1vTv7s",
        "id" : "3pSC7R2x1hvn4CMi1vTv7s",
        "name" : "Marty Haugen",
        "type" : "artist",
        "uri" : "spotify:artist:3pSC7R2x1hvn4CMi1vTv7s"
      } ],
      "disc_number" : 1,
      "duration_ms" : 224800,
      "explicit" : false,
      "external_ids" : {
        "isrc" : "US7850610205"
      },
      "external_urls" : {
        "spotify" : "https://open.spotify.com/track/5U4XLiRVRGqzJrzE3iTt8s"
      },
      "href" : "https://api.spotify.com/v1/tracks/5U4XLiRVRGqzJrzE3iTt8s",
      "id" : "5U4XLiRVRGqzJrzE3iTt8s",
      "is_local" : false,
      "is_playable" : true,
      "name" : "When, in Our Music, God Is Glorified",
      "popularity" : 1,
      "preview_url" : "https://p.scdn.co/mp3-preview/423ea83ed937cc88d8a1e01f6a6c3ecf5374136a?cid=774b29d4f13844c495f206cafdad9c86",
      "track_number" : 9,
      "type" : "track",
      "uri" : "spotify:track:5U4XLiRVRGqzJrzE3iTt8s"
    } ],
    "limit" : 10,
    "next" : "https://api.spotify.com/v1/search?query=When+in+Our+Music+God+Is+Glorified&type=track&market=US&offset=15&limit=10",
    "offset" : 5,
    "previous" : "https://api.spotify.com/v1/search?query=When+in+Our+Music+God+Is+Glorified&type=track&market=US&offset=0&limit=10",
    "total" : 54
  }
}