{
  "tracks" : {
    "href" : "https://api.spotify.com/v1/search?query=O+Thou+in+Whose+Presence&type=track&market=US&offset=5&limit=10",
    "items" : [ {
      "album" : {
        "album_type" : "album",
        "artists" : [ {
          "external_urls" : {
            "spotify" : "https://open.spotify.com/artist/0lIKYnfwagObGRF0DuU59k"
          },
          "href" : "https://api.spotify.com/v1/artists/0lIKYnfwagObGRF0DuU59k",
          "id" : "0lIKYnfwagObGRF0DuU59k",
          "name" : "8 Bit Music Lee",
          "type" : "artist",
          "uri" : "spotify:artist:0lIKYnfwagObGRF0DuU59k"
        } ],
        "external_urls" : {
          "spotify" : "https://open.spotify.com/album/5X2Do9zubdXS3vgVMrWjJo"
        },
        "href" : "https://api.spotify.com/v1/albums/5X2Do9zubdXS3vgVMrWjJo",
        "id" : "5X2Do9zubdXS3vgVMrWjJo",
        "images" : [ {
          "height" : 640,
          "url" : "https://i.scdn.co/image/ab67616d0000b2736985453937c0f1880048417a",
          "width" : 640
        }, {
          "height" : 300,
          "url" : "https://i.scdn.co/image/ab67616d00001e026985453937c0f1880048417a",
          "width" : 300
        }, {
          "height" : 64,
          "url" : "https://i.scdn.co/image/ab67616d000048516985453937c0f1880048417a",
          "width" : 64
        } ],
        "name" : "Hymns, Vol. XII",
        "release_date" : "2020-03-29",
        "release_date_precision" : "day",
        "total_tracks" : 15,
        "type" : "album",
        "uri" : "spotify:album:5X2Do9zubdXS3vgVMrWjJo"
      },
      "artists" : [ {
        "external_urls" : {
          "spotify" : "https://open.spotify.com/artist/0lIKYnfwagObGRF0DuU59k"
        },
        "href" : "https://api.spotify.com/v1/artists/0lIKYnfwagObGRF0DuU59k",
        "id" : "0lIKYnfwagObGRF0DuU59k",
        "name" : "8 Bit Music Lee",
        "type" : "artist",
        "uri" : "spotify:artist:0lIKYnfwagObGRF0DuU59k"
      } ],
      "disc_number" : 1,
      "duration_ms" : 139258,
      "explicit" : false,
      "external_ids" : {
        "isrc" : "QZDA62043365"
      },
      "external_urls" : {
        "spotify" : "https://open.spotify.com/track/068611fn3wbExhmqT8nISC"
      },
      "href" : "https://api.spotify.com/v1/tracks/068611fn3wbExhmqT8nISC",
      "id" : "068611fn3wbExhmqT8nISC",
      "is_local" : false,
      "is_playable" : true,
      "name" : "O Thou in Whose Presence",
      "popularity" : 2,
      "preview_url" : "https://p.scdn.co/mp3-preview/7da18233ed46778ffa6e783bd6f66921bb9300c0?cid=774b29d4f13844c495f206cafdad9c86",
      "track_number" : 4,
      "type" : "track",
      "uri" : "spotify:track:068611fn3wbExhmqT8nISC"
    }, {
      "album" : {
        "album_type" : "album",
        "artists" : [ {
          "external_urls" : {
            "spotify" : "https://open.spotify.com/artist/5NRsQP2BKFObQXtLGYtkB6"
          },
          "href" : "https://api.spotify.com/v1/artists/5NRsQP2BKFObQXtLGYtkB6",
          "id" : "5NRsQP2BKFObQXtLGYtkB6",
          "name" : "Shari McRae",
          "type" : "artist",
          "uri" : "spotify:artist:5NRsQP2BKFObQXtLGYtkB6"
        } ],
        "external_urls" : {
          "spotify" : "https://open.spotify.com/album/6XGW8vv171fNOCE2WcB80H"
        },
        "href" : "https://api.spotify.com/v1/albums/6XGW8vv171fNOCE2WcB80H",
        "id" : "6XGW8vv171fNOCE2WcB80H",
        "images" : [ {
          "height" : 640,
          "url" : "https://i.scdn.co/image/ab67616d0000b2734804c7371dff4c25f8ddb11c",
          "width" : 640
        }, {
          "height" : 300,
          "url" : "https://i.scdn.co/image/ab67616d00001e024804c7371dff4c25f8ddb11c",
          "width" : 300
        }, {
          "height" : 64,
          "url" : "https://i.scdn.co/image/ab67616d000048514804c7371dff4c25f8ddb11c",
          "width" : 64
        } ],
        "name" : "Deeper",
        "release_date" : "2015-12-18",
        "release_date_precision" : "day",
        "total_tracks" : 8,
        "type" : "album",
        "uri" : "spotify:album:6XGW8vv171fNOCE2WcB80H"
      },
      "artists" : [ {
        "external_urls" : {
          "spotify" : "https://open.spotify.com/artist/5NRsQP2BKFObQXtLGYtkB6"
        },
        "href" : "https://api.spotify.com/v1/artists/5NRsQP2BKFObQXtLGYtkB6",
        "id" : "5NRsQP2BKFObQXtLGYtkB6",
        "name" : "Shari McRae",
        "type" : "artist",
        "uri" : "spotify:artist:5NRsQP2BKFObQXtLGYtkB6"
      } ],
      "disc_number" : 1,
      "duration_ms" : 221866,
      "explicit" : false,
      "external_ids" : {
        "isrc" : "USR5C1502606"
      },
      "external_urls" : {
        "spotify" : "https://open.spotify.com/track/6W6ojoJ3Lg72ckcwRZSv9c"
      },
      "href" : "https://api.spotify.com/v1/tracks/6W6ojoJ3Lg72ckcwRZSv9c",
      "id" : "6W6ojoJ3Lg72ckcwRZSv9c",
      "is_local" : false,
      "is_playable" : true,
      "name" : "O Thou in Whose Presence",
      "popularity" : 0,
      "preview_url" : "https://p.scdn.co/mp3-preview/61adf38c2a717f2367868ca0cd25937a144a1f2e?cid=774b29d4f13844c495f206cafdad9c86",
      "track_number" : 6,
      "type" : "track",
      "uri" : "spotify:track:6W6ojoJ3Lg72ckcwRZSv9c"
    }, {
      "album" : {
        "album_type" : "album",
        "artists" : [ {
          "external_urls" : {
            "spotify" : "https://open.spotify.com/artist/59zx8BWatGUw0gfZpsxSvK"
          },
          "href" : "https://api.spotify.com/v1/artists/59zx8BWatGUw0gfZpsxSvK",
          "id" : "59zx8BWatGUw0gfZpsxSvK",
          "name" : "Han In Ae",
          "type" : "artist",
          "uri" : "spotify:artist:59zx8BWatGUw0gfZpsxSvK"
        } ],
        "external_urls" : {
          "spotify" : "https://open.spotify.com/album/7d1FE88vKZoqFr9Xi06XhH"
        },
        "href" : "https://api.spotify.com/v1/albums/7d1FE88vKZoqFr9Xi06XhH",
        "id" : "7d1FE88vKZoqFr9Xi06XhH",
        "images" : [ {
          "height" : 640,
          "url" : "https://i.scdn.co/image/ab67616d0000b273425dd80e38e14c832437fdb1",
          "width" : 640
        }, {
          "height" : 300,
          "url" : "https://i.scdn.co/image/ab67616d00001e02425dd80e38e14c832437fdb1",
          "width" : 300
        }, {
          "height" : 64,
          "url" : "https://i.scdn.co/image/ab67616d00004851425dd80e38e14c832437fdb1",
          "width" : 64
        } ],
        "name" : "Pray for You, Best. 1",
        "release_date" : "2018-06-05",
        "release_date_precision" : "day",
        "total_tracks" : 10,
        "type" : "album",
        "uri" : "spotify:album:7d1FE88vKZoqFr9Xi06XhH"
      },
      "artists" : [ {
        "external_urls" : {
          "spotify" : "https://open.spotify.com/artist/59zx8BWatGUw0gfZpsxSvK"
        },
        "href" : "https://api.spotify.com/v1/artists/59zx8BWatGUw0gfZpsxSvK",
        "id" : "59zx8BWatGUw0gfZpsxSvK",
        "name" : "Han In Ae",
        "type" : "artist",
        "uri" : "spotify:artist:59zx8BWatGUw0gfZpsxSvK"
      } ],
      "disc_number" : 1,
      "duration_ms" : 324000,
      "explicit" : false,
      "external_ids" : {
        "isrc" : "KRB921711461"
      },
      "external_urls" : {
        "spotify" : "https://open.spotify.com/track/23QmoACpNyyFCgTUdFaoES"
      },
      "href" : "https://api.spotify.com/v1/tracks/23QmoACpNyyFCgTUdFaoES",
      "id" : "23QmoACpNyyFCgTUdFaoES",
      "is_local" : false,
      "is_playable" : true,
      "name" : "O Thou in whose Presence",
      "popularity" : 0,
      "preview_url" : "https://p.scdn.co/mp3-preview/0c6c4f91604dfcf82ed3299895dec09933b2e658?cid=774b29d4f13844c495f206cafdad9c86",
      "track_number" : 4,
      "type" : "track",
      "uri" : "spotify:track:23QmoACpNyyFCgTUdFaoES"
    }, {
      "album" : {
        "album_type" : "album",
        "artists" : [ {
          "external_urls" : {
            "spotify" : "https://open.spotify.com/artist/27HpKO5tx7PUZdRRhfBAD7"
          },
          "href" : "https://api.spotify.com/v1/artists/27HpKO5tx7PUZdRRhfBAD7",
          "id" : "27HpKO5tx7PUZdRRhfBAD7",
          "name" : "Lullaby & Prenatal Band",
          "type" : "artist",
          "uri" : "spotify:artist:27HpKO5tx7PUZdRRhfBAD7"
        } ],
        "external_urls" : {
          "spotify" : "https://open.spotify.com/album/5ieGfzt6nh0RSEhkVYCG19"
        },
        "href" : "https://api.spotify.com/v1/albums/5ieGfzt6nh0RSEhkVYCG19",
        "id" : "5ieGfzt6nh0RSEhkVYCG19",
        "images" : [ {
          "height" : 640,
          "url" : "https://i.scdn.co/image/ab67616d0000b2738ed92de25fda7e10a0007e48",
          "width" : 640
        }, {
          "height" : 300,
          "url" : "https://i.scdn.co/image/ab67616d00001e028ed92de25fda7e10a0007e48",
          "width" : 300
        }, {
          "height" : 64,
          "url" : "https://i.scdn.co/image/ab67616d000048518ed92de25fda7e10a0007e48",
          "width" : 64
        } ],
        "name" : "Lullaby Hymn for My Baby Orgel and Rain Sound, Vol. 1",
        "release_date" : "2017-09-21",
        "release_date_precision" : "day",
        "total_tracks" : 7,
        "type" : "album",
        "uri" : "spotify:album:5ieGfzt6nh0RSEhkVYCG19"
      },
      "artists" : [ {
        "external_urls" : {
          "spotify" : "https://open.spotify.com/artist/27HpKO5tx7PUZdRRhfBAD7"
        },
        "href" : "https://api.spotify.com/v1/artists/27HpKO5tx7PUZdRRhfBAD7",
        "id" : "27HpKO5tx7PUZdRRhfBAD7",
        "name" : "Lullaby & Prenatal Band",
        "type" : "artist",
        "uri" : "spotify:artist:27HpKO5tx7PUZdRRhfBAD7"
      } ],
      "disc_number" : 1,
      "duration_ms" : 115798,
      "explicit" : false,
      "external_ids" : {
        "isrc" : "KRB921703577"
      },
      "external_urls" : {
        "spotify" : "https://open.spotify.com/track/7GoldHFMmB6WTaUFwiNYXm"
      },
      "href" : "https://api.spotify.com/v1/tracks/7GoldHFMmB6WTaUFwiNYXm",
      "id" : "7GoldHFMmB6WTaUFwiNYXm",
      "is_local" : false,
      "is_playable" : true,
      "name" : "O Thou, in Whose Presence",
      "popularity" : 0,
      "preview_url" : "https://p.scdn.co/mp3-preview/e7e5e2b9fa37d800a08b20d1bebaf2842455e754?cid=774b29d4f13844c495f206cafdad9c86",
      "track_number" : 5,
      "type" : "track",
      "uri" : "spotify:track:7GoldHFMmB6WTaUFwiNYXm"
    }, {
      "album" : {
        "album_type" : "album",
        "artists" : [ {
          "external_urls" : {
            "spotify" : "https://open.spotify.com/artist/27HpKO5tx7PUZdRRhfBAD7"
          },
          "href" : "https://api.spotify.com/v1/artists/27HpKO5tx7PUZdRRhfBAD7",
          "id" : "27HpKO5tx7PUZdRRhfBAD7",
          "name" : "Lullaby & Prenatal Band",
          "type" : "artist",
          "uri" : "spotify:artist:27HpKO5tx7PUZdRRhfBAD7"
        } ],
        "external_urls" : {
          "spotify" : "https://open.spotify.com/album/5fgjJGjeMrhGTahwYkBBAy"
        },
        "href" : "https://api.spotify.com/v1/albums/5fgjJGjeMrhGTahwYkBBAy",
        "id" : "5fgjJGjeMrhGTahwYkBBAy",
        "images" : [ {
          "height" : 640,
          "url" : "https://i.scdn.co/image/ab67616d0000b273b480ed5e3c9106d1f43fcd4b",
          "width" : 640
        }, {
          "height" : 300,
          "url" : "https://i.scdn.co/image/ab67616d00001e02b480ed5e3c9106d1f43fcd4b",
          "width" : 300
        }, {
          "height" : 64,
          "url" : "https://i.scdn.co/image/ab67616d00004851b480ed5e3c9106d1f43fcd4b",
          "width" : 64
        } ],
        "name" : "Lullaby Hymn for My Baby with Orgel, Vol. 1",
        "release_date" : "2017-09-11",
        "release_date_precision" : "day",
        "total_tracks" : 7,
        "type" : "album",
        "uri" : "spotify:album:5fgjJGjeMrhGTahwYkBBAy"
      },
      "artists" : [ {
        "external_urls" : {
          "spotify" : "https://open.spotify.com/artist/27HpKO5tx7PUZdRRhfBAD7"
        },
        "href" : "https://api.spotify.com/v1/artists/27HpKO5tx7PUZdRRhfBAD7",
        "id" : "27HpKO5tx7PUZdRRhfBAD7",
        "name" : "Lullaby & Prenatal Band",
        "type" : "artist",
        "uri" : "spotify:artist:27HpKO5tx7PUZdRRhfBAD7"
      } ],
      "disc_number" : 1,
      "duration_ms" : 114140,
      "explicit" : false,
      "external_ids" : {
        "isrc" : "KRB921702666"
      },
      "external_urls" : {
        "spotify" : "https://open.spotify.com/track/5IL1i4hsJtUBx2bXBGJsop"
      },
      "href" : "https://api.spotify.com/v1/tracks/5IL1i4hsJtUBx2bXBGJsop",
      "id" : "5IL1i4hsJtUBx2bXBGJsop",
      "is_local" : false,
      "is_playable" : true,
      "name" : "O Thou, in Whose Presence",
      "popularity" : 0,
      "preview_url" : "https://p.scdn.co/mp3-preview/86269c7ab5089fc466dcf1f5ab34f12bc9710a85?cid=774b29d4f13844c495f206cafdad9c86",
      "track_number" : 5,
      "type" : "track",
      "uri" : "spotify:track:5IL1i4hsJtUBx2bXBGJsop"
    }, {
      "album" : {
        "album_type" : "album",
        "artists" : [ {
          "external_urls" : {
            "spotify" : "https://open.spotify.com/artist/6gR4hap4Qw6S2qfW2oBnWp"
          },
          "href" : "https://api.spotify.com/v1/artists/6gR4hap4Qw6S2qfW2oBnWp",
          "id" : "6gR4hap4Qw6S2qfW2oBnWp",
          "name" : "The Corpus Christi Male Chorale",
          "type" : "artist",
          "uri" : "spotify:artist:6gR4hap4Qw6S2qfW2oBnWp"
        } ],
        "external_urls" : {
          "spotify" : "https://open.spotify.com/album/4T2CKcUHCbSRZUwAQ0rUaU"
        },
        "href" : "https://api.spotify.com/v1/albums/4T2CKcUHCbSRZUwAQ0rUaU",
        "id" : "4T2CKcUHCbSRZUwAQ0rUaU",
        "images" : [ {
          "height" : 640,
          "url" : "https://i.scdn.co/image/ab67616d0000b273d3680bf4a44a39f2128b9bed",
          "width" : 640
        }, {
          "height" : 300,
          "url" : "https://i.scdn.co/image/ab67616d00001e02d3680bf4a44a39f2128b9bed",
          "width" : 300
        }, {
          "height" : 64,
          "url" : "https://i.scdn.co/image/ab67616d00004851d3680bf4a44a39f2128b9bed",
          "width" : 64
        } ],
        "name" : "Let The Nations Sing",
        "release_date" : "2003",
        "release_date_precision" : "year",
        "total_tracks" : 19,
        "type" : "album",
        "uri" : "spotify:album:4T2CKcUHCbSRZUwAQ0rUaU"
      },
      "artists" : [ {
        "external_urls" : {
          "spotify" : "https://open.spotify.com/artist/6gR4hap4Qw6S2qfW2oBnWp"
        },
        "href" : "https://api.spotify.com/v1/artists/6gR4hap4Qw6S2qfW2oBnWp",
        "id" : "6gR4hap4Qw6S2qfW2oBnWp",
        "name" : "The Corpus Christi Male Chorale",
        "type" : "artist",
        "uri" : "spotify:artist:6gR4hap4Qw6S2qfW2oBnWp"
      } ],
      "disc_number" : 1,
      "duration_ms" : 184133,
      "explicit" : false,
      "external_ids" : {
        "isrc" : "uscgj0783013"
      },
      "external_urls" : {
        "spotify" : "https://open.spotify.com/track/5eDqMwUVUTyx8C1DCAW8Rn"
      },
      "href" : "https://api.spotify.com/v1/tracks/5eDqMwUVUTyx8C1DCAW8Rn",
      "id" : "5eDqMwUVUTyx8C1DCAW8Rn",
      "is_local" : false,
      "is_playable" : true,
      "name" : "O Thou In Whose Presence",
      "popularity" : 0,
      "preview_url" : "https://p.scdn.co/mp3-preview/82b3b0ae4c323be7f8afe30ed13f72a1b16d359c?cid=774b29d4f13844c495f206cafdad9c86",
      "track_number" : 11,
      "type" : "track",
      "uri" : "spotify:track:5eDqMwUVUTyx8C1DCAW8Rn"
    }, {
      "album" : {
        "album_type" : "album",
        "artists" : [ {
          "external_urls" : {
            "spotify" : "https://open.spotify.com/artist/27HpKO5tx7PUZdRRhfBAD7"
          },
          "href" : "https://api.spotify.com/v1/artists/27HpKO5tx7PUZdRRhfBAD7",
          "id" : "27HpKO5tx7PUZdRRhfBAD7",
          "name" : "Lullaby & Prenatal Band",
          "type" : "artist",
          "uri" : "spotify:artist:27HpKO5tx7PUZdRRhfBAD7"
        } ],
        "external_urls" : {
          "spotify" : "https://open.spotify.com/album/0mkzB8AZVvAyKHBS46tiVs"
        },
        "href" : "https://api.spotify.com/v1/albums/0mkzB8AZVvAyKHBS46tiVs",
        "id" : "0mkzB8AZVvAyKHBS46tiVs",
        "images" : [ {
          "height" : 640,
          "url" : "https://i.scdn.co/image/ab67616d0000b273b6fb37a2ac604ec147a5adb4",
          "width" : 640
        }, {
          "height" : 300,
          "url" : "https://i.scdn.co/image/ab67616d00001e02b6fb37a2ac604ec147a5adb4",
          "width" : 300
        }, {
          "height" : 64,
          "url" : "https://i.scdn.co/image/ab67616d00004851b6fb37a2ac604ec147a5adb4",
          "width" : 64
        } ],
        "name" : "Lullaby Hymn for My Baby Orgel and Rain Sound, Collection (Relaxing Music,Classical Lullaby,Prenatal Care,Prenatal Music,Pregnant Woman,Baby Sleep Music,Pregnancy Music)",
        "release_date" : "2017-09-28",
        "release_date_precision" : "day",
        "total_tracks" : 28,
        "type" : "album",
        "uri" : "spotify:album:0mkzB8AZVvAyKHBS46tiVs"
      },
      "artists" : [ {
        "external_urls" : {
          "spotify" : "https://open.spotify.com/artist/27HpKO5tx7PUZdRRhfBAD7"
        },
        "href" : "https://api.spotify.com/v1/artists/27HpKO5tx7PUZdRRhfBAD7",
        "id" : "27HpKO5tx7PUZdRRhfBAD7",
        "name" : "Lullaby & Prenatal Band",
        "type" : "artist",
        "uri" : "spotify:artist:27HpKO5tx7PUZdRRhfBAD7"
      } ],
      "disc_number" : 1,
      "duration_ms" : 115798,
      "explicit" : false,
      "external_ids" : {
        "isrc" : "KRB921703672"
      },
      "external_urls" : {
        "spotify" : "https://open.spotify.com/track/5et57uJDKH17WvWsoXjdHt"
      },
      "href" : "https://api.spotify.com/v1/tracks/5et57uJDKH17WvWsoXjdHt",
      "id" : "5et57uJDKH17WvWsoXjdHt",
      "is_local" : false,
      "is_playable" : true,
      "name" : "O Thou, in Whose Presence",
      "popularity" : 3,
      "preview_url" : "https://p.scdn.co/mp3-preview/e7e5e2b9fa37d800a08b20d1bebaf2842455e754?cid=774b29d4f13844c495f206cafdad9c86",
      "track_number" : 25,
      "type" : "track",
      "uri" : "spotify:track:5et57uJDKH17WvWsoXjdHt"
    }, {
      "album" : {
        "album_type" : "album",
        "artists" : [ {
          "external_urls" : {
            "spotify" : "https://open.spotify.com/artist/27HpKO5tx7PUZdRRhfBAD7"
          },
          "href" : "https://api.spotify.com/v1/artists/27HpKO5tx7PUZdRRhfBAD7",
          "id" : "27HpKO5tx7PUZdRRhfBAD7",
          "name" : "Lullaby & Prenatal Band",
          "type" : "artist",
          "uri" : "spotify:artist:27HpKO5tx7PUZdRRhfBAD7"
        } ],
        "external_urls" : {
          "spotify" : "https://open.spotify.com/album/6MLtqWzJDe4qyDivOeTFqu"
        },
        "href" : "https://api.spotify.com/v1/albums/6MLtqWzJDe4qyDivOeTFqu",
        "id" : "6MLtqWzJDe4qyDivOeTFqu",
        "images" : [ {
          "height" : 640,
          "url" : "https://i.scdn.co/image/ab67616d0000b2737bf9ebc234971eb77fe097e9",
          "width" : 640
        }, {
          "height" : 300,
          "url" : "https://i.scdn.co/image/ab67616d00001e027bf9ebc234971eb77fe097e9",
          "width" : 300
        }, {
          "height" : 64,
          "url" : "https://i.scdn.co/image/ab67616d000048517bf9ebc234971eb77fe097e9",
          "width" : 64
        } ],
        "name" : "Lullaby Hymn for My Baby with Electric Piano",
        "release_date" : "2017-08-27",
        "release_date_precision" : "day",
        "total_tracks" : 8,
        "type" : "album",
        "uri" : "spotify:album:6MLtqWzJDe4qyDivOeTFqu"
      },
      "artists" : [ {
        "external_urls" : {
          "spotify" : "https://open.spotify.com/artist/27HpKO5tx7PUZdRRhfBAD7"
        },
        "href" : "https://api.spotify.com/v1/artists/27HpKO5tx7PUZdRRhfBAD7",
        "id" : "27HpKO5tx7PUZdRRhfBAD7",
        "name" : "Lullaby & Prenatal Band",
        "type" : "artist",
        "uri" : "spotify:artist:27HpKO5tx7PUZdRRhfBAD7"
      } ],
      "disc_number" : 1,
      "duration_ms" : 107462,
      "explicit" : false,
      "external_ids" : {
        "isrc" : "KRB921702692"
      },
      "external_urls" : {
        "spotify" : "https://open.spotify.com/track/1qTerFzXjBEa4Ndqay6NuB"
      },
      "href" : "https://api.spotify.com/v1/tracks/1qTerFzXjBEa4Ndqay6NuB",
      "id" : "1qTerFzXjBEa4Ndqay6NuB",
      "is_local" : false,
      "is_playable" : true,
      "name" : "O Thou, in Whose Presence",
      "popularity" : 0,
      "preview_url" : "https://p.scdn.co/mp3-preview/e942c7120d320595c985e19d85590a6b68f9e0d4?cid=774b29d4f13844c495f206cafdad9c86",
      "track_number" : 3,
      "type" : "track",
      "uri" : "spotify:track:1qTerFzXjBEa4Ndqay6NuB"
    }, {
      "album" : {
        "album_type" : "single",
        "artists" : [ {
          "external_urls" : {
            "spotify" : "https://open.spotify.com/artist/33c0BeAErD3vae90Gt4M80"
          },
          "href" : "https://api.spotify.com/v1/artists/33c0BeAErD3vae90Gt4M80",
          "id" : "33c0BeAErD3vae90Gt4M80",
          "name" : "HolyCow",
          "type" : "artist",
          "uri" : "spotify:artist:33c0BeAErD3vae90Gt4M80"
        } ],
        "external_urls" : {
          "spotify" : "https://open.spotify.com/album/4AwaiudIa41PzypO8HUDwR"
        },
        "href" : "https://api.spotify.com/v1/albums/4AwaiudIa41PzypO8HUDwR",
        "id" : "4AwaiudIa41PzypO8HUDwR",
        "images" : [ {
          "height" : 640,
          "url" : "https://i.scdn.co/image/ab67616d0000b2734d33ae155dfc01aa24efb81c",
          "width" : 640
        }, {
          "height" : 300,
          "url" : "https://i.scdn.co/image/ab67616d00001e024d33ae155dfc01aa24efb81c",
          "width" : 300
        }, {
          "height" : 64,
          "url" : "https://i.scdn.co/image/ab67616d000048514d33ae155dfc01aa24efb81c",
          "width" : 64
        } ],
        "name" : "Hymns Piano for Prayer and Meditation Vol. 8 (Meditation Prayer, Dawn Prayer, Rest, Meditation, Prayer Music, Healing, Healing, Hymn, CCM)",
        "release_date" : "2019-04-16",
        "release_date_precision" : "day",
        "total_tracks" : 2,
        "type" : "album",
        "uri" : "spotify:album:4AwaiudIa41PzypO8HUDwR"
      },
      "artists" : [ {
        "external_urls" : {
          "spotify" : "https://open.spotify.com/artist/33c0BeAErD3vae90Gt4M80"
        },
        "href" : "https://api.spotify.com/v1/artists/33c0BeAErD3vae90Gt4M80",
        "id" : "33c0BeAErD3vae90Gt4M80",
        "name" : "HolyCow",
        "type" : "artist",
        "uri" : "spotify:artist:33c0BeAErD3vae90Gt4M80"
      } ],
      "disc_number" : 1,
      "duration_ms" : 240000,
      "explicit" : false,
      "external_ids" : {
        "isrc" : "KRB921723238"
      },
      "external_urls" : {
        "spotify" : "https://open.spotify.com/track/5s8COFAScti9nEVVdEjEr5"
      },
      "href" : "https://api.spotify.com/v1/tracks/5s8COFAScti9nEVVdEjEr5",
      "id" : "5s8COFAScti9nEVVdEjEr5",
      "is_local" : false,
      "is_playable" : true,
      "name" : "O Thou, in Whose Presence",
      "popularity" : 0,
      "preview_url" : "https://p.scdn.co/mp3-preview/28504685d14835411a4cdfe30680d15f7843f45a?cid=774b29d4f13844c495f206cafdad9c86",
      "track_number" : 2,
      "type" : "track",
      "uri" : "spotify:track:5s8COFAScti9nEVVdEjEr5"
    }, {
      "album" : {
        "album_type" : "single",
        "artists" : [ {
          "external_urls" : {
            "spotify" : "https://open.spotify.com/artist/59zx8BWatGUw0gfZpsxSvK"
          },
          "href" : "https://api.spotify.com/v1/artists/59zx8BWatGUw0gfZpsxSvK",
          "id" : "59zx8BWatGUw0gfZpsxSvK",
          "name" : "Han In Ae",
          "type" : "artist",
          "uri" : "spotify:artist:59zx8BWatGUw0gfZpsxSvK"
        } ],
        "external_urls" : {
          "spotify" : "https://open.spotify.com/album/6FnqZtNGEajzZEgLLga6D4"
        },
        "href" : "https://api.spotify.com/v1/albums/6FnqZtNGEajzZEgLLga6D4",
        "id" : "6FnqZtNGEajzZEgLLga6D4",
        "images" : [ {
          "height" : 640,
          "url" : "https://i.scdn.co/image/ab67616d0000b2732e1394801af644ed65db5ec8",
          "width" : 640
        }, {
          "height" : 300,
          "url" : "https://i.scdn.co/image/ab67616d00001e022e1394801af644ed65db5ec8",
          "width" : 300
        }, {
          "height" : 64,
          "url" : "https://i.scdn.co/image/ab67616d000048512e1394801af644ed65db5ec8",
          "width" : 64
        } ],
        "name" : "Pray for You, Vol. 6",
        "release_date" : "2017-06-09",
        "release_date_precision" : "day",
        "total_tracks" : 2,
        "type" : "album",
        "uri" : "spotify:album:6FnqZtNGEajzZEgLLga6D4"
      },
      "artists" : [ {
        "external_urls" : {
          "spotify" : "https://open.spotify.com/artist/59zx8BWatGUw0gfZpsxSvK"
        },
        "href" : "https://api.spotify.com/v1/artists/59zx8BWatGUw0gfZpsxSvK",
        "id" : "59zx8BWatGUw0gfZpsxSvK",
        "name" : "Han In Ae",
        "type" : "artist",
        "uri" : "spotify:artist:59zx8BWatGUw0gfZpsxSvK"
      } ],
      "disc_number" : 1,
      "duration_ms" : 324000,
      "explicit" : false,
      "external_ids" : {
        "isrc" : "KRB921701534"
      },
      "external_urls" : {
        "spotify" : "https://open.spotify.com/track/4ULMDRTcFd84oxZbhZNxd8"
      },
      "href" : "https://api.spotify.com/v1/tracks/4ULMDRTcFd84oxZbhZNxd8",
      "id" : "4ULMDRTcFd84oxZbhZNxd8",
      "is_local" : false,
      "is_playable" : true,
      "name" : "O Thou in whose Presence",
      "popularity" : 0,
      "preview_url" : "https://p.scdn.co/mp3-preview/0c6c4f91604dfcf82ed3299895dec09933b2e658?cid=774b29d4f13844c495f206cafdad9c86",
      "track_number" : 2,
      "type" : "track",
      "uri" : "spotify:track:4ULMDRTcFd84oxZbhZNxd8"
    } ],
    "limit" : 10,
    "next" : "https://api.spotify.com/v1/search?query=O+Thou+in+Whose+Presence&type=track&market=US&offset=15&limit=10",
    "offset" : 5,
    "previous" : "https://api.spotify.com/v1/search?query=O+Thou+in+Whose+Presence&type=track&market=US&offset=0&limit=10",
    "total" : 33
  }
}