{
  "tracks" : {
    "href" : "https://api.spotify.com/v1/search?query=All+Hail+the+Power+of+Jesus%E2%80%99+Name&type=track&market=US&offset=5&limit=10",
    "items" : [ {
      "album" : {
        "album_type" : "album",
        "artists" : [ {
          "external_urls" : {
            "spotify" : "https://open.spotify.com/artist/0I4Bk2s2BUJyykCwtxx8Xx"
          },
          "href" : "https://api.spotify.com/v1/artists/0I4Bk2s2BUJyykCwtxx8Xx",
          "id" : "0I4Bk2s2BUJyykCwtxx8Xx",
          "name" : "Keith & Kristyn Getty",
          "type" : "artist",
          "uri" : "spotify:artist:0I4Bk2s2BUJyykCwtxx8Xx"
        } ],
        "external_urls" : {
          "spotify" : "https://open.spotify.com/album/5KhRC5Kh7gGPxZAYWP72Cq"
        },
        "href" : "https://api.spotify.com/v1/albums/5KhRC5Kh7gGPxZAYWP72Cq",
        "id" : "5KhRC5Kh7gGPxZAYWP72Cq",
        "images" : [ {
          "height" : 640,
          "url" : "https://i.scdn.co/image/ab67616d0000b27328c6cbbec410c8311cc771ed",
          "width" : 640
        }, {
          "height" : 300,
          "url" : "https://i.scdn.co/image/ab67616d00001e0228c6cbbec410c8311cc771ed",
          "width" : 300
        }, {
          "height" : 64,
          "url" : "https://i.scdn.co/image/ab67616d0000485128c6cbbec410c8311cc771ed",
          "width" : 64
        } ],
        "name" : "Getty Kids Hymnal - For The Cause",
        "release_date" : "2017-06-16",
        "release_date_precision" : "day",
        "total_tracks" : 12,
        "type" : "album",
        "uri" : "spotify:album:5KhRC5Kh7gGPxZAYWP72Cq"
      },
      "artists" : [ {
        "external_urls" : {
          "spotify" : "https://open.spotify.com/artist/0I4Bk2s2BUJyykCwtxx8Xx"
        },
        "href" : "https://api.spotify.com/v1/artists/0I4Bk2s2BUJyykCwtxx8Xx",
        "id" : "0I4Bk2s2BUJyykCwtxx8Xx",
        "name" : "Keith & Kristyn Getty",
        "type" : "artist",
        "uri" : "spotify:artist:0I4Bk2s2BUJyykCwtxx8Xx"
      } ],
      "disc_number" : 1,
      "duration_ms" : 267306,
      "explicit" : false,
      "external_ids" : {
        "isrc" : "USY5K1700001"
      },
      "external_urls" : {
        "spotify" : "https://open.spotify.com/track/5xYEA7rQi4R2th5Z22Z3HH"
      },
      "href" : "https://api.spotify.com/v1/tracks/5xYEA7rQi4R2th5Z22Z3HH",
      "id" : "5xYEA7rQi4R2th5Z22Z3HH",
      "is_local" : false,
      "is_playable" : true,
      "name" : "All Hail The Power Of Jesus' Name",
      "popularity" : 22,
      "preview_url" : null,
      "track_number" : 1,
      "type" : "track",
      "uri" : "spotify:track:5xYEA7rQi4R2th5Z22Z3HH"
    }, {
      "album" : {
        "album_type" : "compilation",
        "artists" : [ {
          "external_urls" : {
            "spotify" : "https://open.spotify.com/artist/0LyfQWJT6nXafLPZqxe9Of"
          },
          "href" : "https://api.spotify.com/v1/artists/0LyfQWJT6nXafLPZqxe9Of",
          "id" : "0LyfQWJT6nXafLPZqxe9Of",
          "name" : "Various Artists",
          "type" : "artist",
          "uri" : "spotify:artist:0LyfQWJT6nXafLPZqxe9Of"
        } ],
        "external_urls" : {
          "spotify" : "https://open.spotify.com/album/6qmPIJGrMMPT3erUNOdJpi"
        },
        "href" : "https://api.spotify.com/v1/albums/6qmPIJGrMMPT3erUNOdJpi",
        "id" : "6qmPIJGrMMPT3erUNOdJpi",
        "images" : [ {
          "height" : 640,
          "url" : "https://i.scdn.co/image/ab67616d0000b273feab5c7e8aa84979922fd723",
          "width" : 640
        }, {
          "height" : 300,
          "url" : "https://i.scdn.co/image/ab67616d00001e02feab5c7e8aa84979922fd723",
          "width" : 300
        }, {
          "height" : 64,
          "url" : "https://i.scdn.co/image/ab67616d00004851feab5c7e8aa84979922fd723",
          "width" : 64
        } ],
        "name" : "Jesus, Firm Foundation: Hymns of Worship",
        "release_date" : "2013-03-01",
        "release_date_precision" : "day",
        "total_tracks" : 12,
        "type" : "album",
        "uri" : "spotify:album:6qmPIJGrMMPT3erUNOdJpi"
      },
      "artists" : [ {
        "external_urls" : {
          "spotify" : "https://open.spotify.com/artist/5aBxFPaaGk9204ssHUvXWN"
        },
        "href" : "https://api.spotify.com/v1/artists/5aBxFPaaGk9204ssHUvXWN",
        "id" : "5aBxFPaaGk9204ssHUvXWN",
        "name" : "Michael W. Smith",
        "type" : "artist",
        "uri" : "spotify:artist:5aBxFPaaGk9204ssHUvXWN"
      } ],
      "disc_number" : 1,
      "duration_ms" : 239053,
      "explicit" : false,
      "external_ids" : {
        "isrc" : "USA5W1300002"
      },
      "external_urls" : {
        "spotify" : "https://open.spotify.com/track/36Yxz0YqRObINr6weRwm3B"
      },
      "href" : "https://api.spotify.com/v1/tracks/36Yxz0YqRObINr6weRwm3B",
      "id" : "36Yxz0YqRObINr6weRwm3B",
      "is_local" : false,
      "is_playable" : true,
      "name" : "All Hail The Power Of Jesus' Name (Crown Him)",
      "popularity" : 26,
      "preview_url" : "https://p.scdn.co/mp3-preview/70daabbef8fe36941eddeb59737fc4b8054c1663?cid=774b29d4f13844c495f206cafdad9c86",
      "track_number" : 3,
      "type" : "track",
      "uri" : "spotify:track:36Yxz0YqRObINr6weRwm3B"
    }, {
      "album" : {
        "album_type" : "album",
        "artists" : [ {
          "external_urls" : {
            "spotify" : "https://open.spotify.com/artist/6QHA0Ju1zeevkCUGlFG04w"
          },
          "href" : "https://api.spotify.com/v1/artists/6QHA0Ju1zeevkCUGlFG04w",
          "id" : "6QHA0Ju1zeevkCUGlFG04w",
          "name" : "DappyTKeys",
          "type" : "artist",
          "uri" : "spotify:artist:6QHA0Ju1zeevkCUGlFG04w"
        } ],
        "external_urls" : {
          "spotify" : "https://open.spotify.com/album/5Xo4BUKrMl6lDHB4GtJGk7"
        },
        "href" : "https://api.spotify.com/v1/albums/5Xo4BUKrMl6lDHB4GtJGk7",
        "id" : "5Xo4BUKrMl6lDHB4GtJGk7",
        "images" : [ {
          "height" : 640,
          "url" : "https://i.scdn.co/image/ab67616d0000b273c68a9c5bb3dd0c2670d9cb21",
          "width" : 640
        }, {
          "height" : 300,
          "url" : "https://i.scdn.co/image/ab67616d00001e02c68a9c5bb3dd0c2670d9cb21",
          "width" : 300
        }, {
          "height" : 64,
          "url" : "https://i.scdn.co/image/ab67616d00004851c68a9c5bb3dd0c2670d9cb21",
          "width" : 64
        } ],
        "name" : "Hymns Collection, Vol. 1",
        "release_date" : "2020-01-03",
        "release_date_precision" : "day",
        "total_tracks" : 15,
        "type" : "album",
        "uri" : "spotify:album:5Xo4BUKrMl6lDHB4GtJGk7"
      },
      "artists" : [ {
        "external_urls" : {
          "spotify" : "https://open.spotify.com/artist/6QHA0Ju1zeevkCUGlFG04w"
        },
        "href" : "https://api.spotify.com/v1/artists/6QHA0Ju1zeevkCUGlFG04w",
        "id" : "6QHA0Ju1zeevkCUGlFG04w",
        "name" : "DappyTKeys",
        "type" : "artist",
        "uri" : "spotify:artist:6QHA0Ju1zeevkCUGlFG04w"
      } ],
      "disc_number" : 1,
      "duration_ms" : 141278,
      "explicit" : false,
      "external_ids" : {
        "isrc" : "TCAEO1949260"
      },
      "external_urls" : {
        "spotify" : "https://open.spotify.com/track/2khf3V3IOGW60951JglHxH"
      },
      "href" : "https://api.spotify.com/v1/tracks/2khf3V3IOGW60951JglHxH",
      "id" : "2khf3V3IOGW60951JglHxH",
      "is_local" : false,
      "is_playable" : true,
      "name" : "All Hail the Power of Jesus’ name",
      "popularity" : 21,
      "preview_url" : "https://p.scdn.co/mp3-preview/db7f6253b987ccdeb4d6f199606a7ee0bdb9e9e4?cid=774b29d4f13844c495f206cafdad9c86",
      "track_number" : 2,
      "type" : "track",
      "uri" : "spotify:track:2khf3V3IOGW60951JglHxH"
    }, {
      "album" : {
        "album_type" : "album",
        "artists" : [ {
          "external_urls" : {
            "spotify" : "https://open.spotify.com/artist/79WVHfPz6NehWubOqTV5w3"
          },
          "href" : "https://api.spotify.com/v1/artists/79WVHfPz6NehWubOqTV5w3",
          "id" : "79WVHfPz6NehWubOqTV5w3",
          "name" : "Keith Lancaster",
          "type" : "artist",
          "uri" : "spotify:artist:79WVHfPz6NehWubOqTV5w3"
        }, {
          "external_urls" : {
            "spotify" : "https://open.spotify.com/artist/5qWYFKIrDUtFAmkN9yQxEy"
          },
          "href" : "https://api.spotify.com/v1/artists/5qWYFKIrDUtFAmkN9yQxEy",
          "id" : "5qWYFKIrDUtFAmkN9yQxEy",
          "name" : "The Acappella Company",
          "type" : "artist",
          "uri" : "spotify:artist:5qWYFKIrDUtFAmkN9yQxEy"
        } ],
        "external_urls" : {
          "spotify" : "https://open.spotify.com/album/270tYiXVI2SOPYV3RgrtbV"
        },
        "href" : "https://api.spotify.com/v1/albums/270tYiXVI2SOPYV3RgrtbV",
        "id" : "270tYiXVI2SOPYV3RgrtbV",
        "images" : [ {
          "height" : 640,
          "url" : "https://i.scdn.co/image/ab67616d0000b273e2ea8d39f82f0e11f1ef7e50",
          "width" : 640
        }, {
          "height" : 300,
          "url" : "https://i.scdn.co/image/ab67616d00001e02e2ea8d39f82f0e11f1ef7e50",
          "width" : 300
        }, {
          "height" : 64,
          "url" : "https://i.scdn.co/image/ab67616d00004851e2ea8d39f82f0e11f1ef7e50",
          "width" : 64
        } ],
        "name" : "Holy God: Praise & Harmony (A Cappella Worship)",
        "release_date" : "2008-08-07",
        "release_date_precision" : "day",
        "total_tracks" : 25,
        "type" : "album",
        "uri" : "spotify:album:270tYiXVI2SOPYV3RgrtbV"
      },
      "artists" : [ {
        "external_urls" : {
          "spotify" : "https://open.spotify.com/artist/79WVHfPz6NehWubOqTV5w3"
        },
        "href" : "https://api.spotify.com/v1/artists/79WVHfPz6NehWubOqTV5w3",
        "id" : "79WVHfPz6NehWubOqTV5w3",
        "name" : "Keith Lancaster",
        "type" : "artist",
        "uri" : "spotify:artist:79WVHfPz6NehWubOqTV5w3"
      }, {
        "external_urls" : {
          "spotify" : "https://open.spotify.com/artist/5qWYFKIrDUtFAmkN9yQxEy"
        },
        "href" : "https://api.spotify.com/v1/artists/5qWYFKIrDUtFAmkN9yQxEy",
        "id" : "5qWYFKIrDUtFAmkN9yQxEy",
        "name" : "The Acappella Company",
        "type" : "artist",
        "uri" : "spotify:artist:5qWYFKIrDUtFAmkN9yQxEy"
      } ],
      "disc_number" : 1,
      "duration_ms" : 109793,
      "explicit" : false,
      "external_ids" : {
        "isrc" : "ushm21932175"
      },
      "external_urls" : {
        "spotify" : "https://open.spotify.com/track/23p33HyAuilG8ZCVAJu2iq"
      },
      "href" : "https://api.spotify.com/v1/tracks/23p33HyAuilG8ZCVAJu2iq",
      "id" : "23p33HyAuilG8ZCVAJu2iq",
      "is_local" : false,
      "is_playable" : true,
      "name" : "All Hail the Power of Jesus Name",
      "popularity" : 18,
      "preview_url" : "https://p.scdn.co/mp3-preview/5854154f4b56feeb15484c21776c08e2d7101d08?cid=774b29d4f13844c495f206cafdad9c86",
      "track_number" : 6,
      "type" : "track",
      "uri" : "spotify:track:23p33HyAuilG8ZCVAJu2iq"
    }, {
      "album" : {
        "album_type" : "album",
        "artists" : [ {
          "external_urls" : {
            "spotify" : "https://open.spotify.com/artist/7dc9jcxR0GgRMoNasStnmZ"
          },
          "href" : "https://api.spotify.com/v1/artists/7dc9jcxR0GgRMoNasStnmZ",
          "id" : "7dc9jcxR0GgRMoNasStnmZ",
          "name" : "David Baroni",
          "type" : "artist",
          "uri" : "spotify:artist:7dc9jcxR0GgRMoNasStnmZ"
        } ],
        "external_urls" : {
          "spotify" : "https://open.spotify.com/album/2CQrkXkTVc1M5QNE4YJpfV"
        },
        "href" : "https://api.spotify.com/v1/albums/2CQrkXkTVc1M5QNE4YJpfV",
        "id" : "2CQrkXkTVc1M5QNE4YJpfV",
        "images" : [ {
          "height" : 640,
          "url" : "https://i.scdn.co/image/ab67616d0000b27385bd0cd6432fd8fa597dff1b",
          "width" : 640
        }, {
          "height" : 300,
          "url" : "https://i.scdn.co/image/ab67616d00001e0285bd0cd6432fd8fa597dff1b",
          "width" : 300
        }, {
          "height" : 64,
          "url" : "https://i.scdn.co/image/ab67616d0000485185bd0cd6432fd8fa597dff1b",
          "width" : 64
        } ],
        "name" : "A Quiet Place: Instrumental Hymns Vol. II",
        "release_date" : "2010-07-15",
        "release_date_precision" : "day",
        "total_tracks" : 12,
        "type" : "album",
        "uri" : "spotify:album:2CQrkXkTVc1M5QNE4YJpfV"
      },
      "artists" : [ {
        "external_urls" : {
          "spotify" : "https://open.spotify.com/artist/7dc9jcxR0GgRMoNasStnmZ"
        },
        "href" : "https://api.spotify.com/v1/artists/7dc9jcxR0GgRMoNasStnmZ",
        "id" : "7dc9jcxR0GgRMoNasStnmZ",
        "name" : "David Baroni",
        "type" : "artist",
        "uri" : "spotify:artist:7dc9jcxR0GgRMoNasStnmZ"
      } ],
      "disc_number" : 1,
      "duration_ms" : 245986,
      "explicit" : false,
      "external_ids" : {
        "isrc" : "ushm21080016"
      },
      "external_urls" : {
        "spotify" : "https://open.spotify.com/track/3tpofBfl2noDRYc5YVatot"
      },
      "href" : "https://api.spotify.com/v1/tracks/3tpofBfl2noDRYc5YVatot",
      "id" : "3tpofBfl2noDRYc5YVatot",
      "is_local" : false,
      "is_playable" : true,
      "name" : "All Hail the Power of Jesus' Name",
      "popularity" : 20,
      "preview_url" : "https://p.scdn.co/mp3-preview/00ff645209de07c84a3a9d070a10cfd42921e42e?cid=774b29d4f13844c495f206cafdad9c86",
      "track_number" : 12,
      "type" : "track",
      "uri" : "spotify:track:3tpofBfl2noDRYc5YVatot"
    }, {
      "album" : {
        "album_type" : "compilation",
        "artists" : [ {
          "external_urls" : {
            "spotify" : "https://open.spotify.com/artist/0LyfQWJT6nXafLPZqxe9Of"
          },
          "href" : "https://api.spotify.com/v1/artists/0LyfQWJT6nXafLPZqxe9Of",
          "id" : "0LyfQWJT6nXafLPZqxe9Of",
          "name" : "Various Artists",
          "type" : "artist",
          "uri" : "spotify:artist:0LyfQWJT6nXafLPZqxe9Of"
        } ],
        "external_urls" : {
          "spotify" : "https://open.spotify.com/album/5vFaT7ClmXgUJTOVC1S4u3"
        },
        "href" : "https://api.spotify.com/v1/albums/5vFaT7ClmXgUJTOVC1S4u3",
        "id" : "5vFaT7ClmXgUJTOVC1S4u3",
        "images" : [ {
          "height" : 640,
          "url" : "https://i.scdn.co/image/ab67616d0000b2735057e0bd807c5a704139950b",
          "width" : 640
        }, {
          "height" : 300,
          "url" : "https://i.scdn.co/image/ab67616d00001e025057e0bd807c5a704139950b",
          "width" : 300
        }, {
          "height" : 64,
          "url" : "https://i.scdn.co/image/ab67616d000048515057e0bd807c5a704139950b",
          "width" : 64
        } ],
        "name" : "50 Classic Hymns",
        "release_date" : "2008-01-01",
        "release_date_precision" : "day",
        "total_tracks" : 50,
        "type" : "album",
        "uri" : "spotify:album:5vFaT7ClmXgUJTOVC1S4u3"
      },
      "artists" : [ {
        "external_urls" : {
          "spotify" : "https://open.spotify.com/artist/7GUhTBqD7CAbbIjjBd0SdN"
        },
        "href" : "https://api.spotify.com/v1/artists/7GUhTBqD7CAbbIjjBd0SdN",
        "id" : "7GUhTBqD7CAbbIjjBd0SdN",
        "name" : "London Philharmonic Choir",
        "type" : "artist",
        "uri" : "spotify:artist:7GUhTBqD7CAbbIjjBd0SdN"
      } ],
      "disc_number" : 1,
      "duration_ms" : 49093,
      "explicit" : false,
      "external_ids" : {
        "isrc" : "USSP38847127"
      },
      "external_urls" : {
        "spotify" : "https://open.spotify.com/track/5eXrrGVmbrWRE0CED5c6r8"
      },
      "href" : "https://api.spotify.com/v1/tracks/5eXrrGVmbrWRE0CED5c6r8",
      "id" : "5eXrrGVmbrWRE0CED5c6r8",
      "is_local" : false,
      "is_playable" : true,
      "name" : "All Hail The Power Of Jesus' Name",
      "popularity" : 18,
      "preview_url" : null,
      "track_number" : 2,
      "type" : "track",
      "uri" : "spotify:track:5eXrrGVmbrWRE0CED5c6r8"
    }, {
      "album" : {
        "album_type" : "album",
        "artists" : [ {
          "external_urls" : {
            "spotify" : "https://open.spotify.com/artist/5SIlhbwgul5A3ygK3Dp61Z"
          },
          "href" : "https://api.spotify.com/v1/artists/5SIlhbwgul5A3ygK3Dp61Z",
          "id" : "5SIlhbwgul5A3ygK3Dp61Z",
          "name" : "Billy Graham Crusade Choirs",
          "type" : "artist",
          "uri" : "spotify:artist:5SIlhbwgul5A3ygK3Dp61Z"
        } ],
        "external_urls" : {
          "spotify" : "https://open.spotify.com/album/008NwfzSZ0Jwi6sTIAAmKT"
        },
        "href" : "https://api.spotify.com/v1/albums/008NwfzSZ0Jwi6sTIAAmKT",
        "id" : "008NwfzSZ0Jwi6sTIAAmKT",
        "images" : [ {
          "height" : 640,
          "url" : "https://i.scdn.co/image/ab67616d0000b273c3f8ea0618e0651889db2a55",
          "width" : 640
        }, {
          "height" : 300,
          "url" : "https://i.scdn.co/image/ab67616d00001e02c3f8ea0618e0651889db2a55",
          "width" : 300
        }, {
          "height" : 64,
          "url" : "https://i.scdn.co/image/ab67616d00004851c3f8ea0618e0651889db2a55",
          "width" : 64
        } ],
        "name" : "Hymns and Other Songs of Faith",
        "release_date" : "2015-09-15",
        "release_date_precision" : "day",
        "total_tracks" : 25,
        "type" : "album",
        "uri" : "spotify:album:008NwfzSZ0Jwi6sTIAAmKT"
      },
      "artists" : [ {
        "external_urls" : {
          "spotify" : "https://open.spotify.com/artist/5SIlhbwgul5A3ygK3Dp61Z"
        },
        "href" : "https://api.spotify.com/v1/artists/5SIlhbwgul5A3ygK3Dp61Z",
        "id" : "5SIlhbwgul5A3ygK3Dp61Z",
        "name" : "Billy Graham Crusade Choirs",
        "type" : "artist",
        "uri" : "spotify:artist:5SIlhbwgul5A3ygK3Dp61Z"
      } ],
      "disc_number" : 1,
      "duration_ms" : 145026,
      "explicit" : false,
      "external_ids" : {
        "isrc" : "AULB41500073"
      },
      "external_urls" : {
        "spotify" : "https://open.spotify.com/track/33Tbg5ZimhSGnMi4HTNApK"
      },
      "href" : "https://api.spotify.com/v1/tracks/33Tbg5ZimhSGnMi4HTNApK",
      "id" : "33Tbg5ZimhSGnMi4HTNApK",
      "is_local" : false,
      "is_playable" : true,
      "name" : "All Hail the Power of Jesus Name",
      "popularity" : 20,
      "preview_url" : "https://p.scdn.co/mp3-preview/c99fa73b5f67402deab7a7fe9dbbb452ccc65d64?cid=774b29d4f13844c495f206cafdad9c86",
      "track_number" : 18,
      "type" : "track",
      "uri" : "spotify:track:33Tbg5ZimhSGnMi4HTNApK"
    }, {
      "album" : {
        "album_type" : "album",
        "artists" : [ {
          "external_urls" : {
            "spotify" : "https://open.spotify.com/artist/16dGAOg7n1wfPuLLwfdwur"
          },
          "href" : "https://api.spotify.com/v1/artists/16dGAOg7n1wfPuLLwfdwur",
          "id" : "16dGAOg7n1wfPuLLwfdwur",
          "name" : "Acapeldridge",
          "type" : "artist",
          "uri" : "spotify:artist:16dGAOg7n1wfPuLLwfdwur"
        } ],
        "external_urls" : {
          "spotify" : "https://open.spotify.com/album/1A0pceN8WiPvcm9eNEwmad"
        },
        "href" : "https://api.spotify.com/v1/albums/1A0pceN8WiPvcm9eNEwmad",
        "id" : "1A0pceN8WiPvcm9eNEwmad",
        "images" : [ {
          "height" : 640,
          "url" : "https://i.scdn.co/image/ab67616d0000b273bce02fe85a942c85df75604f",
          "width" : 640
        }, {
          "height" : 300,
          "url" : "https://i.scdn.co/image/ab67616d00001e02bce02fe85a942c85df75604f",
          "width" : 300
        }, {
          "height" : 64,
          "url" : "https://i.scdn.co/image/ab67616d00004851bce02fe85a942c85df75604f",
          "width" : 64
        } ],
        "name" : "Whatever Is Just",
        "release_date" : "2018-11-02",
        "release_date_precision" : "day",
        "total_tracks" : 20,
        "type" : "album",
        "uri" : "spotify:album:1A0pceN8WiPvcm9eNEwmad"
      },
      "artists" : [ {
        "external_urls" : {
          "spotify" : "https://open.spotify.com/artist/16dGAOg7n1wfPuLLwfdwur"
        },
        "href" : "https://api.spotify.com/v1/artists/16dGAOg7n1wfPuLLwfdwur",
        "id" : "16dGAOg7n1wfPuLLwfdwur",
        "name" : "Acapeldridge",
        "type" : "artist",
        "uri" : "spotify:artist:16dGAOg7n1wfPuLLwfdwur"
      } ],
      "disc_number" : 1,
      "duration_ms" : 135840,
      "explicit" : false,
      "external_ids" : {
        "isrc" : "ushm91860055"
      },
      "external_urls" : {
        "spotify" : "https://open.spotify.com/track/6vp9Ojcx6tpXi7oU7ppMgj"
      },
      "href" : "https://api.spotify.com/v1/tracks/6vp9Ojcx6tpXi7oU7ppMgj",
      "id" : "6vp9Ojcx6tpXi7oU7ppMgj",
      "is_local" : false,
      "is_playable" : true,
      "name" : "All Hail the Power of Jesus' Name",
      "popularity" : 18,
      "preview_url" : "https://p.scdn.co/mp3-preview/71c3762fde6561a65a26357ac0adbd8a1b7bc06e?cid=774b29d4f13844c495f206cafdad9c86",
      "track_number" : 9,
      "type" : "track",
      "uri" : "spotify:track:6vp9Ojcx6tpXi7oU7ppMgj"
    }, {
      "album" : {
        "album_type" : "album",
        "artists" : [ {
          "external_urls" : {
            "spotify" : "https://open.spotify.com/artist/70LaLEeEn3jyxEU8xrzLj8"
          },
          "href" : "https://api.spotify.com/v1/artists/70LaLEeEn3jyxEU8xrzLj8",
          "id" : "70LaLEeEn3jyxEU8xrzLj8",
          "name" : "Phil Driscoll",
          "type" : "artist",
          "uri" : "spotify:artist:70LaLEeEn3jyxEU8xrzLj8"
        } ],
        "external_urls" : {
          "spotify" : "https://open.spotify.com/album/2aWGNJRkLrYCWk9fsFR7ZY"
        },
        "href" : "https://api.spotify.com/v1/albums/2aWGNJRkLrYCWk9fsFR7ZY",
        "id" : "2aWGNJRkLrYCWk9fsFR7ZY",
        "images" : [ {
          "height" : 640,
          "url" : "https://i.scdn.co/image/ab67616d0000b2735e91204c3405e49c67f96ce9",
          "width" : 640
        }, {
          "height" : 300,
          "url" : "https://i.scdn.co/image/ab67616d00001e025e91204c3405e49c67f96ce9",
          "width" : 300
        }, {
          "height" : 64,
          "url" : "https://i.scdn.co/image/ab67616d000048515e91204c3405e49c67f96ce9",
          "width" : 64
        } ],
        "name" : "Power of Praise",
        "release_date" : "2011-09-09",
        "release_date_precision" : "day",
        "total_tracks" : 11,
        "type" : "album",
        "uri" : "spotify:album:2aWGNJRkLrYCWk9fsFR7ZY"
      },
      "artists" : [ {
        "external_urls" : {
          "spotify" : "https://open.spotify.com/artist/70LaLEeEn3jyxEU8xrzLj8"
        },
        "href" : "https://api.spotify.com/v1/artists/70LaLEeEn3jyxEU8xrzLj8",
        "id" : "70LaLEeEn3jyxEU8xrzLj8",
        "name" : "Phil Driscoll",
        "type" : "artist",
        "uri" : "spotify:artist:70LaLEeEn3jyxEU8xrzLj8"
      } ],
      "disc_number" : 1,
      "duration_ms" : 262360,
      "explicit" : false,
      "external_ids" : {
        "isrc" : "US4R31134142"
      },
      "external_urls" : {
        "spotify" : "https://open.spotify.com/track/3GP6KPz9mjjexXO3KgQHBV"
      },
      "href" : "https://api.spotify.com/v1/tracks/3GP6KPz9mjjexXO3KgQHBV",
      "id" : "3GP6KPz9mjjexXO3KgQHBV",
      "is_local" : false,
      "is_playable" : true,
      "name" : "All Hail the Power of Jesus' Name",
      "popularity" : 17,
      "preview_url" : "https://p.scdn.co/mp3-preview/ef73bceee5287cd8b4f1badf0b1095becbea5669?cid=774b29d4f13844c495f206cafdad9c86",
      "track_number" : 1,
      "type" : "track",
      "uri" : "spotify:track:3GP6KPz9mjjexXO3KgQHBV"
    }, {
      "album" : {
        "album_type" : "album",
        "artists" : [ {
          "external_urls" : {
            "spotify" : "https://open.spotify.com/artist/7kwEvDE8e7EBGKh5bLczqQ"
          },
          "href" : "https://api.spotify.com/v1/artists/7kwEvDE8e7EBGKh5bLczqQ",
          "id" : "7kwEvDE8e7EBGKh5bLczqQ",
          "name" : "Anthem Lights",
          "type" : "artist",
          "uri" : "spotify:artist:7kwEvDE8e7EBGKh5bLczqQ"
        } ],
        "external_urls" : {
          "spotify" : "https://open.spotify.com/album/18we0y1PK9lt3Qneye6ciV"
        },
        "href" : "https://api.spotify.com/v1/albums/18we0y1PK9lt3Qneye6ciV",
        "id" : "18we0y1PK9lt3Qneye6ciV",
        "images" : [ {
          "height" : 640,
          "url" : "https://i.scdn.co/image/ab67616d0000b273dafdd3fa96666ede04d6bbcb",
          "width" : 640
        }, {
          "height" : 300,
          "url" : "https://i.scdn.co/image/ab67616d00001e02dafdd3fa96666ede04d6bbcb",
          "width" : 300
        }, {
          "height" : 64,
          "url" : "https://i.scdn.co/image/ab67616d00004851dafdd3fa96666ede04d6bbcb",
          "width" : 64
        } ],
        "name" : "Hymns, Vol. II",
        "release_date" : "2018-03-16",
        "release_date_precision" : "day",
        "total_tracks" : 10,
        "type" : "album",
        "uri" : "spotify:album:18we0y1PK9lt3Qneye6ciV"
      },
      "artists" : [ {
        "external_urls" : {
          "spotify" : "https://open.spotify.com/artist/7kwEvDE8e7EBGKh5bLczqQ"
        },
        "href" : "https://api.spotify.com/v1/artists/7kwEvDE8e7EBGKh5bLczqQ",
        "id" : "7kwEvDE8e7EBGKh5bLczqQ",
        "name" : "Anthem Lights",
        "type" : "artist",
        "uri" : "spotify:artist:7kwEvDE8e7EBGKh5bLczqQ"
      } ],
      "disc_number" : 1,
      "duration_ms" : 154668,
      "explicit" : false,
      "external_ids" : {
        "isrc" : "QMF921850019"
      },
      "external_urls" : {
        "spotify" : "https://open.spotify.com/track/0ZGoG29XxlfLM18ABZqbFa"
      },
      "href" : "https://api.spotify.com/v1/tracks/0ZGoG29XxlfLM18ABZqbFa",
      "id" : "0ZGoG29XxlfLM18ABZqbFa",
      "is_local" : false,
      "is_playable" : true,
      "name" : "The Crown Medley: All Hail the Power of Jesus Name / Crown Him With Many Crowns / Before the Throne of God Above",
      "popularity" : 31,
      "preview_url" : "https://p.scdn.co/mp3-preview/7ec16975f5ae392039d87e4bdf5927938d78b811?cid=774b29d4f13844c495f206cafdad9c86",
      "track_number" : 8,
      "type" : "track",
      "uri" : "spotify:track:0ZGoG29XxlfLM18ABZqbFa"
    } ],
    "limit" : 10,
    "next" : "https://api.spotify.com/v1/search?query=All+Hail+the+Power+of+Jesus%E2%80%99+Name&type=track&market=US&offset=15&limit=10",
    "offset" : 5,
    "previous" : "https://api.spotify.com/v1/search?query=All+Hail+the+Power+of+Jesus%E2%80%99+Name&type=track&market=US&offset=0&limit=10",
    "total" : 622
  }
}