{
  "tracks" : {
    "href" : "https://api.spotify.com/v1/search?query=Lord%2C+Speak+to+Me&type=track&market=US&offset=5&limit=10",
    "items" : [ {
      "album" : {
        "album_type" : "album",
        "artists" : [ {
          "external_urls" : {
            "spotify" : "https://open.spotify.com/artist/1h9n5dTdX1itAkl4WPBjkP"
          },
          "href" : "https://api.spotify.com/v1/artists/1h9n5dTdX1itAkl4WPBjkP",
          "id" : "1h9n5dTdX1itAkl4WPBjkP",
          "name" : "Eddie Lewis",
          "type" : "artist",
          "uri" : "spotify:artist:1h9n5dTdX1itAkl4WPBjkP"
        } ],
        "external_urls" : {
          "spotify" : "https://open.spotify.com/album/67svadJywBosZO9ZBBLGC8"
        },
        "href" : "https://api.spotify.com/v1/albums/67svadJywBosZO9ZBBLGC8",
        "id" : "67svadJywBosZO9ZBBLGC8",
        "images" : [ {
          "height" : 640,
          "url" : "https://i.scdn.co/image/ab67616d0000b27366b9d4de4aedd4de4beb4bce",
          "width" : 640
        }, {
          "height" : 300,
          "url" : "https://i.scdn.co/image/ab67616d00001e0266b9d4de4aedd4de4beb4bce",
          "width" : 300
        }, {
          "height" : 64,
          "url" : "https://i.scdn.co/image/ab67616d0000485166b9d4de4aedd4de4beb4bce",
          "width" : 64
        } ],
        "name" : "Unadorned Trumpet Hymns",
        "release_date" : "2016-04-25",
        "release_date_precision" : "day",
        "total_tracks" : 49,
        "type" : "album",
        "uri" : "spotify:album:67svadJywBosZO9ZBBLGC8"
      },
      "artists" : [ {
        "external_urls" : {
          "spotify" : "https://open.spotify.com/artist/1h9n5dTdX1itAkl4WPBjkP"
        },
        "href" : "https://api.spotify.com/v1/artists/1h9n5dTdX1itAkl4WPBjkP",
        "id" : "1h9n5dTdX1itAkl4WPBjkP",
        "name" : "Eddie Lewis",
        "type" : "artist",
        "uri" : "spotify:artist:1h9n5dTdX1itAkl4WPBjkP"
      } ],
      "disc_number" : 1,
      "duration_ms" : 69787,
      "explicit" : false,
      "external_ids" : {
        "isrc" : "QMRVS1600075"
      },
      "external_urls" : {
        "spotify" : "https://open.spotify.com/track/7A8n1n7Fk52UVujo1a2DX0"
      },
      "href" : "https://api.spotify.com/v1/tracks/7A8n1n7Fk52UVujo1a2DX0",
      "id" : "7A8n1n7Fk52UVujo1a2DX0",
      "is_local" : false,
      "is_playable" : true,
      "name" : "Lord Speak to Me That I May Speak",
      "popularity" : 5,
      "preview_url" : "https://p.scdn.co/mp3-preview/7c3214b4c7ee5023cd819bd9a82ab22355e13ea1?cid=774b29d4f13844c495f206cafdad9c86",
      "track_number" : 33,
      "type" : "track",
      "uri" : "spotify:track:7A8n1n7Fk52UVujo1a2DX0"
    }, {
      "album" : {
        "album_type" : "album",
        "artists" : [ {
          "external_urls" : {
            "spotify" : "https://open.spotify.com/artist/6MF58APd3YV72Ln2eVg710"
          },
          "href" : "https://api.spotify.com/v1/artists/6MF58APd3YV72Ln2eVg710",
          "id" : "6MF58APd3YV72Ln2eVg710",
          "name" : "Felix Mendelssohn",
          "type" : "artist",
          "uri" : "spotify:artist:6MF58APd3YV72Ln2eVg710"
        }, {
          "external_urls" : {
            "spotify" : "https://open.spotify.com/artist/3VRChTOOwytd5tKhHjnWx7"
          },
          "href" : "https://api.spotify.com/v1/artists/3VRChTOOwytd5tKhHjnWx7",
          "id" : "3VRChTOOwytd5tKhHjnWx7",
          "name" : "Rafael Frühbeck de Burgos/Dame Gwyneth Jones/Simon Woolf/Dame Janet Baker/Nicolai Gedda/Dietrich Fischer-Dieskau/Wandsworth School Boys' Choir/New Philharmonia Chorus/New Philharmonia Orchestra",
          "type" : "artist",
          "uri" : "spotify:artist:3VRChTOOwytd5tKhHjnWx7"
        }, {
          "external_urls" : {
            "spotify" : "https://open.spotify.com/artist/5yzDve56IQmzO0FfHKhoC2"
          },
          "href" : "https://api.spotify.com/v1/artists/5yzDve56IQmzO0FfHKhoC2",
          "id" : "5yzDve56IQmzO0FfHKhoC2",
          "name" : "Rafael Frühbeck de Burgos",
          "type" : "artist",
          "uri" : "spotify:artist:5yzDve56IQmzO0FfHKhoC2"
        }, {
          "external_urls" : {
            "spotify" : "https://open.spotify.com/artist/11vpC3XmFb1LIP2ugl96lZ"
          },
          "href" : "https://api.spotify.com/v1/artists/11vpC3XmFb1LIP2ugl96lZ",
          "id" : "11vpC3XmFb1LIP2ugl96lZ",
          "name" : "New Philharmonia Orchestra",
          "type" : "artist",
          "uri" : "spotify:artist:11vpC3XmFb1LIP2ugl96lZ"
        } ],
        "external_urls" : {
          "spotify" : "https://open.spotify.com/album/7KW2IrD8dJnmcTIYEo21d5"
        },
        "href" : "https://api.spotify.com/v1/albums/7KW2IrD8dJnmcTIYEo21d5",
        "id" : "7KW2IrD8dJnmcTIYEo21d5",
        "images" : [ {
          "height" : 640,
          "url" : "https://i.scdn.co/image/ab67616d0000b273b7de8dd51604509674ddc7db",
          "width" : 640
        }, {
          "height" : 300,
          "url" : "https://i.scdn.co/image/ab67616d00001e02b7de8dd51604509674ddc7db",
          "width" : 300
        }, {
          "height" : 64,
          "url" : "https://i.scdn.co/image/ab67616d00004851b7de8dd51604509674ddc7db",
          "width" : 64
        } ],
        "name" : "Elijah - Mendelssohn",
        "release_date" : "1968",
        "release_date_precision" : "year",
        "total_tracks" : 46,
        "type" : "album",
        "uri" : "spotify:album:7KW2IrD8dJnmcTIYEo21d5"
      },
      "artists" : [ {
        "external_urls" : {
          "spotify" : "https://open.spotify.com/artist/6MF58APd3YV72Ln2eVg710"
        },
        "href" : "https://api.spotify.com/v1/artists/6MF58APd3YV72Ln2eVg710",
        "id" : "6MF58APd3YV72Ln2eVg710",
        "name" : "Felix Mendelssohn",
        "type" : "artist",
        "uri" : "spotify:artist:6MF58APd3YV72Ln2eVg710"
      }, {
        "external_urls" : {
          "spotify" : "https://open.spotify.com/artist/0AtMadeKoVSrmS6pXFObUU"
        },
        "href" : "https://api.spotify.com/v1/artists/0AtMadeKoVSrmS6pXFObUU",
        "id" : "0AtMadeKoVSrmS6pXFObUU",
        "name" : "Gwyneth Jones",
        "type" : "artist",
        "uri" : "spotify:artist:0AtMadeKoVSrmS6pXFObUU"
      }, {
        "external_urls" : {
          "spotify" : "https://open.spotify.com/artist/5yzDve56IQmzO0FfHKhoC2"
        },
        "href" : "https://api.spotify.com/v1/artists/5yzDve56IQmzO0FfHKhoC2",
        "id" : "5yzDve56IQmzO0FfHKhoC2",
        "name" : "Rafael Frühbeck de Burgos",
        "type" : "artist",
        "uri" : "spotify:artist:5yzDve56IQmzO0FfHKhoC2"
      }, {
        "external_urls" : {
          "spotify" : "https://open.spotify.com/artist/11vpC3XmFb1LIP2ugl96lZ"
        },
        "href" : "https://api.spotify.com/v1/artists/11vpC3XmFb1LIP2ugl96lZ",
        "id" : "11vpC3XmFb1LIP2ugl96lZ",
        "name" : "New Philharmonia Orchestra",
        "type" : "artist",
        "uri" : "spotify:artist:11vpC3XmFb1LIP2ugl96lZ"
      } ],
      "disc_number" : 2,
      "duration_ms" : 363493,
      "explicit" : false,
      "external_ids" : {
        "isrc" : "GBAYC6800213"
      },
      "external_urls" : {
        "spotify" : "https://open.spotify.com/track/4AojE3ZwvSZ9b5kDfssSfZ"
      },
      "href" : "https://api.spotify.com/v1/tracks/4AojE3ZwvSZ9b5kDfssSfZ",
      "id" : "4AojE3ZwvSZ9b5kDfssSfZ",
      "is_local" : false,
      "is_playable" : true,
      "name" : "Elijah, Op.70: No. 21 - Hear ye, Israel; hear what the Lord speaketh (soprano)",
      "popularity" : 5,
      "preview_url" : "https://p.scdn.co/mp3-preview/0e7f86951cbe6982f647f2abaac713286aaec2f0?cid=774b29d4f13844c495f206cafdad9c86",
      "track_number" : 1,
      "type" : "track",
      "uri" : "spotify:track:4AojE3ZwvSZ9b5kDfssSfZ"
    }, {
      "album" : {
        "album_type" : "album",
        "artists" : [ {
          "external_urls" : {
            "spotify" : "https://open.spotify.com/artist/31nkAcjGdyZP2kWBFANQqa"
          },
          "href" : "https://api.spotify.com/v1/artists/31nkAcjGdyZP2kWBFANQqa",
          "id" : "31nkAcjGdyZP2kWBFANQqa",
          "name" : "Bryan Richardson",
          "type" : "artist",
          "uri" : "spotify:artist:31nkAcjGdyZP2kWBFANQqa"
        } ],
        "external_urls" : {
          "spotify" : "https://open.spotify.com/album/3TDFa66NG8yo3eeCqp15EC"
        },
        "href" : "https://api.spotify.com/v1/albums/3TDFa66NG8yo3eeCqp15EC",
        "id" : "3TDFa66NG8yo3eeCqp15EC",
        "images" : [ {
          "height" : 640,
          "url" : "https://i.scdn.co/image/ab67616d0000b27323e5761653dc8d8cdf8a2611",
          "width" : 640
        }, {
          "height" : 300,
          "url" : "https://i.scdn.co/image/ab67616d00001e0223e5761653dc8d8cdf8a2611",
          "width" : 300
        }, {
          "height" : 64,
          "url" : "https://i.scdn.co/image/ab67616d0000485123e5761653dc8d8cdf8a2611",
          "width" : 64
        } ],
        "name" : "Heartbreak Road",
        "release_date" : "2017-06-22",
        "release_date_precision" : "day",
        "total_tracks" : 14,
        "type" : "album",
        "uri" : "spotify:album:3TDFa66NG8yo3eeCqp15EC"
      },
      "artists" : [ {
        "external_urls" : {
          "spotify" : "https://open.spotify.com/artist/31nkAcjGdyZP2kWBFANQqa"
        },
        "href" : "https://api.spotify.com/v1/artists/31nkAcjGdyZP2kWBFANQqa",
        "id" : "31nkAcjGdyZP2kWBFANQqa",
        "name" : "Bryan Richardson",
        "type" : "artist",
        "uri" : "spotify:artist:31nkAcjGdyZP2kWBFANQqa"
      } ],
      "disc_number" : 1,
      "duration_ms" : 283880,
      "explicit" : false,
      "external_ids" : {
        "isrc" : "usdy41781159"
      },
      "external_urls" : {
        "spotify" : "https://open.spotify.com/track/0Tk6Uo9lTplY62SGD4UYXY"
      },
      "href" : "https://api.spotify.com/v1/tracks/0Tk6Uo9lTplY62SGD4UYXY",
      "id" : "0Tk6Uo9lTplY62SGD4UYXY",
      "is_local" : false,
      "is_playable" : true,
      "name" : "Speak to Me Lord",
      "popularity" : 0,
      "preview_url" : "https://p.scdn.co/mp3-preview/51d4ca5bdb2e239c0d8a1d10700453746c289a49?cid=774b29d4f13844c495f206cafdad9c86",
      "track_number" : 4,
      "type" : "track",
      "uri" : "spotify:track:0Tk6Uo9lTplY62SGD4UYXY"
    }, {
      "album" : {
        "album_type" : "album",
        "artists" : [ {
          "external_urls" : {
            "spotify" : "https://open.spotify.com/artist/6rBMrA7Tkb31rUQkr4oC0v"
          },
          "href" : "https://api.spotify.com/v1/artists/6rBMrA7Tkb31rUQkr4oC0v",
          "id" : "6rBMrA7Tkb31rUQkr4oC0v",
          "name" : "Frederick Stevens And The Frederick Stevens Singers",
          "type" : "artist",
          "uri" : "spotify:artist:6rBMrA7Tkb31rUQkr4oC0v"
        } ],
        "external_urls" : {
          "spotify" : "https://open.spotify.com/album/2E4LROzz0gUXK4sy9sN9jO"
        },
        "href" : "https://api.spotify.com/v1/albums/2E4LROzz0gUXK4sy9sN9jO",
        "id" : "2E4LROzz0gUXK4sy9sN9jO",
        "images" : [ {
          "height" : 640,
          "url" : "https://i.scdn.co/image/ab67616d0000b2735f39009a6c5697e177343bf3",
          "width" : 640
        }, {
          "height" : 300,
          "url" : "https://i.scdn.co/image/ab67616d00001e025f39009a6c5697e177343bf3",
          "width" : 300
        }, {
          "height" : 64,
          "url" : "https://i.scdn.co/image/ab67616d000048515f39009a6c5697e177343bf3",
          "width" : 64
        } ],
        "name" : "Frederick Stevens And The Frederick Stevens Singers",
        "release_date" : "1974-01-07",
        "release_date_precision" : "day",
        "total_tracks" : 10,
        "type" : "album",
        "uri" : "spotify:album:2E4LROzz0gUXK4sy9sN9jO"
      },
      "artists" : [ {
        "external_urls" : {
          "spotify" : "https://open.spotify.com/artist/6rBMrA7Tkb31rUQkr4oC0v"
        },
        "href" : "https://api.spotify.com/v1/artists/6rBMrA7Tkb31rUQkr4oC0v",
        "id" : "6rBMrA7Tkb31rUQkr4oC0v",
        "name" : "Frederick Stevens And The Frederick Stevens Singers",
        "type" : "artist",
        "uri" : "spotify:artist:6rBMrA7Tkb31rUQkr4oC0v"
      } ],
      "disc_number" : 1,
      "duration_ms" : 195840,
      "explicit" : false,
      "external_ids" : {
        "isrc" : "US1SR2019237"
      },
      "external_urls" : {
        "spotify" : "https://open.spotify.com/track/10EV0RODhiLVCLsELG46EJ"
      },
      "href" : "https://api.spotify.com/v1/tracks/10EV0RODhiLVCLsELG46EJ",
      "id" : "10EV0RODhiLVCLsELG46EJ",
      "is_local" : false,
      "is_playable" : true,
      "name" : "Speak To Me Lord",
      "popularity" : 0,
      "preview_url" : "https://p.scdn.co/mp3-preview/708060769834c7b944ee14657eb8104a5510faf8?cid=774b29d4f13844c495f206cafdad9c86",
      "track_number" : 6,
      "type" : "track",
      "uri" : "spotify:track:10EV0RODhiLVCLsELG46EJ"
    }, {
      "album" : {
        "album_type" : "album",
        "artists" : [ {
          "external_urls" : {
            "spotify" : "https://open.spotify.com/artist/5CYswfJ7zFsVEXJZTynPLr"
          },
          "href" : "https://api.spotify.com/v1/artists/5CYswfJ7zFsVEXJZTynPLr",
          "id" : "5CYswfJ7zFsVEXJZTynPLr",
          "name" : "Roger Jones",
          "type" : "artist",
          "uri" : "spotify:artist:5CYswfJ7zFsVEXJZTynPLr"
        } ],
        "external_urls" : {
          "spotify" : "https://open.spotify.com/album/0EY7RufbYtsKKKNOTKuHgw"
        },
        "href" : "https://api.spotify.com/v1/albums/0EY7RufbYtsKKKNOTKuHgw",
        "id" : "0EY7RufbYtsKKKNOTKuHgw",
        "images" : [ {
          "height" : 640,
          "url" : "https://i.scdn.co/image/ab67616d0000b273dd1ac6ac750a7d44e1d6f1db",
          "width" : 640
        }, {
          "height" : 300,
          "url" : "https://i.scdn.co/image/ab67616d00001e02dd1ac6ac750a7d44e1d6f1db",
          "width" : 300
        }, {
          "height" : 64,
          "url" : "https://i.scdn.co/image/ab67616d00004851dd1ac6ac750a7d44e1d6f1db",
          "width" : 64
        } ],
        "name" : "The Roger Jones Hymn Collection, Vol. 3",
        "release_date" : "2014-07-01",
        "release_date_precision" : "day",
        "total_tracks" : 20,
        "type" : "album",
        "uri" : "spotify:album:0EY7RufbYtsKKKNOTKuHgw"
      },
      "artists" : [ {
        "external_urls" : {
          "spotify" : "https://open.spotify.com/artist/5CYswfJ7zFsVEXJZTynPLr"
        },
        "href" : "https://api.spotify.com/v1/artists/5CYswfJ7zFsVEXJZTynPLr",
        "id" : "5CYswfJ7zFsVEXJZTynPLr",
        "name" : "Roger Jones",
        "type" : "artist",
        "uri" : "spotify:artist:5CYswfJ7zFsVEXJZTynPLr"
      } ],
      "disc_number" : 1,
      "duration_ms" : 222280,
      "explicit" : false,
      "external_ids" : {
        "isrc" : "uscgj1511618"
      },
      "external_urls" : {
        "spotify" : "https://open.spotify.com/track/3esstIteQvCEkFWzzMcjKN"
      },
      "href" : "https://api.spotify.com/v1/tracks/3esstIteQvCEkFWzzMcjKN",
      "id" : "3esstIteQvCEkFWzzMcjKN",
      "is_local" : false,
      "is_playable" : true,
      "name" : "Lord, Speak to Me",
      "popularity" : 0,
      "preview_url" : "https://p.scdn.co/mp3-preview/c122ae46d8996b99e07fab688bf493a1f59c5cb1?cid=774b29d4f13844c495f206cafdad9c86",
      "track_number" : 15,
      "type" : "track",
      "uri" : "spotify:track:3esstIteQvCEkFWzzMcjKN"
    }, {
      "album" : {
        "album_type" : "album",
        "artists" : [ {
          "external_urls" : {
            "spotify" : "https://open.spotify.com/artist/59B2CHEMh1to8diq0jB92r"
          },
          "href" : "https://api.spotify.com/v1/artists/59B2CHEMh1to8diq0jB92r",
          "id" : "59B2CHEMh1to8diq0jB92r",
          "name" : "John Tesh",
          "type" : "artist",
          "uri" : "spotify:artist:59B2CHEMh1to8diq0jB92r"
        } ],
        "external_urls" : {
          "spotify" : "https://open.spotify.com/album/0kRW2iMc6yeSI1uaFhl84y"
        },
        "href" : "https://api.spotify.com/v1/albums/0kRW2iMc6yeSI1uaFhl84y",
        "id" : "0kRW2iMc6yeSI1uaFhl84y",
        "images" : [ {
          "height" : 640,
          "url" : "https://i.scdn.co/image/ab67616d0000b2731dd095f4e4b041a015979cff",
          "width" : 640
        }, {
          "height" : 300,
          "url" : "https://i.scdn.co/image/ab67616d00001e021dd095f4e4b041a015979cff",
          "width" : 300
        }, {
          "height" : 64,
          "url" : "https://i.scdn.co/image/ab67616d000048511dd095f4e4b041a015979cff",
          "width" : 64
        } ],
        "name" : "Pure Hymns",
        "release_date" : "2000-01-01",
        "release_date_precision" : "day",
        "total_tracks" : 13,
        "type" : "album",
        "uri" : "spotify:album:0kRW2iMc6yeSI1uaFhl84y"
      },
      "artists" : [ {
        "external_urls" : {
          "spotify" : "https://open.spotify.com/artist/59B2CHEMh1to8diq0jB92r"
        },
        "href" : "https://api.spotify.com/v1/artists/59B2CHEMh1to8diq0jB92r",
        "id" : "59B2CHEMh1to8diq0jB92r",
        "name" : "John Tesh",
        "type" : "artist",
        "uri" : "spotify:artist:59B2CHEMh1to8diq0jB92r"
      } ],
      "disc_number" : 1,
      "duration_ms" : 360493,
      "explicit" : false,
      "external_ids" : {
        "isrc" : "USGTS0800034"
      },
      "external_urls" : {
        "spotify" : "https://open.spotify.com/track/5aIIIrfUwSn2PSJFo7HjEs"
      },
      "href" : "https://api.spotify.com/v1/tracks/5aIIIrfUwSn2PSJFo7HjEs",
      "id" : "5aIIIrfUwSn2PSJFo7HjEs",
      "is_local" : false,
      "is_playable" : true,
      "name" : "Speak to Me, Lord",
      "popularity" : 1,
      "preview_url" : "https://p.scdn.co/mp3-preview/752498a369d563c429ab44a7d7b54398097f3fe0?cid=774b29d4f13844c495f206cafdad9c86",
      "track_number" : 7,
      "type" : "track",
      "uri" : "spotify:track:5aIIIrfUwSn2PSJFo7HjEs"
    }, {
      "album" : {
        "album_type" : "single",
        "artists" : [ {
          "external_urls" : {
            "spotify" : "https://open.spotify.com/artist/3QeoQAiv5IY3wL0zDdF45x"
          },
          "href" : "https://api.spotify.com/v1/artists/3QeoQAiv5IY3wL0zDdF45x",
          "id" : "3QeoQAiv5IY3wL0zDdF45x",
          "name" : "Pam Seaman",
          "type" : "artist",
          "uri" : "spotify:artist:3QeoQAiv5IY3wL0zDdF45x"
        } ],
        "external_urls" : {
          "spotify" : "https://open.spotify.com/album/4pyLg2fDOdBZZYSA6U94zr"
        },
        "href" : "https://api.spotify.com/v1/albums/4pyLg2fDOdBZZYSA6U94zr",
        "id" : "4pyLg2fDOdBZZYSA6U94zr",
        "images" : [ {
          "height" : 640,
          "url" : "https://i.scdn.co/image/ab67616d0000b2732cd0badab38eaef539bf291e",
          "width" : 640
        }, {
          "height" : 300,
          "url" : "https://i.scdn.co/image/ab67616d00001e022cd0badab38eaef539bf291e",
          "width" : 300
        }, {
          "height" : 64,
          "url" : "https://i.scdn.co/image/ab67616d000048512cd0badab38eaef539bf291e",
          "width" : 64
        } ],
        "name" : "Lord Speak to Me",
        "release_date" : "2011-10-17",
        "release_date_precision" : "day",
        "total_tracks" : 1,
        "type" : "album",
        "uri" : "spotify:album:4pyLg2fDOdBZZYSA6U94zr"
      },
      "artists" : [ {
        "external_urls" : {
          "spotify" : "https://open.spotify.com/artist/3QeoQAiv5IY3wL0zDdF45x"
        },
        "href" : "https://api.spotify.com/v1/artists/3QeoQAiv5IY3wL0zDdF45x",
        "id" : "3QeoQAiv5IY3wL0zDdF45x",
        "name" : "Pam Seaman",
        "type" : "artist",
        "uri" : "spotify:artist:3QeoQAiv5IY3wL0zDdF45x"
      } ],
      "disc_number" : 1,
      "duration_ms" : 278267,
      "explicit" : false,
      "external_ids" : {
        "isrc" : "ushm91136692"
      },
      "external_urls" : {
        "spotify" : "https://open.spotify.com/track/6BJNFmsabqePFnb3uMgPCt"
      },
      "href" : "https://api.spotify.com/v1/tracks/6BJNFmsabqePFnb3uMgPCt",
      "id" : "6BJNFmsabqePFnb3uMgPCt",
      "is_local" : false,
      "is_playable" : true,
      "name" : "Lord Speak to Me",
      "popularity" : 0,
      "preview_url" : "https://p.scdn.co/mp3-preview/2b7500d43126c2cfe2f987e1ccad1ce7f45b1d1b?cid=774b29d4f13844c495f206cafdad9c86",
      "track_number" : 1,
      "type" : "track",
      "uri" : "spotify:track:6BJNFmsabqePFnb3uMgPCt"
    }, {
      "album" : {
        "album_type" : "album",
        "artists" : [ {
          "external_urls" : {
            "spotify" : "https://open.spotify.com/artist/7tVaJkD9jMuWmJO8dyif2M"
          },
          "href" : "https://api.spotify.com/v1/artists/7tVaJkD9jMuWmJO8dyif2M",
          "id" : "7tVaJkD9jMuWmJO8dyif2M",
          "name" : "Michael Edward",
          "type" : "artist",
          "uri" : "spotify:artist:7tVaJkD9jMuWmJO8dyif2M"
        } ],
        "external_urls" : {
          "spotify" : "https://open.spotify.com/album/2OAl7AO2IFuS3PlVJQZlHi"
        },
        "href" : "https://api.spotify.com/v1/albums/2OAl7AO2IFuS3PlVJQZlHi",
        "id" : "2OAl7AO2IFuS3PlVJQZlHi",
        "images" : [ {
          "height" : 640,
          "url" : "https://i.scdn.co/image/ab67616d0000b273765d596c9473aee30cf54ee8",
          "width" : 640
        }, {
          "height" : 300,
          "url" : "https://i.scdn.co/image/ab67616d00001e02765d596c9473aee30cf54ee8",
          "width" : 300
        }, {
          "height" : 64,
          "url" : "https://i.scdn.co/image/ab67616d00004851765d596c9473aee30cf54ee8",
          "width" : 64
        } ],
        "name" : "Above the Clouds",
        "release_date" : "2013",
        "release_date_precision" : "year",
        "total_tracks" : 12,
        "type" : "album",
        "uri" : "spotify:album:2OAl7AO2IFuS3PlVJQZlHi"
      },
      "artists" : [ {
        "external_urls" : {
          "spotify" : "https://open.spotify.com/artist/7tVaJkD9jMuWmJO8dyif2M"
        },
        "href" : "https://api.spotify.com/v1/artists/7tVaJkD9jMuWmJO8dyif2M",
        "id" : "7tVaJkD9jMuWmJO8dyif2M",
        "name" : "Michael Edward",
        "type" : "artist",
        "uri" : "spotify:artist:7tVaJkD9jMuWmJO8dyif2M"
      } ],
      "disc_number" : 1,
      "duration_ms" : 274938,
      "explicit" : false,
      "external_ids" : {
        "isrc" : "USJ3V1325324"
      },
      "external_urls" : {
        "spotify" : "https://open.spotify.com/track/2dRFtuPFndyWKU7cXzzwoV"
      },
      "href" : "https://api.spotify.com/v1/tracks/2dRFtuPFndyWKU7cXzzwoV",
      "id" : "2dRFtuPFndyWKU7cXzzwoV",
      "is_local" : false,
      "is_playable" : true,
      "name" : "Lord Speak to Me",
      "popularity" : 0,
      "preview_url" : "https://p.scdn.co/mp3-preview/d1c05aaa787b7d348b7e8fb2db4229d5c2403737?cid=774b29d4f13844c495f206cafdad9c86",
      "track_number" : 6,
      "type" : "track",
      "uri" : "spotify:track:2dRFtuPFndyWKU7cXzzwoV"
    }, {
      "album" : {
        "album_type" : "album",
        "artists" : [ {
          "external_urls" : {
            "spotify" : "https://open.spotify.com/artist/4FlTg66XkLxvZOCQHDI8PQ"
          },
          "href" : "https://api.spotify.com/v1/artists/4FlTg66XkLxvZOCQHDI8PQ",
          "id" : "4FlTg66XkLxvZOCQHDI8PQ",
          "name" : "Rokkwill",
          "type" : "artist",
          "uri" : "spotify:artist:4FlTg66XkLxvZOCQHDI8PQ"
        } ],
        "external_urls" : {
          "spotify" : "https://open.spotify.com/album/1jtkJlHbWZHvTDgZc7Xkqj"
        },
        "href" : "https://api.spotify.com/v1/albums/1jtkJlHbWZHvTDgZc7Xkqj",
        "id" : "1jtkJlHbWZHvTDgZc7Xkqj",
        "images" : [ {
          "height" : 640,
          "url" : "https://i.scdn.co/image/ab67616d0000b273513c99e621e71a93fc1ab1dc",
          "width" : 640
        }, {
          "height" : 300,
          "url" : "https://i.scdn.co/image/ab67616d00001e02513c99e621e71a93fc1ab1dc",
          "width" : 300
        }, {
          "height" : 64,
          "url" : "https://i.scdn.co/image/ab67616d00004851513c99e621e71a93fc1ab1dc",
          "width" : 64
        } ],
        "name" : "Speak To Me Lord",
        "release_date" : "2010-06-01",
        "release_date_precision" : "day",
        "total_tracks" : 13,
        "type" : "album",
        "uri" : "spotify:album:1jtkJlHbWZHvTDgZc7Xkqj"
      },
      "artists" : [ {
        "external_urls" : {
          "spotify" : "https://open.spotify.com/artist/4FlTg66XkLxvZOCQHDI8PQ"
        },
        "href" : "https://api.spotify.com/v1/artists/4FlTg66XkLxvZOCQHDI8PQ",
        "id" : "4FlTg66XkLxvZOCQHDI8PQ",
        "name" : "Rokkwill",
        "type" : "artist",
        "uri" : "spotify:artist:4FlTg66XkLxvZOCQHDI8PQ"
      } ],
      "disc_number" : 1,
      "duration_ms" : 186410,
      "explicit" : true,
      "external_ids" : {
        "isrc" : "uscgj1068712"
      },
      "external_urls" : {
        "spotify" : "https://open.spotify.com/track/4C2wrixAXli4eyTBIFXFk2"
      },
      "href" : "https://api.spotify.com/v1/tracks/4C2wrixAXli4eyTBIFXFk2",
      "id" : "4C2wrixAXli4eyTBIFXFk2",
      "is_local" : false,
      "is_playable" : true,
      "name" : "Speak To Me Lord",
      "popularity" : 0,
      "preview_url" : "https://p.scdn.co/mp3-preview/75515562a7969a99d080d7227e386e3c2fdd317e?cid=774b29d4f13844c495f206cafdad9c86",
      "track_number" : 13,
      "type" : "track",
      "uri" : "spotify:track:4C2wrixAXli4eyTBIFXFk2"
    }, {
      "album" : {
        "album_type" : "album",
        "artists" : [ {
          "external_urls" : {
            "spotify" : "https://open.spotify.com/artist/3x8JKYweUaLjF441vguZ2D"
          },
          "href" : "https://api.spotify.com/v1/artists/3x8JKYweUaLjF441vguZ2D",
          "id" : "3x8JKYweUaLjF441vguZ2D",
          "name" : "Altar of Praise Chorale",
          "type" : "artist",
          "uri" : "spotify:artist:3x8JKYweUaLjF441vguZ2D"
        } ],
        "external_urls" : {
          "spotify" : "https://open.spotify.com/album/4nZ8LDjjyOsGULCApwF3Xe"
        },
        "href" : "https://api.spotify.com/v1/albums/4nZ8LDjjyOsGULCApwF3Xe",
        "id" : "4nZ8LDjjyOsGULCApwF3Xe",
        "images" : [ {
          "height" : 640,
          "url" : "https://i.scdn.co/image/ab67616d0000b2730c3f7f9d3c1453a346c90562",
          "width" : 640
        }, {
          "height" : 300,
          "url" : "https://i.scdn.co/image/ab67616d00001e020c3f7f9d3c1453a346c90562",
          "width" : 300
        }, {
          "height" : 64,
          "url" : "https://i.scdn.co/image/ab67616d000048510c3f7f9d3c1453a346c90562",
          "width" : 64
        } ],
        "name" : "Thine Is the Kingdom",
        "release_date" : "2020-05-04",
        "release_date_precision" : "day",
        "total_tracks" : 15,
        "type" : "album",
        "uri" : "spotify:album:4nZ8LDjjyOsGULCApwF3Xe"
      },
      "artists" : [ {
        "external_urls" : {
          "spotify" : "https://open.spotify.com/artist/3x8JKYweUaLjF441vguZ2D"
        },
        "href" : "https://api.spotify.com/v1/artists/3x8JKYweUaLjF441vguZ2D",
        "id" : "3x8JKYweUaLjF441vguZ2D",
        "name" : "Altar of Praise Chorale",
        "type" : "artist",
        "uri" : "spotify:artist:3x8JKYweUaLjF441vguZ2D"
      } ],
      "disc_number" : 1,
      "duration_ms" : 197213,
      "explicit" : false,
      "external_ids" : {
        "isrc" : "ushm22012850"
      },
      "external_urls" : {
        "spotify" : "https://open.spotify.com/track/5AfedKkIGU1qDCluGKhNP9"
      },
      "href" : "https://api.spotify.com/v1/tracks/5AfedKkIGU1qDCluGKhNP9",
      "id" : "5AfedKkIGU1qDCluGKhNP9",
      "is_local" : false,
      "is_playable" : true,
      "name" : "Lord, Speak to Me",
      "popularity" : 0,
      "preview_url" : "https://p.scdn.co/mp3-preview/d8f52ddef570e94d80535929a254e9ea7ccf54a0?cid=774b29d4f13844c495f206cafdad9c86",
      "track_number" : 11,
      "type" : "track",
      "uri" : "spotify:track:5AfedKkIGU1qDCluGKhNP9"
    } ],
    "limit" : 10,
    "next" : "https://api.spotify.com/v1/search?query=Lord%2C+Speak+to+Me&type=track&market=US&offset=15&limit=10",
    "offset" : 5,
    "previous" : "https://api.spotify.com/v1/search?query=Lord%2C+Speak+to+Me&type=track&market=US&offset=0&limit=10",
    "total" : 136
  }
}