{
  "tracks" : {
    "href" : "https://api.spotify.com/v1/search?query=Sweet+Hour+of+Prayer&type=track&market=US&offset=5&limit=10",
    "items" : [ {
      "album" : {
        "album_type" : "album",
        "artists" : [ {
          "external_urls" : {
            "spotify" : "https://open.spotify.com/artist/0uIyzjmP48YI0dpgdAjdeI"
          },
          "href" : "https://api.spotify.com/v1/artists/0uIyzjmP48YI0dpgdAjdeI",
          "id" : "0uIyzjmP48YI0dpgdAjdeI",
          "name" : "The Praise Baby Collection",
          "type" : "artist",
          "uri" : "spotify:artist:0uIyzjmP48YI0dpgdAjdeI"
        } ],
        "external_urls" : {
          "spotify" : "https://open.spotify.com/album/17X4yBkZ465nqJI1yy8xO7"
        },
        "href" : "https://api.spotify.com/v1/albums/17X4yBkZ465nqJI1yy8xO7",
        "id" : "17X4yBkZ465nqJI1yy8xO7",
        "images" : [ {
          "height" : 640,
          "url" : "https://i.scdn.co/image/ab67616d0000b273d055587a8275fdc37f3ad14c",
          "width" : 640
        }, {
          "height" : 300,
          "url" : "https://i.scdn.co/image/ab67616d00001e02d055587a8275fdc37f3ad14c",
          "width" : 300
        }, {
          "height" : 64,
          "url" : "https://i.scdn.co/image/ab67616d00004851d055587a8275fdc37f3ad14c",
          "width" : 64
        } ],
        "name" : "Sleepytime Lullabies",
        "release_date" : "2008-07-29",
        "release_date_precision" : "day",
        "total_tracks" : 12,
        "type" : "album",
        "uri" : "spotify:album:17X4yBkZ465nqJI1yy8xO7"
      },
      "artists" : [ {
        "external_urls" : {
          "spotify" : "https://open.spotify.com/artist/0uIyzjmP48YI0dpgdAjdeI"
        },
        "href" : "https://api.spotify.com/v1/artists/0uIyzjmP48YI0dpgdAjdeI",
        "id" : "0uIyzjmP48YI0dpgdAjdeI",
        "name" : "The Praise Baby Collection",
        "type" : "artist",
        "uri" : "spotify:artist:0uIyzjmP48YI0dpgdAjdeI"
      } ],
      "disc_number" : 1,
      "duration_ms" : 213716,
      "explicit" : false,
      "external_ids" : {
        "isrc" : "USA5W0800256"
      },
      "external_urls" : {
        "spotify" : "https://open.spotify.com/track/7wb0W8ow3uIgXAFFiOYWC5"
      },
      "href" : "https://api.spotify.com/v1/tracks/7wb0W8ow3uIgXAFFiOYWC5",
      "id" : "7wb0W8ow3uIgXAFFiOYWC5",
      "is_local" : false,
      "is_playable" : true,
      "name" : "Sweet Hour of Prayer/Whisper A Prayer Medley",
      "popularity" : 40,
      "preview_url" : "https://p.scdn.co/mp3-preview/bebdb2654f793230dcf215b0811c91a0cfb72e44?cid=774b29d4f13844c495f206cafdad9c86",
      "track_number" : 6,
      "type" : "track",
      "uri" : "spotify:track:7wb0W8ow3uIgXAFFiOYWC5"
    }, {
      "album" : {
        "album_type" : "album",
        "artists" : [ {
          "external_urls" : {
            "spotify" : "https://open.spotify.com/artist/5ee6tRCf54hwB2pyXhRMb2"
          },
          "href" : "https://api.spotify.com/v1/artists/5ee6tRCf54hwB2pyXhRMb2",
          "id" : "5ee6tRCf54hwB2pyXhRMb2",
          "name" : "Ryan Tilby",
          "type" : "artist",
          "uri" : "spotify:artist:5ee6tRCf54hwB2pyXhRMb2"
        } ],
        "external_urls" : {
          "spotify" : "https://open.spotify.com/album/5bfCNBr7wYCXr6cECnPYT1"
        },
        "href" : "https://api.spotify.com/v1/albums/5bfCNBr7wYCXr6cECnPYT1",
        "id" : "5bfCNBr7wYCXr6cECnPYT1",
        "images" : [ {
          "height" : 640,
          "url" : "https://i.scdn.co/image/ab67616d0000b27388ccfdd6907406832bcf3921",
          "width" : 640
        }, {
          "height" : 300,
          "url" : "https://i.scdn.co/image/ab67616d00001e0288ccfdd6907406832bcf3921",
          "width" : 300
        }, {
          "height" : 64,
          "url" : "https://i.scdn.co/image/ab67616d0000485188ccfdd6907406832bcf3921",
          "width" : 64
        } ],
        "name" : "Guitar Hymns",
        "release_date" : "2009-01-01",
        "release_date_precision" : "day",
        "total_tracks" : 13,
        "type" : "album",
        "uri" : "spotify:album:5bfCNBr7wYCXr6cECnPYT1"
      },
      "artists" : [ {
        "external_urls" : {
          "spotify" : "https://open.spotify.com/artist/5ee6tRCf54hwB2pyXhRMb2"
        },
        "href" : "https://api.spotify.com/v1/artists/5ee6tRCf54hwB2pyXhRMb2",
        "id" : "5ee6tRCf54hwB2pyXhRMb2",
        "name" : "Ryan Tilby",
        "type" : "artist",
        "uri" : "spotify:artist:5ee6tRCf54hwB2pyXhRMb2"
      } ],
      "disc_number" : 1,
      "duration_ms" : 227546,
      "explicit" : false,
      "external_ids" : {
        "isrc" : "uscgh0926514"
      },
      "external_urls" : {
        "spotify" : "https://open.spotify.com/track/70x1AxXFzvQaa9oGkp6LaF"
      },
      "href" : "https://api.spotify.com/v1/tracks/70x1AxXFzvQaa9oGkp6LaF",
      "id" : "70x1AxXFzvQaa9oGkp6LaF",
      "is_local" : false,
      "is_playable" : true,
      "name" : "Sweet Hour of Prayer",
      "popularity" : 35,
      "preview_url" : "https://p.scdn.co/mp3-preview/430d41b38ebfa69a0ba06ce44f54f69bbfbab22d?cid=774b29d4f13844c495f206cafdad9c86",
      "track_number" : 5,
      "type" : "track",
      "uri" : "spotify:track:70x1AxXFzvQaa9oGkp6LaF"
    }, {
      "album" : {
        "album_type" : "album",
        "artists" : [ {
          "external_urls" : {
            "spotify" : "https://open.spotify.com/artist/6jjuxOU1va94mNHZpHTdWn"
          },
          "href" : "https://api.spotify.com/v1/artists/6jjuxOU1va94mNHZpHTdWn",
          "id" : "6jjuxOU1va94mNHZpHTdWn",
          "name" : "Michael Ethington",
          "type" : "artist",
          "uri" : "spotify:artist:6jjuxOU1va94mNHZpHTdWn"
        } ],
        "external_urls" : {
          "spotify" : "https://open.spotify.com/album/6Le1JbY2rxiqER9uKJ5S9b"
        },
        "href" : "https://api.spotify.com/v1/albums/6Le1JbY2rxiqER9uKJ5S9b",
        "id" : "6Le1JbY2rxiqER9uKJ5S9b",
        "images" : [ {
          "height" : 640,
          "url" : "https://i.scdn.co/image/ab67616d0000b2733390fb75acd11f72cb90d046",
          "width" : 640
        }, {
          "height" : 300,
          "url" : "https://i.scdn.co/image/ab67616d00001e023390fb75acd11f72cb90d046",
          "width" : 300
        }, {
          "height" : 64,
          "url" : "https://i.scdn.co/image/ab67616d000048513390fb75acd11f72cb90d046",
          "width" : 64
        } ],
        "name" : "Believe",
        "release_date" : "2008-05-12",
        "release_date_precision" : "day",
        "total_tracks" : 11,
        "type" : "album",
        "uri" : "spotify:album:6Le1JbY2rxiqER9uKJ5S9b"
      },
      "artists" : [ {
        "external_urls" : {
          "spotify" : "https://open.spotify.com/artist/6jjuxOU1va94mNHZpHTdWn"
        },
        "href" : "https://api.spotify.com/v1/artists/6jjuxOU1va94mNHZpHTdWn",
        "id" : "6jjuxOU1va94mNHZpHTdWn",
        "name" : "Michael Ethington",
        "type" : "artist",
        "uri" : "spotify:artist:6jjuxOU1va94mNHZpHTdWn"
      } ],
      "disc_number" : 1,
      "duration_ms" : 446880,
      "explicit" : false,
      "external_ids" : {
        "isrc" : "uscgh0845297"
      },
      "external_urls" : {
        "spotify" : "https://open.spotify.com/track/2W5TO5aPO5gk9eaU58rCcq"
      },
      "href" : "https://api.spotify.com/v1/tracks/2W5TO5aPO5gk9eaU58rCcq",
      "id" : "2W5TO5aPO5gk9eaU58rCcq",
      "is_local" : false,
      "is_playable" : true,
      "name" : "Sweet Hour Of Prayer",
      "popularity" : 30,
      "preview_url" : "https://p.scdn.co/mp3-preview/865a2a3872d26b9c57ff70ddd3029293cb4b8e40?cid=774b29d4f13844c495f206cafdad9c86",
      "track_number" : 9,
      "type" : "track",
      "uri" : "spotify:track:2W5TO5aPO5gk9eaU58rCcq"
    }, {
      "album" : {
        "album_type" : "album",
        "artists" : [ {
          "external_urls" : {
            "spotify" : "https://open.spotify.com/artist/6eJqAWJdd8JhAN1pQGie4r"
          },
          "href" : "https://api.spotify.com/v1/artists/6eJqAWJdd8JhAN1pQGie4r",
          "id" : "6eJqAWJdd8JhAN1pQGie4r",
          "name" : "Casting Crowns",
          "type" : "artist",
          "uri" : "spotify:artist:6eJqAWJdd8JhAN1pQGie4r"
        } ],
        "external_urls" : {
          "spotify" : "https://open.spotify.com/album/3hB7IALT7uaNMC6Ol0elbo"
        },
        "href" : "https://api.spotify.com/v1/albums/3hB7IALT7uaNMC6Ol0elbo",
        "id" : "3hB7IALT7uaNMC6Ol0elbo",
        "images" : [ {
          "height" : 640,
          "url" : "https://i.scdn.co/image/ab67616d0000b273a39bba72fe9cc74115f490cf",
          "width" : 640
        }, {
          "height" : 300,
          "url" : "https://i.scdn.co/image/ab67616d00001e02a39bba72fe9cc74115f490cf",
          "width" : 300
        }, {
          "height" : 64,
          "url" : "https://i.scdn.co/image/ab67616d00004851a39bba72fe9cc74115f490cf",
          "width" : 64
        } ],
        "name" : "Glorious Day: Hymns of Faith",
        "release_date" : "2015-07-01",
        "release_date_precision" : "day",
        "total_tracks" : 12,
        "type" : "album",
        "uri" : "spotify:album:3hB7IALT7uaNMC6Ol0elbo"
      },
      "artists" : [ {
        "external_urls" : {
          "spotify" : "https://open.spotify.com/artist/6eJqAWJdd8JhAN1pQGie4r"
        },
        "href" : "https://api.spotify.com/v1/artists/6eJqAWJdd8JhAN1pQGie4r",
        "id" : "6eJqAWJdd8JhAN1pQGie4r",
        "name" : "Casting Crowns",
        "type" : "artist",
        "uri" : "spotify:artist:6eJqAWJdd8JhAN1pQGie4r"
      } ],
      "disc_number" : 1,
      "duration_ms" : 220653,
      "explicit" : false,
      "external_ids" : {
        "isrc" : "USA5W1500165"
      },
      "external_urls" : {
        "spotify" : "https://open.spotify.com/track/4FoAnxEdr6oJNcNXzNthE5"
      },
      "href" : "https://api.spotify.com/v1/tracks/4FoAnxEdr6oJNcNXzNthE5",
      "id" : "4FoAnxEdr6oJNcNXzNthE5",
      "is_local" : false,
      "is_playable" : true,
      "name" : "Sweet Hour of Prayer",
      "popularity" : 30,
      "preview_url" : "https://p.scdn.co/mp3-preview/a098aacc094287fdf4a965e8816b6b38d19b9852?cid=774b29d4f13844c495f206cafdad9c86",
      "track_number" : 8,
      "type" : "track",
      "uri" : "spotify:track:4FoAnxEdr6oJNcNXzNthE5"
    }, {
      "album" : {
        "album_type" : "album",
        "artists" : [ {
          "external_urls" : {
            "spotify" : "https://open.spotify.com/artist/3Be0FxZRoCJ8UPrkwe6Xuw"
          },
          "href" : "https://api.spotify.com/v1/artists/3Be0FxZRoCJ8UPrkwe6Xuw",
          "id" : "3Be0FxZRoCJ8UPrkwe6Xuw",
          "name" : "Stan Whitmire",
          "type" : "artist",
          "uri" : "spotify:artist:3Be0FxZRoCJ8UPrkwe6Xuw"
        } ],
        "external_urls" : {
          "spotify" : "https://open.spotify.com/album/708WHnGeVcYKaHN2AV4HxX"
        },
        "href" : "https://api.spotify.com/v1/albums/708WHnGeVcYKaHN2AV4HxX",
        "id" : "708WHnGeVcYKaHN2AV4HxX",
        "images" : [ {
          "height" : 640,
          "url" : "https://i.scdn.co/image/ab67616d0000b2737ff7f0149a3d83cd68b91a98",
          "width" : 640
        }, {
          "height" : 300,
          "url" : "https://i.scdn.co/image/ab67616d00001e027ff7f0149a3d83cd68b91a98",
          "width" : 300
        }, {
          "height" : 64,
          "url" : "https://i.scdn.co/image/ab67616d000048517ff7f0149a3d83cd68b91a98",
          "width" : 64
        } ],
        "name" : "Piano Hymns",
        "release_date" : "1995-01-01",
        "release_date_precision" : "day",
        "total_tracks" : 11,
        "type" : "album",
        "uri" : "spotify:album:708WHnGeVcYKaHN2AV4HxX"
      },
      "artists" : [ {
        "external_urls" : {
          "spotify" : "https://open.spotify.com/artist/3Be0FxZRoCJ8UPrkwe6Xuw"
        },
        "href" : "https://api.spotify.com/v1/artists/3Be0FxZRoCJ8UPrkwe6Xuw",
        "id" : "3Be0FxZRoCJ8UPrkwe6Xuw",
        "name" : "Stan Whitmire",
        "type" : "artist",
        "uri" : "spotify:artist:3Be0FxZRoCJ8UPrkwe6Xuw"
      } ],
      "disc_number" : 1,
      "duration_ms" : 269066,
      "explicit" : false,
      "external_ids" : {
        "isrc" : "USB4U0800082"
      },
      "external_urls" : {
        "spotify" : "https://open.spotify.com/track/4zl1F5zvjBS7i6Bl38GZbV"
      },
      "href" : "https://api.spotify.com/v1/tracks/4zl1F5zvjBS7i6Bl38GZbV",
      "id" : "4zl1F5zvjBS7i6Bl38GZbV",
      "is_local" : false,
      "is_playable" : true,
      "name" : "Sweet Hour Of Prayer/I Must Tell Jesus - Medley",
      "popularity" : 32,
      "preview_url" : null,
      "track_number" : 2,
      "type" : "track",
      "uri" : "spotify:track:4zl1F5zvjBS7i6Bl38GZbV"
    }, {
      "album" : {
        "album_type" : "album",
        "artists" : [ {
          "external_urls" : {
            "spotify" : "https://open.spotify.com/artist/3OvrUspbOHgGI6T7D5Fb6P"
          },
          "href" : "https://api.spotify.com/v1/artists/3OvrUspbOHgGI6T7D5Fb6P",
          "id" : "3OvrUspbOHgGI6T7D5Fb6P",
          "name" : "David Tolk",
          "type" : "artist",
          "uri" : "spotify:artist:3OvrUspbOHgGI6T7D5Fb6P"
        } ],
        "external_urls" : {
          "spotify" : "https://open.spotify.com/album/4gfrqgInFJWLVnFaQFwbb3"
        },
        "href" : "https://api.spotify.com/v1/albums/4gfrqgInFJWLVnFaQFwbb3",
        "id" : "4gfrqgInFJWLVnFaQFwbb3",
        "images" : [ {
          "height" : 640,
          "url" : "https://i.scdn.co/image/ab67616d0000b273b915bef85e5ecd581492a0b8",
          "width" : 640
        }, {
          "height" : 300,
          "url" : "https://i.scdn.co/image/ab67616d00001e02b915bef85e5ecd581492a0b8",
          "width" : 300
        }, {
          "height" : 64,
          "url" : "https://i.scdn.co/image/ab67616d00004851b915bef85e5ecd581492a0b8",
          "width" : 64
        } ],
        "name" : "Solo Piano Hymns",
        "release_date" : "2015-11-06",
        "release_date_precision" : "day",
        "total_tracks" : 11,
        "type" : "album",
        "uri" : "spotify:album:4gfrqgInFJWLVnFaQFwbb3"
      },
      "artists" : [ {
        "external_urls" : {
          "spotify" : "https://open.spotify.com/artist/3OvrUspbOHgGI6T7D5Fb6P"
        },
        "href" : "https://api.spotify.com/v1/artists/3OvrUspbOHgGI6T7D5Fb6P",
        "id" : "3OvrUspbOHgGI6T7D5Fb6P",
        "name" : "David Tolk",
        "type" : "artist",
        "uri" : "spotify:artist:3OvrUspbOHgGI6T7D5Fb6P"
      } ],
      "disc_number" : 1,
      "duration_ms" : 338853,
      "explicit" : false,
      "external_ids" : {
        "isrc" : "ushm21596202"
      },
      "external_urls" : {
        "spotify" : "https://open.spotify.com/track/73HmvfSlqhqOyBKgB19oRs"
      },
      "href" : "https://api.spotify.com/v1/tracks/73HmvfSlqhqOyBKgB19oRs",
      "id" : "73HmvfSlqhqOyBKgB19oRs",
      "is_local" : false,
      "is_playable" : true,
      "name" : "Sweet Hour of Prayer/Glory to God On High (Solo Piano)",
      "popularity" : 29,
      "preview_url" : "https://p.scdn.co/mp3-preview/4e0140dc211e019cde20d8cfc0152ea1cff87365?cid=774b29d4f13844c495f206cafdad9c86",
      "track_number" : 8,
      "type" : "track",
      "uri" : "spotify:track:73HmvfSlqhqOyBKgB19oRs"
    }, {
      "album" : {
        "album_type" : "album",
        "artists" : [ {
          "external_urls" : {
            "spotify" : "https://open.spotify.com/artist/1rnvO0098VACV7bmTr2dIv"
          },
          "href" : "https://api.spotify.com/v1/artists/1rnvO0098VACV7bmTr2dIv",
          "id" : "1rnvO0098VACV7bmTr2dIv",
          "name" : "Jason Tonioli",
          "type" : "artist",
          "uri" : "spotify:artist:1rnvO0098VACV7bmTr2dIv"
        } ],
        "external_urls" : {
          "spotify" : "https://open.spotify.com/album/5J0vM24lEXhpCZVB570aU1"
        },
        "href" : "https://api.spotify.com/v1/albums/5J0vM24lEXhpCZVB570aU1",
        "id" : "5J0vM24lEXhpCZVB570aU1",
        "images" : [ {
          "height" : 640,
          "url" : "https://i.scdn.co/image/ab67616d0000b27354c3d30e40b79503cfe9828e",
          "width" : 640
        }, {
          "height" : 300,
          "url" : "https://i.scdn.co/image/ab67616d00001e0254c3d30e40b79503cfe9828e",
          "width" : 300
        }, {
          "height" : 64,
          "url" : "https://i.scdn.co/image/ab67616d0000485154c3d30e40b79503cfe9828e",
          "width" : 64
        } ],
        "name" : "Be Still - Piano Hymns",
        "release_date" : "2012-03-30",
        "release_date_precision" : "day",
        "total_tracks" : 13,
        "type" : "album",
        "uri" : "spotify:album:5J0vM24lEXhpCZVB570aU1"
      },
      "artists" : [ {
        "external_urls" : {
          "spotify" : "https://open.spotify.com/artist/1rnvO0098VACV7bmTr2dIv"
        },
        "href" : "https://api.spotify.com/v1/artists/1rnvO0098VACV7bmTr2dIv",
        "id" : "1rnvO0098VACV7bmTr2dIv",
        "name" : "Jason Tonioli",
        "type" : "artist",
        "uri" : "spotify:artist:1rnvO0098VACV7bmTr2dIv"
      } ],
      "disc_number" : 1,
      "duration_ms" : 339200,
      "explicit" : false,
      "external_ids" : {
        "isrc" : "USQY51270396"
      },
      "external_urls" : {
        "spotify" : "https://open.spotify.com/track/7MIHUoB00XQDWviSgn8vd2"
      },
      "href" : "https://api.spotify.com/v1/tracks/7MIHUoB00XQDWviSgn8vd2",
      "id" : "7MIHUoB00XQDWviSgn8vd2",
      "is_local" : false,
      "is_playable" : true,
      "name" : "Sweet Hour of Prayer - Piano Solo",
      "popularity" : 27,
      "preview_url" : "https://p.scdn.co/mp3-preview/7a12392d0732e800f5ac6b66c7e4e2da43674da0?cid=774b29d4f13844c495f206cafdad9c86",
      "track_number" : 13,
      "type" : "track",
      "uri" : "spotify:track:7MIHUoB00XQDWviSgn8vd2"
    }, {
      "album" : {
        "album_type" : "album",
        "artists" : [ {
          "external_urls" : {
            "spotify" : "https://open.spotify.com/artist/7dc9jcxR0GgRMoNasStnmZ"
          },
          "href" : "https://api.spotify.com/v1/artists/7dc9jcxR0GgRMoNasStnmZ",
          "id" : "7dc9jcxR0GgRMoNasStnmZ",
          "name" : "David Baroni",
          "type" : "artist",
          "uri" : "spotify:artist:7dc9jcxR0GgRMoNasStnmZ"
        } ],
        "external_urls" : {
          "spotify" : "https://open.spotify.com/album/2CQrkXkTVc1M5QNE4YJpfV"
        },
        "href" : "https://api.spotify.com/v1/albums/2CQrkXkTVc1M5QNE4YJpfV",
        "id" : "2CQrkXkTVc1M5QNE4YJpfV",
        "images" : [ {
          "height" : 640,
          "url" : "https://i.scdn.co/image/ab67616d0000b27385bd0cd6432fd8fa597dff1b",
          "width" : 640
        }, {
          "height" : 300,
          "url" : "https://i.scdn.co/image/ab67616d00001e0285bd0cd6432fd8fa597dff1b",
          "width" : 300
        }, {
          "height" : 64,
          "url" : "https://i.scdn.co/image/ab67616d0000485185bd0cd6432fd8fa597dff1b",
          "width" : 64
        } ],
        "name" : "A Quiet Place: Instrumental Hymns Vol. II",
        "release_date" : "2010-07-15",
        "release_date_precision" : "day",
        "total_tracks" : 12,
        "type" : "album",
        "uri" : "spotify:album:2CQrkXkTVc1M5QNE4YJpfV"
      },
      "artists" : [ {
        "external_urls" : {
          "spotify" : "https://open.spotify.com/artist/7dc9jcxR0GgRMoNasStnmZ"
        },
        "href" : "https://api.spotify.com/v1/artists/7dc9jcxR0GgRMoNasStnmZ",
        "id" : "7dc9jcxR0GgRMoNasStnmZ",
        "name" : "David Baroni",
        "type" : "artist",
        "uri" : "spotify:artist:7dc9jcxR0GgRMoNasStnmZ"
      } ],
      "disc_number" : 1,
      "duration_ms" : 284000,
      "explicit" : false,
      "external_ids" : {
        "isrc" : "ushm21080006"
      },
      "external_urls" : {
        "spotify" : "https://open.spotify.com/track/4RI6bPQiIOPO7G28hSRUlf"
      },
      "href" : "https://api.spotify.com/v1/tracks/4RI6bPQiIOPO7G28hSRUlf",
      "id" : "4RI6bPQiIOPO7G28hSRUlf",
      "is_local" : false,
      "is_playable" : true,
      "name" : "Sweet Hour of Prayer",
      "popularity" : 27,
      "preview_url" : "https://p.scdn.co/mp3-preview/1015f048732d6f0fca87eada0c8e5c37060a04ab?cid=774b29d4f13844c495f206cafdad9c86",
      "track_number" : 2,
      "type" : "track",
      "uri" : "spotify:track:4RI6bPQiIOPO7G28hSRUlf"
    }, {
      "album" : {
        "album_type" : "album",
        "artists" : [ {
          "external_urls" : {
            "spotify" : "https://open.spotify.com/artist/5U9LPyBknlYMg6liERwsTq"
          },
          "href" : "https://api.spotify.com/v1/artists/5U9LPyBknlYMg6liERwsTq",
          "id" : "5U9LPyBknlYMg6liERwsTq",
          "name" : "Brian Daw",
          "type" : "artist",
          "uri" : "spotify:artist:5U9LPyBknlYMg6liERwsTq"
        } ],
        "external_urls" : {
          "spotify" : "https://open.spotify.com/album/7iUF8J8foN4IDi2qxTSx8n"
        },
        "href" : "https://api.spotify.com/v1/albums/7iUF8J8foN4IDi2qxTSx8n",
        "id" : "7iUF8J8foN4IDi2qxTSx8n",
        "images" : [ {
          "height" : 640,
          "url" : "https://i.scdn.co/image/ab67616d0000b2737fa33c36192751f0ceaf4adb",
          "width" : 640
        }, {
          "height" : 300,
          "url" : "https://i.scdn.co/image/ab67616d00001e027fa33c36192751f0ceaf4adb",
          "width" : 300
        }, {
          "height" : 64,
          "url" : "https://i.scdn.co/image/ab67616d000048517fa33c36192751f0ceaf4adb",
          "width" : 64
        } ],
        "name" : "LDS Hymns and Songs (Remastered)",
        "release_date" : "2014-08-02",
        "release_date_precision" : "day",
        "total_tracks" : 28,
        "type" : "album",
        "uri" : "spotify:album:7iUF8J8foN4IDi2qxTSx8n"
      },
      "artists" : [ {
        "external_urls" : {
          "spotify" : "https://open.spotify.com/artist/5U9LPyBknlYMg6liERwsTq"
        },
        "href" : "https://api.spotify.com/v1/artists/5U9LPyBknlYMg6liERwsTq",
        "id" : "5U9LPyBknlYMg6liERwsTq",
        "name" : "Brian Daw",
        "type" : "artist",
        "uri" : "spotify:artist:5U9LPyBknlYMg6liERwsTq"
      } ],
      "disc_number" : 1,
      "duration_ms" : 121129,
      "explicit" : false,
      "external_ids" : {
        "isrc" : "USJ3V1304119"
      },
      "external_urls" : {
        "spotify" : "https://open.spotify.com/track/07H7AzP4Gbax0xGnnwlDDk"
      },
      "href" : "https://api.spotify.com/v1/tracks/07H7AzP4Gbax0xGnnwlDDk",
      "id" : "07H7AzP4Gbax0xGnnwlDDk",
      "is_local" : false,
      "is_playable" : true,
      "name" : "Sweet Hour of Prayer",
      "popularity" : 21,
      "preview_url" : "https://p.scdn.co/mp3-preview/e2f3d5bdafcb57d28e51ae490552747b5e526263?cid=774b29d4f13844c495f206cafdad9c86",
      "track_number" : 18,
      "type" : "track",
      "uri" : "spotify:track:07H7AzP4Gbax0xGnnwlDDk"
    }, {
      "album" : {
        "album_type" : "album",
        "artists" : [ {
          "external_urls" : {
            "spotify" : "https://open.spotify.com/artist/7IEVFZjwpvFGdbt1Wta3uZ"
          },
          "href" : "https://api.spotify.com/v1/artists/7IEVFZjwpvFGdbt1Wta3uZ",
          "id" : "7IEVFZjwpvFGdbt1Wta3uZ",
          "name" : "Seldom Seen Stevens",
          "type" : "artist",
          "uri" : "spotify:artist:7IEVFZjwpvFGdbt1Wta3uZ"
        } ],
        "external_urls" : {
          "spotify" : "https://open.spotify.com/album/14QxyP9MjaJFtgW3BESx64"
        },
        "href" : "https://api.spotify.com/v1/albums/14QxyP9MjaJFtgW3BESx64",
        "id" : "14QxyP9MjaJFtgW3BESx64",
        "images" : [ {
          "height" : 640,
          "url" : "https://i.scdn.co/image/ab67616d0000b273509b1d88e0d3220c7d919679",
          "width" : 640
        }, {
          "height" : 300,
          "url" : "https://i.scdn.co/image/ab67616d00001e02509b1d88e0d3220c7d919679",
          "width" : 300
        }, {
          "height" : 64,
          "url" : "https://i.scdn.co/image/ab67616d00004851509b1d88e0d3220c7d919679",
          "width" : 64
        } ],
        "name" : "In the Quiet of Sunday Morning",
        "release_date" : "2020-01-10",
        "release_date_precision" : "day",
        "total_tracks" : 18,
        "type" : "album",
        "uri" : "spotify:album:14QxyP9MjaJFtgW3BESx64"
      },
      "artists" : [ {
        "external_urls" : {
          "spotify" : "https://open.spotify.com/artist/7IEVFZjwpvFGdbt1Wta3uZ"
        },
        "href" : "https://api.spotify.com/v1/artists/7IEVFZjwpvFGdbt1Wta3uZ",
        "id" : "7IEVFZjwpvFGdbt1Wta3uZ",
        "name" : "Seldom Seen Stevens",
        "type" : "artist",
        "uri" : "spotify:artist:7IEVFZjwpvFGdbt1Wta3uZ"
      } ],
      "disc_number" : 1,
      "duration_ms" : 128000,
      "explicit" : false,
      "external_ids" : {
        "isrc" : "TCAEP2058491"
      },
      "external_urls" : {
        "spotify" : "https://open.spotify.com/track/5oY9RynYJI9hSuomNlQqIe"
      },
      "href" : "https://api.spotify.com/v1/tracks/5oY9RynYJI9hSuomNlQqIe",
      "id" : "5oY9RynYJI9hSuomNlQqIe",
      "is_local" : false,
      "is_playable" : true,
      "name" : "Sweet Hour of Prayer",
      "popularity" : 18,
      "preview_url" : "https://p.scdn.co/mp3-preview/ff34b9a47b46217ad5c1fa2d4f37d29b4371dc19?cid=774b29d4f13844c495f206cafdad9c86",
      "track_number" : 16,
      "type" : "track",
      "uri" : "spotify:track:5oY9RynYJI9hSuomNlQqIe"
    } ],
    "limit" : 10,
    "next" : "https://api.spotify.com/v1/search?query=Sweet+Hour+of+Prayer&type=track&market=US&offset=15&limit=10",
    "offset" : 5,
    "previous" : "https://api.spotify.com/v1/search?query=Sweet+Hour+of+Prayer&type=track&market=US&offset=0&limit=10",
    "total" : 1387
  }
}