{
  "tracks" : {
    "href" : "https://api.spotify.com/v1/search?query=Cast+Thy+Burden+Upon+the+Lord&type=track&market=US&offset=5&limit=10",
    "items" : [ {
      "album" : {
        "album_type" : "album",
        "artists" : [ {
          "external_urls" : {
            "spotify" : "https://open.spotify.com/artist/15WWcNQdZWCY1AAVPbZ6Hi"
          },
          "href" : "https://api.spotify.com/v1/artists/15WWcNQdZWCY1AAVPbZ6Hi",
          "id" : "15WWcNQdZWCY1AAVPbZ6Hi",
          "name" : "Utah Hymnal Association",
          "type" : "artist",
          "uri" : "spotify:artist:15WWcNQdZWCY1AAVPbZ6Hi"
        } ],
        "external_urls" : {
          "spotify" : "https://open.spotify.com/album/1idUMqHSzHBaOtohj8nPRw"
        },
        "href" : "https://api.spotify.com/v1/albums/1idUMqHSzHBaOtohj8nPRw",
        "id" : "1idUMqHSzHBaOtohj8nPRw",
        "images" : [ {
          "height" : 640,
          "url" : "https://i.scdn.co/image/ab67616d0000b27345a36a609f8222a32d139237",
          "width" : 640
        }, {
          "height" : 300,
          "url" : "https://i.scdn.co/image/ab67616d00001e0245a36a609f8222a32d139237",
          "width" : 300
        }, {
          "height" : 64,
          "url" : "https://i.scdn.co/image/ab67616d0000485145a36a609f8222a32d139237",
          "width" : 64
        } ],
        "name" : "Come, Come, Ye Saints",
        "release_date" : "2016-03-01",
        "release_date_precision" : "day",
        "total_tracks" : 13,
        "type" : "album",
        "uri" : "spotify:album:1idUMqHSzHBaOtohj8nPRw"
      },
      "artists" : [ {
        "external_urls" : {
          "spotify" : "https://open.spotify.com/artist/15WWcNQdZWCY1AAVPbZ6Hi"
        },
        "href" : "https://api.spotify.com/v1/artists/15WWcNQdZWCY1AAVPbZ6Hi",
        "id" : "15WWcNQdZWCY1AAVPbZ6Hi",
        "name" : "Utah Hymnal Association",
        "type" : "artist",
        "uri" : "spotify:artist:15WWcNQdZWCY1AAVPbZ6Hi"
      } ],
      "disc_number" : 1,
      "duration_ms" : 67850,
      "explicit" : false,
      "external_ids" : {
        "isrc" : "TCJPE1644008"
      },
      "external_urls" : {
        "spotify" : "https://open.spotify.com/track/4SHGs4GyQO8xdr8pFNT1su"
      },
      "href" : "https://api.spotify.com/v1/tracks/4SHGs4GyQO8xdr8pFNT1su",
      "id" : "4SHGs4GyQO8xdr8pFNT1su",
      "is_local" : false,
      "is_playable" : true,
      "name" : "Cast Thy Burden upon the Lord",
      "popularity" : 0,
      "preview_url" : "https://p.scdn.co/mp3-preview/a09468d88be38b087220e49d24c38dca4b535106?cid=774b29d4f13844c495f206cafdad9c86",
      "track_number" : 2,
      "type" : "track",
      "uri" : "spotify:track:4SHGs4GyQO8xdr8pFNT1su"
    }, {
      "album" : {
        "album_type" : "album",
        "artists" : [ {
          "external_urls" : {
            "spotify" : "https://open.spotify.com/artist/15WWcNQdZWCY1AAVPbZ6Hi"
          },
          "href" : "https://api.spotify.com/v1/artists/15WWcNQdZWCY1AAVPbZ6Hi",
          "id" : "15WWcNQdZWCY1AAVPbZ6Hi",
          "name" : "Utah Hymnal Association",
          "type" : "artist",
          "uri" : "spotify:artist:15WWcNQdZWCY1AAVPbZ6Hi"
        } ],
        "external_urls" : {
          "spotify" : "https://open.spotify.com/album/3AiUnLPMKMB4ocQzn52lO6"
        },
        "href" : "https://api.spotify.com/v1/albums/3AiUnLPMKMB4ocQzn52lO6",
        "id" : "3AiUnLPMKMB4ocQzn52lO6",
        "images" : [ {
          "height" : 640,
          "url" : "https://i.scdn.co/image/ab67616d0000b27362f169e3373a34f70e40ccd2",
          "width" : 640
        }, {
          "height" : 300,
          "url" : "https://i.scdn.co/image/ab67616d00001e0262f169e3373a34f70e40ccd2",
          "width" : 300
        }, {
          "height" : 64,
          "url" : "https://i.scdn.co/image/ab67616d0000485162f169e3373a34f70e40ccd2",
          "width" : 64
        } ],
        "name" : "Abide with Me; 'Tis Eventide",
        "release_date" : "2016-03-01",
        "release_date_precision" : "day",
        "total_tracks" : 12,
        "type" : "album",
        "uri" : "spotify:album:3AiUnLPMKMB4ocQzn52lO6"
      },
      "artists" : [ {
        "external_urls" : {
          "spotify" : "https://open.spotify.com/artist/15WWcNQdZWCY1AAVPbZ6Hi"
        },
        "href" : "https://api.spotify.com/v1/artists/15WWcNQdZWCY1AAVPbZ6Hi",
        "id" : "15WWcNQdZWCY1AAVPbZ6Hi",
        "name" : "Utah Hymnal Association",
        "type" : "artist",
        "uri" : "spotify:artist:15WWcNQdZWCY1AAVPbZ6Hi"
      } ],
      "disc_number" : 1,
      "duration_ms" : 67450,
      "explicit" : false,
      "external_ids" : {
        "isrc" : "TCJPE1643695"
      },
      "external_urls" : {
        "spotify" : "https://open.spotify.com/track/7K5suyzN7sfB9lwl9nPkpG"
      },
      "href" : "https://api.spotify.com/v1/tracks/7K5suyzN7sfB9lwl9nPkpG",
      "id" : "7K5suyzN7sfB9lwl9nPkpG",
      "is_local" : false,
      "is_playable" : true,
      "name" : "Cast Thy Burden upon the Lord",
      "popularity" : 0,
      "preview_url" : "https://p.scdn.co/mp3-preview/005526d236a98c86d41f9f8431272e28f7e8e30d?cid=774b29d4f13844c495f206cafdad9c86",
      "track_number" : 3,
      "type" : "track",
      "uri" : "spotify:track:7K5suyzN7sfB9lwl9nPkpG"
    }, {
      "album" : {
        "album_type" : "album",
        "artists" : [ {
          "external_urls" : {
            "spotify" : "https://open.spotify.com/artist/3gSOxxHbfAIWPjAyr0EsO7"
          },
          "href" : "https://api.spotify.com/v1/artists/3gSOxxHbfAIWPjAyr0EsO7",
          "id" : "3gSOxxHbfAIWPjAyr0EsO7",
          "name" : "Saltlake Hymnal Association",
          "type" : "artist",
          "uri" : "spotify:artist:3gSOxxHbfAIWPjAyr0EsO7"
        } ],
        "external_urls" : {
          "spotify" : "https://open.spotify.com/album/6yqdAfPd4awvIUoqIeanCQ"
        },
        "href" : "https://api.spotify.com/v1/albums/6yqdAfPd4awvIUoqIeanCQ",
        "id" : "6yqdAfPd4awvIUoqIeanCQ",
        "images" : [ {
          "height" : 640,
          "url" : "https://i.scdn.co/image/ab67616d0000b2732ea41deb3f4a59a5a364ac1c",
          "width" : 640
        }, {
          "height" : 300,
          "url" : "https://i.scdn.co/image/ab67616d00001e022ea41deb3f4a59a5a364ac1c",
          "width" : 300
        }, {
          "height" : 64,
          "url" : "https://i.scdn.co/image/ab67616d000048512ea41deb3f4a59a5a364ac1c",
          "width" : 64
        } ],
        "name" : "Quiet tender melodies for Christian I",
        "release_date" : "2016-03-01",
        "release_date_precision" : "day",
        "total_tracks" : 54,
        "type" : "album",
        "uri" : "spotify:album:6yqdAfPd4awvIUoqIeanCQ"
      },
      "artists" : [ {
        "external_urls" : {
          "spotify" : "https://open.spotify.com/artist/3gSOxxHbfAIWPjAyr0EsO7"
        },
        "href" : "https://api.spotify.com/v1/artists/3gSOxxHbfAIWPjAyr0EsO7",
        "id" : "3gSOxxHbfAIWPjAyr0EsO7",
        "name" : "Saltlake Hymnal Association",
        "type" : "artist",
        "uri" : "spotify:artist:3gSOxxHbfAIWPjAyr0EsO7"
      } ],
      "disc_number" : 1,
      "duration_ms" : 32299,
      "explicit" : false,
      "external_ids" : {
        "isrc" : "TCJPE1644126"
      },
      "external_urls" : {
        "spotify" : "https://open.spotify.com/track/3E0Bd1UpJSybLRbS55aVKQ"
      },
      "href" : "https://api.spotify.com/v1/tracks/3E0Bd1UpJSybLRbS55aVKQ",
      "id" : "3E0Bd1UpJSybLRbS55aVKQ",
      "is_local" : false,
      "is_playable" : true,
      "name" : "Cast Thy Burden upon the Lord",
      "popularity" : 0,
      "preview_url" : "https://p.scdn.co/mp3-preview/012765b7c0c89afb25882632ef9aac063c591997?cid=774b29d4f13844c495f206cafdad9c86",
      "track_number" : 40,
      "type" : "track",
      "uri" : "spotify:track:3E0Bd1UpJSybLRbS55aVKQ"
    }, {
      "album" : {
        "album_type" : "album",
        "artists" : [ {
          "external_urls" : {
            "spotify" : "https://open.spotify.com/artist/6ZeTcw13FO6FnlOh8nUGiA"
          },
          "href" : "https://api.spotify.com/v1/artists/6ZeTcw13FO6FnlOh8nUGiA",
          "id" : "6ZeTcw13FO6FnlOh8nUGiA",
          "name" : "Missionary Beulah C.shaw",
          "type" : "artist",
          "uri" : "spotify:artist:6ZeTcw13FO6FnlOh8nUGiA"
        } ],
        "external_urls" : {
          "spotify" : "https://open.spotify.com/album/4mBFhYyB8wjyFsuSdgSJrF"
        },
        "href" : "https://api.spotify.com/v1/albums/4mBFhYyB8wjyFsuSdgSJrF",
        "id" : "4mBFhYyB8wjyFsuSdgSJrF",
        "images" : [ {
          "height" : 640,
          "url" : "https://i.scdn.co/image/ab67616d0000b273dc4eadafc3683e61e008e2af",
          "width" : 640
        }, {
          "height" : 300,
          "url" : "https://i.scdn.co/image/ab67616d00001e02dc4eadafc3683e61e008e2af",
          "width" : 300
        }, {
          "height" : 64,
          "url" : "https://i.scdn.co/image/ab67616d00004851dc4eadafc3683e61e008e2af",
          "width" : 64
        } ],
        "name" : "God Did This!!!",
        "release_date" : "2003-01-01",
        "release_date_precision" : "day",
        "total_tracks" : 11,
        "type" : "album",
        "uri" : "spotify:album:4mBFhYyB8wjyFsuSdgSJrF"
      },
      "artists" : [ {
        "external_urls" : {
          "spotify" : "https://open.spotify.com/artist/6ZeTcw13FO6FnlOh8nUGiA"
        },
        "href" : "https://api.spotify.com/v1/artists/6ZeTcw13FO6FnlOh8nUGiA",
        "id" : "6ZeTcw13FO6FnlOh8nUGiA",
        "name" : "Missionary Beulah C.shaw",
        "type" : "artist",
        "uri" : "spotify:artist:6ZeTcw13FO6FnlOh8nUGiA"
      } ],
      "disc_number" : 1,
      "duration_ms" : 212600,
      "explicit" : false,
      "external_ids" : {
        "isrc" : "ushm80459086"
      },
      "external_urls" : {
        "spotify" : "https://open.spotify.com/track/6z6rEeYnrSS1y8v1ijfIpE"
      },
      "href" : "https://api.spotify.com/v1/tracks/6z6rEeYnrSS1y8v1ijfIpE",
      "id" : "6z6rEeYnrSS1y8v1ijfIpE",
      "is_local" : false,
      "is_playable" : true,
      "name" : "Cast Thy Burden Upon the Lord",
      "popularity" : 0,
      "preview_url" : "https://p.scdn.co/mp3-preview/8e1bd708f1a496d5e1f25d2ccd887f8e62a5053a?cid=774b29d4f13844c495f206cafdad9c86",
      "track_number" : 7,
      "type" : "track",
      "uri" : "spotify:track:6z6rEeYnrSS1y8v1ijfIpE"
    }, {
      "album" : {
        "album_type" : "album",
        "artists" : [ {
          "external_urls" : {
            "spotify" : "https://open.spotify.com/artist/15WWcNQdZWCY1AAVPbZ6Hi"
          },
          "href" : "https://api.spotify.com/v1/artists/15WWcNQdZWCY1AAVPbZ6Hi",
          "id" : "15WWcNQdZWCY1AAVPbZ6Hi",
          "name" : "Utah Hymnal Association",
          "type" : "artist",
          "uri" : "spotify:artist:15WWcNQdZWCY1AAVPbZ6Hi"
        } ],
        "external_urls" : {
          "spotify" : "https://open.spotify.com/album/6bt45eicgWQ9qUKZVctV6L"
        },
        "href" : "https://api.spotify.com/v1/albums/6bt45eicgWQ9qUKZVctV6L",
        "id" : "6bt45eicgWQ9qUKZVctV6L",
        "images" : [ {
          "height" : 640,
          "url" : "https://i.scdn.co/image/ab67616d0000b273c30169676108e16af51c3a8d",
          "width" : 640
        }, {
          "height" : 300,
          "url" : "https://i.scdn.co/image/ab67616d00001e02c30169676108e16af51c3a8d",
          "width" : 300
        }, {
          "height" : 64,
          "url" : "https://i.scdn.co/image/ab67616d00004851c30169676108e16af51c3a8d",
          "width" : 64
        } ],
        "name" : "Cast Thy Burden upon the Lord",
        "release_date" : "2016-03-01",
        "release_date_precision" : "day",
        "total_tracks" : 13,
        "type" : "album",
        "uri" : "spotify:album:6bt45eicgWQ9qUKZVctV6L"
      },
      "artists" : [ {
        "external_urls" : {
          "spotify" : "https://open.spotify.com/artist/15WWcNQdZWCY1AAVPbZ6Hi"
        },
        "href" : "https://api.spotify.com/v1/artists/15WWcNQdZWCY1AAVPbZ6Hi",
        "id" : "15WWcNQdZWCY1AAVPbZ6Hi",
        "name" : "Utah Hymnal Association",
        "type" : "artist",
        "uri" : "spotify:artist:15WWcNQdZWCY1AAVPbZ6Hi"
      } ],
      "disc_number" : 1,
      "duration_ms" : 67950,
      "explicit" : false,
      "external_ids" : {
        "isrc" : "TCJPE1644033"
      },
      "external_urls" : {
        "spotify" : "https://open.spotify.com/track/4a1ukGrnT8cKnTUrADptFa"
      },
      "href" : "https://api.spotify.com/v1/tracks/4a1ukGrnT8cKnTUrADptFa",
      "id" : "4a1ukGrnT8cKnTUrADptFa",
      "is_local" : false,
      "is_playable" : true,
      "name" : "Cast Thy Burden upon the Lord",
      "popularity" : 0,
      "preview_url" : "https://p.scdn.co/mp3-preview/b118cc5ddc7510e48d08a48ea791acc9f1c3fdc2?cid=774b29d4f13844c495f206cafdad9c86",
      "track_number" : 1,
      "type" : "track",
      "uri" : "spotify:track:4a1ukGrnT8cKnTUrADptFa"
    }, {
      "album" : {
        "album_type" : "album",
        "artists" : [ {
          "external_urls" : {
            "spotify" : "https://open.spotify.com/artist/5oTQhQkSBzwWKoJpZ9tZrB"
          },
          "href" : "https://api.spotify.com/v1/artists/5oTQhQkSBzwWKoJpZ9tZrB",
          "id" : "5oTQhQkSBzwWKoJpZ9tZrB",
          "name" : "Seoul Chamber Singers",
          "type" : "artist",
          "uri" : "spotify:artist:5oTQhQkSBzwWKoJpZ9tZrB"
        } ],
        "external_urls" : {
          "spotify" : "https://open.spotify.com/album/7prokDnbZoQYSkv1y47Uq5"
        },
        "href" : "https://api.spotify.com/v1/albums/7prokDnbZoQYSkv1y47Uq5",
        "id" : "7prokDnbZoQYSkv1y47Uq5",
        "images" : [ {
          "height" : 640,
          "url" : "https://i.scdn.co/image/ab67616d0000b273984c1d5a1d268a1c805f4c19",
          "width" : 640
        }, {
          "height" : 300,
          "url" : "https://i.scdn.co/image/ab67616d00001e02984c1d5a1d268a1c805f4c19",
          "width" : 300
        }, {
          "height" : 64,
          "url" : "https://i.scdn.co/image/ab67616d00004851984c1d5a1d268a1c805f4c19",
          "width" : 64
        } ],
        "name" : "The Lord's Prayer 주의 기도",
        "release_date" : "2015-04-10",
        "release_date_precision" : "day",
        "total_tracks" : 21,
        "type" : "album",
        "uri" : "spotify:album:7prokDnbZoQYSkv1y47Uq5"
      },
      "artists" : [ {
        "external_urls" : {
          "spotify" : "https://open.spotify.com/artist/5oTQhQkSBzwWKoJpZ9tZrB"
        },
        "href" : "https://api.spotify.com/v1/artists/5oTQhQkSBzwWKoJpZ9tZrB",
        "id" : "5oTQhQkSBzwWKoJpZ9tZrB",
        "name" : "Seoul Chamber Singers",
        "type" : "artist",
        "uri" : "spotify:artist:5oTQhQkSBzwWKoJpZ9tZrB"
      } ],
      "disc_number" : 1,
      "duration_ms" : 271230,
      "explicit" : false,
      "external_ids" : {
        "isrc" : "KRB361564635"
      },
      "external_urls" : {
        "spotify" : "https://open.spotify.com/track/5GfnUrQTZ6yGh2bAOoWhp1"
      },
      "href" : "https://api.spotify.com/v1/tracks/5GfnUrQTZ6yGh2bAOoWhp1",
      "id" : "5GfnUrQTZ6yGh2bAOoWhp1",
      "is_local" : false,
      "is_playable" : true,
      "name" : "Cast thy burden upon the Lord",
      "popularity" : 0,
      "preview_url" : "https://p.scdn.co/mp3-preview/59390867d17ea04422c641f2aaaa1ca0e7e95580?cid=774b29d4f13844c495f206cafdad9c86",
      "track_number" : 21,
      "type" : "track",
      "uri" : "spotify:track:5GfnUrQTZ6yGh2bAOoWhp1"
    }, {
      "album" : {
        "album_type" : "album",
        "artists" : [ {
          "external_urls" : {
            "spotify" : "https://open.spotify.com/artist/15WWcNQdZWCY1AAVPbZ6Hi"
          },
          "href" : "https://api.spotify.com/v1/artists/15WWcNQdZWCY1AAVPbZ6Hi",
          "id" : "15WWcNQdZWCY1AAVPbZ6Hi",
          "name" : "Utah Hymnal Association",
          "type" : "artist",
          "uri" : "spotify:artist:15WWcNQdZWCY1AAVPbZ6Hi"
        } ],
        "external_urls" : {
          "spotify" : "https://open.spotify.com/album/1f75XMmR8CgC5pLhKaVR5n"
        },
        "href" : "https://api.spotify.com/v1/albums/1f75XMmR8CgC5pLhKaVR5n",
        "id" : "1f75XMmR8CgC5pLhKaVR5n",
        "images" : [ {
          "height" : 640,
          "url" : "https://i.scdn.co/image/ab67616d0000b27339cbd4d5d028fd035e6594e4",
          "width" : 640
        }, {
          "height" : 300,
          "url" : "https://i.scdn.co/image/ab67616d00001e0239cbd4d5d028fd035e6594e4",
          "width" : 300
        }, {
          "height" : 64,
          "url" : "https://i.scdn.co/image/ab67616d0000485139cbd4d5d028fd035e6594e4",
          "width" : 64
        } ],
        "name" : "How Gentle God's Commands (Women)",
        "release_date" : "2016-03-01",
        "release_date_precision" : "day",
        "total_tracks" : 12,
        "type" : "album",
        "uri" : "spotify:album:1f75XMmR8CgC5pLhKaVR5n"
      },
      "artists" : [ {
        "external_urls" : {
          "spotify" : "https://open.spotify.com/artist/15WWcNQdZWCY1AAVPbZ6Hi"
        },
        "href" : "https://api.spotify.com/v1/artists/15WWcNQdZWCY1AAVPbZ6Hi",
        "id" : "15WWcNQdZWCY1AAVPbZ6Hi",
        "name" : "Utah Hymnal Association",
        "type" : "artist",
        "uri" : "spotify:artist:15WWcNQdZWCY1AAVPbZ6Hi"
      } ],
      "disc_number" : 1,
      "duration_ms" : 67750,
      "explicit" : false,
      "external_ids" : {
        "isrc" : "TCJPE1643866"
      },
      "external_urls" : {
        "spotify" : "https://open.spotify.com/track/3L7xWiTyLv9mtpSrborlrQ"
      },
      "href" : "https://api.spotify.com/v1/tracks/3L7xWiTyLv9mtpSrborlrQ",
      "id" : "3L7xWiTyLv9mtpSrborlrQ",
      "is_local" : false,
      "is_playable" : true,
      "name" : "Cast Thy Burden upon the Lord",
      "popularity" : 0,
      "preview_url" : "https://p.scdn.co/mp3-preview/2a12f0064128f43825ec22991f6c071393b6787b?cid=774b29d4f13844c495f206cafdad9c86",
      "track_number" : 3,
      "type" : "track",
      "uri" : "spotify:track:3L7xWiTyLv9mtpSrborlrQ"
    }, {
      "album" : {
        "album_type" : "album",
        "artists" : [ {
          "external_urls" : {
            "spotify" : "https://open.spotify.com/artist/15WWcNQdZWCY1AAVPbZ6Hi"
          },
          "href" : "https://api.spotify.com/v1/artists/15WWcNQdZWCY1AAVPbZ6Hi",
          "id" : "15WWcNQdZWCY1AAVPbZ6Hi",
          "name" : "Utah Hymnal Association",
          "type" : "artist",
          "uri" : "spotify:artist:15WWcNQdZWCY1AAVPbZ6Hi"
        } ],
        "external_urls" : {
          "spotify" : "https://open.spotify.com/album/2nPzehDONaBUZBcCXk202p"
        },
        "href" : "https://api.spotify.com/v1/albums/2nPzehDONaBUZBcCXk202p",
        "id" : "2nPzehDONaBUZBcCXk202p",
        "images" : [ {
          "height" : 640,
          "url" : "https://i.scdn.co/image/ab67616d0000b273ec20031d166b5c8778cf1d77",
          "width" : 640
        }, {
          "height" : 300,
          "url" : "https://i.scdn.co/image/ab67616d00001e02ec20031d166b5c8778cf1d77",
          "width" : 300
        }, {
          "height" : 64,
          "url" : "https://i.scdn.co/image/ab67616d00004851ec20031d166b5c8778cf1d77",
          "width" : 64
        } ],
        "name" : "Abide with Me!",
        "release_date" : "2016-03-01",
        "release_date_precision" : "day",
        "total_tracks" : 17,
        "type" : "album",
        "uri" : "spotify:album:2nPzehDONaBUZBcCXk202p"
      },
      "artists" : [ {
        "external_urls" : {
          "spotify" : "https://open.spotify.com/artist/15WWcNQdZWCY1AAVPbZ6Hi"
        },
        "href" : "https://api.spotify.com/v1/artists/15WWcNQdZWCY1AAVPbZ6Hi",
        "id" : "15WWcNQdZWCY1AAVPbZ6Hi",
        "name" : "Utah Hymnal Association",
        "type" : "artist",
        "uri" : "spotify:artist:15WWcNQdZWCY1AAVPbZ6Hi"
      } ],
      "disc_number" : 1,
      "duration_ms" : 67550,
      "explicit" : false,
      "external_ids" : {
        "isrc" : "TCJPE1643707"
      },
      "external_urls" : {
        "spotify" : "https://open.spotify.com/track/79hZH0ONmLllqzXfgnxBCh"
      },
      "href" : "https://api.spotify.com/v1/tracks/79hZH0ONmLllqzXfgnxBCh",
      "id" : "79hZH0ONmLllqzXfgnxBCh",
      "is_local" : false,
      "is_playable" : true,
      "name" : "Cast Thy Burden upon the Lord",
      "popularity" : 0,
      "preview_url" : "https://p.scdn.co/mp3-preview/e2602beb04284aadf36d204f7db6f2691b11f1e1?cid=774b29d4f13844c495f206cafdad9c86",
      "track_number" : 3,
      "type" : "track",
      "uri" : "spotify:track:79hZH0ONmLllqzXfgnxBCh"
    }, {
      "album" : {
        "album_type" : "album",
        "artists" : [ {
          "external_urls" : {
            "spotify" : "https://open.spotify.com/artist/15WWcNQdZWCY1AAVPbZ6Hi"
          },
          "href" : "https://api.spotify.com/v1/artists/15WWcNQdZWCY1AAVPbZ6Hi",
          "id" : "15WWcNQdZWCY1AAVPbZ6Hi",
          "name" : "Utah Hymnal Association",
          "type" : "artist",
          "uri" : "spotify:artist:15WWcNQdZWCY1AAVPbZ6Hi"
        } ],
        "external_urls" : {
          "spotify" : "https://open.spotify.com/album/09PVqZMTVm7XIZpiFOU4p4"
        },
        "href" : "https://api.spotify.com/v1/albums/09PVqZMTVm7XIZpiFOU4p4",
        "id" : "09PVqZMTVm7XIZpiFOU4p4",
        "images" : [ {
          "height" : 640,
          "url" : "https://i.scdn.co/image/ab67616d0000b273d4fe16c9317c919268272e03",
          "width" : 640
        }, {
          "height" : 300,
          "url" : "https://i.scdn.co/image/ab67616d00001e02d4fe16c9317c919268272e03",
          "width" : 300
        }, {
          "height" : 64,
          "url" : "https://i.scdn.co/image/ab67616d00004851d4fe16c9317c919268272e03",
          "width" : 64
        } ],
        "name" : "Jesus, Savior, Pilot Me",
        "release_date" : "2016-03-01",
        "release_date_precision" : "day",
        "total_tracks" : 13,
        "type" : "album",
        "uri" : "spotify:album:09PVqZMTVm7XIZpiFOU4p4"
      },
      "artists" : [ {
        "external_urls" : {
          "spotify" : "https://open.spotify.com/artist/15WWcNQdZWCY1AAVPbZ6Hi"
        },
        "href" : "https://api.spotify.com/v1/artists/15WWcNQdZWCY1AAVPbZ6Hi",
        "id" : "15WWcNQdZWCY1AAVPbZ6Hi",
        "name" : "Utah Hymnal Association",
        "type" : "artist",
        "uri" : "spotify:artist:15WWcNQdZWCY1AAVPbZ6Hi"
      } ],
      "disc_number" : 1,
      "duration_ms" : 67650,
      "explicit" : false,
      "external_ids" : {
        "isrc" : "TCJPE1643805"
      },
      "external_urls" : {
        "spotify" : "https://open.spotify.com/track/06tH8DChsIizwdxbrKTCqC"
      },
      "href" : "https://api.spotify.com/v1/tracks/06tH8DChsIizwdxbrKTCqC",
      "id" : "06tH8DChsIizwdxbrKTCqC",
      "is_local" : false,
      "is_playable" : true,
      "name" : "Cast Thy Burden upon the Lord",
      "popularity" : 0,
      "preview_url" : "https://p.scdn.co/mp3-preview/3361c0b758d46637da99d68515302efc6b9c3e6e?cid=774b29d4f13844c495f206cafdad9c86",
      "track_number" : 1,
      "type" : "track",
      "uri" : "spotify:track:06tH8DChsIizwdxbrKTCqC"
    }, {
      "album" : {
        "album_type" : "album",
        "artists" : [ {
          "external_urls" : {
            "spotify" : "https://open.spotify.com/artist/5kRYFY7Ym2YZETN0GNKXNV"
          },
          "href" : "https://api.spotify.com/v1/artists/5kRYFY7Ym2YZETN0GNKXNV",
          "id" : "5kRYFY7Ym2YZETN0GNKXNV",
          "name" : "The Choir Girl Trio",
          "type" : "artist",
          "uri" : "spotify:artist:5kRYFY7Ym2YZETN0GNKXNV"
        } ],
        "external_urls" : {
          "spotify" : "https://open.spotify.com/album/4bvMecM23F4iPsyAKkqwVn"
        },
        "href" : "https://api.spotify.com/v1/albums/4bvMecM23F4iPsyAKkqwVn",
        "id" : "4bvMecM23F4iPsyAKkqwVn",
        "images" : [ {
          "height" : 640,
          "url" : "https://i.scdn.co/image/ab67616d0000b2739573b68d2ecdd084ed45933b",
          "width" : 640
        }, {
          "height" : 300,
          "url" : "https://i.scdn.co/image/ab67616d00001e029573b68d2ecdd084ed45933b",
          "width" : 300
        }, {
          "height" : 64,
          "url" : "https://i.scdn.co/image/ab67616d000048519573b68d2ecdd084ed45933b",
          "width" : 64
        } ],
        "name" : "Anthems and Carols, Vol. 3",
        "release_date" : "2018-05-15",
        "release_date_precision" : "day",
        "total_tracks" : 14,
        "type" : "album",
        "uri" : "spotify:album:4bvMecM23F4iPsyAKkqwVn"
      },
      "artists" : [ {
        "external_urls" : {
          "spotify" : "https://open.spotify.com/artist/5kRYFY7Ym2YZETN0GNKXNV"
        },
        "href" : "https://api.spotify.com/v1/artists/5kRYFY7Ym2YZETN0GNKXNV",
        "id" : "5kRYFY7Ym2YZETN0GNKXNV",
        "name" : "The Choir Girl Trio",
        "type" : "artist",
        "uri" : "spotify:artist:5kRYFY7Ym2YZETN0GNKXNV"
      } ],
      "disc_number" : 1,
      "duration_ms" : 84866,
      "explicit" : false,
      "external_ids" : {
        "isrc" : "DEU470001510"
      },
      "external_urls" : {
        "spotify" : "https://open.spotify.com/track/6qOXZZaOU0nGgSC7OhBPlP"
      },
      "href" : "https://api.spotify.com/v1/tracks/6qOXZZaOU0nGgSC7OhBPlP",
      "id" : "6qOXZZaOU0nGgSC7OhBPlP",
      "is_local" : false,
      "is_playable" : true,
      "name" : "Cast Thy Burden Upon the Lord",
      "popularity" : 0,
      "preview_url" : "https://p.scdn.co/mp3-preview/248e89c8d40e846a21dd30548742d608f542850d?cid=774b29d4f13844c495f206cafdad9c86",
      "track_number" : 3,
      "type" : "track",
      "uri" : "spotify:track:6qOXZZaOU0nGgSC7OhBPlP"
    } ],
    "limit" : 10,
    "next" : "https://api.spotify.com/v1/search?query=Cast+Thy+Burden+Upon+the+Lord&type=track&market=US&offset=15&limit=10",
    "offset" : 5,
    "previous" : "https://api.spotify.com/v1/search?query=Cast+Thy+Burden+Upon+the+Lord&type=track&market=US&offset=0&limit=10",
    "total" : 40
  }
}