{
  "tracks" : {
    "href" : "https://api.spotify.com/v1/search?query=Beautiful+Zion&type=track&market=US&offset=5&limit=10",
    "items" : [ {
      "album" : {
        "album_type" : "album",
        "artists" : [ {
          "external_urls" : {
            "spotify" : "https://open.spotify.com/artist/4EtFJdpo913lJPnRHmDzmE"
          },
          "href" : "https://api.spotify.com/v1/artists/4EtFJdpo913lJPnRHmDzmE",
          "id" : "4EtFJdpo913lJPnRHmDzmE",
          "name" : "America the Beautiful",
          "type" : "artist",
          "uri" : "spotify:artist:4EtFJdpo913lJPnRHmDzmE"
        } ],
        "external_urls" : {
          "spotify" : "https://open.spotify.com/album/4gKPDQIgWpr13qxIF9kTv7"
        },
        "href" : "https://api.spotify.com/v1/albums/4gKPDQIgWpr13qxIF9kTv7",
        "id" : "4gKPDQIgWpr13qxIF9kTv7",
        "images" : [ {
          "height" : 640,
          "url" : "https://i.scdn.co/image/ab67616d0000b273aaa44444ba6f1f76070bdfb4",
          "width" : 640
        }, {
          "height" : 300,
          "url" : "https://i.scdn.co/image/ab67616d00001e02aaa44444ba6f1f76070bdfb4",
          "width" : 300
        }, {
          "height" : 64,
          "url" : "https://i.scdn.co/image/ab67616d00004851aaa44444ba6f1f76070bdfb4",
          "width" : 64
        } ],
        "name" : "Zion",
        "release_date" : "2019-11-06",
        "release_date_precision" : "day",
        "total_tracks" : 22,
        "type" : "album",
        "uri" : "spotify:album:4gKPDQIgWpr13qxIF9kTv7"
      },
      "artists" : [ {
        "external_urls" : {
          "spotify" : "https://open.spotify.com/artist/4EtFJdpo913lJPnRHmDzmE"
        },
        "href" : "https://api.spotify.com/v1/artists/4EtFJdpo913lJPnRHmDzmE",
        "id" : "4EtFJdpo913lJPnRHmDzmE",
        "name" : "America the Beautiful",
        "type" : "artist",
        "uri" : "spotify:artist:4EtFJdpo913lJPnRHmDzmE"
      } ],
      "disc_number" : 1,
      "duration_ms" : 62415,
      "explicit" : false,
      "external_ids" : {
        "isrc" : "USA2P1954221"
      },
      "external_urls" : {
        "spotify" : "https://open.spotify.com/track/5Ife9Rhd1Uz3CW1pGlppIg"
      },
      "href" : "https://api.spotify.com/v1/tracks/5Ife9Rhd1Uz3CW1pGlppIg",
      "id" : "5Ife9Rhd1Uz3CW1pGlppIg",
      "is_local" : false,
      "is_playable" : true,
      "name" : "Virgin River",
      "popularity" : 13,
      "preview_url" : "https://p.scdn.co/mp3-preview/9826779ffb8ef2e65586b393d6def89a7fd00e6f?cid=774b29d4f13844c495f206cafdad9c86",
      "track_number" : 21,
      "type" : "track",
      "uri" : "spotify:track:5Ife9Rhd1Uz3CW1pGlppIg"
    }, {
      "album" : {
        "album_type" : "album",
        "artists" : [ {
          "external_urls" : {
            "spotify" : "https://open.spotify.com/artist/4EtFJdpo913lJPnRHmDzmE"
          },
          "href" : "https://api.spotify.com/v1/artists/4EtFJdpo913lJPnRHmDzmE",
          "id" : "4EtFJdpo913lJPnRHmDzmE",
          "name" : "America the Beautiful",
          "type" : "artist",
          "uri" : "spotify:artist:4EtFJdpo913lJPnRHmDzmE"
        } ],
        "external_urls" : {
          "spotify" : "https://open.spotify.com/album/4gKPDQIgWpr13qxIF9kTv7"
        },
        "href" : "https://api.spotify.com/v1/albums/4gKPDQIgWpr13qxIF9kTv7",
        "id" : "4gKPDQIgWpr13qxIF9kTv7",
        "images" : [ {
          "height" : 640,
          "url" : "https://i.scdn.co/image/ab67616d0000b273aaa44444ba6f1f76070bdfb4",
          "width" : 640
        }, {
          "height" : 300,
          "url" : "https://i.scdn.co/image/ab67616d00001e02aaa44444ba6f1f76070bdfb4",
          "width" : 300
        }, {
          "height" : 64,
          "url" : "https://i.scdn.co/image/ab67616d00004851aaa44444ba6f1f76070bdfb4",
          "width" : 64
        } ],
        "name" : "Zion",
        "release_date" : "2019-11-06",
        "release_date_precision" : "day",
        "total_tracks" : 22,
        "type" : "album",
        "uri" : "spotify:album:4gKPDQIgWpr13qxIF9kTv7"
      },
      "artists" : [ {
        "external_urls" : {
          "spotify" : "https://open.spotify.com/artist/4EtFJdpo913lJPnRHmDzmE"
        },
        "href" : "https://api.spotify.com/v1/artists/4EtFJdpo913lJPnRHmDzmE",
        "id" : "4EtFJdpo913lJPnRHmDzmE",
        "name" : "America the Beautiful",
        "type" : "artist",
        "uri" : "spotify:artist:4EtFJdpo913lJPnRHmDzmE"
      } ],
      "disc_number" : 1,
      "duration_ms" : 60929,
      "explicit" : false,
      "external_ids" : {
        "isrc" : "USA2P1954218"
      },
      "external_urls" : {
        "spotify" : "https://open.spotify.com/track/7brjQyccPKyNbQfs3keYqy"
      },
      "href" : "https://api.spotify.com/v1/tracks/7brjQyccPKyNbQfs3keYqy",
      "id" : "7brjQyccPKyNbQfs3keYqy",
      "is_local" : false,
      "is_playable" : true,
      "name" : "The Narrows",
      "popularity" : 12,
      "preview_url" : "https://p.scdn.co/mp3-preview/92fd56a67ba3302962d5384c2ce8cba96bfc8610?cid=774b29d4f13844c495f206cafdad9c86",
      "track_number" : 18,
      "type" : "track",
      "uri" : "spotify:track:7brjQyccPKyNbQfs3keYqy"
    }, {
      "album" : {
        "album_type" : "album",
        "artists" : [ {
          "external_urls" : {
            "spotify" : "https://open.spotify.com/artist/4EtFJdpo913lJPnRHmDzmE"
          },
          "href" : "https://api.spotify.com/v1/artists/4EtFJdpo913lJPnRHmDzmE",
          "id" : "4EtFJdpo913lJPnRHmDzmE",
          "name" : "America the Beautiful",
          "type" : "artist",
          "uri" : "spotify:artist:4EtFJdpo913lJPnRHmDzmE"
        } ],
        "external_urls" : {
          "spotify" : "https://open.spotify.com/album/4gKPDQIgWpr13qxIF9kTv7"
        },
        "href" : "https://api.spotify.com/v1/albums/4gKPDQIgWpr13qxIF9kTv7",
        "id" : "4gKPDQIgWpr13qxIF9kTv7",
        "images" : [ {
          "height" : 640,
          "url" : "https://i.scdn.co/image/ab67616d0000b273aaa44444ba6f1f76070bdfb4",
          "width" : 640
        }, {
          "height" : 300,
          "url" : "https://i.scdn.co/image/ab67616d00001e02aaa44444ba6f1f76070bdfb4",
          "width" : 300
        }, {
          "height" : 64,
          "url" : "https://i.scdn.co/image/ab67616d00004851aaa44444ba6f1f76070bdfb4",
          "width" : 64
        } ],
        "name" : "Zion",
        "release_date" : "2019-11-06",
        "release_date_precision" : "day",
        "total_tracks" : 22,
        "type" : "album",
        "uri" : "spotify:album:4gKPDQIgWpr13qxIF9kTv7"
      },
      "artists" : [ {
        "external_urls" : {
          "spotify" : "https://open.spotify.com/artist/4EtFJdpo913lJPnRHmDzmE"
        },
        "href" : "https://api.spotify.com/v1/artists/4EtFJdpo913lJPnRHmDzmE",
        "id" : "4EtFJdpo913lJPnRHmDzmE",
        "name" : "America the Beautiful",
        "type" : "artist",
        "uri" : "spotify:artist:4EtFJdpo913lJPnRHmDzmE"
      } ],
      "disc_number" : 1,
      "duration_ms" : 62415,
      "explicit" : false,
      "external_ids" : {
        "isrc" : "USA2P1954210"
      },
      "external_urls" : {
        "spotify" : "https://open.spotify.com/track/0NER16abCqeMQybsjsTLaO"
      },
      "href" : "https://api.spotify.com/v1/tracks/0NER16abCqeMQybsjsTLaO",
      "id" : "0NER16abCqeMQybsjsTLaO",
      "is_local" : false,
      "is_playable" : true,
      "name" : "Coalpits Wash",
      "popularity" : 12,
      "preview_url" : "https://p.scdn.co/mp3-preview/b6a7ee07a2fcdc03aa55da2668a1c85a3d2fa840?cid=774b29d4f13844c495f206cafdad9c86",
      "track_number" : 10,
      "type" : "track",
      "uri" : "spotify:track:0NER16abCqeMQybsjsTLaO"
    }, {
      "album" : {
        "album_type" : "album",
        "artists" : [ {
          "external_urls" : {
            "spotify" : "https://open.spotify.com/artist/4EtFJdpo913lJPnRHmDzmE"
          },
          "href" : "https://api.spotify.com/v1/artists/4EtFJdpo913lJPnRHmDzmE",
          "id" : "4EtFJdpo913lJPnRHmDzmE",
          "name" : "America the Beautiful",
          "type" : "artist",
          "uri" : "spotify:artist:4EtFJdpo913lJPnRHmDzmE"
        } ],
        "external_urls" : {
          "spotify" : "https://open.spotify.com/album/4gKPDQIgWpr13qxIF9kTv7"
        },
        "href" : "https://api.spotify.com/v1/albums/4gKPDQIgWpr13qxIF9kTv7",
        "id" : "4gKPDQIgWpr13qxIF9kTv7",
        "images" : [ {
          "height" : 640,
          "url" : "https://i.scdn.co/image/ab67616d0000b273aaa44444ba6f1f76070bdfb4",
          "width" : 640
        }, {
          "height" : 300,
          "url" : "https://i.scdn.co/image/ab67616d00001e02aaa44444ba6f1f76070bdfb4",
          "width" : 300
        }, {
          "height" : 64,
          "url" : "https://i.scdn.co/image/ab67616d00004851aaa44444ba6f1f76070bdfb4",
          "width" : 64
        } ],
        "name" : "Zion",
        "release_date" : "2019-11-06",
        "release_date_precision" : "day",
        "total_tracks" : 22,
        "type" : "album",
        "uri" : "spotify:album:4gKPDQIgWpr13qxIF9kTv7"
      },
      "artists" : [ {
        "external_urls" : {
          "spotify" : "https://open.spotify.com/artist/4EtFJdpo913lJPnRHmDzmE"
        },
        "href" : "https://api.spotify.com/v1/artists/4EtFJdpo913lJPnRHmDzmE",
        "id" : "4EtFJdpo913lJPnRHmDzmE",
        "name" : "America the Beautiful",
        "type" : "artist",
        "uri" : "spotify:artist:4EtFJdpo913lJPnRHmDzmE"
      } ],
      "disc_number" : 1,
      "duration_ms" : 63901,
      "explicit" : false,
      "external_ids" : {
        "isrc" : "USA2P1954203"
      },
      "external_urls" : {
        "spotify" : "https://open.spotify.com/track/2gipsFdZd2F2jlb6wbawiK"
      },
      "href" : "https://api.spotify.com/v1/tracks/2gipsFdZd2F2jlb6wbawiK",
      "id" : "2gipsFdZd2F2jlb6wbawiK",
      "is_local" : false,
      "is_playable" : true,
      "name" : "Ansel",
      "popularity" : 11,
      "preview_url" : "https://p.scdn.co/mp3-preview/e810726155d5257efa215a3856bd81dcf30c2e75?cid=774b29d4f13844c495f206cafdad9c86",
      "track_number" : 3,
      "type" : "track",
      "uri" : "spotify:track:2gipsFdZd2F2jlb6wbawiK"
    }, {
      "album" : {
        "album_type" : "album",
        "artists" : [ {
          "external_urls" : {
            "spotify" : "https://open.spotify.com/artist/4EtFJdpo913lJPnRHmDzmE"
          },
          "href" : "https://api.spotify.com/v1/artists/4EtFJdpo913lJPnRHmDzmE",
          "id" : "4EtFJdpo913lJPnRHmDzmE",
          "name" : "America the Beautiful",
          "type" : "artist",
          "uri" : "spotify:artist:4EtFJdpo913lJPnRHmDzmE"
        } ],
        "external_urls" : {
          "spotify" : "https://open.spotify.com/album/4gKPDQIgWpr13qxIF9kTv7"
        },
        "href" : "https://api.spotify.com/v1/albums/4gKPDQIgWpr13qxIF9kTv7",
        "id" : "4gKPDQIgWpr13qxIF9kTv7",
        "images" : [ {
          "height" : 640,
          "url" : "https://i.scdn.co/image/ab67616d0000b273aaa44444ba6f1f76070bdfb4",
          "width" : 640
        }, {
          "height" : 300,
          "url" : "https://i.scdn.co/image/ab67616d00001e02aaa44444ba6f1f76070bdfb4",
          "width" : 300
        }, {
          "height" : 64,
          "url" : "https://i.scdn.co/image/ab67616d00004851aaa44444ba6f1f76070bdfb4",
          "width" : 64
        } ],
        "name" : "Zion",
        "release_date" : "2019-11-06",
        "release_date_precision" : "day",
        "total_tracks" : 22,
        "type" : "album",
        "uri" : "spotify:album:4gKPDQIgWpr13qxIF9kTv7"
      },
      "artists" : [ {
        "external_urls" : {
          "spotify" : "https://open.spotify.com/artist/4EtFJdpo913lJPnRHmDzmE"
        },
        "href" : "https://api.spotify.com/v1/artists/4EtFJdpo913lJPnRHmDzmE",
        "id" : "4EtFJdpo913lJPnRHmDzmE",
        "name" : "America the Beautiful",
        "type" : "artist",
        "uri" : "spotify:artist:4EtFJdpo913lJPnRHmDzmE"
      } ],
      "disc_number" : 1,
      "duration_ms" : 37151,
      "explicit" : false,
      "external_ids" : {
        "isrc" : "USA2P1954206"
      },
      "external_urls" : {
        "spotify" : "https://open.spotify.com/track/5ELEY8tWWl5gkvj6hlDEj0"
      },
      "href" : "https://api.spotify.com/v1/tracks/5ELEY8tWWl5gkvj6hlDEj0",
      "id" : "5ELEY8tWWl5gkvj6hlDEj0",
      "is_local" : false,
      "is_playable" : true,
      "name" : "Great Basin",
      "popularity" : 11,
      "preview_url" : "https://p.scdn.co/mp3-preview/dfe983b6345d3a192e01ee20ac9c19d86f634c24?cid=774b29d4f13844c495f206cafdad9c86",
      "track_number" : 6,
      "type" : "track",
      "uri" : "spotify:track:5ELEY8tWWl5gkvj6hlDEj0"
    }, {
      "album" : {
        "album_type" : "album",
        "artists" : [ {
          "external_urls" : {
            "spotify" : "https://open.spotify.com/artist/4EtFJdpo913lJPnRHmDzmE"
          },
          "href" : "https://api.spotify.com/v1/artists/4EtFJdpo913lJPnRHmDzmE",
          "id" : "4EtFJdpo913lJPnRHmDzmE",
          "name" : "America the Beautiful",
          "type" : "artist",
          "uri" : "spotify:artist:4EtFJdpo913lJPnRHmDzmE"
        } ],
        "external_urls" : {
          "spotify" : "https://open.spotify.com/album/4gKPDQIgWpr13qxIF9kTv7"
        },
        "href" : "https://api.spotify.com/v1/albums/4gKPDQIgWpr13qxIF9kTv7",
        "id" : "4gKPDQIgWpr13qxIF9kTv7",
        "images" : [ {
          "height" : 640,
          "url" : "https://i.scdn.co/image/ab67616d0000b273aaa44444ba6f1f76070bdfb4",
          "width" : 640
        }, {
          "height" : 300,
          "url" : "https://i.scdn.co/image/ab67616d00001e02aaa44444ba6f1f76070bdfb4",
          "width" : 300
        }, {
          "height" : 64,
          "url" : "https://i.scdn.co/image/ab67616d00004851aaa44444ba6f1f76070bdfb4",
          "width" : 64
        } ],
        "name" : "Zion",
        "release_date" : "2019-11-06",
        "release_date_precision" : "day",
        "total_tracks" : 22,
        "type" : "album",
        "uri" : "spotify:album:4gKPDQIgWpr13qxIF9kTv7"
      },
      "artists" : [ {
        "external_urls" : {
          "spotify" : "https://open.spotify.com/artist/4EtFJdpo913lJPnRHmDzmE"
        },
        "href" : "https://api.spotify.com/v1/artists/4EtFJdpo913lJPnRHmDzmE",
        "id" : "4EtFJdpo913lJPnRHmDzmE",
        "name" : "America the Beautiful",
        "type" : "artist",
        "uri" : "spotify:artist:4EtFJdpo913lJPnRHmDzmE"
      } ],
      "disc_number" : 1,
      "duration_ms" : 62415,
      "explicit" : false,
      "external_ids" : {
        "isrc" : "USA2P1954213"
      },
      "external_urls" : {
        "spotify" : "https://open.spotify.com/track/25F3WgckUTmutaeJF4t4a5"
      },
      "href" : "https://api.spotify.com/v1/tracks/25F3WgckUTmutaeJF4t4a5",
      "id" : "25F3WgckUTmutaeJF4t4a5",
      "is_local" : false,
      "is_playable" : true,
      "name" : "Kolon Arch",
      "popularity" : 11,
      "preview_url" : "https://p.scdn.co/mp3-preview/efb5142d67848addab0ed9d9eb18dd9c97d8f164?cid=774b29d4f13844c495f206cafdad9c86",
      "track_number" : 13,
      "type" : "track",
      "uri" : "spotify:track:25F3WgckUTmutaeJF4t4a5"
    }, {
      "album" : {
        "album_type" : "album",
        "artists" : [ {
          "external_urls" : {
            "spotify" : "https://open.spotify.com/artist/4EtFJdpo913lJPnRHmDzmE"
          },
          "href" : "https://api.spotify.com/v1/artists/4EtFJdpo913lJPnRHmDzmE",
          "id" : "4EtFJdpo913lJPnRHmDzmE",
          "name" : "America the Beautiful",
          "type" : "artist",
          "uri" : "spotify:artist:4EtFJdpo913lJPnRHmDzmE"
        } ],
        "external_urls" : {
          "spotify" : "https://open.spotify.com/album/4gKPDQIgWpr13qxIF9kTv7"
        },
        "href" : "https://api.spotify.com/v1/albums/4gKPDQIgWpr13qxIF9kTv7",
        "id" : "4gKPDQIgWpr13qxIF9kTv7",
        "images" : [ {
          "height" : 640,
          "url" : "https://i.scdn.co/image/ab67616d0000b273aaa44444ba6f1f76070bdfb4",
          "width" : 640
        }, {
          "height" : 300,
          "url" : "https://i.scdn.co/image/ab67616d00001e02aaa44444ba6f1f76070bdfb4",
          "width" : 300
        }, {
          "height" : 64,
          "url" : "https://i.scdn.co/image/ab67616d00004851aaa44444ba6f1f76070bdfb4",
          "width" : 64
        } ],
        "name" : "Zion",
        "release_date" : "2019-11-06",
        "release_date_precision" : "day",
        "total_tracks" : 22,
        "type" : "album",
        "uri" : "spotify:album:4gKPDQIgWpr13qxIF9kTv7"
      },
      "artists" : [ {
        "external_urls" : {
          "spotify" : "https://open.spotify.com/artist/4EtFJdpo913lJPnRHmDzmE"
        },
        "href" : "https://api.spotify.com/v1/artists/4EtFJdpo913lJPnRHmDzmE",
        "id" : "4EtFJdpo913lJPnRHmDzmE",
        "name" : "America the Beautiful",
        "type" : "artist",
        "uri" : "spotify:artist:4EtFJdpo913lJPnRHmDzmE"
      } ],
      "disc_number" : 1,
      "duration_ms" : 37151,
      "explicit" : false,
      "external_ids" : {
        "isrc" : "USA2P1954207"
      },
      "external_urls" : {
        "spotify" : "https://open.spotify.com/track/6y3sMkSiTfCkOB5YTOwdyh"
      },
      "href" : "https://api.spotify.com/v1/tracks/6y3sMkSiTfCkOB5YTOwdyh",
      "id" : "6y3sMkSiTfCkOB5YTOwdyh",
      "is_local" : false,
      "is_playable" : true,
      "name" : "Emerald Pools",
      "popularity" : 10,
      "preview_url" : "https://p.scdn.co/mp3-preview/3451307fd447228d7b564e517f44f360fb025466?cid=774b29d4f13844c495f206cafdad9c86",
      "track_number" : 7,
      "type" : "track",
      "uri" : "spotify:track:6y3sMkSiTfCkOB5YTOwdyh"
    }, {
      "album" : {
        "album_type" : "album",
        "artists" : [ {
          "external_urls" : {
            "spotify" : "https://open.spotify.com/artist/4EtFJdpo913lJPnRHmDzmE"
          },
          "href" : "https://api.spotify.com/v1/artists/4EtFJdpo913lJPnRHmDzmE",
          "id" : "4EtFJdpo913lJPnRHmDzmE",
          "name" : "America the Beautiful",
          "type" : "artist",
          "uri" : "spotify:artist:4EtFJdpo913lJPnRHmDzmE"
        } ],
        "external_urls" : {
          "spotify" : "https://open.spotify.com/album/4gKPDQIgWpr13qxIF9kTv7"
        },
        "href" : "https://api.spotify.com/v1/albums/4gKPDQIgWpr13qxIF9kTv7",
        "id" : "4gKPDQIgWpr13qxIF9kTv7",
        "images" : [ {
          "height" : 640,
          "url" : "https://i.scdn.co/image/ab67616d0000b273aaa44444ba6f1f76070bdfb4",
          "width" : 640
        }, {
          "height" : 300,
          "url" : "https://i.scdn.co/image/ab67616d00001e02aaa44444ba6f1f76070bdfb4",
          "width" : 300
        }, {
          "height" : 64,
          "url" : "https://i.scdn.co/image/ab67616d00004851aaa44444ba6f1f76070bdfb4",
          "width" : 64
        } ],
        "name" : "Zion",
        "release_date" : "2019-11-06",
        "release_date_precision" : "day",
        "total_tracks" : 22,
        "type" : "album",
        "uri" : "spotify:album:4gKPDQIgWpr13qxIF9kTv7"
      },
      "artists" : [ {
        "external_urls" : {
          "spotify" : "https://open.spotify.com/artist/4EtFJdpo913lJPnRHmDzmE"
        },
        "href" : "https://api.spotify.com/v1/artists/4EtFJdpo913lJPnRHmDzmE",
        "id" : "4EtFJdpo913lJPnRHmDzmE",
        "name" : "America the Beautiful",
        "type" : "artist",
        "uri" : "spotify:artist:4EtFJdpo913lJPnRHmDzmE"
      } ],
      "disc_number" : 1,
      "duration_ms" : 71331,
      "explicit" : false,
      "external_ids" : {
        "isrc" : "USA2P1954211"
      },
      "external_urls" : {
        "spotify" : "https://open.spotify.com/track/0BI2DACm8YSwYXWTKJIJcY"
      },
      "href" : "https://api.spotify.com/v1/tracks/0BI2DACm8YSwYXWTKJIJcY",
      "id" : "0BI2DACm8YSwYXWTKJIJcY",
      "is_local" : false,
      "is_playable" : true,
      "name" : "Horse Ranch Mountain",
      "popularity" : 10,
      "preview_url" : "https://p.scdn.co/mp3-preview/30462b1a89cce4f4e898ba29380b30165444c43a?cid=774b29d4f13844c495f206cafdad9c86",
      "track_number" : 11,
      "type" : "track",
      "uri" : "spotify:track:0BI2DACm8YSwYXWTKJIJcY"
    }, {
      "album" : {
        "album_type" : "album",
        "artists" : [ {
          "external_urls" : {
            "spotify" : "https://open.spotify.com/artist/4EtFJdpo913lJPnRHmDzmE"
          },
          "href" : "https://api.spotify.com/v1/artists/4EtFJdpo913lJPnRHmDzmE",
          "id" : "4EtFJdpo913lJPnRHmDzmE",
          "name" : "America the Beautiful",
          "type" : "artist",
          "uri" : "spotify:artist:4EtFJdpo913lJPnRHmDzmE"
        } ],
        "external_urls" : {
          "spotify" : "https://open.spotify.com/album/4gKPDQIgWpr13qxIF9kTv7"
        },
        "href" : "https://api.spotify.com/v1/albums/4gKPDQIgWpr13qxIF9kTv7",
        "id" : "4gKPDQIgWpr13qxIF9kTv7",
        "images" : [ {
          "height" : 640,
          "url" : "https://i.scdn.co/image/ab67616d0000b273aaa44444ba6f1f76070bdfb4",
          "width" : 640
        }, {
          "height" : 300,
          "url" : "https://i.scdn.co/image/ab67616d00001e02aaa44444ba6f1f76070bdfb4",
          "width" : 300
        }, {
          "height" : 64,
          "url" : "https://i.scdn.co/image/ab67616d00004851aaa44444ba6f1f76070bdfb4",
          "width" : 64
        } ],
        "name" : "Zion",
        "release_date" : "2019-11-06",
        "release_date_precision" : "day",
        "total_tracks" : 22,
        "type" : "album",
        "uri" : "spotify:album:4gKPDQIgWpr13qxIF9kTv7"
      },
      "artists" : [ {
        "external_urls" : {
          "spotify" : "https://open.spotify.com/artist/4EtFJdpo913lJPnRHmDzmE"
        },
        "href" : "https://api.spotify.com/v1/artists/4EtFJdpo913lJPnRHmDzmE",
        "id" : "4EtFJdpo913lJPnRHmDzmE",
        "name" : "America the Beautiful",
        "type" : "artist",
        "uri" : "spotify:artist:4EtFJdpo913lJPnRHmDzmE"
      } ],
      "disc_number" : 1,
      "duration_ms" : 31458,
      "explicit" : false,
      "external_ids" : {
        "isrc" : "USA2P1954208"
      },
      "external_urls" : {
        "spotify" : "https://open.spotify.com/track/0HSOftKc7t4DW2TEyqice5"
      },
      "href" : "https://api.spotify.com/v1/tracks/0HSOftKc7t4DW2TEyqice5",
      "id" : "0HSOftKc7t4DW2TEyqice5",
      "is_local" : false,
      "is_playable" : true,
      "name" : "Basketmaker Anasazi",
      "popularity" : 10,
      "preview_url" : "https://p.scdn.co/mp3-preview/69fe595509cffb5621c4ac0506d8409452a90b68?cid=774b29d4f13844c495f206cafdad9c86",
      "track_number" : 8,
      "type" : "track",
      "uri" : "spotify:track:0HSOftKc7t4DW2TEyqice5"
    }, {
      "album" : {
        "album_type" : "album",
        "artists" : [ {
          "external_urls" : {
            "spotify" : "https://open.spotify.com/artist/4EtFJdpo913lJPnRHmDzmE"
          },
          "href" : "https://api.spotify.com/v1/artists/4EtFJdpo913lJPnRHmDzmE",
          "id" : "4EtFJdpo913lJPnRHmDzmE",
          "name" : "America the Beautiful",
          "type" : "artist",
          "uri" : "spotify:artist:4EtFJdpo913lJPnRHmDzmE"
        } ],
        "external_urls" : {
          "spotify" : "https://open.spotify.com/album/4gKPDQIgWpr13qxIF9kTv7"
        },
        "href" : "https://api.spotify.com/v1/albums/4gKPDQIgWpr13qxIF9kTv7",
        "id" : "4gKPDQIgWpr13qxIF9kTv7",
        "images" : [ {
          "height" : 640,
          "url" : "https://i.scdn.co/image/ab67616d0000b273aaa44444ba6f1f76070bdfb4",
          "width" : 640
        }, {
          "height" : 300,
          "url" : "https://i.scdn.co/image/ab67616d00001e02aaa44444ba6f1f76070bdfb4",
          "width" : 300
        }, {
          "height" : 64,
          "url" : "https://i.scdn.co/image/ab67616d00004851aaa44444ba6f1f76070bdfb4",
          "width" : 64
        } ],
        "name" : "Zion",
        "release_date" : "2019-11-06",
        "release_date_precision" : "day",
        "total_tracks" : 22,
        "type" : "album",
        "uri" : "spotify:album:4gKPDQIgWpr13qxIF9kTv7"
      },
      "artists" : [ {
        "external_urls" : {
          "spotify" : "https://open.spotify.com/artist/4EtFJdpo913lJPnRHmDzmE"
        },
        "href" : "https://api.spotify.com/v1/artists/4EtFJdpo913lJPnRHmDzmE",
        "id" : "4EtFJdpo913lJPnRHmDzmE",
        "name" : "America the Beautiful",
        "type" : "artist",
        "uri" : "spotify:artist:4EtFJdpo913lJPnRHmDzmE"
      } ],
      "disc_number" : 1,
      "duration_ms" : 31207,
      "explicit" : false,
      "external_ids" : {
        "isrc" : "USA2P1954217"
      },
      "external_urls" : {
        "spotify" : "https://open.spotify.com/track/4leBqgkAcTKEB6P4xksdPb"
      },
      "href" : "https://api.spotify.com/v1/tracks/4leBqgkAcTKEB6P4xksdPb",
      "id" : "4leBqgkAcTKEB6P4xksdPb",
      "is_local" : false,
      "is_playable" : true,
      "name" : "Navajo Sandstone",
      "popularity" : 10,
      "preview_url" : "https://p.scdn.co/mp3-preview/3d189682e368309fc1e66816170d4e25c7b01310?cid=774b29d4f13844c495f206cafdad9c86",
      "track_number" : 17,
      "type" : "track",
      "uri" : "spotify:track:4leBqgkAcTKEB6P4xksdPb"
    } ],
    "limit" : 10,
    "next" : "https://api.spotify.com/v1/search?query=Beautiful+Zion&type=track&market=US&offset=15&limit=10",
    "offset" : 5,
    "previous" : "https://api.spotify.com/v1/search?query=Beautiful+Zion&type=track&market=US&offset=0&limit=10",
    "total" : 100
  }
}