{
  "tracks" : {
    "href" : "https://api.spotify.com/v1/search?query=Unto+the+Hills&type=track&market=US&offset=5&limit=10",
    "items" : [ {
      "album" : {
        "album_type" : "album",
        "artists" : [ {
          "external_urls" : {
            "spotify" : "https://open.spotify.com/artist/4R6Jhq9wfmkKUZe6Xl8mIT"
          },
          "href" : "https://api.spotify.com/v1/artists/4R6Jhq9wfmkKUZe6Xl8mIT",
          "id" : "4R6Jhq9wfmkKUZe6Xl8mIT",
          "name" : "Crown & Covenant",
          "type" : "artist",
          "uri" : "spotify:artist:4R6Jhq9wfmkKUZe6Xl8mIT"
        } ],
        "external_urls" : {
          "spotify" : "https://open.spotify.com/album/1t20gTc6V8FUYhoKbMP2mI"
        },
        "href" : "https://api.spotify.com/v1/albums/1t20gTc6V8FUYhoKbMP2mI",
        "id" : "1t20gTc6V8FUYhoKbMP2mI",
        "images" : [ {
          "height" : 640,
          "url" : "https://i.scdn.co/image/ab67616d0000b2732709e7962bde45a52366084a",
          "width" : 640
        }, {
          "height" : 300,
          "url" : "https://i.scdn.co/image/ab67616d00001e022709e7962bde45a52366084a",
          "width" : 300
        }, {
          "height" : 64,
          "url" : "https://i.scdn.co/image/ab67616d000048512709e7962bde45a52366084a",
          "width" : 64
        } ],
        "name" : "Ascent: Selections from the Book of Psalms for Worship",
        "release_date" : "2017-08-15",
        "release_date_precision" : "day",
        "total_tracks" : 30,
        "type" : "album",
        "uri" : "spotify:album:1t20gTc6V8FUYhoKbMP2mI"
      },
      "artists" : [ {
        "external_urls" : {
          "spotify" : "https://open.spotify.com/artist/4R6Jhq9wfmkKUZe6Xl8mIT"
        },
        "href" : "https://api.spotify.com/v1/artists/4R6Jhq9wfmkKUZe6Xl8mIT",
        "id" : "4R6Jhq9wfmkKUZe6Xl8mIT",
        "name" : "Crown & Covenant",
        "type" : "artist",
        "uri" : "spotify:artist:4R6Jhq9wfmkKUZe6Xl8mIT"
      } ],
      "disc_number" : 1,
      "duration_ms" : 166269,
      "explicit" : false,
      "external_ids" : {
        "isrc" : "ushm91905768"
      },
      "external_urls" : {
        "spotify" : "https://open.spotify.com/track/6W1MUpnMnjeYcFIi6aBwAN"
      },
      "href" : "https://api.spotify.com/v1/tracks/6W1MUpnMnjeYcFIi6aBwAN",
      "id" : "6W1MUpnMnjeYcFIi6aBwAN",
      "is_local" : false,
      "is_playable" : true,
      "name" : "Unto the Hills I Lift My Longing Eyes (Psalm 121c)",
      "popularity" : 9,
      "preview_url" : "https://p.scdn.co/mp3-preview/d6b9273df6a2294903026cab6d2a12b7ee86b383?cid=774b29d4f13844c495f206cafdad9c86",
      "track_number" : 5,
      "type" : "track",
      "uri" : "spotify:track:6W1MUpnMnjeYcFIi6aBwAN"
    }, {
      "album" : {
        "album_type" : "album",
        "artists" : [ {
          "external_urls" : {
            "spotify" : "https://open.spotify.com/artist/2yQZGNQJExPLfCB8kfTD88"
          },
          "href" : "https://api.spotify.com/v1/artists/2yQZGNQJExPLfCB8kfTD88",
          "id" : "2yQZGNQJExPLfCB8kfTD88",
          "name" : "Andrey Jackson",
          "type" : "artist",
          "uri" : "spotify:artist:2yQZGNQJExPLfCB8kfTD88"
        } ],
        "external_urls" : {
          "spotify" : "https://open.spotify.com/album/1liX9O3Yf1ioNrVX1A17G3"
        },
        "href" : "https://api.spotify.com/v1/albums/1liX9O3Yf1ioNrVX1A17G3",
        "id" : "1liX9O3Yf1ioNrVX1A17G3",
        "images" : [ {
          "height" : 640,
          "url" : "https://i.scdn.co/image/ab67616d0000b27334b48c44ab72c8dd99fd8f79",
          "width" : 640
        }, {
          "height" : 300,
          "url" : "https://i.scdn.co/image/ab67616d00001e0234b48c44ab72c8dd99fd8f79",
          "width" : 300
        }, {
          "height" : 64,
          "url" : "https://i.scdn.co/image/ab67616d0000485134b48c44ab72c8dd99fd8f79",
          "width" : 64
        } ],
        "name" : "Christian Psalms, Vol. 2, Organ Accompaniments (The Church Organist Series)",
        "release_date" : "2015-10-26",
        "release_date_precision" : "day",
        "total_tracks" : 34,
        "type" : "album",
        "uri" : "spotify:album:1liX9O3Yf1ioNrVX1A17G3"
      },
      "artists" : [ {
        "external_urls" : {
          "spotify" : "https://open.spotify.com/artist/2yQZGNQJExPLfCB8kfTD88"
        },
        "href" : "https://api.spotify.com/v1/artists/2yQZGNQJExPLfCB8kfTD88",
        "id" : "2yQZGNQJExPLfCB8kfTD88",
        "name" : "Andrey Jackson",
        "type" : "artist",
        "uri" : "spotify:artist:2yQZGNQJExPLfCB8kfTD88"
      } ],
      "disc_number" : 1,
      "duration_ms" : 221102,
      "explicit" : false,
      "external_ids" : {
        "isrc" : "GB-SMU-23-79781"
      },
      "external_urls" : {
        "spotify" : "https://open.spotify.com/track/43EAOCTvfdus92ggJRf1xk"
      },
      "href" : "https://api.spotify.com/v1/tracks/43EAOCTvfdus92ggJRf1xk",
      "id" : "43EAOCTvfdus92ggJRf1xk",
      "is_local" : false,
      "is_playable" : true,
      "name" : "Unto the Hills Around Do I Lift Up",
      "popularity" : 5,
      "preview_url" : "https://p.scdn.co/mp3-preview/afab73d76f1c9ff64758bd0368049cb383f0c21c?cid=774b29d4f13844c495f206cafdad9c86",
      "track_number" : 20,
      "type" : "track",
      "uri" : "spotify:track:43EAOCTvfdus92ggJRf1xk"
    }, {
      "album" : {
        "album_type" : "album",
        "artists" : [ {
          "external_urls" : {
            "spotify" : "https://open.spotify.com/artist/0hmhv5CTaXOilOf0hGeIvN"
          },
          "href" : "https://api.spotify.com/v1/artists/0hmhv5CTaXOilOf0hGeIvN",
          "id" : "0hmhv5CTaXOilOf0hGeIvN",
          "name" : "Philip Stopford",
          "type" : "artist",
          "uri" : "spotify:artist:0hmhv5CTaXOilOf0hGeIvN"
        }, {
          "external_urls" : {
            "spotify" : "https://open.spotify.com/artist/5HHmdq59IUvAtnnpD9V42U"
          },
          "href" : "https://api.spotify.com/v1/artists/5HHmdq59IUvAtnnpD9V42U",
          "id" : "5HHmdq59IUvAtnnpD9V42U",
          "name" : "The Eccesium Choir",
          "type" : "artist",
          "uri" : "spotify:artist:5HHmdq59IUvAtnnpD9V42U"
        }, {
          "external_urls" : {
            "spotify" : "https://open.spotify.com/artist/2qsqmBzsCPZMtmAz8JwCAu"
          },
          "href" : "https://api.spotify.com/v1/artists/2qsqmBzsCPZMtmAz8JwCAu",
          "id" : "2qsqmBzsCPZMtmAz8JwCAu",
          "name" : "The Ecclesium Choir",
          "type" : "artist",
          "uri" : "spotify:artist:2qsqmBzsCPZMtmAz8JwCAu"
        } ],
        "external_urls" : {
          "spotify" : "https://open.spotify.com/album/4iaFcyONPZ1IqnjFHhS7bz"
        },
        "href" : "https://api.spotify.com/v1/albums/4iaFcyONPZ1IqnjFHhS7bz",
        "id" : "4iaFcyONPZ1IqnjFHhS7bz",
        "images" : [ {
          "height" : 640,
          "url" : "https://i.scdn.co/image/ab67616d0000b27334826153ea16beac8044d97c",
          "width" : 640
        }, {
          "height" : 300,
          "url" : "https://i.scdn.co/image/ab67616d00001e0234826153ea16beac8044d97c",
          "width" : 300
        }, {
          "height" : 64,
          "url" : "https://i.scdn.co/image/ab67616d0000485134826153ea16beac8044d97c",
          "width" : 64
        } ],
        "name" : "Te Deum, Benedicite and Music for the Liturgy",
        "release_date" : "2012-07-07",
        "release_date_precision" : "day",
        "total_tracks" : 21,
        "type" : "album",
        "uri" : "spotify:album:4iaFcyONPZ1IqnjFHhS7bz"
      },
      "artists" : [ {
        "external_urls" : {
          "spotify" : "https://open.spotify.com/artist/0hmhv5CTaXOilOf0hGeIvN"
        },
        "href" : "https://api.spotify.com/v1/artists/0hmhv5CTaXOilOf0hGeIvN",
        "id" : "0hmhv5CTaXOilOf0hGeIvN",
        "name" : "Philip Stopford",
        "type" : "artist",
        "uri" : "spotify:artist:0hmhv5CTaXOilOf0hGeIvN"
      }, {
        "external_urls" : {
          "spotify" : "https://open.spotify.com/artist/2qsqmBzsCPZMtmAz8JwCAu"
        },
        "href" : "https://api.spotify.com/v1/artists/2qsqmBzsCPZMtmAz8JwCAu",
        "id" : "2qsqmBzsCPZMtmAz8JwCAu",
        "name" : "The Ecclesium Choir",
        "type" : "artist",
        "uri" : "spotify:artist:2qsqmBzsCPZMtmAz8JwCAu"
      } ],
      "disc_number" : 1,
      "duration_ms" : 324213,
      "explicit" : false,
      "external_ids" : {
        "isrc" : "GBXUX1208004"
      },
      "external_urls" : {
        "spotify" : "https://open.spotify.com/track/4qCMkDyPmGTEMAiIAmikEL"
      },
      "href" : "https://api.spotify.com/v1/tracks/4qCMkDyPmGTEMAiIAmikEL",
      "id" : "4qCMkDyPmGTEMAiIAmikEL",
      "is_local" : false,
      "is_playable" : true,
      "name" : "I Will Lift up Mine Eyes Unto the Hills",
      "popularity" : 7,
      "preview_url" : "https://p.scdn.co/mp3-preview/4a7c2ff00f329fc8c18f298efb933dc1282be3c6?cid=774b29d4f13844c495f206cafdad9c86",
      "track_number" : 4,
      "type" : "track",
      "uri" : "spotify:track:4qCMkDyPmGTEMAiIAmikEL"
    }, {
      "album" : {
        "album_type" : "album",
        "artists" : [ {
          "external_urls" : {
            "spotify" : "https://open.spotify.com/artist/64mXwTe92xIUKqJCTdfRnK"
          },
          "href" : "https://api.spotify.com/v1/artists/64mXwTe92xIUKqJCTdfRnK",
          "id" : "64mXwTe92xIUKqJCTdfRnK",
          "name" : "Musica Sacra",
          "type" : "artist",
          "uri" : "spotify:artist:64mXwTe92xIUKqJCTdfRnK"
        } ],
        "external_urls" : {
          "spotify" : "https://open.spotify.com/album/5BnghRkvV4DBw4vAgeH1mF"
        },
        "href" : "https://api.spotify.com/v1/albums/5BnghRkvV4DBw4vAgeH1mF",
        "id" : "5BnghRkvV4DBw4vAgeH1mF",
        "images" : [ {
          "height" : 640,
          "url" : "https://i.scdn.co/image/ab67616d0000b27343a818ef712ff3f8c3460d98",
          "width" : 640
        }, {
          "height" : 300,
          "url" : "https://i.scdn.co/image/ab67616d00001e0243a818ef712ff3f8c3460d98",
          "width" : 300
        }, {
          "height" : 64,
          "url" : "https://i.scdn.co/image/ab67616d0000485143a818ef712ff3f8c3460d98",
          "width" : 64
        } ],
        "name" : "Christian Hymns, Vol. 2: A Comprehensive Collection of Traditional Sacred Christian Songs and Psalms from the English Hymnal",
        "release_date" : "2016-03-04",
        "release_date_precision" : "day",
        "total_tracks" : 50,
        "type" : "album",
        "uri" : "spotify:album:5BnghRkvV4DBw4vAgeH1mF"
      },
      "artists" : [ {
        "external_urls" : {
          "spotify" : "https://open.spotify.com/artist/64mXwTe92xIUKqJCTdfRnK"
        },
        "href" : "https://api.spotify.com/v1/artists/64mXwTe92xIUKqJCTdfRnK",
        "id" : "64mXwTe92xIUKqJCTdfRnK",
        "name" : "Musica Sacra",
        "type" : "artist",
        "uri" : "spotify:artist:64mXwTe92xIUKqJCTdfRnK"
      } ],
      "disc_number" : 1,
      "duration_ms" : 126106,
      "explicit" : false,
      "external_ids" : {
        "isrc" : "TCACM1667500"
      },
      "external_urls" : {
        "spotify" : "https://open.spotify.com/track/3W7TxS6CX7Bk6ufvFpkDQ8"
      },
      "href" : "https://api.spotify.com/v1/tracks/3W7TxS6CX7Bk6ufvFpkDQ8",
      "id" : "3W7TxS6CX7Bk6ufvFpkDQ8",
      "is_local" : false,
      "is_playable" : true,
      "name" : "Unto the Hills Around Do I Lift Up",
      "popularity" : 3,
      "preview_url" : "https://p.scdn.co/mp3-preview/25acaa194e04385713ac61c9f550298a3f24d014?cid=774b29d4f13844c495f206cafdad9c86",
      "track_number" : 37,
      "type" : "track",
      "uri" : "spotify:track:3W7TxS6CX7Bk6ufvFpkDQ8"
    }, {
      "album" : {
        "album_type" : "album",
        "artists" : [ {
          "external_urls" : {
            "spotify" : "https://open.spotify.com/artist/1dDKUFwinr4kwEjiznLwdm"
          },
          "href" : "https://api.spotify.com/v1/artists/1dDKUFwinr4kwEjiznLwdm",
          "id" : "1dDKUFwinr4kwEjiznLwdm",
          "name" : "The Choir Of Westminster Abbey",
          "type" : "artist",
          "uri" : "spotify:artist:1dDKUFwinr4kwEjiznLwdm"
        }, {
          "external_urls" : {
            "spotify" : "https://open.spotify.com/artist/3jmWcWAykr5IzE2K2jaZwk"
          },
          "href" : "https://api.spotify.com/v1/artists/3jmWcWAykr5IzE2K2jaZwk",
          "id" : "3jmWcWAykr5IzE2K2jaZwk",
          "name" : "Martin Neary",
          "type" : "artist",
          "uri" : "spotify:artist:3jmWcWAykr5IzE2K2jaZwk"
        } ],
        "external_urls" : {
          "spotify" : "https://open.spotify.com/album/3WOIKl6XpBUbOVEAq9POch"
        },
        "href" : "https://api.spotify.com/v1/albums/3WOIKl6XpBUbOVEAq9POch",
        "id" : "3WOIKl6XpBUbOVEAq9POch",
        "images" : [ {
          "height" : 640,
          "url" : "https://i.scdn.co/image/ab67616d0000b273b54bda90cfc15a10281a94a4",
          "width" : 640
        }, {
          "height" : 300,
          "url" : "https://i.scdn.co/image/ab67616d00001e02b54bda90cfc15a10281a94a4",
          "width" : 300
        }, {
          "height" : 64,
          "url" : "https://i.scdn.co/image/ab67616d00004851b54bda90cfc15a10281a94a4",
          "width" : 64
        } ],
        "name" : "Psalms",
        "release_date" : "2005-02-07",
        "release_date_precision" : "day",
        "total_tracks" : 39,
        "type" : "album",
        "uri" : "spotify:album:3WOIKl6XpBUbOVEAq9POch"
      },
      "artists" : [ {
        "external_urls" : {
          "spotify" : "https://open.spotify.com/artist/55ttwiwq5HEeUlWjNQ02Ee"
        },
        "href" : "https://api.spotify.com/v1/artists/55ttwiwq5HEeUlWjNQ02Ee",
        "id" : "55ttwiwq5HEeUlWjNQ02Ee",
        "name" : "Henry Walford Davies",
        "type" : "artist",
        "uri" : "spotify:artist:55ttwiwq5HEeUlWjNQ02Ee"
      }, {
        "external_urls" : {
          "spotify" : "https://open.spotify.com/artist/1dDKUFwinr4kwEjiznLwdm"
        },
        "href" : "https://api.spotify.com/v1/artists/1dDKUFwinr4kwEjiznLwdm",
        "id" : "1dDKUFwinr4kwEjiznLwdm",
        "name" : "The Choir Of Westminster Abbey",
        "type" : "artist",
        "uri" : "spotify:artist:1dDKUFwinr4kwEjiznLwdm"
      }, {
        "external_urls" : {
          "spotify" : "https://open.spotify.com/artist/3jmWcWAykr5IzE2K2jaZwk"
        },
        "href" : "https://api.spotify.com/v1/artists/3jmWcWAykr5IzE2K2jaZwk",
        "id" : "3jmWcWAykr5IzE2K2jaZwk",
        "name" : "Martin Neary",
        "type" : "artist",
        "uri" : "spotify:artist:3jmWcWAykr5IzE2K2jaZwk"
      } ],
      "disc_number" : 2,
      "duration_ms" : 149000,
      "explicit" : false,
      "external_ids" : {
        "isrc" : "GBAYC9006565"
      },
      "external_urls" : {
        "spotify" : "https://open.spotify.com/track/2gPqCifUMRO7wsVWRICXZW"
      },
      "href" : "https://api.spotify.com/v1/tracks/2gPqCifUMRO7wsVWRICXZW",
      "id" : "2gPqCifUMRO7wsVWRICXZW",
      "is_local" : false,
      "is_playable" : true,
      "name" : "Psalm 121: I will lift up mine eyes unto the hills",
      "popularity" : 7,
      "preview_url" : "https://p.scdn.co/mp3-preview/26a89f88a4c8145f155a570365f33b579c85c88f?cid=774b29d4f13844c495f206cafdad9c86",
      "track_number" : 11,
      "type" : "track",
      "uri" : "spotify:track:2gPqCifUMRO7wsVWRICXZW"
    }, {
      "album" : {
        "album_type" : "album",
        "artists" : [ {
          "external_urls" : {
            "spotify" : "https://open.spotify.com/artist/3N006BDeLLe1MHZhNSdLf9"
          },
          "href" : "https://api.spotify.com/v1/artists/3N006BDeLLe1MHZhNSdLf9",
          "id" : "3N006BDeLLe1MHZhNSdLf9",
          "name" : "Ocean Hills Church",
          "type" : "artist",
          "uri" : "spotify:artist:3N006BDeLLe1MHZhNSdLf9"
        } ],
        "external_urls" : {
          "spotify" : "https://open.spotify.com/album/0gDRLhP6DpisFimutB6TNF"
        },
        "href" : "https://api.spotify.com/v1/albums/0gDRLhP6DpisFimutB6TNF",
        "id" : "0gDRLhP6DpisFimutB6TNF",
        "images" : [ {
          "height" : 640,
          "url" : "https://i.scdn.co/image/ab67616d0000b273a755a991b45f1ba8afe62948",
          "width" : 640
        }, {
          "height" : 300,
          "url" : "https://i.scdn.co/image/ab67616d00001e02a755a991b45f1ba8afe62948",
          "width" : 300
        }, {
          "height" : 64,
          "url" : "https://i.scdn.co/image/ab67616d00004851a755a991b45f1ba8afe62948",
          "width" : 64
        } ],
        "name" : "Unto the King",
        "release_date" : "2008-01-01",
        "release_date_precision" : "day",
        "total_tracks" : 12,
        "type" : "album",
        "uri" : "spotify:album:0gDRLhP6DpisFimutB6TNF"
      },
      "artists" : [ {
        "external_urls" : {
          "spotify" : "https://open.spotify.com/artist/3N006BDeLLe1MHZhNSdLf9"
        },
        "href" : "https://api.spotify.com/v1/artists/3N006BDeLLe1MHZhNSdLf9",
        "id" : "3N006BDeLLe1MHZhNSdLf9",
        "name" : "Ocean Hills Church",
        "type" : "artist",
        "uri" : "spotify:artist:3N006BDeLLe1MHZhNSdLf9"
      } ],
      "disc_number" : 1,
      "duration_ms" : 289506,
      "explicit" : false,
      "external_ids" : {
        "isrc" : "usl4q0834595"
      },
      "external_urls" : {
        "spotify" : "https://open.spotify.com/track/2kILCb4yZL8OXFq1JI4z4Z"
      },
      "href" : "https://api.spotify.com/v1/tracks/2kILCb4yZL8OXFq1JI4z4Z",
      "id" : "2kILCb4yZL8OXFq1JI4z4Z",
      "is_local" : false,
      "is_playable" : true,
      "name" : "In the Cross of Christ I Glory / It Is Well With My Soul",
      "popularity" : 4,
      "preview_url" : "https://p.scdn.co/mp3-preview/86fabdbe9f7e25281e56c073e84e514c60c3d614?cid=774b29d4f13844c495f206cafdad9c86",
      "track_number" : 8,
      "type" : "track",
      "uri" : "spotify:track:2kILCb4yZL8OXFq1JI4z4Z"
    }, {
      "album" : {
        "album_type" : "album",
        "artists" : [ {
          "external_urls" : {
            "spotify" : "https://open.spotify.com/artist/1nwRr6a8qOdf8j11tXwuBr"
          },
          "href" : "https://api.spotify.com/v1/artists/1nwRr6a8qOdf8j11tXwuBr",
          "id" : "1nwRr6a8qOdf8j11tXwuBr",
          "name" : "Heidi Loves Hymns",
          "type" : "artist",
          "uri" : "spotify:artist:1nwRr6a8qOdf8j11tXwuBr"
        } ],
        "external_urls" : {
          "spotify" : "https://open.spotify.com/album/2uameHsokpBHgzfbXtQMXR"
        },
        "href" : "https://api.spotify.com/v1/albums/2uameHsokpBHgzfbXtQMXR",
        "id" : "2uameHsokpBHgzfbXtQMXR",
        "images" : [ {
          "height" : 640,
          "url" : "https://i.scdn.co/image/ab67616d0000b2732979f586b6e2007b7bb90616",
          "width" : 640
        }, {
          "height" : 300,
          "url" : "https://i.scdn.co/image/ab67616d00001e022979f586b6e2007b7bb90616",
          "width" : 300
        }, {
          "height" : 64,
          "url" : "https://i.scdn.co/image/ab67616d000048512979f586b6e2007b7bb90616",
          "width" : 64
        } ],
        "name" : "Turquoise, Vol. 2",
        "release_date" : "2020-04-09",
        "release_date_precision" : "day",
        "total_tracks" : 15,
        "type" : "album",
        "uri" : "spotify:album:2uameHsokpBHgzfbXtQMXR"
      },
      "artists" : [ {
        "external_urls" : {
          "spotify" : "https://open.spotify.com/artist/1nwRr6a8qOdf8j11tXwuBr"
        },
        "href" : "https://api.spotify.com/v1/artists/1nwRr6a8qOdf8j11tXwuBr",
        "id" : "1nwRr6a8qOdf8j11tXwuBr",
        "name" : "Heidi Loves Hymns",
        "type" : "artist",
        "uri" : "spotify:artist:1nwRr6a8qOdf8j11tXwuBr"
      } ],
      "disc_number" : 1,
      "duration_ms" : 189346,
      "explicit" : false,
      "external_ids" : {
        "isrc" : "CAIQP1900020"
      },
      "external_urls" : {
        "spotify" : "https://open.spotify.com/track/4PkuojnVAXPTMxRjnAvfyM"
      },
      "href" : "https://api.spotify.com/v1/tracks/4PkuojnVAXPTMxRjnAvfyM",
      "id" : "4PkuojnVAXPTMxRjnAvfyM",
      "is_local" : false,
      "is_playable" : true,
      "name" : "Unto the Hills",
      "popularity" : 0,
      "preview_url" : "https://p.scdn.co/mp3-preview/fb916548491400d6c5db9df13df9ca6683cdf704?cid=774b29d4f13844c495f206cafdad9c86",
      "track_number" : 5,
      "type" : "track",
      "uri" : "spotify:track:4PkuojnVAXPTMxRjnAvfyM"
    }, {
      "album" : {
        "album_type" : "album",
        "artists" : [ {
          "external_urls" : {
            "spotify" : "https://open.spotify.com/artist/0p19ddAfujlF9ljIw6XsZo"
          },
          "href" : "https://api.spotify.com/v1/artists/0p19ddAfujlF9ljIw6XsZo",
          "id" : "0p19ddAfujlF9ljIw6XsZo",
          "name" : "Voyagers Quartet",
          "type" : "artist",
          "uri" : "spotify:artist:0p19ddAfujlF9ljIw6XsZo"
        } ],
        "external_urls" : {
          "spotify" : "https://open.spotify.com/album/0xp55EF42rxUlGUUEHRRid"
        },
        "href" : "https://api.spotify.com/v1/albums/0xp55EF42rxUlGUUEHRRid",
        "id" : "0xp55EF42rxUlGUUEHRRid",
        "images" : [ {
          "height" : 640,
          "url" : "https://i.scdn.co/image/ab67616d0000b273f78bc6bce7eaefac8c204fde",
          "width" : 640
        }, {
          "height" : 300,
          "url" : "https://i.scdn.co/image/ab67616d00001e02f78bc6bce7eaefac8c204fde",
          "width" : 300
        }, {
          "height" : 64,
          "url" : "https://i.scdn.co/image/ab67616d00004851f78bc6bce7eaefac8c204fde",
          "width" : 64
        } ],
        "name" : "Statue of Liberty",
        "release_date" : "2012-06-05",
        "release_date_precision" : "day",
        "total_tracks" : 11,
        "type" : "album",
        "uri" : "spotify:album:0xp55EF42rxUlGUUEHRRid"
      },
      "artists" : [ {
        "external_urls" : {
          "spotify" : "https://open.spotify.com/artist/0p19ddAfujlF9ljIw6XsZo"
        },
        "href" : "https://api.spotify.com/v1/artists/0p19ddAfujlF9ljIw6XsZo",
        "id" : "0p19ddAfujlF9ljIw6XsZo",
        "name" : "Voyagers Quartet",
        "type" : "artist",
        "uri" : "spotify:artist:0p19ddAfujlF9ljIw6XsZo"
      } ],
      "disc_number" : 1,
      "duration_ms" : 229733,
      "explicit" : false,
      "external_ids" : {
        "isrc" : "USACX1201134"
      },
      "external_urls" : {
        "spotify" : "https://open.spotify.com/track/7yfuJO3cPLE9vH7rGokm5u"
      },
      "href" : "https://api.spotify.com/v1/tracks/7yfuJO3cPLE9vH7rGokm5u",
      "id" : "7yfuJO3cPLE9vH7rGokm5u",
      "is_local" : false,
      "is_playable" : true,
      "name" : "Unto The Hills",
      "popularity" : 0,
      "preview_url" : "https://p.scdn.co/mp3-preview/64827f4e9127e6e9e7ddf896cddbc70645d5ce41?cid=774b29d4f13844c495f206cafdad9c86",
      "track_number" : 7,
      "type" : "track",
      "uri" : "spotify:track:7yfuJO3cPLE9vH7rGokm5u"
    }, {
      "album" : {
        "album_type" : "album",
        "artists" : [ {
          "external_urls" : {
            "spotify" : "https://open.spotify.com/artist/3x8JKYweUaLjF441vguZ2D"
          },
          "href" : "https://api.spotify.com/v1/artists/3x8JKYweUaLjF441vguZ2D",
          "id" : "3x8JKYweUaLjF441vguZ2D",
          "name" : "Altar of Praise Chorale",
          "type" : "artist",
          "uri" : "spotify:artist:3x8JKYweUaLjF441vguZ2D"
        } ],
        "external_urls" : {
          "spotify" : "https://open.spotify.com/album/4nZ8LDjjyOsGULCApwF3Xe"
        },
        "href" : "https://api.spotify.com/v1/albums/4nZ8LDjjyOsGULCApwF3Xe",
        "id" : "4nZ8LDjjyOsGULCApwF3Xe",
        "images" : [ {
          "height" : 640,
          "url" : "https://i.scdn.co/image/ab67616d0000b2730c3f7f9d3c1453a346c90562",
          "width" : 640
        }, {
          "height" : 300,
          "url" : "https://i.scdn.co/image/ab67616d00001e020c3f7f9d3c1453a346c90562",
          "width" : 300
        }, {
          "height" : 64,
          "url" : "https://i.scdn.co/image/ab67616d000048510c3f7f9d3c1453a346c90562",
          "width" : 64
        } ],
        "name" : "Thine Is the Kingdom",
        "release_date" : "2020-05-04",
        "release_date_precision" : "day",
        "total_tracks" : 15,
        "type" : "album",
        "uri" : "spotify:album:4nZ8LDjjyOsGULCApwF3Xe"
      },
      "artists" : [ {
        "external_urls" : {
          "spotify" : "https://open.spotify.com/artist/3x8JKYweUaLjF441vguZ2D"
        },
        "href" : "https://api.spotify.com/v1/artists/3x8JKYweUaLjF441vguZ2D",
        "id" : "3x8JKYweUaLjF441vguZ2D",
        "name" : "Altar of Praise Chorale",
        "type" : "artist",
        "uri" : "spotify:artist:3x8JKYweUaLjF441vguZ2D"
      } ],
      "disc_number" : 1,
      "duration_ms" : 133120,
      "explicit" : false,
      "external_ids" : {
        "isrc" : "ushm22012845"
      },
      "external_urls" : {
        "spotify" : "https://open.spotify.com/track/6FOkg7n1ocz0mvkK4Lhcmo"
      },
      "href" : "https://api.spotify.com/v1/tracks/6FOkg7n1ocz0mvkK4Lhcmo",
      "id" : "6FOkg7n1ocz0mvkK4Lhcmo",
      "is_local" : false,
      "is_playable" : true,
      "name" : "Unto the Hills",
      "popularity" : 0,
      "preview_url" : "https://p.scdn.co/mp3-preview/e60de05d9af5cecaec05f4ad65a226b75aafa3db?cid=774b29d4f13844c495f206cafdad9c86",
      "track_number" : 6,
      "type" : "track",
      "uri" : "spotify:track:6FOkg7n1ocz0mvkK4Lhcmo"
    }, {
      "album" : {
        "album_type" : "single",
        "artists" : [ {
          "external_urls" : {
            "spotify" : "https://open.spotify.com/artist/4B4xNaBe6u9iNPsDkJC8I2"
          },
          "href" : "https://api.spotify.com/v1/artists/4B4xNaBe6u9iNPsDkJC8I2",
          "id" : "4B4xNaBe6u9iNPsDkJC8I2",
          "name" : "Prince Alla",
          "type" : "artist",
          "uri" : "spotify:artist:4B4xNaBe6u9iNPsDkJC8I2"
        } ],
        "external_urls" : {
          "spotify" : "https://open.spotify.com/album/643pvE1xm1eN7QWenZmUxm"
        },
        "href" : "https://api.spotify.com/v1/albums/643pvE1xm1eN7QWenZmUxm",
        "id" : "643pvE1xm1eN7QWenZmUxm",
        "images" : [ {
          "height" : 640,
          "url" : "https://i.scdn.co/image/ab67616d0000b2737489ad3a7b95d43abd1e4622",
          "width" : 640
        }, {
          "height" : 300,
          "url" : "https://i.scdn.co/image/ab67616d00001e027489ad3a7b95d43abd1e4622",
          "width" : 300
        }, {
          "height" : 64,
          "url" : "https://i.scdn.co/image/ab67616d000048517489ad3a7b95d43abd1e4622",
          "width" : 64
        } ],
        "name" : "Unto the Hills",
        "release_date" : "2018-03-06",
        "release_date_precision" : "day",
        "total_tracks" : 1,
        "type" : "album",
        "uri" : "spotify:album:643pvE1xm1eN7QWenZmUxm"
      },
      "artists" : [ {
        "external_urls" : {
          "spotify" : "https://open.spotify.com/artist/4B4xNaBe6u9iNPsDkJC8I2"
        },
        "href" : "https://api.spotify.com/v1/artists/4B4xNaBe6u9iNPsDkJC8I2",
        "id" : "4B4xNaBe6u9iNPsDkJC8I2",
        "name" : "Prince Alla",
        "type" : "artist",
        "uri" : "spotify:artist:4B4xNaBe6u9iNPsDkJC8I2"
      }, {
        "external_urls" : {
          "spotify" : "https://open.spotify.com/artist/6qT3BuvjUmrtH3OzJ18mRh"
        },
        "href" : "https://api.spotify.com/v1/artists/6qT3BuvjUmrtH3OzJ18mRh",
        "id" : "6qT3BuvjUmrtH3OzJ18mRh",
        "name" : "Echo Minott",
        "type" : "artist",
        "uri" : "spotify:artist:6qT3BuvjUmrtH3OzJ18mRh"
      }, {
        "external_urls" : {
          "spotify" : "https://open.spotify.com/artist/6FK64uYYqIvCUiNpx2umPb"
        },
        "href" : "https://api.spotify.com/v1/artists/6FK64uYYqIvCUiNpx2umPb",
        "id" : "6FK64uYYqIvCUiNpx2umPb",
        "name" : "No-Maddz",
        "type" : "artist",
        "uri" : "spotify:artist:6FK64uYYqIvCUiNpx2umPb"
      } ],
      "disc_number" : 1,
      "duration_ms" : 284133,
      "explicit" : false,
      "external_ids" : {
        "isrc" : "QZBRF1829219"
      },
      "external_urls" : {
        "spotify" : "https://open.spotify.com/track/3v0YK97aL2nY4PHosKrf5X"
      },
      "href" : "https://api.spotify.com/v1/tracks/3v0YK97aL2nY4PHosKrf5X",
      "id" : "3v0YK97aL2nY4PHosKrf5X",
      "is_local" : false,
      "is_playable" : true,
      "name" : "Unto the Hills",
      "popularity" : 0,
      "preview_url" : "https://p.scdn.co/mp3-preview/f00a13fd3d0e4c97b6bcc34e326264e59eb0dd79?cid=774b29d4f13844c495f206cafdad9c86",
      "track_number" : 1,
      "type" : "track",
      "uri" : "spotify:track:3v0YK97aL2nY4PHosKrf5X"
    } ],
    "limit" : 10,
    "next" : "https://api.spotify.com/v1/search?query=Unto+the+Hills&type=track&market=US&offset=15&limit=10",
    "offset" : 5,
    "previous" : "https://api.spotify.com/v1/search?query=Unto+the+Hills&type=track&market=US&offset=0&limit=10",
    "total" : 163
  }
}