{
  "tracks" : {
    "href" : "https://api.spotify.com/v1/search?query=Watch%2C+Ye+Saints&type=track&market=US&offset=5&limit=10",
    "items" : [ {
      "album" : {
        "album_type" : "album",
        "artists" : [ {
          "external_urls" : {
            "spotify" : "https://open.spotify.com/artist/2YLYCvGlvXr2ySQfL0GUD1"
          },
          "href" : "https://api.spotify.com/v1/artists/2YLYCvGlvXr2ySQfL0GUD1",
          "id" : "2YLYCvGlvXr2ySQfL0GUD1",
          "name" : "Darrell Alexander",
          "type" : "artist",
          "uri" : "spotify:artist:2YLYCvGlvXr2ySQfL0GUD1"
        } ],
        "external_urls" : {
          "spotify" : "https://open.spotify.com/album/4x1Bpa1DxQviJkgbMIvJWT"
        },
        "href" : "https://api.spotify.com/v1/albums/4x1Bpa1DxQviJkgbMIvJWT",
        "id" : "4x1Bpa1DxQviJkgbMIvJWT",
        "images" : [ {
          "height" : 640,
          "url" : "https://i.scdn.co/image/ab67616d0000b2731b49a05de26a1b9eb58028ef",
          "width" : 640
        }, {
          "height" : 300,
          "url" : "https://i.scdn.co/image/ab67616d00001e021b49a05de26a1b9eb58028ef",
          "width" : 300
        }, {
          "height" : 64,
          "url" : "https://i.scdn.co/image/ab67616d000048511b49a05de26a1b9eb58028ef",
          "width" : 64
        } ],
        "name" : "Praise Your Pains Away (TM)",
        "release_date" : "2002-01-01",
        "release_date_precision" : "day",
        "total_tracks" : 16,
        "type" : "album",
        "uri" : "spotify:album:4x1Bpa1DxQviJkgbMIvJWT"
      },
      "artists" : [ {
        "external_urls" : {
          "spotify" : "https://open.spotify.com/artist/1h5JHUseoClpES0CiTydA4"
        },
        "href" : "https://api.spotify.com/v1/artists/1h5JHUseoClpES0CiTydA4",
        "id" : "1h5JHUseoClpES0CiTydA4",
        "name" : "Darrell R. Alexander",
        "type" : "artist",
        "uri" : "spotify:artist:1h5JHUseoClpES0CiTydA4"
      } ],
      "disc_number" : 1,
      "duration_ms" : 248773,
      "explicit" : false,
      "external_ids" : {
        "isrc" : "ushm90517286"
      },
      "external_urls" : {
        "spotify" : "https://open.spotify.com/track/55aWyYee5ctBiU0ev4p82M"
      },
      "href" : "https://api.spotify.com/v1/tracks/55aWyYee5ctBiU0ev4p82M",
      "id" : "55aWyYee5ctBiU0ev4p82M",
      "is_local" : false,
      "is_playable" : true,
      "name" : "Watch Ye Saints - Piano Solo",
      "popularity" : 0,
      "preview_url" : "https://p.scdn.co/mp3-preview/cf2f9870770496938d809b643cf529b35351f1fe?cid=774b29d4f13844c495f206cafdad9c86",
      "track_number" : 14,
      "type" : "track",
      "uri" : "spotify:track:55aWyYee5ctBiU0ev4p82M"
    }, {
      "album" : {
        "album_type" : "album",
        "artists" : [ {
          "external_urls" : {
            "spotify" : "https://open.spotify.com/artist/5zkmOYaXiNHBKxKnnd1rvl"
          },
          "href" : "https://api.spotify.com/v1/artists/5zkmOYaXiNHBKxKnnd1rvl",
          "id" : "5zkmOYaXiNHBKxKnnd1rvl",
          "name" : "John Keys",
          "type" : "artist",
          "uri" : "spotify:artist:5zkmOYaXiNHBKxKnnd1rvl"
        } ],
        "external_urls" : {
          "spotify" : "https://open.spotify.com/album/7jsfCeurM2hbi7pliZYMTa"
        },
        "href" : "https://api.spotify.com/v1/albums/7jsfCeurM2hbi7pliZYMTa",
        "id" : "7jsfCeurM2hbi7pliZYMTa",
        "images" : [ {
          "height" : 640,
          "url" : "https://i.scdn.co/image/ab67616d0000b2733827ec5233e8af808226fadb",
          "width" : 640
        }, {
          "height" : 300,
          "url" : "https://i.scdn.co/image/ab67616d00001e023827ec5233e8af808226fadb",
          "width" : 300
        }, {
          "height" : 64,
          "url" : "https://i.scdn.co/image/ab67616d000048513827ec5233e8af808226fadb",
          "width" : 64
        } ],
        "name" : "Seventh Day Adventist Hymns, Vol. 2 (Organ Accompaniments)",
        "release_date" : "2008-09-02",
        "release_date_precision" : "day",
        "total_tracks" : 23,
        "type" : "album",
        "uri" : "spotify:album:7jsfCeurM2hbi7pliZYMTa"
      },
      "artists" : [ {
        "external_urls" : {
          "spotify" : "https://open.spotify.com/artist/5zkmOYaXiNHBKxKnnd1rvl"
        },
        "href" : "https://api.spotify.com/v1/artists/5zkmOYaXiNHBKxKnnd1rvl",
        "id" : "5zkmOYaXiNHBKxKnnd1rvl",
        "name" : "John Keys",
        "type" : "artist",
        "uri" : "spotify:artist:5zkmOYaXiNHBKxKnnd1rvl"
      } ],
      "disc_number" : 1,
      "duration_ms" : 227520,
      "explicit" : false,
      "external_ids" : {
        "isrc" : "GBKPL1262528"
      },
      "external_urls" : {
        "spotify" : "https://open.spotify.com/track/6t7xhfOn9TiCUGJke62oqE"
      },
      "href" : "https://api.spotify.com/v1/tracks/6t7xhfOn9TiCUGJke62oqE",
      "id" : "6t7xhfOn9TiCUGJke62oqE",
      "is_local" : false,
      "is_playable" : true,
      "name" : "Watch Ye Saints (Jesus Comes) [Instrumental Version]",
      "popularity" : 1,
      "preview_url" : "https://p.scdn.co/mp3-preview/c6e21640f61daf63f10195102f47f356b517ec2c?cid=774b29d4f13844c495f206cafdad9c86",
      "track_number" : 18,
      "type" : "track",
      "uri" : "spotify:track:6t7xhfOn9TiCUGJke62oqE"
    }, {
      "album" : {
        "album_type" : "album",
        "artists" : [ {
          "external_urls" : {
            "spotify" : "https://open.spotify.com/artist/4yIatqL69NFsOHiHSauqi5"
          },
          "href" : "https://api.spotify.com/v1/artists/4yIatqL69NFsOHiHSauqi5",
          "id" : "4yIatqL69NFsOHiHSauqi5",
          "name" : "Jeremy Morada",
          "type" : "artist",
          "uri" : "spotify:artist:4yIatqL69NFsOHiHSauqi5"
        } ],
        "external_urls" : {
          "spotify" : "https://open.spotify.com/album/17pHuDUmlfz5WUr77Q7hG3"
        },
        "href" : "https://api.spotify.com/v1/albums/17pHuDUmlfz5WUr77Q7hG3",
        "id" : "17pHuDUmlfz5WUr77Q7hG3",
        "images" : [ {
          "height" : 640,
          "url" : "https://i.scdn.co/image/ab67616d0000b2736d4139c8aa90166146288189",
          "width" : 640
        }, {
          "height" : 300,
          "url" : "https://i.scdn.co/image/ab67616d00001e026d4139c8aa90166146288189",
          "width" : 300
        }, {
          "height" : 64,
          "url" : "https://i.scdn.co/image/ab67616d000048516d4139c8aa90166146288189",
          "width" : 64
        } ],
        "name" : "Watch Ye Saints",
        "release_date" : "2009-05-21",
        "release_date_precision" : "day",
        "total_tracks" : 14,
        "type" : "album",
        "uri" : "spotify:album:17pHuDUmlfz5WUr77Q7hG3"
      },
      "artists" : [ {
        "external_urls" : {
          "spotify" : "https://open.spotify.com/artist/4yIatqL69NFsOHiHSauqi5"
        },
        "href" : "https://api.spotify.com/v1/artists/4yIatqL69NFsOHiHSauqi5",
        "id" : "4yIatqL69NFsOHiHSauqi5",
        "name" : "Jeremy Morada",
        "type" : "artist",
        "uri" : "spotify:artist:4yIatqL69NFsOHiHSauqi5"
      } ],
      "disc_number" : 1,
      "duration_ms" : 266360,
      "explicit" : false,
      "external_ids" : {
        "isrc" : "ushm20945460"
      },
      "external_urls" : {
        "spotify" : "https://open.spotify.com/track/5ihqkehBTMTxMqVEGxMwm3"
      },
      "href" : "https://api.spotify.com/v1/tracks/5ihqkehBTMTxMqVEGxMwm3",
      "id" : "5ihqkehBTMTxMqVEGxMwm3",
      "is_local" : false,
      "is_playable" : true,
      "name" : "Who Can Find A Virtuous Woman? - Proverbs 31:10, 25-30",
      "popularity" : 0,
      "preview_url" : "https://p.scdn.co/mp3-preview/cec4f3f4f21693f909f8484dc7bdbb1e669b5c50?cid=774b29d4f13844c495f206cafdad9c86",
      "track_number" : 12,
      "type" : "track",
      "uri" : "spotify:track:5ihqkehBTMTxMqVEGxMwm3"
    }, {
      "album" : {
        "album_type" : "album",
        "artists" : [ {
          "external_urls" : {
            "spotify" : "https://open.spotify.com/artist/4yIatqL69NFsOHiHSauqi5"
          },
          "href" : "https://api.spotify.com/v1/artists/4yIatqL69NFsOHiHSauqi5",
          "id" : "4yIatqL69NFsOHiHSauqi5",
          "name" : "Jeremy Morada",
          "type" : "artist",
          "uri" : "spotify:artist:4yIatqL69NFsOHiHSauqi5"
        } ],
        "external_urls" : {
          "spotify" : "https://open.spotify.com/album/17pHuDUmlfz5WUr77Q7hG3"
        },
        "href" : "https://api.spotify.com/v1/albums/17pHuDUmlfz5WUr77Q7hG3",
        "id" : "17pHuDUmlfz5WUr77Q7hG3",
        "images" : [ {
          "height" : 640,
          "url" : "https://i.scdn.co/image/ab67616d0000b2736d4139c8aa90166146288189",
          "width" : 640
        }, {
          "height" : 300,
          "url" : "https://i.scdn.co/image/ab67616d00001e026d4139c8aa90166146288189",
          "width" : 300
        }, {
          "height" : 64,
          "url" : "https://i.scdn.co/image/ab67616d000048516d4139c8aa90166146288189",
          "width" : 64
        } ],
        "name" : "Watch Ye Saints",
        "release_date" : "2009-05-21",
        "release_date_precision" : "day",
        "total_tracks" : 14,
        "type" : "album",
        "uri" : "spotify:album:17pHuDUmlfz5WUr77Q7hG3"
      },
      "artists" : [ {
        "external_urls" : {
          "spotify" : "https://open.spotify.com/artist/4yIatqL69NFsOHiHSauqi5"
        },
        "href" : "https://api.spotify.com/v1/artists/4yIatqL69NFsOHiHSauqi5",
        "id" : "4yIatqL69NFsOHiHSauqi5",
        "name" : "Jeremy Morada",
        "type" : "artist",
        "uri" : "spotify:artist:4yIatqL69NFsOHiHSauqi5"
      } ],
      "disc_number" : 1,
      "duration_ms" : 168440,
      "explicit" : false,
      "external_ids" : {
        "isrc" : "ushm20945459"
      },
      "external_urls" : {
        "spotify" : "https://open.spotify.com/track/6GqTFDmq7s1qzfNtZKdQVw"
      },
      "href" : "https://api.spotify.com/v1/tracks/6GqTFDmq7s1qzfNtZKdQVw",
      "id" : "6GqTFDmq7s1qzfNtZKdQVw",
      "is_local" : false,
      "is_playable" : true,
      "name" : "Give Unto The Lord - Psalm 29:1-4",
      "popularity" : 0,
      "preview_url" : "https://p.scdn.co/mp3-preview/c9414567204741a5bda884bdf0a96a71467f6479?cid=774b29d4f13844c495f206cafdad9c86",
      "track_number" : 11,
      "type" : "track",
      "uri" : "spotify:track:6GqTFDmq7s1qzfNtZKdQVw"
    }, {
      "album" : {
        "album_type" : "album",
        "artists" : [ {
          "external_urls" : {
            "spotify" : "https://open.spotify.com/artist/4yIatqL69NFsOHiHSauqi5"
          },
          "href" : "https://api.spotify.com/v1/artists/4yIatqL69NFsOHiHSauqi5",
          "id" : "4yIatqL69NFsOHiHSauqi5",
          "name" : "Jeremy Morada",
          "type" : "artist",
          "uri" : "spotify:artist:4yIatqL69NFsOHiHSauqi5"
        } ],
        "external_urls" : {
          "spotify" : "https://open.spotify.com/album/17pHuDUmlfz5WUr77Q7hG3"
        },
        "href" : "https://api.spotify.com/v1/albums/17pHuDUmlfz5WUr77Q7hG3",
        "id" : "17pHuDUmlfz5WUr77Q7hG3",
        "images" : [ {
          "height" : 640,
          "url" : "https://i.scdn.co/image/ab67616d0000b2736d4139c8aa90166146288189",
          "width" : 640
        }, {
          "height" : 300,
          "url" : "https://i.scdn.co/image/ab67616d00001e026d4139c8aa90166146288189",
          "width" : 300
        }, {
          "height" : 64,
          "url" : "https://i.scdn.co/image/ab67616d000048516d4139c8aa90166146288189",
          "width" : 64
        } ],
        "name" : "Watch Ye Saints",
        "release_date" : "2009-05-21",
        "release_date_precision" : "day",
        "total_tracks" : 14,
        "type" : "album",
        "uri" : "spotify:album:17pHuDUmlfz5WUr77Q7hG3"
      },
      "artists" : [ {
        "external_urls" : {
          "spotify" : "https://open.spotify.com/artist/4yIatqL69NFsOHiHSauqi5"
        },
        "href" : "https://api.spotify.com/v1/artists/4yIatqL69NFsOHiHSauqi5",
        "id" : "4yIatqL69NFsOHiHSauqi5",
        "name" : "Jeremy Morada",
        "type" : "artist",
        "uri" : "spotify:artist:4yIatqL69NFsOHiHSauqi5"
      } ],
      "disc_number" : 1,
      "duration_ms" : 71066,
      "explicit" : false,
      "external_ids" : {
        "isrc" : "ushm20945453"
      },
      "external_urls" : {
        "spotify" : "https://open.spotify.com/track/5UNAXzTXIoBljLNtLDbPSP"
      },
      "href" : "https://api.spotify.com/v1/tracks/5UNAXzTXIoBljLNtLDbPSP",
      "id" : "5UNAXzTXIoBljLNtLDbPSP",
      "is_local" : false,
      "is_playable" : true,
      "name" : "O Come Let Us Sing Unto The Lord - Psalm 95:1-2",
      "popularity" : 1,
      "preview_url" : "https://p.scdn.co/mp3-preview/d8addc2e974fc0dbe117033d1e3f926e37f64a95?cid=774b29d4f13844c495f206cafdad9c86",
      "track_number" : 5,
      "type" : "track",
      "uri" : "spotify:track:5UNAXzTXIoBljLNtLDbPSP"
    }, {
      "album" : {
        "album_type" : "album",
        "artists" : [ {
          "external_urls" : {
            "spotify" : "https://open.spotify.com/artist/4yIatqL69NFsOHiHSauqi5"
          },
          "href" : "https://api.spotify.com/v1/artists/4yIatqL69NFsOHiHSauqi5",
          "id" : "4yIatqL69NFsOHiHSauqi5",
          "name" : "Jeremy Morada",
          "type" : "artist",
          "uri" : "spotify:artist:4yIatqL69NFsOHiHSauqi5"
        } ],
        "external_urls" : {
          "spotify" : "https://open.spotify.com/album/17pHuDUmlfz5WUr77Q7hG3"
        },
        "href" : "https://api.spotify.com/v1/albums/17pHuDUmlfz5WUr77Q7hG3",
        "id" : "17pHuDUmlfz5WUr77Q7hG3",
        "images" : [ {
          "height" : 640,
          "url" : "https://i.scdn.co/image/ab67616d0000b2736d4139c8aa90166146288189",
          "width" : 640
        }, {
          "height" : 300,
          "url" : "https://i.scdn.co/image/ab67616d00001e026d4139c8aa90166146288189",
          "width" : 300
        }, {
          "height" : 64,
          "url" : "https://i.scdn.co/image/ab67616d000048516d4139c8aa90166146288189",
          "width" : 64
        } ],
        "name" : "Watch Ye Saints",
        "release_date" : "2009-05-21",
        "release_date_precision" : "day",
        "total_tracks" : 14,
        "type" : "album",
        "uri" : "spotify:album:17pHuDUmlfz5WUr77Q7hG3"
      },
      "artists" : [ {
        "external_urls" : {
          "spotify" : "https://open.spotify.com/artist/4yIatqL69NFsOHiHSauqi5"
        },
        "href" : "https://api.spotify.com/v1/artists/4yIatqL69NFsOHiHSauqi5",
        "id" : "4yIatqL69NFsOHiHSauqi5",
        "name" : "Jeremy Morada",
        "type" : "artist",
        "uri" : "spotify:artist:4yIatqL69NFsOHiHSauqi5"
      } ],
      "disc_number" : 1,
      "duration_ms" : 93933,
      "explicit" : false,
      "external_ids" : {
        "isrc" : "ushm20945461"
      },
      "external_urls" : {
        "spotify" : "https://open.spotify.com/track/2LstHPjMHAl5Kzfz1ChJbU"
      },
      "href" : "https://api.spotify.com/v1/tracks/2LstHPjMHAl5Kzfz1ChJbU",
      "id" : "2LstHPjMHAl5Kzfz1ChJbU",
      "is_local" : false,
      "is_playable" : true,
      "name" : "Would You Like A Fugue?",
      "popularity" : 0,
      "preview_url" : "https://p.scdn.co/mp3-preview/25f199f7584a7f70dd7f996ff3070569b8f35a0e?cid=774b29d4f13844c495f206cafdad9c86",
      "track_number" : 13,
      "type" : "track",
      "uri" : "spotify:track:2LstHPjMHAl5Kzfz1ChJbU"
    }, {
      "album" : {
        "album_type" : "album",
        "artists" : [ {
          "external_urls" : {
            "spotify" : "https://open.spotify.com/artist/4yIatqL69NFsOHiHSauqi5"
          },
          "href" : "https://api.spotify.com/v1/artists/4yIatqL69NFsOHiHSauqi5",
          "id" : "4yIatqL69NFsOHiHSauqi5",
          "name" : "Jeremy Morada",
          "type" : "artist",
          "uri" : "spotify:artist:4yIatqL69NFsOHiHSauqi5"
        } ],
        "external_urls" : {
          "spotify" : "https://open.spotify.com/album/17pHuDUmlfz5WUr77Q7hG3"
        },
        "href" : "https://api.spotify.com/v1/albums/17pHuDUmlfz5WUr77Q7hG3",
        "id" : "17pHuDUmlfz5WUr77Q7hG3",
        "images" : [ {
          "height" : 640,
          "url" : "https://i.scdn.co/image/ab67616d0000b2736d4139c8aa90166146288189",
          "width" : 640
        }, {
          "height" : 300,
          "url" : "https://i.scdn.co/image/ab67616d00001e026d4139c8aa90166146288189",
          "width" : 300
        }, {
          "height" : 64,
          "url" : "https://i.scdn.co/image/ab67616d000048516d4139c8aa90166146288189",
          "width" : 64
        } ],
        "name" : "Watch Ye Saints",
        "release_date" : "2009-05-21",
        "release_date_precision" : "day",
        "total_tracks" : 14,
        "type" : "album",
        "uri" : "spotify:album:17pHuDUmlfz5WUr77Q7hG3"
      },
      "artists" : [ {
        "external_urls" : {
          "spotify" : "https://open.spotify.com/artist/4yIatqL69NFsOHiHSauqi5"
        },
        "href" : "https://api.spotify.com/v1/artists/4yIatqL69NFsOHiHSauqi5",
        "id" : "4yIatqL69NFsOHiHSauqi5",
        "name" : "Jeremy Morada",
        "type" : "artist",
        "uri" : "spotify:artist:4yIatqL69NFsOHiHSauqi5"
      } ],
      "disc_number" : 1,
      "duration_ms" : 247266,
      "explicit" : false,
      "external_ids" : {
        "isrc" : "ushm20945454"
      },
      "external_urls" : {
        "spotify" : "https://open.spotify.com/track/6Kj2qquxVdiYE8jq1FZm1B"
      },
      "href" : "https://api.spotify.com/v1/tracks/6Kj2qquxVdiYE8jq1FZm1B",
      "id" : "6Kj2qquxVdiYE8jq1FZm1B",
      "is_local" : false,
      "is_playable" : true,
      "name" : "Song Of Moses - Exodus 15:1-5, 2 Corinthians 10:3-5",
      "popularity" : 0,
      "preview_url" : "https://p.scdn.co/mp3-preview/2e68de8535e3598bcc4aada86893b4deeb8bc16c?cid=774b29d4f13844c495f206cafdad9c86",
      "track_number" : 6,
      "type" : "track",
      "uri" : "spotify:track:6Kj2qquxVdiYE8jq1FZm1B"
    }, {
      "album" : {
        "album_type" : "album",
        "artists" : [ {
          "external_urls" : {
            "spotify" : "https://open.spotify.com/artist/4yIatqL69NFsOHiHSauqi5"
          },
          "href" : "https://api.spotify.com/v1/artists/4yIatqL69NFsOHiHSauqi5",
          "id" : "4yIatqL69NFsOHiHSauqi5",
          "name" : "Jeremy Morada",
          "type" : "artist",
          "uri" : "spotify:artist:4yIatqL69NFsOHiHSauqi5"
        } ],
        "external_urls" : {
          "spotify" : "https://open.spotify.com/album/17pHuDUmlfz5WUr77Q7hG3"
        },
        "href" : "https://api.spotify.com/v1/albums/17pHuDUmlfz5WUr77Q7hG3",
        "id" : "17pHuDUmlfz5WUr77Q7hG3",
        "images" : [ {
          "height" : 640,
          "url" : "https://i.scdn.co/image/ab67616d0000b2736d4139c8aa90166146288189",
          "width" : 640
        }, {
          "height" : 300,
          "url" : "https://i.scdn.co/image/ab67616d00001e026d4139c8aa90166146288189",
          "width" : 300
        }, {
          "height" : 64,
          "url" : "https://i.scdn.co/image/ab67616d000048516d4139c8aa90166146288189",
          "width" : 64
        } ],
        "name" : "Watch Ye Saints",
        "release_date" : "2009-05-21",
        "release_date_precision" : "day",
        "total_tracks" : 14,
        "type" : "album",
        "uri" : "spotify:album:17pHuDUmlfz5WUr77Q7hG3"
      },
      "artists" : [ {
        "external_urls" : {
          "spotify" : "https://open.spotify.com/artist/4yIatqL69NFsOHiHSauqi5"
        },
        "href" : "https://api.spotify.com/v1/artists/4yIatqL69NFsOHiHSauqi5",
        "id" : "4yIatqL69NFsOHiHSauqi5",
        "name" : "Jeremy Morada",
        "type" : "artist",
        "uri" : "spotify:artist:4yIatqL69NFsOHiHSauqi5"
      } ],
      "disc_number" : 1,
      "duration_ms" : 163800,
      "explicit" : false,
      "external_ids" : {
        "isrc" : "ushm20945450"
      },
      "external_urls" : {
        "spotify" : "https://open.spotify.com/track/1jSjQc8XUzFqU4K7pbYpJL"
      },
      "href" : "https://api.spotify.com/v1/tracks/1jSjQc8XUzFqU4K7pbYpJL",
      "id" : "1jSjQc8XUzFqU4K7pbYpJL",
      "is_local" : false,
      "is_playable" : true,
      "name" : "And I Saw Another Mighty Angel - Revelation 10:1-3",
      "popularity" : 0,
      "preview_url" : "https://p.scdn.co/mp3-preview/e0ed38ce83af1af34960b92ee74d5df82169470a?cid=774b29d4f13844c495f206cafdad9c86",
      "track_number" : 2,
      "type" : "track",
      "uri" : "spotify:track:1jSjQc8XUzFqU4K7pbYpJL"
    }, {
      "album" : {
        "album_type" : "album",
        "artists" : [ {
          "external_urls" : {
            "spotify" : "https://open.spotify.com/artist/4yIatqL69NFsOHiHSauqi5"
          },
          "href" : "https://api.spotify.com/v1/artists/4yIatqL69NFsOHiHSauqi5",
          "id" : "4yIatqL69NFsOHiHSauqi5",
          "name" : "Jeremy Morada",
          "type" : "artist",
          "uri" : "spotify:artist:4yIatqL69NFsOHiHSauqi5"
        } ],
        "external_urls" : {
          "spotify" : "https://open.spotify.com/album/17pHuDUmlfz5WUr77Q7hG3"
        },
        "href" : "https://api.spotify.com/v1/albums/17pHuDUmlfz5WUr77Q7hG3",
        "id" : "17pHuDUmlfz5WUr77Q7hG3",
        "images" : [ {
          "height" : 640,
          "url" : "https://i.scdn.co/image/ab67616d0000b2736d4139c8aa90166146288189",
          "width" : 640
        }, {
          "height" : 300,
          "url" : "https://i.scdn.co/image/ab67616d00001e026d4139c8aa90166146288189",
          "width" : 300
        }, {
          "height" : 64,
          "url" : "https://i.scdn.co/image/ab67616d000048516d4139c8aa90166146288189",
          "width" : 64
        } ],
        "name" : "Watch Ye Saints",
        "release_date" : "2009-05-21",
        "release_date_precision" : "day",
        "total_tracks" : 14,
        "type" : "album",
        "uri" : "spotify:album:17pHuDUmlfz5WUr77Q7hG3"
      },
      "artists" : [ {
        "external_urls" : {
          "spotify" : "https://open.spotify.com/artist/4yIatqL69NFsOHiHSauqi5"
        },
        "href" : "https://api.spotify.com/v1/artists/4yIatqL69NFsOHiHSauqi5",
        "id" : "4yIatqL69NFsOHiHSauqi5",
        "name" : "Jeremy Morada",
        "type" : "artist",
        "uri" : "spotify:artist:4yIatqL69NFsOHiHSauqi5"
      } ],
      "disc_number" : 1,
      "duration_ms" : 170160,
      "explicit" : false,
      "external_ids" : {
        "isrc" : "ushm20945455"
      },
      "external_urls" : {
        "spotify" : "https://open.spotify.com/track/6WjMJQbuTsCMyoVZqmdPKB"
      },
      "href" : "https://api.spotify.com/v1/tracks/6WjMJQbuTsCMyoVZqmdPKB",
      "id" : "6WjMJQbuTsCMyoVZqmdPKB",
      "is_local" : false,
      "is_playable" : true,
      "name" : "Morning Trumpet",
      "popularity" : 0,
      "preview_url" : "https://p.scdn.co/mp3-preview/d55b2080eeba8627d0183c41b4e6ec651e9a7071?cid=774b29d4f13844c495f206cafdad9c86",
      "track_number" : 7,
      "type" : "track",
      "uri" : "spotify:track:6WjMJQbuTsCMyoVZqmdPKB"
    }, {
      "album" : {
        "album_type" : "album",
        "artists" : [ {
          "external_urls" : {
            "spotify" : "https://open.spotify.com/artist/4yIatqL69NFsOHiHSauqi5"
          },
          "href" : "https://api.spotify.com/v1/artists/4yIatqL69NFsOHiHSauqi5",
          "id" : "4yIatqL69NFsOHiHSauqi5",
          "name" : "Jeremy Morada",
          "type" : "artist",
          "uri" : "spotify:artist:4yIatqL69NFsOHiHSauqi5"
        } ],
        "external_urls" : {
          "spotify" : "https://open.spotify.com/album/17pHuDUmlfz5WUr77Q7hG3"
        },
        "href" : "https://api.spotify.com/v1/albums/17pHuDUmlfz5WUr77Q7hG3",
        "id" : "17pHuDUmlfz5WUr77Q7hG3",
        "images" : [ {
          "height" : 640,
          "url" : "https://i.scdn.co/image/ab67616d0000b2736d4139c8aa90166146288189",
          "width" : 640
        }, {
          "height" : 300,
          "url" : "https://i.scdn.co/image/ab67616d00001e026d4139c8aa90166146288189",
          "width" : 300
        }, {
          "height" : 64,
          "url" : "https://i.scdn.co/image/ab67616d000048516d4139c8aa90166146288189",
          "width" : 64
        } ],
        "name" : "Watch Ye Saints",
        "release_date" : "2009-05-21",
        "release_date_precision" : "day",
        "total_tracks" : 14,
        "type" : "album",
        "uri" : "spotify:album:17pHuDUmlfz5WUr77Q7hG3"
      },
      "artists" : [ {
        "external_urls" : {
          "spotify" : "https://open.spotify.com/artist/4yIatqL69NFsOHiHSauqi5"
        },
        "href" : "https://api.spotify.com/v1/artists/4yIatqL69NFsOHiHSauqi5",
        "id" : "4yIatqL69NFsOHiHSauqi5",
        "name" : "Jeremy Morada",
        "type" : "artist",
        "uri" : "spotify:artist:4yIatqL69NFsOHiHSauqi5"
      } ],
      "disc_number" : 1,
      "duration_ms" : 186346,
      "explicit" : false,
      "external_ids" : {
        "isrc" : "ushm20945449"
      },
      "external_urls" : {
        "spotify" : "https://open.spotify.com/track/26alHts1V5zxi2CcNQzxK3"
      },
      "href" : "https://api.spotify.com/v1/tracks/26alHts1V5zxi2CcNQzxK3",
      "id" : "26alHts1V5zxi2CcNQzxK3",
      "is_local" : false,
      "is_playable" : true,
      "name" : "Be Devoted - Galatians 6:2, Romans 12:10",
      "popularity" : 0,
      "preview_url" : "https://p.scdn.co/mp3-preview/f744232d7af323faeb17dec1df4af2247d4b75fb?cid=774b29d4f13844c495f206cafdad9c86",
      "track_number" : 1,
      "type" : "track",
      "uri" : "spotify:track:26alHts1V5zxi2CcNQzxK3"
    } ],
    "limit" : 10,
    "next" : "https://api.spotify.com/v1/search?query=Watch%2C+Ye+Saints&type=track&market=US&offset=15&limit=10",
    "offset" : 5,
    "previous" : "https://api.spotify.com/v1/search?query=Watch%2C+Ye+Saints&type=track&market=US&offset=0&limit=10",
    "total" : 19
  }
}