{
  "tracks" : {
    "href" : "https://api.spotify.com/v1/search?query=Turn+Your+Eyes+Upon+Jesus&type=track&market=US&offset=5&limit=10",
    "items" : [ {
      "album" : {
        "album_type" : "album",
        "artists" : [ {
          "external_urls" : {
            "spotify" : "https://open.spotify.com/artist/7dc9jcxR0GgRMoNasStnmZ"
          },
          "href" : "https://api.spotify.com/v1/artists/7dc9jcxR0GgRMoNasStnmZ",
          "id" : "7dc9jcxR0GgRMoNasStnmZ",
          "name" : "David Baroni",
          "type" : "artist",
          "uri" : "spotify:artist:7dc9jcxR0GgRMoNasStnmZ"
        } ],
        "external_urls" : {
          "spotify" : "https://open.spotify.com/album/0QOzN93Vhpw1rwTonEKrnf"
        },
        "href" : "https://api.spotify.com/v1/albums/0QOzN93Vhpw1rwTonEKrnf",
        "id" : "0QOzN93Vhpw1rwTonEKrnf",
        "images" : [ {
          "height" : 640,
          "url" : "https://i.scdn.co/image/ab67616d0000b273ddfd3808b869d69ac7b94ceb",
          "width" : 640
        }, {
          "height" : 300,
          "url" : "https://i.scdn.co/image/ab67616d00001e02ddfd3808b869d69ac7b94ceb",
          "width" : 300
        }, {
          "height" : 64,
          "url" : "https://i.scdn.co/image/ab67616d00004851ddfd3808b869d69ac7b94ceb",
          "width" : 64
        } ],
        "name" : "A Quiet Place: Instrumental Hymns",
        "release_date" : "2009-11-28",
        "release_date_precision" : "day",
        "total_tracks" : 12,
        "type" : "album",
        "uri" : "spotify:album:0QOzN93Vhpw1rwTonEKrnf"
      },
      "artists" : [ {
        "external_urls" : {
          "spotify" : "https://open.spotify.com/artist/7dc9jcxR0GgRMoNasStnmZ"
        },
        "href" : "https://api.spotify.com/v1/artists/7dc9jcxR0GgRMoNasStnmZ",
        "id" : "7dc9jcxR0GgRMoNasStnmZ",
        "name" : "David Baroni",
        "type" : "artist",
        "uri" : "spotify:artist:7dc9jcxR0GgRMoNasStnmZ"
      } ],
      "disc_number" : 1,
      "duration_ms" : 207480,
      "explicit" : false,
      "external_ids" : {
        "isrc" : "usx9p0933854"
      },
      "external_urls" : {
        "spotify" : "https://open.spotify.com/track/6TMeSTdXOMymAASez4OFt5"
      },
      "href" : "https://api.spotify.com/v1/tracks/6TMeSTdXOMymAASez4OFt5",
      "id" : "6TMeSTdXOMymAASez4OFt5",
      "is_local" : false,
      "is_playable" : true,
      "name" : "Turn Your Eyes Upon Jesus",
      "popularity" : 40,
      "preview_url" : "https://p.scdn.co/mp3-preview/439d08607d941686b82cb4c5cf1592e18b55107c?cid=774b29d4f13844c495f206cafdad9c86",
      "track_number" : 12,
      "type" : "track",
      "uri" : "spotify:track:6TMeSTdXOMymAASez4OFt5"
    }, {
      "album" : {
        "album_type" : "album",
        "artists" : [ {
          "external_urls" : {
            "spotify" : "https://open.spotify.com/artist/2LFbgsbEhfilNpQYW7mied"
          },
          "href" : "https://api.spotify.com/v1/artists/2LFbgsbEhfilNpQYW7mied",
          "id" : "2LFbgsbEhfilNpQYW7mied",
          "name" : "Shane & Shane",
          "type" : "artist",
          "uri" : "spotify:artist:2LFbgsbEhfilNpQYW7mied"
        } ],
        "external_urls" : {
          "spotify" : "https://open.spotify.com/album/7lNYY32MRpKbPtzOpRpBC4"
        },
        "href" : "https://api.spotify.com/v1/albums/7lNYY32MRpKbPtzOpRpBC4",
        "id" : "7lNYY32MRpKbPtzOpRpBC4",
        "images" : [ {
          "height" : 640,
          "url" : "https://i.scdn.co/image/ab67616d0000b27343d1edb2bc9d898a3e84a8ba",
          "width" : 640
        }, {
          "height" : 300,
          "url" : "https://i.scdn.co/image/ab67616d00001e0243d1edb2bc9d898a3e84a8ba",
          "width" : 300
        }, {
          "height" : 64,
          "url" : "https://i.scdn.co/image/ab67616d0000485143d1edb2bc9d898a3e84a8ba",
          "width" : 64
        } ],
        "name" : "Hymns, Vol. 2",
        "release_date" : "2019-08-20",
        "release_date_precision" : "day",
        "total_tracks" : 10,
        "type" : "album",
        "uri" : "spotify:album:7lNYY32MRpKbPtzOpRpBC4"
      },
      "artists" : [ {
        "external_urls" : {
          "spotify" : "https://open.spotify.com/artist/2LFbgsbEhfilNpQYW7mied"
        },
        "href" : "https://api.spotify.com/v1/artists/2LFbgsbEhfilNpQYW7mied",
        "id" : "2LFbgsbEhfilNpQYW7mied",
        "name" : "Shane & Shane",
        "type" : "artist",
        "uri" : "spotify:artist:2LFbgsbEhfilNpQYW7mied"
      } ],
      "disc_number" : 1,
      "duration_ms" : 300065,
      "explicit" : false,
      "external_ids" : {
        "isrc" : "USDHM1913187"
      },
      "external_urls" : {
        "spotify" : "https://open.spotify.com/track/21YmIqoThBtKvMCIf3G8Cf"
      },
      "href" : "https://api.spotify.com/v1/tracks/21YmIqoThBtKvMCIf3G8Cf",
      "id" : "21YmIqoThBtKvMCIf3G8Cf",
      "is_local" : false,
      "is_playable" : true,
      "name" : "Turn Your Eyes Upon Jesus (Amazing Grace)",
      "popularity" : 40,
      "preview_url" : "https://p.scdn.co/mp3-preview/3cf1485ef5e1b77864aec9c206b4f5f9310a45e1?cid=774b29d4f13844c495f206cafdad9c86",
      "track_number" : 2,
      "type" : "track",
      "uri" : "spotify:track:21YmIqoThBtKvMCIf3G8Cf"
    }, {
      "album" : {
        "album_type" : "album",
        "artists" : [ {
          "external_urls" : {
            "spotify" : "https://open.spotify.com/artist/2bBRxQ6hEba2rm64HLgFTo"
          },
          "href" : "https://api.spotify.com/v1/artists/2bBRxQ6hEba2rm64HLgFTo",
          "id" : "2bBRxQ6hEba2rm64HLgFTo",
          "name" : "Scripture Lullabies",
          "type" : "artist",
          "uri" : "spotify:artist:2bBRxQ6hEba2rm64HLgFTo"
        } ],
        "external_urls" : {
          "spotify" : "https://open.spotify.com/album/130Oz9WUZt6fPh3WWTCIcX"
        },
        "href" : "https://api.spotify.com/v1/albums/130Oz9WUZt6fPh3WWTCIcX",
        "id" : "130Oz9WUZt6fPh3WWTCIcX",
        "images" : [ {
          "height" : 640,
          "url" : "https://i.scdn.co/image/ab67616d0000b27346540450b17ee59f837ef1df",
          "width" : 640
        }, {
          "height" : 300,
          "url" : "https://i.scdn.co/image/ab67616d00001e0246540450b17ee59f837ef1df",
          "width" : 300
        }, {
          "height" : 64,
          "url" : "https://i.scdn.co/image/ab67616d0000485146540450b17ee59f837ef1df",
          "width" : 64
        } ],
        "name" : "Hidden in My Heart (A Lullaby Journey Through the Life of Jesus), Vol. 3",
        "release_date" : "2013-12-13",
        "release_date_precision" : "day",
        "total_tracks" : 15,
        "type" : "album",
        "uri" : "spotify:album:130Oz9WUZt6fPh3WWTCIcX"
      },
      "artists" : [ {
        "external_urls" : {
          "spotify" : "https://open.spotify.com/artist/2bBRxQ6hEba2rm64HLgFTo"
        },
        "href" : "https://api.spotify.com/v1/artists/2bBRxQ6hEba2rm64HLgFTo",
        "id" : "2bBRxQ6hEba2rm64HLgFTo",
        "name" : "Scripture Lullabies",
        "type" : "artist",
        "uri" : "spotify:artist:2bBRxQ6hEba2rm64HLgFTo"
      } ],
      "disc_number" : 1,
      "duration_ms" : 153373,
      "explicit" : false,
      "external_ids" : {
        "isrc" : "US8CK1300015"
      },
      "external_urls" : {
        "spotify" : "https://open.spotify.com/track/7g2tOQ5qVsKPv46SNJzAqh"
      },
      "href" : "https://api.spotify.com/v1/tracks/7g2tOQ5qVsKPv46SNJzAqh",
      "id" : "7g2tOQ5qVsKPv46SNJzAqh",
      "is_local" : false,
      "is_playable" : true,
      "name" : "Turn Your Eyes Upon Jesus",
      "popularity" : 36,
      "preview_url" : "https://p.scdn.co/mp3-preview/a7231b82f48c9437849be1150b2022afcfbaef3f?cid=774b29d4f13844c495f206cafdad9c86",
      "track_number" : 15,
      "type" : "track",
      "uri" : "spotify:track:7g2tOQ5qVsKPv46SNJzAqh"
    }, {
      "album" : {
        "album_type" : "single",
        "artists" : [ {
          "external_urls" : {
            "spotify" : "https://open.spotify.com/artist/1KfPdjKbfIqoDnLVWAcXYn"
          },
          "href" : "https://api.spotify.com/v1/artists/1KfPdjKbfIqoDnLVWAcXYn",
          "id" : "1KfPdjKbfIqoDnLVWAcXYn",
          "name" : "Noah James",
          "type" : "artist",
          "uri" : "spotify:artist:1KfPdjKbfIqoDnLVWAcXYn"
        }, {
          "external_urls" : {
            "spotify" : "https://open.spotify.com/artist/1SmvWPV9m0jkZrDHEX0orP"
          },
          "href" : "https://api.spotify.com/v1/artists/1SmvWPV9m0jkZrDHEX0orP",
          "id" : "1SmvWPV9m0jkZrDHEX0orP",
          "name" : "The Executives",
          "type" : "artist",
          "uri" : "spotify:artist:1SmvWPV9m0jkZrDHEX0orP"
        } ],
        "external_urls" : {
          "spotify" : "https://open.spotify.com/album/2BVLcwRbPBmqxhteoC4U6J"
        },
        "href" : "https://api.spotify.com/v1/albums/2BVLcwRbPBmqxhteoC4U6J",
        "id" : "2BVLcwRbPBmqxhteoC4U6J",
        "images" : [ {
          "height" : 640,
          "url" : "https://i.scdn.co/image/ab67616d0000b2736283e7cb059f186e8867130f",
          "width" : 640
        }, {
          "height" : 300,
          "url" : "https://i.scdn.co/image/ab67616d00001e026283e7cb059f186e8867130f",
          "width" : 300
        }, {
          "height" : 64,
          "url" : "https://i.scdn.co/image/ab67616d000048516283e7cb059f186e8867130f",
          "width" : 64
        } ],
        "name" : "Hymns EP",
        "release_date" : "2013-07-16",
        "release_date_precision" : "day",
        "total_tracks" : 5,
        "type" : "album",
        "uri" : "spotify:album:2BVLcwRbPBmqxhteoC4U6J"
      },
      "artists" : [ {
        "external_urls" : {
          "spotify" : "https://open.spotify.com/artist/4A5PRMT58SrQ4IhPLMVRG6"
        },
        "href" : "https://api.spotify.com/v1/artists/4A5PRMT58SrQ4IhPLMVRG6",
        "id" : "4A5PRMT58SrQ4IhPLMVRG6",
        "name" : "Noah James & The Executives",
        "type" : "artist",
        "uri" : "spotify:artist:4A5PRMT58SrQ4IhPLMVRG6"
      } ],
      "disc_number" : 1,
      "duration_ms" : 229373,
      "explicit" : false,
      "external_ids" : {
        "isrc" : "TCABN1391583"
      },
      "external_urls" : {
        "spotify" : "https://open.spotify.com/track/3yMbyjwBb3kJyBnA0UXy65"
      },
      "href" : "https://api.spotify.com/v1/tracks/3yMbyjwBb3kJyBnA0UXy65",
      "id" : "3yMbyjwBb3kJyBnA0UXy65",
      "is_local" : false,
      "is_playable" : true,
      "name" : "Turn Your Eyes Upon Jesus",
      "popularity" : 34,
      "preview_url" : "https://p.scdn.co/mp3-preview/8ba712ef2204868dc8b022d373aab5a221e4e95a?cid=774b29d4f13844c495f206cafdad9c86",
      "track_number" : 5,
      "type" : "track",
      "uri" : "spotify:track:3yMbyjwBb3kJyBnA0UXy65"
    }, {
      "album" : {
        "album_type" : "album",
        "artists" : [ {
          "external_urls" : {
            "spotify" : "https://open.spotify.com/artist/11sAWrpIkFUPQlXoQqpeBV"
          },
          "href" : "https://api.spotify.com/v1/artists/11sAWrpIkFUPQlXoQqpeBV",
          "id" : "11sAWrpIkFUPQlXoQqpeBV",
          "name" : "Bill & Gloria Gaither",
          "type" : "artist",
          "uri" : "spotify:artist:11sAWrpIkFUPQlXoQqpeBV"
        } ],
        "external_urls" : {
          "spotify" : "https://open.spotify.com/album/4wgqfvGm5dKDcIbQsWeAaa"
        },
        "href" : "https://api.spotify.com/v1/albums/4wgqfvGm5dKDcIbQsWeAaa",
        "id" : "4wgqfvGm5dKDcIbQsWeAaa",
        "images" : [ {
          "height" : 640,
          "url" : "https://i.scdn.co/image/ab67616d0000b273cf3b5f665e9d4fdaf1e5f647",
          "width" : 640
        }, {
          "height" : 300,
          "url" : "https://i.scdn.co/image/ab67616d00001e02cf3b5f665e9d4fdaf1e5f647",
          "width" : 300
        }, {
          "height" : 64,
          "url" : "https://i.scdn.co/image/ab67616d00004851cf3b5f665e9d4fdaf1e5f647",
          "width" : 64
        } ],
        "name" : "Turn Your Radio On",
        "release_date" : "1993",
        "release_date_precision" : "year",
        "total_tracks" : 21,
        "type" : "album",
        "uri" : "spotify:album:4wgqfvGm5dKDcIbQsWeAaa"
      },
      "artists" : [ {
        "external_urls" : {
          "spotify" : "https://open.spotify.com/artist/11sAWrpIkFUPQlXoQqpeBV"
        },
        "href" : "https://api.spotify.com/v1/artists/11sAWrpIkFUPQlXoQqpeBV",
        "id" : "11sAWrpIkFUPQlXoQqpeBV",
        "name" : "Bill & Gloria Gaither",
        "type" : "artist",
        "uri" : "spotify:artist:11sAWrpIkFUPQlXoQqpeBV"
      } ],
      "disc_number" : 1,
      "duration_ms" : 127800,
      "explicit" : false,
      "external_ids" : {
        "isrc" : "US3270402087"
      },
      "external_urls" : {
        "spotify" : "https://open.spotify.com/track/6mGmmr26OFFTVBywCJDxFS"
      },
      "href" : "https://api.spotify.com/v1/tracks/6mGmmr26OFFTVBywCJDxFS",
      "id" : "6mGmmr26OFFTVBywCJDxFS",
      "is_local" : false,
      "is_playable" : true,
      "name" : "Turn Your Eyes Upon Jesus",
      "popularity" : 32,
      "preview_url" : null,
      "track_number" : 11,
      "type" : "track",
      "uri" : "spotify:track:6mGmmr26OFFTVBywCJDxFS"
    }, {
      "album" : {
        "album_type" : "album",
        "artists" : [ {
          "external_urls" : {
            "spotify" : "https://open.spotify.com/artist/3SgHzT552wy2W8pNLaLk24"
          },
          "href" : "https://api.spotify.com/v1/artists/3SgHzT552wy2W8pNLaLk24",
          "id" : "3SgHzT552wy2W8pNLaLk24",
          "name" : "Hillsong Worship",
          "type" : "artist",
          "uri" : "spotify:artist:3SgHzT552wy2W8pNLaLk24"
        } ],
        "external_urls" : {
          "spotify" : "https://open.spotify.com/album/64JHslZZ5Y8uj0HhjGr7th"
        },
        "href" : "https://api.spotify.com/v1/albums/64JHslZZ5Y8uj0HhjGr7th",
        "id" : "64JHslZZ5Y8uj0HhjGr7th",
        "images" : [ {
          "height" : 640,
          "url" : "https://i.scdn.co/image/ab67616d0000b273a8a117e06caf354752027c71",
          "width" : 640
        }, {
          "height" : 300,
          "url" : "https://i.scdn.co/image/ab67616d00001e02a8a117e06caf354752027c71",
          "width" : 300
        }, {
          "height" : 64,
          "url" : "https://i.scdn.co/image/ab67616d00004851a8a117e06caf354752027c71",
          "width" : 64
        } ],
        "name" : "This Is Our God (Live)",
        "release_date" : "2008",
        "release_date_precision" : "year",
        "total_tracks" : 16,
        "type" : "album",
        "uri" : "spotify:album:64JHslZZ5Y8uj0HhjGr7th"
      },
      "artists" : [ {
        "external_urls" : {
          "spotify" : "https://open.spotify.com/artist/3SgHzT552wy2W8pNLaLk24"
        },
        "href" : "https://api.spotify.com/v1/artists/3SgHzT552wy2W8pNLaLk24",
        "id" : "3SgHzT552wy2W8pNLaLk24",
        "name" : "Hillsong Worship",
        "type" : "artist",
        "uri" : "spotify:artist:3SgHzT552wy2W8pNLaLk24"
      } ],
      "disc_number" : 1,
      "duration_ms" : 105400,
      "explicit" : false,
      "external_ids" : {
        "isrc" : "AUHS00803011"
      },
      "external_urls" : {
        "spotify" : "https://open.spotify.com/track/0GfTlpHyJ3jDCKrgrevTng"
      },
      "href" : "https://api.spotify.com/v1/tracks/0GfTlpHyJ3jDCKrgrevTng",
      "id" : "0GfTlpHyJ3jDCKrgrevTng",
      "is_local" : false,
      "is_playable" : true,
      "name" : "Turn Your Eyes Upon Jesus - Live",
      "popularity" : 31,
      "preview_url" : null,
      "track_number" : 15,
      "type" : "track",
      "uri" : "spotify:track:0GfTlpHyJ3jDCKrgrevTng"
    }, {
      "album" : {
        "album_type" : "single",
        "artists" : [ {
          "external_urls" : {
            "spotify" : "https://open.spotify.com/artist/0rAp8I6gq67AJEmzWEJ1ri"
          },
          "href" : "https://api.spotify.com/v1/artists/0rAp8I6gq67AJEmzWEJ1ri",
          "id" : "0rAp8I6gq67AJEmzWEJ1ri",
          "name" : "Rachael Lampa",
          "type" : "artist",
          "uri" : "spotify:artist:0rAp8I6gq67AJEmzWEJ1ri"
        } ],
        "external_urls" : {
          "spotify" : "https://open.spotify.com/album/4oiS2A4mcwwsJBxHellUOi"
        },
        "href" : "https://api.spotify.com/v1/albums/4oiS2A4mcwwsJBxHellUOi",
        "id" : "4oiS2A4mcwwsJBxHellUOi",
        "images" : [ {
          "height" : 640,
          "url" : "https://i.scdn.co/image/ab67616d0000b27327edff7d331cb56b4f76e406",
          "width" : 640
        }, {
          "height" : 300,
          "url" : "https://i.scdn.co/image/ab67616d00001e0227edff7d331cb56b4f76e406",
          "width" : 300
        }, {
          "height" : 64,
          "url" : "https://i.scdn.co/image/ab67616d0000485127edff7d331cb56b4f76e406",
          "width" : 64
        } ],
        "name" : "Turn Your Eyes Upon Jesus",
        "release_date" : "2017-12-04",
        "release_date_precision" : "day",
        "total_tracks" : 1,
        "type" : "album",
        "uri" : "spotify:album:4oiS2A4mcwwsJBxHellUOi"
      },
      "artists" : [ {
        "external_urls" : {
          "spotify" : "https://open.spotify.com/artist/0rAp8I6gq67AJEmzWEJ1ri"
        },
        "href" : "https://api.spotify.com/v1/artists/0rAp8I6gq67AJEmzWEJ1ri",
        "id" : "0rAp8I6gq67AJEmzWEJ1ri",
        "name" : "Rachael Lampa",
        "type" : "artist",
        "uri" : "spotify:artist:0rAp8I6gq67AJEmzWEJ1ri"
      } ],
      "disc_number" : 1,
      "duration_ms" : 201627,
      "explicit" : false,
      "external_ids" : {
        "isrc" : "TCADJ1780187"
      },
      "external_urls" : {
        "spotify" : "https://open.spotify.com/track/3Yo3Ba8ESTuf3mAtksAQjS"
      },
      "href" : "https://api.spotify.com/v1/tracks/3Yo3Ba8ESTuf3mAtksAQjS",
      "id" : "3Yo3Ba8ESTuf3mAtksAQjS",
      "is_local" : false,
      "is_playable" : true,
      "name" : "Turn Your Eyes Upon Jesus",
      "popularity" : 33,
      "preview_url" : "https://p.scdn.co/mp3-preview/718888790f24b6a30cbdde807aa036d7036b6b45?cid=774b29d4f13844c495f206cafdad9c86",
      "track_number" : 1,
      "type" : "track",
      "uri" : "spotify:track:3Yo3Ba8ESTuf3mAtksAQjS"
    }, {
      "album" : {
        "album_type" : "album",
        "artists" : [ {
          "external_urls" : {
            "spotify" : "https://open.spotify.com/artist/0U0Vlp1HGGUpeXgiqoLwf6"
          },
          "href" : "https://api.spotify.com/v1/artists/0U0Vlp1HGGUpeXgiqoLwf6",
          "id" : "0U0Vlp1HGGUpeXgiqoLwf6",
          "name" : "Anthony Burger",
          "type" : "artist",
          "uri" : "spotify:artist:0U0Vlp1HGGUpeXgiqoLwf6"
        } ],
        "external_urls" : {
          "spotify" : "https://open.spotify.com/album/5jbwOux9XlXlYADVzTIhsq"
        },
        "href" : "https://api.spotify.com/v1/albums/5jbwOux9XlXlYADVzTIhsq",
        "id" : "5jbwOux9XlXlYADVzTIhsq",
        "images" : [ {
          "height" : 640,
          "url" : "https://i.scdn.co/image/ab67616d0000b273f4b6d86ceff7c1c608bc854c",
          "width" : 640
        }, {
          "height" : 300,
          "url" : "https://i.scdn.co/image/ab67616d00001e02f4b6d86ceff7c1c608bc854c",
          "width" : 300
        }, {
          "height" : 64,
          "url" : "https://i.scdn.co/image/ab67616d00004851f4b6d86ceff7c1c608bc854c",
          "width" : 64
        } ],
        "name" : "Hymns Collection",
        "release_date" : "2008-01-01",
        "release_date_precision" : "day",
        "total_tracks" : 19,
        "type" : "album",
        "uri" : "spotify:album:5jbwOux9XlXlYADVzTIhsq"
      },
      "artists" : [ {
        "external_urls" : {
          "spotify" : "https://open.spotify.com/artist/0U0Vlp1HGGUpeXgiqoLwf6"
        },
        "href" : "https://api.spotify.com/v1/artists/0U0Vlp1HGGUpeXgiqoLwf6",
        "id" : "0U0Vlp1HGGUpeXgiqoLwf6",
        "name" : "Anthony Burger",
        "type" : "artist",
        "uri" : "spotify:artist:0U0Vlp1HGGUpeXgiqoLwf6"
      } ],
      "disc_number" : 1,
      "duration_ms" : 265266,
      "explicit" : false,
      "external_ids" : {
        "isrc" : "USB4U0800111"
      },
      "external_urls" : {
        "spotify" : "https://open.spotify.com/track/56k68IZYkOhInURZLpXV2y"
      },
      "href" : "https://api.spotify.com/v1/tracks/56k68IZYkOhInURZLpXV2y",
      "id" : "56k68IZYkOhInURZLpXV2y",
      "is_local" : false,
      "is_playable" : true,
      "name" : "Turn Your Eyes Upon Jesus/Softly And Tenderly - Medley",
      "popularity" : 35,
      "preview_url" : null,
      "track_number" : 8,
      "type" : "track",
      "uri" : "spotify:track:56k68IZYkOhInURZLpXV2y"
    }, {
      "album" : {
        "album_type" : "album",
        "artists" : [ {
          "external_urls" : {
            "spotify" : "https://open.spotify.com/artist/5aBxFPaaGk9204ssHUvXWN"
          },
          "href" : "https://api.spotify.com/v1/artists/5aBxFPaaGk9204ssHUvXWN",
          "id" : "5aBxFPaaGk9204ssHUvXWN",
          "name" : "Michael W. Smith",
          "type" : "artist",
          "uri" : "spotify:artist:5aBxFPaaGk9204ssHUvXWN"
        } ],
        "external_urls" : {
          "spotify" : "https://open.spotify.com/album/4uWr8fOgmNBCP5awR10dbs"
        },
        "href" : "https://api.spotify.com/v1/albums/4uWr8fOgmNBCP5awR10dbs",
        "id" : "4uWr8fOgmNBCP5awR10dbs",
        "images" : [ {
          "height" : 640,
          "url" : "https://i.scdn.co/image/ab67616d0000b273be6319a8373af0d97b33fe15",
          "width" : 640
        }, {
          "height" : 300,
          "url" : "https://i.scdn.co/image/ab67616d00001e02be6319a8373af0d97b33fe15",
          "width" : 300
        }, {
          "height" : 64,
          "url" : "https://i.scdn.co/image/ab67616d00004851be6319a8373af0d97b33fe15",
          "width" : 64
        } ],
        "name" : "Worship",
        "release_date" : "2001",
        "release_date_precision" : "year",
        "total_tracks" : 13,
        "type" : "album",
        "uri" : "spotify:album:4uWr8fOgmNBCP5awR10dbs"
      },
      "artists" : [ {
        "external_urls" : {
          "spotify" : "https://open.spotify.com/artist/5aBxFPaaGk9204ssHUvXWN"
        },
        "href" : "https://api.spotify.com/v1/artists/5aBxFPaaGk9204ssHUvXWN",
        "id" : "5aBxFPaaGk9204ssHUvXWN",
        "name" : "Michael W. Smith",
        "type" : "artist",
        "uri" : "spotify:artist:5aBxFPaaGk9204ssHUvXWN"
      } ],
      "disc_number" : 1,
      "duration_ms" : 192266,
      "explicit" : false,
      "external_ids" : {
        "isrc" : "USRR40100036"
      },
      "external_urls" : {
        "spotify" : "https://open.spotify.com/track/35PSFJCpgaWx3ORQkt3NpU"
      },
      "href" : "https://api.spotify.com/v1/tracks/35PSFJCpgaWx3ORQkt3NpU",
      "id" : "35PSFJCpgaWx3ORQkt3NpU",
      "is_local" : false,
      "is_playable" : true,
      "name" : "Turn Your Eyes Upon Jesus - Live",
      "popularity" : 35,
      "preview_url" : "https://p.scdn.co/mp3-preview/798b51bc605e83853905e8c7691d4c0ebd7d0a09?cid=774b29d4f13844c495f206cafdad9c86",
      "track_number" : 4,
      "type" : "track",
      "uri" : "spotify:track:35PSFJCpgaWx3ORQkt3NpU"
    }, {
      "album" : {
        "album_type" : "single",
        "artists" : [ {
          "external_urls" : {
            "spotify" : "https://open.spotify.com/artist/0KSjxPoT71Dq8qcgfWTdHh"
          },
          "href" : "https://api.spotify.com/v1/artists/0KSjxPoT71Dq8qcgfWTdHh",
          "id" : "0KSjxPoT71Dq8qcgfWTdHh",
          "name" : "Nichole Nordeman",
          "type" : "artist",
          "uri" : "spotify:artist:0KSjxPoT71Dq8qcgfWTdHh"
        } ],
        "external_urls" : {
          "spotify" : "https://open.spotify.com/album/4mSY6Ivl92ZRLPjS5rR6PD"
        },
        "href" : "https://api.spotify.com/v1/albums/4mSY6Ivl92ZRLPjS5rR6PD",
        "id" : "4mSY6Ivl92ZRLPjS5rR6PD",
        "images" : [ {
          "height" : 640,
          "url" : "https://i.scdn.co/image/ab67616d0000b273d341b250bab4561b06dc551a",
          "width" : 640
        }, {
          "height" : 300,
          "url" : "https://i.scdn.co/image/ab67616d00001e02d341b250bab4561b06dc551a",
          "width" : 300
        }, {
          "height" : 64,
          "url" : "https://i.scdn.co/image/ab67616d00004851d341b250bab4561b06dc551a",
          "width" : 64
        } ],
        "name" : "Turn Your Eyes Upon Jesus (Look Up)",
        "release_date" : "2013-01-01",
        "release_date_precision" : "day",
        "total_tracks" : 1,
        "type" : "album",
        "uri" : "spotify:album:4mSY6Ivl92ZRLPjS5rR6PD"
      },
      "artists" : [ {
        "external_urls" : {
          "spotify" : "https://open.spotify.com/artist/0KSjxPoT71Dq8qcgfWTdHh"
        },
        "href" : "https://api.spotify.com/v1/artists/0KSjxPoT71Dq8qcgfWTdHh",
        "id" : "0KSjxPoT71Dq8qcgfWTdHh",
        "name" : "Nichole Nordeman",
        "type" : "artist",
        "uri" : "spotify:artist:0KSjxPoT71Dq8qcgfWTdHh"
      } ],
      "disc_number" : 1,
      "duration_ms" : 238333,
      "explicit" : false,
      "external_ids" : {
        "isrc" : "USSP31300016"
      },
      "external_urls" : {
        "spotify" : "https://open.spotify.com/track/4D2F9kek7qfmUQzZV8ycdw"
      },
      "href" : "https://api.spotify.com/v1/tracks/4D2F9kek7qfmUQzZV8ycdw",
      "id" : "4D2F9kek7qfmUQzZV8ycdw",
      "is_local" : false,
      "is_playable" : true,
      "name" : "Turn Your Eyes Upon Jesus (Look Up)",
      "popularity" : 31,
      "preview_url" : null,
      "track_number" : 1,
      "type" : "track",
      "uri" : "spotify:track:4D2F9kek7qfmUQzZV8ycdw"
    } ],
    "limit" : 10,
    "next" : "https://api.spotify.com/v1/search?query=Turn+Your+Eyes+Upon+Jesus&type=track&market=US&offset=15&limit=10",
    "offset" : 5,
    "previous" : "https://api.spotify.com/v1/search?query=Turn+Your+Eyes+Upon+Jesus&type=track&market=US&offset=0&limit=10",
    "total" : 625
  }
}