{
  "tracks" : {
    "href" : "https://api.spotify.com/v1/search?query=There+Is+a+Green+Hill+Far+Away&type=track&market=US&offset=5&limit=10",
    "items" : [ {
      "album" : {
        "album_type" : "album",
        "artists" : [ {
          "external_urls" : {
            "spotify" : "https://open.spotify.com/artist/6jjuxOU1va94mNHZpHTdWn"
          },
          "href" : "https://api.spotify.com/v1/artists/6jjuxOU1va94mNHZpHTdWn",
          "id" : "6jjuxOU1va94mNHZpHTdWn",
          "name" : "Michael Ethington",
          "type" : "artist",
          "uri" : "spotify:artist:6jjuxOU1va94mNHZpHTdWn"
        } ],
        "external_urls" : {
          "spotify" : "https://open.spotify.com/album/23QhAd7IsendqPyLF0tVuU"
        },
        "href" : "https://api.spotify.com/v1/albums/23QhAd7IsendqPyLF0tVuU",
        "id" : "23QhAd7IsendqPyLF0tVuU",
        "images" : [ {
          "height" : 640,
          "url" : "https://i.scdn.co/image/ab67616d0000b273597a0035ee55b6f1d512e4d4",
          "width" : 640
        }, {
          "height" : 300,
          "url" : "https://i.scdn.co/image/ab67616d00001e02597a0035ee55b6f1d512e4d4",
          "width" : 300
        }, {
          "height" : 64,
          "url" : "https://i.scdn.co/image/ab67616d00004851597a0035ee55b6f1d512e4d4",
          "width" : 64
        } ],
        "name" : "BECOME",
        "release_date" : "2011-12-01",
        "release_date_precision" : "day",
        "total_tracks" : 13,
        "type" : "album",
        "uri" : "spotify:album:23QhAd7IsendqPyLF0tVuU"
      },
      "artists" : [ {
        "external_urls" : {
          "spotify" : "https://open.spotify.com/artist/6jjuxOU1va94mNHZpHTdWn"
        },
        "href" : "https://api.spotify.com/v1/artists/6jjuxOU1va94mNHZpHTdWn",
        "id" : "6jjuxOU1va94mNHZpHTdWn",
        "name" : "Michael Ethington",
        "type" : "artist",
        "uri" : "spotify:artist:6jjuxOU1va94mNHZpHTdWn"
      } ],
      "disc_number" : 1,
      "duration_ms" : 423253,
      "explicit" : false,
      "external_ids" : {
        "isrc" : "ushm91180669"
      },
      "external_urls" : {
        "spotify" : "https://open.spotify.com/track/551fJvpeIK0SUV7Hf2sEpu"
      },
      "href" : "https://api.spotify.com/v1/tracks/551fJvpeIK0SUV7Hf2sEpu",
      "id" : "551fJvpeIK0SUV7Hf2sEpu",
      "is_local" : false,
      "is_playable" : true,
      "name" : "There Is a Green Hill Far Away",
      "popularity" : 23,
      "preview_url" : "https://p.scdn.co/mp3-preview/58a7986bad8351105b6646e1e3c46af7eb4c0cb8?cid=774b29d4f13844c495f206cafdad9c86",
      "track_number" : 7,
      "type" : "track",
      "uri" : "spotify:track:551fJvpeIK0SUV7Hf2sEpu"
    }, {
      "album" : {
        "album_type" : "album",
        "artists" : [ {
          "external_urls" : {
            "spotify" : "https://open.spotify.com/artist/4tfY4Ej43I6BJdGaWaQE2z"
          },
          "href" : "https://api.spotify.com/v1/artists/4tfY4Ej43I6BJdGaWaQE2z",
          "id" : "4tfY4Ej43I6BJdGaWaQE2z",
          "name" : "Voice Male",
          "type" : "artist",
          "uri" : "spotify:artist:4tfY4Ej43I6BJdGaWaQE2z"
        } ],
        "external_urls" : {
          "spotify" : "https://open.spotify.com/album/5ZvzUJgTtqem54y2eoBTit"
        },
        "href" : "https://api.spotify.com/v1/albums/5ZvzUJgTtqem54y2eoBTit",
        "id" : "5ZvzUJgTtqem54y2eoBTit",
        "images" : [ {
          "height" : 640,
          "url" : "https://i.scdn.co/image/ab67616d0000b27359da149e04c292a1b58a2f27",
          "width" : 640
        }, {
          "height" : 300,
          "url" : "https://i.scdn.co/image/ab67616d00001e0259da149e04c292a1b58a2f27",
          "width" : 300
        }, {
          "height" : 64,
          "url" : "https://i.scdn.co/image/ab67616d0000485159da149e04c292a1b58a2f27",
          "width" : 64
        } ],
        "name" : "Hims II",
        "release_date" : "2003-11-20",
        "release_date_precision" : "day",
        "total_tracks" : 12,
        "type" : "album",
        "uri" : "spotify:album:5ZvzUJgTtqem54y2eoBTit"
      },
      "artists" : [ {
        "external_urls" : {
          "spotify" : "https://open.spotify.com/artist/4tfY4Ej43I6BJdGaWaQE2z"
        },
        "href" : "https://api.spotify.com/v1/artists/4tfY4Ej43I6BJdGaWaQE2z",
        "id" : "4tfY4Ej43I6BJdGaWaQE2z",
        "name" : "Voice Male",
        "type" : "artist",
        "uri" : "spotify:artist:4tfY4Ej43I6BJdGaWaQE2z"
      } ],
      "disc_number" : 1,
      "duration_ms" : 264133,
      "explicit" : false,
      "external_ids" : {
        "isrc" : "USR7D0800708"
      },
      "external_urls" : {
        "spotify" : "https://open.spotify.com/track/2jVk1CQJ9MjVkQuGt1OFZ7"
      },
      "href" : "https://api.spotify.com/v1/tracks/2jVk1CQJ9MjVkQuGt1OFZ7",
      "id" : "2jVk1CQJ9MjVkQuGt1OFZ7",
      "is_local" : false,
      "is_playable" : true,
      "name" : "There Is a Green Hill Far Away",
      "popularity" : 22,
      "preview_url" : "https://p.scdn.co/mp3-preview/c407110a31323c79d89712dd2a019622f214ff7e?cid=774b29d4f13844c495f206cafdad9c86",
      "track_number" : 8,
      "type" : "track",
      "uri" : "spotify:track:2jVk1CQJ9MjVkQuGt1OFZ7"
    }, {
      "album" : {
        "album_type" : "album",
        "artists" : [ {
          "external_urls" : {
            "spotify" : "https://open.spotify.com/artist/5XribJjEo6W2uyJGeuayo5"
          },
          "href" : "https://api.spotify.com/v1/artists/5XribJjEo6W2uyJGeuayo5",
          "id" : "5XribJjEo6W2uyJGeuayo5",
          "name" : "The LDS Guitar Ensemble",
          "type" : "artist",
          "uri" : "spotify:artist:5XribJjEo6W2uyJGeuayo5"
        } ],
        "external_urls" : {
          "spotify" : "https://open.spotify.com/album/0JanLKBT4ujd9u3Z9vgOLJ"
        },
        "href" : "https://api.spotify.com/v1/albums/0JanLKBT4ujd9u3Z9vgOLJ",
        "id" : "0JanLKBT4ujd9u3Z9vgOLJ",
        "images" : [ {
          "height" : 640,
          "url" : "https://i.scdn.co/image/ab67616d0000b273dac4b81ec442bd437fed2da2",
          "width" : 640
        }, {
          "height" : 300,
          "url" : "https://i.scdn.co/image/ab67616d00001e02dac4b81ec442bd437fed2da2",
          "width" : 300
        }, {
          "height" : 64,
          "url" : "https://i.scdn.co/image/ab67616d00004851dac4b81ec442bd437fed2da2",
          "width" : 64
        } ],
        "name" : "Classic Mormon Hymns",
        "release_date" : "2017-07-22",
        "release_date_precision" : "day",
        "total_tracks" : 15,
        "type" : "album",
        "uri" : "spotify:album:0JanLKBT4ujd9u3Z9vgOLJ"
      },
      "artists" : [ {
        "external_urls" : {
          "spotify" : "https://open.spotify.com/artist/5XribJjEo6W2uyJGeuayo5"
        },
        "href" : "https://api.spotify.com/v1/artists/5XribJjEo6W2uyJGeuayo5",
        "id" : "5XribJjEo6W2uyJGeuayo5",
        "name" : "The LDS Guitar Ensemble",
        "type" : "artist",
        "uri" : "spotify:artist:5XribJjEo6W2uyJGeuayo5"
      } ],
      "disc_number" : 1,
      "duration_ms" : 113581,
      "explicit" : false,
      "external_ids" : {
        "isrc" : "USQY51759927"
      },
      "external_urls" : {
        "spotify" : "https://open.spotify.com/track/32aQ2DWo2uc8u6p5CJMeYl"
      },
      "href" : "https://api.spotify.com/v1/tracks/32aQ2DWo2uc8u6p5CJMeYl",
      "id" : "32aQ2DWo2uc8u6p5CJMeYl",
      "is_local" : false,
      "is_playable" : true,
      "name" : "There Is a Green Hill Far Away",
      "popularity" : 19,
      "preview_url" : "https://p.scdn.co/mp3-preview/e10d4f0a172fa019286b0300f9a3d51bb0755b57?cid=774b29d4f13844c495f206cafdad9c86",
      "track_number" : 13,
      "type" : "track",
      "uri" : "spotify:track:32aQ2DWo2uc8u6p5CJMeYl"
    }, {
      "album" : {
        "album_type" : "album",
        "artists" : [ {
          "external_urls" : {
            "spotify" : "https://open.spotify.com/artist/7IEVFZjwpvFGdbt1Wta3uZ"
          },
          "href" : "https://api.spotify.com/v1/artists/7IEVFZjwpvFGdbt1Wta3uZ",
          "id" : "7IEVFZjwpvFGdbt1Wta3uZ",
          "name" : "Seldom Seen Stevens",
          "type" : "artist",
          "uri" : "spotify:artist:7IEVFZjwpvFGdbt1Wta3uZ"
        } ],
        "external_urls" : {
          "spotify" : "https://open.spotify.com/album/14QxyP9MjaJFtgW3BESx64"
        },
        "href" : "https://api.spotify.com/v1/albums/14QxyP9MjaJFtgW3BESx64",
        "id" : "14QxyP9MjaJFtgW3BESx64",
        "images" : [ {
          "height" : 640,
          "url" : "https://i.scdn.co/image/ab67616d0000b273509b1d88e0d3220c7d919679",
          "width" : 640
        }, {
          "height" : 300,
          "url" : "https://i.scdn.co/image/ab67616d00001e02509b1d88e0d3220c7d919679",
          "width" : 300
        }, {
          "height" : 64,
          "url" : "https://i.scdn.co/image/ab67616d00004851509b1d88e0d3220c7d919679",
          "width" : 64
        } ],
        "name" : "In the Quiet of Sunday Morning",
        "release_date" : "2020-01-10",
        "release_date_precision" : "day",
        "total_tracks" : 18,
        "type" : "album",
        "uri" : "spotify:album:14QxyP9MjaJFtgW3BESx64"
      },
      "artists" : [ {
        "external_urls" : {
          "spotify" : "https://open.spotify.com/artist/7IEVFZjwpvFGdbt1Wta3uZ"
        },
        "href" : "https://api.spotify.com/v1/artists/7IEVFZjwpvFGdbt1Wta3uZ",
        "id" : "7IEVFZjwpvFGdbt1Wta3uZ",
        "name" : "Seldom Seen Stevens",
        "type" : "artist",
        "uri" : "spotify:artist:7IEVFZjwpvFGdbt1Wta3uZ"
      } ],
      "disc_number" : 1,
      "duration_ms" : 86000,
      "explicit" : false,
      "external_ids" : {
        "isrc" : "TCAEP2058512"
      },
      "external_urls" : {
        "spotify" : "https://open.spotify.com/track/3BACWymi7C2ly7aQM5m4uj"
      },
      "href" : "https://api.spotify.com/v1/tracks/3BACWymi7C2ly7aQM5m4uj",
      "id" : "3BACWymi7C2ly7aQM5m4uj",
      "is_local" : false,
      "is_playable" : true,
      "name" : "There Is a Green Hill Far Away",
      "popularity" : 18,
      "preview_url" : "https://p.scdn.co/mp3-preview/f18905ad7624188ace03dfd944d9f4b4a0ef812c?cid=774b29d4f13844c495f206cafdad9c86",
      "track_number" : 18,
      "type" : "track",
      "uri" : "spotify:track:3BACWymi7C2ly7aQM5m4uj"
    }, {
      "album" : {
        "album_type" : "album",
        "artists" : [ {
          "external_urls" : {
            "spotify" : "https://open.spotify.com/artist/0QAXlPCDGgzH24mSqZYjIo"
          },
          "href" : "https://api.spotify.com/v1/artists/0QAXlPCDGgzH24mSqZYjIo",
          "id" : "0QAXlPCDGgzH24mSqZYjIo",
          "name" : "Cory Reese",
          "type" : "artist",
          "uri" : "spotify:artist:0QAXlPCDGgzH24mSqZYjIo"
        } ],
        "external_urls" : {
          "spotify" : "https://open.spotify.com/album/64Ij5VuV64vfMnDQLJzC3Q"
        },
        "href" : "https://api.spotify.com/v1/albums/64Ij5VuV64vfMnDQLJzC3Q",
        "id" : "64Ij5VuV64vfMnDQLJzC3Q",
        "images" : [ {
          "height" : 640,
          "url" : "https://i.scdn.co/image/ab67616d0000b2739a53c3a83da8bfcb82267360",
          "width" : 640
        }, {
          "height" : 300,
          "url" : "https://i.scdn.co/image/ab67616d00001e029a53c3a83da8bfcb82267360",
          "width" : 300
        }, {
          "height" : 64,
          "url" : "https://i.scdn.co/image/ab67616d000048519a53c3a83da8bfcb82267360",
          "width" : 64
        } ],
        "name" : "Believe",
        "release_date" : "2008-11-05",
        "release_date_precision" : "day",
        "total_tracks" : 14,
        "type" : "album",
        "uri" : "spotify:album:64Ij5VuV64vfMnDQLJzC3Q"
      },
      "artists" : [ {
        "external_urls" : {
          "spotify" : "https://open.spotify.com/artist/0QAXlPCDGgzH24mSqZYjIo"
        },
        "href" : "https://api.spotify.com/v1/artists/0QAXlPCDGgzH24mSqZYjIo",
        "id" : "0QAXlPCDGgzH24mSqZYjIo",
        "name" : "Cory Reese",
        "type" : "artist",
        "uri" : "spotify:artist:0QAXlPCDGgzH24mSqZYjIo"
      } ],
      "disc_number" : 1,
      "duration_ms" : 183906,
      "explicit" : false,
      "external_ids" : {
        "isrc" : "ushm80884259"
      },
      "external_urls" : {
        "spotify" : "https://open.spotify.com/track/3aJGQCVwOW1m5cEMPjTbkD"
      },
      "href" : "https://api.spotify.com/v1/tracks/3aJGQCVwOW1m5cEMPjTbkD",
      "id" : "3aJGQCVwOW1m5cEMPjTbkD",
      "is_local" : false,
      "is_playable" : true,
      "name" : "There Is a Green Hill Far Away",
      "popularity" : 20,
      "preview_url" : "https://p.scdn.co/mp3-preview/93d37b9233eaa9550a176b415e69b7071e7ab9f8?cid=774b29d4f13844c495f206cafdad9c86",
      "track_number" : 6,
      "type" : "track",
      "uri" : "spotify:track:3aJGQCVwOW1m5cEMPjTbkD"
    }, {
      "album" : {
        "album_type" : "album",
        "artists" : [ {
          "external_urls" : {
            "spotify" : "https://open.spotify.com/artist/4p42qxNpVZHk3xsUfJF4VO"
          },
          "href" : "https://api.spotify.com/v1/artists/4p42qxNpVZHk3xsUfJF4VO",
          "id" : "4p42qxNpVZHk3xsUfJF4VO",
          "name" : "Jake White",
          "type" : "artist",
          "uri" : "spotify:artist:4p42qxNpVZHk3xsUfJF4VO"
        } ],
        "external_urls" : {
          "spotify" : "https://open.spotify.com/album/26hAmX0dH8UURNY1Tup5oW"
        },
        "href" : "https://api.spotify.com/v1/albums/26hAmX0dH8UURNY1Tup5oW",
        "id" : "26hAmX0dH8UURNY1Tup5oW",
        "images" : [ {
          "height" : 640,
          "url" : "https://i.scdn.co/image/ab67616d0000b2737ee74fd5b6af8d12f1b0eef5",
          "width" : 640
        }, {
          "height" : 300,
          "url" : "https://i.scdn.co/image/ab67616d00001e027ee74fd5b6af8d12f1b0eef5",
          "width" : 300
        }, {
          "height" : 64,
          "url" : "https://i.scdn.co/image/ab67616d000048517ee74fd5b6af8d12f1b0eef5",
          "width" : 64
        } ],
        "name" : "Sunday Morning",
        "release_date" : "2007-01-01",
        "release_date_precision" : "day",
        "total_tracks" : 13,
        "type" : "album",
        "uri" : "spotify:album:26hAmX0dH8UURNY1Tup5oW"
      },
      "artists" : [ {
        "external_urls" : {
          "spotify" : "https://open.spotify.com/artist/4p42qxNpVZHk3xsUfJF4VO"
        },
        "href" : "https://api.spotify.com/v1/artists/4p42qxNpVZHk3xsUfJF4VO",
        "id" : "4p42qxNpVZHk3xsUfJF4VO",
        "name" : "Jake White",
        "type" : "artist",
        "uri" : "spotify:artist:4p42qxNpVZHk3xsUfJF4VO"
      } ],
      "disc_number" : 1,
      "duration_ms" : 170986,
      "explicit" : false,
      "external_ids" : {
        "isrc" : "ushm90779978"
      },
      "external_urls" : {
        "spotify" : "https://open.spotify.com/track/4nsY7D1GBImkgfwuicdBgW"
      },
      "href" : "https://api.spotify.com/v1/tracks/4nsY7D1GBImkgfwuicdBgW",
      "id" : "4nsY7D1GBImkgfwuicdBgW",
      "is_local" : false,
      "is_playable" : true,
      "name" : "There Is a Green Hill Far Away",
      "popularity" : 17,
      "preview_url" : "https://p.scdn.co/mp3-preview/ddfe25fec4d53708b3d42b8a04565fa32ea97436?cid=774b29d4f13844c495f206cafdad9c86",
      "track_number" : 2,
      "type" : "track",
      "uri" : "spotify:track:4nsY7D1GBImkgfwuicdBgW"
    }, {
      "album" : {
        "album_type" : "album",
        "artists" : [ {
          "external_urls" : {
            "spotify" : "https://open.spotify.com/artist/6onoMaHbRzvJYjGcMXAaoI"
          },
          "href" : "https://api.spotify.com/v1/artists/6onoMaHbRzvJYjGcMXAaoI",
          "id" : "6onoMaHbRzvJYjGcMXAaoI",
          "name" : "Chad Woolner & David Brallier",
          "type" : "artist",
          "uri" : "spotify:artist:6onoMaHbRzvJYjGcMXAaoI"
        } ],
        "external_urls" : {
          "spotify" : "https://open.spotify.com/album/6riGotinJaEQqslGi5JHvv"
        },
        "href" : "https://api.spotify.com/v1/albums/6riGotinJaEQqslGi5JHvv",
        "id" : "6riGotinJaEQqslGi5JHvv",
        "images" : [ {
          "height" : 640,
          "url" : "https://i.scdn.co/image/ab67616d0000b273dbff67c8f5a062107bcbfa30",
          "width" : 640
        }, {
          "height" : 300,
          "url" : "https://i.scdn.co/image/ab67616d00001e02dbff67c8f5a062107bcbfa30",
          "width" : 300
        }, {
          "height" : 64,
          "url" : "https://i.scdn.co/image/ab67616d00004851dbff67c8f5a062107bcbfa30",
          "width" : 64
        } ],
        "name" : "Hymns Made of String Volume II",
        "release_date" : "2009-05-19",
        "release_date_precision" : "day",
        "total_tracks" : 12,
        "type" : "album",
        "uri" : "spotify:album:6riGotinJaEQqslGi5JHvv"
      },
      "artists" : [ {
        "external_urls" : {
          "spotify" : "https://open.spotify.com/artist/6onoMaHbRzvJYjGcMXAaoI"
        },
        "href" : "https://api.spotify.com/v1/artists/6onoMaHbRzvJYjGcMXAaoI",
        "id" : "6onoMaHbRzvJYjGcMXAaoI",
        "name" : "Chad Woolner & David Brallier",
        "type" : "artist",
        "uri" : "spotify:artist:6onoMaHbRzvJYjGcMXAaoI"
      } ],
      "disc_number" : 1,
      "duration_ms" : 194561,
      "explicit" : false,
      "external_ids" : {
        "isrc" : "USTC90965188"
      },
      "external_urls" : {
        "spotify" : "https://open.spotify.com/track/5CV6ZaL1QmJxyqBpMuFstb"
      },
      "href" : "https://api.spotify.com/v1/tracks/5CV6ZaL1QmJxyqBpMuFstb",
      "id" : "5CV6ZaL1QmJxyqBpMuFstb",
      "is_local" : false,
      "is_playable" : true,
      "name" : "There Is a Green Hill Far Away",
      "popularity" : 18,
      "preview_url" : "https://p.scdn.co/mp3-preview/873972ace57d38f84934f9f49622bddbe031da48?cid=774b29d4f13844c495f206cafdad9c86",
      "track_number" : 8,
      "type" : "track",
      "uri" : "spotify:track:5CV6ZaL1QmJxyqBpMuFstb"
    }, {
      "album" : {
        "album_type" : "album",
        "artists" : [ {
          "external_urls" : {
            "spotify" : "https://open.spotify.com/artist/7rluHfxLiKAkAoMkuE1F8U"
          },
          "href" : "https://api.spotify.com/v1/artists/7rluHfxLiKAkAoMkuE1F8U",
          "id" : "7rluHfxLiKAkAoMkuE1F8U",
          "name" : "St. Michael's Singers",
          "type" : "artist",
          "uri" : "spotify:artist:7rluHfxLiKAkAoMkuE1F8U"
        } ],
        "external_urls" : {
          "spotify" : "https://open.spotify.com/album/3VylNJs55Ct7UGwIHJpX2n"
        },
        "href" : "https://api.spotify.com/v1/albums/3VylNJs55Ct7UGwIHJpX2n",
        "id" : "3VylNJs55Ct7UGwIHJpX2n",
        "images" : [ {
          "height" : 640,
          "url" : "https://i.scdn.co/image/ab67616d0000b273d05a7748c0ac44931bad9b51",
          "width" : 640
        }, {
          "height" : 300,
          "url" : "https://i.scdn.co/image/ab67616d00001e02d05a7748c0ac44931bad9b51",
          "width" : 300
        }, {
          "height" : 64,
          "url" : "https://i.scdn.co/image/ab67616d00004851d05a7748c0ac44931bad9b51",
          "width" : 64
        } ],
        "name" : "The Hymn Makers: There Is a Green Hill Far Away (A Selection of Easter Hymns)",
        "release_date" : "2001",
        "release_date_precision" : "year",
        "total_tracks" : 14,
        "type" : "album",
        "uri" : "spotify:album:3VylNJs55Ct7UGwIHJpX2n"
      },
      "artists" : [ {
        "external_urls" : {
          "spotify" : "https://open.spotify.com/artist/7rluHfxLiKAkAoMkuE1F8U"
        },
        "href" : "https://api.spotify.com/v1/artists/7rluHfxLiKAkAoMkuE1F8U",
        "id" : "7rluHfxLiKAkAoMkuE1F8U",
        "name" : "St. Michael's Singers",
        "type" : "artist",
        "uri" : "spotify:artist:7rluHfxLiKAkAoMkuE1F8U"
      } ],
      "disc_number" : 1,
      "duration_ms" : 162426,
      "explicit" : false,
      "external_ids" : {
        "isrc" : "GBBTM0120808"
      },
      "external_urls" : {
        "spotify" : "https://open.spotify.com/track/4jldMEWnowAbN4kfl2F0pH"
      },
      "href" : "https://api.spotify.com/v1/tracks/4jldMEWnowAbN4kfl2F0pH",
      "id" : "4jldMEWnowAbN4kfl2F0pH",
      "is_local" : false,
      "is_playable" : true,
      "name" : "There Is A Green Hill Far Away",
      "popularity" : 17,
      "preview_url" : "https://p.scdn.co/mp3-preview/5f743a28f56a08ed5aebdca96a71a732bc241def?cid=774b29d4f13844c495f206cafdad9c86",
      "track_number" : 8,
      "type" : "track",
      "uri" : "spotify:track:4jldMEWnowAbN4kfl2F0pH"
    }, {
      "album" : {
        "album_type" : "album",
        "artists" : [ {
          "external_urls" : {
            "spotify" : "https://open.spotify.com/artist/7rluHfxLiKAkAoMkuE1F8U"
          },
          "href" : "https://api.spotify.com/v1/artists/7rluHfxLiKAkAoMkuE1F8U",
          "id" : "7rluHfxLiKAkAoMkuE1F8U",
          "name" : "St. Michael's Singers",
          "type" : "artist",
          "uri" : "spotify:artist:7rluHfxLiKAkAoMkuE1F8U"
        } ],
        "external_urls" : {
          "spotify" : "https://open.spotify.com/album/3VylNJs55Ct7UGwIHJpX2n"
        },
        "href" : "https://api.spotify.com/v1/albums/3VylNJs55Ct7UGwIHJpX2n",
        "id" : "3VylNJs55Ct7UGwIHJpX2n",
        "images" : [ {
          "height" : 640,
          "url" : "https://i.scdn.co/image/ab67616d0000b273d05a7748c0ac44931bad9b51",
          "width" : 640
        }, {
          "height" : 300,
          "url" : "https://i.scdn.co/image/ab67616d00001e02d05a7748c0ac44931bad9b51",
          "width" : 300
        }, {
          "height" : 64,
          "url" : "https://i.scdn.co/image/ab67616d00004851d05a7748c0ac44931bad9b51",
          "width" : 64
        } ],
        "name" : "The Hymn Makers: There Is a Green Hill Far Away (A Selection of Easter Hymns)",
        "release_date" : "2001",
        "release_date_precision" : "year",
        "total_tracks" : 14,
        "type" : "album",
        "uri" : "spotify:album:3VylNJs55Ct7UGwIHJpX2n"
      },
      "artists" : [ {
        "external_urls" : {
          "spotify" : "https://open.spotify.com/artist/7rluHfxLiKAkAoMkuE1F8U"
        },
        "href" : "https://api.spotify.com/v1/artists/7rluHfxLiKAkAoMkuE1F8U",
        "id" : "7rluHfxLiKAkAoMkuE1F8U",
        "name" : "St. Michael's Singers",
        "type" : "artist",
        "uri" : "spotify:artist:7rluHfxLiKAkAoMkuE1F8U"
      } ],
      "disc_number" : 1,
      "duration_ms" : 258213,
      "explicit" : false,
      "external_ids" : {
        "isrc" : "GBBTM0120804"
      },
      "external_urls" : {
        "spotify" : "https://open.spotify.com/track/799zYTcRxqyt0lmOpTSN1a"
      },
      "href" : "https://api.spotify.com/v1/tracks/799zYTcRxqyt0lmOpTSN1a",
      "id" : "799zYTcRxqyt0lmOpTSN1a",
      "is_local" : false,
      "is_playable" : true,
      "name" : "Lift High the Cross",
      "popularity" : 29,
      "preview_url" : "https://p.scdn.co/mp3-preview/59d92d8941475eb7795c58b29b00b04a06df4377?cid=774b29d4f13844c495f206cafdad9c86",
      "track_number" : 4,
      "type" : "track",
      "uri" : "spotify:track:799zYTcRxqyt0lmOpTSN1a"
    }, {
      "album" : {
        "album_type" : "album",
        "artists" : [ {
          "external_urls" : {
            "spotify" : "https://open.spotify.com/artist/7rluHfxLiKAkAoMkuE1F8U"
          },
          "href" : "https://api.spotify.com/v1/artists/7rluHfxLiKAkAoMkuE1F8U",
          "id" : "7rluHfxLiKAkAoMkuE1F8U",
          "name" : "St. Michael's Singers",
          "type" : "artist",
          "uri" : "spotify:artist:7rluHfxLiKAkAoMkuE1F8U"
        } ],
        "external_urls" : {
          "spotify" : "https://open.spotify.com/album/3VylNJs55Ct7UGwIHJpX2n"
        },
        "href" : "https://api.spotify.com/v1/albums/3VylNJs55Ct7UGwIHJpX2n",
        "id" : "3VylNJs55Ct7UGwIHJpX2n",
        "images" : [ {
          "height" : 640,
          "url" : "https://i.scdn.co/image/ab67616d0000b273d05a7748c0ac44931bad9b51",
          "width" : 640
        }, {
          "height" : 300,
          "url" : "https://i.scdn.co/image/ab67616d00001e02d05a7748c0ac44931bad9b51",
          "width" : 300
        }, {
          "height" : 64,
          "url" : "https://i.scdn.co/image/ab67616d00004851d05a7748c0ac44931bad9b51",
          "width" : 64
        } ],
        "name" : "The Hymn Makers: There Is a Green Hill Far Away (A Selection of Easter Hymns)",
        "release_date" : "2001",
        "release_date_precision" : "year",
        "total_tracks" : 14,
        "type" : "album",
        "uri" : "spotify:album:3VylNJs55Ct7UGwIHJpX2n"
      },
      "artists" : [ {
        "external_urls" : {
          "spotify" : "https://open.spotify.com/artist/7rluHfxLiKAkAoMkuE1F8U"
        },
        "href" : "https://api.spotify.com/v1/artists/7rluHfxLiKAkAoMkuE1F8U",
        "id" : "7rluHfxLiKAkAoMkuE1F8U",
        "name" : "St. Michael's Singers",
        "type" : "artist",
        "uri" : "spotify:artist:7rluHfxLiKAkAoMkuE1F8U"
      } ],
      "disc_number" : 1,
      "duration_ms" : 267440,
      "explicit" : false,
      "external_ids" : {
        "isrc" : "GBBTM0120809"
      },
      "external_urls" : {
        "spotify" : "https://open.spotify.com/track/2cNi3puYoPdtgJ4QK0xgP5"
      },
      "href" : "https://api.spotify.com/v1/tracks/2cNi3puYoPdtgJ4QK0xgP5",
      "id" : "2cNi3puYoPdtgJ4QK0xgP5",
      "is_local" : false,
      "is_playable" : true,
      "name" : "Were You There When They Crucified My Lord?",
      "popularity" : 24,
      "preview_url" : "https://p.scdn.co/mp3-preview/411a527934673795892ff8c4a60ce0bb5c0528dd?cid=774b29d4f13844c495f206cafdad9c86",
      "track_number" : 9,
      "type" : "track",
      "uri" : "spotify:track:2cNi3puYoPdtgJ4QK0xgP5"
    } ],
    "limit" : 10,
    "next" : "https://api.spotify.com/v1/search?query=There+Is+a+Green+Hill+Far+Away&type=track&market=US&offset=15&limit=10",
    "offset" : 5,
    "previous" : "https://api.spotify.com/v1/search?query=There+Is+a+Green+Hill+Far+Away&type=track&market=US&offset=0&limit=10",
    "total" : 201
  }
}