{
  "tracks" : {
    "href" : "https://api.spotify.com/v1/search?query=Morning+Has+Broken&type=track&market=US&offset=5&limit=10",
    "items" : [ {
      "album" : {
        "album_type" : "album",
        "artists" : [ {
          "external_urls" : {
            "spotify" : "https://open.spotify.com/artist/539F2ZOmeVoW5VlqzN2EoG"
          },
          "href" : "https://api.spotify.com/v1/artists/539F2ZOmeVoW5VlqzN2EoG",
          "id" : "539F2ZOmeVoW5VlqzN2EoG",
          "name" : "The Aardvark",
          "type" : "artist",
          "uri" : "spotify:artist:539F2ZOmeVoW5VlqzN2EoG"
        } ],
        "external_urls" : {
          "spotify" : "https://open.spotify.com/album/69sLSuiE4xLL5Au1JPUrYm"
        },
        "href" : "https://api.spotify.com/v1/albums/69sLSuiE4xLL5Au1JPUrYm",
        "id" : "69sLSuiE4xLL5Au1JPUrYm",
        "images" : [ {
          "height" : 640,
          "url" : "https://i.scdn.co/image/ab67616d0000b273fbc8c5668b59a017bfc764f5",
          "width" : 640
        }, {
          "height" : 300,
          "url" : "https://i.scdn.co/image/ab67616d00001e02fbc8c5668b59a017bfc764f5",
          "width" : 300
        }, {
          "height" : 64,
          "url" : "https://i.scdn.co/image/ab67616d00004851fbc8c5668b59a017bfc764f5",
          "width" : 64
        } ],
        "name" : "Kids Music",
        "release_date" : "2011-12-07",
        "release_date_precision" : "day",
        "total_tracks" : 33,
        "type" : "album",
        "uri" : "spotify:album:69sLSuiE4xLL5Au1JPUrYm"
      },
      "artists" : [ {
        "external_urls" : {
          "spotify" : "https://open.spotify.com/artist/539F2ZOmeVoW5VlqzN2EoG"
        },
        "href" : "https://api.spotify.com/v1/artists/539F2ZOmeVoW5VlqzN2EoG",
        "id" : "539F2ZOmeVoW5VlqzN2EoG",
        "name" : "The Aardvark",
        "type" : "artist",
        "uri" : "spotify:artist:539F2ZOmeVoW5VlqzN2EoG"
      } ],
      "disc_number" : 1,
      "duration_ms" : 80432,
      "explicit" : false,
      "external_ids" : {
        "isrc" : "TCABC1163247"
      },
      "external_urls" : {
        "spotify" : "https://open.spotify.com/track/0XJYJoUzTijg33DfGDKOmm"
      },
      "href" : "https://api.spotify.com/v1/tracks/0XJYJoUzTijg33DfGDKOmm",
      "id" : "0XJYJoUzTijg33DfGDKOmm",
      "is_local" : false,
      "is_playable" : true,
      "name" : "Morning Has Broken",
      "popularity" : 34,
      "preview_url" : "https://p.scdn.co/mp3-preview/c610d769027ae40dedf580e6bd8424d9812d2597?cid=774b29d4f13844c495f206cafdad9c86",
      "track_number" : 27,
      "type" : "track",
      "uri" : "spotify:track:0XJYJoUzTijg33DfGDKOmm"
    }, {
      "album" : {
        "album_type" : "album",
        "artists" : [ {
          "external_urls" : {
            "spotify" : "https://open.spotify.com/artist/7uWXomGkKtIq9B4XgA3gch"
          },
          "href" : "https://api.spotify.com/v1/artists/7uWXomGkKtIq9B4XgA3gch",
          "id" : "7uWXomGkKtIq9B4XgA3gch",
          "name" : "Third Day",
          "type" : "artist",
          "uri" : "spotify:artist:7uWXomGkKtIq9B4XgA3gch"
        } ],
        "external_urls" : {
          "spotify" : "https://open.spotify.com/album/2Ucfsu0BFP0UMEuHcLjzH3"
        },
        "href" : "https://api.spotify.com/v1/albums/2Ucfsu0BFP0UMEuHcLjzH3",
        "id" : "2Ucfsu0BFP0UMEuHcLjzH3",
        "images" : [ {
          "height" : 640,
          "url" : "https://i.scdn.co/image/ab67616d0000b27364ab54e409bdaa2cd93189bc",
          "width" : 640
        }, {
          "height" : 300,
          "url" : "https://i.scdn.co/image/ab67616d00001e0264ab54e409bdaa2cd93189bc",
          "width" : 300
        }, {
          "height" : 64,
          "url" : "https://i.scdn.co/image/ab67616d0000485164ab54e409bdaa2cd93189bc",
          "width" : 64
        } ],
        "name" : "Miracle",
        "release_date" : "2012-11-02",
        "release_date_precision" : "day",
        "total_tracks" : 12,
        "type" : "album",
        "uri" : "spotify:album:2Ucfsu0BFP0UMEuHcLjzH3"
      },
      "artists" : [ {
        "external_urls" : {
          "spotify" : "https://open.spotify.com/artist/7uWXomGkKtIq9B4XgA3gch"
        },
        "href" : "https://api.spotify.com/v1/artists/7uWXomGkKtIq9B4XgA3gch",
        "id" : "7uWXomGkKtIq9B4XgA3gch",
        "name" : "Third Day",
        "type" : "artist",
        "uri" : "spotify:artist:7uWXomGkKtIq9B4XgA3gch"
      } ],
      "disc_number" : 1,
      "duration_ms" : 205120,
      "explicit" : false,
      "external_ids" : {
        "isrc" : "USA5W1200275"
      },
      "external_urls" : {
        "spotify" : "https://open.spotify.com/track/6d3Yv8B0mGFl9B22JL5lzt"
      },
      "href" : "https://api.spotify.com/v1/tracks/6d3Yv8B0mGFl9B22JL5lzt",
      "id" : "6d3Yv8B0mGFl9B22JL5lzt",
      "is_local" : false,
      "is_playable" : true,
      "name" : "Morning Has Broken",
      "popularity" : 27,
      "preview_url" : "https://p.scdn.co/mp3-preview/443c3c55c26f8343478f962e2a860de46f51e891?cid=774b29d4f13844c495f206cafdad9c86",
      "track_number" : 12,
      "type" : "track",
      "uri" : "spotify:track:6d3Yv8B0mGFl9B22JL5lzt"
    }, {
      "album" : {
        "album_type" : "album",
        "artists" : [ {
          "external_urls" : {
            "spotify" : "https://open.spotify.com/artist/6AnrSlk5Gp1YMXgaI3mWCL"
          },
          "href" : "https://api.spotify.com/v1/artists/6AnrSlk5Gp1YMXgaI3mWCL",
          "id" : "6AnrSlk5Gp1YMXgaI3mWCL",
          "name" : "The Chieftains",
          "type" : "artist",
          "uri" : "spotify:artist:6AnrSlk5Gp1YMXgaI3mWCL"
        } ],
        "external_urls" : {
          "spotify" : "https://open.spotify.com/album/25J0cDEKSwEO4Aobdt0iie"
        },
        "href" : "https://api.spotify.com/v1/albums/25J0cDEKSwEO4Aobdt0iie",
        "id" : "25J0cDEKSwEO4Aobdt0iie",
        "images" : [ {
          "height" : 640,
          "url" : "https://i.scdn.co/image/ab67616d0000b2739fffd566c3c27a8ab33712ae",
          "width" : 640
        }, {
          "height" : 300,
          "url" : "https://i.scdn.co/image/ab67616d00001e029fffd566c3c27a8ab33712ae",
          "width" : 300
        }, {
          "height" : 64,
          "url" : "https://i.scdn.co/image/ab67616d000048519fffd566c3c27a8ab33712ae",
          "width" : 64
        } ],
        "name" : "The Wide World Over: A 40 Year Celebration",
        "release_date" : "2002-03-04",
        "release_date_precision" : "day",
        "total_tracks" : 19,
        "type" : "album",
        "uri" : "spotify:album:25J0cDEKSwEO4Aobdt0iie"
      },
      "artists" : [ {
        "external_urls" : {
          "spotify" : "https://open.spotify.com/artist/6kEsKkXuE4olX7m3mNLZkS"
        },
        "href" : "https://api.spotify.com/v1/artists/6kEsKkXuE4olX7m3mNLZkS",
        "id" : "6kEsKkXuE4olX7m3mNLZkS",
        "name" : "Art Garfunkel",
        "type" : "artist",
        "uri" : "spotify:artist:6kEsKkXuE4olX7m3mNLZkS"
      }, {
        "external_urls" : {
          "spotify" : "https://open.spotify.com/artist/5z1VAFwT35EVvCp1XlZZuL"
        },
        "href" : "https://api.spotify.com/v1/artists/5z1VAFwT35EVvCp1XlZZuL",
        "id" : "5z1VAFwT35EVvCp1XlZZuL",
        "name" : "Diana Krall",
        "type" : "artist",
        "uri" : "spotify:artist:5z1VAFwT35EVvCp1XlZZuL"
      } ],
      "disc_number" : 1,
      "duration_ms" : 175226,
      "explicit" : false,
      "external_ids" : {
        "isrc" : "USBC10100976"
      },
      "external_urls" : {
        "spotify" : "https://open.spotify.com/track/0KbTsCQkdNGnkrea1vA4eG"
      },
      "href" : "https://api.spotify.com/v1/tracks/0KbTsCQkdNGnkrea1vA4eG",
      "id" : "0KbTsCQkdNGnkrea1vA4eG",
      "is_local" : false,
      "is_playable" : true,
      "name" : "Morning Has Broken (New Release) (with Diana Krall)",
      "popularity" : 33,
      "preview_url" : "https://p.scdn.co/mp3-preview/3db2acddbbea101268287dff4d22880db3de2bb8?cid=774b29d4f13844c495f206cafdad9c86",
      "track_number" : 9,
      "type" : "track",
      "uri" : "spotify:track:0KbTsCQkdNGnkrea1vA4eG"
    }, {
      "album" : {
        "album_type" : "album",
        "artists" : [ {
          "external_urls" : {
            "spotify" : "https://open.spotify.com/artist/5bdgb81IJMXag724quaNSA"
          },
          "href" : "https://api.spotify.com/v1/artists/5bdgb81IJMXag724quaNSA",
          "id" : "5bdgb81IJMXag724quaNSA",
          "name" : "Acker Bilk",
          "type" : "artist",
          "uri" : "spotify:artist:5bdgb81IJMXag724quaNSA"
        }, {
          "external_urls" : {
            "spotify" : "https://open.spotify.com/artist/1GG57PqaTpQ6QT5heTXEwW"
          },
          "href" : "https://api.spotify.com/v1/artists/1GG57PqaTpQ6QT5heTXEwW",
          "id" : "1GG57PqaTpQ6QT5heTXEwW",
          "name" : "The Norman Candler Strings",
          "type" : "artist",
          "uri" : "spotify:artist:1GG57PqaTpQ6QT5heTXEwW"
        } ],
        "external_urls" : {
          "spotify" : "https://open.spotify.com/album/4Lt3TcPwK1SoJ4TIbdXVFy"
        },
        "href" : "https://api.spotify.com/v1/albums/4Lt3TcPwK1SoJ4TIbdXVFy",
        "id" : "4Lt3TcPwK1SoJ4TIbdXVFy",
        "images" : [ {
          "height" : 640,
          "url" : "https://i.scdn.co/image/ab67616d0000b273c8dad5a30303d4ccfcc43ddf",
          "width" : 640
        }, {
          "height" : 300,
          "url" : "https://i.scdn.co/image/ab67616d00001e02c8dad5a30303d4ccfcc43ddf",
          "width" : 300
        }, {
          "height" : 64,
          "url" : "https://i.scdn.co/image/ab67616d00004851c8dad5a30303d4ccfcc43ddf",
          "width" : 64
        } ],
        "name" : "Can't Be Without You",
        "release_date" : "2016-11-25",
        "release_date_precision" : "day",
        "total_tracks" : 20,
        "type" : "album",
        "uri" : "spotify:album:4Lt3TcPwK1SoJ4TIbdXVFy"
      },
      "artists" : [ {
        "external_urls" : {
          "spotify" : "https://open.spotify.com/artist/5bdgb81IJMXag724quaNSA"
        },
        "href" : "https://api.spotify.com/v1/artists/5bdgb81IJMXag724quaNSA",
        "id" : "5bdgb81IJMXag724quaNSA",
        "name" : "Acker Bilk",
        "type" : "artist",
        "uri" : "spotify:artist:5bdgb81IJMXag724quaNSA"
      }, {
        "external_urls" : {
          "spotify" : "https://open.spotify.com/artist/1GG57PqaTpQ6QT5heTXEwW"
        },
        "href" : "https://api.spotify.com/v1/artists/1GG57PqaTpQ6QT5heTXEwW",
        "id" : "1GG57PqaTpQ6QT5heTXEwW",
        "name" : "The Norman Candler Strings",
        "type" : "artist",
        "uri" : "spotify:artist:1GG57PqaTpQ6QT5heTXEwW"
      } ],
      "disc_number" : 1,
      "duration_ms" : 217608,
      "explicit" : false,
      "external_ids" : {
        "isrc" : "DEB638910304"
      },
      "external_urls" : {
        "spotify" : "https://open.spotify.com/track/3CJBpsrf8jLS2J8tjR7ZPp"
      },
      "href" : "https://api.spotify.com/v1/tracks/3CJBpsrf8jLS2J8tjR7ZPp",
      "id" : "3CJBpsrf8jLS2J8tjR7ZPp",
      "is_local" : false,
      "is_playable" : true,
      "name" : "Morning Has Broken - Remastered",
      "popularity" : 35,
      "preview_url" : "https://p.scdn.co/mp3-preview/6decf968750664a6e436016bb358d5d907365f42?cid=774b29d4f13844c495f206cafdad9c86",
      "track_number" : 4,
      "type" : "track",
      "uri" : "spotify:track:3CJBpsrf8jLS2J8tjR7ZPp"
    }, {
      "album" : {
        "album_type" : "compilation",
        "artists" : [ {
          "external_urls" : {
            "spotify" : "https://open.spotify.com/artist/5YhEioqAso9a9SFhfkpViW"
          },
          "href" : "https://api.spotify.com/v1/artists/5YhEioqAso9a9SFhfkpViW",
          "id" : "5YhEioqAso9a9SFhfkpViW",
          "name" : "Jim Well Tempered",
          "type" : "artist",
          "uri" : "spotify:artist:5YhEioqAso9a9SFhfkpViW"
        } ],
        "external_urls" : {
          "spotify" : "https://open.spotify.com/album/1tYjSzyYkyrH7bZksF94kk"
        },
        "href" : "https://api.spotify.com/v1/albums/1tYjSzyYkyrH7bZksF94kk",
        "id" : "1tYjSzyYkyrH7bZksF94kk",
        "images" : [ {
          "height" : 640,
          "url" : "https://i.scdn.co/image/ab67616d0000b2734e7235aacc67c4a7cbe9c326",
          "width" : 640
        }, {
          "height" : 300,
          "url" : "https://i.scdn.co/image/ab67616d00001e024e7235aacc67c4a7cbe9c326",
          "width" : 300
        }, {
          "height" : 64,
          "url" : "https://i.scdn.co/image/ab67616d000048514e7235aacc67c4a7cbe9c326",
          "width" : 64
        } ],
        "name" : "Piano Covers Vol.1 - Relaxing Piano Music - Best of Pop Hits and Classical Piano Masterpieces",
        "release_date" : "2019-11-24",
        "release_date_precision" : "day",
        "total_tracks" : 58,
        "type" : "album",
        "uri" : "spotify:album:1tYjSzyYkyrH7bZksF94kk"
      },
      "artists" : [ {
        "external_urls" : {
          "spotify" : "https://open.spotify.com/artist/5YhEioqAso9a9SFhfkpViW"
        },
        "href" : "https://api.spotify.com/v1/artists/5YhEioqAso9a9SFhfkpViW",
        "id" : "5YhEioqAso9a9SFhfkpViW",
        "name" : "Jim Well Tempered",
        "type" : "artist",
        "uri" : "spotify:artist:5YhEioqAso9a9SFhfkpViW"
      } ],
      "disc_number" : 1,
      "duration_ms" : 209437,
      "explicit" : false,
      "external_ids" : {
        "isrc" : "GBSMU7222442"
      },
      "external_urls" : {
        "spotify" : "https://open.spotify.com/track/1uWMkbvGBnWewaTgfo6Sxu"
      },
      "href" : "https://api.spotify.com/v1/tracks/1uWMkbvGBnWewaTgfo6Sxu",
      "id" : "1uWMkbvGBnWewaTgfo6Sxu",
      "is_local" : false,
      "is_playable" : true,
      "name" : "Morning Has Broken",
      "popularity" : 33,
      "preview_url" : "https://p.scdn.co/mp3-preview/11248a6e5b1d3e9d7d651a36fbb5eea5073371e5?cid=774b29d4f13844c495f206cafdad9c86",
      "track_number" : 35,
      "type" : "track",
      "uri" : "spotify:track:1uWMkbvGBnWewaTgfo6Sxu"
    }, {
      "album" : {
        "album_type" : "album",
        "artists" : [ {
          "external_urls" : {
            "spotify" : "https://open.spotify.com/artist/2NzWRNaaLByHyI3wpuec8P"
          },
          "href" : "https://api.spotify.com/v1/artists/2NzWRNaaLByHyI3wpuec8P",
          "id" : "2NzWRNaaLByHyI3wpuec8P",
          "name" : "Jim Brickman",
          "type" : "artist",
          "uri" : "spotify:artist:2NzWRNaaLByHyI3wpuec8P"
        } ],
        "external_urls" : {
          "spotify" : "https://open.spotify.com/album/5gLfbvc3wLOJxAy3wJCSLd"
        },
        "href" : "https://api.spotify.com/v1/albums/5gLfbvc3wLOJxAy3wJCSLd",
        "id" : "5gLfbvc3wLOJxAy3wJCSLd",
        "images" : [ {
          "height" : 640,
          "url" : "https://i.scdn.co/image/ab67616d0000b273a158d895ce0a6f60f0985470",
          "width" : 640
        }, {
          "height" : 300,
          "url" : "https://i.scdn.co/image/ab67616d00001e02a158d895ce0a6f60f0985470",
          "width" : 300
        }, {
          "height" : 64,
          "url" : "https://i.scdn.co/image/ab67616d00004851a158d895ce0a6f60f0985470",
          "width" : 64
        } ],
        "name" : "Faith (Deluxe Edition)",
        "release_date" : "2016-10-24",
        "release_date_precision" : "day",
        "total_tracks" : 20,
        "type" : "album",
        "uri" : "spotify:album:5gLfbvc3wLOJxAy3wJCSLd"
      },
      "artists" : [ {
        "external_urls" : {
          "spotify" : "https://open.spotify.com/artist/2NzWRNaaLByHyI3wpuec8P"
        },
        "href" : "https://api.spotify.com/v1/artists/2NzWRNaaLByHyI3wpuec8P",
        "id" : "2NzWRNaaLByHyI3wpuec8P",
        "name" : "Jim Brickman",
        "type" : "artist",
        "uri" : "spotify:artist:2NzWRNaaLByHyI3wpuec8P"
      } ],
      "disc_number" : 1,
      "duration_ms" : 192239,
      "explicit" : false,
      "external_ids" : {
        "isrc" : "USP3J0804804"
      },
      "external_urls" : {
        "spotify" : "https://open.spotify.com/track/6mrr04iwUHAEgLAfiDOXjW"
      },
      "href" : "https://api.spotify.com/v1/tracks/6mrr04iwUHAEgLAfiDOXjW",
      "id" : "6mrr04iwUHAEgLAfiDOXjW",
      "is_local" : false,
      "is_playable" : true,
      "name" : "Morning Has Broken",
      "popularity" : 20,
      "preview_url" : "https://p.scdn.co/mp3-preview/1dd5ff7bad1a9896c424ed5af1e3ae4282f42d4a?cid=774b29d4f13844c495f206cafdad9c86",
      "track_number" : 3,
      "type" : "track",
      "uri" : "spotify:track:6mrr04iwUHAEgLAfiDOXjW"
    }, {
      "album" : {
        "album_type" : "album",
        "artists" : [ {
          "external_urls" : {
            "spotify" : "https://open.spotify.com/artist/1KFfz9kGndyx6q0Zf1MdZv"
          },
          "href" : "https://api.spotify.com/v1/artists/1KFfz9kGndyx6q0Zf1MdZv",
          "id" : "1KFfz9kGndyx6q0Zf1MdZv",
          "name" : "Mary O'Hara",
          "type" : "artist",
          "uri" : "spotify:artist:1KFfz9kGndyx6q0Zf1MdZv"
        } ],
        "external_urls" : {
          "spotify" : "https://open.spotify.com/album/42cLGbUdsFerpoxrc8UZTT"
        },
        "href" : "https://api.spotify.com/v1/albums/42cLGbUdsFerpoxrc8UZTT",
        "id" : "42cLGbUdsFerpoxrc8UZTT",
        "images" : [ {
          "height" : 640,
          "url" : "https://i.scdn.co/image/ab67616d0000b273a1059bda4b9c5e4f9e00f996",
          "width" : 640
        }, {
          "height" : 300,
          "url" : "https://i.scdn.co/image/ab67616d00001e02a1059bda4b9c5e4f9e00f996",
          "width" : 300
        }, {
          "height" : 64,
          "url" : "https://i.scdn.co/image/ab67616d00004851a1059bda4b9c5e4f9e00f996",
          "width" : 64
        } ],
        "name" : "At The Royal Festival Hall",
        "release_date" : "2005-06-20",
        "release_date_precision" : "day",
        "total_tracks" : 12,
        "type" : "album",
        "uri" : "spotify:album:42cLGbUdsFerpoxrc8UZTT"
      },
      "artists" : [ {
        "external_urls" : {
          "spotify" : "https://open.spotify.com/artist/1KFfz9kGndyx6q0Zf1MdZv"
        },
        "href" : "https://api.spotify.com/v1/artists/1KFfz9kGndyx6q0Zf1MdZv",
        "id" : "1KFfz9kGndyx6q0Zf1MdZv",
        "name" : "Mary O'Hara",
        "type" : "artist",
        "uri" : "spotify:artist:1KFfz9kGndyx6q0Zf1MdZv"
      } ],
      "disc_number" : 1,
      "duration_ms" : 152933,
      "explicit" : false,
      "external_ids" : {
        "isrc" : "USA560557407"
      },
      "external_urls" : {
        "spotify" : "https://open.spotify.com/track/1nkFZjphM5e4rYwElipV28"
      },
      "href" : "https://api.spotify.com/v1/tracks/1nkFZjphM5e4rYwElipV28",
      "id" : "1nkFZjphM5e4rYwElipV28",
      "is_local" : false,
      "is_playable" : true,
      "name" : "Morning Has Broken",
      "popularity" : 26,
      "preview_url" : "https://p.scdn.co/mp3-preview/6648472131c597a5aeb0bd18a92cb0e4bd81ec9d?cid=774b29d4f13844c495f206cafdad9c86",
      "track_number" : 1,
      "type" : "track",
      "uri" : "spotify:track:1nkFZjphM5e4rYwElipV28"
    }, {
      "album" : {
        "album_type" : "album",
        "artists" : [ {
          "external_urls" : {
            "spotify" : "https://open.spotify.com/artist/29i15whXYvAclIabh8MwFb"
          },
          "href" : "https://api.spotify.com/v1/artists/29i15whXYvAclIabh8MwFb",
          "id" : "29i15whXYvAclIabh8MwFb",
          "name" : "Ryan Tenner",
          "type" : "artist",
          "uri" : "spotify:artist:29i15whXYvAclIabh8MwFb"
        } ],
        "external_urls" : {
          "spotify" : "https://open.spotify.com/album/5VsC6hpWCfb3N9GhlPqWIn"
        },
        "href" : "https://api.spotify.com/v1/albums/5VsC6hpWCfb3N9GhlPqWIn",
        "id" : "5VsC6hpWCfb3N9GhlPqWIn",
        "images" : [ {
          "height" : 640,
          "url" : "https://i.scdn.co/image/ab67616d0000b273717d21bdf9a882c8d4dbe59c",
          "width" : 640
        }, {
          "height" : 300,
          "url" : "https://i.scdn.co/image/ab67616d00001e02717d21bdf9a882c8d4dbe59c",
          "width" : 300
        }, {
          "height" : 64,
          "url" : "https://i.scdn.co/image/ab67616d00004851717d21bdf9a882c8d4dbe59c",
          "width" : 64
        } ],
        "name" : "Pop Piano Covers",
        "release_date" : "2020-01-25",
        "release_date_precision" : "day",
        "total_tracks" : 73,
        "type" : "album",
        "uri" : "spotify:album:5VsC6hpWCfb3N9GhlPqWIn"
      },
      "artists" : [ {
        "external_urls" : {
          "spotify" : "https://open.spotify.com/artist/29i15whXYvAclIabh8MwFb"
        },
        "href" : "https://api.spotify.com/v1/artists/29i15whXYvAclIabh8MwFb",
        "id" : "29i15whXYvAclIabh8MwFb",
        "name" : "Ryan Tenner",
        "type" : "artist",
        "uri" : "spotify:artist:29i15whXYvAclIabh8MwFb"
      } ],
      "disc_number" : 1,
      "duration_ms" : 222168,
      "explicit" : false,
      "external_ids" : {
        "isrc" : "DELJ82085266"
      },
      "external_urls" : {
        "spotify" : "https://open.spotify.com/track/2DWZvETbuhSiJI9lk15xkg"
      },
      "href" : "https://api.spotify.com/v1/tracks/2DWZvETbuhSiJI9lk15xkg",
      "id" : "2DWZvETbuhSiJI9lk15xkg",
      "is_local" : false,
      "is_playable" : true,
      "name" : "Morning Has Broken",
      "popularity" : 25,
      "preview_url" : "https://p.scdn.co/mp3-preview/6cbf69c4bf94658620ed729ebd1d855d6e57449d?cid=774b29d4f13844c495f206cafdad9c86",
      "track_number" : 42,
      "type" : "track",
      "uri" : "spotify:track:2DWZvETbuhSiJI9lk15xkg"
    }, {
      "album" : {
        "album_type" : "album",
        "artists" : [ {
          "external_urls" : {
            "spotify" : "https://open.spotify.com/artist/6zRitpR7EspnJDUTZFpofd"
          },
          "href" : "https://api.spotify.com/v1/artists/6zRitpR7EspnJDUTZFpofd",
          "id" : "6zRitpR7EspnJDUTZFpofd",
          "name" : "C.S. Heath",
          "type" : "artist",
          "uri" : "spotify:artist:6zRitpR7EspnJDUTZFpofd"
        }, {
          "external_urls" : {
            "spotify" : "https://open.spotify.com/artist/4vd9lwg5cXjWPc035U6N6p"
          },
          "href" : "https://api.spotify.com/v1/artists/4vd9lwg5cXjWPc035U6N6p",
          "id" : "4vd9lwg5cXjWPc035U6N6p",
          "name" : "Jonas James",
          "type" : "artist",
          "uri" : "spotify:artist:4vd9lwg5cXjWPc035U6N6p"
        }, {
          "external_urls" : {
            "spotify" : "https://open.spotify.com/artist/6FsXOVxLro1VeFa5c6jK1y"
          },
          "href" : "https://api.spotify.com/v1/artists/6FsXOVxLro1VeFa5c6jK1y",
          "id" : "6FsXOVxLro1VeFa5c6jK1y",
          "name" : "Christopher West",
          "type" : "artist",
          "uri" : "spotify:artist:6FsXOVxLro1VeFa5c6jK1y"
        } ],
        "external_urls" : {
          "spotify" : "https://open.spotify.com/album/50CfjHf2gcwmBgECPM1Oqq"
        },
        "href" : "https://api.spotify.com/v1/albums/50CfjHf2gcwmBgECPM1Oqq",
        "id" : "50CfjHf2gcwmBgECPM1Oqq",
        "images" : [ {
          "height" : 640,
          "url" : "https://i.scdn.co/image/ab67616d0000b2739ff493c94c6bae2a6ed9401b",
          "width" : 640
        }, {
          "height" : 300,
          "url" : "https://i.scdn.co/image/ab67616d00001e029ff493c94c6bae2a6ed9401b",
          "width" : 300
        }, {
          "height" : 64,
          "url" : "https://i.scdn.co/image/ab67616d000048519ff493c94c6bae2a6ed9401b",
          "width" : 64
        } ],
        "name" : "Instrumental Hymns",
        "release_date" : "2014-03-04",
        "release_date_precision" : "day",
        "total_tracks" : 40,
        "type" : "album",
        "uri" : "spotify:album:50CfjHf2gcwmBgECPM1Oqq"
      },
      "artists" : [ {
        "external_urls" : {
          "spotify" : "https://open.spotify.com/artist/6zRitpR7EspnJDUTZFpofd"
        },
        "href" : "https://api.spotify.com/v1/artists/6zRitpR7EspnJDUTZFpofd",
        "id" : "6zRitpR7EspnJDUTZFpofd",
        "name" : "C.S. Heath",
        "type" : "artist",
        "uri" : "spotify:artist:6zRitpR7EspnJDUTZFpofd"
      }, {
        "external_urls" : {
          "spotify" : "https://open.spotify.com/artist/4vd9lwg5cXjWPc035U6N6p"
        },
        "href" : "https://api.spotify.com/v1/artists/4vd9lwg5cXjWPc035U6N6p",
        "id" : "4vd9lwg5cXjWPc035U6N6p",
        "name" : "Jonas James",
        "type" : "artist",
        "uri" : "spotify:artist:4vd9lwg5cXjWPc035U6N6p"
      } ],
      "disc_number" : 1,
      "duration_ms" : 217840,
      "explicit" : false,
      "external_ids" : {
        "isrc" : "QMDA71481170"
      },
      "external_urls" : {
        "spotify" : "https://open.spotify.com/track/2RrEuYeUzWGAlfNynkHcLr"
      },
      "href" : "https://api.spotify.com/v1/tracks/2RrEuYeUzWGAlfNynkHcLr",
      "id" : "2RrEuYeUzWGAlfNynkHcLr",
      "is_local" : false,
      "is_playable" : true,
      "name" : "Morning Has Broken",
      "popularity" : 19,
      "preview_url" : "https://p.scdn.co/mp3-preview/ea3c7edd088eb452d8bd103882e5c7b960c159c1?cid=774b29d4f13844c495f206cafdad9c86",
      "track_number" : 3,
      "type" : "track",
      "uri" : "spotify:track:2RrEuYeUzWGAlfNynkHcLr"
    }, {
      "album" : {
        "album_type" : "single",
        "artists" : [ {
          "external_urls" : {
            "spotify" : "https://open.spotify.com/artist/0dE07SkhpjSzABGjYGdVDc"
          },
          "href" : "https://api.spotify.com/v1/artists/0dE07SkhpjSzABGjYGdVDc",
          "id" : "0dE07SkhpjSzABGjYGdVDc",
          "name" : "Rasmus Jenzen",
          "type" : "artist",
          "uri" : "spotify:artist:0dE07SkhpjSzABGjYGdVDc"
        } ],
        "external_urls" : {
          "spotify" : "https://open.spotify.com/album/6sRjo5sSEJmwLhbjV4bvNA"
        },
        "href" : "https://api.spotify.com/v1/albums/6sRjo5sSEJmwLhbjV4bvNA",
        "id" : "6sRjo5sSEJmwLhbjV4bvNA",
        "images" : [ {
          "height" : 640,
          "url" : "https://i.scdn.co/image/ab67616d0000b273b58f2396742703e1c61cdd1e",
          "width" : 640
        }, {
          "height" : 300,
          "url" : "https://i.scdn.co/image/ab67616d00001e02b58f2396742703e1c61cdd1e",
          "width" : 300
        }, {
          "height" : 64,
          "url" : "https://i.scdn.co/image/ab67616d00004851b58f2396742703e1c61cdd1e",
          "width" : 64
        } ],
        "name" : "Song For Wermland",
        "release_date" : "2019-05-22",
        "release_date_precision" : "day",
        "total_tracks" : 2,
        "type" : "album",
        "uri" : "spotify:album:6sRjo5sSEJmwLhbjV4bvNA"
      },
      "artists" : [ {
        "external_urls" : {
          "spotify" : "https://open.spotify.com/artist/0dE07SkhpjSzABGjYGdVDc"
        },
        "href" : "https://api.spotify.com/v1/artists/0dE07SkhpjSzABGjYGdVDc",
        "id" : "0dE07SkhpjSzABGjYGdVDc",
        "name" : "Rasmus Jenzen",
        "type" : "artist",
        "uri" : "spotify:artist:0dE07SkhpjSzABGjYGdVDc"
      } ],
      "disc_number" : 1,
      "duration_ms" : 123026,
      "explicit" : false,
      "external_ids" : {
        "isrc" : "SE4RG1916602"
      },
      "external_urls" : {
        "spotify" : "https://open.spotify.com/track/0laCjmoi8aznUkMQaaSIRU"
      },
      "href" : "https://api.spotify.com/v1/tracks/0laCjmoi8aznUkMQaaSIRU",
      "id" : "0laCjmoi8aznUkMQaaSIRU",
      "is_local" : false,
      "is_playable" : true,
      "name" : "Morning Has Broken",
      "popularity" : 24,
      "preview_url" : "https://p.scdn.co/mp3-preview/4ed183fb763793b8ae0670373b08be7ecb11cc0e?cid=774b29d4f13844c495f206cafdad9c86",
      "track_number" : 2,
      "type" : "track",
      "uri" : "spotify:track:0laCjmoi8aznUkMQaaSIRU"
    } ],
    "limit" : 10,
    "next" : "https://api.spotify.com/v1/search?query=Morning+Has+Broken&type=track&market=US&offset=15&limit=10",
    "offset" : 5,
    "previous" : "https://api.spotify.com/v1/search?query=Morning+Has+Broken&type=track&market=US&offset=0&limit=10",
    "total" : 2521
  }
}