{
  "tracks" : {
    "href" : "https://api.spotify.com/v1/search?query=Father%2C+We+Thank+You&type=track&market=US&offset=5&limit=10",
    "items" : [ {
      "album" : {
        "album_type" : "album",
        "artists" : [ {
          "external_urls" : {
            "spotify" : "https://open.spotify.com/artist/6D0lvz4yzkPkbOIBlZ9unt"
          },
          "href" : "https://api.spotify.com/v1/artists/6D0lvz4yzkPkbOIBlZ9unt",
          "id" : "6D0lvz4yzkPkbOIBlZ9unt",
          "name" : "Native American Church Of Canada",
          "type" : "artist",
          "uri" : "spotify:artist:6D0lvz4yzkPkbOIBlZ9unt"
        } ],
        "external_urls" : {
          "spotify" : "https://open.spotify.com/album/6k89RzKZ3nKgwmlKnM4LJ9"
        },
        "href" : "https://api.spotify.com/v1/albums/6k89RzKZ3nKgwmlKnM4LJ9",
        "id" : "6k89RzKZ3nKgwmlKnM4LJ9",
        "images" : [ {
          "height" : 640,
          "url" : "https://i.scdn.co/image/ab67616d0000b2739efd263e5a35bb04deaf9148",
          "width" : 640
        }, {
          "height" : 300,
          "url" : "https://i.scdn.co/image/ab67616d00001e029efd263e5a35bb04deaf9148",
          "width" : 300
        }, {
          "height" : 64,
          "url" : "https://i.scdn.co/image/ab67616d000048519efd263e5a35bb04deaf9148",
          "width" : 64
        } ],
        "name" : "Meewasin Oma",
        "release_date" : "2006-06-28",
        "release_date_precision" : "day",
        "total_tracks" : 8,
        "type" : "album",
        "uri" : "spotify:album:6k89RzKZ3nKgwmlKnM4LJ9"
      },
      "artists" : [ {
        "external_urls" : {
          "spotify" : "https://open.spotify.com/artist/6D0lvz4yzkPkbOIBlZ9unt"
        },
        "href" : "https://api.spotify.com/v1/artists/6D0lvz4yzkPkbOIBlZ9unt",
        "id" : "6D0lvz4yzkPkbOIBlZ9unt",
        "name" : "Native American Church Of Canada",
        "type" : "artist",
        "uri" : "spotify:artist:6D0lvz4yzkPkbOIBlZ9unt"
      } ],
      "disc_number" : 1,
      "duration_ms" : 401106,
      "explicit" : false,
      "external_ids" : {
        "isrc" : "US2Y30605343"
      },
      "external_urls" : {
        "spotify" : "https://open.spotify.com/track/7s02PVk23D5Fas4ahpya6u"
      },
      "href" : "https://api.spotify.com/v1/tracks/7s02PVk23D5Fas4ahpya6u",
      "id" : "7s02PVk23D5Fas4ahpya6u",
      "is_local" : false,
      "is_playable" : true,
      "name" : "Birthday Song For My Daughter Larissa Jane, Jesus We Walk In Your Name, Birthday Song For My Daughter Jacynda Rose, Our Father Bless Us, Show Us Our Love, We Will Thank You Many Times",
      "popularity" : 4,
      "preview_url" : "https://p.scdn.co/mp3-preview/a0c52b89f457028c107dd8722d49a742bbcf732f?cid=774b29d4f13844c495f206cafdad9c86",
      "track_number" : 3,
      "type" : "track",
      "uri" : "spotify:track:7s02PVk23D5Fas4ahpya6u"
    }, {
      "album" : {
        "album_type" : "album",
        "artists" : [ {
          "external_urls" : {
            "spotify" : "https://open.spotify.com/artist/3jgtfMSAHy3EHBlVH3MEW3"
          },
          "href" : "https://api.spotify.com/v1/artists/3jgtfMSAHy3EHBlVH3MEW3",
          "id" : "3jgtfMSAHy3EHBlVH3MEW3",
          "name" : "Meewasin Oma",
          "type" : "artist",
          "uri" : "spotify:artist:3jgtfMSAHy3EHBlVH3MEW3"
        } ],
        "external_urls" : {
          "spotify" : "https://open.spotify.com/album/6ECHFoLcdSZ0122oxzR8u3"
        },
        "href" : "https://api.spotify.com/v1/albums/6ECHFoLcdSZ0122oxzR8u3",
        "id" : "6ECHFoLcdSZ0122oxzR8u3",
        "images" : [ {
          "height" : 640,
          "url" : "https://i.scdn.co/image/ab67616d0000b273a9828945ab362a7cdc417dc5",
          "width" : 640
        }, {
          "height" : 300,
          "url" : "https://i.scdn.co/image/ab67616d00001e02a9828945ab362a7cdc417dc5",
          "width" : 300
        }, {
          "height" : 64,
          "url" : "https://i.scdn.co/image/ab67616d00004851a9828945ab362a7cdc417dc5",
          "width" : 64
        } ],
        "name" : "In Loving Memory",
        "release_date" : "2006-10-13",
        "release_date_precision" : "day",
        "total_tracks" : 9,
        "type" : "album",
        "uri" : "spotify:album:6ECHFoLcdSZ0122oxzR8u3"
      },
      "artists" : [ {
        "external_urls" : {
          "spotify" : "https://open.spotify.com/artist/3jgtfMSAHy3EHBlVH3MEW3"
        },
        "href" : "https://api.spotify.com/v1/artists/3jgtfMSAHy3EHBlVH3MEW3",
        "id" : "3jgtfMSAHy3EHBlVH3MEW3",
        "name" : "Meewasin Oma",
        "type" : "artist",
        "uri" : "spotify:artist:3jgtfMSAHy3EHBlVH3MEW3"
      } ],
      "disc_number" : 1,
      "duration_ms" : 275800,
      "explicit" : false,
      "external_ids" : {
        "isrc" : "US2Y30622672"
      },
      "external_urls" : {
        "spotify" : "https://open.spotify.com/track/2vg1OAEL8hVWkZQBNEmNHw"
      },
      "href" : "https://api.spotify.com/v1/tracks/2vg1OAEL8hVWkZQBNEmNHw",
      "id" : "2vg1OAEL8hVWkZQBNEmNHw",
      "is_local" : false,
      "is_playable" : true,
      "name" : "Straight Hymn - Heavenly Father God We Thank You - Straight Hymn - Straight Hymn",
      "popularity" : 2,
      "preview_url" : "https://p.scdn.co/mp3-preview/d39dfd4dce28796665cad7371c0eca4cf6e5183d?cid=774b29d4f13844c495f206cafdad9c86",
      "track_number" : 1,
      "type" : "track",
      "uri" : "spotify:track:2vg1OAEL8hVWkZQBNEmNHw"
    }, {
      "album" : {
        "album_type" : "album",
        "artists" : [ {
          "external_urls" : {
            "spotify" : "https://open.spotify.com/artist/5SY2SRgfE9YAsLhW1l8AjE"
          },
          "href" : "https://api.spotify.com/v1/artists/5SY2SRgfE9YAsLhW1l8AjE",
          "id" : "5SY2SRgfE9YAsLhW1l8AjE",
          "name" : "Gilbert Tyner",
          "type" : "artist",
          "uri" : "spotify:artist:5SY2SRgfE9YAsLhW1l8AjE"
        } ],
        "external_urls" : {
          "spotify" : "https://open.spotify.com/album/0uB4Y4ib08D622h83cq1BB"
        },
        "href" : "https://api.spotify.com/v1/albums/0uB4Y4ib08D622h83cq1BB",
        "id" : "0uB4Y4ib08D622h83cq1BB",
        "images" : [ {
          "height" : 640,
          "url" : "https://i.scdn.co/image/ab67616d0000b27340d3d3f248ac9e58440793b4",
          "width" : 640
        }, {
          "height" : 300,
          "url" : "https://i.scdn.co/image/ab67616d00001e0240d3d3f248ac9e58440793b4",
          "width" : 300
        }, {
          "height" : 64,
          "url" : "https://i.scdn.co/image/ab67616d0000485140d3d3f248ac9e58440793b4",
          "width" : 64
        } ],
        "name" : "Generation 2 Generation II",
        "release_date" : "2006-10-16",
        "release_date_precision" : "day",
        "total_tracks" : 11,
        "type" : "album",
        "uri" : "spotify:album:0uB4Y4ib08D622h83cq1BB"
      },
      "artists" : [ {
        "external_urls" : {
          "spotify" : "https://open.spotify.com/artist/5SY2SRgfE9YAsLhW1l8AjE"
        },
        "href" : "https://api.spotify.com/v1/artists/5SY2SRgfE9YAsLhW1l8AjE",
        "id" : "5SY2SRgfE9YAsLhW1l8AjE",
        "name" : "Gilbert Tyner",
        "type" : "artist",
        "uri" : "spotify:artist:5SY2SRgfE9YAsLhW1l8AjE"
      }, {
        "external_urls" : {
          "spotify" : "https://open.spotify.com/artist/3hS2CuwU233zoKpJWeMnQP"
        },
        "href" : "https://api.spotify.com/v1/artists/3hS2CuwU233zoKpJWeMnQP",
        "id" : "3hS2CuwU233zoKpJWeMnQP",
        "name" : "Darwin Daniels",
        "type" : "artist",
        "uri" : "spotify:artist:3hS2CuwU233zoKpJWeMnQP"
      }, {
        "external_urls" : {
          "spotify" : "https://open.spotify.com/artist/6DT5dNKFxsvM7F9Hl1jgrv"
        },
        "href" : "https://api.spotify.com/v1/artists/6DT5dNKFxsvM7F9Hl1jgrv",
        "id" : "6DT5dNKFxsvM7F9Hl1jgrv",
        "name" : "Kelly Daniels",
        "type" : "artist",
        "uri" : "spotify:artist:6DT5dNKFxsvM7F9Hl1jgrv"
      } ],
      "disc_number" : 1,
      "duration_ms" : 404840,
      "explicit" : false,
      "external_ids" : {
        "isrc" : "US2Y30622755"
      },
      "external_urls" : {
        "spotify" : "https://open.spotify.com/track/3JzGAiN4fuhYhweziCf515"
      },
      "href" : "https://api.spotify.com/v1/tracks/3JzGAiN4fuhYhweziCf515",
      "id" : "3JzGAiN4fuhYhweziCf515",
      "is_local" : false,
      "is_playable" : true,
      "name" : "Jesus Pity Us, This Morning We Are Praying To You - It's Morning, Morning Colors Look Beautiful - We Thank You Heavenly Father God - We Thank You God, We Thank You Again, And Again My Daughter Water B",
      "popularity" : 2,
      "preview_url" : "https://p.scdn.co/mp3-preview/b4c7bb33c92653db754e34343980af0bb3830162?cid=774b29d4f13844c495f206cafdad9c86",
      "track_number" : 7,
      "type" : "track",
      "uri" : "spotify:track:3JzGAiN4fuhYhweziCf515"
    }, {
      "album" : {
        "album_type" : "album",
        "artists" : [ {
          "external_urls" : {
            "spotify" : "https://open.spotify.com/artist/5SY2SRgfE9YAsLhW1l8AjE"
          },
          "href" : "https://api.spotify.com/v1/artists/5SY2SRgfE9YAsLhW1l8AjE",
          "id" : "5SY2SRgfE9YAsLhW1l8AjE",
          "name" : "Gilbert Tyner",
          "type" : "artist",
          "uri" : "spotify:artist:5SY2SRgfE9YAsLhW1l8AjE"
        } ],
        "external_urls" : {
          "spotify" : "https://open.spotify.com/album/0uUoIyiRZ1iyn4ptxtt4Ec"
        },
        "href" : "https://api.spotify.com/v1/albums/0uUoIyiRZ1iyn4ptxtt4Ec",
        "id" : "0uUoIyiRZ1iyn4ptxtt4Ec",
        "images" : [ {
          "height" : 640,
          "url" : "https://i.scdn.co/image/ab67616d0000b273b4b1f72377530d24f618a740",
          "width" : 640
        }, {
          "height" : 300,
          "url" : "https://i.scdn.co/image/ab67616d00001e02b4b1f72377530d24f618a740",
          "width" : 300
        }, {
          "height" : 64,
          "url" : "https://i.scdn.co/image/ab67616d00004851b4b1f72377530d24f618a740",
          "width" : 64
        } ],
        "name" : "Generation 2 Generation",
        "release_date" : "2006-06-28",
        "release_date_precision" : "day",
        "total_tracks" : 8,
        "type" : "album",
        "uri" : "spotify:album:0uUoIyiRZ1iyn4ptxtt4Ec"
      },
      "artists" : [ {
        "external_urls" : {
          "spotify" : "https://open.spotify.com/artist/5SY2SRgfE9YAsLhW1l8AjE"
        },
        "href" : "https://api.spotify.com/v1/artists/5SY2SRgfE9YAsLhW1l8AjE",
        "id" : "5SY2SRgfE9YAsLhW1l8AjE",
        "name" : "Gilbert Tyner",
        "type" : "artist",
        "uri" : "spotify:artist:5SY2SRgfE9YAsLhW1l8AjE"
      } ],
      "disc_number" : 1,
      "duration_ms" : 339893,
      "explicit" : false,
      "external_ids" : {
        "isrc" : "US2Y30605832"
      },
      "external_urls" : {
        "spotify" : "https://open.spotify.com/track/3EdgqawAfeYYQowNRmmGzG"
      },
      "href" : "https://api.spotify.com/v1/tracks/3EdgqawAfeYYQowNRmmGzG",
      "id" : "3EdgqawAfeYYQowNRmmGzG",
      "is_local" : false,
      "is_playable" : true,
      "name" : "God Pity Us, Straight Hymn, Heavenly Father God We Thank You, Straight Hymn",
      "popularity" : 2,
      "preview_url" : "https://p.scdn.co/mp3-preview/6ca6e3927037f1895325d7859e6db2d2abf00cc4?cid=774b29d4f13844c495f206cafdad9c86",
      "track_number" : 3,
      "type" : "track",
      "uri" : "spotify:track:3EdgqawAfeYYQowNRmmGzG"
    }, {
      "album" : {
        "album_type" : "album",
        "artists" : [ {
          "external_urls" : {
            "spotify" : "https://open.spotify.com/artist/7GkPZD0O1btf2e5dtRZyfI"
          },
          "href" : "https://api.spotify.com/v1/artists/7GkPZD0O1btf2e5dtRZyfI",
          "id" : "7GkPZD0O1btf2e5dtRZyfI",
          "name" : "The Wonder Kids",
          "type" : "artist",
          "uri" : "spotify:artist:7GkPZD0O1btf2e5dtRZyfI"
        } ],
        "external_urls" : {
          "spotify" : "https://open.spotify.com/album/0e0pOf4rp4Zd2uqkCaJEJZ"
        },
        "href" : "https://api.spotify.com/v1/albums/0e0pOf4rp4Zd2uqkCaJEJZ",
        "id" : "0e0pOf4rp4Zd2uqkCaJEJZ",
        "images" : [ {
          "height" : 640,
          "url" : "https://i.scdn.co/image/ab67616d0000b2739b9f0d9763527b8900361760",
          "width" : 640
        }, {
          "height" : 300,
          "url" : "https://i.scdn.co/image/ab67616d00001e029b9f0d9763527b8900361760",
          "width" : 300
        }, {
          "height" : 64,
          "url" : "https://i.scdn.co/image/ab67616d000048519b9f0d9763527b8900361760",
          "width" : 64
        } ],
        "name" : "Little Songs for Little Souls: I Can Praise the Lord",
        "release_date" : "2012-10-01",
        "release_date_precision" : "day",
        "total_tracks" : 12,
        "type" : "album",
        "uri" : "spotify:album:0e0pOf4rp4Zd2uqkCaJEJZ"
      },
      "artists" : [ {
        "external_urls" : {
          "spotify" : "https://open.spotify.com/artist/7GkPZD0O1btf2e5dtRZyfI"
        },
        "href" : "https://api.spotify.com/v1/artists/7GkPZD0O1btf2e5dtRZyfI",
        "id" : "7GkPZD0O1btf2e5dtRZyfI",
        "name" : "The Wonder Kids",
        "type" : "artist",
        "uri" : "spotify:artist:7GkPZD0O1btf2e5dtRZyfI"
      } ],
      "disc_number" : 1,
      "duration_ms" : 73986,
      "explicit" : false,
      "external_ids" : {
        "isrc" : "ushm91296379"
      },
      "external_urls" : {
        "spotify" : "https://open.spotify.com/track/3T77RdhyFNXw1SWMrTaksB"
      },
      "href" : "https://api.spotify.com/v1/tracks/3T77RdhyFNXw1SWMrTaksB",
      "id" : "3T77RdhyFNXw1SWMrTaksB",
      "is_local" : false,
      "is_playable" : true,
      "name" : "Father We Thank You",
      "popularity" : 1,
      "preview_url" : "https://p.scdn.co/mp3-preview/f5c89009b91c4265c9a0539c0cc1b710c2b0bcf5?cid=774b29d4f13844c495f206cafdad9c86",
      "track_number" : 4,
      "type" : "track",
      "uri" : "spotify:track:3T77RdhyFNXw1SWMrTaksB"
    }, {
      "album" : {
        "album_type" : "album",
        "artists" : [ {
          "external_urls" : {
            "spotify" : "https://open.spotify.com/artist/05yYOnxJawq7pXBr5M90Du"
          },
          "href" : "https://api.spotify.com/v1/artists/05yYOnxJawq7pXBr5M90Du",
          "id" : "05yYOnxJawq7pXBr5M90Du",
          "name" : "Vince Ambrosetti",
          "type" : "artist",
          "uri" : "spotify:artist:05yYOnxJawq7pXBr5M90Du"
        } ],
        "external_urls" : {
          "spotify" : "https://open.spotify.com/album/2QI6ovClc0nP5FUJLaAoFj"
        },
        "href" : "https://api.spotify.com/v1/albums/2QI6ovClc0nP5FUJLaAoFj",
        "id" : "2QI6ovClc0nP5FUJLaAoFj",
        "images" : [ {
          "height" : 640,
          "url" : "https://i.scdn.co/image/ab67616d0000b273c902a4528267c719db5fc43c",
          "width" : 640
        }, {
          "height" : 300,
          "url" : "https://i.scdn.co/image/ab67616d00001e02c902a4528267c719db5fc43c",
          "width" : 300
        }, {
          "height" : 64,
          "url" : "https://i.scdn.co/image/ab67616d00004851c902a4528267c719db5fc43c",
          "width" : 64
        } ],
        "name" : "Far More Precious",
        "release_date" : "1978",
        "release_date_precision" : "year",
        "total_tracks" : 12,
        "type" : "album",
        "uri" : "spotify:album:2QI6ovClc0nP5FUJLaAoFj"
      },
      "artists" : [ {
        "external_urls" : {
          "spotify" : "https://open.spotify.com/artist/05yYOnxJawq7pXBr5M90Du"
        },
        "href" : "https://api.spotify.com/v1/artists/05yYOnxJawq7pXBr5M90Du",
        "id" : "05yYOnxJawq7pXBr5M90Du",
        "name" : "Vince Ambrosetti",
        "type" : "artist",
        "uri" : "spotify:artist:05yYOnxJawq7pXBr5M90Du"
      } ],
      "disc_number" : 1,
      "duration_ms" : 222400,
      "explicit" : false,
      "external_ids" : {
        "isrc" : "USGLA0601011"
      },
      "external_urls" : {
        "spotify" : "https://open.spotify.com/track/2mKubUSx2ha7TWnqSj5oGE"
      },
      "href" : "https://api.spotify.com/v1/tracks/2mKubUSx2ha7TWnqSj5oGE",
      "id" : "2mKubUSx2ha7TWnqSj5oGE",
      "is_local" : false,
      "is_playable" : true,
      "name" : "We Thank You, Father",
      "popularity" : 0,
      "preview_url" : "https://p.scdn.co/mp3-preview/367a01408264e19b1754d487855bacbf522cce24?cid=774b29d4f13844c495f206cafdad9c86",
      "track_number" : 11,
      "type" : "track",
      "uri" : "spotify:track:2mKubUSx2ha7TWnqSj5oGE"
    }, {
      "album" : {
        "album_type" : "compilation",
        "artists" : [ {
          "external_urls" : {
            "spotify" : "https://open.spotify.com/artist/5E5G1Q0YI0r3Y5756p5cje"
          },
          "href" : "https://api.spotify.com/v1/artists/5E5G1Q0YI0r3Y5756p5cje",
          "id" : "5E5G1Q0YI0r3Y5756p5cje",
          "name" : "Mr D",
          "type" : "artist",
          "uri" : "spotify:artist:5E5G1Q0YI0r3Y5756p5cje"
        } ],
        "external_urls" : {
          "spotify" : "https://open.spotify.com/album/267yE1HYwnhy9n7qyqEXe5"
        },
        "href" : "https://api.spotify.com/v1/albums/267yE1HYwnhy9n7qyqEXe5",
        "id" : "267yE1HYwnhy9n7qyqEXe5",
        "images" : [ {
          "height" : 640,
          "url" : "https://i.scdn.co/image/ab67616d0000b27396d413d0243b405560d18574",
          "width" : 640
        }, {
          "height" : 300,
          "url" : "https://i.scdn.co/image/ab67616d00001e0296d413d0243b405560d18574",
          "width" : 300
        }, {
          "height" : 64,
          "url" : "https://i.scdn.co/image/ab67616d0000485196d413d0243b405560d18574",
          "width" : 64
        } ],
        "name" : "Unsuspecting World",
        "release_date" : "2010-09-08",
        "release_date_precision" : "day",
        "total_tracks" : 18,
        "type" : "album",
        "uri" : "spotify:album:267yE1HYwnhy9n7qyqEXe5"
      },
      "artists" : [ {
        "external_urls" : {
          "spotify" : "https://open.spotify.com/artist/5E5G1Q0YI0r3Y5756p5cje"
        },
        "href" : "https://api.spotify.com/v1/artists/5E5G1Q0YI0r3Y5756p5cje",
        "id" : "5E5G1Q0YI0r3Y5756p5cje",
        "name" : "Mr D",
        "type" : "artist",
        "uri" : "spotify:artist:5E5G1Q0YI0r3Y5756p5cje"
      } ],
      "disc_number" : 1,
      "duration_ms" : 226009,
      "explicit" : false,
      "external_ids" : {
        "isrc" : "FR6V80876494"
      },
      "external_urls" : {
        "spotify" : "https://open.spotify.com/track/4MvAW2IWiW9BFhjLzagB7W"
      },
      "href" : "https://api.spotify.com/v1/tracks/4MvAW2IWiW9BFhjLzagB7W",
      "id" : "4MvAW2IWiW9BFhjLzagB7W",
      "is_local" : false,
      "is_playable" : true,
      "name" : "Father We Thank You",
      "popularity" : 0,
      "preview_url" : "https://p.scdn.co/mp3-preview/2a9501685a58a030d9d89d967e72f01c5922019f?cid=774b29d4f13844c495f206cafdad9c86",
      "track_number" : 3,
      "type" : "track",
      "uri" : "spotify:track:4MvAW2IWiW9BFhjLzagB7W"
    }, {
      "album" : {
        "album_type" : "compilation",
        "artists" : [ {
          "external_urls" : {
            "spotify" : "https://open.spotify.com/artist/0LyfQWJT6nXafLPZqxe9Of"
          },
          "href" : "https://api.spotify.com/v1/artists/0LyfQWJT6nXafLPZqxe9Of",
          "id" : "0LyfQWJT6nXafLPZqxe9Of",
          "name" : "Various Artists",
          "type" : "artist",
          "uri" : "spotify:artist:0LyfQWJT6nXafLPZqxe9Of"
        } ],
        "external_urls" : {
          "spotify" : "https://open.spotify.com/album/6yG7N8kAxf8RqbDpibxzAy"
        },
        "href" : "https://api.spotify.com/v1/albums/6yG7N8kAxf8RqbDpibxzAy",
        "id" : "6yG7N8kAxf8RqbDpibxzAy",
        "images" : [ {
          "height" : 640,
          "url" : "https://i.scdn.co/image/ab67616d0000b2731ec65be36806e578efa33b09",
          "width" : 640
        }, {
          "height" : 300,
          "url" : "https://i.scdn.co/image/ab67616d00001e021ec65be36806e578efa33b09",
          "width" : 300
        }, {
          "height" : 64,
          "url" : "https://i.scdn.co/image/ab67616d000048511ec65be36806e578efa33b09",
          "width" : 64
        } ],
        "name" : "Beroemde Koren en Solisten, Deel 1",
        "release_date" : "1987-08-23",
        "release_date_precision" : "day",
        "total_tracks" : 13,
        "type" : "album",
        "uri" : "spotify:album:6yG7N8kAxf8RqbDpibxzAy"
      },
      "artists" : [ {
        "external_urls" : {
          "spotify" : "https://open.spotify.com/artist/7jjiSeoxfYdTHStCt8ydZM"
        },
        "href" : "https://api.spotify.com/v1/artists/7jjiSeoxfYdTHStCt8ydZM",
        "id" : "7jjiSeoxfYdTHStCt8ydZM",
        "name" : "Hervormd Zangkoor 'Jubilate' Ede",
        "type" : "artist",
        "uri" : "spotify:artist:7jjiSeoxfYdTHStCt8ydZM"
      }, {
        "external_urls" : {
          "spotify" : "https://open.spotify.com/artist/6VYoLnhR3eArnePDp7Txn0"
        },
        "href" : "https://api.spotify.com/v1/artists/6VYoLnhR3eArnePDp7Txn0",
        "id" : "6VYoLnhR3eArnePDp7Txn0",
        "name" : "Frans van Tilburg",
        "type" : "artist",
        "uri" : "spotify:artist:6VYoLnhR3eArnePDp7Txn0"
      } ],
      "disc_number" : 1,
      "duration_ms" : 153826,
      "explicit" : false,
      "external_ids" : {
        "isrc" : "NLY8X1800918"
      },
      "external_urls" : {
        "spotify" : "https://open.spotify.com/track/3UndF6i6YCNV2YEg98sFnu"
      },
      "href" : "https://api.spotify.com/v1/tracks/3UndF6i6YCNV2YEg98sFnu",
      "id" : "3UndF6i6YCNV2YEg98sFnu",
      "is_local" : false,
      "is_playable" : true,
      "name" : "Father We Thank You",
      "popularity" : 0,
      "preview_url" : "https://p.scdn.co/mp3-preview/013d1fcc6d2bb2192a77c9e0ac4969f966564ceb?cid=774b29d4f13844c495f206cafdad9c86",
      "track_number" : 12,
      "type" : "track",
      "uri" : "spotify:track:3UndF6i6YCNV2YEg98sFnu"
    }, {
      "album" : {
        "album_type" : "album",
        "artists" : [ {
          "external_urls" : {
            "spotify" : "https://open.spotify.com/artist/4Fa1nKfRWly3SqYKpvniFG"
          },
          "href" : "https://api.spotify.com/v1/artists/4Fa1nKfRWly3SqYKpvniFG",
          "id" : "4Fa1nKfRWly3SqYKpvniFG",
          "name" : "The Meditators",
          "type" : "artist",
          "uri" : "spotify:artist:4Fa1nKfRWly3SqYKpvniFG"
        } ],
        "external_urls" : {
          "spotify" : "https://open.spotify.com/album/4B6azNlN6s6slFEvGIXtLX"
        },
        "href" : "https://api.spotify.com/v1/albums/4B6azNlN6s6slFEvGIXtLX",
        "id" : "4B6azNlN6s6slFEvGIXtLX",
        "images" : [ {
          "height" : 640,
          "url" : "https://i.scdn.co/image/ab67616d0000b2730b2644e09dd5a8fb9785681f",
          "width" : 640
        }, {
          "height" : 300,
          "url" : "https://i.scdn.co/image/ab67616d00001e020b2644e09dd5a8fb9785681f",
          "width" : 300
        }, {
          "height" : 64,
          "url" : "https://i.scdn.co/image/ab67616d000048510b2644e09dd5a8fb9785681f",
          "width" : 64
        } ],
        "name" : "Explosion",
        "release_date" : "2019-03-01",
        "release_date_precision" : "day",
        "total_tracks" : 14,
        "type" : "album",
        "uri" : "spotify:album:4B6azNlN6s6slFEvGIXtLX"
      },
      "artists" : [ {
        "external_urls" : {
          "spotify" : "https://open.spotify.com/artist/4Fa1nKfRWly3SqYKpvniFG"
        },
        "href" : "https://api.spotify.com/v1/artists/4Fa1nKfRWly3SqYKpvniFG",
        "id" : "4Fa1nKfRWly3SqYKpvniFG",
        "name" : "The Meditators",
        "type" : "artist",
        "uri" : "spotify:artist:4Fa1nKfRWly3SqYKpvniFG"
      } ],
      "disc_number" : 1,
      "duration_ms" : 325250,
      "explicit" : false,
      "external_ids" : {
        "isrc" : "FR10S1973315"
      },
      "external_urls" : {
        "spotify" : "https://open.spotify.com/track/6SawWFC08AiCsRLrNL5Gry"
      },
      "href" : "https://api.spotify.com/v1/tracks/6SawWFC08AiCsRLrNL5Gry",
      "id" : "6SawWFC08AiCsRLrNL5Gry",
      "is_local" : false,
      "is_playable" : true,
      "name" : "We Thankin' You Father",
      "popularity" : 0,
      "preview_url" : "https://p.scdn.co/mp3-preview/808898353668a3e7bc25cfba200ac1cead435331?cid=774b29d4f13844c495f206cafdad9c86",
      "track_number" : 13,
      "type" : "track",
      "uri" : "spotify:track:6SawWFC08AiCsRLrNL5Gry"
    }, {
      "album" : {
        "album_type" : "album",
        "artists" : [ {
          "external_urls" : {
            "spotify" : "https://open.spotify.com/artist/4EryiCEEpypNgVEnrX2Smk"
          },
          "href" : "https://api.spotify.com/v1/artists/4EryiCEEpypNgVEnrX2Smk",
          "id" : "4EryiCEEpypNgVEnrX2Smk",
          "name" : "Richard Gamble",
          "type" : "artist",
          "uri" : "spotify:artist:4EryiCEEpypNgVEnrX2Smk"
        } ],
        "external_urls" : {
          "spotify" : "https://open.spotify.com/album/4mRvw89pQpeIpb6sjGC4Vr"
        },
        "href" : "https://api.spotify.com/v1/albums/4mRvw89pQpeIpb6sjGC4Vr",
        "id" : "4mRvw89pQpeIpb6sjGC4Vr",
        "images" : [ {
          "height" : 640,
          "url" : "https://i.scdn.co/image/ab67616d0000b273574c83101316220c9c75a3bf",
          "width" : 640
        }, {
          "height" : 300,
          "url" : "https://i.scdn.co/image/ab67616d00001e02574c83101316220c9c75a3bf",
          "width" : 300
        }, {
          "height" : 64,
          "url" : "https://i.scdn.co/image/ab67616d00004851574c83101316220c9c75a3bf",
          "width" : 64
        } ],
        "name" : "Give Him All the Praises",
        "release_date" : "2013-12-13",
        "release_date_precision" : "day",
        "total_tracks" : 13,
        "type" : "album",
        "uri" : "spotify:album:4mRvw89pQpeIpb6sjGC4Vr"
      },
      "artists" : [ {
        "external_urls" : {
          "spotify" : "https://open.spotify.com/artist/4EryiCEEpypNgVEnrX2Smk"
        },
        "href" : "https://api.spotify.com/v1/artists/4EryiCEEpypNgVEnrX2Smk",
        "id" : "4EryiCEEpypNgVEnrX2Smk",
        "name" : "Richard Gamble",
        "type" : "artist",
        "uri" : "spotify:artist:4EryiCEEpypNgVEnrX2Smk"
      } ],
      "disc_number" : 1,
      "duration_ms" : 369790,
      "explicit" : false,
      "external_ids" : {
        "isrc" : "uscgh1440838"
      },
      "external_urls" : {
        "spotify" : "https://open.spotify.com/track/2z5GkZ0FG0Datr58zz8Nxi"
      },
      "href" : "https://api.spotify.com/v1/tracks/2z5GkZ0FG0Datr58zz8Nxi",
      "id" : "2z5GkZ0FG0Datr58zz8Nxi",
      "is_local" : false,
      "is_playable" : true,
      "name" : "Father, Lord We Thank You",
      "popularity" : 0,
      "preview_url" : "https://p.scdn.co/mp3-preview/64ad2025ee77fcb9f615763675c4dc4a046669f8?cid=774b29d4f13844c495f206cafdad9c86",
      "track_number" : 3,
      "type" : "track",
      "uri" : "spotify:track:2z5GkZ0FG0Datr58zz8Nxi"
    } ],
    "limit" : 10,
    "next" : "https://api.spotify.com/v1/search?query=Father%2C+We+Thank+You&type=track&market=US&offset=15&limit=10",
    "offset" : 5,
    "previous" : "https://api.spotify.com/v1/search?query=Father%2C+We+Thank+You&type=track&market=US&offset=0&limit=10",
    "total" : 32
  }
}