{
  "tracks" : {
    "href" : "https://api.spotify.com/v1/search?query=The+King+of+Love+My+Shepherd+Is&type=track&market=US&offset=5&limit=10",
    "items" : [ {
      "album" : {
        "album_type" : "album",
        "artists" : [ {
          "external_urls" : {
            "spotify" : "https://open.spotify.com/artist/22cW8LmhiJAWAaFd0cfEbH"
          },
          "href" : "https://api.spotify.com/v1/artists/22cW8LmhiJAWAaFd0cfEbH",
          "id" : "22cW8LmhiJAWAaFd0cfEbH",
          "name" : "Sarah Kroger",
          "type" : "artist",
          "uri" : "spotify:artist:22cW8LmhiJAWAaFd0cfEbH"
        } ],
        "external_urls" : {
          "spotify" : "https://open.spotify.com/album/5bEPLOTPVLLCtbJPLlra2d"
        },
        "href" : "https://api.spotify.com/v1/albums/5bEPLOTPVLLCtbJPLlra2d",
        "id" : "5bEPLOTPVLLCtbJPLlra2d",
        "images" : [ {
          "height" : 640,
          "url" : "https://i.scdn.co/image/ab67616d0000b2738156b118bd580377865b4e5c",
          "width" : 640
        }, {
          "height" : 300,
          "url" : "https://i.scdn.co/image/ab67616d00001e028156b118bd580377865b4e5c",
          "width" : 300
        }, {
          "height" : 64,
          "url" : "https://i.scdn.co/image/ab67616d000048518156b118bd580377865b4e5c",
          "width" : 64
        } ],
        "name" : "Hallelujah Is Our Song",
        "release_date" : "2013-07-18",
        "release_date_precision" : "day",
        "total_tracks" : 7,
        "type" : "album",
        "uri" : "spotify:album:5bEPLOTPVLLCtbJPLlra2d"
      },
      "artists" : [ {
        "external_urls" : {
          "spotify" : "https://open.spotify.com/artist/22cW8LmhiJAWAaFd0cfEbH"
        },
        "href" : "https://api.spotify.com/v1/artists/22cW8LmhiJAWAaFd0cfEbH",
        "id" : "22cW8LmhiJAWAaFd0cfEbH",
        "name" : "Sarah Kroger",
        "type" : "artist",
        "uri" : "spotify:artist:22cW8LmhiJAWAaFd0cfEbH"
      } ],
      "disc_number" : 1,
      "duration_ms" : 260120,
      "explicit" : false,
      "external_ids" : {
        "isrc" : "ushm81306003"
      },
      "external_urls" : {
        "spotify" : "https://open.spotify.com/track/5IWiR3Zz6OTvcp2gdTVLl1"
      },
      "href" : "https://api.spotify.com/v1/tracks/5IWiR3Zz6OTvcp2gdTVLl1",
      "id" : "5IWiR3Zz6OTvcp2gdTVLl1",
      "is_local" : false,
      "is_playable" : true,
      "name" : "The King of Love My Shepherd Is",
      "popularity" : 15,
      "preview_url" : "https://p.scdn.co/mp3-preview/14dcdf8bd8a9d12de2afec1ba40d0b69fdb98d14?cid=774b29d4f13844c495f206cafdad9c86",
      "track_number" : 7,
      "type" : "track",
      "uri" : "spotify:track:5IWiR3Zz6OTvcp2gdTVLl1"
    }, {
      "album" : {
        "album_type" : "album",
        "artists" : [ {
          "external_urls" : {
            "spotify" : "https://open.spotify.com/artist/6yHlLzOTenVkSW9K38AdYT"
          },
          "href" : "https://api.spotify.com/v1/artists/6yHlLzOTenVkSW9K38AdYT",
          "id" : "6yHlLzOTenVkSW9K38AdYT",
          "name" : "Mercy Message",
          "type" : "artist",
          "uri" : "spotify:artist:6yHlLzOTenVkSW9K38AdYT"
        } ],
        "external_urls" : {
          "spotify" : "https://open.spotify.com/album/4pW9dEu87QcRyuogGulRSv"
        },
        "href" : "https://api.spotify.com/v1/albums/4pW9dEu87QcRyuogGulRSv",
        "id" : "4pW9dEu87QcRyuogGulRSv",
        "images" : [ {
          "height" : 640,
          "url" : "https://i.scdn.co/image/ab67616d0000b273c31aa6851f275bc925811b48",
          "width" : 640
        }, {
          "height" : 300,
          "url" : "https://i.scdn.co/image/ab67616d00001e02c31aa6851f275bc925811b48",
          "width" : 300
        }, {
          "height" : 64,
          "url" : "https://i.scdn.co/image/ab67616d00004851c31aa6851f275bc925811b48",
          "width" : 64
        } ],
        "name" : "The New Song",
        "release_date" : "2019-07-12",
        "release_date_precision" : "day",
        "total_tracks" : 23,
        "type" : "album",
        "uri" : "spotify:album:4pW9dEu87QcRyuogGulRSv"
      },
      "artists" : [ {
        "external_urls" : {
          "spotify" : "https://open.spotify.com/artist/6yHlLzOTenVkSW9K38AdYT"
        },
        "href" : "https://api.spotify.com/v1/artists/6yHlLzOTenVkSW9K38AdYT",
        "id" : "6yHlLzOTenVkSW9K38AdYT",
        "name" : "Mercy Message",
        "type" : "artist",
        "uri" : "spotify:artist:6yHlLzOTenVkSW9K38AdYT"
      } ],
      "disc_number" : 1,
      "duration_ms" : 137226,
      "explicit" : false,
      "external_ids" : {
        "isrc" : "QZFZ21990866"
      },
      "external_urls" : {
        "spotify" : "https://open.spotify.com/track/0tb0mywlwxtWwJjcqbiyeH"
      },
      "href" : "https://api.spotify.com/v1/tracks/0tb0mywlwxtWwJjcqbiyeH",
      "id" : "0tb0mywlwxtWwJjcqbiyeH",
      "is_local" : false,
      "is_playable" : true,
      "name" : "The King of Love My Shepherd Is",
      "popularity" : 13,
      "preview_url" : "https://p.scdn.co/mp3-preview/6449924214b786a01d64de1de0ea54f9fea1c922?cid=774b29d4f13844c495f206cafdad9c86",
      "track_number" : 12,
      "type" : "track",
      "uri" : "spotify:track:0tb0mywlwxtWwJjcqbiyeH"
    }, {
      "album" : {
        "album_type" : "album",
        "artists" : [ {
          "external_urls" : {
            "spotify" : "https://open.spotify.com/artist/3bOofoVdItLmnOv4Zn1Vvb"
          },
          "href" : "https://api.spotify.com/v1/artists/3bOofoVdItLmnOv4Zn1Vvb",
          "id" : "3bOofoVdItLmnOv4Zn1Vvb",
          "name" : "The Methodist Hymnal",
          "type" : "artist",
          "uri" : "spotify:artist:3bOofoVdItLmnOv4Zn1Vvb"
        } ],
        "external_urls" : {
          "spotify" : "https://open.spotify.com/album/1wGoiaUfVqmoRjX8NzXFf4"
        },
        "href" : "https://api.spotify.com/v1/albums/1wGoiaUfVqmoRjX8NzXFf4",
        "id" : "1wGoiaUfVqmoRjX8NzXFf4",
        "images" : [ {
          "height" : 640,
          "url" : "https://i.scdn.co/image/ab67616d0000b273e5afdad652d1cebd85a7df6d",
          "width" : 640
        }, {
          "height" : 300,
          "url" : "https://i.scdn.co/image/ab67616d00001e02e5afdad652d1cebd85a7df6d",
          "width" : 300
        }, {
          "height" : 64,
          "url" : "https://i.scdn.co/image/ab67616d00004851e5afdad652d1cebd85a7df6d",
          "width" : 64
        } ],
        "name" : "Blessings",
        "release_date" : "2015-09-25",
        "release_date_precision" : "day",
        "total_tracks" : 16,
        "type" : "album",
        "uri" : "spotify:album:1wGoiaUfVqmoRjX8NzXFf4"
      },
      "artists" : [ {
        "external_urls" : {
          "spotify" : "https://open.spotify.com/artist/3bOofoVdItLmnOv4Zn1Vvb"
        },
        "href" : "https://api.spotify.com/v1/artists/3bOofoVdItLmnOv4Zn1Vvb",
        "id" : "3bOofoVdItLmnOv4Zn1Vvb",
        "name" : "The Methodist Hymnal",
        "type" : "artist",
        "uri" : "spotify:artist:3bOofoVdItLmnOv4Zn1Vvb"
      } ],
      "disc_number" : 1,
      "duration_ms" : 139881,
      "explicit" : false,
      "external_ids" : {
        "isrc" : "USLZJ1559376"
      },
      "external_urls" : {
        "spotify" : "https://open.spotify.com/track/6wyC8TRzHr5v28ix9gb7wi"
      },
      "href" : "https://api.spotify.com/v1/tracks/6wyC8TRzHr5v28ix9gb7wi",
      "id" : "6wyC8TRzHr5v28ix9gb7wi",
      "is_local" : false,
      "is_playable" : true,
      "name" : "The King Of Love My Shepherd Is",
      "popularity" : 14,
      "preview_url" : "https://p.scdn.co/mp3-preview/338b3d7643bdb031740e1084d416384ce8d7bcfc?cid=774b29d4f13844c495f206cafdad9c86",
      "track_number" : 6,
      "type" : "track",
      "uri" : "spotify:track:6wyC8TRzHr5v28ix9gb7wi"
    }, {
      "album" : {
        "album_type" : "album",
        "artists" : [ {
          "external_urls" : {
            "spotify" : "https://open.spotify.com/artist/1TRZYAlP0bNz0dZCbWAjsI"
          },
          "href" : "https://api.spotify.com/v1/artists/1TRZYAlP0bNz0dZCbWAjsI",
          "id" : "1TRZYAlP0bNz0dZCbWAjsI",
          "name" : "Steve Petrunak",
          "type" : "artist",
          "uri" : "spotify:artist:1TRZYAlP0bNz0dZCbWAjsI"
        } ],
        "external_urls" : {
          "spotify" : "https://open.spotify.com/album/22yOZJ3mUJxsejpN72fIfG"
        },
        "href" : "https://api.spotify.com/v1/albums/22yOZJ3mUJxsejpN72fIfG",
        "id" : "22yOZJ3mUJxsejpN72fIfG",
        "images" : [ {
          "height" : 640,
          "url" : "https://i.scdn.co/image/ab67616d0000b273cb5dd37eb233c5c5a8e520b3",
          "width" : 640
        }, {
          "height" : 300,
          "url" : "https://i.scdn.co/image/ab67616d00001e02cb5dd37eb233c5c5a8e520b3",
          "width" : 300
        }, {
          "height" : 64,
          "url" : "https://i.scdn.co/image/ab67616d00004851cb5dd37eb233c5c5a8e520b3",
          "width" : 64
        } ],
        "name" : "Guitar for Spiritual Reflection",
        "release_date" : "2020-02-27",
        "release_date_precision" : "day",
        "total_tracks" : 15,
        "type" : "album",
        "uri" : "spotify:album:22yOZJ3mUJxsejpN72fIfG"
      },
      "artists" : [ {
        "external_urls" : {
          "spotify" : "https://open.spotify.com/artist/1TRZYAlP0bNz0dZCbWAjsI"
        },
        "href" : "https://api.spotify.com/v1/artists/1TRZYAlP0bNz0dZCbWAjsI",
        "id" : "1TRZYAlP0bNz0dZCbWAjsI",
        "name" : "Steve Petrunak",
        "type" : "artist",
        "uri" : "spotify:artist:1TRZYAlP0bNz0dZCbWAjsI"
      } ],
      "disc_number" : 1,
      "duration_ms" : 236938,
      "explicit" : false,
      "external_ids" : {
        "isrc" : "TCAER2003945"
      },
      "external_urls" : {
        "spotify" : "https://open.spotify.com/track/6H22Qwr3WkKNCR5Qk0Eag5"
      },
      "href" : "https://api.spotify.com/v1/tracks/6H22Qwr3WkKNCR5Qk0Eag5",
      "id" : "6H22Qwr3WkKNCR5Qk0Eag5",
      "is_local" : false,
      "is_playable" : true,
      "name" : "At Peace (The King of Love My Shepherd Is) [Instrumental Version]",
      "popularity" : 17,
      "preview_url" : "https://p.scdn.co/mp3-preview/2f6a9930db3cc754268a64dec143bd8bc3f8775c?cid=774b29d4f13844c495f206cafdad9c86",
      "track_number" : 2,
      "type" : "track",
      "uri" : "spotify:track:6H22Qwr3WkKNCR5Qk0Eag5"
    }, {
      "album" : {
        "album_type" : "album",
        "artists" : [ {
          "external_urls" : {
            "spotify" : "https://open.spotify.com/artist/35ufIa5SJNtsQMIKrQeYfN"
          },
          "href" : "https://api.spotify.com/v1/artists/35ufIa5SJNtsQMIKrQeYfN",
          "id" : "35ufIa5SJNtsQMIKrQeYfN",
          "name" : "Michael Card",
          "type" : "artist",
          "uri" : "spotify:artist:35ufIa5SJNtsQMIKrQeYfN"
        } ],
        "external_urls" : {
          "spotify" : "https://open.spotify.com/album/0uui431NrPMsfsIlvUH2Kz"
        },
        "href" : "https://api.spotify.com/v1/albums/0uui431NrPMsfsIlvUH2Kz",
        "id" : "0uui431NrPMsfsIlvUH2Kz",
        "images" : [ {
          "height" : 640,
          "url" : "https://i.scdn.co/image/ab67616d0000b27343c04a8b1da30e7702f59e24",
          "width" : 640
        }, {
          "height" : 300,
          "url" : "https://i.scdn.co/image/ab67616d00001e0243c04a8b1da30e7702f59e24",
          "width" : 300
        }, {
          "height" : 64,
          "url" : "https://i.scdn.co/image/ab67616d0000485143c04a8b1da30e7702f59e24",
          "width" : 64
        } ],
        "name" : "Starkindler: A Celtic Conversation Across Time",
        "release_date" : "1998-10-28",
        "release_date_precision" : "day",
        "total_tracks" : 10,
        "type" : "album",
        "uri" : "spotify:album:0uui431NrPMsfsIlvUH2Kz"
      },
      "artists" : [ {
        "external_urls" : {
          "spotify" : "https://open.spotify.com/artist/35ufIa5SJNtsQMIKrQeYfN"
        },
        "href" : "https://api.spotify.com/v1/artists/35ufIa5SJNtsQMIKrQeYfN",
        "id" : "35ufIa5SJNtsQMIKrQeYfN",
        "name" : "Michael Card",
        "type" : "artist",
        "uri" : "spotify:artist:35ufIa5SJNtsQMIKrQeYfN"
      } ],
      "disc_number" : 1,
      "duration_ms" : 175400,
      "explicit" : false,
      "external_ids" : {
        "isrc" : "USSM19803472"
      },
      "external_urls" : {
        "spotify" : "https://open.spotify.com/track/1bnGJgIKJwHw1tAk4oWLIC"
      },
      "href" : "https://api.spotify.com/v1/tracks/1bnGJgIKJwHw1tAk4oWLIC",
      "id" : "1bnGJgIKJwHw1tAk4oWLIC",
      "is_local" : false,
      "is_playable" : true,
      "name" : "The King Of Love My Shepherd Is",
      "popularity" : 11,
      "preview_url" : "https://p.scdn.co/mp3-preview/2774cd14e68e3cefd5a70910fc615a7f9f62a9ad?cid=774b29d4f13844c495f206cafdad9c86",
      "track_number" : 6,
      "type" : "track",
      "uri" : "spotify:track:1bnGJgIKJwHw1tAk4oWLIC"
    }, {
      "album" : {
        "album_type" : "single",
        "artists" : [ {
          "external_urls" : {
            "spotify" : "https://open.spotify.com/artist/4774AfmqyBy6472bdgGD5F"
          },
          "href" : "https://api.spotify.com/v1/artists/4774AfmqyBy6472bdgGD5F",
          "id" : "4774AfmqyBy6472bdgGD5F",
          "name" : "Todd Wright Band",
          "type" : "artist",
          "uri" : "spotify:artist:4774AfmqyBy6472bdgGD5F"
        } ],
        "external_urls" : {
          "spotify" : "https://open.spotify.com/album/02QqsNrJ517ysbfUKXhtLc"
        },
        "href" : "https://api.spotify.com/v1/albums/02QqsNrJ517ysbfUKXhtLc",
        "id" : "02QqsNrJ517ysbfUKXhtLc",
        "images" : [ {
          "height" : 640,
          "url" : "https://i.scdn.co/image/ab67616d0000b27382f197c7401be0d3dd4f2c30",
          "width" : 640
        }, {
          "height" : 300,
          "url" : "https://i.scdn.co/image/ab67616d00001e0282f197c7401be0d3dd4f2c30",
          "width" : 300
        }, {
          "height" : 64,
          "url" : "https://i.scdn.co/image/ab67616d0000485182f197c7401be0d3dd4f2c30",
          "width" : 64
        } ],
        "name" : "The King of Love My Shepherd Is",
        "release_date" : "2018-03-09",
        "release_date_precision" : "day",
        "total_tracks" : 1,
        "type" : "album",
        "uri" : "spotify:album:02QqsNrJ517ysbfUKXhtLc"
      },
      "artists" : [ {
        "external_urls" : {
          "spotify" : "https://open.spotify.com/artist/4774AfmqyBy6472bdgGD5F"
        },
        "href" : "https://api.spotify.com/v1/artists/4774AfmqyBy6472bdgGD5F",
        "id" : "4774AfmqyBy6472bdgGD5F",
        "name" : "Todd Wright Band",
        "type" : "artist",
        "uri" : "spotify:artist:4774AfmqyBy6472bdgGD5F"
      } ],
      "disc_number" : 1,
      "duration_ms" : 283908,
      "explicit" : false,
      "external_ids" : {
        "isrc" : "USDHM1803553"
      },
      "external_urls" : {
        "spotify" : "https://open.spotify.com/track/0Tzlc42vczVKJ29pmohbte"
      },
      "href" : "https://api.spotify.com/v1/tracks/0Tzlc42vczVKJ29pmohbte",
      "id" : "0Tzlc42vczVKJ29pmohbte",
      "is_local" : false,
      "is_playable" : true,
      "name" : "The King of Love My Shepherd Is",
      "popularity" : 11,
      "preview_url" : "https://p.scdn.co/mp3-preview/2c6b9723e63999b8a1271cde40aa71162dbedae0?cid=774b29d4f13844c495f206cafdad9c86",
      "track_number" : 1,
      "type" : "track",
      "uri" : "spotify:track:0Tzlc42vczVKJ29pmohbte"
    }, {
      "album" : {
        "album_type" : "album",
        "artists" : [ {
          "external_urls" : {
            "spotify" : "https://open.spotify.com/artist/2rQzS4iX6bEMlrO4noTwIX"
          },
          "href" : "https://api.spotify.com/v1/artists/2rQzS4iX6bEMlrO4noTwIX",
          "id" : "2rQzS4iX6bEMlrO4noTwIX",
          "name" : "Dan Forrest",
          "type" : "artist",
          "uri" : "spotify:artist:2rQzS4iX6bEMlrO4noTwIX"
        } ],
        "external_urls" : {
          "spotify" : "https://open.spotify.com/album/2p0r5GgEVK0MYffiou8uY1"
        },
        "href" : "https://api.spotify.com/v1/albums/2p0r5GgEVK0MYffiou8uY1",
        "id" : "2p0r5GgEVK0MYffiou8uY1",
        "images" : [ {
          "height" : 640,
          "url" : "https://i.scdn.co/image/ab67616d0000b273c372ab0775f2f66d138e63a8",
          "width" : 640
        }, {
          "height" : 300,
          "url" : "https://i.scdn.co/image/ab67616d00001e02c372ab0775f2f66d138e63a8",
          "width" : 300
        }, {
          "height" : 64,
          "url" : "https://i.scdn.co/image/ab67616d00004851c372ab0775f2f66d138e63a8",
          "width" : 64
        } ],
        "name" : "Illuminations",
        "release_date" : "2015-05-01",
        "release_date_precision" : "day",
        "total_tracks" : 9,
        "type" : "album",
        "uri" : "spotify:album:2p0r5GgEVK0MYffiou8uY1"
      },
      "artists" : [ {
        "external_urls" : {
          "spotify" : "https://open.spotify.com/artist/2rQzS4iX6bEMlrO4noTwIX"
        },
        "href" : "https://api.spotify.com/v1/artists/2rQzS4iX6bEMlrO4noTwIX",
        "id" : "2rQzS4iX6bEMlrO4noTwIX",
        "name" : "Dan Forrest",
        "type" : "artist",
        "uri" : "spotify:artist:2rQzS4iX6bEMlrO4noTwIX"
      } ],
      "disc_number" : 1,
      "duration_ms" : 294800,
      "explicit" : false,
      "external_ids" : {
        "isrc" : "uscgj1564985"
      },
      "external_urls" : {
        "spotify" : "https://open.spotify.com/track/6fVX0SDmkqf2gtW2zIkZHN"
      },
      "href" : "https://api.spotify.com/v1/tracks/6fVX0SDmkqf2gtW2zIkZHN",
      "id" : "6fVX0SDmkqf2gtW2zIkZHN",
      "is_local" : false,
      "is_playable" : true,
      "name" : "The King of Love My Shepherd Is (Arr. Dan Forrest)",
      "popularity" : 12,
      "preview_url" : "https://p.scdn.co/mp3-preview/a0238301219f4749a7e07a11258eade7e60a588c?cid=774b29d4f13844c495f206cafdad9c86",
      "track_number" : 2,
      "type" : "track",
      "uri" : "spotify:track:6fVX0SDmkqf2gtW2zIkZHN"
    }, {
      "album" : {
        "album_type" : "album",
        "artists" : [ {
          "external_urls" : {
            "spotify" : "https://open.spotify.com/artist/1bI2Gw4q2EJbDFNp5vzpUd"
          },
          "href" : "https://api.spotify.com/v1/artists/1bI2Gw4q2EJbDFNp5vzpUd",
          "id" : "1bI2Gw4q2EJbDFNp5vzpUd",
          "name" : "The Midwestern Lutheran",
          "type" : "artist",
          "uri" : "spotify:artist:1bI2Gw4q2EJbDFNp5vzpUd"
        } ],
        "external_urls" : {
          "spotify" : "https://open.spotify.com/album/0CN9GrS9ZKfSZRyXyin0ZL"
        },
        "href" : "https://api.spotify.com/v1/albums/0CN9GrS9ZKfSZRyXyin0ZL",
        "id" : "0CN9GrS9ZKfSZRyXyin0ZL",
        "images" : [ {
          "height" : 640,
          "url" : "https://i.scdn.co/image/ab67616d0000b2734f0e5af95cb2126726bebf81",
          "width" : 640
        }, {
          "height" : 300,
          "url" : "https://i.scdn.co/image/ab67616d00001e024f0e5af95cb2126726bebf81",
          "width" : 300
        }, {
          "height" : 64,
          "url" : "https://i.scdn.co/image/ab67616d000048514f0e5af95cb2126726bebf81",
          "width" : 64
        } ],
        "name" : "Lutheran Hymns",
        "release_date" : "2015-12-21",
        "release_date_precision" : "day",
        "total_tracks" : 18,
        "type" : "album",
        "uri" : "spotify:album:0CN9GrS9ZKfSZRyXyin0ZL"
      },
      "artists" : [ {
        "external_urls" : {
          "spotify" : "https://open.spotify.com/artist/1bI2Gw4q2EJbDFNp5vzpUd"
        },
        "href" : "https://api.spotify.com/v1/artists/1bI2Gw4q2EJbDFNp5vzpUd",
        "id" : "1bI2Gw4q2EJbDFNp5vzpUd",
        "name" : "The Midwestern Lutheran",
        "type" : "artist",
        "uri" : "spotify:artist:1bI2Gw4q2EJbDFNp5vzpUd"
      } ],
      "disc_number" : 1,
      "duration_ms" : 139881,
      "explicit" : false,
      "external_ids" : {
        "isrc" : "USA2P1563078"
      },
      "external_urls" : {
        "spotify" : "https://open.spotify.com/track/4qITpI2FEhC3T2s3470gjm"
      },
      "href" : "https://api.spotify.com/v1/tracks/4qITpI2FEhC3T2s3470gjm",
      "id" : "4qITpI2FEhC3T2s3470gjm",
      "is_local" : false,
      "is_playable" : true,
      "name" : "The King of Love My Shepherd Is",
      "popularity" : 10,
      "preview_url" : "https://p.scdn.co/mp3-preview/54c596a9940480e5992b1fc1c6817827dfa26c06?cid=774b29d4f13844c495f206cafdad9c86",
      "track_number" : 15,
      "type" : "track",
      "uri" : "spotify:track:4qITpI2FEhC3T2s3470gjm"
    }, {
      "album" : {
        "album_type" : "album",
        "artists" : [ {
          "external_urls" : {
            "spotify" : "https://open.spotify.com/artist/7hz41KzAPU4K0qUXDCc2ki"
          },
          "href" : "https://api.spotify.com/v1/artists/7hz41KzAPU4K0qUXDCc2ki",
          "id" : "7hz41KzAPU4K0qUXDCc2ki",
          "name" : "The National Lutheran Choir",
          "type" : "artist",
          "uri" : "spotify:artist:7hz41KzAPU4K0qUXDCc2ki"
        } ],
        "external_urls" : {
          "spotify" : "https://open.spotify.com/album/4RfGivUMAVRRFspeqgCgQv"
        },
        "href" : "https://api.spotify.com/v1/albums/4RfGivUMAVRRFspeqgCgQv",
        "id" : "4RfGivUMAVRRFspeqgCgQv",
        "images" : [ {
          "height" : 640,
          "url" : "https://i.scdn.co/image/ab67616d0000b2737af7ddacb86a5c3bda8d58bb",
          "width" : 640
        }, {
          "height" : 300,
          "url" : "https://i.scdn.co/image/ab67616d00001e027af7ddacb86a5c3bda8d58bb",
          "width" : 300
        }, {
          "height" : 64,
          "url" : "https://i.scdn.co/image/ab67616d000048517af7ddacb86a5c3bda8d58bb",
          "width" : 64
        } ],
        "name" : "Hymns We Love to Sing, Vol. II",
        "release_date" : "2010-04-23",
        "release_date_precision" : "day",
        "total_tracks" : 13,
        "type" : "album",
        "uri" : "spotify:album:4RfGivUMAVRRFspeqgCgQv"
      },
      "artists" : [ {
        "external_urls" : {
          "spotify" : "https://open.spotify.com/artist/7hz41KzAPU4K0qUXDCc2ki"
        },
        "href" : "https://api.spotify.com/v1/artists/7hz41KzAPU4K0qUXDCc2ki",
        "id" : "7hz41KzAPU4K0qUXDCc2ki",
        "name" : "The National Lutheran Choir",
        "type" : "artist",
        "uri" : "spotify:artist:7hz41KzAPU4K0qUXDCc2ki"
      } ],
      "disc_number" : 1,
      "duration_ms" : 324350,
      "explicit" : false,
      "external_ids" : {
        "isrc" : "USDHM1004656"
      },
      "external_urls" : {
        "spotify" : "https://open.spotify.com/track/780WgMA3tWtz6CeutEsCLz"
      },
      "href" : "https://api.spotify.com/v1/tracks/780WgMA3tWtz6CeutEsCLz",
      "id" : "780WgMA3tWtz6CeutEsCLz",
      "is_local" : false,
      "is_playable" : true,
      "name" : "The King of Love My Shepherd Is",
      "popularity" : 11,
      "preview_url" : "https://p.scdn.co/mp3-preview/ce6354815ba40fbf3ec1764ff6f142e2596fc85e?cid=774b29d4f13844c495f206cafdad9c86",
      "track_number" : 2,
      "type" : "track",
      "uri" : "spotify:track:780WgMA3tWtz6CeutEsCLz"
    }, {
      "album" : {
        "album_type" : "album",
        "artists" : [ {
          "external_urls" : {
            "spotify" : "https://open.spotify.com/artist/7bizRFC2Gv4F2XxgamNwNy"
          },
          "href" : "https://api.spotify.com/v1/artists/7bizRFC2Gv4F2XxgamNwNy",
          "id" : "7bizRFC2Gv4F2XxgamNwNy",
          "name" : "Koiné",
          "type" : "artist",
          "uri" : "spotify:artist:7bizRFC2Gv4F2XxgamNwNy"
        } ],
        "external_urls" : {
          "spotify" : "https://open.spotify.com/album/3jl1GE4t0AIUU2IqQVRe3N"
        },
        "href" : "https://api.spotify.com/v1/albums/3jl1GE4t0AIUU2IqQVRe3N",
        "id" : "3jl1GE4t0AIUU2IqQVRe3N",
        "images" : [ {
          "height" : 640,
          "url" : "https://i.scdn.co/image/ab67616d0000b2735193103f1c5643dffabb4b8c",
          "width" : 640
        }, {
          "height" : 300,
          "url" : "https://i.scdn.co/image/ab67616d00001e025193103f1c5643dffabb4b8c",
          "width" : 300
        }, {
          "height" : 64,
          "url" : "https://i.scdn.co/image/ab67616d000048515193103f1c5643dffabb4b8c",
          "width" : 64
        } ],
        "name" : "Vol. III - Church Bells",
        "release_date" : "2009-02-03",
        "release_date_precision" : "day",
        "total_tracks" : 14,
        "type" : "album",
        "uri" : "spotify:album:3jl1GE4t0AIUU2IqQVRe3N"
      },
      "artists" : [ {
        "external_urls" : {
          "spotify" : "https://open.spotify.com/artist/7bizRFC2Gv4F2XxgamNwNy"
        },
        "href" : "https://api.spotify.com/v1/artists/7bizRFC2Gv4F2XxgamNwNy",
        "id" : "7bizRFC2Gv4F2XxgamNwNy",
        "name" : "Koiné",
        "type" : "artist",
        "uri" : "spotify:artist:7bizRFC2Gv4F2XxgamNwNy"
      } ],
      "disc_number" : 1,
      "duration_ms" : 293360,
      "explicit" : false,
      "external_ids" : {
        "isrc" : "uscgh0932510"
      },
      "external_urls" : {
        "spotify" : "https://open.spotify.com/track/3I8Gy8TkU6PjfrEmlXoc5e"
      },
      "href" : "https://api.spotify.com/v1/tracks/3I8Gy8TkU6PjfrEmlXoc5e",
      "id" : "3I8Gy8TkU6PjfrEmlXoc5e",
      "is_local" : false,
      "is_playable" : true,
      "name" : "The King Of Love My Shepherd Is",
      "popularity" : 10,
      "preview_url" : "https://p.scdn.co/mp3-preview/07971ee20b7cad3de0e111fd49c815da8ea91a5e?cid=774b29d4f13844c495f206cafdad9c86",
      "track_number" : 14,
      "type" : "track",
      "uri" : "spotify:track:3I8Gy8TkU6PjfrEmlXoc5e"
    } ],
    "limit" : 10,
    "next" : "https://api.spotify.com/v1/search?query=The+King+of+Love+My+Shepherd+Is&type=track&market=US&offset=15&limit=10",
    "offset" : 5,
    "previous" : "https://api.spotify.com/v1/search?query=The+King+of+Love+My+Shepherd+Is&type=track&market=US&offset=0&limit=10",
    "total" : 265
  }
}