{
  "tracks" : {
    "href" : "https://api.spotify.com/v1/search?query=When+Morning+Gilds+the+Skies&type=track&market=US&offset=5&limit=10",
    "items" : [ {
      "album" : {
        "album_type" : "album",
        "artists" : [ {
          "external_urls" : {
            "spotify" : "https://open.spotify.com/artist/7lyDBM7UL9Yc9rlhKZUsYf"
          },
          "href" : "https://api.spotify.com/v1/artists/7lyDBM7UL9Yc9rlhKZUsYf",
          "id" : "7lyDBM7UL9Yc9rlhKZUsYf",
          "name" : "Belfast Cathedral Choir",
          "type" : "artist",
          "uri" : "spotify:artist:7lyDBM7UL9Yc9rlhKZUsYf"
        } ],
        "external_urls" : {
          "spotify" : "https://open.spotify.com/album/7kAJoBk6TSmeoHU17jIaIS"
        },
        "href" : "https://api.spotify.com/v1/albums/7kAJoBk6TSmeoHU17jIaIS",
        "id" : "7kAJoBk6TSmeoHU17jIaIS",
        "images" : [ {
          "height" : 640,
          "url" : "https://i.scdn.co/image/ab67616d0000b273b2e4ca77e4c2bdc1a34651da",
          "width" : 640
        }, {
          "height" : 300,
          "url" : "https://i.scdn.co/image/ab67616d00001e02b2e4ca77e4c2bdc1a34651da",
          "width" : 300
        }, {
          "height" : 64,
          "url" : "https://i.scdn.co/image/ab67616d00004851b2e4ca77e4c2bdc1a34651da",
          "width" : 64
        } ],
        "name" : "Complete New English Hymnal Vol. 22",
        "release_date" : "2005",
        "release_date_precision" : "year",
        "total_tracks" : 26,
        "type" : "album",
        "uri" : "spotify:album:7kAJoBk6TSmeoHU17jIaIS"
      },
      "artists" : [ {
        "external_urls" : {
          "spotify" : "https://open.spotify.com/artist/7lyDBM7UL9Yc9rlhKZUsYf"
        },
        "href" : "https://api.spotify.com/v1/artists/7lyDBM7UL9Yc9rlhKZUsYf",
        "id" : "7lyDBM7UL9Yc9rlhKZUsYf",
        "name" : "Belfast Cathedral Choir",
        "type" : "artist",
        "uri" : "spotify:artist:7lyDBM7UL9Yc9rlhKZUsYf"
      } ],
      "disc_number" : 1,
      "duration_ms" : 252493,
      "explicit" : false,
      "external_ids" : {
        "isrc" : "GBXUX0872201"
      },
      "external_urls" : {
        "spotify" : "https://open.spotify.com/track/0e9RkChzizRn3MUTutw2Kw"
      },
      "href" : "https://api.spotify.com/v1/tracks/0e9RkChzizRn3MUTutw2Kw",
      "id" : "0e9RkChzizRn3MUTutw2Kw",
      "is_local" : false,
      "is_playable" : true,
      "name" : "When Morning Gilds the Skies",
      "popularity" : 10,
      "preview_url" : "https://p.scdn.co/mp3-preview/eec02fbd439f93a336e7e65b10f149a83f8f2a23?cid=774b29d4f13844c495f206cafdad9c86",
      "track_number" : 1,
      "type" : "track",
      "uri" : "spotify:track:0e9RkChzizRn3MUTutw2Kw"
    }, {
      "album" : {
        "album_type" : "album",
        "artists" : [ {
          "external_urls" : {
            "spotify" : "https://open.spotify.com/artist/7HDwWB9AsuPIeP9EPbCj4f"
          },
          "href" : "https://api.spotify.com/v1/artists/7HDwWB9AsuPIeP9EPbCj4f",
          "id" : "7HDwWB9AsuPIeP9EPbCj4f",
          "name" : "Shelly Hamilton",
          "type" : "artist",
          "uri" : "spotify:artist:7HDwWB9AsuPIeP9EPbCj4f"
        }, {
          "external_urls" : {
            "spotify" : "https://open.spotify.com/artist/3BwYNW15CmlEEKsfiwWgP4"
          },
          "href" : "https://api.spotify.com/v1/artists/3BwYNW15CmlEEKsfiwWgP4",
          "id" : "3BwYNW15CmlEEKsfiwWgP4",
          "name" : "Majesty Orchestra",
          "type" : "artist",
          "uri" : "spotify:artist:3BwYNW15CmlEEKsfiwWgP4"
        } ],
        "external_urls" : {
          "spotify" : "https://open.spotify.com/album/42tsGD2m5pXDWoXYw4Nuuh"
        },
        "href" : "https://api.spotify.com/v1/albums/42tsGD2m5pXDWoXYw4Nuuh",
        "id" : "42tsGD2m5pXDWoXYw4Nuuh",
        "images" : [ {
          "height" : 640,
          "url" : "https://i.scdn.co/image/ab67616d0000b273cb680b34da8f1cecd66f8e08",
          "width" : 640
        }, {
          "height" : 300,
          "url" : "https://i.scdn.co/image/ab67616d00001e02cb680b34da8f1cecd66f8e08",
          "width" : 300
        }, {
          "height" : 64,
          "url" : "https://i.scdn.co/image/ab67616d00004851cb680b34da8f1cecd66f8e08",
          "width" : 64
        } ],
        "name" : "Majesty Masterpieces",
        "release_date" : "2013-07-01",
        "release_date_precision" : "day",
        "total_tracks" : 12,
        "type" : "album",
        "uri" : "spotify:album:42tsGD2m5pXDWoXYw4Nuuh"
      },
      "artists" : [ {
        "external_urls" : {
          "spotify" : "https://open.spotify.com/artist/7HDwWB9AsuPIeP9EPbCj4f"
        },
        "href" : "https://api.spotify.com/v1/artists/7HDwWB9AsuPIeP9EPbCj4f",
        "id" : "7HDwWB9AsuPIeP9EPbCj4f",
        "name" : "Shelly Hamilton",
        "type" : "artist",
        "uri" : "spotify:artist:7HDwWB9AsuPIeP9EPbCj4f"
      }, {
        "external_urls" : {
          "spotify" : "https://open.spotify.com/artist/3BwYNW15CmlEEKsfiwWgP4"
        },
        "href" : "https://api.spotify.com/v1/artists/3BwYNW15CmlEEKsfiwWgP4",
        "id" : "3BwYNW15CmlEEKsfiwWgP4",
        "name" : "Majesty Orchestra",
        "type" : "artist",
        "uri" : "spotify:artist:3BwYNW15CmlEEKsfiwWgP4"
      } ],
      "disc_number" : 1,
      "duration_ms" : 223066,
      "explicit" : false,
      "external_ids" : {
        "isrc" : "usx9p1331199"
      },
      "external_urls" : {
        "spotify" : "https://open.spotify.com/track/0LHSVnTiZXTVw9DIWwJioY"
      },
      "href" : "https://api.spotify.com/v1/tracks/0LHSVnTiZXTVw9DIWwJioY",
      "id" : "0LHSVnTiZXTVw9DIWwJioY",
      "is_local" : false,
      "is_playable" : true,
      "name" : "When Morning Gilds the Skies",
      "popularity" : 7,
      "preview_url" : "https://p.scdn.co/mp3-preview/240f57baec739cfeaede549c0b257215e9c2cfb9?cid=774b29d4f13844c495f206cafdad9c86",
      "track_number" : 1,
      "type" : "track",
      "uri" : "spotify:track:0LHSVnTiZXTVw9DIWwJioY"
    }, {
      "album" : {
        "album_type" : "album",
        "artists" : [ {
          "external_urls" : {
            "spotify" : "https://open.spotify.com/artist/4cFPIL4ZfBANnCRq5PNsTo"
          },
          "href" : "https://api.spotify.com/v1/artists/4cFPIL4ZfBANnCRq5PNsTo",
          "id" : "4cFPIL4ZfBANnCRq5PNsTo",
          "name" : "Mary Beth Carlson",
          "type" : "artist",
          "uri" : "spotify:artist:4cFPIL4ZfBANnCRq5PNsTo"
        } ],
        "external_urls" : {
          "spotify" : "https://open.spotify.com/album/1YZZQa5NAFtZeER6C9Qcn3"
        },
        "href" : "https://api.spotify.com/v1/albums/1YZZQa5NAFtZeER6C9Qcn3",
        "id" : "1YZZQa5NAFtZeER6C9Qcn3",
        "images" : [ {
          "height" : 640,
          "url" : "https://i.scdn.co/image/ab67616d0000b273b05ff7b1b7745f1d122399b3",
          "width" : 640
        }, {
          "height" : 300,
          "url" : "https://i.scdn.co/image/ab67616d00001e02b05ff7b1b7745f1d122399b3",
          "width" : 300
        }, {
          "height" : 64,
          "url" : "https://i.scdn.co/image/ab67616d00004851b05ff7b1b7745f1d122399b3",
          "width" : 64
        } ],
        "name" : "Faith...Psalms, Hymns and Spiritual Songs",
        "release_date" : "2007-01-01",
        "release_date_precision" : "day",
        "total_tracks" : 19,
        "type" : "album",
        "uri" : "spotify:album:1YZZQa5NAFtZeER6C9Qcn3"
      },
      "artists" : [ {
        "external_urls" : {
          "spotify" : "https://open.spotify.com/artist/4cFPIL4ZfBANnCRq5PNsTo"
        },
        "href" : "https://api.spotify.com/v1/artists/4cFPIL4ZfBANnCRq5PNsTo",
        "id" : "4cFPIL4ZfBANnCRq5PNsTo",
        "name" : "Mary Beth Carlson",
        "type" : "artist",
        "uri" : "spotify:artist:4cFPIL4ZfBANnCRq5PNsTo"
      } ],
      "disc_number" : 1,
      "duration_ms" : 189493,
      "explicit" : false,
      "external_ids" : {
        "isrc" : "ushm80752078"
      },
      "external_urls" : {
        "spotify" : "https://open.spotify.com/track/4AjFPZSuzF7meZvdyzgvyL"
      },
      "href" : "https://api.spotify.com/v1/tracks/4AjFPZSuzF7meZvdyzgvyL",
      "id" : "4AjFPZSuzF7meZvdyzgvyL",
      "is_local" : false,
      "is_playable" : true,
      "name" : "When Morning Gilds The Skies/Spring",
      "popularity" : 5,
      "preview_url" : "https://p.scdn.co/mp3-preview/47de17189d1904beaf07e422a298b841d441316a?cid=774b29d4f13844c495f206cafdad9c86",
      "track_number" : 9,
      "type" : "track",
      "uri" : "spotify:track:4AjFPZSuzF7meZvdyzgvyL"
    }, {
      "album" : {
        "album_type" : "album",
        "artists" : [ {
          "external_urls" : {
            "spotify" : "https://open.spotify.com/artist/5aHE1EAT1F5E1kdvWCqObF"
          },
          "href" : "https://api.spotify.com/v1/artists/5aHE1EAT1F5E1kdvWCqObF",
          "id" : "5aHE1EAT1F5E1kdvWCqObF",
          "name" : "Steven Anderson",
          "type" : "artist",
          "uri" : "spotify:artist:5aHE1EAT1F5E1kdvWCqObF"
        } ],
        "external_urls" : {
          "spotify" : "https://open.spotify.com/album/6MZS1etLxJvBzpsVjohKuy"
        },
        "href" : "https://api.spotify.com/v1/albums/6MZS1etLxJvBzpsVjohKuy",
        "id" : "6MZS1etLxJvBzpsVjohKuy",
        "images" : [ {
          "height" : 640,
          "url" : "https://i.scdn.co/image/ab67616d0000b273efca516eb6732d9692e558fe",
          "width" : 640
        }, {
          "height" : 300,
          "url" : "https://i.scdn.co/image/ab67616d00001e02efca516eb6732d9692e558fe",
          "width" : 300
        }, {
          "height" : 64,
          "url" : "https://i.scdn.co/image/ab67616d00004851efca516eb6732d9692e558fe",
          "width" : 64
        } ],
        "name" : "101 Classic Piano Hymns",
        "release_date" : "2005",
        "release_date_precision" : "year",
        "total_tracks" : 101,
        "type" : "album",
        "uri" : "spotify:album:6MZS1etLxJvBzpsVjohKuy"
      },
      "artists" : [ {
        "external_urls" : {
          "spotify" : "https://open.spotify.com/artist/5aHE1EAT1F5E1kdvWCqObF"
        },
        "href" : "https://api.spotify.com/v1/artists/5aHE1EAT1F5E1kdvWCqObF",
        "id" : "5aHE1EAT1F5E1kdvWCqObF",
        "name" : "Steven Anderson",
        "type" : "artist",
        "uri" : "spotify:artist:5aHE1EAT1F5E1kdvWCqObF"
      } ],
      "disc_number" : 3,
      "duration_ms" : 101053,
      "explicit" : false,
      "external_ids" : {
        "isrc" : "CAM460603308"
      },
      "external_urls" : {
        "spotify" : "https://open.spotify.com/track/1T4VbESNEhC1U2ZuifooX2"
      },
      "href" : "https://api.spotify.com/v1/tracks/1T4VbESNEhC1U2ZuifooX2",
      "id" : "1T4VbESNEhC1U2ZuifooX2",
      "is_local" : false,
      "is_playable" : true,
      "name" : "When Morning Gilds The Skies",
      "popularity" : 7,
      "preview_url" : "https://p.scdn.co/mp3-preview/96a13a8b0617fb37f6cb2fc23eaa2e2e0baf0d60?cid=774b29d4f13844c495f206cafdad9c86",
      "track_number" : 20,
      "type" : "track",
      "uri" : "spotify:track:1T4VbESNEhC1U2ZuifooX2"
    }, {
      "album" : {
        "album_type" : "album",
        "artists" : [ {
          "external_urls" : {
            "spotify" : "https://open.spotify.com/artist/3jiQ4t07tyKTNkbp25Znjn"
          },
          "href" : "https://api.spotify.com/v1/artists/3jiQ4t07tyKTNkbp25Znjn",
          "id" : "3jiQ4t07tyKTNkbp25Znjn",
          "name" : "The Joslin Grove Choral Society",
          "type" : "artist",
          "uri" : "spotify:artist:3jiQ4t07tyKTNkbp25Znjn"
        } ],
        "external_urls" : {
          "spotify" : "https://open.spotify.com/album/7szG7XpjZ3Fp3EL6l5Y7dO"
        },
        "href" : "https://api.spotify.com/v1/albums/7szG7XpjZ3Fp3EL6l5Y7dO",
        "id" : "7szG7XpjZ3Fp3EL6l5Y7dO",
        "images" : [ {
          "height" : 640,
          "url" : "https://i.scdn.co/image/ab67616d0000b273ac580529297882f951309a4c",
          "width" : 640
        }, {
          "height" : 300,
          "url" : "https://i.scdn.co/image/ab67616d00001e02ac580529297882f951309a4c",
          "width" : 300
        }, {
          "height" : 64,
          "url" : "https://i.scdn.co/image/ab67616d00004851ac580529297882f951309a4c",
          "width" : 64
        } ],
        "name" : "Inspirational Hymns",
        "release_date" : "2013-07-30",
        "release_date_precision" : "day",
        "total_tracks" : 30,
        "type" : "album",
        "uri" : "spotify:album:7szG7XpjZ3Fp3EL6l5Y7dO"
      },
      "artists" : [ {
        "external_urls" : {
          "spotify" : "https://open.spotify.com/artist/3jiQ4t07tyKTNkbp25Znjn"
        },
        "href" : "https://api.spotify.com/v1/artists/3jiQ4t07tyKTNkbp25Znjn",
        "id" : "3jiQ4t07tyKTNkbp25Znjn",
        "name" : "The Joslin Grove Choral Society",
        "type" : "artist",
        "uri" : "spotify:artist:3jiQ4t07tyKTNkbp25Znjn"
      } ],
      "disc_number" : 1,
      "duration_ms" : 111106,
      "explicit" : false,
      "external_ids" : {
        "isrc" : "CAM460601779"
      },
      "external_urls" : {
        "spotify" : "https://open.spotify.com/track/1kbyIv0960zAbvawClN7MN"
      },
      "href" : "https://api.spotify.com/v1/tracks/1kbyIv0960zAbvawClN7MN",
      "id" : "1kbyIv0960zAbvawClN7MN",
      "is_local" : false,
      "is_playable" : true,
      "name" : "When Morning Gilds the Skies",
      "popularity" : 6,
      "preview_url" : "https://p.scdn.co/mp3-preview/636175c87296f9d53a8a0c62703b122c7f2299df?cid=774b29d4f13844c495f206cafdad9c86",
      "track_number" : 20,
      "type" : "track",
      "uri" : "spotify:track:1kbyIv0960zAbvawClN7MN"
    }, {
      "album" : {
        "album_type" : "album",
        "artists" : [ {
          "external_urls" : {
            "spotify" : "https://open.spotify.com/artist/4LKrGHKSO72cmoAxRi6Aat"
          },
          "href" : "https://api.spotify.com/v1/artists/4LKrGHKSO72cmoAxRi6Aat",
          "id" : "4LKrGHKSO72cmoAxRi6Aat",
          "name" : "Scott Riggan",
          "type" : "artist",
          "uri" : "spotify:artist:4LKrGHKSO72cmoAxRi6Aat"
        } ],
        "external_urls" : {
          "spotify" : "https://open.spotify.com/album/1Lnm6poZX67ERp0Oiy1D5W"
        },
        "href" : "https://api.spotify.com/v1/albums/1Lnm6poZX67ERp0Oiy1D5W",
        "id" : "1Lnm6poZX67ERp0Oiy1D5W",
        "images" : [ {
          "height" : 640,
          "url" : "https://i.scdn.co/image/ab67616d0000b2732a9c8ccdebcab1a48517196a",
          "width" : 640
        }, {
          "height" : 300,
          "url" : "https://i.scdn.co/image/ab67616d00001e022a9c8ccdebcab1a48517196a",
          "width" : 300
        }, {
          "height" : 64,
          "url" : "https://i.scdn.co/image/ab67616d000048512a9c8ccdebcab1a48517196a",
          "width" : 64
        } ],
        "name" : "Deep Roots",
        "release_date" : "2013-12-10",
        "release_date_precision" : "day",
        "total_tracks" : 12,
        "type" : "album",
        "uri" : "spotify:album:1Lnm6poZX67ERp0Oiy1D5W"
      },
      "artists" : [ {
        "external_urls" : {
          "spotify" : "https://open.spotify.com/artist/4LKrGHKSO72cmoAxRi6Aat"
        },
        "href" : "https://api.spotify.com/v1/artists/4LKrGHKSO72cmoAxRi6Aat",
        "id" : "4LKrGHKSO72cmoAxRi6Aat",
        "name" : "Scott Riggan",
        "type" : "artist",
        "uri" : "spotify:artist:4LKrGHKSO72cmoAxRi6Aat"
      } ],
      "disc_number" : 1,
      "duration_ms" : 286280,
      "explicit" : false,
      "external_ids" : {
        "isrc" : "ushm91373370"
      },
      "external_urls" : {
        "spotify" : "https://open.spotify.com/track/5VpuxCOp5SOYhHERgnt9PN"
      },
      "href" : "https://api.spotify.com/v1/tracks/5VpuxCOp5SOYhHERgnt9PN",
      "id" : "5VpuxCOp5SOYhHERgnt9PN",
      "is_local" : false,
      "is_playable" : true,
      "name" : "All Creation (When Morning Gilds the Skies)",
      "popularity" : 4,
      "preview_url" : "https://p.scdn.co/mp3-preview/205eeca5af089666285a6390a2f3080e50d746d6?cid=774b29d4f13844c495f206cafdad9c86",
      "track_number" : 4,
      "type" : "track",
      "uri" : "spotify:track:5VpuxCOp5SOYhHERgnt9PN"
    }, {
      "album" : {
        "album_type" : "album",
        "artists" : [ {
          "external_urls" : {
            "spotify" : "https://open.spotify.com/artist/3jnrDSGn6MmbG8a59rqoc8"
          },
          "href" : "https://api.spotify.com/v1/artists/3jnrDSGn6MmbG8a59rqoc8",
          "id" : "3jnrDSGn6MmbG8a59rqoc8",
          "name" : "Frederick Swann",
          "type" : "artist",
          "uri" : "spotify:artist:3jnrDSGn6MmbG8a59rqoc8"
        } ],
        "external_urls" : {
          "spotify" : "https://open.spotify.com/album/7c1vXFbCBSPFBRL32xYme1"
        },
        "href" : "https://api.spotify.com/v1/albums/7c1vXFbCBSPFBRL32xYme1",
        "id" : "7c1vXFbCBSPFBRL32xYme1",
        "images" : [ {
          "height" : 640,
          "url" : "https://i.scdn.co/image/ab67616d0000b2738d6d4a6cf832dcb10c02b8a4",
          "width" : 640
        }, {
          "height" : 300,
          "url" : "https://i.scdn.co/image/ab67616d00001e028d6d4a6cf832dcb10c02b8a4",
          "width" : 300
        }, {
          "height" : 64,
          "url" : "https://i.scdn.co/image/ab67616d000048518d6d4a6cf832dcb10c02b8a4",
          "width" : 64
        } ],
        "name" : "Hymns on the Crystal Cathedral Organ",
        "release_date" : "2011-08-02",
        "release_date_precision" : "day",
        "total_tracks" : 20,
        "type" : "album",
        "uri" : "spotify:album:7c1vXFbCBSPFBRL32xYme1"
      },
      "artists" : [ {
        "external_urls" : {
          "spotify" : "https://open.spotify.com/artist/5SK6H3d3FxnUn95c4XCAQY"
        },
        "href" : "https://api.spotify.com/v1/artists/5SK6H3d3FxnUn95c4XCAQY",
        "id" : "5SK6H3d3FxnUn95c4XCAQY",
        "name" : "Joseph Barnby",
        "type" : "artist",
        "uri" : "spotify:artist:5SK6H3d3FxnUn95c4XCAQY"
      }, {
        "external_urls" : {
          "spotify" : "https://open.spotify.com/artist/3jnrDSGn6MmbG8a59rqoc8"
        },
        "href" : "https://api.spotify.com/v1/artists/3jnrDSGn6MmbG8a59rqoc8",
        "id" : "3jnrDSGn6MmbG8a59rqoc8",
        "name" : "Frederick Swann",
        "type" : "artist",
        "uri" : "spotify:artist:3jnrDSGn6MmbG8a59rqoc8"
      } ],
      "disc_number" : 1,
      "duration_ms" : 137333,
      "explicit" : false,
      "external_ids" : {
        "isrc" : "USG3E8551902"
      },
      "external_urls" : {
        "spotify" : "https://open.spotify.com/track/4ZWNX0p3xpwr8i5ovoJpL1"
      },
      "href" : "https://api.spotify.com/v1/tracks/4ZWNX0p3xpwr8i5ovoJpL1",
      "id" : "4ZWNX0p3xpwr8i5ovoJpL1",
      "is_local" : false,
      "is_playable" : true,
      "name" : "When Morning Gilds the Skies (arr. F. Swann)",
      "popularity" : 5,
      "preview_url" : "https://p.scdn.co/mp3-preview/499d20c2527765f94ac37363629245c1734e2b16?cid=774b29d4f13844c495f206cafdad9c86",
      "track_number" : 2,
      "type" : "track",
      "uri" : "spotify:track:4ZWNX0p3xpwr8i5ovoJpL1"
    }, {
      "album" : {
        "album_type" : "compilation",
        "artists" : [ {
          "external_urls" : {
            "spotify" : "https://open.spotify.com/artist/0LyfQWJT6nXafLPZqxe9Of"
          },
          "href" : "https://api.spotify.com/v1/artists/0LyfQWJT6nXafLPZqxe9Of",
          "id" : "0LyfQWJT6nXafLPZqxe9Of",
          "name" : "Various Artists",
          "type" : "artist",
          "uri" : "spotify:artist:0LyfQWJT6nXafLPZqxe9Of"
        } ],
        "external_urls" : {
          "spotify" : "https://open.spotify.com/album/03InW7jqdVFq5IJ22vrIMb"
        },
        "href" : "https://api.spotify.com/v1/albums/03InW7jqdVFq5IJ22vrIMb",
        "id" : "03InW7jqdVFq5IJ22vrIMb",
        "images" : [ {
          "height" : 640,
          "url" : "https://i.scdn.co/image/ab67616d0000b273794b8b41f096e9ccfdc7ec15",
          "width" : 640
        }, {
          "height" : 300,
          "url" : "https://i.scdn.co/image/ab67616d00001e02794b8b41f096e9ccfdc7ec15",
          "width" : 300
        }, {
          "height" : 64,
          "url" : "https://i.scdn.co/image/ab67616d00004851794b8b41f096e9ccfdc7ec15",
          "width" : 64
        } ],
        "name" : "50 Golden Hymns - Volume 2 - Great Is Thy Faithfulness",
        "release_date" : "2005",
        "release_date_precision" : "year",
        "total_tracks" : 16,
        "type" : "album",
        "uri" : "spotify:album:03InW7jqdVFq5IJ22vrIMb"
      },
      "artists" : [ {
        "external_urls" : {
          "spotify" : "https://open.spotify.com/artist/1IYk7Dbm3X8vVAgrK8tNbv"
        },
        "href" : "https://api.spotify.com/v1/artists/1IYk7Dbm3X8vVAgrK8tNbv",
        "id" : "1IYk7Dbm3X8vVAgrK8tNbv",
        "name" : "Eric Wyse",
        "type" : "artist",
        "uri" : "spotify:artist:1IYk7Dbm3X8vVAgrK8tNbv"
      } ],
      "disc_number" : 1,
      "duration_ms" : 138693,
      "explicit" : false,
      "external_ids" : {
        "isrc" : "GBCEU0034502"
      },
      "external_urls" : {
        "spotify" : "https://open.spotify.com/track/4XMNqBY8ozCEqUqm9AuG0b"
      },
      "href" : "https://api.spotify.com/v1/tracks/4XMNqBY8ozCEqUqm9AuG0b",
      "id" : "4XMNqBY8ozCEqUqm9AuG0b",
      "is_local" : false,
      "is_playable" : true,
      "name" : "When Morning Gilds the Skies",
      "popularity" : 6,
      "preview_url" : "https://p.scdn.co/mp3-preview/d2cf881c25dbe446dfc433ef09528c4a387e6969?cid=774b29d4f13844c495f206cafdad9c86",
      "track_number" : 2,
      "type" : "track",
      "uri" : "spotify:track:4XMNqBY8ozCEqUqm9AuG0b"
    }, {
      "album" : {
        "album_type" : "album",
        "artists" : [ {
          "external_urls" : {
            "spotify" : "https://open.spotify.com/artist/0p7xUbwjBHCI8xUXFqeghX"
          },
          "href" : "https://api.spotify.com/v1/artists/0p7xUbwjBHCI8xUXFqeghX",
          "id" : "0p7xUbwjBHCI8xUXFqeghX",
          "name" : "Green Carpet Players",
          "type" : "artist",
          "uri" : "spotify:artist:0p7xUbwjBHCI8xUXFqeghX"
        } ],
        "external_urls" : {
          "spotify" : "https://open.spotify.com/album/0bqUZUtoB8IW686lEBbOAk"
        },
        "href" : "https://api.spotify.com/v1/albums/0bqUZUtoB8IW686lEBbOAk",
        "id" : "0bqUZUtoB8IW686lEBbOAk",
        "images" : [ {
          "height" : 640,
          "url" : "https://i.scdn.co/image/ab67616d0000b273270633096d8ed081f1fc3c61",
          "width" : 640
        }, {
          "height" : 300,
          "url" : "https://i.scdn.co/image/ab67616d00001e02270633096d8ed081f1fc3c61",
          "width" : 300
        }, {
          "height" : 64,
          "url" : "https://i.scdn.co/image/ab67616d00004851270633096d8ed081f1fc3c61",
          "width" : 64
        } ],
        "name" : "Morning to Evening",
        "release_date" : "2014-10-21",
        "release_date_precision" : "day",
        "total_tracks" : 12,
        "type" : "album",
        "uri" : "spotify:album:0bqUZUtoB8IW686lEBbOAk"
      },
      "artists" : [ {
        "external_urls" : {
          "spotify" : "https://open.spotify.com/artist/0p7xUbwjBHCI8xUXFqeghX"
        },
        "href" : "https://api.spotify.com/v1/artists/0p7xUbwjBHCI8xUXFqeghX",
        "id" : "0p7xUbwjBHCI8xUXFqeghX",
        "name" : "Green Carpet Players",
        "type" : "artist",
        "uri" : "spotify:artist:0p7xUbwjBHCI8xUXFqeghX"
      } ],
      "disc_number" : 1,
      "duration_ms" : 234720,
      "explicit" : false,
      "external_ids" : {
        "isrc" : "TCACA1462408"
      },
      "external_urls" : {
        "spotify" : "https://open.spotify.com/track/0kq3RXnCSFDQ8qERhRX8Nm"
      },
      "href" : "https://api.spotify.com/v1/tracks/0kq3RXnCSFDQ8qERhRX8Nm",
      "id" : "0kq3RXnCSFDQ8qERhRX8Nm",
      "is_local" : false,
      "is_playable" : true,
      "name" : "When Morning Gilds the Skies",
      "popularity" : 2,
      "preview_url" : "https://p.scdn.co/mp3-preview/8ff9ff9f5d258e18158c0be14ed1853ab89ec758?cid=774b29d4f13844c495f206cafdad9c86",
      "track_number" : 1,
      "type" : "track",
      "uri" : "spotify:track:0kq3RXnCSFDQ8qERhRX8Nm"
    }, {
      "album" : {
        "album_type" : "album",
        "artists" : [ {
          "external_urls" : {
            "spotify" : "https://open.spotify.com/artist/41hCpLaR1bEW5ETK3aPvDB"
          },
          "href" : "https://api.spotify.com/v1/artists/41hCpLaR1bEW5ETK3aPvDB",
          "id" : "41hCpLaR1bEW5ETK3aPvDB",
          "name" : "The Eden Symphony Orchestra",
          "type" : "artist",
          "uri" : "spotify:artist:41hCpLaR1bEW5ETK3aPvDB"
        } ],
        "external_urls" : {
          "spotify" : "https://open.spotify.com/album/68RZWjRLdU2FTxeVQNbSA1"
        },
        "href" : "https://api.spotify.com/v1/albums/68RZWjRLdU2FTxeVQNbSA1",
        "id" : "68RZWjRLdU2FTxeVQNbSA1",
        "images" : [ {
          "height" : 640,
          "url" : "https://i.scdn.co/image/ab67616d0000b2733efd24fcf948c2ed14e27454",
          "width" : 640
        }, {
          "height" : 300,
          "url" : "https://i.scdn.co/image/ab67616d00001e023efd24fcf948c2ed14e27454",
          "width" : 300
        }, {
          "height" : 64,
          "url" : "https://i.scdn.co/image/ab67616d000048513efd24fcf948c2ed14e27454",
          "width" : 64
        } ],
        "name" : "To God Be the Glory - Best Loved Instrumental Hymns",
        "release_date" : "2007-12-03",
        "release_date_precision" : "day",
        "total_tracks" : 14,
        "type" : "album",
        "uri" : "spotify:album:68RZWjRLdU2FTxeVQNbSA1"
      },
      "artists" : [ {
        "external_urls" : {
          "spotify" : "https://open.spotify.com/artist/1IYk7Dbm3X8vVAgrK8tNbv"
        },
        "href" : "https://api.spotify.com/v1/artists/1IYk7Dbm3X8vVAgrK8tNbv",
        "id" : "1IYk7Dbm3X8vVAgrK8tNbv",
        "name" : "Eric Wyse",
        "type" : "artist",
        "uri" : "spotify:artist:1IYk7Dbm3X8vVAgrK8tNbv"
      } ],
      "disc_number" : 1,
      "duration_ms" : 136266,
      "explicit" : false,
      "external_ids" : {
        "isrc" : "GBCEU0678202"
      },
      "external_urls" : {
        "spotify" : "https://open.spotify.com/track/24OLQmcBcxfnqVMaP15jIc"
      },
      "href" : "https://api.spotify.com/v1/tracks/24OLQmcBcxfnqVMaP15jIc",
      "id" : "24OLQmcBcxfnqVMaP15jIc",
      "is_local" : false,
      "is_playable" : true,
      "name" : "When Morning Gilds the Skies",
      "popularity" : 4,
      "preview_url" : "https://p.scdn.co/mp3-preview/05d0f29077e0d859c8b73a9dcf6344ff05b2dd0d?cid=774b29d4f13844c495f206cafdad9c86",
      "track_number" : 2,
      "type" : "track",
      "uri" : "spotify:track:24OLQmcBcxfnqVMaP15jIc"
    } ],
    "limit" : 10,
    "next" : "https://api.spotify.com/v1/search?query=When+Morning+Gilds+the+Skies&type=track&market=US&offset=15&limit=10",
    "offset" : 5,
    "previous" : "https://api.spotify.com/v1/search?query=When+Morning+Gilds+the+Skies&type=track&market=US&offset=0&limit=10",
    "total" : 120
  }
}