{
  "tracks" : {
    "href" : "https://api.spotify.com/v1/search?query=O+Jesus%2C+I+Have+Promised&type=track&market=US&offset=5&limit=10",
    "items" : [ {
      "album" : {
        "album_type" : "album",
        "artists" : [ {
          "external_urls" : {
            "spotify" : "https://open.spotify.com/artist/2x0QHABqKaBBvAOzvoevXJ"
          },
          "href" : "https://api.spotify.com/v1/artists/2x0QHABqKaBBvAOzvoevXJ",
          "id" : "2x0QHABqKaBBvAOzvoevXJ",
          "name" : "The Scottish Festival Singers",
          "type" : "artist",
          "uri" : "spotify:artist:2x0QHABqKaBBvAOzvoevXJ"
        } ],
        "external_urls" : {
          "spotify" : "https://open.spotify.com/album/4GUN0KPnTQGStRZzQ2xg4h"
        },
        "href" : "https://api.spotify.com/v1/albums/4GUN0KPnTQGStRZzQ2xg4h",
        "id" : "4GUN0KPnTQGStRZzQ2xg4h",
        "images" : [ {
          "height" : 640,
          "url" : "https://i.scdn.co/image/ab67616d0000b273e500b6de39b9bb01111ca72b",
          "width" : 640
        }, {
          "height" : 300,
          "url" : "https://i.scdn.co/image/ab67616d00001e02e500b6de39b9bb01111ca72b",
          "width" : 300
        }, {
          "height" : 64,
          "url" : "https://i.scdn.co/image/ab67616d00004851e500b6de39b9bb01111ca72b",
          "width" : 64
        } ],
        "name" : "90 Favorite Hymns",
        "release_date" : "2014-10-21",
        "release_date_precision" : "day",
        "total_tracks" : 90,
        "type" : "album",
        "uri" : "spotify:album:4GUN0KPnTQGStRZzQ2xg4h"
      },
      "artists" : [ {
        "external_urls" : {
          "spotify" : "https://open.spotify.com/artist/2x0QHABqKaBBvAOzvoevXJ"
        },
        "href" : "https://api.spotify.com/v1/artists/2x0QHABqKaBBvAOzvoevXJ",
        "id" : "2x0QHABqKaBBvAOzvoevXJ",
        "name" : "The Scottish Festival Singers",
        "type" : "artist",
        "uri" : "spotify:artist:2x0QHABqKaBBvAOzvoevXJ"
      } ],
      "disc_number" : 1,
      "duration_ms" : 137200,
      "explicit" : false,
      "external_ids" : {
        "isrc" : "USACX1401575"
      },
      "external_urls" : {
        "spotify" : "https://open.spotify.com/track/5mFLe906DdAYkH1bEeWpMI"
      },
      "href" : "https://api.spotify.com/v1/tracks/5mFLe906DdAYkH1bEeWpMI",
      "id" : "5mFLe906DdAYkH1bEeWpMI",
      "is_local" : false,
      "is_playable" : true,
      "name" : "O Jesus I Have Promised",
      "popularity" : 6,
      "preview_url" : "https://p.scdn.co/mp3-preview/901848b841137fdbc2aa5e4be8826e1cd92a662c?cid=774b29d4f13844c495f206cafdad9c86",
      "track_number" : 27,
      "type" : "track",
      "uri" : "spotify:track:5mFLe906DdAYkH1bEeWpMI"
    }, {
      "album" : {
        "album_type" : "album",
        "artists" : [ {
          "external_urls" : {
            "spotify" : "https://open.spotify.com/artist/6zCKr405jB5b6QI1IfFnf2"
          },
          "href" : "https://api.spotify.com/v1/artists/6zCKr405jB5b6QI1IfFnf2",
          "id" : "6zCKr405jB5b6QI1IfFnf2",
          "name" : "Dallas Christian Adult Concert Choir",
          "type" : "artist",
          "uri" : "spotify:artist:6zCKr405jB5b6QI1IfFnf2"
        } ],
        "external_urls" : {
          "spotify" : "https://open.spotify.com/album/7wRvsnB6hhp0u7oecwXkpV"
        },
        "href" : "https://api.spotify.com/v1/albums/7wRvsnB6hhp0u7oecwXkpV",
        "id" : "7wRvsnB6hhp0u7oecwXkpV",
        "images" : [ {
          "height" : 640,
          "url" : "https://i.scdn.co/image/ab67616d0000b27355ef72d57c19e5a670b31ff8",
          "width" : 640
        }, {
          "height" : 300,
          "url" : "https://i.scdn.co/image/ab67616d00001e0255ef72d57c19e5a670b31ff8",
          "width" : 300
        }, {
          "height" : 64,
          "url" : "https://i.scdn.co/image/ab67616d0000485155ef72d57c19e5a670b31ff8",
          "width" : 64
        } ],
        "name" : "I Can Hear My Savior Calling",
        "release_date" : "2008-05-13",
        "release_date_precision" : "day",
        "total_tracks" : 26,
        "type" : "album",
        "uri" : "spotify:album:7wRvsnB6hhp0u7oecwXkpV"
      },
      "artists" : [ {
        "external_urls" : {
          "spotify" : "https://open.spotify.com/artist/6zCKr405jB5b6QI1IfFnf2"
        },
        "href" : "https://api.spotify.com/v1/artists/6zCKr405jB5b6QI1IfFnf2",
        "id" : "6zCKr405jB5b6QI1IfFnf2",
        "name" : "Dallas Christian Adult Concert Choir",
        "type" : "artist",
        "uri" : "spotify:artist:6zCKr405jB5b6QI1IfFnf2"
      } ],
      "disc_number" : 1,
      "duration_ms" : 147600,
      "explicit" : false,
      "external_ids" : {
        "isrc" : "USMZA0811470"
      },
      "external_urls" : {
        "spotify" : "https://open.spotify.com/track/7oyQnkKKOdcufbyIn2lP1U"
      },
      "href" : "https://api.spotify.com/v1/tracks/7oyQnkKKOdcufbyIn2lP1U",
      "id" : "7oyQnkKKOdcufbyIn2lP1U",
      "is_local" : false,
      "is_playable" : true,
      "name" : "O Jesus, I Have Promised",
      "popularity" : 5,
      "preview_url" : "https://p.scdn.co/mp3-preview/4404b0648861865ab0d43a47533bd072dc2e67fd?cid=774b29d4f13844c495f206cafdad9c86",
      "track_number" : 19,
      "type" : "track",
      "uri" : "spotify:track:7oyQnkKKOdcufbyIn2lP1U"
    }, {
      "album" : {
        "album_type" : "album",
        "artists" : [ {
          "external_urls" : {
            "spotify" : "https://open.spotify.com/artist/0U76qHnOeDlShHkjDhpwIN"
          },
          "href" : "https://api.spotify.com/v1/artists/0U76qHnOeDlShHkjDhpwIN",
          "id" : "0U76qHnOeDlShHkjDhpwIN",
          "name" : "Truro Cathedral Choir",
          "type" : "artist",
          "uri" : "spotify:artist:0U76qHnOeDlShHkjDhpwIN"
        }, {
          "external_urls" : {
            "spotify" : "https://open.spotify.com/artist/1cjPVlZolZrXVZRMTtGuhx"
          },
          "href" : "https://api.spotify.com/v1/artists/1cjPVlZolZrXVZRMTtGuhx",
          "id" : "1cjPVlZolZrXVZRMTtGuhx",
          "name" : "Andrew Nethsingha",
          "type" : "artist",
          "uri" : "spotify:artist:1cjPVlZolZrXVZRMTtGuhx"
        }, {
          "external_urls" : {
            "spotify" : "https://open.spotify.com/artist/5cJAcrEcAgMqjE8yuTD88A"
          },
          "href" : "https://api.spotify.com/v1/artists/5cJAcrEcAgMqjE8yuTD88A",
          "id" : "5cJAcrEcAgMqjE8yuTD88A",
          "name" : "Simon Morley",
          "type" : "artist",
          "uri" : "spotify:artist:5cJAcrEcAgMqjE8yuTD88A"
        } ],
        "external_urls" : {
          "spotify" : "https://open.spotify.com/album/1qmZ9Io6wcHkSSnuTXw06N"
        },
        "href" : "https://api.spotify.com/v1/albums/1qmZ9Io6wcHkSSnuTXw06N",
        "id" : "1qmZ9Io6wcHkSSnuTXw06N",
        "images" : [ {
          "height" : 640,
          "url" : "https://i.scdn.co/image/ab67616d0000b273ad5894566eb17665133b42e0",
          "width" : 640
        }, {
          "height" : 300,
          "url" : "https://i.scdn.co/image/ab67616d00001e02ad5894566eb17665133b42e0",
          "width" : 300
        }, {
          "height" : 64,
          "url" : "https://i.scdn.co/image/ab67616d00004851ad5894566eb17665133b42e0",
          "width" : 64
        } ],
        "name" : "20 Favourite Hymns",
        "release_date" : "1992-12-11",
        "release_date_precision" : "day",
        "total_tracks" : 20,
        "type" : "album",
        "uri" : "spotify:album:1qmZ9Io6wcHkSSnuTXw06N"
      },
      "artists" : [ {
        "external_urls" : {
          "spotify" : "https://open.spotify.com/artist/7jDZiBXUkABNmKdgQh0ISi"
        },
        "href" : "https://api.spotify.com/v1/artists/7jDZiBXUkABNmKdgQh0ISi",
        "id" : "7jDZiBXUkABNmKdgQh0ISi",
        "name" : "Howard Ferguson",
        "type" : "artist",
        "uri" : "spotify:artist:7jDZiBXUkABNmKdgQh0ISi"
      }, {
        "external_urls" : {
          "spotify" : "https://open.spotify.com/artist/0U76qHnOeDlShHkjDhpwIN"
        },
        "href" : "https://api.spotify.com/v1/artists/0U76qHnOeDlShHkjDhpwIN",
        "id" : "0U76qHnOeDlShHkjDhpwIN",
        "name" : "Truro Cathedral Choir",
        "type" : "artist",
        "uri" : "spotify:artist:0U76qHnOeDlShHkjDhpwIN"
      }, {
        "external_urls" : {
          "spotify" : "https://open.spotify.com/artist/1cjPVlZolZrXVZRMTtGuhx"
        },
        "href" : "https://api.spotify.com/v1/artists/1cjPVlZolZrXVZRMTtGuhx",
        "id" : "1cjPVlZolZrXVZRMTtGuhx",
        "name" : "Andrew Nethsingha",
        "type" : "artist",
        "uri" : "spotify:artist:1cjPVlZolZrXVZRMTtGuhx"
      }, {
        "external_urls" : {
          "spotify" : "https://open.spotify.com/artist/5cJAcrEcAgMqjE8yuTD88A"
        },
        "href" : "https://api.spotify.com/v1/artists/5cJAcrEcAgMqjE8yuTD88A",
        "id" : "5cJAcrEcAgMqjE8yuTD88A",
        "name" : "Simon Morley",
        "type" : "artist",
        "uri" : "spotify:artist:5cJAcrEcAgMqjE8yuTD88A"
      } ],
      "disc_number" : 1,
      "duration_ms" : 221466,
      "explicit" : false,
      "external_ids" : {
        "isrc" : "GBXUX0701915"
      },
      "external_urls" : {
        "spotify" : "https://open.spotify.com/track/2X33XG3ESbJil0ztlOxCNW"
      },
      "href" : "https://api.spotify.com/v1/tracks/2X33XG3ESbJil0ztlOxCNW",
      "id" : "2X33XG3ESbJil0ztlOxCNW",
      "is_local" : false,
      "is_playable" : true,
      "name" : "O Jesus I Have Promised",
      "popularity" : 7,
      "preview_url" : "https://p.scdn.co/mp3-preview/2424e7f83475c15b7eb3db00276b86657b07168f?cid=774b29d4f13844c495f206cafdad9c86",
      "track_number" : 15,
      "type" : "track",
      "uri" : "spotify:track:2X33XG3ESbJil0ztlOxCNW"
    }, {
      "album" : {
        "album_type" : "album",
        "artists" : [ {
          "external_urls" : {
            "spotify" : "https://open.spotify.com/artist/4HBiRX8Ok4gM6SwksbtyQz"
          },
          "href" : "https://api.spotify.com/v1/artists/4HBiRX8Ok4gM6SwksbtyQz",
          "id" : "4HBiRX8Ok4gM6SwksbtyQz",
          "name" : "Herbster Trio",
          "type" : "artist",
          "uri" : "spotify:artist:4HBiRX8Ok4gM6SwksbtyQz"
        } ],
        "external_urls" : {
          "spotify" : "https://open.spotify.com/album/4OFlz2g8eGEsVqitqkPY8B"
        },
        "href" : "https://api.spotify.com/v1/albums/4OFlz2g8eGEsVqitqkPY8B",
        "id" : "4OFlz2g8eGEsVqitqkPY8B",
        "images" : [ {
          "height" : 640,
          "url" : "https://i.scdn.co/image/ab67616d0000b2739c7aaf71141f175355b35ed0",
          "width" : 640
        }, {
          "height" : 300,
          "url" : "https://i.scdn.co/image/ab67616d00001e029c7aaf71141f175355b35ed0",
          "width" : 300
        }, {
          "height" : 64,
          "url" : "https://i.scdn.co/image/ab67616d000048519c7aaf71141f175355b35ed0",
          "width" : 64
        } ],
        "name" : "Hymns of Grateful Praise",
        "release_date" : "2013-02-24",
        "release_date_precision" : "day",
        "total_tracks" : 18,
        "type" : "album",
        "uri" : "spotify:album:4OFlz2g8eGEsVqitqkPY8B"
      },
      "artists" : [ {
        "external_urls" : {
          "spotify" : "https://open.spotify.com/artist/4HBiRX8Ok4gM6SwksbtyQz"
        },
        "href" : "https://api.spotify.com/v1/artists/4HBiRX8Ok4gM6SwksbtyQz",
        "id" : "4HBiRX8Ok4gM6SwksbtyQz",
        "name" : "Herbster Trio",
        "type" : "artist",
        "uri" : "spotify:artist:4HBiRX8Ok4gM6SwksbtyQz"
      } ],
      "disc_number" : 1,
      "duration_ms" : 208226,
      "explicit" : false,
      "external_ids" : {
        "isrc" : "TCABM1342684"
      },
      "external_urls" : {
        "spotify" : "https://open.spotify.com/track/57to5LrIaEEndiPUWomvUF"
      },
      "href" : "https://api.spotify.com/v1/tracks/57to5LrIaEEndiPUWomvUF",
      "id" : "57to5LrIaEEndiPUWomvUF",
      "is_local" : false,
      "is_playable" : true,
      "name" : "O Jesus, I Have Promised",
      "popularity" : 4,
      "preview_url" : "https://p.scdn.co/mp3-preview/058eb83bf9fa990d97dbd2d61bab6726e427626d?cid=774b29d4f13844c495f206cafdad9c86",
      "track_number" : 16,
      "type" : "track",
      "uri" : "spotify:track:57to5LrIaEEndiPUWomvUF"
    }, {
      "album" : {
        "album_type" : "album",
        "artists" : [ {
          "external_urls" : {
            "spotify" : "https://open.spotify.com/artist/0NqljPX0DaLMo0PvSPhy5m"
          },
          "href" : "https://api.spotify.com/v1/artists/0NqljPX0DaLMo0PvSPhy5m",
          "id" : "0NqljPX0DaLMo0PvSPhy5m",
          "name" : "Northland Baptist Bible College",
          "type" : "artist",
          "uri" : "spotify:artist:0NqljPX0DaLMo0PvSPhy5m"
        } ],
        "external_urls" : {
          "spotify" : "https://open.spotify.com/album/63cxUQUWqKrs2eZlgk6is1"
        },
        "href" : "https://api.spotify.com/v1/albums/63cxUQUWqKrs2eZlgk6is1",
        "id" : "63cxUQUWqKrs2eZlgk6is1",
        "images" : [ {
          "height" : 640,
          "url" : "https://i.scdn.co/image/ab67616d0000b27311d4c643d5865c3b5f9e8e9a",
          "width" : 640
        }, {
          "height" : 300,
          "url" : "https://i.scdn.co/image/ab67616d00001e0211d4c643d5865c3b5f9e8e9a",
          "width" : 300
        }, {
          "height" : 64,
          "url" : "https://i.scdn.co/image/ab67616d0000485111d4c643d5865c3b5f9e8e9a",
          "width" : 64
        } ],
        "name" : "Reflections",
        "release_date" : "2000-01-28",
        "release_date_precision" : "day",
        "total_tracks" : 21,
        "type" : "album",
        "uri" : "spotify:album:63cxUQUWqKrs2eZlgk6is1"
      },
      "artists" : [ {
        "external_urls" : {
          "spotify" : "https://open.spotify.com/artist/0NqljPX0DaLMo0PvSPhy5m"
        },
        "href" : "https://api.spotify.com/v1/artists/0NqljPX0DaLMo0PvSPhy5m",
        "id" : "0NqljPX0DaLMo0PvSPhy5m",
        "name" : "Northland Baptist Bible College",
        "type" : "artist",
        "uri" : "spotify:artist:0NqljPX0DaLMo0PvSPhy5m"
      } ],
      "disc_number" : 1,
      "duration_ms" : 199546,
      "explicit" : false,
      "external_ids" : {
        "isrc" : "uscgh1865000"
      },
      "external_urls" : {
        "spotify" : "https://open.spotify.com/track/67zAX2DiWph3mOsXcdx8Hf"
      },
      "href" : "https://api.spotify.com/v1/tracks/67zAX2DiWph3mOsXcdx8Hf",
      "id" : "67zAX2DiWph3mOsXcdx8Hf",
      "is_local" : false,
      "is_playable" : true,
      "name" : "O Jesus I Have Promised",
      "popularity" : 2,
      "preview_url" : "https://p.scdn.co/mp3-preview/8df5d957d3c32edf544e4d76fffbbd1948b79d26?cid=774b29d4f13844c495f206cafdad9c86",
      "track_number" : 6,
      "type" : "track",
      "uri" : "spotify:track:67zAX2DiWph3mOsXcdx8Hf"
    }, {
      "album" : {
        "album_type" : "album",
        "artists" : [ {
          "external_urls" : {
            "spotify" : "https://open.spotify.com/artist/4d8pFJwCoD1mX4wAn7Ax2h"
          },
          "href" : "https://api.spotify.com/v1/artists/4d8pFJwCoD1mX4wAn7Ax2h",
          "id" : "4d8pFJwCoD1mX4wAn7Ax2h",
          "name" : "Clovercroft Kids",
          "type" : "artist",
          "uri" : "spotify:artist:4d8pFJwCoD1mX4wAn7Ax2h"
        } ],
        "external_urls" : {
          "spotify" : "https://open.spotify.com/album/1fUH6Xh4HZmbOaYJBeWAZA"
        },
        "href" : "https://api.spotify.com/v1/albums/1fUH6Xh4HZmbOaYJBeWAZA",
        "id" : "1fUH6Xh4HZmbOaYJBeWAZA",
        "images" : [ {
          "height" : 640,
          "url" : "https://i.scdn.co/image/ab67616d0000b2735431f5e400f7da6b32106f40",
          "width" : 640
        }, {
          "height" : 300,
          "url" : "https://i.scdn.co/image/ab67616d00001e025431f5e400f7da6b32106f40",
          "width" : 300
        }, {
          "height" : 64,
          "url" : "https://i.scdn.co/image/ab67616d000048515431f5e400f7da6b32106f40",
          "width" : 64
        } ],
        "name" : "Hymns for Kids: Rock of Ages",
        "release_date" : "2014-09-30",
        "release_date_precision" : "day",
        "total_tracks" : 40,
        "type" : "album",
        "uri" : "spotify:album:1fUH6Xh4HZmbOaYJBeWAZA"
      },
      "artists" : [ {
        "external_urls" : {
          "spotify" : "https://open.spotify.com/artist/4d8pFJwCoD1mX4wAn7Ax2h"
        },
        "href" : "https://api.spotify.com/v1/artists/4d8pFJwCoD1mX4wAn7Ax2h",
        "id" : "4d8pFJwCoD1mX4wAn7Ax2h",
        "name" : "Clovercroft Kids",
        "type" : "artist",
        "uri" : "spotify:artist:4d8pFJwCoD1mX4wAn7Ax2h"
      } ],
      "disc_number" : 1,
      "duration_ms" : 95413,
      "explicit" : false,
      "external_ids" : {
        "isrc" : "USACX1401302"
      },
      "external_urls" : {
        "spotify" : "https://open.spotify.com/track/0UHLWBRsklyU2bxBaGOkYo"
      },
      "href" : "https://api.spotify.com/v1/tracks/0UHLWBRsklyU2bxBaGOkYo",
      "id" : "0UHLWBRsklyU2bxBaGOkYo",
      "is_local" : false,
      "is_playable" : true,
      "name" : "O Jesus I Have Promised",
      "popularity" : 3,
      "preview_url" : "https://p.scdn.co/mp3-preview/4554e7dbd69ba6a608ce41085a630af12df16fce?cid=774b29d4f13844c495f206cafdad9c86",
      "track_number" : 11,
      "type" : "track",
      "uri" : "spotify:track:0UHLWBRsklyU2bxBaGOkYo"
    }, {
      "album" : {
        "album_type" : "album",
        "artists" : [ {
          "external_urls" : {
            "spotify" : "https://open.spotify.com/artist/4js8BDiQwnHLlDmT1shPH7"
          },
          "href" : "https://api.spotify.com/v1/artists/4js8BDiQwnHLlDmT1shPH7",
          "id" : "4js8BDiQwnHLlDmT1shPH7",
          "name" : "John Fahey",
          "type" : "artist",
          "uri" : "spotify:artist:4js8BDiQwnHLlDmT1shPH7"
        } ],
        "external_urls" : {
          "spotify" : "https://open.spotify.com/album/1OvVxk1YWfUNlu1tkLUyDU"
        },
        "href" : "https://api.spotify.com/v1/albums/1OvVxk1YWfUNlu1tkLUyDU",
        "id" : "1OvVxk1YWfUNlu1tkLUyDU",
        "images" : [ {
          "height" : 640,
          "url" : "https://i.scdn.co/image/ab67616d0000b2730f7c34df0b617cf75baae9a4",
          "width" : 640
        }, {
          "height" : 300,
          "url" : "https://i.scdn.co/image/ab67616d00001e020f7c34df0b617cf75baae9a4",
          "width" : 300
        }, {
          "height" : 64,
          "url" : "https://i.scdn.co/image/ab67616d000048510f7c34df0b617cf75baae9a4",
          "width" : 64
        } ],
        "name" : "Your Past Comes Back To Haunt You: The Fonotone Years [1958-1965]",
        "release_date" : "2017-02-10",
        "release_date_precision" : "day",
        "total_tracks" : 115,
        "type" : "album",
        "uri" : "spotify:album:1OvVxk1YWfUNlu1tkLUyDU"
      },
      "artists" : [ {
        "external_urls" : {
          "spotify" : "https://open.spotify.com/artist/4js8BDiQwnHLlDmT1shPH7"
        },
        "href" : "https://api.spotify.com/v1/artists/4js8BDiQwnHLlDmT1shPH7",
        "id" : "4js8BDiQwnHLlDmT1shPH7",
        "name" : "John Fahey",
        "type" : "artist",
        "uri" : "spotify:artist:4js8BDiQwnHLlDmT1shPH7"
      } ],
      "disc_number" : 5,
      "duration_ms" : 186573,
      "explicit" : false,
      "external_ids" : {
        "isrc" : "QMQQH1608459"
      },
      "external_urls" : {
        "spotify" : "https://open.spotify.com/track/6v5GVTWaaSPY0V0Lbcyj9O"
      },
      "href" : "https://api.spotify.com/v1/tracks/6v5GVTWaaSPY0V0Lbcyj9O",
      "id" : "6v5GVTWaaSPY0V0Lbcyj9O",
      "is_local" : false,
      "is_playable" : true,
      "name" : "O Jesus I Have Promised",
      "popularity" : 3,
      "preview_url" : "https://p.scdn.co/mp3-preview/e6bf90c9d82c36a1a45e79ee14ae7b14a0299f89?cid=774b29d4f13844c495f206cafdad9c86",
      "track_number" : 16,
      "type" : "track",
      "uri" : "spotify:track:6v5GVTWaaSPY0V0Lbcyj9O"
    }, {
      "album" : {
        "album_type" : "album",
        "artists" : [ {
          "external_urls" : {
            "spotify" : "https://open.spotify.com/artist/32xlqzLIoiVIiG935WXm7L"
          },
          "href" : "https://api.spotify.com/v1/artists/32xlqzLIoiVIiG935WXm7L",
          "id" : "32xlqzLIoiVIiG935WXm7L",
          "name" : "Alisa Jones",
          "type" : "artist",
          "uri" : "spotify:artist:32xlqzLIoiVIiG935WXm7L"
        }, {
          "external_urls" : {
            "spotify" : "https://open.spotify.com/artist/5y6rASEx8CVC0fBuRh323U"
          },
          "href" : "https://api.spotify.com/v1/artists/5y6rASEx8CVC0fBuRh323U",
          "id" : "5y6rASEx8CVC0fBuRh323U",
          "name" : "Ron Wall",
          "type" : "artist",
          "uri" : "spotify:artist:5y6rASEx8CVC0fBuRh323U"
        }, {
          "external_urls" : {
            "spotify" : "https://open.spotify.com/artist/7xn0dNayS3daHN5MrgmIrc"
          },
          "href" : "https://api.spotify.com/v1/artists/7xn0dNayS3daHN5MrgmIrc",
          "id" : "7xn0dNayS3daHN5MrgmIrc",
          "name" : "Mark Howard",
          "type" : "artist",
          "uri" : "spotify:artist:7xn0dNayS3daHN5MrgmIrc"
        } ],
        "external_urls" : {
          "spotify" : "https://open.spotify.com/album/33prjN4CMVRKQl8g2MBLbu"
        },
        "href" : "https://api.spotify.com/v1/albums/33prjN4CMVRKQl8g2MBLbu",
        "id" : "33prjN4CMVRKQl8g2MBLbu",
        "images" : [ {
          "height" : 640,
          "url" : "https://i.scdn.co/image/ab67616d0000b273dd80722d1d65c38f3e7ad791",
          "width" : 640
        }, {
          "height" : 300,
          "url" : "https://i.scdn.co/image/ab67616d00001e02dd80722d1d65c38f3e7ad791",
          "width" : 300
        }, {
          "height" : 64,
          "url" : "https://i.scdn.co/image/ab67616d00004851dd80722d1d65c38f3e7ad791",
          "width" : 64
        } ],
        "name" : "Church In The Wildwood",
        "release_date" : "2009-06-09",
        "release_date_precision" : "day",
        "total_tracks" : 23,
        "type" : "album",
        "uri" : "spotify:album:33prjN4CMVRKQl8g2MBLbu"
      },
      "artists" : [ {
        "external_urls" : {
          "spotify" : "https://open.spotify.com/artist/32xlqzLIoiVIiG935WXm7L"
        },
        "href" : "https://api.spotify.com/v1/artists/32xlqzLIoiVIiG935WXm7L",
        "id" : "32xlqzLIoiVIiG935WXm7L",
        "name" : "Alisa Jones",
        "type" : "artist",
        "uri" : "spotify:artist:32xlqzLIoiVIiG935WXm7L"
      }, {
        "external_urls" : {
          "spotify" : "https://open.spotify.com/artist/7xn0dNayS3daHN5MrgmIrc"
        },
        "href" : "https://api.spotify.com/v1/artists/7xn0dNayS3daHN5MrgmIrc",
        "id" : "7xn0dNayS3daHN5MrgmIrc",
        "name" : "Mark Howard",
        "type" : "artist",
        "uri" : "spotify:artist:7xn0dNayS3daHN5MrgmIrc"
      }, {
        "external_urls" : {
          "spotify" : "https://open.spotify.com/artist/5y6rASEx8CVC0fBuRh323U"
        },
        "href" : "https://api.spotify.com/v1/artists/5y6rASEx8CVC0fBuRh323U",
        "id" : "5y6rASEx8CVC0fBuRh323U",
        "name" : "Ron Wall",
        "type" : "artist",
        "uri" : "spotify:artist:5y6rASEx8CVC0fBuRh323U"
      } ],
      "disc_number" : 1,
      "duration_ms" : 138320,
      "explicit" : false,
      "external_ids" : {
        "isrc" : "US43Z0910202"
      },
      "external_urls" : {
        "spotify" : "https://open.spotify.com/track/5vCCbRrNAZ2A26Hw6Kbb7c"
      },
      "href" : "https://api.spotify.com/v1/tracks/5vCCbRrNAZ2A26Hw6Kbb7c",
      "id" : "5vCCbRrNAZ2A26Hw6Kbb7c",
      "is_local" : false,
      "is_playable" : true,
      "name" : "O Jesus I Have Promised - Instrumental",
      "popularity" : 3,
      "preview_url" : "https://p.scdn.co/mp3-preview/2c37174230a6eadb2b37d69bd6e4ed7c9f001787?cid=774b29d4f13844c495f206cafdad9c86",
      "track_number" : 16,
      "type" : "track",
      "uri" : "spotify:track:5vCCbRrNAZ2A26Hw6Kbb7c"
    }, {
      "album" : {
        "album_type" : "album",
        "artists" : [ {
          "external_urls" : {
            "spotify" : "https://open.spotify.com/artist/4js8BDiQwnHLlDmT1shPH7"
          },
          "href" : "https://api.spotify.com/v1/artists/4js8BDiQwnHLlDmT1shPH7",
          "id" : "4js8BDiQwnHLlDmT1shPH7",
          "name" : "John Fahey",
          "type" : "artist",
          "uri" : "spotify:artist:4js8BDiQwnHLlDmT1shPH7"
        } ],
        "external_urls" : {
          "spotify" : "https://open.spotify.com/album/1OvVxk1YWfUNlu1tkLUyDU"
        },
        "href" : "https://api.spotify.com/v1/albums/1OvVxk1YWfUNlu1tkLUyDU",
        "id" : "1OvVxk1YWfUNlu1tkLUyDU",
        "images" : [ {
          "height" : 640,
          "url" : "https://i.scdn.co/image/ab67616d0000b2730f7c34df0b617cf75baae9a4",
          "width" : 640
        }, {
          "height" : 300,
          "url" : "https://i.scdn.co/image/ab67616d00001e020f7c34df0b617cf75baae9a4",
          "width" : 300
        }, {
          "height" : 64,
          "url" : "https://i.scdn.co/image/ab67616d000048510f7c34df0b617cf75baae9a4",
          "width" : 64
        } ],
        "name" : "Your Past Comes Back To Haunt You: The Fonotone Years [1958-1965]",
        "release_date" : "2017-02-10",
        "release_date_precision" : "day",
        "total_tracks" : 115,
        "type" : "album",
        "uri" : "spotify:album:1OvVxk1YWfUNlu1tkLUyDU"
      },
      "artists" : [ {
        "external_urls" : {
          "spotify" : "https://open.spotify.com/artist/4js8BDiQwnHLlDmT1shPH7"
        },
        "href" : "https://api.spotify.com/v1/artists/4js8BDiQwnHLlDmT1shPH7",
        "id" : "4js8BDiQwnHLlDmT1shPH7",
        "name" : "John Fahey",
        "type" : "artist",
        "uri" : "spotify:artist:4js8BDiQwnHLlDmT1shPH7"
      } ],
      "disc_number" : 5,
      "duration_ms" : 204253,
      "explicit" : false,
      "external_ids" : {
        "isrc" : "QMQQH1608457"
      },
      "external_urls" : {
        "spotify" : "https://open.spotify.com/track/0hcVoQO6w2kGY7uay2Oip1"
      },
      "href" : "https://api.spotify.com/v1/tracks/0hcVoQO6w2kGY7uay2Oip1",
      "id" : "0hcVoQO6w2kGY7uay2Oip1",
      "is_local" : false,
      "is_playable" : true,
      "name" : "Medley: Untitled / O Jesus I Have Promised",
      "popularity" : 2,
      "preview_url" : "https://p.scdn.co/mp3-preview/33685b48daba65c64cc015de42232fa7bd51f7dc?cid=774b29d4f13844c495f206cafdad9c86",
      "track_number" : 18,
      "type" : "track",
      "uri" : "spotify:track:0hcVoQO6w2kGY7uay2Oip1"
    }, {
      "album" : {
        "album_type" : "album",
        "artists" : [ {
          "external_urls" : {
            "spotify" : "https://open.spotify.com/artist/4dnjdP827ETpBU0McDvUDt"
          },
          "href" : "https://api.spotify.com/v1/artists/4dnjdP827ETpBU0McDvUDt",
          "id" : "4dnjdP827ETpBU0McDvUDt",
          "name" : "Randi Rokke",
          "type" : "artist",
          "uri" : "spotify:artist:4dnjdP827ETpBU0McDvUDt"
        } ],
        "external_urls" : {
          "spotify" : "https://open.spotify.com/album/7wm71HUrUrYBGysS8SIiwi"
        },
        "href" : "https://api.spotify.com/v1/albums/7wm71HUrUrYBGysS8SIiwi",
        "id" : "7wm71HUrUrYBGysS8SIiwi",
        "images" : [ {
          "height" : 640,
          "url" : "https://i.scdn.co/image/ab67616d0000b2730b6de709677cdd4e719ce4f8",
          "width" : 640
        }, {
          "height" : 300,
          "url" : "https://i.scdn.co/image/ab67616d00001e020b6de709677cdd4e719ce4f8",
          "width" : 300
        }, {
          "height" : 64,
          "url" : "https://i.scdn.co/image/ab67616d000048510b6de709677cdd4e719ce4f8",
          "width" : 64
        } ],
        "name" : "Tell the Story",
        "release_date" : "2009-09-15",
        "release_date_precision" : "day",
        "total_tracks" : 17,
        "type" : "album",
        "uri" : "spotify:album:7wm71HUrUrYBGysS8SIiwi"
      },
      "artists" : [ {
        "external_urls" : {
          "spotify" : "https://open.spotify.com/artist/4dnjdP827ETpBU0McDvUDt"
        },
        "href" : "https://api.spotify.com/v1/artists/4dnjdP827ETpBU0McDvUDt",
        "id" : "4dnjdP827ETpBU0McDvUDt",
        "name" : "Randi Rokke",
        "type" : "artist",
        "uri" : "spotify:artist:4dnjdP827ETpBU0McDvUDt"
      } ],
      "disc_number" : 1,
      "duration_ms" : 208800,
      "explicit" : false,
      "external_ids" : {
        "isrc" : "ushm91366428"
      },
      "external_urls" : {
        "spotify" : "https://open.spotify.com/track/03p8EME2LuZLh47b6V78Nh"
      },
      "href" : "https://api.spotify.com/v1/tracks/03p8EME2LuZLh47b6V78Nh",
      "id" : "03p8EME2LuZLh47b6V78Nh",
      "is_local" : false,
      "is_playable" : true,
      "name" : "Oh Jesus I Have Promised",
      "popularity" : 0,
      "preview_url" : "https://p.scdn.co/mp3-preview/418d56da29ae8793cdb4cc4611c7d0ae8c31c28b?cid=774b29d4f13844c495f206cafdad9c86",
      "track_number" : 1,
      "type" : "track",
      "uri" : "spotify:track:03p8EME2LuZLh47b6V78Nh"
    } ],
    "limit" : 10,
    "next" : "https://api.spotify.com/v1/search?query=O+Jesus%2C+I+Have+Promised&type=track&market=US&offset=15&limit=10",
    "offset" : 5,
    "previous" : "https://api.spotify.com/v1/search?query=O+Jesus%2C+I+Have+Promised&type=track&market=US&offset=0&limit=10",
    "total" : 111
  }
}