{
  "tracks" : {
    "href" : "https://api.spotify.com/v1/search?query=Under+His+Wings&type=track&market=US&offset=5&limit=10",
    "items" : [ {
      "album" : {
        "album_type" : "compilation",
        "artists" : [ {
          "external_urls" : {
            "spotify" : "https://open.spotify.com/artist/0LyfQWJT6nXafLPZqxe9Of"
          },
          "href" : "https://api.spotify.com/v1/artists/0LyfQWJT6nXafLPZqxe9Of",
          "id" : "0LyfQWJT6nXafLPZqxe9Of",
          "name" : "Various Artists",
          "type" : "artist",
          "uri" : "spotify:artist:0LyfQWJT6nXafLPZqxe9Of"
        } ],
        "external_urls" : {
          "spotify" : "https://open.spotify.com/album/0NuIb6G1T9LwrQjRDHFQhF"
        },
        "href" : "https://api.spotify.com/v1/albums/0NuIb6G1T9LwrQjRDHFQhF",
        "id" : "0NuIb6G1T9LwrQjRDHFQhF",
        "images" : [ {
          "height" : 640,
          "url" : "https://i.scdn.co/image/ab67616d0000b2739bcfc41cbe07f9d16bcb7c85",
          "width" : 640
        }, {
          "height" : 300,
          "url" : "https://i.scdn.co/image/ab67616d00001e029bcfc41cbe07f9d16bcb7c85",
          "width" : 300
        }, {
          "height" : 64,
          "url" : "https://i.scdn.co/image/ab67616d000048519bcfc41cbe07f9d16bcb7c85",
          "width" : 64
        } ],
        "name" : "Make Us One",
        "release_date" : "2006-01-01",
        "release_date_precision" : "day",
        "total_tracks" : 12,
        "type" : "album",
        "uri" : "spotify:album:0NuIb6G1T9LwrQjRDHFQhF"
      },
      "artists" : [ {
        "external_urls" : {
          "spotify" : "https://open.spotify.com/artist/0AHY9c4xq2inqwPwOreOZi"
        },
        "href" : "https://api.spotify.com/v1/artists/0AHY9c4xq2inqwPwOreOZi",
        "id" : "0AHY9c4xq2inqwPwOreOZi",
        "name" : "The Ruppes",
        "type" : "artist",
        "uri" : "spotify:artist:0AHY9c4xq2inqwPwOreOZi"
      } ],
      "disc_number" : 1,
      "duration_ms" : 229733,
      "explicit" : false,
      "external_ids" : {
        "isrc" : "USB4U0500906"
      },
      "external_urls" : {
        "spotify" : "https://open.spotify.com/track/53tQVyrUg4UVIdmbTWuco1"
      },
      "href" : "https://api.spotify.com/v1/tracks/53tQVyrUg4UVIdmbTWuco1",
      "id" : "53tQVyrUg4UVIdmbTWuco1",
      "is_local" : false,
      "is_playable" : true,
      "name" : "Under His Wings - Make Us One Album Version",
      "popularity" : 9,
      "preview_url" : null,
      "track_number" : 11,
      "type" : "track",
      "uri" : "spotify:track:53tQVyrUg4UVIdmbTWuco1"
    }, {
      "album" : {
        "album_type" : "album",
        "artists" : [ {
          "external_urls" : {
            "spotify" : "https://open.spotify.com/artist/5wDiXF7KXnzsiDHWs8EKNi"
          },
          "href" : "https://api.spotify.com/v1/artists/5wDiXF7KXnzsiDHWs8EKNi",
          "id" : "5wDiXF7KXnzsiDHWs8EKNi",
          "name" : "Lordsong",
          "type" : "artist",
          "uri" : "spotify:artist:5wDiXF7KXnzsiDHWs8EKNi"
        } ],
        "external_urls" : {
          "spotify" : "https://open.spotify.com/album/3CwDUHtlzcKasneZWVB7WQ"
        },
        "href" : "https://api.spotify.com/v1/albums/3CwDUHtlzcKasneZWVB7WQ",
        "id" : "3CwDUHtlzcKasneZWVB7WQ",
        "images" : [ {
          "height" : 640,
          "url" : "https://i.scdn.co/image/ab67616d0000b273da3aa26676886ce52ed003dd",
          "width" : 640
        }, {
          "height" : 300,
          "url" : "https://i.scdn.co/image/ab67616d00001e02da3aa26676886ce52ed003dd",
          "width" : 300
        }, {
          "height" : 64,
          "url" : "https://i.scdn.co/image/ab67616d00004851da3aa26676886ce52ed003dd",
          "width" : 64
        } ],
        "name" : "Acappella",
        "release_date" : "2002-01-01",
        "release_date_precision" : "day",
        "total_tracks" : 10,
        "type" : "album",
        "uri" : "spotify:album:3CwDUHtlzcKasneZWVB7WQ"
      },
      "artists" : [ {
        "external_urls" : {
          "spotify" : "https://open.spotify.com/artist/5wDiXF7KXnzsiDHWs8EKNi"
        },
        "href" : "https://api.spotify.com/v1/artists/5wDiXF7KXnzsiDHWs8EKNi",
        "id" : "5wDiXF7KXnzsiDHWs8EKNi",
        "name" : "Lordsong",
        "type" : "artist",
        "uri" : "spotify:artist:5wDiXF7KXnzsiDHWs8EKNi"
      } ],
      "disc_number" : 1,
      "duration_ms" : 159573,
      "explicit" : false,
      "external_ids" : {
        "isrc" : "US3U80500641"
      },
      "external_urls" : {
        "spotify" : "https://open.spotify.com/track/1vwsUq1mBi85INOVTuPoGk"
      },
      "href" : "https://api.spotify.com/v1/tracks/1vwsUq1mBi85INOVTuPoGk",
      "id" : "1vwsUq1mBi85INOVTuPoGk",
      "is_local" : false,
      "is_playable" : true,
      "name" : "Under His Wings",
      "popularity" : 6,
      "preview_url" : "https://p.scdn.co/mp3-preview/d641278b1174e6113482550a292526bdecc16c19?cid=774b29d4f13844c495f206cafdad9c86",
      "track_number" : 10,
      "type" : "track",
      "uri" : "spotify:track:1vwsUq1mBi85INOVTuPoGk"
    }, {
      "album" : {
        "album_type" : "album",
        "artists" : [ {
          "external_urls" : {
            "spotify" : "https://open.spotify.com/artist/5yqcfQJB6S4uTWjL0wqZkr"
          },
          "href" : "https://api.spotify.com/v1/artists/5yqcfQJB6S4uTWjL0wqZkr",
          "id" : "5yqcfQJB6S4uTWjL0wqZkr",
          "name" : "Bridget Blucher",
          "type" : "artist",
          "uri" : "spotify:artist:5yqcfQJB6S4uTWjL0wqZkr"
        } ],
        "external_urls" : {
          "spotify" : "https://open.spotify.com/album/1xhTmQZSXsBQvsykqYugQi"
        },
        "href" : "https://api.spotify.com/v1/albums/1xhTmQZSXsBQvsykqYugQi",
        "id" : "1xhTmQZSXsBQvsykqYugQi",
        "images" : [ {
          "height" : 640,
          "url" : "https://i.scdn.co/image/ab67616d0000b273d4d6f1502b23759e2c9c8c8f",
          "width" : 640
        }, {
          "height" : 300,
          "url" : "https://i.scdn.co/image/ab67616d00001e02d4d6f1502b23759e2c9c8c8f",
          "width" : 300
        }, {
          "height" : 64,
          "url" : "https://i.scdn.co/image/ab67616d00004851d4d6f1502b23759e2c9c8c8f",
          "width" : 64
        } ],
        "name" : "Under His Wings",
        "release_date" : "2004-03-19",
        "release_date_precision" : "day",
        "total_tracks" : 11,
        "type" : "album",
        "uri" : "spotify:album:1xhTmQZSXsBQvsykqYugQi"
      },
      "artists" : [ {
        "external_urls" : {
          "spotify" : "https://open.spotify.com/artist/5yqcfQJB6S4uTWjL0wqZkr"
        },
        "href" : "https://api.spotify.com/v1/artists/5yqcfQJB6S4uTWjL0wqZkr",
        "id" : "5yqcfQJB6S4uTWjL0wqZkr",
        "name" : "Bridget Blucher",
        "type" : "artist",
        "uri" : "spotify:artist:5yqcfQJB6S4uTWjL0wqZkr"
      } ],
      "disc_number" : 1,
      "duration_ms" : 313293,
      "explicit" : false,
      "external_ids" : {
        "isrc" : "USQY50929421"
      },
      "external_urls" : {
        "spotify" : "https://open.spotify.com/track/3DPoBmwCEoUoxvjvLWbB9l"
      },
      "href" : "https://api.spotify.com/v1/tracks/3DPoBmwCEoUoxvjvLWbB9l",
      "id" : "3DPoBmwCEoUoxvjvLWbB9l",
      "is_local" : false,
      "is_playable" : true,
      "name" : "Under His Wings",
      "popularity" : 7,
      "preview_url" : "https://p.scdn.co/mp3-preview/d66649dff364baa24b2ca917282ae398bd5d9047?cid=774b29d4f13844c495f206cafdad9c86",
      "track_number" : 5,
      "type" : "track",
      "uri" : "spotify:track:3DPoBmwCEoUoxvjvLWbB9l"
    }, {
      "album" : {
        "album_type" : "album",
        "artists" : [ {
          "external_urls" : {
            "spotify" : "https://open.spotify.com/artist/3Be0FxZRoCJ8UPrkwe6Xuw"
          },
          "href" : "https://api.spotify.com/v1/artists/3Be0FxZRoCJ8UPrkwe6Xuw",
          "id" : "3Be0FxZRoCJ8UPrkwe6Xuw",
          "name" : "Stan Whitmire",
          "type" : "artist",
          "uri" : "spotify:artist:3Be0FxZRoCJ8UPrkwe6Xuw"
        } ],
        "external_urls" : {
          "spotify" : "https://open.spotify.com/album/0ItfxJUTJc7z6F6PPpenLI"
        },
        "href" : "https://api.spotify.com/v1/albums/0ItfxJUTJc7z6F6PPpenLI",
        "id" : "0ItfxJUTJc7z6F6PPpenLI",
        "images" : [ {
          "height" : 640,
          "url" : "https://i.scdn.co/image/ab67616d0000b273c665c15d6c59e2638490f95f",
          "width" : 640
        }, {
          "height" : 300,
          "url" : "https://i.scdn.co/image/ab67616d00001e02c665c15d6c59e2638490f95f",
          "width" : 300
        }, {
          "height" : 64,
          "url" : "https://i.scdn.co/image/ab67616d00004851c665c15d6c59e2638490f95f",
          "width" : 64
        } ],
        "name" : "Shelter In The Storm",
        "release_date" : "2010-01-01",
        "release_date_precision" : "day",
        "total_tracks" : 20,
        "type" : "album",
        "uri" : "spotify:album:0ItfxJUTJc7z6F6PPpenLI"
      },
      "artists" : [ {
        "external_urls" : {
          "spotify" : "https://open.spotify.com/artist/3Be0FxZRoCJ8UPrkwe6Xuw"
        },
        "href" : "https://api.spotify.com/v1/artists/3Be0FxZRoCJ8UPrkwe6Xuw",
        "id" : "3Be0FxZRoCJ8UPrkwe6Xuw",
        "name" : "Stan Whitmire",
        "type" : "artist",
        "uri" : "spotify:artist:3Be0FxZRoCJ8UPrkwe6Xuw"
      } ],
      "disc_number" : 1,
      "duration_ms" : 176080,
      "explicit" : false,
      "external_ids" : {
        "isrc" : "USB4U1000042"
      },
      "external_urls" : {
        "spotify" : "https://open.spotify.com/track/7g9W0QrdIlmwGUg51axK0W"
      },
      "href" : "https://api.spotify.com/v1/tracks/7g9W0QrdIlmwGUg51axK0W",
      "id" : "7g9W0QrdIlmwGUg51axK0W",
      "is_local" : false,
      "is_playable" : true,
      "name" : "Under His Wings",
      "popularity" : 6,
      "preview_url" : null,
      "track_number" : 12,
      "type" : "track",
      "uri" : "spotify:track:7g9W0QrdIlmwGUg51axK0W"
    }, {
      "album" : {
        "album_type" : "album",
        "artists" : [ {
          "external_urls" : {
            "spotify" : "https://open.spotify.com/artist/4PObECTgGi99FoQHHOdaUv"
          },
          "href" : "https://api.spotify.com/v1/artists/4PObECTgGi99FoQHHOdaUv",
          "id" : "4PObECTgGi99FoQHHOdaUv",
          "name" : "Dick Bolks",
          "type" : "artist",
          "uri" : "spotify:artist:4PObECTgGi99FoQHHOdaUv"
        } ],
        "external_urls" : {
          "spotify" : "https://open.spotify.com/album/4djtPD8UjAAumlMtPMG9mg"
        },
        "href" : "https://api.spotify.com/v1/albums/4djtPD8UjAAumlMtPMG9mg",
        "id" : "4djtPD8UjAAumlMtPMG9mg",
        "images" : [ {
          "height" : 640,
          "url" : "https://i.scdn.co/image/ab67616d0000b2731abe0afedeeb672b9858c187",
          "width" : 640
        }, {
          "height" : 300,
          "url" : "https://i.scdn.co/image/ab67616d00001e021abe0afedeeb672b9858c187",
          "width" : 300
        }, {
          "height" : 64,
          "url" : "https://i.scdn.co/image/ab67616d000048511abe0afedeeb672b9858c187",
          "width" : 64
        } ],
        "name" : "Blessed Assurance",
        "release_date" : "1990-06-01",
        "release_date_precision" : "day",
        "total_tracks" : 26,
        "type" : "album",
        "uri" : "spotify:album:4djtPD8UjAAumlMtPMG9mg"
      },
      "artists" : [ {
        "external_urls" : {
          "spotify" : "https://open.spotify.com/artist/4PObECTgGi99FoQHHOdaUv"
        },
        "href" : "https://api.spotify.com/v1/artists/4PObECTgGi99FoQHHOdaUv",
        "id" : "4PObECTgGi99FoQHHOdaUv",
        "name" : "Dick Bolks",
        "type" : "artist",
        "uri" : "spotify:artist:4PObECTgGi99FoQHHOdaUv"
      } ],
      "disc_number" : 1,
      "duration_ms" : 170466,
      "explicit" : false,
      "external_ids" : {
        "isrc" : "ushm91672861"
      },
      "external_urls" : {
        "spotify" : "https://open.spotify.com/track/6jlnRyGdPVNWxo2zgRvcP7"
      },
      "href" : "https://api.spotify.com/v1/tracks/6jlnRyGdPVNWxo2zgRvcP7",
      "id" : "6jlnRyGdPVNWxo2zgRvcP7",
      "is_local" : false,
      "is_playable" : true,
      "name" : "Under His Wings",
      "popularity" : 3,
      "preview_url" : "https://p.scdn.co/mp3-preview/182603d9fd7bf378bf206e6700a397d14624f156?cid=774b29d4f13844c495f206cafdad9c86",
      "track_number" : 17,
      "type" : "track",
      "uri" : "spotify:track:6jlnRyGdPVNWxo2zgRvcP7"
    }, {
      "album" : {
        "album_type" : "album",
        "artists" : [ {
          "external_urls" : {
            "spotify" : "https://open.spotify.com/artist/5yqcfQJB6S4uTWjL0wqZkr"
          },
          "href" : "https://api.spotify.com/v1/artists/5yqcfQJB6S4uTWjL0wqZkr",
          "id" : "5yqcfQJB6S4uTWjL0wqZkr",
          "name" : "Bridget Blucher",
          "type" : "artist",
          "uri" : "spotify:artist:5yqcfQJB6S4uTWjL0wqZkr"
        } ],
        "external_urls" : {
          "spotify" : "https://open.spotify.com/album/1xhTmQZSXsBQvsykqYugQi"
        },
        "href" : "https://api.spotify.com/v1/albums/1xhTmQZSXsBQvsykqYugQi",
        "id" : "1xhTmQZSXsBQvsykqYugQi",
        "images" : [ {
          "height" : 640,
          "url" : "https://i.scdn.co/image/ab67616d0000b273d4d6f1502b23759e2c9c8c8f",
          "width" : 640
        }, {
          "height" : 300,
          "url" : "https://i.scdn.co/image/ab67616d00001e02d4d6f1502b23759e2c9c8c8f",
          "width" : 300
        }, {
          "height" : 64,
          "url" : "https://i.scdn.co/image/ab67616d00004851d4d6f1502b23759e2c9c8c8f",
          "width" : 64
        } ],
        "name" : "Under His Wings",
        "release_date" : "2004-03-19",
        "release_date_precision" : "day",
        "total_tracks" : 11,
        "type" : "album",
        "uri" : "spotify:album:1xhTmQZSXsBQvsykqYugQi"
      },
      "artists" : [ {
        "external_urls" : {
          "spotify" : "https://open.spotify.com/artist/5yqcfQJB6S4uTWjL0wqZkr"
        },
        "href" : "https://api.spotify.com/v1/artists/5yqcfQJB6S4uTWjL0wqZkr",
        "id" : "5yqcfQJB6S4uTWjL0wqZkr",
        "name" : "Bridget Blucher",
        "type" : "artist",
        "uri" : "spotify:artist:5yqcfQJB6S4uTWjL0wqZkr"
      } ],
      "disc_number" : 1,
      "duration_ms" : 372413,
      "explicit" : false,
      "external_ids" : {
        "isrc" : "USQY50929426"
      },
      "external_urls" : {
        "spotify" : "https://open.spotify.com/track/5Oc9eRdKpCcpcAphp9wFjl"
      },
      "href" : "https://api.spotify.com/v1/tracks/5Oc9eRdKpCcpcAphp9wFjl",
      "id" : "5Oc9eRdKpCcpcAphp9wFjl",
      "is_local" : false,
      "is_playable" : true,
      "name" : "Rock My Soul",
      "popularity" : 8,
      "preview_url" : "https://p.scdn.co/mp3-preview/fbcc19e821eacc3c8e00d733e3830564c0374d5a?cid=774b29d4f13844c495f206cafdad9c86",
      "track_number" : 10,
      "type" : "track",
      "uri" : "spotify:track:5Oc9eRdKpCcpcAphp9wFjl"
    }, {
      "album" : {
        "album_type" : "album",
        "artists" : [ {
          "external_urls" : {
            "spotify" : "https://open.spotify.com/artist/5yqcfQJB6S4uTWjL0wqZkr"
          },
          "href" : "https://api.spotify.com/v1/artists/5yqcfQJB6S4uTWjL0wqZkr",
          "id" : "5yqcfQJB6S4uTWjL0wqZkr",
          "name" : "Bridget Blucher",
          "type" : "artist",
          "uri" : "spotify:artist:5yqcfQJB6S4uTWjL0wqZkr"
        } ],
        "external_urls" : {
          "spotify" : "https://open.spotify.com/album/1xhTmQZSXsBQvsykqYugQi"
        },
        "href" : "https://api.spotify.com/v1/albums/1xhTmQZSXsBQvsykqYugQi",
        "id" : "1xhTmQZSXsBQvsykqYugQi",
        "images" : [ {
          "height" : 640,
          "url" : "https://i.scdn.co/image/ab67616d0000b273d4d6f1502b23759e2c9c8c8f",
          "width" : 640
        }, {
          "height" : 300,
          "url" : "https://i.scdn.co/image/ab67616d00001e02d4d6f1502b23759e2c9c8c8f",
          "width" : 300
        }, {
          "height" : 64,
          "url" : "https://i.scdn.co/image/ab67616d00004851d4d6f1502b23759e2c9c8c8f",
          "width" : 64
        } ],
        "name" : "Under His Wings",
        "release_date" : "2004-03-19",
        "release_date_precision" : "day",
        "total_tracks" : 11,
        "type" : "album",
        "uri" : "spotify:album:1xhTmQZSXsBQvsykqYugQi"
      },
      "artists" : [ {
        "external_urls" : {
          "spotify" : "https://open.spotify.com/artist/5yqcfQJB6S4uTWjL0wqZkr"
        },
        "href" : "https://api.spotify.com/v1/artists/5yqcfQJB6S4uTWjL0wqZkr",
        "id" : "5yqcfQJB6S4uTWjL0wqZkr",
        "name" : "Bridget Blucher",
        "type" : "artist",
        "uri" : "spotify:artist:5yqcfQJB6S4uTWjL0wqZkr"
      } ],
      "disc_number" : 1,
      "duration_ms" : 226506,
      "explicit" : false,
      "external_ids" : {
        "isrc" : "USQY50929419"
      },
      "external_urls" : {
        "spotify" : "https://open.spotify.com/track/0W7IDfwQz21F6JSTSwFT4C"
      },
      "href" : "https://api.spotify.com/v1/tracks/0W7IDfwQz21F6JSTSwFT4C",
      "id" : "0W7IDfwQz21F6JSTSwFT4C",
      "is_local" : false,
      "is_playable" : true,
      "name" : "I Have Somebody with Me",
      "popularity" : 6,
      "preview_url" : "https://p.scdn.co/mp3-preview/39901407b1fbb91ded2f9b6a17b7350766528766?cid=774b29d4f13844c495f206cafdad9c86",
      "track_number" : 3,
      "type" : "track",
      "uri" : "spotify:track:0W7IDfwQz21F6JSTSwFT4C"
    }, {
      "album" : {
        "album_type" : "album",
        "artists" : [ {
          "external_urls" : {
            "spotify" : "https://open.spotify.com/artist/5yqcfQJB6S4uTWjL0wqZkr"
          },
          "href" : "https://api.spotify.com/v1/artists/5yqcfQJB6S4uTWjL0wqZkr",
          "id" : "5yqcfQJB6S4uTWjL0wqZkr",
          "name" : "Bridget Blucher",
          "type" : "artist",
          "uri" : "spotify:artist:5yqcfQJB6S4uTWjL0wqZkr"
        } ],
        "external_urls" : {
          "spotify" : "https://open.spotify.com/album/1xhTmQZSXsBQvsykqYugQi"
        },
        "href" : "https://api.spotify.com/v1/albums/1xhTmQZSXsBQvsykqYugQi",
        "id" : "1xhTmQZSXsBQvsykqYugQi",
        "images" : [ {
          "height" : 640,
          "url" : "https://i.scdn.co/image/ab67616d0000b273d4d6f1502b23759e2c9c8c8f",
          "width" : 640
        }, {
          "height" : 300,
          "url" : "https://i.scdn.co/image/ab67616d00001e02d4d6f1502b23759e2c9c8c8f",
          "width" : 300
        }, {
          "height" : 64,
          "url" : "https://i.scdn.co/image/ab67616d00004851d4d6f1502b23759e2c9c8c8f",
          "width" : 64
        } ],
        "name" : "Under His Wings",
        "release_date" : "2004-03-19",
        "release_date_precision" : "day",
        "total_tracks" : 11,
        "type" : "album",
        "uri" : "spotify:album:1xhTmQZSXsBQvsykqYugQi"
      },
      "artists" : [ {
        "external_urls" : {
          "spotify" : "https://open.spotify.com/artist/5yqcfQJB6S4uTWjL0wqZkr"
        },
        "href" : "https://api.spotify.com/v1/artists/5yqcfQJB6S4uTWjL0wqZkr",
        "id" : "5yqcfQJB6S4uTWjL0wqZkr",
        "name" : "Bridget Blucher",
        "type" : "artist",
        "uri" : "spotify:artist:5yqcfQJB6S4uTWjL0wqZkr"
      } ],
      "disc_number" : 1,
      "duration_ms" : 326466,
      "explicit" : false,
      "external_ids" : {
        "isrc" : "USQY50929418"
      },
      "external_urls" : {
        "spotify" : "https://open.spotify.com/track/6QVruT9bZhFHEmHlxAAJzn"
      },
      "href" : "https://api.spotify.com/v1/tracks/6QVruT9bZhFHEmHlxAAJzn",
      "id" : "6QVruT9bZhFHEmHlxAAJzn",
      "is_local" : false,
      "is_playable" : true,
      "name" : "I Will Not Be Moved",
      "popularity" : 6,
      "preview_url" : "https://p.scdn.co/mp3-preview/fd5a97e242ab4b722b6ce26cc2f0ed741c40cf2b?cid=774b29d4f13844c495f206cafdad9c86",
      "track_number" : 2,
      "type" : "track",
      "uri" : "spotify:track:6QVruT9bZhFHEmHlxAAJzn"
    }, {
      "album" : {
        "album_type" : "album",
        "artists" : [ {
          "external_urls" : {
            "spotify" : "https://open.spotify.com/artist/5yqcfQJB6S4uTWjL0wqZkr"
          },
          "href" : "https://api.spotify.com/v1/artists/5yqcfQJB6S4uTWjL0wqZkr",
          "id" : "5yqcfQJB6S4uTWjL0wqZkr",
          "name" : "Bridget Blucher",
          "type" : "artist",
          "uri" : "spotify:artist:5yqcfQJB6S4uTWjL0wqZkr"
        } ],
        "external_urls" : {
          "spotify" : "https://open.spotify.com/album/1xhTmQZSXsBQvsykqYugQi"
        },
        "href" : "https://api.spotify.com/v1/albums/1xhTmQZSXsBQvsykqYugQi",
        "id" : "1xhTmQZSXsBQvsykqYugQi",
        "images" : [ {
          "height" : 640,
          "url" : "https://i.scdn.co/image/ab67616d0000b273d4d6f1502b23759e2c9c8c8f",
          "width" : 640
        }, {
          "height" : 300,
          "url" : "https://i.scdn.co/image/ab67616d00001e02d4d6f1502b23759e2c9c8c8f",
          "width" : 300
        }, {
          "height" : 64,
          "url" : "https://i.scdn.co/image/ab67616d00004851d4d6f1502b23759e2c9c8c8f",
          "width" : 64
        } ],
        "name" : "Under His Wings",
        "release_date" : "2004-03-19",
        "release_date_precision" : "day",
        "total_tracks" : 11,
        "type" : "album",
        "uri" : "spotify:album:1xhTmQZSXsBQvsykqYugQi"
      },
      "artists" : [ {
        "external_urls" : {
          "spotify" : "https://open.spotify.com/artist/5yqcfQJB6S4uTWjL0wqZkr"
        },
        "href" : "https://api.spotify.com/v1/artists/5yqcfQJB6S4uTWjL0wqZkr",
        "id" : "5yqcfQJB6S4uTWjL0wqZkr",
        "name" : "Bridget Blucher",
        "type" : "artist",
        "uri" : "spotify:artist:5yqcfQJB6S4uTWjL0wqZkr"
      } ],
      "disc_number" : 1,
      "duration_ms" : 241120,
      "explicit" : false,
      "external_ids" : {
        "isrc" : "USQY50929417"
      },
      "external_urls" : {
        "spotify" : "https://open.spotify.com/track/04JMsSAYdDPzo9ffeMMDfC"
      },
      "href" : "https://api.spotify.com/v1/tracks/04JMsSAYdDPzo9ffeMMDfC",
      "id" : "04JMsSAYdDPzo9ffeMMDfC",
      "is_local" : false,
      "is_playable" : true,
      "name" : "Jesus Use Me",
      "popularity" : 7,
      "preview_url" : "https://p.scdn.co/mp3-preview/67246467438fd47badd93beab06af6b8c75248f0?cid=774b29d4f13844c495f206cafdad9c86",
      "track_number" : 1,
      "type" : "track",
      "uri" : "spotify:track:04JMsSAYdDPzo9ffeMMDfC"
    }, {
      "album" : {
        "album_type" : "album",
        "artists" : [ {
          "external_urls" : {
            "spotify" : "https://open.spotify.com/artist/4XUltzTgP8sMvgKTOyjceo"
          },
          "href" : "https://api.spotify.com/v1/artists/4XUltzTgP8sMvgKTOyjceo",
          "id" : "4XUltzTgP8sMvgKTOyjceo",
          "name" : "Discovery Singers",
          "type" : "artist",
          "uri" : "spotify:artist:4XUltzTgP8sMvgKTOyjceo"
        } ],
        "external_urls" : {
          "spotify" : "https://open.spotify.com/album/7MkkBOrsWzE1cUqoPPXn5Y"
        },
        "href" : "https://api.spotify.com/v1/albums/7MkkBOrsWzE1cUqoPPXn5Y",
        "id" : "7MkkBOrsWzE1cUqoPPXn5Y",
        "images" : [ {
          "height" : 640,
          "url" : "https://i.scdn.co/image/ab67616d0000b2731b7a9f0562a2068f6572f0f3",
          "width" : 640
        }, {
          "height" : 300,
          "url" : "https://i.scdn.co/image/ab67616d00001e021b7a9f0562a2068f6572f0f3",
          "width" : 300
        }, {
          "height" : 64,
          "url" : "https://i.scdn.co/image/ab67616d000048511b7a9f0562a2068f6572f0f3",
          "width" : 64
        } ],
        "name" : "Hymns You Know and Love",
        "release_date" : "2010-02-01",
        "release_date_precision" : "day",
        "total_tracks" : 40,
        "type" : "album",
        "uri" : "spotify:album:7MkkBOrsWzE1cUqoPPXn5Y"
      },
      "artists" : [ {
        "external_urls" : {
          "spotify" : "https://open.spotify.com/artist/4XUltzTgP8sMvgKTOyjceo"
        },
        "href" : "https://api.spotify.com/v1/artists/4XUltzTgP8sMvgKTOyjceo",
        "id" : "4XUltzTgP8sMvgKTOyjceo",
        "name" : "Discovery Singers",
        "type" : "artist",
        "uri" : "spotify:artist:4XUltzTgP8sMvgKTOyjceo"
      } ],
      "disc_number" : 1,
      "duration_ms" : 185613,
      "explicit" : false,
      "external_ids" : {
        "isrc" : "USLF50801245"
      },
      "external_urls" : {
        "spotify" : "https://open.spotify.com/track/4X8ZHJsRqrNLQUAqSc9BEO"
      },
      "href" : "https://api.spotify.com/v1/tracks/4X8ZHJsRqrNLQUAqSc9BEO",
      "id" : "4X8ZHJsRqrNLQUAqSc9BEO",
      "is_local" : false,
      "is_playable" : true,
      "name" : "Under His Wings",
      "popularity" : 5,
      "preview_url" : "https://p.scdn.co/mp3-preview/a23faba8d67bedc1e157275ecd1bcbadc2163cc5?cid=774b29d4f13844c495f206cafdad9c86",
      "track_number" : 38,
      "type" : "track",
      "uri" : "spotify:track:4X8ZHJsRqrNLQUAqSc9BEO"
    } ],
    "limit" : 10,
    "next" : "https://api.spotify.com/v1/search?query=Under+His+Wings&type=track&market=US&offset=15&limit=10",
    "offset" : 5,
    "previous" : "https://api.spotify.com/v1/search?query=Under+His+Wings&type=track&market=US&offset=0&limit=10",
    "total" : 245
  }
}