{
  "tracks" : {
    "href" : "https://api.spotify.com/v1/search?query=Over+Yonder&type=track&market=US&offset=5&limit=10",
    "items" : [ {
      "album" : {
        "album_type" : "album",
        "artists" : [ {
          "external_urls" : {
            "spotify" : "https://open.spotify.com/artist/1YP1NgBkOUyqsOiIUBqOrr"
          },
          "href" : "https://api.spotify.com/v1/artists/1YP1NgBkOUyqsOiIUBqOrr",
          "id" : "1YP1NgBkOUyqsOiIUBqOrr",
          "name" : "Mr Dooves",
          "type" : "artist",
          "uri" : "spotify:artist:1YP1NgBkOUyqsOiIUBqOrr"
        } ],
        "external_urls" : {
          "spotify" : "https://open.spotify.com/album/3DpSZrsWuiyLiOyVZP5PFY"
        },
        "href" : "https://api.spotify.com/v1/albums/3DpSZrsWuiyLiOyVZP5PFY",
        "id" : "3DpSZrsWuiyLiOyVZP5PFY",
        "images" : [ {
          "height" : 640,
          "url" : "https://i.scdn.co/image/ab67616d0000b273a453b81aae4e0cd134e0042d",
          "width" : 640
        }, {
          "height" : 300,
          "url" : "https://i.scdn.co/image/ab67616d00001e02a453b81aae4e0cd134e0042d",
          "width" : 300
        }, {
          "height" : 64,
          "url" : "https://i.scdn.co/image/ab67616d00004851a453b81aae4e0cd134e0042d",
          "width" : 64
        } ],
        "name" : "Saturday Morning Acapella, Vol. 6",
        "release_date" : "2016-10-15",
        "release_date_precision" : "day",
        "total_tracks" : 22,
        "type" : "album",
        "uri" : "spotify:album:3DpSZrsWuiyLiOyVZP5PFY"
      },
      "artists" : [ {
        "external_urls" : {
          "spotify" : "https://open.spotify.com/artist/1YP1NgBkOUyqsOiIUBqOrr"
        },
        "href" : "https://api.spotify.com/v1/artists/1YP1NgBkOUyqsOiIUBqOrr",
        "id" : "1YP1NgBkOUyqsOiIUBqOrr",
        "name" : "Mr Dooves",
        "type" : "artist",
        "uri" : "spotify:artist:1YP1NgBkOUyqsOiIUBqOrr"
      } ],
      "disc_number" : 1,
      "duration_ms" : 31146,
      "explicit" : false,
      "external_ids" : {
        "isrc" : "USY281600680"
      },
      "external_urls" : {
        "spotify" : "https://open.spotify.com/track/3DERMUSwrvvAQJJtYlWWtN"
      },
      "href" : "https://api.spotify.com/v1/tracks/3DERMUSwrvvAQJJtYlWWtN",
      "id" : "3DERMUSwrvvAQJJtYlWWtN",
      "is_local" : false,
      "is_playable" : true,
      "name" : "Wander Over Yonder Season 2 Theme (From \"Wander Over Yonder\")",
      "popularity" : 20,
      "preview_url" : "https://p.scdn.co/mp3-preview/7d1423eadee74ed9d8ac0fe1b649e322b485581a?cid=774b29d4f13844c495f206cafdad9c86",
      "track_number" : 4,
      "type" : "track",
      "uri" : "spotify:track:3DERMUSwrvvAQJJtYlWWtN"
    }, {
      "album" : {
        "album_type" : "album",
        "artists" : [ {
          "external_urls" : {
            "spotify" : "https://open.spotify.com/artist/776Uo845nYHJpNaStv1Ds4"
          },
          "href" : "https://api.spotify.com/v1/artists/776Uo845nYHJpNaStv1Ds4",
          "id" : "776Uo845nYHJpNaStv1Ds4",
          "name" : "Jimi Hendrix",
          "type" : "artist",
          "uri" : "spotify:artist:776Uo845nYHJpNaStv1Ds4"
        } ],
        "external_urls" : {
          "spotify" : "https://open.spotify.com/album/2et0fTgbRp3w4Izzs4uVtz"
        },
        "href" : "https://api.spotify.com/v1/albums/2et0fTgbRp3w4Izzs4uVtz",
        "id" : "2et0fTgbRp3w4Izzs4uVtz",
        "images" : [ {
          "height" : 640,
          "url" : "https://i.scdn.co/image/ab67616d0000b27320a13bddf394768a532f5547",
          "width" : 640
        }, {
          "height" : 300,
          "url" : "https://i.scdn.co/image/ab67616d00001e0220a13bddf394768a532f5547",
          "width" : 300
        }, {
          "height" : 64,
          "url" : "https://i.scdn.co/image/ab67616d0000485120a13bddf394768a532f5547",
          "width" : 64
        } ],
        "name" : "Rainbow Bridge",
        "release_date" : "1971",
        "release_date_precision" : "year",
        "total_tracks" : 8,
        "type" : "album",
        "uri" : "spotify:album:2et0fTgbRp3w4Izzs4uVtz"
      },
      "artists" : [ {
        "external_urls" : {
          "spotify" : "https://open.spotify.com/artist/776Uo845nYHJpNaStv1Ds4"
        },
        "href" : "https://api.spotify.com/v1/artists/776Uo845nYHJpNaStv1Ds4",
        "id" : "776Uo845nYHJpNaStv1Ds4",
        "name" : "Jimi Hendrix",
        "type" : "artist",
        "uri" : "spotify:artist:776Uo845nYHJpNaStv1Ds4"
      } ],
      "disc_number" : 1,
      "duration_ms" : 204573,
      "explicit" : false,
      "external_ids" : {
        "isrc" : "USQX90900883"
      },
      "external_urls" : {
        "spotify" : "https://open.spotify.com/track/6FSpbq877oSoBULrd4Rzl7"
      },
      "href" : "https://api.spotify.com/v1/tracks/6FSpbq877oSoBULrd4Rzl7",
      "id" : "6FSpbq877oSoBULrd4Rzl7",
      "is_local" : false,
      "is_playable" : true,
      "name" : "Look Over Yonder",
      "popularity" : 23,
      "preview_url" : "https://p.scdn.co/mp3-preview/6c99c507561973b58a409eaf3fdb393e32e38120?cid=774b29d4f13844c495f206cafdad9c86",
      "track_number" : 6,
      "type" : "track",
      "uri" : "spotify:track:6FSpbq877oSoBULrd4Rzl7"
    }, {
      "album" : {
        "album_type" : "album",
        "artists" : [ {
          "external_urls" : {
            "spotify" : "https://open.spotify.com/artist/6Tw1ktF4xMmzaLLbe98I2z"
          },
          "href" : "https://api.spotify.com/v1/artists/6Tw1ktF4xMmzaLLbe98I2z",
          "id" : "6Tw1ktF4xMmzaLLbe98I2z",
          "name" : "Harry Belafonte",
          "type" : "artist",
          "uri" : "spotify:artist:6Tw1ktF4xMmzaLLbe98I2z"
        } ],
        "external_urls" : {
          "spotify" : "https://open.spotify.com/album/4HIvA72jYd4OVTeaulv3Lt"
        },
        "href" : "https://api.spotify.com/v1/albums/4HIvA72jYd4OVTeaulv3Lt",
        "id" : "4HIvA72jYd4OVTeaulv3Lt",
        "images" : [ {
          "height" : 640,
          "url" : "https://i.scdn.co/image/ab67616d0000b2730b426c78157939f5800e23be",
          "width" : 640
        }, {
          "height" : 300,
          "url" : "https://i.scdn.co/image/ab67616d00001e020b426c78157939f5800e23be",
          "width" : 300
        }, {
          "height" : 64,
          "url" : "https://i.scdn.co/image/ab67616d000048510b426c78157939f5800e23be",
          "width" : 64
        } ],
        "name" : "Swing Dat Hammer",
        "release_date" : "1960-03-25",
        "release_date_precision" : "day",
        "total_tracks" : 10,
        "type" : "album",
        "uri" : "spotify:album:4HIvA72jYd4OVTeaulv3Lt"
      },
      "artists" : [ {
        "external_urls" : {
          "spotify" : "https://open.spotify.com/artist/6Tw1ktF4xMmzaLLbe98I2z"
        },
        "href" : "https://api.spotify.com/v1/artists/6Tw1ktF4xMmzaLLbe98I2z",
        "id" : "6Tw1ktF4xMmzaLLbe98I2z",
        "name" : "Harry Belafonte",
        "type" : "artist",
        "uri" : "spotify:artist:6Tw1ktF4xMmzaLLbe98I2z"
      } ],
      "disc_number" : 1,
      "duration_ms" : 176301,
      "explicit" : false,
      "external_ids" : {
        "isrc" : "USRC11600078"
      },
      "external_urls" : {
        "spotify" : "https://open.spotify.com/track/4wzL81BP5k7dUCk1p78hgL"
      },
      "href" : "https://api.spotify.com/v1/tracks/4wzL81BP5k7dUCk1p78hgL",
      "id" : "4wzL81BP5k7dUCk1p78hgL",
      "is_local" : false,
      "is_playable" : true,
      "name" : "Look Over Yonder",
      "popularity" : 21,
      "preview_url" : "https://p.scdn.co/mp3-preview/cd60a943ef8bdbbd5f0511bd83de91c316991de3?cid=774b29d4f13844c495f206cafdad9c86",
      "track_number" : 1,
      "type" : "track",
      "uri" : "spotify:track:4wzL81BP5k7dUCk1p78hgL"
    }, {
      "album" : {
        "album_type" : "album",
        "artists" : [ {
          "external_urls" : {
            "spotify" : "https://open.spotify.com/artist/6kz7WuPaUa4QVreP27I33i"
          },
          "href" : "https://api.spotify.com/v1/artists/6kz7WuPaUa4QVreP27I33i",
          "id" : "6kz7WuPaUa4QVreP27I33i",
          "name" : "The Paul Butterfield Blues Band",
          "type" : "artist",
          "uri" : "spotify:artist:6kz7WuPaUa4QVreP27I33i"
        } ],
        "external_urls" : {
          "spotify" : "https://open.spotify.com/album/785WNIAl2zC3OZ6XHjFaIG"
        },
        "href" : "https://api.spotify.com/v1/albums/785WNIAl2zC3OZ6XHjFaIG",
        "id" : "785WNIAl2zC3OZ6XHjFaIG",
        "images" : [ {
          "height" : 640,
          "url" : "https://i.scdn.co/image/ab67616d0000b273d0a5c17238ebf766c2d0a79a",
          "width" : 640
        }, {
          "height" : 300,
          "url" : "https://i.scdn.co/image/ab67616d00001e02d0a5c17238ebf766c2d0a79a",
          "width" : 300
        }, {
          "height" : 64,
          "url" : "https://i.scdn.co/image/ab67616d00004851d0a5c17238ebf766c2d0a79a",
          "width" : 64
        } ],
        "name" : "The Paul Butterfield Blues Band",
        "release_date" : "1965",
        "release_date_precision" : "year",
        "total_tracks" : 11,
        "type" : "album",
        "uri" : "spotify:album:785WNIAl2zC3OZ6XHjFaIG"
      },
      "artists" : [ {
        "external_urls" : {
          "spotify" : "https://open.spotify.com/artist/6kz7WuPaUa4QVreP27I33i"
        },
        "href" : "https://api.spotify.com/v1/artists/6kz7WuPaUa4QVreP27I33i",
        "id" : "6kz7WuPaUa4QVreP27I33i",
        "name" : "The Paul Butterfield Blues Band",
        "type" : "artist",
        "uri" : "spotify:artist:6kz7WuPaUa4QVreP27I33i"
      } ],
      "disc_number" : 1,
      "duration_ms" : 147026,
      "explicit" : false,
      "external_ids" : {
        "isrc" : "USEE10182570"
      },
      "external_urls" : {
        "spotify" : "https://open.spotify.com/track/1rdiehJNRh2bxaA2JpbOhz"
      },
      "href" : "https://api.spotify.com/v1/tracks/1rdiehJNRh2bxaA2JpbOhz",
      "id" : "1rdiehJNRh2bxaA2JpbOhz",
      "is_local" : false,
      "is_playable" : true,
      "name" : "Look over Yonders Wall",
      "popularity" : 20,
      "preview_url" : "https://p.scdn.co/mp3-preview/1289dea82fcbccc1133ce4d7fcd2fd2d1a8ad2d0?cid=774b29d4f13844c495f206cafdad9c86",
      "track_number" : 11,
      "type" : "track",
      "uri" : "spotify:track:1rdiehJNRh2bxaA2JpbOhz"
    }, {
      "album" : {
        "album_type" : "compilation",
        "artists" : [ {
          "external_urls" : {
            "spotify" : "https://open.spotify.com/artist/1b1N51wmSK0ckxFAMPSSHO"
          },
          "href" : "https://api.spotify.com/v1/artists/1b1N51wmSK0ckxFAMPSSHO",
          "id" : "1b1N51wmSK0ckxFAMPSSHO",
          "name" : "The Impressions",
          "type" : "artist",
          "uri" : "spotify:artist:1b1N51wmSK0ckxFAMPSSHO"
        } ],
        "external_urls" : {
          "spotify" : "https://open.spotify.com/album/6ywCMi95jUcEqk4ur0taYo"
        },
        "href" : "https://api.spotify.com/v1/albums/6ywCMi95jUcEqk4ur0taYo",
        "id" : "6ywCMi95jUcEqk4ur0taYo",
        "images" : [ {
          "height" : 640,
          "url" : "https://i.scdn.co/image/ab67616d0000b2737dd29630ee8d2efc01dd28da",
          "width" : 640
        }, {
          "height" : 300,
          "url" : "https://i.scdn.co/image/ab67616d00001e027dd29630ee8d2efc01dd28da",
          "width" : 300
        }, {
          "height" : 64,
          "url" : "https://i.scdn.co/image/ab67616d000048517dd29630ee8d2efc01dd28da",
          "width" : 64
        } ],
        "name" : "People Get Ready: The Best Of The Impressions Featuring Curtis Mayfield 1961 - 1968",
        "release_date" : "1997-01-01",
        "release_date_precision" : "day",
        "total_tracks" : 23,
        "type" : "album",
        "uri" : "spotify:album:6ywCMi95jUcEqk4ur0taYo"
      },
      "artists" : [ {
        "external_urls" : {
          "spotify" : "https://open.spotify.com/artist/1b1N51wmSK0ckxFAMPSSHO"
        },
        "href" : "https://api.spotify.com/v1/artists/1b1N51wmSK0ckxFAMPSSHO",
        "id" : "1b1N51wmSK0ckxFAMPSSHO",
        "name" : "The Impressions",
        "type" : "artist",
        "uri" : "spotify:artist:1b1N51wmSK0ckxFAMPSSHO"
      } ],
      "disc_number" : 1,
      "duration_ms" : 138693,
      "explicit" : false,
      "external_ids" : {
        "isrc" : "USMC16548276"
      },
      "external_urls" : {
        "spotify" : "https://open.spotify.com/track/67GjAr4MsMZgYuNW0pX1fk"
      },
      "href" : "https://api.spotify.com/v1/tracks/67GjAr4MsMZgYuNW0pX1fk",
      "id" : "67GjAr4MsMZgYuNW0pX1fk",
      "is_local" : false,
      "is_playable" : true,
      "name" : "Meeting Over Yonder",
      "popularity" : 18,
      "preview_url" : null,
      "track_number" : 18,
      "type" : "track",
      "uri" : "spotify:track:67GjAr4MsMZgYuNW0pX1fk"
    }, {
      "album" : {
        "album_type" : "album",
        "artists" : [ {
          "external_urls" : {
            "spotify" : "https://open.spotify.com/artist/319yZVtYM9MBGqmSQnMyY6"
          },
          "href" : "https://api.spotify.com/v1/artists/319yZVtYM9MBGqmSQnMyY6",
          "id" : "319yZVtYM9MBGqmSQnMyY6",
          "name" : "Carole King",
          "type" : "artist",
          "uri" : "spotify:artist:319yZVtYM9MBGqmSQnMyY6"
        } ],
        "external_urls" : {
          "spotify" : "https://open.spotify.com/album/5heXFgv5OzxPWY6kUGkpPk"
        },
        "href" : "https://api.spotify.com/v1/albums/5heXFgv5OzxPWY6kUGkpPk",
        "id" : "5heXFgv5OzxPWY6kUGkpPk",
        "images" : [ {
          "height" : 640,
          "url" : "https://i.scdn.co/image/ab67616d0000b2733876c4325762d0a75bbce66b",
          "width" : 640
        }, {
          "height" : 300,
          "url" : "https://i.scdn.co/image/ab67616d00001e023876c4325762d0a75bbce66b",
          "width" : 300
        }, {
          "height" : 64,
          "url" : "https://i.scdn.co/image/ab67616d000048513876c4325762d0a75bbce66b",
          "width" : 64
        } ],
        "name" : "Tapestry: Live in Hyde Park",
        "release_date" : "2017-09-15",
        "release_date_precision" : "day",
        "total_tracks" : 21,
        "type" : "album",
        "uri" : "spotify:album:5heXFgv5OzxPWY6kUGkpPk"
      },
      "artists" : [ {
        "external_urls" : {
          "spotify" : "https://open.spotify.com/artist/319yZVtYM9MBGqmSQnMyY6"
        },
        "href" : "https://api.spotify.com/v1/artists/319yZVtYM9MBGqmSQnMyY6",
        "id" : "319yZVtYM9MBGqmSQnMyY6",
        "name" : "Carole King",
        "type" : "artist",
        "uri" : "spotify:artist:319yZVtYM9MBGqmSQnMyY6"
      } ],
      "disc_number" : 1,
      "duration_ms" : 271000,
      "explicit" : false,
      "external_ids" : {
        "isrc" : "USQX91701511"
      },
      "external_urls" : {
        "spotify" : "https://open.spotify.com/track/0Xvh4VEGqjksrMIgav1A6y"
      },
      "href" : "https://api.spotify.com/v1/tracks/0Xvh4VEGqjksrMIgav1A6y",
      "id" : "0Xvh4VEGqjksrMIgav1A6y",
      "is_local" : false,
      "is_playable" : true,
      "name" : "Way over Yonder - Live",
      "popularity" : 19,
      "preview_url" : "https://p.scdn.co/mp3-preview/720b99afac32f3585733eff9db4f0a3b38c150d0?cid=774b29d4f13844c495f206cafdad9c86",
      "track_number" : 6,
      "type" : "track",
      "uri" : "spotify:track:0Xvh4VEGqjksrMIgav1A6y"
    }, {
      "album" : {
        "album_type" : "album",
        "artists" : [ {
          "external_urls" : {
            "spotify" : "https://open.spotify.com/artist/04afWRg7KofT5Ae0W1kjpU"
          },
          "href" : "https://api.spotify.com/v1/artists/04afWRg7KofT5Ae0W1kjpU",
          "id" : "04afWRg7KofT5Ae0W1kjpU",
          "name" : "Shanneyganock",
          "type" : "artist",
          "uri" : "spotify:artist:04afWRg7KofT5Ae0W1kjpU"
        } ],
        "external_urls" : {
          "spotify" : "https://open.spotify.com/album/5I6NBaUND82ZKioDuG1fMW"
        },
        "href" : "https://api.spotify.com/v1/albums/5I6NBaUND82ZKioDuG1fMW",
        "id" : "5I6NBaUND82ZKioDuG1fMW",
        "images" : [ {
          "height" : 640,
          "url" : "https://i.scdn.co/image/ab67616d0000b2735f1967fe1112137a266062e2",
          "width" : 640
        }, {
          "height" : 300,
          "url" : "https://i.scdn.co/image/ab67616d00001e025f1967fe1112137a266062e2",
          "width" : 300
        }, {
          "height" : 64,
          "url" : "https://i.scdn.co/image/ab67616d000048515f1967fe1112137a266062e2",
          "width" : 64
        } ],
        "name" : "Volume VII",
        "release_date" : "2009-04-28",
        "release_date_precision" : "day",
        "total_tracks" : 14,
        "type" : "album",
        "uri" : "spotify:album:5I6NBaUND82ZKioDuG1fMW"
      },
      "artists" : [ {
        "external_urls" : {
          "spotify" : "https://open.spotify.com/artist/04afWRg7KofT5Ae0W1kjpU"
        },
        "href" : "https://api.spotify.com/v1/artists/04afWRg7KofT5Ae0W1kjpU",
        "id" : "04afWRg7KofT5Ae0W1kjpU",
        "name" : "Shanneyganock",
        "type" : "artist",
        "uri" : "spotify:artist:04afWRg7KofT5Ae0W1kjpU"
      } ],
      "disc_number" : 1,
      "duration_ms" : 263173,
      "explicit" : false,
      "external_ids" : {
        "isrc" : "uscgj0939745"
      },
      "external_urls" : {
        "spotify" : "https://open.spotify.com/track/15m9hlfYZQbl5sdpyolslh"
      },
      "href" : "https://api.spotify.com/v1/tracks/15m9hlfYZQbl5sdpyolslh",
      "id" : "15m9hlfYZQbl5sdpyolslh",
      "is_local" : false,
      "is_playable" : true,
      "name" : "Way Over Yonder",
      "popularity" : 21,
      "preview_url" : "https://p.scdn.co/mp3-preview/f1c739f4ad897c8a197b482fb4c22898d7b5d025?cid=774b29d4f13844c495f206cafdad9c86",
      "track_number" : 3,
      "type" : "track",
      "uri" : "spotify:track:15m9hlfYZQbl5sdpyolslh"
    }, {
      "album" : {
        "album_type" : "album",
        "artists" : [ {
          "external_urls" : {
            "spotify" : "https://open.spotify.com/artist/1ReHC2jB2DGoPbMYhzuFuO"
          },
          "href" : "https://api.spotify.com/v1/artists/1ReHC2jB2DGoPbMYhzuFuO",
          "id" : "1ReHC2jB2DGoPbMYhzuFuO",
          "name" : "Yonder Mountain String Band",
          "type" : "artist",
          "uri" : "spotify:artist:1ReHC2jB2DGoPbMYhzuFuO"
        } ],
        "external_urls" : {
          "spotify" : "https://open.spotify.com/album/1iCzs34DDsNtFkojPmmqxp"
        },
        "href" : "https://api.spotify.com/v1/albums/1iCzs34DDsNtFkojPmmqxp",
        "id" : "1iCzs34DDsNtFkojPmmqxp",
        "images" : [ {
          "height" : 640,
          "url" : "https://i.scdn.co/image/ab67616d0000b2732f2f8328017a825b21e2b847",
          "width" : 640
        }, {
          "height" : 300,
          "url" : "https://i.scdn.co/image/ab67616d00001e022f2f8328017a825b21e2b847",
          "width" : 300
        }, {
          "height" : 64,
          "url" : "https://i.scdn.co/image/ab67616d000048512f2f8328017a825b21e2b847",
          "width" : 64
        } ],
        "name" : "Mountain Tracks, Vol. 5",
        "release_date" : "2008-04-15",
        "release_date_precision" : "day",
        "total_tracks" : 24,
        "type" : "album",
        "uri" : "spotify:album:1iCzs34DDsNtFkojPmmqxp"
      },
      "artists" : [ {
        "external_urls" : {
          "spotify" : "https://open.spotify.com/artist/1ReHC2jB2DGoPbMYhzuFuO"
        },
        "href" : "https://api.spotify.com/v1/artists/1ReHC2jB2DGoPbMYhzuFuO",
        "id" : "1ReHC2jB2DGoPbMYhzuFuO",
        "name" : "Yonder Mountain String Band",
        "type" : "artist",
        "uri" : "spotify:artist:1ReHC2jB2DGoPbMYhzuFuO"
      } ],
      "disc_number" : 2,
      "duration_ms" : 471746,
      "explicit" : false,
      "external_ids" : {
        "isrc" : "USEPY0910023"
      },
      "external_urls" : {
        "spotify" : "https://open.spotify.com/track/49w0LPIrPWopBAnLO5BIqs"
      },
      "href" : "https://api.spotify.com/v1/tracks/49w0LPIrPWopBAnLO5BIqs",
      "id" : "49w0LPIrPWopBAnLO5BIqs",
      "is_local" : false,
      "is_playable" : true,
      "name" : "Looking Back over My Shoulder",
      "popularity" : 18,
      "preview_url" : "https://p.scdn.co/mp3-preview/f38a511f222fafa973ccbdeeca38b08fa625c976?cid=774b29d4f13844c495f206cafdad9c86",
      "track_number" : 10,
      "type" : "track",
      "uri" : "spotify:track:49w0LPIrPWopBAnLO5BIqs"
    }, {
      "album" : {
        "album_type" : "album",
        "artists" : [ {
          "external_urls" : {
            "spotify" : "https://open.spotify.com/artist/1QprPHaA4KZp46e7Nvy18J"
          },
          "href" : "https://api.spotify.com/v1/artists/1QprPHaA4KZp46e7Nvy18J",
          "id" : "1QprPHaA4KZp46e7Nvy18J",
          "name" : "21st Century Ox",
          "type" : "artist",
          "uri" : "spotify:artist:1QprPHaA4KZp46e7Nvy18J"
        } ],
        "external_urls" : {
          "spotify" : "https://open.spotify.com/album/62Xnwhv8ufArOs66tfMTwk"
        },
        "href" : "https://api.spotify.com/v1/albums/62Xnwhv8ufArOs66tfMTwk",
        "id" : "62Xnwhv8ufArOs66tfMTwk",
        "images" : [ {
          "height" : 640,
          "url" : "https://i.scdn.co/image/ab67616d0000b273c9f0f67a905ff0e7a3a0c8b6",
          "width" : 640
        }, {
          "height" : 300,
          "url" : "https://i.scdn.co/image/ab67616d00001e02c9f0f67a905ff0e7a3a0c8b6",
          "width" : 300
        }, {
          "height" : 64,
          "url" : "https://i.scdn.co/image/ab67616d00004851c9f0f67a905ff0e7a3a0c8b6",
          "width" : 64
        } ],
        "name" : "The Very Least Worst Of...",
        "release_date" : "2020-05-20",
        "release_date_precision" : "day",
        "total_tracks" : 15,
        "type" : "album",
        "uri" : "spotify:album:62Xnwhv8ufArOs66tfMTwk"
      },
      "artists" : [ {
        "external_urls" : {
          "spotify" : "https://open.spotify.com/artist/1QprPHaA4KZp46e7Nvy18J"
        },
        "href" : "https://api.spotify.com/v1/artists/1QprPHaA4KZp46e7Nvy18J",
        "id" : "1QprPHaA4KZp46e7Nvy18J",
        "name" : "21st Century Ox",
        "type" : "artist",
        "uri" : "spotify:artist:1QprPHaA4KZp46e7Nvy18J"
      } ],
      "disc_number" : 1,
      "duration_ms" : 150636,
      "explicit" : false,
      "external_ids" : {
        "isrc" : "usdy42093172"
      },
      "external_urls" : {
        "spotify" : "https://open.spotify.com/track/1AtcYtchkFEO2QGexOCWxT"
      },
      "href" : "https://api.spotify.com/v1/tracks/1AtcYtchkFEO2QGexOCWxT",
      "id" : "1AtcYtchkFEO2QGexOCWxT",
      "is_local" : false,
      "is_playable" : true,
      "name" : "Jimmy Carter Flies over Yonder",
      "popularity" : 0,
      "preview_url" : "https://p.scdn.co/mp3-preview/c2f4a8b694e235e3433dae5607cb6227f47ea767?cid=774b29d4f13844c495f206cafdad9c86",
      "track_number" : 7,
      "type" : "track",
      "uri" : "spotify:track:1AtcYtchkFEO2QGexOCWxT"
    }, {
      "album" : {
        "album_type" : "compilation",
        "artists" : [ {
          "external_urls" : {
            "spotify" : "https://open.spotify.com/artist/5yXAFDZNUNyO92l5WTImkO"
          },
          "href" : "https://api.spotify.com/v1/artists/5yXAFDZNUNyO92l5WTImkO",
          "id" : "5yXAFDZNUNyO92l5WTImkO",
          "name" : "Billy Bragg",
          "type" : "artist",
          "uri" : "spotify:artist:5yXAFDZNUNyO92l5WTImkO"
        }, {
          "external_urls" : {
            "spotify" : "https://open.spotify.com/artist/2QoU3awHVdcHS8LrZEKvSM"
          },
          "href" : "https://api.spotify.com/v1/artists/2QoU3awHVdcHS8LrZEKvSM",
          "id" : "2QoU3awHVdcHS8LrZEKvSM",
          "name" : "Wilco",
          "type" : "artist",
          "uri" : "spotify:artist:2QoU3awHVdcHS8LrZEKvSM"
        } ],
        "external_urls" : {
          "spotify" : "https://open.spotify.com/album/7uSgX0fbBol4NDyqsSZJaE"
        },
        "href" : "https://api.spotify.com/v1/albums/7uSgX0fbBol4NDyqsSZJaE",
        "id" : "7uSgX0fbBol4NDyqsSZJaE",
        "images" : [ {
          "height" : 640,
          "url" : "https://i.scdn.co/image/ab67616d0000b27352f176f3c086aa9148bf1062",
          "width" : 640
        }, {
          "height" : 300,
          "url" : "https://i.scdn.co/image/ab67616d00001e0252f176f3c086aa9148bf1062",
          "width" : 300
        }, {
          "height" : 64,
          "url" : "https://i.scdn.co/image/ab67616d0000485152f176f3c086aa9148bf1062",
          "width" : 64
        } ],
        "name" : "Mermaid Avenue: The Complete Sessions",
        "release_date" : "2012-04-20",
        "release_date_precision" : "day",
        "total_tracks" : 47,
        "type" : "album",
        "uri" : "spotify:album:7uSgX0fbBol4NDyqsSZJaE"
      },
      "artists" : [ {
        "external_urls" : {
          "spotify" : "https://open.spotify.com/artist/5yXAFDZNUNyO92l5WTImkO"
        },
        "href" : "https://api.spotify.com/v1/artists/5yXAFDZNUNyO92l5WTImkO",
        "id" : "5yXAFDZNUNyO92l5WTImkO",
        "name" : "Billy Bragg",
        "type" : "artist",
        "uri" : "spotify:artist:5yXAFDZNUNyO92l5WTImkO"
      }, {
        "external_urls" : {
          "spotify" : "https://open.spotify.com/artist/2QoU3awHVdcHS8LrZEKvSM"
        },
        "href" : "https://api.spotify.com/v1/artists/2QoU3awHVdcHS8LrZEKvSM",
        "id" : "2QoU3awHVdcHS8LrZEKvSM",
        "name" : "Wilco",
        "type" : "artist",
        "uri" : "spotify:artist:2QoU3awHVdcHS8LrZEKvSM"
      } ],
      "disc_number" : 1,
      "duration_ms" : 247853,
      "explicit" : false,
      "external_ids" : {
        "isrc" : "USEE19800060"
      },
      "external_urls" : {
        "spotify" : "https://open.spotify.com/track/0gs7Dvwm2wlzV5G0ruOjls"
      },
      "href" : "https://api.spotify.com/v1/tracks/0gs7Dvwm2wlzV5G0ruOjls",
      "id" : "0gs7Dvwm2wlzV5G0ruOjls",
      "is_local" : false,
      "is_playable" : true,
      "name" : "Way over Yonder in the Minor Key",
      "popularity" : 27,
      "preview_url" : "https://p.scdn.co/mp3-preview/b2dd75da3f873ce35a516301ab57d51973d92356?cid=774b29d4f13844c495f206cafdad9c86",
      "track_number" : 3,
      "type" : "track",
      "uri" : "spotify:track:0gs7Dvwm2wlzV5G0ruOjls"
    } ],
    "limit" : 10,
    "next" : "https://api.spotify.com/v1/search?query=Over+Yonder&type=track&market=US&offset=15&limit=10",
    "offset" : 5,
    "previous" : "https://api.spotify.com/v1/search?query=Over+Yonder&type=track&market=US&offset=0&limit=10",
    "total" : 696
  }
}