{
  "tracks" : {
    "href" : "https://api.spotify.com/v1/search?query=Savior%2C+Like+a+Shepherd&type=track&market=US&offset=5&limit=10",
    "items" : [ {
      "album" : {
        "album_type" : "album",
        "artists" : [ {
          "external_urls" : {
            "spotify" : "https://open.spotify.com/artist/5Z7ndTqS6EPzpNn322s0Nw"
          },
          "href" : "https://api.spotify.com/v1/artists/5Z7ndTqS6EPzpNn322s0Nw",
          "id" : "5Z7ndTqS6EPzpNn322s0Nw",
          "name" : "Jaime Jorge",
          "type" : "artist",
          "uri" : "spotify:artist:5Z7ndTqS6EPzpNn322s0Nw"
        } ],
        "external_urls" : {
          "spotify" : "https://open.spotify.com/album/4H2NOUg8qmYjjmgNP0u4or"
        },
        "href" : "https://api.spotify.com/v1/albums/4H2NOUg8qmYjjmgNP0u4or",
        "id" : "4H2NOUg8qmYjjmgNP0u4or",
        "images" : [ {
          "height" : 640,
          "url" : "https://i.scdn.co/image/ab67616d0000b273e13d4a0caafb63247563a020",
          "width" : 640
        }, {
          "height" : 300,
          "url" : "https://i.scdn.co/image/ab67616d00001e02e13d4a0caafb63247563a020",
          "width" : 300
        }, {
          "height" : 64,
          "url" : "https://i.scdn.co/image/ab67616d00004851e13d4a0caafb63247563a020",
          "width" : 64
        } ],
        "name" : "Softly & Tenderly",
        "release_date" : "2003",
        "release_date_precision" : "year",
        "total_tracks" : 12,
        "type" : "album",
        "uri" : "spotify:album:4H2NOUg8qmYjjmgNP0u4or"
      },
      "artists" : [ {
        "external_urls" : {
          "spotify" : "https://open.spotify.com/artist/5Z7ndTqS6EPzpNn322s0Nw"
        },
        "href" : "https://api.spotify.com/v1/artists/5Z7ndTqS6EPzpNn322s0Nw",
        "id" : "5Z7ndTqS6EPzpNn322s0Nw",
        "name" : "Jaime Jorge",
        "type" : "artist",
        "uri" : "spotify:artist:5Z7ndTqS6EPzpNn322s0Nw"
      } ],
      "disc_number" : 1,
      "duration_ms" : 225573,
      "explicit" : false,
      "external_ids" : {
        "isrc" : "uscgh0926333"
      },
      "external_urls" : {
        "spotify" : "https://open.spotify.com/track/46YttVjlFFENSxPLLBZguD"
      },
      "href" : "https://api.spotify.com/v1/tracks/46YttVjlFFENSxPLLBZguD",
      "id" : "46YttVjlFFENSxPLLBZguD",
      "is_local" : false,
      "is_playable" : true,
      "name" : "Savior, Like A Shepherd Lead Us",
      "popularity" : 26,
      "preview_url" : "https://p.scdn.co/mp3-preview/da7950f6cf2b5224ef17856d445b8b5cd973d106?cid=774b29d4f13844c495f206cafdad9c86",
      "track_number" : 4,
      "type" : "track",
      "uri" : "spotify:track:46YttVjlFFENSxPLLBZguD"
    }, {
      "album" : {
        "album_type" : "album",
        "artists" : [ {
          "external_urls" : {
            "spotify" : "https://open.spotify.com/artist/35BVX3ZVsG9OwU10s3r7IA"
          },
          "href" : "https://api.spotify.com/v1/artists/35BVX3ZVsG9OwU10s3r7IA",
          "id" : "35BVX3ZVsG9OwU10s3r7IA",
          "name" : "JuJu Song",
          "type" : "artist",
          "uri" : "spotify:artist:35BVX3ZVsG9OwU10s3r7IA"
        } ],
        "external_urls" : {
          "spotify" : "https://open.spotify.com/album/5fEpjbIOYoOFKtadUJoEE8"
        },
        "href" : "https://api.spotify.com/v1/albums/5fEpjbIOYoOFKtadUJoEE8",
        "id" : "5fEpjbIOYoOFKtadUJoEE8",
        "images" : [ {
          "height" : 640,
          "url" : "https://i.scdn.co/image/ab67616d0000b2732f82d8cba931695d76ab83f1",
          "width" : 640
        }, {
          "height" : 300,
          "url" : "https://i.scdn.co/image/ab67616d00001e022f82d8cba931695d76ab83f1",
          "width" : 300
        }, {
          "height" : 64,
          "url" : "https://i.scdn.co/image/ab67616d000048512f82d8cba931695d76ab83f1",
          "width" : 64
        } ],
        "name" : "Jazz Meets Hymns",
        "release_date" : "2006-09-05",
        "release_date_precision" : "day",
        "total_tracks" : 12,
        "type" : "album",
        "uri" : "spotify:album:5fEpjbIOYoOFKtadUJoEE8"
      },
      "artists" : [ {
        "external_urls" : {
          "spotify" : "https://open.spotify.com/artist/35BVX3ZVsG9OwU10s3r7IA"
        },
        "href" : "https://api.spotify.com/v1/artists/35BVX3ZVsG9OwU10s3r7IA",
        "id" : "35BVX3ZVsG9OwU10s3r7IA",
        "name" : "JuJu Song",
        "type" : "artist",
        "uri" : "spotify:artist:35BVX3ZVsG9OwU10s3r7IA"
      } ],
      "disc_number" : 1,
      "duration_ms" : 184680,
      "explicit" : false,
      "external_ids" : {
        "isrc" : "USACX1302695"
      },
      "external_urls" : {
        "spotify" : "https://open.spotify.com/track/3zQB6XmGHZEGcoCeWCD1KS"
      },
      "href" : "https://api.spotify.com/v1/tracks/3zQB6XmGHZEGcoCeWCD1KS",
      "id" : "3zQB6XmGHZEGcoCeWCD1KS",
      "is_local" : false,
      "is_playable" : true,
      "name" : "Savior, Like A Shepherd Lead Us",
      "popularity" : 19,
      "preview_url" : "https://p.scdn.co/mp3-preview/d3f1f8cf3ccde84771b1f1988a207ba45454792c?cid=774b29d4f13844c495f206cafdad9c86",
      "track_number" : 9,
      "type" : "track",
      "uri" : "spotify:track:3zQB6XmGHZEGcoCeWCD1KS"
    }, {
      "album" : {
        "album_type" : "album",
        "artists" : [ {
          "external_urls" : {
            "spotify" : "https://open.spotify.com/artist/71WdmiUGtujRDl2Iiocpvy"
          },
          "href" : "https://api.spotify.com/v1/artists/71WdmiUGtujRDl2Iiocpvy",
          "id" : "71WdmiUGtujRDl2Iiocpvy",
          "name" : "Samuel Mitchell",
          "type" : "artist",
          "uri" : "spotify:artist:71WdmiUGtujRDl2Iiocpvy"
        } ],
        "external_urls" : {
          "spotify" : "https://open.spotify.com/album/3mZ0NhI2uQ9Qc4pwTifsJJ"
        },
        "href" : "https://api.spotify.com/v1/albums/3mZ0NhI2uQ9Qc4pwTifsJJ",
        "id" : "3mZ0NhI2uQ9Qc4pwTifsJJ",
        "images" : [ {
          "height" : 640,
          "url" : "https://i.scdn.co/image/ab67616d0000b273cbb9a49b1f308eb023d998b0",
          "width" : 640
        }, {
          "height" : 300,
          "url" : "https://i.scdn.co/image/ab67616d00001e02cbb9a49b1f308eb023d998b0",
          "width" : 300
        }, {
          "height" : 64,
          "url" : "https://i.scdn.co/image/ab67616d00004851cbb9a49b1f308eb023d998b0",
          "width" : 64
        } ],
        "name" : "Quiet Rest",
        "release_date" : "2020-05-25",
        "release_date_precision" : "day",
        "total_tracks" : 13,
        "type" : "album",
        "uri" : "spotify:album:3mZ0NhI2uQ9Qc4pwTifsJJ"
      },
      "artists" : [ {
        "external_urls" : {
          "spotify" : "https://open.spotify.com/artist/71WdmiUGtujRDl2Iiocpvy"
        },
        "href" : "https://api.spotify.com/v1/artists/71WdmiUGtujRDl2Iiocpvy",
        "id" : "71WdmiUGtujRDl2Iiocpvy",
        "name" : "Samuel Mitchell",
        "type" : "artist",
        "uri" : "spotify:artist:71WdmiUGtujRDl2Iiocpvy"
      } ],
      "disc_number" : 1,
      "duration_ms" : 200720,
      "explicit" : false,
      "external_ids" : {
        "isrc" : "ushm22017915"
      },
      "external_urls" : {
        "spotify" : "https://open.spotify.com/track/1VD2gzFi2pXuKSNb9hJqI4"
      },
      "href" : "https://api.spotify.com/v1/tracks/1VD2gzFi2pXuKSNb9hJqI4",
      "id" : "1VD2gzFi2pXuKSNb9hJqI4",
      "is_local" : false,
      "is_playable" : true,
      "name" : "Savior, Like a Shepherd Lead Us",
      "popularity" : 0,
      "preview_url" : "https://p.scdn.co/mp3-preview/6a86b8e613cb2052e7ae49317765ea973d2183ad?cid=774b29d4f13844c495f206cafdad9c86",
      "track_number" : 13,
      "type" : "track",
      "uri" : "spotify:track:1VD2gzFi2pXuKSNb9hJqI4"
    }, {
      "album" : {
        "album_type" : "album",
        "artists" : [ {
          "external_urls" : {
            "spotify" : "https://open.spotify.com/artist/7Mp8PFsxRMDtihoQEVCv3a"
          },
          "href" : "https://api.spotify.com/v1/artists/7Mp8PFsxRMDtihoQEVCv3a",
          "id" : "7Mp8PFsxRMDtihoQEVCv3a",
          "name" : "Mark D. Yentzer",
          "type" : "artist",
          "uri" : "spotify:artist:7Mp8PFsxRMDtihoQEVCv3a"
        } ],
        "external_urls" : {
          "spotify" : "https://open.spotify.com/album/4R0V1kdLmtMF7wHxe1YF7X"
        },
        "href" : "https://api.spotify.com/v1/albums/4R0V1kdLmtMF7wHxe1YF7X",
        "id" : "4R0V1kdLmtMF7wHxe1YF7X",
        "images" : [ {
          "height" : 640,
          "url" : "https://i.scdn.co/image/ab67616d0000b2730dd185b29977621e321b0303",
          "width" : 640
        }, {
          "height" : 300,
          "url" : "https://i.scdn.co/image/ab67616d00001e020dd185b29977621e321b0303",
          "width" : 300
        }, {
          "height" : 64,
          "url" : "https://i.scdn.co/image/ab67616d000048510dd185b29977621e321b0303",
          "width" : 64
        } ],
        "name" : "Gentle Whisper",
        "release_date" : "2020-05-15",
        "release_date_precision" : "day",
        "total_tracks" : 15,
        "type" : "album",
        "uri" : "spotify:album:4R0V1kdLmtMF7wHxe1YF7X"
      },
      "artists" : [ {
        "external_urls" : {
          "spotify" : "https://open.spotify.com/artist/7Mp8PFsxRMDtihoQEVCv3a"
        },
        "href" : "https://api.spotify.com/v1/artists/7Mp8PFsxRMDtihoQEVCv3a",
        "id" : "7Mp8PFsxRMDtihoQEVCv3a",
        "name" : "Mark D. Yentzer",
        "type" : "artist",
        "uri" : "spotify:artist:7Mp8PFsxRMDtihoQEVCv3a"
      } ],
      "disc_number" : 1,
      "duration_ms" : 111426,
      "explicit" : false,
      "external_ids" : {
        "isrc" : "GBWUL2090903"
      },
      "external_urls" : {
        "spotify" : "https://open.spotify.com/track/2SigQlz6tYg4km7t7tlplb"
      },
      "href" : "https://api.spotify.com/v1/tracks/2SigQlz6tYg4km7t7tlplb",
      "id" : "2SigQlz6tYg4km7t7tlplb",
      "is_local" : false,
      "is_playable" : true,
      "name" : "Savior Like A Shepherd, Lead Us",
      "popularity" : 0,
      "preview_url" : "https://p.scdn.co/mp3-preview/a83fa0bf63c374c22497f96261cc98d9242556dc?cid=774b29d4f13844c495f206cafdad9c86",
      "track_number" : 13,
      "type" : "track",
      "uri" : "spotify:track:2SigQlz6tYg4km7t7tlplb"
    }, {
      "album" : {
        "album_type" : "compilation",
        "artists" : [ {
          "external_urls" : {
            "spotify" : "https://open.spotify.com/artist/1PCJfBD2SVVE8cGqpg1pC9"
          },
          "href" : "https://api.spotify.com/v1/artists/1PCJfBD2SVVE8cGqpg1pC9",
          "id" : "1PCJfBD2SVVE8cGqpg1pC9",
          "name" : "Hal Wright",
          "type" : "artist",
          "uri" : "spotify:artist:1PCJfBD2SVVE8cGqpg1pC9"
        } ],
        "external_urls" : {
          "spotify" : "https://open.spotify.com/album/2sKmZ8kxh0qxQCf0qlvylw"
        },
        "href" : "https://api.spotify.com/v1/albums/2sKmZ8kxh0qxQCf0qlvylw",
        "id" : "2sKmZ8kxh0qxQCf0qlvylw",
        "images" : [ {
          "height" : 640,
          "url" : "https://i.scdn.co/image/ab67616d0000b2739bd7b37123792b83e0235c59",
          "width" : 640
        }, {
          "height" : 300,
          "url" : "https://i.scdn.co/image/ab67616d00001e029bd7b37123792b83e0235c59",
          "width" : 300
        }, {
          "height" : 64,
          "url" : "https://i.scdn.co/image/ab67616d000048519bd7b37123792b83e0235c59",
          "width" : 64
        } ],
        "name" : "Instrumental Hymns 3",
        "release_date" : "2020-05-22",
        "release_date_precision" : "day",
        "total_tracks" : 25,
        "type" : "album",
        "uri" : "spotify:album:2sKmZ8kxh0qxQCf0qlvylw"
      },
      "artists" : [ {
        "external_urls" : {
          "spotify" : "https://open.spotify.com/artist/1PCJfBD2SVVE8cGqpg1pC9"
        },
        "href" : "https://api.spotify.com/v1/artists/1PCJfBD2SVVE8cGqpg1pC9",
        "id" : "1PCJfBD2SVVE8cGqpg1pC9",
        "name" : "Hal Wright",
        "type" : "artist",
        "uri" : "spotify:artist:1PCJfBD2SVVE8cGqpg1pC9"
      }, {
        "external_urls" : {
          "spotify" : "https://open.spotify.com/artist/5Aerx1PdoW4F5Yvrus4bDE"
        },
        "href" : "https://api.spotify.com/v1/artists/5Aerx1PdoW4F5Yvrus4bDE",
        "id" : "5Aerx1PdoW4F5Yvrus4bDE",
        "name" : "Twin Sisters",
        "type" : "artist",
        "uri" : "spotify:artist:5Aerx1PdoW4F5Yvrus4bDE"
      } ],
      "disc_number" : 1,
      "duration_ms" : 135813,
      "explicit" : false,
      "external_ids" : {
        "isrc" : "US6PD1904012"
      },
      "external_urls" : {
        "spotify" : "https://open.spotify.com/track/7xfVPHOo8Cko2jM4GP1q6u"
      },
      "href" : "https://api.spotify.com/v1/tracks/7xfVPHOo8Cko2jM4GP1q6u",
      "id" : "7xfVPHOo8Cko2jM4GP1q6u",
      "is_local" : false,
      "is_playable" : true,
      "name" : "Savior, Like A Shepherd Lead Us",
      "popularity" : 0,
      "preview_url" : "https://p.scdn.co/mp3-preview/e08895f3c30130899682c8331e8a18ea1c5b294f?cid=774b29d4f13844c495f206cafdad9c86",
      "track_number" : 25,
      "type" : "track",
      "uri" : "spotify:track:7xfVPHOo8Cko2jM4GP1q6u"
    }, {
      "album" : {
        "album_type" : "album",
        "artists" : [ {
          "external_urls" : {
            "spotify" : "https://open.spotify.com/artist/5F211gZjfoqvH8v7erGdsy"
          },
          "href" : "https://api.spotify.com/v1/artists/5F211gZjfoqvH8v7erGdsy",
          "id" : "5F211gZjfoqvH8v7erGdsy",
          "name" : "4Him",
          "type" : "artist",
          "uri" : "spotify:artist:5F211gZjfoqvH8v7erGdsy"
        } ],
        "external_urls" : {
          "spotify" : "https://open.spotify.com/album/0ucd9V91sbhnKPE3ycOoqL"
        },
        "href" : "https://api.spotify.com/v1/albums/0ucd9V91sbhnKPE3ycOoqL",
        "id" : "0ucd9V91sbhnKPE3ycOoqL",
        "images" : [ {
          "height" : 640,
          "url" : "https://i.scdn.co/image/ab67616d0000b2731a72f5e934003f1c88eaf728",
          "width" : 640
        }, {
          "height" : 300,
          "url" : "https://i.scdn.co/image/ab67616d00001e021a72f5e934003f1c88eaf728",
          "width" : 300
        }, {
          "height" : 64,
          "url" : "https://i.scdn.co/image/ab67616d000048511a72f5e934003f1c88eaf728",
          "width" : 64
        } ],
        "name" : "Hymns: A Place Of Worship",
        "release_date" : "2000",
        "release_date_precision" : "year",
        "total_tracks" : 14,
        "type" : "album",
        "uri" : "spotify:album:0ucd9V91sbhnKPE3ycOoqL"
      },
      "artists" : [ {
        "external_urls" : {
          "spotify" : "https://open.spotify.com/artist/5F211gZjfoqvH8v7erGdsy"
        },
        "href" : "https://api.spotify.com/v1/artists/5F211gZjfoqvH8v7erGdsy",
        "id" : "5F211gZjfoqvH8v7erGdsy",
        "name" : "4Him",
        "type" : "artist",
        "uri" : "spotify:artist:5F211gZjfoqvH8v7erGdsy"
      } ],
      "disc_number" : 1,
      "duration_ms" : 328887,
      "explicit" : false,
      "external_ids" : {
        "isrc" : "USBE10000007"
      },
      "external_urls" : {
        "spotify" : "https://open.spotify.com/track/3k4pr6CYVNGcDWuD4mDdhe"
      },
      "href" : "https://api.spotify.com/v1/tracks/3k4pr6CYVNGcDWuD4mDdhe",
      "id" : "3k4pr6CYVNGcDWuD4mDdhe",
      "is_local" : false,
      "is_playable" : true,
      "name" : "Savior, Like A Shepherd Lead Us",
      "popularity" : 16,
      "preview_url" : "https://p.scdn.co/mp3-preview/d91c4191525e77c100ac6102de166cdf9f9ec27e?cid=774b29d4f13844c495f206cafdad9c86",
      "track_number" : 7,
      "type" : "track",
      "uri" : "spotify:track:3k4pr6CYVNGcDWuD4mDdhe"
    }, {
      "album" : {
        "album_type" : "album",
        "artists" : [ {
          "external_urls" : {
            "spotify" : "https://open.spotify.com/artist/3hHwKq9rkvc42Bp4CtAkkv"
          },
          "href" : "https://api.spotify.com/v1/artists/3hHwKq9rkvc42Bp4CtAkkv",
          "id" : "3hHwKq9rkvc42Bp4CtAkkv",
          "name" : "Laestadian Lutheran Church",
          "type" : "artist",
          "uri" : "spotify:artist:3hHwKq9rkvc42Bp4CtAkkv"
        } ],
        "external_urls" : {
          "spotify" : "https://open.spotify.com/album/1RSOTlozbCBkGBY8kLb6p1"
        },
        "href" : "https://api.spotify.com/v1/albums/1RSOTlozbCBkGBY8kLb6p1",
        "id" : "1RSOTlozbCBkGBY8kLb6p1",
        "images" : [ {
          "height" : 640,
          "url" : "https://i.scdn.co/image/ab67616d0000b2733361fee54dd04e57aee9c950",
          "width" : 640
        }, {
          "height" : 300,
          "url" : "https://i.scdn.co/image/ab67616d00001e023361fee54dd04e57aee9c950",
          "width" : 300
        }, {
          "height" : 64,
          "url" : "https://i.scdn.co/image/ab67616d000048513361fee54dd04e57aee9c950",
          "width" : 64
        } ],
        "name" : "The Lord Is Shepherd of His Flock",
        "release_date" : "2013-05-31",
        "release_date_precision" : "day",
        "total_tracks" : 16,
        "type" : "album",
        "uri" : "spotify:album:1RSOTlozbCBkGBY8kLb6p1"
      },
      "artists" : [ {
        "external_urls" : {
          "spotify" : "https://open.spotify.com/artist/3hHwKq9rkvc42Bp4CtAkkv"
        },
        "href" : "https://api.spotify.com/v1/artists/3hHwKq9rkvc42Bp4CtAkkv",
        "id" : "3hHwKq9rkvc42Bp4CtAkkv",
        "name" : "Laestadian Lutheran Church",
        "type" : "artist",
        "uri" : "spotify:artist:3hHwKq9rkvc42Bp4CtAkkv"
      } ],
      "disc_number" : 1,
      "duration_ms" : 238811,
      "explicit" : false,
      "external_ids" : {
        "isrc" : "USDHM1623149"
      },
      "external_urls" : {
        "spotify" : "https://open.spotify.com/track/0euOuBvo4l8MLhRQw6zt62"
      },
      "href" : "https://api.spotify.com/v1/tracks/0euOuBvo4l8MLhRQw6zt62",
      "id" : "0euOuBvo4l8MLhRQw6zt62",
      "is_local" : false,
      "is_playable" : true,
      "name" : "Savior, Like a Shepherd Lead Us SHZ 484",
      "popularity" : 12,
      "preview_url" : "https://p.scdn.co/mp3-preview/1127d4e6aaffd3bc240f0b2e9e81e514340f4054?cid=774b29d4f13844c495f206cafdad9c86",
      "track_number" : 13,
      "type" : "track",
      "uri" : "spotify:track:0euOuBvo4l8MLhRQw6zt62"
    }, {
      "album" : {
        "album_type" : "compilation",
        "artists" : [ {
          "external_urls" : {
            "spotify" : "https://open.spotify.com/artist/0LyfQWJT6nXafLPZqxe9Of"
          },
          "href" : "https://api.spotify.com/v1/artists/0LyfQWJT6nXafLPZqxe9Of",
          "id" : "0LyfQWJT6nXafLPZqxe9Of",
          "name" : "Various Artists",
          "type" : "artist",
          "uri" : "spotify:artist:0LyfQWJT6nXafLPZqxe9Of"
        } ],
        "external_urls" : {
          "spotify" : "https://open.spotify.com/album/5vFaT7ClmXgUJTOVC1S4u3"
        },
        "href" : "https://api.spotify.com/v1/albums/5vFaT7ClmXgUJTOVC1S4u3",
        "id" : "5vFaT7ClmXgUJTOVC1S4u3",
        "images" : [ {
          "height" : 640,
          "url" : "https://i.scdn.co/image/ab67616d0000b2735057e0bd807c5a704139950b",
          "width" : 640
        }, {
          "height" : 300,
          "url" : "https://i.scdn.co/image/ab67616d00001e025057e0bd807c5a704139950b",
          "width" : 300
        }, {
          "height" : 64,
          "url" : "https://i.scdn.co/image/ab67616d000048515057e0bd807c5a704139950b",
          "width" : 64
        } ],
        "name" : "50 Classic Hymns",
        "release_date" : "2008-01-01",
        "release_date_precision" : "day",
        "total_tracks" : 50,
        "type" : "album",
        "uri" : "spotify:album:5vFaT7ClmXgUJTOVC1S4u3"
      },
      "artists" : [ {
        "external_urls" : {
          "spotify" : "https://open.spotify.com/artist/4mDQSZLj6UpcoQLgeOfplh"
        },
        "href" : "https://api.spotify.com/v1/artists/4mDQSZLj6UpcoQLgeOfplh",
        "id" : "4mDQSZLj6UpcoQLgeOfplh",
        "name" : "Blessed Assurance Favorite Hymns Of Inspiration And Hope Performers",
        "type" : "artist",
        "uri" : "spotify:artist:4mDQSZLj6UpcoQLgeOfplh"
      } ],
      "disc_number" : 3,
      "duration_ms" : 282973,
      "explicit" : false,
      "external_ids" : {
        "isrc" : "USSP30600268"
      },
      "external_urls" : {
        "spotify" : "https://open.spotify.com/track/4ZVvCPCodCeOHxqjpav6Na"
      },
      "href" : "https://api.spotify.com/v1/tracks/4ZVvCPCodCeOHxqjpav6Na",
      "id" : "4ZVvCPCodCeOHxqjpav6Na",
      "is_local" : false,
      "is_playable" : true,
      "name" : "All The Way My Savior Leads Me/Savior, Like A Shepherd Lead Us",
      "popularity" : 14,
      "preview_url" : null,
      "track_number" : 2,
      "type" : "track",
      "uri" : "spotify:track:4ZVvCPCodCeOHxqjpav6Na"
    }, {
      "album" : {
        "album_type" : "album",
        "artists" : [ {
          "external_urls" : {
            "spotify" : "https://open.spotify.com/artist/7HDwWB9AsuPIeP9EPbCj4f"
          },
          "href" : "https://api.spotify.com/v1/artists/7HDwWB9AsuPIeP9EPbCj4f",
          "id" : "7HDwWB9AsuPIeP9EPbCj4f",
          "name" : "Shelly Hamilton",
          "type" : "artist",
          "uri" : "spotify:artist:7HDwWB9AsuPIeP9EPbCj4f"
        }, {
          "external_urls" : {
            "spotify" : "https://open.spotify.com/artist/0s3P799VpnhEvftncNF44s"
          },
          "href" : "https://api.spotify.com/v1/artists/0s3P799VpnhEvftncNF44s",
          "id" : "0s3P799VpnhEvftncNF44s",
          "name" : "Christiane Emory",
          "type" : "artist",
          "uri" : "spotify:artist:0s3P799VpnhEvftncNF44s"
        } ],
        "external_urls" : {
          "spotify" : "https://open.spotify.com/album/7k9upQypM5NeuBQnEECpEh"
        },
        "href" : "https://api.spotify.com/v1/albums/7k9upQypM5NeuBQnEECpEh",
        "id" : "7k9upQypM5NeuBQnEECpEh",
        "images" : [ {
          "height" : 640,
          "url" : "https://i.scdn.co/image/ab67616d0000b273e0226cab021402f89156eec0",
          "width" : 640
        }, {
          "height" : 300,
          "url" : "https://i.scdn.co/image/ab67616d00001e02e0226cab021402f89156eec0",
          "width" : 300
        }, {
          "height" : 64,
          "url" : "https://i.scdn.co/image/ab67616d00004851e0226cab021402f89156eec0",
          "width" : 64
        } ],
        "name" : "Concerto of Praise",
        "release_date" : "1998-10-15",
        "release_date_precision" : "day",
        "total_tracks" : 14,
        "type" : "album",
        "uri" : "spotify:album:7k9upQypM5NeuBQnEECpEh"
      },
      "artists" : [ {
        "external_urls" : {
          "spotify" : "https://open.spotify.com/artist/7HDwWB9AsuPIeP9EPbCj4f"
        },
        "href" : "https://api.spotify.com/v1/artists/7HDwWB9AsuPIeP9EPbCj4f",
        "id" : "7HDwWB9AsuPIeP9EPbCj4f",
        "name" : "Shelly Hamilton",
        "type" : "artist",
        "uri" : "spotify:artist:7HDwWB9AsuPIeP9EPbCj4f"
      }, {
        "external_urls" : {
          "spotify" : "https://open.spotify.com/artist/0s3P799VpnhEvftncNF44s"
        },
        "href" : "https://api.spotify.com/v1/artists/0s3P799VpnhEvftncNF44s",
        "id" : "0s3P799VpnhEvftncNF44s",
        "name" : "Christiane Emory",
        "type" : "artist",
        "uri" : "spotify:artist:0s3P799VpnhEvftncNF44s"
      } ],
      "disc_number" : 1,
      "duration_ms" : 211053,
      "explicit" : false,
      "external_ids" : {
        "isrc" : "uscgh1681871"
      },
      "external_urls" : {
        "spotify" : "https://open.spotify.com/track/7wGReA7WUIESBTKGuSdIG9"
      },
      "href" : "https://api.spotify.com/v1/tracks/7wGReA7WUIESBTKGuSdIG9",
      "id" : "7wGReA7WUIESBTKGuSdIG9",
      "is_local" : false,
      "is_playable" : true,
      "name" : "Savior, Like a Shepherd Lead Me",
      "popularity" : 10,
      "preview_url" : "https://p.scdn.co/mp3-preview/7e7c16b473c32be0e007b20856a2e0187304987e?cid=774b29d4f13844c495f206cafdad9c86",
      "track_number" : 4,
      "type" : "track",
      "uri" : "spotify:track:7wGReA7WUIESBTKGuSdIG9"
    }, {
      "album" : {
        "album_type" : "album",
        "artists" : [ {
          "external_urls" : {
            "spotify" : "https://open.spotify.com/artist/4cFPIL4ZfBANnCRq5PNsTo"
          },
          "href" : "https://api.spotify.com/v1/artists/4cFPIL4ZfBANnCRq5PNsTo",
          "id" : "4cFPIL4ZfBANnCRq5PNsTo",
          "name" : "Mary Beth Carlson",
          "type" : "artist",
          "uri" : "spotify:artist:4cFPIL4ZfBANnCRq5PNsTo"
        } ],
        "external_urls" : {
          "spotify" : "https://open.spotify.com/album/1YZZQa5NAFtZeER6C9Qcn3"
        },
        "href" : "https://api.spotify.com/v1/albums/1YZZQa5NAFtZeER6C9Qcn3",
        "id" : "1YZZQa5NAFtZeER6C9Qcn3",
        "images" : [ {
          "height" : 640,
          "url" : "https://i.scdn.co/image/ab67616d0000b273b05ff7b1b7745f1d122399b3",
          "width" : 640
        }, {
          "height" : 300,
          "url" : "https://i.scdn.co/image/ab67616d00001e02b05ff7b1b7745f1d122399b3",
          "width" : 300
        }, {
          "height" : 64,
          "url" : "https://i.scdn.co/image/ab67616d00004851b05ff7b1b7745f1d122399b3",
          "width" : 64
        } ],
        "name" : "Faith...Psalms, Hymns and Spiritual Songs",
        "release_date" : "2007-01-01",
        "release_date_precision" : "day",
        "total_tracks" : 19,
        "type" : "album",
        "uri" : "spotify:album:1YZZQa5NAFtZeER6C9Qcn3"
      },
      "artists" : [ {
        "external_urls" : {
          "spotify" : "https://open.spotify.com/artist/4cFPIL4ZfBANnCRq5PNsTo"
        },
        "href" : "https://api.spotify.com/v1/artists/4cFPIL4ZfBANnCRq5PNsTo",
        "id" : "4cFPIL4ZfBANnCRq5PNsTo",
        "name" : "Mary Beth Carlson",
        "type" : "artist",
        "uri" : "spotify:artist:4cFPIL4ZfBANnCRq5PNsTo"
      } ],
      "disc_number" : 1,
      "duration_ms" : 270906,
      "explicit" : false,
      "external_ids" : {
        "isrc" : "ushm80752072"
      },
      "external_urls" : {
        "spotify" : "https://open.spotify.com/track/0AD8eXRzPRUQR558K32oSM"
      },
      "href" : "https://api.spotify.com/v1/tracks/0AD8eXRzPRUQR558K32oSM",
      "id" : "0AD8eXRzPRUQR558K32oSM",
      "is_local" : false,
      "is_playable" : true,
      "name" : "Savior Like A Shepherd Lead Us",
      "popularity" : 11,
      "preview_url" : "https://p.scdn.co/mp3-preview/27381fba618246b5b7b7c08fde0aa2cfbf216c94?cid=774b29d4f13844c495f206cafdad9c86",
      "track_number" : 3,
      "type" : "track",
      "uri" : "spotify:track:0AD8eXRzPRUQR558K32oSM"
    } ],
    "limit" : 10,
    "next" : "https://api.spotify.com/v1/search?query=Savior%2C+Like+a+Shepherd&type=track&market=US&offset=15&limit=10",
    "offset" : 5,
    "previous" : "https://api.spotify.com/v1/search?query=Savior%2C+Like+a+Shepherd&type=track&market=US&offset=0&limit=10",
    "total" : 448
  }
}