{
  "tracks" : {
    "href" : "https://api.spotify.com/v1/search?query=God+the+Omnipotent&type=track&market=US&offset=5&limit=10",
    "items" : [ {
      "album" : {
        "album_type" : "album",
        "artists" : [ {
          "external_urls" : {
            "spotify" : "https://open.spotify.com/artist/2LxInkjjxIf1abBwpFP8cd"
          },
          "href" : "https://api.spotify.com/v1/artists/2LxInkjjxIf1abBwpFP8cd",
          "id" : "2LxInkjjxIf1abBwpFP8cd",
          "name" : "Hoosli Ukrainian Male Chorus",
          "type" : "artist",
          "uri" : "spotify:artist:2LxInkjjxIf1abBwpFP8cd"
        } ],
        "external_urls" : {
          "spotify" : "https://open.spotify.com/album/18rTRrE03bYUh2wqSb8stx"
        },
        "href" : "https://api.spotify.com/v1/albums/18rTRrE03bYUh2wqSb8stx",
        "id" : "18rTRrE03bYUh2wqSb8stx",
        "images" : [ {
          "height" : 640,
          "url" : "https://i.scdn.co/image/ab67616d0000b273a5883d94c5413bc6c6d4b587",
          "width" : 640
        }, {
          "height" : 300,
          "url" : "https://i.scdn.co/image/ab67616d00001e02a5883d94c5413bc6c6d4b587",
          "width" : 300
        }, {
          "height" : 64,
          "url" : "https://i.scdn.co/image/ab67616d00004851a5883d94c5413bc6c6d4b587",
          "width" : 64
        } ],
        "name" : "Christmas Star",
        "release_date" : "2016-12-01",
        "release_date_precision" : "day",
        "total_tracks" : 14,
        "type" : "album",
        "uri" : "spotify:album:18rTRrE03bYUh2wqSb8stx"
      },
      "artists" : [ {
        "external_urls" : {
          "spotify" : "https://open.spotify.com/artist/2LxInkjjxIf1abBwpFP8cd"
        },
        "href" : "https://api.spotify.com/v1/artists/2LxInkjjxIf1abBwpFP8cd",
        "id" : "2LxInkjjxIf1abBwpFP8cd",
        "name" : "Hoosli Ukrainian Male Chorus",
        "type" : "artist",
        "uri" : "spotify:artist:2LxInkjjxIf1abBwpFP8cd"
      } ],
      "disc_number" : 1,
      "duration_ms" : 225106,
      "explicit" : false,
      "external_ids" : {
        "isrc" : "uscgh1713395"
      },
      "external_urls" : {
        "spotify" : "https://open.spotify.com/track/00QxJDTOJGnIu1K7kGsKHL"
      },
      "href" : "https://api.spotify.com/v1/tracks/00QxJDTOJGnIu1K7kGsKHL",
      "id" : "00QxJDTOJGnIu1K7kGsKHL",
      "is_local" : false,
      "is_playable" : true,
      "name" : "God the Omnipotent",
      "popularity" : 0,
      "preview_url" : "https://p.scdn.co/mp3-preview/69e4e49a0b02bef8b2498c3b50b4384b5514ac03?cid=774b29d4f13844c495f206cafdad9c86",
      "track_number" : 7,
      "type" : "track",
      "uri" : "spotify:track:00QxJDTOJGnIu1K7kGsKHL"
    }, {
      "album" : {
        "album_type" : "album",
        "artists" : [ {
          "external_urls" : {
            "spotify" : "https://open.spotify.com/artist/5yFBNdRUEW4UnQSqksEzoG"
          },
          "href" : "https://api.spotify.com/v1/artists/5yFBNdRUEW4UnQSqksEzoG",
          "id" : "5yFBNdRUEW4UnQSqksEzoG",
          "name" : "Holly Aloise",
          "type" : "artist",
          "uri" : "spotify:artist:5yFBNdRUEW4UnQSqksEzoG"
        } ],
        "external_urls" : {
          "spotify" : "https://open.spotify.com/album/77Vdp5A58UasaREAHpQr3P"
        },
        "href" : "https://api.spotify.com/v1/albums/77Vdp5A58UasaREAHpQr3P",
        "id" : "77Vdp5A58UasaREAHpQr3P",
        "images" : [ {
          "height" : 640,
          "url" : "https://i.scdn.co/image/ab67616d0000b27380341e0b20207820ce8d0b3b",
          "width" : 640
        }, {
          "height" : 300,
          "url" : "https://i.scdn.co/image/ab67616d00001e0280341e0b20207820ce8d0b3b",
          "width" : 300
        }, {
          "height" : 64,
          "url" : "https://i.scdn.co/image/ab67616d0000485180341e0b20207820ce8d0b3b",
          "width" : 64
        } ],
        "name" : "Piano Tracks 3- Hymn Accompaniments for the Worship Service",
        "release_date" : "2014-10-10",
        "release_date_precision" : "day",
        "total_tracks" : 25,
        "type" : "album",
        "uri" : "spotify:album:77Vdp5A58UasaREAHpQr3P"
      },
      "artists" : [ {
        "external_urls" : {
          "spotify" : "https://open.spotify.com/artist/5yFBNdRUEW4UnQSqksEzoG"
        },
        "href" : "https://api.spotify.com/v1/artists/5yFBNdRUEW4UnQSqksEzoG",
        "id" : "5yFBNdRUEW4UnQSqksEzoG",
        "name" : "Holly Aloise",
        "type" : "artist",
        "uri" : "spotify:artist:5yFBNdRUEW4UnQSqksEzoG"
      } ],
      "disc_number" : 1,
      "duration_ms" : 162690,
      "explicit" : false,
      "external_ids" : {
        "isrc" : "GB-SMU-18-38467"
      },
      "external_urls" : {
        "spotify" : "https://open.spotify.com/track/5CUzsDRpLixNMoHetnzvW5"
      },
      "href" : "https://api.spotify.com/v1/tracks/5CUzsDRpLixNMoHetnzvW5",
      "id" : "5CUzsDRpLixNMoHetnzvW5",
      "is_local" : false,
      "is_playable" : true,
      "name" : "God the Omnipotent",
      "popularity" : 0,
      "preview_url" : "https://p.scdn.co/mp3-preview/1c79ce1853fbd58c5d976b5b0ad4067cfe591fd9?cid=774b29d4f13844c495f206cafdad9c86",
      "track_number" : 7,
      "type" : "track",
      "uri" : "spotify:track:5CUzsDRpLixNMoHetnzvW5"
    }, {
      "album" : {
        "album_type" : "album",
        "artists" : [ {
          "external_urls" : {
            "spotify" : "https://open.spotify.com/artist/46ORzNRQgD9uzPC3VBIRDQ"
          },
          "href" : "https://api.spotify.com/v1/artists/46ORzNRQgD9uzPC3VBIRDQ",
          "id" : "46ORzNRQgD9uzPC3VBIRDQ",
          "name" : "Randy Piscione",
          "type" : "artist",
          "uri" : "spotify:artist:46ORzNRQgD9uzPC3VBIRDQ"
        } ],
        "external_urls" : {
          "spotify" : "https://open.spotify.com/album/4tH5sOmKB6O1VSIMCi5DWq"
        },
        "href" : "https://api.spotify.com/v1/albums/4tH5sOmKB6O1VSIMCi5DWq",
        "id" : "4tH5sOmKB6O1VSIMCi5DWq",
        "images" : [ {
          "height" : 640,
          "url" : "https://i.scdn.co/image/ab67616d0000b2732e2007567b3d393739ce8e4c",
          "width" : 640
        }, {
          "height" : 300,
          "url" : "https://i.scdn.co/image/ab67616d00001e022e2007567b3d393739ce8e4c",
          "width" : 300
        }, {
          "height" : 64,
          "url" : "https://i.scdn.co/image/ab67616d000048512e2007567b3d393739ce8e4c",
          "width" : 64
        } ],
        "name" : "Hymns for Him",
        "release_date" : "2004-08-09",
        "release_date_precision" : "day",
        "total_tracks" : 16,
        "type" : "album",
        "uri" : "spotify:album:4tH5sOmKB6O1VSIMCi5DWq"
      },
      "artists" : [ {
        "external_urls" : {
          "spotify" : "https://open.spotify.com/artist/46ORzNRQgD9uzPC3VBIRDQ"
        },
        "href" : "https://api.spotify.com/v1/artists/46ORzNRQgD9uzPC3VBIRDQ",
        "id" : "46ORzNRQgD9uzPC3VBIRDQ",
        "name" : "Randy Piscione",
        "type" : "artist",
        "uri" : "spotify:artist:46ORzNRQgD9uzPC3VBIRDQ"
      } ],
      "disc_number" : 1,
      "duration_ms" : 209600,
      "explicit" : false,
      "external_ids" : {
        "isrc" : "uscgh0606974"
      },
      "external_urls" : {
        "spotify" : "https://open.spotify.com/track/7prjzZilalpFGxMTcRhZ97"
      },
      "href" : "https://api.spotify.com/v1/tracks/7prjzZilalpFGxMTcRhZ97",
      "id" : "7prjzZilalpFGxMTcRhZ97",
      "is_local" : false,
      "is_playable" : true,
      "name" : "God The Omnipotent",
      "popularity" : 0,
      "preview_url" : "https://p.scdn.co/mp3-preview/754c8774c22b01624cea87af541c9fcabafd0657?cid=774b29d4f13844c495f206cafdad9c86",
      "track_number" : 7,
      "type" : "track",
      "uri" : "spotify:track:7prjzZilalpFGxMTcRhZ97"
    }, {
      "album" : {
        "album_type" : "album",
        "artists" : [ {
          "external_urls" : {
            "spotify" : "https://open.spotify.com/artist/2EmRXI8KZXDepJZ5niFy3y"
          },
          "href" : "https://api.spotify.com/v1/artists/2EmRXI8KZXDepJZ5niFy3y",
          "id" : "2EmRXI8KZXDepJZ5niFy3y",
          "name" : "Isabella",
          "type" : "artist",
          "uri" : "spotify:artist:2EmRXI8KZXDepJZ5niFy3y"
        } ],
        "external_urls" : {
          "spotify" : "https://open.spotify.com/album/07pxD8SdxxnkcP91KEK89U"
        },
        "href" : "https://api.spotify.com/v1/albums/07pxD8SdxxnkcP91KEK89U",
        "id" : "07pxD8SdxxnkcP91KEK89U",
        "images" : [ {
          "height" : 640,
          "url" : "https://i.scdn.co/image/ab67616d0000b273c659c2646efb47c079027252",
          "width" : 640
        }, {
          "height" : 300,
          "url" : "https://i.scdn.co/image/ab67616d00001e02c659c2646efb47c079027252",
          "width" : 300
        }, {
          "height" : 64,
          "url" : "https://i.scdn.co/image/ab67616d00004851c659c2646efb47c079027252",
          "width" : 64
        } ],
        "name" : "Indescribable: The Complete Album",
        "release_date" : "2017-11-03",
        "release_date_precision" : "day",
        "total_tracks" : 13,
        "type" : "album",
        "uri" : "spotify:album:07pxD8SdxxnkcP91KEK89U"
      },
      "artists" : [ {
        "external_urls" : {
          "spotify" : "https://open.spotify.com/artist/2EmRXI8KZXDepJZ5niFy3y"
        },
        "href" : "https://api.spotify.com/v1/artists/2EmRXI8KZXDepJZ5niFy3y",
        "id" : "2EmRXI8KZXDepJZ5niFy3y",
        "name" : "Isabella",
        "type" : "artist",
        "uri" : "spotify:artist:2EmRXI8KZXDepJZ5niFy3y"
      } ],
      "disc_number" : 1,
      "duration_ms" : 282384,
      "explicit" : false,
      "external_ids" : {
        "isrc" : "ushm91716940"
      },
      "external_urls" : {
        "spotify" : "https://open.spotify.com/track/1cQXjOIAG4O5Wqpf45GlkK"
      },
      "href" : "https://api.spotify.com/v1/tracks/1cQXjOIAG4O5Wqpf45GlkK",
      "id" : "1cQXjOIAG4O5Wqpf45GlkK",
      "is_local" : false,
      "is_playable" : true,
      "name" : "Omnipotent God",
      "popularity" : 0,
      "preview_url" : "https://p.scdn.co/mp3-preview/c0c9082072d4ab20fa5c8f0640c900429bf47d4d?cid=774b29d4f13844c495f206cafdad9c86",
      "track_number" : 2,
      "type" : "track",
      "uri" : "spotify:track:1cQXjOIAG4O5Wqpf45GlkK"
    }, {
      "album" : {
        "album_type" : "album",
        "artists" : [ {
          "external_urls" : {
            "spotify" : "https://open.spotify.com/artist/5RCuo2uq9mHpDnZ5g8MAGS"
          },
          "href" : "https://api.spotify.com/v1/artists/5RCuo2uq9mHpDnZ5g8MAGS",
          "id" : "5RCuo2uq9mHpDnZ5g8MAGS",
          "name" : "Lady to Lady Choir",
          "type" : "artist",
          "uri" : "spotify:artist:5RCuo2uq9mHpDnZ5g8MAGS"
        } ],
        "external_urls" : {
          "spotify" : "https://open.spotify.com/album/0prov1YxTPixqbAV7iL1cs"
        },
        "href" : "https://api.spotify.com/v1/albums/0prov1YxTPixqbAV7iL1cs",
        "id" : "0prov1YxTPixqbAV7iL1cs",
        "images" : [ {
          "height" : 640,
          "url" : "https://i.scdn.co/image/ab67616d0000b273d5bcb405558e9cd5768ce830",
          "width" : 640
        }, {
          "height" : 300,
          "url" : "https://i.scdn.co/image/ab67616d00001e02d5bcb405558e9cd5768ce830",
          "width" : 300
        }, {
          "height" : 64,
          "url" : "https://i.scdn.co/image/ab67616d00004851d5bcb405558e9cd5768ce830",
          "width" : 64
        } ],
        "name" : "The Glory, Vol. 1",
        "release_date" : "2018-03-17",
        "release_date_precision" : "day",
        "total_tracks" : 9,
        "type" : "album",
        "uri" : "spotify:album:0prov1YxTPixqbAV7iL1cs"
      },
      "artists" : [ {
        "external_urls" : {
          "spotify" : "https://open.spotify.com/artist/5RCuo2uq9mHpDnZ5g8MAGS"
        },
        "href" : "https://api.spotify.com/v1/artists/5RCuo2uq9mHpDnZ5g8MAGS",
        "id" : "5RCuo2uq9mHpDnZ5g8MAGS",
        "name" : "Lady to Lady Choir",
        "type" : "artist",
        "uri" : "spotify:artist:5RCuo2uq9mHpDnZ5g8MAGS"
      } ],
      "disc_number" : 1,
      "duration_ms" : 247741,
      "explicit" : false,
      "external_ids" : {
        "isrc" : "QZ5AB1889159"
      },
      "external_urls" : {
        "spotify" : "https://open.spotify.com/track/7IsIcEfXhkUUdYEF2B0Rfl"
      },
      "href" : "https://api.spotify.com/v1/tracks/7IsIcEfXhkUUdYEF2B0Rfl",
      "id" : "7IsIcEfXhkUUdYEF2B0Rfl",
      "is_local" : false,
      "is_playable" : true,
      "name" : "Omnipotent God",
      "popularity" : 0,
      "preview_url" : "https://p.scdn.co/mp3-preview/e8009f85c6e180642ea46aec34aefafbcef708b6?cid=774b29d4f13844c495f206cafdad9c86",
      "track_number" : 8,
      "type" : "track",
      "uri" : "spotify:track:7IsIcEfXhkUUdYEF2B0Rfl"
    }, {
      "album" : {
        "album_type" : "album",
        "artists" : [ {
          "external_urls" : {
            "spotify" : "https://open.spotify.com/artist/1Ng8jGC4dL0gkkuh77pbpX"
          },
          "href" : "https://api.spotify.com/v1/artists/1Ng8jGC4dL0gkkuh77pbpX",
          "id" : "1Ng8jGC4dL0gkkuh77pbpX",
          "name" : "Newsong",
          "type" : "artist",
          "uri" : "spotify:artist:1Ng8jGC4dL0gkkuh77pbpX"
        } ],
        "external_urls" : {
          "spotify" : "https://open.spotify.com/album/51S8cSDCPtJnry1Lrsudyk"
        },
        "href" : "https://api.spotify.com/v1/albums/51S8cSDCPtJnry1Lrsudyk",
        "id" : "51S8cSDCPtJnry1Lrsudyk",
        "images" : [ {
          "height" : 640,
          "url" : "https://i.scdn.co/image/ab67616d0000b273bbabec684d681b94cca099b9",
          "width" : 640
        }, {
          "height" : 300,
          "url" : "https://i.scdn.co/image/ab67616d00001e02bbabec684d681b94cca099b9",
          "width" : 300
        }, {
          "height" : 64,
          "url" : "https://i.scdn.co/image/ab67616d00004851bbabec684d681b94cca099b9",
          "width" : 64
        } ],
        "name" : "The Gathering",
        "release_date" : "2019-06-13",
        "release_date_precision" : "day",
        "total_tracks" : 13,
        "type" : "album",
        "uri" : "spotify:album:51S8cSDCPtJnry1Lrsudyk"
      },
      "artists" : [ {
        "external_urls" : {
          "spotify" : "https://open.spotify.com/artist/1Ng8jGC4dL0gkkuh77pbpX"
        },
        "href" : "https://api.spotify.com/v1/artists/1Ng8jGC4dL0gkkuh77pbpX",
        "id" : "1Ng8jGC4dL0gkkuh77pbpX",
        "name" : "Newsong",
        "type" : "artist",
        "uri" : "spotify:artist:1Ng8jGC4dL0gkkuh77pbpX"
      }, {
        "external_urls" : {
          "spotify" : "https://open.spotify.com/artist/6EU94Iocwwem69yRk6DuOc"
        },
        "href" : "https://api.spotify.com/v1/artists/6EU94Iocwwem69yRk6DuOc",
        "id" : "6EU94Iocwwem69yRk6DuOc",
        "name" : "Kobby Mantey",
        "type" : "artist",
        "uri" : "spotify:artist:6EU94Iocwwem69yRk6DuOc"
      }, {
        "external_urls" : {
          "spotify" : "https://open.spotify.com/artist/4dU0vpTAklyAWcCao9KKft"
        },
        "href" : "https://api.spotify.com/v1/artists/4dU0vpTAklyAWcCao9KKft",
        "id" : "4dU0vpTAklyAWcCao9KKft",
        "name" : "Elizabeth Abbey",
        "type" : "artist",
        "uri" : "spotify:artist:4dU0vpTAklyAWcCao9KKft"
      } ],
      "disc_number" : 1,
      "duration_ms" : 322246,
      "explicit" : false,
      "external_ids" : {
        "isrc" : "TCAEG1998930"
      },
      "external_urls" : {
        "spotify" : "https://open.spotify.com/track/06VwzgCg4jv52BTMZtMY76"
      },
      "href" : "https://api.spotify.com/v1/tracks/06VwzgCg4jv52BTMZtMY76",
      "id" : "06VwzgCg4jv52BTMZtMY76",
      "is_local" : false,
      "is_playable" : true,
      "name" : "Omnipotent God",
      "popularity" : 2,
      "preview_url" : "https://p.scdn.co/mp3-preview/b8b6d6e4570624471fc180396dded91bf29addcc?cid=774b29d4f13844c495f206cafdad9c86",
      "track_number" : 1,
      "type" : "track",
      "uri" : "spotify:track:06VwzgCg4jv52BTMZtMY76"
    }, {
      "album" : {
        "album_type" : "album",
        "artists" : [ {
          "external_urls" : {
            "spotify" : "https://open.spotify.com/artist/3qNSsKNzzgoxfmBBwAIHUy"
          },
          "href" : "https://api.spotify.com/v1/artists/3qNSsKNzzgoxfmBBwAIHUy",
          "id" : "3qNSsKNzzgoxfmBBwAIHUy",
          "name" : "Lana Kim",
          "type" : "artist",
          "uri" : "spotify:artist:3qNSsKNzzgoxfmBBwAIHUy"
        } ],
        "external_urls" : {
          "spotify" : "https://open.spotify.com/album/00A1WWL09bT1eohOfbD1aT"
        },
        "href" : "https://api.spotify.com/v1/albums/00A1WWL09bT1eohOfbD1aT",
        "id" : "00A1WWL09bT1eohOfbD1aT",
        "images" : [ {
          "height" : 640,
          "url" : "https://i.scdn.co/image/ab67616d0000b2730dcbcd23bd4dc149062185a3",
          "width" : 640
        }, {
          "height" : 300,
          "url" : "https://i.scdn.co/image/ab67616d00001e020dcbcd23bd4dc149062185a3",
          "width" : 300
        }, {
          "height" : 64,
          "url" : "https://i.scdn.co/image/ab67616d000048510dcbcd23bd4dc149062185a3",
          "width" : 64
        } ],
        "name" : "All Christian Hymns - Vol. 3",
        "release_date" : "2011-02-17",
        "release_date_precision" : "day",
        "total_tracks" : 40,
        "type" : "album",
        "uri" : "spotify:album:00A1WWL09bT1eohOfbD1aT"
      },
      "artists" : [ {
        "external_urls" : {
          "spotify" : "https://open.spotify.com/artist/3qNSsKNzzgoxfmBBwAIHUy"
        },
        "href" : "https://api.spotify.com/v1/artists/3qNSsKNzzgoxfmBBwAIHUy",
        "id" : "3qNSsKNzzgoxfmBBwAIHUy",
        "name" : "Lana Kim",
        "type" : "artist",
        "uri" : "spotify:artist:3qNSsKNzzgoxfmBBwAIHUy"
      } ],
      "disc_number" : 1,
      "duration_ms" : 63346,
      "explicit" : false,
      "external_ids" : {
        "isrc" : "USJ3V1084867"
      },
      "external_urls" : {
        "spotify" : "https://open.spotify.com/track/3Hr6GnnJ7qYRFIDOJcAaKy"
      },
      "href" : "https://api.spotify.com/v1/tracks/3Hr6GnnJ7qYRFIDOJcAaKy",
      "id" : "3Hr6GnnJ7qYRFIDOJcAaKy",
      "is_local" : false,
      "is_playable" : true,
      "name" : "077 God The Omnipotent",
      "popularity" : 0,
      "preview_url" : "https://p.scdn.co/mp3-preview/9c5894d1ddd52a55900aa05006244d4ed47e4648?cid=774b29d4f13844c495f206cafdad9c86",
      "track_number" : 2,
      "type" : "track",
      "uri" : "spotify:track:3Hr6GnnJ7qYRFIDOJcAaKy"
    }, {
      "album" : {
        "album_type" : "album",
        "artists" : [ {
          "external_urls" : {
            "spotify" : "https://open.spotify.com/artist/4UrGCXhJsfVmjIeXxPEr3j"
          },
          "href" : "https://api.spotify.com/v1/artists/4UrGCXhJsfVmjIeXxPEr3j",
          "id" : "4UrGCXhJsfVmjIeXxPEr3j",
          "name" : "Cynthia Dixon",
          "type" : "artist",
          "uri" : "spotify:artist:4UrGCXhJsfVmjIeXxPEr3j"
        } ],
        "external_urls" : {
          "spotify" : "https://open.spotify.com/album/3nZ9bqRIB7fwVoPRPFsa3b"
        },
        "href" : "https://api.spotify.com/v1/albums/3nZ9bqRIB7fwVoPRPFsa3b",
        "id" : "3nZ9bqRIB7fwVoPRPFsa3b",
        "images" : [ {
          "height" : 640,
          "url" : "https://i.scdn.co/image/ab67616d0000b273068d2026a730c636623e5892",
          "width" : 640
        }, {
          "height" : 300,
          "url" : "https://i.scdn.co/image/ab67616d00001e02068d2026a730c636623e5892",
          "width" : 300
        }, {
          "height" : 64,
          "url" : "https://i.scdn.co/image/ab67616d00004851068d2026a730c636623e5892",
          "width" : 64
        } ],
        "name" : "From the Heart of a Worshiper",
        "release_date" : "2016-08-09",
        "release_date_precision" : "day",
        "total_tracks" : 16,
        "type" : "album",
        "uri" : "spotify:album:3nZ9bqRIB7fwVoPRPFsa3b"
      },
      "artists" : [ {
        "external_urls" : {
          "spotify" : "https://open.spotify.com/artist/4UrGCXhJsfVmjIeXxPEr3j"
        },
        "href" : "https://api.spotify.com/v1/artists/4UrGCXhJsfVmjIeXxPEr3j",
        "id" : "4UrGCXhJsfVmjIeXxPEr3j",
        "name" : "Cynthia Dixon",
        "type" : "artist",
        "uri" : "spotify:artist:4UrGCXhJsfVmjIeXxPEr3j"
      } ],
      "disc_number" : 1,
      "duration_ms" : 300643,
      "explicit" : false,
      "external_ids" : {
        "isrc" : "QMT8Q1300102"
      },
      "external_urls" : {
        "spotify" : "https://open.spotify.com/track/19NflKvz9DDoT5Sd8mImgM"
      },
      "href" : "https://api.spotify.com/v1/tracks/19NflKvz9DDoT5Sd8mImgM",
      "id" : "19NflKvz9DDoT5Sd8mImgM",
      "is_local" : false,
      "is_playable" : true,
      "name" : "Omnipotent God",
      "popularity" : 0,
      "preview_url" : "https://p.scdn.co/mp3-preview/f970c6ef11c9d9c6cc1d13a896c286fd83fe0a20?cid=774b29d4f13844c495f206cafdad9c86",
      "track_number" : 3,
      "type" : "track",
      "uri" : "spotify:track:19NflKvz9DDoT5Sd8mImgM"
    }, {
      "album" : {
        "album_type" : "album",
        "artists" : [ {
          "external_urls" : {
            "spotify" : "https://open.spotify.com/artist/75Fl6cxqxdhgBl7QeEAags"
          },
          "href" : "https://api.spotify.com/v1/artists/75Fl6cxqxdhgBl7QeEAags",
          "id" : "75Fl6cxqxdhgBl7QeEAags",
          "name" : "Adebowale Elusanmi",
          "type" : "artist",
          "uri" : "spotify:artist:75Fl6cxqxdhgBl7QeEAags"
        } ],
        "external_urls" : {
          "spotify" : "https://open.spotify.com/album/2rmUn0uUSAr6sD4axGonF3"
        },
        "href" : "https://api.spotify.com/v1/albums/2rmUn0uUSAr6sD4axGonF3",
        "id" : "2rmUn0uUSAr6sD4axGonF3",
        "images" : [ {
          "height" : 640,
          "url" : "https://i.scdn.co/image/ab67616d0000b273ec19f613a340984cc3699d68",
          "width" : 640
        }, {
          "height" : 300,
          "url" : "https://i.scdn.co/image/ab67616d00001e02ec19f613a340984cc3699d68",
          "width" : 300
        }, {
          "height" : 64,
          "url" : "https://i.scdn.co/image/ab67616d00004851ec19f613a340984cc3699d68",
          "width" : 64
        } ],
        "name" : "The Omnipotenet God, Vol. 1",
        "release_date" : "2016-06-17",
        "release_date_precision" : "day",
        "total_tracks" : 6,
        "type" : "album",
        "uri" : "spotify:album:2rmUn0uUSAr6sD4axGonF3"
      },
      "artists" : [ {
        "external_urls" : {
          "spotify" : "https://open.spotify.com/artist/75Fl6cxqxdhgBl7QeEAags"
        },
        "href" : "https://api.spotify.com/v1/artists/75Fl6cxqxdhgBl7QeEAags",
        "id" : "75Fl6cxqxdhgBl7QeEAags",
        "name" : "Adebowale Elusanmi",
        "type" : "artist",
        "uri" : "spotify:artist:75Fl6cxqxdhgBl7QeEAags"
      } ],
      "disc_number" : 1,
      "duration_ms" : 1081920,
      "explicit" : false,
      "external_ids" : {
        "isrc" : "QMFMF1564053"
      },
      "external_urls" : {
        "spotify" : "https://open.spotify.com/track/2fVMNwNWKON5TyseBteku1"
      },
      "href" : "https://api.spotify.com/v1/tracks/2fVMNwNWKON5TyseBteku1",
      "id" : "2fVMNwNWKON5TyseBteku1",
      "is_local" : false,
      "is_playable" : true,
      "name" : "The Omnipotent God, Pt. 2",
      "popularity" : 0,
      "preview_url" : "https://p.scdn.co/mp3-preview/c6f02c1b84593b075dc0255425a7bdc5084405ad?cid=774b29d4f13844c495f206cafdad9c86",
      "track_number" : 2,
      "type" : "track",
      "uri" : "spotify:track:2fVMNwNWKON5TyseBteku1"
    }, {
      "album" : {
        "album_type" : "single",
        "artists" : [ {
          "external_urls" : {
            "spotify" : "https://open.spotify.com/artist/3BtrjWDUKkGWA7yaPUIrTk"
          },
          "href" : "https://api.spotify.com/v1/artists/3BtrjWDUKkGWA7yaPUIrTk",
          "id" : "3BtrjWDUKkGWA7yaPUIrTk",
          "name" : "The Spirit Rain",
          "type" : "artist",
          "uri" : "spotify:artist:3BtrjWDUKkGWA7yaPUIrTk"
        } ],
        "external_urls" : {
          "spotify" : "https://open.spotify.com/album/24dHbI41Mt5MVjLhPA8oJP"
        },
        "href" : "https://api.spotify.com/v1/albums/24dHbI41Mt5MVjLhPA8oJP",
        "id" : "24dHbI41Mt5MVjLhPA8oJP",
        "images" : [ {
          "height" : 640,
          "url" : "https://i.scdn.co/image/ab67616d0000b273ca3453c714931d8a5b768a48",
          "width" : 640
        }, {
          "height" : 300,
          "url" : "https://i.scdn.co/image/ab67616d00001e02ca3453c714931d8a5b768a48",
          "width" : 300
        }, {
          "height" : 64,
          "url" : "https://i.scdn.co/image/ab67616d00004851ca3453c714931d8a5b768a48",
          "width" : 64
        } ],
        "name" : "The Most Exalted, Omnipotent God!",
        "release_date" : "2017-01-11",
        "release_date_precision" : "day",
        "total_tracks" : 1,
        "type" : "album",
        "uri" : "spotify:album:24dHbI41Mt5MVjLhPA8oJP"
      },
      "artists" : [ {
        "external_urls" : {
          "spotify" : "https://open.spotify.com/artist/3BtrjWDUKkGWA7yaPUIrTk"
        },
        "href" : "https://api.spotify.com/v1/artists/3BtrjWDUKkGWA7yaPUIrTk",
        "id" : "3BtrjWDUKkGWA7yaPUIrTk",
        "name" : "The Spirit Rain",
        "type" : "artist",
        "uri" : "spotify:artist:3BtrjWDUKkGWA7yaPUIrTk"
      } ],
      "disc_number" : 1,
      "duration_ms" : 282936,
      "explicit" : false,
      "external_ids" : {
        "isrc" : "HKB861600006"
      },
      "external_urls" : {
        "spotify" : "https://open.spotify.com/track/6aQK1GCcjoLUvgqBATwqJi"
      },
      "href" : "https://api.spotify.com/v1/tracks/6aQK1GCcjoLUvgqBATwqJi",
      "id" : "6aQK1GCcjoLUvgqBATwqJi",
      "is_local" : false,
      "is_playable" : true,
      "name" : "The Most Exalted, Omnipotent God!",
      "popularity" : 0,
      "preview_url" : "https://p.scdn.co/mp3-preview/5ffefb3a9e7f6bc226d7351f4c723da3472e8668?cid=774b29d4f13844c495f206cafdad9c86",
      "track_number" : 1,
      "type" : "track",
      "uri" : "spotify:track:6aQK1GCcjoLUvgqBATwqJi"
    } ],
    "limit" : 10,
    "next" : "https://api.spotify.com/v1/search?query=God+the+Omnipotent&type=track&market=US&offset=15&limit=10",
    "offset" : 5,
    "previous" : "https://api.spotify.com/v1/search?query=God+the+Omnipotent&type=track&market=US&offset=0&limit=10",
    "total" : 35
  }
}