{
  "tracks" : {
    "href" : "https://api.spotify.com/v1/search?query=Watchman%2C+Tell+Us+of+the+Night&type=track&market=US&offset=5&limit=10",
    "items" : [ {
      "album" : {
        "album_type" : "album",
        "artists" : [ {
          "external_urls" : {
            "spotify" : "https://open.spotify.com/artist/258Dm9AVtfbZA1w7gnEtzq"
          },
          "href" : "https://api.spotify.com/v1/artists/258Dm9AVtfbZA1w7gnEtzq",
          "id" : "258Dm9AVtfbZA1w7gnEtzq",
          "name" : "Kim Mitzo Thompson",
          "type" : "artist",
          "uri" : "spotify:artist:258Dm9AVtfbZA1w7gnEtzq"
        } ],
        "external_urls" : {
          "spotify" : "https://open.spotify.com/album/3x4UJT2C7a51odclDvTe2R"
        },
        "href" : "https://api.spotify.com/v1/albums/3x4UJT2C7a51odclDvTe2R",
        "id" : "3x4UJT2C7a51odclDvTe2R",
        "images" : [ {
          "height" : 640,
          "url" : "https://i.scdn.co/image/ab67616d0000b2735d973302288d036117af6e22",
          "width" : 640
        }, {
          "height" : 300,
          "url" : "https://i.scdn.co/image/ab67616d00001e025d973302288d036117af6e22",
          "width" : 300
        }, {
          "height" : 64,
          "url" : "https://i.scdn.co/image/ab67616d000048515d973302288d036117af6e22",
          "width" : 64
        } ],
        "name" : "Christmas Is for Quiet Moments",
        "release_date" : "2013-01-16",
        "release_date_precision" : "day",
        "total_tracks" : 24,
        "type" : "album",
        "uri" : "spotify:album:3x4UJT2C7a51odclDvTe2R"
      },
      "artists" : [ {
        "external_urls" : {
          "spotify" : "https://open.spotify.com/artist/258Dm9AVtfbZA1w7gnEtzq"
        },
        "href" : "https://api.spotify.com/v1/artists/258Dm9AVtfbZA1w7gnEtzq",
        "id" : "258Dm9AVtfbZA1w7gnEtzq",
        "name" : "Kim Mitzo Thompson",
        "type" : "artist",
        "uri" : "spotify:artist:258Dm9AVtfbZA1w7gnEtzq"
      } ],
      "disc_number" : 1,
      "duration_ms" : 92276,
      "explicit" : false,
      "external_ids" : {
        "isrc" : "FR6V81555746"
      },
      "external_urls" : {
        "spotify" : "https://open.spotify.com/track/1paoLmcv1VXvcfFjmB29Kw"
      },
      "href" : "https://api.spotify.com/v1/tracks/1paoLmcv1VXvcfFjmB29Kw",
      "id" : "1paoLmcv1VXvcfFjmB29Kw",
      "is_local" : false,
      "is_playable" : true,
      "name" : "Watchman, Tell Us of the Night",
      "popularity" : 0,
      "preview_url" : "https://p.scdn.co/mp3-preview/709c4bd3b08ecf7c54587a22a3cc0a4f7f075ffc?cid=774b29d4f13844c495f206cafdad9c86",
      "track_number" : 6,
      "type" : "track",
      "uri" : "spotify:track:1paoLmcv1VXvcfFjmB29Kw"
    }, {
      "album" : {
        "album_type" : "album",
        "artists" : [ {
          "external_urls" : {
            "spotify" : "https://open.spotify.com/artist/273ECfnsaHIFONws3t5Qn8"
          },
          "href" : "https://api.spotify.com/v1/artists/273ECfnsaHIFONws3t5Qn8",
          "id" : "273ECfnsaHIFONws3t5Qn8",
          "name" : "Thomas Keesecker",
          "type" : "artist",
          "uri" : "spotify:artist:273ECfnsaHIFONws3t5Qn8"
        } ],
        "external_urls" : {
          "spotify" : "https://open.spotify.com/album/44gSenQN54Z5VLIg4LGezY"
        },
        "href" : "https://api.spotify.com/v1/albums/44gSenQN54Z5VLIg4LGezY",
        "id" : "44gSenQN54Z5VLIg4LGezY",
        "images" : [ {
          "height" : 640,
          "url" : "https://i.scdn.co/image/ab67616d0000b273839424e7f88b42e8e7e510da",
          "width" : 640
        }, {
          "height" : 300,
          "url" : "https://i.scdn.co/image/ab67616d00001e02839424e7f88b42e8e7e510da",
          "width" : 300
        }, {
          "height" : 64,
          "url" : "https://i.scdn.co/image/ab67616d00004851839424e7f88b42e8e7e510da",
          "width" : 64
        } ],
        "name" : "The Quiet Center: Piano Music for Advent and Christmas",
        "release_date" : "2018-07-06",
        "release_date_precision" : "day",
        "total_tracks" : 8,
        "type" : "album",
        "uri" : "spotify:album:44gSenQN54Z5VLIg4LGezY"
      },
      "artists" : [ {
        "external_urls" : {
          "spotify" : "https://open.spotify.com/artist/1OTzty5JmoNS56iOYgsTwf"
        },
        "href" : "https://api.spotify.com/v1/artists/1OTzty5JmoNS56iOYgsTwf",
        "id" : "1OTzty5JmoNS56iOYgsTwf",
        "name" : "Lowell Mason",
        "type" : "artist",
        "uri" : "spotify:artist:1OTzty5JmoNS56iOYgsTwf"
      }, {
        "external_urls" : {
          "spotify" : "https://open.spotify.com/artist/273ECfnsaHIFONws3t5Qn8"
        },
        "href" : "https://api.spotify.com/v1/artists/273ECfnsaHIFONws3t5Qn8",
        "id" : "273ECfnsaHIFONws3t5Qn8",
        "name" : "Thomas Keesecker",
        "type" : "artist",
        "uri" : "spotify:artist:273ECfnsaHIFONws3t5Qn8"
      } ],
      "disc_number" : 1,
      "duration_ms" : 185720,
      "explicit" : false,
      "external_ids" : {
        "isrc" : "USAR91719602"
      },
      "external_urls" : {
        "spotify" : "https://open.spotify.com/track/3IMnm1NCiZesYSUxZCbY5y"
      },
      "href" : "https://api.spotify.com/v1/tracks/3IMnm1NCiZesYSUxZCbY5y",
      "id" : "3IMnm1NCiZesYSUxZCbY5y",
      "is_local" : false,
      "is_playable" : true,
      "name" : "Watchman, Tell Us of the Night",
      "popularity" : 0,
      "preview_url" : "https://p.scdn.co/mp3-preview/f085e90373ac89109a5acaf25f3fe74b25a4b27c?cid=774b29d4f13844c495f206cafdad9c86",
      "track_number" : 2,
      "type" : "track",
      "uri" : "spotify:track:3IMnm1NCiZesYSUxZCbY5y"
    }, {
      "album" : {
        "album_type" : "single",
        "artists" : [ {
          "external_urls" : {
            "spotify" : "https://open.spotify.com/artist/0UVoDUROAwPMn1wPLqG5Vw"
          },
          "href" : "https://api.spotify.com/v1/artists/0UVoDUROAwPMn1wPLqG5Vw",
          "id" : "0UVoDUROAwPMn1wPLqG5Vw",
          "name" : "Antichrist Dungeon Choir",
          "type" : "artist",
          "uri" : "spotify:artist:0UVoDUROAwPMn1wPLqG5Vw"
        } ],
        "external_urls" : {
          "spotify" : "https://open.spotify.com/album/6fd3g6jRUtBuadbLC5Igno"
        },
        "href" : "https://api.spotify.com/v1/albums/6fd3g6jRUtBuadbLC5Igno",
        "id" : "6fd3g6jRUtBuadbLC5Igno",
        "images" : [ {
          "height" : 640,
          "url" : "https://i.scdn.co/image/ab67616d0000b27335b24a10ac1d3d333d0c8be4",
          "width" : 640
        }, {
          "height" : 300,
          "url" : "https://i.scdn.co/image/ab67616d00001e0235b24a10ac1d3d333d0c8be4",
          "width" : 300
        }, {
          "height" : 64,
          "url" : "https://i.scdn.co/image/ab67616d0000485135b24a10ac1d3d333d0c8be4",
          "width" : 64
        } ],
        "name" : "Eleventh Exodus of Errors",
        "release_date" : "2015-10-12",
        "release_date_precision" : "day",
        "total_tracks" : 6,
        "type" : "album",
        "uri" : "spotify:album:6fd3g6jRUtBuadbLC5Igno"
      },
      "artists" : [ {
        "external_urls" : {
          "spotify" : "https://open.spotify.com/artist/0UVoDUROAwPMn1wPLqG5Vw"
        },
        "href" : "https://api.spotify.com/v1/artists/0UVoDUROAwPMn1wPLqG5Vw",
        "id" : "0UVoDUROAwPMn1wPLqG5Vw",
        "name" : "Antichrist Dungeon Choir",
        "type" : "artist",
        "uri" : "spotify:artist:0UVoDUROAwPMn1wPLqG5Vw"
      } ],
      "disc_number" : 1,
      "duration_ms" : 125867,
      "explicit" : false,
      "external_ids" : {
        "isrc" : "USE831513332"
      },
      "external_urls" : {
        "spotify" : "https://open.spotify.com/track/5DORsAnWIHszyPk00wsgNR"
      },
      "href" : "https://api.spotify.com/v1/tracks/5DORsAnWIHszyPk00wsgNR",
      "id" : "5DORsAnWIHszyPk00wsgNR",
      "is_local" : false,
      "is_playable" : true,
      "name" : "Watchman Tell Us of the Night",
      "popularity" : 0,
      "preview_url" : "https://p.scdn.co/mp3-preview/d69a27faa6286e15a5fc6e50a201f96034ecedbc?cid=774b29d4f13844c495f206cafdad9c86",
      "track_number" : 6,
      "type" : "track",
      "uri" : "spotify:track:5DORsAnWIHszyPk00wsgNR"
    }, {
      "album" : {
        "album_type" : "album",
        "artists" : [ {
          "external_urls" : {
            "spotify" : "https://open.spotify.com/artist/258Dm9AVtfbZA1w7gnEtzq"
          },
          "href" : "https://api.spotify.com/v1/artists/258Dm9AVtfbZA1w7gnEtzq",
          "id" : "258Dm9AVtfbZA1w7gnEtzq",
          "name" : "Kim Mitzo Thompson",
          "type" : "artist",
          "uri" : "spotify:artist:258Dm9AVtfbZA1w7gnEtzq"
        } ],
        "external_urls" : {
          "spotify" : "https://open.spotify.com/album/2KDAmml3lSTxjzja5svdaj"
        },
        "href" : "https://api.spotify.com/v1/albums/2KDAmml3lSTxjzja5svdaj",
        "id" : "2KDAmml3lSTxjzja5svdaj",
        "images" : [ {
          "height" : 640,
          "url" : "https://i.scdn.co/image/ab67616d0000b273cb9f9da90001b29042150327",
          "width" : 640
        }, {
          "height" : 300,
          "url" : "https://i.scdn.co/image/ab67616d00001e02cb9f9da90001b29042150327",
          "width" : 300
        }, {
          "height" : 64,
          "url" : "https://i.scdn.co/image/ab67616d00004851cb9f9da90001b29042150327",
          "width" : 64
        } ],
        "name" : "Christmas Dinner",
        "release_date" : "2013-01-16",
        "release_date_precision" : "day",
        "total_tracks" : 47,
        "type" : "album",
        "uri" : "spotify:album:2KDAmml3lSTxjzja5svdaj"
      },
      "artists" : [ {
        "external_urls" : {
          "spotify" : "https://open.spotify.com/artist/258Dm9AVtfbZA1w7gnEtzq"
        },
        "href" : "https://api.spotify.com/v1/artists/258Dm9AVtfbZA1w7gnEtzq",
        "id" : "258Dm9AVtfbZA1w7gnEtzq",
        "name" : "Kim Mitzo Thompson",
        "type" : "artist",
        "uri" : "spotify:artist:258Dm9AVtfbZA1w7gnEtzq"
      } ],
      "disc_number" : 1,
      "duration_ms" : 92276,
      "explicit" : false,
      "external_ids" : {
        "isrc" : "FR6V81554597"
      },
      "external_urls" : {
        "spotify" : "https://open.spotify.com/track/6DDavmAmP0OINdohJyliE0"
      },
      "href" : "https://api.spotify.com/v1/tracks/6DDavmAmP0OINdohJyliE0",
      "id" : "6DDavmAmP0OINdohJyliE0",
      "is_local" : false,
      "is_playable" : true,
      "name" : "Watchman, Tell Us of the Night",
      "popularity" : 0,
      "preview_url" : "https://p.scdn.co/mp3-preview/709c4bd3b08ecf7c54587a22a3cc0a4f7f075ffc?cid=774b29d4f13844c495f206cafdad9c86",
      "track_number" : 6,
      "type" : "track",
      "uri" : "spotify:track:6DDavmAmP0OINdohJyliE0"
    }, {
      "album" : {
        "album_type" : "album",
        "artists" : [ {
          "external_urls" : {
            "spotify" : "https://open.spotify.com/artist/5jJCsgrewBbcZst0tr5ECr"
          },
          "href" : "https://api.spotify.com/v1/artists/5jJCsgrewBbcZst0tr5ECr",
          "id" : "5jJCsgrewBbcZst0tr5ECr",
          "name" : "Mark Hayes",
          "type" : "artist",
          "uri" : "spotify:artist:5jJCsgrewBbcZst0tr5ECr"
        } ],
        "external_urls" : {
          "spotify" : "https://open.spotify.com/album/0jvxXYmVms8FnM6JhFp0gk"
        },
        "href" : "https://api.spotify.com/v1/albums/0jvxXYmVms8FnM6JhFp0gk",
        "id" : "0jvxXYmVms8FnM6JhFp0gk",
        "images" : [ {
          "height" : 640,
          "url" : "https://i.scdn.co/image/ab67616d0000b273a0fda9d7a8bc692a0aa2845c",
          "width" : 640
        }, {
          "height" : 300,
          "url" : "https://i.scdn.co/image/ab67616d00001e02a0fda9d7a8bc692a0aa2845c",
          "width" : 300
        }, {
          "height" : 64,
          "url" : "https://i.scdn.co/image/ab67616d00004851a0fda9d7a8bc692a0aa2845c",
          "width" : 64
        } ],
        "name" : "Advent",
        "release_date" : "2008-12-01",
        "release_date_precision" : "day",
        "total_tracks" : 8,
        "type" : "album",
        "uri" : "spotify:album:0jvxXYmVms8FnM6JhFp0gk"
      },
      "artists" : [ {
        "external_urls" : {
          "spotify" : "https://open.spotify.com/artist/5jJCsgrewBbcZst0tr5ECr"
        },
        "href" : "https://api.spotify.com/v1/artists/5jJCsgrewBbcZst0tr5ECr",
        "id" : "5jJCsgrewBbcZst0tr5ECr",
        "name" : "Mark Hayes",
        "type" : "artist",
        "uri" : "spotify:artist:5jJCsgrewBbcZst0tr5ECr"
      } ],
      "disc_number" : 1,
      "duration_ms" : 340333,
      "explicit" : false,
      "external_ids" : {
        "isrc" : "ushm91470184"
      },
      "external_urls" : {
        "spotify" : "https://open.spotify.com/track/09jyM3sGfokzBsZ46X8rqj"
      },
      "href" : "https://api.spotify.com/v1/tracks/09jyM3sGfokzBsZ46X8rqj",
      "id" : "09jyM3sGfokzBsZ46X8rqj",
      "is_local" : false,
      "is_playable" : true,
      "name" : "Watchman, Tell Us of the Night",
      "popularity" : 0,
      "preview_url" : "https://p.scdn.co/mp3-preview/93f9115ab158bd6c03d1a43eb4b2b4af47bab7df?cid=774b29d4f13844c495f206cafdad9c86",
      "track_number" : 8,
      "type" : "track",
      "uri" : "spotify:track:09jyM3sGfokzBsZ46X8rqj"
    }, {
      "album" : {
        "album_type" : "album",
        "artists" : [ {
          "external_urls" : {
            "spotify" : "https://open.spotify.com/artist/4YNwYlgMLlf1sviSR9JeQy"
          },
          "href" : "https://api.spotify.com/v1/artists/4YNwYlgMLlf1sviSR9JeQy",
          "id" : "4YNwYlgMLlf1sviSR9JeQy",
          "name" : "Karen Mitzo Hilderbrand",
          "type" : "artist",
          "uri" : "spotify:artist:4YNwYlgMLlf1sviSR9JeQy"
        } ],
        "external_urls" : {
          "spotify" : "https://open.spotify.com/album/7luXjqjUy8YNs5Ia4ocXSC"
        },
        "href" : "https://api.spotify.com/v1/albums/7luXjqjUy8YNs5Ia4ocXSC",
        "id" : "7luXjqjUy8YNs5Ia4ocXSC",
        "images" : [ {
          "height" : 640,
          "url" : "https://i.scdn.co/image/ab67616d0000b27335ba636769a3b7c7a9403913",
          "width" : 640
        }, {
          "height" : 300,
          "url" : "https://i.scdn.co/image/ab67616d00001e0235ba636769a3b7c7a9403913",
          "width" : 300
        }, {
          "height" : 64,
          "url" : "https://i.scdn.co/image/ab67616d0000485135ba636769a3b7c7a9403913",
          "width" : 64
        } ],
        "name" : "Twin Sisters: Relaxing Christmas",
        "release_date" : "2004",
        "release_date_precision" : "year",
        "total_tracks" : 24,
        "type" : "album",
        "uri" : "spotify:album:7luXjqjUy8YNs5Ia4ocXSC"
      },
      "artists" : [ {
        "external_urls" : {
          "spotify" : "https://open.spotify.com/artist/258Dm9AVtfbZA1w7gnEtzq"
        },
        "href" : "https://api.spotify.com/v1/artists/258Dm9AVtfbZA1w7gnEtzq",
        "id" : "258Dm9AVtfbZA1w7gnEtzq",
        "name" : "Kim Mitzo Thompson",
        "type" : "artist",
        "uri" : "spotify:artist:258Dm9AVtfbZA1w7gnEtzq"
      }, {
        "external_urls" : {
          "spotify" : "https://open.spotify.com/artist/4YNwYlgMLlf1sviSR9JeQy"
        },
        "href" : "https://api.spotify.com/v1/artists/4YNwYlgMLlf1sviSR9JeQy",
        "id" : "4YNwYlgMLlf1sviSR9JeQy",
        "name" : "Karen Mitzo Hilderbrand",
        "type" : "artist",
        "uri" : "spotify:artist:4YNwYlgMLlf1sviSR9JeQy"
      } ],
      "disc_number" : 1,
      "duration_ms" : 92320,
      "explicit" : false,
      "external_ids" : {
        "isrc" : "USFEY1220384"
      },
      "external_urls" : {
        "spotify" : "https://open.spotify.com/track/0SZgk3DqPO28ndgwjEnzgw"
      },
      "href" : "https://api.spotify.com/v1/tracks/0SZgk3DqPO28ndgwjEnzgw",
      "id" : "0SZgk3DqPO28ndgwjEnzgw",
      "is_local" : false,
      "is_playable" : true,
      "name" : "Watchman, Tell Us of the Night",
      "popularity" : 0,
      "preview_url" : "https://p.scdn.co/mp3-preview/9d1334e28fd57ae50491765ea1dd3c741cd421ae?cid=774b29d4f13844c495f206cafdad9c86",
      "track_number" : 5,
      "type" : "track",
      "uri" : "spotify:track:0SZgk3DqPO28ndgwjEnzgw"
    }, {
      "album" : {
        "album_type" : "album",
        "artists" : [ {
          "external_urls" : {
            "spotify" : "https://open.spotify.com/artist/3KF46vzbkpKa1c9sdlidvs"
          },
          "href" : "https://api.spotify.com/v1/artists/3KF46vzbkpKa1c9sdlidvs",
          "id" : "3KF46vzbkpKa1c9sdlidvs",
          "name" : "Giovanni",
          "type" : "artist",
          "uri" : "spotify:artist:3KF46vzbkpKa1c9sdlidvs"
        } ],
        "external_urls" : {
          "spotify" : "https://open.spotify.com/album/5xSCsXWOvAmJEoKOwzuJ9C"
        },
        "href" : "https://api.spotify.com/v1/albums/5xSCsXWOvAmJEoKOwzuJ9C",
        "id" : "5xSCsXWOvAmJEoKOwzuJ9C",
        "images" : [ {
          "height" : 640,
          "url" : "https://i.scdn.co/image/ab67616d0000b27353dec010596c4bd0777fc728",
          "width" : 640
        }, {
          "height" : 300,
          "url" : "https://i.scdn.co/image/ab67616d00001e0253dec010596c4bd0777fc728",
          "width" : 300
        }, {
          "height" : 64,
          "url" : "https://i.scdn.co/image/ab67616d0000485153dec010596c4bd0777fc728",
          "width" : 64
        } ],
        "name" : "Merry Christmas 1",
        "release_date" : "2010-11-09",
        "release_date_precision" : "day",
        "total_tracks" : 11,
        "type" : "album",
        "uri" : "spotify:album:5xSCsXWOvAmJEoKOwzuJ9C"
      },
      "artists" : [ {
        "external_urls" : {
          "spotify" : "https://open.spotify.com/artist/3KF46vzbkpKa1c9sdlidvs"
        },
        "href" : "https://api.spotify.com/v1/artists/3KF46vzbkpKa1c9sdlidvs",
        "id" : "3KF46vzbkpKa1c9sdlidvs",
        "name" : "Giovanni",
        "type" : "artist",
        "uri" : "spotify:artist:3KF46vzbkpKa1c9sdlidvs"
      } ],
      "disc_number" : 1,
      "duration_ms" : 165773,
      "explicit" : false,
      "external_ids" : {
        "isrc" : "US4R31017640"
      },
      "external_urls" : {
        "spotify" : "https://open.spotify.com/track/2UdZ2nSo57iurpMHb4CteL"
      },
      "href" : "https://api.spotify.com/v1/tracks/2UdZ2nSo57iurpMHb4CteL",
      "id" : "2UdZ2nSo57iurpMHb4CteL",
      "is_local" : false,
      "is_playable" : true,
      "name" : "Watchman, Tell Us of the Night",
      "popularity" : 0,
      "preview_url" : "https://p.scdn.co/mp3-preview/c42054ee9595b88027b5a8e8fd3de1b2df763b27?cid=774b29d4f13844c495f206cafdad9c86",
      "track_number" : 5,
      "type" : "track",
      "uri" : "spotify:track:2UdZ2nSo57iurpMHb4CteL"
    }, {
      "album" : {
        "album_type" : "album",
        "artists" : [ {
          "external_urls" : {
            "spotify" : "https://open.spotify.com/artist/258Dm9AVtfbZA1w7gnEtzq"
          },
          "href" : "https://api.spotify.com/v1/artists/258Dm9AVtfbZA1w7gnEtzq",
          "id" : "258Dm9AVtfbZA1w7gnEtzq",
          "name" : "Kim Mitzo Thompson",
          "type" : "artist",
          "uri" : "spotify:artist:258Dm9AVtfbZA1w7gnEtzq"
        }, {
          "external_urls" : {
            "spotify" : "https://open.spotify.com/artist/4YNwYlgMLlf1sviSR9JeQy"
          },
          "href" : "https://api.spotify.com/v1/artists/4YNwYlgMLlf1sviSR9JeQy",
          "id" : "4YNwYlgMLlf1sviSR9JeQy",
          "name" : "Karen Mitzo Hilderbrand",
          "type" : "artist",
          "uri" : "spotify:artist:4YNwYlgMLlf1sviSR9JeQy"
        } ],
        "external_urls" : {
          "spotify" : "https://open.spotify.com/album/3Jmtf0hIwgeTudJt70uDKS"
        },
        "href" : "https://api.spotify.com/v1/albums/3Jmtf0hIwgeTudJt70uDKS",
        "id" : "3Jmtf0hIwgeTudJt70uDKS",
        "images" : [ {
          "height" : 640,
          "url" : "https://i.scdn.co/image/ab67616d0000b273d2f3f7fc61c3daf34c119e46",
          "width" : 640
        }, {
          "height" : 300,
          "url" : "https://i.scdn.co/image/ab67616d00001e02d2f3f7fc61c3daf34c119e46",
          "width" : 300
        }, {
          "height" : 64,
          "url" : "https://i.scdn.co/image/ab67616d00004851d2f3f7fc61c3daf34c119e46",
          "width" : 64
        } ],
        "name" : "Twin Sisters: Christmas Is for Quiet Moments",
        "release_date" : "2008",
        "release_date_precision" : "year",
        "total_tracks" : 24,
        "type" : "album",
        "uri" : "spotify:album:3Jmtf0hIwgeTudJt70uDKS"
      },
      "artists" : [ {
        "external_urls" : {
          "spotify" : "https://open.spotify.com/artist/258Dm9AVtfbZA1w7gnEtzq"
        },
        "href" : "https://api.spotify.com/v1/artists/258Dm9AVtfbZA1w7gnEtzq",
        "id" : "258Dm9AVtfbZA1w7gnEtzq",
        "name" : "Kim Mitzo Thompson",
        "type" : "artist",
        "uri" : "spotify:artist:258Dm9AVtfbZA1w7gnEtzq"
      }, {
        "external_urls" : {
          "spotify" : "https://open.spotify.com/artist/4YNwYlgMLlf1sviSR9JeQy"
        },
        "href" : "https://api.spotify.com/v1/artists/4YNwYlgMLlf1sviSR9JeQy",
        "id" : "4YNwYlgMLlf1sviSR9JeQy",
        "name" : "Karen Mitzo Hilderbrand",
        "type" : "artist",
        "uri" : "spotify:artist:4YNwYlgMLlf1sviSR9JeQy"
      } ],
      "disc_number" : 1,
      "duration_ms" : 92320,
      "explicit" : false,
      "external_ids" : {
        "isrc" : "USFEY1220384"
      },
      "external_urls" : {
        "spotify" : "https://open.spotify.com/track/79y9qc0qfDhNOKKYjDCObF"
      },
      "href" : "https://api.spotify.com/v1/tracks/79y9qc0qfDhNOKKYjDCObF",
      "id" : "79y9qc0qfDhNOKKYjDCObF",
      "is_local" : false,
      "is_playable" : true,
      "name" : "Watchman, Tell Us of the Night",
      "popularity" : 0,
      "preview_url" : "https://p.scdn.co/mp3-preview/9d1334e28fd57ae50491765ea1dd3c741cd421ae?cid=774b29d4f13844c495f206cafdad9c86",
      "track_number" : 5,
      "type" : "track",
      "uri" : "spotify:track:79y9qc0qfDhNOKKYjDCObF"
    }, {
      "album" : {
        "album_type" : "album",
        "artists" : [ {
          "external_urls" : {
            "spotify" : "https://open.spotify.com/artist/1h9n5dTdX1itAkl4WPBjkP"
          },
          "href" : "https://api.spotify.com/v1/artists/1h9n5dTdX1itAkl4WPBjkP",
          "id" : "1h9n5dTdX1itAkl4WPBjkP",
          "name" : "Eddie Lewis",
          "type" : "artist",
          "uri" : "spotify:artist:1h9n5dTdX1itAkl4WPBjkP"
        } ],
        "external_urls" : {
          "spotify" : "https://open.spotify.com/album/6H4A3IjmbPdR3lUmZTrYA6"
        },
        "href" : "https://api.spotify.com/v1/albums/6H4A3IjmbPdR3lUmZTrYA6",
        "id" : "6H4A3IjmbPdR3lUmZTrYA6",
        "images" : [ {
          "height" : 640,
          "url" : "https://i.scdn.co/image/ab67616d0000b2730a6d25330250131a8ad279ed",
          "width" : 640
        }, {
          "height" : 300,
          "url" : "https://i.scdn.co/image/ab67616d00001e020a6d25330250131a8ad279ed",
          "width" : 300
        }, {
          "height" : 64,
          "url" : "https://i.scdn.co/image/ab67616d000048510a6d25330250131a8ad279ed",
          "width" : 64
        } ],
        "name" : "Unadorned Trumpet Carols",
        "release_date" : "2016-10-01",
        "release_date_precision" : "day",
        "total_tracks" : 49,
        "type" : "album",
        "uri" : "spotify:album:6H4A3IjmbPdR3lUmZTrYA6"
      },
      "artists" : [ {
        "external_urls" : {
          "spotify" : "https://open.spotify.com/artist/1h9n5dTdX1itAkl4WPBjkP"
        },
        "href" : "https://api.spotify.com/v1/artists/1h9n5dTdX1itAkl4WPBjkP",
        "id" : "1h9n5dTdX1itAkl4WPBjkP",
        "name" : "Eddie Lewis",
        "type" : "artist",
        "uri" : "spotify:artist:1h9n5dTdX1itAkl4WPBjkP"
      } ],
      "disc_number" : 1,
      "duration_ms" : 93377,
      "explicit" : false,
      "external_ids" : {
        "isrc" : "QMRVS1600202"
      },
      "external_urls" : {
        "spotify" : "https://open.spotify.com/track/7clnEBTjjuu36xuisGQEUo"
      },
      "href" : "https://api.spotify.com/v1/tracks/7clnEBTjjuu36xuisGQEUo",
      "id" : "7clnEBTjjuu36xuisGQEUo",
      "is_local" : false,
      "is_playable" : true,
      "name" : "Watchman, Tell Us of the Night",
      "popularity" : 0,
      "preview_url" : "https://p.scdn.co/mp3-preview/874042a73aabb486d0ab395e7bbb56ac4a54e912?cid=774b29d4f13844c495f206cafdad9c86",
      "track_number" : 3,
      "type" : "track",
      "uri" : "spotify:track:7clnEBTjjuu36xuisGQEUo"
    }, {
      "album" : {
        "album_type" : "album",
        "artists" : [ {
          "external_urls" : {
            "spotify" : "https://open.spotify.com/artist/4d9bvSXerlNBLlfa9UvpKe"
          },
          "href" : "https://api.spotify.com/v1/artists/4d9bvSXerlNBLlfa9UvpKe",
          "id" : "4d9bvSXerlNBLlfa9UvpKe",
          "name" : "Matt Conner",
          "type" : "artist",
          "uri" : "spotify:artist:4d9bvSXerlNBLlfa9UvpKe"
        } ],
        "external_urls" : {
          "spotify" : "https://open.spotify.com/album/5tB1XRy37NK0JE9OfZjjxg"
        },
        "href" : "https://api.spotify.com/v1/albums/5tB1XRy37NK0JE9OfZjjxg",
        "id" : "5tB1XRy37NK0JE9OfZjjxg",
        "images" : [ {
          "height" : 640,
          "url" : "https://i.scdn.co/image/ab67616d0000b273eaa3dd881649a7f8c584c2e3",
          "width" : 640
        }, {
          "height" : 300,
          "url" : "https://i.scdn.co/image/ab67616d00001e02eaa3dd881649a7f8c584c2e3",
          "width" : 300
        }, {
          "height" : 64,
          "url" : "https://i.scdn.co/image/ab67616d00004851eaa3dd881649a7f8c584c2e3",
          "width" : 64
        } ],
        "name" : "Icicle",
        "release_date" : "2012-11-26",
        "release_date_precision" : "day",
        "total_tracks" : 14,
        "type" : "album",
        "uri" : "spotify:album:5tB1XRy37NK0JE9OfZjjxg"
      },
      "artists" : [ {
        "external_urls" : {
          "spotify" : "https://open.spotify.com/artist/4d9bvSXerlNBLlfa9UvpKe"
        },
        "href" : "https://api.spotify.com/v1/artists/4d9bvSXerlNBLlfa9UvpKe",
        "id" : "4d9bvSXerlNBLlfa9UvpKe",
        "name" : "Matt Conner",
        "type" : "artist",
        "uri" : "spotify:artist:4d9bvSXerlNBLlfa9UvpKe"
      } ],
      "disc_number" : 1,
      "duration_ms" : 220030,
      "explicit" : false,
      "external_ids" : {
        "isrc" : "usx9p1225492"
      },
      "external_urls" : {
        "spotify" : "https://open.spotify.com/track/0Deae4WxNKoUGgNmvGzg27"
      },
      "href" : "https://api.spotify.com/v1/tracks/0Deae4WxNKoUGgNmvGzg27",
      "id" : "0Deae4WxNKoUGgNmvGzg27",
      "is_local" : false,
      "is_playable" : true,
      "name" : "Watchman, Tell Us of the Night",
      "popularity" : 0,
      "preview_url" : "https://p.scdn.co/mp3-preview/47d0b05db2a08ab55a4e0610a1a0515adff3eaa7?cid=774b29d4f13844c495f206cafdad9c86",
      "track_number" : 14,
      "type" : "track",
      "uri" : "spotify:track:0Deae4WxNKoUGgNmvGzg27"
    } ],
    "limit" : 10,
    "next" : "https://api.spotify.com/v1/search?query=Watchman%2C+Tell+Us+of+the+Night&type=track&market=US&offset=15&limit=10",
    "offset" : 5,
    "previous" : "https://api.spotify.com/v1/search?query=Watchman%2C+Tell+Us+of+the+Night&type=track&market=US&offset=0&limit=10",
    "total" : 73
  }
}