{
  "tracks" : {
    "href" : "https://api.spotify.com/v1/search?query=Bringing+in+the+Sheaves&type=track&market=US&offset=5&limit=10",
    "items" : [ {
      "album" : {
        "album_type" : "album",
        "artists" : [ {
          "external_urls" : {
            "spotify" : "https://open.spotify.com/artist/2duo4NJtUrLaI38trK0hht"
          },
          "href" : "https://api.spotify.com/v1/artists/2duo4NJtUrLaI38trK0hht",
          "id" : "2duo4NJtUrLaI38trK0hht",
          "name" : "Mormon Tabernacle Choir",
          "type" : "artist",
          "uri" : "spotify:artist:2duo4NJtUrLaI38trK0hht"
        } ],
        "external_urls" : {
          "spotify" : "https://open.spotify.com/album/235O9JdWj2FxUFXdjl22lo"
        },
        "href" : "https://api.spotify.com/v1/albums/235O9JdWj2FxUFXdjl22lo",
        "id" : "235O9JdWj2FxUFXdjl22lo",
        "images" : [ {
          "height" : 640,
          "url" : "https://i.scdn.co/image/ab67616d0000b273923fcab6bee801b9f9f649a6",
          "width" : 640
        }, {
          "height" : 300,
          "url" : "https://i.scdn.co/image/ab67616d00001e02923fcab6bee801b9f9f649a6",
          "width" : 300
        }, {
          "height" : 64,
          "url" : "https://i.scdn.co/image/ab67616d00004851923fcab6bee801b9f9f649a6",
          "width" : 64
        } ],
        "name" : "Rock of Ages - 30 Favorite Hymns (with The Philadelphia Brass Ensemble & Percussion & Alexander Schreiner)",
        "release_date" : "1960",
        "release_date_precision" : "year",
        "total_tracks" : 30,
        "type" : "album",
        "uri" : "spotify:album:235O9JdWj2FxUFXdjl22lo"
      },
      "artists" : [ {
        "external_urls" : {
          "spotify" : "https://open.spotify.com/artist/5DN3YWCIWwk8X2zsmHK3sX"
        },
        "href" : "https://api.spotify.com/v1/artists/5DN3YWCIWwk8X2zsmHK3sX",
        "id" : "5DN3YWCIWwk8X2zsmHK3sX",
        "name" : "George A. Minor",
        "type" : "artist",
        "uri" : "spotify:artist:5DN3YWCIWwk8X2zsmHK3sX"
      }, {
        "external_urls" : {
          "spotify" : "https://open.spotify.com/artist/2duo4NJtUrLaI38trK0hht"
        },
        "href" : "https://api.spotify.com/v1/artists/2duo4NJtUrLaI38trK0hht",
        "id" : "2duo4NJtUrLaI38trK0hht",
        "name" : "Mormon Tabernacle Choir",
        "type" : "artist",
        "uri" : "spotify:artist:2duo4NJtUrLaI38trK0hht"
      }, {
        "external_urls" : {
          "spotify" : "https://open.spotify.com/artist/7msm7itiMt8EnLLTBDTp3H"
        },
        "href" : "https://api.spotify.com/v1/artists/7msm7itiMt8EnLLTBDTp3H",
        "id" : "7msm7itiMt8EnLLTBDTp3H",
        "name" : "Richard P. Condie",
        "type" : "artist",
        "uri" : "spotify:artist:7msm7itiMt8EnLLTBDTp3H"
      }, {
        "external_urls" : {
          "spotify" : "https://open.spotify.com/artist/65dK30YxV8h1n7VSAhTiUi"
        },
        "href" : "https://api.spotify.com/v1/artists/65dK30YxV8h1n7VSAhTiUi",
        "id" : "65dK30YxV8h1n7VSAhTiUi",
        "name" : "Alexander Schreiner",
        "type" : "artist",
        "uri" : "spotify:artist:65dK30YxV8h1n7VSAhTiUi"
      }, {
        "external_urls" : {
          "spotify" : "https://open.spotify.com/artist/3lOftQQkjrA48AxTX7lJcv"
        },
        "href" : "https://api.spotify.com/v1/artists/3lOftQQkjrA48AxTX7lJcv",
        "id" : "3lOftQQkjrA48AxTX7lJcv",
        "name" : "The Philadelphia Brass Ensemble & Percussion",
        "type" : "artist",
        "uri" : "spotify:artist:3lOftQQkjrA48AxTX7lJcv"
      } ],
      "disc_number" : 1,
      "duration_ms" : 144466,
      "explicit" : false,
      "external_ids" : {
        "isrc" : "USSM16901050"
      },
      "external_urls" : {
        "spotify" : "https://open.spotify.com/track/60AUCD4IatzmLbIgChb3Zk"
      },
      "href" : "https://api.spotify.com/v1/tracks/60AUCD4IatzmLbIgChb3Zk",
      "id" : "60AUCD4IatzmLbIgChb3Zk",
      "is_local" : false,
      "is_playable" : true,
      "name" : "Bringing in the Sheaves - Voice",
      "popularity" : 12,
      "preview_url" : "https://p.scdn.co/mp3-preview/70bd7cfec7eec27b04bcb2134d0551ccb745038e?cid=774b29d4f13844c495f206cafdad9c86",
      "track_number" : 3,
      "type" : "track",
      "uri" : "spotify:track:60AUCD4IatzmLbIgChb3Zk"
    }, {
      "album" : {
        "album_type" : "album",
        "artists" : [ {
          "external_urls" : {
            "spotify" : "https://open.spotify.com/artist/6MvOzxAHNN6TBpM9TqXwum"
          },
          "href" : "https://api.spotify.com/v1/artists/6MvOzxAHNN6TBpM9TqXwum",
          "id" : "6MvOzxAHNN6TBpM9TqXwum",
          "name" : "The Chuck Wagon Gang",
          "type" : "artist",
          "uri" : "spotify:artist:6MvOzxAHNN6TBpM9TqXwum"
        } ],
        "external_urls" : {
          "spotify" : "https://open.spotify.com/album/6uC3U2O1edDgXn9brhHjD2"
        },
        "href" : "https://api.spotify.com/v1/albums/6uC3U2O1edDgXn9brhHjD2",
        "id" : "6uC3U2O1edDgXn9brhHjD2",
        "images" : [ {
          "height" : 640,
          "url" : "https://i.scdn.co/image/ab67616d0000b273175ff687c9c259e575e70bcc",
          "width" : 640
        }, {
          "height" : 300,
          "url" : "https://i.scdn.co/image/ab67616d00001e02175ff687c9c259e575e70bcc",
          "width" : 300
        }, {
          "height" : 64,
          "url" : "https://i.scdn.co/image/ab67616d00004851175ff687c9c259e575e70bcc",
          "width" : 64
        } ],
        "name" : "30 Country Gospel Favorites",
        "release_date" : "2010-08-05",
        "release_date_precision" : "day",
        "total_tracks" : 30,
        "type" : "album",
        "uri" : "spotify:album:6uC3U2O1edDgXn9brhHjD2"
      },
      "artists" : [ {
        "external_urls" : {
          "spotify" : "https://open.spotify.com/artist/6MvOzxAHNN6TBpM9TqXwum"
        },
        "href" : "https://api.spotify.com/v1/artists/6MvOzxAHNN6TBpM9TqXwum",
        "id" : "6MvOzxAHNN6TBpM9TqXwum",
        "name" : "The Chuck Wagon Gang",
        "type" : "artist",
        "uri" : "spotify:artist:6MvOzxAHNN6TBpM9TqXwum"
      } ],
      "disc_number" : 1,
      "duration_ms" : 142333,
      "explicit" : false,
      "external_ids" : {
        "isrc" : "US84U1010254"
      },
      "external_urls" : {
        "spotify" : "https://open.spotify.com/track/4Uyulza8ThnLkJhAxYuhT9"
      },
      "href" : "https://api.spotify.com/v1/tracks/4Uyulza8ThnLkJhAxYuhT9",
      "id" : "4Uyulza8ThnLkJhAxYuhT9",
      "is_local" : false,
      "is_playable" : true,
      "name" : "Bringing In The Sheaves",
      "popularity" : 11,
      "preview_url" : "https://p.scdn.co/mp3-preview/c981af35c46d4a9db38fc5fcdf6f71439bef02bb?cid=774b29d4f13844c495f206cafdad9c86",
      "track_number" : 3,
      "type" : "track",
      "uri" : "spotify:track:4Uyulza8ThnLkJhAxYuhT9"
    }, {
      "album" : {
        "album_type" : "album",
        "artists" : [ {
          "external_urls" : {
            "spotify" : "https://open.spotify.com/artist/7wVgfy012qNvQ607JM5Qsf"
          },
          "href" : "https://api.spotify.com/v1/artists/7wVgfy012qNvQ607JM5Qsf",
          "id" : "7wVgfy012qNvQ607JM5Qsf",
          "name" : "Red Sovine",
          "type" : "artist",
          "uri" : "spotify:artist:7wVgfy012qNvQ607JM5Qsf"
        } ],
        "external_urls" : {
          "spotify" : "https://open.spotify.com/album/41D7THRT5BRcJicJd94TIO"
        },
        "href" : "https://api.spotify.com/v1/albums/41D7THRT5BRcJicJd94TIO",
        "id" : "41D7THRT5BRcJicJd94TIO",
        "images" : [ {
          "height" : 640,
          "url" : "https://i.scdn.co/image/ab67616d0000b2733f77f1da031da3fed4f499ae",
          "width" : 640
        }, {
          "height" : 300,
          "url" : "https://i.scdn.co/image/ab67616d00001e023f77f1da031da3fed4f499ae",
          "width" : 300
        }, {
          "height" : 64,
          "url" : "https://i.scdn.co/image/ab67616d000048513f77f1da031da3fed4f499ae",
          "width" : 64
        } ],
        "name" : "20 Greatest All Time Gospel Hits",
        "release_date" : "2005",
        "release_date_precision" : "year",
        "total_tracks" : 20,
        "type" : "album",
        "uri" : "spotify:album:41D7THRT5BRcJicJd94TIO"
      },
      "artists" : [ {
        "external_urls" : {
          "spotify" : "https://open.spotify.com/artist/7wVgfy012qNvQ607JM5Qsf"
        },
        "href" : "https://api.spotify.com/v1/artists/7wVgfy012qNvQ607JM5Qsf",
        "id" : "7wVgfy012qNvQ607JM5Qsf",
        "name" : "Red Sovine",
        "type" : "artist",
        "uri" : "spotify:artist:7wVgfy012qNvQ607JM5Qsf"
      } ],
      "disc_number" : 1,
      "duration_ms" : 95666,
      "explicit" : false,
      "external_ids" : {
        "isrc" : "USACU0503338"
      },
      "external_urls" : {
        "spotify" : "https://open.spotify.com/track/1U93Vkx7LTaS24i3v9D6AH"
      },
      "href" : "https://api.spotify.com/v1/tracks/1U93Vkx7LTaS24i3v9D6AH",
      "id" : "1U93Vkx7LTaS24i3v9D6AH",
      "is_local" : false,
      "is_playable" : true,
      "name" : "Bringing In The Sheaves",
      "popularity" : 11,
      "preview_url" : "https://p.scdn.co/mp3-preview/9d7d97cc7c6fe19024be77107b529aea4428e956?cid=774b29d4f13844c495f206cafdad9c86",
      "track_number" : 8,
      "type" : "track",
      "uri" : "spotify:track:1U93Vkx7LTaS24i3v9D6AH"
    }, {
      "album" : {
        "album_type" : "album",
        "artists" : [ {
          "external_urls" : {
            "spotify" : "https://open.spotify.com/artist/68oEcNDQuBtXQJrYa3VYxN"
          },
          "href" : "https://api.spotify.com/v1/artists/68oEcNDQuBtXQJrYa3VYxN",
          "id" : "68oEcNDQuBtXQJrYa3VYxN",
          "name" : "Jim Hendricks",
          "type" : "artist",
          "uri" : "spotify:artist:68oEcNDQuBtXQJrYa3VYxN"
        } ],
        "external_urls" : {
          "spotify" : "https://open.spotify.com/album/6brb60XfVYbV0djhVc3KXC"
        },
        "href" : "https://api.spotify.com/v1/albums/6brb60XfVYbV0djhVc3KXC",
        "id" : "6brb60XfVYbV0djhVc3KXC",
        "images" : [ {
          "height" : 640,
          "url" : "https://i.scdn.co/image/ab67616d0000b27359a98dc5b6ace90cd6deabd7",
          "width" : 640
        }, {
          "height" : 300,
          "url" : "https://i.scdn.co/image/ab67616d00001e0259a98dc5b6ace90cd6deabd7",
          "width" : 300
        }, {
          "height" : 64,
          "url" : "https://i.scdn.co/image/ab67616d0000485159a98dc5b6ace90cd6deabd7",
          "width" : 64
        } ],
        "name" : "Country Mountain Hymns",
        "release_date" : "1995-01-01",
        "release_date_precision" : "day",
        "total_tracks" : 20,
        "type" : "album",
        "uri" : "spotify:album:6brb60XfVYbV0djhVc3KXC"
      },
      "artists" : [ {
        "external_urls" : {
          "spotify" : "https://open.spotify.com/artist/68oEcNDQuBtXQJrYa3VYxN"
        },
        "href" : "https://api.spotify.com/v1/artists/68oEcNDQuBtXQJrYa3VYxN",
        "id" : "68oEcNDQuBtXQJrYa3VYxN",
        "name" : "Jim Hendricks",
        "type" : "artist",
        "uri" : "spotify:artist:68oEcNDQuBtXQJrYa3VYxN"
      } ],
      "disc_number" : 1,
      "duration_ms" : 180533,
      "explicit" : false,
      "external_ids" : {
        "isrc" : "USB4U0651172"
      },
      "external_urls" : {
        "spotify" : "https://open.spotify.com/track/23DNtfo19TY3Idgm3aE6vC"
      },
      "href" : "https://api.spotify.com/v1/tracks/23DNtfo19TY3Idgm3aE6vC",
      "id" : "23DNtfo19TY3Idgm3aE6vC",
      "is_local" : false,
      "is_playable" : true,
      "name" : "Bringing In The Sheaves",
      "popularity" : 10,
      "preview_url" : null,
      "track_number" : 19,
      "type" : "track",
      "uri" : "spotify:track:23DNtfo19TY3Idgm3aE6vC"
    }, {
      "album" : {
        "album_type" : "album",
        "artists" : [ {
          "external_urls" : {
            "spotify" : "https://open.spotify.com/artist/6MvOzxAHNN6TBpM9TqXwum"
          },
          "href" : "https://api.spotify.com/v1/artists/6MvOzxAHNN6TBpM9TqXwum",
          "id" : "6MvOzxAHNN6TBpM9TqXwum",
          "name" : "The Chuck Wagon Gang",
          "type" : "artist",
          "uri" : "spotify:artist:6MvOzxAHNN6TBpM9TqXwum"
        } ],
        "external_urls" : {
          "spotify" : "https://open.spotify.com/album/70a0kM7TxaiOpZFB5YDImV"
        },
        "href" : "https://api.spotify.com/v1/albums/70a0kM7TxaiOpZFB5YDImV",
        "id" : "70a0kM7TxaiOpZFB5YDImV",
        "images" : [ {
          "height" : 640,
          "url" : "https://i.scdn.co/image/ab67616d0000b2732c4192e8f096f310fb24cf52",
          "width" : 640
        }, {
          "height" : 300,
          "url" : "https://i.scdn.co/image/ab67616d00001e022c4192e8f096f310fb24cf52",
          "width" : 300
        }, {
          "height" : 64,
          "url" : "https://i.scdn.co/image/ab67616d000048512c4192e8f096f310fb24cf52",
          "width" : 64
        } ],
        "name" : "Old Time Country Hymns",
        "release_date" : "2016-09-13",
        "release_date_precision" : "day",
        "total_tracks" : 16,
        "type" : "album",
        "uri" : "spotify:album:70a0kM7TxaiOpZFB5YDImV"
      },
      "artists" : [ {
        "external_urls" : {
          "spotify" : "https://open.spotify.com/artist/6MvOzxAHNN6TBpM9TqXwum"
        },
        "href" : "https://api.spotify.com/v1/artists/6MvOzxAHNN6TBpM9TqXwum",
        "id" : "6MvOzxAHNN6TBpM9TqXwum",
        "name" : "The Chuck Wagon Gang",
        "type" : "artist",
        "uri" : "spotify:artist:6MvOzxAHNN6TBpM9TqXwum"
      } ],
      "disc_number" : 1,
      "duration_ms" : 137120,
      "explicit" : false,
      "external_ids" : {
        "isrc" : "US84U1010189"
      },
      "external_urls" : {
        "spotify" : "https://open.spotify.com/track/0bItK3hDM3s6UoxlshjqQ5"
      },
      "href" : "https://api.spotify.com/v1/tracks/0bItK3hDM3s6UoxlshjqQ5",
      "id" : "0bItK3hDM3s6UoxlshjqQ5",
      "is_local" : false,
      "is_playable" : true,
      "name" : "Bringing in the Sheaves",
      "popularity" : 7,
      "preview_url" : "https://p.scdn.co/mp3-preview/3b63828823d680caba62e614fa981919c47f60a8?cid=774b29d4f13844c495f206cafdad9c86",
      "track_number" : 6,
      "type" : "track",
      "uri" : "spotify:track:0bItK3hDM3s6UoxlshjqQ5"
    }, {
      "album" : {
        "album_type" : "album",
        "artists" : [ {
          "external_urls" : {
            "spotify" : "https://open.spotify.com/artist/6iOpZ3mUTWOjjER4mGcZmS"
          },
          "href" : "https://api.spotify.com/v1/artists/6iOpZ3mUTWOjjER4mGcZmS",
          "id" : "6iOpZ3mUTWOjjER4mGcZmS",
          "name" : "Roy Clark",
          "type" : "artist",
          "uri" : "spotify:artist:6iOpZ3mUTWOjjER4mGcZmS"
        } ],
        "external_urls" : {
          "spotify" : "https://open.spotify.com/album/1MwxwSklpLfbU5efuCgldP"
        },
        "href" : "https://api.spotify.com/v1/albums/1MwxwSklpLfbU5efuCgldP",
        "id" : "1MwxwSklpLfbU5efuCgldP",
        "images" : [ {
          "height" : 640,
          "url" : "https://i.scdn.co/image/ab67616d0000b27397d307f9af5b81af59814bf2",
          "width" : 640
        }, {
          "height" : 300,
          "url" : "https://i.scdn.co/image/ab67616d00001e0297d307f9af5b81af59814bf2",
          "width" : 300
        }, {
          "height" : 64,
          "url" : "https://i.scdn.co/image/ab67616d0000485197d307f9af5b81af59814bf2",
          "width" : 64
        } ],
        "name" : "Roy Clark Sings & Plays Gospel Greats",
        "release_date" : "2000-03-01",
        "release_date_precision" : "day",
        "total_tracks" : 17,
        "type" : "album",
        "uri" : "spotify:album:1MwxwSklpLfbU5efuCgldP"
      },
      "artists" : [ {
        "external_urls" : {
          "spotify" : "https://open.spotify.com/artist/6iOpZ3mUTWOjjER4mGcZmS"
        },
        "href" : "https://api.spotify.com/v1/artists/6iOpZ3mUTWOjjER4mGcZmS",
        "id" : "6iOpZ3mUTWOjjER4mGcZmS",
        "name" : "Roy Clark",
        "type" : "artist",
        "uri" : "spotify:artist:6iOpZ3mUTWOjjER4mGcZmS"
      } ],
      "disc_number" : 1,
      "duration_ms" : 125252,
      "explicit" : false,
      "external_ids" : {
        "isrc" : "USVX70010051"
      },
      "external_urls" : {
        "spotify" : "https://open.spotify.com/track/45yRoRmtehR0TgFxyAFsZe"
      },
      "href" : "https://api.spotify.com/v1/tracks/45yRoRmtehR0TgFxyAFsZe",
      "id" : "45yRoRmtehR0TgFxyAFsZe",
      "is_local" : false,
      "is_playable" : true,
      "name" : "Bringing in the Sheaves",
      "popularity" : 8,
      "preview_url" : "https://p.scdn.co/mp3-preview/d2a27c5dda7456a79c0387c9448d766459974741?cid=774b29d4f13844c495f206cafdad9c86",
      "track_number" : 11,
      "type" : "track",
      "uri" : "spotify:track:45yRoRmtehR0TgFxyAFsZe"
    }, {
      "album" : {
        "album_type" : "album",
        "artists" : [ {
          "external_urls" : {
            "spotify" : "https://open.spotify.com/artist/6TFlR0sAi71j8mc3scoX4M"
          },
          "href" : "https://api.spotify.com/v1/artists/6TFlR0sAi71j8mc3scoX4M",
          "id" : "6TFlR0sAi71j8mc3scoX4M",
          "name" : "Heartland Choir",
          "type" : "artist",
          "uri" : "spotify:artist:6TFlR0sAi71j8mc3scoX4M"
        } ],
        "external_urls" : {
          "spotify" : "https://open.spotify.com/album/6LWzBRPUOmCpQZDwUI5ZXm"
        },
        "href" : "https://api.spotify.com/v1/albums/6LWzBRPUOmCpQZDwUI5ZXm",
        "id" : "6LWzBRPUOmCpQZDwUI5ZXm",
        "images" : [ {
          "height" : 640,
          "url" : "https://i.scdn.co/image/ab67616d0000b2737db6758b770909923b687ece",
          "width" : 640
        }, {
          "height" : 300,
          "url" : "https://i.scdn.co/image/ab67616d00001e027db6758b770909923b687ece",
          "width" : 300
        }, {
          "height" : 64,
          "url" : "https://i.scdn.co/image/ab67616d000048517db6758b770909923b687ece",
          "width" : 64
        } ],
        "name" : "Hymns From The Heartland Vol. 1 Midline",
        "release_date" : "2008-03-18",
        "release_date_precision" : "day",
        "total_tracks" : 16,
        "type" : "album",
        "uri" : "spotify:album:6LWzBRPUOmCpQZDwUI5ZXm"
      },
      "artists" : [ {
        "external_urls" : {
          "spotify" : "https://open.spotify.com/artist/6TFlR0sAi71j8mc3scoX4M"
        },
        "href" : "https://api.spotify.com/v1/artists/6TFlR0sAi71j8mc3scoX4M",
        "id" : "6TFlR0sAi71j8mc3scoX4M",
        "name" : "Heartland Choir",
        "type" : "artist",
        "uri" : "spotify:artist:6TFlR0sAi71j8mc3scoX4M"
      } ],
      "disc_number" : 1,
      "duration_ms" : 181466,
      "explicit" : false,
      "external_ids" : {
        "isrc" : "US2CS0800141"
      },
      "external_urls" : {
        "spotify" : "https://open.spotify.com/track/2MYvNL4jXy7sOkGD0kso0t"
      },
      "href" : "https://api.spotify.com/v1/tracks/2MYvNL4jXy7sOkGD0kso0t",
      "id" : "2MYvNL4jXy7sOkGD0kso0t",
      "is_local" : false,
      "is_playable" : true,
      "name" : "Bringing In the Sheaves",
      "popularity" : 6,
      "preview_url" : "https://p.scdn.co/mp3-preview/3763066841844a6163c35d01d30cf85a42abeda0?cid=774b29d4f13844c495f206cafdad9c86",
      "track_number" : 16,
      "type" : "track",
      "uri" : "spotify:track:2MYvNL4jXy7sOkGD0kso0t"
    }, {
      "album" : {
        "album_type" : "album",
        "artists" : [ {
          "external_urls" : {
            "spotify" : "https://open.spotify.com/artist/0MCU2OpgnSB7rm5UPUMHgt"
          },
          "href" : "https://api.spotify.com/v1/artists/0MCU2OpgnSB7rm5UPUMHgt",
          "id" : "0MCU2OpgnSB7rm5UPUMHgt",
          "name" : "Cedarmont Kids",
          "type" : "artist",
          "uri" : "spotify:artist:0MCU2OpgnSB7rm5UPUMHgt"
        } ],
        "external_urls" : {
          "spotify" : "https://open.spotify.com/album/6IsMuKCzRSdfK9uRNq5Bfd"
        },
        "href" : "https://api.spotify.com/v1/albums/6IsMuKCzRSdfK9uRNq5Bfd",
        "id" : "6IsMuKCzRSdfK9uRNq5Bfd",
        "images" : [ {
          "height" : 640,
          "url" : "https://i.scdn.co/image/ab67616d0000b2739e6ce337aa67d1f0162a5ba4",
          "width" : 640
        }, {
          "height" : 300,
          "url" : "https://i.scdn.co/image/ab67616d00001e029e6ce337aa67d1f0162a5ba4",
          "width" : 300
        }, {
          "height" : 64,
          "url" : "https://i.scdn.co/image/ab67616d000048519e6ce337aa67d1f0162a5ba4",
          "width" : 64
        } ],
        "name" : "Hymns",
        "release_date" : "1997-07-06",
        "release_date_precision" : "day",
        "total_tracks" : 32,
        "type" : "album",
        "uri" : "spotify:album:6IsMuKCzRSdfK9uRNq5Bfd"
      },
      "artists" : [ {
        "external_urls" : {
          "spotify" : "https://open.spotify.com/artist/0MCU2OpgnSB7rm5UPUMHgt"
        },
        "href" : "https://api.spotify.com/v1/artists/0MCU2OpgnSB7rm5UPUMHgt",
        "id" : "0MCU2OpgnSB7rm5UPUMHgt",
        "name" : "Cedarmont Kids",
        "type" : "artist",
        "uri" : "spotify:artist:0MCU2OpgnSB7rm5UPUMHgt"
      } ],
      "disc_number" : 1,
      "duration_ms" : 105466,
      "explicit" : false,
      "external_ids" : {
        "isrc" : "USA5W0401944"
      },
      "external_urls" : {
        "spotify" : "https://open.spotify.com/track/46uZqrtPY1r8vuyjE74WgJ"
      },
      "href" : "https://api.spotify.com/v1/tracks/46uZqrtPY1r8vuyjE74WgJ",
      "id" : "46uZqrtPY1r8vuyjE74WgJ",
      "is_local" : false,
      "is_playable" : true,
      "name" : "Bringing In The Sheaves - Split Track",
      "popularity" : 7,
      "preview_url" : "https://p.scdn.co/mp3-preview/4860bcacace5c2dd43051f2088121b0412d1eb81?cid=774b29d4f13844c495f206cafdad9c86",
      "track_number" : 24,
      "type" : "track",
      "uri" : "spotify:track:46uZqrtPY1r8vuyjE74WgJ"
    }, {
      "album" : {
        "album_type" : "album",
        "artists" : [ {
          "external_urls" : {
            "spotify" : "https://open.spotify.com/artist/6MvOzxAHNN6TBpM9TqXwum"
          },
          "href" : "https://api.spotify.com/v1/artists/6MvOzxAHNN6TBpM9TqXwum",
          "id" : "6MvOzxAHNN6TBpM9TqXwum",
          "name" : "The Chuck Wagon Gang",
          "type" : "artist",
          "uri" : "spotify:artist:6MvOzxAHNN6TBpM9TqXwum"
        } ],
        "external_urls" : {
          "spotify" : "https://open.spotify.com/album/48CV1k72PRUvEQzIzOcgc6"
        },
        "href" : "https://api.spotify.com/v1/albums/48CV1k72PRUvEQzIzOcgc6",
        "id" : "48CV1k72PRUvEQzIzOcgc6",
        "images" : [ {
          "height" : 640,
          "url" : "https://i.scdn.co/image/ab67616d0000b273a49e81fdd59f28fbebf73a1e",
          "width" : 640
        }, {
          "height" : 300,
          "url" : "https://i.scdn.co/image/ab67616d00001e02a49e81fdd59f28fbebf73a1e",
          "width" : 300
        }, {
          "height" : 64,
          "url" : "https://i.scdn.co/image/ab67616d00004851a49e81fdd59f28fbebf73a1e",
          "width" : 64
        } ],
        "name" : "Old Time Hymns - Vol. 1",
        "release_date" : "2010-07-02",
        "release_date_precision" : "day",
        "total_tracks" : 10,
        "type" : "album",
        "uri" : "spotify:album:48CV1k72PRUvEQzIzOcgc6"
      },
      "artists" : [ {
        "external_urls" : {
          "spotify" : "https://open.spotify.com/artist/6MvOzxAHNN6TBpM9TqXwum"
        },
        "href" : "https://api.spotify.com/v1/artists/6MvOzxAHNN6TBpM9TqXwum",
        "id" : "6MvOzxAHNN6TBpM9TqXwum",
        "name" : "The Chuck Wagon Gang",
        "type" : "artist",
        "uri" : "spotify:artist:6MvOzxAHNN6TBpM9TqXwum"
      } ],
      "disc_number" : 1,
      "duration_ms" : 141026,
      "explicit" : false,
      "external_ids" : {
        "isrc" : "US84U1010036"
      },
      "external_urls" : {
        "spotify" : "https://open.spotify.com/track/6mBM025nOU41a6JK9bhz50"
      },
      "href" : "https://api.spotify.com/v1/tracks/6mBM025nOU41a6JK9bhz50",
      "id" : "6mBM025nOU41a6JK9bhz50",
      "is_local" : false,
      "is_playable" : true,
      "name" : "Bringing In The Sheaves",
      "popularity" : 6,
      "preview_url" : "https://p.scdn.co/mp3-preview/bc016683155ad42d40c4f11bff325f5be66ca198?cid=774b29d4f13844c495f206cafdad9c86",
      "track_number" : 4,
      "type" : "track",
      "uri" : "spotify:track:6mBM025nOU41a6JK9bhz50"
    }, {
      "album" : {
        "album_type" : "album",
        "artists" : [ {
          "external_urls" : {
            "spotify" : "https://open.spotify.com/artist/3zlTh9JWD6uUz0CobG83Rv"
          },
          "href" : "https://api.spotify.com/v1/artists/3zlTh9JWD6uUz0CobG83Rv",
          "id" : "3zlTh9JWD6uUz0CobG83Rv",
          "name" : "The Christian Choristers",
          "type" : "artist",
          "uri" : "spotify:artist:3zlTh9JWD6uUz0CobG83Rv"
        } ],
        "external_urls" : {
          "spotify" : "https://open.spotify.com/album/6FnCZIDK7aP5hI6yZA35t6"
        },
        "href" : "https://api.spotify.com/v1/albums/6FnCZIDK7aP5hI6yZA35t6",
        "id" : "6FnCZIDK7aP5hI6yZA35t6",
        "images" : [ {
          "height" : 640,
          "url" : "https://i.scdn.co/image/ab67616d0000b273210b5d09f66170f8b59b09ad",
          "width" : 640
        }, {
          "height" : 300,
          "url" : "https://i.scdn.co/image/ab67616d00001e02210b5d09f66170f8b59b09ad",
          "width" : 300
        }, {
          "height" : 64,
          "url" : "https://i.scdn.co/image/ab67616d00004851210b5d09f66170f8b59b09ad",
          "width" : 64
        } ],
        "name" : "Church in the Wildwood",
        "release_date" : "2006-08-02",
        "release_date_precision" : "day",
        "total_tracks" : 10,
        "type" : "album",
        "uri" : "spotify:album:6FnCZIDK7aP5hI6yZA35t6"
      },
      "artists" : [ {
        "external_urls" : {
          "spotify" : "https://open.spotify.com/artist/3zlTh9JWD6uUz0CobG83Rv"
        },
        "href" : "https://api.spotify.com/v1/artists/3zlTh9JWD6uUz0CobG83Rv",
        "id" : "3zlTh9JWD6uUz0CobG83Rv",
        "name" : "The Christian Choristers",
        "type" : "artist",
        "uri" : "spotify:artist:3zlTh9JWD6uUz0CobG83Rv"
      } ],
      "disc_number" : 1,
      "duration_ms" : 181440,
      "explicit" : false,
      "external_ids" : {
        "isrc" : "US4R30605182"
      },
      "external_urls" : {
        "spotify" : "https://open.spotify.com/track/63zB4nMWwIQP93vrUI9j9h"
      },
      "href" : "https://api.spotify.com/v1/tracks/63zB4nMWwIQP93vrUI9j9h",
      "id" : "63zB4nMWwIQP93vrUI9j9h",
      "is_local" : false,
      "is_playable" : true,
      "name" : "Bringing in the Sheaves",
      "popularity" : 7,
      "preview_url" : "https://p.scdn.co/mp3-preview/15871c1424726a913b0018acb55139d4b65b54d9?cid=774b29d4f13844c495f206cafdad9c86",
      "track_number" : 3,
      "type" : "track",
      "uri" : "spotify:track:63zB4nMWwIQP93vrUI9j9h"
    } ],
    "limit" : 10,
    "next" : "https://api.spotify.com/v1/search?query=Bringing+in+the+Sheaves&type=track&market=US&offset=15&limit=10",
    "offset" : 5,
    "previous" : "https://api.spotify.com/v1/search?query=Bringing+in+the+Sheaves&type=track&market=US&offset=0&limit=10",
    "total" : 219
  }
}