{
  "tracks" : {
    "href" : "https://api.spotify.com/v1/search?query=Come+Down%2C+O+Love+Divine&type=track&market=US&offset=5&limit=10",
    "items" : [ {
      "album" : {
        "album_type" : "album",
        "artists" : [ {
          "external_urls" : {
            "spotify" : "https://open.spotify.com/artist/6mGZXaZ4SWNh6IsJ57thCp"
          },
          "href" : "https://api.spotify.com/v1/artists/6mGZXaZ4SWNh6IsJ57thCp",
          "id" : "6mGZXaZ4SWNh6IsJ57thCp",
          "name" : "Fernando Ortega",
          "type" : "artist",
          "uri" : "spotify:artist:6mGZXaZ4SWNh6IsJ57thCp"
        } ],
        "external_urls" : {
          "spotify" : "https://open.spotify.com/album/0iNGd4P2eJZcBDyQN1NGHJ"
        },
        "href" : "https://api.spotify.com/v1/albums/0iNGd4P2eJZcBDyQN1NGHJ",
        "id" : "0iNGd4P2eJZcBDyQN1NGHJ",
        "images" : [ {
          "height" : 640,
          "url" : "https://i.scdn.co/image/ab67616d0000b2730971b2d46926df5fa49bd685",
          "width" : 640
        }, {
          "height" : 300,
          "url" : "https://i.scdn.co/image/ab67616d00001e020971b2d46926df5fa49bd685",
          "width" : 300
        }, {
          "height" : 64,
          "url" : "https://i.scdn.co/image/ab67616d000048510971b2d46926df5fa49bd685",
          "width" : 64
        } ],
        "name" : "Come Down O Love Divine",
        "release_date" : "2011-07-12",
        "release_date_precision" : "day",
        "total_tracks" : 14,
        "type" : "album",
        "uri" : "spotify:album:0iNGd4P2eJZcBDyQN1NGHJ"
      },
      "artists" : [ {
        "external_urls" : {
          "spotify" : "https://open.spotify.com/artist/6mGZXaZ4SWNh6IsJ57thCp"
        },
        "href" : "https://api.spotify.com/v1/artists/6mGZXaZ4SWNh6IsJ57thCp",
        "id" : "6mGZXaZ4SWNh6IsJ57thCp",
        "name" : "Fernando Ortega",
        "type" : "artist",
        "uri" : "spotify:artist:6mGZXaZ4SWNh6IsJ57thCp"
      } ],
      "disc_number" : 1,
      "duration_ms" : 207586,
      "explicit" : false,
      "external_ids" : {
        "isrc" : "US3DL1100008"
      },
      "external_urls" : {
        "spotify" : "https://open.spotify.com/track/6esoBoSHk7owf1tXDSdmvY"
      },
      "href" : "https://api.spotify.com/v1/tracks/6esoBoSHk7owf1tXDSdmvY",
      "id" : "6esoBoSHk7owf1tXDSdmvY",
      "is_local" : false,
      "is_playable" : true,
      "name" : "The Good Shepherd",
      "popularity" : 27,
      "preview_url" : "https://p.scdn.co/mp3-preview/de7249ffaabf0ffb52bb3a4fd9de119fd7072d44?cid=774b29d4f13844c495f206cafdad9c86",
      "track_number" : 8,
      "type" : "track",
      "uri" : "spotify:track:6esoBoSHk7owf1tXDSdmvY"
    }, {
      "album" : {
        "album_type" : "album",
        "artists" : [ {
          "external_urls" : {
            "spotify" : "https://open.spotify.com/artist/6mGZXaZ4SWNh6IsJ57thCp"
          },
          "href" : "https://api.spotify.com/v1/artists/6mGZXaZ4SWNh6IsJ57thCp",
          "id" : "6mGZXaZ4SWNh6IsJ57thCp",
          "name" : "Fernando Ortega",
          "type" : "artist",
          "uri" : "spotify:artist:6mGZXaZ4SWNh6IsJ57thCp"
        } ],
        "external_urls" : {
          "spotify" : "https://open.spotify.com/album/0iNGd4P2eJZcBDyQN1NGHJ"
        },
        "href" : "https://api.spotify.com/v1/albums/0iNGd4P2eJZcBDyQN1NGHJ",
        "id" : "0iNGd4P2eJZcBDyQN1NGHJ",
        "images" : [ {
          "height" : 640,
          "url" : "https://i.scdn.co/image/ab67616d0000b2730971b2d46926df5fa49bd685",
          "width" : 640
        }, {
          "height" : 300,
          "url" : "https://i.scdn.co/image/ab67616d00001e020971b2d46926df5fa49bd685",
          "width" : 300
        }, {
          "height" : 64,
          "url" : "https://i.scdn.co/image/ab67616d000048510971b2d46926df5fa49bd685",
          "width" : 64
        } ],
        "name" : "Come Down O Love Divine",
        "release_date" : "2011-07-12",
        "release_date_precision" : "day",
        "total_tracks" : 14,
        "type" : "album",
        "uri" : "spotify:album:0iNGd4P2eJZcBDyQN1NGHJ"
      },
      "artists" : [ {
        "external_urls" : {
          "spotify" : "https://open.spotify.com/artist/6mGZXaZ4SWNh6IsJ57thCp"
        },
        "href" : "https://api.spotify.com/v1/artists/6mGZXaZ4SWNh6IsJ57thCp",
        "id" : "6mGZXaZ4SWNh6IsJ57thCp",
        "name" : "Fernando Ortega",
        "type" : "artist",
        "uri" : "spotify:artist:6mGZXaZ4SWNh6IsJ57thCp"
      } ],
      "disc_number" : 1,
      "duration_ms" : 147200,
      "explicit" : false,
      "external_ids" : {
        "isrc" : "US3DL1100004"
      },
      "external_urls" : {
        "spotify" : "https://open.spotify.com/track/5dOLq5yqdQeKerDzKZZd4c"
      },
      "href" : "https://api.spotify.com/v1/tracks/5dOLq5yqdQeKerDzKZZd4c",
      "id" : "5dOLq5yqdQeKerDzKZZd4c",
      "is_local" : false,
      "is_playable" : true,
      "name" : "Trisagion",
      "popularity" : 27,
      "preview_url" : "https://p.scdn.co/mp3-preview/6958fbdd6bef2790d15638c7638f4c01285a3faa?cid=774b29d4f13844c495f206cafdad9c86",
      "track_number" : 4,
      "type" : "track",
      "uri" : "spotify:track:5dOLq5yqdQeKerDzKZZd4c"
    }, {
      "album" : {
        "album_type" : "album",
        "artists" : [ {
          "external_urls" : {
            "spotify" : "https://open.spotify.com/artist/6mGZXaZ4SWNh6IsJ57thCp"
          },
          "href" : "https://api.spotify.com/v1/artists/6mGZXaZ4SWNh6IsJ57thCp",
          "id" : "6mGZXaZ4SWNh6IsJ57thCp",
          "name" : "Fernando Ortega",
          "type" : "artist",
          "uri" : "spotify:artist:6mGZXaZ4SWNh6IsJ57thCp"
        } ],
        "external_urls" : {
          "spotify" : "https://open.spotify.com/album/0iNGd4P2eJZcBDyQN1NGHJ"
        },
        "href" : "https://api.spotify.com/v1/albums/0iNGd4P2eJZcBDyQN1NGHJ",
        "id" : "0iNGd4P2eJZcBDyQN1NGHJ",
        "images" : [ {
          "height" : 640,
          "url" : "https://i.scdn.co/image/ab67616d0000b2730971b2d46926df5fa49bd685",
          "width" : 640
        }, {
          "height" : 300,
          "url" : "https://i.scdn.co/image/ab67616d00001e020971b2d46926df5fa49bd685",
          "width" : 300
        }, {
          "height" : 64,
          "url" : "https://i.scdn.co/image/ab67616d000048510971b2d46926df5fa49bd685",
          "width" : 64
        } ],
        "name" : "Come Down O Love Divine",
        "release_date" : "2011-07-12",
        "release_date_precision" : "day",
        "total_tracks" : 14,
        "type" : "album",
        "uri" : "spotify:album:0iNGd4P2eJZcBDyQN1NGHJ"
      },
      "artists" : [ {
        "external_urls" : {
          "spotify" : "https://open.spotify.com/artist/6mGZXaZ4SWNh6IsJ57thCp"
        },
        "href" : "https://api.spotify.com/v1/artists/6mGZXaZ4SWNh6IsJ57thCp",
        "id" : "6mGZXaZ4SWNh6IsJ57thCp",
        "name" : "Fernando Ortega",
        "type" : "artist",
        "uri" : "spotify:artist:6mGZXaZ4SWNh6IsJ57thCp"
      } ],
      "disc_number" : 1,
      "duration_ms" : 159706,
      "explicit" : false,
      "external_ids" : {
        "isrc" : "US3DL1100010"
      },
      "external_urls" : {
        "spotify" : "https://open.spotify.com/track/5Ki6Nrl0xARTOlFGQZgl0P"
      },
      "href" : "https://api.spotify.com/v1/tracks/5Ki6Nrl0xARTOlFGQZgl0P",
      "id" : "5Ki6Nrl0xARTOlFGQZgl0P",
      "is_local" : false,
      "is_playable" : true,
      "name" : "The God of Abraham Praise",
      "popularity" : 25,
      "preview_url" : "https://p.scdn.co/mp3-preview/0af057bf22eb0fd6a7042ab7e03560fda244af2f?cid=774b29d4f13844c495f206cafdad9c86",
      "track_number" : 10,
      "type" : "track",
      "uri" : "spotify:track:5Ki6Nrl0xARTOlFGQZgl0P"
    }, {
      "album" : {
        "album_type" : "album",
        "artists" : [ {
          "external_urls" : {
            "spotify" : "https://open.spotify.com/artist/6mGZXaZ4SWNh6IsJ57thCp"
          },
          "href" : "https://api.spotify.com/v1/artists/6mGZXaZ4SWNh6IsJ57thCp",
          "id" : "6mGZXaZ4SWNh6IsJ57thCp",
          "name" : "Fernando Ortega",
          "type" : "artist",
          "uri" : "spotify:artist:6mGZXaZ4SWNh6IsJ57thCp"
        } ],
        "external_urls" : {
          "spotify" : "https://open.spotify.com/album/0iNGd4P2eJZcBDyQN1NGHJ"
        },
        "href" : "https://api.spotify.com/v1/albums/0iNGd4P2eJZcBDyQN1NGHJ",
        "id" : "0iNGd4P2eJZcBDyQN1NGHJ",
        "images" : [ {
          "height" : 640,
          "url" : "https://i.scdn.co/image/ab67616d0000b2730971b2d46926df5fa49bd685",
          "width" : 640
        }, {
          "height" : 300,
          "url" : "https://i.scdn.co/image/ab67616d00001e020971b2d46926df5fa49bd685",
          "width" : 300
        }, {
          "height" : 64,
          "url" : "https://i.scdn.co/image/ab67616d000048510971b2d46926df5fa49bd685",
          "width" : 64
        } ],
        "name" : "Come Down O Love Divine",
        "release_date" : "2011-07-12",
        "release_date_precision" : "day",
        "total_tracks" : 14,
        "type" : "album",
        "uri" : "spotify:album:0iNGd4P2eJZcBDyQN1NGHJ"
      },
      "artists" : [ {
        "external_urls" : {
          "spotify" : "https://open.spotify.com/artist/6mGZXaZ4SWNh6IsJ57thCp"
        },
        "href" : "https://api.spotify.com/v1/artists/6mGZXaZ4SWNh6IsJ57thCp",
        "id" : "6mGZXaZ4SWNh6IsJ57thCp",
        "name" : "Fernando Ortega",
        "type" : "artist",
        "uri" : "spotify:artist:6mGZXaZ4SWNh6IsJ57thCp"
      } ],
      "disc_number" : 1,
      "duration_ms" : 72640,
      "explicit" : false,
      "external_ids" : {
        "isrc" : "US3DL1100007"
      },
      "external_urls" : {
        "spotify" : "https://open.spotify.com/track/2IwBWmjfmtcIInqCXkVL69"
      },
      "href" : "https://api.spotify.com/v1/tracks/2IwBWmjfmtcIInqCXkVL69",
      "id" : "2IwBWmjfmtcIInqCXkVL69",
      "is_local" : false,
      "is_playable" : true,
      "name" : "The King of Love My Shepherd Is",
      "popularity" : 18,
      "preview_url" : "https://p.scdn.co/mp3-preview/0b1d4a7519c7435e33c85bb6fedadbefdc9cd045?cid=774b29d4f13844c495f206cafdad9c86",
      "track_number" : 7,
      "type" : "track",
      "uri" : "spotify:track:2IwBWmjfmtcIInqCXkVL69"
    }, {
      "album" : {
        "album_type" : "album",
        "artists" : [ {
          "external_urls" : {
            "spotify" : "https://open.spotify.com/artist/6mGZXaZ4SWNh6IsJ57thCp"
          },
          "href" : "https://api.spotify.com/v1/artists/6mGZXaZ4SWNh6IsJ57thCp",
          "id" : "6mGZXaZ4SWNh6IsJ57thCp",
          "name" : "Fernando Ortega",
          "type" : "artist",
          "uri" : "spotify:artist:6mGZXaZ4SWNh6IsJ57thCp"
        } ],
        "external_urls" : {
          "spotify" : "https://open.spotify.com/album/0iNGd4P2eJZcBDyQN1NGHJ"
        },
        "href" : "https://api.spotify.com/v1/albums/0iNGd4P2eJZcBDyQN1NGHJ",
        "id" : "0iNGd4P2eJZcBDyQN1NGHJ",
        "images" : [ {
          "height" : 640,
          "url" : "https://i.scdn.co/image/ab67616d0000b2730971b2d46926df5fa49bd685",
          "width" : 640
        }, {
          "height" : 300,
          "url" : "https://i.scdn.co/image/ab67616d00001e020971b2d46926df5fa49bd685",
          "width" : 300
        }, {
          "height" : 64,
          "url" : "https://i.scdn.co/image/ab67616d000048510971b2d46926df5fa49bd685",
          "width" : 64
        } ],
        "name" : "Come Down O Love Divine",
        "release_date" : "2011-07-12",
        "release_date_precision" : "day",
        "total_tracks" : 14,
        "type" : "album",
        "uri" : "spotify:album:0iNGd4P2eJZcBDyQN1NGHJ"
      },
      "artists" : [ {
        "external_urls" : {
          "spotify" : "https://open.spotify.com/artist/6mGZXaZ4SWNh6IsJ57thCp"
        },
        "href" : "https://api.spotify.com/v1/artists/6mGZXaZ4SWNh6IsJ57thCp",
        "id" : "6mGZXaZ4SWNh6IsJ57thCp",
        "name" : "Fernando Ortega",
        "type" : "artist",
        "uri" : "spotify:artist:6mGZXaZ4SWNh6IsJ57thCp"
      } ],
      "disc_number" : 1,
      "duration_ms" : 249773,
      "explicit" : false,
      "external_ids" : {
        "isrc" : "US3DL1100001"
      },
      "external_urls" : {
        "spotify" : "https://open.spotify.com/track/2KuiYXuE5j8kRksAkVuAKp"
      },
      "href" : "https://api.spotify.com/v1/tracks/2KuiYXuE5j8kRksAkVuAKp",
      "id" : "2KuiYXuE5j8kRksAkVuAKp",
      "is_local" : false,
      "is_playable" : true,
      "name" : "Kyrie I",
      "popularity" : 18,
      "preview_url" : "https://p.scdn.co/mp3-preview/71012259c553f7a33ed0ff1e1e3609a2d4d00971?cid=774b29d4f13844c495f206cafdad9c86",
      "track_number" : 1,
      "type" : "track",
      "uri" : "spotify:track:2KuiYXuE5j8kRksAkVuAKp"
    }, {
      "album" : {
        "album_type" : "album",
        "artists" : [ {
          "external_urls" : {
            "spotify" : "https://open.spotify.com/artist/6mGZXaZ4SWNh6IsJ57thCp"
          },
          "href" : "https://api.spotify.com/v1/artists/6mGZXaZ4SWNh6IsJ57thCp",
          "id" : "6mGZXaZ4SWNh6IsJ57thCp",
          "name" : "Fernando Ortega",
          "type" : "artist",
          "uri" : "spotify:artist:6mGZXaZ4SWNh6IsJ57thCp"
        } ],
        "external_urls" : {
          "spotify" : "https://open.spotify.com/album/0iNGd4P2eJZcBDyQN1NGHJ"
        },
        "href" : "https://api.spotify.com/v1/albums/0iNGd4P2eJZcBDyQN1NGHJ",
        "id" : "0iNGd4P2eJZcBDyQN1NGHJ",
        "images" : [ {
          "height" : 640,
          "url" : "https://i.scdn.co/image/ab67616d0000b2730971b2d46926df5fa49bd685",
          "width" : 640
        }, {
          "height" : 300,
          "url" : "https://i.scdn.co/image/ab67616d00001e020971b2d46926df5fa49bd685",
          "width" : 300
        }, {
          "height" : 64,
          "url" : "https://i.scdn.co/image/ab67616d000048510971b2d46926df5fa49bd685",
          "width" : 64
        } ],
        "name" : "Come Down O Love Divine",
        "release_date" : "2011-07-12",
        "release_date_precision" : "day",
        "total_tracks" : 14,
        "type" : "album",
        "uri" : "spotify:album:0iNGd4P2eJZcBDyQN1NGHJ"
      },
      "artists" : [ {
        "external_urls" : {
          "spotify" : "https://open.spotify.com/artist/6mGZXaZ4SWNh6IsJ57thCp"
        },
        "href" : "https://api.spotify.com/v1/artists/6mGZXaZ4SWNh6IsJ57thCp",
        "id" : "6mGZXaZ4SWNh6IsJ57thCp",
        "name" : "Fernando Ortega",
        "type" : "artist",
        "uri" : "spotify:artist:6mGZXaZ4SWNh6IsJ57thCp"
      } ],
      "disc_number" : 1,
      "duration_ms" : 197546,
      "explicit" : false,
      "external_ids" : {
        "isrc" : "US3DL1100005"
      },
      "external_urls" : {
        "spotify" : "https://open.spotify.com/track/0OIuLotXWVs6Q0OdxCT6FD"
      },
      "href" : "https://api.spotify.com/v1/tracks/0OIuLotXWVs6Q0OdxCT6FD",
      "id" : "0OIuLotXWVs6Q0OdxCT6FD",
      "is_local" : false,
      "is_playable" : true,
      "name" : "Ruby's Advent Song",
      "popularity" : 17,
      "preview_url" : "https://p.scdn.co/mp3-preview/0a32527349e40a8994bd0a846f766838cd3baff6?cid=774b29d4f13844c495f206cafdad9c86",
      "track_number" : 5,
      "type" : "track",
      "uri" : "spotify:track:0OIuLotXWVs6Q0OdxCT6FD"
    }, {
      "album" : {
        "album_type" : "album",
        "artists" : [ {
          "external_urls" : {
            "spotify" : "https://open.spotify.com/artist/6mGZXaZ4SWNh6IsJ57thCp"
          },
          "href" : "https://api.spotify.com/v1/artists/6mGZXaZ4SWNh6IsJ57thCp",
          "id" : "6mGZXaZ4SWNh6IsJ57thCp",
          "name" : "Fernando Ortega",
          "type" : "artist",
          "uri" : "spotify:artist:6mGZXaZ4SWNh6IsJ57thCp"
        } ],
        "external_urls" : {
          "spotify" : "https://open.spotify.com/album/0iNGd4P2eJZcBDyQN1NGHJ"
        },
        "href" : "https://api.spotify.com/v1/albums/0iNGd4P2eJZcBDyQN1NGHJ",
        "id" : "0iNGd4P2eJZcBDyQN1NGHJ",
        "images" : [ {
          "height" : 640,
          "url" : "https://i.scdn.co/image/ab67616d0000b2730971b2d46926df5fa49bd685",
          "width" : 640
        }, {
          "height" : 300,
          "url" : "https://i.scdn.co/image/ab67616d00001e020971b2d46926df5fa49bd685",
          "width" : 300
        }, {
          "height" : 64,
          "url" : "https://i.scdn.co/image/ab67616d000048510971b2d46926df5fa49bd685",
          "width" : 64
        } ],
        "name" : "Come Down O Love Divine",
        "release_date" : "2011-07-12",
        "release_date_precision" : "day",
        "total_tracks" : 14,
        "type" : "album",
        "uri" : "spotify:album:0iNGd4P2eJZcBDyQN1NGHJ"
      },
      "artists" : [ {
        "external_urls" : {
          "spotify" : "https://open.spotify.com/artist/6mGZXaZ4SWNh6IsJ57thCp"
        },
        "href" : "https://api.spotify.com/v1/artists/6mGZXaZ4SWNh6IsJ57thCp",
        "id" : "6mGZXaZ4SWNh6IsJ57thCp",
        "name" : "Fernando Ortega",
        "type" : "artist",
        "uri" : "spotify:artist:6mGZXaZ4SWNh6IsJ57thCp"
      } ],
      "disc_number" : 1,
      "duration_ms" : 188680,
      "explicit" : false,
      "external_ids" : {
        "isrc" : "US3DL1100006"
      },
      "external_urls" : {
        "spotify" : "https://open.spotify.com/track/3hTIUsEcBSD3hDtTVfUpXv"
      },
      "href" : "https://api.spotify.com/v1/tracks/3hTIUsEcBSD3hDtTVfUpXv",
      "id" : "3hTIUsEcBSD3hDtTVfUpXv",
      "is_local" : false,
      "is_playable" : true,
      "name" : "Doxology",
      "popularity" : 17,
      "preview_url" : "https://p.scdn.co/mp3-preview/a9245f04eb26d2e761eb0fe18cba22bb0c15823c?cid=774b29d4f13844c495f206cafdad9c86",
      "track_number" : 6,
      "type" : "track",
      "uri" : "spotify:track:3hTIUsEcBSD3hDtTVfUpXv"
    }, {
      "album" : {
        "album_type" : "album",
        "artists" : [ {
          "external_urls" : {
            "spotify" : "https://open.spotify.com/artist/6mGZXaZ4SWNh6IsJ57thCp"
          },
          "href" : "https://api.spotify.com/v1/artists/6mGZXaZ4SWNh6IsJ57thCp",
          "id" : "6mGZXaZ4SWNh6IsJ57thCp",
          "name" : "Fernando Ortega",
          "type" : "artist",
          "uri" : "spotify:artist:6mGZXaZ4SWNh6IsJ57thCp"
        } ],
        "external_urls" : {
          "spotify" : "https://open.spotify.com/album/0iNGd4P2eJZcBDyQN1NGHJ"
        },
        "href" : "https://api.spotify.com/v1/albums/0iNGd4P2eJZcBDyQN1NGHJ",
        "id" : "0iNGd4P2eJZcBDyQN1NGHJ",
        "images" : [ {
          "height" : 640,
          "url" : "https://i.scdn.co/image/ab67616d0000b2730971b2d46926df5fa49bd685",
          "width" : 640
        }, {
          "height" : 300,
          "url" : "https://i.scdn.co/image/ab67616d00001e020971b2d46926df5fa49bd685",
          "width" : 300
        }, {
          "height" : 64,
          "url" : "https://i.scdn.co/image/ab67616d000048510971b2d46926df5fa49bd685",
          "width" : 64
        } ],
        "name" : "Come Down O Love Divine",
        "release_date" : "2011-07-12",
        "release_date_precision" : "day",
        "total_tracks" : 14,
        "type" : "album",
        "uri" : "spotify:album:0iNGd4P2eJZcBDyQN1NGHJ"
      },
      "artists" : [ {
        "external_urls" : {
          "spotify" : "https://open.spotify.com/artist/6mGZXaZ4SWNh6IsJ57thCp"
        },
        "href" : "https://api.spotify.com/v1/artists/6mGZXaZ4SWNh6IsJ57thCp",
        "id" : "6mGZXaZ4SWNh6IsJ57thCp",
        "name" : "Fernando Ortega",
        "type" : "artist",
        "uri" : "spotify:artist:6mGZXaZ4SWNh6IsJ57thCp"
      } ],
      "disc_number" : 1,
      "duration_ms" : 121120,
      "explicit" : false,
      "external_ids" : {
        "isrc" : "US3DL1100012"
      },
      "external_urls" : {
        "spotify" : "https://open.spotify.com/track/5XnB8cZzZfExvEsQgYVrOx"
      },
      "href" : "https://api.spotify.com/v1/tracks/5XnB8cZzZfExvEsQgYVrOx",
      "id" : "5XnB8cZzZfExvEsQgYVrOx",
      "is_local" : false,
      "is_playable" : true,
      "name" : "Sanctus",
      "popularity" : 17,
      "preview_url" : "https://p.scdn.co/mp3-preview/7b07bca858b5bd89d0b8cbb9166af9d49c4ecb52?cid=774b29d4f13844c495f206cafdad9c86",
      "track_number" : 12,
      "type" : "track",
      "uri" : "spotify:track:5XnB8cZzZfExvEsQgYVrOx"
    }, {
      "album" : {
        "album_type" : "album",
        "artists" : [ {
          "external_urls" : {
            "spotify" : "https://open.spotify.com/artist/6mGZXaZ4SWNh6IsJ57thCp"
          },
          "href" : "https://api.spotify.com/v1/artists/6mGZXaZ4SWNh6IsJ57thCp",
          "id" : "6mGZXaZ4SWNh6IsJ57thCp",
          "name" : "Fernando Ortega",
          "type" : "artist",
          "uri" : "spotify:artist:6mGZXaZ4SWNh6IsJ57thCp"
        } ],
        "external_urls" : {
          "spotify" : "https://open.spotify.com/album/0iNGd4P2eJZcBDyQN1NGHJ"
        },
        "href" : "https://api.spotify.com/v1/albums/0iNGd4P2eJZcBDyQN1NGHJ",
        "id" : "0iNGd4P2eJZcBDyQN1NGHJ",
        "images" : [ {
          "height" : 640,
          "url" : "https://i.scdn.co/image/ab67616d0000b2730971b2d46926df5fa49bd685",
          "width" : 640
        }, {
          "height" : 300,
          "url" : "https://i.scdn.co/image/ab67616d00001e020971b2d46926df5fa49bd685",
          "width" : 300
        }, {
          "height" : 64,
          "url" : "https://i.scdn.co/image/ab67616d000048510971b2d46926df5fa49bd685",
          "width" : 64
        } ],
        "name" : "Come Down O Love Divine",
        "release_date" : "2011-07-12",
        "release_date_precision" : "day",
        "total_tracks" : 14,
        "type" : "album",
        "uri" : "spotify:album:0iNGd4P2eJZcBDyQN1NGHJ"
      },
      "artists" : [ {
        "external_urls" : {
          "spotify" : "https://open.spotify.com/artist/6mGZXaZ4SWNh6IsJ57thCp"
        },
        "href" : "https://api.spotify.com/v1/artists/6mGZXaZ4SWNh6IsJ57thCp",
        "id" : "6mGZXaZ4SWNh6IsJ57thCp",
        "name" : "Fernando Ortega",
        "type" : "artist",
        "uri" : "spotify:artist:6mGZXaZ4SWNh6IsJ57thCp"
      } ],
      "disc_number" : 1,
      "duration_ms" : 116720,
      "explicit" : false,
      "external_ids" : {
        "isrc" : "US3DL1100014"
      },
      "external_urls" : {
        "spotify" : "https://open.spotify.com/track/4BBAaikYGIeQFOLn1OzD20"
      },
      "href" : "https://api.spotify.com/v1/tracks/4BBAaikYGIeQFOLn1OzD20",
      "id" : "4BBAaikYGIeQFOLn1OzD20",
      "is_local" : false,
      "is_playable" : true,
      "name" : "Aaron's Blessing",
      "popularity" : 18,
      "preview_url" : "https://p.scdn.co/mp3-preview/0a21e6bf6e72cbad34f96ea7f9ed3e1fb20d140c?cid=774b29d4f13844c495f206cafdad9c86",
      "track_number" : 14,
      "type" : "track",
      "uri" : "spotify:track:4BBAaikYGIeQFOLn1OzD20"
    }, {
      "album" : {
        "album_type" : "album",
        "artists" : [ {
          "external_urls" : {
            "spotify" : "https://open.spotify.com/artist/6mGZXaZ4SWNh6IsJ57thCp"
          },
          "href" : "https://api.spotify.com/v1/artists/6mGZXaZ4SWNh6IsJ57thCp",
          "id" : "6mGZXaZ4SWNh6IsJ57thCp",
          "name" : "Fernando Ortega",
          "type" : "artist",
          "uri" : "spotify:artist:6mGZXaZ4SWNh6IsJ57thCp"
        } ],
        "external_urls" : {
          "spotify" : "https://open.spotify.com/album/0iNGd4P2eJZcBDyQN1NGHJ"
        },
        "href" : "https://api.spotify.com/v1/albums/0iNGd4P2eJZcBDyQN1NGHJ",
        "id" : "0iNGd4P2eJZcBDyQN1NGHJ",
        "images" : [ {
          "height" : 640,
          "url" : "https://i.scdn.co/image/ab67616d0000b2730971b2d46926df5fa49bd685",
          "width" : 640
        }, {
          "height" : 300,
          "url" : "https://i.scdn.co/image/ab67616d00001e020971b2d46926df5fa49bd685",
          "width" : 300
        }, {
          "height" : 64,
          "url" : "https://i.scdn.co/image/ab67616d000048510971b2d46926df5fa49bd685",
          "width" : 64
        } ],
        "name" : "Come Down O Love Divine",
        "release_date" : "2011-07-12",
        "release_date_precision" : "day",
        "total_tracks" : 14,
        "type" : "album",
        "uri" : "spotify:album:0iNGd4P2eJZcBDyQN1NGHJ"
      },
      "artists" : [ {
        "external_urls" : {
          "spotify" : "https://open.spotify.com/artist/6mGZXaZ4SWNh6IsJ57thCp"
        },
        "href" : "https://api.spotify.com/v1/artists/6mGZXaZ4SWNh6IsJ57thCp",
        "id" : "6mGZXaZ4SWNh6IsJ57thCp",
        "name" : "Fernando Ortega",
        "type" : "artist",
        "uri" : "spotify:artist:6mGZXaZ4SWNh6IsJ57thCp"
      } ],
      "disc_number" : 1,
      "duration_ms" : 40386,
      "explicit" : false,
      "external_ids" : {
        "isrc" : "US3DL1100002"
      },
      "external_urls" : {
        "spotify" : "https://open.spotify.com/track/3xld31CaGpVgQAACHUa0Ok"
      },
      "href" : "https://api.spotify.com/v1/tracks/3xld31CaGpVgQAACHUa0Ok",
      "id" : "3xld31CaGpVgQAACHUa0Ok",
      "is_local" : false,
      "is_playable" : true,
      "name" : "Kyrie II",
      "popularity" : 16,
      "preview_url" : "https://p.scdn.co/mp3-preview/65a7439b70594c12f4f4212fb4e65ae0f684340b?cid=774b29d4f13844c495f206cafdad9c86",
      "track_number" : 2,
      "type" : "track",
      "uri" : "spotify:track:3xld31CaGpVgQAACHUa0Ok"
    } ],
    "limit" : 10,
    "next" : "https://api.spotify.com/v1/search?query=Come+Down%2C+O+Love+Divine&type=track&market=US&offset=15&limit=10",
    "offset" : 5,
    "previous" : "https://api.spotify.com/v1/search?query=Come+Down%2C+O+Love+Divine&type=track&market=US&offset=0&limit=10",
    "total" : 128
  }
}