{
  "tracks" : {
    "href" : "https://api.spotify.com/v1/search?query=Dismiss+Us%2C+Lord+With+Blessing&type=track&market=US&offset=5&limit=10",
    "items" : [ {
      "album" : {
        "album_type" : "album",
        "artists" : [ {
          "external_urls" : {
            "spotify" : "https://open.spotify.com/artist/5yFBNdRUEW4UnQSqksEzoG"
          },
          "href" : "https://api.spotify.com/v1/artists/5yFBNdRUEW4UnQSqksEzoG",
          "id" : "5yFBNdRUEW4UnQSqksEzoG",
          "name" : "Holly Aloise",
          "type" : "artist",
          "uri" : "spotify:artist:5yFBNdRUEW4UnQSqksEzoG"
        } ],
        "external_urls" : {
          "spotify" : "https://open.spotify.com/album/3fueFu3g2GVnSEOAuyYrFC"
        },
        "href" : "https://api.spotify.com/v1/albums/3fueFu3g2GVnSEOAuyYrFC",
        "id" : "3fueFu3g2GVnSEOAuyYrFC",
        "images" : [ {
          "height" : 640,
          "url" : "https://i.scdn.co/image/ab67616d0000b2731f001d366ac1916e841ae745",
          "width" : 640
        }, {
          "height" : 300,
          "url" : "https://i.scdn.co/image/ab67616d00001e021f001d366ac1916e841ae745",
          "width" : 300
        }, {
          "height" : 64,
          "url" : "https://i.scdn.co/image/ab67616d000048511f001d366ac1916e841ae745",
          "width" : 64
        } ],
        "name" : "Piano Tracks 14- Special Occasions",
        "release_date" : "2015-03-18",
        "release_date_precision" : "day",
        "total_tracks" : 25,
        "type" : "album",
        "uri" : "spotify:album:3fueFu3g2GVnSEOAuyYrFC"
      },
      "artists" : [ {
        "external_urls" : {
          "spotify" : "https://open.spotify.com/artist/5yFBNdRUEW4UnQSqksEzoG"
        },
        "href" : "https://api.spotify.com/v1/artists/5yFBNdRUEW4UnQSqksEzoG",
        "id" : "5yFBNdRUEW4UnQSqksEzoG",
        "name" : "Holly Aloise",
        "type" : "artist",
        "uri" : "spotify:artist:5yFBNdRUEW4UnQSqksEzoG"
      } ],
      "disc_number" : 1,
      "duration_ms" : 80143,
      "explicit" : false,
      "external_ids" : {
        "isrc" : "GB-SMU-20-44726"
      },
      "external_urls" : {
        "spotify" : "https://open.spotify.com/track/19KaJvXpVl0Vy3K2gdBTDK"
      },
      "href" : "https://api.spotify.com/v1/tracks/19KaJvXpVl0Vy3K2gdBTDK",
      "id" : "19KaJvXpVl0Vy3K2gdBTDK",
      "is_local" : false,
      "is_playable" : true,
      "name" : "Lord, Dismiss Us with Thy Blessing",
      "popularity" : 0,
      "preview_url" : "https://p.scdn.co/mp3-preview/82ec64b6d42e244f2834dc1bf0e7311d3adb0904?cid=774b29d4f13844c495f206cafdad9c86",
      "track_number" : 16,
      "type" : "track",
      "uri" : "spotify:track:19KaJvXpVl0Vy3K2gdBTDK"
    }, {
      "album" : {
        "album_type" : "album",
        "artists" : [ {
          "external_urls" : {
            "spotify" : "https://open.spotify.com/artist/6ixtJpVnRZnGKIYGhUppx1"
          },
          "href" : "https://api.spotify.com/v1/artists/6ixtJpVnRZnGKIYGhUppx1",
          "id" : "6ixtJpVnRZnGKIYGhUppx1",
          "name" : "Christian Family Band",
          "type" : "artist",
          "uri" : "spotify:artist:6ixtJpVnRZnGKIYGhUppx1"
        } ],
        "external_urls" : {
          "spotify" : "https://open.spotify.com/album/2LvHpxAwzr3mUCm7BCritL"
        },
        "href" : "https://api.spotify.com/v1/albums/2LvHpxAwzr3mUCm7BCritL",
        "id" : "2LvHpxAwzr3mUCm7BCritL",
        "images" : [ {
          "height" : 640,
          "url" : "https://i.scdn.co/image/ab67616d0000b27358911bdc0b1f5d95d3b0b47f",
          "width" : 640
        }, {
          "height" : 300,
          "url" : "https://i.scdn.co/image/ab67616d00001e0258911bdc0b1f5d95d3b0b47f",
          "width" : 300
        }, {
          "height" : 64,
          "url" : "https://i.scdn.co/image/ab67616d0000485158911bdc0b1f5d95d3b0b47f",
          "width" : 64
        } ],
        "name" : "Christian Music, Vol. 3",
        "release_date" : "2012",
        "release_date_precision" : "year",
        "total_tracks" : 10,
        "type" : "album",
        "uri" : "spotify:album:2LvHpxAwzr3mUCm7BCritL"
      },
      "artists" : [ {
        "external_urls" : {
          "spotify" : "https://open.spotify.com/artist/6ixtJpVnRZnGKIYGhUppx1"
        },
        "href" : "https://api.spotify.com/v1/artists/6ixtJpVnRZnGKIYGhUppx1",
        "id" : "6ixtJpVnRZnGKIYGhUppx1",
        "name" : "Christian Family Band",
        "type" : "artist",
        "uri" : "spotify:artist:6ixtJpVnRZnGKIYGhUppx1"
      } ],
      "disc_number" : 1,
      "duration_ms" : 93197,
      "explicit" : false,
      "external_ids" : {
        "isrc" : "USA561393899"
      },
      "external_urls" : {
        "spotify" : "https://open.spotify.com/track/71clLCPEuXQD5PvA8968Ny"
      },
      "href" : "https://api.spotify.com/v1/tracks/71clLCPEuXQD5PvA8968Ny",
      "id" : "71clLCPEuXQD5PvA8968Ny",
      "is_local" : false,
      "is_playable" : true,
      "name" : "Lord Dismiss Us With Thy Blessing",
      "popularity" : 0,
      "preview_url" : "https://p.scdn.co/mp3-preview/3d5965a3d7eeb1c7052adf8794565a30bd96f82f?cid=774b29d4f13844c495f206cafdad9c86",
      "track_number" : 9,
      "type" : "track",
      "uri" : "spotify:track:71clLCPEuXQD5PvA8968Ny"
    }, {
      "album" : {
        "album_type" : "album",
        "artists" : [ {
          "external_urls" : {
            "spotify" : "https://open.spotify.com/artist/27HpKO5tx7PUZdRRhfBAD7"
          },
          "href" : "https://api.spotify.com/v1/artists/27HpKO5tx7PUZdRRhfBAD7",
          "id" : "27HpKO5tx7PUZdRRhfBAD7",
          "name" : "Lullaby & Prenatal Band",
          "type" : "artist",
          "uri" : "spotify:artist:27HpKO5tx7PUZdRRhfBAD7"
        } ],
        "external_urls" : {
          "spotify" : "https://open.spotify.com/album/3SkeLueq35En4hCKtRO5Eg"
        },
        "href" : "https://api.spotify.com/v1/albums/3SkeLueq35En4hCKtRO5Eg",
        "id" : "3SkeLueq35En4hCKtRO5Eg",
        "images" : [ {
          "height" : 640,
          "url" : "https://i.scdn.co/image/ab67616d0000b2734ec984b87da1994002a59e0f",
          "width" : 640
        }, {
          "height" : 300,
          "url" : "https://i.scdn.co/image/ab67616d00001e024ec984b87da1994002a59e0f",
          "width" : 300
        }, {
          "height" : 64,
          "url" : "https://i.scdn.co/image/ab67616d000048514ec984b87da1994002a59e0f",
          "width" : 64
        } ],
        "name" : "Lullaby Hymn for My Baby Orgel and Rain Sound, Vol. 4",
        "release_date" : "2017-09-21",
        "release_date_precision" : "day",
        "total_tracks" : 7,
        "type" : "album",
        "uri" : "spotify:album:3SkeLueq35En4hCKtRO5Eg"
      },
      "artists" : [ {
        "external_urls" : {
          "spotify" : "https://open.spotify.com/artist/27HpKO5tx7PUZdRRhfBAD7"
        },
        "href" : "https://api.spotify.com/v1/artists/27HpKO5tx7PUZdRRhfBAD7",
        "id" : "27HpKO5tx7PUZdRRhfBAD7",
        "name" : "Lullaby & Prenatal Band",
        "type" : "artist",
        "uri" : "spotify:artist:27HpKO5tx7PUZdRRhfBAD7"
      } ],
      "disc_number" : 1,
      "duration_ms" : 109143,
      "explicit" : false,
      "external_ids" : {
        "isrc" : "KRB921703595"
      },
      "external_urls" : {
        "spotify" : "https://open.spotify.com/track/3hyNX3rSQwWBj2QkNzOBeq"
      },
      "href" : "https://api.spotify.com/v1/tracks/3hyNX3rSQwWBj2QkNzOBeq",
      "id" : "3hyNX3rSQwWBj2QkNzOBeq",
      "is_local" : false,
      "is_playable" : true,
      "name" : "Lord, Dismiss us With Thy Blessing",
      "popularity" : 4,
      "preview_url" : "https://p.scdn.co/mp3-preview/1e4904a7e20cf00b0625005d1e7783fdac915148?cid=774b29d4f13844c495f206cafdad9c86",
      "track_number" : 2,
      "type" : "track",
      "uri" : "spotify:track:3hyNX3rSQwWBj2QkNzOBeq"
    }, {
      "album" : {
        "album_type" : "single",
        "artists" : [ {
          "external_urls" : {
            "spotify" : "https://open.spotify.com/artist/7Gbhs14qEzheeN71lJ1kXt"
          },
          "href" : "https://api.spotify.com/v1/artists/7Gbhs14qEzheeN71lJ1kXt",
          "id" : "7Gbhs14qEzheeN71lJ1kXt",
          "name" : "Waldham Grove Orchestra",
          "type" : "artist",
          "uri" : "spotify:artist:7Gbhs14qEzheeN71lJ1kXt"
        } ],
        "external_urls" : {
          "spotify" : "https://open.spotify.com/album/7n6Mh8AEXodQC78HWFaB7E"
        },
        "href" : "https://api.spotify.com/v1/albums/7n6Mh8AEXodQC78HWFaB7E",
        "id" : "7n6Mh8AEXodQC78HWFaB7E",
        "images" : [ {
          "height" : 640,
          "url" : "https://i.scdn.co/image/ab67616d0000b2734c5585fe50c7a36bca485838",
          "width" : 640
        }, {
          "height" : 300,
          "url" : "https://i.scdn.co/image/ab67616d00001e024c5585fe50c7a36bca485838",
          "width" : 300
        }, {
          "height" : 64,
          "url" : "https://i.scdn.co/image/ab67616d000048514c5585fe50c7a36bca485838",
          "width" : 64
        } ],
        "name" : "Closing Hymns",
        "release_date" : "2016-01-26",
        "release_date_precision" : "day",
        "total_tracks" : 4,
        "type" : "album",
        "uri" : "spotify:album:7n6Mh8AEXodQC78HWFaB7E"
      },
      "artists" : [ {
        "external_urls" : {
          "spotify" : "https://open.spotify.com/artist/7Gbhs14qEzheeN71lJ1kXt"
        },
        "href" : "https://api.spotify.com/v1/artists/7Gbhs14qEzheeN71lJ1kXt",
        "id" : "7Gbhs14qEzheeN71lJ1kXt",
        "name" : "Waldham Grove Orchestra",
        "type" : "artist",
        "uri" : "spotify:artist:7Gbhs14qEzheeN71lJ1kXt"
      } ],
      "disc_number" : 1,
      "duration_ms" : 219685,
      "explicit" : false,
      "external_ids" : {
        "isrc" : "QMPKX1634962"
      },
      "external_urls" : {
        "spotify" : "https://open.spotify.com/track/7qFVhir3vtEkTZKVfJUJrP"
      },
      "href" : "https://api.spotify.com/v1/tracks/7qFVhir3vtEkTZKVfJUJrP",
      "id" : "7qFVhir3vtEkTZKVfJUJrP",
      "is_local" : false,
      "is_playable" : true,
      "name" : "Lord, Dismiss Us with Thy Blessing",
      "popularity" : 0,
      "preview_url" : "https://p.scdn.co/mp3-preview/6ca196cbe4e6efc9e2e8517201b51c35a98d1913?cid=774b29d4f13844c495f206cafdad9c86",
      "track_number" : 3,
      "type" : "track",
      "uri" : "spotify:track:7qFVhir3vtEkTZKVfJUJrP"
    }, {
      "album" : {
        "album_type" : "album",
        "artists" : [ {
          "external_urls" : {
            "spotify" : "https://open.spotify.com/artist/1IkPnrJbgn95zzy2XB951E"
          },
          "href" : "https://api.spotify.com/v1/artists/1IkPnrJbgn95zzy2XB951E",
          "id" : "1IkPnrJbgn95zzy2XB951E",
          "name" : "John A. Behnke",
          "type" : "artist",
          "uri" : "spotify:artist:1IkPnrJbgn95zzy2XB951E"
        } ],
        "external_urls" : {
          "spotify" : "https://open.spotify.com/album/5pqfS2yjDnuOyCTz4hmS0P"
        },
        "href" : "https://api.spotify.com/v1/albums/5pqfS2yjDnuOyCTz4hmS0P",
        "id" : "5pqfS2yjDnuOyCTz4hmS0P",
        "images" : [ {
          "height" : 640,
          "url" : "https://i.scdn.co/image/ab67616d0000b27349e6f1231df4a668afa48a30",
          "width" : 640
        }, {
          "height" : 300,
          "url" : "https://i.scdn.co/image/ab67616d00001e0249e6f1231df4a668afa48a30",
          "width" : 300
        }, {
          "height" : 64,
          "url" : "https://i.scdn.co/image/ab67616d0000485149e6f1231df4a668afa48a30",
          "width" : 64
        } ],
        "name" : "For All Seasons, Vol. 5",
        "release_date" : "2020-04-20",
        "release_date_precision" : "day",
        "total_tracks" : 25,
        "type" : "album",
        "uri" : "spotify:album:5pqfS2yjDnuOyCTz4hmS0P"
      },
      "artists" : [ {
        "external_urls" : {
          "spotify" : "https://open.spotify.com/artist/1IkPnrJbgn95zzy2XB951E"
        },
        "href" : "https://api.spotify.com/v1/artists/1IkPnrJbgn95zzy2XB951E",
        "id" : "1IkPnrJbgn95zzy2XB951E",
        "name" : "John A. Behnke",
        "type" : "artist",
        "uri" : "spotify:artist:1IkPnrJbgn95zzy2XB951E"
      } ],
      "disc_number" : 1,
      "duration_ms" : 159866,
      "explicit" : false,
      "external_ids" : {
        "isrc" : "QMAAK2034232"
      },
      "external_urls" : {
        "spotify" : "https://open.spotify.com/track/0dZ9UopPjsO1cXxzdr9hHn"
      },
      "href" : "https://api.spotify.com/v1/tracks/0dZ9UopPjsO1cXxzdr9hHn",
      "id" : "0dZ9UopPjsO1cXxzdr9hHn",
      "is_local" : false,
      "is_playable" : true,
      "name" : "Lord, Dismiss Us with Your Blessing",
      "popularity" : 0,
      "preview_url" : "https://p.scdn.co/mp3-preview/df98b3192c75098f43caa6268d7544f81e82c7e3?cid=774b29d4f13844c495f206cafdad9c86",
      "track_number" : 25,
      "type" : "track",
      "uri" : "spotify:track:0dZ9UopPjsO1cXxzdr9hHn"
    }, {
      "album" : {
        "album_type" : "album",
        "artists" : [ {
          "external_urls" : {
            "spotify" : "https://open.spotify.com/artist/15WWcNQdZWCY1AAVPbZ6Hi"
          },
          "href" : "https://api.spotify.com/v1/artists/15WWcNQdZWCY1AAVPbZ6Hi",
          "id" : "15WWcNQdZWCY1AAVPbZ6Hi",
          "name" : "Utah Hymnal Association",
          "type" : "artist",
          "uri" : "spotify:artist:15WWcNQdZWCY1AAVPbZ6Hi"
        } ],
        "external_urls" : {
          "spotify" : "https://open.spotify.com/album/3UCIdv8tWwlGIkSQJneMl6"
        },
        "href" : "https://api.spotify.com/v1/albums/3UCIdv8tWwlGIkSQJneMl6",
        "id" : "3UCIdv8tWwlGIkSQJneMl6",
        "images" : [ {
          "height" : 640,
          "url" : "https://i.scdn.co/image/ab67616d0000b273920d3e66432eb25e3651614b",
          "width" : 640
        }, {
          "height" : 300,
          "url" : "https://i.scdn.co/image/ab67616d00001e02920d3e66432eb25e3651614b",
          "width" : 300
        }, {
          "height" : 64,
          "url" : "https://i.scdn.co/image/ab67616d00004851920d3e66432eb25e3651614b",
          "width" : 64
        } ],
        "name" : "I Need Thee Every Hour",
        "release_date" : "2016-03-01",
        "release_date_precision" : "day",
        "total_tracks" : 11,
        "type" : "album",
        "uri" : "spotify:album:3UCIdv8tWwlGIkSQJneMl6"
      },
      "artists" : [ {
        "external_urls" : {
          "spotify" : "https://open.spotify.com/artist/15WWcNQdZWCY1AAVPbZ6Hi"
        },
        "href" : "https://api.spotify.com/v1/artists/15WWcNQdZWCY1AAVPbZ6Hi",
        "id" : "15WWcNQdZWCY1AAVPbZ6Hi",
        "name" : "Utah Hymnal Association",
        "type" : "artist",
        "uri" : "spotify:artist:15WWcNQdZWCY1AAVPbZ6Hi"
      } ],
      "disc_number" : 1,
      "duration_ms" : 50353,
      "explicit" : false,
      "external_ids" : {
        "isrc" : "TCJPE1644029"
      },
      "external_urls" : {
        "spotify" : "https://open.spotify.com/track/1hPYJ4gUsZfeJXidw0Dpk2"
      },
      "href" : "https://api.spotify.com/v1/tracks/1hPYJ4gUsZfeJXidw0Dpk2",
      "id" : "1hPYJ4gUsZfeJXidw0Dpk2",
      "is_local" : false,
      "is_playable" : true,
      "name" : "Lord, Dismiss Us with Thy Blessing",
      "popularity" : 0,
      "preview_url" : "https://p.scdn.co/mp3-preview/f2cf68ff217332aed3531c4798f9c03afc49bcc3?cid=774b29d4f13844c495f206cafdad9c86",
      "track_number" : 9,
      "type" : "track",
      "uri" : "spotify:track:1hPYJ4gUsZfeJXidw0Dpk2"
    }, {
      "album" : {
        "album_type" : "single",
        "artists" : [ {
          "external_urls" : {
            "spotify" : "https://open.spotify.com/artist/33c0BeAErD3vae90Gt4M80"
          },
          "href" : "https://api.spotify.com/v1/artists/33c0BeAErD3vae90Gt4M80",
          "id" : "33c0BeAErD3vae90Gt4M80",
          "name" : "HolyCow",
          "type" : "artist",
          "uri" : "spotify:artist:33c0BeAErD3vae90Gt4M80"
        } ],
        "external_urls" : {
          "spotify" : "https://open.spotify.com/album/19SpkqMaWDp5vykGmeaHw0"
        },
        "href" : "https://api.spotify.com/v1/albums/19SpkqMaWDp5vykGmeaHw0",
        "id" : "19SpkqMaWDp5vykGmeaHw0",
        "images" : [ {
          "height" : 640,
          "url" : "https://i.scdn.co/image/ab67616d0000b2737ed4df894328eb49330a9f9d",
          "width" : 640
        }, {
          "height" : 300,
          "url" : "https://i.scdn.co/image/ab67616d00001e027ed4df894328eb49330a9f9d",
          "width" : 300
        }, {
          "height" : 64,
          "url" : "https://i.scdn.co/image/ab67616d000048517ed4df894328eb49330a9f9d",
          "width" : 64
        } ],
        "name" : "God Bless You, Vol. 32",
        "release_date" : "2018-12-24",
        "release_date_precision" : "day",
        "total_tracks" : 2,
        "type" : "album",
        "uri" : "spotify:album:19SpkqMaWDp5vykGmeaHw0"
      },
      "artists" : [ {
        "external_urls" : {
          "spotify" : "https://open.spotify.com/artist/33c0BeAErD3vae90Gt4M80"
        },
        "href" : "https://api.spotify.com/v1/artists/33c0BeAErD3vae90Gt4M80",
        "id" : "33c0BeAErD3vae90Gt4M80",
        "name" : "HolyCow",
        "type" : "artist",
        "uri" : "spotify:artist:33c0BeAErD3vae90Gt4M80"
      } ],
      "disc_number" : 1,
      "duration_ms" : 96000,
      "explicit" : false,
      "external_ids" : {
        "isrc" : "KRB921719013"
      },
      "external_urls" : {
        "spotify" : "https://open.spotify.com/track/1qHAg7WsWiz0lVrFzAnMc2"
      },
      "href" : "https://api.spotify.com/v1/tracks/1qHAg7WsWiz0lVrFzAnMc2",
      "id" : "1qHAg7WsWiz0lVrFzAnMc2",
      "is_local" : false,
      "is_playable" : true,
      "name" : "Lord, Dismiss us With Thy Blessing",
      "popularity" : 0,
      "preview_url" : "https://p.scdn.co/mp3-preview/dfa70a9d4d4b87cf70dca1a16ede57b0cecbaf95?cid=774b29d4f13844c495f206cafdad9c86",
      "track_number" : 2,
      "type" : "track",
      "uri" : "spotify:track:1qHAg7WsWiz0lVrFzAnMc2"
    }, {
      "album" : {
        "album_type" : "album",
        "artists" : [ {
          "external_urls" : {
            "spotify" : "https://open.spotify.com/artist/20rlbkwNSoLrLqQUR7GRcT"
          },
          "href" : "https://api.spotify.com/v1/artists/20rlbkwNSoLrLqQUR7GRcT",
          "id" : "20rlbkwNSoLrLqQUR7GRcT",
          "name" : "Mother’s Lullaby",
          "type" : "artist",
          "uri" : "spotify:artist:20rlbkwNSoLrLqQUR7GRcT"
        } ],
        "external_urls" : {
          "spotify" : "https://open.spotify.com/album/0qJoZ6A5AcEN1jfA7SkFMb"
        },
        "href" : "https://api.spotify.com/v1/albums/0qJoZ6A5AcEN1jfA7SkFMb",
        "id" : "0qJoZ6A5AcEN1jfA7SkFMb",
        "images" : [ {
          "height" : 640,
          "url" : "https://i.scdn.co/image/ab67616d0000b2731b1a8f0542a9d7ded39df326",
          "width" : 640
        }, {
          "height" : 300,
          "url" : "https://i.scdn.co/image/ab67616d00001e021b1a8f0542a9d7ded39df326",
          "width" : 300
        }, {
          "height" : 64,
          "url" : "https://i.scdn.co/image/ab67616d000048511b1a8f0542a9d7ded39df326",
          "width" : 64
        } ],
        "name" : "현악4중주 찬송가 연주곡집 Vol. 2",
        "release_date" : "2020-04-23",
        "release_date_precision" : "day",
        "total_tracks" : 50,
        "type" : "album",
        "uri" : "spotify:album:0qJoZ6A5AcEN1jfA7SkFMb"
      },
      "artists" : [ {
        "external_urls" : {
          "spotify" : "https://open.spotify.com/artist/20rlbkwNSoLrLqQUR7GRcT"
        },
        "href" : "https://api.spotify.com/v1/artists/20rlbkwNSoLrLqQUR7GRcT",
        "id" : "20rlbkwNSoLrLqQUR7GRcT",
        "name" : "Mother’s Lullaby",
        "type" : "artist",
        "uri" : "spotify:artist:20rlbkwNSoLrLqQUR7GRcT"
      } ],
      "disc_number" : 1,
      "duration_ms" : 77755,
      "explicit" : false,
      "external_ids" : {
        "isrc" : "QZEKE1933009"
      },
      "external_urls" : {
        "spotify" : "https://open.spotify.com/track/5zN0aUSolwoyhxfFKrgRcl"
      },
      "href" : "https://api.spotify.com/v1/tracks/5zN0aUSolwoyhxfFKrgRcl",
      "id" : "5zN0aUSolwoyhxfFKrgRcl",
      "is_local" : false,
      "is_playable" : true,
      "name" : "Lord Dismiss Us With Thy Blessing",
      "popularity" : 0,
      "preview_url" : "https://p.scdn.co/mp3-preview/7e814e474691b13d71b36215dc59099c8ab0448a?cid=774b29d4f13844c495f206cafdad9c86",
      "track_number" : 11,
      "type" : "track",
      "uri" : "spotify:track:5zN0aUSolwoyhxfFKrgRcl"
    }, {
      "album" : {
        "album_type" : "album",
        "artists" : [ {
          "external_urls" : {
            "spotify" : "https://open.spotify.com/artist/15WWcNQdZWCY1AAVPbZ6Hi"
          },
          "href" : "https://api.spotify.com/v1/artists/15WWcNQdZWCY1AAVPbZ6Hi",
          "id" : "15WWcNQdZWCY1AAVPbZ6Hi",
          "name" : "Utah Hymnal Association",
          "type" : "artist",
          "uri" : "spotify:artist:15WWcNQdZWCY1AAVPbZ6Hi"
        } ],
        "external_urls" : {
          "spotify" : "https://open.spotify.com/album/4SuQsUJgKW4NGI4xU6JWxK"
        },
        "href" : "https://api.spotify.com/v1/albums/4SuQsUJgKW4NGI4xU6JWxK",
        "id" : "4SuQsUJgKW4NGI4xU6JWxK",
        "images" : [ {
          "height" : 640,
          "url" : "https://i.scdn.co/image/ab67616d0000b273a09ccb37e1ab84e2376cf448",
          "width" : 640
        }, {
          "height" : 300,
          "url" : "https://i.scdn.co/image/ab67616d00001e02a09ccb37e1ab84e2376cf448",
          "width" : 300
        }, {
          "height" : 64,
          "url" : "https://i.scdn.co/image/ab67616d00004851a09ccb37e1ab84e2376cf448",
          "width" : 64
        } ],
        "name" : "How Firm a Foundation",
        "release_date" : "2016-03-01",
        "release_date_precision" : "day",
        "total_tracks" : 10,
        "type" : "album",
        "uri" : "spotify:album:4SuQsUJgKW4NGI4xU6JWxK"
      },
      "artists" : [ {
        "external_urls" : {
          "spotify" : "https://open.spotify.com/artist/15WWcNQdZWCY1AAVPbZ6Hi"
        },
        "href" : "https://api.spotify.com/v1/artists/15WWcNQdZWCY1AAVPbZ6Hi",
        "id" : "15WWcNQdZWCY1AAVPbZ6Hi",
        "name" : "Utah Hymnal Association",
        "type" : "artist",
        "uri" : "spotify:artist:15WWcNQdZWCY1AAVPbZ6Hi"
      } ],
      "disc_number" : 1,
      "duration_ms" : 50253,
      "explicit" : false,
      "external_ids" : {
        "isrc" : "TCJPE1643976"
      },
      "external_urls" : {
        "spotify" : "https://open.spotify.com/track/6YKyeIcfXSJebYJYmct8PL"
      },
      "href" : "https://api.spotify.com/v1/tracks/6YKyeIcfXSJebYJYmct8PL",
      "id" : "6YKyeIcfXSJebYJYmct8PL",
      "is_local" : false,
      "is_playable" : true,
      "name" : "Lord, Dismiss Us with Thy Blessing",
      "popularity" : 0,
      "preview_url" : "https://p.scdn.co/mp3-preview/d291ed26e1b3869f75d5f9c5fd1ca43d329af2c6?cid=774b29d4f13844c495f206cafdad9c86",
      "track_number" : 5,
      "type" : "track",
      "uri" : "spotify:track:6YKyeIcfXSJebYJYmct8PL"
    }, {
      "album" : {
        "album_type" : "album",
        "artists" : [ {
          "external_urls" : {
            "spotify" : "https://open.spotify.com/artist/4X0B4Hnsn3lg1aMjeQtolW"
          },
          "href" : "https://api.spotify.com/v1/artists/4X0B4Hnsn3lg1aMjeQtolW",
          "id" : "4X0B4Hnsn3lg1aMjeQtolW",
          "name" : "The Trinity Choir of St. Paul's Chapel",
          "type" : "artist",
          "uri" : "spotify:artist:4X0B4Hnsn3lg1aMjeQtolW"
        } ],
        "external_urls" : {
          "spotify" : "https://open.spotify.com/album/0nFogjLQKZFlX5SaJdBv69"
        },
        "href" : "https://api.spotify.com/v1/albums/0nFogjLQKZFlX5SaJdBv69",
        "id" : "0nFogjLQKZFlX5SaJdBv69",
        "images" : [ {
          "height" : 640,
          "url" : "https://i.scdn.co/image/ab67616d0000b27301919eb0bd15a09f1e148147",
          "width" : 640
        }, {
          "height" : 300,
          "url" : "https://i.scdn.co/image/ab67616d00001e0201919eb0bd15a09f1e148147",
          "width" : 300
        }, {
          "height" : 64,
          "url" : "https://i.scdn.co/image/ab67616d0000485101919eb0bd15a09f1e148147",
          "width" : 64
        } ],
        "name" : "Sacred Choruses, Vol. 5",
        "release_date" : "2018-05-15",
        "release_date_precision" : "day",
        "total_tracks" : 10,
        "type" : "album",
        "uri" : "spotify:album:0nFogjLQKZFlX5SaJdBv69"
      },
      "artists" : [ {
        "external_urls" : {
          "spotify" : "https://open.spotify.com/artist/4X0B4Hnsn3lg1aMjeQtolW"
        },
        "href" : "https://api.spotify.com/v1/artists/4X0B4Hnsn3lg1aMjeQtolW",
        "id" : "4X0B4Hnsn3lg1aMjeQtolW",
        "name" : "The Trinity Choir of St. Paul's Chapel",
        "type" : "artist",
        "uri" : "spotify:artist:4X0B4Hnsn3lg1aMjeQtolW"
      } ],
      "disc_number" : 1,
      "duration_ms" : 125826,
      "explicit" : false,
      "external_ids" : {
        "isrc" : "DEU470007962"
      },
      "external_urls" : {
        "spotify" : "https://open.spotify.com/track/7FreDzuvHhWU6mpx1pfjQo"
      },
      "href" : "https://api.spotify.com/v1/tracks/7FreDzuvHhWU6mpx1pfjQo",
      "id" : "7FreDzuvHhWU6mpx1pfjQo",
      "is_local" : false,
      "is_playable" : true,
      "name" : "Lord, Dismiss Us with Thy Blessing",
      "popularity" : 0,
      "preview_url" : "https://p.scdn.co/mp3-preview/999a5305f6816e797d57c0b852cffa9f68d10f23?cid=774b29d4f13844c495f206cafdad9c86",
      "track_number" : 5,
      "type" : "track",
      "uri" : "spotify:track:7FreDzuvHhWU6mpx1pfjQo"
    } ],
    "limit" : 10,
    "next" : "https://api.spotify.com/v1/search?query=Dismiss+Us%2C+Lord+With+Blessing&type=track&market=US&offset=15&limit=10",
    "offset" : 5,
    "previous" : "https://api.spotify.com/v1/search?query=Dismiss+Us%2C+Lord+With+Blessing&type=track&market=US&offset=0&limit=10",
    "total" : 47
  }
}