{
  "tracks" : {
    "href" : "https://api.spotify.com/v1/search?query=Jerusalem+the+Golden&type=track&market=US&offset=5&limit=10",
    "items" : [ {
      "album" : {
        "album_type" : "album",
        "artists" : [ {
          "external_urls" : {
            "spotify" : "https://open.spotify.com/artist/3Uf8Y5I9AauKxbH4fj9xVV"
          },
          "href" : "https://api.spotify.com/v1/artists/3Uf8Y5I9AauKxbH4fj9xVV",
          "id" : "3Uf8Y5I9AauKxbH4fj9xVV",
          "name" : "The Monks Of Glenstal Abbey",
          "type" : "artist",
          "uri" : "spotify:artist:3Uf8Y5I9AauKxbH4fj9xVV"
        } ],
        "external_urls" : {
          "spotify" : "https://open.spotify.com/album/0Ztsd7JOhBzDfg4WMF3QBZ"
        },
        "href" : "https://api.spotify.com/v1/albums/0Ztsd7JOhBzDfg4WMF3QBZ",
        "id" : "0Ztsd7JOhBzDfg4WMF3QBZ",
        "images" : [ {
          "height" : 640,
          "url" : "https://i.scdn.co/image/ab67616d0000b273878ff2233090a4ce27dd3794",
          "width" : 640
        }, {
          "height" : 300,
          "url" : "https://i.scdn.co/image/ab67616d00001e02878ff2233090a4ce27dd3794",
          "width" : 300
        }, {
          "height" : 64,
          "url" : "https://i.scdn.co/image/ab67616d00004851878ff2233090a4ce27dd3794",
          "width" : 64
        } ],
        "name" : "Biscantorat - The Sound Of The Spirit From Glenstal Abbey",
        "release_date" : "2009-05-15",
        "release_date_precision" : "day",
        "total_tracks" : 21,
        "type" : "album",
        "uri" : "spotify:album:0Ztsd7JOhBzDfg4WMF3QBZ"
      },
      "artists" : [ {
        "external_urls" : {
          "spotify" : "https://open.spotify.com/artist/3Uf8Y5I9AauKxbH4fj9xVV"
        },
        "href" : "https://api.spotify.com/v1/artists/3Uf8Y5I9AauKxbH4fj9xVV",
        "id" : "3Uf8Y5I9AauKxbH4fj9xVV",
        "name" : "The Monks Of Glenstal Abbey",
        "type" : "artist",
        "uri" : "spotify:artist:3Uf8Y5I9AauKxbH4fj9xVV"
      } ],
      "disc_number" : 1,
      "duration_ms" : 106786,
      "explicit" : false,
      "external_ids" : {
        "isrc" : "IEABG0400094"
      },
      "external_urls" : {
        "spotify" : "https://open.spotify.com/track/0XHdC1vfA31esmoAZAh2e0"
      },
      "href" : "https://api.spotify.com/v1/tracks/0XHdC1vfA31esmoAZAh2e0",
      "id" : "0XHdC1vfA31esmoAZAh2e0",
      "is_local" : false,
      "is_playable" : true,
      "name" : "Jerusalem The Golden",
      "popularity" : 2,
      "preview_url" : "https://p.scdn.co/mp3-preview/f65f53fdf3d147bdb780a465120c2cffe5dccf93?cid=774b29d4f13844c495f206cafdad9c86",
      "track_number" : 19,
      "type" : "track",
      "uri" : "spotify:track:0XHdC1vfA31esmoAZAh2e0"
    }, {
      "album" : {
        "album_type" : "single",
        "artists" : [ {
          "external_urls" : {
            "spotify" : "https://open.spotify.com/artist/7Gbhs14qEzheeN71lJ1kXt"
          },
          "href" : "https://api.spotify.com/v1/artists/7Gbhs14qEzheeN71lJ1kXt",
          "id" : "7Gbhs14qEzheeN71lJ1kXt",
          "name" : "Waldham Grove Orchestra",
          "type" : "artist",
          "uri" : "spotify:artist:7Gbhs14qEzheeN71lJ1kXt"
        } ],
        "external_urls" : {
          "spotify" : "https://open.spotify.com/album/51fAW343x5U6PhjNnRblDF"
        },
        "href" : "https://api.spotify.com/v1/albums/51fAW343x5U6PhjNnRblDF",
        "id" : "51fAW343x5U6PhjNnRblDF",
        "images" : [ {
          "height" : 640,
          "url" : "https://i.scdn.co/image/ab67616d0000b27323ed315f48c64e8d0653518f",
          "width" : 640
        }, {
          "height" : 300,
          "url" : "https://i.scdn.co/image/ab67616d00001e0223ed315f48c64e8d0653518f",
          "width" : 300
        }, {
          "height" : 64,
          "url" : "https://i.scdn.co/image/ab67616d0000485123ed315f48c64e8d0653518f",
          "width" : 64
        } ],
        "name" : "Hymns of Heaven",
        "release_date" : "2016-01-31",
        "release_date_precision" : "day",
        "total_tracks" : 4,
        "type" : "album",
        "uri" : "spotify:album:51fAW343x5U6PhjNnRblDF"
      },
      "artists" : [ {
        "external_urls" : {
          "spotify" : "https://open.spotify.com/artist/7Gbhs14qEzheeN71lJ1kXt"
        },
        "href" : "https://api.spotify.com/v1/artists/7Gbhs14qEzheeN71lJ1kXt",
        "id" : "7Gbhs14qEzheeN71lJ1kXt",
        "name" : "Waldham Grove Orchestra",
        "type" : "artist",
        "uri" : "spotify:artist:7Gbhs14qEzheeN71lJ1kXt"
      } ],
      "disc_number" : 1,
      "duration_ms" : 182425,
      "explicit" : false,
      "external_ids" : {
        "isrc" : "QMPKX1641454"
      },
      "external_urls" : {
        "spotify" : "https://open.spotify.com/track/1nh3wAvSGirBWvshsl050E"
      },
      "href" : "https://api.spotify.com/v1/tracks/1nh3wAvSGirBWvshsl050E",
      "id" : "1nh3wAvSGirBWvshsl050E",
      "is_local" : false,
      "is_playable" : true,
      "name" : "Jerusalem the Golden",
      "popularity" : 0,
      "preview_url" : "https://p.scdn.co/mp3-preview/1f17c6a40f2cc3a6c3cc2bb7cc7e72027f35da21?cid=774b29d4f13844c495f206cafdad9c86",
      "track_number" : 4,
      "type" : "track",
      "uri" : "spotify:track:1nh3wAvSGirBWvshsl050E"
    }, {
      "album" : {
        "album_type" : "album",
        "artists" : [ {
          "external_urls" : {
            "spotify" : "https://open.spotify.com/artist/41N4x8ZUxk7JkHORj8M3bd"
          },
          "href" : "https://api.spotify.com/v1/artists/41N4x8ZUxk7JkHORj8M3bd",
          "id" : "41N4x8ZUxk7JkHORj8M3bd",
          "name" : "Concordia Publishing House",
          "type" : "artist",
          "uri" : "spotify:artist:41N4x8ZUxk7JkHORj8M3bd"
        } ],
        "external_urls" : {
          "spotify" : "https://open.spotify.com/album/7kZezI4GcKIyuoDF5EwKP7"
        },
        "href" : "https://api.spotify.com/v1/albums/7kZezI4GcKIyuoDF5EwKP7",
        "id" : "7kZezI4GcKIyuoDF5EwKP7",
        "images" : [ {
          "height" : 640,
          "url" : "https://i.scdn.co/image/ab67616d0000b273b4b3832d189ec6cb3d3c86f6",
          "width" : 640
        }, {
          "height" : 300,
          "url" : "https://i.scdn.co/image/ab67616d00001e02b4b3832d189ec6cb3d3c86f6",
          "width" : 300
        }, {
          "height" : 64,
          "url" : "https://i.scdn.co/image/ab67616d00004851b4b3832d189ec6cb3d3c86f6",
          "width" : 64
        } ],
        "name" : "Hymns of Faith",
        "release_date" : "2009-10-26",
        "release_date_precision" : "day",
        "total_tracks" : 25,
        "type" : "album",
        "uri" : "spotify:album:7kZezI4GcKIyuoDF5EwKP7"
      },
      "artists" : [ {
        "external_urls" : {
          "spotify" : "https://open.spotify.com/artist/41N4x8ZUxk7JkHORj8M3bd"
        },
        "href" : "https://api.spotify.com/v1/artists/41N4x8ZUxk7JkHORj8M3bd",
        "id" : "41N4x8ZUxk7JkHORj8M3bd",
        "name" : "Concordia Publishing House",
        "type" : "artist",
        "uri" : "spotify:artist:41N4x8ZUxk7JkHORj8M3bd"
      } ],
      "disc_number" : 1,
      "duration_ms" : 157520,
      "explicit" : false,
      "external_ids" : {
        "isrc" : "US2SL0900716"
      },
      "external_urls" : {
        "spotify" : "https://open.spotify.com/track/0CgqTZuO9KBrcAgZYWkvBL"
      },
      "href" : "https://api.spotify.com/v1/tracks/0CgqTZuO9KBrcAgZYWkvBL",
      "id" : "0CgqTZuO9KBrcAgZYWkvBL",
      "is_local" : false,
      "is_playable" : true,
      "name" : "Jerusalem the Golden",
      "popularity" : 1,
      "preview_url" : "https://p.scdn.co/mp3-preview/0ac229050ef4463355451d280130dc25ad75f200?cid=774b29d4f13844c495f206cafdad9c86",
      "track_number" : 15,
      "type" : "track",
      "uri" : "spotify:track:0CgqTZuO9KBrcAgZYWkvBL"
    }, {
      "album" : {
        "album_type" : "album",
        "artists" : [ {
          "external_urls" : {
            "spotify" : "https://open.spotify.com/artist/20rlbkwNSoLrLqQUR7GRcT"
          },
          "href" : "https://api.spotify.com/v1/artists/20rlbkwNSoLrLqQUR7GRcT",
          "id" : "20rlbkwNSoLrLqQUR7GRcT",
          "name" : "Mother’s Lullaby",
          "type" : "artist",
          "uri" : "spotify:artist:20rlbkwNSoLrLqQUR7GRcT"
        } ],
        "external_urls" : {
          "spotify" : "https://open.spotify.com/album/7Mpiwy7SrenUqsIvyiTO41"
        },
        "href" : "https://api.spotify.com/v1/albums/7Mpiwy7SrenUqsIvyiTO41",
        "id" : "7Mpiwy7SrenUqsIvyiTO41",
        "images" : [ {
          "height" : 640,
          "url" : "https://i.scdn.co/image/ab67616d0000b27367d3fd4f6b5befe73e795a8b",
          "width" : 640
        }, {
          "height" : 300,
          "url" : "https://i.scdn.co/image/ab67616d00001e0267d3fd4f6b5befe73e795a8b",
          "width" : 300
        }, {
          "height" : 64,
          "url" : "https://i.scdn.co/image/ab67616d0000485167d3fd4f6b5befe73e795a8b",
          "width" : 64
        } ],
        "name" : "찬송가 반주곡 대전집 Vol.24 (501~558장)_(Hymns Vol.24)",
        "release_date" : "2019-12-24",
        "release_date_precision" : "day",
        "total_tracks" : 58,
        "type" : "album",
        "uri" : "spotify:album:7Mpiwy7SrenUqsIvyiTO41"
      },
      "artists" : [ {
        "external_urls" : {
          "spotify" : "https://open.spotify.com/artist/20rlbkwNSoLrLqQUR7GRcT"
        },
        "href" : "https://api.spotify.com/v1/artists/20rlbkwNSoLrLqQUR7GRcT",
        "id" : "20rlbkwNSoLrLqQUR7GRcT",
        "name" : "Mother’s Lullaby",
        "type" : "artist",
        "uri" : "spotify:artist:20rlbkwNSoLrLqQUR7GRcT"
      } ],
      "disc_number" : 1,
      "duration_ms" : 166730,
      "explicit" : false,
      "external_ids" : {
        "isrc" : "QZEKE1923821"
      },
      "external_urls" : {
        "spotify" : "https://open.spotify.com/track/2ft6sGgAH6pReBkoUX9PTs"
      },
      "href" : "https://api.spotify.com/v1/tracks/2ft6sGgAH6pReBkoUX9PTs",
      "id" : "2ft6sGgAH6pReBkoUX9PTs",
      "is_local" : false,
      "is_playable" : true,
      "name" : "Jerusalem The Golden",
      "popularity" : 0,
      "preview_url" : "https://p.scdn.co/mp3-preview/ba235abfe3cfc92ca85269b3a21b75ac828c75d4?cid=774b29d4f13844c495f206cafdad9c86",
      "track_number" : 38,
      "type" : "track",
      "uri" : "spotify:track:2ft6sGgAH6pReBkoUX9PTs"
    }, {
      "album" : {
        "album_type" : "album",
        "artists" : [ {
          "external_urls" : {
            "spotify" : "https://open.spotify.com/artist/08dsaoVeGLJhTdUCgiFIUJ"
          },
          "href" : "https://api.spotify.com/v1/artists/08dsaoVeGLJhTdUCgiFIUJ",
          "id" : "08dsaoVeGLJhTdUCgiFIUJ",
          "name" : "Kevin Mayhew Ltd",
          "type" : "artist",
          "uri" : "spotify:artist:08dsaoVeGLJhTdUCgiFIUJ"
        } ],
        "external_urls" : {
          "spotify" : "https://open.spotify.com/album/6rbbW8kZvFaQfopCWBd8HV"
        },
        "href" : "https://api.spotify.com/v1/albums/6rbbW8kZvFaQfopCWBd8HV",
        "id" : "6rbbW8kZvFaQfopCWBd8HV",
        "images" : [ {
          "height" : 640,
          "url" : "https://i.scdn.co/image/ab67616d0000b273ff27926bfdb0262b51801a0a",
          "width" : 640
        }, {
          "height" : 300,
          "url" : "https://i.scdn.co/image/ab67616d00001e02ff27926bfdb0262b51801a0a",
          "width" : 300
        }, {
          "height" : 64,
          "url" : "https://i.scdn.co/image/ab67616d00004851ff27926bfdb0262b51801a0a",
          "width" : 64
        } ],
        "name" : "No Organist? No Problem! Cd 4",
        "release_date" : "2002-04-15",
        "release_date_precision" : "day",
        "total_tracks" : 21,
        "type" : "album",
        "uri" : "spotify:album:6rbbW8kZvFaQfopCWBd8HV"
      },
      "artists" : [ {
        "external_urls" : {
          "spotify" : "https://open.spotify.com/artist/08dsaoVeGLJhTdUCgiFIUJ"
        },
        "href" : "https://api.spotify.com/v1/artists/08dsaoVeGLJhTdUCgiFIUJ",
        "id" : "08dsaoVeGLJhTdUCgiFIUJ",
        "name" : "Kevin Mayhew Ltd",
        "type" : "artist",
        "uri" : "spotify:artist:08dsaoVeGLJhTdUCgiFIUJ"
      } ],
      "disc_number" : 1,
      "duration_ms" : 185600,
      "explicit" : false,
      "external_ids" : {
        "isrc" : "TCAAY1193037"
      },
      "external_urls" : {
        "spotify" : "https://open.spotify.com/track/3mbJtybh6zCxwkVwIilqWc"
      },
      "href" : "https://api.spotify.com/v1/tracks/3mbJtybh6zCxwkVwIilqWc",
      "id" : "3mbJtybh6zCxwkVwIilqWc",
      "is_local" : false,
      "is_playable" : true,
      "name" : "Jerusalem the Golden",
      "popularity" : 0,
      "preview_url" : "https://p.scdn.co/mp3-preview/89606dc1e69a032b45ed6f9c134be6325d669477?cid=774b29d4f13844c495f206cafdad9c86",
      "track_number" : 1,
      "type" : "track",
      "uri" : "spotify:track:3mbJtybh6zCxwkVwIilqWc"
    }, {
      "album" : {
        "album_type" : "album",
        "artists" : [ {
          "external_urls" : {
            "spotify" : "https://open.spotify.com/artist/4X0B4Hnsn3lg1aMjeQtolW"
          },
          "href" : "https://api.spotify.com/v1/artists/4X0B4Hnsn3lg1aMjeQtolW",
          "id" : "4X0B4Hnsn3lg1aMjeQtolW",
          "name" : "The Trinity Choir of St. Paul's Chapel",
          "type" : "artist",
          "uri" : "spotify:artist:4X0B4Hnsn3lg1aMjeQtolW"
        } ],
        "external_urls" : {
          "spotify" : "https://open.spotify.com/album/1E7bHnydsiOmGcHTPm84De"
        },
        "href" : "https://api.spotify.com/v1/albums/1E7bHnydsiOmGcHTPm84De",
        "id" : "1E7bHnydsiOmGcHTPm84De",
        "images" : [ {
          "height" : 640,
          "url" : "https://i.scdn.co/image/ab67616d0000b27353a46af38610e79c2bb1db19",
          "width" : 640
        }, {
          "height" : 300,
          "url" : "https://i.scdn.co/image/ab67616d00001e0253a46af38610e79c2bb1db19",
          "width" : 300
        }, {
          "height" : 64,
          "url" : "https://i.scdn.co/image/ab67616d0000485153a46af38610e79c2bb1db19",
          "width" : 64
        } ],
        "name" : "Sacred Choruses, Vol. 6",
        "release_date" : "2018-05-15",
        "release_date_precision" : "day",
        "total_tracks" : 10,
        "type" : "album",
        "uri" : "spotify:album:1E7bHnydsiOmGcHTPm84De"
      },
      "artists" : [ {
        "external_urls" : {
          "spotify" : "https://open.spotify.com/artist/4X0B4Hnsn3lg1aMjeQtolW"
        },
        "href" : "https://api.spotify.com/v1/artists/4X0B4Hnsn3lg1aMjeQtolW",
        "id" : "4X0B4Hnsn3lg1aMjeQtolW",
        "name" : "The Trinity Choir of St. Paul's Chapel",
        "type" : "artist",
        "uri" : "spotify:artist:4X0B4Hnsn3lg1aMjeQtolW"
      } ],
      "disc_number" : 1,
      "duration_ms" : 115933,
      "explicit" : false,
      "external_ids" : {
        "isrc" : "DEU470007953"
      },
      "external_urls" : {
        "spotify" : "https://open.spotify.com/track/7nyRNxSMGWZWUHCGA7PqVL"
      },
      "href" : "https://api.spotify.com/v1/tracks/7nyRNxSMGWZWUHCGA7PqVL",
      "id" : "7nyRNxSMGWZWUHCGA7PqVL",
      "is_local" : false,
      "is_playable" : true,
      "name" : "Jerusalem the Golden",
      "popularity" : 0,
      "preview_url" : "https://p.scdn.co/mp3-preview/295e1bd23fd31d817d9363e753ee0ce99eee3370?cid=774b29d4f13844c495f206cafdad9c86",
      "track_number" : 8,
      "type" : "track",
      "uri" : "spotify:track:7nyRNxSMGWZWUHCGA7PqVL"
    }, {
      "album" : {
        "album_type" : "compilation",
        "artists" : [ {
          "external_urls" : {
            "spotify" : "https://open.spotify.com/artist/0LyfQWJT6nXafLPZqxe9Of"
          },
          "href" : "https://api.spotify.com/v1/artists/0LyfQWJT6nXafLPZqxe9Of",
          "id" : "0LyfQWJT6nXafLPZqxe9Of",
          "name" : "Various Artists",
          "type" : "artist",
          "uri" : "spotify:artist:0LyfQWJT6nXafLPZqxe9Of"
        } ],
        "external_urls" : {
          "spotify" : "https://open.spotify.com/album/28mpB0rYfseNpz2M2qtH9G"
        },
        "href" : "https://api.spotify.com/v1/albums/28mpB0rYfseNpz2M2qtH9G",
        "id" : "28mpB0rYfseNpz2M2qtH9G",
        "images" : [ {
          "height" : 640,
          "url" : "https://i.scdn.co/image/ab67616d0000b273d1a31536174015b3e2eb09d4",
          "width" : 640
        }, {
          "height" : 300,
          "url" : "https://i.scdn.co/image/ab67616d00001e02d1a31536174015b3e2eb09d4",
          "width" : 300
        }, {
          "height" : 64,
          "url" : "https://i.scdn.co/image/ab67616d00004851d1a31536174015b3e2eb09d4",
          "width" : 64
        } ],
        "name" : "Npm 2013 Showcase CD Sampler",
        "release_date" : "2011",
        "release_date_precision" : "year",
        "total_tracks" : 20,
        "type" : "album",
        "uri" : "spotify:album:28mpB0rYfseNpz2M2qtH9G"
      },
      "artists" : [ {
        "external_urls" : {
          "spotify" : "https://open.spotify.com/artist/5lJCzZCNXXsX7mbZlcXPtI"
        },
        "href" : "https://api.spotify.com/v1/artists/5lJCzZCNXXsX7mbZlcXPtI",
        "id" : "5lJCzZCNXXsX7mbZlcXPtI",
        "name" : "Janèt Sullivan Whitaker",
        "type" : "artist",
        "uri" : "spotify:artist:5lJCzZCNXXsX7mbZlcXPtI"
      } ],
      "disc_number" : 1,
      "duration_ms" : 114773,
      "explicit" : false,
      "external_ids" : {
        "isrc" : "USA4N1201289"
      },
      "external_urls" : {
        "spotify" : "https://open.spotify.com/track/6hdv3tobgbBe2dLr7FGXaZ"
      },
      "href" : "https://api.spotify.com/v1/tracks/6hdv3tobgbBe2dLr7FGXaZ",
      "id" : "6hdv3tobgbBe2dLr7FGXaZ",
      "is_local" : false,
      "is_playable" : true,
      "name" : "Jerusalem the Golden",
      "popularity" : 0,
      "preview_url" : "https://p.scdn.co/mp3-preview/2a2bf5f8e89280feee078d8c9fa6fbabc04213a1?cid=774b29d4f13844c495f206cafdad9c86",
      "track_number" : 13,
      "type" : "track",
      "uri" : "spotify:track:6hdv3tobgbBe2dLr7FGXaZ"
    }, {
      "album" : {
        "album_type" : "album",
        "artists" : [ {
          "external_urls" : {
            "spotify" : "https://open.spotify.com/artist/3I6r3dlooiDGf0FwFVsuaJ"
          },
          "href" : "https://api.spotify.com/v1/artists/3I6r3dlooiDGf0FwFVsuaJ",
          "id" : "3I6r3dlooiDGf0FwFVsuaJ",
          "name" : "Inspirational Organs",
          "type" : "artist",
          "uri" : "spotify:artist:3I6r3dlooiDGf0FwFVsuaJ"
        } ],
        "external_urls" : {
          "spotify" : "https://open.spotify.com/album/5jG5AhfxUy6FBxAQXEcPqi"
        },
        "href" : "https://api.spotify.com/v1/albums/5jG5AhfxUy6FBxAQXEcPqi",
        "id" : "5jG5AhfxUy6FBxAQXEcPqi",
        "images" : [ {
          "height" : 640,
          "url" : "https://i.scdn.co/image/ab67616d0000b273a8ee17502de5ed1c01f8ede9",
          "width" : 640
        }, {
          "height" : 300,
          "url" : "https://i.scdn.co/image/ab67616d00001e02a8ee17502de5ed1c01f8ede9",
          "width" : 300
        }, {
          "height" : 64,
          "url" : "https://i.scdn.co/image/ab67616d00004851a8ee17502de5ed1c01f8ede9",
          "width" : 64
        } ],
        "name" : "Nearer, My God, to Thee",
        "release_date" : "2016-02-10",
        "release_date_precision" : "day",
        "total_tracks" : 13,
        "type" : "album",
        "uri" : "spotify:album:5jG5AhfxUy6FBxAQXEcPqi"
      },
      "artists" : [ {
        "external_urls" : {
          "spotify" : "https://open.spotify.com/artist/3I6r3dlooiDGf0FwFVsuaJ"
        },
        "href" : "https://api.spotify.com/v1/artists/3I6r3dlooiDGf0FwFVsuaJ",
        "id" : "3I6r3dlooiDGf0FwFVsuaJ",
        "name" : "Inspirational Organs",
        "type" : "artist",
        "uri" : "spotify:artist:3I6r3dlooiDGf0FwFVsuaJ"
      } ],
      "disc_number" : 1,
      "duration_ms" : 198593,
      "explicit" : false,
      "external_ids" : {
        "isrc" : "QMPKX1656070"
      },
      "external_urls" : {
        "spotify" : "https://open.spotify.com/track/0Zbomj84Q1m5gYNHUqrf4e"
      },
      "href" : "https://api.spotify.com/v1/tracks/0Zbomj84Q1m5gYNHUqrf4e",
      "id" : "0Zbomj84Q1m5gYNHUqrf4e",
      "is_local" : false,
      "is_playable" : true,
      "name" : "Jerusalem the Golden",
      "popularity" : 0,
      "preview_url" : "https://p.scdn.co/mp3-preview/ee18b61c13e24522140c3789942e7ce0d93a361e?cid=774b29d4f13844c495f206cafdad9c86",
      "track_number" : 9,
      "type" : "track",
      "uri" : "spotify:track:0Zbomj84Q1m5gYNHUqrf4e"
    }, {
      "album" : {
        "album_type" : "album",
        "artists" : [ {
          "external_urls" : {
            "spotify" : "https://open.spotify.com/artist/4iFDmBItUcL64azD0sJydU"
          },
          "href" : "https://api.spotify.com/v1/artists/4iFDmBItUcL64azD0sJydU",
          "id" : "4iFDmBItUcL64azD0sJydU",
          "name" : "London Regency Choir",
          "type" : "artist",
          "uri" : "spotify:artist:4iFDmBItUcL64azD0sJydU"
        } ],
        "external_urls" : {
          "spotify" : "https://open.spotify.com/album/54LvdZXsaSSRC6WixcpOEq"
        },
        "href" : "https://api.spotify.com/v1/albums/54LvdZXsaSSRC6WixcpOEq",
        "id" : "54LvdZXsaSSRC6WixcpOEq",
        "images" : [ {
          "height" : 640,
          "url" : "https://i.scdn.co/image/ab67616d0000b273f9058f9a559e34d69cff7003",
          "width" : 640
        }, {
          "height" : 300,
          "url" : "https://i.scdn.co/image/ab67616d00001e02f9058f9a559e34d69cff7003",
          "width" : 300
        }, {
          "height" : 64,
          "url" : "https://i.scdn.co/image/ab67616d00004851f9058f9a559e34d69cff7003",
          "width" : 64
        } ],
        "name" : "Classical Carols Collection",
        "release_date" : "2013-10-08",
        "release_date_precision" : "day",
        "total_tracks" : 27,
        "type" : "album",
        "uri" : "spotify:album:54LvdZXsaSSRC6WixcpOEq"
      },
      "artists" : [ {
        "external_urls" : {
          "spotify" : "https://open.spotify.com/artist/3abFWtHkPfaL1xWw5W9D77"
        },
        "href" : "https://api.spotify.com/v1/artists/3abFWtHkPfaL1xWw5W9D77",
        "id" : "3abFWtHkPfaL1xWw5W9D77",
        "name" : "Alexander Ewing",
        "type" : "artist",
        "uri" : "spotify:artist:3abFWtHkPfaL1xWw5W9D77"
      }, {
        "external_urls" : {
          "spotify" : "https://open.spotify.com/artist/4iFDmBItUcL64azD0sJydU"
        },
        "href" : "https://api.spotify.com/v1/artists/4iFDmBItUcL64azD0sJydU",
        "id" : "4iFDmBItUcL64azD0sJydU",
        "name" : "London Regency Choir",
        "type" : "artist",
        "uri" : "spotify:artist:4iFDmBItUcL64azD0sJydU"
      }, {
        "external_urls" : {
          "spotify" : "https://open.spotify.com/artist/75JLxgq0Pty0rqG3tQbCKv"
        },
        "href" : "https://api.spotify.com/v1/artists/75JLxgq0Pty0rqG3tQbCKv",
        "id" : "75JLxgq0Pty0rqG3tQbCKv",
        "name" : "Roger Allen",
        "type" : "artist",
        "uri" : "spotify:artist:75JLxgq0Pty0rqG3tQbCKv"
      }, {
        "external_urls" : {
          "spotify" : "https://open.spotify.com/artist/2gH7gVC3RvaoCaSEtJmRMi"
        },
        "href" : "https://api.spotify.com/v1/artists/2gH7gVC3RvaoCaSEtJmRMi",
        "id" : "2gH7gVC3RvaoCaSEtJmRMi",
        "name" : "Niles Johnson",
        "type" : "artist",
        "uri" : "spotify:artist:2gH7gVC3RvaoCaSEtJmRMi"
      } ],
      "disc_number" : 1,
      "duration_ms" : 157146,
      "explicit" : false,
      "external_ids" : {
        "isrc" : "GBSWE0812507"
      },
      "external_urls" : {
        "spotify" : "https://open.spotify.com/track/0utNcbYy39NgYbh1CPjn2D"
      },
      "href" : "https://api.spotify.com/v1/tracks/0utNcbYy39NgYbh1CPjn2D",
      "id" : "0utNcbYy39NgYbh1CPjn2D",
      "is_local" : false,
      "is_playable" : true,
      "name" : "Jerusalem the Golden",
      "popularity" : 0,
      "preview_url" : "https://p.scdn.co/mp3-preview/36093a8d5902ddc95af2e3b434d51fe72b6c67d8?cid=774b29d4f13844c495f206cafdad9c86",
      "track_number" : 11,
      "type" : "track",
      "uri" : "spotify:track:0utNcbYy39NgYbh1CPjn2D"
    }, {
      "album" : {
        "album_type" : "album",
        "artists" : [ {
          "external_urls" : {
            "spotify" : "https://open.spotify.com/artist/1tPprlWUwJk5wBjVgVGzpc"
          },
          "href" : "https://api.spotify.com/v1/artists/1tPprlWUwJk5wBjVgVGzpc",
          "id" : "1tPprlWUwJk5wBjVgVGzpc",
          "name" : "John Sheard",
          "type" : "artist",
          "uri" : "spotify:artist:1tPprlWUwJk5wBjVgVGzpc"
        } ],
        "external_urls" : {
          "spotify" : "https://open.spotify.com/album/4z8s7OoNI9ZNRgYD0tJgns"
        },
        "href" : "https://api.spotify.com/v1/albums/4z8s7OoNI9ZNRgYD0tJgns",
        "id" : "4z8s7OoNI9ZNRgYD0tJgns",
        "images" : [ {
          "height" : 640,
          "url" : "https://i.scdn.co/image/ab67616d0000b27330fa5615f9dd40c29fb49b3f",
          "width" : 640
        }, {
          "height" : 300,
          "url" : "https://i.scdn.co/image/ab67616d00001e0230fa5615f9dd40c29fb49b3f",
          "width" : 300
        }, {
          "height" : 64,
          "url" : "https://i.scdn.co/image/ab67616d0000485130fa5615f9dd40c29fb49b3f",
          "width" : 64
        } ],
        "name" : "Polyhymnia (Arranged for Piano)",
        "release_date" : "2004-01-01",
        "release_date_precision" : "day",
        "total_tracks" : 16,
        "type" : "album",
        "uri" : "spotify:album:4z8s7OoNI9ZNRgYD0tJgns"
      },
      "artists" : [ {
        "external_urls" : {
          "spotify" : "https://open.spotify.com/artist/1tPprlWUwJk5wBjVgVGzpc"
        },
        "href" : "https://api.spotify.com/v1/artists/1tPprlWUwJk5wBjVgVGzpc",
        "id" : "1tPprlWUwJk5wBjVgVGzpc",
        "name" : "John Sheard",
        "type" : "artist",
        "uri" : "spotify:artist:1tPprlWUwJk5wBjVgVGzpc"
      } ],
      "disc_number" : 1,
      "duration_ms" : 223053,
      "explicit" : false,
      "external_ids" : {
        "isrc" : "CAO371404714"
      },
      "external_urls" : {
        "spotify" : "https://open.spotify.com/track/43n1kBFKFS3uHTKF7JdL2z"
      },
      "href" : "https://api.spotify.com/v1/tracks/43n1kBFKFS3uHTKF7JdL2z",
      "id" : "43n1kBFKFS3uHTKF7JdL2z",
      "is_local" : false,
      "is_playable" : true,
      "name" : "Jerusalem the Golden",
      "popularity" : 0,
      "preview_url" : "https://p.scdn.co/mp3-preview/d7e1192e5b7ad270372ded454f27af71de00511a?cid=774b29d4f13844c495f206cafdad9c86",
      "track_number" : 14,
      "type" : "track",
      "uri" : "spotify:track:43n1kBFKFS3uHTKF7JdL2z"
    } ],
    "limit" : 10,
    "next" : "https://api.spotify.com/v1/search?query=Jerusalem+the+Golden&type=track&market=US&offset=15&limit=10",
    "offset" : 5,
    "previous" : "https://api.spotify.com/v1/search?query=Jerusalem+the+Golden&type=track&market=US&offset=0&limit=10",
    "total" : 64
  }
}