{
  "tracks" : {
    "href" : "https://api.spotify.com/v1/search?query=Must+Jesus+Bear+the+Cross+Alone&type=track&market=US&offset=5&limit=10",
    "items" : [ {
      "album" : {
        "album_type" : "album",
        "artists" : [ {
          "external_urls" : {
            "spotify" : "https://open.spotify.com/artist/6zCKr405jB5b6QI1IfFnf2"
          },
          "href" : "https://api.spotify.com/v1/artists/6zCKr405jB5b6QI1IfFnf2",
          "id" : "6zCKr405jB5b6QI1IfFnf2",
          "name" : "Dallas Christian Adult Concert Choir",
          "type" : "artist",
          "uri" : "spotify:artist:6zCKr405jB5b6QI1IfFnf2"
        } ],
        "external_urls" : {
          "spotify" : "https://open.spotify.com/album/2t7QLk7fuwldcC7Dx3b3os"
        },
        "href" : "https://api.spotify.com/v1/albums/2t7QLk7fuwldcC7Dx3b3os",
        "id" : "2t7QLk7fuwldcC7Dx3b3os",
        "images" : [ {
          "height" : 640,
          "url" : "https://i.scdn.co/image/ab67616d0000b27340a50b2d526fa7b88aa4462b",
          "width" : 640
        }, {
          "height" : 300,
          "url" : "https://i.scdn.co/image/ab67616d00001e0240a50b2d526fa7b88aa4462b",
          "width" : 300
        }, {
          "height" : 64,
          "url" : "https://i.scdn.co/image/ab67616d0000485140a50b2d526fa7b88aa4462b",
          "width" : 64
        } ],
        "name" : "I Need Thee Every Hour",
        "release_date" : "2008-05-13",
        "release_date_precision" : "day",
        "total_tracks" : 22,
        "type" : "album",
        "uri" : "spotify:album:2t7QLk7fuwldcC7Dx3b3os"
      },
      "artists" : [ {
        "external_urls" : {
          "spotify" : "https://open.spotify.com/artist/6zCKr405jB5b6QI1IfFnf2"
        },
        "href" : "https://api.spotify.com/v1/artists/6zCKr405jB5b6QI1IfFnf2",
        "id" : "6zCKr405jB5b6QI1IfFnf2",
        "name" : "Dallas Christian Adult Concert Choir",
        "type" : "artist",
        "uri" : "spotify:artist:6zCKr405jB5b6QI1IfFnf2"
      } ],
      "disc_number" : 1,
      "duration_ms" : 94333,
      "explicit" : false,
      "external_ids" : {
        "isrc" : "USMZA0811492"
      },
      "external_urls" : {
        "spotify" : "https://open.spotify.com/track/3xWsOuYtAKPcpIWLkygAh3"
      },
      "href" : "https://api.spotify.com/v1/tracks/3xWsOuYtAKPcpIWLkygAh3",
      "id" : "3xWsOuYtAKPcpIWLkygAh3",
      "is_local" : false,
      "is_playable" : true,
      "name" : "Must Jesus Bear the Cross Alone",
      "popularity" : 6,
      "preview_url" : "https://p.scdn.co/mp3-preview/8c8275811067b4fa7b2d23fcfc548a05895a7f00?cid=774b29d4f13844c495f206cafdad9c86",
      "track_number" : 15,
      "type" : "track",
      "uri" : "spotify:track:3xWsOuYtAKPcpIWLkygAh3"
    }, {
      "album" : {
        "album_type" : "album",
        "artists" : [ {
          "external_urls" : {
            "spotify" : "https://open.spotify.com/artist/6UafNU6KEsfHN0OosKfPvM"
          },
          "href" : "https://api.spotify.com/v1/artists/6UafNU6KEsfHN0OosKfPvM",
          "id" : "6UafNU6KEsfHN0OosKfPvM",
          "name" : "City Church San Francisco",
          "type" : "artist",
          "uri" : "spotify:artist:6UafNU6KEsfHN0OosKfPvM"
        } ],
        "external_urls" : {
          "spotify" : "https://open.spotify.com/album/5AJBDrpdUlv8cEEjdoPBa5"
        },
        "href" : "https://api.spotify.com/v1/albums/5AJBDrpdUlv8cEEjdoPBa5",
        "id" : "5AJBDrpdUlv8cEEjdoPBa5",
        "images" : [ {
          "height" : 640,
          "url" : "https://i.scdn.co/image/ab67616d0000b273683c7356da803649dfb4c156",
          "width" : 640
        }, {
          "height" : 300,
          "url" : "https://i.scdn.co/image/ab67616d00001e02683c7356da803649dfb4c156",
          "width" : 300
        }, {
          "height" : 64,
          "url" : "https://i.scdn.co/image/ab67616d00004851683c7356da803649dfb4c156",
          "width" : 64
        } ],
        "name" : "Love Divine, Victorious",
        "release_date" : "2015-02-11",
        "release_date_precision" : "day",
        "total_tracks" : 9,
        "type" : "album",
        "uri" : "spotify:album:5AJBDrpdUlv8cEEjdoPBa5"
      },
      "artists" : [ {
        "external_urls" : {
          "spotify" : "https://open.spotify.com/artist/6UafNU6KEsfHN0OosKfPvM"
        },
        "href" : "https://api.spotify.com/v1/artists/6UafNU6KEsfHN0OosKfPvM",
        "id" : "6UafNU6KEsfHN0OosKfPvM",
        "name" : "City Church San Francisco",
        "type" : "artist",
        "uri" : "spotify:artist:6UafNU6KEsfHN0OosKfPvM"
      } ],
      "disc_number" : 1,
      "duration_ms" : 221893,
      "explicit" : false,
      "external_ids" : {
        "isrc" : "QZDA61920762"
      },
      "external_urls" : {
        "spotify" : "https://open.spotify.com/track/66gCoGB5bXDXm0LV5fjJN9"
      },
      "href" : "https://api.spotify.com/v1/tracks/66gCoGB5bXDXm0LV5fjJN9",
      "id" : "66gCoGB5bXDXm0LV5fjJN9",
      "is_local" : false,
      "is_playable" : true,
      "name" : "Must Jesus Bear the Cross Alone (There's a Cross for Me)",
      "popularity" : 3,
      "preview_url" : "https://p.scdn.co/mp3-preview/f7245ded7b360580960de72f1b22d76468a7677f?cid=774b29d4f13844c495f206cafdad9c86",
      "track_number" : 2,
      "type" : "track",
      "uri" : "spotify:track:66gCoGB5bXDXm0LV5fjJN9"
    }, {
      "album" : {
        "album_type" : "album",
        "artists" : [ {
          "external_urls" : {
            "spotify" : "https://open.spotify.com/artist/5MGXtvQkubWszUU03zUPpZ"
          },
          "href" : "https://api.spotify.com/v1/artists/5MGXtvQkubWszUU03zUPpZ",
          "id" : "5MGXtvQkubWszUU03zUPpZ",
          "name" : "The LeFevres",
          "type" : "artist",
          "uri" : "spotify:artist:5MGXtvQkubWszUU03zUPpZ"
        } ],
        "external_urls" : {
          "spotify" : "https://open.spotify.com/album/5S5hrPpIu0PRxkEZmmANAO"
        },
        "href" : "https://api.spotify.com/v1/albums/5S5hrPpIu0PRxkEZmmANAO",
        "id" : "5S5hrPpIu0PRxkEZmmANAO",
        "images" : [ {
          "height" : 640,
          "url" : "https://i.scdn.co/image/ab67616d0000b273f7ea36cc2115d3b0c791ca2e",
          "width" : 640
        }, {
          "height" : 300,
          "url" : "https://i.scdn.co/image/ab67616d00001e02f7ea36cc2115d3b0c791ca2e",
          "width" : 300
        }, {
          "height" : 64,
          "url" : "https://i.scdn.co/image/ab67616d00004851f7ea36cc2115d3b0c791ca2e",
          "width" : 64
        } ],
        "name" : "Keep On The Firing Line",
        "release_date" : "2005",
        "release_date_precision" : "year",
        "total_tracks" : 10,
        "type" : "album",
        "uri" : "spotify:album:5S5hrPpIu0PRxkEZmmANAO"
      },
      "artists" : [ {
        "external_urls" : {
          "spotify" : "https://open.spotify.com/artist/5MGXtvQkubWszUU03zUPpZ"
        },
        "href" : "https://api.spotify.com/v1/artists/5MGXtvQkubWszUU03zUPpZ",
        "id" : "5MGXtvQkubWszUU03zUPpZ",
        "name" : "The LeFevres",
        "type" : "artist",
        "uri" : "spotify:artist:5MGXtvQkubWszUU03zUPpZ"
      } ],
      "disc_number" : 1,
      "duration_ms" : 154466,
      "explicit" : false,
      "external_ids" : {
        "isrc" : "USACU0508036"
      },
      "external_urls" : {
        "spotify" : "https://open.spotify.com/track/24mCY3GJKu0ms0kdckYBUV"
      },
      "href" : "https://api.spotify.com/v1/tracks/24mCY3GJKu0ms0kdckYBUV",
      "id" : "24mCY3GJKu0ms0kdckYBUV",
      "is_local" : false,
      "is_playable" : true,
      "name" : "Must Jesus Bear The Cross Alone",
      "popularity" : 2,
      "preview_url" : "https://p.scdn.co/mp3-preview/f290fde85dc75be95ff73c03f9b753cb9c3704e9?cid=774b29d4f13844c495f206cafdad9c86",
      "track_number" : 3,
      "type" : "track",
      "uri" : "spotify:track:24mCY3GJKu0ms0kdckYBUV"
    }, {
      "album" : {
        "album_type" : "album",
        "artists" : [ {
          "external_urls" : {
            "spotify" : "https://open.spotify.com/artist/1NuqfQkPuQH1Z8Cbz46ALR"
          },
          "href" : "https://api.spotify.com/v1/artists/1NuqfQkPuQH1Z8Cbz46ALR",
          "id" : "1NuqfQkPuQH1Z8Cbz46ALR",
          "name" : "Sammy Tedder",
          "type" : "artist",
          "uri" : "spotify:artist:1NuqfQkPuQH1Z8Cbz46ALR"
        }, {
          "external_urls" : {
            "spotify" : "https://open.spotify.com/artist/4R2KbU1GTEIQB39IBoSavl"
          },
          "href" : "https://api.spotify.com/v1/artists/4R2KbU1GTEIQB39IBoSavl",
          "id" : "4R2KbU1GTEIQB39IBoSavl",
          "name" : "Pam Laws",
          "type" : "artist",
          "uri" : "spotify:artist:4R2KbU1GTEIQB39IBoSavl"
        } ],
        "external_urls" : {
          "spotify" : "https://open.spotify.com/album/1BP8eb0DYxedeB3Hm9epjd"
        },
        "href" : "https://api.spotify.com/v1/albums/1BP8eb0DYxedeB3Hm9epjd",
        "id" : "1BP8eb0DYxedeB3Hm9epjd",
        "images" : [ {
          "height" : 640,
          "url" : "https://i.scdn.co/image/ab67616d0000b273bbd354b4f274f8af852c018e",
          "width" : 640
        }, {
          "height" : 300,
          "url" : "https://i.scdn.co/image/ab67616d00001e02bbd354b4f274f8af852c018e",
          "width" : 300
        }, {
          "height" : 64,
          "url" : "https://i.scdn.co/image/ab67616d00004851bbd354b4f274f8af852c018e",
          "width" : 64
        } ],
        "name" : "Grace in the Mystic",
        "release_date" : "2017-08-02",
        "release_date_precision" : "day",
        "total_tracks" : 12,
        "type" : "album",
        "uri" : "spotify:album:1BP8eb0DYxedeB3Hm9epjd"
      },
      "artists" : [ {
        "external_urls" : {
          "spotify" : "https://open.spotify.com/artist/1NuqfQkPuQH1Z8Cbz46ALR"
        },
        "href" : "https://api.spotify.com/v1/artists/1NuqfQkPuQH1Z8Cbz46ALR",
        "id" : "1NuqfQkPuQH1Z8Cbz46ALR",
        "name" : "Sammy Tedder",
        "type" : "artist",
        "uri" : "spotify:artist:1NuqfQkPuQH1Z8Cbz46ALR"
      }, {
        "external_urls" : {
          "spotify" : "https://open.spotify.com/artist/4R2KbU1GTEIQB39IBoSavl"
        },
        "href" : "https://api.spotify.com/v1/artists/4R2KbU1GTEIQB39IBoSavl",
        "id" : "4R2KbU1GTEIQB39IBoSavl",
        "name" : "Pam Laws",
        "type" : "artist",
        "uri" : "spotify:artist:4R2KbU1GTEIQB39IBoSavl"
      } ],
      "disc_number" : 1,
      "duration_ms" : 155909,
      "explicit" : false,
      "external_ids" : {
        "isrc" : "ushm21758497"
      },
      "external_urls" : {
        "spotify" : "https://open.spotify.com/track/2UvouY5nRW6hwx2aKiZNQi"
      },
      "href" : "https://api.spotify.com/v1/tracks/2UvouY5nRW6hwx2aKiZNQi",
      "id" : "2UvouY5nRW6hwx2aKiZNQi",
      "is_local" : false,
      "is_playable" : true,
      "name" : "Must Jesus Bear the Cross Alone",
      "popularity" : 3,
      "preview_url" : "https://p.scdn.co/mp3-preview/fc433bfc491e20b996381ac229976ae274dcadc4?cid=774b29d4f13844c495f206cafdad9c86",
      "track_number" : 8,
      "type" : "track",
      "uri" : "spotify:track:2UvouY5nRW6hwx2aKiZNQi"
    }, {
      "album" : {
        "album_type" : "album",
        "artists" : [ {
          "external_urls" : {
            "spotify" : "https://open.spotify.com/artist/53ODrbz9dJiAZ6ikXa8l3F"
          },
          "href" : "https://api.spotify.com/v1/artists/53ODrbz9dJiAZ6ikXa8l3F",
          "id" : "53ODrbz9dJiAZ6ikXa8l3F",
          "name" : "Doyle Lawson",
          "type" : "artist",
          "uri" : "spotify:artist:53ODrbz9dJiAZ6ikXa8l3F"
        }, {
          "external_urls" : {
            "spotify" : "https://open.spotify.com/artist/3uVTvREnqHEJgmZDJga3yF"
          },
          "href" : "https://api.spotify.com/v1/artists/3uVTvREnqHEJgmZDJga3yF",
          "id" : "3uVTvREnqHEJgmZDJga3yF",
          "name" : "Quicksilver",
          "type" : "artist",
          "uri" : "spotify:artist:3uVTvREnqHEJgmZDJga3yF"
        } ],
        "external_urls" : {
          "spotify" : "https://open.spotify.com/album/4qvN6fHZZkfCB0TiuXCt2t"
        },
        "href" : "https://api.spotify.com/v1/albums/4qvN6fHZZkfCB0TiuXCt2t",
        "id" : "4qvN6fHZZkfCB0TiuXCt2t",
        "images" : [ {
          "height" : 640,
          "url" : "https://i.scdn.co/image/ab67616d0000b273b49795cda65dae442e04a67f",
          "width" : 640
        }, {
          "height" : 300,
          "url" : "https://i.scdn.co/image/ab67616d00001e02b49795cda65dae442e04a67f",
          "width" : 300
        }, {
          "height" : 64,
          "url" : "https://i.scdn.co/image/ab67616d00004851b49795cda65dae442e04a67f",
          "width" : 64
        } ],
        "name" : "Heaven's Joy Awaits",
        "release_date" : "2006-01-01",
        "release_date_precision" : "day",
        "total_tracks" : 12,
        "type" : "album",
        "uri" : "spotify:album:4qvN6fHZZkfCB0TiuXCt2t"
      },
      "artists" : [ {
        "external_urls" : {
          "spotify" : "https://open.spotify.com/artist/53ODrbz9dJiAZ6ikXa8l3F"
        },
        "href" : "https://api.spotify.com/v1/artists/53ODrbz9dJiAZ6ikXa8l3F",
        "id" : "53ODrbz9dJiAZ6ikXa8l3F",
        "name" : "Doyle Lawson",
        "type" : "artist",
        "uri" : "spotify:artist:53ODrbz9dJiAZ6ikXa8l3F"
      }, {
        "external_urls" : {
          "spotify" : "https://open.spotify.com/artist/3uVTvREnqHEJgmZDJga3yF"
        },
        "href" : "https://api.spotify.com/v1/artists/3uVTvREnqHEJgmZDJga3yF",
        "id" : "3uVTvREnqHEJgmZDJga3yF",
        "name" : "Quicksilver",
        "type" : "artist",
        "uri" : "spotify:artist:3uVTvREnqHEJgmZDJga3yF"
      } ],
      "disc_number" : 1,
      "duration_ms" : 170093,
      "explicit" : false,
      "external_ids" : {
        "isrc" : "USSH58741141"
      },
      "external_urls" : {
        "spotify" : "https://open.spotify.com/track/2T7ZuTYLpxNTmgxNlFZ4g7"
      },
      "href" : "https://api.spotify.com/v1/tracks/2T7ZuTYLpxNTmgxNlFZ4g7",
      "id" : "2T7ZuTYLpxNTmgxNlFZ4g7",
      "is_local" : false,
      "is_playable" : true,
      "name" : "Must Jesus Bear The Cross Alone",
      "popularity" : 2,
      "preview_url" : null,
      "track_number" : 6,
      "type" : "track",
      "uri" : "spotify:track:2T7ZuTYLpxNTmgxNlFZ4g7"
    }, {
      "album" : {
        "album_type" : "album",
        "artists" : [ {
          "external_urls" : {
            "spotify" : "https://open.spotify.com/artist/5yFBNdRUEW4UnQSqksEzoG"
          },
          "href" : "https://api.spotify.com/v1/artists/5yFBNdRUEW4UnQSqksEzoG",
          "id" : "5yFBNdRUEW4UnQSqksEzoG",
          "name" : "Holly Aloise",
          "type" : "artist",
          "uri" : "spotify:artist:5yFBNdRUEW4UnQSqksEzoG"
        } ],
        "external_urls" : {
          "spotify" : "https://open.spotify.com/album/06FHlx8aOGpgDgC51cw6vV"
        },
        "href" : "https://api.spotify.com/v1/albums/06FHlx8aOGpgDgC51cw6vV",
        "id" : "06FHlx8aOGpgDgC51cw6vV",
        "images" : [ {
          "height" : 640,
          "url" : "https://i.scdn.co/image/ab67616d0000b27399772b32b9a2a8749b8f166c",
          "width" : 640
        }, {
          "height" : 300,
          "url" : "https://i.scdn.co/image/ab67616d00001e0299772b32b9a2a8749b8f166c",
          "width" : 300
        }, {
          "height" : 64,
          "url" : "https://i.scdn.co/image/ab67616d0000485199772b32b9a2a8749b8f166c",
          "width" : 64
        } ],
        "name" : "Piano Tracks 11",
        "release_date" : "2014-12-22",
        "release_date_precision" : "day",
        "total_tracks" : 25,
        "type" : "album",
        "uri" : "spotify:album:06FHlx8aOGpgDgC51cw6vV"
      },
      "artists" : [ {
        "external_urls" : {
          "spotify" : "https://open.spotify.com/artist/5yFBNdRUEW4UnQSqksEzoG"
        },
        "href" : "https://api.spotify.com/v1/artists/5yFBNdRUEW4UnQSqksEzoG",
        "id" : "5yFBNdRUEW4UnQSqksEzoG",
        "name" : "Holly Aloise",
        "type" : "artist",
        "uri" : "spotify:artist:5yFBNdRUEW4UnQSqksEzoG"
      } ],
      "disc_number" : 1,
      "duration_ms" : 103523,
      "explicit" : false,
      "external_ids" : {
        "isrc" : "GB-SMU-19-20587"
      },
      "external_urls" : {
        "spotify" : "https://open.spotify.com/track/5Y3lKx7NVOHwDJ1uZfpDBN"
      },
      "href" : "https://api.spotify.com/v1/tracks/5Y3lKx7NVOHwDJ1uZfpDBN",
      "id" : "5Y3lKx7NVOHwDJ1uZfpDBN",
      "is_local" : false,
      "is_playable" : true,
      "name" : "Must Jesus Bear the Cross Alone",
      "popularity" : 4,
      "preview_url" : "https://p.scdn.co/mp3-preview/b2c9cee776f00be8f5364098e3600a45213e840f?cid=774b29d4f13844c495f206cafdad9c86",
      "track_number" : 18,
      "type" : "track",
      "uri" : "spotify:track:5Y3lKx7NVOHwDJ1uZfpDBN"
    }, {
      "album" : {
        "album_type" : "album",
        "artists" : [ {
          "external_urls" : {
            "spotify" : "https://open.spotify.com/artist/1umc3Ce1b7KedwbryyxOsj"
          },
          "href" : "https://api.spotify.com/v1/artists/1umc3Ce1b7KedwbryyxOsj",
          "id" : "1umc3Ce1b7KedwbryyxOsj",
          "name" : "Hymnscapes",
          "type" : "artist",
          "uri" : "spotify:artist:1umc3Ce1b7KedwbryyxOsj"
        } ],
        "external_urls" : {
          "spotify" : "https://open.spotify.com/album/4NDlDIjgwhnPegFAVkaliQ"
        },
        "href" : "https://api.spotify.com/v1/albums/4NDlDIjgwhnPegFAVkaliQ",
        "id" : "4NDlDIjgwhnPegFAVkaliQ",
        "images" : [ {
          "height" : 640,
          "url" : "https://i.scdn.co/image/ab67616d0000b27376ac1b9320b0902f26a3b7b6",
          "width" : 640
        }, {
          "height" : 300,
          "url" : "https://i.scdn.co/image/ab67616d00001e0276ac1b9320b0902f26a3b7b6",
          "width" : 300
        }, {
          "height" : 64,
          "url" : "https://i.scdn.co/image/ab67616d0000485176ac1b9320b0902f26a3b7b6",
          "width" : 64
        } ],
        "name" : "Volume 14 - Forgiveness",
        "release_date" : "1999-01-01",
        "release_date_precision" : "day",
        "total_tracks" : 10,
        "type" : "album",
        "uri" : "spotify:album:4NDlDIjgwhnPegFAVkaliQ"
      },
      "artists" : [ {
        "external_urls" : {
          "spotify" : "https://open.spotify.com/artist/1umc3Ce1b7KedwbryyxOsj"
        },
        "href" : "https://api.spotify.com/v1/artists/1umc3Ce1b7KedwbryyxOsj",
        "id" : "1umc3Ce1b7KedwbryyxOsj",
        "name" : "Hymnscapes",
        "type" : "artist",
        "uri" : "spotify:artist:1umc3Ce1b7KedwbryyxOsj"
      } ],
      "disc_number" : 1,
      "duration_ms" : 264653,
      "explicit" : false,
      "external_ids" : {
        "isrc" : "USETB0810786"
      },
      "external_urls" : {
        "spotify" : "https://open.spotify.com/track/0KOtfHI10UbRKKOuO5OpmL"
      },
      "href" : "https://api.spotify.com/v1/tracks/0KOtfHI10UbRKKOuO5OpmL",
      "id" : "0KOtfHI10UbRKKOuO5OpmL",
      "is_local" : false,
      "is_playable" : true,
      "name" : "Must Jesus Bear The Cross Alone?",
      "popularity" : 1,
      "preview_url" : "https://p.scdn.co/mp3-preview/446315ce0791b29ec4c06dcd000bb26f5af572da?cid=774b29d4f13844c495f206cafdad9c86",
      "track_number" : 10,
      "type" : "track",
      "uri" : "spotify:track:0KOtfHI10UbRKKOuO5OpmL"
    }, {
      "album" : {
        "album_type" : "album",
        "artists" : [ {
          "external_urls" : {
            "spotify" : "https://open.spotify.com/artist/7kLdGsXityKTyYIs6L3LIW"
          },
          "href" : "https://api.spotify.com/v1/artists/7kLdGsXityKTyYIs6L3LIW",
          "id" : "7kLdGsXityKTyYIs6L3LIW",
          "name" : "Rosie Wallace",
          "type" : "artist",
          "uri" : "spotify:artist:7kLdGsXityKTyYIs6L3LIW"
        } ],
        "external_urls" : {
          "spotify" : "https://open.spotify.com/album/71Zvi8seEQOXMvJxJurPBw"
        },
        "href" : "https://api.spotify.com/v1/albums/71Zvi8seEQOXMvJxJurPBw",
        "id" : "71Zvi8seEQOXMvJxJurPBw",
        "images" : [ {
          "height" : 640,
          "url" : "https://i.scdn.co/image/ab67616d0000b2737e74cfdaa7d0594ecc770976",
          "width" : 640
        }, {
          "height" : 300,
          "url" : "https://i.scdn.co/image/ab67616d00001e027e74cfdaa7d0594ecc770976",
          "width" : 300
        }, {
          "height" : 64,
          "url" : "https://i.scdn.co/image/ab67616d000048517e74cfdaa7d0594ecc770976",
          "width" : 64
        } ],
        "name" : "Consecrate Me",
        "release_date" : "1969-09-30",
        "release_date_precision" : "day",
        "total_tracks" : 8,
        "type" : "album",
        "uri" : "spotify:album:71Zvi8seEQOXMvJxJurPBw"
      },
      "artists" : [ {
        "external_urls" : {
          "spotify" : "https://open.spotify.com/artist/7kLdGsXityKTyYIs6L3LIW"
        },
        "href" : "https://api.spotify.com/v1/artists/7kLdGsXityKTyYIs6L3LIW",
        "id" : "7kLdGsXityKTyYIs6L3LIW",
        "name" : "Rosie Wallace",
        "type" : "artist",
        "uri" : "spotify:artist:7kLdGsXityKTyYIs6L3LIW"
      } ],
      "disc_number" : 1,
      "duration_ms" : 407600,
      "explicit" : false,
      "external_ids" : {
        "isrc" : "US1SR2020006"
      },
      "external_urls" : {
        "spotify" : "https://open.spotify.com/track/71gwYhrrg7CbiQU9u0PHrp"
      },
      "href" : "https://api.spotify.com/v1/tracks/71gwYhrrg7CbiQU9u0PHrp",
      "id" : "71gwYhrrg7CbiQU9u0PHrp",
      "is_local" : false,
      "is_playable" : true,
      "name" : "Must Jesus Bear The Cross Alone",
      "popularity" : 0,
      "preview_url" : "https://p.scdn.co/mp3-preview/c265d8b387c601574cf9ad6a5005acc6ddb92504?cid=774b29d4f13844c495f206cafdad9c86",
      "track_number" : 1,
      "type" : "track",
      "uri" : "spotify:track:71gwYhrrg7CbiQU9u0PHrp"
    }, {
      "album" : {
        "album_type" : "album",
        "artists" : [ {
          "external_urls" : {
            "spotify" : "https://open.spotify.com/artist/1EBfnxXRcMWQb69bsVaIOx"
          },
          "href" : "https://api.spotify.com/v1/artists/1EBfnxXRcMWQb69bsVaIOx",
          "id" : "1EBfnxXRcMWQb69bsVaIOx",
          "name" : "The Mighty Zion Trumpets",
          "type" : "artist",
          "uri" : "spotify:artist:1EBfnxXRcMWQb69bsVaIOx"
        } ],
        "external_urls" : {
          "spotify" : "https://open.spotify.com/album/1UgY36QDlALQMjV3VPcQxP"
        },
        "href" : "https://api.spotify.com/v1/albums/1UgY36QDlALQMjV3VPcQxP",
        "id" : "1UgY36QDlALQMjV3VPcQxP",
        "images" : [ {
          "height" : 640,
          "url" : "https://i.scdn.co/image/ab67616d0000b2730d3acbf2fe0030ee6fb93a93",
          "width" : 640
        }, {
          "height" : 300,
          "url" : "https://i.scdn.co/image/ab67616d00001e020d3acbf2fe0030ee6fb93a93",
          "width" : 300
        }, {
          "height" : 64,
          "url" : "https://i.scdn.co/image/ab67616d000048510d3acbf2fe0030ee6fb93a93",
          "width" : 64
        } ],
        "name" : "Jesus Is on His Way",
        "release_date" : "2016-01-27",
        "release_date_precision" : "day",
        "total_tracks" : 10,
        "type" : "album",
        "uri" : "spotify:album:1UgY36QDlALQMjV3VPcQxP"
      },
      "artists" : [ {
        "external_urls" : {
          "spotify" : "https://open.spotify.com/artist/1EBfnxXRcMWQb69bsVaIOx"
        },
        "href" : "https://api.spotify.com/v1/artists/1EBfnxXRcMWQb69bsVaIOx",
        "id" : "1EBfnxXRcMWQb69bsVaIOx",
        "name" : "The Mighty Zion Trumpets",
        "type" : "artist",
        "uri" : "spotify:artist:1EBfnxXRcMWQb69bsVaIOx"
      } ],
      "disc_number" : 1,
      "duration_ms" : 419346,
      "explicit" : false,
      "external_ids" : {
        "isrc" : "QM9AA1595433"
      },
      "external_urls" : {
        "spotify" : "https://open.spotify.com/track/0c1AgtGlf5jtkIdT3qkjXL"
      },
      "href" : "https://api.spotify.com/v1/tracks/0c1AgtGlf5jtkIdT3qkjXL",
      "id" : "0c1AgtGlf5jtkIdT3qkjXL",
      "is_local" : false,
      "is_playable" : true,
      "name" : "Must Jesus Bear the Cross Alone",
      "popularity" : 0,
      "preview_url" : "https://p.scdn.co/mp3-preview/ce996cd7b5d80c23ece20ddf35b7950db3f2d643?cid=774b29d4f13844c495f206cafdad9c86",
      "track_number" : 5,
      "type" : "track",
      "uri" : "spotify:track:0c1AgtGlf5jtkIdT3qkjXL"
    }, {
      "album" : {
        "album_type" : "album",
        "artists" : [ {
          "external_urls" : {
            "spotify" : "https://open.spotify.com/artist/6CAQGx6nUCU8XWWeoVul1C"
          },
          "href" : "https://api.spotify.com/v1/artists/6CAQGx6nUCU8XWWeoVul1C",
          "id" : "6CAQGx6nUCU8XWWeoVul1C",
          "name" : "Ray Greene",
          "type" : "artist",
          "uri" : "spotify:artist:6CAQGx6nUCU8XWWeoVul1C"
        } ],
        "external_urls" : {
          "spotify" : "https://open.spotify.com/album/6T7vxraQ0I3OAQrDPLap2I"
        },
        "href" : "https://api.spotify.com/v1/albums/6T7vxraQ0I3OAQrDPLap2I",
        "id" : "6T7vxraQ0I3OAQrDPLap2I",
        "images" : [ {
          "height" : 640,
          "url" : "https://i.scdn.co/image/ab67616d0000b273f1ed4605fd8c3f2ac9806fa7",
          "width" : 640
        }, {
          "height" : 300,
          "url" : "https://i.scdn.co/image/ab67616d00001e02f1ed4605fd8c3f2ac9806fa7",
          "width" : 300
        }, {
          "height" : 64,
          "url" : "https://i.scdn.co/image/ab67616d00004851f1ed4605fd8c3f2ac9806fa7",
          "width" : 64
        } ],
        "name" : "Heaven Bound",
        "release_date" : "2011-09-06",
        "release_date_precision" : "day",
        "total_tracks" : 11,
        "type" : "album",
        "uri" : "spotify:album:6T7vxraQ0I3OAQrDPLap2I"
      },
      "artists" : [ {
        "external_urls" : {
          "spotify" : "https://open.spotify.com/artist/6CAQGx6nUCU8XWWeoVul1C"
        },
        "href" : "https://api.spotify.com/v1/artists/6CAQGx6nUCU8XWWeoVul1C",
        "id" : "6CAQGx6nUCU8XWWeoVul1C",
        "name" : "Ray Greene",
        "type" : "artist",
        "uri" : "spotify:artist:6CAQGx6nUCU8XWWeoVul1C"
      } ],
      "disc_number" : 1,
      "duration_ms" : 238266,
      "explicit" : false,
      "external_ids" : {
        "isrc" : "ushm81127494"
      },
      "external_urls" : {
        "spotify" : "https://open.spotify.com/track/4VTctTBaVV0tSmlj5jCbTj"
      },
      "href" : "https://api.spotify.com/v1/tracks/4VTctTBaVV0tSmlj5jCbTj",
      "id" : "4VTctTBaVV0tSmlj5jCbTj",
      "is_local" : false,
      "is_playable" : true,
      "name" : "Must Jesus Bear the Cross Alone",
      "popularity" : 0,
      "preview_url" : "https://p.scdn.co/mp3-preview/fef870f127176ddd25c6e47c6c97d4db3ed1c94b?cid=774b29d4f13844c495f206cafdad9c86",
      "track_number" : 2,
      "type" : "track",
      "uri" : "spotify:track:4VTctTBaVV0tSmlj5jCbTj"
    } ],
    "limit" : 10,
    "next" : "https://api.spotify.com/v1/search?query=Must+Jesus+Bear+the+Cross+Alone&type=track&market=US&offset=15&limit=10",
    "offset" : 5,
    "previous" : "https://api.spotify.com/v1/search?query=Must+Jesus+Bear+the+Cross+Alone&type=track&market=US&offset=0&limit=10",
    "total" : 88
  }
}