{
  "tracks" : {
    "href" : "https://api.spotify.com/v1/search?query=God+Will+Take+Care+of+You&type=track&market=US&offset=5&limit=10",
    "items" : [ {
      "album" : {
        "album_type" : "album",
        "artists" : [ {
          "external_urls" : {
            "spotify" : "https://open.spotify.com/artist/2r7fA3DrMO5JXl3uoOLkaN"
          },
          "href" : "https://api.spotify.com/v1/artists/2r7fA3DrMO5JXl3uoOLkaN",
          "id" : "2r7fA3DrMO5JXl3uoOLkaN",
          "name" : "Rev. James Moore",
          "type" : "artist",
          "uri" : "spotify:artist:2r7fA3DrMO5JXl3uoOLkaN"
        } ],
        "external_urls" : {
          "spotify" : "https://open.spotify.com/album/4VU7kbKym5Tccwgzjx8Tas"
        },
        "href" : "https://api.spotify.com/v1/albums/4VU7kbKym5Tccwgzjx8Tas",
        "id" : "4VU7kbKym5Tccwgzjx8Tas",
        "images" : [ {
          "height" : 640,
          "url" : "https://i.scdn.co/image/ab67616d0000b27316817ebf563bcb88d6d0053d",
          "width" : 640
        }, {
          "height" : 300,
          "url" : "https://i.scdn.co/image/ab67616d00001e0216817ebf563bcb88d6d0053d",
          "width" : 300
        }, {
          "height" : 64,
          "url" : "https://i.scdn.co/image/ab67616d0000485116817ebf563bcb88d6d0053d",
          "width" : 64
        } ],
        "name" : "Live with The Mississippi Mass Choir",
        "release_date" : "1990-09-13",
        "release_date_precision" : "day",
        "total_tracks" : 12,
        "type" : "album",
        "uri" : "spotify:album:4VU7kbKym5Tccwgzjx8Tas"
      },
      "artists" : [ {
        "external_urls" : {
          "spotify" : "https://open.spotify.com/artist/2r7fA3DrMO5JXl3uoOLkaN"
        },
        "href" : "https://api.spotify.com/v1/artists/2r7fA3DrMO5JXl3uoOLkaN",
        "id" : "2r7fA3DrMO5JXl3uoOLkaN",
        "name" : "Rev. James Moore",
        "type" : "artist",
        "uri" : "spotify:artist:2r7fA3DrMO5JXl3uoOLkaN"
      } ],
      "disc_number" : 1,
      "duration_ms" : 518159,
      "explicit" : false,
      "external_ids" : {
        "isrc" : "USMR50440428"
      },
      "external_urls" : {
        "spotify" : "https://open.spotify.com/track/47596YNnEinbGCA6iO3GzP"
      },
      "href" : "https://api.spotify.com/v1/tracks/47596YNnEinbGCA6iO3GzP",
      "id" : "47596YNnEinbGCA6iO3GzP",
      "is_local" : false,
      "is_playable" : true,
      "name" : "God Will Take Care Of You (Part I)",
      "popularity" : 19,
      "preview_url" : "https://p.scdn.co/mp3-preview/70218df75db6402d915446652b3e8e0ce5fdcd82?cid=774b29d4f13844c495f206cafdad9c86",
      "track_number" : 4,
      "type" : "track",
      "uri" : "spotify:track:47596YNnEinbGCA6iO3GzP"
    }, {
      "album" : {
        "album_type" : "album",
        "artists" : [ {
          "external_urls" : {
            "spotify" : "https://open.spotify.com/artist/6oGDuzaxim1teeU1yjhokP"
          },
          "href" : "https://api.spotify.com/v1/artists/6oGDuzaxim1teeU1yjhokP",
          "id" : "6oGDuzaxim1teeU1yjhokP",
          "name" : "Christian Music For Babies From I’m In Records",
          "type" : "artist",
          "uri" : "spotify:artist:6oGDuzaxim1teeU1yjhokP"
        } ],
        "external_urls" : {
          "spotify" : "https://open.spotify.com/album/4uLR90GZrGxi5cBKlaA32j"
        },
        "href" : "https://api.spotify.com/v1/albums/4uLR90GZrGxi5cBKlaA32j",
        "id" : "4uLR90GZrGxi5cBKlaA32j",
        "images" : [ {
          "height" : 640,
          "url" : "https://i.scdn.co/image/ab67616d0000b2735a6504fa263fd752304da39b",
          "width" : 640
        }, {
          "height" : 300,
          "url" : "https://i.scdn.co/image/ab67616d00001e025a6504fa263fd752304da39b",
          "width" : 300
        }, {
          "height" : 64,
          "url" : "https://i.scdn.co/image/ab67616d000048515a6504fa263fd752304da39b",
          "width" : 64
        } ],
        "name" : "Christian Hymns, Vol. 1",
        "release_date" : "2017-02-17",
        "release_date_precision" : "day",
        "total_tracks" : 12,
        "type" : "album",
        "uri" : "spotify:album:4uLR90GZrGxi5cBKlaA32j"
      },
      "artists" : [ {
        "external_urls" : {
          "spotify" : "https://open.spotify.com/artist/6oGDuzaxim1teeU1yjhokP"
        },
        "href" : "https://api.spotify.com/v1/artists/6oGDuzaxim1teeU1yjhokP",
        "id" : "6oGDuzaxim1teeU1yjhokP",
        "name" : "Christian Music For Babies From I’m In Records",
        "type" : "artist",
        "uri" : "spotify:artist:6oGDuzaxim1teeU1yjhokP"
      } ],
      "disc_number" : 1,
      "duration_ms" : 201556,
      "explicit" : false,
      "external_ids" : {
        "isrc" : "BRITK1700816"
      },
      "external_urls" : {
        "spotify" : "https://open.spotify.com/track/5yXrcloTKLBp8UDRKZJYMJ"
      },
      "href" : "https://api.spotify.com/v1/tracks/5yXrcloTKLBp8UDRKZJYMJ",
      "id" : "5yXrcloTKLBp8UDRKZJYMJ",
      "is_local" : false,
      "is_playable" : true,
      "name" : "God Will Take Care of You - Lullaby Version",
      "popularity" : 28,
      "preview_url" : "https://p.scdn.co/mp3-preview/8baeaf6b4009c106d1e329adaa6f9e4db3af7536?cid=774b29d4f13844c495f206cafdad9c86",
      "track_number" : 1,
      "type" : "track",
      "uri" : "spotify:track:5yXrcloTKLBp8UDRKZJYMJ"
    }, {
      "album" : {
        "album_type" : "album",
        "artists" : [ {
          "external_urls" : {
            "spotify" : "https://open.spotify.com/artist/5Z7ndTqS6EPzpNn322s0Nw"
          },
          "href" : "https://api.spotify.com/v1/artists/5Z7ndTqS6EPzpNn322s0Nw",
          "id" : "5Z7ndTqS6EPzpNn322s0Nw",
          "name" : "Jaime Jorge",
          "type" : "artist",
          "uri" : "spotify:artist:5Z7ndTqS6EPzpNn322s0Nw"
        } ],
        "external_urls" : {
          "spotify" : "https://open.spotify.com/album/4H2NOUg8qmYjjmgNP0u4or"
        },
        "href" : "https://api.spotify.com/v1/albums/4H2NOUg8qmYjjmgNP0u4or",
        "id" : "4H2NOUg8qmYjjmgNP0u4or",
        "images" : [ {
          "height" : 640,
          "url" : "https://i.scdn.co/image/ab67616d0000b273e13d4a0caafb63247563a020",
          "width" : 640
        }, {
          "height" : 300,
          "url" : "https://i.scdn.co/image/ab67616d00001e02e13d4a0caafb63247563a020",
          "width" : 300
        }, {
          "height" : 64,
          "url" : "https://i.scdn.co/image/ab67616d00004851e13d4a0caafb63247563a020",
          "width" : 64
        } ],
        "name" : "Softly & Tenderly",
        "release_date" : "2003",
        "release_date_precision" : "year",
        "total_tracks" : 12,
        "type" : "album",
        "uri" : "spotify:album:4H2NOUg8qmYjjmgNP0u4or"
      },
      "artists" : [ {
        "external_urls" : {
          "spotify" : "https://open.spotify.com/artist/5Z7ndTqS6EPzpNn322s0Nw"
        },
        "href" : "https://api.spotify.com/v1/artists/5Z7ndTqS6EPzpNn322s0Nw",
        "id" : "5Z7ndTqS6EPzpNn322s0Nw",
        "name" : "Jaime Jorge",
        "type" : "artist",
        "uri" : "spotify:artist:5Z7ndTqS6EPzpNn322s0Nw"
      } ],
      "disc_number" : 1,
      "duration_ms" : 230573,
      "explicit" : false,
      "external_ids" : {
        "isrc" : "uscgh0926338"
      },
      "external_urls" : {
        "spotify" : "https://open.spotify.com/track/3KoLljUbyGLx8KaUQ9hl8C"
      },
      "href" : "https://api.spotify.com/v1/tracks/3KoLljUbyGLx8KaUQ9hl8C",
      "id" : "3KoLljUbyGLx8KaUQ9hl8C",
      "is_local" : false,
      "is_playable" : true,
      "name" : "God Will Take Care Of You",
      "popularity" : 25,
      "preview_url" : "https://p.scdn.co/mp3-preview/d3c921affcb0a5d19e11369465ce58e3d7f29fc4?cid=774b29d4f13844c495f206cafdad9c86",
      "track_number" : 9,
      "type" : "track",
      "uri" : "spotify:track:3KoLljUbyGLx8KaUQ9hl8C"
    }, {
      "album" : {
        "album_type" : "album",
        "artists" : [ {
          "external_urls" : {
            "spotify" : "https://open.spotify.com/artist/09TOgappqOohpamkrpP78c"
          },
          "href" : "https://api.spotify.com/v1/artists/09TOgappqOohpamkrpP78c",
          "id" : "09TOgappqOohpamkrpP78c",
          "name" : "Fountainview Academy Orchestra & Singers",
          "type" : "artist",
          "uri" : "spotify:artist:09TOgappqOohpamkrpP78c"
        } ],
        "external_urls" : {
          "spotify" : "https://open.spotify.com/album/0tgdXkG40UHl881VY6DpW2"
        },
        "href" : "https://api.spotify.com/v1/albums/0tgdXkG40UHl881VY6DpW2",
        "id" : "0tgdXkG40UHl881VY6DpW2",
        "images" : [ {
          "height" : 640,
          "url" : "https://i.scdn.co/image/ab67616d0000b2736eecda8d1aa4a17f0bd0e5cb",
          "width" : 640
        }, {
          "height" : 300,
          "url" : "https://i.scdn.co/image/ab67616d00001e026eecda8d1aa4a17f0bd0e5cb",
          "width" : 300
        }, {
          "height" : 64,
          "url" : "https://i.scdn.co/image/ab67616d000048516eecda8d1aa4a17f0bd0e5cb",
          "width" : 64
        } ],
        "name" : "The Great Controversy",
        "release_date" : "2014",
        "release_date_precision" : "year",
        "total_tracks" : 20,
        "type" : "album",
        "uri" : "spotify:album:0tgdXkG40UHl881VY6DpW2"
      },
      "artists" : [ {
        "external_urls" : {
          "spotify" : "https://open.spotify.com/artist/09TOgappqOohpamkrpP78c"
        },
        "href" : "https://api.spotify.com/v1/artists/09TOgappqOohpamkrpP78c",
        "id" : "09TOgappqOohpamkrpP78c",
        "name" : "Fountainview Academy Orchestra & Singers",
        "type" : "artist",
        "uri" : "spotify:artist:09TOgappqOohpamkrpP78c"
      } ],
      "disc_number" : 1,
      "duration_ms" : 208021,
      "explicit" : false,
      "external_ids" : {
        "isrc" : "QMEZE1900718"
      },
      "external_urls" : {
        "spotify" : "https://open.spotify.com/track/3gZUn8PjpjT0ENX7YTBWdp"
      },
      "href" : "https://api.spotify.com/v1/tracks/3gZUn8PjpjT0ENX7YTBWdp",
      "id" : "3gZUn8PjpjT0ENX7YTBWdp",
      "is_local" : false,
      "is_playable" : true,
      "name" : "God Will Take Care of You",
      "popularity" : 20,
      "preview_url" : "https://p.scdn.co/mp3-preview/72367247fa23992813a4df05489c6264311e7d3a?cid=774b29d4f13844c495f206cafdad9c86",
      "track_number" : 5,
      "type" : "track",
      "uri" : "spotify:track:3gZUn8PjpjT0ENX7YTBWdp"
    }, {
      "album" : {
        "album_type" : "album",
        "artists" : [ {
          "external_urls" : {
            "spotify" : "https://open.spotify.com/artist/2IhNdbMUUa1aedvZVZsZmv"
          },
          "href" : "https://api.spotify.com/v1/artists/2IhNdbMUUa1aedvZVZsZmv",
          "id" : "2IhNdbMUUa1aedvZVZsZmv",
          "name" : "Luke Gard",
          "type" : "artist",
          "uri" : "spotify:artist:2IhNdbMUUa1aedvZVZsZmv"
        } ],
        "external_urls" : {
          "spotify" : "https://open.spotify.com/album/2omdKoz7ZpkBiBbcU3Ocyl"
        },
        "href" : "https://api.spotify.com/v1/albums/2omdKoz7ZpkBiBbcU3Ocyl",
        "id" : "2omdKoz7ZpkBiBbcU3Ocyl",
        "images" : [ {
          "height" : 640,
          "url" : "https://i.scdn.co/image/ab67616d0000b273c04d7a1134eafa2596777f01",
          "width" : 640
        }, {
          "height" : 300,
          "url" : "https://i.scdn.co/image/ab67616d00001e02c04d7a1134eafa2596777f01",
          "width" : 300
        }, {
          "height" : 64,
          "url" : "https://i.scdn.co/image/ab67616d00004851c04d7a1134eafa2596777f01",
          "width" : 64
        } ],
        "name" : "As You Go: Hymns of Hope",
        "release_date" : "2020-05-15",
        "release_date_precision" : "day",
        "total_tracks" : 12,
        "type" : "album",
        "uri" : "spotify:album:2omdKoz7ZpkBiBbcU3Ocyl"
      },
      "artists" : [ {
        "external_urls" : {
          "spotify" : "https://open.spotify.com/artist/2IhNdbMUUa1aedvZVZsZmv"
        },
        "href" : "https://api.spotify.com/v1/artists/2IhNdbMUUa1aedvZVZsZmv",
        "id" : "2IhNdbMUUa1aedvZVZsZmv",
        "name" : "Luke Gard",
        "type" : "artist",
        "uri" : "spotify:artist:2IhNdbMUUa1aedvZVZsZmv"
      } ],
      "disc_number" : 1,
      "duration_ms" : 150493,
      "explicit" : false,
      "external_ids" : {
        "isrc" : "QMTJ82000110"
      },
      "external_urls" : {
        "spotify" : "https://open.spotify.com/track/4whMYm49a4QCdQaOLTnaoj"
      },
      "href" : "https://api.spotify.com/v1/tracks/4whMYm49a4QCdQaOLTnaoj",
      "id" : "4whMYm49a4QCdQaOLTnaoj",
      "is_local" : false,
      "is_playable" : true,
      "name" : "God Will Take Care of You",
      "popularity" : 1,
      "preview_url" : "https://p.scdn.co/mp3-preview/fce8ded09f029e0acf39776cb5a459ee355911aa?cid=774b29d4f13844c495f206cafdad9c86",
      "track_number" : 10,
      "type" : "track",
      "uri" : "spotify:track:4whMYm49a4QCdQaOLTnaoj"
    }, {
      "album" : {
        "album_type" : "compilation",
        "artists" : [ {
          "external_urls" : {
            "spotify" : "https://open.spotify.com/artist/1PCJfBD2SVVE8cGqpg1pC9"
          },
          "href" : "https://api.spotify.com/v1/artists/1PCJfBD2SVVE8cGqpg1pC9",
          "id" : "1PCJfBD2SVVE8cGqpg1pC9",
          "name" : "Hal Wright",
          "type" : "artist",
          "uri" : "spotify:artist:1PCJfBD2SVVE8cGqpg1pC9"
        } ],
        "external_urls" : {
          "spotify" : "https://open.spotify.com/album/5oWBMNvHBpJEJbIuuWYIEO"
        },
        "href" : "https://api.spotify.com/v1/albums/5oWBMNvHBpJEJbIuuWYIEO",
        "id" : "5oWBMNvHBpJEJbIuuWYIEO",
        "images" : [ {
          "height" : 640,
          "url" : "https://i.scdn.co/image/ab67616d0000b273b27b0222733203b3fa0d9301",
          "width" : 640
        }, {
          "height" : 300,
          "url" : "https://i.scdn.co/image/ab67616d00001e02b27b0222733203b3fa0d9301",
          "width" : 300
        }, {
          "height" : 64,
          "url" : "https://i.scdn.co/image/ab67616d00004851b27b0222733203b3fa0d9301",
          "width" : 64
        } ],
        "name" : "Instrumental Hymns 1",
        "release_date" : "2020-05-22",
        "release_date_precision" : "day",
        "total_tracks" : 25,
        "type" : "album",
        "uri" : "spotify:album:5oWBMNvHBpJEJbIuuWYIEO"
      },
      "artists" : [ {
        "external_urls" : {
          "spotify" : "https://open.spotify.com/artist/1PCJfBD2SVVE8cGqpg1pC9"
        },
        "href" : "https://api.spotify.com/v1/artists/1PCJfBD2SVVE8cGqpg1pC9",
        "id" : "1PCJfBD2SVVE8cGqpg1pC9",
        "name" : "Hal Wright",
        "type" : "artist",
        "uri" : "spotify:artist:1PCJfBD2SVVE8cGqpg1pC9"
      }, {
        "external_urls" : {
          "spotify" : "https://open.spotify.com/artist/5Aerx1PdoW4F5Yvrus4bDE"
        },
        "href" : "https://api.spotify.com/v1/artists/5Aerx1PdoW4F5Yvrus4bDE",
        "id" : "5Aerx1PdoW4F5Yvrus4bDE",
        "name" : "Twin Sisters",
        "type" : "artist",
        "uri" : "spotify:artist:5Aerx1PdoW4F5Yvrus4bDE"
      } ],
      "disc_number" : 1,
      "duration_ms" : 152946,
      "explicit" : false,
      "external_ids" : {
        "isrc" : "US6PD1903947"
      },
      "external_urls" : {
        "spotify" : "https://open.spotify.com/track/273QvCmE8EDxIRdhQhoVsD"
      },
      "href" : "https://api.spotify.com/v1/tracks/273QvCmE8EDxIRdhQhoVsD",
      "id" : "273QvCmE8EDxIRdhQhoVsD",
      "is_local" : false,
      "is_playable" : true,
      "name" : "God Will Take Care Of You",
      "popularity" : 0,
      "preview_url" : "https://p.scdn.co/mp3-preview/8c69d66379c3fa41ab79fa6de04668b4730b8364?cid=774b29d4f13844c495f206cafdad9c86",
      "track_number" : 11,
      "type" : "track",
      "uri" : "spotify:track:273QvCmE8EDxIRdhQhoVsD"
    }, {
      "album" : {
        "album_type" : "album",
        "artists" : [ {
          "external_urls" : {
            "spotify" : "https://open.spotify.com/artist/6yHlLzOTenVkSW9K38AdYT"
          },
          "href" : "https://api.spotify.com/v1/artists/6yHlLzOTenVkSW9K38AdYT",
          "id" : "6yHlLzOTenVkSW9K38AdYT",
          "name" : "Mercy Message",
          "type" : "artist",
          "uri" : "spotify:artist:6yHlLzOTenVkSW9K38AdYT"
        } ],
        "external_urls" : {
          "spotify" : "https://open.spotify.com/album/6iBEN66G9CHUZt8h2WmyKI"
        },
        "href" : "https://api.spotify.com/v1/albums/6iBEN66G9CHUZt8h2WmyKI",
        "id" : "6iBEN66G9CHUZt8h2WmyKI",
        "images" : [ {
          "height" : 640,
          "url" : "https://i.scdn.co/image/ab67616d0000b2739b5c5d2983ad9097daf5911f",
          "width" : 640
        }, {
          "height" : 300,
          "url" : "https://i.scdn.co/image/ab67616d00001e029b5c5d2983ad9097daf5911f",
          "width" : 300
        }, {
          "height" : 64,
          "url" : "https://i.scdn.co/image/ab67616d000048519b5c5d2983ad9097daf5911f",
          "width" : 64
        } ],
        "name" : "Grace, Vol. 3",
        "release_date" : "2019-07-01",
        "release_date_precision" : "day",
        "total_tracks" : 23,
        "type" : "album",
        "uri" : "spotify:album:6iBEN66G9CHUZt8h2WmyKI"
      },
      "artists" : [ {
        "external_urls" : {
          "spotify" : "https://open.spotify.com/artist/6yHlLzOTenVkSW9K38AdYT"
        },
        "href" : "https://api.spotify.com/v1/artists/6yHlLzOTenVkSW9K38AdYT",
        "id" : "6yHlLzOTenVkSW9K38AdYT",
        "name" : "Mercy Message",
        "type" : "artist",
        "uri" : "spotify:artist:6yHlLzOTenVkSW9K38AdYT"
      } ],
      "disc_number" : 1,
      "duration_ms" : 146573,
      "explicit" : false,
      "external_ids" : {
        "isrc" : "QZFYZ1981110"
      },
      "external_urls" : {
        "spotify" : "https://open.spotify.com/track/1qKnlVKeFr1E92YDmzOpju"
      },
      "href" : "https://api.spotify.com/v1/tracks/1qKnlVKeFr1E92YDmzOpju",
      "id" : "1qKnlVKeFr1E92YDmzOpju",
      "is_local" : false,
      "is_playable" : true,
      "name" : "God Will Take Care of You",
      "popularity" : 15,
      "preview_url" : "https://p.scdn.co/mp3-preview/498011cc79a8fb94208f935bf8ba6505d00f1ca1?cid=774b29d4f13844c495f206cafdad9c86",
      "track_number" : 2,
      "type" : "track",
      "uri" : "spotify:track:1qKnlVKeFr1E92YDmzOpju"
    }, {
      "album" : {
        "album_type" : "album",
        "artists" : [ {
          "external_urls" : {
            "spotify" : "https://open.spotify.com/artist/4gDg7exziOgSxiLOIFFRaQ"
          },
          "href" : "https://api.spotify.com/v1/artists/4gDg7exziOgSxiLOIFFRaQ",
          "id" : "4gDg7exziOgSxiLOIFFRaQ",
          "name" : "The Grace Thrillers",
          "type" : "artist",
          "uri" : "spotify:artist:4gDg7exziOgSxiLOIFFRaQ"
        } ],
        "external_urls" : {
          "spotify" : "https://open.spotify.com/album/5iDjzrgtKdn0IMBSuXeCos"
        },
        "href" : "https://api.spotify.com/v1/albums/5iDjzrgtKdn0IMBSuXeCos",
        "id" : "5iDjzrgtKdn0IMBSuXeCos",
        "images" : [ {
          "height" : 640,
          "url" : "https://i.scdn.co/image/ab67616d0000b273e1040d034693f403aaec3b7a",
          "width" : 640
        }, {
          "height" : 300,
          "url" : "https://i.scdn.co/image/ab67616d00001e02e1040d034693f403aaec3b7a",
          "width" : 300
        }, {
          "height" : 64,
          "url" : "https://i.scdn.co/image/ab67616d00004851e1040d034693f403aaec3b7a",
          "width" : 64
        } ],
        "name" : "Best of The Grace Thrillers",
        "release_date" : "2016-06-16",
        "release_date_precision" : "day",
        "total_tracks" : 22,
        "type" : "album",
        "uri" : "spotify:album:5iDjzrgtKdn0IMBSuXeCos"
      },
      "artists" : [ {
        "external_urls" : {
          "spotify" : "https://open.spotify.com/artist/4gDg7exziOgSxiLOIFFRaQ"
        },
        "href" : "https://api.spotify.com/v1/artists/4gDg7exziOgSxiLOIFFRaQ",
        "id" : "4gDg7exziOgSxiLOIFFRaQ",
        "name" : "The Grace Thrillers",
        "type" : "artist",
        "uri" : "spotify:artist:4gDg7exziOgSxiLOIFFRaQ"
      } ],
      "disc_number" : 1,
      "duration_ms" : 321645,
      "explicit" : false,
      "external_ids" : {
        "isrc" : "CA5KR1524993"
      },
      "external_urls" : {
        "spotify" : "https://open.spotify.com/track/7rsQ1EseAQUEtaGBO1igMp"
      },
      "href" : "https://api.spotify.com/v1/tracks/7rsQ1EseAQUEtaGBO1igMp",
      "id" : "7rsQ1EseAQUEtaGBO1igMp",
      "is_local" : false,
      "is_playable" : true,
      "name" : "God Will Take Care Of You",
      "popularity" : 16,
      "preview_url" : "https://p.scdn.co/mp3-preview/8bcd8b6c8d61099de4842af677f429db9e202932?cid=774b29d4f13844c495f206cafdad9c86",
      "track_number" : 7,
      "type" : "track",
      "uri" : "spotify:track:7rsQ1EseAQUEtaGBO1igMp"
    }, {
      "album" : {
        "album_type" : "album",
        "artists" : [ {
          "external_urls" : {
            "spotify" : "https://open.spotify.com/artist/2r7fA3DrMO5JXl3uoOLkaN"
          },
          "href" : "https://api.spotify.com/v1/artists/2r7fA3DrMO5JXl3uoOLkaN",
          "id" : "2r7fA3DrMO5JXl3uoOLkaN",
          "name" : "Rev. James Moore",
          "type" : "artist",
          "uri" : "spotify:artist:2r7fA3DrMO5JXl3uoOLkaN"
        } ],
        "external_urls" : {
          "spotify" : "https://open.spotify.com/album/4VU7kbKym5Tccwgzjx8Tas"
        },
        "href" : "https://api.spotify.com/v1/albums/4VU7kbKym5Tccwgzjx8Tas",
        "id" : "4VU7kbKym5Tccwgzjx8Tas",
        "images" : [ {
          "height" : 640,
          "url" : "https://i.scdn.co/image/ab67616d0000b27316817ebf563bcb88d6d0053d",
          "width" : 640
        }, {
          "height" : 300,
          "url" : "https://i.scdn.co/image/ab67616d00001e0216817ebf563bcb88d6d0053d",
          "width" : 300
        }, {
          "height" : 64,
          "url" : "https://i.scdn.co/image/ab67616d0000485116817ebf563bcb88d6d0053d",
          "width" : 64
        } ],
        "name" : "Live with The Mississippi Mass Choir",
        "release_date" : "1990-09-13",
        "release_date_precision" : "day",
        "total_tracks" : 12,
        "type" : "album",
        "uri" : "spotify:album:4VU7kbKym5Tccwgzjx8Tas"
      },
      "artists" : [ {
        "external_urls" : {
          "spotify" : "https://open.spotify.com/artist/2r7fA3DrMO5JXl3uoOLkaN"
        },
        "href" : "https://api.spotify.com/v1/artists/2r7fA3DrMO5JXl3uoOLkaN",
        "id" : "2r7fA3DrMO5JXl3uoOLkaN",
        "name" : "Rev. James Moore",
        "type" : "artist",
        "uri" : "spotify:artist:2r7fA3DrMO5JXl3uoOLkaN"
      } ],
      "disc_number" : 1,
      "duration_ms" : 474773,
      "explicit" : false,
      "external_ids" : {
        "isrc" : "USMR50440429"
      },
      "external_urls" : {
        "spotify" : "https://open.spotify.com/track/6Osx3vaVzcSNxTMxIbYWch"
      },
      "href" : "https://api.spotify.com/v1/tracks/6Osx3vaVzcSNxTMxIbYWch",
      "id" : "6Osx3vaVzcSNxTMxIbYWch",
      "is_local" : false,
      "is_playable" : true,
      "name" : "God Will Take Care Of You (Part II)",
      "popularity" : 13,
      "preview_url" : "https://p.scdn.co/mp3-preview/ec491f1f58474a812323325de3c7ad4dad9c84e6?cid=774b29d4f13844c495f206cafdad9c86",
      "track_number" : 5,
      "type" : "track",
      "uri" : "spotify:track:6Osx3vaVzcSNxTMxIbYWch"
    }, {
      "album" : {
        "album_type" : "album",
        "artists" : [ {
          "external_urls" : {
            "spotify" : "https://open.spotify.com/artist/12pzJohM40StvAPzI1t3Tb"
          },
          "href" : "https://api.spotify.com/v1/artists/12pzJohM40StvAPzI1t3Tb",
          "id" : "12pzJohM40StvAPzI1t3Tb",
          "name" : "Walter Hawkins",
          "type" : "artist",
          "uri" : "spotify:artist:12pzJohM40StvAPzI1t3Tb"
        } ],
        "external_urls" : {
          "spotify" : "https://open.spotify.com/album/54D2RsYSwVIS6QIpKclaOd"
        },
        "href" : "https://api.spotify.com/v1/albums/54D2RsYSwVIS6QIpKclaOd",
        "id" : "54D2RsYSwVIS6QIpKclaOd",
        "images" : [ {
          "height" : 640,
          "url" : "https://i.scdn.co/image/ab67616d0000b2737784524529902a697dd08841",
          "width" : 640
        }, {
          "height" : 300,
          "url" : "https://i.scdn.co/image/ab67616d00001e027784524529902a697dd08841",
          "width" : 300
        }, {
          "height" : 64,
          "url" : "https://i.scdn.co/image/ab67616d000048517784524529902a697dd08841",
          "width" : 64
        } ],
        "name" : "Love Alive IV",
        "release_date" : "1990-06-22",
        "release_date_precision" : "day",
        "total_tracks" : 11,
        "type" : "album",
        "uri" : "spotify:album:54D2RsYSwVIS6QIpKclaOd"
      },
      "artists" : [ {
        "external_urls" : {
          "spotify" : "https://open.spotify.com/artist/12pzJohM40StvAPzI1t3Tb"
        },
        "href" : "https://api.spotify.com/v1/artists/12pzJohM40StvAPzI1t3Tb",
        "id" : "12pzJohM40StvAPzI1t3Tb",
        "name" : "Walter Hawkins",
        "type" : "artist",
        "uri" : "spotify:artist:12pzJohM40StvAPzI1t3Tb"
      } ],
      "disc_number" : 1,
      "duration_ms" : 90866,
      "explicit" : false,
      "external_ids" : {
        "isrc" : "USMR50440908"
      },
      "external_urls" : {
        "spotify" : "https://open.spotify.com/track/2vw6joTEYMFbQ4TNkTjhsQ"
      },
      "href" : "https://api.spotify.com/v1/tracks/2vw6joTEYMFbQ4TNkTjhsQ",
      "id" : "2vw6joTEYMFbQ4TNkTjhsQ",
      "is_local" : false,
      "is_playable" : true,
      "name" : "Intro (God Will Take Care Of You)",
      "popularity" : 11,
      "preview_url" : "https://p.scdn.co/mp3-preview/95a9bedc0856de2ace2c489bfb4552e217f17f85?cid=774b29d4f13844c495f206cafdad9c86",
      "track_number" : 1,
      "type" : "track",
      "uri" : "spotify:track:2vw6joTEYMFbQ4TNkTjhsQ"
    } ],
    "limit" : 10,
    "next" : "https://api.spotify.com/v1/search?query=God+Will+Take+Care+of+You&type=track&market=US&offset=15&limit=10",
    "offset" : 5,
    "previous" : "https://api.spotify.com/v1/search?query=God+Will+Take+Care+of+You&type=track&market=US&offset=0&limit=10",
    "total" : 503
  }
}