{
  "tracks" : {
    "href" : "https://api.spotify.com/v1/search?query=Wondrous+Love&type=track&market=US&offset=5&limit=10",
    "items" : [ {
      "album" : {
        "album_type" : "album",
        "artists" : [ {
          "external_urls" : {
            "spotify" : "https://open.spotify.com/artist/32DWM2tctxuDatAYWHjCtC"
          },
          "href" : "https://api.spotify.com/v1/artists/32DWM2tctxuDatAYWHjCtC",
          "id" : "32DWM2tctxuDatAYWHjCtC",
          "name" : "Hymns on Piano",
          "type" : "artist",
          "uri" : "spotify:artist:32DWM2tctxuDatAYWHjCtC"
        } ],
        "external_urls" : {
          "spotify" : "https://open.spotify.com/album/1FohnN1MSnDYbGGhb2mFy0"
        },
        "href" : "https://api.spotify.com/v1/albums/1FohnN1MSnDYbGGhb2mFy0",
        "id" : "1FohnN1MSnDYbGGhb2mFy0",
        "images" : [ {
          "height" : 640,
          "url" : "https://i.scdn.co/image/ab67616d0000b2731a2ccfe56055945f7230ecef",
          "width" : 640
        }, {
          "height" : 300,
          "url" : "https://i.scdn.co/image/ab67616d00001e021a2ccfe56055945f7230ecef",
          "width" : 300
        }, {
          "height" : 64,
          "url" : "https://i.scdn.co/image/ab67616d000048511a2ccfe56055945f7230ecef",
          "width" : 64
        } ],
        "name" : "Hymns of Worship, Vol. 4",
        "release_date" : "2016-07-12",
        "release_date_precision" : "day",
        "total_tracks" : 15,
        "type" : "album",
        "uri" : "spotify:album:1FohnN1MSnDYbGGhb2mFy0"
      },
      "artists" : [ {
        "external_urls" : {
          "spotify" : "https://open.spotify.com/artist/32DWM2tctxuDatAYWHjCtC"
        },
        "href" : "https://api.spotify.com/v1/artists/32DWM2tctxuDatAYWHjCtC",
        "id" : "32DWM2tctxuDatAYWHjCtC",
        "name" : "Hymns on Piano",
        "type" : "artist",
        "uri" : "spotify:artist:32DWM2tctxuDatAYWHjCtC"
      } ],
      "disc_number" : 1,
      "duration_ms" : 171505,
      "explicit" : false,
      "external_ids" : {
        "isrc" : "USE831579379"
      },
      "external_urls" : {
        "spotify" : "https://open.spotify.com/track/3v9bHeovprgG51LogqLYCl"
      },
      "href" : "https://api.spotify.com/v1/tracks/3v9bHeovprgG51LogqLYCl",
      "id" : "3v9bHeovprgG51LogqLYCl",
      "is_local" : false,
      "is_playable" : true,
      "name" : "When We All Get to Heaven (Sing the Wondrous Love of Jesus)",
      "popularity" : 38,
      "preview_url" : "https://p.scdn.co/mp3-preview/3e0e623c12c3a7f022196884bb5de99c1c3d4f77?cid=774b29d4f13844c495f206cafdad9c86",
      "track_number" : 14,
      "type" : "track",
      "uri" : "spotify:track:3v9bHeovprgG51LogqLYCl"
    }, {
      "album" : {
        "album_type" : "album",
        "artists" : [ {
          "external_urls" : {
            "spotify" : "https://open.spotify.com/artist/32DWM2tctxuDatAYWHjCtC"
          },
          "href" : "https://api.spotify.com/v1/artists/32DWM2tctxuDatAYWHjCtC",
          "id" : "32DWM2tctxuDatAYWHjCtC",
          "name" : "Hymns on Piano",
          "type" : "artist",
          "uri" : "spotify:artist:32DWM2tctxuDatAYWHjCtC"
        } ],
        "external_urls" : {
          "spotify" : "https://open.spotify.com/album/5fQB6By4CMRW3x9z8htgwx"
        },
        "href" : "https://api.spotify.com/v1/albums/5fQB6By4CMRW3x9z8htgwx",
        "id" : "5fQB6By4CMRW3x9z8htgwx",
        "images" : [ {
          "height" : 640,
          "url" : "https://i.scdn.co/image/ab67616d0000b273cdaab5da231683ce044564f9",
          "width" : 640
        }, {
          "height" : 300,
          "url" : "https://i.scdn.co/image/ab67616d00001e02cdaab5da231683ce044564f9",
          "width" : 300
        }, {
          "height" : 64,
          "url" : "https://i.scdn.co/image/ab67616d00004851cdaab5da231683ce044564f9",
          "width" : 64
        } ],
        "name" : "Hymns of Worship, Vol. 5",
        "release_date" : "2017-09-08",
        "release_date_precision" : "day",
        "total_tracks" : 15,
        "type" : "album",
        "uri" : "spotify:album:5fQB6By4CMRW3x9z8htgwx"
      },
      "artists" : [ {
        "external_urls" : {
          "spotify" : "https://open.spotify.com/artist/32DWM2tctxuDatAYWHjCtC"
        },
        "href" : "https://api.spotify.com/v1/artists/32DWM2tctxuDatAYWHjCtC",
        "id" : "32DWM2tctxuDatAYWHjCtC",
        "name" : "Hymns on Piano",
        "type" : "artist",
        "uri" : "spotify:artist:32DWM2tctxuDatAYWHjCtC"
      } ],
      "disc_number" : 1,
      "duration_ms" : 241998,
      "explicit" : false,
      "external_ids" : {
        "isrc" : "QZ22B1833440"
      },
      "external_urls" : {
        "spotify" : "https://open.spotify.com/track/6LnJRslSTqS1lZVB8EcmvD"
      },
      "href" : "https://api.spotify.com/v1/tracks/6LnJRslSTqS1lZVB8EcmvD",
      "id" : "6LnJRslSTqS1lZVB8EcmvD",
      "is_local" : false,
      "is_playable" : true,
      "name" : "What Wondrous Love Is This?",
      "popularity" : 36,
      "preview_url" : "https://p.scdn.co/mp3-preview/6dc6888832d0aa42144b426d561100a430979835?cid=774b29d4f13844c495f206cafdad9c86",
      "track_number" : 13,
      "type" : "track",
      "uri" : "spotify:track:6LnJRslSTqS1lZVB8EcmvD"
    }, {
      "album" : {
        "album_type" : "album",
        "artists" : [ {
          "external_urls" : {
            "spotify" : "https://open.spotify.com/artist/6mGZXaZ4SWNh6IsJ57thCp"
          },
          "href" : "https://api.spotify.com/v1/artists/6mGZXaZ4SWNh6IsJ57thCp",
          "id" : "6mGZXaZ4SWNh6IsJ57thCp",
          "name" : "Fernando Ortega",
          "type" : "artist",
          "uri" : "spotify:artist:6mGZXaZ4SWNh6IsJ57thCp"
        } ],
        "external_urls" : {
          "spotify" : "https://open.spotify.com/album/6b5XytCLYrxIjlxTQgcoz7"
        },
        "href" : "https://api.spotify.com/v1/albums/6b5XytCLYrxIjlxTQgcoz7",
        "id" : "6b5XytCLYrxIjlxTQgcoz7",
        "images" : [ {
          "height" : 640,
          "url" : "https://i.scdn.co/image/ab67616d0000b273d93002fcb77598c2cf9b08c7",
          "width" : 640
        }, {
          "height" : 300,
          "url" : "https://i.scdn.co/image/ab67616d00001e02d93002fcb77598c2cf9b08c7",
          "width" : 300
        }, {
          "height" : 64,
          "url" : "https://i.scdn.co/image/ab67616d00004851d93002fcb77598c2cf9b08c7",
          "width" : 64
        } ],
        "name" : "BEGINNINGS - 2 CD Set",
        "release_date" : "2005-02-25",
        "release_date_precision" : "day",
        "total_tracks" : 34,
        "type" : "album",
        "uri" : "spotify:album:6b5XytCLYrxIjlxTQgcoz7"
      },
      "artists" : [ {
        "external_urls" : {
          "spotify" : "https://open.spotify.com/artist/6mGZXaZ4SWNh6IsJ57thCp"
        },
        "href" : "https://api.spotify.com/v1/artists/6mGZXaZ4SWNh6IsJ57thCp",
        "id" : "6mGZXaZ4SWNh6IsJ57thCp",
        "name" : "Fernando Ortega",
        "type" : "artist",
        "uri" : "spotify:artist:6mGZXaZ4SWNh6IsJ57thCp"
      } ],
      "disc_number" : 1,
      "duration_ms" : 304760,
      "explicit" : false,
      "external_ids" : {
        "isrc" : "ushm90539050"
      },
      "external_urls" : {
        "spotify" : "https://open.spotify.com/track/0bfdmRlyU6sW1glkJ1LVZa"
      },
      "href" : "https://api.spotify.com/v1/tracks/0bfdmRlyU6sW1glkJ1LVZa",
      "id" : "0bfdmRlyU6sW1glkJ1LVZa",
      "is_local" : false,
      "is_playable" : true,
      "name" : "What Wondrous Love Is This",
      "popularity" : 33,
      "preview_url" : "https://p.scdn.co/mp3-preview/b19b52361bbb10d782428390355b0338ce860881?cid=774b29d4f13844c495f206cafdad9c86",
      "track_number" : 7,
      "type" : "track",
      "uri" : "spotify:track:0bfdmRlyU6sW1glkJ1LVZa"
    }, {
      "album" : {
        "album_type" : "single",
        "artists" : [ {
          "external_urls" : {
            "spotify" : "https://open.spotify.com/artist/2A8Zcozfu0QGI25ihjhtvT"
          },
          "href" : "https://api.spotify.com/v1/artists/2A8Zcozfu0QGI25ihjhtvT",
          "id" : "2A8Zcozfu0QGI25ihjhtvT",
          "name" : "Ashley K. Davis",
          "type" : "artist",
          "uri" : "spotify:artist:2A8Zcozfu0QGI25ihjhtvT"
        } ],
        "external_urls" : {
          "spotify" : "https://open.spotify.com/album/75qbFjGHAlepEXxiY3VQFZ"
        },
        "href" : "https://api.spotify.com/v1/albums/75qbFjGHAlepEXxiY3VQFZ",
        "id" : "75qbFjGHAlepEXxiY3VQFZ",
        "images" : [ {
          "height" : 640,
          "url" : "https://i.scdn.co/image/ab67616d0000b2732b1bede7186ed5e5ec5fd46f",
          "width" : 640
        }, {
          "height" : 300,
          "url" : "https://i.scdn.co/image/ab67616d00001e022b1bede7186ed5e5ec5fd46f",
          "width" : 300
        }, {
          "height" : 64,
          "url" : "https://i.scdn.co/image/ab67616d000048512b1bede7186ed5e5ec5fd46f",
          "width" : 64
        } ],
        "name" : "Wondrous Love",
        "release_date" : "2020-05-15",
        "release_date_precision" : "day",
        "total_tracks" : 1,
        "type" : "album",
        "uri" : "spotify:album:75qbFjGHAlepEXxiY3VQFZ"
      },
      "artists" : [ {
        "external_urls" : {
          "spotify" : "https://open.spotify.com/artist/2A8Zcozfu0QGI25ihjhtvT"
        },
        "href" : "https://api.spotify.com/v1/artists/2A8Zcozfu0QGI25ihjhtvT",
        "id" : "2A8Zcozfu0QGI25ihjhtvT",
        "name" : "Ashley K. Davis",
        "type" : "artist",
        "uri" : "spotify:artist:2A8Zcozfu0QGI25ihjhtvT"
      } ],
      "disc_number" : 1,
      "duration_ms" : 261169,
      "explicit" : false,
      "external_ids" : {
        "isrc" : "UST2Y2000130"
      },
      "external_urls" : {
        "spotify" : "https://open.spotify.com/track/3thzd9f6h8otuJ4sYRm4WK"
      },
      "href" : "https://api.spotify.com/v1/tracks/3thzd9f6h8otuJ4sYRm4WK",
      "id" : "3thzd9f6h8otuJ4sYRm4WK",
      "is_local" : false,
      "is_playable" : true,
      "name" : "Wondrous Love",
      "popularity" : 13,
      "preview_url" : "https://p.scdn.co/mp3-preview/a7dec7aced6555eff025eeb5d3d382610cc50f33?cid=774b29d4f13844c495f206cafdad9c86",
      "track_number" : 1,
      "type" : "track",
      "uri" : "spotify:track:3thzd9f6h8otuJ4sYRm4WK"
    }, {
      "album" : {
        "album_type" : "album",
        "artists" : [ {
          "external_urls" : {
            "spotify" : "https://open.spotify.com/artist/7G9KhHDBJe4ao16r9w1JE0"
          },
          "href" : "https://api.spotify.com/v1/artists/7G9KhHDBJe4ao16r9w1JE0",
          "id" : "7G9KhHDBJe4ao16r9w1JE0",
          "name" : "Chelsea Moon & The Franz Brothers",
          "type" : "artist",
          "uri" : "spotify:artist:7G9KhHDBJe4ao16r9w1JE0"
        } ],
        "external_urls" : {
          "spotify" : "https://open.spotify.com/album/63ZWgSSsHBUmcf3VGibggJ"
        },
        "href" : "https://api.spotify.com/v1/albums/63ZWgSSsHBUmcf3VGibggJ",
        "id" : "63ZWgSSsHBUmcf3VGibggJ",
        "images" : [ {
          "height" : 640,
          "url" : "https://i.scdn.co/image/ab67616d0000b2739b6fbe2e6c097c46b81dc5f0",
          "width" : 640
        }, {
          "height" : 300,
          "url" : "https://i.scdn.co/image/ab67616d00001e029b6fbe2e6c097c46b81dc5f0",
          "width" : 300
        }, {
          "height" : 64,
          "url" : "https://i.scdn.co/image/ab67616d000048519b6fbe2e6c097c46b81dc5f0",
          "width" : 64
        } ],
        "name" : "Hymn Project, Vol. 2",
        "release_date" : "2012-03-30",
        "release_date_precision" : "day",
        "total_tracks" : 15,
        "type" : "album",
        "uri" : "spotify:album:63ZWgSSsHBUmcf3VGibggJ"
      },
      "artists" : [ {
        "external_urls" : {
          "spotify" : "https://open.spotify.com/artist/7G9KhHDBJe4ao16r9w1JE0"
        },
        "href" : "https://api.spotify.com/v1/artists/7G9KhHDBJe4ao16r9w1JE0",
        "id" : "7G9KhHDBJe4ao16r9w1JE0",
        "name" : "Chelsea Moon & The Franz Brothers",
        "type" : "artist",
        "uri" : "spotify:artist:7G9KhHDBJe4ao16r9w1JE0"
      } ],
      "disc_number" : 1,
      "duration_ms" : 299750,
      "explicit" : false,
      "external_ids" : {
        "isrc" : "USWAJ1200003"
      },
      "external_urls" : {
        "spotify" : "https://open.spotify.com/track/0ZoN7zDwIEUVeF9EqUtFKY"
      },
      "href" : "https://api.spotify.com/v1/tracks/0ZoN7zDwIEUVeF9EqUtFKY",
      "id" : "0ZoN7zDwIEUVeF9EqUtFKY",
      "is_local" : false,
      "is_playable" : true,
      "name" : "What Wondrous Love Is This?",
      "popularity" : 29,
      "preview_url" : "https://p.scdn.co/mp3-preview/382fa255bb2d97dff3b52d241419b09068d48654?cid=774b29d4f13844c495f206cafdad9c86",
      "track_number" : 3,
      "type" : "track",
      "uri" : "spotify:track:0ZoN7zDwIEUVeF9EqUtFKY"
    }, {
      "album" : {
        "album_type" : "album",
        "artists" : [ {
          "external_urls" : {
            "spotify" : "https://open.spotify.com/artist/5OoNaL5KATvhjuct2YDOMa"
          },
          "href" : "https://api.spotify.com/v1/artists/5OoNaL5KATvhjuct2YDOMa",
          "id" : "5OoNaL5KATvhjuct2YDOMa",
          "name" : "Ronny Matthes",
          "type" : "artist",
          "uri" : "spotify:artist:5OoNaL5KATvhjuct2YDOMa"
        } ],
        "external_urls" : {
          "spotify" : "https://open.spotify.com/album/1UunVUwaJAm3QgLB0udmKp"
        },
        "href" : "https://api.spotify.com/v1/albums/1UunVUwaJAm3QgLB0udmKp",
        "id" : "1UunVUwaJAm3QgLB0udmKp",
        "images" : [ {
          "height" : 640,
          "url" : "https://i.scdn.co/image/ab67616d0000b273788b1c8a9687997d4d85c69c",
          "width" : 640
        }, {
          "height" : 300,
          "url" : "https://i.scdn.co/image/ab67616d00001e02788b1c8a9687997d4d85c69c",
          "width" : 300
        }, {
          "height" : 64,
          "url" : "https://i.scdn.co/image/ab67616d00004851788b1c8a9687997d4d85c69c",
          "width" : 64
        } ],
        "name" : "Hintergrundmusik, Vol. 7 - Gemafreie Musik zur Beschallung von Hotels und Restaurants (Klaviermusik, Klassik & Chillout)",
        "release_date" : "2016-03-31",
        "release_date_precision" : "day",
        "total_tracks" : 12,
        "type" : "album",
        "uri" : "spotify:album:1UunVUwaJAm3QgLB0udmKp"
      },
      "artists" : [ {
        "external_urls" : {
          "spotify" : "https://open.spotify.com/artist/1U5zgr455OGyIkLNXvDdrf"
        },
        "href" : "https://api.spotify.com/v1/artists/1U5zgr455OGyIkLNXvDdrf",
        "id" : "1U5zgr455OGyIkLNXvDdrf",
        "name" : "Traditional",
        "type" : "artist",
        "uri" : "spotify:artist:1U5zgr455OGyIkLNXvDdrf"
      }, {
        "external_urls" : {
          "spotify" : "https://open.spotify.com/artist/5OoNaL5KATvhjuct2YDOMa"
        },
        "href" : "https://api.spotify.com/v1/artists/5OoNaL5KATvhjuct2YDOMa",
        "id" : "5OoNaL5KATvhjuct2YDOMa",
        "name" : "Ronny Matthes",
        "type" : "artist",
        "uri" : "spotify:artist:5OoNaL5KATvhjuct2YDOMa"
      } ],
      "disc_number" : 1,
      "duration_ms" : 182626,
      "explicit" : false,
      "external_ids" : {
        "isrc" : "DEPD41612106"
      },
      "external_urls" : {
        "spotify" : "https://open.spotify.com/track/5JnAkpTui9sHbk2Q18qKmZ"
      },
      "href" : "https://api.spotify.com/v1/tracks/5JnAkpTui9sHbk2Q18qKmZ",
      "id" : "5JnAkpTui9sHbk2Q18qKmZ",
      "is_local" : false,
      "is_playable" : true,
      "name" : "Wondrous Love - Christian Piano Music",
      "popularity" : 26,
      "preview_url" : "https://p.scdn.co/mp3-preview/9f8671d3a93f0323aa0135cb401f9986df2f41de?cid=774b29d4f13844c495f206cafdad9c86",
      "track_number" : 6,
      "type" : "track",
      "uri" : "spotify:track:5JnAkpTui9sHbk2Q18qKmZ"
    }, {
      "album" : {
        "album_type" : "album",
        "artists" : [ {
          "external_urls" : {
            "spotify" : "https://open.spotify.com/artist/7wxv54HwW94GvgSAt0wtKW"
          },
          "href" : "https://api.spotify.com/v1/artists/7wxv54HwW94GvgSAt0wtKW",
          "id" : "7wxv54HwW94GvgSAt0wtKW",
          "name" : "Concordia University A Cappella Choir",
          "type" : "artist",
          "uri" : "spotify:artist:7wxv54HwW94GvgSAt0wtKW"
        } ],
        "external_urls" : {
          "spotify" : "https://open.spotify.com/album/1OQBujQvTdLNam0ajhX3eh"
        },
        "href" : "https://api.spotify.com/v1/albums/1OQBujQvTdLNam0ajhX3eh",
        "id" : "1OQBujQvTdLNam0ajhX3eh",
        "images" : [ {
          "height" : 640,
          "url" : "https://i.scdn.co/image/ab67616d0000b273a8a9232d84e84161b31c8209",
          "width" : 640
        }, {
          "height" : 300,
          "url" : "https://i.scdn.co/image/ab67616d00001e02a8a9232d84e84161b31c8209",
          "width" : 300
        }, {
          "height" : 64,
          "url" : "https://i.scdn.co/image/ab67616d00004851a8a9232d84e84161b31c8209",
          "width" : 64
        } ],
        "name" : "A Lamb Goes Uncomplaining Forth: A Lenten Cantata",
        "release_date" : "2020-04-08",
        "release_date_precision" : "day",
        "total_tracks" : 7,
        "type" : "album",
        "uri" : "spotify:album:1OQBujQvTdLNam0ajhX3eh"
      },
      "artists" : [ {
        "external_urls" : {
          "spotify" : "https://open.spotify.com/artist/7wxv54HwW94GvgSAt0wtKW"
        },
        "href" : "https://api.spotify.com/v1/artists/7wxv54HwW94GvgSAt0wtKW",
        "id" : "7wxv54HwW94GvgSAt0wtKW",
        "name" : "Concordia University A Cappella Choir",
        "type" : "artist",
        "uri" : "spotify:artist:7wxv54HwW94GvgSAt0wtKW"
      } ],
      "disc_number" : 1,
      "duration_ms" : 282266,
      "explicit" : false,
      "external_ids" : {
        "isrc" : "QZDA52069435"
      },
      "external_urls" : {
        "spotify" : "https://open.spotify.com/track/1nZLTi3txWDMaiEONdNcCN"
      },
      "href" : "https://api.spotify.com/v1/tracks/1nZLTi3txWDMaiEONdNcCN",
      "id" : "1nZLTi3txWDMaiEONdNcCN",
      "is_local" : false,
      "is_playable" : true,
      "name" : "O Wondrous Love",
      "popularity" : 29,
      "preview_url" : "https://p.scdn.co/mp3-preview/f6ef8aa3c549c3b6af4fd2afa139510512914616?cid=774b29d4f13844c495f206cafdad9c86",
      "track_number" : 6,
      "type" : "track",
      "uri" : "spotify:track:1nZLTi3txWDMaiEONdNcCN"
    }, {
      "album" : {
        "album_type" : "album",
        "artists" : [ {
          "external_urls" : {
            "spotify" : "https://open.spotify.com/artist/0I4Bk2s2BUJyykCwtxx8Xx"
          },
          "href" : "https://api.spotify.com/v1/artists/0I4Bk2s2BUJyykCwtxx8Xx",
          "id" : "0I4Bk2s2BUJyykCwtxx8Xx",
          "name" : "Keith & Kristyn Getty",
          "type" : "artist",
          "uri" : "spotify:artist:0I4Bk2s2BUJyykCwtxx8Xx"
        } ],
        "external_urls" : {
          "spotify" : "https://open.spotify.com/album/7B7T6Cqj9VNvkP2ZPpBXZ7"
        },
        "href" : "https://api.spotify.com/v1/albums/7B7T6Cqj9VNvkP2ZPpBXZ7",
        "id" : "7B7T6Cqj9VNvkP2ZPpBXZ7",
        "images" : [ {
          "height" : 640,
          "url" : "https://i.scdn.co/image/ab67616d0000b2730e7ff10b3052343004c525fa",
          "width" : 640
        }, {
          "height" : 300,
          "url" : "https://i.scdn.co/image/ab67616d00001e020e7ff10b3052343004c525fa",
          "width" : 300
        }, {
          "height" : 64,
          "url" : "https://i.scdn.co/image/ab67616d000048510e7ff10b3052343004c525fa",
          "width" : 64
        } ],
        "name" : "Getty Kids Hymnal – Family Hymn Sing",
        "release_date" : "2018-09-07",
        "release_date_precision" : "day",
        "total_tracks" : 12,
        "type" : "album",
        "uri" : "spotify:album:7B7T6Cqj9VNvkP2ZPpBXZ7"
      },
      "artists" : [ {
        "external_urls" : {
          "spotify" : "https://open.spotify.com/artist/0I4Bk2s2BUJyykCwtxx8Xx"
        },
        "href" : "https://api.spotify.com/v1/artists/0I4Bk2s2BUJyykCwtxx8Xx",
        "id" : "0I4Bk2s2BUJyykCwtxx8Xx",
        "name" : "Keith & Kristyn Getty",
        "type" : "artist",
        "uri" : "spotify:artist:0I4Bk2s2BUJyykCwtxx8Xx"
      } ],
      "disc_number" : 1,
      "duration_ms" : 226337,
      "explicit" : false,
      "external_ids" : {
        "isrc" : "USY5K1800161"
      },
      "external_urls" : {
        "spotify" : "https://open.spotify.com/track/7aqmVMWR6wOCJDbQdPnp0v"
      },
      "href" : "https://api.spotify.com/v1/tracks/7aqmVMWR6wOCJDbQdPnp0v",
      "id" : "7aqmVMWR6wOCJDbQdPnp0v",
      "is_local" : false,
      "is_playable" : true,
      "name" : "What Wondrous Love Is This",
      "popularity" : 25,
      "preview_url" : null,
      "track_number" : 12,
      "type" : "track",
      "uri" : "spotify:track:7aqmVMWR6wOCJDbQdPnp0v"
    }, {
      "album" : {
        "album_type" : "album",
        "artists" : [ {
          "external_urls" : {
            "spotify" : "https://open.spotify.com/artist/1laNwx3Sgr12cbdw3UTROn"
          },
          "href" : "https://api.spotify.com/v1/artists/1laNwx3Sgr12cbdw3UTROn",
          "id" : "1laNwx3Sgr12cbdw3UTROn",
          "name" : "The Sing Team",
          "type" : "artist",
          "uri" : "spotify:artist:1laNwx3Sgr12cbdw3UTROn"
        } ],
        "external_urls" : {
          "spotify" : "https://open.spotify.com/album/3D5oSG744Vr3BWjj7teObu"
        },
        "href" : "https://api.spotify.com/v1/albums/3D5oSG744Vr3BWjj7teObu",
        "id" : "3D5oSG744Vr3BWjj7teObu",
        "images" : [ {
          "height" : 640,
          "url" : "https://i.scdn.co/image/ab67616d0000b2733800861da2c9b282f4238bad",
          "width" : 640
        }, {
          "height" : 300,
          "url" : "https://i.scdn.co/image/ab67616d00001e023800861da2c9b282f4238bad",
          "width" : 300
        }, {
          "height" : 64,
          "url" : "https://i.scdn.co/image/ab67616d000048513800861da2c9b282f4238bad",
          "width" : 64
        } ],
        "name" : "Sing On!",
        "release_date" : "2017-09-15",
        "release_date_precision" : "day",
        "total_tracks" : 9,
        "type" : "album",
        "uri" : "spotify:album:3D5oSG744Vr3BWjj7teObu"
      },
      "artists" : [ {
        "external_urls" : {
          "spotify" : "https://open.spotify.com/artist/1laNwx3Sgr12cbdw3UTROn"
        },
        "href" : "https://api.spotify.com/v1/artists/1laNwx3Sgr12cbdw3UTROn",
        "id" : "1laNwx3Sgr12cbdw3UTROn",
        "name" : "The Sing Team",
        "type" : "artist",
        "uri" : "spotify:artist:1laNwx3Sgr12cbdw3UTROn"
      } ],
      "disc_number" : 1,
      "duration_ms" : 197160,
      "explicit" : false,
      "external_ids" : {
        "isrc" : "QMGVJ1700133"
      },
      "external_urls" : {
        "spotify" : "https://open.spotify.com/track/5PkqlhFF0PdsgtxotfJWPk"
      },
      "href" : "https://api.spotify.com/v1/tracks/5PkqlhFF0PdsgtxotfJWPk",
      "id" : "5PkqlhFF0PdsgtxotfJWPk",
      "is_local" : false,
      "is_playable" : true,
      "name" : "What Wondrous Love Is This",
      "popularity" : 23,
      "preview_url" : "https://p.scdn.co/mp3-preview/2ba01aa4574d575cd5a1b8b8c1c296dfbb592983?cid=774b29d4f13844c495f206cafdad9c86",
      "track_number" : 5,
      "type" : "track",
      "uri" : "spotify:track:5PkqlhFF0PdsgtxotfJWPk"
    }, {
      "album" : {
        "album_type" : "album",
        "artists" : [ {
          "external_urls" : {
            "spotify" : "https://open.spotify.com/artist/2bOMiPcHHX8Mk3B7azCSko"
          },
          "href" : "https://api.spotify.com/v1/artists/2bOMiPcHHX8Mk3B7azCSko",
          "id" : "2bOMiPcHHX8Mk3B7azCSko",
          "name" : "Steve Pettit Evangelistic Team",
          "type" : "artist",
          "uri" : "spotify:artist:2bOMiPcHHX8Mk3B7azCSko"
        } ],
        "external_urls" : {
          "spotify" : "https://open.spotify.com/album/1ZLdrX0qxVosa17hhfqCEr"
        },
        "href" : "https://api.spotify.com/v1/albums/1ZLdrX0qxVosa17hhfqCEr",
        "id" : "1ZLdrX0qxVosa17hhfqCEr",
        "images" : [ {
          "height" : 640,
          "url" : "https://i.scdn.co/image/ab67616d0000b273e3bf5409ae462306947e3711",
          "width" : 640
        }, {
          "height" : 300,
          "url" : "https://i.scdn.co/image/ab67616d00001e02e3bf5409ae462306947e3711",
          "width" : 300
        }, {
          "height" : 64,
          "url" : "https://i.scdn.co/image/ab67616d00004851e3bf5409ae462306947e3711",
          "width" : 64
        } ],
        "name" : "Steve Pettit Evangelistic Team: The Best of 20 Years",
        "release_date" : "2014-11-17",
        "release_date_precision" : "day",
        "total_tracks" : 31,
        "type" : "album",
        "uri" : "spotify:album:1ZLdrX0qxVosa17hhfqCEr"
      },
      "artists" : [ {
        "external_urls" : {
          "spotify" : "https://open.spotify.com/artist/2bOMiPcHHX8Mk3B7azCSko"
        },
        "href" : "https://api.spotify.com/v1/artists/2bOMiPcHHX8Mk3B7azCSko",
        "id" : "2bOMiPcHHX8Mk3B7azCSko",
        "name" : "Steve Pettit Evangelistic Team",
        "type" : "artist",
        "uri" : "spotify:artist:2bOMiPcHHX8Mk3B7azCSko"
      } ],
      "disc_number" : 1,
      "duration_ms" : 239686,
      "explicit" : false,
      "external_ids" : {
        "isrc" : "ushm91466572"
      },
      "external_urls" : {
        "spotify" : "https://open.spotify.com/track/7JeYksM3msQ0TIQWtoguyi"
      },
      "href" : "https://api.spotify.com/v1/tracks/7JeYksM3msQ0TIQWtoguyi",
      "id" : "7JeYksM3msQ0TIQWtoguyi",
      "is_local" : false,
      "is_playable" : true,
      "name" : "O Wondrous Love",
      "popularity" : 20,
      "preview_url" : "https://p.scdn.co/mp3-preview/9720e63782cd8119e4ccff3636dd663d47234c58?cid=774b29d4f13844c495f206cafdad9c86",
      "track_number" : 7,
      "type" : "track",
      "uri" : "spotify:track:7JeYksM3msQ0TIQWtoguyi"
    } ],
    "limit" : 10,
    "next" : "https://api.spotify.com/v1/search?query=Wondrous+Love&type=track&market=US&offset=15&limit=10",
    "offset" : 5,
    "previous" : "https://api.spotify.com/v1/search?query=Wondrous+Love&type=track&market=US&offset=0&limit=10",
    "total" : 1386
  }
}