{
  "tracks" : {
    "href" : "https://api.spotify.com/v1/search?query=Blest+Be+the+Tie+That+Binds&type=track&market=US&offset=5&limit=10",
    "items" : [ {
      "album" : {
        "album_type" : "compilation",
        "artists" : [ {
          "external_urls" : {
            "spotify" : "https://open.spotify.com/artist/1PCJfBD2SVVE8cGqpg1pC9"
          },
          "href" : "https://api.spotify.com/v1/artists/1PCJfBD2SVVE8cGqpg1pC9",
          "id" : "1PCJfBD2SVVE8cGqpg1pC9",
          "name" : "Hal Wright",
          "type" : "artist",
          "uri" : "spotify:artist:1PCJfBD2SVVE8cGqpg1pC9"
        } ],
        "external_urls" : {
          "spotify" : "https://open.spotify.com/album/2sKmZ8kxh0qxQCf0qlvylw"
        },
        "href" : "https://api.spotify.com/v1/albums/2sKmZ8kxh0qxQCf0qlvylw",
        "id" : "2sKmZ8kxh0qxQCf0qlvylw",
        "images" : [ {
          "height" : 640,
          "url" : "https://i.scdn.co/image/ab67616d0000b2739bd7b37123792b83e0235c59",
          "width" : 640
        }, {
          "height" : 300,
          "url" : "https://i.scdn.co/image/ab67616d00001e029bd7b37123792b83e0235c59",
          "width" : 300
        }, {
          "height" : 64,
          "url" : "https://i.scdn.co/image/ab67616d000048519bd7b37123792b83e0235c59",
          "width" : 64
        } ],
        "name" : "Instrumental Hymns 3",
        "release_date" : "2020-05-22",
        "release_date_precision" : "day",
        "total_tracks" : 25,
        "type" : "album",
        "uri" : "spotify:album:2sKmZ8kxh0qxQCf0qlvylw"
      },
      "artists" : [ {
        "external_urls" : {
          "spotify" : "https://open.spotify.com/artist/1PCJfBD2SVVE8cGqpg1pC9"
        },
        "href" : "https://api.spotify.com/v1/artists/1PCJfBD2SVVE8cGqpg1pC9",
        "id" : "1PCJfBD2SVVE8cGqpg1pC9",
        "name" : "Hal Wright",
        "type" : "artist",
        "uri" : "spotify:artist:1PCJfBD2SVVE8cGqpg1pC9"
      }, {
        "external_urls" : {
          "spotify" : "https://open.spotify.com/artist/5Aerx1PdoW4F5Yvrus4bDE"
        },
        "href" : "https://api.spotify.com/v1/artists/5Aerx1PdoW4F5Yvrus4bDE",
        "id" : "5Aerx1PdoW4F5Yvrus4bDE",
        "name" : "Twin Sisters",
        "type" : "artist",
        "uri" : "spotify:artist:5Aerx1PdoW4F5Yvrus4bDE"
      } ],
      "disc_number" : 1,
      "duration_ms" : 92053,
      "explicit" : false,
      "external_ids" : {
        "isrc" : "US6PD1904001"
      },
      "external_urls" : {
        "spotify" : "https://open.spotify.com/track/2DQkhuNev1fPZfDzC65gjx"
      },
      "href" : "https://api.spotify.com/v1/tracks/2DQkhuNev1fPZfDzC65gjx",
      "id" : "2DQkhuNev1fPZfDzC65gjx",
      "is_local" : false,
      "is_playable" : true,
      "name" : "Blest Be The Tie That Binds",
      "popularity" : 0,
      "preview_url" : "https://p.scdn.co/mp3-preview/e1887404ab6a0e960f3990d1e34fecae24af6ad2?cid=774b29d4f13844c495f206cafdad9c86",
      "track_number" : 14,
      "type" : "track",
      "uri" : "spotify:track:2DQkhuNev1fPZfDzC65gjx"
    }, {
      "album" : {
        "album_type" : "album",
        "artists" : [ {
          "external_urls" : {
            "spotify" : "https://open.spotify.com/artist/3hHwKq9rkvc42Bp4CtAkkv"
          },
          "href" : "https://api.spotify.com/v1/artists/3hHwKq9rkvc42Bp4CtAkkv",
          "id" : "3hHwKq9rkvc42Bp4CtAkkv",
          "name" : "Laestadian Lutheran Church",
          "type" : "artist",
          "uri" : "spotify:artist:3hHwKq9rkvc42Bp4CtAkkv"
        } ],
        "external_urls" : {
          "spotify" : "https://open.spotify.com/album/2AVdV071rb9bKsbQzXowdk"
        },
        "href" : "https://api.spotify.com/v1/albums/2AVdV071rb9bKsbQzXowdk",
        "id" : "2AVdV071rb9bKsbQzXowdk",
        "images" : [ {
          "height" : 640,
          "url" : "https://i.scdn.co/image/ab67616d0000b273f8037b033b3c9133fa876504",
          "width" : 640
        }, {
          "height" : 300,
          "url" : "https://i.scdn.co/image/ab67616d00001e02f8037b033b3c9133fa876504",
          "width" : 300
        }, {
          "height" : 64,
          "url" : "https://i.scdn.co/image/ab67616d00004851f8037b033b3c9133fa876504",
          "width" : 64
        } ],
        "name" : "From Heart to Heart, There Love Abides",
        "release_date" : "2018-12-06",
        "release_date_precision" : "day",
        "total_tracks" : 20,
        "type" : "album",
        "uri" : "spotify:album:2AVdV071rb9bKsbQzXowdk"
      },
      "artists" : [ {
        "external_urls" : {
          "spotify" : "https://open.spotify.com/artist/3hHwKq9rkvc42Bp4CtAkkv"
        },
        "href" : "https://api.spotify.com/v1/artists/3hHwKq9rkvc42Bp4CtAkkv",
        "id" : "3hHwKq9rkvc42Bp4CtAkkv",
        "name" : "Laestadian Lutheran Church",
        "type" : "artist",
        "uri" : "spotify:artist:3hHwKq9rkvc42Bp4CtAkkv"
      } ],
      "disc_number" : 1,
      "duration_ms" : 227160,
      "explicit" : false,
      "external_ids" : {
        "isrc" : "USDHM1827756"
      },
      "external_urls" : {
        "spotify" : "https://open.spotify.com/track/7cWMLu2JW05MGcpMtMvaKn"
      },
      "href" : "https://api.spotify.com/v1/tracks/7cWMLu2JW05MGcpMtMvaKn",
      "id" : "7cWMLu2JW05MGcpMtMvaKn",
      "is_local" : false,
      "is_playable" : true,
      "name" : "Blest Be the Tie That Binds SHZ 219",
      "popularity" : 11,
      "preview_url" : "https://p.scdn.co/mp3-preview/f01cdffbf605853e8911ac06c052017c422faf97?cid=774b29d4f13844c495f206cafdad9c86",
      "track_number" : 19,
      "type" : "track",
      "uri" : "spotify:track:7cWMLu2JW05MGcpMtMvaKn"
    }, {
      "album" : {
        "album_type" : "album",
        "artists" : [ {
          "external_urls" : {
            "spotify" : "https://open.spotify.com/artist/1U5zgr455OGyIkLNXvDdrf"
          },
          "href" : "https://api.spotify.com/v1/artists/1U5zgr455OGyIkLNXvDdrf",
          "id" : "1U5zgr455OGyIkLNXvDdrf",
          "name" : "Traditional",
          "type" : "artist",
          "uri" : "spotify:artist:1U5zgr455OGyIkLNXvDdrf"
        }, {
          "external_urls" : {
            "spotify" : "https://open.spotify.com/artist/2igGYNAMmRUQ4nUfy0NGtN"
          },
          "href" : "https://api.spotify.com/v1/artists/2igGYNAMmRUQ4nUfy0NGtN",
          "id" : "2igGYNAMmRUQ4nUfy0NGtN",
          "name" : "London Philharmonic Concert Society",
          "type" : "artist",
          "uri" : "spotify:artist:2igGYNAMmRUQ4nUfy0NGtN"
        }, {
          "external_urls" : {
            "spotify" : "https://open.spotify.com/artist/0WIY8dfLqdsgKUKngzcjCm"
          },
          "href" : "https://api.spotify.com/v1/artists/0WIY8dfLqdsgKUKngzcjCm",
          "id" : "0WIY8dfLqdsgKUKngzcjCm",
          "name" : "John Alldis",
          "type" : "artist",
          "uri" : "spotify:artist:0WIY8dfLqdsgKUKngzcjCm"
        }, {
          "external_urls" : {
            "spotify" : "https://open.spotify.com/artist/3PfJE6ebCbCHeuqO4BfNeA"
          },
          "href" : "https://api.spotify.com/v1/artists/3PfJE6ebCbCHeuqO4BfNeA",
          "id" : "3PfJE6ebCbCHeuqO4BfNeA",
          "name" : "London Philharmonic Orchestra",
          "type" : "artist",
          "uri" : "spotify:artist:3PfJE6ebCbCHeuqO4BfNeA"
        } ],
        "external_urls" : {
          "spotify" : "https://open.spotify.com/album/7vJBLM3TaskMnpCV49NLpO"
        },
        "href" : "https://api.spotify.com/v1/albums/7vJBLM3TaskMnpCV49NLpO",
        "id" : "7vJBLM3TaskMnpCV49NLpO",
        "images" : [ {
          "height" : 640,
          "url" : "https://i.scdn.co/image/ab67616d0000b2732aa9eea501b86f2d5f8b0b45",
          "width" : 640
        }, {
          "height" : 300,
          "url" : "https://i.scdn.co/image/ab67616d00001e022aa9eea501b86f2d5f8b0b45",
          "width" : 300
        }, {
          "height" : 64,
          "url" : "https://i.scdn.co/image/ab67616d000048512aa9eea501b86f2d5f8b0b45",
          "width" : 64
        } ],
        "name" : "Hymns Triumphant",
        "release_date" : "1988-01-01",
        "release_date_precision" : "day",
        "total_tracks" : 39,
        "type" : "album",
        "uri" : "spotify:album:7vJBLM3TaskMnpCV49NLpO"
      },
      "artists" : [ {
        "external_urls" : {
          "spotify" : "https://open.spotify.com/artist/1U5zgr455OGyIkLNXvDdrf"
        },
        "href" : "https://api.spotify.com/v1/artists/1U5zgr455OGyIkLNXvDdrf",
        "id" : "1U5zgr455OGyIkLNXvDdrf",
        "name" : "Traditional",
        "type" : "artist",
        "uri" : "spotify:artist:1U5zgr455OGyIkLNXvDdrf"
      }, {
        "external_urls" : {
          "spotify" : "https://open.spotify.com/artist/7GUhTBqD7CAbbIjjBd0SdN"
        },
        "href" : "https://api.spotify.com/v1/artists/7GUhTBqD7CAbbIjjBd0SdN",
        "id" : "7GUhTBqD7CAbbIjjBd0SdN",
        "name" : "London Philharmonic Choir",
        "type" : "artist",
        "uri" : "spotify:artist:7GUhTBqD7CAbbIjjBd0SdN"
      }, {
        "external_urls" : {
          "spotify" : "https://open.spotify.com/artist/0WIY8dfLqdsgKUKngzcjCm"
        },
        "href" : "https://api.spotify.com/v1/artists/0WIY8dfLqdsgKUKngzcjCm",
        "id" : "0WIY8dfLqdsgKUKngzcjCm",
        "name" : "John Alldis",
        "type" : "artist",
        "uri" : "spotify:artist:0WIY8dfLqdsgKUKngzcjCm"
      }, {
        "external_urls" : {
          "spotify" : "https://open.spotify.com/artist/2Ek1WGW7WeyDoxsZiu0AAd"
        },
        "href" : "https://api.spotify.com/v1/artists/2Ek1WGW7WeyDoxsZiu0AAd",
        "id" : "2Ek1WGW7WeyDoxsZiu0AAd",
        "name" : "National Philharmonic Orchestra",
        "type" : "artist",
        "uri" : "spotify:artist:2Ek1WGW7WeyDoxsZiu0AAd"
      } ],
      "disc_number" : 1,
      "duration_ms" : 31866,
      "explicit" : false,
      "external_ids" : {
        "isrc" : "USSP38847121"
      },
      "external_urls" : {
        "spotify" : "https://open.spotify.com/track/6eLNyU7JzwrUmLdmqhSaJ7"
      },
      "href" : "https://api.spotify.com/v1/tracks/6eLNyU7JzwrUmLdmqhSaJ7",
      "id" : "6eLNyU7JzwrUmLdmqhSaJ7",
      "is_local" : false,
      "is_playable" : true,
      "name" : "Blest Be The Tie That Binds",
      "popularity" : 10,
      "preview_url" : null,
      "track_number" : 27,
      "type" : "track",
      "uri" : "spotify:track:6eLNyU7JzwrUmLdmqhSaJ7"
    }, {
      "album" : {
        "album_type" : "compilation",
        "artists" : [ {
          "external_urls" : {
            "spotify" : "https://open.spotify.com/artist/0LyfQWJT6nXafLPZqxe9Of"
          },
          "href" : "https://api.spotify.com/v1/artists/0LyfQWJT6nXafLPZqxe9Of",
          "id" : "0LyfQWJT6nXafLPZqxe9Of",
          "name" : "Various Artists",
          "type" : "artist",
          "uri" : "spotify:artist:0LyfQWJT6nXafLPZqxe9Of"
        } ],
        "external_urls" : {
          "spotify" : "https://open.spotify.com/album/1m5233nTo8EUZCgOMDeBL7"
        },
        "href" : "https://api.spotify.com/v1/albums/1m5233nTo8EUZCgOMDeBL7",
        "id" : "1m5233nTo8EUZCgOMDeBL7",
        "images" : [ {
          "height" : 640,
          "url" : "https://i.scdn.co/image/ab67616d0000b273f16a79e48823de0ebe2f32c2",
          "width" : 640
        }, {
          "height" : 300,
          "url" : "https://i.scdn.co/image/ab67616d00001e02f16a79e48823de0ebe2f32c2",
          "width" : 300
        }, {
          "height" : 64,
          "url" : "https://i.scdn.co/image/ab67616d00004851f16a79e48823de0ebe2f32c2",
          "width" : 64
        } ],
        "name" : "Peace In The Valley",
        "release_date" : "2005-01-01",
        "release_date_precision" : "day",
        "total_tracks" : 20,
        "type" : "album",
        "uri" : "spotify:album:1m5233nTo8EUZCgOMDeBL7"
      },
      "artists" : [ {
        "external_urls" : {
          "spotify" : "https://open.spotify.com/artist/11sAWrpIkFUPQlXoQqpeBV"
        },
        "href" : "https://api.spotify.com/v1/artists/11sAWrpIkFUPQlXoQqpeBV",
        "id" : "11sAWrpIkFUPQlXoQqpeBV",
        "name" : "Bill & Gloria Gaither",
        "type" : "artist",
        "uri" : "spotify:artist:11sAWrpIkFUPQlXoQqpeBV"
      } ],
      "disc_number" : 1,
      "duration_ms" : 103373,
      "explicit" : false,
      "external_ids" : {
        "isrc" : "US3270401464"
      },
      "external_urls" : {
        "spotify" : "https://open.spotify.com/track/7HYeJdo9WhCvpLaQeoPNfT"
      },
      "href" : "https://api.spotify.com/v1/tracks/7HYeJdo9WhCvpLaQeoPNfT",
      "id" : "7HYeJdo9WhCvpLaQeoPNfT",
      "is_local" : false,
      "is_playable" : true,
      "name" : "Blest Be The Tie That Binds",
      "popularity" : 9,
      "preview_url" : null,
      "track_number" : 17,
      "type" : "track",
      "uri" : "spotify:track:7HYeJdo9WhCvpLaQeoPNfT"
    }, {
      "album" : {
        "album_type" : "album",
        "artists" : [ {
          "external_urls" : {
            "spotify" : "https://open.spotify.com/artist/2yQZGNQJExPLfCB8kfTD88"
          },
          "href" : "https://api.spotify.com/v1/artists/2yQZGNQJExPLfCB8kfTD88",
          "id" : "2yQZGNQJExPLfCB8kfTD88",
          "name" : "Andrey Jackson",
          "type" : "artist",
          "uri" : "spotify:artist:2yQZGNQJExPLfCB8kfTD88"
        } ],
        "external_urls" : {
          "spotify" : "https://open.spotify.com/album/7egLQmsdd87bP0tJIG453t"
        },
        "href" : "https://api.spotify.com/v1/albums/7egLQmsdd87bP0tJIG453t",
        "id" : "7egLQmsdd87bP0tJIG453t",
        "images" : [ {
          "height" : 640,
          "url" : "https://i.scdn.co/image/ab67616d0000b2732708800282565e07d94d28f8",
          "width" : 640
        }, {
          "height" : 300,
          "url" : "https://i.scdn.co/image/ab67616d00001e022708800282565e07d94d28f8",
          "width" : 300
        }, {
          "height" : 64,
          "url" : "https://i.scdn.co/image/ab67616d000048512708800282565e07d94d28f8",
          "width" : 64
        } ],
        "name" : "Christian Hymns, Vol. 2, Organ Accompaniments (The Church Organist Series)",
        "release_date" : "2015-11-18",
        "release_date_precision" : "day",
        "total_tracks" : 38,
        "type" : "album",
        "uri" : "spotify:album:7egLQmsdd87bP0tJIG453t"
      },
      "artists" : [ {
        "external_urls" : {
          "spotify" : "https://open.spotify.com/artist/2yQZGNQJExPLfCB8kfTD88"
        },
        "href" : "https://api.spotify.com/v1/artists/2yQZGNQJExPLfCB8kfTD88",
        "id" : "2yQZGNQJExPLfCB8kfTD88",
        "name" : "Andrey Jackson",
        "type" : "artist",
        "uri" : "spotify:artist:2yQZGNQJExPLfCB8kfTD88"
      } ],
      "disc_number" : 1,
      "duration_ms" : 91121,
      "explicit" : false,
      "external_ids" : {
        "isrc" : "GB-SMU-24-16007"
      },
      "external_urls" : {
        "spotify" : "https://open.spotify.com/track/5nUaoJ7nvlqcqKJV1nKhYY"
      },
      "href" : "https://api.spotify.com/v1/tracks/5nUaoJ7nvlqcqKJV1nKhYY",
      "id" : "5nUaoJ7nvlqcqKJV1nKhYY",
      "is_local" : false,
      "is_playable" : true,
      "name" : "Blest Be the Tie That Binds",
      "popularity" : 6,
      "preview_url" : "https://p.scdn.co/mp3-preview/b30004da9af8c258ceb571fcaf2c9e75fcaae252?cid=774b29d4f13844c495f206cafdad9c86",
      "track_number" : 10,
      "type" : "track",
      "uri" : "spotify:track:5nUaoJ7nvlqcqKJV1nKhYY"
    }, {
      "album" : {
        "album_type" : "album",
        "artists" : [ {
          "external_urls" : {
            "spotify" : "https://open.spotify.com/artist/4PObECTgGi99FoQHHOdaUv"
          },
          "href" : "https://api.spotify.com/v1/artists/4PObECTgGi99FoQHHOdaUv",
          "id" : "4PObECTgGi99FoQHHOdaUv",
          "name" : "Dick Bolks",
          "type" : "artist",
          "uri" : "spotify:artist:4PObECTgGi99FoQHHOdaUv"
        } ],
        "external_urls" : {
          "spotify" : "https://open.spotify.com/album/4AgWuVZmiEZ35dJVzotfjX"
        },
        "href" : "https://api.spotify.com/v1/albums/4AgWuVZmiEZ35dJVzotfjX",
        "id" : "4AgWuVZmiEZ35dJVzotfjX",
        "images" : [ {
          "height" : 640,
          "url" : "https://i.scdn.co/image/ab67616d0000b273f0d59edf6c80927c46f3e745",
          "width" : 640
        }, {
          "height" : 300,
          "url" : "https://i.scdn.co/image/ab67616d00001e02f0d59edf6c80927c46f3e745",
          "width" : 300
        }, {
          "height" : 64,
          "url" : "https://i.scdn.co/image/ab67616d00004851f0d59edf6c80927c46f3e745",
          "width" : 64
        } ],
        "name" : "Wonderful Peace",
        "release_date" : "2017-03-04",
        "release_date_precision" : "day",
        "total_tracks" : 26,
        "type" : "album",
        "uri" : "spotify:album:4AgWuVZmiEZ35dJVzotfjX"
      },
      "artists" : [ {
        "external_urls" : {
          "spotify" : "https://open.spotify.com/artist/4PObECTgGi99FoQHHOdaUv"
        },
        "href" : "https://api.spotify.com/v1/artists/4PObECTgGi99FoQHHOdaUv",
        "id" : "4PObECTgGi99FoQHHOdaUv",
        "name" : "Dick Bolks",
        "type" : "artist",
        "uri" : "spotify:artist:4PObECTgGi99FoQHHOdaUv"
      } ],
      "disc_number" : 1,
      "duration_ms" : 118666,
      "explicit" : false,
      "external_ids" : {
        "isrc" : "uscgh1730060"
      },
      "external_urls" : {
        "spotify" : "https://open.spotify.com/track/4BnTqJQgH27vNU3GlypCyI"
      },
      "href" : "https://api.spotify.com/v1/tracks/4BnTqJQgH27vNU3GlypCyI",
      "id" : "4BnTqJQgH27vNU3GlypCyI",
      "is_local" : false,
      "is_playable" : true,
      "name" : "Blest Be the Tie That Binds",
      "popularity" : 3,
      "preview_url" : "https://p.scdn.co/mp3-preview/d8e544325377d8ae242c0cb3ca74acd50416c42a?cid=774b29d4f13844c495f206cafdad9c86",
      "track_number" : 25,
      "type" : "track",
      "uri" : "spotify:track:4BnTqJQgH27vNU3GlypCyI"
    }, {
      "album" : {
        "album_type" : "album",
        "artists" : [ {
          "external_urls" : {
            "spotify" : "https://open.spotify.com/artist/2x0QHABqKaBBvAOzvoevXJ"
          },
          "href" : "https://api.spotify.com/v1/artists/2x0QHABqKaBBvAOzvoevXJ",
          "id" : "2x0QHABqKaBBvAOzvoevXJ",
          "name" : "The Scottish Festival Singers",
          "type" : "artist",
          "uri" : "spotify:artist:2x0QHABqKaBBvAOzvoevXJ"
        } ],
        "external_urls" : {
          "spotify" : "https://open.spotify.com/album/4GUN0KPnTQGStRZzQ2xg4h"
        },
        "href" : "https://api.spotify.com/v1/albums/4GUN0KPnTQGStRZzQ2xg4h",
        "id" : "4GUN0KPnTQGStRZzQ2xg4h",
        "images" : [ {
          "height" : 640,
          "url" : "https://i.scdn.co/image/ab67616d0000b273e500b6de39b9bb01111ca72b",
          "width" : 640
        }, {
          "height" : 300,
          "url" : "https://i.scdn.co/image/ab67616d00001e02e500b6de39b9bb01111ca72b",
          "width" : 300
        }, {
          "height" : 64,
          "url" : "https://i.scdn.co/image/ab67616d00004851e500b6de39b9bb01111ca72b",
          "width" : 64
        } ],
        "name" : "90 Favorite Hymns",
        "release_date" : "2014-10-21",
        "release_date_precision" : "day",
        "total_tracks" : 90,
        "type" : "album",
        "uri" : "spotify:album:4GUN0KPnTQGStRZzQ2xg4h"
      },
      "artists" : [ {
        "external_urls" : {
          "spotify" : "https://open.spotify.com/artist/2x0QHABqKaBBvAOzvoevXJ"
        },
        "href" : "https://api.spotify.com/v1/artists/2x0QHABqKaBBvAOzvoevXJ",
        "id" : "2x0QHABqKaBBvAOzvoevXJ",
        "name" : "The Scottish Festival Singers",
        "type" : "artist",
        "uri" : "spotify:artist:2x0QHABqKaBBvAOzvoevXJ"
      } ],
      "disc_number" : 1,
      "duration_ms" : 93493,
      "explicit" : false,
      "external_ids" : {
        "isrc" : "USACX1401612"
      },
      "external_urls" : {
        "spotify" : "https://open.spotify.com/track/3hpDhBpx8KJPJ8vwl4nN1e"
      },
      "href" : "https://api.spotify.com/v1/tracks/3hpDhBpx8KJPJ8vwl4nN1e",
      "id" : "3hpDhBpx8KJPJ8vwl4nN1e",
      "is_local" : false,
      "is_playable" : true,
      "name" : "Blest Be The Tie That Binds",
      "popularity" : 5,
      "preview_url" : "https://p.scdn.co/mp3-preview/4f6548ea3b5378a9abf1051036ab0449a18adb86?cid=774b29d4f13844c495f206cafdad9c86",
      "track_number" : 64,
      "type" : "track",
      "uri" : "spotify:track:3hpDhBpx8KJPJ8vwl4nN1e"
    }, {
      "album" : {
        "album_type" : "album",
        "artists" : [ {
          "external_urls" : {
            "spotify" : "https://open.spotify.com/artist/09TOgappqOohpamkrpP78c"
          },
          "href" : "https://api.spotify.com/v1/artists/09TOgappqOohpamkrpP78c",
          "id" : "09TOgappqOohpamkrpP78c",
          "name" : "Fountainview Academy Orchestra & Singers",
          "type" : "artist",
          "uri" : "spotify:artist:09TOgappqOohpamkrpP78c"
        } ],
        "external_urls" : {
          "spotify" : "https://open.spotify.com/album/4prNMkbVmyBjfzUkKtdMif"
        },
        "href" : "https://api.spotify.com/v1/albums/4prNMkbVmyBjfzUkKtdMif",
        "id" : "4prNMkbVmyBjfzUkKtdMif",
        "images" : [ {
          "height" : 640,
          "url" : "https://i.scdn.co/image/ab67616d0000b273f83ac651aef0e917dd0681a3",
          "width" : 640
        }, {
          "height" : 300,
          "url" : "https://i.scdn.co/image/ab67616d00001e02f83ac651aef0e917dd0681a3",
          "width" : 300
        }, {
          "height" : 64,
          "url" : "https://i.scdn.co/image/ab67616d00004851f83ac651aef0e917dd0681a3",
          "width" : 64
        } ],
        "name" : "God So Loved The World - Spring",
        "release_date" : "2012",
        "release_date_precision" : "year",
        "total_tracks" : 16,
        "type" : "album",
        "uri" : "spotify:album:4prNMkbVmyBjfzUkKtdMif"
      },
      "artists" : [ {
        "external_urls" : {
          "spotify" : "https://open.spotify.com/artist/09TOgappqOohpamkrpP78c"
        },
        "href" : "https://api.spotify.com/v1/artists/09TOgappqOohpamkrpP78c",
        "id" : "09TOgappqOohpamkrpP78c",
        "name" : "Fountainview Academy Orchestra & Singers",
        "type" : "artist",
        "uri" : "spotify:artist:09TOgappqOohpamkrpP78c"
      } ],
      "disc_number" : 1,
      "duration_ms" : 102356,
      "explicit" : false,
      "external_ids" : {
        "isrc" : "QMEZE1914893"
      },
      "external_urls" : {
        "spotify" : "https://open.spotify.com/track/3uTwgTL5eC3pYfEXLuNpr5"
      },
      "href" : "https://api.spotify.com/v1/tracks/3uTwgTL5eC3pYfEXLuNpr5",
      "id" : "3uTwgTL5eC3pYfEXLuNpr5",
      "is_local" : false,
      "is_playable" : true,
      "name" : "Blest Be the Tie that Binds",
      "popularity" : 7,
      "preview_url" : "https://p.scdn.co/mp3-preview/3aeb24ea0c96efdb3bf6c7c89910e291526c7725?cid=774b29d4f13844c495f206cafdad9c86",
      "track_number" : 2,
      "type" : "track",
      "uri" : "spotify:track:3uTwgTL5eC3pYfEXLuNpr5"
    }, {
      "album" : {
        "album_type" : "album",
        "artists" : [ {
          "external_urls" : {
            "spotify" : "https://open.spotify.com/artist/5OoNaL5KATvhjuct2YDOMa"
          },
          "href" : "https://api.spotify.com/v1/artists/5OoNaL5KATvhjuct2YDOMa",
          "id" : "5OoNaL5KATvhjuct2YDOMa",
          "name" : "Ronny Matthes",
          "type" : "artist",
          "uri" : "spotify:artist:5OoNaL5KATvhjuct2YDOMa"
        } ],
        "external_urls" : {
          "spotify" : "https://open.spotify.com/album/3zIxqtQpXPw0qlpPDvSHcC"
        },
        "href" : "https://api.spotify.com/v1/albums/3zIxqtQpXPw0qlpPDvSHcC",
        "id" : "3zIxqtQpXPw0qlpPDvSHcC",
        "images" : [ {
          "height" : 640,
          "url" : "https://i.scdn.co/image/ab67616d0000b2731b861a75d6afe28c787579f5",
          "width" : 640
        }, {
          "height" : 300,
          "url" : "https://i.scdn.co/image/ab67616d00001e021b861a75d6afe28c787579f5",
          "width" : 300
        }, {
          "height" : 64,
          "url" : "https://i.scdn.co/image/ab67616d000048511b861a75d6afe28c787579f5",
          "width" : 64
        } ],
        "name" : "Hintergrundmusik, Vol. 7 & 8 - Gemafreie Musik zur Beschallung von Hotels und Restaurants (Entspannungsmusik mit Klavier & Klassik)",
        "release_date" : "2016-10-01",
        "release_date_precision" : "day",
        "total_tracks" : 24,
        "type" : "album",
        "uri" : "spotify:album:3zIxqtQpXPw0qlpPDvSHcC"
      },
      "artists" : [ {
        "external_urls" : {
          "spotify" : "https://open.spotify.com/artist/5BvmYUFjXgK1fpM2SWeVbH"
        },
        "href" : "https://api.spotify.com/v1/artists/5BvmYUFjXgK1fpM2SWeVbH",
        "id" : "5BvmYUFjXgK1fpM2SWeVbH",
        "name" : "Hans-Georg Nägeli",
        "type" : "artist",
        "uri" : "spotify:artist:5BvmYUFjXgK1fpM2SWeVbH"
      }, {
        "external_urls" : {
          "spotify" : "https://open.spotify.com/artist/5OoNaL5KATvhjuct2YDOMa"
        },
        "href" : "https://api.spotify.com/v1/artists/5OoNaL5KATvhjuct2YDOMa",
        "id" : "5OoNaL5KATvhjuct2YDOMa",
        "name" : "Ronny Matthes",
        "type" : "artist",
        "uri" : "spotify:artist:5OoNaL5KATvhjuct2YDOMa"
      } ],
      "disc_number" : 2,
      "duration_ms" : 227746,
      "explicit" : false,
      "external_ids" : {
        "isrc" : "DEPD41612313"
      },
      "external_urls" : {
        "spotify" : "https://open.spotify.com/track/2ysQQfMi99Ub9J09sfooEI"
      },
      "href" : "https://api.spotify.com/v1/tracks/2ysQQfMi99Ub9J09sfooEI",
      "id" : "2ysQQfMi99Ub9J09sfooEI",
      "is_local" : false,
      "is_playable" : true,
      "name" : "Blest Be The Tie That Binds - Christian Worship Song",
      "popularity" : 8,
      "preview_url" : "https://p.scdn.co/mp3-preview/ab2206556fc7a67ad1b7dcea831886e6a376a0b2?cid=774b29d4f13844c495f206cafdad9c86",
      "track_number" : 1,
      "type" : "track",
      "uri" : "spotify:track:2ysQQfMi99Ub9J09sfooEI"
    }, {
      "album" : {
        "album_type" : "album",
        "artists" : [ {
          "external_urls" : {
            "spotify" : "https://open.spotify.com/artist/5OoNaL5KATvhjuct2YDOMa"
          },
          "href" : "https://api.spotify.com/v1/artists/5OoNaL5KATvhjuct2YDOMa",
          "id" : "5OoNaL5KATvhjuct2YDOMa",
          "name" : "Ronny Matthes",
          "type" : "artist",
          "uri" : "spotify:artist:5OoNaL5KATvhjuct2YDOMa"
        } ],
        "external_urls" : {
          "spotify" : "https://open.spotify.com/album/0Y7Q5VsIBJxbNZgLy8J2PL"
        },
        "href" : "https://api.spotify.com/v1/albums/0Y7Q5VsIBJxbNZgLy8J2PL",
        "id" : "0Y7Q5VsIBJxbNZgLy8J2PL",
        "images" : [ {
          "height" : 640,
          "url" : "https://i.scdn.co/image/ab67616d0000b2738b427e56e3e5e46fbe8ac34c",
          "width" : 640
        }, {
          "height" : 300,
          "url" : "https://i.scdn.co/image/ab67616d00001e028b427e56e3e5e46fbe8ac34c",
          "width" : 300
        }, {
          "height" : 64,
          "url" : "https://i.scdn.co/image/ab67616d000048518b427e56e3e5e46fbe8ac34c",
          "width" : 64
        } ],
        "name" : "Hintergrundmusik, Vol. 7 - 12 - Gemafreie Musik zur Beschallung von Hotels & Restaurants (inkl. Klaviermusik) [Background Music]",
        "release_date" : "2017-07-18",
        "release_date_precision" : "day",
        "total_tracks" : 69,
        "type" : "album",
        "uri" : "spotify:album:0Y7Q5VsIBJxbNZgLy8J2PL"
      },
      "artists" : [ {
        "external_urls" : {
          "spotify" : "https://open.spotify.com/artist/5BvmYUFjXgK1fpM2SWeVbH"
        },
        "href" : "https://api.spotify.com/v1/artists/5BvmYUFjXgK1fpM2SWeVbH",
        "id" : "5BvmYUFjXgK1fpM2SWeVbH",
        "name" : "Hans-Georg Nägeli",
        "type" : "artist",
        "uri" : "spotify:artist:5BvmYUFjXgK1fpM2SWeVbH"
      }, {
        "external_urls" : {
          "spotify" : "https://open.spotify.com/artist/5OoNaL5KATvhjuct2YDOMa"
        },
        "href" : "https://api.spotify.com/v1/artists/5OoNaL5KATvhjuct2YDOMa",
        "id" : "5OoNaL5KATvhjuct2YDOMa",
        "name" : "Ronny Matthes",
        "type" : "artist",
        "uri" : "spotify:artist:5OoNaL5KATvhjuct2YDOMa"
      } ],
      "disc_number" : 2,
      "duration_ms" : 227746,
      "explicit" : false,
      "external_ids" : {
        "isrc" : "DEPD41715313"
      },
      "external_urls" : {
        "spotify" : "https://open.spotify.com/track/5ZZksLDtlMvyJG1upIoMUR"
      },
      "href" : "https://api.spotify.com/v1/tracks/5ZZksLDtlMvyJG1upIoMUR",
      "id" : "5ZZksLDtlMvyJG1upIoMUR",
      "is_local" : false,
      "is_playable" : true,
      "name" : "Blest Be The Tie That Binds - Old Christian Worship Song",
      "popularity" : 9,
      "preview_url" : "https://p.scdn.co/mp3-preview/ab2206556fc7a67ad1b7dcea831886e6a376a0b2?cid=774b29d4f13844c495f206cafdad9c86",
      "track_number" : 1,
      "type" : "track",
      "uri" : "spotify:track:5ZZksLDtlMvyJG1upIoMUR"
    } ],
    "limit" : 10,
    "next" : "https://api.spotify.com/v1/search?query=Blest+Be+the+Tie+That+Binds&type=track&market=US&offset=15&limit=10",
    "offset" : 5,
    "previous" : "https://api.spotify.com/v1/search?query=Blest+Be+the+Tie+That+Binds&type=track&market=US&offset=0&limit=10",
    "total" : 126
  }
}