{
  "tracks" : {
    "href" : "https://api.spotify.com/v1/search?query=How+Lovely+Is+Thy+Dwelling+Place&type=track&market=US&offset=5&limit=10",
    "items" : [ {
      "album" : {
        "album_type" : "album",
        "artists" : [ {
          "external_urls" : {
            "spotify" : "https://open.spotify.com/artist/3Kr58AAIhwlDWPDMEW9Bzu"
          },
          "href" : "https://api.spotify.com/v1/artists/3Kr58AAIhwlDWPDMEW9Bzu",
          "id" : "3Kr58AAIhwlDWPDMEW9Bzu",
          "name" : "NYCYPCD",
          "type" : "artist",
          "uri" : "spotify:artist:3Kr58AAIhwlDWPDMEW9Bzu"
        } ],
        "external_urls" : {
          "spotify" : "https://open.spotify.com/album/4rFBhXjEdCoTnSLcEGQVsG"
        },
        "href" : "https://api.spotify.com/v1/albums/4rFBhXjEdCoTnSLcEGQVsG",
        "id" : "4rFBhXjEdCoTnSLcEGQVsG",
        "images" : [ {
          "height" : 640,
          "url" : "https://i.scdn.co/image/ab67616d0000b2738cc9311916552f8ff3a9619f",
          "width" : 640
        }, {
          "height" : 300,
          "url" : "https://i.scdn.co/image/ab67616d00001e028cc9311916552f8ff3a9619f",
          "width" : 300
        }, {
          "height" : 64,
          "url" : "https://i.scdn.co/image/ab67616d000048518cc9311916552f8ff3a9619f",
          "width" : 64
        } ],
        "name" : "How Lovely Is Thy Dwelling Place",
        "release_date" : "2015-03-15",
        "release_date_precision" : "day",
        "total_tracks" : 14,
        "type" : "album",
        "uri" : "spotify:album:4rFBhXjEdCoTnSLcEGQVsG"
      },
      "artists" : [ {
        "external_urls" : {
          "spotify" : "https://open.spotify.com/artist/3Kr58AAIhwlDWPDMEW9Bzu"
        },
        "href" : "https://api.spotify.com/v1/artists/3Kr58AAIhwlDWPDMEW9Bzu",
        "id" : "3Kr58AAIhwlDWPDMEW9Bzu",
        "name" : "NYCYPCD",
        "type" : "artist",
        "uri" : "spotify:artist:3Kr58AAIhwlDWPDMEW9Bzu"
      } ],
      "disc_number" : 1,
      "duration_ms" : 247200,
      "explicit" : false,
      "external_ids" : {
        "isrc" : "TCACE1559146"
      },
      "external_urls" : {
        "spotify" : "https://open.spotify.com/track/0BhRbnGqEVqxswyFjDFHor"
      },
      "href" : "https://api.spotify.com/v1/tracks/0BhRbnGqEVqxswyFjDFHor",
      "id" : "0BhRbnGqEVqxswyFjDFHor",
      "is_local" : false,
      "is_playable" : true,
      "name" : "Where Is the House",
      "popularity" : 12,
      "preview_url" : "https://p.scdn.co/mp3-preview/8f5df2ced45df75a1d8ff24767c8e7155157531a?cid=774b29d4f13844c495f206cafdad9c86",
      "track_number" : 2,
      "type" : "track",
      "uri" : "spotify:track:0BhRbnGqEVqxswyFjDFHor"
    }, {
      "album" : {
        "album_type" : "album",
        "artists" : [ {
          "external_urls" : {
            "spotify" : "https://open.spotify.com/artist/0daVGEYMVnQZ3NZIpIuFWn"
          },
          "href" : "https://api.spotify.com/v1/artists/0daVGEYMVnQZ3NZIpIuFWn",
          "id" : "0daVGEYMVnQZ3NZIpIuFWn",
          "name" : "The Cambridge Singers",
          "type" : "artist",
          "uri" : "spotify:artist:0daVGEYMVnQZ3NZIpIuFWn"
        }, {
          "external_urls" : {
            "spotify" : "https://open.spotify.com/artist/0qlhpgr87PEG89Jd5iRpxe"
          },
          "href" : "https://api.spotify.com/v1/artists/0qlhpgr87PEG89Jd5iRpxe",
          "id" : "0qlhpgr87PEG89Jd5iRpxe",
          "name" : "John Rutter",
          "type" : "artist",
          "uri" : "spotify:artist:0qlhpgr87PEG89Jd5iRpxe"
        } ],
        "external_urls" : {
          "spotify" : "https://open.spotify.com/album/1EbxP2aC9lpKRDk5lhcO5Y"
        },
        "href" : "https://api.spotify.com/v1/albums/1EbxP2aC9lpKRDk5lhcO5Y",
        "id" : "1EbxP2aC9lpKRDk5lhcO5Y",
        "images" : [ {
          "height" : 640,
          "url" : "https://i.scdn.co/image/ab67616d0000b273d71c4886cc09fa78f7b71bb6",
          "width" : 640
        }, {
          "height" : 300,
          "url" : "https://i.scdn.co/image/ab67616d00001e02d71c4886cc09fa78f7b71bb6",
          "width" : 300
        }, {
          "height" : 64,
          "url" : "https://i.scdn.co/image/ab67616d00004851d71c4886cc09fa78f7b71bb6",
          "width" : 64
        } ],
        "name" : "This is the Day: Music on Royal Occasions",
        "release_date" : "2012-04-24",
        "release_date_precision" : "day",
        "total_tracks" : 22,
        "type" : "album",
        "uri" : "spotify:album:1EbxP2aC9lpKRDk5lhcO5Y"
      },
      "artists" : [ {
        "external_urls" : {
          "spotify" : "https://open.spotify.com/artist/5wTAi7QkpP6kp8a54lmTOq"
        },
        "href" : "https://api.spotify.com/v1/artists/5wTAi7QkpP6kp8a54lmTOq",
        "id" : "5wTAi7QkpP6kp8a54lmTOq",
        "name" : "Johannes Brahms",
        "type" : "artist",
        "uri" : "spotify:artist:5wTAi7QkpP6kp8a54lmTOq"
      }, {
        "external_urls" : {
          "spotify" : "https://open.spotify.com/artist/0daVGEYMVnQZ3NZIpIuFWn"
        },
        "href" : "https://api.spotify.com/v1/artists/0daVGEYMVnQZ3NZIpIuFWn",
        "id" : "0daVGEYMVnQZ3NZIpIuFWn",
        "name" : "The Cambridge Singers",
        "type" : "artist",
        "uri" : "spotify:artist:0daVGEYMVnQZ3NZIpIuFWn"
      }, {
        "external_urls" : {
          "spotify" : "https://open.spotify.com/artist/0nrZ1B05azLrMkhTOFaoGJ"
        },
        "href" : "https://api.spotify.com/v1/artists/0nrZ1B05azLrMkhTOFaoGJ",
        "id" : "0nrZ1B05azLrMkhTOFaoGJ",
        "name" : "Aurora Orchestra",
        "type" : "artist",
        "uri" : "spotify:artist:0nrZ1B05azLrMkhTOFaoGJ"
      }, {
        "external_urls" : {
          "spotify" : "https://open.spotify.com/artist/0qlhpgr87PEG89Jd5iRpxe"
        },
        "href" : "https://api.spotify.com/v1/artists/0qlhpgr87PEG89Jd5iRpxe",
        "id" : "0qlhpgr87PEG89Jd5iRpxe",
        "name" : "John Rutter",
        "type" : "artist",
        "uri" : "spotify:artist:0qlhpgr87PEG89Jd5iRpxe"
      } ],
      "disc_number" : 1,
      "duration_ms" : 328893,
      "explicit" : false,
      "external_ids" : {
        "isrc" : "GBAKR1213604"
      },
      "external_urls" : {
        "spotify" : "https://open.spotify.com/track/1RHU8lWnFmppfwQv2zNtCK"
      },
      "href" : "https://api.spotify.com/v1/tracks/1RHU8lWnFmppfwQv2zNtCK",
      "id" : "1RHU8lWnFmppfwQv2zNtCK",
      "is_local" : false,
      "is_playable" : true,
      "name" : "Ein deutsches Requiem (A German Requiem), Op. 45: IV. How Lovely Is Thy Dwelling Place (Sung in English)",
      "popularity" : 12,
      "preview_url" : "https://p.scdn.co/mp3-preview/3dbfd35fc3819440772b75113724293ccac92d57?cid=774b29d4f13844c495f206cafdad9c86",
      "track_number" : 4,
      "type" : "track",
      "uri" : "spotify:track:1RHU8lWnFmppfwQv2zNtCK"
    }, {
      "album" : {
        "album_type" : "album",
        "artists" : [ {
          "external_urls" : {
            "spotify" : "https://open.spotify.com/artist/3Kr58AAIhwlDWPDMEW9Bzu"
          },
          "href" : "https://api.spotify.com/v1/artists/3Kr58AAIhwlDWPDMEW9Bzu",
          "id" : "3Kr58AAIhwlDWPDMEW9Bzu",
          "name" : "NYCYPCD",
          "type" : "artist",
          "uri" : "spotify:artist:3Kr58AAIhwlDWPDMEW9Bzu"
        } ],
        "external_urls" : {
          "spotify" : "https://open.spotify.com/album/4rFBhXjEdCoTnSLcEGQVsG"
        },
        "href" : "https://api.spotify.com/v1/albums/4rFBhXjEdCoTnSLcEGQVsG",
        "id" : "4rFBhXjEdCoTnSLcEGQVsG",
        "images" : [ {
          "height" : 640,
          "url" : "https://i.scdn.co/image/ab67616d0000b2738cc9311916552f8ff3a9619f",
          "width" : 640
        }, {
          "height" : 300,
          "url" : "https://i.scdn.co/image/ab67616d00001e028cc9311916552f8ff3a9619f",
          "width" : 300
        }, {
          "height" : 64,
          "url" : "https://i.scdn.co/image/ab67616d000048518cc9311916552f8ff3a9619f",
          "width" : 64
        } ],
        "name" : "How Lovely Is Thy Dwelling Place",
        "release_date" : "2015-03-15",
        "release_date_precision" : "day",
        "total_tracks" : 14,
        "type" : "album",
        "uri" : "spotify:album:4rFBhXjEdCoTnSLcEGQVsG"
      },
      "artists" : [ {
        "external_urls" : {
          "spotify" : "https://open.spotify.com/artist/3Kr58AAIhwlDWPDMEW9Bzu"
        },
        "href" : "https://api.spotify.com/v1/artists/3Kr58AAIhwlDWPDMEW9Bzu",
        "id" : "3Kr58AAIhwlDWPDMEW9Bzu",
        "name" : "NYCYPCD",
        "type" : "artist",
        "uri" : "spotify:artist:3Kr58AAIhwlDWPDMEW9Bzu"
      } ],
      "disc_number" : 1,
      "duration_ms" : 201266,
      "explicit" : false,
      "external_ids" : {
        "isrc" : "TCACE1559152"
      },
      "external_urls" : {
        "spotify" : "https://open.spotify.com/track/0TtuJV5zdEo39XZYrjPqeS"
      },
      "href" : "https://api.spotify.com/v1/tracks/0TtuJV5zdEo39XZYrjPqeS",
      "id" : "0TtuJV5zdEo39XZYrjPqeS",
      "is_local" : false,
      "is_playable" : true,
      "name" : "God's Central Work and Purpose",
      "popularity" : 10,
      "preview_url" : "https://p.scdn.co/mp3-preview/69eb169754d60918b7b8d15b2d1363639d754914?cid=774b29d4f13844c495f206cafdad9c86",
      "track_number" : 5,
      "type" : "track",
      "uri" : "spotify:track:0TtuJV5zdEo39XZYrjPqeS"
    }, {
      "album" : {
        "album_type" : "album",
        "artists" : [ {
          "external_urls" : {
            "spotify" : "https://open.spotify.com/artist/3Kr58AAIhwlDWPDMEW9Bzu"
          },
          "href" : "https://api.spotify.com/v1/artists/3Kr58AAIhwlDWPDMEW9Bzu",
          "id" : "3Kr58AAIhwlDWPDMEW9Bzu",
          "name" : "NYCYPCD",
          "type" : "artist",
          "uri" : "spotify:artist:3Kr58AAIhwlDWPDMEW9Bzu"
        } ],
        "external_urls" : {
          "spotify" : "https://open.spotify.com/album/4rFBhXjEdCoTnSLcEGQVsG"
        },
        "href" : "https://api.spotify.com/v1/albums/4rFBhXjEdCoTnSLcEGQVsG",
        "id" : "4rFBhXjEdCoTnSLcEGQVsG",
        "images" : [ {
          "height" : 640,
          "url" : "https://i.scdn.co/image/ab67616d0000b2738cc9311916552f8ff3a9619f",
          "width" : 640
        }, {
          "height" : 300,
          "url" : "https://i.scdn.co/image/ab67616d00001e028cc9311916552f8ff3a9619f",
          "width" : 300
        }, {
          "height" : 64,
          "url" : "https://i.scdn.co/image/ab67616d000048518cc9311916552f8ff3a9619f",
          "width" : 64
        } ],
        "name" : "How Lovely Is Thy Dwelling Place",
        "release_date" : "2015-03-15",
        "release_date_precision" : "day",
        "total_tracks" : 14,
        "type" : "album",
        "uri" : "spotify:album:4rFBhXjEdCoTnSLcEGQVsG"
      },
      "artists" : [ {
        "external_urls" : {
          "spotify" : "https://open.spotify.com/artist/3Kr58AAIhwlDWPDMEW9Bzu"
        },
        "href" : "https://api.spotify.com/v1/artists/3Kr58AAIhwlDWPDMEW9Bzu",
        "id" : "3Kr58AAIhwlDWPDMEW9Bzu",
        "name" : "NYCYPCD",
        "type" : "artist",
        "uri" : "spotify:artist:3Kr58AAIhwlDWPDMEW9Bzu"
      } ],
      "disc_number" : 1,
      "duration_ms" : 317386,
      "explicit" : false,
      "external_ids" : {
        "isrc" : "TCACE1559147"
      },
      "external_urls" : {
        "spotify" : "https://open.spotify.com/track/2ZY0Kwg4wdBJ4ZUOLJj7ms"
      },
      "href" : "https://api.spotify.com/v1/tracks/2ZY0Kwg4wdBJ4ZUOLJj7ms",
      "id" : "2ZY0Kwg4wdBJ4ZUOLJj7ms",
      "is_local" : false,
      "is_playable" : true,
      "name" : "How Lovely Is Thy Dwelling Place",
      "popularity" : 9,
      "preview_url" : "https://p.scdn.co/mp3-preview/217bd8868482376183cd6ddace38035f917c9874?cid=774b29d4f13844c495f206cafdad9c86",
      "track_number" : 3,
      "type" : "track",
      "uri" : "spotify:track:2ZY0Kwg4wdBJ4ZUOLJj7ms"
    }, {
      "album" : {
        "album_type" : "album",
        "artists" : [ {
          "external_urls" : {
            "spotify" : "https://open.spotify.com/artist/2yQZGNQJExPLfCB8kfTD88"
          },
          "href" : "https://api.spotify.com/v1/artists/2yQZGNQJExPLfCB8kfTD88",
          "id" : "2yQZGNQJExPLfCB8kfTD88",
          "name" : "Andrey Jackson",
          "type" : "artist",
          "uri" : "spotify:artist:2yQZGNQJExPLfCB8kfTD88"
        } ],
        "external_urls" : {
          "spotify" : "https://open.spotify.com/album/5T8mLM7OhBISZ2cxoRUNgG"
        },
        "href" : "https://api.spotify.com/v1/albums/5T8mLM7OhBISZ2cxoRUNgG",
        "id" : "5T8mLM7OhBISZ2cxoRUNgG",
        "images" : [ {
          "height" : 640,
          "url" : "https://i.scdn.co/image/ab67616d0000b2736d6b6b9e51f72d90a1acb9a4",
          "width" : 640
        }, {
          "height" : 300,
          "url" : "https://i.scdn.co/image/ab67616d00001e026d6b6b9e51f72d90a1acb9a4",
          "width" : 300
        }, {
          "height" : 64,
          "url" : "https://i.scdn.co/image/ab67616d000048516d6b6b9e51f72d90a1acb9a4",
          "width" : 64
        } ],
        "name" : "Christian Psalms, Vol. 1, Organ Accompaniments (The Church Organist Series)",
        "release_date" : "2015-10-23",
        "release_date_precision" : "day",
        "total_tracks" : 34,
        "type" : "album",
        "uri" : "spotify:album:5T8mLM7OhBISZ2cxoRUNgG"
      },
      "artists" : [ {
        "external_urls" : {
          "spotify" : "https://open.spotify.com/artist/2yQZGNQJExPLfCB8kfTD88"
        },
        "href" : "https://api.spotify.com/v1/artists/2yQZGNQJExPLfCB8kfTD88",
        "id" : "2yQZGNQJExPLfCB8kfTD88",
        "name" : "Andrey Jackson",
        "type" : "artist",
        "uri" : "spotify:artist:2yQZGNQJExPLfCB8kfTD88"
      } ],
      "disc_number" : 1,
      "duration_ms" : 126738,
      "explicit" : false,
      "external_ids" : {
        "isrc" : "GB-SMU-23-77580"
      },
      "external_urls" : {
        "spotify" : "https://open.spotify.com/track/18fAYDS0Gv7BnwOP7qWupi"
      },
      "href" : "https://api.spotify.com/v1/tracks/18fAYDS0Gv7BnwOP7qWupi",
      "id" : "18fAYDS0Gv7BnwOP7qWupi",
      "is_local" : false,
      "is_playable" : true,
      "name" : "How Lovely Is Thy Dwelling-Place",
      "popularity" : 4,
      "preview_url" : "https://p.scdn.co/mp3-preview/a96e40b60e5dc167f86fbf91b953c898e11123c5?cid=774b29d4f13844c495f206cafdad9c86",
      "track_number" : 32,
      "type" : "track",
      "uri" : "spotify:track:18fAYDS0Gv7BnwOP7qWupi"
    }, {
      "album" : {
        "album_type" : "album",
        "artists" : [ {
          "external_urls" : {
            "spotify" : "https://open.spotify.com/artist/3Kr58AAIhwlDWPDMEW9Bzu"
          },
          "href" : "https://api.spotify.com/v1/artists/3Kr58AAIhwlDWPDMEW9Bzu",
          "id" : "3Kr58AAIhwlDWPDMEW9Bzu",
          "name" : "NYCYPCD",
          "type" : "artist",
          "uri" : "spotify:artist:3Kr58AAIhwlDWPDMEW9Bzu"
        } ],
        "external_urls" : {
          "spotify" : "https://open.spotify.com/album/4rFBhXjEdCoTnSLcEGQVsG"
        },
        "href" : "https://api.spotify.com/v1/albums/4rFBhXjEdCoTnSLcEGQVsG",
        "id" : "4rFBhXjEdCoTnSLcEGQVsG",
        "images" : [ {
          "height" : 640,
          "url" : "https://i.scdn.co/image/ab67616d0000b2738cc9311916552f8ff3a9619f",
          "width" : 640
        }, {
          "height" : 300,
          "url" : "https://i.scdn.co/image/ab67616d00001e028cc9311916552f8ff3a9619f",
          "width" : 300
        }, {
          "height" : 64,
          "url" : "https://i.scdn.co/image/ab67616d000048518cc9311916552f8ff3a9619f",
          "width" : 64
        } ],
        "name" : "How Lovely Is Thy Dwelling Place",
        "release_date" : "2015-03-15",
        "release_date_precision" : "day",
        "total_tracks" : 14,
        "type" : "album",
        "uri" : "spotify:album:4rFBhXjEdCoTnSLcEGQVsG"
      },
      "artists" : [ {
        "external_urls" : {
          "spotify" : "https://open.spotify.com/artist/3Kr58AAIhwlDWPDMEW9Bzu"
        },
        "href" : "https://api.spotify.com/v1/artists/3Kr58AAIhwlDWPDMEW9Bzu",
        "id" : "3Kr58AAIhwlDWPDMEW9Bzu",
        "name" : "NYCYPCD",
        "type" : "artist",
        "uri" : "spotify:artist:3Kr58AAIhwlDWPDMEW9Bzu"
      } ],
      "disc_number" : 1,
      "duration_ms" : 177520,
      "explicit" : false,
      "external_ids" : {
        "isrc" : "TCACE1559158"
      },
      "external_urls" : {
        "spotify" : "https://open.spotify.com/track/7BQaP0GdkdwcM67urhQI9L"
      },
      "href" : "https://api.spotify.com/v1/tracks/7BQaP0GdkdwcM67urhQI9L",
      "id" : "7BQaP0GdkdwcM67urhQI9L",
      "is_local" : false,
      "is_playable" : true,
      "name" : "How Oft Believers Through the Years",
      "popularity" : 8,
      "preview_url" : "https://p.scdn.co/mp3-preview/37da0dd2e41177b3f6d9b0907e66afe8e7265166?cid=774b29d4f13844c495f206cafdad9c86",
      "track_number" : 8,
      "type" : "track",
      "uri" : "spotify:track:7BQaP0GdkdwcM67urhQI9L"
    }, {
      "album" : {
        "album_type" : "album",
        "artists" : [ {
          "external_urls" : {
            "spotify" : "https://open.spotify.com/artist/3Kr58AAIhwlDWPDMEW9Bzu"
          },
          "href" : "https://api.spotify.com/v1/artists/3Kr58AAIhwlDWPDMEW9Bzu",
          "id" : "3Kr58AAIhwlDWPDMEW9Bzu",
          "name" : "NYCYPCD",
          "type" : "artist",
          "uri" : "spotify:artist:3Kr58AAIhwlDWPDMEW9Bzu"
        } ],
        "external_urls" : {
          "spotify" : "https://open.spotify.com/album/4rFBhXjEdCoTnSLcEGQVsG"
        },
        "href" : "https://api.spotify.com/v1/albums/4rFBhXjEdCoTnSLcEGQVsG",
        "id" : "4rFBhXjEdCoTnSLcEGQVsG",
        "images" : [ {
          "height" : 640,
          "url" : "https://i.scdn.co/image/ab67616d0000b2738cc9311916552f8ff3a9619f",
          "width" : 640
        }, {
          "height" : 300,
          "url" : "https://i.scdn.co/image/ab67616d00001e028cc9311916552f8ff3a9619f",
          "width" : 300
        }, {
          "height" : 64,
          "url" : "https://i.scdn.co/image/ab67616d000048518cc9311916552f8ff3a9619f",
          "width" : 64
        } ],
        "name" : "How Lovely Is Thy Dwelling Place",
        "release_date" : "2015-03-15",
        "release_date_precision" : "day",
        "total_tracks" : 14,
        "type" : "album",
        "uri" : "spotify:album:4rFBhXjEdCoTnSLcEGQVsG"
      },
      "artists" : [ {
        "external_urls" : {
          "spotify" : "https://open.spotify.com/artist/3Kr58AAIhwlDWPDMEW9Bzu"
        },
        "href" : "https://api.spotify.com/v1/artists/3Kr58AAIhwlDWPDMEW9Bzu",
        "id" : "3Kr58AAIhwlDWPDMEW9Bzu",
        "name" : "NYCYPCD",
        "type" : "artist",
        "uri" : "spotify:artist:3Kr58AAIhwlDWPDMEW9Bzu"
      } ],
      "disc_number" : 1,
      "duration_ms" : 218466,
      "explicit" : false,
      "external_ids" : {
        "isrc" : "TCACE1559167"
      },
      "external_urls" : {
        "spotify" : "https://open.spotify.com/track/5QTgMpOQl2q4BgUSsf8EkV"
      },
      "href" : "https://api.spotify.com/v1/tracks/5QTgMpOQl2q4BgUSsf8EkV",
      "id" : "5QTgMpOQl2q4BgUSsf8EkV",
      "is_local" : false,
      "is_playable" : true,
      "name" : "Praise to the Lord, the Almighty",
      "popularity" : 9,
      "preview_url" : "https://p.scdn.co/mp3-preview/0647696a0d1bc9f3890cba7753ff9a2418f16e5e?cid=774b29d4f13844c495f206cafdad9c86",
      "track_number" : 13,
      "type" : "track",
      "uri" : "spotify:track:5QTgMpOQl2q4BgUSsf8EkV"
    }, {
      "album" : {
        "album_type" : "album",
        "artists" : [ {
          "external_urls" : {
            "spotify" : "https://open.spotify.com/artist/3Kr58AAIhwlDWPDMEW9Bzu"
          },
          "href" : "https://api.spotify.com/v1/artists/3Kr58AAIhwlDWPDMEW9Bzu",
          "id" : "3Kr58AAIhwlDWPDMEW9Bzu",
          "name" : "NYCYPCD",
          "type" : "artist",
          "uri" : "spotify:artist:3Kr58AAIhwlDWPDMEW9Bzu"
        } ],
        "external_urls" : {
          "spotify" : "https://open.spotify.com/album/4rFBhXjEdCoTnSLcEGQVsG"
        },
        "href" : "https://api.spotify.com/v1/albums/4rFBhXjEdCoTnSLcEGQVsG",
        "id" : "4rFBhXjEdCoTnSLcEGQVsG",
        "images" : [ {
          "height" : 640,
          "url" : "https://i.scdn.co/image/ab67616d0000b2738cc9311916552f8ff3a9619f",
          "width" : 640
        }, {
          "height" : 300,
          "url" : "https://i.scdn.co/image/ab67616d00001e028cc9311916552f8ff3a9619f",
          "width" : 300
        }, {
          "height" : 64,
          "url" : "https://i.scdn.co/image/ab67616d000048518cc9311916552f8ff3a9619f",
          "width" : 64
        } ],
        "name" : "How Lovely Is Thy Dwelling Place",
        "release_date" : "2015-03-15",
        "release_date_precision" : "day",
        "total_tracks" : 14,
        "type" : "album",
        "uri" : "spotify:album:4rFBhXjEdCoTnSLcEGQVsG"
      },
      "artists" : [ {
        "external_urls" : {
          "spotify" : "https://open.spotify.com/artist/3Kr58AAIhwlDWPDMEW9Bzu"
        },
        "href" : "https://api.spotify.com/v1/artists/3Kr58AAIhwlDWPDMEW9Bzu",
        "id" : "3Kr58AAIhwlDWPDMEW9Bzu",
        "name" : "NYCYPCD",
        "type" : "artist",
        "uri" : "spotify:artist:3Kr58AAIhwlDWPDMEW9Bzu"
      } ],
      "disc_number" : 1,
      "duration_ms" : 237520,
      "explicit" : false,
      "external_ids" : {
        "isrc" : "TCACE1559154"
      },
      "external_urls" : {
        "spotify" : "https://open.spotify.com/track/7Agyignr7kN9FJ3P8OjQGj"
      },
      "href" : "https://api.spotify.com/v1/tracks/7Agyignr7kN9FJ3P8OjQGj",
      "id" : "7Agyignr7kN9FJ3P8OjQGj",
      "is_local" : false,
      "is_playable" : true,
      "name" : "Thy Dwelling Place O Lord I Love",
      "popularity" : 8,
      "preview_url" : "https://p.scdn.co/mp3-preview/3662af1c28cda57daf958fec1ecb16ca1360fe25?cid=774b29d4f13844c495f206cafdad9c86",
      "track_number" : 6,
      "type" : "track",
      "uri" : "spotify:track:7Agyignr7kN9FJ3P8OjQGj"
    }, {
      "album" : {
        "album_type" : "album",
        "artists" : [ {
          "external_urls" : {
            "spotify" : "https://open.spotify.com/artist/3Kr58AAIhwlDWPDMEW9Bzu"
          },
          "href" : "https://api.spotify.com/v1/artists/3Kr58AAIhwlDWPDMEW9Bzu",
          "id" : "3Kr58AAIhwlDWPDMEW9Bzu",
          "name" : "NYCYPCD",
          "type" : "artist",
          "uri" : "spotify:artist:3Kr58AAIhwlDWPDMEW9Bzu"
        } ],
        "external_urls" : {
          "spotify" : "https://open.spotify.com/album/4rFBhXjEdCoTnSLcEGQVsG"
        },
        "href" : "https://api.spotify.com/v1/albums/4rFBhXjEdCoTnSLcEGQVsG",
        "id" : "4rFBhXjEdCoTnSLcEGQVsG",
        "images" : [ {
          "height" : 640,
          "url" : "https://i.scdn.co/image/ab67616d0000b2738cc9311916552f8ff3a9619f",
          "width" : 640
        }, {
          "height" : 300,
          "url" : "https://i.scdn.co/image/ab67616d00001e028cc9311916552f8ff3a9619f",
          "width" : 300
        }, {
          "height" : 64,
          "url" : "https://i.scdn.co/image/ab67616d000048518cc9311916552f8ff3a9619f",
          "width" : 64
        } ],
        "name" : "How Lovely Is Thy Dwelling Place",
        "release_date" : "2015-03-15",
        "release_date_precision" : "day",
        "total_tracks" : 14,
        "type" : "album",
        "uri" : "spotify:album:4rFBhXjEdCoTnSLcEGQVsG"
      },
      "artists" : [ {
        "external_urls" : {
          "spotify" : "https://open.spotify.com/artist/3Kr58AAIhwlDWPDMEW9Bzu"
        },
        "href" : "https://api.spotify.com/v1/artists/3Kr58AAIhwlDWPDMEW9Bzu",
        "id" : "3Kr58AAIhwlDWPDMEW9Bzu",
        "name" : "NYCYPCD",
        "type" : "artist",
        "uri" : "spotify:artist:3Kr58AAIhwlDWPDMEW9Bzu"
      } ],
      "disc_number" : 1,
      "duration_ms" : 263880,
      "explicit" : false,
      "external_ids" : {
        "isrc" : "TCACE1559145"
      },
      "external_urls" : {
        "spotify" : "https://open.spotify.com/track/5HXbY7jNq9jSmssamKXfXw"
      },
      "href" : "https://api.spotify.com/v1/tracks/5HXbY7jNq9jSmssamKXfXw",
      "id" : "5HXbY7jNq9jSmssamKXfXw",
      "is_local" : false,
      "is_playable" : true,
      "name" : "Lord, Thou Art a Potter Skilled",
      "popularity" : 9,
      "preview_url" : "https://p.scdn.co/mp3-preview/383ef0d3fecb17577a888e6926c31a4a9b30e480?cid=774b29d4f13844c495f206cafdad9c86",
      "track_number" : 1,
      "type" : "track",
      "uri" : "spotify:track:5HXbY7jNq9jSmssamKXfXw"
    }, {
      "album" : {
        "album_type" : "album",
        "artists" : [ {
          "external_urls" : {
            "spotify" : "https://open.spotify.com/artist/3Kr58AAIhwlDWPDMEW9Bzu"
          },
          "href" : "https://api.spotify.com/v1/artists/3Kr58AAIhwlDWPDMEW9Bzu",
          "id" : "3Kr58AAIhwlDWPDMEW9Bzu",
          "name" : "NYCYPCD",
          "type" : "artist",
          "uri" : "spotify:artist:3Kr58AAIhwlDWPDMEW9Bzu"
        } ],
        "external_urls" : {
          "spotify" : "https://open.spotify.com/album/4rFBhXjEdCoTnSLcEGQVsG"
        },
        "href" : "https://api.spotify.com/v1/albums/4rFBhXjEdCoTnSLcEGQVsG",
        "id" : "4rFBhXjEdCoTnSLcEGQVsG",
        "images" : [ {
          "height" : 640,
          "url" : "https://i.scdn.co/image/ab67616d0000b2738cc9311916552f8ff3a9619f",
          "width" : 640
        }, {
          "height" : 300,
          "url" : "https://i.scdn.co/image/ab67616d00001e028cc9311916552f8ff3a9619f",
          "width" : 300
        }, {
          "height" : 64,
          "url" : "https://i.scdn.co/image/ab67616d000048518cc9311916552f8ff3a9619f",
          "width" : 64
        } ],
        "name" : "How Lovely Is Thy Dwelling Place",
        "release_date" : "2015-03-15",
        "release_date_precision" : "day",
        "total_tracks" : 14,
        "type" : "album",
        "uri" : "spotify:album:4rFBhXjEdCoTnSLcEGQVsG"
      },
      "artists" : [ {
        "external_urls" : {
          "spotify" : "https://open.spotify.com/artist/3Kr58AAIhwlDWPDMEW9Bzu"
        },
        "href" : "https://api.spotify.com/v1/artists/3Kr58AAIhwlDWPDMEW9Bzu",
        "id" : "3Kr58AAIhwlDWPDMEW9Bzu",
        "name" : "NYCYPCD",
        "type" : "artist",
        "uri" : "spotify:artist:3Kr58AAIhwlDWPDMEW9Bzu"
      } ],
      "disc_number" : 1,
      "duration_ms" : 163293,
      "explicit" : false,
      "external_ids" : {
        "isrc" : "TCACE1559155"
      },
      "external_urls" : {
        "spotify" : "https://open.spotify.com/track/5prdhf0Cx5mhkQFjNZm7nv"
      },
      "href" : "https://api.spotify.com/v1/tracks/5prdhf0Cx5mhkQFjNZm7nv",
      "id" : "5prdhf0Cx5mhkQFjNZm7nv",
      "is_local" : false,
      "is_playable" : true,
      "name" : "Oneness",
      "popularity" : 10,
      "preview_url" : "https://p.scdn.co/mp3-preview/bed4228c333c3cd4f377465bc9fcf1b7f833b96e?cid=774b29d4f13844c495f206cafdad9c86",
      "track_number" : 7,
      "type" : "track",
      "uri" : "spotify:track:5prdhf0Cx5mhkQFjNZm7nv"
    } ],
    "limit" : 10,
    "next" : "https://api.spotify.com/v1/search?query=How+Lovely+Is+Thy+Dwelling+Place&type=track&market=US&offset=15&limit=10",
    "offset" : 5,
    "previous" : "https://api.spotify.com/v1/search?query=How+Lovely+Is+Thy+Dwelling+Place&type=track&market=US&offset=0&limit=10",
    "total" : 59
  }
}