{
  "tracks" : {
    "href" : "https://api.spotify.com/v1/search?query=Be+Still%2C+My+Soul&type=track&market=US&offset=5&limit=10",
    "items" : [ {
      "album" : {
        "album_type" : "album",
        "artists" : [ {
          "external_urls" : {
            "spotify" : "https://open.spotify.com/artist/7zbq3gjHu4JAiMV7dWbUdv"
          },
          "href" : "https://api.spotify.com/v1/artists/7zbq3gjHu4JAiMV7dWbUdv",
          "id" : "7zbq3gjHu4JAiMV7dWbUdv",
          "name" : "David Nevue",
          "type" : "artist",
          "uri" : "spotify:artist:7zbq3gjHu4JAiMV7dWbUdv"
        } ],
        "external_urls" : {
          "spotify" : "https://open.spotify.com/album/5bc6WPPQfnqx5tgKuTQrlo"
        },
        "href" : "https://api.spotify.com/v1/albums/5bc6WPPQfnqx5tgKuTQrlo",
        "id" : "5bc6WPPQfnqx5tgKuTQrlo",
        "images" : [ {
          "height" : 640,
          "url" : "https://i.scdn.co/image/ab67616d0000b27311f4bb63adbe5e666015e0af",
          "width" : 640
        }, {
          "height" : 300,
          "url" : "https://i.scdn.co/image/ab67616d00001e0211f4bb63adbe5e666015e0af",
          "width" : 300
        }, {
          "height" : 64,
          "url" : "https://i.scdn.co/image/ab67616d0000485111f4bb63adbe5e666015e0af",
          "width" : 64
        } ],
        "name" : "Adoration: Solo Piano Hymns",
        "release_date" : "2007-11-28",
        "release_date_precision" : "day",
        "total_tracks" : 15,
        "type" : "album",
        "uri" : "spotify:album:5bc6WPPQfnqx5tgKuTQrlo"
      },
      "artists" : [ {
        "external_urls" : {
          "spotify" : "https://open.spotify.com/artist/7zbq3gjHu4JAiMV7dWbUdv"
        },
        "href" : "https://api.spotify.com/v1/artists/7zbq3gjHu4JAiMV7dWbUdv",
        "id" : "7zbq3gjHu4JAiMV7dWbUdv",
        "name" : "David Nevue",
        "type" : "artist",
        "uri" : "spotify:artist:7zbq3gjHu4JAiMV7dWbUdv"
      } ],
      "disc_number" : 1,
      "duration_ms" : 209960,
      "explicit" : false,
      "external_ids" : {
        "isrc" : "usl4q0775310"
      },
      "external_urls" : {
        "spotify" : "https://open.spotify.com/track/0jlSTsjI0nxCDALuYAQjHv"
      },
      "href" : "https://api.spotify.com/v1/tracks/0jlSTsjI0nxCDALuYAQjHv",
      "id" : "0jlSTsjI0nxCDALuYAQjHv",
      "is_local" : false,
      "is_playable" : true,
      "name" : "Be Still My Soul",
      "popularity" : 35,
      "preview_url" : "https://p.scdn.co/mp3-preview/c6eae3d8117066bac9b9ab1ee2e5bd9afac10217?cid=774b29d4f13844c495f206cafdad9c86",
      "track_number" : 10,
      "type" : "track",
      "uri" : "spotify:track:0jlSTsjI0nxCDALuYAQjHv"
    }, {
      "album" : {
        "album_type" : "album",
        "artists" : [ {
          "external_urls" : {
            "spotify" : "https://open.spotify.com/artist/5zhxxb24WP6q6rbLHAn2UQ"
          },
          "href" : "https://api.spotify.com/v1/artists/5zhxxb24WP6q6rbLHAn2UQ",
          "id" : "5zhxxb24WP6q6rbLHAn2UQ",
          "name" : "BYU Vocal Point",
          "type" : "artist",
          "uri" : "spotify:artist:5zhxxb24WP6q6rbLHAn2UQ"
        } ],
        "external_urls" : {
          "spotify" : "https://open.spotify.com/album/2lebc92AdkZlPsKtaaov6M"
        },
        "href" : "https://api.spotify.com/v1/albums/2lebc92AdkZlPsKtaaov6M",
        "id" : "2lebc92AdkZlPsKtaaov6M",
        "images" : [ {
          "height" : 640,
          "url" : "https://i.scdn.co/image/ab67616d0000b273028ae8db967f3e674f3274e3",
          "width" : 640
        }, {
          "height" : 300,
          "url" : "https://i.scdn.co/image/ab67616d00001e02028ae8db967f3e674f3274e3",
          "width" : 300
        }, {
          "height" : 64,
          "url" : "https://i.scdn.co/image/ab67616d00004851028ae8db967f3e674f3274e3",
          "width" : 64
        } ],
        "name" : "Lead Thou Me On: Hymns and Inspiration",
        "release_date" : "2014-05-20",
        "release_date_precision" : "day",
        "total_tracks" : 13,
        "type" : "album",
        "uri" : "spotify:album:2lebc92AdkZlPsKtaaov6M"
      },
      "artists" : [ {
        "external_urls" : {
          "spotify" : "https://open.spotify.com/artist/5zhxxb24WP6q6rbLHAn2UQ"
        },
        "href" : "https://api.spotify.com/v1/artists/5zhxxb24WP6q6rbLHAn2UQ",
        "id" : "5zhxxb24WP6q6rbLHAn2UQ",
        "name" : "BYU Vocal Point",
        "type" : "artist",
        "uri" : "spotify:artist:5zhxxb24WP6q6rbLHAn2UQ"
      } ],
      "disc_number" : 1,
      "duration_ms" : 259491,
      "explicit" : false,
      "external_ids" : {
        "isrc" : "QMRB31200033"
      },
      "external_urls" : {
        "spotify" : "https://open.spotify.com/track/6hziCfDp9tDqp98wQR3TQz"
      },
      "href" : "https://api.spotify.com/v1/tracks/6hziCfDp9tDqp98wQR3TQz",
      "id" : "6hziCfDp9tDqp98wQR3TQz",
      "is_local" : false,
      "is_playable" : true,
      "name" : "Be Still, My Soul (Arr. Michael R. Hicks)",
      "popularity" : 36,
      "preview_url" : "https://p.scdn.co/mp3-preview/dd81c8c0c7b62524278cfa8a40bee52324bf4866?cid=774b29d4f13844c495f206cafdad9c86",
      "track_number" : 8,
      "type" : "track",
      "uri" : "spotify:track:6hziCfDp9tDqp98wQR3TQz"
    }, {
      "album" : {
        "album_type" : "album",
        "artists" : [ {
          "external_urls" : {
            "spotify" : "https://open.spotify.com/artist/2C9n4tQgNLhHPhSCmdsQnk"
          },
          "href" : "https://api.spotify.com/v1/artists/2C9n4tQgNLhHPhSCmdsQnk",
          "id" : "2C9n4tQgNLhHPhSCmdsQnk",
          "name" : "David Archuleta",
          "type" : "artist",
          "uri" : "spotify:artist:2C9n4tQgNLhHPhSCmdsQnk"
        } ],
        "external_urls" : {
          "spotify" : "https://open.spotify.com/album/1ATOj3tfQ2oJiqDyyzbpOR"
        },
        "href" : "https://api.spotify.com/v1/albums/1ATOj3tfQ2oJiqDyyzbpOR",
        "id" : "1ATOj3tfQ2oJiqDyyzbpOR",
        "images" : [ {
          "height" : 640,
          "url" : "https://i.scdn.co/image/ab67616d0000b2736806bd989dc988325a0991a1",
          "width" : 640
        }, {
          "height" : 300,
          "url" : "https://i.scdn.co/image/ab67616d00001e026806bd989dc988325a0991a1",
          "width" : 300
        }, {
          "height" : 64,
          "url" : "https://i.scdn.co/image/ab67616d000048516806bd989dc988325a0991a1",
          "width" : 64
        } ],
        "name" : "Begin.",
        "release_date" : "2012-08-07",
        "release_date_precision" : "day",
        "total_tracks" : 10,
        "type" : "album",
        "uri" : "spotify:album:1ATOj3tfQ2oJiqDyyzbpOR"
      },
      "artists" : [ {
        "external_urls" : {
          "spotify" : "https://open.spotify.com/artist/2C9n4tQgNLhHPhSCmdsQnk"
        },
        "href" : "https://api.spotify.com/v1/artists/2C9n4tQgNLhHPhSCmdsQnk",
        "id" : "2C9n4tQgNLhHPhSCmdsQnk",
        "name" : "David Archuleta",
        "type" : "artist",
        "uri" : "spotify:artist:2C9n4tQgNLhHPhSCmdsQnk"
      } ],
      "disc_number" : 1,
      "duration_ms" : 299560,
      "explicit" : false,
      "external_ids" : {
        "isrc" : "US23M1221134"
      },
      "external_urls" : {
        "spotify" : "https://open.spotify.com/track/4TqgHe1684YPJUWoaZAuFm"
      },
      "href" : "https://api.spotify.com/v1/tracks/4TqgHe1684YPJUWoaZAuFm",
      "id" : "4TqgHe1684YPJUWoaZAuFm",
      "is_local" : false,
      "is_playable" : true,
      "name" : "Be Still, My Soul",
      "popularity" : 34,
      "preview_url" : "https://p.scdn.co/mp3-preview/1413dde8ccd259d9fb2b6487a4d52c1d2c936b30?cid=774b29d4f13844c495f206cafdad9c86",
      "track_number" : 10,
      "type" : "track",
      "uri" : "spotify:track:4TqgHe1684YPJUWoaZAuFm"
    }, {
      "album" : {
        "album_type" : "compilation",
        "artists" : [ {
          "external_urls" : {
            "spotify" : "https://open.spotify.com/artist/37jKFfAIHyQolYpr9fu0Eu"
          },
          "href" : "https://api.spotify.com/v1/artists/37jKFfAIHyQolYpr9fu0Eu",
          "id" : "37jKFfAIHyQolYpr9fu0Eu",
          "name" : "Michael R. Hicks",
          "type" : "artist",
          "uri" : "spotify:artist:37jKFfAIHyQolYpr9fu0Eu"
        } ],
        "external_urls" : {
          "spotify" : "https://open.spotify.com/album/1u4xN4S0ZJBPpFAv9UViNb"
        },
        "href" : "https://api.spotify.com/v1/albums/1u4xN4S0ZJBPpFAv9UViNb",
        "id" : "1u4xN4S0ZJBPpFAv9UViNb",
        "images" : [ {
          "height" : 640,
          "url" : "https://i.scdn.co/image/ab67616d0000b273d40e10e016ab0e51725966ff",
          "width" : 640
        }, {
          "height" : 300,
          "url" : "https://i.scdn.co/image/ab67616d00001e02d40e10e016ab0e51725966ff",
          "width" : 300
        }, {
          "height" : 64,
          "url" : "https://i.scdn.co/image/ab67616d00004851d40e10e016ab0e51725966ff",
          "width" : 64
        } ],
        "name" : "I Know He Lives",
        "release_date" : "2003",
        "release_date_precision" : "year",
        "total_tracks" : 9,
        "type" : "album",
        "uri" : "spotify:album:1u4xN4S0ZJBPpFAv9UViNb"
      },
      "artists" : [ {
        "external_urls" : {
          "spotify" : "https://open.spotify.com/artist/1s8R3Xn3WWr55HaQbemsjF"
        },
        "href" : "https://api.spotify.com/v1/artists/1s8R3Xn3WWr55HaQbemsjF",
        "id" : "1s8R3Xn3WWr55HaQbemsjF",
        "name" : "Eclipse",
        "type" : "artist",
        "uri" : "spotify:artist:1s8R3Xn3WWr55HaQbemsjF"
      } ],
      "disc_number" : 1,
      "duration_ms" : 269893,
      "explicit" : false,
      "external_ids" : {
        "isrc" : "usl4q0793918"
      },
      "external_urls" : {
        "spotify" : "https://open.spotify.com/track/05ICDDsGzb6nZvu7lHIEHM"
      },
      "href" : "https://api.spotify.com/v1/tracks/05ICDDsGzb6nZvu7lHIEHM",
      "id" : "05ICDDsGzb6nZvu7lHIEHM",
      "is_local" : false,
      "is_playable" : true,
      "name" : "Be Still, My Soul",
      "popularity" : 32,
      "preview_url" : "https://p.scdn.co/mp3-preview/75be01ad9f19e6705b33fc9b1fa82d6eefcf7d08?cid=774b29d4f13844c495f206cafdad9c86",
      "track_number" : 7,
      "type" : "track",
      "uri" : "spotify:track:05ICDDsGzb6nZvu7lHIEHM"
    }, {
      "album" : {
        "album_type" : "album",
        "artists" : [ {
          "external_urls" : {
            "spotify" : "https://open.spotify.com/artist/0289SkqAn0iOohwm0pIHv3"
          },
          "href" : "https://api.spotify.com/v1/artists/0289SkqAn0iOohwm0pIHv3",
          "id" : "0289SkqAn0iOohwm0pIHv3",
          "name" : "Pat Barrett",
          "type" : "artist",
          "uri" : "spotify:artist:0289SkqAn0iOohwm0pIHv3"
        } ],
        "external_urls" : {
          "spotify" : "https://open.spotify.com/album/0aN0xAIaYHQDj63QrgvJJ5"
        },
        "href" : "https://api.spotify.com/v1/albums/0aN0xAIaYHQDj63QrgvJJ5",
        "id" : "0aN0xAIaYHQDj63QrgvJJ5",
        "images" : [ {
          "height" : 640,
          "url" : "https://i.scdn.co/image/ab67616d0000b273fcdbed53e368744ac7255556",
          "width" : 640
        }, {
          "height" : 300,
          "url" : "https://i.scdn.co/image/ab67616d00001e02fcdbed53e368744ac7255556",
          "width" : 300
        }, {
          "height" : 64,
          "url" : "https://i.scdn.co/image/ab67616d00004851fcdbed53e368744ac7255556",
          "width" : 64
        } ],
        "name" : "Pat Barrett",
        "release_date" : "2018-07-20",
        "release_date_precision" : "day",
        "total_tracks" : 12,
        "type" : "album",
        "uri" : "spotify:album:0aN0xAIaYHQDj63QrgvJJ5"
      },
      "artists" : [ {
        "external_urls" : {
          "spotify" : "https://open.spotify.com/artist/0289SkqAn0iOohwm0pIHv3"
        },
        "href" : "https://api.spotify.com/v1/artists/0289SkqAn0iOohwm0pIHv3",
        "id" : "0289SkqAn0iOohwm0pIHv3",
        "name" : "Pat Barrett",
        "type" : "artist",
        "uri" : "spotify:artist:0289SkqAn0iOohwm0pIHv3"
      } ],
      "disc_number" : 1,
      "duration_ms" : 222533,
      "explicit" : false,
      "external_ids" : {
        "isrc" : "USUM71807748"
      },
      "external_urls" : {
        "spotify" : "https://open.spotify.com/track/7xgo4GzCSsXNVZqGOQI4EM"
      },
      "href" : "https://api.spotify.com/v1/tracks/7xgo4GzCSsXNVZqGOQI4EM",
      "id" : "7xgo4GzCSsXNVZqGOQI4EM",
      "is_local" : false,
      "is_playable" : true,
      "name" : "Be Still My Soul",
      "popularity" : 32,
      "preview_url" : null,
      "track_number" : 7,
      "type" : "track",
      "uri" : "spotify:track:7xgo4GzCSsXNVZqGOQI4EM"
    }, {
      "album" : {
        "album_type" : "album",
        "artists" : [ {
          "external_urls" : {
            "spotify" : "https://open.spotify.com/artist/5dZiRoY9Vpp6qrxqXNRwPE"
          },
          "href" : "https://api.spotify.com/v1/artists/5dZiRoY9Vpp6qrxqXNRwPE",
          "id" : "5dZiRoY9Vpp6qrxqXNRwPE",
          "name" : "Selah",
          "type" : "artist",
          "uri" : "spotify:artist:5dZiRoY9Vpp6qrxqXNRwPE"
        } ],
        "external_urls" : {
          "spotify" : "https://open.spotify.com/album/0Db1d5xscMf4bZnZePFHfJ"
        },
        "href" : "https://api.spotify.com/v1/albums/0Db1d5xscMf4bZnZePFHfJ",
        "id" : "0Db1d5xscMf4bZnZePFHfJ",
        "images" : [ {
          "height" : 640,
          "url" : "https://i.scdn.co/image/ab67616d0000b273fd46e58f911f51ecf82d4b79",
          "width" : 640
        }, {
          "height" : 300,
          "url" : "https://i.scdn.co/image/ab67616d00001e02fd46e58f911f51ecf82d4b79",
          "width" : 300
        }, {
          "height" : 64,
          "url" : "https://i.scdn.co/image/ab67616d00004851fd46e58f911f51ecf82d4b79",
          "width" : 64
        } ],
        "name" : "Be Still My Soul",
        "release_date" : "1998-09-01",
        "release_date_precision" : "day",
        "total_tracks" : 11,
        "type" : "album",
        "uri" : "spotify:album:0Db1d5xscMf4bZnZePFHfJ"
      },
      "artists" : [ {
        "external_urls" : {
          "spotify" : "https://open.spotify.com/artist/5dZiRoY9Vpp6qrxqXNRwPE"
        },
        "href" : "https://api.spotify.com/v1/artists/5dZiRoY9Vpp6qrxqXNRwPE",
        "id" : "5dZiRoY9Vpp6qrxqXNRwPE",
        "name" : "Selah",
        "type" : "artist",
        "uri" : "spotify:artist:5dZiRoY9Vpp6qrxqXNRwPE"
      } ],
      "disc_number" : 1,
      "duration_ms" : 234253,
      "explicit" : false,
      "external_ids" : {
        "isrc" : "USCRB9800054"
      },
      "external_urls" : {
        "spotify" : "https://open.spotify.com/track/5vGWrPM9kiCsJV2WUZ8wxJ"
      },
      "href" : "https://api.spotify.com/v1/tracks/5vGWrPM9kiCsJV2WUZ8wxJ",
      "id" : "5vGWrPM9kiCsJV2WUZ8wxJ",
      "is_local" : false,
      "is_playable" : true,
      "name" : "Be Still My Soul / What A Friend We Have In Jesus",
      "popularity" : 34,
      "preview_url" : "https://p.scdn.co/mp3-preview/dd218bc7de374ca8210c52b19b2f13ecba815b29?cid=774b29d4f13844c495f206cafdad9c86",
      "track_number" : 2,
      "type" : "track",
      "uri" : "spotify:track:5vGWrPM9kiCsJV2WUZ8wxJ"
    }, {
      "album" : {
        "album_type" : "album",
        "artists" : [ {
          "external_urls" : {
            "spotify" : "https://open.spotify.com/artist/4sk2zZdhVRMhb1BEtcxUKf"
          },
          "href" : "https://api.spotify.com/v1/artists/4sk2zZdhVRMhb1BEtcxUKf",
          "id" : "4sk2zZdhVRMhb1BEtcxUKf",
          "name" : "GENTRI",
          "type" : "artist",
          "uri" : "spotify:artist:4sk2zZdhVRMhb1BEtcxUKf"
        } ],
        "external_urls" : {
          "spotify" : "https://open.spotify.com/album/242xPrRwxpbngf91ezaxU3"
        },
        "href" : "https://api.spotify.com/v1/albums/242xPrRwxpbngf91ezaxU3",
        "id" : "242xPrRwxpbngf91ezaxU3",
        "images" : [ {
          "height" : 640,
          "url" : "https://i.scdn.co/image/ab67616d0000b273fb2dbb940c1d889b11250edc",
          "width" : 640
        }, {
          "height" : 300,
          "url" : "https://i.scdn.co/image/ab67616d00001e02fb2dbb940c1d889b11250edc",
          "width" : 300
        }, {
          "height" : 64,
          "url" : "https://i.scdn.co/image/ab67616d00004851fb2dbb940c1d889b11250edc",
          "width" : 64
        } ],
        "name" : "Hymns",
        "release_date" : "2018-01-12",
        "release_date_precision" : "day",
        "total_tracks" : 12,
        "type" : "album",
        "uri" : "spotify:album:242xPrRwxpbngf91ezaxU3"
      },
      "artists" : [ {
        "external_urls" : {
          "spotify" : "https://open.spotify.com/artist/4sk2zZdhVRMhb1BEtcxUKf"
        },
        "href" : "https://api.spotify.com/v1/artists/4sk2zZdhVRMhb1BEtcxUKf",
        "id" : "4sk2zZdhVRMhb1BEtcxUKf",
        "name" : "GENTRI",
        "type" : "artist",
        "uri" : "spotify:artist:4sk2zZdhVRMhb1BEtcxUKf"
      } ],
      "disc_number" : 1,
      "duration_ms" : 328434,
      "explicit" : false,
      "external_ids" : {
        "isrc" : "US23M1700071"
      },
      "external_urls" : {
        "spotify" : "https://open.spotify.com/track/3QO18Lt41mH0EZEgCC2xqr"
      },
      "href" : "https://api.spotify.com/v1/tracks/3QO18Lt41mH0EZEgCC2xqr",
      "id" : "3QO18Lt41mH0EZEgCC2xqr",
      "is_local" : false,
      "is_playable" : true,
      "name" : "Be Still, My Soul",
      "popularity" : 29,
      "preview_url" : "https://p.scdn.co/mp3-preview/49a7925500fc706d1bbd3e58d5255e4ffcbc16fe?cid=774b29d4f13844c495f206cafdad9c86",
      "track_number" : 3,
      "type" : "track",
      "uri" : "spotify:track:3QO18Lt41mH0EZEgCC2xqr"
    }, {
      "album" : {
        "album_type" : "album",
        "artists" : [ {
          "external_urls" : {
            "spotify" : "https://open.spotify.com/artist/3OvrUspbOHgGI6T7D5Fb6P"
          },
          "href" : "https://api.spotify.com/v1/artists/3OvrUspbOHgGI6T7D5Fb6P",
          "id" : "3OvrUspbOHgGI6T7D5Fb6P",
          "name" : "David Tolk",
          "type" : "artist",
          "uri" : "spotify:artist:3OvrUspbOHgGI6T7D5Fb6P"
        } ],
        "external_urls" : {
          "spotify" : "https://open.spotify.com/album/0FT9pUUHPGNLY5wy7Db3sh"
        },
        "href" : "https://api.spotify.com/v1/albums/0FT9pUUHPGNLY5wy7Db3sh",
        "id" : "0FT9pUUHPGNLY5wy7Db3sh",
        "images" : [ {
          "height" : 640,
          "url" : "https://i.scdn.co/image/ab67616d0000b273af693a229f75a37b99a4e143",
          "width" : 640
        }, {
          "height" : 300,
          "url" : "https://i.scdn.co/image/ab67616d00001e02af693a229f75a37b99a4e143",
          "width" : 300
        }, {
          "height" : 64,
          "url" : "https://i.scdn.co/image/ab67616d00004851af693a229f75a37b99a4e143",
          "width" : 64
        } ],
        "name" : "Grace",
        "release_date" : "2008-01-01",
        "release_date_precision" : "day",
        "total_tracks" : 11,
        "type" : "album",
        "uri" : "spotify:album:0FT9pUUHPGNLY5wy7Db3sh"
      },
      "artists" : [ {
        "external_urls" : {
          "spotify" : "https://open.spotify.com/artist/3OvrUspbOHgGI6T7D5Fb6P"
        },
        "href" : "https://api.spotify.com/v1/artists/3OvrUspbOHgGI6T7D5Fb6P",
        "id" : "3OvrUspbOHgGI6T7D5Fb6P",
        "name" : "David Tolk",
        "type" : "artist",
        "uri" : "spotify:artist:3OvrUspbOHgGI6T7D5Fb6P"
      } ],
      "disc_number" : 1,
      "duration_ms" : 319040,
      "explicit" : false,
      "external_ids" : {
        "isrc" : "uscgh0821867"
      },
      "external_urls" : {
        "spotify" : "https://open.spotify.com/track/1wO0Ike2eLpyCLwaLRdyl2"
      },
      "href" : "https://api.spotify.com/v1/tracks/1wO0Ike2eLpyCLwaLRdyl2",
      "id" : "1wO0Ike2eLpyCLwaLRdyl2",
      "is_local" : false,
      "is_playable" : true,
      "name" : "Be Still My Soul",
      "popularity" : 29,
      "preview_url" : "https://p.scdn.co/mp3-preview/074a3455c403c68e92b953a06ff2b4235dab0574?cid=774b29d4f13844c495f206cafdad9c86",
      "track_number" : 10,
      "type" : "track",
      "uri" : "spotify:track:1wO0Ike2eLpyCLwaLRdyl2"
    }, {
      "album" : {
        "album_type" : "album",
        "artists" : [ {
          "external_urls" : {
            "spotify" : "https://open.spotify.com/artist/1rnvO0098VACV7bmTr2dIv"
          },
          "href" : "https://api.spotify.com/v1/artists/1rnvO0098VACV7bmTr2dIv",
          "id" : "1rnvO0098VACV7bmTr2dIv",
          "name" : "Jason Tonioli",
          "type" : "artist",
          "uri" : "spotify:artist:1rnvO0098VACV7bmTr2dIv"
        } ],
        "external_urls" : {
          "spotify" : "https://open.spotify.com/album/5J0vM24lEXhpCZVB570aU1"
        },
        "href" : "https://api.spotify.com/v1/albums/5J0vM24lEXhpCZVB570aU1",
        "id" : "5J0vM24lEXhpCZVB570aU1",
        "images" : [ {
          "height" : 640,
          "url" : "https://i.scdn.co/image/ab67616d0000b27354c3d30e40b79503cfe9828e",
          "width" : 640
        }, {
          "height" : 300,
          "url" : "https://i.scdn.co/image/ab67616d00001e0254c3d30e40b79503cfe9828e",
          "width" : 300
        }, {
          "height" : 64,
          "url" : "https://i.scdn.co/image/ab67616d0000485154c3d30e40b79503cfe9828e",
          "width" : 64
        } ],
        "name" : "Be Still - Piano Hymns",
        "release_date" : "2012-03-30",
        "release_date_precision" : "day",
        "total_tracks" : 13,
        "type" : "album",
        "uri" : "spotify:album:5J0vM24lEXhpCZVB570aU1"
      },
      "artists" : [ {
        "external_urls" : {
          "spotify" : "https://open.spotify.com/artist/1rnvO0098VACV7bmTr2dIv"
        },
        "href" : "https://api.spotify.com/v1/artists/1rnvO0098VACV7bmTr2dIv",
        "id" : "1rnvO0098VACV7bmTr2dIv",
        "name" : "Jason Tonioli",
        "type" : "artist",
        "uri" : "spotify:artist:1rnvO0098VACV7bmTr2dIv"
      } ],
      "disc_number" : 1,
      "duration_ms" : 307293,
      "explicit" : false,
      "external_ids" : {
        "isrc" : "USQY51270384"
      },
      "external_urls" : {
        "spotify" : "https://open.spotify.com/track/3E6iSuYU8Som36lC9gkk5D"
      },
      "href" : "https://api.spotify.com/v1/tracks/3E6iSuYU8Som36lC9gkk5D",
      "id" : "3E6iSuYU8Som36lC9gkk5D",
      "is_local" : false,
      "is_playable" : true,
      "name" : "Be Still My Soul",
      "popularity" : 28,
      "preview_url" : "https://p.scdn.co/mp3-preview/8ca7240b4b23ff75c6c008277f4fc1b95c87856c?cid=774b29d4f13844c495f206cafdad9c86",
      "track_number" : 1,
      "type" : "track",
      "uri" : "spotify:track:3E6iSuYU8Som36lC9gkk5D"
    }, {
      "album" : {
        "album_type" : "album",
        "artists" : [ {
          "external_urls" : {
            "spotify" : "https://open.spotify.com/artist/6jjuxOU1va94mNHZpHTdWn"
          },
          "href" : "https://api.spotify.com/v1/artists/6jjuxOU1va94mNHZpHTdWn",
          "id" : "6jjuxOU1va94mNHZpHTdWn",
          "name" : "Michael Ethington",
          "type" : "artist",
          "uri" : "spotify:artist:6jjuxOU1va94mNHZpHTdWn"
        } ],
        "external_urls" : {
          "spotify" : "https://open.spotify.com/album/6Le1JbY2rxiqER9uKJ5S9b"
        },
        "href" : "https://api.spotify.com/v1/albums/6Le1JbY2rxiqER9uKJ5S9b",
        "id" : "6Le1JbY2rxiqER9uKJ5S9b",
        "images" : [ {
          "height" : 640,
          "url" : "https://i.scdn.co/image/ab67616d0000b2733390fb75acd11f72cb90d046",
          "width" : 640
        }, {
          "height" : 300,
          "url" : "https://i.scdn.co/image/ab67616d00001e023390fb75acd11f72cb90d046",
          "width" : 300
        }, {
          "height" : 64,
          "url" : "https://i.scdn.co/image/ab67616d000048513390fb75acd11f72cb90d046",
          "width" : 64
        } ],
        "name" : "Believe",
        "release_date" : "2008-05-12",
        "release_date_precision" : "day",
        "total_tracks" : 11,
        "type" : "album",
        "uri" : "spotify:album:6Le1JbY2rxiqER9uKJ5S9b"
      },
      "artists" : [ {
        "external_urls" : {
          "spotify" : "https://open.spotify.com/artist/6jjuxOU1va94mNHZpHTdWn"
        },
        "href" : "https://api.spotify.com/v1/artists/6jjuxOU1va94mNHZpHTdWn",
        "id" : "6jjuxOU1va94mNHZpHTdWn",
        "name" : "Michael Ethington",
        "type" : "artist",
        "uri" : "spotify:artist:6jjuxOU1va94mNHZpHTdWn"
      } ],
      "disc_number" : 1,
      "duration_ms" : 295933,
      "explicit" : false,
      "external_ids" : {
        "isrc" : "uscgh0845298"
      },
      "external_urls" : {
        "spotify" : "https://open.spotify.com/track/6BgnP4qLT9WjXoQ7GEs2XE"
      },
      "href" : "https://api.spotify.com/v1/tracks/6BgnP4qLT9WjXoQ7GEs2XE",
      "id" : "6BgnP4qLT9WjXoQ7GEs2XE",
      "is_local" : false,
      "is_playable" : true,
      "name" : "Be Still, My Soul",
      "popularity" : 27,
      "preview_url" : "https://p.scdn.co/mp3-preview/218df3d5dff75a29ca5c0545f6980792667a4f90?cid=774b29d4f13844c495f206cafdad9c86",
      "track_number" : 10,
      "type" : "track",
      "uri" : "spotify:track:6BgnP4qLT9WjXoQ7GEs2XE"
    } ],
    "limit" : 10,
    "next" : "https://api.spotify.com/v1/search?query=Be+Still%2C+My+Soul&type=track&market=US&offset=15&limit=10",
    "offset" : 5,
    "previous" : "https://api.spotify.com/v1/search?query=Be+Still%2C+My+Soul&type=track&market=US&offset=0&limit=10",
    "total" : 1388
  }
}