{
  "tracks" : {
    "href" : "https://api.spotify.com/v1/search?query=It+Took+a+Miracle&type=track&market=US&offset=5&limit=10",
    "items" : [ {
      "album" : {
        "album_type" : "album",
        "artists" : [ {
          "external_urls" : {
            "spotify" : "https://open.spotify.com/artist/2WOMBqEsllg2ICn7D2L8ta"
          },
          "href" : "https://api.spotify.com/v1/artists/2WOMBqEsllg2ICn7D2L8ta",
          "id" : "2WOMBqEsllg2ICn7D2L8ta",
          "name" : "Jehnny Beth",
          "type" : "artist",
          "uri" : "spotify:artist:2WOMBqEsllg2ICn7D2L8ta"
        }, {
          "external_urls" : {
            "spotify" : "https://open.spotify.com/artist/4I5W2DiifLDIdUI0FJajuU"
          },
          "href" : "https://api.spotify.com/v1/artists/4I5W2DiifLDIdUI0FJajuU",
          "id" : "4I5W2DiifLDIdUI0FJajuU",
          "name" : "Johnny Hostile",
          "type" : "artist",
          "uri" : "spotify:artist:4I5W2DiifLDIdUI0FJajuU"
        } ],
        "external_urls" : {
          "spotify" : "https://open.spotify.com/album/4uhdLK482PDT0ThDtg8iy4"
        },
        "href" : "https://api.spotify.com/v1/albums/4uhdLK482PDT0ThDtg8iy4",
        "id" : "4uhdLK482PDT0ThDtg8iy4",
        "images" : [ {
          "height" : 640,
          "url" : "https://i.scdn.co/image/ab67616d0000b27394633e9e56746f57a91d17d2",
          "width" : 640
        }, {
          "height" : 300,
          "url" : "https://i.scdn.co/image/ab67616d00001e0294633e9e56746f57a91d17d2",
          "width" : 300
        }, {
          "height" : 64,
          "url" : "https://i.scdn.co/image/ab67616d0000485194633e9e56746f57a91d17d2",
          "width" : 64
        } ],
        "name" : "Xy Chelsea (Original Soundtrack)",
        "release_date" : "2019-06-07",
        "release_date_precision" : "day",
        "total_tracks" : 26,
        "type" : "album",
        "uri" : "spotify:album:4uhdLK482PDT0ThDtg8iy4"
      },
      "artists" : [ {
        "external_urls" : {
          "spotify" : "https://open.spotify.com/artist/2WOMBqEsllg2ICn7D2L8ta"
        },
        "href" : "https://api.spotify.com/v1/artists/2WOMBqEsllg2ICn7D2L8ta",
        "id" : "2WOMBqEsllg2ICn7D2L8ta",
        "name" : "Jehnny Beth",
        "type" : "artist",
        "uri" : "spotify:artist:2WOMBqEsllg2ICn7D2L8ta"
      }, {
        "external_urls" : {
          "spotify" : "https://open.spotify.com/artist/4I5W2DiifLDIdUI0FJajuU"
        },
        "href" : "https://api.spotify.com/v1/artists/4I5W2DiifLDIdUI0FJajuU",
        "id" : "4I5W2DiifLDIdUI0FJajuU",
        "name" : "Johnny Hostile",
        "type" : "artist",
        "uri" : "spotify:artist:4I5W2DiifLDIdUI0FJajuU"
      } ],
      "disc_number" : 1,
      "duration_ms" : 143804,
      "explicit" : false,
      "external_ids" : {
        "isrc" : "FRIDO1910582"
      },
      "external_urls" : {
        "spotify" : "https://open.spotify.com/track/5bgNMa0CIzC0eqpPJquM0t"
      },
      "href" : "https://api.spotify.com/v1/tracks/5bgNMa0CIzC0eqpPJquM0t",
      "id" : "5bgNMa0CIzC0eqpPJquM0t",
      "is_local" : false,
      "is_playable" : true,
      "name" : "It Took a Miracle",
      "popularity" : 10,
      "preview_url" : "https://p.scdn.co/mp3-preview/af78577171e2e552808d245802d2b8781cc73375?cid=774b29d4f13844c495f206cafdad9c86",
      "track_number" : 6,
      "type" : "track",
      "uri" : "spotify:track:5bgNMa0CIzC0eqpPJquM0t"
    }, {
      "album" : {
        "album_type" : "album",
        "artists" : [ {
          "external_urls" : {
            "spotify" : "https://open.spotify.com/artist/5jSCI6Luf2DjCL8ckBgMCd"
          },
          "href" : "https://api.spotify.com/v1/artists/5jSCI6Luf2DjCL8ckBgMCd",
          "id" : "5jSCI6Luf2DjCL8ckBgMCd",
          "name" : "Kenneth Copeland",
          "type" : "artist",
          "uri" : "spotify:artist:5jSCI6Luf2DjCL8ckBgMCd"
        } ],
        "external_urls" : {
          "spotify" : "https://open.spotify.com/album/7sh4b7cmtGO0QEQ70Dso1D"
        },
        "href" : "https://api.spotify.com/v1/albums/7sh4b7cmtGO0QEQ70Dso1D",
        "id" : "7sh4b7cmtGO0QEQ70Dso1D",
        "images" : [ {
          "height" : 640,
          "url" : "https://i.scdn.co/image/ab67616d0000b273b21951e9941798db246f1994",
          "width" : 640
        }, {
          "height" : 300,
          "url" : "https://i.scdn.co/image/ab67616d00001e02b21951e9941798db246f1994",
          "width" : 300
        }, {
          "height" : 64,
          "url" : "https://i.scdn.co/image/ab67616d00004851b21951e9941798db246f1994",
          "width" : 64
        } ],
        "name" : "Just a Closer Walk",
        "release_date" : "2012-11-14",
        "release_date_precision" : "day",
        "total_tracks" : 12,
        "type" : "album",
        "uri" : "spotify:album:7sh4b7cmtGO0QEQ70Dso1D"
      },
      "artists" : [ {
        "external_urls" : {
          "spotify" : "https://open.spotify.com/artist/5jSCI6Luf2DjCL8ckBgMCd"
        },
        "href" : "https://api.spotify.com/v1/artists/5jSCI6Luf2DjCL8ckBgMCd",
        "id" : "5jSCI6Luf2DjCL8ckBgMCd",
        "name" : "Kenneth Copeland",
        "type" : "artist",
        "uri" : "spotify:artist:5jSCI6Luf2DjCL8ckBgMCd"
      } ],
      "disc_number" : 1,
      "duration_ms" : 418866,
      "explicit" : false,
      "external_ids" : {
        "isrc" : "QMUM21200307"
      },
      "external_urls" : {
        "spotify" : "https://open.spotify.com/track/2o1LsNrkHosKQkCCe22Ys2"
      },
      "href" : "https://api.spotify.com/v1/tracks/2o1LsNrkHosKQkCCe22Ys2",
      "id" : "2o1LsNrkHosKQkCCe22Ys2",
      "is_local" : false,
      "is_playable" : true,
      "name" : "It Took a Miracle/Amazing Grace",
      "popularity" : 3,
      "preview_url" : "https://p.scdn.co/mp3-preview/996d487bd266f9c60c596d8585f65d3aab5bb14f?cid=774b29d4f13844c495f206cafdad9c86",
      "track_number" : 7,
      "type" : "track",
      "uri" : "spotify:track:2o1LsNrkHosKQkCCe22Ys2"
    }, {
      "album" : {
        "album_type" : "album",
        "artists" : [ {
          "external_urls" : {
            "spotify" : "https://open.spotify.com/artist/23FM5hCHWAODLFGMyk6ETI"
          },
          "href" : "https://api.spotify.com/v1/artists/23FM5hCHWAODLFGMyk6ETI",
          "id" : "23FM5hCHWAODLFGMyk6ETI",
          "name" : "The Melodians",
          "type" : "artist",
          "uri" : "spotify:artist:23FM5hCHWAODLFGMyk6ETI"
        } ],
        "external_urls" : {
          "spotify" : "https://open.spotify.com/album/32hj03FdtuCNIf2AHMFILY"
        },
        "href" : "https://api.spotify.com/v1/albums/32hj03FdtuCNIf2AHMFILY",
        "id" : "32hj03FdtuCNIf2AHMFILY",
        "images" : [ {
          "height" : 640,
          "url" : "https://i.scdn.co/image/ab67616d0000b273be3d7176f5382aa1eb26dbbe",
          "width" : 640
        }, {
          "height" : 300,
          "url" : "https://i.scdn.co/image/ab67616d00001e02be3d7176f5382aa1eb26dbbe",
          "width" : 300
        }, {
          "height" : 64,
          "url" : "https://i.scdn.co/image/ab67616d00004851be3d7176f5382aa1eb26dbbe",
          "width" : 64
        } ],
        "name" : "Super Best",
        "release_date" : "2012-04-04",
        "release_date_precision" : "day",
        "total_tracks" : 25,
        "type" : "album",
        "uri" : "spotify:album:32hj03FdtuCNIf2AHMFILY"
      },
      "artists" : [ {
        "external_urls" : {
          "spotify" : "https://open.spotify.com/artist/23FM5hCHWAODLFGMyk6ETI"
        },
        "href" : "https://api.spotify.com/v1/artists/23FM5hCHWAODLFGMyk6ETI",
        "id" : "23FM5hCHWAODLFGMyk6ETI",
        "name" : "The Melodians",
        "type" : "artist",
        "uri" : "spotify:artist:23FM5hCHWAODLFGMyk6ETI"
      } ],
      "disc_number" : 1,
      "duration_ms" : 182346,
      "explicit" : false,
      "external_ids" : {
        "isrc" : "EGA130004617"
      },
      "external_urls" : {
        "spotify" : "https://open.spotify.com/track/6hFqvxsIeZEyjAZCfo0tCd"
      },
      "href" : "https://api.spotify.com/v1/tracks/6hFqvxsIeZEyjAZCfo0tCd",
      "id" : "6hFqvxsIeZEyjAZCfo0tCd",
      "is_local" : false,
      "is_playable" : true,
      "name" : "It Took a Miracle",
      "popularity" : 6,
      "preview_url" : "https://p.scdn.co/mp3-preview/2ff5d07330150570bc0c68507bb4ff9f52abc8a1?cid=774b29d4f13844c495f206cafdad9c86",
      "track_number" : 21,
      "type" : "track",
      "uri" : "spotify:track:6hFqvxsIeZEyjAZCfo0tCd"
    }, {
      "album" : {
        "album_type" : "compilation",
        "artists" : [ {
          "external_urls" : {
            "spotify" : "https://open.spotify.com/artist/0LyfQWJT6nXafLPZqxe9Of"
          },
          "href" : "https://api.spotify.com/v1/artists/0LyfQWJT6nXafLPZqxe9Of",
          "id" : "0LyfQWJT6nXafLPZqxe9Of",
          "name" : "Various Artists",
          "type" : "artist",
          "uri" : "spotify:artist:0LyfQWJT6nXafLPZqxe9Of"
        } ],
        "external_urls" : {
          "spotify" : "https://open.spotify.com/album/0DSTlVRU7LQLyRE9Vl2PXv"
        },
        "href" : "https://api.spotify.com/v1/albums/0DSTlVRU7LQLyRE9Vl2PXv",
        "id" : "0DSTlVRU7LQLyRE9Vl2PXv",
        "images" : [ {
          "height" : 640,
          "url" : "https://i.scdn.co/image/ab67616d0000b2733a114a0637e62d84568a161c",
          "width" : 640
        }, {
          "height" : 300,
          "url" : "https://i.scdn.co/image/ab67616d00001e023a114a0637e62d84568a161c",
          "width" : 300
        }, {
          "height" : 64,
          "url" : "https://i.scdn.co/image/ab67616d000048513a114a0637e62d84568a161c",
          "width" : 64
        } ],
        "name" : "Southern Gospel Gold, The Quartets",
        "release_date" : "2019-02-27",
        "release_date_precision" : "day",
        "total_tracks" : 20,
        "type" : "album",
        "uri" : "spotify:album:0DSTlVRU7LQLyRE9Vl2PXv"
      },
      "artists" : [ {
        "external_urls" : {
          "spotify" : "https://open.spotify.com/artist/20tBEfrgHM62jCefZc195X"
        },
        "href" : "https://api.spotify.com/v1/artists/20tBEfrgHM62jCefZc195X",
        "id" : "20tBEfrgHM62jCefZc195X",
        "name" : "James Blackwood Quartet",
        "type" : "artist",
        "uri" : "spotify:artist:20tBEfrgHM62jCefZc195X"
      } ],
      "disc_number" : 1,
      "duration_ms" : 144413,
      "explicit" : false,
      "external_ids" : {
        "isrc" : "QM4TX1940902"
      },
      "external_urls" : {
        "spotify" : "https://open.spotify.com/track/0ID1csz4GJQ11uZ3VXwFH0"
      },
      "href" : "https://api.spotify.com/v1/tracks/0ID1csz4GJQ11uZ3VXwFH0",
      "id" : "0ID1csz4GJQ11uZ3VXwFH0",
      "is_local" : false,
      "is_playable" : true,
      "name" : "It Took a Miracle",
      "popularity" : 1,
      "preview_url" : "https://p.scdn.co/mp3-preview/9477bf8a05033da1f237f0cbe86b8abfc8290f36?cid=774b29d4f13844c495f206cafdad9c86",
      "track_number" : 7,
      "type" : "track",
      "uri" : "spotify:track:0ID1csz4GJQ11uZ3VXwFH0"
    }, {
      "album" : {
        "album_type" : "album",
        "artists" : [ {
          "external_urls" : {
            "spotify" : "https://open.spotify.com/artist/23FM5hCHWAODLFGMyk6ETI"
          },
          "href" : "https://api.spotify.com/v1/artists/23FM5hCHWAODLFGMyk6ETI",
          "id" : "23FM5hCHWAODLFGMyk6ETI",
          "name" : "The Melodians",
          "type" : "artist",
          "uri" : "spotify:artist:23FM5hCHWAODLFGMyk6ETI"
        } ],
        "external_urls" : {
          "spotify" : "https://open.spotify.com/album/1mvWUKXLasKQXNo8iVCnPR"
        },
        "href" : "https://api.spotify.com/v1/albums/1mvWUKXLasKQXNo8iVCnPR",
        "id" : "1mvWUKXLasKQXNo8iVCnPR",
        "images" : [ {
          "height" : 640,
          "url" : "https://i.scdn.co/image/ab67616d0000b2735c4a6d0647e6c0822c080e33",
          "width" : 640
        }, {
          "height" : 300,
          "url" : "https://i.scdn.co/image/ab67616d00001e025c4a6d0647e6c0822c080e33",
          "width" : 300
        }, {
          "height" : 64,
          "url" : "https://i.scdn.co/image/ab67616d000048515c4a6d0647e6c0822c080e33",
          "width" : 64
        } ],
        "name" : "Legend",
        "release_date" : "2011-06-20",
        "release_date_precision" : "day",
        "total_tracks" : 9,
        "type" : "album",
        "uri" : "spotify:album:1mvWUKXLasKQXNo8iVCnPR"
      },
      "artists" : [ {
        "external_urls" : {
          "spotify" : "https://open.spotify.com/artist/23FM5hCHWAODLFGMyk6ETI"
        },
        "href" : "https://api.spotify.com/v1/artists/23FM5hCHWAODLFGMyk6ETI",
        "id" : "23FM5hCHWAODLFGMyk6ETI",
        "name" : "The Melodians",
        "type" : "artist",
        "uri" : "spotify:artist:23FM5hCHWAODLFGMyk6ETI"
      } ],
      "disc_number" : 1,
      "duration_ms" : 185000,
      "explicit" : false,
      "external_ids" : {
        "isrc" : "GBQXA1113094"
      },
      "external_urls" : {
        "spotify" : "https://open.spotify.com/track/2PFhOjheWH1ll4PLwBPwX6"
      },
      "href" : "https://api.spotify.com/v1/tracks/2PFhOjheWH1ll4PLwBPwX6",
      "id" : "2PFhOjheWH1ll4PLwBPwX6",
      "is_local" : false,
      "is_playable" : true,
      "name" : "It Took a Miracle",
      "popularity" : 6,
      "preview_url" : "https://p.scdn.co/mp3-preview/19a6584335402c1e651540e4bbb32778f7349568?cid=774b29d4f13844c495f206cafdad9c86",
      "track_number" : 6,
      "type" : "track",
      "uri" : "spotify:track:2PFhOjheWH1ll4PLwBPwX6"
    }, {
      "album" : {
        "album_type" : "album",
        "artists" : [ {
          "external_urls" : {
            "spotify" : "https://open.spotify.com/artist/3GgfNlLtZp79tPYCTQvG66"
          },
          "href" : "https://api.spotify.com/v1/artists/3GgfNlLtZp79tPYCTQvG66",
          "id" : "3GgfNlLtZp79tPYCTQvG66",
          "name" : "The Blackwood Brothers",
          "type" : "artist",
          "uri" : "spotify:artist:3GgfNlLtZp79tPYCTQvG66"
        } ],
        "external_urls" : {
          "spotify" : "https://open.spotify.com/album/3yRYe5QFQyyylhAvP28iFU"
        },
        "href" : "https://api.spotify.com/v1/albums/3yRYe5QFQyyylhAvP28iFU",
        "id" : "3yRYe5QFQyyylhAvP28iFU",
        "images" : [ {
          "height" : 640,
          "url" : "https://i.scdn.co/image/ab67616d0000b273dcfb8e9e18b8d82184841693",
          "width" : 640
        }, {
          "height" : 300,
          "url" : "https://i.scdn.co/image/ab67616d00001e02dcfb8e9e18b8d82184841693",
          "width" : 300
        }, {
          "height" : 64,
          "url" : "https://i.scdn.co/image/ab67616d00004851dcfb8e9e18b8d82184841693",
          "width" : 64
        } ],
        "name" : "Sunday Meetin' Time (Remastered)",
        "release_date" : "2009-01-01",
        "release_date_precision" : "day",
        "total_tracks" : 12,
        "type" : "album",
        "uri" : "spotify:album:3yRYe5QFQyyylhAvP28iFU"
      },
      "artists" : [ {
        "external_urls" : {
          "spotify" : "https://open.spotify.com/artist/3GgfNlLtZp79tPYCTQvG66"
        },
        "href" : "https://api.spotify.com/v1/artists/3GgfNlLtZp79tPYCTQvG66",
        "id" : "3GgfNlLtZp79tPYCTQvG66",
        "name" : "The Blackwood Brothers",
        "type" : "artist",
        "uri" : "spotify:artist:3GgfNlLtZp79tPYCTQvG66"
      } ],
      "disc_number" : 1,
      "duration_ms" : 158800,
      "explicit" : false,
      "external_ids" : {
        "isrc" : "USACX1301436"
      },
      "external_urls" : {
        "spotify" : "https://open.spotify.com/track/0q4bLCvOj7SAuAipireFpi"
      },
      "href" : "https://api.spotify.com/v1/tracks/0q4bLCvOj7SAuAipireFpi",
      "id" : "0q4bLCvOj7SAuAipireFpi",
      "is_local" : false,
      "is_playable" : true,
      "name" : "It Took A Miracle",
      "popularity" : 3,
      "preview_url" : "https://p.scdn.co/mp3-preview/870c5ffb061c113a41e16adbc078aabce75c30ad?cid=774b29d4f13844c495f206cafdad9c86",
      "track_number" : 9,
      "type" : "track",
      "uri" : "spotify:track:0q4bLCvOj7SAuAipireFpi"
    }, {
      "album" : {
        "album_type" : "album",
        "artists" : [ {
          "external_urls" : {
            "spotify" : "https://open.spotify.com/artist/77mo5iGQYRlf9cB60bZPOY"
          },
          "href" : "https://api.spotify.com/v1/artists/77mo5iGQYRlf9cB60bZPOY",
          "id" : "77mo5iGQYRlf9cB60bZPOY",
          "name" : "Nick Bruno",
          "type" : "artist",
          "uri" : "spotify:artist:77mo5iGQYRlf9cB60bZPOY"
        } ],
        "external_urls" : {
          "spotify" : "https://open.spotify.com/album/4tZRuexu56pOcyfxOIN58g"
        },
        "href" : "https://api.spotify.com/v1/albums/4tZRuexu56pOcyfxOIN58g",
        "id" : "4tZRuexu56pOcyfxOIN58g",
        "images" : [ {
          "height" : 640,
          "url" : "https://i.scdn.co/image/ab67616d0000b2739240a19ef2e2c7e2ab068c02",
          "width" : 640
        }, {
          "height" : 300,
          "url" : "https://i.scdn.co/image/ab67616d00001e029240a19ef2e2c7e2ab068c02",
          "width" : 300
        }, {
          "height" : 64,
          "url" : "https://i.scdn.co/image/ab67616d000048519240a19ef2e2c7e2ab068c02",
          "width" : 64
        } ],
        "name" : "Peaceful Meditation",
        "release_date" : "2008-04-29",
        "release_date_precision" : "day",
        "total_tracks" : 10,
        "type" : "album",
        "uri" : "spotify:album:4tZRuexu56pOcyfxOIN58g"
      },
      "artists" : [ {
        "external_urls" : {
          "spotify" : "https://open.spotify.com/artist/77mo5iGQYRlf9cB60bZPOY"
        },
        "href" : "https://api.spotify.com/v1/artists/77mo5iGQYRlf9cB60bZPOY",
        "id" : "77mo5iGQYRlf9cB60bZPOY",
        "name" : "Nick Bruno",
        "type" : "artist",
        "uri" : "spotify:artist:77mo5iGQYRlf9cB60bZPOY"
      } ],
      "disc_number" : 1,
      "duration_ms" : 238376,
      "explicit" : false,
      "external_ids" : {
        "isrc" : "US4R31016033"
      },
      "external_urls" : {
        "spotify" : "https://open.spotify.com/track/0GFQVt5dS0gF7UKjgL5qvh"
      },
      "href" : "https://api.spotify.com/v1/tracks/0GFQVt5dS0gF7UKjgL5qvh",
      "id" : "0GFQVt5dS0gF7UKjgL5qvh",
      "is_local" : false,
      "is_playable" : true,
      "name" : "It Took a Miracle",
      "popularity" : 0,
      "preview_url" : "https://p.scdn.co/mp3-preview/ffbe7a29f5272feb836804a191baae493e0fea00?cid=774b29d4f13844c495f206cafdad9c86",
      "track_number" : 9,
      "type" : "track",
      "uri" : "spotify:track:0GFQVt5dS0gF7UKjgL5qvh"
    }, {
      "album" : {
        "album_type" : "album",
        "artists" : [ {
          "external_urls" : {
            "spotify" : "https://open.spotify.com/artist/2rxmeUULCdWye54MgHRflW"
          },
          "href" : "https://api.spotify.com/v1/artists/2rxmeUULCdWye54MgHRflW",
          "id" : "2rxmeUULCdWye54MgHRflW",
          "name" : "Melinda Kim Hoyer",
          "type" : "artist",
          "uri" : "spotify:artist:2rxmeUULCdWye54MgHRflW"
        } ],
        "external_urls" : {
          "spotify" : "https://open.spotify.com/album/3raAY1rEjwUg7MpJ7URsOK"
        },
        "href" : "https://api.spotify.com/v1/albums/3raAY1rEjwUg7MpJ7URsOK",
        "id" : "3raAY1rEjwUg7MpJ7URsOK",
        "images" : [ {
          "height" : 640,
          "url" : "https://i.scdn.co/image/ab67616d0000b2734b6e047ed9139cd0b93c643e",
          "width" : 640
        }, {
          "height" : 300,
          "url" : "https://i.scdn.co/image/ab67616d00001e024b6e047ed9139cd0b93c643e",
          "width" : 300
        }, {
          "height" : 64,
          "url" : "https://i.scdn.co/image/ab67616d000048514b6e047ed9139cd0b93c643e",
          "width" : 64
        } ],
        "name" : "Forever Remembered",
        "release_date" : "2017-06-26",
        "release_date_precision" : "day",
        "total_tracks" : 18,
        "type" : "album",
        "uri" : "spotify:album:3raAY1rEjwUg7MpJ7URsOK"
      },
      "artists" : [ {
        "external_urls" : {
          "spotify" : "https://open.spotify.com/artist/2rxmeUULCdWye54MgHRflW"
        },
        "href" : "https://api.spotify.com/v1/artists/2rxmeUULCdWye54MgHRflW",
        "id" : "2rxmeUULCdWye54MgHRflW",
        "name" : "Melinda Kim Hoyer",
        "type" : "artist",
        "uri" : "spotify:artist:2rxmeUULCdWye54MgHRflW"
      } ],
      "disc_number" : 1,
      "duration_ms" : 274003,
      "explicit" : false,
      "external_ids" : {
        "isrc" : "ushm21701046"
      },
      "external_urls" : {
        "spotify" : "https://open.spotify.com/track/1tmBwjNsuaHNRjHOT1q1H0"
      },
      "href" : "https://api.spotify.com/v1/tracks/1tmBwjNsuaHNRjHOT1q1H0",
      "id" : "1tmBwjNsuaHNRjHOT1q1H0",
      "is_local" : false,
      "is_playable" : true,
      "name" : "It Took a Miracle",
      "popularity" : 0,
      "preview_url" : "https://p.scdn.co/mp3-preview/401cf5b8b04ea1c471c798266c4082aa64affaf9?cid=774b29d4f13844c495f206cafdad9c86",
      "track_number" : 1,
      "type" : "track",
      "uri" : "spotify:track:1tmBwjNsuaHNRjHOT1q1H0"
    }, {
      "album" : {
        "album_type" : "album",
        "artists" : [ {
          "external_urls" : {
            "spotify" : "https://open.spotify.com/artist/37mIiSsbyJH4OOQvmSVbMX"
          },
          "href" : "https://api.spotify.com/v1/artists/37mIiSsbyJH4OOQvmSVbMX",
          "id" : "37mIiSsbyJH4OOQvmSVbMX",
          "name" : "Lillian Overstreet Watters",
          "type" : "artist",
          "uri" : "spotify:artist:37mIiSsbyJH4OOQvmSVbMX"
        } ],
        "external_urls" : {
          "spotify" : "https://open.spotify.com/album/33CvSNhAnaiymNZfEb3xju"
        },
        "href" : "https://api.spotify.com/v1/albums/33CvSNhAnaiymNZfEb3xju",
        "id" : "33CvSNhAnaiymNZfEb3xju",
        "images" : [ {
          "height" : 640,
          "url" : "https://i.scdn.co/image/ab67616d0000b273e3fdcecd782299f3a57213a1",
          "width" : 640
        }, {
          "height" : 300,
          "url" : "https://i.scdn.co/image/ab67616d00001e02e3fdcecd782299f3a57213a1",
          "width" : 300
        }, {
          "height" : 64,
          "url" : "https://i.scdn.co/image/ab67616d00004851e3fdcecd782299f3a57213a1",
          "width" : 64
        } ],
        "name" : "Faith Secrets",
        "release_date" : "2007-01-01",
        "release_date_precision" : "day",
        "total_tracks" : 13,
        "type" : "album",
        "uri" : "spotify:album:33CvSNhAnaiymNZfEb3xju"
      },
      "artists" : [ {
        "external_urls" : {
          "spotify" : "https://open.spotify.com/artist/37mIiSsbyJH4OOQvmSVbMX"
        },
        "href" : "https://api.spotify.com/v1/artists/37mIiSsbyJH4OOQvmSVbMX",
        "id" : "37mIiSsbyJH4OOQvmSVbMX",
        "name" : "Lillian Overstreet Watters",
        "type" : "artist",
        "uri" : "spotify:artist:37mIiSsbyJH4OOQvmSVbMX"
      } ],
      "disc_number" : 1,
      "duration_ms" : 167213,
      "explicit" : false,
      "external_ids" : {
        "isrc" : "usl4q0704807"
      },
      "external_urls" : {
        "spotify" : "https://open.spotify.com/track/2kdEE6Q8BgIOr1OmMfmwl2"
      },
      "href" : "https://api.spotify.com/v1/tracks/2kdEE6Q8BgIOr1OmMfmwl2",
      "id" : "2kdEE6Q8BgIOr1OmMfmwl2",
      "is_local" : false,
      "is_playable" : true,
      "name" : "It Took a Miracle",
      "popularity" : 0,
      "preview_url" : "https://p.scdn.co/mp3-preview/e6bc980685c833c280b25b8e7a6f126b4bf081a2?cid=774b29d4f13844c495f206cafdad9c86",
      "track_number" : 8,
      "type" : "track",
      "uri" : "spotify:track:2kdEE6Q8BgIOr1OmMfmwl2"
    }, {
      "album" : {
        "album_type" : "album",
        "artists" : [ {
          "external_urls" : {
            "spotify" : "https://open.spotify.com/artist/4HGM4Pr0Pntmfhj7PdQ2jV"
          },
          "href" : "https://api.spotify.com/v1/artists/4HGM4Pr0Pntmfhj7PdQ2jV",
          "id" : "4HGM4Pr0Pntmfhj7PdQ2jV",
          "name" : "Ande",
          "type" : "artist",
          "uri" : "spotify:artist:4HGM4Pr0Pntmfhj7PdQ2jV"
        } ],
        "external_urls" : {
          "spotify" : "https://open.spotify.com/album/0z75fTD7QGox4yupmRioDR"
        },
        "href" : "https://api.spotify.com/v1/albums/0z75fTD7QGox4yupmRioDR",
        "id" : "0z75fTD7QGox4yupmRioDR",
        "images" : [ {
          "height" : 640,
          "url" : "https://i.scdn.co/image/ab67616d0000b273e464f09350aa5969a09d3e3f",
          "width" : 640
        }, {
          "height" : 300,
          "url" : "https://i.scdn.co/image/ab67616d00001e02e464f09350aa5969a09d3e3f",
          "width" : 300
        }, {
          "height" : 64,
          "url" : "https://i.scdn.co/image/ab67616d00004851e464f09350aa5969a09d3e3f",
          "width" : 64
        } ],
        "name" : "\"Tetelesti\"",
        "release_date" : "2019-01-16",
        "release_date_precision" : "day",
        "total_tracks" : 10,
        "type" : "album",
        "uri" : "spotify:album:0z75fTD7QGox4yupmRioDR"
      },
      "artists" : [ {
        "external_urls" : {
          "spotify" : "https://open.spotify.com/artist/4HGM4Pr0Pntmfhj7PdQ2jV"
        },
        "href" : "https://api.spotify.com/v1/artists/4HGM4Pr0Pntmfhj7PdQ2jV",
        "id" : "4HGM4Pr0Pntmfhj7PdQ2jV",
        "name" : "Ande",
        "type" : "artist",
        "uri" : "spotify:artist:4HGM4Pr0Pntmfhj7PdQ2jV"
      } ],
      "disc_number" : 1,
      "duration_ms" : 183647,
      "explicit" : false,
      "external_ids" : {
        "isrc" : "TCAEC1909453"
      },
      "external_urls" : {
        "spotify" : "https://open.spotify.com/track/2K6ghmCHCBcPaet2C0XhV3"
      },
      "href" : "https://api.spotify.com/v1/tracks/2K6ghmCHCBcPaet2C0XhV3",
      "id" : "2K6ghmCHCBcPaet2C0XhV3",
      "is_local" : false,
      "is_playable" : true,
      "name" : "It Took a Miracle",
      "popularity" : 0,
      "preview_url" : "https://p.scdn.co/mp3-preview/a8a92ea74644ecca859d2f512d31c84fa9013f52?cid=774b29d4f13844c495f206cafdad9c86",
      "track_number" : 8,
      "type" : "track",
      "uri" : "spotify:track:2K6ghmCHCBcPaet2C0XhV3"
    } ],
    "limit" : 10,
    "next" : "https://api.spotify.com/v1/search?query=It+Took+a+Miracle&type=track&market=US&offset=15&limit=10",
    "offset" : 5,
    "previous" : "https://api.spotify.com/v1/search?query=It+Took+a+Miracle&type=track&market=US&offset=0&limit=10",
    "total" : 77
  }
}