{
  "tracks" : {
    "href" : "https://api.spotify.com/v1/search?query=God+Is+Our+Song&type=track&market=US&offset=5&limit=10",
    "items" : [ {
      "album" : {
        "album_type" : "compilation",
        "artists" : [ {
          "external_urls" : {
            "spotify" : "https://open.spotify.com/artist/0LyfQWJT6nXafLPZqxe9Of"
          },
          "href" : "https://api.spotify.com/v1/artists/0LyfQWJT6nXafLPZqxe9Of",
          "id" : "0LyfQWJT6nXafLPZqxe9Of",
          "name" : "Various Artists",
          "type" : "artist",
          "uri" : "spotify:artist:0LyfQWJT6nXafLPZqxe9Of"
        } ],
        "external_urls" : {
          "spotify" : "https://open.spotify.com/album/223otgKEtym9gzdX72yaLi"
        },
        "href" : "https://api.spotify.com/v1/albums/223otgKEtym9gzdX72yaLi",
        "id" : "223otgKEtym9gzdX72yaLi",
        "images" : [ {
          "height" : 640,
          "url" : "https://i.scdn.co/image/ab67616d0000b2738855f3e87081256857009872",
          "width" : 640
        }, {
          "height" : 300,
          "url" : "https://i.scdn.co/image/ab67616d00001e028855f3e87081256857009872",
          "width" : 300
        }, {
          "height" : 64,
          "url" : "https://i.scdn.co/image/ab67616d000048518855f3e87081256857009872",
          "width" : 64
        } ],
        "name" : "Sing Over Me: Worship Songs And Lullabies",
        "release_date" : "2006-01-01",
        "release_date_precision" : "day",
        "total_tracks" : 12,
        "type" : "album",
        "uri" : "spotify:album:223otgKEtym9gzdX72yaLi"
      },
      "artists" : [ {
        "external_urls" : {
          "spotify" : "https://open.spotify.com/artist/7xDONBHUmOSBJ6i1SNgq55"
        },
        "href" : "https://api.spotify.com/v1/artists/7xDONBHUmOSBJ6i1SNgq55",
        "id" : "7xDONBHUmOSBJ6i1SNgq55",
        "name" : "Bethany Dillon",
        "type" : "artist",
        "uri" : "spotify:artist:7xDONBHUmOSBJ6i1SNgq55"
      } ],
      "disc_number" : 1,
      "duration_ms" : 235306,
      "explicit" : false,
      "external_ids" : {
        "isrc" : "USSP30600133"
      },
      "external_urls" : {
        "spotify" : "https://open.spotify.com/track/0ARtRDhAdTKDDZCEvYIm2x"
      },
      "href" : "https://api.spotify.com/v1/tracks/0ARtRDhAdTKDDZCEvYIm2x",
      "id" : "0ARtRDhAdTKDDZCEvYIm2x",
      "is_local" : false,
      "is_playable" : true,
      "name" : "How Great Is Our God",
      "popularity" : 28,
      "preview_url" : null,
      "track_number" : 1,
      "type" : "track",
      "uri" : "spotify:track:0ARtRDhAdTKDDZCEvYIm2x"
    }, {
      "album" : {
        "album_type" : "album",
        "artists" : [ {
          "external_urls" : {
            "spotify" : "https://open.spotify.com/artist/67OFzndMlzj7cDF2BqnwYe"
          },
          "href" : "https://api.spotify.com/v1/artists/67OFzndMlzj7cDF2BqnwYe",
          "id" : "67OFzndMlzj7cDF2BqnwYe",
          "name" : "Maranatha! Music",
          "type" : "artist",
          "uri" : "spotify:artist:67OFzndMlzj7cDF2BqnwYe"
        } ],
        "external_urls" : {
          "spotify" : "https://open.spotify.com/album/44uMUPRCz28305p2k2TU6N"
        },
        "href" : "https://api.spotify.com/v1/albums/44uMUPRCz28305p2k2TU6N",
        "id" : "44uMUPRCz28305p2k2TU6N",
        "images" : [ {
          "height" : 640,
          "url" : "https://i.scdn.co/image/ab67616d0000b273929ce61cfa2ed51f4f64ba4d",
          "width" : 640
        }, {
          "height" : 300,
          "url" : "https://i.scdn.co/image/ab67616d00001e02929ce61cfa2ed51f4f64ba4d",
          "width" : 300
        }, {
          "height" : 64,
          "url" : "https://i.scdn.co/image/ab67616d00004851929ce61cfa2ed51f4f64ba4d",
          "width" : 64
        } ],
        "name" : "Top 100 Praise & Worship Songs 2012 Edition",
        "release_date" : "2012-01-01",
        "release_date_precision" : "day",
        "total_tracks" : 100,
        "type" : "album",
        "uri" : "spotify:album:44uMUPRCz28305p2k2TU6N"
      },
      "artists" : [ {
        "external_urls" : {
          "spotify" : "https://open.spotify.com/artist/67OFzndMlzj7cDF2BqnwYe"
        },
        "href" : "https://api.spotify.com/v1/artists/67OFzndMlzj7cDF2BqnwYe",
        "id" : "67OFzndMlzj7cDF2BqnwYe",
        "name" : "Maranatha! Music",
        "type" : "artist",
        "uri" : "spotify:artist:67OFzndMlzj7cDF2BqnwYe"
      } ],
      "disc_number" : 1,
      "duration_ms" : 255066,
      "explicit" : false,
      "external_ids" : {
        "isrc" : "GBDFB0600122"
      },
      "external_urls" : {
        "spotify" : "https://open.spotify.com/track/3xa3CtnJHbkNJKB9lliQUf"
      },
      "href" : "https://api.spotify.com/v1/tracks/3xa3CtnJHbkNJKB9lliQUf",
      "id" : "3xa3CtnJHbkNJKB9lliQUf",
      "is_local" : false,
      "is_playable" : true,
      "name" : "How Great Is Our God",
      "popularity" : 34,
      "preview_url" : null,
      "track_number" : 2,
      "type" : "track",
      "uri" : "spotify:track:3xa3CtnJHbkNJKB9lliQUf"
    }, {
      "album" : {
        "album_type" : "album",
        "artists" : [ {
          "external_urls" : {
            "spotify" : "https://open.spotify.com/artist/74IEeKcuS34kF2TjOigXra"
          },
          "href" : "https://api.spotify.com/v1/artists/74IEeKcuS34kF2TjOigXra",
          "id" : "74IEeKcuS34kF2TjOigXra",
          "name" : "Donnie McClurkin",
          "type" : "artist",
          "uri" : "spotify:artist:74IEeKcuS34kF2TjOigXra"
        } ],
        "external_urls" : {
          "spotify" : "https://open.spotify.com/album/20Ahz7xI2IFw7bdl0FE6On"
        },
        "href" : "https://api.spotify.com/v1/albums/20Ahz7xI2IFw7bdl0FE6On",
        "id" : "20Ahz7xI2IFw7bdl0FE6On",
        "images" : [ {
          "height" : 640,
          "url" : "https://i.scdn.co/image/ab67616d0000b2730178463a930e43f73ebeefaf",
          "width" : 640
        }, {
          "height" : 300,
          "url" : "https://i.scdn.co/image/ab67616d00001e020178463a930e43f73ebeefaf",
          "width" : 300
        }, {
          "height" : 64,
          "url" : "https://i.scdn.co/image/ab67616d000048510178463a930e43f73ebeefaf",
          "width" : 64
        } ],
        "name" : "Psalms, Hymns & Spiritual Songs",
        "release_date" : "2001-01-01",
        "release_date_precision" : "day",
        "total_tracks" : 21,
        "type" : "album",
        "uri" : "spotify:album:20Ahz7xI2IFw7bdl0FE6On"
      },
      "artists" : [ {
        "external_urls" : {
          "spotify" : "https://open.spotify.com/artist/74IEeKcuS34kF2TjOigXra"
        },
        "href" : "https://api.spotify.com/v1/artists/74IEeKcuS34kF2TjOigXra",
        "id" : "74IEeKcuS34kF2TjOigXra",
        "name" : "Donnie McClurkin",
        "type" : "artist",
        "uri" : "spotify:artist:74IEeKcuS34kF2TjOigXra"
      } ],
      "disc_number" : 1,
      "duration_ms" : 137653,
      "explicit" : false,
      "external_ids" : {
        "isrc" : "USVE20500048"
      },
      "external_urls" : {
        "spotify" : "https://open.spotify.com/track/5pqrXRMJdmptHt9QYErEig"
      },
      "href" : "https://api.spotify.com/v1/tracks/5pqrXRMJdmptHt9QYErEig",
      "id" : "5pqrXRMJdmptHt9QYErEig",
      "is_local" : false,
      "is_playable" : true,
      "name" : "Great And Mighty Is Our God",
      "popularity" : 22,
      "preview_url" : "https://p.scdn.co/mp3-preview/35ac7319a5d6cc6ba28745b26ce8cf0d06a2ef2a?cid=774b29d4f13844c495f206cafdad9c86",
      "track_number" : 4,
      "type" : "track",
      "uri" : "spotify:track:5pqrXRMJdmptHt9QYErEig"
    }, {
      "album" : {
        "album_type" : "album",
        "artists" : [ {
          "external_urls" : {
            "spotify" : "https://open.spotify.com/artist/3JKSiFPFpKSntu64OwWnIw"
          },
          "href" : "https://api.spotify.com/v1/artists/3JKSiFPFpKSntu64OwWnIw",
          "id" : "3JKSiFPFpKSntu64OwWnIw",
          "name" : "Lifeway Worship",
          "type" : "artist",
          "uri" : "spotify:artist:3JKSiFPFpKSntu64OwWnIw"
        } ],
        "external_urls" : {
          "spotify" : "https://open.spotify.com/album/2xNppxlrZLy9e9ZBjRgB1v"
        },
        "href" : "https://api.spotify.com/v1/albums/2xNppxlrZLy9e9ZBjRgB1v",
        "id" : "2xNppxlrZLy9e9ZBjRgB1v",
        "images" : [ {
          "height" : 640,
          "url" : "https://i.scdn.co/image/ab67616d0000b273fa9ba27726b287722544dda2",
          "width" : 640
        }, {
          "height" : 300,
          "url" : "https://i.scdn.co/image/ab67616d00001e02fa9ba27726b287722544dda2",
          "width" : 300
        }, {
          "height" : 64,
          "url" : "https://i.scdn.co/image/ab67616d00004851fa9ba27726b287722544dda2",
          "width" : 64
        } ],
        "name" : "Top 50 Worship Songs for Your Workout",
        "release_date" : "2020-05-29",
        "release_date_precision" : "day",
        "total_tracks" : 50,
        "type" : "album",
        "uri" : "spotify:album:2xNppxlrZLy9e9ZBjRgB1v"
      },
      "artists" : [ {
        "external_urls" : {
          "spotify" : "https://open.spotify.com/artist/3JKSiFPFpKSntu64OwWnIw"
        },
        "href" : "https://api.spotify.com/v1/artists/3JKSiFPFpKSntu64OwWnIw",
        "id" : "3JKSiFPFpKSntu64OwWnIw",
        "name" : "Lifeway Worship",
        "type" : "artist",
        "uri" : "spotify:artist:3JKSiFPFpKSntu64OwWnIw"
      } ],
      "disc_number" : 1,
      "duration_ms" : 216490,
      "explicit" : false,
      "external_ids" : {
        "isrc" : "USBWZ0800285"
      },
      "external_urls" : {
        "spotify" : "https://open.spotify.com/track/0aXC0kMUWjOaNxazurPIyI"
      },
      "href" : "https://api.spotify.com/v1/tracks/0aXC0kMUWjOaNxazurPIyI",
      "id" : "0aXC0kMUWjOaNxazurPIyI",
      "is_local" : false,
      "is_playable" : true,
      "name" : "A Mighty Fortress Is Our God",
      "popularity" : 0,
      "preview_url" : "https://p.scdn.co/mp3-preview/02c997500492db4a40519129e5ea22d13255eb3b?cid=774b29d4f13844c495f206cafdad9c86",
      "track_number" : 33,
      "type" : "track",
      "uri" : "spotify:track:0aXC0kMUWjOaNxazurPIyI"
    }, {
      "album" : {
        "album_type" : "album",
        "artists" : [ {
          "external_urls" : {
            "spotify" : "https://open.spotify.com/artist/0bygw4YfrraeRWR6j9HydK"
          },
          "href" : "https://api.spotify.com/v1/artists/0bygw4YfrraeRWR6j9HydK",
          "id" : "0bygw4YfrraeRWR6j9HydK",
          "name" : "Maranatha! Instrumental",
          "type" : "artist",
          "uri" : "spotify:artist:0bygw4YfrraeRWR6j9HydK"
        } ],
        "external_urls" : {
          "spotify" : "https://open.spotify.com/album/38rV9EaU1RUZJ5KEvTKZM7"
        },
        "href" : "https://api.spotify.com/v1/albums/38rV9EaU1RUZJ5KEvTKZM7",
        "id" : "38rV9EaU1RUZJ5KEvTKZM7",
        "images" : [ {
          "height" : 640,
          "url" : "https://i.scdn.co/image/ab67616d0000b2732dcfa250f27bcabe11dc3c75",
          "width" : 640
        }, {
          "height" : 300,
          "url" : "https://i.scdn.co/image/ab67616d00001e022dcfa250f27bcabe11dc3c75",
          "width" : 300
        }, {
          "height" : 64,
          "url" : "https://i.scdn.co/image/ab67616d000048512dcfa250f27bcabe11dc3c75",
          "width" : 64
        } ],
        "name" : "Top 25 Praise Songs Instrumental 2011",
        "release_date" : "2010-01-01",
        "release_date_precision" : "day",
        "total_tracks" : 25,
        "type" : "album",
        "uri" : "spotify:album:38rV9EaU1RUZJ5KEvTKZM7"
      },
      "artists" : [ {
        "external_urls" : {
          "spotify" : "https://open.spotify.com/artist/6CDJjCW8qVphiyxVukKdOa"
        },
        "href" : "https://api.spotify.com/v1/artists/6CDJjCW8qVphiyxVukKdOa",
        "id" : "6CDJjCW8qVphiyxVukKdOa",
        "name" : "Maranatha! Praise Band",
        "type" : "artist",
        "uri" : "spotify:artist:6CDJjCW8qVphiyxVukKdOa"
      } ],
      "disc_number" : 1,
      "duration_ms" : 294426,
      "explicit" : false,
      "external_ids" : {
        "isrc" : "USMN20800034"
      },
      "external_urls" : {
        "spotify" : "https://open.spotify.com/track/6WqTzFE8snwwVwEjVj34zn"
      },
      "href" : "https://api.spotify.com/v1/tracks/6WqTzFE8snwwVwEjVj34zn",
      "id" : "6WqTzFE8snwwVwEjVj34zn",
      "is_local" : false,
      "is_playable" : true,
      "name" : "How Great Is Our God",
      "popularity" : 21,
      "preview_url" : null,
      "track_number" : 1,
      "type" : "track",
      "uri" : "spotify:track:6WqTzFE8snwwVwEjVj34zn"
    }, {
      "album" : {
        "album_type" : "compilation",
        "artists" : [ {
          "external_urls" : {
            "spotify" : "https://open.spotify.com/artist/0LyfQWJT6nXafLPZqxe9Of"
          },
          "href" : "https://api.spotify.com/v1/artists/0LyfQWJT6nXafLPZqxe9Of",
          "id" : "0LyfQWJT6nXafLPZqxe9Of",
          "name" : "Various Artists",
          "type" : "artist",
          "uri" : "spotify:artist:0LyfQWJT6nXafLPZqxe9Of"
        } ],
        "external_urls" : {
          "spotify" : "https://open.spotify.com/album/3uaYp0EzQtUftm4fS0QHnL"
        },
        "href" : "https://api.spotify.com/v1/albums/3uaYp0EzQtUftm4fS0QHnL",
        "id" : "3uaYp0EzQtUftm4fS0QHnL",
        "images" : [ {
          "height" : 640,
          "url" : "https://i.scdn.co/image/ab67616d0000b27343875552850894d1439d4ef4",
          "width" : 640
        }, {
          "height" : 300,
          "url" : "https://i.scdn.co/image/ab67616d00001e0243875552850894d1439d4ef4",
          "width" : 300
        }, {
          "height" : 64,
          "url" : "https://i.scdn.co/image/ab67616d0000485143875552850894d1439d4ef4",
          "width" : 64
        } ],
        "name" : "Our God Is An Awesome God - Songs of Adoration from the Classic Worship series",
        "release_date" : "2013-03-06",
        "release_date_precision" : "day",
        "total_tracks" : 10,
        "type" : "album",
        "uri" : "spotify:album:3uaYp0EzQtUftm4fS0QHnL"
      },
      "artists" : [ {
        "external_urls" : {
          "spotify" : "https://open.spotify.com/artist/727WgIzgyFAPrU3kD0YfZo"
        },
        "href" : "https://api.spotify.com/v1/artists/727WgIzgyFAPrU3kD0YfZo",
        "id" : "727WgIzgyFAPrU3kD0YfZo",
        "name" : "The Martingale Players",
        "type" : "artist",
        "uri" : "spotify:artist:727WgIzgyFAPrU3kD0YfZo"
      } ],
      "disc_number" : 1,
      "duration_ms" : 213213,
      "explicit" : false,
      "external_ids" : {
        "isrc" : "USG5S1224501"
      },
      "external_urls" : {
        "spotify" : "https://open.spotify.com/track/4cA8TLCvVcmU9zK5mmnIdg"
      },
      "href" : "https://api.spotify.com/v1/tracks/4cA8TLCvVcmU9zK5mmnIdg",
      "id" : "4cA8TLCvVcmU9zK5mmnIdg",
      "is_local" : false,
      "is_playable" : true,
      "name" : "Our God Is An Awesome God",
      "popularity" : 19,
      "preview_url" : "https://p.scdn.co/mp3-preview/2681062edab39a189f6ade735d8df3fb1014bdf4?cid=774b29d4f13844c495f206cafdad9c86",
      "track_number" : 1,
      "type" : "track",
      "uri" : "spotify:track:4cA8TLCvVcmU9zK5mmnIdg"
    }, {
      "album" : {
        "album_type" : "album",
        "artists" : [ {
          "external_urls" : {
            "spotify" : "https://open.spotify.com/artist/7gjHSq6MQ3C2RNdlIkbYnG"
          },
          "href" : "https://api.spotify.com/v1/artists/7gjHSq6MQ3C2RNdlIkbYnG",
          "id" : "7gjHSq6MQ3C2RNdlIkbYnG",
          "name" : "Instrumental Christian Songs, Christian Piano Music",
          "type" : "artist",
          "uri" : "spotify:artist:7gjHSq6MQ3C2RNdlIkbYnG"
        }, {
          "external_urls" : {
            "spotify" : "https://open.spotify.com/artist/1TRZYAlP0bNz0dZCbWAjsI"
          },
          "href" : "https://api.spotify.com/v1/artists/1TRZYAlP0bNz0dZCbWAjsI",
          "id" : "1TRZYAlP0bNz0dZCbWAjsI",
          "name" : "Steve Petrunak",
          "type" : "artist",
          "uri" : "spotify:artist:1TRZYAlP0bNz0dZCbWAjsI"
        } ],
        "external_urls" : {
          "spotify" : "https://open.spotify.com/album/4alLDUM5IqasGFEBjUzb67"
        },
        "href" : "https://api.spotify.com/v1/albums/4alLDUM5IqasGFEBjUzb67",
        "id" : "4alLDUM5IqasGFEBjUzb67",
        "images" : [ {
          "height" : 640,
          "url" : "https://i.scdn.co/image/ab67616d0000b273cc5a1c63c249cccef1b67d01",
          "width" : 640
        }, {
          "height" : 300,
          "url" : "https://i.scdn.co/image/ab67616d00001e02cc5a1c63c249cccef1b67d01",
          "width" : 300
        }, {
          "height" : 64,
          "url" : "https://i.scdn.co/image/ab67616d00004851cc5a1c63c249cccef1b67d01",
          "width" : 64
        } ],
        "name" : "Christian Rock on Guitar",
        "release_date" : "2017-10-26",
        "release_date_precision" : "day",
        "total_tracks" : 14,
        "type" : "album",
        "uri" : "spotify:album:4alLDUM5IqasGFEBjUzb67"
      },
      "artists" : [ {
        "external_urls" : {
          "spotify" : "https://open.spotify.com/artist/7gjHSq6MQ3C2RNdlIkbYnG"
        },
        "href" : "https://api.spotify.com/v1/artists/7gjHSq6MQ3C2RNdlIkbYnG",
        "id" : "7gjHSq6MQ3C2RNdlIkbYnG",
        "name" : "Instrumental Christian Songs, Christian Piano Music",
        "type" : "artist",
        "uri" : "spotify:artist:7gjHSq6MQ3C2RNdlIkbYnG"
      }, {
        "external_urls" : {
          "spotify" : "https://open.spotify.com/artist/1TRZYAlP0bNz0dZCbWAjsI"
        },
        "href" : "https://api.spotify.com/v1/artists/1TRZYAlP0bNz0dZCbWAjsI",
        "id" : "1TRZYAlP0bNz0dZCbWAjsI",
        "name" : "Steve Petrunak",
        "type" : "artist",
        "uri" : "spotify:artist:1TRZYAlP0bNz0dZCbWAjsI"
      } ],
      "disc_number" : 1,
      "duration_ms" : 265769,
      "explicit" : false,
      "external_ids" : {
        "isrc" : "TCADI1737061"
      },
      "external_urls" : {
        "spotify" : "https://open.spotify.com/track/6JWCpi2axsCEVgVtw2qQAX"
      },
      "href" : "https://api.spotify.com/v1/tracks/6JWCpi2axsCEVgVtw2qQAX",
      "id" : "6JWCpi2axsCEVgVtw2qQAX",
      "is_local" : false,
      "is_playable" : true,
      "name" : "How Great Is Our God (Instrumental Version)",
      "popularity" : 21,
      "preview_url" : "https://p.scdn.co/mp3-preview/a47c1156bdd76420b0a5550c4bce5e6f19bed328?cid=774b29d4f13844c495f206cafdad9c86",
      "track_number" : 6,
      "type" : "track",
      "uri" : "spotify:track:6JWCpi2axsCEVgVtw2qQAX"
    }, {
      "album" : {
        "album_type" : "album",
        "artists" : [ {
          "external_urls" : {
            "spotify" : "https://open.spotify.com/artist/4uEggQYM7JJqQ05uQUgRqL"
          },
          "href" : "https://api.spotify.com/v1/artists/4uEggQYM7JJqQ05uQUgRqL",
          "id" : "4uEggQYM7JJqQ05uQUgRqL",
          "name" : "Umobile Worship",
          "type" : "artist",
          "uri" : "spotify:artist:4uEggQYM7JJqQ05uQUgRqL"
        } ],
        "external_urls" : {
          "spotify" : "https://open.spotify.com/album/5i6sVCCbOKPCFEOIDelNbK"
        },
        "href" : "https://api.spotify.com/v1/albums/5i6sVCCbOKPCFEOIDelNbK",
        "id" : "5i6sVCCbOKPCFEOIDelNbK",
        "images" : [ {
          "height" : 640,
          "url" : "https://i.scdn.co/image/ab67616d0000b2732280f2585719a20776a25589",
          "width" : 640
        }, {
          "height" : 300,
          "url" : "https://i.scdn.co/image/ab67616d00001e022280f2585719a20776a25589",
          "width" : 300
        }, {
          "height" : 64,
          "url" : "https://i.scdn.co/image/ab67616d000048512280f2585719a20776a25589",
          "width" : 64
        } ],
        "name" : "Our God Is Faithful (Live Worship from the University of Mobile)",
        "release_date" : "2013-09-17",
        "release_date_precision" : "day",
        "total_tracks" : 8,
        "type" : "album",
        "uri" : "spotify:album:5i6sVCCbOKPCFEOIDelNbK"
      },
      "artists" : [ {
        "external_urls" : {
          "spotify" : "https://open.spotify.com/artist/4uEggQYM7JJqQ05uQUgRqL"
        },
        "href" : "https://api.spotify.com/v1/artists/4uEggQYM7JJqQ05uQUgRqL",
        "id" : "4uEggQYM7JJqQ05uQUgRqL",
        "name" : "Umobile Worship",
        "type" : "artist",
        "uri" : "spotify:artist:4uEggQYM7JJqQ05uQUgRqL"
      } ],
      "disc_number" : 1,
      "duration_ms" : 293125,
      "explicit" : false,
      "external_ids" : {
        "isrc" : "TCABQ1328009"
      },
      "external_urls" : {
        "spotify" : "https://open.spotify.com/track/5ggv23WiEKePvA5uulMX98"
      },
      "href" : "https://api.spotify.com/v1/tracks/5ggv23WiEKePvA5uulMX98",
      "id" : "5ggv23WiEKePvA5uulMX98",
      "is_local" : false,
      "is_playable" : true,
      "name" : "Holy (Wedding Song) [Live]",
      "popularity" : 21,
      "preview_url" : "https://p.scdn.co/mp3-preview/62a2c86a4f82b38436d1d532cfc5009501e3ed38?cid=774b29d4f13844c495f206cafdad9c86",
      "track_number" : 1,
      "type" : "track",
      "uri" : "spotify:track:5ggv23WiEKePvA5uulMX98"
    }, {
      "album" : {
        "album_type" : "album",
        "artists" : [ {
          "external_urls" : {
            "spotify" : "https://open.spotify.com/artist/7kuyOw0FKwn0BwTHegjJ4g"
          },
          "href" : "https://api.spotify.com/v1/artists/7kuyOw0FKwn0BwTHegjJ4g",
          "id" : "7kuyOw0FKwn0BwTHegjJ4g",
          "name" : "Dan Musselman",
          "type" : "artist",
          "uri" : "spotify:artist:7kuyOw0FKwn0BwTHegjJ4g"
        } ],
        "external_urls" : {
          "spotify" : "https://open.spotify.com/album/3HlljsmlgYxW7rdNVukwYo"
        },
        "href" : "https://api.spotify.com/v1/albums/3HlljsmlgYxW7rdNVukwYo",
        "id" : "3HlljsmlgYxW7rdNVukwYo",
        "images" : [ {
          "height" : 640,
          "url" : "https://i.scdn.co/image/ab67616d0000b273b9a405caf8f2c304f6d12486",
          "width" : 640
        }, {
          "height" : 300,
          "url" : "https://i.scdn.co/image/ab67616d00001e02b9a405caf8f2c304f6d12486",
          "width" : 300
        }, {
          "height" : 64,
          "url" : "https://i.scdn.co/image/ab67616d00004851b9a405caf8f2c304f6d12486",
          "width" : 64
        } ],
        "name" : "Best Worship Songs of All Time",
        "release_date" : "2018-08-10",
        "release_date_precision" : "day",
        "total_tracks" : 25,
        "type" : "album",
        "uri" : "spotify:album:3HlljsmlgYxW7rdNVukwYo"
      },
      "artists" : [ {
        "external_urls" : {
          "spotify" : "https://open.spotify.com/artist/7kuyOw0FKwn0BwTHegjJ4g"
        },
        "href" : "https://api.spotify.com/v1/artists/7kuyOw0FKwn0BwTHegjJ4g",
        "id" : "7kuyOw0FKwn0BwTHegjJ4g",
        "name" : "Dan Musselman",
        "type" : "artist",
        "uri" : "spotify:artist:7kuyOw0FKwn0BwTHegjJ4g"
      } ],
      "disc_number" : 1,
      "duration_ms" : 251807,
      "explicit" : false,
      "external_ids" : {
        "isrc" : "ushm81845876"
      },
      "external_urls" : {
        "spotify" : "https://open.spotify.com/track/0Bofc4nCVxNAp9PbFC26R7"
      },
      "href" : "https://api.spotify.com/v1/tracks/0Bofc4nCVxNAp9PbFC26R7",
      "id" : "0Bofc4nCVxNAp9PbFC26R7",
      "is_local" : false,
      "is_playable" : true,
      "name" : "How Great Is Our God",
      "popularity" : 20,
      "preview_url" : "https://p.scdn.co/mp3-preview/327e0551494b064cfb4ddfb10be6dd6f832e203f?cid=774b29d4f13844c495f206cafdad9c86",
      "track_number" : 13,
      "type" : "track",
      "uri" : "spotify:track:0Bofc4nCVxNAp9PbFC26R7"
    }, {
      "album" : {
        "album_type" : "album",
        "artists" : [ {
          "external_urls" : {
            "spotify" : "https://open.spotify.com/artist/67OFzndMlzj7cDF2BqnwYe"
          },
          "href" : "https://api.spotify.com/v1/artists/67OFzndMlzj7cDF2BqnwYe",
          "id" : "67OFzndMlzj7cDF2BqnwYe",
          "name" : "Maranatha! Music",
          "type" : "artist",
          "uri" : "spotify:artist:67OFzndMlzj7cDF2BqnwYe"
        } ],
        "external_urls" : {
          "spotify" : "https://open.spotify.com/album/1MxPYPmhb6JGqyHvLCSZ2q"
        },
        "href" : "https://api.spotify.com/v1/albums/1MxPYPmhb6JGqyHvLCSZ2q",
        "id" : "1MxPYPmhb6JGqyHvLCSZ2q",
        "images" : [ {
          "height" : 640,
          "url" : "https://i.scdn.co/image/ab67616d0000b273268259b17ccb5887c18e8dc8",
          "width" : 640
        }, {
          "height" : 300,
          "url" : "https://i.scdn.co/image/ab67616d00001e02268259b17ccb5887c18e8dc8",
          "width" : 300
        }, {
          "height" : 64,
          "url" : "https://i.scdn.co/image/ab67616d00004851268259b17ccb5887c18e8dc8",
          "width" : 64
        } ],
        "name" : "Top 50 Praise Songs",
        "release_date" : "2011-01-01",
        "release_date_precision" : "day",
        "total_tracks" : 50,
        "type" : "album",
        "uri" : "spotify:album:1MxPYPmhb6JGqyHvLCSZ2q"
      },
      "artists" : [ {
        "external_urls" : {
          "spotify" : "https://open.spotify.com/artist/67OFzndMlzj7cDF2BqnwYe"
        },
        "href" : "https://api.spotify.com/v1/artists/67OFzndMlzj7cDF2BqnwYe",
        "id" : "67OFzndMlzj7cDF2BqnwYe",
        "name" : "Maranatha! Music",
        "type" : "artist",
        "uri" : "spotify:artist:67OFzndMlzj7cDF2BqnwYe"
      } ],
      "disc_number" : 1,
      "duration_ms" : 250413,
      "explicit" : false,
      "external_ids" : {
        "isrc" : "GBDFB0600122"
      },
      "external_urls" : {
        "spotify" : "https://open.spotify.com/track/6oeb0gV8Hsv0sOsTQMeC18"
      },
      "href" : "https://api.spotify.com/v1/tracks/6oeb0gV8Hsv0sOsTQMeC18",
      "id" : "6oeb0gV8Hsv0sOsTQMeC18",
      "is_local" : false,
      "is_playable" : true,
      "name" : "How Great Is Our God",
      "popularity" : 26,
      "preview_url" : null,
      "track_number" : 2,
      "type" : "track",
      "uri" : "spotify:track:6oeb0gV8Hsv0sOsTQMeC18"
    } ],
    "limit" : 10,
    "next" : "https://api.spotify.com/v1/search?query=God+Is+Our+Song&type=track&market=US&offset=15&limit=10",
    "offset" : 5,
    "previous" : "https://api.spotify.com/v1/search?query=God+Is+Our+Song&type=track&market=US&offset=0&limit=10",
    "total" : 325
  }
}