{
  "tracks" : {
    "href" : "https://api.spotify.com/v1/search?query=The+Day+Thou+Gavest&type=track&market=US&offset=5&limit=10",
    "items" : [ {
      "album" : {
        "album_type" : "album",
        "artists" : [ {
          "external_urls" : {
            "spotify" : "https://open.spotify.com/artist/0zkktODM7ilY2D4K0YkOYE"
          },
          "href" : "https://api.spotify.com/v1/artists/0zkktODM7ilY2D4K0YkOYE",
          "id" : "0zkktODM7ilY2D4K0YkOYE",
          "name" : "Nick Fletcher",
          "type" : "artist",
          "uri" : "spotify:artist:0zkktODM7ilY2D4K0YkOYE"
        } ],
        "external_urls" : {
          "spotify" : "https://open.spotify.com/album/1TGW8u4WrRvHIVArvDjFKF"
        },
        "href" : "https://api.spotify.com/v1/albums/1TGW8u4WrRvHIVArvDjFKF",
        "id" : "1TGW8u4WrRvHIVArvDjFKF",
        "images" : [ {
          "height" : 640,
          "url" : "https://i.scdn.co/image/ab67616d0000b27388f31ec9b05080c8494379d0",
          "width" : 640
        }, {
          "height" : 300,
          "url" : "https://i.scdn.co/image/ab67616d00001e0288f31ec9b05080c8494379d0",
          "width" : 300
        }, {
          "height" : 64,
          "url" : "https://i.scdn.co/image/ab67616d0000485188f31ec9b05080c8494379d0",
          "width" : 64
        } ],
        "name" : "Six String Hymns",
        "release_date" : "2007-12-10",
        "release_date_precision" : "day",
        "total_tracks" : 24,
        "type" : "album",
        "uri" : "spotify:album:1TGW8u4WrRvHIVArvDjFKF"
      },
      "artists" : [ {
        "external_urls" : {
          "spotify" : "https://open.spotify.com/artist/0zkktODM7ilY2D4K0YkOYE"
        },
        "href" : "https://api.spotify.com/v1/artists/0zkktODM7ilY2D4K0YkOYE",
        "id" : "0zkktODM7ilY2D4K0YkOYE",
        "name" : "Nick Fletcher",
        "type" : "artist",
        "uri" : "spotify:artist:0zkktODM7ilY2D4K0YkOYE"
      } ],
      "disc_number" : 1,
      "duration_ms" : 185413,
      "explicit" : false,
      "external_ids" : {
        "isrc" : "GBBTM0775723"
      },
      "external_urls" : {
        "spotify" : "https://open.spotify.com/track/3Fiogtg3fI8S5U4XHPBtLO"
      },
      "href" : "https://api.spotify.com/v1/tracks/3Fiogtg3fI8S5U4XHPBtLO",
      "id" : "3Fiogtg3fI8S5U4XHPBtLO",
      "is_local" : false,
      "is_playable" : true,
      "name" : "The Day Thou Gavest Lord Hath Ended",
      "popularity" : 14,
      "preview_url" : "https://p.scdn.co/mp3-preview/29760ab0699b6c3226c8c26175d7f864b9519bf9?cid=774b29d4f13844c495f206cafdad9c86",
      "track_number" : 23,
      "type" : "track",
      "uri" : "spotify:track:3Fiogtg3fI8S5U4XHPBtLO"
    }, {
      "album" : {
        "album_type" : "album",
        "artists" : [ {
          "external_urls" : {
            "spotify" : "https://open.spotify.com/artist/73Pgynm8mcWRCeIGRNDBel"
          },
          "href" : "https://api.spotify.com/v1/artists/73Pgynm8mcWRCeIGRNDBel",
          "id" : "73Pgynm8mcWRCeIGRNDBel",
          "name" : "Joel Rosenberger",
          "type" : "artist",
          "uri" : "spotify:artist:73Pgynm8mcWRCeIGRNDBel"
        } ],
        "external_urls" : {
          "spotify" : "https://open.spotify.com/album/4SjXNie0ESd0hsXnmUqk8s"
        },
        "href" : "https://api.spotify.com/v1/albums/4SjXNie0ESd0hsXnmUqk8s",
        "id" : "4SjXNie0ESd0hsXnmUqk8s",
        "images" : [ {
          "height" : 640,
          "url" : "https://i.scdn.co/image/ab67616d0000b273612a777b55540a701299d54e",
          "width" : 640
        }, {
          "height" : 300,
          "url" : "https://i.scdn.co/image/ab67616d00001e02612a777b55540a701299d54e",
          "width" : 300
        }, {
          "height" : 64,
          "url" : "https://i.scdn.co/image/ab67616d00004851612a777b55540a701299d54e",
          "width" : 64
        } ],
        "name" : "Hymn Journeys: Contemporary Piano Interpretations",
        "release_date" : "2009-05-11",
        "release_date_precision" : "day",
        "total_tracks" : 19,
        "type" : "album",
        "uri" : "spotify:album:4SjXNie0ESd0hsXnmUqk8s"
      },
      "artists" : [ {
        "external_urls" : {
          "spotify" : "https://open.spotify.com/artist/73Pgynm8mcWRCeIGRNDBel"
        },
        "href" : "https://api.spotify.com/v1/artists/73Pgynm8mcWRCeIGRNDBel",
        "id" : "73Pgynm8mcWRCeIGRNDBel",
        "name" : "Joel Rosenberger",
        "type" : "artist",
        "uri" : "spotify:artist:73Pgynm8mcWRCeIGRNDBel"
      } ],
      "disc_number" : 1,
      "duration_ms" : 215080,
      "explicit" : false,
      "external_ids" : {
        "isrc" : "uscgj0913945"
      },
      "external_urls" : {
        "spotify" : "https://open.spotify.com/track/2UEoPslyamYOGuF2EoJBec"
      },
      "href" : "https://api.spotify.com/v1/tracks/2UEoPslyamYOGuF2EoJBec",
      "id" : "2UEoPslyamYOGuF2EoJBec",
      "is_local" : false,
      "is_playable" : true,
      "name" : "The Day Thou Gavest Lord Is Ended",
      "popularity" : 10,
      "preview_url" : "https://p.scdn.co/mp3-preview/027aa200f6731e390e2c0aac1a6ace1d5a202ad2?cid=774b29d4f13844c495f206cafdad9c86",
      "track_number" : 19,
      "type" : "track",
      "uri" : "spotify:track:2UEoPslyamYOGuF2EoJBec"
    }, {
      "album" : {
        "album_type" : "compilation",
        "artists" : [ {
          "external_urls" : {
            "spotify" : "https://open.spotify.com/artist/0LyfQWJT6nXafLPZqxe9Of"
          },
          "href" : "https://api.spotify.com/v1/artists/0LyfQWJT6nXafLPZqxe9Of",
          "id" : "0LyfQWJT6nXafLPZqxe9Of",
          "name" : "Various Artists",
          "type" : "artist",
          "uri" : "spotify:artist:0LyfQWJT6nXafLPZqxe9Of"
        } ],
        "external_urls" : {
          "spotify" : "https://open.spotify.com/album/5cX1OMVDSnaWGcGeSKnLFg"
        },
        "href" : "https://api.spotify.com/v1/albums/5cX1OMVDSnaWGcGeSKnLFg",
        "id" : "5cX1OMVDSnaWGcGeSKnLFg",
        "images" : [ {
          "height" : 640,
          "url" : "https://i.scdn.co/image/ab67616d0000b273009aca9d3a57f5d6e49f48a4",
          "width" : 640
        }, {
          "height" : 300,
          "url" : "https://i.scdn.co/image/ab67616d00001e02009aca9d3a57f5d6e49f48a4",
          "width" : 300
        }, {
          "height" : 64,
          "url" : "https://i.scdn.co/image/ab67616d00004851009aca9d3a57f5d6e49f48a4",
          "width" : 64
        } ],
        "name" : "Music for the Funeral Service",
        "release_date" : "1994-12-11",
        "release_date_precision" : "day",
        "total_tracks" : 21,
        "type" : "album",
        "uri" : "spotify:album:5cX1OMVDSnaWGcGeSKnLFg"
      },
      "artists" : [ {
        "external_urls" : {
          "spotify" : "https://open.spotify.com/artist/6OLegABYqaWXx6d2SNh1Dw"
        },
        "href" : "https://api.spotify.com/v1/artists/6OLegABYqaWXx6d2SNh1Dw",
        "id" : "6OLegABYqaWXx6d2SNh1Dw",
        "name" : "Norwich Cathedral Choir",
        "type" : "artist",
        "uri" : "spotify:artist:6OLegABYqaWXx6d2SNh1Dw"
      } ],
      "disc_number" : 1,
      "duration_ms" : 195400,
      "explicit" : false,
      "external_ids" : {
        "isrc" : "GBXUX0730021"
      },
      "external_urls" : {
        "spotify" : "https://open.spotify.com/track/0GlaA5BWatrW63XmqyoBaT"
      },
      "href" : "https://api.spotify.com/v1/tracks/0GlaA5BWatrW63XmqyoBaT",
      "id" : "0GlaA5BWatrW63XmqyoBaT",
      "is_local" : false,
      "is_playable" : true,
      "name" : "The Day Thou Gavest Lord Is Ended",
      "popularity" : 14,
      "preview_url" : "https://p.scdn.co/mp3-preview/d042c2b3b851357e7c708875ed8e282e68fccd86?cid=774b29d4f13844c495f206cafdad9c86",
      "track_number" : 21,
      "type" : "track",
      "uri" : "spotify:track:0GlaA5BWatrW63XmqyoBaT"
    }, {
      "album" : {
        "album_type" : "album",
        "artists" : [ {
          "external_urls" : {
            "spotify" : "https://open.spotify.com/artist/0f3PsS9IQ6whvNMFFKnpjl"
          },
          "href" : "https://api.spotify.com/v1/artists/0f3PsS9IQ6whvNMFFKnpjl",
          "id" : "0f3PsS9IQ6whvNMFFKnpjl",
          "name" : "Choir of King's College, Cambridge",
          "type" : "artist",
          "uri" : "spotify:artist:0f3PsS9IQ6whvNMFFKnpjl"
        }, {
          "external_urls" : {
            "spotify" : "https://open.spotify.com/artist/0ugRf6ECGBFRCHlv9iG1No"
          },
          "href" : "https://api.spotify.com/v1/artists/0ugRf6ECGBFRCHlv9iG1No",
          "id" : "0ugRf6ECGBFRCHlv9iG1No",
          "name" : "Stephen Cleobury",
          "type" : "artist",
          "uri" : "spotify:artist:0ugRf6ECGBFRCHlv9iG1No"
        } ],
        "external_urls" : {
          "spotify" : "https://open.spotify.com/album/4gOUkLyEUCTuv3KEv3WlHf"
        },
        "href" : "https://api.spotify.com/v1/albums/4gOUkLyEUCTuv3KEv3WlHf",
        "id" : "4gOUkLyEUCTuv3KEv3WlHf",
        "images" : [ {
          "height" : 640,
          "url" : "https://i.scdn.co/image/ab67616d0000b273bcb8235d1a1322d46c7b512e",
          "width" : 640
        }, {
          "height" : 300,
          "url" : "https://i.scdn.co/image/ab67616d00001e02bcb8235d1a1322d46c7b512e",
          "width" : 300
        }, {
          "height" : 64,
          "url" : "https://i.scdn.co/image/ab67616d00004851bcb8235d1a1322d46c7b512e",
          "width" : 64
        } ],
        "name" : "Best Loved Hymns",
        "release_date" : "2001-03-26",
        "release_date_precision" : "day",
        "total_tracks" : 18,
        "type" : "album",
        "uri" : "spotify:album:4gOUkLyEUCTuv3KEv3WlHf"
      },
      "artists" : [ {
        "external_urls" : {
          "spotify" : "https://open.spotify.com/artist/5sNqDKiNBDnEr9KXcxl5Ro"
        },
        "href" : "https://api.spotify.com/v1/artists/5sNqDKiNBDnEr9KXcxl5Ro",
        "id" : "5sNqDKiNBDnEr9KXcxl5Ro",
        "name" : "Clement Scholefield",
        "type" : "artist",
        "uri" : "spotify:artist:5sNqDKiNBDnEr9KXcxl5Ro"
      }, {
        "external_urls" : {
          "spotify" : "https://open.spotify.com/artist/0f3PsS9IQ6whvNMFFKnpjl"
        },
        "href" : "https://api.spotify.com/v1/artists/0f3PsS9IQ6whvNMFFKnpjl",
        "id" : "0f3PsS9IQ6whvNMFFKnpjl",
        "name" : "Choir of King's College, Cambridge",
        "type" : "artist",
        "uri" : "spotify:artist:0f3PsS9IQ6whvNMFFKnpjl"
      }, {
        "external_urls" : {
          "spotify" : "https://open.spotify.com/artist/0ugRf6ECGBFRCHlv9iG1No"
        },
        "href" : "https://api.spotify.com/v1/artists/0ugRf6ECGBFRCHlv9iG1No",
        "id" : "0ugRf6ECGBFRCHlv9iG1No",
        "name" : "Stephen Cleobury",
        "type" : "artist",
        "uri" : "spotify:artist:0ugRf6ECGBFRCHlv9iG1No"
      }, {
        "external_urls" : {
          "spotify" : "https://open.spotify.com/artist/3lSF72DO2gQRQlJ5hV6OEi"
        },
        "href" : "https://api.spotify.com/v1/artists/3lSF72DO2gQRQlJ5hV6OEi",
        "id" : "3lSF72DO2gQRQlJ5hV6OEi",
        "name" : "Benjamin Bayl",
        "type" : "artist",
        "uri" : "spotify:artist:3lSF72DO2gQRQlJ5hV6OEi"
      } ],
      "disc_number" : 1,
      "duration_ms" : 203813,
      "explicit" : false,
      "external_ids" : {
        "isrc" : "GBAYC0002442"
      },
      "external_urls" : {
        "spotify" : "https://open.spotify.com/track/6zBfEepcVdSKLCddL3dr0O"
      },
      "href" : "https://api.spotify.com/v1/tracks/6zBfEepcVdSKLCddL3dr0O",
      "id" : "6zBfEepcVdSKLCddL3dr0O",
      "is_local" : false,
      "is_playable" : true,
      "name" : "The day thou gavest, Lord, is ended (St Clement)",
      "popularity" : 14,
      "preview_url" : "https://p.scdn.co/mp3-preview/2f11598686c1b8dd87db3d75c31d239751c25a4f?cid=774b29d4f13844c495f206cafdad9c86",
      "track_number" : 10,
      "type" : "track",
      "uri" : "spotify:track:6zBfEepcVdSKLCddL3dr0O"
    }, {
      "album" : {
        "album_type" : "album",
        "artists" : [ {
          "external_urls" : {
            "spotify" : "https://open.spotify.com/artist/5sQwW3dIsfGVy6DWtKhDo0"
          },
          "href" : "https://api.spotify.com/v1/artists/5sQwW3dIsfGVy6DWtKhDo0",
          "id" : "5sQwW3dIsfGVy6DWtKhDo0",
          "name" : "York Minster Choir/Philip Moore",
          "type" : "artist",
          "uri" : "spotify:artist:5sQwW3dIsfGVy6DWtKhDo0"
        } ],
        "external_urls" : {
          "spotify" : "https://open.spotify.com/album/6av9dO2LmzDKWRaCSQby95"
        },
        "href" : "https://api.spotify.com/v1/albums/6av9dO2LmzDKWRaCSQby95",
        "id" : "6av9dO2LmzDKWRaCSQby95",
        "images" : [ {
          "height" : 640,
          "url" : "https://i.scdn.co/image/ab67616d0000b273d61ea403ddc2afaeca384282",
          "width" : 640
        }, {
          "height" : 300,
          "url" : "https://i.scdn.co/image/ab67616d00001e02d61ea403ddc2afaeca384282",
          "width" : 300
        }, {
          "height" : 64,
          "url" : "https://i.scdn.co/image/ab67616d00004851d61ea403ddc2afaeca384282",
          "width" : 64
        } ],
        "name" : "Best-Loved Hymns from York Minster",
        "release_date" : "1996",
        "release_date_precision" : "year",
        "total_tracks" : 21,
        "type" : "album",
        "uri" : "spotify:album:6av9dO2LmzDKWRaCSQby95"
      },
      "artists" : [ {
        "external_urls" : {
          "spotify" : "https://open.spotify.com/artist/5sNqDKiNBDnEr9KXcxl5Ro"
        },
        "href" : "https://api.spotify.com/v1/artists/5sNqDKiNBDnEr9KXcxl5Ro",
        "id" : "5sNqDKiNBDnEr9KXcxl5Ro",
        "name" : "Clement Scholefield",
        "type" : "artist",
        "uri" : "spotify:artist:5sNqDKiNBDnEr9KXcxl5Ro"
      }, {
        "external_urls" : {
          "spotify" : "https://open.spotify.com/artist/4qenjQZBIuPL8Ridz3sLH4"
        },
        "href" : "https://api.spotify.com/v1/artists/4qenjQZBIuPL8Ridz3sLH4",
        "id" : "4qenjQZBIuPL8Ridz3sLH4",
        "name" : "York Minster Choir",
        "type" : "artist",
        "uri" : "spotify:artist:4qenjQZBIuPL8Ridz3sLH4"
      }, {
        "external_urls" : {
          "spotify" : "https://open.spotify.com/artist/7abS4vtKpO3MidQZVbjMBn"
        },
        "href" : "https://api.spotify.com/v1/artists/7abS4vtKpO3MidQZVbjMBn",
        "id" : "7abS4vtKpO3MidQZVbjMBn",
        "name" : "Philip Moore",
        "type" : "artist",
        "uri" : "spotify:artist:7abS4vtKpO3MidQZVbjMBn"
      } ],
      "disc_number" : 1,
      "duration_ms" : 203000,
      "explicit" : false,
      "external_ids" : {
        "isrc" : "GBAYD9600659"
      },
      "external_urls" : {
        "spotify" : "https://open.spotify.com/track/4taupsXUsiNauBV8kw1v1v"
      },
      "href" : "https://api.spotify.com/v1/tracks/4taupsXUsiNauBV8kw1v1v",
      "id" : "4taupsXUsiNauBV8kw1v1v",
      "is_local" : false,
      "is_playable" : true,
      "name" : "The day thou gavest, Lord, is ended (St Clement)",
      "popularity" : 11,
      "preview_url" : "https://p.scdn.co/mp3-preview/813540fc29a1483b1cfa76f09793b3715bbccae2?cid=774b29d4f13844c495f206cafdad9c86",
      "track_number" : 21,
      "type" : "track",
      "uri" : "spotify:track:4taupsXUsiNauBV8kw1v1v"
    }, {
      "album" : {
        "album_type" : "compilation",
        "artists" : [ {
          "external_urls" : {
            "spotify" : "https://open.spotify.com/artist/0LyfQWJT6nXafLPZqxe9Of"
          },
          "href" : "https://api.spotify.com/v1/artists/0LyfQWJT6nXafLPZqxe9Of",
          "id" : "0LyfQWJT6nXafLPZqxe9Of",
          "name" : "Various Artists",
          "type" : "artist",
          "uri" : "spotify:artist:0LyfQWJT6nXafLPZqxe9Of"
        } ],
        "external_urls" : {
          "spotify" : "https://open.spotify.com/album/4CedK4dcXVQagB7CT8fZB1"
        },
        "href" : "https://api.spotify.com/v1/albums/4CedK4dcXVQagB7CT8fZB1",
        "id" : "4CedK4dcXVQagB7CT8fZB1",
        "images" : [ {
          "height" : 640,
          "url" : "https://i.scdn.co/image/ab67616d0000b273e4194d2c4905462046a3a250",
          "width" : 640
        }, {
          "height" : 300,
          "url" : "https://i.scdn.co/image/ab67616d00001e02e4194d2c4905462046a3a250",
          "width" : 300
        }, {
          "height" : 64,
          "url" : "https://i.scdn.co/image/ab67616d00004851e4194d2c4905462046a3a250",
          "width" : 64
        } ],
        "name" : "100 Best Hymns",
        "release_date" : "2011-03-29",
        "release_date_precision" : "day",
        "total_tracks" : 100,
        "type" : "album",
        "uri" : "spotify:album:4CedK4dcXVQagB7CT8fZB1"
      },
      "artists" : [ {
        "external_urls" : {
          "spotify" : "https://open.spotify.com/artist/5sNqDKiNBDnEr9KXcxl5Ro"
        },
        "href" : "https://api.spotify.com/v1/artists/5sNqDKiNBDnEr9KXcxl5Ro",
        "id" : "5sNqDKiNBDnEr9KXcxl5Ro",
        "name" : "Clement Scholefield",
        "type" : "artist",
        "uri" : "spotify:artist:5sNqDKiNBDnEr9KXcxl5Ro"
      }, {
        "external_urls" : {
          "spotify" : "https://open.spotify.com/artist/0f3PsS9IQ6whvNMFFKnpjl"
        },
        "href" : "https://api.spotify.com/v1/artists/0f3PsS9IQ6whvNMFFKnpjl",
        "id" : "0f3PsS9IQ6whvNMFFKnpjl",
        "name" : "Choir of King's College, Cambridge",
        "type" : "artist",
        "uri" : "spotify:artist:0f3PsS9IQ6whvNMFFKnpjl"
      }, {
        "external_urls" : {
          "spotify" : "https://open.spotify.com/artist/0ugRf6ECGBFRCHlv9iG1No"
        },
        "href" : "https://api.spotify.com/v1/artists/0ugRf6ECGBFRCHlv9iG1No",
        "id" : "0ugRf6ECGBFRCHlv9iG1No",
        "name" : "Stephen Cleobury",
        "type" : "artist",
        "uri" : "spotify:artist:0ugRf6ECGBFRCHlv9iG1No"
      }, {
        "external_urls" : {
          "spotify" : "https://open.spotify.com/artist/3lSF72DO2gQRQlJ5hV6OEi"
        },
        "href" : "https://api.spotify.com/v1/artists/3lSF72DO2gQRQlJ5hV6OEi",
        "id" : "3lSF72DO2gQRQlJ5hV6OEi",
        "name" : "Benjamin Bayl",
        "type" : "artist",
        "uri" : "spotify:artist:3lSF72DO2gQRQlJ5hV6OEi"
      } ],
      "disc_number" : 1,
      "duration_ms" : 203813,
      "explicit" : false,
      "external_ids" : {
        "isrc" : "GBAYC0002442"
      },
      "external_urls" : {
        "spotify" : "https://open.spotify.com/track/4i5pd3KMi9Ou4HevaFxZfP"
      },
      "href" : "https://api.spotify.com/v1/tracks/4i5pd3KMi9Ou4HevaFxZfP",
      "id" : "4i5pd3KMi9Ou4HevaFxZfP",
      "is_local" : false,
      "is_playable" : true,
      "name" : "The day thou gavest, Lord, is ended (St Clement)",
      "popularity" : 6,
      "preview_url" : "https://p.scdn.co/mp3-preview/e5c1306f1d5cb41f987aef4002a54761c5760987?cid=774b29d4f13844c495f206cafdad9c86",
      "track_number" : 9,
      "type" : "track",
      "uri" : "spotify:track:4i5pd3KMi9Ou4HevaFxZfP"
    }, {
      "album" : {
        "album_type" : "album",
        "artists" : [ {
          "external_urls" : {
            "spotify" : "https://open.spotify.com/artist/0SVNnCjJeO3rToe1hFkOGD"
          },
          "href" : "https://api.spotify.com/v1/artists/0SVNnCjJeO3rToe1hFkOGD",
          "id" : "0SVNnCjJeO3rToe1hFkOGD",
          "name" : "Grimethorpe Colliery Band",
          "type" : "artist",
          "uri" : "spotify:artist:0SVNnCjJeO3rToe1hFkOGD"
        } ],
        "external_urls" : {
          "spotify" : "https://open.spotify.com/album/2vpBItt8mfsiIMPN23iaL1"
        },
        "href" : "https://api.spotify.com/v1/albums/2vpBItt8mfsiIMPN23iaL1",
        "id" : "2vpBItt8mfsiIMPN23iaL1",
        "images" : [ {
          "height" : 640,
          "url" : "https://i.scdn.co/image/ab67616d0000b273806644c410de83f61cdca3e1",
          "width" : 640
        }, {
          "height" : 300,
          "url" : "https://i.scdn.co/image/ab67616d00001e02806644c410de83f61cdca3e1",
          "width" : 300
        }, {
          "height" : 64,
          "url" : "https://i.scdn.co/image/ab67616d00004851806644c410de83f61cdca3e1",
          "width" : 64
        } ],
        "name" : "Your 20 Favourite Hymns",
        "release_date" : "1995-01-01",
        "release_date_precision" : "day",
        "total_tracks" : 20,
        "type" : "album",
        "uri" : "spotify:album:2vpBItt8mfsiIMPN23iaL1"
      },
      "artists" : [ {
        "external_urls" : {
          "spotify" : "https://open.spotify.com/artist/0SVNnCjJeO3rToe1hFkOGD"
        },
        "href" : "https://api.spotify.com/v1/artists/0SVNnCjJeO3rToe1hFkOGD",
        "id" : "0SVNnCjJeO3rToe1hFkOGD",
        "name" : "Grimethorpe Colliery Band",
        "type" : "artist",
        "uri" : "spotify:artist:0SVNnCjJeO3rToe1hFkOGD"
      } ],
      "disc_number" : 1,
      "duration_ms" : 126573,
      "explicit" : false,
      "external_ids" : {
        "isrc" : "GBLGL0807196"
      },
      "external_urls" : {
        "spotify" : "https://open.spotify.com/track/4FYRdWhNXCkYDnNdXDGl4Z"
      },
      "href" : "https://api.spotify.com/v1/tracks/4FYRdWhNXCkYDnNdXDGl4Z",
      "id" : "4FYRdWhNXCkYDnNdXDGl4Z",
      "is_local" : false,
      "is_playable" : true,
      "name" : "The Day Thou Gavest, Lord, Is Ended",
      "popularity" : 16,
      "preview_url" : "https://p.scdn.co/mp3-preview/1a91468ee1faca9480af140aa57773a2f46614e8?cid=774b29d4f13844c495f206cafdad9c86",
      "track_number" : 19,
      "type" : "track",
      "uri" : "spotify:track:4FYRdWhNXCkYDnNdXDGl4Z"
    }, {
      "album" : {
        "album_type" : "album",
        "artists" : [ {
          "external_urls" : {
            "spotify" : "https://open.spotify.com/artist/2x0QHABqKaBBvAOzvoevXJ"
          },
          "href" : "https://api.spotify.com/v1/artists/2x0QHABqKaBBvAOzvoevXJ",
          "id" : "2x0QHABqKaBBvAOzvoevXJ",
          "name" : "The Scottish Festival Singers",
          "type" : "artist",
          "uri" : "spotify:artist:2x0QHABqKaBBvAOzvoevXJ"
        } ],
        "external_urls" : {
          "spotify" : "https://open.spotify.com/album/4GUN0KPnTQGStRZzQ2xg4h"
        },
        "href" : "https://api.spotify.com/v1/albums/4GUN0KPnTQGStRZzQ2xg4h",
        "id" : "4GUN0KPnTQGStRZzQ2xg4h",
        "images" : [ {
          "height" : 640,
          "url" : "https://i.scdn.co/image/ab67616d0000b273e500b6de39b9bb01111ca72b",
          "width" : 640
        }, {
          "height" : 300,
          "url" : "https://i.scdn.co/image/ab67616d00001e02e500b6de39b9bb01111ca72b",
          "width" : 300
        }, {
          "height" : 64,
          "url" : "https://i.scdn.co/image/ab67616d00004851e500b6de39b9bb01111ca72b",
          "width" : 64
        } ],
        "name" : "90 Favorite Hymns",
        "release_date" : "2014-10-21",
        "release_date_precision" : "day",
        "total_tracks" : 90,
        "type" : "album",
        "uri" : "spotify:album:4GUN0KPnTQGStRZzQ2xg4h"
      },
      "artists" : [ {
        "external_urls" : {
          "spotify" : "https://open.spotify.com/artist/2x0QHABqKaBBvAOzvoevXJ"
        },
        "href" : "https://api.spotify.com/v1/artists/2x0QHABqKaBBvAOzvoevXJ",
        "id" : "2x0QHABqKaBBvAOzvoevXJ",
        "name" : "The Scottish Festival Singers",
        "type" : "artist",
        "uri" : "spotify:artist:2x0QHABqKaBBvAOzvoevXJ"
      } ],
      "disc_number" : 1,
      "duration_ms" : 152920,
      "explicit" : false,
      "external_ids" : {
        "isrc" : "USACX1401591"
      },
      "external_urls" : {
        "spotify" : "https://open.spotify.com/track/2xge80ykNYgm4zvHnOzX6l"
      },
      "href" : "https://api.spotify.com/v1/tracks/2xge80ykNYgm4zvHnOzX6l",
      "id" : "2xge80ykNYgm4zvHnOzX6l",
      "is_local" : false,
      "is_playable" : true,
      "name" : "The Day Thou Gavest Lord Has Ended",
      "popularity" : 7,
      "preview_url" : "https://p.scdn.co/mp3-preview/68b1c758512420a27852ada6e119d4f06a953d4f?cid=774b29d4f13844c495f206cafdad9c86",
      "track_number" : 43,
      "type" : "track",
      "uri" : "spotify:track:2xge80ykNYgm4zvHnOzX6l"
    }, {
      "album" : {
        "album_type" : "album",
        "artists" : [ {
          "external_urls" : {
            "spotify" : "https://open.spotify.com/artist/1bAzlT6fMBcvCfwgh4S3Xl"
          },
          "href" : "https://api.spotify.com/v1/artists/1bAzlT6fMBcvCfwgh4S3Xl",
          "id" : "1bAzlT6fMBcvCfwgh4S3Xl",
          "name" : "Phil Keaggy",
          "type" : "artist",
          "uri" : "spotify:artist:1bAzlT6fMBcvCfwgh4S3Xl"
        } ],
        "external_urls" : {
          "spotify" : "https://open.spotify.com/album/1WWI9GZwtXCHSyCTx6YylR"
        },
        "href" : "https://api.spotify.com/v1/albums/1WWI9GZwtXCHSyCTx6YylR",
        "id" : "1WWI9GZwtXCHSyCTx6YylR",
        "images" : [ {
          "height" : 640,
          "url" : "https://i.scdn.co/image/ab67616d0000b27342a2b28b3495e06050ea5fcc",
          "width" : 640
        }, {
          "height" : 300,
          "url" : "https://i.scdn.co/image/ab67616d00001e0242a2b28b3495e06050ea5fcc",
          "width" : 300
        }, {
          "height" : 64,
          "url" : "https://i.scdn.co/image/ab67616d0000485142a2b28b3495e06050ea5fcc",
          "width" : 64
        } ],
        "name" : "Hymnsongs",
        "release_date" : "2002",
        "release_date_precision" : "year",
        "total_tracks" : 14,
        "type" : "album",
        "uri" : "spotify:album:1WWI9GZwtXCHSyCTx6YylR"
      },
      "artists" : [ {
        "external_urls" : {
          "spotify" : "https://open.spotify.com/artist/1bAzlT6fMBcvCfwgh4S3Xl"
        },
        "href" : "https://api.spotify.com/v1/artists/1bAzlT6fMBcvCfwgh4S3Xl",
        "id" : "1bAzlT6fMBcvCfwgh4S3Xl",
        "name" : "Phil Keaggy",
        "type" : "artist",
        "uri" : "spotify:artist:1bAzlT6fMBcvCfwgh4S3Xl"
      } ],
      "disc_number" : 1,
      "duration_ms" : 250160,
      "explicit" : false,
      "external_ids" : {
        "isrc" : "USWR60300858"
      },
      "external_urls" : {
        "spotify" : "https://open.spotify.com/track/4ca1k8Y8HqkPMjSHgwqECF"
      },
      "href" : "https://api.spotify.com/v1/tracks/4ca1k8Y8HqkPMjSHgwqECF",
      "id" : "4ca1k8Y8HqkPMjSHgwqECF",
      "is_local" : false,
      "is_playable" : true,
      "name" : "The Day Thou Gavest, Lord Has Ended",
      "popularity" : 6,
      "preview_url" : "https://p.scdn.co/mp3-preview/a8d482d8bd4870313fa8ecc4da9477edbde07221?cid=774b29d4f13844c495f206cafdad9c86",
      "track_number" : 14,
      "type" : "track",
      "uri" : "spotify:track:4ca1k8Y8HqkPMjSHgwqECF"
    }, {
      "album" : {
        "album_type" : "album",
        "artists" : [ {
          "external_urls" : {
            "spotify" : "https://open.spotify.com/artist/7Iz4reAxyHXjqHix5cYlej"
          },
          "href" : "https://api.spotify.com/v1/artists/7Iz4reAxyHXjqHix5cYlej",
          "id" : "7Iz4reAxyHXjqHix5cYlej",
          "name" : "Faithful Fathers",
          "type" : "artist",
          "uri" : "spotify:artist:7Iz4reAxyHXjqHix5cYlej"
        } ],
        "external_urls" : {
          "spotify" : "https://open.spotify.com/album/5MOrH86u66wWv4sOXTu0F8"
        },
        "href" : "https://api.spotify.com/v1/albums/5MOrH86u66wWv4sOXTu0F8",
        "id" : "5MOrH86u66wWv4sOXTu0F8",
        "images" : [ {
          "height" : 640,
          "url" : "https://i.scdn.co/image/ab67616d0000b273a85c29a1f1166ed508ab556b",
          "width" : 640
        }, {
          "height" : 300,
          "url" : "https://i.scdn.co/image/ab67616d00001e02a85c29a1f1166ed508ab556b",
          "width" : 300
        }, {
          "height" : 64,
          "url" : "https://i.scdn.co/image/ab67616d00004851a85c29a1f1166ed508ab556b",
          "width" : 64
        } ],
        "name" : "Pipe Organ Hymns",
        "release_date" : "2008-05-02",
        "release_date_precision" : "day",
        "total_tracks" : 17,
        "type" : "album",
        "uri" : "spotify:album:5MOrH86u66wWv4sOXTu0F8"
      },
      "artists" : [ {
        "external_urls" : {
          "spotify" : "https://open.spotify.com/artist/7Iz4reAxyHXjqHix5cYlej"
        },
        "href" : "https://api.spotify.com/v1/artists/7Iz4reAxyHXjqHix5cYlej",
        "id" : "7Iz4reAxyHXjqHix5cYlej",
        "name" : "Faithful Fathers",
        "type" : "artist",
        "uri" : "spotify:artist:7Iz4reAxyHXjqHix5cYlej"
      } ],
      "disc_number" : 1,
      "duration_ms" : 139613,
      "explicit" : false,
      "external_ids" : {
        "isrc" : "US4R30740192"
      },
      "external_urls" : {
        "spotify" : "https://open.spotify.com/track/3k3qMTgWzgjvDQgixEbzGT"
      },
      "href" : "https://api.spotify.com/v1/tracks/3k3qMTgWzgjvDQgixEbzGT",
      "id" : "3k3qMTgWzgjvDQgixEbzGT",
      "is_local" : false,
      "is_playable" : true,
      "name" : "The Day Thou Gavest Lord Is Ended - Church Organ",
      "popularity" : 10,
      "preview_url" : "https://p.scdn.co/mp3-preview/d0f8cd9eafee9d28b699027c8d68dc9957f50f5b?cid=774b29d4f13844c495f206cafdad9c86",
      "track_number" : 10,
      "type" : "track",
      "uri" : "spotify:track:3k3qMTgWzgjvDQgixEbzGT"
    } ],
    "limit" : 10,
    "next" : "https://api.spotify.com/v1/search?query=The+Day+Thou+Gavest&type=track&market=US&offset=15&limit=10",
    "offset" : 5,
    "previous" : "https://api.spotify.com/v1/search?query=The+Day+Thou+Gavest&type=track&market=US&offset=0&limit=10",
    "total" : 307
  }
}