{
  "tracks" : {
    "href" : "https://api.spotify.com/v1/search?query=Come%2C+O+Sabbath+Day&type=track&market=US&offset=5&limit=10",
    "items" : [ {
      "album" : {
        "album_type" : "album",
        "artists" : [ {
          "external_urls" : {
            "spotify" : "https://open.spotify.com/artist/1z3xyIgUK8lMJvcYkWOi47"
          },
          "href" : "https://api.spotify.com/v1/artists/1z3xyIgUK8lMJvcYkWOi47",
          "id" : "1z3xyIgUK8lMJvcYkWOi47",
          "name" : "Cantor Erik Contzius",
          "type" : "artist",
          "uri" : "spotify:artist:1z3xyIgUK8lMJvcYkWOi47"
        }, {
          "external_urls" : {
            "spotify" : "https://open.spotify.com/artist/4TOUHgNS48tbHjaTBrFH7l"
          },
          "href" : "https://api.spotify.com/v1/artists/4TOUHgNS48tbHjaTBrFH7l",
          "id" : "4TOUHgNS48tbHjaTBrFH7l",
          "name" : "Rabbi Howard A. Berman",
          "type" : "artist",
          "uri" : "spotify:artist:4TOUHgNS48tbHjaTBrFH7l"
        } ],
        "external_urls" : {
          "spotify" : "https://open.spotify.com/album/1KwIkJdCs5PG7oh5zduSbT"
        },
        "href" : "https://api.spotify.com/v1/albums/1KwIkJdCs5PG7oh5zduSbT",
        "id" : "1KwIkJdCs5PG7oh5zduSbT",
        "images" : [ {
          "height" : 640,
          "url" : "https://i.scdn.co/image/ab67616d0000b273de5c4a93eb21c219e3133336",
          "width" : 640
        }, {
          "height" : 300,
          "url" : "https://i.scdn.co/image/ab67616d00001e02de5c4a93eb21c219e3133336",
          "width" : 300
        }, {
          "height" : 64,
          "url" : "https://i.scdn.co/image/ab67616d00004851de5c4a93eb21c219e3133336",
          "width" : 64
        } ],
        "name" : "Come, O Sabbath Day!",
        "release_date" : "2014-06-16",
        "release_date_precision" : "day",
        "total_tracks" : 37,
        "type" : "album",
        "uri" : "spotify:album:1KwIkJdCs5PG7oh5zduSbT"
      },
      "artists" : [ {
        "external_urls" : {
          "spotify" : "https://open.spotify.com/artist/1z3xyIgUK8lMJvcYkWOi47"
        },
        "href" : "https://api.spotify.com/v1/artists/1z3xyIgUK8lMJvcYkWOi47",
        "id" : "1z3xyIgUK8lMJvcYkWOi47",
        "name" : "Cantor Erik Contzius",
        "type" : "artist",
        "uri" : "spotify:artist:1z3xyIgUK8lMJvcYkWOi47"
      } ],
      "disc_number" : 1,
      "duration_ms" : 33880,
      "explicit" : false,
      "external_ids" : {
        "isrc" : "ushm21415841"
      },
      "external_urls" : {
        "spotify" : "https://open.spotify.com/track/0cZT7o7qd4OtqBWYtbaJfF"
      },
      "href" : "https://api.spotify.com/v1/tracks/0cZT7o7qd4OtqBWYtbaJfF",
      "id" : "0cZT7o7qd4OtqBWYtbaJfF",
      "is_local" : false,
      "is_playable" : true,
      "name" : "On That Day the Eternal Shall Be One (Music)",
      "popularity" : 0,
      "preview_url" : "https://p.scdn.co/mp3-preview/6539fed830ab434a4de13ada353f213bcad1419c?cid=774b29d4f13844c495f206cafdad9c86",
      "track_number" : 29,
      "type" : "track",
      "uri" : "spotify:track:0cZT7o7qd4OtqBWYtbaJfF"
    }, {
      "album" : {
        "album_type" : "album",
        "artists" : [ {
          "external_urls" : {
            "spotify" : "https://open.spotify.com/artist/1z3xyIgUK8lMJvcYkWOi47"
          },
          "href" : "https://api.spotify.com/v1/artists/1z3xyIgUK8lMJvcYkWOi47",
          "id" : "1z3xyIgUK8lMJvcYkWOi47",
          "name" : "Cantor Erik Contzius",
          "type" : "artist",
          "uri" : "spotify:artist:1z3xyIgUK8lMJvcYkWOi47"
        }, {
          "external_urls" : {
            "spotify" : "https://open.spotify.com/artist/4TOUHgNS48tbHjaTBrFH7l"
          },
          "href" : "https://api.spotify.com/v1/artists/4TOUHgNS48tbHjaTBrFH7l",
          "id" : "4TOUHgNS48tbHjaTBrFH7l",
          "name" : "Rabbi Howard A. Berman",
          "type" : "artist",
          "uri" : "spotify:artist:4TOUHgNS48tbHjaTBrFH7l"
        } ],
        "external_urls" : {
          "spotify" : "https://open.spotify.com/album/1KwIkJdCs5PG7oh5zduSbT"
        },
        "href" : "https://api.spotify.com/v1/albums/1KwIkJdCs5PG7oh5zduSbT",
        "id" : "1KwIkJdCs5PG7oh5zduSbT",
        "images" : [ {
          "height" : 640,
          "url" : "https://i.scdn.co/image/ab67616d0000b273de5c4a93eb21c219e3133336",
          "width" : 640
        }, {
          "height" : 300,
          "url" : "https://i.scdn.co/image/ab67616d00001e02de5c4a93eb21c219e3133336",
          "width" : 300
        }, {
          "height" : 64,
          "url" : "https://i.scdn.co/image/ab67616d00004851de5c4a93eb21c219e3133336",
          "width" : 64
        } ],
        "name" : "Come, O Sabbath Day!",
        "release_date" : "2014-06-16",
        "release_date_precision" : "day",
        "total_tracks" : 37,
        "type" : "album",
        "uri" : "spotify:album:1KwIkJdCs5PG7oh5zduSbT"
      },
      "artists" : [ {
        "external_urls" : {
          "spotify" : "https://open.spotify.com/artist/4TOUHgNS48tbHjaTBrFH7l"
        },
        "href" : "https://api.spotify.com/v1/artists/4TOUHgNS48tbHjaTBrFH7l",
        "id" : "4TOUHgNS48tbHjaTBrFH7l",
        "name" : "Rabbi Howard A. Berman",
        "type" : "artist",
        "uri" : "spotify:artist:4TOUHgNS48tbHjaTBrFH7l"
      } ],
      "disc_number" : 1,
      "duration_ms" : 17853,
      "explicit" : false,
      "external_ids" : {
        "isrc" : "ushm21415831"
      },
      "external_urls" : {
        "spotify" : "https://open.spotify.com/track/3evyNOz8XGM7GVSzAZKoiK"
      },
      "href" : "https://api.spotify.com/v1/tracks/3evyNOz8XGM7GVSzAZKoiK",
      "id" : "3evyNOz8XGM7GVSzAZKoiK",
      "is_local" : false,
      "is_playable" : true,
      "name" : "Mi Shebeirach A'votaynu (Our Prayer of Healing)",
      "popularity" : 0,
      "preview_url" : null,
      "track_number" : 19,
      "type" : "track",
      "uri" : "spotify:track:3evyNOz8XGM7GVSzAZKoiK"
    }, {
      "album" : {
        "album_type" : "album",
        "artists" : [ {
          "external_urls" : {
            "spotify" : "https://open.spotify.com/artist/1z3xyIgUK8lMJvcYkWOi47"
          },
          "href" : "https://api.spotify.com/v1/artists/1z3xyIgUK8lMJvcYkWOi47",
          "id" : "1z3xyIgUK8lMJvcYkWOi47",
          "name" : "Cantor Erik Contzius",
          "type" : "artist",
          "uri" : "spotify:artist:1z3xyIgUK8lMJvcYkWOi47"
        }, {
          "external_urls" : {
            "spotify" : "https://open.spotify.com/artist/4TOUHgNS48tbHjaTBrFH7l"
          },
          "href" : "https://api.spotify.com/v1/artists/4TOUHgNS48tbHjaTBrFH7l",
          "id" : "4TOUHgNS48tbHjaTBrFH7l",
          "name" : "Rabbi Howard A. Berman",
          "type" : "artist",
          "uri" : "spotify:artist:4TOUHgNS48tbHjaTBrFH7l"
        } ],
        "external_urls" : {
          "spotify" : "https://open.spotify.com/album/1KwIkJdCs5PG7oh5zduSbT"
        },
        "href" : "https://api.spotify.com/v1/albums/1KwIkJdCs5PG7oh5zduSbT",
        "id" : "1KwIkJdCs5PG7oh5zduSbT",
        "images" : [ {
          "height" : 640,
          "url" : "https://i.scdn.co/image/ab67616d0000b273de5c4a93eb21c219e3133336",
          "width" : 640
        }, {
          "height" : 300,
          "url" : "https://i.scdn.co/image/ab67616d00001e02de5c4a93eb21c219e3133336",
          "width" : 300
        }, {
          "height" : 64,
          "url" : "https://i.scdn.co/image/ab67616d00004851de5c4a93eb21c219e3133336",
          "width" : 64
        } ],
        "name" : "Come, O Sabbath Day!",
        "release_date" : "2014-06-16",
        "release_date_precision" : "day",
        "total_tracks" : 37,
        "type" : "album",
        "uri" : "spotify:album:1KwIkJdCs5PG7oh5zduSbT"
      },
      "artists" : [ {
        "external_urls" : {
          "spotify" : "https://open.spotify.com/artist/4TOUHgNS48tbHjaTBrFH7l"
        },
        "href" : "https://api.spotify.com/v1/artists/4TOUHgNS48tbHjaTBrFH7l",
        "id" : "4TOUHgNS48tbHjaTBrFH7l",
        "name" : "Rabbi Howard A. Berman",
        "type" : "artist",
        "uri" : "spotify:artist:4TOUHgNS48tbHjaTBrFH7l"
      } ],
      "disc_number" : 1,
      "duration_ms" : 9200,
      "explicit" : false,
      "external_ids" : {
        "isrc" : "ushm21415846"
      },
      "external_urls" : {
        "spotify" : "https://open.spotify.com/track/7rCWLmFKld6i7KhGYrALGX"
      },
      "href" : "https://api.spotify.com/v1/tracks/7rCWLmFKld6i7KhGYrALGX",
      "id" : "7rCWLmFKld6i7KhGYrALGX",
      "is_local" : false,
      "is_playable" : true,
      "name" : "Adon Olam: The God of All (Introduction)",
      "popularity" : 0,
      "preview_url" : null,
      "track_number" : 34,
      "type" : "track",
      "uri" : "spotify:track:7rCWLmFKld6i7KhGYrALGX"
    }, {
      "album" : {
        "album_type" : "album",
        "artists" : [ {
          "external_urls" : {
            "spotify" : "https://open.spotify.com/artist/1z3xyIgUK8lMJvcYkWOi47"
          },
          "href" : "https://api.spotify.com/v1/artists/1z3xyIgUK8lMJvcYkWOi47",
          "id" : "1z3xyIgUK8lMJvcYkWOi47",
          "name" : "Cantor Erik Contzius",
          "type" : "artist",
          "uri" : "spotify:artist:1z3xyIgUK8lMJvcYkWOi47"
        }, {
          "external_urls" : {
            "spotify" : "https://open.spotify.com/artist/4TOUHgNS48tbHjaTBrFH7l"
          },
          "href" : "https://api.spotify.com/v1/artists/4TOUHgNS48tbHjaTBrFH7l",
          "id" : "4TOUHgNS48tbHjaTBrFH7l",
          "name" : "Rabbi Howard A. Berman",
          "type" : "artist",
          "uri" : "spotify:artist:4TOUHgNS48tbHjaTBrFH7l"
        } ],
        "external_urls" : {
          "spotify" : "https://open.spotify.com/album/1KwIkJdCs5PG7oh5zduSbT"
        },
        "href" : "https://api.spotify.com/v1/albums/1KwIkJdCs5PG7oh5zduSbT",
        "id" : "1KwIkJdCs5PG7oh5zduSbT",
        "images" : [ {
          "height" : 640,
          "url" : "https://i.scdn.co/image/ab67616d0000b273de5c4a93eb21c219e3133336",
          "width" : 640
        }, {
          "height" : 300,
          "url" : "https://i.scdn.co/image/ab67616d00001e02de5c4a93eb21c219e3133336",
          "width" : 300
        }, {
          "height" : 64,
          "url" : "https://i.scdn.co/image/ab67616d00004851de5c4a93eb21c219e3133336",
          "width" : 64
        } ],
        "name" : "Come, O Sabbath Day!",
        "release_date" : "2014-06-16",
        "release_date_precision" : "day",
        "total_tracks" : 37,
        "type" : "album",
        "uri" : "spotify:album:1KwIkJdCs5PG7oh5zduSbT"
      },
      "artists" : [ {
        "external_urls" : {
          "spotify" : "https://open.spotify.com/artist/4TOUHgNS48tbHjaTBrFH7l"
        },
        "href" : "https://api.spotify.com/v1/artists/4TOUHgNS48tbHjaTBrFH7l",
        "id" : "4TOUHgNS48tbHjaTBrFH7l",
        "name" : "Rabbi Howard A. Berman",
        "type" : "artist",
        "uri" : "spotify:artist:4TOUHgNS48tbHjaTBrFH7l"
      } ],
      "disc_number" : 1,
      "duration_ms" : 162600,
      "explicit" : false,
      "external_ids" : {
        "isrc" : "ushm21415836"
      },
      "external_urls" : {
        "spotify" : "https://open.spotify.com/track/32gfATRTXIRPt6NVWipOuX"
      },
      "href" : "https://api.spotify.com/v1/tracks/32gfATRTXIRPt6NVWipOuX",
      "id" : "32gfATRTXIRPt6NVWipOuX",
      "is_local" : false,
      "is_playable" : true,
      "name" : "O God, Bless This Land (Prayer for Our Nation)",
      "popularity" : 0,
      "preview_url" : "https://p.scdn.co/mp3-preview/848a5543d5769297e1aec2470bbb053865cc6ea4?cid=774b29d4f13844c495f206cafdad9c86",
      "track_number" : 24,
      "type" : "track",
      "uri" : "spotify:track:32gfATRTXIRPt6NVWipOuX"
    }, {
      "album" : {
        "album_type" : "album",
        "artists" : [ {
          "external_urls" : {
            "spotify" : "https://open.spotify.com/artist/1z3xyIgUK8lMJvcYkWOi47"
          },
          "href" : "https://api.spotify.com/v1/artists/1z3xyIgUK8lMJvcYkWOi47",
          "id" : "1z3xyIgUK8lMJvcYkWOi47",
          "name" : "Cantor Erik Contzius",
          "type" : "artist",
          "uri" : "spotify:artist:1z3xyIgUK8lMJvcYkWOi47"
        }, {
          "external_urls" : {
            "spotify" : "https://open.spotify.com/artist/4TOUHgNS48tbHjaTBrFH7l"
          },
          "href" : "https://api.spotify.com/v1/artists/4TOUHgNS48tbHjaTBrFH7l",
          "id" : "4TOUHgNS48tbHjaTBrFH7l",
          "name" : "Rabbi Howard A. Berman",
          "type" : "artist",
          "uri" : "spotify:artist:4TOUHgNS48tbHjaTBrFH7l"
        } ],
        "external_urls" : {
          "spotify" : "https://open.spotify.com/album/1KwIkJdCs5PG7oh5zduSbT"
        },
        "href" : "https://api.spotify.com/v1/albums/1KwIkJdCs5PG7oh5zduSbT",
        "id" : "1KwIkJdCs5PG7oh5zduSbT",
        "images" : [ {
          "height" : 640,
          "url" : "https://i.scdn.co/image/ab67616d0000b273de5c4a93eb21c219e3133336",
          "width" : 640
        }, {
          "height" : 300,
          "url" : "https://i.scdn.co/image/ab67616d00001e02de5c4a93eb21c219e3133336",
          "width" : 300
        }, {
          "height" : 64,
          "url" : "https://i.scdn.co/image/ab67616d00004851de5c4a93eb21c219e3133336",
          "width" : 64
        } ],
        "name" : "Come, O Sabbath Day!",
        "release_date" : "2014-06-16",
        "release_date_precision" : "day",
        "total_tracks" : 37,
        "type" : "album",
        "uri" : "spotify:album:1KwIkJdCs5PG7oh5zduSbT"
      },
      "artists" : [ {
        "external_urls" : {
          "spotify" : "https://open.spotify.com/artist/4TOUHgNS48tbHjaTBrFH7l"
        },
        "href" : "https://api.spotify.com/v1/artists/4TOUHgNS48tbHjaTBrFH7l",
        "id" : "4TOUHgNS48tbHjaTBrFH7l",
        "name" : "Rabbi Howard A. Berman",
        "type" : "artist",
        "uri" : "spotify:artist:4TOUHgNS48tbHjaTBrFH7l"
      } ],
      "disc_number" : 1,
      "duration_ms" : 242173,
      "explicit" : false,
      "external_ids" : {
        "isrc" : "ushm21415829"
      },
      "external_urls" : {
        "spotify" : "https://open.spotify.com/track/1JKb5DgZJ6SfTMEffv4Yha"
      },
      "href" : "https://api.spotify.com/v1/tracks/1JKb5DgZJ6SfTMEffv4Yha",
      "id" : "1JKb5DgZJ6SfTMEffv4Yha",
      "is_local" : false,
      "is_playable" : true,
      "name" : "We Praise You, God of Our Mothers and Fathers",
      "popularity" : 0,
      "preview_url" : "https://p.scdn.co/mp3-preview/1ddd965b13f6fe08cd6c4807027c979a61b1c654?cid=774b29d4f13844c495f206cafdad9c86",
      "track_number" : 17,
      "type" : "track",
      "uri" : "spotify:track:1JKb5DgZJ6SfTMEffv4Yha"
    }, {
      "album" : {
        "album_type" : "album",
        "artists" : [ {
          "external_urls" : {
            "spotify" : "https://open.spotify.com/artist/1z3xyIgUK8lMJvcYkWOi47"
          },
          "href" : "https://api.spotify.com/v1/artists/1z3xyIgUK8lMJvcYkWOi47",
          "id" : "1z3xyIgUK8lMJvcYkWOi47",
          "name" : "Cantor Erik Contzius",
          "type" : "artist",
          "uri" : "spotify:artist:1z3xyIgUK8lMJvcYkWOi47"
        }, {
          "external_urls" : {
            "spotify" : "https://open.spotify.com/artist/4TOUHgNS48tbHjaTBrFH7l"
          },
          "href" : "https://api.spotify.com/v1/artists/4TOUHgNS48tbHjaTBrFH7l",
          "id" : "4TOUHgNS48tbHjaTBrFH7l",
          "name" : "Rabbi Howard A. Berman",
          "type" : "artist",
          "uri" : "spotify:artist:4TOUHgNS48tbHjaTBrFH7l"
        } ],
        "external_urls" : {
          "spotify" : "https://open.spotify.com/album/1KwIkJdCs5PG7oh5zduSbT"
        },
        "href" : "https://api.spotify.com/v1/albums/1KwIkJdCs5PG7oh5zduSbT",
        "id" : "1KwIkJdCs5PG7oh5zduSbT",
        "images" : [ {
          "height" : 640,
          "url" : "https://i.scdn.co/image/ab67616d0000b273de5c4a93eb21c219e3133336",
          "width" : 640
        }, {
          "height" : 300,
          "url" : "https://i.scdn.co/image/ab67616d00001e02de5c4a93eb21c219e3133336",
          "width" : 300
        }, {
          "height" : 64,
          "url" : "https://i.scdn.co/image/ab67616d00004851de5c4a93eb21c219e3133336",
          "width" : 64
        } ],
        "name" : "Come, O Sabbath Day!",
        "release_date" : "2014-06-16",
        "release_date_precision" : "day",
        "total_tracks" : 37,
        "type" : "album",
        "uri" : "spotify:album:1KwIkJdCs5PG7oh5zduSbT"
      },
      "artists" : [ {
        "external_urls" : {
          "spotify" : "https://open.spotify.com/artist/1z3xyIgUK8lMJvcYkWOi47"
        },
        "href" : "https://api.spotify.com/v1/artists/1z3xyIgUK8lMJvcYkWOi47",
        "id" : "1z3xyIgUK8lMJvcYkWOi47",
        "name" : "Cantor Erik Contzius",
        "type" : "artist",
        "uri" : "spotify:artist:1z3xyIgUK8lMJvcYkWOi47"
      } ],
      "disc_number" : 1,
      "duration_ms" : 37186,
      "explicit" : false,
      "external_ids" : {
        "isrc" : "ushm21415843"
      },
      "external_urls" : {
        "spotify" : "https://open.spotify.com/track/4AXqzMnW8epIwK1sjvj5G4"
      },
      "href" : "https://api.spotify.com/v1/tracks/4AXqzMnW8epIwK1sjvj5G4",
      "id" : "4AXqzMnW8epIwK1sjvj5G4",
      "is_local" : false,
      "is_playable" : true,
      "name" : "Oseh Shalom (Music)",
      "popularity" : 0,
      "preview_url" : "https://p.scdn.co/mp3-preview/c35d8fd190d91d54ecdeeccb3e973feea97aa65f?cid=774b29d4f13844c495f206cafdad9c86",
      "track_number" : 31,
      "type" : "track",
      "uri" : "spotify:track:4AXqzMnW8epIwK1sjvj5G4"
    }, {
      "album" : {
        "album_type" : "album",
        "artists" : [ {
          "external_urls" : {
            "spotify" : "https://open.spotify.com/artist/1z3xyIgUK8lMJvcYkWOi47"
          },
          "href" : "https://api.spotify.com/v1/artists/1z3xyIgUK8lMJvcYkWOi47",
          "id" : "1z3xyIgUK8lMJvcYkWOi47",
          "name" : "Cantor Erik Contzius",
          "type" : "artist",
          "uri" : "spotify:artist:1z3xyIgUK8lMJvcYkWOi47"
        }, {
          "external_urls" : {
            "spotify" : "https://open.spotify.com/artist/4TOUHgNS48tbHjaTBrFH7l"
          },
          "href" : "https://api.spotify.com/v1/artists/4TOUHgNS48tbHjaTBrFH7l",
          "id" : "4TOUHgNS48tbHjaTBrFH7l",
          "name" : "Rabbi Howard A. Berman",
          "type" : "artist",
          "uri" : "spotify:artist:4TOUHgNS48tbHjaTBrFH7l"
        } ],
        "external_urls" : {
          "spotify" : "https://open.spotify.com/album/1KwIkJdCs5PG7oh5zduSbT"
        },
        "href" : "https://api.spotify.com/v1/albums/1KwIkJdCs5PG7oh5zduSbT",
        "id" : "1KwIkJdCs5PG7oh5zduSbT",
        "images" : [ {
          "height" : 640,
          "url" : "https://i.scdn.co/image/ab67616d0000b273de5c4a93eb21c219e3133336",
          "width" : 640
        }, {
          "height" : 300,
          "url" : "https://i.scdn.co/image/ab67616d00001e02de5c4a93eb21c219e3133336",
          "width" : 300
        }, {
          "height" : 64,
          "url" : "https://i.scdn.co/image/ab67616d00004851de5c4a93eb21c219e3133336",
          "width" : 64
        } ],
        "name" : "Come, O Sabbath Day!",
        "release_date" : "2014-06-16",
        "release_date_precision" : "day",
        "total_tracks" : 37,
        "type" : "album",
        "uri" : "spotify:album:1KwIkJdCs5PG7oh5zduSbT"
      },
      "artists" : [ {
        "external_urls" : {
          "spotify" : "https://open.spotify.com/artist/1z3xyIgUK8lMJvcYkWOi47"
        },
        "href" : "https://api.spotify.com/v1/artists/1z3xyIgUK8lMJvcYkWOi47",
        "id" : "1z3xyIgUK8lMJvcYkWOi47",
        "name" : "Cantor Erik Contzius",
        "type" : "artist",
        "uri" : "spotify:artist:1z3xyIgUK8lMJvcYkWOi47"
      } ],
      "disc_number" : 1,
      "duration_ms" : 143146,
      "explicit" : false,
      "external_ids" : {
        "isrc" : "ushm21415847"
      },
      "external_urls" : {
        "spotify" : "https://open.spotify.com/track/54LvUAOWCWQCNbH9JiQRYd"
      },
      "href" : "https://api.spotify.com/v1/tracks/54LvUAOWCWQCNbH9JiQRYd",
      "id" : "54LvUAOWCWQCNbH9JiQRYd",
      "is_local" : false,
      "is_playable" : true,
      "name" : "Adon Olam (Closing Hymn)",
      "popularity" : 0,
      "preview_url" : "https://p.scdn.co/mp3-preview/6840570c845820ff276c014e92d43d026bf1dc93?cid=774b29d4f13844c495f206cafdad9c86",
      "track_number" : 35,
      "type" : "track",
      "uri" : "spotify:track:54LvUAOWCWQCNbH9JiQRYd"
    }, {
      "album" : {
        "album_type" : "album",
        "artists" : [ {
          "external_urls" : {
            "spotify" : "https://open.spotify.com/artist/1z3xyIgUK8lMJvcYkWOi47"
          },
          "href" : "https://api.spotify.com/v1/artists/1z3xyIgUK8lMJvcYkWOi47",
          "id" : "1z3xyIgUK8lMJvcYkWOi47",
          "name" : "Cantor Erik Contzius",
          "type" : "artist",
          "uri" : "spotify:artist:1z3xyIgUK8lMJvcYkWOi47"
        }, {
          "external_urls" : {
            "spotify" : "https://open.spotify.com/artist/4TOUHgNS48tbHjaTBrFH7l"
          },
          "href" : "https://api.spotify.com/v1/artists/4TOUHgNS48tbHjaTBrFH7l",
          "id" : "4TOUHgNS48tbHjaTBrFH7l",
          "name" : "Rabbi Howard A. Berman",
          "type" : "artist",
          "uri" : "spotify:artist:4TOUHgNS48tbHjaTBrFH7l"
        } ],
        "external_urls" : {
          "spotify" : "https://open.spotify.com/album/1KwIkJdCs5PG7oh5zduSbT"
        },
        "href" : "https://api.spotify.com/v1/albums/1KwIkJdCs5PG7oh5zduSbT",
        "id" : "1KwIkJdCs5PG7oh5zduSbT",
        "images" : [ {
          "height" : 640,
          "url" : "https://i.scdn.co/image/ab67616d0000b273de5c4a93eb21c219e3133336",
          "width" : 640
        }, {
          "height" : 300,
          "url" : "https://i.scdn.co/image/ab67616d00001e02de5c4a93eb21c219e3133336",
          "width" : 300
        }, {
          "height" : 64,
          "url" : "https://i.scdn.co/image/ab67616d00004851de5c4a93eb21c219e3133336",
          "width" : 64
        } ],
        "name" : "Come, O Sabbath Day!",
        "release_date" : "2014-06-16",
        "release_date_precision" : "day",
        "total_tracks" : 37,
        "type" : "album",
        "uri" : "spotify:album:1KwIkJdCs5PG7oh5zduSbT"
      },
      "artists" : [ {
        "external_urls" : {
          "spotify" : "https://open.spotify.com/artist/4TOUHgNS48tbHjaTBrFH7l"
        },
        "href" : "https://api.spotify.com/v1/artists/4TOUHgNS48tbHjaTBrFH7l",
        "id" : "4TOUHgNS48tbHjaTBrFH7l",
        "name" : "Rabbi Howard A. Berman",
        "type" : "artist",
        "uri" : "spotify:artist:4TOUHgNS48tbHjaTBrFH7l"
      } ],
      "disc_number" : 1,
      "duration_ms" : 53946,
      "explicit" : false,
      "external_ids" : {
        "isrc" : "ushm21415844"
      },
      "external_urls" : {
        "spotify" : "https://open.spotify.com/track/2auUXlCI4AZkYYT7wY6RG9"
      },
      "href" : "https://api.spotify.com/v1/tracks/2auUXlCI4AZkYYT7wY6RG9",
      "id" : "2auUXlCI4AZkYYT7wY6RG9",
      "is_local" : false,
      "is_playable" : true,
      "name" : "Kiddush: Blessing Over the Wine",
      "popularity" : 0,
      "preview_url" : "https://p.scdn.co/mp3-preview/8bacd0e1be89b087895466d5611be8a86553643a?cid=774b29d4f13844c495f206cafdad9c86",
      "track_number" : 32,
      "type" : "track",
      "uri" : "spotify:track:2auUXlCI4AZkYYT7wY6RG9"
    }, {
      "album" : {
        "album_type" : "album",
        "artists" : [ {
          "external_urls" : {
            "spotify" : "https://open.spotify.com/artist/1z3xyIgUK8lMJvcYkWOi47"
          },
          "href" : "https://api.spotify.com/v1/artists/1z3xyIgUK8lMJvcYkWOi47",
          "id" : "1z3xyIgUK8lMJvcYkWOi47",
          "name" : "Cantor Erik Contzius",
          "type" : "artist",
          "uri" : "spotify:artist:1z3xyIgUK8lMJvcYkWOi47"
        }, {
          "external_urls" : {
            "spotify" : "https://open.spotify.com/artist/4TOUHgNS48tbHjaTBrFH7l"
          },
          "href" : "https://api.spotify.com/v1/artists/4TOUHgNS48tbHjaTBrFH7l",
          "id" : "4TOUHgNS48tbHjaTBrFH7l",
          "name" : "Rabbi Howard A. Berman",
          "type" : "artist",
          "uri" : "spotify:artist:4TOUHgNS48tbHjaTBrFH7l"
        } ],
        "external_urls" : {
          "spotify" : "https://open.spotify.com/album/1KwIkJdCs5PG7oh5zduSbT"
        },
        "href" : "https://api.spotify.com/v1/albums/1KwIkJdCs5PG7oh5zduSbT",
        "id" : "1KwIkJdCs5PG7oh5zduSbT",
        "images" : [ {
          "height" : 640,
          "url" : "https://i.scdn.co/image/ab67616d0000b273de5c4a93eb21c219e3133336",
          "width" : 640
        }, {
          "height" : 300,
          "url" : "https://i.scdn.co/image/ab67616d00001e02de5c4a93eb21c219e3133336",
          "width" : 300
        }, {
          "height" : 64,
          "url" : "https://i.scdn.co/image/ab67616d00004851de5c4a93eb21c219e3133336",
          "width" : 64
        } ],
        "name" : "Come, O Sabbath Day!",
        "release_date" : "2014-06-16",
        "release_date_precision" : "day",
        "total_tracks" : 37,
        "type" : "album",
        "uri" : "spotify:album:1KwIkJdCs5PG7oh5zduSbT"
      },
      "artists" : [ {
        "external_urls" : {
          "spotify" : "https://open.spotify.com/artist/1z3xyIgUK8lMJvcYkWOi47"
        },
        "href" : "https://api.spotify.com/v1/artists/1z3xyIgUK8lMJvcYkWOi47",
        "id" : "1z3xyIgUK8lMJvcYkWOi47",
        "name" : "Cantor Erik Contzius",
        "type" : "artist",
        "uri" : "spotify:artist:1z3xyIgUK8lMJvcYkWOi47"
      } ],
      "disc_number" : 1,
      "duration_ms" : 126893,
      "explicit" : false,
      "external_ids" : {
        "isrc" : "ushm21415845"
      },
      "external_urls" : {
        "spotify" : "https://open.spotify.com/track/6XrmuageYss8keZtdm6wbR"
      },
      "href" : "https://api.spotify.com/v1/tracks/6XrmuageYss8keZtdm6wbR",
      "id" : "6XrmuageYss8keZtdm6wbR",
      "is_local" : false,
      "is_playable" : true,
      "name" : "Kiddush: Blessing Over the Wine (Music)",
      "popularity" : 0,
      "preview_url" : "https://p.scdn.co/mp3-preview/b86a794a80ea2087d7e788407d876fd16cfe5055?cid=774b29d4f13844c495f206cafdad9c86",
      "track_number" : 33,
      "type" : "track",
      "uri" : "spotify:track:6XrmuageYss8keZtdm6wbR"
    }, {
      "album" : {
        "album_type" : "album",
        "artists" : [ {
          "external_urls" : {
            "spotify" : "https://open.spotify.com/artist/1z3xyIgUK8lMJvcYkWOi47"
          },
          "href" : "https://api.spotify.com/v1/artists/1z3xyIgUK8lMJvcYkWOi47",
          "id" : "1z3xyIgUK8lMJvcYkWOi47",
          "name" : "Cantor Erik Contzius",
          "type" : "artist",
          "uri" : "spotify:artist:1z3xyIgUK8lMJvcYkWOi47"
        }, {
          "external_urls" : {
            "spotify" : "https://open.spotify.com/artist/4TOUHgNS48tbHjaTBrFH7l"
          },
          "href" : "https://api.spotify.com/v1/artists/4TOUHgNS48tbHjaTBrFH7l",
          "id" : "4TOUHgNS48tbHjaTBrFH7l",
          "name" : "Rabbi Howard A. Berman",
          "type" : "artist",
          "uri" : "spotify:artist:4TOUHgNS48tbHjaTBrFH7l"
        } ],
        "external_urls" : {
          "spotify" : "https://open.spotify.com/album/1KwIkJdCs5PG7oh5zduSbT"
        },
        "href" : "https://api.spotify.com/v1/albums/1KwIkJdCs5PG7oh5zduSbT",
        "id" : "1KwIkJdCs5PG7oh5zduSbT",
        "images" : [ {
          "height" : 640,
          "url" : "https://i.scdn.co/image/ab67616d0000b273de5c4a93eb21c219e3133336",
          "width" : 640
        }, {
          "height" : 300,
          "url" : "https://i.scdn.co/image/ab67616d00001e02de5c4a93eb21c219e3133336",
          "width" : 300
        }, {
          "height" : 64,
          "url" : "https://i.scdn.co/image/ab67616d00004851de5c4a93eb21c219e3133336",
          "width" : 64
        } ],
        "name" : "Come, O Sabbath Day!",
        "release_date" : "2014-06-16",
        "release_date_precision" : "day",
        "total_tracks" : 37,
        "type" : "album",
        "uri" : "spotify:album:1KwIkJdCs5PG7oh5zduSbT"
      },
      "artists" : [ {
        "external_urls" : {
          "spotify" : "https://open.spotify.com/artist/4TOUHgNS48tbHjaTBrFH7l"
        },
        "href" : "https://api.spotify.com/v1/artists/4TOUHgNS48tbHjaTBrFH7l",
        "id" : "4TOUHgNS48tbHjaTBrFH7l",
        "name" : "Rabbi Howard A. Berman",
        "type" : "artist",
        "uri" : "spotify:artist:4TOUHgNS48tbHjaTBrFH7l"
      } ],
      "disc_number" : 1,
      "duration_ms" : 155173,
      "explicit" : false,
      "external_ids" : {
        "isrc" : "ushm21415818"
      },
      "external_urls" : {
        "spotify" : "https://open.spotify.com/track/4ea2NBHVaW0jnDggvrM6qT"
      },
      "href" : "https://api.spotify.com/v1/tracks/4ea2NBHVaW0jnDggvrM6qT",
      "id" : "4ea2NBHVaW0jnDggvrM6qT",
      "is_local" : false,
      "is_playable" : true,
      "name" : "The Week of Toil Has Ended",
      "popularity" : 0,
      "preview_url" : "https://p.scdn.co/mp3-preview/92e5c867db17f8fb9c0d69aa93b034eb3d0b2bfe?cid=774b29d4f13844c495f206cafdad9c86",
      "track_number" : 6,
      "type" : "track",
      "uri" : "spotify:track:4ea2NBHVaW0jnDggvrM6qT"
    } ],
    "limit" : 10,
    "next" : "https://api.spotify.com/v1/search?query=Come%2C+O+Sabbath+Day&type=track&market=US&offset=15&limit=10",
    "offset" : 5,
    "previous" : "https://api.spotify.com/v1/search?query=Come%2C+O+Sabbath+Day&type=track&market=US&offset=0&limit=10",
    "total" : 37
  }
}