{
  "tracks" : {
    "href" : "https://api.spotify.com/v1/search?query=Onward%2C+Christian+Soldiers%21&type=track&market=US&offset=5&limit=10",
    "items" : [ {
      "album" : {
        "album_type" : "album",
        "artists" : [ {
          "external_urls" : {
            "spotify" : "https://open.spotify.com/artist/3jpPWH5WmEKMCkVoZATglh"
          },
          "href" : "https://api.spotify.com/v1/artists/3jpPWH5WmEKMCkVoZATglh",
          "id" : "3jpPWH5WmEKMCkVoZATglh",
          "name" : "The Christian Devotional",
          "type" : "artist",
          "uri" : "spotify:artist:3jpPWH5WmEKMCkVoZATglh"
        } ],
        "external_urls" : {
          "spotify" : "https://open.spotify.com/album/7AdrGWci0VN8UnHCkD8Xjm"
        },
        "href" : "https://api.spotify.com/v1/albums/7AdrGWci0VN8UnHCkD8Xjm",
        "id" : "7AdrGWci0VN8UnHCkD8Xjm",
        "images" : [ {
          "height" : 640,
          "url" : "https://i.scdn.co/image/ab67616d0000b273dcfdc183fc1be24ab7892738",
          "width" : 640
        }, {
          "height" : 300,
          "url" : "https://i.scdn.co/image/ab67616d00001e02dcfdc183fc1be24ab7892738",
          "width" : 300
        }, {
          "height" : 64,
          "url" : "https://i.scdn.co/image/ab67616d00004851dcfdc183fc1be24ab7892738",
          "width" : 64
        } ],
        "name" : "Hymns for Peace",
        "release_date" : "2017-06-19",
        "release_date_precision" : "day",
        "total_tracks" : 13,
        "type" : "album",
        "uri" : "spotify:album:7AdrGWci0VN8UnHCkD8Xjm"
      },
      "artists" : [ {
        "external_urls" : {
          "spotify" : "https://open.spotify.com/artist/3jpPWH5WmEKMCkVoZATglh"
        },
        "href" : "https://api.spotify.com/v1/artists/3jpPWH5WmEKMCkVoZATglh",
        "id" : "3jpPWH5WmEKMCkVoZATglh",
        "name" : "The Christian Devotional",
        "type" : "artist",
        "uri" : "spotify:artist:3jpPWH5WmEKMCkVoZATglh"
      } ],
      "disc_number" : 1,
      "duration_ms" : 149129,
      "explicit" : false,
      "external_ids" : {
        "isrc" : "QM2PV1789223"
      },
      "external_urls" : {
        "spotify" : "https://open.spotify.com/track/6MpCPFQ3xb31AmgP207oZR"
      },
      "href" : "https://api.spotify.com/v1/tracks/6MpCPFQ3xb31AmgP207oZR",
      "id" : "6MpCPFQ3xb31AmgP207oZR",
      "is_local" : false,
      "is_playable" : true,
      "name" : "Onward, Christian Soldiers",
      "popularity" : 18,
      "preview_url" : "https://p.scdn.co/mp3-preview/c124afea5c4fb1bd0b5dcf2079afa41590e6543f?cid=774b29d4f13844c495f206cafdad9c86",
      "track_number" : 11,
      "type" : "track",
      "uri" : "spotify:track:6MpCPFQ3xb31AmgP207oZR"
    }, {
      "album" : {
        "album_type" : "album",
        "artists" : [ {
          "external_urls" : {
            "spotify" : "https://open.spotify.com/artist/1fO0DHOhFIvuPtObA3LtHR"
          },
          "href" : "https://api.spotify.com/v1/artists/1fO0DHOhFIvuPtObA3LtHR",
          "id" : "1fO0DHOhFIvuPtObA3LtHR",
          "name" : "Christian Hymns",
          "type" : "artist",
          "uri" : "spotify:artist:1fO0DHOhFIvuPtObA3LtHR"
        } ],
        "external_urls" : {
          "spotify" : "https://open.spotify.com/album/7e0OJETOGUBfcjKWR6sZrV"
        },
        "href" : "https://api.spotify.com/v1/albums/7e0OJETOGUBfcjKWR6sZrV",
        "id" : "7e0OJETOGUBfcjKWR6sZrV",
        "images" : [ {
          "height" : 640,
          "url" : "https://i.scdn.co/image/ab67616d0000b273eaf4566ca7e7215b219ae383",
          "width" : 640
        }, {
          "height" : 300,
          "url" : "https://i.scdn.co/image/ab67616d00001e02eaf4566ca7e7215b219ae383",
          "width" : 300
        }, {
          "height" : 64,
          "url" : "https://i.scdn.co/image/ab67616d00004851eaf4566ca7e7215b219ae383",
          "width" : 64
        } ],
        "name" : "Christian Hymns",
        "release_date" : "2011-03-11",
        "release_date_precision" : "day",
        "total_tracks" : 24,
        "type" : "album",
        "uri" : "spotify:album:7e0OJETOGUBfcjKWR6sZrV"
      },
      "artists" : [ {
        "external_urls" : {
          "spotify" : "https://open.spotify.com/artist/1fO0DHOhFIvuPtObA3LtHR"
        },
        "href" : "https://api.spotify.com/v1/artists/1fO0DHOhFIvuPtObA3LtHR",
        "id" : "1fO0DHOhFIvuPtObA3LtHR",
        "name" : "Christian Hymns",
        "type" : "artist",
        "uri" : "spotify:artist:1fO0DHOhFIvuPtObA3LtHR"
      } ],
      "disc_number" : 1,
      "duration_ms" : 107880,
      "explicit" : false,
      "external_ids" : {
        "isrc" : "TCAAW1164627"
      },
      "external_urls" : {
        "spotify" : "https://open.spotify.com/track/5isAjg9LwUxzXsLasYNgIz"
      },
      "href" : "https://api.spotify.com/v1/tracks/5isAjg9LwUxzXsLasYNgIz",
      "id" : "5isAjg9LwUxzXsLasYNgIz",
      "is_local" : false,
      "is_playable" : true,
      "name" : "Onward, Christian Soldiers",
      "popularity" : 21,
      "preview_url" : "https://p.scdn.co/mp3-preview/2ac4e7e643e6bb0c707d54aee5519bca9dd547b9?cid=774b29d4f13844c495f206cafdad9c86",
      "track_number" : 13,
      "type" : "track",
      "uri" : "spotify:track:5isAjg9LwUxzXsLasYNgIz"
    }, {
      "album" : {
        "album_type" : "album",
        "artists" : [ {
          "external_urls" : {
            "spotify" : "https://open.spotify.com/artist/23R5SS5O6nz9F2ea4BaVOb"
          },
          "href" : "https://api.spotify.com/v1/artists/23R5SS5O6nz9F2ea4BaVOb",
          "id" : "23R5SS5O6nz9F2ea4BaVOb",
          "name" : "Paul Croft",
          "type" : "artist",
          "uri" : "spotify:artist:23R5SS5O6nz9F2ea4BaVOb"
        } ],
        "external_urls" : {
          "spotify" : "https://open.spotify.com/album/60pAoFAdRE2AjAMuigF8kQ"
        },
        "href" : "https://api.spotify.com/v1/albums/60pAoFAdRE2AjAMuigF8kQ",
        "id" : "60pAoFAdRE2AjAMuigF8kQ",
        "images" : [ {
          "height" : 640,
          "url" : "https://i.scdn.co/image/ab67616d0000b273cf6b2ce337f7eddc2e39aac8",
          "width" : 640
        }, {
          "height" : 300,
          "url" : "https://i.scdn.co/image/ab67616d00001e02cf6b2ce337f7eddc2e39aac8",
          "width" : 300
        }, {
          "height" : 64,
          "url" : "https://i.scdn.co/image/ab67616d00004851cf6b2ce337f7eddc2e39aac8",
          "width" : 64
        } ],
        "name" : "Relaxing Hymns on Piano, Vol. 1",
        "release_date" : "2015-09-20",
        "release_date_precision" : "day",
        "total_tracks" : 36,
        "type" : "album",
        "uri" : "spotify:album:60pAoFAdRE2AjAMuigF8kQ"
      },
      "artists" : [ {
        "external_urls" : {
          "spotify" : "https://open.spotify.com/artist/23R5SS5O6nz9F2ea4BaVOb"
        },
        "href" : "https://api.spotify.com/v1/artists/23R5SS5O6nz9F2ea4BaVOb",
        "id" : "23R5SS5O6nz9F2ea4BaVOb",
        "name" : "Paul Croft",
        "type" : "artist",
        "uri" : "spotify:artist:23R5SS5O6nz9F2ea4BaVOb"
      } ],
      "disc_number" : 1,
      "duration_ms" : 122000,
      "explicit" : false,
      "external_ids" : {
        "isrc" : "QM2PV1508015"
      },
      "external_urls" : {
        "spotify" : "https://open.spotify.com/track/33tBNquB4zYvHARAmQVwjD"
      },
      "href" : "https://api.spotify.com/v1/tracks/33tBNquB4zYvHARAmQVwjD",
      "id" : "33tBNquB4zYvHARAmQVwjD",
      "is_local" : false,
      "is_playable" : true,
      "name" : "Onward, Christian Soldiers",
      "popularity" : 19,
      "preview_url" : "https://p.scdn.co/mp3-preview/a406448096bda06bded8bcd3246ea94c71e2315c?cid=774b29d4f13844c495f206cafdad9c86",
      "track_number" : 23,
      "type" : "track",
      "uri" : "spotify:track:33tBNquB4zYvHARAmQVwjD"
    }, {
      "album" : {
        "album_type" : "album",
        "artists" : [ {
          "external_urls" : {
            "spotify" : "https://open.spotify.com/artist/5ee6tRCf54hwB2pyXhRMb2"
          },
          "href" : "https://api.spotify.com/v1/artists/5ee6tRCf54hwB2pyXhRMb2",
          "id" : "5ee6tRCf54hwB2pyXhRMb2",
          "name" : "Ryan Tilby",
          "type" : "artist",
          "uri" : "spotify:artist:5ee6tRCf54hwB2pyXhRMb2"
        } ],
        "external_urls" : {
          "spotify" : "https://open.spotify.com/album/4sWsgPK2o38IDYiOK3T98I"
        },
        "href" : "https://api.spotify.com/v1/albums/4sWsgPK2o38IDYiOK3T98I",
        "id" : "4sWsgPK2o38IDYiOK3T98I",
        "images" : [ {
          "height" : 640,
          "url" : "https://i.scdn.co/image/ab67616d0000b27354edc4b2cfd190349518bddf",
          "width" : 640
        }, {
          "height" : 300,
          "url" : "https://i.scdn.co/image/ab67616d00001e0254edc4b2cfd190349518bddf",
          "width" : 300
        }, {
          "height" : 64,
          "url" : "https://i.scdn.co/image/ab67616d0000485154edc4b2cfd190349518bddf",
          "width" : 64
        } ],
        "name" : "Sacred Guitar",
        "release_date" : "2012-11-01",
        "release_date_precision" : "day",
        "total_tracks" : 13,
        "type" : "album",
        "uri" : "spotify:album:4sWsgPK2o38IDYiOK3T98I"
      },
      "artists" : [ {
        "external_urls" : {
          "spotify" : "https://open.spotify.com/artist/5ee6tRCf54hwB2pyXhRMb2"
        },
        "href" : "https://api.spotify.com/v1/artists/5ee6tRCf54hwB2pyXhRMb2",
        "id" : "5ee6tRCf54hwB2pyXhRMb2",
        "name" : "Ryan Tilby",
        "type" : "artist",
        "uri" : "spotify:artist:5ee6tRCf54hwB2pyXhRMb2"
      } ],
      "disc_number" : 1,
      "duration_ms" : 199707,
      "explicit" : false,
      "external_ids" : {
        "isrc" : "ushm81224778"
      },
      "external_urls" : {
        "spotify" : "https://open.spotify.com/track/182ODX08R55SkOhHnR089A"
      },
      "href" : "https://api.spotify.com/v1/tracks/182ODX08R55SkOhHnR089A",
      "id" : "182ODX08R55SkOhHnR089A",
      "is_local" : false,
      "is_playable" : true,
      "name" : "Onward, Christian Soldiers / Put Your Shoulder to the Wheel",
      "popularity" : 19,
      "preview_url" : "https://p.scdn.co/mp3-preview/bd8b535e1fd77fad38608453a79d634131d86d3f?cid=774b29d4f13844c495f206cafdad9c86",
      "track_number" : 8,
      "type" : "track",
      "uri" : "spotify:track:182ODX08R55SkOhHnR089A"
    }, {
      "album" : {
        "album_type" : "album",
        "artists" : [ {
          "external_urls" : {
            "spotify" : "https://open.spotify.com/artist/5QSXj8YPKcFbwT0D7ZejLQ"
          },
          "href" : "https://api.spotify.com/v1/artists/5QSXj8YPKcFbwT0D7ZejLQ",
          "id" : "5QSXj8YPKcFbwT0D7ZejLQ",
          "name" : "The Ben Speer Singers",
          "type" : "artist",
          "uri" : "spotify:artist:5QSXj8YPKcFbwT0D7ZejLQ"
        } ],
        "external_urls" : {
          "spotify" : "https://open.spotify.com/album/47cTnuPxCLv4ytnuyLMRM0"
        },
        "href" : "https://api.spotify.com/v1/albums/47cTnuPxCLv4ytnuyLMRM0",
        "id" : "47cTnuPxCLv4ytnuyLMRM0",
        "images" : [ {
          "height" : 640,
          "url" : "https://i.scdn.co/image/ab67616d0000b273e85e477c192c1df96c419802",
          "width" : 640
        }, {
          "height" : 300,
          "url" : "https://i.scdn.co/image/ab67616d00001e02e85e477c192c1df96c419802",
          "width" : 300
        }, {
          "height" : 64,
          "url" : "https://i.scdn.co/image/ab67616d00004851e85e477c192c1df96c419802",
          "width" : 64
        } ],
        "name" : "12 Revival Hymns & Gospel Songs, Volume 2",
        "release_date" : "2008-01-01",
        "release_date_precision" : "day",
        "total_tracks" : 12,
        "type" : "album",
        "uri" : "spotify:album:47cTnuPxCLv4ytnuyLMRM0"
      },
      "artists" : [ {
        "external_urls" : {
          "spotify" : "https://open.spotify.com/artist/5QSXj8YPKcFbwT0D7ZejLQ"
        },
        "href" : "https://api.spotify.com/v1/artists/5QSXj8YPKcFbwT0D7ZejLQ",
        "id" : "5QSXj8YPKcFbwT0D7ZejLQ",
        "name" : "The Ben Speer Singers",
        "type" : "artist",
        "uri" : "spotify:artist:5QSXj8YPKcFbwT0D7ZejLQ"
      } ],
      "disc_number" : 1,
      "duration_ms" : 188406,
      "explicit" : false,
      "external_ids" : {
        "isrc" : "US4R31016287"
      },
      "external_urls" : {
        "spotify" : "https://open.spotify.com/track/0cY8vif4OmIZRMpuvj7AyQ"
      },
      "href" : "https://api.spotify.com/v1/tracks/0cY8vif4OmIZRMpuvj7AyQ",
      "id" : "0cY8vif4OmIZRMpuvj7AyQ",
      "is_local" : false,
      "is_playable" : true,
      "name" : "Onward Christian Soldiers",
      "popularity" : 20,
      "preview_url" : "https://p.scdn.co/mp3-preview/a475873213a1577cdd9efeb8cb4a26a6bc0e94eb?cid=774b29d4f13844c495f206cafdad9c86",
      "track_number" : 12,
      "type" : "track",
      "uri" : "spotify:track:0cY8vif4OmIZRMpuvj7AyQ"
    }, {
      "album" : {
        "album_type" : "album",
        "artists" : [ {
          "external_urls" : {
            "spotify" : "https://open.spotify.com/artist/0NTSMFFapnyZfvmCwzcYPd"
          },
          "href" : "https://api.spotify.com/v1/artists/0NTSMFFapnyZfvmCwzcYPd",
          "id" : "0NTSMFFapnyZfvmCwzcYPd",
          "name" : "Cradle Of Filth",
          "type" : "artist",
          "uri" : "spotify:artist:0NTSMFFapnyZfvmCwzcYPd"
        } ],
        "external_urls" : {
          "spotify" : "https://open.spotify.com/album/02WvOJdqg4zKrjcRzMFnQ2"
        },
        "href" : "https://api.spotify.com/v1/albums/02WvOJdqg4zKrjcRzMFnQ2",
        "id" : "02WvOJdqg4zKrjcRzMFnQ2",
        "images" : [ {
          "height" : 640,
          "url" : "https://i.scdn.co/image/ab67616d0000b273a430dd51d62bee6ebd95f7e8",
          "width" : 640
        }, {
          "height" : 300,
          "url" : "https://i.scdn.co/image/ab67616d00001e02a430dd51d62bee6ebd95f7e8",
          "width" : 300
        }, {
          "height" : 64,
          "url" : "https://i.scdn.co/image/ab67616d00004851a430dd51d62bee6ebd95f7e8",
          "width" : 64
        } ],
        "name" : "Hammer of the Witches",
        "release_date" : "2015-07-10",
        "release_date_precision" : "day",
        "total_tracks" : 13,
        "type" : "album",
        "uri" : "spotify:album:02WvOJdqg4zKrjcRzMFnQ2"
      },
      "artists" : [ {
        "external_urls" : {
          "spotify" : "https://open.spotify.com/artist/0NTSMFFapnyZfvmCwzcYPd"
        },
        "href" : "https://api.spotify.com/v1/artists/0NTSMFFapnyZfvmCwzcYPd",
        "id" : "0NTSMFFapnyZfvmCwzcYPd",
        "name" : "Cradle Of Filth",
        "type" : "artist",
        "uri" : "spotify:artist:0NTSMFFapnyZfvmCwzcYPd"
      } ],
      "disc_number" : 1,
      "duration_ms" : 419650,
      "explicit" : false,
      "external_ids" : {
        "isrc" : "DED831500517"
      },
      "external_urls" : {
        "spotify" : "https://open.spotify.com/track/62dZXTHq7fHjFHe3oqDZun"
      },
      "href" : "https://api.spotify.com/v1/tracks/62dZXTHq7fHjFHe3oqDZun",
      "id" : "62dZXTHq7fHjFHe3oqDZun",
      "is_local" : false,
      "is_playable" : true,
      "name" : "Onward Christian Soldiers",
      "popularity" : 20,
      "preview_url" : "https://p.scdn.co/mp3-preview/81a3760910922ea37f7c8a061808c862f58aecef?cid=774b29d4f13844c495f206cafdad9c86",
      "track_number" : 10,
      "type" : "track",
      "uri" : "spotify:track:62dZXTHq7fHjFHe3oqDZun"
    }, {
      "album" : {
        "album_type" : "album",
        "artists" : [ {
          "external_urls" : {
            "spotify" : "https://open.spotify.com/artist/0U0Vlp1HGGUpeXgiqoLwf6"
          },
          "href" : "https://api.spotify.com/v1/artists/0U0Vlp1HGGUpeXgiqoLwf6",
          "id" : "0U0Vlp1HGGUpeXgiqoLwf6",
          "name" : "Anthony Burger",
          "type" : "artist",
          "uri" : "spotify:artist:0U0Vlp1HGGUpeXgiqoLwf6"
        } ],
        "external_urls" : {
          "spotify" : "https://open.spotify.com/album/5jbwOux9XlXlYADVzTIhsq"
        },
        "href" : "https://api.spotify.com/v1/albums/5jbwOux9XlXlYADVzTIhsq",
        "id" : "5jbwOux9XlXlYADVzTIhsq",
        "images" : [ {
          "height" : 640,
          "url" : "https://i.scdn.co/image/ab67616d0000b273f4b6d86ceff7c1c608bc854c",
          "width" : 640
        }, {
          "height" : 300,
          "url" : "https://i.scdn.co/image/ab67616d00001e02f4b6d86ceff7c1c608bc854c",
          "width" : 300
        }, {
          "height" : 64,
          "url" : "https://i.scdn.co/image/ab67616d00004851f4b6d86ceff7c1c608bc854c",
          "width" : 64
        } ],
        "name" : "Hymns Collection",
        "release_date" : "2008-01-01",
        "release_date_precision" : "day",
        "total_tracks" : 19,
        "type" : "album",
        "uri" : "spotify:album:5jbwOux9XlXlYADVzTIhsq"
      },
      "artists" : [ {
        "external_urls" : {
          "spotify" : "https://open.spotify.com/artist/0U0Vlp1HGGUpeXgiqoLwf6"
        },
        "href" : "https://api.spotify.com/v1/artists/0U0Vlp1HGGUpeXgiqoLwf6",
        "id" : "0U0Vlp1HGGUpeXgiqoLwf6",
        "name" : "Anthony Burger",
        "type" : "artist",
        "uri" : "spotify:artist:0U0Vlp1HGGUpeXgiqoLwf6"
      } ],
      "disc_number" : 1,
      "duration_ms" : 224426,
      "explicit" : false,
      "external_ids" : {
        "isrc" : "USB4U0800117"
      },
      "external_urls" : {
        "spotify" : "https://open.spotify.com/track/4pSZMFUc5QNVZRa328kFor"
      },
      "href" : "https://api.spotify.com/v1/tracks/4pSZMFUc5QNVZRa328kFor",
      "id" : "4pSZMFUc5QNVZRa328kFor",
      "is_local" : false,
      "is_playable" : true,
      "name" : "He Is Lord/Onward Christian Soldiers/There Is A Savior - Medley",
      "popularity" : 24,
      "preview_url" : null,
      "track_number" : 14,
      "type" : "track",
      "uri" : "spotify:track:4pSZMFUc5QNVZRa328kFor"
    }, {
      "album" : {
        "album_type" : "album",
        "artists" : [ {
          "external_urls" : {
            "spotify" : "https://open.spotify.com/artist/0MCU2OpgnSB7rm5UPUMHgt"
          },
          "href" : "https://api.spotify.com/v1/artists/0MCU2OpgnSB7rm5UPUMHgt",
          "id" : "0MCU2OpgnSB7rm5UPUMHgt",
          "name" : "Cedarmont Kids",
          "type" : "artist",
          "uri" : "spotify:artist:0MCU2OpgnSB7rm5UPUMHgt"
        } ],
        "external_urls" : {
          "spotify" : "https://open.spotify.com/album/6Xg4hDKUL9qvivx83Fhgsv"
        },
        "href" : "https://api.spotify.com/v1/albums/6Xg4hDKUL9qvivx83Fhgsv",
        "id" : "6Xg4hDKUL9qvivx83Fhgsv",
        "images" : [ {
          "height" : 640,
          "url" : "https://i.scdn.co/image/ab67616d0000b273518a3e7a425739be58f4d16f",
          "width" : 640
        }, {
          "height" : 300,
          "url" : "https://i.scdn.co/image/ab67616d00001e02518a3e7a425739be58f4d16f",
          "width" : 300
        }, {
          "height" : 64,
          "url" : "https://i.scdn.co/image/ab67616d00004851518a3e7a425739be58f4d16f",
          "width" : 64
        } ],
        "name" : "Action Bible Songs",
        "release_date" : "1995",
        "release_date_precision" : "year",
        "total_tracks" : 34,
        "type" : "album",
        "uri" : "spotify:album:6Xg4hDKUL9qvivx83Fhgsv"
      },
      "artists" : [ {
        "external_urls" : {
          "spotify" : "https://open.spotify.com/artist/0MCU2OpgnSB7rm5UPUMHgt"
        },
        "href" : "https://api.spotify.com/v1/artists/0MCU2OpgnSB7rm5UPUMHgt",
        "id" : "0MCU2OpgnSB7rm5UPUMHgt",
        "name" : "Cedarmont Kids",
        "type" : "artist",
        "uri" : "spotify:artist:0MCU2OpgnSB7rm5UPUMHgt"
      } ],
      "disc_number" : 1,
      "duration_ms" : 159933,
      "explicit" : false,
      "external_ids" : {
        "isrc" : "USA5W0400302"
      },
      "external_urls" : {
        "spotify" : "https://open.spotify.com/track/0wyNNbC0g3IfxnydTLYWha"
      },
      "href" : "https://api.spotify.com/v1/tracks/0wyNNbC0g3IfxnydTLYWha",
      "id" : "0wyNNbC0g3IfxnydTLYWha",
      "is_local" : false,
      "is_playable" : true,
      "name" : "Onward Christian Soldiers - Split Track Format",
      "popularity" : 16,
      "preview_url" : "https://p.scdn.co/mp3-preview/b52ffa952a521ef42912efb7afbd69cc88523b8c?cid=774b29d4f13844c495f206cafdad9c86",
      "track_number" : 18,
      "type" : "track",
      "uri" : "spotify:track:0wyNNbC0g3IfxnydTLYWha"
    }, {
      "album" : {
        "album_type" : "album",
        "artists" : [ {
          "external_urls" : {
            "spotify" : "https://open.spotify.com/artist/5gWZC3kXTwxQGc9q3M16vK"
          },
          "href" : "https://api.spotify.com/v1/artists/5gWZC3kXTwxQGc9q3M16vK",
          "id" : "5gWZC3kXTwxQGc9q3M16vK",
          "name" : "LDS Piano",
          "type" : "artist",
          "uri" : "spotify:artist:5gWZC3kXTwxQGc9q3M16vK"
        } ],
        "external_urls" : {
          "spotify" : "https://open.spotify.com/album/59SmAZBgLSdvxpKp8pP9EZ"
        },
        "href" : "https://api.spotify.com/v1/albums/59SmAZBgLSdvxpKp8pP9EZ",
        "id" : "59SmAZBgLSdvxpKp8pP9EZ",
        "images" : [ {
          "height" : 640,
          "url" : "https://i.scdn.co/image/ab67616d0000b273b639d51f81074f07d62540d0",
          "width" : 640
        }, {
          "height" : 300,
          "url" : "https://i.scdn.co/image/ab67616d00001e02b639d51f81074f07d62540d0",
          "width" : 300
        }, {
          "height" : 64,
          "url" : "https://i.scdn.co/image/ab67616d00004851b639d51f81074f07d62540d0",
          "width" : 64
        } ],
        "name" : "The Mormon Hymnbook Volume 2",
        "release_date" : "2019-03-18",
        "release_date_precision" : "day",
        "total_tracks" : 18,
        "type" : "album",
        "uri" : "spotify:album:59SmAZBgLSdvxpKp8pP9EZ"
      },
      "artists" : [ {
        "external_urls" : {
          "spotify" : "https://open.spotify.com/artist/5gWZC3kXTwxQGc9q3M16vK"
        },
        "href" : "https://api.spotify.com/v1/artists/5gWZC3kXTwxQGc9q3M16vK",
        "id" : "5gWZC3kXTwxQGc9q3M16vK",
        "name" : "LDS Piano",
        "type" : "artist",
        "uri" : "spotify:artist:5gWZC3kXTwxQGc9q3M16vK"
      } ],
      "disc_number" : 1,
      "duration_ms" : 212076,
      "explicit" : false,
      "external_ids" : {
        "isrc" : "GBSMU6209097"
      },
      "external_urls" : {
        "spotify" : "https://open.spotify.com/track/7J43kvdNzfAkQIPvCLfxHW"
      },
      "href" : "https://api.spotify.com/v1/tracks/7J43kvdNzfAkQIPvCLfxHW",
      "id" : "7J43kvdNzfAkQIPvCLfxHW",
      "is_local" : false,
      "is_playable" : true,
      "name" : "Onward Christian Soldiers",
      "popularity" : 11,
      "preview_url" : "https://p.scdn.co/mp3-preview/11bf7d2b9477c323b590f39ee192596888abb524?cid=774b29d4f13844c495f206cafdad9c86",
      "track_number" : 15,
      "type" : "track",
      "uri" : "spotify:track:7J43kvdNzfAkQIPvCLfxHW"
    }, {
      "album" : {
        "album_type" : "album",
        "artists" : [ {
          "external_urls" : {
            "spotify" : "https://open.spotify.com/artist/1U5zgr455OGyIkLNXvDdrf"
          },
          "href" : "https://api.spotify.com/v1/artists/1U5zgr455OGyIkLNXvDdrf",
          "id" : "1U5zgr455OGyIkLNXvDdrf",
          "name" : "Traditional",
          "type" : "artist",
          "uri" : "spotify:artist:1U5zgr455OGyIkLNXvDdrf"
        }, {
          "external_urls" : {
            "spotify" : "https://open.spotify.com/artist/2igGYNAMmRUQ4nUfy0NGtN"
          },
          "href" : "https://api.spotify.com/v1/artists/2igGYNAMmRUQ4nUfy0NGtN",
          "id" : "2igGYNAMmRUQ4nUfy0NGtN",
          "name" : "London Philharmonic Concert Society",
          "type" : "artist",
          "uri" : "spotify:artist:2igGYNAMmRUQ4nUfy0NGtN"
        }, {
          "external_urls" : {
            "spotify" : "https://open.spotify.com/artist/0WIY8dfLqdsgKUKngzcjCm"
          },
          "href" : "https://api.spotify.com/v1/artists/0WIY8dfLqdsgKUKngzcjCm",
          "id" : "0WIY8dfLqdsgKUKngzcjCm",
          "name" : "John Alldis",
          "type" : "artist",
          "uri" : "spotify:artist:0WIY8dfLqdsgKUKngzcjCm"
        }, {
          "external_urls" : {
            "spotify" : "https://open.spotify.com/artist/3PfJE6ebCbCHeuqO4BfNeA"
          },
          "href" : "https://api.spotify.com/v1/artists/3PfJE6ebCbCHeuqO4BfNeA",
          "id" : "3PfJE6ebCbCHeuqO4BfNeA",
          "name" : "London Philharmonic Orchestra",
          "type" : "artist",
          "uri" : "spotify:artist:3PfJE6ebCbCHeuqO4BfNeA"
        } ],
        "external_urls" : {
          "spotify" : "https://open.spotify.com/album/7vJBLM3TaskMnpCV49NLpO"
        },
        "href" : "https://api.spotify.com/v1/albums/7vJBLM3TaskMnpCV49NLpO",
        "id" : "7vJBLM3TaskMnpCV49NLpO",
        "images" : [ {
          "height" : 640,
          "url" : "https://i.scdn.co/image/ab67616d0000b2732aa9eea501b86f2d5f8b0b45",
          "width" : 640
        }, {
          "height" : 300,
          "url" : "https://i.scdn.co/image/ab67616d00001e022aa9eea501b86f2d5f8b0b45",
          "width" : 300
        }, {
          "height" : 64,
          "url" : "https://i.scdn.co/image/ab67616d000048512aa9eea501b86f2d5f8b0b45",
          "width" : 64
        } ],
        "name" : "Hymns Triumphant",
        "release_date" : "1988-01-01",
        "release_date_precision" : "day",
        "total_tracks" : 39,
        "type" : "album",
        "uri" : "spotify:album:7vJBLM3TaskMnpCV49NLpO"
      },
      "artists" : [ {
        "external_urls" : {
          "spotify" : "https://open.spotify.com/artist/1U5zgr455OGyIkLNXvDdrf"
        },
        "href" : "https://api.spotify.com/v1/artists/1U5zgr455OGyIkLNXvDdrf",
        "id" : "1U5zgr455OGyIkLNXvDdrf",
        "name" : "Traditional",
        "type" : "artist",
        "uri" : "spotify:artist:1U5zgr455OGyIkLNXvDdrf"
      }, {
        "external_urls" : {
          "spotify" : "https://open.spotify.com/artist/7GUhTBqD7CAbbIjjBd0SdN"
        },
        "href" : "https://api.spotify.com/v1/artists/7GUhTBqD7CAbbIjjBd0SdN",
        "id" : "7GUhTBqD7CAbbIjjBd0SdN",
        "name" : "London Philharmonic Choir",
        "type" : "artist",
        "uri" : "spotify:artist:7GUhTBqD7CAbbIjjBd0SdN"
      }, {
        "external_urls" : {
          "spotify" : "https://open.spotify.com/artist/0WIY8dfLqdsgKUKngzcjCm"
        },
        "href" : "https://api.spotify.com/v1/artists/0WIY8dfLqdsgKUKngzcjCm",
        "id" : "0WIY8dfLqdsgKUKngzcjCm",
        "name" : "John Alldis",
        "type" : "artist",
        "uri" : "spotify:artist:0WIY8dfLqdsgKUKngzcjCm"
      }, {
        "external_urls" : {
          "spotify" : "https://open.spotify.com/artist/2Ek1WGW7WeyDoxsZiu0AAd"
        },
        "href" : "https://api.spotify.com/v1/artists/2Ek1WGW7WeyDoxsZiu0AAd",
        "id" : "2Ek1WGW7WeyDoxsZiu0AAd",
        "name" : "National Philharmonic Orchestra",
        "type" : "artist",
        "uri" : "spotify:artist:2Ek1WGW7WeyDoxsZiu0AAd"
      } ],
      "disc_number" : 1,
      "duration_ms" : 164733,
      "explicit" : false,
      "external_ids" : {
        "isrc" : "USSP38847130"
      },
      "external_urls" : {
        "spotify" : "https://open.spotify.com/track/4gYr5p4JjkQAnqHIMIbUTP"
      },
      "href" : "https://api.spotify.com/v1/tracks/4gYr5p4JjkQAnqHIMIbUTP",
      "id" : "4gYr5p4JjkQAnqHIMIbUTP",
      "is_local" : false,
      "is_playable" : true,
      "name" : "Onward Christian Soldiers",
      "popularity" : 12,
      "preview_url" : null,
      "track_number" : 37,
      "type" : "track",
      "uri" : "spotify:track:4gYr5p4JjkQAnqHIMIbUTP"
    } ],
    "limit" : 10,
    "next" : "https://api.spotify.com/v1/search?query=Onward%2C+Christian+Soldiers%21&type=track&market=US&offset=15&limit=10",
    "offset" : 5,
    "previous" : "https://api.spotify.com/v1/search?query=Onward%2C+Christian+Soldiers%21&type=track&market=US&offset=0&limit=10",
    "total" : 833
  }
}