{
  "tracks" : {
    "href" : "https://api.spotify.com/v1/search?query=O+Jesus+Sweet&type=track&market=US&offset=5&limit=10",
    "items" : [ {
      "album" : {
        "album_type" : "album",
        "artists" : [ {
          "external_urls" : {
            "spotify" : "https://open.spotify.com/artist/0HoHU8SXe0g9jJGOfL8rDq"
          },
          "href" : "https://api.spotify.com/v1/artists/0HoHU8SXe0g9jJGOfL8rDq",
          "id" : "0HoHU8SXe0g9jJGOfL8rDq",
          "name" : "Indelible Grace Music",
          "type" : "artist",
          "uri" : "spotify:artist:0HoHU8SXe0g9jJGOfL8rDq"
        } ],
        "external_urls" : {
          "spotify" : "https://open.spotify.com/album/4Yq8xowR1QxLYIuSuCAWY2"
        },
        "href" : "https://api.spotify.com/v1/albums/4Yq8xowR1QxLYIuSuCAWY2",
        "id" : "4Yq8xowR1QxLYIuSuCAWY2",
        "images" : [ {
          "height" : 640,
          "url" : "https://i.scdn.co/image/ab67616d0000b273d15a5b7de652b369bcc5e1c0",
          "width" : 640
        }, {
          "height" : 300,
          "url" : "https://i.scdn.co/image/ab67616d00001e02d15a5b7de652b369bcc5e1c0",
          "width" : 300
        }, {
          "height" : 64,
          "url" : "https://i.scdn.co/image/ab67616d00004851d15a5b7de652b369bcc5e1c0",
          "width" : 64
        } ],
        "name" : "Pilgrim Days: Indelible Grace II",
        "release_date" : "2008-07-28",
        "release_date_precision" : "day",
        "total_tracks" : 14,
        "type" : "album",
        "uri" : "spotify:album:4Yq8xowR1QxLYIuSuCAWY2"
      },
      "artists" : [ {
        "external_urls" : {
          "spotify" : "https://open.spotify.com/artist/0HoHU8SXe0g9jJGOfL8rDq"
        },
        "href" : "https://api.spotify.com/v1/artists/0HoHU8SXe0g9jJGOfL8rDq",
        "id" : "0HoHU8SXe0g9jJGOfL8rDq",
        "name" : "Indelible Grace Music",
        "type" : "artist",
        "uri" : "spotify:artist:0HoHU8SXe0g9jJGOfL8rDq"
      } ],
      "disc_number" : 1,
      "duration_ms" : 150733,
      "explicit" : false,
      "external_ids" : {
        "isrc" : "USTC60816887"
      },
      "external_urls" : {
        "spotify" : "https://open.spotify.com/track/2pxQFkJSXtEiVBDDX5h8wK"
      },
      "href" : "https://api.spotify.com/v1/tracks/2pxQFkJSXtEiVBDDX5h8wK",
      "id" : "2pxQFkJSXtEiVBDDX5h8wK",
      "is_local" : false,
      "is_playable" : true,
      "name" : "How Sweet the Name of Jesus Sounds [Mp Jones]",
      "popularity" : 31,
      "preview_url" : "https://p.scdn.co/mp3-preview/8c3c5c5aaf49dd40f6dd53d769b6a954a2833b18?cid=774b29d4f13844c495f206cafdad9c86",
      "track_number" : 5,
      "type" : "track",
      "uri" : "spotify:track:2pxQFkJSXtEiVBDDX5h8wK"
    }, {
      "album" : {
        "album_type" : "album",
        "artists" : [ {
          "external_urls" : {
            "spotify" : "https://open.spotify.com/artist/3Be0FxZRoCJ8UPrkwe6Xuw"
          },
          "href" : "https://api.spotify.com/v1/artists/3Be0FxZRoCJ8UPrkwe6Xuw",
          "id" : "3Be0FxZRoCJ8UPrkwe6Xuw",
          "name" : "Stan Whitmire",
          "type" : "artist",
          "uri" : "spotify:artist:3Be0FxZRoCJ8UPrkwe6Xuw"
        } ],
        "external_urls" : {
          "spotify" : "https://open.spotify.com/album/708WHnGeVcYKaHN2AV4HxX"
        },
        "href" : "https://api.spotify.com/v1/albums/708WHnGeVcYKaHN2AV4HxX",
        "id" : "708WHnGeVcYKaHN2AV4HxX",
        "images" : [ {
          "height" : 640,
          "url" : "https://i.scdn.co/image/ab67616d0000b2737ff7f0149a3d83cd68b91a98",
          "width" : 640
        }, {
          "height" : 300,
          "url" : "https://i.scdn.co/image/ab67616d00001e027ff7f0149a3d83cd68b91a98",
          "width" : 300
        }, {
          "height" : 64,
          "url" : "https://i.scdn.co/image/ab67616d000048517ff7f0149a3d83cd68b91a98",
          "width" : 64
        } ],
        "name" : "Piano Hymns",
        "release_date" : "1995-01-01",
        "release_date_precision" : "day",
        "total_tracks" : 11,
        "type" : "album",
        "uri" : "spotify:album:708WHnGeVcYKaHN2AV4HxX"
      },
      "artists" : [ {
        "external_urls" : {
          "spotify" : "https://open.spotify.com/artist/3Be0FxZRoCJ8UPrkwe6Xuw"
        },
        "href" : "https://api.spotify.com/v1/artists/3Be0FxZRoCJ8UPrkwe6Xuw",
        "id" : "3Be0FxZRoCJ8UPrkwe6Xuw",
        "name" : "Stan Whitmire",
        "type" : "artist",
        "uri" : "spotify:artist:3Be0FxZRoCJ8UPrkwe6Xuw"
      } ],
      "disc_number" : 1,
      "duration_ms" : 269066,
      "explicit" : false,
      "external_ids" : {
        "isrc" : "USB4U0800082"
      },
      "external_urls" : {
        "spotify" : "https://open.spotify.com/track/4zl1F5zvjBS7i6Bl38GZbV"
      },
      "href" : "https://api.spotify.com/v1/tracks/4zl1F5zvjBS7i6Bl38GZbV",
      "id" : "4zl1F5zvjBS7i6Bl38GZbV",
      "is_local" : false,
      "is_playable" : true,
      "name" : "Sweet Hour Of Prayer/I Must Tell Jesus - Medley",
      "popularity" : 32,
      "preview_url" : null,
      "track_number" : 2,
      "type" : "track",
      "uri" : "spotify:track:4zl1F5zvjBS7i6Bl38GZbV"
    }, {
      "album" : {
        "album_type" : "album",
        "artists" : [ {
          "external_urls" : {
            "spotify" : "https://open.spotify.com/artist/2duo4NJtUrLaI38trK0hht"
          },
          "href" : "https://api.spotify.com/v1/artists/2duo4NJtUrLaI38trK0hht",
          "id" : "2duo4NJtUrLaI38trK0hht",
          "name" : "Mormon Tabernacle Choir",
          "type" : "artist",
          "uri" : "spotify:artist:2duo4NJtUrLaI38trK0hht"
        }, {
          "external_urls" : {
            "spotify" : "https://open.spotify.com/artist/4kAIRZipPTtTbZBTudxcEA"
          },
          "href" : "https://api.spotify.com/v1/artists/4kAIRZipPTtTbZBTudxcEA",
          "id" : "4kAIRZipPTtTbZBTudxcEA",
          "name" : "Orchestra at Temple Square",
          "type" : "artist",
          "uri" : "spotify:artist:4kAIRZipPTtTbZBTudxcEA"
        }, {
          "external_urls" : {
            "spotify" : "https://open.spotify.com/artist/13iOctu8ZH8004y3Sy4e8p"
          },
          "href" : "https://api.spotify.com/v1/artists/13iOctu8ZH8004y3Sy4e8p",
          "id" : "13iOctu8ZH8004y3Sy4e8p",
          "name" : "Craig Jessop",
          "type" : "artist",
          "uri" : "spotify:artist:13iOctu8ZH8004y3Sy4e8p"
        } ],
        "external_urls" : {
          "spotify" : "https://open.spotify.com/album/0ueX5UqgKGU3a4XznZhmwo"
        },
        "href" : "https://api.spotify.com/v1/albums/0ueX5UqgKGU3a4XznZhmwo",
        "id" : "0ueX5UqgKGU3a4XznZhmwo",
        "images" : [ {
          "height" : 640,
          "url" : "https://i.scdn.co/image/ab67616d0000b2735820ce04bd99e037d888c8ff",
          "width" : 640
        }, {
          "height" : 300,
          "url" : "https://i.scdn.co/image/ab67616d00001e025820ce04bd99e037d888c8ff",
          "width" : 300
        }, {
          "height" : 64,
          "url" : "https://i.scdn.co/image/ab67616d000048515820ce04bd99e037d888c8ff",
          "width" : 64
        } ],
        "name" : "Consider the Lilies",
        "release_date" : "2003-05-06",
        "release_date_precision" : "day",
        "total_tracks" : 17,
        "type" : "album",
        "uri" : "spotify:album:0ueX5UqgKGU3a4XznZhmwo"
      },
      "artists" : [ {
        "external_urls" : {
          "spotify" : "https://open.spotify.com/artist/2duo4NJtUrLaI38trK0hht"
        },
        "href" : "https://api.spotify.com/v1/artists/2duo4NJtUrLaI38trK0hht",
        "id" : "2duo4NJtUrLaI38trK0hht",
        "name" : "Mormon Tabernacle Choir",
        "type" : "artist",
        "uri" : "spotify:artist:2duo4NJtUrLaI38trK0hht"
      }, {
        "external_urls" : {
          "spotify" : "https://open.spotify.com/artist/4kAIRZipPTtTbZBTudxcEA"
        },
        "href" : "https://api.spotify.com/v1/artists/4kAIRZipPTtTbZBTudxcEA",
        "id" : "4kAIRZipPTtTbZBTudxcEA",
        "name" : "Orchestra at Temple Square",
        "type" : "artist",
        "uri" : "spotify:artist:4kAIRZipPTtTbZBTudxcEA"
      }, {
        "external_urls" : {
          "spotify" : "https://open.spotify.com/artist/13iOctu8ZH8004y3Sy4e8p"
        },
        "href" : "https://api.spotify.com/v1/artists/13iOctu8ZH8004y3Sy4e8p",
        "id" : "13iOctu8ZH8004y3Sy4e8p",
        "name" : "Craig Jessop",
        "type" : "artist",
        "uri" : "spotify:artist:13iOctu8ZH8004y3Sy4e8p"
      } ],
      "disc_number" : 1,
      "duration_ms" : 383880,
      "explicit" : false,
      "external_ids" : {
        "isrc" : "US23M0800781"
      },
      "external_urls" : {
        "spotify" : "https://open.spotify.com/track/6aqvArw76ca5zuPFSHBR2a"
      },
      "href" : "https://api.spotify.com/v1/tracks/6aqvArw76ca5zuPFSHBR2a",
      "id" : "6aqvArw76ca5zuPFSHBR2a",
      "is_local" : false,
      "is_playable" : true,
      "name" : "Jesus, the Very Thought Is Sweet",
      "popularity" : 27,
      "preview_url" : "https://p.scdn.co/mp3-preview/8b2e476ee2e9cbd216554b3364af139bf772e315?cid=774b29d4f13844c495f206cafdad9c86",
      "track_number" : 11,
      "type" : "track",
      "uri" : "spotify:track:6aqvArw76ca5zuPFSHBR2a"
    }, {
      "album" : {
        "album_type" : "album",
        "artists" : [ {
          "external_urls" : {
            "spotify" : "https://open.spotify.com/artist/2bEFxVGVlzEIEdDAaQZCrc"
          },
          "href" : "https://api.spotify.com/v1/artists/2bEFxVGVlzEIEdDAaQZCrc",
          "id" : "2bEFxVGVlzEIEdDAaQZCrc",
          "name" : "Lovkn",
          "type" : "artist",
          "uri" : "spotify:artist:2bEFxVGVlzEIEdDAaQZCrc"
        } ],
        "external_urls" : {
          "spotify" : "https://open.spotify.com/album/6AsU7R0g9THoQ7f4NKK2AJ"
        },
        "href" : "https://api.spotify.com/v1/albums/6AsU7R0g9THoQ7f4NKK2AJ",
        "id" : "6AsU7R0g9THoQ7f4NKK2AJ",
        "images" : [ {
          "height" : 640,
          "url" : "https://i.scdn.co/image/ab67616d0000b273f2636b2214157105c6f80bf3",
          "width" : 640
        }, {
          "height" : 300,
          "url" : "https://i.scdn.co/image/ab67616d00001e02f2636b2214157105c6f80bf3",
          "width" : 300
        }, {
          "height" : 64,
          "url" : "https://i.scdn.co/image/ab67616d00004851f2636b2214157105c6f80bf3",
          "width" : 64
        } ],
        "name" : "Pilot of My Own Life",
        "release_date" : "2019-09-13",
        "release_date_precision" : "day",
        "total_tracks" : 12,
        "type" : "album",
        "uri" : "spotify:album:6AsU7R0g9THoQ7f4NKK2AJ"
      },
      "artists" : [ {
        "external_urls" : {
          "spotify" : "https://open.spotify.com/artist/2bEFxVGVlzEIEdDAaQZCrc"
        },
        "href" : "https://api.spotify.com/v1/artists/2bEFxVGVlzEIEdDAaQZCrc",
        "id" : "2bEFxVGVlzEIEdDAaQZCrc",
        "name" : "Lovkn",
        "type" : "artist",
        "uri" : "spotify:artist:2bEFxVGVlzEIEdDAaQZCrc"
      } ],
      "disc_number" : 1,
      "duration_ms" : 217826,
      "explicit" : false,
      "external_ids" : {
        "isrc" : "QZHN31926608"
      },
      "external_urls" : {
        "spotify" : "https://open.spotify.com/track/4q940d7our3pUlcFtsTNli"
      },
      "href" : "https://api.spotify.com/v1/tracks/4q940d7our3pUlcFtsTNli",
      "id" : "4q940d7our3pUlcFtsTNli",
      "is_local" : false,
      "is_playable" : true,
      "name" : "Come Sweet Jesus",
      "popularity" : 30,
      "preview_url" : "https://p.scdn.co/mp3-preview/e09d2d2c62f17aaa42469feb14b2c183ed7b8d0a?cid=774b29d4f13844c495f206cafdad9c86",
      "track_number" : 3,
      "type" : "track",
      "uri" : "spotify:track:4q940d7our3pUlcFtsTNli"
    }, {
      "album" : {
        "album_type" : "album",
        "artists" : [ {
          "external_urls" : {
            "spotify" : "https://open.spotify.com/artist/23lyMLxYNPS15hpVvFNptR"
          },
          "href" : "https://api.spotify.com/v1/artists/23lyMLxYNPS15hpVvFNptR",
          "id" : "23lyMLxYNPS15hpVvFNptR",
          "name" : "Stoned Jesus",
          "type" : "artist",
          "uri" : "spotify:artist:23lyMLxYNPS15hpVvFNptR"
        } ],
        "external_urls" : {
          "spotify" : "https://open.spotify.com/album/6jDIDRdPkZCIeWcPHLAD2g"
        },
        "href" : "https://api.spotify.com/v1/albums/6jDIDRdPkZCIeWcPHLAD2g",
        "id" : "6jDIDRdPkZCIeWcPHLAD2g",
        "images" : [ {
          "height" : 640,
          "url" : "https://i.scdn.co/image/ab67616d0000b2736bbc5f3702df5f33c5ff72b6",
          "width" : 640
        }, {
          "height" : 300,
          "url" : "https://i.scdn.co/image/ab67616d00001e026bbc5f3702df5f33c5ff72b6",
          "width" : 300
        }, {
          "height" : 64,
          "url" : "https://i.scdn.co/image/ab67616d000048516bbc5f3702df5f33c5ff72b6",
          "width" : 64
        } ],
        "name" : "From the Outer Space",
        "release_date" : "2019-11-08",
        "release_date_precision" : "day",
        "total_tracks" : 5,
        "type" : "album",
        "uri" : "spotify:album:6jDIDRdPkZCIeWcPHLAD2g"
      },
      "artists" : [ {
        "external_urls" : {
          "spotify" : "https://open.spotify.com/artist/23lyMLxYNPS15hpVvFNptR"
        },
        "href" : "https://api.spotify.com/v1/artists/23lyMLxYNPS15hpVvFNptR",
        "id" : "23lyMLxYNPS15hpVvFNptR",
        "name" : "Stoned Jesus",
        "type" : "artist",
        "uri" : "spotify:artist:23lyMLxYNPS15hpVvFNptR"
      } ],
      "disc_number" : 1,
      "duration_ms" : 353757,
      "explicit" : false,
      "external_ids" : {
        "isrc" : "ATN261990301"
      },
      "external_urls" : {
        "spotify" : "https://open.spotify.com/track/4NsubZYQjQBzSnJRGMa9o7"
      },
      "href" : "https://api.spotify.com/v1/tracks/4NsubZYQjQBzSnJRGMa9o7",
      "id" : "4NsubZYQjQBzSnJRGMa9o7",
      "is_local" : false,
      "is_playable" : true,
      "name" : "The Sweet Whore of Babylon",
      "popularity" : 24,
      "preview_url" : "https://p.scdn.co/mp3-preview/a4848d0e5f48d356ac59016dd613f9e8e7b39ae6?cid=774b29d4f13844c495f206cafdad9c86",
      "track_number" : 1,
      "type" : "track",
      "uri" : "spotify:track:4NsubZYQjQBzSnJRGMa9o7"
    }, {
      "album" : {
        "album_type" : "album",
        "artists" : [ {
          "external_urls" : {
            "spotify" : "https://open.spotify.com/artist/50NoVNy9GU1lCrDV8iGpyu"
          },
          "href" : "https://api.spotify.com/v1/artists/50NoVNy9GU1lCrDV8iGpyu",
          "id" : "50NoVNy9GU1lCrDV8iGpyu",
          "name" : "Ol' Dirty Bastard",
          "type" : "artist",
          "uri" : "spotify:artist:50NoVNy9GU1lCrDV8iGpyu"
        } ],
        "external_urls" : {
          "spotify" : "https://open.spotify.com/album/4tI4WJdTN5MzDMRMl2i7VR"
        },
        "href" : "https://api.spotify.com/v1/albums/4tI4WJdTN5MzDMRMl2i7VR",
        "id" : "4tI4WJdTN5MzDMRMl2i7VR",
        "images" : [ {
          "height" : 640,
          "url" : "https://i.scdn.co/image/ab67616d0000b2739a8410531478e54ec963c606",
          "width" : 640
        }, {
          "height" : 300,
          "url" : "https://i.scdn.co/image/ab67616d00001e029a8410531478e54ec963c606",
          "width" : 300
        }, {
          "height" : 64,
          "url" : "https://i.scdn.co/image/ab67616d000048519a8410531478e54ec963c606",
          "width" : 64
        } ],
        "name" : "Return To The 36 Chambers: The Dirty Version",
        "release_date" : "1995",
        "release_date_precision" : "year",
        "total_tracks" : 17,
        "type" : "album",
        "uri" : "spotify:album:4tI4WJdTN5MzDMRMl2i7VR"
      },
      "artists" : [ {
        "external_urls" : {
          "spotify" : "https://open.spotify.com/artist/50NoVNy9GU1lCrDV8iGpyu"
        },
        "href" : "https://api.spotify.com/v1/artists/50NoVNy9GU1lCrDV8iGpyu",
        "id" : "50NoVNy9GU1lCrDV8iGpyu",
        "name" : "Ol' Dirty Bastard",
        "type" : "artist",
        "uri" : "spotify:artist:50NoVNy9GU1lCrDV8iGpyu"
      } ],
      "disc_number" : 1,
      "duration_ms" : 260573,
      "explicit" : true,
      "external_ids" : {
        "isrc" : "USEE10901087"
      },
      "external_urls" : {
        "spotify" : "https://open.spotify.com/track/2k1a0Z66w5GgfLtJpdXa8c"
      },
      "href" : "https://api.spotify.com/v1/tracks/2k1a0Z66w5GgfLtJpdXa8c",
      "id" : "2k1a0Z66w5GgfLtJpdXa8c",
      "is_local" : false,
      "is_playable" : true,
      "name" : "Drunk Game (Sweet Sugar Pie)",
      "popularity" : 29,
      "preview_url" : "https://p.scdn.co/mp3-preview/7b8f3d2a9d194c2c537ee9747f19a4da86e8a8f2?cid=774b29d4f13844c495f206cafdad9c86",
      "track_number" : 11,
      "type" : "track",
      "uri" : "spotify:track:2k1a0Z66w5GgfLtJpdXa8c"
    }, {
      "album" : {
        "album_type" : "single",
        "artists" : [ {
          "external_urls" : {
            "spotify" : "https://open.spotify.com/artist/0JEaOx0otT35qgkj1w4oBw"
          },
          "href" : "https://api.spotify.com/v1/artists/0JEaOx0otT35qgkj1w4oBw",
          "id" : "0JEaOx0otT35qgkj1w4oBw",
          "name" : "Church of the City",
          "type" : "artist",
          "uri" : "spotify:artist:0JEaOx0otT35qgkj1w4oBw"
        } ],
        "external_urls" : {
          "spotify" : "https://open.spotify.com/album/1eQch9c6HSlHyy9HJmGV1J"
        },
        "href" : "https://api.spotify.com/v1/albums/1eQch9c6HSlHyy9HJmGV1J",
        "id" : "1eQch9c6HSlHyy9HJmGV1J",
        "images" : [ {
          "height" : 640,
          "url" : "https://i.scdn.co/image/ab67616d0000b2737cc9a8d6c8f6275e8b57a02b",
          "width" : 640
        }, {
          "height" : 300,
          "url" : "https://i.scdn.co/image/ab67616d00001e027cc9a8d6c8f6275e8b57a02b",
          "width" : 300
        }, {
          "height" : 64,
          "url" : "https://i.scdn.co/image/ab67616d000048517cc9a8d6c8f6275e8b57a02b",
          "width" : 64
        } ],
        "name" : "Church Of The City (Live)",
        "release_date" : "2020-03-20",
        "release_date_precision" : "day",
        "total_tracks" : 6,
        "type" : "album",
        "uri" : "spotify:album:1eQch9c6HSlHyy9HJmGV1J"
      },
      "artists" : [ {
        "external_urls" : {
          "spotify" : "https://open.spotify.com/artist/0JEaOx0otT35qgkj1w4oBw"
        },
        "href" : "https://api.spotify.com/v1/artists/0JEaOx0otT35qgkj1w4oBw",
        "id" : "0JEaOx0otT35qgkj1w4oBw",
        "name" : "Church of the City",
        "type" : "artist",
        "uri" : "spotify:artist:0JEaOx0otT35qgkj1w4oBw"
      }, {
        "external_urls" : {
          "spotify" : "https://open.spotify.com/artist/7H0gjeKVq6IPXcAUZzzhD2"
        },
        "href" : "https://api.spotify.com/v1/artists/7H0gjeKVq6IPXcAUZzzhD2",
        "id" : "7H0gjeKVq6IPXcAUZzzhD2",
        "name" : "Jon Reddick",
        "type" : "artist",
        "uri" : "spotify:artist:7H0gjeKVq6IPXcAUZzzhD2"
      } ],
      "disc_number" : 1,
      "duration_ms" : 73407,
      "explicit" : false,
      "external_ids" : {
        "isrc" : "USUG12000685"
      },
      "external_urls" : {
        "spotify" : "https://open.spotify.com/track/2DwXPmQ3XFemdRLTqYtnBS"
      },
      "href" : "https://api.spotify.com/v1/tracks/2DwXPmQ3XFemdRLTqYtnBS",
      "id" : "2DwXPmQ3XFemdRLTqYtnBS",
      "is_local" : false,
      "is_playable" : true,
      "name" : "'Tis So Sweet To Trust In Jesus - Live",
      "popularity" : 24,
      "preview_url" : null,
      "track_number" : 4,
      "type" : "track",
      "uri" : "spotify:track:2DwXPmQ3XFemdRLTqYtnBS"
    }, {
      "album" : {
        "album_type" : "album",
        "artists" : [ {
          "external_urls" : {
            "spotify" : "https://open.spotify.com/artist/1ZknN7FbjjjMTmdU42OEeX"
          },
          "href" : "https://api.spotify.com/v1/artists/1ZknN7FbjjjMTmdU42OEeX",
          "id" : "1ZknN7FbjjjMTmdU42OEeX",
          "name" : "BYU Noteworthy",
          "type" : "artist",
          "uri" : "spotify:artist:1ZknN7FbjjjMTmdU42OEeX"
        } ],
        "external_urls" : {
          "spotify" : "https://open.spotify.com/album/7h44foAp0enIp7e93s4dbg"
        },
        "href" : "https://api.spotify.com/v1/albums/7h44foAp0enIp7e93s4dbg",
        "id" : "7h44foAp0enIp7e93s4dbg",
        "images" : [ {
          "height" : 640,
          "url" : "https://i.scdn.co/image/ab67616d0000b27386af8b15a318fc01a567b8a1",
          "width" : 640
        }, {
          "height" : 300,
          "url" : "https://i.scdn.co/image/ab67616d00001e0286af8b15a318fc01a567b8a1",
          "width" : 300
        }, {
          "height" : 64,
          "url" : "https://i.scdn.co/image/ab67616d0000485186af8b15a318fc01a567b8a1",
          "width" : 64
        } ],
        "name" : "How Sweet the Sound: Songs of Inspiration",
        "release_date" : "2017-11-10",
        "release_date_precision" : "day",
        "total_tracks" : 12,
        "type" : "album",
        "uri" : "spotify:album:7h44foAp0enIp7e93s4dbg"
      },
      "artists" : [ {
        "external_urls" : {
          "spotify" : "https://open.spotify.com/artist/1ZknN7FbjjjMTmdU42OEeX"
        },
        "href" : "https://api.spotify.com/v1/artists/1ZknN7FbjjjMTmdU42OEeX",
        "id" : "1ZknN7FbjjjMTmdU42OEeX",
        "name" : "BYU Noteworthy",
        "type" : "artist",
        "uri" : "spotify:artist:1ZknN7FbjjjMTmdU42OEeX"
      } ],
      "disc_number" : 1,
      "duration_ms" : 207129,
      "explicit" : false,
      "external_ids" : {
        "isrc" : "QMRB31700023"
      },
      "external_urls" : {
        "spotify" : "https://open.spotify.com/track/3ZVDUZHzHy6Dhm0K20ZXMw"
      },
      "href" : "https://api.spotify.com/v1/tracks/3ZVDUZHzHy6Dhm0K20ZXMw",
      "id" : "3ZVDUZHzHy6Dhm0K20ZXMw",
      "is_local" : false,
      "is_playable" : true,
      "name" : "I'm Trying to Be Like Jesus",
      "popularity" : 26,
      "preview_url" : "https://p.scdn.co/mp3-preview/9ecf60ecaaaefb1ce6fe9de8bdf93dc452d4860e?cid=774b29d4f13844c495f206cafdad9c86",
      "track_number" : 8,
      "type" : "track",
      "uri" : "spotify:track:3ZVDUZHzHy6Dhm0K20ZXMw"
    }, {
      "album" : {
        "album_type" : "album",
        "artists" : [ {
          "external_urls" : {
            "spotify" : "https://open.spotify.com/artist/0cylxW7HGdK9xMdubw2oYW"
          },
          "href" : "https://api.spotify.com/v1/artists/0cylxW7HGdK9xMdubw2oYW",
          "id" : "0cylxW7HGdK9xMdubw2oYW",
          "name" : "The O'Neill Brothers Group",
          "type" : "artist",
          "uri" : "spotify:artist:0cylxW7HGdK9xMdubw2oYW"
        } ],
        "external_urls" : {
          "spotify" : "https://open.spotify.com/album/6H5qy8V8fQx3tNaJRw7rTy"
        },
        "href" : "https://api.spotify.com/v1/albums/6H5qy8V8fQx3tNaJRw7rTy",
        "id" : "6H5qy8V8fQx3tNaJRw7rTy",
        "images" : [ {
          "height" : 640,
          "url" : "https://i.scdn.co/image/ab67616d0000b273c41ed8279412d7851baf07b1",
          "width" : 640
        }, {
          "height" : 300,
          "url" : "https://i.scdn.co/image/ab67616d00001e02c41ed8279412d7851baf07b1",
          "width" : 300
        }, {
          "height" : 64,
          "url" : "https://i.scdn.co/image/ab67616d00004851c41ed8279412d7851baf07b1",
          "width" : 64
        } ],
        "name" : "It's a Small World: Sweet Instrumental Lullabies",
        "release_date" : "2017-08-03",
        "release_date_precision" : "day",
        "total_tracks" : 12,
        "type" : "album",
        "uri" : "spotify:album:6H5qy8V8fQx3tNaJRw7rTy"
      },
      "artists" : [ {
        "external_urls" : {
          "spotify" : "https://open.spotify.com/artist/0cylxW7HGdK9xMdubw2oYW"
        },
        "href" : "https://api.spotify.com/v1/artists/0cylxW7HGdK9xMdubw2oYW",
        "id" : "0cylxW7HGdK9xMdubw2oYW",
        "name" : "The O'Neill Brothers Group",
        "type" : "artist",
        "uri" : "spotify:artist:0cylxW7HGdK9xMdubw2oYW"
      } ],
      "disc_number" : 1,
      "duration_ms" : 198608,
      "explicit" : false,
      "external_ids" : {
        "isrc" : "TCADF1709306"
      },
      "external_urls" : {
        "spotify" : "https://open.spotify.com/track/63qhiCG0JuryvsTKrs4BkO"
      },
      "href" : "https://api.spotify.com/v1/tracks/63qhiCG0JuryvsTKrs4BkO",
      "id" : "63qhiCG0JuryvsTKrs4BkO",
      "is_local" : false,
      "is_playable" : true,
      "name" : "Jesus Loves the Little Children (Instrumental Version)",
      "popularity" : 32,
      "preview_url" : "https://p.scdn.co/mp3-preview/b5c58e3b28fa55f7797c2fae08a3d99f737f9960?cid=774b29d4f13844c495f206cafdad9c86",
      "track_number" : 11,
      "type" : "track",
      "uri" : "spotify:track:63qhiCG0JuryvsTKrs4BkO"
    }, {
      "album" : {
        "album_type" : "album",
        "artists" : [ {
          "external_urls" : {
            "spotify" : "https://open.spotify.com/artist/5dZiRoY9Vpp6qrxqXNRwPE"
          },
          "href" : "https://api.spotify.com/v1/artists/5dZiRoY9Vpp6qrxqXNRwPE",
          "id" : "5dZiRoY9Vpp6qrxqXNRwPE",
          "name" : "Selah",
          "type" : "artist",
          "uri" : "spotify:artist:5dZiRoY9Vpp6qrxqXNRwPE"
        } ],
        "external_urls" : {
          "spotify" : "https://open.spotify.com/album/2I1HzJ3WvTrguv8XQjqVGU"
        },
        "href" : "https://api.spotify.com/v1/albums/2I1HzJ3WvTrguv8XQjqVGU",
        "id" : "2I1HzJ3WvTrguv8XQjqVGU",
        "images" : [ {
          "height" : 640,
          "url" : "https://i.scdn.co/image/ab67616d0000b273a1714b3fed99853de057897a",
          "width" : 640
        }, {
          "height" : 300,
          "url" : "https://i.scdn.co/image/ab67616d00001e02a1714b3fed99853de057897a",
          "width" : 300
        }, {
          "height" : 64,
          "url" : "https://i.scdn.co/image/ab67616d00004851a1714b3fed99853de057897a",
          "width" : 64
        } ],
        "name" : "Hope Of The Broken World",
        "release_date" : "2011-08-23",
        "release_date_precision" : "day",
        "total_tracks" : 12,
        "type" : "album",
        "uri" : "spotify:album:2I1HzJ3WvTrguv8XQjqVGU"
      },
      "artists" : [ {
        "external_urls" : {
          "spotify" : "https://open.spotify.com/artist/5dZiRoY9Vpp6qrxqXNRwPE"
        },
        "href" : "https://api.spotify.com/v1/artists/5dZiRoY9Vpp6qrxqXNRwPE",
        "id" : "5dZiRoY9Vpp6qrxqXNRwPE",
        "name" : "Selah",
        "type" : "artist",
        "uri" : "spotify:artist:5dZiRoY9Vpp6qrxqXNRwPE"
      } ],
      "disc_number" : 1,
      "duration_ms" : 272880,
      "explicit" : false,
      "external_ids" : {
        "isrc" : "USCRB1109569"
      },
      "external_urls" : {
        "spotify" : "https://open.spotify.com/track/7LvbM2Lto81qgQyVdnJSua"
      },
      "href" : "https://api.spotify.com/v1/tracks/7LvbM2Lto81qgQyVdnJSua",
      "id" : "7LvbM2Lto81qgQyVdnJSua",
      "is_local" : false,
      "is_playable" : true,
      "name" : "Tis So Sweet To Trust In Jesus",
      "popularity" : 25,
      "preview_url" : "https://p.scdn.co/mp3-preview/b33ec272dce7204d56d34f11f027507c4278927d?cid=774b29d4f13844c495f206cafdad9c86",
      "track_number" : 9,
      "type" : "track",
      "uri" : "spotify:track:7LvbM2Lto81qgQyVdnJSua"
    } ],
    "limit" : 10,
    "next" : "https://api.spotify.com/v1/search?query=O+Jesus+Sweet&type=track&market=US&offset=15&limit=10",
    "offset" : 5,
    "previous" : "https://api.spotify.com/v1/search?query=O+Jesus+Sweet&type=track&market=US&offset=0&limit=10",
    "total" : 1115
  }
}