{
  "tracks" : {
    "href" : "https://api.spotify.com/v1/search?query=Hark%21+the+Herald+Angels+Sing&type=track&market=US&offset=5&limit=10",
    "items" : [ {
      "album" : {
        "album_type" : "single",
        "artists" : [ {
          "external_urls" : {
            "spotify" : "https://open.spotify.com/artist/0SGHrGqtTlKSstyqpxbqxf"
          },
          "href" : "https://api.spotify.com/v1/artists/0SGHrGqtTlKSstyqpxbqxf",
          "id" : "0SGHrGqtTlKSstyqpxbqxf",
          "name" : "Daniela Morales",
          "type" : "artist",
          "uri" : "spotify:artist:0SGHrGqtTlKSstyqpxbqxf"
        } ],
        "external_urls" : {
          "spotify" : "https://open.spotify.com/album/72GUVdOIPyg1OG1WQehBYH"
        },
        "href" : "https://api.spotify.com/v1/albums/72GUVdOIPyg1OG1WQehBYH",
        "id" : "72GUVdOIPyg1OG1WQehBYH",
        "images" : [ {
          "height" : 640,
          "url" : "https://i.scdn.co/image/ab67616d0000b27362a7393192775573e0ace6e0",
          "width" : 640
        }, {
          "height" : 300,
          "url" : "https://i.scdn.co/image/ab67616d00001e0262a7393192775573e0ace6e0",
          "width" : 300
        }, {
          "height" : 64,
          "url" : "https://i.scdn.co/image/ab67616d0000485162a7393192775573e0ace6e0",
          "width" : 64
        } ],
        "name" : "The Gift of Christmas",
        "release_date" : "2019-11-22",
        "release_date_precision" : "day",
        "total_tracks" : 4,
        "type" : "album",
        "uri" : "spotify:album:72GUVdOIPyg1OG1WQehBYH"
      },
      "artists" : [ {
        "external_urls" : {
          "spotify" : "https://open.spotify.com/artist/0SGHrGqtTlKSstyqpxbqxf"
        },
        "href" : "https://api.spotify.com/v1/artists/0SGHrGqtTlKSstyqpxbqxf",
        "id" : "0SGHrGqtTlKSstyqpxbqxf",
        "name" : "Daniela Morales",
        "type" : "artist",
        "uri" : "spotify:artist:0SGHrGqtTlKSstyqpxbqxf"
      } ],
      "disc_number" : 1,
      "duration_ms" : 139285,
      "explicit" : false,
      "external_ids" : {
        "isrc" : "QZ4ZJ1900039"
      },
      "external_urls" : {
        "spotify" : "https://open.spotify.com/track/5fR6J8P3s5YEt0k8Lr9iQW"
      },
      "href" : "https://api.spotify.com/v1/tracks/5fR6J8P3s5YEt0k8Lr9iQW",
      "id" : "5fR6J8P3s5YEt0k8Lr9iQW",
      "is_local" : false,
      "is_playable" : true,
      "name" : "Hark! the Herald Angels Sing",
      "popularity" : 30,
      "preview_url" : "https://p.scdn.co/mp3-preview/8518071583a3549ed03068b4888ecb570c672b76?cid=774b29d4f13844c495f206cafdad9c86",
      "track_number" : 1,
      "type" : "track",
      "uri" : "spotify:track:5fR6J8P3s5YEt0k8Lr9iQW"
    }, {
      "album" : {
        "album_type" : "album",
        "artists" : [ {
          "external_urls" : {
            "spotify" : "https://open.spotify.com/artist/7v4imS0moSyGdXyLgVTIV7"
          },
          "href" : "https://api.spotify.com/v1/artists/7v4imS0moSyGdXyLgVTIV7",
          "id" : "7v4imS0moSyGdXyLgVTIV7",
          "name" : "Nat King Cole",
          "type" : "artist",
          "uri" : "spotify:artist:7v4imS0moSyGdXyLgVTIV7"
        } ],
        "external_urls" : {
          "spotify" : "https://open.spotify.com/album/6vBGI5522jvPi0ZZuGQNp4"
        },
        "href" : "https://api.spotify.com/v1/albums/6vBGI5522jvPi0ZZuGQNp4",
        "id" : "6vBGI5522jvPi0ZZuGQNp4",
        "images" : [ {
          "height" : 640,
          "url" : "https://i.scdn.co/image/ab67616d0000b273cb474d056615c2c9b49bb4e6",
          "width" : 640
        }, {
          "height" : 300,
          "url" : "https://i.scdn.co/image/ab67616d00001e02cb474d056615c2c9b49bb4e6",
          "width" : 300
        }, {
          "height" : 64,
          "url" : "https://i.scdn.co/image/ab67616d00004851cb474d056615c2c9b49bb4e6",
          "width" : 64
        } ],
        "name" : "The Christmas Song (Expanded Edition)",
        "release_date" : "1962",
        "release_date_precision" : "year",
        "total_tracks" : 19,
        "type" : "album",
        "uri" : "spotify:album:6vBGI5522jvPi0ZZuGQNp4"
      },
      "artists" : [ {
        "external_urls" : {
          "spotify" : "https://open.spotify.com/artist/7v4imS0moSyGdXyLgVTIV7"
        },
        "href" : "https://api.spotify.com/v1/artists/7v4imS0moSyGdXyLgVTIV7",
        "id" : "7v4imS0moSyGdXyLgVTIV7",
        "name" : "Nat King Cole",
        "type" : "artist",
        "uri" : "spotify:artist:7v4imS0moSyGdXyLgVTIV7"
      } ],
      "disc_number" : 1,
      "duration_ms" : 109453,
      "explicit" : false,
      "external_ids" : {
        "isrc" : "USCA29900562"
      },
      "external_urls" : {
        "spotify" : "https://open.spotify.com/track/25UQbFhWRAEIoVMioTNizr"
      },
      "href" : "https://api.spotify.com/v1/tracks/25UQbFhWRAEIoVMioTNizr",
      "id" : "25UQbFhWRAEIoVMioTNizr",
      "is_local" : false,
      "is_playable" : true,
      "name" : "Hark! The Herald Angels Sing",
      "popularity" : 25,
      "preview_url" : null,
      "track_number" : 8,
      "type" : "track",
      "uri" : "spotify:track:25UQbFhWRAEIoVMioTNizr"
    }, {
      "album" : {
        "album_type" : "album",
        "artists" : [ {
          "external_urls" : {
            "spotify" : "https://open.spotify.com/artist/3Mqi8GYWkenzbP6702MUwZ"
          },
          "href" : "https://api.spotify.com/v1/artists/3Mqi8GYWkenzbP6702MUwZ",
          "id" : "3Mqi8GYWkenzbP6702MUwZ",
          "name" : "Little Drummer Boy Productions",
          "type" : "artist",
          "uri" : "spotify:artist:3Mqi8GYWkenzbP6702MUwZ"
        } ],
        "external_urls" : {
          "spotify" : "https://open.spotify.com/album/0Eq9BjdK0I8MNjmVuFn2zl"
        },
        "href" : "https://api.spotify.com/v1/albums/0Eq9BjdK0I8MNjmVuFn2zl",
        "id" : "0Eq9BjdK0I8MNjmVuFn2zl",
        "images" : [ {
          "height" : 640,
          "url" : "https://i.scdn.co/image/ab67616d0000b273d84701c3d553e5f5e15b4f93",
          "width" : 640
        }, {
          "height" : 300,
          "url" : "https://i.scdn.co/image/ab67616d00001e02d84701c3d553e5f5e15b4f93",
          "width" : 300
        }, {
          "height" : 64,
          "url" : "https://i.scdn.co/image/ab67616d00004851d84701c3d553e5f5e15b4f93",
          "width" : 64
        } ],
        "name" : "Ripley's Christmas Wish",
        "release_date" : "2019-04-02",
        "release_date_precision" : "day",
        "total_tracks" : 10,
        "type" : "album",
        "uri" : "spotify:album:0Eq9BjdK0I8MNjmVuFn2zl"
      },
      "artists" : [ {
        "external_urls" : {
          "spotify" : "https://open.spotify.com/artist/3Mqi8GYWkenzbP6702MUwZ"
        },
        "href" : "https://api.spotify.com/v1/artists/3Mqi8GYWkenzbP6702MUwZ",
        "id" : "3Mqi8GYWkenzbP6702MUwZ",
        "name" : "Little Drummer Boy Productions",
        "type" : "artist",
        "uri" : "spotify:artist:3Mqi8GYWkenzbP6702MUwZ"
      } ],
      "disc_number" : 1,
      "duration_ms" : 134838,
      "explicit" : false,
      "external_ids" : {
        "isrc" : "QZHNA1998033"
      },
      "external_urls" : {
        "spotify" : "https://open.spotify.com/track/3opKlxtNBnmeItg9pV5QOd"
      },
      "href" : "https://api.spotify.com/v1/tracks/3opKlxtNBnmeItg9pV5QOd",
      "id" : "3opKlxtNBnmeItg9pV5QOd",
      "is_local" : false,
      "is_playable" : true,
      "name" : "Hark the Herald Angels Sing",
      "popularity" : 22,
      "preview_url" : "https://p.scdn.co/mp3-preview/6d7ce212bf137b6953a629756c048849ea8ddd26?cid=774b29d4f13844c495f206cafdad9c86",
      "track_number" : 3,
      "type" : "track",
      "uri" : "spotify:track:3opKlxtNBnmeItg9pV5QOd"
    }, {
      "album" : {
        "album_type" : "album",
        "artists" : [ {
          "external_urls" : {
            "spotify" : "https://open.spotify.com/artist/1Mxqyy3pSjf8kZZL4QVxS0"
          },
          "href" : "https://api.spotify.com/v1/artists/1Mxqyy3pSjf8kZZL4QVxS0",
          "id" : "1Mxqyy3pSjf8kZZL4QVxS0",
          "name" : "Frank Sinatra",
          "type" : "artist",
          "uri" : "spotify:artist:1Mxqyy3pSjf8kZZL4QVxS0"
        } ],
        "external_urls" : {
          "spotify" : "https://open.spotify.com/album/0ny6mZMBrYSO0s8HAKbcVq"
        },
        "href" : "https://api.spotify.com/v1/albums/0ny6mZMBrYSO0s8HAKbcVq",
        "id" : "0ny6mZMBrYSO0s8HAKbcVq",
        "images" : [ {
          "height" : 640,
          "url" : "https://i.scdn.co/image/ab67616d0000b27394fd2e614d0862bdd2592594",
          "width" : 640
        }, {
          "height" : 300,
          "url" : "https://i.scdn.co/image/ab67616d00001e0294fd2e614d0862bdd2592594",
          "width" : 300
        }, {
          "height" : 64,
          "url" : "https://i.scdn.co/image/ab67616d0000485194fd2e614d0862bdd2592594",
          "width" : 64
        } ],
        "name" : "A Jolly Christmas From Frank Sinatra",
        "release_date" : "1957-09",
        "release_date_precision" : "month",
        "total_tracks" : 15,
        "type" : "album",
        "uri" : "spotify:album:0ny6mZMBrYSO0s8HAKbcVq"
      },
      "artists" : [ {
        "external_urls" : {
          "spotify" : "https://open.spotify.com/artist/1Mxqyy3pSjf8kZZL4QVxS0"
        },
        "href" : "https://api.spotify.com/v1/artists/1Mxqyy3pSjf8kZZL4QVxS0",
        "id" : "1Mxqyy3pSjf8kZZL4QVxS0",
        "name" : "Frank Sinatra",
        "type" : "artist",
        "uri" : "spotify:artist:1Mxqyy3pSjf8kZZL4QVxS0"
      } ],
      "disc_number" : 1,
      "duration_ms" : 141040,
      "explicit" : false,
      "external_ids" : {
        "isrc" : "USCA29900556"
      },
      "external_urls" : {
        "spotify" : "https://open.spotify.com/track/2BLwLAc1swTc4TC7K3J506"
      },
      "href" : "https://api.spotify.com/v1/tracks/2BLwLAc1swTc4TC7K3J506",
      "id" : "2BLwLAc1swTc4TC7K3J506",
      "is_local" : false,
      "is_playable" : true,
      "name" : "Hark! The Herald Angels Sing - Remastered",
      "popularity" : 29,
      "preview_url" : null,
      "track_number" : 8,
      "type" : "track",
      "uri" : "spotify:track:2BLwLAc1swTc4TC7K3J506"
    }, {
      "album" : {
        "album_type" : "album",
        "artists" : [ {
          "external_urls" : {
            "spotify" : "https://open.spotify.com/artist/3sDbKMebVH2VYcRSl7u1VC"
          },
          "href" : "https://api.spotify.com/v1/artists/3sDbKMebVH2VYcRSl7u1VC",
          "id" : "3sDbKMebVH2VYcRSl7u1VC",
          "name" : "for KING & COUNTRY",
          "type" : "artist",
          "uri" : "spotify:artist:3sDbKMebVH2VYcRSl7u1VC"
        } ],
        "external_urls" : {
          "spotify" : "https://open.spotify.com/album/2cPPsM97j2cUT3oiGVA2Q4"
        },
        "href" : "https://api.spotify.com/v1/albums/2cPPsM97j2cUT3oiGVA2Q4",
        "id" : "2cPPsM97j2cUT3oiGVA2Q4",
        "images" : [ {
          "height" : 640,
          "url" : "https://i.scdn.co/image/ab67616d0000b27311a53945aa9232352adb4ec0",
          "width" : 640
        }, {
          "height" : 300,
          "url" : "https://i.scdn.co/image/ab67616d00001e0211a53945aa9232352adb4ec0",
          "width" : 300
        }, {
          "height" : 64,
          "url" : "https://i.scdn.co/image/ab67616d0000485111a53945aa9232352adb4ec0",
          "width" : 64
        } ],
        "name" : "Christmas | LIVE from Phoenix",
        "release_date" : "2017-10-27",
        "release_date_precision" : "day",
        "total_tracks" : 10,
        "type" : "album",
        "uri" : "spotify:album:2cPPsM97j2cUT3oiGVA2Q4"
      },
      "artists" : [ {
        "external_urls" : {
          "spotify" : "https://open.spotify.com/artist/3sDbKMebVH2VYcRSl7u1VC"
        },
        "href" : "https://api.spotify.com/v1/artists/3sDbKMebVH2VYcRSl7u1VC",
        "id" : "3sDbKMebVH2VYcRSl7u1VC",
        "name" : "for KING & COUNTRY",
        "type" : "artist",
        "uri" : "spotify:artist:3sDbKMebVH2VYcRSl7u1VC"
      } ],
      "disc_number" : 1,
      "duration_ms" : 214133,
      "explicit" : false,
      "external_ids" : {
        "isrc" : "USM1C1700057"
      },
      "external_urls" : {
        "spotify" : "https://open.spotify.com/track/5YxkTyEvdc0hDp2CxOQ7Nt"
      },
      "href" : "https://api.spotify.com/v1/tracks/5YxkTyEvdc0hDp2CxOQ7Nt",
      "id" : "5YxkTyEvdc0hDp2CxOQ7Nt",
      "is_local" : false,
      "is_playable" : true,
      "name" : "Hark The Herald Angels Sing - Live",
      "popularity" : 27,
      "preview_url" : "https://p.scdn.co/mp3-preview/7f00222f05391142f1a72e13bb48eb80fc105cb8?cid=774b29d4f13844c495f206cafdad9c86",
      "track_number" : 8,
      "type" : "track",
      "uri" : "spotify:track:5YxkTyEvdc0hDp2CxOQ7Nt"
    }, {
      "album" : {
        "album_type" : "album",
        "artists" : [ {
          "external_urls" : {
            "spotify" : "https://open.spotify.com/artist/3V1CgXZe3cFkJ9VDSeFKkl"
          },
          "href" : "https://api.spotify.com/v1/artists/3V1CgXZe3cFkJ9VDSeFKkl",
          "id" : "3V1CgXZe3cFkJ9VDSeFKkl",
          "name" : "Attila Fias",
          "type" : "artist",
          "uri" : "spotify:artist:3V1CgXZe3cFkJ9VDSeFKkl"
        } ],
        "external_urls" : {
          "spotify" : "https://open.spotify.com/album/6i7aQrxUd1jpAR6Ni95uib"
        },
        "href" : "https://api.spotify.com/v1/albums/6i7aQrxUd1jpAR6Ni95uib",
        "id" : "6i7aQrxUd1jpAR6Ni95uib",
        "images" : [ {
          "height" : 640,
          "url" : "https://i.scdn.co/image/ab67616d0000b273040efaf709f19bed62740f61",
          "width" : 640
        }, {
          "height" : 300,
          "url" : "https://i.scdn.co/image/ab67616d00001e02040efaf709f19bed62740f61",
          "width" : 300
        }, {
          "height" : 64,
          "url" : "https://i.scdn.co/image/ab67616d00004851040efaf709f19bed62740f61",
          "width" : 64
        } ],
        "name" : "Christmas Spa",
        "release_date" : "2013-10-22",
        "release_date_precision" : "day",
        "total_tracks" : 14,
        "type" : "album",
        "uri" : "spotify:album:6i7aQrxUd1jpAR6Ni95uib"
      },
      "artists" : [ {
        "external_urls" : {
          "spotify" : "https://open.spotify.com/artist/3V1CgXZe3cFkJ9VDSeFKkl"
        },
        "href" : "https://api.spotify.com/v1/artists/3V1CgXZe3cFkJ9VDSeFKkl",
        "id" : "3V1CgXZe3cFkJ9VDSeFKkl",
        "name" : "Attila Fias",
        "type" : "artist",
        "uri" : "spotify:artist:3V1CgXZe3cFkJ9VDSeFKkl"
      } ],
      "disc_number" : 1,
      "duration_ms" : 295727,
      "explicit" : false,
      "external_ids" : {
        "isrc" : "CASD10600714"
      },
      "external_urls" : {
        "spotify" : "https://open.spotify.com/track/1rRppTsaEXtYqqQ8ZtzgoM"
      },
      "href" : "https://api.spotify.com/v1/tracks/1rRppTsaEXtYqqQ8ZtzgoM",
      "id" : "1rRppTsaEXtYqqQ8ZtzgoM",
      "is_local" : false,
      "is_playable" : true,
      "name" : "Hark! The Herald Angels Sing",
      "popularity" : 26,
      "preview_url" : "https://p.scdn.co/mp3-preview/4597d5f28bcc75f1aeff69218ec0311f283104c4?cid=774b29d4f13844c495f206cafdad9c86",
      "track_number" : 4,
      "type" : "track",
      "uri" : "spotify:track:1rRppTsaEXtYqqQ8ZtzgoM"
    }, {
      "album" : {
        "album_type" : "album",
        "artists" : [ {
          "external_urls" : {
            "spotify" : "https://open.spotify.com/artist/4NliOpNLEQq2p7q5P19hN2"
          },
          "href" : "https://api.spotify.com/v1/artists/4NliOpNLEQq2p7q5P19hN2",
          "id" : "4NliOpNLEQq2p7q5P19hN2",
          "name" : "Candy Cane Trio",
          "type" : "artist",
          "uri" : "spotify:artist:4NliOpNLEQq2p7q5P19hN2"
        } ],
        "external_urls" : {
          "spotify" : "https://open.spotify.com/album/3bGiF08NkrpfTKrKXJPU3n"
        },
        "href" : "https://api.spotify.com/v1/albums/3bGiF08NkrpfTKrKXJPU3n",
        "id" : "3bGiF08NkrpfTKrKXJPU3n",
        "images" : [ {
          "height" : 640,
          "url" : "https://i.scdn.co/image/ab67616d0000b273ccfe97d9f1640dd02b852c8c",
          "width" : 640
        }, {
          "height" : 300,
          "url" : "https://i.scdn.co/image/ab67616d00001e02ccfe97d9f1640dd02b852c8c",
          "width" : 300
        }, {
          "height" : 64,
          "url" : "https://i.scdn.co/image/ab67616d00004851ccfe97d9f1640dd02b852c8c",
          "width" : 64
        } ],
        "name" : "Christmas Cocktails: A Jazz Lounge Holiday Collection",
        "release_date" : "2015-11-24",
        "release_date_precision" : "day",
        "total_tracks" : 30,
        "type" : "album",
        "uri" : "spotify:album:3bGiF08NkrpfTKrKXJPU3n"
      },
      "artists" : [ {
        "external_urls" : {
          "spotify" : "https://open.spotify.com/artist/4NliOpNLEQq2p7q5P19hN2"
        },
        "href" : "https://api.spotify.com/v1/artists/4NliOpNLEQq2p7q5P19hN2",
        "id" : "4NliOpNLEQq2p7q5P19hN2",
        "name" : "Candy Cane Trio",
        "type" : "artist",
        "uri" : "spotify:artist:4NliOpNLEQq2p7q5P19hN2"
      } ],
      "disc_number" : 1,
      "duration_ms" : 122127,
      "explicit" : false,
      "external_ids" : {
        "isrc" : "US3DF1547668"
      },
      "external_urls" : {
        "spotify" : "https://open.spotify.com/track/27oIno72elQiNPLU8ZSLo2"
      },
      "href" : "https://api.spotify.com/v1/tracks/27oIno72elQiNPLU8ZSLo2",
      "id" : "27oIno72elQiNPLU8ZSLo2",
      "is_local" : false,
      "is_playable" : true,
      "name" : "Hark the Herald Angels Sing",
      "popularity" : 25,
      "preview_url" : "https://p.scdn.co/mp3-preview/11068c16b2780103a5acdeb910a86b3d242e74f1?cid=774b29d4f13844c495f206cafdad9c86",
      "track_number" : 4,
      "type" : "track",
      "uri" : "spotify:track:27oIno72elQiNPLU8ZSLo2"
    }, {
      "album" : {
        "album_type" : "album",
        "artists" : [ {
          "external_urls" : {
            "spotify" : "https://open.spotify.com/artist/4iHNK0tOyZPYnBU7nGAgpQ"
          },
          "href" : "https://api.spotify.com/v1/artists/4iHNK0tOyZPYnBU7nGAgpQ",
          "id" : "4iHNK0tOyZPYnBU7nGAgpQ",
          "name" : "Mariah Carey",
          "type" : "artist",
          "uri" : "spotify:artist:4iHNK0tOyZPYnBU7nGAgpQ"
        } ],
        "external_urls" : {
          "spotify" : "https://open.spotify.com/album/61ulfFSmmxMhc2wCdmdMkN"
        },
        "href" : "https://api.spotify.com/v1/albums/61ulfFSmmxMhc2wCdmdMkN",
        "id" : "61ulfFSmmxMhc2wCdmdMkN",
        "images" : [ {
          "height" : 640,
          "url" : "https://i.scdn.co/image/ab67616d0000b2734246e3158421f5abb75abc4f",
          "width" : 640
        }, {
          "height" : 300,
          "url" : "https://i.scdn.co/image/ab67616d00001e024246e3158421f5abb75abc4f",
          "width" : 300
        }, {
          "height" : 64,
          "url" : "https://i.scdn.co/image/ab67616d000048514246e3158421f5abb75abc4f",
          "width" : 64
        } ],
        "name" : "Merry Christmas",
        "release_date" : "1994-11-01",
        "release_date_precision" : "day",
        "total_tracks" : 10,
        "type" : "album",
        "uri" : "spotify:album:61ulfFSmmxMhc2wCdmdMkN"
      },
      "artists" : [ {
        "external_urls" : {
          "spotify" : "https://open.spotify.com/artist/4iHNK0tOyZPYnBU7nGAgpQ"
        },
        "href" : "https://api.spotify.com/v1/artists/4iHNK0tOyZPYnBU7nGAgpQ",
        "id" : "4iHNK0tOyZPYnBU7nGAgpQ",
        "name" : "Mariah Carey",
        "type" : "artist",
        "uri" : "spotify:artist:4iHNK0tOyZPYnBU7nGAgpQ"
      } ],
      "disc_number" : 1,
      "duration_ms" : 179440,
      "explicit" : false,
      "external_ids" : {
        "isrc" : "USSM10109700"
      },
      "external_urls" : {
        "spotify" : "https://open.spotify.com/track/74VQqRHWXDUyErPqwdeG5D"
      },
      "href" : "https://api.spotify.com/v1/tracks/74VQqRHWXDUyErPqwdeG5D",
      "id" : "74VQqRHWXDUyErPqwdeG5D",
      "is_local" : false,
      "is_playable" : true,
      "name" : "Hark! The Herald Angels Sing / Gloria (In Excelsis Deo)",
      "popularity" : 30,
      "preview_url" : "https://p.scdn.co/mp3-preview/302bc8457316904034a6b8d8a869e82f8182869b?cid=774b29d4f13844c495f206cafdad9c86",
      "track_number" : 9,
      "type" : "track",
      "uri" : "spotify:track:74VQqRHWXDUyErPqwdeG5D"
    }, {
      "album" : {
        "album_type" : "album",
        "artists" : [ {
          "external_urls" : {
            "spotify" : "https://open.spotify.com/artist/6wPGJjIqYiCqOhdhShu0nL"
          },
          "href" : "https://api.spotify.com/v1/artists/6wPGJjIqYiCqOhdhShu0nL",
          "id" : "6wPGJjIqYiCqOhdhShu0nL",
          "name" : "KiKstart",
          "type" : "artist",
          "uri" : "spotify:artist:6wPGJjIqYiCqOhdhShu0nL"
        } ],
        "external_urls" : {
          "spotify" : "https://open.spotify.com/album/4tLPCQG0eUwgvfUjPDFVkD"
        },
        "href" : "https://api.spotify.com/v1/albums/4tLPCQG0eUwgvfUjPDFVkD",
        "id" : "4tLPCQG0eUwgvfUjPDFVkD",
        "images" : [ {
          "height" : 640,
          "url" : "https://i.scdn.co/image/ab67616d0000b273ccdd02fc03d5245addb6f439",
          "width" : 640
        }, {
          "height" : 300,
          "url" : "https://i.scdn.co/image/ab67616d00001e02ccdd02fc03d5245addb6f439",
          "width" : 300
        }, {
          "height" : 64,
          "url" : "https://i.scdn.co/image/ab67616d00004851ccdd02fc03d5245addb6f439",
          "width" : 64
        } ],
        "name" : "Our Savior’s Birth",
        "release_date" : "2016-11-29",
        "release_date_precision" : "day",
        "total_tracks" : 7,
        "type" : "album",
        "uri" : "spotify:album:4tLPCQG0eUwgvfUjPDFVkD"
      },
      "artists" : [ {
        "external_urls" : {
          "spotify" : "https://open.spotify.com/artist/6wPGJjIqYiCqOhdhShu0nL"
        },
        "href" : "https://api.spotify.com/v1/artists/6wPGJjIqYiCqOhdhShu0nL",
        "id" : "6wPGJjIqYiCqOhdhShu0nL",
        "name" : "KiKstart",
        "type" : "artist",
        "uri" : "spotify:artist:6wPGJjIqYiCqOhdhShu0nL"
      } ],
      "disc_number" : 1,
      "duration_ms" : 154979,
      "explicit" : false,
      "external_ids" : {
        "isrc" : "ushm91629354"
      },
      "external_urls" : {
        "spotify" : "https://open.spotify.com/track/56zRy24oBOEB0Y2G3ZfgOi"
      },
      "href" : "https://api.spotify.com/v1/tracks/56zRy24oBOEB0Y2G3ZfgOi",
      "id" : "56zRy24oBOEB0Y2G3ZfgOi",
      "is_local" : false,
      "is_playable" : true,
      "name" : "Hark! the Herald Angels Sing",
      "popularity" : 19,
      "preview_url" : "https://p.scdn.co/mp3-preview/1f17e3caf466f06d22b85ac535a4cad1bbf8d923?cid=774b29d4f13844c495f206cafdad9c86",
      "track_number" : 4,
      "type" : "track",
      "uri" : "spotify:track:56zRy24oBOEB0Y2G3ZfgOi"
    }, {
      "album" : {
        "album_type" : "single",
        "artists" : [ {
          "external_urls" : {
            "spotify" : "https://open.spotify.com/artist/4RBmZ28Bh3le2Js7NlHHHF"
          },
          "href" : "https://api.spotify.com/v1/artists/4RBmZ28Bh3le2Js7NlHHHF",
          "id" : "4RBmZ28Bh3le2Js7NlHHHF",
          "name" : "Dick Tater and the Tots",
          "type" : "artist",
          "uri" : "spotify:artist:4RBmZ28Bh3le2Js7NlHHHF"
        } ],
        "external_urls" : {
          "spotify" : "https://open.spotify.com/album/46mHgpYCts9csg3WZXNwFn"
        },
        "href" : "https://api.spotify.com/v1/albums/46mHgpYCts9csg3WZXNwFn",
        "id" : "46mHgpYCts9csg3WZXNwFn",
        "images" : [ {
          "height" : 640,
          "url" : "https://i.scdn.co/image/ab67616d0000b273b0f9c71939c2d3551a9cc055",
          "width" : 640
        }, {
          "height" : 300,
          "url" : "https://i.scdn.co/image/ab67616d00001e02b0f9c71939c2d3551a9cc055",
          "width" : 300
        }, {
          "height" : 64,
          "url" : "https://i.scdn.co/image/ab67616d00004851b0f9c71939c2d3551a9cc055",
          "width" : 64
        } ],
        "name" : "Happy Christmas",
        "release_date" : "2019-11-20",
        "release_date_precision" : "day",
        "total_tracks" : 3,
        "type" : "album",
        "uri" : "spotify:album:46mHgpYCts9csg3WZXNwFn"
      },
      "artists" : [ {
        "external_urls" : {
          "spotify" : "https://open.spotify.com/artist/4RBmZ28Bh3le2Js7NlHHHF"
        },
        "href" : "https://api.spotify.com/v1/artists/4RBmZ28Bh3le2Js7NlHHHF",
        "id" : "4RBmZ28Bh3le2Js7NlHHHF",
        "name" : "Dick Tater and the Tots",
        "type" : "artist",
        "uri" : "spotify:artist:4RBmZ28Bh3le2Js7NlHHHF"
      } ],
      "disc_number" : 1,
      "duration_ms" : 138344,
      "explicit" : false,
      "external_ids" : {
        "isrc" : "usl4q1971155"
      },
      "external_urls" : {
        "spotify" : "https://open.spotify.com/track/74MFLG9ugcBFycDANakIwX"
      },
      "href" : "https://api.spotify.com/v1/tracks/74MFLG9ugcBFycDANakIwX",
      "id" : "74MFLG9ugcBFycDANakIwX",
      "is_local" : false,
      "is_playable" : true,
      "name" : "Hark! The Herald Angels Sing",
      "popularity" : 18,
      "preview_url" : "https://p.scdn.co/mp3-preview/7237a273a0a07683da066499b8f5243d26f439d4?cid=774b29d4f13844c495f206cafdad9c86",
      "track_number" : 1,
      "type" : "track",
      "uri" : "spotify:track:74MFLG9ugcBFycDANakIwX"
    } ],
    "limit" : 10,
    "next" : "https://api.spotify.com/v1/search?query=Hark%21+the+Herald+Angels+Sing&type=track&market=US&offset=15&limit=10",
    "offset" : 5,
    "previous" : "https://api.spotify.com/v1/search?query=Hark%21+the+Herald+Angels+Sing&type=track&market=US&offset=0&limit=10",
    "total" : 8511
  }
}