{
  "tracks" : {
    "href" : "https://api.spotify.com/v1/search?query=O+Love+That+Wilt+Not+Let+Me+Go&type=track&market=US&offset=5&limit=10",
    "items" : [ {
      "album" : {
        "album_type" : "album",
        "artists" : [ {
          "external_urls" : {
            "spotify" : "https://open.spotify.com/artist/0pjLiK5qb4Zr0PWRNkdd2o"
          },
          "href" : "https://api.spotify.com/v1/artists/0pjLiK5qb4Zr0PWRNkdd2o",
          "id" : "0pjLiK5qb4Zr0PWRNkdd2o",
          "name" : "Gaither Vocal Band",
          "type" : "artist",
          "uri" : "spotify:artist:0pjLiK5qb4Zr0PWRNkdd2o"
        } ],
        "external_urls" : {
          "spotify" : "https://open.spotify.com/album/3Chme4QW1ZHggDrzgSuHzA"
        },
        "href" : "https://api.spotify.com/v1/albums/3Chme4QW1ZHggDrzgSuHzA",
        "id" : "3Chme4QW1ZHggDrzgSuHzA",
        "images" : [ {
          "height" : 640,
          "url" : "https://i.scdn.co/image/ab67616d0000b273f82bf4a868c3fa40a722c8ed",
          "width" : 640
        }, {
          "height" : 300,
          "url" : "https://i.scdn.co/image/ab67616d00001e02f82bf4a868c3fa40a722c8ed",
          "width" : 300
        }, {
          "height" : 64,
          "url" : "https://i.scdn.co/image/ab67616d00004851f82bf4a868c3fa40a722c8ed",
          "width" : 64
        } ],
        "name" : "Gaither Vocal Band - Reunion Volume Two",
        "release_date" : "2009-01-01",
        "release_date_precision" : "day",
        "total_tracks" : 19,
        "type" : "album",
        "uri" : "spotify:album:3Chme4QW1ZHggDrzgSuHzA"
      },
      "artists" : [ {
        "external_urls" : {
          "spotify" : "https://open.spotify.com/artist/1R486Y8DuEKEH01hypvW1B"
        },
        "href" : "https://api.spotify.com/v1/artists/1R486Y8DuEKEH01hypvW1B",
        "id" : "1R486Y8DuEKEH01hypvW1B",
        "name" : "David Phelps",
        "type" : "artist",
        "uri" : "spotify:artist:1R486Y8DuEKEH01hypvW1B"
      }, {
        "external_urls" : {
          "spotify" : "https://open.spotify.com/artist/4vZfjIUpvHeHpq47Y5NobO"
        },
        "href" : "https://api.spotify.com/v1/artists/4vZfjIUpvHeHpq47Y5NobO",
        "id" : "4vZfjIUpvHeHpq47Y5NobO",
        "name" : "Bill Gaither",
        "type" : "artist",
        "uri" : "spotify:artist:4vZfjIUpvHeHpq47Y5NobO"
      }, {
        "external_urls" : {
          "spotify" : "https://open.spotify.com/artist/29PfPMTOAqc611mj1siNoH"
        },
        "href" : "https://api.spotify.com/v1/artists/29PfPMTOAqc611mj1siNoH",
        "id" : "29PfPMTOAqc611mj1siNoH",
        "name" : "Guy Penrod",
        "type" : "artist",
        "uri" : "spotify:artist:29PfPMTOAqc611mj1siNoH"
      }, {
        "external_urls" : {
          "spotify" : "https://open.spotify.com/artist/5bDr3xXsg5ud4XPxc9CR7p"
        },
        "href" : "https://api.spotify.com/v1/artists/5bDr3xXsg5ud4XPxc9CR7p",
        "id" : "5bDr3xXsg5ud4XPxc9CR7p",
        "name" : "Marsh Hall",
        "type" : "artist",
        "uri" : "spotify:artist:5bDr3xXsg5ud4XPxc9CR7p"
      } ],
      "disc_number" : 1,
      "duration_ms" : 224560,
      "explicit" : false,
      "external_ids" : {
        "isrc" : "US3270404962"
      },
      "external_urls" : {
        "spotify" : "https://open.spotify.com/track/0QrPTVsDnpBWibNeWrhHcN"
      },
      "href" : "https://api.spotify.com/v1/tracks/0QrPTVsDnpBWibNeWrhHcN",
      "id" : "0QrPTVsDnpBWibNeWrhHcN",
      "is_local" : false,
      "is_playable" : true,
      "name" : "O Love That Will Not Let Me Go",
      "popularity" : 22,
      "preview_url" : null,
      "track_number" : 8,
      "type" : "track",
      "uri" : "spotify:track:0QrPTVsDnpBWibNeWrhHcN"
    }, {
      "album" : {
        "album_type" : "single",
        "artists" : [ {
          "external_urls" : {
            "spotify" : "https://open.spotify.com/artist/026tiCqfltpjTf3tIIabR1"
          },
          "href" : "https://api.spotify.com/v1/artists/026tiCqfltpjTf3tIIabR1",
          "id" : "026tiCqfltpjTf3tIIabR1",
          "name" : "As Isaac",
          "type" : "artist",
          "uri" : "spotify:artist:026tiCqfltpjTf3tIIabR1"
        } ],
        "external_urls" : {
          "spotify" : "https://open.spotify.com/album/6rVxVXbenXEQfClre0clZk"
        },
        "href" : "https://api.spotify.com/v1/albums/6rVxVXbenXEQfClre0clZk",
        "id" : "6rVxVXbenXEQfClre0clZk",
        "images" : [ {
          "height" : 640,
          "url" : "https://i.scdn.co/image/ab67616d0000b273d7180c8983a84db1c0fb3121",
          "width" : 640
        }, {
          "height" : 300,
          "url" : "https://i.scdn.co/image/ab67616d00001e02d7180c8983a84db1c0fb3121",
          "width" : 300
        }, {
          "height" : 64,
          "url" : "https://i.scdn.co/image/ab67616d00004851d7180c8983a84db1c0fb3121",
          "width" : 64
        } ],
        "name" : "O Love That Will Not Let Me Go (Heritage)",
        "release_date" : "2017-12-05",
        "release_date_precision" : "day",
        "total_tracks" : 1,
        "type" : "album",
        "uri" : "spotify:album:6rVxVXbenXEQfClre0clZk"
      },
      "artists" : [ {
        "external_urls" : {
          "spotify" : "https://open.spotify.com/artist/026tiCqfltpjTf3tIIabR1"
        },
        "href" : "https://api.spotify.com/v1/artists/026tiCqfltpjTf3tIIabR1",
        "id" : "026tiCqfltpjTf3tIIabR1",
        "name" : "As Isaac",
        "type" : "artist",
        "uri" : "spotify:artist:026tiCqfltpjTf3tIIabR1"
      } ],
      "disc_number" : 1,
      "duration_ms" : 321555,
      "explicit" : false,
      "external_ids" : {
        "isrc" : "TCADJ1797412"
      },
      "external_urls" : {
        "spotify" : "https://open.spotify.com/track/3hyrRT7vHmzWMYmkX2W7Fb"
      },
      "href" : "https://api.spotify.com/v1/tracks/3hyrRT7vHmzWMYmkX2W7Fb",
      "id" : "3hyrRT7vHmzWMYmkX2W7Fb",
      "is_local" : false,
      "is_playable" : true,
      "name" : "O Love That Will Not Let Me Go (Heritage)",
      "popularity" : 22,
      "preview_url" : "https://p.scdn.co/mp3-preview/002bf86148e399d87efbf8334aa54302d8a5ea77?cid=774b29d4f13844c495f206cafdad9c86",
      "track_number" : 1,
      "type" : "track",
      "uri" : "spotify:track:3hyrRT7vHmzWMYmkX2W7Fb"
    }, {
      "album" : {
        "album_type" : "album",
        "artists" : [ {
          "external_urls" : {
            "spotify" : "https://open.spotify.com/artist/19C9rvMoyjXc4B9id3am3q"
          },
          "href" : "https://api.spotify.com/v1/artists/19C9rvMoyjXc4B9id3am3q",
          "id" : "19C9rvMoyjXc4B9id3am3q",
          "name" : "Pearl Church",
          "type" : "artist",
          "uri" : "spotify:artist:19C9rvMoyjXc4B9id3am3q"
        } ],
        "external_urls" : {
          "spotify" : "https://open.spotify.com/album/2HgkTpm0x5ZON2zKW25Q6t"
        },
        "href" : "https://api.spotify.com/v1/albums/2HgkTpm0x5ZON2zKW25Q6t",
        "id" : "2HgkTpm0x5ZON2zKW25Q6t",
        "images" : [ {
          "height" : 640,
          "url" : "https://i.scdn.co/image/ab67616d0000b273071e0abec1fa53d3706eae2c",
          "width" : 640
        }, {
          "height" : 300,
          "url" : "https://i.scdn.co/image/ab67616d00001e02071e0abec1fa53d3706eae2c",
          "width" : 300
        }, {
          "height" : 64,
          "url" : "https://i.scdn.co/image/ab67616d00004851071e0abec1fa53d3706eae2c",
          "width" : 64
        } ],
        "name" : "Space for Worship",
        "release_date" : "2009-10-24",
        "release_date_precision" : "day",
        "total_tracks" : 10,
        "type" : "album",
        "uri" : "spotify:album:2HgkTpm0x5ZON2zKW25Q6t"
      },
      "artists" : [ {
        "external_urls" : {
          "spotify" : "https://open.spotify.com/artist/19C9rvMoyjXc4B9id3am3q"
        },
        "href" : "https://api.spotify.com/v1/artists/19C9rvMoyjXc4B9id3am3q",
        "id" : "19C9rvMoyjXc4B9id3am3q",
        "name" : "Pearl Church",
        "type" : "artist",
        "uri" : "spotify:artist:19C9rvMoyjXc4B9id3am3q"
      } ],
      "disc_number" : 1,
      "duration_ms" : 262546,
      "explicit" : false,
      "external_ids" : {
        "isrc" : "ushm90921913"
      },
      "external_urls" : {
        "spotify" : "https://open.spotify.com/track/68ryzEY3nycxglEMuZ5mX8"
      },
      "href" : "https://api.spotify.com/v1/tracks/68ryzEY3nycxglEMuZ5mX8",
      "id" : "68ryzEY3nycxglEMuZ5mX8",
      "is_local" : false,
      "is_playable" : true,
      "name" : "O Love That Will Not Let Me Go",
      "popularity" : 18,
      "preview_url" : "https://p.scdn.co/mp3-preview/44708e903edcd5bcca9ea388e44e9e3e625a3dfe?cid=774b29d4f13844c495f206cafdad9c86",
      "track_number" : 5,
      "type" : "track",
      "uri" : "spotify:track:68ryzEY3nycxglEMuZ5mX8"
    }, {
      "album" : {
        "album_type" : "album",
        "artists" : [ {
          "external_urls" : {
            "spotify" : "https://open.spotify.com/artist/72Nhcx7prNk2ZCxhx0Y5es"
          },
          "href" : "https://api.spotify.com/v1/artists/72Nhcx7prNk2ZCxhx0Y5es",
          "id" : "72Nhcx7prNk2ZCxhx0Y5es",
          "name" : "Amy Grant",
          "type" : "artist",
          "uri" : "spotify:artist:72Nhcx7prNk2ZCxhx0Y5es"
        } ],
        "external_urls" : {
          "spotify" : "https://open.spotify.com/album/4kw9LCGUCFSBHiKXk8gTwi"
        },
        "href" : "https://api.spotify.com/v1/albums/4kw9LCGUCFSBHiKXk8gTwi",
        "id" : "4kw9LCGUCFSBHiKXk8gTwi",
        "images" : [ {
          "height" : 640,
          "url" : "https://i.scdn.co/image/ab67616d0000b27320d10f7b953aafba5328008f",
          "width" : 640
        }, {
          "height" : 300,
          "url" : "https://i.scdn.co/image/ab67616d00001e0220d10f7b953aafba5328008f",
          "width" : 300
        }, {
          "height" : 64,
          "url" : "https://i.scdn.co/image/ab67616d0000485120d10f7b953aafba5328008f",
          "width" : 64
        } ],
        "name" : "Rock Of Ages...Hymns & Faith",
        "release_date" : "2005",
        "release_date_precision" : "year",
        "total_tracks" : 13,
        "type" : "album",
        "uri" : "spotify:album:4kw9LCGUCFSBHiKXk8gTwi"
      },
      "artists" : [ {
        "external_urls" : {
          "spotify" : "https://open.spotify.com/artist/72Nhcx7prNk2ZCxhx0Y5es"
        },
        "href" : "https://api.spotify.com/v1/artists/72Nhcx7prNk2ZCxhx0Y5es",
        "id" : "72Nhcx7prNk2ZCxhx0Y5es",
        "name" : "Amy Grant",
        "type" : "artist",
        "uri" : "spotify:artist:72Nhcx7prNk2ZCxhx0Y5es"
      } ],
      "disc_number" : 1,
      "duration_ms" : 258920,
      "explicit" : false,
      "external_ids" : {
        "isrc" : "USSP31200360"
      },
      "external_urls" : {
        "spotify" : "https://open.spotify.com/track/1wydusVofXAWatA9dKa5yN"
      },
      "href" : "https://api.spotify.com/v1/tracks/1wydusVofXAWatA9dKa5yN",
      "id" : "1wydusVofXAWatA9dKa5yN",
      "is_local" : false,
      "is_playable" : true,
      "name" : "O Love That Will Not Let Me Go",
      "popularity" : 18,
      "preview_url" : null,
      "track_number" : 13,
      "type" : "track",
      "uri" : "spotify:track:1wydusVofXAWatA9dKa5yN"
    }, {
      "album" : {
        "album_type" : "album",
        "artists" : [ {
          "external_urls" : {
            "spotify" : "https://open.spotify.com/artist/53fm6G7JCkA8f8y3eLq6O6"
          },
          "href" : "https://api.spotify.com/v1/artists/53fm6G7JCkA8f8y3eLq6O6",
          "id" : "53fm6G7JCkA8f8y3eLq6O6",
          "name" : "Calvary Creative",
          "type" : "artist",
          "uri" : "spotify:artist:53fm6G7JCkA8f8y3eLq6O6"
        } ],
        "external_urls" : {
          "spotify" : "https://open.spotify.com/album/56OEI3nfO3bdrLZlbPf7K1"
        },
        "href" : "https://api.spotify.com/v1/albums/56OEI3nfO3bdrLZlbPf7K1",
        "id" : "56OEI3nfO3bdrLZlbPf7K1",
        "images" : [ {
          "height" : 640,
          "url" : "https://i.scdn.co/image/ab67616d0000b2736a597f99a5a70cb83297b4df",
          "width" : 640
        }, {
          "height" : 300,
          "url" : "https://i.scdn.co/image/ab67616d00001e026a597f99a5a70cb83297b4df",
          "width" : 300
        }, {
          "height" : 64,
          "url" : "https://i.scdn.co/image/ab67616d000048516a597f99a5a70cb83297b4df",
          "width" : 64
        } ],
        "name" : "Monuments",
        "release_date" : "2015-10-16",
        "release_date_precision" : "day",
        "total_tracks" : 12,
        "type" : "album",
        "uri" : "spotify:album:56OEI3nfO3bdrLZlbPf7K1"
      },
      "artists" : [ {
        "external_urls" : {
          "spotify" : "https://open.spotify.com/artist/53fm6G7JCkA8f8y3eLq6O6"
        },
        "href" : "https://api.spotify.com/v1/artists/53fm6G7JCkA8f8y3eLq6O6",
        "id" : "53fm6G7JCkA8f8y3eLq6O6",
        "name" : "Calvary Creative",
        "type" : "artist",
        "uri" : "spotify:artist:53fm6G7JCkA8f8y3eLq6O6"
      }, {
        "external_urls" : {
          "spotify" : "https://open.spotify.com/artist/3h9TfIgwhovQELlP2jj4xL"
        },
        "href" : "https://api.spotify.com/v1/artists/3h9TfIgwhovQELlP2jj4xL",
        "id" : "3h9TfIgwhovQELlP2jj4xL",
        "name" : "Madison Cunningham",
        "type" : "artist",
        "uri" : "spotify:artist:3h9TfIgwhovQELlP2jj4xL"
      } ],
      "disc_number" : 1,
      "duration_ms" : 235160,
      "explicit" : false,
      "external_ids" : {
        "isrc" : "ushm21570806"
      },
      "external_urls" : {
        "spotify" : "https://open.spotify.com/track/3S2tWjmReRt1VwwzmtNqQi"
      },
      "href" : "https://api.spotify.com/v1/tracks/3S2tWjmReRt1VwwzmtNqQi",
      "id" : "3S2tWjmReRt1VwwzmtNqQi",
      "is_local" : false,
      "is_playable" : true,
      "name" : "O Love (That Will Not Let Me Go) [feat. Madison Cunningham]",
      "popularity" : 18,
      "preview_url" : "https://p.scdn.co/mp3-preview/e8b28fbb59e5c0c3d71ba305c749e54cb7bc6a71?cid=774b29d4f13844c495f206cafdad9c86",
      "track_number" : 12,
      "type" : "track",
      "uri" : "spotify:track:3S2tWjmReRt1VwwzmtNqQi"
    }, {
      "album" : {
        "album_type" : "album",
        "artists" : [ {
          "external_urls" : {
            "spotify" : "https://open.spotify.com/artist/0pjLiK5qb4Zr0PWRNkdd2o"
          },
          "href" : "https://api.spotify.com/v1/artists/0pjLiK5qb4Zr0PWRNkdd2o",
          "id" : "0pjLiK5qb4Zr0PWRNkdd2o",
          "name" : "Gaither Vocal Band",
          "type" : "artist",
          "uri" : "spotify:artist:0pjLiK5qb4Zr0PWRNkdd2o"
        } ],
        "external_urls" : {
          "spotify" : "https://open.spotify.com/album/0JE77DtvIDbMj2yvJORWXR"
        },
        "href" : "https://api.spotify.com/v1/albums/0JE77DtvIDbMj2yvJORWXR",
        "id" : "0JE77DtvIDbMj2yvJORWXR",
        "images" : [ {
          "height" : 640,
          "url" : "https://i.scdn.co/image/ab67616d0000b2736d56e70790e06786c95f86df",
          "width" : 640
        }, {
          "height" : 300,
          "url" : "https://i.scdn.co/image/ab67616d00001e026d56e70790e06786c95f86df",
          "width" : 300
        }, {
          "height" : 64,
          "url" : "https://i.scdn.co/image/ab67616d000048516d56e70790e06786c95f86df",
          "width" : 64
        } ],
        "name" : "Reunion Live",
        "release_date" : "2019-10-25",
        "release_date_precision" : "day",
        "total_tracks" : 18,
        "type" : "album",
        "uri" : "spotify:album:0JE77DtvIDbMj2yvJORWXR"
      },
      "artists" : [ {
        "external_urls" : {
          "spotify" : "https://open.spotify.com/artist/0pjLiK5qb4Zr0PWRNkdd2o"
        },
        "href" : "https://api.spotify.com/v1/artists/0pjLiK5qb4Zr0PWRNkdd2o",
        "id" : "0pjLiK5qb4Zr0PWRNkdd2o",
        "name" : "Gaither Vocal Band",
        "type" : "artist",
        "uri" : "spotify:artist:0pjLiK5qb4Zr0PWRNkdd2o"
      } ],
      "disc_number" : 1,
      "duration_ms" : 202626,
      "explicit" : false,
      "external_ids" : {
        "isrc" : "US3271900169"
      },
      "external_urls" : {
        "spotify" : "https://open.spotify.com/track/5896kd5hY6SqBEZLdo118V"
      },
      "href" : "https://api.spotify.com/v1/tracks/5896kd5hY6SqBEZLdo118V",
      "id" : "5896kd5hY6SqBEZLdo118V",
      "is_local" : false,
      "is_playable" : true,
      "name" : "O Love That Will Not Let Me Go - Live",
      "popularity" : 18,
      "preview_url" : null,
      "track_number" : 9,
      "type" : "track",
      "uri" : "spotify:track:5896kd5hY6SqBEZLdo118V"
    }, {
      "album" : {
        "album_type" : "album",
        "artists" : [ {
          "external_urls" : {
            "spotify" : "https://open.spotify.com/artist/7G9KhHDBJe4ao16r9w1JE0"
          },
          "href" : "https://api.spotify.com/v1/artists/7G9KhHDBJe4ao16r9w1JE0",
          "id" : "7G9KhHDBJe4ao16r9w1JE0",
          "name" : "Chelsea Moon & The Franz Brothers",
          "type" : "artist",
          "uri" : "spotify:artist:7G9KhHDBJe4ao16r9w1JE0"
        } ],
        "external_urls" : {
          "spotify" : "https://open.spotify.com/album/63ZWgSSsHBUmcf3VGibggJ"
        },
        "href" : "https://api.spotify.com/v1/albums/63ZWgSSsHBUmcf3VGibggJ",
        "id" : "63ZWgSSsHBUmcf3VGibggJ",
        "images" : [ {
          "height" : 640,
          "url" : "https://i.scdn.co/image/ab67616d0000b2739b6fbe2e6c097c46b81dc5f0",
          "width" : 640
        }, {
          "height" : 300,
          "url" : "https://i.scdn.co/image/ab67616d00001e029b6fbe2e6c097c46b81dc5f0",
          "width" : 300
        }, {
          "height" : 64,
          "url" : "https://i.scdn.co/image/ab67616d000048519b6fbe2e6c097c46b81dc5f0",
          "width" : 64
        } ],
        "name" : "Hymn Project, Vol. 2",
        "release_date" : "2012-03-30",
        "release_date_precision" : "day",
        "total_tracks" : 15,
        "type" : "album",
        "uri" : "spotify:album:63ZWgSSsHBUmcf3VGibggJ"
      },
      "artists" : [ {
        "external_urls" : {
          "spotify" : "https://open.spotify.com/artist/7G9KhHDBJe4ao16r9w1JE0"
        },
        "href" : "https://api.spotify.com/v1/artists/7G9KhHDBJe4ao16r9w1JE0",
        "id" : "7G9KhHDBJe4ao16r9w1JE0",
        "name" : "Chelsea Moon & The Franz Brothers",
        "type" : "artist",
        "uri" : "spotify:artist:7G9KhHDBJe4ao16r9w1JE0"
      } ],
      "disc_number" : 1,
      "duration_ms" : 247125,
      "explicit" : false,
      "external_ids" : {
        "isrc" : "USWAJ1200011"
      },
      "external_urls" : {
        "spotify" : "https://open.spotify.com/track/4T5cwYmwqGIttyyOD3UOxr"
      },
      "href" : "https://api.spotify.com/v1/tracks/4T5cwYmwqGIttyyOD3UOxr",
      "id" : "4T5cwYmwqGIttyyOD3UOxr",
      "is_local" : false,
      "is_playable" : true,
      "name" : "O Love That Wilt Not Let Me Go",
      "popularity" : 14,
      "preview_url" : "https://p.scdn.co/mp3-preview/b26a44a93e5ecc67b7d2dfe96b906433bfb0a531?cid=774b29d4f13844c495f206cafdad9c86",
      "track_number" : 11,
      "type" : "track",
      "uri" : "spotify:track:4T5cwYmwqGIttyyOD3UOxr"
    }, {
      "album" : {
        "album_type" : "album",
        "artists" : [ {
          "external_urls" : {
            "spotify" : "https://open.spotify.com/artist/5ZKBQyNLXQd1VfNf2oH5yF"
          },
          "href" : "https://api.spotify.com/v1/artists/5ZKBQyNLXQd1VfNf2oH5yF",
          "id" : "5ZKBQyNLXQd1VfNf2oH5yF",
          "name" : "Phillip Keveren",
          "type" : "artist",
          "uri" : "spotify:artist:5ZKBQyNLXQd1VfNf2oH5yF"
        } ],
        "external_urls" : {
          "spotify" : "https://open.spotify.com/album/6u32WoPSkxl5LxoGEHxXKI"
        },
        "href" : "https://api.spotify.com/v1/albums/6u32WoPSkxl5LxoGEHxXKI",
        "id" : "6u32WoPSkxl5LxoGEHxXKI",
        "images" : [ {
          "height" : 640,
          "url" : "https://i.scdn.co/image/ab67616d0000b2737cdfcc02e91140d9835bcd48",
          "width" : 640
        }, {
          "height" : 300,
          "url" : "https://i.scdn.co/image/ab67616d00001e027cdfcc02e91140d9835bcd48",
          "width" : 300
        }, {
          "height" : 64,
          "url" : "https://i.scdn.co/image/ab67616d000048517cdfcc02e91140d9835bcd48",
          "width" : 64
        } ],
        "name" : "Abide with Me",
        "release_date" : "2011-04-20",
        "release_date_precision" : "day",
        "total_tracks" : 15,
        "type" : "album",
        "uri" : "spotify:album:6u32WoPSkxl5LxoGEHxXKI"
      },
      "artists" : [ {
        "external_urls" : {
          "spotify" : "https://open.spotify.com/artist/5ZKBQyNLXQd1VfNf2oH5yF"
        },
        "href" : "https://api.spotify.com/v1/artists/5ZKBQyNLXQd1VfNf2oH5yF",
        "id" : "5ZKBQyNLXQd1VfNf2oH5yF",
        "name" : "Phillip Keveren",
        "type" : "artist",
        "uri" : "spotify:artist:5ZKBQyNLXQd1VfNf2oH5yF"
      } ],
      "disc_number" : 1,
      "duration_ms" : 169960,
      "explicit" : false,
      "external_ids" : {
        "isrc" : "USLF50801418"
      },
      "external_urls" : {
        "spotify" : "https://open.spotify.com/track/2EksDdzqoCZ0JOJXtVN1q6"
      },
      "href" : "https://api.spotify.com/v1/tracks/2EksDdzqoCZ0JOJXtVN1q6",
      "id" : "2EksDdzqoCZ0JOJXtVN1q6",
      "is_local" : false,
      "is_playable" : true,
      "name" : "O Love That Wilt Not Let Me Go",
      "popularity" : 11,
      "preview_url" : "https://p.scdn.co/mp3-preview/5be6b759dfc001442c727928bbced01004100217?cid=774b29d4f13844c495f206cafdad9c86",
      "track_number" : 13,
      "type" : "track",
      "uri" : "spotify:track:2EksDdzqoCZ0JOJXtVN1q6"
    }, {
      "album" : {
        "album_type" : "album",
        "artists" : [ {
          "external_urls" : {
            "spotify" : "https://open.spotify.com/artist/5F211gZjfoqvH8v7erGdsy"
          },
          "href" : "https://api.spotify.com/v1/artists/5F211gZjfoqvH8v7erGdsy",
          "id" : "5F211gZjfoqvH8v7erGdsy",
          "name" : "4Him",
          "type" : "artist",
          "uri" : "spotify:artist:5F211gZjfoqvH8v7erGdsy"
        } ],
        "external_urls" : {
          "spotify" : "https://open.spotify.com/album/0ucd9V91sbhnKPE3ycOoqL"
        },
        "href" : "https://api.spotify.com/v1/albums/0ucd9V91sbhnKPE3ycOoqL",
        "id" : "0ucd9V91sbhnKPE3ycOoqL",
        "images" : [ {
          "height" : 640,
          "url" : "https://i.scdn.co/image/ab67616d0000b2731a72f5e934003f1c88eaf728",
          "width" : 640
        }, {
          "height" : 300,
          "url" : "https://i.scdn.co/image/ab67616d00001e021a72f5e934003f1c88eaf728",
          "width" : 300
        }, {
          "height" : 64,
          "url" : "https://i.scdn.co/image/ab67616d000048511a72f5e934003f1c88eaf728",
          "width" : 64
        } ],
        "name" : "Hymns: A Place Of Worship",
        "release_date" : "2000",
        "release_date_precision" : "year",
        "total_tracks" : 14,
        "type" : "album",
        "uri" : "spotify:album:0ucd9V91sbhnKPE3ycOoqL"
      },
      "artists" : [ {
        "external_urls" : {
          "spotify" : "https://open.spotify.com/artist/5F211gZjfoqvH8v7erGdsy"
        },
        "href" : "https://api.spotify.com/v1/artists/5F211gZjfoqvH8v7erGdsy",
        "id" : "5F211gZjfoqvH8v7erGdsy",
        "name" : "4Him",
        "type" : "artist",
        "uri" : "spotify:artist:5F211gZjfoqvH8v7erGdsy"
      } ],
      "disc_number" : 1,
      "duration_ms" : 36176,
      "explicit" : false,
      "external_ids" : {
        "isrc" : "USBE10000012"
      },
      "external_urls" : {
        "spotify" : "https://open.spotify.com/track/2pY1Gq9BWHeE77sskHQQUI"
      },
      "href" : "https://api.spotify.com/v1/tracks/2pY1Gq9BWHeE77sskHQQUI",
      "id" : "2pY1Gq9BWHeE77sskHQQUI",
      "is_local" : false,
      "is_playable" : true,
      "name" : "O Love, That Wilt Not Let Me Go (interlude)",
      "popularity" : 9,
      "preview_url" : "https://p.scdn.co/mp3-preview/ab75653911c7b25af2e52fbe37856b7c6ab6a7bb?cid=774b29d4f13844c495f206cafdad9c86",
      "track_number" : 12,
      "type" : "track",
      "uri" : "spotify:track:2pY1Gq9BWHeE77sskHQQUI"
    }, {
      "album" : {
        "album_type" : "album",
        "artists" : [ {
          "external_urls" : {
            "spotify" : "https://open.spotify.com/artist/1iEr9JmktmIMlaDLcSZFAL"
          },
          "href" : "https://api.spotify.com/v1/artists/1iEr9JmktmIMlaDLcSZFAL",
          "id" : "1iEr9JmktmIMlaDLcSZFAL",
          "name" : "The London Fox Players",
          "type" : "artist",
          "uri" : "spotify:artist:1iEr9JmktmIMlaDLcSZFAL"
        } ],
        "external_urls" : {
          "spotify" : "https://open.spotify.com/album/07RPwNX8U9hGhrIE95VCnK"
        },
        "href" : "https://api.spotify.com/v1/albums/07RPwNX8U9hGhrIE95VCnK",
        "id" : "07RPwNX8U9hGhrIE95VCnK",
        "images" : [ {
          "height" : 640,
          "url" : "https://i.scdn.co/image/ab67616d0000b2737b3fb017becda1975ea3abda",
          "width" : 640
        }, {
          "height" : 300,
          "url" : "https://i.scdn.co/image/ab67616d00001e027b3fb017becda1975ea3abda",
          "width" : 300
        }, {
          "height" : 64,
          "url" : "https://i.scdn.co/image/ab67616d000048517b3fb017becda1975ea3abda",
          "width" : 64
        } ],
        "name" : "Hymn styles - Cello Hymns",
        "release_date" : "2000",
        "release_date_precision" : "year",
        "total_tracks" : 12,
        "type" : "album",
        "uri" : "spotify:album:07RPwNX8U9hGhrIE95VCnK"
      },
      "artists" : [ {
        "external_urls" : {
          "spotify" : "https://open.spotify.com/artist/1iEr9JmktmIMlaDLcSZFAL"
        },
        "href" : "https://api.spotify.com/v1/artists/1iEr9JmktmIMlaDLcSZFAL",
        "id" : "1iEr9JmktmIMlaDLcSZFAL",
        "name" : "The London Fox Players",
        "type" : "artist",
        "uri" : "spotify:artist:1iEr9JmktmIMlaDLcSZFAL"
      } ],
      "disc_number" : 1,
      "duration_ms" : 165840,
      "explicit" : false,
      "external_ids" : {
        "isrc" : "GBCEU0017810"
      },
      "external_urls" : {
        "spotify" : "https://open.spotify.com/track/4bOa2SCtL57ouQ00pXTgKZ"
      },
      "href" : "https://api.spotify.com/v1/tracks/4bOa2SCtL57ouQ00pXTgKZ",
      "id" : "4bOa2SCtL57ouQ00pXTgKZ",
      "is_local" : false,
      "is_playable" : true,
      "name" : "O Love That Wilt Not Let Me Go",
      "popularity" : 8,
      "preview_url" : "https://p.scdn.co/mp3-preview/87040082d6ca50bab8ef3cff5f61088cbf872f2f?cid=774b29d4f13844c495f206cafdad9c86",
      "track_number" : 10,
      "type" : "track",
      "uri" : "spotify:track:4bOa2SCtL57ouQ00pXTgKZ"
    } ],
    "limit" : 10,
    "next" : "https://api.spotify.com/v1/search?query=O+Love+That+Wilt+Not+Let+Me+Go&type=track&market=US&offset=15&limit=10",
    "offset" : 5,
    "previous" : "https://api.spotify.com/v1/search?query=O+Love+That+Wilt+Not+Let+Me+Go&type=track&market=US&offset=0&limit=10",
    "total" : 104
  }
}