{
  "tracks" : {
    "href" : "https://api.spotify.com/v1/search?query=Joy+to+the+World&type=track&market=US&offset=5&limit=10",
    "items" : [ {
      "album" : {
        "album_type" : "album",
        "artists" : [ {
          "external_urls" : {
            "spotify" : "https://open.spotify.com/artist/3SgHzT552wy2W8pNLaLk24"
          },
          "href" : "https://api.spotify.com/v1/artists/3SgHzT552wy2W8pNLaLk24",
          "id" : "3SgHzT552wy2W8pNLaLk24",
          "name" : "Hillsong Worship",
          "type" : "artist",
          "uri" : "spotify:artist:3SgHzT552wy2W8pNLaLk24"
        } ],
        "external_urls" : {
          "spotify" : "https://open.spotify.com/album/1DltfgAtgRgLmXbhve2g4B"
        },
        "href" : "https://api.spotify.com/v1/albums/1DltfgAtgRgLmXbhve2g4B",
        "id" : "1DltfgAtgRgLmXbhve2g4B",
        "images" : [ {
          "height" : 640,
          "url" : "https://i.scdn.co/image/ab67616d0000b273029aace959f44b17fbf6706b",
          "width" : 640
        }, {
          "height" : 300,
          "url" : "https://i.scdn.co/image/ab67616d00001e02029aace959f44b17fbf6706b",
          "width" : 300
        }, {
          "height" : 64,
          "url" : "https://i.scdn.co/image/ab67616d00004851029aace959f44b17fbf6706b",
          "width" : 64
        } ],
        "name" : "We Have A Savior",
        "release_date" : "2012-10-09",
        "release_date_precision" : "day",
        "total_tracks" : 12,
        "type" : "album",
        "uri" : "spotify:album:1DltfgAtgRgLmXbhve2g4B"
      },
      "artists" : [ {
        "external_urls" : {
          "spotify" : "https://open.spotify.com/artist/3SgHzT552wy2W8pNLaLk24"
        },
        "href" : "https://api.spotify.com/v1/artists/3SgHzT552wy2W8pNLaLk24",
        "id" : "3SgHzT552wy2W8pNLaLk24",
        "name" : "Hillsong Worship",
        "type" : "artist",
        "uri" : "spotify:artist:3SgHzT552wy2W8pNLaLk24"
      } ],
      "disc_number" : 1,
      "duration_ms" : 199546,
      "explicit" : false,
      "external_ids" : {
        "isrc" : "AUHS01104595"
      },
      "external_urls" : {
        "spotify" : "https://open.spotify.com/track/6AjhxMRh17OC7CSimFsgZu"
      },
      "href" : "https://api.spotify.com/v1/tracks/6AjhxMRh17OC7CSimFsgZu",
      "id" : "6AjhxMRh17OC7CSimFsgZu",
      "is_local" : false,
      "is_playable" : true,
      "name" : "Joy To The World",
      "popularity" : 26,
      "preview_url" : null,
      "track_number" : 2,
      "type" : "track",
      "uri" : "spotify:track:6AjhxMRh17OC7CSimFsgZu"
    }, {
      "album" : {
        "album_type" : "album",
        "artists" : [ {
          "external_urls" : {
            "spotify" : "https://open.spotify.com/artist/4iHNK0tOyZPYnBU7nGAgpQ"
          },
          "href" : "https://api.spotify.com/v1/artists/4iHNK0tOyZPYnBU7nGAgpQ",
          "id" : "4iHNK0tOyZPYnBU7nGAgpQ",
          "name" : "Mariah Carey",
          "type" : "artist",
          "uri" : "spotify:artist:4iHNK0tOyZPYnBU7nGAgpQ"
        } ],
        "external_urls" : {
          "spotify" : "https://open.spotify.com/album/61ulfFSmmxMhc2wCdmdMkN"
        },
        "href" : "https://api.spotify.com/v1/albums/61ulfFSmmxMhc2wCdmdMkN",
        "id" : "61ulfFSmmxMhc2wCdmdMkN",
        "images" : [ {
          "height" : 640,
          "url" : "https://i.scdn.co/image/ab67616d0000b2734246e3158421f5abb75abc4f",
          "width" : 640
        }, {
          "height" : 300,
          "url" : "https://i.scdn.co/image/ab67616d00001e024246e3158421f5abb75abc4f",
          "width" : 300
        }, {
          "height" : 64,
          "url" : "https://i.scdn.co/image/ab67616d000048514246e3158421f5abb75abc4f",
          "width" : 64
        } ],
        "name" : "Merry Christmas",
        "release_date" : "1994-11-01",
        "release_date_precision" : "day",
        "total_tracks" : 10,
        "type" : "album",
        "uri" : "spotify:album:61ulfFSmmxMhc2wCdmdMkN"
      },
      "artists" : [ {
        "external_urls" : {
          "spotify" : "https://open.spotify.com/artist/4iHNK0tOyZPYnBU7nGAgpQ"
        },
        "href" : "https://api.spotify.com/v1/artists/4iHNK0tOyZPYnBU7nGAgpQ",
        "id" : "4iHNK0tOyZPYnBU7nGAgpQ",
        "name" : "Mariah Carey",
        "type" : "artist",
        "uri" : "spotify:artist:4iHNK0tOyZPYnBU7nGAgpQ"
      } ],
      "disc_number" : 1,
      "duration_ms" : 257933,
      "explicit" : false,
      "external_ids" : {
        "isrc" : "USSM10110528"
      },
      "external_urls" : {
        "spotify" : "https://open.spotify.com/track/2OggiWqL8exckT6kOrcDuA"
      },
      "href" : "https://api.spotify.com/v1/tracks/2OggiWqL8exckT6kOrcDuA",
      "id" : "2OggiWqL8exckT6kOrcDuA",
      "is_local" : false,
      "is_playable" : true,
      "name" : "Joy to the World",
      "popularity" : 31,
      "preview_url" : "https://p.scdn.co/mp3-preview/714283d7fa2e2a05cbb2231ab11d92f7bd3bf5bc?cid=774b29d4f13844c495f206cafdad9c86",
      "track_number" : 6,
      "type" : "track",
      "uri" : "spotify:track:2OggiWqL8exckT6kOrcDuA"
    }, {
      "album" : {
        "album_type" : "album",
        "artists" : [ {
          "external_urls" : {
            "spotify" : "https://open.spotify.com/artist/6a1uY4qTyJ5hXs0eOxRQnL"
          },
          "href" : "https://api.spotify.com/v1/artists/6a1uY4qTyJ5hXs0eOxRQnL",
          "id" : "6a1uY4qTyJ5hXs0eOxRQnL",
          "name" : "Baby Sleep Music",
          "type" : "artist",
          "uri" : "spotify:artist:6a1uY4qTyJ5hXs0eOxRQnL"
        }, {
          "external_urls" : {
            "spotify" : "https://open.spotify.com/artist/78xDLQc4yprjfXlrEXkEYQ"
          },
          "href" : "https://api.spotify.com/v1/artists/78xDLQc4yprjfXlrEXkEYQ",
          "id" : "78xDLQc4yprjfXlrEXkEYQ",
          "name" : "Monarch Baby Lullaby Institute",
          "type" : "artist",
          "uri" : "spotify:artist:78xDLQc4yprjfXlrEXkEYQ"
        }, {
          "external_urls" : {
            "spotify" : "https://open.spotify.com/artist/0cob7zfjKrTWDDqKQaJKXz"
          },
          "href" : "https://api.spotify.com/v1/artists/0cob7zfjKrTWDDqKQaJKXz",
          "id" : "0cob7zfjKrTWDDqKQaJKXz",
          "name" : "Christmas Music Lullabies",
          "type" : "artist",
          "uri" : "spotify:artist:0cob7zfjKrTWDDqKQaJKXz"
        } ],
        "external_urls" : {
          "spotify" : "https://open.spotify.com/album/6lodGpWBpMc6JO6nEpqxIN"
        },
        "href" : "https://api.spotify.com/v1/albums/6lodGpWBpMc6JO6nEpqxIN",
        "id" : "6lodGpWBpMc6JO6nEpqxIN",
        "images" : [ {
          "height" : 640,
          "url" : "https://i.scdn.co/image/ab67616d0000b273fbfedcab4ed2229c1e42c4af",
          "width" : 640
        }, {
          "height" : 300,
          "url" : "https://i.scdn.co/image/ab67616d00001e02fbfedcab4ed2229c1e42c4af",
          "width" : 300
        }, {
          "height" : 64,
          "url" : "https://i.scdn.co/image/ab67616d00004851fbfedcab4ed2229c1e42c4af",
          "width" : 64
        } ],
        "name" : "Christmas Baby: Christmas Music,Christmas Carols, Holiday Music, Baby Lullabies & Baby Lullaby Music",
        "release_date" : "2018-10-26",
        "release_date_precision" : "day",
        "total_tracks" : 25,
        "type" : "album",
        "uri" : "spotify:album:6lodGpWBpMc6JO6nEpqxIN"
      },
      "artists" : [ {
        "external_urls" : {
          "spotify" : "https://open.spotify.com/artist/6a1uY4qTyJ5hXs0eOxRQnL"
        },
        "href" : "https://api.spotify.com/v1/artists/6a1uY4qTyJ5hXs0eOxRQnL",
        "id" : "6a1uY4qTyJ5hXs0eOxRQnL",
        "name" : "Baby Sleep Music",
        "type" : "artist",
        "uri" : "spotify:artist:6a1uY4qTyJ5hXs0eOxRQnL"
      }, {
        "external_urls" : {
          "spotify" : "https://open.spotify.com/artist/78xDLQc4yprjfXlrEXkEYQ"
        },
        "href" : "https://api.spotify.com/v1/artists/78xDLQc4yprjfXlrEXkEYQ",
        "id" : "78xDLQc4yprjfXlrEXkEYQ",
        "name" : "Monarch Baby Lullaby Institute",
        "type" : "artist",
        "uri" : "spotify:artist:78xDLQc4yprjfXlrEXkEYQ"
      }, {
        "external_urls" : {
          "spotify" : "https://open.spotify.com/artist/0cob7zfjKrTWDDqKQaJKXz"
        },
        "href" : "https://api.spotify.com/v1/artists/0cob7zfjKrTWDDqKQaJKXz",
        "id" : "0cob7zfjKrTWDDqKQaJKXz",
        "name" : "Christmas Music Lullabies",
        "type" : "artist",
        "uri" : "spotify:artist:0cob7zfjKrTWDDqKQaJKXz"
      } ],
      "disc_number" : 1,
      "duration_ms" : 127803,
      "explicit" : false,
      "external_ids" : {
        "isrc" : "USLZJ1887384"
      },
      "external_urls" : {
        "spotify" : "https://open.spotify.com/track/23CDgb2xHfuKlWDaFbrnoR"
      },
      "href" : "https://api.spotify.com/v1/tracks/23CDgb2xHfuKlWDaFbrnoR",
      "id" : "23CDgb2xHfuKlWDaFbrnoR",
      "is_local" : false,
      "is_playable" : true,
      "name" : "Joy To The World",
      "popularity" : 28,
      "preview_url" : "https://p.scdn.co/mp3-preview/b8ec1e69d1054dc203d5ee686f097c5d48342007?cid=774b29d4f13844c495f206cafdad9c86",
      "track_number" : 1,
      "type" : "track",
      "uri" : "spotify:track:23CDgb2xHfuKlWDaFbrnoR"
    }, {
      "album" : {
        "album_type" : "album",
        "artists" : [ {
          "external_urls" : {
            "spotify" : "https://open.spotify.com/artist/6XpaIBNiVzIetEPCWDvAFP"
          },
          "href" : "https://api.spotify.com/v1/artists/6XpaIBNiVzIetEPCWDvAFP",
          "id" : "6XpaIBNiVzIetEPCWDvAFP",
          "name" : "Whitney Houston",
          "type" : "artist",
          "uri" : "spotify:artist:6XpaIBNiVzIetEPCWDvAFP"
        } ],
        "external_urls" : {
          "spotify" : "https://open.spotify.com/album/4GtmXlzXsP67AKOVT8LWKK"
        },
        "href" : "https://api.spotify.com/v1/albums/4GtmXlzXsP67AKOVT8LWKK",
        "id" : "4GtmXlzXsP67AKOVT8LWKK",
        "images" : [ {
          "height" : 640,
          "url" : "https://i.scdn.co/image/ab67616d0000b27318262e319060dda67816bca7",
          "width" : 640
        }, {
          "height" : 300,
          "url" : "https://i.scdn.co/image/ab67616d00001e0218262e319060dda67816bca7",
          "width" : 300
        }, {
          "height" : 64,
          "url" : "https://i.scdn.co/image/ab67616d0000485118262e319060dda67816bca7",
          "width" : 64
        } ],
        "name" : "The Preacher's Wife",
        "release_date" : "1996-11-27",
        "release_date_precision" : "day",
        "total_tracks" : 15,
        "type" : "album",
        "uri" : "spotify:album:4GtmXlzXsP67AKOVT8LWKK"
      },
      "artists" : [ {
        "external_urls" : {
          "spotify" : "https://open.spotify.com/artist/6XpaIBNiVzIetEPCWDvAFP"
        },
        "href" : "https://api.spotify.com/v1/artists/6XpaIBNiVzIetEPCWDvAFP",
        "id" : "6XpaIBNiVzIetEPCWDvAFP",
        "name" : "Whitney Houston",
        "type" : "artist",
        "uri" : "spotify:artist:6XpaIBNiVzIetEPCWDvAFP"
      }, {
        "external_urls" : {
          "spotify" : "https://open.spotify.com/artist/1CdyK67jEL4DXXsmp8vFfN"
        },
        "href" : "https://api.spotify.com/v1/artists/1CdyK67jEL4DXXsmp8vFfN",
        "id" : "1CdyK67jEL4DXXsmp8vFfN",
        "name" : "The Georgia Mass Choir",
        "type" : "artist",
        "uri" : "spotify:artist:1CdyK67jEL4DXXsmp8vFfN"
      } ],
      "disc_number" : 1,
      "duration_ms" : 281360,
      "explicit" : false,
      "external_ids" : {
        "isrc" : "USAR19900982"
      },
      "external_urls" : {
        "spotify" : "https://open.spotify.com/track/0sKAxwRubZuqKadRspVY96"
      },
      "href" : "https://api.spotify.com/v1/tracks/0sKAxwRubZuqKadRspVY96",
      "id" : "0sKAxwRubZuqKadRspVY96",
      "is_local" : false,
      "is_playable" : true,
      "name" : "Joy to the World (with Georgia Mass Choir)",
      "popularity" : 30,
      "preview_url" : "https://p.scdn.co/mp3-preview/a3c13371ab084882a475ac3cb912a10c9520bfbc?cid=774b29d4f13844c495f206cafdad9c86",
      "track_number" : 15,
      "type" : "track",
      "uri" : "spotify:track:0sKAxwRubZuqKadRspVY96"
    }, {
      "album" : {
        "album_type" : "compilation",
        "artists" : [ {
          "external_urls" : {
            "spotify" : "https://open.spotify.com/artist/0LyfQWJT6nXafLPZqxe9Of"
          },
          "href" : "https://api.spotify.com/v1/artists/0LyfQWJT6nXafLPZqxe9Of",
          "id" : "0LyfQWJT6nXafLPZqxe9Of",
          "name" : "Various Artists",
          "type" : "artist",
          "uri" : "spotify:artist:0LyfQWJT6nXafLPZqxe9Of"
        } ],
        "external_urls" : {
          "spotify" : "https://open.spotify.com/album/0x8GdLfJ347D74AgBSn6db"
        },
        "href" : "https://api.spotify.com/v1/albums/0x8GdLfJ347D74AgBSn6db",
        "id" : "0x8GdLfJ347D74AgBSn6db",
        "images" : [ {
          "height" : 640,
          "url" : "https://i.scdn.co/image/ab67616d0000b273194d0912473522a4c7a8e4d2",
          "width" : 640
        }, {
          "height" : 300,
          "url" : "https://i.scdn.co/image/ab67616d00001e02194d0912473522a4c7a8e4d2",
          "width" : 300
        }, {
          "height" : 64,
          "url" : "https://i.scdn.co/image/ab67616d00004851194d0912473522a4c7a8e4d2",
          "width" : 64
        } ],
        "name" : "Diego, Dora & Friends' Animal Jamboree",
        "release_date" : "2006-04-04",
        "release_date_precision" : "day",
        "total_tracks" : 10,
        "type" : "album",
        "uri" : "spotify:album:0x8GdLfJ347D74AgBSn6db"
      },
      "artists" : [ {
        "external_urls" : {
          "spotify" : "https://open.spotify.com/artist/1FDuzOOZw1T2HHQmcnVT2V"
        },
        "href" : "https://api.spotify.com/v1/artists/1FDuzOOZw1T2HHQmcnVT2V",
        "id" : "1FDuzOOZw1T2HHQmcnVT2V",
        "name" : "Diego, Dora & Friends",
        "type" : "artist",
        "uri" : "spotify:artist:1FDuzOOZw1T2HHQmcnVT2V"
      } ],
      "disc_number" : 1,
      "duration_ms" : 209493,
      "explicit" : false,
      "external_ids" : {
        "isrc" : "USN1R0601010"
      },
      "external_urls" : {
        "spotify" : "https://open.spotify.com/track/53aaAsE4IG4sRv6mcMIHUL"
      },
      "href" : "https://api.spotify.com/v1/tracks/53aaAsE4IG4sRv6mcMIHUL",
      "id" : "53aaAsE4IG4sRv6mcMIHUL",
      "is_local" : false,
      "is_playable" : true,
      "name" : "Joy To The World",
      "popularity" : 26,
      "preview_url" : "https://p.scdn.co/mp3-preview/d89eb2d53b57e71425a83dc3b0d0abf11bf11837?cid=774b29d4f13844c495f206cafdad9c86",
      "track_number" : 10,
      "type" : "track",
      "uri" : "spotify:track:53aaAsE4IG4sRv6mcMIHUL"
    }, {
      "album" : {
        "album_type" : "single",
        "artists" : [ {
          "external_urls" : {
            "spotify" : "https://open.spotify.com/artist/0LyfQWJT6nXafLPZqxe9Of"
          },
          "href" : "https://api.spotify.com/v1/artists/0LyfQWJT6nXafLPZqxe9Of",
          "id" : "0LyfQWJT6nXafLPZqxe9Of",
          "name" : "Various Artists",
          "type" : "artist",
          "uri" : "spotify:artist:0LyfQWJT6nXafLPZqxe9Of"
        } ],
        "external_urls" : {
          "spotify" : "https://open.spotify.com/album/1dO8j15uVKxkHA92rYufUv"
        },
        "href" : "https://api.spotify.com/v1/albums/1dO8j15uVKxkHA92rYufUv",
        "id" : "1dO8j15uVKxkHA92rYufUv",
        "images" : [ {
          "height" : 640,
          "url" : "https://i.scdn.co/image/ab67616d0000b2734c097cd735fb45aabe9cbd9c",
          "width" : 640
        }, {
          "height" : 300,
          "url" : "https://i.scdn.co/image/ab67616d00001e024c097cd735fb45aabe9cbd9c",
          "width" : 300
        }, {
          "height" : 64,
          "url" : "https://i.scdn.co/image/ab67616d000048514c097cd735fb45aabe9cbd9c",
          "width" : 64
        } ],
        "name" : "A Very Spidey Christmas",
        "release_date" : "2018-12-21",
        "release_date_precision" : "day",
        "total_tracks" : 5,
        "type" : "album",
        "uri" : "spotify:album:1dO8j15uVKxkHA92rYufUv"
      },
      "artists" : [ {
        "external_urls" : {
          "spotify" : "https://open.spotify.com/artist/2GotSKYxVNpUhP64wN6DCP"
        },
        "href" : "https://api.spotify.com/v1/artists/2GotSKYxVNpUhP64wN6DCP",
        "id" : "2GotSKYxVNpUhP64wN6DCP",
        "name" : "Shameik Moore",
        "type" : "artist",
        "uri" : "spotify:artist:2GotSKYxVNpUhP64wN6DCP"
      } ],
      "disc_number" : 1,
      "duration_ms" : 100680,
      "explicit" : false,
      "external_ids" : {
        "isrc" : "US4DG1801294"
      },
      "external_urls" : {
        "spotify" : "https://open.spotify.com/track/6Cq0Xtlr4UFBvkMYJgJshD"
      },
      "href" : "https://api.spotify.com/v1/tracks/6Cq0Xtlr4UFBvkMYJgJshD",
      "id" : "6Cq0Xtlr4UFBvkMYJgJshD",
      "is_local" : false,
      "is_playable" : true,
      "name" : "Joy to the World",
      "popularity" : 26,
      "preview_url" : "https://p.scdn.co/mp3-preview/b4956ec8be181e1b6826319eae91be2d54eca159?cid=774b29d4f13844c495f206cafdad9c86",
      "track_number" : 1,
      "type" : "track",
      "uri" : "spotify:track:6Cq0Xtlr4UFBvkMYJgJshD"
    }, {
      "album" : {
        "album_type" : "album",
        "artists" : [ {
          "external_urls" : {
            "spotify" : "https://open.spotify.com/artist/3Mqi8GYWkenzbP6702MUwZ"
          },
          "href" : "https://api.spotify.com/v1/artists/3Mqi8GYWkenzbP6702MUwZ",
          "id" : "3Mqi8GYWkenzbP6702MUwZ",
          "name" : "Little Drummer Boy Productions",
          "type" : "artist",
          "uri" : "spotify:artist:3Mqi8GYWkenzbP6702MUwZ"
        } ],
        "external_urls" : {
          "spotify" : "https://open.spotify.com/album/0Eq9BjdK0I8MNjmVuFn2zl"
        },
        "href" : "https://api.spotify.com/v1/albums/0Eq9BjdK0I8MNjmVuFn2zl",
        "id" : "0Eq9BjdK0I8MNjmVuFn2zl",
        "images" : [ {
          "height" : 640,
          "url" : "https://i.scdn.co/image/ab67616d0000b273d84701c3d553e5f5e15b4f93",
          "width" : 640
        }, {
          "height" : 300,
          "url" : "https://i.scdn.co/image/ab67616d00001e02d84701c3d553e5f5e15b4f93",
          "width" : 300
        }, {
          "height" : 64,
          "url" : "https://i.scdn.co/image/ab67616d00004851d84701c3d553e5f5e15b4f93",
          "width" : 64
        } ],
        "name" : "Ripley's Christmas Wish",
        "release_date" : "2019-04-02",
        "release_date_precision" : "day",
        "total_tracks" : 10,
        "type" : "album",
        "uri" : "spotify:album:0Eq9BjdK0I8MNjmVuFn2zl"
      },
      "artists" : [ {
        "external_urls" : {
          "spotify" : "https://open.spotify.com/artist/3Mqi8GYWkenzbP6702MUwZ"
        },
        "href" : "https://api.spotify.com/v1/artists/3Mqi8GYWkenzbP6702MUwZ",
        "id" : "3Mqi8GYWkenzbP6702MUwZ",
        "name" : "Little Drummer Boy Productions",
        "type" : "artist",
        "uri" : "spotify:artist:3Mqi8GYWkenzbP6702MUwZ"
      } ],
      "disc_number" : 1,
      "duration_ms" : 104323,
      "explicit" : false,
      "external_ids" : {
        "isrc" : "QZHNA1998039"
      },
      "external_urls" : {
        "spotify" : "https://open.spotify.com/track/1viShEGVqtOD37VM4nkFs6"
      },
      "href" : "https://api.spotify.com/v1/tracks/1viShEGVqtOD37VM4nkFs6",
      "id" : "1viShEGVqtOD37VM4nkFs6",
      "is_local" : false,
      "is_playable" : true,
      "name" : "Joy to the World",
      "popularity" : 22,
      "preview_url" : "https://p.scdn.co/mp3-preview/e0c4b9e70976797524d5f504c0420e87b47ac81b?cid=774b29d4f13844c495f206cafdad9c86",
      "track_number" : 9,
      "type" : "track",
      "uri" : "spotify:track:1viShEGVqtOD37VM4nkFs6"
    }, {
      "album" : {
        "album_type" : "album",
        "artists" : [ {
          "external_urls" : {
            "spotify" : "https://open.spotify.com/artist/6pRi6EIPXz4QJEOEsBaA0m"
          },
          "href" : "https://api.spotify.com/v1/artists/6pRi6EIPXz4QJEOEsBaA0m",
          "id" : "6pRi6EIPXz4QJEOEsBaA0m",
          "name" : "Chris Tomlin",
          "type" : "artist",
          "uri" : "spotify:artist:6pRi6EIPXz4QJEOEsBaA0m"
        } ],
        "external_urls" : {
          "spotify" : "https://open.spotify.com/album/1a2gUlUBypmai0CzuIVXQo"
        },
        "href" : "https://api.spotify.com/v1/albums/1a2gUlUBypmai0CzuIVXQo",
        "id" : "1a2gUlUBypmai0CzuIVXQo",
        "images" : [ {
          "height" : 640,
          "url" : "https://i.scdn.co/image/ab67616d0000b2736d4ffa7dac093a0abb6c2836",
          "width" : 640
        }, {
          "height" : 300,
          "url" : "https://i.scdn.co/image/ab67616d00001e026d4ffa7dac093a0abb6c2836",
          "width" : 300
        }, {
          "height" : 64,
          "url" : "https://i.scdn.co/image/ab67616d000048516d4ffa7dac093a0abb6c2836",
          "width" : 64
        } ],
        "name" : "Glory In The Highest: Christmas Songs Of Worship",
        "release_date" : "2009-01-01",
        "release_date_precision" : "day",
        "total_tracks" : 12,
        "type" : "album",
        "uri" : "spotify:album:1a2gUlUBypmai0CzuIVXQo"
      },
      "artists" : [ {
        "external_urls" : {
          "spotify" : "https://open.spotify.com/artist/6pRi6EIPXz4QJEOEsBaA0m"
        },
        "href" : "https://api.spotify.com/v1/artists/6pRi6EIPXz4QJEOEsBaA0m",
        "id" : "6pRi6EIPXz4QJEOEsBaA0m",
        "name" : "Chris Tomlin",
        "type" : "artist",
        "uri" : "spotify:artist:6pRi6EIPXz4QJEOEsBaA0m"
      } ],
      "disc_number" : 1,
      "duration_ms" : 230720,
      "explicit" : false,
      "external_ids" : {
        "isrc" : "USSP30900609"
      },
      "external_urls" : {
        "spotify" : "https://open.spotify.com/track/1lK4SFE2TMeqEziR3TURFO"
      },
      "href" : "https://api.spotify.com/v1/tracks/1lK4SFE2TMeqEziR3TURFO",
      "id" : "1lK4SFE2TMeqEziR3TURFO",
      "is_local" : false,
      "is_playable" : true,
      "name" : "Joy To The World (Unspeakable Joy)",
      "popularity" : 28,
      "preview_url" : null,
      "track_number" : 6,
      "type" : "track",
      "uri" : "spotify:track:1lK4SFE2TMeqEziR3TURFO"
    }, {
      "album" : {
        "album_type" : "album",
        "artists" : [ {
          "external_urls" : {
            "spotify" : "https://open.spotify.com/artist/0LyfQWJT6nXafLPZqxe9Of"
          },
          "href" : "https://api.spotify.com/v1/artists/0LyfQWJT6nXafLPZqxe9Of",
          "id" : "0LyfQWJT6nXafLPZqxe9Of",
          "name" : "Various Artists",
          "type" : "artist",
          "uri" : "spotify:artist:0LyfQWJT6nXafLPZqxe9Of"
        } ],
        "external_urls" : {
          "spotify" : "https://open.spotify.com/album/7FpuzqLwNLcdJdoOz0Oq9m"
        },
        "href" : "https://api.spotify.com/v1/albums/7FpuzqLwNLcdJdoOz0Oq9m",
        "id" : "7FpuzqLwNLcdJdoOz0Oq9m",
        "images" : [ {
          "height" : 640,
          "url" : "https://i.scdn.co/image/ab67616d0000b273823edacdd267cb62444c132e",
          "width" : 640
        }, {
          "height" : 300,
          "url" : "https://i.scdn.co/image/ab67616d00001e02823edacdd267cb62444c132e",
          "width" : 300
        }, {
          "height" : 64,
          "url" : "https://i.scdn.co/image/ab67616d00004851823edacdd267cb62444c132e",
          "width" : 64
        } ],
        "name" : "The Big Chill: 15th Anniversary",
        "release_date" : "1983-09-08",
        "release_date_precision" : "day",
        "total_tracks" : 10,
        "type" : "album",
        "uri" : "spotify:album:7FpuzqLwNLcdJdoOz0Oq9m"
      },
      "artists" : [ {
        "external_urls" : {
          "spotify" : "https://open.spotify.com/artist/4FAEZeJcsYYBkNq2D3KGTV"
        },
        "href" : "https://api.spotify.com/v1/artists/4FAEZeJcsYYBkNq2D3KGTV",
        "id" : "4FAEZeJcsYYBkNq2D3KGTV",
        "name" : "Three Dog Night",
        "type" : "artist",
        "uri" : "spotify:artist:4FAEZeJcsYYBkNq2D3KGTV"
      } ],
      "disc_number" : 1,
      "duration_ms" : 216226,
      "explicit" : false,
      "external_ids" : {
        "isrc" : "USMC17053309"
      },
      "external_urls" : {
        "spotify" : "https://open.spotify.com/track/1juyGCItoK8gYro94faicl"
      },
      "href" : "https://api.spotify.com/v1/tracks/1juyGCItoK8gYro94faicl",
      "id" : "1juyGCItoK8gYro94faicl",
      "is_local" : false,
      "is_playable" : true,
      "name" : "Joy To The World - Edit",
      "popularity" : 29,
      "preview_url" : null,
      "track_number" : 5,
      "type" : "track",
      "uri" : "spotify:track:1juyGCItoK8gYro94faicl"
    }, {
      "album" : {
        "album_type" : "album",
        "artists" : [ {
          "external_urls" : {
            "spotify" : "https://open.spotify.com/artist/4FAEZeJcsYYBkNq2D3KGTV"
          },
          "href" : "https://api.spotify.com/v1/artists/4FAEZeJcsYYBkNq2D3KGTV",
          "id" : "4FAEZeJcsYYBkNq2D3KGTV",
          "name" : "Three Dog Night",
          "type" : "artist",
          "uri" : "spotify:artist:4FAEZeJcsYYBkNq2D3KGTV"
        } ],
        "external_urls" : {
          "spotify" : "https://open.spotify.com/album/7nf5ECkHbmO8vB6IXSrXx4"
        },
        "href" : "https://api.spotify.com/v1/albums/7nf5ECkHbmO8vB6IXSrXx4",
        "id" : "7nf5ECkHbmO8vB6IXSrXx4",
        "images" : [ {
          "height" : 640,
          "url" : "https://i.scdn.co/image/ab67616d0000b273bd2cb24247cd3ab67f765114",
          "width" : 640
        }, {
          "height" : 300,
          "url" : "https://i.scdn.co/image/ab67616d00001e02bd2cb24247cd3ab67f765114",
          "width" : 300
        }, {
          "height" : 64,
          "url" : "https://i.scdn.co/image/ab67616d00004851bd2cb24247cd3ab67f765114",
          "width" : 64
        } ],
        "name" : "Three Dog Night - The Complete Hit Singles",
        "release_date" : "2004-01-01",
        "release_date_precision" : "day",
        "total_tracks" : 21,
        "type" : "album",
        "uri" : "spotify:album:7nf5ECkHbmO8vB6IXSrXx4"
      },
      "artists" : [ {
        "external_urls" : {
          "spotify" : "https://open.spotify.com/artist/4FAEZeJcsYYBkNq2D3KGTV"
        },
        "href" : "https://api.spotify.com/v1/artists/4FAEZeJcsYYBkNq2D3KGTV",
        "id" : "4FAEZeJcsYYBkNq2D3KGTV",
        "name" : "Three Dog Night",
        "type" : "artist",
        "uri" : "spotify:artist:4FAEZeJcsYYBkNq2D3KGTV"
      } ],
      "disc_number" : 1,
      "duration_ms" : 195533,
      "explicit" : false,
      "external_ids" : {
        "isrc" : "USMC17049751"
      },
      "external_urls" : {
        "spotify" : "https://open.spotify.com/track/2BeWu1tKn27ZVBEkPNIi0v"
      },
      "href" : "https://api.spotify.com/v1/tracks/2BeWu1tKn27ZVBEkPNIi0v",
      "id" : "2BeWu1tKn27ZVBEkPNIi0v",
      "is_local" : false,
      "is_playable" : true,
      "name" : "Joy To The World - Single Version",
      "popularity" : 25,
      "preview_url" : null,
      "track_number" : 9,
      "type" : "track",
      "uri" : "spotify:track:2BeWu1tKn27ZVBEkPNIi0v"
    } ],
    "limit" : 10,
    "next" : "https://api.spotify.com/v1/search?query=Joy+to+the+World&type=track&market=US&offset=15&limit=10",
    "offset" : 5,
    "previous" : "https://api.spotify.com/v1/search?query=Joy+to+the+World&type=track&market=US&offset=0&limit=10",
    "total" : 15085
  }
}