{
  "tracks" : {
    "href" : "https://api.spotify.com/v1/search?query=How+Sweet+the+Name%21&type=track&market=US&offset=5&limit=10",
    "items" : [ {
      "album" : {
        "album_type" : "album",
        "artists" : [ {
          "external_urls" : {
            "spotify" : "https://open.spotify.com/artist/1ukmGETCwXTbgrTrkRDnmn"
          },
          "href" : "https://api.spotify.com/v1/artists/1ukmGETCwXTbgrTrkRDnmn",
          "id" : "1ukmGETCwXTbgrTrkRDnmn",
          "name" : "Nathaniel Bassey",
          "type" : "artist",
          "uri" : "spotify:artist:1ukmGETCwXTbgrTrkRDnmn"
        } ],
        "external_urls" : {
          "spotify" : "https://open.spotify.com/album/2ZuDAvAdya2OEWNdFMtViZ"
        },
        "href" : "https://api.spotify.com/v1/albums/2ZuDAvAdya2OEWNdFMtViZ",
        "id" : "2ZuDAvAdya2OEWNdFMtViZ",
        "images" : [ {
          "height" : 640,
          "url" : "https://i.scdn.co/image/ab67616d0000b273b7158f1879cea50bb3978f7f",
          "width" : 640
        }, {
          "height" : 300,
          "url" : "https://i.scdn.co/image/ab67616d00001e02b7158f1879cea50bb3978f7f",
          "width" : 300
        }, {
          "height" : 64,
          "url" : "https://i.scdn.co/image/ab67616d00004851b7158f1879cea50bb3978f7f",
          "width" : 64
        } ],
        "name" : "Jesus: The Resurrection & the Life",
        "release_date" : "2018-12-02",
        "release_date_precision" : "day",
        "total_tracks" : 15,
        "type" : "album",
        "uri" : "spotify:album:2ZuDAvAdya2OEWNdFMtViZ"
      },
      "artists" : [ {
        "external_urls" : {
          "spotify" : "https://open.spotify.com/artist/1ukmGETCwXTbgrTrkRDnmn"
        },
        "href" : "https://api.spotify.com/v1/artists/1ukmGETCwXTbgrTrkRDnmn",
        "id" : "1ukmGETCwXTbgrTrkRDnmn",
        "name" : "Nathaniel Bassey",
        "type" : "artist",
        "uri" : "spotify:artist:1ukmGETCwXTbgrTrkRDnmn"
      }, {
        "external_urls" : {
          "spotify" : "https://open.spotify.com/artist/6KgXR7hwo14wRciu1TF0ZF"
        },
        "href" : "https://api.spotify.com/v1/artists/6KgXR7hwo14wRciu1TF0ZF",
        "id" : "6KgXR7hwo14wRciu1TF0ZF",
        "name" : "Kaydee Numbere",
        "type" : "artist",
        "uri" : "spotify:artist:6KgXR7hwo14wRciu1TF0ZF"
      } ],
      "disc_number" : 1,
      "duration_ms" : 229186,
      "explicit" : false,
      "external_ids" : {
        "isrc" : "TCADZ1816048"
      },
      "external_urls" : {
        "spotify" : "https://open.spotify.com/track/7EUSmLQEx1nfdylfXU9yTL"
      },
      "href" : "https://api.spotify.com/v1/tracks/7EUSmLQEx1nfdylfXU9yTL",
      "id" : "7EUSmLQEx1nfdylfXU9yTL",
      "is_local" : false,
      "is_playable" : true,
      "name" : "How Sweet the Name of Jesus Sounds",
      "popularity" : 16,
      "preview_url" : "https://p.scdn.co/mp3-preview/38b749ff1e8adeb1a3a04780de54e9095b27cb92?cid=774b29d4f13844c495f206cafdad9c86",
      "track_number" : 6,
      "type" : "track",
      "uri" : "spotify:track:7EUSmLQEx1nfdylfXU9yTL"
    }, {
      "album" : {
        "album_type" : "album",
        "artists" : [ {
          "external_urls" : {
            "spotify" : "https://open.spotify.com/artist/5xttCD1o4YHy1YQj4zdQV8"
          },
          "href" : "https://api.spotify.com/v1/artists/5xttCD1o4YHy1YQj4zdQV8",
          "id" : "5xttCD1o4YHy1YQj4zdQV8",
          "name" : "Ordinary Time",
          "type" : "artist",
          "uri" : "spotify:artist:5xttCD1o4YHy1YQj4zdQV8"
        } ],
        "external_urls" : {
          "spotify" : "https://open.spotify.com/album/6YSc2jVteqoynCTfNdKGCK"
        },
        "href" : "https://api.spotify.com/v1/albums/6YSc2jVteqoynCTfNdKGCK",
        "id" : "6YSc2jVteqoynCTfNdKGCK",
        "images" : [ {
          "height" : 640,
          "url" : "https://i.scdn.co/image/ab67616d0000b2733ca9a7e345f6409fba524534",
          "width" : 640
        }, {
          "height" : 300,
          "url" : "https://i.scdn.co/image/ab67616d00001e023ca9a7e345f6409fba524534",
          "width" : 300
        }, {
          "height" : 64,
          "url" : "https://i.scdn.co/image/ab67616d000048513ca9a7e345f6409fba524534",
          "width" : 64
        } ],
        "name" : "At The Table",
        "release_date" : "2010-01-01",
        "release_date_precision" : "day",
        "total_tracks" : 13,
        "type" : "album",
        "uri" : "spotify:album:6YSc2jVteqoynCTfNdKGCK"
      },
      "artists" : [ {
        "external_urls" : {
          "spotify" : "https://open.spotify.com/artist/5xttCD1o4YHy1YQj4zdQV8"
        },
        "href" : "https://api.spotify.com/v1/artists/5xttCD1o4YHy1YQj4zdQV8",
        "id" : "5xttCD1o4YHy1YQj4zdQV8",
        "name" : "Ordinary Time",
        "type" : "artist",
        "uri" : "spotify:artist:5xttCD1o4YHy1YQj4zdQV8"
      } ],
      "disc_number" : 1,
      "duration_ms" : 197480,
      "explicit" : false,
      "external_ids" : {
        "isrc" : "usx9p0977486"
      },
      "external_urls" : {
        "spotify" : "https://open.spotify.com/track/0lGVf4mNj6BC2QwrOJbIzN"
      },
      "href" : "https://api.spotify.com/v1/tracks/0lGVf4mNj6BC2QwrOJbIzN",
      "id" : "0lGVf4mNj6BC2QwrOJbIzN",
      "is_local" : false,
      "is_playable" : true,
      "name" : "How Sweet the Name of Jesus Sounds",
      "popularity" : 8,
      "preview_url" : "https://p.scdn.co/mp3-preview/9b4f8b133cc53952ac9e9478908f302d9096bba9?cid=774b29d4f13844c495f206cafdad9c86",
      "track_number" : 9,
      "type" : "track",
      "uri" : "spotify:track:0lGVf4mNj6BC2QwrOJbIzN"
    }, {
      "album" : {
        "album_type" : "album",
        "artists" : [ {
          "external_urls" : {
            "spotify" : "https://open.spotify.com/artist/5sQwW3dIsfGVy6DWtKhDo0"
          },
          "href" : "https://api.spotify.com/v1/artists/5sQwW3dIsfGVy6DWtKhDo0",
          "id" : "5sQwW3dIsfGVy6DWtKhDo0",
          "name" : "York Minster Choir/Philip Moore",
          "type" : "artist",
          "uri" : "spotify:artist:5sQwW3dIsfGVy6DWtKhDo0"
        } ],
        "external_urls" : {
          "spotify" : "https://open.spotify.com/album/6av9dO2LmzDKWRaCSQby95"
        },
        "href" : "https://api.spotify.com/v1/albums/6av9dO2LmzDKWRaCSQby95",
        "id" : "6av9dO2LmzDKWRaCSQby95",
        "images" : [ {
          "height" : 640,
          "url" : "https://i.scdn.co/image/ab67616d0000b273d61ea403ddc2afaeca384282",
          "width" : 640
        }, {
          "height" : 300,
          "url" : "https://i.scdn.co/image/ab67616d00001e02d61ea403ddc2afaeca384282",
          "width" : 300
        }, {
          "height" : 64,
          "url" : "https://i.scdn.co/image/ab67616d00004851d61ea403ddc2afaeca384282",
          "width" : 64
        } ],
        "name" : "Best-Loved Hymns from York Minster",
        "release_date" : "1996",
        "release_date_precision" : "year",
        "total_tracks" : 21,
        "type" : "album",
        "uri" : "spotify:album:6av9dO2LmzDKWRaCSQby95"
      },
      "artists" : [ {
        "external_urls" : {
          "spotify" : "https://open.spotify.com/artist/1y44vKNHGwLPjQI37ErdpX"
        },
        "href" : "https://api.spotify.com/v1/artists/1y44vKNHGwLPjQI37ErdpX",
        "id" : "1y44vKNHGwLPjQI37ErdpX",
        "name" : "A. R. Reinagle",
        "type" : "artist",
        "uri" : "spotify:artist:1y44vKNHGwLPjQI37ErdpX"
      }, {
        "external_urls" : {
          "spotify" : "https://open.spotify.com/artist/4qenjQZBIuPL8Ridz3sLH4"
        },
        "href" : "https://api.spotify.com/v1/artists/4qenjQZBIuPL8Ridz3sLH4",
        "id" : "4qenjQZBIuPL8Ridz3sLH4",
        "name" : "York Minster Choir",
        "type" : "artist",
        "uri" : "spotify:artist:4qenjQZBIuPL8Ridz3sLH4"
      }, {
        "external_urls" : {
          "spotify" : "https://open.spotify.com/artist/7abS4vtKpO3MidQZVbjMBn"
        },
        "href" : "https://api.spotify.com/v1/artists/7abS4vtKpO3MidQZVbjMBn",
        "id" : "7abS4vtKpO3MidQZVbjMBn",
        "name" : "Philip Moore",
        "type" : "artist",
        "uri" : "spotify:artist:7abS4vtKpO3MidQZVbjMBn"
      } ],
      "disc_number" : 1,
      "duration_ms" : 171526,
      "explicit" : false,
      "external_ids" : {
        "isrc" : "GBAYD9600646"
      },
      "external_urls" : {
        "spotify" : "https://open.spotify.com/track/6N2hAIlPsaKGyjXe2iEVdf"
      },
      "href" : "https://api.spotify.com/v1/tracks/6N2hAIlPsaKGyjXe2iEVdf",
      "id" : "6N2hAIlPsaKGyjXe2iEVdf",
      "is_local" : false,
      "is_playable" : true,
      "name" : "How sweet the name of Jesus sounds (St Peter)",
      "popularity" : 12,
      "preview_url" : "https://p.scdn.co/mp3-preview/93ebdd36e677c52612a8f9cc4d9d4d1c08be677a?cid=774b29d4f13844c495f206cafdad9c86",
      "track_number" : 8,
      "type" : "track",
      "uri" : "spotify:track:6N2hAIlPsaKGyjXe2iEVdf"
    }, {
      "album" : {
        "album_type" : "album",
        "artists" : [ {
          "external_urls" : {
            "spotify" : "https://open.spotify.com/artist/1IjCQjjExc4HP0byEhEdR8"
          },
          "href" : "https://api.spotify.com/v1/artists/1IjCQjjExc4HP0byEhEdR8",
          "id" : "1IjCQjjExc4HP0byEhEdR8",
          "name" : "Living Stream Ministry",
          "type" : "artist",
          "uri" : "spotify:artist:1IjCQjjExc4HP0byEhEdR8"
        } ],
        "external_urls" : {
          "spotify" : "https://open.spotify.com/album/3EstOXm1vieAfyBVDB8u44"
        },
        "href" : "https://api.spotify.com/v1/albums/3EstOXm1vieAfyBVDB8u44",
        "id" : "3EstOXm1vieAfyBVDB8u44",
        "images" : [ {
          "height" : 640,
          "url" : "https://i.scdn.co/image/ab67616d0000b273cc984aae1e1d2eda62033b12",
          "width" : 640
        }, {
          "height" : 300,
          "url" : "https://i.scdn.co/image/ab67616d00001e02cc984aae1e1d2eda62033b12",
          "width" : 300
        }, {
          "height" : 64,
          "url" : "https://i.scdn.co/image/ab67616d00004851cc984aae1e1d2eda62033b12",
          "width" : 64
        } ],
        "name" : "The Name of Jesus Is Our Stand",
        "release_date" : "2014-10-29",
        "release_date_precision" : "day",
        "total_tracks" : 15,
        "type" : "album",
        "uri" : "spotify:album:3EstOXm1vieAfyBVDB8u44"
      },
      "artists" : [ {
        "external_urls" : {
          "spotify" : "https://open.spotify.com/artist/1IjCQjjExc4HP0byEhEdR8"
        },
        "href" : "https://api.spotify.com/v1/artists/1IjCQjjExc4HP0byEhEdR8",
        "id" : "1IjCQjjExc4HP0byEhEdR8",
        "name" : "Living Stream Ministry",
        "type" : "artist",
        "uri" : "spotify:artist:1IjCQjjExc4HP0byEhEdR8"
      } ],
      "disc_number" : 1,
      "duration_ms" : 230493,
      "explicit" : false,
      "external_ids" : {
        "isrc" : "QMJ8P1400008"
      },
      "external_urls" : {
        "spotify" : "https://open.spotify.com/track/4hyeSZcXb41LG7b46nYyR4"
      },
      "href" : "https://api.spotify.com/v1/tracks/4hyeSZcXb41LG7b46nYyR4",
      "id" : "4hyeSZcXb41LG7b46nYyR4",
      "is_local" : false,
      "is_playable" : true,
      "name" : "How Sweet the Name of Jesus Sounds",
      "popularity" : 11,
      "preview_url" : "https://p.scdn.co/mp3-preview/5357be75709ada51c7221432a2792049ef12a177?cid=774b29d4f13844c495f206cafdad9c86",
      "track_number" : 8,
      "type" : "track",
      "uri" : "spotify:track:4hyeSZcXb41LG7b46nYyR4"
    }, {
      "album" : {
        "album_type" : "album",
        "artists" : [ {
          "external_urls" : {
            "spotify" : "https://open.spotify.com/artist/5iYiRsijHsywlnWC8iHdyx"
          },
          "href" : "https://api.spotify.com/v1/artists/5iYiRsijHsywlnWC8iHdyx",
          "id" : "5iYiRsijHsywlnWC8iHdyx",
          "name" : "Redeemer Presbyterian Church",
          "type" : "artist",
          "uri" : "spotify:artist:5iYiRsijHsywlnWC8iHdyx"
        } ],
        "external_urls" : {
          "spotify" : "https://open.spotify.com/album/22urzO5V2A4JZJGMCEd3oU"
        },
        "href" : "https://api.spotify.com/v1/albums/22urzO5V2A4JZJGMCEd3oU",
        "id" : "22urzO5V2A4JZJGMCEd3oU",
        "images" : [ {
          "height" : 640,
          "url" : "https://i.scdn.co/image/ab67616d0000b2730cb575dab9a89338a53e5b55",
          "width" : 640
        }, {
          "height" : 300,
          "url" : "https://i.scdn.co/image/ab67616d00001e020cb575dab9a89338a53e5b55",
          "width" : 300
        }, {
          "height" : 64,
          "url" : "https://i.scdn.co/image/ab67616d000048510cb575dab9a89338a53e5b55",
          "width" : 64
        } ],
        "name" : "Good News, Vol.1",
        "release_date" : "2007-09-12",
        "release_date_precision" : "day",
        "total_tracks" : 13,
        "type" : "album",
        "uri" : "spotify:album:22urzO5V2A4JZJGMCEd3oU"
      },
      "artists" : [ {
        "external_urls" : {
          "spotify" : "https://open.spotify.com/artist/5iYiRsijHsywlnWC8iHdyx"
        },
        "href" : "https://api.spotify.com/v1/artists/5iYiRsijHsywlnWC8iHdyx",
        "id" : "5iYiRsijHsywlnWC8iHdyx",
        "name" : "Redeemer Presbyterian Church",
        "type" : "artist",
        "uri" : "spotify:artist:5iYiRsijHsywlnWC8iHdyx"
      } ],
      "disc_number" : 1,
      "duration_ms" : 191000,
      "explicit" : false,
      "external_ids" : {
        "isrc" : "usx9p0710710"
      },
      "external_urls" : {
        "spotify" : "https://open.spotify.com/track/0Sm9G10hBfHTdy26ol54UQ"
      },
      "href" : "https://api.spotify.com/v1/tracks/0Sm9G10hBfHTdy26ol54UQ",
      "id" : "0Sm9G10hBfHTdy26ol54UQ",
      "is_local" : false,
      "is_playable" : true,
      "name" : "How Sweet The Name Of Jesus Sounds",
      "popularity" : 6,
      "preview_url" : "https://p.scdn.co/mp3-preview/491213d6096715960c5964d86d6e2cb220614781?cid=774b29d4f13844c495f206cafdad9c86",
      "track_number" : 9,
      "type" : "track",
      "uri" : "spotify:track:0Sm9G10hBfHTdy26ol54UQ"
    }, {
      "album" : {
        "album_type" : "compilation",
        "artists" : [ {
          "external_urls" : {
            "spotify" : "https://open.spotify.com/artist/3Be0FxZRoCJ8UPrkwe6Xuw"
          },
          "href" : "https://api.spotify.com/v1/artists/3Be0FxZRoCJ8UPrkwe6Xuw",
          "id" : "3Be0FxZRoCJ8UPrkwe6Xuw",
          "name" : "Stan Whitmire",
          "type" : "artist",
          "uri" : "spotify:artist:3Be0FxZRoCJ8UPrkwe6Xuw"
        } ],
        "external_urls" : {
          "spotify" : "https://open.spotify.com/album/5CoHUKfOXUzfCaJEzS9E8p"
        },
        "href" : "https://api.spotify.com/v1/albums/5CoHUKfOXUzfCaJEzS9E8p",
        "id" : "5CoHUKfOXUzfCaJEzS9E8p",
        "images" : [ {
          "height" : 640,
          "url" : "https://i.scdn.co/image/ab67616d0000b273c61e7d840363d3c07eebe4cd",
          "width" : 640
        }, {
          "height" : 300,
          "url" : "https://i.scdn.co/image/ab67616d00001e02c61e7d840363d3c07eebe4cd",
          "width" : 300
        }, {
          "height" : 64,
          "url" : "https://i.scdn.co/image/ab67616d00004851c61e7d840363d3c07eebe4cd",
          "width" : 64
        } ],
        "name" : "Best Of Stan Whitmire: Hymns And Gospel Favorites",
        "release_date" : "2019-01-18",
        "release_date_precision" : "day",
        "total_tracks" : 15,
        "type" : "album",
        "uri" : "spotify:album:5CoHUKfOXUzfCaJEzS9E8p"
      },
      "artists" : [ {
        "external_urls" : {
          "spotify" : "https://open.spotify.com/artist/3Be0FxZRoCJ8UPrkwe6Xuw"
        },
        "href" : "https://api.spotify.com/v1/artists/3Be0FxZRoCJ8UPrkwe6Xuw",
        "id" : "3Be0FxZRoCJ8UPrkwe6Xuw",
        "name" : "Stan Whitmire",
        "type" : "artist",
        "uri" : "spotify:artist:3Be0FxZRoCJ8UPrkwe6Xuw"
      } ],
      "disc_number" : 1,
      "duration_ms" : 356906,
      "explicit" : false,
      "external_ids" : {
        "isrc" : "US86A1500031"
      },
      "external_urls" : {
        "spotify" : "https://open.spotify.com/track/78I2O789zIsCui9HRt4WUo"
      },
      "href" : "https://api.spotify.com/v1/tracks/78I2O789zIsCui9HRt4WUo",
      "id" : "78I2O789zIsCui9HRt4WUo",
      "is_local" : false,
      "is_playable" : true,
      "name" : "Jesus Is The Sweetest Name I Know / His Name Is Wonderful / O, How I Love Jesus - Medley",
      "popularity" : 8,
      "preview_url" : null,
      "track_number" : 2,
      "type" : "track",
      "uri" : "spotify:track:78I2O789zIsCui9HRt4WUo"
    }, {
      "album" : {
        "album_type" : "album",
        "artists" : [ {
          "external_urls" : {
            "spotify" : "https://open.spotify.com/artist/5No3TUXqj49rLHHzp27icc"
          },
          "href" : "https://api.spotify.com/v1/artists/5No3TUXqj49rLHHzp27icc",
          "id" : "5No3TUXqj49rLHHzp27icc",
          "name" : "The Crown College Choir",
          "type" : "artist",
          "uri" : "spotify:artist:5No3TUXqj49rLHHzp27icc"
        } ],
        "external_urls" : {
          "spotify" : "https://open.spotify.com/album/5pblPNZEAQLciyvQ766FZs"
        },
        "href" : "https://api.spotify.com/v1/albums/5pblPNZEAQLciyvQ766FZs",
        "id" : "5pblPNZEAQLciyvQ766FZs",
        "images" : [ {
          "height" : 640,
          "url" : "https://i.scdn.co/image/ab67616d0000b273c13d57d763296b384b96c888",
          "width" : 640
        }, {
          "height" : 300,
          "url" : "https://i.scdn.co/image/ab67616d00001e02c13d57d763296b384b96c888",
          "width" : 300
        }, {
          "height" : 64,
          "url" : "https://i.scdn.co/image/ab67616d00004851c13d57d763296b384b96c888",
          "width" : 64
        } ],
        "name" : "He Looked Down",
        "release_date" : "2015-02-02",
        "release_date_precision" : "day",
        "total_tracks" : 10,
        "type" : "album",
        "uri" : "spotify:album:5pblPNZEAQLciyvQ766FZs"
      },
      "artists" : [ {
        "external_urls" : {
          "spotify" : "https://open.spotify.com/artist/5No3TUXqj49rLHHzp27icc"
        },
        "href" : "https://api.spotify.com/v1/artists/5No3TUXqj49rLHHzp27icc",
        "id" : "5No3TUXqj49rLHHzp27icc",
        "name" : "The Crown College Choir",
        "type" : "artist",
        "uri" : "spotify:artist:5No3TUXqj49rLHHzp27icc"
      } ],
      "disc_number" : 1,
      "duration_ms" : 175699,
      "explicit" : false,
      "external_ids" : {
        "isrc" : "ushm91638246"
      },
      "external_urls" : {
        "spotify" : "https://open.spotify.com/track/5VCFaJ0strfeF4qqQy72oh"
      },
      "href" : "https://api.spotify.com/v1/tracks/5VCFaJ0strfeF4qqQy72oh",
      "id" : "5VCFaJ0strfeF4qqQy72oh",
      "is_local" : false,
      "is_playable" : true,
      "name" : "How Sweet the Name of Jesus",
      "popularity" : 4,
      "preview_url" : "https://p.scdn.co/mp3-preview/b588613e55f65df843db0d9b443dabdb88c4e8ac?cid=774b29d4f13844c495f206cafdad9c86",
      "track_number" : 3,
      "type" : "track",
      "uri" : "spotify:track:5VCFaJ0strfeF4qqQy72oh"
    }, {
      "album" : {
        "album_type" : "album",
        "artists" : [ {
          "external_urls" : {
            "spotify" : "https://open.spotify.com/artist/41hCpLaR1bEW5ETK3aPvDB"
          },
          "href" : "https://api.spotify.com/v1/artists/41hCpLaR1bEW5ETK3aPvDB",
          "id" : "41hCpLaR1bEW5ETK3aPvDB",
          "name" : "The Eden Symphony Orchestra",
          "type" : "artist",
          "uri" : "spotify:artist:41hCpLaR1bEW5ETK3aPvDB"
        } ],
        "external_urls" : {
          "spotify" : "https://open.spotify.com/album/3mzd1QDo8YOylMucdTTFXR"
        },
        "href" : "https://api.spotify.com/v1/albums/3mzd1QDo8YOylMucdTTFXR",
        "id" : "3mzd1QDo8YOylMucdTTFXR",
        "images" : [ {
          "height" : 640,
          "url" : "https://i.scdn.co/image/ab67616d0000b27381afdcaa5086525cccd7f7b9",
          "width" : 640
        }, {
          "height" : 300,
          "url" : "https://i.scdn.co/image/ab67616d00001e0281afdcaa5086525cccd7f7b9",
          "width" : 300
        }, {
          "height" : 64,
          "url" : "https://i.scdn.co/image/ab67616d0000485181afdcaa5086525cccd7f7b9",
          "width" : 64
        } ],
        "name" : "50 Golden Hymns Vol. 4 - Praise My Soul",
        "release_date" : "2009-05-26",
        "release_date_precision" : "day",
        "total_tracks" : 17,
        "type" : "album",
        "uri" : "spotify:album:3mzd1QDo8YOylMucdTTFXR"
      },
      "artists" : [ {
        "external_urls" : {
          "spotify" : "https://open.spotify.com/artist/3fZ1FMwZqpQGJW82eeg2YN"
        },
        "href" : "https://api.spotify.com/v1/artists/3fZ1FMwZqpQGJW82eeg2YN",
        "id" : "3fZ1FMwZqpQGJW82eeg2YN",
        "name" : "David Shelley Ensemble",
        "type" : "artist",
        "uri" : "spotify:artist:3fZ1FMwZqpQGJW82eeg2YN"
      } ],
      "disc_number" : 1,
      "duration_ms" : 167160,
      "explicit" : false,
      "external_ids" : {
        "isrc" : "GBCEU0671312"
      },
      "external_urls" : {
        "spotify" : "https://open.spotify.com/track/2QR0o3CvWlxd4wLR1pAec7"
      },
      "href" : "https://api.spotify.com/v1/tracks/2QR0o3CvWlxd4wLR1pAec7",
      "id" : "2QR0o3CvWlxd4wLR1pAec7",
      "is_local" : false,
      "is_playable" : true,
      "name" : "How Sweet the Name of Jesus Sounds",
      "popularity" : 7,
      "preview_url" : "https://p.scdn.co/mp3-preview/95305b36becb180b74ab6d2fd1ed36b12a73e508?cid=774b29d4f13844c495f206cafdad9c86",
      "track_number" : 12,
      "type" : "track",
      "uri" : "spotify:track:2QR0o3CvWlxd4wLR1pAec7"
    }, {
      "album" : {
        "album_type" : "album",
        "artists" : [ {
          "external_urls" : {
            "spotify" : "https://open.spotify.com/artist/2TvZP7BtYzz7GeNh9rJXMe"
          },
          "href" : "https://api.spotify.com/v1/artists/2TvZP7BtYzz7GeNh9rJXMe",
          "id" : "2TvZP7BtYzz7GeNh9rJXMe",
          "name" : "Ely Cathedral Choir",
          "type" : "artist",
          "uri" : "spotify:artist:2TvZP7BtYzz7GeNh9rJXMe"
        } ],
        "external_urls" : {
          "spotify" : "https://open.spotify.com/album/195EuY2lkbzE3mJfpVCEge"
        },
        "href" : "https://api.spotify.com/v1/albums/195EuY2lkbzE3mJfpVCEge",
        "id" : "195EuY2lkbzE3mJfpVCEge",
        "images" : [ {
          "height" : 640,
          "url" : "https://i.scdn.co/image/ab67616d0000b273d28f418e2c4f27230c71f211",
          "width" : 640
        }, {
          "height" : 300,
          "url" : "https://i.scdn.co/image/ab67616d00001e02d28f418e2c4f27230c71f211",
          "width" : 300
        }, {
          "height" : 64,
          "url" : "https://i.scdn.co/image/ab67616d00004851d28f418e2c4f27230c71f211",
          "width" : 64
        } ],
        "name" : "Complete New English Hymnal Vol. 3",
        "release_date" : "2000",
        "release_date_precision" : "year",
        "total_tracks" : 26,
        "type" : "album",
        "uri" : "spotify:album:195EuY2lkbzE3mJfpVCEge"
      },
      "artists" : [ {
        "external_urls" : {
          "spotify" : "https://open.spotify.com/artist/2TvZP7BtYzz7GeNh9rJXMe"
        },
        "href" : "https://api.spotify.com/v1/artists/2TvZP7BtYzz7GeNh9rJXMe",
        "id" : "2TvZP7BtYzz7GeNh9rJXMe",
        "name" : "Ely Cathedral Choir",
        "type" : "artist",
        "uri" : "spotify:artist:2TvZP7BtYzz7GeNh9rJXMe"
      } ],
      "disc_number" : 1,
      "duration_ms" : 151693,
      "explicit" : false,
      "external_ids" : {
        "isrc" : "GBXUX0870317"
      },
      "external_urls" : {
        "spotify" : "https://open.spotify.com/track/2ewhuIj9Fcv0lKJij16iZk"
      },
      "href" : "https://api.spotify.com/v1/tracks/2ewhuIj9Fcv0lKJij16iZk",
      "id" : "2ewhuIj9Fcv0lKJij16iZk",
      "is_local" : false,
      "is_playable" : true,
      "name" : "How Sweet the Name of Jesus Sounds",
      "popularity" : 10,
      "preview_url" : "https://p.scdn.co/mp3-preview/c85195aa81a0fcf2af6165fad191f3993e1b5190?cid=774b29d4f13844c495f206cafdad9c86",
      "track_number" : 17,
      "type" : "track",
      "uri" : "spotify:track:2ewhuIj9Fcv0lKJij16iZk"
    }, {
      "album" : {
        "album_type" : "compilation",
        "artists" : [ {
          "external_urls" : {
            "spotify" : "https://open.spotify.com/artist/0LyfQWJT6nXafLPZqxe9Of"
          },
          "href" : "https://api.spotify.com/v1/artists/0LyfQWJT6nXafLPZqxe9Of",
          "id" : "0LyfQWJT6nXafLPZqxe9Of",
          "name" : "Various Artists",
          "type" : "artist",
          "uri" : "spotify:artist:0LyfQWJT6nXafLPZqxe9Of"
        } ],
        "external_urls" : {
          "spotify" : "https://open.spotify.com/album/4CedK4dcXVQagB7CT8fZB1"
        },
        "href" : "https://api.spotify.com/v1/albums/4CedK4dcXVQagB7CT8fZB1",
        "id" : "4CedK4dcXVQagB7CT8fZB1",
        "images" : [ {
          "height" : 640,
          "url" : "https://i.scdn.co/image/ab67616d0000b273e4194d2c4905462046a3a250",
          "width" : 640
        }, {
          "height" : 300,
          "url" : "https://i.scdn.co/image/ab67616d00001e02e4194d2c4905462046a3a250",
          "width" : 300
        }, {
          "height" : 64,
          "url" : "https://i.scdn.co/image/ab67616d00004851e4194d2c4905462046a3a250",
          "width" : 64
        } ],
        "name" : "100 Best Hymns",
        "release_date" : "2011-03-29",
        "release_date_precision" : "day",
        "total_tracks" : 100,
        "type" : "album",
        "uri" : "spotify:album:4CedK4dcXVQagB7CT8fZB1"
      },
      "artists" : [ {
        "external_urls" : {
          "spotify" : "https://open.spotify.com/artist/1y44vKNHGwLPjQI37ErdpX"
        },
        "href" : "https://api.spotify.com/v1/artists/1y44vKNHGwLPjQI37ErdpX",
        "id" : "1y44vKNHGwLPjQI37ErdpX",
        "name" : "A. R. Reinagle",
        "type" : "artist",
        "uri" : "spotify:artist:1y44vKNHGwLPjQI37ErdpX"
      }, {
        "external_urls" : {
          "spotify" : "https://open.spotify.com/artist/4qenjQZBIuPL8Ridz3sLH4"
        },
        "href" : "https://api.spotify.com/v1/artists/4qenjQZBIuPL8Ridz3sLH4",
        "id" : "4qenjQZBIuPL8Ridz3sLH4",
        "name" : "York Minster Choir",
        "type" : "artist",
        "uri" : "spotify:artist:4qenjQZBIuPL8Ridz3sLH4"
      }, {
        "external_urls" : {
          "spotify" : "https://open.spotify.com/artist/7abS4vtKpO3MidQZVbjMBn"
        },
        "href" : "https://api.spotify.com/v1/artists/7abS4vtKpO3MidQZVbjMBn",
        "id" : "7abS4vtKpO3MidQZVbjMBn",
        "name" : "Philip Moore",
        "type" : "artist",
        "uri" : "spotify:artist:7abS4vtKpO3MidQZVbjMBn"
      } ],
      "disc_number" : 3,
      "duration_ms" : 171526,
      "explicit" : false,
      "external_ids" : {
        "isrc" : "GBAYD9600646"
      },
      "external_urls" : {
        "spotify" : "https://open.spotify.com/track/0ZTpHFW8vLFDPltjyvFlci"
      },
      "href" : "https://api.spotify.com/v1/tracks/0ZTpHFW8vLFDPltjyvFlci",
      "id" : "0ZTpHFW8vLFDPltjyvFlci",
      "is_local" : false,
      "is_playable" : true,
      "name" : "How sweet the name of Jesus sounds (St Peter)",
      "popularity" : 4,
      "preview_url" : "https://p.scdn.co/mp3-preview/5ad0f52231310c79e39f1d01b520660fb23ea8da?cid=774b29d4f13844c495f206cafdad9c86",
      "track_number" : 5,
      "type" : "track",
      "uri" : "spotify:track:0ZTpHFW8vLFDPltjyvFlci"
    } ],
    "limit" : 10,
    "next" : "https://api.spotify.com/v1/search?query=How+Sweet+the+Name%21&type=track&market=US&offset=15&limit=10",
    "offset" : 5,
    "previous" : "https://api.spotify.com/v1/search?query=How+Sweet+the+Name%21&type=track&market=US&offset=0&limit=10",
    "total" : 189
  }
}