{
  "tracks" : {
    "href" : "https://api.spotify.com/v1/search?query=I+Sing+the+Mighty+Power+of+God&type=track&market=US&offset=5&limit=10",
    "items" : [ {
      "album" : {
        "album_type" : "album",
        "artists" : [ {
          "external_urls" : {
            "spotify" : "https://open.spotify.com/artist/3c7H6D5r12uXxu6MtYo0Pu"
          },
          "href" : "https://api.spotify.com/v1/artists/3c7H6D5r12uXxu6MtYo0Pu",
          "id" : "3c7H6D5r12uXxu6MtYo0Pu",
          "name" : "Saint A.I.",
          "type" : "artist",
          "uri" : "spotify:artist:3c7H6D5r12uXxu6MtYo0Pu"
        } ],
        "external_urls" : {
          "spotify" : "https://open.spotify.com/album/2FaWTlOc9Q6tTSc6gObipO"
        },
        "href" : "https://api.spotify.com/v1/albums/2FaWTlOc9Q6tTSc6gObipO",
        "id" : "2FaWTlOc9Q6tTSc6gObipO",
        "images" : [ {
          "height" : 640,
          "url" : "https://i.scdn.co/image/ab67616d0000b273ff7d7689fc1f4c22b0cf9d00",
          "width" : 640
        }, {
          "height" : 300,
          "url" : "https://i.scdn.co/image/ab67616d00001e02ff7d7689fc1f4c22b0cf9d00",
          "width" : 300
        }, {
          "height" : 64,
          "url" : "https://i.scdn.co/image/ab67616d00004851ff7d7689fc1f4c22b0cf9d00",
          "width" : 64
        } ],
        "name" : "On High",
        "release_date" : "2019-05-24",
        "release_date_precision" : "day",
        "total_tracks" : 30,
        "type" : "album",
        "uri" : "spotify:album:2FaWTlOc9Q6tTSc6gObipO"
      },
      "artists" : [ {
        "external_urls" : {
          "spotify" : "https://open.spotify.com/artist/3c7H6D5r12uXxu6MtYo0Pu"
        },
        "href" : "https://api.spotify.com/v1/artists/3c7H6D5r12uXxu6MtYo0Pu",
        "id" : "3c7H6D5r12uXxu6MtYo0Pu",
        "name" : "Saint A.I.",
        "type" : "artist",
        "uri" : "spotify:artist:3c7H6D5r12uXxu6MtYo0Pu"
      } ],
      "disc_number" : 1,
      "duration_ms" : 140679,
      "explicit" : false,
      "external_ids" : {
        "isrc" : "TCAEG1915348"
      },
      "external_urls" : {
        "spotify" : "https://open.spotify.com/track/4VzK6RTuTxxCxTzd33vkQ4"
      },
      "href" : "https://api.spotify.com/v1/tracks/4VzK6RTuTxxCxTzd33vkQ4",
      "id" : "4VzK6RTuTxxCxTzd33vkQ4",
      "is_local" : false,
      "is_playable" : true,
      "name" : "I Sing the Mighty Power of God",
      "popularity" : 16,
      "preview_url" : "https://p.scdn.co/mp3-preview/478a6296a85413d35f4492f8bebd0e307aed9c0b?cid=774b29d4f13844c495f206cafdad9c86",
      "track_number" : 4,
      "type" : "track",
      "uri" : "spotify:track:4VzK6RTuTxxCxTzd33vkQ4"
    }, {
      "album" : {
        "album_type" : "album",
        "artists" : [ {
          "external_urls" : {
            "spotify" : "https://open.spotify.com/artist/3bOofoVdItLmnOv4Zn1Vvb"
          },
          "href" : "https://api.spotify.com/v1/artists/3bOofoVdItLmnOv4Zn1Vvb",
          "id" : "3bOofoVdItLmnOv4Zn1Vvb",
          "name" : "The Methodist Hymnal",
          "type" : "artist",
          "uri" : "spotify:artist:3bOofoVdItLmnOv4Zn1Vvb"
        } ],
        "external_urls" : {
          "spotify" : "https://open.spotify.com/album/4kbjUe1ge2ZfYZTbMY1Juy"
        },
        "href" : "https://api.spotify.com/v1/albums/4kbjUe1ge2ZfYZTbMY1Juy",
        "id" : "4kbjUe1ge2ZfYZTbMY1Juy",
        "images" : [ {
          "height" : 640,
          "url" : "https://i.scdn.co/image/ab67616d0000b27375ee0f055d4808292b633312",
          "width" : 640
        }, {
          "height" : 300,
          "url" : "https://i.scdn.co/image/ab67616d00001e0275ee0f055d4808292b633312",
          "width" : 300
        }, {
          "height" : 64,
          "url" : "https://i.scdn.co/image/ab67616d0000485175ee0f055d4808292b633312",
          "width" : 64
        } ],
        "name" : "Hymns For Advent",
        "release_date" : "2015-09-25",
        "release_date_precision" : "day",
        "total_tracks" : 15,
        "type" : "album",
        "uri" : "spotify:album:4kbjUe1ge2ZfYZTbMY1Juy"
      },
      "artists" : [ {
        "external_urls" : {
          "spotify" : "https://open.spotify.com/artist/3bOofoVdItLmnOv4Zn1Vvb"
        },
        "href" : "https://api.spotify.com/v1/artists/3bOofoVdItLmnOv4Zn1Vvb",
        "id" : "3bOofoVdItLmnOv4Zn1Vvb",
        "name" : "The Methodist Hymnal",
        "type" : "artist",
        "uri" : "spotify:artist:3bOofoVdItLmnOv4Zn1Vvb"
      } ],
      "disc_number" : 1,
      "duration_ms" : 132741,
      "explicit" : false,
      "external_ids" : {
        "isrc" : "USLZJ1559382"
      },
      "external_urls" : {
        "spotify" : "https://open.spotify.com/track/62agHqkJLrR8RSzuvlx72G"
      },
      "href" : "https://api.spotify.com/v1/tracks/62agHqkJLrR8RSzuvlx72G",
      "id" : "62agHqkJLrR8RSzuvlx72G",
      "is_local" : false,
      "is_playable" : true,
      "name" : "I Sing The Mighty Power Of God",
      "popularity" : 15,
      "preview_url" : "https://p.scdn.co/mp3-preview/82fe213764a760d6b8c28dfc7b3d12c1b5788643?cid=774b29d4f13844c495f206cafdad9c86",
      "track_number" : 10,
      "type" : "track",
      "uri" : "spotify:track:62agHqkJLrR8RSzuvlx72G"
    }, {
      "album" : {
        "album_type" : "album",
        "artists" : [ {
          "external_urls" : {
            "spotify" : "https://open.spotify.com/artist/0cylxW7HGdK9xMdubw2oYW"
          },
          "href" : "https://api.spotify.com/v1/artists/0cylxW7HGdK9xMdubw2oYW",
          "id" : "0cylxW7HGdK9xMdubw2oYW",
          "name" : "The O'Neill Brothers Group",
          "type" : "artist",
          "uri" : "spotify:artist:0cylxW7HGdK9xMdubw2oYW"
        } ],
        "external_urls" : {
          "spotify" : "https://open.spotify.com/album/22ks09J5vktysh0kHTIKZV"
        },
        "href" : "https://api.spotify.com/v1/albums/22ks09J5vktysh0kHTIKZV",
        "id" : "22ks09J5vktysh0kHTIKZV",
        "images" : [ {
          "height" : 640,
          "url" : "https://i.scdn.co/image/ab67616d0000b273e43a83b1e049047436b83978",
          "width" : 640
        }, {
          "height" : 300,
          "url" : "https://i.scdn.co/image/ab67616d00001e02e43a83b1e049047436b83978",
          "width" : 300
        }, {
          "height" : 64,
          "url" : "https://i.scdn.co/image/ab67616d00004851e43a83b1e049047436b83978",
          "width" : 64
        } ],
        "name" : "Catholic Piano Hymns",
        "release_date" : "2013-05-29",
        "release_date_precision" : "day",
        "total_tracks" : 20,
        "type" : "album",
        "uri" : "spotify:album:22ks09J5vktysh0kHTIKZV"
      },
      "artists" : [ {
        "external_urls" : {
          "spotify" : "https://open.spotify.com/artist/0cylxW7HGdK9xMdubw2oYW"
        },
        "href" : "https://api.spotify.com/v1/artists/0cylxW7HGdK9xMdubw2oYW",
        "id" : "0cylxW7HGdK9xMdubw2oYW",
        "name" : "The O'Neill Brothers Group",
        "type" : "artist",
        "uri" : "spotify:artist:0cylxW7HGdK9xMdubw2oYW"
      } ],
      "disc_number" : 1,
      "duration_ms" : 161600,
      "explicit" : false,
      "external_ids" : {
        "isrc" : "USA371630428"
      },
      "external_urls" : {
        "spotify" : "https://open.spotify.com/track/7tyEr14ywCz9vKamrBlXE6"
      },
      "href" : "https://api.spotify.com/v1/tracks/7tyEr14ywCz9vKamrBlXE6",
      "id" : "7tyEr14ywCz9vKamrBlXE6",
      "is_local" : false,
      "is_playable" : true,
      "name" : "I Sing the Mighty Power of God",
      "popularity" : 15,
      "preview_url" : "https://p.scdn.co/mp3-preview/95af2cecbe564379835931897a3eed1fe34fa1b1?cid=774b29d4f13844c495f206cafdad9c86",
      "track_number" : 8,
      "type" : "track",
      "uri" : "spotify:track:7tyEr14ywCz9vKamrBlXE6"
    }, {
      "album" : {
        "album_type" : "album",
        "artists" : [ {
          "external_urls" : {
            "spotify" : "https://open.spotify.com/artist/4A2lxURnBv3qWwRbedn5oL"
          },
          "href" : "https://api.spotify.com/v1/artists/4A2lxURnBv3qWwRbedn5oL",
          "id" : "4A2lxURnBv3qWwRbedn5oL",
          "name" : "The Stoltzfus Family",
          "type" : "artist",
          "uri" : "spotify:artist:4A2lxURnBv3qWwRbedn5oL"
        } ],
        "external_urls" : {
          "spotify" : "https://open.spotify.com/album/2sGD0NahC5E5q5kkDy846n"
        },
        "href" : "https://api.spotify.com/v1/albums/2sGD0NahC5E5q5kkDy846n",
        "id" : "2sGD0NahC5E5q5kkDy846n",
        "images" : [ {
          "height" : 640,
          "url" : "https://i.scdn.co/image/ab67616d0000b2736d2fbe83ce347cb78cda80de",
          "width" : 640
        }, {
          "height" : 300,
          "url" : "https://i.scdn.co/image/ab67616d00001e026d2fbe83ce347cb78cda80de",
          "width" : 300
        }, {
          "height" : 64,
          "url" : "https://i.scdn.co/image/ab67616d000048516d2fbe83ce347cb78cda80de",
          "width" : 64
        } ],
        "name" : "Everywhere I Go",
        "release_date" : "2019-04-27",
        "release_date_precision" : "day",
        "total_tracks" : 11,
        "type" : "album",
        "uri" : "spotify:album:2sGD0NahC5E5q5kkDy846n"
      },
      "artists" : [ {
        "external_urls" : {
          "spotify" : "https://open.spotify.com/artist/4A2lxURnBv3qWwRbedn5oL"
        },
        "href" : "https://api.spotify.com/v1/artists/4A2lxURnBv3qWwRbedn5oL",
        "id" : "4A2lxURnBv3qWwRbedn5oL",
        "name" : "The Stoltzfus Family",
        "type" : "artist",
        "uri" : "spotify:artist:4A2lxURnBv3qWwRbedn5oL"
      } ],
      "disc_number" : 1,
      "duration_ms" : 239189,
      "explicit" : false,
      "external_ids" : {
        "isrc" : "USDHM1913338"
      },
      "external_urls" : {
        "spotify" : "https://open.spotify.com/track/1NBiBEwBHARPvFyfELHgED"
      },
      "href" : "https://api.spotify.com/v1/tracks/1NBiBEwBHARPvFyfELHgED",
      "id" : "1NBiBEwBHARPvFyfELHgED",
      "is_local" : false,
      "is_playable" : true,
      "name" : "I Sing the Mighty Power of God",
      "popularity" : 12,
      "preview_url" : "https://p.scdn.co/mp3-preview/950883e46d22f21df5bbb960fe65d08c34d9400b?cid=774b29d4f13844c495f206cafdad9c86",
      "track_number" : 10,
      "type" : "track",
      "uri" : "spotify:track:1NBiBEwBHARPvFyfELHgED"
    }, {
      "album" : {
        "album_type" : "album",
        "artists" : [ {
          "external_urls" : {
            "spotify" : "https://open.spotify.com/artist/7gjHSq6MQ3C2RNdlIkbYnG"
          },
          "href" : "https://api.spotify.com/v1/artists/7gjHSq6MQ3C2RNdlIkbYnG",
          "id" : "7gjHSq6MQ3C2RNdlIkbYnG",
          "name" : "Instrumental Christian Songs, Christian Piano Music",
          "type" : "artist",
          "uri" : "spotify:artist:7gjHSq6MQ3C2RNdlIkbYnG"
        }, {
          "external_urls" : {
            "spotify" : "https://open.spotify.com/artist/0cylxW7HGdK9xMdubw2oYW"
          },
          "href" : "https://api.spotify.com/v1/artists/0cylxW7HGdK9xMdubw2oYW",
          "id" : "0cylxW7HGdK9xMdubw2oYW",
          "name" : "The O'Neill Brothers Group",
          "type" : "artist",
          "uri" : "spotify:artist:0cylxW7HGdK9xMdubw2oYW"
        }, {
          "external_urls" : {
            "spotify" : "https://open.spotify.com/artist/07MOqUaJ2WqGGHQlpcz9H3"
          },
          "href" : "https://api.spotify.com/v1/artists/07MOqUaJ2WqGGHQlpcz9H3",
          "id" : "07MOqUaJ2WqGGHQlpcz9H3",
          "name" : "Praise and Worship",
          "type" : "artist",
          "uri" : "spotify:artist:07MOqUaJ2WqGGHQlpcz9H3"
        } ],
        "external_urls" : {
          "spotify" : "https://open.spotify.com/album/2hoefHLF5c0EDLzxI06pWT"
        },
        "href" : "https://api.spotify.com/v1/albums/2hoefHLF5c0EDLzxI06pWT",
        "id" : "2hoefHLF5c0EDLzxI06pWT",
        "images" : [ {
          "height" : 640,
          "url" : "https://i.scdn.co/image/ab67616d0000b27388455cd65f245e27ff36279c",
          "width" : 640
        }, {
          "height" : 300,
          "url" : "https://i.scdn.co/image/ab67616d00001e0288455cd65f245e27ff36279c",
          "width" : 300
        }, {
          "height" : 64,
          "url" : "https://i.scdn.co/image/ab67616d0000485188455cd65f245e27ff36279c",
          "width" : 64
        } ],
        "name" : "On Eagle's Wings - Peaceful Music for Reflection and Praise",
        "release_date" : "2016-09-30",
        "release_date_precision" : "day",
        "total_tracks" : 15,
        "type" : "album",
        "uri" : "spotify:album:2hoefHLF5c0EDLzxI06pWT"
      },
      "artists" : [ {
        "external_urls" : {
          "spotify" : "https://open.spotify.com/artist/7gjHSq6MQ3C2RNdlIkbYnG"
        },
        "href" : "https://api.spotify.com/v1/artists/7gjHSq6MQ3C2RNdlIkbYnG",
        "id" : "7gjHSq6MQ3C2RNdlIkbYnG",
        "name" : "Instrumental Christian Songs, Christian Piano Music",
        "type" : "artist",
        "uri" : "spotify:artist:7gjHSq6MQ3C2RNdlIkbYnG"
      }, {
        "external_urls" : {
          "spotify" : "https://open.spotify.com/artist/0cylxW7HGdK9xMdubw2oYW"
        },
        "href" : "https://api.spotify.com/v1/artists/0cylxW7HGdK9xMdubw2oYW",
        "id" : "0cylxW7HGdK9xMdubw2oYW",
        "name" : "The O'Neill Brothers Group",
        "type" : "artist",
        "uri" : "spotify:artist:0cylxW7HGdK9xMdubw2oYW"
      }, {
        "external_urls" : {
          "spotify" : "https://open.spotify.com/artist/07MOqUaJ2WqGGHQlpcz9H3"
        },
        "href" : "https://api.spotify.com/v1/artists/07MOqUaJ2WqGGHQlpcz9H3",
        "id" : "07MOqUaJ2WqGGHQlpcz9H3",
        "name" : "Praise and Worship",
        "type" : "artist",
        "uri" : "spotify:artist:07MOqUaJ2WqGGHQlpcz9H3"
      } ],
      "disc_number" : 1,
      "duration_ms" : 161600,
      "explicit" : false,
      "external_ids" : {
        "isrc" : "TCACS1632124"
      },
      "external_urls" : {
        "spotify" : "https://open.spotify.com/track/4hlqe4GqsvmACSjJnMtF1Z"
      },
      "href" : "https://api.spotify.com/v1/tracks/4hlqe4GqsvmACSjJnMtF1Z",
      "id" : "4hlqe4GqsvmACSjJnMtF1Z",
      "is_local" : false,
      "is_playable" : true,
      "name" : "I Sing the Mighty Power of God (Instrumental Version)",
      "popularity" : 13,
      "preview_url" : "https://p.scdn.co/mp3-preview/95af2cecbe564379835931897a3eed1fe34fa1b1?cid=774b29d4f13844c495f206cafdad9c86",
      "track_number" : 8,
      "type" : "track",
      "uri" : "spotify:track:4hlqe4GqsvmACSjJnMtF1Z"
    }, {
      "album" : {
        "album_type" : "album",
        "artists" : [ {
          "external_urls" : {
            "spotify" : "https://open.spotify.com/artist/5ljRAiIgLFVxzWg7vS1Rnl"
          },
          "href" : "https://api.spotify.com/v1/artists/5ljRAiIgLFVxzWg7vS1Rnl",
          "id" : "5ljRAiIgLFVxzWg7vS1Rnl",
          "name" : "Christian Devotion",
          "type" : "artist",
          "uri" : "spotify:artist:5ljRAiIgLFVxzWg7vS1Rnl"
        } ],
        "external_urls" : {
          "spotify" : "https://open.spotify.com/album/5qR3O4U7NpxK4ORGlELvIF"
        },
        "href" : "https://api.spotify.com/v1/albums/5qR3O4U7NpxK4ORGlELvIF",
        "id" : "5qR3O4U7NpxK4ORGlELvIF",
        "images" : [ {
          "height" : 640,
          "url" : "https://i.scdn.co/image/ab67616d0000b27352cc89c1b49ef94fed413951",
          "width" : 640
        }, {
          "height" : 300,
          "url" : "https://i.scdn.co/image/ab67616d00001e0252cc89c1b49ef94fed413951",
          "width" : 300
        }, {
          "height" : 64,
          "url" : "https://i.scdn.co/image/ab67616d0000485152cc89c1b49ef94fed413951",
          "width" : 64
        } ],
        "name" : "Quiet Time",
        "release_date" : "2015-12-21",
        "release_date_precision" : "day",
        "total_tracks" : 18,
        "type" : "album",
        "uri" : "spotify:album:5qR3O4U7NpxK4ORGlELvIF"
      },
      "artists" : [ {
        "external_urls" : {
          "spotify" : "https://open.spotify.com/artist/5ljRAiIgLFVxzWg7vS1Rnl"
        },
        "href" : "https://api.spotify.com/v1/artists/5ljRAiIgLFVxzWg7vS1Rnl",
        "id" : "5ljRAiIgLFVxzWg7vS1Rnl",
        "name" : "Christian Devotion",
        "type" : "artist",
        "uri" : "spotify:artist:5ljRAiIgLFVxzWg7vS1Rnl"
      } ],
      "disc_number" : 1,
      "duration_ms" : 132741,
      "explicit" : false,
      "external_ids" : {
        "isrc" : "USA2P1563051"
      },
      "external_urls" : {
        "spotify" : "https://open.spotify.com/track/1XI99dX2soiKEMng7Zg1zF"
      },
      "href" : "https://api.spotify.com/v1/tracks/1XI99dX2soiKEMng7Zg1zF",
      "id" : "1XI99dX2soiKEMng7Zg1zF",
      "is_local" : false,
      "is_playable" : true,
      "name" : "I Sing the Mighty Power of God",
      "popularity" : 10,
      "preview_url" : "https://p.scdn.co/mp3-preview/139c503a8ccf86c81f80e6517e3ea2887899b9ce?cid=774b29d4f13844c495f206cafdad9c86",
      "track_number" : 6,
      "type" : "track",
      "uri" : "spotify:track:1XI99dX2soiKEMng7Zg1zF"
    }, {
      "album" : {
        "album_type" : "album",
        "artists" : [ {
          "external_urls" : {
            "spotify" : "https://open.spotify.com/artist/76De3CbnkyCKbNg5vDSqI7"
          },
          "href" : "https://api.spotify.com/v1/artists/76De3CbnkyCKbNg5vDSqI7",
          "id" : "76De3CbnkyCKbNg5vDSqI7",
          "name" : "The Hoppers",
          "type" : "artist",
          "uri" : "spotify:artist:76De3CbnkyCKbNg5vDSqI7"
        } ],
        "external_urls" : {
          "spotify" : "https://open.spotify.com/album/6eO3Xn0ICDb8tJXNefbHcv"
        },
        "href" : "https://api.spotify.com/v1/albums/6eO3Xn0ICDb8tJXNefbHcv",
        "id" : "6eO3Xn0ICDb8tJXNefbHcv",
        "images" : [ {
          "height" : 640,
          "url" : "https://i.scdn.co/image/ab67616d0000b273d2d8c3f524d417c9bf74e189",
          "width" : 640
        }, {
          "height" : 300,
          "url" : "https://i.scdn.co/image/ab67616d00001e02d2d8c3f524d417c9bf74e189",
          "width" : 300
        }, {
          "height" : 64,
          "url" : "https://i.scdn.co/image/ab67616d00004851d2d8c3f524d417c9bf74e189",
          "width" : 64
        } ],
        "name" : "Hymns: A Classic Collection",
        "release_date" : "2011-01-01",
        "release_date_precision" : "day",
        "total_tracks" : 14,
        "type" : "album",
        "uri" : "spotify:album:6eO3Xn0ICDb8tJXNefbHcv"
      },
      "artists" : [ {
        "external_urls" : {
          "spotify" : "https://open.spotify.com/artist/76De3CbnkyCKbNg5vDSqI7"
        },
        "href" : "https://api.spotify.com/v1/artists/76De3CbnkyCKbNg5vDSqI7",
        "id" : "76De3CbnkyCKbNg5vDSqI7",
        "name" : "The Hoppers",
        "type" : "artist",
        "uri" : "spotify:artist:76De3CbnkyCKbNg5vDSqI7"
      } ],
      "disc_number" : 1,
      "duration_ms" : 163573,
      "explicit" : false,
      "external_ids" : {
        "isrc" : "USB4U1100326"
      },
      "external_urls" : {
        "spotify" : "https://open.spotify.com/track/23l7bHh4J2ERlpeOomZ6s3"
      },
      "href" : "https://api.spotify.com/v1/tracks/23l7bHh4J2ERlpeOomZ6s3",
      "id" : "23l7bHh4J2ERlpeOomZ6s3",
      "is_local" : false,
      "is_playable" : true,
      "name" : "I Sing The Mighty Power Of God",
      "popularity" : 11,
      "preview_url" : null,
      "track_number" : 3,
      "type" : "track",
      "uri" : "spotify:track:23l7bHh4J2ERlpeOomZ6s3"
    }, {
      "album" : {
        "album_type" : "album",
        "artists" : [ {
          "external_urls" : {
            "spotify" : "https://open.spotify.com/artist/4rhwll8EPEHOW8diluKlrZ"
          },
          "href" : "https://api.spotify.com/v1/artists/4rhwll8EPEHOW8diluKlrZ",
          "id" : "4rhwll8EPEHOW8diluKlrZ",
          "name" : "Glad",
          "type" : "artist",
          "uri" : "spotify:artist:4rhwll8EPEHOW8diluKlrZ"
        } ],
        "external_urls" : {
          "spotify" : "https://open.spotify.com/album/2Cedx5QpLOJvFsVuMBbwAl"
        },
        "href" : "https://api.spotify.com/v1/albums/2Cedx5QpLOJvFsVuMBbwAl",
        "id" : "2Cedx5QpLOJvFsVuMBbwAl",
        "images" : [ {
          "height" : 640,
          "url" : "https://i.scdn.co/image/ab67616d0000b2737414383023c2b90365732ea9",
          "width" : 640
        }, {
          "height" : 300,
          "url" : "https://i.scdn.co/image/ab67616d00001e027414383023c2b90365732ea9",
          "width" : 300
        }, {
          "height" : 64,
          "url" : "https://i.scdn.co/image/ab67616d000048517414383023c2b90365732ea9",
          "width" : 64
        } ],
        "name" : "Acapella Hymns",
        "release_date" : "1993",
        "release_date_precision" : "year",
        "total_tracks" : 14,
        "type" : "album",
        "uri" : "spotify:album:2Cedx5QpLOJvFsVuMBbwAl"
      },
      "artists" : [ {
        "external_urls" : {
          "spotify" : "https://open.spotify.com/artist/4rhwll8EPEHOW8diluKlrZ"
        },
        "href" : "https://api.spotify.com/v1/artists/4rhwll8EPEHOW8diluKlrZ",
        "id" : "4rhwll8EPEHOW8diluKlrZ",
        "name" : "Glad",
        "type" : "artist",
        "uri" : "spotify:artist:4rhwll8EPEHOW8diluKlrZ"
      } ],
      "disc_number" : 1,
      "duration_ms" : 209266,
      "explicit" : false,
      "external_ids" : {
        "isrc" : "USA5W0404835"
      },
      "external_urls" : {
        "spotify" : "https://open.spotify.com/track/0iVESP2cVhQYA2cqK0QE9J"
      },
      "href" : "https://api.spotify.com/v1/tracks/0iVESP2cVhQYA2cqK0QE9J",
      "id" : "0iVESP2cVhQYA2cqK0QE9J",
      "is_local" : false,
      "is_playable" : true,
      "name" : "I Sing the Mighty Power of God",
      "popularity" : 10,
      "preview_url" : "https://p.scdn.co/mp3-preview/5e729f71d279bd14962b58bccb203b1d4c8e64e4?cid=774b29d4f13844c495f206cafdad9c86",
      "track_number" : 7,
      "type" : "track",
      "uri" : "spotify:track:0iVESP2cVhQYA2cqK0QE9J"
    }, {
      "album" : {
        "album_type" : "album",
        "artists" : [ {
          "external_urls" : {
            "spotify" : "https://open.spotify.com/artist/4wsTMvkVb64q3oIV7omVFv"
          },
          "href" : "https://api.spotify.com/v1/artists/4wsTMvkVb64q3oIV7omVFv",
          "id" : "4wsTMvkVb64q3oIV7omVFv",
          "name" : "The Coventry Singers",
          "type" : "artist",
          "uri" : "spotify:artist:4wsTMvkVb64q3oIV7omVFv"
        } ],
        "external_urls" : {
          "spotify" : "https://open.spotify.com/album/1kZxotLCy59UtAMpxOHx7N"
        },
        "href" : "https://api.spotify.com/v1/albums/1kZxotLCy59UtAMpxOHx7N",
        "id" : "1kZxotLCy59UtAMpxOHx7N",
        "images" : [ {
          "height" : 640,
          "url" : "https://i.scdn.co/image/ab67616d0000b2731388326568dfd6526e8edc95",
          "width" : 640
        }, {
          "height" : 300,
          "url" : "https://i.scdn.co/image/ab67616d00001e021388326568dfd6526e8edc95",
          "width" : 300
        }, {
          "height" : 64,
          "url" : "https://i.scdn.co/image/ab67616d000048511388326568dfd6526e8edc95",
          "width" : 64
        } ],
        "name" : "The Hymn Writers: Isaac Watts",
        "release_date" : "2013-02-18",
        "release_date_precision" : "day",
        "total_tracks" : 15,
        "type" : "album",
        "uri" : "spotify:album:1kZxotLCy59UtAMpxOHx7N"
      },
      "artists" : [ {
        "external_urls" : {
          "spotify" : "https://open.spotify.com/artist/4wsTMvkVb64q3oIV7omVFv"
        },
        "href" : "https://api.spotify.com/v1/artists/4wsTMvkVb64q3oIV7omVFv",
        "id" : "4wsTMvkVb64q3oIV7omVFv",
        "name" : "The Coventry Singers",
        "type" : "artist",
        "uri" : "spotify:artist:4wsTMvkVb64q3oIV7omVFv"
      } ],
      "disc_number" : 1,
      "duration_ms" : 125693,
      "explicit" : false,
      "external_ids" : {
        "isrc" : "GBME51301406"
      },
      "external_urls" : {
        "spotify" : "https://open.spotify.com/track/6xbkErm9IHigw5kxAORgTz"
      },
      "href" : "https://api.spotify.com/v1/tracks/6xbkErm9IHigw5kxAORgTz",
      "id" : "6xbkErm9IHigw5kxAORgTz",
      "is_local" : false,
      "is_playable" : true,
      "name" : "I Sing the Mighty Power of God",
      "popularity" : 12,
      "preview_url" : "https://p.scdn.co/mp3-preview/8fa8fdc82a8dbf9e8c4e9313233b5c4717649b24?cid=774b29d4f13844c495f206cafdad9c86",
      "track_number" : 6,
      "type" : "track",
      "uri" : "spotify:track:6xbkErm9IHigw5kxAORgTz"
    }, {
      "album" : {
        "album_type" : "album",
        "artists" : [ {
          "external_urls" : {
            "spotify" : "https://open.spotify.com/artist/2bOMiPcHHX8Mk3B7azCSko"
          },
          "href" : "https://api.spotify.com/v1/artists/2bOMiPcHHX8Mk3B7azCSko",
          "id" : "2bOMiPcHHX8Mk3B7azCSko",
          "name" : "Steve Pettit Evangelistic Team",
          "type" : "artist",
          "uri" : "spotify:artist:2bOMiPcHHX8Mk3B7azCSko"
        } ],
        "external_urls" : {
          "spotify" : "https://open.spotify.com/album/3AzByVmhF4IV66lAIHnnEx"
        },
        "href" : "https://api.spotify.com/v1/albums/3AzByVmhF4IV66lAIHnnEx",
        "id" : "3AzByVmhF4IV66lAIHnnEx",
        "images" : [ {
          "height" : 640,
          "url" : "https://i.scdn.co/image/ab67616d0000b273de019a234fa905ec2090b135",
          "width" : 640
        }, {
          "height" : 300,
          "url" : "https://i.scdn.co/image/ab67616d00001e02de019a234fa905ec2090b135",
          "width" : 300
        }, {
          "height" : 64,
          "url" : "https://i.scdn.co/image/ab67616d00004851de019a234fa905ec2090b135",
          "width" : 64
        } ],
        "name" : "A Firm Foundation",
        "release_date" : "2008-05-05",
        "release_date_precision" : "day",
        "total_tracks" : 14,
        "type" : "album",
        "uri" : "spotify:album:3AzByVmhF4IV66lAIHnnEx"
      },
      "artists" : [ {
        "external_urls" : {
          "spotify" : "https://open.spotify.com/artist/2bOMiPcHHX8Mk3B7azCSko"
        },
        "href" : "https://api.spotify.com/v1/artists/2bOMiPcHHX8Mk3B7azCSko",
        "id" : "2bOMiPcHHX8Mk3B7azCSko",
        "name" : "Steve Pettit Evangelistic Team",
        "type" : "artist",
        "uri" : "spotify:artist:2bOMiPcHHX8Mk3B7azCSko"
      } ],
      "disc_number" : 1,
      "duration_ms" : 180266,
      "explicit" : false,
      "external_ids" : {
        "isrc" : "usju30800004"
      },
      "external_urls" : {
        "spotify" : "https://open.spotify.com/track/0PGpEvT0EjG4AT1IjEiXdO"
      },
      "href" : "https://api.spotify.com/v1/tracks/0PGpEvT0EjG4AT1IjEiXdO",
      "id" : "0PGpEvT0EjG4AT1IjEiXdO",
      "is_local" : false,
      "is_playable" : true,
      "name" : "I Sing The Mighty Power Of God",
      "popularity" : 11,
      "preview_url" : "https://p.scdn.co/mp3-preview/9813738410558afd455cdb69e062907e2e6ddc0b?cid=774b29d4f13844c495f206cafdad9c86",
      "track_number" : 12,
      "type" : "track",
      "uri" : "spotify:track:0PGpEvT0EjG4AT1IjEiXdO"
    } ],
    "limit" : 10,
    "next" : "https://api.spotify.com/v1/search?query=I+Sing+the+Mighty+Power+of+God&type=track&market=US&offset=15&limit=10",
    "offset" : 5,
    "previous" : "https://api.spotify.com/v1/search?query=I+Sing+the+Mighty+Power+of+God&type=track&market=US&offset=0&limit=10",
    "total" : 200
  }
}