{
  "tracks" : {
    "href" : "https://api.spotify.com/v1/search?query=Go%2C+Tell+It+on+the+Mountain&type=track&market=US&offset=5&limit=10",
    "items" : [ {
      "album" : {
        "album_type" : "album",
        "artists" : [ {
          "external_urls" : {
            "spotify" : "https://open.spotify.com/artist/6gpOLOIn9tu4nfK52nrAIM"
          },
          "href" : "https://api.spotify.com/v1/artists/6gpOLOIn9tu4nfK52nrAIM",
          "id" : "6gpOLOIn9tu4nfK52nrAIM",
          "name" : "Zeno",
          "type" : "artist",
          "uri" : "spotify:artist:6gpOLOIn9tu4nfK52nrAIM"
        } ],
        "external_urls" : {
          "spotify" : "https://open.spotify.com/album/0vL6HqSFq0gyS9l6SDZ7b6"
        },
        "href" : "https://api.spotify.com/v1/albums/0vL6HqSFq0gyS9l6SDZ7b6",
        "id" : "0vL6HqSFq0gyS9l6SDZ7b6",
        "images" : [ {
          "height" : 640,
          "url" : "https://i.scdn.co/image/ab67616d0000b2737ac616a233045012e5ecefe8",
          "width" : 640
        }, {
          "height" : 300,
          "url" : "https://i.scdn.co/image/ab67616d00001e027ac616a233045012e5ecefe8",
          "width" : 300
        }, {
          "height" : 64,
          "url" : "https://i.scdn.co/image/ab67616d000048517ac616a233045012e5ecefe8",
          "width" : 64
        } ],
        "name" : "Instrumental Worship, Vol. 3",
        "release_date" : "2016-05-31",
        "release_date_precision" : "day",
        "total_tracks" : 10,
        "type" : "album",
        "uri" : "spotify:album:0vL6HqSFq0gyS9l6SDZ7b6"
      },
      "artists" : [ {
        "external_urls" : {
          "spotify" : "https://open.spotify.com/artist/6gpOLOIn9tu4nfK52nrAIM"
        },
        "href" : "https://api.spotify.com/v1/artists/6gpOLOIn9tu4nfK52nrAIM",
        "id" : "6gpOLOIn9tu4nfK52nrAIM",
        "name" : "Zeno",
        "type" : "artist",
        "uri" : "spotify:artist:6gpOLOIn9tu4nfK52nrAIM"
      } ],
      "disc_number" : 1,
      "duration_ms" : 142613,
      "explicit" : false,
      "external_ids" : {
        "isrc" : "USE831569572"
      },
      "external_urls" : {
        "spotify" : "https://open.spotify.com/track/2qFj5HiEi5lmskhbXSNBOY"
      },
      "href" : "https://api.spotify.com/v1/tracks/2qFj5HiEi5lmskhbXSNBOY",
      "id" : "2qFj5HiEi5lmskhbXSNBOY",
      "is_local" : false,
      "is_playable" : true,
      "name" : "Go Tell It On The Mountain",
      "popularity" : 29,
      "preview_url" : "https://p.scdn.co/mp3-preview/8d103c36810d9a8dede1364b7590126cfae0220d?cid=774b29d4f13844c495f206cafdad9c86",
      "track_number" : 9,
      "type" : "track",
      "uri" : "spotify:track:2qFj5HiEi5lmskhbXSNBOY"
    }, {
      "album" : {
        "album_type" : "album",
        "artists" : [ {
          "external_urls" : {
            "spotify" : "https://open.spotify.com/artist/7DhP3bGT7dzr1dCkkH5mTS"
          },
          "href" : "https://api.spotify.com/v1/artists/7DhP3bGT7dzr1dCkkH5mTS",
          "id" : "7DhP3bGT7dzr1dCkkH5mTS",
          "name" : "David Crowder Band",
          "type" : "artist",
          "uri" : "spotify:artist:7DhP3bGT7dzr1dCkkH5mTS"
        } ],
        "external_urls" : {
          "spotify" : "https://open.spotify.com/album/60gR2ddrmeKIQBYnVoc4Bi"
        },
        "href" : "https://api.spotify.com/v1/albums/60gR2ddrmeKIQBYnVoc4Bi",
        "id" : "60gR2ddrmeKIQBYnVoc4Bi",
        "images" : [ {
          "height" : 640,
          "url" : "https://i.scdn.co/image/ab67616d0000b2739af1c3ce9985d5f8a01ec2fd",
          "width" : 640
        }, {
          "height" : 300,
          "url" : "https://i.scdn.co/image/ab67616d00001e029af1c3ce9985d5f8a01ec2fd",
          "width" : 300
        }, {
          "height" : 64,
          "url" : "https://i.scdn.co/image/ab67616d000048519af1c3ce9985d5f8a01ec2fd",
          "width" : 64
        } ],
        "name" : "Oh For Joy",
        "release_date" : "2011-01-01",
        "release_date_precision" : "day",
        "total_tracks" : 8,
        "type" : "album",
        "uri" : "spotify:album:60gR2ddrmeKIQBYnVoc4Bi"
      },
      "artists" : [ {
        "external_urls" : {
          "spotify" : "https://open.spotify.com/artist/7DhP3bGT7dzr1dCkkH5mTS"
        },
        "href" : "https://api.spotify.com/v1/artists/7DhP3bGT7dzr1dCkkH5mTS",
        "id" : "7DhP3bGT7dzr1dCkkH5mTS",
        "name" : "David Crowder Band",
        "type" : "artist",
        "uri" : "spotify:artist:7DhP3bGT7dzr1dCkkH5mTS"
      } ],
      "disc_number" : 1,
      "duration_ms" : 280613,
      "explicit" : false,
      "external_ids" : {
        "isrc" : "USSP31100197"
      },
      "external_urls" : {
        "spotify" : "https://open.spotify.com/track/0eOhwbBdUKvB5M8P3suoXW"
      },
      "href" : "https://api.spotify.com/v1/tracks/0eOhwbBdUKvB5M8P3suoXW",
      "id" : "0eOhwbBdUKvB5M8P3suoXW",
      "is_local" : false,
      "is_playable" : true,
      "name" : "Go, Tell It On The Mountain",
      "popularity" : 25,
      "preview_url" : null,
      "track_number" : 3,
      "type" : "track",
      "uri" : "spotify:track:0eOhwbBdUKvB5M8P3suoXW"
    }, {
      "album" : {
        "album_type" : "album",
        "artists" : [ {
          "external_urls" : {
            "spotify" : "https://open.spotify.com/artist/0MCU2OpgnSB7rm5UPUMHgt"
          },
          "href" : "https://api.spotify.com/v1/artists/0MCU2OpgnSB7rm5UPUMHgt",
          "id" : "0MCU2OpgnSB7rm5UPUMHgt",
          "name" : "Cedarmont Kids",
          "type" : "artist",
          "uri" : "spotify:artist:0MCU2OpgnSB7rm5UPUMHgt"
        } ],
        "external_urls" : {
          "spotify" : "https://open.spotify.com/album/4YSuzBvt9mppuiha44U2dX"
        },
        "href" : "https://api.spotify.com/v1/albums/4YSuzBvt9mppuiha44U2dX",
        "id" : "4YSuzBvt9mppuiha44U2dX",
        "images" : [ {
          "height" : 640,
          "url" : "https://i.scdn.co/image/ab67616d0000b27379830a35634f3b75ebeebf46",
          "width" : 640
        }, {
          "height" : 300,
          "url" : "https://i.scdn.co/image/ab67616d00001e0279830a35634f3b75ebeebf46",
          "width" : 300
        }, {
          "height" : 64,
          "url" : "https://i.scdn.co/image/ab67616d0000485179830a35634f3b75ebeebf46",
          "width" : 64
        } ],
        "name" : "Sunday School Songs",
        "release_date" : "1993",
        "release_date_precision" : "year",
        "total_tracks" : 30,
        "type" : "album",
        "uri" : "spotify:album:4YSuzBvt9mppuiha44U2dX"
      },
      "artists" : [ {
        "external_urls" : {
          "spotify" : "https://open.spotify.com/artist/0MCU2OpgnSB7rm5UPUMHgt"
        },
        "href" : "https://api.spotify.com/v1/artists/0MCU2OpgnSB7rm5UPUMHgt",
        "id" : "0MCU2OpgnSB7rm5UPUMHgt",
        "name" : "Cedarmont Kids",
        "type" : "artist",
        "uri" : "spotify:artist:0MCU2OpgnSB7rm5UPUMHgt"
      } ],
      "disc_number" : 1,
      "duration_ms" : 124613,
      "explicit" : false,
      "external_ids" : {
        "isrc" : "USA5W0400327"
      },
      "external_urls" : {
        "spotify" : "https://open.spotify.com/track/5zOBRZ33507IYPk4OHUxnH"
      },
      "href" : "https://api.spotify.com/v1/tracks/5zOBRZ33507IYPk4OHUxnH",
      "id" : "5zOBRZ33507IYPk4OHUxnH",
      "is_local" : false,
      "is_playable" : true,
      "name" : "Go, Tell It On The Mountain",
      "popularity" : 27,
      "preview_url" : "https://p.scdn.co/mp3-preview/766b6c9cafa550ba73052c76418b39608a1b3de9?cid=774b29d4f13844c495f206cafdad9c86",
      "track_number" : 9,
      "type" : "track",
      "uri" : "spotify:track:5zOBRZ33507IYPk4OHUxnH"
    }, {
      "album" : {
        "album_type" : "album",
        "artists" : [ {
          "external_urls" : {
            "spotify" : "https://open.spotify.com/artist/0LyfQWJT6nXafLPZqxe9Of"
          },
          "href" : "https://api.spotify.com/v1/artists/0LyfQWJT6nXafLPZqxe9Of",
          "id" : "0LyfQWJT6nXafLPZqxe9Of",
          "name" : "Various Artists",
          "type" : "artist",
          "uri" : "spotify:artist:0LyfQWJT6nXafLPZqxe9Of"
        } ],
        "external_urls" : {
          "spotify" : "https://open.spotify.com/album/7A9XwgSpjTNf6QtIraBPho"
        },
        "href" : "https://api.spotify.com/v1/albums/7A9XwgSpjTNf6QtIraBPho",
        "id" : "7A9XwgSpjTNf6QtIraBPho",
        "images" : [ {
          "height" : 640,
          "url" : "https://i.scdn.co/image/ab67616d0000b273aa0938c24312982e0d422a10",
          "width" : 640
        }, {
          "height" : 300,
          "url" : "https://i.scdn.co/image/ab67616d00001e02aa0938c24312982e0d422a10",
          "width" : 300
        }, {
          "height" : 64,
          "url" : "https://i.scdn.co/image/ab67616d00004851aa0938c24312982e0d422a10",
          "width" : 64
        } ],
        "name" : "Gospel Christmas",
        "release_date" : "2019-11-29",
        "release_date_precision" : "day",
        "total_tracks" : 31,
        "type" : "album",
        "uri" : "spotify:album:7A9XwgSpjTNf6QtIraBPho"
      },
      "artists" : [ {
        "external_urls" : {
          "spotify" : "https://open.spotify.com/artist/06nevPmNVfWUXyZkccahL8"
        },
        "href" : "https://api.spotify.com/v1/artists/06nevPmNVfWUXyZkccahL8",
        "id" : "06nevPmNVfWUXyZkccahL8",
        "name" : "Gregory Porter",
        "type" : "artist",
        "uri" : "spotify:artist:06nevPmNVfWUXyZkccahL8"
      }, {
        "external_urls" : {
          "spotify" : "https://open.spotify.com/artist/4rEGEwaOU6Mtdj4ylW0fjS"
        },
        "href" : "https://api.spotify.com/v1/artists/4rEGEwaOU6Mtdj4ylW0fjS",
        "id" : "4rEGEwaOU6Mtdj4ylW0fjS",
        "name" : "Anita Wilson",
        "type" : "artist",
        "uri" : "spotify:artist:4rEGEwaOU6Mtdj4ylW0fjS"
      } ],
      "disc_number" : 1,
      "duration_ms" : 256037,
      "explicit" : false,
      "external_ids" : {
        "isrc" : "USUM71412705"
      },
      "external_urls" : {
        "spotify" : "https://open.spotify.com/track/3WDHbrztnXfAlM01slmw0w"
      },
      "href" : "https://api.spotify.com/v1/tracks/3WDHbrztnXfAlM01slmw0w",
      "id" : "3WDHbrztnXfAlM01slmw0w",
      "is_local" : false,
      "is_playable" : true,
      "name" : "Go Tell It On The Mountain / Ain't No Mountain High Enough - Medley",
      "popularity" : 30,
      "preview_url" : null,
      "track_number" : 7,
      "type" : "track",
      "uri" : "spotify:track:3WDHbrztnXfAlM01slmw0w"
    }, {
      "album" : {
        "album_type" : "album",
        "artists" : [ {
          "external_urls" : {
            "spotify" : "https://open.spotify.com/artist/6APm8EjxOHSYM5B4i3vT3q"
          },
          "href" : "https://api.spotify.com/v1/artists/6APm8EjxOHSYM5B4i3vT3q",
          "id" : "6APm8EjxOHSYM5B4i3vT3q",
          "name" : "MercyMe",
          "type" : "artist",
          "uri" : "spotify:artist:6APm8EjxOHSYM5B4i3vT3q"
        } ],
        "external_urls" : {
          "spotify" : "https://open.spotify.com/album/0Bz8CDmxDAfR34kVYbkE7o"
        },
        "href" : "https://api.spotify.com/v1/albums/0Bz8CDmxDAfR34kVYbkE7o",
        "id" : "0Bz8CDmxDAfR34kVYbkE7o",
        "images" : [ {
          "height" : 640,
          "url" : "https://i.scdn.co/image/ab67616d0000b27315db8041954e2975153c93dc",
          "width" : 640
        }, {
          "height" : 300,
          "url" : "https://i.scdn.co/image/ab67616d00001e0215db8041954e2975153c93dc",
          "width" : 300
        }, {
          "height" : 64,
          "url" : "https://i.scdn.co/image/ab67616d0000485115db8041954e2975153c93dc",
          "width" : 64
        } ],
        "name" : "MercyMe, It's Christmas!",
        "release_date" : "2015-10-09",
        "release_date_precision" : "day",
        "total_tracks" : 11,
        "type" : "album",
        "uri" : "spotify:album:0Bz8CDmxDAfR34kVYbkE7o"
      },
      "artists" : [ {
        "external_urls" : {
          "spotify" : "https://open.spotify.com/artist/6APm8EjxOHSYM5B4i3vT3q"
        },
        "href" : "https://api.spotify.com/v1/artists/6APm8EjxOHSYM5B4i3vT3q",
        "id" : "6APm8EjxOHSYM5B4i3vT3q",
        "name" : "MercyMe",
        "type" : "artist",
        "uri" : "spotify:artist:6APm8EjxOHSYM5B4i3vT3q"
      } ],
      "disc_number" : 1,
      "duration_ms" : 134800,
      "explicit" : false,
      "external_ids" : {
        "isrc" : "USM2C1501107"
      },
      "external_urls" : {
        "spotify" : "https://open.spotify.com/track/6riegzHWJYl6il7PYKwtkQ"
      },
      "href" : "https://api.spotify.com/v1/tracks/6riegzHWJYl6il7PYKwtkQ",
      "id" : "6riegzHWJYl6il7PYKwtkQ",
      "is_local" : false,
      "is_playable" : true,
      "name" : "Go Tell It On the Mountain",
      "popularity" : 18,
      "preview_url" : "https://p.scdn.co/mp3-preview/2d6d29271c5220842eda2d9f07b6866bee0b3d36?cid=774b29d4f13844c495f206cafdad9c86",
      "track_number" : 7,
      "type" : "track",
      "uri" : "spotify:track:6riegzHWJYl6il7PYKwtkQ"
    }, {
      "album" : {
        "album_type" : "single",
        "artists" : [ {
          "external_urls" : {
            "spotify" : "https://open.spotify.com/artist/4i2mkyKkRrc0OvPrWqb4BE"
          },
          "href" : "https://api.spotify.com/v1/artists/4i2mkyKkRrc0OvPrWqb4BE",
          "id" : "4i2mkyKkRrc0OvPrWqb4BE",
          "name" : "Jason Gray",
          "type" : "artist",
          "uri" : "spotify:artist:4i2mkyKkRrc0OvPrWqb4BE"
        } ],
        "external_urls" : {
          "spotify" : "https://open.spotify.com/album/3WMPH2H6TR6CQC86CtsCgE"
        },
        "href" : "https://api.spotify.com/v1/albums/3WMPH2H6TR6CQC86CtsCgE",
        "id" : "3WMPH2H6TR6CQC86CtsCgE",
        "images" : [ {
          "height" : 640,
          "url" : "https://i.scdn.co/image/ab67616d0000b273cd2921d7ce57870ae7e7e10b",
          "width" : 640
        }, {
          "height" : 300,
          "url" : "https://i.scdn.co/image/ab67616d00001e02cd2921d7ce57870ae7e7e10b",
          "width" : 300
        }, {
          "height" : 64,
          "url" : "https://i.scdn.co/image/ab67616d00004851cd2921d7ce57870ae7e7e10b",
          "width" : 64
        } ],
        "name" : "Go Tell It On The Mountain",
        "release_date" : "2017-11-17",
        "release_date_precision" : "day",
        "total_tracks" : 1,
        "type" : "album",
        "uri" : "spotify:album:3WMPH2H6TR6CQC86CtsCgE"
      },
      "artists" : [ {
        "external_urls" : {
          "spotify" : "https://open.spotify.com/artist/4i2mkyKkRrc0OvPrWqb4BE"
        },
        "href" : "https://api.spotify.com/v1/artists/4i2mkyKkRrc0OvPrWqb4BE",
        "id" : "4i2mkyKkRrc0OvPrWqb4BE",
        "name" : "Jason Gray",
        "type" : "artist",
        "uri" : "spotify:artist:4i2mkyKkRrc0OvPrWqb4BE"
      }, {
        "external_urls" : {
          "spotify" : "https://open.spotify.com/artist/1i5HhzrkpHFFDpsUYdz2Fs"
        },
        "href" : "https://api.spotify.com/v1/artists/1i5HhzrkpHFFDpsUYdz2Fs",
        "id" : "1i5HhzrkpHFFDpsUYdz2Fs",
        "name" : "Carrollton",
        "type" : "artist",
        "uri" : "spotify:artist:1i5HhzrkpHFFDpsUYdz2Fs"
      } ],
      "disc_number" : 1,
      "duration_ms" : 168812,
      "explicit" : false,
      "external_ids" : {
        "isrc" : "US8391700378"
      },
      "external_urls" : {
        "spotify" : "https://open.spotify.com/track/71Bt1nwSDK5aslG2BX7tqO"
      },
      "href" : "https://api.spotify.com/v1/tracks/71Bt1nwSDK5aslG2BX7tqO",
      "id" : "71Bt1nwSDK5aslG2BX7tqO",
      "is_local" : false,
      "is_playable" : true,
      "name" : "Go Tell It On The Mountain",
      "popularity" : 21,
      "preview_url" : null,
      "track_number" : 1,
      "type" : "track",
      "uri" : "spotify:track:71Bt1nwSDK5aslG2BX7tqO"
    }, {
      "album" : {
        "album_type" : "album",
        "artists" : [ {
          "external_urls" : {
            "spotify" : "https://open.spotify.com/artist/0vn7UBvSQECKJm2817Yf1P"
          },
          "href" : "https://api.spotify.com/v1/artists/0vn7UBvSQECKJm2817Yf1P",
          "id" : "0vn7UBvSQECKJm2817Yf1P",
          "name" : "James Taylor",
          "type" : "artist",
          "uri" : "spotify:artist:0vn7UBvSQECKJm2817Yf1P"
        } ],
        "external_urls" : {
          "spotify" : "https://open.spotify.com/album/0K3xxBQ1IdjrGGo9qhLIwf"
        },
        "href" : "https://api.spotify.com/v1/albums/0K3xxBQ1IdjrGGo9qhLIwf",
        "id" : "0K3xxBQ1IdjrGGo9qhLIwf",
        "images" : [ {
          "height" : 640,
          "url" : "https://i.scdn.co/image/ab67616d0000b273e9ef8b27a96750228d1a1161",
          "width" : 640
        }, {
          "height" : 300,
          "url" : "https://i.scdn.co/image/ab67616d00001e02e9ef8b27a96750228d1a1161",
          "width" : 300
        }, {
          "height" : 64,
          "url" : "https://i.scdn.co/image/ab67616d00004851e9ef8b27a96750228d1a1161",
          "width" : 64
        } ],
        "name" : "James Taylor At Christmas (Bonus Track Version)",
        "release_date" : "2006",
        "release_date_precision" : "year",
        "total_tracks" : 14,
        "type" : "album",
        "uri" : "spotify:album:0K3xxBQ1IdjrGGo9qhLIwf"
      },
      "artists" : [ {
        "external_urls" : {
          "spotify" : "https://open.spotify.com/artist/0vn7UBvSQECKJm2817Yf1P"
        },
        "href" : "https://api.spotify.com/v1/artists/0vn7UBvSQECKJm2817Yf1P",
        "id" : "0vn7UBvSQECKJm2817Yf1P",
        "name" : "James Taylor",
        "type" : "artist",
        "uri" : "spotify:artist:0vn7UBvSQECKJm2817Yf1P"
      } ],
      "disc_number" : 1,
      "duration_ms" : 222226,
      "explicit" : false,
      "external_ids" : {
        "isrc" : "USSM10605081"
      },
      "external_urls" : {
        "spotify" : "https://open.spotify.com/track/5nRs6WolfuzvTEJjTOyQ5v"
      },
      "href" : "https://api.spotify.com/v1/tracks/5nRs6WolfuzvTEJjTOyQ5v",
      "id" : "5nRs6WolfuzvTEJjTOyQ5v",
      "is_local" : false,
      "is_playable" : true,
      "name" : "Go Tell It On The Mountain",
      "popularity" : 19,
      "preview_url" : null,
      "track_number" : 2,
      "type" : "track",
      "uri" : "spotify:track:5nRs6WolfuzvTEJjTOyQ5v"
    }, {
      "album" : {
        "album_type" : "album",
        "artists" : [ {
          "external_urls" : {
            "spotify" : "https://open.spotify.com/artist/32vWCbZh0xZ4o9gkz4PsEU"
          },
          "href" : "https://api.spotify.com/v1/artists/32vWCbZh0xZ4o9gkz4PsEU",
          "id" : "32vWCbZh0xZ4o9gkz4PsEU",
          "name" : "Dolly Parton",
          "type" : "artist",
          "uri" : "spotify:artist:32vWCbZh0xZ4o9gkz4PsEU"
        } ],
        "external_urls" : {
          "spotify" : "https://open.spotify.com/album/1UB8y2zZGk6kxoDVY026zW"
        },
        "href" : "https://api.spotify.com/v1/albums/1UB8y2zZGk6kxoDVY026zW",
        "id" : "1UB8y2zZGk6kxoDVY026zW",
        "images" : [ {
          "height" : 640,
          "url" : "https://i.scdn.co/image/ab67616d0000b2736f0610bf875afbf01886910a",
          "width" : 640
        }, {
          "height" : 300,
          "url" : "https://i.scdn.co/image/ab67616d00001e026f0610bf875afbf01886910a",
          "width" : 300
        }, {
          "height" : 64,
          "url" : "https://i.scdn.co/image/ab67616d000048516f0610bf875afbf01886910a",
          "width" : 64
        } ],
        "name" : "Home For Christmas",
        "release_date" : "1990-09-11",
        "release_date_precision" : "day",
        "total_tracks" : 10,
        "type" : "album",
        "uri" : "spotify:album:1UB8y2zZGk6kxoDVY026zW"
      },
      "artists" : [ {
        "external_urls" : {
          "spotify" : "https://open.spotify.com/artist/32vWCbZh0xZ4o9gkz4PsEU"
        },
        "href" : "https://api.spotify.com/v1/artists/32vWCbZh0xZ4o9gkz4PsEU",
        "id" : "32vWCbZh0xZ4o9gkz4PsEU",
        "name" : "Dolly Parton",
        "type" : "artist",
        "uri" : "spotify:artist:32vWCbZh0xZ4o9gkz4PsEU"
      } ],
      "disc_number" : 1,
      "duration_ms" : 170200,
      "explicit" : false,
      "external_ids" : {
        "isrc" : "USSM19931507"
      },
      "external_urls" : {
        "spotify" : "https://open.spotify.com/track/7dY4EboguteCGTlthY78rL"
      },
      "href" : "https://api.spotify.com/v1/tracks/7dY4EboguteCGTlthY78rL",
      "id" : "7dY4EboguteCGTlthY78rL",
      "is_local" : false,
      "is_playable" : true,
      "name" : "Go Tell It On the Mountain",
      "popularity" : 20,
      "preview_url" : "https://p.scdn.co/mp3-preview/1c2a542d4e75e0621a4d16921168e3302a186b7e?cid=774b29d4f13844c495f206cafdad9c86",
      "track_number" : 5,
      "type" : "track",
      "uri" : "spotify:track:7dY4EboguteCGTlthY78rL"
    }, {
      "album" : {
        "album_type" : "single",
        "artists" : [ {
          "external_urls" : {
            "spotify" : "https://open.spotify.com/artist/3CygdxquGHurS7f9LjNLkv"
          },
          "href" : "https://api.spotify.com/v1/artists/3CygdxquGHurS7f9LjNLkv",
          "id" : "3CygdxquGHurS7f9LjNLkv",
          "name" : "Little Big Town",
          "type" : "artist",
          "uri" : "spotify:artist:3CygdxquGHurS7f9LjNLkv"
        } ],
        "external_urls" : {
          "spotify" : "https://open.spotify.com/album/0cBrus37mUsjTAfxHqlFlm"
        },
        "href" : "https://api.spotify.com/v1/albums/0cBrus37mUsjTAfxHqlFlm",
        "id" : "0cBrus37mUsjTAfxHqlFlm",
        "images" : [ {
          "height" : 640,
          "url" : "https://i.scdn.co/image/ab67616d0000b2735c74d0ce6e0e7f8f0cdb4ba9",
          "width" : 640
        }, {
          "height" : 300,
          "url" : "https://i.scdn.co/image/ab67616d00001e025c74d0ce6e0e7f8f0cdb4ba9",
          "width" : 300
        }, {
          "height" : 64,
          "url" : "https://i.scdn.co/image/ab67616d000048515c74d0ce6e0e7f8f0cdb4ba9",
          "width" : 64
        } ],
        "name" : "Go Tell It On The Mountain",
        "release_date" : "2008-12-09",
        "release_date_precision" : "day",
        "total_tracks" : 1,
        "type" : "album",
        "uri" : "spotify:album:0cBrus37mUsjTAfxHqlFlm"
      },
      "artists" : [ {
        "external_urls" : {
          "spotify" : "https://open.spotify.com/artist/3CygdxquGHurS7f9LjNLkv"
        },
        "href" : "https://api.spotify.com/v1/artists/3CygdxquGHurS7f9LjNLkv",
        "id" : "3CygdxquGHurS7f9LjNLkv",
        "name" : "Little Big Town",
        "type" : "artist",
        "uri" : "spotify:artist:3CygdxquGHurS7f9LjNLkv"
      } ],
      "disc_number" : 1,
      "duration_ms" : 230000,
      "explicit" : false,
      "external_ids" : {
        "isrc" : "USCN10802446"
      },
      "external_urls" : {
        "spotify" : "https://open.spotify.com/track/092TE5mHY1wamE5Q7qXd1w"
      },
      "href" : "https://api.spotify.com/v1/tracks/092TE5mHY1wamE5Q7qXd1w",
      "id" : "092TE5mHY1wamE5Q7qXd1w",
      "is_local" : false,
      "is_playable" : true,
      "name" : "Go Tell It On The Mountain",
      "popularity" : 18,
      "preview_url" : null,
      "track_number" : 1,
      "type" : "track",
      "uri" : "spotify:track:092TE5mHY1wamE5Q7qXd1w"
    }, {
      "album" : {
        "album_type" : "album",
        "artists" : [ {
          "external_urls" : {
            "spotify" : "https://open.spotify.com/artist/4Di6r6V7rCmG3JripDoG1x"
          },
          "href" : "https://api.spotify.com/v1/artists/4Di6r6V7rCmG3JripDoG1x",
          "id" : "4Di6r6V7rCmG3JripDoG1x",
          "name" : "Two Feet and Ten Fingers",
          "type" : "artist",
          "uri" : "spotify:artist:4Di6r6V7rCmG3JripDoG1x"
        } ],
        "external_urls" : {
          "spotify" : "https://open.spotify.com/album/1ikT9LEeEQHBNqktpub1IV"
        },
        "href" : "https://api.spotify.com/v1/albums/1ikT9LEeEQHBNqktpub1IV",
        "id" : "1ikT9LEeEQHBNqktpub1IV",
        "images" : [ {
          "height" : 640,
          "url" : "https://i.scdn.co/image/ab67616d0000b273ee231d1ddad3ec27994f5203",
          "width" : 640
        }, {
          "height" : 300,
          "url" : "https://i.scdn.co/image/ab67616d00001e02ee231d1ddad3ec27994f5203",
          "width" : 300
        }, {
          "height" : 64,
          "url" : "https://i.scdn.co/image/ab67616d00004851ee231d1ddad3ec27994f5203",
          "width" : 64
        } ],
        "name" : "New World Melodies, Vol. 2",
        "release_date" : "2018-09-06",
        "release_date_precision" : "day",
        "total_tracks" : 23,
        "type" : "album",
        "uri" : "spotify:album:1ikT9LEeEQHBNqktpub1IV"
      },
      "artists" : [ {
        "external_urls" : {
          "spotify" : "https://open.spotify.com/artist/4Di6r6V7rCmG3JripDoG1x"
        },
        "href" : "https://api.spotify.com/v1/artists/4Di6r6V7rCmG3JripDoG1x",
        "id" : "4Di6r6V7rCmG3JripDoG1x",
        "name" : "Two Feet and Ten Fingers",
        "type" : "artist",
        "uri" : "spotify:artist:4Di6r6V7rCmG3JripDoG1x"
      } ],
      "disc_number" : 1,
      "duration_ms" : 111046,
      "explicit" : false,
      "external_ids" : {
        "isrc" : "QMPKX1890947"
      },
      "external_urls" : {
        "spotify" : "https://open.spotify.com/track/5kdGOvWeieZbenus20EtXp"
      },
      "href" : "https://api.spotify.com/v1/tracks/5kdGOvWeieZbenus20EtXp",
      "id" : "5kdGOvWeieZbenus20EtXp",
      "is_local" : false,
      "is_playable" : true,
      "name" : "Go Tell It on the Mountain",
      "popularity" : 23,
      "preview_url" : "https://p.scdn.co/mp3-preview/c9d2917e72988be04fd1248f654b5a14cdf0a10d?cid=774b29d4f13844c495f206cafdad9c86",
      "track_number" : 1,
      "type" : "track",
      "uri" : "spotify:track:5kdGOvWeieZbenus20EtXp"
    } ],
    "limit" : 10,
    "next" : "https://api.spotify.com/v1/search?query=Go%2C+Tell+It+on+the+Mountain&type=track&market=US&offset=15&limit=10",
    "offset" : 5,
    "previous" : "https://api.spotify.com/v1/search?query=Go%2C+Tell+It+on+the+Mountain&type=track&market=US&offset=0&limit=10",
    "total" : 4478
  }
}