{
  "tracks" : {
    "href" : "https://api.spotify.com/v1/search?query=From+Every+Stormy+Wind&type=track&market=US&offset=5&limit=10",
    "items" : [ {
      "album" : {
        "album_type" : "album",
        "artists" : [ {
          "external_urls" : {
            "spotify" : "https://open.spotify.com/artist/6MvOzxAHNN6TBpM9TqXwum"
          },
          "href" : "https://api.spotify.com/v1/artists/6MvOzxAHNN6TBpM9TqXwum",
          "id" : "6MvOzxAHNN6TBpM9TqXwum",
          "name" : "The Chuck Wagon Gang",
          "type" : "artist",
          "uri" : "spotify:artist:6MvOzxAHNN6TBpM9TqXwum"
        } ],
        "external_urls" : {
          "spotify" : "https://open.spotify.com/album/18euaQxAt1BGzKbL8Jdx6N"
        },
        "href" : "https://api.spotify.com/v1/albums/18euaQxAt1BGzKbL8Jdx6N",
        "id" : "18euaQxAt1BGzKbL8Jdx6N",
        "images" : [ {
          "height" : 640,
          "url" : "https://i.scdn.co/image/ab67616d0000b273ae883529b78d0944e1425728",
          "width" : 640
        }, {
          "height" : 300,
          "url" : "https://i.scdn.co/image/ab67616d00001e02ae883529b78d0944e1425728",
          "width" : 300
        }, {
          "height" : 64,
          "url" : "https://i.scdn.co/image/ab67616d00004851ae883529b78d0944e1425728",
          "width" : 64
        } ],
        "name" : "Little Brown Church in the Vale",
        "release_date" : "2013-11-26",
        "release_date_precision" : "day",
        "total_tracks" : 15,
        "type" : "album",
        "uri" : "spotify:album:18euaQxAt1BGzKbL8Jdx6N"
      },
      "artists" : [ {
        "external_urls" : {
          "spotify" : "https://open.spotify.com/artist/6MvOzxAHNN6TBpM9TqXwum"
        },
        "href" : "https://api.spotify.com/v1/artists/6MvOzxAHNN6TBpM9TqXwum",
        "id" : "6MvOzxAHNN6TBpM9TqXwum",
        "name" : "The Chuck Wagon Gang",
        "type" : "artist",
        "uri" : "spotify:artist:6MvOzxAHNN6TBpM9TqXwum"
      } ],
      "disc_number" : 1,
      "duration_ms" : 102226,
      "explicit" : false,
      "external_ids" : {
        "isrc" : "US84U1010103"
      },
      "external_urls" : {
        "spotify" : "https://open.spotify.com/track/3FxfGgGQjZs2zYBj8KwVQN"
      },
      "href" : "https://api.spotify.com/v1/tracks/3FxfGgGQjZs2zYBj8KwVQN",
      "id" : "3FxfGgGQjZs2zYBj8KwVQN",
      "is_local" : false,
      "is_playable" : true,
      "name" : "From Every Stormy Wind",
      "popularity" : 2,
      "preview_url" : "https://p.scdn.co/mp3-preview/17867eb589a46385e9304072021b1b83485a4fbb?cid=774b29d4f13844c495f206cafdad9c86",
      "track_number" : 14,
      "type" : "track",
      "uri" : "spotify:track:3FxfGgGQjZs2zYBj8KwVQN"
    }, {
      "album" : {
        "album_type" : "album",
        "artists" : [ {
          "external_urls" : {
            "spotify" : "https://open.spotify.com/artist/1EeFJRyeiOI28JQ6YGfCrF"
          },
          "href" : "https://api.spotify.com/v1/artists/1EeFJRyeiOI28JQ6YGfCrF",
          "id" : "1EeFJRyeiOI28JQ6YGfCrF",
          "name" : "Amy Anderson",
          "type" : "artist",
          "uri" : "spotify:artist:1EeFJRyeiOI28JQ6YGfCrF"
        } ],
        "external_urls" : {
          "spotify" : "https://open.spotify.com/album/1U9H96Tm67B4tYn3Jz62Tl"
        },
        "href" : "https://api.spotify.com/v1/albums/1U9H96Tm67B4tYn3Jz62Tl",
        "id" : "1U9H96Tm67B4tYn3Jz62Tl",
        "images" : [ {
          "height" : 640,
          "url" : "https://i.scdn.co/image/ab67616d0000b2734f5ab8a3ba271b9c66f16ae1",
          "width" : 640
        }, {
          "height" : 300,
          "url" : "https://i.scdn.co/image/ab67616d00001e024f5ab8a3ba271b9c66f16ae1",
          "width" : 300
        }, {
          "height" : 64,
          "url" : "https://i.scdn.co/image/ab67616d000048514f5ab8a3ba271b9c66f16ae1",
          "width" : 64
        } ],
        "name" : "Christ Is All",
        "release_date" : "2004-09-01",
        "release_date_precision" : "day",
        "total_tracks" : 14,
        "type" : "album",
        "uri" : "spotify:album:1U9H96Tm67B4tYn3Jz62Tl"
      },
      "artists" : [ {
        "external_urls" : {
          "spotify" : "https://open.spotify.com/artist/1EeFJRyeiOI28JQ6YGfCrF"
        },
        "href" : "https://api.spotify.com/v1/artists/1EeFJRyeiOI28JQ6YGfCrF",
        "id" : "1EeFJRyeiOI28JQ6YGfCrF",
        "name" : "Amy Anderson",
        "type" : "artist",
        "uri" : "spotify:artist:1EeFJRyeiOI28JQ6YGfCrF"
      } ],
      "disc_number" : 1,
      "duration_ms" : 141453,
      "explicit" : false,
      "external_ids" : {
        "isrc" : "ushm91327022"
      },
      "external_urls" : {
        "spotify" : "https://open.spotify.com/track/6W7DBPWQ2Vm6uhW2a36umK"
      },
      "href" : "https://api.spotify.com/v1/tracks/6W7DBPWQ2Vm6uhW2a36umK",
      "id" : "6W7DBPWQ2Vm6uhW2a36umK",
      "is_local" : false,
      "is_playable" : true,
      "name" : "From Every Stormy Wind",
      "popularity" : 0,
      "preview_url" : "https://p.scdn.co/mp3-preview/07997987a25a1e9bcb1dcde6457934fbb0a33576?cid=774b29d4f13844c495f206cafdad9c86",
      "track_number" : 8,
      "type" : "track",
      "uri" : "spotify:track:6W7DBPWQ2Vm6uhW2a36umK"
    }, {
      "album" : {
        "album_type" : "single",
        "artists" : [ {
          "external_urls" : {
            "spotify" : "https://open.spotify.com/artist/49sXbwH8DaYTZZNpn4z7Nv"
          },
          "href" : "https://api.spotify.com/v1/artists/49sXbwH8DaYTZZNpn4z7Nv",
          "id" : "49sXbwH8DaYTZZNpn4z7Nv",
          "name" : "Harbor Hymnal",
          "type" : "artist",
          "uri" : "spotify:artist:49sXbwH8DaYTZZNpn4z7Nv"
        } ],
        "external_urls" : {
          "spotify" : "https://open.spotify.com/album/55kZnCmrMR7hkdLyxkjCfM"
        },
        "href" : "https://api.spotify.com/v1/albums/55kZnCmrMR7hkdLyxkjCfM",
        "id" : "55kZnCmrMR7hkdLyxkjCfM",
        "images" : [ {
          "height" : 640,
          "url" : "https://i.scdn.co/image/ab67616d0000b273872fa5302ab47b619b9ac0fa",
          "width" : 640
        }, {
          "height" : 300,
          "url" : "https://i.scdn.co/image/ab67616d00001e02872fa5302ab47b619b9ac0fa",
          "width" : 300
        }, {
          "height" : 64,
          "url" : "https://i.scdn.co/image/ab67616d00004851872fa5302ab47b619b9ac0fa",
          "width" : 64
        } ],
        "name" : "From Every Stormy Wind",
        "release_date" : "2020-04-12",
        "release_date_precision" : "day",
        "total_tracks" : 4,
        "type" : "album",
        "uri" : "spotify:album:55kZnCmrMR7hkdLyxkjCfM"
      },
      "artists" : [ {
        "external_urls" : {
          "spotify" : "https://open.spotify.com/artist/49sXbwH8DaYTZZNpn4z7Nv"
        },
        "href" : "https://api.spotify.com/v1/artists/49sXbwH8DaYTZZNpn4z7Nv",
        "id" : "49sXbwH8DaYTZZNpn4z7Nv",
        "name" : "Harbor Hymnal",
        "type" : "artist",
        "uri" : "spotify:artist:49sXbwH8DaYTZZNpn4z7Nv"
      } ],
      "disc_number" : 1,
      "duration_ms" : 213293,
      "explicit" : false,
      "external_ids" : {
        "isrc" : "QMAAK2024374"
      },
      "external_urls" : {
        "spotify" : "https://open.spotify.com/track/6aMtGkiPfY3jlpID4wJdXb"
      },
      "href" : "https://api.spotify.com/v1/tracks/6aMtGkiPfY3jlpID4wJdXb",
      "id" : "6aMtGkiPfY3jlpID4wJdXb",
      "is_local" : false,
      "is_playable" : true,
      "name" : "From Every Stormy Wind",
      "popularity" : 1,
      "preview_url" : "https://p.scdn.co/mp3-preview/8126760b174570aec04be0e8eb92b6fe7c0f18fe?cid=774b29d4f13844c495f206cafdad9c86",
      "track_number" : 1,
      "type" : "track",
      "uri" : "spotify:track:6aMtGkiPfY3jlpID4wJdXb"
    }, {
      "album" : {
        "album_type" : "album",
        "artists" : [ {
          "external_urls" : {
            "spotify" : "https://open.spotify.com/artist/3x8JKYweUaLjF441vguZ2D"
          },
          "href" : "https://api.spotify.com/v1/artists/3x8JKYweUaLjF441vguZ2D",
          "id" : "3x8JKYweUaLjF441vguZ2D",
          "name" : "Altar of Praise Chorale",
          "type" : "artist",
          "uri" : "spotify:artist:3x8JKYweUaLjF441vguZ2D"
        } ],
        "external_urls" : {
          "spotify" : "https://open.spotify.com/album/2qWzyjdQcJvrppvhpz24ux"
        },
        "href" : "https://api.spotify.com/v1/albums/2qWzyjdQcJvrppvhpz24ux",
        "id" : "2qWzyjdQcJvrppvhpz24ux",
        "images" : [ {
          "height" : 640,
          "url" : "https://i.scdn.co/image/ab67616d0000b2737addb1ac151c49422610ea5e",
          "width" : 640
        }, {
          "height" : 300,
          "url" : "https://i.scdn.co/image/ab67616d00001e027addb1ac151c49422610ea5e",
          "width" : 300
        }, {
          "height" : 64,
          "url" : "https://i.scdn.co/image/ab67616d000048517addb1ac151c49422610ea5e",
          "width" : 64
        } ],
        "name" : "Organ and Choir Hymns",
        "release_date" : "2020-05-11",
        "release_date_precision" : "day",
        "total_tracks" : 16,
        "type" : "album",
        "uri" : "spotify:album:2qWzyjdQcJvrppvhpz24ux"
      },
      "artists" : [ {
        "external_urls" : {
          "spotify" : "https://open.spotify.com/artist/3x8JKYweUaLjF441vguZ2D"
        },
        "href" : "https://api.spotify.com/v1/artists/3x8JKYweUaLjF441vguZ2D",
        "id" : "3x8JKYweUaLjF441vguZ2D",
        "name" : "Altar of Praise Chorale",
        "type" : "artist",
        "uri" : "spotify:artist:3x8JKYweUaLjF441vguZ2D"
      } ],
      "disc_number" : 1,
      "duration_ms" : 181040,
      "explicit" : false,
      "external_ids" : {
        "isrc" : "ushm22031435"
      },
      "external_urls" : {
        "spotify" : "https://open.spotify.com/track/1vRIKKBfKQRrIeqpF6CVHE"
      },
      "href" : "https://api.spotify.com/v1/tracks/1vRIKKBfKQRrIeqpF6CVHE",
      "id" : "1vRIKKBfKQRrIeqpF6CVHE",
      "is_local" : false,
      "is_playable" : true,
      "name" : "From Every Stormy Wind",
      "popularity" : 0,
      "preview_url" : "https://p.scdn.co/mp3-preview/6291dc08989941286f63bc0d71bc9864d86ce905?cid=774b29d4f13844c495f206cafdad9c86",
      "track_number" : 3,
      "type" : "track",
      "uri" : "spotify:track:1vRIKKBfKQRrIeqpF6CVHE"
    }, {
      "album" : {
        "album_type" : "album",
        "artists" : [ {
          "external_urls" : {
            "spotify" : "https://open.spotify.com/artist/6MvOzxAHNN6TBpM9TqXwum"
          },
          "href" : "https://api.spotify.com/v1/artists/6MvOzxAHNN6TBpM9TqXwum",
          "id" : "6MvOzxAHNN6TBpM9TqXwum",
          "name" : "The Chuck Wagon Gang",
          "type" : "artist",
          "uri" : "spotify:artist:6MvOzxAHNN6TBpM9TqXwum"
        } ],
        "external_urls" : {
          "spotify" : "https://open.spotify.com/album/7w61aYmHeAGIOZTd0uClrC"
        },
        "href" : "https://api.spotify.com/v1/albums/7w61aYmHeAGIOZTd0uClrC",
        "id" : "7w61aYmHeAGIOZTd0uClrC",
        "images" : [ {
          "height" : 640,
          "url" : "https://i.scdn.co/image/ab67616d0000b273986584c6dcbd2fc075c369f9",
          "width" : 640
        }, {
          "height" : 300,
          "url" : "https://i.scdn.co/image/ab67616d00001e02986584c6dcbd2fc075c369f9",
          "width" : 300
        }, {
          "height" : 64,
          "url" : "https://i.scdn.co/image/ab67616d00004851986584c6dcbd2fc075c369f9",
          "width" : 64
        } ],
        "name" : "Jubilee",
        "release_date" : "2010-07-02",
        "release_date_precision" : "day",
        "total_tracks" : 10,
        "type" : "album",
        "uri" : "spotify:album:7w61aYmHeAGIOZTd0uClrC"
      },
      "artists" : [ {
        "external_urls" : {
          "spotify" : "https://open.spotify.com/artist/6MvOzxAHNN6TBpM9TqXwum"
        },
        "href" : "https://api.spotify.com/v1/artists/6MvOzxAHNN6TBpM9TqXwum",
        "id" : "6MvOzxAHNN6TBpM9TqXwum",
        "name" : "The Chuck Wagon Gang",
        "type" : "artist",
        "uri" : "spotify:artist:6MvOzxAHNN6TBpM9TqXwum"
      } ],
      "disc_number" : 1,
      "duration_ms" : 102226,
      "explicit" : false,
      "external_ids" : {
        "isrc" : "US84U1010103"
      },
      "external_urls" : {
        "spotify" : "https://open.spotify.com/track/6FE3obpdnlFlwyk40rOTAo"
      },
      "href" : "https://api.spotify.com/v1/tracks/6FE3obpdnlFlwyk40rOTAo",
      "id" : "6FE3obpdnlFlwyk40rOTAo",
      "is_local" : false,
      "is_playable" : true,
      "name" : "From Every Stormy Wind",
      "popularity" : 1,
      "preview_url" : "https://p.scdn.co/mp3-preview/17867eb589a46385e9304072021b1b83485a4fbb?cid=774b29d4f13844c495f206cafdad9c86",
      "track_number" : 8,
      "type" : "track",
      "uri" : "spotify:track:6FE3obpdnlFlwyk40rOTAo"
    }, {
      "album" : {
        "album_type" : "album",
        "artists" : [ {
          "external_urls" : {
            "spotify" : "https://open.spotify.com/artist/3qNSsKNzzgoxfmBBwAIHUy"
          },
          "href" : "https://api.spotify.com/v1/artists/3qNSsKNzzgoxfmBBwAIHUy",
          "id" : "3qNSsKNzzgoxfmBBwAIHUy",
          "name" : "Lana Kim",
          "type" : "artist",
          "uri" : "spotify:artist:3qNSsKNzzgoxfmBBwAIHUy"
        } ],
        "external_urls" : {
          "spotify" : "https://open.spotify.com/album/2wGnkcsWbzDKH1yobOWwKK"
        },
        "href" : "https://api.spotify.com/v1/albums/2wGnkcsWbzDKH1yobOWwKK",
        "id" : "2wGnkcsWbzDKH1yobOWwKK",
        "images" : [ {
          "height" : 640,
          "url" : "https://i.scdn.co/image/ab67616d0000b2737f11448bf5cf3d01f3b4e2e1",
          "width" : 640
        }, {
          "height" : 300,
          "url" : "https://i.scdn.co/image/ab67616d00001e027f11448bf5cf3d01f3b4e2e1",
          "width" : 300
        }, {
          "height" : 64,
          "url" : "https://i.scdn.co/image/ab67616d000048517f11448bf5cf3d01f3b4e2e1",
          "width" : 64
        } ],
        "name" : "All Christian Hymns - Vol. 7",
        "release_date" : "2011-02-20",
        "release_date_precision" : "day",
        "total_tracks" : 40,
        "type" : "album",
        "uri" : "spotify:album:2wGnkcsWbzDKH1yobOWwKK"
      },
      "artists" : [ {
        "external_urls" : {
          "spotify" : "https://open.spotify.com/artist/3qNSsKNzzgoxfmBBwAIHUy"
        },
        "href" : "https://api.spotify.com/v1/artists/3qNSsKNzzgoxfmBBwAIHUy",
        "id" : "3qNSsKNzzgoxfmBBwAIHUy",
        "name" : "Lana Kim",
        "type" : "artist",
        "uri" : "spotify:artist:3qNSsKNzzgoxfmBBwAIHUy"
      } ],
      "disc_number" : 1,
      "duration_ms" : 41978,
      "explicit" : false,
      "external_ids" : {
        "isrc" : "USJ3V1085473"
      },
      "external_urls" : {
        "spotify" : "https://open.spotify.com/track/7F3t6SB89GbOypAbRbT36u"
      },
      "href" : "https://api.spotify.com/v1/tracks/7F3t6SB89GbOypAbRbT36u",
      "id" : "7F3t6SB89GbOypAbRbT36u",
      "is_local" : false,
      "is_playable" : true,
      "name" : "247 From Every Stormy Wind",
      "popularity" : 0,
      "preview_url" : "https://p.scdn.co/mp3-preview/b0bdb216ae3bd3597b4e01ef272dea1cd9c3871e?cid=774b29d4f13844c495f206cafdad9c86",
      "track_number" : 12,
      "type" : "track",
      "uri" : "spotify:track:7F3t6SB89GbOypAbRbT36u"
    }, {
      "album" : {
        "album_type" : "album",
        "artists" : [ {
          "external_urls" : {
            "spotify" : "https://open.spotify.com/artist/6zIm2MOFEcNKS0u6SZnbWO"
          },
          "href" : "https://api.spotify.com/v1/artists/6zIm2MOFEcNKS0u6SZnbWO",
          "id" : "6zIm2MOFEcNKS0u6SZnbWO",
          "name" : "Penny Rodriguez",
          "type" : "artist",
          "uri" : "spotify:artist:6zIm2MOFEcNKS0u6SZnbWO"
        } ],
        "external_urls" : {
          "spotify" : "https://open.spotify.com/album/4H6DSNitx2cbs12XcVxTh3"
        },
        "href" : "https://api.spotify.com/v1/albums/4H6DSNitx2cbs12XcVxTh3",
        "id" : "4H6DSNitx2cbs12XcVxTh3",
        "images" : [ {
          "height" : 640,
          "url" : "https://i.scdn.co/image/ab67616d0000b273710bc69a4372256fb9a24f40",
          "width" : 640
        }, {
          "height" : 300,
          "url" : "https://i.scdn.co/image/ab67616d00001e02710bc69a4372256fb9a24f40",
          "width" : 300
        }, {
          "height" : 64,
          "url" : "https://i.scdn.co/image/ab67616d00004851710bc69a4372256fb9a24f40",
          "width" : 64
        } ],
        "name" : "Sacred Space - The Songs Of Penny Rodriguez",
        "release_date" : "2004-11-24",
        "release_date_precision" : "day",
        "total_tracks" : 26,
        "type" : "album",
        "uri" : "spotify:album:4H6DSNitx2cbs12XcVxTh3"
      },
      "artists" : [ {
        "external_urls" : {
          "spotify" : "https://open.spotify.com/artist/6zIm2MOFEcNKS0u6SZnbWO"
        },
        "href" : "https://api.spotify.com/v1/artists/6zIm2MOFEcNKS0u6SZnbWO",
        "id" : "6zIm2MOFEcNKS0u6SZnbWO",
        "name" : "Penny Rodriguez",
        "type" : "artist",
        "uri" : "spotify:artist:6zIm2MOFEcNKS0u6SZnbWO"
      } ],
      "disc_number" : 1,
      "duration_ms" : 140306,
      "explicit" : false,
      "external_ids" : {
        "isrc" : "ushm90479423"
      },
      "external_urls" : {
        "spotify" : "https://open.spotify.com/track/2R6jrqPTLjBzZS9DtBRvWU"
      },
      "href" : "https://api.spotify.com/v1/tracks/2R6jrqPTLjBzZS9DtBRvWU",
      "id" : "2R6jrqPTLjBzZS9DtBRvWU",
      "is_local" : false,
      "is_playable" : true,
      "name" : "From Every Stormy Wind That Blows",
      "popularity" : 0,
      "preview_url" : "https://p.scdn.co/mp3-preview/53aa3a0cea9ad1ae1fc25074068fee989fe958e0?cid=774b29d4f13844c495f206cafdad9c86",
      "track_number" : 6,
      "type" : "track",
      "uri" : "spotify:track:2R6jrqPTLjBzZS9DtBRvWU"
    }, {
      "album" : {
        "album_type" : "album",
        "artists" : [ {
          "external_urls" : {
            "spotify" : "https://open.spotify.com/artist/0oLBVaLgcVi5Lu5yrLs9TW"
          },
          "href" : "https://api.spotify.com/v1/artists/0oLBVaLgcVi5Lu5yrLs9TW",
          "id" : "0oLBVaLgcVi5Lu5yrLs9TW",
          "name" : "Laura Ann Singh",
          "type" : "artist",
          "uri" : "spotify:artist:0oLBVaLgcVi5Lu5yrLs9TW"
        }, {
          "external_urls" : {
            "spotify" : "https://open.spotify.com/artist/04XVb61vrR9OLglW6r4wky"
          },
          "href" : "https://api.spotify.com/v1/artists/04XVb61vrR9OLglW6r4wky",
          "id" : "04XVb61vrR9OLglW6r4wky",
          "name" : "Chris Lucas",
          "type" : "artist",
          "uri" : "spotify:artist:04XVb61vrR9OLglW6r4wky"
        } ],
        "external_urls" : {
          "spotify" : "https://open.spotify.com/album/66heZgDFpGPgZPbsRZef2O"
        },
        "href" : "https://api.spotify.com/v1/albums/66heZgDFpGPgZPbsRZef2O",
        "id" : "66heZgDFpGPgZPbsRZef2O",
        "images" : [ {
          "height" : 640,
          "url" : "https://i.scdn.co/image/ab67616d0000b273d0d0f3dee26a5dec4c52eb55",
          "width" : 640
        }, {
          "height" : 300,
          "url" : "https://i.scdn.co/image/ab67616d00001e02d0d0f3dee26a5dec4c52eb55",
          "width" : 300
        }, {
          "height" : 64,
          "url" : "https://i.scdn.co/image/ab67616d00004851d0d0f3dee26a5dec4c52eb55",
          "width" : 64
        } ],
        "name" : "Stirred to Be Still",
        "release_date" : "2016-04-15",
        "release_date_precision" : "day",
        "total_tracks" : 14,
        "type" : "album",
        "uri" : "spotify:album:66heZgDFpGPgZPbsRZef2O"
      },
      "artists" : [ {
        "external_urls" : {
          "spotify" : "https://open.spotify.com/artist/0oLBVaLgcVi5Lu5yrLs9TW"
        },
        "href" : "https://api.spotify.com/v1/artists/0oLBVaLgcVi5Lu5yrLs9TW",
        "id" : "0oLBVaLgcVi5Lu5yrLs9TW",
        "name" : "Laura Ann Singh",
        "type" : "artist",
        "uri" : "spotify:artist:0oLBVaLgcVi5Lu5yrLs9TW"
      }, {
        "external_urls" : {
          "spotify" : "https://open.spotify.com/artist/04XVb61vrR9OLglW6r4wky"
        },
        "href" : "https://api.spotify.com/v1/artists/04XVb61vrR9OLglW6r4wky",
        "id" : "04XVb61vrR9OLglW6r4wky",
        "name" : "Chris Lucas",
        "type" : "artist",
        "uri" : "spotify:artist:04XVb61vrR9OLglW6r4wky"
      } ],
      "disc_number" : 1,
      "duration_ms" : 235253,
      "explicit" : false,
      "external_ids" : {
        "isrc" : "ushm91653863"
      },
      "external_urls" : {
        "spotify" : "https://open.spotify.com/track/4ASI1SM418KbUFNqEXiT0b"
      },
      "href" : "https://api.spotify.com/v1/tracks/4ASI1SM418KbUFNqEXiT0b",
      "id" : "4ASI1SM418KbUFNqEXiT0b",
      "is_local" : false,
      "is_playable" : true,
      "name" : "From Every Stormy Wind That Blows",
      "popularity" : 1,
      "preview_url" : "https://p.scdn.co/mp3-preview/7aadfb051cd0716c56ed5febff8cb2f27b9c36c7?cid=774b29d4f13844c495f206cafdad9c86",
      "track_number" : 3,
      "type" : "track",
      "uri" : "spotify:track:4ASI1SM418KbUFNqEXiT0b"
    }, {
      "album" : {
        "album_type" : "album",
        "artists" : [ {
          "external_urls" : {
            "spotify" : "https://open.spotify.com/artist/20rlbkwNSoLrLqQUR7GRcT"
          },
          "href" : "https://api.spotify.com/v1/artists/20rlbkwNSoLrLqQUR7GRcT",
          "id" : "20rlbkwNSoLrLqQUR7GRcT",
          "name" : "Mother’s Lullaby",
          "type" : "artist",
          "uri" : "spotify:artist:20rlbkwNSoLrLqQUR7GRcT"
        } ],
        "external_urls" : {
          "spotify" : "https://open.spotify.com/album/2T4U2YqxHwSzMRASmG0KcF"
        },
        "href" : "https://api.spotify.com/v1/albums/2T4U2YqxHwSzMRASmG0KcF",
        "id" : "2T4U2YqxHwSzMRASmG0KcF",
        "images" : [ {
          "height" : 640,
          "url" : "https://i.scdn.co/image/ab67616d0000b27303e8b058609f3261d5dee1e4",
          "width" : 640
        }, {
          "height" : 300,
          "url" : "https://i.scdn.co/image/ab67616d00001e0203e8b058609f3261d5dee1e4",
          "width" : 300
        }, {
          "height" : 64,
          "url" : "https://i.scdn.co/image/ab67616d0000485103e8b058609f3261d5dee1e4",
          "width" : 64
        } ],
        "name" : "현악4중주 찬송가 연주곡집 Vol. 5",
        "release_date" : "2020-05-14",
        "release_date_precision" : "day",
        "total_tracks" : 50,
        "type" : "album",
        "uri" : "spotify:album:2T4U2YqxHwSzMRASmG0KcF"
      },
      "artists" : [ {
        "external_urls" : {
          "spotify" : "https://open.spotify.com/artist/20rlbkwNSoLrLqQUR7GRcT"
        },
        "href" : "https://api.spotify.com/v1/artists/20rlbkwNSoLrLqQUR7GRcT",
        "id" : "20rlbkwNSoLrLqQUR7GRcT",
        "name" : "Mother’s Lullaby",
        "type" : "artist",
        "uri" : "spotify:artist:20rlbkwNSoLrLqQUR7GRcT"
      } ],
      "disc_number" : 1,
      "duration_ms" : 146470,
      "explicit" : false,
      "external_ids" : {
        "isrc" : "QZEKE2002000"
      },
      "external_urls" : {
        "spotify" : "https://open.spotify.com/track/7fbsGaxBkUyla6pA8z889R"
      },
      "href" : "https://api.spotify.com/v1/tracks/7fbsGaxBkUyla6pA8z889R",
      "id" : "7fbsGaxBkUyla6pA8z889R",
      "is_local" : false,
      "is_playable" : true,
      "name" : "From Every Stormy Wind That Blows",
      "popularity" : 0,
      "preview_url" : "https://p.scdn.co/mp3-preview/ad3ecb78a1954440712a0c88df8b4215b40e8356?cid=774b29d4f13844c495f206cafdad9c86",
      "track_number" : 47,
      "type" : "track",
      "uri" : "spotify:track:7fbsGaxBkUyla6pA8z889R"
    }, {
      "album" : {
        "album_type" : "album",
        "artists" : [ {
          "external_urls" : {
            "spotify" : "https://open.spotify.com/artist/20rlbkwNSoLrLqQUR7GRcT"
          },
          "href" : "https://api.spotify.com/v1/artists/20rlbkwNSoLrLqQUR7GRcT",
          "id" : "20rlbkwNSoLrLqQUR7GRcT",
          "name" : "Mother’s Lullaby",
          "type" : "artist",
          "uri" : "spotify:artist:20rlbkwNSoLrLqQUR7GRcT"
        } ],
        "external_urls" : {
          "spotify" : "https://open.spotify.com/album/44RkAlks0HqphlpDFn1Vus"
        },
        "href" : "https://api.spotify.com/v1/albums/44RkAlks0HqphlpDFn1Vus",
        "id" : "44RkAlks0HqphlpDFn1Vus",
        "images" : [ {
          "height" : 640,
          "url" : "https://i.scdn.co/image/ab67616d0000b273ccb94073c7bdbed820df0457",
          "width" : 640
        }, {
          "height" : 300,
          "url" : "https://i.scdn.co/image/ab67616d00001e02ccb94073c7bdbed820df0457",
          "width" : 300
        }, {
          "height" : 64,
          "url" : "https://i.scdn.co/image/ab67616d00004851ccb94073c7bdbed820df0457",
          "width" : 64
        } ],
        "name" : "Hymns Vol.13 (#241~#260)",
        "release_date" : "2019-06-03",
        "release_date_precision" : "day",
        "total_tracks" : 20,
        "type" : "album",
        "uri" : "spotify:album:44RkAlks0HqphlpDFn1Vus"
      },
      "artists" : [ {
        "external_urls" : {
          "spotify" : "https://open.spotify.com/artist/20rlbkwNSoLrLqQUR7GRcT"
        },
        "href" : "https://api.spotify.com/v1/artists/20rlbkwNSoLrLqQUR7GRcT",
        "id" : "20rlbkwNSoLrLqQUR7GRcT",
        "name" : "Mother’s Lullaby",
        "type" : "artist",
        "uri" : "spotify:artist:20rlbkwNSoLrLqQUR7GRcT"
      } ],
      "disc_number" : 1,
      "duration_ms" : 126666,
      "explicit" : false,
      "external_ids" : {
        "isrc" : "QZEKE1864871"
      },
      "external_urls" : {
        "spotify" : "https://open.spotify.com/track/7wzZeT3mhcxfe2TADD58yz"
      },
      "href" : "https://api.spotify.com/v1/tracks/7wzZeT3mhcxfe2TADD58yz",
      "id" : "7wzZeT3mhcxfe2TADD58yz",
      "is_local" : false,
      "is_playable" : true,
      "name" : "From Every Stormy Wind That Blows",
      "popularity" : 0,
      "preview_url" : "https://p.scdn.co/mp3-preview/d90a82773d460c336a9774ab2191f0a1dafb1be4?cid=774b29d4f13844c495f206cafdad9c86",
      "track_number" : 7,
      "type" : "track",
      "uri" : "spotify:track:7wzZeT3mhcxfe2TADD58yz"
    } ],
    "limit" : 10,
    "next" : "https://api.spotify.com/v1/search?query=From+Every+Stormy+Wind&type=track&market=US&offset=15&limit=10",
    "offset" : 5,
    "previous" : "https://api.spotify.com/v1/search?query=From+Every+Stormy+Wind&type=track&market=US&offset=0&limit=10",
    "total" : 22
  }
}