{
  "tracks" : {
    "href" : "https://api.spotify.com/v1/search?query=Leaning+On+the+Everlasting+Arms&type=track&market=US&offset=5&limit=10",
    "items" : [ {
      "album" : {
        "album_type" : "album",
        "artists" : [ {
          "external_urls" : {
            "spotify" : "https://open.spotify.com/artist/0vD3f3r69jBB1bL6VWnGM2"
          },
          "href" : "https://api.spotify.com/v1/artists/0vD3f3r69jBB1bL6VWnGM2",
          "id" : "0vD3f3r69jBB1bL6VWnGM2",
          "name" : "Chris Rice",
          "type" : "artist",
          "uri" : "spotify:artist:0vD3f3r69jBB1bL6VWnGM2"
        } ],
        "external_urls" : {
          "spotify" : "https://open.spotify.com/album/4XDj1573h0qRdkUNPiJKVP"
        },
        "href" : "https://api.spotify.com/v1/albums/4XDj1573h0qRdkUNPiJKVP",
        "id" : "4XDj1573h0qRdkUNPiJKVP",
        "images" : [ {
          "height" : 640,
          "url" : "https://i.scdn.co/image/ab67616d0000b2731ff0913a6c9cb48c8611c552",
          "width" : 640
        }, {
          "height" : 300,
          "url" : "https://i.scdn.co/image/ab67616d00001e021ff0913a6c9cb48c8611c552",
          "width" : 300
        }, {
          "height" : 64,
          "url" : "https://i.scdn.co/image/ab67616d000048511ff0913a6c9cb48c8611c552",
          "width" : 64
        } ],
        "name" : "Untitled Hymn: A Collection of Hymns",
        "release_date" : "2019-05-17",
        "release_date_precision" : "day",
        "total_tracks" : 12,
        "type" : "album",
        "uri" : "spotify:album:4XDj1573h0qRdkUNPiJKVP"
      },
      "artists" : [ {
        "external_urls" : {
          "spotify" : "https://open.spotify.com/artist/0vD3f3r69jBB1bL6VWnGM2"
        },
        "href" : "https://api.spotify.com/v1/artists/0vD3f3r69jBB1bL6VWnGM2",
        "id" : "0vD3f3r69jBB1bL6VWnGM2",
        "name" : "Chris Rice",
        "type" : "artist",
        "uri" : "spotify:artist:0vD3f3r69jBB1bL6VWnGM2"
      } ],
      "disc_number" : 1,
      "duration_ms" : 195733,
      "explicit" : false,
      "external_ids" : {
        "isrc" : "USM2C1801408"
      },
      "external_urls" : {
        "spotify" : "https://open.spotify.com/track/3cJEUEmZIaIPypHeatS0l2"
      },
      "href" : "https://api.spotify.com/v1/tracks/3cJEUEmZIaIPypHeatS0l2",
      "id" : "3cJEUEmZIaIPypHeatS0l2",
      "is_local" : false,
      "is_playable" : true,
      "name" : "Leaning On The Everlasting Arms",
      "popularity" : 26,
      "preview_url" : "https://p.scdn.co/mp3-preview/02784f09610b7c9a5cce052e5401129d444b96f7?cid=774b29d4f13844c495f206cafdad9c86",
      "track_number" : 8,
      "type" : "track",
      "uri" : "spotify:track:3cJEUEmZIaIPypHeatS0l2"
    }, {
      "album" : {
        "album_type" : "single",
        "artists" : [ {
          "external_urls" : {
            "spotify" : "https://open.spotify.com/artist/0WlbBY0t3hNDiAubKTSHAW"
          },
          "href" : "https://api.spotify.com/v1/artists/0WlbBY0t3hNDiAubKTSHAW",
          "id" : "0WlbBY0t3hNDiAubKTSHAW",
          "name" : "Lifetree Kids",
          "type" : "artist",
          "uri" : "spotify:artist:0WlbBY0t3hNDiAubKTSHAW"
        } ],
        "external_urls" : {
          "spotify" : "https://open.spotify.com/album/3edKpA0HWG7OfypqpWTbZr"
        },
        "href" : "https://api.spotify.com/v1/albums/3edKpA0HWG7OfypqpWTbZr",
        "id" : "3edKpA0HWG7OfypqpWTbZr",
        "images" : [ {
          "height" : 640,
          "url" : "https://i.scdn.co/image/ab67616d0000b273b84b036763cbd6246d7efbe0",
          "width" : 640
        }, {
          "height" : 300,
          "url" : "https://i.scdn.co/image/ab67616d00001e02b84b036763cbd6246d7efbe0",
          "width" : 300
        }, {
          "height" : 64,
          "url" : "https://i.scdn.co/image/ab67616d00004851b84b036763cbd6246d7efbe0",
          "width" : 64
        } ],
        "name" : "Leaning on the Everlasting Arms",
        "release_date" : "2019-07-12",
        "release_date_precision" : "day",
        "total_tracks" : 1,
        "type" : "album",
        "uri" : "spotify:album:3edKpA0HWG7OfypqpWTbZr"
      },
      "artists" : [ {
        "external_urls" : {
          "spotify" : "https://open.spotify.com/artist/0WlbBY0t3hNDiAubKTSHAW"
        },
        "href" : "https://api.spotify.com/v1/artists/0WlbBY0t3hNDiAubKTSHAW",
        "id" : "0WlbBY0t3hNDiAubKTSHAW",
        "name" : "Lifetree Kids",
        "type" : "artist",
        "uri" : "spotify:artist:0WlbBY0t3hNDiAubKTSHAW"
      } ],
      "disc_number" : 1,
      "duration_ms" : 131461,
      "explicit" : false,
      "external_ids" : {
        "isrc" : "US6YG1900777"
      },
      "external_urls" : {
        "spotify" : "https://open.spotify.com/track/780HKQQbIHqLb4IMa4H3E4"
      },
      "href" : "https://api.spotify.com/v1/tracks/780HKQQbIHqLb4IMa4H3E4",
      "id" : "780HKQQbIHqLb4IMa4H3E4",
      "is_local" : false,
      "is_playable" : true,
      "name" : "Leaning on the Everlasting Arms",
      "popularity" : 28,
      "preview_url" : "https://p.scdn.co/mp3-preview/3cbab39424db3571389fed5600ae314ba57e1291?cid=774b29d4f13844c495f206cafdad9c86",
      "track_number" : 1,
      "type" : "track",
      "uri" : "spotify:track:780HKQQbIHqLb4IMa4H3E4"
    }, {
      "album" : {
        "album_type" : "album",
        "artists" : [ {
          "external_urls" : {
            "spotify" : "https://open.spotify.com/artist/6h76MLMaPUoWVPC7VnEw86"
          },
          "href" : "https://api.spotify.com/v1/artists/6h76MLMaPUoWVPC7VnEw86",
          "id" : "6h76MLMaPUoWVPC7VnEw86",
          "name" : "Mother Goose Club",
          "type" : "artist",
          "uri" : "spotify:artist:6h76MLMaPUoWVPC7VnEw86"
        } ],
        "external_urls" : {
          "spotify" : "https://open.spotify.com/album/5TF3D5E7rxRdbF6hJreACe"
        },
        "href" : "https://api.spotify.com/v1/albums/5TF3D5E7rxRdbF6hJreACe",
        "id" : "5TF3D5E7rxRdbF6hJreACe",
        "images" : [ {
          "height" : 640,
          "url" : "https://i.scdn.co/image/ab67616d0000b2731bc9e95f283c813c4f7e033c",
          "width" : 640
        }, {
          "height" : 300,
          "url" : "https://i.scdn.co/image/ab67616d00001e021bc9e95f283c813c4f7e033c",
          "width" : 300
        }, {
          "height" : 64,
          "url" : "https://i.scdn.co/image/ab67616d000048511bc9e95f283c813c4f7e033c",
          "width" : 64
        } ],
        "name" : "Lullaby Baby Folk",
        "release_date" : "2020-03-20",
        "release_date_precision" : "day",
        "total_tracks" : 15,
        "type" : "album",
        "uri" : "spotify:album:5TF3D5E7rxRdbF6hJreACe"
      },
      "artists" : [ {
        "external_urls" : {
          "spotify" : "https://open.spotify.com/artist/6h76MLMaPUoWVPC7VnEw86"
        },
        "href" : "https://api.spotify.com/v1/artists/6h76MLMaPUoWVPC7VnEw86",
        "id" : "6h76MLMaPUoWVPC7VnEw86",
        "name" : "Mother Goose Club",
        "type" : "artist",
        "uri" : "spotify:artist:6h76MLMaPUoWVPC7VnEw86"
      } ],
      "disc_number" : 1,
      "duration_ms" : 214577,
      "explicit" : false,
      "external_ids" : {
        "isrc" : "QMXDV2001253"
      },
      "external_urls" : {
        "spotify" : "https://open.spotify.com/track/5AWss6yLAyv43L7XCA0AhR"
      },
      "href" : "https://api.spotify.com/v1/tracks/5AWss6yLAyv43L7XCA0AhR",
      "id" : "5AWss6yLAyv43L7XCA0AhR",
      "is_local" : false,
      "is_playable" : true,
      "name" : "Leaning on the Everlasting Arms",
      "popularity" : 27,
      "preview_url" : "https://p.scdn.co/mp3-preview/00c1cec0ba312ee1d2c09c31c5eb192085ad4ce6?cid=774b29d4f13844c495f206cafdad9c86",
      "track_number" : 5,
      "type" : "track",
      "uri" : "spotify:track:5AWss6yLAyv43L7XCA0AhR"
    }, {
      "album" : {
        "album_type" : "album",
        "artists" : [ {
          "external_urls" : {
            "spotify" : "https://open.spotify.com/artist/4tw2Lmn9tTPUv7Gy7mVPI4"
          },
          "href" : "https://api.spotify.com/v1/artists/4tw2Lmn9tTPUv7Gy7mVPI4",
          "id" : "4tw2Lmn9tTPUv7Gy7mVPI4",
          "name" : "Kenny Rogers",
          "type" : "artist",
          "uri" : "spotify:artist:4tw2Lmn9tTPUv7Gy7mVPI4"
        } ],
        "external_urls" : {
          "spotify" : "https://open.spotify.com/album/1nDyCvaM27YErKw6rFWzlN"
        },
        "href" : "https://api.spotify.com/v1/albums/1nDyCvaM27YErKw6rFWzlN",
        "id" : "1nDyCvaM27YErKw6rFWzlN",
        "images" : [ {
          "height" : 640,
          "url" : "https://i.scdn.co/image/ab67616d0000b2739f5c376eac033f0bb81e8ab8",
          "width" : 640
        }, {
          "height" : 300,
          "url" : "https://i.scdn.co/image/ab67616d00001e029f5c376eac033f0bb81e8ab8",
          "width" : 300
        }, {
          "height" : 64,
          "url" : "https://i.scdn.co/image/ab67616d000048519f5c376eac033f0bb81e8ab8",
          "width" : 64
        } ],
        "name" : "The Love of God (Deluxe Edition)",
        "release_date" : "2019-10-25",
        "release_date_precision" : "day",
        "total_tracks" : 13,
        "type" : "album",
        "uri" : "spotify:album:1nDyCvaM27YErKw6rFWzlN"
      },
      "artists" : [ {
        "external_urls" : {
          "spotify" : "https://open.spotify.com/artist/4tw2Lmn9tTPUv7Gy7mVPI4"
        },
        "href" : "https://api.spotify.com/v1/artists/4tw2Lmn9tTPUv7Gy7mVPI4",
        "id" : "4tw2Lmn9tTPUv7Gy7mVPI4",
        "name" : "Kenny Rogers",
        "type" : "artist",
        "uri" : "spotify:artist:4tw2Lmn9tTPUv7Gy7mVPI4"
      } ],
      "disc_number" : 1,
      "duration_ms" : 106653,
      "explicit" : false,
      "external_ids" : {
        "isrc" : "US3271201229"
      },
      "external_urls" : {
        "spotify" : "https://open.spotify.com/track/4AFhh6fOYIBRRvhymNDWrT"
      },
      "href" : "https://api.spotify.com/v1/tracks/4AFhh6fOYIBRRvhymNDWrT",
      "id" : "4AFhh6fOYIBRRvhymNDWrT",
      "is_local" : false,
      "is_playable" : true,
      "name" : "Leaning on the Everlasting Arms",
      "popularity" : 31,
      "preview_url" : "https://p.scdn.co/mp3-preview/b4b93d66df605e7bd3845949e5eae4ffe20c078c?cid=774b29d4f13844c495f206cafdad9c86",
      "track_number" : 13,
      "type" : "track",
      "uri" : "spotify:track:4AFhh6fOYIBRRvhymNDWrT"
    }, {
      "album" : {
        "album_type" : "album",
        "artists" : [ {
          "external_urls" : {
            "spotify" : "https://open.spotify.com/artist/5PSWc8Y94zFsAtZlTe7ipI"
          },
          "href" : "https://api.spotify.com/v1/artists/5PSWc8Y94zFsAtZlTe7ipI",
          "id" : "5PSWc8Y94zFsAtZlTe7ipI",
          "name" : "The Statler Brothers",
          "type" : "artist",
          "uri" : "spotify:artist:5PSWc8Y94zFsAtZlTe7ipI"
        } ],
        "external_urls" : {
          "spotify" : "https://open.spotify.com/album/1FzhXCFcisNUv52nfjgVPN"
        },
        "href" : "https://api.spotify.com/v1/albums/1FzhXCFcisNUv52nfjgVPN",
        "id" : "1FzhXCFcisNUv52nfjgVPN",
        "images" : [ {
          "height" : 640,
          "url" : "https://i.scdn.co/image/ab67616d0000b273c39525ce972f9f2797dcf88f",
          "width" : 640
        }, {
          "height" : 300,
          "url" : "https://i.scdn.co/image/ab67616d00001e02c39525ce972f9f2797dcf88f",
          "width" : 300
        }, {
          "height" : 64,
          "url" : "https://i.scdn.co/image/ab67616d00004851c39525ce972f9f2797dcf88f",
          "width" : 64
        } ],
        "name" : "The Gospel Music Of The Statler Brothers Volume Two",
        "release_date" : "2010-01-01",
        "release_date_precision" : "day",
        "total_tracks" : 19,
        "type" : "album",
        "uri" : "spotify:album:1FzhXCFcisNUv52nfjgVPN"
      },
      "artists" : [ {
        "external_urls" : {
          "spotify" : "https://open.spotify.com/artist/5PSWc8Y94zFsAtZlTe7ipI"
        },
        "href" : "https://api.spotify.com/v1/artists/5PSWc8Y94zFsAtZlTe7ipI",
        "id" : "5PSWc8Y94zFsAtZlTe7ipI",
        "name" : "The Statler Brothers",
        "type" : "artist",
        "uri" : "spotify:artist:5PSWc8Y94zFsAtZlTe7ipI"
      } ],
      "disc_number" : 1,
      "duration_ms" : 157533,
      "explicit" : false,
      "external_ids" : {
        "isrc" : "US3271000201"
      },
      "external_urls" : {
        "spotify" : "https://open.spotify.com/track/3KzCWNuIvTCCtNOG9CU4Je"
      },
      "href" : "https://api.spotify.com/v1/tracks/3KzCWNuIvTCCtNOG9CU4Je",
      "id" : "3KzCWNuIvTCCtNOG9CU4Je",
      "is_local" : false,
      "is_playable" : true,
      "name" : "Leaning On The Everlasting Arms",
      "popularity" : 24,
      "preview_url" : null,
      "track_number" : 9,
      "type" : "track",
      "uri" : "spotify:track:3KzCWNuIvTCCtNOG9CU4Je"
    }, {
      "album" : {
        "album_type" : "album",
        "artists" : [ {
          "external_urls" : {
            "spotify" : "https://open.spotify.com/artist/7dc9jcxR0GgRMoNasStnmZ"
          },
          "href" : "https://api.spotify.com/v1/artists/7dc9jcxR0GgRMoNasStnmZ",
          "id" : "7dc9jcxR0GgRMoNasStnmZ",
          "name" : "David Baroni",
          "type" : "artist",
          "uri" : "spotify:artist:7dc9jcxR0GgRMoNasStnmZ"
        } ],
        "external_urls" : {
          "spotify" : "https://open.spotify.com/album/0QOzN93Vhpw1rwTonEKrnf"
        },
        "href" : "https://api.spotify.com/v1/albums/0QOzN93Vhpw1rwTonEKrnf",
        "id" : "0QOzN93Vhpw1rwTonEKrnf",
        "images" : [ {
          "height" : 640,
          "url" : "https://i.scdn.co/image/ab67616d0000b273ddfd3808b869d69ac7b94ceb",
          "width" : 640
        }, {
          "height" : 300,
          "url" : "https://i.scdn.co/image/ab67616d00001e02ddfd3808b869d69ac7b94ceb",
          "width" : 300
        }, {
          "height" : 64,
          "url" : "https://i.scdn.co/image/ab67616d00004851ddfd3808b869d69ac7b94ceb",
          "width" : 64
        } ],
        "name" : "A Quiet Place: Instrumental Hymns",
        "release_date" : "2009-11-28",
        "release_date_precision" : "day",
        "total_tracks" : 12,
        "type" : "album",
        "uri" : "spotify:album:0QOzN93Vhpw1rwTonEKrnf"
      },
      "artists" : [ {
        "external_urls" : {
          "spotify" : "https://open.spotify.com/artist/7dc9jcxR0GgRMoNasStnmZ"
        },
        "href" : "https://api.spotify.com/v1/artists/7dc9jcxR0GgRMoNasStnmZ",
        "id" : "7dc9jcxR0GgRMoNasStnmZ",
        "name" : "David Baroni",
        "type" : "artist",
        "uri" : "spotify:artist:7dc9jcxR0GgRMoNasStnmZ"
      } ],
      "disc_number" : 1,
      "duration_ms" : 227066,
      "explicit" : false,
      "external_ids" : {
        "isrc" : "usx9p0933851"
      },
      "external_urls" : {
        "spotify" : "https://open.spotify.com/track/11YkDLRkUIveqdbwhsB2zn"
      },
      "href" : "https://api.spotify.com/v1/tracks/11YkDLRkUIveqdbwhsB2zn",
      "id" : "11YkDLRkUIveqdbwhsB2zn",
      "is_local" : false,
      "is_playable" : true,
      "name" : "Leaning On the Everlasting Arms",
      "popularity" : 26,
      "preview_url" : "https://p.scdn.co/mp3-preview/2013c04aecd175c5b66bcf97965d5d6da181fe74?cid=774b29d4f13844c495f206cafdad9c86",
      "track_number" : 9,
      "type" : "track",
      "uri" : "spotify:track:11YkDLRkUIveqdbwhsB2zn"
    }, {
      "album" : {
        "album_type" : "compilation",
        "artists" : [ {
          "external_urls" : {
            "spotify" : "https://open.spotify.com/artist/4oqDjmQqqqAQCHoJ0cNwGr"
          },
          "href" : "https://api.spotify.com/v1/artists/4oqDjmQqqqAQCHoJ0cNwGr",
          "id" : "4oqDjmQqqqAQCHoJ0cNwGr",
          "name" : "Buddy Greene",
          "type" : "artist",
          "uri" : "spotify:artist:4oqDjmQqqqAQCHoJ0cNwGr"
        } ],
        "external_urls" : {
          "spotify" : "https://open.spotify.com/album/3b0VqUErzvepd2KcHNTLcp"
        },
        "href" : "https://api.spotify.com/v1/albums/3b0VqUErzvepd2KcHNTLcp",
        "id" : "3b0VqUErzvepd2KcHNTLcp",
        "images" : [ {
          "height" : 640,
          "url" : "https://i.scdn.co/image/ab67616d0000b273bd90e3570ecb1bd30e678f68",
          "width" : 640
        }, {
          "height" : 300,
          "url" : "https://i.scdn.co/image/ab67616d00001e02bd90e3570ecb1bd30e678f68",
          "width" : 300
        }, {
          "height" : 64,
          "url" : "https://i.scdn.co/image/ab67616d00004851bd90e3570ecb1bd30e678f68",
          "width" : 64
        } ],
        "name" : "The Best Of Buddy Greene",
        "release_date" : "2011-01-01",
        "release_date_precision" : "day",
        "total_tracks" : 18,
        "type" : "album",
        "uri" : "spotify:album:3b0VqUErzvepd2KcHNTLcp"
      },
      "artists" : [ {
        "external_urls" : {
          "spotify" : "https://open.spotify.com/artist/6AiuFk4YUoY4xi15OZJfKm"
        },
        "href" : "https://api.spotify.com/v1/artists/6AiuFk4YUoY4xi15OZJfKm",
        "id" : "6AiuFk4YUoY4xi15OZJfKm",
        "name" : "Jeff & Sheri Easter",
        "type" : "artist",
        "uri" : "spotify:artist:6AiuFk4YUoY4xi15OZJfKm"
      }, {
        "external_urls" : {
          "spotify" : "https://open.spotify.com/artist/4oqDjmQqqqAQCHoJ0cNwGr"
        },
        "href" : "https://api.spotify.com/v1/artists/4oqDjmQqqqAQCHoJ0cNwGr",
        "id" : "4oqDjmQqqqAQCHoJ0cNwGr",
        "name" : "Buddy Greene",
        "type" : "artist",
        "uri" : "spotify:artist:4oqDjmQqqqAQCHoJ0cNwGr"
      } ],
      "disc_number" : 1,
      "duration_ms" : 282453,
      "explicit" : false,
      "external_ids" : {
        "isrc" : "US3271000132"
      },
      "external_urls" : {
        "spotify" : "https://open.spotify.com/track/1YOuabFjLwtNjwsCEeBySF"
      },
      "href" : "https://api.spotify.com/v1/tracks/1YOuabFjLwtNjwsCEeBySF",
      "id" : "1YOuabFjLwtNjwsCEeBySF",
      "is_local" : false,
      "is_playable" : true,
      "name" : "Leaning On The Everlasting Arms - Live At The Cove: Billy Graham Training Center, Asheville, NC/2001",
      "popularity" : 27,
      "preview_url" : null,
      "track_number" : 11,
      "type" : "track",
      "uri" : "spotify:track:1YOuabFjLwtNjwsCEeBySF"
    }, {
      "album" : {
        "album_type" : "album",
        "artists" : [ {
          "external_urls" : {
            "spotify" : "https://open.spotify.com/artist/6gM87haEMrst4Eqdobf98c"
          },
          "href" : "https://api.spotify.com/v1/artists/6gM87haEMrst4Eqdobf98c",
          "id" : "6gM87haEMrst4Eqdobf98c",
          "name" : "The Osborne Brothers",
          "type" : "artist",
          "uri" : "spotify:artist:6gM87haEMrst4Eqdobf98c"
        } ],
        "external_urls" : {
          "spotify" : "https://open.spotify.com/album/0JeAZaLXvRAG8RyrZRxe16"
        },
        "href" : "https://api.spotify.com/v1/albums/0JeAZaLXvRAG8RyrZRxe16",
        "id" : "0JeAZaLXvRAG8RyrZRxe16",
        "images" : [ {
          "height" : 640,
          "url" : "https://i.scdn.co/image/ab67616d0000b273993d7aac246bb092ea52c464",
          "width" : 640
        }, {
          "height" : 300,
          "url" : "https://i.scdn.co/image/ab67616d00001e02993d7aac246bb092ea52c464",
          "width" : 300
        }, {
          "height" : 64,
          "url" : "https://i.scdn.co/image/ab67616d00004851993d7aac246bb092ea52c464",
          "width" : 64
        } ],
        "name" : "Hyden",
        "release_date" : "1998-10-27",
        "release_date_precision" : "day",
        "total_tracks" : 13,
        "type" : "album",
        "uri" : "spotify:album:0JeAZaLXvRAG8RyrZRxe16"
      },
      "artists" : [ {
        "external_urls" : {
          "spotify" : "https://open.spotify.com/artist/6gM87haEMrst4Eqdobf98c"
        },
        "href" : "https://api.spotify.com/v1/artists/6gM87haEMrst4Eqdobf98c",
        "id" : "6gM87haEMrst4Eqdobf98c",
        "name" : "The Osborne Brothers",
        "type" : "artist",
        "uri" : "spotify:artist:6gM87haEMrst4Eqdobf98c"
      } ],
      "disc_number" : 1,
      "duration_ms" : 160906,
      "explicit" : false,
      "external_ids" : {
        "isrc" : "USA370666526"
      },
      "external_urls" : {
        "spotify" : "https://open.spotify.com/track/2bXziZhvweedZe1XKO1583"
      },
      "href" : "https://api.spotify.com/v1/tracks/2bXziZhvweedZe1XKO1583",
      "id" : "2bXziZhvweedZe1XKO1583",
      "is_local" : false,
      "is_playable" : true,
      "name" : "Leaning on the Everlasting Arms",
      "popularity" : 21,
      "preview_url" : "https://p.scdn.co/mp3-preview/c77c39e6ff110256ea18cccd7fb7f8d326d23ed7?cid=774b29d4f13844c495f206cafdad9c86",
      "track_number" : 4,
      "type" : "track",
      "uri" : "spotify:track:2bXziZhvweedZe1XKO1583"
    }, {
      "album" : {
        "album_type" : "album",
        "artists" : [ {
          "external_urls" : {
            "spotify" : "https://open.spotify.com/artist/7xkEury4Vby5uUKojsVMKm"
          },
          "href" : "https://api.spotify.com/v1/artists/7xkEury4Vby5uUKojsVMKm",
          "id" : "7xkEury4Vby5uUKojsVMKm",
          "name" : "Life Hymns Worship Trio",
          "type" : "artist",
          "uri" : "spotify:artist:7xkEury4Vby5uUKojsVMKm"
        } ],
        "external_urls" : {
          "spotify" : "https://open.spotify.com/album/0sGX9LQYU39XmxRivqemwb"
        },
        "href" : "https://api.spotify.com/v1/albums/0sGX9LQYU39XmxRivqemwb",
        "id" : "0sGX9LQYU39XmxRivqemwb",
        "images" : [ {
          "height" : 640,
          "url" : "https://i.scdn.co/image/ab67616d0000b2738513775cf3ab4a3efdd5509d",
          "width" : 640
        }, {
          "height" : 300,
          "url" : "https://i.scdn.co/image/ab67616d00001e028513775cf3ab4a3efdd5509d",
          "width" : 300
        }, {
          "height" : 64,
          "url" : "https://i.scdn.co/image/ab67616d000048518513775cf3ab4a3efdd5509d",
          "width" : 64
        } ],
        "name" : "Relaxing Worship Hymns, Vol. 2",
        "release_date" : "2020-04-01",
        "release_date_precision" : "day",
        "total_tracks" : 12,
        "type" : "album",
        "uri" : "spotify:album:0sGX9LQYU39XmxRivqemwb"
      },
      "artists" : [ {
        "external_urls" : {
          "spotify" : "https://open.spotify.com/artist/7xkEury4Vby5uUKojsVMKm"
        },
        "href" : "https://api.spotify.com/v1/artists/7xkEury4Vby5uUKojsVMKm",
        "id" : "7xkEury4Vby5uUKojsVMKm",
        "name" : "Life Hymns Worship Trio",
        "type" : "artist",
        "uri" : "spotify:artist:7xkEury4Vby5uUKojsVMKm"
      } ],
      "disc_number" : 1,
      "duration_ms" : 322000,
      "explicit" : false,
      "external_ids" : {
        "isrc" : "QZGWW2072320"
      },
      "external_urls" : {
        "spotify" : "https://open.spotify.com/track/6we5amTxRUrvU0SKeAaxiQ"
      },
      "href" : "https://api.spotify.com/v1/tracks/6we5amTxRUrvU0SKeAaxiQ",
      "id" : "6we5amTxRUrvU0SKeAaxiQ",
      "is_local" : false,
      "is_playable" : true,
      "name" : "Leaning on the Everlasting Arms (What a Fellowship)",
      "popularity" : 27,
      "preview_url" : "https://p.scdn.co/mp3-preview/7c685127413c13e1c572108eed77ca8751714ba2?cid=774b29d4f13844c495f206cafdad9c86",
      "track_number" : 3,
      "type" : "track",
      "uri" : "spotify:track:6we5amTxRUrvU0SKeAaxiQ"
    }, {
      "album" : {
        "album_type" : "album",
        "artists" : [ {
          "external_urls" : {
            "spotify" : "https://open.spotify.com/artist/6oLzN8cU382zotCKpCNcbT"
          },
          "href" : "https://api.spotify.com/v1/artists/6oLzN8cU382zotCKpCNcbT",
          "id" : "6oLzN8cU382zotCKpCNcbT",
          "name" : "Dino",
          "type" : "artist",
          "uri" : "spotify:artist:6oLzN8cU382zotCKpCNcbT"
        } ],
        "external_urls" : {
          "spotify" : "https://open.spotify.com/album/5MFbYPISuqiZ5BpA2eeQTV"
        },
        "href" : "https://api.spotify.com/v1/albums/5MFbYPISuqiZ5BpA2eeQTV",
        "id" : "5MFbYPISuqiZ5BpA2eeQTV",
        "images" : [ {
          "height" : 640,
          "url" : "https://i.scdn.co/image/ab67616d0000b2736f041c55c0229e88e0a0d089",
          "width" : 640
        }, {
          "height" : 300,
          "url" : "https://i.scdn.co/image/ab67616d00001e026f041c55c0229e88e0a0d089",
          "width" : 300
        }, {
          "height" : 64,
          "url" : "https://i.scdn.co/image/ab67616d000048516f041c55c0229e88e0a0d089",
          "width" : 64
        } ],
        "name" : "Sacred Piano: Hymns Collection, Vol. 2",
        "release_date" : "2007-01-01",
        "release_date_precision" : "day",
        "total_tracks" : 12,
        "type" : "album",
        "uri" : "spotify:album:5MFbYPISuqiZ5BpA2eeQTV"
      },
      "artists" : [ {
        "external_urls" : {
          "spotify" : "https://open.spotify.com/artist/6oLzN8cU382zotCKpCNcbT"
        },
        "href" : "https://api.spotify.com/v1/artists/6oLzN8cU382zotCKpCNcbT",
        "id" : "6oLzN8cU382zotCKpCNcbT",
        "name" : "Dino",
        "type" : "artist",
        "uri" : "spotify:artist:6oLzN8cU382zotCKpCNcbT"
      } ],
      "disc_number" : 1,
      "duration_ms" : 137160,
      "explicit" : false,
      "external_ids" : {
        "isrc" : "USACX0800796"
      },
      "external_urls" : {
        "spotify" : "https://open.spotify.com/track/7zyKRNL8dCkIKOnofEhxhU"
      },
      "href" : "https://api.spotify.com/v1/tracks/7zyKRNL8dCkIKOnofEhxhU",
      "id" : "7zyKRNL8dCkIKOnofEhxhU",
      "is_local" : false,
      "is_playable" : true,
      "name" : "Leaning on the Everlasting Arms",
      "popularity" : 23,
      "preview_url" : "https://p.scdn.co/mp3-preview/5dd3a09af99af0c79d60b38459a5ba8d07a228fe?cid=774b29d4f13844c495f206cafdad9c86",
      "track_number" : 1,
      "type" : "track",
      "uri" : "spotify:track:7zyKRNL8dCkIKOnofEhxhU"
    } ],
    "limit" : 10,
    "next" : "https://api.spotify.com/v1/search?query=Leaning+On+the+Everlasting+Arms&type=track&market=US&offset=15&limit=10",
    "offset" : 5,
    "previous" : "https://api.spotify.com/v1/search?query=Leaning+On+the+Everlasting+Arms&type=track&market=US&offset=0&limit=10",
    "total" : 935
  }
}