{
  "tracks" : {
    "href" : "https://api.spotify.com/v1/search?query=Jesus%2C+Lover+of+My+Soul&type=track&market=US&offset=5&limit=10",
    "items" : [ {
      "album" : {
        "album_type" : "album",
        "artists" : [ {
          "external_urls" : {
            "spotify" : "https://open.spotify.com/artist/0HoHU8SXe0g9jJGOfL8rDq"
          },
          "href" : "https://api.spotify.com/v1/artists/0HoHU8SXe0g9jJGOfL8rDq",
          "id" : "0HoHU8SXe0g9jJGOfL8rDq",
          "name" : "Indelible Grace Music",
          "type" : "artist",
          "uri" : "spotify:artist:0HoHU8SXe0g9jJGOfL8rDq"
        } ],
        "external_urls" : {
          "spotify" : "https://open.spotify.com/album/1Ibcxs7oCN4VFa4nfWMyCc"
        },
        "href" : "https://api.spotify.com/v1/albums/1Ibcxs7oCN4VFa4nfWMyCc",
        "id" : "1Ibcxs7oCN4VFa4nfWMyCc",
        "images" : [ {
          "height" : 640,
          "url" : "https://i.scdn.co/image/ab67616d0000b27344c663d7e1e74ea50da4f516",
          "width" : 640
        }, {
          "height" : 300,
          "url" : "https://i.scdn.co/image/ab67616d00001e0244c663d7e1e74ea50da4f516",
          "width" : 300
        }, {
          "height" : 64,
          "url" : "https://i.scdn.co/image/ab67616d0000485144c663d7e1e74ea50da4f516",
          "width" : 64
        } ],
        "name" : "Beams of Heaven: Indelible Grace IV",
        "release_date" : "2008-07-28",
        "release_date_precision" : "day",
        "total_tracks" : 15,
        "type" : "album",
        "uri" : "spotify:album:1Ibcxs7oCN4VFa4nfWMyCc"
      },
      "artists" : [ {
        "external_urls" : {
          "spotify" : "https://open.spotify.com/artist/0HoHU8SXe0g9jJGOfL8rDq"
        },
        "href" : "https://api.spotify.com/v1/artists/0HoHU8SXe0g9jJGOfL8rDq",
        "id" : "0HoHU8SXe0g9jJGOfL8rDq",
        "name" : "Indelible Grace Music",
        "type" : "artist",
        "uri" : "spotify:artist:0HoHU8SXe0g9jJGOfL8rDq"
      } ],
      "disc_number" : 1,
      "duration_ms" : 328640,
      "explicit" : false,
      "external_ids" : {
        "isrc" : "USTC60817660"
      },
      "external_urls" : {
        "spotify" : "https://open.spotify.com/track/5btTCLx2WW5BaVdS2sg7hx"
      },
      "href" : "https://api.spotify.com/v1/tracks/5btTCLx2WW5BaVdS2sg7hx",
      "id" : "5btTCLx2WW5BaVdS2sg7hx",
      "is_local" : false,
      "is_playable" : true,
      "name" : "Jesus Lover of My Soul [Mp Jones]",
      "popularity" : 23,
      "preview_url" : "https://p.scdn.co/mp3-preview/4799c98b83cb26659e47e976938fdd7f9b11effd?cid=774b29d4f13844c495f206cafdad9c86",
      "track_number" : 6,
      "type" : "track",
      "uri" : "spotify:track:5btTCLx2WW5BaVdS2sg7hx"
    }, {
      "album" : {
        "album_type" : "album",
        "artists" : [ {
          "external_urls" : {
            "spotify" : "https://open.spotify.com/artist/74cb3MG0x0BOnYNW1uXYnM"
          },
          "href" : "https://api.spotify.com/v1/artists/74cb3MG0x0BOnYNW1uXYnM",
          "id" : "74cb3MG0x0BOnYNW1uXYnM",
          "name" : "Hillsong UNITED",
          "type" : "artist",
          "uri" : "spotify:artist:74cb3MG0x0BOnYNW1uXYnM"
        } ],
        "external_urls" : {
          "spotify" : "https://open.spotify.com/album/1a0a2gm3EV5vaYxbYkwbvx"
        },
        "href" : "https://api.spotify.com/v1/albums/1a0a2gm3EV5vaYxbYkwbvx",
        "id" : "1a0a2gm3EV5vaYxbYkwbvx",
        "images" : [ {
          "height" : 640,
          "url" : "https://i.scdn.co/image/ab67616d0000b273b28e04981bf28b681b8648a9",
          "width" : 640
        }, {
          "height" : 300,
          "url" : "https://i.scdn.co/image/ab67616d00001e02b28e04981bf28b681b8648a9",
          "width" : 300
        }, {
          "height" : 64,
          "url" : "https://i.scdn.co/image/ab67616d00004851b28e04981bf28b681b8648a9",
          "width" : 64
        } ],
        "name" : "Best Friend: United Live",
        "release_date" : "2000-01-16",
        "release_date_precision" : "day",
        "total_tracks" : 10,
        "type" : "album",
        "uri" : "spotify:album:1a0a2gm3EV5vaYxbYkwbvx"
      },
      "artists" : [ {
        "external_urls" : {
          "spotify" : "https://open.spotify.com/artist/74cb3MG0x0BOnYNW1uXYnM"
        },
        "href" : "https://api.spotify.com/v1/artists/74cb3MG0x0BOnYNW1uXYnM",
        "id" : "74cb3MG0x0BOnYNW1uXYnM",
        "name" : "Hillsong UNITED",
        "type" : "artist",
        "uri" : "spotify:artist:74cb3MG0x0BOnYNW1uXYnM"
      } ],
      "disc_number" : 1,
      "duration_ms" : 594533,
      "explicit" : false,
      "external_ids" : {
        "isrc" : "AUHS00001165"
      },
      "external_urls" : {
        "spotify" : "https://open.spotify.com/track/3ictund9KuuTsP2kqYvO6v"
      },
      "href" : "https://api.spotify.com/v1/tracks/3ictund9KuuTsP2kqYvO6v",
      "id" : "3ictund9KuuTsP2kqYvO6v",
      "is_local" : false,
      "is_playable" : true,
      "name" : "Jesus Lover Of My Soul - Live",
      "popularity" : 23,
      "preview_url" : null,
      "track_number" : 9,
      "type" : "track",
      "uri" : "spotify:track:3ictund9KuuTsP2kqYvO6v"
    }, {
      "album" : {
        "album_type" : "album",
        "artists" : [ {
          "external_urls" : {
            "spotify" : "https://open.spotify.com/artist/6ZLy8YFk7VbamsI5qbYXtw"
          },
          "href" : "https://api.spotify.com/v1/artists/6ZLy8YFk7VbamsI5qbYXtw",
          "id" : "6ZLy8YFk7VbamsI5qbYXtw",
          "name" : "Darlene Zschech",
          "type" : "artist",
          "uri" : "spotify:artist:6ZLy8YFk7VbamsI5qbYXtw"
        } ],
        "external_urls" : {
          "spotify" : "https://open.spotify.com/album/5nl4wytHSeMq1mav6wty9b"
        },
        "href" : "https://api.spotify.com/v1/albums/5nl4wytHSeMq1mav6wty9b",
        "id" : "5nl4wytHSeMq1mav6wty9b",
        "images" : [ {
          "height" : 640,
          "url" : "https://i.scdn.co/image/ab67616d0000b2736c0e6f06742544d92270b41b",
          "width" : 640
        }, {
          "height" : 300,
          "url" : "https://i.scdn.co/image/ab67616d00001e026c0e6f06742544d92270b41b",
          "width" : 300
        }, {
          "height" : 64,
          "url" : "https://i.scdn.co/image/ab67616d000048516c0e6f06742544d92270b41b",
          "width" : 64
        } ],
        "name" : "In Jesus' Name: A Legacy of Worship & Faith",
        "release_date" : "2015-02-08",
        "release_date_precision" : "day",
        "total_tracks" : 14,
        "type" : "album",
        "uri" : "spotify:album:5nl4wytHSeMq1mav6wty9b"
      },
      "artists" : [ {
        "external_urls" : {
          "spotify" : "https://open.spotify.com/artist/6ZLy8YFk7VbamsI5qbYXtw"
        },
        "href" : "https://api.spotify.com/v1/artists/6ZLy8YFk7VbamsI5qbYXtw",
        "id" : "6ZLy8YFk7VbamsI5qbYXtw",
        "name" : "Darlene Zschech",
        "type" : "artist",
        "uri" : "spotify:artist:6ZLy8YFk7VbamsI5qbYXtw"
      } ],
      "disc_number" : 1,
      "duration_ms" : 209320,
      "explicit" : false,
      "external_ids" : {
        "isrc" : "US25L1500052"
      },
      "external_urls" : {
        "spotify" : "https://open.spotify.com/track/5x94mHUgaJ8z1rk5F3w7nC"
      },
      "href" : "https://api.spotify.com/v1/tracks/5x94mHUgaJ8z1rk5F3w7nC",
      "id" : "5x94mHUgaJ8z1rk5F3w7nC",
      "is_local" : false,
      "is_playable" : true,
      "name" : "Jesus Lover of My Soul - Live",
      "popularity" : 32,
      "preview_url" : "https://p.scdn.co/mp3-preview/f9f00c198811110c9fd4ac18260307de8819d231?cid=774b29d4f13844c495f206cafdad9c86",
      "track_number" : 10,
      "type" : "track",
      "uri" : "spotify:track:5x94mHUgaJ8z1rk5F3w7nC"
    }, {
      "album" : {
        "album_type" : "album",
        "artists" : [ {
          "external_urls" : {
            "spotify" : "https://open.spotify.com/artist/3Kr58AAIhwlDWPDMEW9Bzu"
          },
          "href" : "https://api.spotify.com/v1/artists/3Kr58AAIhwlDWPDMEW9Bzu",
          "id" : "3Kr58AAIhwlDWPDMEW9Bzu",
          "name" : "NYCYPCD",
          "type" : "artist",
          "uri" : "spotify:artist:3Kr58AAIhwlDWPDMEW9Bzu"
        } ],
        "external_urls" : {
          "spotify" : "https://open.spotify.com/album/1d9gKqXQjNYhoXPkn33Z8z"
        },
        "href" : "https://api.spotify.com/v1/albums/1d9gKqXQjNYhoXPkn33Z8z",
        "id" : "1d9gKqXQjNYhoXPkn33Z8z",
        "images" : [ {
          "height" : 640,
          "url" : "https://i.scdn.co/image/ab67616d0000b273a26b71f13ff5fae369bba387",
          "width" : 640
        }, {
          "height" : 300,
          "url" : "https://i.scdn.co/image/ab67616d00001e02a26b71f13ff5fae369bba387",
          "width" : 300
        }, {
          "height" : 64,
          "url" : "https://i.scdn.co/image/ab67616d00004851a26b71f13ff5fae369bba387",
          "width" : 64
        } ],
        "name" : "I Surrender All",
        "release_date" : "2019-05-01",
        "release_date_precision" : "day",
        "total_tracks" : 13,
        "type" : "album",
        "uri" : "spotify:album:1d9gKqXQjNYhoXPkn33Z8z"
      },
      "artists" : [ {
        "external_urls" : {
          "spotify" : "https://open.spotify.com/artist/3Kr58AAIhwlDWPDMEW9Bzu"
        },
        "href" : "https://api.spotify.com/v1/artists/3Kr58AAIhwlDWPDMEW9Bzu",
        "id" : "3Kr58AAIhwlDWPDMEW9Bzu",
        "name" : "NYCYPCD",
        "type" : "artist",
        "uri" : "spotify:artist:3Kr58AAIhwlDWPDMEW9Bzu"
      } ],
      "disc_number" : 1,
      "duration_ms" : 196226,
      "explicit" : false,
      "external_ids" : {
        "isrc" : "TCAEF1924025"
      },
      "external_urls" : {
        "spotify" : "https://open.spotify.com/track/2Kj6xswpcqJiTN6RUMKUzn"
      },
      "href" : "https://api.spotify.com/v1/tracks/2Kj6xswpcqJiTN6RUMKUzn",
      "id" : "2Kj6xswpcqJiTN6RUMKUzn",
      "is_local" : false,
      "is_playable" : true,
      "name" : "Jesus, Lover of My Soul",
      "popularity" : 23,
      "preview_url" : "https://p.scdn.co/mp3-preview/7ff7592cd3a8962885bd50623593cb19496bd2fc?cid=774b29d4f13844c495f206cafdad9c86",
      "track_number" : 11,
      "type" : "track",
      "uri" : "spotify:track:2Kj6xswpcqJiTN6RUMKUzn"
    }, {
      "album" : {
        "album_type" : "album",
        "artists" : [ {
          "external_urls" : {
            "spotify" : "https://open.spotify.com/artist/6mGZXaZ4SWNh6IsJ57thCp"
          },
          "href" : "https://api.spotify.com/v1/artists/6mGZXaZ4SWNh6IsJ57thCp",
          "id" : "6mGZXaZ4SWNh6IsJ57thCp",
          "name" : "Fernando Ortega",
          "type" : "artist",
          "uri" : "spotify:artist:6mGZXaZ4SWNh6IsJ57thCp"
        } ],
        "external_urls" : {
          "spotify" : "https://open.spotify.com/album/6b5XytCLYrxIjlxTQgcoz7"
        },
        "href" : "https://api.spotify.com/v1/albums/6b5XytCLYrxIjlxTQgcoz7",
        "id" : "6b5XytCLYrxIjlxTQgcoz7",
        "images" : [ {
          "height" : 640,
          "url" : "https://i.scdn.co/image/ab67616d0000b273d93002fcb77598c2cf9b08c7",
          "width" : 640
        }, {
          "height" : 300,
          "url" : "https://i.scdn.co/image/ab67616d00001e02d93002fcb77598c2cf9b08c7",
          "width" : 300
        }, {
          "height" : 64,
          "url" : "https://i.scdn.co/image/ab67616d00004851d93002fcb77598c2cf9b08c7",
          "width" : 64
        } ],
        "name" : "BEGINNINGS - 2 CD Set",
        "release_date" : "2005-02-25",
        "release_date_precision" : "day",
        "total_tracks" : 34,
        "type" : "album",
        "uri" : "spotify:album:6b5XytCLYrxIjlxTQgcoz7"
      },
      "artists" : [ {
        "external_urls" : {
          "spotify" : "https://open.spotify.com/artist/6mGZXaZ4SWNh6IsJ57thCp"
        },
        "href" : "https://api.spotify.com/v1/artists/6mGZXaZ4SWNh6IsJ57thCp",
        "id" : "6mGZXaZ4SWNh6IsJ57thCp",
        "name" : "Fernando Ortega",
        "type" : "artist",
        "uri" : "spotify:artist:6mGZXaZ4SWNh6IsJ57thCp"
      } ],
      "disc_number" : 1,
      "duration_ms" : 305040,
      "explicit" : false,
      "external_ids" : {
        "isrc" : "ushm90539070"
      },
      "external_urls" : {
        "spotify" : "https://open.spotify.com/track/0RlH46PP5SJO6WjxJBpunD"
      },
      "href" : "https://api.spotify.com/v1/tracks/0RlH46PP5SJO6WjxJBpunD",
      "id" : "0RlH46PP5SJO6WjxJBpunD",
      "is_local" : false,
      "is_playable" : true,
      "name" : "Jesus, Lover Of My Soul",
      "popularity" : 19,
      "preview_url" : "https://p.scdn.co/mp3-preview/2ebfe0615c344421e3d0b23944ceaccbee44e8ba?cid=774b29d4f13844c495f206cafdad9c86",
      "track_number" : 27,
      "type" : "track",
      "uri" : "spotify:track:0RlH46PP5SJO6WjxJBpunD"
    }, {
      "album" : {
        "album_type" : "album",
        "artists" : [ {
          "external_urls" : {
            "spotify" : "https://open.spotify.com/artist/5U9LPyBknlYMg6liERwsTq"
          },
          "href" : "https://api.spotify.com/v1/artists/5U9LPyBknlYMg6liERwsTq",
          "id" : "5U9LPyBknlYMg6liERwsTq",
          "name" : "Brian Daw",
          "type" : "artist",
          "uri" : "spotify:artist:5U9LPyBknlYMg6liERwsTq"
        } ],
        "external_urls" : {
          "spotify" : "https://open.spotify.com/album/0zsq8awLF9OonK9FlziG2X"
        },
        "href" : "https://api.spotify.com/v1/albums/0zsq8awLF9OonK9FlziG2X",
        "id" : "0zsq8awLF9OonK9FlziG2X",
        "images" : [ {
          "height" : 640,
          "url" : "https://i.scdn.co/image/ab67616d0000b2733df621979b0bdae06c4ae374",
          "width" : 640
        }, {
          "height" : 300,
          "url" : "https://i.scdn.co/image/ab67616d00001e023df621979b0bdae06c4ae374",
          "width" : 300
        }, {
          "height" : 64,
          "url" : "https://i.scdn.co/image/ab67616d000048513df621979b0bdae06c4ae374",
          "width" : 64
        } ],
        "name" : "Lds Hymns and Songs You Love Double Album",
        "release_date" : "2015-01-03",
        "release_date_precision" : "day",
        "total_tracks" : 25,
        "type" : "album",
        "uri" : "spotify:album:0zsq8awLF9OonK9FlziG2X"
      },
      "artists" : [ {
        "external_urls" : {
          "spotify" : "https://open.spotify.com/artist/5U9LPyBknlYMg6liERwsTq"
        },
        "href" : "https://api.spotify.com/v1/artists/5U9LPyBknlYMg6liERwsTq",
        "id" : "5U9LPyBknlYMg6liERwsTq",
        "name" : "Brian Daw",
        "type" : "artist",
        "uri" : "spotify:artist:5U9LPyBknlYMg6liERwsTq"
      } ],
      "disc_number" : 1,
      "duration_ms" : 107833,
      "explicit" : false,
      "external_ids" : {
        "isrc" : "TCACC1598559"
      },
      "external_urls" : {
        "spotify" : "https://open.spotify.com/track/4xHUrQ2bQxBXNol8aqua3f"
      },
      "href" : "https://api.spotify.com/v1/tracks/4xHUrQ2bQxBXNol8aqua3f",
      "id" : "4xHUrQ2bQxBXNol8aqua3f",
      "is_local" : false,
      "is_playable" : true,
      "name" : "Jesus Lover of My Soul",
      "popularity" : 19,
      "preview_url" : "https://p.scdn.co/mp3-preview/0654a3105cc8b855ad7fd60491f546d79b6df3a9?cid=774b29d4f13844c495f206cafdad9c86",
      "track_number" : 13,
      "type" : "track",
      "uri" : "spotify:track:4xHUrQ2bQxBXNol8aqua3f"
    }, {
      "album" : {
        "album_type" : "album",
        "artists" : [ {
          "external_urls" : {
            "spotify" : "https://open.spotify.com/artist/2sHZLtiGJbXHAShjJIurVo"
          },
          "href" : "https://api.spotify.com/v1/artists/2sHZLtiGJbXHAShjJIurVo",
          "id" : "2sHZLtiGJbXHAShjJIurVo",
          "name" : "Red Mountain Church",
          "type" : "artist",
          "uri" : "spotify:artist:2sHZLtiGJbXHAShjJIurVo"
        } ],
        "external_urls" : {
          "spotify" : "https://open.spotify.com/album/6h57DTS1uIFRMoPaiUz9u1"
        },
        "href" : "https://api.spotify.com/v1/albums/6h57DTS1uIFRMoPaiUz9u1",
        "id" : "6h57DTS1uIFRMoPaiUz9u1",
        "images" : [ {
          "height" : 640,
          "url" : "https://i.scdn.co/image/ab67616d0000b273637e929377cd5877db3a2e12",
          "width" : 640
        }, {
          "height" : 300,
          "url" : "https://i.scdn.co/image/ab67616d00001e02637e929377cd5877db3a2e12",
          "width" : 300
        }, {
          "height" : 64,
          "url" : "https://i.scdn.co/image/ab67616d00004851637e929377cd5877db3a2e12",
          "width" : 64
        } ],
        "name" : "Depth of Mercy",
        "release_date" : "2003-12-01",
        "release_date_precision" : "day",
        "total_tracks" : 12,
        "type" : "album",
        "uri" : "spotify:album:6h57DTS1uIFRMoPaiUz9u1"
      },
      "artists" : [ {
        "external_urls" : {
          "spotify" : "https://open.spotify.com/artist/2sHZLtiGJbXHAShjJIurVo"
        },
        "href" : "https://api.spotify.com/v1/artists/2sHZLtiGJbXHAShjJIurVo",
        "id" : "2sHZLtiGJbXHAShjJIurVo",
        "name" : "Red Mountain Church",
        "type" : "artist",
        "uri" : "spotify:artist:2sHZLtiGJbXHAShjJIurVo"
      } ],
      "disc_number" : 1,
      "duration_ms" : 340349,
      "explicit" : false,
      "external_ids" : {
        "isrc" : "USDHM0703732"
      },
      "external_urls" : {
        "spotify" : "https://open.spotify.com/track/3rZxdcpBtbh8mxKcutvNJ9"
      },
      "href" : "https://api.spotify.com/v1/tracks/3rZxdcpBtbh8mxKcutvNJ9",
      "id" : "3rZxdcpBtbh8mxKcutvNJ9",
      "is_local" : false,
      "is_playable" : true,
      "name" : "Jesus, Lover of My Soul",
      "popularity" : 18,
      "preview_url" : "https://p.scdn.co/mp3-preview/5b0e02e84efea6aba7c7e96a6e1e210975825bc5?cid=774b29d4f13844c495f206cafdad9c86",
      "track_number" : 2,
      "type" : "track",
      "uri" : "spotify:track:3rZxdcpBtbh8mxKcutvNJ9"
    }, {
      "album" : {
        "album_type" : "album",
        "artists" : [ {
          "external_urls" : {
            "spotify" : "https://open.spotify.com/artist/16dGAOg7n1wfPuLLwfdwur"
          },
          "href" : "https://api.spotify.com/v1/artists/16dGAOg7n1wfPuLLwfdwur",
          "id" : "16dGAOg7n1wfPuLLwfdwur",
          "name" : "Acapeldridge",
          "type" : "artist",
          "uri" : "spotify:artist:16dGAOg7n1wfPuLLwfdwur"
        } ],
        "external_urls" : {
          "spotify" : "https://open.spotify.com/album/6usmsAm92X0rAkjzsiaqRU"
        },
        "href" : "https://api.spotify.com/v1/albums/6usmsAm92X0rAkjzsiaqRU",
        "id" : "6usmsAm92X0rAkjzsiaqRU",
        "images" : [ {
          "height" : 640,
          "url" : "https://i.scdn.co/image/ab67616d0000b273756e882f223ffd8214f6eb9e",
          "width" : 640
        }, {
          "height" : 300,
          "url" : "https://i.scdn.co/image/ab67616d00001e02756e882f223ffd8214f6eb9e",
          "width" : 300
        }, {
          "height" : 64,
          "url" : "https://i.scdn.co/image/ab67616d00004851756e882f223ffd8214f6eb9e",
          "width" : 64
        } ],
        "name" : "Whatever Is True",
        "release_date" : "2017-11-03",
        "release_date_precision" : "day",
        "total_tracks" : 20,
        "type" : "album",
        "uri" : "spotify:album:6usmsAm92X0rAkjzsiaqRU"
      },
      "artists" : [ {
        "external_urls" : {
          "spotify" : "https://open.spotify.com/artist/16dGAOg7n1wfPuLLwfdwur"
        },
        "href" : "https://api.spotify.com/v1/artists/16dGAOg7n1wfPuLLwfdwur",
        "id" : "16dGAOg7n1wfPuLLwfdwur",
        "name" : "Acapeldridge",
        "type" : "artist",
        "uri" : "spotify:artist:16dGAOg7n1wfPuLLwfdwur"
      } ],
      "disc_number" : 1,
      "duration_ms" : 155500,
      "explicit" : false,
      "external_ids" : {
        "isrc" : "ushm91744672"
      },
      "external_urls" : {
        "spotify" : "https://open.spotify.com/track/01meQQbXjRJ0zjlMK9sjvr"
      },
      "href" : "https://api.spotify.com/v1/tracks/01meQQbXjRJ0zjlMK9sjvr",
      "id" : "01meQQbXjRJ0zjlMK9sjvr",
      "is_local" : false,
      "is_playable" : true,
      "name" : "Jesus, Lover of My Soul",
      "popularity" : 20,
      "preview_url" : "https://p.scdn.co/mp3-preview/f5a3c2f15b0afca5af46765dd6e849c5e01a6680?cid=774b29d4f13844c495f206cafdad9c86",
      "track_number" : 9,
      "type" : "track",
      "uri" : "spotify:track:01meQQbXjRJ0zjlMK9sjvr"
    }, {
      "album" : {
        "album_type" : "album",
        "artists" : [ {
          "external_urls" : {
            "spotify" : "https://open.spotify.com/artist/57fiSnpzQICriJFSFuqHoa"
          },
          "href" : "https://api.spotify.com/v1/artists/57fiSnpzQICriJFSFuqHoa",
          "id" : "57fiSnpzQICriJFSFuqHoa",
          "name" : "Classic Worship",
          "type" : "artist",
          "uri" : "spotify:artist:57fiSnpzQICriJFSFuqHoa"
        } ],
        "external_urls" : {
          "spotify" : "https://open.spotify.com/album/2HBqGq2e4Rbvta7y0QW0FT"
        },
        "href" : "https://api.spotify.com/v1/albums/2HBqGq2e4Rbvta7y0QW0FT",
        "id" : "2HBqGq2e4Rbvta7y0QW0FT",
        "images" : [ {
          "height" : 640,
          "url" : "https://i.scdn.co/image/ab67616d0000b2731ff50096635e19144aab31b9",
          "width" : 640
        }, {
          "height" : 300,
          "url" : "https://i.scdn.co/image/ab67616d00001e021ff50096635e19144aab31b9",
          "width" : 300
        }, {
          "height" : 64,
          "url" : "https://i.scdn.co/image/ab67616d000048511ff50096635e19144aab31b9",
          "width" : 64
        } ],
        "name" : "What A Friend We Have In Jesus - Hymns Of Comfort from the Classic Worship series",
        "release_date" : "2012",
        "release_date_precision" : "year",
        "total_tracks" : 10,
        "type" : "album",
        "uri" : "spotify:album:2HBqGq2e4Rbvta7y0QW0FT"
      },
      "artists" : [ {
        "external_urls" : {
          "spotify" : "https://open.spotify.com/artist/1IYk7Dbm3X8vVAgrK8tNbv"
        },
        "href" : "https://api.spotify.com/v1/artists/1IYk7Dbm3X8vVAgrK8tNbv",
        "id" : "1IYk7Dbm3X8vVAgrK8tNbv",
        "name" : "Eric Wyse",
        "type" : "artist",
        "uri" : "spotify:artist:1IYk7Dbm3X8vVAgrK8tNbv"
      } ],
      "disc_number" : 1,
      "duration_ms" : 169266,
      "explicit" : false,
      "external_ids" : {
        "isrc" : "USG5S1221703"
      },
      "external_urls" : {
        "spotify" : "https://open.spotify.com/track/0mHbuLARu9gOR0uAjgdvrD"
      },
      "href" : "https://api.spotify.com/v1/tracks/0mHbuLARu9gOR0uAjgdvrD",
      "id" : "0mHbuLARu9gOR0uAjgdvrD",
      "is_local" : false,
      "is_playable" : true,
      "name" : "Jesus, Lover Of My Soul",
      "popularity" : 17,
      "preview_url" : "https://p.scdn.co/mp3-preview/7526c0019a9e5aceb5cc5d87ac25bfc01f68d87c?cid=774b29d4f13844c495f206cafdad9c86",
      "track_number" : 3,
      "type" : "track",
      "uri" : "spotify:track:0mHbuLARu9gOR0uAjgdvrD"
    }, {
      "album" : {
        "album_type" : "album",
        "artists" : [ {
          "external_urls" : {
            "spotify" : "https://open.spotify.com/artist/5ljRAiIgLFVxzWg7vS1Rnl"
          },
          "href" : "https://api.spotify.com/v1/artists/5ljRAiIgLFVxzWg7vS1Rnl",
          "id" : "5ljRAiIgLFVxzWg7vS1Rnl",
          "name" : "Christian Devotion",
          "type" : "artist",
          "uri" : "spotify:artist:5ljRAiIgLFVxzWg7vS1Rnl"
        } ],
        "external_urls" : {
          "spotify" : "https://open.spotify.com/album/0MDMpSMhKVFj5oUe7TY56b"
        },
        "href" : "https://api.spotify.com/v1/albums/0MDMpSMhKVFj5oUe7TY56b",
        "id" : "0MDMpSMhKVFj5oUe7TY56b",
        "images" : [ {
          "height" : 640,
          "url" : "https://i.scdn.co/image/ab67616d0000b273a2d131105ae14f594da119ef",
          "width" : 640
        }, {
          "height" : 300,
          "url" : "https://i.scdn.co/image/ab67616d00001e02a2d131105ae14f594da119ef",
          "width" : 300
        }, {
          "height" : 64,
          "url" : "https://i.scdn.co/image/ab67616d00004851a2d131105ae14f594da119ef",
          "width" : 64
        } ],
        "name" : "Hymns for Peace",
        "release_date" : "2015-12-21",
        "release_date_precision" : "day",
        "total_tracks" : 18,
        "type" : "album",
        "uri" : "spotify:album:0MDMpSMhKVFj5oUe7TY56b"
      },
      "artists" : [ {
        "external_urls" : {
          "spotify" : "https://open.spotify.com/artist/5ljRAiIgLFVxzWg7vS1Rnl"
        },
        "href" : "https://api.spotify.com/v1/artists/5ljRAiIgLFVxzWg7vS1Rnl",
        "id" : "5ljRAiIgLFVxzWg7vS1Rnl",
        "name" : "Christian Devotion",
        "type" : "artist",
        "uri" : "spotify:artist:5ljRAiIgLFVxzWg7vS1Rnl"
      } ],
      "disc_number" : 1,
      "duration_ms" : 159435,
      "explicit" : false,
      "external_ids" : {
        "isrc" : "USA2P1563036"
      },
      "external_urls" : {
        "spotify" : "https://open.spotify.com/track/5GCtpYvz5eOJnY6MXv1wNN"
      },
      "href" : "https://api.spotify.com/v1/tracks/5GCtpYvz5eOJnY6MXv1wNN",
      "id" : "5GCtpYvz5eOJnY6MXv1wNN",
      "is_local" : false,
      "is_playable" : true,
      "name" : "Jesus Lover of My Soul",
      "popularity" : 18,
      "preview_url" : "https://p.scdn.co/mp3-preview/950c9e9205acda3fa0f75ed877788d5c43eb1ce4?cid=774b29d4f13844c495f206cafdad9c86",
      "track_number" : 9,
      "type" : "track",
      "uri" : "spotify:track:5GCtpYvz5eOJnY6MXv1wNN"
    } ],
    "limit" : 10,
    "next" : "https://api.spotify.com/v1/search?query=Jesus%2C+Lover+of+My+Soul&type=track&market=US&offset=15&limit=10",
    "offset" : 5,
    "previous" : "https://api.spotify.com/v1/search?query=Jesus%2C+Lover+of+My+Soul&type=track&market=US&offset=0&limit=10",
    "total" : 567
  }
}