{
  "tracks" : {
    "href" : "https://api.spotify.com/v1/search?query=Come%2C+Ye+Thankful+People&type=track&market=US&offset=5&limit=10",
    "items" : [ {
      "album" : {
        "album_type" : "album",
        "artists" : [ {
          "external_urls" : {
            "spotify" : "https://open.spotify.com/artist/0OE3kdPdxaCSmBGitBzN2i"
          },
          "href" : "https://api.spotify.com/v1/artists/0OE3kdPdxaCSmBGitBzN2i",
          "id" : "0OE3kdPdxaCSmBGitBzN2i",
          "name" : "Ben Everson",
          "type" : "artist",
          "uri" : "spotify:artist:0OE3kdPdxaCSmBGitBzN2i"
        } ],
        "external_urls" : {
          "spotify" : "https://open.spotify.com/album/2u1HICMgopMNFgwHQUn868"
        },
        "href" : "https://api.spotify.com/v1/albums/2u1HICMgopMNFgwHQUn868",
        "id" : "2u1HICMgopMNFgwHQUn868",
        "images" : [ {
          "height" : 640,
          "url" : "https://i.scdn.co/image/ab67616d0000b273999f70a8417e84f706e55ddc",
          "width" : 640
        }, {
          "height" : 300,
          "url" : "https://i.scdn.co/image/ab67616d00001e02999f70a8417e84f706e55ddc",
          "width" : 300
        }, {
          "height" : 64,
          "url" : "https://i.scdn.co/image/ab67616d00004851999f70a8417e84f706e55ddc",
          "width" : 64
        } ],
        "name" : "A Cappella Hymns",
        "release_date" : "2019-11-30",
        "release_date_precision" : "day",
        "total_tracks" : 11,
        "type" : "album",
        "uri" : "spotify:album:2u1HICMgopMNFgwHQUn868"
      },
      "artists" : [ {
        "external_urls" : {
          "spotify" : "https://open.spotify.com/artist/0OE3kdPdxaCSmBGitBzN2i"
        },
        "href" : "https://api.spotify.com/v1/artists/0OE3kdPdxaCSmBGitBzN2i",
        "id" : "0OE3kdPdxaCSmBGitBzN2i",
        "name" : "Ben Everson",
        "type" : "artist",
        "uri" : "spotify:artist:0OE3kdPdxaCSmBGitBzN2i"
      } ],
      "disc_number" : 1,
      "duration_ms" : 153035,
      "explicit" : false,
      "external_ids" : {
        "isrc" : "usl4q1958340"
      },
      "external_urls" : {
        "spotify" : "https://open.spotify.com/track/0L7WuV7rgsk6jNo7sdtVvk"
      },
      "href" : "https://api.spotify.com/v1/tracks/0L7WuV7rgsk6jNo7sdtVvk",
      "id" : "0L7WuV7rgsk6jNo7sdtVvk",
      "is_local" : false,
      "is_playable" : true,
      "name" : "Come Ye Thankful People Come",
      "popularity" : 9,
      "preview_url" : "https://p.scdn.co/mp3-preview/898e2f36215f0bb67cda44e92f470cd4ad3ca8ef?cid=774b29d4f13844c495f206cafdad9c86",
      "track_number" : 10,
      "type" : "track",
      "uri" : "spotify:track:0L7WuV7rgsk6jNo7sdtVvk"
    }, {
      "album" : {
        "album_type" : "album",
        "artists" : [ {
          "external_urls" : {
            "spotify" : "https://open.spotify.com/artist/67mWXrfMT20xdWEY4caXeb"
          },
          "href" : "https://api.spotify.com/v1/artists/67mWXrfMT20xdWEY4caXeb",
          "id" : "67mWXrfMT20xdWEY4caXeb",
          "name" : "Gisele Becker",
          "type" : "artist",
          "uri" : "spotify:artist:67mWXrfMT20xdWEY4caXeb"
        } ],
        "external_urls" : {
          "spotify" : "https://open.spotify.com/album/51lXo85cjWyl3QdvcyOiup"
        },
        "href" : "https://api.spotify.com/v1/albums/51lXo85cjWyl3QdvcyOiup",
        "id" : "51lXo85cjWyl3QdvcyOiup",
        "images" : [ {
          "height" : 640,
          "url" : "https://i.scdn.co/image/ab67616d0000b273a8ea83a8453fed832ae5b396",
          "width" : 640
        }, {
          "height" : 300,
          "url" : "https://i.scdn.co/image/ab67616d00001e02a8ea83a8453fed832ae5b396",
          "width" : 300
        }, {
          "height" : 64,
          "url" : "https://i.scdn.co/image/ab67616d00004851a8ea83a8453fed832ae5b396",
          "width" : 64
        } ],
        "name" : "Hymns Through the Centuries, Vol. 1",
        "release_date" : "2010-08-01",
        "release_date_precision" : "day",
        "total_tracks" : 27,
        "type" : "album",
        "uri" : "spotify:album:51lXo85cjWyl3QdvcyOiup"
      },
      "artists" : [ {
        "external_urls" : {
          "spotify" : "https://open.spotify.com/artist/06Zy92lVIXG9tXn6z9jk7F"
        },
        "href" : "https://api.spotify.com/v1/artists/06Zy92lVIXG9tXn6z9jk7F",
        "id" : "06Zy92lVIXG9tXn6z9jk7F",
        "name" : "George Job Elvey",
        "type" : "artist",
        "uri" : "spotify:artist:06Zy92lVIXG9tXn6z9jk7F"
      }, {
        "external_urls" : {
          "spotify" : "https://open.spotify.com/artist/5Hat8FK1sQMrELYEBJRwgg"
        },
        "href" : "https://api.spotify.com/v1/artists/5Hat8FK1sQMrELYEBJRwgg",
        "id" : "5Hat8FK1sQMrELYEBJRwgg",
        "name" : "Cathedral Choral Society",
        "type" : "artist",
        "uri" : "spotify:artist:5Hat8FK1sQMrELYEBJRwgg"
      }, {
        "external_urls" : {
          "spotify" : "https://open.spotify.com/artist/5IfMl3eKmJ1i9Kc44QMZ03"
        },
        "href" : "https://api.spotify.com/v1/artists/5IfMl3eKmJ1i9Kc44QMZ03",
        "id" : "5IfMl3eKmJ1i9Kc44QMZ03",
        "name" : "Nicholas White",
        "type" : "artist",
        "uri" : "spotify:artist:5IfMl3eKmJ1i9Kc44QMZ03"
      }, {
        "external_urls" : {
          "spotify" : "https://open.spotify.com/artist/67mWXrfMT20xdWEY4caXeb"
        },
        "href" : "https://api.spotify.com/v1/artists/67mWXrfMT20xdWEY4caXeb",
        "id" : "67mWXrfMT20xdWEY4caXeb",
        "name" : "Gisele Becker",
        "type" : "artist",
        "uri" : "spotify:artist:67mWXrfMT20xdWEY4caXeb"
      } ],
      "disc_number" : 1,
      "duration_ms" : 165200,
      "explicit" : false,
      "external_ids" : {
        "isrc" : "USG3E9611209"
      },
      "external_urls" : {
        "spotify" : "https://open.spotify.com/track/1ZhJkCZU7RfMcF8vrteJOp"
      },
      "href" : "https://api.spotify.com/v1/tracks/1ZhJkCZU7RfMcF8vrteJOp",
      "id" : "1ZhJkCZU7RfMcF8vrteJOp",
      "is_local" : false,
      "is_playable" : true,
      "name" : "Come, ye thankful people, come",
      "popularity" : 11,
      "preview_url" : "https://p.scdn.co/mp3-preview/19973dd22eab1ee44340f463114383296a12e723?cid=774b29d4f13844c495f206cafdad9c86",
      "track_number" : 9,
      "type" : "track",
      "uri" : "spotify:track:1ZhJkCZU7RfMcF8vrteJOp"
    }, {
      "album" : {
        "album_type" : "album",
        "artists" : [ {
          "external_urls" : {
            "spotify" : "https://open.spotify.com/artist/0KaOODqnbHxMIZ3qUH5F5n"
          },
          "href" : "https://api.spotify.com/v1/artists/0KaOODqnbHxMIZ3qUH5F5n",
          "id" : "0KaOODqnbHxMIZ3qUH5F5n",
          "name" : "Leigh Nash",
          "type" : "artist",
          "uri" : "spotify:artist:0KaOODqnbHxMIZ3qUH5F5n"
        } ],
        "external_urls" : {
          "spotify" : "https://open.spotify.com/album/6oFpR3aXqDbjJqr90gSNWG"
        },
        "href" : "https://api.spotify.com/v1/albums/6oFpR3aXqDbjJqr90gSNWG",
        "id" : "6oFpR3aXqDbjJqr90gSNWG",
        "images" : [ {
          "height" : 640,
          "url" : "https://i.scdn.co/image/ab67616d0000b273bb66eb252bc3c9efe78d7fd2",
          "width" : 640
        }, {
          "height" : 300,
          "url" : "https://i.scdn.co/image/ab67616d00001e02bb66eb252bc3c9efe78d7fd2",
          "width" : 300
        }, {
          "height" : 64,
          "url" : "https://i.scdn.co/image/ab67616d00004851bb66eb252bc3c9efe78d7fd2",
          "width" : 64
        } ],
        "name" : "Hymns and Sacred Songs",
        "release_date" : "2011-11-13",
        "release_date_precision" : "day",
        "total_tracks" : 12,
        "type" : "album",
        "uri" : "spotify:album:6oFpR3aXqDbjJqr90gSNWG"
      },
      "artists" : [ {
        "external_urls" : {
          "spotify" : "https://open.spotify.com/artist/0KaOODqnbHxMIZ3qUH5F5n"
        },
        "href" : "https://api.spotify.com/v1/artists/0KaOODqnbHxMIZ3qUH5F5n",
        "id" : "0KaOODqnbHxMIZ3qUH5F5n",
        "name" : "Leigh Nash",
        "type" : "artist",
        "uri" : "spotify:artist:0KaOODqnbHxMIZ3qUH5F5n"
      } ],
      "disc_number" : 1,
      "duration_ms" : 171813,
      "explicit" : false,
      "external_ids" : {
        "isrc" : "GBBTM1126307"
      },
      "external_urls" : {
        "spotify" : "https://open.spotify.com/track/0MC652fzCVHr6aQZfGtAO0"
      },
      "href" : "https://api.spotify.com/v1/tracks/0MC652fzCVHr6aQZfGtAO0",
      "id" : "0MC652fzCVHr6aQZfGtAO0",
      "is_local" : false,
      "is_playable" : true,
      "name" : "Come, Ye Thankful People, Come",
      "popularity" : 10,
      "preview_url" : "https://p.scdn.co/mp3-preview/cc390d0d46e3d90d88c2081debca1e89d0e2366c?cid=774b29d4f13844c495f206cafdad9c86",
      "track_number" : 7,
      "type" : "track",
      "uri" : "spotify:track:0MC652fzCVHr6aQZfGtAO0"
    }, {
      "album" : {
        "album_type" : "album",
        "artists" : [ {
          "external_urls" : {
            "spotify" : "https://open.spotify.com/artist/3akUqAy3Q1WqRZqceC4jW9"
          },
          "href" : "https://api.spotify.com/v1/artists/3akUqAy3Q1WqRZqceC4jW9",
          "id" : "3akUqAy3Q1WqRZqceC4jW9",
          "name" : "London Festival Orchestra",
          "type" : "artist",
          "uri" : "spotify:artist:3akUqAy3Q1WqRZqceC4jW9"
        }, {
          "external_urls" : {
            "spotify" : "https://open.spotify.com/artist/5MNYQfJK1uWAYLVHoKjNfU"
          },
          "href" : "https://api.spotify.com/v1/artists/5MNYQfJK1uWAYLVHoKjNfU",
          "id" : "5MNYQfJK1uWAYLVHoKjNfU",
          "name" : "The Thomas/Cumberland Choir",
          "type" : "artist",
          "uri" : "spotify:artist:5MNYQfJK1uWAYLVHoKjNfU"
        } ],
        "external_urls" : {
          "spotify" : "https://open.spotify.com/album/7ul6G7G0sOjZQzTauPl4VP"
        },
        "href" : "https://api.spotify.com/v1/albums/7ul6G7G0sOjZQzTauPl4VP",
        "id" : "7ul6G7G0sOjZQzTauPl4VP",
        "images" : [ {
          "height" : 640,
          "url" : "https://i.scdn.co/image/ab67616d0000b273fc45d1e4073bd68567770b88",
          "width" : 640
        }, {
          "height" : 300,
          "url" : "https://i.scdn.co/image/ab67616d00001e02fc45d1e4073bd68567770b88",
          "width" : 300
        }, {
          "height" : 64,
          "url" : "https://i.scdn.co/image/ab67616d00004851fc45d1e4073bd68567770b88",
          "width" : 64
        } ],
        "name" : "32 Great Hymns Of The Faith",
        "release_date" : "1999-01-01",
        "release_date_precision" : "day",
        "total_tracks" : 27,
        "type" : "album",
        "uri" : "spotify:album:7ul6G7G0sOjZQzTauPl4VP"
      },
      "artists" : [ {
        "external_urls" : {
          "spotify" : "https://open.spotify.com/artist/1Cl6YtufZsKrwu0BVmI3XL"
        },
        "href" : "https://api.spotify.com/v1/artists/1Cl6YtufZsKrwu0BVmI3XL",
        "id" : "1Cl6YtufZsKrwu0BVmI3XL",
        "name" : "32 Great Hymns Of Faith Performers",
        "type" : "artist",
        "uri" : "spotify:artist:1Cl6YtufZsKrwu0BVmI3XL"
      } ],
      "disc_number" : 1,
      "duration_ms" : 124319,
      "explicit" : false,
      "external_ids" : {
        "isrc" : "USSP39911621"
      },
      "external_urls" : {
        "spotify" : "https://open.spotify.com/track/0nDipWgAxVkllIqZUs7zr5"
      },
      "href" : "https://api.spotify.com/v1/tracks/0nDipWgAxVkllIqZUs7zr5",
      "id" : "0nDipWgAxVkllIqZUs7zr5",
      "is_local" : false,
      "is_playable" : true,
      "name" : "For The Beauty Of The Earth/Come, Ye Thankful People/Come, Christians Join To Sing",
      "popularity" : 11,
      "preview_url" : null,
      "track_number" : 3,
      "type" : "track",
      "uri" : "spotify:track:0nDipWgAxVkllIqZUs7zr5"
    }, {
      "album" : {
        "album_type" : "album",
        "artists" : [ {
          "external_urls" : {
            "spotify" : "https://open.spotify.com/artist/5aHE1EAT1F5E1kdvWCqObF"
          },
          "href" : "https://api.spotify.com/v1/artists/5aHE1EAT1F5E1kdvWCqObF",
          "id" : "5aHE1EAT1F5E1kdvWCqObF",
          "name" : "Steven Anderson",
          "type" : "artist",
          "uri" : "spotify:artist:5aHE1EAT1F5E1kdvWCqObF"
        } ],
        "external_urls" : {
          "spotify" : "https://open.spotify.com/album/10FM5L0AUvY6RhV3yFMLrU"
        },
        "href" : "https://api.spotify.com/v1/albums/10FM5L0AUvY6RhV3yFMLrU",
        "id" : "10FM5L0AUvY6RhV3yFMLrU",
        "images" : [ {
          "height" : 640,
          "url" : "https://i.scdn.co/image/ab67616d0000b273cb9034ace3fab7cadbe8cc0d",
          "width" : 640
        }, {
          "height" : 300,
          "url" : "https://i.scdn.co/image/ab67616d00001e02cb9034ace3fab7cadbe8cc0d",
          "width" : 300
        }, {
          "height" : 64,
          "url" : "https://i.scdn.co/image/ab67616d00004851cb9034ace3fab7cadbe8cc0d",
          "width" : 64
        } ],
        "name" : "40 Inspirational Piano Hymns",
        "release_date" : "2016-04-22",
        "release_date_precision" : "day",
        "total_tracks" : 40,
        "type" : "album",
        "uri" : "spotify:album:10FM5L0AUvY6RhV3yFMLrU"
      },
      "artists" : [ {
        "external_urls" : {
          "spotify" : "https://open.spotify.com/artist/5aHE1EAT1F5E1kdvWCqObF"
        },
        "href" : "https://api.spotify.com/v1/artists/5aHE1EAT1F5E1kdvWCqObF",
        "id" : "5aHE1EAT1F5E1kdvWCqObF",
        "name" : "Steven Anderson",
        "type" : "artist",
        "uri" : "spotify:artist:5aHE1EAT1F5E1kdvWCqObF"
      } ],
      "disc_number" : 1,
      "duration_ms" : 93053,
      "explicit" : false,
      "external_ids" : {
        "isrc" : "CAM460603271"
      },
      "external_urls" : {
        "spotify" : "https://open.spotify.com/track/5iyLyOoJL045gtbTrHO96q"
      },
      "href" : "https://api.spotify.com/v1/tracks/5iyLyOoJL045gtbTrHO96q",
      "id" : "5iyLyOoJL045gtbTrHO96q",
      "is_local" : false,
      "is_playable" : true,
      "name" : "Come, Ye Thankful People Come",
      "popularity" : 10,
      "preview_url" : "https://p.scdn.co/mp3-preview/de091d655d65242ceb1a8a40fc272cb3738c03a4?cid=774b29d4f13844c495f206cafdad9c86",
      "track_number" : 33,
      "type" : "track",
      "uri" : "spotify:track:5iyLyOoJL045gtbTrHO96q"
    }, {
      "album" : {
        "album_type" : "album",
        "artists" : [ {
          "external_urls" : {
            "spotify" : "https://open.spotify.com/artist/0zYyfhX87rISSc9dyJQK5t"
          },
          "href" : "https://api.spotify.com/v1/artists/0zYyfhX87rISSc9dyJQK5t",
          "id" : "0zYyfhX87rISSc9dyJQK5t",
          "name" : "Craig Duncan",
          "type" : "artist",
          "uri" : "spotify:artist:0zYyfhX87rISSc9dyJQK5t"
        } ],
        "external_urls" : {
          "spotify" : "https://open.spotify.com/album/0ob1zTtlONfPuxXFcKGleK"
        },
        "href" : "https://api.spotify.com/v1/albums/0ob1zTtlONfPuxXFcKGleK",
        "id" : "0ob1zTtlONfPuxXFcKGleK",
        "images" : [ {
          "height" : 640,
          "url" : "https://i.scdn.co/image/ab67616d0000b273a1175a048ec53a3baba55a37",
          "width" : 640
        }, {
          "height" : 300,
          "url" : "https://i.scdn.co/image/ab67616d00001e02a1175a048ec53a3baba55a37",
          "width" : 300
        }, {
          "height" : 64,
          "url" : "https://i.scdn.co/image/ab67616d00004851a1175a048ec53a3baba55a37",
          "width" : 64
        } ],
        "name" : "30 Favorite Celtic Hymns: 30 Hymns Featuring Traditional Irish Instruments",
        "release_date" : "2012-01-01",
        "release_date_precision" : "day",
        "total_tracks" : 30,
        "type" : "album",
        "uri" : "spotify:album:0ob1zTtlONfPuxXFcKGleK"
      },
      "artists" : [ {
        "external_urls" : {
          "spotify" : "https://open.spotify.com/artist/0zYyfhX87rISSc9dyJQK5t"
        },
        "href" : "https://api.spotify.com/v1/artists/0zYyfhX87rISSc9dyJQK5t",
        "id" : "0zYyfhX87rISSc9dyJQK5t",
        "name" : "Craig Duncan",
        "type" : "artist",
        "uri" : "spotify:artist:0zYyfhX87rISSc9dyJQK5t"
      } ],
      "disc_number" : 1,
      "duration_ms" : 204533,
      "explicit" : false,
      "external_ids" : {
        "isrc" : "USB4U0850217"
      },
      "external_urls" : {
        "spotify" : "https://open.spotify.com/track/0MScWGqjTlldGDNwIgnDWU"
      },
      "href" : "https://api.spotify.com/v1/tracks/0MScWGqjTlldGDNwIgnDWU",
      "id" : "0MScWGqjTlldGDNwIgnDWU",
      "is_local" : false,
      "is_playable" : true,
      "name" : "Come, Ye Thankful People, Come - Old English Hymns Album Version",
      "popularity" : 8,
      "preview_url" : null,
      "track_number" : 12,
      "type" : "track",
      "uri" : "spotify:track:0MScWGqjTlldGDNwIgnDWU"
    }, {
      "album" : {
        "album_type" : "album",
        "artists" : [ {
          "external_urls" : {
            "spotify" : "https://open.spotify.com/artist/0zYyfhX87rISSc9dyJQK5t"
          },
          "href" : "https://api.spotify.com/v1/artists/0zYyfhX87rISSc9dyJQK5t",
          "id" : "0zYyfhX87rISSc9dyJQK5t",
          "name" : "Craig Duncan",
          "type" : "artist",
          "uri" : "spotify:artist:0zYyfhX87rISSc9dyJQK5t"
        } ],
        "external_urls" : {
          "spotify" : "https://open.spotify.com/album/7vEap4aXugwJDa3KjuuySr"
        },
        "href" : "https://api.spotify.com/v1/albums/7vEap4aXugwJDa3KjuuySr",
        "id" : "7vEap4aXugwJDa3KjuuySr",
        "images" : [ {
          "height" : 640,
          "url" : "https://i.scdn.co/image/ab67616d0000b2735ac77e2cfeda835e0483a637",
          "width" : 640
        }, {
          "height" : 300,
          "url" : "https://i.scdn.co/image/ab67616d00001e025ac77e2cfeda835e0483a637",
          "width" : 300
        }, {
          "height" : 64,
          "url" : "https://i.scdn.co/image/ab67616d000048515ac77e2cfeda835e0483a637",
          "width" : 64
        } ],
        "name" : "We Gather Together: 14 Thanksgiving Hymns",
        "release_date" : "2011-01-01",
        "release_date_precision" : "day",
        "total_tracks" : 14,
        "type" : "album",
        "uri" : "spotify:album:7vEap4aXugwJDa3KjuuySr"
      },
      "artists" : [ {
        "external_urls" : {
          "spotify" : "https://open.spotify.com/artist/0zYyfhX87rISSc9dyJQK5t"
        },
        "href" : "https://api.spotify.com/v1/artists/0zYyfhX87rISSc9dyJQK5t",
        "id" : "0zYyfhX87rISSc9dyJQK5t",
        "name" : "Craig Duncan",
        "type" : "artist",
        "uri" : "spotify:artist:0zYyfhX87rISSc9dyJQK5t"
      } ],
      "disc_number" : 1,
      "duration_ms" : 161773,
      "explicit" : false,
      "external_ids" : {
        "isrc" : "USB4U1150095"
      },
      "external_urls" : {
        "spotify" : "https://open.spotify.com/track/6ahmJlt8k4HXWK3aVgpHHx"
      },
      "href" : "https://api.spotify.com/v1/tracks/6ahmJlt8k4HXWK3aVgpHHx",
      "id" : "6ahmJlt8k4HXWK3aVgpHHx",
      "is_local" : false,
      "is_playable" : true,
      "name" : "Come Ye Thankful People, Come",
      "popularity" : 6,
      "preview_url" : null,
      "track_number" : 5,
      "type" : "track",
      "uri" : "spotify:track:6ahmJlt8k4HXWK3aVgpHHx"
    }, {
      "album" : {
        "album_type" : "album",
        "artists" : [ {
          "external_urls" : {
            "spotify" : "https://open.spotify.com/artist/48vLiUk4YTBbKHdpeIP6jt"
          },
          "href" : "https://api.spotify.com/v1/artists/48vLiUk4YTBbKHdpeIP6jt",
          "id" : "48vLiUk4YTBbKHdpeIP6jt",
          "name" : "John Story",
          "type" : "artist",
          "uri" : "spotify:artist:48vLiUk4YTBbKHdpeIP6jt"
        } ],
        "external_urls" : {
          "spotify" : "https://open.spotify.com/album/3tVT7lAUMEWYIv8PzUIhVn"
        },
        "href" : "https://api.spotify.com/v1/albums/3tVT7lAUMEWYIv8PzUIhVn",
        "id" : "3tVT7lAUMEWYIv8PzUIhVn",
        "images" : [ {
          "height" : 640,
          "url" : "https://i.scdn.co/image/ab67616d0000b273d3e861bd0329ef97e1dbfae0",
          "width" : 640
        }, {
          "height" : 300,
          "url" : "https://i.scdn.co/image/ab67616d00001e02d3e861bd0329ef97e1dbfae0",
          "width" : 300
        }, {
          "height" : 64,
          "url" : "https://i.scdn.co/image/ab67616d00004851d3e861bd0329ef97e1dbfae0",
          "width" : 64
        } ],
        "name" : "Baby's First Hymns: Sleepy Christian Lullabies for Your Babies Bedtime",
        "release_date" : "2016-09-12",
        "release_date_precision" : "day",
        "total_tracks" : 16,
        "type" : "album",
        "uri" : "spotify:album:3tVT7lAUMEWYIv8PzUIhVn"
      },
      "artists" : [ {
        "external_urls" : {
          "spotify" : "https://open.spotify.com/artist/48vLiUk4YTBbKHdpeIP6jt"
        },
        "href" : "https://api.spotify.com/v1/artists/48vLiUk4YTBbKHdpeIP6jt",
        "id" : "48vLiUk4YTBbKHdpeIP6jt",
        "name" : "John Story",
        "type" : "artist",
        "uri" : "spotify:artist:48vLiUk4YTBbKHdpeIP6jt"
      } ],
      "disc_number" : 1,
      "duration_ms" : 194000,
      "explicit" : false,
      "external_ids" : {
        "isrc" : "USE831592077"
      },
      "external_urls" : {
        "spotify" : "https://open.spotify.com/track/1EBIqEYLM0zU0VC2sT6nL6"
      },
      "href" : "https://api.spotify.com/v1/tracks/1EBIqEYLM0zU0VC2sT6nL6",
      "id" : "1EBIqEYLM0zU0VC2sT6nL6",
      "is_local" : false,
      "is_playable" : true,
      "name" : "Come Thou Fount Of Every Blessing / Come Ye Thankful People Come",
      "popularity" : 7,
      "preview_url" : "https://p.scdn.co/mp3-preview/6e217fb5d5b3e50164ea729cc0265548f58f7d82?cid=774b29d4f13844c495f206cafdad9c86",
      "track_number" : 6,
      "type" : "track",
      "uri" : "spotify:track:1EBIqEYLM0zU0VC2sT6nL6"
    }, {
      "album" : {
        "album_type" : "compilation",
        "artists" : [ {
          "external_urls" : {
            "spotify" : "https://open.spotify.com/artist/0LyfQWJT6nXafLPZqxe9Of"
          },
          "href" : "https://api.spotify.com/v1/artists/0LyfQWJT6nXafLPZqxe9Of",
          "id" : "0LyfQWJT6nXafLPZqxe9Of",
          "name" : "Various Artists",
          "type" : "artist",
          "uri" : "spotify:artist:0LyfQWJT6nXafLPZqxe9Of"
        } ],
        "external_urls" : {
          "spotify" : "https://open.spotify.com/album/0fUOFQsJuTmWyLIdrFCOqk"
        },
        "href" : "https://api.spotify.com/v1/albums/0fUOFQsJuTmWyLIdrFCOqk",
        "id" : "0fUOFQsJuTmWyLIdrFCOqk",
        "images" : [ {
          "height" : 640,
          "url" : "https://i.scdn.co/image/ab67616d0000b273ee7e7c388747bbaac51464c4",
          "width" : 640
        }, {
          "height" : 300,
          "url" : "https://i.scdn.co/image/ab67616d00001e02ee7e7c388747bbaac51464c4",
          "width" : 300
        }, {
          "height" : 64,
          "url" : "https://i.scdn.co/image/ab67616d00004851ee7e7c388747bbaac51464c4",
          "width" : 64
        } ],
        "name" : "Hymns: The Ultimate Collection",
        "release_date" : "2006-01-01",
        "release_date_precision" : "day",
        "total_tracks" : 38,
        "type" : "album",
        "uri" : "spotify:album:0fUOFQsJuTmWyLIdrFCOqk"
      },
      "artists" : [ {
        "external_urls" : {
          "spotify" : "https://open.spotify.com/artist/1Cl6YtufZsKrwu0BVmI3XL"
        },
        "href" : "https://api.spotify.com/v1/artists/1Cl6YtufZsKrwu0BVmI3XL",
        "id" : "1Cl6YtufZsKrwu0BVmI3XL",
        "name" : "32 Great Hymns Of Faith Performers",
        "type" : "artist",
        "uri" : "spotify:artist:1Cl6YtufZsKrwu0BVmI3XL"
      } ],
      "disc_number" : 1,
      "duration_ms" : 124840,
      "explicit" : false,
      "external_ids" : {
        "isrc" : "USSP39911621"
      },
      "external_urls" : {
        "spotify" : "https://open.spotify.com/track/2zwCEJMEN0OJ6DcUzLAERV"
      },
      "href" : "https://api.spotify.com/v1/tracks/2zwCEJMEN0OJ6DcUzLAERV",
      "id" : "2zwCEJMEN0OJ6DcUzLAERV",
      "is_local" : false,
      "is_playable" : true,
      "name" : "For The Beauty Of The Earth / Come, Ye Thankful People, Come / Come, Christians Join To Sing",
      "popularity" : 9,
      "preview_url" : null,
      "track_number" : 5,
      "type" : "track",
      "uri" : "spotify:track:2zwCEJMEN0OJ6DcUzLAERV"
    }, {
      "album" : {
        "album_type" : "album",
        "artists" : [ {
          "external_urls" : {
            "spotify" : "https://open.spotify.com/artist/6PZYFmF3PH6cOREAzfXiAL"
          },
          "href" : "https://api.spotify.com/v1/artists/6PZYFmF3PH6cOREAzfXiAL",
          "id" : "6PZYFmF3PH6cOREAzfXiAL",
          "name" : "The Countdown Kids",
          "type" : "artist",
          "uri" : "spotify:artist:6PZYFmF3PH6cOREAzfXiAL"
        } ],
        "external_urls" : {
          "spotify" : "https://open.spotify.com/album/5cCs99eMsdLYsDlyuH9FxF"
        },
        "href" : "https://api.spotify.com/v1/albums/5cCs99eMsdLYsDlyuH9FxF",
        "id" : "5cCs99eMsdLYsDlyuH9FxF",
        "images" : [ {
          "height" : 640,
          "url" : "https://i.scdn.co/image/ab67616d0000b273d3471a4277d43735cb9a04c3",
          "width" : 640
        }, {
          "height" : 300,
          "url" : "https://i.scdn.co/image/ab67616d00001e02d3471a4277d43735cb9a04c3",
          "width" : 300
        }, {
          "height" : 64,
          "url" : "https://i.scdn.co/image/ab67616d00004851d3471a4277d43735cb9a04c3",
          "width" : 64
        } ],
        "name" : "Easter Songs & Hymns for Kids",
        "release_date" : "2020-03-27",
        "release_date_precision" : "day",
        "total_tracks" : 20,
        "type" : "album",
        "uri" : "spotify:album:5cCs99eMsdLYsDlyuH9FxF"
      },
      "artists" : [ {
        "external_urls" : {
          "spotify" : "https://open.spotify.com/artist/6PZYFmF3PH6cOREAzfXiAL"
        },
        "href" : "https://api.spotify.com/v1/artists/6PZYFmF3PH6cOREAzfXiAL",
        "id" : "6PZYFmF3PH6cOREAzfXiAL",
        "name" : "The Countdown Kids",
        "type" : "artist",
        "uri" : "spotify:artist:6PZYFmF3PH6cOREAzfXiAL"
      } ],
      "disc_number" : 1,
      "duration_ms" : 99760,
      "explicit" : false,
      "external_ids" : {
        "isrc" : "CAM460701531"
      },
      "external_urls" : {
        "spotify" : "https://open.spotify.com/track/3npz1rz64CkUJigy5KiEQS"
      },
      "href" : "https://api.spotify.com/v1/tracks/3npz1rz64CkUJigy5KiEQS",
      "id" : "3npz1rz64CkUJigy5KiEQS",
      "is_local" : false,
      "is_playable" : true,
      "name" : "Come, Ye Thankful People Come",
      "popularity" : 8,
      "preview_url" : "https://p.scdn.co/mp3-preview/62e0241fc89685b2cd7c4caae47b89b6db0c3306?cid=774b29d4f13844c495f206cafdad9c86",
      "track_number" : 11,
      "type" : "track",
      "uri" : "spotify:track:3npz1rz64CkUJigy5KiEQS"
    } ],
    "limit" : 10,
    "next" : "https://api.spotify.com/v1/search?query=Come%2C+Ye+Thankful+People&type=track&market=US&offset=15&limit=10",
    "offset" : 5,
    "previous" : "https://api.spotify.com/v1/search?query=Come%2C+Ye+Thankful+People&type=track&market=US&offset=0&limit=10",
    "total" : 212
  }
}