{
  "tracks" : {
    "href" : "https://api.spotify.com/v1/search?query=Like+a+River+Glorious&type=track&market=US&offset=5&limit=10",
    "items" : [ {
      "album" : {
        "album_type" : "album",
        "artists" : [ {
          "external_urls" : {
            "spotify" : "https://open.spotify.com/artist/3lk8qatIcUand38OeCGxk9"
          },
          "href" : "https://api.spotify.com/v1/artists/3lk8qatIcUand38OeCGxk9",
          "id" : "3lk8qatIcUand38OeCGxk9",
          "name" : "Lorie Line",
          "type" : "artist",
          "uri" : "spotify:artist:3lk8qatIcUand38OeCGxk9"
        } ],
        "external_urls" : {
          "spotify" : "https://open.spotify.com/album/1b2NAkvxQ6Kg6vtLhTe1rP"
        },
        "href" : "https://api.spotify.com/v1/albums/1b2NAkvxQ6Kg6vtLhTe1rP",
        "id" : "1b2NAkvxQ6Kg6vtLhTe1rP",
        "images" : [ {
          "height" : 640,
          "url" : "https://i.scdn.co/image/ab67616d0000b273d4ea0112470225ed778ad977",
          "width" : 640
        }, {
          "height" : 300,
          "url" : "https://i.scdn.co/image/ab67616d00001e02d4ea0112470225ed778ad977",
          "width" : 300
        }, {
          "height" : 64,
          "url" : "https://i.scdn.co/image/ab67616d00004851d4ea0112470225ed778ad977",
          "width" : 64
        } ],
        "name" : "The Heritage Collection, Vol. 7",
        "release_date" : "2015-06-11",
        "release_date_precision" : "day",
        "total_tracks" : 14,
        "type" : "album",
        "uri" : "spotify:album:1b2NAkvxQ6Kg6vtLhTe1rP"
      },
      "artists" : [ {
        "external_urls" : {
          "spotify" : "https://open.spotify.com/artist/3lk8qatIcUand38OeCGxk9"
        },
        "href" : "https://api.spotify.com/v1/artists/3lk8qatIcUand38OeCGxk9",
        "id" : "3lk8qatIcUand38OeCGxk9",
        "name" : "Lorie Line",
        "type" : "artist",
        "uri" : "spotify:artist:3lk8qatIcUand38OeCGxk9"
      } ],
      "disc_number" : 1,
      "duration_ms" : 222666,
      "explicit" : false,
      "external_ids" : {
        "isrc" : "US42C1500674"
      },
      "external_urls" : {
        "spotify" : "https://open.spotify.com/track/4JuHVpfme8axAyK3JujZvw"
      },
      "href" : "https://api.spotify.com/v1/tracks/4JuHVpfme8axAyK3JujZvw",
      "id" : "4JuHVpfme8axAyK3JujZvw",
      "is_local" : false,
      "is_playable" : true,
      "name" : "Like a River Glorious",
      "popularity" : 9,
      "preview_url" : "https://p.scdn.co/mp3-preview/65df7962f41e0595dfca9028ba25607cc0ddc57c?cid=774b29d4f13844c495f206cafdad9c86",
      "track_number" : 4,
      "type" : "track",
      "uri" : "spotify:track:4JuHVpfme8axAyK3JujZvw"
    }, {
      "album" : {
        "album_type" : "album",
        "artists" : [ {
          "external_urls" : {
            "spotify" : "https://open.spotify.com/artist/1MmubZDiFWXhOXz941cRRp"
          },
          "href" : "https://api.spotify.com/v1/artists/1MmubZDiFWXhOXz941cRRp",
          "id" : "1MmubZDiFWXhOXz941cRRp",
          "name" : "Our Daily Bread",
          "type" : "artist",
          "uri" : "spotify:artist:1MmubZDiFWXhOXz941cRRp"
        } ],
        "external_urls" : {
          "spotify" : "https://open.spotify.com/album/4HTkHHxsZVVVnSR3U1CTwp"
        },
        "href" : "https://api.spotify.com/v1/albums/4HTkHHxsZVVVnSR3U1CTwp",
        "id" : "4HTkHHxsZVVVnSR3U1CTwp",
        "images" : [ {
          "height" : 640,
          "url" : "https://i.scdn.co/image/ab67616d0000b2731a0b502a29176a308113c6af",
          "width" : 640
        }, {
          "height" : 300,
          "url" : "https://i.scdn.co/image/ab67616d00001e021a0b502a29176a308113c6af",
          "width" : 300
        }, {
          "height" : 64,
          "url" : "https://i.scdn.co/image/ab67616d000048511a0b502a29176a308113c6af",
          "width" : 64
        } ],
        "name" : "Hymns of God's Peace",
        "release_date" : "2003-11-15",
        "release_date_precision" : "day",
        "total_tracks" : 11,
        "type" : "album",
        "uri" : "spotify:album:4HTkHHxsZVVVnSR3U1CTwp"
      },
      "artists" : [ {
        "external_urls" : {
          "spotify" : "https://open.spotify.com/artist/1MmubZDiFWXhOXz941cRRp"
        },
        "href" : "https://api.spotify.com/v1/artists/1MmubZDiFWXhOXz941cRRp",
        "id" : "1MmubZDiFWXhOXz941cRRp",
        "name" : "Our Daily Bread",
        "type" : "artist",
        "uri" : "spotify:artist:1MmubZDiFWXhOXz941cRRp"
      } ],
      "disc_number" : 1,
      "duration_ms" : 188373,
      "explicit" : false,
      "external_ids" : {
        "isrc" : "USDHM0603574"
      },
      "external_urls" : {
        "spotify" : "https://open.spotify.com/track/5WpWcqigSarSymorkXgRXp"
      },
      "href" : "https://api.spotify.com/v1/tracks/5WpWcqigSarSymorkXgRXp",
      "id" : "5WpWcqigSarSymorkXgRXp",
      "is_local" : false,
      "is_playable" : true,
      "name" : "Like a River Glorious",
      "popularity" : 13,
      "preview_url" : "https://p.scdn.co/mp3-preview/aae1528917e832ceddb9a5d1db7e6cf052be9abe?cid=774b29d4f13844c495f206cafdad9c86",
      "track_number" : 8,
      "type" : "track",
      "uri" : "spotify:track:5WpWcqigSarSymorkXgRXp"
    }, {
      "album" : {
        "album_type" : "album",
        "artists" : [ {
          "external_urls" : {
            "spotify" : "https://open.spotify.com/artist/0fjxee1xsPYdr06YEMj3DQ"
          },
          "href" : "https://api.spotify.com/v1/artists/0fjxee1xsPYdr06YEMj3DQ",
          "id" : "0fjxee1xsPYdr06YEMj3DQ",
          "name" : "Oasis Chorale",
          "type" : "artist",
          "uri" : "spotify:artist:0fjxee1xsPYdr06YEMj3DQ"
        }, {
          "external_urls" : {
            "spotify" : "https://open.spotify.com/artist/2jHoGJn4t2GS7lBUDd0fUw"
          },
          "href" : "https://api.spotify.com/v1/artists/2jHoGJn4t2GS7lBUDd0fUw",
          "id" : "2jHoGJn4t2GS7lBUDd0fUw",
          "name" : "Wendell Nisly",
          "type" : "artist",
          "uri" : "spotify:artist:2jHoGJn4t2GS7lBUDd0fUw"
        } ],
        "external_urls" : {
          "spotify" : "https://open.spotify.com/album/7699k7SSrBvDYqaTixIchT"
        },
        "href" : "https://api.spotify.com/v1/albums/7699k7SSrBvDYqaTixIchT",
        "id" : "7699k7SSrBvDYqaTixIchT",
        "images" : [ {
          "height" : 640,
          "url" : "https://i.scdn.co/image/ab67616d0000b273df24cd5e024b42476f394ed8",
          "width" : 640
        }, {
          "height" : 300,
          "url" : "https://i.scdn.co/image/ab67616d00001e02df24cd5e024b42476f394ed8",
          "width" : 300
        }, {
          "height" : 64,
          "url" : "https://i.scdn.co/image/ab67616d00004851df24cd5e024b42476f394ed8",
          "width" : 64
        } ],
        "name" : "Eternal Mercies",
        "release_date" : "2017-10-13",
        "release_date_precision" : "day",
        "total_tracks" : 16,
        "type" : "album",
        "uri" : "spotify:album:7699k7SSrBvDYqaTixIchT"
      },
      "artists" : [ {
        "external_urls" : {
          "spotify" : "https://open.spotify.com/artist/0fjxee1xsPYdr06YEMj3DQ"
        },
        "href" : "https://api.spotify.com/v1/artists/0fjxee1xsPYdr06YEMj3DQ",
        "id" : "0fjxee1xsPYdr06YEMj3DQ",
        "name" : "Oasis Chorale",
        "type" : "artist",
        "uri" : "spotify:artist:0fjxee1xsPYdr06YEMj3DQ"
      }, {
        "external_urls" : {
          "spotify" : "https://open.spotify.com/artist/2jHoGJn4t2GS7lBUDd0fUw"
        },
        "href" : "https://api.spotify.com/v1/artists/2jHoGJn4t2GS7lBUDd0fUw",
        "id" : "2jHoGJn4t2GS7lBUDd0fUw",
        "name" : "Wendell Nisly",
        "type" : "artist",
        "uri" : "spotify:artist:2jHoGJn4t2GS7lBUDd0fUw"
      } ],
      "disc_number" : 1,
      "duration_ms" : 214866,
      "explicit" : false,
      "external_ids" : {
        "isrc" : "QMAAK1778975"
      },
      "external_urls" : {
        "spotify" : "https://open.spotify.com/track/2kPzEpqzql3EoaRecbxsDJ"
      },
      "href" : "https://api.spotify.com/v1/tracks/2kPzEpqzql3EoaRecbxsDJ",
      "id" : "2kPzEpqzql3EoaRecbxsDJ",
      "is_local" : false,
      "is_playable" : true,
      "name" : "Like a River Glorious",
      "popularity" : 8,
      "preview_url" : "https://p.scdn.co/mp3-preview/21f6960db44334b2a2c11cc5aedbc8522f824f98?cid=774b29d4f13844c495f206cafdad9c86",
      "track_number" : 15,
      "type" : "track",
      "uri" : "spotify:track:2kPzEpqzql3EoaRecbxsDJ"
    }, {
      "album" : {
        "album_type" : "album",
        "artists" : [ {
          "external_urls" : {
            "spotify" : "https://open.spotify.com/artist/52DLvFAmyEIiIZzzaKx7e3"
          },
          "href" : "https://api.spotify.com/v1/artists/52DLvFAmyEIiIZzzaKx7e3",
          "id" : "52DLvFAmyEIiIZzzaKx7e3",
          "name" : "Majesty Strings",
          "type" : "artist",
          "uri" : "spotify:artist:52DLvFAmyEIiIZzzaKx7e3"
        } ],
        "external_urls" : {
          "spotify" : "https://open.spotify.com/album/02J7BrQlw6aeKCQKv4cygo"
        },
        "href" : "https://api.spotify.com/v1/albums/02J7BrQlw6aeKCQKv4cygo",
        "id" : "02J7BrQlw6aeKCQKv4cygo",
        "images" : [ {
          "height" : 640,
          "url" : "https://i.scdn.co/image/ab67616d0000b273bad67ecc0fb2656a1bf77ac0",
          "width" : 640
        }, {
          "height" : 300,
          "url" : "https://i.scdn.co/image/ab67616d00001e02bad67ecc0fb2656a1bf77ac0",
          "width" : 300
        }, {
          "height" : 64,
          "url" : "https://i.scdn.co/image/ab67616d00004851bad67ecc0fb2656a1bf77ac0",
          "width" : 64
        } ],
        "name" : "Majesty Strings III",
        "release_date" : "1993-10-15",
        "release_date_precision" : "day",
        "total_tracks" : 14,
        "type" : "album",
        "uri" : "spotify:album:02J7BrQlw6aeKCQKv4cygo"
      },
      "artists" : [ {
        "external_urls" : {
          "spotify" : "https://open.spotify.com/artist/52DLvFAmyEIiIZzzaKx7e3"
        },
        "href" : "https://api.spotify.com/v1/artists/52DLvFAmyEIiIZzzaKx7e3",
        "id" : "52DLvFAmyEIiIZzzaKx7e3",
        "name" : "Majesty Strings",
        "type" : "artist",
        "uri" : "spotify:artist:52DLvFAmyEIiIZzzaKx7e3"
      } ],
      "disc_number" : 1,
      "duration_ms" : 197760,
      "explicit" : false,
      "external_ids" : {
        "isrc" : "uscgh1696312"
      },
      "external_urls" : {
        "spotify" : "https://open.spotify.com/track/0nt5APNFwZpo95pTMH302a"
      },
      "href" : "https://api.spotify.com/v1/tracks/0nt5APNFwZpo95pTMH302a",
      "id" : "0nt5APNFwZpo95pTMH302a",
      "is_local" : false,
      "is_playable" : true,
      "name" : "Like a River Glorious",
      "popularity" : 7,
      "preview_url" : "https://p.scdn.co/mp3-preview/4962567248eb0bd8f43da5bd6a67e21ce009255c?cid=774b29d4f13844c495f206cafdad9c86",
      "track_number" : 9,
      "type" : "track",
      "uri" : "spotify:track:0nt5APNFwZpo95pTMH302a"
    }, {
      "album" : {
        "album_type" : "album",
        "artists" : [ {
          "external_urls" : {
            "spotify" : "https://open.spotify.com/artist/2x0QHABqKaBBvAOzvoevXJ"
          },
          "href" : "https://api.spotify.com/v1/artists/2x0QHABqKaBBvAOzvoevXJ",
          "id" : "2x0QHABqKaBBvAOzvoevXJ",
          "name" : "The Scottish Festival Singers",
          "type" : "artist",
          "uri" : "spotify:artist:2x0QHABqKaBBvAOzvoevXJ"
        } ],
        "external_urls" : {
          "spotify" : "https://open.spotify.com/album/1p6YXZ12V9JI9Kd1JFk3ro"
        },
        "href" : "https://api.spotify.com/v1/albums/1p6YXZ12V9JI9Kd1JFk3ro",
        "id" : "1p6YXZ12V9JI9Kd1JFk3ro",
        "images" : [ {
          "height" : 640,
          "url" : "https://i.scdn.co/image/ab67616d0000b273e94b718fe39d723dcf3eb2cd",
          "width" : 640
        }, {
          "height" : 300,
          "url" : "https://i.scdn.co/image/ab67616d00001e02e94b718fe39d723dcf3eb2cd",
          "width" : 300
        }, {
          "height" : 64,
          "url" : "https://i.scdn.co/image/ab67616d00004851e94b718fe39d723dcf3eb2cd",
          "width" : 64
        } ],
        "name" : "Timeless Hymns, Vol. 13: Trust and Obey",
        "release_date" : "2014-06-17",
        "release_date_precision" : "day",
        "total_tracks" : 11,
        "type" : "album",
        "uri" : "spotify:album:1p6YXZ12V9JI9Kd1JFk3ro"
      },
      "artists" : [ {
        "external_urls" : {
          "spotify" : "https://open.spotify.com/artist/2x0QHABqKaBBvAOzvoevXJ"
        },
        "href" : "https://api.spotify.com/v1/artists/2x0QHABqKaBBvAOzvoevXJ",
        "id" : "2x0QHABqKaBBvAOzvoevXJ",
        "name" : "The Scottish Festival Singers",
        "type" : "artist",
        "uri" : "spotify:artist:2x0QHABqKaBBvAOzvoevXJ"
      } ],
      "disc_number" : 1,
      "duration_ms" : 196280,
      "explicit" : false,
      "external_ids" : {
        "isrc" : "USACX1400791"
      },
      "external_urls" : {
        "spotify" : "https://open.spotify.com/track/5I7MolD2vVG2eRz7HMTd2k"
      },
      "href" : "https://api.spotify.com/v1/tracks/5I7MolD2vVG2eRz7HMTd2k",
      "id" : "5I7MolD2vVG2eRz7HMTd2k",
      "is_local" : false,
      "is_playable" : true,
      "name" : "Like A River Glorious",
      "popularity" : 9,
      "preview_url" : "https://p.scdn.co/mp3-preview/3aa4d6a20ea3f89d1fe35e126f39ae4133dd61c3?cid=774b29d4f13844c495f206cafdad9c86",
      "track_number" : 9,
      "type" : "track",
      "uri" : "spotify:track:5I7MolD2vVG2eRz7HMTd2k"
    }, {
      "album" : {
        "album_type" : "album",
        "artists" : [ {
          "external_urls" : {
            "spotify" : "https://open.spotify.com/artist/6QVPMfsXbiEeH2Afh3D0xy"
          },
          "href" : "https://api.spotify.com/v1/artists/6QVPMfsXbiEeH2Afh3D0xy",
          "id" : "6QVPMfsXbiEeH2Afh3D0xy",
          "name" : "Jesus Raymond",
          "type" : "artist",
          "uri" : "spotify:artist:6QVPMfsXbiEeH2Afh3D0xy"
        } ],
        "external_urls" : {
          "spotify" : "https://open.spotify.com/album/3QAL46J9YXNtJ68aXZTZUg"
        },
        "href" : "https://api.spotify.com/v1/albums/3QAL46J9YXNtJ68aXZTZUg",
        "id" : "3QAL46J9YXNtJ68aXZTZUg",
        "images" : [ {
          "height" : 640,
          "url" : "https://i.scdn.co/image/ab67616d0000b2731a1651758c0bf644f1c3def3",
          "width" : 640
        }, {
          "height" : 300,
          "url" : "https://i.scdn.co/image/ab67616d00001e021a1651758c0bf644f1c3def3",
          "width" : 300
        }, {
          "height" : 64,
          "url" : "https://i.scdn.co/image/ab67616d000048511a1651758c0bf644f1c3def3",
          "width" : 64
        } ],
        "name" : "Christian Instrumental Hymns",
        "release_date" : "2015-07-28",
        "release_date_precision" : "day",
        "total_tracks" : 15,
        "type" : "album",
        "uri" : "spotify:album:3QAL46J9YXNtJ68aXZTZUg"
      },
      "artists" : [ {
        "external_urls" : {
          "spotify" : "https://open.spotify.com/artist/6QVPMfsXbiEeH2Afh3D0xy"
        },
        "href" : "https://api.spotify.com/v1/artists/6QVPMfsXbiEeH2Afh3D0xy",
        "id" : "6QVPMfsXbiEeH2Afh3D0xy",
        "name" : "Jesus Raymond",
        "type" : "artist",
        "uri" : "spotify:artist:6QVPMfsXbiEeH2Afh3D0xy"
      } ],
      "disc_number" : 1,
      "duration_ms" : 213786,
      "explicit" : false,
      "external_ids" : {
        "isrc" : "GB-SMU-21-93634"
      },
      "external_urls" : {
        "spotify" : "https://open.spotify.com/track/3GoLDFiHuajF4pTuImxCXM"
      },
      "href" : "https://api.spotify.com/v1/tracks/3GoLDFiHuajF4pTuImxCXM",
      "id" : "3GoLDFiHuajF4pTuImxCXM",
      "is_local" : false,
      "is_playable" : true,
      "name" : "Like a River Glorious",
      "popularity" : 7,
      "preview_url" : "https://p.scdn.co/mp3-preview/ab172eb5abcc0062fc5633ea5e8e5f6c1974b03f?cid=774b29d4f13844c495f206cafdad9c86",
      "track_number" : 5,
      "type" : "track",
      "uri" : "spotify:track:3GoLDFiHuajF4pTuImxCXM"
    }, {
      "album" : {
        "album_type" : "album",
        "artists" : [ {
          "external_urls" : {
            "spotify" : "https://open.spotify.com/artist/388PL1NRNOBkw0DcuuKpDf"
          },
          "href" : "https://api.spotify.com/v1/artists/388PL1NRNOBkw0DcuuKpDf",
          "id" : "388PL1NRNOBkw0DcuuKpDf",
          "name" : "Haven",
          "type" : "artist",
          "uri" : "spotify:artist:388PL1NRNOBkw0DcuuKpDf"
        } ],
        "external_urls" : {
          "spotify" : "https://open.spotify.com/album/2AOCwGv34ehNgblx8xQAaL"
        },
        "href" : "https://api.spotify.com/v1/albums/2AOCwGv34ehNgblx8xQAaL",
        "id" : "2AOCwGv34ehNgblx8xQAaL",
        "images" : [ {
          "height" : 640,
          "url" : "https://i.scdn.co/image/ab67616d0000b27351a10ca9286d14cdf4e892c7",
          "width" : 640
        }, {
          "height" : 300,
          "url" : "https://i.scdn.co/image/ab67616d00001e0251a10ca9286d14cdf4e892c7",
          "width" : 300
        }, {
          "height" : 64,
          "url" : "https://i.scdn.co/image/ab67616d0000485151a10ca9286d14cdf4e892c7",
          "width" : 64
        } ],
        "name" : "Acappella Hymns",
        "release_date" : "1997",
        "release_date_precision" : "year",
        "total_tracks" : 15,
        "type" : "album",
        "uri" : "spotify:album:2AOCwGv34ehNgblx8xQAaL"
      },
      "artists" : [ {
        "external_urls" : {
          "spotify" : "https://open.spotify.com/artist/388PL1NRNOBkw0DcuuKpDf"
        },
        "href" : "https://api.spotify.com/v1/artists/388PL1NRNOBkw0DcuuKpDf",
        "id" : "388PL1NRNOBkw0DcuuKpDf",
        "name" : "Haven",
        "type" : "artist",
        "uri" : "spotify:artist:388PL1NRNOBkw0DcuuKpDf"
      } ],
      "disc_number" : 1,
      "duration_ms" : 205000,
      "explicit" : false,
      "external_ids" : {
        "isrc" : "uscgh0946780"
      },
      "external_urls" : {
        "spotify" : "https://open.spotify.com/track/2vKCsTB7GXaqIrPGP6bPqO"
      },
      "href" : "https://api.spotify.com/v1/tracks/2vKCsTB7GXaqIrPGP6bPqO",
      "id" : "2vKCsTB7GXaqIrPGP6bPqO",
      "is_local" : false,
      "is_playable" : true,
      "name" : "Like A River Glorious",
      "popularity" : 5,
      "preview_url" : "https://p.scdn.co/mp3-preview/07aa9da9ed64763a29c217db23c7705f3d36b5df?cid=774b29d4f13844c495f206cafdad9c86",
      "track_number" : 4,
      "type" : "track",
      "uri" : "spotify:track:2vKCsTB7GXaqIrPGP6bPqO"
    }, {
      "album" : {
        "album_type" : "album",
        "artists" : [ {
          "external_urls" : {
            "spotify" : "https://open.spotify.com/artist/1MmubZDiFWXhOXz941cRRp"
          },
          "href" : "https://api.spotify.com/v1/artists/1MmubZDiFWXhOXz941cRRp",
          "id" : "1MmubZDiFWXhOXz941cRRp",
          "name" : "Our Daily Bread",
          "type" : "artist",
          "uri" : "spotify:artist:1MmubZDiFWXhOXz941cRRp"
        } ],
        "external_urls" : {
          "spotify" : "https://open.spotify.com/album/0j4gmv8XCXPEDC9T3lEIDw"
        },
        "href" : "https://api.spotify.com/v1/albums/0j4gmv8XCXPEDC9T3lEIDw",
        "id" : "0j4gmv8XCXPEDC9T3lEIDw",
        "images" : [ {
          "height" : 640,
          "url" : "https://i.scdn.co/image/ab67616d0000b273013ab56d992e72af8a5a556a",
          "width" : 640
        }, {
          "height" : 300,
          "url" : "https://i.scdn.co/image/ab67616d00001e02013ab56d992e72af8a5a556a",
          "width" : 300
        }, {
          "height" : 64,
          "url" : "https://i.scdn.co/image/ab67616d00004851013ab56d992e72af8a5a556a",
          "width" : 64
        } ],
        "name" : "Hymns of Heaven and Hymns of God's Peace",
        "release_date" : "2016-09-10",
        "release_date_precision" : "day",
        "total_tracks" : 21,
        "type" : "album",
        "uri" : "spotify:album:0j4gmv8XCXPEDC9T3lEIDw"
      },
      "artists" : [ {
        "external_urls" : {
          "spotify" : "https://open.spotify.com/artist/1MmubZDiFWXhOXz941cRRp"
        },
        "href" : "https://api.spotify.com/v1/artists/1MmubZDiFWXhOXz941cRRp",
        "id" : "1MmubZDiFWXhOXz941cRRp",
        "name" : "Our Daily Bread",
        "type" : "artist",
        "uri" : "spotify:artist:1MmubZDiFWXhOXz941cRRp"
      } ],
      "disc_number" : 1,
      "duration_ms" : 188373,
      "explicit" : false,
      "external_ids" : {
        "isrc" : "USLF51602161"
      },
      "external_urls" : {
        "spotify" : "https://open.spotify.com/track/70RocW4bQ8LcPmpw0ElmNb"
      },
      "href" : "https://api.spotify.com/v1/tracks/70RocW4bQ8LcPmpw0ElmNb",
      "id" : "70RocW4bQ8LcPmpw0ElmNb",
      "is_local" : false,
      "is_playable" : true,
      "name" : "Like a River Glorious",
      "popularity" : 6,
      "preview_url" : "https://p.scdn.co/mp3-preview/81acfadac8dc2b74ec0f2be6376423d3f310c1fc?cid=774b29d4f13844c495f206cafdad9c86",
      "track_number" : 18,
      "type" : "track",
      "uri" : "spotify:track:70RocW4bQ8LcPmpw0ElmNb"
    }, {
      "album" : {
        "album_type" : "album",
        "artists" : [ {
          "external_urls" : {
            "spotify" : "https://open.spotify.com/artist/3jiQ4t07tyKTNkbp25Znjn"
          },
          "href" : "https://api.spotify.com/v1/artists/3jiQ4t07tyKTNkbp25Znjn",
          "id" : "3jiQ4t07tyKTNkbp25Znjn",
          "name" : "The Joslin Grove Choral Society",
          "type" : "artist",
          "uri" : "spotify:artist:3jiQ4t07tyKTNkbp25Znjn"
        } ],
        "external_urls" : {
          "spotify" : "https://open.spotify.com/album/6uIyFZPEoOimaJBzmWc0D1"
        },
        "href" : "https://api.spotify.com/v1/albums/6uIyFZPEoOimaJBzmWc0D1",
        "id" : "6uIyFZPEoOimaJBzmWc0D1",
        "images" : [ {
          "height" : 640,
          "url" : "https://i.scdn.co/image/ab67616d0000b273f890a54c20980be5d4c19fa8",
          "width" : 640
        }, {
          "height" : 300,
          "url" : "https://i.scdn.co/image/ab67616d00001e02f890a54c20980be5d4c19fa8",
          "width" : 300
        }, {
          "height" : 64,
          "url" : "https://i.scdn.co/image/ab67616d00004851f890a54c20980be5d4c19fa8",
          "width" : 64
        } ],
        "name" : "Thomas Kinkade: 33 Best Loved Hymns",
        "release_date" : "2003-01-01",
        "release_date_precision" : "day",
        "total_tracks" : 33,
        "type" : "album",
        "uri" : "spotify:album:6uIyFZPEoOimaJBzmWc0D1"
      },
      "artists" : [ {
        "external_urls" : {
          "spotify" : "https://open.spotify.com/artist/3jiQ4t07tyKTNkbp25Znjn"
        },
        "href" : "https://api.spotify.com/v1/artists/3jiQ4t07tyKTNkbp25Znjn",
        "id" : "3jiQ4t07tyKTNkbp25Znjn",
        "name" : "The Joslin Grove Choral Society",
        "type" : "artist",
        "uri" : "spotify:artist:3jiQ4t07tyKTNkbp25Znjn"
      } ],
      "disc_number" : 1,
      "duration_ms" : 196986,
      "explicit" : false,
      "external_ids" : {
        "isrc" : "CAM460601783"
      },
      "external_urls" : {
        "spotify" : "https://open.spotify.com/track/1dLDzjFnj8QsZ19FZUZC7H"
      },
      "href" : "https://api.spotify.com/v1/tracks/1dLDzjFnj8QsZ19FZUZC7H",
      "id" : "1dLDzjFnj8QsZ19FZUZC7H",
      "is_local" : false,
      "is_playable" : true,
      "name" : "Like a River Glorious",
      "popularity" : 6,
      "preview_url" : "https://p.scdn.co/mp3-preview/bf45657c496cf8baf056b03c0512155702bd05f4?cid=774b29d4f13844c495f206cafdad9c86",
      "track_number" : 29,
      "type" : "track",
      "uri" : "spotify:track:1dLDzjFnj8QsZ19FZUZC7H"
    }, {
      "album" : {
        "album_type" : "album",
        "artists" : [ {
          "external_urls" : {
            "spotify" : "https://open.spotify.com/artist/41hCpLaR1bEW5ETK3aPvDB"
          },
          "href" : "https://api.spotify.com/v1/artists/41hCpLaR1bEW5ETK3aPvDB",
          "id" : "41hCpLaR1bEW5ETK3aPvDB",
          "name" : "The Eden Symphony Orchestra",
          "type" : "artist",
          "uri" : "spotify:artist:41hCpLaR1bEW5ETK3aPvDB"
        } ],
        "external_urls" : {
          "spotify" : "https://open.spotify.com/album/68RZWjRLdU2FTxeVQNbSA1"
        },
        "href" : "https://api.spotify.com/v1/albums/68RZWjRLdU2FTxeVQNbSA1",
        "id" : "68RZWjRLdU2FTxeVQNbSA1",
        "images" : [ {
          "height" : 640,
          "url" : "https://i.scdn.co/image/ab67616d0000b2733efd24fcf948c2ed14e27454",
          "width" : 640
        }, {
          "height" : 300,
          "url" : "https://i.scdn.co/image/ab67616d00001e023efd24fcf948c2ed14e27454",
          "width" : 300
        }, {
          "height" : 64,
          "url" : "https://i.scdn.co/image/ab67616d000048513efd24fcf948c2ed14e27454",
          "width" : 64
        } ],
        "name" : "To God Be the Glory - Best Loved Instrumental Hymns",
        "release_date" : "2007-12-03",
        "release_date_precision" : "day",
        "total_tracks" : 14,
        "type" : "album",
        "uri" : "spotify:album:68RZWjRLdU2FTxeVQNbSA1"
      },
      "artists" : [ {
        "external_urls" : {
          "spotify" : "https://open.spotify.com/artist/3fZ1FMwZqpQGJW82eeg2YN"
        },
        "href" : "https://api.spotify.com/v1/artists/3fZ1FMwZqpQGJW82eeg2YN",
        "id" : "3fZ1FMwZqpQGJW82eeg2YN",
        "name" : "David Shelley Ensemble",
        "type" : "artist",
        "uri" : "spotify:artist:3fZ1FMwZqpQGJW82eeg2YN"
      } ],
      "disc_number" : 1,
      "duration_ms" : 204200,
      "explicit" : false,
      "external_ids" : {
        "isrc" : "GBCEU0678208"
      },
      "external_urls" : {
        "spotify" : "https://open.spotify.com/track/4gADEsnTsTv96JGosmxUsp"
      },
      "href" : "https://api.spotify.com/v1/tracks/4gADEsnTsTv96JGosmxUsp",
      "id" : "4gADEsnTsTv96JGosmxUsp",
      "is_local" : false,
      "is_playable" : true,
      "name" : "Like a River Glorious",
      "popularity" : 6,
      "preview_url" : "https://p.scdn.co/mp3-preview/5ec24947df1c61a2187f1cb0b5a81a6b7517c384?cid=774b29d4f13844c495f206cafdad9c86",
      "track_number" : 8,
      "type" : "track",
      "uri" : "spotify:track:4gADEsnTsTv96JGosmxUsp"
    } ],
    "limit" : 10,
    "next" : "https://api.spotify.com/v1/search?query=Like+a+River+Glorious&type=track&market=US&offset=15&limit=10",
    "offset" : 5,
    "previous" : "https://api.spotify.com/v1/search?query=Like+a+River+Glorious&type=track&market=US&offset=0&limit=10",
    "total" : 161
  }
}