{
  "tracks" : {
    "href" : "https://api.spotify.com/v1/search?query=O+God%2C+Our+Help&type=track&market=US&offset=5&limit=10",
    "items" : [ {
      "album" : {
        "album_type" : "album",
        "artists" : [ {
          "external_urls" : {
            "spotify" : "https://open.spotify.com/artist/6dpTsQfLG1GDzCQBUjLxWO"
          },
          "href" : "https://api.spotify.com/v1/artists/6dpTsQfLG1GDzCQBUjLxWO",
          "id" : "6dpTsQfLG1GDzCQBUjLxWO",
          "name" : "Reverend Glasseye",
          "type" : "artist",
          "uri" : "spotify:artist:6dpTsQfLG1GDzCQBUjLxWO"
        } ],
        "external_urls" : {
          "spotify" : "https://open.spotify.com/album/1QQJoRpRZUZBrrDI8RTcw0"
        },
        "href" : "https://api.spotify.com/v1/albums/1QQJoRpRZUZBrrDI8RTcw0",
        "id" : "1QQJoRpRZUZBrrDI8RTcw0",
        "images" : [ {
          "height" : 640,
          "url" : "https://i.scdn.co/image/ab67616d0000b273333c4fa887023900bcb7983e",
          "width" : 640
        }, {
          "height" : 300,
          "url" : "https://i.scdn.co/image/ab67616d00001e02333c4fa887023900bcb7983e",
          "width" : 300
        }, {
          "height" : 64,
          "url" : "https://i.scdn.co/image/ab67616d00004851333c4fa887023900bcb7983e",
          "width" : 64
        } ],
        "name" : "Our Lady Of The Broken Spine",
        "release_date" : "2003",
        "release_date_precision" : "year",
        "total_tracks" : 9,
        "type" : "album",
        "uri" : "spotify:album:1QQJoRpRZUZBrrDI8RTcw0"
      },
      "artists" : [ {
        "external_urls" : {
          "spotify" : "https://open.spotify.com/artist/6dpTsQfLG1GDzCQBUjLxWO"
        },
        "href" : "https://api.spotify.com/v1/artists/6dpTsQfLG1GDzCQBUjLxWO",
        "id" : "6dpTsQfLG1GDzCQBUjLxWO",
        "name" : "Reverend Glasseye",
        "type" : "artist",
        "uri" : "spotify:artist:6dpTsQfLG1GDzCQBUjLxWO"
      } ],
      "disc_number" : 1,
      "duration_ms" : 292040,
      "explicit" : false,
      "external_ids" : {
        "isrc" : "ushm80529179"
      },
      "external_urls" : {
        "spotify" : "https://open.spotify.com/track/6vXnDqt9OibNRZwlKq6qz9"
      },
      "href" : "https://api.spotify.com/v1/tracks/6vXnDqt9OibNRZwlKq6qz9",
      "id" : "6vXnDqt9OibNRZwlKq6qz9",
      "is_local" : false,
      "is_playable" : true,
      "name" : "God Help You Dumb Boy",
      "popularity" : 31,
      "preview_url" : "https://p.scdn.co/mp3-preview/611fc64ee79849f31a1515b7c95c04f2ba12f8aa?cid=774b29d4f13844c495f206cafdad9c86",
      "track_number" : 2,
      "type" : "track",
      "uri" : "spotify:track:6vXnDqt9OibNRZwlKq6qz9"
    }, {
      "album" : {
        "album_type" : "album",
        "artists" : [ {
          "external_urls" : {
            "spotify" : "https://open.spotify.com/artist/3bOofoVdItLmnOv4Zn1Vvb"
          },
          "href" : "https://api.spotify.com/v1/artists/3bOofoVdItLmnOv4Zn1Vvb",
          "id" : "3bOofoVdItLmnOv4Zn1Vvb",
          "name" : "The Methodist Hymnal",
          "type" : "artist",
          "uri" : "spotify:artist:3bOofoVdItLmnOv4Zn1Vvb"
        } ],
        "external_urls" : {
          "spotify" : "https://open.spotify.com/album/1wGoiaUfVqmoRjX8NzXFf4"
        },
        "href" : "https://api.spotify.com/v1/albums/1wGoiaUfVqmoRjX8NzXFf4",
        "id" : "1wGoiaUfVqmoRjX8NzXFf4",
        "images" : [ {
          "height" : 640,
          "url" : "https://i.scdn.co/image/ab67616d0000b273e5afdad652d1cebd85a7df6d",
          "width" : 640
        }, {
          "height" : 300,
          "url" : "https://i.scdn.co/image/ab67616d00001e02e5afdad652d1cebd85a7df6d",
          "width" : 300
        }, {
          "height" : 64,
          "url" : "https://i.scdn.co/image/ab67616d00004851e5afdad652d1cebd85a7df6d",
          "width" : 64
        } ],
        "name" : "Blessings",
        "release_date" : "2015-09-25",
        "release_date_precision" : "day",
        "total_tracks" : 16,
        "type" : "album",
        "uri" : "spotify:album:1wGoiaUfVqmoRjX8NzXFf4"
      },
      "artists" : [ {
        "external_urls" : {
          "spotify" : "https://open.spotify.com/artist/3bOofoVdItLmnOv4Zn1Vvb"
        },
        "href" : "https://api.spotify.com/v1/artists/3bOofoVdItLmnOv4Zn1Vvb",
        "id" : "3bOofoVdItLmnOv4Zn1Vvb",
        "name" : "The Methodist Hymnal",
        "type" : "artist",
        "uri" : "spotify:artist:3bOofoVdItLmnOv4Zn1Vvb"
      } ],
      "disc_number" : 1,
      "duration_ms" : 91310,
      "explicit" : false,
      "external_ids" : {
        "isrc" : "USLZJ1559374"
      },
      "external_urls" : {
        "spotify" : "https://open.spotify.com/track/5cd7AkZIkgdDwUIySWtSAb"
      },
      "href" : "https://api.spotify.com/v1/tracks/5cd7AkZIkgdDwUIySWtSAb",
      "id" : "5cd7AkZIkgdDwUIySWtSAb",
      "is_local" : false,
      "is_playable" : true,
      "name" : "O God Our Help In Ages Past",
      "popularity" : 13,
      "preview_url" : "https://p.scdn.co/mp3-preview/1411e92eca380479c24757fb0464b6fef35a7900?cid=774b29d4f13844c495f206cafdad9c86",
      "track_number" : 9,
      "type" : "track",
      "uri" : "spotify:track:5cd7AkZIkgdDwUIySWtSAb"
    }, {
      "album" : {
        "album_type" : "single",
        "artists" : [ {
          "external_urls" : {
            "spotify" : "https://open.spotify.com/artist/1VrytJtdUWHEzLlSUesCtK"
          },
          "href" : "https://api.spotify.com/v1/artists/1VrytJtdUWHEzLlSUesCtK",
          "id" : "1VrytJtdUWHEzLlSUesCtK",
          "name" : "Adam Wheatley",
          "type" : "artist",
          "uri" : "spotify:artist:1VrytJtdUWHEzLlSUesCtK"
        } ],
        "external_urls" : {
          "spotify" : "https://open.spotify.com/album/4hZM1tN6GvzHUuXIHpJKsp"
        },
        "href" : "https://api.spotify.com/v1/albums/4hZM1tN6GvzHUuXIHpJKsp",
        "id" : "4hZM1tN6GvzHUuXIHpJKsp",
        "images" : [ {
          "height" : 640,
          "url" : "https://i.scdn.co/image/ab67616d0000b273aa86a957df1362dffbf0bce9",
          "width" : 640
        }, {
          "height" : 300,
          "url" : "https://i.scdn.co/image/ab67616d00001e02aa86a957df1362dffbf0bce9",
          "width" : 300
        }, {
          "height" : 64,
          "url" : "https://i.scdn.co/image/ab67616d00004851aa86a957df1362dffbf0bce9",
          "width" : 64
        } ],
        "name" : "Hymn Book, Vol. 1",
        "release_date" : "2012-11-06",
        "release_date_precision" : "day",
        "total_tracks" : 6,
        "type" : "album",
        "uri" : "spotify:album:4hZM1tN6GvzHUuXIHpJKsp"
      },
      "artists" : [ {
        "external_urls" : {
          "spotify" : "https://open.spotify.com/artist/1VrytJtdUWHEzLlSUesCtK"
        },
        "href" : "https://api.spotify.com/v1/artists/1VrytJtdUWHEzLlSUesCtK",
        "id" : "1VrytJtdUWHEzLlSUesCtK",
        "name" : "Adam Wheatley",
        "type" : "artist",
        "uri" : "spotify:artist:1VrytJtdUWHEzLlSUesCtK"
      } ],
      "disc_number" : 1,
      "duration_ms" : 188773,
      "explicit" : false,
      "external_ids" : {
        "isrc" : "ushm91288089"
      },
      "external_urls" : {
        "spotify" : "https://open.spotify.com/track/2l0GCyViIkLTdmxu4v9SQt"
      },
      "href" : "https://api.spotify.com/v1/tracks/2l0GCyViIkLTdmxu4v9SQt",
      "id" : "2l0GCyViIkLTdmxu4v9SQt",
      "is_local" : false,
      "is_playable" : true,
      "name" : "O God, Our Help in Ages Past",
      "popularity" : 15,
      "preview_url" : "https://p.scdn.co/mp3-preview/78ba7b3a886f31792cf633993005950aeae2547b?cid=774b29d4f13844c495f206cafdad9c86",
      "track_number" : 2,
      "type" : "track",
      "uri" : "spotify:track:2l0GCyViIkLTdmxu4v9SQt"
    }, {
      "album" : {
        "album_type" : "album",
        "artists" : [ {
          "external_urls" : {
            "spotify" : "https://open.spotify.com/artist/0pmTKjAS7GwJD8TSdUqW1Q"
          },
          "href" : "https://api.spotify.com/v1/artists/0pmTKjAS7GwJD8TSdUqW1Q",
          "id" : "0pmTKjAS7GwJD8TSdUqW1Q",
          "name" : "Steven Terwilliger",
          "type" : "artist",
          "uri" : "spotify:artist:0pmTKjAS7GwJD8TSdUqW1Q"
        } ],
        "external_urls" : {
          "spotify" : "https://open.spotify.com/album/3r4O9eXeUuKpmi6bMPV0OB"
        },
        "href" : "https://api.spotify.com/v1/albums/3r4O9eXeUuKpmi6bMPV0OB",
        "id" : "3r4O9eXeUuKpmi6bMPV0OB",
        "images" : [ {
          "height" : 640,
          "url" : "https://i.scdn.co/image/ab67616d0000b273ea5bcd1e594ec36ccf303fba",
          "width" : 640
        }, {
          "height" : 300,
          "url" : "https://i.scdn.co/image/ab67616d00001e02ea5bcd1e594ec36ccf303fba",
          "width" : 300
        }, {
          "height" : 64,
          "url" : "https://i.scdn.co/image/ab67616d00004851ea5bcd1e594ec36ccf303fba",
          "width" : 64
        } ],
        "name" : "Hymns for Classical Guitar",
        "release_date" : "2012-12-01",
        "release_date_precision" : "day",
        "total_tracks" : 10,
        "type" : "album",
        "uri" : "spotify:album:3r4O9eXeUuKpmi6bMPV0OB"
      },
      "artists" : [ {
        "external_urls" : {
          "spotify" : "https://open.spotify.com/artist/0pmTKjAS7GwJD8TSdUqW1Q"
        },
        "href" : "https://api.spotify.com/v1/artists/0pmTKjAS7GwJD8TSdUqW1Q",
        "id" : "0pmTKjAS7GwJD8TSdUqW1Q",
        "name" : "Steven Terwilliger",
        "type" : "artist",
        "uri" : "spotify:artist:0pmTKjAS7GwJD8TSdUqW1Q"
      } ],
      "disc_number" : 1,
      "duration_ms" : 136997,
      "explicit" : false,
      "external_ids" : {
        "isrc" : "usx9p1227345"
      },
      "external_urls" : {
        "spotify" : "https://open.spotify.com/track/5IeLCHwGTNWqVKSMubLyHC"
      },
      "href" : "https://api.spotify.com/v1/tracks/5IeLCHwGTNWqVKSMubLyHC",
      "id" : "5IeLCHwGTNWqVKSMubLyHC",
      "is_local" : false,
      "is_playable" : true,
      "name" : "O God Our Help in Ages Past",
      "popularity" : 15,
      "preview_url" : "https://p.scdn.co/mp3-preview/ddb5f9b738334ee1470f027524f7f77c8437ddd7?cid=774b29d4f13844c495f206cafdad9c86",
      "track_number" : 2,
      "type" : "track",
      "uri" : "spotify:track:5IeLCHwGTNWqVKSMubLyHC"
    }, {
      "album" : {
        "album_type" : "album",
        "artists" : [ {
          "external_urls" : {
            "spotify" : "https://open.spotify.com/artist/3obIEwSdJCDahAb7WtFdjg"
          },
          "href" : "https://api.spotify.com/v1/artists/3obIEwSdJCDahAb7WtFdjg",
          "id" : "3obIEwSdJCDahAb7WtFdjg",
          "name" : "Sojourn",
          "type" : "artist",
          "uri" : "spotify:artist:3obIEwSdJCDahAb7WtFdjg"
        } ],
        "external_urls" : {
          "spotify" : "https://open.spotify.com/album/23IlcrTtd0Dpo9vhYqfoCQ"
        },
        "href" : "https://api.spotify.com/v1/albums/23IlcrTtd0Dpo9vhYqfoCQ",
        "id" : "23IlcrTtd0Dpo9vhYqfoCQ",
        "images" : [ {
          "height" : 640,
          "url" : "https://i.scdn.co/image/ab67616d0000b273e3c452c47a1abe8796907ffa",
          "width" : 640
        }, {
          "height" : 300,
          "url" : "https://i.scdn.co/image/ab67616d00001e02e3c452c47a1abe8796907ffa",
          "width" : 300
        }, {
          "height" : 64,
          "url" : "https://i.scdn.co/image/ab67616d00004851e3c452c47a1abe8796907ffa",
          "width" : 64
        } ],
        "name" : "The Water and the Blood",
        "release_date" : "2011-04-18",
        "release_date_precision" : "day",
        "total_tracks" : 12,
        "type" : "album",
        "uri" : "spotify:album:23IlcrTtd0Dpo9vhYqfoCQ"
      },
      "artists" : [ {
        "external_urls" : {
          "spotify" : "https://open.spotify.com/artist/3obIEwSdJCDahAb7WtFdjg"
        },
        "href" : "https://api.spotify.com/v1/artists/3obIEwSdJCDahAb7WtFdjg",
        "id" : "3obIEwSdJCDahAb7WtFdjg",
        "name" : "Sojourn",
        "type" : "artist",
        "uri" : "spotify:artist:3obIEwSdJCDahAb7WtFdjg"
      } ],
      "disc_number" : 1,
      "duration_ms" : 332653,
      "explicit" : false,
      "external_ids" : {
        "isrc" : "US5BC1100106"
      },
      "external_urls" : {
        "spotify" : "https://open.spotify.com/track/49aKo9Pdb75I2iAigBo3jg"
      },
      "href" : "https://api.spotify.com/v1/tracks/49aKo9Pdb75I2iAigBo3jg",
      "id" : "49aKo9Pdb75I2iAigBo3jg",
      "is_local" : false,
      "is_playable" : true,
      "name" : "Oh God, Our Help In Ages Past",
      "popularity" : 13,
      "preview_url" : "https://p.scdn.co/mp3-preview/6ddeb706d0488cb2921568194d4958bd1cc03fd3?cid=774b29d4f13844c495f206cafdad9c86",
      "track_number" : 6,
      "type" : "track",
      "uri" : "spotify:track:49aKo9Pdb75I2iAigBo3jg"
    }, {
      "album" : {
        "album_type" : "album",
        "artists" : [ {
          "external_urls" : {
            "spotify" : "https://open.spotify.com/artist/5qpYYXUXU2LRfDKOK1wI4L"
          },
          "href" : "https://api.spotify.com/v1/artists/5qpYYXUXU2LRfDKOK1wI4L",
          "id" : "5qpYYXUXU2LRfDKOK1wI4L",
          "name" : "Sheffield Cathedral Choir",
          "type" : "artist",
          "uri" : "spotify:artist:5qpYYXUXU2LRfDKOK1wI4L"
        } ],
        "external_urls" : {
          "spotify" : "https://open.spotify.com/album/3ku5lnK10jKzkue7BrCl4N"
        },
        "href" : "https://api.spotify.com/v1/albums/3ku5lnK10jKzkue7BrCl4N",
        "id" : "3ku5lnK10jKzkue7BrCl4N",
        "images" : [ {
          "height" : 640,
          "url" : "https://i.scdn.co/image/ab67616d0000b27359c0cc09f583778cb41d1fd7",
          "width" : 640
        }, {
          "height" : 300,
          "url" : "https://i.scdn.co/image/ab67616d00001e0259c0cc09f583778cb41d1fd7",
          "width" : 300
        }, {
          "height" : 64,
          "url" : "https://i.scdn.co/image/ab67616d0000485159c0cc09f583778cb41d1fd7",
          "width" : 64
        } ],
        "name" : "Complete New English Hymnal Vol. 13",
        "release_date" : "2001-08-31",
        "release_date_precision" : "day",
        "total_tracks" : 26,
        "type" : "album",
        "uri" : "spotify:album:3ku5lnK10jKzkue7BrCl4N"
      },
      "artists" : [ {
        "external_urls" : {
          "spotify" : "https://open.spotify.com/artist/5qpYYXUXU2LRfDKOK1wI4L"
        },
        "href" : "https://api.spotify.com/v1/artists/5qpYYXUXU2LRfDKOK1wI4L",
        "id" : "5qpYYXUXU2LRfDKOK1wI4L",
        "name" : "Sheffield Cathedral Choir",
        "type" : "artist",
        "uri" : "spotify:artist:5qpYYXUXU2LRfDKOK1wI4L"
      } ],
      "disc_number" : 1,
      "duration_ms" : 156253,
      "explicit" : false,
      "external_ids" : {
        "isrc" : "GBXUX0871312"
      },
      "external_urls" : {
        "spotify" : "https://open.spotify.com/track/2RlLA6MJcWevhrmdZ8MHwb"
      },
      "href" : "https://api.spotify.com/v1/tracks/2RlLA6MJcWevhrmdZ8MHwb",
      "id" : "2RlLA6MJcWevhrmdZ8MHwb",
      "is_local" : false,
      "is_playable" : true,
      "name" : "O God, Our Help in Ages Past",
      "popularity" : 15,
      "preview_url" : "https://p.scdn.co/mp3-preview/7eef158e470e5f44ad2f925956cf65c74983639d?cid=774b29d4f13844c495f206cafdad9c86",
      "track_number" : 12,
      "type" : "track",
      "uri" : "spotify:track:2RlLA6MJcWevhrmdZ8MHwb"
    }, {
      "album" : {
        "album_type" : "album",
        "artists" : [ {
          "external_urls" : {
            "spotify" : "https://open.spotify.com/artist/5gWZC3kXTwxQGc9q3M16vK"
          },
          "href" : "https://api.spotify.com/v1/artists/5gWZC3kXTwxQGc9q3M16vK",
          "id" : "5gWZC3kXTwxQGc9q3M16vK",
          "name" : "LDS Piano",
          "type" : "artist",
          "uri" : "spotify:artist:5gWZC3kXTwxQGc9q3M16vK"
        } ],
        "external_urls" : {
          "spotify" : "https://open.spotify.com/album/3fBlpVP3wlV2x7NEduJJ8j"
        },
        "href" : "https://api.spotify.com/v1/albums/3fBlpVP3wlV2x7NEduJJ8j",
        "id" : "3fBlpVP3wlV2x7NEduJJ8j",
        "images" : [ {
          "height" : 640,
          "url" : "https://i.scdn.co/image/ab67616d0000b2736f0436790998f33a0bd6b411",
          "width" : 640
        }, {
          "height" : 300,
          "url" : "https://i.scdn.co/image/ab67616d00001e026f0436790998f33a0bd6b411",
          "width" : 300
        }, {
          "height" : 64,
          "url" : "https://i.scdn.co/image/ab67616d000048516f0436790998f33a0bd6b411",
          "width" : 64
        } ],
        "name" : "The Mormon Hymnbook: Restoration Hymns Volume 2",
        "release_date" : "2019-03-19",
        "release_date_precision" : "day",
        "total_tracks" : 22,
        "type" : "album",
        "uri" : "spotify:album:3fBlpVP3wlV2x7NEduJJ8j"
      },
      "artists" : [ {
        "external_urls" : {
          "spotify" : "https://open.spotify.com/artist/5gWZC3kXTwxQGc9q3M16vK"
        },
        "href" : "https://api.spotify.com/v1/artists/5gWZC3kXTwxQGc9q3M16vK",
        "id" : "5gWZC3kXTwxQGc9q3M16vK",
        "name" : "LDS Piano",
        "type" : "artist",
        "uri" : "spotify:artist:5gWZC3kXTwxQGc9q3M16vK"
      } ],
      "disc_number" : 1,
      "duration_ms" : 124017,
      "explicit" : false,
      "external_ids" : {
        "isrc" : "GBSMU6214006"
      },
      "external_urls" : {
        "spotify" : "https://open.spotify.com/track/7t1g4mLeqDHqijHa6CIH0x"
      },
      "href" : "https://api.spotify.com/v1/tracks/7t1g4mLeqDHqijHa6CIH0x",
      "id" : "7t1g4mLeqDHqijHa6CIH0x",
      "is_local" : false,
      "is_playable" : true,
      "name" : "O God Our Help in Ages Past",
      "popularity" : 10,
      "preview_url" : "https://p.scdn.co/mp3-preview/1c2ad9af36a455d053b310b24fbc6ec75d4ab9f7?cid=774b29d4f13844c495f206cafdad9c86",
      "track_number" : 5,
      "type" : "track",
      "uri" : "spotify:track:7t1g4mLeqDHqijHa6CIH0x"
    }, {
      "album" : {
        "album_type" : "album",
        "artists" : [ {
          "external_urls" : {
            "spotify" : "https://open.spotify.com/artist/6GqRs6YKqlKv8nlGAAnKwr"
          },
          "href" : "https://api.spotify.com/v1/artists/6GqRs6YKqlKv8nlGAAnKwr",
          "id" : "6GqRs6YKqlKv8nlGAAnKwr",
          "name" : "Nathan Drake",
          "type" : "artist",
          "uri" : "spotify:artist:6GqRs6YKqlKv8nlGAAnKwr"
        } ],
        "external_urls" : {
          "spotify" : "https://open.spotify.com/album/60335L6ftT0JgU6yjiXIXO"
        },
        "href" : "https://api.spotify.com/v1/albums/60335L6ftT0JgU6yjiXIXO",
        "id" : "60335L6ftT0JgU6yjiXIXO",
        "images" : [ {
          "height" : 640,
          "url" : "https://i.scdn.co/image/ab67616d0000b27382fe80267b0f6170fd8a401f",
          "width" : 640
        }, {
          "height" : 300,
          "url" : "https://i.scdn.co/image/ab67616d00001e0282fe80267b0f6170fd8a401f",
          "width" : 300
        }, {
          "height" : 64,
          "url" : "https://i.scdn.co/image/ab67616d0000485182fe80267b0f6170fd8a401f",
          "width" : 64
        } ],
        "name" : "Reawaken Hymns Volume 1",
        "release_date" : "2016-01-29",
        "release_date_precision" : "day",
        "total_tracks" : 8,
        "type" : "album",
        "uri" : "spotify:album:60335L6ftT0JgU6yjiXIXO"
      },
      "artists" : [ {
        "external_urls" : {
          "spotify" : "https://open.spotify.com/artist/6GqRs6YKqlKv8nlGAAnKwr"
        },
        "href" : "https://api.spotify.com/v1/artists/6GqRs6YKqlKv8nlGAAnKwr",
        "id" : "6GqRs6YKqlKv8nlGAAnKwr",
        "name" : "Nathan Drake",
        "type" : "artist",
        "uri" : "spotify:artist:6GqRs6YKqlKv8nlGAAnKwr"
      } ],
      "disc_number" : 1,
      "duration_ms" : 187000,
      "explicit" : false,
      "external_ids" : {
        "isrc" : "USE831536419"
      },
      "external_urls" : {
        "spotify" : "https://open.spotify.com/track/1I2HoUso13Px8aLldXlGFm"
      },
      "href" : "https://api.spotify.com/v1/tracks/1I2HoUso13Px8aLldXlGFm",
      "id" : "1I2HoUso13Px8aLldXlGFm",
      "is_local" : false,
      "is_playable" : true,
      "name" : "O God Our Help In Ages Past",
      "popularity" : 12,
      "preview_url" : "https://p.scdn.co/mp3-preview/ccb705d25e7e8c922662f7989281a0caa5aca537?cid=774b29d4f13844c495f206cafdad9c86",
      "track_number" : 7,
      "type" : "track",
      "uri" : "spotify:track:1I2HoUso13Px8aLldXlGFm"
    }, {
      "album" : {
        "album_type" : "album",
        "artists" : [ {
          "external_urls" : {
            "spotify" : "https://open.spotify.com/artist/2duo4NJtUrLaI38trK0hht"
          },
          "href" : "https://api.spotify.com/v1/artists/2duo4NJtUrLaI38trK0hht",
          "id" : "2duo4NJtUrLaI38trK0hht",
          "name" : "Mormon Tabernacle Choir",
          "type" : "artist",
          "uri" : "spotify:artist:2duo4NJtUrLaI38trK0hht"
        } ],
        "external_urls" : {
          "spotify" : "https://open.spotify.com/album/235O9JdWj2FxUFXdjl22lo"
        },
        "href" : "https://api.spotify.com/v1/albums/235O9JdWj2FxUFXdjl22lo",
        "id" : "235O9JdWj2FxUFXdjl22lo",
        "images" : [ {
          "height" : 640,
          "url" : "https://i.scdn.co/image/ab67616d0000b273923fcab6bee801b9f9f649a6",
          "width" : 640
        }, {
          "height" : 300,
          "url" : "https://i.scdn.co/image/ab67616d00001e02923fcab6bee801b9f9f649a6",
          "width" : 300
        }, {
          "height" : 64,
          "url" : "https://i.scdn.co/image/ab67616d00004851923fcab6bee801b9f9f649a6",
          "width" : 64
        } ],
        "name" : "Rock of Ages - 30 Favorite Hymns (with The Philadelphia Brass Ensemble & Percussion & Alexander Schreiner)",
        "release_date" : "1960",
        "release_date_precision" : "year",
        "total_tracks" : 30,
        "type" : "album",
        "uri" : "spotify:album:235O9JdWj2FxUFXdjl22lo"
      },
      "artists" : [ {
        "external_urls" : {
          "spotify" : "https://open.spotify.com/artist/36Xf9tGkUuGqVr1wugATp5"
        },
        "href" : "https://api.spotify.com/v1/artists/36Xf9tGkUuGqVr1wugATp5",
        "id" : "36Xf9tGkUuGqVr1wugATp5",
        "name" : "William Croft",
        "type" : "artist",
        "uri" : "spotify:artist:36Xf9tGkUuGqVr1wugATp5"
      }, {
        "external_urls" : {
          "spotify" : "https://open.spotify.com/artist/2duo4NJtUrLaI38trK0hht"
        },
        "href" : "https://api.spotify.com/v1/artists/2duo4NJtUrLaI38trK0hht",
        "id" : "2duo4NJtUrLaI38trK0hht",
        "name" : "Mormon Tabernacle Choir",
        "type" : "artist",
        "uri" : "spotify:artist:2duo4NJtUrLaI38trK0hht"
      } ],
      "disc_number" : 1,
      "duration_ms" : 119666,
      "explicit" : false,
      "external_ids" : {
        "isrc" : "USSM16001471"
      },
      "external_urls" : {
        "spotify" : "https://open.spotify.com/track/73clTPyzvk8UQIxGSTCwRY"
      },
      "href" : "https://api.spotify.com/v1/tracks/73clTPyzvk8UQIxGSTCwRY",
      "id" : "73clTPyzvk8UQIxGSTCwRY",
      "is_local" : false,
      "is_playable" : true,
      "name" : "O God, Our Help in Ages Past - Voice",
      "popularity" : 14,
      "preview_url" : "https://p.scdn.co/mp3-preview/37c19ac0f6073a11ba2e639b120bf649a26a3317?cid=774b29d4f13844c495f206cafdad9c86",
      "track_number" : 13,
      "type" : "track",
      "uri" : "spotify:track:73clTPyzvk8UQIxGSTCwRY"
    }, {
      "album" : {
        "album_type" : "album",
        "artists" : [ {
          "external_urls" : {
            "spotify" : "https://open.spotify.com/artist/1iEr9JmktmIMlaDLcSZFAL"
          },
          "href" : "https://api.spotify.com/v1/artists/1iEr9JmktmIMlaDLcSZFAL",
          "id" : "1iEr9JmktmIMlaDLcSZFAL",
          "name" : "The London Fox Players",
          "type" : "artist",
          "uri" : "spotify:artist:1iEr9JmktmIMlaDLcSZFAL"
        } ],
        "external_urls" : {
          "spotify" : "https://open.spotify.com/album/07RPwNX8U9hGhrIE95VCnK"
        },
        "href" : "https://api.spotify.com/v1/albums/07RPwNX8U9hGhrIE95VCnK",
        "id" : "07RPwNX8U9hGhrIE95VCnK",
        "images" : [ {
          "height" : 640,
          "url" : "https://i.scdn.co/image/ab67616d0000b2737b3fb017becda1975ea3abda",
          "width" : 640
        }, {
          "height" : 300,
          "url" : "https://i.scdn.co/image/ab67616d00001e027b3fb017becda1975ea3abda",
          "width" : 300
        }, {
          "height" : 64,
          "url" : "https://i.scdn.co/image/ab67616d000048517b3fb017becda1975ea3abda",
          "width" : 64
        } ],
        "name" : "Hymn styles - Cello Hymns",
        "release_date" : "2000",
        "release_date_precision" : "year",
        "total_tracks" : 12,
        "type" : "album",
        "uri" : "spotify:album:07RPwNX8U9hGhrIE95VCnK"
      },
      "artists" : [ {
        "external_urls" : {
          "spotify" : "https://open.spotify.com/artist/1iEr9JmktmIMlaDLcSZFAL"
        },
        "href" : "https://api.spotify.com/v1/artists/1iEr9JmktmIMlaDLcSZFAL",
        "id" : "1iEr9JmktmIMlaDLcSZFAL",
        "name" : "The London Fox Players",
        "type" : "artist",
        "uri" : "spotify:artist:1iEr9JmktmIMlaDLcSZFAL"
      } ],
      "disc_number" : 1,
      "duration_ms" : 149200,
      "explicit" : false,
      "external_ids" : {
        "isrc" : "GBCEU0017809"
      },
      "external_urls" : {
        "spotify" : "https://open.spotify.com/track/1GoETYPLsMDl3y2pceO3ef"
      },
      "href" : "https://api.spotify.com/v1/tracks/1GoETYPLsMDl3y2pceO3ef",
      "id" : "1GoETYPLsMDl3y2pceO3ef",
      "is_local" : false,
      "is_playable" : true,
      "name" : "O God, Our Help In Ages Past",
      "popularity" : 16,
      "preview_url" : "https://p.scdn.co/mp3-preview/a5e5dfa93b9df2376af7902e6081d1fa3d5a8255?cid=774b29d4f13844c495f206cafdad9c86",
      "track_number" : 9,
      "type" : "track",
      "uri" : "spotify:track:1GoETYPLsMDl3y2pceO3ef"
    } ],
    "limit" : 10,
    "next" : "https://api.spotify.com/v1/search?query=O+God%2C+Our+Help&type=track&market=US&offset=15&limit=10",
    "offset" : 5,
    "previous" : "https://api.spotify.com/v1/search?query=O+God%2C+Our+Help&type=track&market=US&offset=0&limit=10",
    "total" : 488
  }
}