{
  "tracks" : {
    "href" : "https://api.spotify.com/v1/search?query=Hear+Our+Prayer%2C+O+Lord&type=track&market=US&offset=5&limit=10",
    "items" : [ {
      "album" : {
        "album_type" : "album",
        "artists" : [ {
          "external_urls" : {
            "spotify" : "https://open.spotify.com/artist/7rFVPfrASM9KOEeJBa4l0x"
          },
          "href" : "https://api.spotify.com/v1/artists/7rFVPfrASM9KOEeJBa4l0x",
          "id" : "7rFVPfrASM9KOEeJBa4l0x",
          "name" : "The Jackson Southernaires",
          "type" : "artist",
          "uri" : "spotify:artist:7rFVPfrASM9KOEeJBa4l0x"
        } ],
        "external_urls" : {
          "spotify" : "https://open.spotify.com/album/60KGwQ3pPvRydq8LPUzEfQ"
        },
        "href" : "https://api.spotify.com/v1/albums/60KGwQ3pPvRydq8LPUzEfQ",
        "id" : "60KGwQ3pPvRydq8LPUzEfQ",
        "images" : [ {
          "height" : 640,
          "url" : "https://i.scdn.co/image/ab67616d0000b273a5d5f6d8750dcc9a2fdf2c4e",
          "width" : 640
        }, {
          "height" : 300,
          "url" : "https://i.scdn.co/image/ab67616d00001e02a5d5f6d8750dcc9a2fdf2c4e",
          "width" : 300
        }, {
          "height" : 64,
          "url" : "https://i.scdn.co/image/ab67616d00004851a5d5f6d8750dcc9a2fdf2c4e",
          "width" : 64
        } ],
        "name" : "Hear Our Prayers O Lord",
        "release_date" : "1986-11-26",
        "release_date_precision" : "day",
        "total_tracks" : 10,
        "type" : "album",
        "uri" : "spotify:album:60KGwQ3pPvRydq8LPUzEfQ"
      },
      "artists" : [ {
        "external_urls" : {
          "spotify" : "https://open.spotify.com/artist/7rFVPfrASM9KOEeJBa4l0x"
        },
        "href" : "https://api.spotify.com/v1/artists/7rFVPfrASM9KOEeJBa4l0x",
        "id" : "7rFVPfrASM9KOEeJBa4l0x",
        "name" : "The Jackson Southernaires",
        "type" : "artist",
        "uri" : "spotify:artist:7rFVPfrASM9KOEeJBa4l0x"
      } ],
      "disc_number" : 1,
      "duration_ms" : 214600,
      "explicit" : false,
      "external_ids" : {
        "isrc" : "USMR50440223"
      },
      "external_urls" : {
        "spotify" : "https://open.spotify.com/track/0B2oMpYdedQSrA2H3d17ru"
      },
      "href" : "https://api.spotify.com/v1/tracks/0B2oMpYdedQSrA2H3d17ru",
      "id" : "0B2oMpYdedQSrA2H3d17ru",
      "is_local" : false,
      "is_playable" : true,
      "name" : "It's Important to Me",
      "popularity" : 5,
      "preview_url" : "https://p.scdn.co/mp3-preview/13224542035a419b93af2766da4d8d2632cc37f4?cid=774b29d4f13844c495f206cafdad9c86",
      "track_number" : 1,
      "type" : "track",
      "uri" : "spotify:track:0B2oMpYdedQSrA2H3d17ru"
    }, {
      "album" : {
        "album_type" : "album",
        "artists" : [ {
          "external_urls" : {
            "spotify" : "https://open.spotify.com/artist/1EHAbA1GMYOfkh9ds9eNfS"
          },
          "href" : "https://api.spotify.com/v1/artists/1EHAbA1GMYOfkh9ds9eNfS",
          "id" : "1EHAbA1GMYOfkh9ds9eNfS",
          "name" : "Jose Mari Chan",
          "type" : "artist",
          "uri" : "spotify:artist:1EHAbA1GMYOfkh9ds9eNfS"
        }, {
          "external_urls" : {
            "spotify" : "https://open.spotify.com/artist/12PEvvjmWYtZj0AmdvqRVg"
          },
          "href" : "https://api.spotify.com/v1/artists/12PEvvjmWYtZj0AmdvqRVg",
          "id" : "12PEvvjmWYtZj0AmdvqRVg",
          "name" : "Jaymie Magtoto",
          "type" : "artist",
          "uri" : "spotify:artist:12PEvvjmWYtZj0AmdvqRVg"
        } ],
        "external_urls" : {
          "spotify" : "https://open.spotify.com/album/3WPwRhJqWbl9lkv8DDq8jh"
        },
        "href" : "https://api.spotify.com/v1/albums/3WPwRhJqWbl9lkv8DDq8jh",
        "id" : "3WPwRhJqWbl9lkv8DDq8jh",
        "images" : [ {
          "height" : 640,
          "url" : "https://i.scdn.co/image/ab67616d0000b273195984872649d2382f48b681",
          "width" : 640
        }, {
          "height" : 300,
          "url" : "https://i.scdn.co/image/ab67616d00001e02195984872649d2382f48b681",
          "width" : 300
        }, {
          "height" : 64,
          "url" : "https://i.scdn.co/image/ab67616d00004851195984872649d2382f48b681",
          "width" : 64
        } ],
        "name" : "Christmas in Our Hearts",
        "release_date" : "1990",
        "release_date_precision" : "year",
        "total_tracks" : 16,
        "type" : "album",
        "uri" : "spotify:album:3WPwRhJqWbl9lkv8DDq8jh"
      },
      "artists" : [ {
        "external_urls" : {
          "spotify" : "https://open.spotify.com/artist/1EHAbA1GMYOfkh9ds9eNfS"
        },
        "href" : "https://api.spotify.com/v1/artists/1EHAbA1GMYOfkh9ds9eNfS",
        "id" : "1EHAbA1GMYOfkh9ds9eNfS",
        "name" : "Jose Mari Chan",
        "type" : "artist",
        "uri" : "spotify:artist:1EHAbA1GMYOfkh9ds9eNfS"
      } ],
      "disc_number" : 1,
      "duration_ms" : 139666,
      "explicit" : false,
      "external_ids" : {
        "isrc" : "FR6V82355836"
      },
      "external_urls" : {
        "spotify" : "https://open.spotify.com/track/4zU8Vl17C2EZk1gY0LjHxS"
      },
      "href" : "https://api.spotify.com/v1/tracks/4zU8Vl17C2EZk1gY0LjHxS",
      "id" : "4zU8Vl17C2EZk1gY0LjHxS",
      "is_local" : false,
      "is_playable" : true,
      "name" : "The Lord's Prayer",
      "popularity" : 16,
      "preview_url" : "https://p.scdn.co/mp3-preview/4591bbe31769cfe1ae572fc8aa024948ae00624f?cid=774b29d4f13844c495f206cafdad9c86",
      "track_number" : 14,
      "type" : "track",
      "uri" : "spotify:track:4zU8Vl17C2EZk1gY0LjHxS"
    }, {
      "album" : {
        "album_type" : "album",
        "artists" : [ {
          "external_urls" : {
            "spotify" : "https://open.spotify.com/artist/7rFVPfrASM9KOEeJBa4l0x"
          },
          "href" : "https://api.spotify.com/v1/artists/7rFVPfrASM9KOEeJBa4l0x",
          "id" : "7rFVPfrASM9KOEeJBa4l0x",
          "name" : "The Jackson Southernaires",
          "type" : "artist",
          "uri" : "spotify:artist:7rFVPfrASM9KOEeJBa4l0x"
        } ],
        "external_urls" : {
          "spotify" : "https://open.spotify.com/album/60KGwQ3pPvRydq8LPUzEfQ"
        },
        "href" : "https://api.spotify.com/v1/albums/60KGwQ3pPvRydq8LPUzEfQ",
        "id" : "60KGwQ3pPvRydq8LPUzEfQ",
        "images" : [ {
          "height" : 640,
          "url" : "https://i.scdn.co/image/ab67616d0000b273a5d5f6d8750dcc9a2fdf2c4e",
          "width" : 640
        }, {
          "height" : 300,
          "url" : "https://i.scdn.co/image/ab67616d00001e02a5d5f6d8750dcc9a2fdf2c4e",
          "width" : 300
        }, {
          "height" : 64,
          "url" : "https://i.scdn.co/image/ab67616d00004851a5d5f6d8750dcc9a2fdf2c4e",
          "width" : 64
        } ],
        "name" : "Hear Our Prayers O Lord",
        "release_date" : "1986-11-26",
        "release_date_precision" : "day",
        "total_tracks" : 10,
        "type" : "album",
        "uri" : "spotify:album:60KGwQ3pPvRydq8LPUzEfQ"
      },
      "artists" : [ {
        "external_urls" : {
          "spotify" : "https://open.spotify.com/artist/7rFVPfrASM9KOEeJBa4l0x"
        },
        "href" : "https://api.spotify.com/v1/artists/7rFVPfrASM9KOEeJBa4l0x",
        "id" : "7rFVPfrASM9KOEeJBa4l0x",
        "name" : "The Jackson Southernaires",
        "type" : "artist",
        "uri" : "spotify:artist:7rFVPfrASM9KOEeJBa4l0x"
      } ],
      "disc_number" : 1,
      "duration_ms" : 356093,
      "explicit" : false,
      "external_ids" : {
        "isrc" : "USMR50440228"
      },
      "external_urls" : {
        "spotify" : "https://open.spotify.com/track/6GRBZLsInmetm7fcE4LaTU"
      },
      "href" : "https://api.spotify.com/v1/tracks/6GRBZLsInmetm7fcE4LaTU",
      "id" : "6GRBZLsInmetm7fcE4LaTU",
      "is_local" : false,
      "is_playable" : true,
      "name" : "Lord We Give You All the Praise",
      "popularity" : 4,
      "preview_url" : "https://p.scdn.co/mp3-preview/d8a40738f1e2c99ab11ea94920b7be1cb0de2682?cid=774b29d4f13844c495f206cafdad9c86",
      "track_number" : 6,
      "type" : "track",
      "uri" : "spotify:track:6GRBZLsInmetm7fcE4LaTU"
    }, {
      "album" : {
        "album_type" : "album",
        "artists" : [ {
          "external_urls" : {
            "spotify" : "https://open.spotify.com/artist/7rFVPfrASM9KOEeJBa4l0x"
          },
          "href" : "https://api.spotify.com/v1/artists/7rFVPfrASM9KOEeJBa4l0x",
          "id" : "7rFVPfrASM9KOEeJBa4l0x",
          "name" : "The Jackson Southernaires",
          "type" : "artist",
          "uri" : "spotify:artist:7rFVPfrASM9KOEeJBa4l0x"
        } ],
        "external_urls" : {
          "spotify" : "https://open.spotify.com/album/60KGwQ3pPvRydq8LPUzEfQ"
        },
        "href" : "https://api.spotify.com/v1/albums/60KGwQ3pPvRydq8LPUzEfQ",
        "id" : "60KGwQ3pPvRydq8LPUzEfQ",
        "images" : [ {
          "height" : 640,
          "url" : "https://i.scdn.co/image/ab67616d0000b273a5d5f6d8750dcc9a2fdf2c4e",
          "width" : 640
        }, {
          "height" : 300,
          "url" : "https://i.scdn.co/image/ab67616d00001e02a5d5f6d8750dcc9a2fdf2c4e",
          "width" : 300
        }, {
          "height" : 64,
          "url" : "https://i.scdn.co/image/ab67616d00004851a5d5f6d8750dcc9a2fdf2c4e",
          "width" : 64
        } ],
        "name" : "Hear Our Prayers O Lord",
        "release_date" : "1986-11-26",
        "release_date_precision" : "day",
        "total_tracks" : 10,
        "type" : "album",
        "uri" : "spotify:album:60KGwQ3pPvRydq8LPUzEfQ"
      },
      "artists" : [ {
        "external_urls" : {
          "spotify" : "https://open.spotify.com/artist/7rFVPfrASM9KOEeJBa4l0x"
        },
        "href" : "https://api.spotify.com/v1/artists/7rFVPfrASM9KOEeJBa4l0x",
        "id" : "7rFVPfrASM9KOEeJBa4l0x",
        "name" : "The Jackson Southernaires",
        "type" : "artist",
        "uri" : "spotify:artist:7rFVPfrASM9KOEeJBa4l0x"
      } ],
      "disc_number" : 1,
      "duration_ms" : 318160,
      "explicit" : false,
      "external_ids" : {
        "isrc" : "USMR50440232"
      },
      "external_urls" : {
        "spotify" : "https://open.spotify.com/track/4qXFqGVN0UDCh4UjDPKARq"
      },
      "href" : "https://api.spotify.com/v1/tracks/4qXFqGVN0UDCh4UjDPKARq",
      "id" : "4qXFqGVN0UDCh4UjDPKARq",
      "is_local" : false,
      "is_playable" : true,
      "name" : "You've Got a Chance",
      "popularity" : 4,
      "preview_url" : "https://p.scdn.co/mp3-preview/fb49803f1e96311df4f5c55762a1d3a19dc52b71?cid=774b29d4f13844c495f206cafdad9c86",
      "track_number" : 10,
      "type" : "track",
      "uri" : "spotify:track:4qXFqGVN0UDCh4UjDPKARq"
    }, {
      "album" : {
        "album_type" : "album",
        "artists" : [ {
          "external_urls" : {
            "spotify" : "https://open.spotify.com/artist/7rFVPfrASM9KOEeJBa4l0x"
          },
          "href" : "https://api.spotify.com/v1/artists/7rFVPfrASM9KOEeJBa4l0x",
          "id" : "7rFVPfrASM9KOEeJBa4l0x",
          "name" : "The Jackson Southernaires",
          "type" : "artist",
          "uri" : "spotify:artist:7rFVPfrASM9KOEeJBa4l0x"
        } ],
        "external_urls" : {
          "spotify" : "https://open.spotify.com/album/60KGwQ3pPvRydq8LPUzEfQ"
        },
        "href" : "https://api.spotify.com/v1/albums/60KGwQ3pPvRydq8LPUzEfQ",
        "id" : "60KGwQ3pPvRydq8LPUzEfQ",
        "images" : [ {
          "height" : 640,
          "url" : "https://i.scdn.co/image/ab67616d0000b273a5d5f6d8750dcc9a2fdf2c4e",
          "width" : 640
        }, {
          "height" : 300,
          "url" : "https://i.scdn.co/image/ab67616d00001e02a5d5f6d8750dcc9a2fdf2c4e",
          "width" : 300
        }, {
          "height" : 64,
          "url" : "https://i.scdn.co/image/ab67616d00004851a5d5f6d8750dcc9a2fdf2c4e",
          "width" : 64
        } ],
        "name" : "Hear Our Prayers O Lord",
        "release_date" : "1986-11-26",
        "release_date_precision" : "day",
        "total_tracks" : 10,
        "type" : "album",
        "uri" : "spotify:album:60KGwQ3pPvRydq8LPUzEfQ"
      },
      "artists" : [ {
        "external_urls" : {
          "spotify" : "https://open.spotify.com/artist/7rFVPfrASM9KOEeJBa4l0x"
        },
        "href" : "https://api.spotify.com/v1/artists/7rFVPfrASM9KOEeJBa4l0x",
        "id" : "7rFVPfrASM9KOEeJBa4l0x",
        "name" : "The Jackson Southernaires",
        "type" : "artist",
        "uri" : "spotify:artist:7rFVPfrASM9KOEeJBa4l0x"
      } ],
      "disc_number" : 1,
      "duration_ms" : 266733,
      "explicit" : false,
      "external_ids" : {
        "isrc" : "USMR50440226"
      },
      "external_urls" : {
        "spotify" : "https://open.spotify.com/track/54n4U0xTnufM4L1aduEQHp"
      },
      "href" : "https://api.spotify.com/v1/tracks/54n4U0xTnufM4L1aduEQHp",
      "id" : "54n4U0xTnufM4L1aduEQHp",
      "is_local" : false,
      "is_playable" : true,
      "name" : "Time Is a Terrible Thing to Waste",
      "popularity" : 4,
      "preview_url" : "https://p.scdn.co/mp3-preview/8867725f851a6a8ad5e19b610343a87f966571eb?cid=774b29d4f13844c495f206cafdad9c86",
      "track_number" : 4,
      "type" : "track",
      "uri" : "spotify:track:54n4U0xTnufM4L1aduEQHp"
    }, {
      "album" : {
        "album_type" : "album",
        "artists" : [ {
          "external_urls" : {
            "spotify" : "https://open.spotify.com/artist/7rFVPfrASM9KOEeJBa4l0x"
          },
          "href" : "https://api.spotify.com/v1/artists/7rFVPfrASM9KOEeJBa4l0x",
          "id" : "7rFVPfrASM9KOEeJBa4l0x",
          "name" : "The Jackson Southernaires",
          "type" : "artist",
          "uri" : "spotify:artist:7rFVPfrASM9KOEeJBa4l0x"
        } ],
        "external_urls" : {
          "spotify" : "https://open.spotify.com/album/60KGwQ3pPvRydq8LPUzEfQ"
        },
        "href" : "https://api.spotify.com/v1/albums/60KGwQ3pPvRydq8LPUzEfQ",
        "id" : "60KGwQ3pPvRydq8LPUzEfQ",
        "images" : [ {
          "height" : 640,
          "url" : "https://i.scdn.co/image/ab67616d0000b273a5d5f6d8750dcc9a2fdf2c4e",
          "width" : 640
        }, {
          "height" : 300,
          "url" : "https://i.scdn.co/image/ab67616d00001e02a5d5f6d8750dcc9a2fdf2c4e",
          "width" : 300
        }, {
          "height" : 64,
          "url" : "https://i.scdn.co/image/ab67616d00004851a5d5f6d8750dcc9a2fdf2c4e",
          "width" : 64
        } ],
        "name" : "Hear Our Prayers O Lord",
        "release_date" : "1986-11-26",
        "release_date_precision" : "day",
        "total_tracks" : 10,
        "type" : "album",
        "uri" : "spotify:album:60KGwQ3pPvRydq8LPUzEfQ"
      },
      "artists" : [ {
        "external_urls" : {
          "spotify" : "https://open.spotify.com/artist/7rFVPfrASM9KOEeJBa4l0x"
        },
        "href" : "https://api.spotify.com/v1/artists/7rFVPfrASM9KOEeJBa4l0x",
        "id" : "7rFVPfrASM9KOEeJBa4l0x",
        "name" : "The Jackson Southernaires",
        "type" : "artist",
        "uri" : "spotify:artist:7rFVPfrASM9KOEeJBa4l0x"
      } ],
      "disc_number" : 1,
      "duration_ms" : 373240,
      "explicit" : false,
      "external_ids" : {
        "isrc" : "USMR50440227"
      },
      "external_urls" : {
        "spotify" : "https://open.spotify.com/track/4gGkF3xVORiD9rjz3VCT0t"
      },
      "href" : "https://api.spotify.com/v1/tracks/4gGkF3xVORiD9rjz3VCT0t",
      "id" : "4gGkF3xVORiD9rjz3VCT0t",
      "is_local" : false,
      "is_playable" : true,
      "name" : "Rise Up",
      "popularity" : 4,
      "preview_url" : "https://p.scdn.co/mp3-preview/6625cc904d6687cdc6c317dbacd6d771cc34cf91?cid=774b29d4f13844c495f206cafdad9c86",
      "track_number" : 5,
      "type" : "track",
      "uri" : "spotify:track:4gGkF3xVORiD9rjz3VCT0t"
    }, {
      "album" : {
        "album_type" : "album",
        "artists" : [ {
          "external_urls" : {
            "spotify" : "https://open.spotify.com/artist/7rFVPfrASM9KOEeJBa4l0x"
          },
          "href" : "https://api.spotify.com/v1/artists/7rFVPfrASM9KOEeJBa4l0x",
          "id" : "7rFVPfrASM9KOEeJBa4l0x",
          "name" : "The Jackson Southernaires",
          "type" : "artist",
          "uri" : "spotify:artist:7rFVPfrASM9KOEeJBa4l0x"
        } ],
        "external_urls" : {
          "spotify" : "https://open.spotify.com/album/60KGwQ3pPvRydq8LPUzEfQ"
        },
        "href" : "https://api.spotify.com/v1/albums/60KGwQ3pPvRydq8LPUzEfQ",
        "id" : "60KGwQ3pPvRydq8LPUzEfQ",
        "images" : [ {
          "height" : 640,
          "url" : "https://i.scdn.co/image/ab67616d0000b273a5d5f6d8750dcc9a2fdf2c4e",
          "width" : 640
        }, {
          "height" : 300,
          "url" : "https://i.scdn.co/image/ab67616d00001e02a5d5f6d8750dcc9a2fdf2c4e",
          "width" : 300
        }, {
          "height" : 64,
          "url" : "https://i.scdn.co/image/ab67616d00004851a5d5f6d8750dcc9a2fdf2c4e",
          "width" : 64
        } ],
        "name" : "Hear Our Prayers O Lord",
        "release_date" : "1986-11-26",
        "release_date_precision" : "day",
        "total_tracks" : 10,
        "type" : "album",
        "uri" : "spotify:album:60KGwQ3pPvRydq8LPUzEfQ"
      },
      "artists" : [ {
        "external_urls" : {
          "spotify" : "https://open.spotify.com/artist/7rFVPfrASM9KOEeJBa4l0x"
        },
        "href" : "https://api.spotify.com/v1/artists/7rFVPfrASM9KOEeJBa4l0x",
        "id" : "7rFVPfrASM9KOEeJBa4l0x",
        "name" : "The Jackson Southernaires",
        "type" : "artist",
        "uri" : "spotify:artist:7rFVPfrASM9KOEeJBa4l0x"
      } ],
      "disc_number" : 1,
      "duration_ms" : 212400,
      "explicit" : false,
      "external_ids" : {
        "isrc" : "USMR50440230"
      },
      "external_urls" : {
        "spotify" : "https://open.spotify.com/track/7uBWZGvu9Mlu7ayXFNNIYq"
      },
      "href" : "https://api.spotify.com/v1/tracks/7uBWZGvu9Mlu7ayXFNNIYq",
      "id" : "7uBWZGvu9Mlu7ayXFNNIYq",
      "is_local" : false,
      "is_playable" : true,
      "name" : "Leave You In the Hands",
      "popularity" : 4,
      "preview_url" : "https://p.scdn.co/mp3-preview/456ff4309e65f58d578a907c57aba6cc5801af0f?cid=774b29d4f13844c495f206cafdad9c86",
      "track_number" : 8,
      "type" : "track",
      "uri" : "spotify:track:7uBWZGvu9Mlu7ayXFNNIYq"
    }, {
      "album" : {
        "album_type" : "album",
        "artists" : [ {
          "external_urls" : {
            "spotify" : "https://open.spotify.com/artist/7rFVPfrASM9KOEeJBa4l0x"
          },
          "href" : "https://api.spotify.com/v1/artists/7rFVPfrASM9KOEeJBa4l0x",
          "id" : "7rFVPfrASM9KOEeJBa4l0x",
          "name" : "The Jackson Southernaires",
          "type" : "artist",
          "uri" : "spotify:artist:7rFVPfrASM9KOEeJBa4l0x"
        } ],
        "external_urls" : {
          "spotify" : "https://open.spotify.com/album/60KGwQ3pPvRydq8LPUzEfQ"
        },
        "href" : "https://api.spotify.com/v1/albums/60KGwQ3pPvRydq8LPUzEfQ",
        "id" : "60KGwQ3pPvRydq8LPUzEfQ",
        "images" : [ {
          "height" : 640,
          "url" : "https://i.scdn.co/image/ab67616d0000b273a5d5f6d8750dcc9a2fdf2c4e",
          "width" : 640
        }, {
          "height" : 300,
          "url" : "https://i.scdn.co/image/ab67616d00001e02a5d5f6d8750dcc9a2fdf2c4e",
          "width" : 300
        }, {
          "height" : 64,
          "url" : "https://i.scdn.co/image/ab67616d00004851a5d5f6d8750dcc9a2fdf2c4e",
          "width" : 64
        } ],
        "name" : "Hear Our Prayers O Lord",
        "release_date" : "1986-11-26",
        "release_date_precision" : "day",
        "total_tracks" : 10,
        "type" : "album",
        "uri" : "spotify:album:60KGwQ3pPvRydq8LPUzEfQ"
      },
      "artists" : [ {
        "external_urls" : {
          "spotify" : "https://open.spotify.com/artist/7rFVPfrASM9KOEeJBa4l0x"
        },
        "href" : "https://api.spotify.com/v1/artists/7rFVPfrASM9KOEeJBa4l0x",
        "id" : "7rFVPfrASM9KOEeJBa4l0x",
        "name" : "The Jackson Southernaires",
        "type" : "artist",
        "uri" : "spotify:artist:7rFVPfrASM9KOEeJBa4l0x"
      } ],
      "disc_number" : 1,
      "duration_ms" : 235360,
      "explicit" : false,
      "external_ids" : {
        "isrc" : "USMR50440225"
      },
      "external_urls" : {
        "spotify" : "https://open.spotify.com/track/3dOzDpxKkkv66MEhQqAkhy"
      },
      "href" : "https://api.spotify.com/v1/tracks/3dOzDpxKkkv66MEhQqAkhy",
      "id" : "3dOzDpxKkkv66MEhQqAkhy",
      "is_local" : false,
      "is_playable" : true,
      "name" : "Lift Jesus Up",
      "popularity" : 4,
      "preview_url" : "https://p.scdn.co/mp3-preview/42c2f04bd5d258235a96c17e280499487276729c?cid=774b29d4f13844c495f206cafdad9c86",
      "track_number" : 3,
      "type" : "track",
      "uri" : "spotify:track:3dOzDpxKkkv66MEhQqAkhy"
    }, {
      "album" : {
        "album_type" : "album",
        "artists" : [ {
          "external_urls" : {
            "spotify" : "https://open.spotify.com/artist/0Frsbmjf23s0qHQ0BcT9g6"
          },
          "href" : "https://api.spotify.com/v1/artists/0Frsbmjf23s0qHQ0BcT9g6",
          "id" : "0Frsbmjf23s0qHQ0BcT9g6",
          "name" : "Cynthia Clawson",
          "type" : "artist",
          "uri" : "spotify:artist:0Frsbmjf23s0qHQ0BcT9g6"
        } ],
        "external_urls" : {
          "spotify" : "https://open.spotify.com/album/4dS0zuYnOXbMgzCMzeyAzm"
        },
        "href" : "https://api.spotify.com/v1/albums/4dS0zuYnOXbMgzCMzeyAzm",
        "id" : "4dS0zuYnOXbMgzCMzeyAzm",
        "images" : [ {
          "height" : 640,
          "url" : "https://i.scdn.co/image/ab67616d0000b273ef4fb76d1fd308c16b588660",
          "width" : 640
        }, {
          "height" : 300,
          "url" : "https://i.scdn.co/image/ab67616d00001e02ef4fb76d1fd308c16b588660",
          "width" : 300
        }, {
          "height" : 64,
          "url" : "https://i.scdn.co/image/ab67616d00004851ef4fb76d1fd308c16b588660",
          "width" : 64
        } ],
        "name" : "Prayer And Plainsong",
        "release_date" : "2010-10-12",
        "release_date_precision" : "day",
        "total_tracks" : 17,
        "type" : "album",
        "uri" : "spotify:album:4dS0zuYnOXbMgzCMzeyAzm"
      },
      "artists" : [ {
        "external_urls" : {
          "spotify" : "https://open.spotify.com/artist/0Frsbmjf23s0qHQ0BcT9g6"
        },
        "href" : "https://api.spotify.com/v1/artists/0Frsbmjf23s0qHQ0BcT9g6",
        "id" : "0Frsbmjf23s0qHQ0BcT9g6",
        "name" : "Cynthia Clawson",
        "type" : "artist",
        "uri" : "spotify:artist:0Frsbmjf23s0qHQ0BcT9g6"
      } ],
      "disc_number" : 1,
      "duration_ms" : 90973,
      "explicit" : false,
      "external_ids" : {
        "isrc" : "ushm91032441"
      },
      "external_urls" : {
        "spotify" : "https://open.spotify.com/track/3WhbQe1C0aFr3Ci5LIZAD6"
      },
      "href" : "https://api.spotify.com/v1/tracks/3WhbQe1C0aFr3Ci5LIZAD6",
      "id" : "3WhbQe1C0aFr3Ci5LIZAD6",
      "is_local" : false,
      "is_playable" : true,
      "name" : "Hear Our Prayer O Lord",
      "popularity" : 4,
      "preview_url" : "https://p.scdn.co/mp3-preview/c961a29e8c8504e890ad7a8e52d7b8ccba4a7cb5?cid=774b29d4f13844c495f206cafdad9c86",
      "track_number" : 17,
      "type" : "track",
      "uri" : "spotify:track:3WhbQe1C0aFr3Ci5LIZAD6"
    }, {
      "album" : {
        "album_type" : "album",
        "artists" : [ {
          "external_urls" : {
            "spotify" : "https://open.spotify.com/artist/4wsTMvkVb64q3oIV7omVFv"
          },
          "href" : "https://api.spotify.com/v1/artists/4wsTMvkVb64q3oIV7omVFv",
          "id" : "4wsTMvkVb64q3oIV7omVFv",
          "name" : "The Coventry Singers",
          "type" : "artist",
          "uri" : "spotify:artist:4wsTMvkVb64q3oIV7omVFv"
        } ],
        "external_urls" : {
          "spotify" : "https://open.spotify.com/album/2V1x4UGPTi0GLUxkJHMcXe"
        },
        "href" : "https://api.spotify.com/v1/albums/2V1x4UGPTi0GLUxkJHMcXe",
        "id" : "2V1x4UGPTi0GLUxkJHMcXe",
        "images" : [ {
          "height" : 640,
          "url" : "https://i.scdn.co/image/ab67616d0000b2734e210f570979c0b55041ea58",
          "width" : 640
        }, {
          "height" : 300,
          "url" : "https://i.scdn.co/image/ab67616d00001e024e210f570979c0b55041ea58",
          "width" : 300
        }, {
          "height" : 64,
          "url" : "https://i.scdn.co/image/ab67616d000048514e210f570979c0b55041ea58",
          "width" : 64
        } ],
        "name" : "Songs Of Taizé - Jesu Redemptor (Jesus, Redeemer)",
        "release_date" : "2009-04-06",
        "release_date_precision" : "day",
        "total_tracks" : 25,
        "type" : "album",
        "uri" : "spotify:album:2V1x4UGPTi0GLUxkJHMcXe"
      },
      "artists" : [ {
        "external_urls" : {
          "spotify" : "https://open.spotify.com/artist/4wsTMvkVb64q3oIV7omVFv"
        },
        "href" : "https://api.spotify.com/v1/artists/4wsTMvkVb64q3oIV7omVFv",
        "id" : "4wsTMvkVb64q3oIV7omVFv",
        "name" : "The Coventry Singers",
        "type" : "artist",
        "uri" : "spotify:artist:4wsTMvkVb64q3oIV7omVFv"
      } ],
      "disc_number" : 1,
      "duration_ms" : 90613,
      "explicit" : false,
      "external_ids" : {
        "isrc" : "GBBTM0993414"
      },
      "external_urls" : {
        "spotify" : "https://open.spotify.com/track/3zwHk4QUTYei9vK3AZ29lB"
      },
      "href" : "https://api.spotify.com/v1/tracks/3zwHk4QUTYei9vK3AZ29lB",
      "id" : "3zwHk4QUTYei9vK3AZ29lB",
      "is_local" : false,
      "is_playable" : true,
      "name" : "Exaudi Nos (Lord, Hear Our Prayer)",
      "popularity" : 3,
      "preview_url" : "https://p.scdn.co/mp3-preview/13600e0bd068904b11f68e44c7bda7eb47f1d08b?cid=774b29d4f13844c495f206cafdad9c86",
      "track_number" : 14,
      "type" : "track",
      "uri" : "spotify:track:3zwHk4QUTYei9vK3AZ29lB"
    } ],
    "limit" : 10,
    "next" : "https://api.spotify.com/v1/search?query=Hear+Our+Prayer%2C+O+Lord&type=track&market=US&offset=15&limit=10",
    "offset" : 5,
    "previous" : "https://api.spotify.com/v1/search?query=Hear+Our+Prayer%2C+O+Lord&type=track&market=US&offset=0&limit=10",
    "total" : 86
  }
}