{
  "tracks" : {
    "href" : "https://api.spotify.com/v1/search?query=When+He+Comes&type=track&market=US&offset=5&limit=10",
    "items" : [ {
      "album" : {
        "album_type" : "album",
        "artists" : [ {
          "external_urls" : {
            "spotify" : "https://open.spotify.com/artist/3huVQoEWdqUTvlYpFVUHcF"
          },
          "href" : "https://api.spotify.com/v1/artists/3huVQoEWdqUTvlYpFVUHcF",
          "id" : "3huVQoEWdqUTvlYpFVUHcF",
          "name" : "Original Soundtrack",
          "type" : "artist",
          "uri" : "spotify:artist:3huVQoEWdqUTvlYpFVUHcF"
        } ],
        "external_urls" : {
          "spotify" : "https://open.spotify.com/album/3o3sdQI1IpibBqoBIWyBnF"
        },
        "href" : "https://api.spotify.com/v1/albums/3o3sdQI1IpibBqoBIWyBnF",
        "id" : "3o3sdQI1IpibBqoBIWyBnF",
        "images" : [ {
          "height" : 640,
          "url" : "https://i.scdn.co/image/ab67616d0000b27387d37d51ed64878054f6dfcd",
          "width" : 640
        }, {
          "height" : 300,
          "url" : "https://i.scdn.co/image/ab67616d00001e0287d37d51ed64878054f6dfcd",
          "width" : 300
        }, {
          "height" : 64,
          "url" : "https://i.scdn.co/image/ab67616d0000485187d37d51ed64878054f6dfcd",
          "width" : 64
        } ],
        "name" : "Road House",
        "release_date" : "1989-06-16",
        "release_date_precision" : "day",
        "total_tracks" : 10,
        "type" : "album",
        "uri" : "spotify:album:3o3sdQI1IpibBqoBIWyBnF"
      },
      "artists" : [ {
        "external_urls" : {
          "spotify" : "https://open.spotify.com/artist/3d2hJTVTwo08F9b0ZFQukJ"
        },
        "href" : "https://api.spotify.com/v1/artists/3d2hJTVTwo08F9b0ZFQukJ",
        "id" : "3d2hJTVTwo08F9b0ZFQukJ",
        "name" : "The Jeff Healey Band",
        "type" : "artist",
        "uri" : "spotify:artist:3d2hJTVTwo08F9b0ZFQukJ"
      } ],
      "disc_number" : 1,
      "duration_ms" : 293693,
      "explicit" : false,
      "external_ids" : {
        "isrc" : "USAR18900181"
      },
      "external_urls" : {
        "spotify" : "https://open.spotify.com/track/0hbVxUVb1APB9ESQzXXhFK"
      },
      "href" : "https://api.spotify.com/v1/tracks/0hbVxUVb1APB9ESQzXXhFK",
      "id" : "0hbVxUVb1APB9ESQzXXhFK",
      "is_local" : false,
      "is_playable" : true,
      "name" : "When The Night Comes Falling From The Sky",
      "popularity" : 41,
      "preview_url" : "https://p.scdn.co/mp3-preview/7e5500c747dad76c6c7db1d90f8224f98ad3be71?cid=774b29d4f13844c495f206cafdad9c86",
      "track_number" : 5,
      "type" : "track",
      "uri" : "spotify:track:0hbVxUVb1APB9ESQzXXhFK"
    }, {
      "album" : {
        "album_type" : "compilation",
        "artists" : [ {
          "external_urls" : {
            "spotify" : "https://open.spotify.com/artist/0LyfQWJT6nXafLPZqxe9Of"
          },
          "href" : "https://api.spotify.com/v1/artists/0LyfQWJT6nXafLPZqxe9Of",
          "id" : "0LyfQWJT6nXafLPZqxe9Of",
          "name" : "Various Artists",
          "type" : "artist",
          "uri" : "spotify:artist:0LyfQWJT6nXafLPZqxe9Of"
        } ],
        "external_urls" : {
          "spotify" : "https://open.spotify.com/album/46paHZ8Md6AICwfjybLjOM"
        },
        "href" : "https://api.spotify.com/v1/albums/46paHZ8Md6AICwfjybLjOM",
        "id" : "46paHZ8Md6AICwfjybLjOM",
        "images" : [ {
          "height" : 640,
          "url" : "https://i.scdn.co/image/ab67616d0000b2733d2fd951c4cb4a33358f7159",
          "width" : 640
        }, {
          "height" : 300,
          "url" : "https://i.scdn.co/image/ab67616d00001e023d2fd951c4cb4a33358f7159",
          "width" : 300
        }, {
          "height" : 64,
          "url" : "https://i.scdn.co/image/ab67616d000048513d2fd951c4cb4a33358f7159",
          "width" : 64
        } ],
        "name" : "Crash Landing on You (Original Television Soundtrack)",
        "release_date" : "2020-02-16",
        "release_date_precision" : "day",
        "total_tracks" : 28,
        "type" : "album",
        "uri" : "spotify:album:46paHZ8Md6AICwfjybLjOM"
      },
      "artists" : [ {
        "external_urls" : {
          "spotify" : "https://open.spotify.com/artist/1vOJqsD0H57xUKg9IcknD9"
        },
        "href" : "https://api.spotify.com/v1/artists/1vOJqsD0H57xUKg9IcknD9",
        "id" : "1vOJqsD0H57xUKg9IcknD9",
        "name" : "Nam Hye Seung",
        "type" : "artist",
        "uri" : "spotify:artist:1vOJqsD0H57xUKg9IcknD9"
      }, {
        "external_urls" : {
          "spotify" : "https://open.spotify.com/artist/1icVxSPmme4DhN7q0HTM5p"
        },
        "href" : "https://api.spotify.com/v1/artists/1icVxSPmme4DhN7q0HTM5p",
        "id" : "1icVxSPmme4DhN7q0HTM5p",
        "name" : "Park Sang Hee",
        "type" : "artist",
        "uri" : "spotify:artist:1icVxSPmme4DhN7q0HTM5p"
      } ],
      "disc_number" : 2,
      "duration_ms" : 262173,
      "explicit" : false,
      "external_ids" : {
        "isrc" : "KRA492000152"
      },
      "external_urls" : {
        "spotify" : "https://open.spotify.com/track/4Sto9AGhEw5BLMphNtX1Ry"
      },
      "href" : "https://api.spotify.com/v1/tracks/4Sto9AGhEw5BLMphNtX1Ry",
      "id" : "4Sto9AGhEw5BLMphNtX1Ry",
      "is_local" : false,
      "is_playable" : true,
      "name" : "When That Day Comes",
      "popularity" : 43,
      "preview_url" : "https://p.scdn.co/mp3-preview/c5e03531694d1705c2720ec2cc5f2ec3a867307b?cid=774b29d4f13844c495f206cafdad9c86",
      "track_number" : 13,
      "type" : "track",
      "uri" : "spotify:track:4Sto9AGhEw5BLMphNtX1Ry"
    }, {
      "album" : {
        "album_type" : "album",
        "artists" : [ {
          "external_urls" : {
            "spotify" : "https://open.spotify.com/artist/3vAaWhdBR38Q02ohXqaNHT"
          },
          "href" : "https://api.spotify.com/v1/artists/3vAaWhdBR38Q02ohXqaNHT",
          "id" : "3vAaWhdBR38Q02ohXqaNHT",
          "name" : "The All-American Rejects",
          "type" : "artist",
          "uri" : "spotify:artist:3vAaWhdBR38Q02ohXqaNHT"
        } ],
        "external_urls" : {
          "spotify" : "https://open.spotify.com/album/3BCMpDOcQlbCZpf5vnTadZ"
        },
        "href" : "https://api.spotify.com/v1/albums/3BCMpDOcQlbCZpf5vnTadZ",
        "id" : "3BCMpDOcQlbCZpf5vnTadZ",
        "images" : [ {
          "height" : 640,
          "url" : "https://i.scdn.co/image/ab67616d0000b2738f6b4035c82eb9cf42e9d8d7",
          "width" : 640
        }, {
          "height" : 300,
          "url" : "https://i.scdn.co/image/ab67616d00001e028f6b4035c82eb9cf42e9d8d7",
          "width" : 300
        }, {
          "height" : 64,
          "url" : "https://i.scdn.co/image/ab67616d000048518f6b4035c82eb9cf42e9d8d7",
          "width" : 64
        } ],
        "name" : "When The World Comes Down",
        "release_date" : "2008-01-01",
        "release_date_precision" : "day",
        "total_tracks" : 17,
        "type" : "album",
        "uri" : "spotify:album:3BCMpDOcQlbCZpf5vnTadZ"
      },
      "artists" : [ {
        "external_urls" : {
          "spotify" : "https://open.spotify.com/artist/3vAaWhdBR38Q02ohXqaNHT"
        },
        "href" : "https://api.spotify.com/v1/artists/3vAaWhdBR38Q02ohXqaNHT",
        "id" : "3vAaWhdBR38Q02ohXqaNHT",
        "name" : "The All-American Rejects",
        "type" : "artist",
        "uri" : "spotify:artist:3vAaWhdBR38Q02ohXqaNHT"
      } ],
      "disc_number" : 1,
      "duration_ms" : 247680,
      "explicit" : false,
      "external_ids" : {
        "isrc" : "USUM70843646"
      },
      "external_urls" : {
        "spotify" : "https://open.spotify.com/track/7KCbdQQ7td5imNovgOXJDg"
      },
      "href" : "https://api.spotify.com/v1/tracks/7KCbdQQ7td5imNovgOXJDg",
      "id" : "7KCbdQQ7td5imNovgOXJDg",
      "is_local" : false,
      "is_playable" : true,
      "name" : "Another Heart Calls",
      "popularity" : 35,
      "preview_url" : null,
      "track_number" : 7,
      "type" : "track",
      "uri" : "spotify:track:7KCbdQQ7td5imNovgOXJDg"
    }, {
      "album" : {
        "album_type" : "album",
        "artists" : [ {
          "external_urls" : {
            "spotify" : "https://open.spotify.com/artist/09hNSPPOxDop4FRdr6UEnq"
          },
          "href" : "https://api.spotify.com/v1/artists/09hNSPPOxDop4FRdr6UEnq",
          "id" : "09hNSPPOxDop4FRdr6UEnq",
          "name" : "Dokken",
          "type" : "artist",
          "uri" : "spotify:artist:09hNSPPOxDop4FRdr6UEnq"
        } ],
        "external_urls" : {
          "spotify" : "https://open.spotify.com/album/0opFMR8DprHzu1nPHhoHuL"
        },
        "href" : "https://api.spotify.com/v1/albums/0opFMR8DprHzu1nPHhoHuL",
        "id" : "0opFMR8DprHzu1nPHhoHuL",
        "images" : [ {
          "height" : 640,
          "url" : "https://i.scdn.co/image/ab67616d0000b27348df556723c7b490e04b419f",
          "width" : 640
        }, {
          "height" : 300,
          "url" : "https://i.scdn.co/image/ab67616d00001e0248df556723c7b490e04b419f",
          "width" : 300
        }, {
          "height" : 64,
          "url" : "https://i.scdn.co/image/ab67616d0000485148df556723c7b490e04b419f",
          "width" : 64
        } ],
        "name" : "Tooth And Nail",
        "release_date" : "1984-09-11",
        "release_date_precision" : "day",
        "total_tracks" : 10,
        "type" : "album",
        "uri" : "spotify:album:0opFMR8DprHzu1nPHhoHuL"
      },
      "artists" : [ {
        "external_urls" : {
          "spotify" : "https://open.spotify.com/artist/09hNSPPOxDop4FRdr6UEnq"
        },
        "href" : "https://api.spotify.com/v1/artists/09hNSPPOxDop4FRdr6UEnq",
        "id" : "09hNSPPOxDop4FRdr6UEnq",
        "name" : "Dokken",
        "type" : "artist",
        "uri" : "spotify:artist:09hNSPPOxDop4FRdr6UEnq"
      } ],
      "disc_number" : 1,
      "duration_ms" : 224400,
      "explicit" : false,
      "external_ids" : {
        "isrc" : "USEE19901152"
      },
      "external_urls" : {
        "spotify" : "https://open.spotify.com/track/1OmfNnKAYJ0tPZ5ngfC1ai"
      },
      "href" : "https://api.spotify.com/v1/tracks/1OmfNnKAYJ0tPZ5ngfC1ai",
      "id" : "1OmfNnKAYJ0tPZ5ngfC1ai",
      "is_local" : false,
      "is_playable" : true,
      "name" : "When Heaven Comes Down",
      "popularity" : 32,
      "preview_url" : "https://p.scdn.co/mp3-preview/cbf87263951dbf7858bc852bd475606a2b31311a?cid=774b29d4f13844c495f206cafdad9c86",
      "track_number" : 6,
      "type" : "track",
      "uri" : "spotify:track:1OmfNnKAYJ0tPZ5ngfC1ai"
    }, {
      "album" : {
        "album_type" : "album",
        "artists" : [ {
          "external_urls" : {
            "spotify" : "https://open.spotify.com/artist/0GiC21e7l4XAl7IqGflein"
          },
          "href" : "https://api.spotify.com/v1/artists/0GiC21e7l4XAl7IqGflein",
          "id" : "0GiC21e7l4XAl7IqGflein",
          "name" : "Taranda Greene",
          "type" : "artist",
          "uri" : "spotify:artist:0GiC21e7l4XAl7IqGflein"
        } ],
        "external_urls" : {
          "spotify" : "https://open.spotify.com/album/2t7Yi0Sq1VaSszju7j1jhF"
        },
        "href" : "https://api.spotify.com/v1/albums/2t7Yi0Sq1VaSszju7j1jhF",
        "id" : "2t7Yi0Sq1VaSszju7j1jhF",
        "images" : [ {
          "height" : 640,
          "url" : "https://i.scdn.co/image/ab67616d0000b2736fbb726e7fbbc169a674d7dc",
          "width" : 640
        }, {
          "height" : 300,
          "url" : "https://i.scdn.co/image/ab67616d00001e026fbb726e7fbbc169a674d7dc",
          "width" : 300
        }, {
          "height" : 64,
          "url" : "https://i.scdn.co/image/ab67616d000048516fbb726e7fbbc169a674d7dc",
          "width" : 64
        } ],
        "name" : "The Healing",
        "release_date" : "2018-08-10",
        "release_date_precision" : "day",
        "total_tracks" : 10,
        "type" : "album",
        "uri" : "spotify:album:2t7Yi0Sq1VaSszju7j1jhF"
      },
      "artists" : [ {
        "external_urls" : {
          "spotify" : "https://open.spotify.com/artist/0GiC21e7l4XAl7IqGflein"
        },
        "href" : "https://api.spotify.com/v1/artists/0GiC21e7l4XAl7IqGflein",
        "id" : "0GiC21e7l4XAl7IqGflein",
        "name" : "Taranda Greene",
        "type" : "artist",
        "uri" : "spotify:artist:0GiC21e7l4XAl7IqGflein"
      } ],
      "disc_number" : 1,
      "duration_ms" : 321826,
      "explicit" : false,
      "external_ids" : {
        "isrc" : "USC5G1800049"
      },
      "external_urls" : {
        "spotify" : "https://open.spotify.com/track/1RFzOx3RhYH3kZfuWfnDVF"
      },
      "href" : "https://api.spotify.com/v1/tracks/1RFzOx3RhYH3kZfuWfnDVF",
      "id" : "1RFzOx3RhYH3kZfuWfnDVF",
      "is_local" : false,
      "is_playable" : true,
      "name" : "When the Healing Comes",
      "popularity" : 30,
      "preview_url" : "https://p.scdn.co/mp3-preview/c2c33f50ed33948da7d280290ec1609c56a91132?cid=774b29d4f13844c495f206cafdad9c86",
      "track_number" : 2,
      "type" : "track",
      "uri" : "spotify:track:1RFzOx3RhYH3kZfuWfnDVF"
    }, {
      "album" : {
        "album_type" : "album",
        "artists" : [ {
          "external_urls" : {
            "spotify" : "https://open.spotify.com/artist/3vAaWhdBR38Q02ohXqaNHT"
          },
          "href" : "https://api.spotify.com/v1/artists/3vAaWhdBR38Q02ohXqaNHT",
          "id" : "3vAaWhdBR38Q02ohXqaNHT",
          "name" : "The All-American Rejects",
          "type" : "artist",
          "uri" : "spotify:artist:3vAaWhdBR38Q02ohXqaNHT"
        } ],
        "external_urls" : {
          "spotify" : "https://open.spotify.com/album/5doKZJ05r4UbAp9rmpDRDD"
        },
        "href" : "https://api.spotify.com/v1/albums/5doKZJ05r4UbAp9rmpDRDD",
        "id" : "5doKZJ05r4UbAp9rmpDRDD",
        "images" : [ {
          "height" : 640,
          "url" : "https://i.scdn.co/image/ab67616d0000b2733ebbaf69ee21176cc04c9182",
          "width" : 640
        }, {
          "height" : 300,
          "url" : "https://i.scdn.co/image/ab67616d00001e023ebbaf69ee21176cc04c9182",
          "width" : 300
        }, {
          "height" : 64,
          "url" : "https://i.scdn.co/image/ab67616d000048513ebbaf69ee21176cc04c9182",
          "width" : 64
        } ],
        "name" : "When The World Comes Down",
        "release_date" : "2008-01-01",
        "release_date_precision" : "day",
        "total_tracks" : 12,
        "type" : "album",
        "uri" : "spotify:album:5doKZJ05r4UbAp9rmpDRDD"
      },
      "artists" : [ {
        "external_urls" : {
          "spotify" : "https://open.spotify.com/artist/3vAaWhdBR38Q02ohXqaNHT"
        },
        "href" : "https://api.spotify.com/v1/artists/3vAaWhdBR38Q02ohXqaNHT",
        "id" : "3vAaWhdBR38Q02ohXqaNHT",
        "name" : "The All-American Rejects",
        "type" : "artist",
        "uri" : "spotify:artist:3vAaWhdBR38Q02ohXqaNHT"
      } ],
      "disc_number" : 1,
      "duration_ms" : 247680,
      "explicit" : false,
      "external_ids" : {
        "isrc" : "USUM70843646"
      },
      "external_urls" : {
        "spotify" : "https://open.spotify.com/track/4tSosviBmRsGpJRqKFDlTs"
      },
      "href" : "https://api.spotify.com/v1/tracks/4tSosviBmRsGpJRqKFDlTs",
      "id" : "4tSosviBmRsGpJRqKFDlTs",
      "is_local" : false,
      "is_playable" : true,
      "name" : "Another Heart Calls",
      "popularity" : 38,
      "preview_url" : null,
      "track_number" : 7,
      "type" : "track",
      "uri" : "spotify:track:4tSosviBmRsGpJRqKFDlTs"
    }, {
      "album" : {
        "album_type" : "album",
        "artists" : [ {
          "external_urls" : {
            "spotify" : "https://open.spotify.com/artist/126FigDBtqwS2YsOYMTPQe"
          },
          "href" : "https://api.spotify.com/v1/artists/126FigDBtqwS2YsOYMTPQe",
          "id" : "126FigDBtqwS2YsOYMTPQe",
          "name" : "Hawthorne Heights",
          "type" : "artist",
          "uri" : "spotify:artist:126FigDBtqwS2YsOYMTPQe"
        } ],
        "external_urls" : {
          "spotify" : "https://open.spotify.com/album/0gW6tFVZYm3OFNBsPMRfYa"
        },
        "href" : "https://api.spotify.com/v1/albums/0gW6tFVZYm3OFNBsPMRfYa",
        "id" : "0gW6tFVZYm3OFNBsPMRfYa",
        "images" : [ {
          "height" : 640,
          "url" : "https://i.scdn.co/image/ab67616d0000b273e01a396c245c4db57f1e9b61",
          "width" : 640
        }, {
          "height" : 300,
          "url" : "https://i.scdn.co/image/ab67616d00001e02e01a396c245c4db57f1e9b61",
          "width" : 300
        }, {
          "height" : 64,
          "url" : "https://i.scdn.co/image/ab67616d00004851e01a396c245c4db57f1e9b61",
          "width" : 64
        } ],
        "name" : "Lost Frequencies",
        "release_date" : "2019-11-08",
        "release_date_precision" : "day",
        "total_tracks" : 13,
        "type" : "album",
        "uri" : "spotify:album:0gW6tFVZYm3OFNBsPMRfYa"
      },
      "artists" : [ {
        "external_urls" : {
          "spotify" : "https://open.spotify.com/artist/126FigDBtqwS2YsOYMTPQe"
        },
        "href" : "https://api.spotify.com/v1/artists/126FigDBtqwS2YsOYMTPQe",
        "id" : "126FigDBtqwS2YsOYMTPQe",
        "name" : "Hawthorne Heights",
        "type" : "artist",
        "uri" : "spotify:artist:126FigDBtqwS2YsOYMTPQe"
      } ],
      "disc_number" : 1,
      "duration_ms" : 251007,
      "explicit" : false,
      "external_ids" : {
        "isrc" : "USSTT1900137"
      },
      "external_urls" : {
        "spotify" : "https://open.spotify.com/track/41phs7pUPKCdPvpMBGMQJI"
      },
      "href" : "https://api.spotify.com/v1/tracks/41phs7pUPKCdPvpMBGMQJI",
      "id" : "41phs7pUPKCdPvpMBGMQJI",
      "is_local" : false,
      "is_playable" : true,
      "name" : "When Darkness Comes to Light",
      "popularity" : 26,
      "preview_url" : "https://p.scdn.co/mp3-preview/589713e78ccac453b7b8139ebb2746bf060c607d?cid=774b29d4f13844c495f206cafdad9c86",
      "track_number" : 3,
      "type" : "track",
      "uri" : "spotify:track:41phs7pUPKCdPvpMBGMQJI"
    }, {
      "album" : {
        "album_type" : "album",
        "artists" : [ {
          "external_urls" : {
            "spotify" : "https://open.spotify.com/artist/4tX2TplrkIP4v05BNC903e"
          },
          "href" : "https://api.spotify.com/v1/artists/4tX2TplrkIP4v05BNC903e",
          "id" : "4tX2TplrkIP4v05BNC903e",
          "name" : "Tom Petty and the Heartbreakers",
          "type" : "artist",
          "uri" : "spotify:artist:4tX2TplrkIP4v05BNC903e"
        } ],
        "external_urls" : {
          "spotify" : "https://open.spotify.com/album/5hULIIwBVNm3cinAAFmv1P"
        },
        "href" : "https://api.spotify.com/v1/albums/5hULIIwBVNm3cinAAFmv1P",
        "id" : "5hULIIwBVNm3cinAAFmv1P",
        "images" : [ {
          "height" : 640,
          "url" : "https://i.scdn.co/image/ab67616d0000b273542cbb9bc4b310479020223f",
          "width" : 640
        }, {
          "height" : 300,
          "url" : "https://i.scdn.co/image/ab67616d00001e02542cbb9bc4b310479020223f",
          "width" : 300
        }, {
          "height" : 64,
          "url" : "https://i.scdn.co/image/ab67616d00004851542cbb9bc4b310479020223f",
          "width" : 64
        } ],
        "name" : "You're Gonna Get it",
        "release_date" : "1978-05-02",
        "release_date_precision" : "day",
        "total_tracks" : 10,
        "type" : "album",
        "uri" : "spotify:album:5hULIIwBVNm3cinAAFmv1P"
      },
      "artists" : [ {
        "external_urls" : {
          "spotify" : "https://open.spotify.com/artist/4tX2TplrkIP4v05BNC903e"
        },
        "href" : "https://api.spotify.com/v1/artists/4tX2TplrkIP4v05BNC903e",
        "id" : "4tX2TplrkIP4v05BNC903e",
        "name" : "Tom Petty and the Heartbreakers",
        "type" : "artist",
        "uri" : "spotify:artist:4tX2TplrkIP4v05BNC903e"
      } ],
      "disc_number" : 1,
      "duration_ms" : 167533,
      "explicit" : false,
      "external_ids" : {
        "isrc" : "USMC19545906"
      },
      "external_urls" : {
        "spotify" : "https://open.spotify.com/track/4g9nG6ZxG2l43uFrEoyuKn"
      },
      "href" : "https://api.spotify.com/v1/tracks/4g9nG6ZxG2l43uFrEoyuKn",
      "id" : "4g9nG6ZxG2l43uFrEoyuKn",
      "is_local" : false,
      "is_playable" : true,
      "name" : "When the Time Comes",
      "popularity" : 24,
      "preview_url" : "https://p.scdn.co/mp3-preview/fea8fa400bb3d1b2c7d97edfb079f0ea3c7e9a25?cid=774b29d4f13844c495f206cafdad9c86",
      "track_number" : 1,
      "type" : "track",
      "uri" : "spotify:track:4g9nG6ZxG2l43uFrEoyuKn"
    }, {
      "album" : {
        "album_type" : "album",
        "artists" : [ {
          "external_urls" : {
            "spotify" : "https://open.spotify.com/artist/4uSftVc3FPWe6RJuMZNEe9"
          },
          "href" : "https://api.spotify.com/v1/artists/4uSftVc3FPWe6RJuMZNEe9",
          "id" : "4uSftVc3FPWe6RJuMZNEe9",
          "name" : "Andrew Bird",
          "type" : "artist",
          "uri" : "spotify:artist:4uSftVc3FPWe6RJuMZNEe9"
        } ],
        "external_urls" : {
          "spotify" : "https://open.spotify.com/album/02DGJ0BtWIKmDmoHwCtCL4"
        },
        "href" : "https://api.spotify.com/v1/albums/02DGJ0BtWIKmDmoHwCtCL4",
        "id" : "02DGJ0BtWIKmDmoHwCtCL4",
        "images" : [ {
          "height" : 640,
          "url" : "https://i.scdn.co/image/ab67616d0000b273fd9fdb00b24d4edc1f584998",
          "width" : 640
        }, {
          "height" : 300,
          "url" : "https://i.scdn.co/image/ab67616d00001e02fd9fdb00b24d4edc1f584998",
          "width" : 300
        }, {
          "height" : 64,
          "url" : "https://i.scdn.co/image/ab67616d00004851fd9fdb00b24d4edc1f584998",
          "width" : 64
        } ],
        "name" : "Break It Yourself/Hands of Glory (Deluxe)",
        "release_date" : "2012-10-30",
        "release_date_precision" : "day",
        "total_tracks" : 22,
        "type" : "album",
        "uri" : "spotify:album:02DGJ0BtWIKmDmoHwCtCL4"
      },
      "artists" : [ {
        "external_urls" : {
          "spotify" : "https://open.spotify.com/artist/4uSftVc3FPWe6RJuMZNEe9"
        },
        "href" : "https://api.spotify.com/v1/artists/4uSftVc3FPWe6RJuMZNEe9",
        "id" : "4uSftVc3FPWe6RJuMZNEe9",
        "name" : "Andrew Bird",
        "type" : "artist",
        "uri" : "spotify:artist:4uSftVc3FPWe6RJuMZNEe9"
      } ],
      "disc_number" : 1,
      "duration_ms" : 173573,
      "explicit" : false,
      "external_ids" : {
        "isrc" : "USQE91200241"
      },
      "external_urls" : {
        "spotify" : "https://open.spotify.com/track/6w1HBxFNAPHpv5YXREpTky"
      },
      "href" : "https://api.spotify.com/v1/tracks/6w1HBxFNAPHpv5YXREpTky",
      "id" : "6w1HBxFNAPHpv5YXREpTky",
      "is_local" : false,
      "is_playable" : true,
      "name" : "When That Helicopter Comes",
      "popularity" : 19,
      "preview_url" : "https://p.scdn.co/mp3-preview/38848b8bf28a647892bc817e81670c21ff8a3a52?cid=774b29d4f13844c495f206cafdad9c86",
      "track_number" : 16,
      "type" : "track",
      "uri" : "spotify:track:6w1HBxFNAPHpv5YXREpTky"
    }, {
      "album" : {
        "album_type" : "album",
        "artists" : [ {
          "external_urls" : {
            "spotify" : "https://open.spotify.com/artist/4yyre4wV5as2rW3k0gekFA"
          },
          "href" : "https://api.spotify.com/v1/artists/4yyre4wV5as2rW3k0gekFA",
          "id" : "4yyre4wV5as2rW3k0gekFA",
          "name" : "SaQi",
          "type" : "artist",
          "uri" : "spotify:artist:4yyre4wV5as2rW3k0gekFA"
        } ],
        "external_urls" : {
          "spotify" : "https://open.spotify.com/album/1ZbS4j2xA8m0W0Q2lJuZgz"
        },
        "href" : "https://api.spotify.com/v1/albums/1ZbS4j2xA8m0W0Q2lJuZgz",
        "id" : "1ZbS4j2xA8m0W0Q2lJuZgz",
        "images" : [ {
          "height" : 640,
          "url" : "https://i.scdn.co/image/ab67616d0000b27386d06f2480a5ad0e74b1ecd7",
          "width" : 640
        }, {
          "height" : 300,
          "url" : "https://i.scdn.co/image/ab67616d00001e0286d06f2480a5ad0e74b1ecd7",
          "width" : 300
        }, {
          "height" : 64,
          "url" : "https://i.scdn.co/image/ab67616d0000485186d06f2480a5ad0e74b1ecd7",
          "width" : 64
        } ],
        "name" : "The Muse",
        "release_date" : "2017-11-10",
        "release_date_precision" : "day",
        "total_tracks" : 10,
        "type" : "album",
        "uri" : "spotify:album:1ZbS4j2xA8m0W0Q2lJuZgz"
      },
      "artists" : [ {
        "external_urls" : {
          "spotify" : "https://open.spotify.com/artist/4yyre4wV5as2rW3k0gekFA"
        },
        "href" : "https://api.spotify.com/v1/artists/4yyre4wV5as2rW3k0gekFA",
        "id" : "4yyre4wV5as2rW3k0gekFA",
        "name" : "SaQi",
        "type" : "artist",
        "uri" : "spotify:artist:4yyre4wV5as2rW3k0gekFA"
      }, {
        "external_urls" : {
          "spotify" : "https://open.spotify.com/artist/5HMdA5UCHe9EGoAevPTvg2"
        },
        "href" : "https://api.spotify.com/v1/artists/5HMdA5UCHe9EGoAevPTvg2",
        "id" : "5HMdA5UCHe9EGoAevPTvg2",
        "name" : "Heather Christie",
        "type" : "artist",
        "uri" : "spotify:artist:5HMdA5UCHe9EGoAevPTvg2"
      } ],
      "disc_number" : 1,
      "duration_ms" : 283500,
      "explicit" : false,
      "external_ids" : {
        "isrc" : "TCACJ1594622"
      },
      "external_urls" : {
        "spotify" : "https://open.spotify.com/track/5S4BZtRPEHz3H7T6fUXcLF"
      },
      "href" : "https://api.spotify.com/v1/tracks/5S4BZtRPEHz3H7T6fUXcLF",
      "id" : "5S4BZtRPEHz3H7T6fUXcLF",
      "is_local" : false,
      "is_playable" : true,
      "name" : "When the Rain Comes",
      "popularity" : 25,
      "preview_url" : "https://p.scdn.co/mp3-preview/3806bc32784c4179b8fb573cdabaedb3e73b958e?cid=774b29d4f13844c495f206cafdad9c86",
      "track_number" : 2,
      "type" : "track",
      "uri" : "spotify:track:5S4BZtRPEHz3H7T6fUXcLF"
    } ],
    "limit" : 10,
    "next" : "https://api.spotify.com/v1/search?query=When+He+Comes&type=track&market=US&offset=15&limit=10",
    "offset" : 5,
    "previous" : "https://api.spotify.com/v1/search?query=When+He+Comes&type=track&market=US&offset=0&limit=10",
    "total" : 1246
  }
}