{
  "tracks" : {
    "href" : "https://api.spotify.com/v1/search?query=I+Surrender+All&type=track&market=US&offset=5&limit=10",
    "items" : [ {
      "album" : {
        "album_type" : "album",
        "artists" : [ {
          "external_urls" : {
            "spotify" : "https://open.spotify.com/artist/5dZiRoY9Vpp6qrxqXNRwPE"
          },
          "href" : "https://api.spotify.com/v1/artists/5dZiRoY9Vpp6qrxqXNRwPE",
          "id" : "5dZiRoY9Vpp6qrxqXNRwPE",
          "name" : "Selah",
          "type" : "artist",
          "uri" : "spotify:artist:5dZiRoY9Vpp6qrxqXNRwPE"
        } ],
        "external_urls" : {
          "spotify" : "https://open.spotify.com/album/47BVtVrvqiwEAOYYzeOcnk"
        },
        "href" : "https://api.spotify.com/v1/albums/47BVtVrvqiwEAOYYzeOcnk",
        "id" : "47BVtVrvqiwEAOYYzeOcnk",
        "images" : [ {
          "height" : 640,
          "url" : "https://i.scdn.co/image/ab67616d0000b273dedfabd64ca3bef168c7aa46",
          "width" : 640
        }, {
          "height" : 300,
          "url" : "https://i.scdn.co/image/ab67616d00001e02dedfabd64ca3bef168c7aa46",
          "width" : 300
        }, {
          "height" : 64,
          "url" : "https://i.scdn.co/image/ab67616d00004851dedfabd64ca3bef168c7aa46",
          "width" : 64
        } ],
        "name" : "You Deliver Me",
        "release_date" : "2009-08-25",
        "release_date_precision" : "day",
        "total_tracks" : 15,
        "type" : "album",
        "uri" : "spotify:album:47BVtVrvqiwEAOYYzeOcnk"
      },
      "artists" : [ {
        "external_urls" : {
          "spotify" : "https://open.spotify.com/artist/5dZiRoY9Vpp6qrxqXNRwPE"
        },
        "href" : "https://api.spotify.com/v1/artists/5dZiRoY9Vpp6qrxqXNRwPE",
        "id" : "5dZiRoY9Vpp6qrxqXNRwPE",
        "name" : "Selah",
        "type" : "artist",
        "uri" : "spotify:artist:5dZiRoY9Vpp6qrxqXNRwPE"
      } ],
      "disc_number" : 1,
      "duration_ms" : 172973,
      "explicit" : false,
      "external_ids" : {
        "isrc" : "USCRB0908669"
      },
      "external_urls" : {
        "spotify" : "https://open.spotify.com/track/7uAZNdoWOhBDKUmXOZB3tJ"
      },
      "href" : "https://api.spotify.com/v1/tracks/7uAZNdoWOhBDKUmXOZB3tJ",
      "id" : "7uAZNdoWOhBDKUmXOZB3tJ",
      "is_local" : false,
      "is_playable" : true,
      "name" : "I Surrender All",
      "popularity" : 35,
      "preview_url" : "https://p.scdn.co/mp3-preview/e262450e236b7a960d3a5f23eac77cdb40bf71e1?cid=774b29d4f13844c495f206cafdad9c86",
      "track_number" : 13,
      "type" : "track",
      "uri" : "spotify:track:7uAZNdoWOhBDKUmXOZB3tJ"
    }, {
      "album" : {
        "album_type" : "album",
        "artists" : [ {
          "external_urls" : {
            "spotify" : "https://open.spotify.com/artist/3qfrrrSO7utFdJkM2tvMRb"
          },
          "href" : "https://api.spotify.com/v1/artists/3qfrrrSO7utFdJkM2tvMRb",
          "id" : "3qfrrrSO7utFdJkM2tvMRb",
          "name" : "CeCe Winans",
          "type" : "artist",
          "uri" : "spotify:artist:3qfrrrSO7utFdJkM2tvMRb"
        } ],
        "external_urls" : {
          "spotify" : "https://open.spotify.com/album/71nz5Lyn5UQI8AeELu2BaZ"
        },
        "href" : "https://api.spotify.com/v1/albums/71nz5Lyn5UQI8AeELu2BaZ",
        "id" : "71nz5Lyn5UQI8AeELu2BaZ",
        "images" : [ {
          "height" : 640,
          "url" : "https://i.scdn.co/image/ab67616d0000b273a5eadf1bf45e20c076e12a92",
          "width" : 640
        }, {
          "height" : 300,
          "url" : "https://i.scdn.co/image/ab67616d00001e02a5eadf1bf45e20c076e12a92",
          "width" : 300
        }, {
          "height" : 64,
          "url" : "https://i.scdn.co/image/ab67616d00004851a5eadf1bf45e20c076e12a92",
          "width" : 64
        } ],
        "name" : "Alone In His Presence",
        "release_date" : "1995-01-01",
        "release_date_precision" : "day",
        "total_tracks" : 12,
        "type" : "album",
        "uri" : "spotify:album:71nz5Lyn5UQI8AeELu2BaZ"
      },
      "artists" : [ {
        "external_urls" : {
          "spotify" : "https://open.spotify.com/artist/3qfrrrSO7utFdJkM2tvMRb"
        },
        "href" : "https://api.spotify.com/v1/artists/3qfrrrSO7utFdJkM2tvMRb",
        "id" : "3qfrrrSO7utFdJkM2tvMRb",
        "name" : "CeCe Winans",
        "type" : "artist",
        "uri" : "spotify:artist:3qfrrrSO7utFdJkM2tvMRb"
      } ],
      "disc_number" : 1,
      "duration_ms" : 329573,
      "explicit" : false,
      "external_ids" : {
        "isrc" : "USSP39556777"
      },
      "external_urls" : {
        "spotify" : "https://open.spotify.com/track/61PM6e4ZKNyk0cliMB2oNv"
      },
      "href" : "https://api.spotify.com/v1/tracks/61PM6e4ZKNyk0cliMB2oNv",
      "id" : "61PM6e4ZKNyk0cliMB2oNv",
      "is_local" : false,
      "is_playable" : true,
      "name" : "I Surrender All",
      "popularity" : 34,
      "preview_url" : null,
      "track_number" : 3,
      "type" : "track",
      "uri" : "spotify:track:61PM6e4ZKNyk0cliMB2oNv"
    }, {
      "album" : {
        "album_type" : "album",
        "artists" : [ {
          "external_urls" : {
            "spotify" : "https://open.spotify.com/artist/7l0sphz32GV0AjjEhECpVg"
          },
          "href" : "https://api.spotify.com/v1/artists/7l0sphz32GV0AjjEhECpVg",
          "id" : "7l0sphz32GV0AjjEhECpVg",
          "name" : "Caleb and Kelsey",
          "type" : "artist",
          "uri" : "spotify:artist:7l0sphz32GV0AjjEhECpVg"
        } ],
        "external_urls" : {
          "spotify" : "https://open.spotify.com/album/0QLa0kcjD4rqNsepGRhFDa"
        },
        "href" : "https://api.spotify.com/v1/albums/0QLa0kcjD4rqNsepGRhFDa",
        "id" : "0QLa0kcjD4rqNsepGRhFDa",
        "images" : [ {
          "height" : 640,
          "url" : "https://i.scdn.co/image/ab67616d0000b273924bbf6791731363267b4298",
          "width" : 640
        }, {
          "height" : 300,
          "url" : "https://i.scdn.co/image/ab67616d00001e02924bbf6791731363267b4298",
          "width" : 300
        }, {
          "height" : 64,
          "url" : "https://i.scdn.co/image/ab67616d00004851924bbf6791731363267b4298",
          "width" : 64
        } ],
        "name" : "Glorious Day: Worship & Hymns",
        "release_date" : "2020-03-13",
        "release_date_precision" : "day",
        "total_tracks" : 10,
        "type" : "album",
        "uri" : "spotify:album:0QLa0kcjD4rqNsepGRhFDa"
      },
      "artists" : [ {
        "external_urls" : {
          "spotify" : "https://open.spotify.com/artist/7l0sphz32GV0AjjEhECpVg"
        },
        "href" : "https://api.spotify.com/v1/artists/7l0sphz32GV0AjjEhECpVg",
        "id" : "7l0sphz32GV0AjjEhECpVg",
        "name" : "Caleb and Kelsey",
        "type" : "artist",
        "uri" : "spotify:artist:7l0sphz32GV0AjjEhECpVg"
      } ],
      "disc_number" : 1,
      "duration_ms" : 206820,
      "explicit" : false,
      "external_ids" : {
        "isrc" : "QMF922050032"
      },
      "external_urls" : {
        "spotify" : "https://open.spotify.com/track/1uqvMht3hRk5HdI7RPxT7n"
      },
      "href" : "https://api.spotify.com/v1/tracks/1uqvMht3hRk5HdI7RPxT7n",
      "id" : "1uqvMht3hRk5HdI7RPxT7n",
      "is_local" : false,
      "is_playable" : true,
      "name" : "I Surrender All (All I Am)",
      "popularity" : 40,
      "preview_url" : "https://p.scdn.co/mp3-preview/c33f62c9253fd57d8a4c842aeea904adca3a9217?cid=774b29d4f13844c495f206cafdad9c86",
      "track_number" : 2,
      "type" : "track",
      "uri" : "spotify:track:1uqvMht3hRk5HdI7RPxT7n"
    }, {
      "album" : {
        "album_type" : "album",
        "artists" : [ {
          "external_urls" : {
            "spotify" : "https://open.spotify.com/artist/5d1JhBfyb58upMXCZOdbQu"
          },
          "href" : "https://api.spotify.com/v1/artists/5d1JhBfyb58upMXCZOdbQu",
          "id" : "5d1JhBfyb58upMXCZOdbQu",
          "name" : "Phil Wickham",
          "type" : "artist",
          "uri" : "spotify:artist:5d1JhBfyb58upMXCZOdbQu"
        } ],
        "external_urls" : {
          "spotify" : "https://open.spotify.com/album/0acdHwwT3BP0dB8VCdYOYT"
        },
        "href" : "https://api.spotify.com/v1/albums/0acdHwwT3BP0dB8VCdYOYT",
        "id" : "0acdHwwT3BP0dB8VCdYOYT",
        "images" : [ {
          "height" : 640,
          "url" : "https://i.scdn.co/image/ab67616d0000b273aae23d4f099353e3b1881dec",
          "width" : 640
        }, {
          "height" : 300,
          "url" : "https://i.scdn.co/image/ab67616d00001e02aae23d4f099353e3b1881dec",
          "width" : 300
        }, {
          "height" : 64,
          "url" : "https://i.scdn.co/image/ab67616d00004851aae23d4f099353e3b1881dec",
          "width" : 64
        } ],
        "name" : "Singalong 2",
        "release_date" : "2012-10-30",
        "release_date_precision" : "day",
        "total_tracks" : 14,
        "type" : "album",
        "uri" : "spotify:album:0acdHwwT3BP0dB8VCdYOYT"
      },
      "artists" : [ {
        "external_urls" : {
          "spotify" : "https://open.spotify.com/artist/5d1JhBfyb58upMXCZOdbQu"
        },
        "href" : "https://api.spotify.com/v1/artists/5d1JhBfyb58upMXCZOdbQu",
        "id" : "5d1JhBfyb58upMXCZOdbQu",
        "name" : "Phil Wickham",
        "type" : "artist",
        "uri" : "spotify:artist:5d1JhBfyb58upMXCZOdbQu"
      } ],
      "disc_number" : 1,
      "duration_ms" : 92693,
      "explicit" : false,
      "external_ids" : {
        "isrc" : "USM2C1200910"
      },
      "external_urls" : {
        "spotify" : "https://open.spotify.com/track/5j7nFTHxPaFiuugx0BnUvU"
      },
      "href" : "https://api.spotify.com/v1/tracks/5j7nFTHxPaFiuugx0BnUvU",
      "id" : "5j7nFTHxPaFiuugx0BnUvU",
      "is_local" : false,
      "is_playable" : true,
      "name" : "I Surrender All",
      "popularity" : 29,
      "preview_url" : "https://p.scdn.co/mp3-preview/7a86d94581930375646daea89d8e659ee084692a?cid=774b29d4f13844c495f206cafdad9c86",
      "track_number" : 10,
      "type" : "track",
      "uri" : "spotify:track:5j7nFTHxPaFiuugx0BnUvU"
    }, {
      "album" : {
        "album_type" : "compilation",
        "artists" : [ {
          "external_urls" : {
            "spotify" : "https://open.spotify.com/artist/0LyfQWJT6nXafLPZqxe9Of"
          },
          "href" : "https://api.spotify.com/v1/artists/0LyfQWJT6nXafLPZqxe9Of",
          "id" : "0LyfQWJT6nXafLPZqxe9Of",
          "name" : "Various Artists",
          "type" : "artist",
          "uri" : "spotify:artist:0LyfQWJT6nXafLPZqxe9Of"
        } ],
        "external_urls" : {
          "spotify" : "https://open.spotify.com/album/3JXwE9lyL9e9O6DnxaFFJf"
        },
        "href" : "https://api.spotify.com/v1/albums/3JXwE9lyL9e9O6DnxaFFJf",
        "id" : "3JXwE9lyL9e9O6DnxaFFJf",
        "images" : [ {
          "height" : 640,
          "url" : "https://i.scdn.co/image/ab67616d0000b273ae0f3957b1afebbc16433e71",
          "width" : 640
        }, {
          "height" : 300,
          "url" : "https://i.scdn.co/image/ab67616d00001e02ae0f3957b1afebbc16433e71",
          "width" : 300
        }, {
          "height" : 64,
          "url" : "https://i.scdn.co/image/ab67616d00004851ae0f3957b1afebbc16433e71",
          "width" : 64
        } ],
        "name" : "Amazing Grace: Timeless Hymns of Faith",
        "release_date" : "2010-01-12",
        "release_date_precision" : "day",
        "total_tracks" : 13,
        "type" : "album",
        "uri" : "spotify:album:3JXwE9lyL9e9O6DnxaFFJf"
      },
      "artists" : [ {
        "external_urls" : {
          "spotify" : "https://open.spotify.com/artist/7pUnaNwiKa3p27L1EwB4X6"
        },
        "href" : "https://api.spotify.com/v1/artists/7pUnaNwiKa3p27L1EwB4X6",
        "id" : "7pUnaNwiKa3p27L1EwB4X6",
        "name" : "Israel Houghton",
        "type" : "artist",
        "uri" : "spotify:artist:7pUnaNwiKa3p27L1EwB4X6"
      } ],
      "disc_number" : 1,
      "duration_ms" : 276080,
      "explicit" : false,
      "external_ids" : {
        "isrc" : "US25L0600923"
      },
      "external_urls" : {
        "spotify" : "https://open.spotify.com/track/5teIIiCC0hAH44pD3FXJVO"
      },
      "href" : "https://api.spotify.com/v1/tracks/5teIIiCC0hAH44pD3FXJVO",
      "id" : "5teIIiCC0hAH44pD3FXJVO",
      "is_local" : false,
      "is_playable" : true,
      "name" : "I Surrender All",
      "popularity" : 37,
      "preview_url" : "https://p.scdn.co/mp3-preview/1a77e81aeee121300803a2700c4e74f164d21b33?cid=774b29d4f13844c495f206cafdad9c86",
      "track_number" : 8,
      "type" : "track",
      "uri" : "spotify:track:5teIIiCC0hAH44pD3FXJVO"
    }, {
      "album" : {
        "album_type" : "album",
        "artists" : [ {
          "external_urls" : {
            "spotify" : "https://open.spotify.com/artist/5aBxFPaaGk9204ssHUvXWN"
          },
          "href" : "https://api.spotify.com/v1/artists/5aBxFPaaGk9204ssHUvXWN",
          "id" : "5aBxFPaaGk9204ssHUvXWN",
          "name" : "Michael W. Smith",
          "type" : "artist",
          "uri" : "spotify:artist:5aBxFPaaGk9204ssHUvXWN"
        } ],
        "external_urls" : {
          "spotify" : "https://open.spotify.com/album/2deyAisFLOJw7xo77PvA9B"
        },
        "href" : "https://api.spotify.com/v1/albums/2deyAisFLOJw7xo77PvA9B",
        "id" : "2deyAisFLOJw7xo77PvA9B",
        "images" : [ {
          "height" : 640,
          "url" : "https://i.scdn.co/image/ab67616d0000b273d628c5f0e7c582f739ed4f93",
          "width" : 640
        }, {
          "height" : 300,
          "url" : "https://i.scdn.co/image/ab67616d00001e02d628c5f0e7c582f739ed4f93",
          "width" : 300
        }, {
          "height" : 64,
          "url" : "https://i.scdn.co/image/ab67616d00004851d628c5f0e7c582f739ed4f93",
          "width" : 64
        } ],
        "name" : "A New Hallelujah",
        "release_date" : "2008-10-24",
        "release_date_precision" : "day",
        "total_tracks" : 18,
        "type" : "album",
        "uri" : "spotify:album:2deyAisFLOJw7xo77PvA9B"
      },
      "artists" : [ {
        "external_urls" : {
          "spotify" : "https://open.spotify.com/artist/5aBxFPaaGk9204ssHUvXWN"
        },
        "href" : "https://api.spotify.com/v1/artists/5aBxFPaaGk9204ssHUvXWN",
        "id" : "5aBxFPaaGk9204ssHUvXWN",
        "name" : "Michael W. Smith",
        "type" : "artist",
        "uri" : "spotify:artist:5aBxFPaaGk9204ssHUvXWN"
      } ],
      "disc_number" : 1,
      "duration_ms" : 231746,
      "explicit" : false,
      "external_ids" : {
        "isrc" : "USA5W0802668"
      },
      "external_urls" : {
        "spotify" : "https://open.spotify.com/track/674GTlwzXf7VG2zbvib87d"
      },
      "href" : "https://api.spotify.com/v1/tracks/674GTlwzXf7VG2zbvib87d",
      "id" : "674GTlwzXf7VG2zbvib87d",
      "is_local" : false,
      "is_playable" : true,
      "name" : "I Surrender All (Live) - with special guest Coalo Zamorano",
      "popularity" : 37,
      "preview_url" : "https://p.scdn.co/mp3-preview/ac056cf3e1d3a87b7e62611d32719066da755349?cid=774b29d4f13844c495f206cafdad9c86",
      "track_number" : 10,
      "type" : "track",
      "uri" : "spotify:track:674GTlwzXf7VG2zbvib87d"
    }, {
      "album" : {
        "album_type" : "album",
        "artists" : [ {
          "external_urls" : {
            "spotify" : "https://open.spotify.com/artist/44LPOpECjnIlnwH91wo2ir"
          },
          "href" : "https://api.spotify.com/v1/artists/44LPOpECjnIlnwH91wo2ir",
          "id" : "44LPOpECjnIlnwH91wo2ir",
          "name" : "All Sons & Daughters",
          "type" : "artist",
          "uri" : "spotify:artist:44LPOpECjnIlnwH91wo2ir"
        } ],
        "external_urls" : {
          "spotify" : "https://open.spotify.com/album/4Ep9pR8RIXphUEEkgeELBK"
        },
        "href" : "https://api.spotify.com/v1/albums/4Ep9pR8RIXphUEEkgeELBK",
        "id" : "4Ep9pR8RIXphUEEkgeELBK",
        "images" : [ {
          "height" : 640,
          "url" : "https://i.scdn.co/image/ab67616d0000b27351bcb0ef9ec1fa1082b3cafa",
          "width" : 640
        }, {
          "height" : 300,
          "url" : "https://i.scdn.co/image/ab67616d00001e0251bcb0ef9ec1fa1082b3cafa",
          "width" : 300
        }, {
          "height" : 64,
          "url" : "https://i.scdn.co/image/ab67616d0000485151bcb0ef9ec1fa1082b3cafa",
          "width" : 64
        } ],
        "name" : "Poets & Saints",
        "release_date" : "2016-09-02",
        "release_date_precision" : "day",
        "total_tracks" : 10,
        "type" : "album",
        "uri" : "spotify:album:4Ep9pR8RIXphUEEkgeELBK"
      },
      "artists" : [ {
        "external_urls" : {
          "spotify" : "https://open.spotify.com/artist/44LPOpECjnIlnwH91wo2ir"
        },
        "href" : "https://api.spotify.com/v1/artists/44LPOpECjnIlnwH91wo2ir",
        "id" : "44LPOpECjnIlnwH91wo2ir",
        "name" : "All Sons & Daughters",
        "type" : "artist",
        "uri" : "spotify:artist:44LPOpECjnIlnwH91wo2ir"
      } ],
      "disc_number" : 1,
      "duration_ms" : 253706,
      "explicit" : false,
      "external_ids" : {
        "isrc" : "US25L1600726"
      },
      "external_urls" : {
        "spotify" : "https://open.spotify.com/track/13p3U002Sv8z722mFjTuWi"
      },
      "href" : "https://api.spotify.com/v1/tracks/13p3U002Sv8z722mFjTuWi",
      "id" : "13p3U002Sv8z722mFjTuWi",
      "is_local" : false,
      "is_playable" : true,
      "name" : "I Surrender",
      "popularity" : 46,
      "preview_url" : "https://p.scdn.co/mp3-preview/cd574ab562f810837c9381e1afab28fc9502debf?cid=774b29d4f13844c495f206cafdad9c86",
      "track_number" : 2,
      "type" : "track",
      "uri" : "spotify:track:13p3U002Sv8z722mFjTuWi"
    }, {
      "album" : {
        "album_type" : "album",
        "artists" : [ {
          "external_urls" : {
            "spotify" : "https://open.spotify.com/artist/5AANxVyO6dOulHHX5pAWQg"
          },
          "href" : "https://api.spotify.com/v1/artists/5AANxVyO6dOulHHX5pAWQg",
          "id" : "5AANxVyO6dOulHHX5pAWQg",
          "name" : "Clay Crosse",
          "type" : "artist",
          "uri" : "spotify:artist:5AANxVyO6dOulHHX5pAWQg"
        } ],
        "external_urls" : {
          "spotify" : "https://open.spotify.com/album/5KfpvLCbYxDRm1YkQGKmKD"
        },
        "href" : "https://api.spotify.com/v1/albums/5KfpvLCbYxDRm1YkQGKmKD",
        "id" : "5KfpvLCbYxDRm1YkQGKmKD",
        "images" : [ {
          "height" : 640,
          "url" : "https://i.scdn.co/image/ab67616d0000b2733e0c0c96d3ce36d27a8d950e",
          "width" : 640
        }, {
          "height" : 300,
          "url" : "https://i.scdn.co/image/ab67616d00001e023e0c0c96d3ce36d27a8d950e",
          "width" : 300
        }, {
          "height" : 64,
          "url" : "https://i.scdn.co/image/ab67616d000048513e0c0c96d3ce36d27a8d950e",
          "width" : 64
        } ],
        "name" : "My Place Is With You",
        "release_date" : "1994",
        "release_date_precision" : "year",
        "total_tracks" : 10,
        "type" : "album",
        "uri" : "spotify:album:5KfpvLCbYxDRm1YkQGKmKD"
      },
      "artists" : [ {
        "external_urls" : {
          "spotify" : "https://open.spotify.com/artist/5AANxVyO6dOulHHX5pAWQg"
        },
        "href" : "https://api.spotify.com/v1/artists/5AANxVyO6dOulHHX5pAWQg",
        "id" : "5AANxVyO6dOulHHX5pAWQg",
        "name" : "Clay Crosse",
        "type" : "artist",
        "uri" : "spotify:artist:5AANxVyO6dOulHHX5pAWQg"
      } ],
      "disc_number" : 1,
      "duration_ms" : 284626,
      "explicit" : false,
      "external_ids" : {
        "isrc" : "USRU19300052"
      },
      "external_urls" : {
        "spotify" : "https://open.spotify.com/track/5i7A0nyX2V8l5AY2N0cVrO"
      },
      "href" : "https://api.spotify.com/v1/tracks/5i7A0nyX2V8l5AY2N0cVrO",
      "id" : "5i7A0nyX2V8l5AY2N0cVrO",
      "is_local" : false,
      "is_playable" : true,
      "name" : "I Surrender All",
      "popularity" : 29,
      "preview_url" : "https://p.scdn.co/mp3-preview/003a0c7a0a395176b35dc6a20cabbf547ce27051?cid=774b29d4f13844c495f206cafdad9c86",
      "track_number" : 5,
      "type" : "track",
      "uri" : "spotify:track:5i7A0nyX2V8l5AY2N0cVrO"
    }, {
      "album" : {
        "album_type" : "album",
        "artists" : [ {
          "external_urls" : {
            "spotify" : "https://open.spotify.com/artist/6PTGRlwNbg36Mu4boWlixN"
          },
          "href" : "https://api.spotify.com/v1/artists/6PTGRlwNbg36Mu4boWlixN",
          "id" : "6PTGRlwNbg36Mu4boWlixN",
          "name" : "William McDowell",
          "type" : "artist",
          "uri" : "spotify:artist:6PTGRlwNbg36Mu4boWlixN"
        } ],
        "external_urls" : {
          "spotify" : "https://open.spotify.com/album/1cwl8uoycWw4fFMKMV0VEc"
        },
        "href" : "https://api.spotify.com/v1/albums/1cwl8uoycWw4fFMKMV0VEc",
        "id" : "1cwl8uoycWw4fFMKMV0VEc",
        "images" : [ {
          "height" : 640,
          "url" : "https://i.scdn.co/image/ab67616d0000b273b5c22a6c69d8a3be270f2874",
          "width" : 640
        }, {
          "height" : 300,
          "url" : "https://i.scdn.co/image/ab67616d00001e02b5c22a6c69d8a3be270f2874",
          "width" : 300
        }, {
          "height" : 64,
          "url" : "https://i.scdn.co/image/ab67616d00004851b5c22a6c69d8a3be270f2874",
          "width" : 64
        } ],
        "name" : "Arise",
        "release_date" : "2011-11-08",
        "release_date_precision" : "day",
        "total_tracks" : 23,
        "type" : "album",
        "uri" : "spotify:album:1cwl8uoycWw4fFMKMV0VEc"
      },
      "artists" : [ {
        "external_urls" : {
          "spotify" : "https://open.spotify.com/artist/6PTGRlwNbg36Mu4boWlixN"
        },
        "href" : "https://api.spotify.com/v1/artists/6PTGRlwNbg36Mu4boWlixN",
        "id" : "6PTGRlwNbg36Mu4boWlixN",
        "name" : "William McDowell",
        "type" : "artist",
        "uri" : "spotify:artist:6PTGRlwNbg36Mu4boWlixN"
      } ],
      "disc_number" : 1,
      "duration_ms" : 401266,
      "explicit" : false,
      "external_ids" : {
        "isrc" : "USKO11100809"
      },
      "external_urls" : {
        "spotify" : "https://open.spotify.com/track/266BT78ZQsmaTzeB5CwhKa"
      },
      "href" : "https://api.spotify.com/v1/tracks/266BT78ZQsmaTzeB5CwhKa",
      "id" : "266BT78ZQsmaTzeB5CwhKa",
      "is_local" : false,
      "is_playable" : true,
      "name" : "I Surrender All",
      "popularity" : 31,
      "preview_url" : "https://p.scdn.co/mp3-preview/2a81a4b6ef210967112bbf3ccfffce388d6e6ab3?cid=774b29d4f13844c495f206cafdad9c86",
      "track_number" : 10,
      "type" : "track",
      "uri" : "spotify:track:266BT78ZQsmaTzeB5CwhKa"
    }, {
      "album" : {
        "album_type" : "album",
        "artists" : [ {
          "external_urls" : {
            "spotify" : "https://open.spotify.com/artist/2mQ9A5FBhJU62z0YCnnuAY"
          },
          "href" : "https://api.spotify.com/v1/artists/2mQ9A5FBhJU62z0YCnnuAY",
          "id" : "2mQ9A5FBhJU62z0YCnnuAY",
          "name" : "Wales Road",
          "type" : "artist",
          "uri" : "spotify:artist:2mQ9A5FBhJU62z0YCnnuAY"
        } ],
        "external_urls" : {
          "spotify" : "https://open.spotify.com/album/6hal9bICLy7s9Wo9BIRF1s"
        },
        "href" : "https://api.spotify.com/v1/albums/6hal9bICLy7s9Wo9BIRF1s",
        "id" : "6hal9bICLy7s9Wo9BIRF1s",
        "images" : [ {
          "height" : 640,
          "url" : "https://i.scdn.co/image/ab67616d0000b27382e38a7e36e8b195be2e821a",
          "width" : 640
        }, {
          "height" : 300,
          "url" : "https://i.scdn.co/image/ab67616d00001e0282e38a7e36e8b195be2e821a",
          "width" : 300
        }, {
          "height" : 64,
          "url" : "https://i.scdn.co/image/ab67616d0000485182e38a7e36e8b195be2e821a",
          "width" : 64
        } ],
        "name" : "Radio Scripture",
        "release_date" : "2020-03-10",
        "release_date_precision" : "day",
        "total_tracks" : 10,
        "type" : "album",
        "uri" : "spotify:album:6hal9bICLy7s9Wo9BIRF1s"
      },
      "artists" : [ {
        "external_urls" : {
          "spotify" : "https://open.spotify.com/artist/2mQ9A5FBhJU62z0YCnnuAY"
        },
        "href" : "https://api.spotify.com/v1/artists/2mQ9A5FBhJU62z0YCnnuAY",
        "id" : "2mQ9A5FBhJU62z0YCnnuAY",
        "name" : "Wales Road",
        "type" : "artist",
        "uri" : "spotify:artist:2mQ9A5FBhJU62z0YCnnuAY"
      } ],
      "disc_number" : 1,
      "duration_ms" : 223346,
      "explicit" : false,
      "external_ids" : {
        "isrc" : "TCAES2013031"
      },
      "external_urls" : {
        "spotify" : "https://open.spotify.com/track/6nq4QKPGDIYt8SeprooT9j"
      },
      "href" : "https://api.spotify.com/v1/tracks/6nq4QKPGDIYt8SeprooT9j",
      "id" : "6nq4QKPGDIYt8SeprooT9j",
      "is_local" : false,
      "is_playable" : true,
      "name" : "I Surrender All",
      "popularity" : 26,
      "preview_url" : "https://p.scdn.co/mp3-preview/48af46801e7e8ca85f239f464d1e7314bdf5b8e4?cid=774b29d4f13844c495f206cafdad9c86",
      "track_number" : 4,
      "type" : "track",
      "uri" : "spotify:track:6nq4QKPGDIYt8SeprooT9j"
    } ],
    "limit" : 10,
    "next" : "https://api.spotify.com/v1/search?query=I+Surrender+All&type=track&market=US&offset=15&limit=10",
    "offset" : 5,
    "previous" : "https://api.spotify.com/v1/search?query=I+Surrender+All&type=track&market=US&offset=0&limit=10",
    "total" : 2250
  }
}