{
  "tracks" : {
    "href" : "https://api.spotify.com/v1/search?query=Great+Is+Thy+Faithfulness&type=track&market=US&offset=5&limit=10",
    "items" : [ {
      "album" : {
        "album_type" : "album",
        "artists" : [ {
          "external_urls" : {
            "spotify" : "https://open.spotify.com/artist/5dZiRoY9Vpp6qrxqXNRwPE"
          },
          "href" : "https://api.spotify.com/v1/artists/5dZiRoY9Vpp6qrxqXNRwPE",
          "id" : "5dZiRoY9Vpp6qrxqXNRwPE",
          "name" : "Selah",
          "type" : "artist",
          "uri" : "spotify:artist:5dZiRoY9Vpp6qrxqXNRwPE"
        } ],
        "external_urls" : {
          "spotify" : "https://open.spotify.com/album/0Db1d5xscMf4bZnZePFHfJ"
        },
        "href" : "https://api.spotify.com/v1/albums/0Db1d5xscMf4bZnZePFHfJ",
        "id" : "0Db1d5xscMf4bZnZePFHfJ",
        "images" : [ {
          "height" : 640,
          "url" : "https://i.scdn.co/image/ab67616d0000b273fd46e58f911f51ecf82d4b79",
          "width" : 640
        }, {
          "height" : 300,
          "url" : "https://i.scdn.co/image/ab67616d00001e02fd46e58f911f51ecf82d4b79",
          "width" : 300
        }, {
          "height" : 64,
          "url" : "https://i.scdn.co/image/ab67616d00004851fd46e58f911f51ecf82d4b79",
          "width" : 64
        } ],
        "name" : "Be Still My Soul",
        "release_date" : "1998-09-01",
        "release_date_precision" : "day",
        "total_tracks" : 11,
        "type" : "album",
        "uri" : "spotify:album:0Db1d5xscMf4bZnZePFHfJ"
      },
      "artists" : [ {
        "external_urls" : {
          "spotify" : "https://open.spotify.com/artist/5dZiRoY9Vpp6qrxqXNRwPE"
        },
        "href" : "https://api.spotify.com/v1/artists/5dZiRoY9Vpp6qrxqXNRwPE",
        "id" : "5dZiRoY9Vpp6qrxqXNRwPE",
        "name" : "Selah",
        "type" : "artist",
        "uri" : "spotify:artist:5dZiRoY9Vpp6qrxqXNRwPE"
      } ],
      "disc_number" : 1,
      "duration_ms" : 338266,
      "explicit" : false,
      "external_ids" : {
        "isrc" : "USCRB9800056"
      },
      "external_urls" : {
        "spotify" : "https://open.spotify.com/track/06iIK9SdJF18Ulp3aLCRkp"
      },
      "href" : "https://api.spotify.com/v1/tracks/06iIK9SdJF18Ulp3aLCRkp",
      "id" : "06iIK9SdJF18Ulp3aLCRkp",
      "is_local" : false,
      "is_playable" : true,
      "name" : "Great Is Thy Faithfulness",
      "popularity" : 36,
      "preview_url" : "https://p.scdn.co/mp3-preview/95aaca034ff99140101e5951045673a3af3f9518?cid=774b29d4f13844c495f206cafdad9c86",
      "track_number" : 4,
      "type" : "track",
      "uri" : "spotify:track:06iIK9SdJF18Ulp3aLCRkp"
    }, {
      "album" : {
        "album_type" : "album",
        "artists" : [ {
          "external_urls" : {
            "spotify" : "https://open.spotify.com/artist/4XUltzTgP8sMvgKTOyjceo"
          },
          "href" : "https://api.spotify.com/v1/artists/4XUltzTgP8sMvgKTOyjceo",
          "id" : "4XUltzTgP8sMvgKTOyjceo",
          "name" : "Discovery Singers",
          "type" : "artist",
          "uri" : "spotify:artist:4XUltzTgP8sMvgKTOyjceo"
        } ],
        "external_urls" : {
          "spotify" : "https://open.spotify.com/album/3LNvnRus6OtSIbYnWfadf9"
        },
        "href" : "https://api.spotify.com/v1/albums/3LNvnRus6OtSIbYnWfadf9",
        "id" : "3LNvnRus6OtSIbYnWfadf9",
        "images" : [ {
          "height" : 640,
          "url" : "https://i.scdn.co/image/ab67616d0000b273072baa16109183d0adccffb9",
          "width" : 640
        }, {
          "height" : 300,
          "url" : "https://i.scdn.co/image/ab67616d00001e02072baa16109183d0adccffb9",
          "width" : 300
        }, {
          "height" : 64,
          "url" : "https://i.scdn.co/image/ab67616d00004851072baa16109183d0adccffb9",
          "width" : 64
        } ],
        "name" : "A Cappella Hymns: Great is Thy Faithfulness",
        "release_date" : "2006-09-20",
        "release_date_precision" : "day",
        "total_tracks" : 17,
        "type" : "album",
        "uri" : "spotify:album:3LNvnRus6OtSIbYnWfadf9"
      },
      "artists" : [ {
        "external_urls" : {
          "spotify" : "https://open.spotify.com/artist/4XUltzTgP8sMvgKTOyjceo"
        },
        "href" : "https://api.spotify.com/v1/artists/4XUltzTgP8sMvgKTOyjceo",
        "id" : "4XUltzTgP8sMvgKTOyjceo",
        "name" : "Discovery Singers",
        "type" : "artist",
        "uri" : "spotify:artist:4XUltzTgP8sMvgKTOyjceo"
      } ],
      "disc_number" : 1,
      "duration_ms" : 217120,
      "explicit" : false,
      "external_ids" : {
        "isrc" : "USDHM0602839"
      },
      "external_urls" : {
        "spotify" : "https://open.spotify.com/track/5Kei6V0Q49rZ1Llwp07tkj"
      },
      "href" : "https://api.spotify.com/v1/tracks/5Kei6V0Q49rZ1Llwp07tkj",
      "id" : "5Kei6V0Q49rZ1Llwp07tkj",
      "is_local" : false,
      "is_playable" : true,
      "name" : "Great is Thy Faithfulness",
      "popularity" : 38,
      "preview_url" : "https://p.scdn.co/mp3-preview/cac90c337ab35d3e0860b565e2b572c8e7fdbe9e?cid=774b29d4f13844c495f206cafdad9c86",
      "track_number" : 6,
      "type" : "track",
      "uri" : "spotify:track:5Kei6V0Q49rZ1Llwp07tkj"
    }, {
      "album" : {
        "album_type" : "single",
        "artists" : [ {
          "external_urls" : {
            "spotify" : "https://open.spotify.com/artist/5B0gcQCmHJR2VznrIGKh4x"
          },
          "href" : "https://api.spotify.com/v1/artists/5B0gcQCmHJR2VznrIGKh4x",
          "id" : "5B0gcQCmHJR2VznrIGKh4x",
          "name" : "Austin Stone Worship",
          "type" : "artist",
          "uri" : "spotify:artist:5B0gcQCmHJR2VznrIGKh4x"
        } ],
        "external_urls" : {
          "spotify" : "https://open.spotify.com/album/33AjyjiRc3YXSqQarTc3yq"
        },
        "href" : "https://api.spotify.com/v1/albums/33AjyjiRc3YXSqQarTc3yq",
        "id" : "33AjyjiRc3YXSqQarTc3yq",
        "images" : [ {
          "height" : 640,
          "url" : "https://i.scdn.co/image/ab67616d0000b273cc5ec491b006e394d7bee8cf",
          "width" : 640
        }, {
          "height" : 300,
          "url" : "https://i.scdn.co/image/ab67616d00001e02cc5ec491b006e394d7bee8cf",
          "width" : 300
        }, {
          "height" : 64,
          "url" : "https://i.scdn.co/image/ab67616d00004851cc5ec491b006e394d7bee8cf",
          "width" : 64
        } ],
        "name" : "Great Is Thy Faithfulness (Live at T.G.C.)",
        "release_date" : "2018-07-25",
        "release_date_precision" : "day",
        "total_tracks" : 1,
        "type" : "album",
        "uri" : "spotify:album:33AjyjiRc3YXSqQarTc3yq"
      },
      "artists" : [ {
        "external_urls" : {
          "spotify" : "https://open.spotify.com/artist/5B0gcQCmHJR2VznrIGKh4x"
        },
        "href" : "https://api.spotify.com/v1/artists/5B0gcQCmHJR2VznrIGKh4x",
        "id" : "5B0gcQCmHJR2VznrIGKh4x",
        "name" : "Austin Stone Worship",
        "type" : "artist",
        "uri" : "spotify:artist:5B0gcQCmHJR2VznrIGKh4x"
      } ],
      "disc_number" : 1,
      "duration_ms" : 417818,
      "explicit" : false,
      "external_ids" : {
        "isrc" : "QMSGZ1800002"
      },
      "external_urls" : {
        "spotify" : "https://open.spotify.com/track/0rZBcDIC2TRXOdfThAvesH"
      },
      "href" : "https://api.spotify.com/v1/tracks/0rZBcDIC2TRXOdfThAvesH",
      "id" : "0rZBcDIC2TRXOdfThAvesH",
      "is_local" : false,
      "is_playable" : true,
      "name" : "Great Is Thy Faithfulness (Live at T.G.C.)",
      "popularity" : 36,
      "preview_url" : "https://p.scdn.co/mp3-preview/9d6edb90f96674486a9b6def461cdd85bc818b31?cid=774b29d4f13844c495f206cafdad9c86",
      "track_number" : 1,
      "type" : "track",
      "uri" : "spotify:track:0rZBcDIC2TRXOdfThAvesH"
    }, {
      "album" : {
        "album_type" : "album",
        "artists" : [ {
          "external_urls" : {
            "spotify" : "https://open.spotify.com/artist/6mGZXaZ4SWNh6IsJ57thCp"
          },
          "href" : "https://api.spotify.com/v1/artists/6mGZXaZ4SWNh6IsJ57thCp",
          "id" : "6mGZXaZ4SWNh6IsJ57thCp",
          "name" : "Fernando Ortega",
          "type" : "artist",
          "uri" : "spotify:artist:6mGZXaZ4SWNh6IsJ57thCp"
        } ],
        "external_urls" : {
          "spotify" : "https://open.spotify.com/album/7H8VPzcOHyoOJ7fovoZJXL"
        },
        "href" : "https://api.spotify.com/v1/albums/7H8VPzcOHyoOJ7fovoZJXL",
        "id" : "7H8VPzcOHyoOJ7fovoZJXL",
        "images" : [ {
          "height" : 640,
          "url" : "https://i.scdn.co/image/ab67616d0000b27359eccd5ada3ab2ca44bdb706",
          "width" : 640
        }, {
          "height" : 300,
          "url" : "https://i.scdn.co/image/ab67616d00001e0259eccd5ada3ab2ca44bdb706",
          "width" : 300
        }, {
          "height" : 64,
          "url" : "https://i.scdn.co/image/ab67616d0000485159eccd5ada3ab2ca44bdb706",
          "width" : 64
        } ],
        "name" : "The Shadow Of Your Wings: Hymns and Sacred Songs",
        "release_date" : "2006-10-24",
        "release_date_precision" : "day",
        "total_tracks" : 14,
        "type" : "album",
        "uri" : "spotify:album:7H8VPzcOHyoOJ7fovoZJXL"
      },
      "artists" : [ {
        "external_urls" : {
          "spotify" : "https://open.spotify.com/artist/6mGZXaZ4SWNh6IsJ57thCp"
        },
        "href" : "https://api.spotify.com/v1/artists/6mGZXaZ4SWNh6IsJ57thCp",
        "id" : "6mGZXaZ4SWNh6IsJ57thCp",
        "name" : "Fernando Ortega",
        "type" : "artist",
        "uri" : "spotify:artist:6mGZXaZ4SWNh6IsJ57thCp"
      } ],
      "disc_number" : 1,
      "duration_ms" : 242466,
      "explicit" : false,
      "external_ids" : {
        "isrc" : "USCRB0606910"
      },
      "external_urls" : {
        "spotify" : "https://open.spotify.com/track/1I7C2Yp5YCQ6X5c579hmkQ"
      },
      "href" : "https://api.spotify.com/v1/tracks/1I7C2Yp5YCQ6X5c579hmkQ",
      "id" : "1I7C2Yp5YCQ6X5c579hmkQ",
      "is_local" : false,
      "is_playable" : true,
      "name" : "Great Is Thy Faithfulness",
      "popularity" : 32,
      "preview_url" : "https://p.scdn.co/mp3-preview/83f2d8379137253d455f87c07d36dcec44256988?cid=774b29d4f13844c495f206cafdad9c86",
      "track_number" : 7,
      "type" : "track",
      "uri" : "spotify:track:1I7C2Yp5YCQ6X5c579hmkQ"
    }, {
      "album" : {
        "album_type" : "album",
        "artists" : [ {
          "external_urls" : {
            "spotify" : "https://open.spotify.com/artist/7kwEvDE8e7EBGKh5bLczqQ"
          },
          "href" : "https://api.spotify.com/v1/artists/7kwEvDE8e7EBGKh5bLczqQ",
          "id" : "7kwEvDE8e7EBGKh5bLczqQ",
          "name" : "Anthem Lights",
          "type" : "artist",
          "uri" : "spotify:artist:7kwEvDE8e7EBGKh5bLczqQ"
        } ],
        "external_urls" : {
          "spotify" : "https://open.spotify.com/album/18we0y1PK9lt3Qneye6ciV"
        },
        "href" : "https://api.spotify.com/v1/albums/18we0y1PK9lt3Qneye6ciV",
        "id" : "18we0y1PK9lt3Qneye6ciV",
        "images" : [ {
          "height" : 640,
          "url" : "https://i.scdn.co/image/ab67616d0000b273dafdd3fa96666ede04d6bbcb",
          "width" : 640
        }, {
          "height" : 300,
          "url" : "https://i.scdn.co/image/ab67616d00001e02dafdd3fa96666ede04d6bbcb",
          "width" : 300
        }, {
          "height" : 64,
          "url" : "https://i.scdn.co/image/ab67616d00004851dafdd3fa96666ede04d6bbcb",
          "width" : 64
        } ],
        "name" : "Hymns, Vol. II",
        "release_date" : "2018-03-16",
        "release_date_precision" : "day",
        "total_tracks" : 10,
        "type" : "album",
        "uri" : "spotify:album:18we0y1PK9lt3Qneye6ciV"
      },
      "artists" : [ {
        "external_urls" : {
          "spotify" : "https://open.spotify.com/artist/7kwEvDE8e7EBGKh5bLczqQ"
        },
        "href" : "https://api.spotify.com/v1/artists/7kwEvDE8e7EBGKh5bLczqQ",
        "id" : "7kwEvDE8e7EBGKh5bLczqQ",
        "name" : "Anthem Lights",
        "type" : "artist",
        "uri" : "spotify:artist:7kwEvDE8e7EBGKh5bLczqQ"
      } ],
      "disc_number" : 1,
      "duration_ms" : 196951,
      "explicit" : false,
      "external_ids" : {
        "isrc" : "QMF921850018"
      },
      "external_urls" : {
        "spotify" : "https://open.spotify.com/track/76WiDpSDK1StV6n6cwxNXD"
      },
      "href" : "https://api.spotify.com/v1/tracks/76WiDpSDK1StV6n6cwxNXD",
      "id" : "76WiDpSDK1StV6n6cwxNXD",
      "is_local" : false,
      "is_playable" : true,
      "name" : "Great Is Thy Faithfulness",
      "popularity" : 34,
      "preview_url" : "https://p.scdn.co/mp3-preview/7e157500f023068b26a0e74cf7251013db24dfbf?cid=774b29d4f13844c495f206cafdad9c86",
      "track_number" : 7,
      "type" : "track",
      "uri" : "spotify:track:76WiDpSDK1StV6n6cwxNXD"
    }, {
      "album" : {
        "album_type" : "album",
        "artists" : [ {
          "external_urls" : {
            "spotify" : "https://open.spotify.com/artist/7dc9jcxR0GgRMoNasStnmZ"
          },
          "href" : "https://api.spotify.com/v1/artists/7dc9jcxR0GgRMoNasStnmZ",
          "id" : "7dc9jcxR0GgRMoNasStnmZ",
          "name" : "David Baroni",
          "type" : "artist",
          "uri" : "spotify:artist:7dc9jcxR0GgRMoNasStnmZ"
        } ],
        "external_urls" : {
          "spotify" : "https://open.spotify.com/album/0QOzN93Vhpw1rwTonEKrnf"
        },
        "href" : "https://api.spotify.com/v1/albums/0QOzN93Vhpw1rwTonEKrnf",
        "id" : "0QOzN93Vhpw1rwTonEKrnf",
        "images" : [ {
          "height" : 640,
          "url" : "https://i.scdn.co/image/ab67616d0000b273ddfd3808b869d69ac7b94ceb",
          "width" : 640
        }, {
          "height" : 300,
          "url" : "https://i.scdn.co/image/ab67616d00001e02ddfd3808b869d69ac7b94ceb",
          "width" : 300
        }, {
          "height" : 64,
          "url" : "https://i.scdn.co/image/ab67616d00004851ddfd3808b869d69ac7b94ceb",
          "width" : 64
        } ],
        "name" : "A Quiet Place: Instrumental Hymns",
        "release_date" : "2009-11-28",
        "release_date_precision" : "day",
        "total_tracks" : 12,
        "type" : "album",
        "uri" : "spotify:album:0QOzN93Vhpw1rwTonEKrnf"
      },
      "artists" : [ {
        "external_urls" : {
          "spotify" : "https://open.spotify.com/artist/7dc9jcxR0GgRMoNasStnmZ"
        },
        "href" : "https://api.spotify.com/v1/artists/7dc9jcxR0GgRMoNasStnmZ",
        "id" : "7dc9jcxR0GgRMoNasStnmZ",
        "name" : "David Baroni",
        "type" : "artist",
        "uri" : "spotify:artist:7dc9jcxR0GgRMoNasStnmZ"
      } ],
      "disc_number" : 1,
      "duration_ms" : 327173,
      "explicit" : false,
      "external_ids" : {
        "isrc" : "usx9p0933850"
      },
      "external_urls" : {
        "spotify" : "https://open.spotify.com/track/43ZpvLpY5IJiBvXAfstVHh"
      },
      "href" : "https://api.spotify.com/v1/tracks/43ZpvLpY5IJiBvXAfstVHh",
      "id" : "43ZpvLpY5IJiBvXAfstVHh",
      "is_local" : false,
      "is_playable" : true,
      "name" : "Great is Thy Faithfulness",
      "popularity" : 35,
      "preview_url" : "https://p.scdn.co/mp3-preview/d243e5e4ba0b752c40ebfe865f55f28565ec590f?cid=774b29d4f13844c495f206cafdad9c86",
      "track_number" : 8,
      "type" : "track",
      "uri" : "spotify:track:43ZpvLpY5IJiBvXAfstVHh"
    }, {
      "album" : {
        "album_type" : "single",
        "artists" : [ {
          "external_urls" : {
            "spotify" : "https://open.spotify.com/artist/5TB43hYVZMxI193JCzyQJb"
          },
          "href" : "https://api.spotify.com/v1/artists/5TB43hYVZMxI193JCzyQJb",
          "id" : "5TB43hYVZMxI193JCzyQJb",
          "name" : "Page CXVI",
          "type" : "artist",
          "uri" : "spotify:artist:5TB43hYVZMxI193JCzyQJb"
        } ],
        "external_urls" : {
          "spotify" : "https://open.spotify.com/album/4vwYFe9cWeszF9HdWj9aOR"
        },
        "href" : "https://api.spotify.com/v1/albums/4vwYFe9cWeszF9HdWj9aOR",
        "id" : "4vwYFe9cWeszF9HdWj9aOR",
        "images" : [ {
          "height" : 640,
          "url" : "https://i.scdn.co/image/ab67616d0000b2736def2283c9b16f04a1ff98d5",
          "width" : 640
        }, {
          "height" : 300,
          "url" : "https://i.scdn.co/image/ab67616d00001e026def2283c9b16f04a1ff98d5",
          "width" : 300
        }, {
          "height" : 64,
          "url" : "https://i.scdn.co/image/ab67616d000048516def2283c9b16f04a1ff98d5",
          "width" : 64
        } ],
        "name" : "You Love All Your People",
        "release_date" : "2020-05-15",
        "release_date_precision" : "day",
        "total_tracks" : 5,
        "type" : "album",
        "uri" : "spotify:album:4vwYFe9cWeszF9HdWj9aOR"
      },
      "artists" : [ {
        "external_urls" : {
          "spotify" : "https://open.spotify.com/artist/5TB43hYVZMxI193JCzyQJb"
        },
        "href" : "https://api.spotify.com/v1/artists/5TB43hYVZMxI193JCzyQJb",
        "id" : "5TB43hYVZMxI193JCzyQJb",
        "name" : "Page CXVI",
        "type" : "artist",
        "uri" : "spotify:artist:5TB43hYVZMxI193JCzyQJb"
      } ],
      "disc_number" : 1,
      "duration_ms" : 255718,
      "explicit" : false,
      "external_ids" : {
        "isrc" : "US9YS2000003"
      },
      "external_urls" : {
        "spotify" : "https://open.spotify.com/track/5Af8x1C7crIb08ck1DiQ9o"
      },
      "href" : "https://api.spotify.com/v1/tracks/5Af8x1C7crIb08ck1DiQ9o",
      "id" : "5Af8x1C7crIb08ck1DiQ9o",
      "is_local" : false,
      "is_playable" : true,
      "name" : "Great Is Thy Faithfulness",
      "popularity" : 21,
      "preview_url" : "https://p.scdn.co/mp3-preview/2c1e5f0433e30e7989d9c8a11e244d53cb0e5f64?cid=774b29d4f13844c495f206cafdad9c86",
      "track_number" : 4,
      "type" : "track",
      "uri" : "spotify:track:5Af8x1C7crIb08ck1DiQ9o"
    }, {
      "album" : {
        "album_type" : "compilation",
        "artists" : [ {
          "external_urls" : {
            "spotify" : "https://open.spotify.com/artist/0LyfQWJT6nXafLPZqxe9Of"
          },
          "href" : "https://api.spotify.com/v1/artists/0LyfQWJT6nXafLPZqxe9Of",
          "id" : "0LyfQWJT6nXafLPZqxe9Of",
          "name" : "Various Artists",
          "type" : "artist",
          "uri" : "spotify:artist:0LyfQWJT6nXafLPZqxe9Of"
        } ],
        "external_urls" : {
          "spotify" : "https://open.spotify.com/album/5oOGXLgQtWaqjMSxwAEYEB"
        },
        "href" : "https://api.spotify.com/v1/albums/5oOGXLgQtWaqjMSxwAEYEB",
        "id" : "5oOGXLgQtWaqjMSxwAEYEB",
        "images" : [ {
          "height" : 640,
          "url" : "https://i.scdn.co/image/ab67616d0000b273f737f886f82e2315a07074f5",
          "width" : 640
        }, {
          "height" : 300,
          "url" : "https://i.scdn.co/image/ab67616d00001e02f737f886f82e2315a07074f5",
          "width" : 300
        }, {
          "height" : 64,
          "url" : "https://i.scdn.co/image/ab67616d00004851f737f886f82e2315a07074f5",
          "width" : 64
        } ],
        "name" : "Hymns 4 Worship, Vol. 2: Just As I Am",
        "release_date" : "2005-01-01",
        "release_date_precision" : "day",
        "total_tracks" : 22,
        "type" : "album",
        "uri" : "spotify:album:5oOGXLgQtWaqjMSxwAEYEB"
      },
      "artists" : [ {
        "external_urls" : {
          "spotify" : "https://open.spotify.com/artist/7pUnaNwiKa3p27L1EwB4X6"
        },
        "href" : "https://api.spotify.com/v1/artists/7pUnaNwiKa3p27L1EwB4X6",
        "id" : "7pUnaNwiKa3p27L1EwB4X6",
        "name" : "Israel Houghton",
        "type" : "artist",
        "uri" : "spotify:artist:7pUnaNwiKa3p27L1EwB4X6"
      } ],
      "disc_number" : 1,
      "duration_ms" : 323933,
      "explicit" : false,
      "external_ids" : {
        "isrc" : "US25L0500185"
      },
      "external_urls" : {
        "spotify" : "https://open.spotify.com/track/6lMfdYBbE620D4fhYpwxJ7"
      },
      "href" : "https://api.spotify.com/v1/tracks/6lMfdYBbE620D4fhYpwxJ7",
      "id" : "6lMfdYBbE620D4fhYpwxJ7",
      "is_local" : false,
      "is_playable" : true,
      "name" : "Great Is Thy Faithfulness",
      "popularity" : 35,
      "preview_url" : "https://p.scdn.co/mp3-preview/ddc42199295c2edad38838b9f80c43fe0177ed72?cid=774b29d4f13844c495f206cafdad9c86",
      "track_number" : 9,
      "type" : "track",
      "uri" : "spotify:track:6lMfdYBbE620D4fhYpwxJ7"
    }, {
      "album" : {
        "album_type" : "single",
        "artists" : [ {
          "external_urls" : {
            "spotify" : "https://open.spotify.com/artist/4Wm66SItUBLYFqJq03WH6d"
          },
          "href" : "https://api.spotify.com/v1/artists/4Wm66SItUBLYFqJq03WH6d",
          "id" : "4Wm66SItUBLYFqJq03WH6d",
          "name" : "John Tibbs",
          "type" : "artist",
          "uri" : "spotify:artist:4Wm66SItUBLYFqJq03WH6d"
        } ],
        "external_urls" : {
          "spotify" : "https://open.spotify.com/album/7H7wsylHSoC02ev7YQe2Gg"
        },
        "href" : "https://api.spotify.com/v1/albums/7H7wsylHSoC02ev7YQe2Gg",
        "id" : "7H7wsylHSoC02ev7YQe2Gg",
        "images" : [ {
          "height" : 640,
          "url" : "https://i.scdn.co/image/ab67616d0000b2732ddf6be23e97445b3f1d67d3",
          "width" : 640
        }, {
          "height" : 300,
          "url" : "https://i.scdn.co/image/ab67616d00001e022ddf6be23e97445b3f1d67d3",
          "width" : 300
        }, {
          "height" : 64,
          "url" : "https://i.scdn.co/image/ab67616d000048512ddf6be23e97445b3f1d67d3",
          "width" : 64
        } ],
        "name" : "Great Is Thy Faithfulness",
        "release_date" : "2020-04-24",
        "release_date_precision" : "day",
        "total_tracks" : 1,
        "type" : "album",
        "uri" : "spotify:album:7H7wsylHSoC02ev7YQe2Gg"
      },
      "artists" : [ {
        "external_urls" : {
          "spotify" : "https://open.spotify.com/artist/4Wm66SItUBLYFqJq03WH6d"
        },
        "href" : "https://api.spotify.com/v1/artists/4Wm66SItUBLYFqJq03WH6d",
        "id" : "4Wm66SItUBLYFqJq03WH6d",
        "name" : "John Tibbs",
        "type" : "artist",
        "uri" : "spotify:artist:4Wm66SItUBLYFqJq03WH6d"
      } ],
      "disc_number" : 1,
      "duration_ms" : 178979,
      "explicit" : false,
      "external_ids" : {
        "isrc" : "TCAES2096541"
      },
      "external_urls" : {
        "spotify" : "https://open.spotify.com/track/12MwcZFrHygU32VnqbFYNM"
      },
      "href" : "https://api.spotify.com/v1/tracks/12MwcZFrHygU32VnqbFYNM",
      "id" : "12MwcZFrHygU32VnqbFYNM",
      "is_local" : false,
      "is_playable" : true,
      "name" : "Great Is Thy Faithfulness",
      "popularity" : 27,
      "preview_url" : "https://p.scdn.co/mp3-preview/44b219bb41284637ce284b615f73db26287a776b?cid=774b29d4f13844c495f206cafdad9c86",
      "track_number" : 1,
      "type" : "track",
      "uri" : "spotify:track:12MwcZFrHygU32VnqbFYNM"
    }, {
      "album" : {
        "album_type" : "album",
        "artists" : [ {
          "external_urls" : {
            "spotify" : "https://open.spotify.com/artist/3qfrrrSO7utFdJkM2tvMRb"
          },
          "href" : "https://api.spotify.com/v1/artists/3qfrrrSO7utFdJkM2tvMRb",
          "id" : "3qfrrrSO7utFdJkM2tvMRb",
          "name" : "CeCe Winans",
          "type" : "artist",
          "uri" : "spotify:artist:3qfrrrSO7utFdJkM2tvMRb"
        } ],
        "external_urls" : {
          "spotify" : "https://open.spotify.com/album/71nz5Lyn5UQI8AeELu2BaZ"
        },
        "href" : "https://api.spotify.com/v1/albums/71nz5Lyn5UQI8AeELu2BaZ",
        "id" : "71nz5Lyn5UQI8AeELu2BaZ",
        "images" : [ {
          "height" : 640,
          "url" : "https://i.scdn.co/image/ab67616d0000b273a5eadf1bf45e20c076e12a92",
          "width" : 640
        }, {
          "height" : 300,
          "url" : "https://i.scdn.co/image/ab67616d00001e02a5eadf1bf45e20c076e12a92",
          "width" : 300
        }, {
          "height" : 64,
          "url" : "https://i.scdn.co/image/ab67616d00004851a5eadf1bf45e20c076e12a92",
          "width" : 64
        } ],
        "name" : "Alone In His Presence",
        "release_date" : "1995-01-01",
        "release_date_precision" : "day",
        "total_tracks" : 12,
        "type" : "album",
        "uri" : "spotify:album:71nz5Lyn5UQI8AeELu2BaZ"
      },
      "artists" : [ {
        "external_urls" : {
          "spotify" : "https://open.spotify.com/artist/3qfrrrSO7utFdJkM2tvMRb"
        },
        "href" : "https://api.spotify.com/v1/artists/3qfrrrSO7utFdJkM2tvMRb",
        "id" : "3qfrrrSO7utFdJkM2tvMRb",
        "name" : "CeCe Winans",
        "type" : "artist",
        "uri" : "spotify:artist:3qfrrrSO7utFdJkM2tvMRb"
      }, {
        "external_urls" : {
          "spotify" : "https://open.spotify.com/artist/5UMZOxh7uusc8idFcHNe7T"
        },
        "href" : "https://api.spotify.com/v1/artists/5UMZOxh7uusc8idFcHNe7T",
        "id" : "5UMZOxh7uusc8idFcHNe7T",
        "name" : "Delores \"Mom\" Winans",
        "type" : "artist",
        "uri" : "spotify:artist:5UMZOxh7uusc8idFcHNe7T"
      } ],
      "disc_number" : 1,
      "duration_ms" : 300666,
      "explicit" : false,
      "external_ids" : {
        "isrc" : "USSP39522284"
      },
      "external_urls" : {
        "spotify" : "https://open.spotify.com/track/26jEK23GYzHoLGIrZOyIDH"
      },
      "href" : "https://api.spotify.com/v1/tracks/26jEK23GYzHoLGIrZOyIDH",
      "id" : "26jEK23GYzHoLGIrZOyIDH",
      "is_local" : false,
      "is_playable" : true,
      "name" : "Great Is Thy Faithfulness",
      "popularity" : 28,
      "preview_url" : null,
      "track_number" : 7,
      "type" : "track",
      "uri" : "spotify:track:26jEK23GYzHoLGIrZOyIDH"
    } ],
    "limit" : 10,
    "next" : "https://api.spotify.com/v1/search?query=Great+Is+Thy+Faithfulness&type=track&market=US&offset=15&limit=10",
    "offset" : 5,
    "previous" : "https://api.spotify.com/v1/search?query=Great+Is+Thy+Faithfulness&type=track&market=US&offset=0&limit=10",
    "total" : 2037
  }
}