{
  "tracks" : {
    "href" : "https://api.spotify.com/v1/search?query=Wonderful+Peace&type=track&market=US&offset=5&limit=10",
    "items" : [ {
      "album" : {
        "album_type" : "album",
        "artists" : [ {
          "external_urls" : {
            "spotify" : "https://open.spotify.com/artist/02rd0anEWfMtF7iMku9uor"
          },
          "href" : "https://api.spotify.com/v1/artists/02rd0anEWfMtF7iMku9uor",
          "id" : "02rd0anEWfMtF7iMku9uor",
          "name" : "Reba McEntire",
          "type" : "artist",
          "uri" : "spotify:artist:02rd0anEWfMtF7iMku9uor"
        } ],
        "external_urls" : {
          "spotify" : "https://open.spotify.com/album/3zSyGvLk5FcLhC3BtbKr9z"
        },
        "href" : "https://api.spotify.com/v1/albums/3zSyGvLk5FcLhC3BtbKr9z",
        "id" : "3zSyGvLk5FcLhC3BtbKr9z",
        "images" : [ {
          "height" : 640,
          "url" : "https://i.scdn.co/image/ab67616d0000b273aa5abb4221a953c233d348d5",
          "width" : 640
        }, {
          "height" : 300,
          "url" : "https://i.scdn.co/image/ab67616d00001e02aa5abb4221a953c233d348d5",
          "width" : 300
        }, {
          "height" : 64,
          "url" : "https://i.scdn.co/image/ab67616d00004851aa5abb4221a953c233d348d5",
          "width" : 64
        } ],
        "name" : "Sing It Now: Songs Of Faith & Hope",
        "release_date" : "2017-02-03",
        "release_date_precision" : "day",
        "total_tracks" : 20,
        "type" : "album",
        "uri" : "spotify:album:3zSyGvLk5FcLhC3BtbKr9z"
      },
      "artists" : [ {
        "external_urls" : {
          "spotify" : "https://open.spotify.com/artist/02rd0anEWfMtF7iMku9uor"
        },
        "href" : "https://api.spotify.com/v1/artists/02rd0anEWfMtF7iMku9uor",
        "id" : "02rd0anEWfMtF7iMku9uor",
        "name" : "Reba McEntire",
        "type" : "artist",
        "uri" : "spotify:artist:02rd0anEWfMtF7iMku9uor"
      }, {
        "external_urls" : {
          "spotify" : "https://open.spotify.com/artist/7Gr7Uulfyw9J9F74eQfBOp"
        },
        "href" : "https://api.spotify.com/v1/artists/7Gr7Uulfyw9J9F74eQfBOp",
        "id" : "7Gr7Uulfyw9J9F74eQfBOp",
        "name" : "The Isaacs",
        "type" : "artist",
        "uri" : "spotify:artist:7Gr7Uulfyw9J9F74eQfBOp"
      } ],
      "disc_number" : 1,
      "duration_ms" : 238400,
      "explicit" : false,
      "external_ids" : {
        "isrc" : "QM7U91601192"
      },
      "external_urls" : {
        "spotify" : "https://open.spotify.com/track/03UTWivnGJBEXAviBBEjpv"
      },
      "href" : "https://api.spotify.com/v1/tracks/03UTWivnGJBEXAviBBEjpv",
      "id" : "03UTWivnGJBEXAviBBEjpv",
      "is_local" : false,
      "is_playable" : true,
      "name" : "In The Garden / Wonderful Peace (Medley)",
      "popularity" : 23,
      "preview_url" : null,
      "track_number" : 7,
      "type" : "track",
      "uri" : "spotify:track:03UTWivnGJBEXAviBBEjpv"
    }, {
      "album" : {
        "album_type" : "album",
        "artists" : [ {
          "external_urls" : {
            "spotify" : "https://open.spotify.com/artist/7dc9jcxR0GgRMoNasStnmZ"
          },
          "href" : "https://api.spotify.com/v1/artists/7dc9jcxR0GgRMoNasStnmZ",
          "id" : "7dc9jcxR0GgRMoNasStnmZ",
          "name" : "David Baroni",
          "type" : "artist",
          "uri" : "spotify:artist:7dc9jcxR0GgRMoNasStnmZ"
        } ],
        "external_urls" : {
          "spotify" : "https://open.spotify.com/album/3v5d84L20Em0KDCerybLGM"
        },
        "href" : "https://api.spotify.com/v1/albums/3v5d84L20Em0KDCerybLGM",
        "id" : "3v5d84L20Em0KDCerybLGM",
        "images" : [ {
          "height" : 640,
          "url" : "https://i.scdn.co/image/ab67616d0000b273d825268f7cc2b427162e7b8b",
          "width" : 640
        }, {
          "height" : 300,
          "url" : "https://i.scdn.co/image/ab67616d00001e02d825268f7cc2b427162e7b8b",
          "width" : 300
        }, {
          "height" : 64,
          "url" : "https://i.scdn.co/image/ab67616d00004851d825268f7cc2b427162e7b8b",
          "width" : 64
        } ],
        "name" : "Lullabyland Peaceful Instrumentals",
        "release_date" : "2010-08-26",
        "release_date_precision" : "day",
        "total_tracks" : 11,
        "type" : "album",
        "uri" : "spotify:album:3v5d84L20Em0KDCerybLGM"
      },
      "artists" : [ {
        "external_urls" : {
          "spotify" : "https://open.spotify.com/artist/7dc9jcxR0GgRMoNasStnmZ"
        },
        "href" : "https://api.spotify.com/v1/artists/7dc9jcxR0GgRMoNasStnmZ",
        "id" : "7dc9jcxR0GgRMoNasStnmZ",
        "name" : "David Baroni",
        "type" : "artist",
        "uri" : "spotify:artist:7dc9jcxR0GgRMoNasStnmZ"
      } ],
      "disc_number" : 1,
      "duration_ms" : 239986,
      "explicit" : false,
      "external_ids" : {
        "isrc" : "ushm81069103"
      },
      "external_urls" : {
        "spotify" : "https://open.spotify.com/track/2FLL0fB7oJ25jOIxzmxf4j"
      },
      "href" : "https://api.spotify.com/v1/tracks/2FLL0fB7oJ25jOIxzmxf4j",
      "id" : "2FLL0fB7oJ25jOIxzmxf4j",
      "is_local" : false,
      "is_playable" : true,
      "name" : "Peace Peace Wonderful Peace",
      "popularity" : 21,
      "preview_url" : "https://p.scdn.co/mp3-preview/719bc47211b9a0ed35b98bb456890b3f81abbef8?cid=774b29d4f13844c495f206cafdad9c86",
      "track_number" : 3,
      "type" : "track",
      "uri" : "spotify:track:2FLL0fB7oJ25jOIxzmxf4j"
    }, {
      "album" : {
        "album_type" : "album",
        "artists" : [ {
          "external_urls" : {
            "spotify" : "https://open.spotify.com/artist/1HcHZuLnCunrqb768Ynqc2"
          },
          "href" : "https://api.spotify.com/v1/artists/1HcHZuLnCunrqb768Ynqc2",
          "id" : "1HcHZuLnCunrqb768Ynqc2",
          "name" : "Fher Melchor",
          "type" : "artist",
          "uri" : "spotify:artist:1HcHZuLnCunrqb768Ynqc2"
        } ],
        "external_urls" : {
          "spotify" : "https://open.spotify.com/album/7vI06ZIUOQjmcvOkPQyOkf"
        },
        "href" : "https://api.spotify.com/v1/albums/7vI06ZIUOQjmcvOkPQyOkf",
        "id" : "7vI06ZIUOQjmcvOkPQyOkf",
        "images" : [ {
          "height" : 640,
          "url" : "https://i.scdn.co/image/ab67616d0000b273c2bfab21a9bfba1bd243496b",
          "width" : 640
        }, {
          "height" : 300,
          "url" : "https://i.scdn.co/image/ab67616d00001e02c2bfab21a9bfba1bd243496b",
          "width" : 300
        }, {
          "height" : 64,
          "url" : "https://i.scdn.co/image/ab67616d00004851c2bfab21a9bfba1bd243496b",
          "width" : 64
        } ],
        "name" : "Serenity",
        "release_date" : "2020-05-25",
        "release_date_precision" : "day",
        "total_tracks" : 11,
        "type" : "album",
        "uri" : "spotify:album:7vI06ZIUOQjmcvOkPQyOkf"
      },
      "artists" : [ {
        "external_urls" : {
          "spotify" : "https://open.spotify.com/artist/1HcHZuLnCunrqb768Ynqc2"
        },
        "href" : "https://api.spotify.com/v1/artists/1HcHZuLnCunrqb768Ynqc2",
        "id" : "1HcHZuLnCunrqb768Ynqc2",
        "name" : "Fher Melchor",
        "type" : "artist",
        "uri" : "spotify:artist:1HcHZuLnCunrqb768Ynqc2"
      } ],
      "disc_number" : 1,
      "duration_ms" : 215374,
      "explicit" : false,
      "external_ids" : {
        "isrc" : "TCAEW2029182"
      },
      "external_urls" : {
        "spotify" : "https://open.spotify.com/track/5kbOb1nLmNxxApLEFOzwLO"
      },
      "href" : "https://api.spotify.com/v1/tracks/5kbOb1nLmNxxApLEFOzwLO",
      "id" : "5kbOb1nLmNxxApLEFOzwLO",
      "is_local" : false,
      "is_playable" : true,
      "name" : "Wonderful Peace",
      "popularity" : 0,
      "preview_url" : "https://p.scdn.co/mp3-preview/638f34810edeef90b2d8749735a911d14c3e30b2?cid=774b29d4f13844c495f206cafdad9c86",
      "track_number" : 1,
      "type" : "track",
      "uri" : "spotify:track:5kbOb1nLmNxxApLEFOzwLO"
    }, {
      "album" : {
        "album_type" : "album",
        "artists" : [ {
          "external_urls" : {
            "spotify" : "https://open.spotify.com/artist/3eaniFJt2geIHxppZZuSHB"
          },
          "href" : "https://api.spotify.com/v1/artists/3eaniFJt2geIHxppZZuSHB",
          "id" : "3eaniFJt2geIHxppZZuSHB",
          "name" : "Everett Sanders",
          "type" : "artist",
          "uri" : "spotify:artist:3eaniFJt2geIHxppZZuSHB"
        } ],
        "external_urls" : {
          "spotify" : "https://open.spotify.com/album/0VXQwcBUUvgaMdOqLPdVsZ"
        },
        "href" : "https://api.spotify.com/v1/albums/0VXQwcBUUvgaMdOqLPdVsZ",
        "id" : "0VXQwcBUUvgaMdOqLPdVsZ",
        "images" : [ {
          "height" : 640,
          "url" : "https://i.scdn.co/image/ab67616d0000b273225d804024df90f2e2bfad45",
          "width" : 640
        }, {
          "height" : 300,
          "url" : "https://i.scdn.co/image/ab67616d00001e02225d804024df90f2e2bfad45",
          "width" : 300
        }, {
          "height" : 64,
          "url" : "https://i.scdn.co/image/ab67616d00004851225d804024df90f2e2bfad45",
          "width" : 64
        } ],
        "name" : "Like a River Glorious",
        "release_date" : "2020-05-21",
        "release_date_precision" : "day",
        "total_tracks" : 15,
        "type" : "album",
        "uri" : "spotify:album:0VXQwcBUUvgaMdOqLPdVsZ"
      },
      "artists" : [ {
        "external_urls" : {
          "spotify" : "https://open.spotify.com/artist/3eaniFJt2geIHxppZZuSHB"
        },
        "href" : "https://api.spotify.com/v1/artists/3eaniFJt2geIHxppZZuSHB",
        "id" : "3eaniFJt2geIHxppZZuSHB",
        "name" : "Everett Sanders",
        "type" : "artist",
        "uri" : "spotify:artist:3eaniFJt2geIHxppZZuSHB"
      } ],
      "disc_number" : 1,
      "duration_ms" : 194664,
      "explicit" : false,
      "external_ids" : {
        "isrc" : "QZHN42080612"
      },
      "external_urls" : {
        "spotify" : "https://open.spotify.com/track/1pBZVba95a8BL2OQkJMrnr"
      },
      "href" : "https://api.spotify.com/v1/tracks/1pBZVba95a8BL2OQkJMrnr",
      "id" : "1pBZVba95a8BL2OQkJMrnr",
      "is_local" : false,
      "is_playable" : true,
      "name" : "Wonderful Peace",
      "popularity" : 0,
      "preview_url" : "https://p.scdn.co/mp3-preview/3e0c1525bd599a590ae5a864557a69a4704d7764?cid=774b29d4f13844c495f206cafdad9c86",
      "track_number" : 14,
      "type" : "track",
      "uri" : "spotify:track:1pBZVba95a8BL2OQkJMrnr"
    }, {
      "album" : {
        "album_type" : "album",
        "artists" : [ {
          "external_urls" : {
            "spotify" : "https://open.spotify.com/artist/7tcO32rCmySD8yVY10wteq"
          },
          "href" : "https://api.spotify.com/v1/artists/7tcO32rCmySD8yVY10wteq",
          "id" : "7tcO32rCmySD8yVY10wteq",
          "name" : "The Sleepy Moon Symphony",
          "type" : "artist",
          "uri" : "spotify:artist:7tcO32rCmySD8yVY10wteq"
        } ],
        "external_urls" : {
          "spotify" : "https://open.spotify.com/album/1pZKCsqGfS8hbnXboBcfdY"
        },
        "href" : "https://api.spotify.com/v1/albums/1pZKCsqGfS8hbnXboBcfdY",
        "id" : "1pZKCsqGfS8hbnXboBcfdY",
        "images" : [ {
          "height" : 640,
          "url" : "https://i.scdn.co/image/ab67616d0000b2734fd007ed7e03485bb05d0cf9",
          "width" : 640
        }, {
          "height" : 300,
          "url" : "https://i.scdn.co/image/ab67616d00001e024fd007ed7e03485bb05d0cf9",
          "width" : 300
        }, {
          "height" : 64,
          "url" : "https://i.scdn.co/image/ab67616d000048514fd007ed7e03485bb05d0cf9",
          "width" : 64
        } ],
        "name" : "Peaceful Piano for Sleep",
        "release_date" : "2016-08-30",
        "release_date_precision" : "day",
        "total_tracks" : 48,
        "type" : "album",
        "uri" : "spotify:album:1pZKCsqGfS8hbnXboBcfdY"
      },
      "artists" : [ {
        "external_urls" : {
          "spotify" : "https://open.spotify.com/artist/7tcO32rCmySD8yVY10wteq"
        },
        "href" : "https://api.spotify.com/v1/artists/7tcO32rCmySD8yVY10wteq",
        "id" : "7tcO32rCmySD8yVY10wteq",
        "name" : "The Sleepy Moon Symphony",
        "type" : "artist",
        "uri" : "spotify:artist:7tcO32rCmySD8yVY10wteq"
      } ],
      "disc_number" : 2,
      "duration_ms" : 69578,
      "explicit" : false,
      "external_ids" : {
        "isrc" : "ushm21689055"
      },
      "external_urls" : {
        "spotify" : "https://open.spotify.com/track/5t6IYCYZKzSd1MQGUWz4uj"
      },
      "href" : "https://api.spotify.com/v1/tracks/5t6IYCYZKzSd1MQGUWz4uj",
      "id" : "5t6IYCYZKzSd1MQGUWz4uj",
      "is_local" : false,
      "is_playable" : true,
      "name" : "Silent Sleep and Wonderful Dreams with Soft Rain",
      "popularity" : 31,
      "preview_url" : "https://p.scdn.co/mp3-preview/bb2922ea909313e66c3bfd7c1cb023ca542554da?cid=774b29d4f13844c495f206cafdad9c86",
      "track_number" : 11,
      "type" : "track",
      "uri" : "spotify:track:5t6IYCYZKzSd1MQGUWz4uj"
    }, {
      "album" : {
        "album_type" : "album",
        "artists" : [ {
          "external_urls" : {
            "spotify" : "https://open.spotify.com/artist/7tcO32rCmySD8yVY10wteq"
          },
          "href" : "https://api.spotify.com/v1/artists/7tcO32rCmySD8yVY10wteq",
          "id" : "7tcO32rCmySD8yVY10wteq",
          "name" : "The Sleepy Moon Symphony",
          "type" : "artist",
          "uri" : "spotify:artist:7tcO32rCmySD8yVY10wteq"
        } ],
        "external_urls" : {
          "spotify" : "https://open.spotify.com/album/1pZKCsqGfS8hbnXboBcfdY"
        },
        "href" : "https://api.spotify.com/v1/albums/1pZKCsqGfS8hbnXboBcfdY",
        "id" : "1pZKCsqGfS8hbnXboBcfdY",
        "images" : [ {
          "height" : 640,
          "url" : "https://i.scdn.co/image/ab67616d0000b2734fd007ed7e03485bb05d0cf9",
          "width" : 640
        }, {
          "height" : 300,
          "url" : "https://i.scdn.co/image/ab67616d00001e024fd007ed7e03485bb05d0cf9",
          "width" : 300
        }, {
          "height" : 64,
          "url" : "https://i.scdn.co/image/ab67616d000048514fd007ed7e03485bb05d0cf9",
          "width" : 64
        } ],
        "name" : "Peaceful Piano for Sleep",
        "release_date" : "2016-08-30",
        "release_date_precision" : "day",
        "total_tracks" : 48,
        "type" : "album",
        "uri" : "spotify:album:1pZKCsqGfS8hbnXboBcfdY"
      },
      "artists" : [ {
        "external_urls" : {
          "spotify" : "https://open.spotify.com/artist/7tcO32rCmySD8yVY10wteq"
        },
        "href" : "https://api.spotify.com/v1/artists/7tcO32rCmySD8yVY10wteq",
        "id" : "7tcO32rCmySD8yVY10wteq",
        "name" : "The Sleepy Moon Symphony",
        "type" : "artist",
        "uri" : "spotify:artist:7tcO32rCmySD8yVY10wteq"
      } ],
      "disc_number" : 1,
      "duration_ms" : 67849,
      "explicit" : false,
      "external_ids" : {
        "isrc" : "ushm21689043"
      },
      "external_urls" : {
        "spotify" : "https://open.spotify.com/track/6YPLRkjuHQJWiYCSbZFWOM"
      },
      "href" : "https://api.spotify.com/v1/tracks/6YPLRkjuHQJWiYCSbZFWOM",
      "id" : "6YPLRkjuHQJWiYCSbZFWOM",
      "is_local" : false,
      "is_playable" : true,
      "name" : "Silent Sleep and Wonderful Dreams",
      "popularity" : 27,
      "preview_url" : "https://p.scdn.co/mp3-preview/548ca2b376680a90591ace169fa8971dc407a541?cid=774b29d4f13844c495f206cafdad9c86",
      "track_number" : 11,
      "type" : "track",
      "uri" : "spotify:track:6YPLRkjuHQJWiYCSbZFWOM"
    }, {
      "album" : {
        "album_type" : "album",
        "artists" : [ {
          "external_urls" : {
            "spotify" : "https://open.spotify.com/artist/6nXSnNEdLuKTzAQozRtqiI"
          },
          "href" : "https://api.spotify.com/v1/artists/6nXSnNEdLuKTzAQozRtqiI",
          "id" : "6nXSnNEdLuKTzAQozRtqiI",
          "name" : "M. Ward",
          "type" : "artist",
          "uri" : "spotify:artist:6nXSnNEdLuKTzAQozRtqiI"
        } ],
        "external_urls" : {
          "spotify" : "https://open.spotify.com/album/6XDiiO4kM8YEJfXnSuD8ym"
        },
        "href" : "https://api.spotify.com/v1/albums/6XDiiO4kM8YEJfXnSuD8ym",
        "id" : "6XDiiO4kM8YEJfXnSuD8ym",
        "images" : [ {
          "height" : 640,
          "url" : "https://i.scdn.co/image/ab67616d0000b273fe0d1a4e9f261d20a5f8c1c9",
          "width" : 640
        }, {
          "height" : 300,
          "url" : "https://i.scdn.co/image/ab67616d00001e02fe0d1a4e9f261d20a5f8c1c9",
          "width" : 300
        }, {
          "height" : 64,
          "url" : "https://i.scdn.co/image/ab67616d00004851fe0d1a4e9f261d20a5f8c1c9",
          "width" : 64
        } ],
        "name" : "What a Wonderful Industry",
        "release_date" : "2018-06-08",
        "release_date_precision" : "day",
        "total_tracks" : 12,
        "type" : "album",
        "uri" : "spotify:album:6XDiiO4kM8YEJfXnSuD8ym"
      },
      "artists" : [ {
        "external_urls" : {
          "spotify" : "https://open.spotify.com/artist/6nXSnNEdLuKTzAQozRtqiI"
        },
        "href" : "https://api.spotify.com/v1/artists/6nXSnNEdLuKTzAQozRtqiI",
        "id" : "6nXSnNEdLuKTzAQozRtqiI",
        "name" : "M. Ward",
        "type" : "artist",
        "uri" : "spotify:artist:6nXSnNEdLuKTzAQozRtqiI"
      } ],
      "disc_number" : 1,
      "duration_ms" : 211760,
      "explicit" : false,
      "external_ids" : {
        "isrc" : "TCADR1829230"
      },
      "external_urls" : {
        "spotify" : "https://open.spotify.com/track/43EjROaLrbFRD0ryjcMWcB"
      },
      "href" : "https://api.spotify.com/v1/tracks/43EjROaLrbFRD0ryjcMWcB",
      "id" : "43EjROaLrbFRD0ryjcMWcB",
      "is_local" : false,
      "is_playable" : true,
      "name" : "War & Peace",
      "popularity" : 23,
      "preview_url" : "https://p.scdn.co/mp3-preview/a8401a38037bbc9ca303df1e126453b8bcd8b965?cid=774b29d4f13844c495f206cafdad9c86",
      "track_number" : 11,
      "type" : "track",
      "uri" : "spotify:track:43EjROaLrbFRD0ryjcMWcB"
    }, {
      "album" : {
        "album_type" : "album",
        "artists" : [ {
          "external_urls" : {
            "spotify" : "https://open.spotify.com/artist/7tMAjOyRSfmuyinnMOFa5M"
          },
          "href" : "https://api.spotify.com/v1/artists/7tMAjOyRSfmuyinnMOFa5M",
          "id" : "7tMAjOyRSfmuyinnMOFa5M",
          "name" : "Red Grammer",
          "type" : "artist",
          "uri" : "spotify:artist:7tMAjOyRSfmuyinnMOFa5M"
        } ],
        "external_urls" : {
          "spotify" : "https://open.spotify.com/album/5gTRqJWihEp6RzqNAKoqwK"
        },
        "href" : "https://api.spotify.com/v1/albums/5gTRqJWihEp6RzqNAKoqwK",
        "id" : "5gTRqJWihEp6RzqNAKoqwK",
        "images" : [ {
          "height" : 640,
          "url" : "https://i.scdn.co/image/ab67616d0000b2735f9baee8544898217271f05f",
          "width" : 640
        }, {
          "height" : 300,
          "url" : "https://i.scdn.co/image/ab67616d00001e025f9baee8544898217271f05f",
          "width" : 300
        }, {
          "height" : 64,
          "url" : "https://i.scdn.co/image/ab67616d000048515f9baee8544898217271f05f",
          "width" : 64
        } ],
        "name" : "Teaching Peace",
        "release_date" : "1986",
        "release_date_precision" : "year",
        "total_tracks" : 12,
        "type" : "album",
        "uri" : "spotify:album:5gTRqJWihEp6RzqNAKoqwK"
      },
      "artists" : [ {
        "external_urls" : {
          "spotify" : "https://open.spotify.com/artist/7tMAjOyRSfmuyinnMOFa5M"
        },
        "href" : "https://api.spotify.com/v1/artists/7tMAjOyRSfmuyinnMOFa5M",
        "id" : "7tMAjOyRSfmuyinnMOFa5M",
        "name" : "Red Grammer",
        "type" : "artist",
        "uri" : "spotify:artist:7tMAjOyRSfmuyinnMOFa5M"
      } ],
      "disc_number" : 1,
      "duration_ms" : 166173,
      "explicit" : false,
      "external_ids" : {
        "isrc" : "usbxm0610204"
      },
      "external_urls" : {
        "spotify" : "https://open.spotify.com/track/4XvXDeOU2XiAbKjNyyW0Em"
      },
      "href" : "https://api.spotify.com/v1/tracks/4XvXDeOU2XiAbKjNyyW0Em",
      "id" : "4XvXDeOU2XiAbKjNyyW0Em",
      "is_local" : false,
      "is_playable" : true,
      "name" : "I Think You're Wonderful",
      "popularity" : 21,
      "preview_url" : "https://p.scdn.co/mp3-preview/99d2efab4d627936fc39776b8cb539491a43bbc9?cid=774b29d4f13844c495f206cafdad9c86",
      "track_number" : 4,
      "type" : "track",
      "uri" : "spotify:track:4XvXDeOU2XiAbKjNyyW0Em"
    }, {
      "album" : {
        "album_type" : "album",
        "artists" : [ {
          "external_urls" : {
            "spotify" : "https://open.spotify.com/artist/7tcO32rCmySD8yVY10wteq"
          },
          "href" : "https://api.spotify.com/v1/artists/7tcO32rCmySD8yVY10wteq",
          "id" : "7tcO32rCmySD8yVY10wteq",
          "name" : "The Sleepy Moon Symphony",
          "type" : "artist",
          "uri" : "spotify:artist:7tcO32rCmySD8yVY10wteq"
        } ],
        "external_urls" : {
          "spotify" : "https://open.spotify.com/album/1pZKCsqGfS8hbnXboBcfdY"
        },
        "href" : "https://api.spotify.com/v1/albums/1pZKCsqGfS8hbnXboBcfdY",
        "id" : "1pZKCsqGfS8hbnXboBcfdY",
        "images" : [ {
          "height" : 640,
          "url" : "https://i.scdn.co/image/ab67616d0000b2734fd007ed7e03485bb05d0cf9",
          "width" : 640
        }, {
          "height" : 300,
          "url" : "https://i.scdn.co/image/ab67616d00001e024fd007ed7e03485bb05d0cf9",
          "width" : 300
        }, {
          "height" : 64,
          "url" : "https://i.scdn.co/image/ab67616d000048514fd007ed7e03485bb05d0cf9",
          "width" : 64
        } ],
        "name" : "Peaceful Piano for Sleep",
        "release_date" : "2016-08-30",
        "release_date_precision" : "day",
        "total_tracks" : 48,
        "type" : "album",
        "uri" : "spotify:album:1pZKCsqGfS8hbnXboBcfdY"
      },
      "artists" : [ {
        "external_urls" : {
          "spotify" : "https://open.spotify.com/artist/7tcO32rCmySD8yVY10wteq"
        },
        "href" : "https://api.spotify.com/v1/artists/7tcO32rCmySD8yVY10wteq",
        "id" : "7tcO32rCmySD8yVY10wteq",
        "name" : "The Sleepy Moon Symphony",
        "type" : "artist",
        "uri" : "spotify:artist:7tcO32rCmySD8yVY10wteq"
      } ],
      "disc_number" : 4,
      "duration_ms" : 69578,
      "explicit" : false,
      "external_ids" : {
        "isrc" : "ushm21689079"
      },
      "external_urls" : {
        "spotify" : "https://open.spotify.com/track/1i9IQJ96dxPDAjorUuugCI"
      },
      "href" : "https://api.spotify.com/v1/tracks/1i9IQJ96dxPDAjorUuugCI",
      "id" : "1i9IQJ96dxPDAjorUuugCI",
      "is_local" : false,
      "is_playable" : true,
      "name" : "Silent Sleep and Wonderful Dreams with Ocean Waves",
      "popularity" : 24,
      "preview_url" : "https://p.scdn.co/mp3-preview/7b44009a5af3ed1f497d81c72e519628d8d58f06?cid=774b29d4f13844c495f206cafdad9c86",
      "track_number" : 11,
      "type" : "track",
      "uri" : "spotify:track:1i9IQJ96dxPDAjorUuugCI"
    }, {
      "album" : {
        "album_type" : "album",
        "artists" : [ {
          "external_urls" : {
            "spotify" : "https://open.spotify.com/artist/1lqW59DUEKqvcHc8mVWBtH"
          },
          "href" : "https://api.spotify.com/v1/artists/1lqW59DUEKqvcHc8mVWBtH",
          "id" : "1lqW59DUEKqvcHc8mVWBtH",
          "name" : "Our Lady Peace",
          "type" : "artist",
          "uri" : "spotify:artist:1lqW59DUEKqvcHc8mVWBtH"
        } ],
        "external_urls" : {
          "spotify" : "https://open.spotify.com/album/341DoqBcJDTwNzoGH1fP0K"
        },
        "href" : "https://api.spotify.com/v1/albums/341DoqBcJDTwNzoGH1fP0K",
        "id" : "341DoqBcJDTwNzoGH1fP0K",
        "images" : [ {
          "height" : 640,
          "url" : "https://i.scdn.co/image/ab67616d0000b273ff8a8ccc97c77d15c81441eb",
          "width" : 640
        }, {
          "height" : 300,
          "url" : "https://i.scdn.co/image/ab67616d00001e02ff8a8ccc97c77d15c81441eb",
          "width" : 300
        }, {
          "height" : 64,
          "url" : "https://i.scdn.co/image/ab67616d00004851ff8a8ccc97c77d15c81441eb",
          "width" : 64
        } ],
        "name" : "Spiritual Machines",
        "release_date" : "2000",
        "release_date_precision" : "year",
        "total_tracks" : 15,
        "type" : "album",
        "uri" : "spotify:album:341DoqBcJDTwNzoGH1fP0K"
      },
      "artists" : [ {
        "external_urls" : {
          "spotify" : "https://open.spotify.com/artist/1lqW59DUEKqvcHc8mVWBtH"
        },
        "href" : "https://api.spotify.com/v1/artists/1lqW59DUEKqvcHc8mVWBtH",
        "id" : "1lqW59DUEKqvcHc8mVWBtH",
        "name" : "Our Lady Peace",
        "type" : "artist",
        "uri" : "spotify:artist:1lqW59DUEKqvcHc8mVWBtH"
      } ],
      "disc_number" : 1,
      "duration_ms" : 1200426,
      "explicit" : false,
      "external_ids" : {
        "isrc" : "CAC220000120"
      },
      "external_urls" : {
        "spotify" : "https://open.spotify.com/track/6JXsGAwiDvtmsJ14Ng8aIG"
      },
      "href" : "https://api.spotify.com/v1/tracks/6JXsGAwiDvtmsJ14Ng8aIG",
      "id" : "6JXsGAwiDvtmsJ14Ng8aIG",
      "is_local" : false,
      "is_playable" : true,
      "name" : "The Wonderful Future",
      "popularity" : 20,
      "preview_url" : "https://p.scdn.co/mp3-preview/0613213701d8bf371095c5bf0e84d196f105f857?cid=774b29d4f13844c495f206cafdad9c86",
      "track_number" : 15,
      "type" : "track",
      "uri" : "spotify:track:6JXsGAwiDvtmsJ14Ng8aIG"
    } ],
    "limit" : 10,
    "next" : "https://api.spotify.com/v1/search?query=Wonderful+Peace&type=track&market=US&offset=15&limit=10",
    "offset" : 5,
    "previous" : "https://api.spotify.com/v1/search?query=Wonderful+Peace&type=track&market=US&offset=0&limit=10",
    "total" : 3018
  }
}