{
  "tracks" : {
    "href" : "https://api.spotify.com/v1/search?query=O+Let+Me+Walk+With+Thee&type=track&market=US&offset=5&limit=10",
    "items" : [ {
      "album" : {
        "album_type" : "album",
        "artists" : [ {
          "external_urls" : {
            "spotify" : "https://open.spotify.com/artist/4MjIScVQA0Swbl1WxaKYoC"
          },
          "href" : "https://api.spotify.com/v1/artists/4MjIScVQA0Swbl1WxaKYoC",
          "id" : "4MjIScVQA0Swbl1WxaKYoC",
          "name" : "Susan Mack & Ellen Hanna",
          "type" : "artist",
          "uri" : "spotify:artist:4MjIScVQA0Swbl1WxaKYoC"
        } ],
        "external_urls" : {
          "spotify" : "https://open.spotify.com/album/1jxqxtO48NMHM0GBxfqGHH"
        },
        "href" : "https://api.spotify.com/v1/albums/1jxqxtO48NMHM0GBxfqGHH",
        "id" : "1jxqxtO48NMHM0GBxfqGHH",
        "images" : [ {
          "height" : 640,
          "url" : "https://i.scdn.co/image/ab67616d0000b273d8019206d7bbf29c9792544e",
          "width" : 640
        }, {
          "height" : 300,
          "url" : "https://i.scdn.co/image/ab67616d00001e02d8019206d7bbf29c9792544e",
          "width" : 300
        }, {
          "height" : 64,
          "url" : "https://i.scdn.co/image/ab67616d00004851d8019206d7bbf29c9792544e",
          "width" : 64
        } ],
        "name" : "His Tender Love And Watchful Care",
        "release_date" : "2006-03-09",
        "release_date_precision" : "day",
        "total_tracks" : 12,
        "type" : "album",
        "uri" : "spotify:album:1jxqxtO48NMHM0GBxfqGHH"
      },
      "artists" : [ {
        "external_urls" : {
          "spotify" : "https://open.spotify.com/artist/4MjIScVQA0Swbl1WxaKYoC"
        },
        "href" : "https://api.spotify.com/v1/artists/4MjIScVQA0Swbl1WxaKYoC",
        "id" : "4MjIScVQA0Swbl1WxaKYoC",
        "name" : "Susan Mack & Ellen Hanna",
        "type" : "artist",
        "uri" : "spotify:artist:4MjIScVQA0Swbl1WxaKYoC"
      } ],
      "disc_number" : 1,
      "duration_ms" : 146386,
      "explicit" : false,
      "external_ids" : {
        "isrc" : "ushm80638227"
      },
      "external_urls" : {
        "spotify" : "https://open.spotify.com/track/3lRdNIb2i88VsMpiuaPw2R"
      },
      "href" : "https://api.spotify.com/v1/tracks/3lRdNIb2i88VsMpiuaPw2R",
      "id" : "3lRdNIb2i88VsMpiuaPw2R",
      "is_local" : false,
      "is_playable" : true,
      "name" : "O Master, Let Me Walk With Thee",
      "popularity" : 6,
      "preview_url" : "https://p.scdn.co/mp3-preview/5a90131c9ef1eb849319c7481266585d69d2ebb0?cid=774b29d4f13844c495f206cafdad9c86",
      "track_number" : 4,
      "type" : "track",
      "uri" : "spotify:track:3lRdNIb2i88VsMpiuaPw2R"
    }, {
      "album" : {
        "album_type" : "album",
        "artists" : [ {
          "external_urls" : {
            "spotify" : "https://open.spotify.com/artist/4Row5ZexEocO371edZivCt"
          },
          "href" : "https://api.spotify.com/v1/artists/4Row5ZexEocO371edZivCt",
          "id" : "4Row5ZexEocO371edZivCt",
          "name" : "Gary Prim",
          "type" : "artist",
          "uri" : "spotify:artist:4Row5ZexEocO371edZivCt"
        } ],
        "external_urls" : {
          "spotify" : "https://open.spotify.com/album/7LSSKW7IwX2UyXc1i6zNFB"
        },
        "href" : "https://api.spotify.com/v1/albums/7LSSKW7IwX2UyXc1i6zNFB",
        "id" : "7LSSKW7IwX2UyXc1i6zNFB",
        "images" : [ {
          "height" : 640,
          "url" : "https://i.scdn.co/image/ab67616d0000b27329f4cde2c8293f9ec9fa1340",
          "width" : 640
        }, {
          "height" : 300,
          "url" : "https://i.scdn.co/image/ab67616d00001e0229f4cde2c8293f9ec9fa1340",
          "width" : 300
        }, {
          "height" : 64,
          "url" : "https://i.scdn.co/image/ab67616d0000485129f4cde2c8293f9ec9fa1340",
          "width" : 64
        } ],
        "name" : "Peaceful Praise",
        "release_date" : "2007-05-07",
        "release_date_precision" : "day",
        "total_tracks" : 17,
        "type" : "album",
        "uri" : "spotify:album:7LSSKW7IwX2UyXc1i6zNFB"
      },
      "artists" : [ {
        "external_urls" : {
          "spotify" : "https://open.spotify.com/artist/4Row5ZexEocO371edZivCt"
        },
        "href" : "https://api.spotify.com/v1/artists/4Row5ZexEocO371edZivCt",
        "id" : "4Row5ZexEocO371edZivCt",
        "name" : "Gary Prim",
        "type" : "artist",
        "uri" : "spotify:artist:4Row5ZexEocO371edZivCt"
      } ],
      "disc_number" : 1,
      "duration_ms" : 159666,
      "explicit" : false,
      "external_ids" : {
        "isrc" : "US3TS0900124"
      },
      "external_urls" : {
        "spotify" : "https://open.spotify.com/track/6AUM2IY2JDVYSKy8jGWZUs"
      },
      "href" : "https://api.spotify.com/v1/tracks/6AUM2IY2JDVYSKy8jGWZUs",
      "id" : "6AUM2IY2JDVYSKy8jGWZUs",
      "is_local" : false,
      "is_playable" : true,
      "name" : "O Master, Let Me Walk With Thee",
      "popularity" : 5,
      "preview_url" : "https://p.scdn.co/mp3-preview/26b021df0c4d10a50205600a9f2c9af793dd84f3?cid=774b29d4f13844c495f206cafdad9c86",
      "track_number" : 13,
      "type" : "track",
      "uri" : "spotify:track:6AUM2IY2JDVYSKy8jGWZUs"
    }, {
      "album" : {
        "album_type" : "album",
        "artists" : [ {
          "external_urls" : {
            "spotify" : "https://open.spotify.com/artist/6yHjh2kS1GE4StjNCe5vm0"
          },
          "href" : "https://api.spotify.com/v1/artists/6yHjh2kS1GE4StjNCe5vm0",
          "id" : "6yHjh2kS1GE4StjNCe5vm0",
          "name" : "Mark Baldwin",
          "type" : "artist",
          "uri" : "spotify:artist:6yHjh2kS1GE4StjNCe5vm0"
        } ],
        "external_urls" : {
          "spotify" : "https://open.spotify.com/album/5DQUkwkFJEm7qRyXqwVGdC"
        },
        "href" : "https://api.spotify.com/v1/albums/5DQUkwkFJEm7qRyXqwVGdC",
        "id" : "5DQUkwkFJEm7qRyXqwVGdC",
        "images" : [ {
          "height" : 640,
          "url" : "https://i.scdn.co/image/ab67616d0000b2731e2a71acd32b4602f8a90f06",
          "width" : 640
        }, {
          "height" : 300,
          "url" : "https://i.scdn.co/image/ab67616d00001e021e2a71acd32b4602f8a90f06",
          "width" : 300
        }, {
          "height" : 64,
          "url" : "https://i.scdn.co/image/ab67616d000048511e2a71acd32b4602f8a90f06",
          "width" : 64
        } ],
        "name" : "Our Daily Bread - Hymns of Service",
        "release_date" : "2013-09-01",
        "release_date_precision" : "day",
        "total_tracks" : 10,
        "type" : "album",
        "uri" : "spotify:album:5DQUkwkFJEm7qRyXqwVGdC"
      },
      "artists" : [ {
        "external_urls" : {
          "spotify" : "https://open.spotify.com/artist/6yHjh2kS1GE4StjNCe5vm0"
        },
        "href" : "https://api.spotify.com/v1/artists/6yHjh2kS1GE4StjNCe5vm0",
        "id" : "6yHjh2kS1GE4StjNCe5vm0",
        "name" : "Mark Baldwin",
        "type" : "artist",
        "uri" : "spotify:artist:6yHjh2kS1GE4StjNCe5vm0"
      } ],
      "disc_number" : 1,
      "duration_ms" : 116986,
      "explicit" : false,
      "external_ids" : {
        "isrc" : "USLF50801687"
      },
      "external_urls" : {
        "spotify" : "https://open.spotify.com/track/1wODwsbVdO0y8LTUpc3z9S"
      },
      "href" : "https://api.spotify.com/v1/tracks/1wODwsbVdO0y8LTUpc3z9S",
      "id" : "1wODwsbVdO0y8LTUpc3z9S",
      "is_local" : false,
      "is_playable" : true,
      "name" : "O Master, Let Me Walk with Thee",
      "popularity" : 9,
      "preview_url" : "https://p.scdn.co/mp3-preview/02c1534c249418f4a5bb43cdcb011ff388c84bbf?cid=774b29d4f13844c495f206cafdad9c86",
      "track_number" : 2,
      "type" : "track",
      "uri" : "spotify:track:1wODwsbVdO0y8LTUpc3z9S"
    }, {
      "album" : {
        "album_type" : "compilation",
        "artists" : [ {
          "external_urls" : {
            "spotify" : "https://open.spotify.com/artist/0LyfQWJT6nXafLPZqxe9Of"
          },
          "href" : "https://api.spotify.com/v1/artists/0LyfQWJT6nXafLPZqxe9Of",
          "id" : "0LyfQWJT6nXafLPZqxe9Of",
          "name" : "Various Artists",
          "type" : "artist",
          "uri" : "spotify:artist:0LyfQWJT6nXafLPZqxe9Of"
        } ],
        "external_urls" : {
          "spotify" : "https://open.spotify.com/album/2469YtMzpDabTl9fziUaHu"
        },
        "href" : "https://api.spotify.com/v1/albums/2469YtMzpDabTl9fziUaHu",
        "id" : "2469YtMzpDabTl9fziUaHu",
        "images" : [ {
          "height" : 640,
          "url" : "https://i.scdn.co/image/ab67616d0000b273a26b5da4c14cdf6df7fbf8de",
          "width" : 640
        }, {
          "height" : 300,
          "url" : "https://i.scdn.co/image/ab67616d00001e02a26b5da4c14cdf6df7fbf8de",
          "width" : 300
        }, {
          "height" : 64,
          "url" : "https://i.scdn.co/image/ab67616d00004851a26b5da4c14cdf6df7fbf8de",
          "width" : 64
        } ],
        "name" : "50 Best-Loved Hymns (Old and New)",
        "release_date" : "2013-10-22",
        "release_date_precision" : "day",
        "total_tracks" : 50,
        "type" : "album",
        "uri" : "spotify:album:2469YtMzpDabTl9fziUaHu"
      },
      "artists" : [ {
        "external_urls" : {
          "spotify" : "https://open.spotify.com/artist/2dFERzp3MC4j4iOT8iqmHw"
        },
        "href" : "https://api.spotify.com/v1/artists/2dFERzp3MC4j4iOT8iqmHw",
        "id" : "2dFERzp3MC4j4iOT8iqmHw",
        "name" : "Rachel Robinson",
        "type" : "artist",
        "uri" : "spotify:artist:2dFERzp3MC4j4iOT8iqmHw"
      } ],
      "disc_number" : 1,
      "duration_ms" : 195520,
      "explicit" : false,
      "external_ids" : {
        "isrc" : "USRDG0610473"
      },
      "external_urls" : {
        "spotify" : "https://open.spotify.com/track/0rNOKUQaDWoQG1lyXo3qFu"
      },
      "href" : "https://api.spotify.com/v1/tracks/0rNOKUQaDWoQG1lyXo3qFu",
      "id" : "0rNOKUQaDWoQG1lyXo3qFu",
      "is_local" : false,
      "is_playable" : true,
      "name" : "O Master, Let Me Walk with Thee",
      "popularity" : 6,
      "preview_url" : "https://p.scdn.co/mp3-preview/a8751653045ba13c15068a05038089e5fce439e2?cid=774b29d4f13844c495f206cafdad9c86",
      "track_number" : 24,
      "type" : "track",
      "uri" : "spotify:track:0rNOKUQaDWoQG1lyXo3qFu"
    }, {
      "album" : {
        "album_type" : "album",
        "artists" : [ {
          "external_urls" : {
            "spotify" : "https://open.spotify.com/artist/6zCKr405jB5b6QI1IfFnf2"
          },
          "href" : "https://api.spotify.com/v1/artists/6zCKr405jB5b6QI1IfFnf2",
          "id" : "6zCKr405jB5b6QI1IfFnf2",
          "name" : "Dallas Christian Adult Concert Choir",
          "type" : "artist",
          "uri" : "spotify:artist:6zCKr405jB5b6QI1IfFnf2"
        }, {
          "external_urls" : {
            "spotify" : "https://open.spotify.com/artist/3MJUsEcavOpd7TBTrlUt0f"
          },
          "href" : "https://api.spotify.com/v1/artists/3MJUsEcavOpd7TBTrlUt0f",
          "id" : "3MJUsEcavOpd7TBTrlUt0f",
          "name" : "Harding University Concert Choir",
          "type" : "artist",
          "uri" : "spotify:artist:3MJUsEcavOpd7TBTrlUt0f"
        }, {
          "external_urls" : {
            "spotify" : "https://open.spotify.com/artist/13vi392E4vdrP8SV0ahXIb"
          },
          "href" : "https://api.spotify.com/v1/artists/13vi392E4vdrP8SV0ahXIb",
          "id" : "13vi392E4vdrP8SV0ahXIb",
          "name" : "David Slater",
          "type" : "artist",
          "uri" : "spotify:artist:13vi392E4vdrP8SV0ahXIb"
        } ],
        "external_urls" : {
          "spotify" : "https://open.spotify.com/album/4MTutdpp7ZQ9sbIrxE77ei"
        },
        "href" : "https://api.spotify.com/v1/albums/4MTutdpp7ZQ9sbIrxE77ei",
        "id" : "4MTutdpp7ZQ9sbIrxE77ei",
        "images" : [ {
          "height" : 640,
          "url" : "https://i.scdn.co/image/ab67616d0000b2735f62f49beb2633d7a22345ea",
          "width" : 640
        }, {
          "height" : 300,
          "url" : "https://i.scdn.co/image/ab67616d00001e025f62f49beb2633d7a22345ea",
          "width" : 300
        }, {
          "height" : 64,
          "url" : "https://i.scdn.co/image/ab67616d000048515f62f49beb2633d7a22345ea",
          "width" : 64
        } ],
        "name" : "The Power and Glory of Our Eternal Home",
        "release_date" : "2014-02-27",
        "release_date_precision" : "day",
        "total_tracks" : 22,
        "type" : "album",
        "uri" : "spotify:album:4MTutdpp7ZQ9sbIrxE77ei"
      },
      "artists" : [ {
        "external_urls" : {
          "spotify" : "https://open.spotify.com/artist/13vi392E4vdrP8SV0ahXIb"
        },
        "href" : "https://api.spotify.com/v1/artists/13vi392E4vdrP8SV0ahXIb",
        "id" : "13vi392E4vdrP8SV0ahXIb",
        "name" : "David Slater",
        "type" : "artist",
        "uri" : "spotify:artist:13vi392E4vdrP8SV0ahXIb"
      }, {
        "external_urls" : {
          "spotify" : "https://open.spotify.com/artist/6G5rE1WKZG3teME8Qx0HEl"
        },
        "href" : "https://api.spotify.com/v1/artists/6G5rE1WKZG3teME8Qx0HEl",
        "id" : "6G5rE1WKZG3teME8Qx0HEl",
        "name" : "Providence Quartet",
        "type" : "artist",
        "uri" : "spotify:artist:6G5rE1WKZG3teME8Qx0HEl"
      } ],
      "disc_number" : 1,
      "duration_ms" : 115840,
      "explicit" : false,
      "external_ids" : {
        "isrc" : "QMFME1449201"
      },
      "external_urls" : {
        "spotify" : "https://open.spotify.com/track/23ndwZh9UxK1k6hjNrUpzQ"
      },
      "href" : "https://api.spotify.com/v1/tracks/23ndwZh9UxK1k6hjNrUpzQ",
      "id" : "23ndwZh9UxK1k6hjNrUpzQ",
      "is_local" : false,
      "is_playable" : true,
      "name" : "O Master, Let Me Walk with Thee",
      "popularity" : 6,
      "preview_url" : "https://p.scdn.co/mp3-preview/d81736e2b5060db4d21ee5d63b845abf95e639de?cid=774b29d4f13844c495f206cafdad9c86",
      "track_number" : 12,
      "type" : "track",
      "uri" : "spotify:track:23ndwZh9UxK1k6hjNrUpzQ"
    }, {
      "album" : {
        "album_type" : "album",
        "artists" : [ {
          "external_urls" : {
            "spotify" : "https://open.spotify.com/artist/6PZYFmF3PH6cOREAzfXiAL"
          },
          "href" : "https://api.spotify.com/v1/artists/6PZYFmF3PH6cOREAzfXiAL",
          "id" : "6PZYFmF3PH6cOREAzfXiAL",
          "name" : "The Countdown Kids",
          "type" : "artist",
          "uri" : "spotify:artist:6PZYFmF3PH6cOREAzfXiAL"
        } ],
        "external_urls" : {
          "spotify" : "https://open.spotify.com/album/5cCs99eMsdLYsDlyuH9FxF"
        },
        "href" : "https://api.spotify.com/v1/albums/5cCs99eMsdLYsDlyuH9FxF",
        "id" : "5cCs99eMsdLYsDlyuH9FxF",
        "images" : [ {
          "height" : 640,
          "url" : "https://i.scdn.co/image/ab67616d0000b273d3471a4277d43735cb9a04c3",
          "width" : 640
        }, {
          "height" : 300,
          "url" : "https://i.scdn.co/image/ab67616d00001e02d3471a4277d43735cb9a04c3",
          "width" : 300
        }, {
          "height" : 64,
          "url" : "https://i.scdn.co/image/ab67616d00004851d3471a4277d43735cb9a04c3",
          "width" : 64
        } ],
        "name" : "Easter Songs & Hymns for Kids",
        "release_date" : "2020-03-27",
        "release_date_precision" : "day",
        "total_tracks" : 20,
        "type" : "album",
        "uri" : "spotify:album:5cCs99eMsdLYsDlyuH9FxF"
      },
      "artists" : [ {
        "external_urls" : {
          "spotify" : "https://open.spotify.com/artist/6PZYFmF3PH6cOREAzfXiAL"
        },
        "href" : "https://api.spotify.com/v1/artists/6PZYFmF3PH6cOREAzfXiAL",
        "id" : "6PZYFmF3PH6cOREAzfXiAL",
        "name" : "The Countdown Kids",
        "type" : "artist",
        "uri" : "spotify:artist:6PZYFmF3PH6cOREAzfXiAL"
      } ],
      "disc_number" : 1,
      "duration_ms" : 92000,
      "explicit" : false,
      "external_ids" : {
        "isrc" : "CAM460701493"
      },
      "external_urls" : {
        "spotify" : "https://open.spotify.com/track/6RCX5GaQG5tMj9fp04OIjw"
      },
      "href" : "https://api.spotify.com/v1/tracks/6RCX5GaQG5tMj9fp04OIjw",
      "id" : "6RCX5GaQG5tMj9fp04OIjw",
      "is_local" : false,
      "is_playable" : true,
      "name" : "O Master, Let Me Walk with Thee",
      "popularity" : 7,
      "preview_url" : "https://p.scdn.co/mp3-preview/995c283f192ca727a9ca574414ebe56714c638fb?cid=774b29d4f13844c495f206cafdad9c86",
      "track_number" : 16,
      "type" : "track",
      "uri" : "spotify:track:6RCX5GaQG5tMj9fp04OIjw"
    }, {
      "album" : {
        "album_type" : "album",
        "artists" : [ {
          "external_urls" : {
            "spotify" : "https://open.spotify.com/artist/1iEr9JmktmIMlaDLcSZFAL"
          },
          "href" : "https://api.spotify.com/v1/artists/1iEr9JmktmIMlaDLcSZFAL",
          "id" : "1iEr9JmktmIMlaDLcSZFAL",
          "name" : "The London Fox Players",
          "type" : "artist",
          "uri" : "spotify:artist:1iEr9JmktmIMlaDLcSZFAL"
        } ],
        "external_urls" : {
          "spotify" : "https://open.spotify.com/album/07RPwNX8U9hGhrIE95VCnK"
        },
        "href" : "https://api.spotify.com/v1/albums/07RPwNX8U9hGhrIE95VCnK",
        "id" : "07RPwNX8U9hGhrIE95VCnK",
        "images" : [ {
          "height" : 640,
          "url" : "https://i.scdn.co/image/ab67616d0000b2737b3fb017becda1975ea3abda",
          "width" : 640
        }, {
          "height" : 300,
          "url" : "https://i.scdn.co/image/ab67616d00001e027b3fb017becda1975ea3abda",
          "width" : 300
        }, {
          "height" : 64,
          "url" : "https://i.scdn.co/image/ab67616d000048517b3fb017becda1975ea3abda",
          "width" : 64
        } ],
        "name" : "Hymn styles - Cello Hymns",
        "release_date" : "2000",
        "release_date_precision" : "year",
        "total_tracks" : 12,
        "type" : "album",
        "uri" : "spotify:album:07RPwNX8U9hGhrIE95VCnK"
      },
      "artists" : [ {
        "external_urls" : {
          "spotify" : "https://open.spotify.com/artist/1iEr9JmktmIMlaDLcSZFAL"
        },
        "href" : "https://api.spotify.com/v1/artists/1iEr9JmktmIMlaDLcSZFAL",
        "id" : "1iEr9JmktmIMlaDLcSZFAL",
        "name" : "The London Fox Players",
        "type" : "artist",
        "uri" : "spotify:artist:1iEr9JmktmIMlaDLcSZFAL"
      } ],
      "disc_number" : 1,
      "duration_ms" : 132840,
      "explicit" : false,
      "external_ids" : {
        "isrc" : "GBCEU0017811"
      },
      "external_urls" : {
        "spotify" : "https://open.spotify.com/track/6zXTxTMLJ6eTYzjQ36IrB7"
      },
      "href" : "https://api.spotify.com/v1/tracks/6zXTxTMLJ6eTYzjQ36IrB7",
      "id" : "6zXTxTMLJ6eTYzjQ36IrB7",
      "is_local" : false,
      "is_playable" : true,
      "name" : "O Master, Let Me Walk With Thee",
      "popularity" : 6,
      "preview_url" : "https://p.scdn.co/mp3-preview/8fcbbac3bf62ccfc5a630021404b46662d719b52?cid=774b29d4f13844c495f206cafdad9c86",
      "track_number" : 11,
      "type" : "track",
      "uri" : "spotify:track:6zXTxTMLJ6eTYzjQ36IrB7"
    }, {
      "album" : {
        "album_type" : "album",
        "artists" : [ {
          "external_urls" : {
            "spotify" : "https://open.spotify.com/artist/1MmubZDiFWXhOXz941cRRp"
          },
          "href" : "https://api.spotify.com/v1/artists/1MmubZDiFWXhOXz941cRRp",
          "id" : "1MmubZDiFWXhOXz941cRRp",
          "name" : "Our Daily Bread",
          "type" : "artist",
          "uri" : "spotify:artist:1MmubZDiFWXhOXz941cRRp"
        } ],
        "external_urls" : {
          "spotify" : "https://open.spotify.com/album/2YDMgppqcZwIAuHkcLNIvl"
        },
        "href" : "https://api.spotify.com/v1/albums/2YDMgppqcZwIAuHkcLNIvl",
        "id" : "2YDMgppqcZwIAuHkcLNIvl",
        "images" : [ {
          "height" : 640,
          "url" : "https://i.scdn.co/image/ab67616d0000b273988059cc091dca7b29235681",
          "width" : 640
        }, {
          "height" : 300,
          "url" : "https://i.scdn.co/image/ab67616d00001e02988059cc091dca7b29235681",
          "width" : 300
        }, {
          "height" : 64,
          "url" : "https://i.scdn.co/image/ab67616d00004851988059cc091dca7b29235681",
          "width" : 64
        } ],
        "name" : "Symphonic Hymns & Hymns of Assurance",
        "release_date" : "2017-04-17",
        "release_date_precision" : "day",
        "total_tracks" : 22,
        "type" : "album",
        "uri" : "spotify:album:2YDMgppqcZwIAuHkcLNIvl"
      },
      "artists" : [ {
        "external_urls" : {
          "spotify" : "https://open.spotify.com/artist/1MmubZDiFWXhOXz941cRRp"
        },
        "href" : "https://api.spotify.com/v1/artists/1MmubZDiFWXhOXz941cRRp",
        "id" : "1MmubZDiFWXhOXz941cRRp",
        "name" : "Our Daily Bread",
        "type" : "artist",
        "uri" : "spotify:artist:1MmubZDiFWXhOXz941cRRp"
      } ],
      "disc_number" : 1,
      "duration_ms" : 272106,
      "explicit" : false,
      "external_ids" : {
        "isrc" : "USLF51602250"
      },
      "external_urls" : {
        "spotify" : "https://open.spotify.com/track/59u6ik6OihLKwCIP3eAqj7"
      },
      "href" : "https://api.spotify.com/v1/tracks/59u6ik6OihLKwCIP3eAqj7",
      "id" : "59u6ik6OihLKwCIP3eAqj7",
      "is_local" : false,
      "is_playable" : true,
      "name" : "O Master, Let Me Walk with Thee",
      "popularity" : 6,
      "preview_url" : "https://p.scdn.co/mp3-preview/8a0ce8fec0b8d5270e4adf403d4ae4cba296ca6a?cid=774b29d4f13844c495f206cafdad9c86",
      "track_number" : 7,
      "type" : "track",
      "uri" : "spotify:track:59u6ik6OihLKwCIP3eAqj7"
    }, {
      "album" : {
        "album_type" : "album",
        "artists" : [ {
          "external_urls" : {
            "spotify" : "https://open.spotify.com/artist/09TOgappqOohpamkrpP78c"
          },
          "href" : "https://api.spotify.com/v1/artists/09TOgappqOohpamkrpP78c",
          "id" : "09TOgappqOohpamkrpP78c",
          "name" : "Fountainview Academy Orchestra & Singers",
          "type" : "artist",
          "uri" : "spotify:artist:09TOgappqOohpamkrpP78c"
        } ],
        "external_urls" : {
          "spotify" : "https://open.spotify.com/album/5mLkULb2utshaeQwPccrWM"
        },
        "href" : "https://api.spotify.com/v1/albums/5mLkULb2utshaeQwPccrWM",
        "id" : "5mLkULb2utshaeQwPccrWM",
        "images" : [ {
          "height" : 640,
          "url" : "https://i.scdn.co/image/ab67616d0000b273e81f1db2b74389a069d5356e",
          "width" : 640
        }, {
          "height" : 300,
          "url" : "https://i.scdn.co/image/ab67616d00001e02e81f1db2b74389a069d5356e",
          "width" : 300
        }, {
          "height" : 64,
          "url" : "https://i.scdn.co/image/ab67616d00004851e81f1db2b74389a069d5356e",
          "width" : 64
        } ],
        "name" : "A Child of The King",
        "release_date" : "2020-02-03",
        "release_date_precision" : "day",
        "total_tracks" : 13,
        "type" : "album",
        "uri" : "spotify:album:5mLkULb2utshaeQwPccrWM"
      },
      "artists" : [ {
        "external_urls" : {
          "spotify" : "https://open.spotify.com/artist/09TOgappqOohpamkrpP78c"
        },
        "href" : "https://api.spotify.com/v1/artists/09TOgappqOohpamkrpP78c",
        "id" : "09TOgappqOohpamkrpP78c",
        "name" : "Fountainview Academy Orchestra & Singers",
        "type" : "artist",
        "uri" : "spotify:artist:09TOgappqOohpamkrpP78c"
      } ],
      "disc_number" : 1,
      "duration_ms" : 136320,
      "explicit" : false,
      "external_ids" : {
        "isrc" : "QMEZE2014463"
      },
      "external_urls" : {
        "spotify" : "https://open.spotify.com/track/7IpavZVMtMC7gZkzSeCwuW"
      },
      "href" : "https://api.spotify.com/v1/tracks/7IpavZVMtMC7gZkzSeCwuW",
      "id" : "7IpavZVMtMC7gZkzSeCwuW",
      "is_local" : false,
      "is_playable" : true,
      "name" : "O Master, Let Me Walk with Thee",
      "popularity" : 10,
      "preview_url" : "https://p.scdn.co/mp3-preview/8bff7c607e6bf5951a65a6e3b9e5439563d3460a?cid=774b29d4f13844c495f206cafdad9c86",
      "track_number" : 2,
      "type" : "track",
      "uri" : "spotify:track:7IpavZVMtMC7gZkzSeCwuW"
    }, {
      "album" : {
        "album_type" : "album",
        "artists" : [ {
          "external_urls" : {
            "spotify" : "https://open.spotify.com/artist/7gjHSq6MQ3C2RNdlIkbYnG"
          },
          "href" : "https://api.spotify.com/v1/artists/7gjHSq6MQ3C2RNdlIkbYnG",
          "id" : "7gjHSq6MQ3C2RNdlIkbYnG",
          "name" : "Instrumental Christian Songs, Christian Piano Music",
          "type" : "artist",
          "uri" : "spotify:artist:7gjHSq6MQ3C2RNdlIkbYnG"
        }, {
          "external_urls" : {
            "spotify" : "https://open.spotify.com/artist/07MOqUaJ2WqGGHQlpcz9H3"
          },
          "href" : "https://api.spotify.com/v1/artists/07MOqUaJ2WqGGHQlpcz9H3",
          "id" : "07MOqUaJ2WqGGHQlpcz9H3",
          "name" : "Praise and Worship",
          "type" : "artist",
          "uri" : "spotify:artist:07MOqUaJ2WqGGHQlpcz9H3"
        }, {
          "external_urls" : {
            "spotify" : "https://open.spotify.com/artist/7cAyByeTxjKcuNTW1IXpGR"
          },
          "href" : "https://api.spotify.com/v1/artists/7cAyByeTxjKcuNTW1IXpGR",
          "id" : "7cAyByeTxjKcuNTW1IXpGR",
          "name" : "Musica Cristiana",
          "type" : "artist",
          "uri" : "spotify:artist:7cAyByeTxjKcuNTW1IXpGR"
        } ],
        "external_urls" : {
          "spotify" : "https://open.spotify.com/album/4J3BGn0B1leVpKTL9FtJ22"
        },
        "href" : "https://api.spotify.com/v1/albums/4J3BGn0B1leVpKTL9FtJ22",
        "id" : "4J3BGn0B1leVpKTL9FtJ22",
        "images" : [ {
          "height" : 640,
          "url" : "https://i.scdn.co/image/ab67616d0000b273f8d7fb37a98333c67edc2f45",
          "width" : 640
        }, {
          "height" : 300,
          "url" : "https://i.scdn.co/image/ab67616d00001e02f8d7fb37a98333c67edc2f45",
          "width" : 300
        }, {
          "height" : 64,
          "url" : "https://i.scdn.co/image/ab67616d00004851f8d7fb37a98333c67edc2f45",
          "width" : 64
        } ],
        "name" : "Amen, Amen! Instrumental Christian Songs",
        "release_date" : "2016-10-20",
        "release_date_precision" : "day",
        "total_tracks" : 15,
        "type" : "album",
        "uri" : "spotify:album:4J3BGn0B1leVpKTL9FtJ22"
      },
      "artists" : [ {
        "external_urls" : {
          "spotify" : "https://open.spotify.com/artist/7gjHSq6MQ3C2RNdlIkbYnG"
        },
        "href" : "https://api.spotify.com/v1/artists/7gjHSq6MQ3C2RNdlIkbYnG",
        "id" : "7gjHSq6MQ3C2RNdlIkbYnG",
        "name" : "Instrumental Christian Songs, Christian Piano Music",
        "type" : "artist",
        "uri" : "spotify:artist:7gjHSq6MQ3C2RNdlIkbYnG"
      }, {
        "external_urls" : {
          "spotify" : "https://open.spotify.com/artist/07MOqUaJ2WqGGHQlpcz9H3"
        },
        "href" : "https://api.spotify.com/v1/artists/07MOqUaJ2WqGGHQlpcz9H3",
        "id" : "07MOqUaJ2WqGGHQlpcz9H3",
        "name" : "Praise and Worship",
        "type" : "artist",
        "uri" : "spotify:artist:07MOqUaJ2WqGGHQlpcz9H3"
      }, {
        "external_urls" : {
          "spotify" : "https://open.spotify.com/artist/7cAyByeTxjKcuNTW1IXpGR"
        },
        "href" : "https://api.spotify.com/v1/artists/7cAyByeTxjKcuNTW1IXpGR",
        "id" : "7cAyByeTxjKcuNTW1IXpGR",
        "name" : "Musica Cristiana",
        "type" : "artist",
        "uri" : "spotify:artist:7cAyByeTxjKcuNTW1IXpGR"
      } ],
      "disc_number" : 1,
      "duration_ms" : 167880,
      "explicit" : false,
      "external_ids" : {
        "isrc" : "TCACS1687374"
      },
      "external_urls" : {
        "spotify" : "https://open.spotify.com/track/0Pi4chfNQCcaxdQ6Dckat8"
      },
      "href" : "https://api.spotify.com/v1/tracks/0Pi4chfNQCcaxdQ6Dckat8",
      "id" : "0Pi4chfNQCcaxdQ6Dckat8",
      "is_local" : false,
      "is_playable" : true,
      "name" : "O Master, Let Me Walk With Thee (Instrumental Version)",
      "popularity" : 7,
      "preview_url" : "https://p.scdn.co/mp3-preview/92c7ceafa2cb37eac27155fea0abe3c4ea3dbd12?cid=774b29d4f13844c495f206cafdad9c86",
      "track_number" : 10,
      "type" : "track",
      "uri" : "spotify:track:0Pi4chfNQCcaxdQ6Dckat8"
    } ],
    "limit" : 10,
    "next" : "https://api.spotify.com/v1/search?query=O+Let+Me+Walk+With+Thee&type=track&market=US&offset=15&limit=10",
    "offset" : 5,
    "previous" : "https://api.spotify.com/v1/search?query=O+Let+Me+Walk+With+Thee&type=track&market=US&offset=0&limit=10",
    "total" : 124
  }
}