{
  "tracks" : {
    "href" : "https://api.spotify.com/v1/search?query=To+God+Be+the+Glory&type=track&market=US&offset=5&limit=10",
    "items" : [ {
      "album" : {
        "album_type" : "album",
        "artists" : [ {
          "external_urls" : {
            "spotify" : "https://open.spotify.com/artist/0WlbBY0t3hNDiAubKTSHAW"
          },
          "href" : "https://api.spotify.com/v1/artists/0WlbBY0t3hNDiAubKTSHAW",
          "id" : "0WlbBY0t3hNDiAubKTSHAW",
          "name" : "Lifetree Kids",
          "type" : "artist",
          "uri" : "spotify:artist:0WlbBY0t3hNDiAubKTSHAW"
        } ],
        "external_urls" : {
          "spotify" : "https://open.spotify.com/album/10qS1QaDPdIEoP97HSLowQ"
        },
        "href" : "https://api.spotify.com/v1/albums/10qS1QaDPdIEoP97HSLowQ",
        "id" : "10qS1QaDPdIEoP97HSLowQ",
        "images" : [ {
          "height" : 640,
          "url" : "https://i.scdn.co/image/ab67616d0000b273fde49e06f2f9b57f1e4e8eb0",
          "width" : 640
        }, {
          "height" : 300,
          "url" : "https://i.scdn.co/image/ab67616d00001e02fde49e06f2f9b57f1e4e8eb0",
          "width" : 300
        }, {
          "height" : 64,
          "url" : "https://i.scdn.co/image/ab67616d00004851fde49e06f2f9b57f1e4e8eb0",
          "width" : 64
        } ],
        "name" : "Favorite Songs from Roar Vacation Bible School",
        "release_date" : "2019-10-04",
        "release_date_precision" : "day",
        "total_tracks" : 16,
        "type" : "album",
        "uri" : "spotify:album:10qS1QaDPdIEoP97HSLowQ"
      },
      "artists" : [ {
        "external_urls" : {
          "spotify" : "https://open.spotify.com/artist/0WlbBY0t3hNDiAubKTSHAW"
        },
        "href" : "https://api.spotify.com/v1/artists/0WlbBY0t3hNDiAubKTSHAW",
        "id" : "0WlbBY0t3hNDiAubKTSHAW",
        "name" : "Lifetree Kids",
        "type" : "artist",
        "uri" : "spotify:artist:0WlbBY0t3hNDiAubKTSHAW"
      } ],
      "disc_number" : 1,
      "duration_ms" : 144127,
      "explicit" : false,
      "external_ids" : {
        "isrc" : "US6YG1900776"
      },
      "external_urls" : {
        "spotify" : "https://open.spotify.com/track/7nmGgwVSTayJFx13gnuvZW"
      },
      "href" : "https://api.spotify.com/v1/tracks/7nmGgwVSTayJFx13gnuvZW",
      "id" : "7nmGgwVSTayJFx13gnuvZW",
      "is_local" : false,
      "is_playable" : true,
      "name" : "To God Be the Glory",
      "popularity" : 25,
      "preview_url" : "https://p.scdn.co/mp3-preview/73b28d3d6632b6a62342eb48fe945b4e9672ffe3?cid=774b29d4f13844c495f206cafdad9c86",
      "track_number" : 7,
      "type" : "track",
      "uri" : "spotify:track:7nmGgwVSTayJFx13gnuvZW"
    }, {
      "album" : {
        "album_type" : "album",
        "artists" : [ {
          "external_urls" : {
            "spotify" : "https://open.spotify.com/artist/0MCU2OpgnSB7rm5UPUMHgt"
          },
          "href" : "https://api.spotify.com/v1/artists/0MCU2OpgnSB7rm5UPUMHgt",
          "id" : "0MCU2OpgnSB7rm5UPUMHgt",
          "name" : "Cedarmont Kids",
          "type" : "artist",
          "uri" : "spotify:artist:0MCU2OpgnSB7rm5UPUMHgt"
        } ],
        "external_urls" : {
          "spotify" : "https://open.spotify.com/album/6IsMuKCzRSdfK9uRNq5Bfd"
        },
        "href" : "https://api.spotify.com/v1/albums/6IsMuKCzRSdfK9uRNq5Bfd",
        "id" : "6IsMuKCzRSdfK9uRNq5Bfd",
        "images" : [ {
          "height" : 640,
          "url" : "https://i.scdn.co/image/ab67616d0000b2739e6ce337aa67d1f0162a5ba4",
          "width" : 640
        }, {
          "height" : 300,
          "url" : "https://i.scdn.co/image/ab67616d00001e029e6ce337aa67d1f0162a5ba4",
          "width" : 300
        }, {
          "height" : 64,
          "url" : "https://i.scdn.co/image/ab67616d000048519e6ce337aa67d1f0162a5ba4",
          "width" : 64
        } ],
        "name" : "Hymns",
        "release_date" : "1997-07-06",
        "release_date_precision" : "day",
        "total_tracks" : 32,
        "type" : "album",
        "uri" : "spotify:album:6IsMuKCzRSdfK9uRNq5Bfd"
      },
      "artists" : [ {
        "external_urls" : {
          "spotify" : "https://open.spotify.com/artist/0MCU2OpgnSB7rm5UPUMHgt"
        },
        "href" : "https://api.spotify.com/v1/artists/0MCU2OpgnSB7rm5UPUMHgt",
        "id" : "0MCU2OpgnSB7rm5UPUMHgt",
        "name" : "Cedarmont Kids",
        "type" : "artist",
        "uri" : "spotify:artist:0MCU2OpgnSB7rm5UPUMHgt"
      } ],
      "disc_number" : 1,
      "duration_ms" : 144226,
      "explicit" : false,
      "external_ids" : {
        "isrc" : "USA5W0400437"
      },
      "external_urls" : {
        "spotify" : "https://open.spotify.com/track/3haFt4CKn4wVXGvBK9K1I9"
      },
      "href" : "https://api.spotify.com/v1/tracks/3haFt4CKn4wVXGvBK9K1I9",
      "id" : "3haFt4CKn4wVXGvBK9K1I9",
      "is_local" : false,
      "is_playable" : true,
      "name" : "To God Be The Glory",
      "popularity" : 25,
      "preview_url" : "https://p.scdn.co/mp3-preview/466fed7fd087152236e59d493ee72e41dead85b8?cid=774b29d4f13844c495f206cafdad9c86",
      "track_number" : 1,
      "type" : "track",
      "uri" : "spotify:track:3haFt4CKn4wVXGvBK9K1I9"
    }, {
      "album" : {
        "album_type" : "album",
        "artists" : [ {
          "external_urls" : {
            "spotify" : "https://open.spotify.com/artist/66wd2UXU9qFFSsXdS8smyY"
          },
          "href" : "https://api.spotify.com/v1/artists/66wd2UXU9qFFSsXdS8smyY",
          "id" : "66wd2UXU9qFFSsXdS8smyY",
          "name" : "Wintley Phipps",
          "type" : "artist",
          "uri" : "spotify:artist:66wd2UXU9qFFSsXdS8smyY"
        } ],
        "external_urls" : {
          "spotify" : "https://open.spotify.com/album/57gTLZE5tnwwjEgXGGeq8Y"
        },
        "href" : "https://api.spotify.com/v1/albums/57gTLZE5tnwwjEgXGGeq8Y",
        "id" : "57gTLZE5tnwwjEgXGGeq8Y",
        "images" : [ {
          "height" : 640,
          "url" : "https://i.scdn.co/image/ab67616d0000b273cca38cd05e974b3b3801b50d",
          "width" : 640
        }, {
          "height" : 300,
          "url" : "https://i.scdn.co/image/ab67616d00001e02cca38cd05e974b3b3801b50d",
          "width" : 300
        }, {
          "height" : 64,
          "url" : "https://i.scdn.co/image/ab67616d00004851cca38cd05e974b3b3801b50d",
          "width" : 64
        } ],
        "name" : "To God Be the Glory",
        "release_date" : "2011-10-19",
        "release_date_precision" : "day",
        "total_tracks" : 10,
        "type" : "album",
        "uri" : "spotify:album:57gTLZE5tnwwjEgXGGeq8Y"
      },
      "artists" : [ {
        "external_urls" : {
          "spotify" : "https://open.spotify.com/artist/66wd2UXU9qFFSsXdS8smyY"
        },
        "href" : "https://api.spotify.com/v1/artists/66wd2UXU9qFFSsXdS8smyY",
        "id" : "66wd2UXU9qFFSsXdS8smyY",
        "name" : "Wintley Phipps",
        "type" : "artist",
        "uri" : "spotify:artist:66wd2UXU9qFFSsXdS8smyY"
      } ],
      "disc_number" : 1,
      "duration_ms" : 247893,
      "explicit" : false,
      "external_ids" : {
        "isrc" : "USLF50801456"
      },
      "external_urls" : {
        "spotify" : "https://open.spotify.com/track/7zSP06p4RItNqByFBrVu5Z"
      },
      "href" : "https://api.spotify.com/v1/tracks/7zSP06p4RItNqByFBrVu5Z",
      "id" : "7zSP06p4RItNqByFBrVu5Z",
      "is_local" : false,
      "is_playable" : true,
      "name" : "To God Be the Glory",
      "popularity" : 26,
      "preview_url" : "https://p.scdn.co/mp3-preview/77964d11f902a3ca730462a51bca1d886d958941?cid=774b29d4f13844c495f206cafdad9c86",
      "track_number" : 1,
      "type" : "track",
      "uri" : "spotify:track:7zSP06p4RItNqByFBrVu5Z"
    }, {
      "album" : {
        "album_type" : "album",
        "artists" : [ {
          "external_urls" : {
            "spotify" : "https://open.spotify.com/artist/1FQJqgKQDNLWfeLBQoQLmD"
          },
          "href" : "https://api.spotify.com/v1/artists/1FQJqgKQDNLWfeLBQoQLmD",
          "id" : "1FQJqgKQDNLWfeLBQoQLmD",
          "name" : "William Murphy",
          "type" : "artist",
          "uri" : "spotify:artist:1FQJqgKQDNLWfeLBQoQLmD"
        } ],
        "external_urls" : {
          "spotify" : "https://open.spotify.com/album/4yDjUBvT9XqaEQcYhPIUDM"
        },
        "href" : "https://api.spotify.com/v1/albums/4yDjUBvT9XqaEQcYhPIUDM",
        "id" : "4yDjUBvT9XqaEQcYhPIUDM",
        "images" : [ {
          "height" : 640,
          "url" : "https://i.scdn.co/image/ab67616d0000b273840f9d5398f8e05e8f4c0966",
          "width" : 640
        }, {
          "height" : 300,
          "url" : "https://i.scdn.co/image/ab67616d00001e02840f9d5398f8e05e8f4c0966",
          "width" : 300
        }, {
          "height" : 64,
          "url" : "https://i.scdn.co/image/ab67616d00004851840f9d5398f8e05e8f4c0966",
          "width" : 64
        } ],
        "name" : "Demonstrate (Deluxe Edition)",
        "release_date" : "2016-06-24",
        "release_date_precision" : "day",
        "total_tracks" : 17,
        "type" : "album",
        "uri" : "spotify:album:4yDjUBvT9XqaEQcYhPIUDM"
      },
      "artists" : [ {
        "external_urls" : {
          "spotify" : "https://open.spotify.com/artist/1FQJqgKQDNLWfeLBQoQLmD"
        },
        "href" : "https://api.spotify.com/v1/artists/1FQJqgKQDNLWfeLBQoQLmD",
        "id" : "1FQJqgKQDNLWfeLBQoQLmD",
        "name" : "William Murphy",
        "type" : "artist",
        "uri" : "spotify:artist:1FQJqgKQDNLWfeLBQoQLmD"
      } ],
      "disc_number" : 1,
      "duration_ms" : 148331,
      "explicit" : false,
      "external_ids" : {
        "isrc" : "USRC11600989"
      },
      "external_urls" : {
        "spotify" : "https://open.spotify.com/track/61Zq919ng0hd9RJpKwN7dY"
      },
      "href" : "https://api.spotify.com/v1/tracks/61Zq919ng0hd9RJpKwN7dY",
      "id" : "61Zq919ng0hd9RJpKwN7dY",
      "is_local" : false,
      "is_playable" : true,
      "name" : "To God Be The Glory",
      "popularity" : 22,
      "preview_url" : "https://p.scdn.co/mp3-preview/dd56c6c62ed104275a5c80516f103cbe9b991e8f?cid=774b29d4f13844c495f206cafdad9c86",
      "track_number" : 12,
      "type" : "track",
      "uri" : "spotify:track:61Zq919ng0hd9RJpKwN7dY"
    }, {
      "album" : {
        "album_type" : "album",
        "artists" : [ {
          "external_urls" : {
            "spotify" : "https://open.spotify.com/artist/3ds0hlCcgdDJzoG9NgCxbF"
          },
          "href" : "https://api.spotify.com/v1/artists/3ds0hlCcgdDJzoG9NgCxbF",
          "id" : "3ds0hlCcgdDJzoG9NgCxbF",
          "name" : "GroupMusic",
          "type" : "artist",
          "uri" : "spotify:artist:3ds0hlCcgdDJzoG9NgCxbF"
        } ],
        "external_urls" : {
          "spotify" : "https://open.spotify.com/album/2AFFWGUAobuYtfmb6pK9Gw"
        },
        "href" : "https://api.spotify.com/v1/albums/2AFFWGUAobuYtfmb6pK9Gw",
        "id" : "2AFFWGUAobuYtfmb6pK9Gw",
        "images" : [ {
          "height" : 640,
          "url" : "https://i.scdn.co/image/ab67616d0000b273f5687be30aeb127bc5948f71",
          "width" : 640
        }, {
          "height" : 300,
          "url" : "https://i.scdn.co/image/ab67616d00001e02f5687be30aeb127bc5948f71",
          "width" : 300
        }, {
          "height" : 64,
          "url" : "https://i.scdn.co/image/ab67616d00004851f5687be30aeb127bc5948f71",
          "width" : 64
        } ],
        "name" : "Favorite Songs (From \"Rome Vacation Bible School Mini\")",
        "release_date" : "2017-03-29",
        "release_date_precision" : "day",
        "total_tracks" : 9,
        "type" : "album",
        "uri" : "spotify:album:2AFFWGUAobuYtfmb6pK9Gw"
      },
      "artists" : [ {
        "external_urls" : {
          "spotify" : "https://open.spotify.com/artist/3ds0hlCcgdDJzoG9NgCxbF"
        },
        "href" : "https://api.spotify.com/v1/artists/3ds0hlCcgdDJzoG9NgCxbF",
        "id" : "3ds0hlCcgdDJzoG9NgCxbF",
        "name" : "GroupMusic",
        "type" : "artist",
        "uri" : "spotify:artist:3ds0hlCcgdDJzoG9NgCxbF"
      } ],
      "disc_number" : 1,
      "duration_ms" : 131892,
      "explicit" : false,
      "external_ids" : {
        "isrc" : "US6YG1000269"
      },
      "external_urls" : {
        "spotify" : "https://open.spotify.com/track/6DpWNVAVj2dBeQNAheKgR1"
      },
      "href" : "https://api.spotify.com/v1/tracks/6DpWNVAVj2dBeQNAheKgR1",
      "id" : "6DpWNVAVj2dBeQNAheKgR1",
      "is_local" : false,
      "is_playable" : true,
      "name" : "To God Be the Glory",
      "popularity" : 20,
      "preview_url" : "https://p.scdn.co/mp3-preview/3c9c2ecadfc88af6eb116e4ed3ad3e0521d0d250?cid=774b29d4f13844c495f206cafdad9c86",
      "track_number" : 7,
      "type" : "track",
      "uri" : "spotify:track:6DpWNVAVj2dBeQNAheKgR1"
    }, {
      "album" : {
        "album_type" : "album",
        "artists" : [ {
          "external_urls" : {
            "spotify" : "https://open.spotify.com/artist/6oLzN8cU382zotCKpCNcbT"
          },
          "href" : "https://api.spotify.com/v1/artists/6oLzN8cU382zotCKpCNcbT",
          "id" : "6oLzN8cU382zotCKpCNcbT",
          "name" : "Dino",
          "type" : "artist",
          "uri" : "spotify:artist:6oLzN8cU382zotCKpCNcbT"
        } ],
        "external_urls" : {
          "spotify" : "https://open.spotify.com/album/5MFbYPISuqiZ5BpA2eeQTV"
        },
        "href" : "https://api.spotify.com/v1/albums/5MFbYPISuqiZ5BpA2eeQTV",
        "id" : "5MFbYPISuqiZ5BpA2eeQTV",
        "images" : [ {
          "height" : 640,
          "url" : "https://i.scdn.co/image/ab67616d0000b2736f041c55c0229e88e0a0d089",
          "width" : 640
        }, {
          "height" : 300,
          "url" : "https://i.scdn.co/image/ab67616d00001e026f041c55c0229e88e0a0d089",
          "width" : 300
        }, {
          "height" : 64,
          "url" : "https://i.scdn.co/image/ab67616d000048516f041c55c0229e88e0a0d089",
          "width" : 64
        } ],
        "name" : "Sacred Piano: Hymns Collection, Vol. 2",
        "release_date" : "2007-01-01",
        "release_date_precision" : "day",
        "total_tracks" : 12,
        "type" : "album",
        "uri" : "spotify:album:5MFbYPISuqiZ5BpA2eeQTV"
      },
      "artists" : [ {
        "external_urls" : {
          "spotify" : "https://open.spotify.com/artist/6oLzN8cU382zotCKpCNcbT"
        },
        "href" : "https://api.spotify.com/v1/artists/6oLzN8cU382zotCKpCNcbT",
        "id" : "6oLzN8cU382zotCKpCNcbT",
        "name" : "Dino",
        "type" : "artist",
        "uri" : "spotify:artist:6oLzN8cU382zotCKpCNcbT"
      } ],
      "disc_number" : 1,
      "duration_ms" : 239146,
      "explicit" : false,
      "external_ids" : {
        "isrc" : "USACX0800799"
      },
      "external_urls" : {
        "spotify" : "https://open.spotify.com/track/3WInUMMf8fp9lSkdPblbNC"
      },
      "href" : "https://api.spotify.com/v1/tracks/3WInUMMf8fp9lSkdPblbNC",
      "id" : "3WInUMMf8fp9lSkdPblbNC",
      "is_local" : false,
      "is_playable" : true,
      "name" : "To God Be the Glory",
      "popularity" : 24,
      "preview_url" : "https://p.scdn.co/mp3-preview/faf2193c793411fb229290754c1f669177c392a4?cid=774b29d4f13844c495f206cafdad9c86",
      "track_number" : 4,
      "type" : "track",
      "uri" : "spotify:track:3WInUMMf8fp9lSkdPblbNC"
    }, {
      "album" : {
        "album_type" : "album",
        "artists" : [ {
          "external_urls" : {
            "spotify" : "https://open.spotify.com/artist/0HVhrcczr4gd8oNtUsTqWg"
          },
          "href" : "https://api.spotify.com/v1/artists/0HVhrcczr4gd8oNtUsTqWg",
          "id" : "0HVhrcczr4gd8oNtUsTqWg",
          "name" : "Bow and Ivory",
          "type" : "artist",
          "uri" : "spotify:artist:0HVhrcczr4gd8oNtUsTqWg"
        } ],
        "external_urls" : {
          "spotify" : "https://open.spotify.com/album/1rHx0q1c3WRum5LkXvosAQ"
        },
        "href" : "https://api.spotify.com/v1/albums/1rHx0q1c3WRum5LkXvosAQ",
        "id" : "1rHx0q1c3WRum5LkXvosAQ",
        "images" : [ {
          "height" : 640,
          "url" : "https://i.scdn.co/image/ab67616d0000b27312be38cf50f9addf3498c047",
          "width" : 640
        }, {
          "height" : 300,
          "url" : "https://i.scdn.co/image/ab67616d00001e0212be38cf50f9addf3498c047",
          "width" : 300
        }, {
          "height" : 64,
          "url" : "https://i.scdn.co/image/ab67616d0000485112be38cf50f9addf3498c047",
          "width" : 64
        } ],
        "name" : "Hymns for Piano and Violin, Volume 2",
        "release_date" : "2017-06-07",
        "release_date_precision" : "day",
        "total_tracks" : 10,
        "type" : "album",
        "uri" : "spotify:album:1rHx0q1c3WRum5LkXvosAQ"
      },
      "artists" : [ {
        "external_urls" : {
          "spotify" : "https://open.spotify.com/artist/0HVhrcczr4gd8oNtUsTqWg"
        },
        "href" : "https://api.spotify.com/v1/artists/0HVhrcczr4gd8oNtUsTqWg",
        "id" : "0HVhrcczr4gd8oNtUsTqWg",
        "name" : "Bow and Ivory",
        "type" : "artist",
        "uri" : "spotify:artist:0HVhrcczr4gd8oNtUsTqWg"
      } ],
      "disc_number" : 1,
      "duration_ms" : 225277,
      "explicit" : false,
      "external_ids" : {
        "isrc" : "TCADC1766204"
      },
      "external_urls" : {
        "spotify" : "https://open.spotify.com/track/2eSOGaWVh1aNKOuxAIFdCk"
      },
      "href" : "https://api.spotify.com/v1/tracks/2eSOGaWVh1aNKOuxAIFdCk",
      "id" : "2eSOGaWVh1aNKOuxAIFdCk",
      "is_local" : false,
      "is_playable" : true,
      "name" : "To God Be the Glory",
      "popularity" : 19,
      "preview_url" : "https://p.scdn.co/mp3-preview/d86cd39137771bd1a109a39acf92aefb495e7dd7?cid=774b29d4f13844c495f206cafdad9c86",
      "track_number" : 7,
      "type" : "track",
      "uri" : "spotify:track:2eSOGaWVh1aNKOuxAIFdCk"
    }, {
      "album" : {
        "album_type" : "album",
        "artists" : [ {
          "external_urls" : {
            "spotify" : "https://open.spotify.com/artist/5Ij0tzLgKrsZjPzyUvVjey"
          },
          "href" : "https://api.spotify.com/v1/artists/5Ij0tzLgKrsZjPzyUvVjey",
          "id" : "5Ij0tzLgKrsZjPzyUvVjey",
          "name" : "The Celebration Choir",
          "type" : "artist",
          "uri" : "spotify:artist:5Ij0tzLgKrsZjPzyUvVjey"
        } ],
        "external_urls" : {
          "spotify" : "https://open.spotify.com/album/3QXYAHzTKxYMVgh1GpQwSd"
        },
        "href" : "https://api.spotify.com/v1/albums/3QXYAHzTKxYMVgh1GpQwSd",
        "id" : "3QXYAHzTKxYMVgh1GpQwSd",
        "images" : [ {
          "height" : 640,
          "url" : "https://i.scdn.co/image/ab67616d0000b2730ef6d88ac756fdde39ccaf60",
          "width" : 640
        }, {
          "height" : 300,
          "url" : "https://i.scdn.co/image/ab67616d00001e020ef6d88ac756fdde39ccaf60",
          "width" : 300
        }, {
          "height" : 64,
          "url" : "https://i.scdn.co/image/ab67616d000048510ef6d88ac756fdde39ccaf60",
          "width" : 64
        } ],
        "name" : "The Hymn Makers: Fanny Crosby (Blessed Assurance)",
        "release_date" : "1995",
        "release_date_precision" : "year",
        "total_tracks" : 14,
        "type" : "album",
        "uri" : "spotify:album:3QXYAHzTKxYMVgh1GpQwSd"
      },
      "artists" : [ {
        "external_urls" : {
          "spotify" : "https://open.spotify.com/artist/5Z4NheXkJ8Z1lY9Qt7ijUW"
        },
        "href" : "https://api.spotify.com/v1/artists/5Z4NheXkJ8Z1lY9Qt7ijUW",
        "id" : "5Z4NheXkJ8Z1lY9Qt7ijUW",
        "name" : "The Sheffield Celebration Choir",
        "type" : "artist",
        "uri" : "spotify:artist:5Z4NheXkJ8Z1lY9Qt7ijUW"
      } ],
      "disc_number" : 1,
      "duration_ms" : 246866,
      "explicit" : false,
      "external_ids" : {
        "isrc" : "GBBTM9576714"
      },
      "external_urls" : {
        "spotify" : "https://open.spotify.com/track/2tv87fLS4tjT5z1hZNsitl"
      },
      "href" : "https://api.spotify.com/v1/tracks/2tv87fLS4tjT5z1hZNsitl",
      "id" : "2tv87fLS4tjT5z1hZNsitl",
      "is_local" : false,
      "is_playable" : true,
      "name" : "To God Be The Glory",
      "popularity" : 25,
      "preview_url" : "https://p.scdn.co/mp3-preview/7b36bb8af6e2577a0f3f8a427e5c254d7b84a2a0?cid=774b29d4f13844c495f206cafdad9c86",
      "track_number" : 14,
      "type" : "track",
      "uri" : "spotify:track:2tv87fLS4tjT5z1hZNsitl"
    }, {
      "album" : {
        "album_type" : "album",
        "artists" : [ {
          "external_urls" : {
            "spotify" : "https://open.spotify.com/artist/5dZiRoY9Vpp6qrxqXNRwPE"
          },
          "href" : "https://api.spotify.com/v1/artists/5dZiRoY9Vpp6qrxqXNRwPE",
          "id" : "5dZiRoY9Vpp6qrxqXNRwPE",
          "name" : "Selah",
          "type" : "artist",
          "uri" : "spotify:artist:5dZiRoY9Vpp6qrxqXNRwPE"
        } ],
        "external_urls" : {
          "spotify" : "https://open.spotify.com/album/5hkIPRnUqJHcxItTrPiP3V"
        },
        "href" : "https://api.spotify.com/v1/albums/5hkIPRnUqJHcxItTrPiP3V",
        "id" : "5hkIPRnUqJHcxItTrPiP3V",
        "images" : [ {
          "height" : 640,
          "url" : "https://i.scdn.co/image/ab67616d0000b273585e4f6a99019fda25dc9a4c",
          "width" : 640
        }, {
          "height" : 300,
          "url" : "https://i.scdn.co/image/ab67616d00001e02585e4f6a99019fda25dc9a4c",
          "width" : 300
        }, {
          "height" : 64,
          "url" : "https://i.scdn.co/image/ab67616d00004851585e4f6a99019fda25dc9a4c",
          "width" : 64
        } ],
        "name" : "You Raise Me Up: Greatest Hits",
        "release_date" : "2018-11-02",
        "release_date_precision" : "day",
        "total_tracks" : 15,
        "type" : "album",
        "uri" : "spotify:album:5hkIPRnUqJHcxItTrPiP3V"
      },
      "artists" : [ {
        "external_urls" : {
          "spotify" : "https://open.spotify.com/artist/5dZiRoY9Vpp6qrxqXNRwPE"
        },
        "href" : "https://api.spotify.com/v1/artists/5dZiRoY9Vpp6qrxqXNRwPE",
        "id" : "5dZiRoY9Vpp6qrxqXNRwPE",
        "name" : "Selah",
        "type" : "artist",
        "uri" : "spotify:artist:5dZiRoY9Vpp6qrxqXNRwPE"
      } ],
      "disc_number" : 1,
      "duration_ms" : 243720,
      "explicit" : false,
      "external_ids" : {
        "isrc" : "USCRB1813941"
      },
      "external_urls" : {
        "spotify" : "https://open.spotify.com/track/7gar6E1QvI4qDhU9Y3SkSW"
      },
      "href" : "https://api.spotify.com/v1/tracks/7gar6E1QvI4qDhU9Y3SkSW",
      "id" : "7gar6E1QvI4qDhU9Y3SkSW",
      "is_local" : false,
      "is_playable" : true,
      "name" : "To God Be The Glory",
      "popularity" : 20,
      "preview_url" : "https://p.scdn.co/mp3-preview/9b91d760069aa4c338a2468479813a463cf17bf8?cid=774b29d4f13844c495f206cafdad9c86",
      "track_number" : 14,
      "type" : "track",
      "uri" : "spotify:track:7gar6E1QvI4qDhU9Y3SkSW"
    }, {
      "album" : {
        "album_type" : "album",
        "artists" : [ {
          "external_urls" : {
            "spotify" : "https://open.spotify.com/artist/5SIlhbwgul5A3ygK3Dp61Z"
          },
          "href" : "https://api.spotify.com/v1/artists/5SIlhbwgul5A3ygK3Dp61Z",
          "id" : "5SIlhbwgul5A3ygK3Dp61Z",
          "name" : "Billy Graham Crusade Choirs",
          "type" : "artist",
          "uri" : "spotify:artist:5SIlhbwgul5A3ygK3Dp61Z"
        } ],
        "external_urls" : {
          "spotify" : "https://open.spotify.com/album/008NwfzSZ0Jwi6sTIAAmKT"
        },
        "href" : "https://api.spotify.com/v1/albums/008NwfzSZ0Jwi6sTIAAmKT",
        "id" : "008NwfzSZ0Jwi6sTIAAmKT",
        "images" : [ {
          "height" : 640,
          "url" : "https://i.scdn.co/image/ab67616d0000b273c3f8ea0618e0651889db2a55",
          "width" : 640
        }, {
          "height" : 300,
          "url" : "https://i.scdn.co/image/ab67616d00001e02c3f8ea0618e0651889db2a55",
          "width" : 300
        }, {
          "height" : 64,
          "url" : "https://i.scdn.co/image/ab67616d00004851c3f8ea0618e0651889db2a55",
          "width" : 64
        } ],
        "name" : "Hymns and Other Songs of Faith",
        "release_date" : "2015-09-15",
        "release_date_precision" : "day",
        "total_tracks" : 25,
        "type" : "album",
        "uri" : "spotify:album:008NwfzSZ0Jwi6sTIAAmKT"
      },
      "artists" : [ {
        "external_urls" : {
          "spotify" : "https://open.spotify.com/artist/5SIlhbwgul5A3ygK3Dp61Z"
        },
        "href" : "https://api.spotify.com/v1/artists/5SIlhbwgul5A3ygK3Dp61Z",
        "id" : "5SIlhbwgul5A3ygK3Dp61Z",
        "name" : "Billy Graham Crusade Choirs",
        "type" : "artist",
        "uri" : "spotify:artist:5SIlhbwgul5A3ygK3Dp61Z"
      } ],
      "disc_number" : 1,
      "duration_ms" : 198493,
      "explicit" : false,
      "external_ids" : {
        "isrc" : "AULB41500066"
      },
      "external_urls" : {
        "spotify" : "https://open.spotify.com/track/0vGcJxXGhYAVC11d2Ld6Xc"
      },
      "href" : "https://api.spotify.com/v1/tracks/0vGcJxXGhYAVC11d2Ld6Xc",
      "id" : "0vGcJxXGhYAVC11d2Ld6Xc",
      "is_local" : false,
      "is_playable" : true,
      "name" : "To God Be the Glory",
      "popularity" : 19,
      "preview_url" : "https://p.scdn.co/mp3-preview/0da2a846ac5be033e91c97907b02ac14c4e1fc61?cid=774b29d4f13844c495f206cafdad9c86",
      "track_number" : 11,
      "type" : "track",
      "uri" : "spotify:track:0vGcJxXGhYAVC11d2Ld6Xc"
    } ],
    "limit" : 10,
    "next" : "https://api.spotify.com/v1/search?query=To+God+Be+the+Glory&type=track&market=US&offset=15&limit=10",
    "offset" : 5,
    "previous" : "https://api.spotify.com/v1/search?query=To+God+Be+the+Glory&type=track&market=US&offset=0&limit=10",
    "total" : 1615
  }
}