{
  "tracks" : {
    "href" : "https://api.spotify.com/v1/search?query=Gleams+of+the+Golden+Morning&type=track&market=US&offset=5&limit=10",
    "items" : [ {
      "album" : {
        "album_type" : "album",
        "artists" : [ {
          "external_urls" : {
            "spotify" : "https://open.spotify.com/artist/3mLGlD3jqVAlzqWFW4QqG6"
          },
          "href" : "https://api.spotify.com/v1/artists/3mLGlD3jqVAlzqWFW4QqG6",
          "id" : "3mLGlD3jqVAlzqWFW4QqG6",
          "name" : "Forbes Family",
          "type" : "artist",
          "uri" : "spotify:artist:3mLGlD3jqVAlzqWFW4QqG6"
        } ],
        "external_urls" : {
          "spotify" : "https://open.spotify.com/album/0nI3d3ynZF06O1AWyYeSe1"
        },
        "href" : "https://api.spotify.com/v1/albums/0nI3d3ynZF06O1AWyYeSe1",
        "id" : "0nI3d3ynZF06O1AWyYeSe1",
        "images" : [ {
          "height" : 640,
          "url" : "https://i.scdn.co/image/ab67616d0000b2735136f6673763d2560b3cb02c",
          "width" : 640
        }, {
          "height" : 300,
          "url" : "https://i.scdn.co/image/ab67616d00001e025136f6673763d2560b3cb02c",
          "width" : 300
        }, {
          "height" : 64,
          "url" : "https://i.scdn.co/image/ab67616d000048515136f6673763d2560b3cb02c",
          "width" : 64
        } ],
        "name" : "Gleams Of That Golden Morning",
        "release_date" : "2011-10-30",
        "release_date_precision" : "day",
        "total_tracks" : 12,
        "type" : "album",
        "uri" : "spotify:album:0nI3d3ynZF06O1AWyYeSe1"
      },
      "artists" : [ {
        "external_urls" : {
          "spotify" : "https://open.spotify.com/artist/3mLGlD3jqVAlzqWFW4QqG6"
        },
        "href" : "https://api.spotify.com/v1/artists/3mLGlD3jqVAlzqWFW4QqG6",
        "id" : "3mLGlD3jqVAlzqWFW4QqG6",
        "name" : "Forbes Family",
        "type" : "artist",
        "uri" : "spotify:artist:3mLGlD3jqVAlzqWFW4QqG6"
      } ],
      "disc_number" : 1,
      "duration_ms" : 152466,
      "explicit" : false,
      "external_ids" : {
        "isrc" : "US37G0663103"
      },
      "external_urls" : {
        "spotify" : "https://open.spotify.com/track/3pM9fWsp7Y0H9kYnrlYTGl"
      },
      "href" : "https://api.spotify.com/v1/tracks/3pM9fWsp7Y0H9kYnrlYTGl",
      "id" : "3pM9fWsp7Y0H9kYnrlYTGl",
      "is_local" : false,
      "is_playable" : true,
      "name" : "The Other Side Of Life",
      "popularity" : 0,
      "preview_url" : "https://p.scdn.co/mp3-preview/a53130c3de96a74b200cf93ffe170d926f3054f2?cid=774b29d4f13844c495f206cafdad9c86",
      "track_number" : 3,
      "type" : "track",
      "uri" : "spotify:track:3pM9fWsp7Y0H9kYnrlYTGl"
    }, {
      "album" : {
        "album_type" : "album",
        "artists" : [ {
          "external_urls" : {
            "spotify" : "https://open.spotify.com/artist/3mLGlD3jqVAlzqWFW4QqG6"
          },
          "href" : "https://api.spotify.com/v1/artists/3mLGlD3jqVAlzqWFW4QqG6",
          "id" : "3mLGlD3jqVAlzqWFW4QqG6",
          "name" : "Forbes Family",
          "type" : "artist",
          "uri" : "spotify:artist:3mLGlD3jqVAlzqWFW4QqG6"
        } ],
        "external_urls" : {
          "spotify" : "https://open.spotify.com/album/1D0Wv0uoo4dGwTzAqTJJ02"
        },
        "href" : "https://api.spotify.com/v1/albums/1D0Wv0uoo4dGwTzAqTJJ02",
        "id" : "1D0Wv0uoo4dGwTzAqTJJ02",
        "images" : [ {
          "height" : 640,
          "url" : "https://i.scdn.co/image/ab67616d0000b273959bdbafd3757d90cd572084",
          "width" : 640
        }, {
          "height" : 300,
          "url" : "https://i.scdn.co/image/ab67616d00001e02959bdbafd3757d90cd572084",
          "width" : 300
        }, {
          "height" : 64,
          "url" : "https://i.scdn.co/image/ab67616d00004851959bdbafd3757d90cd572084",
          "width" : 64
        } ],
        "name" : "Gleams Of That Golden Morning",
        "release_date" : "2011-10-30",
        "release_date_precision" : "day",
        "total_tracks" : 12,
        "type" : "album",
        "uri" : "spotify:album:1D0Wv0uoo4dGwTzAqTJJ02"
      },
      "artists" : [ {
        "external_urls" : {
          "spotify" : "https://open.spotify.com/artist/3mLGlD3jqVAlzqWFW4QqG6"
        },
        "href" : "https://api.spotify.com/v1/artists/3mLGlD3jqVAlzqWFW4QqG6",
        "id" : "3mLGlD3jqVAlzqWFW4QqG6",
        "name" : "Forbes Family",
        "type" : "artist",
        "uri" : "spotify:artist:3mLGlD3jqVAlzqWFW4QqG6"
      } ],
      "disc_number" : 1,
      "duration_ms" : 168786,
      "explicit" : false,
      "external_ids" : {
        "isrc" : "US37G0663102"
      },
      "external_urls" : {
        "spotify" : "https://open.spotify.com/track/5GLjC1twz0Svn2H339EUtx"
      },
      "href" : "https://api.spotify.com/v1/tracks/5GLjC1twz0Svn2H339EUtx",
      "id" : "5GLjC1twz0Svn2H339EUtx",
      "is_local" : false,
      "is_playable" : true,
      "name" : "The Old Ship of Zion",
      "popularity" : 0,
      "preview_url" : "https://p.scdn.co/mp3-preview/9e76e10ff2c3cbc86b60869100eed63961e13a08?cid=774b29d4f13844c495f206cafdad9c86",
      "track_number" : 2,
      "type" : "track",
      "uri" : "spotify:track:5GLjC1twz0Svn2H339EUtx"
    }, {
      "album" : {
        "album_type" : "album",
        "artists" : [ {
          "external_urls" : {
            "spotify" : "https://open.spotify.com/artist/3mLGlD3jqVAlzqWFW4QqG6"
          },
          "href" : "https://api.spotify.com/v1/artists/3mLGlD3jqVAlzqWFW4QqG6",
          "id" : "3mLGlD3jqVAlzqWFW4QqG6",
          "name" : "Forbes Family",
          "type" : "artist",
          "uri" : "spotify:artist:3mLGlD3jqVAlzqWFW4QqG6"
        } ],
        "external_urls" : {
          "spotify" : "https://open.spotify.com/album/1D0Wv0uoo4dGwTzAqTJJ02"
        },
        "href" : "https://api.spotify.com/v1/albums/1D0Wv0uoo4dGwTzAqTJJ02",
        "id" : "1D0Wv0uoo4dGwTzAqTJJ02",
        "images" : [ {
          "height" : 640,
          "url" : "https://i.scdn.co/image/ab67616d0000b273959bdbafd3757d90cd572084",
          "width" : 640
        }, {
          "height" : 300,
          "url" : "https://i.scdn.co/image/ab67616d00001e02959bdbafd3757d90cd572084",
          "width" : 300
        }, {
          "height" : 64,
          "url" : "https://i.scdn.co/image/ab67616d00004851959bdbafd3757d90cd572084",
          "width" : 64
        } ],
        "name" : "Gleams Of That Golden Morning",
        "release_date" : "2011-10-30",
        "release_date_precision" : "day",
        "total_tracks" : 12,
        "type" : "album",
        "uri" : "spotify:album:1D0Wv0uoo4dGwTzAqTJJ02"
      },
      "artists" : [ {
        "external_urls" : {
          "spotify" : "https://open.spotify.com/artist/3mLGlD3jqVAlzqWFW4QqG6"
        },
        "href" : "https://api.spotify.com/v1/artists/3mLGlD3jqVAlzqWFW4QqG6",
        "id" : "3mLGlD3jqVAlzqWFW4QqG6",
        "name" : "Forbes Family",
        "type" : "artist",
        "uri" : "spotify:artist:3mLGlD3jqVAlzqWFW4QqG6"
      } ],
      "disc_number" : 1,
      "duration_ms" : 152466,
      "explicit" : false,
      "external_ids" : {
        "isrc" : "US37G0663103"
      },
      "external_urls" : {
        "spotify" : "https://open.spotify.com/track/0cKJNoFqdHKjr5umNEYkbc"
      },
      "href" : "https://api.spotify.com/v1/tracks/0cKJNoFqdHKjr5umNEYkbc",
      "id" : "0cKJNoFqdHKjr5umNEYkbc",
      "is_local" : false,
      "is_playable" : true,
      "name" : "The Other Side of Life",
      "popularity" : 0,
      "preview_url" : "https://p.scdn.co/mp3-preview/47f409007f958f22a520c14e052a7616c2bc9b90?cid=774b29d4f13844c495f206cafdad9c86",
      "track_number" : 3,
      "type" : "track",
      "uri" : "spotify:track:0cKJNoFqdHKjr5umNEYkbc"
    }, {
      "album" : {
        "album_type" : "album",
        "artists" : [ {
          "external_urls" : {
            "spotify" : "https://open.spotify.com/artist/3mLGlD3jqVAlzqWFW4QqG6"
          },
          "href" : "https://api.spotify.com/v1/artists/3mLGlD3jqVAlzqWFW4QqG6",
          "id" : "3mLGlD3jqVAlzqWFW4QqG6",
          "name" : "Forbes Family",
          "type" : "artist",
          "uri" : "spotify:artist:3mLGlD3jqVAlzqWFW4QqG6"
        } ],
        "external_urls" : {
          "spotify" : "https://open.spotify.com/album/0nI3d3ynZF06O1AWyYeSe1"
        },
        "href" : "https://api.spotify.com/v1/albums/0nI3d3ynZF06O1AWyYeSe1",
        "id" : "0nI3d3ynZF06O1AWyYeSe1",
        "images" : [ {
          "height" : 640,
          "url" : "https://i.scdn.co/image/ab67616d0000b2735136f6673763d2560b3cb02c",
          "width" : 640
        }, {
          "height" : 300,
          "url" : "https://i.scdn.co/image/ab67616d00001e025136f6673763d2560b3cb02c",
          "width" : 300
        }, {
          "height" : 64,
          "url" : "https://i.scdn.co/image/ab67616d000048515136f6673763d2560b3cb02c",
          "width" : 64
        } ],
        "name" : "Gleams Of That Golden Morning",
        "release_date" : "2011-10-30",
        "release_date_precision" : "day",
        "total_tracks" : 12,
        "type" : "album",
        "uri" : "spotify:album:0nI3d3ynZF06O1AWyYeSe1"
      },
      "artists" : [ {
        "external_urls" : {
          "spotify" : "https://open.spotify.com/artist/3mLGlD3jqVAlzqWFW4QqG6"
        },
        "href" : "https://api.spotify.com/v1/artists/3mLGlD3jqVAlzqWFW4QqG6",
        "id" : "3mLGlD3jqVAlzqWFW4QqG6",
        "name" : "Forbes Family",
        "type" : "artist",
        "uri" : "spotify:artist:3mLGlD3jqVAlzqWFW4QqG6"
      } ],
      "disc_number" : 1,
      "duration_ms" : 168786,
      "explicit" : false,
      "external_ids" : {
        "isrc" : "US37G0663102"
      },
      "external_urls" : {
        "spotify" : "https://open.spotify.com/track/1iAcJPvnc8788yvb5NdvQG"
      },
      "href" : "https://api.spotify.com/v1/tracks/1iAcJPvnc8788yvb5NdvQG",
      "id" : "1iAcJPvnc8788yvb5NdvQG",
      "is_local" : false,
      "is_playable" : true,
      "name" : "The Old Ship Of Zion",
      "popularity" : 1,
      "preview_url" : "https://p.scdn.co/mp3-preview/d5ab48a2fb32c42a995aeb93010ec06b8cd40a0d?cid=774b29d4f13844c495f206cafdad9c86",
      "track_number" : 2,
      "type" : "track",
      "uri" : "spotify:track:1iAcJPvnc8788yvb5NdvQG"
    }, {
      "album" : {
        "album_type" : "album",
        "artists" : [ {
          "external_urls" : {
            "spotify" : "https://open.spotify.com/artist/3mLGlD3jqVAlzqWFW4QqG6"
          },
          "href" : "https://api.spotify.com/v1/artists/3mLGlD3jqVAlzqWFW4QqG6",
          "id" : "3mLGlD3jqVAlzqWFW4QqG6",
          "name" : "Forbes Family",
          "type" : "artist",
          "uri" : "spotify:artist:3mLGlD3jqVAlzqWFW4QqG6"
        } ],
        "external_urls" : {
          "spotify" : "https://open.spotify.com/album/0nI3d3ynZF06O1AWyYeSe1"
        },
        "href" : "https://api.spotify.com/v1/albums/0nI3d3ynZF06O1AWyYeSe1",
        "id" : "0nI3d3ynZF06O1AWyYeSe1",
        "images" : [ {
          "height" : 640,
          "url" : "https://i.scdn.co/image/ab67616d0000b2735136f6673763d2560b3cb02c",
          "width" : 640
        }, {
          "height" : 300,
          "url" : "https://i.scdn.co/image/ab67616d00001e025136f6673763d2560b3cb02c",
          "width" : 300
        }, {
          "height" : 64,
          "url" : "https://i.scdn.co/image/ab67616d000048515136f6673763d2560b3cb02c",
          "width" : 64
        } ],
        "name" : "Gleams Of That Golden Morning",
        "release_date" : "2011-10-30",
        "release_date_precision" : "day",
        "total_tracks" : 12,
        "type" : "album",
        "uri" : "spotify:album:0nI3d3ynZF06O1AWyYeSe1"
      },
      "artists" : [ {
        "external_urls" : {
          "spotify" : "https://open.spotify.com/artist/3mLGlD3jqVAlzqWFW4QqG6"
        },
        "href" : "https://api.spotify.com/v1/artists/3mLGlD3jqVAlzqWFW4QqG6",
        "id" : "3mLGlD3jqVAlzqWFW4QqG6",
        "name" : "Forbes Family",
        "type" : "artist",
        "uri" : "spotify:artist:3mLGlD3jqVAlzqWFW4QqG6"
      } ],
      "disc_number" : 1,
      "duration_ms" : 137800,
      "explicit" : false,
      "external_ids" : {
        "isrc" : "US37G0663101"
      },
      "external_urls" : {
        "spotify" : "https://open.spotify.com/track/7ab5s0122uULbQU2Ej2HEy"
      },
      "href" : "https://api.spotify.com/v1/tracks/7ab5s0122uULbQU2Ej2HEy",
      "id" : "7ab5s0122uULbQU2Ej2HEy",
      "is_local" : false,
      "is_playable" : true,
      "name" : "Living In The Name Of Love",
      "popularity" : 0,
      "preview_url" : "https://p.scdn.co/mp3-preview/8f54d29d0f7e1dd16bbc0f16dc62019c3a2ac531?cid=774b29d4f13844c495f206cafdad9c86",
      "track_number" : 1,
      "type" : "track",
      "uri" : "spotify:track:7ab5s0122uULbQU2Ej2HEy"
    }, {
      "album" : {
        "album_type" : "album",
        "artists" : [ {
          "external_urls" : {
            "spotify" : "https://open.spotify.com/artist/3mLGlD3jqVAlzqWFW4QqG6"
          },
          "href" : "https://api.spotify.com/v1/artists/3mLGlD3jqVAlzqWFW4QqG6",
          "id" : "3mLGlD3jqVAlzqWFW4QqG6",
          "name" : "Forbes Family",
          "type" : "artist",
          "uri" : "spotify:artist:3mLGlD3jqVAlzqWFW4QqG6"
        } ],
        "external_urls" : {
          "spotify" : "https://open.spotify.com/album/1D0Wv0uoo4dGwTzAqTJJ02"
        },
        "href" : "https://api.spotify.com/v1/albums/1D0Wv0uoo4dGwTzAqTJJ02",
        "id" : "1D0Wv0uoo4dGwTzAqTJJ02",
        "images" : [ {
          "height" : 640,
          "url" : "https://i.scdn.co/image/ab67616d0000b273959bdbafd3757d90cd572084",
          "width" : 640
        }, {
          "height" : 300,
          "url" : "https://i.scdn.co/image/ab67616d00001e02959bdbafd3757d90cd572084",
          "width" : 300
        }, {
          "height" : 64,
          "url" : "https://i.scdn.co/image/ab67616d00004851959bdbafd3757d90cd572084",
          "width" : 64
        } ],
        "name" : "Gleams Of That Golden Morning",
        "release_date" : "2011-10-30",
        "release_date_precision" : "day",
        "total_tracks" : 12,
        "type" : "album",
        "uri" : "spotify:album:1D0Wv0uoo4dGwTzAqTJJ02"
      },
      "artists" : [ {
        "external_urls" : {
          "spotify" : "https://open.spotify.com/artist/3mLGlD3jqVAlzqWFW4QqG6"
        },
        "href" : "https://api.spotify.com/v1/artists/3mLGlD3jqVAlzqWFW4QqG6",
        "id" : "3mLGlD3jqVAlzqWFW4QqG6",
        "name" : "Forbes Family",
        "type" : "artist",
        "uri" : "spotify:artist:3mLGlD3jqVAlzqWFW4QqG6"
      } ],
      "disc_number" : 1,
      "duration_ms" : 137800,
      "explicit" : false,
      "external_ids" : {
        "isrc" : "US37G0663101"
      },
      "external_urls" : {
        "spotify" : "https://open.spotify.com/track/1KF3XC9YxmCpZtZvuJUkQN"
      },
      "href" : "https://api.spotify.com/v1/tracks/1KF3XC9YxmCpZtZvuJUkQN",
      "id" : "1KF3XC9YxmCpZtZvuJUkQN",
      "is_local" : false,
      "is_playable" : true,
      "name" : "Living in the Name of Love",
      "popularity" : 0,
      "preview_url" : "https://p.scdn.co/mp3-preview/ec9e182dedba52c093eef0c663b803cafd769ab8?cid=774b29d4f13844c495f206cafdad9c86",
      "track_number" : 1,
      "type" : "track",
      "uri" : "spotify:track:1KF3XC9YxmCpZtZvuJUkQN"
    }, {
      "album" : {
        "album_type" : "album",
        "artists" : [ {
          "external_urls" : {
            "spotify" : "https://open.spotify.com/artist/3mLGlD3jqVAlzqWFW4QqG6"
          },
          "href" : "https://api.spotify.com/v1/artists/3mLGlD3jqVAlzqWFW4QqG6",
          "id" : "3mLGlD3jqVAlzqWFW4QqG6",
          "name" : "Forbes Family",
          "type" : "artist",
          "uri" : "spotify:artist:3mLGlD3jqVAlzqWFW4QqG6"
        } ],
        "external_urls" : {
          "spotify" : "https://open.spotify.com/album/0nI3d3ynZF06O1AWyYeSe1"
        },
        "href" : "https://api.spotify.com/v1/albums/0nI3d3ynZF06O1AWyYeSe1",
        "id" : "0nI3d3ynZF06O1AWyYeSe1",
        "images" : [ {
          "height" : 640,
          "url" : "https://i.scdn.co/image/ab67616d0000b2735136f6673763d2560b3cb02c",
          "width" : 640
        }, {
          "height" : 300,
          "url" : "https://i.scdn.co/image/ab67616d00001e025136f6673763d2560b3cb02c",
          "width" : 300
        }, {
          "height" : 64,
          "url" : "https://i.scdn.co/image/ab67616d000048515136f6673763d2560b3cb02c",
          "width" : 64
        } ],
        "name" : "Gleams Of That Golden Morning",
        "release_date" : "2011-10-30",
        "release_date_precision" : "day",
        "total_tracks" : 12,
        "type" : "album",
        "uri" : "spotify:album:0nI3d3ynZF06O1AWyYeSe1"
      },
      "artists" : [ {
        "external_urls" : {
          "spotify" : "https://open.spotify.com/artist/3mLGlD3jqVAlzqWFW4QqG6"
        },
        "href" : "https://api.spotify.com/v1/artists/3mLGlD3jqVAlzqWFW4QqG6",
        "id" : "3mLGlD3jqVAlzqWFW4QqG6",
        "name" : "Forbes Family",
        "type" : "artist",
        "uri" : "spotify:artist:3mLGlD3jqVAlzqWFW4QqG6"
      } ],
      "disc_number" : 1,
      "duration_ms" : 255973,
      "explicit" : false,
      "external_ids" : {
        "isrc" : "US37G0663110"
      },
      "external_urls" : {
        "spotify" : "https://open.spotify.com/track/58KvTuGxe61WdaxR5TymqS"
      },
      "href" : "https://api.spotify.com/v1/tracks/58KvTuGxe61WdaxR5TymqS",
      "id" : "58KvTuGxe61WdaxR5TymqS",
      "is_local" : false,
      "is_playable" : true,
      "name" : "Sleeping In The Grave",
      "popularity" : 0,
      "preview_url" : "https://p.scdn.co/mp3-preview/3ef340f9fc8d5d00c6af67ebeca4537faccbc1f6?cid=774b29d4f13844c495f206cafdad9c86",
      "track_number" : 10,
      "type" : "track",
      "uri" : "spotify:track:58KvTuGxe61WdaxR5TymqS"
    }, {
      "album" : {
        "album_type" : "album",
        "artists" : [ {
          "external_urls" : {
            "spotify" : "https://open.spotify.com/artist/3mLGlD3jqVAlzqWFW4QqG6"
          },
          "href" : "https://api.spotify.com/v1/artists/3mLGlD3jqVAlzqWFW4QqG6",
          "id" : "3mLGlD3jqVAlzqWFW4QqG6",
          "name" : "Forbes Family",
          "type" : "artist",
          "uri" : "spotify:artist:3mLGlD3jqVAlzqWFW4QqG6"
        } ],
        "external_urls" : {
          "spotify" : "https://open.spotify.com/album/1D0Wv0uoo4dGwTzAqTJJ02"
        },
        "href" : "https://api.spotify.com/v1/albums/1D0Wv0uoo4dGwTzAqTJJ02",
        "id" : "1D0Wv0uoo4dGwTzAqTJJ02",
        "images" : [ {
          "height" : 640,
          "url" : "https://i.scdn.co/image/ab67616d0000b273959bdbafd3757d90cd572084",
          "width" : 640
        }, {
          "height" : 300,
          "url" : "https://i.scdn.co/image/ab67616d00001e02959bdbafd3757d90cd572084",
          "width" : 300
        }, {
          "height" : 64,
          "url" : "https://i.scdn.co/image/ab67616d00004851959bdbafd3757d90cd572084",
          "width" : 64
        } ],
        "name" : "Gleams Of That Golden Morning",
        "release_date" : "2011-10-30",
        "release_date_precision" : "day",
        "total_tracks" : 12,
        "type" : "album",
        "uri" : "spotify:album:1D0Wv0uoo4dGwTzAqTJJ02"
      },
      "artists" : [ {
        "external_urls" : {
          "spotify" : "https://open.spotify.com/artist/3mLGlD3jqVAlzqWFW4QqG6"
        },
        "href" : "https://api.spotify.com/v1/artists/3mLGlD3jqVAlzqWFW4QqG6",
        "id" : "3mLGlD3jqVAlzqWFW4QqG6",
        "name" : "Forbes Family",
        "type" : "artist",
        "uri" : "spotify:artist:3mLGlD3jqVAlzqWFW4QqG6"
      } ],
      "disc_number" : 1,
      "duration_ms" : 255973,
      "explicit" : false,
      "external_ids" : {
        "isrc" : "US37G0663110"
      },
      "external_urls" : {
        "spotify" : "https://open.spotify.com/track/2jXW7kkLMDaluS69dGJo3n"
      },
      "href" : "https://api.spotify.com/v1/tracks/2jXW7kkLMDaluS69dGJo3n",
      "id" : "2jXW7kkLMDaluS69dGJo3n",
      "is_local" : false,
      "is_playable" : true,
      "name" : "Wnen I'm Sleeping in the Grave",
      "popularity" : 0,
      "preview_url" : "https://p.scdn.co/mp3-preview/3ef340f9fc8d5d00c6af67ebeca4537faccbc1f6?cid=774b29d4f13844c495f206cafdad9c86",
      "track_number" : 10,
      "type" : "track",
      "uri" : "spotify:track:2jXW7kkLMDaluS69dGJo3n"
    }, {
      "album" : {
        "album_type" : "album",
        "artists" : [ {
          "external_urls" : {
            "spotify" : "https://open.spotify.com/artist/3mLGlD3jqVAlzqWFW4QqG6"
          },
          "href" : "https://api.spotify.com/v1/artists/3mLGlD3jqVAlzqWFW4QqG6",
          "id" : "3mLGlD3jqVAlzqWFW4QqG6",
          "name" : "Forbes Family",
          "type" : "artist",
          "uri" : "spotify:artist:3mLGlD3jqVAlzqWFW4QqG6"
        } ],
        "external_urls" : {
          "spotify" : "https://open.spotify.com/album/1D0Wv0uoo4dGwTzAqTJJ02"
        },
        "href" : "https://api.spotify.com/v1/albums/1D0Wv0uoo4dGwTzAqTJJ02",
        "id" : "1D0Wv0uoo4dGwTzAqTJJ02",
        "images" : [ {
          "height" : 640,
          "url" : "https://i.scdn.co/image/ab67616d0000b273959bdbafd3757d90cd572084",
          "width" : 640
        }, {
          "height" : 300,
          "url" : "https://i.scdn.co/image/ab67616d00001e02959bdbafd3757d90cd572084",
          "width" : 300
        }, {
          "height" : 64,
          "url" : "https://i.scdn.co/image/ab67616d00004851959bdbafd3757d90cd572084",
          "width" : 64
        } ],
        "name" : "Gleams Of That Golden Morning",
        "release_date" : "2011-10-30",
        "release_date_precision" : "day",
        "total_tracks" : 12,
        "type" : "album",
        "uri" : "spotify:album:1D0Wv0uoo4dGwTzAqTJJ02"
      },
      "artists" : [ {
        "external_urls" : {
          "spotify" : "https://open.spotify.com/artist/3mLGlD3jqVAlzqWFW4QqG6"
        },
        "href" : "https://api.spotify.com/v1/artists/3mLGlD3jqVAlzqWFW4QqG6",
        "id" : "3mLGlD3jqVAlzqWFW4QqG6",
        "name" : "Forbes Family",
        "type" : "artist",
        "uri" : "spotify:artist:3mLGlD3jqVAlzqWFW4QqG6"
      } ],
      "disc_number" : 1,
      "duration_ms" : 195813,
      "explicit" : false,
      "external_ids" : {
        "isrc" : "US37G0663109"
      },
      "external_urls" : {
        "spotify" : "https://open.spotify.com/track/2egLT3ejOZEYU5FlENOUdl"
      },
      "href" : "https://api.spotify.com/v1/tracks/2egLT3ejOZEYU5FlENOUdl",
      "id" : "2egLT3ejOZEYU5FlENOUdl",
      "is_local" : false,
      "is_playable" : true,
      "name" : "In The Valley He Restoreth My Soul",
      "popularity" : 0,
      "preview_url" : "https://p.scdn.co/mp3-preview/6244d7aa0407fda82253e3ac03fb645cfdb55621?cid=774b29d4f13844c495f206cafdad9c86",
      "track_number" : 9,
      "type" : "track",
      "uri" : "spotify:track:2egLT3ejOZEYU5FlENOUdl"
    }, {
      "album" : {
        "album_type" : "album",
        "artists" : [ {
          "external_urls" : {
            "spotify" : "https://open.spotify.com/artist/3mLGlD3jqVAlzqWFW4QqG6"
          },
          "href" : "https://api.spotify.com/v1/artists/3mLGlD3jqVAlzqWFW4QqG6",
          "id" : "3mLGlD3jqVAlzqWFW4QqG6",
          "name" : "Forbes Family",
          "type" : "artist",
          "uri" : "spotify:artist:3mLGlD3jqVAlzqWFW4QqG6"
        } ],
        "external_urls" : {
          "spotify" : "https://open.spotify.com/album/0nI3d3ynZF06O1AWyYeSe1"
        },
        "href" : "https://api.spotify.com/v1/albums/0nI3d3ynZF06O1AWyYeSe1",
        "id" : "0nI3d3ynZF06O1AWyYeSe1",
        "images" : [ {
          "height" : 640,
          "url" : "https://i.scdn.co/image/ab67616d0000b2735136f6673763d2560b3cb02c",
          "width" : 640
        }, {
          "height" : 300,
          "url" : "https://i.scdn.co/image/ab67616d00001e025136f6673763d2560b3cb02c",
          "width" : 300
        }, {
          "height" : 64,
          "url" : "https://i.scdn.co/image/ab67616d000048515136f6673763d2560b3cb02c",
          "width" : 64
        } ],
        "name" : "Gleams Of That Golden Morning",
        "release_date" : "2011-10-30",
        "release_date_precision" : "day",
        "total_tracks" : 12,
        "type" : "album",
        "uri" : "spotify:album:0nI3d3ynZF06O1AWyYeSe1"
      },
      "artists" : [ {
        "external_urls" : {
          "spotify" : "https://open.spotify.com/artist/3mLGlD3jqVAlzqWFW4QqG6"
        },
        "href" : "https://api.spotify.com/v1/artists/3mLGlD3jqVAlzqWFW4QqG6",
        "id" : "3mLGlD3jqVAlzqWFW4QqG6",
        "name" : "Forbes Family",
        "type" : "artist",
        "uri" : "spotify:artist:3mLGlD3jqVAlzqWFW4QqG6"
      } ],
      "disc_number" : 1,
      "duration_ms" : 195813,
      "explicit" : false,
      "external_ids" : {
        "isrc" : "US37G0663109"
      },
      "external_urls" : {
        "spotify" : "https://open.spotify.com/track/2y8Hnd1JexvAscaIqNtZVc"
      },
      "href" : "https://api.spotify.com/v1/tracks/2y8Hnd1JexvAscaIqNtZVc",
      "id" : "2y8Hnd1JexvAscaIqNtZVc",
      "is_local" : false,
      "is_playable" : true,
      "name" : "In The Valley He Restoreth My Soul",
      "popularity" : 0,
      "preview_url" : "https://p.scdn.co/mp3-preview/b7aad22b528993136fc352d200aabf7858c1cada?cid=774b29d4f13844c495f206cafdad9c86",
      "track_number" : 9,
      "type" : "track",
      "uri" : "spotify:track:2y8Hnd1JexvAscaIqNtZVc"
    } ],
    "limit" : 10,
    "next" : "https://api.spotify.com/v1/search?query=Gleams+of+the+Golden+Morning&type=track&market=US&offset=15&limit=10",
    "offset" : 5,
    "previous" : "https://api.spotify.com/v1/search?query=Gleams+of+the+Golden+Morning&type=track&market=US&offset=0&limit=10",
    "total" : 16
  }
}