{
  "tracks" : {
    "href" : "https://api.spotify.com/v1/search?query=Infant+Holy%2C+Infant+Lowly&type=track&market=US&offset=5&limit=10",
    "items" : [ {
      "album" : {
        "album_type" : "album",
        "artists" : [ {
          "external_urls" : {
            "spotify" : "https://open.spotify.com/artist/4NOFolaAMP4kBDVq8GwEfQ"
          },
          "href" : "https://api.spotify.com/v1/artists/4NOFolaAMP4kBDVq8GwEfQ",
          "id" : "4NOFolaAMP4kBDVq8GwEfQ",
          "name" : "Tewkesbury Abbey Choir",
          "type" : "artist",
          "uri" : "spotify:artist:4NOFolaAMP4kBDVq8GwEfQ"
        }, {
          "external_urls" : {
            "spotify" : "https://open.spotify.com/artist/2Q4Ge9DEARr3PU0lCHb6kz"
          },
          "href" : "https://api.spotify.com/v1/artists/2Q4Ge9DEARr3PU0lCHb6kz",
          "id" : "2Q4Ge9DEARr3PU0lCHb6kz",
          "name" : "Andrew Sackett",
          "type" : "artist",
          "uri" : "spotify:artist:2Q4Ge9DEARr3PU0lCHb6kz"
        } ],
        "external_urls" : {
          "spotify" : "https://open.spotify.com/album/31uwWoSYGLBuRh9kWdmn4K"
        },
        "href" : "https://api.spotify.com/v1/albums/31uwWoSYGLBuRh9kWdmn4K",
        "id" : "31uwWoSYGLBuRh9kWdmn4K",
        "images" : [ {
          "height" : 640,
          "url" : "https://i.scdn.co/image/ab67616d0000b273c9a55c2ea392775897d23930",
          "width" : 640
        }, {
          "height" : 300,
          "url" : "https://i.scdn.co/image/ab67616d00001e02c9a55c2ea392775897d23930",
          "width" : 300
        }, {
          "height" : 64,
          "url" : "https://i.scdn.co/image/ab67616d00004851c9a55c2ea392775897d23930",
          "width" : 64
        } ],
        "name" : "Christmas Carols From Tewkesbury Abbey",
        "release_date" : "1994-11-10",
        "release_date_precision" : "day",
        "total_tracks" : 20,
        "type" : "album",
        "uri" : "spotify:album:31uwWoSYGLBuRh9kWdmn4K"
      },
      "artists" : [ {
        "external_urls" : {
          "spotify" : "https://open.spotify.com/artist/1U5zgr455OGyIkLNXvDdrf"
        },
        "href" : "https://api.spotify.com/v1/artists/1U5zgr455OGyIkLNXvDdrf",
        "id" : "1U5zgr455OGyIkLNXvDdrf",
        "name" : "Traditional",
        "type" : "artist",
        "uri" : "spotify:artist:1U5zgr455OGyIkLNXvDdrf"
      }, {
        "external_urls" : {
          "spotify" : "https://open.spotify.com/artist/3adMGKhs0hyGuTVpe7hnqC"
        },
        "href" : "https://api.spotify.com/v1/artists/3adMGKhs0hyGuTVpe7hnqC",
        "id" : "3adMGKhs0hyGuTVpe7hnqC",
        "name" : "Sir David Willcocks",
        "type" : "artist",
        "uri" : "spotify:artist:3adMGKhs0hyGuTVpe7hnqC"
      }, {
        "external_urls" : {
          "spotify" : "https://open.spotify.com/artist/4NOFolaAMP4kBDVq8GwEfQ"
        },
        "href" : "https://api.spotify.com/v1/artists/4NOFolaAMP4kBDVq8GwEfQ",
        "id" : "4NOFolaAMP4kBDVq8GwEfQ",
        "name" : "Tewkesbury Abbey Choir",
        "type" : "artist",
        "uri" : "spotify:artist:4NOFolaAMP4kBDVq8GwEfQ"
      }, {
        "external_urls" : {
          "spotify" : "https://open.spotify.com/artist/2Q4Ge9DEARr3PU0lCHb6kz"
        },
        "href" : "https://api.spotify.com/v1/artists/2Q4Ge9DEARr3PU0lCHb6kz",
        "id" : "2Q4Ge9DEARr3PU0lCHb6kz",
        "name" : "Andrew Sackett",
        "type" : "artist",
        "uri" : "spotify:artist:2Q4Ge9DEARr3PU0lCHb6kz"
      } ],
      "disc_number" : 1,
      "duration_ms" : 132000,
      "explicit" : false,
      "external_ids" : {
        "isrc" : "HKI199235505"
      },
      "external_urls" : {
        "spotify" : "https://open.spotify.com/track/1DQZuhz3gJk9rLdcnPEGJH"
      },
      "href" : "https://api.spotify.com/v1/tracks/1DQZuhz3gJk9rLdcnPEGJH",
      "id" : "1DQZuhz3gJk9rLdcnPEGJH",
      "is_local" : false,
      "is_playable" : true,
      "name" : "Infant Holy, Infant Lowly",
      "popularity" : 10,
      "preview_url" : "https://p.scdn.co/mp3-preview/285e42456e6106297f974c8ea28659ef072e9d63?cid=774b29d4f13844c495f206cafdad9c86",
      "track_number" : 5,
      "type" : "track",
      "uri" : "spotify:track:1DQZuhz3gJk9rLdcnPEGJH"
    }, {
      "album" : {
        "album_type" : "album",
        "artists" : [ {
          "external_urls" : {
            "spotify" : "https://open.spotify.com/artist/5pL7YEfiV9Gr2IAI9bpYfH"
          },
          "href" : "https://api.spotify.com/v1/artists/5pL7YEfiV9Gr2IAI9bpYfH",
          "id" : "5pL7YEfiV9Gr2IAI9bpYfH",
          "name" : "Sedona Breeze",
          "type" : "artist",
          "uri" : "spotify:artist:5pL7YEfiV9Gr2IAI9bpYfH"
        } ],
        "external_urls" : {
          "spotify" : "https://open.spotify.com/album/3BIHNTaojToEEKZxqAOT1j"
        },
        "href" : "https://api.spotify.com/v1/albums/3BIHNTaojToEEKZxqAOT1j",
        "id" : "3BIHNTaojToEEKZxqAOT1j",
        "images" : [ {
          "height" : 640,
          "url" : "https://i.scdn.co/image/ab67616d0000b27371db109c9311cfb3f0aae655",
          "width" : 640
        }, {
          "height" : 300,
          "url" : "https://i.scdn.co/image/ab67616d00001e0271db109c9311cfb3f0aae655",
          "width" : 300
        }, {
          "height" : 64,
          "url" : "https://i.scdn.co/image/ab67616d0000485171db109c9311cfb3f0aae655",
          "width" : 64
        } ],
        "name" : "Christmas Meditation Spa & Yoga",
        "release_date" : "2016-08-01",
        "release_date_precision" : "day",
        "total_tracks" : 15,
        "type" : "album",
        "uri" : "spotify:album:3BIHNTaojToEEKZxqAOT1j"
      },
      "artists" : [ {
        "external_urls" : {
          "spotify" : "https://open.spotify.com/artist/5pL7YEfiV9Gr2IAI9bpYfH"
        },
        "href" : "https://api.spotify.com/v1/artists/5pL7YEfiV9Gr2IAI9bpYfH",
        "id" : "5pL7YEfiV9Gr2IAI9bpYfH",
        "name" : "Sedona Breeze",
        "type" : "artist",
        "uri" : "spotify:artist:5pL7YEfiV9Gr2IAI9bpYfH"
      } ],
      "disc_number" : 1,
      "duration_ms" : 197834,
      "explicit" : false,
      "external_ids" : {
        "isrc" : "ushm21660752"
      },
      "external_urls" : {
        "spotify" : "https://open.spotify.com/track/6dXcJeND3vuYGJQQBV82ZH"
      },
      "href" : "https://api.spotify.com/v1/tracks/6dXcJeND3vuYGJQQBV82ZH",
      "id" : "6dXcJeND3vuYGJQQBV82ZH",
      "is_local" : false,
      "is_playable" : true,
      "name" : "Infant Holy Infant Lowly",
      "popularity" : 9,
      "preview_url" : "https://p.scdn.co/mp3-preview/d3ecfa11eed465318b2c3b58b4d767eff898f363?cid=774b29d4f13844c495f206cafdad9c86",
      "track_number" : 4,
      "type" : "track",
      "uri" : "spotify:track:6dXcJeND3vuYGJQQBV82ZH"
    }, {
      "album" : {
        "album_type" : "album",
        "artists" : [ {
          "external_urls" : {
            "spotify" : "https://open.spotify.com/artist/6GCii6lkUhkzTrznRyCuVh"
          },
          "href" : "https://api.spotify.com/v1/artists/6GCii6lkUhkzTrznRyCuVh",
          "id" : "6GCii6lkUhkzTrznRyCuVh",
          "name" : "The Cathedral Singers",
          "type" : "artist",
          "uri" : "spotify:artist:6GCii6lkUhkzTrznRyCuVh"
        }, {
          "external_urls" : {
            "spotify" : "https://open.spotify.com/artist/5eKrMraIZ0J5BPm0kEr7Dq"
          },
          "href" : "https://api.spotify.com/v1/artists/5eKrMraIZ0J5BPm0kEr7Dq",
          "id" : "5eKrMraIZ0J5BPm0kEr7Dq",
          "name" : "Richard Proulx",
          "type" : "artist",
          "uri" : "spotify:artist:5eKrMraIZ0J5BPm0kEr7Dq"
        } ],
        "external_urls" : {
          "spotify" : "https://open.spotify.com/album/5T13kP3rRHz4ynzB8tq870"
        },
        "href" : "https://api.spotify.com/v1/albums/5T13kP3rRHz4ynzB8tq870",
        "id" : "5T13kP3rRHz4ynzB8tq870",
        "images" : [ {
          "height" : 640,
          "url" : "https://i.scdn.co/image/ab67616d0000b273021c093e4694508ca96bac28",
          "width" : 640
        }, {
          "height" : 300,
          "url" : "https://i.scdn.co/image/ab67616d00001e02021c093e4694508ca96bac28",
          "width" : 300
        }, {
          "height" : 64,
          "url" : "https://i.scdn.co/image/ab67616d00004851021c093e4694508ca96bac28",
          "width" : 64
        } ],
        "name" : "Catholic Classics, Vol. 8: Catholic Christmas Classics",
        "release_date" : "2003-01-01",
        "release_date_precision" : "day",
        "total_tracks" : 22,
        "type" : "album",
        "uri" : "spotify:album:5T13kP3rRHz4ynzB8tq870"
      },
      "artists" : [ {
        "external_urls" : {
          "spotify" : "https://open.spotify.com/artist/6GCii6lkUhkzTrznRyCuVh"
        },
        "href" : "https://api.spotify.com/v1/artists/6GCii6lkUhkzTrznRyCuVh",
        "id" : "6GCii6lkUhkzTrznRyCuVh",
        "name" : "The Cathedral Singers",
        "type" : "artist",
        "uri" : "spotify:artist:6GCii6lkUhkzTrznRyCuVh"
      } ],
      "disc_number" : 1,
      "duration_ms" : 113000,
      "explicit" : false,
      "external_ids" : {
        "isrc" : "US7850810365"
      },
      "external_urls" : {
        "spotify" : "https://open.spotify.com/track/54lO155lZziyuwo2BZ8xmr"
      },
      "href" : "https://api.spotify.com/v1/tracks/54lO155lZziyuwo2BZ8xmr",
      "id" : "54lO155lZziyuwo2BZ8xmr",
      "is_local" : false,
      "is_playable" : true,
      "name" : "Infant Holy, Infant Lowly",
      "popularity" : 16,
      "preview_url" : "https://p.scdn.co/mp3-preview/bdd3e14d94cc649f01b4d06778a437af3a32e5af?cid=774b29d4f13844c495f206cafdad9c86",
      "track_number" : 18,
      "type" : "track",
      "uri" : "spotify:track:54lO155lZziyuwo2BZ8xmr"
    }, {
      "album" : {
        "album_type" : "album",
        "artists" : [ {
          "external_urls" : {
            "spotify" : "https://open.spotify.com/artist/2qAOVsSeDczqT4oSWJ2q2s"
          },
          "href" : "https://api.spotify.com/v1/artists/2qAOVsSeDczqT4oSWJ2q2s",
          "id" : "2qAOVsSeDczqT4oSWJ2q2s",
          "name" : "Brad Jacobsen",
          "type" : "artist",
          "uri" : "spotify:artist:2qAOVsSeDczqT4oSWJ2q2s"
        } ],
        "external_urls" : {
          "spotify" : "https://open.spotify.com/album/5rKmeg1OjlUA5IwbtdRiLL"
        },
        "href" : "https://api.spotify.com/v1/albums/5rKmeg1OjlUA5IwbtdRiLL",
        "id" : "5rKmeg1OjlUA5IwbtdRiLL",
        "images" : [ {
          "height" : 640,
          "url" : "https://i.scdn.co/image/ab67616d0000b273e13ab6b8cf2f77323ce88d1f",
          "width" : 640
        }, {
          "height" : 300,
          "url" : "https://i.scdn.co/image/ab67616d00001e02e13ab6b8cf2f77323ce88d1f",
          "width" : 300
        }, {
          "height" : 64,
          "url" : "https://i.scdn.co/image/ab67616d00004851e13ab6b8cf2f77323ce88d1f",
          "width" : 64
        } ],
        "name" : "Winter - Solo Piano Christmas",
        "release_date" : "2018-11-01",
        "release_date_precision" : "day",
        "total_tracks" : 11,
        "type" : "album",
        "uri" : "spotify:album:5rKmeg1OjlUA5IwbtdRiLL"
      },
      "artists" : [ {
        "external_urls" : {
          "spotify" : "https://open.spotify.com/artist/2qAOVsSeDczqT4oSWJ2q2s"
        },
        "href" : "https://api.spotify.com/v1/artists/2qAOVsSeDczqT4oSWJ2q2s",
        "id" : "2qAOVsSeDczqT4oSWJ2q2s",
        "name" : "Brad Jacobsen",
        "type" : "artist",
        "uri" : "spotify:artist:2qAOVsSeDczqT4oSWJ2q2s"
      } ],
      "disc_number" : 1,
      "duration_ms" : 283840,
      "explicit" : false,
      "external_ids" : {
        "isrc" : "TCADY1809444"
      },
      "external_urls" : {
        "spotify" : "https://open.spotify.com/track/3IaS1iIs7TM4WOb0DlhSTQ"
      },
      "href" : "https://api.spotify.com/v1/tracks/3IaS1iIs7TM4WOb0DlhSTQ",
      "id" : "3IaS1iIs7TM4WOb0DlhSTQ",
      "is_local" : false,
      "is_playable" : true,
      "name" : "Infant Holy, Infant Lowly",
      "popularity" : 6,
      "preview_url" : "https://p.scdn.co/mp3-preview/168577e1fb0539d627ed22b18ca3bf4564229e4b?cid=774b29d4f13844c495f206cafdad9c86",
      "track_number" : 11,
      "type" : "track",
      "uri" : "spotify:track:3IaS1iIs7TM4WOb0DlhSTQ"
    }, {
      "album" : {
        "album_type" : "album",
        "artists" : [ {
          "external_urls" : {
            "spotify" : "https://open.spotify.com/artist/5ZKBQyNLXQd1VfNf2oH5yF"
          },
          "href" : "https://api.spotify.com/v1/artists/5ZKBQyNLXQd1VfNf2oH5yF",
          "id" : "5ZKBQyNLXQd1VfNf2oH5yF",
          "name" : "Phillip Keveren",
          "type" : "artist",
          "uri" : "spotify:artist:5ZKBQyNLXQd1VfNf2oH5yF"
        } ],
        "external_urls" : {
          "spotify" : "https://open.spotify.com/album/5s176Yh8q3obRgi2Ech6ao"
        },
        "href" : "https://api.spotify.com/v1/albums/5s176Yh8q3obRgi2Ech6ao",
        "id" : "5s176Yh8q3obRgi2Ech6ao",
        "images" : [ {
          "height" : 640,
          "url" : "https://i.scdn.co/image/ab67616d0000b27358334bfc02cab910159292d7",
          "width" : 640
        }, {
          "height" : 300,
          "url" : "https://i.scdn.co/image/ab67616d00001e0258334bfc02cab910159292d7",
          "width" : 300
        }, {
          "height" : 64,
          "url" : "https://i.scdn.co/image/ab67616d0000485158334bfc02cab910159292d7",
          "width" : 64
        } ],
        "name" : "Piano Calm Christmas",
        "release_date" : "2019-10-25",
        "release_date_precision" : "day",
        "total_tracks" : 15,
        "type" : "album",
        "uri" : "spotify:album:5s176Yh8q3obRgi2Ech6ao"
      },
      "artists" : [ {
        "external_urls" : {
          "spotify" : "https://open.spotify.com/artist/5ZKBQyNLXQd1VfNf2oH5yF"
        },
        "href" : "https://api.spotify.com/v1/artists/5ZKBQyNLXQd1VfNf2oH5yF",
        "id" : "5ZKBQyNLXQd1VfNf2oH5yF",
        "name" : "Phillip Keveren",
        "type" : "artist",
        "uri" : "spotify:artist:5ZKBQyNLXQd1VfNf2oH5yF"
      } ],
      "disc_number" : 1,
      "duration_ms" : 147511,
      "explicit" : false,
      "external_ids" : {
        "isrc" : "QMQME1900193"
      },
      "external_urls" : {
        "spotify" : "https://open.spotify.com/track/37r9CszrdY01ZzosguhTUg"
      },
      "href" : "https://api.spotify.com/v1/tracks/37r9CszrdY01ZzosguhTUg",
      "id" : "37r9CszrdY01ZzosguhTUg",
      "is_local" : false,
      "is_playable" : true,
      "name" : "Infant Holy, Infant Lowly",
      "popularity" : 6,
      "preview_url" : "https://p.scdn.co/mp3-preview/7072314a4fbf0753cfb12e11dfa37d0e141311a7?cid=774b29d4f13844c495f206cafdad9c86",
      "track_number" : 7,
      "type" : "track",
      "uri" : "spotify:track:37r9CszrdY01ZzosguhTUg"
    }, {
      "album" : {
        "album_type" : "album",
        "artists" : [ {
          "external_urls" : {
            "spotify" : "https://open.spotify.com/artist/4XWZxmAaLdsJlJvUjlowZF"
          },
          "href" : "https://api.spotify.com/v1/artists/4XWZxmAaLdsJlJvUjlowZF",
          "id" : "4XWZxmAaLdsJlJvUjlowZF",
          "name" : "Christmas Music Holiday Trio",
          "type" : "artist",
          "uri" : "spotify:artist:4XWZxmAaLdsJlJvUjlowZF"
        } ],
        "external_urls" : {
          "spotify" : "https://open.spotify.com/album/3TsPUuASpxKagXwi12SSmx"
        },
        "href" : "https://api.spotify.com/v1/albums/3TsPUuASpxKagXwi12SSmx",
        "id" : "3TsPUuASpxKagXwi12SSmx",
        "images" : [ {
          "height" : 640,
          "url" : "https://i.scdn.co/image/ab67616d0000b273f276d5a8693984a2de549350",
          "width" : 640
        }, {
          "height" : 300,
          "url" : "https://i.scdn.co/image/ab67616d00001e02f276d5a8693984a2de549350",
          "width" : 300
        }, {
          "height" : 64,
          "url" : "https://i.scdn.co/image/ab67616d00004851f276d5a8693984a2de549350",
          "width" : 64
        } ],
        "name" : "Relaxing Christmas Music, Vol. 1",
        "release_date" : "2016-11-11",
        "release_date_precision" : "day",
        "total_tracks" : 10,
        "type" : "album",
        "uri" : "spotify:album:3TsPUuASpxKagXwi12SSmx"
      },
      "artists" : [ {
        "external_urls" : {
          "spotify" : "https://open.spotify.com/artist/4XWZxmAaLdsJlJvUjlowZF"
        },
        "href" : "https://api.spotify.com/v1/artists/4XWZxmAaLdsJlJvUjlowZF",
        "id" : "4XWZxmAaLdsJlJvUjlowZF",
        "name" : "Christmas Music Holiday Trio",
        "type" : "artist",
        "uri" : "spotify:artist:4XWZxmAaLdsJlJvUjlowZF"
      } ],
      "disc_number" : 1,
      "duration_ms" : 152826,
      "explicit" : false,
      "external_ids" : {
        "isrc" : "USY281608357"
      },
      "external_urls" : {
        "spotify" : "https://open.spotify.com/track/7hXySD6HB4ojyS47xtPJu9"
      },
      "href" : "https://api.spotify.com/v1/tracks/7hXySD6HB4ojyS47xtPJu9",
      "id" : "7hXySD6HB4ojyS47xtPJu9",
      "is_local" : false,
      "is_playable" : true,
      "name" : "Infant Holy, Infant Lowly",
      "popularity" : 6,
      "preview_url" : "https://p.scdn.co/mp3-preview/894aa910127fd5e927c3787f40b0bd55a7744928?cid=774b29d4f13844c495f206cafdad9c86",
      "track_number" : 4,
      "type" : "track",
      "uri" : "spotify:track:7hXySD6HB4ojyS47xtPJu9"
    }, {
      "album" : {
        "album_type" : "album",
        "artists" : [ {
          "external_urls" : {
            "spotify" : "https://open.spotify.com/artist/7cAyByeTxjKcuNTW1IXpGR"
          },
          "href" : "https://api.spotify.com/v1/artists/7cAyByeTxjKcuNTW1IXpGR",
          "id" : "7cAyByeTxjKcuNTW1IXpGR",
          "name" : "Musica Cristiana",
          "type" : "artist",
          "uri" : "spotify:artist:7cAyByeTxjKcuNTW1IXpGR"
        }, {
          "external_urls" : {
            "spotify" : "https://open.spotify.com/artist/1tJVia5eeqSOYTb6pQZeDg"
          },
          "href" : "https://api.spotify.com/v1/artists/1tJVia5eeqSOYTb6pQZeDg",
          "id" : "1tJVia5eeqSOYTb6pQZeDg",
          "name" : "Catholic Hymns",
          "type" : "artist",
          "uri" : "spotify:artist:1tJVia5eeqSOYTb6pQZeDg"
        }, {
          "external_urls" : {
            "spotify" : "https://open.spotify.com/artist/0rdBlsgJwmtrfJEjOo4fdQ"
          },
          "href" : "https://api.spotify.com/v1/artists/0rdBlsgJwmtrfJEjOo4fdQ",
          "id" : "0rdBlsgJwmtrfJEjOo4fdQ",
          "name" : "Simply Instrumental Worship",
          "type" : "artist",
          "uri" : "spotify:artist:0rdBlsgJwmtrfJEjOo4fdQ"
        } ],
        "external_urls" : {
          "spotify" : "https://open.spotify.com/album/1AhYPJsA8N8l3fugoYMcyF"
        },
        "href" : "https://api.spotify.com/v1/albums/1AhYPJsA8N8l3fugoYMcyF",
        "id" : "1AhYPJsA8N8l3fugoYMcyF",
        "images" : [ {
          "height" : 640,
          "url" : "https://i.scdn.co/image/ab67616d0000b27395fcbec38cb5f1d0955fdd0b",
          "width" : 640
        }, {
          "height" : 300,
          "url" : "https://i.scdn.co/image/ab67616d00001e0295fcbec38cb5f1d0955fdd0b",
          "width" : 300
        }, {
          "height" : 64,
          "url" : "https://i.scdn.co/image/ab67616d0000485195fcbec38cb5f1d0955fdd0b",
          "width" : 64
        } ],
        "name" : "Musica De Piano Cristiana",
        "release_date" : "2017-01-20",
        "release_date_precision" : "day",
        "total_tracks" : 15,
        "type" : "album",
        "uri" : "spotify:album:1AhYPJsA8N8l3fugoYMcyF"
      },
      "artists" : [ {
        "external_urls" : {
          "spotify" : "https://open.spotify.com/artist/7cAyByeTxjKcuNTW1IXpGR"
        },
        "href" : "https://api.spotify.com/v1/artists/7cAyByeTxjKcuNTW1IXpGR",
        "id" : "7cAyByeTxjKcuNTW1IXpGR",
        "name" : "Musica Cristiana",
        "type" : "artist",
        "uri" : "spotify:artist:7cAyByeTxjKcuNTW1IXpGR"
      }, {
        "external_urls" : {
          "spotify" : "https://open.spotify.com/artist/1tJVia5eeqSOYTb6pQZeDg"
        },
        "href" : "https://api.spotify.com/v1/artists/1tJVia5eeqSOYTb6pQZeDg",
        "id" : "1tJVia5eeqSOYTb6pQZeDg",
        "name" : "Catholic Hymns",
        "type" : "artist",
        "uri" : "spotify:artist:1tJVia5eeqSOYTb6pQZeDg"
      }, {
        "external_urls" : {
          "spotify" : "https://open.spotify.com/artist/0rdBlsgJwmtrfJEjOo4fdQ"
        },
        "href" : "https://api.spotify.com/v1/artists/0rdBlsgJwmtrfJEjOo4fdQ",
        "id" : "0rdBlsgJwmtrfJEjOo4fdQ",
        "name" : "Simply Instrumental Worship",
        "type" : "artist",
        "uri" : "spotify:artist:0rdBlsgJwmtrfJEjOo4fdQ"
      } ],
      "disc_number" : 1,
      "duration_ms" : 165160,
      "explicit" : false,
      "external_ids" : {
        "isrc" : "TCACW1796827"
      },
      "external_urls" : {
        "spotify" : "https://open.spotify.com/track/38yQo9h3rHDd4xtoNS4Riy"
      },
      "href" : "https://api.spotify.com/v1/tracks/38yQo9h3rHDd4xtoNS4Riy",
      "id" : "38yQo9h3rHDd4xtoNS4Riy",
      "is_local" : false,
      "is_playable" : true,
      "name" : "Infant Holy, Infant Lowly (Instrumental Version)",
      "popularity" : 10,
      "preview_url" : "https://p.scdn.co/mp3-preview/cb8af69383a55cfafbe8e677533e668359ee4731?cid=774b29d4f13844c495f206cafdad9c86",
      "track_number" : 13,
      "type" : "track",
      "uri" : "spotify:track:38yQo9h3rHDd4xtoNS4Riy"
    }, {
      "album" : {
        "album_type" : "album",
        "artists" : [ {
          "external_urls" : {
            "spotify" : "https://open.spotify.com/artist/5pL7YEfiV9Gr2IAI9bpYfH"
          },
          "href" : "https://api.spotify.com/v1/artists/5pL7YEfiV9Gr2IAI9bpYfH",
          "id" : "5pL7YEfiV9Gr2IAI9bpYfH",
          "name" : "Sedona Breeze",
          "type" : "artist",
          "uri" : "spotify:artist:5pL7YEfiV9Gr2IAI9bpYfH"
        } ],
        "external_urls" : {
          "spotify" : "https://open.spotify.com/album/3nkg5Zljyi3jnplnvpFBfy"
        },
        "href" : "https://api.spotify.com/v1/albums/3nkg5Zljyi3jnplnvpFBfy",
        "id" : "3nkg5Zljyi3jnplnvpFBfy",
        "images" : [ {
          "height" : 640,
          "url" : "https://i.scdn.co/image/ab67616d0000b27326923385788fc1008fbd04dc",
          "width" : 640
        }, {
          "height" : 300,
          "url" : "https://i.scdn.co/image/ab67616d00001e0226923385788fc1008fbd04dc",
          "width" : 300
        }, {
          "height" : 64,
          "url" : "https://i.scdn.co/image/ab67616d0000485126923385788fc1008fbd04dc",
          "width" : 64
        } ],
        "name" : "Christmas Spa Meditation: New Age Holiday Music for Cello and Piano",
        "release_date" : "2018-07-02",
        "release_date_precision" : "day",
        "total_tracks" : 14,
        "type" : "album",
        "uri" : "spotify:album:3nkg5Zljyi3jnplnvpFBfy"
      },
      "artists" : [ {
        "external_urls" : {
          "spotify" : "https://open.spotify.com/artist/5pL7YEfiV9Gr2IAI9bpYfH"
        },
        "href" : "https://api.spotify.com/v1/artists/5pL7YEfiV9Gr2IAI9bpYfH",
        "id" : "5pL7YEfiV9Gr2IAI9bpYfH",
        "name" : "Sedona Breeze",
        "type" : "artist",
        "uri" : "spotify:artist:5pL7YEfiV9Gr2IAI9bpYfH"
      } ],
      "disc_number" : 1,
      "duration_ms" : 356983,
      "explicit" : false,
      "external_ids" : {
        "isrc" : "ushm21870107"
      },
      "external_urls" : {
        "spotify" : "https://open.spotify.com/track/1R5ZIf4CtH086io3PqBGyl"
      },
      "href" : "https://api.spotify.com/v1/tracks/1R5ZIf4CtH086io3PqBGyl",
      "id" : "1R5ZIf4CtH086io3PqBGyl",
      "is_local" : false,
      "is_playable" : true,
      "name" : "Infant Holy Infant Lowly",
      "popularity" : 5,
      "preview_url" : "https://p.scdn.co/mp3-preview/081b467d357a3894edccfc63226ba6e576e45289?cid=774b29d4f13844c495f206cafdad9c86",
      "track_number" : 11,
      "type" : "track",
      "uri" : "spotify:track:1R5ZIf4CtH086io3PqBGyl"
    }, {
      "album" : {
        "album_type" : "album",
        "artists" : [ {
          "external_urls" : {
            "spotify" : "https://open.spotify.com/artist/64mXwTe92xIUKqJCTdfRnK"
          },
          "href" : "https://api.spotify.com/v1/artists/64mXwTe92xIUKqJCTdfRnK",
          "id" : "64mXwTe92xIUKqJCTdfRnK",
          "name" : "Musica Sacra",
          "type" : "artist",
          "uri" : "spotify:artist:64mXwTe92xIUKqJCTdfRnK"
        } ],
        "external_urls" : {
          "spotify" : "https://open.spotify.com/album/6YSbd1u3KNqtwwZbpEPKZh"
        },
        "href" : "https://api.spotify.com/v1/albums/6YSbd1u3KNqtwwZbpEPKZh",
        "id" : "6YSbd1u3KNqtwwZbpEPKZh",
        "images" : [ {
          "height" : 640,
          "url" : "https://i.scdn.co/image/ab67616d0000b273e06e4488a3ba98fff225f217",
          "width" : 640
        }, {
          "height" : 300,
          "url" : "https://i.scdn.co/image/ab67616d00001e02e06e4488a3ba98fff225f217",
          "width" : 300
        }, {
          "height" : 64,
          "url" : "https://i.scdn.co/image/ab67616d00004851e06e4488a3ba98fff225f217",
          "width" : 64
        } ],
        "name" : "Christian Hymns, Vol. 3: A Comprehensive Collection of Traditional Sacred Christian Christmas and Advent Songs and Hymns from the English Hymnal",
        "release_date" : "2016-08-16",
        "release_date_precision" : "day",
        "total_tracks" : 50,
        "type" : "album",
        "uri" : "spotify:album:6YSbd1u3KNqtwwZbpEPKZh"
      },
      "artists" : [ {
        "external_urls" : {
          "spotify" : "https://open.spotify.com/artist/64mXwTe92xIUKqJCTdfRnK"
        },
        "href" : "https://api.spotify.com/v1/artists/64mXwTe92xIUKqJCTdfRnK",
        "id" : "64mXwTe92xIUKqJCTdfRnK",
        "name" : "Musica Sacra",
        "type" : "artist",
        "uri" : "spotify:artist:64mXwTe92xIUKqJCTdfRnK"
      } ],
      "disc_number" : 1,
      "duration_ms" : 95033,
      "explicit" : false,
      "external_ids" : {
        "isrc" : "GB-SMU-29-35066"
      },
      "external_urls" : {
        "spotify" : "https://open.spotify.com/track/1d01plF1EAP7Bj3Sx4SYuN"
      },
      "href" : "https://api.spotify.com/v1/tracks/1d01plF1EAP7Bj3Sx4SYuN",
      "id" : "1d01plF1EAP7Bj3Sx4SYuN",
      "is_local" : false,
      "is_playable" : true,
      "name" : "Infant Holy, Infant Lowly",
      "popularity" : 5,
      "preview_url" : "https://p.scdn.co/mp3-preview/43799212870629a78c1b554b02385c24cabf6959?cid=774b29d4f13844c495f206cafdad9c86",
      "track_number" : 5,
      "type" : "track",
      "uri" : "spotify:track:1d01plF1EAP7Bj3Sx4SYuN"
    }, {
      "album" : {
        "album_type" : "album",
        "artists" : [ {
          "external_urls" : {
            "spotify" : "https://open.spotify.com/artist/0cylxW7HGdK9xMdubw2oYW"
          },
          "href" : "https://api.spotify.com/v1/artists/0cylxW7HGdK9xMdubw2oYW",
          "id" : "0cylxW7HGdK9xMdubw2oYW",
          "name" : "The O'Neill Brothers Group",
          "type" : "artist",
          "uri" : "spotify:artist:0cylxW7HGdK9xMdubw2oYW"
        } ],
        "external_urls" : {
          "spotify" : "https://open.spotify.com/album/4vxX8g6W271QU5MidNrat8"
        },
        "href" : "https://api.spotify.com/v1/albums/4vxX8g6W271QU5MidNrat8",
        "id" : "4vxX8g6W271QU5MidNrat8",
        "images" : [ {
          "height" : 640,
          "url" : "https://i.scdn.co/image/ab67616d0000b273eff77d47e8ad0c3a91142ef9",
          "width" : 640
        }, {
          "height" : 300,
          "url" : "https://i.scdn.co/image/ab67616d00001e02eff77d47e8ad0c3a91142ef9",
          "width" : 300
        }, {
          "height" : 64,
          "url" : "https://i.scdn.co/image/ab67616d00004851eff77d47e8ad0c3a91142ef9",
          "width" : 64
        } ],
        "name" : "Christian Piano Songs: This Is My Father's World",
        "release_date" : "2013-01-11",
        "release_date_precision" : "day",
        "total_tracks" : 12,
        "type" : "album",
        "uri" : "spotify:album:4vxX8g6W271QU5MidNrat8"
      },
      "artists" : [ {
        "external_urls" : {
          "spotify" : "https://open.spotify.com/artist/5K7pmz8QeBKWsA3Ty8j3qI"
        },
        "href" : "https://api.spotify.com/v1/artists/5K7pmz8QeBKWsA3Ty8j3qI",
        "id" : "5K7pmz8QeBKWsA3Ty8j3qI",
        "name" : "The O'Neil Brothers Group",
        "type" : "artist",
        "uri" : "spotify:artist:5K7pmz8QeBKWsA3Ty8j3qI"
      } ],
      "disc_number" : 1,
      "duration_ms" : 165160,
      "explicit" : false,
      "external_ids" : {
        "isrc" : "USCHR1310639"
      },
      "external_urls" : {
        "spotify" : "https://open.spotify.com/track/5l9uhJlxg1WlJI4oFe27ee"
      },
      "href" : "https://api.spotify.com/v1/tracks/5l9uhJlxg1WlJI4oFe27ee",
      "id" : "5l9uhJlxg1WlJI4oFe27ee",
      "is_local" : false,
      "is_playable" : true,
      "name" : "Infant Holy, Infant Lowly",
      "popularity" : 7,
      "preview_url" : "https://p.scdn.co/mp3-preview/cb8af69383a55cfafbe8e677533e668359ee4731?cid=774b29d4f13844c495f206cafdad9c86",
      "track_number" : 12,
      "type" : "track",
      "uri" : "spotify:track:5l9uhJlxg1WlJI4oFe27ee"
    } ],
    "limit" : 10,
    "next" : "https://api.spotify.com/v1/search?query=Infant+Holy%2C+Infant+Lowly&type=track&market=US&offset=15&limit=10",
    "offset" : 5,
    "previous" : "https://api.spotify.com/v1/search?query=Infant+Holy%2C+Infant+Lowly&type=track&market=US&offset=0&limit=10",
    "total" : 517
  }
}