{
  "tracks" : {
    "href" : "https://api.spotify.com/v1/search?query=Be+Thou+My+Vision&type=track&market=US&offset=5&limit=10",
    "items" : [ {
      "album" : {
        "album_type" : "album",
        "artists" : [ {
          "external_urls" : {
            "spotify" : "https://open.spotify.com/artist/5zhxxb24WP6q6rbLHAn2UQ"
          },
          "href" : "https://api.spotify.com/v1/artists/5zhxxb24WP6q6rbLHAn2UQ",
          "id" : "5zhxxb24WP6q6rbLHAn2UQ",
          "name" : "BYU Vocal Point",
          "type" : "artist",
          "uri" : "spotify:artist:5zhxxb24WP6q6rbLHAn2UQ"
        } ],
        "external_urls" : {
          "spotify" : "https://open.spotify.com/album/41Tar7cHW1EESqHcCD9vlX"
        },
        "href" : "https://api.spotify.com/v1/albums/41Tar7cHW1EESqHcCD9vlX",
        "id" : "41Tar7cHW1EESqHcCD9vlX",
        "images" : [ {
          "height" : 640,
          "url" : "https://i.scdn.co/image/ab67616d0000b273cb90d68cbc3bbb71e617b003",
          "width" : 640
        }, {
          "height" : 300,
          "url" : "https://i.scdn.co/image/ab67616d00001e02cb90d68cbc3bbb71e617b003",
          "width" : 300
        }, {
          "height" : 64,
          "url" : "https://i.scdn.co/image/ab67616d00004851cb90d68cbc3bbb71e617b003",
          "width" : 64
        } ],
        "name" : "Vocal Point",
        "release_date" : "2020-05-22",
        "release_date_precision" : "day",
        "total_tracks" : 12,
        "type" : "album",
        "uri" : "spotify:album:41Tar7cHW1EESqHcCD9vlX"
      },
      "artists" : [ {
        "external_urls" : {
          "spotify" : "https://open.spotify.com/artist/5zhxxb24WP6q6rbLHAn2UQ"
        },
        "href" : "https://api.spotify.com/v1/artists/5zhxxb24WP6q6rbLHAn2UQ",
        "id" : "5zhxxb24WP6q6rbLHAn2UQ",
        "name" : "BYU Vocal Point",
        "type" : "artist",
        "uri" : "spotify:artist:5zhxxb24WP6q6rbLHAn2UQ"
      } ],
      "disc_number" : 1,
      "duration_ms" : 232800,
      "explicit" : false,
      "external_ids" : {
        "isrc" : "QMRB32000001"
      },
      "external_urls" : {
        "spotify" : "https://open.spotify.com/track/2WhvgvGglGarOM1QkpGqzN"
      },
      "href" : "https://api.spotify.com/v1/tracks/2WhvgvGglGarOM1QkpGqzN",
      "id" : "2WhvgvGglGarOM1QkpGqzN",
      "is_local" : false,
      "is_playable" : true,
      "name" : "Be Thou My Vision",
      "popularity" : 23,
      "preview_url" : "https://p.scdn.co/mp3-preview/93e52daed0f770355501caf6c12aa4e282e3d7bc?cid=774b29d4f13844c495f206cafdad9c86",
      "track_number" : 11,
      "type" : "track",
      "uri" : "spotify:track:2WhvgvGglGarOM1QkpGqzN"
    }, {
      "album" : {
        "album_type" : "album",
        "artists" : [ {
          "external_urls" : {
            "spotify" : "https://open.spotify.com/artist/44FVyueHCLAMyJPnvCqqwM"
          },
          "href" : "https://api.spotify.com/v1/artists/44FVyueHCLAMyJPnvCqqwM",
          "id" : "44FVyueHCLAMyJPnvCqqwM",
          "name" : "The Lower Lights",
          "type" : "artist",
          "uri" : "spotify:artist:44FVyueHCLAMyJPnvCqqwM"
        } ],
        "external_urls" : {
          "spotify" : "https://open.spotify.com/album/6n5YhTwVVLpDz0pobKEe5P"
        },
        "href" : "https://api.spotify.com/v1/albums/6n5YhTwVVLpDz0pobKEe5P",
        "id" : "6n5YhTwVVLpDz0pobKEe5P",
        "images" : [ {
          "height" : 640,
          "url" : "https://i.scdn.co/image/ab67616d0000b27370cbea559ef1baea05220bee",
          "width" : 640
        }, {
          "height" : 300,
          "url" : "https://i.scdn.co/image/ab67616d00001e0270cbea559ef1baea05220bee",
          "width" : 300
        }, {
          "height" : 64,
          "url" : "https://i.scdn.co/image/ab67616d0000485170cbea559ef1baea05220bee",
          "width" : 64
        } ],
        "name" : "A Hymn Revival: Vol. 2",
        "release_date" : "2012-07-03",
        "release_date_precision" : "day",
        "total_tracks" : 16,
        "type" : "album",
        "uri" : "spotify:album:6n5YhTwVVLpDz0pobKEe5P"
      },
      "artists" : [ {
        "external_urls" : {
          "spotify" : "https://open.spotify.com/artist/44FVyueHCLAMyJPnvCqqwM"
        },
        "href" : "https://api.spotify.com/v1/artists/44FVyueHCLAMyJPnvCqqwM",
        "id" : "44FVyueHCLAMyJPnvCqqwM",
        "name" : "The Lower Lights",
        "type" : "artist",
        "uri" : "spotify:artist:44FVyueHCLAMyJPnvCqqwM"
      } ],
      "disc_number" : 1,
      "duration_ms" : 167013,
      "explicit" : false,
      "external_ids" : {
        "isrc" : "USULT1200054"
      },
      "external_urls" : {
        "spotify" : "https://open.spotify.com/track/5Dl6FoHQnYlfMDOMCBFrRp"
      },
      "href" : "https://api.spotify.com/v1/tracks/5Dl6FoHQnYlfMDOMCBFrRp",
      "id" : "5Dl6FoHQnYlfMDOMCBFrRp",
      "is_local" : false,
      "is_playable" : true,
      "name" : "Be Thou My Vision",
      "popularity" : 38,
      "preview_url" : "https://p.scdn.co/mp3-preview/9dcc7682b33a66e445a6a9ea6ca170f4e34f6f42?cid=774b29d4f13844c495f206cafdad9c86",
      "track_number" : 4,
      "type" : "track",
      "uri" : "spotify:track:5Dl6FoHQnYlfMDOMCBFrRp"
    }, {
      "album" : {
        "album_type" : "single",
        "artists" : [ {
          "external_urls" : {
            "spotify" : "https://open.spotify.com/artist/6s9lmiBnWMbiiUnuaTARaa"
          },
          "href" : "https://api.spotify.com/v1/artists/6s9lmiBnWMbiiUnuaTARaa",
          "id" : "6s9lmiBnWMbiiUnuaTARaa",
          "name" : "Cherry Wee",
          "type" : "artist",
          "uri" : "spotify:artist:6s9lmiBnWMbiiUnuaTARaa"
        } ],
        "external_urls" : {
          "spotify" : "https://open.spotify.com/album/1dpxwkXjH3SkFEKoqG8NW7"
        },
        "href" : "https://api.spotify.com/v1/albums/1dpxwkXjH3SkFEKoqG8NW7",
        "id" : "1dpxwkXjH3SkFEKoqG8NW7",
        "images" : [ {
          "height" : 640,
          "url" : "https://i.scdn.co/image/ab67616d0000b2739866827fc73af4d80df71eb8",
          "width" : 640
        }, {
          "height" : 300,
          "url" : "https://i.scdn.co/image/ab67616d00001e029866827fc73af4d80df71eb8",
          "width" : 300
        }, {
          "height" : 64,
          "url" : "https://i.scdn.co/image/ab67616d000048519866827fc73af4d80df71eb8",
          "width" : 64
        } ],
        "name" : "Be Thou My Vision",
        "release_date" : "2020-01-17",
        "release_date_precision" : "day",
        "total_tracks" : 1,
        "type" : "album",
        "uri" : "spotify:album:1dpxwkXjH3SkFEKoqG8NW7"
      },
      "artists" : [ {
        "external_urls" : {
          "spotify" : "https://open.spotify.com/artist/6s9lmiBnWMbiiUnuaTARaa"
        },
        "href" : "https://api.spotify.com/v1/artists/6s9lmiBnWMbiiUnuaTARaa",
        "id" : "6s9lmiBnWMbiiUnuaTARaa",
        "name" : "Cherry Wee",
        "type" : "artist",
        "uri" : "spotify:artist:6s9lmiBnWMbiiUnuaTARaa"
      } ],
      "disc_number" : 1,
      "duration_ms" : 216000,
      "explicit" : false,
      "external_ids" : {
        "isrc" : "QZFYX2006556"
      },
      "external_urls" : {
        "spotify" : "https://open.spotify.com/track/1ygyed6ppQD1GRSKw5Bm21"
      },
      "href" : "https://api.spotify.com/v1/tracks/1ygyed6ppQD1GRSKw5Bm21",
      "id" : "1ygyed6ppQD1GRSKw5Bm21",
      "is_local" : false,
      "is_playable" : true,
      "name" : "Be Thou My Vision",
      "popularity" : 39,
      "preview_url" : "https://p.scdn.co/mp3-preview/1fc3414faa7ef9f5d4ef37368e550863a78d9819?cid=774b29d4f13844c495f206cafdad9c86",
      "track_number" : 1,
      "type" : "track",
      "uri" : "spotify:track:1ygyed6ppQD1GRSKw5Bm21"
    }, {
      "album" : {
        "album_type" : "album",
        "artists" : [ {
          "external_urls" : {
            "spotify" : "https://open.spotify.com/artist/2LFbgsbEhfilNpQYW7mied"
          },
          "href" : "https://api.spotify.com/v1/artists/2LFbgsbEhfilNpQYW7mied",
          "id" : "2LFbgsbEhfilNpQYW7mied",
          "name" : "Shane & Shane",
          "type" : "artist",
          "uri" : "spotify:artist:2LFbgsbEhfilNpQYW7mied"
        } ],
        "external_urls" : {
          "spotify" : "https://open.spotify.com/album/06mNMNp8K3S2YtrAzlacOf"
        },
        "href" : "https://api.spotify.com/v1/albums/06mNMNp8K3S2YtrAzlacOf",
        "id" : "06mNMNp8K3S2YtrAzlacOf",
        "images" : [ {
          "height" : 640,
          "url" : "https://i.scdn.co/image/ab67616d0000b273ff6fc8a710ebcf31ef480d0f",
          "width" : 640
        }, {
          "height" : 300,
          "url" : "https://i.scdn.co/image/ab67616d00001e02ff6fc8a710ebcf31ef480d0f",
          "width" : 300
        }, {
          "height" : 64,
          "url" : "https://i.scdn.co/image/ab67616d00004851ff6fc8a710ebcf31ef480d0f",
          "width" : 64
        } ],
        "name" : "Hymns in the Round",
        "release_date" : "2020-02-28",
        "release_date_precision" : "day",
        "total_tracks" : 10,
        "type" : "album",
        "uri" : "spotify:album:06mNMNp8K3S2YtrAzlacOf"
      },
      "artists" : [ {
        "external_urls" : {
          "spotify" : "https://open.spotify.com/artist/2LFbgsbEhfilNpQYW7mied"
        },
        "href" : "https://api.spotify.com/v1/artists/2LFbgsbEhfilNpQYW7mied",
        "id" : "2LFbgsbEhfilNpQYW7mied",
        "name" : "Shane & Shane",
        "type" : "artist",
        "uri" : "spotify:artist:2LFbgsbEhfilNpQYW7mied"
      } ],
      "disc_number" : 1,
      "duration_ms" : 253406,
      "explicit" : false,
      "external_ids" : {
        "isrc" : "USDHM2001723"
      },
      "external_urls" : {
        "spotify" : "https://open.spotify.com/track/73O5yQB96iucUM1EGwVNhK"
      },
      "href" : "https://api.spotify.com/v1/tracks/73O5yQB96iucUM1EGwVNhK",
      "id" : "73O5yQB96iucUM1EGwVNhK",
      "is_local" : false,
      "is_playable" : true,
      "name" : "Be Thou My Vision (Lord You Are) [Acoustic]",
      "popularity" : 41,
      "preview_url" : "https://p.scdn.co/mp3-preview/fc36104f27e23fed1a8fafc04a6099df8e46f2e6?cid=774b29d4f13844c495f206cafdad9c86",
      "track_number" : 6,
      "type" : "track",
      "uri" : "spotify:track:73O5yQB96iucUM1EGwVNhK"
    }, {
      "album" : {
        "album_type" : "album",
        "artists" : [ {
          "external_urls" : {
            "spotify" : "https://open.spotify.com/artist/5F211gZjfoqvH8v7erGdsy"
          },
          "href" : "https://api.spotify.com/v1/artists/5F211gZjfoqvH8v7erGdsy",
          "id" : "5F211gZjfoqvH8v7erGdsy",
          "name" : "4Him",
          "type" : "artist",
          "uri" : "spotify:artist:5F211gZjfoqvH8v7erGdsy"
        } ],
        "external_urls" : {
          "spotify" : "https://open.spotify.com/album/0ucd9V91sbhnKPE3ycOoqL"
        },
        "href" : "https://api.spotify.com/v1/albums/0ucd9V91sbhnKPE3ycOoqL",
        "id" : "0ucd9V91sbhnKPE3ycOoqL",
        "images" : [ {
          "height" : 640,
          "url" : "https://i.scdn.co/image/ab67616d0000b2731a72f5e934003f1c88eaf728",
          "width" : 640
        }, {
          "height" : 300,
          "url" : "https://i.scdn.co/image/ab67616d00001e021a72f5e934003f1c88eaf728",
          "width" : 300
        }, {
          "height" : 64,
          "url" : "https://i.scdn.co/image/ab67616d000048511a72f5e934003f1c88eaf728",
          "width" : 64
        } ],
        "name" : "Hymns: A Place Of Worship",
        "release_date" : "2000",
        "release_date_precision" : "year",
        "total_tracks" : 14,
        "type" : "album",
        "uri" : "spotify:album:0ucd9V91sbhnKPE3ycOoqL"
      },
      "artists" : [ {
        "external_urls" : {
          "spotify" : "https://open.spotify.com/artist/5F211gZjfoqvH8v7erGdsy"
        },
        "href" : "https://api.spotify.com/v1/artists/5F211gZjfoqvH8v7erGdsy",
        "id" : "5F211gZjfoqvH8v7erGdsy",
        "name" : "4Him",
        "type" : "artist",
        "uri" : "spotify:artist:5F211gZjfoqvH8v7erGdsy"
      } ],
      "disc_number" : 1,
      "duration_ms" : 260620,
      "explicit" : false,
      "external_ids" : {
        "isrc" : "USBE10000003"
      },
      "external_urls" : {
        "spotify" : "https://open.spotify.com/track/2piwgNxJiDExC7mDzA8NO9"
      },
      "href" : "https://api.spotify.com/v1/tracks/2piwgNxJiDExC7mDzA8NO9",
      "id" : "2piwgNxJiDExC7mDzA8NO9",
      "is_local" : false,
      "is_playable" : true,
      "name" : "Be Thou My Vision",
      "popularity" : 36,
      "preview_url" : "https://p.scdn.co/mp3-preview/48a8609947d9d1e12987f6c1000d06648ce99a0e?cid=774b29d4f13844c495f206cafdad9c86",
      "track_number" : 3,
      "type" : "track",
      "uri" : "spotify:track:2piwgNxJiDExC7mDzA8NO9"
    }, {
      "album" : {
        "album_type" : "album",
        "artists" : [ {
          "external_urls" : {
            "spotify" : "https://open.spotify.com/artist/32DWM2tctxuDatAYWHjCtC"
          },
          "href" : "https://api.spotify.com/v1/artists/32DWM2tctxuDatAYWHjCtC",
          "id" : "32DWM2tctxuDatAYWHjCtC",
          "name" : "Hymns on Piano",
          "type" : "artist",
          "uri" : "spotify:artist:32DWM2tctxuDatAYWHjCtC"
        } ],
        "external_urls" : {
          "spotify" : "https://open.spotify.com/album/2LCR7znfQs52tIyUet7PKx"
        },
        "href" : "https://api.spotify.com/v1/albums/2LCR7znfQs52tIyUet7PKx",
        "id" : "2LCR7znfQs52tIyUet7PKx",
        "images" : [ {
          "height" : 640,
          "url" : "https://i.scdn.co/image/ab67616d0000b2732a9995d7b449417eb1632d58",
          "width" : 640
        }, {
          "height" : 300,
          "url" : "https://i.scdn.co/image/ab67616d00001e022a9995d7b449417eb1632d58",
          "width" : 300
        }, {
          "height" : 64,
          "url" : "https://i.scdn.co/image/ab67616d000048512a9995d7b449417eb1632d58",
          "width" : 64
        } ],
        "name" : "Hymns of Worship - Volume 1",
        "release_date" : "2015-12-08",
        "release_date_precision" : "day",
        "total_tracks" : 15,
        "type" : "album",
        "uri" : "spotify:album:2LCR7znfQs52tIyUet7PKx"
      },
      "artists" : [ {
        "external_urls" : {
          "spotify" : "https://open.spotify.com/artist/32DWM2tctxuDatAYWHjCtC"
        },
        "href" : "https://api.spotify.com/v1/artists/32DWM2tctxuDatAYWHjCtC",
        "id" : "32DWM2tctxuDatAYWHjCtC",
        "name" : "Hymns on Piano",
        "type" : "artist",
        "uri" : "spotify:artist:32DWM2tctxuDatAYWHjCtC"
      } ],
      "disc_number" : 1,
      "duration_ms" : 185002,
      "explicit" : false,
      "external_ids" : {
        "isrc" : "USE831525007"
      },
      "external_urls" : {
        "spotify" : "https://open.spotify.com/track/5uv1ZIHNYjvVbdDF5Jbp1V"
      },
      "href" : "https://api.spotify.com/v1/tracks/5uv1ZIHNYjvVbdDF5Jbp1V",
      "id" : "5uv1ZIHNYjvVbdDF5Jbp1V",
      "is_local" : false,
      "is_playable" : true,
      "name" : "Be Thou My Vision (Rop tú mo Baile)",
      "popularity" : 40,
      "preview_url" : "https://p.scdn.co/mp3-preview/65a08d8d9e3c1e07874f88617dca933ac437e0a7?cid=774b29d4f13844c495f206cafdad9c86",
      "track_number" : 6,
      "type" : "track",
      "uri" : "spotify:track:5uv1ZIHNYjvVbdDF5Jbp1V"
    }, {
      "album" : {
        "album_type" : "album",
        "artists" : [ {
          "external_urls" : {
            "spotify" : "https://open.spotify.com/artist/2LFbgsbEhfilNpQYW7mied"
          },
          "href" : "https://api.spotify.com/v1/artists/2LFbgsbEhfilNpQYW7mied",
          "id" : "2LFbgsbEhfilNpQYW7mied",
          "name" : "Shane & Shane",
          "type" : "artist",
          "uri" : "spotify:artist:2LFbgsbEhfilNpQYW7mied"
        } ],
        "external_urls" : {
          "spotify" : "https://open.spotify.com/album/7lNYY32MRpKbPtzOpRpBC4"
        },
        "href" : "https://api.spotify.com/v1/albums/7lNYY32MRpKbPtzOpRpBC4",
        "id" : "7lNYY32MRpKbPtzOpRpBC4",
        "images" : [ {
          "height" : 640,
          "url" : "https://i.scdn.co/image/ab67616d0000b27343d1edb2bc9d898a3e84a8ba",
          "width" : 640
        }, {
          "height" : 300,
          "url" : "https://i.scdn.co/image/ab67616d00001e0243d1edb2bc9d898a3e84a8ba",
          "width" : 300
        }, {
          "height" : 64,
          "url" : "https://i.scdn.co/image/ab67616d0000485143d1edb2bc9d898a3e84a8ba",
          "width" : 64
        } ],
        "name" : "Hymns, Vol. 2",
        "release_date" : "2019-08-20",
        "release_date_precision" : "day",
        "total_tracks" : 10,
        "type" : "album",
        "uri" : "spotify:album:7lNYY32MRpKbPtzOpRpBC4"
      },
      "artists" : [ {
        "external_urls" : {
          "spotify" : "https://open.spotify.com/artist/2LFbgsbEhfilNpQYW7mied"
        },
        "href" : "https://api.spotify.com/v1/artists/2LFbgsbEhfilNpQYW7mied",
        "id" : "2LFbgsbEhfilNpQYW7mied",
        "name" : "Shane & Shane",
        "type" : "artist",
        "uri" : "spotify:artist:2LFbgsbEhfilNpQYW7mied"
      } ],
      "disc_number" : 1,
      "duration_ms" : 242383,
      "explicit" : false,
      "external_ids" : {
        "isrc" : "USDHM1913182"
      },
      "external_urls" : {
        "spotify" : "https://open.spotify.com/track/3fhwsgJgEpAZqIoX5SY3Sv"
      },
      "href" : "https://api.spotify.com/v1/tracks/3fhwsgJgEpAZqIoX5SY3Sv",
      "id" : "3fhwsgJgEpAZqIoX5SY3Sv",
      "is_local" : false,
      "is_playable" : true,
      "name" : "Be Thou My Vision (Lord You Are)",
      "popularity" : 37,
      "preview_url" : "https://p.scdn.co/mp3-preview/5477d98868845f5f8c74bef6f3cf62b79580d737?cid=774b29d4f13844c495f206cafdad9c86",
      "track_number" : 1,
      "type" : "track",
      "uri" : "spotify:track:3fhwsgJgEpAZqIoX5SY3Sv"
    }, {
      "album" : {
        "album_type" : "album",
        "artists" : [ {
          "external_urls" : {
            "spotify" : "https://open.spotify.com/artist/3e7KVnSiZjsBkReSv0L6db"
          },
          "href" : "https://api.spotify.com/v1/artists/3e7KVnSiZjsBkReSv0L6db",
          "id" : "3e7KVnSiZjsBkReSv0L6db",
          "name" : "Citizens",
          "type" : "artist",
          "uri" : "spotify:artist:3e7KVnSiZjsBkReSv0L6db"
        } ],
        "external_urls" : {
          "spotify" : "https://open.spotify.com/album/49BOvLIdtkmPrbkFstWHxR"
        },
        "href" : "https://api.spotify.com/v1/albums/49BOvLIdtkmPrbkFstWHxR",
        "id" : "49BOvLIdtkmPrbkFstWHxR",
        "images" : [ {
          "height" : 640,
          "url" : "https://i.scdn.co/image/ab67616d0000b2738f75cef14b663e687780ea0e",
          "width" : 640
        }, {
          "height" : 300,
          "url" : "https://i.scdn.co/image/ab67616d00001e028f75cef14b663e687780ea0e",
          "width" : 300
        }, {
          "height" : 64,
          "url" : "https://i.scdn.co/image/ab67616d000048518f75cef14b663e687780ea0e",
          "width" : 64
        } ],
        "name" : "Join the Triumph (Deluxe Edition)",
        "release_date" : "2015-05-04",
        "release_date_precision" : "day",
        "total_tracks" : 16,
        "type" : "album",
        "uri" : "spotify:album:49BOvLIdtkmPrbkFstWHxR"
      },
      "artists" : [ {
        "external_urls" : {
          "spotify" : "https://open.spotify.com/artist/3e7KVnSiZjsBkReSv0L6db"
        },
        "href" : "https://api.spotify.com/v1/artists/3e7KVnSiZjsBkReSv0L6db",
        "id" : "3e7KVnSiZjsBkReSv0L6db",
        "name" : "Citizens",
        "type" : "artist",
        "uri" : "spotify:artist:3e7KVnSiZjsBkReSv0L6db"
      } ],
      "disc_number" : 1,
      "duration_ms" : 206310,
      "explicit" : false,
      "external_ids" : {
        "isrc" : "QMVP91400006"
      },
      "external_urls" : {
        "spotify" : "https://open.spotify.com/track/3Ziv9XNQT8qyRD0YUHalnr"
      },
      "href" : "https://api.spotify.com/v1/tracks/3Ziv9XNQT8qyRD0YUHalnr",
      "id" : "3Ziv9XNQT8qyRD0YUHalnr",
      "is_local" : false,
      "is_playable" : true,
      "name" : "Be Thou My Vision",
      "popularity" : 35,
      "preview_url" : "https://p.scdn.co/mp3-preview/9a334cb2fab0a0d20466df8808b9f003dec4d1ec?cid=774b29d4f13844c495f206cafdad9c86",
      "track_number" : 7,
      "type" : "track",
      "uri" : "spotify:track:3Ziv9XNQT8qyRD0YUHalnr"
    }, {
      "album" : {
        "album_type" : "album",
        "artists" : [ {
          "external_urls" : {
            "spotify" : "https://open.spotify.com/artist/6mGZXaZ4SWNh6IsJ57thCp"
          },
          "href" : "https://api.spotify.com/v1/artists/6mGZXaZ4SWNh6IsJ57thCp",
          "id" : "6mGZXaZ4SWNh6IsJ57thCp",
          "name" : "Fernando Ortega",
          "type" : "artist",
          "uri" : "spotify:artist:6mGZXaZ4SWNh6IsJ57thCp"
        } ],
        "external_urls" : {
          "spotify" : "https://open.spotify.com/album/0qKHsPyi4ON9ZGGw2OjVbq"
        },
        "href" : "https://api.spotify.com/v1/albums/0qKHsPyi4ON9ZGGw2OjVbq",
        "id" : "0qKHsPyi4ON9ZGGw2OjVbq",
        "images" : [ {
          "height" : 640,
          "url" : "https://i.scdn.co/image/ab67616d0000b2736cc83ad219ea639e2ad489f0",
          "width" : 640
        }, {
          "height" : 300,
          "url" : "https://i.scdn.co/image/ab67616d00001e026cc83ad219ea639e2ad489f0",
          "width" : 300
        }, {
          "height" : 64,
          "url" : "https://i.scdn.co/image/ab67616d000048516cc83ad219ea639e2ad489f0",
          "width" : 64
        } ],
        "name" : "The Breaking of the Dawn",
        "release_date" : "1998-11-03",
        "release_date_precision" : "day",
        "total_tracks" : 11,
        "type" : "album",
        "uri" : "spotify:album:0qKHsPyi4ON9ZGGw2OjVbq"
      },
      "artists" : [ {
        "external_urls" : {
          "spotify" : "https://open.spotify.com/artist/6mGZXaZ4SWNh6IsJ57thCp"
        },
        "href" : "https://api.spotify.com/v1/artists/6mGZXaZ4SWNh6IsJ57thCp",
        "id" : "6mGZXaZ4SWNh6IsJ57thCp",
        "name" : "Fernando Ortega",
        "type" : "artist",
        "uri" : "spotify:artist:6mGZXaZ4SWNh6IsJ57thCp"
      } ],
      "disc_number" : 1,
      "duration_ms" : 233081,
      "explicit" : false,
      "external_ids" : {
        "isrc" : "USSM19803808"
      },
      "external_urls" : {
        "spotify" : "https://open.spotify.com/track/3Pmt5c7wSWbUGc1OGZkPox"
      },
      "href" : "https://api.spotify.com/v1/tracks/3Pmt5c7wSWbUGc1OGZkPox",
      "id" : "3Pmt5c7wSWbUGc1OGZkPox",
      "is_local" : false,
      "is_playable" : true,
      "name" : "Be Thou My Vision",
      "popularity" : 32,
      "preview_url" : "https://p.scdn.co/mp3-preview/35af73df2877460f616b6f2d6d6d8a1d35267658?cid=774b29d4f13844c495f206cafdad9c86",
      "track_number" : 5,
      "type" : "track",
      "uri" : "spotify:track:3Pmt5c7wSWbUGc1OGZkPox"
    }, {
      "album" : {
        "album_type" : "album",
        "artists" : [ {
          "external_urls" : {
            "spotify" : "https://open.spotify.com/artist/6WfsgevyXjoFI4tT5ghvhV"
          },
          "href" : "https://api.spotify.com/v1/artists/6WfsgevyXjoFI4tT5ghvhV",
          "id" : "6WfsgevyXjoFI4tT5ghvhV",
          "name" : "Nathan Pacheco",
          "type" : "artist",
          "uri" : "spotify:artist:6WfsgevyXjoFI4tT5ghvhV"
        } ],
        "external_urls" : {
          "spotify" : "https://open.spotify.com/album/6JUQYasCHCvU3iNhZwDJXJ"
        },
        "href" : "https://api.spotify.com/v1/albums/6JUQYasCHCvU3iNhZwDJXJ",
        "id" : "6JUQYasCHCvU3iNhZwDJXJ",
        "images" : [ {
          "height" : 640,
          "url" : "https://i.scdn.co/image/ab67616d0000b273c33260ced0a26738cff28f6d",
          "width" : 640
        }, {
          "height" : 300,
          "url" : "https://i.scdn.co/image/ab67616d00001e02c33260ced0a26738cff28f6d",
          "width" : 300
        }, {
          "height" : 64,
          "url" : "https://i.scdn.co/image/ab67616d00004851c33260ced0a26738cff28f6d",
          "width" : 64
        } ],
        "name" : "Higher",
        "release_date" : "2017-02-10",
        "release_date_precision" : "day",
        "total_tracks" : 12,
        "type" : "album",
        "uri" : "spotify:album:6JUQYasCHCvU3iNhZwDJXJ"
      },
      "artists" : [ {
        "external_urls" : {
          "spotify" : "https://open.spotify.com/artist/6WfsgevyXjoFI4tT5ghvhV"
        },
        "href" : "https://api.spotify.com/v1/artists/6WfsgevyXjoFI4tT5ghvhV",
        "id" : "6WfsgevyXjoFI4tT5ghvhV",
        "name" : "Nathan Pacheco",
        "type" : "artist",
        "uri" : "spotify:artist:6WfsgevyXjoFI4tT5ghvhV"
      } ],
      "disc_number" : 1,
      "duration_ms" : 224093,
      "explicit" : false,
      "external_ids" : {
        "isrc" : "US23M1700002"
      },
      "external_urls" : {
        "spotify" : "https://open.spotify.com/track/7oFBdobw3f9kuMomMqYUmD"
      },
      "href" : "https://api.spotify.com/v1/tracks/7oFBdobw3f9kuMomMqYUmD",
      "id" : "7oFBdobw3f9kuMomMqYUmD",
      "is_local" : false,
      "is_playable" : true,
      "name" : "Be Thou My Vision",
      "popularity" : 33,
      "preview_url" : "https://p.scdn.co/mp3-preview/492eaae659ae0dd634d9c11cd969e6b3fa713352?cid=774b29d4f13844c495f206cafdad9c86",
      "track_number" : 2,
      "type" : "track",
      "uri" : "spotify:track:7oFBdobw3f9kuMomMqYUmD"
    } ],
    "limit" : 10,
    "next" : "https://api.spotify.com/v1/search?query=Be+Thou+My+Vision&type=track&market=US&offset=15&limit=10",
    "offset" : 5,
    "previous" : "https://api.spotify.com/v1/search?query=Be+Thou+My+Vision&type=track&market=US&offset=0&limit=10",
    "total" : 2789
  }
}