{
  "tracks" : {
    "href" : "https://api.spotify.com/v1/search?query=Stand+Up%21+Stand+Up+for+Jesus%21&type=track&market=US&offset=5&limit=10",
    "items" : [ {
      "album" : {
        "album_type" : "album",
        "artists" : [ {
          "external_urls" : {
            "spotify" : "https://open.spotify.com/artist/5X1wMGxU1miIL3bhHFq0zJ"
          },
          "href" : "https://api.spotify.com/v1/artists/5X1wMGxU1miIL3bhHFq0zJ",
          "id" : "5X1wMGxU1miIL3bhHFq0zJ",
          "name" : "Errol Leslie",
          "type" : "artist",
          "uri" : "spotify:artist:5X1wMGxU1miIL3bhHFq0zJ"
        } ],
        "external_urls" : {
          "spotify" : "https://open.spotify.com/album/5EvDlaue5KYd2QyN04x9sL"
        },
        "href" : "https://api.spotify.com/v1/albums/5EvDlaue5KYd2QyN04x9sL",
        "id" : "5EvDlaue5KYd2QyN04x9sL",
        "images" : [ {
          "height" : 640,
          "url" : "https://i.scdn.co/image/ab67616d0000b2734c8126363a5b85a1c4b65a69",
          "width" : 640
        }, {
          "height" : 300,
          "url" : "https://i.scdn.co/image/ab67616d00001e024c8126363a5b85a1c4b65a69",
          "width" : 300
        }, {
          "height" : 64,
          "url" : "https://i.scdn.co/image/ab67616d000048514c8126363a5b85a1c4b65a69",
          "width" : 64
        } ],
        "name" : "The Old Time Religion",
        "release_date" : "2020-05-15",
        "release_date_precision" : "day",
        "total_tracks" : 12,
        "type" : "album",
        "uri" : "spotify:album:5EvDlaue5KYd2QyN04x9sL"
      },
      "artists" : [ {
        "external_urls" : {
          "spotify" : "https://open.spotify.com/artist/5X1wMGxU1miIL3bhHFq0zJ"
        },
        "href" : "https://api.spotify.com/v1/artists/5X1wMGxU1miIL3bhHFq0zJ",
        "id" : "5X1wMGxU1miIL3bhHFq0zJ",
        "name" : "Errol Leslie",
        "type" : "artist",
        "uri" : "spotify:artist:5X1wMGxU1miIL3bhHFq0zJ"
      } ],
      "disc_number" : 1,
      "duration_ms" : 258716,
      "explicit" : false,
      "external_ids" : {
        "isrc" : "QZES92078426"
      },
      "external_urls" : {
        "spotify" : "https://open.spotify.com/track/1B4FiesOZSD9tUCDMqEIfR"
      },
      "href" : "https://api.spotify.com/v1/tracks/1B4FiesOZSD9tUCDMqEIfR",
      "id" : "1B4FiesOZSD9tUCDMqEIfR",
      "is_local" : false,
      "is_playable" : true,
      "name" : "Stand Up Stand Up for Jesus",
      "popularity" : 0,
      "preview_url" : "https://p.scdn.co/mp3-preview/06bfd18d1e247f1be90b0f690f4d2cbc8c256a1c?cid=774b29d4f13844c495f206cafdad9c86",
      "track_number" : 7,
      "type" : "track",
      "uri" : "spotify:track:1B4FiesOZSD9tUCDMqEIfR"
    }, {
      "album" : {
        "album_type" : "album",
        "artists" : [ {
          "external_urls" : {
            "spotify" : "https://open.spotify.com/artist/3YvKIusD2SEkeB3h02Tnzh"
          },
          "href" : "https://api.spotify.com/v1/artists/3YvKIusD2SEkeB3h02Tnzh",
          "id" : "3YvKIusD2SEkeB3h02Tnzh",
          "name" : "KidzTown Kids",
          "type" : "artist",
          "uri" : "spotify:artist:3YvKIusD2SEkeB3h02Tnzh"
        } ],
        "external_urls" : {
          "spotify" : "https://open.spotify.com/album/4CL02cjMFzJg2RtcS8mKp5"
        },
        "href" : "https://api.spotify.com/v1/albums/4CL02cjMFzJg2RtcS8mKp5",
        "id" : "4CL02cjMFzJg2RtcS8mKp5",
        "images" : [ {
          "height" : 640,
          "url" : "https://i.scdn.co/image/ab67616d0000b27348ee872ee9c40bb8df44d4d5",
          "width" : 640
        }, {
          "height" : 300,
          "url" : "https://i.scdn.co/image/ab67616d00001e0248ee872ee9c40bb8df44d4d5",
          "width" : 300
        }, {
          "height" : 64,
          "url" : "https://i.scdn.co/image/ab67616d0000485148ee872ee9c40bb8df44d4d5",
          "width" : 64
        } ],
        "name" : "Jesus Loves Me…A Childs Celebration",
        "release_date" : "2010-03-16",
        "release_date_precision" : "day",
        "total_tracks" : 20,
        "type" : "album",
        "uri" : "spotify:album:4CL02cjMFzJg2RtcS8mKp5"
      },
      "artists" : [ {
        "external_urls" : {
          "spotify" : "https://open.spotify.com/artist/3YvKIusD2SEkeB3h02Tnzh"
        },
        "href" : "https://api.spotify.com/v1/artists/3YvKIusD2SEkeB3h02Tnzh",
        "id" : "3YvKIusD2SEkeB3h02Tnzh",
        "name" : "KidzTown Kids",
        "type" : "artist",
        "uri" : "spotify:artist:3YvKIusD2SEkeB3h02Tnzh"
      } ],
      "disc_number" : 1,
      "duration_ms" : 101586,
      "explicit" : false,
      "external_ids" : {
        "isrc" : "CAM460431198"
      },
      "external_urls" : {
        "spotify" : "https://open.spotify.com/track/7LNRvHyjQRUZsjIFhFemiM"
      },
      "href" : "https://api.spotify.com/v1/tracks/7LNRvHyjQRUZsjIFhFemiM",
      "id" : "7LNRvHyjQRUZsjIFhFemiM",
      "is_local" : false,
      "is_playable" : true,
      "name" : "Stand Up For Jesus",
      "popularity" : 24,
      "preview_url" : "https://p.scdn.co/mp3-preview/4a54ff1c249af8319a520bd7f0d2f94e4876c1dc?cid=774b29d4f13844c495f206cafdad9c86",
      "track_number" : 16,
      "type" : "track",
      "uri" : "spotify:track:7LNRvHyjQRUZsjIFhFemiM"
    }, {
      "album" : {
        "album_type" : "compilation",
        "artists" : [ {
          "external_urls" : {
            "spotify" : "https://open.spotify.com/artist/0LyfQWJT6nXafLPZqxe9Of"
          },
          "href" : "https://api.spotify.com/v1/artists/0LyfQWJT6nXafLPZqxe9Of",
          "id" : "0LyfQWJT6nXafLPZqxe9Of",
          "name" : "Various Artists",
          "type" : "artist",
          "uri" : "spotify:artist:0LyfQWJT6nXafLPZqxe9Of"
        } ],
        "external_urls" : {
          "spotify" : "https://open.spotify.com/album/4yYTD1TfD8j3t1rIZdweal"
        },
        "href" : "https://api.spotify.com/v1/albums/4yYTD1TfD8j3t1rIZdweal",
        "id" : "4yYTD1TfD8j3t1rIZdweal",
        "images" : [ {
          "height" : 640,
          "url" : "https://i.scdn.co/image/ab67616d0000b2736cbfcc160452bbc2cba0c175",
          "width" : 640
        }, {
          "height" : 300,
          "url" : "https://i.scdn.co/image/ab67616d00001e026cbfcc160452bbc2cba0c175",
          "width" : 300
        }, {
          "height" : 64,
          "url" : "https://i.scdn.co/image/ab67616d000048516cbfcc160452bbc2cba0c175",
          "width" : 64
        } ],
        "name" : "Reggae Sunday Service, Vol. 4",
        "release_date" : "2005-01-01",
        "release_date_precision" : "day",
        "total_tracks" : 12,
        "type" : "album",
        "uri" : "spotify:album:4yYTD1TfD8j3t1rIZdweal"
      },
      "artists" : [ {
        "external_urls" : {
          "spotify" : "https://open.spotify.com/artist/79zVko9VgpEb4kp9oHoTQx"
        },
        "href" : "https://api.spotify.com/v1/artists/79zVko9VgpEb4kp9oHoTQx",
        "id" : "79zVko9VgpEb4kp9oHoTQx",
        "name" : "Carlene Davis",
        "type" : "artist",
        "uri" : "spotify:artist:79zVko9VgpEb4kp9oHoTQx"
      } ],
      "disc_number" : 1,
      "duration_ms" : 247893,
      "explicit" : false,
      "external_ids" : {
        "isrc" : "GBCMZ0503028"
      },
      "external_urls" : {
        "spotify" : "https://open.spotify.com/track/2OH6gfOPhJiUk3x2ZTgBAV"
      },
      "href" : "https://api.spotify.com/v1/tracks/2OH6gfOPhJiUk3x2ZTgBAV",
      "id" : "2OH6gfOPhJiUk3x2ZTgBAV",
      "is_local" : false,
      "is_playable" : true,
      "name" : "Stand up for Jesus",
      "popularity" : 21,
      "preview_url" : "https://p.scdn.co/mp3-preview/2f1676b8489a95f3e4f7ed660fccf0c60f82faff?cid=774b29d4f13844c495f206cafdad9c86",
      "track_number" : 2,
      "type" : "track",
      "uri" : "spotify:track:2OH6gfOPhJiUk3x2ZTgBAV"
    }, {
      "album" : {
        "album_type" : "album",
        "artists" : [ {
          "external_urls" : {
            "spotify" : "https://open.spotify.com/artist/6CDJjCW8qVphiyxVukKdOa"
          },
          "href" : "https://api.spotify.com/v1/artists/6CDJjCW8qVphiyxVukKdOa",
          "id" : "6CDJjCW8qVphiyxVukKdOa",
          "name" : "Maranatha! Praise Band",
          "type" : "artist",
          "uri" : "spotify:artist:6CDJjCW8qVphiyxVukKdOa"
        } ],
        "external_urls" : {
          "spotify" : "https://open.spotify.com/album/41yxtxd3tOJ7CXlUPGnfWg"
        },
        "href" : "https://api.spotify.com/v1/albums/41yxtxd3tOJ7CXlUPGnfWg",
        "id" : "41yxtxd3tOJ7CXlUPGnfWg",
        "images" : [ {
          "height" : 640,
          "url" : "https://i.scdn.co/image/ab67616d0000b27358ee33bce563eac3f4105a98",
          "width" : 640
        }, {
          "height" : 300,
          "url" : "https://i.scdn.co/image/ab67616d00001e0258ee33bce563eac3f4105a98",
          "width" : 300
        }, {
          "height" : 64,
          "url" : "https://i.scdn.co/image/ab67616d0000485158ee33bce563eac3f4105a98",
          "width" : 64
        } ],
        "name" : "Praise And Worship Top 40",
        "release_date" : "2010-01-01",
        "release_date_precision" : "day",
        "total_tracks" : 40,
        "type" : "album",
        "uri" : "spotify:album:41yxtxd3tOJ7CXlUPGnfWg"
      },
      "artists" : [ {
        "external_urls" : {
          "spotify" : "https://open.spotify.com/artist/6CDJjCW8qVphiyxVukKdOa"
        },
        "href" : "https://api.spotify.com/v1/artists/6CDJjCW8qVphiyxVukKdOa",
        "id" : "6CDJjCW8qVphiyxVukKdOa",
        "name" : "Maranatha! Praise Band",
        "type" : "artist",
        "uri" : "spotify:artist:6CDJjCW8qVphiyxVukKdOa"
      } ],
      "disc_number" : 1,
      "duration_ms" : 242480,
      "explicit" : false,
      "external_ids" : {
        "isrc" : "USMN20601084"
      },
      "external_urls" : {
        "spotify" : "https://open.spotify.com/track/4aAcLoaFIIdQrmPJiRGicu"
      },
      "href" : "https://api.spotify.com/v1/tracks/4aAcLoaFIIdQrmPJiRGicu",
      "id" : "4aAcLoaFIIdQrmPJiRGicu",
      "is_local" : false,
      "is_playable" : true,
      "name" : "Stand Up For Jesus",
      "popularity" : 20,
      "preview_url" : null,
      "track_number" : 5,
      "type" : "track",
      "uri" : "spotify:track:4aAcLoaFIIdQrmPJiRGicu"
    }, {
      "album" : {
        "album_type" : "album",
        "artists" : [ {
          "external_urls" : {
            "spotify" : "https://open.spotify.com/artist/41hCpLaR1bEW5ETK3aPvDB"
          },
          "href" : "https://api.spotify.com/v1/artists/41hCpLaR1bEW5ETK3aPvDB",
          "id" : "41hCpLaR1bEW5ETK3aPvDB",
          "name" : "The Eden Symphony Orchestra",
          "type" : "artist",
          "uri" : "spotify:artist:41hCpLaR1bEW5ETK3aPvDB"
        }, {
          "external_urls" : {
            "spotify" : "https://open.spotify.com/artist/2oQJQUIpJFFnfKvHJA0xBu"
          },
          "href" : "https://api.spotify.com/v1/artists/2oQJQUIpJFFnfKvHJA0xBu",
          "id" : "2oQJQUIpJFFnfKvHJA0xBu",
          "name" : "The City of Prague Philharmonic Orchestra",
          "type" : "artist",
          "uri" : "spotify:artist:2oQJQUIpJFFnfKvHJA0xBu"
        } ],
        "external_urls" : {
          "spotify" : "https://open.spotify.com/album/0Hu1nIGHV6gnorzZyR4TWS"
        },
        "href" : "https://api.spotify.com/v1/albums/0Hu1nIGHV6gnorzZyR4TWS",
        "id" : "0Hu1nIGHV6gnorzZyR4TWS",
        "images" : [ {
          "height" : 640,
          "url" : "https://i.scdn.co/image/ab67616d0000b273280af7127cc0e446b3b70ba9",
          "width" : 640
        }, {
          "height" : 300,
          "url" : "https://i.scdn.co/image/ab67616d00001e02280af7127cc0e446b3b70ba9",
          "width" : 300
        }, {
          "height" : 64,
          "url" : "https://i.scdn.co/image/ab67616d00004851280af7127cc0e446b3b70ba9",
          "width" : 64
        } ],
        "name" : "Great Hymns Collection: How Great Thou Art (Orchestral)",
        "release_date" : "2012-05-09",
        "release_date_precision" : "day",
        "total_tracks" : 16,
        "type" : "album",
        "uri" : "spotify:album:0Hu1nIGHV6gnorzZyR4TWS"
      },
      "artists" : [ {
        "external_urls" : {
          "spotify" : "https://open.spotify.com/artist/41hCpLaR1bEW5ETK3aPvDB"
        },
        "href" : "https://api.spotify.com/v1/artists/41hCpLaR1bEW5ETK3aPvDB",
        "id" : "41hCpLaR1bEW5ETK3aPvDB",
        "name" : "The Eden Symphony Orchestra",
        "type" : "artist",
        "uri" : "spotify:artist:41hCpLaR1bEW5ETK3aPvDB"
      } ],
      "disc_number" : 1,
      "duration_ms" : 229133,
      "explicit" : false,
      "external_ids" : {
        "isrc" : "GBCEU1111616"
      },
      "external_urls" : {
        "spotify" : "https://open.spotify.com/track/5KpXXnXQ9OaGXCKQ8gARQy"
      },
      "href" : "https://api.spotify.com/v1/tracks/5KpXXnXQ9OaGXCKQ8gARQy",
      "id" : "5KpXXnXQ9OaGXCKQ8gARQy",
      "is_local" : false,
      "is_playable" : true,
      "name" : "Stand Up, Stand Up For Jesus",
      "popularity" : 16,
      "preview_url" : "https://p.scdn.co/mp3-preview/14c1986b416f67f76d65f22aff1915aec559e2c5?cid=774b29d4f13844c495f206cafdad9c86",
      "track_number" : 16,
      "type" : "track",
      "uri" : "spotify:track:5KpXXnXQ9OaGXCKQ8gARQy"
    }, {
      "album" : {
        "album_type" : "compilation",
        "artists" : [ {
          "external_urls" : {
            "spotify" : "https://open.spotify.com/artist/0LyfQWJT6nXafLPZqxe9Of"
          },
          "href" : "https://api.spotify.com/v1/artists/0LyfQWJT6nXafLPZqxe9Of",
          "id" : "0LyfQWJT6nXafLPZqxe9Of",
          "name" : "Various Artists",
          "type" : "artist",
          "uri" : "spotify:artist:0LyfQWJT6nXafLPZqxe9Of"
        } ],
        "external_urls" : {
          "spotify" : "https://open.spotify.com/album/5q5T2QTyvv6lxUQSlRLXAe"
        },
        "href" : "https://api.spotify.com/v1/albums/5q5T2QTyvv6lxUQSlRLXAe",
        "id" : "5q5T2QTyvv6lxUQSlRLXAe",
        "images" : [ {
          "height" : 640,
          "url" : "https://i.scdn.co/image/ab67616d0000b27347af8963621d8ea73a64fb22",
          "width" : 640
        }, {
          "height" : 300,
          "url" : "https://i.scdn.co/image/ab67616d00001e0247af8963621d8ea73a64fb22",
          "width" : 300
        }, {
          "height" : 64,
          "url" : "https://i.scdn.co/image/ab67616d0000485147af8963621d8ea73a64fb22",
          "width" : 64
        } ],
        "name" : "30 Favorite Bluegrass Hymns: Instrumental Bluegrass Gospel Favorites",
        "release_date" : "2011-01-01",
        "release_date_precision" : "day",
        "total_tracks" : 30,
        "type" : "album",
        "uri" : "spotify:album:5q5T2QTyvv6lxUQSlRLXAe"
      },
      "artists" : [ {
        "external_urls" : {
          "spotify" : "https://open.spotify.com/artist/0zYyfhX87rISSc9dyJQK5t"
        },
        "href" : "https://api.spotify.com/v1/artists/0zYyfhX87rISSc9dyJQK5t",
        "id" : "0zYyfhX87rISSc9dyJQK5t",
        "name" : "Craig Duncan",
        "type" : "artist",
        "uri" : "spotify:artist:0zYyfhX87rISSc9dyJQK5t"
      } ],
      "disc_number" : 1,
      "duration_ms" : 205866,
      "explicit" : false,
      "external_ids" : {
        "isrc" : "USB4U0850261"
      },
      "external_urls" : {
        "spotify" : "https://open.spotify.com/track/627aUPYTlXUAwYEfFE8d87"
      },
      "href" : "https://api.spotify.com/v1/tracks/627aUPYTlXUAwYEfFE8d87",
      "id" : "627aUPYTlXUAwYEfFE8d87",
      "is_local" : false,
      "is_playable" : true,
      "name" : "I Love To Tell The Story/Stand Up Stand Up For Jesus",
      "popularity" : 12,
      "preview_url" : null,
      "track_number" : 15,
      "type" : "track",
      "uri" : "spotify:track:627aUPYTlXUAwYEfFE8d87"
    }, {
      "album" : {
        "album_type" : "album",
        "artists" : [ {
          "external_urls" : {
            "spotify" : "https://open.spotify.com/artist/5OBtjVnJ57P1dGt7sfyYxJ"
          },
          "href" : "https://api.spotify.com/v1/artists/5OBtjVnJ57P1dGt7sfyYxJ",
          "id" : "5OBtjVnJ57P1dGt7sfyYxJ",
          "name" : "St. John's Children's Choir",
          "type" : "artist",
          "uri" : "spotify:artist:5OBtjVnJ57P1dGt7sfyYxJ"
        } ],
        "external_urls" : {
          "spotify" : "https://open.spotify.com/album/4czi23GoHQn8ed0Jupejim"
        },
        "href" : "https://api.spotify.com/v1/albums/4czi23GoHQn8ed0Jupejim",
        "id" : "4czi23GoHQn8ed0Jupejim",
        "images" : [ {
          "height" : 640,
          "url" : "https://i.scdn.co/image/ab67616d0000b273f11fcfc68c976f0b47616fa3",
          "width" : 640
        }, {
          "height" : 300,
          "url" : "https://i.scdn.co/image/ab67616d00001e02f11fcfc68c976f0b47616fa3",
          "width" : 300
        }, {
          "height" : 64,
          "url" : "https://i.scdn.co/image/ab67616d00004851f11fcfc68c976f0b47616fa3",
          "width" : 64
        } ],
        "name" : "Bible Songs for Kids, Vol. 1",
        "release_date" : "2002-01-01",
        "release_date_precision" : "day",
        "total_tracks" : 34,
        "type" : "album",
        "uri" : "spotify:album:4czi23GoHQn8ed0Jupejim"
      },
      "artists" : [ {
        "external_urls" : {
          "spotify" : "https://open.spotify.com/artist/5OBtjVnJ57P1dGt7sfyYxJ"
        },
        "href" : "https://api.spotify.com/v1/artists/5OBtjVnJ57P1dGt7sfyYxJ",
        "id" : "5OBtjVnJ57P1dGt7sfyYxJ",
        "name" : "St. John's Children's Choir",
        "type" : "artist",
        "uri" : "spotify:artist:5OBtjVnJ57P1dGt7sfyYxJ"
      } ],
      "disc_number" : 1,
      "duration_ms" : 101586,
      "explicit" : false,
      "external_ids" : {
        "isrc" : "CAM460431198"
      },
      "external_urls" : {
        "spotify" : "https://open.spotify.com/track/1x3mjZy2ndp2oqDthr60E5"
      },
      "href" : "https://api.spotify.com/v1/tracks/1x3mjZy2ndp2oqDthr60E5",
      "id" : "1x3mjZy2ndp2oqDthr60E5",
      "is_local" : false,
      "is_playable" : true,
      "name" : "Stand Up, Stand Up for Jesus",
      "popularity" : 13,
      "preview_url" : "https://p.scdn.co/mp3-preview/ad784e89a56127026427942a5d075be1eff595c2?cid=774b29d4f13844c495f206cafdad9c86",
      "track_number" : 10,
      "type" : "track",
      "uri" : "spotify:track:1x3mjZy2ndp2oqDthr60E5"
    }, {
      "album" : {
        "album_type" : "album",
        "artists" : [ {
          "external_urls" : {
            "spotify" : "https://open.spotify.com/artist/0MCU2OpgnSB7rm5UPUMHgt"
          },
          "href" : "https://api.spotify.com/v1/artists/0MCU2OpgnSB7rm5UPUMHgt",
          "id" : "0MCU2OpgnSB7rm5UPUMHgt",
          "name" : "Cedarmont Kids",
          "type" : "artist",
          "uri" : "spotify:artist:0MCU2OpgnSB7rm5UPUMHgt"
        } ],
        "external_urls" : {
          "spotify" : "https://open.spotify.com/album/6IsMuKCzRSdfK9uRNq5Bfd"
        },
        "href" : "https://api.spotify.com/v1/albums/6IsMuKCzRSdfK9uRNq5Bfd",
        "id" : "6IsMuKCzRSdfK9uRNq5Bfd",
        "images" : [ {
          "height" : 640,
          "url" : "https://i.scdn.co/image/ab67616d0000b2739e6ce337aa67d1f0162a5ba4",
          "width" : 640
        }, {
          "height" : 300,
          "url" : "https://i.scdn.co/image/ab67616d00001e029e6ce337aa67d1f0162a5ba4",
          "width" : 300
        }, {
          "height" : 64,
          "url" : "https://i.scdn.co/image/ab67616d000048519e6ce337aa67d1f0162a5ba4",
          "width" : 64
        } ],
        "name" : "Hymns",
        "release_date" : "1997-07-06",
        "release_date_precision" : "day",
        "total_tracks" : 32,
        "type" : "album",
        "uri" : "spotify:album:6IsMuKCzRSdfK9uRNq5Bfd"
      },
      "artists" : [ {
        "external_urls" : {
          "spotify" : "https://open.spotify.com/artist/0MCU2OpgnSB7rm5UPUMHgt"
        },
        "href" : "https://api.spotify.com/v1/artists/0MCU2OpgnSB7rm5UPUMHgt",
        "id" : "0MCU2OpgnSB7rm5UPUMHgt",
        "name" : "Cedarmont Kids",
        "type" : "artist",
        "uri" : "spotify:artist:0MCU2OpgnSB7rm5UPUMHgt"
      } ],
      "disc_number" : 1,
      "duration_ms" : 121440,
      "explicit" : false,
      "external_ids" : {
        "isrc" : "USA5W0400446"
      },
      "external_urls" : {
        "spotify" : "https://open.spotify.com/track/0cbgNaVYpaQRuWEH8MdEhZ"
      },
      "href" : "https://api.spotify.com/v1/tracks/0cbgNaVYpaQRuWEH8MdEhZ",
      "id" : "0cbgNaVYpaQRuWEH8MdEhZ",
      "is_local" : false,
      "is_playable" : true,
      "name" : "Stand Up, Stand Up For Jesus",
      "popularity" : 12,
      "preview_url" : "https://p.scdn.co/mp3-preview/8464a8d2d1492ecef87a0e9e27a2199864688954?cid=774b29d4f13844c495f206cafdad9c86",
      "track_number" : 10,
      "type" : "track",
      "uri" : "spotify:track:0cbgNaVYpaQRuWEH8MdEhZ"
    }, {
      "album" : {
        "album_type" : "album",
        "artists" : [ {
          "external_urls" : {
            "spotify" : "https://open.spotify.com/artist/1SZMaiNHfdUuU0qZKZ6y62"
          },
          "href" : "https://api.spotify.com/v1/artists/1SZMaiNHfdUuU0qZKZ6y62",
          "id" : "1SZMaiNHfdUuU0qZKZ6y62",
          "name" : "Newsboys",
          "type" : "artist",
          "uri" : "spotify:artist:1SZMaiNHfdUuU0qZKZ6y62"
        } ],
        "external_urls" : {
          "spotify" : "https://open.spotify.com/album/1u82DyuhHlkjzuJNzZlkoi"
        },
        "href" : "https://api.spotify.com/v1/albums/1u82DyuhHlkjzuJNzZlkoi",
        "id" : "1u82DyuhHlkjzuJNzZlkoi",
        "images" : [ {
          "height" : 640,
          "url" : "https://i.scdn.co/image/ab67616d0000b2738a0b968d91e56c6e17c150e7",
          "width" : 640
        }, {
          "height" : 300,
          "url" : "https://i.scdn.co/image/ab67616d00001e028a0b968d91e56c6e17c150e7",
          "width" : 300
        }, {
          "height" : 64,
          "url" : "https://i.scdn.co/image/ab67616d000048518a0b968d91e56c6e17c150e7",
          "width" : 64
        } ],
        "name" : "Hell Is For Wimps",
        "release_date" : "1990-01-01",
        "release_date_precision" : "day",
        "total_tracks" : 10,
        "type" : "album",
        "uri" : "spotify:album:1u82DyuhHlkjzuJNzZlkoi"
      },
      "artists" : [ {
        "external_urls" : {
          "spotify" : "https://open.spotify.com/artist/1SZMaiNHfdUuU0qZKZ6y62"
        },
        "href" : "https://api.spotify.com/v1/artists/1SZMaiNHfdUuU0qZKZ6y62",
        "id" : "1SZMaiNHfdUuU0qZKZ6y62",
        "name" : "Newsboys",
        "type" : "artist",
        "uri" : "spotify:artist:1SZMaiNHfdUuU0qZKZ6y62"
      } ],
      "disc_number" : 1,
      "duration_ms" : 228155,
      "explicit" : false,
      "external_ids" : {
        "isrc" : "USCM19023756"
      },
      "external_urls" : {
        "spotify" : "https://open.spotify.com/track/2JY6PFp1eAZGPkhvvC97NS"
      },
      "href" : "https://api.spotify.com/v1/tracks/2JY6PFp1eAZGPkhvvC97NS",
      "id" : "2JY6PFp1eAZGPkhvvC97NS",
      "is_local" : false,
      "is_playable" : true,
      "name" : "Stand Up For Jesus - Hell Is For Wimps Album Version",
      "popularity" : 11,
      "preview_url" : null,
      "track_number" : 1,
      "type" : "track",
      "uri" : "spotify:track:2JY6PFp1eAZGPkhvvC97NS"
    }, {
      "album" : {
        "album_type" : "album",
        "artists" : [ {
          "external_urls" : {
            "spotify" : "https://open.spotify.com/artist/7GkPZD0O1btf2e5dtRZyfI"
          },
          "href" : "https://api.spotify.com/v1/artists/7GkPZD0O1btf2e5dtRZyfI",
          "id" : "7GkPZD0O1btf2e5dtRZyfI",
          "name" : "The Wonder Kids",
          "type" : "artist",
          "uri" : "spotify:artist:7GkPZD0O1btf2e5dtRZyfI"
        } ],
        "external_urls" : {
          "spotify" : "https://open.spotify.com/album/0ZsfuX82qLcGdR9jexOjtU"
        },
        "href" : "https://api.spotify.com/v1/albums/0ZsfuX82qLcGdR9jexOjtU",
        "id" : "0ZsfuX82qLcGdR9jexOjtU",
        "images" : [ {
          "height" : 640,
          "url" : "https://i.scdn.co/image/ab67616d0000b27318513f1c14f0b3fe9de186e8",
          "width" : 640
        }, {
          "height" : 300,
          "url" : "https://i.scdn.co/image/ab67616d00001e0218513f1c14f0b3fe9de186e8",
          "width" : 300
        }, {
          "height" : 64,
          "url" : "https://i.scdn.co/image/ab67616d0000485118513f1c14f0b3fe9de186e8",
          "width" : 64
        } ],
        "name" : "Jesus Loves Me",
        "release_date" : "2009-08-31",
        "release_date_precision" : "day",
        "total_tracks" : 33,
        "type" : "album",
        "uri" : "spotify:album:0ZsfuX82qLcGdR9jexOjtU"
      },
      "artists" : [ {
        "external_urls" : {
          "spotify" : "https://open.spotify.com/artist/7GkPZD0O1btf2e5dtRZyfI"
        },
        "href" : "https://api.spotify.com/v1/artists/7GkPZD0O1btf2e5dtRZyfI",
        "id" : "7GkPZD0O1btf2e5dtRZyfI",
        "name" : "The Wonder Kids",
        "type" : "artist",
        "uri" : "spotify:artist:7GkPZD0O1btf2e5dtRZyfI"
      } ],
      "disc_number" : 1,
      "duration_ms" : 135973,
      "explicit" : false,
      "external_ids" : {
        "isrc" : "ushm80951747"
      },
      "external_urls" : {
        "spotify" : "https://open.spotify.com/track/1gkmY7nobqjXD2uFfu7dVC"
      },
      "href" : "https://api.spotify.com/v1/tracks/1gkmY7nobqjXD2uFfu7dVC",
      "id" : "1gkmY7nobqjXD2uFfu7dVC",
      "is_local" : false,
      "is_playable" : true,
      "name" : "Stand Up, Stand Up for Jesus",
      "popularity" : 14,
      "preview_url" : "https://p.scdn.co/mp3-preview/e0cf41718a72dc79573399b88893cf8bf73b6fa3?cid=774b29d4f13844c495f206cafdad9c86",
      "track_number" : 11,
      "type" : "track",
      "uri" : "spotify:track:1gkmY7nobqjXD2uFfu7dVC"
    } ],
    "limit" : 10,
    "next" : "https://api.spotify.com/v1/search?query=Stand+Up%21+Stand+Up+for+Jesus%21&type=track&market=US&offset=15&limit=10",
    "offset" : 5,
    "previous" : "https://api.spotify.com/v1/search?query=Stand+Up%21+Stand+Up+for+Jesus%21&type=track&market=US&offset=0&limit=10",
    "total" : 508
  }
}