{
  "tracks" : {
    "href" : "https://api.spotify.com/v1/search?query=I+Must+Tell+Jesus&type=track&market=US&offset=5&limit=10",
    "items" : [ {
      "album" : {
        "album_type" : "album",
        "artists" : [ {
          "external_urls" : {
            "spotify" : "https://open.spotify.com/artist/0U0Vlp1HGGUpeXgiqoLwf6"
          },
          "href" : "https://api.spotify.com/v1/artists/0U0Vlp1HGGUpeXgiqoLwf6",
          "id" : "0U0Vlp1HGGUpeXgiqoLwf6",
          "name" : "Anthony Burger",
          "type" : "artist",
          "uri" : "spotify:artist:0U0Vlp1HGGUpeXgiqoLwf6"
        } ],
        "external_urls" : {
          "spotify" : "https://open.spotify.com/album/5jbwOux9XlXlYADVzTIhsq"
        },
        "href" : "https://api.spotify.com/v1/albums/5jbwOux9XlXlYADVzTIhsq",
        "id" : "5jbwOux9XlXlYADVzTIhsq",
        "images" : [ {
          "height" : 640,
          "url" : "https://i.scdn.co/image/ab67616d0000b273f4b6d86ceff7c1c608bc854c",
          "width" : 640
        }, {
          "height" : 300,
          "url" : "https://i.scdn.co/image/ab67616d00001e02f4b6d86ceff7c1c608bc854c",
          "width" : 300
        }, {
          "height" : 64,
          "url" : "https://i.scdn.co/image/ab67616d00004851f4b6d86ceff7c1c608bc854c",
          "width" : 64
        } ],
        "name" : "Hymns Collection",
        "release_date" : "2008-01-01",
        "release_date_precision" : "day",
        "total_tracks" : 19,
        "type" : "album",
        "uri" : "spotify:album:5jbwOux9XlXlYADVzTIhsq"
      },
      "artists" : [ {
        "external_urls" : {
          "spotify" : "https://open.spotify.com/artist/0U0Vlp1HGGUpeXgiqoLwf6"
        },
        "href" : "https://api.spotify.com/v1/artists/0U0Vlp1HGGUpeXgiqoLwf6",
        "id" : "0U0Vlp1HGGUpeXgiqoLwf6",
        "name" : "Anthony Burger",
        "type" : "artist",
        "uri" : "spotify:artist:0U0Vlp1HGGUpeXgiqoLwf6"
      } ],
      "disc_number" : 1,
      "duration_ms" : 203613,
      "explicit" : false,
      "external_ids" : {
        "isrc" : "USB4U0800110"
      },
      "external_urls" : {
        "spotify" : "https://open.spotify.com/track/6nhgSMvJ9Xcs9qiSgeFdCc"
      },
      "href" : "https://api.spotify.com/v1/tracks/6nhgSMvJ9Xcs9qiSgeFdCc",
      "id" : "6nhgSMvJ9Xcs9qiSgeFdCc",
      "is_local" : false,
      "is_playable" : true,
      "name" : "Trust & Obey/I Must Tell Jesus - Medley",
      "popularity" : 27,
      "preview_url" : null,
      "track_number" : 7,
      "type" : "track",
      "uri" : "spotify:track:6nhgSMvJ9Xcs9qiSgeFdCc"
    }, {
      "album" : {
        "album_type" : "album",
        "artists" : [ {
          "external_urls" : {
            "spotify" : "https://open.spotify.com/artist/7vp4snAnlT7cmZc42bir2y"
          },
          "href" : "https://api.spotify.com/v1/artists/7vp4snAnlT7cmZc42bir2y",
          "id" : "7vp4snAnlT7cmZc42bir2y",
          "name" : "Drew Evans",
          "type" : "artist",
          "uri" : "spotify:artist:7vp4snAnlT7cmZc42bir2y"
        } ],
        "external_urls" : {
          "spotify" : "https://open.spotify.com/album/1cPvnGnFTREixXaH6d0RBo"
        },
        "href" : "https://api.spotify.com/v1/albums/1cPvnGnFTREixXaH6d0RBo",
        "id" : "1cPvnGnFTREixXaH6d0RBo",
        "images" : [ {
          "height" : 640,
          "url" : "https://i.scdn.co/image/ab67616d0000b2739c36d9f880d022841d4a24ed",
          "width" : 640
        }, {
          "height" : 300,
          "url" : "https://i.scdn.co/image/ab67616d00001e029c36d9f880d022841d4a24ed",
          "width" : 300
        }, {
          "height" : 64,
          "url" : "https://i.scdn.co/image/ab67616d000048519c36d9f880d022841d4a24ed",
          "width" : 64
        } ],
        "name" : "And I Know",
        "release_date" : "2020-05-22",
        "release_date_precision" : "day",
        "total_tracks" : 14,
        "type" : "album",
        "uri" : "spotify:album:1cPvnGnFTREixXaH6d0RBo"
      },
      "artists" : [ {
        "external_urls" : {
          "spotify" : "https://open.spotify.com/artist/7vp4snAnlT7cmZc42bir2y"
        },
        "href" : "https://api.spotify.com/v1/artists/7vp4snAnlT7cmZc42bir2y",
        "id" : "7vp4snAnlT7cmZc42bir2y",
        "name" : "Drew Evans",
        "type" : "artist",
        "uri" : "spotify:artist:7vp4snAnlT7cmZc42bir2y"
      } ],
      "disc_number" : 1,
      "duration_ms" : 157493,
      "explicit" : false,
      "external_ids" : {
        "isrc" : "usdy42094955"
      },
      "external_urls" : {
        "spotify" : "https://open.spotify.com/track/6h9qeDPvZs1aawtDFfxDQJ"
      },
      "href" : "https://api.spotify.com/v1/tracks/6h9qeDPvZs1aawtDFfxDQJ",
      "id" : "6h9qeDPvZs1aawtDFfxDQJ",
      "is_local" : false,
      "is_playable" : true,
      "name" : "I Must Tell Jesus",
      "popularity" : 1,
      "preview_url" : "https://p.scdn.co/mp3-preview/993b0d0232d69114fdb13e30b50bf9b0b7929e4a?cid=774b29d4f13844c495f206cafdad9c86",
      "track_number" : 4,
      "type" : "track",
      "uri" : "spotify:track:6h9qeDPvZs1aawtDFfxDQJ"
    }, {
      "album" : {
        "album_type" : "album",
        "artists" : [ {
          "external_urls" : {
            "spotify" : "https://open.spotify.com/artist/6v2VjBVPcGVbBqJrUWYiG1"
          },
          "href" : "https://api.spotify.com/v1/artists/6v2VjBVPcGVbBqJrUWYiG1",
          "id" : "6v2VjBVPcGVbBqJrUWYiG1",
          "name" : "Kirk Whalum",
          "type" : "artist",
          "uri" : "spotify:artist:6v2VjBVPcGVbBqJrUWYiG1"
        } ],
        "external_urls" : {
          "spotify" : "https://open.spotify.com/album/32X0W4HRWDodzORBvVTzj5"
        },
        "href" : "https://api.spotify.com/v1/albums/32X0W4HRWDodzORBvVTzj5",
        "id" : "32X0W4HRWDodzORBvVTzj5",
        "images" : [ {
          "height" : 640,
          "url" : "https://i.scdn.co/image/ab67616d0000b2739d5f1fa7cf82e934d7cb9b21",
          "width" : 640
        }, {
          "height" : 300,
          "url" : "https://i.scdn.co/image/ab67616d00001e029d5f1fa7cf82e934d7cb9b21",
          "width" : 300
        }, {
          "height" : 64,
          "url" : "https://i.scdn.co/image/ab67616d000048519d5f1fa7cf82e934d7cb9b21",
          "width" : 64
        } ],
        "name" : "Hymns in the Garden",
        "release_date" : "2001-09-21",
        "release_date_precision" : "day",
        "total_tracks" : 13,
        "type" : "album",
        "uri" : "spotify:album:32X0W4HRWDodzORBvVTzj5"
      },
      "artists" : [ {
        "external_urls" : {
          "spotify" : "https://open.spotify.com/artist/6v2VjBVPcGVbBqJrUWYiG1"
        },
        "href" : "https://api.spotify.com/v1/artists/6v2VjBVPcGVbBqJrUWYiG1",
        "id" : "6v2VjBVPcGVbBqJrUWYiG1",
        "name" : "Kirk Whalum",
        "type" : "artist",
        "uri" : "spotify:artist:6v2VjBVPcGVbBqJrUWYiG1"
      } ],
      "disc_number" : 1,
      "duration_ms" : 376546,
      "explicit" : false,
      "external_ids" : {
        "isrc" : "US6PL0100010"
      },
      "external_urls" : {
        "spotify" : "https://open.spotify.com/track/2P5gt5LHu4tXpz3ZQvWzfu"
      },
      "href" : "https://api.spotify.com/v1/tracks/2P5gt5LHu4tXpz3ZQvWzfu",
      "id" : "2P5gt5LHu4tXpz3ZQvWzfu",
      "is_local" : false,
      "is_playable" : true,
      "name" : "I Must Tell Jesus",
      "popularity" : 15,
      "preview_url" : "https://p.scdn.co/mp3-preview/7e3bd5257cc07575f9caf6d745b082ac072e8952?cid=774b29d4f13844c495f206cafdad9c86",
      "track_number" : 10,
      "type" : "track",
      "uri" : "spotify:track:2P5gt5LHu4tXpz3ZQvWzfu"
    }, {
      "album" : {
        "album_type" : "album",
        "artists" : [ {
          "external_urls" : {
            "spotify" : "https://open.spotify.com/artist/3YXPy18rDwhGJdBjnpYGpa"
          },
          "href" : "https://api.spotify.com/v1/artists/3YXPy18rDwhGJdBjnpYGpa",
          "id" : "3YXPy18rDwhGJdBjnpYGpa",
          "name" : "Virtue",
          "type" : "artist",
          "uri" : "spotify:artist:3YXPy18rDwhGJdBjnpYGpa"
        } ],
        "external_urls" : {
          "spotify" : "https://open.spotify.com/album/6sEc4q8vA7ccnLEcpXjZmk"
        },
        "href" : "https://api.spotify.com/v1/albums/6sEc4q8vA7ccnLEcpXjZmk",
        "id" : "6sEc4q8vA7ccnLEcpXjZmk",
        "images" : [ {
          "height" : 640,
          "url" : "https://i.scdn.co/image/ab67616d0000b273790b0774c5a55b6bdd22f0d1",
          "width" : 640
        }, {
          "height" : 300,
          "url" : "https://i.scdn.co/image/ab67616d00001e02790b0774c5a55b6bdd22f0d1",
          "width" : 300
        }, {
          "height" : 64,
          "url" : "https://i.scdn.co/image/ab67616d00004851790b0774c5a55b6bdd22f0d1",
          "width" : 64
        } ],
        "name" : "Virtue",
        "release_date" : "1997",
        "release_date_precision" : "year",
        "total_tracks" : 11,
        "type" : "album",
        "uri" : "spotify:album:6sEc4q8vA7ccnLEcpXjZmk"
      },
      "artists" : [ {
        "external_urls" : {
          "spotify" : "https://open.spotify.com/artist/3YXPy18rDwhGJdBjnpYGpa"
        },
        "href" : "https://api.spotify.com/v1/artists/3YXPy18rDwhGJdBjnpYGpa",
        "id" : "3YXPy18rDwhGJdBjnpYGpa",
        "name" : "Virtue",
        "type" : "artist",
        "uri" : "spotify:artist:3YXPy18rDwhGJdBjnpYGpa"
      } ],
      "disc_number" : 1,
      "duration_ms" : 259493,
      "explicit" : false,
      "external_ids" : {
        "isrc" : "GBAHK9700191"
      },
      "external_urls" : {
        "spotify" : "https://open.spotify.com/track/4hH0QrQQrXHY6aL60jfvjO"
      },
      "href" : "https://api.spotify.com/v1/tracks/4hH0QrQQrXHY6aL60jfvjO",
      "id" : "4hH0QrQQrXHY6aL60jfvjO",
      "is_local" : false,
      "is_playable" : true,
      "name" : "I Must Tell Jesus",
      "popularity" : 12,
      "preview_url" : "https://p.scdn.co/mp3-preview/cc61123d164e207d213c34295c8611616b934906?cid=774b29d4f13844c495f206cafdad9c86",
      "track_number" : 9,
      "type" : "track",
      "uri" : "spotify:track:4hH0QrQQrXHY6aL60jfvjO"
    }, {
      "album" : {
        "album_type" : "album",
        "artists" : [ {
          "external_urls" : {
            "spotify" : "https://open.spotify.com/artist/6CkyBXEUTNVKtjuvpm4FrY"
          },
          "href" : "https://api.spotify.com/v1/artists/6CkyBXEUTNVKtjuvpm4FrY",
          "id" : "6CkyBXEUTNVKtjuvpm4FrY",
          "name" : "Gold City",
          "type" : "artist",
          "uri" : "spotify:artist:6CkyBXEUTNVKtjuvpm4FrY"
        } ],
        "external_urls" : {
          "spotify" : "https://open.spotify.com/album/6yPU8bhLOs98RHVmTrE9fg"
        },
        "href" : "https://api.spotify.com/v1/albums/6yPU8bhLOs98RHVmTrE9fg",
        "id" : "6yPU8bhLOs98RHVmTrE9fg",
        "images" : [ {
          "height" : 640,
          "url" : "https://i.scdn.co/image/ab67616d0000b2730494dec639c83e6fe56d0a4b",
          "width" : 640
        }, {
          "height" : 300,
          "url" : "https://i.scdn.co/image/ab67616d00001e020494dec639c83e6fe56d0a4b",
          "width" : 300
        }, {
          "height" : 64,
          "url" : "https://i.scdn.co/image/ab67616d000048510494dec639c83e6fe56d0a4b",
          "width" : 64
        } ],
        "name" : "Hymn Revival",
        "release_date" : "2014-08-19",
        "release_date_precision" : "day",
        "total_tracks" : 11,
        "type" : "album",
        "uri" : "spotify:album:6yPU8bhLOs98RHVmTrE9fg"
      },
      "artists" : [ {
        "external_urls" : {
          "spotify" : "https://open.spotify.com/artist/6CkyBXEUTNVKtjuvpm4FrY"
        },
        "href" : "https://api.spotify.com/v1/artists/6CkyBXEUTNVKtjuvpm4FrY",
        "id" : "6CkyBXEUTNVKtjuvpm4FrY",
        "name" : "Gold City",
        "type" : "artist",
        "uri" : "spotify:artist:6CkyBXEUTNVKtjuvpm4FrY"
      } ],
      "disc_number" : 1,
      "duration_ms" : 270520,
      "explicit" : false,
      "external_ids" : {
        "isrc" : "US6R21452467"
      },
      "external_urls" : {
        "spotify" : "https://open.spotify.com/track/0L1ST7DY5g4aulAExMNVUi"
      },
      "href" : "https://api.spotify.com/v1/tracks/0L1ST7DY5g4aulAExMNVUi",
      "id" : "0L1ST7DY5g4aulAExMNVUi",
      "is_local" : false,
      "is_playable" : true,
      "name" : "I Must Tell Jesus",
      "popularity" : 12,
      "preview_url" : "https://p.scdn.co/mp3-preview/6dcbad3cf5e4c7ff7e05f637b4d0ea33b12a00e8?cid=774b29d4f13844c495f206cafdad9c86",
      "track_number" : 3,
      "type" : "track",
      "uri" : "spotify:track:0L1ST7DY5g4aulAExMNVUi"
    }, {
      "album" : {
        "album_type" : "album",
        "artists" : [ {
          "external_urls" : {
            "spotify" : "https://open.spotify.com/artist/1I7iiuI5AMSMCwKp8dOCXY"
          },
          "href" : "https://api.spotify.com/v1/artists/1I7iiuI5AMSMCwKp8dOCXY",
          "id" : "1I7iiuI5AMSMCwKp8dOCXY",
          "name" : "The New Life Community Choir",
          "type" : "artist",
          "uri" : "spotify:artist:1I7iiuI5AMSMCwKp8dOCXY"
        } ],
        "external_urls" : {
          "spotify" : "https://open.spotify.com/album/5As9TZe419IiFaYqejOxNS"
        },
        "href" : "https://api.spotify.com/v1/albums/5As9TZe419IiFaYqejOxNS",
        "id" : "5As9TZe419IiFaYqejOxNS",
        "images" : [ {
          "height" : 640,
          "url" : "https://i.scdn.co/image/ab67616d0000b273e84c1d72d6112df32a6a85a3",
          "width" : 640
        }, {
          "height" : 300,
          "url" : "https://i.scdn.co/image/ab67616d00001e02e84c1d72d6112df32a6a85a3",
          "width" : 300
        }, {
          "height" : 64,
          "url" : "https://i.scdn.co/image/ab67616d00004851e84c1d72d6112df32a6a85a3",
          "width" : 64
        } ],
        "name" : "Wash Me (feat. John P. Kee)",
        "release_date" : "1991",
        "release_date_precision" : "year",
        "total_tracks" : 10,
        "type" : "album",
        "uri" : "spotify:album:5As9TZe419IiFaYqejOxNS"
      },
      "artists" : [ {
        "external_urls" : {
          "spotify" : "https://open.spotify.com/artist/1I7iiuI5AMSMCwKp8dOCXY"
        },
        "href" : "https://api.spotify.com/v1/artists/1I7iiuI5AMSMCwKp8dOCXY",
        "id" : "1I7iiuI5AMSMCwKp8dOCXY",
        "name" : "The New Life Community Choir",
        "type" : "artist",
        "uri" : "spotify:artist:1I7iiuI5AMSMCwKp8dOCXY"
      }, {
        "external_urls" : {
          "spotify" : "https://open.spotify.com/artist/3WVgChZY3rEyeHd3aljzNl"
        },
        "href" : "https://api.spotify.com/v1/artists/3WVgChZY3rEyeHd3aljzNl",
        "id" : "3WVgChZY3rEyeHd3aljzNl",
        "name" : "John P. Kee",
        "type" : "artist",
        "uri" : "spotify:artist:3WVgChZY3rEyeHd3aljzNl"
      } ],
      "disc_number" : 1,
      "duration_ms" : 240240,
      "explicit" : false,
      "external_ids" : {
        "isrc" : "USVE20400366"
      },
      "external_urls" : {
        "spotify" : "https://open.spotify.com/track/2jY7QyqP2k2dhiSv51M92y"
      },
      "href" : "https://api.spotify.com/v1/tracks/2jY7QyqP2k2dhiSv51M92y",
      "id" : "2jY7QyqP2k2dhiSv51M92y",
      "is_local" : false,
      "is_playable" : true,
      "name" : "I Must Tell Jesus (feat. John P. Kee)",
      "popularity" : 10,
      "preview_url" : "https://p.scdn.co/mp3-preview/96362b3e331b2ebe87a61ae38b029125bab155b4?cid=774b29d4f13844c495f206cafdad9c86",
      "track_number" : 3,
      "type" : "track",
      "uri" : "spotify:track:2jY7QyqP2k2dhiSv51M92y"
    }, {
      "album" : {
        "album_type" : "album",
        "artists" : [ {
          "external_urls" : {
            "spotify" : "https://open.spotify.com/artist/1eYeWIUQS1tHAOdVTfNm1A"
          },
          "href" : "https://api.spotify.com/v1/artists/1eYeWIUQS1tHAOdVTfNm1A",
          "id" : "1eYeWIUQS1tHAOdVTfNm1A",
          "name" : "Sounds Like Reign",
          "type" : "artist",
          "uri" : "spotify:artist:1eYeWIUQS1tHAOdVTfNm1A"
        } ],
        "external_urls" : {
          "spotify" : "https://open.spotify.com/album/4SVhF2XYn1BTmLvgiTZ8GK"
        },
        "href" : "https://api.spotify.com/v1/albums/4SVhF2XYn1BTmLvgiTZ8GK",
        "id" : "4SVhF2XYn1BTmLvgiTZ8GK",
        "images" : [ {
          "height" : 640,
          "url" : "https://i.scdn.co/image/ab67616d0000b273b6a52f1a8c0afdd0420c5adf",
          "width" : 640
        }, {
          "height" : 300,
          "url" : "https://i.scdn.co/image/ab67616d00001e02b6a52f1a8c0afdd0420c5adf",
          "width" : 300
        }, {
          "height" : 64,
          "url" : "https://i.scdn.co/image/ab67616d00004851b6a52f1a8c0afdd0420c5adf",
          "width" : 64
        } ],
        "name" : "Living Room Sessions",
        "release_date" : "2017-03-21",
        "release_date_precision" : "day",
        "total_tracks" : 7,
        "type" : "album",
        "uri" : "spotify:album:4SVhF2XYn1BTmLvgiTZ8GK"
      },
      "artists" : [ {
        "external_urls" : {
          "spotify" : "https://open.spotify.com/artist/1eYeWIUQS1tHAOdVTfNm1A"
        },
        "href" : "https://api.spotify.com/v1/artists/1eYeWIUQS1tHAOdVTfNm1A",
        "id" : "1eYeWIUQS1tHAOdVTfNm1A",
        "name" : "Sounds Like Reign",
        "type" : "artist",
        "uri" : "spotify:artist:1eYeWIUQS1tHAOdVTfNm1A"
      } ],
      "disc_number" : 1,
      "duration_ms" : 285386,
      "explicit" : false,
      "external_ids" : {
        "isrc" : "uscgj1740577"
      },
      "external_urls" : {
        "spotify" : "https://open.spotify.com/track/5Ua7kxCBoOCX57kRvJJKb9"
      },
      "href" : "https://api.spotify.com/v1/tracks/5Ua7kxCBoOCX57kRvJJKb9",
      "id" : "5Ua7kxCBoOCX57kRvJJKb9",
      "is_local" : false,
      "is_playable" : true,
      "name" : "I Must Tell Jesus",
      "popularity" : 14,
      "preview_url" : "https://p.scdn.co/mp3-preview/dad586d3110a2eff95be91c7968c8ba3fdefd3fb?cid=774b29d4f13844c495f206cafdad9c86",
      "track_number" : 6,
      "type" : "track",
      "uri" : "spotify:track:5Ua7kxCBoOCX57kRvJJKb9"
    }, {
      "album" : {
        "album_type" : "album",
        "artists" : [ {
          "external_urls" : {
            "spotify" : "https://open.spotify.com/artist/5WWuo8k0komiDBmtec6gHI"
          },
          "href" : "https://api.spotify.com/v1/artists/5WWuo8k0komiDBmtec6gHI",
          "id" : "5WWuo8k0komiDBmtec6gHI",
          "name" : "Lynda Randle",
          "type" : "artist",
          "uri" : "spotify:artist:5WWuo8k0komiDBmtec6gHI"
        } ],
        "external_urls" : {
          "spotify" : "https://open.spotify.com/album/0LV9F9fLOTVDkOgNTm4nKu"
        },
        "href" : "https://api.spotify.com/v1/albums/0LV9F9fLOTVDkOgNTm4nKu",
        "id" : "0LV9F9fLOTVDkOgNTm4nKu",
        "images" : [ {
          "height" : 640,
          "url" : "https://i.scdn.co/image/ab67616d0000b273a56a975d18efaa4ec8a9466e",
          "width" : 640
        }, {
          "height" : 300,
          "url" : "https://i.scdn.co/image/ab67616d00001e02a56a975d18efaa4ec8a9466e",
          "width" : 300
        }, {
          "height" : 64,
          "url" : "https://i.scdn.co/image/ab67616d00004851a56a975d18efaa4ec8a9466e",
          "width" : 64
        } ],
        "name" : "Ageless Hymns: Songs Of Peace",
        "release_date" : "2015-01-20",
        "release_date_precision" : "day",
        "total_tracks" : 12,
        "type" : "album",
        "uri" : "spotify:album:0LV9F9fLOTVDkOgNTm4nKu"
      },
      "artists" : [ {
        "external_urls" : {
          "spotify" : "https://open.spotify.com/artist/5WWuo8k0komiDBmtec6gHI"
        },
        "href" : "https://api.spotify.com/v1/artists/5WWuo8k0komiDBmtec6gHI",
        "id" : "5WWuo8k0komiDBmtec6gHI",
        "name" : "Lynda Randle",
        "type" : "artist",
        "uri" : "spotify:artist:5WWuo8k0komiDBmtec6gHI"
      } ],
      "disc_number" : 1,
      "duration_ms" : 253306,
      "explicit" : false,
      "external_ids" : {
        "isrc" : "QME2Q1500007"
      },
      "external_urls" : {
        "spotify" : "https://open.spotify.com/track/49JAdiJGTeYTDVzRbf0ghz"
      },
      "href" : "https://api.spotify.com/v1/tracks/49JAdiJGTeYTDVzRbf0ghz",
      "id" : "49JAdiJGTeYTDVzRbf0ghz",
      "is_local" : false,
      "is_playable" : true,
      "name" : "I Must Tell Jesus",
      "popularity" : 13,
      "preview_url" : null,
      "track_number" : 7,
      "type" : "track",
      "uri" : "spotify:track:49JAdiJGTeYTDVzRbf0ghz"
    }, {
      "album" : {
        "album_type" : "album",
        "artists" : [ {
          "external_urls" : {
            "spotify" : "https://open.spotify.com/artist/7HuVvxJh7p17tDsVFYIUx9"
          },
          "href" : "https://api.spotify.com/v1/artists/7HuVvxJh7p17tDsVFYIUx9",
          "id" : "7HuVvxJh7p17tDsVFYIUx9",
          "name" : "Canton Junction",
          "type" : "artist",
          "uri" : "spotify:artist:7HuVvxJh7p17tDsVFYIUx9"
        } ],
        "external_urls" : {
          "spotify" : "https://open.spotify.com/album/2iX6xnMryED3o7HylrLiDH"
        },
        "href" : "https://api.spotify.com/v1/albums/2iX6xnMryED3o7HylrLiDH",
        "id" : "2iX6xnMryED3o7HylrLiDH",
        "images" : [ {
          "height" : 640,
          "url" : "https://i.scdn.co/image/ab67616d0000b273d4d22277e827dbb4cb2cc2ec",
          "width" : 640
        }, {
          "height" : 300,
          "url" : "https://i.scdn.co/image/ab67616d00001e02d4d22277e827dbb4cb2cc2ec",
          "width" : 300
        }, {
          "height" : 64,
          "url" : "https://i.scdn.co/image/ab67616d00004851d4d22277e827dbb4cb2cc2ec",
          "width" : 64
        } ],
        "name" : "Great Is Thy Faithfulness (Live)",
        "release_date" : "2020-05-01",
        "release_date_precision" : "day",
        "total_tracks" : 17,
        "type" : "album",
        "uri" : "spotify:album:2iX6xnMryED3o7HylrLiDH"
      },
      "artists" : [ {
        "external_urls" : {
          "spotify" : "https://open.spotify.com/artist/7HuVvxJh7p17tDsVFYIUx9"
        },
        "href" : "https://api.spotify.com/v1/artists/7HuVvxJh7p17tDsVFYIUx9",
        "id" : "7HuVvxJh7p17tDsVFYIUx9",
        "name" : "Canton Junction",
        "type" : "artist",
        "uri" : "spotify:artist:7HuVvxJh7p17tDsVFYIUx9"
      } ],
      "disc_number" : 1,
      "duration_ms" : 476266,
      "explicit" : false,
      "external_ids" : {
        "isrc" : "US7QC1900291"
      },
      "external_urls" : {
        "spotify" : "https://open.spotify.com/track/4drYH0wSh8R9smTexg4Mud"
      },
      "href" : "https://api.spotify.com/v1/tracks/4drYH0wSh8R9smTexg4Mud",
      "id" : "4drYH0wSh8R9smTexg4Mud",
      "is_local" : false,
      "is_playable" : true,
      "name" : "I Must Tell Jesus - Live",
      "popularity" : 11,
      "preview_url" : null,
      "track_number" : 9,
      "type" : "track",
      "uri" : "spotify:track:4drYH0wSh8R9smTexg4Mud"
    }, {
      "album" : {
        "album_type" : "album",
        "artists" : [ {
          "external_urls" : {
            "spotify" : "https://open.spotify.com/artist/3lOCG4sqG0T37eoN9JqjEw"
          },
          "href" : "https://api.spotify.com/v1/artists/3lOCG4sqG0T37eoN9JqjEw",
          "id" : "3lOCG4sqG0T37eoN9JqjEw",
          "name" : "George Nooks",
          "type" : "artist",
          "uri" : "spotify:artist:3lOCG4sqG0T37eoN9JqjEw"
        } ],
        "external_urls" : {
          "spotify" : "https://open.spotify.com/album/6HK6LXKSSyP5pVUmjSMoED"
        },
        "href" : "https://api.spotify.com/v1/albums/6HK6LXKSSyP5pVUmjSMoED",
        "id" : "6HK6LXKSSyP5pVUmjSMoED",
        "images" : [ {
          "height" : 640,
          "url" : "https://i.scdn.co/image/ab67616d0000b27350b977d10f3dfc79c9d8a670",
          "width" : 640
        }, {
          "height" : 300,
          "url" : "https://i.scdn.co/image/ab67616d00001e0250b977d10f3dfc79c9d8a670",
          "width" : 300
        }, {
          "height" : 64,
          "url" : "https://i.scdn.co/image/ab67616d0000485150b977d10f3dfc79c9d8a670",
          "width" : 64
        } ],
        "name" : "Extended Ride Out Your Storm",
        "release_date" : "2017-09-01",
        "release_date_precision" : "day",
        "total_tracks" : 15,
        "type" : "album",
        "uri" : "spotify:album:6HK6LXKSSyP5pVUmjSMoED"
      },
      "artists" : [ {
        "external_urls" : {
          "spotify" : "https://open.spotify.com/artist/3lOCG4sqG0T37eoN9JqjEw"
        },
        "href" : "https://api.spotify.com/v1/artists/3lOCG4sqG0T37eoN9JqjEw",
        "id" : "3lOCG4sqG0T37eoN9JqjEw",
        "name" : "George Nooks",
        "type" : "artist",
        "uri" : "spotify:artist:3lOCG4sqG0T37eoN9JqjEw"
      } ],
      "disc_number" : 1,
      "duration_ms" : 301927,
      "explicit" : false,
      "external_ids" : {
        "isrc" : "JMB111700308"
      },
      "external_urls" : {
        "spotify" : "https://open.spotify.com/track/0T7xqmJBIZAjv5nRSYnXtb"
      },
      "href" : "https://api.spotify.com/v1/tracks/0T7xqmJBIZAjv5nRSYnXtb",
      "id" : "0T7xqmJBIZAjv5nRSYnXtb",
      "is_local" : false,
      "is_playable" : true,
      "name" : "I Must Tell Jesus",
      "popularity" : 13,
      "preview_url" : "https://p.scdn.co/mp3-preview/8fa3f458c8601eae395bb0ab5cbe2db88cc21687?cid=774b29d4f13844c495f206cafdad9c86",
      "track_number" : 4,
      "type" : "track",
      "uri" : "spotify:track:0T7xqmJBIZAjv5nRSYnXtb"
    } ],
    "limit" : 10,
    "next" : "https://api.spotify.com/v1/search?query=I+Must+Tell+Jesus&type=track&market=US&offset=15&limit=10",
    "offset" : 5,
    "previous" : "https://api.spotify.com/v1/search?query=I+Must+Tell+Jesus&type=track&market=US&offset=0&limit=10",
    "total" : 423
  }
}