{
  "tracks" : {
    "href" : "https://api.spotify.com/v1/search?query=O+Shepherd+Divine&type=track&market=US&offset=5&limit=10",
    "items" : [ {
      "album" : {
        "album_type" : "single",
        "artists" : [ {
          "external_urls" : {
            "spotify" : "https://open.spotify.com/artist/1FOJLp3l1VQ1WrzIuwLELR"
          },
          "href" : "https://api.spotify.com/v1/artists/1FOJLp3l1VQ1WrzIuwLELR",
          "id" : "1FOJLp3l1VQ1WrzIuwLELR",
          "name" : "Greg Shepherd",
          "type" : "artist",
          "uri" : "spotify:artist:1FOJLp3l1VQ1WrzIuwLELR"
        } ],
        "external_urls" : {
          "spotify" : "https://open.spotify.com/album/5jI8bkPdLFPvjBQwOPqPKc"
        },
        "href" : "https://api.spotify.com/v1/albums/5jI8bkPdLFPvjBQwOPqPKc",
        "id" : "5jI8bkPdLFPvjBQwOPqPKc",
        "images" : [ {
          "height" : 640,
          "url" : "https://i.scdn.co/image/ab67616d0000b273c93d3560db2287feea4310a5",
          "width" : 640
        }, {
          "height" : 300,
          "url" : "https://i.scdn.co/image/ab67616d00001e02c93d3560db2287feea4310a5",
          "width" : 300
        }, {
          "height" : 64,
          "url" : "https://i.scdn.co/image/ab67616d00004851c93d3560db2287feea4310a5",
          "width" : 64
        } ],
        "name" : "Divine EP",
        "release_date" : "2017-04-21",
        "release_date_precision" : "day",
        "total_tracks" : 4,
        "type" : "album",
        "uri" : "spotify:album:5jI8bkPdLFPvjBQwOPqPKc"
      },
      "artists" : [ {
        "external_urls" : {
          "spotify" : "https://open.spotify.com/artist/1FOJLp3l1VQ1WrzIuwLELR"
        },
        "href" : "https://api.spotify.com/v1/artists/1FOJLp3l1VQ1WrzIuwLELR",
        "id" : "1FOJLp3l1VQ1WrzIuwLELR",
        "name" : "Greg Shepherd",
        "type" : "artist",
        "uri" : "spotify:artist:1FOJLp3l1VQ1WrzIuwLELR"
      } ],
      "disc_number" : 1,
      "duration_ms" : 580799,
      "explicit" : false,
      "external_ids" : {
        "isrc" : "CH2741701001"
      },
      "external_urls" : {
        "spotify" : "https://open.spotify.com/track/4VGUMvinhZtLasSY0RPE2g"
      },
      "href" : "https://api.spotify.com/v1/tracks/4VGUMvinhZtLasSY0RPE2g",
      "id" : "4VGUMvinhZtLasSY0RPE2g",
      "is_local" : false,
      "is_playable" : true,
      "name" : "Divine - Original Mix",
      "popularity" : 1,
      "preview_url" : "https://p.scdn.co/mp3-preview/d4cc06f712fbd678a4b8c6fa553c3c1f36382663?cid=774b29d4f13844c495f206cafdad9c86",
      "track_number" : 1,
      "type" : "track",
      "uri" : "spotify:track:4VGUMvinhZtLasSY0RPE2g"
    }, {
      "album" : {
        "album_type" : "compilation",
        "artists" : [ {
          "external_urls" : {
            "spotify" : "https://open.spotify.com/artist/0LyfQWJT6nXafLPZqxe9Of"
          },
          "href" : "https://api.spotify.com/v1/artists/0LyfQWJT6nXafLPZqxe9Of",
          "id" : "0LyfQWJT6nXafLPZqxe9Of",
          "name" : "Various Artists",
          "type" : "artist",
          "uri" : "spotify:artist:0LyfQWJT6nXafLPZqxe9Of"
        } ],
        "external_urls" : {
          "spotify" : "https://open.spotify.com/album/3HWMOHkgtR5HOPOL8t5VRe"
        },
        "href" : "https://api.spotify.com/v1/albums/3HWMOHkgtR5HOPOL8t5VRe",
        "id" : "3HWMOHkgtR5HOPOL8t5VRe",
        "images" : [ {
          "height" : 640,
          "url" : "https://i.scdn.co/image/ab67616d0000b2730da1aa2aa4ea3cc65faa8fdb",
          "width" : 640
        }, {
          "height" : 300,
          "url" : "https://i.scdn.co/image/ab67616d00001e020da1aa2aa4ea3cc65faa8fdb",
          "width" : 300
        }, {
          "height" : 64,
          "url" : "https://i.scdn.co/image/ab67616d000048510da1aa2aa4ea3cc65faa8fdb",
          "width" : 64
        } ],
        "name" : "Divine Moments: Music of Peace & Tranquility",
        "release_date" : "2015-08-19",
        "release_date_precision" : "day",
        "total_tracks" : 10,
        "type" : "album",
        "uri" : "spotify:album:3HWMOHkgtR5HOPOL8t5VRe"
      },
      "artists" : [ {
        "external_urls" : {
          "spotify" : "https://open.spotify.com/artist/2c9PGZS3Z6JjvHkxIYN2eR"
        },
        "href" : "https://api.spotify.com/v1/artists/2c9PGZS3Z6JjvHkxIYN2eR",
        "id" : "2c9PGZS3Z6JjvHkxIYN2eR",
        "name" : "Solace A Tu",
        "type" : "artist",
        "uri" : "spotify:artist:2c9PGZS3Z6JjvHkxIYN2eR"
      } ],
      "disc_number" : 1,
      "duration_ms" : 276506,
      "explicit" : false,
      "external_ids" : {
        "isrc" : "USA2P1556512"
      },
      "external_urls" : {
        "spotify" : "https://open.spotify.com/track/7EltXCE5GntWOp0nUTculU"
      },
      "href" : "https://api.spotify.com/v1/tracks/7EltXCE5GntWOp0nUTculU",
      "id" : "7EltXCE5GntWOp0nUTculU",
      "is_local" : false,
      "is_playable" : true,
      "name" : "Last Moments (The Lord Is My Shepherd) - Divine Mix",
      "popularity" : 0,
      "preview_url" : "https://p.scdn.co/mp3-preview/30ba8c47f0fe3ea12d9652c4debf65a2f5bd9034?cid=774b29d4f13844c495f206cafdad9c86",
      "track_number" : 8,
      "type" : "track",
      "uri" : "spotify:track:7EltXCE5GntWOp0nUTculU"
    }, {
      "album" : {
        "album_type" : "single",
        "artists" : [ {
          "external_urls" : {
            "spotify" : "https://open.spotify.com/artist/0APVPLbURBDyk5dpZobfOK"
          },
          "href" : "https://api.spotify.com/v1/artists/0APVPLbURBDyk5dpZobfOK",
          "id" : "0APVPLbURBDyk5dpZobfOK",
          "name" : "Thee Ones",
          "type" : "artist",
          "uri" : "spotify:artist:0APVPLbURBDyk5dpZobfOK"
        } ],
        "external_urls" : {
          "spotify" : "https://open.spotify.com/album/4SvW3VH6vQU44b5sCyp4HB"
        },
        "href" : "https://api.spotify.com/v1/albums/4SvW3VH6vQU44b5sCyp4HB",
        "id" : "4SvW3VH6vQU44b5sCyp4HB",
        "images" : [ {
          "height" : 640,
          "url" : "https://i.scdn.co/image/ab67616d0000b273d6314e351d686826d8bfdab4",
          "width" : 640
        }, {
          "height" : 300,
          "url" : "https://i.scdn.co/image/ab67616d00001e02d6314e351d686826d8bfdab4",
          "width" : 300
        }, {
          "height" : 64,
          "url" : "https://i.scdn.co/image/ab67616d00004851d6314e351d686826d8bfdab4",
          "width" : 64
        } ],
        "name" : "The Diviner EP",
        "release_date" : "2014-07-17",
        "release_date_precision" : "day",
        "total_tracks" : 4,
        "type" : "album",
        "uri" : "spotify:album:4SvW3VH6vQU44b5sCyp4HB"
      },
      "artists" : [ {
        "external_urls" : {
          "spotify" : "https://open.spotify.com/artist/0APVPLbURBDyk5dpZobfOK"
        },
        "href" : "https://api.spotify.com/v1/artists/0APVPLbURBDyk5dpZobfOK",
        "id" : "0APVPLbURBDyk5dpZobfOK",
        "name" : "Thee Ones",
        "type" : "artist",
        "uri" : "spotify:artist:0APVPLbURBDyk5dpZobfOK"
      } ],
      "disc_number" : 1,
      "duration_ms" : 266057,
      "explicit" : false,
      "external_ids" : {
        "isrc" : "QZDA61874011"
      },
      "external_urls" : {
        "spotify" : "https://open.spotify.com/track/1DCqk5mDqvFsYIsCpizBAo"
      },
      "href" : "https://api.spotify.com/v1/tracks/1DCqk5mDqvFsYIsCpizBAo",
      "id" : "1DCqk5mDqvFsYIsCpizBAo",
      "is_local" : false,
      "is_playable" : true,
      "name" : "Mr Shepherd",
      "popularity" : 0,
      "preview_url" : "https://p.scdn.co/mp3-preview/8a2b82dda3e8d7ee40d280b62883c289df530a97?cid=774b29d4f13844c495f206cafdad9c86",
      "track_number" : 1,
      "type" : "track",
      "uri" : "spotify:track:1DCqk5mDqvFsYIsCpizBAo"
    }, {
      "album" : {
        "album_type" : "album",
        "artists" : [ {
          "external_urls" : {
            "spotify" : "https://open.spotify.com/artist/2kALjdFml27depi4HIdcDE"
          },
          "href" : "https://api.spotify.com/v1/artists/2kALjdFml27depi4HIdcDE",
          "id" : "2kALjdFml27depi4HIdcDE",
          "name" : "David Hurd",
          "type" : "artist",
          "uri" : "spotify:artist:2kALjdFml27depi4HIdcDE"
        } ],
        "external_urls" : {
          "spotify" : "https://open.spotify.com/album/7iInCUK7TmvwEQoLz8f2Hh"
        },
        "href" : "https://api.spotify.com/v1/albums/7iInCUK7TmvwEQoLz8f2Hh",
        "id" : "7iInCUK7TmvwEQoLz8f2Hh",
        "images" : [ {
          "height" : 640,
          "url" : "https://i.scdn.co/image/ab67616d0000b273867c8766142fd9704f786505",
          "width" : 640
        }, {
          "height" : 300,
          "url" : "https://i.scdn.co/image/ab67616d00001e02867c8766142fd9704f786505",
          "width" : 300
        }, {
          "height" : 64,
          "url" : "https://i.scdn.co/image/ab67616d00004851867c8766142fd9704f786505",
          "width" : 64
        } ],
        "name" : "O the Depth of Love Divine",
        "release_date" : "2018-11-16",
        "release_date_precision" : "day",
        "total_tracks" : 15,
        "type" : "album",
        "uri" : "spotify:album:7iInCUK7TmvwEQoLz8f2Hh"
      },
      "artists" : [ {
        "external_urls" : {
          "spotify" : "https://open.spotify.com/artist/2kALjdFml27depi4HIdcDE"
        },
        "href" : "https://api.spotify.com/v1/artists/2kALjdFml27depi4HIdcDE",
        "id" : "2kALjdFml27depi4HIdcDE",
        "name" : "David Hurd",
        "type" : "artist",
        "uri" : "spotify:artist:2kALjdFml27depi4HIdcDE"
      } ],
      "disc_number" : 1,
      "duration_ms" : 312360,
      "explicit" : false,
      "external_ids" : {
        "isrc" : "USA4N1800357"
      },
      "external_urls" : {
        "spotify" : "https://open.spotify.com/track/6aEGoNZLPkLf0zPGLMyGM8"
      },
      "href" : "https://api.spotify.com/v1/tracks/6aEGoNZLPkLf0zPGLMyGM8",
      "id" : "6aEGoNZLPkLf0zPGLMyGM8",
      "is_local" : false,
      "is_playable" : true,
      "name" : "Rise up, Shepherd",
      "popularity" : 0,
      "preview_url" : "https://p.scdn.co/mp3-preview/9e1b6c93ffaf3da5086c964edda7deb9fb9a2e63?cid=774b29d4f13844c495f206cafdad9c86",
      "track_number" : 4,
      "type" : "track",
      "uri" : "spotify:track:6aEGoNZLPkLf0zPGLMyGM8"
    }, {
      "album" : {
        "album_type" : "album",
        "artists" : [ {
          "external_urls" : {
            "spotify" : "https://open.spotify.com/artist/4e4wzDbvUozYxF1j7m3xGb"
          },
          "href" : "https://api.spotify.com/v1/artists/4e4wzDbvUozYxF1j7m3xGb",
          "id" : "4e4wzDbvUozYxF1j7m3xGb",
          "name" : "IzTheWiz",
          "type" : "artist",
          "uri" : "spotify:artist:4e4wzDbvUozYxF1j7m3xGb"
        } ],
        "external_urls" : {
          "spotify" : "https://open.spotify.com/album/2BUZ1iM5kReI4HtPLriNAw"
        },
        "href" : "https://api.spotify.com/v1/albums/2BUZ1iM5kReI4HtPLriNAw",
        "id" : "2BUZ1iM5kReI4HtPLriNAw",
        "images" : [ {
          "height" : 640,
          "url" : "https://i.scdn.co/image/ab67616d0000b2736d2ce0b432cceeb72757d739",
          "width" : 640
        }, {
          "height" : 300,
          "url" : "https://i.scdn.co/image/ab67616d00001e026d2ce0b432cceeb72757d739",
          "width" : 300
        }, {
          "height" : 64,
          "url" : "https://i.scdn.co/image/ab67616d000048516d2ce0b432cceeb72757d739",
          "width" : 64
        } ],
        "name" : "If Death Calls My Name: A Revision of \"To Enforce Divine\"",
        "release_date" : "2019-06-28",
        "release_date_precision" : "day",
        "total_tracks" : 20,
        "type" : "album",
        "uri" : "spotify:album:2BUZ1iM5kReI4HtPLriNAw"
      },
      "artists" : [ {
        "external_urls" : {
          "spotify" : "https://open.spotify.com/artist/4e4wzDbvUozYxF1j7m3xGb"
        },
        "href" : "https://api.spotify.com/v1/artists/4e4wzDbvUozYxF1j7m3xGb",
        "id" : "4e4wzDbvUozYxF1j7m3xGb",
        "name" : "IzTheWiz",
        "type" : "artist",
        "uri" : "spotify:artist:4e4wzDbvUozYxF1j7m3xGb"
      } ],
      "disc_number" : 1,
      "duration_ms" : 48201,
      "explicit" : true,
      "external_ids" : {
        "isrc" : "QZFYX1962920"
      },
      "external_urls" : {
        "spotify" : "https://open.spotify.com/track/3FXROzKIZ6xCJrOSm7XsPr"
      },
      "href" : "https://api.spotify.com/v1/tracks/3FXROzKIZ6xCJrOSm7XsPr",
      "id" : "3FXROzKIZ6xCJrOSm7XsPr",
      "is_local" : false,
      "is_playable" : true,
      "name" : "Shepherd",
      "popularity" : 0,
      "preview_url" : "https://p.scdn.co/mp3-preview/f4123efcaf7c17438d75a8b3a6f0b600c386c2f8?cid=774b29d4f13844c495f206cafdad9c86",
      "track_number" : 7,
      "type" : "track",
      "uri" : "spotify:track:3FXROzKIZ6xCJrOSm7XsPr"
    }, {
      "album" : {
        "album_type" : "album",
        "artists" : [ {
          "external_urls" : {
            "spotify" : "https://open.spotify.com/artist/6SkWAr2bc9T5guBqpeEiXi"
          },
          "href" : "https://api.spotify.com/v1/artists/6SkWAr2bc9T5guBqpeEiXi",
          "id" : "6SkWAr2bc9T5guBqpeEiXi",
          "name" : "Cat Jahnke",
          "type" : "artist",
          "uri" : "spotify:artist:6SkWAr2bc9T5guBqpeEiXi"
        } ],
        "external_urls" : {
          "spotify" : "https://open.spotify.com/album/7bqT8AzrqOftcC7nmbRAy7"
        },
        "href" : "https://api.spotify.com/v1/albums/7bqT8AzrqOftcC7nmbRAy7",
        "id" : "7bqT8AzrqOftcC7nmbRAy7",
        "images" : [ {
          "height" : 640,
          "url" : "https://i.scdn.co/image/ab67616d0000b273ef8472846ceac9f20b8fcb39",
          "width" : 640
        }, {
          "height" : 300,
          "url" : "https://i.scdn.co/image/ab67616d00001e02ef8472846ceac9f20b8fcb39",
          "width" : 300
        }, {
          "height" : 64,
          "url" : "https://i.scdn.co/image/ab67616d00004851ef8472846ceac9f20b8fcb39",
          "width" : 64
        } ],
        "name" : "O Night Divine",
        "release_date" : "2008",
        "release_date_precision" : "year",
        "total_tracks" : 10,
        "type" : "album",
        "uri" : "spotify:album:7bqT8AzrqOftcC7nmbRAy7"
      },
      "artists" : [ {
        "external_urls" : {
          "spotify" : "https://open.spotify.com/artist/6SkWAr2bc9T5guBqpeEiXi"
        },
        "href" : "https://api.spotify.com/v1/artists/6SkWAr2bc9T5guBqpeEiXi",
        "id" : "6SkWAr2bc9T5guBqpeEiXi",
        "name" : "Cat Jahnke",
        "type" : "artist",
        "uri" : "spotify:artist:6SkWAr2bc9T5guBqpeEiXi"
      } ],
      "disc_number" : 1,
      "duration_ms" : 157144,
      "explicit" : false,
      "external_ids" : {
        "isrc" : "ushm91038770"
      },
      "external_urls" : {
        "spotify" : "https://open.spotify.com/track/0OBUgkPU98aG2Tig24HGde"
      },
      "href" : "https://api.spotify.com/v1/tracks/0OBUgkPU98aG2Tig24HGde",
      "id" : "0OBUgkPU98aG2Tig24HGde",
      "is_local" : false,
      "is_playable" : true,
      "name" : "Rise Up, Shepherd, And Follow",
      "popularity" : 0,
      "preview_url" : "https://p.scdn.co/mp3-preview/ad0a74275e4f3bdeeb42348dfdfa0ce7247baae4?cid=774b29d4f13844c495f206cafdad9c86",
      "track_number" : 4,
      "type" : "track",
      "uri" : "spotify:track:0OBUgkPU98aG2Tig24HGde"
    }, {
      "album" : {
        "album_type" : "album",
        "artists" : [ {
          "external_urls" : {
            "spotify" : "https://open.spotify.com/artist/0LyfQWJT6nXafLPZqxe9Of"
          },
          "href" : "https://api.spotify.com/v1/artists/0LyfQWJT6nXafLPZqxe9Of",
          "id" : "0LyfQWJT6nXafLPZqxe9Of",
          "name" : "Various Artists",
          "type" : "artist",
          "uri" : "spotify:artist:0LyfQWJT6nXafLPZqxe9Of"
        } ],
        "external_urls" : {
          "spotify" : "https://open.spotify.com/album/4wTL2ezTxJj5Cw4xLx8fMX"
        },
        "href" : "https://api.spotify.com/v1/albums/4wTL2ezTxJj5Cw4xLx8fMX",
        "id" : "4wTL2ezTxJj5Cw4xLx8fMX",
        "images" : [ {
          "height" : 640,
          "url" : "https://i.scdn.co/image/ab67616d0000b27380b551841460e35c5400da37",
          "width" : 640
        }, {
          "height" : 300,
          "url" : "https://i.scdn.co/image/ab67616d00001e0280b551841460e35c5400da37",
          "width" : 300
        }, {
          "height" : 64,
          "url" : "https://i.scdn.co/image/ab67616d0000485180b551841460e35c5400da37",
          "width" : 64
        } ],
        "name" : "Big Christmas Box",
        "release_date" : "2012-11-13",
        "release_date_precision" : "day",
        "total_tracks" : 280,
        "type" : "album",
        "uri" : "spotify:album:4wTL2ezTxJj5Cw4xLx8fMX"
      },
      "artists" : [ {
        "external_urls" : {
          "spotify" : "https://open.spotify.com/artist/21azuxrzF7XiFITCBlPLuZ"
        },
        "href" : "https://api.spotify.com/v1/artists/21azuxrzF7XiFITCBlPLuZ",
        "id" : "21azuxrzF7XiFITCBlPLuZ",
        "name" : "Cathedral of St. John the Divine Cathedral Choir",
        "type" : "artist",
        "uri" : "spotify:artist:21azuxrzF7XiFITCBlPLuZ"
      }, {
        "external_urls" : {
          "spotify" : "https://open.spotify.com/artist/6XN136Fl4Jzsz0xGLAzuu3"
        },
        "href" : "https://api.spotify.com/v1/artists/6XN136Fl4Jzsz0xGLAzuu3",
        "id" : "6XN136Fl4Jzsz0xGLAzuu3",
        "name" : "David Pizzaro",
        "type" : "artist",
        "uri" : "spotify:artist:6XN136Fl4Jzsz0xGLAzuu3"
      }, {
        "external_urls" : {
          "spotify" : "https://open.spotify.com/artist/14aEXKhdJktIOoIV5LBsyt"
        },
        "href" : "https://api.spotify.com/v1/artists/14aEXKhdJktIOoIV5LBsyt",
        "id" : "14aEXKhdJktIOoIV5LBsyt",
        "name" : "Richard Westerburg",
        "type" : "artist",
        "uri" : "spotify:artist:14aEXKhdJktIOoIV5LBsyt"
      }, {
        "external_urls" : {
          "spotify" : "https://open.spotify.com/artist/0kfpYvE4hT62DQhgW2ADjT"
        },
        "href" : "https://api.spotify.com/v1/artists/0kfpYvE4hT62DQhgW2ADjT",
        "id" : "0kfpYvE4hT62DQhgW2ADjT",
        "name" : "&#x0D;,Cathedral Boys Choir",
        "type" : "artist",
        "uri" : "spotify:artist:0kfpYvE4hT62DQhgW2ADjT"
      } ],
      "disc_number" : 1,
      "duration_ms" : 169533,
      "explicit" : false,
      "external_ids" : {
        "isrc" : "USKO11202223"
      },
      "external_urls" : {
        "spotify" : "https://open.spotify.com/track/1PYl6EQSmSv7W1hbpbMjR5"
      },
      "href" : "https://api.spotify.com/v1/tracks/1PYl6EQSmSv7W1hbpbMjR5",
      "id" : "1PYl6EQSmSv7W1hbpbMjR5",
      "is_local" : false,
      "is_playable" : true,
      "name" : "The Shepherd's Carol",
      "popularity" : 0,
      "preview_url" : "https://p.scdn.co/mp3-preview/24c8840b6870085a6ca1862a1490049082df65f9?cid=774b29d4f13844c495f206cafdad9c86",
      "track_number" : 82,
      "type" : "track",
      "uri" : "spotify:track:1PYl6EQSmSv7W1hbpbMjR5"
    }, {
      "album" : {
        "album_type" : "album",
        "artists" : [ {
          "external_urls" : {
            "spotify" : "https://open.spotify.com/artist/39W2Ike1byuGoMbkEjzPdN"
          },
          "href" : "https://api.spotify.com/v1/artists/39W2Ike1byuGoMbkEjzPdN",
          "id" : "39W2Ike1byuGoMbkEjzPdN",
          "name" : "Insomnia Cure Music Society",
          "type" : "artist",
          "uri" : "spotify:artist:39W2Ike1byuGoMbkEjzPdN"
        } ],
        "external_urls" : {
          "spotify" : "https://open.spotify.com/album/5pj3NB8FUnQIrOrt06xfNt"
        },
        "href" : "https://api.spotify.com/v1/albums/5pj3NB8FUnQIrOrt06xfNt",
        "id" : "5pj3NB8FUnQIrOrt06xfNt",
        "images" : [ {
          "height" : 640,
          "url" : "https://i.scdn.co/image/ab67616d0000b27336bf43b7fd79a54bff03e738",
          "width" : 640
        }, {
          "height" : 300,
          "url" : "https://i.scdn.co/image/ab67616d00001e0236bf43b7fd79a54bff03e738",
          "width" : 300
        }, {
          "height" : 64,
          "url" : "https://i.scdn.co/image/ab67616d0000485136bf43b7fd79a54bff03e738",
          "width" : 64
        } ],
        "name" : "Amazing Dream: Evening Relax, Overcome Sleep Paralysis, Full Moon, Fine Sleep Cycle, Meaning of Dream Fantasies, Sleep Shepherd",
        "release_date" : "2017-07-06",
        "release_date_precision" : "day",
        "total_tracks" : 30,
        "type" : "album",
        "uri" : "spotify:album:5pj3NB8FUnQIrOrt06xfNt"
      },
      "artists" : [ {
        "external_urls" : {
          "spotify" : "https://open.spotify.com/artist/39W2Ike1byuGoMbkEjzPdN"
        },
        "href" : "https://api.spotify.com/v1/artists/39W2Ike1byuGoMbkEjzPdN",
        "id" : "39W2Ike1byuGoMbkEjzPdN",
        "name" : "Insomnia Cure Music Society",
        "type" : "artist",
        "uri" : "spotify:artist:39W2Ike1byuGoMbkEjzPdN"
      } ],
      "disc_number" : 1,
      "duration_ms" : 211850,
      "explicit" : false,
      "external_ids" : {
        "isrc" : "QZ5CV1717982"
      },
      "external_urls" : {
        "spotify" : "https://open.spotify.com/track/6nxpvMk0ehGTkfASjkhRtF"
      },
      "href" : "https://api.spotify.com/v1/tracks/6nxpvMk0ehGTkfASjkhRtF",
      "id" : "6nxpvMk0ehGTkfASjkhRtF",
      "is_local" : false,
      "is_playable" : true,
      "name" : "Divine Well Being",
      "popularity" : 0,
      "preview_url" : "https://p.scdn.co/mp3-preview/893a8424a062965b5513d9fdafdc6049843c89be?cid=774b29d4f13844c495f206cafdad9c86",
      "track_number" : 9,
      "type" : "track",
      "uri" : "spotify:track:6nxpvMk0ehGTkfASjkhRtF"
    }, {
      "album" : {
        "album_type" : "album",
        "artists" : [ {
          "external_urls" : {
            "spotify" : "https://open.spotify.com/artist/0LyfQWJT6nXafLPZqxe9Of"
          },
          "href" : "https://api.spotify.com/v1/artists/0LyfQWJT6nXafLPZqxe9Of",
          "id" : "0LyfQWJT6nXafLPZqxe9Of",
          "name" : "Various Artists",
          "type" : "artist",
          "uri" : "spotify:artist:0LyfQWJT6nXafLPZqxe9Of"
        } ],
        "external_urls" : {
          "spotify" : "https://open.spotify.com/album/4wTL2ezTxJj5Cw4xLx8fMX"
        },
        "href" : "https://api.spotify.com/v1/albums/4wTL2ezTxJj5Cw4xLx8fMX",
        "id" : "4wTL2ezTxJj5Cw4xLx8fMX",
        "images" : [ {
          "height" : 640,
          "url" : "https://i.scdn.co/image/ab67616d0000b27380b551841460e35c5400da37",
          "width" : 640
        }, {
          "height" : 300,
          "url" : "https://i.scdn.co/image/ab67616d00001e0280b551841460e35c5400da37",
          "width" : 300
        }, {
          "height" : 64,
          "url" : "https://i.scdn.co/image/ab67616d0000485180b551841460e35c5400da37",
          "width" : 64
        } ],
        "name" : "Big Christmas Box",
        "release_date" : "2012-11-13",
        "release_date_precision" : "day",
        "total_tracks" : 280,
        "type" : "album",
        "uri" : "spotify:album:4wTL2ezTxJj5Cw4xLx8fMX"
      },
      "artists" : [ {
        "external_urls" : {
          "spotify" : "https://open.spotify.com/artist/21azuxrzF7XiFITCBlPLuZ"
        },
        "href" : "https://api.spotify.com/v1/artists/21azuxrzF7XiFITCBlPLuZ",
        "id" : "21azuxrzF7XiFITCBlPLuZ",
        "name" : "Cathedral of St. John the Divine Cathedral Choir",
        "type" : "artist",
        "uri" : "spotify:artist:21azuxrzF7XiFITCBlPLuZ"
      }, {
        "external_urls" : {
          "spotify" : "https://open.spotify.com/artist/0kfpYvE4hT62DQhgW2ADjT"
        },
        "href" : "https://api.spotify.com/v1/artists/0kfpYvE4hT62DQhgW2ADjT",
        "id" : "0kfpYvE4hT62DQhgW2ADjT",
        "name" : "&#x0D;,Cathedral Boys Choir",
        "type" : "artist",
        "uri" : "spotify:artist:0kfpYvE4hT62DQhgW2ADjT"
      }, {
        "external_urls" : {
          "spotify" : "https://open.spotify.com/artist/6XN136Fl4Jzsz0xGLAzuu3"
        },
        "href" : "https://api.spotify.com/v1/artists/6XN136Fl4Jzsz0xGLAzuu3",
        "id" : "6XN136Fl4Jzsz0xGLAzuu3",
        "name" : "David Pizzaro",
        "type" : "artist",
        "uri" : "spotify:artist:6XN136Fl4Jzsz0xGLAzuu3"
      }, {
        "external_urls" : {
          "spotify" : "https://open.spotify.com/artist/14aEXKhdJktIOoIV5LBsyt"
        },
        "href" : "https://api.spotify.com/v1/artists/14aEXKhdJktIOoIV5LBsyt",
        "id" : "14aEXKhdJktIOoIV5LBsyt",
        "name" : "Richard Westerburg",
        "type" : "artist",
        "uri" : "spotify:artist:14aEXKhdJktIOoIV5LBsyt"
      } ],
      "disc_number" : 1,
      "duration_ms" : 194826,
      "explicit" : false,
      "external_ids" : {
        "isrc" : "USKO11202225"
      },
      "external_urls" : {
        "spotify" : "https://open.spotify.com/track/39ITJ7bkzjzIPQOpiCdsDX"
      },
      "href" : "https://api.spotify.com/v1/tracks/39ITJ7bkzjzIPQOpiCdsDX",
      "id" : "39ITJ7bkzjzIPQOpiCdsDX",
      "is_local" : false,
      "is_playable" : true,
      "name" : "While Shepherds Watched Their Flocks",
      "popularity" : 0,
      "preview_url" : "https://p.scdn.co/mp3-preview/cd9a6bec4e575566e42d693ebea81243dbb25a02?cid=774b29d4f13844c495f206cafdad9c86",
      "track_number" : 84,
      "type" : "track",
      "uri" : "spotify:track:39ITJ7bkzjzIPQOpiCdsDX"
    }, {
      "album" : {
        "album_type" : "album",
        "artists" : [ {
          "external_urls" : {
            "spotify" : "https://open.spotify.com/artist/2duo4NJtUrLaI38trK0hht"
          },
          "href" : "https://api.spotify.com/v1/artists/2duo4NJtUrLaI38trK0hht",
          "id" : "2duo4NJtUrLaI38trK0hht",
          "name" : "Mormon Tabernacle Choir",
          "type" : "artist",
          "uri" : "spotify:artist:2duo4NJtUrLaI38trK0hht"
        } ],
        "external_urls" : {
          "spotify" : "https://open.spotify.com/album/4IUMWB6loF7aW3EgBtczfF"
        },
        "href" : "https://api.spotify.com/v1/albums/4IUMWB6loF7aW3EgBtczfF",
        "id" : "4IUMWB6loF7aW3EgBtczfF",
        "images" : [ {
          "height" : 640,
          "url" : "https://i.scdn.co/image/ab67616d0000b27328874e03d0239f5c0f80b2ae",
          "width" : 640
        }, {
          "height" : 300,
          "url" : "https://i.scdn.co/image/ab67616d00001e0228874e03d0239f5c0f80b2ae",
          "width" : 300
        }, {
          "height" : 64,
          "url" : "https://i.scdn.co/image/ab67616d0000485128874e03d0239f5c0f80b2ae",
          "width" : 64
        } ],
        "name" : "O Divine Redeemer (Legacy Series)",
        "release_date" : "1992-01-01",
        "release_date_precision" : "day",
        "total_tracks" : 13,
        "type" : "album",
        "uri" : "spotify:album:4IUMWB6loF7aW3EgBtczfF"
      },
      "artists" : [ {
        "external_urls" : {
          "spotify" : "https://open.spotify.com/artist/2duo4NJtUrLaI38trK0hht"
        },
        "href" : "https://api.spotify.com/v1/artists/2duo4NJtUrLaI38trK0hht",
        "id" : "2duo4NJtUrLaI38trK0hht",
        "name" : "Mormon Tabernacle Choir",
        "type" : "artist",
        "uri" : "spotify:artist:2duo4NJtUrLaI38trK0hht"
      } ],
      "disc_number" : 1,
      "duration_ms" : 357546,
      "explicit" : false,
      "external_ids" : {
        "isrc" : "US23M0745577"
      },
      "external_urls" : {
        "spotify" : "https://open.spotify.com/track/0liIfht73Pngve9LCnfhVS"
      },
      "href" : "https://api.spotify.com/v1/tracks/0liIfht73Pngve9LCnfhVS",
      "id" : "0liIfht73Pngve9LCnfhVS",
      "is_local" : false,
      "is_playable" : true,
      "name" : "The Lord Is My Shepherd (from the Rutter Requiem)",
      "popularity" : 2,
      "preview_url" : "https://p.scdn.co/mp3-preview/d1f152834d910e966a3ab5bfce948e59d7a708c7?cid=774b29d4f13844c495f206cafdad9c86",
      "track_number" : 11,
      "type" : "track",
      "uri" : "spotify:track:0liIfht73Pngve9LCnfhVS"
    } ],
    "limit" : 10,
    "next" : "https://api.spotify.com/v1/search?query=O+Shepherd+Divine&type=track&market=US&offset=15&limit=10",
    "offset" : 5,
    "previous" : "https://api.spotify.com/v1/search?query=O+Shepherd+Divine&type=track&market=US&offset=0&limit=10",
    "total" : 18
  }
}