{
  "tracks" : {
    "href" : "https://api.spotify.com/v1/search?query=Marvelous+Grace&type=track&market=US&offset=5&limit=10",
    "items" : [ {
      "album" : {
        "album_type" : "album",
        "artists" : [ {
          "external_urls" : {
            "spotify" : "https://open.spotify.com/artist/4qygDDItX42LbfJLQUedIJ"
          },
          "href" : "https://api.spotify.com/v1/artists/4qygDDItX42LbfJLQUedIJ",
          "id" : "4qygDDItX42LbfJLQUedIJ",
          "name" : "Sammie Okposo",
          "type" : "artist",
          "uri" : "spotify:artist:4qygDDItX42LbfJLQUedIJ"
        } ],
        "external_urls" : {
          "spotify" : "https://open.spotify.com/album/4e7jM4Ly4okAfuzhYmqasg"
        },
        "href" : "https://api.spotify.com/v1/albums/4e7jM4Ly4okAfuzhYmqasg",
        "id" : "4e7jM4Ly4okAfuzhYmqasg",
        "images" : [ {
          "height" : 640,
          "url" : "https://i.scdn.co/image/ab67616d0000b27315557e28569f7625ec16e19b",
          "width" : 640
        }, {
          "height" : 300,
          "url" : "https://i.scdn.co/image/ab67616d00001e0215557e28569f7625ec16e19b",
          "width" : 300
        }, {
          "height" : 64,
          "url" : "https://i.scdn.co/image/ab67616d0000485115557e28569f7625ec16e19b",
          "width" : 64
        } ],
        "name" : "S. W. A. G (Saved with Amazing Grace)",
        "release_date" : "2017-10-01",
        "release_date_precision" : "day",
        "total_tracks" : 17,
        "type" : "album",
        "uri" : "spotify:album:4e7jM4Ly4okAfuzhYmqasg"
      },
      "artists" : [ {
        "external_urls" : {
          "spotify" : "https://open.spotify.com/artist/4qygDDItX42LbfJLQUedIJ"
        },
        "href" : "https://api.spotify.com/v1/artists/4qygDDItX42LbfJLQUedIJ",
        "id" : "4qygDDItX42LbfJLQUedIJ",
        "name" : "Sammie Okposo",
        "type" : "artist",
        "uri" : "spotify:artist:4qygDDItX42LbfJLQUedIJ"
      } ],
      "disc_number" : 1,
      "duration_ms" : 218750,
      "explicit" : false,
      "external_ids" : {
        "isrc" : "USCGH1747311"
      },
      "external_urls" : {
        "spotify" : "https://open.spotify.com/track/0ZFcBg1JN7KSk0Fubb3KuK"
      },
      "href" : "https://api.spotify.com/v1/tracks/0ZFcBg1JN7KSk0Fubb3KuK",
      "id" : "0ZFcBg1JN7KSk0Fubb3KuK",
      "is_local" : false,
      "is_playable" : true,
      "name" : "A Marvelous Thing",
      "popularity" : 20,
      "preview_url" : "https://p.scdn.co/mp3-preview/b831f075940c3e57ffb699bd679014330daa27e0?cid=774b29d4f13844c495f206cafdad9c86",
      "track_number" : 1,
      "type" : "track",
      "uri" : "spotify:track:0ZFcBg1JN7KSk0Fubb3KuK"
    }, {
      "album" : {
        "album_type" : "album",
        "artists" : [ {
          "external_urls" : {
            "spotify" : "https://open.spotify.com/artist/4f6XwTrkJlI4ud1nc4r5dN"
          },
          "href" : "https://api.spotify.com/v1/artists/4f6XwTrkJlI4ud1nc4r5dN",
          "id" : "4f6XwTrkJlI4ud1nc4r5dN",
          "name" : "Patch the Pirate",
          "type" : "artist",
          "uri" : "spotify:artist:4f6XwTrkJlI4ud1nc4r5dN"
        } ],
        "external_urls" : {
          "spotify" : "https://open.spotify.com/album/41HpjGrX5ygoSHy9ylCth8"
        },
        "href" : "https://api.spotify.com/v1/albums/41HpjGrX5ygoSHy9ylCth8",
        "id" : "41HpjGrX5ygoSHy9ylCth8",
        "images" : [ {
          "height" : 640,
          "url" : "https://i.scdn.co/image/ab67616d0000b27344e1abb4467ffb844e954ded",
          "width" : 640
        }, {
          "height" : 300,
          "url" : "https://i.scdn.co/image/ab67616d00001e0244e1abb4467ffb844e954ded",
          "width" : 300
        }, {
          "height" : 64,
          "url" : "https://i.scdn.co/image/ab67616d0000485144e1abb4467ffb844e954ded",
          "width" : 64
        } ],
        "name" : "Hymns Every Child Should Know",
        "release_date" : "2016-03-01",
        "release_date_precision" : "day",
        "total_tracks" : 13,
        "type" : "album",
        "uri" : "spotify:album:41HpjGrX5ygoSHy9ylCth8"
      },
      "artists" : [ {
        "external_urls" : {
          "spotify" : "https://open.spotify.com/artist/4f6XwTrkJlI4ud1nc4r5dN"
        },
        "href" : "https://api.spotify.com/v1/artists/4f6XwTrkJlI4ud1nc4r5dN",
        "id" : "4f6XwTrkJlI4ud1nc4r5dN",
        "name" : "Patch the Pirate",
        "type" : "artist",
        "uri" : "spotify:artist:4f6XwTrkJlI4ud1nc4r5dN"
      } ],
      "disc_number" : 1,
      "duration_ms" : 188320,
      "explicit" : false,
      "external_ids" : {
        "isrc" : "uscgj1602763"
      },
      "external_urls" : {
        "spotify" : "https://open.spotify.com/track/20UNqIhUqqo9x15zdptlBo"
      },
      "href" : "https://api.spotify.com/v1/tracks/20UNqIhUqqo9x15zdptlBo",
      "id" : "20UNqIhUqqo9x15zdptlBo",
      "is_local" : false,
      "is_playable" : true,
      "name" : "Amazing Grace / Marvelous Grace",
      "popularity" : 10,
      "preview_url" : "https://p.scdn.co/mp3-preview/9283a9e0b9acceac02b48e2483129d3b46adddda?cid=774b29d4f13844c495f206cafdad9c86",
      "track_number" : 3,
      "type" : "track",
      "uri" : "spotify:track:20UNqIhUqqo9x15zdptlBo"
    }, {
      "album" : {
        "album_type" : "album",
        "artists" : [ {
          "external_urls" : {
            "spotify" : "https://open.spotify.com/artist/3dc3VVYraUAz8nakm1n9nB"
          },
          "href" : "https://api.spotify.com/v1/artists/3dc3VVYraUAz8nakm1n9nB",
          "id" : "3dc3VVYraUAz8nakm1n9nB",
          "name" : "Stephen Miller",
          "type" : "artist",
          "uri" : "spotify:artist:3dc3VVYraUAz8nakm1n9nB"
        } ],
        "external_urls" : {
          "spotify" : "https://open.spotify.com/album/1PxIF9X6MCD93YaoCGAXMA"
        },
        "href" : "https://api.spotify.com/v1/albums/1PxIF9X6MCD93YaoCGAXMA",
        "id" : "1PxIF9X6MCD93YaoCGAXMA",
        "images" : [ {
          "height" : 640,
          "url" : "https://i.scdn.co/image/ab67616d0000b27394b5f4b473e37c15a1c5872e",
          "width" : 640
        }, {
          "height" : 300,
          "url" : "https://i.scdn.co/image/ab67616d00001e0294b5f4b473e37c15a1c5872e",
          "width" : 300
        }, {
          "height" : 64,
          "url" : "https://i.scdn.co/image/ab67616d0000485194b5f4b473e37c15a1c5872e",
          "width" : 64
        } ],
        "name" : "Behold",
        "release_date" : "2019-01-18",
        "release_date_precision" : "day",
        "total_tracks" : 11,
        "type" : "album",
        "uri" : "spotify:album:1PxIF9X6MCD93YaoCGAXMA"
      },
      "artists" : [ {
        "external_urls" : {
          "spotify" : "https://open.spotify.com/artist/3dc3VVYraUAz8nakm1n9nB"
        },
        "href" : "https://api.spotify.com/v1/artists/3dc3VVYraUAz8nakm1n9nB",
        "id" : "3dc3VVYraUAz8nakm1n9nB",
        "name" : "Stephen Miller",
        "type" : "artist",
        "uri" : "spotify:artist:3dc3VVYraUAz8nakm1n9nB"
      } ],
      "disc_number" : 1,
      "duration_ms" : 259346,
      "explicit" : false,
      "external_ids" : {
        "isrc" : "USDHM1827760"
      },
      "external_urls" : {
        "spotify" : "https://open.spotify.com/track/1pxCHlKJlkFi60m7TB4qM6"
      },
      "href" : "https://api.spotify.com/v1/tracks/1pxCHlKJlkFi60m7TB4qM6",
      "id" : "1pxCHlKJlkFi60m7TB4qM6",
      "is_local" : false,
      "is_playable" : true,
      "name" : "Grace so Marvelous",
      "popularity" : 14,
      "preview_url" : "https://p.scdn.co/mp3-preview/e44bd94350167b0b29722ec3133f3b32c05e1d3c?cid=774b29d4f13844c495f206cafdad9c86",
      "track_number" : 3,
      "type" : "track",
      "uri" : "spotify:track:1pxCHlKJlkFi60m7TB4qM6"
    }, {
      "album" : {
        "album_type" : "album",
        "artists" : [ {
          "external_urls" : {
            "spotify" : "https://open.spotify.com/artist/3D8Mzp5XrkkKnU2Z7BT28E"
          },
          "href" : "https://api.spotify.com/v1/artists/3D8Mzp5XrkkKnU2Z7BT28E",
          "id" : "3D8Mzp5XrkkKnU2Z7BT28E",
          "name" : "The Master's Seminary",
          "type" : "artist",
          "uri" : "spotify:artist:3D8Mzp5XrkkKnU2Z7BT28E"
        } ],
        "external_urls" : {
          "spotify" : "https://open.spotify.com/album/4jQmTrWPvGnBnFMsWbCcNv"
        },
        "href" : "https://api.spotify.com/v1/albums/4jQmTrWPvGnBnFMsWbCcNv",
        "id" : "4jQmTrWPvGnBnFMsWbCcNv",
        "images" : [ {
          "height" : 640,
          "url" : "https://i.scdn.co/image/ab67616d0000b2736df303559176bbbf921578f5",
          "width" : 640
        }, {
          "height" : 300,
          "url" : "https://i.scdn.co/image/ab67616d00001e026df303559176bbbf921578f5",
          "width" : 300
        }, {
          "height" : 64,
          "url" : "https://i.scdn.co/image/ab67616d000048516df303559176bbbf921578f5",
          "width" : 64
        } ],
        "name" : "Hymns Of Grace - Live At The Shepherds’ Conference",
        "release_date" : "2019-08-16",
        "release_date_precision" : "day",
        "total_tracks" : 13,
        "type" : "album",
        "uri" : "spotify:album:4jQmTrWPvGnBnFMsWbCcNv"
      },
      "artists" : [ {
        "external_urls" : {
          "spotify" : "https://open.spotify.com/artist/3D8Mzp5XrkkKnU2Z7BT28E"
        },
        "href" : "https://api.spotify.com/v1/artists/3D8Mzp5XrkkKnU2Z7BT28E",
        "id" : "3D8Mzp5XrkkKnU2Z7BT28E",
        "name" : "The Master's Seminary",
        "type" : "artist",
        "uri" : "spotify:artist:3D8Mzp5XrkkKnU2Z7BT28E"
      }, {
        "external_urls" : {
          "spotify" : "https://open.spotify.com/artist/0I4Bk2s2BUJyykCwtxx8Xx"
        },
        "href" : "https://api.spotify.com/v1/artists/0I4Bk2s2BUJyykCwtxx8Xx",
        "id" : "0I4Bk2s2BUJyykCwtxx8Xx",
        "name" : "Keith & Kristyn Getty",
        "type" : "artist",
        "uri" : "spotify:artist:0I4Bk2s2BUJyykCwtxx8Xx"
      } ],
      "disc_number" : 1,
      "duration_ms" : 408798,
      "explicit" : false,
      "external_ids" : {
        "isrc" : "USY5K1900134"
      },
      "external_urls" : {
        "spotify" : "https://open.spotify.com/track/4VSku4bqjUeJJItb5aXybv"
      },
      "href" : "https://api.spotify.com/v1/tracks/4VSku4bqjUeJJItb5aXybv",
      "id" : "4VSku4bqjUeJJItb5aXybv",
      "is_local" : false,
      "is_playable" : true,
      "name" : "In Christ Alone / How Marvelous - Medley/Live",
      "popularity" : 12,
      "preview_url" : null,
      "track_number" : 5,
      "type" : "track",
      "uri" : "spotify:track:4VSku4bqjUeJJItb5aXybv"
    }, {
      "album" : {
        "album_type" : "album",
        "artists" : [ {
          "external_urls" : {
            "spotify" : "https://open.spotify.com/artist/09TOgappqOohpamkrpP78c"
          },
          "href" : "https://api.spotify.com/v1/artists/09TOgappqOohpamkrpP78c",
          "id" : "09TOgappqOohpamkrpP78c",
          "name" : "Fountainview Academy Orchestra & Singers",
          "type" : "artist",
          "uri" : "spotify:artist:09TOgappqOohpamkrpP78c"
        } ],
        "external_urls" : {
          "spotify" : "https://open.spotify.com/album/0tgdXkG40UHl881VY6DpW2"
        },
        "href" : "https://api.spotify.com/v1/albums/0tgdXkG40UHl881VY6DpW2",
        "id" : "0tgdXkG40UHl881VY6DpW2",
        "images" : [ {
          "height" : 640,
          "url" : "https://i.scdn.co/image/ab67616d0000b2736eecda8d1aa4a17f0bd0e5cb",
          "width" : 640
        }, {
          "height" : 300,
          "url" : "https://i.scdn.co/image/ab67616d00001e026eecda8d1aa4a17f0bd0e5cb",
          "width" : 300
        }, {
          "height" : 64,
          "url" : "https://i.scdn.co/image/ab67616d000048516eecda8d1aa4a17f0bd0e5cb",
          "width" : 64
        } ],
        "name" : "The Great Controversy",
        "release_date" : "2014",
        "release_date_precision" : "year",
        "total_tracks" : 20,
        "type" : "album",
        "uri" : "spotify:album:0tgdXkG40UHl881VY6DpW2"
      },
      "artists" : [ {
        "external_urls" : {
          "spotify" : "https://open.spotify.com/artist/09TOgappqOohpamkrpP78c"
        },
        "href" : "https://api.spotify.com/v1/artists/09TOgappqOohpamkrpP78c",
        "id" : "09TOgappqOohpamkrpP78c",
        "name" : "Fountainview Academy Orchestra & Singers",
        "type" : "artist",
        "uri" : "spotify:artist:09TOgappqOohpamkrpP78c"
      } ],
      "disc_number" : 1,
      "duration_ms" : 232005,
      "explicit" : false,
      "external_ids" : {
        "isrc" : "QMEZE1900728"
      },
      "external_urls" : {
        "spotify" : "https://open.spotify.com/track/7jqUkYCnp3YhHY1QihVVd1"
      },
      "href" : "https://api.spotify.com/v1/tracks/7jqUkYCnp3YhHY1QihVVd1",
      "id" : "7jqUkYCnp3YhHY1QihVVd1",
      "is_local" : false,
      "is_playable" : true,
      "name" : "Marvelous Grace",
      "popularity" : 11,
      "preview_url" : "https://p.scdn.co/mp3-preview/dec54f007a6963b9cee6b29d1cd420b8df346ed5?cid=774b29d4f13844c495f206cafdad9c86",
      "track_number" : 7,
      "type" : "track",
      "uri" : "spotify:track:7jqUkYCnp3YhHY1QihVVd1"
    }, {
      "album" : {
        "album_type" : "album",
        "artists" : [ {
          "external_urls" : {
            "spotify" : "https://open.spotify.com/artist/5rVNsdphnzA2cdbgeavpUP"
          },
          "href" : "https://api.spotify.com/v1/artists/5rVNsdphnzA2cdbgeavpUP",
          "id" : "5rVNsdphnzA2cdbgeavpUP",
          "name" : "Immanuel Worship",
          "type" : "artist",
          "uri" : "spotify:artist:5rVNsdphnzA2cdbgeavpUP"
        } ],
        "external_urls" : {
          "spotify" : "https://open.spotify.com/album/1qySJFfgLTa1opjQmG51BU"
        },
        "href" : "https://api.spotify.com/v1/albums/1qySJFfgLTa1opjQmG51BU",
        "id" : "1qySJFfgLTa1opjQmG51BU",
        "images" : [ {
          "height" : 640,
          "url" : "https://i.scdn.co/image/ab67616d0000b273b5bd8c83f0487b91e494f3c0",
          "width" : 640
        }, {
          "height" : 300,
          "url" : "https://i.scdn.co/image/ab67616d00001e02b5bd8c83f0487b91e494f3c0",
          "width" : 300
        }, {
          "height" : 64,
          "url" : "https://i.scdn.co/image/ab67616d00004851b5bd8c83f0487b91e494f3c0",
          "width" : 64
        } ],
        "name" : "Volume One (Live): The Perfect Love of Christ",
        "release_date" : "2018-12-07",
        "release_date_precision" : "day",
        "total_tracks" : 11,
        "type" : "album",
        "uri" : "spotify:album:1qySJFfgLTa1opjQmG51BU"
      },
      "artists" : [ {
        "external_urls" : {
          "spotify" : "https://open.spotify.com/artist/5rVNsdphnzA2cdbgeavpUP"
        },
        "href" : "https://api.spotify.com/v1/artists/5rVNsdphnzA2cdbgeavpUP",
        "id" : "5rVNsdphnzA2cdbgeavpUP",
        "name" : "Immanuel Worship",
        "type" : "artist",
        "uri" : "spotify:artist:5rVNsdphnzA2cdbgeavpUP"
      }, {
        "external_urls" : {
          "spotify" : "https://open.spotify.com/artist/5Emb84ROAudKnnsFxZ2EJL"
        },
        "href" : "https://api.spotify.com/v1/artists/5Emb84ROAudKnnsFxZ2EJL",
        "id" : "5Emb84ROAudKnnsFxZ2EJL",
        "name" : "Destiny Austin",
        "type" : "artist",
        "uri" : "spotify:artist:5Emb84ROAudKnnsFxZ2EJL"
      }, {
        "external_urls" : {
          "spotify" : "https://open.spotify.com/artist/2PZuPnLQ5Ta0PEhIdST5qc"
        },
        "href" : "https://api.spotify.com/v1/artists/2PZuPnLQ5Ta0PEhIdST5qc",
        "id" : "2PZuPnLQ5Ta0PEhIdST5qc",
        "name" : "Jessica Campbell Waterman",
        "type" : "artist",
        "uri" : "spotify:artist:2PZuPnLQ5Ta0PEhIdST5qc"
      } ],
      "disc_number" : 1,
      "duration_ms" : 233373,
      "explicit" : false,
      "external_ids" : {
        "isrc" : "TCADY1840040"
      },
      "external_urls" : {
        "spotify" : "https://open.spotify.com/track/08xkT9P3YOpCiQzDiOasdx"
      },
      "href" : "https://api.spotify.com/v1/tracks/08xkT9P3YOpCiQzDiOasdx",
      "id" : "08xkT9P3YOpCiQzDiOasdx",
      "is_local" : false,
      "is_playable" : true,
      "name" : "Marvelous Grace (Live)",
      "popularity" : 7,
      "preview_url" : "https://p.scdn.co/mp3-preview/35b808524237c09336cad2083ebc56dcfccdc0b9?cid=774b29d4f13844c495f206cafdad9c86",
      "track_number" : 7,
      "type" : "track",
      "uri" : "spotify:track:08xkT9P3YOpCiQzDiOasdx"
    }, {
      "album" : {
        "album_type" : "album",
        "artists" : [ {
          "external_urls" : {
            "spotify" : "https://open.spotify.com/artist/0OhixIUJ2Llf74OEujFffs"
          },
          "href" : "https://api.spotify.com/v1/artists/0OhixIUJ2Llf74OEujFffs",
          "id" : "0OhixIUJ2Llf74OEujFffs",
          "name" : "Prestonwood Worship",
          "type" : "artist",
          "uri" : "spotify:artist:0OhixIUJ2Llf74OEujFffs"
        } ],
        "external_urls" : {
          "spotify" : "https://open.spotify.com/album/0c45FHF41gmTid6vvhLCPD"
        },
        "href" : "https://api.spotify.com/v1/albums/0c45FHF41gmTid6vvhLCPD",
        "id" : "0c45FHF41gmTid6vvhLCPD",
        "images" : [ {
          "height" : 640,
          "url" : "https://i.scdn.co/image/ab67616d0000b273219a40e17342bbbffede94a4",
          "width" : 640
        }, {
          "height" : 300,
          "url" : "https://i.scdn.co/image/ab67616d00001e02219a40e17342bbbffede94a4",
          "width" : 300
        }, {
          "height" : 64,
          "url" : "https://i.scdn.co/image/ab67616d00004851219a40e17342bbbffede94a4",
          "width" : 64
        } ],
        "name" : "Songs of the People (Live)",
        "release_date" : "2016-09-23",
        "release_date_precision" : "day",
        "total_tracks" : 13,
        "type" : "album",
        "uri" : "spotify:album:0c45FHF41gmTid6vvhLCPD"
      },
      "artists" : [ {
        "external_urls" : {
          "spotify" : "https://open.spotify.com/artist/0OhixIUJ2Llf74OEujFffs"
        },
        "href" : "https://api.spotify.com/v1/artists/0OhixIUJ2Llf74OEujFffs",
        "id" : "0OhixIUJ2Llf74OEujFffs",
        "name" : "Prestonwood Worship",
        "type" : "artist",
        "uri" : "spotify:artist:0OhixIUJ2Llf74OEujFffs"
      }, {
        "external_urls" : {
          "spotify" : "https://open.spotify.com/artist/2iEIsHVYuptg6pzu3GMTPV"
        },
        "href" : "https://api.spotify.com/v1/artists/2iEIsHVYuptg6pzu3GMTPV",
        "id" : "2iEIsHVYuptg6pzu3GMTPV",
        "name" : "Rick Briscoe",
        "type" : "artist",
        "uri" : "spotify:artist:2iEIsHVYuptg6pzu3GMTPV"
      } ],
      "disc_number" : 1,
      "duration_ms" : 339640,
      "explicit" : false,
      "external_ids" : {
        "isrc" : "US25L1601011"
      },
      "external_urls" : {
        "spotify" : "https://open.spotify.com/track/6SZcecj4I81Cnm0b6G8JuF"
      },
      "href" : "https://api.spotify.com/v1/tracks/6SZcecj4I81Cnm0b6G8JuF",
      "id" : "6SZcecj4I81Cnm0b6G8JuF",
      "is_local" : false,
      "is_playable" : true,
      "name" : "Grace So Marvelous - Live",
      "popularity" : 8,
      "preview_url" : "https://p.scdn.co/mp3-preview/5a0d6d9479143133a4ca4fa3b0e05184e3a40aff?cid=774b29d4f13844c495f206cafdad9c86",
      "track_number" : 7,
      "type" : "track",
      "uri" : "spotify:track:6SZcecj4I81Cnm0b6G8JuF"
    }, {
      "album" : {
        "album_type" : "album",
        "artists" : [ {
          "external_urls" : {
            "spotify" : "https://open.spotify.com/artist/7DpnqUope0VrBdoh4T5Uod"
          },
          "href" : "https://api.spotify.com/v1/artists/7DpnqUope0VrBdoh4T5Uod",
          "id" : "7DpnqUope0VrBdoh4T5Uod",
          "name" : "Mark Lowry",
          "type" : "artist",
          "uri" : "spotify:artist:7DpnqUope0VrBdoh4T5Uod"
        } ],
        "external_urls" : {
          "spotify" : "https://open.spotify.com/album/0kCofTf3bbVi5mc4q0ixWz"
        },
        "href" : "https://api.spotify.com/v1/albums/0kCofTf3bbVi5mc4q0ixWz",
        "id" : "0kCofTf3bbVi5mc4q0ixWz",
        "images" : [ {
          "height" : 640,
          "url" : "https://i.scdn.co/image/ab67616d0000b273a7c13362e38650f9b3959976",
          "width" : 640
        }, {
          "height" : 300,
          "url" : "https://i.scdn.co/image/ab67616d00001e02a7c13362e38650f9b3959976",
          "width" : 300
        }, {
          "height" : 64,
          "url" : "https://i.scdn.co/image/ab67616d00004851a7c13362e38650f9b3959976",
          "width" : 64
        } ],
        "name" : "I Love To Tell The Story",
        "release_date" : "2007-01-01",
        "release_date_precision" : "day",
        "total_tracks" : 11,
        "type" : "album",
        "uri" : "spotify:album:0kCofTf3bbVi5mc4q0ixWz"
      },
      "artists" : [ {
        "external_urls" : {
          "spotify" : "https://open.spotify.com/artist/7DpnqUope0VrBdoh4T5Uod"
        },
        "href" : "https://api.spotify.com/v1/artists/7DpnqUope0VrBdoh4T5Uod",
        "id" : "7DpnqUope0VrBdoh4T5Uod",
        "name" : "Mark Lowry",
        "type" : "artist",
        "uri" : "spotify:artist:7DpnqUope0VrBdoh4T5Uod"
      } ],
      "disc_number" : 1,
      "duration_ms" : 194173,
      "explicit" : false,
      "external_ids" : {
        "isrc" : "US3270402548"
      },
      "external_urls" : {
        "spotify" : "https://open.spotify.com/track/0iqdenbukjAFTbT9xWygYE"
      },
      "href" : "https://api.spotify.com/v1/tracks/0iqdenbukjAFTbT9xWygYE",
      "id" : "0iqdenbukjAFTbT9xWygYE",
      "is_local" : false,
      "is_playable" : true,
      "name" : "Marvelous Grace",
      "popularity" : 4,
      "preview_url" : null,
      "track_number" : 6,
      "type" : "track",
      "uri" : "spotify:track:0iqdenbukjAFTbT9xWygYE"
    }, {
      "album" : {
        "album_type" : "album",
        "artists" : [ {
          "external_urls" : {
            "spotify" : "https://open.spotify.com/artist/5eE0HGiupXo60gA5uAVTD5"
          },
          "href" : "https://api.spotify.com/v1/artists/5eE0HGiupXo60gA5uAVTD5",
          "id" : "5eE0HGiupXo60gA5uAVTD5",
          "name" : "Evan & Emily Jarms",
          "type" : "artist",
          "uri" : "spotify:artist:5eE0HGiupXo60gA5uAVTD5"
        } ],
        "external_urls" : {
          "spotify" : "https://open.spotify.com/album/26U9iG0NkiCZFmlL0301ba"
        },
        "href" : "https://api.spotify.com/v1/albums/26U9iG0NkiCZFmlL0301ba",
        "id" : "26U9iG0NkiCZFmlL0301ba",
        "images" : [ {
          "height" : 640,
          "url" : "https://i.scdn.co/image/ab67616d0000b273c325a8e9776ca9357468b02d",
          "width" : 640
        }, {
          "height" : 300,
          "url" : "https://i.scdn.co/image/ab67616d00001e02c325a8e9776ca9357468b02d",
          "width" : 300
        }, {
          "height" : 64,
          "url" : "https://i.scdn.co/image/ab67616d00004851c325a8e9776ca9357468b02d",
          "width" : 64
        } ],
        "name" : "Lullaby Hymnal: Studio Sessions",
        "release_date" : "2019-04-08",
        "release_date_precision" : "day",
        "total_tracks" : 7,
        "type" : "album",
        "uri" : "spotify:album:26U9iG0NkiCZFmlL0301ba"
      },
      "artists" : [ {
        "external_urls" : {
          "spotify" : "https://open.spotify.com/artist/5eE0HGiupXo60gA5uAVTD5"
        },
        "href" : "https://api.spotify.com/v1/artists/5eE0HGiupXo60gA5uAVTD5",
        "id" : "5eE0HGiupXo60gA5uAVTD5",
        "name" : "Evan & Emily Jarms",
        "type" : "artist",
        "uri" : "spotify:artist:5eE0HGiupXo60gA5uAVTD5"
      } ],
      "disc_number" : 1,
      "duration_ms" : 198466,
      "explicit" : false,
      "external_ids" : {
        "isrc" : "usdy41905062"
      },
      "external_urls" : {
        "spotify" : "https://open.spotify.com/track/57maew91uCrqGbjiBjL9Gq"
      },
      "href" : "https://api.spotify.com/v1/tracks/57maew91uCrqGbjiBjL9Gq",
      "id" : "57maew91uCrqGbjiBjL9Gq",
      "is_local" : false,
      "is_playable" : true,
      "name" : "Marvelous Grace",
      "popularity" : 2,
      "preview_url" : "https://p.scdn.co/mp3-preview/10873840a1becb86cedac22c080df3a28308b788?cid=774b29d4f13844c495f206cafdad9c86",
      "track_number" : 3,
      "type" : "track",
      "uri" : "spotify:track:57maew91uCrqGbjiBjL9Gq"
    }, {
      "album" : {
        "album_type" : "album",
        "artists" : [ {
          "external_urls" : {
            "spotify" : "https://open.spotify.com/artist/7jq3K3OHjp2PtVmkAyIWOI"
          },
          "href" : "https://api.spotify.com/v1/artists/7jq3K3OHjp2PtVmkAyIWOI",
          "id" : "7jq3K3OHjp2PtVmkAyIWOI",
          "name" : "Marc Witmer",
          "type" : "artist",
          "uri" : "spotify:artist:7jq3K3OHjp2PtVmkAyIWOI"
        } ],
        "external_urls" : {
          "spotify" : "https://open.spotify.com/album/6mfgFO8KcnQa6wfRmOLN1p"
        },
        "href" : "https://api.spotify.com/v1/albums/6mfgFO8KcnQa6wfRmOLN1p",
        "id" : "6mfgFO8KcnQa6wfRmOLN1p",
        "images" : [ {
          "height" : 640,
          "url" : "https://i.scdn.co/image/ab67616d0000b273b4ed067a9db770eb74e9311a",
          "width" : 640
        }, {
          "height" : 300,
          "url" : "https://i.scdn.co/image/ab67616d00001e02b4ed067a9db770eb74e9311a",
          "width" : 300
        }, {
          "height" : 64,
          "url" : "https://i.scdn.co/image/ab67616d00004851b4ed067a9db770eb74e9311a",
          "width" : 64
        } ],
        "name" : "Prayer Meditations",
        "release_date" : "1999-12-14",
        "release_date_precision" : "day",
        "total_tracks" : 10,
        "type" : "album",
        "uri" : "spotify:album:6mfgFO8KcnQa6wfRmOLN1p"
      },
      "artists" : [ {
        "external_urls" : {
          "spotify" : "https://open.spotify.com/artist/7jq3K3OHjp2PtVmkAyIWOI"
        },
        "href" : "https://api.spotify.com/v1/artists/7jq3K3OHjp2PtVmkAyIWOI",
        "id" : "7jq3K3OHjp2PtVmkAyIWOI",
        "name" : "Marc Witmer",
        "type" : "artist",
        "uri" : "spotify:artist:7jq3K3OHjp2PtVmkAyIWOI"
      } ],
      "disc_number" : 1,
      "duration_ms" : 353918,
      "explicit" : false,
      "external_ids" : {
        "isrc" : "USA370336047"
      },
      "external_urls" : {
        "spotify" : "https://open.spotify.com/track/1rJtztvvfFkMfituDLTxd4"
      },
      "href" : "https://api.spotify.com/v1/tracks/1rJtztvvfFkMfituDLTxd4",
      "id" : "1rJtztvvfFkMfituDLTxd4",
      "is_local" : false,
      "is_playable" : true,
      "name" : "Grace, Grace, Marvelous Grace",
      "popularity" : 0,
      "preview_url" : "https://p.scdn.co/mp3-preview/f81075ec69dc12483baaf42f1424c83b674a4e21?cid=774b29d4f13844c495f206cafdad9c86",
      "track_number" : 1,
      "type" : "track",
      "uri" : "spotify:track:1rJtztvvfFkMfituDLTxd4"
    } ],
    "limit" : 10,
    "next" : "https://api.spotify.com/v1/search?query=Marvelous+Grace&type=track&market=US&offset=15&limit=10",
    "offset" : 5,
    "previous" : "https://api.spotify.com/v1/search?query=Marvelous+Grace&type=track&market=US&offset=0&limit=10",
    "total" : 78
  }
}