{
  "tracks" : {
    "href" : "https://api.spotify.com/v1/search?query=Love+at+Home&type=track&market=US&offset=5&limit=10",
    "items" : [ {
      "album" : {
        "album_type" : "album",
        "artists" : [ {
          "external_urls" : {
            "spotify" : "https://open.spotify.com/artist/7FQRbf8gbKw8KZQZAJWxH2"
          },
          "href" : "https://api.spotify.com/v1/artists/7FQRbf8gbKw8KZQZAJWxH2",
          "id" : "7FQRbf8gbKw8KZQZAJWxH2",
          "name" : "Paul Cardall",
          "type" : "artist",
          "uri" : "spotify:artist:7FQRbf8gbKw8KZQZAJWxH2"
        } ],
        "external_urls" : {
          "spotify" : "https://open.spotify.com/album/60FhTD1ecsWyGqvoKdpIIz"
        },
        "href" : "https://api.spotify.com/v1/albums/60FhTD1ecsWyGqvoKdpIIz",
        "id" : "60FhTD1ecsWyGqvoKdpIIz",
        "images" : [ {
          "height" : 640,
          "url" : "https://i.scdn.co/image/ab67616d0000b2730a4250e04039ca80e4397341",
          "width" : 640
        }, {
          "height" : 300,
          "url" : "https://i.scdn.co/image/ab67616d00001e020a4250e04039ca80e4397341",
          "width" : 300
        }, {
          "height" : 64,
          "url" : "https://i.scdn.co/image/ab67616d000048510a4250e04039ca80e4397341",
          "width" : 64
        } ],
        "name" : "Hymns Vol. 2",
        "release_date" : "2000",
        "release_date_precision" : "year",
        "total_tracks" : 13,
        "type" : "album",
        "uri" : "spotify:album:60FhTD1ecsWyGqvoKdpIIz"
      },
      "artists" : [ {
        "external_urls" : {
          "spotify" : "https://open.spotify.com/artist/7FQRbf8gbKw8KZQZAJWxH2"
        },
        "href" : "https://api.spotify.com/v1/artists/7FQRbf8gbKw8KZQZAJWxH2",
        "id" : "7FQRbf8gbKw8KZQZAJWxH2",
        "name" : "Paul Cardall",
        "type" : "artist",
        "uri" : "spotify:artist:7FQRbf8gbKw8KZQZAJWxH2"
      } ],
      "disc_number" : 1,
      "duration_ms" : 226853,
      "explicit" : false,
      "external_ids" : {
        "isrc" : "uscgj0604092"
      },
      "external_urls" : {
        "spotify" : "https://open.spotify.com/track/78eNvNFGE5KeCu2LnBqxrv"
      },
      "href" : "https://api.spotify.com/v1/tracks/78eNvNFGE5KeCu2LnBqxrv",
      "id" : "78eNvNFGE5KeCu2LnBqxrv",
      "is_local" : false,
      "is_playable" : true,
      "name" : "Love at Home",
      "popularity" : 21,
      "preview_url" : "https://p.scdn.co/mp3-preview/cf5b7786805dc0b0613aa98f3ab6455c5b9932f1?cid=774b29d4f13844c495f206cafdad9c86",
      "track_number" : 1,
      "type" : "track",
      "uri" : "spotify:track:78eNvNFGE5KeCu2LnBqxrv"
    }, {
      "album" : {
        "album_type" : "album",
        "artists" : [ {
          "external_urls" : {
            "spotify" : "https://open.spotify.com/artist/5ee6tRCf54hwB2pyXhRMb2"
          },
          "href" : "https://api.spotify.com/v1/artists/5ee6tRCf54hwB2pyXhRMb2",
          "id" : "5ee6tRCf54hwB2pyXhRMb2",
          "name" : "Ryan Tilby",
          "type" : "artist",
          "uri" : "spotify:artist:5ee6tRCf54hwB2pyXhRMb2"
        } ],
        "external_urls" : {
          "spotify" : "https://open.spotify.com/album/4sWsgPK2o38IDYiOK3T98I"
        },
        "href" : "https://api.spotify.com/v1/albums/4sWsgPK2o38IDYiOK3T98I",
        "id" : "4sWsgPK2o38IDYiOK3T98I",
        "images" : [ {
          "height" : 640,
          "url" : "https://i.scdn.co/image/ab67616d0000b27354edc4b2cfd190349518bddf",
          "width" : 640
        }, {
          "height" : 300,
          "url" : "https://i.scdn.co/image/ab67616d00001e0254edc4b2cfd190349518bddf",
          "width" : 300
        }, {
          "height" : 64,
          "url" : "https://i.scdn.co/image/ab67616d0000485154edc4b2cfd190349518bddf",
          "width" : 64
        } ],
        "name" : "Sacred Guitar",
        "release_date" : "2012-11-01",
        "release_date_precision" : "day",
        "total_tracks" : 13,
        "type" : "album",
        "uri" : "spotify:album:4sWsgPK2o38IDYiOK3T98I"
      },
      "artists" : [ {
        "external_urls" : {
          "spotify" : "https://open.spotify.com/artist/5ee6tRCf54hwB2pyXhRMb2"
        },
        "href" : "https://api.spotify.com/v1/artists/5ee6tRCf54hwB2pyXhRMb2",
        "id" : "5ee6tRCf54hwB2pyXhRMb2",
        "name" : "Ryan Tilby",
        "type" : "artist",
        "uri" : "spotify:artist:5ee6tRCf54hwB2pyXhRMb2"
      } ],
      "disc_number" : 1,
      "duration_ms" : 238577,
      "explicit" : false,
      "external_ids" : {
        "isrc" : "ushm81224775"
      },
      "external_urls" : {
        "spotify" : "https://open.spotify.com/track/4c4IlzGel4cmGnns9ZWsju"
      },
      "href" : "https://api.spotify.com/v1/tracks/4c4IlzGel4cmGnns9ZWsju",
      "id" : "4c4IlzGel4cmGnns9ZWsju",
      "is_local" : false,
      "is_playable" : true,
      "name" : "Love At Home",
      "popularity" : 20,
      "preview_url" : "https://p.scdn.co/mp3-preview/90d40594abeb1112d314471fcf528aba2d0999e1?cid=774b29d4f13844c495f206cafdad9c86",
      "track_number" : 5,
      "type" : "track",
      "uri" : "spotify:track:4c4IlzGel4cmGnns9ZWsju"
    }, {
      "album" : {
        "album_type" : "album",
        "artists" : [ {
          "external_urls" : {
            "spotify" : "https://open.spotify.com/artist/1rnvO0098VACV7bmTr2dIv"
          },
          "href" : "https://api.spotify.com/v1/artists/1rnvO0098VACV7bmTr2dIv",
          "id" : "1rnvO0098VACV7bmTr2dIv",
          "name" : "Jason Tonioli",
          "type" : "artist",
          "uri" : "spotify:artist:1rnvO0098VACV7bmTr2dIv"
        } ],
        "external_urls" : {
          "spotify" : "https://open.spotify.com/album/04H5oYEyVboTkTx2MS4IYY"
        },
        "href" : "https://api.spotify.com/v1/albums/04H5oYEyVboTkTx2MS4IYY",
        "id" : "04H5oYEyVboTkTx2MS4IYY",
        "images" : [ {
          "height" : 640,
          "url" : "https://i.scdn.co/image/ab67616d0000b2738c08525f72a1a1171ba43b79",
          "width" : 640
        }, {
          "height" : 300,
          "url" : "https://i.scdn.co/image/ab67616d00001e028c08525f72a1a1171ba43b79",
          "width" : 300
        }, {
          "height" : 64,
          "url" : "https://i.scdn.co/image/ab67616d000048518c08525f72a1a1171ba43b79",
          "width" : 64
        } ],
        "name" : "Simple Gifts",
        "release_date" : "2010-08-02",
        "release_date_precision" : "day",
        "total_tracks" : 12,
        "type" : "album",
        "uri" : "spotify:album:04H5oYEyVboTkTx2MS4IYY"
      },
      "artists" : [ {
        "external_urls" : {
          "spotify" : "https://open.spotify.com/artist/1rnvO0098VACV7bmTr2dIv"
        },
        "href" : "https://api.spotify.com/v1/artists/1rnvO0098VACV7bmTr2dIv",
        "id" : "1rnvO0098VACV7bmTr2dIv",
        "name" : "Jason Tonioli",
        "type" : "artist",
        "uri" : "spotify:artist:1rnvO0098VACV7bmTr2dIv"
      } ],
      "disc_number" : 1,
      "duration_ms" : 258306,
      "explicit" : false,
      "external_ids" : {
        "isrc" : "USQY51069930"
      },
      "external_urls" : {
        "spotify" : "https://open.spotify.com/track/1UFvkprJV2TTS7wS90QDY2"
      },
      "href" : "https://api.spotify.com/v1/tracks/1UFvkprJV2TTS7wS90QDY2",
      "id" : "1UFvkprJV2TTS7wS90QDY2",
      "is_local" : false,
      "is_playable" : true,
      "name" : "Love at Home",
      "popularity" : 19,
      "preview_url" : "https://p.scdn.co/mp3-preview/2688d0b0b6831ac34da22466a25e7be2beda9ece?cid=774b29d4f13844c495f206cafdad9c86",
      "track_number" : 11,
      "type" : "track",
      "uri" : "spotify:track:1UFvkprJV2TTS7wS90QDY2"
    }, {
      "album" : {
        "album_type" : "album",
        "artists" : [ {
          "external_urls" : {
            "spotify" : "https://open.spotify.com/artist/0LyfQWJT6nXafLPZqxe9Of"
          },
          "href" : "https://api.spotify.com/v1/artists/0LyfQWJT6nXafLPZqxe9Of",
          "id" : "0LyfQWJT6nXafLPZqxe9Of",
          "name" : "Various Artists",
          "type" : "artist",
          "uri" : "spotify:artist:0LyfQWJT6nXafLPZqxe9Of"
        } ],
        "external_urls" : {
          "spotify" : "https://open.spotify.com/album/6QEs1HzFl9iMZZP2jIfrwv"
        },
        "href" : "https://api.spotify.com/v1/albums/6QEs1HzFl9iMZZP2jIfrwv",
        "id" : "6QEs1HzFl9iMZZP2jIfrwv",
        "images" : [ {
          "height" : 640,
          "url" : "https://i.scdn.co/image/ab67616d0000b273e1ff04a9b8d2ba1a70e0aeb5",
          "width" : 640
        }, {
          "height" : 300,
          "url" : "https://i.scdn.co/image/ab67616d00001e02e1ff04a9b8d2ba1a70e0aeb5",
          "width" : 300
        }, {
          "height" : 64,
          "url" : "https://i.scdn.co/image/ab67616d00004851e1ff04a9b8d2ba1a70e0aeb5",
          "width" : 64
        } ],
        "name" : "The Other Side of Heaven 2: Love at Home",
        "release_date" : "2019-08-19",
        "release_date_precision" : "day",
        "total_tracks" : 11,
        "type" : "album",
        "uri" : "spotify:album:6QEs1HzFl9iMZZP2jIfrwv"
      },
      "artists" : [ {
        "external_urls" : {
          "spotify" : "https://open.spotify.com/artist/0MZqxeVtllPhDp3d4nuUVI"
        },
        "href" : "https://api.spotify.com/v1/artists/0MZqxeVtllPhDp3d4nuUVI",
        "id" : "0MZqxeVtllPhDp3d4nuUVI",
        "name" : "Aaliyah Rose",
        "type" : "artist",
        "uri" : "spotify:artist:0MZqxeVtllPhDp3d4nuUVI"
      }, {
        "external_urls" : {
          "spotify" : "https://open.spotify.com/artist/57WxfZ8kd3xPf80ytxJ812"
        },
        "href" : "https://api.spotify.com/v1/artists/57WxfZ8kd3xPf80ytxJ812",
        "id" : "57WxfZ8kd3xPf80ytxJ812",
        "name" : "Junior Maile",
        "type" : "artist",
        "uri" : "spotify:artist:57WxfZ8kd3xPf80ytxJ812"
      } ],
      "disc_number" : 1,
      "duration_ms" : 238208,
      "explicit" : false,
      "external_ids" : {
        "isrc" : "ushm91918539"
      },
      "external_urls" : {
        "spotify" : "https://open.spotify.com/track/4idNRlMz5Gkiiv99zcGyAH"
      },
      "href" : "https://api.spotify.com/v1/tracks/4idNRlMz5Gkiiv99zcGyAH",
      "id" : "4idNRlMz5Gkiiv99zcGyAH",
      "is_local" : false,
      "is_playable" : true,
      "name" : "Love at Home (Duet Version)",
      "popularity" : 20,
      "preview_url" : "https://p.scdn.co/mp3-preview/98c24431d7097280dbbdea08ec6155cf8ab7ff81?cid=774b29d4f13844c495f206cafdad9c86",
      "track_number" : 1,
      "type" : "track",
      "uri" : "spotify:track:4idNRlMz5Gkiiv99zcGyAH"
    }, {
      "album" : {
        "album_type" : "album",
        "artists" : [ {
          "external_urls" : {
            "spotify" : "https://open.spotify.com/artist/7s7Q0xacR6ShONfklPYcPz"
          },
          "href" : "https://api.spotify.com/v1/artists/7s7Q0xacR6ShONfklPYcPz",
          "id" : "7s7Q0xacR6ShONfklPYcPz",
          "name" : "Moe Bandy",
          "type" : "artist",
          "uri" : "spotify:artist:7s7Q0xacR6ShONfklPYcPz"
        } ],
        "external_urls" : {
          "spotify" : "https://open.spotify.com/album/1Qs6VblnOI3GKXFWas5X1D"
        },
        "href" : "https://api.spotify.com/v1/albums/1Qs6VblnOI3GKXFWas5X1D",
        "id" : "1Qs6VblnOI3GKXFWas5X1D",
        "images" : [ {
          "height" : 640,
          "url" : "https://i.scdn.co/image/ab67616d0000b273ed6b0b2c83d1186f7deb1bd2",
          "width" : 640
        }, {
          "height" : 300,
          "url" : "https://i.scdn.co/image/ab67616d00001e02ed6b0b2c83d1186f7deb1bd2",
          "width" : 300
        }, {
          "height" : 64,
          "url" : "https://i.scdn.co/image/ab67616d00004851ed6b0b2c83d1186f7deb1bd2",
          "width" : 64
        } ],
        "name" : "Volume 2 - It Was Always So Easy (To Find An Unhappy Woman)",
        "release_date" : "2012-11-21",
        "release_date_precision" : "day",
        "total_tracks" : 11,
        "type" : "album",
        "uri" : "spotify:album:1Qs6VblnOI3GKXFWas5X1D"
      },
      "artists" : [ {
        "external_urls" : {
          "spotify" : "https://open.spotify.com/artist/7s7Q0xacR6ShONfklPYcPz"
        },
        "href" : "https://api.spotify.com/v1/artists/7s7Q0xacR6ShONfklPYcPz",
        "id" : "7s7Q0xacR6ShONfklPYcPz",
        "name" : "Moe Bandy",
        "type" : "artist",
        "uri" : "spotify:artist:7s7Q0xacR6ShONfklPYcPz"
      } ],
      "disc_number" : 1,
      "duration_ms" : 154693,
      "explicit" : false,
      "external_ids" : {
        "isrc" : "USBAE1203297"
      },
      "external_urls" : {
        "spotify" : "https://open.spotify.com/track/6xS1jsxaYbJ6lKbfnOOkwB"
      },
      "href" : "https://api.spotify.com/v1/tracks/6xS1jsxaYbJ6lKbfnOOkwB",
      "id" : "6xS1jsxaYbJ6lKbfnOOkwB",
      "is_local" : false,
      "is_playable" : true,
      "name" : "Don't Anyone Make Love At Home Anymore",
      "popularity" : 17,
      "preview_url" : "https://p.scdn.co/mp3-preview/befc0759d28d02924499f80bdd35cac16fc19784?cid=774b29d4f13844c495f206cafdad9c86",
      "track_number" : 2,
      "type" : "track",
      "uri" : "spotify:track:6xS1jsxaYbJ6lKbfnOOkwB"
    }, {
      "album" : {
        "album_type" : "single",
        "artists" : [ {
          "external_urls" : {
            "spotify" : "https://open.spotify.com/artist/6Yt7wj1JwI0xg1PE6QPSok"
          },
          "href" : "https://api.spotify.com/v1/artists/6Yt7wj1JwI0xg1PE6QPSok",
          "id" : "6Yt7wj1JwI0xg1PE6QPSok",
          "name" : "Critical Eclipse at Home",
          "type" : "artist",
          "uri" : "spotify:artist:6Yt7wj1JwI0xg1PE6QPSok"
        } ],
        "external_urls" : {
          "spotify" : "https://open.spotify.com/album/0bjeDADCBSUIUuWLGajblM"
        },
        "href" : "https://api.spotify.com/v1/albums/0bjeDADCBSUIUuWLGajblM",
        "id" : "0bjeDADCBSUIUuWLGajblM",
        "images" : [ {
          "height" : 640,
          "url" : "https://i.scdn.co/image/ab67616d0000b27343bab24c431dd9069def93af",
          "width" : 640
        }, {
          "height" : 300,
          "url" : "https://i.scdn.co/image/ab67616d00001e0243bab24c431dd9069def93af",
          "width" : 300
        }, {
          "height" : 64,
          "url" : "https://i.scdn.co/image/ab67616d0000485143bab24c431dd9069def93af",
          "width" : 64
        } ],
        "name" : "Breaking E-Love",
        "release_date" : "2020-04-15",
        "release_date_precision" : "day",
        "total_tracks" : 3,
        "type" : "album",
        "uri" : "spotify:album:0bjeDADCBSUIUuWLGajblM"
      },
      "artists" : [ {
        "external_urls" : {
          "spotify" : "https://open.spotify.com/artist/6Yt7wj1JwI0xg1PE6QPSok"
        },
        "href" : "https://api.spotify.com/v1/artists/6Yt7wj1JwI0xg1PE6QPSok",
        "id" : "6Yt7wj1JwI0xg1PE6QPSok",
        "name" : "Critical Eclipse at Home",
        "type" : "artist",
        "uri" : "spotify:artist:6Yt7wj1JwI0xg1PE6QPSok"
      } ],
      "disc_number" : 1,
      "duration_ms" : 464039,
      "explicit" : false,
      "external_ids" : {
        "isrc" : "QZDA82023674"
      },
      "external_urls" : {
        "spotify" : "https://open.spotify.com/track/4hg1yYn9DX7LYGu0TTTqhq"
      },
      "href" : "https://api.spotify.com/v1/tracks/4hg1yYn9DX7LYGu0TTTqhq",
      "id" : "4hg1yYn9DX7LYGu0TTTqhq",
      "is_local" : false,
      "is_playable" : true,
      "name" : "Breaking E-Love",
      "popularity" : 27,
      "preview_url" : "https://p.scdn.co/mp3-preview/1aa0831e48b917a4f7bb24956ba03b67bb8bb7cc?cid=774b29d4f13844c495f206cafdad9c86",
      "track_number" : 2,
      "type" : "track",
      "uri" : "spotify:track:4hg1yYn9DX7LYGu0TTTqhq"
    }, {
      "album" : {
        "album_type" : "album",
        "artists" : [ {
          "external_urls" : {
            "spotify" : "https://open.spotify.com/artist/7x0UWXyNsNRQJtScbBnrBq"
          },
          "href" : "https://api.spotify.com/v1/artists/7x0UWXyNsNRQJtScbBnrBq",
          "id" : "7x0UWXyNsNRQJtScbBnrBq",
          "name" : "Lovehatehero",
          "type" : "artist",
          "uri" : "spotify:artist:7x0UWXyNsNRQJtScbBnrBq"
        } ],
        "external_urls" : {
          "spotify" : "https://open.spotify.com/album/2MPznUFDORXqL2lpA2IbPs"
        },
        "href" : "https://api.spotify.com/v1/albums/2MPznUFDORXqL2lpA2IbPs",
        "id" : "2MPznUFDORXqL2lpA2IbPs",
        "images" : [ {
          "height" : 640,
          "url" : "https://i.scdn.co/image/ab67616d0000b2732d9fcbde6b28edf9a054cdfe",
          "width" : 640
        }, {
          "height" : 300,
          "url" : "https://i.scdn.co/image/ab67616d00001e022d9fcbde6b28edf9a054cdfe",
          "width" : 300
        }, {
          "height" : 64,
          "url" : "https://i.scdn.co/image/ab67616d000048512d9fcbde6b28edf9a054cdfe",
          "width" : 64
        } ],
        "name" : "White Lies",
        "release_date" : "2007-02-20",
        "release_date_precision" : "day",
        "total_tracks" : 12,
        "type" : "album",
        "uri" : "spotify:album:2MPznUFDORXqL2lpA2IbPs"
      },
      "artists" : [ {
        "external_urls" : {
          "spotify" : "https://open.spotify.com/artist/7x0UWXyNsNRQJtScbBnrBq"
        },
        "href" : "https://api.spotify.com/v1/artists/7x0UWXyNsNRQJtScbBnrBq",
        "id" : "7x0UWXyNsNRQJtScbBnrBq",
        "name" : "Lovehatehero",
        "type" : "artist",
        "uri" : "spotify:artist:7x0UWXyNsNRQJtScbBnrBq"
      } ],
      "disc_number" : 1,
      "duration_ms" : 224693,
      "explicit" : false,
      "external_ids" : {
        "isrc" : "US3H40707712"
      },
      "external_urls" : {
        "spotify" : "https://open.spotify.com/track/5eyTNyGKycEOkZPU9XjIOT"
      },
      "href" : "https://api.spotify.com/v1/tracks/5eyTNyGKycEOkZPU9XjIOT",
      "id" : "5eyTNyGKycEOkZPU9XjIOT",
      "is_local" : false,
      "is_playable" : true,
      "name" : "She Puts The Ho In Homewrecker",
      "popularity" : 18,
      "preview_url" : "https://p.scdn.co/mp3-preview/327382f1cd83d6998ed7312d134fec199d5aa54c?cid=774b29d4f13844c495f206cafdad9c86",
      "track_number" : 12,
      "type" : "track",
      "uri" : "spotify:track:5eyTNyGKycEOkZPU9XjIOT"
    }, {
      "album" : {
        "album_type" : "album",
        "artists" : [ {
          "external_urls" : {
            "spotify" : "https://open.spotify.com/artist/0LyfQWJT6nXafLPZqxe9Of"
          },
          "href" : "https://api.spotify.com/v1/artists/0LyfQWJT6nXafLPZqxe9Of",
          "id" : "0LyfQWJT6nXafLPZqxe9Of",
          "name" : "Various Artists",
          "type" : "artist",
          "uri" : "spotify:artist:0LyfQWJT6nXafLPZqxe9Of"
        } ],
        "external_urls" : {
          "spotify" : "https://open.spotify.com/album/2VcZJySG0Skmua8JkfXGcz"
        },
        "href" : "https://api.spotify.com/v1/albums/2VcZJySG0Skmua8JkfXGcz",
        "id" : "2VcZJySG0Skmua8JkfXGcz",
        "images" : [ {
          "height" : 640,
          "url" : "https://i.scdn.co/image/ab67616d0000b273d43806cf68e3984ed158f1a7",
          "width" : 640
        }, {
          "height" : 300,
          "url" : "https://i.scdn.co/image/ab67616d00001e02d43806cf68e3984ed158f1a7",
          "width" : 300
        }, {
          "height" : 64,
          "url" : "https://i.scdn.co/image/ab67616d00004851d43806cf68e3984ed158f1a7",
          "width" : 64
        } ],
        "name" : "One World: Together At Home",
        "release_date" : "2020-04-19",
        "release_date_precision" : "day",
        "total_tracks" : 79,
        "type" : "album",
        "uri" : "spotify:album:2VcZJySG0Skmua8JkfXGcz"
      },
      "artists" : [ {
        "external_urls" : {
          "spotify" : "https://open.spotify.com/artist/0u2FHSq3ln94y5Q57xazwf"
        },
        "href" : "https://api.spotify.com/v1/artists/0u2FHSq3ln94y5Q57xazwf",
        "id" : "0u2FHSq3ln94y5Q57xazwf",
        "name" : "Keith Urban",
        "type" : "artist",
        "uri" : "spotify:artist:0u2FHSq3ln94y5Q57xazwf"
      } ],
      "disc_number" : 1,
      "duration_ms" : 134467,
      "explicit" : false,
      "external_ids" : {
        "isrc" : "USUM72008804"
      },
      "external_urls" : {
        "spotify" : "https://open.spotify.com/track/66xCjAo9ppP7hZRwtMh6GG"
      },
      "href" : "https://api.spotify.com/v1/tracks/66xCjAo9ppP7hZRwtMh6GG",
      "id" : "66xCjAo9ppP7hZRwtMh6GG",
      "is_local" : false,
      "is_playable" : true,
      "name" : "Higher Love - One World: Together At Home",
      "popularity" : 64,
      "preview_url" : "https://p.scdn.co/mp3-preview/e3c0445974f9ec4b4cd5366bdabe497f1d4d6d51?cid=774b29d4f13844c495f206cafdad9c86",
      "track_number" : 12,
      "type" : "track",
      "uri" : "spotify:track:66xCjAo9ppP7hZRwtMh6GG"
    }, {
      "album" : {
        "album_type" : "single",
        "artists" : [ {
          "external_urls" : {
            "spotify" : "https://open.spotify.com/artist/3b8QkneNDz4JHKKKlLgYZg"
          },
          "href" : "https://api.spotify.com/v1/artists/3b8QkneNDz4JHKKKlLgYZg",
          "id" : "3b8QkneNDz4JHKKKlLgYZg",
          "name" : "Florida Georgia Line",
          "type" : "artist",
          "uri" : "spotify:artist:3b8QkneNDz4JHKKKlLgYZg"
        } ],
        "external_urls" : {
          "spotify" : "https://open.spotify.com/album/5YGCQ5ZkworalOe9rK7W0m"
        },
        "href" : "https://api.spotify.com/v1/albums/5YGCQ5ZkworalOe9rK7W0m",
        "id" : "5YGCQ5ZkworalOe9rK7W0m",
        "images" : [ {
          "height" : 640,
          "url" : "https://i.scdn.co/image/ab67616d0000b27338273205700ca9ce1db89c19",
          "width" : 640
        }, {
          "height" : 300,
          "url" : "https://i.scdn.co/image/ab67616d00001e0238273205700ca9ce1db89c19",
          "width" : 300
        }, {
          "height" : 64,
          "url" : "https://i.scdn.co/image/ab67616d0000485138273205700ca9ce1db89c19",
          "width" : 64
        } ],
        "name" : "I Love My Country (Acoustic At Home)",
        "release_date" : "2020-04-24",
        "release_date_precision" : "day",
        "total_tracks" : 1,
        "type" : "album",
        "uri" : "spotify:album:5YGCQ5ZkworalOe9rK7W0m"
      },
      "artists" : [ {
        "external_urls" : {
          "spotify" : "https://open.spotify.com/artist/3b8QkneNDz4JHKKKlLgYZg"
        },
        "href" : "https://api.spotify.com/v1/artists/3b8QkneNDz4JHKKKlLgYZg",
        "id" : "3b8QkneNDz4JHKKKlLgYZg",
        "name" : "Florida Georgia Line",
        "type" : "artist",
        "uri" : "spotify:artist:3b8QkneNDz4JHKKKlLgYZg"
      } ],
      "disc_number" : 1,
      "duration_ms" : 183784,
      "explicit" : false,
      "external_ids" : {
        "isrc" : "QM3E22002267"
      },
      "external_urls" : {
        "spotify" : "https://open.spotify.com/track/38TRKmZJrEbtU0y6GAjNcv"
      },
      "href" : "https://api.spotify.com/v1/tracks/38TRKmZJrEbtU0y6GAjNcv",
      "id" : "38TRKmZJrEbtU0y6GAjNcv",
      "is_local" : false,
      "is_playable" : true,
      "name" : "I Love My Country - Acoustic At Home",
      "popularity" : 50,
      "preview_url" : null,
      "track_number" : 1,
      "type" : "track",
      "uri" : "spotify:track:38TRKmZJrEbtU0y6GAjNcv"
    }, {
      "album" : {
        "album_type" : "single",
        "artists" : [ {
          "external_urls" : {
            "spotify" : "https://open.spotify.com/artist/6Yt7wj1JwI0xg1PE6QPSok"
          },
          "href" : "https://api.spotify.com/v1/artists/6Yt7wj1JwI0xg1PE6QPSok",
          "id" : "6Yt7wj1JwI0xg1PE6QPSok",
          "name" : "Critical Eclipse at Home",
          "type" : "artist",
          "uri" : "spotify:artist:6Yt7wj1JwI0xg1PE6QPSok"
        } ],
        "external_urls" : {
          "spotify" : "https://open.spotify.com/album/0bjeDADCBSUIUuWLGajblM"
        },
        "href" : "https://api.spotify.com/v1/albums/0bjeDADCBSUIUuWLGajblM",
        "id" : "0bjeDADCBSUIUuWLGajblM",
        "images" : [ {
          "height" : 640,
          "url" : "https://i.scdn.co/image/ab67616d0000b27343bab24c431dd9069def93af",
          "width" : 640
        }, {
          "height" : 300,
          "url" : "https://i.scdn.co/image/ab67616d00001e0243bab24c431dd9069def93af",
          "width" : 300
        }, {
          "height" : 64,
          "url" : "https://i.scdn.co/image/ab67616d0000485143bab24c431dd9069def93af",
          "width" : 64
        } ],
        "name" : "Breaking E-Love",
        "release_date" : "2020-04-15",
        "release_date_precision" : "day",
        "total_tracks" : 3,
        "type" : "album",
        "uri" : "spotify:album:0bjeDADCBSUIUuWLGajblM"
      },
      "artists" : [ {
        "external_urls" : {
          "spotify" : "https://open.spotify.com/artist/6Yt7wj1JwI0xg1PE6QPSok"
        },
        "href" : "https://api.spotify.com/v1/artists/6Yt7wj1JwI0xg1PE6QPSok",
        "id" : "6Yt7wj1JwI0xg1PE6QPSok",
        "name" : "Critical Eclipse at Home",
        "type" : "artist",
        "uri" : "spotify:artist:6Yt7wj1JwI0xg1PE6QPSok"
      } ],
      "disc_number" : 1,
      "duration_ms" : 64026,
      "explicit" : false,
      "external_ids" : {
        "isrc" : "QZDA82023673"
      },
      "external_urls" : {
        "spotify" : "https://open.spotify.com/track/42zhVNarkBY3z368EAMc5N"
      },
      "href" : "https://api.spotify.com/v1/tracks/42zhVNarkBY3z368EAMc5N",
      "id" : "42zhVNarkBY3z368EAMc5N",
      "is_local" : false,
      "is_playable" : true,
      "name" : "Intro",
      "popularity" : 48,
      "preview_url" : "https://p.scdn.co/mp3-preview/482d00955bb7b9078eb67522bf7e74a5cd98c9e3?cid=774b29d4f13844c495f206cafdad9c86",
      "track_number" : 1,
      "type" : "track",
      "uri" : "spotify:track:42zhVNarkBY3z368EAMc5N"
    } ],
    "limit" : 10,
    "next" : "https://api.spotify.com/v1/search?query=Love+at+Home&type=track&market=US&offset=15&limit=10",
    "offset" : 5,
    "previous" : "https://api.spotify.com/v1/search?query=Love+at+Home&type=track&market=US&offset=0&limit=10",
    "total" : 2559
  }
}