{
  "tracks" : {
    "href" : "https://api.spotify.com/v1/search?query=Thou+Didst+Leave+Thy+Throne&type=track&market=US&offset=5&limit=10",
    "items" : [ {
      "album" : {
        "album_type" : "album",
        "artists" : [ {
          "external_urls" : {
            "spotify" : "https://open.spotify.com/artist/3gP483pAbZM5nZQwRxmZ1K"
          },
          "href" : "https://api.spotify.com/v1/artists/3gP483pAbZM5nZQwRxmZ1K",
          "id" : "3gP483pAbZM5nZQwRxmZ1K",
          "name" : "聖歌特讚隊",
          "type" : "artist",
          "uri" : "spotify:artist:3gP483pAbZM5nZQwRxmZ1K"
        } ],
        "external_urls" : {
          "spotify" : "https://open.spotify.com/album/313wfyTnTzSsQCRceFZPRd"
        },
        "href" : "https://api.spotify.com/v1/albums/313wfyTnTzSsQCRceFZPRd",
        "id" : "313wfyTnTzSsQCRceFZPRd",
        "images" : [ {
          "height" : 640,
          "url" : "https://i.scdn.co/image/ab67616d0000b2733ff77c596441583479a915e6",
          "width" : 640
        }, {
          "height" : 300,
          "url" : "https://i.scdn.co/image/ab67616d00001e023ff77c596441583479a915e6",
          "width" : 300
        }, {
          "height" : 64,
          "url" : "https://i.scdn.co/image/ab67616d000048513ff77c596441583479a915e6",
          "width" : 64
        } ],
        "name" : "聖歌特讚隊: 特讚聖誕 Hymn Squad: Mega Christmas",
        "release_date" : "2011-10-11",
        "release_date_precision" : "day",
        "total_tracks" : 13,
        "type" : "album",
        "uri" : "spotify:album:313wfyTnTzSsQCRceFZPRd"
      },
      "artists" : [ {
        "external_urls" : {
          "spotify" : "https://open.spotify.com/artist/3gP483pAbZM5nZQwRxmZ1K"
        },
        "href" : "https://api.spotify.com/v1/artists/3gP483pAbZM5nZQwRxmZ1K",
        "id" : "3gP483pAbZM5nZQwRxmZ1K",
        "name" : "聖歌特讚隊",
        "type" : "artist",
        "uri" : "spotify:artist:3gP483pAbZM5nZQwRxmZ1K"
      } ],
      "disc_number" : 1,
      "duration_ms" : 212146,
      "explicit" : false,
      "external_ids" : {
        "isrc" : "TWQ311100008"
      },
      "external_urls" : {
        "spotify" : "https://open.spotify.com/track/2ERdJyV9yA5bf2L3vM43GE"
      },
      "href" : "https://api.spotify.com/v1/tracks/2ERdJyV9yA5bf2L3vM43GE",
      "id" : "2ERdJyV9yA5bf2L3vM43GE",
      "is_local" : false,
      "is_playable" : true,
      "name" : "在我心有位做寶座 (台語版) Thou Didst Leave Thy Throne",
      "popularity" : 5,
      "preview_url" : "https://p.scdn.co/mp3-preview/6074017f707669a4005384bbb9a61251c07051ea?cid=774b29d4f13844c495f206cafdad9c86",
      "track_number" : 8,
      "type" : "track",
      "uri" : "spotify:track:2ERdJyV9yA5bf2L3vM43GE"
    }, {
      "album" : {
        "album_type" : "album",
        "artists" : [ {
          "external_urls" : {
            "spotify" : "https://open.spotify.com/artist/3gP483pAbZM5nZQwRxmZ1K"
          },
          "href" : "https://api.spotify.com/v1/artists/3gP483pAbZM5nZQwRxmZ1K",
          "id" : "3gP483pAbZM5nZQwRxmZ1K",
          "name" : "聖歌特讚隊",
          "type" : "artist",
          "uri" : "spotify:artist:3gP483pAbZM5nZQwRxmZ1K"
        } ],
        "external_urls" : {
          "spotify" : "https://open.spotify.com/album/313wfyTnTzSsQCRceFZPRd"
        },
        "href" : "https://api.spotify.com/v1/albums/313wfyTnTzSsQCRceFZPRd",
        "id" : "313wfyTnTzSsQCRceFZPRd",
        "images" : [ {
          "height" : 640,
          "url" : "https://i.scdn.co/image/ab67616d0000b2733ff77c596441583479a915e6",
          "width" : 640
        }, {
          "height" : 300,
          "url" : "https://i.scdn.co/image/ab67616d00001e023ff77c596441583479a915e6",
          "width" : 300
        }, {
          "height" : 64,
          "url" : "https://i.scdn.co/image/ab67616d000048513ff77c596441583479a915e6",
          "width" : 64
        } ],
        "name" : "聖歌特讚隊: 特讚聖誕 Hymn Squad: Mega Christmas",
        "release_date" : "2011-10-11",
        "release_date_precision" : "day",
        "total_tracks" : 13,
        "type" : "album",
        "uri" : "spotify:album:313wfyTnTzSsQCRceFZPRd"
      },
      "artists" : [ {
        "external_urls" : {
          "spotify" : "https://open.spotify.com/artist/3gP483pAbZM5nZQwRxmZ1K"
        },
        "href" : "https://api.spotify.com/v1/artists/3gP483pAbZM5nZQwRxmZ1K",
        "id" : "3gP483pAbZM5nZQwRxmZ1K",
        "name" : "聖歌特讚隊",
        "type" : "artist",
        "uri" : "spotify:artist:3gP483pAbZM5nZQwRxmZ1K"
      } ],
      "disc_number" : 1,
      "duration_ms" : 212146,
      "explicit" : false,
      "external_ids" : {
        "isrc" : "TWQ311100012"
      },
      "external_urls" : {
        "spotify" : "https://open.spotify.com/track/12fTAUDyTqTyLkCzmWFCAg"
      },
      "href" : "https://api.spotify.com/v1/tracks/12fTAUDyTqTyLkCzmWFCAg",
      "id" : "12fTAUDyTqTyLkCzmWFCAg",
      "is_local" : false,
      "is_playable" : true,
      "name" : "在我心有空處為你 (伴唱版) Thou Didst Leave Thy Throne",
      "popularity" : 4,
      "preview_url" : "https://p.scdn.co/mp3-preview/3241cdfd95a016ae1231a4a7f55f45193df6078c?cid=774b29d4f13844c495f206cafdad9c86",
      "track_number" : 12,
      "type" : "track",
      "uri" : "spotify:track:12fTAUDyTqTyLkCzmWFCAg"
    }, {
      "album" : {
        "album_type" : "compilation",
        "artists" : [ {
          "external_urls" : {
            "spotify" : "https://open.spotify.com/artist/0LyfQWJT6nXafLPZqxe9Of"
          },
          "href" : "https://api.spotify.com/v1/artists/0LyfQWJT6nXafLPZqxe9Of",
          "id" : "0LyfQWJT6nXafLPZqxe9Of",
          "name" : "Various Artists",
          "type" : "artist",
          "uri" : "spotify:artist:0LyfQWJT6nXafLPZqxe9Of"
        } ],
        "external_urls" : {
          "spotify" : "https://open.spotify.com/album/3Hn3LiIjceL3FfiXoGh3A2"
        },
        "href" : "https://api.spotify.com/v1/albums/3Hn3LiIjceL3FfiXoGh3A2",
        "id" : "3Hn3LiIjceL3FfiXoGh3A2",
        "images" : [ {
          "height" : 640,
          "url" : "https://i.scdn.co/image/ab67616d0000b273a37f23f7ff2bc622aa66616b",
          "width" : 640
        }, {
          "height" : 300,
          "url" : "https://i.scdn.co/image/ab67616d00001e02a37f23f7ff2bc622aa66616b",
          "width" : 300
        }, {
          "height" : 64,
          "url" : "https://i.scdn.co/image/ab67616d00004851a37f23f7ff2bc622aa66616b",
          "width" : 64
        } ],
        "name" : "The Spirit Of Christmas",
        "release_date" : "2003-01-01",
        "release_date_precision" : "day",
        "total_tracks" : 31,
        "type" : "album",
        "uri" : "spotify:album:3Hn3LiIjceL3FfiXoGh3A2"
      },
      "artists" : [ {
        "external_urls" : {
          "spotify" : "https://open.spotify.com/artist/49xEKLfNLxBTboO6UwuSPH"
        },
        "href" : "https://api.spotify.com/v1/artists/49xEKLfNLxBTboO6UwuSPH",
        "id" : "49xEKLfNLxBTboO6UwuSPH",
        "name" : "The Majesty And Glory Performers",
        "type" : "artist",
        "uri" : "spotify:artist:49xEKLfNLxBTboO6UwuSPH"
      } ],
      "disc_number" : 2,
      "duration_ms" : 65733,
      "explicit" : false,
      "external_ids" : {
        "isrc" : "USSP39047484"
      },
      "external_urls" : {
        "spotify" : "https://open.spotify.com/track/1muB3uTFhyyJoGqI697Bzj"
      },
      "href" : "https://api.spotify.com/v1/tracks/1muB3uTFhyyJoGqI697Bzj",
      "id" : "1muB3uTFhyyJoGqI697Bzj",
      "is_local" : false,
      "is_playable" : true,
      "name" : "Thou Didst Leave Thy Throne",
      "popularity" : 0,
      "preview_url" : null,
      "track_number" : 3,
      "type" : "track",
      "uri" : "spotify:track:1muB3uTFhyyJoGqI697Bzj"
    }, {
      "album" : {
        "album_type" : "album",
        "artists" : [ {
          "external_urls" : {
            "spotify" : "https://open.spotify.com/artist/0XOGhQGVg5HkdudMPgyqYj"
          },
          "href" : "https://api.spotify.com/v1/artists/0XOGhQGVg5HkdudMPgyqYj",
          "id" : "0XOGhQGVg5HkdudMPgyqYj",
          "name" : "George Beverly Shea",
          "type" : "artist",
          "uri" : "spotify:artist:0XOGhQGVg5HkdudMPgyqYj"
        } ],
        "external_urls" : {
          "spotify" : "https://open.spotify.com/album/3jIryJ0F3DJX6ijswPLdHU"
        },
        "href" : "https://api.spotify.com/v1/albums/3jIryJ0F3DJX6ijswPLdHU",
        "id" : "3jIryJ0F3DJX6ijswPLdHU",
        "images" : [ {
          "height" : 640,
          "url" : "https://i.scdn.co/image/ab67616d0000b273e5db89fdbe5ab5cbb3920bcc",
          "width" : 640
        }, {
          "height" : 300,
          "url" : "https://i.scdn.co/image/ab67616d00001e02e5db89fdbe5ab5cbb3920bcc",
          "width" : 300
        }, {
          "height" : 64,
          "url" : "https://i.scdn.co/image/ab67616d00004851e5db89fdbe5ab5cbb3920bcc",
          "width" : 64
        } ],
        "name" : "A George Beverly Shea Christmas",
        "release_date" : "2001-09-11",
        "release_date_precision" : "day",
        "total_tracks" : 20,
        "type" : "album",
        "uri" : "spotify:album:3jIryJ0F3DJX6ijswPLdHU"
      },
      "artists" : [ {
        "external_urls" : {
          "spotify" : "https://open.spotify.com/artist/0XOGhQGVg5HkdudMPgyqYj"
        },
        "href" : "https://api.spotify.com/v1/artists/0XOGhQGVg5HkdudMPgyqYj",
        "id" : "0XOGhQGVg5HkdudMPgyqYj",
        "name" : "George Beverly Shea",
        "type" : "artist",
        "uri" : "spotify:artist:0XOGhQGVg5HkdudMPgyqYj"
      } ],
      "disc_number" : 1,
      "duration_ms" : 162973,
      "explicit" : false,
      "external_ids" : {
        "isrc" : "USRC10101156"
      },
      "external_urls" : {
        "spotify" : "https://open.spotify.com/track/1oshsPZsKVijB5mQOxuf24"
      },
      "href" : "https://api.spotify.com/v1/tracks/1oshsPZsKVijB5mQOxuf24",
      "id" : "1oshsPZsKVijB5mQOxuf24",
      "is_local" : false,
      "is_playable" : true,
      "name" : "Thou Didst Leave Thy Throne",
      "popularity" : 1,
      "preview_url" : "https://p.scdn.co/mp3-preview/5414f243face91050c5f86943413479dad0e9380?cid=774b29d4f13844c495f206cafdad9c86",
      "track_number" : 13,
      "type" : "track",
      "uri" : "spotify:track:1oshsPZsKVijB5mQOxuf24"
    }, {
      "album" : {
        "album_type" : "album",
        "artists" : [ {
          "external_urls" : {
            "spotify" : "https://open.spotify.com/artist/7zX3dyZt1sV49iXvJh7N0E"
          },
          "href" : "https://api.spotify.com/v1/artists/7zX3dyZt1sV49iXvJh7N0E",
          "id" : "7zX3dyZt1sV49iXvJh7N0E",
          "name" : "Chichester Cathedral Choir",
          "type" : "artist",
          "uri" : "spotify:artist:7zX3dyZt1sV49iXvJh7N0E"
        } ],
        "external_urls" : {
          "spotify" : "https://open.spotify.com/album/6Z0MWENblnOV7U2aSXgHxn"
        },
        "href" : "https://api.spotify.com/v1/albums/6Z0MWENblnOV7U2aSXgHxn",
        "id" : "6Z0MWENblnOV7U2aSXgHxn",
        "images" : [ {
          "height" : 640,
          "url" : "https://i.scdn.co/image/ab67616d0000b273b2b23eb54a0ee8357140143a",
          "width" : 640
        }, {
          "height" : 300,
          "url" : "https://i.scdn.co/image/ab67616d00001e02b2b23eb54a0ee8357140143a",
          "width" : 300
        }, {
          "height" : 64,
          "url" : "https://i.scdn.co/image/ab67616d00004851b2b23eb54a0ee8357140143a",
          "width" : 64
        } ],
        "name" : "20 Choral Christmas Favorites",
        "release_date" : "2004",
        "release_date_precision" : "year",
        "total_tracks" : 20,
        "type" : "album",
        "uri" : "spotify:album:6Z0MWENblnOV7U2aSXgHxn"
      },
      "artists" : [ {
        "external_urls" : {
          "spotify" : "https://open.spotify.com/artist/7zX3dyZt1sV49iXvJh7N0E"
        },
        "href" : "https://api.spotify.com/v1/artists/7zX3dyZt1sV49iXvJh7N0E",
        "id" : "7zX3dyZt1sV49iXvJh7N0E",
        "name" : "Chichester Cathedral Choir",
        "type" : "artist",
        "uri" : "spotify:artist:7zX3dyZt1sV49iXvJh7N0E"
      } ],
      "disc_number" : 1,
      "duration_ms" : 94880,
      "explicit" : false,
      "external_ids" : {
        "isrc" : "GBCEU0438109"
      },
      "external_urls" : {
        "spotify" : "https://open.spotify.com/track/1zx66cczDzEGjfKx2k0U3L"
      },
      "href" : "https://api.spotify.com/v1/tracks/1zx66cczDzEGjfKx2k0U3L",
      "id" : "1zx66cczDzEGjfKx2k0U3L",
      "is_local" : false,
      "is_playable" : true,
      "name" : "Thou Didst Leave Thy Throne",
      "popularity" : 0,
      "preview_url" : "https://p.scdn.co/mp3-preview/5ea148ec4048335ffe41b8a21979cd725f37c9f6?cid=774b29d4f13844c495f206cafdad9c86",
      "track_number" : 9,
      "type" : "track",
      "uri" : "spotify:track:1zx66cczDzEGjfKx2k0U3L"
    }, {
      "album" : {
        "album_type" : "album",
        "artists" : [ {
          "external_urls" : {
            "spotify" : "https://open.spotify.com/artist/082LRidCVxLoe4oFxIu3uv"
          },
          "href" : "https://api.spotify.com/v1/artists/082LRidCVxLoe4oFxIu3uv",
          "id" : "082LRidCVxLoe4oFxIu3uv",
          "name" : "Linda McKechnie",
          "type" : "artist",
          "uri" : "spotify:artist:082LRidCVxLoe4oFxIu3uv"
        } ],
        "external_urls" : {
          "spotify" : "https://open.spotify.com/album/5EbvG7cG4UtFzlnCvgkMq5"
        },
        "href" : "https://api.spotify.com/v1/albums/5EbvG7cG4UtFzlnCvgkMq5",
        "id" : "5EbvG7cG4UtFzlnCvgkMq5",
        "images" : [ {
          "height" : 640,
          "url" : "https://i.scdn.co/image/ab67616d0000b273b0824fa709a18b5a26bf99d9",
          "width" : 640
        }, {
          "height" : 300,
          "url" : "https://i.scdn.co/image/ab67616d00001e02b0824fa709a18b5a26bf99d9",
          "width" : 300
        }, {
          "height" : 64,
          "url" : "https://i.scdn.co/image/ab67616d00004851b0824fa709a18b5a26bf99d9",
          "width" : 64
        } ],
        "name" : "Christmas Collage",
        "release_date" : "2007-10-31",
        "release_date_precision" : "day",
        "total_tracks" : 12,
        "type" : "album",
        "uri" : "spotify:album:5EbvG7cG4UtFzlnCvgkMq5"
      },
      "artists" : [ {
        "external_urls" : {
          "spotify" : "https://open.spotify.com/artist/082LRidCVxLoe4oFxIu3uv"
        },
        "href" : "https://api.spotify.com/v1/artists/082LRidCVxLoe4oFxIu3uv",
        "id" : "082LRidCVxLoe4oFxIu3uv",
        "name" : "Linda McKechnie",
        "type" : "artist",
        "uri" : "spotify:artist:082LRidCVxLoe4oFxIu3uv"
      } ],
      "disc_number" : 1,
      "duration_ms" : 245840,
      "explicit" : false,
      "external_ids" : {
        "isrc" : "USACX1302674"
      },
      "external_urls" : {
        "spotify" : "https://open.spotify.com/track/4OMyVUDf5pWQjSrT8qbIxO"
      },
      "href" : "https://api.spotify.com/v1/tracks/4OMyVUDf5pWQjSrT8qbIxO",
      "id" : "4OMyVUDf5pWQjSrT8qbIxO",
      "is_local" : false,
      "is_playable" : true,
      "name" : "Thou Didst Leave Thy Throne",
      "popularity" : 2,
      "preview_url" : "https://p.scdn.co/mp3-preview/3395219ede864185bfba335009b833727cbe0e03?cid=774b29d4f13844c495f206cafdad9c86",
      "track_number" : 12,
      "type" : "track",
      "uri" : "spotify:track:4OMyVUDf5pWQjSrT8qbIxO"
    }, {
      "album" : {
        "album_type" : "album",
        "artists" : [ {
          "external_urls" : {
            "spotify" : "https://open.spotify.com/artist/258Dm9AVtfbZA1w7gnEtzq"
          },
          "href" : "https://api.spotify.com/v1/artists/258Dm9AVtfbZA1w7gnEtzq",
          "id" : "258Dm9AVtfbZA1w7gnEtzq",
          "name" : "Kim Mitzo Thompson",
          "type" : "artist",
          "uri" : "spotify:artist:258Dm9AVtfbZA1w7gnEtzq"
        } ],
        "external_urls" : {
          "spotify" : "https://open.spotify.com/album/7jLOA2UJMAjgC96dbSv6qJ"
        },
        "href" : "https://api.spotify.com/v1/albums/7jLOA2UJMAjgC96dbSv6qJ",
        "id" : "7jLOA2UJMAjgC96dbSv6qJ",
        "images" : [ {
          "height" : 640,
          "url" : "https://i.scdn.co/image/ab67616d0000b2737a6b56981fe900b84c7ea117",
          "width" : 640
        }, {
          "height" : 300,
          "url" : "https://i.scdn.co/image/ab67616d00001e027a6b56981fe900b84c7ea117",
          "width" : 300
        }, {
          "height" : 64,
          "url" : "https://i.scdn.co/image/ab67616d000048517a6b56981fe900b84c7ea117",
          "width" : 64
        } ],
        "name" : "Christmas Treasures",
        "release_date" : "2012-12-18",
        "release_date_precision" : "day",
        "total_tracks" : 24,
        "type" : "album",
        "uri" : "spotify:album:7jLOA2UJMAjgC96dbSv6qJ"
      },
      "artists" : [ {
        "external_urls" : {
          "spotify" : "https://open.spotify.com/artist/258Dm9AVtfbZA1w7gnEtzq"
        },
        "href" : "https://api.spotify.com/v1/artists/258Dm9AVtfbZA1w7gnEtzq",
        "id" : "258Dm9AVtfbZA1w7gnEtzq",
        "name" : "Kim Mitzo Thompson",
        "type" : "artist",
        "uri" : "spotify:artist:258Dm9AVtfbZA1w7gnEtzq"
      } ],
      "disc_number" : 1,
      "duration_ms" : 76300,
      "explicit" : false,
      "external_ids" : {
        "isrc" : "FR6V81518706"
      },
      "external_urls" : {
        "spotify" : "https://open.spotify.com/track/6UXqleyy7rSXPUqgmI32VH"
      },
      "href" : "https://api.spotify.com/v1/tracks/6UXqleyy7rSXPUqgmI32VH",
      "id" : "6UXqleyy7rSXPUqgmI32VH",
      "is_local" : false,
      "is_playable" : true,
      "name" : "Thou Didst Leave Thy Throne",
      "popularity" : 0,
      "preview_url" : "https://p.scdn.co/mp3-preview/9cb82f727dd57a03f1ce89b0b542d930b58dcfbf?cid=774b29d4f13844c495f206cafdad9c86",
      "track_number" : 23,
      "type" : "track",
      "uri" : "spotify:track:6UXqleyy7rSXPUqgmI32VH"
    }, {
      "album" : {
        "album_type" : "album",
        "artists" : [ {
          "external_urls" : {
            "spotify" : "https://open.spotify.com/artist/3Ohk4LUTx4Ch1W2lm1gDq4"
          },
          "href" : "https://api.spotify.com/v1/artists/3Ohk4LUTx4Ch1W2lm1gDq4",
          "id" : "3Ohk4LUTx4Ch1W2lm1gDq4",
          "name" : "Linda McKechnie & The Don Marsh Orchestra",
          "type" : "artist",
          "uri" : "spotify:artist:3Ohk4LUTx4Ch1W2lm1gDq4"
        } ],
        "external_urls" : {
          "spotify" : "https://open.spotify.com/album/551dwHsNaj1osKuGHy57Oi"
        },
        "href" : "https://api.spotify.com/v1/albums/551dwHsNaj1osKuGHy57Oi",
        "id" : "551dwHsNaj1osKuGHy57Oi",
        "images" : [ {
          "height" : 640,
          "url" : "https://i.scdn.co/image/ab67616d0000b27318926989e9e3ca19eee92946",
          "width" : 640
        }, {
          "height" : 300,
          "url" : "https://i.scdn.co/image/ab67616d00001e0218926989e9e3ca19eee92946",
          "width" : 300
        }, {
          "height" : 64,
          "url" : "https://i.scdn.co/image/ab67616d0000485118926989e9e3ca19eee92946",
          "width" : 64
        } ],
        "name" : "Rhapsody of Christmas, Vol. 1",
        "release_date" : "2010-12-01",
        "release_date_precision" : "day",
        "total_tracks" : 12,
        "type" : "album",
        "uri" : "spotify:album:551dwHsNaj1osKuGHy57Oi"
      },
      "artists" : [ {
        "external_urls" : {
          "spotify" : "https://open.spotify.com/artist/082LRidCVxLoe4oFxIu3uv"
        },
        "href" : "https://api.spotify.com/v1/artists/082LRidCVxLoe4oFxIu3uv",
        "id" : "082LRidCVxLoe4oFxIu3uv",
        "name" : "Linda McKechnie",
        "type" : "artist",
        "uri" : "spotify:artist:082LRidCVxLoe4oFxIu3uv"
      } ],
      "disc_number" : 1,
      "duration_ms" : 246280,
      "explicit" : false,
      "external_ids" : {
        "isrc" : "uscgj1385110"
      },
      "external_urls" : {
        "spotify" : "https://open.spotify.com/track/1IFuflHLgqVn03tnaMQ8dv"
      },
      "href" : "https://api.spotify.com/v1/tracks/1IFuflHLgqVn03tnaMQ8dv",
      "id" : "1IFuflHLgqVn03tnaMQ8dv",
      "is_local" : false,
      "is_playable" : true,
      "name" : "Thou Didst Leave Thy Throne",
      "popularity" : 0,
      "preview_url" : "https://p.scdn.co/mp3-preview/3d2d06ec8e0909a8aac0de6e582f783bfaf2b9cb?cid=774b29d4f13844c495f206cafdad9c86",
      "track_number" : 12,
      "type" : "track",
      "uri" : "spotify:track:1IFuflHLgqVn03tnaMQ8dv"
    }, {
      "album" : {
        "album_type" : "album",
        "artists" : [ {
          "external_urls" : {
            "spotify" : "https://open.spotify.com/artist/1mmySIC8yK07j45SHfySfM"
          },
          "href" : "https://api.spotify.com/v1/artists/1mmySIC8yK07j45SHfySfM",
          "id" : "1mmySIC8yK07j45SHfySfM",
          "name" : "Studio Musicians",
          "type" : "artist",
          "uri" : "spotify:artist:1mmySIC8yK07j45SHfySfM"
        } ],
        "external_urls" : {
          "spotify" : "https://open.spotify.com/album/7xFL3wBBEoYQxhnchSR2nI"
        },
        "href" : "https://api.spotify.com/v1/albums/7xFL3wBBEoYQxhnchSR2nI",
        "id" : "7xFL3wBBEoYQxhnchSR2nI",
        "images" : [ {
          "height" : 640,
          "url" : "https://i.scdn.co/image/ab67616d0000b273155c3ec356e758890bfbc583",
          "width" : 640
        }, {
          "height" : 300,
          "url" : "https://i.scdn.co/image/ab67616d00001e02155c3ec356e758890bfbc583",
          "width" : 300
        }, {
          "height" : 64,
          "url" : "https://i.scdn.co/image/ab67616d00004851155c3ec356e758890bfbc583",
          "width" : 64
        } ],
        "name" : "A Cappella Hymns, Vol. 2",
        "release_date" : "1989",
        "release_date_precision" : "year",
        "total_tracks" : 20,
        "type" : "album",
        "uri" : "spotify:album:7xFL3wBBEoYQxhnchSR2nI"
      },
      "artists" : [ {
        "external_urls" : {
          "spotify" : "https://open.spotify.com/artist/1mmySIC8yK07j45SHfySfM"
        },
        "href" : "https://api.spotify.com/v1/artists/1mmySIC8yK07j45SHfySfM",
        "id" : "1mmySIC8yK07j45SHfySfM",
        "name" : "Studio Musicians",
        "type" : "artist",
        "uri" : "spotify:artist:1mmySIC8yK07j45SHfySfM"
      } ],
      "disc_number" : 1,
      "duration_ms" : 132893,
      "explicit" : false,
      "external_ids" : {
        "isrc" : "USA5W0403693"
      },
      "external_urls" : {
        "spotify" : "https://open.spotify.com/track/1VjZHyoxHeIyBDw53TFWvh"
      },
      "href" : "https://api.spotify.com/v1/tracks/1VjZHyoxHeIyBDw53TFWvh",
      "id" : "1VjZHyoxHeIyBDw53TFWvh",
      "is_local" : false,
      "is_playable" : true,
      "name" : "Thou Didst Leave Thy Throne",
      "popularity" : 1,
      "preview_url" : "https://p.scdn.co/mp3-preview/4d2843d54657130af6b80560281048b644ba44d0?cid=774b29d4f13844c495f206cafdad9c86",
      "track_number" : 16,
      "type" : "track",
      "uri" : "spotify:track:1VjZHyoxHeIyBDw53TFWvh"
    }, {
      "album" : {
        "album_type" : "album",
        "artists" : [ {
          "external_urls" : {
            "spotify" : "https://open.spotify.com/artist/4HB2Cf6OT5IaDJaUy43zfv"
          },
          "href" : "https://api.spotify.com/v1/artists/4HB2Cf6OT5IaDJaUy43zfv",
          "id" : "4HB2Cf6OT5IaDJaUy43zfv",
          "name" : "Leah J",
          "type" : "artist",
          "uri" : "spotify:artist:4HB2Cf6OT5IaDJaUy43zfv"
        } ],
        "external_urls" : {
          "spotify" : "https://open.spotify.com/album/332cPjsHyRiESeLifDrxiU"
        },
        "href" : "https://api.spotify.com/v1/albums/332cPjsHyRiESeLifDrxiU",
        "id" : "332cPjsHyRiESeLifDrxiU",
        "images" : [ {
          "height" : 640,
          "url" : "https://i.scdn.co/image/ab67616d0000b273b447e3b9c7526db5f22077a3",
          "width" : 640
        }, {
          "height" : 300,
          "url" : "https://i.scdn.co/image/ab67616d00001e02b447e3b9c7526db5f22077a3",
          "width" : 300
        }, {
          "height" : 64,
          "url" : "https://i.scdn.co/image/ab67616d00004851b447e3b9c7526db5f22077a3",
          "width" : 64
        } ],
        "name" : "There Is Room: The Log Cabin Sessions",
        "release_date" : "2013-10-24",
        "release_date_precision" : "day",
        "total_tracks" : 11,
        "type" : "album",
        "uri" : "spotify:album:332cPjsHyRiESeLifDrxiU"
      },
      "artists" : [ {
        "external_urls" : {
          "spotify" : "https://open.spotify.com/artist/4HB2Cf6OT5IaDJaUy43zfv"
        },
        "href" : "https://api.spotify.com/v1/artists/4HB2Cf6OT5IaDJaUy43zfv",
        "id" : "4HB2Cf6OT5IaDJaUy43zfv",
        "name" : "Leah J",
        "type" : "artist",
        "uri" : "spotify:artist:4HB2Cf6OT5IaDJaUy43zfv"
      } ],
      "disc_number" : 1,
      "duration_ms" : 205665,
      "explicit" : false,
      "external_ids" : {
        "isrc" : "USDHM1322522"
      },
      "external_urls" : {
        "spotify" : "https://open.spotify.com/track/1m3sMC01sIKBeZs5UsNpz2"
      },
      "href" : "https://api.spotify.com/v1/tracks/1m3sMC01sIKBeZs5UsNpz2",
      "id" : "1m3sMC01sIKBeZs5UsNpz2",
      "is_local" : false,
      "is_playable" : true,
      "name" : "Thou Didst Leave Thy Throne",
      "popularity" : 0,
      "preview_url" : "https://p.scdn.co/mp3-preview/92d62b2a395a988f549527c242b2b62aa0872a05?cid=774b29d4f13844c495f206cafdad9c86",
      "track_number" : 10,
      "type" : "track",
      "uri" : "spotify:track:1m3sMC01sIKBeZs5UsNpz2"
    } ],
    "limit" : 10,
    "next" : "https://api.spotify.com/v1/search?query=Thou+Didst+Leave+Thy+Throne&type=track&market=US&offset=15&limit=10",
    "offset" : 5,
    "previous" : "https://api.spotify.com/v1/search?query=Thou+Didst+Leave+Thy+Throne&type=track&market=US&offset=0&limit=10",
    "total" : 111
  }
}