{
  "tracks" : {
    "href" : "https://api.spotify.com/v1/search?query=Open+My+Eyes+That+I+May+See&type=track&market=US&offset=5&limit=10",
    "items" : [ {
      "album" : {
        "album_type" : "album",
        "artists" : [ {
          "external_urls" : {
            "spotify" : "https://open.spotify.com/artist/0SU9IFM3LlU6ChkZsvbW5i"
          },
          "href" : "https://api.spotify.com/v1/artists/0SU9IFM3LlU6ChkZsvbW5i",
          "id" : "0SU9IFM3LlU6ChkZsvbW5i",
          "name" : "Joseph Prince",
          "type" : "artist",
          "uri" : "spotify:artist:0SU9IFM3LlU6ChkZsvbW5i"
        } ],
        "external_urls" : {
          "spotify" : "https://open.spotify.com/album/12ocNVQ3EQ0DvZNQx6XuL8"
        },
        "href" : "https://api.spotify.com/v1/albums/12ocNVQ3EQ0DvZNQx6XuL8",
        "id" : "12ocNVQ3EQ0DvZNQx6XuL8",
        "images" : [ {
          "height" : 640,
          "url" : "https://i.scdn.co/image/ab67616d0000b273712871ad6d080835e1fb8402",
          "width" : 640
        }, {
          "height" : 300,
          "url" : "https://i.scdn.co/image/ab67616d00001e02712871ad6d080835e1fb8402",
          "width" : 300
        }, {
          "height" : 64,
          "url" : "https://i.scdn.co/image/ab67616d00004851712871ad6d080835e1fb8402",
          "width" : 64
        } ],
        "name" : "Here Is Love",
        "release_date" : "2011-12-01",
        "release_date_precision" : "day",
        "total_tracks" : 15,
        "type" : "album",
        "uri" : "spotify:album:12ocNVQ3EQ0DvZNQx6XuL8"
      },
      "artists" : [ {
        "external_urls" : {
          "spotify" : "https://open.spotify.com/artist/0SU9IFM3LlU6ChkZsvbW5i"
        },
        "href" : "https://api.spotify.com/v1/artists/0SU9IFM3LlU6ChkZsvbW5i",
        "id" : "0SU9IFM3LlU6ChkZsvbW5i",
        "name" : "Joseph Prince",
        "type" : "artist",
        "uri" : "spotify:artist:0SU9IFM3LlU6ChkZsvbW5i"
      } ],
      "disc_number" : 1,
      "duration_ms" : 222303,
      "explicit" : false,
      "external_ids" : {
        "isrc" : "usx9p1147133"
      },
      "external_urls" : {
        "spotify" : "https://open.spotify.com/track/5C0Uj4YEwWpX1bKqaS6gwB"
      },
      "href" : "https://api.spotify.com/v1/tracks/5C0Uj4YEwWpX1bKqaS6gwB",
      "id" : "5C0Uj4YEwWpX1bKqaS6gwB",
      "is_local" : false,
      "is_playable" : true,
      "name" : "Open My Eyes That I May See",
      "popularity" : 15,
      "preview_url" : "https://p.scdn.co/mp3-preview/cf1e88c52fdab72d9dee5be43c1d0edd88fe9277?cid=774b29d4f13844c495f206cafdad9c86",
      "track_number" : 10,
      "type" : "track",
      "uri" : "spotify:track:5C0Uj4YEwWpX1bKqaS6gwB"
    }, {
      "album" : {
        "album_type" : "album",
        "artists" : [ {
          "external_urls" : {
            "spotify" : "https://open.spotify.com/artist/1JIAVlXIuqqarZIT5vt5NQ"
          },
          "href" : "https://api.spotify.com/v1/artists/1JIAVlXIuqqarZIT5vt5NQ",
          "id" : "1JIAVlXIuqqarZIT5vt5NQ",
          "name" : "Terri Geisel",
          "type" : "artist",
          "uri" : "spotify:artist:1JIAVlXIuqqarZIT5vt5NQ"
        } ],
        "external_urls" : {
          "spotify" : "https://open.spotify.com/album/6UmP7L8jk00FPbKeKTJbNf"
        },
        "href" : "https://api.spotify.com/v1/albums/6UmP7L8jk00FPbKeKTJbNf",
        "id" : "6UmP7L8jk00FPbKeKTJbNf",
        "images" : [ {
          "height" : 640,
          "url" : "https://i.scdn.co/image/ab67616d0000b2731111676251069b13daeee450",
          "width" : 640
        }, {
          "height" : 300,
          "url" : "https://i.scdn.co/image/ab67616d00001e021111676251069b13daeee450",
          "width" : 300
        }, {
          "height" : 64,
          "url" : "https://i.scdn.co/image/ab67616d000048511111676251069b13daeee450",
          "width" : 64
        } ],
        "name" : "Sweet Worship Hymns and Instrumental Soaking Prayer Music",
        "release_date" : "2015-01-15",
        "release_date_precision" : "day",
        "total_tracks" : 16,
        "type" : "album",
        "uri" : "spotify:album:6UmP7L8jk00FPbKeKTJbNf"
      },
      "artists" : [ {
        "external_urls" : {
          "spotify" : "https://open.spotify.com/artist/1JIAVlXIuqqarZIT5vt5NQ"
        },
        "href" : "https://api.spotify.com/v1/artists/1JIAVlXIuqqarZIT5vt5NQ",
        "id" : "1JIAVlXIuqqarZIT5vt5NQ",
        "name" : "Terri Geisel",
        "type" : "artist",
        "uri" : "spotify:artist:1JIAVlXIuqqarZIT5vt5NQ"
      } ],
      "disc_number" : 1,
      "duration_ms" : 147399,
      "explicit" : false,
      "external_ids" : {
        "isrc" : "TCACD1526859"
      },
      "external_urls" : {
        "spotify" : "https://open.spotify.com/track/1sbbiyDqQL5N0H5UavVz5v"
      },
      "href" : "https://api.spotify.com/v1/tracks/1sbbiyDqQL5N0H5UavVz5v",
      "id" : "1sbbiyDqQL5N0H5UavVz5v",
      "is_local" : false,
      "is_playable" : true,
      "name" : "Open My Eyes That I May See",
      "popularity" : 9,
      "preview_url" : "https://p.scdn.co/mp3-preview/1cb37beac3ed824e232260af681f3c91026f04dd?cid=774b29d4f13844c495f206cafdad9c86",
      "track_number" : 1,
      "type" : "track",
      "uri" : "spotify:track:1sbbiyDqQL5N0H5UavVz5v"
    }, {
      "album" : {
        "album_type" : "album",
        "artists" : [ {
          "external_urls" : {
            "spotify" : "https://open.spotify.com/artist/5ZwubZbVtEr49EpmJeUMVn"
          },
          "href" : "https://api.spotify.com/v1/artists/5ZwubZbVtEr49EpmJeUMVn",
          "id" : "5ZwubZbVtEr49EpmJeUMVn",
          "name" : "Littlepiano",
          "type" : "artist",
          "uri" : "spotify:artist:5ZwubZbVtEr49EpmJeUMVn"
        } ],
        "external_urls" : {
          "spotify" : "https://open.spotify.com/album/5QKt5zXKYHchC2gnFRGkmJ"
        },
        "href" : "https://api.spotify.com/v1/albums/5QKt5zXKYHchC2gnFRGkmJ",
        "id" : "5QKt5zXKYHchC2gnFRGkmJ",
        "images" : [ {
          "height" : 640,
          "url" : "https://i.scdn.co/image/ab67616d0000b27391170ccfd6770f992e33ab44",
          "width" : 640
        }, {
          "height" : 300,
          "url" : "https://i.scdn.co/image/ab67616d00001e0291170ccfd6770f992e33ab44",
          "width" : 300
        }, {
          "height" : 64,
          "url" : "https://i.scdn.co/image/ab67616d0000485191170ccfd6770f992e33ab44",
          "width" : 64
        } ],
        "name" : "My Little Piano Hymn 1 (Hymns for babies) (내 작은 피아노 찬송가 1 (아기에게 들려주고픈 찬송가))",
        "release_date" : "2014-07-29",
        "release_date_precision" : "day",
        "total_tracks" : 10,
        "type" : "album",
        "uri" : "spotify:album:5QKt5zXKYHchC2gnFRGkmJ"
      },
      "artists" : [ {
        "external_urls" : {
          "spotify" : "https://open.spotify.com/artist/5ZwubZbVtEr49EpmJeUMVn"
        },
        "href" : "https://api.spotify.com/v1/artists/5ZwubZbVtEr49EpmJeUMVn",
        "id" : "5ZwubZbVtEr49EpmJeUMVn",
        "name" : "Littlepiano",
        "type" : "artist",
        "uri" : "spotify:artist:5ZwubZbVtEr49EpmJeUMVn"
      } ],
      "disc_number" : 1,
      "duration_ms" : 132000,
      "explicit" : false,
      "external_ids" : {
        "isrc" : "KRB361434454"
      },
      "external_urls" : {
        "spotify" : "https://open.spotify.com/track/5zvhYTvcOL6gD1SxJ8CbFe"
      },
      "href" : "https://api.spotify.com/v1/tracks/5zvhYTvcOL6gD1SxJ8CbFe",
      "id" : "5zvhYTvcOL6gD1SxJ8CbFe",
      "is_local" : false,
      "is_playable" : true,
      "name" : "Open My Eyes, That I May See (어두운 내 눈 밝히사)",
      "popularity" : 5,
      "preview_url" : "https://p.scdn.co/mp3-preview/57478e7edfde7fca47eebc0f18df9c8f90710843?cid=774b29d4f13844c495f206cafdad9c86",
      "track_number" : 9,
      "type" : "track",
      "uri" : "spotify:track:5zvhYTvcOL6gD1SxJ8CbFe"
    }, {
      "album" : {
        "album_type" : "album",
        "artists" : [ {
          "external_urls" : {
            "spotify" : "https://open.spotify.com/artist/3jiQ4t07tyKTNkbp25Znjn"
          },
          "href" : "https://api.spotify.com/v1/artists/3jiQ4t07tyKTNkbp25Znjn",
          "id" : "3jiQ4t07tyKTNkbp25Znjn",
          "name" : "The Joslin Grove Choral Society",
          "type" : "artist",
          "uri" : "spotify:artist:3jiQ4t07tyKTNkbp25Znjn"
        } ],
        "external_urls" : {
          "spotify" : "https://open.spotify.com/album/5bvmUfdWdgk3mrS6eLqKlJ"
        },
        "href" : "https://api.spotify.com/v1/albums/5bvmUfdWdgk3mrS6eLqKlJ",
        "id" : "5bvmUfdWdgk3mrS6eLqKlJ",
        "images" : [ {
          "height" : 640,
          "url" : "https://i.scdn.co/image/ab67616d0000b273f1afc3d0f52a97498b68d35c",
          "width" : 640
        }, {
          "height" : 300,
          "url" : "https://i.scdn.co/image/ab67616d00001e02f1afc3d0f52a97498b68d35c",
          "width" : 300
        }, {
          "height" : 64,
          "url" : "https://i.scdn.co/image/ab67616d00004851f1afc3d0f52a97498b68d35c",
          "width" : 64
        } ],
        "name" : "100 Best Loved Hymns",
        "release_date" : "2015-02-03",
        "release_date_precision" : "day",
        "total_tracks" : 100,
        "type" : "album",
        "uri" : "spotify:album:5bvmUfdWdgk3mrS6eLqKlJ"
      },
      "artists" : [ {
        "external_urls" : {
          "spotify" : "https://open.spotify.com/artist/3jiQ4t07tyKTNkbp25Znjn"
        },
        "href" : "https://api.spotify.com/v1/artists/3jiQ4t07tyKTNkbp25Znjn",
        "id" : "3jiQ4t07tyKTNkbp25Znjn",
        "name" : "The Joslin Grove Choral Society",
        "type" : "artist",
        "uri" : "spotify:artist:3jiQ4t07tyKTNkbp25Znjn"
      } ],
      "disc_number" : 1,
      "duration_ms" : 119978,
      "explicit" : false,
      "external_ids" : {
        "isrc" : "CA6GH1300141"
      },
      "external_urls" : {
        "spotify" : "https://open.spotify.com/track/3Z3SYGgroQddLwSrpmH5F9"
      },
      "href" : "https://api.spotify.com/v1/tracks/3Z3SYGgroQddLwSrpmH5F9",
      "id" : "3Z3SYGgroQddLwSrpmH5F9",
      "is_local" : false,
      "is_playable" : true,
      "name" : "Open My Eyes That I May See",
      "popularity" : 6,
      "preview_url" : "https://p.scdn.co/mp3-preview/06f98712a3989f088877e931576a9f9308c06c6c?cid=774b29d4f13844c495f206cafdad9c86",
      "track_number" : 32,
      "type" : "track",
      "uri" : "spotify:track:3Z3SYGgroQddLwSrpmH5F9"
    }, {
      "album" : {
        "album_type" : "album",
        "artists" : [ {
          "external_urls" : {
            "spotify" : "https://open.spotify.com/artist/2x0QHABqKaBBvAOzvoevXJ"
          },
          "href" : "https://api.spotify.com/v1/artists/2x0QHABqKaBBvAOzvoevXJ",
          "id" : "2x0QHABqKaBBvAOzvoevXJ",
          "name" : "The Scottish Festival Singers",
          "type" : "artist",
          "uri" : "spotify:artist:2x0QHABqKaBBvAOzvoevXJ"
        } ],
        "external_urls" : {
          "spotify" : "https://open.spotify.com/album/3fwWlJeQVDoiIWqLbuDq4s"
        },
        "href" : "https://api.spotify.com/v1/albums/3fwWlJeQVDoiIWqLbuDq4s",
        "id" : "3fwWlJeQVDoiIWqLbuDq4s",
        "images" : [ {
          "height" : 640,
          "url" : "https://i.scdn.co/image/ab67616d0000b27363d0c7cb2dfc49f7543c0316",
          "width" : 640
        }, {
          "height" : 300,
          "url" : "https://i.scdn.co/image/ab67616d00001e0263d0c7cb2dfc49f7543c0316",
          "width" : 300
        }, {
          "height" : 64,
          "url" : "https://i.scdn.co/image/ab67616d0000485163d0c7cb2dfc49f7543c0316",
          "width" : 64
        } ],
        "name" : "Timeless Hymns, Vol. 10: I Love To Tell The Story",
        "release_date" : "2014-06-17",
        "release_date_precision" : "day",
        "total_tracks" : 14,
        "type" : "album",
        "uri" : "spotify:album:3fwWlJeQVDoiIWqLbuDq4s"
      },
      "artists" : [ {
        "external_urls" : {
          "spotify" : "https://open.spotify.com/artist/2x0QHABqKaBBvAOzvoevXJ"
        },
        "href" : "https://api.spotify.com/v1/artists/2x0QHABqKaBBvAOzvoevXJ",
        "id" : "2x0QHABqKaBBvAOzvoevXJ",
        "name" : "The Scottish Festival Singers",
        "type" : "artist",
        "uri" : "spotify:artist:2x0QHABqKaBBvAOzvoevXJ"
      } ],
      "disc_number" : 1,
      "duration_ms" : 175333,
      "explicit" : false,
      "external_ids" : {
        "isrc" : "USACX1400749"
      },
      "external_urls" : {
        "spotify" : "https://open.spotify.com/track/75MOZBl4KDiYfRYKHs9Azb"
      },
      "href" : "https://api.spotify.com/v1/tracks/75MOZBl4KDiYfRYKHs9Azb",
      "id" : "75MOZBl4KDiYfRYKHs9Azb",
      "is_local" : false,
      "is_playable" : true,
      "name" : "Open My Eyes That I May See",
      "popularity" : 7,
      "preview_url" : "https://p.scdn.co/mp3-preview/94daf730b7bce06e359d0fc701ac1298732c736c?cid=774b29d4f13844c495f206cafdad9c86",
      "track_number" : 14,
      "type" : "track",
      "uri" : "spotify:track:75MOZBl4KDiYfRYKHs9Azb"
    }, {
      "album" : {
        "album_type" : "album",
        "artists" : [ {
          "external_urls" : {
            "spotify" : "https://open.spotify.com/artist/1hGcCpJ2iiPKnPhKQXclWG"
          },
          "href" : "https://api.spotify.com/v1/artists/1hGcCpJ2iiPKnPhKQXclWG",
          "id" : "1hGcCpJ2iiPKnPhKQXclWG",
          "name" : "The Heralds",
          "type" : "artist",
          "uri" : "spotify:artist:1hGcCpJ2iiPKnPhKQXclWG"
        } ],
        "external_urls" : {
          "spotify" : "https://open.spotify.com/album/7LK0VRQJ53chv7hRSSik0N"
        },
        "href" : "https://api.spotify.com/v1/albums/7LK0VRQJ53chv7hRSSik0N",
        "id" : "7LK0VRQJ53chv7hRSSik0N",
        "images" : [ {
          "height" : 640,
          "url" : "https://i.scdn.co/image/ab67616d0000b27305e97abc274cc3849d5b4a98",
          "width" : 640
        }, {
          "height" : 300,
          "url" : "https://i.scdn.co/image/ab67616d00001e0205e97abc274cc3849d5b4a98",
          "width" : 300
        }, {
          "height" : 64,
          "url" : "https://i.scdn.co/image/ab67616d0000485105e97abc274cc3849d5b4a98",
          "width" : 64
        } ],
        "name" : "I Need Thee Every Hour",
        "release_date" : "1996-01-01",
        "release_date_precision" : "day",
        "total_tracks" : 12,
        "type" : "album",
        "uri" : "spotify:album:7LK0VRQJ53chv7hRSSik0N"
      },
      "artists" : [ {
        "external_urls" : {
          "spotify" : "https://open.spotify.com/artist/1hGcCpJ2iiPKnPhKQXclWG"
        },
        "href" : "https://api.spotify.com/v1/artists/1hGcCpJ2iiPKnPhKQXclWG",
        "id" : "1hGcCpJ2iiPKnPhKQXclWG",
        "name" : "The Heralds",
        "type" : "artist",
        "uri" : "spotify:artist:1hGcCpJ2iiPKnPhKQXclWG"
      } ],
      "disc_number" : 1,
      "duration_ms" : 276560,
      "explicit" : false,
      "external_ids" : {
        "isrc" : "ushm90802156"
      },
      "external_urls" : {
        "spotify" : "https://open.spotify.com/track/3toFYzUUgZzC4RLdqga2M5"
      },
      "href" : "https://api.spotify.com/v1/tracks/3toFYzUUgZzC4RLdqga2M5",
      "id" : "3toFYzUUgZzC4RLdqga2M5",
      "is_local" : false,
      "is_playable" : true,
      "name" : "Open My Eyes That I May See",
      "popularity" : 3,
      "preview_url" : "https://p.scdn.co/mp3-preview/3b2b0dce8f7e37be528b59c4a57d87e39cb98621?cid=774b29d4f13844c495f206cafdad9c86",
      "track_number" : 11,
      "type" : "track",
      "uri" : "spotify:track:3toFYzUUgZzC4RLdqga2M5"
    }, {
      "album" : {
        "album_type" : "album",
        "artists" : [ {
          "external_urls" : {
            "spotify" : "https://open.spotify.com/artist/0SMQbY8l9Mph9d8NLv92oh"
          },
          "href" : "https://api.spotify.com/v1/artists/0SMQbY8l9Mph9d8NLv92oh",
          "id" : "0SMQbY8l9Mph9d8NLv92oh",
          "name" : "RiNG-O choir",
          "type" : "artist",
          "uri" : "spotify:artist:0SMQbY8l9Mph9d8NLv92oh"
        } ],
        "external_urls" : {
          "spotify" : "https://open.spotify.com/album/73Gc30UzRtwwxvV6IJ4iYh"
        },
        "href" : "https://api.spotify.com/v1/albums/73Gc30UzRtwwxvV6IJ4iYh",
        "id" : "73Gc30UzRtwwxvV6IJ4iYh",
        "images" : [ {
          "height" : 640,
          "url" : "https://i.scdn.co/image/ab67616d0000b2734d4946b93a7d71d3dcd5c75b",
          "width" : 640
        }, {
          "height" : 300,
          "url" : "https://i.scdn.co/image/ab67616d00001e024d4946b93a7d71d3dcd5c75b",
          "width" : 300
        }, {
          "height" : 64,
          "url" : "https://i.scdn.co/image/ab67616d000048514d4946b93a7d71d3dcd5c75b",
          "width" : 64
        } ],
        "name" : "Beautiful Hymn Melodies vol.17",
        "release_date" : "2016-03-01",
        "release_date_precision" : "day",
        "total_tracks" : 10,
        "type" : "album",
        "uri" : "spotify:album:73Gc30UzRtwwxvV6IJ4iYh"
      },
      "artists" : [ {
        "external_urls" : {
          "spotify" : "https://open.spotify.com/artist/0SMQbY8l9Mph9d8NLv92oh"
        },
        "href" : "https://api.spotify.com/v1/artists/0SMQbY8l9Mph9d8NLv92oh",
        "id" : "0SMQbY8l9Mph9d8NLv92oh",
        "name" : "RiNG-O choir",
        "type" : "artist",
        "uri" : "spotify:artist:0SMQbY8l9Mph9d8NLv92oh"
      } ],
      "disc_number" : 1,
      "duration_ms" : 45524,
      "explicit" : false,
      "external_ids" : {
        "isrc" : "TCJPE1644389"
      },
      "external_urls" : {
        "spotify" : "https://open.spotify.com/track/4BnFw69JAgoUbttf5J9CKZ"
      },
      "href" : "https://api.spotify.com/v1/tracks/4BnFw69JAgoUbttf5J9CKZ",
      "id" : "4BnFw69JAgoUbttf5J9CKZ",
      "is_local" : false,
      "is_playable" : true,
      "name" : "Open My Eyes, That I May See",
      "popularity" : 0,
      "preview_url" : "https://p.scdn.co/mp3-preview/3d1a7cb5a8ec5c09bd99c3d419e343ef973242d8?cid=774b29d4f13844c495f206cafdad9c86",
      "track_number" : 9,
      "type" : "track",
      "uri" : "spotify:track:4BnFw69JAgoUbttf5J9CKZ"
    }, {
      "album" : {
        "album_type" : "album",
        "artists" : [ {
          "external_urls" : {
            "spotify" : "https://open.spotify.com/artist/3jiQ4t07tyKTNkbp25Znjn"
          },
          "href" : "https://api.spotify.com/v1/artists/3jiQ4t07tyKTNkbp25Znjn",
          "id" : "3jiQ4t07tyKTNkbp25Znjn",
          "name" : "The Joslin Grove Choral Society",
          "type" : "artist",
          "uri" : "spotify:artist:3jiQ4t07tyKTNkbp25Znjn"
        } ],
        "external_urls" : {
          "spotify" : "https://open.spotify.com/album/2vBvs7YtmJfCm2cTqo8blx"
        },
        "href" : "https://api.spotify.com/v1/albums/2vBvs7YtmJfCm2cTqo8blx",
        "id" : "2vBvs7YtmJfCm2cTqo8blx",
        "images" : [ {
          "height" : 640,
          "url" : "https://i.scdn.co/image/ab67616d0000b2739dd15548eb9d99d5276d55bf",
          "width" : 640
        }, {
          "height" : 300,
          "url" : "https://i.scdn.co/image/ab67616d00001e029dd15548eb9d99d5276d55bf",
          "width" : 300
        }, {
          "height" : 64,
          "url" : "https://i.scdn.co/image/ab67616d000048519dd15548eb9d99d5276d55bf",
          "width" : 64
        } ],
        "name" : "100 Best Loved Hymns",
        "release_date" : "2004-01-01",
        "release_date_precision" : "day",
        "total_tracks" : 100,
        "type" : "album",
        "uri" : "spotify:album:2vBvs7YtmJfCm2cTqo8blx"
      },
      "artists" : [ {
        "external_urls" : {
          "spotify" : "https://open.spotify.com/artist/3jiQ4t07tyKTNkbp25Znjn"
        },
        "href" : "https://api.spotify.com/v1/artists/3jiQ4t07tyKTNkbp25Znjn",
        "id" : "3jiQ4t07tyKTNkbp25Znjn",
        "name" : "The Joslin Grove Choral Society",
        "type" : "artist",
        "uri" : "spotify:artist:3jiQ4t07tyKTNkbp25Znjn"
      } ],
      "disc_number" : 1,
      "duration_ms" : 116440,
      "explicit" : false,
      "external_ids" : {
        "isrc" : "CAM460601795"
      },
      "external_urls" : {
        "spotify" : "https://open.spotify.com/track/5pbcgVo8KJq5R8zhtweFej"
      },
      "href" : "https://api.spotify.com/v1/tracks/5pbcgVo8KJq5R8zhtweFej",
      "id" : "5pbcgVo8KJq5R8zhtweFej",
      "is_local" : false,
      "is_playable" : true,
      "name" : "Open My Eyes That I May See",
      "popularity" : 1,
      "preview_url" : "https://p.scdn.co/mp3-preview/56d297592efeed34f28a48fe442abe7a7d4bd12b?cid=774b29d4f13844c495f206cafdad9c86",
      "track_number" : 32,
      "type" : "track",
      "uri" : "spotify:track:5pbcgVo8KJq5R8zhtweFej"
    }, {
      "album" : {
        "album_type" : "album",
        "artists" : [ {
          "external_urls" : {
            "spotify" : "https://open.spotify.com/artist/0rd7M5S6AdFkideaBtseOo"
          },
          "href" : "https://api.spotify.com/v1/artists/0rd7M5S6AdFkideaBtseOo",
          "id" : "0rd7M5S6AdFkideaBtseOo",
          "name" : "Deadbeat",
          "type" : "artist",
          "uri" : "spotify:artist:0rd7M5S6AdFkideaBtseOo"
        } ],
        "external_urls" : {
          "spotify" : "https://open.spotify.com/album/1W1i9OIZSvaMReucWhZVT6"
        },
        "href" : "https://api.spotify.com/v1/albums/1W1i9OIZSvaMReucWhZVT6",
        "id" : "1W1i9OIZSvaMReucWhZVT6",
        "images" : [ {
          "height" : 640,
          "url" : "https://i.scdn.co/image/ab67616d0000b2731d14fc123795c28d52df8945",
          "width" : 640
        }, {
          "height" : 300,
          "url" : "https://i.scdn.co/image/ab67616d00001e021d14fc123795c28d52df8945",
          "width" : 300
        }, {
          "height" : 64,
          "url" : "https://i.scdn.co/image/ab67616d000048511d14fc123795c28d52df8945",
          "width" : 64
        } ],
        "name" : "LPs 2002-2005",
        "release_date" : "2014-11-10",
        "release_date_precision" : "day",
        "total_tracks" : 29,
        "type" : "album",
        "uri" : "spotify:album:1W1i9OIZSvaMReucWhZVT6"
      },
      "artists" : [ {
        "external_urls" : {
          "spotify" : "https://open.spotify.com/artist/0rd7M5S6AdFkideaBtseOo"
        },
        "href" : "https://api.spotify.com/v1/artists/0rd7M5S6AdFkideaBtseOo",
        "id" : "0rd7M5S6AdFkideaBtseOo",
        "name" : "Deadbeat",
        "type" : "artist",
        "uri" : "spotify:artist:0rd7M5S6AdFkideaBtseOo"
      } ],
      "disc_number" : 1,
      "duration_ms" : 281823,
      "explicit" : false,
      "external_ids" : {
        "isrc" : "DEU671402138"
      },
      "external_urls" : {
        "spotify" : "https://open.spotify.com/track/1MPTK8uK2JvJmS0YkHZKfU"
      },
      "href" : "https://api.spotify.com/v1/tracks/1MPTK8uK2JvJmS0YkHZKfU",
      "id" : "1MPTK8uK2JvJmS0YkHZKfU",
      "is_local" : false,
      "is_playable" : true,
      "name" : "Open My Eyes that I May See",
      "popularity" : 6,
      "preview_url" : "https://p.scdn.co/mp3-preview/dea81f62cefffeded0eee14d6d59d17b1c3c35cf?cid=774b29d4f13844c495f206cafdad9c86",
      "track_number" : 1,
      "type" : "track",
      "uri" : "spotify:track:1MPTK8uK2JvJmS0YkHZKfU"
    }, {
      "album" : {
        "album_type" : "album",
        "artists" : [ {
          "external_urls" : {
            "spotify" : "https://open.spotify.com/artist/3jiQ4t07tyKTNkbp25Znjn"
          },
          "href" : "https://api.spotify.com/v1/artists/3jiQ4t07tyKTNkbp25Znjn",
          "id" : "3jiQ4t07tyKTNkbp25Znjn",
          "name" : "The Joslin Grove Choral Society",
          "type" : "artist",
          "uri" : "spotify:artist:3jiQ4t07tyKTNkbp25Znjn"
        } ],
        "external_urls" : {
          "spotify" : "https://open.spotify.com/album/7pMdhluygC3kzOvJfPdNle"
        },
        "href" : "https://api.spotify.com/v1/albums/7pMdhluygC3kzOvJfPdNle",
        "id" : "7pMdhluygC3kzOvJfPdNle",
        "images" : [ {
          "height" : 640,
          "url" : "https://i.scdn.co/image/ab67616d0000b27300b101d8a2f7fde39f05f27c",
          "width" : 640
        }, {
          "height" : 300,
          "url" : "https://i.scdn.co/image/ab67616d00001e0200b101d8a2f7fde39f05f27c",
          "width" : 300
        }, {
          "height" : 64,
          "url" : "https://i.scdn.co/image/ab67616d0000485100b101d8a2f7fde39f05f27c",
          "width" : 64
        } ],
        "name" : "The Joslin Grove Choral Society: Lift Every Voice…",
        "release_date" : "2010-03-30",
        "release_date_precision" : "day",
        "total_tracks" : 30,
        "type" : "album",
        "uri" : "spotify:album:7pMdhluygC3kzOvJfPdNle"
      },
      "artists" : [ {
        "external_urls" : {
          "spotify" : "https://open.spotify.com/artist/3jiQ4t07tyKTNkbp25Znjn"
        },
        "href" : "https://api.spotify.com/v1/artists/3jiQ4t07tyKTNkbp25Znjn",
        "id" : "3jiQ4t07tyKTNkbp25Znjn",
        "name" : "The Joslin Grove Choral Society",
        "type" : "artist",
        "uri" : "spotify:artist:3jiQ4t07tyKTNkbp25Znjn"
      } ],
      "disc_number" : 1,
      "duration_ms" : 116440,
      "explicit" : false,
      "external_ids" : {
        "isrc" : "CAM460601795"
      },
      "external_urls" : {
        "spotify" : "https://open.spotify.com/track/3eeBHZ77xYXA0psHk0QefN"
      },
      "href" : "https://api.spotify.com/v1/tracks/3eeBHZ77xYXA0psHk0QefN",
      "id" : "3eeBHZ77xYXA0psHk0QefN",
      "is_local" : false,
      "is_playable" : true,
      "name" : "Open My Eyes That I May See",
      "popularity" : 0,
      "preview_url" : "https://p.scdn.co/mp3-preview/8c058e57c1b414f55242373e978886f844a6f026?cid=774b29d4f13844c495f206cafdad9c86",
      "track_number" : 19,
      "type" : "track",
      "uri" : "spotify:track:3eeBHZ77xYXA0psHk0QefN"
    } ],
    "limit" : 10,
    "next" : "https://api.spotify.com/v1/search?query=Open+My+Eyes+That+I+May+See&type=track&market=US&offset=15&limit=10",
    "offset" : 5,
    "previous" : "https://api.spotify.com/v1/search?query=Open+My+Eyes+That+I+May+See&type=track&market=US&offset=0&limit=10",
    "total" : 75
  }
}