{
  "tracks" : {
    "href" : "https://api.spotify.com/v1/search?query=Children+of+the+Heavenly+Father&type=track&market=US&offset=5&limit=10",
    "items" : [ {
      "album" : {
        "album_type" : "album",
        "artists" : [ {
          "external_urls" : {
            "spotify" : "https://open.spotify.com/artist/3NNn7xQuYaZU8ZjDfDeIxj"
          },
          "href" : "https://api.spotify.com/v1/artists/3NNn7xQuYaZU8ZjDfDeIxj",
          "id" : "3NNn7xQuYaZU8ZjDfDeIxj",
          "name" : "Cedarmont Baby",
          "type" : "artist",
          "uri" : "spotify:artist:3NNn7xQuYaZU8ZjDfDeIxj"
        } ],
        "external_urls" : {
          "spotify" : "https://open.spotify.com/album/7ypK2pzEvbov0hNkceFwOa"
        },
        "href" : "https://api.spotify.com/v1/albums/7ypK2pzEvbov0hNkceFwOa",
        "id" : "7ypK2pzEvbov0hNkceFwOa",
        "images" : [ {
          "height" : 640,
          "url" : "https://i.scdn.co/image/ab67616d0000b27395f80557d4846d84bf1c1a6e",
          "width" : 640
        }, {
          "height" : 300,
          "url" : "https://i.scdn.co/image/ab67616d00001e0295f80557d4846d84bf1c1a6e",
          "width" : 300
        }, {
          "height" : 64,
          "url" : "https://i.scdn.co/image/ab67616d0000485195f80557d4846d84bf1c1a6e",
          "width" : 64
        } ],
        "name" : "Loving Lullabies",
        "release_date" : "2001",
        "release_date_precision" : "year",
        "total_tracks" : 15,
        "type" : "album",
        "uri" : "spotify:album:7ypK2pzEvbov0hNkceFwOa"
      },
      "artists" : [ {
        "external_urls" : {
          "spotify" : "https://open.spotify.com/artist/3NNn7xQuYaZU8ZjDfDeIxj"
        },
        "href" : "https://api.spotify.com/v1/artists/3NNn7xQuYaZU8ZjDfDeIxj",
        "id" : "3NNn7xQuYaZU8ZjDfDeIxj",
        "name" : "Cedarmont Baby",
        "type" : "artist",
        "uri" : "spotify:artist:3NNn7xQuYaZU8ZjDfDeIxj"
      } ],
      "disc_number" : 1,
      "duration_ms" : 115386,
      "explicit" : false,
      "external_ids" : {
        "isrc" : "USA5W0401205"
      },
      "external_urls" : {
        "spotify" : "https://open.spotify.com/track/3sSXnT3OyXHsJUNehsf6h1"
      },
      "href" : "https://api.spotify.com/v1/tracks/3sSXnT3OyXHsJUNehsf6h1",
      "id" : "3sSXnT3OyXHsJUNehsf6h1",
      "is_local" : false,
      "is_playable" : true,
      "name" : "Children Of The Heavenly Father",
      "popularity" : 16,
      "preview_url" : "https://p.scdn.co/mp3-preview/fc4819ec0d35bd83ada08a1fbaf98710b1dc327d?cid=774b29d4f13844c495f206cafdad9c86",
      "track_number" : 14,
      "type" : "track",
      "uri" : "spotify:track:3sSXnT3OyXHsJUNehsf6h1"
    }, {
      "album" : {
        "album_type" : "album",
        "artists" : [ {
          "external_urls" : {
            "spotify" : "https://open.spotify.com/artist/3lk8qatIcUand38OeCGxk9"
          },
          "href" : "https://api.spotify.com/v1/artists/3lk8qatIcUand38OeCGxk9",
          "id" : "3lk8qatIcUand38OeCGxk9",
          "name" : "Lorie Line",
          "type" : "artist",
          "uri" : "spotify:artist:3lk8qatIcUand38OeCGxk9"
        } ],
        "external_urls" : {
          "spotify" : "https://open.spotify.com/album/20Jw10efyelxPP3bre2w2J"
        },
        "href" : "https://api.spotify.com/v1/albums/20Jw10efyelxPP3bre2w2J",
        "id" : "20Jw10efyelxPP3bre2w2J",
        "images" : [ {
          "height" : 640,
          "url" : "https://i.scdn.co/image/ab67616d0000b2733fb68500e4396e4bc827ef9a",
          "width" : 640
        }, {
          "height" : 300,
          "url" : "https://i.scdn.co/image/ab67616d00001e023fb68500e4396e4bc827ef9a",
          "width" : 300
        }, {
          "height" : 64,
          "url" : "https://i.scdn.co/image/ab67616d000048513fb68500e4396e4bc827ef9a",
          "width" : 64
        } ],
        "name" : "The Heritage Collection, Volume I",
        "release_date" : "1994-09-22",
        "release_date_precision" : "day",
        "total_tracks" : 14,
        "type" : "album",
        "uri" : "spotify:album:20Jw10efyelxPP3bre2w2J"
      },
      "artists" : [ {
        "external_urls" : {
          "spotify" : "https://open.spotify.com/artist/3lk8qatIcUand38OeCGxk9"
        },
        "href" : "https://api.spotify.com/v1/artists/3lk8qatIcUand38OeCGxk9",
        "id" : "3lk8qatIcUand38OeCGxk9",
        "name" : "Lorie Line",
        "type" : "artist",
        "uri" : "spotify:artist:3lk8qatIcUand38OeCGxk9"
      } ],
      "disc_number" : 1,
      "duration_ms" : 180040,
      "explicit" : false,
      "external_ids" : {
        "isrc" : "QZDA61994113"
      },
      "external_urls" : {
        "spotify" : "https://open.spotify.com/track/4WVJI7yvsnwNPbbzkjZf7V"
      },
      "href" : "https://api.spotify.com/v1/tracks/4WVJI7yvsnwNPbbzkjZf7V",
      "id" : "4WVJI7yvsnwNPbbzkjZf7V",
      "is_local" : false,
      "is_playable" : true,
      "name" : "Children of the Heavenly Father",
      "popularity" : 12,
      "preview_url" : "https://p.scdn.co/mp3-preview/0fd22fd81c0ae6dcf4e6a37f879b6cf8e74917a8?cid=774b29d4f13844c495f206cafdad9c86",
      "track_number" : 2,
      "type" : "track",
      "uri" : "spotify:track:4WVJI7yvsnwNPbbzkjZf7V"
    }, {
      "album" : {
        "album_type" : "album",
        "artists" : [ {
          "external_urls" : {
            "spotify" : "https://open.spotify.com/artist/29WPT2yRUzUr2qmrzXgilw"
          },
          "href" : "https://api.spotify.com/v1/artists/29WPT2yRUzUr2qmrzXgilw",
          "id" : "29WPT2yRUzUr2qmrzXgilw",
          "name" : "Heidi O'Gara Jellison",
          "type" : "artist",
          "uri" : "spotify:artist:29WPT2yRUzUr2qmrzXgilw"
        } ],
        "external_urls" : {
          "spotify" : "https://open.spotify.com/album/1mJUzZG9DLEUVrJaafDlgk"
        },
        "href" : "https://api.spotify.com/v1/albums/1mJUzZG9DLEUVrJaafDlgk",
        "id" : "1mJUzZG9DLEUVrJaafDlgk",
        "images" : [ {
          "height" : 640,
          "url" : "https://i.scdn.co/image/ab67616d0000b2733603d78d99410c2d788971b0",
          "width" : 640
        }, {
          "height" : 300,
          "url" : "https://i.scdn.co/image/ab67616d00001e023603d78d99410c2d788971b0",
          "width" : 300
        }, {
          "height" : 64,
          "url" : "https://i.scdn.co/image/ab67616d000048513603d78d99410c2d788971b0",
          "width" : 64
        } ],
        "name" : "Fairest Lord Jesus - A Treasury of Hymns for Harp",
        "release_date" : "2007-04-24",
        "release_date_precision" : "day",
        "total_tracks" : 35,
        "type" : "album",
        "uri" : "spotify:album:1mJUzZG9DLEUVrJaafDlgk"
      },
      "artists" : [ {
        "external_urls" : {
          "spotify" : "https://open.spotify.com/artist/29WPT2yRUzUr2qmrzXgilw"
        },
        "href" : "https://api.spotify.com/v1/artists/29WPT2yRUzUr2qmrzXgilw",
        "id" : "29WPT2yRUzUr2qmrzXgilw",
        "name" : "Heidi O'Gara Jellison",
        "type" : "artist",
        "uri" : "spotify:artist:29WPT2yRUzUr2qmrzXgilw"
      } ],
      "disc_number" : 1,
      "duration_ms" : 136520,
      "explicit" : false,
      "external_ids" : {
        "isrc" : "USG5S1291308"
      },
      "external_urls" : {
        "spotify" : "https://open.spotify.com/track/3pcyRslLvz2WzyVAavDvND"
      },
      "href" : "https://api.spotify.com/v1/tracks/3pcyRslLvz2WzyVAavDvND",
      "id" : "3pcyRslLvz2WzyVAavDvND",
      "is_local" : false,
      "is_playable" : true,
      "name" : "Children of the Heavenly Father",
      "popularity" : 13,
      "preview_url" : "https://p.scdn.co/mp3-preview/732350b07bd031ecef7b097a866189c6df9f6ced?cid=774b29d4f13844c495f206cafdad9c86",
      "track_number" : 8,
      "type" : "track",
      "uri" : "spotify:track:3pcyRslLvz2WzyVAavDvND"
    }, {
      "album" : {
        "album_type" : "album",
        "artists" : [ {
          "external_urls" : {
            "spotify" : "https://open.spotify.com/artist/5EAAeAomSu7La5REQJhrUw"
          },
          "href" : "https://api.spotify.com/v1/artists/5EAAeAomSu7La5REQJhrUw",
          "id" : "5EAAeAomSu7La5REQJhrUw",
          "name" : "Jason Wright",
          "type" : "artist",
          "uri" : "spotify:artist:5EAAeAomSu7La5REQJhrUw"
        } ],
        "external_urls" : {
          "spotify" : "https://open.spotify.com/album/7uJlJ1oOxViTyBJBnuLPep"
        },
        "href" : "https://api.spotify.com/v1/albums/7uJlJ1oOxViTyBJBnuLPep",
        "id" : "7uJlJ1oOxViTyBJBnuLPep",
        "images" : [ {
          "height" : 640,
          "url" : "https://i.scdn.co/image/ab67616d0000b273ce229f287667a733994887da",
          "width" : 640
        }, {
          "height" : 300,
          "url" : "https://i.scdn.co/image/ab67616d00001e02ce229f287667a733994887da",
          "width" : 300
        }, {
          "height" : 64,
          "url" : "https://i.scdn.co/image/ab67616d00004851ce229f287667a733994887da",
          "width" : 64
        } ],
        "name" : "Heavenward",
        "release_date" : "2007-05-18",
        "release_date_precision" : "day",
        "total_tracks" : 15,
        "type" : "album",
        "uri" : "spotify:album:7uJlJ1oOxViTyBJBnuLPep"
      },
      "artists" : [ {
        "external_urls" : {
          "spotify" : "https://open.spotify.com/artist/5EAAeAomSu7La5REQJhrUw"
        },
        "href" : "https://api.spotify.com/v1/artists/5EAAeAomSu7La5REQJhrUw",
        "id" : "5EAAeAomSu7La5REQJhrUw",
        "name" : "Jason Wright",
        "type" : "artist",
        "uri" : "spotify:artist:5EAAeAomSu7La5REQJhrUw"
      } ],
      "disc_number" : 1,
      "duration_ms" : 203666,
      "explicit" : false,
      "external_ids" : {
        "isrc" : "usx7v0700008"
      },
      "external_urls" : {
        "spotify" : "https://open.spotify.com/track/2g1hcSBk4qYQF7uLFDWSSa"
      },
      "href" : "https://api.spotify.com/v1/tracks/2g1hcSBk4qYQF7uLFDWSSa",
      "id" : "2g1hcSBk4qYQF7uLFDWSSa",
      "is_local" : false,
      "is_playable" : true,
      "name" : "Children Of The Heavenly Father",
      "popularity" : 13,
      "preview_url" : "https://p.scdn.co/mp3-preview/e1e844b4195582e08c7da321914dd9d04b631399?cid=774b29d4f13844c495f206cafdad9c86",
      "track_number" : 8,
      "type" : "track",
      "uri" : "spotify:track:2g1hcSBk4qYQF7uLFDWSSa"
    }, {
      "album" : {
        "album_type" : "album",
        "artists" : [ {
          "external_urls" : {
            "spotify" : "https://open.spotify.com/artist/4hvxC9jjGCRselAm8kjvQf"
          },
          "href" : "https://api.spotify.com/v1/artists/4hvxC9jjGCRselAm8kjvQf",
          "id" : "4hvxC9jjGCRselAm8kjvQf",
          "name" : "The King Family",
          "type" : "artist",
          "uri" : "spotify:artist:4hvxC9jjGCRselAm8kjvQf"
        } ],
        "external_urls" : {
          "spotify" : "https://open.spotify.com/album/5ro2Pa04KxrNTdjmMYXwUe"
        },
        "href" : "https://api.spotify.com/v1/albums/5ro2Pa04KxrNTdjmMYXwUe",
        "id" : "5ro2Pa04KxrNTdjmMYXwUe",
        "images" : [ {
          "height" : 640,
          "url" : "https://i.scdn.co/image/ab67616d0000b27344a4c9de44ad787ed61f9270",
          "width" : 640
        }, {
          "height" : 300,
          "url" : "https://i.scdn.co/image/ab67616d00001e0244a4c9de44ad787ed61f9270",
          "width" : 300
        }, {
          "height" : 64,
          "url" : "https://i.scdn.co/image/ab67616d0000485144a4c9de44ad787ed61f9270",
          "width" : 64
        } ],
        "name" : "Faith to Carry On",
        "release_date" : "2017-11-17",
        "release_date_precision" : "day",
        "total_tracks" : 16,
        "type" : "album",
        "uri" : "spotify:album:5ro2Pa04KxrNTdjmMYXwUe"
      },
      "artists" : [ {
        "external_urls" : {
          "spotify" : "https://open.spotify.com/artist/4hvxC9jjGCRselAm8kjvQf"
        },
        "href" : "https://api.spotify.com/v1/artists/4hvxC9jjGCRselAm8kjvQf",
        "id" : "4hvxC9jjGCRselAm8kjvQf",
        "name" : "The King Family",
        "type" : "artist",
        "uri" : "spotify:artist:4hvxC9jjGCRselAm8kjvQf"
      } ],
      "disc_number" : 1,
      "duration_ms" : 141253,
      "explicit" : false,
      "external_ids" : {
        "isrc" : "ushm91799705"
      },
      "external_urls" : {
        "spotify" : "https://open.spotify.com/track/43dKz2EOl2EWCPQzmEczuW"
      },
      "href" : "https://api.spotify.com/v1/tracks/43dKz2EOl2EWCPQzmEczuW",
      "id" : "43dKz2EOl2EWCPQzmEczuW",
      "is_local" : false,
      "is_playable" : true,
      "name" : "Children of the Heavenly Father",
      "popularity" : 11,
      "preview_url" : "https://p.scdn.co/mp3-preview/8d14810fd2d96eec61d9aa247a3c72fc32da2b1f?cid=774b29d4f13844c495f206cafdad9c86",
      "track_number" : 6,
      "type" : "track",
      "uri" : "spotify:track:43dKz2EOl2EWCPQzmEczuW"
    }, {
      "album" : {
        "album_type" : "album",
        "artists" : [ {
          "external_urls" : {
            "spotify" : "https://open.spotify.com/artist/7hz41KzAPU4K0qUXDCc2ki"
          },
          "href" : "https://api.spotify.com/v1/artists/7hz41KzAPU4K0qUXDCc2ki",
          "id" : "7hz41KzAPU4K0qUXDCc2ki",
          "name" : "The National Lutheran Choir",
          "type" : "artist",
          "uri" : "spotify:artist:7hz41KzAPU4K0qUXDCc2ki"
        } ],
        "external_urls" : {
          "spotify" : "https://open.spotify.com/album/1HSjRaWFOQ1jiQL6oDmUro"
        },
        "href" : "https://api.spotify.com/v1/albums/1HSjRaWFOQ1jiQL6oDmUro",
        "id" : "1HSjRaWFOQ1jiQL6oDmUro",
        "images" : [ {
          "height" : 640,
          "url" : "https://i.scdn.co/image/ab67616d0000b27374ee5540f7fb9434cedb1656",
          "width" : 640
        }, {
          "height" : 300,
          "url" : "https://i.scdn.co/image/ab67616d00001e0274ee5540f7fb9434cedb1656",
          "width" : 300
        }, {
          "height" : 64,
          "url" : "https://i.scdn.co/image/ab67616d0000485174ee5540f7fb9434cedb1656",
          "width" : 64
        } ],
        "name" : "Hymns We Love to Sing",
        "release_date" : "2005",
        "release_date_precision" : "year",
        "total_tracks" : 14,
        "type" : "album",
        "uri" : "spotify:album:1HSjRaWFOQ1jiQL6oDmUro"
      },
      "artists" : [ {
        "external_urls" : {
          "spotify" : "https://open.spotify.com/artist/7hz41KzAPU4K0qUXDCc2ki"
        },
        "href" : "https://api.spotify.com/v1/artists/7hz41KzAPU4K0qUXDCc2ki",
        "id" : "7hz41KzAPU4K0qUXDCc2ki",
        "name" : "The National Lutheran Choir",
        "type" : "artist",
        "uri" : "spotify:artist:7hz41KzAPU4K0qUXDCc2ki"
      } ],
      "disc_number" : 1,
      "duration_ms" : 188220,
      "explicit" : false,
      "external_ids" : {
        "isrc" : "USDHM0903040"
      },
      "external_urls" : {
        "spotify" : "https://open.spotify.com/track/2v23cOldTzwkYISnGPKvRU"
      },
      "href" : "https://api.spotify.com/v1/tracks/2v23cOldTzwkYISnGPKvRU",
      "id" : "2v23cOldTzwkYISnGPKvRU",
      "is_local" : false,
      "is_playable" : true,
      "name" : "Children of the Heavenly Father",
      "popularity" : 10,
      "preview_url" : "https://p.scdn.co/mp3-preview/4627cf0721d1049579d35409bb9c069a6ef733d6?cid=774b29d4f13844c495f206cafdad9c86",
      "track_number" : 6,
      "type" : "track",
      "uri" : "spotify:track:2v23cOldTzwkYISnGPKvRU"
    }, {
      "album" : {
        "album_type" : "album",
        "artists" : [ {
          "external_urls" : {
            "spotify" : "https://open.spotify.com/artist/6eGXFEwOdfD1dIPyu6c5cG"
          },
          "href" : "https://api.spotify.com/v1/artists/6eGXFEwOdfD1dIPyu6c5cG",
          "id" : "6eGXFEwOdfD1dIPyu6c5cG",
          "name" : "Steve Green",
          "type" : "artist",
          "uri" : "spotify:artist:6eGXFEwOdfD1dIPyu6c5cG"
        } ],
        "external_urls" : {
          "spotify" : "https://open.spotify.com/album/599EqUWIHFJuePqXS2vpfu"
        },
        "href" : "https://api.spotify.com/v1/albums/599EqUWIHFJuePqXS2vpfu",
        "id" : "599EqUWIHFJuePqXS2vpfu",
        "images" : [ {
          "height" : 640,
          "url" : "https://i.scdn.co/image/ab67616d0000b2732a4251cf1150b9691024bc56",
          "width" : 640
        }, {
          "height" : 300,
          "url" : "https://i.scdn.co/image/ab67616d00001e022a4251cf1150b9691024bc56",
          "width" : 300
        }, {
          "height" : 64,
          "url" : "https://i.scdn.co/image/ab67616d000048512a4251cf1150b9691024bc56",
          "width" : 64
        } ],
        "name" : "Hymns",
        "release_date" : "2014-09-30",
        "release_date_precision" : "day",
        "total_tracks" : 12,
        "type" : "album",
        "uri" : "spotify:album:599EqUWIHFJuePqXS2vpfu"
      },
      "artists" : [ {
        "external_urls" : {
          "spotify" : "https://open.spotify.com/artist/6eGXFEwOdfD1dIPyu6c5cG"
        },
        "href" : "https://api.spotify.com/v1/artists/6eGXFEwOdfD1dIPyu6c5cG",
        "id" : "6eGXFEwOdfD1dIPyu6c5cG",
        "name" : "Steve Green",
        "type" : "artist",
        "uri" : "spotify:artist:6eGXFEwOdfD1dIPyu6c5cG"
      } ],
      "disc_number" : 1,
      "duration_ms" : 195933,
      "explicit" : false,
      "external_ids" : {
        "isrc" : "US8W71400076"
      },
      "external_urls" : {
        "spotify" : "https://open.spotify.com/track/3uLbQkkRB4siP2sVmuDXNU"
      },
      "href" : "https://api.spotify.com/v1/tracks/3uLbQkkRB4siP2sVmuDXNU",
      "id" : "3uLbQkkRB4siP2sVmuDXNU",
      "is_local" : false,
      "is_playable" : true,
      "name" : "Children of the Heavenly Father",
      "popularity" : 12,
      "preview_url" : "https://p.scdn.co/mp3-preview/025fddca34c72a1f1854ff84e2b0f958a51ad16d?cid=774b29d4f13844c495f206cafdad9c86",
      "track_number" : 9,
      "type" : "track",
      "uri" : "spotify:track:3uLbQkkRB4siP2sVmuDXNU"
    }, {
      "album" : {
        "album_type" : "album",
        "artists" : [ {
          "external_urls" : {
            "spotify" : "https://open.spotify.com/artist/3NNn7xQuYaZU8ZjDfDeIxj"
          },
          "href" : "https://api.spotify.com/v1/artists/3NNn7xQuYaZU8ZjDfDeIxj",
          "id" : "3NNn7xQuYaZU8ZjDfDeIxj",
          "name" : "Cedarmont Baby",
          "type" : "artist",
          "uri" : "spotify:artist:3NNn7xQuYaZU8ZjDfDeIxj"
        } ],
        "external_urls" : {
          "spotify" : "https://open.spotify.com/album/3xdXm3dr0lw5QxBw0jsjMc"
        },
        "href" : "https://api.spotify.com/v1/albums/3xdXm3dr0lw5QxBw0jsjMc",
        "id" : "3xdXm3dr0lw5QxBw0jsjMc",
        "images" : [ {
          "height" : 640,
          "url" : "https://i.scdn.co/image/ab67616d0000b2736c1f9ca77bf890818dea382a",
          "width" : 640
        }, {
          "height" : 300,
          "url" : "https://i.scdn.co/image/ab67616d00001e026c1f9ca77bf890818dea382a",
          "width" : 300
        }, {
          "height" : 64,
          "url" : "https://i.scdn.co/image/ab67616d000048516c1f9ca77bf890818dea382a",
          "width" : 64
        } ],
        "name" : "Cedarmont Baby Gift Set",
        "release_date" : "1988-09-15",
        "release_date_precision" : "day",
        "total_tracks" : 45,
        "type" : "album",
        "uri" : "spotify:album:3xdXm3dr0lw5QxBw0jsjMc"
      },
      "artists" : [ {
        "external_urls" : {
          "spotify" : "https://open.spotify.com/artist/3NNn7xQuYaZU8ZjDfDeIxj"
        },
        "href" : "https://api.spotify.com/v1/artists/3NNn7xQuYaZU8ZjDfDeIxj",
        "id" : "3NNn7xQuYaZU8ZjDfDeIxj",
        "name" : "Cedarmont Baby",
        "type" : "artist",
        "uri" : "spotify:artist:3NNn7xQuYaZU8ZjDfDeIxj"
      } ],
      "disc_number" : 3,
      "duration_ms" : 115386,
      "explicit" : false,
      "external_ids" : {
        "isrc" : "USA5W0401205"
      },
      "external_urls" : {
        "spotify" : "https://open.spotify.com/track/4LS6bSpPHC236WtTo1qMud"
      },
      "href" : "https://api.spotify.com/v1/tracks/4LS6bSpPHC236WtTo1qMud",
      "id" : "4LS6bSpPHC236WtTo1qMud",
      "is_local" : false,
      "is_playable" : true,
      "name" : "Children Of The Heavenly Father",
      "popularity" : 11,
      "preview_url" : "https://p.scdn.co/mp3-preview/9e89221130f9c35fa50ec4fa09b87a23e322841d?cid=774b29d4f13844c495f206cafdad9c86",
      "track_number" : 14,
      "type" : "track",
      "uri" : "spotify:track:4LS6bSpPHC236WtTo1qMud"
    }, {
      "album" : {
        "album_type" : "album",
        "artists" : [ {
          "external_urls" : {
            "spotify" : "https://open.spotify.com/artist/2IWtjlSMTEaOA7InIsGDKT"
          },
          "href" : "https://api.spotify.com/v1/artists/2IWtjlSMTEaOA7InIsGDKT",
          "id" : "2IWtjlSMTEaOA7InIsGDKT",
          "name" : "Glenn and Lisa Ginn",
          "type" : "artist",
          "uri" : "spotify:artist:2IWtjlSMTEaOA7InIsGDKT"
        } ],
        "external_urls" : {
          "spotify" : "https://open.spotify.com/album/08aPllI09VQfEHTwqBFXJC"
        },
        "href" : "https://api.spotify.com/v1/albums/08aPllI09VQfEHTwqBFXJC",
        "id" : "08aPllI09VQfEHTwqBFXJC",
        "images" : [ {
          "height" : 640,
          "url" : "https://i.scdn.co/image/ab67616d0000b2733380c5e0096689e759fa97bb",
          "width" : 640
        }, {
          "height" : 300,
          "url" : "https://i.scdn.co/image/ab67616d00001e023380c5e0096689e759fa97bb",
          "width" : 300
        }, {
          "height" : 64,
          "url" : "https://i.scdn.co/image/ab67616d000048513380c5e0096689e759fa97bb",
          "width" : 64
        } ],
        "name" : "I Know Who Holds Tomorrow",
        "release_date" : "2009-12-19",
        "release_date_precision" : "day",
        "total_tracks" : 14,
        "type" : "album",
        "uri" : "spotify:album:08aPllI09VQfEHTwqBFXJC"
      },
      "artists" : [ {
        "external_urls" : {
          "spotify" : "https://open.spotify.com/artist/2IWtjlSMTEaOA7InIsGDKT"
        },
        "href" : "https://api.spotify.com/v1/artists/2IWtjlSMTEaOA7InIsGDKT",
        "id" : "2IWtjlSMTEaOA7InIsGDKT",
        "name" : "Glenn and Lisa Ginn",
        "type" : "artist",
        "uri" : "spotify:artist:2IWtjlSMTEaOA7InIsGDKT"
      } ],
      "disc_number" : 1,
      "duration_ms" : 156280,
      "explicit" : false,
      "external_ids" : {
        "isrc" : "usx9p0955447"
      },
      "external_urls" : {
        "spotify" : "https://open.spotify.com/track/0BVwkEXjrK4JXMxpNOWgxl"
      },
      "href" : "https://api.spotify.com/v1/tracks/0BVwkEXjrK4JXMxpNOWgxl",
      "id" : "0BVwkEXjrK4JXMxpNOWgxl",
      "is_local" : false,
      "is_playable" : true,
      "name" : "Children of the Heavenly Father",
      "popularity" : 10,
      "preview_url" : "https://p.scdn.co/mp3-preview/d9b5fc543fdd9099be5d0102b72b2345d9ec04f6?cid=774b29d4f13844c495f206cafdad9c86",
      "track_number" : 12,
      "type" : "track",
      "uri" : "spotify:track:0BVwkEXjrK4JXMxpNOWgxl"
    }, {
      "album" : {
        "album_type" : "album",
        "artists" : [ {
          "external_urls" : {
            "spotify" : "https://open.spotify.com/artist/6Mpnuw1zAeDxd9Y7clGNrX"
          },
          "href" : "https://api.spotify.com/v1/artists/6Mpnuw1zAeDxd9Y7clGNrX",
          "id" : "6Mpnuw1zAeDxd9Y7clGNrX",
          "name" : "Christian Hymns Players",
          "type" : "artist",
          "uri" : "spotify:artist:6Mpnuw1zAeDxd9Y7clGNrX"
        } ],
        "external_urls" : {
          "spotify" : "https://open.spotify.com/album/5ZTNBPmtf07Hq7xFN4cssK"
        },
        "href" : "https://api.spotify.com/v1/albums/5ZTNBPmtf07Hq7xFN4cssK",
        "id" : "5ZTNBPmtf07Hq7xFN4cssK",
        "images" : [ {
          "height" : 640,
          "url" : "https://i.scdn.co/image/ab67616d0000b2739c77259d89595361363c63a6",
          "width" : 640
        }, {
          "height" : 300,
          "url" : "https://i.scdn.co/image/ab67616d00001e029c77259d89595361363c63a6",
          "width" : 300
        }, {
          "height" : 64,
          "url" : "https://i.scdn.co/image/ab67616d000048519c77259d89595361363c63a6",
          "width" : 64
        } ],
        "name" : "Classic Piano Hymns: The Church Is One Foundation",
        "release_date" : "2012-10-17",
        "release_date_precision" : "day",
        "total_tracks" : 15,
        "type" : "album",
        "uri" : "spotify:album:5ZTNBPmtf07Hq7xFN4cssK"
      },
      "artists" : [ {
        "external_urls" : {
          "spotify" : "https://open.spotify.com/artist/6Mpnuw1zAeDxd9Y7clGNrX"
        },
        "href" : "https://api.spotify.com/v1/artists/6Mpnuw1zAeDxd9Y7clGNrX",
        "id" : "6Mpnuw1zAeDxd9Y7clGNrX",
        "name" : "Christian Hymns Players",
        "type" : "artist",
        "uri" : "spotify:artist:6Mpnuw1zAeDxd9Y7clGNrX"
      } ],
      "disc_number" : 1,
      "duration_ms" : 108643,
      "explicit" : false,
      "external_ids" : {
        "isrc" : "USA371636718"
      },
      "external_urls" : {
        "spotify" : "https://open.spotify.com/track/24eXkMTRSs2DBEJlnKMLJQ"
      },
      "href" : "https://api.spotify.com/v1/tracks/24eXkMTRSs2DBEJlnKMLJQ",
      "id" : "24eXkMTRSs2DBEJlnKMLJQ",
      "is_local" : false,
      "is_playable" : true,
      "name" : "Children of the Heavenly Father",
      "popularity" : 8,
      "preview_url" : "https://p.scdn.co/mp3-preview/a12dbfcb1796a1a72ad103acd5e78cd035d8095e?cid=774b29d4f13844c495f206cafdad9c86",
      "track_number" : 11,
      "type" : "track",
      "uri" : "spotify:track:24eXkMTRSs2DBEJlnKMLJQ"
    } ],
    "limit" : 10,
    "next" : "https://api.spotify.com/v1/search?query=Children+of+the+Heavenly+Father&type=track&market=US&offset=15&limit=10",
    "offset" : 5,
    "previous" : "https://api.spotify.com/v1/search?query=Children+of+the+Heavenly+Father&type=track&market=US&offset=0&limit=10",
    "total" : 141
  }
}