{
  "tracks" : {
    "href" : "https://api.spotify.com/v1/search?query=O+Sing+a+Song+of+Bethlehem&type=track&market=US&offset=5&limit=10",
    "items" : [ {
      "album" : {
        "album_type" : "album",
        "artists" : [ {
          "external_urls" : {
            "spotify" : "https://open.spotify.com/artist/7aViP37Y8yVpylx45oGLKk"
          },
          "href" : "https://api.spotify.com/v1/artists/7aViP37Y8yVpylx45oGLKk",
          "id" : "7aViP37Y8yVpylx45oGLKk",
          "name" : "Stonebridge Church Community",
          "type" : "artist",
          "uri" : "spotify:artist:7aViP37Y8yVpylx45oGLKk"
        } ],
        "external_urls" : {
          "spotify" : "https://open.spotify.com/album/6SMP2EksraRuWwOFMjs9fk"
        },
        "href" : "https://api.spotify.com/v1/albums/6SMP2EksraRuWwOFMjs9fk",
        "id" : "6SMP2EksraRuWwOFMjs9fk",
        "images" : [ {
          "height" : 640,
          "url" : "https://i.scdn.co/image/ab67616d0000b273caa53880c95c483a9de2ff1b",
          "width" : 640
        }, {
          "height" : 300,
          "url" : "https://i.scdn.co/image/ab67616d00001e02caa53880c95c483a9de2ff1b",
          "width" : 300
        }, {
          "height" : 64,
          "url" : "https://i.scdn.co/image/ab67616d00004851caa53880c95c483a9de2ff1b",
          "width" : 64
        } ],
        "name" : "The Light of Christmas",
        "release_date" : "2013-11-21",
        "release_date_precision" : "day",
        "total_tracks" : 13,
        "type" : "album",
        "uri" : "spotify:album:6SMP2EksraRuWwOFMjs9fk"
      },
      "artists" : [ {
        "external_urls" : {
          "spotify" : "https://open.spotify.com/artist/7aViP37Y8yVpylx45oGLKk"
        },
        "href" : "https://api.spotify.com/v1/artists/7aViP37Y8yVpylx45oGLKk",
        "id" : "7aViP37Y8yVpylx45oGLKk",
        "name" : "Stonebridge Church Community",
        "type" : "artist",
        "uri" : "spotify:artist:7aViP37Y8yVpylx45oGLKk"
      } ],
      "disc_number" : 1,
      "duration_ms" : 155922,
      "explicit" : false,
      "external_ids" : {
        "isrc" : "usx9p1304867"
      },
      "external_urls" : {
        "spotify" : "https://open.spotify.com/track/3XQPoYteX6CIdz5SdsGuxT"
      },
      "href" : "https://api.spotify.com/v1/tracks/3XQPoYteX6CIdz5SdsGuxT",
      "id" : "3XQPoYteX6CIdz5SdsGuxT",
      "is_local" : false,
      "is_playable" : true,
      "name" : "Sing a Song of Bethlehem",
      "popularity" : 0,
      "preview_url" : "https://p.scdn.co/mp3-preview/42fcff7ca4462377d4a4968a216f9617489be8f1?cid=774b29d4f13844c495f206cafdad9c86",
      "track_number" : 3,
      "type" : "track",
      "uri" : "spotify:track:3XQPoYteX6CIdz5SdsGuxT"
    }, {
      "album" : {
        "album_type" : "album",
        "artists" : [ {
          "external_urls" : {
            "spotify" : "https://open.spotify.com/artist/1eUmZnf2uJSqqLRQ3tsQUO"
          },
          "href" : "https://api.spotify.com/v1/artists/1eUmZnf2uJSqqLRQ3tsQUO",
          "id" : "1eUmZnf2uJSqqLRQ3tsQUO",
          "name" : "Integrity Musicians",
          "type" : "artist",
          "uri" : "spotify:artist:1eUmZnf2uJSqqLRQ3tsQUO"
        } ],
        "external_urls" : {
          "spotify" : "https://open.spotify.com/album/3EuMCKXdM1iQcPMYuAcAVz"
        },
        "href" : "https://api.spotify.com/v1/albums/3EuMCKXdM1iQcPMYuAcAVz",
        "id" : "3EuMCKXdM1iQcPMYuAcAVz",
        "images" : [ {
          "height" : 640,
          "url" : "https://i.scdn.co/image/ab67616d0000b273a5f37fa8f1a016648229edb1",
          "width" : 640
        }, {
          "height" : 300,
          "url" : "https://i.scdn.co/image/ab67616d00001e02a5f37fa8f1a016648229edb1",
          "width" : 300
        }, {
          "height" : 64,
          "url" : "https://i.scdn.co/image/ab67616d00004851a5f37fa8f1a016648229edb1",
          "width" : 64
        } ],
        "name" : "Bethlehem's Treasure",
        "release_date" : "1992-01-01",
        "release_date_precision" : "day",
        "total_tracks" : 19,
        "type" : "album",
        "uri" : "spotify:album:3EuMCKXdM1iQcPMYuAcAVz"
      },
      "artists" : [ {
        "external_urls" : {
          "spotify" : "https://open.spotify.com/artist/1eUmZnf2uJSqqLRQ3tsQUO"
        },
        "href" : "https://api.spotify.com/v1/artists/1eUmZnf2uJSqqLRQ3tsQUO",
        "id" : "1eUmZnf2uJSqqLRQ3tsQUO",
        "name" : "Integrity Musicians",
        "type" : "artist",
        "uri" : "spotify:artist:1eUmZnf2uJSqqLRQ3tsQUO"
      } ],
      "disc_number" : 1,
      "duration_ms" : 49640,
      "explicit" : false,
      "external_ids" : {
        "isrc" : "US25L0501016"
      },
      "external_urls" : {
        "spotify" : "https://open.spotify.com/track/7kiTY33x78ItxAYRK9Wz97"
      },
      "href" : "https://api.spotify.com/v1/tracks/7kiTY33x78ItxAYRK9Wz97",
      "id" : "7kiTY33x78ItxAYRK9Wz97",
      "is_local" : false,
      "is_playable" : true,
      "name" : "Sing a Song of Bethlehem",
      "popularity" : 1,
      "preview_url" : "https://p.scdn.co/mp3-preview/c34dcecaf2982519e6c986fb4d6fa9e7aa113a28?cid=774b29d4f13844c495f206cafdad9c86",
      "track_number" : 13,
      "type" : "track",
      "uri" : "spotify:track:7kiTY33x78ItxAYRK9Wz97"
    }, {
      "album" : {
        "album_type" : "album",
        "artists" : [ {
          "external_urls" : {
            "spotify" : "https://open.spotify.com/artist/50OOo75gSo1S0OxskwAhBn"
          },
          "href" : "https://api.spotify.com/v1/artists/50OOo75gSo1S0OxskwAhBn",
          "id" : "50OOo75gSo1S0OxskwAhBn",
          "name" : "Don Hodell Chilcote",
          "type" : "artist",
          "uri" : "spotify:artist:50OOo75gSo1S0OxskwAhBn"
        } ],
        "external_urls" : {
          "spotify" : "https://open.spotify.com/album/30ywvPkKRJZ7nesRU6iEsF"
        },
        "href" : "https://api.spotify.com/v1/albums/30ywvPkKRJZ7nesRU6iEsF",
        "id" : "30ywvPkKRJZ7nesRU6iEsF",
        "images" : [ {
          "height" : 640,
          "url" : "https://i.scdn.co/image/ab67616d0000b27353d67944d2aa74c3ed23c1b5",
          "width" : 640
        }, {
          "height" : 300,
          "url" : "https://i.scdn.co/image/ab67616d00001e0253d67944d2aa74c3ed23c1b5",
          "width" : 300
        }, {
          "height" : 64,
          "url" : "https://i.scdn.co/image/ab67616d0000485153d67944d2aa74c3ed23c1b5",
          "width" : 64
        } ],
        "name" : "Experiential",
        "release_date" : "2016-05-31",
        "release_date_precision" : "day",
        "total_tracks" : 50,
        "type" : "album",
        "uri" : "spotify:album:30ywvPkKRJZ7nesRU6iEsF"
      },
      "artists" : [ {
        "external_urls" : {
          "spotify" : "https://open.spotify.com/artist/50OOo75gSo1S0OxskwAhBn"
        },
        "href" : "https://api.spotify.com/v1/artists/50OOo75gSo1S0OxskwAhBn",
        "id" : "50OOo75gSo1S0OxskwAhBn",
        "name" : "Don Hodell Chilcote",
        "type" : "artist",
        "uri" : "spotify:artist:50OOo75gSo1S0OxskwAhBn"
      } ],
      "disc_number" : 1,
      "duration_ms" : 232385,
      "explicit" : false,
      "external_ids" : {
        "isrc" : "uscgj1649086"
      },
      "external_urls" : {
        "spotify" : "https://open.spotify.com/track/5QDDnOWjqBBerRURjjjFcQ"
      },
      "href" : "https://api.spotify.com/v1/tracks/5QDDnOWjqBBerRURjjjFcQ",
      "id" : "5QDDnOWjqBBerRURjjjFcQ",
      "is_local" : false,
      "is_playable" : true,
      "name" : "Sing a Song of Bethlehem",
      "popularity" : 0,
      "preview_url" : "https://p.scdn.co/mp3-preview/175dfe058b42544020781095d3d201e9cd9a071d?cid=774b29d4f13844c495f206cafdad9c86",
      "track_number" : 11,
      "type" : "track",
      "uri" : "spotify:track:5QDDnOWjqBBerRURjjjFcQ"
    }, {
      "album" : {
        "album_type" : "album",
        "artists" : [ {
          "external_urls" : {
            "spotify" : "https://open.spotify.com/artist/7oDKPjpoPSpT1EoGdoqts9"
          },
          "href" : "https://api.spotify.com/v1/artists/7oDKPjpoPSpT1EoGdoqts9",
          "id" : "7oDKPjpoPSpT1EoGdoqts9",
          "name" : "Cal Olson",
          "type" : "artist",
          "uri" : "spotify:artist:7oDKPjpoPSpT1EoGdoqts9"
        } ],
        "external_urls" : {
          "spotify" : "https://open.spotify.com/album/2ri9gZiS9EyMIQrrmLC7ON"
        },
        "href" : "https://api.spotify.com/v1/albums/2ri9gZiS9EyMIQrrmLC7ON",
        "id" : "2ri9gZiS9EyMIQrrmLC7ON",
        "images" : [ {
          "height" : 640,
          "url" : "https://i.scdn.co/image/ab67616d0000b273000cbd560576cf66f05f5b96",
          "width" : 640
        }, {
          "height" : 300,
          "url" : "https://i.scdn.co/image/ab67616d00001e02000cbd560576cf66f05f5b96",
          "width" : 300
        }, {
          "height" : 64,
          "url" : "https://i.scdn.co/image/ab67616d00004851000cbd560576cf66f05f5b96",
          "width" : 64
        } ],
        "name" : "WhistleWonder: The Carols Of Christmas",
        "release_date" : "2007-01-01",
        "release_date_precision" : "day",
        "total_tracks" : 12,
        "type" : "album",
        "uri" : "spotify:album:2ri9gZiS9EyMIQrrmLC7ON"
      },
      "artists" : [ {
        "external_urls" : {
          "spotify" : "https://open.spotify.com/artist/7oDKPjpoPSpT1EoGdoqts9"
        },
        "href" : "https://api.spotify.com/v1/artists/7oDKPjpoPSpT1EoGdoqts9",
        "id" : "7oDKPjpoPSpT1EoGdoqts9",
        "name" : "Cal Olson",
        "type" : "artist",
        "uri" : "spotify:artist:7oDKPjpoPSpT1EoGdoqts9"
      } ],
      "disc_number" : 1,
      "duration_ms" : 208173,
      "explicit" : false,
      "external_ids" : {
        "isrc" : "usl4r0717303"
      },
      "external_urls" : {
        "spotify" : "https://open.spotify.com/track/0ic2Z0RdisA8uFQc5Xb322"
      },
      "href" : "https://api.spotify.com/v1/tracks/0ic2Z0RdisA8uFQc5Xb322",
      "id" : "0ic2Z0RdisA8uFQc5Xb322",
      "is_local" : false,
      "is_playable" : true,
      "name" : "O Sing A Song Of Bethlehem",
      "popularity" : 0,
      "preview_url" : "https://p.scdn.co/mp3-preview/5ba94480ce01c1df0dc5fd1865562ee9031f43ba?cid=774b29d4f13844c495f206cafdad9c86",
      "track_number" : 2,
      "type" : "track",
      "uri" : "spotify:track:0ic2Z0RdisA8uFQc5Xb322"
    }, {
      "album" : {
        "album_type" : "compilation",
        "artists" : [ {
          "external_urls" : {
            "spotify" : "https://open.spotify.com/artist/0LyfQWJT6nXafLPZqxe9Of"
          },
          "href" : "https://api.spotify.com/v1/artists/0LyfQWJT6nXafLPZqxe9Of",
          "id" : "0LyfQWJT6nXafLPZqxe9Of",
          "name" : "Various Artists",
          "type" : "artist",
          "uri" : "spotify:artist:0LyfQWJT6nXafLPZqxe9Of"
        } ],
        "external_urls" : {
          "spotify" : "https://open.spotify.com/album/1rz1r4oFKNAB2xFajpazjK"
        },
        "href" : "https://api.spotify.com/v1/albums/1rz1r4oFKNAB2xFajpazjK",
        "id" : "1rz1r4oFKNAB2xFajpazjK",
        "images" : [ {
          "height" : 640,
          "url" : "https://i.scdn.co/image/ab67616d0000b2732b2f4457d9e7a1b5a707f00e",
          "width" : 640
        }, {
          "height" : 300,
          "url" : "https://i.scdn.co/image/ab67616d00001e022b2f4457d9e7a1b5a707f00e",
          "width" : 300
        }, {
          "height" : 64,
          "url" : "https://i.scdn.co/image/ab67616d000048512b2f4457d9e7a1b5a707f00e",
          "width" : 64
        } ],
        "name" : "World’s Best Praise and Worship: Christmas",
        "release_date" : "1999-01-01",
        "release_date_precision" : "day",
        "total_tracks" : 24,
        "type" : "album",
        "uri" : "spotify:album:1rz1r4oFKNAB2xFajpazjK"
      },
      "artists" : [ {
        "external_urls" : {
          "spotify" : "https://open.spotify.com/artist/6a7zEkNQ1cDio5dO3c3qpP"
        },
        "href" : "https://api.spotify.com/v1/artists/6a7zEkNQ1cDio5dO3c3qpP",
        "id" : "6a7zEkNQ1cDio5dO3c3qpP",
        "name" : "Bob Fitts",
        "type" : "artist",
        "uri" : "spotify:artist:6a7zEkNQ1cDio5dO3c3qpP"
      } ],
      "disc_number" : 1,
      "duration_ms" : 66000,
      "explicit" : false,
      "external_ids" : {
        "isrc" : "US25L0902691"
      },
      "external_urls" : {
        "spotify" : "https://open.spotify.com/track/1rsZbrz1KTKTGniaUUVCa2"
      },
      "href" : "https://api.spotify.com/v1/tracks/1rsZbrz1KTKTGniaUUVCa2",
      "id" : "1rsZbrz1KTKTGniaUUVCa2",
      "is_local" : false,
      "is_playable" : true,
      "name" : "O Sing a Song of Bethlehem",
      "popularity" : 0,
      "preview_url" : "https://p.scdn.co/mp3-preview/fc8371da22d74c745a30fe66c638fb17f9b3c3fb?cid=774b29d4f13844c495f206cafdad9c86",
      "track_number" : 15,
      "type" : "track",
      "uri" : "spotify:track:1rsZbrz1KTKTGniaUUVCa2"
    }, {
      "album" : {
        "album_type" : "album",
        "artists" : [ {
          "external_urls" : {
            "spotify" : "https://open.spotify.com/artist/6HrACvhKyESu1hamOBNe46"
          },
          "href" : "https://api.spotify.com/v1/artists/6HrACvhKyESu1hamOBNe46",
          "id" : "6HrACvhKyESu1hamOBNe46",
          "name" : "The Bisceglia Family",
          "type" : "artist",
          "uri" : "spotify:artist:6HrACvhKyESu1hamOBNe46"
        } ],
        "external_urls" : {
          "spotify" : "https://open.spotify.com/album/1srAOzmjNm7qa4ePSbwyAL"
        },
        "href" : "https://api.spotify.com/v1/albums/1srAOzmjNm7qa4ePSbwyAL",
        "id" : "1srAOzmjNm7qa4ePSbwyAL",
        "images" : [ {
          "height" : 640,
          "url" : "https://i.scdn.co/image/ab67616d0000b27377e1c4389def545d161fff5b",
          "width" : 640
        }, {
          "height" : 300,
          "url" : "https://i.scdn.co/image/ab67616d00001e0277e1c4389def545d161fff5b",
          "width" : 300
        }, {
          "height" : 64,
          "url" : "https://i.scdn.co/image/ab67616d0000485177e1c4389def545d161fff5b",
          "width" : 64
        } ],
        "name" : "Drive The Cold Winter Away",
        "release_date" : "2009-12-01",
        "release_date_precision" : "day",
        "total_tracks" : 13,
        "type" : "album",
        "uri" : "spotify:album:1srAOzmjNm7qa4ePSbwyAL"
      },
      "artists" : [ {
        "external_urls" : {
          "spotify" : "https://open.spotify.com/artist/6HrACvhKyESu1hamOBNe46"
        },
        "href" : "https://api.spotify.com/v1/artists/6HrACvhKyESu1hamOBNe46",
        "id" : "6HrACvhKyESu1hamOBNe46",
        "name" : "The Bisceglia Family",
        "type" : "artist",
        "uri" : "spotify:artist:6HrACvhKyESu1hamOBNe46"
      } ],
      "disc_number" : 1,
      "duration_ms" : 237666,
      "explicit" : false,
      "external_ids" : {
        "isrc" : "usx9p0947011"
      },
      "external_urls" : {
        "spotify" : "https://open.spotify.com/track/4s1OlhawRIvheEGsC2RPib"
      },
      "href" : "https://api.spotify.com/v1/tracks/4s1OlhawRIvheEGsC2RPib",
      "id" : "4s1OlhawRIvheEGsC2RPib",
      "is_local" : false,
      "is_playable" : true,
      "name" : "O Sing a Song of Bethlehem",
      "popularity" : 0,
      "preview_url" : "https://p.scdn.co/mp3-preview/70b5a54acd86cec3af18ad237bc5b10b5182d085?cid=774b29d4f13844c495f206cafdad9c86",
      "track_number" : 9,
      "type" : "track",
      "uri" : "spotify:track:4s1OlhawRIvheEGsC2RPib"
    }, {
      "album" : {
        "album_type" : "album",
        "artists" : [ {
          "external_urls" : {
            "spotify" : "https://open.spotify.com/artist/747pCzcDRT85mRhOl8AZLl"
          },
          "href" : "https://api.spotify.com/v1/artists/747pCzcDRT85mRhOl8AZLl",
          "id" : "747pCzcDRT85mRhOl8AZLl",
          "name" : "Sharyn Edwards",
          "type" : "artist",
          "uri" : "spotify:artist:747pCzcDRT85mRhOl8AZLl"
        } ],
        "external_urls" : {
          "spotify" : "https://open.spotify.com/album/5rZenFvJPfif1tYdpAVjGu"
        },
        "href" : "https://api.spotify.com/v1/albums/5rZenFvJPfif1tYdpAVjGu",
        "id" : "5rZenFvJPfif1tYdpAVjGu",
        "images" : [ {
          "height" : 640,
          "url" : "https://i.scdn.co/image/ab67616d0000b27315ce90257b5c20631d5dae90",
          "width" : 640
        }, {
          "height" : 300,
          "url" : "https://i.scdn.co/image/ab67616d00001e0215ce90257b5c20631d5dae90",
          "width" : 300
        }, {
          "height" : 64,
          "url" : "https://i.scdn.co/image/ab67616d0000485115ce90257b5c20631d5dae90",
          "width" : 64
        } ],
        "name" : "Christmas Tide Carols",
        "release_date" : "1999-12-21",
        "release_date_precision" : "day",
        "total_tracks" : 21,
        "type" : "album",
        "uri" : "spotify:album:5rZenFvJPfif1tYdpAVjGu"
      },
      "artists" : [ {
        "external_urls" : {
          "spotify" : "https://open.spotify.com/artist/747pCzcDRT85mRhOl8AZLl"
        },
        "href" : "https://api.spotify.com/v1/artists/747pCzcDRT85mRhOl8AZLl",
        "id" : "747pCzcDRT85mRhOl8AZLl",
        "name" : "Sharyn Edwards",
        "type" : "artist",
        "uri" : "spotify:artist:747pCzcDRT85mRhOl8AZLl"
      } ],
      "disc_number" : 1,
      "duration_ms" : 109374,
      "explicit" : false,
      "external_ids" : {
        "isrc" : "USA370337541"
      },
      "external_urls" : {
        "spotify" : "https://open.spotify.com/track/5MXwlVKXlgVKt5ekT1gyha"
      },
      "href" : "https://api.spotify.com/v1/tracks/5MXwlVKXlgVKt5ekT1gyha",
      "id" : "5MXwlVKXlgVKt5ekT1gyha",
      "is_local" : false,
      "is_playable" : true,
      "name" : "O Sing A Song of Bethlehem",
      "popularity" : 0,
      "preview_url" : "https://p.scdn.co/mp3-preview/871f6068079d6d5798941312641dee4a3aec4f1d?cid=774b29d4f13844c495f206cafdad9c86",
      "track_number" : 8,
      "type" : "track",
      "uri" : "spotify:track:5MXwlVKXlgVKt5ekT1gyha"
    }, {
      "album" : {
        "album_type" : "album",
        "artists" : [ {
          "external_urls" : {
            "spotify" : "https://open.spotify.com/artist/5HfMuO1pzsYP5gAcDrIa07"
          },
          "href" : "https://api.spotify.com/v1/artists/5HfMuO1pzsYP5gAcDrIa07",
          "id" : "5HfMuO1pzsYP5gAcDrIa07",
          "name" : "Sweet Tidings Gospel Jam",
          "type" : "artist",
          "uri" : "spotify:artist:5HfMuO1pzsYP5gAcDrIa07"
        } ],
        "external_urls" : {
          "spotify" : "https://open.spotify.com/album/1gcOK8qEdqE731hdQfGK9E"
        },
        "href" : "https://api.spotify.com/v1/albums/1gcOK8qEdqE731hdQfGK9E",
        "id" : "1gcOK8qEdqE731hdQfGK9E",
        "images" : [ {
          "height" : 640,
          "url" : "https://i.scdn.co/image/ab67616d0000b2739dcb36f713bab5ee5a020960",
          "width" : 640
        }, {
          "height" : 300,
          "url" : "https://i.scdn.co/image/ab67616d00001e029dcb36f713bab5ee5a020960",
          "width" : 300
        }, {
          "height" : 64,
          "url" : "https://i.scdn.co/image/ab67616d000048519dcb36f713bab5ee5a020960",
          "width" : 64
        } ],
        "name" : "Gift",
        "release_date" : "2012-12-17",
        "release_date_precision" : "day",
        "total_tracks" : 14,
        "type" : "album",
        "uri" : "spotify:album:1gcOK8qEdqE731hdQfGK9E"
      },
      "artists" : [ {
        "external_urls" : {
          "spotify" : "https://open.spotify.com/artist/5HfMuO1pzsYP5gAcDrIa07"
        },
        "href" : "https://api.spotify.com/v1/artists/5HfMuO1pzsYP5gAcDrIa07",
        "id" : "5HfMuO1pzsYP5gAcDrIa07",
        "name" : "Sweet Tidings Gospel Jam",
        "type" : "artist",
        "uri" : "spotify:artist:5HfMuO1pzsYP5gAcDrIa07"
      } ],
      "disc_number" : 1,
      "duration_ms" : 167811,
      "explicit" : false,
      "external_ids" : {
        "isrc" : "usx9p1262510"
      },
      "external_urls" : {
        "spotify" : "https://open.spotify.com/track/7sFlBNBlfDwu09biVePGbA"
      },
      "href" : "https://api.spotify.com/v1/tracks/7sFlBNBlfDwu09biVePGbA",
      "id" : "7sFlBNBlfDwu09biVePGbA",
      "is_local" : false,
      "is_playable" : true,
      "name" : "O Sing a Song of Bethlehem",
      "popularity" : 0,
      "preview_url" : "https://p.scdn.co/mp3-preview/283c0b65bf89f8a93f0ef1f8575a9e163f64d1cd?cid=774b29d4f13844c495f206cafdad9c86",
      "track_number" : 11,
      "type" : "track",
      "uri" : "spotify:track:7sFlBNBlfDwu09biVePGbA"
    }, {
      "album" : {
        "album_type" : "album",
        "artists" : [ {
          "external_urls" : {
            "spotify" : "https://open.spotify.com/artist/45QNqncmJi3M3qyWrlcvif"
          },
          "href" : "https://api.spotify.com/v1/artists/45QNqncmJi3M3qyWrlcvif",
          "id" : "45QNqncmJi3M3qyWrlcvif",
          "name" : "William Neil",
          "type" : "artist",
          "uri" : "spotify:artist:45QNqncmJi3M3qyWrlcvif"
        } ],
        "external_urls" : {
          "spotify" : "https://open.spotify.com/album/7bxRNoZcWfp4XmmPVigipS"
        },
        "href" : "https://api.spotify.com/v1/albums/7bxRNoZcWfp4XmmPVigipS",
        "id" : "7bxRNoZcWfp4XmmPVigipS",
        "images" : [ {
          "height" : 640,
          "url" : "https://i.scdn.co/image/ab67616d0000b2737666cb2a91c4462c6a120971",
          "width" : 640
        }, {
          "height" : 300,
          "url" : "https://i.scdn.co/image/ab67616d00001e027666cb2a91c4462c6a120971",
          "width" : 300
        }, {
          "height" : 64,
          "url" : "https://i.scdn.co/image/ab67616d000048517666cb2a91c4462c6a120971",
          "width" : 64
        } ],
        "name" : "Amazing Grace: 60 Hymns of Faith & Praise",
        "release_date" : "2008-10-21",
        "release_date_precision" : "day",
        "total_tracks" : 60,
        "type" : "album",
        "uri" : "spotify:album:7bxRNoZcWfp4XmmPVigipS"
      },
      "artists" : [ {
        "external_urls" : {
          "spotify" : "https://open.spotify.com/artist/45QNqncmJi3M3qyWrlcvif"
        },
        "href" : "https://api.spotify.com/v1/artists/45QNqncmJi3M3qyWrlcvif",
        "id" : "45QNqncmJi3M3qyWrlcvif",
        "name" : "William Neil",
        "type" : "artist",
        "uri" : "spotify:artist:45QNqncmJi3M3qyWrlcvif"
      } ],
      "disc_number" : 2,
      "duration_ms" : 139053,
      "explicit" : false,
      "external_ids" : {
        "isrc" : "USBZ90810197"
      },
      "external_urls" : {
        "spotify" : "https://open.spotify.com/track/6YgaOCRhSMfjnJQeNmjYgT"
      },
      "href" : "https://api.spotify.com/v1/tracks/6YgaOCRhSMfjnJQeNmjYgT",
      "id" : "6YgaOCRhSMfjnJQeNmjYgT",
      "is_local" : false,
      "is_playable" : true,
      "name" : "O Sing a Song of Bethlehem",
      "popularity" : 0,
      "preview_url" : "https://p.scdn.co/mp3-preview/41fd040f3b95bf7e6c416a341086c35a94b962ff?cid=774b29d4f13844c495f206cafdad9c86",
      "track_number" : 7,
      "type" : "track",
      "uri" : "spotify:track:6YgaOCRhSMfjnJQeNmjYgT"
    }, {
      "album" : {
        "album_type" : "album",
        "artists" : [ {
          "external_urls" : {
            "spotify" : "https://open.spotify.com/artist/27DLyI8HjuUMikWhwXIcrK"
          },
          "href" : "https://api.spotify.com/v1/artists/27DLyI8HjuUMikWhwXIcrK",
          "id" : "27DLyI8HjuUMikWhwXIcrK",
          "name" : "Winter Dreams",
          "type" : "artist",
          "uri" : "spotify:artist:27DLyI8HjuUMikWhwXIcrK"
        } ],
        "external_urls" : {
          "spotify" : "https://open.spotify.com/album/0eSxHoLDZX4BmpUFwbTRpB"
        },
        "href" : "https://api.spotify.com/v1/albums/0eSxHoLDZX4BmpUFwbTRpB",
        "id" : "0eSxHoLDZX4BmpUFwbTRpB",
        "images" : [ {
          "height" : 640,
          "url" : "https://i.scdn.co/image/ab67616d0000b273e281f314d0e5d50dd1f558ad",
          "width" : 640
        }, {
          "height" : 300,
          "url" : "https://i.scdn.co/image/ab67616d00001e02e281f314d0e5d50dd1f558ad",
          "width" : 300
        }, {
          "height" : 64,
          "url" : "https://i.scdn.co/image/ab67616d00004851e281f314d0e5d50dd1f558ad",
          "width" : 64
        } ],
        "name" : "Winter Songs for Christmas – Santa Claus, Christmas Carols Collection, Holiday Magic",
        "release_date" : "2016-11-26",
        "release_date_precision" : "day",
        "total_tracks" : 20,
        "type" : "album",
        "uri" : "spotify:album:0eSxHoLDZX4BmpUFwbTRpB"
      },
      "artists" : [ {
        "external_urls" : {
          "spotify" : "https://open.spotify.com/artist/27DLyI8HjuUMikWhwXIcrK"
        },
        "href" : "https://api.spotify.com/v1/artists/27DLyI8HjuUMikWhwXIcrK",
        "id" : "27DLyI8HjuUMikWhwXIcrK",
        "name" : "Winter Dreams",
        "type" : "artist",
        "uri" : "spotify:artist:27DLyI8HjuUMikWhwXIcrK"
      } ],
      "disc_number" : 1,
      "duration_ms" : 167000,
      "explicit" : false,
      "external_ids" : {
        "isrc" : "QZ5CV1623298"
      },
      "external_urls" : {
        "spotify" : "https://open.spotify.com/track/7cDGuJPw3ocdUnSen5xzRd"
      },
      "href" : "https://api.spotify.com/v1/tracks/7cDGuJPw3ocdUnSen5xzRd",
      "id" : "7cDGuJPw3ocdUnSen5xzRd",
      "is_local" : false,
      "is_playable" : true,
      "name" : "O Sing a Song of Bethlehem",
      "popularity" : 0,
      "preview_url" : "https://p.scdn.co/mp3-preview/1f5a449953d447e11c8900eea210cb8da714b2f7?cid=774b29d4f13844c495f206cafdad9c86",
      "track_number" : 6,
      "type" : "track",
      "uri" : "spotify:track:7cDGuJPw3ocdUnSen5xzRd"
    } ],
    "limit" : 10,
    "next" : "https://api.spotify.com/v1/search?query=O+Sing+a+Song+of+Bethlehem&type=track&market=US&offset=15&limit=10",
    "offset" : 5,
    "previous" : "https://api.spotify.com/v1/search?query=O+Sing+a+Song+of+Bethlehem&type=track&market=US&offset=0&limit=10",
    "total" : 95
  }
}