{
  "tracks" : {
    "href" : "https://api.spotify.com/v1/search?query=We+Have+Heard&type=track&market=US&offset=5&limit=10",
    "items" : [ {
      "album" : {
        "album_type" : "single",
        "artists" : [ {
          "external_urls" : {
            "spotify" : "https://open.spotify.com/artist/1GUZn2k871jN4QGzCegZeK"
          },
          "href" : "https://api.spotify.com/v1/artists/1GUZn2k871jN4QGzCegZeK",
          "id" : "1GUZn2k871jN4QGzCegZeK",
          "name" : "James Connor",
          "type" : "artist",
          "uri" : "spotify:artist:1GUZn2k871jN4QGzCegZeK"
        }, {
          "external_urls" : {
            "spotify" : "https://open.spotify.com/artist/12EtXcEPCjGIQ4obBkKPOo"
          },
          "href" : "https://api.spotify.com/v1/artists/12EtXcEPCjGIQ4obBkKPOo",
          "id" : "12EtXcEPCjGIQ4obBkKPOo",
          "name" : "Sean McLaughlin",
          "type" : "artist",
          "uri" : "spotify:artist:12EtXcEPCjGIQ4obBkKPOo"
        } ],
        "external_urls" : {
          "spotify" : "https://open.spotify.com/album/6jrPWj1VFNN4rldNXXwmy3"
        },
        "href" : "https://api.spotify.com/v1/albums/6jrPWj1VFNN4rldNXXwmy3",
        "id" : "6jrPWj1VFNN4rldNXXwmy3",
        "images" : [ {
          "height" : 640,
          "url" : "https://i.scdn.co/image/ab67616d0000b2732d86e403e0e199547089c831",
          "width" : 640
        }, {
          "height" : 300,
          "url" : "https://i.scdn.co/image/ab67616d00001e022d86e403e0e199547089c831",
          "width" : 300
        }, {
          "height" : 64,
          "url" : "https://i.scdn.co/image/ab67616d000048512d86e403e0e199547089c831",
          "width" : 64
        } ],
        "name" : "Christmas Light",
        "release_date" : "2018-12-04",
        "release_date_precision" : "day",
        "total_tracks" : 6,
        "type" : "album",
        "uri" : "spotify:album:6jrPWj1VFNN4rldNXXwmy3"
      },
      "artists" : [ {
        "external_urls" : {
          "spotify" : "https://open.spotify.com/artist/1GUZn2k871jN4QGzCegZeK"
        },
        "href" : "https://api.spotify.com/v1/artists/1GUZn2k871jN4QGzCegZeK",
        "id" : "1GUZn2k871jN4QGzCegZeK",
        "name" : "James Connor",
        "type" : "artist",
        "uri" : "spotify:artist:1GUZn2k871jN4QGzCegZeK"
      }, {
        "external_urls" : {
          "spotify" : "https://open.spotify.com/artist/12EtXcEPCjGIQ4obBkKPOo"
        },
        "href" : "https://api.spotify.com/v1/artists/12EtXcEPCjGIQ4obBkKPOo",
        "id" : "12EtXcEPCjGIQ4obBkKPOo",
        "name" : "Sean McLaughlin",
        "type" : "artist",
        "uri" : "spotify:artist:12EtXcEPCjGIQ4obBkKPOo"
      } ],
      "disc_number" : 1,
      "duration_ms" : 233955,
      "explicit" : false,
      "external_ids" : {
        "isrc" : "usl4q1883750"
      },
      "external_urls" : {
        "spotify" : "https://open.spotify.com/track/07HtEKiecLxtplkIHk5wzl"
      },
      "href" : "https://api.spotify.com/v1/tracks/07HtEKiecLxtplkIHk5wzl",
      "id" : "07HtEKiecLxtplkIHk5wzl",
      "is_local" : false,
      "is_playable" : true,
      "name" : "Angels We Have Heard",
      "popularity" : 28,
      "preview_url" : "https://p.scdn.co/mp3-preview/016311442cdb3fcf70a96cb5937d094690616af3?cid=774b29d4f13844c495f206cafdad9c86",
      "track_number" : 1,
      "type" : "track",
      "uri" : "spotify:track:07HtEKiecLxtplkIHk5wzl"
    }, {
      "album" : {
        "album_type" : "album",
        "artists" : [ {
          "external_urls" : {
            "spotify" : "https://open.spotify.com/artist/3sDbKMebVH2VYcRSl7u1VC"
          },
          "href" : "https://api.spotify.com/v1/artists/3sDbKMebVH2VYcRSl7u1VC",
          "id" : "3sDbKMebVH2VYcRSl7u1VC",
          "name" : "for KING & COUNTRY",
          "type" : "artist",
          "uri" : "spotify:artist:3sDbKMebVH2VYcRSl7u1VC"
        } ],
        "external_urls" : {
          "spotify" : "https://open.spotify.com/album/2cPPsM97j2cUT3oiGVA2Q4"
        },
        "href" : "https://api.spotify.com/v1/albums/2cPPsM97j2cUT3oiGVA2Q4",
        "id" : "2cPPsM97j2cUT3oiGVA2Q4",
        "images" : [ {
          "height" : 640,
          "url" : "https://i.scdn.co/image/ab67616d0000b27311a53945aa9232352adb4ec0",
          "width" : 640
        }, {
          "height" : 300,
          "url" : "https://i.scdn.co/image/ab67616d00001e0211a53945aa9232352adb4ec0",
          "width" : 300
        }, {
          "height" : 64,
          "url" : "https://i.scdn.co/image/ab67616d0000485111a53945aa9232352adb4ec0",
          "width" : 64
        } ],
        "name" : "Christmas | LIVE from Phoenix",
        "release_date" : "2017-10-27",
        "release_date_precision" : "day",
        "total_tracks" : 10,
        "type" : "album",
        "uri" : "spotify:album:2cPPsM97j2cUT3oiGVA2Q4"
      },
      "artists" : [ {
        "external_urls" : {
          "spotify" : "https://open.spotify.com/artist/3sDbKMebVH2VYcRSl7u1VC"
        },
        "href" : "https://api.spotify.com/v1/artists/3sDbKMebVH2VYcRSl7u1VC",
        "id" : "3sDbKMebVH2VYcRSl7u1VC",
        "name" : "for KING & COUNTRY",
        "type" : "artist",
        "uri" : "spotify:artist:3sDbKMebVH2VYcRSl7u1VC"
      } ],
      "disc_number" : 1,
      "duration_ms" : 239386,
      "explicit" : false,
      "external_ids" : {
        "isrc" : "USM1C1700054"
      },
      "external_urls" : {
        "spotify" : "https://open.spotify.com/track/5L0McLUJ1jS8N6dPnv4251"
      },
      "href" : "https://api.spotify.com/v1/tracks/5L0McLUJ1jS8N6dPnv4251",
      "id" : "5L0McLUJ1jS8N6dPnv4251",
      "is_local" : false,
      "is_playable" : true,
      "name" : "Angels We Have Heard On High - Live",
      "popularity" : 29,
      "preview_url" : "https://p.scdn.co/mp3-preview/c4c1c0eac4e99bfba5233ce8935f76f1860483c6?cid=774b29d4f13844c495f206cafdad9c86",
      "track_number" : 5,
      "type" : "track",
      "uri" : "spotify:track:5L0McLUJ1jS8N6dPnv4251"
    }, {
      "album" : {
        "album_type" : "album",
        "artists" : [ {
          "external_urls" : {
            "spotify" : "https://open.spotify.com/artist/6cXMpsP9x0SH4kFfMyVezF"
          },
          "href" : "https://api.spotify.com/v1/artists/6cXMpsP9x0SH4kFfMyVezF",
          "id" : "6cXMpsP9x0SH4kFfMyVezF",
          "name" : "Josh Groban",
          "type" : "artist",
          "uri" : "spotify:artist:6cXMpsP9x0SH4kFfMyVezF"
        } ],
        "external_urls" : {
          "spotify" : "https://open.spotify.com/album/4kqXw1yf9EKamws0zCarGt"
        },
        "href" : "https://api.spotify.com/v1/albums/4kqXw1yf9EKamws0zCarGt",
        "id" : "4kqXw1yf9EKamws0zCarGt",
        "images" : [ {
          "height" : 640,
          "url" : "https://i.scdn.co/image/ab67616d0000b273d5e8c6854f113f22c28be863",
          "width" : 640
        }, {
          "height" : 300,
          "url" : "https://i.scdn.co/image/ab67616d00001e02d5e8c6854f113f22c28be863",
          "width" : 300
        }, {
          "height" : 64,
          "url" : "https://i.scdn.co/image/ab67616d00004851d5e8c6854f113f22c28be863",
          "width" : 64
        } ],
        "name" : "Noël",
        "release_date" : "2007-10-09",
        "release_date_precision" : "day",
        "total_tracks" : 13,
        "type" : "album",
        "uri" : "spotify:album:4kqXw1yf9EKamws0zCarGt"
      },
      "artists" : [ {
        "external_urls" : {
          "spotify" : "https://open.spotify.com/artist/6cXMpsP9x0SH4kFfMyVezF"
        },
        "href" : "https://api.spotify.com/v1/artists/6cXMpsP9x0SH4kFfMyVezF",
        "id" : "6cXMpsP9x0SH4kFfMyVezF",
        "name" : "Josh Groban",
        "type" : "artist",
        "uri" : "spotify:artist:6cXMpsP9x0SH4kFfMyVezF"
      }, {
        "external_urls" : {
          "spotify" : "https://open.spotify.com/artist/6k0IBR0lU42s2GYpNX7kA9"
        },
        "href" : "https://api.spotify.com/v1/artists/6k0IBR0lU42s2GYpNX7kA9",
        "id" : "6k0IBR0lU42s2GYpNX7kA9",
        "name" : "Brian McKnight",
        "type" : "artist",
        "uri" : "spotify:artist:6k0IBR0lU42s2GYpNX7kA9"
      } ],
      "disc_number" : 1,
      "duration_ms" : 210933,
      "explicit" : false,
      "external_ids" : {
        "isrc" : "USRE10701712"
      },
      "external_urls" : {
        "spotify" : "https://open.spotify.com/track/7yPtjVIw1fQ86Pug1Tuzbd"
      },
      "href" : "https://api.spotify.com/v1/tracks/7yPtjVIw1fQ86Pug1Tuzbd",
      "id" : "7yPtjVIw1fQ86Pug1Tuzbd",
      "is_local" : false,
      "is_playable" : true,
      "name" : "Angels We Have Heard on High (with Brian McKnight)",
      "popularity" : 28,
      "preview_url" : "https://p.scdn.co/mp3-preview/8f85ab144d6978f8fa9131b1d4158faf3209aa57?cid=774b29d4f13844c495f206cafdad9c86",
      "track_number" : 5,
      "type" : "track",
      "uri" : "spotify:track:7yPtjVIw1fQ86Pug1Tuzbd"
    }, {
      "album" : {
        "album_type" : "album",
        "artists" : [ {
          "external_urls" : {
            "spotify" : "https://open.spotify.com/artist/0jW6R8CVyVohuUJVcuweDI"
          },
          "href" : "https://api.spotify.com/v1/artists/0jW6R8CVyVohuUJVcuweDI",
          "id" : "0jW6R8CVyVohuUJVcuweDI",
          "name" : "The Piano Guys",
          "type" : "artist",
          "uri" : "spotify:artist:0jW6R8CVyVohuUJVcuweDI"
        } ],
        "external_urls" : {
          "spotify" : "https://open.spotify.com/album/1NrV9Ijb8Dk4yWv5LdYT09"
        },
        "href" : "https://api.spotify.com/v1/albums/1NrV9Ijb8Dk4yWv5LdYT09",
        "id" : "1NrV9Ijb8Dk4yWv5LdYT09",
        "images" : [ {
          "height" : 640,
          "url" : "https://i.scdn.co/image/ab67616d0000b2731be4bb6e48c76d8ad6172bf9",
          "width" : 640
        }, {
          "height" : 300,
          "url" : "https://i.scdn.co/image/ab67616d00001e021be4bb6e48c76d8ad6172bf9",
          "width" : 300
        }, {
          "height" : 64,
          "url" : "https://i.scdn.co/image/ab67616d000048511be4bb6e48c76d8ad6172bf9",
          "width" : 64
        } ],
        "name" : "A Family Christmas",
        "release_date" : "2013-10-21",
        "release_date_precision" : "day",
        "total_tracks" : 12,
        "type" : "album",
        "uri" : "spotify:album:1NrV9Ijb8Dk4yWv5LdYT09"
      },
      "artists" : [ {
        "external_urls" : {
          "spotify" : "https://open.spotify.com/artist/0jW6R8CVyVohuUJVcuweDI"
        },
        "href" : "https://api.spotify.com/v1/artists/0jW6R8CVyVohuUJVcuweDI",
        "id" : "0jW6R8CVyVohuUJVcuweDI",
        "name" : "The Piano Guys",
        "type" : "artist",
        "uri" : "spotify:artist:0jW6R8CVyVohuUJVcuweDI"
      } ],
      "disc_number" : 1,
      "duration_ms" : 212333,
      "explicit" : false,
      "external_ids" : {
        "isrc" : "USQX91301795"
      },
      "external_urls" : {
        "spotify" : "https://open.spotify.com/track/2S96r2pepRxVn0bw74dcZn"
      },
      "href" : "https://api.spotify.com/v1/tracks/2S96r2pepRxVn0bw74dcZn",
      "id" : "2S96r2pepRxVn0bw74dcZn",
      "is_local" : false,
      "is_playable" : true,
      "name" : "Angels We Have Heard on High",
      "popularity" : 30,
      "preview_url" : "https://p.scdn.co/mp3-preview/cf59bb2248a1fd9a4d1a2d0910c3ec7df916a51a?cid=774b29d4f13844c495f206cafdad9c86",
      "track_number" : 1,
      "type" : "track",
      "uri" : "spotify:track:2S96r2pepRxVn0bw74dcZn"
    }, {
      "album" : {
        "album_type" : "single",
        "artists" : [ {
          "external_urls" : {
            "spotify" : "https://open.spotify.com/artist/2RXeqFbm3UMssZ1sPwV2OF"
          },
          "href" : "https://api.spotify.com/v1/artists/2RXeqFbm3UMssZ1sPwV2OF",
          "id" : "2RXeqFbm3UMssZ1sPwV2OF",
          "name" : "Matty C Beats",
          "type" : "artist",
          "uri" : "spotify:artist:2RXeqFbm3UMssZ1sPwV2OF"
        } ],
        "external_urls" : {
          "spotify" : "https://open.spotify.com/album/3EpDvHEurlsuA4mbDbjaHy"
        },
        "href" : "https://api.spotify.com/v1/albums/3EpDvHEurlsuA4mbDbjaHy",
        "id" : "3EpDvHEurlsuA4mbDbjaHy",
        "images" : [ {
          "height" : 640,
          "url" : "https://i.scdn.co/image/ab67616d0000b273994a9836009f8725e1f992f8",
          "width" : 640
        }, {
          "height" : 300,
          "url" : "https://i.scdn.co/image/ab67616d00001e02994a9836009f8725e1f992f8",
          "width" : 300
        }, {
          "height" : 64,
          "url" : "https://i.scdn.co/image/ab67616d00004851994a9836009f8725e1f992f8",
          "width" : 64
        } ],
        "name" : "Christmas in Coolsville",
        "release_date" : "2018-12-21",
        "release_date_precision" : "day",
        "total_tracks" : 5,
        "type" : "album",
        "uri" : "spotify:album:3EpDvHEurlsuA4mbDbjaHy"
      },
      "artists" : [ {
        "external_urls" : {
          "spotify" : "https://open.spotify.com/artist/2RXeqFbm3UMssZ1sPwV2OF"
        },
        "href" : "https://api.spotify.com/v1/artists/2RXeqFbm3UMssZ1sPwV2OF",
        "id" : "2RXeqFbm3UMssZ1sPwV2OF",
        "name" : "Matty C Beats",
        "type" : "artist",
        "uri" : "spotify:artist:2RXeqFbm3UMssZ1sPwV2OF"
      } ],
      "disc_number" : 1,
      "duration_ms" : 144985,
      "explicit" : false,
      "external_ids" : {
        "isrc" : "QZ4JJ1807848"
      },
      "external_urls" : {
        "spotify" : "https://open.spotify.com/track/0rFUkvoD7NyX4DiWnXcHE1"
      },
      "href" : "https://api.spotify.com/v1/tracks/0rFUkvoD7NyX4DiWnXcHE1",
      "id" : "0rFUkvoD7NyX4DiWnXcHE1",
      "is_local" : false,
      "is_playable" : true,
      "name" : "Angels We Have Heard on High",
      "popularity" : 23,
      "preview_url" : "https://p.scdn.co/mp3-preview/e4b792ad83288540b0a2427f97800292935789d4?cid=774b29d4f13844c495f206cafdad9c86",
      "track_number" : 1,
      "type" : "track",
      "uri" : "spotify:track:0rFUkvoD7NyX4DiWnXcHE1"
    }, {
      "album" : {
        "album_type" : "album",
        "artists" : [ {
          "external_urls" : {
            "spotify" : "https://open.spotify.com/artist/3Mqi8GYWkenzbP6702MUwZ"
          },
          "href" : "https://api.spotify.com/v1/artists/3Mqi8GYWkenzbP6702MUwZ",
          "id" : "3Mqi8GYWkenzbP6702MUwZ",
          "name" : "Little Drummer Boy Productions",
          "type" : "artist",
          "uri" : "spotify:artist:3Mqi8GYWkenzbP6702MUwZ"
        } ],
        "external_urls" : {
          "spotify" : "https://open.spotify.com/album/0Eq9BjdK0I8MNjmVuFn2zl"
        },
        "href" : "https://api.spotify.com/v1/albums/0Eq9BjdK0I8MNjmVuFn2zl",
        "id" : "0Eq9BjdK0I8MNjmVuFn2zl",
        "images" : [ {
          "height" : 640,
          "url" : "https://i.scdn.co/image/ab67616d0000b273d84701c3d553e5f5e15b4f93",
          "width" : 640
        }, {
          "height" : 300,
          "url" : "https://i.scdn.co/image/ab67616d00001e02d84701c3d553e5f5e15b4f93",
          "width" : 300
        }, {
          "height" : 64,
          "url" : "https://i.scdn.co/image/ab67616d00004851d84701c3d553e5f5e15b4f93",
          "width" : 64
        } ],
        "name" : "Ripley's Christmas Wish",
        "release_date" : "2019-04-02",
        "release_date_precision" : "day",
        "total_tracks" : 10,
        "type" : "album",
        "uri" : "spotify:album:0Eq9BjdK0I8MNjmVuFn2zl"
      },
      "artists" : [ {
        "external_urls" : {
          "spotify" : "https://open.spotify.com/artist/3Mqi8GYWkenzbP6702MUwZ"
        },
        "href" : "https://api.spotify.com/v1/artists/3Mqi8GYWkenzbP6702MUwZ",
        "id" : "3Mqi8GYWkenzbP6702MUwZ",
        "name" : "Little Drummer Boy Productions",
        "type" : "artist",
        "uri" : "spotify:artist:3Mqi8GYWkenzbP6702MUwZ"
      } ],
      "disc_number" : 1,
      "duration_ms" : 109035,
      "explicit" : false,
      "external_ids" : {
        "isrc" : "QZHNA1998035"
      },
      "external_urls" : {
        "spotify" : "https://open.spotify.com/track/6QhLlBHPaERFPbX56t1eiY"
      },
      "href" : "https://api.spotify.com/v1/tracks/6QhLlBHPaERFPbX56t1eiY",
      "id" : "6QhLlBHPaERFPbX56t1eiY",
      "is_local" : false,
      "is_playable" : true,
      "name" : "Angels We Have Heard on High",
      "popularity" : 22,
      "preview_url" : "https://p.scdn.co/mp3-preview/42745b29c9867b210ce0ea5f3edb331fbb0e504a?cid=774b29d4f13844c495f206cafdad9c86",
      "track_number" : 5,
      "type" : "track",
      "uri" : "spotify:track:6QhLlBHPaERFPbX56t1eiY"
    }, {
      "album" : {
        "album_type" : "single",
        "artists" : [ {
          "external_urls" : {
            "spotify" : "https://open.spotify.com/artist/6eJqAWJdd8JhAN1pQGie4r"
          },
          "href" : "https://api.spotify.com/v1/artists/6eJqAWJdd8JhAN1pQGie4r",
          "id" : "6eJqAWJdd8JhAN1pQGie4r",
          "name" : "Casting Crowns",
          "type" : "artist",
          "uri" : "spotify:artist:6eJqAWJdd8JhAN1pQGie4r"
        } ],
        "external_urls" : {
          "spotify" : "https://open.spotify.com/album/6yYrcNXcSslKmDkR2sfm6Q"
        },
        "href" : "https://api.spotify.com/v1/albums/6yYrcNXcSslKmDkR2sfm6Q",
        "id" : "6yYrcNXcSslKmDkR2sfm6Q",
        "images" : [ {
          "height" : 640,
          "url" : "https://i.scdn.co/image/ab67616d0000b27334b5a862daa4b76b7b68eb0f",
          "width" : 640
        }, {
          "height" : 300,
          "url" : "https://i.scdn.co/image/ab67616d00001e0234b5a862daa4b76b7b68eb0f",
          "width" : 300
        }, {
          "height" : 64,
          "url" : "https://i.scdn.co/image/ab67616d0000485134b5a862daa4b76b7b68eb0f",
          "width" : 64
        } ],
        "name" : "It's Finally Christmas - EP",
        "release_date" : "2017-10-20",
        "release_date_precision" : "day",
        "total_tracks" : 6,
        "type" : "album",
        "uri" : "spotify:album:6yYrcNXcSslKmDkR2sfm6Q"
      },
      "artists" : [ {
        "external_urls" : {
          "spotify" : "https://open.spotify.com/artist/6eJqAWJdd8JhAN1pQGie4r"
        },
        "href" : "https://api.spotify.com/v1/artists/6eJqAWJdd8JhAN1pQGie4r",
        "id" : "6eJqAWJdd8JhAN1pQGie4r",
        "name" : "Casting Crowns",
        "type" : "artist",
        "uri" : "spotify:artist:6eJqAWJdd8JhAN1pQGie4r"
      } ],
      "disc_number" : 1,
      "duration_ms" : 271760,
      "explicit" : false,
      "external_ids" : {
        "isrc" : "USA5W1700240"
      },
      "external_urls" : {
        "spotify" : "https://open.spotify.com/track/2PzQepOc2vrzP8hYfQlghd"
      },
      "href" : "https://api.spotify.com/v1/tracks/2PzQepOc2vrzP8hYfQlghd",
      "id" : "2PzQepOc2vrzP8hYfQlghd",
      "is_local" : false,
      "is_playable" : true,
      "name" : "Gloria/Angels We Have Heard on High",
      "popularity" : 23,
      "preview_url" : "https://p.scdn.co/mp3-preview/8f5732bf2d465ad18592dcc964086b9c92b2c906?cid=774b29d4f13844c495f206cafdad9c86",
      "track_number" : 1,
      "type" : "track",
      "uri" : "spotify:track:2PzQepOc2vrzP8hYfQlghd"
    }, {
      "album" : {
        "album_type" : "single",
        "artists" : [ {
          "external_urls" : {
            "spotify" : "https://open.spotify.com/artist/6J4FeobN5L7NH7tVVRHP7n"
          },
          "href" : "https://api.spotify.com/v1/artists/6J4FeobN5L7NH7tVVRHP7n",
          "id" : "6J4FeobN5L7NH7tVVRHP7n",
          "name" : "Chad Lawson Trio",
          "type" : "artist",
          "uri" : "spotify:artist:6J4FeobN5L7NH7tVVRHP7n"
        } ],
        "external_urls" : {
          "spotify" : "https://open.spotify.com/album/4bqFz6hx54gnFFKBY8FEE7"
        },
        "href" : "https://api.spotify.com/v1/albums/4bqFz6hx54gnFFKBY8FEE7",
        "id" : "4bqFz6hx54gnFFKBY8FEE7",
        "images" : [ {
          "height" : 640,
          "url" : "https://i.scdn.co/image/ab67616d0000b273184f6faf5299c3d3f7d32634",
          "width" : 640
        }, {
          "height" : 300,
          "url" : "https://i.scdn.co/image/ab67616d00001e02184f6faf5299c3d3f7d32634",
          "width" : 300
        }, {
          "height" : 64,
          "url" : "https://i.scdn.co/image/ab67616d00004851184f6faf5299c3d3f7d32634",
          "width" : 64
        } ],
        "name" : "Jazz the Halls",
        "release_date" : "2016-11-11",
        "release_date_precision" : "day",
        "total_tracks" : 5,
        "type" : "album",
        "uri" : "spotify:album:4bqFz6hx54gnFFKBY8FEE7"
      },
      "artists" : [ {
        "external_urls" : {
          "spotify" : "https://open.spotify.com/artist/6J4FeobN5L7NH7tVVRHP7n"
        },
        "href" : "https://api.spotify.com/v1/artists/6J4FeobN5L7NH7tVVRHP7n",
        "id" : "6J4FeobN5L7NH7tVVRHP7n",
        "name" : "Chad Lawson Trio",
        "type" : "artist",
        "uri" : "spotify:artist:6J4FeobN5L7NH7tVVRHP7n"
      } ],
      "disc_number" : 1,
      "duration_ms" : 173520,
      "explicit" : false,
      "external_ids" : {
        "isrc" : "ushm81685305"
      },
      "external_urls" : {
        "spotify" : "https://open.spotify.com/track/5wcHHljUfrBxJh3Uk42u4m"
      },
      "href" : "https://api.spotify.com/v1/tracks/5wcHHljUfrBxJh3Uk42u4m",
      "id" : "5wcHHljUfrBxJh3Uk42u4m",
      "is_local" : false,
      "is_playable" : true,
      "name" : "Angels We Have Heard on High",
      "popularity" : 25,
      "preview_url" : "https://p.scdn.co/mp3-preview/d4158beb21d2aa165d6c2cc36cc7596734cacd4f?cid=774b29d4f13844c495f206cafdad9c86",
      "track_number" : 4,
      "type" : "track",
      "uri" : "spotify:track:5wcHHljUfrBxJh3Uk42u4m"
    }, {
      "album" : {
        "album_type" : "album",
        "artists" : [ {
          "external_urls" : {
            "spotify" : "https://open.spotify.com/artist/0SCbttzoZTnLFebDYmAWCm"
          },
          "href" : "https://api.spotify.com/v1/artists/0SCbttzoZTnLFebDYmAWCm",
          "id" : "0SCbttzoZTnLFebDYmAWCm",
          "name" : "Glee Cast",
          "type" : "artist",
          "uri" : "spotify:artist:0SCbttzoZTnLFebDYmAWCm"
        } ],
        "external_urls" : {
          "spotify" : "https://open.spotify.com/album/5NBvxR9saJ2OL3QLCha8yW"
        },
        "href" : "https://api.spotify.com/v1/albums/5NBvxR9saJ2OL3QLCha8yW",
        "id" : "5NBvxR9saJ2OL3QLCha8yW",
        "images" : [ {
          "height" : 640,
          "url" : "https://i.scdn.co/image/ab67616d0000b273e78af2aa2a006b8c1781e905",
          "width" : 640
        }, {
          "height" : 300,
          "url" : "https://i.scdn.co/image/ab67616d00001e02e78af2aa2a006b8c1781e905",
          "width" : 300
        }, {
          "height" : 64,
          "url" : "https://i.scdn.co/image/ab67616d00004851e78af2aa2a006b8c1781e905",
          "width" : 64
        } ],
        "name" : "Glee: The Music, The Christmas Album",
        "release_date" : "2010-11-09",
        "release_date_precision" : "day",
        "total_tracks" : 12,
        "type" : "album",
        "uri" : "spotify:album:5NBvxR9saJ2OL3QLCha8yW"
      },
      "artists" : [ {
        "external_urls" : {
          "spotify" : "https://open.spotify.com/artist/0SCbttzoZTnLFebDYmAWCm"
        },
        "href" : "https://api.spotify.com/v1/artists/0SCbttzoZTnLFebDYmAWCm",
        "id" : "0SCbttzoZTnLFebDYmAWCm",
        "name" : "Glee Cast",
        "type" : "artist",
        "uri" : "spotify:artist:0SCbttzoZTnLFebDYmAWCm"
      } ],
      "disc_number" : 1,
      "duration_ms" : 263186,
      "explicit" : false,
      "external_ids" : {
        "isrc" : "USQX91001245"
      },
      "external_urls" : {
        "spotify" : "https://open.spotify.com/track/4QOenKWsuEjcABYruDwFd3"
      },
      "href" : "https://api.spotify.com/v1/tracks/4QOenKWsuEjcABYruDwFd3",
      "id" : "4QOenKWsuEjcABYruDwFd3",
      "is_local" : false,
      "is_playable" : true,
      "name" : "Angels We Have Heard On High (Glee Cast Version)",
      "popularity" : 28,
      "preview_url" : "https://p.scdn.co/mp3-preview/dff1bf793ac7c12d56e5705437a2530cbe9cc1d6?cid=774b29d4f13844c495f206cafdad9c86",
      "track_number" : 11,
      "type" : "track",
      "uri" : "spotify:track:4QOenKWsuEjcABYruDwFd3"
    }, {
      "album" : {
        "album_type" : "album",
        "artists" : [ {
          "external_urls" : {
            "spotify" : "https://open.spotify.com/artist/6wPGJjIqYiCqOhdhShu0nL"
          },
          "href" : "https://api.spotify.com/v1/artists/6wPGJjIqYiCqOhdhShu0nL",
          "id" : "6wPGJjIqYiCqOhdhShu0nL",
          "name" : "KiKstart",
          "type" : "artist",
          "uri" : "spotify:artist:6wPGJjIqYiCqOhdhShu0nL"
        } ],
        "external_urls" : {
          "spotify" : "https://open.spotify.com/album/4tLPCQG0eUwgvfUjPDFVkD"
        },
        "href" : "https://api.spotify.com/v1/albums/4tLPCQG0eUwgvfUjPDFVkD",
        "id" : "4tLPCQG0eUwgvfUjPDFVkD",
        "images" : [ {
          "height" : 640,
          "url" : "https://i.scdn.co/image/ab67616d0000b273ccdd02fc03d5245addb6f439",
          "width" : 640
        }, {
          "height" : 300,
          "url" : "https://i.scdn.co/image/ab67616d00001e02ccdd02fc03d5245addb6f439",
          "width" : 300
        }, {
          "height" : 64,
          "url" : "https://i.scdn.co/image/ab67616d00004851ccdd02fc03d5245addb6f439",
          "width" : 64
        } ],
        "name" : "Our Savior’s Birth",
        "release_date" : "2016-11-29",
        "release_date_precision" : "day",
        "total_tracks" : 7,
        "type" : "album",
        "uri" : "spotify:album:4tLPCQG0eUwgvfUjPDFVkD"
      },
      "artists" : [ {
        "external_urls" : {
          "spotify" : "https://open.spotify.com/artist/6wPGJjIqYiCqOhdhShu0nL"
        },
        "href" : "https://api.spotify.com/v1/artists/6wPGJjIqYiCqOhdhShu0nL",
        "id" : "6wPGJjIqYiCqOhdhShu0nL",
        "name" : "KiKstart",
        "type" : "artist",
        "uri" : "spotify:artist:6wPGJjIqYiCqOhdhShu0nL"
      } ],
      "disc_number" : 1,
      "duration_ms" : 206763,
      "explicit" : false,
      "external_ids" : {
        "isrc" : "ushm91629356"
      },
      "external_urls" : {
        "spotify" : "https://open.spotify.com/track/0BwD809SiXnKXDUVPZM2zG"
      },
      "href" : "https://api.spotify.com/v1/tracks/0BwD809SiXnKXDUVPZM2zG",
      "id" : "0BwD809SiXnKXDUVPZM2zG",
      "is_local" : false,
      "is_playable" : true,
      "name" : "Angels We Have Heard on High",
      "popularity" : 19,
      "preview_url" : "https://p.scdn.co/mp3-preview/89bfd6daa93c42236e887288f55599d7f3565fd0?cid=774b29d4f13844c495f206cafdad9c86",
      "track_number" : 6,
      "type" : "track",
      "uri" : "spotify:track:0BwD809SiXnKXDUVPZM2zG"
    } ],
    "limit" : 10,
    "next" : "https://api.spotify.com/v1/search?query=We+Have+Heard&type=track&market=US&offset=15&limit=10",
    "offset" : 5,
    "previous" : "https://api.spotify.com/v1/search?query=We+Have+Heard&type=track&market=US&offset=0&limit=10",
    "total" : 7643
  }
}