{
  "tracks" : {
    "href" : "https://api.spotify.com/v1/search?query=What+Heavenly+Music&type=track&market=US&offset=5&limit=10",
    "items" : [ {
      "album" : {
        "album_type" : "album",
        "artists" : [ {
          "external_urls" : {
            "spotify" : "https://open.spotify.com/artist/2KNDw5gaW2hhFyOiRWSuAy"
          },
          "href" : "https://api.spotify.com/v1/artists/2KNDw5gaW2hhFyOiRWSuAy",
          "id" : "2KNDw5gaW2hhFyOiRWSuAy",
          "name" : "Eliya Mykel",
          "type" : "artist",
          "uri" : "spotify:artist:2KNDw5gaW2hhFyOiRWSuAy"
        } ],
        "external_urls" : {
          "spotify" : "https://open.spotify.com/album/6lJC4WzzDNc8ZOIHBzOUN3"
        },
        "href" : "https://api.spotify.com/v1/albums/6lJC4WzzDNc8ZOIHBzOUN3",
        "id" : "6lJC4WzzDNc8ZOIHBzOUN3",
        "images" : [ {
          "height" : 640,
          "url" : "https://i.scdn.co/image/ab67616d0000b2736a95ab12632c0f19bee26ae2",
          "width" : 640
        }, {
          "height" : 300,
          "url" : "https://i.scdn.co/image/ab67616d00001e026a95ab12632c0f19bee26ae2",
          "width" : 300
        }, {
          "height" : 64,
          "url" : "https://i.scdn.co/image/ab67616d000048516a95ab12632c0f19bee26ae2",
          "width" : 64
        } ],
        "name" : "Redeemed Again",
        "release_date" : "2018-12-17",
        "release_date_precision" : "day",
        "total_tracks" : 10,
        "type" : "album",
        "uri" : "spotify:album:6lJC4WzzDNc8ZOIHBzOUN3"
      },
      "artists" : [ {
        "external_urls" : {
          "spotify" : "https://open.spotify.com/artist/2KNDw5gaW2hhFyOiRWSuAy"
        },
        "href" : "https://api.spotify.com/v1/artists/2KNDw5gaW2hhFyOiRWSuAy",
        "id" : "2KNDw5gaW2hhFyOiRWSuAy",
        "name" : "Eliya Mykel",
        "type" : "artist",
        "uri" : "spotify:artist:2KNDw5gaW2hhFyOiRWSuAy"
      } ],
      "disc_number" : 1,
      "duration_ms" : 104638,
      "explicit" : false,
      "external_ids" : {
        "isrc" : "QZES91861208"
      },
      "external_urls" : {
        "spotify" : "https://open.spotify.com/track/4cR68IRFNoF7WULDyfDkhd"
      },
      "href" : "https://api.spotify.com/v1/tracks/4cR68IRFNoF7WULDyfDkhd",
      "id" : "4cR68IRFNoF7WULDyfDkhd",
      "is_local" : false,
      "is_playable" : true,
      "name" : "What Heavenly Music",
      "popularity" : 0,
      "preview_url" : "https://p.scdn.co/mp3-preview/072c8a1c273065fc9d8f71a264e007527f19a766?cid=774b29d4f13844c495f206cafdad9c86",
      "track_number" : 5,
      "type" : "track",
      "uri" : "spotify:track:4cR68IRFNoF7WULDyfDkhd"
    }, {
      "album" : {
        "album_type" : "album",
        "artists" : [ {
          "external_urls" : {
            "spotify" : "https://open.spotify.com/artist/1OAtMeKOSJmbQ7QHRd4SO2"
          },
          "href" : "https://api.spotify.com/v1/artists/1OAtMeKOSJmbQ7QHRd4SO2",
          "id" : "1OAtMeKOSJmbQ7QHRd4SO2",
          "name" : "Dave & Marlene Colburn",
          "type" : "artist",
          "uri" : "spotify:artist:1OAtMeKOSJmbQ7QHRd4SO2"
        } ],
        "external_urls" : {
          "spotify" : "https://open.spotify.com/album/22X0TNB4WFxT1EaW1tuUq9"
        },
        "href" : "https://api.spotify.com/v1/albums/22X0TNB4WFxT1EaW1tuUq9",
        "id" : "22X0TNB4WFxT1EaW1tuUq9",
        "images" : [ {
          "height" : 640,
          "url" : "https://i.scdn.co/image/ab67616d0000b27311279a74a495b2a68019149d",
          "width" : 640
        }, {
          "height" : 300,
          "url" : "https://i.scdn.co/image/ab67616d00001e0211279a74a495b2a68019149d",
          "width" : 300
        }, {
          "height" : 64,
          "url" : "https://i.scdn.co/image/ab67616d0000485111279a74a495b2a68019149d",
          "width" : 64
        } ],
        "name" : "Holy, Holy, Holy",
        "release_date" : "2014-09-01",
        "release_date_precision" : "day",
        "total_tracks" : 13,
        "type" : "album",
        "uri" : "spotify:album:22X0TNB4WFxT1EaW1tuUq9"
      },
      "artists" : [ {
        "external_urls" : {
          "spotify" : "https://open.spotify.com/artist/1OAtMeKOSJmbQ7QHRd4SO2"
        },
        "href" : "https://api.spotify.com/v1/artists/1OAtMeKOSJmbQ7QHRd4SO2",
        "id" : "1OAtMeKOSJmbQ7QHRd4SO2",
        "name" : "Dave & Marlene Colburn",
        "type" : "artist",
        "uri" : "spotify:artist:1OAtMeKOSJmbQ7QHRd4SO2"
      } ],
      "disc_number" : 1,
      "duration_ms" : 220986,
      "explicit" : false,
      "external_ids" : {
        "isrc" : "ushm91454946"
      },
      "external_urls" : {
        "spotify" : "https://open.spotify.com/track/1bOq5qyu1vvm6tlilTAHXl"
      },
      "href" : "https://api.spotify.com/v1/tracks/1bOq5qyu1vvm6tlilTAHXl",
      "id" : "1bOq5qyu1vvm6tlilTAHXl",
      "is_local" : false,
      "is_playable" : true,
      "name" : "Prince of Peace / What Heavenly Music",
      "popularity" : 1,
      "preview_url" : "https://p.scdn.co/mp3-preview/d9cf5c28c5118f2b196a71f6bd76439548490540?cid=774b29d4f13844c495f206cafdad9c86",
      "track_number" : 12,
      "type" : "track",
      "uri" : "spotify:track:1bOq5qyu1vvm6tlilTAHXl"
    }, {
      "album" : {
        "album_type" : "compilation",
        "artists" : [ {
          "external_urls" : {
            "spotify" : "https://open.spotify.com/artist/0LyfQWJT6nXafLPZqxe9Of"
          },
          "href" : "https://api.spotify.com/v1/artists/0LyfQWJT6nXafLPZqxe9Of",
          "id" : "0LyfQWJT6nXafLPZqxe9Of",
          "name" : "Various Artists",
          "type" : "artist",
          "uri" : "spotify:artist:0LyfQWJT6nXafLPZqxe9Of"
        } ],
        "external_urls" : {
          "spotify" : "https://open.spotify.com/album/0iAtqCVcjomKdCCBNlu41E"
        },
        "href" : "https://api.spotify.com/v1/albums/0iAtqCVcjomKdCCBNlu41E",
        "id" : "0iAtqCVcjomKdCCBNlu41E",
        "images" : [ {
          "height" : 640,
          "url" : "https://i.scdn.co/image/ab67616d0000b27334cafbfd09b2ec94542fbc8f",
          "width" : 640
        }, {
          "height" : 300,
          "url" : "https://i.scdn.co/image/ab67616d00001e0234cafbfd09b2ec94542fbc8f",
          "width" : 300
        }, {
          "height" : 64,
          "url" : "https://i.scdn.co/image/ab67616d0000485134cafbfd09b2ec94542fbc8f",
          "width" : 64
        } ],
        "name" : "Heavenly Peace Music",
        "release_date" : "2015-12-22",
        "release_date_precision" : "day",
        "total_tracks" : 35,
        "type" : "album",
        "uri" : "spotify:album:0iAtqCVcjomKdCCBNlu41E"
      },
      "artists" : [ {
        "external_urls" : {
          "spotify" : "https://open.spotify.com/artist/4QIgWhhIeq3gEfQmJtcOMy"
        },
        "href" : "https://api.spotify.com/v1/artists/4QIgWhhIeq3gEfQmJtcOMy",
        "id" : "4QIgWhhIeq3gEfQmJtcOMy",
        "name" : "Regression",
        "type" : "artist",
        "uri" : "spotify:artist:4QIgWhhIeq3gEfQmJtcOMy"
      } ],
      "disc_number" : 1,
      "duration_ms" : 257819,
      "explicit" : false,
      "external_ids" : {
        "isrc" : "DEZ621500307"
      },
      "external_urls" : {
        "spotify" : "https://open.spotify.com/track/6OKHXNOse4aIYtqqlTARoa"
      },
      "href" : "https://api.spotify.com/v1/tracks/6OKHXNOse4aIYtqqlTARoa",
      "id" : "6OKHXNOse4aIYtqqlTARoa",
      "is_local" : false,
      "is_playable" : true,
      "name" : "What Comes After",
      "popularity" : 0,
      "preview_url" : "https://p.scdn.co/mp3-preview/b27f0ac0d4b9c4082353a372b628bbc543b191ce?cid=774b29d4f13844c495f206cafdad9c86",
      "track_number" : 19,
      "type" : "track",
      "uri" : "spotify:track:6OKHXNOse4aIYtqqlTARoa"
    }, {
      "album" : {
        "album_type" : "compilation",
        "artists" : [ {
          "external_urls" : {
            "spotify" : "https://open.spotify.com/artist/0LyfQWJT6nXafLPZqxe9Of"
          },
          "href" : "https://api.spotify.com/v1/artists/0LyfQWJT6nXafLPZqxe9Of",
          "id" : "0LyfQWJT6nXafLPZqxe9Of",
          "name" : "Various Artists",
          "type" : "artist",
          "uri" : "spotify:artist:0LyfQWJT6nXafLPZqxe9Of"
        } ],
        "external_urls" : {
          "spotify" : "https://open.spotify.com/album/1fG91sjo6Hg1HqVqR3pkdi"
        },
        "href" : "https://api.spotify.com/v1/albums/1fG91sjo6Hg1HqVqR3pkdi",
        "id" : "1fG91sjo6Hg1HqVqR3pkdi",
        "images" : [ {
          "height" : 640,
          "url" : "https://i.scdn.co/image/ab67616d0000b273421bfd262e75fa7f193c157b",
          "width" : 640
        }, {
          "height" : 300,
          "url" : "https://i.scdn.co/image/ab67616d00001e02421bfd262e75fa7f193c157b",
          "width" : 300
        }, {
          "height" : 64,
          "url" : "https://i.scdn.co/image/ab67616d00004851421bfd262e75fa7f193c157b",
          "width" : 64
        } ],
        "name" : "What a Heavenly Dream: The Fats Waller Rhythm Project",
        "release_date" : "2012-11-20",
        "release_date_precision" : "day",
        "total_tracks" : 14,
        "type" : "album",
        "uri" : "spotify:album:1fG91sjo6Hg1HqVqR3pkdi"
      },
      "artists" : [ {
        "external_urls" : {
          "spotify" : "https://open.spotify.com/artist/5fhghPdEaSY3Vvyh8uETzT"
        },
        "href" : "https://api.spotify.com/v1/artists/5fhghPdEaSY3Vvyh8uETzT",
        "id" : "5fhghPdEaSY3Vvyh8uETzT",
        "name" : "Paul Asaro and The Fat Babies",
        "type" : "artist",
        "uri" : "spotify:artist:5fhghPdEaSY3Vvyh8uETzT"
      } ],
      "disc_number" : 1,
      "duration_ms" : 308760,
      "explicit" : false,
      "external_ids" : {
        "isrc" : "USDYP1300076"
      },
      "external_urls" : {
        "spotify" : "https://open.spotify.com/track/2QQFNfj9pPl1QuZpbczjte"
      },
      "href" : "https://api.spotify.com/v1/tracks/2QQFNfj9pPl1QuZpbczjte",
      "id" : "2QQFNfj9pPl1QuZpbczjte",
      "is_local" : false,
      "is_playable" : true,
      "name" : "Ain'tcha Got Music?",
      "popularity" : 0,
      "preview_url" : "https://p.scdn.co/mp3-preview/7d6f9228d09dcbc7ff8bdc7a91bb38dc108c6299?cid=774b29d4f13844c495f206cafdad9c86",
      "track_number" : 14,
      "type" : "track",
      "uri" : "spotify:track:2QQFNfj9pPl1QuZpbczjte"
    }, {
      "album" : {
        "album_type" : "album",
        "artists" : [ {
          "external_urls" : {
            "spotify" : "https://open.spotify.com/artist/1FMF2ujmKaCwEFdP17Om0A"
          },
          "href" : "https://api.spotify.com/v1/artists/1FMF2ujmKaCwEFdP17Om0A",
          "id" : "1FMF2ujmKaCwEFdP17Om0A",
          "name" : "Gospel Party Band",
          "type" : "artist",
          "uri" : "spotify:artist:1FMF2ujmKaCwEFdP17Om0A"
        } ],
        "external_urls" : {
          "spotify" : "https://open.spotify.com/album/2h5RXdv0HtkwC6safkCiQL"
        },
        "href" : "https://api.spotify.com/v1/albums/2h5RXdv0HtkwC6safkCiQL",
        "id" : "2h5RXdv0HtkwC6safkCiQL",
        "images" : [ {
          "height" : 640,
          "url" : "https://i.scdn.co/image/ab67616d0000b27302986880d6c5057569e0486e",
          "width" : 640
        }, {
          "height" : 300,
          "url" : "https://i.scdn.co/image/ab67616d00001e0202986880d6c5057569e0486e",
          "width" : 300
        }, {
          "height" : 64,
          "url" : "https://i.scdn.co/image/ab67616d0000485102986880d6c5057569e0486e",
          "width" : 64
        } ],
        "name" : "Heavenly Gospel Music",
        "release_date" : "2010-05-29",
        "release_date_precision" : "day",
        "total_tracks" : 18,
        "type" : "album",
        "uri" : "spotify:album:2h5RXdv0HtkwC6safkCiQL"
      },
      "artists" : [ {
        "external_urls" : {
          "spotify" : "https://open.spotify.com/artist/1FMF2ujmKaCwEFdP17Om0A"
        },
        "href" : "https://api.spotify.com/v1/artists/1FMF2ujmKaCwEFdP17Om0A",
        "id" : "1FMF2ujmKaCwEFdP17Om0A",
        "name" : "Gospel Party Band",
        "type" : "artist",
        "uri" : "spotify:artist:1FMF2ujmKaCwEFdP17Om0A"
      } ],
      "disc_number" : 1,
      "duration_ms" : 147111,
      "explicit" : false,
      "external_ids" : {
        "isrc" : "USJ7U1090754"
      },
      "external_urls" : {
        "spotify" : "https://open.spotify.com/track/733Vz3pqLyo9zjSLgEV4Cg"
      },
      "href" : "https://api.spotify.com/v1/tracks/733Vz3pqLyo9zjSLgEV4Cg",
      "id" : "733Vz3pqLyo9zjSLgEV4Cg",
      "is_local" : false,
      "is_playable" : true,
      "name" : "What Are They Doing In Heaven",
      "popularity" : 0,
      "preview_url" : "https://p.scdn.co/mp3-preview/35fe3cd50b1424d565c2df797b6894b992d2cc44?cid=774b29d4f13844c495f206cafdad9c86",
      "track_number" : 17,
      "type" : "track",
      "uri" : "spotify:track:733Vz3pqLyo9zjSLgEV4Cg"
    }, {
      "album" : {
        "album_type" : "album",
        "artists" : [ {
          "external_urls" : {
            "spotify" : "https://open.spotify.com/artist/27JV8QxNQaCoW0aWP0jhQU"
          },
          "href" : "https://api.spotify.com/v1/artists/27JV8QxNQaCoW0aWP0jhQU",
          "id" : "27JV8QxNQaCoW0aWP0jhQU",
          "name" : "Spa Zen",
          "type" : "artist",
          "uri" : "spotify:artist:27JV8QxNQaCoW0aWP0jhQU"
        }, {
          "external_urls" : {
            "spotify" : "https://open.spotify.com/artist/143sZ3womjnhB99wpYpmqk"
          },
          "href" : "https://api.spotify.com/v1/artists/143sZ3womjnhB99wpYpmqk",
          "id" : "143sZ3womjnhB99wpYpmqk",
          "name" : "Spa Wave",
          "type" : "artist",
          "uri" : "spotify:artist:143sZ3womjnhB99wpYpmqk"
        } ],
        "external_urls" : {
          "spotify" : "https://open.spotify.com/album/1fh4SmCs2T7WXCrIVuqIcC"
        },
        "href" : "https://api.spotify.com/v1/albums/1fh4SmCs2T7WXCrIVuqIcC",
        "id" : "1fh4SmCs2T7WXCrIVuqIcC",
        "images" : [ {
          "height" : 640,
          "url" : "https://i.scdn.co/image/ab67616d0000b273d16c122dd9ce9f18c5d901d6",
          "width" : 640
        }, {
          "height" : 300,
          "url" : "https://i.scdn.co/image/ab67616d00001e02d16c122dd9ce9f18c5d901d6",
          "width" : 300
        }, {
          "height" : 64,
          "url" : "https://i.scdn.co/image/ab67616d00004851d16c122dd9ce9f18c5d901d6",
          "width" : 64
        } ],
        "name" : "Heavenly Wonders - Divine Nature Music Collection 2020",
        "release_date" : "2020-04-21",
        "release_date_precision" : "day",
        "total_tracks" : 80,
        "type" : "album",
        "uri" : "spotify:album:1fh4SmCs2T7WXCrIVuqIcC"
      },
      "artists" : [ {
        "external_urls" : {
          "spotify" : "https://open.spotify.com/artist/27JV8QxNQaCoW0aWP0jhQU"
        },
        "href" : "https://api.spotify.com/v1/artists/27JV8QxNQaCoW0aWP0jhQU",
        "id" : "27JV8QxNQaCoW0aWP0jhQU",
        "name" : "Spa Zen",
        "type" : "artist",
        "uri" : "spotify:artist:27JV8QxNQaCoW0aWP0jhQU"
      }, {
        "external_urls" : {
          "spotify" : "https://open.spotify.com/artist/143sZ3womjnhB99wpYpmqk"
        },
        "href" : "https://api.spotify.com/v1/artists/143sZ3womjnhB99wpYpmqk",
        "id" : "143sZ3womjnhB99wpYpmqk",
        "name" : "Spa Wave",
        "type" : "artist",
        "uri" : "spotify:artist:143sZ3womjnhB99wpYpmqk"
      } ],
      "disc_number" : 1,
      "duration_ms" : 274330,
      "explicit" : false,
      "external_ids" : {
        "isrc" : "PLH492043731"
      },
      "external_urls" : {
        "spotify" : "https://open.spotify.com/track/0A9HZLxWRw5XCq8Sg4xC6Q"
      },
      "href" : "https://api.spotify.com/v1/tracks/0A9HZLxWRw5XCq8Sg4xC6Q",
      "id" : "0A9HZLxWRw5XCq8Sg4xC6Q",
      "is_local" : false,
      "is_playable" : true,
      "name" : "Next is What",
      "popularity" : 0,
      "preview_url" : "https://p.scdn.co/mp3-preview/c7b86281a4731cf1765ad84acec86e1d5cf7e8a9?cid=774b29d4f13844c495f206cafdad9c86",
      "track_number" : 25,
      "type" : "track",
      "uri" : "spotify:track:0A9HZLxWRw5XCq8Sg4xC6Q"
    }, {
      "album" : {
        "album_type" : "album",
        "artists" : [ {
          "external_urls" : {
            "spotify" : "https://open.spotify.com/artist/1FMF2ujmKaCwEFdP17Om0A"
          },
          "href" : "https://api.spotify.com/v1/artists/1FMF2ujmKaCwEFdP17Om0A",
          "id" : "1FMF2ujmKaCwEFdP17Om0A",
          "name" : "Gospel Party Band",
          "type" : "artist",
          "uri" : "spotify:artist:1FMF2ujmKaCwEFdP17Om0A"
        } ],
        "external_urls" : {
          "spotify" : "https://open.spotify.com/album/2h5RXdv0HtkwC6safkCiQL"
        },
        "href" : "https://api.spotify.com/v1/albums/2h5RXdv0HtkwC6safkCiQL",
        "id" : "2h5RXdv0HtkwC6safkCiQL",
        "images" : [ {
          "height" : 640,
          "url" : "https://i.scdn.co/image/ab67616d0000b27302986880d6c5057569e0486e",
          "width" : 640
        }, {
          "height" : 300,
          "url" : "https://i.scdn.co/image/ab67616d00001e0202986880d6c5057569e0486e",
          "width" : 300
        }, {
          "height" : 64,
          "url" : "https://i.scdn.co/image/ab67616d0000485102986880d6c5057569e0486e",
          "width" : 64
        } ],
        "name" : "Heavenly Gospel Music",
        "release_date" : "2010-05-29",
        "release_date_precision" : "day",
        "total_tracks" : 18,
        "type" : "album",
        "uri" : "spotify:album:2h5RXdv0HtkwC6safkCiQL"
      },
      "artists" : [ {
        "external_urls" : {
          "spotify" : "https://open.spotify.com/artist/1FMF2ujmKaCwEFdP17Om0A"
        },
        "href" : "https://api.spotify.com/v1/artists/1FMF2ujmKaCwEFdP17Om0A",
        "id" : "1FMF2ujmKaCwEFdP17Om0A",
        "name" : "Gospel Party Band",
        "type" : "artist",
        "uri" : "spotify:artist:1FMF2ujmKaCwEFdP17Om0A"
      } ],
      "disc_number" : 1,
      "duration_ms" : 180497,
      "explicit" : false,
      "external_ids" : {
        "isrc" : "USJ7U1090753"
      },
      "external_urls" : {
        "spotify" : "https://open.spotify.com/track/36ICRFRVN7YLqK2RmQixov"
      },
      "href" : "https://api.spotify.com/v1/tracks/36ICRFRVN7YLqK2RmQixov",
      "id" : "36ICRFRVN7YLqK2RmQixov",
      "is_local" : false,
      "is_playable" : true,
      "name" : "What A Friend We Have In Jesus",
      "popularity" : 0,
      "preview_url" : "https://p.scdn.co/mp3-preview/b8f22bca274df591555b87eb45a8f93694abe37b?cid=774b29d4f13844c495f206cafdad9c86",
      "track_number" : 16,
      "type" : "track",
      "uri" : "spotify:track:36ICRFRVN7YLqK2RmQixov"
    }, {
      "album" : {
        "album_type" : "album",
        "artists" : [ {
          "external_urls" : {
            "spotify" : "https://open.spotify.com/artist/3Q6hEyiVuEJNCMWStcsVis"
          },
          "href" : "https://api.spotify.com/v1/artists/3Q6hEyiVuEJNCMWStcsVis",
          "id" : "3Q6hEyiVuEJNCMWStcsVis",
          "name" : "Alice Parker",
          "type" : "artist",
          "uri" : "spotify:artist:3Q6hEyiVuEJNCMWStcsVis"
        } ],
        "external_urls" : {
          "spotify" : "https://open.spotify.com/album/2K7G6PiogzoqIfu65Q59IZ"
        },
        "href" : "https://api.spotify.com/v1/albums/2K7G6PiogzoqIfu65Q59IZ",
        "id" : "2K7G6PiogzoqIfu65Q59IZ",
        "images" : [ {
          "height" : 640,
          "url" : "https://i.scdn.co/image/ab67616d0000b27385d32f368b82a7dc5b8af3dd",
          "width" : 640
        }, {
          "height" : 300,
          "url" : "https://i.scdn.co/image/ab67616d00001e0285d32f368b82a7dc5b8af3dd",
          "width" : 300
        }, {
          "height" : 64,
          "url" : "https://i.scdn.co/image/ab67616d0000485185d32f368b82a7dc5b8af3dd",
          "width" : 64
        } ],
        "name" : "Alice Parker: Heavenly Hurt",
        "release_date" : "2017-09-15",
        "release_date_precision" : "day",
        "total_tracks" : 33,
        "type" : "album",
        "uri" : "spotify:album:2K7G6PiogzoqIfu65Q59IZ"
      },
      "artists" : [ {
        "external_urls" : {
          "spotify" : "https://open.spotify.com/artist/3Q6hEyiVuEJNCMWStcsVis"
        },
        "href" : "https://api.spotify.com/v1/artists/3Q6hEyiVuEJNCMWStcsVis",
        "id" : "3Q6hEyiVuEJNCMWStcsVis",
        "name" : "Alice Parker",
        "type" : "artist",
        "uri" : "spotify:artist:3Q6hEyiVuEJNCMWStcsVis"
      }, {
        "external_urls" : {
          "spotify" : "https://open.spotify.com/artist/3h1HD4KNo2TGXhleJlqCvW"
        },
        "href" : "https://api.spotify.com/v1/artists/3h1HD4KNo2TGXhleJlqCvW",
        "id" : "3h1HD4KNo2TGXhleJlqCvW",
        "name" : "Melodious Accord Musicians",
        "type" : "artist",
        "uri" : "spotify:artist:3h1HD4KNo2TGXhleJlqCvW"
      } ],
      "disc_number" : 1,
      "duration_ms" : 126266,
      "explicit" : false,
      "external_ids" : {
        "isrc" : "USG3E1731024"
      },
      "external_urls" : {
        "spotify" : "https://open.spotify.com/track/2ziXF4HmH2Qy6USSSH3ffD"
      },
      "href" : "https://api.spotify.com/v1/tracks/2ziXF4HmH2Qy6USSSH3ffD",
      "id" : "2ziXF4HmH2Qy6USSSH3ffD",
      "is_local" : false,
      "is_playable" : true,
      "name" : "On Nature: No. 1, \"Nature\" Is What We See",
      "popularity" : 0,
      "preview_url" : "https://p.scdn.co/mp3-preview/dcd9737cc5de14e5bdcc8fb060c0cbf601665deb?cid=774b29d4f13844c495f206cafdad9c86",
      "track_number" : 24,
      "type" : "track",
      "uri" : "spotify:track:2ziXF4HmH2Qy6USSSH3ffD"
    }, {
      "album" : {
        "album_type" : "compilation",
        "artists" : [ {
          "external_urls" : {
            "spotify" : "https://open.spotify.com/artist/0LyfQWJT6nXafLPZqxe9Of"
          },
          "href" : "https://api.spotify.com/v1/artists/0LyfQWJT6nXafLPZqxe9Of",
          "id" : "0LyfQWJT6nXafLPZqxe9Of",
          "name" : "Various Artists",
          "type" : "artist",
          "uri" : "spotify:artist:0LyfQWJT6nXafLPZqxe9Of"
        } ],
        "external_urls" : {
          "spotify" : "https://open.spotify.com/album/21QtTq5E0P4XzD2syt7PJk"
        },
        "href" : "https://api.spotify.com/v1/albums/21QtTq5E0P4XzD2syt7PJk",
        "id" : "21QtTq5E0P4XzD2syt7PJk",
        "images" : [ {
          "height" : 640,
          "url" : "https://i.scdn.co/image/ab67616d0000b2739dc2671634f623fbd582a8eb",
          "width" : 640
        }, {
          "height" : 300,
          "url" : "https://i.scdn.co/image/ab67616d00001e029dc2671634f623fbd582a8eb",
          "width" : 300
        }, {
          "height" : 64,
          "url" : "https://i.scdn.co/image/ab67616d000048519dc2671634f623fbd582a8eb",
          "width" : 64
        } ],
        "name" : "30 Best of Platinum Classics: Heavenly Choir Voices Vol. 2",
        "release_date" : "2012-01-01",
        "release_date_precision" : "day",
        "total_tracks" : 30,
        "type" : "album",
        "uri" : "spotify:album:21QtTq5E0P4XzD2syt7PJk"
      },
      "artists" : [ {
        "external_urls" : {
          "spotify" : "https://open.spotify.com/artist/1Uff91EOsvd99rtAupatMP"
        },
        "href" : "https://api.spotify.com/v1/artists/1Uff91EOsvd99rtAupatMP",
        "id" : "1Uff91EOsvd99rtAupatMP",
        "name" : "Claude Debussy",
        "type" : "artist",
        "uri" : "spotify:artist:1Uff91EOsvd99rtAupatMP"
      }, {
        "external_urls" : {
          "spotify" : "https://open.spotify.com/artist/24q0mUhZKpQX1xNGW8QC4I"
        },
        "href" : "https://api.spotify.com/v1/artists/24q0mUhZKpQX1xNGW8QC4I",
        "id" : "24q0mUhZKpQX1xNGW8QC4I",
        "name" : "Chamber Choir Lege Artis, Boris Abalyan",
        "type" : "artist",
        "uri" : "spotify:artist:24q0mUhZKpQX1xNGW8QC4I"
      } ],
      "disc_number" : 1,
      "duration_ms" : 101478,
      "explicit" : false,
      "external_ids" : {
        "isrc" : "DEBL61015905"
      },
      "external_urls" : {
        "spotify" : "https://open.spotify.com/track/67fpZe8hXgzMSf8IqHaV05"
      },
      "href" : "https://api.spotify.com/v1/tracks/67fpZe8hXgzMSf8IqHaV05",
      "id" : "67fpZe8hXgzMSf8IqHaV05",
      "is_local" : false,
      "is_playable" : true,
      "name" : "Trois chansons de Charles d&apos;Orléans : Dieu! Qu&apos;il la fait bon regarder! - Oh, What a Delight to See! - Wie schön anzusehen",
      "popularity" : 0,
      "preview_url" : "https://p.scdn.co/mp3-preview/04328a47c60424a6aeac62f32a75874edfbf57f7?cid=774b29d4f13844c495f206cafdad9c86",
      "track_number" : 22,
      "type" : "track",
      "uri" : "spotify:track:67fpZe8hXgzMSf8IqHaV05"
    }, {
      "album" : {
        "album_type" : "album",
        "artists" : [ {
          "external_urls" : {
            "spotify" : "https://open.spotify.com/artist/6Z3HS8vVN4sxFV8YKkmcRL"
          },
          "href" : "https://api.spotify.com/v1/artists/6Z3HS8vVN4sxFV8YKkmcRL",
          "id" : "6Z3HS8vVN4sxFV8YKkmcRL",
          "name" : "Heavenly Voices Collective",
          "type" : "artist",
          "uri" : "spotify:artist:6Z3HS8vVN4sxFV8YKkmcRL"
        } ],
        "external_urls" : {
          "spotify" : "https://open.spotify.com/album/1NA2YWbCKNXmjnmteWBfDG"
        },
        "href" : "https://api.spotify.com/v1/albums/1NA2YWbCKNXmjnmteWBfDG",
        "id" : "1NA2YWbCKNXmjnmteWBfDG",
        "images" : [ {
          "height" : 640,
          "url" : "https://i.scdn.co/image/ab67616d0000b273ec9651384a3256b0623e72a9",
          "width" : 640
        }, {
          "height" : 300,
          "url" : "https://i.scdn.co/image/ab67616d00001e02ec9651384a3256b0623e72a9",
          "width" : 300
        }, {
          "height" : 64,
          "url" : "https://i.scdn.co/image/ab67616d00004851ec9651384a3256b0623e72a9",
          "width" : 64
        } ],
        "name" : "Golden Pop Music, Vol. 2",
        "release_date" : "2011-01-01",
        "release_date_precision" : "day",
        "total_tracks" : 10,
        "type" : "album",
        "uri" : "spotify:album:1NA2YWbCKNXmjnmteWBfDG"
      },
      "artists" : [ {
        "external_urls" : {
          "spotify" : "https://open.spotify.com/artist/6Z3HS8vVN4sxFV8YKkmcRL"
        },
        "href" : "https://api.spotify.com/v1/artists/6Z3HS8vVN4sxFV8YKkmcRL",
        "id" : "6Z3HS8vVN4sxFV8YKkmcRL",
        "name" : "Heavenly Voices Collective",
        "type" : "artist",
        "uri" : "spotify:artist:6Z3HS8vVN4sxFV8YKkmcRL"
      } ],
      "disc_number" : 1,
      "duration_ms" : 275226,
      "explicit" : false,
      "external_ids" : {
        "isrc" : "DEB791038928"
      },
      "external_urls" : {
        "spotify" : "https://open.spotify.com/track/2daI9fNtJyHgSNdUSSX6hf"
      },
      "href" : "https://api.spotify.com/v1/tracks/2daI9fNtJyHgSNdUSSX6hf",
      "id" : "2daI9fNtJyHgSNdUSSX6hf",
      "is_local" : false,
      "is_playable" : true,
      "name" : "No Matter What",
      "popularity" : 0,
      "preview_url" : "https://p.scdn.co/mp3-preview/0313ea483baae7b694bac8b78de0f43fb3c33856?cid=774b29d4f13844c495f206cafdad9c86",
      "track_number" : 7,
      "type" : "track",
      "uri" : "spotify:track:2daI9fNtJyHgSNdUSSX6hf"
    } ],
    "limit" : 10,
    "next" : "https://api.spotify.com/v1/search?query=What+Heavenly+Music&type=track&market=US&offset=15&limit=10",
    "offset" : 5,
    "previous" : "https://api.spotify.com/v1/search?query=What+Heavenly+Music&type=track&market=US&offset=0&limit=10",
    "total" : 17
  }
}