{
  "tracks" : {
    "href" : "https://api.spotify.com/v1/search?query=While+Shepherds+Watched+Their+Flocks&type=track&market=US&offset=5&limit=10",
    "items" : [ {
      "album" : {
        "album_type" : "album",
        "artists" : [ {
          "external_urls" : {
            "spotify" : "https://open.spotify.com/artist/7rwhybBLjf5jWQsmXfwJhd"
          },
          "href" : "https://api.spotify.com/v1/artists/7rwhybBLjf5jWQsmXfwJhd",
          "id" : "7rwhybBLjf5jWQsmXfwJhd",
          "name" : "Kendra Logozar",
          "type" : "artist",
          "uri" : "spotify:artist:7rwhybBLjf5jWQsmXfwJhd"
        } ],
        "external_urls" : {
          "spotify" : "https://open.spotify.com/album/14HPVpT5lHazG3ghYX5nQy"
        },
        "href" : "https://api.spotify.com/v1/albums/14HPVpT5lHazG3ghYX5nQy",
        "id" : "14HPVpT5lHazG3ghYX5nQy",
        "images" : [ {
          "height" : 640,
          "url" : "https://i.scdn.co/image/ab67616d0000b2739ef4fba5ce407af71e8a122b",
          "width" : 640
        }, {
          "height" : 300,
          "url" : "https://i.scdn.co/image/ab67616d00001e029ef4fba5ce407af71e8a122b",
          "width" : 300
        }, {
          "height" : 64,
          "url" : "https://i.scdn.co/image/ab67616d000048519ef4fba5ce407af71e8a122b",
          "width" : 64
        } ],
        "name" : "Peace",
        "release_date" : "2013-10-23",
        "release_date_precision" : "day",
        "total_tracks" : 13,
        "type" : "album",
        "uri" : "spotify:album:14HPVpT5lHazG3ghYX5nQy"
      },
      "artists" : [ {
        "external_urls" : {
          "spotify" : "https://open.spotify.com/artist/7rwhybBLjf5jWQsmXfwJhd"
        },
        "href" : "https://api.spotify.com/v1/artists/7rwhybBLjf5jWQsmXfwJhd",
        "id" : "7rwhybBLjf5jWQsmXfwJhd",
        "name" : "Kendra Logozar",
        "type" : "artist",
        "uri" : "spotify:artist:7rwhybBLjf5jWQsmXfwJhd"
      } ],
      "disc_number" : 1,
      "duration_ms" : 168786,
      "explicit" : false,
      "external_ids" : {
        "isrc" : "QMS8M1300021"
      },
      "external_urls" : {
        "spotify" : "https://open.spotify.com/track/5OfUL6vhPWKM4MiBK6TJmb"
      },
      "href" : "https://api.spotify.com/v1/tracks/5OfUL6vhPWKM4MiBK6TJmb",
      "id" : "5OfUL6vhPWKM4MiBK6TJmb",
      "is_local" : false,
      "is_playable" : true,
      "name" : "While Shepherds Watched Their Flocks",
      "popularity" : 14,
      "preview_url" : "https://p.scdn.co/mp3-preview/dade22e465be4a693edc8d8edb2bb162768cc4a2?cid=774b29d4f13844c495f206cafdad9c86",
      "track_number" : 7,
      "type" : "track",
      "uri" : "spotify:track:5OfUL6vhPWKM4MiBK6TJmb"
    }, {
      "album" : {
        "album_type" : "album",
        "artists" : [ {
          "external_urls" : {
            "spotify" : "https://open.spotify.com/artist/6GPX4INtjMAiKD0cRKWTdn"
          },
          "href" : "https://api.spotify.com/v1/artists/6GPX4INtjMAiKD0cRKWTdn",
          "id" : "6GPX4INtjMAiKD0cRKWTdn",
          "name" : "Always Christmas",
          "type" : "artist",
          "uri" : "spotify:artist:6GPX4INtjMAiKD0cRKWTdn"
        } ],
        "external_urls" : {
          "spotify" : "https://open.spotify.com/album/5JicJ2s1S8JPKdt9DSBf0f"
        },
        "href" : "https://api.spotify.com/v1/albums/5JicJ2s1S8JPKdt9DSBf0f",
        "id" : "5JicJ2s1S8JPKdt9DSBf0f",
        "images" : [ {
          "height" : 640,
          "url" : "https://i.scdn.co/image/ab67616d0000b27315684caf1a692cb4490a85e3",
          "width" : 640
        }, {
          "height" : 300,
          "url" : "https://i.scdn.co/image/ab67616d00001e0215684caf1a692cb4490a85e3",
          "width" : 300
        }, {
          "height" : 64,
          "url" : "https://i.scdn.co/image/ab67616d0000485115684caf1a692cb4490a85e3",
          "width" : 64
        } ],
        "name" : "Children's Piano Christmas Classics 2",
        "release_date" : "2018-11-19",
        "release_date_precision" : "day",
        "total_tracks" : 18,
        "type" : "album",
        "uri" : "spotify:album:5JicJ2s1S8JPKdt9DSBf0f"
      },
      "artists" : [ {
        "external_urls" : {
          "spotify" : "https://open.spotify.com/artist/6GPX4INtjMAiKD0cRKWTdn"
        },
        "href" : "https://api.spotify.com/v1/artists/6GPX4INtjMAiKD0cRKWTdn",
        "id" : "6GPX4INtjMAiKD0cRKWTdn",
        "name" : "Always Christmas",
        "type" : "artist",
        "uri" : "spotify:artist:6GPX4INtjMAiKD0cRKWTdn"
      } ],
      "disc_number" : 1,
      "duration_ms" : 31195,
      "explicit" : false,
      "external_ids" : {
        "isrc" : "GBWUL1809447"
      },
      "external_urls" : {
        "spotify" : "https://open.spotify.com/track/6PuGDDNRWXNiIMifSgfJ9k"
      },
      "href" : "https://api.spotify.com/v1/tracks/6PuGDDNRWXNiIMifSgfJ9k",
      "id" : "6PuGDDNRWXNiIMifSgfJ9k",
      "is_local" : false,
      "is_playable" : true,
      "name" : "While Shepherd's Watched Their Flocks By Night",
      "popularity" : 12,
      "preview_url" : "https://p.scdn.co/mp3-preview/571ed53a829baa1f2f61abf385d5f976d26918bb?cid=774b29d4f13844c495f206cafdad9c86",
      "track_number" : 18,
      "type" : "track",
      "uri" : "spotify:track:6PuGDDNRWXNiIMifSgfJ9k"
    }, {
      "album" : {
        "album_type" : "album",
        "artists" : [ {
          "external_urls" : {
            "spotify" : "https://open.spotify.com/artist/0ugRf6ECGBFRCHlv9iG1No"
          },
          "href" : "https://api.spotify.com/v1/artists/0ugRf6ECGBFRCHlv9iG1No",
          "id" : "0ugRf6ECGBFRCHlv9iG1No",
          "name" : "Stephen Cleobury",
          "type" : "artist",
          "uri" : "spotify:artist:0ugRf6ECGBFRCHlv9iG1No"
        }, {
          "external_urls" : {
            "spotify" : "https://open.spotify.com/artist/0f3PsS9IQ6whvNMFFKnpjl"
          },
          "href" : "https://api.spotify.com/v1/artists/0f3PsS9IQ6whvNMFFKnpjl",
          "id" : "0f3PsS9IQ6whvNMFFKnpjl",
          "name" : "Choir of King's College, Cambridge",
          "type" : "artist",
          "uri" : "spotify:artist:0f3PsS9IQ6whvNMFFKnpjl"
        } ],
        "external_urls" : {
          "spotify" : "https://open.spotify.com/album/1g2S8YsPx59vWvDNOOI7MA"
        },
        "href" : "https://api.spotify.com/v1/albums/1g2S8YsPx59vWvDNOOI7MA",
        "id" : "1g2S8YsPx59vWvDNOOI7MA",
        "images" : [ {
          "height" : 640,
          "url" : "https://i.scdn.co/image/ab67616d0000b2736f674b23d9cbf8183a8d20eb",
          "width" : 640
        }, {
          "height" : 300,
          "url" : "https://i.scdn.co/image/ab67616d00001e026f674b23d9cbf8183a8d20eb",
          "width" : 300
        }, {
          "height" : 64,
          "url" : "https://i.scdn.co/image/ab67616d000048516f674b23d9cbf8183a8d20eb",
          "width" : 64
        } ],
        "name" : "Favourite Carols from King's",
        "release_date" : "2014-10-27",
        "release_date_precision" : "day",
        "total_tracks" : 25,
        "type" : "album",
        "uri" : "spotify:album:1g2S8YsPx59vWvDNOOI7MA"
      },
      "artists" : [ {
        "external_urls" : {
          "spotify" : "https://open.spotify.com/artist/7H9kWQNpg05BUjWWZpniGF"
        },
        "href" : "https://api.spotify.com/v1/artists/7H9kWQNpg05BUjWWZpniGF",
        "id" : "7H9kWQNpg05BUjWWZpniGF",
        "name" : "Este's Psalter, 1592",
        "type" : "artist",
        "uri" : "spotify:artist:7H9kWQNpg05BUjWWZpniGF"
      }, {
        "external_urls" : {
          "spotify" : "https://open.spotify.com/artist/0f3PsS9IQ6whvNMFFKnpjl"
        },
        "href" : "https://api.spotify.com/v1/artists/0f3PsS9IQ6whvNMFFKnpjl",
        "id" : "0f3PsS9IQ6whvNMFFKnpjl",
        "name" : "Choir of King's College, Cambridge",
        "type" : "artist",
        "uri" : "spotify:artist:0f3PsS9IQ6whvNMFFKnpjl"
      }, {
        "external_urls" : {
          "spotify" : "https://open.spotify.com/artist/0ugRf6ECGBFRCHlv9iG1No"
        },
        "href" : "https://api.spotify.com/v1/artists/0ugRf6ECGBFRCHlv9iG1No",
        "id" : "0ugRf6ECGBFRCHlv9iG1No",
        "name" : "Stephen Cleobury",
        "type" : "artist",
        "uri" : "spotify:artist:0ugRf6ECGBFRCHlv9iG1No"
      }, {
        "external_urls" : {
          "spotify" : "https://open.spotify.com/artist/32BWWlzvypcS4sZzrQIbDT"
        },
        "href" : "https://api.spotify.com/v1/artists/32BWWlzvypcS4sZzrQIbDT",
        "id" : "32BWWlzvypcS4sZzrQIbDT",
        "name" : "Douglas Tang",
        "type" : "artist",
        "uri" : "spotify:artist:32BWWlzvypcS4sZzrQIbDT"
      } ],
      "disc_number" : 1,
      "duration_ms" : 164346,
      "explicit" : false,
      "external_ids" : {
        "isrc" : "GBMY51400718"
      },
      "external_urls" : {
        "spotify" : "https://open.spotify.com/track/7ajlrB8oseDm5dhAaJiCnh"
      },
      "href" : "https://api.spotify.com/v1/tracks/7ajlrB8oseDm5dhAaJiCnh",
      "id" : "7ajlrB8oseDm5dhAaJiCnh",
      "is_local" : false,
      "is_playable" : true,
      "name" : "While Shepherds Watched Their Flocks (Desc. by Stephen Cleobury)",
      "popularity" : 13,
      "preview_url" : "https://p.scdn.co/mp3-preview/0d45c709f6ccf7a823b4e4b9f34fc8dcfe9e932f?cid=774b29d4f13844c495f206cafdad9c86",
      "track_number" : 18,
      "type" : "track",
      "uri" : "spotify:track:7ajlrB8oseDm5dhAaJiCnh"
    }, {
      "album" : {
        "album_type" : "album",
        "artists" : [ {
          "external_urls" : {
            "spotify" : "https://open.spotify.com/artist/67Df41SBxkWpfN9Q0TsPmJ"
          },
          "href" : "https://api.spotify.com/v1/artists/67Df41SBxkWpfN9Q0TsPmJ",
          "id" : "67Df41SBxkWpfN9Q0TsPmJ",
          "name" : "Utah State University Chamber Singers",
          "type" : "artist",
          "uri" : "spotify:artist:67Df41SBxkWpfN9Q0TsPmJ"
        } ],
        "external_urls" : {
          "spotify" : "https://open.spotify.com/album/4Pdu9ZnaViAXmLZUF5tUIx"
        },
        "href" : "https://api.spotify.com/v1/albums/4Pdu9ZnaViAXmLZUF5tUIx",
        "id" : "4Pdu9ZnaViAXmLZUF5tUIx",
        "images" : [ {
          "height" : 640,
          "url" : "https://i.scdn.co/image/ab67616d0000b27362d28f570513b6633834be13",
          "width" : 640
        }, {
          "height" : 300,
          "url" : "https://i.scdn.co/image/ab67616d00001e0262d28f570513b6633834be13",
          "width" : 300
        }, {
          "height" : 64,
          "url" : "https://i.scdn.co/image/ab67616d0000485162d28f570513b6633834be13",
          "width" : 64
        } ],
        "name" : "On a Cold Winter's Night",
        "release_date" : "2016-05-02",
        "release_date_precision" : "day",
        "total_tracks" : 16,
        "type" : "album",
        "uri" : "spotify:album:4Pdu9ZnaViAXmLZUF5tUIx"
      },
      "artists" : [ {
        "external_urls" : {
          "spotify" : "https://open.spotify.com/artist/67Df41SBxkWpfN9Q0TsPmJ"
        },
        "href" : "https://api.spotify.com/v1/artists/67Df41SBxkWpfN9Q0TsPmJ",
        "id" : "67Df41SBxkWpfN9Q0TsPmJ",
        "name" : "Utah State University Chamber Singers",
        "type" : "artist",
        "uri" : "spotify:artist:67Df41SBxkWpfN9Q0TsPmJ"
      }, {
        "external_urls" : {
          "spotify" : "https://open.spotify.com/artist/1bqRNHpuYIcioZquu1PHcT"
        },
        "href" : "https://api.spotify.com/v1/artists/1bqRNHpuYIcioZquu1PHcT",
        "id" : "1bqRNHpuYIcioZquu1PHcT",
        "name" : "Lizzy Prettyman",
        "type" : "artist",
        "uri" : "spotify:artist:1bqRNHpuYIcioZquu1PHcT"
      }, {
        "external_urls" : {
          "spotify" : "https://open.spotify.com/artist/5qlNfj14HvQihNaxaqXolV"
        },
        "href" : "https://api.spotify.com/v1/artists/5qlNfj14HvQihNaxaqXolV",
        "id" : "5qlNfj14HvQihNaxaqXolV",
        "name" : "Cory Evans",
        "type" : "artist",
        "uri" : "spotify:artist:5qlNfj14HvQihNaxaqXolV"
      } ],
      "disc_number" : 1,
      "duration_ms" : 241509,
      "explicit" : false,
      "external_ids" : {
        "isrc" : "uscgj1690512"
      },
      "external_urls" : {
        "spotify" : "https://open.spotify.com/track/0IEmMvMk2Sp5SpQ3NnZQ8W"
      },
      "href" : "https://api.spotify.com/v1/tracks/0IEmMvMk2Sp5SpQ3NnZQ8W",
      "id" : "0IEmMvMk2Sp5SpQ3NnZQ8W",
      "is_local" : false,
      "is_playable" : true,
      "name" : "While Shepherds Watched Their Flocks",
      "popularity" : 8,
      "preview_url" : "https://p.scdn.co/mp3-preview/476ddef0569e71170cd5a9dce50a022ef9767c3e?cid=774b29d4f13844c495f206cafdad9c86",
      "track_number" : 14,
      "type" : "track",
      "uri" : "spotify:track:0IEmMvMk2Sp5SpQ3NnZQ8W"
    }, {
      "album" : {
        "album_type" : "album",
        "artists" : [ {
          "external_urls" : {
            "spotify" : "https://open.spotify.com/artist/47tuSUJMhsa3twW6wgKdIW"
          },
          "href" : "https://api.spotify.com/v1/artists/47tuSUJMhsa3twW6wgKdIW",
          "id" : "47tuSUJMhsa3twW6wgKdIW",
          "name" : "Nursery Rhymes 123",
          "type" : "artist",
          "uri" : "spotify:artist:47tuSUJMhsa3twW6wgKdIW"
        } ],
        "external_urls" : {
          "spotify" : "https://open.spotify.com/album/03EWUnrWDq2poEKDLZhl7P"
        },
        "href" : "https://api.spotify.com/v1/albums/03EWUnrWDq2poEKDLZhl7P",
        "id" : "03EWUnrWDq2poEKDLZhl7P",
        "images" : [ {
          "height" : 640,
          "url" : "https://i.scdn.co/image/ab67616d0000b27301151ae78c809a15223cf25c",
          "width" : 640
        }, {
          "height" : 300,
          "url" : "https://i.scdn.co/image/ab67616d00001e0201151ae78c809a15223cf25c",
          "width" : 300
        }, {
          "height" : 64,
          "url" : "https://i.scdn.co/image/ab67616d0000485101151ae78c809a15223cf25c",
          "width" : 64
        } ],
        "name" : "Christmas Lullabies",
        "release_date" : "2016-11-01",
        "release_date_precision" : "day",
        "total_tracks" : 14,
        "type" : "album",
        "uri" : "spotify:album:03EWUnrWDq2poEKDLZhl7P"
      },
      "artists" : [ {
        "external_urls" : {
          "spotify" : "https://open.spotify.com/artist/47tuSUJMhsa3twW6wgKdIW"
        },
        "href" : "https://api.spotify.com/v1/artists/47tuSUJMhsa3twW6wgKdIW",
        "id" : "47tuSUJMhsa3twW6wgKdIW",
        "name" : "Nursery Rhymes 123",
        "type" : "artist",
        "uri" : "spotify:artist:47tuSUJMhsa3twW6wgKdIW"
      } ],
      "disc_number" : 1,
      "duration_ms" : 183970,
      "explicit" : false,
      "external_ids" : {
        "isrc" : "GB83E1600082"
      },
      "external_urls" : {
        "spotify" : "https://open.spotify.com/track/46GAglwFKKWo7i0A1B01qd"
      },
      "href" : "https://api.spotify.com/v1/tracks/46GAglwFKKWo7i0A1B01qd",
      "id" : "46GAglwFKKWo7i0A1B01qd",
      "is_local" : false,
      "is_playable" : true,
      "name" : "While Shepherds Watched Their Flocks by Night",
      "popularity" : 14,
      "preview_url" : "https://p.scdn.co/mp3-preview/d1e74314e5f883852c1edf9a3863f2c899e6dc48?cid=774b29d4f13844c495f206cafdad9c86",
      "track_number" : 7,
      "type" : "track",
      "uri" : "spotify:track:46GAglwFKKWo7i0A1B01qd"
    }, {
      "album" : {
        "album_type" : "album",
        "artists" : [ {
          "external_urls" : {
            "spotify" : "https://open.spotify.com/artist/47tuSUJMhsa3twW6wgKdIW"
          },
          "href" : "https://api.spotify.com/v1/artists/47tuSUJMhsa3twW6wgKdIW",
          "id" : "47tuSUJMhsa3twW6wgKdIW",
          "name" : "Nursery Rhymes 123",
          "type" : "artist",
          "uri" : "spotify:artist:47tuSUJMhsa3twW6wgKdIW"
        } ],
        "external_urls" : {
          "spotify" : "https://open.spotify.com/album/03EWUnrWDq2poEKDLZhl7P"
        },
        "href" : "https://api.spotify.com/v1/albums/03EWUnrWDq2poEKDLZhl7P",
        "id" : "03EWUnrWDq2poEKDLZhl7P",
        "images" : [ {
          "height" : 640,
          "url" : "https://i.scdn.co/image/ab67616d0000b27301151ae78c809a15223cf25c",
          "width" : 640
        }, {
          "height" : 300,
          "url" : "https://i.scdn.co/image/ab67616d00001e0201151ae78c809a15223cf25c",
          "width" : 300
        }, {
          "height" : 64,
          "url" : "https://i.scdn.co/image/ab67616d0000485101151ae78c809a15223cf25c",
          "width" : 64
        } ],
        "name" : "Christmas Lullabies",
        "release_date" : "2016-11-01",
        "release_date_precision" : "day",
        "total_tracks" : 14,
        "type" : "album",
        "uri" : "spotify:album:03EWUnrWDq2poEKDLZhl7P"
      },
      "artists" : [ {
        "external_urls" : {
          "spotify" : "https://open.spotify.com/artist/47tuSUJMhsa3twW6wgKdIW"
        },
        "href" : "https://api.spotify.com/v1/artists/47tuSUJMhsa3twW6wgKdIW",
        "id" : "47tuSUJMhsa3twW6wgKdIW",
        "name" : "Nursery Rhymes 123",
        "type" : "artist",
        "uri" : "spotify:artist:47tuSUJMhsa3twW6wgKdIW"
      } ],
      "disc_number" : 1,
      "duration_ms" : 183970,
      "explicit" : false,
      "external_ids" : {
        "isrc" : "GB83E1600089"
      },
      "external_urls" : {
        "spotify" : "https://open.spotify.com/track/53cFgYdqxLSeg39qhnPTii"
      },
      "href" : "https://api.spotify.com/v1/tracks/53cFgYdqxLSeg39qhnPTii",
      "id" : "53cFgYdqxLSeg39qhnPTii",
      "is_local" : false,
      "is_playable" : true,
      "name" : "While Shepherds Watched Their Flocks by Night (Instrumental Version)",
      "popularity" : 13,
      "preview_url" : "https://p.scdn.co/mp3-preview/02c66126b63f8375c65bbf83f228e99459e1d74d?cid=774b29d4f13844c495f206cafdad9c86",
      "track_number" : 14,
      "type" : "track",
      "uri" : "spotify:track:53cFgYdqxLSeg39qhnPTii"
    }, {
      "album" : {
        "album_type" : "album",
        "artists" : [ {
          "external_urls" : {
            "spotify" : "https://open.spotify.com/artist/06um8wdbBpbr6AEIv63vm1"
          },
          "href" : "https://api.spotify.com/v1/artists/06um8wdbBpbr6AEIv63vm1",
          "id" : "06um8wdbBpbr6AEIv63vm1",
          "name" : "Kaleb Brasee",
          "type" : "artist",
          "uri" : "spotify:artist:06um8wdbBpbr6AEIv63vm1"
        } ],
        "external_urls" : {
          "spotify" : "https://open.spotify.com/album/3QROZVwCM6esJ1cYbWikdw"
        },
        "href" : "https://api.spotify.com/v1/albums/3QROZVwCM6esJ1cYbWikdw",
        "id" : "3QROZVwCM6esJ1cYbWikdw",
        "images" : [ {
          "height" : 640,
          "url" : "https://i.scdn.co/image/ab67616d0000b273806743844a537f46def6f977",
          "width" : 640
        }, {
          "height" : 300,
          "url" : "https://i.scdn.co/image/ab67616d00001e02806743844a537f46def6f977",
          "width" : 300
        }, {
          "height" : 64,
          "url" : "https://i.scdn.co/image/ab67616d00004851806743844a537f46def6f977",
          "width" : 64
        } ],
        "name" : "One Hour of Peaceful Christmas Songs on Piano (Instrumental)",
        "release_date" : "2018-12-06",
        "release_date_precision" : "day",
        "total_tracks" : 22,
        "type" : "album",
        "uri" : "spotify:album:3QROZVwCM6esJ1cYbWikdw"
      },
      "artists" : [ {
        "external_urls" : {
          "spotify" : "https://open.spotify.com/artist/06um8wdbBpbr6AEIv63vm1"
        },
        "href" : "https://api.spotify.com/v1/artists/06um8wdbBpbr6AEIv63vm1",
        "id" : "06um8wdbBpbr6AEIv63vm1",
        "name" : "Kaleb Brasee",
        "type" : "artist",
        "uri" : "spotify:artist:06um8wdbBpbr6AEIv63vm1"
      } ],
      "disc_number" : 1,
      "duration_ms" : 151506,
      "explicit" : false,
      "external_ids" : {
        "isrc" : "QZES91803309"
      },
      "external_urls" : {
        "spotify" : "https://open.spotify.com/track/7uWs6kiymKXCkt0WAPLj5K"
      },
      "href" : "https://api.spotify.com/v1/tracks/7uWs6kiymKXCkt0WAPLj5K",
      "id" : "7uWs6kiymKXCkt0WAPLj5K",
      "is_local" : false,
      "is_playable" : true,
      "name" : "While Shepherds Watched Their Flocks - Instrumental",
      "popularity" : 6,
      "preview_url" : "https://p.scdn.co/mp3-preview/9cce725344deaaec23c6082b7bd3f6cd9eecb8f8?cid=774b29d4f13844c495f206cafdad9c86",
      "track_number" : 18,
      "type" : "track",
      "uri" : "spotify:track:7uWs6kiymKXCkt0WAPLj5K"
    }, {
      "album" : {
        "album_type" : "album",
        "artists" : [ {
          "external_urls" : {
            "spotify" : "https://open.spotify.com/artist/1yBCPA9l5YuIO9Ud7yYm9p"
          },
          "href" : "https://api.spotify.com/v1/artists/1yBCPA9l5YuIO9Ud7yYm9p",
          "id" : "1yBCPA9l5YuIO9Ud7yYm9p",
          "name" : "Simplicity Christmas",
          "type" : "artist",
          "uri" : "spotify:artist:1yBCPA9l5YuIO9Ud7yYm9p"
        } ],
        "external_urls" : {
          "spotify" : "https://open.spotify.com/album/1gYhw31yOEsrlMXVPZuDKD"
        },
        "href" : "https://api.spotify.com/v1/albums/1gYhw31yOEsrlMXVPZuDKD",
        "id" : "1gYhw31yOEsrlMXVPZuDKD",
        "images" : [ {
          "height" : 640,
          "url" : "https://i.scdn.co/image/ab67616d0000b273534268d138ebf63e34b4f42f",
          "width" : 640
        }, {
          "height" : 300,
          "url" : "https://i.scdn.co/image/ab67616d00001e02534268d138ebf63e34b4f42f",
          "width" : 300
        }, {
          "height" : 64,
          "url" : "https://i.scdn.co/image/ab67616d00004851534268d138ebf63e34b4f42f",
          "width" : 64
        } ],
        "name" : "Volume 4 - Harp & Woodwinds",
        "release_date" : "1997-01-01",
        "release_date_precision" : "day",
        "total_tracks" : 12,
        "type" : "album",
        "uri" : "spotify:album:1gYhw31yOEsrlMXVPZuDKD"
      },
      "artists" : [ {
        "external_urls" : {
          "spotify" : "https://open.spotify.com/artist/1yBCPA9l5YuIO9Ud7yYm9p"
        },
        "href" : "https://api.spotify.com/v1/artists/1yBCPA9l5YuIO9Ud7yYm9p",
        "id" : "1yBCPA9l5YuIO9Ud7yYm9p",
        "name" : "Simplicity Christmas",
        "type" : "artist",
        "uri" : "spotify:artist:1yBCPA9l5YuIO9Ud7yYm9p"
      } ],
      "disc_number" : 1,
      "duration_ms" : 267786,
      "explicit" : false,
      "external_ids" : {
        "isrc" : "USETB0811208"
      },
      "external_urls" : {
        "spotify" : "https://open.spotify.com/track/72SxL9YdXfBrTErww1xzfg"
      },
      "href" : "https://api.spotify.com/v1/tracks/72SxL9YdXfBrTErww1xzfg",
      "id" : "72SxL9YdXfBrTErww1xzfg",
      "is_local" : false,
      "is_playable" : true,
      "name" : "While Shepherds Watched Their Flocks",
      "popularity" : 2,
      "preview_url" : "https://p.scdn.co/mp3-preview/4d23a0f1dba112f83807f0219896326956806856?cid=774b29d4f13844c495f206cafdad9c86",
      "track_number" : 4,
      "type" : "track",
      "uri" : "spotify:track:72SxL9YdXfBrTErww1xzfg"
    }, {
      "album" : {
        "album_type" : "album",
        "artists" : [ {
          "external_urls" : {
            "spotify" : "https://open.spotify.com/artist/3nqYPo90eQVpSZjT4Y85An"
          },
          "href" : "https://api.spotify.com/v1/artists/3nqYPo90eQVpSZjT4Y85An",
          "id" : "3nqYPo90eQVpSZjT4Y85An",
          "name" : "Andrew Holdsworth",
          "type" : "artist",
          "uri" : "spotify:artist:3nqYPo90eQVpSZjT4Y85An"
        } ],
        "external_urls" : {
          "spotify" : "https://open.spotify.com/album/2GSzOnmwxL2xvQqX3OQOZr"
        },
        "href" : "https://api.spotify.com/v1/albums/2GSzOnmwxL2xvQqX3OQOZr",
        "id" : "2GSzOnmwxL2xvQqX3OQOZr",
        "images" : [ {
          "height" : 640,
          "url" : "https://i.scdn.co/image/ab67616d0000b273e3f2175189c821e8d7b87b3a",
          "width" : 640
        }, {
          "height" : 300,
          "url" : "https://i.scdn.co/image/ab67616d00001e02e3f2175189c821e8d7b87b3a",
          "width" : 300
        }, {
          "height" : 64,
          "url" : "https://i.scdn.co/image/ab67616d00004851e3f2175189c821e8d7b87b3a",
          "width" : 64
        } ],
        "name" : "Christmas Lullabies for Babies",
        "release_date" : "2019-11-15",
        "release_date_precision" : "day",
        "total_tracks" : 14,
        "type" : "album",
        "uri" : "spotify:album:2GSzOnmwxL2xvQqX3OQOZr"
      },
      "artists" : [ {
        "external_urls" : {
          "spotify" : "https://open.spotify.com/artist/3nqYPo90eQVpSZjT4Y85An"
        },
        "href" : "https://api.spotify.com/v1/artists/3nqYPo90eQVpSZjT4Y85An",
        "id" : "3nqYPo90eQVpSZjT4Y85An",
        "name" : "Andrew Holdsworth",
        "type" : "artist",
        "uri" : "spotify:artist:3nqYPo90eQVpSZjT4Y85An"
      } ],
      "disc_number" : 1,
      "duration_ms" : 176466,
      "explicit" : false,
      "external_ids" : {
        "isrc" : "GBKPL1976779"
      },
      "external_urls" : {
        "spotify" : "https://open.spotify.com/track/0kYYvdURenMaeK7lbUSArn"
      },
      "href" : "https://api.spotify.com/v1/tracks/0kYYvdURenMaeK7lbUSArn",
      "id" : "0kYYvdURenMaeK7lbUSArn",
      "is_local" : false,
      "is_playable" : true,
      "name" : "While Shepherds Watched Their Flocks",
      "popularity" : 6,
      "preview_url" : "https://p.scdn.co/mp3-preview/61e3dbf5cd180b5aebfc3bde22b70e506cf9bcf5?cid=774b29d4f13844c495f206cafdad9c86",
      "track_number" : 7,
      "type" : "track",
      "uri" : "spotify:track:0kYYvdURenMaeK7lbUSArn"
    }, {
      "album" : {
        "album_type" : "album",
        "artists" : [ {
          "external_urls" : {
            "spotify" : "https://open.spotify.com/artist/1GQ73ot3ny5FJUpchr7ole"
          },
          "href" : "https://api.spotify.com/v1/artists/1GQ73ot3ny5FJUpchr7ole",
          "id" : "1GQ73ot3ny5FJUpchr7ole",
          "name" : "Happy Lullaby",
          "type" : "artist",
          "uri" : "spotify:artist:1GQ73ot3ny5FJUpchr7ole"
        } ],
        "external_urls" : {
          "spotify" : "https://open.spotify.com/album/18n6xpJ9EzekLmhJ16R5Q2"
        },
        "href" : "https://api.spotify.com/v1/albums/18n6xpJ9EzekLmhJ16R5Q2",
        "id" : "18n6xpJ9EzekLmhJ16R5Q2",
        "images" : [ {
          "height" : 640,
          "url" : "https://i.scdn.co/image/ab67616d0000b27356427a3943eccdb6fe43034f",
          "width" : 640
        }, {
          "height" : 300,
          "url" : "https://i.scdn.co/image/ab67616d00001e0256427a3943eccdb6fe43034f",
          "width" : 300
        }, {
          "height" : 64,
          "url" : "https://i.scdn.co/image/ab67616d0000485156427a3943eccdb6fe43034f",
          "width" : 64
        } ],
        "name" : "Calm Hymn Healing Lullabies for a Taegyo Music Vol.1",
        "release_date" : "2016-05-20",
        "release_date_precision" : "day",
        "total_tracks" : 13,
        "type" : "album",
        "uri" : "spotify:album:18n6xpJ9EzekLmhJ16R5Q2"
      },
      "artists" : [ {
        "external_urls" : {
          "spotify" : "https://open.spotify.com/artist/1GQ73ot3ny5FJUpchr7ole"
        },
        "href" : "https://api.spotify.com/v1/artists/1GQ73ot3ny5FJUpchr7ole",
        "id" : "1GQ73ot3ny5FJUpchr7ole",
        "name" : "Happy Lullaby",
        "type" : "artist",
        "uri" : "spotify:artist:1GQ73ot3ny5FJUpchr7ole"
      } ],
      "disc_number" : 1,
      "duration_ms" : 105377,
      "explicit" : false,
      "external_ids" : {
        "isrc" : "KRA341625809"
      },
      "external_urls" : {
        "spotify" : "https://open.spotify.com/track/4ztt0t3oA9VflC6LvlNjSZ"
      },
      "href" : "https://api.spotify.com/v1/tracks/4ztt0t3oA9VflC6LvlNjSZ",
      "id" : "4ztt0t3oA9VflC6LvlNjSZ",
      "is_local" : false,
      "is_playable" : true,
      "name" : "While Shepherds Watched Their Flocks",
      "popularity" : 2,
      "preview_url" : "https://p.scdn.co/mp3-preview/40196f42fd9ad9efd7980aa9e4410d63e7776160?cid=774b29d4f13844c495f206cafdad9c86",
      "track_number" : 11,
      "type" : "track",
      "uri" : "spotify:track:4ztt0t3oA9VflC6LvlNjSZ"
    } ],
    "limit" : 10,
    "next" : "https://api.spotify.com/v1/search?query=While+Shepherds+Watched+Their+Flocks&type=track&market=US&offset=15&limit=10",
    "offset" : 5,
    "previous" : "https://api.spotify.com/v1/search?query=While+Shepherds+Watched+Their+Flocks&type=track&market=US&offset=0&limit=10",
    "total" : 658
  }
}