{
  "tracks" : {
    "href" : "https://api.spotify.com/v1/search?query=Jesus+Walked+This+Lonesome+Valley&type=track&market=US&offset=5&limit=10",
    "items" : [ {
      "album" : {
        "album_type" : "album",
        "artists" : [ {
          "external_urls" : {
            "spotify" : "https://open.spotify.com/artist/26xjUgOzKqBTOu0Yt1CVtE"
          },
          "href" : "https://api.spotify.com/v1/artists/26xjUgOzKqBTOu0Yt1CVtE",
          "id" : "26xjUgOzKqBTOu0Yt1CVtE",
          "name" : "Janie Becker",
          "type" : "artist",
          "uri" : "spotify:artist:26xjUgOzKqBTOu0Yt1CVtE"
        } ],
        "external_urls" : {
          "spotify" : "https://open.spotify.com/album/4qEDjilruvKisbEuo8mUNv"
        },
        "href" : "https://api.spotify.com/v1/albums/4qEDjilruvKisbEuo8mUNv",
        "id" : "4qEDjilruvKisbEuo8mUNv",
        "images" : [ {
          "height" : 640,
          "url" : "https://i.scdn.co/image/ab67616d0000b2735cd8e2ff62afa5730f611007",
          "width" : 640
        }, {
          "height" : 300,
          "url" : "https://i.scdn.co/image/ab67616d00001e025cd8e2ff62afa5730f611007",
          "width" : 300
        }, {
          "height" : 64,
          "url" : "https://i.scdn.co/image/ab67616d000048515cd8e2ff62afa5730f611007",
          "width" : 64
        } ],
        "name" : "HeartSong America",
        "release_date" : "2011-10-01",
        "release_date_precision" : "day",
        "total_tracks" : 16,
        "type" : "album",
        "uri" : "spotify:album:4qEDjilruvKisbEuo8mUNv"
      },
      "artists" : [ {
        "external_urls" : {
          "spotify" : "https://open.spotify.com/artist/26xjUgOzKqBTOu0Yt1CVtE"
        },
        "href" : "https://api.spotify.com/v1/artists/26xjUgOzKqBTOu0Yt1CVtE",
        "id" : "26xjUgOzKqBTOu0Yt1CVtE",
        "name" : "Janie Becker",
        "type" : "artist",
        "uri" : "spotify:artist:26xjUgOzKqBTOu0Yt1CVtE"
      } ],
      "disc_number" : 1,
      "duration_ms" : 252666,
      "explicit" : false,
      "external_ids" : {
        "isrc" : "ushm91144082"
      },
      "external_urls" : {
        "spotify" : "https://open.spotify.com/track/18oA2UPwPEe53eOsj9bEsK"
      },
      "href" : "https://api.spotify.com/v1/tracks/18oA2UPwPEe53eOsj9bEsK",
      "id" : "18oA2UPwPEe53eOsj9bEsK",
      "is_local" : false,
      "is_playable" : true,
      "name" : "Were You There/Jesus Walked This Lonesome Valley",
      "popularity" : 2,
      "preview_url" : "https://p.scdn.co/mp3-preview/c63ff854f3f6c75a270e2d5070eef5150275833e?cid=774b29d4f13844c495f206cafdad9c86",
      "track_number" : 13,
      "type" : "track",
      "uri" : "spotify:track:18oA2UPwPEe53eOsj9bEsK"
    }, {
      "album" : {
        "album_type" : "album",
        "artists" : [ {
          "external_urls" : {
            "spotify" : "https://open.spotify.com/artist/1TikVOYbHPasj3s80uUhnL"
          },
          "href" : "https://api.spotify.com/v1/artists/1TikVOYbHPasj3s80uUhnL",
          "id" : "1TikVOYbHPasj3s80uUhnL",
          "name" : "Stephen Salters",
          "type" : "artist",
          "uri" : "spotify:artist:1TikVOYbHPasj3s80uUhnL"
        } ],
        "external_urls" : {
          "spotify" : "https://open.spotify.com/album/2WmgcP59BtoZWTbDHOLyVi"
        },
        "href" : "https://api.spotify.com/v1/albums/2WmgcP59BtoZWTbDHOLyVi",
        "id" : "2WmgcP59BtoZWTbDHOLyVi",
        "images" : [ {
          "height" : 640,
          "url" : "https://i.scdn.co/image/ab67616d0000b2734d261c4891dfc6dc0cda9589",
          "width" : 640
        }, {
          "height" : 300,
          "url" : "https://i.scdn.co/image/ab67616d00001e024d261c4891dfc6dc0cda9589",
          "width" : 300
        }, {
          "height" : 64,
          "url" : "https://i.scdn.co/image/ab67616d000048514d261c4891dfc6dc0cda9589",
          "width" : 64
        } ],
        "name" : "Spirit: Are You There? You Are There",
        "release_date" : "2016-03-05",
        "release_date_precision" : "day",
        "total_tracks" : 23,
        "type" : "album",
        "uri" : "spotify:album:2WmgcP59BtoZWTbDHOLyVi"
      },
      "artists" : [ {
        "external_urls" : {
          "spotify" : "https://open.spotify.com/artist/1TikVOYbHPasj3s80uUhnL"
        },
        "href" : "https://api.spotify.com/v1/artists/1TikVOYbHPasj3s80uUhnL",
        "id" : "1TikVOYbHPasj3s80uUhnL",
        "name" : "Stephen Salters",
        "type" : "artist",
        "uri" : "spotify:artist:1TikVOYbHPasj3s80uUhnL"
      }, {
        "external_urls" : {
          "spotify" : "https://open.spotify.com/artist/6motlkFKKPMPt9LbaXrlMP"
        },
        "href" : "https://api.spotify.com/v1/artists/6motlkFKKPMPt9LbaXrlMP",
        "id" : "6motlkFKKPMPt9LbaXrlMP",
        "name" : "Lucas Blondeel",
        "type" : "artist",
        "uri" : "spotify:artist:6motlkFKKPMPt9LbaXrlMP"
      } ],
      "disc_number" : 1,
      "duration_ms" : 223373,
      "explicit" : false,
      "external_ids" : {
        "isrc" : "uscgj1605620"
      },
      "external_urls" : {
        "spotify" : "https://open.spotify.com/track/3u99hsnGCHgrDbPFVBnc6z"
      },
      "href" : "https://api.spotify.com/v1/tracks/3u99hsnGCHgrDbPFVBnc6z",
      "id" : "3u99hsnGCHgrDbPFVBnc6z",
      "is_local" : false,
      "is_playable" : true,
      "name" : "Jesus Walked This Lonesome Valley",
      "popularity" : 0,
      "preview_url" : "https://p.scdn.co/mp3-preview/3a9784b2581b52ae1fab090dff4c0a4f393ee614?cid=774b29d4f13844c495f206cafdad9c86",
      "track_number" : 21,
      "type" : "track",
      "uri" : "spotify:track:3u99hsnGCHgrDbPFVBnc6z"
    }, {
      "album" : {
        "album_type" : "album",
        "artists" : [ {
          "external_urls" : {
            "spotify" : "https://open.spotify.com/artist/6Jb0et6qfgXlPmRPYrM0bN"
          },
          "href" : "https://api.spotify.com/v1/artists/6Jb0et6qfgXlPmRPYrM0bN",
          "id" : "6Jb0et6qfgXlPmRPYrM0bN",
          "name" : "Ingemar Olsson",
          "type" : "artist",
          "uri" : "spotify:artist:6Jb0et6qfgXlPmRPYrM0bN"
        } ],
        "external_urls" : {
          "spotify" : "https://open.spotify.com/album/4k24Fuwna2mbINPmAmy7N0"
        },
        "href" : "https://api.spotify.com/v1/albums/4k24Fuwna2mbINPmAmy7N0",
        "id" : "4k24Fuwna2mbINPmAmy7N0",
        "images" : [ {
          "height" : 640,
          "url" : "https://i.scdn.co/image/ab67616d0000b273dd238752e61e8b5d3d8df984",
          "width" : 640
        }, {
          "height" : 300,
          "url" : "https://i.scdn.co/image/ab67616d00001e02dd238752e61e8b5d3d8df984",
          "width" : 300
        }, {
          "height" : 64,
          "url" : "https://i.scdn.co/image/ab67616d00004851dd238752e61e8b5d3d8df984",
          "width" : 64
        } ],
        "name" : "Livs levande",
        "release_date" : "2010-10-01",
        "release_date_precision" : "day",
        "total_tracks" : 14,
        "type" : "album",
        "uri" : "spotify:album:4k24Fuwna2mbINPmAmy7N0"
      },
      "artists" : [ {
        "external_urls" : {
          "spotify" : "https://open.spotify.com/artist/6Jb0et6qfgXlPmRPYrM0bN"
        },
        "href" : "https://api.spotify.com/v1/artists/6Jb0et6qfgXlPmRPYrM0bN",
        "id" : "6Jb0et6qfgXlPmRPYrM0bN",
        "name" : "Ingemar Olsson",
        "type" : "artist",
        "uri" : "spotify:artist:6Jb0et6qfgXlPmRPYrM0bN"
      } ],
      "disc_number" : 1,
      "duration_ms" : 146346,
      "explicit" : false,
      "external_ids" : {
        "isrc" : "SEWSH0500109"
      },
      "external_urls" : {
        "spotify" : "https://open.spotify.com/track/62ABrTUL9RXhIhKBW6DEVm"
      },
      "href" : "https://api.spotify.com/v1/tracks/62ABrTUL9RXhIhKBW6DEVm",
      "id" : "62ABrTUL9RXhIhKBW6DEVm",
      "is_local" : false,
      "is_playable" : true,
      "name" : "Jesus Walked this Lonesome Valley",
      "popularity" : 0,
      "preview_url" : "https://p.scdn.co/mp3-preview/13676a6ac03edbde56e6be7efd1cc6afd3384185?cid=774b29d4f13844c495f206cafdad9c86",
      "track_number" : 9,
      "type" : "track",
      "uri" : "spotify:track:62ABrTUL9RXhIhKBW6DEVm"
    }, {
      "album" : {
        "album_type" : "album",
        "artists" : [ {
          "external_urls" : {
            "spotify" : "https://open.spotify.com/artist/0OW5hQmSRLjK06LgiBwOPN"
          },
          "href" : "https://api.spotify.com/v1/artists/0OW5hQmSRLjK06LgiBwOPN",
          "id" : "0OW5hQmSRLjK06LgiBwOPN",
          "name" : "Ken Duccini",
          "type" : "artist",
          "uri" : "spotify:artist:0OW5hQmSRLjK06LgiBwOPN"
        } ],
        "external_urls" : {
          "spotify" : "https://open.spotify.com/album/204Mgc2g3Ps70upBk5SXS1"
        },
        "href" : "https://api.spotify.com/v1/albums/204Mgc2g3Ps70upBk5SXS1",
        "id" : "204Mgc2g3Ps70upBk5SXS1",
        "images" : [ {
          "height" : 640,
          "url" : "https://i.scdn.co/image/ab67616d0000b2737ddb2a0fa83d635994124f3d",
          "width" : 640
        }, {
          "height" : 300,
          "url" : "https://i.scdn.co/image/ab67616d00001e027ddb2a0fa83d635994124f3d",
          "width" : 300
        }, {
          "height" : 64,
          "url" : "https://i.scdn.co/image/ab67616d000048517ddb2a0fa83d635994124f3d",
          "width" : 64
        } ],
        "name" : "I Love to Tell the Story",
        "release_date" : "2013-11-11",
        "release_date_precision" : "day",
        "total_tracks" : 27,
        "type" : "album",
        "uri" : "spotify:album:204Mgc2g3Ps70upBk5SXS1"
      },
      "artists" : [ {
        "external_urls" : {
          "spotify" : "https://open.spotify.com/artist/0OW5hQmSRLjK06LgiBwOPN"
        },
        "href" : "https://api.spotify.com/v1/artists/0OW5hQmSRLjK06LgiBwOPN",
        "id" : "0OW5hQmSRLjK06LgiBwOPN",
        "name" : "Ken Duccini",
        "type" : "artist",
        "uri" : "spotify:artist:0OW5hQmSRLjK06LgiBwOPN"
      } ],
      "disc_number" : 1,
      "duration_ms" : 119108,
      "explicit" : false,
      "external_ids" : {
        "isrc" : "UK3LT1300015"
      },
      "external_urls" : {
        "spotify" : "https://open.spotify.com/track/71Xa8EARpeDfMuzZOAmKSz"
      },
      "href" : "https://api.spotify.com/v1/tracks/71Xa8EARpeDfMuzZOAmKSz",
      "id" : "71Xa8EARpeDfMuzZOAmKSz",
      "is_local" : false,
      "is_playable" : true,
      "name" : "Jesus Walked This Lonesome Valley",
      "popularity" : 0,
      "preview_url" : "https://p.scdn.co/mp3-preview/6d3aaaea82f24863e0bbaaf975ccac77816e1005?cid=774b29d4f13844c495f206cafdad9c86",
      "track_number" : 15,
      "type" : "track",
      "uri" : "spotify:track:71Xa8EARpeDfMuzZOAmKSz"
    }, {
      "album" : {
        "album_type" : "album",
        "artists" : [ {
          "external_urls" : {
            "spotify" : "https://open.spotify.com/artist/6160ryq8f4GK2tT5NbZnan"
          },
          "href" : "https://api.spotify.com/v1/artists/6160ryq8f4GK2tT5NbZnan",
          "id" : "6160ryq8f4GK2tT5NbZnan",
          "name" : "Kanude",
          "type" : "artist",
          "uri" : "spotify:artist:6160ryq8f4GK2tT5NbZnan"
        } ],
        "external_urls" : {
          "spotify" : "https://open.spotify.com/album/72z3pbdVoKyMS9Opb9eIkx"
        },
        "href" : "https://api.spotify.com/v1/albums/72z3pbdVoKyMS9Opb9eIkx",
        "id" : "72z3pbdVoKyMS9Opb9eIkx",
        "images" : [ {
          "height" : 640,
          "url" : "https://i.scdn.co/image/ab67616d0000b273f2df85089455144d2c1ed1a8",
          "width" : 640
        }, {
          "height" : 300,
          "url" : "https://i.scdn.co/image/ab67616d00001e02f2df85089455144d2c1ed1a8",
          "width" : 300
        }, {
          "height" : 64,
          "url" : "https://i.scdn.co/image/ab67616d00004851f2df85089455144d2c1ed1a8",
          "width" : 64
        } ],
        "name" : "Kingdom",
        "release_date" : "2013-05-14",
        "release_date_precision" : "day",
        "total_tracks" : 12,
        "type" : "album",
        "uri" : "spotify:album:72z3pbdVoKyMS9Opb9eIkx"
      },
      "artists" : [ {
        "external_urls" : {
          "spotify" : "https://open.spotify.com/artist/6160ryq8f4GK2tT5NbZnan"
        },
        "href" : "https://api.spotify.com/v1/artists/6160ryq8f4GK2tT5NbZnan",
        "id" : "6160ryq8f4GK2tT5NbZnan",
        "name" : "Kanude",
        "type" : "artist",
        "uri" : "spotify:artist:6160ryq8f4GK2tT5NbZnan"
      } ],
      "disc_number" : 1,
      "duration_ms" : 196133,
      "explicit" : false,
      "external_ids" : {
        "isrc" : "USMZE1300007"
      },
      "external_urls" : {
        "spotify" : "https://open.spotify.com/track/6ySzsmE3jUT3EAYW2AbpST"
      },
      "href" : "https://api.spotify.com/v1/tracks/6ySzsmE3jUT3EAYW2AbpST",
      "id" : "6ySzsmE3jUT3EAYW2AbpST",
      "is_local" : false,
      "is_playable" : true,
      "name" : "Jesus Walked This Lonesome Valley",
      "popularity" : 0,
      "preview_url" : "https://p.scdn.co/mp3-preview/3a83f9c3e477c1738badc30718e7f10d4452656a?cid=774b29d4f13844c495f206cafdad9c86",
      "track_number" : 7,
      "type" : "track",
      "uri" : "spotify:track:6ySzsmE3jUT3EAYW2AbpST"
    }, {
      "album" : {
        "album_type" : "album",
        "artists" : [ {
          "external_urls" : {
            "spotify" : "https://open.spotify.com/artist/7vo2Hl0NDiBr6GcyGDSLFZ"
          },
          "href" : "https://api.spotify.com/v1/artists/7vo2Hl0NDiBr6GcyGDSLFZ",
          "id" : "7vo2Hl0NDiBr6GcyGDSLFZ",
          "name" : "Jack Jezzro",
          "type" : "artist",
          "uri" : "spotify:artist:7vo2Hl0NDiBr6GcyGDSLFZ"
        } ],
        "external_urls" : {
          "spotify" : "https://open.spotify.com/album/5cEBJVirNhQ3rTAUoDNSTc"
        },
        "href" : "https://api.spotify.com/v1/albums/5cEBJVirNhQ3rTAUoDNSTc",
        "id" : "5cEBJVirNhQ3rTAUoDNSTc",
        "images" : [ {
          "height" : 640,
          "url" : "https://i.scdn.co/image/ab67616d0000b2733592d8bdfe3e6c4ad9594f76",
          "width" : 640
        }, {
          "height" : 300,
          "url" : "https://i.scdn.co/image/ab67616d00001e023592d8bdfe3e6c4ad9594f76",
          "width" : 300
        }, {
          "height" : 64,
          "url" : "https://i.scdn.co/image/ab67616d000048513592d8bdfe3e6c4ad9594f76",
          "width" : 64
        } ],
        "name" : "One Way",
        "release_date" : "1993-08-02",
        "release_date_precision" : "day",
        "total_tracks" : 12,
        "type" : "album",
        "uri" : "spotify:album:5cEBJVirNhQ3rTAUoDNSTc"
      },
      "artists" : [ {
        "external_urls" : {
          "spotify" : "https://open.spotify.com/artist/7vo2Hl0NDiBr6GcyGDSLFZ"
        },
        "href" : "https://api.spotify.com/v1/artists/7vo2Hl0NDiBr6GcyGDSLFZ",
        "id" : "7vo2Hl0NDiBr6GcyGDSLFZ",
        "name" : "Jack Jezzro",
        "type" : "artist",
        "uri" : "spotify:artist:7vo2Hl0NDiBr6GcyGDSLFZ"
      } ],
      "disc_number" : 1,
      "duration_ms" : 286973,
      "explicit" : false,
      "external_ids" : {
        "isrc" : "usx9p1340090"
      },
      "external_urls" : {
        "spotify" : "https://open.spotify.com/track/5caDUPkeH2H7ok8Pryt8DR"
      },
      "href" : "https://api.spotify.com/v1/tracks/5caDUPkeH2H7ok8Pryt8DR",
      "id" : "5caDUPkeH2H7ok8Pryt8DR",
      "is_local" : false,
      "is_playable" : true,
      "name" : "Jesus Walked This Lonesome Valley",
      "popularity" : 1,
      "preview_url" : "https://p.scdn.co/mp3-preview/0846e62c812750872fd802dc81799987aa2a86d3?cid=774b29d4f13844c495f206cafdad9c86",
      "track_number" : 6,
      "type" : "track",
      "uri" : "spotify:track:5caDUPkeH2H7ok8Pryt8DR"
    }, {
      "album" : {
        "album_type" : "album",
        "artists" : [ {
          "external_urls" : {
            "spotify" : "https://open.spotify.com/artist/2lBQgAF1OuZsLp1pbzuOOP"
          },
          "href" : "https://api.spotify.com/v1/artists/2lBQgAF1OuZsLp1pbzuOOP",
          "id" : "2lBQgAF1OuZsLp1pbzuOOP",
          "name" : "Barbara Ann Fackler, Gail Salvatori & Jennifer Reddick",
          "type" : "artist",
          "uri" : "spotify:artist:2lBQgAF1OuZsLp1pbzuOOP"
        } ],
        "external_urls" : {
          "spotify" : "https://open.spotify.com/album/7gbYVra6ijFhMLT9ngm4OZ"
        },
        "href" : "https://api.spotify.com/v1/albums/7gbYVra6ijFhMLT9ngm4OZ",
        "id" : "7gbYVra6ijFhMLT9ngm4OZ",
        "images" : [ {
          "height" : 640,
          "url" : "https://i.scdn.co/image/ab67616d0000b27329b62831e02956cb15531459",
          "width" : 640
        }, {
          "height" : 300,
          "url" : "https://i.scdn.co/image/ab67616d00001e0229b62831e02956cb15531459",
          "width" : 300
        }, {
          "height" : 64,
          "url" : "https://i.scdn.co/image/ab67616d0000485129b62831e02956cb15531459",
          "width" : 64
        } ],
        "name" : "At the River",
        "release_date" : "2012-03-27",
        "release_date_precision" : "day",
        "total_tracks" : 17,
        "type" : "album",
        "uri" : "spotify:album:7gbYVra6ijFhMLT9ngm4OZ"
      },
      "artists" : [ {
        "external_urls" : {
          "spotify" : "https://open.spotify.com/artist/2lBQgAF1OuZsLp1pbzuOOP"
        },
        "href" : "https://api.spotify.com/v1/artists/2lBQgAF1OuZsLp1pbzuOOP",
        "id" : "2lBQgAF1OuZsLp1pbzuOOP",
        "name" : "Barbara Ann Fackler, Gail Salvatori & Jennifer Reddick",
        "type" : "artist",
        "uri" : "spotify:artist:2lBQgAF1OuZsLp1pbzuOOP"
      } ],
      "disc_number" : 1,
      "duration_ms" : 249240,
      "explicit" : false,
      "external_ids" : {
        "isrc" : "uscgj1283392"
      },
      "external_urls" : {
        "spotify" : "https://open.spotify.com/track/2j1pCXB0kfaplKcFAsvFHW"
      },
      "href" : "https://api.spotify.com/v1/tracks/2j1pCXB0kfaplKcFAsvFHW",
      "id" : "2j1pCXB0kfaplKcFAsvFHW",
      "is_local" : false,
      "is_playable" : true,
      "name" : "Jesus Walked This Lonesome Valley",
      "popularity" : 0,
      "preview_url" : "https://p.scdn.co/mp3-preview/5de1c87704eed09a9a97336e56511ea3dfbdfc1a?cid=774b29d4f13844c495f206cafdad9c86",
      "track_number" : 17,
      "type" : "track",
      "uri" : "spotify:track:2j1pCXB0kfaplKcFAsvFHW"
    }, {
      "album" : {
        "album_type" : "album",
        "artists" : [ {
          "external_urls" : {
            "spotify" : "https://open.spotify.com/artist/0cylxW7HGdK9xMdubw2oYW"
          },
          "href" : "https://api.spotify.com/v1/artists/0cylxW7HGdK9xMdubw2oYW",
          "id" : "0cylxW7HGdK9xMdubw2oYW",
          "name" : "The O'Neill Brothers Group",
          "type" : "artist",
          "uri" : "spotify:artist:0cylxW7HGdK9xMdubw2oYW"
        } ],
        "external_urls" : {
          "spotify" : "https://open.spotify.com/album/32DMTdCdXZuZ1lBlIxmXXw"
        },
        "href" : "https://api.spotify.com/v1/albums/32DMTdCdXZuZ1lBlIxmXXw",
        "id" : "32DMTdCdXZuZ1lBlIxmXXw",
        "images" : [ {
          "height" : 640,
          "url" : "https://i.scdn.co/image/ab67616d0000b2732879a2e60290074af51ee460",
          "width" : 640
        }, {
          "height" : 300,
          "url" : "https://i.scdn.co/image/ab67616d00001e022879a2e60290074af51ee460",
          "width" : 300
        }, {
          "height" : 64,
          "url" : "https://i.scdn.co/image/ab67616d000048512879a2e60290074af51ee460",
          "width" : 64
        } ],
        "name" : "Spirit of God: Instrumental Songs of Faith",
        "release_date" : "2013-07-29",
        "release_date_precision" : "day",
        "total_tracks" : 20,
        "type" : "album",
        "uri" : "spotify:album:32DMTdCdXZuZ1lBlIxmXXw"
      },
      "artists" : [ {
        "external_urls" : {
          "spotify" : "https://open.spotify.com/artist/0cylxW7HGdK9xMdubw2oYW"
        },
        "href" : "https://api.spotify.com/v1/artists/0cylxW7HGdK9xMdubw2oYW",
        "id" : "0cylxW7HGdK9xMdubw2oYW",
        "name" : "The O'Neill Brothers Group",
        "type" : "artist",
        "uri" : "spotify:artist:0cylxW7HGdK9xMdubw2oYW"
      } ],
      "disc_number" : 1,
      "duration_ms" : 247640,
      "explicit" : false,
      "external_ids" : {
        "isrc" : "USA371278327"
      },
      "external_urls" : {
        "spotify" : "https://open.spotify.com/track/2pb51Em8bT8vvQFOdr3ses"
      },
      "href" : "https://api.spotify.com/v1/tracks/2pb51Em8bT8vvQFOdr3ses",
      "id" : "2pb51Em8bT8vvQFOdr3ses",
      "is_local" : false,
      "is_playable" : true,
      "name" : "Jesus Walked This Lonesome Valley",
      "popularity" : 4,
      "preview_url" : "https://p.scdn.co/mp3-preview/d193f04f47468669d27bc53f0501f6a4c383654a?cid=774b29d4f13844c495f206cafdad9c86",
      "track_number" : 14,
      "type" : "track",
      "uri" : "spotify:track:2pb51Em8bT8vvQFOdr3ses"
    }, {
      "album" : {
        "album_type" : "album",
        "artists" : [ {
          "external_urls" : {
            "spotify" : "https://open.spotify.com/artist/2YLYCvGlvXr2ySQfL0GUD1"
          },
          "href" : "https://api.spotify.com/v1/artists/2YLYCvGlvXr2ySQfL0GUD1",
          "id" : "2YLYCvGlvXr2ySQfL0GUD1",
          "name" : "Darrell Alexander",
          "type" : "artist",
          "uri" : "spotify:artist:2YLYCvGlvXr2ySQfL0GUD1"
        } ],
        "external_urls" : {
          "spotify" : "https://open.spotify.com/album/02OnqOBTA5gFMka5ms6lkB"
        },
        "href" : "https://api.spotify.com/v1/albums/02OnqOBTA5gFMka5ms6lkB",
        "id" : "02OnqOBTA5gFMka5ms6lkB",
        "images" : [ {
          "height" : 640,
          "url" : "https://i.scdn.co/image/ab67616d0000b27344c4d3b68a6c3308343629ba",
          "width" : 640
        }, {
          "height" : 300,
          "url" : "https://i.scdn.co/image/ab67616d00001e0244c4d3b68a6c3308343629ba",
          "width" : 300
        }, {
          "height" : 64,
          "url" : "https://i.scdn.co/image/ab67616d0000485144c4d3b68a6c3308343629ba",
          "width" : 64
        } ],
        "name" : "Keys To Your Heart",
        "release_date" : "2000-01-01",
        "release_date_precision" : "day",
        "total_tracks" : 12,
        "type" : "album",
        "uri" : "spotify:album:02OnqOBTA5gFMka5ms6lkB"
      },
      "artists" : [ {
        "external_urls" : {
          "spotify" : "https://open.spotify.com/artist/2YLYCvGlvXr2ySQfL0GUD1"
        },
        "href" : "https://api.spotify.com/v1/artists/2YLYCvGlvXr2ySQfL0GUD1",
        "id" : "2YLYCvGlvXr2ySQfL0GUD1",
        "name" : "Darrell Alexander",
        "type" : "artist",
        "uri" : "spotify:artist:2YLYCvGlvXr2ySQfL0GUD1"
      } ],
      "disc_number" : 1,
      "duration_ms" : 387146,
      "explicit" : false,
      "external_ids" : {
        "isrc" : "ushm90517296"
      },
      "external_urls" : {
        "spotify" : "https://open.spotify.com/track/5jtvNbx3kuAOLBXpXieSpv"
      },
      "href" : "https://api.spotify.com/v1/tracks/5jtvNbx3kuAOLBXpXieSpv",
      "id" : "5jtvNbx3kuAOLBXpXieSpv",
      "is_local" : false,
      "is_playable" : true,
      "name" : "Jesus Walked This Lonesome Valley",
      "popularity" : 0,
      "preview_url" : "https://p.scdn.co/mp3-preview/ffdbbec9885365f689cb9fcbb36de7d21a47af16?cid=774b29d4f13844c495f206cafdad9c86",
      "track_number" : 8,
      "type" : "track",
      "uri" : "spotify:track:5jtvNbx3kuAOLBXpXieSpv"
    }, {
      "album" : {
        "album_type" : "album",
        "artists" : [ {
          "external_urls" : {
            "spotify" : "https://open.spotify.com/artist/63PN7zLTp1VjUOg7LmdXLQ"
          },
          "href" : "https://api.spotify.com/v1/artists/63PN7zLTp1VjUOg7LmdXLQ",
          "id" : "63PN7zLTp1VjUOg7LmdXLQ",
          "name" : "Jennifer Rose",
          "type" : "artist",
          "uri" : "spotify:artist:63PN7zLTp1VjUOg7LmdXLQ"
        } ],
        "external_urls" : {
          "spotify" : "https://open.spotify.com/album/4onTZxZiasaz59cZAt8Sf6"
        },
        "href" : "https://api.spotify.com/v1/albums/4onTZxZiasaz59cZAt8Sf6",
        "id" : "4onTZxZiasaz59cZAt8Sf6",
        "images" : [ {
          "height" : 640,
          "url" : "https://i.scdn.co/image/ab67616d0000b273ec9b6cdefca47d075c6d03c5",
          "width" : 640
        }, {
          "height" : 300,
          "url" : "https://i.scdn.co/image/ab67616d00001e02ec9b6cdefca47d075c6d03c5",
          "width" : 300
        }, {
          "height" : 64,
          "url" : "https://i.scdn.co/image/ab67616d00004851ec9b6cdefca47d075c6d03c5",
          "width" : 64
        } ],
        "name" : "Beyond The Starlit Skies",
        "release_date" : "2000",
        "release_date_precision" : "year",
        "total_tracks" : 21,
        "type" : "album",
        "uri" : "spotify:album:4onTZxZiasaz59cZAt8Sf6"
      },
      "artists" : [ {
        "external_urls" : {
          "spotify" : "https://open.spotify.com/artist/63PN7zLTp1VjUOg7LmdXLQ"
        },
        "href" : "https://api.spotify.com/v1/artists/63PN7zLTp1VjUOg7LmdXLQ",
        "id" : "63PN7zLTp1VjUOg7LmdXLQ",
        "name" : "Jennifer Rose",
        "type" : "artist",
        "uri" : "spotify:artist:63PN7zLTp1VjUOg7LmdXLQ"
      } ],
      "disc_number" : 1,
      "duration_ms" : 133400,
      "explicit" : false,
      "external_ids" : {
        "isrc" : "uscgj0958021"
      },
      "external_urls" : {
        "spotify" : "https://open.spotify.com/track/6qDpjQmyoGdkPTYzMojsk6"
      },
      "href" : "https://api.spotify.com/v1/tracks/6qDpjQmyoGdkPTYzMojsk6",
      "id" : "6qDpjQmyoGdkPTYzMojsk6",
      "is_local" : false,
      "is_playable" : true,
      "name" : "Jesus Walked This Lonesome Valley",
      "popularity" : 2,
      "preview_url" : "https://p.scdn.co/mp3-preview/1cbf043db9d7f66d7d74743887d3fc28feafa1a1?cid=774b29d4f13844c495f206cafdad9c86",
      "track_number" : 4,
      "type" : "track",
      "uri" : "spotify:track:6qDpjQmyoGdkPTYzMojsk6"
    } ],
    "limit" : 10,
    "next" : "https://api.spotify.com/v1/search?query=Jesus+Walked+This+Lonesome+Valley&type=track&market=US&offset=15&limit=10",
    "offset" : 5,
    "previous" : "https://api.spotify.com/v1/search?query=Jesus+Walked+This+Lonesome+Valley&type=track&market=US&offset=0&limit=10",
    "total" : 30
  }
}