{
  "tracks" : {
    "href" : "https://api.spotify.com/v1/search?query=I+Will+Follow+Thee&type=track&market=US&offset=5&limit=10",
    "items" : [ {
      "album" : {
        "album_type" : "album",
        "artists" : [ {
          "external_urls" : {
            "spotify" : "https://open.spotify.com/artist/3D7d1vxeRSuoNd8Un2tyyl"
          },
          "href" : "https://api.spotify.com/v1/artists/3D7d1vxeRSuoNd8Un2tyyl",
          "id" : "3D7d1vxeRSuoNd8Un2tyyl",
          "name" : "The Spencer Family",
          "type" : "artist",
          "uri" : "spotify:artist:3D7d1vxeRSuoNd8Un2tyyl"
        } ],
        "external_urls" : {
          "spotify" : "https://open.spotify.com/album/6nggHUsw5MPaY96BCtgYK5"
        },
        "href" : "https://api.spotify.com/v1/albums/6nggHUsw5MPaY96BCtgYK5",
        "id" : "6nggHUsw5MPaY96BCtgYK5",
        "images" : [ {
          "height" : 640,
          "url" : "https://i.scdn.co/image/ab67616d0000b2737daec7d7936444f7c8864323",
          "width" : 640
        }, {
          "height" : 300,
          "url" : "https://i.scdn.co/image/ab67616d00001e027daec7d7936444f7c8864323",
          "width" : 300
        }, {
          "height" : 64,
          "url" : "https://i.scdn.co/image/ab67616d000048517daec7d7936444f7c8864323",
          "width" : 64
        } ],
        "name" : "The Unseen Hand (1972 Collector's Edition)",
        "release_date" : "1972-04-19",
        "release_date_precision" : "day",
        "total_tracks" : 12,
        "type" : "album",
        "uri" : "spotify:album:6nggHUsw5MPaY96BCtgYK5"
      },
      "artists" : [ {
        "external_urls" : {
          "spotify" : "https://open.spotify.com/artist/3D7d1vxeRSuoNd8Un2tyyl"
        },
        "href" : "https://api.spotify.com/v1/artists/3D7d1vxeRSuoNd8Un2tyyl",
        "id" : "3D7d1vxeRSuoNd8Un2tyyl",
        "name" : "The Spencer Family",
        "type" : "artist",
        "uri" : "spotify:artist:3D7d1vxeRSuoNd8Un2tyyl"
      } ],
      "disc_number" : 1,
      "duration_ms" : 121841,
      "explicit" : false,
      "external_ids" : {
        "isrc" : "TCAEE1995851"
      },
      "external_urls" : {
        "spotify" : "https://open.spotify.com/track/4Os59CQc97rL09Z3Y5hzCL"
      },
      "href" : "https://api.spotify.com/v1/tracks/4Os59CQc97rL09Z3Y5hzCL",
      "id" : "4Os59CQc97rL09Z3Y5hzCL",
      "is_local" : false,
      "is_playable" : true,
      "name" : "I Will Follow Thee",
      "popularity" : 2,
      "preview_url" : "https://p.scdn.co/mp3-preview/d49c3c03ffbdae0ecdfbd50467422e47a77282a7?cid=774b29d4f13844c495f206cafdad9c86",
      "track_number" : 4,
      "type" : "track",
      "uri" : "spotify:track:4Os59CQc97rL09Z3Y5hzCL"
    }, {
      "album" : {
        "album_type" : "album",
        "artists" : [ {
          "external_urls" : {
            "spotify" : "https://open.spotify.com/artist/3bHptjphyLGf9XPq7m3b2v"
          },
          "href" : "https://api.spotify.com/v1/artists/3bHptjphyLGf9XPq7m3b2v",
          "id" : "3bHptjphyLGf9XPq7m3b2v",
          "name" : "Christian Edition",
          "type" : "artist",
          "uri" : "spotify:artist:3bHptjphyLGf9XPq7m3b2v"
        } ],
        "external_urls" : {
          "spotify" : "https://open.spotify.com/album/0R3QcUmzMW3IQxiFtsFjjT"
        },
        "href" : "https://api.spotify.com/v1/albums/0R3QcUmzMW3IQxiFtsFjjT",
        "id" : "0R3QcUmzMW3IQxiFtsFjjT",
        "images" : [ {
          "height" : 640,
          "url" : "https://i.scdn.co/image/ab67616d0000b27337529aa0c16249953cd02abf",
          "width" : 640
        }, {
          "height" : 300,
          "url" : "https://i.scdn.co/image/ab67616d00001e0237529aa0c16249953cd02abf",
          "width" : 300
        }, {
          "height" : 64,
          "url" : "https://i.scdn.co/image/ab67616d0000485137529aa0c16249953cd02abf",
          "width" : 64
        } ],
        "name" : "Songs of the Advent Pioneers",
        "release_date" : "2002-11-11",
        "release_date_precision" : "day",
        "total_tracks" : 14,
        "type" : "album",
        "uri" : "spotify:album:0R3QcUmzMW3IQxiFtsFjjT"
      },
      "artists" : [ {
        "external_urls" : {
          "spotify" : "https://open.spotify.com/artist/3bHptjphyLGf9XPq7m3b2v"
        },
        "href" : "https://api.spotify.com/v1/artists/3bHptjphyLGf9XPq7m3b2v",
        "id" : "3bHptjphyLGf9XPq7m3b2v",
        "name" : "Christian Edition",
        "type" : "artist",
        "uri" : "spotify:artist:3bHptjphyLGf9XPq7m3b2v"
      } ],
      "disc_number" : 1,
      "duration_ms" : 233226,
      "explicit" : false,
      "external_ids" : {
        "isrc" : "uscgj1709483"
      },
      "external_urls" : {
        "spotify" : "https://open.spotify.com/track/1eiFPjR6Zb1HPfsAj58QhY"
      },
      "href" : "https://api.spotify.com/v1/tracks/1eiFPjR6Zb1HPfsAj58QhY",
      "id" : "1eiFPjR6Zb1HPfsAj58QhY",
      "is_local" : false,
      "is_playable" : true,
      "name" : "I Will Follow Thee",
      "popularity" : 4,
      "preview_url" : "https://p.scdn.co/mp3-preview/012818b1e695151393e39e74c0bc289fa59d7971?cid=774b29d4f13844c495f206cafdad9c86",
      "track_number" : 5,
      "type" : "track",
      "uri" : "spotify:track:1eiFPjR6Zb1HPfsAj58QhY"
    }, {
      "album" : {
        "album_type" : "album",
        "artists" : [ {
          "external_urls" : {
            "spotify" : "https://open.spotify.com/artist/09jjYjayn8aDcjgeKiAn0r"
          },
          "href" : "https://api.spotify.com/v1/artists/09jjYjayn8aDcjgeKiAn0r",
          "id" : "09jjYjayn8aDcjgeKiAn0r",
          "name" : "The Speer Family",
          "type" : "artist",
          "uri" : "spotify:artist:09jjYjayn8aDcjgeKiAn0r"
        } ],
        "external_urls" : {
          "spotify" : "https://open.spotify.com/album/27pa0tGRTolwHLFq1sfMDX"
        },
        "href" : "https://api.spotify.com/v1/albums/27pa0tGRTolwHLFq1sfMDX",
        "id" : "27pa0tGRTolwHLFq1sfMDX",
        "images" : [ {
          "height" : 640,
          "url" : "https://i.scdn.co/image/ab67616d0000b273f3755e1535b2c287d28c42cc",
          "width" : 640
        }, {
          "height" : 300,
          "url" : "https://i.scdn.co/image/ab67616d00001e02f3755e1535b2c287d28c42cc",
          "width" : 300
        }, {
          "height" : 64,
          "url" : "https://i.scdn.co/image/ab67616d00004851f3755e1535b2c287d28c42cc",
          "width" : 64
        } ],
        "name" : "The Gospel in Song",
        "release_date" : "1966-06-30",
        "release_date_precision" : "day",
        "total_tracks" : 12,
        "type" : "album",
        "uri" : "spotify:album:27pa0tGRTolwHLFq1sfMDX"
      },
      "artists" : [ {
        "external_urls" : {
          "spotify" : "https://open.spotify.com/artist/09jjYjayn8aDcjgeKiAn0r"
        },
        "href" : "https://api.spotify.com/v1/artists/09jjYjayn8aDcjgeKiAn0r",
        "id" : "09jjYjayn8aDcjgeKiAn0r",
        "name" : "The Speer Family",
        "type" : "artist",
        "uri" : "spotify:artist:09jjYjayn8aDcjgeKiAn0r"
      } ],
      "disc_number" : 1,
      "duration_ms" : 104346,
      "explicit" : false,
      "external_ids" : {
        "isrc" : "USRC11602206"
      },
      "external_urls" : {
        "spotify" : "https://open.spotify.com/track/0oPUFcXzBXiJ0b3acns0pt"
      },
      "href" : "https://api.spotify.com/v1/tracks/0oPUFcXzBXiJ0b3acns0pt",
      "id" : "0oPUFcXzBXiJ0b3acns0pt",
      "is_local" : false,
      "is_playable" : true,
      "name" : "I Will Follow Thee",
      "popularity" : 2,
      "preview_url" : "https://p.scdn.co/mp3-preview/788ffa6829c1fa1a11dc6d20046ad0640946b6f0?cid=774b29d4f13844c495f206cafdad9c86",
      "track_number" : 6,
      "type" : "track",
      "uri" : "spotify:track:0oPUFcXzBXiJ0b3acns0pt"
    }, {
      "album" : {
        "album_type" : "album",
        "artists" : [ {
          "external_urls" : {
            "spotify" : "https://open.spotify.com/artist/375R61X1k4YWfsuBWaOEmP"
          },
          "href" : "https://api.spotify.com/v1/artists/375R61X1k4YWfsuBWaOEmP",
          "id" : "375R61X1k4YWfsuBWaOEmP",
          "name" : "James Blackwood",
          "type" : "artist",
          "uri" : "spotify:artist:375R61X1k4YWfsuBWaOEmP"
        } ],
        "external_urls" : {
          "spotify" : "https://open.spotify.com/album/7yXMdK9mDiMminvQlBrFNC"
        },
        "href" : "https://api.spotify.com/v1/albums/7yXMdK9mDiMminvQlBrFNC",
        "id" : "7yXMdK9mDiMminvQlBrFNC",
        "images" : [ {
          "height" : 640,
          "url" : "https://i.scdn.co/image/ab67616d0000b2730ee89d30ed7dbff4e7a0685c",
          "width" : 640
        }, {
          "height" : 300,
          "url" : "https://i.scdn.co/image/ab67616d00001e020ee89d30ed7dbff4e7a0685c",
          "width" : 300
        }, {
          "height" : 64,
          "url" : "https://i.scdn.co/image/ab67616d000048510ee89d30ed7dbff4e7a0685c",
          "width" : 64
        } ],
        "name" : "Sings His Favorite Gospel Solos",
        "release_date" : "1969-07-01",
        "release_date_precision" : "day",
        "total_tracks" : 12,
        "type" : "album",
        "uri" : "spotify:album:7yXMdK9mDiMminvQlBrFNC"
      },
      "artists" : [ {
        "external_urls" : {
          "spotify" : "https://open.spotify.com/artist/375R61X1k4YWfsuBWaOEmP"
        },
        "href" : "https://api.spotify.com/v1/artists/375R61X1k4YWfsuBWaOEmP",
        "id" : "375R61X1k4YWfsuBWaOEmP",
        "name" : "James Blackwood",
        "type" : "artist",
        "uri" : "spotify:artist:375R61X1k4YWfsuBWaOEmP"
      } ],
      "disc_number" : 1,
      "duration_ms" : 145240,
      "explicit" : false,
      "external_ids" : {
        "isrc" : "USRC11902645"
      },
      "external_urls" : {
        "spotify" : "https://open.spotify.com/track/1sa5zuO2vBST5z2iSjJdAo"
      },
      "href" : "https://api.spotify.com/v1/tracks/1sa5zuO2vBST5z2iSjJdAo",
      "id" : "1sa5zuO2vBST5z2iSjJdAo",
      "is_local" : false,
      "is_playable" : true,
      "name" : "Follow, I Will Follow Thee",
      "popularity" : 0,
      "preview_url" : "https://p.scdn.co/mp3-preview/cd151ba53e61d3b0f91834ef4cf2e5ec464c8ded?cid=774b29d4f13844c495f206cafdad9c86",
      "track_number" : 8,
      "type" : "track",
      "uri" : "spotify:track:1sa5zuO2vBST5z2iSjJdAo"
    }, {
      "album" : {
        "album_type" : "album",
        "artists" : [ {
          "external_urls" : {
            "spotify" : "https://open.spotify.com/artist/1TYn75Fn8YFwMdEOBZeFqw"
          },
          "href" : "https://api.spotify.com/v1/artists/1TYn75Fn8YFwMdEOBZeFqw",
          "id" : "1TYn75Fn8YFwMdEOBZeFqw",
          "name" : "Oliver Thomson",
          "type" : "artist",
          "uri" : "spotify:artist:1TYn75Fn8YFwMdEOBZeFqw"
        } ],
        "external_urls" : {
          "spotify" : "https://open.spotify.com/album/4vnFMT3pmBIyuIsgwdK4o0"
        },
        "href" : "https://api.spotify.com/v1/albums/4vnFMT3pmBIyuIsgwdK4o0",
        "id" : "4vnFMT3pmBIyuIsgwdK4o0",
        "images" : [ {
          "height" : 640,
          "url" : "https://i.scdn.co/image/ab67616d0000b273e8e789fcf54faf56c9bbfd62",
          "width" : 640
        }, {
          "height" : 300,
          "url" : "https://i.scdn.co/image/ab67616d00001e02e8e789fcf54faf56c9bbfd62",
          "width" : 300
        }, {
          "height" : 64,
          "url" : "https://i.scdn.co/image/ab67616d00004851e8e789fcf54faf56c9bbfd62",
          "width" : 64
        } ],
        "name" : "From My Heart",
        "release_date" : "2013-08-13",
        "release_date_precision" : "day",
        "total_tracks" : 17,
        "type" : "album",
        "uri" : "spotify:album:4vnFMT3pmBIyuIsgwdK4o0"
      },
      "artists" : [ {
        "external_urls" : {
          "spotify" : "https://open.spotify.com/artist/1TYn75Fn8YFwMdEOBZeFqw"
        },
        "href" : "https://api.spotify.com/v1/artists/1TYn75Fn8YFwMdEOBZeFqw",
        "id" : "1TYn75Fn8YFwMdEOBZeFqw",
        "name" : "Oliver Thomson",
        "type" : "artist",
        "uri" : "spotify:artist:1TYn75Fn8YFwMdEOBZeFqw"
      } ],
      "disc_number" : 1,
      "duration_ms" : 169466,
      "explicit" : false,
      "external_ids" : {
        "isrc" : "ushm81294810"
      },
      "external_urls" : {
        "spotify" : "https://open.spotify.com/track/2xiYs8P8a7oVcceVvLhsFT"
      },
      "href" : "https://api.spotify.com/v1/tracks/2xiYs8P8a7oVcceVvLhsFT",
      "id" : "2xiYs8P8a7oVcceVvLhsFT",
      "is_local" : false,
      "is_playable" : true,
      "name" : "Follow, I Will Follow Thee",
      "popularity" : 0,
      "preview_url" : "https://p.scdn.co/mp3-preview/b9b38df32d2d6e8635847f3b037c6e3bdb809ea7?cid=774b29d4f13844c495f206cafdad9c86",
      "track_number" : 10,
      "type" : "track",
      "uri" : "spotify:track:2xiYs8P8a7oVcceVvLhsFT"
    }, {
      "album" : {
        "album_type" : "album",
        "artists" : [ {
          "external_urls" : {
            "spotify" : "https://open.spotify.com/artist/6fKdHuazXDRe9bXTx5r029"
          },
          "href" : "https://api.spotify.com/v1/artists/6fKdHuazXDRe9bXTx5r029",
          "id" : "6fKdHuazXDRe9bXTx5r029",
          "name" : "Kendol Bacchus",
          "type" : "artist",
          "uri" : "spotify:artist:6fKdHuazXDRe9bXTx5r029"
        } ],
        "external_urls" : {
          "spotify" : "https://open.spotify.com/album/6wJBjSlfFkTI54ltVEEVb9"
        },
        "href" : "https://api.spotify.com/v1/albums/6wJBjSlfFkTI54ltVEEVb9",
        "id" : "6wJBjSlfFkTI54ltVEEVb9",
        "images" : [ {
          "height" : 640,
          "url" : "https://i.scdn.co/image/ab67616d0000b2737cf15ced8d21bfaff19e0014",
          "width" : 640
        }, {
          "height" : 300,
          "url" : "https://i.scdn.co/image/ab67616d00001e027cf15ced8d21bfaff19e0014",
          "width" : 300
        }, {
          "height" : 64,
          "url" : "https://i.scdn.co/image/ab67616d000048517cf15ced8d21bfaff19e0014",
          "width" : 64
        } ],
        "name" : "Altar Call",
        "release_date" : "2017-02-01",
        "release_date_precision" : "day",
        "total_tracks" : 11,
        "type" : "album",
        "uri" : "spotify:album:6wJBjSlfFkTI54ltVEEVb9"
      },
      "artists" : [ {
        "external_urls" : {
          "spotify" : "https://open.spotify.com/artist/6fKdHuazXDRe9bXTx5r029"
        },
        "href" : "https://api.spotify.com/v1/artists/6fKdHuazXDRe9bXTx5r029",
        "id" : "6fKdHuazXDRe9bXTx5r029",
        "name" : "Kendol Bacchus",
        "type" : "artist",
        "uri" : "spotify:artist:6fKdHuazXDRe9bXTx5r029"
      } ],
      "disc_number" : 1,
      "duration_ms" : 271439,
      "explicit" : false,
      "external_ids" : {
        "isrc" : "uscgh1801731"
      },
      "external_urls" : {
        "spotify" : "https://open.spotify.com/track/3ZDWKbSU2uTmAm5dul0sgL"
      },
      "href" : "https://api.spotify.com/v1/tracks/3ZDWKbSU2uTmAm5dul0sgL",
      "id" : "3ZDWKbSU2uTmAm5dul0sgL",
      "is_local" : false,
      "is_playable" : true,
      "name" : "I Will Follow Thee",
      "popularity" : 0,
      "preview_url" : "https://p.scdn.co/mp3-preview/ceca9b0b1e75ebf26db31cba16808516add3473f?cid=774b29d4f13844c495f206cafdad9c86",
      "track_number" : 5,
      "type" : "track",
      "uri" : "spotify:track:3ZDWKbSU2uTmAm5dul0sgL"
    }, {
      "album" : {
        "album_type" : "album",
        "artists" : [ {
          "external_urls" : {
            "spotify" : "https://open.spotify.com/artist/4UFqIswX8OWXH7aHGiQpP1"
          },
          "href" : "https://api.spotify.com/v1/artists/4UFqIswX8OWXH7aHGiQpP1",
          "id" : "4UFqIswX8OWXH7aHGiQpP1",
          "name" : "Damaul Francis",
          "type" : "artist",
          "uri" : "spotify:artist:4UFqIswX8OWXH7aHGiQpP1"
        } ],
        "external_urls" : {
          "spotify" : "https://open.spotify.com/album/1vwViMyW5BhOiUNC1NKHer"
        },
        "href" : "https://api.spotify.com/v1/albums/1vwViMyW5BhOiUNC1NKHer",
        "id" : "1vwViMyW5BhOiUNC1NKHer",
        "images" : [ {
          "height" : 640,
          "url" : "https://i.scdn.co/image/ab67616d0000b273c481798e1fbbe6a2d5165f6e",
          "width" : 640
        }, {
          "height" : 300,
          "url" : "https://i.scdn.co/image/ab67616d00001e02c481798e1fbbe6a2d5165f6e",
          "width" : 300
        }, {
          "height" : 64,
          "url" : "https://i.scdn.co/image/ab67616d00004851c481798e1fbbe6a2d5165f6e",
          "width" : 64
        } ],
        "name" : "A New Beginning: Showers of Blessings",
        "release_date" : "2012-10-20",
        "release_date_precision" : "day",
        "total_tracks" : 14,
        "type" : "album",
        "uri" : "spotify:album:1vwViMyW5BhOiUNC1NKHer"
      },
      "artists" : [ {
        "external_urls" : {
          "spotify" : "https://open.spotify.com/artist/4UFqIswX8OWXH7aHGiQpP1"
        },
        "href" : "https://api.spotify.com/v1/artists/4UFqIswX8OWXH7aHGiQpP1",
        "id" : "4UFqIswX8OWXH7aHGiQpP1",
        "name" : "Damaul Francis",
        "type" : "artist",
        "uri" : "spotify:artist:4UFqIswX8OWXH7aHGiQpP1"
      } ],
      "disc_number" : 1,
      "duration_ms" : 341680,
      "explicit" : false,
      "external_ids" : {
        "isrc" : "uscgh1622502"
      },
      "external_urls" : {
        "spotify" : "https://open.spotify.com/track/6PH4RcYTcg2UjwbjJtmMpo"
      },
      "href" : "https://api.spotify.com/v1/tracks/6PH4RcYTcg2UjwbjJtmMpo",
      "id" : "6PH4RcYTcg2UjwbjJtmMpo",
      "is_local" : false,
      "is_playable" : true,
      "name" : "I Will Follow Thee",
      "popularity" : 0,
      "preview_url" : "https://p.scdn.co/mp3-preview/54255984f82c15e898066556aeb1b6a971602210?cid=774b29d4f13844c495f206cafdad9c86",
      "track_number" : 7,
      "type" : "track",
      "uri" : "spotify:track:6PH4RcYTcg2UjwbjJtmMpo"
    }, {
      "album" : {
        "album_type" : "compilation",
        "artists" : [ {
          "external_urls" : {
            "spotify" : "https://open.spotify.com/artist/0LyfQWJT6nXafLPZqxe9Of"
          },
          "href" : "https://api.spotify.com/v1/artists/0LyfQWJT6nXafLPZqxe9Of",
          "id" : "0LyfQWJT6nXafLPZqxe9Of",
          "name" : "Various Artists",
          "type" : "artist",
          "uri" : "spotify:artist:0LyfQWJT6nXafLPZqxe9Of"
        } ],
        "external_urls" : {
          "spotify" : "https://open.spotify.com/album/5bPueVR5Tr3bylDmoxL0Kz"
        },
        "href" : "https://api.spotify.com/v1/albums/5bPueVR5Tr3bylDmoxL0Kz",
        "id" : "5bPueVR5Tr3bylDmoxL0Kz",
        "images" : [ {
          "height" : 640,
          "url" : "https://i.scdn.co/image/ab67616d0000b2730843ccdff9419827d046fb98",
          "width" : 640
        }, {
          "height" : 300,
          "url" : "https://i.scdn.co/image/ab67616d00001e020843ccdff9419827d046fb98",
          "width" : 300
        }, {
          "height" : 64,
          "url" : "https://i.scdn.co/image/ab67616d000048510843ccdff9419827d046fb98",
          "width" : 64
        } ],
        "name" : "Using The Gifts Ii",
        "release_date" : "2005-01-01",
        "release_date_precision" : "day",
        "total_tracks" : 18,
        "type" : "album",
        "uri" : "spotify:album:5bPueVR5Tr3bylDmoxL0Kz"
      },
      "artists" : [ {
        "external_urls" : {
          "spotify" : "https://open.spotify.com/artist/3h3v4VAl3GB3QFZuXu9R4y"
        },
        "href" : "https://api.spotify.com/v1/artists/3h3v4VAl3GB3QFZuXu9R4y",
        "id" : "3h3v4VAl3GB3QFZuXu9R4y",
        "name" : "Ordained",
        "type" : "artist",
        "uri" : "spotify:artist:3h3v4VAl3GB3QFZuXu9R4y"
      } ],
      "disc_number" : 1,
      "duration_ms" : 227106,
      "explicit" : false,
      "external_ids" : {
        "isrc" : "ushm80508137"
      },
      "external_urls" : {
        "spotify" : "https://open.spotify.com/track/1Zg2bSJBM9bWitRAM6115h"
      },
      "href" : "https://api.spotify.com/v1/tracks/1Zg2bSJBM9bWitRAM6115h",
      "id" : "1Zg2bSJBM9bWitRAM6115h",
      "is_local" : false,
      "is_playable" : true,
      "name" : "I Will Follow Thee",
      "popularity" : 0,
      "preview_url" : "https://p.scdn.co/mp3-preview/fb9e2b893a8e0b31e1548fa873c8ea8572709688?cid=774b29d4f13844c495f206cafdad9c86",
      "track_number" : 13,
      "type" : "track",
      "uri" : "spotify:track:1Zg2bSJBM9bWitRAM6115h"
    }, {
      "album" : {
        "album_type" : "compilation",
        "artists" : [ {
          "external_urls" : {
            "spotify" : "https://open.spotify.com/artist/0LyfQWJT6nXafLPZqxe9Of"
          },
          "href" : "https://api.spotify.com/v1/artists/0LyfQWJT6nXafLPZqxe9Of",
          "id" : "0LyfQWJT6nXafLPZqxe9Of",
          "name" : "Various Artists",
          "type" : "artist",
          "uri" : "spotify:artist:0LyfQWJT6nXafLPZqxe9Of"
        } ],
        "external_urls" : {
          "spotify" : "https://open.spotify.com/album/4SGYnbHQR4vEKuW29230NG"
        },
        "href" : "https://api.spotify.com/v1/albums/4SGYnbHQR4vEKuW29230NG",
        "id" : "4SGYnbHQR4vEKuW29230NG",
        "images" : [ {
          "height" : 640,
          "url" : "https://i.scdn.co/image/614aeda546e8b61d305e0cf867817a97c6d105b1",
          "width" : 640
        }, {
          "height" : 300,
          "url" : "https://i.scdn.co/image/14301c89973958f7486ca0996a49ff2bceb5098e",
          "width" : 300
        }, {
          "height" : 64,
          "url" : "https://i.scdn.co/image/3395654a595991d9a96ae4b357034088413f7ffb",
          "width" : 64
        } ],
        "name" : "Gospel Sung by the Great Quartets - Vol 1",
        "release_date" : "2009-06-30",
        "release_date_precision" : "day",
        "total_tracks" : 15,
        "type" : "album",
        "uri" : "spotify:album:4SGYnbHQR4vEKuW29230NG"
      },
      "artists" : [ {
        "external_urls" : {
          "spotify" : "https://open.spotify.com/artist/6bqCLh7v3K2CnB9Wmx5oo2"
        },
        "href" : "https://api.spotify.com/v1/artists/6bqCLh7v3K2CnB9Wmx5oo2",
        "id" : "6bqCLh7v3K2CnB9Wmx5oo2",
        "name" : "The Melody Men",
        "type" : "artist",
        "uri" : "spotify:artist:6bqCLh7v3K2CnB9Wmx5oo2"
      } ],
      "disc_number" : 1,
      "duration_ms" : 109626,
      "explicit" : false,
      "external_ids" : {
        "isrc" : "US6HT0900817"
      },
      "external_urls" : {
        "spotify" : "https://open.spotify.com/track/2Bn1l6XkYk2x7BgApUD5W4"
      },
      "href" : "https://api.spotify.com/v1/tracks/2Bn1l6XkYk2x7BgApUD5W4",
      "id" : "2Bn1l6XkYk2x7BgApUD5W4",
      "is_local" : false,
      "is_playable" : true,
      "name" : "I Will Follow Thee",
      "popularity" : 0,
      "preview_url" : "https://p.scdn.co/mp3-preview/924f5d85e86c55e3a397d08b233788c65e60edf6?cid=774b29d4f13844c495f206cafdad9c86",
      "track_number" : 9,
      "type" : "track",
      "uri" : "spotify:track:2Bn1l6XkYk2x7BgApUD5W4"
    }, {
      "album" : {
        "album_type" : "album",
        "artists" : [ {
          "external_urls" : {
            "spotify" : "https://open.spotify.com/artist/43XTAe6WODIZRmPsmTM5ts"
          },
          "href" : "https://api.spotify.com/v1/artists/43XTAe6WODIZRmPsmTM5ts",
          "id" : "43XTAe6WODIZRmPsmTM5ts",
          "name" : "The Pioneers",
          "type" : "artist",
          "uri" : "spotify:artist:43XTAe6WODIZRmPsmTM5ts"
        } ],
        "external_urls" : {
          "spotify" : "https://open.spotify.com/album/0gwQlvxPQnSQ8Zv3k3aV7K"
        },
        "href" : "https://api.spotify.com/v1/albums/0gwQlvxPQnSQ8Zv3k3aV7K",
        "id" : "0gwQlvxPQnSQ8Zv3k3aV7K",
        "images" : [ {
          "height" : 640,
          "url" : "https://i.scdn.co/image/ab67616d0000b2739972f28dfd5d3853bfa5571d",
          "width" : 640
        }, {
          "height" : 300,
          "url" : "https://i.scdn.co/image/ab67616d00001e029972f28dfd5d3853bfa5571d",
          "width" : 300
        }, {
          "height" : 64,
          "url" : "https://i.scdn.co/image/ab67616d000048519972f28dfd5d3853bfa5571d",
          "width" : 64
        } ],
        "name" : "More Than a Song",
        "release_date" : "2006-09-19",
        "release_date_precision" : "day",
        "total_tracks" : 10,
        "type" : "album",
        "uri" : "spotify:album:0gwQlvxPQnSQ8Zv3k3aV7K"
      },
      "artists" : [ {
        "external_urls" : {
          "spotify" : "https://open.spotify.com/artist/43XTAe6WODIZRmPsmTM5ts"
        },
        "href" : "https://api.spotify.com/v1/artists/43XTAe6WODIZRmPsmTM5ts",
        "id" : "43XTAe6WODIZRmPsmTM5ts",
        "name" : "The Pioneers",
        "type" : "artist",
        "uri" : "spotify:artist:43XTAe6WODIZRmPsmTM5ts"
      } ],
      "disc_number" : 1,
      "duration_ms" : 141413,
      "explicit" : false,
      "external_ids" : {
        "isrc" : "US79N0610481"
      },
      "external_urls" : {
        "spotify" : "https://open.spotify.com/track/5UmooKZNxC0kf6wJ4I2qhQ"
      },
      "href" : "https://api.spotify.com/v1/tracks/5UmooKZNxC0kf6wJ4I2qhQ",
      "id" : "5UmooKZNxC0kf6wJ4I2qhQ",
      "is_local" : false,
      "is_playable" : true,
      "name" : "I Will Follow Thee",
      "popularity" : 0,
      "preview_url" : "https://p.scdn.co/mp3-preview/62216c1c67405e56a4d3bdf2cbbed37b4496eff3?cid=774b29d4f13844c495f206cafdad9c86",
      "track_number" : 2,
      "type" : "track",
      "uri" : "spotify:track:5UmooKZNxC0kf6wJ4I2qhQ"
    } ],
    "limit" : 10,
    "next" : "https://api.spotify.com/v1/search?query=I+Will+Follow+Thee&type=track&market=US&offset=15&limit=10",
    "offset" : 5,
    "previous" : "https://api.spotify.com/v1/search?query=I+Will+Follow+Thee&type=track&market=US&offset=0&limit=10",
    "total" : 30
  }
}