{
  "tracks" : {
    "href" : "https://api.spotify.com/v1/search?query=A+Mighty+Fortress&type=track&market=US&offset=5&limit=10",
    "items" : [ {
      "album" : {
        "album_type" : "album",
        "artists" : [ {
          "external_urls" : {
            "spotify" : "https://open.spotify.com/artist/6MYKRhEIKscR8qdGlvpk9y"
          },
          "href" : "https://api.spotify.com/v1/artists/6MYKRhEIKscR8qdGlvpk9y",
          "id" : "6MYKRhEIKscR8qdGlvpk9y",
          "name" : "Sovereign Grace Music",
          "type" : "artist",
          "uri" : "spotify:artist:6MYKRhEIKscR8qdGlvpk9y"
        }, {
          "external_urls" : {
            "spotify" : "https://open.spotify.com/artist/3mWDcLkpeZ5aReUNWoOadU"
          },
          "href" : "https://api.spotify.com/v1/artists/3mWDcLkpeZ5aReUNWoOadU",
          "id" : "3mWDcLkpeZ5aReUNWoOadU",
          "name" : "Bob Kauflin",
          "type" : "artist",
          "uri" : "spotify:artist:3mWDcLkpeZ5aReUNWoOadU"
        } ],
        "external_urls" : {
          "spotify" : "https://open.spotify.com/album/02YQE7jfnG2cOF6qJ6KI9E"
        },
        "href" : "https://api.spotify.com/v1/albums/02YQE7jfnG2cOF6qJ6KI9E",
        "id" : "02YQE7jfnG2cOF6qJ6KI9E",
        "images" : [ {
          "height" : 640,
          "url" : "https://i.scdn.co/image/ab67616d0000b2738108be026d28c5fec232f6b3",
          "width" : 640
        }, {
          "height" : 300,
          "url" : "https://i.scdn.co/image/ab67616d00001e028108be026d28c5fec232f6b3",
          "width" : 300
        }, {
          "height" : 64,
          "url" : "https://i.scdn.co/image/ab67616d000048518108be026d28c5fec232f6b3",
          "width" : 64
        } ],
        "name" : "Together for the Gospel (Live)",
        "release_date" : "2008-01-01",
        "release_date_precision" : "day",
        "total_tracks" : 16,
        "type" : "album",
        "uri" : "spotify:album:02YQE7jfnG2cOF6qJ6KI9E"
      },
      "artists" : [ {
        "external_urls" : {
          "spotify" : "https://open.spotify.com/artist/6MYKRhEIKscR8qdGlvpk9y"
        },
        "href" : "https://api.spotify.com/v1/artists/6MYKRhEIKscR8qdGlvpk9y",
        "id" : "6MYKRhEIKscR8qdGlvpk9y",
        "name" : "Sovereign Grace Music",
        "type" : "artist",
        "uri" : "spotify:artist:6MYKRhEIKscR8qdGlvpk9y"
      }, {
        "external_urls" : {
          "spotify" : "https://open.spotify.com/artist/3mWDcLkpeZ5aReUNWoOadU"
        },
        "href" : "https://api.spotify.com/v1/artists/3mWDcLkpeZ5aReUNWoOadU",
        "id" : "3mWDcLkpeZ5aReUNWoOadU",
        "name" : "Bob Kauflin",
        "type" : "artist",
        "uri" : "spotify:artist:3mWDcLkpeZ5aReUNWoOadU"
      } ],
      "disc_number" : 1,
      "duration_ms" : 199520,
      "explicit" : false,
      "external_ids" : {
        "isrc" : "USL4Q0827021"
      },
      "external_urls" : {
        "spotify" : "https://open.spotify.com/track/3SOWXjXUDEZFptmQdU7Qen"
      },
      "href" : "https://api.spotify.com/v1/tracks/3SOWXjXUDEZFptmQdU7Qen",
      "id" : "3SOWXjXUDEZFptmQdU7Qen",
      "is_local" : false,
      "is_playable" : true,
      "name" : "A Mighty Fortress Is Our God - Live",
      "popularity" : 29,
      "preview_url" : "https://p.scdn.co/mp3-preview/e9e06c21ad90f4bad7c161f89982dd900b3601c8?cid=774b29d4f13844c495f206cafdad9c86",
      "track_number" : 1,
      "type" : "track",
      "uri" : "spotify:track:3SOWXjXUDEZFptmQdU7Qen"
    }, {
      "album" : {
        "album_type" : "album",
        "artists" : [ {
          "external_urls" : {
            "spotify" : "https://open.spotify.com/artist/0XFBXku1ro7p7bjFQk98o6"
          },
          "href" : "https://api.spotify.com/v1/artists/0XFBXku1ro7p7bjFQk98o6",
          "id" : "0XFBXku1ro7p7bjFQk98o6",
          "name" : "Christy Nockels",
          "type" : "artist",
          "uri" : "spotify:artist:0XFBXku1ro7p7bjFQk98o6"
        } ],
        "external_urls" : {
          "spotify" : "https://open.spotify.com/album/0sK9fAMoz3wbX1w08wZOOo"
        },
        "href" : "https://api.spotify.com/v1/albums/0sK9fAMoz3wbX1w08wZOOo",
        "id" : "0sK9fAMoz3wbX1w08wZOOo",
        "images" : [ {
          "height" : 640,
          "url" : "https://i.scdn.co/image/ab67616d0000b2735265adf58a4ce42772c4c1cb",
          "width" : 640
        }, {
          "height" : 300,
          "url" : "https://i.scdn.co/image/ab67616d00001e025265adf58a4ce42772c4c1cb",
          "width" : 300
        }, {
          "height" : 64,
          "url" : "https://i.scdn.co/image/ab67616d000048515265adf58a4ce42772c4c1cb",
          "width" : 64
        } ],
        "name" : "Life Light Up",
        "release_date" : "2009-01-01",
        "release_date_precision" : "day",
        "total_tracks" : 11,
        "type" : "album",
        "uri" : "spotify:album:0sK9fAMoz3wbX1w08wZOOo"
      },
      "artists" : [ {
        "external_urls" : {
          "spotify" : "https://open.spotify.com/artist/0XFBXku1ro7p7bjFQk98o6"
        },
        "href" : "https://api.spotify.com/v1/artists/0XFBXku1ro7p7bjFQk98o6",
        "id" : "0XFBXku1ro7p7bjFQk98o6",
        "name" : "Christy Nockels",
        "type" : "artist",
        "uri" : "spotify:artist:0XFBXku1ro7p7bjFQk98o6"
      } ],
      "disc_number" : 1,
      "duration_ms" : 289866,
      "explicit" : false,
      "external_ids" : {
        "isrc" : "USSP30900371"
      },
      "external_urls" : {
        "spotify" : "https://open.spotify.com/track/2K9jixNLTjfOOFtAtuCxAA"
      },
      "href" : "https://api.spotify.com/v1/tracks/2K9jixNLTjfOOFtAtuCxAA",
      "id" : "2K9jixNLTjfOOFtAtuCxAA",
      "is_local" : false,
      "is_playable" : true,
      "name" : "A Mighty Fortress",
      "popularity" : 27,
      "preview_url" : null,
      "track_number" : 6,
      "type" : "track",
      "uri" : "spotify:track:2K9jixNLTjfOOFtAtuCxAA"
    }, {
      "album" : {
        "album_type" : "album",
        "artists" : [ {
          "external_urls" : {
            "spotify" : "https://open.spotify.com/artist/7zbq3gjHu4JAiMV7dWbUdv"
          },
          "href" : "https://api.spotify.com/v1/artists/7zbq3gjHu4JAiMV7dWbUdv",
          "id" : "7zbq3gjHu4JAiMV7dWbUdv",
          "name" : "David Nevue",
          "type" : "artist",
          "uri" : "spotify:artist:7zbq3gjHu4JAiMV7dWbUdv"
        } ],
        "external_urls" : {
          "spotify" : "https://open.spotify.com/album/40cpm00bdjrQNo4v4N6rgQ"
        },
        "href" : "https://api.spotify.com/v1/albums/40cpm00bdjrQNo4v4N6rgQ",
        "id" : "40cpm00bdjrQNo4v4N6rgQ",
        "images" : [ {
          "height" : 640,
          "url" : "https://i.scdn.co/image/ab67616d0000b27360cd0941eca23f25e8fe3b96",
          "width" : 640
        }, {
          "height" : 300,
          "url" : "https://i.scdn.co/image/ab67616d00001e0260cd0941eca23f25e8fe3b96",
          "width" : 300
        }, {
          "height" : 64,
          "url" : "https://i.scdn.co/image/ab67616d0000485160cd0941eca23f25e8fe3b96",
          "width" : 64
        } ],
        "name" : "Revelation: Solo Piano For Prayer & Worship",
        "release_date" : "2009-12-11",
        "release_date_precision" : "day",
        "total_tracks" : 19,
        "type" : "album",
        "uri" : "spotify:album:40cpm00bdjrQNo4v4N6rgQ"
      },
      "artists" : [ {
        "external_urls" : {
          "spotify" : "https://open.spotify.com/artist/7zbq3gjHu4JAiMV7dWbUdv"
        },
        "href" : "https://api.spotify.com/v1/artists/7zbq3gjHu4JAiMV7dWbUdv",
        "id" : "7zbq3gjHu4JAiMV7dWbUdv",
        "name" : "David Nevue",
        "type" : "artist",
        "uri" : "spotify:artist:7zbq3gjHu4JAiMV7dWbUdv"
      } ],
      "disc_number" : 1,
      "duration_ms" : 244640,
      "explicit" : false,
      "external_ids" : {
        "isrc" : "uscgh1024164"
      },
      "external_urls" : {
        "spotify" : "https://open.spotify.com/track/2AxnA0x0xzXdh0Dv9kkufo"
      },
      "href" : "https://api.spotify.com/v1/tracks/2AxnA0x0xzXdh0Dv9kkufo",
      "id" : "2AxnA0x0xzXdh0Dv9kkufo",
      "is_local" : false,
      "is_playable" : true,
      "name" : "A Mighty Fortress Is Our God",
      "popularity" : 26,
      "preview_url" : "https://p.scdn.co/mp3-preview/9bcf533ae870cc7e0bfcd497997ff5aaf88a83a6?cid=774b29d4f13844c495f206cafdad9c86",
      "track_number" : 1,
      "type" : "track",
      "uri" : "spotify:track:2AxnA0x0xzXdh0Dv9kkufo"
    }, {
      "album" : {
        "album_type" : "album",
        "artists" : [ {
          "external_urls" : {
            "spotify" : "https://open.spotify.com/artist/2duo4NJtUrLaI38trK0hht"
          },
          "href" : "https://api.spotify.com/v1/artists/2duo4NJtUrLaI38trK0hht",
          "id" : "2duo4NJtUrLaI38trK0hht",
          "name" : "Mormon Tabernacle Choir",
          "type" : "artist",
          "uri" : "spotify:artist:2duo4NJtUrLaI38trK0hht"
        } ],
        "external_urls" : {
          "spotify" : "https://open.spotify.com/album/3sCGPUj7X9ht9uMLYjCZAr"
        },
        "href" : "https://api.spotify.com/v1/albums/3sCGPUj7X9ht9uMLYjCZAr",
        "id" : "3sCGPUj7X9ht9uMLYjCZAr",
        "images" : [ {
          "height" : 640,
          "url" : "https://i.scdn.co/image/ab67616d0000b273ccc67c381ea78ae10b082085",
          "width" : 640
        }, {
          "height" : 300,
          "url" : "https://i.scdn.co/image/ab67616d00001e02ccc67c381ea78ae10b082085",
          "width" : 300
        }, {
          "height" : 64,
          "url" : "https://i.scdn.co/image/ab67616d00004851ccc67c381ea78ae10b082085",
          "width" : 64
        } ],
        "name" : "20 Great Bach & Handel Choruses",
        "release_date" : "1959",
        "release_date_precision" : "year",
        "total_tracks" : 20,
        "type" : "album",
        "uri" : "spotify:album:3sCGPUj7X9ht9uMLYjCZAr"
      },
      "artists" : [ {
        "external_urls" : {
          "spotify" : "https://open.spotify.com/artist/5aIqB5nVVvmFsvSdExz408"
        },
        "href" : "https://api.spotify.com/v1/artists/5aIqB5nVVvmFsvSdExz408",
        "id" : "5aIqB5nVVvmFsvSdExz408",
        "name" : "Johann Sebastian Bach",
        "type" : "artist",
        "uri" : "spotify:artist:5aIqB5nVVvmFsvSdExz408"
      }, {
        "external_urls" : {
          "spotify" : "https://open.spotify.com/artist/2duo4NJtUrLaI38trK0hht"
        },
        "href" : "https://api.spotify.com/v1/artists/2duo4NJtUrLaI38trK0hht",
        "id" : "2duo4NJtUrLaI38trK0hht",
        "name" : "Mormon Tabernacle Choir",
        "type" : "artist",
        "uri" : "spotify:artist:2duo4NJtUrLaI38trK0hht"
      }, {
        "external_urls" : {
          "spotify" : "https://open.spotify.com/artist/3naY4Tq98GRh9K8xOsINyv"
        },
        "href" : "https://api.spotify.com/v1/artists/3naY4Tq98GRh9K8xOsINyv",
        "id" : "3naY4Tq98GRh9K8xOsINyv",
        "name" : "Eugene Ormandy",
        "type" : "artist",
        "uri" : "spotify:artist:3naY4Tq98GRh9K8xOsINyv"
      }, {
        "external_urls" : {
          "spotify" : "https://open.spotify.com/artist/6tdexW8bZTG8NgOFUCYQn1"
        },
        "href" : "https://api.spotify.com/v1/artists/6tdexW8bZTG8NgOFUCYQn1",
        "id" : "6tdexW8bZTG8NgOFUCYQn1",
        "name" : "Philadelphia Orchestra",
        "type" : "artist",
        "uri" : "spotify:artist:6tdexW8bZTG8NgOFUCYQn1"
      } ],
      "disc_number" : 1,
      "duration_ms" : 100200,
      "explicit" : false,
      "external_ids" : {
        "isrc" : "USSM15800979"
      },
      "external_urls" : {
        "spotify" : "https://open.spotify.com/track/75FtHkkBTIOIYVEBwn3H7e"
      },
      "href" : "https://api.spotify.com/v1/tracks/75FtHkkBTIOIYVEBwn3H7e",
      "id" : "75FtHkkBTIOIYVEBwn3H7e",
      "is_local" : false,
      "is_playable" : true,
      "name" : "A Mighty Fortress is Our God from Cantata No. 80, BWV 80 - Voice",
      "popularity" : 23,
      "preview_url" : "https://p.scdn.co/mp3-preview/17ba49583652ba93c734a6392e6f33f013f45128?cid=774b29d4f13844c495f206cafdad9c86",
      "track_number" : 1,
      "type" : "track",
      "uri" : "spotify:track:75FtHkkBTIOIYVEBwn3H7e"
    }, {
      "album" : {
        "album_type" : "album",
        "artists" : [ {
          "external_urls" : {
            "spotify" : "https://open.spotify.com/artist/0HVhrcczr4gd8oNtUsTqWg"
          },
          "href" : "https://api.spotify.com/v1/artists/0HVhrcczr4gd8oNtUsTqWg",
          "id" : "0HVhrcczr4gd8oNtUsTqWg",
          "name" : "Bow and Ivory",
          "type" : "artist",
          "uri" : "spotify:artist:0HVhrcczr4gd8oNtUsTqWg"
        } ],
        "external_urls" : {
          "spotify" : "https://open.spotify.com/album/4HAaEQuEphXWQs3jGxKTvi"
        },
        "href" : "https://api.spotify.com/v1/albums/4HAaEQuEphXWQs3jGxKTvi",
        "id" : "4HAaEQuEphXWQs3jGxKTvi",
        "images" : [ {
          "height" : 640,
          "url" : "https://i.scdn.co/image/ab67616d0000b2733c766cbf257f2b8b26d975d0",
          "width" : 640
        }, {
          "height" : 300,
          "url" : "https://i.scdn.co/image/ab67616d00001e023c766cbf257f2b8b26d975d0",
          "width" : 300
        }, {
          "height" : 64,
          "url" : "https://i.scdn.co/image/ab67616d000048513c766cbf257f2b8b26d975d0",
          "width" : 64
        } ],
        "name" : "Hymns for Piano and Violin",
        "release_date" : "2017-06-03",
        "release_date_precision" : "day",
        "total_tracks" : 10,
        "type" : "album",
        "uri" : "spotify:album:4HAaEQuEphXWQs3jGxKTvi"
      },
      "artists" : [ {
        "external_urls" : {
          "spotify" : "https://open.spotify.com/artist/0HVhrcczr4gd8oNtUsTqWg"
        },
        "href" : "https://api.spotify.com/v1/artists/0HVhrcczr4gd8oNtUsTqWg",
        "id" : "0HVhrcczr4gd8oNtUsTqWg",
        "name" : "Bow and Ivory",
        "type" : "artist",
        "uri" : "spotify:artist:0HVhrcczr4gd8oNtUsTqWg"
      } ],
      "disc_number" : 1,
      "duration_ms" : 259972,
      "explicit" : false,
      "external_ids" : {
        "isrc" : "TCADC1735578"
      },
      "external_urls" : {
        "spotify" : "https://open.spotify.com/track/2g9ju7j5YppbsOXvmYULwi"
      },
      "href" : "https://api.spotify.com/v1/tracks/2g9ju7j5YppbsOXvmYULwi",
      "id" : "2g9ju7j5YppbsOXvmYULwi",
      "is_local" : false,
      "is_playable" : true,
      "name" : "A Mighty Fortress",
      "popularity" : 20,
      "preview_url" : "https://p.scdn.co/mp3-preview/80d79cd57bca55bb796676a69356cd8de4c5ca88?cid=774b29d4f13844c495f206cafdad9c86",
      "track_number" : 7,
      "type" : "track",
      "uri" : "spotify:track:2g9ju7j5YppbsOXvmYULwi"
    }, {
      "album" : {
        "album_type" : "album",
        "artists" : [ {
          "external_urls" : {
            "spotify" : "https://open.spotify.com/artist/7hz41KzAPU4K0qUXDCc2ki"
          },
          "href" : "https://api.spotify.com/v1/artists/7hz41KzAPU4K0qUXDCc2ki",
          "id" : "7hz41KzAPU4K0qUXDCc2ki",
          "name" : "The National Lutheran Choir",
          "type" : "artist",
          "uri" : "spotify:artist:7hz41KzAPU4K0qUXDCc2ki"
        } ],
        "external_urls" : {
          "spotify" : "https://open.spotify.com/album/1HSjRaWFOQ1jiQL6oDmUro"
        },
        "href" : "https://api.spotify.com/v1/albums/1HSjRaWFOQ1jiQL6oDmUro",
        "id" : "1HSjRaWFOQ1jiQL6oDmUro",
        "images" : [ {
          "height" : 640,
          "url" : "https://i.scdn.co/image/ab67616d0000b27374ee5540f7fb9434cedb1656",
          "width" : 640
        }, {
          "height" : 300,
          "url" : "https://i.scdn.co/image/ab67616d00001e0274ee5540f7fb9434cedb1656",
          "width" : 300
        }, {
          "height" : 64,
          "url" : "https://i.scdn.co/image/ab67616d0000485174ee5540f7fb9434cedb1656",
          "width" : 64
        } ],
        "name" : "Hymns We Love to Sing",
        "release_date" : "2005",
        "release_date_precision" : "year",
        "total_tracks" : 14,
        "type" : "album",
        "uri" : "spotify:album:1HSjRaWFOQ1jiQL6oDmUro"
      },
      "artists" : [ {
        "external_urls" : {
          "spotify" : "https://open.spotify.com/artist/7hz41KzAPU4K0qUXDCc2ki"
        },
        "href" : "https://api.spotify.com/v1/artists/7hz41KzAPU4K0qUXDCc2ki",
        "id" : "7hz41KzAPU4K0qUXDCc2ki",
        "name" : "The National Lutheran Choir",
        "type" : "artist",
        "uri" : "spotify:artist:7hz41KzAPU4K0qUXDCc2ki"
      } ],
      "disc_number" : 1,
      "duration_ms" : 390373,
      "explicit" : false,
      "external_ids" : {
        "isrc" : "USDHM0903042"
      },
      "external_urls" : {
        "spotify" : "https://open.spotify.com/track/65fHISaVvR09fBNMbKivQQ"
      },
      "href" : "https://api.spotify.com/v1/tracks/65fHISaVvR09fBNMbKivQQ",
      "id" : "65fHISaVvR09fBNMbKivQQ",
      "is_local" : false,
      "is_playable" : true,
      "name" : "A Mighty Fortress",
      "popularity" : 19,
      "preview_url" : "https://p.scdn.co/mp3-preview/bbdd7259a55c51f7bd81450e2665fb81848922b6?cid=774b29d4f13844c495f206cafdad9c86",
      "track_number" : 8,
      "type" : "track",
      "uri" : "spotify:track:65fHISaVvR09fBNMbKivQQ"
    }, {
      "album" : {
        "album_type" : "album",
        "artists" : [ {
          "external_urls" : {
            "spotify" : "https://open.spotify.com/artist/5ljRAiIgLFVxzWg7vS1Rnl"
          },
          "href" : "https://api.spotify.com/v1/artists/5ljRAiIgLFVxzWg7vS1Rnl",
          "id" : "5ljRAiIgLFVxzWg7vS1Rnl",
          "name" : "Christian Devotion",
          "type" : "artist",
          "uri" : "spotify:artist:5ljRAiIgLFVxzWg7vS1Rnl"
        } ],
        "external_urls" : {
          "spotify" : "https://open.spotify.com/album/0MDMpSMhKVFj5oUe7TY56b"
        },
        "href" : "https://api.spotify.com/v1/albums/0MDMpSMhKVFj5oUe7TY56b",
        "id" : "0MDMpSMhKVFj5oUe7TY56b",
        "images" : [ {
          "height" : 640,
          "url" : "https://i.scdn.co/image/ab67616d0000b273a2d131105ae14f594da119ef",
          "width" : 640
        }, {
          "height" : 300,
          "url" : "https://i.scdn.co/image/ab67616d00001e02a2d131105ae14f594da119ef",
          "width" : 300
        }, {
          "height" : 64,
          "url" : "https://i.scdn.co/image/ab67616d00004851a2d131105ae14f594da119ef",
          "width" : 64
        } ],
        "name" : "Hymns for Peace",
        "release_date" : "2015-12-21",
        "release_date_precision" : "day",
        "total_tracks" : 18,
        "type" : "album",
        "uri" : "spotify:album:0MDMpSMhKVFj5oUe7TY56b"
      },
      "artists" : [ {
        "external_urls" : {
          "spotify" : "https://open.spotify.com/artist/5ljRAiIgLFVxzWg7vS1Rnl"
        },
        "href" : "https://api.spotify.com/v1/artists/5ljRAiIgLFVxzWg7vS1Rnl",
        "id" : "5ljRAiIgLFVxzWg7vS1Rnl",
        "name" : "Christian Devotion",
        "type" : "artist",
        "uri" : "spotify:artist:5ljRAiIgLFVxzWg7vS1Rnl"
      } ],
      "disc_number" : 1,
      "duration_ms" : 148760,
      "explicit" : false,
      "external_ids" : {
        "isrc" : "USA2P1563029"
      },
      "external_urls" : {
        "spotify" : "https://open.spotify.com/track/7zqqBEePi9bNRNAdQXLrnc"
      },
      "href" : "https://api.spotify.com/v1/tracks/7zqqBEePi9bNRNAdQXLrnc",
      "id" : "7zqqBEePi9bNRNAdQXLrnc",
      "is_local" : false,
      "is_playable" : true,
      "name" : "A Mighty Fortress",
      "popularity" : 20,
      "preview_url" : "https://p.scdn.co/mp3-preview/05797677021a700a54a2952af969bcde2a4282ee?cid=774b29d4f13844c495f206cafdad9c86",
      "track_number" : 2,
      "type" : "track",
      "uri" : "spotify:track:7zqqBEePi9bNRNAdQXLrnc"
    }, {
      "album" : {
        "album_type" : "album",
        "artists" : [ {
          "external_urls" : {
            "spotify" : "https://open.spotify.com/artist/6zRitpR7EspnJDUTZFpofd"
          },
          "href" : "https://api.spotify.com/v1/artists/6zRitpR7EspnJDUTZFpofd",
          "id" : "6zRitpR7EspnJDUTZFpofd",
          "name" : "C.S. Heath",
          "type" : "artist",
          "uri" : "spotify:artist:6zRitpR7EspnJDUTZFpofd"
        }, {
          "external_urls" : {
            "spotify" : "https://open.spotify.com/artist/4vd9lwg5cXjWPc035U6N6p"
          },
          "href" : "https://api.spotify.com/v1/artists/4vd9lwg5cXjWPc035U6N6p",
          "id" : "4vd9lwg5cXjWPc035U6N6p",
          "name" : "Jonas James",
          "type" : "artist",
          "uri" : "spotify:artist:4vd9lwg5cXjWPc035U6N6p"
        }, {
          "external_urls" : {
            "spotify" : "https://open.spotify.com/artist/6FsXOVxLro1VeFa5c6jK1y"
          },
          "href" : "https://api.spotify.com/v1/artists/6FsXOVxLro1VeFa5c6jK1y",
          "id" : "6FsXOVxLro1VeFa5c6jK1y",
          "name" : "Christopher West",
          "type" : "artist",
          "uri" : "spotify:artist:6FsXOVxLro1VeFa5c6jK1y"
        } ],
        "external_urls" : {
          "spotify" : "https://open.spotify.com/album/50CfjHf2gcwmBgECPM1Oqq"
        },
        "href" : "https://api.spotify.com/v1/albums/50CfjHf2gcwmBgECPM1Oqq",
        "id" : "50CfjHf2gcwmBgECPM1Oqq",
        "images" : [ {
          "height" : 640,
          "url" : "https://i.scdn.co/image/ab67616d0000b2739ff493c94c6bae2a6ed9401b",
          "width" : 640
        }, {
          "height" : 300,
          "url" : "https://i.scdn.co/image/ab67616d00001e029ff493c94c6bae2a6ed9401b",
          "width" : 300
        }, {
          "height" : 64,
          "url" : "https://i.scdn.co/image/ab67616d000048519ff493c94c6bae2a6ed9401b",
          "width" : 64
        } ],
        "name" : "Instrumental Hymns",
        "release_date" : "2014-03-04",
        "release_date_precision" : "day",
        "total_tracks" : 40,
        "type" : "album",
        "uri" : "spotify:album:50CfjHf2gcwmBgECPM1Oqq"
      },
      "artists" : [ {
        "external_urls" : {
          "spotify" : "https://open.spotify.com/artist/6FsXOVxLro1VeFa5c6jK1y"
        },
        "href" : "https://api.spotify.com/v1/artists/6FsXOVxLro1VeFa5c6jK1y",
        "id" : "6FsXOVxLro1VeFa5c6jK1y",
        "name" : "Christopher West",
        "type" : "artist",
        "uri" : "spotify:artist:6FsXOVxLro1VeFa5c6jK1y"
      } ],
      "disc_number" : 2,
      "duration_ms" : 146626,
      "explicit" : false,
      "external_ids" : {
        "isrc" : "QMDA71481193"
      },
      "external_urls" : {
        "spotify" : "https://open.spotify.com/track/67HwGP3dEusaat9yq2FhZI"
      },
      "href" : "https://api.spotify.com/v1/tracks/67HwGP3dEusaat9yq2FhZI",
      "id" : "67HwGP3dEusaat9yq2FhZI",
      "is_local" : false,
      "is_playable" : true,
      "name" : "A Mighty Fortress",
      "popularity" : 21,
      "preview_url" : "https://p.scdn.co/mp3-preview/47513736c373d404076569baa101c5341ef70697?cid=774b29d4f13844c495f206cafdad9c86",
      "track_number" : 6,
      "type" : "track",
      "uri" : "spotify:track:67HwGP3dEusaat9yq2FhZI"
    }, {
      "album" : {
        "album_type" : "album",
        "artists" : [ {
          "external_urls" : {
            "spotify" : "https://open.spotify.com/artist/4rhwll8EPEHOW8diluKlrZ"
          },
          "href" : "https://api.spotify.com/v1/artists/4rhwll8EPEHOW8diluKlrZ",
          "id" : "4rhwll8EPEHOW8diluKlrZ",
          "name" : "Glad",
          "type" : "artist",
          "uri" : "spotify:artist:4rhwll8EPEHOW8diluKlrZ"
        } ],
        "external_urls" : {
          "spotify" : "https://open.spotify.com/album/4XcU6Um0G0tCkdFShNNtLf"
        },
        "href" : "https://api.spotify.com/v1/albums/4XcU6Um0G0tCkdFShNNtLf",
        "id" : "4XcU6Um0G0tCkdFShNNtLf",
        "images" : [ {
          "height" : 640,
          "url" : "https://i.scdn.co/image/ab67616d0000b2733418ad7e23188be34c9610c1",
          "width" : 640
        }, {
          "height" : 300,
          "url" : "https://i.scdn.co/image/ab67616d00001e023418ad7e23188be34c9610c1",
          "width" : 300
        }, {
          "height" : 64,
          "url" : "https://i.scdn.co/image/ab67616d000048513418ad7e23188be34c9610c1",
          "width" : 64
        } ],
        "name" : "Acapella Project Vol. 1",
        "release_date" : "1988",
        "release_date_precision" : "year",
        "total_tracks" : 13,
        "type" : "album",
        "uri" : "spotify:album:4XcU6Um0G0tCkdFShNNtLf"
      },
      "artists" : [ {
        "external_urls" : {
          "spotify" : "https://open.spotify.com/artist/4rhwll8EPEHOW8diluKlrZ"
        },
        "href" : "https://api.spotify.com/v1/artists/4rhwll8EPEHOW8diluKlrZ",
        "id" : "4rhwll8EPEHOW8diluKlrZ",
        "name" : "Glad",
        "type" : "artist",
        "uri" : "spotify:artist:4rhwll8EPEHOW8diluKlrZ"
      } ],
      "disc_number" : 1,
      "duration_ms" : 226000,
      "explicit" : false,
      "external_ids" : {
        "isrc" : "USA5W0402836"
      },
      "external_urls" : {
        "spotify" : "https://open.spotify.com/track/0TXzaNFlCGBpFTM2WjtXZQ"
      },
      "href" : "https://api.spotify.com/v1/tracks/0TXzaNFlCGBpFTM2WjtXZQ",
      "id" : "0TXzaNFlCGBpFTM2WjtXZQ",
      "is_local" : false,
      "is_playable" : true,
      "name" : "A Mighty Fortress",
      "popularity" : 18,
      "preview_url" : "https://p.scdn.co/mp3-preview/f04bdbe8e79c7a439d8ff6038087333da6802091?cid=774b29d4f13844c495f206cafdad9c86",
      "track_number" : 2,
      "type" : "track",
      "uri" : "spotify:track:0TXzaNFlCGBpFTM2WjtXZQ"
    }, {
      "album" : {
        "album_type" : "album",
        "artists" : [ {
          "external_urls" : {
            "spotify" : "https://open.spotify.com/artist/44nxpJ4QALHoSoUFpWiIQc"
          },
          "href" : "https://api.spotify.com/v1/artists/44nxpJ4QALHoSoUFpWiIQc",
          "id" : "44nxpJ4QALHoSoUFpWiIQc",
          "name" : "David Andrew",
          "type" : "artist",
          "uri" : "spotify:artist:44nxpJ4QALHoSoUFpWiIQc"
        } ],
        "external_urls" : {
          "spotify" : "https://open.spotify.com/album/7h6OVZnXZ0yVJLf2Ou96lK"
        },
        "href" : "https://api.spotify.com/v1/albums/7h6OVZnXZ0yVJLf2Ou96lK",
        "id" : "7h6OVZnXZ0yVJLf2Ou96lK",
        "images" : [ {
          "height" : 640,
          "url" : "https://i.scdn.co/image/ab67616d0000b27308c8470894966ce4724c041f",
          "width" : 640
        }, {
          "height" : 300,
          "url" : "https://i.scdn.co/image/ab67616d00001e0208c8470894966ce4724c041f",
          "width" : 300
        }, {
          "height" : 64,
          "url" : "https://i.scdn.co/image/ab67616d0000485108c8470894966ce4724c041f",
          "width" : 64
        } ],
        "name" : "Hymns",
        "release_date" : "2020-03-26",
        "release_date_precision" : "day",
        "total_tracks" : 11,
        "type" : "album",
        "uri" : "spotify:album:7h6OVZnXZ0yVJLf2Ou96lK"
      },
      "artists" : [ {
        "external_urls" : {
          "spotify" : "https://open.spotify.com/artist/44nxpJ4QALHoSoUFpWiIQc"
        },
        "href" : "https://api.spotify.com/v1/artists/44nxpJ4QALHoSoUFpWiIQc",
        "id" : "44nxpJ4QALHoSoUFpWiIQc",
        "name" : "David Andrew",
        "type" : "artist",
        "uri" : "spotify:artist:44nxpJ4QALHoSoUFpWiIQc"
      } ],
      "disc_number" : 1,
      "duration_ms" : 194500,
      "explicit" : false,
      "external_ids" : {
        "isrc" : "QZDA42028025"
      },
      "external_urls" : {
        "spotify" : "https://open.spotify.com/track/4wPxsmVyATtkwPFHbg6WgX"
      },
      "href" : "https://api.spotify.com/v1/tracks/4wPxsmVyATtkwPFHbg6WgX",
      "id" : "4wPxsmVyATtkwPFHbg6WgX",
      "is_local" : false,
      "is_playable" : true,
      "name" : "A Mighty Fortress Is Our God",
      "popularity" : 28,
      "preview_url" : "https://p.scdn.co/mp3-preview/1e74a03e9cd828318a4327327617a44df4e75597?cid=774b29d4f13844c495f206cafdad9c86",
      "track_number" : 7,
      "type" : "track",
      "uri" : "spotify:track:4wPxsmVyATtkwPFHbg6WgX"
    } ],
    "limit" : 10,
    "next" : "https://api.spotify.com/v1/search?query=A+Mighty+Fortress&type=track&market=US&offset=15&limit=10",
    "offset" : 5,
    "previous" : "https://api.spotify.com/v1/search?query=A+Mighty+Fortress&type=track&market=US&offset=0&limit=10",
    "total" : 1210
  }
}