{
  "tracks" : {
    "href" : "https://api.spotify.com/v1/search?query=Just+When+I+Need+Him+Most&type=track&market=US&offset=5&limit=10",
    "items" : [ {
      "album" : {
        "album_type" : "album",
        "artists" : [ {
          "external_urls" : {
            "spotify" : "https://open.spotify.com/artist/1unBMV7ua4l6MwS8fjKEGq"
          },
          "href" : "https://api.spotify.com/v1/artists/1unBMV7ua4l6MwS8fjKEGq",
          "id" : "1unBMV7ua4l6MwS8fjKEGq",
          "name" : "The Lincoln Heights Missionary Baptist Church Mass Choir",
          "type" : "artist",
          "uri" : "spotify:artist:1unBMV7ua4l6MwS8fjKEGq"
        } ],
        "external_urls" : {
          "spotify" : "https://open.spotify.com/album/34jqoaCd6jGAaUKY7uzvhg"
        },
        "href" : "https://api.spotify.com/v1/albums/34jqoaCd6jGAaUKY7uzvhg",
        "id" : "34jqoaCd6jGAaUKY7uzvhg",
        "images" : [ {
          "height" : 640,
          "url" : "https://i.scdn.co/image/ab67616d0000b2739fc0322f1c1f6e0806b3ee7d",
          "width" : 640
        }, {
          "height" : 300,
          "url" : "https://i.scdn.co/image/ab67616d00001e029fc0322f1c1f6e0806b3ee7d",
          "width" : 300
        }, {
          "height" : 64,
          "url" : "https://i.scdn.co/image/ab67616d000048519fc0322f1c1f6e0806b3ee7d",
          "width" : 64
        } ],
        "name" : "In This Temple",
        "release_date" : "2009-10-11",
        "release_date_precision" : "day",
        "total_tracks" : 15,
        "type" : "album",
        "uri" : "spotify:album:34jqoaCd6jGAaUKY7uzvhg"
      },
      "artists" : [ {
        "external_urls" : {
          "spotify" : "https://open.spotify.com/artist/1unBMV7ua4l6MwS8fjKEGq"
        },
        "href" : "https://api.spotify.com/v1/artists/1unBMV7ua4l6MwS8fjKEGq",
        "id" : "1unBMV7ua4l6MwS8fjKEGq",
        "name" : "The Lincoln Heights Missionary Baptist Church Mass Choir",
        "type" : "artist",
        "uri" : "spotify:artist:1unBMV7ua4l6MwS8fjKEGq"
      }, {
        "external_urls" : {
          "spotify" : "https://open.spotify.com/artist/7yP4wyQZCLOEdomQmR9htj"
        },
        "href" : "https://api.spotify.com/v1/artists/7yP4wyQZCLOEdomQmR9htj",
        "id" : "7yP4wyQZCLOEdomQmR9htj",
        "name" : "Darryl Cherry",
        "type" : "artist",
        "uri" : "spotify:artist:7yP4wyQZCLOEdomQmR9htj"
      } ],
      "disc_number" : 1,
      "duration_ms" : 371120,
      "explicit" : false,
      "external_ids" : {
        "isrc" : "usx9p0965669"
      },
      "external_urls" : {
        "spotify" : "https://open.spotify.com/track/5Vt2pPEZ0bairHS5khoELR"
      },
      "href" : "https://api.spotify.com/v1/tracks/5Vt2pPEZ0bairHS5khoELR",
      "id" : "5Vt2pPEZ0bairHS5khoELR",
      "is_local" : false,
      "is_playable" : true,
      "name" : "Just When I Need Him Most",
      "popularity" : 0,
      "preview_url" : "https://p.scdn.co/mp3-preview/5051379d10fd34375c203c40b1ad47207e8b5b82?cid=774b29d4f13844c495f206cafdad9c86",
      "track_number" : 12,
      "type" : "track",
      "uri" : "spotify:track:5Vt2pPEZ0bairHS5khoELR"
    }, {
      "album" : {
        "album_type" : "album",
        "artists" : [ {
          "external_urls" : {
            "spotify" : "https://open.spotify.com/artist/4sRZjxxRM8XsO07pkdEk1C"
          },
          "href" : "https://api.spotify.com/v1/artists/4sRZjxxRM8XsO07pkdEk1C",
          "id" : "4sRZjxxRM8XsO07pkdEk1C",
          "name" : "Michael McCown",
          "type" : "artist",
          "uri" : "spotify:artist:4sRZjxxRM8XsO07pkdEk1C"
        }, {
          "external_urls" : {
            "spotify" : "https://open.spotify.com/artist/7n3QfASIcEWLDEI1pBUu25"
          },
          "href" : "https://api.spotify.com/v1/artists/7n3QfASIcEWLDEI1pBUu25",
          "id" : "7n3QfASIcEWLDEI1pBUu25",
          "name" : "Anne Larlee",
          "type" : "artist",
          "uri" : "spotify:artist:7n3QfASIcEWLDEI1pBUu25"
        } ],
        "external_urls" : {
          "spotify" : "https://open.spotify.com/album/4NBuOJQQfe3qmV266kE6SZ"
        },
        "href" : "https://api.spotify.com/v1/albums/4NBuOJQQfe3qmV266kE6SZ",
        "id" : "4NBuOJQQfe3qmV266kE6SZ",
        "images" : [ {
          "height" : 640,
          "url" : "https://i.scdn.co/image/ab67616d0000b2734f9e7a1615511efed9df78a1",
          "width" : 640
        }, {
          "height" : 300,
          "url" : "https://i.scdn.co/image/ab67616d00001e024f9e7a1615511efed9df78a1",
          "width" : 300
        }, {
          "height" : 64,
          "url" : "https://i.scdn.co/image/ab67616d000048514f9e7a1615511efed9df78a1",
          "width" : 64
        } ],
        "name" : "Songs I've Always Known",
        "release_date" : "2017-07-08",
        "release_date_precision" : "day",
        "total_tracks" : 15,
        "type" : "album",
        "uri" : "spotify:album:4NBuOJQQfe3qmV266kE6SZ"
      },
      "artists" : [ {
        "external_urls" : {
          "spotify" : "https://open.spotify.com/artist/4sRZjxxRM8XsO07pkdEk1C"
        },
        "href" : "https://api.spotify.com/v1/artists/4sRZjxxRM8XsO07pkdEk1C",
        "id" : "4sRZjxxRM8XsO07pkdEk1C",
        "name" : "Michael McCown",
        "type" : "artist",
        "uri" : "spotify:artist:4sRZjxxRM8XsO07pkdEk1C"
      }, {
        "external_urls" : {
          "spotify" : "https://open.spotify.com/artist/7n3QfASIcEWLDEI1pBUu25"
        },
        "href" : "https://api.spotify.com/v1/artists/7n3QfASIcEWLDEI1pBUu25",
        "id" : "7n3QfASIcEWLDEI1pBUu25",
        "name" : "Anne Larlee",
        "type" : "artist",
        "uri" : "spotify:artist:7n3QfASIcEWLDEI1pBUu25"
      } ],
      "disc_number" : 1,
      "duration_ms" : 228426,
      "explicit" : false,
      "external_ids" : {
        "isrc" : "ushm21753550"
      },
      "external_urls" : {
        "spotify" : "https://open.spotify.com/track/2G6TZxK5vVofND7pGB4n41"
      },
      "href" : "https://api.spotify.com/v1/tracks/2G6TZxK5vVofND7pGB4n41",
      "id" : "2G6TZxK5vVofND7pGB4n41",
      "is_local" : false,
      "is_playable" : true,
      "name" : "Just When I Need Him Most",
      "popularity" : 0,
      "preview_url" : "https://p.scdn.co/mp3-preview/2b283ee99102d9e5538d96f7cf9019fa22b508a7?cid=774b29d4f13844c495f206cafdad9c86",
      "track_number" : 6,
      "type" : "track",
      "uri" : "spotify:track:2G6TZxK5vVofND7pGB4n41"
    }, {
      "album" : {
        "album_type" : "album",
        "artists" : [ {
          "external_urls" : {
            "spotify" : "https://open.spotify.com/artist/0S96v5UXUohZd31g8plQLt"
          },
          "href" : "https://api.spotify.com/v1/artists/0S96v5UXUohZd31g8plQLt",
          "id" : "0S96v5UXUohZd31g8plQLt",
          "name" : "Chosen",
          "type" : "artist",
          "uri" : "spotify:artist:0S96v5UXUohZd31g8plQLt"
        } ],
        "external_urls" : {
          "spotify" : "https://open.spotify.com/album/4EqI55HVLT0Bgy6hB7BNNN"
        },
        "href" : "https://api.spotify.com/v1/albums/4EqI55HVLT0Bgy6hB7BNNN",
        "id" : "4EqI55HVLT0Bgy6hB7BNNN",
        "images" : [ {
          "height" : 640,
          "url" : "https://i.scdn.co/image/ab67616d0000b273c8a476b4a0f309c6d0b642bc",
          "width" : 640
        }, {
          "height" : 300,
          "url" : "https://i.scdn.co/image/ab67616d00001e02c8a476b4a0f309c6d0b642bc",
          "width" : 300
        }, {
          "height" : 64,
          "url" : "https://i.scdn.co/image/ab67616d00004851c8a476b4a0f309c6d0b642bc",
          "width" : 64
        } ],
        "name" : "The Hymn Project",
        "release_date" : "2014-11-16",
        "release_date_precision" : "day",
        "total_tracks" : 7,
        "type" : "album",
        "uri" : "spotify:album:4EqI55HVLT0Bgy6hB7BNNN"
      },
      "artists" : [ {
        "external_urls" : {
          "spotify" : "https://open.spotify.com/artist/0S96v5UXUohZd31g8plQLt"
        },
        "href" : "https://api.spotify.com/v1/artists/0S96v5UXUohZd31g8plQLt",
        "id" : "0S96v5UXUohZd31g8plQLt",
        "name" : "Chosen",
        "type" : "artist",
        "uri" : "spotify:artist:0S96v5UXUohZd31g8plQLt"
      } ],
      "disc_number" : 1,
      "duration_ms" : 276091,
      "explicit" : false,
      "external_ids" : {
        "isrc" : "USCH71400003"
      },
      "external_urls" : {
        "spotify" : "https://open.spotify.com/track/50sqhpobjTPueBFiFjT64A"
      },
      "href" : "https://api.spotify.com/v1/tracks/50sqhpobjTPueBFiFjT64A",
      "id" : "50sqhpobjTPueBFiFjT64A",
      "is_local" : false,
      "is_playable" : true,
      "name" : "Just When I Need Him Most",
      "popularity" : 0,
      "preview_url" : "https://p.scdn.co/mp3-preview/1232eb89a9e381d481d8644f442c62fec5783017?cid=774b29d4f13844c495f206cafdad9c86",
      "track_number" : 3,
      "type" : "track",
      "uri" : "spotify:track:50sqhpobjTPueBFiFjT64A"
    }, {
      "album" : {
        "album_type" : "album",
        "artists" : [ {
          "external_urls" : {
            "spotify" : "https://open.spotify.com/artist/2GhS1lHPUINViL8YLaJCTt"
          },
          "href" : "https://api.spotify.com/v1/artists/2GhS1lHPUINViL8YLaJCTt",
          "id" : "2GhS1lHPUINViL8YLaJCTt",
          "name" : "Joseph F. Robinson, Jr. and the Chosen Aggregation",
          "type" : "artist",
          "uri" : "spotify:artist:2GhS1lHPUINViL8YLaJCTt"
        } ],
        "external_urls" : {
          "spotify" : "https://open.spotify.com/album/5RuzGK22QolRerHQTWRKu8"
        },
        "href" : "https://api.spotify.com/v1/albums/5RuzGK22QolRerHQTWRKu8",
        "id" : "5RuzGK22QolRerHQTWRKu8",
        "images" : [ {
          "height" : 640,
          "url" : "https://i.scdn.co/image/ab67616d0000b273c860eb611dbcdd2bb0ae0f91",
          "width" : 640
        }, {
          "height" : 300,
          "url" : "https://i.scdn.co/image/ab67616d00001e02c860eb611dbcdd2bb0ae0f91",
          "width" : 300
        }, {
          "height" : 64,
          "url" : "https://i.scdn.co/image/ab67616d00004851c860eb611dbcdd2bb0ae0f91",
          "width" : 64
        } ],
        "name" : "Eyes Have Not Seen",
        "release_date" : "2010-08-18",
        "release_date_precision" : "day",
        "total_tracks" : 9,
        "type" : "album",
        "uri" : "spotify:album:5RuzGK22QolRerHQTWRKu8"
      },
      "artists" : [ {
        "external_urls" : {
          "spotify" : "https://open.spotify.com/artist/2GhS1lHPUINViL8YLaJCTt"
        },
        "href" : "https://api.spotify.com/v1/artists/2GhS1lHPUINViL8YLaJCTt",
        "id" : "2GhS1lHPUINViL8YLaJCTt",
        "name" : "Joseph F. Robinson, Jr. and the Chosen Aggregation",
        "type" : "artist",
        "uri" : "spotify:artist:2GhS1lHPUINViL8YLaJCTt"
      } ],
      "disc_number" : 1,
      "duration_ms" : 349400,
      "explicit" : false,
      "external_ids" : {
        "isrc" : "ushm81038538"
      },
      "external_urls" : {
        "spotify" : "https://open.spotify.com/track/1oONzkHZPP2CUAmUV1CUuR"
      },
      "href" : "https://api.spotify.com/v1/tracks/1oONzkHZPP2CUAmUV1CUuR",
      "id" : "1oONzkHZPP2CUAmUV1CUuR",
      "is_local" : false,
      "is_playable" : true,
      "name" : "Just When I Need Him Most",
      "popularity" : 0,
      "preview_url" : "https://p.scdn.co/mp3-preview/08c057f3eca76b92244e1e6759c869feaa7c4a19?cid=774b29d4f13844c495f206cafdad9c86",
      "track_number" : 4,
      "type" : "track",
      "uri" : "spotify:track:1oONzkHZPP2CUAmUV1CUuR"
    }, {
      "album" : {
        "album_type" : "album",
        "artists" : [ {
          "external_urls" : {
            "spotify" : "https://open.spotify.com/artist/4qjn7Gi0fdi8EIDbHhGxN3"
          },
          "href" : "https://api.spotify.com/v1/artists/4qjn7Gi0fdi8EIDbHhGxN3",
          "id" : "4qjn7Gi0fdi8EIDbHhGxN3",
          "name" : "Minister Oscar A. Hayes & ALF",
          "type" : "artist",
          "uri" : "spotify:artist:4qjn7Gi0fdi8EIDbHhGxN3"
        } ],
        "external_urls" : {
          "spotify" : "https://open.spotify.com/album/2COpcjMSQZuJQqZXuJeTCr"
        },
        "href" : "https://api.spotify.com/v1/albums/2COpcjMSQZuJQqZXuJeTCr",
        "id" : "2COpcjMSQZuJQqZXuJeTCr",
        "images" : [ {
          "height" : 640,
          "url" : "https://i.scdn.co/image/ab67616d0000b273c845c3094e313f61ad8c3fa9",
          "width" : 640
        }, {
          "height" : 300,
          "url" : "https://i.scdn.co/image/ab67616d00001e02c845c3094e313f61ad8c3fa9",
          "width" : 300
        }, {
          "height" : 64,
          "url" : "https://i.scdn.co/image/ab67616d00004851c845c3094e313f61ad8c3fa9",
          "width" : 64
        } ],
        "name" : "Got 2 Tell It",
        "release_date" : "1991-07-23",
        "release_date_precision" : "day",
        "total_tracks" : 8,
        "type" : "album",
        "uri" : "spotify:album:2COpcjMSQZuJQqZXuJeTCr"
      },
      "artists" : [ {
        "external_urls" : {
          "spotify" : "https://open.spotify.com/artist/4qjn7Gi0fdi8EIDbHhGxN3"
        },
        "href" : "https://api.spotify.com/v1/artists/4qjn7Gi0fdi8EIDbHhGxN3",
        "id" : "4qjn7Gi0fdi8EIDbHhGxN3",
        "name" : "Minister Oscar A. Hayes & ALF",
        "type" : "artist",
        "uri" : "spotify:artist:4qjn7Gi0fdi8EIDbHhGxN3"
      } ],
      "disc_number" : 1,
      "duration_ms" : 446066,
      "explicit" : false,
      "external_ids" : {
        "isrc" : "US4Z69102405"
      },
      "external_urls" : {
        "spotify" : "https://open.spotify.com/track/0YM4L34Rtqv3UP6PzePM5u"
      },
      "href" : "https://api.spotify.com/v1/tracks/0YM4L34Rtqv3UP6PzePM5u",
      "id" : "0YM4L34Rtqv3UP6PzePM5u",
      "is_local" : false,
      "is_playable" : true,
      "name" : "Just When I Need Him Most",
      "popularity" : 0,
      "preview_url" : "https://p.scdn.co/mp3-preview/8f4650811f5ca1c528706ebaaa616a409fd7813d?cid=774b29d4f13844c495f206cafdad9c86",
      "track_number" : 5,
      "type" : "track",
      "uri" : "spotify:track:0YM4L34Rtqv3UP6PzePM5u"
    }, {
      "album" : {
        "album_type" : "album",
        "artists" : [ {
          "external_urls" : {
            "spotify" : "https://open.spotify.com/artist/4yVPJ6xKaEUwpwoZdTCLI9"
          },
          "href" : "https://api.spotify.com/v1/artists/4yVPJ6xKaEUwpwoZdTCLI9",
          "id" : "4yVPJ6xKaEUwpwoZdTCLI9",
          "name" : "David Jump",
          "type" : "artist",
          "uri" : "spotify:artist:4yVPJ6xKaEUwpwoZdTCLI9"
        } ],
        "external_urls" : {
          "spotify" : "https://open.spotify.com/album/2UpUDgk9OMMMZkgi0Ew3uM"
        },
        "href" : "https://api.spotify.com/v1/albums/2UpUDgk9OMMMZkgi0Ew3uM",
        "id" : "2UpUDgk9OMMMZkgi0Ew3uM",
        "images" : [ {
          "height" : 640,
          "url" : "https://i.scdn.co/image/ab67616d0000b273799092120c8b9a616d3f78db",
          "width" : 640
        }, {
          "height" : 300,
          "url" : "https://i.scdn.co/image/ab67616d00001e02799092120c8b9a616d3f78db",
          "width" : 300
        }, {
          "height" : 64,
          "url" : "https://i.scdn.co/image/ab67616d00004851799092120c8b9a616d3f78db",
          "width" : 64
        } ],
        "name" : "Early Songs",
        "release_date" : "2018-10-13",
        "release_date_precision" : "day",
        "total_tracks" : 18,
        "type" : "album",
        "uri" : "spotify:album:2UpUDgk9OMMMZkgi0Ew3uM"
      },
      "artists" : [ {
        "external_urls" : {
          "spotify" : "https://open.spotify.com/artist/4yVPJ6xKaEUwpwoZdTCLI9"
        },
        "href" : "https://api.spotify.com/v1/artists/4yVPJ6xKaEUwpwoZdTCLI9",
        "id" : "4yVPJ6xKaEUwpwoZdTCLI9",
        "name" : "David Jump",
        "type" : "artist",
        "uri" : "spotify:artist:4yVPJ6xKaEUwpwoZdTCLI9"
      } ],
      "disc_number" : 1,
      "duration_ms" : 236191,
      "explicit" : false,
      "external_ids" : {
        "isrc" : "QZES51828339"
      },
      "external_urls" : {
        "spotify" : "https://open.spotify.com/track/5z2NXpDc5gblqseHLOscjm"
      },
      "href" : "https://api.spotify.com/v1/tracks/5z2NXpDc5gblqseHLOscjm",
      "id" : "5z2NXpDc5gblqseHLOscjm",
      "is_local" : false,
      "is_playable" : true,
      "name" : "Just When I Need Him Most",
      "popularity" : 0,
      "preview_url" : "https://p.scdn.co/mp3-preview/d2fcdcff9290f1c4bdd606d40e829a9a395ec7ac?cid=774b29d4f13844c495f206cafdad9c86",
      "track_number" : 12,
      "type" : "track",
      "uri" : "spotify:track:5z2NXpDc5gblqseHLOscjm"
    }, {
      "album" : {
        "album_type" : "album",
        "artists" : [ {
          "external_urls" : {
            "spotify" : "https://open.spotify.com/artist/4TYPJy5FnpAFqecLk536R9"
          },
          "href" : "https://api.spotify.com/v1/artists/4TYPJy5FnpAFqecLk536R9",
          "id" : "4TYPJy5FnpAFqecLk536R9",
          "name" : "Institutional Radio Choir",
          "type" : "artist",
          "uri" : "spotify:artist:4TYPJy5FnpAFqecLk536R9"
        } ],
        "external_urls" : {
          "spotify" : "https://open.spotify.com/album/7DjLTNl2JXIezcODZeAp2X"
        },
        "href" : "https://api.spotify.com/v1/albums/7DjLTNl2JXIezcODZeAp2X",
        "id" : "7DjLTNl2JXIezcODZeAp2X",
        "images" : [ {
          "height" : 640,
          "url" : "https://i.scdn.co/image/ab67616d0000b2735292ca5f10ee3740f4a0838b",
          "width" : 640
        }, {
          "height" : 300,
          "url" : "https://i.scdn.co/image/ab67616d00001e025292ca5f10ee3740f4a0838b",
          "width" : 300
        }, {
          "height" : 64,
          "url" : "https://i.scdn.co/image/ab67616d000048515292ca5f10ee3740f4a0838b",
          "width" : 64
        } ],
        "name" : "New Life, New Love",
        "release_date" : "1987-02-05",
        "release_date_precision" : "day",
        "total_tracks" : 8,
        "type" : "album",
        "uri" : "spotify:album:7DjLTNl2JXIezcODZeAp2X"
      },
      "artists" : [ {
        "external_urls" : {
          "spotify" : "https://open.spotify.com/artist/4TYPJy5FnpAFqecLk536R9"
        },
        "href" : "https://api.spotify.com/v1/artists/4TYPJy5FnpAFqecLk536R9",
        "id" : "4TYPJy5FnpAFqecLk536R9",
        "name" : "Institutional Radio Choir",
        "type" : "artist",
        "uri" : "spotify:artist:4TYPJy5FnpAFqecLk536R9"
      } ],
      "disc_number" : 1,
      "duration_ms" : 261706,
      "explicit" : false,
      "external_ids" : {
        "isrc" : "US1SR1917510"
      },
      "external_urls" : {
        "spotify" : "https://open.spotify.com/track/2HGNwUidwNWqXDo6JiXYK4"
      },
      "href" : "https://api.spotify.com/v1/tracks/2HGNwUidwNWqXDo6JiXYK4",
      "id" : "2HGNwUidwNWqXDo6JiXYK4",
      "is_local" : false,
      "is_playable" : true,
      "name" : "Just When I Need Him Most",
      "popularity" : 0,
      "preview_url" : "https://p.scdn.co/mp3-preview/56cb0a78dbf51aded219e431eebc55b5f0f3e533?cid=774b29d4f13844c495f206cafdad9c86",
      "track_number" : 6,
      "type" : "track",
      "uri" : "spotify:track:2HGNwUidwNWqXDo6JiXYK4"
    }, {
      "album" : {
        "album_type" : "album",
        "artists" : [ {
          "external_urls" : {
            "spotify" : "https://open.spotify.com/artist/3hhzOXDdqsBPAlfImIRE7p"
          },
          "href" : "https://api.spotify.com/v1/artists/3hhzOXDdqsBPAlfImIRE7p",
          "id" : "3hhzOXDdqsBPAlfImIRE7p",
          "name" : "8 Bit Music Zoe",
          "type" : "artist",
          "uri" : "spotify:artist:3hhzOXDdqsBPAlfImIRE7p"
        } ],
        "external_urls" : {
          "spotify" : "https://open.spotify.com/album/39qKVOwybGtPpkUrW6nVgO"
        },
        "href" : "https://api.spotify.com/v1/albums/39qKVOwybGtPpkUrW6nVgO",
        "id" : "39qKVOwybGtPpkUrW6nVgO",
        "images" : [ {
          "height" : 640,
          "url" : "https://i.scdn.co/image/ab67616d0000b273aa1082765741b168193c0d63",
          "width" : 640
        }, {
          "height" : 300,
          "url" : "https://i.scdn.co/image/ab67616d00001e02aa1082765741b168193c0d63",
          "width" : 300
        }, {
          "height" : 64,
          "url" : "https://i.scdn.co/image/ab67616d00004851aa1082765741b168193c0d63",
          "width" : 64
        } ],
        "name" : "Hymns, Vol. III",
        "release_date" : "2020-03-06",
        "release_date_precision" : "day",
        "total_tracks" : 21,
        "type" : "album",
        "uri" : "spotify:album:39qKVOwybGtPpkUrW6nVgO"
      },
      "artists" : [ {
        "external_urls" : {
          "spotify" : "https://open.spotify.com/artist/3hhzOXDdqsBPAlfImIRE7p"
        },
        "href" : "https://api.spotify.com/v1/artists/3hhzOXDdqsBPAlfImIRE7p",
        "id" : "3hhzOXDdqsBPAlfImIRE7p",
        "name" : "8 Bit Music Zoe",
        "type" : "artist",
        "uri" : "spotify:artist:3hhzOXDdqsBPAlfImIRE7p"
      } ],
      "disc_number" : 1,
      "duration_ms" : 170527,
      "explicit" : false,
      "external_ids" : {
        "isrc" : "QZFZ62036762"
      },
      "external_urls" : {
        "spotify" : "https://open.spotify.com/track/3OTbXmYjUkC7bke2YMPq3H"
      },
      "href" : "https://api.spotify.com/v1/tracks/3OTbXmYjUkC7bke2YMPq3H",
      "id" : "3OTbXmYjUkC7bke2YMPq3H",
      "is_local" : false,
      "is_playable" : true,
      "name" : "Just When I Need Him Most",
      "popularity" : 2,
      "preview_url" : "https://p.scdn.co/mp3-preview/5c6bf0a1a120c06c3046919d798410a75590c221?cid=774b29d4f13844c495f206cafdad9c86",
      "track_number" : 19,
      "type" : "track",
      "uri" : "spotify:track:3OTbXmYjUkC7bke2YMPq3H"
    }, {
      "album" : {
        "album_type" : "album",
        "artists" : [ {
          "external_urls" : {
            "spotify" : "https://open.spotify.com/artist/3R4qbTrrhQaUUScS0IX13Q"
          },
          "href" : "https://api.spotify.com/v1/artists/3R4qbTrrhQaUUScS0IX13Q",
          "id" : "3R4qbTrrhQaUUScS0IX13Q",
          "name" : "Dave Ogden",
          "type" : "artist",
          "uri" : "spotify:artist:3R4qbTrrhQaUUScS0IX13Q"
        } ],
        "external_urls" : {
          "spotify" : "https://open.spotify.com/album/6Ir1lK3O60xx7eZDiHTqde"
        },
        "href" : "https://api.spotify.com/v1/albums/6Ir1lK3O60xx7eZDiHTqde",
        "id" : "6Ir1lK3O60xx7eZDiHTqde",
        "images" : [ {
          "height" : 640,
          "url" : "https://i.scdn.co/image/ab67616d0000b273b3c251263865bb08e71e1cfd",
          "width" : 640
        }, {
          "height" : 300,
          "url" : "https://i.scdn.co/image/ab67616d00001e02b3c251263865bb08e71e1cfd",
          "width" : 300
        }, {
          "height" : 64,
          "url" : "https://i.scdn.co/image/ab67616d00004851b3c251263865bb08e71e1cfd",
          "width" : 64
        } ],
        "name" : "Last Flight",
        "release_date" : "1981-12-23",
        "release_date_precision" : "day",
        "total_tracks" : 11,
        "type" : "album",
        "uri" : "spotify:album:6Ir1lK3O60xx7eZDiHTqde"
      },
      "artists" : [ {
        "external_urls" : {
          "spotify" : "https://open.spotify.com/artist/3R4qbTrrhQaUUScS0IX13Q"
        },
        "href" : "https://api.spotify.com/v1/artists/3R4qbTrrhQaUUScS0IX13Q",
        "id" : "3R4qbTrrhQaUUScS0IX13Q",
        "name" : "Dave Ogden",
        "type" : "artist",
        "uri" : "spotify:artist:3R4qbTrrhQaUUScS0IX13Q"
      } ],
      "disc_number" : 1,
      "duration_ms" : 212586,
      "explicit" : false,
      "external_ids" : {
        "isrc" : "QZK6N1986992"
      },
      "external_urls" : {
        "spotify" : "https://open.spotify.com/track/1ybMPQWXSu4KoChjdyI6Mb"
      },
      "href" : "https://api.spotify.com/v1/tracks/1ybMPQWXSu4KoChjdyI6Mb",
      "id" : "1ybMPQWXSu4KoChjdyI6Mb",
      "is_local" : false,
      "is_playable" : true,
      "name" : "Just When I Needed Him Most",
      "popularity" : 0,
      "preview_url" : "https://p.scdn.co/mp3-preview/0da873d4c918cda776111a1547ffad8b5e0fe5df?cid=774b29d4f13844c495f206cafdad9c86",
      "track_number" : 1,
      "type" : "track",
      "uri" : "spotify:track:1ybMPQWXSu4KoChjdyI6Mb"
    }, {
      "album" : {
        "album_type" : "album",
        "artists" : [ {
          "external_urls" : {
            "spotify" : "https://open.spotify.com/artist/0ai5MF9g2NuBjs6yPzAs0K"
          },
          "href" : "https://api.spotify.com/v1/artists/0ai5MF9g2NuBjs6yPzAs0K",
          "id" : "0ai5MF9g2NuBjs6yPzAs0K",
          "name" : "The Gospel Holytones",
          "type" : "artist",
          "uri" : "spotify:artist:0ai5MF9g2NuBjs6yPzAs0K"
        } ],
        "external_urls" : {
          "spotify" : "https://open.spotify.com/album/1ZW857nc9bTeGaGVHWTLWk"
        },
        "href" : "https://api.spotify.com/v1/albums/1ZW857nc9bTeGaGVHWTLWk",
        "id" : "1ZW857nc9bTeGaGVHWTLWk",
        "images" : [ {
          "height" : 640,
          "url" : "https://i.scdn.co/image/ab67616d0000b273e145c808e376fb70220002a9",
          "width" : 640
        }, {
          "height" : 300,
          "url" : "https://i.scdn.co/image/ab67616d00001e02e145c808e376fb70220002a9",
          "width" : 300
        }, {
          "height" : 64,
          "url" : "https://i.scdn.co/image/ab67616d00004851e145c808e376fb70220002a9",
          "width" : 64
        } ],
        "name" : "He's Got My Back!",
        "release_date" : "2006-05-31",
        "release_date_precision" : "day",
        "total_tracks" : 10,
        "type" : "album",
        "uri" : "spotify:album:1ZW857nc9bTeGaGVHWTLWk"
      },
      "artists" : [ {
        "external_urls" : {
          "spotify" : "https://open.spotify.com/artist/0ai5MF9g2NuBjs6yPzAs0K"
        },
        "href" : "https://api.spotify.com/v1/artists/0ai5MF9g2NuBjs6yPzAs0K",
        "id" : "0ai5MF9g2NuBjs6yPzAs0K",
        "name" : "The Gospel Holytones",
        "type" : "artist",
        "uri" : "spotify:artist:0ai5MF9g2NuBjs6yPzAs0K"
      } ],
      "disc_number" : 1,
      "duration_ms" : 459200,
      "explicit" : false,
      "external_ids" : {
        "isrc" : "uscgj0676018"
      },
      "external_urls" : {
        "spotify" : "https://open.spotify.com/track/2PsXaf2dwa7zwtGTgYAKBx"
      },
      "href" : "https://api.spotify.com/v1/tracks/2PsXaf2dwa7zwtGTgYAKBx",
      "id" : "2PsXaf2dwa7zwtGTgYAKBx",
      "is_local" : false,
      "is_playable" : true,
      "name" : "Just When I Need Him Most",
      "popularity" : 0,
      "preview_url" : "https://p.scdn.co/mp3-preview/74c494f1723437aff8e48880374cf94d709c547c?cid=774b29d4f13844c495f206cafdad9c86",
      "track_number" : 2,
      "type" : "track",
      "uri" : "spotify:track:2PsXaf2dwa7zwtGTgYAKBx"
    } ],
    "limit" : 10,
    "next" : "https://api.spotify.com/v1/search?query=Just+When+I+Need+Him+Most&type=track&market=US&offset=15&limit=10",
    "offset" : 5,
    "previous" : "https://api.spotify.com/v1/search?query=Just+When+I+Need+Him+Most&type=track&market=US&offset=0&limit=10",
    "total" : 38
  }
}