{
  "tracks" : {
    "href" : "https://api.spotify.com/v1/search?query=As+Water+to+the+Thirsty&type=track&market=US&offset=5&limit=10",
    "items" : [ {
      "album" : {
        "album_type" : "album",
        "artists" : [ {
          "external_urls" : {
            "spotify" : "https://open.spotify.com/artist/25G5O7lNs9L9dGHM7Ymyzc"
          },
          "href" : "https://api.spotify.com/v1/artists/25G5O7lNs9L9dGHM7Ymyzc",
          "id" : "25G5O7lNs9L9dGHM7Ymyzc",
          "name" : "David Haas",
          "type" : "artist",
          "uri" : "spotify:artist:25G5O7lNs9L9dGHM7Ymyzc"
        } ],
        "external_urls" : {
          "spotify" : "https://open.spotify.com/album/4HDgFfqXCiOtIZXCO3wv3p"
        },
        "href" : "https://api.spotify.com/v1/albums/4HDgFfqXCiOtIZXCO3wv3p",
        "id" : "4HDgFfqXCiOtIZXCO3wv3p",
        "images" : [ {
          "height" : 640,
          "url" : "https://i.scdn.co/image/ab67616d0000b27339c50f3d54b54b41fdd4e526",
          "width" : 640
        }, {
          "height" : 300,
          "url" : "https://i.scdn.co/image/ab67616d00001e0239c50f3d54b54b41fdd4e526",
          "width" : 300
        }, {
          "height" : 64,
          "url" : "https://i.scdn.co/image/ab67616d0000485139c50f3d54b54b41fdd4e526",
          "width" : 64
        } ],
        "name" : "As Water to the Thirsty",
        "release_date" : "1987-01-01",
        "release_date_precision" : "day",
        "total_tracks" : 13,
        "type" : "album",
        "uri" : "spotify:album:4HDgFfqXCiOtIZXCO3wv3p"
      },
      "artists" : [ {
        "external_urls" : {
          "spotify" : "https://open.spotify.com/artist/25G5O7lNs9L9dGHM7Ymyzc"
        },
        "href" : "https://api.spotify.com/v1/artists/25G5O7lNs9L9dGHM7Ymyzc",
        "id" : "25G5O7lNs9L9dGHM7Ymyzc",
        "name" : "David Haas",
        "type" : "artist",
        "uri" : "spotify:artist:25G5O7lNs9L9dGHM7Ymyzc"
      } ],
      "disc_number" : 1,
      "duration_ms" : 209133,
      "explicit" : false,
      "external_ids" : {
        "isrc" : "US7858710004"
      },
      "external_urls" : {
        "spotify" : "https://open.spotify.com/track/77tFhORaqJs10RPeuEzh47"
      },
      "href" : "https://api.spotify.com/v1/tracks/77tFhORaqJs10RPeuEzh47",
      "id" : "77tFhORaqJs10RPeuEzh47",
      "is_local" : false,
      "is_playable" : true,
      "name" : "Glory to God",
      "popularity" : 4,
      "preview_url" : "https://p.scdn.co/mp3-preview/11ef7def95fd460dfdfd5e03c97070d850acfc22?cid=774b29d4f13844c495f206cafdad9c86",
      "track_number" : 4,
      "type" : "track",
      "uri" : "spotify:track:77tFhORaqJs10RPeuEzh47"
    }, {
      "album" : {
        "album_type" : "album",
        "artists" : [ {
          "external_urls" : {
            "spotify" : "https://open.spotify.com/artist/25G5O7lNs9L9dGHM7Ymyzc"
          },
          "href" : "https://api.spotify.com/v1/artists/25G5O7lNs9L9dGHM7Ymyzc",
          "id" : "25G5O7lNs9L9dGHM7Ymyzc",
          "name" : "David Haas",
          "type" : "artist",
          "uri" : "spotify:artist:25G5O7lNs9L9dGHM7Ymyzc"
        } ],
        "external_urls" : {
          "spotify" : "https://open.spotify.com/album/714sj2e7GUWsH9xseWAxDt"
        },
        "href" : "https://api.spotify.com/v1/albums/714sj2e7GUWsH9xseWAxDt",
        "id" : "714sj2e7GUWsH9xseWAxDt",
        "images" : [ {
          "height" : 640,
          "url" : "https://i.scdn.co/image/ab67616d0000b2739b53b93ba53ebf59dc1a5e51",
          "width" : 640
        }, {
          "height" : 300,
          "url" : "https://i.scdn.co/image/ab67616d00001e029b53b93ba53ebf59dc1a5e51",
          "width" : 300
        }, {
          "height" : 64,
          "url" : "https://i.scdn.co/image/ab67616d000048519b53b93ba53ebf59dc1a5e51",
          "width" : 64
        } ],
        "name" : "Glory Day (Live)",
        "release_date" : "1996-01-01",
        "release_date_precision" : "day",
        "total_tracks" : 24,
        "type" : "album",
        "uri" : "spotify:album:714sj2e7GUWsH9xseWAxDt"
      },
      "artists" : [ {
        "external_urls" : {
          "spotify" : "https://open.spotify.com/artist/25G5O7lNs9L9dGHM7Ymyzc"
        },
        "href" : "https://api.spotify.com/v1/artists/25G5O7lNs9L9dGHM7Ymyzc",
        "id" : "25G5O7lNs9L9dGHM7Ymyzc",
        "name" : "David Haas",
        "type" : "artist",
        "uri" : "spotify:artist:25G5O7lNs9L9dGHM7Ymyzc"
      } ],
      "disc_number" : 1,
      "duration_ms" : 213093,
      "explicit" : false,
      "external_ids" : {
        "isrc" : "US7851010940"
      },
      "external_urls" : {
        "spotify" : "https://open.spotify.com/track/3QzAi94uXnYg0hdvE0dYOh"
      },
      "href" : "https://api.spotify.com/v1/tracks/3QzAi94uXnYg0hdvE0dYOh",
      "id" : "3QzAi94uXnYg0hdvE0dYOh",
      "is_local" : false,
      "is_playable" : true,
      "name" : "As Water to the Thirsty",
      "popularity" : 2,
      "preview_url" : "https://p.scdn.co/mp3-preview/78225f420cc70d093b79180eb59fb113482727ff?cid=774b29d4f13844c495f206cafdad9c86",
      "track_number" : 9,
      "type" : "track",
      "uri" : "spotify:track:3QzAi94uXnYg0hdvE0dYOh"
    }, {
      "album" : {
        "album_type" : "album",
        "artists" : [ {
          "external_urls" : {
            "spotify" : "https://open.spotify.com/artist/25G5O7lNs9L9dGHM7Ymyzc"
          },
          "href" : "https://api.spotify.com/v1/artists/25G5O7lNs9L9dGHM7Ymyzc",
          "id" : "25G5O7lNs9L9dGHM7Ymyzc",
          "name" : "David Haas",
          "type" : "artist",
          "uri" : "spotify:artist:25G5O7lNs9L9dGHM7Ymyzc"
        } ],
        "external_urls" : {
          "spotify" : "https://open.spotify.com/album/4HDgFfqXCiOtIZXCO3wv3p"
        },
        "href" : "https://api.spotify.com/v1/albums/4HDgFfqXCiOtIZXCO3wv3p",
        "id" : "4HDgFfqXCiOtIZXCO3wv3p",
        "images" : [ {
          "height" : 640,
          "url" : "https://i.scdn.co/image/ab67616d0000b27339c50f3d54b54b41fdd4e526",
          "width" : 640
        }, {
          "height" : 300,
          "url" : "https://i.scdn.co/image/ab67616d00001e0239c50f3d54b54b41fdd4e526",
          "width" : 300
        }, {
          "height" : 64,
          "url" : "https://i.scdn.co/image/ab67616d0000485139c50f3d54b54b41fdd4e526",
          "width" : 64
        } ],
        "name" : "As Water to the Thirsty",
        "release_date" : "1987-01-01",
        "release_date_precision" : "day",
        "total_tracks" : 13,
        "type" : "album",
        "uri" : "spotify:album:4HDgFfqXCiOtIZXCO3wv3p"
      },
      "artists" : [ {
        "external_urls" : {
          "spotify" : "https://open.spotify.com/artist/25G5O7lNs9L9dGHM7Ymyzc"
        },
        "href" : "https://api.spotify.com/v1/artists/25G5O7lNs9L9dGHM7Ymyzc",
        "id" : "25G5O7lNs9L9dGHM7Ymyzc",
        "name" : "David Haas",
        "type" : "artist",
        "uri" : "spotify:artist:25G5O7lNs9L9dGHM7Ymyzc"
      } ],
      "disc_number" : 1,
      "duration_ms" : 213760,
      "explicit" : false,
      "external_ids" : {
        "isrc" : "US7858710008"
      },
      "external_urls" : {
        "spotify" : "https://open.spotify.com/track/3fvCDc0zoLG7CUeLjupoUV"
      },
      "href" : "https://api.spotify.com/v1/tracks/3fvCDc0zoLG7CUeLjupoUV",
      "id" : "3fvCDc0zoLG7CUeLjupoUV",
      "is_local" : false,
      "is_playable" : true,
      "name" : "As Water to the Thirsty",
      "popularity" : 3,
      "preview_url" : "https://p.scdn.co/mp3-preview/a1726e4a100ba1ed9a0c6429784591c28ce6e61d?cid=774b29d4f13844c495f206cafdad9c86",
      "track_number" : 8,
      "type" : "track",
      "uri" : "spotify:track:3fvCDc0zoLG7CUeLjupoUV"
    }, {
      "album" : {
        "album_type" : "album",
        "artists" : [ {
          "external_urls" : {
            "spotify" : "https://open.spotify.com/artist/54mY758L4Ul5MEjaGght62"
          },
          "href" : "https://api.spotify.com/v1/artists/54mY758L4Ul5MEjaGght62",
          "id" : "54mY758L4Ul5MEjaGght62",
          "name" : "Lydia Ruffin",
          "type" : "artist",
          "uri" : "spotify:artist:54mY758L4Ul5MEjaGght62"
        } ],
        "external_urls" : {
          "spotify" : "https://open.spotify.com/album/0C6COINxFPNjXSuaDQNHYj"
        },
        "href" : "https://api.spotify.com/v1/albums/0C6COINxFPNjXSuaDQNHYj",
        "id" : "0C6COINxFPNjXSuaDQNHYj",
        "images" : [ {
          "height" : 640,
          "url" : "https://i.scdn.co/image/ab67616d0000b273ba0f429e7b6e7fc4474dc03b",
          "width" : 640
        }, {
          "height" : 300,
          "url" : "https://i.scdn.co/image/ab67616d00001e02ba0f429e7b6e7fc4474dc03b",
          "width" : 300
        }, {
          "height" : 64,
          "url" : "https://i.scdn.co/image/ab67616d00004851ba0f429e7b6e7fc4474dc03b",
          "width" : 64
        } ],
        "name" : "The Feast of Life",
        "release_date" : "2009-10-03",
        "release_date_precision" : "day",
        "total_tracks" : 11,
        "type" : "album",
        "uri" : "spotify:album:0C6COINxFPNjXSuaDQNHYj"
      },
      "artists" : [ {
        "external_urls" : {
          "spotify" : "https://open.spotify.com/artist/54mY758L4Ul5MEjaGght62"
        },
        "href" : "https://api.spotify.com/v1/artists/54mY758L4Ul5MEjaGght62",
        "id" : "54mY758L4Ul5MEjaGght62",
        "name" : "Lydia Ruffin",
        "type" : "artist",
        "uri" : "spotify:artist:54mY758L4Ul5MEjaGght62"
      } ],
      "disc_number" : 1,
      "duration_ms" : 252373,
      "explicit" : false,
      "external_ids" : {
        "isrc" : "ushm90960973"
      },
      "external_urls" : {
        "spotify" : "https://open.spotify.com/track/3qBLVynIRMWxjRo2dizqc8"
      },
      "href" : "https://api.spotify.com/v1/tracks/3qBLVynIRMWxjRo2dizqc8",
      "id" : "3qBLVynIRMWxjRo2dizqc8",
      "is_local" : false,
      "is_playable" : true,
      "name" : "As Water to the Thirsty",
      "popularity" : 0,
      "preview_url" : "https://p.scdn.co/mp3-preview/9d2f0a48845541ed2212a3d89b78282f10913b98?cid=774b29d4f13844c495f206cafdad9c86",
      "track_number" : 3,
      "type" : "track",
      "uri" : "spotify:track:3qBLVynIRMWxjRo2dizqc8"
    }, {
      "album" : {
        "album_type" : "album",
        "artists" : [ {
          "external_urls" : {
            "spotify" : "https://open.spotify.com/artist/25G5O7lNs9L9dGHM7Ymyzc"
          },
          "href" : "https://api.spotify.com/v1/artists/25G5O7lNs9L9dGHM7Ymyzc",
          "id" : "25G5O7lNs9L9dGHM7Ymyzc",
          "name" : "David Haas",
          "type" : "artist",
          "uri" : "spotify:artist:25G5O7lNs9L9dGHM7Ymyzc"
        } ],
        "external_urls" : {
          "spotify" : "https://open.spotify.com/album/6YOp2MGHiXxc8mGUxn2aea"
        },
        "href" : "https://api.spotify.com/v1/albums/6YOp2MGHiXxc8mGUxn2aea",
        "id" : "6YOp2MGHiXxc8mGUxn2aea",
        "images" : [ {
          "height" : 640,
          "url" : "https://i.scdn.co/image/ab67616d0000b273ed4905d3c513f1ddb166c45c",
          "width" : 640
        }, {
          "height" : 300,
          "url" : "https://i.scdn.co/image/ab67616d00001e02ed4905d3c513f1ddb166c45c",
          "width" : 300
        }, {
          "height" : 64,
          "url" : "https://i.scdn.co/image/ab67616d00004851ed4905d3c513f1ddb166c45c",
          "width" : 64
        } ],
        "name" : "I Will Bring You Home: Songs of Prayer, Stories of Faith",
        "release_date" : "2018-06-15",
        "release_date_precision" : "day",
        "total_tracks" : 17,
        "type" : "album",
        "uri" : "spotify:album:6YOp2MGHiXxc8mGUxn2aea"
      },
      "artists" : [ {
        "external_urls" : {
          "spotify" : "https://open.spotify.com/artist/25G5O7lNs9L9dGHM7Ymyzc"
        },
        "href" : "https://api.spotify.com/v1/artists/25G5O7lNs9L9dGHM7Ymyzc",
        "id" : "25G5O7lNs9L9dGHM7Ymyzc",
        "name" : "David Haas",
        "type" : "artist",
        "uri" : "spotify:artist:25G5O7lNs9L9dGHM7Ymyzc"
      } ],
      "disc_number" : 1,
      "duration_ms" : 201866,
      "explicit" : false,
      "external_ids" : {
        "isrc" : "US7851800051"
      },
      "external_urls" : {
        "spotify" : "https://open.spotify.com/track/2ouNw5BNBeieh6xcgu136H"
      },
      "href" : "https://api.spotify.com/v1/tracks/2ouNw5BNBeieh6xcgu136H",
      "id" : "2ouNw5BNBeieh6xcgu136H",
      "is_local" : false,
      "is_playable" : true,
      "name" : "As Water to the Thirsty",
      "popularity" : 1,
      "preview_url" : "https://p.scdn.co/mp3-preview/50bf6ff6343c127681c9ef560e3ee48a4f18396d?cid=774b29d4f13844c495f206cafdad9c86",
      "track_number" : 11,
      "type" : "track",
      "uri" : "spotify:track:2ouNw5BNBeieh6xcgu136H"
    }, {
      "album" : {
        "album_type" : "compilation",
        "artists" : [ {
          "external_urls" : {
            "spotify" : "https://open.spotify.com/artist/0LyfQWJT6nXafLPZqxe9Of"
          },
          "href" : "https://api.spotify.com/v1/artists/0LyfQWJT6nXafLPZqxe9Of",
          "id" : "0LyfQWJT6nXafLPZqxe9Of",
          "name" : "Various Artists",
          "type" : "artist",
          "uri" : "spotify:artist:0LyfQWJT6nXafLPZqxe9Of"
        } ],
        "external_urls" : {
          "spotify" : "https://open.spotify.com/album/2tiENwB0DuQL5OPwkGPrux"
        },
        "href" : "https://api.spotify.com/v1/albums/2tiENwB0DuQL5OPwkGPrux",
        "id" : "2tiENwB0DuQL5OPwkGPrux",
        "images" : [ {
          "height" : 640,
          "url" : "https://i.scdn.co/image/ab67616d0000b273872d31e33971df65d833756b",
          "width" : 640
        }, {
          "height" : 300,
          "url" : "https://i.scdn.co/image/ab67616d00001e02872d31e33971df65d833756b",
          "width" : 300
        }, {
          "height" : 64,
          "url" : "https://i.scdn.co/image/ab67616d00004851872d31e33971df65d833756b",
          "width" : 64
        } ],
        "name" : "Monuments Of Faith - Amazing Grace",
        "release_date" : "2009-06-01",
        "release_date_precision" : "day",
        "total_tracks" : 12,
        "type" : "album",
        "uri" : "spotify:album:2tiENwB0DuQL5OPwkGPrux"
      },
      "artists" : [ {
        "external_urls" : {
          "spotify" : "https://open.spotify.com/artist/2Ujuk3TkEG0BKYjELQdjoX"
        },
        "href" : "https://api.spotify.com/v1/artists/2Ujuk3TkEG0BKYjELQdjoX",
        "id" : "2Ujuk3TkEG0BKYjELQdjoX",
        "name" : "All Souls Choir",
        "type" : "artist",
        "uri" : "spotify:artist:2Ujuk3TkEG0BKYjELQdjoX"
      } ],
      "disc_number" : 1,
      "duration_ms" : 187431,
      "explicit" : false,
      "external_ids" : {
        "isrc" : "GBBTM0996309"
      },
      "external_urls" : {
        "spotify" : "https://open.spotify.com/track/7mxYtVw7SxFBz1OS2m3Aid"
      },
      "href" : "https://api.spotify.com/v1/tracks/7mxYtVw7SxFBz1OS2m3Aid",
      "id" : "7mxYtVw7SxFBz1OS2m3Aid",
      "is_local" : false,
      "is_playable" : true,
      "name" : "As Water To The Thirsty",
      "popularity" : 2,
      "preview_url" : "https://p.scdn.co/mp3-preview/b8f90e29bf29006f42c2d90df870b5605bb76492?cid=774b29d4f13844c495f206cafdad9c86",
      "track_number" : 9,
      "type" : "track",
      "uri" : "spotify:track:7mxYtVw7SxFBz1OS2m3Aid"
    }, {
      "album" : {
        "album_type" : "album",
        "artists" : [ {
          "external_urls" : {
            "spotify" : "https://open.spotify.com/artist/3iNgz4ANUmZyUD3i2iztEc"
          },
          "href" : "https://api.spotify.com/v1/artists/3iNgz4ANUmZyUD3i2iztEc",
          "id" : "3iNgz4ANUmZyUD3i2iztEc",
          "name" : "Roger Jones & Timothy Dudley-Smith",
          "type" : "artist",
          "uri" : "spotify:artist:3iNgz4ANUmZyUD3i2iztEc"
        } ],
        "external_urls" : {
          "spotify" : "https://open.spotify.com/album/6kXfiikHYblyczoAPka4DO"
        },
        "href" : "https://api.spotify.com/v1/albums/6kXfiikHYblyczoAPka4DO",
        "id" : "6kXfiikHYblyczoAPka4DO",
        "images" : [ {
          "height" : 640,
          "url" : "https://i.scdn.co/image/ab67616d0000b273ab049ad535d8ab233818b8cd",
          "width" : 640
        }, {
          "height" : 300,
          "url" : "https://i.scdn.co/image/ab67616d00001e02ab049ad535d8ab233818b8cd",
          "width" : 300
        }, {
          "height" : 64,
          "url" : "https://i.scdn.co/image/ab67616d00004851ab049ad535d8ab233818b8cd",
          "width" : 64
        } ],
        "name" : "Seasons and Reasons",
        "release_date" : "2011-11-14",
        "release_date_precision" : "day",
        "total_tracks" : 32,
        "type" : "album",
        "uri" : "spotify:album:6kXfiikHYblyczoAPka4DO"
      },
      "artists" : [ {
        "external_urls" : {
          "spotify" : "https://open.spotify.com/artist/3iNgz4ANUmZyUD3i2iztEc"
        },
        "href" : "https://api.spotify.com/v1/artists/3iNgz4ANUmZyUD3i2iztEc",
        "id" : "3iNgz4ANUmZyUD3i2iztEc",
        "name" : "Roger Jones & Timothy Dudley-Smith",
        "type" : "artist",
        "uri" : "spotify:artist:3iNgz4ANUmZyUD3i2iztEc"
      } ],
      "disc_number" : 1,
      "duration_ms" : 137600,
      "explicit" : false,
      "external_ids" : {
        "isrc" : "ushm91172505"
      },
      "external_urls" : {
        "spotify" : "https://open.spotify.com/track/5b7Bpea3yZirHvcQfwIlZT"
      },
      "href" : "https://api.spotify.com/v1/tracks/5b7Bpea3yZirHvcQfwIlZT",
      "id" : "5b7Bpea3yZirHvcQfwIlZT",
      "is_local" : false,
      "is_playable" : true,
      "name" : "As water to the thirsty",
      "popularity" : 0,
      "preview_url" : "https://p.scdn.co/mp3-preview/f59f26fc00b94116d2b0409f2a42ccb7e910b399?cid=774b29d4f13844c495f206cafdad9c86",
      "track_number" : 2,
      "type" : "track",
      "uri" : "spotify:track:5b7Bpea3yZirHvcQfwIlZT"
    }, {
      "album" : {
        "album_type" : "album",
        "artists" : [ {
          "external_urls" : {
            "spotify" : "https://open.spotify.com/artist/3O6HwLv9LHMzqAGfTllP6T"
          },
          "href" : "https://api.spotify.com/v1/artists/3O6HwLv9LHMzqAGfTllP6T",
          "id" : "3O6HwLv9LHMzqAGfTllP6T",
          "name" : "Michael Vaughan",
          "type" : "artist",
          "uri" : "spotify:artist:3O6HwLv9LHMzqAGfTllP6T"
        } ],
        "external_urls" : {
          "spotify" : "https://open.spotify.com/album/0xjTB539Xnr39C3hSxbDvM"
        },
        "href" : "https://api.spotify.com/v1/albums/0xjTB539Xnr39C3hSxbDvM",
        "id" : "0xjTB539Xnr39C3hSxbDvM",
        "images" : [ {
          "height" : 640,
          "url" : "https://i.scdn.co/image/ab67616d0000b2738bba40f5c99981f36987344f",
          "width" : 640
        }, {
          "height" : 300,
          "url" : "https://i.scdn.co/image/ab67616d00001e028bba40f5c99981f36987344f",
          "width" : 300
        }, {
          "height" : 64,
          "url" : "https://i.scdn.co/image/ab67616d000048518bba40f5c99981f36987344f",
          "width" : 64
        } ],
        "name" : "Songs of Comfort",
        "release_date" : "1999-10-19",
        "release_date_precision" : "day",
        "total_tracks" : 15,
        "type" : "album",
        "uri" : "spotify:album:0xjTB539Xnr39C3hSxbDvM"
      },
      "artists" : [ {
        "external_urls" : {
          "spotify" : "https://open.spotify.com/artist/3O6HwLv9LHMzqAGfTllP6T"
        },
        "href" : "https://api.spotify.com/v1/artists/3O6HwLv9LHMzqAGfTllP6T",
        "id" : "3O6HwLv9LHMzqAGfTllP6T",
        "name" : "Michael Vaughan",
        "type" : "artist",
        "uri" : "spotify:artist:3O6HwLv9LHMzqAGfTllP6T"
      } ],
      "disc_number" : 1,
      "duration_ms" : 220160,
      "explicit" : false,
      "external_ids" : {
        "isrc" : "USA370328060"
      },
      "external_urls" : {
        "spotify" : "https://open.spotify.com/track/7qNMQBF3fuN4D0AfdByDHF"
      },
      "href" : "https://api.spotify.com/v1/tracks/7qNMQBF3fuN4D0AfdByDHF",
      "id" : "7qNMQBF3fuN4D0AfdByDHF",
      "is_local" : false,
      "is_playable" : true,
      "name" : "As Water To The Thirsty",
      "popularity" : 0,
      "preview_url" : "https://p.scdn.co/mp3-preview/51268baa53a6bb3b00b265f314658ca94cf2d8f4?cid=774b29d4f13844c495f206cafdad9c86",
      "track_number" : 2,
      "type" : "track",
      "uri" : "spotify:track:7qNMQBF3fuN4D0AfdByDHF"
    }, {
      "album" : {
        "album_type" : "album",
        "artists" : [ {
          "external_urls" : {
            "spotify" : "https://open.spotify.com/artist/0XZpnJDqkM2AsOmfIJZkii"
          },
          "href" : "https://api.spotify.com/v1/artists/0XZpnJDqkM2AsOmfIJZkii",
          "id" : "0XZpnJDqkM2AsOmfIJZkii",
          "name" : "The Orchestra Choir and Congregation of All Souls Church",
          "type" : "artist",
          "uri" : "spotify:artist:0XZpnJDqkM2AsOmfIJZkii"
        } ],
        "external_urls" : {
          "spotify" : "https://open.spotify.com/album/29HR6MkFRC9SFHksH0j6u4"
        },
        "href" : "https://api.spotify.com/v1/albums/29HR6MkFRC9SFHksH0j6u4",
        "id" : "29HR6MkFRC9SFHksH0j6u4",
        "images" : [ {
          "height" : 640,
          "url" : "https://i.scdn.co/image/ab67616d0000b2734b57cd677bfe57c308e17e51",
          "width" : 640
        }, {
          "height" : 300,
          "url" : "https://i.scdn.co/image/ab67616d00001e024b57cd677bfe57c308e17e51",
          "width" : 300
        }, {
          "height" : 64,
          "url" : "https://i.scdn.co/image/ab67616d000048514b57cd677bfe57c308e17e51",
          "width" : 64
        } ],
        "name" : "The Hymn Makers: Timothy Dudley-Smith (Tell Out, My Soul)",
        "release_date" : "1996",
        "release_date_precision" : "year",
        "total_tracks" : 14,
        "type" : "album",
        "uri" : "spotify:album:29HR6MkFRC9SFHksH0j6u4"
      },
      "artists" : [ {
        "external_urls" : {
          "spotify" : "https://open.spotify.com/artist/0XZpnJDqkM2AsOmfIJZkii"
        },
        "href" : "https://api.spotify.com/v1/artists/0XZpnJDqkM2AsOmfIJZkii",
        "id" : "0XZpnJDqkM2AsOmfIJZkii",
        "name" : "The Orchestra Choir and Congregation of All Souls Church",
        "type" : "artist",
        "uri" : "spotify:artist:0XZpnJDqkM2AsOmfIJZkii"
      } ],
      "disc_number" : 1,
      "duration_ms" : 188733,
      "explicit" : false,
      "external_ids" : {
        "isrc" : "GBBTM9693603"
      },
      "external_urls" : {
        "spotify" : "https://open.spotify.com/track/4SvNqdvJN3mUq6xFRY2OoL"
      },
      "href" : "https://api.spotify.com/v1/tracks/4SvNqdvJN3mUq6xFRY2OoL",
      "id" : "4SvNqdvJN3mUq6xFRY2OoL",
      "is_local" : false,
      "is_playable" : true,
      "name" : "As Water To The Thirsty",
      "popularity" : 2,
      "preview_url" : "https://p.scdn.co/mp3-preview/0e88683cacfb85c510cf0aa4e3616a45ceadd11c?cid=774b29d4f13844c495f206cafdad9c86",
      "track_number" : 3,
      "type" : "track",
      "uri" : "spotify:track:4SvNqdvJN3mUq6xFRY2OoL"
    }, {
      "album" : {
        "album_type" : "album",
        "artists" : [ {
          "external_urls" : {
            "spotify" : "https://open.spotify.com/artist/25G5O7lNs9L9dGHM7Ymyzc"
          },
          "href" : "https://api.spotify.com/v1/artists/25G5O7lNs9L9dGHM7Ymyzc",
          "id" : "25G5O7lNs9L9dGHM7Ymyzc",
          "name" : "David Haas",
          "type" : "artist",
          "uri" : "spotify:artist:25G5O7lNs9L9dGHM7Ymyzc"
        }, {
          "external_urls" : {
            "spotify" : "https://open.spotify.com/artist/5Pru9iK8vaUD43hVlHBbFA"
          },
          "href" : "https://api.spotify.com/v1/artists/5Pru9iK8vaUD43hVlHBbFA",
          "id" : "5Pru9iK8vaUD43hVlHBbFA",
          "name" : "Lori True",
          "type" : "artist",
          "uri" : "spotify:artist:5Pru9iK8vaUD43hVlHBbFA"
        } ],
        "external_urls" : {
          "spotify" : "https://open.spotify.com/album/6yCr7Jg9KQVJNyLBi96U5S"
        },
        "href" : "https://api.spotify.com/v1/albums/6yCr7Jg9KQVJNyLBi96U5S",
        "id" : "6yCr7Jg9KQVJNyLBi96U5S",
        "images" : [ {
          "height" : 640,
          "url" : "https://i.scdn.co/image/ab67616d0000b27310c21d4dbf6fe96042cd2eb0",
          "width" : 640
        }, {
          "height" : 300,
          "url" : "https://i.scdn.co/image/ab67616d00001e0210c21d4dbf6fe96042cd2eb0",
          "width" : 300
        }, {
          "height" : 64,
          "url" : "https://i.scdn.co/image/ab67616d0000485110c21d4dbf6fe96042cd2eb0",
          "width" : 64
        } ],
        "name" : "God Will Delight",
        "release_date" : "2014-01-01",
        "release_date_precision" : "day",
        "total_tracks" : 18,
        "type" : "album",
        "uri" : "spotify:album:6yCr7Jg9KQVJNyLBi96U5S"
      },
      "artists" : [ {
        "external_urls" : {
          "spotify" : "https://open.spotify.com/artist/25G5O7lNs9L9dGHM7Ymyzc"
        },
        "href" : "https://api.spotify.com/v1/artists/25G5O7lNs9L9dGHM7Ymyzc",
        "id" : "25G5O7lNs9L9dGHM7Ymyzc",
        "name" : "David Haas",
        "type" : "artist",
        "uri" : "spotify:artist:25G5O7lNs9L9dGHM7Ymyzc"
      }, {
        "external_urls" : {
          "spotify" : "https://open.spotify.com/artist/5Pru9iK8vaUD43hVlHBbFA"
        },
        "href" : "https://api.spotify.com/v1/artists/5Pru9iK8vaUD43hVlHBbFA",
        "id" : "5Pru9iK8vaUD43hVlHBbFA",
        "name" : "Lori True",
        "type" : "artist",
        "uri" : "spotify:artist:5Pru9iK8vaUD43hVlHBbFA"
      } ],
      "disc_number" : 1,
      "duration_ms" : 198333,
      "explicit" : false,
      "external_ids" : {
        "isrc" : "US7851400102"
      },
      "external_urls" : {
        "spotify" : "https://open.spotify.com/track/4Xr1IhulrMvG8q81X7uId6"
      },
      "href" : "https://api.spotify.com/v1/tracks/4Xr1IhulrMvG8q81X7uId6",
      "id" : "4Xr1IhulrMvG8q81X7uId6",
      "is_local" : false,
      "is_playable" : true,
      "name" : "As Water to the Thirsty",
      "popularity" : 1,
      "preview_url" : "https://p.scdn.co/mp3-preview/2606df8c8bf8c121740dd941e4894627f2ad9362?cid=774b29d4f13844c495f206cafdad9c86",
      "track_number" : 8,
      "type" : "track",
      "uri" : "spotify:track:4Xr1IhulrMvG8q81X7uId6"
    } ],
    "limit" : 10,
    "next" : "https://api.spotify.com/v1/search?query=As+Water+to+the+Thirsty&type=track&market=US&offset=15&limit=10",
    "offset" : 5,
    "previous" : "https://api.spotify.com/v1/search?query=As+Water+to+the+Thirsty&type=track&market=US&offset=0&limit=10",
    "total" : 28
  }
}