{
  "tracks" : {
    "href" : "https://api.spotify.com/v1/search?query=Anywhere+With+Jesus&type=track&market=US&offset=5&limit=10",
    "items" : [ {
      "album" : {
        "album_type" : "album",
        "artists" : [ {
          "external_urls" : {
            "spotify" : "https://open.spotify.com/artist/0kKzQXru3rHEiKqoe1CIw0"
          },
          "href" : "https://api.spotify.com/v1/artists/0kKzQXru3rHEiKqoe1CIw0",
          "id" : "0kKzQXru3rHEiKqoe1CIw0",
          "name" : "Azure Fields",
          "type" : "artist",
          "uri" : "spotify:artist:0kKzQXru3rHEiKqoe1CIw0"
        } ],
        "external_urls" : {
          "spotify" : "https://open.spotify.com/album/6j1tpqWTuA91CnPfE73wf8"
        },
        "href" : "https://api.spotify.com/v1/albums/6j1tpqWTuA91CnPfE73wf8",
        "id" : "6j1tpqWTuA91CnPfE73wf8",
        "images" : [ {
          "height" : 640,
          "url" : "https://i.scdn.co/image/ab67616d0000b273017758678a132a4497ba7d9a",
          "width" : 640
        }, {
          "height" : 300,
          "url" : "https://i.scdn.co/image/ab67616d00001e02017758678a132a4497ba7d9a",
          "width" : 300
        }, {
          "height" : 64,
          "url" : "https://i.scdn.co/image/ab67616d00004851017758678a132a4497ba7d9a",
          "width" : 64
        } ],
        "name" : "In Concert",
        "release_date" : "2006-03-10",
        "release_date_precision" : "day",
        "total_tracks" : 16,
        "type" : "album",
        "uri" : "spotify:album:6j1tpqWTuA91CnPfE73wf8"
      },
      "artists" : [ {
        "external_urls" : {
          "spotify" : "https://open.spotify.com/artist/0kKzQXru3rHEiKqoe1CIw0"
        },
        "href" : "https://api.spotify.com/v1/artists/0kKzQXru3rHEiKqoe1CIw0",
        "id" : "0kKzQXru3rHEiKqoe1CIw0",
        "name" : "Azure Fields",
        "type" : "artist",
        "uri" : "spotify:artist:0kKzQXru3rHEiKqoe1CIw0"
      } ],
      "disc_number" : 1,
      "duration_ms" : 117933,
      "explicit" : false,
      "external_ids" : {
        "isrc" : "uscgh0694991"
      },
      "external_urls" : {
        "spotify" : "https://open.spotify.com/track/0onVDhcK28Qsx6XUJD5gGm"
      },
      "href" : "https://api.spotify.com/v1/tracks/0onVDhcK28Qsx6XUJD5gGm",
      "id" : "0onVDhcK28Qsx6XUJD5gGm",
      "is_local" : false,
      "is_playable" : true,
      "name" : "Anywhere With Jesus",
      "popularity" : 0,
      "preview_url" : "https://p.scdn.co/mp3-preview/c14f09ba2e0985d103330a75dd4f7ec52ca7e0ab?cid=774b29d4f13844c495f206cafdad9c86",
      "track_number" : 7,
      "type" : "track",
      "uri" : "spotify:track:0onVDhcK28Qsx6XUJD5gGm"
    }, {
      "album" : {
        "album_type" : "album",
        "artists" : [ {
          "external_urls" : {
            "spotify" : "https://open.spotify.com/artist/3lk8qatIcUand38OeCGxk9"
          },
          "href" : "https://api.spotify.com/v1/artists/3lk8qatIcUand38OeCGxk9",
          "id" : "3lk8qatIcUand38OeCGxk9",
          "name" : "Lorie Line",
          "type" : "artist",
          "uri" : "spotify:artist:3lk8qatIcUand38OeCGxk9"
        } ],
        "external_urls" : {
          "spotify" : "https://open.spotify.com/album/3D04clcxdCVFTSUrJkmvMz"
        },
        "href" : "https://api.spotify.com/v1/albums/3D04clcxdCVFTSUrJkmvMz",
        "id" : "3D04clcxdCVFTSUrJkmvMz",
        "images" : [ {
          "height" : 640,
          "url" : "https://i.scdn.co/image/ab67616d0000b27352705eb70eeb3b630f38d9c9",
          "width" : 640
        }, {
          "height" : 300,
          "url" : "https://i.scdn.co/image/ab67616d00001e0252705eb70eeb3b630f38d9c9",
          "width" : 300
        }, {
          "height" : 64,
          "url" : "https://i.scdn.co/image/ab67616d0000485152705eb70eeb3b630f38d9c9",
          "width" : 64
        } ],
        "name" : "The Heritage Collection, Vol. 6",
        "release_date" : "2012-03-06",
        "release_date_precision" : "day",
        "total_tracks" : 13,
        "type" : "album",
        "uri" : "spotify:album:3D04clcxdCVFTSUrJkmvMz"
      },
      "artists" : [ {
        "external_urls" : {
          "spotify" : "https://open.spotify.com/artist/3lk8qatIcUand38OeCGxk9"
        },
        "href" : "https://api.spotify.com/v1/artists/3lk8qatIcUand38OeCGxk9",
        "id" : "3lk8qatIcUand38OeCGxk9",
        "name" : "Lorie Line",
        "type" : "artist",
        "uri" : "spotify:artist:3lk8qatIcUand38OeCGxk9"
      } ],
      "disc_number" : 1,
      "duration_ms" : 217266,
      "explicit" : false,
      "external_ids" : {
        "isrc" : "US42C1200581"
      },
      "external_urls" : {
        "spotify" : "https://open.spotify.com/track/58xabpk1ueE2GbuR0feSND"
      },
      "href" : "https://api.spotify.com/v1/tracks/58xabpk1ueE2GbuR0feSND",
      "id" : "58xabpk1ueE2GbuR0feSND",
      "is_local" : false,
      "is_playable" : true,
      "name" : "Anywhere With Jesus",
      "popularity" : 0,
      "preview_url" : "https://p.scdn.co/mp3-preview/61ecd6acbd0646c7a10b6734236c1a7f1a0ca790?cid=774b29d4f13844c495f206cafdad9c86",
      "track_number" : 10,
      "type" : "track",
      "uri" : "spotify:track:58xabpk1ueE2GbuR0feSND"
    }, {
      "album" : {
        "album_type" : "album",
        "artists" : [ {
          "external_urls" : {
            "spotify" : "https://open.spotify.com/artist/5ZTCPuxqTBmTcJQy0G0Usc"
          },
          "href" : "https://api.spotify.com/v1/artists/5ZTCPuxqTBmTcJQy0G0Usc",
          "id" : "5ZTCPuxqTBmTcJQy0G0Usc",
          "name" : "Wayne Khin",
          "type" : "artist",
          "uri" : "spotify:artist:5ZTCPuxqTBmTcJQy0G0Usc"
        } ],
        "external_urls" : {
          "spotify" : "https://open.spotify.com/album/0GXQDuf9tsuvGqaPrRCmjp"
        },
        "href" : "https://api.spotify.com/v1/albums/0GXQDuf9tsuvGqaPrRCmjp",
        "id" : "0GXQDuf9tsuvGqaPrRCmjp",
        "images" : [ {
          "height" : 640,
          "url" : "https://i.scdn.co/image/ab67616d0000b273f5799d2a0369c38a006a14b5",
          "width" : 640
        }, {
          "height" : 300,
          "url" : "https://i.scdn.co/image/ab67616d00001e02f5799d2a0369c38a006a14b5",
          "width" : 300
        }, {
          "height" : 64,
          "url" : "https://i.scdn.co/image/ab67616d00004851f5799d2a0369c38a006a14b5",
          "width" : 64
        } ],
        "name" : "Hymns for Dad",
        "release_date" : "2014-10-31",
        "release_date_precision" : "day",
        "total_tracks" : 12,
        "type" : "album",
        "uri" : "spotify:album:0GXQDuf9tsuvGqaPrRCmjp"
      },
      "artists" : [ {
        "external_urls" : {
          "spotify" : "https://open.spotify.com/artist/5ZTCPuxqTBmTcJQy0G0Usc"
        },
        "href" : "https://api.spotify.com/v1/artists/5ZTCPuxqTBmTcJQy0G0Usc",
        "id" : "5ZTCPuxqTBmTcJQy0G0Usc",
        "name" : "Wayne Khin",
        "type" : "artist",
        "uri" : "spotify:artist:5ZTCPuxqTBmTcJQy0G0Usc"
      } ],
      "disc_number" : 1,
      "duration_ms" : 212010,
      "explicit" : false,
      "external_ids" : {
        "isrc" : "ushm91463182"
      },
      "external_urls" : {
        "spotify" : "https://open.spotify.com/track/6VNsxC0KpsxmEzOmWaq4gY"
      },
      "href" : "https://api.spotify.com/v1/tracks/6VNsxC0KpsxmEzOmWaq4gY",
      "id" : "6VNsxC0KpsxmEzOmWaq4gY",
      "is_local" : false,
      "is_playable" : true,
      "name" : "Anywhere With Jesus",
      "popularity" : 0,
      "preview_url" : "https://p.scdn.co/mp3-preview/2f4b09353a199c9b507cb6ae0bc901b601192361?cid=774b29d4f13844c495f206cafdad9c86",
      "track_number" : 2,
      "type" : "track",
      "uri" : "spotify:track:6VNsxC0KpsxmEzOmWaq4gY"
    }, {
      "album" : {
        "album_type" : "single",
        "artists" : [ {
          "external_urls" : {
            "spotify" : "https://open.spotify.com/artist/0MktPjxYC3qoGj7sGw0RLS"
          },
          "href" : "https://api.spotify.com/v1/artists/0MktPjxYC3qoGj7sGw0RLS",
          "id" : "0MktPjxYC3qoGj7sGw0RLS",
          "name" : "Geetunes",
          "type" : "artist",
          "uri" : "spotify:artist:0MktPjxYC3qoGj7sGw0RLS"
        } ],
        "external_urls" : {
          "spotify" : "https://open.spotify.com/album/5RIWzeveCeVlT5mgJG9Hsa"
        },
        "href" : "https://api.spotify.com/v1/albums/5RIWzeveCeVlT5mgJG9Hsa",
        "id" : "5RIWzeveCeVlT5mgJG9Hsa",
        "images" : [ {
          "height" : 640,
          "url" : "https://i.scdn.co/image/ab67616d0000b27350b964711fb63e0e022e39a6",
          "width" : 640
        }, {
          "height" : 300,
          "url" : "https://i.scdn.co/image/ab67616d00001e0250b964711fb63e0e022e39a6",
          "width" : 300
        }, {
          "height" : 64,
          "url" : "https://i.scdn.co/image/ab67616d0000485150b964711fb63e0e022e39a6",
          "width" : 64
        } ],
        "name" : "Selected Hymns 1",
        "release_date" : "2019-11-12",
        "release_date_precision" : "day",
        "total_tracks" : 6,
        "type" : "album",
        "uri" : "spotify:album:5RIWzeveCeVlT5mgJG9Hsa"
      },
      "artists" : [ {
        "external_urls" : {
          "spotify" : "https://open.spotify.com/artist/0MktPjxYC3qoGj7sGw0RLS"
        },
        "href" : "https://api.spotify.com/v1/artists/0MktPjxYC3qoGj7sGw0RLS",
        "id" : "0MktPjxYC3qoGj7sGw0RLS",
        "name" : "Geetunes",
        "type" : "artist",
        "uri" : "spotify:artist:0MktPjxYC3qoGj7sGw0RLS"
      } ],
      "disc_number" : 1,
      "duration_ms" : 160261,
      "explicit" : false,
      "external_ids" : {
        "isrc" : "GBSMU7170632"
      },
      "external_urls" : {
        "spotify" : "https://open.spotify.com/track/0m5vm3yRR7gmXuuH4z21Kh"
      },
      "href" : "https://api.spotify.com/v1/tracks/0m5vm3yRR7gmXuuH4z21Kh",
      "id" : "0m5vm3yRR7gmXuuH4z21Kh",
      "is_local" : false,
      "is_playable" : true,
      "name" : "Anywhere with Jesus",
      "popularity" : 0,
      "preview_url" : "https://p.scdn.co/mp3-preview/24b83552a4f70caa0a652e03228c06b171635e59?cid=774b29d4f13844c495f206cafdad9c86",
      "track_number" : 4,
      "type" : "track",
      "uri" : "spotify:track:0m5vm3yRR7gmXuuH4z21Kh"
    }, {
      "album" : {
        "album_type" : "album",
        "artists" : [ {
          "external_urls" : {
            "spotify" : "https://open.spotify.com/artist/01Er12nK5rrnHx8usFPJAs"
          },
          "href" : "https://api.spotify.com/v1/artists/01Er12nK5rrnHx8usFPJAs",
          "id" : "01Er12nK5rrnHx8usFPJAs",
          "name" : "Derek Fiechter",
          "type" : "artist",
          "uri" : "spotify:artist:01Er12nK5rrnHx8usFPJAs"
        }, {
          "external_urls" : {
            "spotify" : "https://open.spotify.com/artist/2XDOBQOobSTxtmFhWKdm6x"
          },
          "href" : "https://api.spotify.com/v1/artists/2XDOBQOobSTxtmFhWKdm6x",
          "id" : "2XDOBQOobSTxtmFhWKdm6x",
          "name" : "Brandon Fiechter",
          "type" : "artist",
          "uri" : "spotify:artist:2XDOBQOobSTxtmFhWKdm6x"
        } ],
        "external_urls" : {
          "spotify" : "https://open.spotify.com/album/3YKGrJT3DDMj3OaK61ipKP"
        },
        "href" : "https://api.spotify.com/v1/albums/3YKGrJT3DDMj3OaK61ipKP",
        "id" : "3YKGrJT3DDMj3OaK61ipKP",
        "images" : [ {
          "height" : 640,
          "url" : "https://i.scdn.co/image/ab67616d0000b273a0a77dfca8cfb5bc2a778480",
          "width" : 640
        }, {
          "height" : 300,
          "url" : "https://i.scdn.co/image/ab67616d00001e02a0a77dfca8cfb5bc2a778480",
          "width" : 300
        }, {
          "height" : 64,
          "url" : "https://i.scdn.co/image/ab67616d00004851a0a77dfca8cfb5bc2a778480",
          "width" : 64
        } ],
        "name" : "Celtic Hymn Collection VII",
        "release_date" : "2019-06-14",
        "release_date_precision" : "day",
        "total_tracks" : 18,
        "type" : "album",
        "uri" : "spotify:album:3YKGrJT3DDMj3OaK61ipKP"
      },
      "artists" : [ {
        "external_urls" : {
          "spotify" : "https://open.spotify.com/artist/01Er12nK5rrnHx8usFPJAs"
        },
        "href" : "https://api.spotify.com/v1/artists/01Er12nK5rrnHx8usFPJAs",
        "id" : "01Er12nK5rrnHx8usFPJAs",
        "name" : "Derek Fiechter",
        "type" : "artist",
        "uri" : "spotify:artist:01Er12nK5rrnHx8usFPJAs"
      }, {
        "external_urls" : {
          "spotify" : "https://open.spotify.com/artist/2XDOBQOobSTxtmFhWKdm6x"
        },
        "href" : "https://api.spotify.com/v1/artists/2XDOBQOobSTxtmFhWKdm6x",
        "id" : "2XDOBQOobSTxtmFhWKdm6x",
        "name" : "Brandon Fiechter",
        "type" : "artist",
        "uri" : "spotify:artist:2XDOBQOobSTxtmFhWKdm6x"
      } ],
      "disc_number" : 1,
      "duration_ms" : 200685,
      "explicit" : false,
      "external_ids" : {
        "isrc" : "ushm21952303"
      },
      "external_urls" : {
        "spotify" : "https://open.spotify.com/track/29wYpcbLwiGoXJ5Szih0nG"
      },
      "href" : "https://api.spotify.com/v1/tracks/29wYpcbLwiGoXJ5Szih0nG",
      "id" : "29wYpcbLwiGoXJ5Szih0nG",
      "is_local" : false,
      "is_playable" : true,
      "name" : "Anywhere with Jesus",
      "popularity" : 3,
      "preview_url" : "https://p.scdn.co/mp3-preview/6f869456457c8d54697fa2c09fe8a4ab39db016f?cid=774b29d4f13844c495f206cafdad9c86",
      "track_number" : 9,
      "type" : "track",
      "uri" : "spotify:track:29wYpcbLwiGoXJ5Szih0nG"
    }, {
      "album" : {
        "album_type" : "album",
        "artists" : [ {
          "external_urls" : {
            "spotify" : "https://open.spotify.com/artist/6v3bYn0d5WUE6gOn5so4gf"
          },
          "href" : "https://api.spotify.com/v1/artists/6v3bYn0d5WUE6gOn5so4gf",
          "id" : "6v3bYn0d5WUE6gOn5so4gf",
          "name" : "Still Waters",
          "type" : "artist",
          "uri" : "spotify:artist:6v3bYn0d5WUE6gOn5so4gf"
        } ],
        "external_urls" : {
          "spotify" : "https://open.spotify.com/album/6R6JQEOVnVkNIHkDhXlwNZ"
        },
        "href" : "https://api.spotify.com/v1/albums/6R6JQEOVnVkNIHkDhXlwNZ",
        "id" : "6R6JQEOVnVkNIHkDhXlwNZ",
        "images" : [ {
          "height" : 640,
          "url" : "https://i.scdn.co/image/ab67616d0000b27330a44d55cd814054fb22388c",
          "width" : 640
        }, {
          "height" : 300,
          "url" : "https://i.scdn.co/image/ab67616d00001e0230a44d55cd814054fb22388c",
          "width" : 300
        }, {
          "height" : 64,
          "url" : "https://i.scdn.co/image/ab67616d0000485130a44d55cd814054fb22388c",
          "width" : 64
        } ],
        "name" : "Tapestry Of Love",
        "release_date" : "2007-08-09",
        "release_date_precision" : "day",
        "total_tracks" : 14,
        "type" : "album",
        "uri" : "spotify:album:6R6JQEOVnVkNIHkDhXlwNZ"
      },
      "artists" : [ {
        "external_urls" : {
          "spotify" : "https://open.spotify.com/artist/6v3bYn0d5WUE6gOn5so4gf"
        },
        "href" : "https://api.spotify.com/v1/artists/6v3bYn0d5WUE6gOn5so4gf",
        "id" : "6v3bYn0d5WUE6gOn5so4gf",
        "name" : "Still Waters",
        "type" : "artist",
        "uri" : "spotify:artist:6v3bYn0d5WUE6gOn5so4gf"
      } ],
      "disc_number" : 1,
      "duration_ms" : 169706,
      "explicit" : false,
      "external_ids" : {
        "isrc" : "ushm90739036"
      },
      "external_urls" : {
        "spotify" : "https://open.spotify.com/track/1l9hVpOkNT4Iaccj0yNocn"
      },
      "href" : "https://api.spotify.com/v1/tracks/1l9hVpOkNT4Iaccj0yNocn",
      "id" : "1l9hVpOkNT4Iaccj0yNocn",
      "is_local" : false,
      "is_playable" : true,
      "name" : "Anywhere With Jesus",
      "popularity" : 1,
      "preview_url" : "https://p.scdn.co/mp3-preview/5e66409eb7e9da794a20d69e3725ac63cc4f21c9?cid=774b29d4f13844c495f206cafdad9c86",
      "track_number" : 1,
      "type" : "track",
      "uri" : "spotify:track:1l9hVpOkNT4Iaccj0yNocn"
    }, {
      "album" : {
        "album_type" : "album",
        "artists" : [ {
          "external_urls" : {
            "spotify" : "https://open.spotify.com/artist/5TjdnUag7iMW2FyfJEiYgk"
          },
          "href" : "https://api.spotify.com/v1/artists/5TjdnUag7iMW2FyfJEiYgk",
          "id" : "5TjdnUag7iMW2FyfJEiYgk",
          "name" : "Lucas Siquelli",
          "type" : "artist",
          "uri" : "spotify:artist:5TjdnUag7iMW2FyfJEiYgk"
        } ],
        "external_urls" : {
          "spotify" : "https://open.spotify.com/album/5fT3SkJkR3TLkKeUgFiNrK"
        },
        "href" : "https://api.spotify.com/v1/albums/5fT3SkJkR3TLkKeUgFiNrK",
        "id" : "5fT3SkJkR3TLkKeUgFiNrK",
        "images" : [ {
          "height" : 640,
          "url" : "https://i.scdn.co/image/ab67616d0000b273c30712867ef5250281e39018",
          "width" : 640
        }, {
          "height" : 300,
          "url" : "https://i.scdn.co/image/ab67616d00001e02c30712867ef5250281e39018",
          "width" : 300
        }, {
          "height" : 64,
          "url" : "https://i.scdn.co/image/ab67616d00004851c30712867ef5250281e39018",
          "width" : 64
        } ],
        "name" : "Instrumental Hymns, Vol. 11",
        "release_date" : "2020-02-22",
        "release_date_precision" : "day",
        "total_tracks" : 27,
        "type" : "album",
        "uri" : "spotify:album:5fT3SkJkR3TLkKeUgFiNrK"
      },
      "artists" : [ {
        "external_urls" : {
          "spotify" : "https://open.spotify.com/artist/5TjdnUag7iMW2FyfJEiYgk"
        },
        "href" : "https://api.spotify.com/v1/artists/5TjdnUag7iMW2FyfJEiYgk",
        "id" : "5TjdnUag7iMW2FyfJEiYgk",
        "name" : "Lucas Siquelli",
        "type" : "artist",
        "uri" : "spotify:artist:5TjdnUag7iMW2FyfJEiYgk"
      } ],
      "disc_number" : 1,
      "duration_ms" : 141674,
      "explicit" : false,
      "external_ids" : {
        "isrc" : "QZGLM2015657"
      },
      "external_urls" : {
        "spotify" : "https://open.spotify.com/track/2SrkrdyRIAQjHTxQXAH4zE"
      },
      "href" : "https://api.spotify.com/v1/tracks/2SrkrdyRIAQjHTxQXAH4zE",
      "id" : "2SrkrdyRIAQjHTxQXAH4zE",
      "is_local" : false,
      "is_playable" : true,
      "name" : "Anywhere with Jesus",
      "popularity" : 0,
      "preview_url" : "https://p.scdn.co/mp3-preview/0eb70c07227db0d4225a12dd217a4fd6d4a182a4?cid=774b29d4f13844c495f206cafdad9c86",
      "track_number" : 15,
      "type" : "track",
      "uri" : "spotify:track:2SrkrdyRIAQjHTxQXAH4zE"
    }, {
      "album" : {
        "album_type" : "album",
        "artists" : [ {
          "external_urls" : {
            "spotify" : "https://open.spotify.com/artist/0gEPtMfgzgBfqYDBlgyCww"
          },
          "href" : "https://api.spotify.com/v1/artists/0gEPtMfgzgBfqYDBlgyCww",
          "id" : "0gEPtMfgzgBfqYDBlgyCww",
          "name" : "Peter Piano",
          "type" : "artist",
          "uri" : "spotify:artist:0gEPtMfgzgBfqYDBlgyCww"
        } ],
        "external_urls" : {
          "spotify" : "https://open.spotify.com/album/5ow7KtU7KR2o7EdIagGrHn"
        },
        "href" : "https://api.spotify.com/v1/albums/5ow7KtU7KR2o7EdIagGrHn",
        "id" : "5ow7KtU7KR2o7EdIagGrHn",
        "images" : [ {
          "height" : 640,
          "url" : "https://i.scdn.co/image/ab67616d0000b273906b1d170c3fd8744be66a07",
          "width" : 640
        }, {
          "height" : 300,
          "url" : "https://i.scdn.co/image/ab67616d00001e02906b1d170c3fd8744be66a07",
          "width" : 300
        }, {
          "height" : 64,
          "url" : "https://i.scdn.co/image/ab67616d00004851906b1d170c3fd8744be66a07",
          "width" : 64
        } ],
        "name" : "Behold - Music For Relaxation - The Day Of The Lord Cometh",
        "release_date" : "2018-05-21",
        "release_date_precision" : "day",
        "total_tracks" : 50,
        "type" : "album",
        "uri" : "spotify:album:5ow7KtU7KR2o7EdIagGrHn"
      },
      "artists" : [ {
        "external_urls" : {
          "spotify" : "https://open.spotify.com/artist/0gEPtMfgzgBfqYDBlgyCww"
        },
        "href" : "https://api.spotify.com/v1/artists/0gEPtMfgzgBfqYDBlgyCww",
        "id" : "0gEPtMfgzgBfqYDBlgyCww",
        "name" : "Peter Piano",
        "type" : "artist",
        "uri" : "spotify:artist:0gEPtMfgzgBfqYDBlgyCww"
      } ],
      "disc_number" : 1,
      "duration_ms" : 300000,
      "explicit" : false,
      "external_ids" : {
        "isrc" : "QZ22B1949281"
      },
      "external_urls" : {
        "spotify" : "https://open.spotify.com/track/0D1UHczJMPSJjRYpAXPGxu"
      },
      "href" : "https://api.spotify.com/v1/tracks/0D1UHczJMPSJjRYpAXPGxu",
      "id" : "0D1UHczJMPSJjRYpAXPGxu",
      "is_local" : false,
      "is_playable" : true,
      "name" : "Anywhere with Jesus",
      "popularity" : 0,
      "preview_url" : "https://p.scdn.co/mp3-preview/e12b9530f854bfb89b338c45812a4bca5dc082b5?cid=774b29d4f13844c495f206cafdad9c86",
      "track_number" : 11,
      "type" : "track",
      "uri" : "spotify:track:0D1UHczJMPSJjRYpAXPGxu"
    }, {
      "album" : {
        "album_type" : "album",
        "artists" : [ {
          "external_urls" : {
            "spotify" : "https://open.spotify.com/artist/0kKzQXru3rHEiKqoe1CIw0"
          },
          "href" : "https://api.spotify.com/v1/artists/0kKzQXru3rHEiKqoe1CIw0",
          "id" : "0kKzQXru3rHEiKqoe1CIw0",
          "name" : "Azure Fields",
          "type" : "artist",
          "uri" : "spotify:artist:0kKzQXru3rHEiKqoe1CIw0"
        } ],
        "external_urls" : {
          "spotify" : "https://open.spotify.com/album/6mb4lXWup4Ebhy8ipK8ZRt"
        },
        "href" : "https://api.spotify.com/v1/albums/6mb4lXWup4Ebhy8ipK8ZRt",
        "id" : "6mb4lXWup4Ebhy8ipK8ZRt",
        "images" : [ {
          "height" : 640,
          "url" : "https://i.scdn.co/image/ab67616d0000b273940137420ecf01b1b7d6c6ce",
          "width" : 640
        }, {
          "height" : 300,
          "url" : "https://i.scdn.co/image/ab67616d00001e02940137420ecf01b1b7d6c6ce",
          "width" : 300
        }, {
          "height" : 64,
          "url" : "https://i.scdn.co/image/ab67616d00004851940137420ecf01b1b7d6c6ce",
          "width" : 64
        } ],
        "name" : "Walking With Jesus",
        "release_date" : "2003-09-02",
        "release_date_precision" : "day",
        "total_tracks" : 14,
        "type" : "album",
        "uri" : "spotify:album:6mb4lXWup4Ebhy8ipK8ZRt"
      },
      "artists" : [ {
        "external_urls" : {
          "spotify" : "https://open.spotify.com/artist/0kKzQXru3rHEiKqoe1CIw0"
        },
        "href" : "https://api.spotify.com/v1/artists/0kKzQXru3rHEiKqoe1CIw0",
        "id" : "0kKzQXru3rHEiKqoe1CIw0",
        "name" : "Azure Fields",
        "type" : "artist",
        "uri" : "spotify:artist:0kKzQXru3rHEiKqoe1CIw0"
      } ],
      "disc_number" : 1,
      "duration_ms" : 116266,
      "explicit" : false,
      "external_ids" : {
        "isrc" : "ushm80445121"
      },
      "external_urls" : {
        "spotify" : "https://open.spotify.com/track/1Pzn4nVTEtdNXwzun9I0tJ"
      },
      "href" : "https://api.spotify.com/v1/tracks/1Pzn4nVTEtdNXwzun9I0tJ",
      "id" : "1Pzn4nVTEtdNXwzun9I0tJ",
      "is_local" : false,
      "is_playable" : true,
      "name" : "Anywhere With Jesus",
      "popularity" : 0,
      "preview_url" : "https://p.scdn.co/mp3-preview/a8a8687a7e48ebf320a6969e2b75750e45e13023?cid=774b29d4f13844c495f206cafdad9c86",
      "track_number" : 4,
      "type" : "track",
      "uri" : "spotify:track:1Pzn4nVTEtdNXwzun9I0tJ"
    }, {
      "album" : {
        "album_type" : "album",
        "artists" : [ {
          "external_urls" : {
            "spotify" : "https://open.spotify.com/artist/3qNSsKNzzgoxfmBBwAIHUy"
          },
          "href" : "https://api.spotify.com/v1/artists/3qNSsKNzzgoxfmBBwAIHUy",
          "id" : "3qNSsKNzzgoxfmBBwAIHUy",
          "name" : "Lana Kim",
          "type" : "artist",
          "uri" : "spotify:artist:3qNSsKNzzgoxfmBBwAIHUy"
        } ],
        "external_urls" : {
          "spotify" : "https://open.spotify.com/album/3jEkZBUYCwzIAvJfRI1xoZ"
        },
        "href" : "https://api.spotify.com/v1/albums/3jEkZBUYCwzIAvJfRI1xoZ",
        "id" : "3jEkZBUYCwzIAvJfRI1xoZ",
        "images" : [ {
          "height" : 640,
          "url" : "https://i.scdn.co/image/ab67616d0000b273f685ffd2571a9526585832fd",
          "width" : 640
        }, {
          "height" : 300,
          "url" : "https://i.scdn.co/image/ab67616d00001e02f685ffd2571a9526585832fd",
          "width" : 300
        }, {
          "height" : 64,
          "url" : "https://i.scdn.co/image/ab67616d00004851f685ffd2571a9526585832fd",
          "width" : 64
        } ],
        "name" : "All Christian Hymns - Vol. 13",
        "release_date" : "2011-03-05",
        "release_date_precision" : "day",
        "total_tracks" : 40,
        "type" : "album",
        "uri" : "spotify:album:3jEkZBUYCwzIAvJfRI1xoZ"
      },
      "artists" : [ {
        "external_urls" : {
          "spotify" : "https://open.spotify.com/artist/3qNSsKNzzgoxfmBBwAIHUy"
        },
        "href" : "https://api.spotify.com/v1/artists/3qNSsKNzzgoxfmBBwAIHUy",
        "id" : "3qNSsKNzzgoxfmBBwAIHUy",
        "name" : "Lana Kim",
        "type" : "artist",
        "uri" : "spotify:artist:3qNSsKNzzgoxfmBBwAIHUy"
      } ],
      "disc_number" : 1,
      "duration_ms" : 46158,
      "explicit" : false,
      "external_ids" : {
        "isrc" : "USJ3V1087419"
      },
      "external_urls" : {
        "spotify" : "https://open.spotify.com/track/6TU6O9pm6KXvNMHBqcz2XE"
      },
      "href" : "https://api.spotify.com/v1/tracks/6TU6O9pm6KXvNMHBqcz2XE",
      "id" : "6TU6O9pm6KXvNMHBqcz2XE",
      "is_local" : false,
      "is_playable" : true,
      "name" : "497 Anywhere With Jesus",
      "popularity" : 0,
      "preview_url" : "https://p.scdn.co/mp3-preview/fc5f0e9a663539dcc6ac85bec4e2d612775a8f55?cid=774b29d4f13844c495f206cafdad9c86",
      "track_number" : 22,
      "type" : "track",
      "uri" : "spotify:track:6TU6O9pm6KXvNMHBqcz2XE"
    } ],
    "limit" : 10,
    "next" : "https://api.spotify.com/v1/search?query=Anywhere+With+Jesus&type=track&market=US&offset=15&limit=10",
    "offset" : 5,
    "previous" : "https://api.spotify.com/v1/search?query=Anywhere+With+Jesus&type=track&market=US&offset=0&limit=10",
    "total" : 20
  }
}