{
  "tracks" : {
    "href" : "https://api.spotify.com/v1/search?query=O+Day+of+Rest+and+Gladness&type=track&market=US&offset=5&limit=10",
    "items" : [ {
      "album" : {
        "album_type" : "album",
        "artists" : [ {
          "external_urls" : {
            "spotify" : "https://open.spotify.com/artist/20z0jiovxcVxxmfsmB1RgX"
          },
          "href" : "https://api.spotify.com/v1/artists/20z0jiovxcVxxmfsmB1RgX",
          "id" : "20z0jiovxcVxxmfsmB1RgX",
          "name" : "Meteoric Stream",
          "type" : "artist",
          "uri" : "spotify:artist:20z0jiovxcVxxmfsmB1RgX"
        } ],
        "external_urls" : {
          "spotify" : "https://open.spotify.com/album/4eqajtmHXSxyGRG5OsNXlU"
        },
        "href" : "https://api.spotify.com/v1/albums/4eqajtmHXSxyGRG5OsNXlU",
        "id" : "4eqajtmHXSxyGRG5OsNXlU",
        "images" : [ {
          "height" : 640,
          "url" : "https://i.scdn.co/image/ab67616d0000b2735998a73c31f2cc4038375587",
          "width" : 640
        }, {
          "height" : 300,
          "url" : "https://i.scdn.co/image/ab67616d00001e025998a73c31f2cc4038375587",
          "width" : 300
        }, {
          "height" : 64,
          "url" : "https://i.scdn.co/image/ab67616d000048515998a73c31f2cc4038375587",
          "width" : 64
        } ],
        "name" : "Fairest Lord Jesus",
        "release_date" : "2017-03-08",
        "release_date_precision" : "day",
        "total_tracks" : 10,
        "type" : "album",
        "uri" : "spotify:album:4eqajtmHXSxyGRG5OsNXlU"
      },
      "artists" : [ {
        "external_urls" : {
          "spotify" : "https://open.spotify.com/artist/20z0jiovxcVxxmfsmB1RgX"
        },
        "href" : "https://api.spotify.com/v1/artists/20z0jiovxcVxxmfsmB1RgX",
        "id" : "20z0jiovxcVxxmfsmB1RgX",
        "name" : "Meteoric Stream",
        "type" : "artist",
        "uri" : "spotify:artist:20z0jiovxcVxxmfsmB1RgX"
      } ],
      "disc_number" : 1,
      "duration_ms" : 200202,
      "explicit" : false,
      "external_ids" : {
        "isrc" : "QZ22B1758859"
      },
      "external_urls" : {
        "spotify" : "https://open.spotify.com/track/0IPrmuYXHIR8RJifEyF7VP"
      },
      "href" : "https://api.spotify.com/v1/tracks/0IPrmuYXHIR8RJifEyF7VP",
      "id" : "0IPrmuYXHIR8RJifEyF7VP",
      "is_local" : false,
      "is_playable" : true,
      "name" : "O Day of Rest and Gladness",
      "popularity" : 0,
      "preview_url" : "https://p.scdn.co/mp3-preview/1913183554940509f0224d7f0844d13099ff3621?cid=774b29d4f13844c495f206cafdad9c86",
      "track_number" : 8,
      "type" : "track",
      "uri" : "spotify:track:0IPrmuYXHIR8RJifEyF7VP"
    }, {
      "album" : {
        "album_type" : "album",
        "artists" : [ {
          "external_urls" : {
            "spotify" : "https://open.spotify.com/artist/20rlbkwNSoLrLqQUR7GRcT"
          },
          "href" : "https://api.spotify.com/v1/artists/20rlbkwNSoLrLqQUR7GRcT",
          "id" : "20rlbkwNSoLrLqQUR7GRcT",
          "name" : "Mother’s Lullaby",
          "type" : "artist",
          "uri" : "spotify:artist:20rlbkwNSoLrLqQUR7GRcT"
        } ],
        "external_urls" : {
          "spotify" : "https://open.spotify.com/album/0qJoZ6A5AcEN1jfA7SkFMb"
        },
        "href" : "https://api.spotify.com/v1/albums/0qJoZ6A5AcEN1jfA7SkFMb",
        "id" : "0qJoZ6A5AcEN1jfA7SkFMb",
        "images" : [ {
          "height" : 640,
          "url" : "https://i.scdn.co/image/ab67616d0000b2731b1a8f0542a9d7ded39df326",
          "width" : 640
        }, {
          "height" : 300,
          "url" : "https://i.scdn.co/image/ab67616d00001e021b1a8f0542a9d7ded39df326",
          "width" : 300
        }, {
          "height" : 64,
          "url" : "https://i.scdn.co/image/ab67616d000048511b1a8f0542a9d7ded39df326",
          "width" : 64
        } ],
        "name" : "현악4중주 찬송가 연주곡집 Vol. 2",
        "release_date" : "2020-04-23",
        "release_date_precision" : "day",
        "total_tracks" : 50,
        "type" : "album",
        "uri" : "spotify:album:0qJoZ6A5AcEN1jfA7SkFMb"
      },
      "artists" : [ {
        "external_urls" : {
          "spotify" : "https://open.spotify.com/artist/20rlbkwNSoLrLqQUR7GRcT"
        },
        "href" : "https://api.spotify.com/v1/artists/20rlbkwNSoLrLqQUR7GRcT",
        "id" : "20rlbkwNSoLrLqQUR7GRcT",
        "name" : "Mother’s Lullaby",
        "type" : "artist",
        "uri" : "spotify:artist:20rlbkwNSoLrLqQUR7GRcT"
      } ],
      "disc_number" : 1,
      "duration_ms" : 136530,
      "explicit" : false,
      "external_ids" : {
        "isrc" : "QZEKE1933005"
      },
      "external_urls" : {
        "spotify" : "https://open.spotify.com/track/2Z3EBUFeHIhkHOvK8tO8uh"
      },
      "href" : "https://api.spotify.com/v1/tracks/2Z3EBUFeHIhkHOvK8tO8uh",
      "id" : "2Z3EBUFeHIhkHOvK8tO8uh",
      "is_local" : false,
      "is_playable" : true,
      "name" : "O Day Of Rest And Gladness",
      "popularity" : 0,
      "preview_url" : "https://p.scdn.co/mp3-preview/0ac177c633d0c2a7d092e0e1be745730f20134c3?cid=774b29d4f13844c495f206cafdad9c86",
      "track_number" : 7,
      "type" : "track",
      "uri" : "spotify:track:2Z3EBUFeHIhkHOvK8tO8uh"
    }, {
      "album" : {
        "album_type" : "album",
        "artists" : [ {
          "external_urls" : {
            "spotify" : "https://open.spotify.com/artist/0e3arYq1bTaYM9G3xVG68B"
          },
          "href" : "https://api.spotify.com/v1/artists/0e3arYq1bTaYM9G3xVG68B",
          "id" : "0e3arYq1bTaYM9G3xVG68B",
          "name" : "Fred Waring Chorus",
          "type" : "artist",
          "uri" : "spotify:artist:0e3arYq1bTaYM9G3xVG68B"
        } ],
        "external_urls" : {
          "spotify" : "https://open.spotify.com/album/4jqDd1Or7WQIYTkpTO9UyD"
        },
        "href" : "https://api.spotify.com/v1/albums/4jqDd1Or7WQIYTkpTO9UyD",
        "id" : "4jqDd1Or7WQIYTkpTO9UyD",
        "images" : [ {
          "height" : 640,
          "url" : "https://i.scdn.co/image/ab67616d0000b2735bc58b58e8970fe0f6bd5eee",
          "width" : 640
        }, {
          "height" : 300,
          "url" : "https://i.scdn.co/image/ab67616d00001e025bc58b58e8970fe0f6bd5eee",
          "width" : 300
        }, {
          "height" : 64,
          "url" : "https://i.scdn.co/image/ab67616d000048515bc58b58e8970fe0f6bd5eee",
          "width" : 64
        } ],
        "name" : "Essential Masters",
        "release_date" : "2013-02-15",
        "release_date_precision" : "day",
        "total_tracks" : 45,
        "type" : "album",
        "uri" : "spotify:album:4jqDd1Or7WQIYTkpTO9UyD"
      },
      "artists" : [ {
        "external_urls" : {
          "spotify" : "https://open.spotify.com/artist/0e3arYq1bTaYM9G3xVG68B"
        },
        "href" : "https://api.spotify.com/v1/artists/0e3arYq1bTaYM9G3xVG68B",
        "id" : "0e3arYq1bTaYM9G3xVG68B",
        "name" : "Fred Waring Chorus",
        "type" : "artist",
        "uri" : "spotify:artist:0e3arYq1bTaYM9G3xVG68B"
      }, {
        "external_urls" : {
          "spotify" : "https://open.spotify.com/artist/68yHJ64QPLdN0EqqErmupt"
        },
        "href" : "https://api.spotify.com/v1/artists/68yHJ64QPLdN0EqqErmupt",
        "id" : "68yHJ64QPLdN0EqqErmupt",
        "name" : "Robert Baker",
        "type" : "artist",
        "uri" : "spotify:artist:68yHJ64QPLdN0EqqErmupt"
      } ],
      "disc_number" : 1,
      "duration_ms" : 177826,
      "explicit" : false,
      "external_ids" : {
        "isrc" : "USCHR1398610"
      },
      "external_urls" : {
        "spotify" : "https://open.spotify.com/track/0EYfTVB714R0ylNswVEfv4"
      },
      "href" : "https://api.spotify.com/v1/tracks/0EYfTVB714R0ylNswVEfv4",
      "id" : "0EYfTVB714R0ylNswVEfv4",
      "is_local" : false,
      "is_playable" : true,
      "name" : "O Day of Rest and Gladness",
      "popularity" : 0,
      "preview_url" : "https://p.scdn.co/mp3-preview/017ed4c6d532056644892984d2815b65c4f0d7b0?cid=774b29d4f13844c495f206cafdad9c86",
      "track_number" : 32,
      "type" : "track",
      "uri" : "spotify:track:0EYfTVB714R0ylNswVEfv4"
    }, {
      "album" : {
        "album_type" : "single",
        "artists" : [ {
          "external_urls" : {
            "spotify" : "https://open.spotify.com/artist/33c0BeAErD3vae90Gt4M80"
          },
          "href" : "https://api.spotify.com/v1/artists/33c0BeAErD3vae90Gt4M80",
          "id" : "33c0BeAErD3vae90Gt4M80",
          "name" : "HolyCow",
          "type" : "artist",
          "uri" : "spotify:artist:33c0BeAErD3vae90Gt4M80"
        } ],
        "external_urls" : {
          "spotify" : "https://open.spotify.com/album/5HwkmIB4J7cuu1Syr9AwMv"
        },
        "href" : "https://api.spotify.com/v1/albums/5HwkmIB4J7cuu1Syr9AwMv",
        "id" : "5HwkmIB4J7cuu1Syr9AwMv",
        "images" : [ {
          "height" : 640,
          "url" : "https://i.scdn.co/image/ab67616d0000b2736de1fa7d440d1ef519b592ab",
          "width" : 640
        }, {
          "height" : 300,
          "url" : "https://i.scdn.co/image/ab67616d00001e026de1fa7d440d1ef519b592ab",
          "width" : 300
        }, {
          "height" : 64,
          "url" : "https://i.scdn.co/image/ab67616d000048516de1fa7d440d1ef519b592ab",
          "width" : 64
        } ],
        "name" : "God Bless You, Vol. 30",
        "release_date" : "2018-12-24",
        "release_date_precision" : "day",
        "total_tracks" : 2,
        "type" : "album",
        "uri" : "spotify:album:5HwkmIB4J7cuu1Syr9AwMv"
      },
      "artists" : [ {
        "external_urls" : {
          "spotify" : "https://open.spotify.com/artist/33c0BeAErD3vae90Gt4M80"
        },
        "href" : "https://api.spotify.com/v1/artists/33c0BeAErD3vae90Gt4M80",
        "id" : "33c0BeAErD3vae90Gt4M80",
        "name" : "HolyCow",
        "type" : "artist",
        "uri" : "spotify:artist:33c0BeAErD3vae90Gt4M80"
      } ],
      "disc_number" : 1,
      "duration_ms" : 160941,
      "explicit" : false,
      "external_ids" : {
        "isrc" : "KRB921719008"
      },
      "external_urls" : {
        "spotify" : "https://open.spotify.com/track/4ZfBzgMjEFYqc1UAQuwseu"
      },
      "href" : "https://api.spotify.com/v1/tracks/4ZfBzgMjEFYqc1UAQuwseu",
      "id" : "4ZfBzgMjEFYqc1UAQuwseu",
      "is_local" : false,
      "is_playable" : true,
      "name" : "Oh Day of Rest and Gladness",
      "popularity" : 0,
      "preview_url" : "https://p.scdn.co/mp3-preview/5ca55fc2fc3934a5be6c12893998d2eecb60ecd1?cid=774b29d4f13844c495f206cafdad9c86",
      "track_number" : 1,
      "type" : "track",
      "uri" : "spotify:track:4ZfBzgMjEFYqc1UAQuwseu"
    }, {
      "album" : {
        "album_type" : "album",
        "artists" : [ {
          "external_urls" : {
            "spotify" : "https://open.spotify.com/artist/7Gbhs14qEzheeN71lJ1kXt"
          },
          "href" : "https://api.spotify.com/v1/artists/7Gbhs14qEzheeN71lJ1kXt",
          "id" : "7Gbhs14qEzheeN71lJ1kXt",
          "name" : "Waldham Grove Orchestra",
          "type" : "artist",
          "uri" : "spotify:artist:7Gbhs14qEzheeN71lJ1kXt"
        } ],
        "external_urls" : {
          "spotify" : "https://open.spotify.com/album/2RIVVh8ZIsJAh0qfyeLvfP"
        },
        "href" : "https://api.spotify.com/v1/albums/2RIVVh8ZIsJAh0qfyeLvfP",
        "id" : "2RIVVh8ZIsJAh0qfyeLvfP",
        "images" : [ {
          "height" : 640,
          "url" : "https://i.scdn.co/image/ab67616d0000b273d3ab28be25e934f98b2f8054",
          "width" : 640
        }, {
          "height" : 300,
          "url" : "https://i.scdn.co/image/ab67616d00001e02d3ab28be25e934f98b2f8054",
          "width" : 300
        }, {
          "height" : 64,
          "url" : "https://i.scdn.co/image/ab67616d00004851d3ab28be25e934f98b2f8054",
          "width" : 64
        } ],
        "name" : "The Traditional Classic Hymns Volume Five",
        "release_date" : "2016-01-20",
        "release_date_precision" : "day",
        "total_tracks" : 38,
        "type" : "album",
        "uri" : "spotify:album:2RIVVh8ZIsJAh0qfyeLvfP"
      },
      "artists" : [ {
        "external_urls" : {
          "spotify" : "https://open.spotify.com/artist/7Gbhs14qEzheeN71lJ1kXt"
        },
        "href" : "https://api.spotify.com/v1/artists/7Gbhs14qEzheeN71lJ1kXt",
        "id" : "7Gbhs14qEzheeN71lJ1kXt",
        "name" : "Waldham Grove Orchestra",
        "type" : "artist",
        "uri" : "spotify:artist:7Gbhs14qEzheeN71lJ1kXt"
      } ],
      "disc_number" : 1,
      "duration_ms" : 201167,
      "explicit" : false,
      "external_ids" : {
        "isrc" : "QMPKX1626408"
      },
      "external_urls" : {
        "spotify" : "https://open.spotify.com/track/4mczdzqSsEG7B9DWCRFYTT"
      },
      "href" : "https://api.spotify.com/v1/tracks/4mczdzqSsEG7B9DWCRFYTT",
      "id" : "4mczdzqSsEG7B9DWCRFYTT",
      "is_local" : false,
      "is_playable" : true,
      "name" : "O Day of Rest and Gladness",
      "popularity" : 2,
      "preview_url" : "https://p.scdn.co/mp3-preview/4d941fd8706196fe7b88fc56c4a2cf08ace66f69?cid=774b29d4f13844c495f206cafdad9c86",
      "track_number" : 10,
      "type" : "track",
      "uri" : "spotify:track:4mczdzqSsEG7B9DWCRFYTT"
    }, {
      "album" : {
        "album_type" : "single",
        "artists" : [ {
          "external_urls" : {
            "spotify" : "https://open.spotify.com/artist/7Gbhs14qEzheeN71lJ1kXt"
          },
          "href" : "https://api.spotify.com/v1/artists/7Gbhs14qEzheeN71lJ1kXt",
          "id" : "7Gbhs14qEzheeN71lJ1kXt",
          "name" : "Waldham Grove Orchestra",
          "type" : "artist",
          "uri" : "spotify:artist:7Gbhs14qEzheeN71lJ1kXt"
        } ],
        "external_urls" : {
          "spotify" : "https://open.spotify.com/album/5IaRwiZzVQMv68JZjCdOvq"
        },
        "href" : "https://api.spotify.com/v1/albums/5IaRwiZzVQMv68JZjCdOvq",
        "id" : "5IaRwiZzVQMv68JZjCdOvq",
        "images" : [ {
          "height" : 640,
          "url" : "https://i.scdn.co/image/ab67616d0000b273f96640c4c386c0027f11c9c8",
          "width" : 640
        }, {
          "height" : 300,
          "url" : "https://i.scdn.co/image/ab67616d00001e02f96640c4c386c0027f11c9c8",
          "width" : 300
        }, {
          "height" : 64,
          "url" : "https://i.scdn.co/image/ab67616d00004851f96640c4c386c0027f11c9c8",
          "width" : 64
        } ],
        "name" : "Hymns of Thanksgiving",
        "release_date" : "2015-11-10",
        "release_date_precision" : "day",
        "total_tracks" : 5,
        "type" : "album",
        "uri" : "spotify:album:5IaRwiZzVQMv68JZjCdOvq"
      },
      "artists" : [ {
        "external_urls" : {
          "spotify" : "https://open.spotify.com/artist/7Gbhs14qEzheeN71lJ1kXt"
        },
        "href" : "https://api.spotify.com/v1/artists/7Gbhs14qEzheeN71lJ1kXt",
        "id" : "7Gbhs14qEzheeN71lJ1kXt",
        "name" : "Waldham Grove Orchestra",
        "type" : "artist",
        "uri" : "spotify:artist:7Gbhs14qEzheeN71lJ1kXt"
      } ],
      "disc_number" : 1,
      "duration_ms" : 201083,
      "explicit" : false,
      "external_ids" : {
        "isrc" : "QM2PV1566220"
      },
      "external_urls" : {
        "spotify" : "https://open.spotify.com/track/6yubHxPfwfLSVbFiYRgveD"
      },
      "href" : "https://api.spotify.com/v1/tracks/6yubHxPfwfLSVbFiYRgveD",
      "id" : "6yubHxPfwfLSVbFiYRgveD",
      "is_local" : false,
      "is_playable" : true,
      "name" : "O Day of Rest and Gladness",
      "popularity" : 0,
      "preview_url" : "https://p.scdn.co/mp3-preview/0ac3b7faa5e2ed9ab6148ca3a712acfd907ad86f?cid=774b29d4f13844c495f206cafdad9c86",
      "track_number" : 1,
      "type" : "track",
      "uri" : "spotify:track:6yubHxPfwfLSVbFiYRgveD"
    }, {
      "album" : {
        "album_type" : "album",
        "artists" : [ {
          "external_urls" : {
            "spotify" : "https://open.spotify.com/artist/1r1756vArW2881GAdwOu4S"
          },
          "href" : "https://api.spotify.com/v1/artists/1r1756vArW2881GAdwOu4S",
          "id" : "1r1756vArW2881GAdwOu4S",
          "name" : "RandyAtup",
          "type" : "artist",
          "uri" : "spotify:artist:1r1756vArW2881GAdwOu4S"
        } ],
        "external_urls" : {
          "spotify" : "https://open.spotify.com/album/3iCb0qWgF9g8XxCnlVCTKd"
        },
        "href" : "https://api.spotify.com/v1/albums/3iCb0qWgF9g8XxCnlVCTKd",
        "id" : "3iCb0qWgF9g8XxCnlVCTKd",
        "images" : [ {
          "height" : 640,
          "url" : "https://i.scdn.co/image/ab67616d0000b273d64a8c102261c157afb426e5",
          "width" : 640
        }, {
          "height" : 300,
          "url" : "https://i.scdn.co/image/ab67616d00001e02d64a8c102261c157afb426e5",
          "width" : 300
        }, {
          "height" : 64,
          "url" : "https://i.scdn.co/image/ab67616d00004851d64a8c102261c157afb426e5",
          "width" : 64
        } ],
        "name" : "Lighthouse",
        "release_date" : "2018-04-20",
        "release_date_precision" : "day",
        "total_tracks" : 8,
        "type" : "album",
        "uri" : "spotify:album:3iCb0qWgF9g8XxCnlVCTKd"
      },
      "artists" : [ {
        "external_urls" : {
          "spotify" : "https://open.spotify.com/artist/1r1756vArW2881GAdwOu4S"
        },
        "href" : "https://api.spotify.com/v1/artists/1r1756vArW2881GAdwOu4S",
        "id" : "1r1756vArW2881GAdwOu4S",
        "name" : "RandyAtup",
        "type" : "artist",
        "uri" : "spotify:artist:1r1756vArW2881GAdwOu4S"
      } ],
      "disc_number" : 1,
      "duration_ms" : 127085,
      "explicit" : false,
      "external_ids" : {
        "isrc" : "usdy41816618"
      },
      "external_urls" : {
        "spotify" : "https://open.spotify.com/track/7q35vETATGcKLOdo3Qxoi3"
      },
      "href" : "https://api.spotify.com/v1/tracks/7q35vETATGcKLOdo3Qxoi3",
      "id" : "7q35vETATGcKLOdo3Qxoi3",
      "is_local" : false,
      "is_playable" : true,
      "name" : "O Day of Rest and Gladness",
      "popularity" : 0,
      "preview_url" : "https://p.scdn.co/mp3-preview/8c4d27ec3a8c7b85a6a383af7c73a45f7c041d69?cid=774b29d4f13844c495f206cafdad9c86",
      "track_number" : 7,
      "type" : "track",
      "uri" : "spotify:track:7q35vETATGcKLOdo3Qxoi3"
    }, {
      "album" : {
        "album_type" : "album",
        "artists" : [ {
          "external_urls" : {
            "spotify" : "https://open.spotify.com/artist/3lgdZK5YXqVno4u8XqreeX"
          },
          "href" : "https://api.spotify.com/v1/artists/3lgdZK5YXqVno4u8XqreeX",
          "id" : "3lgdZK5YXqVno4u8XqreeX",
          "name" : "Ken Burton",
          "type" : "artist",
          "uri" : "spotify:artist:3lgdZK5YXqVno4u8XqreeX"
        } ],
        "external_urls" : {
          "spotify" : "https://open.spotify.com/album/0DYuhzgQKz8eSDEwmBAunP"
        },
        "href" : "https://api.spotify.com/v1/albums/0DYuhzgQKz8eSDEwmBAunP",
        "id" : "0DYuhzgQKz8eSDEwmBAunP",
        "images" : [ {
          "height" : 640,
          "url" : "https://i.scdn.co/image/ab67616d0000b27324806bd6ff076f61d92d10d1",
          "width" : 640
        }, {
          "height" : 300,
          "url" : "https://i.scdn.co/image/ab67616d00001e0224806bd6ff076f61d92d10d1",
          "width" : 300
        }, {
          "height" : 64,
          "url" : "https://i.scdn.co/image/ab67616d0000485124806bd6ff076f61d92d10d1",
          "width" : 64
        } ],
        "name" : "Hymn Accompaniment, Vol. 2 - The Sabbath Collection",
        "release_date" : "2020-04-26",
        "release_date_precision" : "day",
        "total_tracks" : 11,
        "type" : "album",
        "uri" : "spotify:album:0DYuhzgQKz8eSDEwmBAunP"
      },
      "artists" : [ {
        "external_urls" : {
          "spotify" : "https://open.spotify.com/artist/3lgdZK5YXqVno4u8XqreeX"
        },
        "href" : "https://api.spotify.com/v1/artists/3lgdZK5YXqVno4u8XqreeX",
        "id" : "3lgdZK5YXqVno4u8XqreeX",
        "name" : "Ken Burton",
        "type" : "artist",
        "uri" : "spotify:artist:3lgdZK5YXqVno4u8XqreeX"
      } ],
      "disc_number" : 1,
      "duration_ms" : 159024,
      "explicit" : false,
      "external_ids" : {
        "isrc" : "USJ3V2002553"
      },
      "external_urls" : {
        "spotify" : "https://open.spotify.com/track/2Roh1IHuhdWHGjb9Rbmlow"
      },
      "href" : "https://api.spotify.com/v1/tracks/2Roh1IHuhdWHGjb9Rbmlow",
      "id" : "2Roh1IHuhdWHGjb9Rbmlow",
      "is_local" : false,
      "is_playable" : true,
      "name" : "O Day of Rest and Gladness",
      "popularity" : 0,
      "preview_url" : "https://p.scdn.co/mp3-preview/a08a7e1c0b77f52eb3a1f95166d5628c3353425e?cid=774b29d4f13844c495f206cafdad9c86",
      "track_number" : 5,
      "type" : "track",
      "uri" : "spotify:track:2Roh1IHuhdWHGjb9Rbmlow"
    }, {
      "album" : {
        "album_type" : "album",
        "artists" : [ {
          "external_urls" : {
            "spotify" : "https://open.spotify.com/artist/20rlbkwNSoLrLqQUR7GRcT"
          },
          "href" : "https://api.spotify.com/v1/artists/20rlbkwNSoLrLqQUR7GRcT",
          "id" : "20rlbkwNSoLrLqQUR7GRcT",
          "name" : "Mother’s Lullaby",
          "type" : "artist",
          "uri" : "spotify:artist:20rlbkwNSoLrLqQUR7GRcT"
        } ],
        "external_urls" : {
          "spotify" : "https://open.spotify.com/album/74mS5VsGCnCbR1hxN5oCpn"
        },
        "href" : "https://api.spotify.com/v1/albums/74mS5VsGCnCbR1hxN5oCpn",
        "id" : "74mS5VsGCnCbR1hxN5oCpn",
        "images" : [ {
          "height" : 640,
          "url" : "https://i.scdn.co/image/ab67616d0000b27335b71daa5107db21a9c3a43f",
          "width" : 640
        }, {
          "height" : 300,
          "url" : "https://i.scdn.co/image/ab67616d00001e0235b71daa5107db21a9c3a43f",
          "width" : 300
        }, {
          "height" : 64,
          "url" : "https://i.scdn.co/image/ab67616d0000485135b71daa5107db21a9c3a43f",
          "width" : 64
        } ],
        "name" : "Hymns Vol.3 (#51~#75)",
        "release_date" : "2019-02-22",
        "release_date_precision" : "day",
        "total_tracks" : 25,
        "type" : "album",
        "uri" : "spotify:album:74mS5VsGCnCbR1hxN5oCpn"
      },
      "artists" : [ {
        "external_urls" : {
          "spotify" : "https://open.spotify.com/artist/20rlbkwNSoLrLqQUR7GRcT"
        },
        "href" : "https://api.spotify.com/v1/artists/20rlbkwNSoLrLqQUR7GRcT",
        "id" : "20rlbkwNSoLrLqQUR7GRcT",
        "name" : "Mother’s Lullaby",
        "type" : "artist",
        "uri" : "spotify:artist:20rlbkwNSoLrLqQUR7GRcT"
      } ],
      "disc_number" : 1,
      "duration_ms" : 147500,
      "explicit" : false,
      "external_ids" : {
        "isrc" : "KRZ291908370"
      },
      "external_urls" : {
        "spotify" : "https://open.spotify.com/track/74XYhnLBF2Atc3A68u8W33"
      },
      "href" : "https://api.spotify.com/v1/tracks/74XYhnLBF2Atc3A68u8W33",
      "id" : "74XYhnLBF2Atc3A68u8W33",
      "is_local" : false,
      "is_playable" : true,
      "name" : "O Day Of Rest And Gladness",
      "popularity" : 0,
      "preview_url" : "https://p.scdn.co/mp3-preview/b366c4ffa4238039835a28808f1bce659bfd77ef?cid=774b29d4f13844c495f206cafdad9c86",
      "track_number" : 7,
      "type" : "track",
      "uri" : "spotify:track:74XYhnLBF2Atc3A68u8W33"
    }, {
      "album" : {
        "album_type" : "single",
        "artists" : [ {
          "external_urls" : {
            "spotify" : "https://open.spotify.com/artist/1nDCWTMwG7BnRrVxkFY14n"
          },
          "href" : "https://api.spotify.com/v1/artists/1nDCWTMwG7BnRrVxkFY14n",
          "id" : "1nDCWTMwG7BnRrVxkFY14n",
          "name" : "Se-jeong Min",
          "type" : "artist",
          "uri" : "spotify:artist:1nDCWTMwG7BnRrVxkFY14n"
        } ],
        "external_urls" : {
          "spotify" : "https://open.spotify.com/album/0MBKTW5Z5gvSiZCV9KtKEh"
        },
        "href" : "https://api.spotify.com/v1/albums/0MBKTW5Z5gvSiZCV9KtKEh",
        "id" : "0MBKTW5Z5gvSiZCV9KtKEh",
        "images" : [ {
          "height" : 640,
          "url" : "https://i.scdn.co/image/ab67616d0000b273d3d5d9b4db4cdf18a5eb1dc6",
          "width" : 640
        }, {
          "height" : 300,
          "url" : "https://i.scdn.co/image/ab67616d00001e02d3d5d9b4db4cdf18a5eb1dc6",
          "width" : 300
        }, {
          "height" : 64,
          "url" : "https://i.scdn.co/image/ab67616d00004851d3d5d9b4db4cdf18a5eb1dc6",
          "width" : 64
        } ],
        "name" : "Jazz Hymn 3rd",
        "release_date" : "2016-03-11",
        "release_date_precision" : "day",
        "total_tracks" : 2,
        "type" : "album",
        "uri" : "spotify:album:0MBKTW5Z5gvSiZCV9KtKEh"
      },
      "artists" : [ {
        "external_urls" : {
          "spotify" : "https://open.spotify.com/artist/1nDCWTMwG7BnRrVxkFY14n"
        },
        "href" : "https://api.spotify.com/v1/artists/1nDCWTMwG7BnRrVxkFY14n",
        "id" : "1nDCWTMwG7BnRrVxkFY14n",
        "name" : "Se-jeong Min",
        "type" : "artist",
        "uri" : "spotify:artist:1nDCWTMwG7BnRrVxkFY14n"
      } ],
      "disc_number" : 1,
      "duration_ms" : 174556,
      "explicit" : false,
      "external_ids" : {
        "isrc" : "KRB921605170"
      },
      "external_urls" : {
        "spotify" : "https://open.spotify.com/track/3hoerFktnON2jkWFuNUklE"
      },
      "href" : "https://api.spotify.com/v1/tracks/3hoerFktnON2jkWFuNUklE",
      "id" : "3hoerFktnON2jkWFuNUklE",
      "is_local" : false,
      "is_playable" : true,
      "name" : "O Day of Rest and Gladness",
      "popularity" : 0,
      "preview_url" : "https://p.scdn.co/mp3-preview/380dd399e62d78d062cadc149ce6283422556949?cid=774b29d4f13844c495f206cafdad9c86",
      "track_number" : 1,
      "type" : "track",
      "uri" : "spotify:track:3hoerFktnON2jkWFuNUklE"
    } ],
    "limit" : 10,
    "next" : "https://api.spotify.com/v1/search?query=O+Day+of+Rest+and+Gladness&type=track&market=US&offset=15&limit=10",
    "offset" : 5,
    "previous" : "https://api.spotify.com/v1/search?query=O+Day+of+Rest+and+Gladness&type=track&market=US&offset=0&limit=10",
    "total" : 18
  }
}