{
  "tracks" : {
    "href" : "https://api.spotify.com/v1/search?query=Fill+My+Cup%2C+Lord&type=track&market=US&offset=5&limit=10",
    "items" : [ {
      "album" : {
        "album_type" : "album",
        "artists" : [ {
          "external_urls" : {
            "spotify" : "https://open.spotify.com/artist/34lEZF8ruBmrfX93YZCE9P"
          },
          "href" : "https://api.spotify.com/v1/artists/34lEZF8ruBmrfX93YZCE9P",
          "id" : "34lEZF8ruBmrfX93YZCE9P",
          "name" : "Carlton Pearson",
          "type" : "artist",
          "uri" : "spotify:artist:34lEZF8ruBmrfX93YZCE9P"
        } ],
        "external_urls" : {
          "spotify" : "https://open.spotify.com/album/3ux8Ho6i7Gj9nkgrqp55iQ"
        },
        "href" : "https://api.spotify.com/v1/albums/3ux8Ho6i7Gj9nkgrqp55iQ",
        "id" : "3ux8Ho6i7Gj9nkgrqp55iQ",
        "images" : [ {
          "height" : 640,
          "url" : "https://i.scdn.co/image/ab67616d0000b273795aab6b9b823df022fb9531",
          "width" : 640
        }, {
          "height" : 300,
          "url" : "https://i.scdn.co/image/ab67616d00001e02795aab6b9b823df022fb9531",
          "width" : 300
        }, {
          "height" : 64,
          "url" : "https://i.scdn.co/image/ab67616d00004851795aab6b9b823df022fb9531",
          "width" : 64
        } ],
        "name" : "Azusa Praise - Jubilee!",
        "release_date" : "2000-09-26",
        "release_date_precision" : "day",
        "total_tracks" : 14,
        "type" : "album",
        "uri" : "spotify:album:3ux8Ho6i7Gj9nkgrqp55iQ"
      },
      "artists" : [ {
        "external_urls" : {
          "spotify" : "https://open.spotify.com/artist/34lEZF8ruBmrfX93YZCE9P"
        },
        "href" : "https://api.spotify.com/v1/artists/34lEZF8ruBmrfX93YZCE9P",
        "id" : "34lEZF8ruBmrfX93YZCE9P",
        "name" : "Carlton Pearson",
        "type" : "artist",
        "uri" : "spotify:artist:34lEZF8ruBmrfX93YZCE9P"
      } ],
      "disc_number" : 1,
      "duration_ms" : 733866,
      "explicit" : false,
      "external_ids" : {
        "isrc" : "USAT20002176"
      },
      "external_urls" : {
        "spotify" : "https://open.spotify.com/track/7HoawPrwGPJHGKZOeEOICj"
      },
      "href" : "https://api.spotify.com/v1/tracks/7HoawPrwGPJHGKZOeEOICj",
      "id" : "7HoawPrwGPJHGKZOeEOICj",
      "is_local" : false,
      "is_playable" : true,
      "name" : "Worship Medley: Fill My Cup Lord / Fill This Place / Wonderful / Communion / You Are the Lord",
      "popularity" : 13,
      "preview_url" : "https://p.scdn.co/mp3-preview/cde9d946244b4162ae59974dd54e32be20526f30?cid=774b29d4f13844c495f206cafdad9c86",
      "track_number" : 11,
      "type" : "track",
      "uri" : "spotify:track:7HoawPrwGPJHGKZOeEOICj"
    }, {
      "album" : {
        "album_type" : "album",
        "artists" : [ {
          "external_urls" : {
            "spotify" : "https://open.spotify.com/artist/5YxebzzreNswbtYC1td4cx"
          },
          "href" : "https://api.spotify.com/v1/artists/5YxebzzreNswbtYC1td4cx",
          "id" : "5YxebzzreNswbtYC1td4cx",
          "name" : "Tasha Cobbs Leonard",
          "type" : "artist",
          "uri" : "spotify:artist:5YxebzzreNswbtYC1td4cx"
        } ],
        "external_urls" : {
          "spotify" : "https://open.spotify.com/album/1CKeX9YM9DPU57BVRf2qdr"
        },
        "href" : "https://api.spotify.com/v1/albums/1CKeX9YM9DPU57BVRf2qdr",
        "id" : "1CKeX9YM9DPU57BVRf2qdr",
        "images" : [ {
          "height" : 640,
          "url" : "https://i.scdn.co/image/ab67616d0000b27367c6fa9255fb7f7ebfbdcd23",
          "width" : 640
        }, {
          "height" : 300,
          "url" : "https://i.scdn.co/image/ab67616d00001e0267c6fa9255fb7f7ebfbdcd23",
          "width" : 300
        }, {
          "height" : 64,
          "url" : "https://i.scdn.co/image/ab67616d0000485167c6fa9255fb7f7ebfbdcd23",
          "width" : 64
        } ],
        "name" : "Tasha Cobbs Leonard Collection",
        "release_date" : "2020-02-14",
        "release_date_precision" : "day",
        "total_tracks" : 49,
        "type" : "album",
        "uri" : "spotify:album:1CKeX9YM9DPU57BVRf2qdr"
      },
      "artists" : [ {
        "external_urls" : {
          "spotify" : "https://open.spotify.com/artist/5YxebzzreNswbtYC1td4cx"
        },
        "href" : "https://api.spotify.com/v1/artists/5YxebzzreNswbtYC1td4cx",
        "id" : "5YxebzzreNswbtYC1td4cx",
        "name" : "Tasha Cobbs Leonard",
        "type" : "artist",
        "uri" : "spotify:artist:5YxebzzreNswbtYC1td4cx"
      } ],
      "disc_number" : 1,
      "duration_ms" : 54193,
      "explicit" : false,
      "external_ids" : {
        "isrc" : "USUM71813170"
      },
      "external_urls" : {
        "spotify" : "https://open.spotify.com/track/6PQQs4lx9VEClcFj8MsRCa"
      },
      "href" : "https://api.spotify.com/v1/tracks/6PQQs4lx9VEClcFj8MsRCa",
      "id" : "6PQQs4lx9VEClcFj8MsRCa",
      "is_local" : false,
      "is_playable" : true,
      "name" : "Fill My Cup Lord - Live",
      "popularity" : 15,
      "preview_url" : null,
      "track_number" : 45,
      "type" : "track",
      "uri" : "spotify:track:6PQQs4lx9VEClcFj8MsRCa"
    }, {
      "album" : {
        "album_type" : "album",
        "artists" : [ {
          "external_urls" : {
            "spotify" : "https://open.spotify.com/artist/4yXxlriPidNDMzvNGqUKA3"
          },
          "href" : "https://api.spotify.com/v1/artists/4yXxlriPidNDMzvNGqUKA3",
          "id" : "4yXxlriPidNDMzvNGqUKA3",
          "name" : "Jessy Dixon",
          "type" : "artist",
          "uri" : "spotify:artist:4yXxlriPidNDMzvNGqUKA3"
        } ],
        "external_urls" : {
          "spotify" : "https://open.spotify.com/album/4vjFJlkIwdD1alaZVtkcSx"
        },
        "href" : "https://api.spotify.com/v1/albums/4vjFJlkIwdD1alaZVtkcSx",
        "id" : "4vjFJlkIwdD1alaZVtkcSx",
        "images" : [ {
          "height" : 640,
          "url" : "https://i.scdn.co/image/ab67616d0000b273f1861b49dac9b306f7ea1627",
          "width" : 640
        }, {
          "height" : 300,
          "url" : "https://i.scdn.co/image/ab67616d00001e02f1861b49dac9b306f7ea1627",
          "width" : 300
        }, {
          "height" : 64,
          "url" : "https://i.scdn.co/image/ab67616d00004851f1861b49dac9b306f7ea1627",
          "width" : 64
        } ],
        "name" : "Touch Me, Lord Jesus",
        "release_date" : "2006-01-01",
        "release_date_precision" : "day",
        "total_tracks" : 10,
        "type" : "album",
        "uri" : "spotify:album:4vjFJlkIwdD1alaZVtkcSx"
      },
      "artists" : [ {
        "external_urls" : {
          "spotify" : "https://open.spotify.com/artist/4yXxlriPidNDMzvNGqUKA3"
        },
        "href" : "https://api.spotify.com/v1/artists/4yXxlriPidNDMzvNGqUKA3",
        "id" : "4yXxlriPidNDMzvNGqUKA3",
        "name" : "Jessy Dixon",
        "type" : "artist",
        "uri" : "spotify:artist:4yXxlriPidNDMzvNGqUKA3"
      } ],
      "disc_number" : 1,
      "duration_ms" : 229226,
      "explicit" : false,
      "external_ids" : {
        "isrc" : "US3270402121"
      },
      "external_urls" : {
        "spotify" : "https://open.spotify.com/track/7wIUROTRqsdQ2gXgBODWl4"
      },
      "href" : "https://api.spotify.com/v1/tracks/7wIUROTRqsdQ2gXgBODWl4",
      "id" : "7wIUROTRqsdQ2gXgBODWl4",
      "is_local" : false,
      "is_playable" : true,
      "name" : "Fill My Cup, Lord",
      "popularity" : 15,
      "preview_url" : null,
      "track_number" : 5,
      "type" : "track",
      "uri" : "spotify:track:7wIUROTRqsdQ2gXgBODWl4"
    }, {
      "album" : {
        "album_type" : "album",
        "artists" : [ {
          "external_urls" : {
            "spotify" : "https://open.spotify.com/artist/1WwOwiV8aUE5RABgYamU0p"
          },
          "href" : "https://api.spotify.com/v1/artists/1WwOwiV8aUE5RABgYamU0p",
          "id" : "1WwOwiV8aUE5RABgYamU0p",
          "name" : "Denzel Prempeh",
          "type" : "artist",
          "uri" : "spotify:artist:1WwOwiV8aUE5RABgYamU0p"
        } ],
        "external_urls" : {
          "spotify" : "https://open.spotify.com/album/5nskXzeE3eYkoi48SEpeVo"
        },
        "href" : "https://api.spotify.com/v1/albums/5nskXzeE3eYkoi48SEpeVo",
        "id" : "5nskXzeE3eYkoi48SEpeVo",
        "images" : [ {
          "height" : 640,
          "url" : "https://i.scdn.co/image/ab67616d0000b2736909132d691a3fcf13489b73",
          "width" : 640
        }, {
          "height" : 300,
          "url" : "https://i.scdn.co/image/ab67616d00001e026909132d691a3fcf13489b73",
          "width" : 300
        }, {
          "height" : 64,
          "url" : "https://i.scdn.co/image/ab67616d000048516909132d691a3fcf13489b73",
          "width" : 64
        } ],
        "name" : "A Sound from Heaven",
        "release_date" : "2015-10-27",
        "release_date_precision" : "day",
        "total_tracks" : 7,
        "type" : "album",
        "uri" : "spotify:album:5nskXzeE3eYkoi48SEpeVo"
      },
      "artists" : [ {
        "external_urls" : {
          "spotify" : "https://open.spotify.com/artist/1WwOwiV8aUE5RABgYamU0p"
        },
        "href" : "https://api.spotify.com/v1/artists/1WwOwiV8aUE5RABgYamU0p",
        "id" : "1WwOwiV8aUE5RABgYamU0p",
        "name" : "Denzel Prempeh",
        "type" : "artist",
        "uri" : "spotify:artist:1WwOwiV8aUE5RABgYamU0p"
      }, {
        "external_urls" : {
          "spotify" : "https://open.spotify.com/artist/79lpKoG0a4eaUzWFaXBHby"
        },
        "href" : "https://api.spotify.com/v1/artists/79lpKoG0a4eaUzWFaXBHby",
        "id" : "79lpKoG0a4eaUzWFaXBHby",
        "name" : "Isaiah Fosu Kwakye",
        "type" : "artist",
        "uri" : "spotify:artist:79lpKoG0a4eaUzWFaXBHby"
      } ],
      "disc_number" : 1,
      "duration_ms" : 322533,
      "explicit" : false,
      "external_ids" : {
        "isrc" : "TCACJ1554087"
      },
      "external_urls" : {
        "spotify" : "https://open.spotify.com/track/5U0eZ8qW4z3VtRguZu25Iy"
      },
      "href" : "https://api.spotify.com/v1/tracks/5U0eZ8qW4z3VtRguZu25Iy",
      "id" : "5U0eZ8qW4z3VtRguZu25Iy",
      "is_local" : false,
      "is_playable" : true,
      "name" : "Fill My Cup Lord",
      "popularity" : 16,
      "preview_url" : "https://p.scdn.co/mp3-preview/848e81b9dade701d3c7ac2ff8455a80d82b40edd?cid=774b29d4f13844c495f206cafdad9c86",
      "track_number" : 2,
      "type" : "track",
      "uri" : "spotify:track:5U0eZ8qW4z3VtRguZu25Iy"
    }, {
      "album" : {
        "album_type" : "album",
        "artists" : [ {
          "external_urls" : {
            "spotify" : "https://open.spotify.com/artist/1mmySIC8yK07j45SHfySfM"
          },
          "href" : "https://api.spotify.com/v1/artists/1mmySIC8yK07j45SHfySfM",
          "id" : "1mmySIC8yK07j45SHfySfM",
          "name" : "Studio Musicians",
          "type" : "artist",
          "uri" : "spotify:artist:1mmySIC8yK07j45SHfySfM"
        } ],
        "external_urls" : {
          "spotify" : "https://open.spotify.com/album/0cPZ8ADAZ9g5Sipe0Yz0XR"
        },
        "href" : "https://api.spotify.com/v1/albums/0cPZ8ADAZ9g5Sipe0Yz0XR",
        "id" : "0cPZ8ADAZ9g5Sipe0Yz0XR",
        "images" : [ {
          "height" : 640,
          "url" : "https://i.scdn.co/image/ab67616d0000b27358d301ab3ae00ee3bfbdd652",
          "width" : 640
        }, {
          "height" : 300,
          "url" : "https://i.scdn.co/image/ab67616d00001e0258d301ab3ae00ee3bfbdd652",
          "width" : 300
        }, {
          "height" : 64,
          "url" : "https://i.scdn.co/image/ab67616d0000485158d301ab3ae00ee3bfbdd652",
          "width" : 64
        } ],
        "name" : "America's 25 Favorite Hymns Vol. 2",
        "release_date" : "1996",
        "release_date_precision" : "year",
        "total_tracks" : 25,
        "type" : "album",
        "uri" : "spotify:album:0cPZ8ADAZ9g5Sipe0Yz0XR"
      },
      "artists" : [ {
        "external_urls" : {
          "spotify" : "https://open.spotify.com/artist/1xkMfaBd050S5qELAsrmVZ"
        },
        "href" : "https://api.spotify.com/v1/artists/1xkMfaBd050S5qELAsrmVZ",
        "id" : "1xkMfaBd050S5qELAsrmVZ",
        "name" : "The Nashville String Machine",
        "type" : "artist",
        "uri" : "spotify:artist:1xkMfaBd050S5qELAsrmVZ"
      } ],
      "disc_number" : 1,
      "duration_ms" : 154013,
      "explicit" : false,
      "external_ids" : {
        "isrc" : "USA5W0403908"
      },
      "external_urls" : {
        "spotify" : "https://open.spotify.com/track/18sZLxJEXlutES9XLeTv4D"
      },
      "href" : "https://api.spotify.com/v1/tracks/18sZLxJEXlutES9XLeTv4D",
      "id" : "18sZLxJEXlutES9XLeTv4D",
      "is_local" : false,
      "is_playable" : true,
      "name" : "Fill My Cup Lord",
      "popularity" : 14,
      "preview_url" : "https://p.scdn.co/mp3-preview/529707458e3e93dc18ed825ef308452723fc21cf?cid=774b29d4f13844c495f206cafdad9c86",
      "track_number" : 12,
      "type" : "track",
      "uri" : "spotify:track:18sZLxJEXlutES9XLeTv4D"
    }, {
      "album" : {
        "album_type" : "album",
        "artists" : [ {
          "external_urls" : {
            "spotify" : "https://open.spotify.com/artist/0XOGhQGVg5HkdudMPgyqYj"
          },
          "href" : "https://api.spotify.com/v1/artists/0XOGhQGVg5HkdudMPgyqYj",
          "id" : "0XOGhQGVg5HkdudMPgyqYj",
          "name" : "George Beverly Shea",
          "type" : "artist",
          "uri" : "spotify:artist:0XOGhQGVg5HkdudMPgyqYj"
        } ],
        "external_urls" : {
          "spotify" : "https://open.spotify.com/album/42XlDhfa7vm13WDAn4ssqO"
        },
        "href" : "https://api.spotify.com/v1/albums/42XlDhfa7vm13WDAn4ssqO",
        "id" : "42XlDhfa7vm13WDAn4ssqO",
        "images" : [ {
          "height" : 640,
          "url" : "https://i.scdn.co/image/ab67616d0000b27358de6fb1ccf929beeb7c55cc",
          "width" : 640
        }, {
          "height" : 300,
          "url" : "https://i.scdn.co/image/ab67616d00001e0258de6fb1ccf929beeb7c55cc",
          "width" : 300
        }, {
          "height" : 64,
          "url" : "https://i.scdn.co/image/ab67616d0000485158de6fb1ccf929beeb7c55cc",
          "width" : 64
        } ],
        "name" : "If That Isn't Love",
        "release_date" : "1999-01-01",
        "release_date_precision" : "day",
        "total_tracks" : 20,
        "type" : "album",
        "uri" : "spotify:album:42XlDhfa7vm13WDAn4ssqO"
      },
      "artists" : [ {
        "external_urls" : {
          "spotify" : "https://open.spotify.com/artist/0XOGhQGVg5HkdudMPgyqYj"
        },
        "href" : "https://api.spotify.com/v1/artists/0XOGhQGVg5HkdudMPgyqYj",
        "id" : "0XOGhQGVg5HkdudMPgyqYj",
        "name" : "George Beverly Shea",
        "type" : "artist",
        "uri" : "spotify:artist:0XOGhQGVg5HkdudMPgyqYj"
      } ],
      "disc_number" : 1,
      "duration_ms" : 142066,
      "explicit" : false,
      "external_ids" : {
        "isrc" : "USSW10900008"
      },
      "external_urls" : {
        "spotify" : "https://open.spotify.com/track/4bjRsKZhlkIQyOFIYXHVN3"
      },
      "href" : "https://api.spotify.com/v1/tracks/4bjRsKZhlkIQyOFIYXHVN3",
      "id" : "4bjRsKZhlkIQyOFIYXHVN3",
      "is_local" : false,
      "is_playable" : true,
      "name" : "Fill My Cup, Lord",
      "popularity" : 10,
      "preview_url" : null,
      "track_number" : 8,
      "type" : "track",
      "uri" : "spotify:track:4bjRsKZhlkIQyOFIYXHVN3"
    }, {
      "album" : {
        "album_type" : "album",
        "artists" : [ {
          "external_urls" : {
            "spotify" : "https://open.spotify.com/artist/6dYBEqcMp5Nk4vu1sxGPEc"
          },
          "href" : "https://api.spotify.com/v1/artists/6dYBEqcMp5Nk4vu1sxGPEc",
          "id" : "6dYBEqcMp5Nk4vu1sxGPEc",
          "name" : "Vocal Union",
          "type" : "artist",
          "uri" : "spotify:artist:6dYBEqcMp5Nk4vu1sxGPEc"
        } ],
        "external_urls" : {
          "spotify" : "https://open.spotify.com/album/5EYurTGXZcmVlrdZCi8Sse"
        },
        "href" : "https://api.spotify.com/v1/albums/5EYurTGXZcmVlrdZCi8Sse",
        "id" : "5EYurTGXZcmVlrdZCi8Sse",
        "images" : [ {
          "height" : 640,
          "url" : "https://i.scdn.co/image/ab67616d0000b273e8c26a7608dbaa696acff5e8",
          "width" : 640
        }, {
          "height" : 300,
          "url" : "https://i.scdn.co/image/ab67616d00001e02e8c26a7608dbaa696acff5e8",
          "width" : 300
        }, {
          "height" : 64,
          "url" : "https://i.scdn.co/image/ab67616d00004851e8c26a7608dbaa696acff5e8",
          "width" : 64
        } ],
        "name" : "The Vocal Union",
        "release_date" : "1995",
        "release_date_precision" : "year",
        "total_tracks" : 10,
        "type" : "album",
        "uri" : "spotify:album:5EYurTGXZcmVlrdZCi8Sse"
      },
      "artists" : [ {
        "external_urls" : {
          "spotify" : "https://open.spotify.com/artist/6dYBEqcMp5Nk4vu1sxGPEc"
        },
        "href" : "https://api.spotify.com/v1/artists/6dYBEqcMp5Nk4vu1sxGPEc",
        "id" : "6dYBEqcMp5Nk4vu1sxGPEc",
        "name" : "Vocal Union",
        "type" : "artist",
        "uri" : "spotify:artist:6dYBEqcMp5Nk4vu1sxGPEc"
      } ],
      "disc_number" : 1,
      "duration_ms" : 167106,
      "explicit" : false,
      "external_ids" : {
        "isrc" : "ushm90592543"
      },
      "external_urls" : {
        "spotify" : "https://open.spotify.com/track/4Lk1jztiWFIEjKskPwzqhD"
      },
      "href" : "https://api.spotify.com/v1/tracks/4Lk1jztiWFIEjKskPwzqhD",
      "id" : "4Lk1jztiWFIEjKskPwzqhD",
      "is_local" : false,
      "is_playable" : true,
      "name" : "Fill My Cup, Lord",
      "popularity" : 11,
      "preview_url" : "https://p.scdn.co/mp3-preview/7e725ae1d7f9b6272de299b655ab3d1f4275714f?cid=774b29d4f13844c495f206cafdad9c86",
      "track_number" : 7,
      "type" : "track",
      "uri" : "spotify:track:4Lk1jztiWFIEjKskPwzqhD"
    }, {
      "album" : {
        "album_type" : "album",
        "artists" : [ {
          "external_urls" : {
            "spotify" : "https://open.spotify.com/artist/17mGEeYqCrVPVsfiPhaCR3"
          },
          "href" : "https://api.spotify.com/v1/artists/17mGEeYqCrVPVsfiPhaCR3",
          "id" : "17mGEeYqCrVPVsfiPhaCR3",
          "name" : "Golden State Baptist College",
          "type" : "artist",
          "uri" : "spotify:artist:17mGEeYqCrVPVsfiPhaCR3"
        } ],
        "external_urls" : {
          "spotify" : "https://open.spotify.com/album/1KdcJGUEL7bfZB9b1zp0GI"
        },
        "href" : "https://api.spotify.com/v1/albums/1KdcJGUEL7bfZB9b1zp0GI",
        "id" : "1KdcJGUEL7bfZB9b1zp0GI",
        "images" : [ {
          "height" : 640,
          "url" : "https://i.scdn.co/image/ab67616d0000b273399065727e3fdb49077c5d18",
          "width" : 640
        }, {
          "height" : 300,
          "url" : "https://i.scdn.co/image/ab67616d00001e02399065727e3fdb49077c5d18",
          "width" : 300
        }, {
          "height" : 64,
          "url" : "https://i.scdn.co/image/ab67616d00004851399065727e3fdb49077c5d18",
          "width" : 64
        } ],
        "name" : "Some Day",
        "release_date" : "2012-05-04",
        "release_date_precision" : "day",
        "total_tracks" : 14,
        "type" : "album",
        "uri" : "spotify:album:1KdcJGUEL7bfZB9b1zp0GI"
      },
      "artists" : [ {
        "external_urls" : {
          "spotify" : "https://open.spotify.com/artist/17mGEeYqCrVPVsfiPhaCR3"
        },
        "href" : "https://api.spotify.com/v1/artists/17mGEeYqCrVPVsfiPhaCR3",
        "id" : "17mGEeYqCrVPVsfiPhaCR3",
        "name" : "Golden State Baptist College",
        "type" : "artist",
        "uri" : "spotify:artist:17mGEeYqCrVPVsfiPhaCR3"
      } ],
      "disc_number" : 1,
      "duration_ms" : 176191,
      "explicit" : false,
      "external_ids" : {
        "isrc" : "ushm21219645"
      },
      "external_urls" : {
        "spotify" : "https://open.spotify.com/track/06cRE7px0nYaNu1unUEBK7"
      },
      "href" : "https://api.spotify.com/v1/tracks/06cRE7px0nYaNu1unUEBK7",
      "id" : "06cRE7px0nYaNu1unUEBK7",
      "is_local" : false,
      "is_playable" : true,
      "name" : "Fill My Cup, Lord",
      "popularity" : 10,
      "preview_url" : "https://p.scdn.co/mp3-preview/5e874591fcfaa8f22f7385c4936e9c73f44ad20f?cid=774b29d4f13844c495f206cafdad9c86",
      "track_number" : 10,
      "type" : "track",
      "uri" : "spotify:track:06cRE7px0nYaNu1unUEBK7"
    }, {
      "album" : {
        "album_type" : "album",
        "artists" : [ {
          "external_urls" : {
            "spotify" : "https://open.spotify.com/artist/7CUYweCBLcGYHhXo0gt0ss"
          },
          "href" : "https://api.spotify.com/v1/artists/7CUYweCBLcGYHhXo0gt0ss",
          "id" : "7CUYweCBLcGYHhXo0gt0ss",
          "name" : "Angela Primm",
          "type" : "artist",
          "uri" : "spotify:artist:7CUYweCBLcGYHhXo0gt0ss"
        } ],
        "external_urls" : {
          "spotify" : "https://open.spotify.com/album/0YmPgPd77OPOMY8MNIsj8s"
        },
        "href" : "https://api.spotify.com/v1/albums/0YmPgPd77OPOMY8MNIsj8s",
        "id" : "0YmPgPd77OPOMY8MNIsj8s",
        "images" : [ {
          "height" : 640,
          "url" : "https://i.scdn.co/image/ab67616d0000b27373753d7cf18606ac39c67fa5",
          "width" : 640
        }, {
          "height" : 300,
          "url" : "https://i.scdn.co/image/ab67616d00001e0273753d7cf18606ac39c67fa5",
          "width" : 300
        }, {
          "height" : 64,
          "url" : "https://i.scdn.co/image/ab67616d0000485173753d7cf18606ac39c67fa5",
          "width" : 64
        } ],
        "name" : "Sanctuary",
        "release_date" : "2012-08-01",
        "release_date_precision" : "day",
        "total_tracks" : 11,
        "type" : "album",
        "uri" : "spotify:album:0YmPgPd77OPOMY8MNIsj8s"
      },
      "artists" : [ {
        "external_urls" : {
          "spotify" : "https://open.spotify.com/artist/7CUYweCBLcGYHhXo0gt0ss"
        },
        "href" : "https://api.spotify.com/v1/artists/7CUYweCBLcGYHhXo0gt0ss",
        "id" : "7CUYweCBLcGYHhXo0gt0ss",
        "name" : "Angela Primm",
        "type" : "artist",
        "uri" : "spotify:artist:7CUYweCBLcGYHhXo0gt0ss"
      } ],
      "disc_number" : 1,
      "duration_ms" : 225880,
      "explicit" : false,
      "external_ids" : {
        "isrc" : "usx9p1203223"
      },
      "external_urls" : {
        "spotify" : "https://open.spotify.com/track/6kE5gT8AU3ZVqkC71Aytr5"
      },
      "href" : "https://api.spotify.com/v1/tracks/6kE5gT8AU3ZVqkC71Aytr5",
      "id" : "6kE5gT8AU3ZVqkC71Aytr5",
      "is_local" : false,
      "is_playable" : true,
      "name" : "Fill My Cup Lord",
      "popularity" : 10,
      "preview_url" : "https://p.scdn.co/mp3-preview/991b97d162a6abb6a3c5a90ea3365511ab23e24b?cid=774b29d4f13844c495f206cafdad9c86",
      "track_number" : 2,
      "type" : "track",
      "uri" : "spotify:track:6kE5gT8AU3ZVqkC71Aytr5"
    }, {
      "album" : {
        "album_type" : "album",
        "artists" : [ {
          "external_urls" : {
            "spotify" : "https://open.spotify.com/artist/5C8kymLzxGEAPJ3aNdFciB"
          },
          "href" : "https://api.spotify.com/v1/artists/5C8kymLzxGEAPJ3aNdFciB",
          "id" : "5C8kymLzxGEAPJ3aNdFciB",
          "name" : "The Martins",
          "type" : "artist",
          "uri" : "spotify:artist:5C8kymLzxGEAPJ3aNdFciB"
        } ],
        "external_urls" : {
          "spotify" : "https://open.spotify.com/album/66juCnbd413Z1cD98RqH6T"
        },
        "href" : "https://api.spotify.com/v1/albums/66juCnbd413Z1cD98RqH6T",
        "id" : "66juCnbd413Z1cD98RqH6T",
        "images" : [ {
          "height" : 640,
          "url" : "https://i.scdn.co/image/ab67616d0000b273d538f50e428121a27a6f94dd",
          "width" : 640
        }, {
          "height" : 300,
          "url" : "https://i.scdn.co/image/ab67616d00001e02d538f50e428121a27a6f94dd",
          "width" : 300
        }, {
          "height" : 64,
          "url" : "https://i.scdn.co/image/ab67616d00004851d538f50e428121a27a6f94dd",
          "width" : 64
        } ],
        "name" : "The Ultimate Playlist",
        "release_date" : "2018-10-12",
        "release_date_precision" : "day",
        "total_tracks" : 35,
        "type" : "album",
        "uri" : "spotify:album:66juCnbd413Z1cD98RqH6T"
      },
      "artists" : [ {
        "external_urls" : {
          "spotify" : "https://open.spotify.com/artist/5C8kymLzxGEAPJ3aNdFciB"
        },
        "href" : "https://api.spotify.com/v1/artists/5C8kymLzxGEAPJ3aNdFciB",
        "id" : "5C8kymLzxGEAPJ3aNdFciB",
        "name" : "The Martins",
        "type" : "artist",
        "uri" : "spotify:artist:5C8kymLzxGEAPJ3aNdFciB"
      } ],
      "disc_number" : 1,
      "duration_ms" : 140226,
      "explicit" : false,
      "external_ids" : {
        "isrc" : "QMABW1400007"
      },
      "external_urls" : {
        "spotify" : "https://open.spotify.com/track/4br4D9O84bklQvunElM8El"
      },
      "href" : "https://api.spotify.com/v1/tracks/4br4D9O84bklQvunElM8El",
      "id" : "4br4D9O84bklQvunElM8El",
      "is_local" : false,
      "is_playable" : true,
      "name" : "Come, Thou Fount Of Every Blessing / Fill My Cup, Lord / Spirit Of The Living God - Medley",
      "popularity" : 7,
      "preview_url" : null,
      "track_number" : 21,
      "type" : "track",
      "uri" : "spotify:track:4br4D9O84bklQvunElM8El"
    } ],
    "limit" : 10,
    "next" : "https://api.spotify.com/v1/search?query=Fill+My+Cup%2C+Lord&type=track&market=US&offset=15&limit=10",
    "offset" : 5,
    "previous" : "https://api.spotify.com/v1/search?query=Fill+My+Cup%2C+Lord&type=track&market=US&offset=0&limit=10",
    "total" : 109
  }
}