{
  "tracks" : {
    "href" : "https://api.spotify.com/v1/search?query=May+God+Be+With+You&type=track&market=US&offset=5&limit=10",
    "items" : [ {
      "album" : {
        "album_type" : "album",
        "artists" : [ {
          "external_urls" : {
            "spotify" : "https://open.spotify.com/artist/0Te1NusV6mkAMJ1VAkzJiX"
          },
          "href" : "https://api.spotify.com/v1/artists/0Te1NusV6mkAMJ1VAkzJiX",
          "id" : "0Te1NusV6mkAMJ1VAkzJiX",
          "name" : "Kate Smith",
          "type" : "artist",
          "uri" : "spotify:artist:0Te1NusV6mkAMJ1VAkzJiX"
        } ],
        "external_urls" : {
          "spotify" : "https://open.spotify.com/album/4ySY7IHwQN4KM5YG93Icud"
        },
        "href" : "https://api.spotify.com/v1/albums/4ySY7IHwQN4KM5YG93Icud",
        "id" : "4ySY7IHwQN4KM5YG93Icud",
        "images" : [ {
          "height" : 640,
          "url" : "https://i.scdn.co/image/ab67616d0000b2734a656862da221db45bc89bde",
          "width" : 640
        }, {
          "height" : 300,
          "url" : "https://i.scdn.co/image/ab67616d00001e024a656862da221db45bc89bde",
          "width" : 300
        }, {
          "height" : 64,
          "url" : "https://i.scdn.co/image/ab67616d000048514a656862da221db45bc89bde",
          "width" : 64
        } ],
        "name" : "May God Be With You",
        "release_date" : "1968-09-01",
        "release_date_precision" : "day",
        "total_tracks" : 11,
        "type" : "album",
        "uri" : "spotify:album:4ySY7IHwQN4KM5YG93Icud"
      },
      "artists" : [ {
        "external_urls" : {
          "spotify" : "https://open.spotify.com/artist/0Te1NusV6mkAMJ1VAkzJiX"
        },
        "href" : "https://api.spotify.com/v1/artists/0Te1NusV6mkAMJ1VAkzJiX",
        "id" : "0Te1NusV6mkAMJ1VAkzJiX",
        "name" : "Kate Smith",
        "type" : "artist",
        "uri" : "spotify:artist:0Te1NusV6mkAMJ1VAkzJiX"
      } ],
      "disc_number" : 1,
      "duration_ms" : 192573,
      "explicit" : false,
      "external_ids" : {
        "isrc" : "USRC11801746"
      },
      "external_urls" : {
        "spotify" : "https://open.spotify.com/track/3xBn5oVPZSPiPrNbrksLuo"
      },
      "href" : "https://api.spotify.com/v1/tracks/3xBn5oVPZSPiPrNbrksLuo",
      "id" : "3xBn5oVPZSPiPrNbrksLuo",
      "is_local" : false,
      "is_playable" : true,
      "name" : "May God Be With You",
      "popularity" : 2,
      "preview_url" : "https://p.scdn.co/mp3-preview/4649401fbcd9862a7fd336e09c97fd77d7a1b550?cid=774b29d4f13844c495f206cafdad9c86",
      "track_number" : 11,
      "type" : "track",
      "uri" : "spotify:track:3xBn5oVPZSPiPrNbrksLuo"
    }, {
      "album" : {
        "album_type" : "compilation",
        "artists" : [ {
          "external_urls" : {
            "spotify" : "https://open.spotify.com/artist/0ckkj0a9CvIJr4h84B0OlN"
          },
          "href" : "https://api.spotify.com/v1/artists/0ckkj0a9CvIJr4h84B0OlN",
          "id" : "0ckkj0a9CvIJr4h84B0OlN",
          "name" : "The Clovers",
          "type" : "artist",
          "uri" : "spotify:artist:0ckkj0a9CvIJr4h84B0OlN"
        } ],
        "external_urls" : {
          "spotify" : "https://open.spotify.com/album/6tfGv9PH9Kx1fKpp2dVe4y"
        },
        "href" : "https://api.spotify.com/v1/albums/6tfGv9PH9Kx1fKpp2dVe4y",
        "id" : "6tfGv9PH9Kx1fKpp2dVe4y",
        "images" : [ {
          "height" : 640,
          "url" : "https://i.scdn.co/image/ab67616d0000b273ce5b8505b2fce099377d2857",
          "width" : 640
        }, {
          "height" : 300,
          "url" : "https://i.scdn.co/image/ab67616d00001e02ce5b8505b2fce099377d2857",
          "width" : 300
        }, {
          "height" : 64,
          "url" : "https://i.scdn.co/image/ab67616d00004851ce5b8505b2fce099377d2857",
          "width" : 64
        } ],
        "name" : "The Best Of The Clovers (Love Potion No. 9)",
        "release_date" : "1991-08-10",
        "release_date_precision" : "day",
        "total_tracks" : 23,
        "type" : "album",
        "uri" : "spotify:album:6tfGv9PH9Kx1fKpp2dVe4y"
      },
      "artists" : [ {
        "external_urls" : {
          "spotify" : "https://open.spotify.com/artist/0ckkj0a9CvIJr4h84B0OlN"
        },
        "href" : "https://api.spotify.com/v1/artists/0ckkj0a9CvIJr4h84B0OlN",
        "id" : "0ckkj0a9CvIJr4h84B0OlN",
        "name" : "The Clovers",
        "type" : "artist",
        "uri" : "spotify:artist:0ckkj0a9CvIJr4h84B0OlN"
      } ],
      "disc_number" : 1,
      "duration_ms" : 158106,
      "explicit" : false,
      "external_ids" : {
        "isrc" : "USCA20901940"
      },
      "external_urls" : {
        "spotify" : "https://open.spotify.com/track/6rxyBVqraDlrnpJF1cfuQD"
      },
      "href" : "https://api.spotify.com/v1/tracks/6rxyBVqraDlrnpJF1cfuQD",
      "id" : "6rxyBVqraDlrnpJF1cfuQD",
      "is_local" : false,
      "is_playable" : true,
      "name" : "Vaya Con Dios (May God Be With You)",
      "popularity" : 4,
      "preview_url" : null,
      "track_number" : 5,
      "type" : "track",
      "uri" : "spotify:track:6rxyBVqraDlrnpJF1cfuQD"
    }, {
      "album" : {
        "album_type" : "album",
        "artists" : [ {
          "external_urls" : {
            "spotify" : "https://open.spotify.com/artist/4kzKZExmgB0xijgF6blONc"
          },
          "href" : "https://api.spotify.com/v1/artists/4kzKZExmgB0xijgF6blONc",
          "id" : "4kzKZExmgB0xijgF6blONc",
          "name" : "David Huntsinger",
          "type" : "artist",
          "uri" : "spotify:artist:4kzKZExmgB0xijgF6blONc"
        } ],
        "external_urls" : {
          "spotify" : "https://open.spotify.com/album/0HwV448OiQkQESQ6s0Qzys"
        },
        "href" : "https://api.spotify.com/v1/albums/0HwV448OiQkQESQ6s0Qzys",
        "id" : "0HwV448OiQkQESQ6s0Qzys",
        "images" : [ {
          "height" : 640,
          "url" : "https://i.scdn.co/image/ab67616d0000b2734e9f412dbc13763a6b00547e",
          "width" : 640
        }, {
          "height" : 300,
          "url" : "https://i.scdn.co/image/ab67616d00001e024e9f412dbc13763a6b00547e",
          "width" : 300
        }, {
          "height" : 64,
          "url" : "https://i.scdn.co/image/ab67616d000048514e9f412dbc13763a6b00547e",
          "width" : 64
        } ],
        "name" : "Celtic Treasures",
        "release_date" : "2012-09-04",
        "release_date_precision" : "day",
        "total_tracks" : 11,
        "type" : "album",
        "uri" : "spotify:album:0HwV448OiQkQESQ6s0Qzys"
      },
      "artists" : [ {
        "external_urls" : {
          "spotify" : "https://open.spotify.com/artist/4kzKZExmgB0xijgF6blONc"
        },
        "href" : "https://api.spotify.com/v1/artists/4kzKZExmgB0xijgF6blONc",
        "id" : "4kzKZExmgB0xijgF6blONc",
        "name" : "David Huntsinger",
        "type" : "artist",
        "uri" : "spotify:artist:4kzKZExmgB0xijgF6blONc"
      } ],
      "disc_number" : 1,
      "duration_ms" : 221320,
      "explicit" : false,
      "external_ids" : {
        "isrc" : "USLF50801557"
      },
      "external_urls" : {
        "spotify" : "https://open.spotify.com/track/3N63NqXOolRNbCubXrIdmo"
      },
      "href" : "https://api.spotify.com/v1/tracks/3N63NqXOolRNbCubXrIdmo",
      "id" : "3N63NqXOolRNbCubXrIdmo",
      "is_local" : false,
      "is_playable" : true,
      "name" : "May the Grace of God Be With You (Parting Prayer)",
      "popularity" : 4,
      "preview_url" : "https://p.scdn.co/mp3-preview/37173aa78c990307add6fd15edc62cd4188e4ef7?cid=774b29d4f13844c495f206cafdad9c86",
      "track_number" : 11,
      "type" : "track",
      "uri" : "spotify:track:3N63NqXOolRNbCubXrIdmo"
    }, {
      "album" : {
        "album_type" : "album",
        "artists" : [ {
          "external_urls" : {
            "spotify" : "https://open.spotify.com/artist/7aWRi6pqwR80o5HyFO6u7q"
          },
          "href" : "https://api.spotify.com/v1/artists/7aWRi6pqwR80o5HyFO6u7q",
          "id" : "7aWRi6pqwR80o5HyFO6u7q",
          "name" : "The Godz",
          "type" : "artist",
          "uri" : "spotify:artist:7aWRi6pqwR80o5HyFO6u7q"
        } ],
        "external_urls" : {
          "spotify" : "https://open.spotify.com/album/4ZNi7Jfs7STNGGqB0Pm7u8"
        },
        "href" : "https://api.spotify.com/v1/albums/4ZNi7Jfs7STNGGqB0Pm7u8",
        "id" : "4ZNi7Jfs7STNGGqB0Pm7u8",
        "images" : [ {
          "height" : 640,
          "url" : "https://i.scdn.co/image/ab67616d0000b273efe96ae57d9b5473d5eecd9d",
          "width" : 640
        }, {
          "height" : 300,
          "url" : "https://i.scdn.co/image/ab67616d00001e02efe96ae57d9b5473d5eecd9d",
          "width" : 300
        }, {
          "height" : 64,
          "url" : "https://i.scdn.co/image/ab67616d00004851efe96ae57d9b5473d5eecd9d",
          "width" : 64
        } ],
        "name" : "Contact High with the Godz",
        "release_date" : "2010-11-09",
        "release_date_precision" : "day",
        "total_tracks" : 9,
        "type" : "album",
        "uri" : "spotify:album:4ZNi7Jfs7STNGGqB0Pm7u8"
      },
      "artists" : [ {
        "external_urls" : {
          "spotify" : "https://open.spotify.com/artist/7aWRi6pqwR80o5HyFO6u7q"
        },
        "href" : "https://api.spotify.com/v1/artists/7aWRi6pqwR80o5HyFO6u7q",
        "id" : "7aWRi6pqwR80o5HyFO6u7q",
        "name" : "The Godz",
        "type" : "artist",
        "uri" : "spotify:artist:7aWRi6pqwR80o5HyFO6u7q"
      } ],
      "disc_number" : 1,
      "duration_ms" : 93540,
      "explicit" : false,
      "external_ids" : {
        "isrc" : "QMPFN1200190"
      },
      "external_urls" : {
        "spotify" : "https://open.spotify.com/track/3xRUYxIBUWBLtRU5Pl7DCb"
      },
      "href" : "https://api.spotify.com/v1/tracks/3xRUYxIBUWBLtRU5Pl7DCb",
      "id" : "3xRUYxIBUWBLtRU5Pl7DCb",
      "is_local" : false,
      "is_playable" : true,
      "name" : "May You Never Be Alone",
      "popularity" : 3,
      "preview_url" : "https://p.scdn.co/mp3-preview/4a8889ac59e129335e55537c92b2de0f2476f943?cid=774b29d4f13844c495f206cafdad9c86",
      "track_number" : 9,
      "type" : "track",
      "uri" : "spotify:track:3xRUYxIBUWBLtRU5Pl7DCb"
    }, {
      "album" : {
        "album_type" : "album",
        "artists" : [ {
          "external_urls" : {
            "spotify" : "https://open.spotify.com/artist/0Te1NusV6mkAMJ1VAkzJiX"
          },
          "href" : "https://api.spotify.com/v1/artists/0Te1NusV6mkAMJ1VAkzJiX",
          "id" : "0Te1NusV6mkAMJ1VAkzJiX",
          "name" : "Kate Smith",
          "type" : "artist",
          "uri" : "spotify:artist:0Te1NusV6mkAMJ1VAkzJiX"
        } ],
        "external_urls" : {
          "spotify" : "https://open.spotify.com/album/4ySY7IHwQN4KM5YG93Icud"
        },
        "href" : "https://api.spotify.com/v1/albums/4ySY7IHwQN4KM5YG93Icud",
        "id" : "4ySY7IHwQN4KM5YG93Icud",
        "images" : [ {
          "height" : 640,
          "url" : "https://i.scdn.co/image/ab67616d0000b2734a656862da221db45bc89bde",
          "width" : 640
        }, {
          "height" : 300,
          "url" : "https://i.scdn.co/image/ab67616d00001e024a656862da221db45bc89bde",
          "width" : 300
        }, {
          "height" : 64,
          "url" : "https://i.scdn.co/image/ab67616d000048514a656862da221db45bc89bde",
          "width" : 64
        } ],
        "name" : "May God Be With You",
        "release_date" : "1968-09-01",
        "release_date_precision" : "day",
        "total_tracks" : 11,
        "type" : "album",
        "uri" : "spotify:album:4ySY7IHwQN4KM5YG93Icud"
      },
      "artists" : [ {
        "external_urls" : {
          "spotify" : "https://open.spotify.com/artist/0Te1NusV6mkAMJ1VAkzJiX"
        },
        "href" : "https://api.spotify.com/v1/artists/0Te1NusV6mkAMJ1VAkzJiX",
        "id" : "0Te1NusV6mkAMJ1VAkzJiX",
        "name" : "Kate Smith",
        "type" : "artist",
        "uri" : "spotify:artist:0Te1NusV6mkAMJ1VAkzJiX"
      } ],
      "disc_number" : 1,
      "duration_ms" : 187346,
      "explicit" : false,
      "external_ids" : {
        "isrc" : "USRC11801738"
      },
      "external_urls" : {
        "spotify" : "https://open.spotify.com/track/7fDGuXhyIh8EvcpYGSPwvr"
      },
      "href" : "https://api.spotify.com/v1/tracks/7fDGuXhyIh8EvcpYGSPwvr",
      "id" : "7fDGuXhyIh8EvcpYGSPwvr",
      "is_local" : false,
      "is_playable" : true,
      "name" : "Say a Little Prayer",
      "popularity" : 2,
      "preview_url" : "https://p.scdn.co/mp3-preview/f9494c59ef29cffb1b475d5268b620433043a8eb?cid=774b29d4f13844c495f206cafdad9c86",
      "track_number" : 1,
      "type" : "track",
      "uri" : "spotify:track:7fDGuXhyIh8EvcpYGSPwvr"
    }, {
      "album" : {
        "album_type" : "album",
        "artists" : [ {
          "external_urls" : {
            "spotify" : "https://open.spotify.com/artist/0Te1NusV6mkAMJ1VAkzJiX"
          },
          "href" : "https://api.spotify.com/v1/artists/0Te1NusV6mkAMJ1VAkzJiX",
          "id" : "0Te1NusV6mkAMJ1VAkzJiX",
          "name" : "Kate Smith",
          "type" : "artist",
          "uri" : "spotify:artist:0Te1NusV6mkAMJ1VAkzJiX"
        } ],
        "external_urls" : {
          "spotify" : "https://open.spotify.com/album/4ySY7IHwQN4KM5YG93Icud"
        },
        "href" : "https://api.spotify.com/v1/albums/4ySY7IHwQN4KM5YG93Icud",
        "id" : "4ySY7IHwQN4KM5YG93Icud",
        "images" : [ {
          "height" : 640,
          "url" : "https://i.scdn.co/image/ab67616d0000b2734a656862da221db45bc89bde",
          "width" : 640
        }, {
          "height" : 300,
          "url" : "https://i.scdn.co/image/ab67616d00001e024a656862da221db45bc89bde",
          "width" : 300
        }, {
          "height" : 64,
          "url" : "https://i.scdn.co/image/ab67616d000048514a656862da221db45bc89bde",
          "width" : 64
        } ],
        "name" : "May God Be With You",
        "release_date" : "1968-09-01",
        "release_date_precision" : "day",
        "total_tracks" : 11,
        "type" : "album",
        "uri" : "spotify:album:4ySY7IHwQN4KM5YG93Icud"
      },
      "artists" : [ {
        "external_urls" : {
          "spotify" : "https://open.spotify.com/artist/0Te1NusV6mkAMJ1VAkzJiX"
        },
        "href" : "https://api.spotify.com/v1/artists/0Te1NusV6mkAMJ1VAkzJiX",
        "id" : "0Te1NusV6mkAMJ1VAkzJiX",
        "name" : "Kate Smith",
        "type" : "artist",
        "uri" : "spotify:artist:0Te1NusV6mkAMJ1VAkzJiX"
      } ],
      "disc_number" : 1,
      "duration_ms" : 193186,
      "explicit" : false,
      "external_ids" : {
        "isrc" : "USRC11801739"
      },
      "external_urls" : {
        "spotify" : "https://open.spotify.com/track/7sT8EfjPENQZubdedNzUrD"
      },
      "href" : "https://api.spotify.com/v1/tracks/7sT8EfjPENQZubdedNzUrD",
      "id" : "7sT8EfjPENQZubdedNzUrD",
      "is_local" : false,
      "is_playable" : true,
      "name" : "Bless This House",
      "popularity" : 3,
      "preview_url" : "https://p.scdn.co/mp3-preview/9eca64fe54b093dc9d3d7a05c4f2ded5d2e42dd3?cid=774b29d4f13844c495f206cafdad9c86",
      "track_number" : 2,
      "type" : "track",
      "uri" : "spotify:track:7sT8EfjPENQZubdedNzUrD"
    }, {
      "album" : {
        "album_type" : "album",
        "artists" : [ {
          "external_urls" : {
            "spotify" : "https://open.spotify.com/artist/0Te1NusV6mkAMJ1VAkzJiX"
          },
          "href" : "https://api.spotify.com/v1/artists/0Te1NusV6mkAMJ1VAkzJiX",
          "id" : "0Te1NusV6mkAMJ1VAkzJiX",
          "name" : "Kate Smith",
          "type" : "artist",
          "uri" : "spotify:artist:0Te1NusV6mkAMJ1VAkzJiX"
        } ],
        "external_urls" : {
          "spotify" : "https://open.spotify.com/album/4ySY7IHwQN4KM5YG93Icud"
        },
        "href" : "https://api.spotify.com/v1/albums/4ySY7IHwQN4KM5YG93Icud",
        "id" : "4ySY7IHwQN4KM5YG93Icud",
        "images" : [ {
          "height" : 640,
          "url" : "https://i.scdn.co/image/ab67616d0000b2734a656862da221db45bc89bde",
          "width" : 640
        }, {
          "height" : 300,
          "url" : "https://i.scdn.co/image/ab67616d00001e024a656862da221db45bc89bde",
          "width" : 300
        }, {
          "height" : 64,
          "url" : "https://i.scdn.co/image/ab67616d000048514a656862da221db45bc89bde",
          "width" : 64
        } ],
        "name" : "May God Be With You",
        "release_date" : "1968-09-01",
        "release_date_precision" : "day",
        "total_tracks" : 11,
        "type" : "album",
        "uri" : "spotify:album:4ySY7IHwQN4KM5YG93Icud"
      },
      "artists" : [ {
        "external_urls" : {
          "spotify" : "https://open.spotify.com/artist/0Te1NusV6mkAMJ1VAkzJiX"
        },
        "href" : "https://api.spotify.com/v1/artists/0Te1NusV6mkAMJ1VAkzJiX",
        "id" : "0Te1NusV6mkAMJ1VAkzJiX",
        "name" : "Kate Smith",
        "type" : "artist",
        "uri" : "spotify:artist:0Te1NusV6mkAMJ1VAkzJiX"
      } ],
      "disc_number" : 1,
      "duration_ms" : 274613,
      "explicit" : false,
      "external_ids" : {
        "isrc" : "USRC11801742"
      },
      "external_urls" : {
        "spotify" : "https://open.spotify.com/track/3cCkjkWtm0SAyCJMtGEAh8"
      },
      "href" : "https://api.spotify.com/v1/tracks/3cCkjkWtm0SAyCJMtGEAh8",
      "id" : "3cCkjkWtm0SAyCJMtGEAh8",
      "is_local" : false,
      "is_playable" : true,
      "name" : "Pass Me Not",
      "popularity" : 2,
      "preview_url" : "https://p.scdn.co/mp3-preview/c75b68acf6f52642d2baf916f9a58d37863aca98?cid=774b29d4f13844c495f206cafdad9c86",
      "track_number" : 7,
      "type" : "track",
      "uri" : "spotify:track:3cCkjkWtm0SAyCJMtGEAh8"
    }, {
      "album" : {
        "album_type" : "single",
        "artists" : [ {
          "external_urls" : {
            "spotify" : "https://open.spotify.com/artist/04K4XkeDWVLIilcHHAAJ9n"
          },
          "href" : "https://api.spotify.com/v1/artists/04K4XkeDWVLIilcHHAAJ9n",
          "id" : "04K4XkeDWVLIilcHHAAJ9n",
          "name" : "Mind Compressor",
          "type" : "artist",
          "uri" : "spotify:artist:04K4XkeDWVLIilcHHAAJ9n"
        } ],
        "external_urls" : {
          "spotify" : "https://open.spotify.com/album/3qb2PGjjzqHdrYgWWXgYSx"
        },
        "href" : "https://api.spotify.com/v1/albums/3qb2PGjjzqHdrYgWWXgYSx",
        "id" : "3qb2PGjjzqHdrYgWWXgYSx",
        "images" : [ {
          "height" : 640,
          "url" : "https://i.scdn.co/image/ab67616d0000b273ea424b2c31226a178696efe0",
          "width" : 640
        }, {
          "height" : 300,
          "url" : "https://i.scdn.co/image/ab67616d00001e02ea424b2c31226a178696efe0",
          "width" : 300
        }, {
          "height" : 64,
          "url" : "https://i.scdn.co/image/ab67616d00004851ea424b2c31226a178696efe0",
          "width" : 64
        } ],
        "name" : "May God Be with You All",
        "release_date" : "2019-03-11",
        "release_date_precision" : "day",
        "total_tracks" : 3,
        "type" : "album",
        "uri" : "spotify:album:3qb2PGjjzqHdrYgWWXgYSx"
      },
      "artists" : [ {
        "external_urls" : {
          "spotify" : "https://open.spotify.com/artist/04K4XkeDWVLIilcHHAAJ9n"
        },
        "href" : "https://api.spotify.com/v1/artists/04K4XkeDWVLIilcHHAAJ9n",
        "id" : "04K4XkeDWVLIilcHHAAJ9n",
        "name" : "Mind Compressor",
        "type" : "artist",
        "uri" : "spotify:artist:04K4XkeDWVLIilcHHAAJ9n"
      }, {
        "external_urls" : {
          "spotify" : "https://open.spotify.com/artist/5I6ibYN9zhp6iqtJGuHjMt"
        },
        "href" : "https://api.spotify.com/v1/artists/5I6ibYN9zhp6iqtJGuHjMt",
        "id" : "5I6ibYN9zhp6iqtJGuHjMt",
        "name" : "FrenchFaces",
        "type" : "artist",
        "uri" : "spotify:artist:5I6ibYN9zhp6iqtJGuHjMt"
      } ],
      "disc_number" : 1,
      "duration_ms" : 291142,
      "explicit" : false,
      "external_ids" : {
        "isrc" : "BEFWX1908703"
      },
      "external_urls" : {
        "spotify" : "https://open.spotify.com/track/5KNmw3Y312e6hSxD4zUQCK"
      },
      "href" : "https://api.spotify.com/v1/tracks/5KNmw3Y312e6hSxD4zUQCK",
      "id" : "5KNmw3Y312e6hSxD4zUQCK",
      "is_local" : false,
      "is_playable" : true,
      "name" : "Swaggaton",
      "popularity" : 25,
      "preview_url" : "https://p.scdn.co/mp3-preview/53b3a10b1aa94ddaf41507609a6d220a558c66c8?cid=774b29d4f13844c495f206cafdad9c86",
      "track_number" : 3,
      "type" : "track",
      "uri" : "spotify:track:5KNmw3Y312e6hSxD4zUQCK"
    }, {
      "album" : {
        "album_type" : "single",
        "artists" : [ {
          "external_urls" : {
            "spotify" : "https://open.spotify.com/artist/04K4XkeDWVLIilcHHAAJ9n"
          },
          "href" : "https://api.spotify.com/v1/artists/04K4XkeDWVLIilcHHAAJ9n",
          "id" : "04K4XkeDWVLIilcHHAAJ9n",
          "name" : "Mind Compressor",
          "type" : "artist",
          "uri" : "spotify:artist:04K4XkeDWVLIilcHHAAJ9n"
        } ],
        "external_urls" : {
          "spotify" : "https://open.spotify.com/album/3qb2PGjjzqHdrYgWWXgYSx"
        },
        "href" : "https://api.spotify.com/v1/albums/3qb2PGjjzqHdrYgWWXgYSx",
        "id" : "3qb2PGjjzqHdrYgWWXgYSx",
        "images" : [ {
          "height" : 640,
          "url" : "https://i.scdn.co/image/ab67616d0000b273ea424b2c31226a178696efe0",
          "width" : 640
        }, {
          "height" : 300,
          "url" : "https://i.scdn.co/image/ab67616d00001e02ea424b2c31226a178696efe0",
          "width" : 300
        }, {
          "height" : 64,
          "url" : "https://i.scdn.co/image/ab67616d00004851ea424b2c31226a178696efe0",
          "width" : 64
        } ],
        "name" : "May God Be with You All",
        "release_date" : "2019-03-11",
        "release_date_precision" : "day",
        "total_tracks" : 3,
        "type" : "album",
        "uri" : "spotify:album:3qb2PGjjzqHdrYgWWXgYSx"
      },
      "artists" : [ {
        "external_urls" : {
          "spotify" : "https://open.spotify.com/artist/04K4XkeDWVLIilcHHAAJ9n"
        },
        "href" : "https://api.spotify.com/v1/artists/04K4XkeDWVLIilcHHAAJ9n",
        "id" : "04K4XkeDWVLIilcHHAAJ9n",
        "name" : "Mind Compressor",
        "type" : "artist",
        "uri" : "spotify:artist:04K4XkeDWVLIilcHHAAJ9n"
      } ],
      "disc_number" : 1,
      "duration_ms" : 255600,
      "explicit" : false,
      "external_ids" : {
        "isrc" : "BEFWX1908701"
      },
      "external_urls" : {
        "spotify" : "https://open.spotify.com/track/7FlvwRnETqxvt8g9G23mah"
      },
      "href" : "https://api.spotify.com/v1/tracks/7FlvwRnETqxvt8g9G23mah",
      "id" : "7FlvwRnETqxvt8g9G23mah",
      "is_local" : false,
      "is_playable" : true,
      "name" : "May God Be with You",
      "popularity" : 13,
      "preview_url" : "https://p.scdn.co/mp3-preview/b91d5e5e6e7b39e77c4c4e422281f10f04f4e469?cid=774b29d4f13844c495f206cafdad9c86",
      "track_number" : 1,
      "type" : "track",
      "uri" : "spotify:track:7FlvwRnETqxvt8g9G23mah"
    }, {
      "album" : {
        "album_type" : "single",
        "artists" : [ {
          "external_urls" : {
            "spotify" : "https://open.spotify.com/artist/0U96gLUUemVDC7E0LESPg6"
          },
          "href" : "https://api.spotify.com/v1/artists/0U96gLUUemVDC7E0LESPg6",
          "id" : "0U96gLUUemVDC7E0LESPg6",
          "name" : "Warren Stephens",
          "type" : "artist",
          "uri" : "spotify:artist:0U96gLUUemVDC7E0LESPg6"
        } ],
        "external_urls" : {
          "spotify" : "https://open.spotify.com/album/0uffOhp7T83hRz958AaCMN"
        },
        "href" : "https://api.spotify.com/v1/albums/0uffOhp7T83hRz958AaCMN",
        "id" : "0uffOhp7T83hRz958AaCMN",
        "images" : [ {
          "height" : 640,
          "url" : "https://i.scdn.co/image/ab67616d0000b273c671f64fc3fa0211875c10a2",
          "width" : 640
        }, {
          "height" : 300,
          "url" : "https://i.scdn.co/image/ab67616d00001e02c671f64fc3fa0211875c10a2",
          "width" : 300
        }, {
          "height" : 64,
          "url" : "https://i.scdn.co/image/ab67616d00004851c671f64fc3fa0211875c10a2",
          "width" : 64
        } ],
        "name" : "May God Be with You",
        "release_date" : "2019-11-21",
        "release_date_precision" : "day",
        "total_tracks" : 1,
        "type" : "album",
        "uri" : "spotify:album:0uffOhp7T83hRz958AaCMN"
      },
      "artists" : [ {
        "external_urls" : {
          "spotify" : "https://open.spotify.com/artist/0U96gLUUemVDC7E0LESPg6"
        },
        "href" : "https://api.spotify.com/v1/artists/0U96gLUUemVDC7E0LESPg6",
        "id" : "0U96gLUUemVDC7E0LESPg6",
        "name" : "Warren Stephens",
        "type" : "artist",
        "uri" : "spotify:artist:0U96gLUUemVDC7E0LESPg6"
      } ],
      "disc_number" : 1,
      "duration_ms" : 100402,
      "explicit" : false,
      "external_ids" : {
        "isrc" : "CALVP1913670"
      },
      "external_urls" : {
        "spotify" : "https://open.spotify.com/track/7EELupIhtC1SikaecMT9X9"
      },
      "href" : "https://api.spotify.com/v1/tracks/7EELupIhtC1SikaecMT9X9",
      "id" : "7EELupIhtC1SikaecMT9X9",
      "is_local" : false,
      "is_playable" : true,
      "name" : "May God Be with You",
      "popularity" : 0,
      "preview_url" : "https://p.scdn.co/mp3-preview/3d2bfb595bde35c9e8954a556dd9798ebfe10d8e?cid=774b29d4f13844c495f206cafdad9c86",
      "track_number" : 1,
      "type" : "track",
      "uri" : "spotify:track:7EELupIhtC1SikaecMT9X9"
    } ],
    "limit" : 10,
    "next" : "https://api.spotify.com/v1/search?query=May+God+Be+With+You&type=track&market=US&offset=15&limit=10",
    "offset" : 5,
    "previous" : "https://api.spotify.com/v1/search?query=May+God+Be+With+You&type=track&market=US&offset=0&limit=10",
    "total" : 83
  }
}