{
  "tracks" : {
    "href" : "https://api.spotify.com/v1/search?query=O+Come%2C+All+Ye+Faithful&type=track&market=US&offset=5&limit=10",
    "items" : [ {
      "album" : {
        "album_type" : "single",
        "artists" : [ {
          "external_urls" : {
            "spotify" : "https://open.spotify.com/artist/3YCKuqpv9nCsIhJ2v8SMix"
          },
          "href" : "https://api.spotify.com/v1/artists/3YCKuqpv9nCsIhJ2v8SMix",
          "id" : "3YCKuqpv9nCsIhJ2v8SMix",
          "name" : "Elevation Worship",
          "type" : "artist",
          "uri" : "spotify:artist:3YCKuqpv9nCsIhJ2v8SMix"
        } ],
        "external_urls" : {
          "spotify" : "https://open.spotify.com/album/60RYE09w9rWq0qg6IT9rha"
        },
        "href" : "https://api.spotify.com/v1/albums/60RYE09w9rWq0qg6IT9rha",
        "id" : "60RYE09w9rWq0qg6IT9rha",
        "images" : [ {
          "height" : 640,
          "url" : "https://i.scdn.co/image/ab67616d0000b2737402d3db7446d669e5794e4e",
          "width" : 640
        }, {
          "height" : 300,
          "url" : "https://i.scdn.co/image/ab67616d00001e027402d3db7446d669e5794e4e",
          "width" : 300
        }, {
          "height" : 64,
          "url" : "https://i.scdn.co/image/ab67616d000048517402d3db7446d669e5794e4e",
          "width" : 64
        } ],
        "name" : "O Come All Ye Faithful - Recorded at Sound Stage Studios Nashville",
        "release_date" : "2019-11-22",
        "release_date_precision" : "day",
        "total_tracks" : 1,
        "type" : "album",
        "uri" : "spotify:album:60RYE09w9rWq0qg6IT9rha"
      },
      "artists" : [ {
        "external_urls" : {
          "spotify" : "https://open.spotify.com/artist/3YCKuqpv9nCsIhJ2v8SMix"
        },
        "href" : "https://api.spotify.com/v1/artists/3YCKuqpv9nCsIhJ2v8SMix",
        "id" : "3YCKuqpv9nCsIhJ2v8SMix",
        "name" : "Elevation Worship",
        "type" : "artist",
        "uri" : "spotify:artist:3YCKuqpv9nCsIhJ2v8SMix"
      } ],
      "disc_number" : 1,
      "duration_ms" : 224527,
      "explicit" : false,
      "external_ids" : {
        "isrc" : "USPJT1900037"
      },
      "external_urls" : {
        "spotify" : "https://open.spotify.com/track/6Yr2cyWPpdHeWVsOwu9rzg"
      },
      "href" : "https://api.spotify.com/v1/tracks/6Yr2cyWPpdHeWVsOwu9rzg",
      "id" : "6Yr2cyWPpdHeWVsOwu9rzg",
      "is_local" : false,
      "is_playable" : true,
      "name" : "O Come All Ye Faithful - Recorded at Sound Stage Studios Nashville",
      "popularity" : 29,
      "preview_url" : "https://p.scdn.co/mp3-preview/340bc0f7f60a57b288694b91721b23f686aaf98e?cid=774b29d4f13844c495f206cafdad9c86",
      "track_number" : 1,
      "type" : "track",
      "uri" : "spotify:track:6Yr2cyWPpdHeWVsOwu9rzg"
    }, {
      "album" : {
        "album_type" : "album",
        "artists" : [ {
          "external_urls" : {
            "spotify" : "https://open.spotify.com/artist/3V1CgXZe3cFkJ9VDSeFKkl"
          },
          "href" : "https://api.spotify.com/v1/artists/3V1CgXZe3cFkJ9VDSeFKkl",
          "id" : "3V1CgXZe3cFkJ9VDSeFKkl",
          "name" : "Attila Fias",
          "type" : "artist",
          "uri" : "spotify:artist:3V1CgXZe3cFkJ9VDSeFKkl"
        } ],
        "external_urls" : {
          "spotify" : "https://open.spotify.com/album/1ZPpgQnJEJEHCycs1dWEHl"
        },
        "href" : "https://api.spotify.com/v1/albums/1ZPpgQnJEJEHCycs1dWEHl",
        "id" : "1ZPpgQnJEJEHCycs1dWEHl",
        "images" : [ {
          "height" : 640,
          "url" : "https://i.scdn.co/image/ab67616d0000b2734c76c6d3c0ccf1599d5e5d21",
          "width" : 640
        }, {
          "height" : 300,
          "url" : "https://i.scdn.co/image/ab67616d00001e024c76c6d3c0ccf1599d5e5d21",
          "width" : 300
        }, {
          "height" : 64,
          "url" : "https://i.scdn.co/image/ab67616d000048514c76c6d3c0ccf1599d5e5d21",
          "width" : 64
        } ],
        "name" : "Peaceful Christmas Harp",
        "release_date" : "2013-01-01",
        "release_date_precision" : "day",
        "total_tracks" : 14,
        "type" : "album",
        "uri" : "spotify:album:1ZPpgQnJEJEHCycs1dWEHl"
      },
      "artists" : [ {
        "external_urls" : {
          "spotify" : "https://open.spotify.com/artist/3V1CgXZe3cFkJ9VDSeFKkl"
        },
        "href" : "https://api.spotify.com/v1/artists/3V1CgXZe3cFkJ9VDSeFKkl",
        "id" : "3V1CgXZe3cFkJ9VDSeFKkl",
        "name" : "Attila Fias",
        "type" : "artist",
        "uri" : "spotify:artist:3V1CgXZe3cFkJ9VDSeFKkl"
      } ],
      "disc_number" : 1,
      "duration_ms" : 251106,
      "explicit" : false,
      "external_ids" : {
        "isrc" : "CASD10900379"
      },
      "external_urls" : {
        "spotify" : "https://open.spotify.com/track/2s52PLq7hqaO2kmb6CPn6T"
      },
      "href" : "https://api.spotify.com/v1/tracks/2s52PLq7hqaO2kmb6CPn6T",
      "id" : "2s52PLq7hqaO2kmb6CPn6T",
      "is_local" : false,
      "is_playable" : true,
      "name" : "O Come All Ye Faithful",
      "popularity" : 28,
      "preview_url" : "https://p.scdn.co/mp3-preview/cdc4fb39f408ad00ebbaecf6cc08670227fdceb1?cid=774b29d4f13844c495f206cafdad9c86",
      "track_number" : 9,
      "type" : "track",
      "uri" : "spotify:track:2s52PLq7hqaO2kmb6CPn6T"
    }, {
      "album" : {
        "album_type" : "single",
        "artists" : [ {
          "external_urls" : {
            "spotify" : "https://open.spotify.com/artist/48AVv3cw03WdSB5b4qmNCr"
          },
          "href" : "https://api.spotify.com/v1/artists/48AVv3cw03WdSB5b4qmNCr",
          "id" : "48AVv3cw03WdSB5b4qmNCr",
          "name" : "Red Rocks Worship",
          "type" : "artist",
          "uri" : "spotify:artist:48AVv3cw03WdSB5b4qmNCr"
        } ],
        "external_urls" : {
          "spotify" : "https://open.spotify.com/album/7pAmb07Wl3TAYUREaimnwA"
        },
        "href" : "https://api.spotify.com/v1/albums/7pAmb07Wl3TAYUREaimnwA",
        "id" : "7pAmb07Wl3TAYUREaimnwA",
        "images" : [ {
          "height" : 640,
          "url" : "https://i.scdn.co/image/ab67616d0000b2734516ba05fd81174421c1383b",
          "width" : 640
        }, {
          "height" : 300,
          "url" : "https://i.scdn.co/image/ab67616d00001e024516ba05fd81174421c1383b",
          "width" : 300
        }, {
          "height" : 64,
          "url" : "https://i.scdn.co/image/ab67616d000048514516ba05fd81174421c1383b",
          "width" : 64
        } ],
        "name" : "O Come All Ye Faithful",
        "release_date" : "2019-11-08",
        "release_date_precision" : "day",
        "total_tracks" : 1,
        "type" : "album",
        "uri" : "spotify:album:7pAmb07Wl3TAYUREaimnwA"
      },
      "artists" : [ {
        "external_urls" : {
          "spotify" : "https://open.spotify.com/artist/48AVv3cw03WdSB5b4qmNCr"
        },
        "href" : "https://api.spotify.com/v1/artists/48AVv3cw03WdSB5b4qmNCr",
        "id" : "48AVv3cw03WdSB5b4qmNCr",
        "name" : "Red Rocks Worship",
        "type" : "artist",
        "uri" : "spotify:artist:48AVv3cw03WdSB5b4qmNCr"
      } ],
      "disc_number" : 1,
      "duration_ms" : 199016,
      "explicit" : false,
      "external_ids" : {
        "isrc" : "USA5W1900417"
      },
      "external_urls" : {
        "spotify" : "https://open.spotify.com/track/3PFcVGs3EfcUyoWsNIKf6w"
      },
      "href" : "https://api.spotify.com/v1/tracks/3PFcVGs3EfcUyoWsNIKf6w",
      "id" : "3PFcVGs3EfcUyoWsNIKf6w",
      "is_local" : false,
      "is_playable" : true,
      "name" : "O Come All Ye Faithful",
      "popularity" : 24,
      "preview_url" : "https://p.scdn.co/mp3-preview/6bff3834337f0de82fa27f94b74a94b2d42258ab?cid=774b29d4f13844c495f206cafdad9c86",
      "track_number" : 1,
      "type" : "track",
      "uri" : "spotify:track:3PFcVGs3EfcUyoWsNIKf6w"
    }, {
      "album" : {
        "album_type" : "album",
        "artists" : [ {
          "external_urls" : {
            "spotify" : "https://open.spotify.com/artist/5OSQDUNmll299ldFIF1Dau"
          },
          "href" : "https://api.spotify.com/v1/artists/5OSQDUNmll299ldFIF1Dau",
          "id" : "5OSQDUNmll299ldFIF1Dau",
          "name" : "Trans-Siberian Orchestra",
          "type" : "artist",
          "uri" : "spotify:artist:5OSQDUNmll299ldFIF1Dau"
        } ],
        "external_urls" : {
          "spotify" : "https://open.spotify.com/album/6QNuH4X7k9Fxsk3lRLOaiT"
        },
        "href" : "https://api.spotify.com/v1/albums/6QNuH4X7k9Fxsk3lRLOaiT",
        "id" : "6QNuH4X7k9Fxsk3lRLOaiT",
        "images" : [ {
          "height" : 640,
          "url" : "https://i.scdn.co/image/ab67616d0000b2732027a107260c4e284e786975",
          "width" : 640
        }, {
          "height" : 300,
          "url" : "https://i.scdn.co/image/ab67616d00001e022027a107260c4e284e786975",
          "width" : 300
        }, {
          "height" : 64,
          "url" : "https://i.scdn.co/image/ab67616d000048512027a107260c4e284e786975",
          "width" : 64
        } ],
        "name" : "Christmas Eve and Other Stories",
        "release_date" : "1996-10-15",
        "release_date_precision" : "day",
        "total_tracks" : 17,
        "type" : "album",
        "uri" : "spotify:album:6QNuH4X7k9Fxsk3lRLOaiT"
      },
      "artists" : [ {
        "external_urls" : {
          "spotify" : "https://open.spotify.com/artist/5OSQDUNmll299ldFIF1Dau"
        },
        "href" : "https://api.spotify.com/v1/artists/5OSQDUNmll299ldFIF1Dau",
        "id" : "5OSQDUNmll299ldFIF1Dau",
        "name" : "Trans-Siberian Orchestra",
        "type" : "artist",
        "uri" : "spotify:artist:5OSQDUNmll299ldFIF1Dau"
      } ],
      "disc_number" : 1,
      "duration_ms" : 259373,
      "explicit" : false,
      "external_ids" : {
        "isrc" : "USAT29901904"
      },
      "external_urls" : {
        "spotify" : "https://open.spotify.com/track/0272R2KNbzGpLnXGAWTfZo"
      },
      "href" : "https://api.spotify.com/v1/tracks/0272R2KNbzGpLnXGAWTfZo",
      "id" : "0272R2KNbzGpLnXGAWTfZo",
      "is_local" : false,
      "is_playable" : true,
      "name" : "O Come All Ye Faithful / O Holy Night - Instrumental",
      "popularity" : 24,
      "preview_url" : "https://p.scdn.co/mp3-preview/ab87e8d3dd33959e2b438dbecb89428202329057?cid=774b29d4f13844c495f206cafdad9c86",
      "track_number" : 2,
      "type" : "track",
      "uri" : "spotify:track:0272R2KNbzGpLnXGAWTfZo"
    }, {
      "album" : {
        "album_type" : "album",
        "artists" : [ {
          "external_urls" : {
            "spotify" : "https://open.spotify.com/artist/2duo4NJtUrLaI38trK0hht"
          },
          "href" : "https://api.spotify.com/v1/artists/2duo4NJtUrLaI38trK0hht",
          "id" : "2duo4NJtUrLaI38trK0hht",
          "name" : "Mormon Tabernacle Choir",
          "type" : "artist",
          "uri" : "spotify:artist:2duo4NJtUrLaI38trK0hht"
        } ],
        "external_urls" : {
          "spotify" : "https://open.spotify.com/album/0seLRXtzDlFp73cr3Yq6Mo"
        },
        "href" : "https://api.spotify.com/v1/albums/0seLRXtzDlFp73cr3Yq6Mo",
        "id" : "0seLRXtzDlFp73cr3Yq6Mo",
        "images" : [ {
          "height" : 640,
          "url" : "https://i.scdn.co/image/ab67616d0000b27310d45c06ab85d1a0fd9b5020",
          "width" : 640
        }, {
          "height" : 300,
          "url" : "https://i.scdn.co/image/ab67616d00001e0210d45c06ab85d1a0fd9b5020",
          "width" : 300
        }, {
          "height" : 64,
          "url" : "https://i.scdn.co/image/ab67616d0000485110d45c06ab85d1a0fd9b5020",
          "width" : 64
        } ],
        "name" : "Christmas With The Mormon Tabernacle Choir",
        "release_date" : "2009-11-03",
        "release_date_precision" : "day",
        "total_tracks" : 12,
        "type" : "album",
        "uri" : "spotify:album:0seLRXtzDlFp73cr3Yq6Mo"
      },
      "artists" : [ {
        "external_urls" : {
          "spotify" : "https://open.spotify.com/artist/2duo4NJtUrLaI38trK0hht"
        },
        "href" : "https://api.spotify.com/v1/artists/2duo4NJtUrLaI38trK0hht",
        "id" : "2duo4NJtUrLaI38trK0hht",
        "name" : "Mormon Tabernacle Choir",
        "type" : "artist",
        "uri" : "spotify:artist:2duo4NJtUrLaI38trK0hht"
      } ],
      "disc_number" : 1,
      "duration_ms" : 160146,
      "explicit" : false,
      "external_ids" : {
        "isrc" : "US5540504728"
      },
      "external_urls" : {
        "spotify" : "https://open.spotify.com/track/65wwL1jZ1PDo1L9t508i8j"
      },
      "href" : "https://api.spotify.com/v1/tracks/65wwL1jZ1PDo1L9t508i8j",
      "id" : "65wwL1jZ1PDo1L9t508i8j",
      "is_local" : false,
      "is_playable" : true,
      "name" : "O Come All Ye Faithful",
      "popularity" : 22,
      "preview_url" : "https://p.scdn.co/mp3-preview/f07ad91cc5ee49df38fae7d0e3ec5aec32f39a2f?cid=774b29d4f13844c495f206cafdad9c86",
      "track_number" : 1,
      "type" : "track",
      "uri" : "spotify:track:65wwL1jZ1PDo1L9t508i8j"
    }, {
      "album" : {
        "album_type" : "album",
        "artists" : [ {
          "external_urls" : {
            "spotify" : "https://open.spotify.com/artist/4PpBfy9zXy2F3u0HbIkhfm"
          },
          "href" : "https://api.spotify.com/v1/artists/4PpBfy9zXy2F3u0HbIkhfm",
          "id" : "4PpBfy9zXy2F3u0HbIkhfm",
          "name" : "Instrumental Worship Project from I’m In Records",
          "type" : "artist",
          "uri" : "spotify:artist:4PpBfy9zXy2F3u0HbIkhfm"
        } ],
        "external_urls" : {
          "spotify" : "https://open.spotify.com/album/3wOpWgy37MLCj2jCAgdEHK"
        },
        "href" : "https://api.spotify.com/v1/albums/3wOpWgy37MLCj2jCAgdEHK",
        "id" : "3wOpWgy37MLCj2jCAgdEHK",
        "images" : [ {
          "height" : 640,
          "url" : "https://i.scdn.co/image/ab67616d0000b273955948f1fb06d52254fa97fc",
          "width" : 640
        }, {
          "height" : 300,
          "url" : "https://i.scdn.co/image/ab67616d00001e02955948f1fb06d52254fa97fc",
          "width" : 300
        }, {
          "height" : 64,
          "url" : "https://i.scdn.co/image/ab67616d00004851955948f1fb06d52254fa97fc",
          "width" : 64
        } ],
        "name" : "Christmas Classics",
        "release_date" : "2019-11-16",
        "release_date_precision" : "day",
        "total_tracks" : 9,
        "type" : "album",
        "uri" : "spotify:album:3wOpWgy37MLCj2jCAgdEHK"
      },
      "artists" : [ {
        "external_urls" : {
          "spotify" : "https://open.spotify.com/artist/4PpBfy9zXy2F3u0HbIkhfm"
        },
        "href" : "https://api.spotify.com/v1/artists/4PpBfy9zXy2F3u0HbIkhfm",
        "id" : "4PpBfy9zXy2F3u0HbIkhfm",
        "name" : "Instrumental Worship Project from I’m In Records",
        "type" : "artist",
        "uri" : "spotify:artist:4PpBfy9zXy2F3u0HbIkhfm"
      } ],
      "disc_number" : 1,
      "duration_ms" : 262469,
      "explicit" : false,
      "external_ids" : {
        "isrc" : "BRITK1909611"
      },
      "external_urls" : {
        "spotify" : "https://open.spotify.com/track/5VRhe5I9u9M6zakNSof2xA"
      },
      "href" : "https://api.spotify.com/v1/tracks/5VRhe5I9u9M6zakNSof2xA",
      "id" : "5VRhe5I9u9M6zakNSof2xA",
      "is_local" : false,
      "is_playable" : true,
      "name" : "O Come All Ye Faithful",
      "popularity" : 29,
      "preview_url" : "https://p.scdn.co/mp3-preview/c3ca6d75f0768e2d2b581d0f4396b6ae128e06f6?cid=774b29d4f13844c495f206cafdad9c86",
      "track_number" : 7,
      "type" : "track",
      "uri" : "spotify:track:5VRhe5I9u9M6zakNSof2xA"
    }, {
      "album" : {
        "album_type" : "album",
        "artists" : [ {
          "external_urls" : {
            "spotify" : "https://open.spotify.com/artist/6wPGJjIqYiCqOhdhShu0nL"
          },
          "href" : "https://api.spotify.com/v1/artists/6wPGJjIqYiCqOhdhShu0nL",
          "id" : "6wPGJjIqYiCqOhdhShu0nL",
          "name" : "KiKstart",
          "type" : "artist",
          "uri" : "spotify:artist:6wPGJjIqYiCqOhdhShu0nL"
        } ],
        "external_urls" : {
          "spotify" : "https://open.spotify.com/album/4tLPCQG0eUwgvfUjPDFVkD"
        },
        "href" : "https://api.spotify.com/v1/albums/4tLPCQG0eUwgvfUjPDFVkD",
        "id" : "4tLPCQG0eUwgvfUjPDFVkD",
        "images" : [ {
          "height" : 640,
          "url" : "https://i.scdn.co/image/ab67616d0000b273ccdd02fc03d5245addb6f439",
          "width" : 640
        }, {
          "height" : 300,
          "url" : "https://i.scdn.co/image/ab67616d00001e02ccdd02fc03d5245addb6f439",
          "width" : 300
        }, {
          "height" : 64,
          "url" : "https://i.scdn.co/image/ab67616d00004851ccdd02fc03d5245addb6f439",
          "width" : 64
        } ],
        "name" : "Our Savior’s Birth",
        "release_date" : "2016-11-29",
        "release_date_precision" : "day",
        "total_tracks" : 7,
        "type" : "album",
        "uri" : "spotify:album:4tLPCQG0eUwgvfUjPDFVkD"
      },
      "artists" : [ {
        "external_urls" : {
          "spotify" : "https://open.spotify.com/artist/6wPGJjIqYiCqOhdhShu0nL"
        },
        "href" : "https://api.spotify.com/v1/artists/6wPGJjIqYiCqOhdhShu0nL",
        "id" : "6wPGJjIqYiCqOhdhShu0nL",
        "name" : "KiKstart",
        "type" : "artist",
        "uri" : "spotify:artist:6wPGJjIqYiCqOhdhShu0nL"
      } ],
      "disc_number" : 1,
      "duration_ms" : 135698,
      "explicit" : false,
      "external_ids" : {
        "isrc" : "ushm91629352"
      },
      "external_urls" : {
        "spotify" : "https://open.spotify.com/track/5OEIwel12egKlT8uJIxJ7p"
      },
      "href" : "https://api.spotify.com/v1/tracks/5OEIwel12egKlT8uJIxJ7p",
      "id" : "5OEIwel12egKlT8uJIxJ7p",
      "is_local" : false,
      "is_playable" : true,
      "name" : "O Come All Ye Faithful",
      "popularity" : 19,
      "preview_url" : "https://p.scdn.co/mp3-preview/e096a342ba14129997fb32f704189d8f434b0b4e?cid=774b29d4f13844c495f206cafdad9c86",
      "track_number" : 2,
      "type" : "track",
      "uri" : "spotify:track:5OEIwel12egKlT8uJIxJ7p"
    }, {
      "album" : {
        "album_type" : "single",
        "artists" : [ {
          "external_urls" : {
            "spotify" : "https://open.spotify.com/artist/5QjWgYDeKNP2iPHTdTttnG"
          },
          "href" : "https://api.spotify.com/v1/artists/5QjWgYDeKNP2iPHTdTttnG",
          "id" : "5QjWgYDeKNP2iPHTdTttnG",
          "name" : "Stacie Orrico",
          "type" : "artist",
          "uri" : "spotify:artist:5QjWgYDeKNP2iPHTdTttnG"
        } ],
        "external_urls" : {
          "spotify" : "https://open.spotify.com/album/6s9S1ZwknkciuXMCU9Vitl"
        },
        "href" : "https://api.spotify.com/v1/albums/6s9S1ZwknkciuXMCU9Vitl",
        "id" : "6s9S1ZwknkciuXMCU9Vitl",
        "images" : [ {
          "height" : 640,
          "url" : "https://i.scdn.co/image/ab67616d0000b273a251cd8aaf12925e6dd0d2e3",
          "width" : 640
        }, {
          "height" : 300,
          "url" : "https://i.scdn.co/image/ab67616d00001e02a251cd8aaf12925e6dd0d2e3",
          "width" : 300
        }, {
          "height" : 64,
          "url" : "https://i.scdn.co/image/ab67616d00004851a251cd8aaf12925e6dd0d2e3",
          "width" : 64
        } ],
        "name" : "Christmas Wish",
        "release_date" : "2001-01-01",
        "release_date_precision" : "day",
        "total_tracks" : 6,
        "type" : "album",
        "uri" : "spotify:album:6s9S1ZwknkciuXMCU9Vitl"
      },
      "artists" : [ {
        "external_urls" : {
          "spotify" : "https://open.spotify.com/artist/5QjWgYDeKNP2iPHTdTttnG"
        },
        "href" : "https://api.spotify.com/v1/artists/5QjWgYDeKNP2iPHTdTttnG",
        "id" : "5QjWgYDeKNP2iPHTdTttnG",
        "name" : "Stacie Orrico",
        "type" : "artist",
        "uri" : "spotify:artist:5QjWgYDeKNP2iPHTdTttnG"
      } ],
      "disc_number" : 1,
      "duration_ms" : 238520,
      "explicit" : false,
      "external_ids" : {
        "isrc" : "USFF10115267"
      },
      "external_urls" : {
        "spotify" : "https://open.spotify.com/track/0EX7bGM7Q2mvuQ9S6aEzKW"
      },
      "href" : "https://api.spotify.com/v1/tracks/0EX7bGM7Q2mvuQ9S6aEzKW",
      "id" : "0EX7bGM7Q2mvuQ9S6aEzKW",
      "is_local" : false,
      "is_playable" : true,
      "name" : "O Come, All Ye Faithful",
      "popularity" : 19,
      "preview_url" : null,
      "track_number" : 5,
      "type" : "track",
      "uri" : "spotify:track:0EX7bGM7Q2mvuQ9S6aEzKW"
    }, {
      "album" : {
        "album_type" : "album",
        "artists" : [ {
          "external_urls" : {
            "spotify" : "https://open.spotify.com/artist/3SgHzT552wy2W8pNLaLk24"
          },
          "href" : "https://api.spotify.com/v1/artists/3SgHzT552wy2W8pNLaLk24",
          "id" : "3SgHzT552wy2W8pNLaLk24",
          "name" : "Hillsong Worship",
          "type" : "artist",
          "uri" : "spotify:artist:3SgHzT552wy2W8pNLaLk24"
        } ],
        "external_urls" : {
          "spotify" : "https://open.spotify.com/album/6f6C3n1O2O6z5wDvwVBG2o"
        },
        "href" : "https://api.spotify.com/v1/albums/6f6C3n1O2O6z5wDvwVBG2o",
        "id" : "6f6C3n1O2O6z5wDvwVBG2o",
        "images" : [ {
          "height" : 640,
          "url" : "https://i.scdn.co/image/ab67616d0000b27373932866df608ae882137ce2",
          "width" : 640
        }, {
          "height" : 300,
          "url" : "https://i.scdn.co/image/ab67616d00001e0273932866df608ae882137ce2",
          "width" : 300
        }, {
          "height" : 64,
          "url" : "https://i.scdn.co/image/ab67616d0000485173932866df608ae882137ce2",
          "width" : 64
        } ],
        "name" : "Christmas: The Peace Project",
        "release_date" : "2017-10-20",
        "release_date_precision" : "day",
        "total_tracks" : 12,
        "type" : "album",
        "uri" : "spotify:album:6f6C3n1O2O6z5wDvwVBG2o"
      },
      "artists" : [ {
        "external_urls" : {
          "spotify" : "https://open.spotify.com/artist/3SgHzT552wy2W8pNLaLk24"
        },
        "href" : "https://api.spotify.com/v1/artists/3SgHzT552wy2W8pNLaLk24",
        "id" : "3SgHzT552wy2W8pNLaLk24",
        "name" : "Hillsong Worship",
        "type" : "artist",
        "uri" : "spotify:artist:3SgHzT552wy2W8pNLaLk24"
      } ],
      "disc_number" : 1,
      "duration_ms" : 258533,
      "explicit" : false,
      "external_ids" : {
        "isrc" : "AUHS01709330"
      },
      "external_urls" : {
        "spotify" : "https://open.spotify.com/track/7DMEFNqGo1ZN3sMrGxa262"
      },
      "href" : "https://api.spotify.com/v1/tracks/7DMEFNqGo1ZN3sMrGxa262",
      "id" : "7DMEFNqGo1ZN3sMrGxa262",
      "is_local" : false,
      "is_playable" : true,
      "name" : "O Come All Ye Faithful",
      "popularity" : 17,
      "preview_url" : null,
      "track_number" : 5,
      "type" : "track",
      "uri" : "spotify:track:7DMEFNqGo1ZN3sMrGxa262"
    }, {
      "album" : {
        "album_type" : "album",
        "artists" : [ {
          "external_urls" : {
            "spotify" : "https://open.spotify.com/artist/6eJqAWJdd8JhAN1pQGie4r"
          },
          "href" : "https://api.spotify.com/v1/artists/6eJqAWJdd8JhAN1pQGie4r",
          "id" : "6eJqAWJdd8JhAN1pQGie4r",
          "name" : "Casting Crowns",
          "type" : "artist",
          "uri" : "spotify:artist:6eJqAWJdd8JhAN1pQGie4r"
        } ],
        "external_urls" : {
          "spotify" : "https://open.spotify.com/album/6AwF2s3lEGd6Mjvu1xy249"
        },
        "href" : "https://api.spotify.com/v1/albums/6AwF2s3lEGd6Mjvu1xy249",
        "id" : "6AwF2s3lEGd6Mjvu1xy249",
        "images" : [ {
          "height" : 640,
          "url" : "https://i.scdn.co/image/ab67616d0000b273312cc8784f518ec93f4b700d",
          "width" : 640
        }, {
          "height" : 300,
          "url" : "https://i.scdn.co/image/ab67616d00001e02312cc8784f518ec93f4b700d",
          "width" : 300
        }, {
          "height" : 64,
          "url" : "https://i.scdn.co/image/ab67616d00004851312cc8784f518ec93f4b700d",
          "width" : 64
        } ],
        "name" : "Peace On Earth",
        "release_date" : "2008-10-07",
        "release_date_precision" : "day",
        "total_tracks" : 10,
        "type" : "album",
        "uri" : "spotify:album:6AwF2s3lEGd6Mjvu1xy249"
      },
      "artists" : [ {
        "external_urls" : {
          "spotify" : "https://open.spotify.com/artist/6eJqAWJdd8JhAN1pQGie4r"
        },
        "href" : "https://api.spotify.com/v1/artists/6eJqAWJdd8JhAN1pQGie4r",
        "id" : "6eJqAWJdd8JhAN1pQGie4r",
        "name" : "Casting Crowns",
        "type" : "artist",
        "uri" : "spotify:artist:6eJqAWJdd8JhAN1pQGie4r"
      } ],
      "disc_number" : 1,
      "duration_ms" : 226673,
      "explicit" : false,
      "external_ids" : {
        "isrc" : "USA5W0800927"
      },
      "external_urls" : {
        "spotify" : "https://open.spotify.com/track/0DFvMIwyBnNQNy1q3GIAmM"
      },
      "href" : "https://api.spotify.com/v1/tracks/0DFvMIwyBnNQNy1q3GIAmM",
      "id" : "0DFvMIwyBnNQNy1q3GIAmM",
      "is_local" : false,
      "is_playable" : true,
      "name" : "O Come All Ye Faithful",
      "popularity" : 19,
      "preview_url" : "https://p.scdn.co/mp3-preview/0e8f46e073aa7b56c430deaa7deb31b66abad519?cid=774b29d4f13844c495f206cafdad9c86",
      "track_number" : 2,
      "type" : "track",
      "uri" : "spotify:track:0DFvMIwyBnNQNy1q3GIAmM"
    } ],
    "limit" : 10,
    "next" : "https://api.spotify.com/v1/search?query=O+Come%2C+All+Ye+Faithful&type=track&market=US&offset=15&limit=10",
    "offset" : 5,
    "previous" : "https://api.spotify.com/v1/search?query=O+Come%2C+All+Ye+Faithful&type=track&market=US&offset=0&limit=10",
    "total" : 10225
  }
}