{
  "tracks" : {
    "href" : "https://api.spotify.com/v1/search?query=Christ%2C+Whose+Glory+Fills+the+Skies&type=track&market=US&offset=5&limit=10",
    "items" : [ {
      "album" : {
        "album_type" : "album",
        "artists" : [ {
          "external_urls" : {
            "spotify" : "https://open.spotify.com/artist/3CrRSBM3g28LyO4DPkPk16"
          },
          "href" : "https://api.spotify.com/v1/artists/3CrRSBM3g28LyO4DPkPk16",
          "id" : "3CrRSBM3g28LyO4DPkPk16",
          "name" : "Methodist Central Hall Choir, Westminster",
          "type" : "artist",
          "uri" : "spotify:artist:3CrRSBM3g28LyO4DPkPk16"
        }, {
          "external_urls" : {
            "spotify" : "https://open.spotify.com/artist/14xoJp5R8MrD1ldOi19rg5"
          },
          "href" : "https://api.spotify.com/v1/artists/14xoJp5R8MrD1ldOi19rg5",
          "id" : "14xoJp5R8MrD1ldOi19rg5",
          "name" : "John Chapman",
          "type" : "artist",
          "uri" : "spotify:artist:14xoJp5R8MrD1ldOi19rg5"
        } ],
        "external_urls" : {
          "spotify" : "https://open.spotify.com/album/4GETqD0OJw504KR7VcVZGV"
        },
        "href" : "https://api.spotify.com/v1/albums/4GETqD0OJw504KR7VcVZGV",
        "id" : "4GETqD0OJw504KR7VcVZGV",
        "images" : [ {
          "height" : 640,
          "url" : "https://i.scdn.co/image/ab67616d0000b273e1ca0b812dc17000aa9492ad",
          "width" : 640
        }, {
          "height" : 300,
          "url" : "https://i.scdn.co/image/ab67616d00001e02e1ca0b812dc17000aa9492ad",
          "width" : 300
        }, {
          "height" : 64,
          "url" : "https://i.scdn.co/image/ab67616d00004851e1ca0b812dc17000aa9492ad",
          "width" : 64
        } ],
        "name" : "Charles Wesley - 20 Favourite Hymns",
        "release_date" : "1985-01-01",
        "release_date_precision" : "day",
        "total_tracks" : 89,
        "type" : "album",
        "uri" : "spotify:album:4GETqD0OJw504KR7VcVZGV"
      },
      "artists" : [ {
        "external_urls" : {
          "spotify" : "https://open.spotify.com/artist/3CrRSBM3g28LyO4DPkPk16"
        },
        "href" : "https://api.spotify.com/v1/artists/3CrRSBM3g28LyO4DPkPk16",
        "id" : "3CrRSBM3g28LyO4DPkPk16",
        "name" : "Methodist Central Hall Choir, Westminster",
        "type" : "artist",
        "uri" : "spotify:artist:3CrRSBM3g28LyO4DPkPk16"
      }, {
        "external_urls" : {
          "spotify" : "https://open.spotify.com/artist/14xoJp5R8MrD1ldOi19rg5"
        },
        "href" : "https://api.spotify.com/v1/artists/14xoJp5R8MrD1ldOi19rg5",
        "id" : "14xoJp5R8MrD1ldOi19rg5",
        "name" : "John Chapman",
        "type" : "artist",
        "uri" : "spotify:artist:14xoJp5R8MrD1ldOi19rg5"
      } ],
      "disc_number" : 1,
      "duration_ms" : 44520,
      "explicit" : false,
      "external_ids" : {
        "isrc" : "GBADL8582851"
      },
      "external_urls" : {
        "spotify" : "https://open.spotify.com/track/4iSOMRNkHH7QYDdFdm6uW7"
      },
      "href" : "https://api.spotify.com/v1/tracks/4iSOMRNkHH7QYDdFdm6uW7",
      "id" : "4iSOMRNkHH7QYDdFdm6uW7",
      "is_local" : false,
      "is_playable" : true,
      "name" : "Wesley: Christ, Whose Glory Fills the Skies (Heathlands) - 1. Christ, Whose Glory Fills the Skies",
      "popularity" : 4,
      "preview_url" : "https://p.scdn.co/mp3-preview/1d343b98ffb88d681411f8f72127b1e94a965d91?cid=774b29d4f13844c495f206cafdad9c86",
      "track_number" : 51,
      "type" : "track",
      "uri" : "spotify:track:4iSOMRNkHH7QYDdFdm6uW7"
    }, {
      "album" : {
        "album_type" : "compilation",
        "artists" : [ {
          "external_urls" : {
            "spotify" : "https://open.spotify.com/artist/0LyfQWJT6nXafLPZqxe9Of"
          },
          "href" : "https://api.spotify.com/v1/artists/0LyfQWJT6nXafLPZqxe9Of",
          "id" : "0LyfQWJT6nXafLPZqxe9Of",
          "name" : "Various Artists",
          "type" : "artist",
          "uri" : "spotify:artist:0LyfQWJT6nXafLPZqxe9Of"
        } ],
        "external_urls" : {
          "spotify" : "https://open.spotify.com/album/1kYlLCtnJyoEuwBZhGQrsL"
        },
        "href" : "https://api.spotify.com/v1/albums/1kYlLCtnJyoEuwBZhGQrsL",
        "id" : "1kYlLCtnJyoEuwBZhGQrsL",
        "images" : [ {
          "height" : 640,
          "url" : "https://i.scdn.co/image/ab67616d0000b273a7dffe1d15cdbfdb8f471ca6",
          "width" : 640
        }, {
          "height" : 300,
          "url" : "https://i.scdn.co/image/ab67616d00001e02a7dffe1d15cdbfdb8f471ca6",
          "width" : 300
        }, {
          "height" : 64,
          "url" : "https://i.scdn.co/image/ab67616d00004851a7dffe1d15cdbfdb8f471ca6",
          "width" : 64
        } ],
        "name" : "Love Divine: The Songs of Charles Wesley For Today's Generation",
        "release_date" : "2010-12-05",
        "release_date_precision" : "day",
        "total_tracks" : 13,
        "type" : "album",
        "uri" : "spotify:album:1kYlLCtnJyoEuwBZhGQrsL"
      },
      "artists" : [ {
        "external_urls" : {
          "spotify" : "https://open.spotify.com/artist/4PIhOKGwwqY5y5vjp9yv3G"
        },
        "href" : "https://api.spotify.com/v1/artists/4PIhOKGwwqY5y5vjp9yv3G",
        "id" : "4PIhOKGwwqY5y5vjp9yv3G",
        "name" : "Mark Roach",
        "type" : "artist",
        "uri" : "spotify:artist:4PIhOKGwwqY5y5vjp9yv3G"
      } ],
      "disc_number" : 1,
      "duration_ms" : 193426,
      "explicit" : false,
      "external_ids" : {
        "isrc" : "GBBTM1009312"
      },
      "external_urls" : {
        "spotify" : "https://open.spotify.com/track/0uqUXxifu61KByWuSpk6Be"
      },
      "href" : "https://api.spotify.com/v1/tracks/0uqUXxifu61KByWuSpk6Be",
      "id" : "0uqUXxifu61KByWuSpk6Be",
      "is_local" : false,
      "is_playable" : true,
      "name" : "Christ Whose Glory Fills The Skies",
      "popularity" : 3,
      "preview_url" : "https://p.scdn.co/mp3-preview/85ca8b6d673b0049737cdbb95d6ffa67db5abf20?cid=774b29d4f13844c495f206cafdad9c86",
      "track_number" : 12,
      "type" : "track",
      "uri" : "spotify:track:0uqUXxifu61KByWuSpk6Be"
    }, {
      "album" : {
        "album_type" : "album",
        "artists" : [ {
          "external_urls" : {
            "spotify" : "https://open.spotify.com/artist/2x0QHABqKaBBvAOzvoevXJ"
          },
          "href" : "https://api.spotify.com/v1/artists/2x0QHABqKaBBvAOzvoevXJ",
          "id" : "2x0QHABqKaBBvAOzvoevXJ",
          "name" : "The Scottish Festival Singers",
          "type" : "artist",
          "uri" : "spotify:artist:2x0QHABqKaBBvAOzvoevXJ"
        } ],
        "external_urls" : {
          "spotify" : "https://open.spotify.com/album/1p6YXZ12V9JI9Kd1JFk3ro"
        },
        "href" : "https://api.spotify.com/v1/albums/1p6YXZ12V9JI9Kd1JFk3ro",
        "id" : "1p6YXZ12V9JI9Kd1JFk3ro",
        "images" : [ {
          "height" : 640,
          "url" : "https://i.scdn.co/image/ab67616d0000b273e94b718fe39d723dcf3eb2cd",
          "width" : 640
        }, {
          "height" : 300,
          "url" : "https://i.scdn.co/image/ab67616d00001e02e94b718fe39d723dcf3eb2cd",
          "width" : 300
        }, {
          "height" : 64,
          "url" : "https://i.scdn.co/image/ab67616d00004851e94b718fe39d723dcf3eb2cd",
          "width" : 64
        } ],
        "name" : "Timeless Hymns, Vol. 13: Trust and Obey",
        "release_date" : "2014-06-17",
        "release_date_precision" : "day",
        "total_tracks" : 11,
        "type" : "album",
        "uri" : "spotify:album:1p6YXZ12V9JI9Kd1JFk3ro"
      },
      "artists" : [ {
        "external_urls" : {
          "spotify" : "https://open.spotify.com/artist/2x0QHABqKaBBvAOzvoevXJ"
        },
        "href" : "https://api.spotify.com/v1/artists/2x0QHABqKaBBvAOzvoevXJ",
        "id" : "2x0QHABqKaBBvAOzvoevXJ",
        "name" : "The Scottish Festival Singers",
        "type" : "artist",
        "uri" : "spotify:artist:2x0QHABqKaBBvAOzvoevXJ"
      } ],
      "disc_number" : 1,
      "duration_ms" : 112026,
      "explicit" : false,
      "external_ids" : {
        "isrc" : "USACX1400790"
      },
      "external_urls" : {
        "spotify" : "https://open.spotify.com/track/1I2IZ20bbYe5GUs26VsOyF"
      },
      "href" : "https://api.spotify.com/v1/tracks/1I2IZ20bbYe5GUs26VsOyF",
      "id" : "1I2IZ20bbYe5GUs26VsOyF",
      "is_local" : false,
      "is_playable" : true,
      "name" : "Christ Whose Glory Fills The Skies",
      "popularity" : 4,
      "preview_url" : "https://p.scdn.co/mp3-preview/1a36ba011d229298486fe4912fb50af8abb5167a?cid=774b29d4f13844c495f206cafdad9c86",
      "track_number" : 8,
      "type" : "track",
      "uri" : "spotify:track:1I2IZ20bbYe5GUs26VsOyF"
    }, {
      "album" : {
        "album_type" : "compilation",
        "artists" : [ {
          "external_urls" : {
            "spotify" : "https://open.spotify.com/artist/0LyfQWJT6nXafLPZqxe9Of"
          },
          "href" : "https://api.spotify.com/v1/artists/0LyfQWJT6nXafLPZqxe9Of",
          "id" : "0LyfQWJT6nXafLPZqxe9Of",
          "name" : "Various Artists",
          "type" : "artist",
          "uri" : "spotify:artist:0LyfQWJT6nXafLPZqxe9Of"
        } ],
        "external_urls" : {
          "spotify" : "https://open.spotify.com/album/2Y9Nff9jjnWGCU592s3UBY"
        },
        "href" : "https://api.spotify.com/v1/albums/2Y9Nff9jjnWGCU592s3UBY",
        "id" : "2Y9Nff9jjnWGCU592s3UBY",
        "images" : [ {
          "height" : 640,
          "url" : "https://i.scdn.co/image/ab67616d0000b27348f7cb48a00ea3664ef52003",
          "width" : 640
        }, {
          "height" : 300,
          "url" : "https://i.scdn.co/image/ab67616d00001e0248f7cb48a00ea3664ef52003",
          "width" : 300
        }, {
          "height" : 64,
          "url" : "https://i.scdn.co/image/ab67616d0000485148f7cb48a00ea3664ef52003",
          "width" : 64
        } ],
        "name" : "The Best Hymns Album In The World… Ever!",
        "release_date" : "2010-03-28",
        "release_date_precision" : "day",
        "total_tracks" : 50,
        "type" : "album",
        "uri" : "spotify:album:2Y9Nff9jjnWGCU592s3UBY"
      },
      "artists" : [ {
        "external_urls" : {
          "spotify" : "https://open.spotify.com/artist/7rluHfxLiKAkAoMkuE1F8U"
        },
        "href" : "https://api.spotify.com/v1/artists/7rluHfxLiKAkAoMkuE1F8U",
        "id" : "7rluHfxLiKAkAoMkuE1F8U",
        "name" : "St. Michael's Singers",
        "type" : "artist",
        "uri" : "spotify:artist:7rluHfxLiKAkAoMkuE1F8U"
      } ],
      "disc_number" : 1,
      "duration_ms" : 137506,
      "explicit" : false,
      "external_ids" : {
        "isrc" : "GBBTM1006631"
      },
      "external_urls" : {
        "spotify" : "https://open.spotify.com/track/4v2kyeRnl2C1DLrgDkzuJ3"
      },
      "href" : "https://api.spotify.com/v1/tracks/4v2kyeRnl2C1DLrgDkzuJ3",
      "id" : "4v2kyeRnl2C1DLrgDkzuJ3",
      "is_local" : false,
      "is_playable" : true,
      "name" : "Christ Whose Glory Fills The Skies",
      "popularity" : 4,
      "preview_url" : "https://p.scdn.co/mp3-preview/01912e8b9e0d78382c3ba30046dc01f67b032c95?cid=774b29d4f13844c495f206cafdad9c86",
      "track_number" : 31,
      "type" : "track",
      "uri" : "spotify:track:4v2kyeRnl2C1DLrgDkzuJ3"
    }, {
      "album" : {
        "album_type" : "album",
        "artists" : [ {
          "external_urls" : {
            "spotify" : "https://open.spotify.com/artist/7rluHfxLiKAkAoMkuE1F8U"
          },
          "href" : "https://api.spotify.com/v1/artists/7rluHfxLiKAkAoMkuE1F8U",
          "id" : "7rluHfxLiKAkAoMkuE1F8U",
          "name" : "St. Michael's Singers",
          "type" : "artist",
          "uri" : "spotify:artist:7rluHfxLiKAkAoMkuE1F8U"
        } ],
        "external_urls" : {
          "spotify" : "https://open.spotify.com/album/6B0rBsZWacLCyjiJtNqc5m"
        },
        "href" : "https://api.spotify.com/v1/albums/6B0rBsZWacLCyjiJtNqc5m",
        "id" : "6B0rBsZWacLCyjiJtNqc5m",
        "images" : [ {
          "height" : 640,
          "url" : "https://i.scdn.co/image/ab67616d0000b2730e2cedf8573dcd811cb590b7",
          "width" : 640
        }, {
          "height" : 300,
          "url" : "https://i.scdn.co/image/ab67616d00001e020e2cedf8573dcd811cb590b7",
          "width" : 300
        }, {
          "height" : 64,
          "url" : "https://i.scdn.co/image/ab67616d000048510e2cedf8573dcd811cb590b7",
          "width" : 64
        } ],
        "name" : "The Hymn Makers: Charles Wesley (Vol. 2, Ye Servants of God)",
        "release_date" : "1996",
        "release_date_precision" : "year",
        "total_tracks" : 14,
        "type" : "album",
        "uri" : "spotify:album:6B0rBsZWacLCyjiJtNqc5m"
      },
      "artists" : [ {
        "external_urls" : {
          "spotify" : "https://open.spotify.com/artist/7rluHfxLiKAkAoMkuE1F8U"
        },
        "href" : "https://api.spotify.com/v1/artists/7rluHfxLiKAkAoMkuE1F8U",
        "id" : "7rluHfxLiKAkAoMkuE1F8U",
        "name" : "St. Michael's Singers",
        "type" : "artist",
        "uri" : "spotify:artist:7rluHfxLiKAkAoMkuE1F8U"
      } ],
      "disc_number" : 1,
      "duration_ms" : 140306,
      "explicit" : false,
      "external_ids" : {
        "isrc" : "GBBTM9689113"
      },
      "external_urls" : {
        "spotify" : "https://open.spotify.com/track/0k1x7V2qbij6zvQMHAy0Pu"
      },
      "href" : "https://api.spotify.com/v1/tracks/0k1x7V2qbij6zvQMHAy0Pu",
      "id" : "0k1x7V2qbij6zvQMHAy0Pu",
      "is_local" : false,
      "is_playable" : true,
      "name" : "Christ, Whose Glory Fills The Skies",
      "popularity" : 4,
      "preview_url" : "https://p.scdn.co/mp3-preview/30263c4810ae0e7e418cfe97e85d49e368eb77a7?cid=774b29d4f13844c495f206cafdad9c86",
      "track_number" : 13,
      "type" : "track",
      "uri" : "spotify:track:0k1x7V2qbij6zvQMHAy0Pu"
    }, {
      "album" : {
        "album_type" : "album",
        "artists" : [ {
          "external_urls" : {
            "spotify" : "https://open.spotify.com/artist/2x0QHABqKaBBvAOzvoevXJ"
          },
          "href" : "https://api.spotify.com/v1/artists/2x0QHABqKaBBvAOzvoevXJ",
          "id" : "2x0QHABqKaBBvAOzvoevXJ",
          "name" : "The Scottish Festival Singers",
          "type" : "artist",
          "uri" : "spotify:artist:2x0QHABqKaBBvAOzvoevXJ"
        } ],
        "external_urls" : {
          "spotify" : "https://open.spotify.com/album/1tUJtcNlE2Im3hmiFNOQZM"
        },
        "href" : "https://api.spotify.com/v1/albums/1tUJtcNlE2Im3hmiFNOQZM",
        "id" : "1tUJtcNlE2Im3hmiFNOQZM",
        "images" : [ {
          "height" : 640,
          "url" : "https://i.scdn.co/image/ab67616d0000b273b5193a9d81dc60e73c2d8a58",
          "width" : 640
        }, {
          "height" : 300,
          "url" : "https://i.scdn.co/image/ab67616d00001e02b5193a9d81dc60e73c2d8a58",
          "width" : 300
        }, {
          "height" : 64,
          "url" : "https://i.scdn.co/image/ab67616d00004851b5193a9d81dc60e73c2d8a58",
          "width" : 64
        } ],
        "name" : "The Hymn Writers: Charles Wesley",
        "release_date" : "2012-10-01",
        "release_date_precision" : "day",
        "total_tracks" : 15,
        "type" : "album",
        "uri" : "spotify:album:1tUJtcNlE2Im3hmiFNOQZM"
      },
      "artists" : [ {
        "external_urls" : {
          "spotify" : "https://open.spotify.com/artist/2x0QHABqKaBBvAOzvoevXJ"
        },
        "href" : "https://api.spotify.com/v1/artists/2x0QHABqKaBBvAOzvoevXJ",
        "id" : "2x0QHABqKaBBvAOzvoevXJ",
        "name" : "The Scottish Festival Singers",
        "type" : "artist",
        "uri" : "spotify:artist:2x0QHABqKaBBvAOzvoevXJ"
      } ],
      "disc_number" : 1,
      "duration_ms" : 109266,
      "explicit" : false,
      "external_ids" : {
        "isrc" : "GBME51201013"
      },
      "external_urls" : {
        "spotify" : "https://open.spotify.com/track/58lvE8lViMFSqgsb3x8jsk"
      },
      "href" : "https://api.spotify.com/v1/tracks/58lvE8lViMFSqgsb3x8jsk",
      "id" : "58lvE8lViMFSqgsb3x8jsk",
      "is_local" : false,
      "is_playable" : true,
      "name" : "Christ Whose Glory Fills the Skies",
      "popularity" : 5,
      "preview_url" : "https://p.scdn.co/mp3-preview/de4cbb47d1dead68f4a43561d1b198c53f55c8f6?cid=774b29d4f13844c495f206cafdad9c86",
      "track_number" : 13,
      "type" : "track",
      "uri" : "spotify:track:58lvE8lViMFSqgsb3x8jsk"
    }, {
      "album" : {
        "album_type" : "single",
        "artists" : [ {
          "external_urls" : {
            "spotify" : "https://open.spotify.com/artist/579Iw1ONH1LmvhKZdNwONP"
          },
          "href" : "https://api.spotify.com/v1/artists/579Iw1ONH1LmvhKZdNwONP",
          "id" : "579Iw1ONH1LmvhKZdNwONP",
          "name" : "The Christian Year",
          "type" : "artist",
          "uri" : "spotify:artist:579Iw1ONH1LmvhKZdNwONP"
        }, {
          "external_urls" : {
            "spotify" : "https://open.spotify.com/artist/6VN5uFkKdLMxNZlzaqQrkM"
          },
          "href" : "https://api.spotify.com/v1/artists/6VN5uFkKdLMxNZlzaqQrkM",
          "id" : "6VN5uFkKdLMxNZlzaqQrkM",
          "name" : "Park Church Music",
          "type" : "artist",
          "uri" : "spotify:artist:6VN5uFkKdLMxNZlzaqQrkM"
        } ],
        "external_urls" : {
          "spotify" : "https://open.spotify.com/album/3GfoWGSkaFbDTFXxzH0Imq"
        },
        "href" : "https://api.spotify.com/v1/albums/3GfoWGSkaFbDTFXxzH0Imq",
        "id" : "3GfoWGSkaFbDTFXxzH0Imq",
        "images" : [ {
          "height" : 640,
          "url" : "https://i.scdn.co/image/ab67616d0000b273ce7edf61bbb161e479912f8e",
          "width" : 640
        }, {
          "height" : 300,
          "url" : "https://i.scdn.co/image/ab67616d00001e02ce7edf61bbb161e479912f8e",
          "width" : 300
        }, {
          "height" : 64,
          "url" : "https://i.scdn.co/image/ab67616d00004851ce7edf61bbb161e479912f8e",
          "width" : 64
        } ],
        "name" : "The Christian Year, Vol. 2",
        "release_date" : "2019-12-01",
        "release_date_precision" : "day",
        "total_tracks" : 6,
        "type" : "album",
        "uri" : "spotify:album:3GfoWGSkaFbDTFXxzH0Imq"
      },
      "artists" : [ {
        "external_urls" : {
          "spotify" : "https://open.spotify.com/artist/579Iw1ONH1LmvhKZdNwONP"
        },
        "href" : "https://api.spotify.com/v1/artists/579Iw1ONH1LmvhKZdNwONP",
        "id" : "579Iw1ONH1LmvhKZdNwONP",
        "name" : "The Christian Year",
        "type" : "artist",
        "uri" : "spotify:artist:579Iw1ONH1LmvhKZdNwONP"
      }, {
        "external_urls" : {
          "spotify" : "https://open.spotify.com/artist/6VN5uFkKdLMxNZlzaqQrkM"
        },
        "href" : "https://api.spotify.com/v1/artists/6VN5uFkKdLMxNZlzaqQrkM",
        "id" : "6VN5uFkKdLMxNZlzaqQrkM",
        "name" : "Park Church Music",
        "type" : "artist",
        "uri" : "spotify:artist:6VN5uFkKdLMxNZlzaqQrkM"
      }, {
        "external_urls" : {
          "spotify" : "https://open.spotify.com/artist/2sn722j17buDzZ9tx8Uu5l"
        },
        "href" : "https://api.spotify.com/v1/artists/2sn722j17buDzZ9tx8Uu5l",
        "id" : "2sn722j17buDzZ9tx8Uu5l",
        "name" : "John Petterson",
        "type" : "artist",
        "uri" : "spotify:artist:2sn722j17buDzZ9tx8Uu5l"
      } ],
      "disc_number" : 1,
      "duration_ms" : 247813,
      "explicit" : false,
      "external_ids" : {
        "isrc" : "USDHM1922776"
      },
      "external_urls" : {
        "spotify" : "https://open.spotify.com/track/20OHEfbLDiEfKi3LXH7UKU"
      },
      "href" : "https://api.spotify.com/v1/tracks/20OHEfbLDiEfKi3LXH7UKU",
      "id" : "20OHEfbLDiEfKi3LXH7UKU",
      "is_local" : false,
      "is_playable" : true,
      "name" : "Christ Whose Glory Fills the Skies",
      "popularity" : 2,
      "preview_url" : "https://p.scdn.co/mp3-preview/dabb58326ebab99744cc3ed80625d5c76290529c?cid=774b29d4f13844c495f206cafdad9c86",
      "track_number" : 3,
      "type" : "track",
      "uri" : "spotify:track:20OHEfbLDiEfKi3LXH7UKU"
    }, {
      "album" : {
        "album_type" : "album",
        "artists" : [ {
          "external_urls" : {
            "spotify" : "https://open.spotify.com/artist/3CrRSBM3g28LyO4DPkPk16"
          },
          "href" : "https://api.spotify.com/v1/artists/3CrRSBM3g28LyO4DPkPk16",
          "id" : "3CrRSBM3g28LyO4DPkPk16",
          "name" : "Methodist Central Hall Choir, Westminster",
          "type" : "artist",
          "uri" : "spotify:artist:3CrRSBM3g28LyO4DPkPk16"
        }, {
          "external_urls" : {
            "spotify" : "https://open.spotify.com/artist/14xoJp5R8MrD1ldOi19rg5"
          },
          "href" : "https://api.spotify.com/v1/artists/14xoJp5R8MrD1ldOi19rg5",
          "id" : "14xoJp5R8MrD1ldOi19rg5",
          "name" : "John Chapman",
          "type" : "artist",
          "uri" : "spotify:artist:14xoJp5R8MrD1ldOi19rg5"
        } ],
        "external_urls" : {
          "spotify" : "https://open.spotify.com/album/4GETqD0OJw504KR7VcVZGV"
        },
        "href" : "https://api.spotify.com/v1/albums/4GETqD0OJw504KR7VcVZGV",
        "id" : "4GETqD0OJw504KR7VcVZGV",
        "images" : [ {
          "height" : 640,
          "url" : "https://i.scdn.co/image/ab67616d0000b273e1ca0b812dc17000aa9492ad",
          "width" : 640
        }, {
          "height" : 300,
          "url" : "https://i.scdn.co/image/ab67616d00001e02e1ca0b812dc17000aa9492ad",
          "width" : 300
        }, {
          "height" : 64,
          "url" : "https://i.scdn.co/image/ab67616d00004851e1ca0b812dc17000aa9492ad",
          "width" : 64
        } ],
        "name" : "Charles Wesley - 20 Favourite Hymns",
        "release_date" : "1985-01-01",
        "release_date_precision" : "day",
        "total_tracks" : 89,
        "type" : "album",
        "uri" : "spotify:album:4GETqD0OJw504KR7VcVZGV"
      },
      "artists" : [ {
        "external_urls" : {
          "spotify" : "https://open.spotify.com/artist/3CrRSBM3g28LyO4DPkPk16"
        },
        "href" : "https://api.spotify.com/v1/artists/3CrRSBM3g28LyO4DPkPk16",
        "id" : "3CrRSBM3g28LyO4DPkPk16",
        "name" : "Methodist Central Hall Choir, Westminster",
        "type" : "artist",
        "uri" : "spotify:artist:3CrRSBM3g28LyO4DPkPk16"
      }, {
        "external_urls" : {
          "spotify" : "https://open.spotify.com/artist/14xoJp5R8MrD1ldOi19rg5"
        },
        "href" : "https://api.spotify.com/v1/artists/14xoJp5R8MrD1ldOi19rg5",
        "id" : "14xoJp5R8MrD1ldOi19rg5",
        "name" : "John Chapman",
        "type" : "artist",
        "uri" : "spotify:artist:14xoJp5R8MrD1ldOi19rg5"
      } ],
      "disc_number" : 1,
      "duration_ms" : 32210,
      "explicit" : false,
      "external_ids" : {
        "isrc" : "GBADL8582852"
      },
      "external_urls" : {
        "spotify" : "https://open.spotify.com/track/1yPerCcxpOB5cyNwb2PBwo"
      },
      "href" : "https://api.spotify.com/v1/tracks/1yPerCcxpOB5cyNwb2PBwo",
      "id" : "1yPerCcxpOB5cyNwb2PBwo",
      "is_local" : false,
      "is_playable" : true,
      "name" : "Wesley: Christ, Whose Glory Fills the Skies (Heathlands) - 2. Dark and Cheerless Is the Morn",
      "popularity" : 4,
      "preview_url" : "https://p.scdn.co/mp3-preview/01edec287f31d23913de517b08535765be9095ce?cid=774b29d4f13844c495f206cafdad9c86",
      "track_number" : 52,
      "type" : "track",
      "uri" : "spotify:track:1yPerCcxpOB5cyNwb2PBwo"
    }, {
      "album" : {
        "album_type" : "album",
        "artists" : [ {
          "external_urls" : {
            "spotify" : "https://open.spotify.com/artist/08dsaoVeGLJhTdUCgiFIUJ"
          },
          "href" : "https://api.spotify.com/v1/artists/08dsaoVeGLJhTdUCgiFIUJ",
          "id" : "08dsaoVeGLJhTdUCgiFIUJ",
          "name" : "Kevin Mayhew Ltd",
          "type" : "artist",
          "uri" : "spotify:artist:08dsaoVeGLJhTdUCgiFIUJ"
        } ],
        "external_urls" : {
          "spotify" : "https://open.spotify.com/album/33todJekWJB5VzFfoLuCMG"
        },
        "href" : "https://api.spotify.com/v1/albums/33todJekWJB5VzFfoLuCMG",
        "id" : "33todJekWJB5VzFfoLuCMG",
        "images" : [ {
          "height" : 640,
          "url" : "https://i.scdn.co/image/ab67616d0000b273c1ceac3c800e327d7e918521",
          "width" : 640
        }, {
          "height" : 300,
          "url" : "https://i.scdn.co/image/ab67616d00001e02c1ceac3c800e327d7e918521",
          "width" : 300
        }, {
          "height" : 64,
          "url" : "https://i.scdn.co/image/ab67616d00004851c1ceac3c800e327d7e918521",
          "width" : 64
        } ],
        "name" : "No Organist? No Problem! Cd 2",
        "release_date" : "2002-04-15",
        "release_date_precision" : "day",
        "total_tracks" : 22,
        "type" : "album",
        "uri" : "spotify:album:33todJekWJB5VzFfoLuCMG"
      },
      "artists" : [ {
        "external_urls" : {
          "spotify" : "https://open.spotify.com/artist/08dsaoVeGLJhTdUCgiFIUJ"
        },
        "href" : "https://api.spotify.com/v1/artists/08dsaoVeGLJhTdUCgiFIUJ",
        "id" : "08dsaoVeGLJhTdUCgiFIUJ",
        "name" : "Kevin Mayhew Ltd",
        "type" : "artist",
        "uri" : "spotify:artist:08dsaoVeGLJhTdUCgiFIUJ"
      } ],
      "disc_number" : 1,
      "duration_ms" : 116800,
      "explicit" : false,
      "external_ids" : {
        "isrc" : "TCAAY1192462"
      },
      "external_urls" : {
        "spotify" : "https://open.spotify.com/track/1dgSc8AiLMNlxZm6bfLR2K"
      },
      "href" : "https://api.spotify.com/v1/tracks/1dgSc8AiLMNlxZm6bfLR2K",
      "id" : "1dgSc8AiLMNlxZm6bfLR2K",
      "is_local" : false,
      "is_playable" : true,
      "name" : "Christ, Whose Glory Fills the Skies",
      "popularity" : 0,
      "preview_url" : "https://p.scdn.co/mp3-preview/70eb1e12c8d54bec3091b47b791c2b7469b7b8a6?cid=774b29d4f13844c495f206cafdad9c86",
      "track_number" : 9,
      "type" : "track",
      "uri" : "spotify:track:1dgSc8AiLMNlxZm6bfLR2K"
    }, {
      "album" : {
        "album_type" : "single",
        "artists" : [ {
          "external_urls" : {
            "spotify" : "https://open.spotify.com/artist/2fvvvOPTBGJZNgPqSQRNPI"
          },
          "href" : "https://api.spotify.com/v1/artists/2fvvvOPTBGJZNgPqSQRNPI",
          "id" : "2fvvvOPTBGJZNgPqSQRNPI",
          "name" : "Joe McCready",
          "type" : "artist",
          "uri" : "spotify:artist:2fvvvOPTBGJZNgPqSQRNPI"
        } ],
        "external_urls" : {
          "spotify" : "https://open.spotify.com/album/03hyVOcYD1nHnRPHIhKwmz"
        },
        "href" : "https://api.spotify.com/v1/albums/03hyVOcYD1nHnRPHIhKwmz",
        "id" : "03hyVOcYD1nHnRPHIhKwmz",
        "images" : [ {
          "height" : 640,
          "url" : "https://i.scdn.co/image/ab67616d0000b27393c503dd7920557eccc1fb54",
          "width" : 640
        }, {
          "height" : 300,
          "url" : "https://i.scdn.co/image/ab67616d00001e0293c503dd7920557eccc1fb54",
          "width" : 300
        }, {
          "height" : 64,
          "url" : "https://i.scdn.co/image/ab67616d0000485193c503dd7920557eccc1fb54",
          "width" : 64
        } ],
        "name" : "Glad Eyes",
        "release_date" : "2009-09-23",
        "release_date_precision" : "day",
        "total_tracks" : 5,
        "type" : "album",
        "uri" : "spotify:album:03hyVOcYD1nHnRPHIhKwmz"
      },
      "artists" : [ {
        "external_urls" : {
          "spotify" : "https://open.spotify.com/artist/2fvvvOPTBGJZNgPqSQRNPI"
        },
        "href" : "https://api.spotify.com/v1/artists/2fvvvOPTBGJZNgPqSQRNPI",
        "id" : "2fvvvOPTBGJZNgPqSQRNPI",
        "name" : "Joe McCready",
        "type" : "artist",
        "uri" : "spotify:artist:2fvvvOPTBGJZNgPqSQRNPI"
      } ],
      "disc_number" : 1,
      "duration_ms" : 198995,
      "explicit" : false,
      "external_ids" : {
        "isrc" : "USDHM0908017"
      },
      "external_urls" : {
        "spotify" : "https://open.spotify.com/track/3TwKT5a69IiJWCvuu9wPy6"
      },
      "href" : "https://api.spotify.com/v1/tracks/3TwKT5a69IiJWCvuu9wPy6",
      "id" : "3TwKT5a69IiJWCvuu9wPy6",
      "is_local" : false,
      "is_playable" : true,
      "name" : "Christ Whose Glory Fills the Skies",
      "popularity" : 0,
      "preview_url" : "https://p.scdn.co/mp3-preview/2bb5193dacc9dc2ad684b5d79c11321dc163b6be?cid=774b29d4f13844c495f206cafdad9c86",
      "track_number" : 3,
      "type" : "track",
      "uri" : "spotify:track:3TwKT5a69IiJWCvuu9wPy6"
    } ],
    "limit" : 10,
    "next" : "https://api.spotify.com/v1/search?query=Christ%2C+Whose+Glory+Fills+the+Skies&type=track&market=US&offset=15&limit=10",
    "offset" : 5,
    "previous" : "https://api.spotify.com/v1/search?query=Christ%2C+Whose+Glory+Fills+the+Skies&type=track&market=US&offset=0&limit=10",
    "total" : 42
  }
}