{
  "tracks" : {
    "href" : "https://api.spotify.com/v1/search?query=O+for+a+Faith&type=track&market=US&offset=5&limit=10",
    "items" : [ {
      "album" : {
        "album_type" : "compilation",
        "artists" : [ {
          "external_urls" : {
            "spotify" : "https://open.spotify.com/artist/0LyfQWJT6nXafLPZqxe9Of"
          },
          "href" : "https://api.spotify.com/v1/artists/0LyfQWJT6nXafLPZqxe9Of",
          "id" : "0LyfQWJT6nXafLPZqxe9Of",
          "name" : "Various Artists",
          "type" : "artist",
          "uri" : "spotify:artist:0LyfQWJT6nXafLPZqxe9Of"
        } ],
        "external_urls" : {
          "spotify" : "https://open.spotify.com/album/41GteJOSR9ItDaAltqpaGd"
        },
        "href" : "https://api.spotify.com/v1/albums/41GteJOSR9ItDaAltqpaGd",
        "id" : "41GteJOSR9ItDaAltqpaGd",
        "images" : [ {
          "height" : 640,
          "url" : "https://i.scdn.co/image/ab67616d0000b2732a51c476c1ce064153806892",
          "width" : 640
        }, {
          "height" : 300,
          "url" : "https://i.scdn.co/image/ab67616d00001e022a51c476c1ce064153806892",
          "width" : 300
        }, {
          "height" : 64,
          "url" : "https://i.scdn.co/image/ab67616d000048512a51c476c1ce064153806892",
          "width" : 64
        } ],
        "name" : "Efy 2013 Firm in the Faith (Especially for Youth) Official",
        "release_date" : "2013-05-11",
        "release_date_precision" : "day",
        "total_tracks" : 13,
        "type" : "album",
        "uri" : "spotify:album:41GteJOSR9ItDaAltqpaGd"
      },
      "artists" : [ {
        "external_urls" : {
          "spotify" : "https://open.spotify.com/artist/7nkyfItjpXeUtmddnjnHOq"
        },
        "href" : "https://api.spotify.com/v1/artists/7nkyfItjpXeUtmddnjnHOq",
        "id" : "7nkyfItjpXeUtmddnjnHOq",
        "name" : "Colton A.",
        "type" : "artist",
        "uri" : "spotify:artist:7nkyfItjpXeUtmddnjnHOq"
      } ],
      "disc_number" : 1,
      "duration_ms" : 193480,
      "explicit" : false,
      "external_ids" : {
        "isrc" : "TCABO1303369"
      },
      "external_urls" : {
        "spotify" : "https://open.spotify.com/track/4jBTFxK9WuUsrJgL1A3Ef4"
      },
      "href" : "https://api.spotify.com/v1/tracks/4jBTFxK9WuUsrJgL1A3Ef4",
      "id" : "4jBTFxK9WuUsrJgL1A3Ef4",
      "is_local" : false,
      "is_playable" : true,
      "name" : "One Prayer Away",
      "popularity" : 34,
      "preview_url" : "https://p.scdn.co/mp3-preview/4a8b10ce29d38c516dbc40b040c2151fcdb6a967?cid=774b29d4f13844c495f206cafdad9c86",
      "track_number" : 8,
      "type" : "track",
      "uri" : "spotify:track:4jBTFxK9WuUsrJgL1A3Ef4"
    }, {
      "album" : {
        "album_type" : "album",
        "artists" : [ {
          "external_urls" : {
            "spotify" : "https://open.spotify.com/artist/3OfuOiVvU2zW8evhjOltOk"
          },
          "href" : "https://api.spotify.com/v1/artists/3OfuOiVvU2zW8evhjOltOk",
          "id" : "3OfuOiVvU2zW8evhjOltOk",
          "name" : "Shawna Edwards",
          "type" : "artist",
          "uri" : "spotify:artist:3OfuOiVvU2zW8evhjOltOk"
        } ],
        "external_urls" : {
          "spotify" : "https://open.spotify.com/album/0TDDsVrI7hEGjUL6JYh6pj"
        },
        "href" : "https://api.spotify.com/v1/albums/0TDDsVrI7hEGjUL6JYh6pj",
        "id" : "0TDDsVrI7hEGjUL6JYh6pj",
        "images" : [ {
          "height" : 640,
          "url" : "https://i.scdn.co/image/ab67616d0000b273335f21161f650be3885302f7",
          "width" : 640
        }, {
          "height" : 300,
          "url" : "https://i.scdn.co/image/ab67616d00001e02335f21161f650be3885302f7",
          "width" : 300
        }, {
          "height" : 64,
          "url" : "https://i.scdn.co/image/ab67616d00004851335f21161f650be3885302f7",
          "width" : 64
        } ],
        "name" : "The Miracle - Songs of Faith for Children & Youth",
        "release_date" : "2018-05-25",
        "release_date_precision" : "day",
        "total_tracks" : 10,
        "type" : "album",
        "uri" : "spotify:album:0TDDsVrI7hEGjUL6JYh6pj"
      },
      "artists" : [ {
        "external_urls" : {
          "spotify" : "https://open.spotify.com/artist/3OfuOiVvU2zW8evhjOltOk"
        },
        "href" : "https://api.spotify.com/v1/artists/3OfuOiVvU2zW8evhjOltOk",
        "id" : "3OfuOiVvU2zW8evhjOltOk",
        "name" : "Shawna Edwards",
        "type" : "artist",
        "uri" : "spotify:artist:3OfuOiVvU2zW8evhjOltOk"
      } ],
      "disc_number" : 1,
      "duration_ms" : 202360,
      "explicit" : false,
      "external_ids" : {
        "isrc" : "TCADQ1878823"
      },
      "external_urls" : {
        "spotify" : "https://open.spotify.com/track/4o5uAeGNXUqI9TpeTtpf9d"
      },
      "href" : "https://api.spotify.com/v1/tracks/4o5uAeGNXUqI9TpeTtpf9d",
      "id" : "4o5uAeGNXUqI9TpeTtpf9d",
      "is_local" : false,
      "is_playable" : true,
      "name" : "The Miracle",
      "popularity" : 32,
      "preview_url" : "https://p.scdn.co/mp3-preview/ce80510f3560e1640a4ca6b282234440a8d447ce?cid=774b29d4f13844c495f206cafdad9c86",
      "track_number" : 1,
      "type" : "track",
      "uri" : "spotify:track:4o5uAeGNXUqI9TpeTtpf9d"
    }, {
      "album" : {
        "album_type" : "album",
        "artists" : [ {
          "external_urls" : {
            "spotify" : "https://open.spotify.com/artist/6GbCJZrI318Ybm8mY36Of5"
          },
          "href" : "https://api.spotify.com/v1/artists/6GbCJZrI318Ybm8mY36Of5",
          "id" : "6GbCJZrI318Ybm8mY36Of5",
          "name" : "Faith No More",
          "type" : "artist",
          "uri" : "spotify:artist:6GbCJZrI318Ybm8mY36Of5"
        } ],
        "external_urls" : {
          "spotify" : "https://open.spotify.com/album/198GsVgwHgoas39b8TcPYp"
        },
        "href" : "https://api.spotify.com/v1/albums/198GsVgwHgoas39b8TcPYp",
        "id" : "198GsVgwHgoas39b8TcPYp",
        "images" : [ {
          "height" : 640,
          "url" : "https://i.scdn.co/image/ab67616d0000b2739f3275c4cce1a239d37a7024",
          "width" : 640
        }, {
          "height" : 300,
          "url" : "https://i.scdn.co/image/ab67616d00001e029f3275c4cce1a239d37a7024",
          "width" : 300
        }, {
          "height" : 64,
          "url" : "https://i.scdn.co/image/ab67616d000048519f3275c4cce1a239d37a7024",
          "width" : 64
        } ],
        "name" : "King for a Day, Fool for a Lifetime",
        "release_date" : "1995-04-25",
        "release_date_precision" : "day",
        "total_tracks" : 14,
        "type" : "album",
        "uri" : "spotify:album:198GsVgwHgoas39b8TcPYp"
      },
      "artists" : [ {
        "external_urls" : {
          "spotify" : "https://open.spotify.com/artist/6GbCJZrI318Ybm8mY36Of5"
        },
        "href" : "https://api.spotify.com/v1/artists/6GbCJZrI318Ybm8mY36Of5",
        "id" : "6GbCJZrI318Ybm8mY36Of5",
        "name" : "Faith No More",
        "type" : "artist",
        "uri" : "spotify:artist:6GbCJZrI318Ybm8mY36Of5"
      } ],
      "disc_number" : 1,
      "duration_ms" : 140293,
      "explicit" : false,
      "external_ids" : {
        "isrc" : "GBANC9500001"
      },
      "external_urls" : {
        "spotify" : "https://open.spotify.com/track/2M5fAyoKsDVWAGlnBNrvCI"
      },
      "href" : "https://api.spotify.com/v1/tracks/2M5fAyoKsDVWAGlnBNrvCI",
      "id" : "2M5fAyoKsDVWAGlnBNrvCI",
      "is_local" : false,
      "is_playable" : true,
      "name" : "Get Out",
      "popularity" : 39,
      "preview_url" : "https://p.scdn.co/mp3-preview/d1ad6d5b9d7ee911b0184e81cf21998d376986ce?cid=774b29d4f13844c495f206cafdad9c86",
      "track_number" : 1,
      "type" : "track",
      "uri" : "spotify:track:2M5fAyoKsDVWAGlnBNrvCI"
    }, {
      "album" : {
        "album_type" : "compilation",
        "artists" : [ {
          "external_urls" : {
            "spotify" : "https://open.spotify.com/artist/0LyfQWJT6nXafLPZqxe9Of"
          },
          "href" : "https://api.spotify.com/v1/artists/0LyfQWJT6nXafLPZqxe9Of",
          "id" : "0LyfQWJT6nXafLPZqxe9Of",
          "name" : "Various Artists",
          "type" : "artist",
          "uri" : "spotify:artist:0LyfQWJT6nXafLPZqxe9Of"
        } ],
        "external_urls" : {
          "spotify" : "https://open.spotify.com/album/41GteJOSR9ItDaAltqpaGd"
        },
        "href" : "https://api.spotify.com/v1/albums/41GteJOSR9ItDaAltqpaGd",
        "id" : "41GteJOSR9ItDaAltqpaGd",
        "images" : [ {
          "height" : 640,
          "url" : "https://i.scdn.co/image/ab67616d0000b2732a51c476c1ce064153806892",
          "width" : 640
        }, {
          "height" : 300,
          "url" : "https://i.scdn.co/image/ab67616d00001e022a51c476c1ce064153806892",
          "width" : 300
        }, {
          "height" : 64,
          "url" : "https://i.scdn.co/image/ab67616d000048512a51c476c1ce064153806892",
          "width" : 64
        } ],
        "name" : "Efy 2013 Firm in the Faith (Especially for Youth) Official",
        "release_date" : "2013-05-11",
        "release_date_precision" : "day",
        "total_tracks" : 13,
        "type" : "album",
        "uri" : "spotify:album:41GteJOSR9ItDaAltqpaGd"
      },
      "artists" : [ {
        "external_urls" : {
          "spotify" : "https://open.spotify.com/artist/3DzLgO4OlXJ0Hhij6ansAb"
        },
        "href" : "https://api.spotify.com/v1/artists/3DzLgO4OlXJ0Hhij6ansAb",
        "id" : "3DzLgO4OlXJ0Hhij6ansAb",
        "name" : "Nik Day",
        "type" : "artist",
        "uri" : "spotify:artist:3DzLgO4OlXJ0Hhij6ansAb"
      } ],
      "disc_number" : 1,
      "duration_ms" : 249120,
      "explicit" : false,
      "external_ids" : {
        "isrc" : "TCABO1303373"
      },
      "external_urls" : {
        "spotify" : "https://open.spotify.com/track/3jFdYsoa9izAwS38tRwvuo"
      },
      "href" : "https://api.spotify.com/v1/tracks/3jFdYsoa9izAwS38tRwvuo",
      "id" : "3jFdYsoa9izAwS38tRwvuo",
      "is_local" : false,
      "is_playable" : true,
      "name" : "Who Am I",
      "popularity" : 31,
      "preview_url" : "https://p.scdn.co/mp3-preview/c7fa2b0fe81c1496de04bf20c90bf4a9ec8a96a9?cid=774b29d4f13844c495f206cafdad9c86",
      "track_number" : 12,
      "type" : "track",
      "uri" : "spotify:track:3jFdYsoa9izAwS38tRwvuo"
    }, {
      "album" : {
        "album_type" : "compilation",
        "artists" : [ {
          "external_urls" : {
            "spotify" : "https://open.spotify.com/artist/0LyfQWJT6nXafLPZqxe9Of"
          },
          "href" : "https://api.spotify.com/v1/artists/0LyfQWJT6nXafLPZqxe9Of",
          "id" : "0LyfQWJT6nXafLPZqxe9Of",
          "name" : "Various Artists",
          "type" : "artist",
          "uri" : "spotify:artist:0LyfQWJT6nXafLPZqxe9Of"
        } ],
        "external_urls" : {
          "spotify" : "https://open.spotify.com/album/41GteJOSR9ItDaAltqpaGd"
        },
        "href" : "https://api.spotify.com/v1/albums/41GteJOSR9ItDaAltqpaGd",
        "id" : "41GteJOSR9ItDaAltqpaGd",
        "images" : [ {
          "height" : 640,
          "url" : "https://i.scdn.co/image/ab67616d0000b2732a51c476c1ce064153806892",
          "width" : 640
        }, {
          "height" : 300,
          "url" : "https://i.scdn.co/image/ab67616d00001e022a51c476c1ce064153806892",
          "width" : 300
        }, {
          "height" : 64,
          "url" : "https://i.scdn.co/image/ab67616d000048512a51c476c1ce064153806892",
          "width" : 64
        } ],
        "name" : "Efy 2013 Firm in the Faith (Especially for Youth) Official",
        "release_date" : "2013-05-11",
        "release_date_precision" : "day",
        "total_tracks" : 13,
        "type" : "album",
        "uri" : "spotify:album:41GteJOSR9ItDaAltqpaGd"
      },
      "artists" : [ {
        "external_urls" : {
          "spotify" : "https://open.spotify.com/artist/4pvnE7p6vdRK9HzBBh48Ud"
        },
        "href" : "https://api.spotify.com/v1/artists/4pvnE7p6vdRK9HzBBh48Ud",
        "id" : "4pvnE7p6vdRK9HzBBh48Ud",
        "name" : "Jenessa Buttars",
        "type" : "artist",
        "uri" : "spotify:artist:4pvnE7p6vdRK9HzBBh48Ud"
      } ],
      "disc_number" : 1,
      "duration_ms" : 153813,
      "explicit" : false,
      "external_ids" : {
        "isrc" : "TCABO1303370"
      },
      "external_urls" : {
        "spotify" : "https://open.spotify.com/track/59xUinlK01M8YuBeoOJdqp"
      },
      "href" : "https://api.spotify.com/v1/tracks/59xUinlK01M8YuBeoOJdqp",
      "id" : "59xUinlK01M8YuBeoOJdqp",
      "is_local" : false,
      "is_playable" : true,
      "name" : "The Girl I Am",
      "popularity" : 30,
      "preview_url" : "https://p.scdn.co/mp3-preview/239778c2b023c7d57a4bf576c73153e128021af3?cid=774b29d4f13844c495f206cafdad9c86",
      "track_number" : 9,
      "type" : "track",
      "uri" : "spotify:track:59xUinlK01M8YuBeoOJdqp"
    }, {
      "album" : {
        "album_type" : "album",
        "artists" : [ {
          "external_urls" : {
            "spotify" : "https://open.spotify.com/artist/3OfuOiVvU2zW8evhjOltOk"
          },
          "href" : "https://api.spotify.com/v1/artists/3OfuOiVvU2zW8evhjOltOk",
          "id" : "3OfuOiVvU2zW8evhjOltOk",
          "name" : "Shawna Edwards",
          "type" : "artist",
          "uri" : "spotify:artist:3OfuOiVvU2zW8evhjOltOk"
        } ],
        "external_urls" : {
          "spotify" : "https://open.spotify.com/album/0TDDsVrI7hEGjUL6JYh6pj"
        },
        "href" : "https://api.spotify.com/v1/albums/0TDDsVrI7hEGjUL6JYh6pj",
        "id" : "0TDDsVrI7hEGjUL6JYh6pj",
        "images" : [ {
          "height" : 640,
          "url" : "https://i.scdn.co/image/ab67616d0000b273335f21161f650be3885302f7",
          "width" : 640
        }, {
          "height" : 300,
          "url" : "https://i.scdn.co/image/ab67616d00001e02335f21161f650be3885302f7",
          "width" : 300
        }, {
          "height" : 64,
          "url" : "https://i.scdn.co/image/ab67616d00004851335f21161f650be3885302f7",
          "width" : 64
        } ],
        "name" : "The Miracle - Songs of Faith for Children & Youth",
        "release_date" : "2018-05-25",
        "release_date_precision" : "day",
        "total_tracks" : 10,
        "type" : "album",
        "uri" : "spotify:album:0TDDsVrI7hEGjUL6JYh6pj"
      },
      "artists" : [ {
        "external_urls" : {
          "spotify" : "https://open.spotify.com/artist/3OfuOiVvU2zW8evhjOltOk"
        },
        "href" : "https://api.spotify.com/v1/artists/3OfuOiVvU2zW8evhjOltOk",
        "id" : "3OfuOiVvU2zW8evhjOltOk",
        "name" : "Shawna Edwards",
        "type" : "artist",
        "uri" : "spotify:artist:3OfuOiVvU2zW8evhjOltOk"
      } ],
      "disc_number" : 1,
      "duration_ms" : 206572,
      "explicit" : false,
      "external_ids" : {
        "isrc" : "TCADQ1878865"
      },
      "external_urls" : {
        "spotify" : "https://open.spotify.com/track/37z6UzgzimHiedfzbdUPpy"
      },
      "href" : "https://api.spotify.com/v1/tracks/37z6UzgzimHiedfzbdUPpy",
      "id" : "37z6UzgzimHiedfzbdUPpy",
      "is_local" : false,
      "is_playable" : true,
      "name" : "Choose Him Again",
      "popularity" : 29,
      "preview_url" : "https://p.scdn.co/mp3-preview/0d8f340de974f8545b52cd5a575a583a9bc03895?cid=774b29d4f13844c495f206cafdad9c86",
      "track_number" : 2,
      "type" : "track",
      "uri" : "spotify:track:37z6UzgzimHiedfzbdUPpy"
    }, {
      "album" : {
        "album_type" : "album",
        "artists" : [ {
          "external_urls" : {
            "spotify" : "https://open.spotify.com/artist/3OfuOiVvU2zW8evhjOltOk"
          },
          "href" : "https://api.spotify.com/v1/artists/3OfuOiVvU2zW8evhjOltOk",
          "id" : "3OfuOiVvU2zW8evhjOltOk",
          "name" : "Shawna Edwards",
          "type" : "artist",
          "uri" : "spotify:artist:3OfuOiVvU2zW8evhjOltOk"
        } ],
        "external_urls" : {
          "spotify" : "https://open.spotify.com/album/0TDDsVrI7hEGjUL6JYh6pj"
        },
        "href" : "https://api.spotify.com/v1/albums/0TDDsVrI7hEGjUL6JYh6pj",
        "id" : "0TDDsVrI7hEGjUL6JYh6pj",
        "images" : [ {
          "height" : 640,
          "url" : "https://i.scdn.co/image/ab67616d0000b273335f21161f650be3885302f7",
          "width" : 640
        }, {
          "height" : 300,
          "url" : "https://i.scdn.co/image/ab67616d00001e02335f21161f650be3885302f7",
          "width" : 300
        }, {
          "height" : 64,
          "url" : "https://i.scdn.co/image/ab67616d00004851335f21161f650be3885302f7",
          "width" : 64
        } ],
        "name" : "The Miracle - Songs of Faith for Children & Youth",
        "release_date" : "2018-05-25",
        "release_date_precision" : "day",
        "total_tracks" : 10,
        "type" : "album",
        "uri" : "spotify:album:0TDDsVrI7hEGjUL6JYh6pj"
      },
      "artists" : [ {
        "external_urls" : {
          "spotify" : "https://open.spotify.com/artist/3OfuOiVvU2zW8evhjOltOk"
        },
        "href" : "https://api.spotify.com/v1/artists/3OfuOiVvU2zW8evhjOltOk",
        "id" : "3OfuOiVvU2zW8evhjOltOk",
        "name" : "Shawna Edwards",
        "type" : "artist",
        "uri" : "spotify:artist:3OfuOiVvU2zW8evhjOltOk"
      } ],
      "disc_number" : 1,
      "duration_ms" : 219491,
      "explicit" : false,
      "external_ids" : {
        "isrc" : "TCADQ1878834"
      },
      "external_urls" : {
        "spotify" : "https://open.spotify.com/track/0ye8qn1BEIjVftkCKVCuOo"
      },
      "href" : "https://api.spotify.com/v1/tracks/0ye8qn1BEIjVftkCKVCuOo",
      "id" : "0ye8qn1BEIjVftkCKVCuOo",
      "is_local" : false,
      "is_playable" : true,
      "name" : "More Than Enough",
      "popularity" : 32,
      "preview_url" : "https://p.scdn.co/mp3-preview/3de1c8f6ee1787ee738b5bfa489aa379067d5331?cid=774b29d4f13844c495f206cafdad9c86",
      "track_number" : 4,
      "type" : "track",
      "uri" : "spotify:track:0ye8qn1BEIjVftkCKVCuOo"
    }, {
      "album" : {
        "album_type" : "album",
        "artists" : [ {
          "external_urls" : {
            "spotify" : "https://open.spotify.com/artist/24DQLSng7bKZD4GXLIaQbv"
          },
          "href" : "https://api.spotify.com/v1/artists/24DQLSng7bKZD4GXLIaQbv",
          "id" : "24DQLSng7bKZD4GXLIaQbv",
          "name" : "Percy Faith & His Orchestra",
          "type" : "artist",
          "uri" : "spotify:artist:24DQLSng7bKZD4GXLIaQbv"
        } ],
        "external_urls" : {
          "spotify" : "https://open.spotify.com/album/4SJXcCZSkkP9r8JH22ZpWh"
        },
        "href" : "https://api.spotify.com/v1/albums/4SJXcCZSkkP9r8JH22ZpWh",
        "id" : "4SJXcCZSkkP9r8JH22ZpWh",
        "images" : [ {
          "height" : 640,
          "url" : "https://i.scdn.co/image/ab67616d0000b2731aa563a0b9688f3c0a5e8ffa",
          "width" : 640
        }, {
          "height" : 300,
          "url" : "https://i.scdn.co/image/ab67616d00001e021aa563a0b9688f3c0a5e8ffa",
          "width" : 300
        }, {
          "height" : 64,
          "url" : "https://i.scdn.co/image/ab67616d000048511aa563a0b9688f3c0a5e8ffa",
          "width" : 64
        } ],
        "name" : "Themes For Young Lovers",
        "release_date" : "1963-01-01",
        "release_date_precision" : "day",
        "total_tracks" : 12,
        "type" : "album",
        "uri" : "spotify:album:4SJXcCZSkkP9r8JH22ZpWh"
      },
      "artists" : [ {
        "external_urls" : {
          "spotify" : "https://open.spotify.com/artist/24DQLSng7bKZD4GXLIaQbv"
        },
        "href" : "https://api.spotify.com/v1/artists/24DQLSng7bKZD4GXLIaQbv",
        "id" : "24DQLSng7bKZD4GXLIaQbv",
        "name" : "Percy Faith & His Orchestra",
        "type" : "artist",
        "uri" : "spotify:artist:24DQLSng7bKZD4GXLIaQbv"
      } ],
      "disc_number" : 1,
      "duration_ms" : 170933,
      "explicit" : false,
      "external_ids" : {
        "isrc" : "USSM19915956"
      },
      "external_urls" : {
        "spotify" : "https://open.spotify.com/track/1BPTXKgnEMU8deLqCpDOpP"
      },
      "href" : "https://api.spotify.com/v1/tracks/1BPTXKgnEMU8deLqCpDOpP",
      "id" : "1BPTXKgnEMU8deLqCpDOpP",
      "is_local" : false,
      "is_playable" : true,
      "name" : "Go Away Little Girl",
      "popularity" : 33,
      "preview_url" : "https://p.scdn.co/mp3-preview/c370d4793f1796e06f8efc32c14a8168a425dc7c?cid=774b29d4f13844c495f206cafdad9c86",
      "track_number" : 4,
      "type" : "track",
      "uri" : "spotify:track:1BPTXKgnEMU8deLqCpDOpP"
    }, {
      "album" : {
        "album_type" : "album",
        "artists" : [ {
          "external_urls" : {
            "spotify" : "https://open.spotify.com/artist/0OpWIlokQeE7BNQMhuu2Nx"
          },
          "href" : "https://api.spotify.com/v1/artists/0OpWIlokQeE7BNQMhuu2Nx",
          "id" : "0OpWIlokQeE7BNQMhuu2Nx",
          "name" : "Colt Ford",
          "type" : "artist",
          "uri" : "spotify:artist:0OpWIlokQeE7BNQMhuu2Nx"
        } ],
        "external_urls" : {
          "spotify" : "https://open.spotify.com/album/24aKj6Dr9sGely4imvOtm6"
        },
        "href" : "https://api.spotify.com/v1/albums/24aKj6Dr9sGely4imvOtm6",
        "id" : "24aKj6Dr9sGely4imvOtm6",
        "images" : [ {
          "height" : 640,
          "url" : "https://i.scdn.co/image/ab67616d0000b273e0f635982d6578b89b824ada",
          "width" : 640
        }, {
          "height" : 300,
          "url" : "https://i.scdn.co/image/ab67616d00001e02e0f635982d6578b89b824ada",
          "width" : 300
        }, {
          "height" : 64,
          "url" : "https://i.scdn.co/image/ab67616d00004851e0f635982d6578b89b824ada",
          "width" : 64
        } ],
        "name" : "Love Hope Faith",
        "release_date" : "2017-05-05",
        "release_date_precision" : "day",
        "total_tracks" : 13,
        "type" : "album",
        "uri" : "spotify:album:24aKj6Dr9sGely4imvOtm6"
      },
      "artists" : [ {
        "external_urls" : {
          "spotify" : "https://open.spotify.com/artist/0OpWIlokQeE7BNQMhuu2Nx"
        },
        "href" : "https://api.spotify.com/v1/artists/0OpWIlokQeE7BNQMhuu2Nx",
        "id" : "0OpWIlokQeE7BNQMhuu2Nx",
        "name" : "Colt Ford",
        "type" : "artist",
        "uri" : "spotify:artist:0OpWIlokQeE7BNQMhuu2Nx"
      }, {
        "external_urls" : {
          "spotify" : "https://open.spotify.com/artist/13YmWQJFwgZrd4bf5IjMY4"
        },
        "href" : "https://api.spotify.com/v1/artists/13YmWQJFwgZrd4bf5IjMY4",
        "id" : "13YmWQJFwgZrd4bf5IjMY4",
        "name" : "Brad Paisley",
        "type" : "artist",
        "uri" : "spotify:artist:13YmWQJFwgZrd4bf5IjMY4"
      } ],
      "disc_number" : 1,
      "duration_ms" : 214466,
      "explicit" : false,
      "external_ids" : {
        "isrc" : "QMDPP1700481"
      },
      "external_urls" : {
        "spotify" : "https://open.spotify.com/track/5IPrELKLFzoj9JnGECNX4f"
      },
      "href" : "https://api.spotify.com/v1/tracks/5IPrELKLFzoj9JnGECNX4f",
      "id" : "5IPrELKLFzoj9JnGECNX4f",
      "is_local" : false,
      "is_playable" : true,
      "name" : "Lookin' For A Hand Out",
      "popularity" : 25,
      "preview_url" : "https://p.scdn.co/mp3-preview/f41cb10c6492a0095f6d1047f4c347084f927a9e?cid=774b29d4f13844c495f206cafdad9c86",
      "track_number" : 7,
      "type" : "track",
      "uri" : "spotify:track:5IPrELKLFzoj9JnGECNX4f"
    }, {
      "album" : {
        "album_type" : "album",
        "artists" : [ {
          "external_urls" : {
            "spotify" : "https://open.spotify.com/artist/4fwuXg6XQHfdlOdmw36OHa"
          },
          "href" : "https://api.spotify.com/v1/artists/4fwuXg6XQHfdlOdmw36OHa",
          "id" : "4fwuXg6XQHfdlOdmw36OHa",
          "name" : "Paloma Faith",
          "type" : "artist",
          "uri" : "spotify:artist:4fwuXg6XQHfdlOdmw36OHa"
        } ],
        "external_urls" : {
          "spotify" : "https://open.spotify.com/album/3jRG3qOfsSSW3SBdeBiIfC"
        },
        "href" : "https://api.spotify.com/v1/albums/3jRG3qOfsSSW3SBdeBiIfC",
        "id" : "3jRG3qOfsSSW3SBdeBiIfC",
        "images" : [ {
          "height" : 640,
          "url" : "https://i.scdn.co/image/ab67616d0000b273c4576f635253db511bb43789",
          "width" : 640
        }, {
          "height" : 300,
          "url" : "https://i.scdn.co/image/ab67616d00001e02c4576f635253db511bb43789",
          "width" : 300
        }, {
          "height" : 64,
          "url" : "https://i.scdn.co/image/ab67616d00004851c4576f635253db511bb43789",
          "width" : 64
        } ],
        "name" : "A Perfect Contradiction Outsiders' Edition (Deluxe)",
        "release_date" : "2014-11-10",
        "release_date_precision" : "day",
        "total_tracks" : 24,
        "type" : "album",
        "uri" : "spotify:album:3jRG3qOfsSSW3SBdeBiIfC"
      },
      "artists" : [ {
        "external_urls" : {
          "spotify" : "https://open.spotify.com/artist/4fwuXg6XQHfdlOdmw36OHa"
        },
        "href" : "https://api.spotify.com/v1/artists/4fwuXg6XQHfdlOdmw36OHa",
        "id" : "4fwuXg6XQHfdlOdmw36OHa",
        "name" : "Paloma Faith",
        "type" : "artist",
        "uri" : "spotify:artist:4fwuXg6XQHfdlOdmw36OHa"
      } ],
      "disc_number" : 1,
      "duration_ms" : 205400,
      "explicit" : false,
      "external_ids" : {
        "isrc" : "GBARL1401335"
      },
      "external_urls" : {
        "spotify" : "https://open.spotify.com/track/3zISKxjbt9ij0ktP8rGIYj"
      },
      "href" : "https://api.spotify.com/v1/tracks/3zISKxjbt9ij0ktP8rGIYj",
      "id" : "3zISKxjbt9ij0ktP8rGIYj",
      "is_local" : false,
      "is_playable" : true,
      "name" : "Ready for the Good Life",
      "popularity" : 37,
      "preview_url" : "https://p.scdn.co/mp3-preview/2655d2e861d9b9065240c8db5f7aaac5878f5e15?cid=774b29d4f13844c495f206cafdad9c86",
      "track_number" : 13,
      "type" : "track",
      "uri" : "spotify:track:3zISKxjbt9ij0ktP8rGIYj"
    } ],
    "limit" : 10,
    "next" : "https://api.spotify.com/v1/search?query=O+for+a+Faith&type=track&market=US&offset=15&limit=10",
    "offset" : 5,
    "previous" : "https://api.spotify.com/v1/search?query=O+for+a+Faith&type=track&market=US&offset=0&limit=10",
    "total" : 3000
  }
}