{
  "tracks" : {
    "href" : "https://api.spotify.com/v1/search?query=Rejoice%2C+Rejoice%2C+Believers&type=track&market=US&offset=5&limit=10",
    "items" : [ {
      "album" : {
        "album_type" : "compilation",
        "artists" : [ {
          "external_urls" : {
            "spotify" : "https://open.spotify.com/artist/0LyfQWJT6nXafLPZqxe9Of"
          },
          "href" : "https://api.spotify.com/v1/artists/0LyfQWJT6nXafLPZqxe9Of",
          "id" : "0LyfQWJT6nXafLPZqxe9Of",
          "name" : "Various Artists",
          "type" : "artist",
          "uri" : "spotify:artist:0LyfQWJT6nXafLPZqxe9Of"
        } ],
        "external_urls" : {
          "spotify" : "https://open.spotify.com/album/2Pg660W3aj2J90MrTpjAnS"
        },
        "href" : "https://api.spotify.com/v1/albums/2Pg660W3aj2J90MrTpjAnS",
        "id" : "2Pg660W3aj2J90MrTpjAnS",
        "images" : [ {
          "height" : 640,
          "url" : "https://i.scdn.co/image/ab67616d0000b273948c3801b788b01c32dc48d6",
          "width" : 640
        }, {
          "height" : 300,
          "url" : "https://i.scdn.co/image/ab67616d00001e02948c3801b788b01c32dc48d6",
          "width" : 300
        }, {
          "height" : 64,
          "url" : "https://i.scdn.co/image/ab67616d00004851948c3801b788b01c32dc48d6",
          "width" : 64
        } ],
        "name" : "The Winter Rose Blooms, Rejoice: Christmas With Wartburg 2012",
        "release_date" : "2013-01-16",
        "release_date_precision" : "day",
        "total_tracks" : 22,
        "type" : "album",
        "uri" : "spotify:album:2Pg660W3aj2J90MrTpjAnS"
      },
      "artists" : [ {
        "external_urls" : {
          "spotify" : "https://open.spotify.com/artist/0DVcjTzVOipx79qsFSr3qb"
        },
        "href" : "https://api.spotify.com/v1/artists/0DVcjTzVOipx79qsFSr3qb",
        "id" : "0DVcjTzVOipx79qsFSr3qb",
        "name" : "Wartburg College Wind Ensemble",
        "type" : "artist",
        "uri" : "spotify:artist:0DVcjTzVOipx79qsFSr3qb"
      }, {
        "external_urls" : {
          "spotify" : "https://open.spotify.com/artist/4QuZP1QhBH7oWRFOaz1gqg"
        },
        "href" : "https://api.spotify.com/v1/artists/4QuZP1QhBH7oWRFOaz1gqg",
        "id" : "4QuZP1QhBH7oWRFOaz1gqg",
        "name" : "The Wartburg Choir",
        "type" : "artist",
        "uri" : "spotify:artist:4QuZP1QhBH7oWRFOaz1gqg"
      }, {
        "external_urls" : {
          "spotify" : "https://open.spotify.com/artist/5nv5UsQP5yJGulFMeCkFvj"
        },
        "href" : "https://api.spotify.com/v1/artists/5nv5UsQP5yJGulFMeCkFvj",
        "id" : "5nv5UsQP5yJGulFMeCkFvj",
        "name" : "Castle Singers",
        "type" : "artist",
        "uri" : "spotify:artist:5nv5UsQP5yJGulFMeCkFvj"
      }, {
        "external_urls" : {
          "spotify" : "https://open.spotify.com/artist/7a8XmqcaQczucOtcof42hn"
        },
        "href" : "https://api.spotify.com/v1/artists/7a8XmqcaQczucOtcof42hn",
        "id" : "7a8XmqcaQczucOtcof42hn",
        "name" : "St. Elizabeth Chorale",
        "type" : "artist",
        "uri" : "spotify:artist:7a8XmqcaQczucOtcof42hn"
      }, {
        "external_urls" : {
          "spotify" : "https://open.spotify.com/artist/2mdJ3ckaZZjLFD1IBNVIpG"
        },
        "href" : "https://api.spotify.com/v1/artists/2mdJ3ckaZZjLFD1IBNVIpG",
        "id" : "2mdJ3ckaZZjLFD1IBNVIpG",
        "name" : "Ritterchor",
        "type" : "artist",
        "uri" : "spotify:artist:2mdJ3ckaZZjLFD1IBNVIpG"
      }, {
        "external_urls" : {
          "spotify" : "https://open.spotify.com/artist/36zwSyCka6etg7xJ6p7vl5"
        },
        "href" : "https://api.spotify.com/v1/artists/36zwSyCka6etg7xJ6p7vl5",
        "id" : "36zwSyCka6etg7xJ6p7vl5",
        "name" : "Wartburg College Handbell Choir",
        "type" : "artist",
        "uri" : "spotify:artist:36zwSyCka6etg7xJ6p7vl5"
      } ],
      "disc_number" : 1,
      "duration_ms" : 201920,
      "explicit" : false,
      "external_ids" : {
        "isrc" : "uscgj1587483"
      },
      "external_urls" : {
        "spotify" : "https://open.spotify.com/track/6k3WBd2owL326056ds7U0D"
      },
      "href" : "https://api.spotify.com/v1/tracks/6k3WBd2owL326056ds7U0D",
      "id" : "6k3WBd2owL326056ds7U0D",
      "is_local" : false,
      "is_playable" : true,
      "name" : "Rejoice, Rejoice Believers",
      "popularity" : 0,
      "preview_url" : "https://p.scdn.co/mp3-preview/ca09a4f0b7f343d5ede7403bae20c1b5b3b1b3d0?cid=774b29d4f13844c495f206cafdad9c86",
      "track_number" : 4,
      "type" : "track",
      "uri" : "spotify:track:6k3WBd2owL326056ds7U0D"
    }, {
      "album" : {
        "album_type" : "album",
        "artists" : [ {
          "external_urls" : {
            "spotify" : "https://open.spotify.com/artist/50zx2qbLJjyutxz4Z59f4G"
          },
          "href" : "https://api.spotify.com/v1/artists/50zx2qbLJjyutxz4Z59f4G",
          "id" : "50zx2qbLJjyutxz4Z59f4G",
          "name" : "Chicago Metro Presbytery Music",
          "type" : "artist",
          "uri" : "spotify:artist:50zx2qbLJjyutxz4Z59f4G"
        } ],
        "external_urls" : {
          "spotify" : "https://open.spotify.com/album/5jCF8RjsCdTzDuF8FYuhsH"
        },
        "href" : "https://api.spotify.com/v1/albums/5jCF8RjsCdTzDuF8FYuhsH",
        "id" : "5jCF8RjsCdTzDuF8FYuhsH",
        "images" : [ {
          "height" : 640,
          "url" : "https://i.scdn.co/image/ab67616d0000b27370d4b23fbaed1c96934f968a",
          "width" : 640
        }, {
          "height" : 300,
          "url" : "https://i.scdn.co/image/ab67616d00001e0270d4b23fbaed1c96934f968a",
          "width" : 300
        }, {
          "height" : 64,
          "url" : "https://i.scdn.co/image/ab67616d0000485170d4b23fbaed1c96934f968a",
          "width" : 64
        } ],
        "name" : "Proclaim the Bridegroom Near",
        "release_date" : "2011-12-04",
        "release_date_precision" : "day",
        "total_tracks" : 16,
        "type" : "album",
        "uri" : "spotify:album:5jCF8RjsCdTzDuF8FYuhsH"
      },
      "artists" : [ {
        "external_urls" : {
          "spotify" : "https://open.spotify.com/artist/3ysfnz9hQw3EDCviONn6Gl"
        },
        "href" : "https://api.spotify.com/v1/artists/3ysfnz9hQw3EDCviONn6Gl",
        "id" : "3ysfnz9hQw3EDCviONn6Gl",
        "name" : "Chicago Metro Pres Music",
        "type" : "artist",
        "uri" : "spotify:artist:3ysfnz9hQw3EDCviONn6Gl"
      } ],
      "disc_number" : 1,
      "duration_ms" : 296167,
      "explicit" : false,
      "external_ids" : {
        "isrc" : "usx9p1112084"
      },
      "external_urls" : {
        "spotify" : "https://open.spotify.com/track/7BRBd8CYYDugnKzTW41vYy"
      },
      "href" : "https://api.spotify.com/v1/tracks/7BRBd8CYYDugnKzTW41vYy",
      "id" : "7BRBd8CYYDugnKzTW41vYy",
      "is_local" : false,
      "is_playable" : true,
      "name" : "Rejoice Rejoice Believers",
      "popularity" : 1,
      "preview_url" : "https://p.scdn.co/mp3-preview/4df645a9c797b3d387c59ee7fd1b9c2ad4e99fe1?cid=774b29d4f13844c495f206cafdad9c86",
      "track_number" : 6,
      "type" : "track",
      "uri" : "spotify:track:7BRBd8CYYDugnKzTW41vYy"
    }, {
      "album" : {
        "album_type" : "album",
        "artists" : [ {
          "external_urls" : {
            "spotify" : "https://open.spotify.com/artist/2Gim7P01y1fvN9DTsJ6cy6"
          },
          "href" : "https://api.spotify.com/v1/artists/2Gim7P01y1fvN9DTsJ6cy6",
          "id" : "2Gim7P01y1fvN9DTsJ6cy6",
          "name" : "Steve Eulberg",
          "type" : "artist",
          "uri" : "spotify:artist:2Gim7P01y1fvN9DTsJ6cy6"
        } ],
        "external_urls" : {
          "spotify" : "https://open.spotify.com/album/2X22uKXlgMqYf663ZqLnVb"
        },
        "href" : "https://api.spotify.com/v1/albums/2X22uKXlgMqYf663ZqLnVb",
        "id" : "2X22uKXlgMqYf663ZqLnVb",
        "images" : [ {
          "height" : 640,
          "url" : "https://i.scdn.co/image/ab67616d0000b27354eb0ea3ff5bed99ea26deaa",
          "width" : 640
        }, {
          "height" : 300,
          "url" : "https://i.scdn.co/image/ab67616d00001e0254eb0ea3ff5bed99ea26deaa",
          "width" : 300
        }, {
          "height" : 64,
          "url" : "https://i.scdn.co/image/ab67616d0000485154eb0ea3ff5bed99ea26deaa",
          "width" : 64
        } ],
        "name" : "Hark, The Glad Sound!",
        "release_date" : "1999-11-16",
        "release_date_precision" : "day",
        "total_tracks" : 16,
        "type" : "album",
        "uri" : "spotify:album:2X22uKXlgMqYf663ZqLnVb"
      },
      "artists" : [ {
        "external_urls" : {
          "spotify" : "https://open.spotify.com/artist/2Gim7P01y1fvN9DTsJ6cy6"
        },
        "href" : "https://api.spotify.com/v1/artists/2Gim7P01y1fvN9DTsJ6cy6",
        "id" : "2Gim7P01y1fvN9DTsJ6cy6",
        "name" : "Steve Eulberg",
        "type" : "artist",
        "uri" : "spotify:artist:2Gim7P01y1fvN9DTsJ6cy6"
      } ],
      "disc_number" : 1,
      "duration_ms" : 125727,
      "explicit" : false,
      "external_ids" : {
        "isrc" : "USA370332659"
      },
      "external_urls" : {
        "spotify" : "https://open.spotify.com/track/3yce9fThPioIzw8tGLvBKO"
      },
      "href" : "https://api.spotify.com/v1/tracks/3yce9fThPioIzw8tGLvBKO",
      "id" : "3yce9fThPioIzw8tGLvBKO",
      "is_local" : false,
      "is_playable" : true,
      "name" : "Rejoice, Rejoice Believers",
      "popularity" : 0,
      "preview_url" : "https://p.scdn.co/mp3-preview/44faa594daad9caf5227d518734233d5b52bcff5?cid=774b29d4f13844c495f206cafdad9c86",
      "track_number" : 7,
      "type" : "track",
      "uri" : "spotify:track:3yce9fThPioIzw8tGLvBKO"
    }, {
      "album" : {
        "album_type" : "album",
        "artists" : [ {
          "external_urls" : {
            "spotify" : "https://open.spotify.com/artist/7A5sk6otHstuz12k3TdSIa"
          },
          "href" : "https://api.spotify.com/v1/artists/7A5sk6otHstuz12k3TdSIa",
          "id" : "7A5sk6otHstuz12k3TdSIa",
          "name" : "Roger Humphrey",
          "type" : "artist",
          "uri" : "spotify:artist:7A5sk6otHstuz12k3TdSIa"
        } ],
        "external_urls" : {
          "spotify" : "https://open.spotify.com/album/7ylf8Q0MKlRJg10bFPqHBM"
        },
        "href" : "https://api.spotify.com/v1/albums/7ylf8Q0MKlRJg10bFPqHBM",
        "id" : "7ylf8Q0MKlRJg10bFPqHBM",
        "images" : [ {
          "height" : 640,
          "url" : "https://i.scdn.co/image/ab67616d0000b27358ced8bd36635c10d2b95630",
          "width" : 640
        }, {
          "height" : 300,
          "url" : "https://i.scdn.co/image/ab67616d00001e0258ced8bd36635c10d2b95630",
          "width" : 300
        }, {
          "height" : 64,
          "url" : "https://i.scdn.co/image/ab67616d0000485158ced8bd36635c10d2b95630",
          "width" : 64
        } ],
        "name" : "Sunday At Peace",
        "release_date" : "2013-12-06",
        "release_date_precision" : "day",
        "total_tracks" : 19,
        "type" : "album",
        "uri" : "spotify:album:7ylf8Q0MKlRJg10bFPqHBM"
      },
      "artists" : [ {
        "external_urls" : {
          "spotify" : "https://open.spotify.com/artist/7A5sk6otHstuz12k3TdSIa"
        },
        "href" : "https://api.spotify.com/v1/artists/7A5sk6otHstuz12k3TdSIa",
        "id" : "7A5sk6otHstuz12k3TdSIa",
        "name" : "Roger Humphrey",
        "type" : "artist",
        "uri" : "spotify:artist:7A5sk6otHstuz12k3TdSIa"
      } ],
      "disc_number" : 1,
      "duration_ms" : 148481,
      "explicit" : false,
      "external_ids" : {
        "isrc" : "usx9p1363356"
      },
      "external_urls" : {
        "spotify" : "https://open.spotify.com/track/6dFCMLSemE1BPuIhAWucAT"
      },
      "href" : "https://api.spotify.com/v1/tracks/6dFCMLSemE1BPuIhAWucAT",
      "id" : "6dFCMLSemE1BPuIhAWucAT",
      "is_local" : false,
      "is_playable" : true,
      "name" : "Rejoice, Rejoice Believers",
      "popularity" : 0,
      "preview_url" : "https://p.scdn.co/mp3-preview/984427a04e72b01004e9ba0cecda455b33510f2e?cid=774b29d4f13844c495f206cafdad9c86",
      "track_number" : 14,
      "type" : "track",
      "uri" : "spotify:track:6dFCMLSemE1BPuIhAWucAT"
    }, {
      "album" : {
        "album_type" : "album",
        "artists" : [ {
          "external_urls" : {
            "spotify" : "https://open.spotify.com/artist/1ymcnzXImj2XgTntr9502A"
          },
          "href" : "https://api.spotify.com/v1/artists/1ymcnzXImj2XgTntr9502A",
          "id" : "1ymcnzXImj2XgTntr9502A",
          "name" : "James Fraschetti",
          "type" : "artist",
          "uri" : "spotify:artist:1ymcnzXImj2XgTntr9502A"
        } ],
        "external_urls" : {
          "spotify" : "https://open.spotify.com/album/24XyS621V54Uk5P71z3Qy2"
        },
        "href" : "https://api.spotify.com/v1/albums/24XyS621V54Uk5P71z3Qy2",
        "id" : "24XyS621V54Uk5P71z3Qy2",
        "images" : [ {
          "height" : 640,
          "url" : "https://i.scdn.co/image/ab67616d0000b273fc436e394438f5e96a3910fd",
          "width" : 640
        }, {
          "height" : 300,
          "url" : "https://i.scdn.co/image/ab67616d00001e02fc436e394438f5e96a3910fd",
          "width" : 300
        }, {
          "height" : 64,
          "url" : "https://i.scdn.co/image/ab67616d00004851fc436e394438f5e96a3910fd",
          "width" : 64
        } ],
        "name" : "Hymns",
        "release_date" : "1996-04-01",
        "release_date_precision" : "day",
        "total_tracks" : 29,
        "type" : "album",
        "uri" : "spotify:album:24XyS621V54Uk5P71z3Qy2"
      },
      "artists" : [ {
        "external_urls" : {
          "spotify" : "https://open.spotify.com/artist/1ymcnzXImj2XgTntr9502A"
        },
        "href" : "https://api.spotify.com/v1/artists/1ymcnzXImj2XgTntr9502A",
        "id" : "1ymcnzXImj2XgTntr9502A",
        "name" : "James Fraschetti",
        "type" : "artist",
        "uri" : "spotify:artist:1ymcnzXImj2XgTntr9502A"
      } ],
      "disc_number" : 1,
      "duration_ms" : 68881,
      "explicit" : false,
      "external_ids" : {
        "isrc" : "uscgh1605354"
      },
      "external_urls" : {
        "spotify" : "https://open.spotify.com/track/5knDyDjMxbADCC4YzOcSAx"
      },
      "href" : "https://api.spotify.com/v1/tracks/5knDyDjMxbADCC4YzOcSAx",
      "id" : "5knDyDjMxbADCC4YzOcSAx",
      "is_local" : false,
      "is_playable" : true,
      "name" : "Rejoice! Rejoice Believers!",
      "popularity" : 0,
      "preview_url" : "https://p.scdn.co/mp3-preview/502c5d9ec3420b0068297935cc012cdcbefcc886?cid=774b29d4f13844c495f206cafdad9c86",
      "track_number" : 24,
      "type" : "track",
      "uri" : "spotify:track:5knDyDjMxbADCC4YzOcSAx"
    }, {
      "album" : {
        "album_type" : "album",
        "artists" : [ {
          "external_urls" : {
            "spotify" : "https://open.spotify.com/artist/5zkmOYaXiNHBKxKnnd1rvl"
          },
          "href" : "https://api.spotify.com/v1/artists/5zkmOYaXiNHBKxKnnd1rvl",
          "id" : "5zkmOYaXiNHBKxKnnd1rvl",
          "name" : "John Keys",
          "type" : "artist",
          "uri" : "spotify:artist:5zkmOYaXiNHBKxKnnd1rvl"
        } ],
        "external_urls" : {
          "spotify" : "https://open.spotify.com/album/4S4qhZOOaTntCE3TOciOT8"
        },
        "href" : "https://api.spotify.com/v1/albums/4S4qhZOOaTntCE3TOciOT8",
        "id" : "4S4qhZOOaTntCE3TOciOT8",
        "images" : [ {
          "height" : 640,
          "url" : "https://i.scdn.co/image/ab67616d0000b273a6fee5f2be19cab4fffc479c",
          "width" : 640
        }, {
          "height" : 300,
          "url" : "https://i.scdn.co/image/ab67616d00001e02a6fee5f2be19cab4fffc479c",
          "width" : 300
        }, {
          "height" : 64,
          "url" : "https://i.scdn.co/image/ab67616d00004851a6fee5f2be19cab4fffc479c",
          "width" : 64
        } ],
        "name" : "Prayerful Hymns Organ Accompaniments, Vol. 1",
        "release_date" : "2019-08-30",
        "release_date_precision" : "day",
        "total_tracks" : 27,
        "type" : "album",
        "uri" : "spotify:album:4S4qhZOOaTntCE3TOciOT8"
      },
      "artists" : [ {
        "external_urls" : {
          "spotify" : "https://open.spotify.com/artist/5zkmOYaXiNHBKxKnnd1rvl"
        },
        "href" : "https://api.spotify.com/v1/artists/5zkmOYaXiNHBKxKnnd1rvl",
        "id" : "5zkmOYaXiNHBKxKnnd1rvl",
        "name" : "John Keys",
        "type" : "artist",
        "uri" : "spotify:artist:5zkmOYaXiNHBKxKnnd1rvl"
      } ],
      "disc_number" : 1,
      "duration_ms" : 133262,
      "explicit" : false,
      "external_ids" : {
        "isrc" : "GBKPL1962130"
      },
      "external_urls" : {
        "spotify" : "https://open.spotify.com/track/494pzaUeKn8W9ykDaSgTmS"
      },
      "href" : "https://api.spotify.com/v1/tracks/494pzaUeKn8W9ykDaSgTmS",
      "id" : "494pzaUeKn8W9ykDaSgTmS",
      "is_local" : false,
      "is_playable" : true,
      "name" : "Rejoice! Rejoice, Believers (Llangloffan)",
      "popularity" : 0,
      "preview_url" : "https://p.scdn.co/mp3-preview/b7cb1a7dbde347d0714cc1a571c0ffc3db82bff5?cid=774b29d4f13844c495f206cafdad9c86",
      "track_number" : 11,
      "type" : "track",
      "uri" : "spotify:track:494pzaUeKn8W9ykDaSgTmS"
    }, {
      "album" : {
        "album_type" : "album",
        "artists" : [ {
          "external_urls" : {
            "spotify" : "https://open.spotify.com/artist/5IavkTcZ4ZhFbaExPHtBIA"
          },
          "href" : "https://api.spotify.com/v1/artists/5IavkTcZ4ZhFbaExPHtBIA",
          "id" : "5IavkTcZ4ZhFbaExPHtBIA",
          "name" : "Robert Vert",
          "type" : "artist",
          "uri" : "spotify:artist:5IavkTcZ4ZhFbaExPHtBIA"
        } ],
        "external_urls" : {
          "spotify" : "https://open.spotify.com/album/0TmQp394KIc2qXyj99BIcO"
        },
        "href" : "https://api.spotify.com/v1/albums/0TmQp394KIc2qXyj99BIcO",
        "id" : "0TmQp394KIc2qXyj99BIcO",
        "images" : [ {
          "height" : 640,
          "url" : "https://i.scdn.co/image/ab67616d0000b273b0fe8ed1f7bd9292b05115e5",
          "width" : 640
        }, {
          "height" : 300,
          "url" : "https://i.scdn.co/image/ab67616d00001e02b0fe8ed1f7bd9292b05115e5",
          "width" : 300
        }, {
          "height" : 64,
          "url" : "https://i.scdn.co/image/ab67616d00004851b0fe8ed1f7bd9292b05115e5",
          "width" : 64
        } ],
        "name" : "Piano Accompaniments, Vol. 26: Hymns",
        "release_date" : "2018-10-26",
        "release_date_precision" : "day",
        "total_tracks" : 27,
        "type" : "album",
        "uri" : "spotify:album:0TmQp394KIc2qXyj99BIcO"
      },
      "artists" : [ {
        "external_urls" : {
          "spotify" : "https://open.spotify.com/artist/5IavkTcZ4ZhFbaExPHtBIA"
        },
        "href" : "https://api.spotify.com/v1/artists/5IavkTcZ4ZhFbaExPHtBIA",
        "id" : "5IavkTcZ4ZhFbaExPHtBIA",
        "name" : "Robert Vert",
        "type" : "artist",
        "uri" : "spotify:artist:5IavkTcZ4ZhFbaExPHtBIA"
      } ],
      "disc_number" : 1,
      "duration_ms" : 114654,
      "explicit" : false,
      "external_ids" : {
        "isrc" : "ushm91897339"
      },
      "external_urls" : {
        "spotify" : "https://open.spotify.com/track/2NzVcWSXCTJlWhLAwG9zcq"
      },
      "href" : "https://api.spotify.com/v1/tracks/2NzVcWSXCTJlWhLAwG9zcq",
      "id" : "2NzVcWSXCTJlWhLAwG9zcq",
      "is_local" : false,
      "is_playable" : true,
      "name" : "Rejoice! Rejoice, Believers (Piano Accompaniment Track)",
      "popularity" : 0,
      "preview_url" : "https://p.scdn.co/mp3-preview/d0dddfb8cb59e1faec7bb73d0f95eb7e71223c35?cid=774b29d4f13844c495f206cafdad9c86",
      "track_number" : 18,
      "type" : "track",
      "uri" : "spotify:track:2NzVcWSXCTJlWhLAwG9zcq"
    }, {
      "album" : {
        "album_type" : "album",
        "artists" : [ {
          "external_urls" : {
            "spotify" : "https://open.spotify.com/artist/5zkmOYaXiNHBKxKnnd1rvl"
          },
          "href" : "https://api.spotify.com/v1/artists/5zkmOYaXiNHBKxKnnd1rvl",
          "id" : "5zkmOYaXiNHBKxKnnd1rvl",
          "name" : "John Keys",
          "type" : "artist",
          "uri" : "spotify:artist:5zkmOYaXiNHBKxKnnd1rvl"
        } ],
        "external_urls" : {
          "spotify" : "https://open.spotify.com/album/46B6LMCP1mPFCgbqgbwr74"
        },
        "href" : "https://api.spotify.com/v1/albums/46B6LMCP1mPFCgbqgbwr74",
        "id" : "46B6LMCP1mPFCgbqgbwr74",
        "images" : [ {
          "height" : 640,
          "url" : "https://i.scdn.co/image/ab67616d0000b2739fc4547fea4d1ab30dacbb9e",
          "width" : 640
        }, {
          "height" : 300,
          "url" : "https://i.scdn.co/image/ab67616d00001e029fc4547fea4d1ab30dacbb9e",
          "width" : 300
        }, {
          "height" : 64,
          "url" : "https://i.scdn.co/image/ab67616d000048519fc4547fea4d1ab30dacbb9e",
          "width" : 64
        } ],
        "name" : "Devotional Hymns Organ Accompaniments, Vol. 5",
        "release_date" : "2018-08-21",
        "release_date_precision" : "day",
        "total_tracks" : 19,
        "type" : "album",
        "uri" : "spotify:album:46B6LMCP1mPFCgbqgbwr74"
      },
      "artists" : [ {
        "external_urls" : {
          "spotify" : "https://open.spotify.com/artist/5zkmOYaXiNHBKxKnnd1rvl"
        },
        "href" : "https://api.spotify.com/v1/artists/5zkmOYaXiNHBKxKnnd1rvl",
        "id" : "5zkmOYaXiNHBKxKnnd1rvl",
        "name" : "John Keys",
        "type" : "artist",
        "uri" : "spotify:artist:5zkmOYaXiNHBKxKnnd1rvl"
      } ],
      "disc_number" : 1,
      "duration_ms" : 185671,
      "explicit" : false,
      "external_ids" : {
        "isrc" : "GBKPL1821479"
      },
      "external_urls" : {
        "spotify" : "https://open.spotify.com/track/3NnBKFpxGh7IEC18NDDn2g"
      },
      "href" : "https://api.spotify.com/v1/tracks/3NnBKFpxGh7IEC18NDDn2g",
      "id" : "3NnBKFpxGh7IEC18NDDn2g",
      "is_local" : false,
      "is_playable" : true,
      "name" : "Rejoice, Rejoice, Believers (Greenland) - Instrumental Version",
      "popularity" : 0,
      "preview_url" : "https://p.scdn.co/mp3-preview/df67ef4c6402ece39d91537a386a467504cb0bd0?cid=774b29d4f13844c495f206cafdad9c86",
      "track_number" : 1,
      "type" : "track",
      "uri" : "spotify:track:3NnBKFpxGh7IEC18NDDn2g"
    }, {
      "album" : {
        "album_type" : "album",
        "artists" : [ {
          "external_urls" : {
            "spotify" : "https://open.spotify.com/artist/5tX9xtb6eBbSXJrt2vZnsi"
          },
          "href" : "https://api.spotify.com/v1/artists/5tX9xtb6eBbSXJrt2vZnsi",
          "id" : "5tX9xtb6eBbSXJrt2vZnsi",
          "name" : "Sunita Staneslow",
          "type" : "artist",
          "uri" : "spotify:artist:5tX9xtb6eBbSXJrt2vZnsi"
        } ],
        "external_urls" : {
          "spotify" : "https://open.spotify.com/album/2J8ISyllpUj3r9axUv338D"
        },
        "href" : "https://api.spotify.com/v1/albums/2J8ISyllpUj3r9axUv338D",
        "id" : "2J8ISyllpUj3r9axUv338D",
        "images" : [ {
          "height" : 640,
          "url" : "https://i.scdn.co/image/ab67616d0000b273d413b696893202a57fbb5f48",
          "width" : 640
        }, {
          "height" : 300,
          "url" : "https://i.scdn.co/image/ab67616d00001e02d413b696893202a57fbb5f48",
          "width" : 300
        }, {
          "height" : 64,
          "url" : "https://i.scdn.co/image/ab67616d00004851d413b696893202a57fbb5f48",
          "width" : 64
        } ],
        "name" : "Christmas Eve",
        "release_date" : "1992",
        "release_date_precision" : "year",
        "total_tracks" : 16,
        "type" : "album",
        "uri" : "spotify:album:2J8ISyllpUj3r9axUv338D"
      },
      "artists" : [ {
        "external_urls" : {
          "spotify" : "https://open.spotify.com/artist/5tX9xtb6eBbSXJrt2vZnsi"
        },
        "href" : "https://api.spotify.com/v1/artists/5tX9xtb6eBbSXJrt2vZnsi",
        "id" : "5tX9xtb6eBbSXJrt2vZnsi",
        "name" : "Sunita Staneslow",
        "type" : "artist",
        "uri" : "spotify:artist:5tX9xtb6eBbSXJrt2vZnsi"
      } ],
      "disc_number" : 1,
      "duration_ms" : 160933,
      "explicit" : false,
      "external_ids" : {
        "isrc" : "ushm20522388"
      },
      "external_urls" : {
        "spotify" : "https://open.spotify.com/track/3ehhWdatQxnZofbNtQNMab"
      },
      "href" : "https://api.spotify.com/v1/tracks/3ehhWdatQxnZofbNtQNMab",
      "id" : "3ehhWdatQxnZofbNtQNMab",
      "is_local" : false,
      "is_playable" : true,
      "name" : "Rejoice, All Ye Believers",
      "popularity" : 0,
      "preview_url" : "https://p.scdn.co/mp3-preview/fe8db888db613102d3440b144d2a6ce5c26945df?cid=774b29d4f13844c495f206cafdad9c86",
      "track_number" : 7,
      "type" : "track",
      "uri" : "spotify:track:3ehhWdatQxnZofbNtQNMab"
    }, {
      "album" : {
        "album_type" : "album",
        "artists" : [ {
          "external_urls" : {
            "spotify" : "https://open.spotify.com/artist/3qNSsKNzzgoxfmBBwAIHUy"
          },
          "href" : "https://api.spotify.com/v1/artists/3qNSsKNzzgoxfmBBwAIHUy",
          "id" : "3qNSsKNzzgoxfmBBwAIHUy",
          "name" : "Lana Kim",
          "type" : "artist",
          "uri" : "spotify:artist:3qNSsKNzzgoxfmBBwAIHUy"
        } ],
        "external_urls" : {
          "spotify" : "https://open.spotify.com/album/1SPy4pZlPGFCtB3wV2crAL"
        },
        "href" : "https://api.spotify.com/v1/albums/1SPy4pZlPGFCtB3wV2crAL",
        "id" : "1SPy4pZlPGFCtB3wV2crAL",
        "images" : [ {
          "height" : 640,
          "url" : "https://i.scdn.co/image/ab67616d0000b27378ae57a69176170261ff99f3",
          "width" : 640
        }, {
          "height" : 300,
          "url" : "https://i.scdn.co/image/ab67616d00001e0278ae57a69176170261ff99f3",
          "width" : 300
        }, {
          "height" : 64,
          "url" : "https://i.scdn.co/image/ab67616d0000485178ae57a69176170261ff99f3",
          "width" : 64
        } ],
        "name" : "All Christian Hymns - Vol. 5",
        "release_date" : "2011-02-17",
        "release_date_precision" : "day",
        "total_tracks" : 40,
        "type" : "album",
        "uri" : "spotify:album:1SPy4pZlPGFCtB3wV2crAL"
      },
      "artists" : [ {
        "external_urls" : {
          "spotify" : "https://open.spotify.com/artist/3qNSsKNzzgoxfmBBwAIHUy"
        },
        "href" : "https://api.spotify.com/v1/artists/3qNSsKNzzgoxfmBBwAIHUy",
        "id" : "3qNSsKNzzgoxfmBBwAIHUy",
        "name" : "Lana Kim",
        "type" : "artist",
        "uri" : "spotify:artist:3qNSsKNzzgoxfmBBwAIHUy"
      } ],
      "disc_number" : 1,
      "duration_ms" : 63268,
      "explicit" : false,
      "external_ids" : {
        "isrc" : "USJ3V1084782"
      },
      "external_urls" : {
        "spotify" : "https://open.spotify.com/track/43PGrOsuk1IgYnBuAhjvc3"
      },
      "href" : "https://api.spotify.com/v1/tracks/43PGrOsuk1IgYnBuAhjvc3",
      "id" : "43PGrOsuk1IgYnBuAhjvc3",
      "is_local" : false,
      "is_playable" : true,
      "name" : "166 Rejoice All Ye Believers",
      "popularity" : 0,
      "preview_url" : "https://p.scdn.co/mp3-preview/3a609a6db9a69f28b44821e176602cde858614d3?cid=774b29d4f13844c495f206cafdad9c86",
      "track_number" : 11,
      "type" : "track",
      "uri" : "spotify:track:43PGrOsuk1IgYnBuAhjvc3"
    } ],
    "limit" : 10,
    "next" : "https://api.spotify.com/v1/search?query=Rejoice%2C+Rejoice%2C+Believers&type=track&market=US&offset=15&limit=10",
    "offset" : 5,
    "previous" : "https://api.spotify.com/v1/search?query=Rejoice%2C+Rejoice%2C+Believers&type=track&market=US&offset=0&limit=10",
    "total" : 17
  }
}