{
  "tracks" : {
    "href" : "https://api.spotify.com/v1/search?query=Tell+Me+the+Old%2C+Old+Story&type=track&market=US&offset=5&limit=10",
    "items" : [ {
      "album" : {
        "album_type" : "album",
        "artists" : [ {
          "external_urls" : {
            "spotify" : "https://open.spotify.com/artist/4d8pFJwCoD1mX4wAn7Ax2h"
          },
          "href" : "https://api.spotify.com/v1/artists/4d8pFJwCoD1mX4wAn7Ax2h",
          "id" : "4d8pFJwCoD1mX4wAn7Ax2h",
          "name" : "Clovercroft Kids",
          "type" : "artist",
          "uri" : "spotify:artist:4d8pFJwCoD1mX4wAn7Ax2h"
        } ],
        "external_urls" : {
          "spotify" : "https://open.spotify.com/album/1fUH6Xh4HZmbOaYJBeWAZA"
        },
        "href" : "https://api.spotify.com/v1/albums/1fUH6Xh4HZmbOaYJBeWAZA",
        "id" : "1fUH6Xh4HZmbOaYJBeWAZA",
        "images" : [ {
          "height" : 640,
          "url" : "https://i.scdn.co/image/ab67616d0000b2735431f5e400f7da6b32106f40",
          "width" : 640
        }, {
          "height" : 300,
          "url" : "https://i.scdn.co/image/ab67616d00001e025431f5e400f7da6b32106f40",
          "width" : 300
        }, {
          "height" : 64,
          "url" : "https://i.scdn.co/image/ab67616d000048515431f5e400f7da6b32106f40",
          "width" : 64
        } ],
        "name" : "Hymns for Kids: Rock of Ages",
        "release_date" : "2014-09-30",
        "release_date_precision" : "day",
        "total_tracks" : 40,
        "type" : "album",
        "uri" : "spotify:album:1fUH6Xh4HZmbOaYJBeWAZA"
      },
      "artists" : [ {
        "external_urls" : {
          "spotify" : "https://open.spotify.com/artist/4d8pFJwCoD1mX4wAn7Ax2h"
        },
        "href" : "https://api.spotify.com/v1/artists/4d8pFJwCoD1mX4wAn7Ax2h",
        "id" : "4d8pFJwCoD1mX4wAn7Ax2h",
        "name" : "Clovercroft Kids",
        "type" : "artist",
        "uri" : "spotify:artist:4d8pFJwCoD1mX4wAn7Ax2h"
      } ],
      "disc_number" : 1,
      "duration_ms" : 100106,
      "explicit" : false,
      "external_ids" : {
        "isrc" : "USACX1401309"
      },
      "external_urls" : {
        "spotify" : "https://open.spotify.com/track/3k2BrsUdvjQCGjdvbYCMx5"
      },
      "href" : "https://api.spotify.com/v1/tracks/3k2BrsUdvjQCGjdvbYCMx5",
      "id" : "3k2BrsUdvjQCGjdvbYCMx5",
      "is_local" : false,
      "is_playable" : true,
      "name" : "Tell Me The Old Old Story",
      "popularity" : 3,
      "preview_url" : "https://p.scdn.co/mp3-preview/6543180b96f3898ce6afd7bd6a0c4d5db798790d?cid=774b29d4f13844c495f206cafdad9c86",
      "track_number" : 18,
      "type" : "track",
      "uri" : "spotify:track:3k2BrsUdvjQCGjdvbYCMx5"
    }, {
      "album" : {
        "album_type" : "album",
        "artists" : [ {
          "external_urls" : {
            "spotify" : "https://open.spotify.com/artist/2IGGCEjM7nyC7jFQR23Owt"
          },
          "href" : "https://api.spotify.com/v1/artists/2IGGCEjM7nyC7jFQR23Owt",
          "id" : "2IGGCEjM7nyC7jFQR23Owt",
          "name" : "Voice of Praise",
          "type" : "artist",
          "uri" : "spotify:artist:2IGGCEjM7nyC7jFQR23Owt"
        } ],
        "external_urls" : {
          "spotify" : "https://open.spotify.com/album/18sQYmLM7LR44a4lWAMXe7"
        },
        "href" : "https://api.spotify.com/v1/albums/18sQYmLM7LR44a4lWAMXe7",
        "id" : "18sQYmLM7LR44a4lWAMXe7",
        "images" : [ {
          "height" : 640,
          "url" : "https://i.scdn.co/image/ab67616d0000b273fb77073dba455b613ec5964c",
          "width" : 640
        }, {
          "height" : 300,
          "url" : "https://i.scdn.co/image/ab67616d00001e02fb77073dba455b613ec5964c",
          "width" : 300
        }, {
          "height" : 64,
          "url" : "https://i.scdn.co/image/ab67616d00004851fb77073dba455b613ec5964c",
          "width" : 64
        } ],
        "name" : "Holy Ground",
        "release_date" : "2013-01-01",
        "release_date_precision" : "day",
        "total_tracks" : 12,
        "type" : "album",
        "uri" : "spotify:album:18sQYmLM7LR44a4lWAMXe7"
      },
      "artists" : [ {
        "external_urls" : {
          "spotify" : "https://open.spotify.com/artist/2IGGCEjM7nyC7jFQR23Owt"
        },
        "href" : "https://api.spotify.com/v1/artists/2IGGCEjM7nyC7jFQR23Owt",
        "id" : "2IGGCEjM7nyC7jFQR23Owt",
        "name" : "Voice of Praise",
        "type" : "artist",
        "uri" : "spotify:artist:2IGGCEjM7nyC7jFQR23Owt"
      } ],
      "disc_number" : 1,
      "duration_ms" : 195546,
      "explicit" : false,
      "external_ids" : {
        "isrc" : "uscgh2078112"
      },
      "external_urls" : {
        "spotify" : "https://open.spotify.com/track/2BwcZ2AcBGpW8M0Xy8CXJn"
      },
      "href" : "https://api.spotify.com/v1/tracks/2BwcZ2AcBGpW8M0Xy8CXJn",
      "id" : "2BwcZ2AcBGpW8M0Xy8CXJn",
      "is_local" : false,
      "is_playable" : true,
      "name" : "The Story of Jesus Medley: Tell Me the Story of Jesus / Tell Me the Old, Old Story / I Love to to Tell the Story",
      "popularity" : 1,
      "preview_url" : "https://p.scdn.co/mp3-preview/1ea79be0a35b8961daa67d8f9043501f3f3806c8?cid=774b29d4f13844c495f206cafdad9c86",
      "track_number" : 7,
      "type" : "track",
      "uri" : "spotify:track:2BwcZ2AcBGpW8M0Xy8CXJn"
    }, {
      "album" : {
        "album_type" : "album",
        "artists" : [ {
          "external_urls" : {
            "spotify" : "https://open.spotify.com/artist/59B2CHEMh1to8diq0jB92r"
          },
          "href" : "https://api.spotify.com/v1/artists/59B2CHEMh1to8diq0jB92r",
          "id" : "59B2CHEMh1to8diq0jB92r",
          "name" : "John Tesh",
          "type" : "artist",
          "uri" : "spotify:artist:59B2CHEMh1to8diq0jB92r"
        } ],
        "external_urls" : {
          "spotify" : "https://open.spotify.com/album/36sbkBelIigQieRPWxQqLX"
        },
        "href" : "https://api.spotify.com/v1/albums/36sbkBelIigQieRPWxQqLX",
        "id" : "36sbkBelIigQieRPWxQqLX",
        "images" : [ {
          "height" : 640,
          "url" : "https://i.scdn.co/image/ab67616d0000b27336fb41b54204750c41d3e6ee",
          "width" : 640
        }, {
          "height" : 300,
          "url" : "https://i.scdn.co/image/ab67616d00001e0236fb41b54204750c41d3e6ee",
          "width" : 300
        }, {
          "height" : 64,
          "url" : "https://i.scdn.co/image/ab67616d0000485136fb41b54204750c41d3e6ee",
          "width" : 64
        } ],
        "name" : "Pure Gospel",
        "release_date" : "2001-03-13",
        "release_date_precision" : "day",
        "total_tracks" : 14,
        "type" : "album",
        "uri" : "spotify:album:36sbkBelIigQieRPWxQqLX"
      },
      "artists" : [ {
        "external_urls" : {
          "spotify" : "https://open.spotify.com/artist/59B2CHEMh1to8diq0jB92r"
        },
        "href" : "https://api.spotify.com/v1/artists/59B2CHEMh1to8diq0jB92r",
        "id" : "59B2CHEMh1to8diq0jB92r",
        "name" : "John Tesh",
        "type" : "artist",
        "uri" : "spotify:artist:59B2CHEMh1to8diq0jB92r"
      } ],
      "disc_number" : 1,
      "duration_ms" : 157853,
      "explicit" : false,
      "external_ids" : {
        "isrc" : "USACX1300431"
      },
      "external_urls" : {
        "spotify" : "https://open.spotify.com/track/0QRrYaGfyuzms1boe2r7Uw"
      },
      "href" : "https://api.spotify.com/v1/tracks/0QRrYaGfyuzms1boe2r7Uw",
      "id" : "0QRrYaGfyuzms1boe2r7Uw",
      "is_local" : false,
      "is_playable" : true,
      "name" : "Tell Me the Old, Old Story",
      "popularity" : 2,
      "preview_url" : "https://p.scdn.co/mp3-preview/28c17446cc339de0eea330cbc9ee7b04c148b4a5?cid=774b29d4f13844c495f206cafdad9c86",
      "track_number" : 6,
      "type" : "track",
      "uri" : "spotify:track:0QRrYaGfyuzms1boe2r7Uw"
    }, {
      "album" : {
        "album_type" : "compilation",
        "artists" : [ {
          "external_urls" : {
            "spotify" : "https://open.spotify.com/artist/0LyfQWJT6nXafLPZqxe9Of"
          },
          "href" : "https://api.spotify.com/v1/artists/0LyfQWJT6nXafLPZqxe9Of",
          "id" : "0LyfQWJT6nXafLPZqxe9Of",
          "name" : "Various Artists",
          "type" : "artist",
          "uri" : "spotify:artist:0LyfQWJT6nXafLPZqxe9Of"
        } ],
        "external_urls" : {
          "spotify" : "https://open.spotify.com/album/1QOq5JbB9M7KdsHTiwb94G"
        },
        "href" : "https://api.spotify.com/v1/albums/1QOq5JbB9M7KdsHTiwb94G",
        "id" : "1QOq5JbB9M7KdsHTiwb94G",
        "images" : [ {
          "height" : 640,
          "url" : "https://i.scdn.co/image/ab67616d0000b2738ceb3a2f5556e04bed61a8ad",
          "width" : 640
        }, {
          "height" : 300,
          "url" : "https://i.scdn.co/image/ab67616d00001e028ceb3a2f5556e04bed61a8ad",
          "width" : 300
        }, {
          "height" : 64,
          "url" : "https://i.scdn.co/image/ab67616d000048518ceb3a2f5556e04bed61a8ad",
          "width" : 64
        } ],
        "name" : "No Surrender",
        "release_date" : "2018-01-01",
        "release_date_precision" : "day",
        "total_tracks" : 20,
        "type" : "album",
        "uri" : "spotify:album:1QOq5JbB9M7KdsHTiwb94G"
      },
      "artists" : [ {
        "external_urls" : {
          "spotify" : "https://open.spotify.com/artist/44odYzhIXijv8sfg2DCxT0"
        },
        "href" : "https://api.spotify.com/v1/artists/44odYzhIXijv8sfg2DCxT0",
        "id" : "44odYzhIXijv8sfg2DCxT0",
        "name" : "The Diamond Accordion Band",
        "type" : "artist",
        "uri" : "spotify:artist:44odYzhIXijv8sfg2DCxT0"
      } ],
      "disc_number" : 1,
      "duration_ms" : 108146,
      "explicit" : false,
      "external_ids" : {
        "isrc" : "USA2P1864655"
      },
      "external_urls" : {
        "spotify" : "https://open.spotify.com/track/0avwjyutEsA3TSzXVZLZHr"
      },
      "href" : "https://api.spotify.com/v1/tracks/0avwjyutEsA3TSzXVZLZHr",
      "id" : "0avwjyutEsA3TSzXVZLZHr",
      "is_local" : false,
      "is_playable" : true,
      "name" : "Tell Me the Old Old Story",
      "popularity" : 0,
      "preview_url" : "https://p.scdn.co/mp3-preview/837d6df20885710e763aafb703200ce22771d0db?cid=774b29d4f13844c495f206cafdad9c86",
      "track_number" : 19,
      "type" : "track",
      "uri" : "spotify:track:0avwjyutEsA3TSzXVZLZHr"
    }, {
      "album" : {
        "album_type" : "album",
        "artists" : [ {
          "external_urls" : {
            "spotify" : "https://open.spotify.com/artist/3BqjTtatJ9Qqx0idlDhF2t"
          },
          "href" : "https://api.spotify.com/v1/artists/3BqjTtatJ9Qqx0idlDhF2t",
          "id" : "3BqjTtatJ9Qqx0idlDhF2t",
          "name" : "Cedar Lane Studio Orchestra",
          "type" : "artist",
          "uri" : "spotify:artist:3BqjTtatJ9Qqx0idlDhF2t"
        } ],
        "external_urls" : {
          "spotify" : "https://open.spotify.com/album/3ygXsgqGHqyDJvcyg2uXvl"
        },
        "href" : "https://api.spotify.com/v1/albums/3ygXsgqGHqyDJvcyg2uXvl",
        "id" : "3ygXsgqGHqyDJvcyg2uXvl",
        "images" : [ {
          "height" : 640,
          "url" : "https://i.scdn.co/image/ab67616d0000b273fff00a03e16b14e5830ee171",
          "width" : 640
        }, {
          "height" : 300,
          "url" : "https://i.scdn.co/image/ab67616d00001e02fff00a03e16b14e5830ee171",
          "width" : 300
        }, {
          "height" : 64,
          "url" : "https://i.scdn.co/image/ab67616d00004851fff00a03e16b14e5830ee171",
          "width" : 64
        } ],
        "name" : "Faithful",
        "release_date" : "2010-03-09",
        "release_date_precision" : "day",
        "total_tracks" : 16,
        "type" : "album",
        "uri" : "spotify:album:3ygXsgqGHqyDJvcyg2uXvl"
      },
      "artists" : [ {
        "external_urls" : {
          "spotify" : "https://open.spotify.com/artist/3ezpqsS5qOy0ufCcjKVz3d"
        },
        "href" : "https://api.spotify.com/v1/artists/3ezpqsS5qOy0ufCcjKVz3d",
        "id" : "3ezpqsS5qOy0ufCcjKVz3d",
        "name" : "Praise & Glory Review",
        "type" : "artist",
        "uri" : "spotify:artist:3ezpqsS5qOy0ufCcjKVz3d"
      } ],
      "disc_number" : 1,
      "duration_ms" : 185675,
      "explicit" : false,
      "external_ids" : {
        "isrc" : "CAM460700539"
      },
      "external_urls" : {
        "spotify" : "https://open.spotify.com/track/0oHpXE2xW69862GWdElDoM"
      },
      "href" : "https://api.spotify.com/v1/tracks/0oHpXE2xW69862GWdElDoM",
      "id" : "0oHpXE2xW69862GWdElDoM",
      "is_local" : false,
      "is_playable" : true,
      "name" : "Tell Me The Old, Old Story",
      "popularity" : 0,
      "preview_url" : "https://p.scdn.co/mp3-preview/52010a951e4cfc1d8afe364483cbbede05fd8ad4?cid=774b29d4f13844c495f206cafdad9c86",
      "track_number" : 16,
      "type" : "track",
      "uri" : "spotify:track:0oHpXE2xW69862GWdElDoM"
    }, {
      "album" : {
        "album_type" : "album",
        "artists" : [ {
          "external_urls" : {
            "spotify" : "https://open.spotify.com/artist/19qkkP48wsCZgfYv6lK8BW"
          },
          "href" : "https://api.spotify.com/v1/artists/19qkkP48wsCZgfYv6lK8BW",
          "id" : "19qkkP48wsCZgfYv6lK8BW",
          "name" : "Linda Franks Band",
          "type" : "artist",
          "uri" : "spotify:artist:19qkkP48wsCZgfYv6lK8BW"
        } ],
        "external_urls" : {
          "spotify" : "https://open.spotify.com/album/4RMHT5ALJwPGuDLQDbjL8n"
        },
        "href" : "https://api.spotify.com/v1/albums/4RMHT5ALJwPGuDLQDbjL8n",
        "id" : "4RMHT5ALJwPGuDLQDbjL8n",
        "images" : [ {
          "height" : 640,
          "url" : "https://i.scdn.co/image/ab67616d0000b2735c501b6acadbdd318afd8eb7",
          "width" : 640
        }, {
          "height" : 300,
          "url" : "https://i.scdn.co/image/ab67616d00001e025c501b6acadbdd318afd8eb7",
          "width" : 300
        }, {
          "height" : 64,
          "url" : "https://i.scdn.co/image/ab67616d000048515c501b6acadbdd318afd8eb7",
          "width" : 64
        } ],
        "name" : "Christian Music (100 Tracks)",
        "release_date" : "2014-03-18",
        "release_date_precision" : "day",
        "total_tracks" : 100,
        "type" : "album",
        "uri" : "spotify:album:4RMHT5ALJwPGuDLQDbjL8n"
      },
      "artists" : [ {
        "external_urls" : {
          "spotify" : "https://open.spotify.com/artist/19qkkP48wsCZgfYv6lK8BW"
        },
        "href" : "https://api.spotify.com/v1/artists/19qkkP48wsCZgfYv6lK8BW",
        "id" : "19qkkP48wsCZgfYv6lK8BW",
        "name" : "Linda Franks Band",
        "type" : "artist",
        "uri" : "spotify:artist:19qkkP48wsCZgfYv6lK8BW"
      } ],
      "disc_number" : 1,
      "duration_ms" : 132493,
      "explicit" : false,
      "external_ids" : {
        "isrc" : "QMBZ91354001"
      },
      "external_urls" : {
        "spotify" : "https://open.spotify.com/track/2MTBirrEFQ7ObhUIPqOzvc"
      },
      "href" : "https://api.spotify.com/v1/tracks/2MTBirrEFQ7ObhUIPqOzvc",
      "id" : "2MTBirrEFQ7ObhUIPqOzvc",
      "is_local" : false,
      "is_playable" : true,
      "name" : "Tell Me the Old Old Story",
      "popularity" : 0,
      "preview_url" : "https://p.scdn.co/mp3-preview/3395e9495e29cfe77974433e16bd612bf1a4dda3?cid=774b29d4f13844c495f206cafdad9c86",
      "track_number" : 76,
      "type" : "track",
      "uri" : "spotify:track:2MTBirrEFQ7ObhUIPqOzvc"
    }, {
      "album" : {
        "album_type" : "compilation",
        "artists" : [ {
          "external_urls" : {
            "spotify" : "https://open.spotify.com/artist/0LyfQWJT6nXafLPZqxe9Of"
          },
          "href" : "https://api.spotify.com/v1/artists/0LyfQWJT6nXafLPZqxe9Of",
          "id" : "0LyfQWJT6nXafLPZqxe9Of",
          "name" : "Various Artists",
          "type" : "artist",
          "uri" : "spotify:artist:0LyfQWJT6nXafLPZqxe9Of"
        } ],
        "external_urls" : {
          "spotify" : "https://open.spotify.com/album/0NNKSKhYoWqwhtMGDCxkdJ"
        },
        "href" : "https://api.spotify.com/v1/albums/0NNKSKhYoWqwhtMGDCxkdJ",
        "id" : "0NNKSKhYoWqwhtMGDCxkdJ",
        "images" : [ {
          "height" : 640,
          "url" : "https://i.scdn.co/image/ab67616d0000b273cfad9ce08d70a02173196c26",
          "width" : 640
        }, {
          "height" : 300,
          "url" : "https://i.scdn.co/image/ab67616d00001e02cfad9ce08d70a02173196c26",
          "width" : 300
        }, {
          "height" : 64,
          "url" : "https://i.scdn.co/image/ab67616d00004851cfad9ce08d70a02173196c26",
          "width" : 64
        } ],
        "name" : "Gospel Favourites from Ireland",
        "release_date" : "2016-01-01",
        "release_date_precision" : "day",
        "total_tracks" : 72,
        "type" : "album",
        "uri" : "spotify:album:0NNKSKhYoWqwhtMGDCxkdJ"
      },
      "artists" : [ {
        "external_urls" : {
          "spotify" : "https://open.spotify.com/artist/6m5PIkRx6gjrPOH7dX1Jc6"
        },
        "href" : "https://api.spotify.com/v1/artists/6m5PIkRx6gjrPOH7dX1Jc6",
        "id" : "6m5PIkRx6gjrPOH7dX1Jc6",
        "name" : "Ann Williamson",
        "type" : "artist",
        "uri" : "spotify:artist:6m5PIkRx6gjrPOH7dX1Jc6"
      } ],
      "disc_number" : 1,
      "duration_ms" : 173786,
      "explicit" : false,
      "external_ids" : {
        "isrc" : "USA2P1687418"
      },
      "external_urls" : {
        "spotify" : "https://open.spotify.com/track/32pr5ctoY0un4Tk8ZUT6AF"
      },
      "href" : "https://api.spotify.com/v1/tracks/32pr5ctoY0un4Tk8ZUT6AF",
      "id" : "32pr5ctoY0un4Tk8ZUT6AF",
      "is_local" : false,
      "is_playable" : true,
      "name" : "Tell Me the Old Old Story",
      "popularity" : 0,
      "preview_url" : "https://p.scdn.co/mp3-preview/718dc635f60be79f82cc5de22632a8f7addbd36a?cid=774b29d4f13844c495f206cafdad9c86",
      "track_number" : 37,
      "type" : "track",
      "uri" : "spotify:track:32pr5ctoY0un4Tk8ZUT6AF"
    }, {
      "album" : {
        "album_type" : "album",
        "artists" : [ {
          "external_urls" : {
            "spotify" : "https://open.spotify.com/artist/1U5zgr455OGyIkLNXvDdrf"
          },
          "href" : "https://api.spotify.com/v1/artists/1U5zgr455OGyIkLNXvDdrf",
          "id" : "1U5zgr455OGyIkLNXvDdrf",
          "name" : "Traditional",
          "type" : "artist",
          "uri" : "spotify:artist:1U5zgr455OGyIkLNXvDdrf"
        }, {
          "external_urls" : {
            "spotify" : "https://open.spotify.com/artist/1oHa0rzTMgcmtroGaHUJEQ"
          },
          "href" : "https://api.spotify.com/v1/artists/1oHa0rzTMgcmtroGaHUJEQ",
          "id" : "1oHa0rzTMgcmtroGaHUJEQ",
          "name" : "The Jubilee Choir",
          "type" : "artist",
          "uri" : "spotify:artist:1oHa0rzTMgcmtroGaHUJEQ"
        } ],
        "external_urls" : {
          "spotify" : "https://open.spotify.com/album/0fPw0RPyIlCi7pWHsjqydR"
        },
        "href" : "https://api.spotify.com/v1/albums/0fPw0RPyIlCi7pWHsjqydR",
        "id" : "0fPw0RPyIlCi7pWHsjqydR",
        "images" : [ {
          "height" : 640,
          "url" : "https://i.scdn.co/image/ab67616d0000b2733c2c03a7f9b058945ad99b9e",
          "width" : 640
        }, {
          "height" : 300,
          "url" : "https://i.scdn.co/image/ab67616d00001e023c2c03a7f9b058945ad99b9e",
          "width" : 300
        }, {
          "height" : 64,
          "url" : "https://i.scdn.co/image/ab67616d000048513c2c03a7f9b058945ad99b9e",
          "width" : 64
        } ],
        "name" : "Choir Favorites",
        "release_date" : "2008-09-23",
        "release_date_precision" : "day",
        "total_tracks" : 28,
        "type" : "album",
        "uri" : "spotify:album:0fPw0RPyIlCi7pWHsjqydR"
      },
      "artists" : [ {
        "external_urls" : {
          "spotify" : "https://open.spotify.com/artist/1U5zgr455OGyIkLNXvDdrf"
        },
        "href" : "https://api.spotify.com/v1/artists/1U5zgr455OGyIkLNXvDdrf",
        "id" : "1U5zgr455OGyIkLNXvDdrf",
        "name" : "Traditional",
        "type" : "artist",
        "uri" : "spotify:artist:1U5zgr455OGyIkLNXvDdrf"
      }, {
        "external_urls" : {
          "spotify" : "https://open.spotify.com/artist/1oHa0rzTMgcmtroGaHUJEQ"
        },
        "href" : "https://api.spotify.com/v1/artists/1oHa0rzTMgcmtroGaHUJEQ",
        "id" : "1oHa0rzTMgcmtroGaHUJEQ",
        "name" : "The Jubilee Choir",
        "type" : "artist",
        "uri" : "spotify:artist:1oHa0rzTMgcmtroGaHUJEQ"
      } ],
      "disc_number" : 1,
      "duration_ms" : 53773,
      "explicit" : false,
      "external_ids" : {
        "isrc" : "GBSWE0809894"
      },
      "external_urls" : {
        "spotify" : "https://open.spotify.com/track/3CSIcLg6ZTpngIjM9iwf02"
      },
      "href" : "https://api.spotify.com/v1/tracks/3CSIcLg6ZTpngIjM9iwf02",
      "id" : "3CSIcLg6ZTpngIjM9iwf02",
      "is_local" : false,
      "is_playable" : true,
      "name" : "Tell Me the Old, Old Story",
      "popularity" : 0,
      "preview_url" : "https://p.scdn.co/mp3-preview/a15a8b8c1cadb2525a93d99a507ff90f830270ee?cid=774b29d4f13844c495f206cafdad9c86",
      "track_number" : 11,
      "type" : "track",
      "uri" : "spotify:track:3CSIcLg6ZTpngIjM9iwf02"
    }, {
      "album" : {
        "album_type" : "album",
        "artists" : [ {
          "external_urls" : {
            "spotify" : "https://open.spotify.com/artist/1RRQMvuWQBNWAMVWLIgCLj"
          },
          "href" : "https://api.spotify.com/v1/artists/1RRQMvuWQBNWAMVWLIgCLj",
          "id" : "1RRQMvuWQBNWAMVWLIgCLj",
          "name" : "The Sign Posters",
          "type" : "artist",
          "uri" : "spotify:artist:1RRQMvuWQBNWAMVWLIgCLj"
        } ],
        "external_urls" : {
          "spotify" : "https://open.spotify.com/album/7ImUPUNKJJqxy9eXeWQFXx"
        },
        "href" : "https://api.spotify.com/v1/albums/7ImUPUNKJJqxy9eXeWQFXx",
        "id" : "7ImUPUNKJJqxy9eXeWQFXx",
        "images" : [ {
          "height" : 640,
          "url" : "https://i.scdn.co/image/ab67616d0000b27327147c393caf2aeb3e7a8fab",
          "width" : 640
        }, {
          "height" : 300,
          "url" : "https://i.scdn.co/image/ab67616d00001e0227147c393caf2aeb3e7a8fab",
          "width" : 300
        }, {
          "height" : 64,
          "url" : "https://i.scdn.co/image/ab67616d0000485127147c393caf2aeb3e7a8fab",
          "width" : 64
        } ],
        "name" : "Hymns & Songs of Praise - Vol. 3",
        "release_date" : "2011-07-01",
        "release_date_precision" : "day",
        "total_tracks" : 12,
        "type" : "album",
        "uri" : "spotify:album:7ImUPUNKJJqxy9eXeWQFXx"
      },
      "artists" : [ {
        "external_urls" : {
          "spotify" : "https://open.spotify.com/artist/1RRQMvuWQBNWAMVWLIgCLj"
        },
        "href" : "https://api.spotify.com/v1/artists/1RRQMvuWQBNWAMVWLIgCLj",
        "id" : "1RRQMvuWQBNWAMVWLIgCLj",
        "name" : "The Sign Posters",
        "type" : "artist",
        "uri" : "spotify:artist:1RRQMvuWQBNWAMVWLIgCLj"
      } ],
      "disc_number" : 1,
      "duration_ms" : 185480,
      "explicit" : false,
      "external_ids" : {
        "isrc" : "USA561454097"
      },
      "external_urls" : {
        "spotify" : "https://open.spotify.com/track/3tkUldQJBtUY94z5BuJ0t5"
      },
      "href" : "https://api.spotify.com/v1/tracks/3tkUldQJBtUY94z5BuJ0t5",
      "id" : "3tkUldQJBtUY94z5BuJ0t5",
      "is_local" : false,
      "is_playable" : true,
      "name" : "Tell Me the Old, Old Story",
      "popularity" : 0,
      "preview_url" : "https://p.scdn.co/mp3-preview/a08b0275aa286f607f271c12180381b679c52dd3?cid=774b29d4f13844c495f206cafdad9c86",
      "track_number" : 1,
      "type" : "track",
      "uri" : "spotify:track:3tkUldQJBtUY94z5BuJ0t5"
    }, {
      "album" : {
        "album_type" : "album",
        "artists" : [ {
          "external_urls" : {
            "spotify" : "https://open.spotify.com/artist/7IR2iaqI0eLEu1COOgmC0u"
          },
          "href" : "https://api.spotify.com/v1/artists/7IR2iaqI0eLEu1COOgmC0u",
          "id" : "7IR2iaqI0eLEu1COOgmC0u",
          "name" : "Joan Lakes",
          "type" : "artist",
          "uri" : "spotify:artist:7IR2iaqI0eLEu1COOgmC0u"
        } ],
        "external_urls" : {
          "spotify" : "https://open.spotify.com/album/2SXSt9IBrNnYxIMYN2Sfi7"
        },
        "href" : "https://api.spotify.com/v1/albums/2SXSt9IBrNnYxIMYN2Sfi7",
        "id" : "2SXSt9IBrNnYxIMYN2Sfi7",
        "images" : [ {
          "height" : 640,
          "url" : "https://i.scdn.co/image/ab67616d0000b273798a8bb10cded63f2319da35",
          "width" : 640
        }, {
          "height" : 300,
          "url" : "https://i.scdn.co/image/ab67616d00001e02798a8bb10cded63f2319da35",
          "width" : 300
        }, {
          "height" : 64,
          "url" : "https://i.scdn.co/image/ab67616d00004851798a8bb10cded63f2319da35",
          "width" : 64
        } ],
        "name" : "Christian Music (100 Tracks) [Special Edition]",
        "release_date" : "2015-10-16",
        "release_date_precision" : "day",
        "total_tracks" : 100,
        "type" : "album",
        "uri" : "spotify:album:2SXSt9IBrNnYxIMYN2Sfi7"
      },
      "artists" : [ {
        "external_urls" : {
          "spotify" : "https://open.spotify.com/artist/7IR2iaqI0eLEu1COOgmC0u"
        },
        "href" : "https://api.spotify.com/v1/artists/7IR2iaqI0eLEu1COOgmC0u",
        "id" : "7IR2iaqI0eLEu1COOgmC0u",
        "name" : "Joan Lakes",
        "type" : "artist",
        "uri" : "spotify:artist:7IR2iaqI0eLEu1COOgmC0u"
      } ],
      "disc_number" : 1,
      "duration_ms" : 132493,
      "explicit" : false,
      "external_ids" : {
        "isrc" : "QMBZ91354001"
      },
      "external_urls" : {
        "spotify" : "https://open.spotify.com/track/5NQcEQhGkJA24J9ctZWzWG"
      },
      "href" : "https://api.spotify.com/v1/tracks/5NQcEQhGkJA24J9ctZWzWG",
      "id" : "5NQcEQhGkJA24J9ctZWzWG",
      "is_local" : false,
      "is_playable" : true,
      "name" : "Tell Me the Old Old Story",
      "popularity" : 0,
      "preview_url" : "https://p.scdn.co/mp3-preview/3395e9495e29cfe77974433e16bd612bf1a4dda3?cid=774b29d4f13844c495f206cafdad9c86",
      "track_number" : 76,
      "type" : "track",
      "uri" : "spotify:track:5NQcEQhGkJA24J9ctZWzWG"
    } ],
    "limit" : 10,
    "next" : "https://api.spotify.com/v1/search?query=Tell+Me+the+Old%2C+Old+Story&type=track&market=US&offset=15&limit=10",
    "offset" : 5,
    "previous" : "https://api.spotify.com/v1/search?query=Tell+Me+the+Old%2C+Old+Story&type=track&market=US&offset=0&limit=10",
    "total" : 103
  }
}