{
  "tracks" : {
    "href" : "https://api.spotify.com/v1/search?query=Marching+to+Zion&type=track&market=US&offset=5&limit=10",
    "items" : [ {
      "album" : {
        "album_type" : "album",
        "artists" : [ {
          "external_urls" : {
            "spotify" : "https://open.spotify.com/artist/4wsTMvkVb64q3oIV7omVFv"
          },
          "href" : "https://api.spotify.com/v1/artists/4wsTMvkVb64q3oIV7omVFv",
          "id" : "4wsTMvkVb64q3oIV7omVFv",
          "name" : "The Coventry Singers",
          "type" : "artist",
          "uri" : "spotify:artist:4wsTMvkVb64q3oIV7omVFv"
        } ],
        "external_urls" : {
          "spotify" : "https://open.spotify.com/album/1kZxotLCy59UtAMpxOHx7N"
        },
        "href" : "https://api.spotify.com/v1/albums/1kZxotLCy59UtAMpxOHx7N",
        "id" : "1kZxotLCy59UtAMpxOHx7N",
        "images" : [ {
          "height" : 640,
          "url" : "https://i.scdn.co/image/ab67616d0000b2731388326568dfd6526e8edc95",
          "width" : 640
        }, {
          "height" : 300,
          "url" : "https://i.scdn.co/image/ab67616d00001e021388326568dfd6526e8edc95",
          "width" : 300
        }, {
          "height" : 64,
          "url" : "https://i.scdn.co/image/ab67616d000048511388326568dfd6526e8edc95",
          "width" : 64
        } ],
        "name" : "The Hymn Writers: Isaac Watts",
        "release_date" : "2013-02-18",
        "release_date_precision" : "day",
        "total_tracks" : 15,
        "type" : "album",
        "uri" : "spotify:album:1kZxotLCy59UtAMpxOHx7N"
      },
      "artists" : [ {
        "external_urls" : {
          "spotify" : "https://open.spotify.com/artist/4wsTMvkVb64q3oIV7omVFv"
        },
        "href" : "https://api.spotify.com/v1/artists/4wsTMvkVb64q3oIV7omVFv",
        "id" : "4wsTMvkVb64q3oIV7omVFv",
        "name" : "The Coventry Singers",
        "type" : "artist",
        "uri" : "spotify:artist:4wsTMvkVb64q3oIV7omVFv"
      } ],
      "disc_number" : 1,
      "duration_ms" : 204186,
      "explicit" : false,
      "external_ids" : {
        "isrc" : "GBME51301403"
      },
      "external_urls" : {
        "spotify" : "https://open.spotify.com/track/5gLUB2IjdfYSaefB8uHyiu"
      },
      "href" : "https://api.spotify.com/v1/tracks/5gLUB2IjdfYSaefB8uHyiu",
      "id" : "5gLUB2IjdfYSaefB8uHyiu",
      "is_local" : false,
      "is_playable" : true,
      "name" : "Come We That Love the Lord (We're Marching to Zion)",
      "popularity" : 13,
      "preview_url" : "https://p.scdn.co/mp3-preview/50c8b3f129b9a0d3b3d92690106454011ec0cbc8?cid=774b29d4f13844c495f206cafdad9c86",
      "track_number" : 3,
      "type" : "track",
      "uri" : "spotify:track:5gLUB2IjdfYSaefB8uHyiu"
    }, {
      "album" : {
        "album_type" : "album",
        "artists" : [ {
          "external_urls" : {
            "spotify" : "https://open.spotify.com/artist/0zYyfhX87rISSc9dyJQK5t"
          },
          "href" : "https://api.spotify.com/v1/artists/0zYyfhX87rISSc9dyJQK5t",
          "id" : "0zYyfhX87rISSc9dyJQK5t",
          "name" : "Craig Duncan",
          "type" : "artist",
          "uri" : "spotify:artist:0zYyfhX87rISSc9dyJQK5t"
        } ],
        "external_urls" : {
          "spotify" : "https://open.spotify.com/album/0ob1zTtlONfPuxXFcKGleK"
        },
        "href" : "https://api.spotify.com/v1/albums/0ob1zTtlONfPuxXFcKGleK",
        "id" : "0ob1zTtlONfPuxXFcKGleK",
        "images" : [ {
          "height" : 640,
          "url" : "https://i.scdn.co/image/ab67616d0000b273a1175a048ec53a3baba55a37",
          "width" : 640
        }, {
          "height" : 300,
          "url" : "https://i.scdn.co/image/ab67616d00001e02a1175a048ec53a3baba55a37",
          "width" : 300
        }, {
          "height" : 64,
          "url" : "https://i.scdn.co/image/ab67616d00004851a1175a048ec53a3baba55a37",
          "width" : 64
        } ],
        "name" : "30 Favorite Celtic Hymns: 30 Hymns Featuring Traditional Irish Instruments",
        "release_date" : "2012-01-01",
        "release_date_precision" : "day",
        "total_tracks" : 30,
        "type" : "album",
        "uri" : "spotify:album:0ob1zTtlONfPuxXFcKGleK"
      },
      "artists" : [ {
        "external_urls" : {
          "spotify" : "https://open.spotify.com/artist/0zYyfhX87rISSc9dyJQK5t"
        },
        "href" : "https://api.spotify.com/v1/artists/0zYyfhX87rISSc9dyJQK5t",
        "id" : "0zYyfhX87rISSc9dyJQK5t",
        "name" : "Craig Duncan",
        "type" : "artist",
        "uri" : "spotify:artist:0zYyfhX87rISSc9dyJQK5t"
      } ],
      "disc_number" : 1,
      "duration_ms" : 170613,
      "explicit" : false,
      "external_ids" : {
        "isrc" : "USB4U0850323"
      },
      "external_urls" : {
        "spotify" : "https://open.spotify.com/track/13cbg3OJww0XvAcTwICyBj"
      },
      "href" : "https://api.spotify.com/v1/tracks/13cbg3OJww0XvAcTwICyBj",
      "id" : "13cbg3OJww0XvAcTwICyBj",
      "is_local" : false,
      "is_playable" : true,
      "name" : "We're Marching To Zion - New England Sunday Album Version",
      "popularity" : 10,
      "preview_url" : null,
      "track_number" : 3,
      "type" : "track",
      "uri" : "spotify:track:13cbg3OJww0XvAcTwICyBj"
    }, {
      "album" : {
        "album_type" : "album",
        "artists" : [ {
          "external_urls" : {
            "spotify" : "https://open.spotify.com/artist/11sAWrpIkFUPQlXoQqpeBV"
          },
          "href" : "https://api.spotify.com/v1/artists/11sAWrpIkFUPQlXoQqpeBV",
          "id" : "11sAWrpIkFUPQlXoQqpeBV",
          "name" : "Bill & Gloria Gaither",
          "type" : "artist",
          "uri" : "spotify:artist:11sAWrpIkFUPQlXoQqpeBV"
        } ],
        "external_urls" : {
          "spotify" : "https://open.spotify.com/album/48dArqWqbmRRq6DYMnqq2I"
        },
        "href" : "https://api.spotify.com/v1/albums/48dArqWqbmRRq6DYMnqq2I",
        "id" : "48dArqWqbmRRq6DYMnqq2I",
        "images" : [ {
          "height" : 640,
          "url" : "https://i.scdn.co/image/ab67616d0000b2738b2b9ff2adef34f28dd4c15c",
          "width" : 640
        }, {
          "height" : 300,
          "url" : "https://i.scdn.co/image/ab67616d00001e028b2b9ff2adef34f28dd4c15c",
          "width" : 300
        }, {
          "height" : 64,
          "url" : "https://i.scdn.co/image/ab67616d000048518b2b9ff2adef34f28dd4c15c",
          "width" : 64
        } ],
        "name" : "America The Beautiful",
        "release_date" : "2004-01-01",
        "release_date_precision" : "day",
        "total_tracks" : 11,
        "type" : "album",
        "uri" : "spotify:album:48dArqWqbmRRq6DYMnqq2I"
      },
      "artists" : [ {
        "external_urls" : {
          "spotify" : "https://open.spotify.com/artist/11sAWrpIkFUPQlXoQqpeBV"
        },
        "href" : "https://api.spotify.com/v1/artists/11sAWrpIkFUPQlXoQqpeBV",
        "id" : "11sAWrpIkFUPQlXoQqpeBV",
        "name" : "Bill & Gloria Gaither",
        "type" : "artist",
        "uri" : "spotify:artist:11sAWrpIkFUPQlXoQqpeBV"
      } ],
      "disc_number" : 1,
      "duration_ms" : 316395,
      "explicit" : false,
      "external_ids" : {
        "isrc" : "US3270400488"
      },
      "external_urls" : {
        "spotify" : "https://open.spotify.com/track/0ICITqVcRY6xXqLW1BZH0j"
      },
      "href" : "https://api.spotify.com/v1/tracks/0ICITqVcRY6xXqLW1BZH0j",
      "id" : "0ICITqVcRY6xXqLW1BZH0j",
      "is_local" : false,
      "is_playable" : true,
      "name" : "Onward Christian Soldiers/Marching To Zion",
      "popularity" : 11,
      "preview_url" : null,
      "track_number" : 9,
      "type" : "track",
      "uri" : "spotify:track:0ICITqVcRY6xXqLW1BZH0j"
    }, {
      "album" : {
        "album_type" : "album",
        "artists" : [ {
          "external_urls" : {
            "spotify" : "https://open.spotify.com/artist/1cCbbRCNMgtr4qc5q969mF"
          },
          "href" : "https://api.spotify.com/v1/artists/1cCbbRCNMgtr4qc5q969mF",
          "id" : "1cCbbRCNMgtr4qc5q969mF",
          "name" : "The Ekklesia Band",
          "type" : "artist",
          "uri" : "spotify:artist:1cCbbRCNMgtr4qc5q969mF"
        } ],
        "external_urls" : {
          "spotify" : "https://open.spotify.com/album/2gRrR1woSmU9JKLPTPKAeW"
        },
        "href" : "https://api.spotify.com/v1/albums/2gRrR1woSmU9JKLPTPKAeW",
        "id" : "2gRrR1woSmU9JKLPTPKAeW",
        "images" : [ {
          "height" : 640,
          "url" : "https://i.scdn.co/image/ab67616d0000b273752dc290721767c964412089",
          "width" : 640
        }, {
          "height" : 300,
          "url" : "https://i.scdn.co/image/ab67616d00001e02752dc290721767c964412089",
          "width" : 300
        }, {
          "height" : 64,
          "url" : "https://i.scdn.co/image/ab67616d00004851752dc290721767c964412089",
          "width" : 64
        } ],
        "name" : "Stories We Had Forgotten",
        "release_date" : "2010-08-10",
        "release_date_precision" : "day",
        "total_tracks" : 11,
        "type" : "album",
        "uri" : "spotify:album:2gRrR1woSmU9JKLPTPKAeW"
      },
      "artists" : [ {
        "external_urls" : {
          "spotify" : "https://open.spotify.com/artist/1cCbbRCNMgtr4qc5q969mF"
        },
        "href" : "https://api.spotify.com/v1/artists/1cCbbRCNMgtr4qc5q969mF",
        "id" : "1cCbbRCNMgtr4qc5q969mF",
        "name" : "The Ekklesia Band",
        "type" : "artist",
        "uri" : "spotify:artist:1cCbbRCNMgtr4qc5q969mF"
      } ],
      "disc_number" : 1,
      "duration_ms" : 242026,
      "explicit" : false,
      "external_ids" : {
        "isrc" : "ushm81030611"
      },
      "external_urls" : {
        "spotify" : "https://open.spotify.com/track/7jDuslnSLUMP384ruJGRX3"
      },
      "href" : "https://api.spotify.com/v1/tracks/7jDuslnSLUMP384ruJGRX3",
      "id" : "7jDuslnSLUMP384ruJGRX3",
      "is_local" : false,
      "is_playable" : true,
      "name" : "Marching to Zion",
      "popularity" : 8,
      "preview_url" : "https://p.scdn.co/mp3-preview/38dbbaf2e0abb0d08da8e0d345191c2a6eb3f47d?cid=774b29d4f13844c495f206cafdad9c86",
      "track_number" : 7,
      "type" : "track",
      "uri" : "spotify:track:7jDuslnSLUMP384ruJGRX3"
    }, {
      "album" : {
        "album_type" : "album",
        "artists" : [ {
          "external_urls" : {
            "spotify" : "https://open.spotify.com/artist/4f6XwTrkJlI4ud1nc4r5dN"
          },
          "href" : "https://api.spotify.com/v1/artists/4f6XwTrkJlI4ud1nc4r5dN",
          "id" : "4f6XwTrkJlI4ud1nc4r5dN",
          "name" : "Patch the Pirate",
          "type" : "artist",
          "uri" : "spotify:artist:4f6XwTrkJlI4ud1nc4r5dN"
        } ],
        "external_urls" : {
          "spotify" : "https://open.spotify.com/album/41HpjGrX5ygoSHy9ylCth8"
        },
        "href" : "https://api.spotify.com/v1/albums/41HpjGrX5ygoSHy9ylCth8",
        "id" : "41HpjGrX5ygoSHy9ylCth8",
        "images" : [ {
          "height" : 640,
          "url" : "https://i.scdn.co/image/ab67616d0000b27344e1abb4467ffb844e954ded",
          "width" : 640
        }, {
          "height" : 300,
          "url" : "https://i.scdn.co/image/ab67616d00001e0244e1abb4467ffb844e954ded",
          "width" : 300
        }, {
          "height" : 64,
          "url" : "https://i.scdn.co/image/ab67616d0000485144e1abb4467ffb844e954ded",
          "width" : 64
        } ],
        "name" : "Hymns Every Child Should Know",
        "release_date" : "2016-03-01",
        "release_date_precision" : "day",
        "total_tracks" : 13,
        "type" : "album",
        "uri" : "spotify:album:41HpjGrX5ygoSHy9ylCth8"
      },
      "artists" : [ {
        "external_urls" : {
          "spotify" : "https://open.spotify.com/artist/4f6XwTrkJlI4ud1nc4r5dN"
        },
        "href" : "https://api.spotify.com/v1/artists/4f6XwTrkJlI4ud1nc4r5dN",
        "id" : "4f6XwTrkJlI4ud1nc4r5dN",
        "name" : "Patch the Pirate",
        "type" : "artist",
        "uri" : "spotify:artist:4f6XwTrkJlI4ud1nc4r5dN"
      } ],
      "disc_number" : 1,
      "duration_ms" : 103506,
      "explicit" : false,
      "external_ids" : {
        "isrc" : "uscgj1602767"
      },
      "external_urls" : {
        "spotify" : "https://open.spotify.com/track/4TiR5TutRa0yeOajbGwz76"
      },
      "href" : "https://api.spotify.com/v1/tracks/4TiR5TutRa0yeOajbGwz76",
      "id" : "4TiR5TutRa0yeOajbGwz76",
      "is_local" : false,
      "is_playable" : true,
      "name" : "We're Marching to Zion",
      "popularity" : 7,
      "preview_url" : "https://p.scdn.co/mp3-preview/3a9abf8cbe76267c03fb0b2b0e0e9a4832994a34?cid=774b29d4f13844c495f206cafdad9c86",
      "track_number" : 7,
      "type" : "track",
      "uri" : "spotify:track:4TiR5TutRa0yeOajbGwz76"
    }, {
      "album" : {
        "album_type" : "album",
        "artists" : [ {
          "external_urls" : {
            "spotify" : "https://open.spotify.com/artist/66wd2UXU9qFFSsXdS8smyY"
          },
          "href" : "https://api.spotify.com/v1/artists/66wd2UXU9qFFSsXdS8smyY",
          "id" : "66wd2UXU9qFFSsXdS8smyY",
          "name" : "Wintley Phipps",
          "type" : "artist",
          "uri" : "spotify:artist:66wd2UXU9qFFSsXdS8smyY"
        } ],
        "external_urls" : {
          "spotify" : "https://open.spotify.com/album/3j8nOkBZFQuKy6nAXQyzYR"
        },
        "href" : "https://api.spotify.com/v1/albums/3j8nOkBZFQuKy6nAXQyzYR",
        "id" : "3j8nOkBZFQuKy6nAXQyzYR",
        "images" : [ {
          "height" : 640,
          "url" : "https://i.scdn.co/image/ab67616d0000b2739e00656f037ee403c6d2a0d4",
          "width" : 640
        }, {
          "height" : 300,
          "url" : "https://i.scdn.co/image/ab67616d00001e029e00656f037ee403c6d2a0d4",
          "width" : 300
        }, {
          "height" : 64,
          "url" : "https://i.scdn.co/image/ab67616d000048519e00656f037ee403c6d2a0d4",
          "width" : 64
        } ],
        "name" : "I Surrender All",
        "release_date" : "2014-10-01",
        "release_date_precision" : "day",
        "total_tracks" : 10,
        "type" : "album",
        "uri" : "spotify:album:3j8nOkBZFQuKy6nAXQyzYR"
      },
      "artists" : [ {
        "external_urls" : {
          "spotify" : "https://open.spotify.com/artist/66wd2UXU9qFFSsXdS8smyY"
        },
        "href" : "https://api.spotify.com/v1/artists/66wd2UXU9qFFSsXdS8smyY",
        "id" : "66wd2UXU9qFFSsXdS8smyY",
        "name" : "Wintley Phipps",
        "type" : "artist",
        "uri" : "spotify:artist:66wd2UXU9qFFSsXdS8smyY"
      } ],
      "disc_number" : 1,
      "duration_ms" : 205093,
      "explicit" : false,
      "external_ids" : {
        "isrc" : "USLF51401783"
      },
      "external_urls" : {
        "spotify" : "https://open.spotify.com/track/6JstqlGQqwUhExPi73b3lP"
      },
      "href" : "https://api.spotify.com/v1/tracks/6JstqlGQqwUhExPi73b3lP",
      "id" : "6JstqlGQqwUhExPi73b3lP",
      "is_local" : false,
      "is_playable" : true,
      "name" : "We're Marching to Zion",
      "popularity" : 9,
      "preview_url" : "https://p.scdn.co/mp3-preview/17985ee6bcd4d5cc405ef826126bd87aa4f2522d?cid=774b29d4f13844c495f206cafdad9c86",
      "track_number" : 4,
      "type" : "track",
      "uri" : "spotify:track:6JstqlGQqwUhExPi73b3lP"
    }, {
      "album" : {
        "album_type" : "album",
        "artists" : [ {
          "external_urls" : {
            "spotify" : "https://open.spotify.com/artist/11sAWrpIkFUPQlXoQqpeBV"
          },
          "href" : "https://api.spotify.com/v1/artists/11sAWrpIkFUPQlXoQqpeBV",
          "id" : "11sAWrpIkFUPQlXoQqpeBV",
          "name" : "Bill & Gloria Gaither",
          "type" : "artist",
          "uri" : "spotify:artist:11sAWrpIkFUPQlXoQqpeBV"
        } ],
        "external_urls" : {
          "spotify" : "https://open.spotify.com/album/30hLJ9QRyQnCbi3CNDdL1S"
        },
        "href" : "https://api.spotify.com/v1/albums/30hLJ9QRyQnCbi3CNDdL1S",
        "id" : "30hLJ9QRyQnCbi3CNDdL1S",
        "images" : [ {
          "height" : 640,
          "url" : "https://i.scdn.co/image/ab67616d0000b27327a5e5ccdecd7b66336f0e6f",
          "width" : 640
        }, {
          "height" : 300,
          "url" : "https://i.scdn.co/image/ab67616d00001e0227a5e5ccdecd7b66336f0e6f",
          "width" : 300
        }, {
          "height" : 64,
          "url" : "https://i.scdn.co/image/ab67616d0000485127a5e5ccdecd7b66336f0e6f",
          "width" : 64
        } ],
        "name" : "Marching To Zion",
        "release_date" : "2005-01-01",
        "release_date_precision" : "day",
        "total_tracks" : 20,
        "type" : "album",
        "uri" : "spotify:album:30hLJ9QRyQnCbi3CNDdL1S"
      },
      "artists" : [ {
        "external_urls" : {
          "spotify" : "https://open.spotify.com/artist/7oL4QveDrMItfdrKm6hQJF"
        },
        "href" : "https://api.spotify.com/v1/artists/7oL4QveDrMItfdrKm6hQJF",
        "id" : "7oL4QveDrMItfdrKm6hQJF",
        "name" : "Jim Hill",
        "type" : "artist",
        "uri" : "spotify:artist:7oL4QveDrMItfdrKm6hQJF"
      } ],
      "disc_number" : 1,
      "duration_ms" : 192986,
      "explicit" : false,
      "external_ids" : {
        "isrc" : "US3270401859"
      },
      "external_urls" : {
        "spotify" : "https://open.spotify.com/track/71fmaufQLmMH8ihcjduzrx"
      },
      "href" : "https://api.spotify.com/v1/tracks/71fmaufQLmMH8ihcjduzrx",
      "id" : "71fmaufQLmMH8ihcjduzrx",
      "is_local" : false,
      "is_playable" : true,
      "name" : "We're Marching To Zion",
      "popularity" : 11,
      "preview_url" : null,
      "track_number" : 3,
      "type" : "track",
      "uri" : "spotify:track:71fmaufQLmMH8ihcjduzrx"
    }, {
      "album" : {
        "album_type" : "compilation",
        "artists" : [ {
          "external_urls" : {
            "spotify" : "https://open.spotify.com/artist/0LyfQWJT6nXafLPZqxe9Of"
          },
          "href" : "https://api.spotify.com/v1/artists/0LyfQWJT6nXafLPZqxe9Of",
          "id" : "0LyfQWJT6nXafLPZqxe9Of",
          "name" : "Various Artists",
          "type" : "artist",
          "uri" : "spotify:artist:0LyfQWJT6nXafLPZqxe9Of"
        } ],
        "external_urls" : {
          "spotify" : "https://open.spotify.com/album/6jjkZj2kNRIAagr0ZuQ6Em"
        },
        "href" : "https://api.spotify.com/v1/albums/6jjkZj2kNRIAagr0ZuQ6Em",
        "id" : "6jjkZj2kNRIAagr0ZuQ6Em",
        "images" : [ {
          "height" : 640,
          "url" : "https://i.scdn.co/image/ab67616d0000b27315f26514b44b5c5330835906",
          "width" : 640
        }, {
          "height" : 300,
          "url" : "https://i.scdn.co/image/ab67616d00001e0215f26514b44b5c5330835906",
          "width" : 300
        }, {
          "height" : 64,
          "url" : "https://i.scdn.co/image/ab67616d0000485115f26514b44b5c5330835906",
          "width" : 64
        } ],
        "name" : "Bill Gaither's 30 Favorite Homecoming Hymns (Live)",
        "release_date" : "2014-01-01",
        "release_date_precision" : "day",
        "total_tracks" : 30,
        "type" : "album",
        "uri" : "spotify:album:6jjkZj2kNRIAagr0ZuQ6Em"
      },
      "artists" : [ {
        "external_urls" : {
          "spotify" : "https://open.spotify.com/artist/7oL4QveDrMItfdrKm6hQJF"
        },
        "href" : "https://api.spotify.com/v1/artists/7oL4QveDrMItfdrKm6hQJF",
        "id" : "7oL4QveDrMItfdrKm6hQJF",
        "name" : "Jim Hill",
        "type" : "artist",
        "uri" : "spotify:artist:7oL4QveDrMItfdrKm6hQJF"
      } ],
      "disc_number" : 1,
      "duration_ms" : 193066,
      "explicit" : false,
      "external_ids" : {
        "isrc" : "US3270401859"
      },
      "external_urls" : {
        "spotify" : "https://open.spotify.com/track/3HPDd1FLzuahrkLeF0a3Vo"
      },
      "href" : "https://api.spotify.com/v1/tracks/3HPDd1FLzuahrkLeF0a3Vo",
      "id" : "3HPDd1FLzuahrkLeF0a3Vo",
      "is_local" : false,
      "is_playable" : true,
      "name" : "We're Marching To Zion - Live",
      "popularity" : 9,
      "preview_url" : null,
      "track_number" : 14,
      "type" : "track",
      "uri" : "spotify:track:3HPDd1FLzuahrkLeF0a3Vo"
    }, {
      "album" : {
        "album_type" : "album",
        "artists" : [ {
          "external_urls" : {
            "spotify" : "https://open.spotify.com/artist/7hEbJvh3BAedDS2vVJvx0B"
          },
          "href" : "https://api.spotify.com/v1/artists/7hEbJvh3BAedDS2vVJvx0B",
          "id" : "7hEbJvh3BAedDS2vVJvx0B",
          "name" : "Andy Griffith",
          "type" : "artist",
          "uri" : "spotify:artist:7hEbJvh3BAedDS2vVJvx0B"
        } ],
        "external_urls" : {
          "spotify" : "https://open.spotify.com/album/4BpPhRItbmc0vSX5ZuarRC"
        },
        "href" : "https://api.spotify.com/v1/albums/4BpPhRItbmc0vSX5ZuarRC",
        "id" : "4BpPhRItbmc0vSX5ZuarRC",
        "images" : [ {
          "height" : 640,
          "url" : "https://i.scdn.co/image/ab67616d0000b27311bfc006076cebbf3e4fe726",
          "width" : 640
        }, {
          "height" : 300,
          "url" : "https://i.scdn.co/image/ab67616d00001e0211bfc006076cebbf3e4fe726",
          "width" : 300
        }, {
          "height" : 64,
          "url" : "https://i.scdn.co/image/ab67616d0000485111bfc006076cebbf3e4fe726",
          "width" : 64
        } ],
        "name" : "Love To Tell Story: 25 Hymns",
        "release_date" : "1996-01-01",
        "release_date_precision" : "day",
        "total_tracks" : 14,
        "type" : "album",
        "uri" : "spotify:album:4BpPhRItbmc0vSX5ZuarRC"
      },
      "artists" : [ {
        "external_urls" : {
          "spotify" : "https://open.spotify.com/artist/7hEbJvh3BAedDS2vVJvx0B"
        },
        "href" : "https://api.spotify.com/v1/artists/7hEbJvh3BAedDS2vVJvx0B",
        "id" : "7hEbJvh3BAedDS2vVJvx0B",
        "name" : "Andy Griffith",
        "type" : "artist",
        "uri" : "spotify:artist:7hEbJvh3BAedDS2vVJvx0B"
      } ],
      "disc_number" : 1,
      "duration_ms" : 281066,
      "explicit" : false,
      "external_ids" : {
        "isrc" : "USSP39610109"
      },
      "external_urls" : {
        "spotify" : "https://open.spotify.com/track/7yKbmpxeHnVAZJKvCq3TQc"
      },
      "href" : "https://api.spotify.com/v1/tracks/7yKbmpxeHnVAZJKvCq3TQc",
      "id" : "7yKbmpxeHnVAZJKvCq3TQc",
      "is_local" : false,
      "is_playable" : true,
      "name" : "We're Marching To Zion / When The Saints Go Marching In",
      "popularity" : 7,
      "preview_url" : null,
      "track_number" : 5,
      "type" : "track",
      "uri" : "spotify:track:7yKbmpxeHnVAZJKvCq3TQc"
    }, {
      "album" : {
        "album_type" : "album",
        "artists" : [ {
          "external_urls" : {
            "spotify" : "https://open.spotify.com/artist/5TVL4FXEntBYZb3ujyt6fH"
          },
          "href" : "https://api.spotify.com/v1/artists/5TVL4FXEntBYZb3ujyt6fH",
          "id" : "5TVL4FXEntBYZb3ujyt6fH",
          "name" : "The Blind Boys Of Alabama",
          "type" : "artist",
          "uri" : "spotify:artist:5TVL4FXEntBYZb3ujyt6fH"
        } ],
        "external_urls" : {
          "spotify" : "https://open.spotify.com/album/7aXXFEAlLiGkv64pDgU95s"
        },
        "href" : "https://api.spotify.com/v1/albums/7aXXFEAlLiGkv64pDgU95s",
        "id" : "7aXXFEAlLiGkv64pDgU95s",
        "images" : [ {
          "height" : 640,
          "url" : "https://i.scdn.co/image/ab67616d0000b273794f17c68f95478286ab26ef",
          "width" : 640
        }, {
          "height" : 300,
          "url" : "https://i.scdn.co/image/ab67616d00001e02794f17c68f95478286ab26ef",
          "width" : 300
        }, {
          "height" : 64,
          "url" : "https://i.scdn.co/image/ab67616d00004851794f17c68f95478286ab26ef",
          "width" : 64
        } ],
        "name" : "Oh Lord, Stand By Me / Marching Up To Zion",
        "release_date" : "1991-01-01",
        "release_date_precision" : "day",
        "total_tracks" : 24,
        "type" : "album",
        "uri" : "spotify:album:7aXXFEAlLiGkv64pDgU95s"
      },
      "artists" : [ {
        "external_urls" : {
          "spotify" : "https://open.spotify.com/artist/5TVL4FXEntBYZb3ujyt6fH"
        },
        "href" : "https://api.spotify.com/v1/artists/5TVL4FXEntBYZb3ujyt6fH",
        "id" : "5TVL4FXEntBYZb3ujyt6fH",
        "name" : "The Blind Boys Of Alabama",
        "type" : "artist",
        "uri" : "spotify:artist:5TVL4FXEntBYZb3ujyt6fH"
      } ],
      "disc_number" : 1,
      "duration_ms" : 120266,
      "explicit" : false,
      "external_ids" : {
        "isrc" : "USSPI5300032"
      },
      "external_urls" : {
        "spotify" : "https://open.spotify.com/track/24JqcVb6e9eYWmlkIUdt6j"
      },
      "href" : "https://api.spotify.com/v1/tracks/24JqcVb6e9eYWmlkIUdt6j",
      "id" : "24JqcVb6e9eYWmlkIUdt6j",
      "is_local" : false,
      "is_playable" : true,
      "name" : "Marching Up To Zion",
      "popularity" : 5,
      "preview_url" : null,
      "track_number" : 13,
      "type" : "track",
      "uri" : "spotify:track:24JqcVb6e9eYWmlkIUdt6j"
    } ],
    "limit" : 10,
    "next" : "https://api.spotify.com/v1/search?query=Marching+to+Zion&type=track&market=US&offset=15&limit=10",
    "offset" : 5,
    "previous" : "https://api.spotify.com/v1/search?query=Marching+to+Zion&type=track&market=US&offset=0&limit=10",
    "total" : 430
  }
}