{
  "tracks" : {
    "href" : "https://api.spotify.com/v1/search?query=Crown+Him+With+Many+Crowns&type=track&market=US&offset=5&limit=10",
    "items" : [ {
      "album" : {
        "album_type" : "album",
        "artists" : [ {
          "external_urls" : {
            "spotify" : "https://open.spotify.com/artist/3foczzTKMl7TLCoFOnVmgI"
          },
          "href" : "https://api.spotify.com/v1/artists/3foczzTKMl7TLCoFOnVmgI",
          "id" : "3foczzTKMl7TLCoFOnVmgI",
          "name" : "The Enfield Hymn Sessions",
          "type" : "artist",
          "uri" : "spotify:artist:3foczzTKMl7TLCoFOnVmgI"
        } ],
        "external_urls" : {
          "spotify" : "https://open.spotify.com/album/71HCQlS9sNnRWFqnck5eKy"
        },
        "href" : "https://api.spotify.com/v1/albums/71HCQlS9sNnRWFqnck5eKy",
        "id" : "71HCQlS9sNnRWFqnck5eKy",
        "images" : [ {
          "height" : 640,
          "url" : "https://i.scdn.co/image/ab67616d0000b27321b5f99db69a31a84eb55aee",
          "width" : 640
        }, {
          "height" : 300,
          "url" : "https://i.scdn.co/image/ab67616d00001e0221b5f99db69a31a84eb55aee",
          "width" : 300
        }, {
          "height" : 64,
          "url" : "https://i.scdn.co/image/ab67616d0000485121b5f99db69a31a84eb55aee",
          "width" : 64
        } ],
        "name" : "Resolved Music, Vol. 1",
        "release_date" : "2010-06-25",
        "release_date_precision" : "day",
        "total_tracks" : 12,
        "type" : "album",
        "uri" : "spotify:album:71HCQlS9sNnRWFqnck5eKy"
      },
      "artists" : [ {
        "external_urls" : {
          "spotify" : "https://open.spotify.com/artist/3foczzTKMl7TLCoFOnVmgI"
        },
        "href" : "https://api.spotify.com/v1/artists/3foczzTKMl7TLCoFOnVmgI",
        "id" : "3foczzTKMl7TLCoFOnVmgI",
        "name" : "The Enfield Hymn Sessions",
        "type" : "artist",
        "uri" : "spotify:artist:3foczzTKMl7TLCoFOnVmgI"
      } ],
      "disc_number" : 1,
      "duration_ms" : 241320,
      "explicit" : false,
      "external_ids" : {
        "isrc" : "USP791000006"
      },
      "external_urls" : {
        "spotify" : "https://open.spotify.com/track/57MGhSh9fjeLeD5Fuv0XXC"
      },
      "href" : "https://api.spotify.com/v1/tracks/57MGhSh9fjeLeD5Fuv0XXC",
      "id" : "57MGhSh9fjeLeD5Fuv0XXC",
      "is_local" : false,
      "is_playable" : true,
      "name" : "Crown Him With Many Crowns",
      "popularity" : 29,
      "preview_url" : "https://p.scdn.co/mp3-preview/0e3d676b10a70e7de29b8bad18ddef4cd956afda?cid=774b29d4f13844c495f206cafdad9c86",
      "track_number" : 6,
      "type" : "track",
      "uri" : "spotify:track:57MGhSh9fjeLeD5Fuv0XXC"
    }, {
      "album" : {
        "album_type" : "album",
        "artists" : [ {
          "external_urls" : {
            "spotify" : "https://open.spotify.com/artist/2pMJjUe1wagw5La8Vefqrr"
          },
          "href" : "https://api.spotify.com/v1/artists/2pMJjUe1wagw5La8Vefqrr",
          "id" : "2pMJjUe1wagw5La8Vefqrr",
          "name" : "Huddersfield Choral Society",
          "type" : "artist",
          "uri" : "spotify:artist:2pMJjUe1wagw5La8Vefqrr"
        }, {
          "external_urls" : {
            "spotify" : "https://open.spotify.com/artist/0EPcIqswW5NJMX2agNAgRt"
          },
          "href" : "https://api.spotify.com/v1/artists/0EPcIqswW5NJMX2agNAgRt",
          "id" : "0EPcIqswW5NJMX2agNAgRt",
          "name" : "Joseph Cullen",
          "type" : "artist",
          "uri" : "spotify:artist:0EPcIqswW5NJMX2agNAgRt"
        } ],
        "external_urls" : {
          "spotify" : "https://open.spotify.com/album/54uvqWKqf0NqIU3e9CXmb1"
        },
        "href" : "https://api.spotify.com/v1/albums/54uvqWKqf0NqIU3e9CXmb1",
        "id" : "54uvqWKqf0NqIU3e9CXmb1",
        "images" : [ {
          "height" : 640,
          "url" : "https://i.scdn.co/image/ab67616d0000b2735578c12424c997d5f646d932",
          "width" : 640
        }, {
          "height" : 300,
          "url" : "https://i.scdn.co/image/ab67616d00001e025578c12424c997d5f646d932",
          "width" : 300
        }, {
          "height" : 64,
          "url" : "https://i.scdn.co/image/ab67616d000048515578c12424c997d5f646d932",
          "width" : 64
        } ],
        "name" : "The Hymns Album",
        "release_date" : "2006-05-08",
        "release_date_precision" : "day",
        "total_tracks" : 25,
        "type" : "album",
        "uri" : "spotify:album:54uvqWKqf0NqIU3e9CXmb1"
      },
      "artists" : [ {
        "external_urls" : {
          "spotify" : "https://open.spotify.com/artist/2pMJjUe1wagw5La8Vefqrr"
        },
        "href" : "https://api.spotify.com/v1/artists/2pMJjUe1wagw5La8Vefqrr",
        "id" : "2pMJjUe1wagw5La8Vefqrr",
        "name" : "Huddersfield Choral Society",
        "type" : "artist",
        "uri" : "spotify:artist:2pMJjUe1wagw5La8Vefqrr"
      } ],
      "disc_number" : 1,
      "duration_ms" : 184026,
      "explicit" : false,
      "external_ids" : {
        "isrc" : "GBLLH0607909"
      },
      "external_urls" : {
        "spotify" : "https://open.spotify.com/track/6AWr34e0IXWfMF4yjtOiRh"
      },
      "href" : "https://api.spotify.com/v1/tracks/6AWr34e0IXWfMF4yjtOiRh",
      "id" : "6AWr34e0IXWfMF4yjtOiRh",
      "is_local" : false,
      "is_playable" : true,
      "name" : "Crown him with many crowns",
      "popularity" : 29,
      "preview_url" : "https://p.scdn.co/mp3-preview/076033e894c9b11ba1d4f8d3bbaaf3c0a4a82330?cid=774b29d4f13844c495f206cafdad9c86",
      "track_number" : 9,
      "type" : "track",
      "uri" : "spotify:track:6AWr34e0IXWfMF4yjtOiRh"
    }, {
      "album" : {
        "album_type" : "album",
        "artists" : [ {
          "external_urls" : {
            "spotify" : "https://open.spotify.com/artist/6gpOLOIn9tu4nfK52nrAIM"
          },
          "href" : "https://api.spotify.com/v1/artists/6gpOLOIn9tu4nfK52nrAIM",
          "id" : "6gpOLOIn9tu4nfK52nrAIM",
          "name" : "Zeno",
          "type" : "artist",
          "uri" : "spotify:artist:6gpOLOIn9tu4nfK52nrAIM"
        } ],
        "external_urls" : {
          "spotify" : "https://open.spotify.com/album/6MV6MlGgVD0B8722YKDav0"
        },
        "href" : "https://api.spotify.com/v1/albums/6MV6MlGgVD0B8722YKDav0",
        "id" : "6MV6MlGgVD0B8722YKDav0",
        "images" : [ {
          "height" : 640,
          "url" : "https://i.scdn.co/image/ab67616d0000b27351ee6177bc1a631c2c5402ab",
          "width" : 640
        }, {
          "height" : 300,
          "url" : "https://i.scdn.co/image/ab67616d00001e0251ee6177bc1a631c2c5402ab",
          "width" : 300
        }, {
          "height" : 64,
          "url" : "https://i.scdn.co/image/ab67616d0000485151ee6177bc1a631c2c5402ab",
          "width" : 64
        } ],
        "name" : "Fingerstyle Hymns Simple Guitar Arrangements 1",
        "release_date" : "2015-11-30",
        "release_date_precision" : "day",
        "total_tracks" : 10,
        "type" : "album",
        "uri" : "spotify:album:6MV6MlGgVD0B8722YKDav0"
      },
      "artists" : [ {
        "external_urls" : {
          "spotify" : "https://open.spotify.com/artist/6gpOLOIn9tu4nfK52nrAIM"
        },
        "href" : "https://api.spotify.com/v1/artists/6gpOLOIn9tu4nfK52nrAIM",
        "id" : "6gpOLOIn9tu4nfK52nrAIM",
        "name" : "Zeno",
        "type" : "artist",
        "uri" : "spotify:artist:6gpOLOIn9tu4nfK52nrAIM"
      } ],
      "disc_number" : 1,
      "duration_ms" : 83170,
      "explicit" : false,
      "external_ids" : {
        "isrc" : "USE831522644"
      },
      "external_urls" : {
        "spotify" : "https://open.spotify.com/track/2y0rAGwprNYe4o7DQWBORV"
      },
      "href" : "https://api.spotify.com/v1/tracks/2y0rAGwprNYe4o7DQWBORV",
      "id" : "2y0rAGwprNYe4o7DQWBORV",
      "is_local" : false,
      "is_playable" : true,
      "name" : "Crown Him With Many Crowns - Instrumental Guitar",
      "popularity" : 28,
      "preview_url" : "https://p.scdn.co/mp3-preview/33399e30713322cc1cf5a61e8f60afbd984252b6?cid=774b29d4f13844c495f206cafdad9c86",
      "track_number" : 5,
      "type" : "track",
      "uri" : "spotify:track:2y0rAGwprNYe4o7DQWBORV"
    }, {
      "album" : {
        "album_type" : "album",
        "artists" : [ {
          "external_urls" : {
            "spotify" : "https://open.spotify.com/artist/0HVhrcczr4gd8oNtUsTqWg"
          },
          "href" : "https://api.spotify.com/v1/artists/0HVhrcczr4gd8oNtUsTqWg",
          "id" : "0HVhrcczr4gd8oNtUsTqWg",
          "name" : "Bow and Ivory",
          "type" : "artist",
          "uri" : "spotify:artist:0HVhrcczr4gd8oNtUsTqWg"
        } ],
        "external_urls" : {
          "spotify" : "https://open.spotify.com/album/1rHx0q1c3WRum5LkXvosAQ"
        },
        "href" : "https://api.spotify.com/v1/albums/1rHx0q1c3WRum5LkXvosAQ",
        "id" : "1rHx0q1c3WRum5LkXvosAQ",
        "images" : [ {
          "height" : 640,
          "url" : "https://i.scdn.co/image/ab67616d0000b27312be38cf50f9addf3498c047",
          "width" : 640
        }, {
          "height" : 300,
          "url" : "https://i.scdn.co/image/ab67616d00001e0212be38cf50f9addf3498c047",
          "width" : 300
        }, {
          "height" : 64,
          "url" : "https://i.scdn.co/image/ab67616d0000485112be38cf50f9addf3498c047",
          "width" : 64
        } ],
        "name" : "Hymns for Piano and Violin, Volume 2",
        "release_date" : "2017-06-07",
        "release_date_precision" : "day",
        "total_tracks" : 10,
        "type" : "album",
        "uri" : "spotify:album:1rHx0q1c3WRum5LkXvosAQ"
      },
      "artists" : [ {
        "external_urls" : {
          "spotify" : "https://open.spotify.com/artist/0HVhrcczr4gd8oNtUsTqWg"
        },
        "href" : "https://api.spotify.com/v1/artists/0HVhrcczr4gd8oNtUsTqWg",
        "id" : "0HVhrcczr4gd8oNtUsTqWg",
        "name" : "Bow and Ivory",
        "type" : "artist",
        "uri" : "spotify:artist:0HVhrcczr4gd8oNtUsTqWg"
      } ],
      "disc_number" : 1,
      "duration_ms" : 257073,
      "explicit" : false,
      "external_ids" : {
        "isrc" : "TCADC1766184"
      },
      "external_urls" : {
        "spotify" : "https://open.spotify.com/track/6AU4drfz308PDKZdk8Cdt6"
      },
      "href" : "https://api.spotify.com/v1/tracks/6AU4drfz308PDKZdk8Cdt6",
      "id" : "6AU4drfz308PDKZdk8Cdt6",
      "is_local" : false,
      "is_playable" : true,
      "name" : "Crown Him With Many Crowns",
      "popularity" : 18,
      "preview_url" : "https://p.scdn.co/mp3-preview/9abbabdf146ffd9c1692b88bfa0f7ca41754839a?cid=774b29d4f13844c495f206cafdad9c86",
      "track_number" : 2,
      "type" : "track",
      "uri" : "spotify:track:6AU4drfz308PDKZdk8Cdt6"
    }, {
      "album" : {
        "album_type" : "album",
        "artists" : [ {
          "external_urls" : {
            "spotify" : "https://open.spotify.com/artist/5aBxFPaaGk9204ssHUvXWN"
          },
          "href" : "https://api.spotify.com/v1/artists/5aBxFPaaGk9204ssHUvXWN",
          "id" : "5aBxFPaaGk9204ssHUvXWN",
          "name" : "Michael W. Smith",
          "type" : "artist",
          "uri" : "spotify:artist:5aBxFPaaGk9204ssHUvXWN"
        } ],
        "external_urls" : {
          "spotify" : "https://open.spotify.com/album/1sljYgSfioN0gI1JMsv0NO"
        },
        "href" : "https://api.spotify.com/v1/albums/1sljYgSfioN0gI1JMsv0NO",
        "id" : "1sljYgSfioN0gI1JMsv0NO",
        "images" : [ {
          "height" : 640,
          "url" : "https://i.scdn.co/image/ab67616d0000b27328d045e351c6da7128de2aa1",
          "width" : 640
        }, {
          "height" : 300,
          "url" : "https://i.scdn.co/image/ab67616d00001e0228d045e351c6da7128de2aa1",
          "width" : 300
        }, {
          "height" : 64,
          "url" : "https://i.scdn.co/image/ab67616d0000485128d045e351c6da7128de2aa1",
          "width" : 64
        } ],
        "name" : "I'll Lead You Home",
        "release_date" : "1995",
        "release_date_precision" : "year",
        "total_tracks" : 14,
        "type" : "album",
        "uri" : "spotify:album:1sljYgSfioN0gI1JMsv0NO"
      },
      "artists" : [ {
        "external_urls" : {
          "spotify" : "https://open.spotify.com/artist/5aBxFPaaGk9204ssHUvXWN"
        },
        "href" : "https://api.spotify.com/v1/artists/5aBxFPaaGk9204ssHUvXWN",
        "id" : "5aBxFPaaGk9204ssHUvXWN",
        "name" : "Michael W. Smith",
        "type" : "artist",
        "uri" : "spotify:artist:5aBxFPaaGk9204ssHUvXWN"
      } ],
      "disc_number" : 1,
      "duration_ms" : 273400,
      "explicit" : false,
      "external_ids" : {
        "isrc" : "USRR49500013"
      },
      "external_urls" : {
        "spotify" : "https://open.spotify.com/track/5ypntMPeegKgvXtW6Gr29o"
      },
      "href" : "https://api.spotify.com/v1/tracks/5ypntMPeegKgvXtW6Gr29o",
      "id" : "5ypntMPeegKgvXtW6Gr29o",
      "is_local" : false,
      "is_playable" : true,
      "name" : "Crown Him With Many Crowns",
      "popularity" : 18,
      "preview_url" : "https://p.scdn.co/mp3-preview/35139035562064bbbc1fbbee813c26c137369e55?cid=774b29d4f13844c495f206cafdad9c86",
      "track_number" : 13,
      "type" : "track",
      "uri" : "spotify:track:5ypntMPeegKgvXtW6Gr29o"
    }, {
      "album" : {
        "album_type" : "album",
        "artists" : [ {
          "external_urls" : {
            "spotify" : "https://open.spotify.com/artist/1fO0DHOhFIvuPtObA3LtHR"
          },
          "href" : "https://api.spotify.com/v1/artists/1fO0DHOhFIvuPtObA3LtHR",
          "id" : "1fO0DHOhFIvuPtObA3LtHR",
          "name" : "Christian Hymns",
          "type" : "artist",
          "uri" : "spotify:artist:1fO0DHOhFIvuPtObA3LtHR"
        } ],
        "external_urls" : {
          "spotify" : "https://open.spotify.com/album/7e0OJETOGUBfcjKWR6sZrV"
        },
        "href" : "https://api.spotify.com/v1/albums/7e0OJETOGUBfcjKWR6sZrV",
        "id" : "7e0OJETOGUBfcjKWR6sZrV",
        "images" : [ {
          "height" : 640,
          "url" : "https://i.scdn.co/image/ab67616d0000b273eaf4566ca7e7215b219ae383",
          "width" : 640
        }, {
          "height" : 300,
          "url" : "https://i.scdn.co/image/ab67616d00001e02eaf4566ca7e7215b219ae383",
          "width" : 300
        }, {
          "height" : 64,
          "url" : "https://i.scdn.co/image/ab67616d00004851eaf4566ca7e7215b219ae383",
          "width" : 64
        } ],
        "name" : "Christian Hymns",
        "release_date" : "2011-03-11",
        "release_date_precision" : "day",
        "total_tracks" : 24,
        "type" : "album",
        "uri" : "spotify:album:7e0OJETOGUBfcjKWR6sZrV"
      },
      "artists" : [ {
        "external_urls" : {
          "spotify" : "https://open.spotify.com/artist/1fO0DHOhFIvuPtObA3LtHR"
        },
        "href" : "https://api.spotify.com/v1/artists/1fO0DHOhFIvuPtObA3LtHR",
        "id" : "1fO0DHOhFIvuPtObA3LtHR",
        "name" : "Christian Hymns",
        "type" : "artist",
        "uri" : "spotify:artist:1fO0DHOhFIvuPtObA3LtHR"
      } ],
      "disc_number" : 1,
      "duration_ms" : 91986,
      "explicit" : false,
      "external_ids" : {
        "isrc" : "TCAAW1164621"
      },
      "external_urls" : {
        "spotify" : "https://open.spotify.com/track/64sx4d18jMR6muxEQYbIiV"
      },
      "href" : "https://api.spotify.com/v1/tracks/64sx4d18jMR6muxEQYbIiV",
      "id" : "64sx4d18jMR6muxEQYbIiV",
      "is_local" : false,
      "is_playable" : true,
      "name" : "Crown Him With Many Crowns",
      "popularity" : 20,
      "preview_url" : "https://p.scdn.co/mp3-preview/d0c0f0e8e131c0b8c64b993c05fcd44640c5c931?cid=774b29d4f13844c495f206cafdad9c86",
      "track_number" : 3,
      "type" : "track",
      "uri" : "spotify:track:64sx4d18jMR6muxEQYbIiV"
    }, {
      "album" : {
        "album_type" : "album",
        "artists" : [ {
          "external_urls" : {
            "spotify" : "https://open.spotify.com/artist/23R5SS5O6nz9F2ea4BaVOb"
          },
          "href" : "https://api.spotify.com/v1/artists/23R5SS5O6nz9F2ea4BaVOb",
          "id" : "23R5SS5O6nz9F2ea4BaVOb",
          "name" : "Paul Croft",
          "type" : "artist",
          "uri" : "spotify:artist:23R5SS5O6nz9F2ea4BaVOb"
        } ],
        "external_urls" : {
          "spotify" : "https://open.spotify.com/album/60pAoFAdRE2AjAMuigF8kQ"
        },
        "href" : "https://api.spotify.com/v1/albums/60pAoFAdRE2AjAMuigF8kQ",
        "id" : "60pAoFAdRE2AjAMuigF8kQ",
        "images" : [ {
          "height" : 640,
          "url" : "https://i.scdn.co/image/ab67616d0000b273cf6b2ce337f7eddc2e39aac8",
          "width" : 640
        }, {
          "height" : 300,
          "url" : "https://i.scdn.co/image/ab67616d00001e02cf6b2ce337f7eddc2e39aac8",
          "width" : 300
        }, {
          "height" : 64,
          "url" : "https://i.scdn.co/image/ab67616d00004851cf6b2ce337f7eddc2e39aac8",
          "width" : 64
        } ],
        "name" : "Relaxing Hymns on Piano, Vol. 1",
        "release_date" : "2015-09-20",
        "release_date_precision" : "day",
        "total_tracks" : 36,
        "type" : "album",
        "uri" : "spotify:album:60pAoFAdRE2AjAMuigF8kQ"
      },
      "artists" : [ {
        "external_urls" : {
          "spotify" : "https://open.spotify.com/artist/23R5SS5O6nz9F2ea4BaVOb"
        },
        "href" : "https://api.spotify.com/v1/artists/23R5SS5O6nz9F2ea4BaVOb",
        "id" : "23R5SS5O6nz9F2ea4BaVOb",
        "name" : "Paul Croft",
        "type" : "artist",
        "uri" : "spotify:artist:23R5SS5O6nz9F2ea4BaVOb"
      } ],
      "disc_number" : 1,
      "duration_ms" : 90000,
      "explicit" : false,
      "external_ids" : {
        "isrc" : "QM2PV1508011"
      },
      "external_urls" : {
        "spotify" : "https://open.spotify.com/track/1xZXAD29FXEsm6gaTR2Elh"
      },
      "href" : "https://api.spotify.com/v1/tracks/1xZXAD29FXEsm6gaTR2Elh",
      "id" : "1xZXAD29FXEsm6gaTR2Elh",
      "is_local" : false,
      "is_playable" : true,
      "name" : "Crown Him with Many Crowns",
      "popularity" : 19,
      "preview_url" : "https://p.scdn.co/mp3-preview/3e8374ad18fb0eeefc10c61dfc6461e637c860a5?cid=774b29d4f13844c495f206cafdad9c86",
      "track_number" : 19,
      "type" : "track",
      "uri" : "spotify:track:1xZXAD29FXEsm6gaTR2Elh"
    }, {
      "album" : {
        "album_type" : "compilation",
        "artists" : [ {
          "external_urls" : {
            "spotify" : "https://open.spotify.com/artist/0LyfQWJT6nXafLPZqxe9Of"
          },
          "href" : "https://api.spotify.com/v1/artists/0LyfQWJT6nXafLPZqxe9Of",
          "id" : "0LyfQWJT6nXafLPZqxe9Of",
          "name" : "Various Artists",
          "type" : "artist",
          "uri" : "spotify:artist:0LyfQWJT6nXafLPZqxe9Of"
        } ],
        "external_urls" : {
          "spotify" : "https://open.spotify.com/album/5oOGXLgQtWaqjMSxwAEYEB"
        },
        "href" : "https://api.spotify.com/v1/albums/5oOGXLgQtWaqjMSxwAEYEB",
        "id" : "5oOGXLgQtWaqjMSxwAEYEB",
        "images" : [ {
          "height" : 640,
          "url" : "https://i.scdn.co/image/ab67616d0000b273f737f886f82e2315a07074f5",
          "width" : 640
        }, {
          "height" : 300,
          "url" : "https://i.scdn.co/image/ab67616d00001e02f737f886f82e2315a07074f5",
          "width" : 300
        }, {
          "height" : 64,
          "url" : "https://i.scdn.co/image/ab67616d00004851f737f886f82e2315a07074f5",
          "width" : 64
        } ],
        "name" : "Hymns 4 Worship, Vol. 2: Just As I Am",
        "release_date" : "2005-01-01",
        "release_date_precision" : "day",
        "total_tracks" : 22,
        "type" : "album",
        "uri" : "spotify:album:5oOGXLgQtWaqjMSxwAEYEB"
      },
      "artists" : [ {
        "external_urls" : {
          "spotify" : "https://open.spotify.com/artist/2uj8NReAnkLQA0sgSfT7up"
        },
        "href" : "https://api.spotify.com/v1/artists/2uj8NReAnkLQA0sgSfT7up",
        "id" : "2uj8NReAnkLQA0sgSfT7up",
        "name" : "Sallie Jumper",
        "type" : "artist",
        "uri" : "spotify:artist:2uj8NReAnkLQA0sgSfT7up"
      } ],
      "disc_number" : 1,
      "duration_ms" : 242293,
      "explicit" : false,
      "external_ids" : {
        "isrc" : "US25L0500194"
      },
      "external_urls" : {
        "spotify" : "https://open.spotify.com/track/4PfSnJdgSVtqJeCuf2KgQk"
      },
      "href" : "https://api.spotify.com/v1/tracks/4PfSnJdgSVtqJeCuf2KgQk",
      "id" : "4PfSnJdgSVtqJeCuf2KgQk",
      "is_local" : false,
      "is_playable" : true,
      "name" : "Crown Him With Many Crowns",
      "popularity" : 19,
      "preview_url" : "https://p.scdn.co/mp3-preview/8d4bd518833500f5e0f37ac717dc1804c5af7b01?cid=774b29d4f13844c495f206cafdad9c86",
      "track_number" : 18,
      "type" : "track",
      "uri" : "spotify:track:4PfSnJdgSVtqJeCuf2KgQk"
    }, {
      "album" : {
        "album_type" : "album",
        "artists" : [ {
          "external_urls" : {
            "spotify" : "https://open.spotify.com/artist/0fZl9SnDqBppbUOhRwGpGG"
          },
          "href" : "https://api.spotify.com/v1/artists/0fZl9SnDqBppbUOhRwGpGG",
          "id" : "0fZl9SnDqBppbUOhRwGpGG",
          "name" : "Kingsway Music",
          "type" : "artist",
          "uri" : "spotify:artist:0fZl9SnDqBppbUOhRwGpGG"
        } ],
        "external_urls" : {
          "spotify" : "https://open.spotify.com/album/6N0cvZcCUn4CWrxM9Wpmpt"
        },
        "href" : "https://api.spotify.com/v1/albums/6N0cvZcCUn4CWrxM9Wpmpt",
        "id" : "6N0cvZcCUn4CWrxM9Wpmpt",
        "images" : [ {
          "height" : 640,
          "url" : "https://i.scdn.co/image/ab67616d0000b273dbf31d874850c933789b4258",
          "width" : 640
        }, {
          "height" : 300,
          "url" : "https://i.scdn.co/image/ab67616d00001e02dbf31d874850c933789b4258",
          "width" : 300
        }, {
          "height" : 64,
          "url" : "https://i.scdn.co/image/ab67616d00004851dbf31d874850c933789b4258",
          "width" : 64
        } ],
        "name" : "Here I Am To Worship (Hymns)",
        "release_date" : "2005",
        "release_date_precision" : "year",
        "total_tracks" : 32,
        "type" : "album",
        "uri" : "spotify:album:6N0cvZcCUn4CWrxM9Wpmpt"
      },
      "artists" : [ {
        "external_urls" : {
          "spotify" : "https://open.spotify.com/artist/0fZl9SnDqBppbUOhRwGpGG"
        },
        "href" : "https://api.spotify.com/v1/artists/0fZl9SnDqBppbUOhRwGpGG",
        "id" : "0fZl9SnDqBppbUOhRwGpGG",
        "name" : "Kingsway Music",
        "type" : "artist",
        "uri" : "spotify:artist:0fZl9SnDqBppbUOhRwGpGG"
      } ],
      "disc_number" : 1,
      "duration_ms" : 259560,
      "explicit" : false,
      "external_ids" : {
        "isrc" : "GBBTM0562901"
      },
      "external_urls" : {
        "spotify" : "https://open.spotify.com/track/2J66LseFO50C0Okn3spJAx"
      },
      "href" : "https://api.spotify.com/v1/tracks/2J66LseFO50C0Okn3spJAx",
      "id" : "2J66LseFO50C0Okn3spJAx",
      "is_local" : false,
      "is_playable" : true,
      "name" : "Crown Him With Many Crowns",
      "popularity" : 18,
      "preview_url" : "https://p.scdn.co/mp3-preview/47590153e837a2f8a8ececd9660218e438845ca4?cid=774b29d4f13844c495f206cafdad9c86",
      "track_number" : 1,
      "type" : "track",
      "uri" : "spotify:track:2J66LseFO50C0Okn3spJAx"
    }, {
      "album" : {
        "album_type" : "album",
        "artists" : [ {
          "external_urls" : {
            "spotify" : "https://open.spotify.com/artist/6a7zEkNQ1cDio5dO3c3qpP"
          },
          "href" : "https://api.spotify.com/v1/artists/6a7zEkNQ1cDio5dO3c3qpP",
          "id" : "6a7zEkNQ1cDio5dO3c3qpP",
          "name" : "Bob Fitts",
          "type" : "artist",
          "uri" : "spotify:artist:6a7zEkNQ1cDio5dO3c3qpP"
        }, {
          "external_urls" : {
            "spotify" : "https://open.spotify.com/artist/72iDlGYfVrntfpKzmAv0Hn"
          },
          "href" : "https://api.spotify.com/v1/artists/72iDlGYfVrntfpKzmAv0Hn",
          "id" : "72iDlGYfVrntfpKzmAv0Hn",
          "name" : "Integrity's Hosanna! Music",
          "type" : "artist",
          "uri" : "spotify:artist:72iDlGYfVrntfpKzmAv0Hn"
        } ],
        "external_urls" : {
          "spotify" : "https://open.spotify.com/album/2R1VU8K0hUiR68rHxgAWfD"
        },
        "href" : "https://api.spotify.com/v1/albums/2R1VU8K0hUiR68rHxgAWfD",
        "id" : "2R1VU8K0hUiR68rHxgAWfD",
        "images" : [ {
          "height" : 640,
          "url" : "https://i.scdn.co/image/ab67616d0000b2730ec2aa2e5c0bdeb279e0fd75",
          "width" : 640
        }, {
          "height" : 300,
          "url" : "https://i.scdn.co/image/ab67616d00001e020ec2aa2e5c0bdeb279e0fd75",
          "width" : 300
        }, {
          "height" : 64,
          "url" : "https://i.scdn.co/image/ab67616d000048510ec2aa2e5c0bdeb279e0fd75",
          "width" : 64
        } ],
        "name" : "The Lord Reigns",
        "release_date" : "1989-01-01",
        "release_date_precision" : "day",
        "total_tracks" : 13,
        "type" : "album",
        "uri" : "spotify:album:2R1VU8K0hUiR68rHxgAWfD"
      },
      "artists" : [ {
        "external_urls" : {
          "spotify" : "https://open.spotify.com/artist/6a7zEkNQ1cDio5dO3c3qpP"
        },
        "href" : "https://api.spotify.com/v1/artists/6a7zEkNQ1cDio5dO3c3qpP",
        "id" : "6a7zEkNQ1cDio5dO3c3qpP",
        "name" : "Bob Fitts",
        "type" : "artist",
        "uri" : "spotify:artist:6a7zEkNQ1cDio5dO3c3qpP"
      }, {
        "external_urls" : {
          "spotify" : "https://open.spotify.com/artist/72iDlGYfVrntfpKzmAv0Hn"
        },
        "href" : "https://api.spotify.com/v1/artists/72iDlGYfVrntfpKzmAv0Hn",
        "id" : "72iDlGYfVrntfpKzmAv0Hn",
        "name" : "Integrity's Hosanna! Music",
        "type" : "artist",
        "uri" : "spotify:artist:72iDlGYfVrntfpKzmAv0Hn"
      } ],
      "disc_number" : 1,
      "duration_ms" : 244200,
      "explicit" : false,
      "external_ids" : {
        "isrc" : "US25L0400189"
      },
      "external_urls" : {
        "spotify" : "https://open.spotify.com/track/1gm0YcbK5NiCqpE2mwzTkK"
      },
      "href" : "https://api.spotify.com/v1/tracks/1gm0YcbK5NiCqpE2mwzTkK",
      "id" : "1gm0YcbK5NiCqpE2mwzTkK",
      "is_local" : false,
      "is_playable" : true,
      "name" : "Crown Him With Many Crowns",
      "popularity" : 19,
      "preview_url" : "https://p.scdn.co/mp3-preview/f0f7321bcac82c7182a75701ac9ba40279b2ce13?cid=774b29d4f13844c495f206cafdad9c86",
      "track_number" : 13,
      "type" : "track",
      "uri" : "spotify:track:1gm0YcbK5NiCqpE2mwzTkK"
    } ],
    "limit" : 10,
    "next" : "https://api.spotify.com/v1/search?query=Crown+Him+With+Many+Crowns&type=track&market=US&offset=15&limit=10",
    "offset" : 5,
    "previous" : "https://api.spotify.com/v1/search?query=Crown+Him+With+Many+Crowns&type=track&market=US&offset=0&limit=10",
    "total" : 751
  }
}