{
  "tracks" : {
    "href" : "https://api.spotify.com/v1/search?query=All+Glory%2C+Laud%2C+and+Honor&type=track&market=US&offset=5&limit=10",
    "items" : [ {
      "album" : {
        "album_type" : "album",
        "artists" : [ {
          "external_urls" : {
            "spotify" : "https://open.spotify.com/artist/3HJKdfCMxTrirNbb7cykOm"
          },
          "href" : "https://api.spotify.com/v1/artists/3HJKdfCMxTrirNbb7cykOm",
          "id" : "3HJKdfCMxTrirNbb7cykOm",
          "name" : "The Festival Choir and Hosanna Chorus",
          "type" : "artist",
          "uri" : "spotify:artist:3HJKdfCMxTrirNbb7cykOm"
        } ],
        "external_urls" : {
          "spotify" : "https://open.spotify.com/album/1DpqheOW1TBkteX7prVygp"
        },
        "href" : "https://api.spotify.com/v1/albums/1DpqheOW1TBkteX7prVygp",
        "id" : "1DpqheOW1TBkteX7prVygp",
        "images" : [ {
          "height" : 640,
          "url" : "https://i.scdn.co/image/ab67616d0000b273fb0f973fc37ef59e3935f1a2",
          "width" : 640
        }, {
          "height" : 300,
          "url" : "https://i.scdn.co/image/ab67616d00001e02fb0f973fc37ef59e3935f1a2",
          "width" : 300
        }, {
          "height" : 64,
          "url" : "https://i.scdn.co/image/ab67616d00004851fb0f973fc37ef59e3935f1a2",
          "width" : 64
        } ],
        "name" : "100 Church Classics",
        "release_date" : "2004",
        "release_date_precision" : "year",
        "total_tracks" : 100,
        "type" : "album",
        "uri" : "spotify:album:1DpqheOW1TBkteX7prVygp"
      },
      "artists" : [ {
        "external_urls" : {
          "spotify" : "https://open.spotify.com/artist/3HJKdfCMxTrirNbb7cykOm"
        },
        "href" : "https://api.spotify.com/v1/artists/3HJKdfCMxTrirNbb7cykOm",
        "id" : "3HJKdfCMxTrirNbb7cykOm",
        "name" : "The Festival Choir and Hosanna Chorus",
        "type" : "artist",
        "uri" : "spotify:artist:3HJKdfCMxTrirNbb7cykOm"
      } ],
      "disc_number" : 1,
      "duration_ms" : 142200,
      "explicit" : false,
      "external_ids" : {
        "isrc" : "CAM460700403"
      },
      "external_urls" : {
        "spotify" : "https://open.spotify.com/track/5njxQlgvwMbWbg1XaLAdfj"
      },
      "href" : "https://api.spotify.com/v1/tracks/5njxQlgvwMbWbg1XaLAdfj",
      "id" : "5njxQlgvwMbWbg1XaLAdfj",
      "is_local" : false,
      "is_playable" : true,
      "name" : "All Glory, Laud And Honor",
      "popularity" : 14,
      "preview_url" : "https://p.scdn.co/mp3-preview/fa9609fd759ad5ee08ed1a75595360de2c00ebd2?cid=774b29d4f13844c495f206cafdad9c86",
      "track_number" : 26,
      "type" : "track",
      "uri" : "spotify:track:5njxQlgvwMbWbg1XaLAdfj"
    }, {
      "album" : {
        "album_type" : "album",
        "artists" : [ {
          "external_urls" : {
            "spotify" : "https://open.spotify.com/artist/5gWZC3kXTwxQGc9q3M16vK"
          },
          "href" : "https://api.spotify.com/v1/artists/5gWZC3kXTwxQGc9q3M16vK",
          "id" : "5gWZC3kXTwxQGc9q3M16vK",
          "name" : "LDS Piano",
          "type" : "artist",
          "uri" : "spotify:artist:5gWZC3kXTwxQGc9q3M16vK"
        } ],
        "external_urls" : {
          "spotify" : "https://open.spotify.com/album/5kE93SPXEWnoprMeZ7ZCl2"
        },
        "href" : "https://api.spotify.com/v1/albums/5kE93SPXEWnoprMeZ7ZCl2",
        "id" : "5kE93SPXEWnoprMeZ7ZCl2",
        "images" : [ {
          "height" : 640,
          "url" : "https://i.scdn.co/image/ab67616d0000b27343c33c05292d3f49ba4390c4",
          "width" : 640
        }, {
          "height" : 300,
          "url" : "https://i.scdn.co/image/ab67616d00001e0243c33c05292d3f49ba4390c4",
          "width" : 300
        }, {
          "height" : 64,
          "url" : "https://i.scdn.co/image/ab67616d0000485143c33c05292d3f49ba4390c4",
          "width" : 64
        } ],
        "name" : "The Mormon Hymnbook: Hymns for Easter",
        "release_date" : "2019-03-13",
        "release_date_precision" : "day",
        "total_tracks" : 14,
        "type" : "album",
        "uri" : "spotify:album:5kE93SPXEWnoprMeZ7ZCl2"
      },
      "artists" : [ {
        "external_urls" : {
          "spotify" : "https://open.spotify.com/artist/5gWZC3kXTwxQGc9q3M16vK"
        },
        "href" : "https://api.spotify.com/v1/artists/5gWZC3kXTwxQGc9q3M16vK",
        "id" : "5gWZC3kXTwxQGc9q3M16vK",
        "name" : "LDS Piano",
        "type" : "artist",
        "uri" : "spotify:artist:5gWZC3kXTwxQGc9q3M16vK"
      } ],
      "disc_number" : 1,
      "duration_ms" : 130130,
      "explicit" : false,
      "external_ids" : {
        "isrc" : "GBSMU6189770"
      },
      "external_urls" : {
        "spotify" : "https://open.spotify.com/track/79kdSzhAPQkSKmh9v8r8P8"
      },
      "href" : "https://api.spotify.com/v1/tracks/79kdSzhAPQkSKmh9v8r8P8",
      "id" : "79kdSzhAPQkSKmh9v8r8P8",
      "is_local" : false,
      "is_playable" : true,
      "name" : "All Glory Laud and Honor",
      "popularity" : 10,
      "preview_url" : "https://p.scdn.co/mp3-preview/342fe2b6f8d2cd10ff93c3d1104849d488fe376f?cid=774b29d4f13844c495f206cafdad9c86",
      "track_number" : 1,
      "type" : "track",
      "uri" : "spotify:track:79kdSzhAPQkSKmh9v8r8P8"
    }, {
      "album" : {
        "album_type" : "album",
        "artists" : [ {
          "external_urls" : {
            "spotify" : "https://open.spotify.com/artist/67mWXrfMT20xdWEY4caXeb"
          },
          "href" : "https://api.spotify.com/v1/artists/67mWXrfMT20xdWEY4caXeb",
          "id" : "67mWXrfMT20xdWEY4caXeb",
          "name" : "Gisele Becker",
          "type" : "artist",
          "uri" : "spotify:artist:67mWXrfMT20xdWEY4caXeb"
        } ],
        "external_urls" : {
          "spotify" : "https://open.spotify.com/album/51lXo85cjWyl3QdvcyOiup"
        },
        "href" : "https://api.spotify.com/v1/albums/51lXo85cjWyl3QdvcyOiup",
        "id" : "51lXo85cjWyl3QdvcyOiup",
        "images" : [ {
          "height" : 640,
          "url" : "https://i.scdn.co/image/ab67616d0000b273a8ea83a8453fed832ae5b396",
          "width" : 640
        }, {
          "height" : 300,
          "url" : "https://i.scdn.co/image/ab67616d00001e02a8ea83a8453fed832ae5b396",
          "width" : 300
        }, {
          "height" : 64,
          "url" : "https://i.scdn.co/image/ab67616d00004851a8ea83a8453fed832ae5b396",
          "width" : 64
        } ],
        "name" : "Hymns Through the Centuries, Vol. 1",
        "release_date" : "2010-08-01",
        "release_date_precision" : "day",
        "total_tracks" : 27,
        "type" : "album",
        "uri" : "spotify:album:51lXo85cjWyl3QdvcyOiup"
      },
      "artists" : [ {
        "external_urls" : {
          "spotify" : "https://open.spotify.com/artist/5VHTA4XJxlWsVzWzVOccgK"
        },
        "href" : "https://api.spotify.com/v1/artists/5VHTA4XJxlWsVzWzVOccgK",
        "id" : "5VHTA4XJxlWsVzWzVOccgK",
        "name" : "Melchior Teschner",
        "type" : "artist",
        "uri" : "spotify:artist:5VHTA4XJxlWsVzWzVOccgK"
      }, {
        "external_urls" : {
          "spotify" : "https://open.spotify.com/artist/5Hat8FK1sQMrELYEBJRwgg"
        },
        "href" : "https://api.spotify.com/v1/artists/5Hat8FK1sQMrELYEBJRwgg",
        "id" : "5Hat8FK1sQMrELYEBJRwgg",
        "name" : "Cathedral Choral Society",
        "type" : "artist",
        "uri" : "spotify:artist:5Hat8FK1sQMrELYEBJRwgg"
      }, {
        "external_urls" : {
          "spotify" : "https://open.spotify.com/artist/5IfMl3eKmJ1i9Kc44QMZ03"
        },
        "href" : "https://api.spotify.com/v1/artists/5IfMl3eKmJ1i9Kc44QMZ03",
        "id" : "5IfMl3eKmJ1i9Kc44QMZ03",
        "name" : "Nicholas White",
        "type" : "artist",
        "uri" : "spotify:artist:5IfMl3eKmJ1i9Kc44QMZ03"
      }, {
        "external_urls" : {
          "spotify" : "https://open.spotify.com/artist/67mWXrfMT20xdWEY4caXeb"
        },
        "href" : "https://api.spotify.com/v1/artists/67mWXrfMT20xdWEY4caXeb",
        "id" : "67mWXrfMT20xdWEY4caXeb",
        "name" : "Gisele Becker",
        "type" : "artist",
        "uri" : "spotify:artist:67mWXrfMT20xdWEY4caXeb"
      } ],
      "disc_number" : 1,
      "duration_ms" : 157320,
      "explicit" : false,
      "external_ids" : {
        "isrc" : "USG3E9611206"
      },
      "external_urls" : {
        "spotify" : "https://open.spotify.com/track/2CjiGwyAe39k5eOXPTfJKe"
      },
      "href" : "https://api.spotify.com/v1/tracks/2CjiGwyAe39k5eOXPTfJKe",
      "id" : "2CjiGwyAe39k5eOXPTfJKe",
      "is_local" : false,
      "is_playable" : true,
      "name" : "All Glory, Laud and Honor",
      "popularity" : 12,
      "preview_url" : "https://p.scdn.co/mp3-preview/4c6637a0a41edcef5d24781abf4877915b365fd4?cid=774b29d4f13844c495f206cafdad9c86",
      "track_number" : 6,
      "type" : "track",
      "uri" : "spotify:track:2CjiGwyAe39k5eOXPTfJKe"
    }, {
      "album" : {
        "album_type" : "album",
        "artists" : [ {
          "external_urls" : {
            "spotify" : "https://open.spotify.com/artist/7bizRFC2Gv4F2XxgamNwNy"
          },
          "href" : "https://api.spotify.com/v1/artists/7bizRFC2Gv4F2XxgamNwNy",
          "id" : "7bizRFC2Gv4F2XxgamNwNy",
          "name" : "Koiné",
          "type" : "artist",
          "uri" : "spotify:artist:7bizRFC2Gv4F2XxgamNwNy"
        } ],
        "external_urls" : {
          "spotify" : "https://open.spotify.com/album/3jl1GE4t0AIUU2IqQVRe3N"
        },
        "href" : "https://api.spotify.com/v1/albums/3jl1GE4t0AIUU2IqQVRe3N",
        "id" : "3jl1GE4t0AIUU2IqQVRe3N",
        "images" : [ {
          "height" : 640,
          "url" : "https://i.scdn.co/image/ab67616d0000b2735193103f1c5643dffabb4b8c",
          "width" : 640
        }, {
          "height" : 300,
          "url" : "https://i.scdn.co/image/ab67616d00001e025193103f1c5643dffabb4b8c",
          "width" : 300
        }, {
          "height" : 64,
          "url" : "https://i.scdn.co/image/ab67616d000048515193103f1c5643dffabb4b8c",
          "width" : 64
        } ],
        "name" : "Vol. III - Church Bells",
        "release_date" : "2009-02-03",
        "release_date_precision" : "day",
        "total_tracks" : 14,
        "type" : "album",
        "uri" : "spotify:album:3jl1GE4t0AIUU2IqQVRe3N"
      },
      "artists" : [ {
        "external_urls" : {
          "spotify" : "https://open.spotify.com/artist/7bizRFC2Gv4F2XxgamNwNy"
        },
        "href" : "https://api.spotify.com/v1/artists/7bizRFC2Gv4F2XxgamNwNy",
        "id" : "7bizRFC2Gv4F2XxgamNwNy",
        "name" : "Koiné",
        "type" : "artist",
        "uri" : "spotify:artist:7bizRFC2Gv4F2XxgamNwNy"
      } ],
      "disc_number" : 1,
      "duration_ms" : 228680,
      "explicit" : false,
      "external_ids" : {
        "isrc" : "uscgh0932506"
      },
      "external_urls" : {
        "spotify" : "https://open.spotify.com/track/3XhL7R3nPp4SC0sOsFQhWV"
      },
      "href" : "https://api.spotify.com/v1/tracks/3XhL7R3nPp4SC0sOsFQhWV",
      "id" : "3XhL7R3nPp4SC0sOsFQhWV",
      "is_local" : false,
      "is_playable" : true,
      "name" : "All Glory, Laud, And Honor",
      "popularity" : 11,
      "preview_url" : "https://p.scdn.co/mp3-preview/011d98f3b485da018f70c957e4a017e969809d4b?cid=774b29d4f13844c495f206cafdad9c86",
      "track_number" : 10,
      "type" : "track",
      "uri" : "spotify:track:3XhL7R3nPp4SC0sOsFQhWV"
    }, {
      "album" : {
        "album_type" : "album",
        "artists" : [ {
          "external_urls" : {
            "spotify" : "https://open.spotify.com/artist/4hTc2gZc0kjxzNXs2f8pbT"
          },
          "href" : "https://api.spotify.com/v1/artists/4hTc2gZc0kjxzNXs2f8pbT",
          "id" : "4hTc2gZc0kjxzNXs2f8pbT",
          "name" : "Billy Ray Hearn",
          "type" : "artist",
          "uri" : "spotify:artist:4hTc2gZc0kjxzNXs2f8pbT"
        }, {
          "external_urls" : {
            "spotify" : "https://open.spotify.com/artist/1YPs3oQUB7FkXhzcNo82fa"
          },
          "href" : "https://api.spotify.com/v1/artists/1YPs3oQUB7FkXhzcNo82fa",
          "id" : "1YPs3oQUB7FkXhzcNo82fa",
          "name" : "Tom Fettke",
          "type" : "artist",
          "uri" : "spotify:artist:1YPs3oQUB7FkXhzcNo82fa"
        } ],
        "external_urls" : {
          "spotify" : "https://open.spotify.com/album/1N0FpaZ9Ep0i7lCzlvh3d3"
        },
        "href" : "https://api.spotify.com/v1/albums/1N0FpaZ9Ep0i7lCzlvh3d3",
        "id" : "1N0FpaZ9Ep0i7lCzlvh3d3",
        "images" : [ {
          "height" : 640,
          "url" : "https://i.scdn.co/image/ab67616d0000b273f2aba7169438ad20685cda20",
          "width" : 640
        }, {
          "height" : 300,
          "url" : "https://i.scdn.co/image/ab67616d00001e02f2aba7169438ad20685cda20",
          "width" : 300
        }, {
          "height" : 64,
          "url" : "https://i.scdn.co/image/ab67616d00004851f2aba7169438ad20685cda20",
          "width" : 64
        } ],
        "name" : "The Majesty And Glory Of The Resurrection",
        "release_date" : "2014-01-01",
        "release_date_precision" : "day",
        "total_tracks" : 9,
        "type" : "album",
        "uri" : "spotify:album:1N0FpaZ9Ep0i7lCzlvh3d3"
      },
      "artists" : [ {
        "external_urls" : {
          "spotify" : "https://open.spotify.com/artist/4hTc2gZc0kjxzNXs2f8pbT"
        },
        "href" : "https://api.spotify.com/v1/artists/4hTc2gZc0kjxzNXs2f8pbT",
        "id" : "4hTc2gZc0kjxzNXs2f8pbT",
        "name" : "Billy Ray Hearn",
        "type" : "artist",
        "uri" : "spotify:artist:4hTc2gZc0kjxzNXs2f8pbT"
      }, {
        "external_urls" : {
          "spotify" : "https://open.spotify.com/artist/1YPs3oQUB7FkXhzcNo82fa"
        },
        "href" : "https://api.spotify.com/v1/artists/1YPs3oQUB7FkXhzcNo82fa",
        "id" : "1YPs3oQUB7FkXhzcNo82fa",
        "name" : "Tom Fettke",
        "type" : "artist",
        "uri" : "spotify:artist:1YPs3oQUB7FkXhzcNo82fa"
      } ],
      "disc_number" : 1,
      "duration_ms" : 283040,
      "explicit" : false,
      "external_ids" : {
        "isrc" : "USUM71319823"
      },
      "external_urls" : {
        "spotify" : "https://open.spotify.com/track/68qFz4XTfGdD69Jc2hhQ0a"
      },
      "href" : "https://api.spotify.com/v1/tracks/68qFz4XTfGdD69Jc2hhQ0a",
      "id" : "68qFz4XTfGdD69Jc2hhQ0a",
      "is_local" : false,
      "is_playable" : true,
      "name" : "Hallelujah Chorus/All Glory, Laud And Honor/Holy, Holy, Holy (Medley)",
      "popularity" : 15,
      "preview_url" : null,
      "track_number" : 1,
      "type" : "track",
      "uri" : "spotify:track:68qFz4XTfGdD69Jc2hhQ0a"
    }, {
      "album" : {
        "album_type" : "album",
        "artists" : [ {
          "external_urls" : {
            "spotify" : "https://open.spotify.com/artist/1tJVia5eeqSOYTb6pQZeDg"
          },
          "href" : "https://api.spotify.com/v1/artists/1tJVia5eeqSOYTb6pQZeDg",
          "id" : "1tJVia5eeqSOYTb6pQZeDg",
          "name" : "Catholic Hymns",
          "type" : "artist",
          "uri" : "spotify:artist:1tJVia5eeqSOYTb6pQZeDg"
        } ],
        "external_urls" : {
          "spotify" : "https://open.spotify.com/album/28kxnqSFDTQnBF7KU1QcJn"
        },
        "href" : "https://api.spotify.com/v1/albums/28kxnqSFDTQnBF7KU1QcJn",
        "id" : "28kxnqSFDTQnBF7KU1QcJn",
        "images" : [ {
          "height" : 640,
          "url" : "https://i.scdn.co/image/ab67616d0000b27341d16e43bcbf760f15b6cf85",
          "width" : 640
        }, {
          "height" : 300,
          "url" : "https://i.scdn.co/image/ab67616d00001e0241d16e43bcbf760f15b6cf85",
          "width" : 300
        }, {
          "height" : 64,
          "url" : "https://i.scdn.co/image/ab67616d0000485141d16e43bcbf760f15b6cf85",
          "width" : 64
        } ],
        "name" : "Catholic Hymns",
        "release_date" : "2011-03-09",
        "release_date_precision" : "day",
        "total_tracks" : 25,
        "type" : "album",
        "uri" : "spotify:album:28kxnqSFDTQnBF7KU1QcJn"
      },
      "artists" : [ {
        "external_urls" : {
          "spotify" : "https://open.spotify.com/artist/1tJVia5eeqSOYTb6pQZeDg"
        },
        "href" : "https://api.spotify.com/v1/artists/1tJVia5eeqSOYTb6pQZeDg",
        "id" : "1tJVia5eeqSOYTb6pQZeDg",
        "name" : "Catholic Hymns",
        "type" : "artist",
        "uri" : "spotify:artist:1tJVia5eeqSOYTb6pQZeDg"
      } ],
      "disc_number" : 1,
      "duration_ms" : 91640,
      "explicit" : false,
      "external_ids" : {
        "isrc" : "TCAAW1159097"
      },
      "external_urls" : {
        "spotify" : "https://open.spotify.com/track/4MYryzvvlRtlNUW4RpbocE"
      },
      "href" : "https://api.spotify.com/v1/tracks/4MYryzvvlRtlNUW4RpbocE",
      "id" : "4MYryzvvlRtlNUW4RpbocE",
      "is_local" : false,
      "is_playable" : true,
      "name" : "All Glory, Laud and Honor",
      "popularity" : 11,
      "preview_url" : "https://p.scdn.co/mp3-preview/8cb520d7b82454ffb6e67e7e23e78a59b20c2332?cid=774b29d4f13844c495f206cafdad9c86",
      "track_number" : 4,
      "type" : "track",
      "uri" : "spotify:track:4MYryzvvlRtlNUW4RpbocE"
    }, {
      "album" : {
        "album_type" : "album",
        "artists" : [ {
          "external_urls" : {
            "spotify" : "https://open.spotify.com/artist/2naiwnMNJgvDE4pALHYI4D"
          },
          "href" : "https://api.spotify.com/v1/artists/2naiwnMNJgvDE4pALHYI4D",
          "id" : "2naiwnMNJgvDE4pALHYI4D",
          "name" : "Ron Hamilton",
          "type" : "artist",
          "uri" : "spotify:artist:2naiwnMNJgvDE4pALHYI4D"
        }, {
          "external_urls" : {
            "spotify" : "https://open.spotify.com/artist/7HDwWB9AsuPIeP9EPbCj4f"
          },
          "href" : "https://api.spotify.com/v1/artists/7HDwWB9AsuPIeP9EPbCj4f",
          "id" : "7HDwWB9AsuPIeP9EPbCj4f",
          "name" : "Shelly Hamilton",
          "type" : "artist",
          "uri" : "spotify:artist:7HDwWB9AsuPIeP9EPbCj4f"
        } ],
        "external_urls" : {
          "spotify" : "https://open.spotify.com/album/4pANF8tAsJjNslhPoVA5o0"
        },
        "href" : "https://api.spotify.com/v1/albums/4pANF8tAsJjNslhPoVA5o0",
        "id" : "4pANF8tAsJjNslhPoVA5o0",
        "images" : [ {
          "height" : 640,
          "url" : "https://i.scdn.co/image/ab67616d0000b27345ed176e1564e10fa1e81c83",
          "width" : 640
        }, {
          "height" : 300,
          "url" : "https://i.scdn.co/image/ab67616d00001e0245ed176e1564e10fa1e81c83",
          "width" : 300
        }, {
          "height" : 64,
          "url" : "https://i.scdn.co/image/ab67616d0000485145ed176e1564e10fa1e81c83",
          "width" : 64
        } ],
        "name" : "We Are Your Church",
        "release_date" : "2010-10-15",
        "release_date_precision" : "day",
        "total_tracks" : 11,
        "type" : "album",
        "uri" : "spotify:album:4pANF8tAsJjNslhPoVA5o0"
      },
      "artists" : [ {
        "external_urls" : {
          "spotify" : "https://open.spotify.com/artist/2naiwnMNJgvDE4pALHYI4D"
        },
        "href" : "https://api.spotify.com/v1/artists/2naiwnMNJgvDE4pALHYI4D",
        "id" : "2naiwnMNJgvDE4pALHYI4D",
        "name" : "Ron Hamilton",
        "type" : "artist",
        "uri" : "spotify:artist:2naiwnMNJgvDE4pALHYI4D"
      }, {
        "external_urls" : {
          "spotify" : "https://open.spotify.com/artist/7HDwWB9AsuPIeP9EPbCj4f"
        },
        "href" : "https://api.spotify.com/v1/artists/7HDwWB9AsuPIeP9EPbCj4f",
        "id" : "7HDwWB9AsuPIeP9EPbCj4f",
        "name" : "Shelly Hamilton",
        "type" : "artist",
        "uri" : "spotify:artist:7HDwWB9AsuPIeP9EPbCj4f"
      } ],
      "disc_number" : 1,
      "duration_ms" : 175853,
      "explicit" : false,
      "external_ids" : {
        "isrc" : "uscgh1685283"
      },
      "external_urls" : {
        "spotify" : "https://open.spotify.com/track/1YWo1fcnNJFKpOWGQlDkxH"
      },
      "href" : "https://api.spotify.com/v1/tracks/1YWo1fcnNJFKpOWGQlDkxH",
      "id" : "1YWo1fcnNJFKpOWGQlDkxH",
      "is_local" : false,
      "is_playable" : true,
      "name" : "All Glory, Laud, and Honor",
      "popularity" : 10,
      "preview_url" : "https://p.scdn.co/mp3-preview/a6e0069428f86f289a92025c97a18c42ded0e20c?cid=774b29d4f13844c495f206cafdad9c86",
      "track_number" : 2,
      "type" : "track",
      "uri" : "spotify:track:1YWo1fcnNJFKpOWGQlDkxH"
    }, {
      "album" : {
        "album_type" : "album",
        "artists" : [ {
          "external_urls" : {
            "spotify" : "https://open.spotify.com/artist/2hBvqTRiOrCIyQDgsBDh9O"
          },
          "href" : "https://api.spotify.com/v1/artists/2hBvqTRiOrCIyQDgsBDh9O",
          "id" : "2hBvqTRiOrCIyQDgsBDh9O",
          "name" : "Night Water Project",
          "type" : "artist",
          "uri" : "spotify:artist:2hBvqTRiOrCIyQDgsBDh9O"
        } ],
        "external_urls" : {
          "spotify" : "https://open.spotify.com/album/1akrPXUKHxn8BQPCFOzWkH"
        },
        "href" : "https://api.spotify.com/v1/albums/1akrPXUKHxn8BQPCFOzWkH",
        "id" : "1akrPXUKHxn8BQPCFOzWkH",
        "images" : [ {
          "height" : 640,
          "url" : "https://i.scdn.co/image/ab67616d0000b273a8ca970c796115f2745ad708",
          "width" : 640
        }, {
          "height" : 300,
          "url" : "https://i.scdn.co/image/ab67616d00001e02a8ca970c796115f2745ad708",
          "width" : 300
        }, {
          "height" : 64,
          "url" : "https://i.scdn.co/image/ab67616d00004851a8ca970c796115f2745ad708",
          "width" : 64
        } ],
        "name" : "Hymns",
        "release_date" : "2018-03-31",
        "release_date_precision" : "day",
        "total_tracks" : 9,
        "type" : "album",
        "uri" : "spotify:album:1akrPXUKHxn8BQPCFOzWkH"
      },
      "artists" : [ {
        "external_urls" : {
          "spotify" : "https://open.spotify.com/artist/2hBvqTRiOrCIyQDgsBDh9O"
        },
        "href" : "https://api.spotify.com/v1/artists/2hBvqTRiOrCIyQDgsBDh9O",
        "id" : "2hBvqTRiOrCIyQDgsBDh9O",
        "name" : "Night Water Project",
        "type" : "artist",
        "uri" : "spotify:artist:2hBvqTRiOrCIyQDgsBDh9O"
      } ],
      "disc_number" : 1,
      "duration_ms" : 83339,
      "explicit" : false,
      "external_ids" : {
        "isrc" : "uscgh1828065"
      },
      "external_urls" : {
        "spotify" : "https://open.spotify.com/track/2PzwDwUN50Z5iIcszWq7wr"
      },
      "href" : "https://api.spotify.com/v1/tracks/2PzwDwUN50Z5iIcszWq7wr",
      "id" : "2PzwDwUN50Z5iIcszWq7wr",
      "is_local" : false,
      "is_playable" : true,
      "name" : "All Glory Laud and Honor",
      "popularity" : 8,
      "preview_url" : "https://p.scdn.co/mp3-preview/4e2fa5a57f1b1e0ba6eb4c577a6c217f0dfaa4a9?cid=774b29d4f13844c495f206cafdad9c86",
      "track_number" : 1,
      "type" : "track",
      "uri" : "spotify:track:2PzwDwUN50Z5iIcszWq7wr"
    }, {
      "album" : {
        "album_type" : "album",
        "artists" : [ {
          "external_urls" : {
            "spotify" : "https://open.spotify.com/artist/4rhwll8EPEHOW8diluKlrZ"
          },
          "href" : "https://api.spotify.com/v1/artists/4rhwll8EPEHOW8diluKlrZ",
          "id" : "4rhwll8EPEHOW8diluKlrZ",
          "name" : "Glad",
          "type" : "artist",
          "uri" : "spotify:artist:4rhwll8EPEHOW8diluKlrZ"
        } ],
        "external_urls" : {
          "spotify" : "https://open.spotify.com/album/3jscAQLKUyXnBjiAjObOB4"
        },
        "href" : "https://api.spotify.com/v1/albums/3jscAQLKUyXnBjiAjObOB4",
        "id" : "3jscAQLKUyXnBjiAjObOB4",
        "images" : [ {
          "height" : 640,
          "url" : "https://i.scdn.co/image/ab67616d0000b27319495fb11eba85ac91301450",
          "width" : 640
        }, {
          "height" : 300,
          "url" : "https://i.scdn.co/image/ab67616d00001e0219495fb11eba85ac91301450",
          "width" : 300
        }, {
          "height" : 64,
          "url" : "https://i.scdn.co/image/ab67616d0000485119495fb11eba85ac91301450",
          "width" : 64
        } ],
        "name" : "The A Capella Project II",
        "release_date" : "1990",
        "release_date_precision" : "year",
        "total_tracks" : 11,
        "type" : "album",
        "uri" : "spotify:album:3jscAQLKUyXnBjiAjObOB4"
      },
      "artists" : [ {
        "external_urls" : {
          "spotify" : "https://open.spotify.com/artist/4rhwll8EPEHOW8diluKlrZ"
        },
        "href" : "https://api.spotify.com/v1/artists/4rhwll8EPEHOW8diluKlrZ",
        "id" : "4rhwll8EPEHOW8diluKlrZ",
        "name" : "Glad",
        "type" : "artist",
        "uri" : "spotify:artist:4rhwll8EPEHOW8diluKlrZ"
      } ],
      "disc_number" : 1,
      "duration_ms" : 234706,
      "explicit" : false,
      "external_ids" : {
        "isrc" : "USA5W0500015"
      },
      "external_urls" : {
        "spotify" : "https://open.spotify.com/track/0ENyD2LlUqIqzILaWaXN8Y"
      },
      "href" : "https://api.spotify.com/v1/tracks/0ENyD2LlUqIqzILaWaXN8Y",
      "id" : "0ENyD2LlUqIqzILaWaXN8Y",
      "is_local" : false,
      "is_playable" : true,
      "name" : "All Glory, Laud and Honor",
      "popularity" : 7,
      "preview_url" : "https://p.scdn.co/mp3-preview/2c3c7b6cdb58e6ac01e685c663be5622c0f7ec6a?cid=774b29d4f13844c495f206cafdad9c86",
      "track_number" : 9,
      "type" : "track",
      "uri" : "spotify:track:0ENyD2LlUqIqzILaWaXN8Y"
    }, {
      "album" : {
        "album_type" : "album",
        "artists" : [ {
          "external_urls" : {
            "spotify" : "https://open.spotify.com/artist/0I7gvVpEDCXfWT3Y9nTthB"
          },
          "href" : "https://api.spotify.com/v1/artists/0I7gvVpEDCXfWT3Y9nTthB",
          "id" : "0I7gvVpEDCXfWT3Y9nTthB",
          "name" : "The Christian Hymns Piano Project",
          "type" : "artist",
          "uri" : "spotify:artist:0I7gvVpEDCXfWT3Y9nTthB"
        } ],
        "external_urls" : {
          "spotify" : "https://open.spotify.com/album/7hwZapnQZ1XjcFTIwoVnhZ"
        },
        "href" : "https://api.spotify.com/v1/albums/7hwZapnQZ1XjcFTIwoVnhZ",
        "id" : "7hwZapnQZ1XjcFTIwoVnhZ",
        "images" : [ {
          "height" : 640,
          "url" : "https://i.scdn.co/image/ab67616d0000b273bb250ed28eedaaa0ce1129d9",
          "width" : 640
        }, {
          "height" : 300,
          "url" : "https://i.scdn.co/image/ab67616d00001e02bb250ed28eedaaa0ce1129d9",
          "width" : 300
        }, {
          "height" : 64,
          "url" : "https://i.scdn.co/image/ab67616d00004851bb250ed28eedaaa0ce1129d9",
          "width" : 64
        } ],
        "name" : "Instrumental Christian Music",
        "release_date" : "2019-06-30",
        "release_date_precision" : "day",
        "total_tracks" : 12,
        "type" : "album",
        "uri" : "spotify:album:7hwZapnQZ1XjcFTIwoVnhZ"
      },
      "artists" : [ {
        "external_urls" : {
          "spotify" : "https://open.spotify.com/artist/0I7gvVpEDCXfWT3Y9nTthB"
        },
        "href" : "https://api.spotify.com/v1/artists/0I7gvVpEDCXfWT3Y9nTthB",
        "id" : "0I7gvVpEDCXfWT3Y9nTthB",
        "name" : "The Christian Hymns Piano Project",
        "type" : "artist",
        "uri" : "spotify:artist:0I7gvVpEDCXfWT3Y9nTthB"
      } ],
      "disc_number" : 1,
      "duration_ms" : 139703,
      "explicit" : false,
      "external_ids" : {
        "isrc" : "ushm21980991"
      },
      "external_urls" : {
        "spotify" : "https://open.spotify.com/track/6fTY7YpJDCVoBu02DxtCDW"
      },
      "href" : "https://api.spotify.com/v1/tracks/6fTY7YpJDCVoBu02DxtCDW",
      "id" : "6fTY7YpJDCVoBu02DxtCDW",
      "is_local" : false,
      "is_playable" : true,
      "name" : "All Glory, Laud, And Honor",
      "popularity" : 6,
      "preview_url" : "https://p.scdn.co/mp3-preview/25b48d1120c1cbd62bb8025a4744ff66baa36a10?cid=774b29d4f13844c495f206cafdad9c86",
      "track_number" : 2,
      "type" : "track",
      "uri" : "spotify:track:6fTY7YpJDCVoBu02DxtCDW"
    } ],
    "limit" : 10,
    "next" : "https://api.spotify.com/v1/search?query=All+Glory%2C+Laud%2C+and+Honor&type=track&market=US&offset=15&limit=10",
    "offset" : 5,
    "previous" : "https://api.spotify.com/v1/search?query=All+Glory%2C+Laud%2C+and+Honor&type=track&market=US&offset=0&limit=10",
    "total" : 162
  }
}