{
  "tracks" : {
    "href" : "https://api.spotify.com/v1/search?query=God+Is+Here%21&type=track&market=US&offset=5&limit=10",
    "items" : [ {
      "album" : {
        "album_type" : "album",
        "artists" : [ {
          "external_urls" : {
            "spotify" : "https://open.spotify.com/artist/0wiD0pcfAS8545DNHBcriR"
          },
          "href" : "https://api.spotify.com/v1/artists/0wiD0pcfAS8545DNHBcriR",
          "id" : "0wiD0pcfAS8545DNHBcriR",
          "name" : "Martha Munizzi",
          "type" : "artist",
          "uri" : "spotify:artist:0wiD0pcfAS8545DNHBcriR"
        } ],
        "external_urls" : {
          "spotify" : "https://open.spotify.com/album/1pmsh7eYdBHknQcNrBFHb7"
        },
        "href" : "https://api.spotify.com/v1/albums/1pmsh7eYdBHknQcNrBFHb7",
        "id" : "1pmsh7eYdBHknQcNrBFHb7",
        "images" : [ {
          "height" : 640,
          "url" : "https://i.scdn.co/image/ab67616d0000b2738cabc637f4eabe1d5d25d7a1",
          "width" : 640
        }, {
          "height" : 300,
          "url" : "https://i.scdn.co/image/ab67616d00001e028cabc637f4eabe1d5d25d7a1",
          "width" : 300
        }, {
          "height" : 64,
          "url" : "https://i.scdn.co/image/ab67616d000048518cabc637f4eabe1d5d25d7a1",
          "width" : 64
        } ],
        "name" : "The Best Is Yet to Come",
        "release_date" : "2003-01-01",
        "release_date_precision" : "day",
        "total_tracks" : 13,
        "type" : "album",
        "uri" : "spotify:album:1pmsh7eYdBHknQcNrBFHb7"
      },
      "artists" : [ {
        "external_urls" : {
          "spotify" : "https://open.spotify.com/artist/0wiD0pcfAS8545DNHBcriR"
        },
        "href" : "https://api.spotify.com/v1/artists/0wiD0pcfAS8545DNHBcriR",
        "id" : "0wiD0pcfAS8545DNHBcriR",
        "name" : "Martha Munizzi",
        "type" : "artist",
        "uri" : "spotify:artist:0wiD0pcfAS8545DNHBcriR"
      } ],
      "disc_number" : 1,
      "duration_ms" : 412320,
      "explicit" : false,
      "external_ids" : {
        "isrc" : "USACX1000270"
      },
      "external_urls" : {
        "spotify" : "https://open.spotify.com/track/6gEDUsYJ41z2oNELaixGRF"
      },
      "href" : "https://api.spotify.com/v1/tracks/6gEDUsYJ41z2oNELaixGRF",
      "id" : "6gEDUsYJ41z2oNELaixGRF",
      "is_local" : false,
      "is_playable" : true,
      "name" : "God is Here",
      "popularity" : 27,
      "preview_url" : "https://p.scdn.co/mp3-preview/98628a848c7519f198e5e0581e0e0210275cceec?cid=774b29d4f13844c495f206cafdad9c86",
      "track_number" : 8,
      "type" : "track",
      "uri" : "spotify:track:6gEDUsYJ41z2oNELaixGRF"
    }, {
      "album" : {
        "album_type" : "album",
        "artists" : [ {
          "external_urls" : {
            "spotify" : "https://open.spotify.com/artist/4988ULVP4X7nco6pLh1PA2"
          },
          "href" : "https://api.spotify.com/v1/artists/4988ULVP4X7nco6pLh1PA2",
          "id" : "4988ULVP4X7nco6pLh1PA2",
          "name" : "Cimorelli",
          "type" : "artist",
          "uri" : "spotify:artist:4988ULVP4X7nco6pLh1PA2"
        } ],
        "external_urls" : {
          "spotify" : "https://open.spotify.com/album/37SKhChKfvEDUFq9Ww5hYU"
        },
        "href" : "https://api.spotify.com/v1/albums/37SKhChKfvEDUFq9Ww5hYU",
        "id" : "37SKhChKfvEDUFq9Ww5hYU",
        "images" : [ {
          "height" : 640,
          "url" : "https://i.scdn.co/image/ab67616d0000b273943950088972709d101c0826",
          "width" : 640
        }, {
          "height" : 300,
          "url" : "https://i.scdn.co/image/ab67616d00001e02943950088972709d101c0826",
          "width" : 300
        }, {
          "height" : 64,
          "url" : "https://i.scdn.co/image/ab67616d00004851943950088972709d101c0826",
          "width" : 64
        } ],
        "name" : "Alive",
        "release_date" : "2017-05-05",
        "release_date_precision" : "day",
        "total_tracks" : 10,
        "type" : "album",
        "uri" : "spotify:album:37SKhChKfvEDUFq9Ww5hYU"
      },
      "artists" : [ {
        "external_urls" : {
          "spotify" : "https://open.spotify.com/artist/4988ULVP4X7nco6pLh1PA2"
        },
        "href" : "https://api.spotify.com/v1/artists/4988ULVP4X7nco6pLh1PA2",
        "id" : "4988ULVP4X7nco6pLh1PA2",
        "name" : "Cimorelli",
        "type" : "artist",
        "uri" : "spotify:artist:4988ULVP4X7nco6pLh1PA2"
      } ],
      "disc_number" : 1,
      "duration_ms" : 221306,
      "explicit" : false,
      "external_ids" : {
        "isrc" : "TCADA1739544"
      },
      "external_urls" : {
        "spotify" : "https://open.spotify.com/track/5Y3OdjCMF3Bz8K2FwxHXJe"
      },
      "href" : "https://api.spotify.com/v1/tracks/5Y3OdjCMF3Bz8K2FwxHXJe",
      "id" : "5Y3OdjCMF3Bz8K2FwxHXJe",
      "is_local" : false,
      "is_playable" : true,
      "name" : "My God Is Here",
      "popularity" : 24,
      "preview_url" : "https://p.scdn.co/mp3-preview/3800088ef6ef25d3f9b1e0c93902b4b3f99dd460?cid=774b29d4f13844c495f206cafdad9c86",
      "track_number" : 6,
      "type" : "track",
      "uri" : "spotify:track:5Y3OdjCMF3Bz8K2FwxHXJe"
    }, {
      "album" : {
        "album_type" : "album",
        "artists" : [ {
          "external_urls" : {
            "spotify" : "https://open.spotify.com/artist/5V8hHuC5OUxEsnvZmuFkJh"
          },
          "href" : "https://api.spotify.com/v1/artists/5V8hHuC5OUxEsnvZmuFkJh",
          "id" : "5V8hHuC5OUxEsnvZmuFkJh",
          "name" : "Chris Muglia",
          "type" : "artist",
          "uri" : "spotify:artist:5V8hHuC5OUxEsnvZmuFkJh"
        } ],
        "external_urls" : {
          "spotify" : "https://open.spotify.com/album/3x3nkt3OBmbXgz9uznNXAU"
        },
        "href" : "https://api.spotify.com/v1/albums/3x3nkt3OBmbXgz9uznNXAU",
        "id" : "3x3nkt3OBmbXgz9uznNXAU",
        "images" : [ {
          "height" : 640,
          "url" : "https://i.scdn.co/image/ab67616d0000b27342b68ebd08324751d9371d83",
          "width" : 640
        }, {
          "height" : 300,
          "url" : "https://i.scdn.co/image/ab67616d00001e0242b68ebd08324751d9371d83",
          "width" : 300
        }, {
          "height" : 64,
          "url" : "https://i.scdn.co/image/ab67616d0000485142b68ebd08324751d9371d83",
          "width" : 64
        } ],
        "name" : "Innocence",
        "release_date" : "2003",
        "release_date_precision" : "year",
        "total_tracks" : 10,
        "type" : "album",
        "uri" : "spotify:album:3x3nkt3OBmbXgz9uznNXAU"
      },
      "artists" : [ {
        "external_urls" : {
          "spotify" : "https://open.spotify.com/artist/5V8hHuC5OUxEsnvZmuFkJh"
        },
        "href" : "https://api.spotify.com/v1/artists/5V8hHuC5OUxEsnvZmuFkJh",
        "id" : "5V8hHuC5OUxEsnvZmuFkJh",
        "name" : "Chris Muglia",
        "type" : "artist",
        "uri" : "spotify:artist:5V8hHuC5OUxEsnvZmuFkJh"
      } ],
      "disc_number" : 1,
      "duration_ms" : 283600,
      "explicit" : false,
      "external_ids" : {
        "isrc" : "USA4N0400212"
      },
      "external_urls" : {
        "spotify" : "https://open.spotify.com/track/5FcLPtXyCv0znIF4P3UlJP"
      },
      "href" : "https://api.spotify.com/v1/tracks/5FcLPtXyCv0znIF4P3UlJP",
      "id" : "5FcLPtXyCv0znIF4P3UlJP",
      "is_local" : false,
      "is_playable" : true,
      "name" : "Our God is Here",
      "popularity" : 18,
      "preview_url" : "https://p.scdn.co/mp3-preview/763711c63a1f8493d0ed14d45bf9707506d49314?cid=774b29d4f13844c495f206cafdad9c86",
      "track_number" : 8,
      "type" : "track",
      "uri" : "spotify:track:5FcLPtXyCv0znIF4P3UlJP"
    }, {
      "album" : {
        "album_type" : "album",
        "artists" : [ {
          "external_urls" : {
            "spotify" : "https://open.spotify.com/artist/5UzGtBBwUB77l2ZI4fbfig"
          },
          "href" : "https://api.spotify.com/v1/artists/5UzGtBBwUB77l2ZI4fbfig",
          "id" : "5UzGtBBwUB77l2ZI4fbfig",
          "name" : "Ron Kenoly",
          "type" : "artist",
          "uri" : "spotify:artist:5UzGtBBwUB77l2ZI4fbfig"
        }, {
          "external_urls" : {
            "spotify" : "https://open.spotify.com/artist/72iDlGYfVrntfpKzmAv0Hn"
          },
          "href" : "https://api.spotify.com/v1/artists/72iDlGYfVrntfpKzmAv0Hn",
          "id" : "72iDlGYfVrntfpKzmAv0Hn",
          "name" : "Integrity's Hosanna! Music",
          "type" : "artist",
          "uri" : "spotify:artist:72iDlGYfVrntfpKzmAv0Hn"
        } ],
        "external_urls" : {
          "spotify" : "https://open.spotify.com/album/62YJ5DY3tLcWhniVrsAF8a"
        },
        "href" : "https://api.spotify.com/v1/albums/62YJ5DY3tLcWhniVrsAF8a",
        "id" : "62YJ5DY3tLcWhniVrsAF8a",
        "images" : [ {
          "height" : 640,
          "url" : "https://i.scdn.co/image/ab67616d0000b273d174cc0fd45fcaaf433c4102",
          "width" : 640
        }, {
          "height" : 300,
          "url" : "https://i.scdn.co/image/ab67616d00001e02d174cc0fd45fcaaf433c4102",
          "width" : 300
        }, {
          "height" : 64,
          "url" : "https://i.scdn.co/image/ab67616d00004851d174cc0fd45fcaaf433c4102",
          "width" : 64
        } ],
        "name" : "Majesty (Live)",
        "release_date" : "2010",
        "release_date_precision" : "year",
        "total_tracks" : 12,
        "type" : "album",
        "uri" : "spotify:album:62YJ5DY3tLcWhniVrsAF8a"
      },
      "artists" : [ {
        "external_urls" : {
          "spotify" : "https://open.spotify.com/artist/5UzGtBBwUB77l2ZI4fbfig"
        },
        "href" : "https://api.spotify.com/v1/artists/5UzGtBBwUB77l2ZI4fbfig",
        "id" : "5UzGtBBwUB77l2ZI4fbfig",
        "name" : "Ron Kenoly",
        "type" : "artist",
        "uri" : "spotify:artist:5UzGtBBwUB77l2ZI4fbfig"
      }, {
        "external_urls" : {
          "spotify" : "https://open.spotify.com/artist/72iDlGYfVrntfpKzmAv0Hn"
        },
        "href" : "https://api.spotify.com/v1/artists/72iDlGYfVrntfpKzmAv0Hn",
        "id" : "72iDlGYfVrntfpKzmAv0Hn",
        "name" : "Integrity's Hosanna! Music",
        "type" : "artist",
        "uri" : "spotify:artist:72iDlGYfVrntfpKzmAv0Hn"
      } ],
      "disc_number" : 1,
      "duration_ms" : 238533,
      "explicit" : false,
      "external_ids" : {
        "isrc" : "US25L0800878"
      },
      "external_urls" : {
        "spotify" : "https://open.spotify.com/track/1JWjDlnDFN7E9eobQsGF3r"
      },
      "href" : "https://api.spotify.com/v1/tracks/1JWjDlnDFN7E9eobQsGF3r",
      "id" : "1JWjDlnDFN7E9eobQsGF3r",
      "is_local" : false,
      "is_playable" : true,
      "name" : "We Declare That the Kingdom of God Is Here - Live",
      "popularity" : 22,
      "preview_url" : "https://p.scdn.co/mp3-preview/3c8be80bdd302d9b650918481e9c7153aa094630?cid=774b29d4f13844c495f206cafdad9c86",
      "track_number" : 2,
      "type" : "track",
      "uri" : "spotify:track:1JWjDlnDFN7E9eobQsGF3r"
    }, {
      "album" : {
        "album_type" : "single",
        "artists" : [ {
          "external_urls" : {
            "spotify" : "https://open.spotify.com/artist/7dq8KEwf0kQXJhM79iwcPh"
          },
          "href" : "https://api.spotify.com/v1/artists/7dq8KEwf0kQXJhM79iwcPh",
          "id" : "7dq8KEwf0kQXJhM79iwcPh",
          "name" : "JJ Heller",
          "type" : "artist",
          "uri" : "spotify:artist:7dq8KEwf0kQXJhM79iwcPh"
        } ],
        "external_urls" : {
          "spotify" : "https://open.spotify.com/album/6C9vrX1Mm4WCChaOooGRpp"
        },
        "href" : "https://api.spotify.com/v1/albums/6C9vrX1Mm4WCChaOooGRpp",
        "id" : "6C9vrX1Mm4WCChaOooGRpp",
        "images" : [ {
          "height" : 640,
          "url" : "https://i.scdn.co/image/ab67616d0000b273aa60c13a911d94a2c7131a0d",
          "width" : 640
        }, {
          "height" : 300,
          "url" : "https://i.scdn.co/image/ab67616d00001e02aa60c13a911d94a2c7131a0d",
          "width" : 300
        }, {
          "height" : 64,
          "url" : "https://i.scdn.co/image/ab67616d00004851aa60c13a911d94a2c7131a0d",
          "width" : 64
        } ],
        "name" : "God Is Still Here",
        "release_date" : "2018-07-06",
        "release_date_precision" : "day",
        "total_tracks" : 1,
        "type" : "album",
        "uri" : "spotify:album:6C9vrX1Mm4WCChaOooGRpp"
      },
      "artists" : [ {
        "external_urls" : {
          "spotify" : "https://open.spotify.com/artist/7dq8KEwf0kQXJhM79iwcPh"
        },
        "href" : "https://api.spotify.com/v1/artists/7dq8KEwf0kQXJhM79iwcPh",
        "id" : "7dq8KEwf0kQXJhM79iwcPh",
        "name" : "JJ Heller",
        "type" : "artist",
        "uri" : "spotify:artist:7dq8KEwf0kQXJhM79iwcPh"
      } ],
      "disc_number" : 1,
      "duration_ms" : 257358,
      "explicit" : false,
      "external_ids" : {
        "isrc" : "TCADR1811134"
      },
      "external_urls" : {
        "spotify" : "https://open.spotify.com/track/1OFqG8Tn7ehXHxDLpgew0L"
      },
      "href" : "https://api.spotify.com/v1/tracks/1OFqG8Tn7ehXHxDLpgew0L",
      "id" : "1OFqG8Tn7ehXHxDLpgew0L",
      "is_local" : false,
      "is_playable" : true,
      "name" : "God Is Still Here",
      "popularity" : 50,
      "preview_url" : "https://p.scdn.co/mp3-preview/385a9dce0181150e8fca17b77988e09c6dae084f?cid=774b29d4f13844c495f206cafdad9c86",
      "track_number" : 1,
      "type" : "track",
      "uri" : "spotify:track:1OFqG8Tn7ehXHxDLpgew0L"
    }, {
      "album" : {
        "album_type" : "album",
        "artists" : [ {
          "external_urls" : {
            "spotify" : "https://open.spotify.com/artist/74cb3MG0x0BOnYNW1uXYnM"
          },
          "href" : "https://api.spotify.com/v1/artists/74cb3MG0x0BOnYNW1uXYnM",
          "id" : "74cb3MG0x0BOnYNW1uXYnM",
          "name" : "Hillsong UNITED",
          "type" : "artist",
          "uri" : "spotify:artist:74cb3MG0x0BOnYNW1uXYnM"
        } ],
        "external_urls" : {
          "spotify" : "https://open.spotify.com/album/7DVBC9uavDM2X6LGHSLjU3"
        },
        "href" : "https://api.spotify.com/v1/albums/7DVBC9uavDM2X6LGHSLjU3",
        "id" : "7DVBC9uavDM2X6LGHSLjU3",
        "images" : [ {
          "height" : 640,
          "url" : "https://i.scdn.co/image/ab67616d0000b27318177f73e26aaceb9229cc5e",
          "width" : 640
        }, {
          "height" : 300,
          "url" : "https://i.scdn.co/image/ab67616d00001e0218177f73e26aaceb9229cc5e",
          "width" : 300
        }, {
          "height" : 64,
          "url" : "https://i.scdn.co/image/ab67616d0000485118177f73e26aaceb9229cc5e",
          "width" : 64
        } ],
        "name" : "Live In Miami",
        "release_date" : "2012-02-14",
        "release_date_precision" : "day",
        "total_tracks" : 22,
        "type" : "album",
        "uri" : "spotify:album:7DVBC9uavDM2X6LGHSLjU3"
      },
      "artists" : [ {
        "external_urls" : {
          "spotify" : "https://open.spotify.com/artist/74cb3MG0x0BOnYNW1uXYnM"
        },
        "href" : "https://api.spotify.com/v1/artists/74cb3MG0x0BOnYNW1uXYnM",
        "id" : "74cb3MG0x0BOnYNW1uXYnM",
        "name" : "Hillsong UNITED",
        "type" : "artist",
        "uri" : "spotify:artist:74cb3MG0x0BOnYNW1uXYnM"
      } ],
      "disc_number" : 2,
      "duration_ms" : 461346,
      "explicit" : false,
      "external_ids" : {
        "isrc" : "AUHS01104646"
      },
      "external_urls" : {
        "spotify" : "https://open.spotify.com/track/1Pxfl5aA4xJTrkfS5K6AP6"
      },
      "href" : "https://api.spotify.com/v1/tracks/1Pxfl5aA4xJTrkfS5K6AP6",
      "id" : "1Pxfl5aA4xJTrkfS5K6AP6",
      "is_local" : false,
      "is_playable" : true,
      "name" : "Freedom Is Here / Shout Unto God - Live",
      "popularity" : 27,
      "preview_url" : null,
      "track_number" : 1,
      "type" : "track",
      "uri" : "spotify:track:1Pxfl5aA4xJTrkfS5K6AP6"
    }, {
      "album" : {
        "album_type" : "album",
        "artists" : [ {
          "external_urls" : {
            "spotify" : "https://open.spotify.com/artist/6nruQV5n54zVYxSucjzRwL"
          },
          "href" : "https://api.spotify.com/v1/artists/6nruQV5n54zVYxSucjzRwL",
          "id" : "6nruQV5n54zVYxSucjzRwL",
          "name" : "Those Who Know the Son",
          "type" : "artist",
          "uri" : "spotify:artist:6nruQV5n54zVYxSucjzRwL"
        } ],
        "external_urls" : {
          "spotify" : "https://open.spotify.com/album/65cZCpl1LhGJF41zoIsrkd"
        },
        "href" : "https://api.spotify.com/v1/albums/65cZCpl1LhGJF41zoIsrkd",
        "id" : "65cZCpl1LhGJF41zoIsrkd",
        "images" : [ {
          "height" : 640,
          "url" : "https://i.scdn.co/image/ab67616d0000b2736d92f807b21128bdb4db27f3",
          "width" : 640
        }, {
          "height" : 300,
          "url" : "https://i.scdn.co/image/ab67616d00001e026d92f807b21128bdb4db27f3",
          "width" : 300
        }, {
          "height" : 64,
          "url" : "https://i.scdn.co/image/ab67616d000048516d92f807b21128bdb4db27f3",
          "width" : 64
        } ],
        "name" : "Walk With God",
        "release_date" : "2018-01-30",
        "release_date_precision" : "day",
        "total_tracks" : 8,
        "type" : "album",
        "uri" : "spotify:album:65cZCpl1LhGJF41zoIsrkd"
      },
      "artists" : [ {
        "external_urls" : {
          "spotify" : "https://open.spotify.com/artist/6nruQV5n54zVYxSucjzRwL"
        },
        "href" : "https://api.spotify.com/v1/artists/6nruQV5n54zVYxSucjzRwL",
        "id" : "6nruQV5n54zVYxSucjzRwL",
        "name" : "Those Who Know the Son",
        "type" : "artist",
        "uri" : "spotify:artist:6nruQV5n54zVYxSucjzRwL"
      } ],
      "disc_number" : 1,
      "duration_ms" : 85093,
      "explicit" : false,
      "external_ids" : {
        "isrc" : "QZARB1804208"
      },
      "external_urls" : {
        "spotify" : "https://open.spotify.com/track/0fFeUjpeZ8eZImdm93kDKo"
      },
      "href" : "https://api.spotify.com/v1/tracks/0fFeUjpeZ8eZImdm93kDKo",
      "id" : "0fFeUjpeZ8eZImdm93kDKo",
      "is_local" : false,
      "is_playable" : true,
      "name" : "It Is Here",
      "popularity" : 26,
      "preview_url" : "https://p.scdn.co/mp3-preview/68945a60f36656cd9f53fdd775993ef99cfb5da5?cid=774b29d4f13844c495f206cafdad9c86",
      "track_number" : 4,
      "type" : "track",
      "uri" : "spotify:track:0fFeUjpeZ8eZImdm93kDKo"
    }, {
      "album" : {
        "album_type" : "single",
        "artists" : [ {
          "external_urls" : {
            "spotify" : "https://open.spotify.com/artist/7GaxyUddsPok8BuhxN6OUW"
          },
          "href" : "https://api.spotify.com/v1/artists/7GaxyUddsPok8BuhxN6OUW",
          "id" : "7GaxyUddsPok8BuhxN6OUW",
          "name" : "James Brown",
          "type" : "artist",
          "uri" : "spotify:artist:7GaxyUddsPok8BuhxN6OUW"
        } ],
        "external_urls" : {
          "spotify" : "https://open.spotify.com/album/0U4H8i5foFCpjuxSMi6HJc"
        },
        "href" : "https://api.spotify.com/v1/albums/0U4H8i5foFCpjuxSMi6HJc",
        "id" : "0U4H8i5foFCpjuxSMi6HJc",
        "images" : [ {
          "height" : 640,
          "url" : "https://i.scdn.co/image/ab67616d0000b27386fc2f0641ba80f764a59db8",
          "width" : 640
        }, {
          "height" : 300,
          "url" : "https://i.scdn.co/image/ab67616d00001e0286fc2f0641ba80f764a59db8",
          "width" : 300
        }, {
          "height" : 64,
          "url" : "https://i.scdn.co/image/ab67616d0000485186fc2f0641ba80f764a59db8",
          "width" : 64
        } ],
        "name" : "Sho Is Funky Down Here",
        "release_date" : "1971-01-01",
        "release_date_precision" : "day",
        "total_tracks" : 6,
        "type" : "album",
        "uri" : "spotify:album:0U4H8i5foFCpjuxSMi6HJc"
      },
      "artists" : [ {
        "external_urls" : {
          "spotify" : "https://open.spotify.com/artist/7GaxyUddsPok8BuhxN6OUW"
        },
        "href" : "https://api.spotify.com/v1/artists/7GaxyUddsPok8BuhxN6OUW",
        "id" : "7GaxyUddsPok8BuhxN6OUW",
        "name" : "James Brown",
        "type" : "artist",
        "uri" : "spotify:artist:7GaxyUddsPok8BuhxN6OUW"
      } ],
      "disc_number" : 1,
      "duration_ms" : 211653,
      "explicit" : false,
      "external_ids" : {
        "isrc" : "USUM71410067"
      },
      "external_urls" : {
        "spotify" : "https://open.spotify.com/track/0zu754002s0GvX6DkgF7O9"
      },
      "href" : "https://api.spotify.com/v1/tracks/0zu754002s0GvX6DkgF7O9",
      "id" : "0zu754002s0GvX6DkgF7O9",
      "is_local" : false,
      "is_playable" : true,
      "name" : "Don’t Mind",
      "popularity" : 35,
      "preview_url" : null,
      "track_number" : 2,
      "type" : "track",
      "uri" : "spotify:track:0zu754002s0GvX6DkgF7O9"
    }, {
      "album" : {
        "album_type" : "album",
        "artists" : [ {
          "external_urls" : {
            "spotify" : "https://open.spotify.com/artist/0vj1ONO111GpehfAlHuYFs"
          },
          "href" : "https://api.spotify.com/v1/artists/0vj1ONO111GpehfAlHuYFs",
          "id" : "0vj1ONO111GpehfAlHuYFs",
          "name" : "The Prestonwood Choir",
          "type" : "artist",
          "uri" : "spotify:artist:0vj1ONO111GpehfAlHuYFs"
        } ],
        "external_urls" : {
          "spotify" : "https://open.spotify.com/album/3vUybIAQDSwXLTaYKx131A"
        },
        "href" : "https://api.spotify.com/v1/albums/3vUybIAQDSwXLTaYKx131A",
        "id" : "3vUybIAQDSwXLTaYKx131A",
        "images" : [ {
          "height" : 640,
          "url" : "https://i.scdn.co/image/ab67616d0000b273ec9e0c5f341a59be3ab31875",
          "width" : 640
        }, {
          "height" : 300,
          "url" : "https://i.scdn.co/image/ab67616d00001e02ec9e0c5f341a59be3ab31875",
          "width" : 300
        }, {
          "height" : 64,
          "url" : "https://i.scdn.co/image/ab67616d00004851ec9e0c5f341a59be3ab31875",
          "width" : 64
        } ],
        "name" : "God Is Here",
        "release_date" : "2010-01-29",
        "release_date_precision" : "day",
        "total_tracks" : 12,
        "type" : "album",
        "uri" : "spotify:album:3vUybIAQDSwXLTaYKx131A"
      },
      "artists" : [ {
        "external_urls" : {
          "spotify" : "https://open.spotify.com/artist/0vj1ONO111GpehfAlHuYFs"
        },
        "href" : "https://api.spotify.com/v1/artists/0vj1ONO111GpehfAlHuYFs",
        "id" : "0vj1ONO111GpehfAlHuYFs",
        "name" : "The Prestonwood Choir",
        "type" : "artist",
        "uri" : "spotify:artist:0vj1ONO111GpehfAlHuYFs"
      } ],
      "disc_number" : 1,
      "duration_ms" : 330773,
      "explicit" : false,
      "external_ids" : {
        "isrc" : "usx9p0989487"
      },
      "external_urls" : {
        "spotify" : "https://open.spotify.com/track/4OtP3P3tPSmAwpSog9ue8J"
      },
      "href" : "https://api.spotify.com/v1/tracks/4OtP3P3tPSmAwpSog9ue8J",
      "id" : "4OtP3P3tPSmAwpSog9ue8J",
      "is_local" : false,
      "is_playable" : true,
      "name" : "Thou Oh Lord",
      "popularity" : 29,
      "preview_url" : "https://p.scdn.co/mp3-preview/87a441678833c55534a1243a6d5840c89a9d0289?cid=774b29d4f13844c495f206cafdad9c86",
      "track_number" : 12,
      "type" : "track",
      "uri" : "spotify:track:4OtP3P3tPSmAwpSog9ue8J"
    }, {
      "album" : {
        "album_type" : "album",
        "artists" : [ {
          "external_urls" : {
            "spotify" : "https://open.spotify.com/artist/4Nxe6Ok9L0s7WViFxu8zVX"
          },
          "href" : "https://api.spotify.com/v1/artists/4Nxe6Ok9L0s7WViFxu8zVX",
          "id" : "4Nxe6Ok9L0s7WViFxu8zVX",
          "name" : "Rob Gardner",
          "type" : "artist",
          "uri" : "spotify:artist:4Nxe6Ok9L0s7WViFxu8zVX"
        }, {
          "external_urls" : {
            "spotify" : "https://open.spotify.com/artist/5yxyJsFanEAuwSM5kOuZKc"
          },
          "href" : "https://api.spotify.com/v1/artists/5yxyJsFanEAuwSM5kOuZKc",
          "id" : "5yxyJsFanEAuwSM5kOuZKc",
          "name" : "London Symphony Orchestra",
          "type" : "artist",
          "uri" : "spotify:artist:5yxyJsFanEAuwSM5kOuZKc"
        }, {
          "external_urls" : {
            "spotify" : "https://open.spotify.com/artist/2Mp5UQMkkVnbP8uZudMzdD"
          },
          "href" : "https://api.spotify.com/v1/artists/2Mp5UQMkkVnbP8uZudMzdD",
          "id" : "2Mp5UQMkkVnbP8uZudMzdD",
          "name" : "Spire Chorus",
          "type" : "artist",
          "uri" : "spotify:artist:2Mp5UQMkkVnbP8uZudMzdD"
        } ],
        "external_urls" : {
          "spotify" : "https://open.spotify.com/album/15HVB8b1tjeMlXcbtTMTjQ"
        },
        "href" : "https://api.spotify.com/v1/albums/15HVB8b1tjeMlXcbtTMTjQ",
        "id" : "15HVB8b1tjeMlXcbtTMTjQ",
        "images" : [ {
          "height" : 640,
          "url" : "https://i.scdn.co/image/ab67616d0000b273b4fed6f14f7f9d4c46898b71",
          "width" : 640
        }, {
          "height" : 300,
          "url" : "https://i.scdn.co/image/ab67616d00001e02b4fed6f14f7f9d4c46898b71",
          "width" : 300
        }, {
          "height" : 64,
          "url" : "https://i.scdn.co/image/ab67616d00004851b4fed6f14f7f9d4c46898b71",
          "width" : 64
        } ],
        "name" : "Lamb of God",
        "release_date" : "2011-03-08",
        "release_date_precision" : "day",
        "total_tracks" : 25,
        "type" : "album",
        "uri" : "spotify:album:15HVB8b1tjeMlXcbtTMTjQ"
      },
      "artists" : [ {
        "external_urls" : {
          "spotify" : "https://open.spotify.com/artist/6Yxf3Qu7PfaAJgbhEQZ0P4"
        },
        "href" : "https://api.spotify.com/v1/artists/6Yxf3Qu7PfaAJgbhEQZ0P4",
        "id" : "6Yxf3Qu7PfaAJgbhEQZ0P4",
        "name" : "Rob Gardner, London Symphony Orchestra, Spire Chorus",
        "type" : "artist",
        "uri" : "spotify:artist:6Yxf3Qu7PfaAJgbhEQZ0P4"
      } ],
      "disc_number" : 1,
      "duration_ms" : 239426,
      "explicit" : false,
      "external_ids" : {
        "isrc" : "uscgh1182178"
      },
      "external_urls" : {
        "spotify" : "https://open.spotify.com/track/1yOc1gF0UhhfjLLBvfd1Tj"
      },
      "href" : "https://api.spotify.com/v1/tracks/1yOc1gF0UhhfjLLBvfd1Tj",
      "id" : "1yOc1gF0UhhfjLLBvfd1Tj",
      "is_local" : false,
      "is_playable" : true,
      "name" : "Here Is Hope",
      "popularity" : 21,
      "preview_url" : "https://p.scdn.co/mp3-preview/5312a94da67741cac254534d1b97191c85fada48?cid=774b29d4f13844c495f206cafdad9c86",
      "track_number" : 18,
      "type" : "track",
      "uri" : "spotify:track:1yOc1gF0UhhfjLLBvfd1Tj"
    } ],
    "limit" : 10,
    "next" : "https://api.spotify.com/v1/search?query=God+Is+Here%21&type=track&market=US&offset=15&limit=10",
    "offset" : 5,
    "previous" : "https://api.spotify.com/v1/search?query=God+Is+Here%21&type=track&market=US&offset=0&limit=10",
    "total" : 893
  }
}