{
  "tracks" : {
    "href" : "https://api.spotify.com/v1/search?query=Christ+Is+Alive&type=track&market=US&offset=5&limit=10",
    "items" : [ {
      "album" : {
        "album_type" : "album",
        "artists" : [ {
          "external_urls" : {
            "spotify" : "https://open.spotify.com/artist/3JKSiFPFpKSntu64OwWnIw"
          },
          "href" : "https://api.spotify.com/v1/artists/3JKSiFPFpKSntu64OwWnIw",
          "id" : "3JKSiFPFpKSntu64OwWnIw",
          "name" : "Lifeway Worship",
          "type" : "artist",
          "uri" : "spotify:artist:3JKSiFPFpKSntu64OwWnIw"
        } ],
        "external_urls" : {
          "spotify" : "https://open.spotify.com/album/7woCrc4RmmIt8RkOjR4l3a"
        },
        "href" : "https://api.spotify.com/v1/albums/7woCrc4RmmIt8RkOjR4l3a",
        "id" : "7woCrc4RmmIt8RkOjR4l3a",
        "images" : [ {
          "height" : 640,
          "url" : "https://i.scdn.co/image/ab67616d0000b2739dd05cc86afa3aa4dc22bf4d",
          "width" : 640
        }, {
          "height" : 300,
          "url" : "https://i.scdn.co/image/ab67616d00001e029dd05cc86afa3aa4dc22bf4d",
          "width" : 300
        }, {
          "height" : 64,
          "url" : "https://i.scdn.co/image/ab67616d000048519dd05cc86afa3aa4dc22bf4d",
          "width" : 64
        } ],
        "name" : "Top 50 Worship Songs for Easter",
        "release_date" : "2020-04-03",
        "release_date_precision" : "day",
        "total_tracks" : 50,
        "type" : "album",
        "uri" : "spotify:album:7woCrc4RmmIt8RkOjR4l3a"
      },
      "artists" : [ {
        "external_urls" : {
          "spotify" : "https://open.spotify.com/artist/3JKSiFPFpKSntu64OwWnIw"
        },
        "href" : "https://api.spotify.com/v1/artists/3JKSiFPFpKSntu64OwWnIw",
        "id" : "3JKSiFPFpKSntu64OwWnIw",
        "name" : "Lifeway Worship",
        "type" : "artist",
        "uri" : "spotify:artist:3JKSiFPFpKSntu64OwWnIw"
      } ],
      "disc_number" : 1,
      "duration_ms" : 204270,
      "explicit" : false,
      "external_ids" : {
        "isrc" : "USBWZ1400174"
      },
      "external_urls" : {
        "spotify" : "https://open.spotify.com/track/1jRF0mWP0XtfgOd2qW7vMr"
      },
      "href" : "https://api.spotify.com/v1/tracks/1jRF0mWP0XtfgOd2qW7vMr",
      "id" : "1jRF0mWP0XtfgOd2qW7vMr",
      "is_local" : false,
      "is_playable" : true,
      "name" : "Christ the Lord Is Risen Today (He's Alive)",
      "popularity" : 13,
      "preview_url" : "https://p.scdn.co/mp3-preview/f37cab5cfa29a3dd218e1bab3ded2a87f9f0a6b4?cid=774b29d4f13844c495f206cafdad9c86",
      "track_number" : 17,
      "type" : "track",
      "uri" : "spotify:track:1jRF0mWP0XtfgOd2qW7vMr"
    }, {
      "album" : {
        "album_type" : "album",
        "artists" : [ {
          "external_urls" : {
            "spotify" : "https://open.spotify.com/artist/0LyfQWJT6nXafLPZqxe9Of"
          },
          "href" : "https://api.spotify.com/v1/artists/0LyfQWJT6nXafLPZqxe9Of",
          "id" : "0LyfQWJT6nXafLPZqxe9Of",
          "name" : "Various Artists",
          "type" : "artist",
          "uri" : "spotify:artist:0LyfQWJT6nXafLPZqxe9Of"
        } ],
        "external_urls" : {
          "spotify" : "https://open.spotify.com/album/2sH4b4WlLHenDQUX138Skn"
        },
        "href" : "https://api.spotify.com/v1/albums/2sH4b4WlLHenDQUX138Skn",
        "id" : "2sH4b4WlLHenDQUX138Skn",
        "images" : [ {
          "height" : 640,
          "url" : "https://i.scdn.co/image/ab67616d0000b27395b12d1a778bb010ee838e65",
          "width" : 640
        }, {
          "height" : 300,
          "url" : "https://i.scdn.co/image/ab67616d00001e0295b12d1a778bb010ee838e65",
          "width" : 300
        }, {
          "height" : 64,
          "url" : "https://i.scdn.co/image/ab67616d0000485195b12d1a778bb010ee838e65",
          "width" : 64
        } ],
        "name" : "Christ Is Risen",
        "release_date" : "2015-03-24",
        "release_date_precision" : "day",
        "total_tracks" : 12,
        "type" : "album",
        "uri" : "spotify:album:2sH4b4WlLHenDQUX138Skn"
      },
      "artists" : [ {
        "external_urls" : {
          "spotify" : "https://open.spotify.com/artist/1laNwx3Sgr12cbdw3UTROn"
        },
        "href" : "https://api.spotify.com/v1/artists/1laNwx3Sgr12cbdw3UTROn",
        "id" : "1laNwx3Sgr12cbdw3UTROn",
        "name" : "The Sing Team",
        "type" : "artist",
        "uri" : "spotify:artist:1laNwx3Sgr12cbdw3UTROn"
      } ],
      "disc_number" : 1,
      "duration_ms" : 265901,
      "explicit" : false,
      "external_ids" : {
        "isrc" : "QMVP91100022"
      },
      "external_urls" : {
        "spotify" : "https://open.spotify.com/track/5tokRIqaAC6q0XojHjPEP0"
      },
      "href" : "https://api.spotify.com/v1/tracks/5tokRIqaAC6q0XojHjPEP0",
      "id" : "5tokRIqaAC6q0XojHjPEP0",
      "is_local" : false,
      "is_playable" : true,
      "name" : "Because Jesus Christ Is Alive",
      "popularity" : 13,
      "preview_url" : "https://p.scdn.co/mp3-preview/d77dabe734117e3cf24faa93d4550947ea8e9efb?cid=774b29d4f13844c495f206cafdad9c86",
      "track_number" : 8,
      "type" : "track",
      "uri" : "spotify:track:5tokRIqaAC6q0XojHjPEP0"
    }, {
      "album" : {
        "album_type" : "album",
        "artists" : [ {
          "external_urls" : {
            "spotify" : "https://open.spotify.com/artist/5ljRAiIgLFVxzWg7vS1Rnl"
          },
          "href" : "https://api.spotify.com/v1/artists/5ljRAiIgLFVxzWg7vS1Rnl",
          "id" : "5ljRAiIgLFVxzWg7vS1Rnl",
          "name" : "Christian Devotion",
          "type" : "artist",
          "uri" : "spotify:artist:5ljRAiIgLFVxzWg7vS1Rnl"
        } ],
        "external_urls" : {
          "spotify" : "https://open.spotify.com/album/5qR3O4U7NpxK4ORGlELvIF"
        },
        "href" : "https://api.spotify.com/v1/albums/5qR3O4U7NpxK4ORGlELvIF",
        "id" : "5qR3O4U7NpxK4ORGlELvIF",
        "images" : [ {
          "height" : 640,
          "url" : "https://i.scdn.co/image/ab67616d0000b27352cc89c1b49ef94fed413951",
          "width" : 640
        }, {
          "height" : 300,
          "url" : "https://i.scdn.co/image/ab67616d00001e0252cc89c1b49ef94fed413951",
          "width" : 300
        }, {
          "height" : 64,
          "url" : "https://i.scdn.co/image/ab67616d0000485152cc89c1b49ef94fed413951",
          "width" : 64
        } ],
        "name" : "Quiet Time",
        "release_date" : "2015-12-21",
        "release_date_precision" : "day",
        "total_tracks" : 18,
        "type" : "album",
        "uri" : "spotify:album:5qR3O4U7NpxK4ORGlELvIF"
      },
      "artists" : [ {
        "external_urls" : {
          "spotify" : "https://open.spotify.com/artist/5ljRAiIgLFVxzWg7vS1Rnl"
        },
        "href" : "https://api.spotify.com/v1/artists/5ljRAiIgLFVxzWg7vS1Rnl",
        "id" : "5ljRAiIgLFVxzWg7vS1Rnl",
        "name" : "Christian Devotion",
        "type" : "artist",
        "uri" : "spotify:artist:5ljRAiIgLFVxzWg7vS1Rnl"
      } ],
      "disc_number" : 1,
      "duration_ms" : 92113,
      "explicit" : false,
      "external_ids" : {
        "isrc" : "USA2P1563049"
      },
      "external_urls" : {
        "spotify" : "https://open.spotify.com/track/1Q7u3FAORn3rEaFxc8uiQr"
      },
      "href" : "https://api.spotify.com/v1/tracks/1Q7u3FAORn3rEaFxc8uiQr",
      "id" : "1Q7u3FAORn3rEaFxc8uiQr",
      "is_local" : false,
      "is_playable" : true,
      "name" : "Lift up Your Heads, Ye Mighty Gates (Christ Is Alive)",
      "popularity" : 9,
      "preview_url" : "https://p.scdn.co/mp3-preview/1fe9ee3540730d21b08e6a91424c97c6de42cf62?cid=774b29d4f13844c495f206cafdad9c86",
      "track_number" : 4,
      "type" : "track",
      "uri" : "spotify:track:1Q7u3FAORn3rEaFxc8uiQr"
    }, {
      "album" : {
        "album_type" : "album",
        "artists" : [ {
          "external_urls" : {
            "spotify" : "https://open.spotify.com/artist/4bvoA0eiuvuBBRfUFJGqpC"
          },
          "href" : "https://api.spotify.com/v1/artists/4bvoA0eiuvuBBRfUFJGqpC",
          "id" : "4bvoA0eiuvuBBRfUFJGqpC",
          "name" : "Matthew Brown",
          "type" : "artist",
          "uri" : "spotify:artist:4bvoA0eiuvuBBRfUFJGqpC"
        } ],
        "external_urls" : {
          "spotify" : "https://open.spotify.com/album/17eClCeTzTFM32T1xJ99eq"
        },
        "href" : "https://api.spotify.com/v1/albums/17eClCeTzTFM32T1xJ99eq",
        "id" : "17eClCeTzTFM32T1xJ99eq",
        "images" : [ {
          "height" : 640,
          "url" : "https://i.scdn.co/image/ab67616d0000b2730857b28183cdcd4ed009f311",
          "width" : 640
        }, {
          "height" : 300,
          "url" : "https://i.scdn.co/image/ab67616d00001e020857b28183cdcd4ed009f311",
          "width" : 300
        }, {
          "height" : 64,
          "url" : "https://i.scdn.co/image/ab67616d000048510857b28183cdcd4ed009f311",
          "width" : 64
        } ],
        "name" : "Sanctus, Sanctus, Sanctus! Traditional Instrumental Catholic Hymns",
        "release_date" : "2016-01-29",
        "release_date_precision" : "day",
        "total_tracks" : 15,
        "type" : "album",
        "uri" : "spotify:album:17eClCeTzTFM32T1xJ99eq"
      },
      "artists" : [ {
        "external_urls" : {
          "spotify" : "https://open.spotify.com/artist/4bvoA0eiuvuBBRfUFJGqpC"
        },
        "href" : "https://api.spotify.com/v1/artists/4bvoA0eiuvuBBRfUFJGqpC",
        "id" : "4bvoA0eiuvuBBRfUFJGqpC",
        "name" : "Matthew Brown",
        "type" : "artist",
        "uri" : "spotify:artist:4bvoA0eiuvuBBRfUFJGqpC"
      } ],
      "disc_number" : 1,
      "duration_ms" : 92113,
      "explicit" : false,
      "external_ids" : {
        "isrc" : "USA2P1603970"
      },
      "external_urls" : {
        "spotify" : "https://open.spotify.com/track/3V04NzYgY8ldqXqkePP4MB"
      },
      "href" : "https://api.spotify.com/v1/tracks/3V04NzYgY8ldqXqkePP4MB",
      "id" : "3V04NzYgY8ldqXqkePP4MB",
      "is_local" : false,
      "is_playable" : true,
      "name" : "Lift up Your Heads, Ye Mighty Gates (Christ Is Alive)",
      "popularity" : 8,
      "preview_url" : "https://p.scdn.co/mp3-preview/1fe9ee3540730d21b08e6a91424c97c6de42cf62?cid=774b29d4f13844c495f206cafdad9c86",
      "track_number" : 1,
      "type" : "track",
      "uri" : "spotify:track:3V04NzYgY8ldqXqkePP4MB"
    }, {
      "album" : {
        "album_type" : "album",
        "artists" : [ {
          "external_urls" : {
            "spotify" : "https://open.spotify.com/artist/1K6L6Hw4HibspToNP1FeBC"
          },
          "href" : "https://api.spotify.com/v1/artists/1K6L6Hw4HibspToNP1FeBC",
          "id" : "1K6L6Hw4HibspToNP1FeBC",
          "name" : "Emilie Autumn",
          "type" : "artist",
          "uri" : "spotify:artist:1K6L6Hw4HibspToNP1FeBC"
        } ],
        "external_urls" : {
          "spotify" : "https://open.spotify.com/album/5vkJkS0AzfybHf5KPwfVpH"
        },
        "href" : "https://api.spotify.com/v1/albums/5vkJkS0AzfybHf5KPwfVpH",
        "id" : "5vkJkS0AzfybHf5KPwfVpH",
        "images" : [ {
          "height" : 640,
          "url" : "https://i.scdn.co/image/ab67616d0000b27382d7afbd1adb786cbcf2b4b9",
          "width" : 640
        }, {
          "height" : 300,
          "url" : "https://i.scdn.co/image/ab67616d00001e0282d7afbd1adb786cbcf2b4b9",
          "width" : 300
        }, {
          "height" : 64,
          "url" : "https://i.scdn.co/image/ab67616d0000485182d7afbd1adb786cbcf2b4b9",
          "width" : 64
        } ],
        "name" : "Liar, Dead Is The New Alive (Double Feature EP)",
        "release_date" : "2007-07-24",
        "release_date_precision" : "day",
        "total_tracks" : 14,
        "type" : "album",
        "uri" : "spotify:album:5vkJkS0AzfybHf5KPwfVpH"
      },
      "artists" : [ {
        "external_urls" : {
          "spotify" : "https://open.spotify.com/artist/1K6L6Hw4HibspToNP1FeBC"
        },
        "href" : "https://api.spotify.com/v1/artists/1K6L6Hw4HibspToNP1FeBC",
        "id" : "1K6L6Hw4HibspToNP1FeBC",
        "name" : "Emilie Autumn",
        "type" : "artist",
        "uri" : "spotify:artist:1K6L6Hw4HibspToNP1FeBC"
      } ],
      "disc_number" : 1,
      "duration_ms" : 308680,
      "explicit" : false,
      "external_ids" : {
        "isrc" : "ushm80762306"
      },
      "external_urls" : {
        "spotify" : "https://open.spotify.com/track/2kmibyWHTk87AT7gBn2fWM"
      },
      "href" : "https://api.spotify.com/v1/tracks/2kmibyWHTk87AT7gBn2fWM",
      "id" : "2kmibyWHTk87AT7gBn2fWM",
      "is_local" : false,
      "is_playable" : true,
      "name" : "Dead Is The New Alive - Velvet Acid Christ Club Mix",
      "popularity" : 10,
      "preview_url" : "https://p.scdn.co/mp3-preview/01cc29a6e5219907b21ddb22327c3a35d805d304?cid=774b29d4f13844c495f206cafdad9c86",
      "track_number" : 11,
      "type" : "track",
      "uri" : "spotify:track:2kmibyWHTk87AT7gBn2fWM"
    }, {
      "album" : {
        "album_type" : "album",
        "artists" : [ {
          "external_urls" : {
            "spotify" : "https://open.spotify.com/artist/4CTdPW9J5Rf56CvkAYAD96"
          },
          "href" : "https://api.spotify.com/v1/artists/4CTdPW9J5Rf56CvkAYAD96",
          "id" : "4CTdPW9J5Rf56CvkAYAD96",
          "name" : "Christian Daniel X",
          "type" : "artist",
          "uri" : "spotify:artist:4CTdPW9J5Rf56CvkAYAD96"
        } ],
        "external_urls" : {
          "spotify" : "https://open.spotify.com/album/3u5xVXaCClpGHdqgbj6FV9"
        },
        "href" : "https://api.spotify.com/v1/albums/3u5xVXaCClpGHdqgbj6FV9",
        "id" : "3u5xVXaCClpGHdqgbj6FV9",
        "images" : [ {
          "height" : 640,
          "url" : "https://i.scdn.co/image/ab67616d0000b27304971a76f4ab13e55cc534a1",
          "width" : 640
        }, {
          "height" : 300,
          "url" : "https://i.scdn.co/image/ab67616d00001e0204971a76f4ab13e55cc534a1",
          "width" : 300
        }, {
          "height" : 64,
          "url" : "https://i.scdn.co/image/ab67616d0000485104971a76f4ab13e55cc534a1",
          "width" : 64
        } ],
        "name" : "I Am Alive, Vol. 2",
        "release_date" : "2019-06-16",
        "release_date_precision" : "day",
        "total_tracks" : 50,
        "type" : "album",
        "uri" : "spotify:album:3u5xVXaCClpGHdqgbj6FV9"
      },
      "artists" : [ {
        "external_urls" : {
          "spotify" : "https://open.spotify.com/artist/4CTdPW9J5Rf56CvkAYAD96"
        },
        "href" : "https://api.spotify.com/v1/artists/4CTdPW9J5Rf56CvkAYAD96",
        "id" : "4CTdPW9J5Rf56CvkAYAD96",
        "name" : "Christian Daniel X",
        "type" : "artist",
        "uri" : "spotify:artist:4CTdPW9J5Rf56CvkAYAD96"
      } ],
      "disc_number" : 1,
      "duration_ms" : 132050,
      "explicit" : false,
      "external_ids" : {
        "isrc" : "ushm81959322"
      },
      "external_urls" : {
        "spotify" : "https://open.spotify.com/track/57FOVawJ4nMhMaQm51evSU"
      },
      "href" : "https://api.spotify.com/v1/tracks/57FOVawJ4nMhMaQm51evSU",
      "id" : "57FOVawJ4nMhMaQm51evSU",
      "is_local" : false,
      "is_playable" : true,
      "name" : "Sky Is Falling",
      "popularity" : 7,
      "preview_url" : "https://p.scdn.co/mp3-preview/b2f52955c372fb1dc4de60f3415bc9da725a6ac6?cid=774b29d4f13844c495f206cafdad9c86",
      "track_number" : 31,
      "type" : "track",
      "uri" : "spotify:track:57FOVawJ4nMhMaQm51evSU"
    }, {
      "album" : {
        "album_type" : "compilation",
        "artists" : [ {
          "external_urls" : {
            "spotify" : "https://open.spotify.com/artist/0LyfQWJT6nXafLPZqxe9Of"
          },
          "href" : "https://api.spotify.com/v1/artists/0LyfQWJT6nXafLPZqxe9Of",
          "id" : "0LyfQWJT6nXafLPZqxe9Of",
          "name" : "Various Artists",
          "type" : "artist",
          "uri" : "spotify:artist:0LyfQWJT6nXafLPZqxe9Of"
        } ],
        "external_urls" : {
          "spotify" : "https://open.spotify.com/album/1AtAkm38qCLvcJXbZV4ljW"
        },
        "href" : "https://api.spotify.com/v1/albums/1AtAkm38qCLvcJXbZV4ljW",
        "id" : "1AtAkm38qCLvcJXbZV4ljW",
        "images" : [ {
          "height" : 640,
          "url" : "https://i.scdn.co/image/ab67616d0000b2730b76b79e1f01cb41b1804916",
          "width" : 640
        }, {
          "height" : 300,
          "url" : "https://i.scdn.co/image/ab67616d00001e020b76b79e1f01cb41b1804916",
          "width" : 300
        }, {
          "height" : 64,
          "url" : "https://i.scdn.co/image/ab67616d000048510b76b79e1f01cb41b1804916",
          "width" : 64
        } ],
        "name" : "Christ Is Risen",
        "release_date" : "2013-02-01",
        "release_date_precision" : "day",
        "total_tracks" : 10,
        "type" : "album",
        "uri" : "spotify:album:1AtAkm38qCLvcJXbZV4ljW"
      },
      "artists" : [ {
        "external_urls" : {
          "spotify" : "https://open.spotify.com/artist/67xUi7je7BPGgGdem8oycN"
        },
        "href" : "https://api.spotify.com/v1/artists/67xUi7je7BPGgGdem8oycN",
        "id" : "67xUi7je7BPGgGdem8oycN",
        "name" : "Andy Cherry",
        "type" : "artist",
        "uri" : "spotify:artist:67xUi7je7BPGgGdem8oycN"
      } ],
      "disc_number" : 1,
      "duration_ms" : 209693,
      "explicit" : false,
      "external_ids" : {
        "isrc" : "USA5W1100475"
      },
      "external_urls" : {
        "spotify" : "https://open.spotify.com/track/4KP1us5z5QtUIcoHTT3y36"
      },
      "href" : "https://api.spotify.com/v1/tracks/4KP1us5z5QtUIcoHTT3y36",
      "id" : "4KP1us5z5QtUIcoHTT3y36",
      "is_local" : false,
      "is_playable" : true,
      "name" : "Our God's Alive",
      "popularity" : 8,
      "preview_url" : "https://p.scdn.co/mp3-preview/acfdae34ccb305ad04ca52b00e51e28f8a1b9257?cid=774b29d4f13844c495f206cafdad9c86",
      "track_number" : 5,
      "type" : "track",
      "uri" : "spotify:track:4KP1us5z5QtUIcoHTT3y36"
    }, {
      "album" : {
        "album_type" : "single",
        "artists" : [ {
          "external_urls" : {
            "spotify" : "https://open.spotify.com/artist/5qwnJ6wu8cxVVIhBiaZzi9"
          },
          "href" : "https://api.spotify.com/v1/artists/5qwnJ6wu8cxVVIhBiaZzi9",
          "id" : "5qwnJ6wu8cxVVIhBiaZzi9",
          "name" : "Christian Rafael",
          "type" : "artist",
          "uri" : "spotify:artist:5qwnJ6wu8cxVVIhBiaZzi9"
        } ],
        "external_urls" : {
          "spotify" : "https://open.spotify.com/album/64yi3MrNVCLhw88b8jPFPE"
        },
        "href" : "https://api.spotify.com/v1/albums/64yi3MrNVCLhw88b8jPFPE",
        "id" : "64yi3MrNVCLhw88b8jPFPE",
        "images" : [ {
          "height" : 640,
          "url" : "https://i.scdn.co/image/ab67616d0000b273a349489c571f6cb308c74dbc",
          "width" : 640
        }, {
          "height" : 300,
          "url" : "https://i.scdn.co/image/ab67616d00001e02a349489c571f6cb308c74dbc",
          "width" : 300
        }, {
          "height" : 64,
          "url" : "https://i.scdn.co/image/ab67616d00004851a349489c571f6cb308c74dbc",
          "width" : 64
        } ],
        "name" : "Everything Is Alive",
        "release_date" : "2013-06-03",
        "release_date_precision" : "day",
        "total_tracks" : 4,
        "type" : "album",
        "uri" : "spotify:album:64yi3MrNVCLhw88b8jPFPE"
      },
      "artists" : [ {
        "external_urls" : {
          "spotify" : "https://open.spotify.com/artist/5qwnJ6wu8cxVVIhBiaZzi9"
        },
        "href" : "https://api.spotify.com/v1/artists/5qwnJ6wu8cxVVIhBiaZzi9",
        "id" : "5qwnJ6wu8cxVVIhBiaZzi9",
        "name" : "Christian Rafael",
        "type" : "artist",
        "uri" : "spotify:artist:5qwnJ6wu8cxVVIhBiaZzi9"
      } ],
      "disc_number" : 1,
      "duration_ms" : 230063,
      "explicit" : false,
      "external_ids" : {
        "isrc" : "GBSMU1467077"
      },
      "external_urls" : {
        "spotify" : "https://open.spotify.com/track/5MjrADQwpOTdmSCaCJGEDK"
      },
      "href" : "https://api.spotify.com/v1/tracks/5MjrADQwpOTdmSCaCJGEDK",
      "id" : "5MjrADQwpOTdmSCaCJGEDK",
      "is_local" : false,
      "is_playable" : true,
      "name" : "Letting Go",
      "popularity" : 5,
      "preview_url" : "https://p.scdn.co/mp3-preview/321f9bdc6138cc43bed90b25b150a29cf4aaa70f?cid=774b29d4f13844c495f206cafdad9c86",
      "track_number" : 3,
      "type" : "track",
      "uri" : "spotify:track:5MjrADQwpOTdmSCaCJGEDK"
    }, {
      "album" : {
        "album_type" : "single",
        "artists" : [ {
          "external_urls" : {
            "spotify" : "https://open.spotify.com/artist/5qwnJ6wu8cxVVIhBiaZzi9"
          },
          "href" : "https://api.spotify.com/v1/artists/5qwnJ6wu8cxVVIhBiaZzi9",
          "id" : "5qwnJ6wu8cxVVIhBiaZzi9",
          "name" : "Christian Rafael",
          "type" : "artist",
          "uri" : "spotify:artist:5qwnJ6wu8cxVVIhBiaZzi9"
        } ],
        "external_urls" : {
          "spotify" : "https://open.spotify.com/album/64yi3MrNVCLhw88b8jPFPE"
        },
        "href" : "https://api.spotify.com/v1/albums/64yi3MrNVCLhw88b8jPFPE",
        "id" : "64yi3MrNVCLhw88b8jPFPE",
        "images" : [ {
          "height" : 640,
          "url" : "https://i.scdn.co/image/ab67616d0000b273a349489c571f6cb308c74dbc",
          "width" : 640
        }, {
          "height" : 300,
          "url" : "https://i.scdn.co/image/ab67616d00001e02a349489c571f6cb308c74dbc",
          "width" : 300
        }, {
          "height" : 64,
          "url" : "https://i.scdn.co/image/ab67616d00004851a349489c571f6cb308c74dbc",
          "width" : 64
        } ],
        "name" : "Everything Is Alive",
        "release_date" : "2013-06-03",
        "release_date_precision" : "day",
        "total_tracks" : 4,
        "type" : "album",
        "uri" : "spotify:album:64yi3MrNVCLhw88b8jPFPE"
      },
      "artists" : [ {
        "external_urls" : {
          "spotify" : "https://open.spotify.com/artist/5qwnJ6wu8cxVVIhBiaZzi9"
        },
        "href" : "https://api.spotify.com/v1/artists/5qwnJ6wu8cxVVIhBiaZzi9",
        "id" : "5qwnJ6wu8cxVVIhBiaZzi9",
        "name" : "Christian Rafael",
        "type" : "artist",
        "uri" : "spotify:artist:5qwnJ6wu8cxVVIhBiaZzi9"
      } ],
      "disc_number" : 1,
      "duration_ms" : 156251,
      "explicit" : true,
      "external_ids" : {
        "isrc" : "GBSMU1467075"
      },
      "external_urls" : {
        "spotify" : "https://open.spotify.com/track/3qhNyIPMkVMO2BnVGPoNdm"
      },
      "href" : "https://api.spotify.com/v1/tracks/3qhNyIPMkVMO2BnVGPoNdm",
      "id" : "3qhNyIPMkVMO2BnVGPoNdm",
      "is_local" : false,
      "is_playable" : true,
      "name" : "Sometimes",
      "popularity" : 5,
      "preview_url" : "https://p.scdn.co/mp3-preview/6b272edd3626647060cde5cd7bf5c61a0f12b124?cid=774b29d4f13844c495f206cafdad9c86",
      "track_number" : 1,
      "type" : "track",
      "uri" : "spotify:track:3qhNyIPMkVMO2BnVGPoNdm"
    }, {
      "album" : {
        "album_type" : "single",
        "artists" : [ {
          "external_urls" : {
            "spotify" : "https://open.spotify.com/artist/5qwnJ6wu8cxVVIhBiaZzi9"
          },
          "href" : "https://api.spotify.com/v1/artists/5qwnJ6wu8cxVVIhBiaZzi9",
          "id" : "5qwnJ6wu8cxVVIhBiaZzi9",
          "name" : "Christian Rafael",
          "type" : "artist",
          "uri" : "spotify:artist:5qwnJ6wu8cxVVIhBiaZzi9"
        } ],
        "external_urls" : {
          "spotify" : "https://open.spotify.com/album/64yi3MrNVCLhw88b8jPFPE"
        },
        "href" : "https://api.spotify.com/v1/albums/64yi3MrNVCLhw88b8jPFPE",
        "id" : "64yi3MrNVCLhw88b8jPFPE",
        "images" : [ {
          "height" : 640,
          "url" : "https://i.scdn.co/image/ab67616d0000b273a349489c571f6cb308c74dbc",
          "width" : 640
        }, {
          "height" : 300,
          "url" : "https://i.scdn.co/image/ab67616d00001e02a349489c571f6cb308c74dbc",
          "width" : 300
        }, {
          "height" : 64,
          "url" : "https://i.scdn.co/image/ab67616d00004851a349489c571f6cb308c74dbc",
          "width" : 64
        } ],
        "name" : "Everything Is Alive",
        "release_date" : "2013-06-03",
        "release_date_precision" : "day",
        "total_tracks" : 4,
        "type" : "album",
        "uri" : "spotify:album:64yi3MrNVCLhw88b8jPFPE"
      },
      "artists" : [ {
        "external_urls" : {
          "spotify" : "https://open.spotify.com/artist/5qwnJ6wu8cxVVIhBiaZzi9"
        },
        "href" : "https://api.spotify.com/v1/artists/5qwnJ6wu8cxVVIhBiaZzi9",
        "id" : "5qwnJ6wu8cxVVIhBiaZzi9",
        "name" : "Christian Rafael",
        "type" : "artist",
        "uri" : "spotify:artist:5qwnJ6wu8cxVVIhBiaZzi9"
      } ],
      "disc_number" : 1,
      "duration_ms" : 180650,
      "explicit" : false,
      "external_ids" : {
        "isrc" : "GBSMU1467078"
      },
      "external_urls" : {
        "spotify" : "https://open.spotify.com/track/7Lt7QoEQTATmLxxvR5X18K"
      },
      "href" : "https://api.spotify.com/v1/tracks/7Lt7QoEQTATmLxxvR5X18K",
      "id" : "7Lt7QoEQTATmLxxvR5X18K",
      "is_local" : false,
      "is_playable" : true,
      "name" : "Muriendo",
      "popularity" : 5,
      "preview_url" : "https://p.scdn.co/mp3-preview/019556ffa545eac944821786a47f42631dd0c76b?cid=774b29d4f13844c495f206cafdad9c86",
      "track_number" : 4,
      "type" : "track",
      "uri" : "spotify:track:7Lt7QoEQTATmLxxvR5X18K"
    } ],
    "limit" : 10,
    "next" : "https://api.spotify.com/v1/search?query=Christ+Is+Alive&type=track&market=US&offset=15&limit=10",
    "offset" : 5,
    "previous" : "https://api.spotify.com/v1/search?query=Christ+Is+Alive&type=track&market=US&offset=0&limit=10",
    "total" : 145
  }
}