{
  "tracks" : {
    "href" : "https://api.spotify.com/v1/search?query=God+Be+Merciful+to+Me&type=track&market=US&offset=5&limit=10",
    "items" : [ {
      "album" : {
        "album_type" : "album",
        "artists" : [ {
          "external_urls" : {
            "spotify" : "https://open.spotify.com/artist/1X0LWRcdNgYOWiGEd6ahuG"
          },
          "href" : "https://api.spotify.com/v1/artists/1X0LWRcdNgYOWiGEd6ahuG",
          "id" : "1X0LWRcdNgYOWiGEd6ahuG",
          "name" : "St. Andrews Hymns",
          "type" : "artist",
          "uri" : "spotify:artist:1X0LWRcdNgYOWiGEd6ahuG"
        } ],
        "external_urls" : {
          "spotify" : "https://open.spotify.com/album/69TE9WJ8sRwWmU1ghaAODs"
        },
        "href" : "https://api.spotify.com/v1/albums/69TE9WJ8sRwWmU1ghaAODs",
        "id" : "69TE9WJ8sRwWmU1ghaAODs",
        "images" : [ {
          "height" : 640,
          "url" : "https://i.scdn.co/image/ab67616d0000b27380a416fd5e968630b04d4f85",
          "width" : 640
        }, {
          "height" : 300,
          "url" : "https://i.scdn.co/image/ab67616d00001e0280a416fd5e968630b04d4f85",
          "width" : 300
        }, {
          "height" : 64,
          "url" : "https://i.scdn.co/image/ab67616d0000485180a416fd5e968630b04d4f85",
          "width" : 64
        } ],
        "name" : "Sweet Comforter",
        "release_date" : "2016-07-01",
        "release_date_precision" : "day",
        "total_tracks" : 12,
        "type" : "album",
        "uri" : "spotify:album:69TE9WJ8sRwWmU1ghaAODs"
      },
      "artists" : [ {
        "external_urls" : {
          "spotify" : "https://open.spotify.com/artist/1X0LWRcdNgYOWiGEd6ahuG"
        },
        "href" : "https://api.spotify.com/v1/artists/1X0LWRcdNgYOWiGEd6ahuG",
        "id" : "1X0LWRcdNgYOWiGEd6ahuG",
        "name" : "St. Andrews Hymns",
        "type" : "artist",
        "uri" : "spotify:artist:1X0LWRcdNgYOWiGEd6ahuG"
      } ],
      "disc_number" : 1,
      "duration_ms" : 266960,
      "explicit" : false,
      "external_ids" : {
        "isrc" : "QM7WA1630009"
      },
      "external_urls" : {
        "spotify" : "https://open.spotify.com/track/59ALgWEJURuCh8SMukuDM2"
      },
      "href" : "https://api.spotify.com/v1/tracks/59ALgWEJURuCh8SMukuDM2",
      "id" : "59ALgWEJURuCh8SMukuDM2",
      "is_local" : false,
      "is_playable" : true,
      "name" : "God Be Merciful to Me",
      "popularity" : 2,
      "preview_url" : "https://p.scdn.co/mp3-preview/9ebecf9761c844bcf818cbad156062a8cf34d9e5?cid=774b29d4f13844c495f206cafdad9c86",
      "track_number" : 9,
      "type" : "track",
      "uri" : "spotify:track:59ALgWEJURuCh8SMukuDM2"
    }, {
      "album" : {
        "album_type" : "album",
        "artists" : [ {
          "external_urls" : {
            "spotify" : "https://open.spotify.com/artist/4R6Jhq9wfmkKUZe6Xl8mIT"
          },
          "href" : "https://api.spotify.com/v1/artists/4R6Jhq9wfmkKUZe6Xl8mIT",
          "id" : "4R6Jhq9wfmkKUZe6Xl8mIT",
          "name" : "Crown & Covenant",
          "type" : "artist",
          "uri" : "spotify:artist:4R6Jhq9wfmkKUZe6Xl8mIT"
        } ],
        "external_urls" : {
          "spotify" : "https://open.spotify.com/album/6QOLDAZjIIhSlhW98fkOnw"
        },
        "href" : "https://api.spotify.com/v1/albums/6QOLDAZjIIhSlhW98fkOnw",
        "id" : "6QOLDAZjIIhSlhW98fkOnw",
        "images" : [ {
          "height" : 640,
          "url" : "https://i.scdn.co/image/ab67616d0000b27347330daa1edee11c0b26e523",
          "width" : 640
        }, {
          "height" : 300,
          "url" : "https://i.scdn.co/image/ab67616d00001e0247330daa1edee11c0b26e523",
          "width" : 300
        }, {
          "height" : 64,
          "url" : "https://i.scdn.co/image/ab67616d0000485147330daa1edee11c0b26e523",
          "width" : 64
        } ],
        "name" : "Refuge: Selections from the Book of Psalms for Worship",
        "release_date" : "2011-07-15",
        "release_date_precision" : "day",
        "total_tracks" : 17,
        "type" : "album",
        "uri" : "spotify:album:6QOLDAZjIIhSlhW98fkOnw"
      },
      "artists" : [ {
        "external_urls" : {
          "spotify" : "https://open.spotify.com/artist/4R6Jhq9wfmkKUZe6Xl8mIT"
        },
        "href" : "https://api.spotify.com/v1/artists/4R6Jhq9wfmkKUZe6Xl8mIT",
        "id" : "4R6Jhq9wfmkKUZe6Xl8mIT",
        "name" : "Crown & Covenant",
        "type" : "artist",
        "uri" : "spotify:artist:4R6Jhq9wfmkKUZe6Xl8mIT"
      } ],
      "disc_number" : 1,
      "duration_ms" : 183586,
      "explicit" : false,
      "external_ids" : {
        "isrc" : "ushm91938236"
      },
      "external_urls" : {
        "spotify" : "https://open.spotify.com/track/3GzHaqOvnN2MpfZJzJUT6x"
      },
      "href" : "https://api.spotify.com/v1/tracks/3GzHaqOvnN2MpfZJzJUT6x",
      "id" : "3GzHaqOvnN2MpfZJzJUT6x",
      "is_local" : false,
      "is_playable" : true,
      "name" : "God, Be Merciful to Me (Psalm 51C)",
      "popularity" : 2,
      "preview_url" : "https://p.scdn.co/mp3-preview/d2db35ec328376427c2f31f8e58d7353c792d203?cid=774b29d4f13844c495f206cafdad9c86",
      "track_number" : 7,
      "type" : "track",
      "uri" : "spotify:track:3GzHaqOvnN2MpfZJzJUT6x"
    }, {
      "album" : {
        "album_type" : "album",
        "artists" : [ {
          "external_urls" : {
            "spotify" : "https://open.spotify.com/artist/4R6Jhq9wfmkKUZe6Xl8mIT"
          },
          "href" : "https://api.spotify.com/v1/artists/4R6Jhq9wfmkKUZe6Xl8mIT",
          "id" : "4R6Jhq9wfmkKUZe6Xl8mIT",
          "name" : "Crown & Covenant",
          "type" : "artist",
          "uri" : "spotify:artist:4R6Jhq9wfmkKUZe6Xl8mIT"
        } ],
        "external_urls" : {
          "spotify" : "https://open.spotify.com/album/2JZIFNrCTphCgMmUVLvMWA"
        },
        "href" : "https://api.spotify.com/v1/albums/2JZIFNrCTphCgMmUVLvMWA",
        "id" : "2JZIFNrCTphCgMmUVLvMWA",
        "images" : [ {
          "height" : 640,
          "url" : "https://i.scdn.co/image/ab67616d0000b2735ef8ea25179919c611a24bd5",
          "width" : 640
        }, {
          "height" : 300,
          "url" : "https://i.scdn.co/image/ab67616d00001e025ef8ea25179919c611a24bd5",
          "width" : 300
        }, {
          "height" : 64,
          "url" : "https://i.scdn.co/image/ab67616d000048515ef8ea25179919c611a24bd5",
          "width" : 64
        } ],
        "name" : "Defender: Selections from the Book of Psalms for Worship",
        "release_date" : "2015-07-31",
        "release_date_precision" : "day",
        "total_tracks" : 20,
        "type" : "album",
        "uri" : "spotify:album:2JZIFNrCTphCgMmUVLvMWA"
      },
      "artists" : [ {
        "external_urls" : {
          "spotify" : "https://open.spotify.com/artist/4R6Jhq9wfmkKUZe6Xl8mIT"
        },
        "href" : "https://api.spotify.com/v1/artists/4R6Jhq9wfmkKUZe6Xl8mIT",
        "id" : "4R6Jhq9wfmkKUZe6Xl8mIT",
        "name" : "Crown & Covenant",
        "type" : "artist",
        "uri" : "spotify:artist:4R6Jhq9wfmkKUZe6Xl8mIT"
      } ],
      "disc_number" : 1,
      "duration_ms" : 106066,
      "explicit" : false,
      "external_ids" : {
        "isrc" : "ushm91912860"
      },
      "external_urls" : {
        "spotify" : "https://open.spotify.com/track/7vl8SQcOucSkOzGqAO9tbA"
      },
      "href" : "https://api.spotify.com/v1/tracks/7vl8SQcOucSkOzGqAO9tbA",
      "id" : "7vl8SQcOucSkOzGqAO9tbA",
      "is_local" : false,
      "is_playable" : true,
      "name" : "Be Merciful to Me, O God (Psalm 57a)",
      "popularity" : 3,
      "preview_url" : "https://p.scdn.co/mp3-preview/39af53d750dda129edadc56253ce825998d13f15?cid=774b29d4f13844c495f206cafdad9c86",
      "track_number" : 12,
      "type" : "track",
      "uri" : "spotify:track:7vl8SQcOucSkOzGqAO9tbA"
    }, {
      "album" : {
        "album_type" : "album",
        "artists" : [ {
          "external_urls" : {
            "spotify" : "https://open.spotify.com/artist/2pcUwEm7cNpS0whwbE3k80"
          },
          "href" : "https://api.spotify.com/v1/artists/2pcUwEm7cNpS0whwbE3k80",
          "id" : "2pcUwEm7cNpS0whwbE3k80",
          "name" : "David R. Erb",
          "type" : "artist",
          "uri" : "spotify:artist:2pcUwEm7cNpS0whwbE3k80"
        } ],
        "external_urls" : {
          "spotify" : "https://open.spotify.com/album/4xjAMwucdzFNTR4oZ1Peat"
        },
        "href" : "https://api.spotify.com/v1/albums/4xjAMwucdzFNTR4oZ1Peat",
        "id" : "4xjAMwucdzFNTR4oZ1Peat",
        "images" : [ {
          "height" : 640,
          "url" : "https://i.scdn.co/image/ab67616d0000b2732c149140d41b20c8f345bfe4",
          "width" : 640
        }, {
          "height" : 300,
          "url" : "https://i.scdn.co/image/ab67616d00001e022c149140d41b20c8f345bfe4",
          "width" : 300
        }, {
          "height" : 64,
          "url" : "https://i.scdn.co/image/ab67616d000048512c149140d41b20c8f345bfe4",
          "width" : 64
        } ],
        "name" : "Cantica Sanctorum: A Collection of Psalms, Hymns & Spiritual Songs",
        "release_date" : "2019-03-09",
        "release_date_precision" : "day",
        "total_tracks" : 50,
        "type" : "album",
        "uri" : "spotify:album:4xjAMwucdzFNTR4oZ1Peat"
      },
      "artists" : [ {
        "external_urls" : {
          "spotify" : "https://open.spotify.com/artist/2pcUwEm7cNpS0whwbE3k80"
        },
        "href" : "https://api.spotify.com/v1/artists/2pcUwEm7cNpS0whwbE3k80",
        "id" : "2pcUwEm7cNpS0whwbE3k80",
        "name" : "David R. Erb",
        "type" : "artist",
        "uri" : "spotify:artist:2pcUwEm7cNpS0whwbE3k80"
      } ],
      "disc_number" : 1,
      "duration_ms" : 102691,
      "explicit" : false,
      "external_ids" : {
        "isrc" : "usdy41921619"
      },
      "external_urls" : {
        "spotify" : "https://open.spotify.com/track/4zJb74J5X0EPtF4OZiNSkc"
      },
      "href" : "https://api.spotify.com/v1/tracks/4zJb74J5X0EPtF4OZiNSkc",
      "id" : "4zJb74J5X0EPtF4OZiNSkc",
      "is_local" : false,
      "is_playable" : true,
      "name" : "Psalm 67: God Be Merciful to Us and Bless Us",
      "popularity" : 2,
      "preview_url" : "https://p.scdn.co/mp3-preview/951b9714d5addbe3a4f8915b93aff164f6048cdb?cid=774b29d4f13844c495f206cafdad9c86",
      "track_number" : 21,
      "type" : "track",
      "uri" : "spotify:track:4zJb74J5X0EPtF4OZiNSkc"
    }, {
      "album" : {
        "album_type" : "album",
        "artists" : [ {
          "external_urls" : {
            "spotify" : "https://open.spotify.com/artist/4Bt4wqDdSVRbPpplwQraJd"
          },
          "href" : "https://api.spotify.com/v1/artists/4Bt4wqDdSVRbPpplwQraJd",
          "id" : "4Bt4wqDdSVRbPpplwQraJd",
          "name" : "Thompson Singer",
          "type" : "artist",
          "uri" : "spotify:artist:4Bt4wqDdSVRbPpplwQraJd"
        } ],
        "external_urls" : {
          "spotify" : "https://open.spotify.com/album/5PsMfpvrEntH3lDcLUg8oR"
        },
        "href" : "https://api.spotify.com/v1/albums/5PsMfpvrEntH3lDcLUg8oR",
        "id" : "5PsMfpvrEntH3lDcLUg8oR",
        "images" : [ {
          "height" : 640,
          "url" : "https://i.scdn.co/image/ab67616d0000b27358bde275591fa3c9f09bb804",
          "width" : 640
        }, {
          "height" : 300,
          "url" : "https://i.scdn.co/image/ab67616d00001e0258bde275591fa3c9f09bb804",
          "width" : 300
        }, {
          "height" : 64,
          "url" : "https://i.scdn.co/image/ab67616d0000485158bde275591fa3c9f09bb804",
          "width" : 64
        } ],
        "name" : "Verity Music Project",
        "release_date" : "2017-06-15",
        "release_date_precision" : "day",
        "total_tracks" : 15,
        "type" : "album",
        "uri" : "spotify:album:5PsMfpvrEntH3lDcLUg8oR"
      },
      "artists" : [ {
        "external_urls" : {
          "spotify" : "https://open.spotify.com/artist/4Bt4wqDdSVRbPpplwQraJd"
        },
        "href" : "https://api.spotify.com/v1/artists/4Bt4wqDdSVRbPpplwQraJd",
        "id" : "4Bt4wqDdSVRbPpplwQraJd",
        "name" : "Thompson Singer",
        "type" : "artist",
        "uri" : "spotify:artist:4Bt4wqDdSVRbPpplwQraJd"
      } ],
      "disc_number" : 1,
      "duration_ms" : 217160,
      "explicit" : false,
      "external_ids" : {
        "isrc" : "ushm81758298"
      },
      "external_urls" : {
        "spotify" : "https://open.spotify.com/track/1wGOuKLzYnmlUCkWNTuClh"
      },
      "href" : "https://api.spotify.com/v1/tracks/1wGOuKLzYnmlUCkWNTuClh",
      "id" : "1wGOuKLzYnmlUCkWNTuClh",
      "is_local" : false,
      "is_playable" : true,
      "name" : "God's Been Merciful to Me",
      "popularity" : 0,
      "preview_url" : "https://p.scdn.co/mp3-preview/2b4353dc77f1ed562706c67ae9a58357f78a7c6a?cid=774b29d4f13844c495f206cafdad9c86",
      "track_number" : 9,
      "type" : "track",
      "uri" : "spotify:track:1wGOuKLzYnmlUCkWNTuClh"
    }, {
      "album" : {
        "album_type" : "compilation",
        "artists" : [ {
          "external_urls" : {
            "spotify" : "https://open.spotify.com/artist/0LyfQWJT6nXafLPZqxe9Of"
          },
          "href" : "https://api.spotify.com/v1/artists/0LyfQWJT6nXafLPZqxe9Of",
          "id" : "0LyfQWJT6nXafLPZqxe9Of",
          "name" : "Various Artists",
          "type" : "artist",
          "uri" : "spotify:artist:0LyfQWJT6nXafLPZqxe9Of"
        } ],
        "external_urls" : {
          "spotify" : "https://open.spotify.com/album/0aVLx4P3i2l7E6U6FH8rd0"
        },
        "href" : "https://api.spotify.com/v1/albums/0aVLx4P3i2l7E6U6FH8rd0",
        "id" : "0aVLx4P3i2l7E6U6FH8rd0",
        "images" : [ {
          "height" : 640,
          "url" : "https://i.scdn.co/image/ab67616d0000b273fbbb98d9933b26f00263262c",
          "width" : 640
        }, {
          "height" : 300,
          "url" : "https://i.scdn.co/image/ab67616d00001e02fbbb98d9933b26f00263262c",
          "width" : 300
        }, {
          "height" : 64,
          "url" : "https://i.scdn.co/image/ab67616d00004851fbbb98d9933b26f00263262c",
          "width" : 64
        } ],
        "name" : "100 Favorite Hymns",
        "release_date" : "2012-06-01",
        "release_date_precision" : "day",
        "total_tracks" : 100,
        "type" : "album",
        "uri" : "spotify:album:0aVLx4P3i2l7E6U6FH8rd0"
      },
      "artists" : [ {
        "external_urls" : {
          "spotify" : "https://open.spotify.com/artist/4baAtY5PSKehkiN9ISON8l"
        },
        "href" : "https://api.spotify.com/v1/artists/4baAtY5PSKehkiN9ISON8l",
        "id" : "4baAtY5PSKehkiN9ISON8l",
        "name" : "The London Fox Singers",
        "type" : "artist",
        "uri" : "spotify:artist:4baAtY5PSKehkiN9ISON8l"
      }, {
        "external_urls" : {
          "spotify" : "https://open.spotify.com/artist/3kKSlgb9Xa9lD4ZljuR46y"
        },
        "href" : "https://api.spotify.com/v1/artists/3kKSlgb9Xa9lD4ZljuR46y",
        "id" : "3kKSlgb9Xa9lD4ZljuR46y",
        "name" : "The London Sinfonia",
        "type" : "artist",
        "uri" : "spotify:artist:3kKSlgb9Xa9lD4ZljuR46y"
      } ],
      "disc_number" : 1,
      "duration_ms" : 122080,
      "explicit" : false,
      "external_ids" : {
        "isrc" : "GBCEU0781990"
      },
      "external_urls" : {
        "spotify" : "https://open.spotify.com/track/5z4HmjKov071Y4SBfYW0d8"
      },
      "href" : "https://api.spotify.com/v1/tracks/5z4HmjKov071Y4SBfYW0d8",
      "id" : "5z4HmjKov071Y4SBfYW0d8",
      "is_local" : false,
      "is_playable" : true,
      "name" : "God Be Merciful to Me",
      "popularity" : 1,
      "preview_url" : "https://p.scdn.co/mp3-preview/8a80d6c03ada0ff4e0176d66359d36e2c04b2194?cid=774b29d4f13844c495f206cafdad9c86",
      "track_number" : 90,
      "type" : "track",
      "uri" : "spotify:track:5z4HmjKov071Y4SBfYW0d8"
    }, {
      "album" : {
        "album_type" : "album",
        "artists" : [ {
          "external_urls" : {
            "spotify" : "https://open.spotify.com/artist/1TIePT7isYTIF2rs4bIRZF"
          },
          "href" : "https://api.spotify.com/v1/artists/1TIePT7isYTIF2rs4bIRZF",
          "id" : "1TIePT7isYTIF2rs4bIRZF",
          "name" : "London Fox Singers",
          "type" : "artist",
          "uri" : "spotify:artist:1TIePT7isYTIF2rs4bIRZF"
        } ],
        "external_urls" : {
          "spotify" : "https://open.spotify.com/album/7k80QY1qoYWf5iAQqPBB5O"
        },
        "href" : "https://api.spotify.com/v1/albums/7k80QY1qoYWf5iAQqPBB5O",
        "id" : "7k80QY1qoYWf5iAQqPBB5O",
        "images" : [ {
          "height" : 640,
          "url" : "https://i.scdn.co/image/ab67616d0000b2732fe2f5cb5b0945912dad1df3",
          "width" : 640
        }, {
          "height" : 300,
          "url" : "https://i.scdn.co/image/ab67616d00001e022fe2f5cb5b0945912dad1df3",
          "width" : 300
        }, {
          "height" : 64,
          "url" : "https://i.scdn.co/image/ab67616d000048512fe2f5cb5b0945912dad1df3",
          "width" : 64
        } ],
        "name" : "What a Friend We Have in Jesus - 50 Acappella Hymns",
        "release_date" : "2013-10-17",
        "release_date_precision" : "day",
        "total_tracks" : 50,
        "type" : "album",
        "uri" : "spotify:album:7k80QY1qoYWf5iAQqPBB5O"
      },
      "artists" : [ {
        "external_urls" : {
          "spotify" : "https://open.spotify.com/artist/1TIePT7isYTIF2rs4bIRZF"
        },
        "href" : "https://api.spotify.com/v1/artists/1TIePT7isYTIF2rs4bIRZF",
        "id" : "1TIePT7isYTIF2rs4bIRZF",
        "name" : "London Fox Singers",
        "type" : "artist",
        "uri" : "spotify:artist:1TIePT7isYTIF2rs4bIRZF"
      } ],
      "disc_number" : 3,
      "duration_ms" : 120986,
      "explicit" : false,
      "external_ids" : {
        "isrc" : "GBCEU1231640"
      },
      "external_urls" : {
        "spotify" : "https://open.spotify.com/track/0Iumin6v2wkKVy2gKRT0b4"
      },
      "href" : "https://api.spotify.com/v1/tracks/0Iumin6v2wkKVy2gKRT0b4",
      "id" : "0Iumin6v2wkKVy2gKRT0b4",
      "is_local" : false,
      "is_playable" : true,
      "name" : "God Be Merciful to Me",
      "popularity" : 2,
      "preview_url" : "https://p.scdn.co/mp3-preview/cafcac6953367add004f7805c1c194450e2981cf?cid=774b29d4f13844c495f206cafdad9c86",
      "track_number" : 7,
      "type" : "track",
      "uri" : "spotify:track:0Iumin6v2wkKVy2gKRT0b4"
    }, {
      "album" : {
        "album_type" : "album",
        "artists" : [ {
          "external_urls" : {
            "spotify" : "https://open.spotify.com/artist/4qz3fMg3UznQK7Q5OtTkco"
          },
          "href" : "https://api.spotify.com/v1/artists/4qz3fMg3UznQK7Q5OtTkco",
          "id" : "4qz3fMg3UznQK7Q5OtTkco",
          "name" : "Christ Church",
          "type" : "artist",
          "uri" : "spotify:artist:4qz3fMg3UznQK7Q5OtTkco"
        } ],
        "external_urls" : {
          "spotify" : "https://open.spotify.com/album/6ls0ON7wiOOpcSmjYA17TE"
        },
        "href" : "https://api.spotify.com/v1/albums/6ls0ON7wiOOpcSmjYA17TE",
        "id" : "6ls0ON7wiOOpcSmjYA17TE",
        "images" : [ {
          "height" : 640,
          "url" : "https://i.scdn.co/image/ab67616d0000b273f9c4b6bd5dd870e967734941",
          "width" : 640
        }, {
          "height" : 300,
          "url" : "https://i.scdn.co/image/ab67616d00001e02f9c4b6bd5dd870e967734941",
          "width" : 300
        }, {
          "height" : 64,
          "url" : "https://i.scdn.co/image/ab67616d00004851f9c4b6bd5dd870e967734941",
          "width" : 64
        } ],
        "name" : "Steadfast Make My Heart - A Christ Church Worship Album",
        "release_date" : "2009-01-01",
        "release_date_precision" : "day",
        "total_tracks" : 10,
        "type" : "album",
        "uri" : "spotify:album:6ls0ON7wiOOpcSmjYA17TE"
      },
      "artists" : [ {
        "external_urls" : {
          "spotify" : "https://open.spotify.com/artist/4qz3fMg3UznQK7Q5OtTkco"
        },
        "href" : "https://api.spotify.com/v1/artists/4qz3fMg3UznQK7Q5OtTkco",
        "id" : "4qz3fMg3UznQK7Q5OtTkco",
        "name" : "Christ Church",
        "type" : "artist",
        "uri" : "spotify:artist:4qz3fMg3UznQK7Q5OtTkco"
      } ],
      "disc_number" : 1,
      "duration_ms" : 209146,
      "explicit" : false,
      "external_ids" : {
        "isrc" : "ushm20963337"
      },
      "external_urls" : {
        "spotify" : "https://open.spotify.com/track/4MpTyiRTNRhmpULAIyMtWJ"
      },
      "href" : "https://api.spotify.com/v1/tracks/4MpTyiRTNRhmpULAIyMtWJ",
      "id" : "4MpTyiRTNRhmpULAIyMtWJ",
      "is_local" : false,
      "is_playable" : true,
      "name" : "God Be Merciful to Me",
      "popularity" : 0,
      "preview_url" : "https://p.scdn.co/mp3-preview/7d76568d9f6793056af7dd68bd4c0de1b576f7dd?cid=774b29d4f13844c495f206cafdad9c86",
      "track_number" : 9,
      "type" : "track",
      "uri" : "spotify:track:4MpTyiRTNRhmpULAIyMtWJ"
    }, {
      "album" : {
        "album_type" : "album",
        "artists" : [ {
          "external_urls" : {
            "spotify" : "https://open.spotify.com/artist/1R4p3qsIqOqSHSCjYKmDt2"
          },
          "href" : "https://api.spotify.com/v1/artists/1R4p3qsIqOqSHSCjYKmDt2",
          "id" : "1R4p3qsIqOqSHSCjYKmDt2",
          "name" : "Simon Bernard-Smith",
          "type" : "artist",
          "uri" : "spotify:artist:1R4p3qsIqOqSHSCjYKmDt2"
        } ],
        "external_urls" : {
          "spotify" : "https://open.spotify.com/album/5fyEx9NnqftL047C71Qi5O"
        },
        "href" : "https://api.spotify.com/v1/albums/5fyEx9NnqftL047C71Qi5O",
        "id" : "5fyEx9NnqftL047C71Qi5O",
        "images" : [ {
          "height" : 640,
          "url" : "https://i.scdn.co/image/ab67616d0000b27319e59b70279fd42dfd0890aa",
          "width" : 640
        }, {
          "height" : 300,
          "url" : "https://i.scdn.co/image/ab67616d00001e0219e59b70279fd42dfd0890aa",
          "width" : 300
        }, {
          "height" : 64,
          "url" : "https://i.scdn.co/image/ab67616d0000485119e59b70279fd42dfd0890aa",
          "width" : 64
        } ],
        "name" : "Breath of Worship",
        "release_date" : "2008-07-15",
        "release_date_precision" : "day",
        "total_tracks" : 29,
        "type" : "album",
        "uri" : "spotify:album:5fyEx9NnqftL047C71Qi5O"
      },
      "artists" : [ {
        "external_urls" : {
          "spotify" : "https://open.spotify.com/artist/1R4p3qsIqOqSHSCjYKmDt2"
        },
        "href" : "https://api.spotify.com/v1/artists/1R4p3qsIqOqSHSCjYKmDt2",
        "id" : "1R4p3qsIqOqSHSCjYKmDt2",
        "name" : "Simon Bernard-Smith",
        "type" : "artist",
        "uri" : "spotify:artist:1R4p3qsIqOqSHSCjYKmDt2"
      } ],
      "disc_number" : 2,
      "duration_ms" : 165906,
      "explicit" : false,
      "external_ids" : {
        "isrc" : "GBCEU0889817"
      },
      "external_urls" : {
        "spotify" : "https://open.spotify.com/track/0B4PNly2mWOvkipqc52e4C"
      },
      "href" : "https://api.spotify.com/v1/tracks/0B4PNly2mWOvkipqc52e4C",
      "id" : "0B4PNly2mWOvkipqc52e4C",
      "is_local" : false,
      "is_playable" : true,
      "name" : "God Be Merciful To Me",
      "popularity" : 1,
      "preview_url" : "https://p.scdn.co/mp3-preview/231ab077c9fd6848df45ed52874a0ebecea95e01?cid=774b29d4f13844c495f206cafdad9c86",
      "track_number" : 2,
      "type" : "track",
      "uri" : "spotify:track:0B4PNly2mWOvkipqc52e4C"
    }, {
      "album" : {
        "album_type" : "album",
        "artists" : [ {
          "external_urls" : {
            "spotify" : "https://open.spotify.com/artist/0sjwhU1NNcciyPXUnzzNu4"
          },
          "href" : "https://api.spotify.com/v1/artists/0sjwhU1NNcciyPXUnzzNu4",
          "id" : "0sjwhU1NNcciyPXUnzzNu4",
          "name" : "The Pilgrim Project",
          "type" : "artist",
          "uri" : "spotify:artist:0sjwhU1NNcciyPXUnzzNu4"
        } ],
        "external_urls" : {
          "spotify" : "https://open.spotify.com/album/14pEV0v8fAltJZBZGq99VS"
        },
        "href" : "https://api.spotify.com/v1/albums/14pEV0v8fAltJZBZGq99VS",
        "id" : "14pEV0v8fAltJZBZGq99VS",
        "images" : [ {
          "height" : 640,
          "url" : "https://i.scdn.co/image/ab67616d0000b27320472f017e618172e7acc55d",
          "width" : 640
        }, {
          "height" : 300,
          "url" : "https://i.scdn.co/image/ab67616d00001e0220472f017e618172e7acc55d",
          "width" : 300
        }, {
          "height" : 64,
          "url" : "https://i.scdn.co/image/ab67616d0000485120472f017e618172e7acc55d",
          "width" : 64
        } ],
        "name" : "Strength & Stay",
        "release_date" : "2018-10-10",
        "release_date_precision" : "day",
        "total_tracks" : 10,
        "type" : "album",
        "uri" : "spotify:album:14pEV0v8fAltJZBZGq99VS"
      },
      "artists" : [ {
        "external_urls" : {
          "spotify" : "https://open.spotify.com/artist/0sjwhU1NNcciyPXUnzzNu4"
        },
        "href" : "https://api.spotify.com/v1/artists/0sjwhU1NNcciyPXUnzzNu4",
        "id" : "0sjwhU1NNcciyPXUnzzNu4",
        "name" : "The Pilgrim Project",
        "type" : "artist",
        "uri" : "spotify:artist:0sjwhU1NNcciyPXUnzzNu4"
      } ],
      "disc_number" : 1,
      "duration_ms" : 171702,
      "explicit" : false,
      "external_ids" : {
        "isrc" : "ushm91847545"
      },
      "external_urls" : {
        "spotify" : "https://open.spotify.com/track/4WlDxLvMsAmby0y3uBm3Xg"
      },
      "href" : "https://api.spotify.com/v1/tracks/4WlDxLvMsAmby0y3uBm3Xg",
      "id" : "4WlDxLvMsAmby0y3uBm3Xg",
      "is_local" : false,
      "is_playable" : true,
      "name" : "God Be Merciful to Me",
      "popularity" : 0,
      "preview_url" : "https://p.scdn.co/mp3-preview/92d747ed0eef584e71d73c9cead702d955c5a7cb?cid=774b29d4f13844c495f206cafdad9c86",
      "track_number" : 8,
      "type" : "track",
      "uri" : "spotify:track:4WlDxLvMsAmby0y3uBm3Xg"
    } ],
    "limit" : 10,
    "next" : "https://api.spotify.com/v1/search?query=God+Be+Merciful+to+Me&type=track&market=US&offset=15&limit=10",
    "offset" : 5,
    "previous" : "https://api.spotify.com/v1/search?query=God+Be+Merciful+to+Me&type=track&market=US&offset=0&limit=10",
    "total" : 35
  }
}