{
  "tracks" : {
    "href" : "https://api.spotify.com/v1/search?query=When+He+Cometh&type=track&market=US&offset=5&limit=10",
    "items" : [ {
      "album" : {
        "album_type" : "album",
        "artists" : [ {
          "external_urls" : {
            "spotify" : "https://open.spotify.com/artist/11sAWrpIkFUPQlXoQqpeBV"
          },
          "href" : "https://api.spotify.com/v1/artists/11sAWrpIkFUPQlXoQqpeBV",
          "id" : "11sAWrpIkFUPQlXoQqpeBV",
          "name" : "Bill & Gloria Gaither",
          "type" : "artist",
          "uri" : "spotify:artist:11sAWrpIkFUPQlXoQqpeBV"
        } ],
        "external_urls" : {
          "spotify" : "https://open.spotify.com/album/5nsIfAk6ODZBXALnTPBZif"
        },
        "href" : "https://api.spotify.com/v1/albums/5nsIfAk6ODZBXALnTPBZif",
        "id" : "5nsIfAk6ODZBXALnTPBZif",
        "images" : [ {
          "height" : 640,
          "url" : "https://i.scdn.co/image/ab67616d0000b2738c274789bd8eb5b027b62046",
          "width" : 640
        }, {
          "height" : 300,
          "url" : "https://i.scdn.co/image/ab67616d00001e028c274789bd8eb5b027b62046",
          "width" : 300
        }, {
          "height" : 64,
          "url" : "https://i.scdn.co/image/ab67616d000048518c274789bd8eb5b027b62046",
          "width" : 64
        } ],
        "name" : "Homecoming Hymns",
        "release_date" : "2000-01-01",
        "release_date_precision" : "day",
        "total_tracks" : 18,
        "type" : "album",
        "uri" : "spotify:album:5nsIfAk6ODZBXALnTPBZif"
      },
      "artists" : [ {
        "external_urls" : {
          "spotify" : "https://open.spotify.com/artist/11sAWrpIkFUPQlXoQqpeBV"
        },
        "href" : "https://api.spotify.com/v1/artists/11sAWrpIkFUPQlXoQqpeBV",
        "id" : "11sAWrpIkFUPQlXoQqpeBV",
        "name" : "Bill & Gloria Gaither",
        "type" : "artist",
        "uri" : "spotify:artist:11sAWrpIkFUPQlXoQqpeBV"
      } ],
      "disc_number" : 1,
      "duration_ms" : 163466,
      "explicit" : false,
      "external_ids" : {
        "isrc" : "US3270403133"
      },
      "external_urls" : {
        "spotify" : "https://open.spotify.com/track/7ksDMm4f7IoqYjudM6Fs2C"
      },
      "href" : "https://api.spotify.com/v1/tracks/7ksDMm4f7IoqYjudM6Fs2C",
      "id" : "7ksDMm4f7IoqYjudM6Fs2C",
      "is_local" : false,
      "is_playable" : true,
      "name" : "Jewels (When He Cometh) - Homecoming Hymns Version",
      "popularity" : 9,
      "preview_url" : null,
      "track_number" : 8,
      "type" : "track",
      "uri" : "spotify:track:7ksDMm4f7IoqYjudM6Fs2C"
    }, {
      "album" : {
        "album_type" : "album",
        "artists" : [ {
          "external_urls" : {
            "spotify" : "https://open.spotify.com/artist/1MmubZDiFWXhOXz941cRRp"
          },
          "href" : "https://api.spotify.com/v1/artists/1MmubZDiFWXhOXz941cRRp",
          "id" : "1MmubZDiFWXhOXz941cRRp",
          "name" : "Our Daily Bread",
          "type" : "artist",
          "uri" : "spotify:artist:1MmubZDiFWXhOXz941cRRp"
        } ],
        "external_urls" : {
          "spotify" : "https://open.spotify.com/album/4qLJuKptjzbM6J1XWojfYE"
        },
        "href" : "https://api.spotify.com/v1/albums/4qLJuKptjzbM6J1XWojfYE",
        "id" : "4qLJuKptjzbM6J1XWojfYE",
        "images" : [ {
          "height" : 640,
          "url" : "https://i.scdn.co/image/ab67616d0000b2734ae6329bfa2dddef8265dde1",
          "width" : 640
        }, {
          "height" : 300,
          "url" : "https://i.scdn.co/image/ab67616d00001e024ae6329bfa2dddef8265dde1",
          "width" : 300
        }, {
          "height" : 64,
          "url" : "https://i.scdn.co/image/ab67616d000048514ae6329bfa2dddef8265dde1",
          "width" : 64
        } ],
        "name" : "Appalachian Hymns",
        "release_date" : "2005-11-15",
        "release_date_precision" : "day",
        "total_tracks" : 12,
        "type" : "album",
        "uri" : "spotify:album:4qLJuKptjzbM6J1XWojfYE"
      },
      "artists" : [ {
        "external_urls" : {
          "spotify" : "https://open.spotify.com/artist/1MmubZDiFWXhOXz941cRRp"
        },
        "href" : "https://api.spotify.com/v1/artists/1MmubZDiFWXhOXz941cRRp",
        "id" : "1MmubZDiFWXhOXz941cRRp",
        "name" : "Our Daily Bread",
        "type" : "artist",
        "uri" : "spotify:artist:1MmubZDiFWXhOXz941cRRp"
      } ],
      "disc_number" : 1,
      "duration_ms" : 135880,
      "explicit" : false,
      "external_ids" : {
        "isrc" : "USDHM0603203"
      },
      "external_urls" : {
        "spotify" : "https://open.spotify.com/track/7KICphFt907ntYZpoiMsCg"
      },
      "href" : "https://api.spotify.com/v1/tracks/7KICphFt907ntYZpoiMsCg",
      "id" : "7KICphFt907ntYZpoiMsCg",
      "is_local" : false,
      "is_playable" : true,
      "name" : "Jewels (When He Cometh)",
      "popularity" : 5,
      "preview_url" : "https://p.scdn.co/mp3-preview/86264076f59955d598c3b6d4ef8a8e32d487a307?cid=774b29d4f13844c495f206cafdad9c86",
      "track_number" : 12,
      "type" : "track",
      "uri" : "spotify:track:7KICphFt907ntYZpoiMsCg"
    }, {
      "album" : {
        "album_type" : "album",
        "artists" : [ {
          "external_urls" : {
            "spotify" : "https://open.spotify.com/artist/0XOGhQGVg5HkdudMPgyqYj"
          },
          "href" : "https://api.spotify.com/v1/artists/0XOGhQGVg5HkdudMPgyqYj",
          "id" : "0XOGhQGVg5HkdudMPgyqYj",
          "name" : "George Beverly Shea",
          "type" : "artist",
          "uri" : "spotify:artist:0XOGhQGVg5HkdudMPgyqYj"
        } ],
        "external_urls" : {
          "spotify" : "https://open.spotify.com/album/0Z1sg6iAzNLQCkohRx3urG"
        },
        "href" : "https://api.spotify.com/v1/albums/0Z1sg6iAzNLQCkohRx3urG",
        "id" : "0Z1sg6iAzNLQCkohRx3urG",
        "images" : [ {
          "height" : 640,
          "url" : "https://i.scdn.co/image/ab67616d0000b273c0e014c2cb5bea8b6f6e36c5",
          "width" : 640
        }, {
          "height" : 300,
          "url" : "https://i.scdn.co/image/ab67616d00001e02c0e014c2cb5bea8b6f6e36c5",
          "width" : 300
        }, {
          "height" : 64,
          "url" : "https://i.scdn.co/image/ab67616d00004851c0e014c2cb5bea8b6f6e36c5",
          "width" : 64
        } ],
        "name" : "The Very Best of George Beverly Shea",
        "release_date" : "2010-04-29",
        "release_date_precision" : "day",
        "total_tracks" : 12,
        "type" : "album",
        "uri" : "spotify:album:0Z1sg6iAzNLQCkohRx3urG"
      },
      "artists" : [ {
        "external_urls" : {
          "spotify" : "https://open.spotify.com/artist/0XOGhQGVg5HkdudMPgyqYj"
        },
        "href" : "https://api.spotify.com/v1/artists/0XOGhQGVg5HkdudMPgyqYj",
        "id" : "0XOGhQGVg5HkdudMPgyqYj",
        "name" : "George Beverly Shea",
        "type" : "artist",
        "uri" : "spotify:artist:0XOGhQGVg5HkdudMPgyqYj"
      } ],
      "disc_number" : 1,
      "duration_ms" : 84543,
      "explicit" : false,
      "external_ids" : {
        "isrc" : "US4R31018284"
      },
      "external_urls" : {
        "spotify" : "https://open.spotify.com/track/7paPbW3E2tCO26fK1U8E73"
      },
      "href" : "https://api.spotify.com/v1/tracks/7paPbW3E2tCO26fK1U8E73",
      "id" : "7paPbW3E2tCO26fK1U8E73",
      "is_local" : false,
      "is_playable" : true,
      "name" : "Jewels (When He Cometh)",
      "popularity" : 4,
      "preview_url" : "https://p.scdn.co/mp3-preview/3d7eab52d7a82938700a223f490527df92b1dfff?cid=774b29d4f13844c495f206cafdad9c86",
      "track_number" : 4,
      "type" : "track",
      "uri" : "spotify:track:7paPbW3E2tCO26fK1U8E73"
    }, {
      "album" : {
        "album_type" : "album",
        "artists" : [ {
          "external_urls" : {
            "spotify" : "https://open.spotify.com/artist/11sAWrpIkFUPQlXoQqpeBV"
          },
          "href" : "https://api.spotify.com/v1/artists/11sAWrpIkFUPQlXoQqpeBV",
          "id" : "11sAWrpIkFUPQlXoQqpeBV",
          "name" : "Bill & Gloria Gaither",
          "type" : "artist",
          "uri" : "spotify:artist:11sAWrpIkFUPQlXoQqpeBV"
        } ],
        "external_urls" : {
          "spotify" : "https://open.spotify.com/album/3UNoScdhH5e9Dnu8gd306w"
        },
        "href" : "https://api.spotify.com/v1/albums/3UNoScdhH5e9Dnu8gd306w",
        "id" : "3UNoScdhH5e9Dnu8gd306w",
        "images" : [ {
          "height" : 640,
          "url" : "https://i.scdn.co/image/ab67616d0000b273da241b4dddacecdbe2d2a2ac",
          "width" : 640
        }, {
          "height" : 300,
          "url" : "https://i.scdn.co/image/ab67616d00001e02da241b4dddacecdbe2d2a2ac",
          "width" : 300
        }, {
          "height" : 64,
          "url" : "https://i.scdn.co/image/ab67616d00004851da241b4dddacecdbe2d2a2ac",
          "width" : 64
        } ],
        "name" : "Going Home",
        "release_date" : "2003-01-01",
        "release_date_precision" : "day",
        "total_tracks" : 29,
        "type" : "album",
        "uri" : "spotify:album:3UNoScdhH5e9Dnu8gd306w"
      },
      "artists" : [ {
        "external_urls" : {
          "spotify" : "https://open.spotify.com/artist/5sniAo1KYgW3EAi5upDmyd"
        },
        "href" : "https://api.spotify.com/v1/artists/5sniAo1KYgW3EAi5upDmyd",
        "id" : "5sniAo1KYgW3EAi5upDmyd",
        "name" : "Joni Eareckson Tada",
        "type" : "artist",
        "uri" : "spotify:artist:5sniAo1KYgW3EAi5upDmyd"
      } ],
      "disc_number" : 1,
      "duration_ms" : 146893,
      "explicit" : false,
      "external_ids" : {
        "isrc" : "US3270403830"
      },
      "external_urls" : {
        "spotify" : "https://open.spotify.com/track/0jkBtwbnrMMDpyAQw8ZyCz"
      },
      "href" : "https://api.spotify.com/v1/tracks/0jkBtwbnrMMDpyAQw8ZyCz",
      "id" : "0jkBtwbnrMMDpyAQw8ZyCz",
      "is_local" : false,
      "is_playable" : true,
      "name" : "When He Cometh - Going Home Version",
      "popularity" : 6,
      "preview_url" : null,
      "track_number" : 10,
      "type" : "track",
      "uri" : "spotify:track:0jkBtwbnrMMDpyAQw8ZyCz"
    }, {
      "album" : {
        "album_type" : "album",
        "artists" : [ {
          "external_urls" : {
            "spotify" : "https://open.spotify.com/artist/4TS4Ys7NQq98iZykEXCFie"
          },
          "href" : "https://api.spotify.com/v1/artists/4TS4Ys7NQq98iZykEXCFie",
          "id" : "4TS4Ys7NQq98iZykEXCFie",
          "name" : "The Brent Rochester Family",
          "type" : "artist",
          "uri" : "spotify:artist:4TS4Ys7NQq98iZykEXCFie"
        } ],
        "external_urls" : {
          "spotify" : "https://open.spotify.com/album/1AVntOx53t4hUmxKYuqKhd"
        },
        "href" : "https://api.spotify.com/v1/albums/1AVntOx53t4hUmxKYuqKhd",
        "id" : "1AVntOx53t4hUmxKYuqKhd",
        "images" : [ {
          "height" : 640,
          "url" : "https://i.scdn.co/image/ab67616d0000b27386897d6a317a3ccd61ee307a",
          "width" : 640
        }, {
          "height" : 300,
          "url" : "https://i.scdn.co/image/ab67616d00001e0286897d6a317a3ccd61ee307a",
          "width" : 300
        }, {
          "height" : 64,
          "url" : "https://i.scdn.co/image/ab67616d0000485186897d6a317a3ccd61ee307a",
          "width" : 64
        } ],
        "name" : "Beside the Still Waters",
        "release_date" : "2011-07-01",
        "release_date_precision" : "day",
        "total_tracks" : 12,
        "type" : "album",
        "uri" : "spotify:album:1AVntOx53t4hUmxKYuqKhd"
      },
      "artists" : [ {
        "external_urls" : {
          "spotify" : "https://open.spotify.com/artist/4TS4Ys7NQq98iZykEXCFie"
        },
        "href" : "https://api.spotify.com/v1/artists/4TS4Ys7NQq98iZykEXCFie",
        "id" : "4TS4Ys7NQq98iZykEXCFie",
        "name" : "The Brent Rochester Family",
        "type" : "artist",
        "uri" : "spotify:artist:4TS4Ys7NQq98iZykEXCFie"
      } ],
      "disc_number" : 1,
      "duration_ms" : 177893,
      "explicit" : false,
      "external_ids" : {
        "isrc" : "QZ5WQ1100002"
      },
      "external_urls" : {
        "spotify" : "https://open.spotify.com/track/4BMwOvz9yCiINPL8hUWLPa"
      },
      "href" : "https://api.spotify.com/v1/tracks/4BMwOvz9yCiINPL8hUWLPa",
      "id" : "4BMwOvz9yCiINPL8hUWLPa",
      "is_local" : false,
      "is_playable" : true,
      "name" : "When He Cometh",
      "popularity" : 3,
      "preview_url" : "https://p.scdn.co/mp3-preview/555f9bc2d99dd1f345e5ee353aef8d243aade0fc?cid=774b29d4f13844c495f206cafdad9c86",
      "track_number" : 2,
      "type" : "track",
      "uri" : "spotify:track:4BMwOvz9yCiINPL8hUWLPa"
    }, {
      "album" : {
        "album_type" : "album",
        "artists" : [ {
          "external_urls" : {
            "spotify" : "https://open.spotify.com/artist/1MmubZDiFWXhOXz941cRRp"
          },
          "href" : "https://api.spotify.com/v1/artists/1MmubZDiFWXhOXz941cRRp",
          "id" : "1MmubZDiFWXhOXz941cRRp",
          "name" : "Our Daily Bread",
          "type" : "artist",
          "uri" : "spotify:artist:1MmubZDiFWXhOXz941cRRp"
        } ],
        "external_urls" : {
          "spotify" : "https://open.spotify.com/album/360qMpfCWjknXSqhkE4cei"
        },
        "href" : "https://api.spotify.com/v1/albums/360qMpfCWjknXSqhkE4cei",
        "id" : "360qMpfCWjknXSqhkE4cei",
        "images" : [ {
          "height" : 640,
          "url" : "https://i.scdn.co/image/ab67616d0000b273b00c783fe791254de6da4c95",
          "width" : 640
        }, {
          "height" : 300,
          "url" : "https://i.scdn.co/image/ab67616d00001e02b00c783fe791254de6da4c95",
          "width" : 300
        }, {
          "height" : 64,
          "url" : "https://i.scdn.co/image/ab67616d00004851b00c783fe791254de6da4c95",
          "width" : 64
        } ],
        "name" : "Celtic Hymns and Appalachian Hymns",
        "release_date" : "2017-04-10",
        "release_date_precision" : "day",
        "total_tracks" : 23,
        "type" : "album",
        "uri" : "spotify:album:360qMpfCWjknXSqhkE4cei"
      },
      "artists" : [ {
        "external_urls" : {
          "spotify" : "https://open.spotify.com/artist/1MmubZDiFWXhOXz941cRRp"
        },
        "href" : "https://api.spotify.com/v1/artists/1MmubZDiFWXhOXz941cRRp",
        "id" : "1MmubZDiFWXhOXz941cRRp",
        "name" : "Our Daily Bread",
        "type" : "artist",
        "uri" : "spotify:artist:1MmubZDiFWXhOXz941cRRp"
      } ],
      "disc_number" : 1,
      "duration_ms" : 135880,
      "explicit" : false,
      "external_ids" : {
        "isrc" : "USLF51602228"
      },
      "external_urls" : {
        "spotify" : "https://open.spotify.com/track/2iaZA7DYGkRyZihQLWwFjg"
      },
      "href" : "https://api.spotify.com/v1/tracks/2iaZA7DYGkRyZihQLWwFjg",
      "id" : "2iaZA7DYGkRyZihQLWwFjg",
      "is_local" : false,
      "is_playable" : true,
      "name" : "Jewels (When He Cometh)",
      "popularity" : 4,
      "preview_url" : "https://p.scdn.co/mp3-preview/94aff6466c621d0770cd961e83eb852e6a9c9c2e?cid=774b29d4f13844c495f206cafdad9c86",
      "track_number" : 23,
      "type" : "track",
      "uri" : "spotify:track:2iaZA7DYGkRyZihQLWwFjg"
    }, {
      "album" : {
        "album_type" : "album",
        "artists" : [ {
          "external_urls" : {
            "spotify" : "https://open.spotify.com/artist/1wa1pmn3FUSdbyuNkDHIhm"
          },
          "href" : "https://api.spotify.com/v1/artists/1wa1pmn3FUSdbyuNkDHIhm",
          "id" : "1wa1pmn3FUSdbyuNkDHIhm",
          "name" : "Allbrook/Avery",
          "type" : "artist",
          "uri" : "spotify:artist:1wa1pmn3FUSdbyuNkDHIhm"
        } ],
        "external_urls" : {
          "spotify" : "https://open.spotify.com/album/04vhXuMwHxmDQ6w6TRW3gD"
        },
        "href" : "https://api.spotify.com/v1/albums/04vhXuMwHxmDQ6w6TRW3gD",
        "id" : "04vhXuMwHxmDQ6w6TRW3gD",
        "images" : [ {
          "height" : 640,
          "url" : "https://i.scdn.co/image/ab67616d0000b273dfbf9dda0492498f657b3809",
          "width" : 640
        }, {
          "height" : 300,
          "url" : "https://i.scdn.co/image/ab67616d00001e02dfbf9dda0492498f657b3809",
          "width" : 300
        }, {
          "height" : 64,
          "url" : "https://i.scdn.co/image/ab67616d00004851dfbf9dda0492498f657b3809",
          "width" : 64
        } ],
        "name" : "Big 'Art",
        "release_date" : "2011-11-18",
        "release_date_precision" : "day",
        "total_tracks" : 9,
        "type" : "album",
        "uri" : "spotify:album:04vhXuMwHxmDQ6w6TRW3gD"
      },
      "artists" : [ {
        "external_urls" : {
          "spotify" : "https://open.spotify.com/artist/1wa1pmn3FUSdbyuNkDHIhm"
        },
        "href" : "https://api.spotify.com/v1/artists/1wa1pmn3FUSdbyuNkDHIhm",
        "id" : "1wa1pmn3FUSdbyuNkDHIhm",
        "name" : "Allbrook/Avery",
        "type" : "artist",
        "uri" : "spotify:artist:1wa1pmn3FUSdbyuNkDHIhm"
      } ],
      "disc_number" : 1,
      "duration_ms" : 260043,
      "explicit" : false,
      "external_ids" : {
        "isrc" : "AU9Z11100004"
      },
      "external_urls" : {
        "spotify" : "https://open.spotify.com/track/2H1MJUlvXoGytkZp5JzGUW"
      },
      "href" : "https://api.spotify.com/v1/tracks/2H1MJUlvXoGytkZp5JzGUW",
      "id" : "2H1MJUlvXoGytkZp5JzGUW",
      "is_local" : false,
      "is_playable" : true,
      "name" : "When Heavens Heavy Hammer Cometh Down",
      "popularity" : 7,
      "preview_url" : "https://p.scdn.co/mp3-preview/0d8e6081c2eb89717874951586c9aebc8f3f6300?cid=774b29d4f13844c495f206cafdad9c86",
      "track_number" : 4,
      "type" : "track",
      "uri" : "spotify:track:2H1MJUlvXoGytkZp5JzGUW"
    }, {
      "album" : {
        "album_type" : "album",
        "artists" : [ {
          "external_urls" : {
            "spotify" : "https://open.spotify.com/artist/5ZwubZbVtEr49EpmJeUMVn"
          },
          "href" : "https://api.spotify.com/v1/artists/5ZwubZbVtEr49EpmJeUMVn",
          "id" : "5ZwubZbVtEr49EpmJeUMVn",
          "name" : "Littlepiano",
          "type" : "artist",
          "uri" : "spotify:artist:5ZwubZbVtEr49EpmJeUMVn"
        } ],
        "external_urls" : {
          "spotify" : "https://open.spotify.com/album/7fVGrsZt6YsZCwgWb9pPyi"
        },
        "href" : "https://api.spotify.com/v1/albums/7fVGrsZt6YsZCwgWb9pPyi",
        "id" : "7fVGrsZt6YsZCwgWb9pPyi",
        "images" : [ {
          "height" : 640,
          "url" : "https://i.scdn.co/image/ab67616d0000b2737b18e05bd73773e17db453a5",
          "width" : 640
        }, {
          "height" : 300,
          "url" : "https://i.scdn.co/image/ab67616d00001e027b18e05bd73773e17db453a5",
          "width" : 300
        }, {
          "height" : 64,
          "url" : "https://i.scdn.co/image/ab67616d000048517b18e05bd73773e17db453a5",
          "width" : 64
        } ],
        "name" : "My Little Jazz Piano Hymn 5 (Love) (내 작은 재즈 피아노 찬송가 5 (사랑))",
        "release_date" : "2014-07-23",
        "release_date_precision" : "day",
        "total_tracks" : 8,
        "type" : "album",
        "uri" : "spotify:album:7fVGrsZt6YsZCwgWb9pPyi"
      },
      "artists" : [ {
        "external_urls" : {
          "spotify" : "https://open.spotify.com/artist/5ZwubZbVtEr49EpmJeUMVn"
        },
        "href" : "https://api.spotify.com/v1/artists/5ZwubZbVtEr49EpmJeUMVn",
        "id" : "5ZwubZbVtEr49EpmJeUMVn",
        "name" : "Littlepiano",
        "type" : "artist",
        "uri" : "spotify:artist:5ZwubZbVtEr49EpmJeUMVn"
      } ],
      "disc_number" : 1,
      "duration_ms" : 197879,
      "explicit" : false,
      "external_ids" : {
        "isrc" : "KRB361433093"
      },
      "external_urls" : {
        "spotify" : "https://open.spotify.com/track/62dhj5dV8xshXGPfnnebtU"
      },
      "href" : "https://api.spotify.com/v1/tracks/62dhj5dV8xshXGPfnnebtU",
      "id" : "62dhj5dV8xshXGPfnnebtU",
      "is_local" : false,
      "is_playable" : true,
      "name" : "When He Cometh, When He Cometh (예수께서 오실 때에)",
      "popularity" : 0,
      "preview_url" : "https://p.scdn.co/mp3-preview/3f2f90adef0206fb6045b84f2ca334323f78900c?cid=774b29d4f13844c495f206cafdad9c86",
      "track_number" : 1,
      "type" : "track",
      "uri" : "spotify:track:62dhj5dV8xshXGPfnnebtU"
    }, {
      "album" : {
        "album_type" : "album",
        "artists" : [ {
          "external_urls" : {
            "spotify" : "https://open.spotify.com/artist/1qVFsazLyUuCpkMHMlSHtv"
          },
          "href" : "https://api.spotify.com/v1/artists/1qVFsazLyUuCpkMHMlSHtv",
          "id" : "1qVFsazLyUuCpkMHMlSHtv",
          "name" : "Orgel Hymn",
          "type" : "artist",
          "uri" : "spotify:artist:1qVFsazLyUuCpkMHMlSHtv"
        } ],
        "external_urls" : {
          "spotify" : "https://open.spotify.com/album/7kTxIKb1jUncAkSUx9l0tm"
        },
        "href" : "https://api.spotify.com/v1/albums/7kTxIKb1jUncAkSUx9l0tm",
        "id" : "7kTxIKb1jUncAkSUx9l0tm",
        "images" : [ {
          "height" : 640,
          "url" : "https://i.scdn.co/image/ab67616d0000b273fae45f3b121386a669e4ef88",
          "width" : 640
        }, {
          "height" : 300,
          "url" : "https://i.scdn.co/image/ab67616d00001e02fae45f3b121386a669e4ef88",
          "width" : 300
        }, {
          "height" : 64,
          "url" : "https://i.scdn.co/image/ab67616d00004851fae45f3b121386a669e4ef88",
          "width" : 64
        } ],
        "name" : "Orgel Hymn 10 - Hope (오르골 찬송가 10 (소망))",
        "release_date" : "2014-07-26",
        "release_date_precision" : "day",
        "total_tracks" : 8,
        "type" : "album",
        "uri" : "spotify:album:7kTxIKb1jUncAkSUx9l0tm"
      },
      "artists" : [ {
        "external_urls" : {
          "spotify" : "https://open.spotify.com/artist/1qVFsazLyUuCpkMHMlSHtv"
        },
        "href" : "https://api.spotify.com/v1/artists/1qVFsazLyUuCpkMHMlSHtv",
        "id" : "1qVFsazLyUuCpkMHMlSHtv",
        "name" : "Orgel Hymn",
        "type" : "artist",
        "uri" : "spotify:artist:1qVFsazLyUuCpkMHMlSHtv"
      } ],
      "disc_number" : 1,
      "duration_ms" : 174193,
      "explicit" : false,
      "external_ids" : {
        "isrc" : "KRB361433820"
      },
      "external_urls" : {
        "spotify" : "https://open.spotify.com/track/0exuYWAzmXjwldrrwgkplo"
      },
      "href" : "https://api.spotify.com/v1/tracks/0exuYWAzmXjwldrrwgkplo",
      "id" : "0exuYWAzmXjwldrrwgkplo",
      "is_local" : false,
      "is_playable" : true,
      "name" : "When He Cometh, When He Cometh (예수께서 오실 때에)",
      "popularity" : 0,
      "preview_url" : "https://p.scdn.co/mp3-preview/de1044262f89ccf6e93da3cb6738ecfb1330f0ba?cid=774b29d4f13844c495f206cafdad9c86",
      "track_number" : 7,
      "type" : "track",
      "uri" : "spotify:track:0exuYWAzmXjwldrrwgkplo"
    }, {
      "album" : {
        "album_type" : "album",
        "artists" : [ {
          "external_urls" : {
            "spotify" : "https://open.spotify.com/artist/5ZwubZbVtEr49EpmJeUMVn"
          },
          "href" : "https://api.spotify.com/v1/artists/5ZwubZbVtEr49EpmJeUMVn",
          "id" : "5ZwubZbVtEr49EpmJeUMVn",
          "name" : "Littlepiano",
          "type" : "artist",
          "uri" : "spotify:artist:5ZwubZbVtEr49EpmJeUMVn"
        } ],
        "external_urls" : {
          "spotify" : "https://open.spotify.com/album/1m9vGDosvRPkgfITnOITXA"
        },
        "href" : "https://api.spotify.com/v1/albums/1m9vGDosvRPkgfITnOITXA",
        "id" : "1m9vGDosvRPkgfITnOITXA",
        "images" : [ {
          "height" : 640,
          "url" : "https://i.scdn.co/image/ab67616d0000b273ae82de7622c98b566faad568",
          "width" : 640
        }, {
          "height" : 300,
          "url" : "https://i.scdn.co/image/ab67616d00001e02ae82de7622c98b566faad568",
          "width" : 300
        }, {
          "height" : 64,
          "url" : "https://i.scdn.co/image/ab67616d00004851ae82de7622c98b566faad568",
          "width" : 64
        } ],
        "name" : "My Little Piano Hymn 2 (Hymns for babies) (내 작은 피아노 찬송가 2 (아기에게 들려주고싶은 찬송가))",
        "release_date" : "2014-07-29",
        "release_date_precision" : "day",
        "total_tracks" : 10,
        "type" : "album",
        "uri" : "spotify:album:1m9vGDosvRPkgfITnOITXA"
      },
      "artists" : [ {
        "external_urls" : {
          "spotify" : "https://open.spotify.com/artist/5ZwubZbVtEr49EpmJeUMVn"
        },
        "href" : "https://api.spotify.com/v1/artists/5ZwubZbVtEr49EpmJeUMVn",
        "id" : "5ZwubZbVtEr49EpmJeUMVn",
        "name" : "Littlepiano",
        "type" : "artist",
        "uri" : "spotify:artist:5ZwubZbVtEr49EpmJeUMVn"
      } ],
      "disc_number" : 1,
      "duration_ms" : 198000,
      "explicit" : false,
      "external_ids" : {
        "isrc" : "KRB361434456"
      },
      "external_urls" : {
        "spotify" : "https://open.spotify.com/track/4RFxPVYCqtFT9ZJpG5uBSZ"
      },
      "href" : "https://api.spotify.com/v1/tracks/4RFxPVYCqtFT9ZJpG5uBSZ",
      "id" : "4RFxPVYCqtFT9ZJpG5uBSZ",
      "is_local" : false,
      "is_playable" : true,
      "name" : "When He Cometh, When He Cometh (예수께서 오실 때에)",
      "popularity" : 4,
      "preview_url" : "https://p.scdn.co/mp3-preview/4b64db0670c043b3813104fbdb6bf3412e996d64?cid=774b29d4f13844c495f206cafdad9c86",
      "track_number" : 1,
      "type" : "track",
      "uri" : "spotify:track:4RFxPVYCqtFT9ZJpG5uBSZ"
    } ],
    "limit" : 10,
    "next" : "https://api.spotify.com/v1/search?query=When+He+Cometh&type=track&market=US&offset=15&limit=10",
    "offset" : 5,
    "previous" : "https://api.spotify.com/v1/search?query=When+He+Cometh&type=track&market=US&offset=0&limit=10",
    "total" : 52
  }
}