{
  "tracks" : {
    "href" : "https://api.spotify.com/v1/search?query=Take+the+Name+of+Jesus+With+You&type=track&market=US&offset=5&limit=10",
    "items" : [ {
      "album" : {
        "album_type" : "album",
        "artists" : [ {
          "external_urls" : {
            "spotify" : "https://open.spotify.com/artist/3k0f1Oq9w18Pd7VFpVbxik"
          },
          "href" : "https://api.spotify.com/v1/artists/3k0f1Oq9w18Pd7VFpVbxik",
          "id" : "3k0f1Oq9w18Pd7VFpVbxik",
          "name" : "The Aeolians of Oakwood University",
          "type" : "artist",
          "uri" : "spotify:artist:3k0f1Oq9w18Pd7VFpVbxik"
        } ],
        "external_urls" : {
          "spotify" : "https://open.spotify.com/album/40IQzQw7Sg3tkfXdSWcUBz"
        },
        "href" : "https://api.spotify.com/v1/albums/40IQzQw7Sg3tkfXdSWcUBz",
        "id" : "40IQzQw7Sg3tkfXdSWcUBz",
        "images" : [ {
          "height" : 640,
          "url" : "https://i.scdn.co/image/ab67616d0000b273297aa22400aa46e0fca8ee61",
          "width" : 640
        }, {
          "height" : 300,
          "url" : "https://i.scdn.co/image/ab67616d00001e02297aa22400aa46e0fca8ee61",
          "width" : 300
        }, {
          "height" : 64,
          "url" : "https://i.scdn.co/image/ab67616d00004851297aa22400aa46e0fca8ee61",
          "width" : 64
        } ],
        "name" : "Aeolianology Acappella, Vol. 1",
        "release_date" : "2015-08-07",
        "release_date_precision" : "day",
        "total_tracks" : 13,
        "type" : "album",
        "uri" : "spotify:album:40IQzQw7Sg3tkfXdSWcUBz"
      },
      "artists" : [ {
        "external_urls" : {
          "spotify" : "https://open.spotify.com/artist/3k0f1Oq9w18Pd7VFpVbxik"
        },
        "href" : "https://api.spotify.com/v1/artists/3k0f1Oq9w18Pd7VFpVbxik",
        "id" : "3k0f1Oq9w18Pd7VFpVbxik",
        "name" : "The Aeolians of Oakwood University",
        "type" : "artist",
        "uri" : "spotify:artist:3k0f1Oq9w18Pd7VFpVbxik"
      } ],
      "disc_number" : 1,
      "duration_ms" : 175621,
      "explicit" : false,
      "external_ids" : {
        "isrc" : "TCACH1571487"
      },
      "external_urls" : {
        "spotify" : "https://open.spotify.com/track/0Myv7rVGmiiFB030kTGGjJ"
      },
      "href" : "https://api.spotify.com/v1/tracks/0Myv7rVGmiiFB030kTGGjJ",
      "id" : "0Myv7rVGmiiFB030kTGGjJ",
      "is_local" : false,
      "is_playable" : true,
      "name" : "Take the Name of Jesus With You",
      "popularity" : 6,
      "preview_url" : "https://p.scdn.co/mp3-preview/2935f70f11f334762d8da9b12b400d8bc829b6cf?cid=774b29d4f13844c495f206cafdad9c86",
      "track_number" : 8,
      "type" : "track",
      "uri" : "spotify:track:0Myv7rVGmiiFB030kTGGjJ"
    }, {
      "album" : {
        "album_type" : "compilation",
        "artists" : [ {
          "external_urls" : {
            "spotify" : "https://open.spotify.com/artist/0LyfQWJT6nXafLPZqxe9Of"
          },
          "href" : "https://api.spotify.com/v1/artists/0LyfQWJT6nXafLPZqxe9Of",
          "id" : "0LyfQWJT6nXafLPZqxe9Of",
          "name" : "Various Artists",
          "type" : "artist",
          "uri" : "spotify:artist:0LyfQWJT6nXafLPZqxe9Of"
        } ],
        "external_urls" : {
          "spotify" : "https://open.spotify.com/album/2MmiozIeqpE1uvKhebKwTs"
        },
        "href" : "https://api.spotify.com/v1/albums/2MmiozIeqpE1uvKhebKwTs",
        "id" : "2MmiozIeqpE1uvKhebKwTs",
        "images" : [ {
          "height" : 640,
          "url" : "https://i.scdn.co/image/ab67616d0000b2735e7ffb84a1e987cb4e01012d",
          "width" : 640
        }, {
          "height" : 300,
          "url" : "https://i.scdn.co/image/ab67616d00001e025e7ffb84a1e987cb4e01012d",
          "width" : 300
        }, {
          "height" : 64,
          "url" : "https://i.scdn.co/image/ab67616d000048515e7ffb84a1e987cb4e01012d",
          "width" : 64
        } ],
        "name" : "Victory In Jesus! 32 Favorite Hymns And Gospel Songs",
        "release_date" : "1997-01-01",
        "release_date_precision" : "day",
        "total_tracks" : 15,
        "type" : "album",
        "uri" : "spotify:album:2MmiozIeqpE1uvKhebKwTs"
      },
      "artists" : [ {
        "external_urls" : {
          "spotify" : "https://open.spotify.com/artist/2JMLMt7Cr0PdJyrMrvNaZz"
        },
        "href" : "https://api.spotify.com/v1/artists/2JMLMt7Cr0PdJyrMrvNaZz",
        "id" : "2JMLMt7Cr0PdJyrMrvNaZz",
        "name" : "Victory In Jesus! 32 Favorite Hymns And Gospel Songs Performers",
        "type" : "artist",
        "uri" : "spotify:artist:2JMLMt7Cr0PdJyrMrvNaZz"
      } ],
      "disc_number" : 1,
      "duration_ms" : 256466,
      "explicit" : false,
      "external_ids" : {
        "isrc" : "USSP39747612"
      },
      "external_urls" : {
        "spotify" : "https://open.spotify.com/track/0jsEMDiM9iasAeKeWl1XTh"
      },
      "href" : "https://api.spotify.com/v1/tracks/0jsEMDiM9iasAeKeWl1XTh",
      "id" : "0jsEMDiM9iasAeKeWl1XTh",
      "is_local" : false,
      "is_playable" : true,
      "name" : "Take The Name Of Jesus With You/Jesus Is The Sweetest Name I Know",
      "popularity" : 8,
      "preview_url" : null,
      "track_number" : 15,
      "type" : "track",
      "uri" : "spotify:track:0jsEMDiM9iasAeKeWl1XTh"
    }, {
      "album" : {
        "album_type" : "single",
        "artists" : [ {
          "external_urls" : {
            "spotify" : "https://open.spotify.com/artist/6p21nVelZcO7t75I4LSaTe"
          },
          "href" : "https://api.spotify.com/v1/artists/6p21nVelZcO7t75I4LSaTe",
          "id" : "6p21nVelZcO7t75I4LSaTe",
          "name" : "Andy Joshua",
          "type" : "artist",
          "uri" : "spotify:artist:6p21nVelZcO7t75I4LSaTe"
        } ],
        "external_urls" : {
          "spotify" : "https://open.spotify.com/album/5BbxSl0rNWkNZVS2Y6h6lA"
        },
        "href" : "https://api.spotify.com/v1/albums/5BbxSl0rNWkNZVS2Y6h6lA",
        "id" : "5BbxSl0rNWkNZVS2Y6h6lA",
        "images" : [ {
          "height" : 640,
          "url" : "https://i.scdn.co/image/ab67616d0000b2734ec4bbe89cf337d88630ef79",
          "width" : 640
        }, {
          "height" : 300,
          "url" : "https://i.scdn.co/image/ab67616d00001e024ec4bbe89cf337d88630ef79",
          "width" : 300
        }, {
          "height" : 64,
          "url" : "https://i.scdn.co/image/ab67616d000048514ec4bbe89cf337d88630ef79",
          "width" : 64
        } ],
        "name" : "재즈 찬송가 Jazz Hymns Best 5",
        "release_date" : "2020-01-09",
        "release_date_precision" : "day",
        "total_tracks" : 4,
        "type" : "album",
        "uri" : "spotify:album:5BbxSl0rNWkNZVS2Y6h6lA"
      },
      "artists" : [ {
        "external_urls" : {
          "spotify" : "https://open.spotify.com/artist/6p21nVelZcO7t75I4LSaTe"
        },
        "href" : "https://api.spotify.com/v1/artists/6p21nVelZcO7t75I4LSaTe",
        "id" : "6p21nVelZcO7t75I4LSaTe",
        "name" : "Andy Joshua",
        "type" : "artist",
        "uri" : "spotify:artist:6p21nVelZcO7t75I4LSaTe"
      } ],
      "disc_number" : 1,
      "duration_ms" : 174464,
      "explicit" : false,
      "external_ids" : {
        "isrc" : "KRA352000103"
      },
      "external_urls" : {
        "spotify" : "https://open.spotify.com/track/5N80vVwEnMiBfpwWPZduLj"
      },
      "href" : "https://api.spotify.com/v1/tracks/5N80vVwEnMiBfpwWPZduLj",
      "id" : "5N80vVwEnMiBfpwWPZduLj",
      "is_local" : false,
      "is_playable" : true,
      "name" : "슬픈 마음 있는 사람 Take the Name of Jesus with You",
      "popularity" : 9,
      "preview_url" : "https://p.scdn.co/mp3-preview/d1389c2ae7aa5e6ff0ee54a086d7e17e2e1d8ea8?cid=774b29d4f13844c495f206cafdad9c86",
      "track_number" : 2,
      "type" : "track",
      "uri" : "spotify:track:5N80vVwEnMiBfpwWPZduLj"
    }, {
      "album" : {
        "album_type" : "album",
        "artists" : [ {
          "external_urls" : {
            "spotify" : "https://open.spotify.com/artist/4PObECTgGi99FoQHHOdaUv"
          },
          "href" : "https://api.spotify.com/v1/artists/4PObECTgGi99FoQHHOdaUv",
          "id" : "4PObECTgGi99FoQHHOdaUv",
          "name" : "Dick Bolks",
          "type" : "artist",
          "uri" : "spotify:artist:4PObECTgGi99FoQHHOdaUv"
        } ],
        "external_urls" : {
          "spotify" : "https://open.spotify.com/album/4djtPD8UjAAumlMtPMG9mg"
        },
        "href" : "https://api.spotify.com/v1/albums/4djtPD8UjAAumlMtPMG9mg",
        "id" : "4djtPD8UjAAumlMtPMG9mg",
        "images" : [ {
          "height" : 640,
          "url" : "https://i.scdn.co/image/ab67616d0000b2731abe0afedeeb672b9858c187",
          "width" : 640
        }, {
          "height" : 300,
          "url" : "https://i.scdn.co/image/ab67616d00001e021abe0afedeeb672b9858c187",
          "width" : 300
        }, {
          "height" : 64,
          "url" : "https://i.scdn.co/image/ab67616d000048511abe0afedeeb672b9858c187",
          "width" : 64
        } ],
        "name" : "Blessed Assurance",
        "release_date" : "1990-06-01",
        "release_date_precision" : "day",
        "total_tracks" : 26,
        "type" : "album",
        "uri" : "spotify:album:4djtPD8UjAAumlMtPMG9mg"
      },
      "artists" : [ {
        "external_urls" : {
          "spotify" : "https://open.spotify.com/artist/4PObECTgGi99FoQHHOdaUv"
        },
        "href" : "https://api.spotify.com/v1/artists/4PObECTgGi99FoQHHOdaUv",
        "id" : "4PObECTgGi99FoQHHOdaUv",
        "name" : "Dick Bolks",
        "type" : "artist",
        "uri" : "spotify:artist:4PObECTgGi99FoQHHOdaUv"
      } ],
      "disc_number" : 1,
      "duration_ms" : 157733,
      "explicit" : false,
      "external_ids" : {
        "isrc" : "ushm91672858"
      },
      "external_urls" : {
        "spotify" : "https://open.spotify.com/track/0al5YsAL7kVKfZCcRSlFAk"
      },
      "href" : "https://api.spotify.com/v1/tracks/0al5YsAL7kVKfZCcRSlFAk",
      "id" : "0al5YsAL7kVKfZCcRSlFAk",
      "is_local" : false,
      "is_playable" : true,
      "name" : "Take the Name of Jesus with You",
      "popularity" : 3,
      "preview_url" : "https://p.scdn.co/mp3-preview/b25263815dfc14a8395fea062404eea92ea94d2f?cid=774b29d4f13844c495f206cafdad9c86",
      "track_number" : 14,
      "type" : "track",
      "uri" : "spotify:track:0al5YsAL7kVKfZCcRSlFAk"
    }, {
      "album" : {
        "album_type" : "album",
        "artists" : [ {
          "external_urls" : {
            "spotify" : "https://open.spotify.com/artist/5EXKA8ZC877gHhzIrFhPZk"
          },
          "href" : "https://api.spotify.com/v1/artists/5EXKA8ZC877gHhzIrFhPZk",
          "id" : "5EXKA8ZC877gHhzIrFhPZk",
          "name" : "Bluegrass Brethren",
          "type" : "artist",
          "uri" : "spotify:artist:5EXKA8ZC877gHhzIrFhPZk"
        } ],
        "external_urls" : {
          "spotify" : "https://open.spotify.com/album/4zj6A7ecH2A4V4TQdLOgDZ"
        },
        "href" : "https://api.spotify.com/v1/albums/4zj6A7ecH2A4V4TQdLOgDZ",
        "id" : "4zj6A7ecH2A4V4TQdLOgDZ",
        "images" : [ {
          "height" : 640,
          "url" : "https://i.scdn.co/image/ab67616d0000b273311a375301afe157ed65b497",
          "width" : 640
        }, {
          "height" : 300,
          "url" : "https://i.scdn.co/image/ab67616d00001e02311a375301afe157ed65b497",
          "width" : 300
        }, {
          "height" : 64,
          "url" : "https://i.scdn.co/image/ab67616d00004851311a375301afe157ed65b497",
          "width" : 64
        } ],
        "name" : "Near The Cross: Favorites From The Hymnbook - Vol. 2",
        "release_date" : "2008-07-01",
        "release_date_precision" : "day",
        "total_tracks" : 13,
        "type" : "album",
        "uri" : "spotify:album:4zj6A7ecH2A4V4TQdLOgDZ"
      },
      "artists" : [ {
        "external_urls" : {
          "spotify" : "https://open.spotify.com/artist/5EXKA8ZC877gHhzIrFhPZk"
        },
        "href" : "https://api.spotify.com/v1/artists/5EXKA8ZC877gHhzIrFhPZk",
        "id" : "5EXKA8ZC877gHhzIrFhPZk",
        "name" : "Bluegrass Brethren",
        "type" : "artist",
        "uri" : "spotify:artist:5EXKA8ZC877gHhzIrFhPZk"
      } ],
      "disc_number" : 1,
      "duration_ms" : 145933,
      "explicit" : false,
      "external_ids" : {
        "isrc" : "ushm20823158"
      },
      "external_urls" : {
        "spotify" : "https://open.spotify.com/track/4kDbiroif42iy8yWvYFbd7"
      },
      "href" : "https://api.spotify.com/v1/tracks/4kDbiroif42iy8yWvYFbd7",
      "id" : "4kDbiroif42iy8yWvYFbd7",
      "is_local" : false,
      "is_playable" : true,
      "name" : "Take The Name Of Jesus With You",
      "popularity" : 2,
      "preview_url" : "https://p.scdn.co/mp3-preview/ae0f95891a101b6da0f0a41df8acee214430059e?cid=774b29d4f13844c495f206cafdad9c86",
      "track_number" : 12,
      "type" : "track",
      "uri" : "spotify:track:4kDbiroif42iy8yWvYFbd7"
    }, {
      "album" : {
        "album_type" : "album",
        "artists" : [ {
          "external_urls" : {
            "spotify" : "https://open.spotify.com/artist/3jiQ4t07tyKTNkbp25Znjn"
          },
          "href" : "https://api.spotify.com/v1/artists/3jiQ4t07tyKTNkbp25Znjn",
          "id" : "3jiQ4t07tyKTNkbp25Znjn",
          "name" : "The Joslin Grove Choral Society",
          "type" : "artist",
          "uri" : "spotify:artist:3jiQ4t07tyKTNkbp25Znjn"
        } ],
        "external_urls" : {
          "spotify" : "https://open.spotify.com/album/5bvmUfdWdgk3mrS6eLqKlJ"
        },
        "href" : "https://api.spotify.com/v1/albums/5bvmUfdWdgk3mrS6eLqKlJ",
        "id" : "5bvmUfdWdgk3mrS6eLqKlJ",
        "images" : [ {
          "height" : 640,
          "url" : "https://i.scdn.co/image/ab67616d0000b273f1afc3d0f52a97498b68d35c",
          "width" : 640
        }, {
          "height" : 300,
          "url" : "https://i.scdn.co/image/ab67616d00001e02f1afc3d0f52a97498b68d35c",
          "width" : 300
        }, {
          "height" : 64,
          "url" : "https://i.scdn.co/image/ab67616d00004851f1afc3d0f52a97498b68d35c",
          "width" : 64
        } ],
        "name" : "100 Best Loved Hymns",
        "release_date" : "2015-02-03",
        "release_date_precision" : "day",
        "total_tracks" : 100,
        "type" : "album",
        "uri" : "spotify:album:5bvmUfdWdgk3mrS6eLqKlJ"
      },
      "artists" : [ {
        "external_urls" : {
          "spotify" : "https://open.spotify.com/artist/3jiQ4t07tyKTNkbp25Znjn"
        },
        "href" : "https://api.spotify.com/v1/artists/3jiQ4t07tyKTNkbp25Znjn",
        "id" : "3jiQ4t07tyKTNkbp25Znjn",
        "name" : "The Joslin Grove Choral Society",
        "type" : "artist",
        "uri" : "spotify:artist:3jiQ4t07tyKTNkbp25Znjn"
      } ],
      "disc_number" : 1,
      "duration_ms" : 129450,
      "explicit" : false,
      "external_ids" : {
        "isrc" : "CA6GH1300132"
      },
      "external_urls" : {
        "spotify" : "https://open.spotify.com/track/13gSR4qmlUmbwZoLtdjOKi"
      },
      "href" : "https://api.spotify.com/v1/tracks/13gSR4qmlUmbwZoLtdjOKi",
      "id" : "13gSR4qmlUmbwZoLtdjOKi",
      "is_local" : false,
      "is_playable" : true,
      "name" : "Take the Name of Jesus with You",
      "popularity" : 4,
      "preview_url" : "https://p.scdn.co/mp3-preview/e13a3ddb6ff0b5ba41f75c18cfd30d514d4c7dda?cid=774b29d4f13844c495f206cafdad9c86",
      "track_number" : 23,
      "type" : "track",
      "uri" : "spotify:track:13gSR4qmlUmbwZoLtdjOKi"
    }, {
      "album" : {
        "album_type" : "album",
        "artists" : [ {
          "external_urls" : {
            "spotify" : "https://open.spotify.com/artist/5ulhxex8OfCL5oji1V95aQ"
          },
          "href" : "https://api.spotify.com/v1/artists/5ulhxex8OfCL5oji1V95aQ",
          "id" : "5ulhxex8OfCL5oji1V95aQ",
          "name" : "Worship Service Resources",
          "type" : "artist",
          "uri" : "spotify:artist:5ulhxex8OfCL5oji1V95aQ"
        } ],
        "external_urls" : {
          "spotify" : "https://open.spotify.com/album/7g3RNtVx9JN2B37HbylsWD"
        },
        "href" : "https://api.spotify.com/v1/albums/7g3RNtVx9JN2B37HbylsWD",
        "id" : "7g3RNtVx9JN2B37HbylsWD",
        "images" : [ {
          "height" : 640,
          "url" : "https://i.scdn.co/image/ab67616d0000b273737cea28ff0541aa0b41bac0",
          "width" : 640
        }, {
          "height" : 300,
          "url" : "https://i.scdn.co/image/ab67616d00001e02737cea28ff0541aa0b41bac0",
          "width" : 300
        }, {
          "height" : 64,
          "url" : "https://i.scdn.co/image/ab67616d00004851737cea28ff0541aa0b41bac0",
          "width" : 64
        } ],
        "name" : "Hymns Of Hope & Heaven",
        "release_date" : "2005",
        "release_date_precision" : "year",
        "total_tracks" : 25,
        "type" : "album",
        "uri" : "spotify:album:7g3RNtVx9JN2B37HbylsWD"
      },
      "artists" : [ {
        "external_urls" : {
          "spotify" : "https://open.spotify.com/artist/5ulhxex8OfCL5oji1V95aQ"
        },
        "href" : "https://api.spotify.com/v1/artists/5ulhxex8OfCL5oji1V95aQ",
        "id" : "5ulhxex8OfCL5oji1V95aQ",
        "name" : "Worship Service Resources",
        "type" : "artist",
        "uri" : "spotify:artist:5ulhxex8OfCL5oji1V95aQ"
      } ],
      "disc_number" : 1,
      "duration_ms" : 145400,
      "explicit" : false,
      "external_ids" : {
        "isrc" : "US79N0610108"
      },
      "external_urls" : {
        "spotify" : "https://open.spotify.com/track/68YSpaV1M8FVdlQoyfmf8n"
      },
      "href" : "https://api.spotify.com/v1/tracks/68YSpaV1M8FVdlQoyfmf8n",
      "id" : "68YSpaV1M8FVdlQoyfmf8n",
      "is_local" : false,
      "is_playable" : true,
      "name" : "Take The Name Of Jesus With You",
      "popularity" : 2,
      "preview_url" : "https://p.scdn.co/mp3-preview/514d681fba66eb44f825a63c18aa12570bdf23d2?cid=774b29d4f13844c495f206cafdad9c86",
      "track_number" : 17,
      "type" : "track",
      "uri" : "spotify:track:68YSpaV1M8FVdlQoyfmf8n"
    }, {
      "album" : {
        "album_type" : "album",
        "artists" : [ {
          "external_urls" : {
            "spotify" : "https://open.spotify.com/artist/6zCKr405jB5b6QI1IfFnf2"
          },
          "href" : "https://api.spotify.com/v1/artists/6zCKr405jB5b6QI1IfFnf2",
          "id" : "6zCKr405jB5b6QI1IfFnf2",
          "name" : "Dallas Christian Adult Concert Choir",
          "type" : "artist",
          "uri" : "spotify:artist:6zCKr405jB5b6QI1IfFnf2"
        } ],
        "external_urls" : {
          "spotify" : "https://open.spotify.com/album/7CvZ87srcVquzpuAlThi4U"
        },
        "href" : "https://api.spotify.com/v1/albums/7CvZ87srcVquzpuAlThi4U",
        "id" : "7CvZ87srcVquzpuAlThi4U",
        "images" : [ {
          "height" : 640,
          "url" : "https://i.scdn.co/image/ab67616d0000b273bafdb26f6eac26bd3f70121f",
          "width" : 640
        }, {
          "height" : 300,
          "url" : "https://i.scdn.co/image/ab67616d00001e02bafdb26f6eac26bd3f70121f",
          "width" : 300
        }, {
          "height" : 64,
          "url" : "https://i.scdn.co/image/ab67616d00004851bafdb26f6eac26bd3f70121f",
          "width" : 64
        } ],
        "name" : "The Best of Congregational Singing",
        "release_date" : "2008-05-13",
        "release_date_precision" : "day",
        "total_tracks" : 61,
        "type" : "album",
        "uri" : "spotify:album:7CvZ87srcVquzpuAlThi4U"
      },
      "artists" : [ {
        "external_urls" : {
          "spotify" : "https://open.spotify.com/artist/6zCKr405jB5b6QI1IfFnf2"
        },
        "href" : "https://api.spotify.com/v1/artists/6zCKr405jB5b6QI1IfFnf2",
        "id" : "6zCKr405jB5b6QI1IfFnf2",
        "name" : "Dallas Christian Adult Concert Choir",
        "type" : "artist",
        "uri" : "spotify:artist:6zCKr405jB5b6QI1IfFnf2"
      } ],
      "disc_number" : 2,
      "duration_ms" : 122346,
      "explicit" : false,
      "external_ids" : {
        "isrc" : "USMZA0811613"
      },
      "external_urls" : {
        "spotify" : "https://open.spotify.com/track/6FqiFjUGIwDkdPrx7hcvjI"
      },
      "href" : "https://api.spotify.com/v1/tracks/6FqiFjUGIwDkdPrx7hcvjI",
      "id" : "6FqiFjUGIwDkdPrx7hcvjI",
      "is_local" : false,
      "is_playable" : true,
      "name" : "Take the Name of Jesus With You - Congregational",
      "popularity" : 3,
      "preview_url" : "https://p.scdn.co/mp3-preview/bf71eca1eff73e5fdcdc119740afd4483c21c2ad?cid=774b29d4f13844c495f206cafdad9c86",
      "track_number" : 27,
      "type" : "track",
      "uri" : "spotify:track:6FqiFjUGIwDkdPrx7hcvjI"
    }, {
      "album" : {
        "album_type" : "compilation",
        "artists" : [ {
          "external_urls" : {
            "spotify" : "https://open.spotify.com/artist/0LyfQWJT6nXafLPZqxe9Of"
          },
          "href" : "https://api.spotify.com/v1/artists/0LyfQWJT6nXafLPZqxe9Of",
          "id" : "0LyfQWJT6nXafLPZqxe9Of",
          "name" : "Various Artists",
          "type" : "artist",
          "uri" : "spotify:artist:0LyfQWJT6nXafLPZqxe9Of"
        } ],
        "external_urls" : {
          "spotify" : "https://open.spotify.com/album/0fUOFQsJuTmWyLIdrFCOqk"
        },
        "href" : "https://api.spotify.com/v1/albums/0fUOFQsJuTmWyLIdrFCOqk",
        "id" : "0fUOFQsJuTmWyLIdrFCOqk",
        "images" : [ {
          "height" : 640,
          "url" : "https://i.scdn.co/image/ab67616d0000b273ee7e7c388747bbaac51464c4",
          "width" : 640
        }, {
          "height" : 300,
          "url" : "https://i.scdn.co/image/ab67616d00001e02ee7e7c388747bbaac51464c4",
          "width" : 300
        }, {
          "height" : 64,
          "url" : "https://i.scdn.co/image/ab67616d00004851ee7e7c388747bbaac51464c4",
          "width" : 64
        } ],
        "name" : "Hymns: The Ultimate Collection",
        "release_date" : "2006-01-01",
        "release_date_precision" : "day",
        "total_tracks" : 38,
        "type" : "album",
        "uri" : "spotify:album:0fUOFQsJuTmWyLIdrFCOqk"
      },
      "artists" : [ {
        "external_urls" : {
          "spotify" : "https://open.spotify.com/artist/2JMLMt7Cr0PdJyrMrvNaZz"
        },
        "href" : "https://api.spotify.com/v1/artists/2JMLMt7Cr0PdJyrMrvNaZz",
        "id" : "2JMLMt7Cr0PdJyrMrvNaZz",
        "name" : "Victory In Jesus! 32 Favorite Hymns And Gospel Songs Performers",
        "type" : "artist",
        "uri" : "spotify:artist:2JMLMt7Cr0PdJyrMrvNaZz"
      } ],
      "disc_number" : 2,
      "duration_ms" : 256453,
      "explicit" : false,
      "external_ids" : {
        "isrc" : "USSP39747612"
      },
      "external_urls" : {
        "spotify" : "https://open.spotify.com/track/5X1NSy98xxTdKwXEbZi38X"
      },
      "href" : "https://api.spotify.com/v1/tracks/5X1NSy98xxTdKwXEbZi38X",
      "id" : "5X1NSy98xxTdKwXEbZi38X",
      "is_local" : false,
      "is_playable" : true,
      "name" : "Take The Name Of Jesus With You / Jesus Is The Sweetest Name I Know",
      "popularity" : 4,
      "preview_url" : null,
      "track_number" : 17,
      "type" : "track",
      "uri" : "spotify:track:5X1NSy98xxTdKwXEbZi38X"
    }, {
      "album" : {
        "album_type" : "album",
        "artists" : [ {
          "external_urls" : {
            "spotify" : "https://open.spotify.com/artist/24jQulGYNqRIj2IMMMEeXj"
          },
          "href" : "https://api.spotify.com/v1/artists/24jQulGYNqRIj2IMMMEeXj",
          "id" : "24jQulGYNqRIj2IMMMEeXj",
          "name" : "Daniel Ziesemer",
          "type" : "artist",
          "uri" : "spotify:artist:24jQulGYNqRIj2IMMMEeXj"
        }, {
          "external_urls" : {
            "spotify" : "https://open.spotify.com/artist/1k1Tlx1HOzrPJCDTWePciL"
          },
          "href" : "https://api.spotify.com/v1/artists/1k1Tlx1HOzrPJCDTWePciL",
          "id" : "1k1Tlx1HOzrPJCDTWePciL",
          "name" : "Jacob Bernhardt",
          "type" : "artist",
          "uri" : "spotify:artist:1k1Tlx1HOzrPJCDTWePciL"
        } ],
        "external_urls" : {
          "spotify" : "https://open.spotify.com/album/2q5SROx6aZJmFJslRn7b9P"
        },
        "href" : "https://api.spotify.com/v1/albums/2q5SROx6aZJmFJslRn7b9P",
        "id" : "2q5SROx6aZJmFJslRn7b9P",
        "images" : [ {
          "height" : 640,
          "url" : "https://i.scdn.co/image/ab67616d0000b273d23f04a00af516f03ff25d63",
          "width" : 640
        }, {
          "height" : 300,
          "url" : "https://i.scdn.co/image/ab67616d00001e02d23f04a00af516f03ff25d63",
          "width" : 300
        }, {
          "height" : 64,
          "url" : "https://i.scdn.co/image/ab67616d00004851d23f04a00af516f03ff25d63",
          "width" : 64
        } ],
        "name" : "Abiding",
        "release_date" : "2004-09-01",
        "release_date_precision" : "day",
        "total_tracks" : 15,
        "type" : "album",
        "uri" : "spotify:album:2q5SROx6aZJmFJslRn7b9P"
      },
      "artists" : [ {
        "external_urls" : {
          "spotify" : "https://open.spotify.com/artist/24jQulGYNqRIj2IMMMEeXj"
        },
        "href" : "https://api.spotify.com/v1/artists/24jQulGYNqRIj2IMMMEeXj",
        "id" : "24jQulGYNqRIj2IMMMEeXj",
        "name" : "Daniel Ziesemer",
        "type" : "artist",
        "uri" : "spotify:artist:24jQulGYNqRIj2IMMMEeXj"
      }, {
        "external_urls" : {
          "spotify" : "https://open.spotify.com/artist/1k1Tlx1HOzrPJCDTWePciL"
        },
        "href" : "https://api.spotify.com/v1/artists/1k1Tlx1HOzrPJCDTWePciL",
        "id" : "1k1Tlx1HOzrPJCDTWePciL",
        "name" : "Jacob Bernhardt",
        "type" : "artist",
        "uri" : "spotify:artist:1k1Tlx1HOzrPJCDTWePciL"
      } ],
      "disc_number" : 1,
      "duration_ms" : 294480,
      "explicit" : false,
      "external_ids" : {
        "isrc" : "ushm91315384"
      },
      "external_urls" : {
        "spotify" : "https://open.spotify.com/track/5tmnjHoHyzLlCpCnONZ9kx"
      },
      "href" : "https://api.spotify.com/v1/tracks/5tmnjHoHyzLlCpCnONZ9kx",
      "id" : "5tmnjHoHyzLlCpCnONZ9kx",
      "is_local" : false,
      "is_playable" : true,
      "name" : "Name of Jesus Medley: Name of Jesus / The Beautiful Name / Take the Name of Jesus With You",
      "popularity" : 12,
      "preview_url" : "https://p.scdn.co/mp3-preview/bafd0ab421420cb99fcee2e18466d1d62b185152?cid=774b29d4f13844c495f206cafdad9c86",
      "track_number" : 12,
      "type" : "track",
      "uri" : "spotify:track:5tmnjHoHyzLlCpCnONZ9kx"
    } ],
    "limit" : 10,
    "next" : "https://api.spotify.com/v1/search?query=Take+the+Name+of+Jesus+With+You&type=track&market=US&offset=15&limit=10",
    "offset" : 5,
    "previous" : "https://api.spotify.com/v1/search?query=Take+the+Name+of+Jesus+With+You&type=track&market=US&offset=0&limit=10",
    "total" : 77
  }
}