{
  "tracks" : {
    "href" : "https://api.spotify.com/v1/search?query=When+I+Can+Read+My+Title+Clear&type=track&market=US&offset=5&limit=10",
    "items" : [ {
      "album" : {
        "album_type" : "album",
        "artists" : [ {
          "external_urls" : {
            "spotify" : "https://open.spotify.com/artist/57fiSnpzQICriJFSFuqHoa"
          },
          "href" : "https://api.spotify.com/v1/artists/57fiSnpzQICriJFSFuqHoa",
          "id" : "57fiSnpzQICriJFSFuqHoa",
          "name" : "Classic Worship",
          "type" : "artist",
          "uri" : "spotify:artist:57fiSnpzQICriJFSFuqHoa"
        } ],
        "external_urls" : {
          "spotify" : "https://open.spotify.com/album/2HBqGq2e4Rbvta7y0QW0FT"
        },
        "href" : "https://api.spotify.com/v1/albums/2HBqGq2e4Rbvta7y0QW0FT",
        "id" : "2HBqGq2e4Rbvta7y0QW0FT",
        "images" : [ {
          "height" : 640,
          "url" : "https://i.scdn.co/image/ab67616d0000b2731ff50096635e19144aab31b9",
          "width" : 640
        }, {
          "height" : 300,
          "url" : "https://i.scdn.co/image/ab67616d00001e021ff50096635e19144aab31b9",
          "width" : 300
        }, {
          "height" : 64,
          "url" : "https://i.scdn.co/image/ab67616d000048511ff50096635e19144aab31b9",
          "width" : 64
        } ],
        "name" : "What A Friend We Have In Jesus - Hymns Of Comfort from the Classic Worship series",
        "release_date" : "2012",
        "release_date_precision" : "year",
        "total_tracks" : 10,
        "type" : "album",
        "uri" : "spotify:album:2HBqGq2e4Rbvta7y0QW0FT"
      },
      "artists" : [ {
        "external_urls" : {
          "spotify" : "https://open.spotify.com/artist/41hCpLaR1bEW5ETK3aPvDB"
        },
        "href" : "https://api.spotify.com/v1/artists/41hCpLaR1bEW5ETK3aPvDB",
        "id" : "41hCpLaR1bEW5ETK3aPvDB",
        "name" : "The Eden Symphony Orchestra",
        "type" : "artist",
        "uri" : "spotify:artist:41hCpLaR1bEW5ETK3aPvDB"
      } ],
      "disc_number" : 1,
      "duration_ms" : 315266,
      "explicit" : false,
      "external_ids" : {
        "isrc" : "USG5S1221709"
      },
      "external_urls" : {
        "spotify" : "https://open.spotify.com/track/3n714Bbrkv80Xu12pEj6tN"
      },
      "href" : "https://api.spotify.com/v1/tracks/3n714Bbrkv80Xu12pEj6tN",
      "id" : "3n714Bbrkv80Xu12pEj6tN",
      "is_local" : false,
      "is_playable" : true,
      "name" : "When I Can Read My Title Clear",
      "popularity" : 5,
      "preview_url" : "https://p.scdn.co/mp3-preview/373847405c3348ccefffeb264f68d60b90e7e727?cid=774b29d4f13844c495f206cafdad9c86",
      "track_number" : 9,
      "type" : "track",
      "uri" : "spotify:track:3n714Bbrkv80Xu12pEj6tN"
    }, {
      "album" : {
        "album_type" : "album",
        "artists" : [ {
          "external_urls" : {
            "spotify" : "https://open.spotify.com/artist/41hCpLaR1bEW5ETK3aPvDB"
          },
          "href" : "https://api.spotify.com/v1/artists/41hCpLaR1bEW5ETK3aPvDB",
          "id" : "41hCpLaR1bEW5ETK3aPvDB",
          "name" : "The Eden Symphony Orchestra",
          "type" : "artist",
          "uri" : "spotify:artist:41hCpLaR1bEW5ETK3aPvDB"
        } ],
        "external_urls" : {
          "spotify" : "https://open.spotify.com/album/5U3aPCi5KFfrC2BCcyUM9X"
        },
        "href" : "https://api.spotify.com/v1/albums/5U3aPCi5KFfrC2BCcyUM9X",
        "id" : "5U3aPCi5KFfrC2BCcyUM9X",
        "images" : [ {
          "height" : 640,
          "url" : "https://i.scdn.co/image/ab67616d0000b273786e9fbe500ec5ecfb6bafea",
          "width" : 640
        }, {
          "height" : 300,
          "url" : "https://i.scdn.co/image/ab67616d00001e02786e9fbe500ec5ecfb6bafea",
          "width" : 300
        }, {
          "height" : 64,
          "url" : "https://i.scdn.co/image/ab67616d00004851786e9fbe500ec5ecfb6bafea",
          "width" : 64
        } ],
        "name" : "Philharmonic Hymns - Orchestral Hymns Vol. 3",
        "release_date" : "2009-05-26",
        "release_date_precision" : "day",
        "total_tracks" : 10,
        "type" : "album",
        "uri" : "spotify:album:5U3aPCi5KFfrC2BCcyUM9X"
      },
      "artists" : [ {
        "external_urls" : {
          "spotify" : "https://open.spotify.com/artist/41hCpLaR1bEW5ETK3aPvDB"
        },
        "href" : "https://api.spotify.com/v1/artists/41hCpLaR1bEW5ETK3aPvDB",
        "id" : "41hCpLaR1bEW5ETK3aPvDB",
        "name" : "The Eden Symphony Orchestra",
        "type" : "artist",
        "uri" : "spotify:artist:41hCpLaR1bEW5ETK3aPvDB"
      } ],
      "disc_number" : 1,
      "duration_ms" : 318173,
      "explicit" : false,
      "external_ids" : {
        "isrc" : "GBCEU0677606"
      },
      "external_urls" : {
        "spotify" : "https://open.spotify.com/track/4KBxRmc37R55vuMWuYCGsy"
      },
      "href" : "https://api.spotify.com/v1/tracks/4KBxRmc37R55vuMWuYCGsy",
      "id" : "4KBxRmc37R55vuMWuYCGsy",
      "is_local" : false,
      "is_playable" : true,
      "name" : "When I Can Read My Title Clear",
      "popularity" : 6,
      "preview_url" : "https://p.scdn.co/mp3-preview/337677b8e20330d84dc9d9cc623d2e344655a698?cid=774b29d4f13844c495f206cafdad9c86",
      "track_number" : 6,
      "type" : "track",
      "uri" : "spotify:track:4KBxRmc37R55vuMWuYCGsy"
    }, {
      "album" : {
        "album_type" : "album",
        "artists" : [ {
          "external_urls" : {
            "spotify" : "https://open.spotify.com/artist/0zYyfhX87rISSc9dyJQK5t"
          },
          "href" : "https://api.spotify.com/v1/artists/0zYyfhX87rISSc9dyJQK5t",
          "id" : "0zYyfhX87rISSc9dyJQK5t",
          "name" : "Craig Duncan",
          "type" : "artist",
          "uri" : "spotify:artist:0zYyfhX87rISSc9dyJQK5t"
        } ],
        "external_urls" : {
          "spotify" : "https://open.spotify.com/album/1DllMh1zW5OgTVYtBNme9B"
        },
        "href" : "https://api.spotify.com/v1/albums/1DllMh1zW5OgTVYtBNme9B",
        "id" : "1DllMh1zW5OgTVYtBNme9B",
        "images" : [ {
          "height" : 640,
          "url" : "https://i.scdn.co/image/ab67616d0000b27301e8e2615be311a576a0b374",
          "width" : 640
        }, {
          "height" : 300,
          "url" : "https://i.scdn.co/image/ab67616d00001e0201e8e2615be311a576a0b374",
          "width" : 300
        }, {
          "height" : 64,
          "url" : "https://i.scdn.co/image/ab67616d0000485101e8e2615be311a576a0b374",
          "width" : 64
        } ],
        "name" : "Colonial Hymns",
        "release_date" : "2019-05-10",
        "release_date_precision" : "day",
        "total_tracks" : 14,
        "type" : "album",
        "uri" : "spotify:album:1DllMh1zW5OgTVYtBNme9B"
      },
      "artists" : [ {
        "external_urls" : {
          "spotify" : "https://open.spotify.com/artist/0zYyfhX87rISSc9dyJQK5t"
        },
        "href" : "https://api.spotify.com/v1/artists/0zYyfhX87rISSc9dyJQK5t",
        "id" : "0zYyfhX87rISSc9dyJQK5t",
        "name" : "Craig Duncan",
        "type" : "artist",
        "uri" : "spotify:artist:0zYyfhX87rISSc9dyJQK5t"
      } ],
      "disc_number" : 1,
      "duration_ms" : 186053,
      "explicit" : false,
      "external_ids" : {
        "isrc" : "US86A1800097"
      },
      "external_urls" : {
        "spotify" : "https://open.spotify.com/track/3fpItrToud75rCE14njljJ"
      },
      "href" : "https://api.spotify.com/v1/tracks/3fpItrToud75rCE14njljJ",
      "id" : "3fpItrToud75rCE14njljJ",
      "is_local" : false,
      "is_playable" : true,
      "name" : "When I Can Read My Title Clear",
      "popularity" : 4,
      "preview_url" : null,
      "track_number" : 8,
      "type" : "track",
      "uri" : "spotify:track:3fpItrToud75rCE14njljJ"
    }, {
      "album" : {
        "album_type" : "album",
        "artists" : [ {
          "external_urls" : {
            "spotify" : "https://open.spotify.com/artist/7hEbJvh3BAedDS2vVJvx0B"
          },
          "href" : "https://api.spotify.com/v1/artists/7hEbJvh3BAedDS2vVJvx0B",
          "id" : "7hEbJvh3BAedDS2vVJvx0B",
          "name" : "Andy Griffith",
          "type" : "artist",
          "uri" : "spotify:artist:7hEbJvh3BAedDS2vVJvx0B"
        } ],
        "external_urls" : {
          "spotify" : "https://open.spotify.com/album/4DkFJ25wCgV10OEb3lsj30"
        },
        "href" : "https://api.spotify.com/v1/albums/4DkFJ25wCgV10OEb3lsj30",
        "id" : "4DkFJ25wCgV10OEb3lsj30",
        "images" : [ {
          "height" : 640,
          "url" : "https://i.scdn.co/image/ab67616d0000b2731ab2d685beebe0a417dffa64",
          "width" : 640
        }, {
          "height" : 300,
          "url" : "https://i.scdn.co/image/ab67616d00001e021ab2d685beebe0a417dffa64",
          "width" : 300
        }, {
          "height" : 64,
          "url" : "https://i.scdn.co/image/ab67616d000048511ab2d685beebe0a417dffa64",
          "width" : 64
        } ],
        "name" : "Bound For The Promised Land",
        "release_date" : "2005-01-01",
        "release_date_precision" : "day",
        "total_tracks" : 19,
        "type" : "album",
        "uri" : "spotify:album:4DkFJ25wCgV10OEb3lsj30"
      },
      "artists" : [ {
        "external_urls" : {
          "spotify" : "https://open.spotify.com/artist/7hEbJvh3BAedDS2vVJvx0B"
        },
        "href" : "https://api.spotify.com/v1/artists/7hEbJvh3BAedDS2vVJvx0B",
        "id" : "7hEbJvh3BAedDS2vVJvx0B",
        "name" : "Andy Griffith",
        "type" : "artist",
        "uri" : "spotify:artist:7hEbJvh3BAedDS2vVJvx0B"
      } ],
      "disc_number" : 1,
      "duration_ms" : 207626,
      "explicit" : false,
      "external_ids" : {
        "isrc" : "USSP39719175"
      },
      "external_urls" : {
        "spotify" : "https://open.spotify.com/track/5TEF7YMctSjfklnsrKzP59"
      },
      "href" : "https://api.spotify.com/v1/tracks/5TEF7YMctSjfklnsrKzP59",
      "id" : "5TEF7YMctSjfklnsrKzP59",
      "is_local" : false,
      "is_playable" : true,
      "name" : "When I Can Read My Title Clear - Just As I Am Album Version",
      "popularity" : 4,
      "preview_url" : null,
      "track_number" : 12,
      "type" : "track",
      "uri" : "spotify:track:5TEF7YMctSjfklnsrKzP59"
    }, {
      "album" : {
        "album_type" : "album",
        "artists" : [ {
          "external_urls" : {
            "spotify" : "https://open.spotify.com/artist/0Pgjlpkp7sTCZjNTfIRBa7"
          },
          "href" : "https://api.spotify.com/v1/artists/0Pgjlpkp7sTCZjNTfIRBa7",
          "id" : "0Pgjlpkp7sTCZjNTfIRBa7",
          "name" : "Joyful Harps",
          "type" : "artist",
          "uri" : "spotify:artist:0Pgjlpkp7sTCZjNTfIRBa7"
        } ],
        "external_urls" : {
          "spotify" : "https://open.spotify.com/album/1qa7pMJL5NtMYVaDbpBEyR"
        },
        "href" : "https://api.spotify.com/v1/albums/1qa7pMJL5NtMYVaDbpBEyR",
        "id" : "1qa7pMJL5NtMYVaDbpBEyR",
        "images" : [ {
          "height" : 640,
          "url" : "https://i.scdn.co/image/ab67616d0000b273abf741845b60db952f11c6a4",
          "width" : 640
        }, {
          "height" : 300,
          "url" : "https://i.scdn.co/image/ab67616d00001e02abf741845b60db952f11c6a4",
          "width" : 300
        }, {
          "height" : 64,
          "url" : "https://i.scdn.co/image/ab67616d00004851abf741845b60db952f11c6a4",
          "width" : 64
        } ],
        "name" : "Joyful Harps Hymns",
        "release_date" : "2003-04-01",
        "release_date_precision" : "day",
        "total_tracks" : 18,
        "type" : "album",
        "uri" : "spotify:album:1qa7pMJL5NtMYVaDbpBEyR"
      },
      "artists" : [ {
        "external_urls" : {
          "spotify" : "https://open.spotify.com/artist/0Pgjlpkp7sTCZjNTfIRBa7"
        },
        "href" : "https://api.spotify.com/v1/artists/0Pgjlpkp7sTCZjNTfIRBa7",
        "id" : "0Pgjlpkp7sTCZjNTfIRBa7",
        "name" : "Joyful Harps",
        "type" : "artist",
        "uri" : "spotify:artist:0Pgjlpkp7sTCZjNTfIRBa7"
      } ],
      "disc_number" : 1,
      "duration_ms" : 152146,
      "explicit" : false,
      "external_ids" : {
        "isrc" : "uscgh1204293"
      },
      "external_urls" : {
        "spotify" : "https://open.spotify.com/track/4TwUI9IZJxRUq9Od75dxnA"
      },
      "href" : "https://api.spotify.com/v1/tracks/4TwUI9IZJxRUq9Od75dxnA",
      "id" : "4TwUI9IZJxRUq9Od75dxnA",
      "is_local" : false,
      "is_playable" : true,
      "name" : "When I Can Read My Title Clear",
      "popularity" : 3,
      "preview_url" : "https://p.scdn.co/mp3-preview/60922c93b8210ed07b38673677eec6fb80c52919?cid=774b29d4f13844c495f206cafdad9c86",
      "track_number" : 7,
      "type" : "track",
      "uri" : "spotify:track:4TwUI9IZJxRUq9Od75dxnA"
    }, {
      "album" : {
        "album_type" : "album",
        "artists" : [ {
          "external_urls" : {
            "spotify" : "https://open.spotify.com/artist/0NqljPX0DaLMo0PvSPhy5m"
          },
          "href" : "https://api.spotify.com/v1/artists/0NqljPX0DaLMo0PvSPhy5m",
          "id" : "0NqljPX0DaLMo0PvSPhy5m",
          "name" : "Northland Baptist Bible College",
          "type" : "artist",
          "uri" : "spotify:artist:0NqljPX0DaLMo0PvSPhy5m"
        } ],
        "external_urls" : {
          "spotify" : "https://open.spotify.com/album/63cxUQUWqKrs2eZlgk6is1"
        },
        "href" : "https://api.spotify.com/v1/albums/63cxUQUWqKrs2eZlgk6is1",
        "id" : "63cxUQUWqKrs2eZlgk6is1",
        "images" : [ {
          "height" : 640,
          "url" : "https://i.scdn.co/image/ab67616d0000b27311d4c643d5865c3b5f9e8e9a",
          "width" : 640
        }, {
          "height" : 300,
          "url" : "https://i.scdn.co/image/ab67616d00001e0211d4c643d5865c3b5f9e8e9a",
          "width" : 300
        }, {
          "height" : 64,
          "url" : "https://i.scdn.co/image/ab67616d0000485111d4c643d5865c3b5f9e8e9a",
          "width" : 64
        } ],
        "name" : "Reflections",
        "release_date" : "2000-01-28",
        "release_date_precision" : "day",
        "total_tracks" : 21,
        "type" : "album",
        "uri" : "spotify:album:63cxUQUWqKrs2eZlgk6is1"
      },
      "artists" : [ {
        "external_urls" : {
          "spotify" : "https://open.spotify.com/artist/0NqljPX0DaLMo0PvSPhy5m"
        },
        "href" : "https://api.spotify.com/v1/artists/0NqljPX0DaLMo0PvSPhy5m",
        "id" : "0NqljPX0DaLMo0PvSPhy5m",
        "name" : "Northland Baptist Bible College",
        "type" : "artist",
        "uri" : "spotify:artist:0NqljPX0DaLMo0PvSPhy5m"
      } ],
      "disc_number" : 1,
      "duration_ms" : 112040,
      "explicit" : false,
      "external_ids" : {
        "isrc" : "uscgh1865001"
      },
      "external_urls" : {
        "spotify" : "https://open.spotify.com/track/4fQcG8Rw1Davh2natEmB0f"
      },
      "href" : "https://api.spotify.com/v1/tracks/4fQcG8Rw1Davh2natEmB0f",
      "id" : "4fQcG8Rw1Davh2natEmB0f",
      "is_local" : false,
      "is_playable" : true,
      "name" : "When I Can Read My Title Clear",
      "popularity" : 3,
      "preview_url" : "https://p.scdn.co/mp3-preview/e3e82a1006c1eb8374351f7609049773171e6836?cid=774b29d4f13844c495f206cafdad9c86",
      "track_number" : 7,
      "type" : "track",
      "uri" : "spotify:track:4fQcG8Rw1Davh2natEmB0f"
    }, {
      "album" : {
        "album_type" : "album",
        "artists" : [ {
          "external_urls" : {
            "spotify" : "https://open.spotify.com/artist/0zYyfhX87rISSc9dyJQK5t"
          },
          "href" : "https://api.spotify.com/v1/artists/0zYyfhX87rISSc9dyJQK5t",
          "id" : "0zYyfhX87rISSc9dyJQK5t",
          "name" : "Craig Duncan",
          "type" : "artist",
          "uri" : "spotify:artist:0zYyfhX87rISSc9dyJQK5t"
        } ],
        "external_urls" : {
          "spotify" : "https://open.spotify.com/album/31kbVC5u0GWkl9L3Kea92Q"
        },
        "href" : "https://api.spotify.com/v1/albums/31kbVC5u0GWkl9L3Kea92Q",
        "id" : "31kbVC5u0GWkl9L3Kea92Q",
        "images" : [ {
          "height" : 640,
          "url" : "https://i.scdn.co/image/ab67616d0000b273bbada19f263abf5ee0a55393",
          "width" : 640
        }, {
          "height" : 300,
          "url" : "https://i.scdn.co/image/ab67616d00001e02bbada19f263abf5ee0a55393",
          "width" : 300
        }, {
          "height" : 64,
          "url" : "https://i.scdn.co/image/ab67616d00004851bbada19f263abf5ee0a55393",
          "width" : 64
        } ],
        "name" : "New England Sunday",
        "release_date" : "2001-01-01",
        "release_date_precision" : "day",
        "total_tracks" : 14,
        "type" : "album",
        "uri" : "spotify:album:31kbVC5u0GWkl9L3Kea92Q"
      },
      "artists" : [ {
        "external_urls" : {
          "spotify" : "https://open.spotify.com/artist/0zYyfhX87rISSc9dyJQK5t"
        },
        "href" : "https://api.spotify.com/v1/artists/0zYyfhX87rISSc9dyJQK5t",
        "id" : "0zYyfhX87rISSc9dyJQK5t",
        "name" : "Craig Duncan",
        "type" : "artist",
        "uri" : "spotify:artist:0zYyfhX87rISSc9dyJQK5t"
      } ],
      "disc_number" : 1,
      "duration_ms" : 229026,
      "explicit" : false,
      "external_ids" : {
        "isrc" : "USB4U0850331"
      },
      "external_urls" : {
        "spotify" : "https://open.spotify.com/track/41SCx9lXjF9NYrnv9xDLlW"
      },
      "href" : "https://api.spotify.com/v1/tracks/41SCx9lXjF9NYrnv9xDLlW",
      "id" : "41SCx9lXjF9NYrnv9xDLlW",
      "is_local" : false,
      "is_playable" : true,
      "name" : "When I Can Read My Title Clear - New England Sunday Album Version",
      "popularity" : 2,
      "preview_url" : null,
      "track_number" : 9,
      "type" : "track",
      "uri" : "spotify:track:41SCx9lXjF9NYrnv9xDLlW"
    }, {
      "album" : {
        "album_type" : "album",
        "artists" : [ {
          "external_urls" : {
            "spotify" : "https://open.spotify.com/artist/7hEbJvh3BAedDS2vVJvx0B"
          },
          "href" : "https://api.spotify.com/v1/artists/7hEbJvh3BAedDS2vVJvx0B",
          "id" : "7hEbJvh3BAedDS2vVJvx0B",
          "name" : "Andy Griffith",
          "type" : "artist",
          "uri" : "spotify:artist:7hEbJvh3BAedDS2vVJvx0B"
        } ],
        "external_urls" : {
          "spotify" : "https://open.spotify.com/album/7lVJzZ0prP7pi2QVEoiXCM"
        },
        "href" : "https://api.spotify.com/v1/albums/7lVJzZ0prP7pi2QVEoiXCM",
        "id" : "7lVJzZ0prP7pi2QVEoiXCM",
        "images" : [ {
          "height" : 640,
          "url" : "https://i.scdn.co/image/ab67616d0000b2732c9b9fee1783fc9c5edb1a97",
          "width" : 640
        }, {
          "height" : 300,
          "url" : "https://i.scdn.co/image/ab67616d00001e022c9b9fee1783fc9c5edb1a97",
          "width" : 300
        }, {
          "height" : 64,
          "url" : "https://i.scdn.co/image/ab67616d000048512c9b9fee1783fc9c5edb1a97",
          "width" : 64
        } ],
        "name" : "Just As I Am",
        "release_date" : "1998-01-01",
        "release_date_precision" : "day",
        "total_tracks" : 14,
        "type" : "album",
        "uri" : "spotify:album:7lVJzZ0prP7pi2QVEoiXCM"
      },
      "artists" : [ {
        "external_urls" : {
          "spotify" : "https://open.spotify.com/artist/7hEbJvh3BAedDS2vVJvx0B"
        },
        "href" : "https://api.spotify.com/v1/artists/7hEbJvh3BAedDS2vVJvx0B",
        "id" : "7hEbJvh3BAedDS2vVJvx0B",
        "name" : "Andy Griffith",
        "type" : "artist",
        "uri" : "spotify:artist:7hEbJvh3BAedDS2vVJvx0B"
      } ],
      "disc_number" : 1,
      "duration_ms" : 208560,
      "explicit" : false,
      "external_ids" : {
        "isrc" : "USSP39719175"
      },
      "external_urls" : {
        "spotify" : "https://open.spotify.com/track/74ZyjEwJc4XdB5SZgDFKMD"
      },
      "href" : "https://api.spotify.com/v1/tracks/74ZyjEwJc4XdB5SZgDFKMD",
      "id" : "74ZyjEwJc4XdB5SZgDFKMD",
      "is_local" : false,
      "is_playable" : true,
      "name" : "When I Can Read My Title Clear - Just As I Am Album Version",
      "popularity" : 2,
      "preview_url" : null,
      "track_number" : 5,
      "type" : "track",
      "uri" : "spotify:track:74ZyjEwJc4XdB5SZgDFKMD"
    }, {
      "album" : {
        "album_type" : "album",
        "artists" : [ {
          "external_urls" : {
            "spotify" : "https://open.spotify.com/artist/6Bkx9REaO3BuO1hSW5Hyrn"
          },
          "href" : "https://api.spotify.com/v1/artists/6Bkx9REaO3BuO1hSW5Hyrn",
          "id" : "6Bkx9REaO3BuO1hSW5Hyrn",
          "name" : "Michael Faircloth",
          "type" : "artist",
          "uri" : "spotify:artist:6Bkx9REaO3BuO1hSW5Hyrn"
        } ],
        "external_urls" : {
          "spotify" : "https://open.spotify.com/album/6f060RSJZ8aSj9qtZADI6x"
        },
        "href" : "https://api.spotify.com/v1/albums/6f060RSJZ8aSj9qtZADI6x",
        "id" : "6f060RSJZ8aSj9qtZADI6x",
        "images" : [ {
          "height" : 640,
          "url" : "https://i.scdn.co/image/ab67616d0000b27345abfb95a3fcdd6ff6485742",
          "width" : 640
        }, {
          "height" : 300,
          "url" : "https://i.scdn.co/image/ab67616d00001e0245abfb95a3fcdd6ff6485742",
          "width" : 300
        }, {
          "height" : 64,
          "url" : "https://i.scdn.co/image/ab67616d0000485145abfb95a3fcdd6ff6485742",
          "width" : 64
        } ],
        "name" : "Retrospect",
        "release_date" : "2016-06-23",
        "release_date_precision" : "day",
        "total_tracks" : 16,
        "type" : "album",
        "uri" : "spotify:album:6f060RSJZ8aSj9qtZADI6x"
      },
      "artists" : [ {
        "external_urls" : {
          "spotify" : "https://open.spotify.com/artist/6Bkx9REaO3BuO1hSW5Hyrn"
        },
        "href" : "https://api.spotify.com/v1/artists/6Bkx9REaO3BuO1hSW5Hyrn",
        "id" : "6Bkx9REaO3BuO1hSW5Hyrn",
        "name" : "Michael Faircloth",
        "type" : "artist",
        "uri" : "spotify:artist:6Bkx9REaO3BuO1hSW5Hyrn"
      } ],
      "disc_number" : 1,
      "duration_ms" : 112666,
      "explicit" : false,
      "external_ids" : {
        "isrc" : "usdy41675735"
      },
      "external_urls" : {
        "spotify" : "https://open.spotify.com/track/2sIZFVIloRsVm8yar1LTeh"
      },
      "href" : "https://api.spotify.com/v1/tracks/2sIZFVIloRsVm8yar1LTeh",
      "id" : "2sIZFVIloRsVm8yar1LTeh",
      "is_local" : false,
      "is_playable" : true,
      "name" : "When I Can Read My Title Clear",
      "popularity" : 1,
      "preview_url" : "https://p.scdn.co/mp3-preview/9e70783aff05addd404122e94a23826109b50c95?cid=774b29d4f13844c495f206cafdad9c86",
      "track_number" : 15,
      "type" : "track",
      "uri" : "spotify:track:2sIZFVIloRsVm8yar1LTeh"
    }, {
      "album" : {
        "album_type" : "album",
        "artists" : [ {
          "external_urls" : {
            "spotify" : "https://open.spotify.com/artist/3nqrTwfETw61RiMJRUCZfA"
          },
          "href" : "https://api.spotify.com/v1/artists/3nqrTwfETw61RiMJRUCZfA",
          "id" : "3nqrTwfETw61RiMJRUCZfA",
          "name" : "Dehlia Low",
          "type" : "artist",
          "uri" : "spotify:artist:3nqrTwfETw61RiMJRUCZfA"
        } ],
        "external_urls" : {
          "spotify" : "https://open.spotify.com/album/1wTvk5dzXu8w8CdsCFu3pi"
        },
        "href" : "https://api.spotify.com/v1/albums/1wTvk5dzXu8w8CdsCFu3pi",
        "id" : "1wTvk5dzXu8w8CdsCFu3pi",
        "images" : [ {
          "height" : 640,
          "url" : "https://i.scdn.co/image/ab67616d0000b27300a6684a81d2c7c2569906e6",
          "width" : 640
        }, {
          "height" : 300,
          "url" : "https://i.scdn.co/image/ab67616d00001e0200a6684a81d2c7c2569906e6",
          "width" : 300
        }, {
          "height" : 64,
          "url" : "https://i.scdn.co/image/ab67616d0000485100a6684a81d2c7c2569906e6",
          "width" : 64
        } ],
        "name" : "Dehlia Low",
        "release_date" : "2008-02-14",
        "release_date_precision" : "day",
        "total_tracks" : 8,
        "type" : "album",
        "uri" : "spotify:album:1wTvk5dzXu8w8CdsCFu3pi"
      },
      "artists" : [ {
        "external_urls" : {
          "spotify" : "https://open.spotify.com/artist/3nqrTwfETw61RiMJRUCZfA"
        },
        "href" : "https://api.spotify.com/v1/artists/3nqrTwfETw61RiMJRUCZfA",
        "id" : "3nqrTwfETw61RiMJRUCZfA",
        "name" : "Dehlia Low",
        "type" : "artist",
        "uri" : "spotify:artist:3nqrTwfETw61RiMJRUCZfA"
      } ],
      "disc_number" : 1,
      "duration_ms" : 144840,
      "explicit" : false,
      "external_ids" : {
        "isrc" : "usx9p0616008"
      },
      "external_urls" : {
        "spotify" : "https://open.spotify.com/track/3xgiSkuE3lzcDT4TcXaZ2X"
      },
      "href" : "https://api.spotify.com/v1/tracks/3xgiSkuE3lzcDT4TcXaZ2X",
      "id" : "3xgiSkuE3lzcDT4TcXaZ2X",
      "is_local" : false,
      "is_playable" : true,
      "name" : "When I Can Read My Title Clear",
      "popularity" : 1,
      "preview_url" : "https://p.scdn.co/mp3-preview/96a232f75434d63d8f49cb6822c02e6663e16ef1?cid=774b29d4f13844c495f206cafdad9c86",
      "track_number" : 7,
      "type" : "track",
      "uri" : "spotify:track:3xgiSkuE3lzcDT4TcXaZ2X"
    } ],
    "limit" : 10,
    "next" : "https://api.spotify.com/v1/search?query=When+I+Can+Read+My+Title+Clear&type=track&market=US&offset=15&limit=10",
    "offset" : 5,
    "previous" : "https://api.spotify.com/v1/search?query=When+I+Can+Read+My+Title+Clear&type=track&market=US&offset=0&limit=10",
    "total" : 47
  }
}