{
  "tracks" : {
    "href" : "https://api.spotify.com/v1/search?query=Lo%21+He+Comes&type=track&market=US&offset=5&limit=10",
    "items" : [ {
      "album" : {
        "album_type" : "album",
        "artists" : [ {
          "external_urls" : {
            "spotify" : "https://open.spotify.com/artist/1dgKyJ17rujJe8wpFaX67v"
          },
          "href" : "https://api.spotify.com/v1/artists/1dgKyJ17rujJe8wpFaX67v",
          "id" : "1dgKyJ17rujJe8wpFaX67v",
          "name" : "Dream on Dreamer",
          "type" : "artist",
          "uri" : "spotify:artist:1dgKyJ17rujJe8wpFaX67v"
        } ],
        "external_urls" : {
          "spotify" : "https://open.spotify.com/album/5cmBBkwSbAgkAWl4o81zQq"
        },
        "href" : "https://api.spotify.com/v1/albums/5cmBBkwSbAgkAWl4o81zQq",
        "id" : "5cmBBkwSbAgkAWl4o81zQq",
        "images" : [ {
          "height" : 640,
          "url" : "https://i.scdn.co/image/ab67616d0000b273c054ab65f1bb08292b92dfe9",
          "width" : 640
        }, {
          "height" : 300,
          "url" : "https://i.scdn.co/image/ab67616d00001e02c054ab65f1bb08292b92dfe9",
          "width" : 300
        }, {
          "height" : 64,
          "url" : "https://i.scdn.co/image/ab67616d00004851c054ab65f1bb08292b92dfe9",
          "width" : 64
        } ],
        "name" : "It Comes and Goes",
        "release_date" : "2018-05-25",
        "release_date_precision" : "day",
        "total_tracks" : 10,
        "type" : "album",
        "uri" : "spotify:album:5cmBBkwSbAgkAWl4o81zQq"
      },
      "artists" : [ {
        "external_urls" : {
          "spotify" : "https://open.spotify.com/artist/1dgKyJ17rujJe8wpFaX67v"
        },
        "href" : "https://api.spotify.com/v1/artists/1dgKyJ17rujJe8wpFaX67v",
        "id" : "1dgKyJ17rujJe8wpFaX67v",
        "name" : "Dream on Dreamer",
        "type" : "artist",
        "uri" : "spotify:artist:1dgKyJ17rujJe8wpFaX67v"
      }, {
        "external_urls" : {
          "spotify" : "https://open.spotify.com/artist/5g6QAQSNRMicds6kB7MDQM"
        },
        "href" : "https://api.spotify.com/v1/artists/5g6QAQSNRMicds6kB7MDQM",
        "id" : "5g6QAQSNRMicds6kB7MDQM",
        "name" : "Jarrad Salton",
        "type" : "artist",
        "uri" : "spotify:artist:5g6QAQSNRMicds6kB7MDQM"
      } ],
      "disc_number" : 1,
      "duration_ms" : 330720,
      "explicit" : false,
      "external_ids" : {
        "isrc" : "TCACG1549559"
      },
      "external_urls" : {
        "spotify" : "https://open.spotify.com/track/4wd1eU3JPtYSxJ7Ned2QBc"
      },
      "href" : "https://api.spotify.com/v1/tracks/4wd1eU3JPtYSxJ7Ned2QBc",
      "id" : "4wd1eU3JPtYSxJ7Ned2QBc",
      "is_local" : false,
      "is_playable" : true,
      "name" : "Don't Lose Your Heart",
      "popularity" : 42,
      "preview_url" : "https://p.scdn.co/mp3-preview/cab6f8cc0b4f33d02787be1984c280d61c1cb62f?cid=774b29d4f13844c495f206cafdad9c86",
      "track_number" : 8,
      "type" : "track",
      "uri" : "spotify:track:4wd1eU3JPtYSxJ7Ned2QBc"
    }, {
      "album" : {
        "album_type" : "album",
        "artists" : [ {
          "external_urls" : {
            "spotify" : "https://open.spotify.com/artist/0SCbttzoZTnLFebDYmAWCm"
          },
          "href" : "https://api.spotify.com/v1/artists/0SCbttzoZTnLFebDYmAWCm",
          "id" : "0SCbttzoZTnLFebDYmAWCm",
          "name" : "Glee Cast",
          "type" : "artist",
          "uri" : "spotify:artist:0SCbttzoZTnLFebDYmAWCm"
        } ],
        "external_urls" : {
          "spotify" : "https://open.spotify.com/album/3KBEd0g6IVgYD5bQGpClGI"
        },
        "href" : "https://api.spotify.com/v1/albums/3KBEd0g6IVgYD5bQGpClGI",
        "id" : "3KBEd0g6IVgYD5bQGpClGI",
        "images" : [ {
          "height" : 640,
          "url" : "https://i.scdn.co/image/ab67616d0000b273384e0957e6b5f7f70bfbee53",
          "width" : 640
        }, {
          "height" : 300,
          "url" : "https://i.scdn.co/image/ab67616d00001e02384e0957e6b5f7f70bfbee53",
          "width" : 300
        }, {
          "height" : 64,
          "url" : "https://i.scdn.co/image/ab67616d00004851384e0957e6b5f7f70bfbee53",
          "width" : 64
        } ],
        "name" : "Glee Sings The Beatles",
        "release_date" : "2013-09-24",
        "release_date_precision" : "day",
        "total_tracks" : 14,
        "type" : "album",
        "uri" : "spotify:album:3KBEd0g6IVgYD5bQGpClGI"
      },
      "artists" : [ {
        "external_urls" : {
          "spotify" : "https://open.spotify.com/artist/0SCbttzoZTnLFebDYmAWCm"
        },
        "href" : "https://api.spotify.com/v1/artists/0SCbttzoZTnLFebDYmAWCm",
        "id" : "0SCbttzoZTnLFebDYmAWCm",
        "name" : "Glee Cast",
        "type" : "artist",
        "uri" : "spotify:artist:0SCbttzoZTnLFebDYmAWCm"
      }, {
        "external_urls" : {
          "spotify" : "https://open.spotify.com/artist/6S2OmqARrzebs0tKUEyXyp"
        },
        "href" : "https://api.spotify.com/v1/artists/6S2OmqARrzebs0tKUEyXyp",
        "id" : "6S2OmqARrzebs0tKUEyXyp",
        "name" : "Demi Lovato",
        "type" : "artist",
        "uri" : "spotify:artist:6S2OmqARrzebs0tKUEyXyp"
      } ],
      "disc_number" : 1,
      "duration_ms" : 180453,
      "explicit" : false,
      "external_ids" : {
        "isrc" : "USQX91301876"
      },
      "external_urls" : {
        "spotify" : "https://open.spotify.com/track/7oUqrkz1A5D6XIVZUya44D"
      },
      "href" : "https://api.spotify.com/v1/tracks/7oUqrkz1A5D6XIVZUya44D",
      "id" : "7oUqrkz1A5D6XIVZUya44D",
      "is_local" : false,
      "is_playable" : true,
      "name" : "Here Comes The Sun (Glee Cast Version) (feat. Demi Lovato)",
      "popularity" : 45,
      "preview_url" : "https://p.scdn.co/mp3-preview/d196d793cb8a624ae6bfcf02d7766657d7dab122?cid=774b29d4f13844c495f206cafdad9c86",
      "track_number" : 10,
      "type" : "track",
      "uri" : "spotify:track:7oUqrkz1A5D6XIVZUya44D"
    }, {
      "album" : {
        "album_type" : "album",
        "artists" : [ {
          "external_urls" : {
            "spotify" : "https://open.spotify.com/artist/2x9SpqnPi8rlE9pjHBwmSC"
          },
          "href" : "https://api.spotify.com/v1/artists/2x9SpqnPi8rlE9pjHBwmSC",
          "id" : "2x9SpqnPi8rlE9pjHBwmSC",
          "name" : "Talking Heads",
          "type" : "artist",
          "uri" : "spotify:artist:2x9SpqnPi8rlE9pjHBwmSC"
        } ],
        "external_urls" : {
          "spotify" : "https://open.spotify.com/album/0r7o2FeARRr23EZ0TJ0a8S"
        },
        "href" : "https://api.spotify.com/v1/albums/0r7o2FeARRr23EZ0TJ0a8S",
        "id" : "0r7o2FeARRr23EZ0TJ0a8S",
        "images" : [ {
          "height" : 640,
          "url" : "https://i.scdn.co/image/ab67616d0000b273b74dc29f68a36438421a9f1d",
          "width" : 640
        }, {
          "height" : 300,
          "url" : "https://i.scdn.co/image/ab67616d00001e02b74dc29f68a36438421a9f1d",
          "width" : 300
        }, {
          "height" : 64,
          "url" : "https://i.scdn.co/image/ab67616d00004851b74dc29f68a36438421a9f1d",
          "width" : 64
        } ],
        "name" : "Talking Heads '77",
        "release_date" : "1977-09-16",
        "release_date_precision" : "day",
        "total_tracks" : 11,
        "type" : "album",
        "uri" : "spotify:album:0r7o2FeARRr23EZ0TJ0a8S"
      },
      "artists" : [ {
        "external_urls" : {
          "spotify" : "https://open.spotify.com/artist/2x9SpqnPi8rlE9pjHBwmSC"
        },
        "href" : "https://api.spotify.com/v1/artists/2x9SpqnPi8rlE9pjHBwmSC",
        "id" : "2x9SpqnPi8rlE9pjHBwmSC",
        "name" : "Talking Heads",
        "type" : "artist",
        "uri" : "spotify:artist:2x9SpqnPi8rlE9pjHBwmSC"
      } ],
      "disc_number" : 1,
      "duration_ms" : 169160,
      "explicit" : false,
      "external_ids" : {
        "isrc" : "USWB10101176"
      },
      "external_urls" : {
        "spotify" : "https://open.spotify.com/track/06JKOTOoHXuuKkiSBDdU6n"
      },
      "href" : "https://api.spotify.com/v1/tracks/06JKOTOoHXuuKkiSBDdU6n",
      "id" : "06JKOTOoHXuuKkiSBDdU6n",
      "is_local" : false,
      "is_playable" : true,
      "name" : "Uh-Oh, Love Comes to Town",
      "popularity" : 32,
      "preview_url" : "https://p.scdn.co/mp3-preview/e27ea798411962b84164956adfd9dba2da9fac4c?cid=774b29d4f13844c495f206cafdad9c86",
      "track_number" : 1,
      "type" : "track",
      "uri" : "spotify:track:06JKOTOoHXuuKkiSBDdU6n"
    }, {
      "album" : {
        "album_type" : "album",
        "artists" : [ {
          "external_urls" : {
            "spotify" : "https://open.spotify.com/artist/415JrPfN7ukaTu8JV8BLE8"
          },
          "href" : "https://api.spotify.com/v1/artists/415JrPfN7ukaTu8JV8BLE8",
          "id" : "415JrPfN7ukaTu8JV8BLE8",
          "name" : "Local H",
          "type" : "artist",
          "uri" : "spotify:artist:415JrPfN7ukaTu8JV8BLE8"
        } ],
        "external_urls" : {
          "spotify" : "https://open.spotify.com/album/1fe6p2jHImbtMmgMjeBbCu"
        },
        "href" : "https://api.spotify.com/v1/albums/1fe6p2jHImbtMmgMjeBbCu",
        "id" : "1fe6p2jHImbtMmgMjeBbCu",
        "images" : [ {
          "height" : 640,
          "url" : "https://i.scdn.co/image/ab67616d0000b2734d131a8ad843cea454d83b78",
          "width" : 640
        }, {
          "height" : 300,
          "url" : "https://i.scdn.co/image/ab67616d00001e024d131a8ad843cea454d83b78",
          "width" : 300
        }, {
          "height" : 64,
          "url" : "https://i.scdn.co/image/ab67616d000048514d131a8ad843cea454d83b78",
          "width" : 64
        } ],
        "name" : "Here Comes The Zoo",
        "release_date" : "2002",
        "release_date_precision" : "year",
        "total_tracks" : 10,
        "type" : "album",
        "uri" : "spotify:album:1fe6p2jHImbtMmgMjeBbCu"
      },
      "artists" : [ {
        "external_urls" : {
          "spotify" : "https://open.spotify.com/artist/415JrPfN7ukaTu8JV8BLE8"
        },
        "href" : "https://api.spotify.com/v1/artists/415JrPfN7ukaTu8JV8BLE8",
        "id" : "415JrPfN7ukaTu8JV8BLE8",
        "name" : "Local H",
        "type" : "artist",
        "uri" : "spotify:artist:415JrPfN7ukaTu8JV8BLE8"
      } ],
      "disc_number" : 1,
      "duration_ms" : 237160,
      "explicit" : false,
      "external_ids" : {
        "isrc" : "USPA30100119"
      },
      "external_urls" : {
        "spotify" : "https://open.spotify.com/track/44DREpvDIlWawL3b4BqOnI"
      },
      "href" : "https://api.spotify.com/v1/tracks/44DREpvDIlWawL3b4BqOnI",
      "id" : "44DREpvDIlWawL3b4BqOnI",
      "is_local" : false,
      "is_playable" : true,
      "name" : "Hands On The Bible",
      "popularity" : 39,
      "preview_url" : "https://p.scdn.co/mp3-preview/add0d6064f0998f8093da85568183a5be4599fc3?cid=774b29d4f13844c495f206cafdad9c86",
      "track_number" : 1,
      "type" : "track",
      "uri" : "spotify:track:44DREpvDIlWawL3b4BqOnI"
    }, {
      "album" : {
        "album_type" : "album",
        "artists" : [ {
          "external_urls" : {
            "spotify" : "https://open.spotify.com/artist/0Ya43ZKWHTKkAbkoJJkwIB"
          },
          "href" : "https://api.spotify.com/v1/artists/0Ya43ZKWHTKkAbkoJJkwIB",
          "id" : "0Ya43ZKWHTKkAbkoJJkwIB",
          "name" : "The Wombats",
          "type" : "artist",
          "uri" : "spotify:artist:0Ya43ZKWHTKkAbkoJJkwIB"
        } ],
        "external_urls" : {
          "spotify" : "https://open.spotify.com/album/03403404Rwa4suo4nzYyUY"
        },
        "href" : "https://api.spotify.com/v1/albums/03403404Rwa4suo4nzYyUY",
        "id" : "03403404Rwa4suo4nzYyUY",
        "images" : [ {
          "height" : 640,
          "url" : "https://i.scdn.co/image/ab67616d0000b273a0b4a5b132f8555362a7174d",
          "width" : 640
        }, {
          "height" : 300,
          "url" : "https://i.scdn.co/image/ab67616d00001e02a0b4a5b132f8555362a7174d",
          "width" : 300
        }, {
          "height" : 64,
          "url" : "https://i.scdn.co/image/ab67616d00004851a0b4a5b132f8555362a7174d",
          "width" : 64
        } ],
        "name" : "Proudly Present... A Guide to Love, Loss & Desperation (Special Edition)",
        "release_date" : "2007-07-09",
        "release_date_precision" : "day",
        "total_tracks" : 17,
        "type" : "album",
        "uri" : "spotify:album:03403404Rwa4suo4nzYyUY"
      },
      "artists" : [ {
        "external_urls" : {
          "spotify" : "https://open.spotify.com/artist/0Ya43ZKWHTKkAbkoJJkwIB"
        },
        "href" : "https://api.spotify.com/v1/artists/0Ya43ZKWHTKkAbkoJJkwIB",
        "id" : "0Ya43ZKWHTKkAbkoJJkwIB",
        "name" : "The Wombats",
        "type" : "artist",
        "uri" : "spotify:artist:0Ya43ZKWHTKkAbkoJJkwIB"
      } ],
      "disc_number" : 1,
      "duration_ms" : 151293,
      "explicit" : false,
      "external_ids" : {
        "isrc" : "GBFTG0300131"
      },
      "external_urls" : {
        "spotify" : "https://open.spotify.com/track/66CyY65ufc15TX9Rljvvbl"
      },
      "href" : "https://api.spotify.com/v1/tracks/66CyY65ufc15TX9Rljvvbl",
      "id" : "66CyY65ufc15TX9Rljvvbl",
      "is_local" : false,
      "is_playable" : true,
      "name" : "Here Comes the Anxiety",
      "popularity" : 31,
      "preview_url" : "https://p.scdn.co/mp3-preview/ed57c96c841866294ab42b05927748843da87038?cid=774b29d4f13844c495f206cafdad9c86",
      "track_number" : 7,
      "type" : "track",
      "uri" : "spotify:track:66CyY65ufc15TX9Rljvvbl"
    }, {
      "album" : {
        "album_type" : "album",
        "artists" : [ {
          "external_urls" : {
            "spotify" : "https://open.spotify.com/artist/3RNrq3jvMZxD9ZyoOZbQOD"
          },
          "href" : "https://api.spotify.com/v1/artists/3RNrq3jvMZxD9ZyoOZbQOD",
          "id" : "3RNrq3jvMZxD9ZyoOZbQOD",
          "name" : "Korn",
          "type" : "artist",
          "uri" : "spotify:artist:3RNrq3jvMZxD9ZyoOZbQOD"
        } ],
        "external_urls" : {
          "spotify" : "https://open.spotify.com/album/3487OYBtnRl82qA6tfyWco"
        },
        "href" : "https://api.spotify.com/v1/albums/3487OYBtnRl82qA6tfyWco",
        "id" : "3487OYBtnRl82qA6tfyWco",
        "images" : [ {
          "height" : 640,
          "url" : "https://i.scdn.co/image/ab67616d0000b2731db105273d8af0e255e491ec",
          "width" : 640
        }, {
          "height" : 300,
          "url" : "https://i.scdn.co/image/ab67616d00001e021db105273d8af0e255e491ec",
          "width" : 300
        }, {
          "height" : 64,
          "url" : "https://i.scdn.co/image/ab67616d000048511db105273d8af0e255e491ec",
          "width" : 64
        } ],
        "name" : "Take A Look In The Mirror",
        "release_date" : "2003-11-19",
        "release_date_precision" : "day",
        "total_tracks" : 13,
        "type" : "album",
        "uri" : "spotify:album:3487OYBtnRl82qA6tfyWco"
      },
      "artists" : [ {
        "external_urls" : {
          "spotify" : "https://open.spotify.com/artist/3RNrq3jvMZxD9ZyoOZbQOD"
        },
        "href" : "https://api.spotify.com/v1/artists/3RNrq3jvMZxD9ZyoOZbQOD",
        "id" : "3RNrq3jvMZxD9ZyoOZbQOD",
        "name" : "Korn",
        "type" : "artist",
        "uri" : "spotify:artist:3RNrq3jvMZxD9ZyoOZbQOD"
      } ],
      "disc_number" : 1,
      "duration_ms" : 213893,
      "explicit" : true,
      "external_ids" : {
        "isrc" : "USSM10313522"
      },
      "external_urls" : {
        "spotify" : "https://open.spotify.com/track/2cYPwfYnnG4UMsqgitDKDz"
      },
      "href" : "https://api.spotify.com/v1/tracks/2cYPwfYnnG4UMsqgitDKDz",
      "id" : "2cYPwfYnnG4UMsqgitDKDz",
      "is_local" : false,
      "is_playable" : true,
      "name" : "Here It Comes Again",
      "popularity" : 32,
      "preview_url" : "https://p.scdn.co/mp3-preview/4c725215399459879efa20b037280643222a71a9?cid=774b29d4f13844c495f206cafdad9c86",
      "track_number" : 4,
      "type" : "track",
      "uri" : "spotify:track:2cYPwfYnnG4UMsqgitDKDz"
    }, {
      "album" : {
        "album_type" : "album",
        "artists" : [ {
          "external_urls" : {
            "spotify" : "https://open.spotify.com/artist/49DW3KvkyjHO35mK1JnSyS"
          },
          "href" : "https://api.spotify.com/v1/artists/49DW3KvkyjHO35mK1JnSyS",
          "id" : "49DW3KvkyjHO35mK1JnSyS",
          "name" : "The Cult",
          "type" : "artist",
          "uri" : "spotify:artist:49DW3KvkyjHO35mK1JnSyS"
        } ],
        "external_urls" : {
          "spotify" : "https://open.spotify.com/album/3a24QXM3J3nv6lg8OhrleS"
        },
        "href" : "https://api.spotify.com/v1/albums/3a24QXM3J3nv6lg8OhrleS",
        "id" : "3a24QXM3J3nv6lg8OhrleS",
        "images" : [ {
          "height" : 640,
          "url" : "https://i.scdn.co/image/ab67616d0000b2730ff9a350210ae84a8ce73a3e",
          "width" : 640
        }, {
          "height" : 300,
          "url" : "https://i.scdn.co/image/ab67616d00001e020ff9a350210ae84a8ce73a3e",
          "width" : 300
        }, {
          "height" : 64,
          "url" : "https://i.scdn.co/image/ab67616d000048510ff9a350210ae84a8ce73a3e",
          "width" : 64
        } ],
        "name" : "Love (Expanded Edition)",
        "release_date" : "1985",
        "release_date_precision" : "year",
        "total_tracks" : 21,
        "type" : "album",
        "uri" : "spotify:album:3a24QXM3J3nv6lg8OhrleS"
      },
      "artists" : [ {
        "external_urls" : {
          "spotify" : "https://open.spotify.com/artist/49DW3KvkyjHO35mK1JnSyS"
        },
        "href" : "https://api.spotify.com/v1/artists/49DW3KvkyjHO35mK1JnSyS",
        "id" : "49DW3KvkyjHO35mK1JnSyS",
        "name" : "The Cult",
        "type" : "artist",
        "uri" : "spotify:artist:49DW3KvkyjHO35mK1JnSyS"
      } ],
      "disc_number" : 2,
      "duration_ms" : 379066,
      "explicit" : false,
      "external_ids" : {
        "isrc" : "GBAZP8500046"
      },
      "external_urls" : {
        "spotify" : "https://open.spotify.com/track/2E8wxLLpuIakJSiqrBoohV"
      },
      "href" : "https://api.spotify.com/v1/tracks/2E8wxLLpuIakJSiqrBoohV",
      "id" : "2E8wxLLpuIakJSiqrBoohV",
      "is_local" : false,
      "is_playable" : true,
      "name" : "(Here Comes The) Rain",
      "popularity" : 31,
      "preview_url" : "https://p.scdn.co/mp3-preview/1d0007aa9e299a0015379d7fd4e329453828c7c8?cid=774b29d4f13844c495f206cafdad9c86",
      "track_number" : 4,
      "type" : "track",
      "uri" : "spotify:track:2E8wxLLpuIakJSiqrBoohV"
    }, {
      "album" : {
        "album_type" : "compilation",
        "artists" : [ {
          "external_urls" : {
            "spotify" : "https://open.spotify.com/artist/320EPCSEezHt1rtbfwH6Ck"
          },
          "href" : "https://api.spotify.com/v1/artists/320EPCSEezHt1rtbfwH6Ck",
          "id" : "320EPCSEezHt1rtbfwH6Ck",
          "name" : "The Monkees",
          "type" : "artist",
          "uri" : "spotify:artist:320EPCSEezHt1rtbfwH6Ck"
        } ],
        "external_urls" : {
          "spotify" : "https://open.spotify.com/album/338yWfNJWW2SXxVfIdczUD"
        },
        "href" : "https://api.spotify.com/v1/albums/338yWfNJWW2SXxVfIdczUD",
        "id" : "338yWfNJWW2SXxVfIdczUD",
        "images" : [ {
          "height" : 640,
          "url" : "https://i.scdn.co/image/ab67616d0000b273700247d4f88eab4ba45bb1f3",
          "width" : 640
        }, {
          "height" : 300,
          "url" : "https://i.scdn.co/image/ab67616d00001e02700247d4f88eab4ba45bb1f3",
          "width" : 300
        }, {
          "height" : 64,
          "url" : "https://i.scdn.co/image/ab67616d00004851700247d4f88eab4ba45bb1f3",
          "width" : 64
        } ],
        "name" : "The Best of The Monkees",
        "release_date" : "2003",
        "release_date_precision" : "year",
        "total_tracks" : 25,
        "type" : "album",
        "uri" : "spotify:album:338yWfNJWW2SXxVfIdczUD"
      },
      "artists" : [ {
        "external_urls" : {
          "spotify" : "https://open.spotify.com/artist/320EPCSEezHt1rtbfwH6Ck"
        },
        "href" : "https://api.spotify.com/v1/artists/320EPCSEezHt1rtbfwH6Ck",
        "id" : "320EPCSEezHt1rtbfwH6Ck",
        "name" : "The Monkees",
        "type" : "artist",
        "uri" : "spotify:artist:320EPCSEezHt1rtbfwH6Ck"
      } ],
      "disc_number" : 1,
      "duration_ms" : 133413,
      "explicit" : false,
      "external_ids" : {
        "isrc" : "USRH10175287"
      },
      "external_urls" : {
        "spotify" : "https://open.spotify.com/track/68tmmZ7KAeiaUIvVVOOeaH"
      },
      "href" : "https://api.spotify.com/v1/tracks/68tmmZ7KAeiaUIvVVOOeaH",
      "id" : "68tmmZ7KAeiaUIvVVOOeaH",
      "is_local" : false,
      "is_playable" : true,
      "name" : "Look Out (Here Comes Tomorrow)",
      "popularity" : 32,
      "preview_url" : "https://p.scdn.co/mp3-preview/cde19e7df46eefd89c8afe66073b5051590d01c0?cid=774b29d4f13844c495f206cafdad9c86",
      "track_number" : 10,
      "type" : "track",
      "uri" : "spotify:track:68tmmZ7KAeiaUIvVVOOeaH"
    }, {
      "album" : {
        "album_type" : "album",
        "artists" : [ {
          "external_urls" : {
            "spotify" : "https://open.spotify.com/artist/121Q6oslYCMBYZHhOFL1RB"
          },
          "href" : "https://api.spotify.com/v1/artists/121Q6oslYCMBYZHhOFL1RB",
          "id" : "121Q6oslYCMBYZHhOFL1RB",
          "name" : "Richard Hell",
          "type" : "artist",
          "uri" : "spotify:artist:121Q6oslYCMBYZHhOFL1RB"
        } ],
        "external_urls" : {
          "spotify" : "https://open.spotify.com/album/0nejx6WUKHja3fesKClRCF"
        },
        "href" : "https://api.spotify.com/v1/albums/0nejx6WUKHja3fesKClRCF",
        "id" : "0nejx6WUKHja3fesKClRCF",
        "images" : [ {
          "height" : 640,
          "url" : "https://i.scdn.co/image/ab67616d0000b273a29e55234e00945e97fefab0",
          "width" : 640
        }, {
          "height" : 300,
          "url" : "https://i.scdn.co/image/ab67616d00001e02a29e55234e00945e97fefab0",
          "width" : 300
        }, {
          "height" : 64,
          "url" : "https://i.scdn.co/image/ab67616d00004851a29e55234e00945e97fefab0",
          "width" : 64
        } ],
        "name" : "Spurts: The Richard Hell Story (2013 Remaster)",
        "release_date" : "2005-08-02",
        "release_date_precision" : "day",
        "total_tracks" : 21,
        "type" : "album",
        "uri" : "spotify:album:0nejx6WUKHja3fesKClRCF"
      },
      "artists" : [ {
        "external_urls" : {
          "spotify" : "https://open.spotify.com/artist/121Q6oslYCMBYZHhOFL1RB"
        },
        "href" : "https://api.spotify.com/v1/artists/121Q6oslYCMBYZHhOFL1RB",
        "id" : "121Q6oslYCMBYZHhOFL1RB",
        "name" : "Richard Hell",
        "type" : "artist",
        "uri" : "spotify:artist:121Q6oslYCMBYZHhOFL1RB"
      } ],
      "disc_number" : 1,
      "duration_ms" : 124880,
      "explicit" : false,
      "external_ids" : {
        "isrc" : "USWB11304093"
      },
      "external_urls" : {
        "spotify" : "https://open.spotify.com/track/3V5wxq5chMSfnHV1wugyYc"
      },
      "href" : "https://api.spotify.com/v1/tracks/3V5wxq5chMSfnHV1wugyYc",
      "id" : "3V5wxq5chMSfnHV1wugyYc",
      "is_local" : false,
      "is_playable" : true,
      "name" : "Love Comes in Spurts - 2013 Remaster",
      "popularity" : 33,
      "preview_url" : "https://p.scdn.co/mp3-preview/25f809a1a6ae9143e79cb1ad37cab2091f74ea69?cid=774b29d4f13844c495f206cafdad9c86",
      "track_number" : 7,
      "type" : "track",
      "uri" : "spotify:track:3V5wxq5chMSfnHV1wugyYc"
    }, {
      "album" : {
        "album_type" : "album",
        "artists" : [ {
          "external_urls" : {
            "spotify" : "https://open.spotify.com/artist/21t0aavYGSGFkYYFhu6urk"
          },
          "href" : "https://api.spotify.com/v1/artists/21t0aavYGSGFkYYFhu6urk",
          "id" : "21t0aavYGSGFkYYFhu6urk",
          "name" : "The California Honeydrops",
          "type" : "artist",
          "uri" : "spotify:artist:21t0aavYGSGFkYYFhu6urk"
        } ],
        "external_urls" : {
          "spotify" : "https://open.spotify.com/album/1x9DUB4rsa4HE9cbGHUXOi"
        },
        "href" : "https://api.spotify.com/v1/albums/1x9DUB4rsa4HE9cbGHUXOi",
        "id" : "1x9DUB4rsa4HE9cbGHUXOi",
        "images" : [ {
          "height" : 640,
          "url" : "https://i.scdn.co/image/ab67616d0000b273b69e332e7dbbc64114d5f4f3",
          "width" : 640
        }, {
          "height" : 300,
          "url" : "https://i.scdn.co/image/ab67616d00001e02b69e332e7dbbc64114d5f4f3",
          "width" : 300
        }, {
          "height" : 64,
          "url" : "https://i.scdn.co/image/ab67616d00004851b69e332e7dbbc64114d5f4f3",
          "width" : 64
        } ],
        "name" : "Like You Mean It",
        "release_date" : "2013-03-21",
        "release_date_precision" : "day",
        "total_tracks" : 13,
        "type" : "album",
        "uri" : "spotify:album:1x9DUB4rsa4HE9cbGHUXOi"
      },
      "artists" : [ {
        "external_urls" : {
          "spotify" : "https://open.spotify.com/artist/21t0aavYGSGFkYYFhu6urk"
        },
        "href" : "https://api.spotify.com/v1/artists/21t0aavYGSGFkYYFhu6urk",
        "id" : "21t0aavYGSGFkYYFhu6urk",
        "name" : "The California Honeydrops",
        "type" : "artist",
        "uri" : "spotify:artist:21t0aavYGSGFkYYFhu6urk"
      } ],
      "disc_number" : 1,
      "duration_ms" : 260833,
      "explicit" : false,
      "external_ids" : {
        "isrc" : "USQXT1300001"
      },
      "external_urls" : {
        "spotify" : "https://open.spotify.com/track/43VssJFPX3QRMi5oY8UDda"
      },
      "href" : "https://api.spotify.com/v1/tracks/43VssJFPX3QRMi5oY8UDda",
      "id" : "43VssJFPX3QRMi5oY8UDda",
      "is_local" : false,
      "is_playable" : true,
      "name" : "Here Comes Love",
      "popularity" : 29,
      "preview_url" : "https://p.scdn.co/mp3-preview/62c894cad065a741a76ed18478508973e59de5d4?cid=774b29d4f13844c495f206cafdad9c86",
      "track_number" : 1,
      "type" : "track",
      "uri" : "spotify:track:43VssJFPX3QRMi5oY8UDda"
    } ],
    "limit" : 10,
    "next" : "https://api.spotify.com/v1/search?query=Lo%21+He+Comes&type=track&market=US&offset=15&limit=10",
    "offset" : 5,
    "previous" : "https://api.spotify.com/v1/search?query=Lo%21+He+Comes&type=track&market=US&offset=0&limit=10",
    "total" : 4581
  }
}