{
  "tracks" : {
    "href" : "https://api.spotify.com/v1/search?query=Like+Jesus&type=track&market=US&offset=5&limit=10",
    "items" : [ {
      "album" : {
        "album_type" : "album",
        "artists" : [ {
          "external_urls" : {
            "spotify" : "https://open.spotify.com/artist/2q5QIs6iibW6xyHZZRSeh2"
          },
          "href" : "https://api.spotify.com/v1/artists/2q5QIs6iibW6xyHZZRSeh2",
          "id" : "2q5QIs6iibW6xyHZZRSeh2",
          "name" : "Hyper Fenton",
          "type" : "artist",
          "uri" : "spotify:artist:2q5QIs6iibW6xyHZZRSeh2"
        }, {
          "external_urls" : {
            "spotify" : "https://open.spotify.com/artist/6MPy3PayvN8uNYA8Wm3Z4a"
          },
          "href" : "https://api.spotify.com/v1/artists/6MPy3PayvN8uNYA8Wm3Z4a",
          "id" : "6MPy3PayvN8uNYA8Wm3Z4a",
          "name" : "Moflo Music",
          "type" : "artist",
          "uri" : "spotify:artist:6MPy3PayvN8uNYA8Wm3Z4a"
        } ],
        "external_urls" : {
          "spotify" : "https://open.spotify.com/album/4dziAM5y6HeViXiF5bAGbK"
        },
        "href" : "https://api.spotify.com/v1/albums/4dziAM5y6HeViXiF5bAGbK",
        "id" : "4dziAM5y6HeViXiF5bAGbK",
        "images" : [ {
          "height" : 640,
          "url" : "https://i.scdn.co/image/ab67616d0000b273b883897f667462e2cfa3254f",
          "width" : 640
        }, {
          "height" : 300,
          "url" : "https://i.scdn.co/image/ab67616d00001e02b883897f667462e2cfa3254f",
          "width" : 300
        }, {
          "height" : 64,
          "url" : "https://i.scdn.co/image/ab67616d00004851b883897f667462e2cfa3254f",
          "width" : 64
        } ],
        "name" : "Remembering Me",
        "release_date" : "2018-05-13",
        "release_date_precision" : "day",
        "total_tracks" : 9,
        "type" : "album",
        "uri" : "spotify:album:4dziAM5y6HeViXiF5bAGbK"
      },
      "artists" : [ {
        "external_urls" : {
          "spotify" : "https://open.spotify.com/artist/2q5QIs6iibW6xyHZZRSeh2"
        },
        "href" : "https://api.spotify.com/v1/artists/2q5QIs6iibW6xyHZZRSeh2",
        "id" : "2q5QIs6iibW6xyHZZRSeh2",
        "name" : "Hyper Fenton",
        "type" : "artist",
        "uri" : "spotify:artist:2q5QIs6iibW6xyHZZRSeh2"
      }, {
        "external_urls" : {
          "spotify" : "https://open.spotify.com/artist/6MPy3PayvN8uNYA8Wm3Z4a"
        },
        "href" : "https://api.spotify.com/v1/artists/6MPy3PayvN8uNYA8Wm3Z4a",
        "id" : "6MPy3PayvN8uNYA8Wm3Z4a",
        "name" : "Moflo Music",
        "type" : "artist",
        "uri" : "spotify:artist:6MPy3PayvN8uNYA8Wm3Z4a"
      }, {
        "external_urls" : {
          "spotify" : "https://open.spotify.com/artist/531QwL6lnQP1ROFpbmGzwg"
        },
        "href" : "https://api.spotify.com/v1/artists/531QwL6lnQP1ROFpbmGzwg",
        "id" : "531QwL6lnQP1ROFpbmGzwg",
        "name" : "Dr. Scott Fenton",
        "type" : "artist",
        "uri" : "spotify:artist:531QwL6lnQP1ROFpbmGzwg"
      } ],
      "disc_number" : 1,
      "duration_ms" : 198817,
      "explicit" : false,
      "external_ids" : {
        "isrc" : "QZCE61820477"
      },
      "external_urls" : {
        "spotify" : "https://open.spotify.com/track/6GBupUKSkOjcWL8fBrmhkA"
      },
      "href" : "https://api.spotify.com/v1/tracks/6GBupUKSkOjcWL8fBrmhkA",
      "id" : "6GBupUKSkOjcWL8fBrmhkA",
      "is_local" : false,
      "is_playable" : true,
      "name" : "Love Like Jesus",
      "popularity" : 42,
      "preview_url" : "https://p.scdn.co/mp3-preview/990417c68b80251da74805b101428da6522162ee?cid=774b29d4f13844c495f206cafdad9c86",
      "track_number" : 1,
      "type" : "track",
      "uri" : "spotify:track:6GBupUKSkOjcWL8fBrmhkA"
    }, {
      "album" : {
        "album_type" : "single",
        "artists" : [ {
          "external_urls" : {
            "spotify" : "https://open.spotify.com/artist/2Dbnk0YRTPpKu46XzMf9nu"
          },
          "href" : "https://api.spotify.com/v1/artists/2Dbnk0YRTPpKu46XzMf9nu",
          "id" : "2Dbnk0YRTPpKu46XzMf9nu",
          "name" : "Joe Fox",
          "type" : "artist",
          "uri" : "spotify:artist:2Dbnk0YRTPpKu46XzMf9nu"
        } ],
        "external_urls" : {
          "spotify" : "https://open.spotify.com/album/7HE0Dt89zNEA7TwBHqP50S"
        },
        "href" : "https://api.spotify.com/v1/albums/7HE0Dt89zNEA7TwBHqP50S",
        "id" : "7HE0Dt89zNEA7TwBHqP50S",
        "images" : [ {
          "height" : 640,
          "url" : "https://i.scdn.co/image/ab67616d0000b273d593ca951a9f426a030072f7",
          "width" : 640
        }, {
          "height" : 300,
          "url" : "https://i.scdn.co/image/ab67616d00001e02d593ca951a9f426a030072f7",
          "width" : 300
        }, {
          "height" : 64,
          "url" : "https://i.scdn.co/image/ab67616d00004851d593ca951a9f426a030072f7",
          "width" : 64
        } ],
        "name" : "Acoustic Alley Sessions",
        "release_date" : "2016-10-21",
        "release_date_precision" : "day",
        "total_tracks" : 6,
        "type" : "album",
        "uri" : "spotify:album:7HE0Dt89zNEA7TwBHqP50S"
      },
      "artists" : [ {
        "external_urls" : {
          "spotify" : "https://open.spotify.com/artist/2Dbnk0YRTPpKu46XzMf9nu"
        },
        "href" : "https://api.spotify.com/v1/artists/2Dbnk0YRTPpKu46XzMf9nu",
        "id" : "2Dbnk0YRTPpKu46XzMf9nu",
        "name" : "Joe Fox",
        "type" : "artist",
        "uri" : "spotify:artist:2Dbnk0YRTPpKu46XzMf9nu"
      } ],
      "disc_number" : 1,
      "duration_ms" : 178342,
      "explicit" : false,
      "external_ids" : {
        "isrc" : "GBUM71604341"
      },
      "external_urls" : {
        "spotify" : "https://open.spotify.com/track/6VtiqvcszLEQsb3hfq69ud"
      },
      "href" : "https://api.spotify.com/v1/tracks/6VtiqvcszLEQsb3hfq69ud",
      "id" : "6VtiqvcszLEQsb3hfq69ud",
      "is_local" : false,
      "is_playable" : true,
      "name" : "Like Jesus - Acoustic",
      "popularity" : 24,
      "preview_url" : null,
      "track_number" : 1,
      "type" : "track",
      "uri" : "spotify:track:6VtiqvcszLEQsb3hfq69ud"
    }, {
      "album" : {
        "album_type" : "album",
        "artists" : [ {
          "external_urls" : {
            "spotify" : "https://open.spotify.com/artist/6eJqAWJdd8JhAN1pQGie4r"
          },
          "href" : "https://api.spotify.com/v1/artists/6eJqAWJdd8JhAN1pQGie4r",
          "id" : "6eJqAWJdd8JhAN1pQGie4r",
          "name" : "Casting Crowns",
          "type" : "artist",
          "uri" : "spotify:artist:6eJqAWJdd8JhAN1pQGie4r"
        } ],
        "external_urls" : {
          "spotify" : "https://open.spotify.com/album/2v95tknJRY8fBHvaNHm6Fc"
        },
        "href" : "https://api.spotify.com/v1/albums/2v95tknJRY8fBHvaNHm6Fc",
        "id" : "2v95tknJRY8fBHvaNHm6Fc",
        "images" : [ {
          "height" : 640,
          "url" : "https://i.scdn.co/image/ab67616d0000b2736904726431559cb2a3fb6435",
          "width" : 640
        }, {
          "height" : 300,
          "url" : "https://i.scdn.co/image/ab67616d00001e026904726431559cb2a3fb6435",
          "width" : 300
        }, {
          "height" : 64,
          "url" : "https://i.scdn.co/image/ab67616d000048516904726431559cb2a3fb6435",
          "width" : 64
        } ],
        "name" : "Lifesong",
        "release_date" : "2005-08-30",
        "release_date_precision" : "day",
        "total_tracks" : 11,
        "type" : "album",
        "uri" : "spotify:album:2v95tknJRY8fBHvaNHm6Fc"
      },
      "artists" : [ {
        "external_urls" : {
          "spotify" : "https://open.spotify.com/artist/6eJqAWJdd8JhAN1pQGie4r"
        },
        "href" : "https://api.spotify.com/v1/artists/6eJqAWJdd8JhAN1pQGie4r",
        "id" : "6eJqAWJdd8JhAN1pQGie4r",
        "name" : "Casting Crowns",
        "type" : "artist",
        "uri" : "spotify:artist:6eJqAWJdd8JhAN1pQGie4r"
      } ],
      "disc_number" : 1,
      "duration_ms" : 270613,
      "explicit" : false,
      "external_ids" : {
        "isrc" : "USA5W0501740"
      },
      "external_urls" : {
        "spotify" : "https://open.spotify.com/track/0dgxnoVuTcjmd62E86tgQr"
      },
      "href" : "https://api.spotify.com/v1/tracks/0dgxnoVuTcjmd62E86tgQr",
      "id" : "0dgxnoVuTcjmd62E86tgQr",
      "is_local" : false,
      "is_playable" : true,
      "name" : "Love Them Like Jesus",
      "popularity" : 40,
      "preview_url" : "https://p.scdn.co/mp3-preview/64274cec7493fa312cd616c51bc40bb85c7cc547?cid=774b29d4f13844c495f206cafdad9c86",
      "track_number" : 5,
      "type" : "track",
      "uri" : "spotify:track:0dgxnoVuTcjmd62E86tgQr"
    }, {
      "album" : {
        "album_type" : "album",
        "artists" : [ {
          "external_urls" : {
            "spotify" : "https://open.spotify.com/artist/2duo4NJtUrLaI38trK0hht"
          },
          "href" : "https://api.spotify.com/v1/artists/2duo4NJtUrLaI38trK0hht",
          "id" : "2duo4NJtUrLaI38trK0hht",
          "name" : "Mormon Tabernacle Choir",
          "type" : "artist",
          "uri" : "spotify:artist:2duo4NJtUrLaI38trK0hht"
        }, {
          "external_urls" : {
            "spotify" : "https://open.spotify.com/artist/4kAIRZipPTtTbZBTudxcEA"
          },
          "href" : "https://api.spotify.com/v1/artists/4kAIRZipPTtTbZBTudxcEA",
          "id" : "4kAIRZipPTtTbZBTudxcEA",
          "name" : "Orchestra at Temple Square",
          "type" : "artist",
          "uri" : "spotify:artist:4kAIRZipPTtTbZBTudxcEA"
        }, {
          "external_urls" : {
            "spotify" : "https://open.spotify.com/artist/13iOctu8ZH8004y3Sy4e8p"
          },
          "href" : "https://api.spotify.com/v1/artists/13iOctu8ZH8004y3Sy4e8p",
          "id" : "13iOctu8ZH8004y3Sy4e8p",
          "name" : "Craig Jessop",
          "type" : "artist",
          "uri" : "spotify:artist:13iOctu8ZH8004y3Sy4e8p"
        } ],
        "external_urls" : {
          "spotify" : "https://open.spotify.com/album/0ueX5UqgKGU3a4XznZhmwo"
        },
        "href" : "https://api.spotify.com/v1/albums/0ueX5UqgKGU3a4XznZhmwo",
        "id" : "0ueX5UqgKGU3a4XznZhmwo",
        "images" : [ {
          "height" : 640,
          "url" : "https://i.scdn.co/image/ab67616d0000b2735820ce04bd99e037d888c8ff",
          "width" : 640
        }, {
          "height" : 300,
          "url" : "https://i.scdn.co/image/ab67616d00001e025820ce04bd99e037d888c8ff",
          "width" : 300
        }, {
          "height" : 64,
          "url" : "https://i.scdn.co/image/ab67616d000048515820ce04bd99e037d888c8ff",
          "width" : 64
        } ],
        "name" : "Consider the Lilies",
        "release_date" : "2003-05-06",
        "release_date_precision" : "day",
        "total_tracks" : 17,
        "type" : "album",
        "uri" : "spotify:album:0ueX5UqgKGU3a4XznZhmwo"
      },
      "artists" : [ {
        "external_urls" : {
          "spotify" : "https://open.spotify.com/artist/2duo4NJtUrLaI38trK0hht"
        },
        "href" : "https://api.spotify.com/v1/artists/2duo4NJtUrLaI38trK0hht",
        "id" : "2duo4NJtUrLaI38trK0hht",
        "name" : "Mormon Tabernacle Choir",
        "type" : "artist",
        "uri" : "spotify:artist:2duo4NJtUrLaI38trK0hht"
      }, {
        "external_urls" : {
          "spotify" : "https://open.spotify.com/artist/4kAIRZipPTtTbZBTudxcEA"
        },
        "href" : "https://api.spotify.com/v1/artists/4kAIRZipPTtTbZBTudxcEA",
        "id" : "4kAIRZipPTtTbZBTudxcEA",
        "name" : "Orchestra at Temple Square",
        "type" : "artist",
        "uri" : "spotify:artist:4kAIRZipPTtTbZBTudxcEA"
      }, {
        "external_urls" : {
          "spotify" : "https://open.spotify.com/artist/13iOctu8ZH8004y3Sy4e8p"
        },
        "href" : "https://api.spotify.com/v1/artists/13iOctu8ZH8004y3Sy4e8p",
        "id" : "13iOctu8ZH8004y3Sy4e8p",
        "name" : "Craig Jessop",
        "type" : "artist",
        "uri" : "spotify:artist:13iOctu8ZH8004y3Sy4e8p"
      } ],
      "disc_number" : 1,
      "duration_ms" : 287200,
      "explicit" : false,
      "external_ids" : {
        "isrc" : "US23M0800779"
      },
      "external_urls" : {
        "spotify" : "https://open.spotify.com/track/0uC0Deej3lmVqivFFfj0sk"
      },
      "href" : "https://api.spotify.com/v1/tracks/0uC0Deej3lmVqivFFfj0sk",
      "id" : "0uC0Deej3lmVqivFFfj0sk",
      "is_local" : false,
      "is_playable" : true,
      "name" : "I'm Trying to Be Like Jesus",
      "popularity" : 38,
      "preview_url" : "https://p.scdn.co/mp3-preview/4eebe2e4f2794fb9761feb6239ef29305622abb9?cid=774b29d4f13844c495f206cafdad9c86",
      "track_number" : 9,
      "type" : "track",
      "uri" : "spotify:track:0uC0Deej3lmVqivFFfj0sk"
    }, {
      "album" : {
        "album_type" : "album",
        "artists" : [ {
          "external_urls" : {
            "spotify" : "https://open.spotify.com/artist/5ee6tRCf54hwB2pyXhRMb2"
          },
          "href" : "https://api.spotify.com/v1/artists/5ee6tRCf54hwB2pyXhRMb2",
          "id" : "5ee6tRCf54hwB2pyXhRMb2",
          "name" : "Ryan Tilby",
          "type" : "artist",
          "uri" : "spotify:artist:5ee6tRCf54hwB2pyXhRMb2"
        } ],
        "external_urls" : {
          "spotify" : "https://open.spotify.com/album/5bfCNBr7wYCXr6cECnPYT1"
        },
        "href" : "https://api.spotify.com/v1/albums/5bfCNBr7wYCXr6cECnPYT1",
        "id" : "5bfCNBr7wYCXr6cECnPYT1",
        "images" : [ {
          "height" : 640,
          "url" : "https://i.scdn.co/image/ab67616d0000b27388ccfdd6907406832bcf3921",
          "width" : 640
        }, {
          "height" : 300,
          "url" : "https://i.scdn.co/image/ab67616d00001e0288ccfdd6907406832bcf3921",
          "width" : 300
        }, {
          "height" : 64,
          "url" : "https://i.scdn.co/image/ab67616d0000485188ccfdd6907406832bcf3921",
          "width" : 64
        } ],
        "name" : "Guitar Hymns",
        "release_date" : "2009-01-01",
        "release_date_precision" : "day",
        "total_tracks" : 13,
        "type" : "album",
        "uri" : "spotify:album:5bfCNBr7wYCXr6cECnPYT1"
      },
      "artists" : [ {
        "external_urls" : {
          "spotify" : "https://open.spotify.com/artist/5ee6tRCf54hwB2pyXhRMb2"
        },
        "href" : "https://api.spotify.com/v1/artists/5ee6tRCf54hwB2pyXhRMb2",
        "id" : "5ee6tRCf54hwB2pyXhRMb2",
        "name" : "Ryan Tilby",
        "type" : "artist",
        "uri" : "spotify:artist:5ee6tRCf54hwB2pyXhRMb2"
      } ],
      "disc_number" : 1,
      "duration_ms" : 219746,
      "explicit" : false,
      "external_ids" : {
        "isrc" : "uscgh0926515"
      },
      "external_urls" : {
        "spotify" : "https://open.spotify.com/track/2b8kheGfSZNzKSgGgnInXZ"
      },
      "href" : "https://api.spotify.com/v1/tracks/2b8kheGfSZNzKSgGgnInXZ",
      "id" : "2b8kheGfSZNzKSgGgnInXZ",
      "is_local" : false,
      "is_playable" : true,
      "name" : "Primary Medley (I'm Trying to Be Like Jesus)",
      "popularity" : 31,
      "preview_url" : "https://p.scdn.co/mp3-preview/2b68a35b3cb6114d942f332e8c98c4a12a26fb6b?cid=774b29d4f13844c495f206cafdad9c86",
      "track_number" : 6,
      "type" : "track",
      "uri" : "spotify:track:2b8kheGfSZNzKSgGgnInXZ"
    }, {
      "album" : {
        "album_type" : "album",
        "artists" : [ {
          "external_urls" : {
            "spotify" : "https://open.spotify.com/artist/5g1lWbZIQ0LCWbKmRJDSSn"
          },
          "href" : "https://api.spotify.com/v1/artists/5g1lWbZIQ0LCWbKmRJDSSn",
          "id" : "5g1lWbZIQ0LCWbKmRJDSSn",
          "name" : "James Cleveland",
          "type" : "artist",
          "uri" : "spotify:artist:5g1lWbZIQ0LCWbKmRJDSSn"
        } ],
        "external_urls" : {
          "spotify" : "https://open.spotify.com/album/7bnFH4Q4L3P3kOsWRJyom4"
        },
        "href" : "https://api.spotify.com/v1/albums/7bnFH4Q4L3P3kOsWRJyom4",
        "id" : "7bnFH4Q4L3P3kOsWRJyom4",
        "images" : [ {
          "height" : 640,
          "url" : "https://i.scdn.co/image/ab67616d0000b2732a81419511dd80778cf368aa",
          "width" : 640
        }, {
          "height" : 300,
          "url" : "https://i.scdn.co/image/ab67616d00001e022a81419511dd80778cf368aa",
          "width" : 300
        }, {
          "height" : 64,
          "url" : "https://i.scdn.co/image/ab67616d000048512a81419511dd80778cf368aa",
          "width" : 64
        } ],
        "name" : "Jesus Is The Best Thing That Ever Happened To Me",
        "release_date" : "1975-06-09",
        "release_date_precision" : "day",
        "total_tracks" : 10,
        "type" : "album",
        "uri" : "spotify:album:7bnFH4Q4L3P3kOsWRJyom4"
      },
      "artists" : [ {
        "external_urls" : {
          "spotify" : "https://open.spotify.com/artist/5g1lWbZIQ0LCWbKmRJDSSn"
        },
        "href" : "https://api.spotify.com/v1/artists/5g1lWbZIQ0LCWbKmRJDSSn",
        "id" : "5g1lWbZIQ0LCWbKmRJDSSn",
        "name" : "James Cleveland",
        "type" : "artist",
        "uri" : "spotify:artist:5g1lWbZIQ0LCWbKmRJDSSn"
      } ],
      "disc_number" : 1,
      "duration_ms" : 367933,
      "explicit" : false,
      "external_ids" : {
        "isrc" : "US1SR0614510"
      },
      "external_urls" : {
        "spotify" : "https://open.spotify.com/track/1PnajxkcP3H7eoIIV4mUCr"
      },
      "href" : "https://api.spotify.com/v1/tracks/1PnajxkcP3H7eoIIV4mUCr",
      "id" : "1PnajxkcP3H7eoIIV4mUCr",
      "is_local" : false,
      "is_playable" : true,
      "name" : "Can't Nobody Do Me Like Jesus",
      "popularity" : 29,
      "preview_url" : "https://p.scdn.co/mp3-preview/d5dbc081245b585111eecb0727bc1ced02e9b92c?cid=774b29d4f13844c495f206cafdad9c86",
      "track_number" : 1,
      "type" : "track",
      "uri" : "spotify:track:1PnajxkcP3H7eoIIV4mUCr"
    }, {
      "album" : {
        "album_type" : "album",
        "artists" : [ {
          "external_urls" : {
            "spotify" : "https://open.spotify.com/artist/5U9LPyBknlYMg6liERwsTq"
          },
          "href" : "https://api.spotify.com/v1/artists/5U9LPyBknlYMg6liERwsTq",
          "id" : "5U9LPyBknlYMg6liERwsTq",
          "name" : "Brian Daw",
          "type" : "artist",
          "uri" : "spotify:artist:5U9LPyBknlYMg6liERwsTq"
        } ],
        "external_urls" : {
          "spotify" : "https://open.spotify.com/album/2IjJ72znGvE0FZrX6vgwjo"
        },
        "href" : "https://api.spotify.com/v1/albums/2IjJ72znGvE0FZrX6vgwjo",
        "id" : "2IjJ72znGvE0FZrX6vgwjo",
        "images" : [ {
          "height" : 640,
          "url" : "https://i.scdn.co/image/ab67616d0000b273ca98636d085c094363f57395",
          "width" : 640
        }, {
          "height" : 300,
          "url" : "https://i.scdn.co/image/ab67616d00001e02ca98636d085c094363f57395",
          "width" : 300
        }, {
          "height" : 64,
          "url" : "https://i.scdn.co/image/ab67616d00004851ca98636d085c094363f57395",
          "width" : 64
        } ],
        "name" : "Songs That Invite The Spirit",
        "release_date" : "2010",
        "release_date_precision" : "year",
        "total_tracks" : 13,
        "type" : "album",
        "uri" : "spotify:album:2IjJ72znGvE0FZrX6vgwjo"
      },
      "artists" : [ {
        "external_urls" : {
          "spotify" : "https://open.spotify.com/artist/5U9LPyBknlYMg6liERwsTq"
        },
        "href" : "https://api.spotify.com/v1/artists/5U9LPyBknlYMg6liERwsTq",
        "id" : "5U9LPyBknlYMg6liERwsTq",
        "name" : "Brian Daw",
        "type" : "artist",
        "uri" : "spotify:artist:5U9LPyBknlYMg6liERwsTq"
      } ],
      "disc_number" : 1,
      "duration_ms" : 144039,
      "explicit" : false,
      "external_ids" : {
        "isrc" : "USJ3V1170133"
      },
      "external_urls" : {
        "spotify" : "https://open.spotify.com/track/0D5gXyJgBcevrU2mIFf8TJ"
      },
      "href" : "https://api.spotify.com/v1/tracks/0D5gXyJgBcevrU2mIFf8TJ",
      "id" : "0D5gXyJgBcevrU2mIFf8TJ",
      "is_local" : false,
      "is_playable" : true,
      "name" : "I'm Trying to Be Like Jesus",
      "popularity" : 30,
      "preview_url" : "https://p.scdn.co/mp3-preview/69de6f8e4fb87b0931c435f534d892c5ec6b1de1?cid=774b29d4f13844c495f206cafdad9c86",
      "track_number" : 5,
      "type" : "track",
      "uri" : "spotify:track:0D5gXyJgBcevrU2mIFf8TJ"
    }, {
      "album" : {
        "album_type" : "album",
        "artists" : [ {
          "external_urls" : {
            "spotify" : "https://open.spotify.com/artist/7tlQrRh6jNY1c95poJvBe9"
          },
          "href" : "https://api.spotify.com/v1/artists/7tlQrRh6jNY1c95poJvBe9",
          "id" : "7tlQrRh6jNY1c95poJvBe9",
          "name" : "Deitrick Haddon",
          "type" : "artist",
          "uri" : "spotify:artist:7tlQrRh6jNY1c95poJvBe9"
        } ],
        "external_urls" : {
          "spotify" : "https://open.spotify.com/album/7fl3RVA1jX6P4nyqVZZkLG"
        },
        "href" : "https://api.spotify.com/v1/albums/7fl3RVA1jX6P4nyqVZZkLG",
        "id" : "7fl3RVA1jX6P4nyqVZZkLG",
        "images" : [ {
          "height" : 640,
          "url" : "https://i.scdn.co/image/ab67616d0000b27343d5127de43355d096a3993b",
          "width" : 640
        }, {
          "height" : 300,
          "url" : "https://i.scdn.co/image/ab67616d00001e0243d5127de43355d096a3993b",
          "width" : 300
        }, {
          "height" : 64,
          "url" : "https://i.scdn.co/image/ab67616d0000485143d5127de43355d096a3993b",
          "width" : 64
        } ],
        "name" : "Masterpiece",
        "release_date" : "2015-11-06",
        "release_date_precision" : "day",
        "total_tracks" : 17,
        "type" : "album",
        "uri" : "spotify:album:7fl3RVA1jX6P4nyqVZZkLG"
      },
      "artists" : [ {
        "external_urls" : {
          "spotify" : "https://open.spotify.com/artist/7tlQrRh6jNY1c95poJvBe9"
        },
        "href" : "https://api.spotify.com/v1/artists/7tlQrRh6jNY1c95poJvBe9",
        "id" : "7tlQrRh6jNY1c95poJvBe9",
        "name" : "Deitrick Haddon",
        "type" : "artist",
        "uri" : "spotify:artist:7tlQrRh6jNY1c95poJvBe9"
      } ],
      "disc_number" : 1,
      "duration_ms" : 199564,
      "explicit" : false,
      "external_ids" : {
        "isrc" : "USKO11580254"
      },
      "external_urls" : {
        "spotify" : "https://open.spotify.com/track/5MnWstVq8yVUpBSKiBTyTA"
      },
      "href" : "https://api.spotify.com/v1/tracks/5MnWstVq8yVUpBSKiBTyTA",
      "id" : "5MnWstVq8yVUpBSKiBTyTA",
      "is_local" : false,
      "is_playable" : true,
      "name" : "Be Like Jesus",
      "popularity" : 28,
      "preview_url" : "https://p.scdn.co/mp3-preview/34569c2ad7bb0116a631ff95bd5edc89c5cc1fca?cid=774b29d4f13844c495f206cafdad9c86",
      "track_number" : 4,
      "type" : "track",
      "uri" : "spotify:track:5MnWstVq8yVUpBSKiBTyTA"
    }, {
      "album" : {
        "album_type" : "album",
        "artists" : [ {
          "external_urls" : {
            "spotify" : "https://open.spotify.com/artist/5rh3D2plRcWLQq9tFkFQbF"
          },
          "href" : "https://api.spotify.com/v1/artists/5rh3D2plRcWLQq9tFkFQbF",
          "id" : "5rh3D2plRcWLQq9tFkFQbF",
          "name" : "Marvin Goldstein",
          "type" : "artist",
          "uri" : "spotify:artist:5rh3D2plRcWLQq9tFkFQbF"
        } ],
        "external_urls" : {
          "spotify" : "https://open.spotify.com/album/1Gow9mEPwCozgJUn7JmFYF"
        },
        "href" : "https://api.spotify.com/v1/albums/1Gow9mEPwCozgJUn7JmFYF",
        "id" : "1Gow9mEPwCozgJUn7JmFYF",
        "images" : [ {
          "height" : 640,
          "url" : "https://i.scdn.co/image/ab67616d0000b2733a6ea7f78e62d178ebb47f50",
          "width" : 640
        }, {
          "height" : 300,
          "url" : "https://i.scdn.co/image/ab67616d00001e023a6ea7f78e62d178ebb47f50",
          "width" : 300
        }, {
          "height" : 64,
          "url" : "https://i.scdn.co/image/ab67616d000048513a6ea7f78e62d178ebb47f50",
          "width" : 64
        } ],
        "name" : "Janice Kapp Perry Favorites Feat. Pianst Marvin Goldstein, Vol 2",
        "release_date" : "1995",
        "release_date_precision" : "year",
        "total_tracks" : 10,
        "type" : "album",
        "uri" : "spotify:album:1Gow9mEPwCozgJUn7JmFYF"
      },
      "artists" : [ {
        "external_urls" : {
          "spotify" : "https://open.spotify.com/artist/5rh3D2plRcWLQq9tFkFQbF"
        },
        "href" : "https://api.spotify.com/v1/artists/5rh3D2plRcWLQq9tFkFQbF",
        "id" : "5rh3D2plRcWLQq9tFkFQbF",
        "name" : "Marvin Goldstein",
        "type" : "artist",
        "uri" : "spotify:artist:5rh3D2plRcWLQq9tFkFQbF"
      }, {
        "external_urls" : {
          "spotify" : "https://open.spotify.com/artist/7Hl36yV8qdZgcp7VHAazlA"
        },
        "href" : "https://api.spotify.com/v1/artists/7Hl36yV8qdZgcp7VHAazlA",
        "id" : "7Hl36yV8qdZgcp7VHAazlA",
        "name" : "Janice Kapp Perry",
        "type" : "artist",
        "uri" : "spotify:artist:7Hl36yV8qdZgcp7VHAazlA"
      } ],
      "disc_number" : 1,
      "duration_ms" : 186200,
      "explicit" : false,
      "external_ids" : {
        "isrc" : "usl4q0894140"
      },
      "external_urls" : {
        "spotify" : "https://open.spotify.com/track/5eYK3Dr56JQBwLjJTnUhCo"
      },
      "href" : "https://api.spotify.com/v1/tracks/5eYK3Dr56JQBwLjJTnUhCo",
      "id" : "5eYK3Dr56JQBwLjJTnUhCo",
      "is_local" : false,
      "is_playable" : true,
      "name" : "I'm Trying To Be Like Jesus",
      "popularity" : 28,
      "preview_url" : "https://p.scdn.co/mp3-preview/cf0e68b522ac513f437ef4688732bd0283168761?cid=774b29d4f13844c495f206cafdad9c86",
      "track_number" : 4,
      "type" : "track",
      "uri" : "spotify:track:5eYK3Dr56JQBwLjJTnUhCo"
    }, {
      "album" : {
        "album_type" : "album",
        "artists" : [ {
          "external_urls" : {
            "spotify" : "https://open.spotify.com/artist/7JfS0b7q4eJVOoHb0ODKvM"
          },
          "href" : "https://api.spotify.com/v1/artists/7JfS0b7q4eJVOoHb0ODKvM",
          "id" : "7JfS0b7q4eJVOoHb0ODKvM",
          "name" : "InsideOut A Cappella",
          "type" : "artist",
          "uri" : "spotify:artist:7JfS0b7q4eJVOoHb0ODKvM"
        } ],
        "external_urls" : {
          "spotify" : "https://open.spotify.com/album/2kstgSLwKnSBDhsgbUrIfX"
        },
        "href" : "https://api.spotify.com/v1/albums/2kstgSLwKnSBDhsgbUrIfX",
        "id" : "2kstgSLwKnSBDhsgbUrIfX",
        "images" : [ {
          "height" : 640,
          "url" : "https://i.scdn.co/image/ab67616d0000b2735b51a282e0a51aa141800418",
          "width" : 640
        }, {
          "height" : 300,
          "url" : "https://i.scdn.co/image/ab67616d00001e025b51a282e0a51aa141800418",
          "width" : 300
        }, {
          "height" : 64,
          "url" : "https://i.scdn.co/image/ab67616d000048515b51a282e0a51aa141800418",
          "width" : 64
        } ],
        "name" : "Primary Colors",
        "release_date" : "2003-01-01",
        "release_date_precision" : "day",
        "total_tracks" : 14,
        "type" : "album",
        "uri" : "spotify:album:2kstgSLwKnSBDhsgbUrIfX"
      },
      "artists" : [ {
        "external_urls" : {
          "spotify" : "https://open.spotify.com/artist/7JfS0b7q4eJVOoHb0ODKvM"
        },
        "href" : "https://api.spotify.com/v1/artists/7JfS0b7q4eJVOoHb0ODKvM",
        "id" : "7JfS0b7q4eJVOoHb0ODKvM",
        "name" : "InsideOut A Cappella",
        "type" : "artist",
        "uri" : "spotify:artist:7JfS0b7q4eJVOoHb0ODKvM"
      } ],
      "disc_number" : 1,
      "duration_ms" : 224573,
      "explicit" : false,
      "external_ids" : {
        "isrc" : "usy280723066"
      },
      "external_urls" : {
        "spotify" : "https://open.spotify.com/track/3YIEeaNVLJ7zRolYdbXQw1"
      },
      "href" : "https://api.spotify.com/v1/tracks/3YIEeaNVLJ7zRolYdbXQw1",
      "id" : "3YIEeaNVLJ7zRolYdbXQw1",
      "is_local" : false,
      "is_playable" : true,
      "name" : "I'm Trying to be Like Jesus",
      "popularity" : 26,
      "preview_url" : "https://p.scdn.co/mp3-preview/baa80dc7612cee2cd499c2ac0b73cae0be81fe0d?cid=774b29d4f13844c495f206cafdad9c86",
      "track_number" : 3,
      "type" : "track",
      "uri" : "spotify:track:3YIEeaNVLJ7zRolYdbXQw1"
    } ],
    "limit" : 10,
    "next" : "https://api.spotify.com/v1/search?query=Like+Jesus&type=track&market=US&offset=15&limit=10",
    "offset" : 5,
    "previous" : "https://api.spotify.com/v1/search?query=Like+Jesus&type=track&market=US&offset=0&limit=10",
    "total" : 3188
  }
}