{
  "tracks" : {
    "href" : "https://api.spotify.com/v1/search?query=For+You+I+Am+Praying&type=track&market=US&offset=5&limit=10",
    "items" : [ {
      "album" : {
        "album_type" : "album",
        "artists" : [ {
          "external_urls" : {
            "spotify" : "https://open.spotify.com/artist/5sQltWeVqAuUhq6FjTZ0La"
          },
          "href" : "https://api.spotify.com/v1/artists/5sQltWeVqAuUhq6FjTZ0La",
          "id" : "5sQltWeVqAuUhq6FjTZ0La",
          "name" : "REV C Shanganya",
          "type" : "artist",
          "uri" : "spotify:artist:5sQltWeVqAuUhq6FjTZ0La"
        } ],
        "external_urls" : {
          "spotify" : "https://open.spotify.com/album/4p1Agul9v4R8IgRuQJdv1T"
        },
        "href" : "https://api.spotify.com/v1/albums/4p1Agul9v4R8IgRuQJdv1T",
        "id" : "4p1Agul9v4R8IgRuQJdv1T",
        "images" : [ {
          "height" : 640,
          "url" : "https://i.scdn.co/image/ab67616d0000b2731d854fe0c65f0976ddbf57c6",
          "width" : 640
        }, {
          "height" : 300,
          "url" : "https://i.scdn.co/image/ab67616d00001e021d854fe0c65f0976ddbf57c6",
          "width" : 300
        }, {
          "height" : 64,
          "url" : "https://i.scdn.co/image/ab67616d000048511d854fe0c65f0976ddbf57c6",
          "width" : 64
        } ],
        "name" : "Joy and Peace",
        "release_date" : "2018-11-13",
        "release_date_precision" : "day",
        "total_tracks" : 11,
        "type" : "album",
        "uri" : "spotify:album:4p1Agul9v4R8IgRuQJdv1T"
      },
      "artists" : [ {
        "external_urls" : {
          "spotify" : "https://open.spotify.com/artist/5sQltWeVqAuUhq6FjTZ0La"
        },
        "href" : "https://api.spotify.com/v1/artists/5sQltWeVqAuUhq6FjTZ0La",
        "id" : "5sQltWeVqAuUhq6FjTZ0La",
        "name" : "REV C Shanganya",
        "type" : "artist",
        "uri" : "spotify:artist:5sQltWeVqAuUhq6FjTZ0La"
      } ],
      "disc_number" : 1,
      "duration_ms" : 288018,
      "explicit" : false,
      "external_ids" : {
        "isrc" : "QZES71835584"
      },
      "external_urls" : {
        "spotify" : "https://open.spotify.com/track/7aofaIDMkbkpWZxaessE8a"
      },
      "href" : "https://api.spotify.com/v1/tracks/7aofaIDMkbkpWZxaessE8a",
      "id" : "7aofaIDMkbkpWZxaessE8a",
      "is_local" : false,
      "is_playable" : true,
      "name" : "I Am Praying for You",
      "popularity" : 0,
      "preview_url" : "https://p.scdn.co/mp3-preview/c5fab1326af6af1d8c8144cb99213c1e944fa8ea?cid=774b29d4f13844c495f206cafdad9c86",
      "track_number" : 7,
      "type" : "track",
      "uri" : "spotify:track:7aofaIDMkbkpWZxaessE8a"
    }, {
      "album" : {
        "album_type" : "compilation",
        "artists" : [ {
          "external_urls" : {
            "spotify" : "https://open.spotify.com/artist/0LyfQWJT6nXafLPZqxe9Of"
          },
          "href" : "https://api.spotify.com/v1/artists/0LyfQWJT6nXafLPZqxe9Of",
          "id" : "0LyfQWJT6nXafLPZqxe9Of",
          "name" : "Various Artists",
          "type" : "artist",
          "uri" : "spotify:artist:0LyfQWJT6nXafLPZqxe9Of"
        } ],
        "external_urls" : {
          "spotify" : "https://open.spotify.com/album/2w9aW44KyXIJPhVcXy9eTz"
        },
        "href" : "https://api.spotify.com/v1/albums/2w9aW44KyXIJPhVcXy9eTz",
        "id" : "2w9aW44KyXIJPhVcXy9eTz",
        "images" : [ {
          "height" : 640,
          "url" : "https://i.scdn.co/image/ab67616d0000b2730a75cd5938b1ab67f7d2267b",
          "width" : 640
        }, {
          "height" : 300,
          "url" : "https://i.scdn.co/image/ab67616d00001e020a75cd5938b1ab67f7d2267b",
          "width" : 300
        }, {
          "height" : 64,
          "url" : "https://i.scdn.co/image/ab67616d000048510a75cd5938b1ab67f7d2267b",
          "width" : 64
        } ],
        "name" : "Waxing The Gospel: Mass Evangelism And The Phonograph, 1890-1900",
        "release_date" : "2016-09-30",
        "release_date_precision" : "day",
        "total_tracks" : 102,
        "type" : "album",
        "uri" : "spotify:album:2w9aW44KyXIJPhVcXy9eTz"
      },
      "artists" : [ {
        "external_urls" : {
          "spotify" : "https://open.spotify.com/artist/3OCVxMfzchKw3AUQhLiofw"
        },
        "href" : "https://api.spotify.com/v1/artists/3OCVxMfzchKw3AUQhLiofw",
        "id" : "3OCVxMfzchKw3AUQhLiofw",
        "name" : "Steve Porter",
        "type" : "artist",
        "uri" : "spotify:artist:3OCVxMfzchKw3AUQhLiofw"
      } ],
      "disc_number" : 1,
      "duration_ms" : 151800,
      "explicit" : false,
      "external_ids" : {
        "isrc" : "QMWHB1607413"
      },
      "external_urls" : {
        "spotify" : "https://open.spotify.com/track/0tdvbWPq6TFb2mxE1cTcME"
      },
      "href" : "https://api.spotify.com/v1/tracks/0tdvbWPq6TFb2mxE1cTcME",
      "id" : "0tdvbWPq6TFb2mxE1cTcME",
      "is_local" : false,
      "is_playable" : true,
      "name" : "I Am Praying for You",
      "popularity" : 0,
      "preview_url" : "https://p.scdn.co/mp3-preview/65ea9e40d4c845fe6de5d2f47602256e4579ac20?cid=774b29d4f13844c495f206cafdad9c86",
      "track_number" : 33,
      "type" : "track",
      "uri" : "spotify:track:0tdvbWPq6TFb2mxE1cTcME"
    }, {
      "album" : {
        "album_type" : "album",
        "artists" : [ {
          "external_urls" : {
            "spotify" : "https://open.spotify.com/artist/01Er12nK5rrnHx8usFPJAs"
          },
          "href" : "https://api.spotify.com/v1/artists/01Er12nK5rrnHx8usFPJAs",
          "id" : "01Er12nK5rrnHx8usFPJAs",
          "name" : "Derek Fiechter",
          "type" : "artist",
          "uri" : "spotify:artist:01Er12nK5rrnHx8usFPJAs"
        }, {
          "external_urls" : {
            "spotify" : "https://open.spotify.com/artist/2XDOBQOobSTxtmFhWKdm6x"
          },
          "href" : "https://api.spotify.com/v1/artists/2XDOBQOobSTxtmFhWKdm6x",
          "id" : "2XDOBQOobSTxtmFhWKdm6x",
          "name" : "Brandon Fiechter",
          "type" : "artist",
          "uri" : "spotify:artist:2XDOBQOobSTxtmFhWKdm6x"
        } ],
        "external_urls" : {
          "spotify" : "https://open.spotify.com/album/0YMpun8w83wL9T0APjtvBl"
        },
        "href" : "https://api.spotify.com/v1/albums/0YMpun8w83wL9T0APjtvBl",
        "id" : "0YMpun8w83wL9T0APjtvBl",
        "images" : [ {
          "height" : 640,
          "url" : "https://i.scdn.co/image/ab67616d0000b273558693474e97158450c19d48",
          "width" : 640
        }, {
          "height" : 300,
          "url" : "https://i.scdn.co/image/ab67616d00001e02558693474e97158450c19d48",
          "width" : 300
        }, {
          "height" : 64,
          "url" : "https://i.scdn.co/image/ab67616d00004851558693474e97158450c19d48",
          "width" : 64
        } ],
        "name" : "Celtic Hymn Collection V",
        "release_date" : "2017-08-03",
        "release_date_precision" : "day",
        "total_tracks" : 18,
        "type" : "album",
        "uri" : "spotify:album:0YMpun8w83wL9T0APjtvBl"
      },
      "artists" : [ {
        "external_urls" : {
          "spotify" : "https://open.spotify.com/artist/01Er12nK5rrnHx8usFPJAs"
        },
        "href" : "https://api.spotify.com/v1/artists/01Er12nK5rrnHx8usFPJAs",
        "id" : "01Er12nK5rrnHx8usFPJAs",
        "name" : "Derek Fiechter",
        "type" : "artist",
        "uri" : "spotify:artist:01Er12nK5rrnHx8usFPJAs"
      } ],
      "disc_number" : 1,
      "duration_ms" : 247560,
      "explicit" : false,
      "external_ids" : {
        "isrc" : "ushm21789740"
      },
      "external_urls" : {
        "spotify" : "https://open.spotify.com/track/1ogN7N1Jy6chXFDftUKGMD"
      },
      "href" : "https://api.spotify.com/v1/tracks/1ogN7N1Jy6chXFDftUKGMD",
      "id" : "1ogN7N1Jy6chXFDftUKGMD",
      "is_local" : false,
      "is_playable" : true,
      "name" : "For You I Am Praying",
      "popularity" : 1,
      "preview_url" : "https://p.scdn.co/mp3-preview/1dd04aff88425dabff86f4cf03afb18c58f5fc2a?cid=774b29d4f13844c495f206cafdad9c86",
      "track_number" : 10,
      "type" : "track",
      "uri" : "spotify:track:1ogN7N1Jy6chXFDftUKGMD"
    }, {
      "album" : {
        "album_type" : "album",
        "artists" : [ {
          "external_urls" : {
            "spotify" : "https://open.spotify.com/artist/21D3jMioZCWWkeoEVPGvgR"
          },
          "href" : "https://api.spotify.com/v1/artists/21D3jMioZCWWkeoEVPGvgR",
          "id" : "21D3jMioZCWWkeoEVPGvgR",
          "name" : "Huntley Brown",
          "type" : "artist",
          "uri" : "spotify:artist:21D3jMioZCWWkeoEVPGvgR"
        } ],
        "external_urls" : {
          "spotify" : "https://open.spotify.com/album/2smACK9zq5WOxTXgLVRzDG"
        },
        "href" : "https://api.spotify.com/v1/albums/2smACK9zq5WOxTXgLVRzDG",
        "id" : "2smACK9zq5WOxTXgLVRzDG",
        "images" : [ {
          "height" : 640,
          "url" : "https://i.scdn.co/image/ab67616d0000b2736435bcfd2d5c15799ae3eeb3",
          "width" : 640
        }, {
          "height" : 300,
          "url" : "https://i.scdn.co/image/ab67616d00001e026435bcfd2d5c15799ae3eeb3",
          "width" : 300
        }, {
          "height" : 64,
          "url" : "https://i.scdn.co/image/ab67616d000048516435bcfd2d5c15799ae3eeb3",
          "width" : 64
        } ],
        "name" : "Hymns My Mother Taught Me, Vol. 1",
        "release_date" : "2018-11-09",
        "release_date_precision" : "day",
        "total_tracks" : 14,
        "type" : "album",
        "uri" : "spotify:album:2smACK9zq5WOxTXgLVRzDG"
      },
      "artists" : [ {
        "external_urls" : {
          "spotify" : "https://open.spotify.com/artist/21D3jMioZCWWkeoEVPGvgR"
        },
        "href" : "https://api.spotify.com/v1/artists/21D3jMioZCWWkeoEVPGvgR",
        "id" : "21D3jMioZCWWkeoEVPGvgR",
        "name" : "Huntley Brown",
        "type" : "artist",
        "uri" : "spotify:artist:21D3jMioZCWWkeoEVPGvgR"
      } ],
      "disc_number" : 1,
      "duration_ms" : 153392,
      "explicit" : false,
      "external_ids" : {
        "isrc" : "QM9AA1854261"
      },
      "external_urls" : {
        "spotify" : "https://open.spotify.com/track/5vo8m5Nv19rh8szXXG3eon"
      },
      "href" : "https://api.spotify.com/v1/tracks/5vo8m5Nv19rh8szXXG3eon",
      "id" : "5vo8m5Nv19rh8szXXG3eon",
      "is_local" : false,
      "is_playable" : true,
      "name" : "I Am Praying for You",
      "popularity" : 0,
      "preview_url" : "https://p.scdn.co/mp3-preview/f79aab0c47a6cd86771a206412568ac85ee429b1?cid=774b29d4f13844c495f206cafdad9c86",
      "track_number" : 10,
      "type" : "track",
      "uri" : "spotify:track:5vo8m5Nv19rh8szXXG3eon"
    }, {
      "album" : {
        "album_type" : "album",
        "artists" : [ {
          "external_urls" : {
            "spotify" : "https://open.spotify.com/artist/6ZJ0ZFJUx02NthS3RH3VYz"
          },
          "href" : "https://api.spotify.com/v1/artists/6ZJ0ZFJUx02NthS3RH3VYz",
          "id" : "6ZJ0ZFJUx02NthS3RH3VYz",
          "name" : "The Joyful Sounds",
          "type" : "artist",
          "uri" : "spotify:artist:6ZJ0ZFJUx02NthS3RH3VYz"
        } ],
        "external_urls" : {
          "spotify" : "https://open.spotify.com/album/4RgpD3TXOwCGQ8q0pRvxnf"
        },
        "href" : "https://api.spotify.com/v1/albums/4RgpD3TXOwCGQ8q0pRvxnf",
        "id" : "4RgpD3TXOwCGQ8q0pRvxnf",
        "images" : [ {
          "height" : 640,
          "url" : "https://i.scdn.co/image/ab67616d0000b2735f09476a9da1f88ffb5b5d06",
          "width" : 640
        }, {
          "height" : 300,
          "url" : "https://i.scdn.co/image/ab67616d00001e025f09476a9da1f88ffb5b5d06",
          "width" : 300
        }, {
          "height" : 64,
          "url" : "https://i.scdn.co/image/ab67616d000048515f09476a9da1f88ffb5b5d06",
          "width" : 64
        } ],
        "name" : "99 Beautiful songs pack vol.3",
        "release_date" : "2016-03-01",
        "release_date_precision" : "day",
        "total_tracks" : 99,
        "type" : "album",
        "uri" : "spotify:album:4RgpD3TXOwCGQ8q0pRvxnf"
      },
      "artists" : [ {
        "external_urls" : {
          "spotify" : "https://open.spotify.com/artist/6ZJ0ZFJUx02NthS3RH3VYz"
        },
        "href" : "https://api.spotify.com/v1/artists/6ZJ0ZFJUx02NthS3RH3VYz",
        "id" : "6ZJ0ZFJUx02NthS3RH3VYz",
        "name" : "The Joyful Sounds",
        "type" : "artist",
        "uri" : "spotify:artist:6ZJ0ZFJUx02NthS3RH3VYz"
      } ],
      "disc_number" : 1,
      "duration_ms" : 32299,
      "explicit" : false,
      "external_ids" : {
        "isrc" : "TCJPE1644861"
      },
      "external_urls" : {
        "spotify" : "https://open.spotify.com/track/7FsAPlleHfNOsVG6bdT8aU"
      },
      "href" : "https://api.spotify.com/v1/tracks/7FsAPlleHfNOsVG6bdT8aU",
      "id" : "7FsAPlleHfNOsVG6bdT8aU",
      "is_local" : false,
      "is_playable" : true,
      "name" : "I Am Praying for You",
      "popularity" : 0,
      "preview_url" : "https://p.scdn.co/mp3-preview/37bd8f940bdeb53702c1b526ff3d611cb163c566?cid=774b29d4f13844c495f206cafdad9c86",
      "track_number" : 13,
      "type" : "track",
      "uri" : "spotify:track:7FsAPlleHfNOsVG6bdT8aU"
    }, {
      "album" : {
        "album_type" : "album",
        "artists" : [ {
          "external_urls" : {
            "spotify" : "https://open.spotify.com/artist/0SMQbY8l9Mph9d8NLv92oh"
          },
          "href" : "https://api.spotify.com/v1/artists/0SMQbY8l9Mph9d8NLv92oh",
          "id" : "0SMQbY8l9Mph9d8NLv92oh",
          "name" : "RiNG-O choir",
          "type" : "artist",
          "uri" : "spotify:artist:0SMQbY8l9Mph9d8NLv92oh"
        } ],
        "external_urls" : {
          "spotify" : "https://open.spotify.com/album/5xDxyU5965BaipoWH0Rybm"
        },
        "href" : "https://api.spotify.com/v1/albums/5xDxyU5965BaipoWH0Rybm",
        "id" : "5xDxyU5965BaipoWH0Rybm",
        "images" : [ {
          "height" : 640,
          "url" : "https://i.scdn.co/image/ab67616d0000b27328d1034e0928596bc074b494",
          "width" : 640
        }, {
          "height" : 300,
          "url" : "https://i.scdn.co/image/ab67616d00001e0228d1034e0928596bc074b494",
          "width" : 300
        }, {
          "height" : 64,
          "url" : "https://i.scdn.co/image/ab67616d0000485128d1034e0928596bc074b494",
          "width" : 64
        } ],
        "name" : "Beautiful Hymn Melodies vol.4",
        "release_date" : "2016-03-01",
        "release_date_precision" : "day",
        "total_tracks" : 11,
        "type" : "album",
        "uri" : "spotify:album:5xDxyU5965BaipoWH0Rybm"
      },
      "artists" : [ {
        "external_urls" : {
          "spotify" : "https://open.spotify.com/artist/0SMQbY8l9Mph9d8NLv92oh"
        },
        "href" : "https://api.spotify.com/v1/artists/0SMQbY8l9Mph9d8NLv92oh",
        "id" : "0SMQbY8l9Mph9d8NLv92oh",
        "name" : "RiNG-O choir",
        "type" : "artist",
        "uri" : "spotify:artist:0SMQbY8l9Mph9d8NLv92oh"
      } ],
      "disc_number" : 1,
      "duration_ms" : 73614,
      "explicit" : false,
      "external_ids" : {
        "isrc" : "TCJPE1644239"
      },
      "external_urls" : {
        "spotify" : "https://open.spotify.com/track/0sRrziLKZ8SsBEf41qLIYf"
      },
      "href" : "https://api.spotify.com/v1/tracks/0sRrziLKZ8SsBEf41qLIYf",
      "id" : "0sRrziLKZ8SsBEf41qLIYf",
      "is_local" : false,
      "is_playable" : true,
      "name" : "I Am Praying for You",
      "popularity" : 0,
      "preview_url" : "https://p.scdn.co/mp3-preview/8000a33748ecfb4f6dd985667c2da82f4d398e18?cid=774b29d4f13844c495f206cafdad9c86",
      "track_number" : 8,
      "type" : "track",
      "uri" : "spotify:track:0sRrziLKZ8SsBEf41qLIYf"
    }, {
      "album" : {
        "album_type" : "album",
        "artists" : [ {
          "external_urls" : {
            "spotify" : "https://open.spotify.com/artist/1lUygAJ4M2ZLy0vI7Cq5Ma"
          },
          "href" : "https://api.spotify.com/v1/artists/1lUygAJ4M2ZLy0vI7Cq5Ma",
          "id" : "1lUygAJ4M2ZLy0vI7Cq5Ma",
          "name" : "Henry Higgins",
          "type" : "artist",
          "uri" : "spotify:artist:1lUygAJ4M2ZLy0vI7Cq5Ma"
        } ],
        "external_urls" : {
          "spotify" : "https://open.spotify.com/album/3q8Ce1NISK2vULbWph1Hqn"
        },
        "href" : "https://api.spotify.com/v1/albums/3q8Ce1NISK2vULbWph1Hqn",
        "id" : "3q8Ce1NISK2vULbWph1Hqn",
        "images" : [ {
          "height" : 640,
          "url" : "https://i.scdn.co/image/ab67616d0000b273ce531fb38bd2657a476816ba",
          "width" : 640
        }, {
          "height" : 300,
          "url" : "https://i.scdn.co/image/ab67616d00001e02ce531fb38bd2657a476816ba",
          "width" : 300
        }, {
          "height" : 64,
          "url" : "https://i.scdn.co/image/ab67616d00004851ce531fb38bd2657a476816ba",
          "width" : 64
        } ],
        "name" : "Day by Day",
        "release_date" : "2011-07-26",
        "release_date_precision" : "day",
        "total_tracks" : 14,
        "type" : "album",
        "uri" : "spotify:album:3q8Ce1NISK2vULbWph1Hqn"
      },
      "artists" : [ {
        "external_urls" : {
          "spotify" : "https://open.spotify.com/artist/1lUygAJ4M2ZLy0vI7Cq5Ma"
        },
        "href" : "https://api.spotify.com/v1/artists/1lUygAJ4M2ZLy0vI7Cq5Ma",
        "id" : "1lUygAJ4M2ZLy0vI7Cq5Ma",
        "name" : "Henry Higgins",
        "type" : "artist",
        "uri" : "spotify:artist:1lUygAJ4M2ZLy0vI7Cq5Ma"
      } ],
      "disc_number" : 1,
      "duration_ms" : 371504,
      "explicit" : false,
      "external_ids" : {
        "isrc" : "usdy41625062"
      },
      "external_urls" : {
        "spotify" : "https://open.spotify.com/track/73YoovPcC2XSr6lyaZPkGq"
      },
      "href" : "https://api.spotify.com/v1/tracks/73YoovPcC2XSr6lyaZPkGq",
      "id" : "73YoovPcC2XSr6lyaZPkGq",
      "is_local" : false,
      "is_playable" : true,
      "name" : "For You I Am Praying",
      "popularity" : 0,
      "preview_url" : "https://p.scdn.co/mp3-preview/7115e5bfcad8c5dd25e93963bac9c575a9115ba0?cid=774b29d4f13844c495f206cafdad9c86",
      "track_number" : 6,
      "type" : "track",
      "uri" : "spotify:track:73YoovPcC2XSr6lyaZPkGq"
    }, {
      "album" : {
        "album_type" : "album",
        "artists" : [ {
          "external_urls" : {
            "spotify" : "https://open.spotify.com/artist/6chIT9NYdZw7XOXoVIqE3V"
          },
          "href" : "https://api.spotify.com/v1/artists/6chIT9NYdZw7XOXoVIqE3V",
          "id" : "6chIT9NYdZw7XOXoVIqE3V",
          "name" : "Peggy Brown, Sylvia Brown-Roberts, and Raymond Brown",
          "type" : "artist",
          "uri" : "spotify:artist:6chIT9NYdZw7XOXoVIqE3V"
        } ],
        "external_urls" : {
          "spotify" : "https://open.spotify.com/album/1Xjfc7PMByG9HowIiqTxBb"
        },
        "href" : "https://api.spotify.com/v1/albums/1Xjfc7PMByG9HowIiqTxBb",
        "id" : "1Xjfc7PMByG9HowIiqTxBb",
        "images" : [ {
          "height" : 640,
          "url" : "https://i.scdn.co/image/ab67616d0000b2730aef2189abbb9c306ae74b2a",
          "width" : 640
        }, {
          "height" : 300,
          "url" : "https://i.scdn.co/image/ab67616d00001e020aef2189abbb9c306ae74b2a",
          "width" : 300
        }, {
          "height" : 64,
          "url" : "https://i.scdn.co/image/ab67616d000048510aef2189abbb9c306ae74b2a",
          "width" : 64
        } ],
        "name" : "Good News",
        "release_date" : "2005-01-01",
        "release_date_precision" : "day",
        "total_tracks" : 10,
        "type" : "album",
        "uri" : "spotify:album:1Xjfc7PMByG9HowIiqTxBb"
      },
      "artists" : [ {
        "external_urls" : {
          "spotify" : "https://open.spotify.com/artist/6chIT9NYdZw7XOXoVIqE3V"
        },
        "href" : "https://api.spotify.com/v1/artists/6chIT9NYdZw7XOXoVIqE3V",
        "id" : "6chIT9NYdZw7XOXoVIqE3V",
        "name" : "Peggy Brown, Sylvia Brown-Roberts, and Raymond Brown",
        "type" : "artist",
        "uri" : "spotify:artist:6chIT9NYdZw7XOXoVIqE3V"
      } ],
      "disc_number" : 1,
      "duration_ms" : 103466,
      "explicit" : false,
      "external_ids" : {
        "isrc" : "ushm90514487"
      },
      "external_urls" : {
        "spotify" : "https://open.spotify.com/track/7daVNPvgdtGjc4nwxWCn4K"
      },
      "href" : "https://api.spotify.com/v1/tracks/7daVNPvgdtGjc4nwxWCn4K",
      "id" : "7daVNPvgdtGjc4nwxWCn4K",
      "is_local" : false,
      "is_playable" : true,
      "name" : "I am praying for you",
      "popularity" : 0,
      "preview_url" : "https://p.scdn.co/mp3-preview/b7115f5a672e871688b53b3dda1d0e4c3567a1e3?cid=774b29d4f13844c495f206cafdad9c86",
      "track_number" : 3,
      "type" : "track",
      "uri" : "spotify:track:7daVNPvgdtGjc4nwxWCn4K"
    }, {
      "album" : {
        "album_type" : "album",
        "artists" : [ {
          "external_urls" : {
            "spotify" : "https://open.spotify.com/artist/2vwu5Dwl2yMcMGW3hOtbAS"
          },
          "href" : "https://api.spotify.com/v1/artists/2vwu5Dwl2yMcMGW3hOtbAS",
          "id" : "2vwu5Dwl2yMcMGW3hOtbAS",
          "name" : "David Au",
          "type" : "artist",
          "uri" : "spotify:artist:2vwu5Dwl2yMcMGW3hOtbAS"
        }, {
          "external_urls" : {
            "spotify" : "https://open.spotify.com/artist/6qpZmsoJv9YY5IWv6AfnBK"
          },
          "href" : "https://api.spotify.com/v1/artists/6qpZmsoJv9YY5IWv6AfnBK",
          "id" : "6qpZmsoJv9YY5IWv6AfnBK",
          "name" : "Steven Au",
          "type" : "artist",
          "uri" : "spotify:artist:6qpZmsoJv9YY5IWv6AfnBK"
        } ],
        "external_urls" : {
          "spotify" : "https://open.spotify.com/album/1DajKDmh4a5mJTgqLBwkQF"
        },
        "href" : "https://api.spotify.com/v1/albums/1DajKDmh4a5mJTgqLBwkQF",
        "id" : "1DajKDmh4a5mJTgqLBwkQF",
        "images" : [ {
          "height" : 640,
          "url" : "https://i.scdn.co/image/ab67616d0000b273878d1ac31658f6c91a2449a1",
          "width" : 640
        }, {
          "height" : 300,
          "url" : "https://i.scdn.co/image/ab67616d00001e02878d1ac31658f6c91a2449a1",
          "width" : 300
        }, {
          "height" : 64,
          "url" : "https://i.scdn.co/image/ab67616d00004851878d1ac31658f6c91a2449a1",
          "width" : 64
        } ],
        "name" : "Beloved Hymns: Precious Memories",
        "release_date" : "2011-07-01",
        "release_date_precision" : "day",
        "total_tracks" : 13,
        "type" : "album",
        "uri" : "spotify:album:1DajKDmh4a5mJTgqLBwkQF"
      },
      "artists" : [ {
        "external_urls" : {
          "spotify" : "https://open.spotify.com/artist/2vwu5Dwl2yMcMGW3hOtbAS"
        },
        "href" : "https://api.spotify.com/v1/artists/2vwu5Dwl2yMcMGW3hOtbAS",
        "id" : "2vwu5Dwl2yMcMGW3hOtbAS",
        "name" : "David Au",
        "type" : "artist",
        "uri" : "spotify:artist:2vwu5Dwl2yMcMGW3hOtbAS"
      }, {
        "external_urls" : {
          "spotify" : "https://open.spotify.com/artist/6qpZmsoJv9YY5IWv6AfnBK"
        },
        "href" : "https://api.spotify.com/v1/artists/6qpZmsoJv9YY5IWv6AfnBK",
        "id" : "6qpZmsoJv9YY5IWv6AfnBK",
        "name" : "Steven Au",
        "type" : "artist",
        "uri" : "spotify:artist:6qpZmsoJv9YY5IWv6AfnBK"
      } ],
      "disc_number" : 1,
      "duration_ms" : 221053,
      "explicit" : false,
      "external_ids" : {
        "isrc" : "QMX6X1100025"
      },
      "external_urls" : {
        "spotify" : "https://open.spotify.com/track/1luYIxsyoHUDpPjP8iK0j1"
      },
      "href" : "https://api.spotify.com/v1/tracks/1luYIxsyoHUDpPjP8iK0j1",
      "id" : "1luYIxsyoHUDpPjP8iK0j1",
      "is_local" : false,
      "is_playable" : true,
      "name" : "I Am Praying for You",
      "popularity" : 1,
      "preview_url" : "https://p.scdn.co/mp3-preview/e8c6640f3ae89af595b80d29669090ba06698324?cid=774b29d4f13844c495f206cafdad9c86",
      "track_number" : 10,
      "type" : "track",
      "uri" : "spotify:track:1luYIxsyoHUDpPjP8iK0j1"
    }, {
      "album" : {
        "album_type" : "single",
        "artists" : [ {
          "external_urls" : {
            "spotify" : "https://open.spotify.com/artist/1lOT5Tq4CmqJBckZFeLDUS"
          },
          "href" : "https://api.spotify.com/v1/artists/1lOT5Tq4CmqJBckZFeLDUS",
          "id" : "1lOT5Tq4CmqJBckZFeLDUS",
          "name" : "Darick J Simpson",
          "type" : "artist",
          "uri" : "spotify:artist:1lOT5Tq4CmqJBckZFeLDUS"
        } ],
        "external_urls" : {
          "spotify" : "https://open.spotify.com/album/2nz8jSIEifOyWIMhpatkFk"
        },
        "href" : "https://api.spotify.com/v1/albums/2nz8jSIEifOyWIMhpatkFk",
        "id" : "2nz8jSIEifOyWIMhpatkFk",
        "images" : [ {
          "height" : 640,
          "url" : "https://i.scdn.co/image/ab67616d0000b273d978a1db50a3df2cab56478a",
          "width" : 640
        }, {
          "height" : 300,
          "url" : "https://i.scdn.co/image/ab67616d00001e02d978a1db50a3df2cab56478a",
          "width" : 300
        }, {
          "height" : 64,
          "url" : "https://i.scdn.co/image/ab67616d00004851d978a1db50a3df2cab56478a",
          "width" : 64
        } ],
        "name" : "I Am Praying for You Alabama",
        "release_date" : "2019-01-26",
        "release_date_precision" : "day",
        "total_tracks" : 1,
        "type" : "album",
        "uri" : "spotify:album:2nz8jSIEifOyWIMhpatkFk"
      },
      "artists" : [ {
        "external_urls" : {
          "spotify" : "https://open.spotify.com/artist/1lOT5Tq4CmqJBckZFeLDUS"
        },
        "href" : "https://api.spotify.com/v1/artists/1lOT5Tq4CmqJBckZFeLDUS",
        "id" : "1lOT5Tq4CmqJBckZFeLDUS",
        "name" : "Darick J Simpson",
        "type" : "artist",
        "uri" : "spotify:artist:1lOT5Tq4CmqJBckZFeLDUS"
      } ],
      "disc_number" : 1,
      "duration_ms" : 374531,
      "explicit" : false,
      "external_ids" : {
        "isrc" : "uscgh1957602"
      },
      "external_urls" : {
        "spotify" : "https://open.spotify.com/track/6giejAzfbQdlHSvJjhCoPC"
      },
      "href" : "https://api.spotify.com/v1/tracks/6giejAzfbQdlHSvJjhCoPC",
      "id" : "6giejAzfbQdlHSvJjhCoPC",
      "is_local" : false,
      "is_playable" : true,
      "name" : "I Am Praying for You Alabama",
      "popularity" : 0,
      "preview_url" : "https://p.scdn.co/mp3-preview/7ae51406975aaf8325076b67a3712b60dffdd7fd?cid=774b29d4f13844c495f206cafdad9c86",
      "track_number" : 1,
      "type" : "track",
      "uri" : "spotify:track:6giejAzfbQdlHSvJjhCoPC"
    } ],
    "limit" : 10,
    "next" : "https://api.spotify.com/v1/search?query=For+You+I+Am+Praying&type=track&market=US&offset=15&limit=10",
    "offset" : 5,
    "previous" : "https://api.spotify.com/v1/search?query=For+You+I+Am+Praying&type=track&market=US&offset=0&limit=10",
    "total" : 26
  }
}