{
  "tracks" : {
    "href" : "https://api.spotify.com/v1/search?query=Lord%2C+I+Want+to+Be+a+Christian&type=track&market=US&offset=5&limit=10",
    "items" : [ {
      "album" : {
        "album_type" : "album",
        "artists" : [ {
          "external_urls" : {
            "spotify" : "https://open.spotify.com/artist/5jzUJxm0aGFCKzIhTv9qLc"
          },
          "href" : "https://api.spotify.com/v1/artists/5jzUJxm0aGFCKzIhTv9qLc",
          "id" : "5jzUJxm0aGFCKzIhTv9qLc",
          "name" : "Maranatha! Promise Band",
          "type" : "artist",
          "uri" : "spotify:artist:5jzUJxm0aGFCKzIhTv9qLc"
        } ],
        "external_urls" : {
          "spotify" : "https://open.spotify.com/album/6z292kKZn36SPCLXYlAQhv"
        },
        "href" : "https://api.spotify.com/v1/albums/6z292kKZn36SPCLXYlAQhv",
        "id" : "6z292kKZn36SPCLXYlAQhv",
        "images" : [ {
          "height" : 640,
          "url" : "https://i.scdn.co/image/ab67616d0000b273fc9f889822d6284a3a8ac358",
          "width" : 640
        }, {
          "height" : 300,
          "url" : "https://i.scdn.co/image/ab67616d00001e02fc9f889822d6284a3a8ac358",
          "width" : 300
        }, {
          "height" : 64,
          "url" : "https://i.scdn.co/image/ab67616d00004851fc9f889822d6284a3a8ac358",
          "width" : 64
        } ],
        "name" : "Promise Keepers - The Making Of A Godly Man",
        "release_date" : "1997-01-01",
        "release_date_precision" : "day",
        "total_tracks" : 11,
        "type" : "album",
        "uri" : "spotify:album:6z292kKZn36SPCLXYlAQhv"
      },
      "artists" : [ {
        "external_urls" : {
          "spotify" : "https://open.spotify.com/artist/5jzUJxm0aGFCKzIhTv9qLc"
        },
        "href" : "https://api.spotify.com/v1/artists/5jzUJxm0aGFCKzIhTv9qLc",
        "id" : "5jzUJxm0aGFCKzIhTv9qLc",
        "name" : "Maranatha! Promise Band",
        "type" : "artist",
        "uri" : "spotify:artist:5jzUJxm0aGFCKzIhTv9qLc"
      } ],
      "disc_number" : 1,
      "duration_ms" : 401240,
      "explicit" : false,
      "external_ids" : {
        "isrc" : "USMN20604561"
      },
      "external_urls" : {
        "spotify" : "https://open.spotify.com/track/7huqk5IjGWZv6wX7A5jB2F"
      },
      "href" : "https://api.spotify.com/v1/tracks/7huqk5IjGWZv6wX7A5jB2F",
      "id" : "7huqk5IjGWZv6wX7A5jB2F",
      "is_local" : false,
      "is_playable" : true,
      "name" : "Lord, I Want To Be Like Jesus (Lord, I Want To Be A Christian)/O To Be Like Thee!/More Like You - Medley",
      "popularity" : 11,
      "preview_url" : null,
      "track_number" : 5,
      "type" : "track",
      "uri" : "spotify:track:7huqk5IjGWZv6wX7A5jB2F"
    }, {
      "album" : {
        "album_type" : "album",
        "artists" : [ {
          "external_urls" : {
            "spotify" : "https://open.spotify.com/artist/5aHE1EAT1F5E1kdvWCqObF"
          },
          "href" : "https://api.spotify.com/v1/artists/5aHE1EAT1F5E1kdvWCqObF",
          "id" : "5aHE1EAT1F5E1kdvWCqObF",
          "name" : "Steven Anderson",
          "type" : "artist",
          "uri" : "spotify:artist:5aHE1EAT1F5E1kdvWCqObF"
        } ],
        "external_urls" : {
          "spotify" : "https://open.spotify.com/album/36Cf5DdPPbTVL080B4jgW5"
        },
        "href" : "https://api.spotify.com/v1/albums/36Cf5DdPPbTVL080B4jgW5",
        "id" : "36Cf5DdPPbTVL080B4jgW5",
        "images" : [ {
          "height" : 640,
          "url" : "https://i.scdn.co/image/ab67616d0000b273b4c0d5689b97f04f06fdfda7",
          "width" : 640
        }, {
          "height" : 300,
          "url" : "https://i.scdn.co/image/ab67616d00001e02b4c0d5689b97f04f06fdfda7",
          "width" : 300
        }, {
          "height" : 64,
          "url" : "https://i.scdn.co/image/ab67616d00004851b4c0d5689b97f04f06fdfda7",
          "width" : 64
        } ],
        "name" : "Amazing Grace: Piano Inspirational Songs",
        "release_date" : "2013-04-30",
        "release_date_precision" : "day",
        "total_tracks" : 20,
        "type" : "album",
        "uri" : "spotify:album:36Cf5DdPPbTVL080B4jgW5"
      },
      "artists" : [ {
        "external_urls" : {
          "spotify" : "https://open.spotify.com/artist/5aHE1EAT1F5E1kdvWCqObF"
        },
        "href" : "https://api.spotify.com/v1/artists/5aHE1EAT1F5E1kdvWCqObF",
        "id" : "5aHE1EAT1F5E1kdvWCqObF",
        "name" : "Steven Anderson",
        "type" : "artist",
        "uri" : "spotify:artist:5aHE1EAT1F5E1kdvWCqObF"
      } ],
      "disc_number" : 1,
      "duration_ms" : 99093,
      "explicit" : false,
      "external_ids" : {
        "isrc" : "CAM460603224"
      },
      "external_urls" : {
        "spotify" : "https://open.spotify.com/track/4eJXXXkHOaqbSVIpk9Q5QZ"
      },
      "href" : "https://api.spotify.com/v1/tracks/4eJXXXkHOaqbSVIpk9Q5QZ",
      "id" : "4eJXXXkHOaqbSVIpk9Q5QZ",
      "is_local" : false,
      "is_playable" : true,
      "name" : "Lord I Want to Be a Christian",
      "popularity" : 10,
      "preview_url" : "https://p.scdn.co/mp3-preview/a31c4f3f669bac93f9023e0a7f8e9aa4ca0e21c4?cid=774b29d4f13844c495f206cafdad9c86",
      "track_number" : 10,
      "type" : "track",
      "uri" : "spotify:track:4eJXXXkHOaqbSVIpk9Q5QZ"
    }, {
      "album" : {
        "album_type" : "album",
        "artists" : [ {
          "external_urls" : {
            "spotify" : "https://open.spotify.com/artist/0MCU2OpgnSB7rm5UPUMHgt"
          },
          "href" : "https://api.spotify.com/v1/artists/0MCU2OpgnSB7rm5UPUMHgt",
          "id" : "0MCU2OpgnSB7rm5UPUMHgt",
          "name" : "Cedarmont Kids",
          "type" : "artist",
          "uri" : "spotify:artist:0MCU2OpgnSB7rm5UPUMHgt"
        } ],
        "external_urls" : {
          "spotify" : "https://open.spotify.com/album/5TTqr5vik8DK5RwVbS82QJ"
        },
        "href" : "https://api.spotify.com/v1/albums/5TTqr5vik8DK5RwVbS82QJ",
        "id" : "5TTqr5vik8DK5RwVbS82QJ",
        "images" : [ {
          "height" : 640,
          "url" : "https://i.scdn.co/image/ab67616d0000b2732a77c12234cb5e27a317f27e",
          "width" : 640
        }, {
          "height" : 300,
          "url" : "https://i.scdn.co/image/ab67616d00001e022a77c12234cb5e27a317f27e",
          "width" : 300
        }, {
          "height" : 64,
          "url" : "https://i.scdn.co/image/ab67616d000048512a77c12234cb5e27a317f27e",
          "width" : 64
        } ],
        "name" : "Toddler Bible Songs",
        "release_date" : "2002-09-24",
        "release_date_precision" : "day",
        "total_tracks" : 44,
        "type" : "album",
        "uri" : "spotify:album:5TTqr5vik8DK5RwVbS82QJ"
      },
      "artists" : [ {
        "external_urls" : {
          "spotify" : "https://open.spotify.com/artist/0MCU2OpgnSB7rm5UPUMHgt"
        },
        "href" : "https://api.spotify.com/v1/artists/0MCU2OpgnSB7rm5UPUMHgt",
        "id" : "0MCU2OpgnSB7rm5UPUMHgt",
        "name" : "Cedarmont Kids",
        "type" : "artist",
        "uri" : "spotify:artist:0MCU2OpgnSB7rm5UPUMHgt"
      } ],
      "disc_number" : 1,
      "duration_ms" : 117520,
      "explicit" : false,
      "external_ids" : {
        "isrc" : "USA5W0400230"
      },
      "external_urls" : {
        "spotify" : "https://open.spotify.com/track/02UwJWuT20FHCAccrIanVm"
      },
      "href" : "https://api.spotify.com/v1/tracks/02UwJWuT20FHCAccrIanVm",
      "id" : "02UwJWuT20FHCAccrIanVm",
      "is_local" : false,
      "is_playable" : true,
      "name" : "Lord, I Want To Be A Christian In My Heart - Split-Track Format",
      "popularity" : 10,
      "preview_url" : "https://p.scdn.co/mp3-preview/9042db2d7140304d12bbfedf82f75a187ca0cac4?cid=774b29d4f13844c495f206cafdad9c86",
      "track_number" : 30,
      "type" : "track",
      "uri" : "spotify:track:02UwJWuT20FHCAccrIanVm"
    }, {
      "album" : {
        "album_type" : "album",
        "artists" : [ {
          "external_urls" : {
            "spotify" : "https://open.spotify.com/artist/0TOrzogcBWUOMQOWOTD8I1"
          },
          "href" : "https://api.spotify.com/v1/artists/0TOrzogcBWUOMQOWOTD8I1",
          "id" : "0TOrzogcBWUOMQOWOTD8I1",
          "name" : "Moses Hogan",
          "type" : "artist",
          "uri" : "spotify:artist:0TOrzogcBWUOMQOWOTD8I1"
        }, {
          "external_urls" : {
            "spotify" : "https://open.spotify.com/artist/69Ak0Ejy9sKky0pCiKH1IC"
          },
          "href" : "https://api.spotify.com/v1/artists/69Ak0Ejy9sKky0pCiKH1IC",
          "id" : "69Ak0Ejy9sKky0pCiKH1IC",
          "name" : "Derek Lee Ragin/Moses Hogan/Moses Hogan Singers",
          "type" : "artist",
          "uri" : "spotify:artist:69Ak0Ejy9sKky0pCiKH1IC"
        } ],
        "external_urls" : {
          "spotify" : "https://open.spotify.com/album/7yvgxDZfCTNl6LnNfCjKFa"
        },
        "href" : "https://api.spotify.com/v1/albums/7yvgxDZfCTNl6LnNfCjKFa",
        "id" : "7yvgxDZfCTNl6LnNfCjKFa",
        "images" : [ {
          "height" : 640,
          "url" : "https://i.scdn.co/image/ab67616d0000b2736c42273e91cce80a73772d47",
          "width" : 640
        }, {
          "height" : 300,
          "url" : "https://i.scdn.co/image/ab67616d00001e026c42273e91cce80a73772d47",
          "width" : 300
        }, {
          "height" : 64,
          "url" : "https://i.scdn.co/image/ab67616d000048516c42273e91cce80a73772d47",
          "width" : 64
        } ],
        "name" : "Negro Spirituals",
        "release_date" : "1996",
        "release_date_precision" : "year",
        "total_tracks" : 21,
        "type" : "album",
        "uri" : "spotify:album:7yvgxDZfCTNl6LnNfCjKFa"
      },
      "artists" : [ {
        "external_urls" : {
          "spotify" : "https://open.spotify.com/artist/0TOrzogcBWUOMQOWOTD8I1"
        },
        "href" : "https://api.spotify.com/v1/artists/0TOrzogcBWUOMQOWOTD8I1",
        "id" : "0TOrzogcBWUOMQOWOTD8I1",
        "name" : "Moses Hogan",
        "type" : "artist",
        "uri" : "spotify:artist:0TOrzogcBWUOMQOWOTD8I1"
      }, {
        "external_urls" : {
          "spotify" : "https://open.spotify.com/artist/1U5zgr455OGyIkLNXvDdrf"
        },
        "href" : "https://api.spotify.com/v1/artists/1U5zgr455OGyIkLNXvDdrf",
        "id" : "1U5zgr455OGyIkLNXvDdrf",
        "name" : "Traditional",
        "type" : "artist",
        "uri" : "spotify:artist:1U5zgr455OGyIkLNXvDdrf"
      }, {
        "external_urls" : {
          "spotify" : "https://open.spotify.com/artist/6KUk1HLWPM840H5cgTAtiP"
        },
        "href" : "https://api.spotify.com/v1/artists/6KUk1HLWPM840H5cgTAtiP",
        "id" : "6KUk1HLWPM840H5cgTAtiP",
        "name" : "The Moses Hogan Singers",
        "type" : "artist",
        "uri" : "spotify:artist:6KUk1HLWPM840H5cgTAtiP"
      } ],
      "disc_number" : 1,
      "duration_ms" : 259160,
      "explicit" : false,
      "external_ids" : {
        "isrc" : "GBAYC0600610"
      },
      "external_urls" : {
        "spotify" : "https://open.spotify.com/track/4e2mtlzGGzhEwYmC235sCw"
      },
      "href" : "https://api.spotify.com/v1/tracks/4e2mtlzGGzhEwYmC235sCw",
      "id" : "4e2mtlzGGzhEwYmC235sCw",
      "is_local" : false,
      "is_playable" : true,
      "name" : "Lord, I want to be a Christian",
      "popularity" : 8,
      "preview_url" : "https://p.scdn.co/mp3-preview/262d3024e192db3c8295b93d3404958b28649fcf?cid=774b29d4f13844c495f206cafdad9c86",
      "track_number" : 3,
      "type" : "track",
      "uri" : "spotify:track:4e2mtlzGGzhEwYmC235sCw"
    }, {
      "album" : {
        "album_type" : "album",
        "artists" : [ {
          "external_urls" : {
            "spotify" : "https://open.spotify.com/artist/319U6LVt3j3iT9oAEzrpRO"
          },
          "href" : "https://api.spotify.com/v1/artists/319U6LVt3j3iT9oAEzrpRO",
          "id" : "319U6LVt3j3iT9oAEzrpRO",
          "name" : "Cyrus Chestnut",
          "type" : "artist",
          "uri" : "spotify:artist:319U6LVt3j3iT9oAEzrpRO"
        } ],
        "external_urls" : {
          "spotify" : "https://open.spotify.com/album/2rSm26o6ns4fvS9achkJ2b"
        },
        "href" : "https://api.spotify.com/v1/albums/2rSm26o6ns4fvS9achkJ2b",
        "id" : "2rSm26o6ns4fvS9achkJ2b",
        "images" : [ {
          "height" : 640,
          "url" : "https://i.scdn.co/image/ab67616d0000b2733a58f36d797be78bd1e7582a",
          "width" : 640
        }, {
          "height" : 300,
          "url" : "https://i.scdn.co/image/ab67616d00001e023a58f36d797be78bd1e7582a",
          "width" : 300
        }, {
          "height" : 64,
          "url" : "https://i.scdn.co/image/ab67616d000048513a58f36d797be78bd1e7582a",
          "width" : 64
        } ],
        "name" : "Kaleidoscope",
        "release_date" : "2018-08-31",
        "release_date_precision" : "day",
        "total_tracks" : 13,
        "type" : "album",
        "uri" : "spotify:album:2rSm26o6ns4fvS9achkJ2b"
      },
      "artists" : [ {
        "external_urls" : {
          "spotify" : "https://open.spotify.com/artist/319U6LVt3j3iT9oAEzrpRO"
        },
        "href" : "https://api.spotify.com/v1/artists/319U6LVt3j3iT9oAEzrpRO",
        "id" : "319U6LVt3j3iT9oAEzrpRO",
        "name" : "Cyrus Chestnut",
        "type" : "artist",
        "uri" : "spotify:artist:319U6LVt3j3iT9oAEzrpRO"
      } ],
      "disc_number" : 1,
      "duration_ms" : 267509,
      "explicit" : false,
      "external_ids" : {
        "isrc" : "USHNR1831707"
      },
      "external_urls" : {
        "spotify" : "https://open.spotify.com/track/05jrgaIu5amocOB5jBYmKp"
      },
      "href" : "https://api.spotify.com/v1/tracks/05jrgaIu5amocOB5jBYmKp",
      "id" : "05jrgaIu5amocOB5jBYmKp",
      "is_local" : false,
      "is_playable" : true,
      "name" : "Lord I Want to Be a Christian",
      "popularity" : 9,
      "preview_url" : "https://p.scdn.co/mp3-preview/9f722f2b4de5de42e7356f1244602f400982e1e7?cid=774b29d4f13844c495f206cafdad9c86",
      "track_number" : 7,
      "type" : "track",
      "uri" : "spotify:track:05jrgaIu5amocOB5jBYmKp"
    }, {
      "album" : {
        "album_type" : "album",
        "artists" : [ {
          "external_urls" : {
            "spotify" : "https://open.spotify.com/artist/47opbYEKDjXnRk9uLscp11"
          },
          "href" : "https://api.spotify.com/v1/artists/47opbYEKDjXnRk9uLscp11",
          "id" : "47opbYEKDjXnRk9uLscp11",
          "name" : "Yolanda Adams",
          "type" : "artist",
          "uri" : "spotify:artist:47opbYEKDjXnRk9uLscp11"
        } ],
        "external_urls" : {
          "spotify" : "https://open.spotify.com/album/7vVXGHz6POqaUM7y4Y5RCn"
        },
        "href" : "https://api.spotify.com/v1/albums/7vVXGHz6POqaUM7y4Y5RCn",
        "id" : "7vVXGHz6POqaUM7y4Y5RCn",
        "images" : [ {
          "height" : 640,
          "url" : "https://i.scdn.co/image/ab67616d0000b273d9ebbc9b5bcd6df4e5b248b7",
          "width" : 640
        }, {
          "height" : 300,
          "url" : "https://i.scdn.co/image/ab67616d00001e02d9ebbc9b5bcd6df4e5b248b7",
          "width" : 300
        }, {
          "height" : 64,
          "url" : "https://i.scdn.co/image/ab67616d00004851d9ebbc9b5bcd6df4e5b248b7",
          "width" : 64
        } ],
        "name" : "Songs From The Heart",
        "release_date" : "1998",
        "release_date_precision" : "year",
        "total_tracks" : 10,
        "type" : "album",
        "uri" : "spotify:album:7vVXGHz6POqaUM7y4Y5RCn"
      },
      "artists" : [ {
        "external_urls" : {
          "spotify" : "https://open.spotify.com/artist/47opbYEKDjXnRk9uLscp11"
        },
        "href" : "https://api.spotify.com/v1/artists/47opbYEKDjXnRk9uLscp11",
        "id" : "47opbYEKDjXnRk9uLscp11",
        "name" : "Yolanda Adams",
        "type" : "artist",
        "uri" : "spotify:artist:47opbYEKDjXnRk9uLscp11"
      } ],
      "disc_number" : 1,
      "duration_ms" : 310893,
      "explicit" : false,
      "external_ids" : {
        "isrc" : "USVE29830181"
      },
      "external_urls" : {
        "spotify" : "https://open.spotify.com/track/7CSFqoy3bFMneMjnAW3TYG"
      },
      "href" : "https://api.spotify.com/v1/tracks/7CSFqoy3bFMneMjnAW3TYG",
      "id" : "7CSFqoy3bFMneMjnAW3TYG",
      "is_local" : false,
      "is_playable" : true,
      "name" : "Lord I Want to Be a Christian",
      "popularity" : 4,
      "preview_url" : "https://p.scdn.co/mp3-preview/d14e638dd0696e3508e0da6d8d22a483861ea200?cid=774b29d4f13844c495f206cafdad9c86",
      "track_number" : 7,
      "type" : "track",
      "uri" : "spotify:track:7CSFqoy3bFMneMjnAW3TYG"
    }, {
      "album" : {
        "album_type" : "album",
        "artists" : [ {
          "external_urls" : {
            "spotify" : "https://open.spotify.com/artist/4CUD9JU5AOsE48HmzyYxv9"
          },
          "href" : "https://api.spotify.com/v1/artists/4CUD9JU5AOsE48HmzyYxv9",
          "id" : "4CUD9JU5AOsE48HmzyYxv9",
          "name" : "Travis Friday",
          "type" : "artist",
          "uri" : "spotify:artist:4CUD9JU5AOsE48HmzyYxv9"
        } ],
        "external_urls" : {
          "spotify" : "https://open.spotify.com/album/35LgJNg4ZuSwo1adcf8s3J"
        },
        "href" : "https://api.spotify.com/v1/albums/35LgJNg4ZuSwo1adcf8s3J",
        "id" : "35LgJNg4ZuSwo1adcf8s3J",
        "images" : [ {
          "height" : 640,
          "url" : "https://i.scdn.co/image/ab67616d0000b273a8ae4d962eb61b564d3ced23",
          "width" : 640
        }, {
          "height" : 300,
          "url" : "https://i.scdn.co/image/ab67616d00001e02a8ae4d962eb61b564d3ced23",
          "width" : 300
        }, {
          "height" : 64,
          "url" : "https://i.scdn.co/image/ab67616d00004851a8ae4d962eb61b564d3ced23",
          "width" : 64
        } ],
        "name" : "Navajo Gospel Songs",
        "release_date" : "2018-07-25",
        "release_date_precision" : "day",
        "total_tracks" : 10,
        "type" : "album",
        "uri" : "spotify:album:35LgJNg4ZuSwo1adcf8s3J"
      },
      "artists" : [ {
        "external_urls" : {
          "spotify" : "https://open.spotify.com/artist/4CUD9JU5AOsE48HmzyYxv9"
        },
        "href" : "https://api.spotify.com/v1/artists/4CUD9JU5AOsE48HmzyYxv9",
        "id" : "4CUD9JU5AOsE48HmzyYxv9",
        "name" : "Travis Friday",
        "type" : "artist",
        "uri" : "spotify:artist:4CUD9JU5AOsE48HmzyYxv9"
      } ],
      "disc_number" : 1,
      "duration_ms" : 182988,
      "explicit" : false,
      "external_ids" : {
        "isrc" : "ushm81815123"
      },
      "external_urls" : {
        "spotify" : "https://open.spotify.com/track/0J0MsD1UR4UCh2Pmhltnsz"
      },
      "href" : "https://api.spotify.com/v1/tracks/0J0MsD1UR4UCh2Pmhltnsz",
      "id" : "0J0MsD1UR4UCh2Pmhltnsz",
      "is_local" : false,
      "is_playable" : true,
      "name" : "Lord, I Want To Be A Christian",
      "popularity" : 4,
      "preview_url" : "https://p.scdn.co/mp3-preview/0d54df1ff0089302168f95c5944b20f3dfae504e?cid=774b29d4f13844c495f206cafdad9c86",
      "track_number" : 4,
      "type" : "track",
      "uri" : "spotify:track:0J0MsD1UR4UCh2Pmhltnsz"
    }, {
      "album" : {
        "album_type" : "album",
        "artists" : [ {
          "external_urls" : {
            "spotify" : "https://open.spotify.com/artist/6v2VjBVPcGVbBqJrUWYiG1"
          },
          "href" : "https://api.spotify.com/v1/artists/6v2VjBVPcGVbBqJrUWYiG1",
          "id" : "6v2VjBVPcGVbBqJrUWYiG1",
          "name" : "Kirk Whalum",
          "type" : "artist",
          "uri" : "spotify:artist:6v2VjBVPcGVbBqJrUWYiG1"
        } ],
        "external_urls" : {
          "spotify" : "https://open.spotify.com/album/51OaHe4X4y09SEtkbfD5gM"
        },
        "href" : "https://api.spotify.com/v1/albums/51OaHe4X4y09SEtkbfD5gM",
        "id" : "51OaHe4X4y09SEtkbfD5gM",
        "images" : [ {
          "height" : 640,
          "url" : "https://i.scdn.co/image/ab67616d0000b273d8629a80c57702901819e058",
          "width" : 640
        }, {
          "height" : 300,
          "url" : "https://i.scdn.co/image/ab67616d00001e02d8629a80c57702901819e058",
          "width" : 300
        }, {
          "height" : 64,
          "url" : "https://i.scdn.co/image/ab67616d00004851d8629a80c57702901819e058",
          "width" : 64
        } ],
        "name" : "The Gospel According to Jazz, Chapter 1 (Live)",
        "release_date" : "1998-10-13",
        "release_date_precision" : "day",
        "total_tracks" : 9,
        "type" : "album",
        "uri" : "spotify:album:51OaHe4X4y09SEtkbfD5gM"
      },
      "artists" : [ {
        "external_urls" : {
          "spotify" : "https://open.spotify.com/artist/6v2VjBVPcGVbBqJrUWYiG1"
        },
        "href" : "https://api.spotify.com/v1/artists/6v2VjBVPcGVbBqJrUWYiG1",
        "id" : "6v2VjBVPcGVbBqJrUWYiG1",
        "name" : "Kirk Whalum",
        "type" : "artist",
        "uri" : "spotify:artist:6v2VjBVPcGVbBqJrUWYiG1"
      } ],
      "disc_number" : 1,
      "duration_ms" : 620440,
      "explicit" : false,
      "external_ids" : {
        "isrc" : "USWB19800693"
      },
      "external_urls" : {
        "spotify" : "https://open.spotify.com/track/13ttEd61Mvm55KOFd4mfSf"
      },
      "href" : "https://api.spotify.com/v1/tracks/13ttEd61Mvm55KOFd4mfSf",
      "id" : "13ttEd61Mvm55KOFd4mfSf",
      "is_local" : false,
      "is_playable" : true,
      "name" : "Lord I Want to Be a Christian - Live",
      "popularity" : 6,
      "preview_url" : "https://p.scdn.co/mp3-preview/753dab18e39a5ca33132bf1a5585b3c60d636e0c?cid=774b29d4f13844c495f206cafdad9c86",
      "track_number" : 8,
      "type" : "track",
      "uri" : "spotify:track:13ttEd61Mvm55KOFd4mfSf"
    }, {
      "album" : {
        "album_type" : "album",
        "artists" : [ {
          "external_urls" : {
            "spotify" : "https://open.spotify.com/artist/0MCU2OpgnSB7rm5UPUMHgt"
          },
          "href" : "https://api.spotify.com/v1/artists/0MCU2OpgnSB7rm5UPUMHgt",
          "id" : "0MCU2OpgnSB7rm5UPUMHgt",
          "name" : "Cedarmont Kids",
          "type" : "artist",
          "uri" : "spotify:artist:0MCU2OpgnSB7rm5UPUMHgt"
        } ],
        "external_urls" : {
          "spotify" : "https://open.spotify.com/album/1VgUj9JfMGh9We013XioCi"
        },
        "href" : "https://api.spotify.com/v1/albums/1VgUj9JfMGh9We013XioCi",
        "id" : "1VgUj9JfMGh9We013XioCi",
        "images" : [ {
          "height" : 640,
          "url" : "https://i.scdn.co/image/ab67616d0000b27344a9cd85ad9388ce4b104b34",
          "width" : 640
        }, {
          "height" : 300,
          "url" : "https://i.scdn.co/image/ab67616d00001e0244a9cd85ad9388ce4b104b34",
          "width" : 300
        }, {
          "height" : 64,
          "url" : "https://i.scdn.co/image/ab67616d0000485144a9cd85ad9388ce4b104b34",
          "width" : 64
        } ],
        "name" : "Gospel Bible Songs",
        "release_date" : "1994-01-01",
        "release_date_precision" : "day",
        "total_tracks" : 34,
        "type" : "album",
        "uri" : "spotify:album:1VgUj9JfMGh9We013XioCi"
      },
      "artists" : [ {
        "external_urls" : {
          "spotify" : "https://open.spotify.com/artist/0MCU2OpgnSB7rm5UPUMHgt"
        },
        "href" : "https://api.spotify.com/v1/artists/0MCU2OpgnSB7rm5UPUMHgt",
        "id" : "0MCU2OpgnSB7rm5UPUMHgt",
        "name" : "Cedarmont Kids",
        "type" : "artist",
        "uri" : "spotify:artist:0MCU2OpgnSB7rm5UPUMHgt"
      } ],
      "disc_number" : 1,
      "duration_ms" : 122826,
      "explicit" : false,
      "external_ids" : {
        "isrc" : "USA5W0400212"
      },
      "external_urls" : {
        "spotify" : "https://open.spotify.com/track/0DHu3Y4EXn6YvmYS3vsM8q"
      },
      "href" : "https://api.spotify.com/v1/tracks/0DHu3Y4EXn6YvmYS3vsM8q",
      "id" : "0DHu3Y4EXn6YvmYS3vsM8q",
      "is_local" : false,
      "is_playable" : true,
      "name" : "Lord, I Want To Be A Christian In My Heart",
      "popularity" : 9,
      "preview_url" : "https://p.scdn.co/mp3-preview/21b6513d48d203de2ccc763db394b3190f35b235?cid=774b29d4f13844c495f206cafdad9c86",
      "track_number" : 6,
      "type" : "track",
      "uri" : "spotify:track:0DHu3Y4EXn6YvmYS3vsM8q"
    }, {
      "album" : {
        "album_type" : "album",
        "artists" : [ {
          "external_urls" : {
            "spotify" : "https://open.spotify.com/artist/4Row5ZexEocO371edZivCt"
          },
          "href" : "https://api.spotify.com/v1/artists/4Row5ZexEocO371edZivCt",
          "id" : "4Row5ZexEocO371edZivCt",
          "name" : "Gary Prim",
          "type" : "artist",
          "uri" : "spotify:artist:4Row5ZexEocO371edZivCt"
        } ],
        "external_urls" : {
          "spotify" : "https://open.spotify.com/album/6gVNF5oeLcoCLRrRHDAjUf"
        },
        "href" : "https://api.spotify.com/v1/albums/6gVNF5oeLcoCLRrRHDAjUf",
        "id" : "6gVNF5oeLcoCLRrRHDAjUf",
        "images" : [ {
          "height" : 640,
          "url" : "https://i.scdn.co/image/ab67616d0000b273293c403d5a99e736343b88ca",
          "width" : 640
        }, {
          "height" : 300,
          "url" : "https://i.scdn.co/image/ab67616d00001e02293c403d5a99e736343b88ca",
          "width" : 300
        }, {
          "height" : 64,
          "url" : "https://i.scdn.co/image/ab67616d00004851293c403d5a99e736343b88ca",
          "width" : 64
        } ],
        "name" : "Inspirational Treasures",
        "release_date" : "2007-05-07",
        "release_date_precision" : "day",
        "total_tracks" : 18,
        "type" : "album",
        "uri" : "spotify:album:6gVNF5oeLcoCLRrRHDAjUf"
      },
      "artists" : [ {
        "external_urls" : {
          "spotify" : "https://open.spotify.com/artist/4Row5ZexEocO371edZivCt"
        },
        "href" : "https://api.spotify.com/v1/artists/4Row5ZexEocO371edZivCt",
        "id" : "4Row5ZexEocO371edZivCt",
        "name" : "Gary Prim",
        "type" : "artist",
        "uri" : "spotify:artist:4Row5ZexEocO371edZivCt"
      } ],
      "disc_number" : 1,
      "duration_ms" : 273293,
      "explicit" : false,
      "external_ids" : {
        "isrc" : "US3TS0900142"
      },
      "external_urls" : {
        "spotify" : "https://open.spotify.com/track/055RiGLLf2lCweJKUwg3qC"
      },
      "href" : "https://api.spotify.com/v1/tracks/055RiGLLf2lCweJKUwg3qC",
      "id" : "055RiGLLf2lCweJKUwg3qC",
      "is_local" : false,
      "is_playable" : true,
      "name" : "Lord, I Want To Be A Christian - Kum Ba Yah - There Is a Balm in Gilead",
      "popularity" : 5,
      "preview_url" : "https://p.scdn.co/mp3-preview/f543d8bf913dca565dd1456125cf9fecc33a6808?cid=774b29d4f13844c495f206cafdad9c86",
      "track_number" : 14,
      "type" : "track",
      "uri" : "spotify:track:055RiGLLf2lCweJKUwg3qC"
    } ],
    "limit" : 10,
    "next" : "https://api.spotify.com/v1/search?query=Lord%2C+I+Want+to+Be+a+Christian&type=track&market=US&offset=15&limit=10",
    "offset" : 5,
    "previous" : "https://api.spotify.com/v1/search?query=Lord%2C+I+Want+to+Be+a+Christian&type=track&market=US&offset=0&limit=10",
    "total" : 184
  }
}