{
  "tracks" : {
    "href" : "https://api.spotify.com/v1/search?query=Rise+Up%2C+Shepherd%2C+and+Follow&type=track&market=US&offset=5&limit=10",
    "items" : [ {
      "album" : {
        "album_type" : "compilation",
        "artists" : [ {
          "external_urls" : {
            "spotify" : "https://open.spotify.com/artist/0LyfQWJT6nXafLPZqxe9Of"
          },
          "href" : "https://api.spotify.com/v1/artists/0LyfQWJT6nXafLPZqxe9Of",
          "id" : "0LyfQWJT6nXafLPZqxe9Of",
          "name" : "Various Artists",
          "type" : "artist",
          "uri" : "spotify:artist:0LyfQWJT6nXafLPZqxe9Of"
        } ],
        "external_urls" : {
          "spotify" : "https://open.spotify.com/album/6uwJ3bPz6UW0kH1Gr1Eg5f"
        },
        "href" : "https://api.spotify.com/v1/albums/6uwJ3bPz6UW0kH1Gr1Eg5f",
        "id" : "6uwJ3bPz6UW0kH1Gr1Eg5f",
        "images" : [ {
          "height" : 640,
          "url" : "https://i.scdn.co/image/ab67616d0000b2738d4324e5ccf9dee9dd869e65",
          "width" : 640
        }, {
          "height" : 300,
          "url" : "https://i.scdn.co/image/ab67616d00001e028d4324e5ccf9dee9dd869e65",
          "width" : 300
        }, {
          "height" : 64,
          "url" : "https://i.scdn.co/image/ab67616d000048518d4324e5ccf9dee9dd869e65",
          "width" : 64
        } ],
        "name" : "Music From The Motion Picture Black Nativity",
        "release_date" : "2013-11-01",
        "release_date_precision" : "day",
        "total_tracks" : 12,
        "type" : "album",
        "uri" : "spotify:album:6uwJ3bPz6UW0kH1Gr1Eg5f"
      },
      "artists" : [ {
        "external_urls" : {
          "spotify" : "https://open.spotify.com/artist/1XkoF8ryArs86LZvFOkbyr"
        },
        "href" : "https://api.spotify.com/v1/artists/1XkoF8ryArs86LZvFOkbyr",
        "id" : "1XkoF8ryArs86LZvFOkbyr",
        "name" : "Mary J. Blige",
        "type" : "artist",
        "uri" : "spotify:artist:1XkoF8ryArs86LZvFOkbyr"
      }, {
        "external_urls" : {
          "spotify" : "https://open.spotify.com/artist/20qISvAhX20dpIbOOzGK3q"
        },
        "href" : "https://api.spotify.com/v1/artists/20qISvAhX20dpIbOOzGK3q",
        "id" : "20qISvAhX20dpIbOOzGK3q",
        "name" : "Nas",
        "type" : "artist",
        "uri" : "spotify:artist:20qISvAhX20dpIbOOzGK3q"
      } ],
      "disc_number" : 1,
      "duration_ms" : 231293,
      "explicit" : false,
      "external_ids" : {
        "isrc" : "USRC11301560"
      },
      "external_urls" : {
        "spotify" : "https://open.spotify.com/track/4RunKVAtmFHSD0i2K0CnC7"
      },
      "href" : "https://api.spotify.com/v1/tracks/4RunKVAtmFHSD0i2K0CnC7",
      "id" : "4RunKVAtmFHSD0i2K0CnC7",
      "is_local" : false,
      "is_playable" : true,
      "name" : "Rise Up Shepherd and Follow",
      "popularity" : 4,
      "preview_url" : "https://p.scdn.co/mp3-preview/1a4daf67ac39006b382777d3dec67fd3271c810f?cid=774b29d4f13844c495f206cafdad9c86",
      "track_number" : 9,
      "type" : "track",
      "uri" : "spotify:track:4RunKVAtmFHSD0i2K0CnC7"
    }, {
      "album" : {
        "album_type" : "album",
        "artists" : [ {
          "external_urls" : {
            "spotify" : "https://open.spotify.com/artist/4YpvNNsBs2exKjLrOMSNbu"
          },
          "href" : "https://api.spotify.com/v1/artists/4YpvNNsBs2exKjLrOMSNbu",
          "id" : "4YpvNNsBs2exKjLrOMSNbu",
          "name" : "Frederick Guntermann",
          "type" : "artist",
          "uri" : "spotify:artist:4YpvNNsBs2exKjLrOMSNbu"
        } ],
        "external_urls" : {
          "spotify" : "https://open.spotify.com/album/2xoWJuge8QOAXJgV2yxjpW"
        },
        "href" : "https://api.spotify.com/v1/albums/2xoWJuge8QOAXJgV2yxjpW",
        "id" : "2xoWJuge8QOAXJgV2yxjpW",
        "images" : [ {
          "height" : 640,
          "url" : "https://i.scdn.co/image/ab67616d0000b273e76c9655090e3ba993e76a25",
          "width" : 640
        }, {
          "height" : 300,
          "url" : "https://i.scdn.co/image/ab67616d00001e02e76c9655090e3ba993e76a25",
          "width" : 300
        }, {
          "height" : 64,
          "url" : "https://i.scdn.co/image/ab67616d00004851e76c9655090e3ba993e76a25",
          "width" : 64
        } ],
        "name" : "Traditional Christmas Hymns and Carols: Organ Accompaniments for Worship Service",
        "release_date" : "2018-04-18",
        "release_date_precision" : "day",
        "total_tracks" : 39,
        "type" : "album",
        "uri" : "spotify:album:2xoWJuge8QOAXJgV2yxjpW"
      },
      "artists" : [ {
        "external_urls" : {
          "spotify" : "https://open.spotify.com/artist/4YpvNNsBs2exKjLrOMSNbu"
        },
        "href" : "https://api.spotify.com/v1/artists/4YpvNNsBs2exKjLrOMSNbu",
        "id" : "4YpvNNsBs2exKjLrOMSNbu",
        "name" : "Frederick Guntermann",
        "type" : "artist",
        "uri" : "spotify:artist:4YpvNNsBs2exKjLrOMSNbu"
      } ],
      "disc_number" : 1,
      "duration_ms" : 88371,
      "explicit" : false,
      "external_ids" : {
        "isrc" : "GB-SMU-50-17086"
      },
      "external_urls" : {
        "spotify" : "https://open.spotify.com/track/1FlI9SkoYpIvwTGVavbsgu"
      },
      "href" : "https://api.spotify.com/v1/tracks/1FlI9SkoYpIvwTGVavbsgu",
      "id" : "1FlI9SkoYpIvwTGVavbsgu",
      "is_local" : false,
      "is_playable" : true,
      "name" : "Rise Up, Shepherd and Follow",
      "popularity" : 4,
      "preview_url" : "https://p.scdn.co/mp3-preview/94c5e6edf66d738e22ab627b922f0b7080655a7f?cid=774b29d4f13844c495f206cafdad9c86",
      "track_number" : 13,
      "type" : "track",
      "uri" : "spotify:track:1FlI9SkoYpIvwTGVavbsgu"
    }, {
      "album" : {
        "album_type" : "album",
        "artists" : [ {
          "external_urls" : {
            "spotify" : "https://open.spotify.com/artist/2wkz8hACugzAvF0voupg3H"
          },
          "href" : "https://api.spotify.com/v1/artists/2wkz8hACugzAvF0voupg3H",
          "id" : "2wkz8hACugzAvF0voupg3H",
          "name" : "Odetta",
          "type" : "artist",
          "uri" : "spotify:artist:2wkz8hACugzAvF0voupg3H"
        } ],
        "external_urls" : {
          "spotify" : "https://open.spotify.com/album/1SXcx7kzlM4hdMyP1kWNgL"
        },
        "href" : "https://api.spotify.com/v1/albums/1SXcx7kzlM4hdMyP1kWNgL",
        "id" : "1SXcx7kzlM4hdMyP1kWNgL",
        "images" : [ {
          "height" : 640,
          "url" : "https://i.scdn.co/image/ab67616d0000b27352500b10c4740d2706654187",
          "width" : 640
        }, {
          "height" : 300,
          "url" : "https://i.scdn.co/image/ab67616d00001e0252500b10c4740d2706654187",
          "width" : 300
        }, {
          "height" : 64,
          "url" : "https://i.scdn.co/image/ab67616d0000485152500b10c4740d2706654187",
          "width" : 64
        } ],
        "name" : "Beautiful Star",
        "release_date" : "2009-11-03",
        "release_date_precision" : "day",
        "total_tracks" : 13,
        "type" : "album",
        "uri" : "spotify:album:1SXcx7kzlM4hdMyP1kWNgL"
      },
      "artists" : [ {
        "external_urls" : {
          "spotify" : "https://open.spotify.com/artist/2wkz8hACugzAvF0voupg3H"
        },
        "href" : "https://api.spotify.com/v1/artists/2wkz8hACugzAvF0voupg3H",
        "id" : "2wkz8hACugzAvF0voupg3H",
        "name" : "Odetta",
        "type" : "artist",
        "uri" : "spotify:artist:2wkz8hACugzAvF0voupg3H"
      } ],
      "disc_number" : 1,
      "duration_ms" : 107880,
      "explicit" : false,
      "external_ids" : {
        "isrc" : "USHW30902062"
      },
      "external_urls" : {
        "spotify" : "https://open.spotify.com/track/5VLolw53aaQj4oFcBRexyM"
      },
      "href" : "https://api.spotify.com/v1/tracks/5VLolw53aaQj4oFcBRexyM",
      "id" : "5VLolw53aaQj4oFcBRexyM",
      "is_local" : false,
      "is_playable" : true,
      "name" : "Rise Up Shepherd and Follow",
      "popularity" : 4,
      "preview_url" : "https://p.scdn.co/mp3-preview/196d2d8ae690c0cff222caea5bb47e6ef52fdc7d?cid=774b29d4f13844c495f206cafdad9c86",
      "track_number" : 1,
      "type" : "track",
      "uri" : "spotify:track:5VLolw53aaQj4oFcBRexyM"
    }, {
      "album" : {
        "album_type" : "album",
        "artists" : [ {
          "external_urls" : {
            "spotify" : "https://open.spotify.com/artist/0daVGEYMVnQZ3NZIpIuFWn"
          },
          "href" : "https://api.spotify.com/v1/artists/0daVGEYMVnQZ3NZIpIuFWn",
          "id" : "0daVGEYMVnQZ3NZIpIuFWn",
          "name" : "The Cambridge Singers",
          "type" : "artist",
          "uri" : "spotify:artist:0daVGEYMVnQZ3NZIpIuFWn"
        }, {
          "external_urls" : {
            "spotify" : "https://open.spotify.com/artist/0qlhpgr87PEG89Jd5iRpxe"
          },
          "href" : "https://api.spotify.com/v1/artists/0qlhpgr87PEG89Jd5iRpxe",
          "id" : "0qlhpgr87PEG89Jd5iRpxe",
          "name" : "John Rutter",
          "type" : "artist",
          "uri" : "spotify:artist:0qlhpgr87PEG89Jd5iRpxe"
        } ],
        "external_urls" : {
          "spotify" : "https://open.spotify.com/album/5rgoVKdzgUTEeygzdLk7M8"
        },
        "href" : "https://api.spotify.com/v1/albums/5rgoVKdzgUTEeygzdLk7M8",
        "id" : "5rgoVKdzgUTEeygzdLk7M8",
        "images" : [ {
          "height" : 640,
          "url" : "https://i.scdn.co/image/ab67616d0000b27315b03c9935a523ff946d2d2c",
          "width" : 640
        }, {
          "height" : 300,
          "url" : "https://i.scdn.co/image/ab67616d00001e0215b03c9935a523ff946d2d2c",
          "width" : 300
        }, {
          "height" : 64,
          "url" : "https://i.scdn.co/image/ab67616d0000485115b03c9935a523ff946d2d2c",
          "width" : 64
        } ],
        "name" : "Christmas Star - Carols for The Christmas Season",
        "release_date" : "1997-10-01",
        "release_date_precision" : "day",
        "total_tracks" : 22,
        "type" : "album",
        "uri" : "spotify:album:5rgoVKdzgUTEeygzdLk7M8"
      },
      "artists" : [ {
        "external_urls" : {
          "spotify" : "https://open.spotify.com/artist/1U5zgr455OGyIkLNXvDdrf"
        },
        "href" : "https://api.spotify.com/v1/artists/1U5zgr455OGyIkLNXvDdrf",
        "id" : "1U5zgr455OGyIkLNXvDdrf",
        "name" : "Traditional",
        "type" : "artist",
        "uri" : "spotify:artist:1U5zgr455OGyIkLNXvDdrf"
      }, {
        "external_urls" : {
          "spotify" : "https://open.spotify.com/artist/0daVGEYMVnQZ3NZIpIuFWn"
        },
        "href" : "https://api.spotify.com/v1/artists/0daVGEYMVnQZ3NZIpIuFWn",
        "id" : "0daVGEYMVnQZ3NZIpIuFWn",
        "name" : "The Cambridge Singers",
        "type" : "artist",
        "uri" : "spotify:artist:0daVGEYMVnQZ3NZIpIuFWn"
      }, {
        "external_urls" : {
          "spotify" : "https://open.spotify.com/artist/0qlhpgr87PEG89Jd5iRpxe"
        },
        "href" : "https://api.spotify.com/v1/artists/0qlhpgr87PEG89Jd5iRpxe",
        "id" : "0qlhpgr87PEG89Jd5iRpxe",
        "name" : "John Rutter",
        "type" : "artist",
        "uri" : "spotify:artist:0qlhpgr87PEG89Jd5iRpxe"
      } ],
      "disc_number" : 1,
      "duration_ms" : 176466,
      "explicit" : false,
      "external_ids" : {
        "isrc" : "GBAKR8150319"
      },
      "external_urls" : {
        "spotify" : "https://open.spotify.com/track/169HSYUkE8JgHyhBvsRwdN"
      },
      "href" : "https://api.spotify.com/v1/tracks/169HSYUkE8JgHyhBvsRwdN",
      "id" : "169HSYUkE8JgHyhBvsRwdN",
      "is_local" : false,
      "is_playable" : true,
      "name" : "Rise up, shepherd, and follow (arr. J. Rutter): Rise up shepherd, and follow",
      "popularity" : 3,
      "preview_url" : "https://p.scdn.co/mp3-preview/9418277391b443c560de160993a0bbe27128d55b?cid=774b29d4f13844c495f206cafdad9c86",
      "track_number" : 19,
      "type" : "track",
      "uri" : "spotify:track:169HSYUkE8JgHyhBvsRwdN"
    }, {
      "album" : {
        "album_type" : "album",
        "artists" : [ {
          "external_urls" : {
            "spotify" : "https://open.spotify.com/artist/3WhbJMZvLj27DBPHwJrZqE"
          },
          "href" : "https://api.spotify.com/v1/artists/3WhbJMZvLj27DBPHwJrZqE",
          "id" : "3WhbJMZvLj27DBPHwJrZqE",
          "name" : "Andre Thomas",
          "type" : "artist",
          "uri" : "spotify:artist:3WhbJMZvLj27DBPHwJrZqE"
        } ],
        "external_urls" : {
          "spotify" : "https://open.spotify.com/album/78Q3U9CZwns2Bm9Mp4X2YA"
        },
        "href" : "https://api.spotify.com/v1/albums/78Q3U9CZwns2Bm9Mp4X2YA",
        "id" : "78Q3U9CZwns2Bm9Mp4X2YA",
        "images" : [ {
          "height" : 640,
          "url" : "https://i.scdn.co/image/ab67616d0000b2731d29b5ab1b324760a3bfe1dc",
          "width" : 640
        }, {
          "height" : 300,
          "url" : "https://i.scdn.co/image/ab67616d00001e021d29b5ab1b324760a3bfe1dc",
          "width" : 300
        }, {
          "height" : 64,
          "url" : "https://i.scdn.co/image/ab67616d000048511d29b5ab1b324760a3bfe1dc",
          "width" : 64
        } ],
        "name" : "Songs From My Heart : Choral Music Of André Thomas",
        "release_date" : "2004-01-01",
        "release_date_precision" : "day",
        "total_tracks" : 21,
        "type" : "album",
        "uri" : "spotify:album:78Q3U9CZwns2Bm9Mp4X2YA"
      },
      "artists" : [ {
        "external_urls" : {
          "spotify" : "https://open.spotify.com/artist/2tK8bea1OuXJnmUlv8nnRX"
        },
        "href" : "https://api.spotify.com/v1/artists/2tK8bea1OuXJnmUlv8nnRX",
        "id" : "2tK8bea1OuXJnmUlv8nnRX",
        "name" : "The St. Olaf Choir",
        "type" : "artist",
        "uri" : "spotify:artist:2tK8bea1OuXJnmUlv8nnRX"
      } ],
      "disc_number" : 1,
      "duration_ms" : 176186,
      "explicit" : false,
      "external_ids" : {
        "isrc" : "usx9p0653725"
      },
      "external_urls" : {
        "spotify" : "https://open.spotify.com/track/1mDLNV5aLCgh9QrXsCyfFE"
      },
      "href" : "https://api.spotify.com/v1/tracks/1mDLNV5aLCgh9QrXsCyfFE",
      "id" : "1mDLNV5aLCgh9QrXsCyfFE",
      "is_local" : false,
      "is_playable" : true,
      "name" : "Rise Up, Shepherd, and Follow",
      "popularity" : 2,
      "preview_url" : "https://p.scdn.co/mp3-preview/09c838bcf873fa47317801be62d51de7e3d55013?cid=774b29d4f13844c495f206cafdad9c86",
      "track_number" : 4,
      "type" : "track",
      "uri" : "spotify:track:1mDLNV5aLCgh9QrXsCyfFE"
    }, {
      "album" : {
        "album_type" : "album",
        "artists" : [ {
          "external_urls" : {
            "spotify" : "https://open.spotify.com/artist/6MnWA8xVW1sEzV9s7wXpQb"
          },
          "href" : "https://api.spotify.com/v1/artists/6MnWA8xVW1sEzV9s7wXpQb",
          "id" : "6MnWA8xVW1sEzV9s7wXpQb",
          "name" : "Jazz At Lincoln Center Orchestra",
          "type" : "artist",
          "uri" : "spotify:artist:6MnWA8xVW1sEzV9s7wXpQb"
        }, {
          "external_urls" : {
            "spotify" : "https://open.spotify.com/artist/375zxMmh2cSgUzFFnva0O7"
          },
          "href" : "https://api.spotify.com/v1/artists/375zxMmh2cSgUzFFnva0O7",
          "id" : "375zxMmh2cSgUzFFnva0O7",
          "name" : "Wynton Marsalis",
          "type" : "artist",
          "uri" : "spotify:artist:375zxMmh2cSgUzFFnva0O7"
        } ],
        "external_urls" : {
          "spotify" : "https://open.spotify.com/album/6pcC5Qoh7lo7TaTTDmNKM5"
        },
        "href" : "https://api.spotify.com/v1/albums/6pcC5Qoh7lo7TaTTDmNKM5",
        "id" : "6pcC5Qoh7lo7TaTTDmNKM5",
        "images" : [ {
          "height" : 640,
          "url" : "https://i.scdn.co/image/ab67616d0000b27344ee79ce7b266a02fb4af98d",
          "width" : 640
        }, {
          "height" : 300,
          "url" : "https://i.scdn.co/image/ab67616d00001e0244ee79ce7b266a02fb4af98d",
          "width" : 300
        }, {
          "height" : 64,
          "url" : "https://i.scdn.co/image/ab67616d0000485144ee79ce7b266a02fb4af98d",
          "width" : 64
        } ],
        "name" : "Big Band Holidays II",
        "release_date" : "2019-10-25",
        "release_date_precision" : "day",
        "total_tracks" : 11,
        "type" : "album",
        "uri" : "spotify:album:6pcC5Qoh7lo7TaTTDmNKM5"
      },
      "artists" : [ {
        "external_urls" : {
          "spotify" : "https://open.spotify.com/artist/6MnWA8xVW1sEzV9s7wXpQb"
        },
        "href" : "https://api.spotify.com/v1/artists/6MnWA8xVW1sEzV9s7wXpQb",
        "id" : "6MnWA8xVW1sEzV9s7wXpQb",
        "name" : "Jazz At Lincoln Center Orchestra",
        "type" : "artist",
        "uri" : "spotify:artist:6MnWA8xVW1sEzV9s7wXpQb"
      }, {
        "external_urls" : {
          "spotify" : "https://open.spotify.com/artist/375zxMmh2cSgUzFFnva0O7"
        },
        "href" : "https://api.spotify.com/v1/artists/375zxMmh2cSgUzFFnva0O7",
        "id" : "375zxMmh2cSgUzFFnva0O7",
        "name" : "Wynton Marsalis",
        "type" : "artist",
        "uri" : "spotify:artist:375zxMmh2cSgUzFFnva0O7"
      } ],
      "disc_number" : 1,
      "duration_ms" : 468763,
      "explicit" : false,
      "external_ids" : {
        "isrc" : "QM6DW1900205"
      },
      "external_urls" : {
        "spotify" : "https://open.spotify.com/track/1369Wak0O6EsiesB1cf4qg"
      },
      "href" : "https://api.spotify.com/v1/tracks/1369Wak0O6EsiesB1cf4qg",
      "id" : "1369Wak0O6EsiesB1cf4qg",
      "is_local" : false,
      "is_playable" : true,
      "name" : "Rise Up, Shepherd, and Follow",
      "popularity" : 6,
      "preview_url" : "https://p.scdn.co/mp3-preview/a911622d56140a17256674ff577e582539f9b3c6?cid=774b29d4f13844c495f206cafdad9c86",
      "track_number" : 5,
      "type" : "track",
      "uri" : "spotify:track:1369Wak0O6EsiesB1cf4qg"
    }, {
      "album" : {
        "album_type" : "album",
        "artists" : [ {
          "external_urls" : {
            "spotify" : "https://open.spotify.com/artist/75L9s8KVrhCNtBUkZFnDFW"
          },
          "href" : "https://api.spotify.com/v1/artists/75L9s8KVrhCNtBUkZFnDFW",
          "id" : "75L9s8KVrhCNtBUkZFnDFW",
          "name" : "Vanessa Williams",
          "type" : "artist",
          "uri" : "spotify:artist:75L9s8KVrhCNtBUkZFnDFW"
        } ],
        "external_urls" : {
          "spotify" : "https://open.spotify.com/album/3W93YBHnc4SPfSsxxi6RuA"
        },
        "href" : "https://api.spotify.com/v1/albums/3W93YBHnc4SPfSsxxi6RuA",
        "id" : "3W93YBHnc4SPfSsxxi6RuA",
        "images" : [ {
          "height" : 640,
          "url" : "https://i.scdn.co/image/ab67616d0000b273d1e8ce9e8bd0266510b8f7cf",
          "width" : 640
        }, {
          "height" : 300,
          "url" : "https://i.scdn.co/image/ab67616d00001e02d1e8ce9e8bd0266510b8f7cf",
          "width" : 300
        }, {
          "height" : 64,
          "url" : "https://i.scdn.co/image/ab67616d00004851d1e8ce9e8bd0266510b8f7cf",
          "width" : 64
        } ],
        "name" : "Christmas With Vanessa Williams",
        "release_date" : "2012-09-04",
        "release_date_precision" : "day",
        "total_tracks" : 13,
        "type" : "album",
        "uri" : "spotify:album:3W93YBHnc4SPfSsxxi6RuA"
      },
      "artists" : [ {
        "external_urls" : {
          "spotify" : "https://open.spotify.com/artist/75L9s8KVrhCNtBUkZFnDFW"
        },
        "href" : "https://api.spotify.com/v1/artists/75L9s8KVrhCNtBUkZFnDFW",
        "id" : "75L9s8KVrhCNtBUkZFnDFW",
        "name" : "Vanessa Williams",
        "type" : "artist",
        "uri" : "spotify:artist:75L9s8KVrhCNtBUkZFnDFW"
      } ],
      "disc_number" : 1,
      "duration_ms" : 293306,
      "explicit" : false,
      "external_ids" : {
        "isrc" : "US3L61200836"
      },
      "external_urls" : {
        "spotify" : "https://open.spotify.com/track/3I0pTLcE9jEg4Erv1E25ds"
      },
      "href" : "https://api.spotify.com/v1/tracks/3I0pTLcE9jEg4Erv1E25ds",
      "id" : "3I0pTLcE9jEg4Erv1E25ds",
      "is_local" : false,
      "is_playable" : true,
      "name" : "Rise Up, Shepherd and Follow",
      "popularity" : 3,
      "preview_url" : "https://p.scdn.co/mp3-preview/e9094eb62bc62bf9e54393ef2cf9ec2d67b7c4c3?cid=774b29d4f13844c495f206cafdad9c86",
      "track_number" : 9,
      "type" : "track",
      "uri" : "spotify:track:3I0pTLcE9jEg4Erv1E25ds"
    }, {
      "album" : {
        "album_type" : "album",
        "artists" : [ {
          "external_urls" : {
            "spotify" : "https://open.spotify.com/artist/26xjUgOzKqBTOu0Yt1CVtE"
          },
          "href" : "https://api.spotify.com/v1/artists/26xjUgOzKqBTOu0Yt1CVtE",
          "id" : "26xjUgOzKqBTOu0Yt1CVtE",
          "name" : "Janie Becker",
          "type" : "artist",
          "uri" : "spotify:artist:26xjUgOzKqBTOu0Yt1CVtE"
        } ],
        "external_urls" : {
          "spotify" : "https://open.spotify.com/album/4qEDjilruvKisbEuo8mUNv"
        },
        "href" : "https://api.spotify.com/v1/albums/4qEDjilruvKisbEuo8mUNv",
        "id" : "4qEDjilruvKisbEuo8mUNv",
        "images" : [ {
          "height" : 640,
          "url" : "https://i.scdn.co/image/ab67616d0000b2735cd8e2ff62afa5730f611007",
          "width" : 640
        }, {
          "height" : 300,
          "url" : "https://i.scdn.co/image/ab67616d00001e025cd8e2ff62afa5730f611007",
          "width" : 300
        }, {
          "height" : 64,
          "url" : "https://i.scdn.co/image/ab67616d000048515cd8e2ff62afa5730f611007",
          "width" : 64
        } ],
        "name" : "HeartSong America",
        "release_date" : "2011-10-01",
        "release_date_precision" : "day",
        "total_tracks" : 16,
        "type" : "album",
        "uri" : "spotify:album:4qEDjilruvKisbEuo8mUNv"
      },
      "artists" : [ {
        "external_urls" : {
          "spotify" : "https://open.spotify.com/artist/26xjUgOzKqBTOu0Yt1CVtE"
        },
        "href" : "https://api.spotify.com/v1/artists/26xjUgOzKqBTOu0Yt1CVtE",
        "id" : "26xjUgOzKqBTOu0Yt1CVtE",
        "name" : "Janie Becker",
        "type" : "artist",
        "uri" : "spotify:artist:26xjUgOzKqBTOu0Yt1CVtE"
      } ],
      "disc_number" : 1,
      "duration_ms" : 239440,
      "explicit" : false,
      "external_ids" : {
        "isrc" : "ushm91144084"
      },
      "external_urls" : {
        "spotify" : "https://open.spotify.com/track/5LE5UDwyZigFOCf7Of3du0"
      },
      "href" : "https://api.spotify.com/v1/tracks/5LE5UDwyZigFOCf7Of3du0",
      "id" : "5LE5UDwyZigFOCf7Of3du0",
      "is_local" : false,
      "is_playable" : true,
      "name" : "Morning Trumpet/Wade in the Water/Rise Up, Shepherd, and Follow",
      "popularity" : 2,
      "preview_url" : "https://p.scdn.co/mp3-preview/a566932723839fdd59151a3166802af3f3f292fa?cid=774b29d4f13844c495f206cafdad9c86",
      "track_number" : 15,
      "type" : "track",
      "uri" : "spotify:track:5LE5UDwyZigFOCf7Of3du0"
    }, {
      "album" : {
        "album_type" : "album",
        "artists" : [ {
          "external_urls" : {
            "spotify" : "https://open.spotify.com/artist/5tF14orX4tFSqVIm4oA9XD"
          },
          "href" : "https://api.spotify.com/v1/artists/5tF14orX4tFSqVIm4oA9XD",
          "id" : "5tF14orX4tFSqVIm4oA9XD",
          "name" : "WordHarmonic",
          "type" : "artist",
          "uri" : "spotify:artist:5tF14orX4tFSqVIm4oA9XD"
        } ],
        "external_urls" : {
          "spotify" : "https://open.spotify.com/album/3vfu3AwAjWmqQnsoLrD7Bg"
        },
        "href" : "https://api.spotify.com/v1/albums/3vfu3AwAjWmqQnsoLrD7Bg",
        "id" : "3vfu3AwAjWmqQnsoLrD7Bg",
        "images" : [ {
          "height" : 640,
          "url" : "https://i.scdn.co/image/ab67616d0000b273f52d2367e91625e934033b72",
          "width" : 640
        }, {
          "height" : 300,
          "url" : "https://i.scdn.co/image/ab67616d00001e02f52d2367e91625e934033b72",
          "width" : 300
        }, {
          "height" : 64,
          "url" : "https://i.scdn.co/image/ab67616d00004851f52d2367e91625e934033b72",
          "width" : 64
        } ],
        "name" : "An Acoustic Christmas: Midnight Clear",
        "release_date" : "2015-08-07",
        "release_date_precision" : "day",
        "total_tracks" : 10,
        "type" : "album",
        "uri" : "spotify:album:3vfu3AwAjWmqQnsoLrD7Bg"
      },
      "artists" : [ {
        "external_urls" : {
          "spotify" : "https://open.spotify.com/artist/5tF14orX4tFSqVIm4oA9XD"
        },
        "href" : "https://api.spotify.com/v1/artists/5tF14orX4tFSqVIm4oA9XD",
        "id" : "5tF14orX4tFSqVIm4oA9XD",
        "name" : "WordHarmonic",
        "type" : "artist",
        "uri" : "spotify:artist:5tF14orX4tFSqVIm4oA9XD"
      } ],
      "disc_number" : 1,
      "duration_ms" : 245906,
      "explicit" : false,
      "external_ids" : {
        "isrc" : "USWR61505084"
      },
      "external_urls" : {
        "spotify" : "https://open.spotify.com/track/2UHr0ksNnyuCbmLyMfLx1Z"
      },
      "href" : "https://api.spotify.com/v1/tracks/2UHr0ksNnyuCbmLyMfLx1Z",
      "id" : "2UHr0ksNnyuCbmLyMfLx1Z",
      "is_local" : false,
      "is_playable" : true,
      "name" : "Rise Up Shepherd And Follow - An Acoustic Christmas: Midnight Clear Version",
      "popularity" : 2,
      "preview_url" : "https://p.scdn.co/mp3-preview/65b0713d6b9321fcc3bec5b90abfaed53cccfc41?cid=774b29d4f13844c495f206cafdad9c86",
      "track_number" : 5,
      "type" : "track",
      "uri" : "spotify:track:2UHr0ksNnyuCbmLyMfLx1Z"
    }, {
      "album" : {
        "album_type" : "album",
        "artists" : [ {
          "external_urls" : {
            "spotify" : "https://open.spotify.com/artist/6Yjl9paMEFt55XWtAnt0cs"
          },
          "href" : "https://api.spotify.com/v1/artists/6Yjl9paMEFt55XWtAnt0cs",
          "id" : "6Yjl9paMEFt55XWtAnt0cs",
          "name" : "Amarcord",
          "type" : "artist",
          "uri" : "spotify:artist:6Yjl9paMEFt55XWtAnt0cs"
        } ],
        "external_urls" : {
          "spotify" : "https://open.spotify.com/album/6TqOQO8iX2CtLbBU4fxItW"
        },
        "href" : "https://api.spotify.com/v1/albums/6TqOQO8iX2CtLbBU4fxItW",
        "id" : "6TqOQO8iX2CtLbBU4fxItW",
        "images" : [ {
          "height" : 640,
          "url" : "https://i.scdn.co/image/ab67616d0000b27314de1418c35011bf0f234cc6",
          "width" : 640
        }, {
          "height" : 300,
          "url" : "https://i.scdn.co/image/ab67616d00001e0214de1418c35011bf0f234cc6",
          "width" : 300
        }, {
          "height" : 64,
          "url" : "https://i.scdn.co/image/ab67616d0000485114de1418c35011bf0f234cc6",
          "width" : 64
        } ],
        "name" : "In Adventu Domini: Vocal Christmas Music",
        "release_date" : "2001",
        "release_date_precision" : "year",
        "total_tracks" : 21,
        "type" : "album",
        "uri" : "spotify:album:6TqOQO8iX2CtLbBU4fxItW"
      },
      "artists" : [ {
        "external_urls" : {
          "spotify" : "https://open.spotify.com/artist/1U5zgr455OGyIkLNXvDdrf"
        },
        "href" : "https://api.spotify.com/v1/artists/1U5zgr455OGyIkLNXvDdrf",
        "id" : "1U5zgr455OGyIkLNXvDdrf",
        "name" : "Traditional",
        "type" : "artist",
        "uri" : "spotify:artist:1U5zgr455OGyIkLNXvDdrf"
      }, {
        "external_urls" : {
          "spotify" : "https://open.spotify.com/artist/6Yjl9paMEFt55XWtAnt0cs"
        },
        "href" : "https://api.spotify.com/v1/artists/6Yjl9paMEFt55XWtAnt0cs",
        "id" : "6Yjl9paMEFt55XWtAnt0cs",
        "name" : "Amarcord",
        "type" : "artist",
        "uri" : "spotify:artist:6Yjl9paMEFt55XWtAnt0cs"
      } ],
      "disc_number" : 1,
      "duration_ms" : 109186,
      "explicit" : false,
      "external_ids" : {
        "isrc" : "DECD60110116"
      },
      "external_urls" : {
        "spotify" : "https://open.spotify.com/track/0q6A28PE0soVshkWCEbiHQ"
      },
      "href" : "https://api.spotify.com/v1/tracks/0q6A28PE0soVshkWCEbiHQ",
      "id" : "0q6A28PE0soVshkWCEbiHQ",
      "is_local" : false,
      "is_playable" : true,
      "name" : "Rise up, shepherd, and follow!: Rise up, shepherd, and follow!",
      "popularity" : 0,
      "preview_url" : "https://p.scdn.co/mp3-preview/39067e6ea8e341c58d3b2fe4b7f10469add88028?cid=774b29d4f13844c495f206cafdad9c86",
      "track_number" : 16,
      "type" : "track",
      "uri" : "spotify:track:0q6A28PE0soVshkWCEbiHQ"
    } ],
    "limit" : 10,
    "next" : "https://api.spotify.com/v1/search?query=Rise+Up%2C+Shepherd%2C+and+Follow&type=track&market=US&offset=15&limit=10",
    "offset" : 5,
    "previous" : "https://api.spotify.com/v1/search?query=Rise+Up%2C+Shepherd%2C+and+Follow&type=track&market=US&offset=0&limit=10",
    "total" : 240
  }
}