{
  "tracks" : {
    "href" : "https://api.spotify.com/v1/search?query=Built+on+the+Rock&type=track&market=US&offset=5&limit=10",
    "items" : [ {
      "album" : {
        "album_type" : "album",
        "artists" : [ {
          "external_urls" : {
            "spotify" : "https://open.spotify.com/artist/4cFPIL4ZfBANnCRq5PNsTo"
          },
          "href" : "https://api.spotify.com/v1/artists/4cFPIL4ZfBANnCRq5PNsTo",
          "id" : "4cFPIL4ZfBANnCRq5PNsTo",
          "name" : "Mary Beth Carlson",
          "type" : "artist",
          "uri" : "spotify:artist:4cFPIL4ZfBANnCRq5PNsTo"
        } ],
        "external_urls" : {
          "spotify" : "https://open.spotify.com/album/5iCJOWwQsJMWbpGXhadCMx"
        },
        "href" : "https://api.spotify.com/v1/albums/5iCJOWwQsJMWbpGXhadCMx",
        "id" : "5iCJOWwQsJMWbpGXhadCMx",
        "images" : [ {
          "height" : 640,
          "url" : "https://i.scdn.co/image/ab67616d0000b2731bb297540758df31e5363c54",
          "width" : 640
        }, {
          "height" : 300,
          "url" : "https://i.scdn.co/image/ab67616d00001e021bb297540758df31e5363c54",
          "width" : 300
        }, {
          "height" : 64,
          "url" : "https://i.scdn.co/image/ab67616d000048511bb297540758df31e5363c54",
          "width" : 64
        } ],
        "name" : "Whisper Hope (Inspirational Music Of Faith)",
        "release_date" : "2001",
        "release_date_precision" : "year",
        "total_tracks" : 16,
        "type" : "album",
        "uri" : "spotify:album:5iCJOWwQsJMWbpGXhadCMx"
      },
      "artists" : [ {
        "external_urls" : {
          "spotify" : "https://open.spotify.com/artist/4cFPIL4ZfBANnCRq5PNsTo"
        },
        "href" : "https://api.spotify.com/v1/artists/4cFPIL4ZfBANnCRq5PNsTo",
        "id" : "4cFPIL4ZfBANnCRq5PNsTo",
        "name" : "Mary Beth Carlson",
        "type" : "artist",
        "uri" : "spotify:artist:4cFPIL4ZfBANnCRq5PNsTo"
      } ],
      "disc_number" : 1,
      "duration_ms" : 188453,
      "explicit" : false,
      "external_ids" : {
        "isrc" : "ushm80662724"
      },
      "external_urls" : {
        "spotify" : "https://open.spotify.com/track/2UP2dlRH26n6Ou58N2YwCE"
      },
      "href" : "https://api.spotify.com/v1/tracks/2UP2dlRH26n6Ou58N2YwCE",
      "id" : "2UP2dlRH26n6Ou58N2YwCE",
      "is_local" : false,
      "is_playable" : true,
      "name" : "My Hope Is Built On Nothing Less (The Solid Rock)",
      "popularity" : 11,
      "preview_url" : "https://p.scdn.co/mp3-preview/237af1a44ef8a24510c32ad60254f25b493d9ab1?cid=774b29d4f13844c495f206cafdad9c86",
      "track_number" : 1,
      "type" : "track",
      "uri" : "spotify:track:2UP2dlRH26n6Ou58N2YwCE"
    }, {
      "album" : {
        "album_type" : "album",
        "artists" : [ {
          "external_urls" : {
            "spotify" : "https://open.spotify.com/artist/0bRpSBtMd3stO4J6TWclMb"
          },
          "href" : "https://api.spotify.com/v1/artists/0bRpSBtMd3stO4J6TWclMb",
          "id" : "0bRpSBtMd3stO4J6TWclMb",
          "name" : "Silver Mt. Zion",
          "type" : "artist",
          "uri" : "spotify:artist:0bRpSBtMd3stO4J6TWclMb"
        } ],
        "external_urls" : {
          "spotify" : "https://open.spotify.com/album/5T3Gbflbs60LGXwgav1Aes"
        },
        "href" : "https://api.spotify.com/v1/albums/5T3Gbflbs60LGXwgav1Aes",
        "id" : "5T3Gbflbs60LGXwgav1Aes",
        "images" : [ {
          "height" : 640,
          "url" : "https://i.scdn.co/image/ab67616d0000b2737708336e85e6d27a4f848601",
          "width" : 640
        }, {
          "height" : 300,
          "url" : "https://i.scdn.co/image/ab67616d00001e027708336e85e6d27a4f848601",
          "width" : 300
        }, {
          "height" : 64,
          "url" : "https://i.scdn.co/image/ab67616d000048517708336e85e6d27a4f848601",
          "width" : 64
        } ],
        "name" : "\"This Is Our Punk-Rock\" Thee Rusted Satellites Gather + Sing",
        "release_date" : "2003-08-25",
        "release_date_precision" : "day",
        "total_tracks" : 4,
        "type" : "album",
        "uri" : "spotify:album:5T3Gbflbs60LGXwgav1Aes"
      },
      "artists" : [ {
        "external_urls" : {
          "spotify" : "https://open.spotify.com/artist/0bRpSBtMd3stO4J6TWclMb"
        },
        "href" : "https://api.spotify.com/v1/artists/0bRpSBtMd3stO4J6TWclMb",
        "id" : "0bRpSBtMd3stO4J6TWclMb",
        "name" : "Silver Mt. Zion",
        "type" : "artist",
        "uri" : "spotify:artist:0bRpSBtMd3stO4J6TWclMb"
      } ],
      "disc_number" : 1,
      "duration_ms" : 884080,
      "explicit" : false,
      "external_ids" : {
        "isrc" : "CACQ20702702"
      },
      "external_urls" : {
        "spotify" : "https://open.spotify.com/track/7HMTo9UVZ852YtSVuu1H8p"
      },
      "href" : "https://api.spotify.com/v1/tracks/7HMTo9UVZ852YtSVuu1H8p",
      "id" : "7HMTo9UVZ852YtSVuu1H8p",
      "is_local" : false,
      "is_playable" : true,
      "name" : "Babylon Was Built On Fire/Starsnostars",
      "popularity" : 13,
      "preview_url" : "https://p.scdn.co/mp3-preview/bb936c087f638eb082410b27642113bf1289f0bd?cid=774b29d4f13844c495f206cafdad9c86",
      "track_number" : 2,
      "type" : "track",
      "uri" : "spotify:track:7HMTo9UVZ852YtSVuu1H8p"
    }, {
      "album" : {
        "album_type" : "album",
        "artists" : [ {
          "external_urls" : {
            "spotify" : "https://open.spotify.com/artist/7Gbhs14qEzheeN71lJ1kXt"
          },
          "href" : "https://api.spotify.com/v1/artists/7Gbhs14qEzheeN71lJ1kXt",
          "id" : "7Gbhs14qEzheeN71lJ1kXt",
          "name" : "Waldham Grove Orchestra",
          "type" : "artist",
          "uri" : "spotify:artist:7Gbhs14qEzheeN71lJ1kXt"
        } ],
        "external_urls" : {
          "spotify" : "https://open.spotify.com/album/5hXKzYHRTHfDUGfeRRGQvP"
        },
        "href" : "https://api.spotify.com/v1/albums/5hXKzYHRTHfDUGfeRRGQvP",
        "id" : "5hXKzYHRTHfDUGfeRRGQvP",
        "images" : [ {
          "height" : 640,
          "url" : "https://i.scdn.co/image/ab67616d0000b2732fde61bb8a94d5c1f0e4daf9",
          "width" : 640
        }, {
          "height" : 300,
          "url" : "https://i.scdn.co/image/ab67616d00001e022fde61bb8a94d5c1f0e4daf9",
          "width" : 300
        }, {
          "height" : 64,
          "url" : "https://i.scdn.co/image/ab67616d000048512fde61bb8a94d5c1f0e4daf9",
          "width" : 64
        } ],
        "name" : "The Traditional Classic Hymns Volume Two",
        "release_date" : "2015-12-26",
        "release_date_precision" : "day",
        "total_tracks" : 37,
        "type" : "album",
        "uri" : "spotify:album:5hXKzYHRTHfDUGfeRRGQvP"
      },
      "artists" : [ {
        "external_urls" : {
          "spotify" : "https://open.spotify.com/artist/7Gbhs14qEzheeN71lJ1kXt"
        },
        "href" : "https://api.spotify.com/v1/artists/7Gbhs14qEzheeN71lJ1kXt",
        "id" : "7Gbhs14qEzheeN71lJ1kXt",
        "name" : "Waldham Grove Orchestra",
        "type" : "artist",
        "uri" : "spotify:artist:7Gbhs14qEzheeN71lJ1kXt"
      } ],
      "disc_number" : 1,
      "duration_ms" : 176895,
      "explicit" : false,
      "external_ids" : {
        "isrc" : "QMPKX1517841"
      },
      "external_urls" : {
        "spotify" : "https://open.spotify.com/track/1pyCpDjo75YzGon3K4SwFO"
      },
      "href" : "https://api.spotify.com/v1/tracks/1pyCpDjo75YzGon3K4SwFO",
      "id" : "1pyCpDjo75YzGon3K4SwFO",
      "is_local" : false,
      "is_playable" : true,
      "name" : "Built on the Rock",
      "popularity" : 14,
      "preview_url" : "https://p.scdn.co/mp3-preview/179952442ca963e1602229bc420c74d362def6bc?cid=774b29d4f13844c495f206cafdad9c86",
      "track_number" : 1,
      "type" : "track",
      "uri" : "spotify:track:1pyCpDjo75YzGon3K4SwFO"
    }, {
      "album" : {
        "album_type" : "album",
        "artists" : [ {
          "external_urls" : {
            "spotify" : "https://open.spotify.com/artist/7bizRFC2Gv4F2XxgamNwNy"
          },
          "href" : "https://api.spotify.com/v1/artists/7bizRFC2Gv4F2XxgamNwNy",
          "id" : "7bizRFC2Gv4F2XxgamNwNy",
          "name" : "Koiné",
          "type" : "artist",
          "uri" : "spotify:artist:7bizRFC2Gv4F2XxgamNwNy"
        } ],
        "external_urls" : {
          "spotify" : "https://open.spotify.com/album/25Kl6cBwyFOkM50ihfa2h2"
        },
        "href" : "https://api.spotify.com/v1/albums/25Kl6cBwyFOkM50ihfa2h2",
        "id" : "25Kl6cBwyFOkM50ihfa2h2",
        "images" : [ {
          "height" : 640,
          "url" : "https://i.scdn.co/image/ab67616d0000b27387b97630cd0258116909a04b",
          "width" : 640
        }, {
          "height" : 300,
          "url" : "https://i.scdn.co/image/ab67616d00001e0287b97630cd0258116909a04b",
          "width" : 300
        }, {
          "height" : 64,
          "url" : "https://i.scdn.co/image/ab67616d0000485187b97630cd0258116909a04b",
          "width" : 64
        } ],
        "name" : "Vol. II Gesangbuch",
        "release_date" : "2008-11-20",
        "release_date_precision" : "day",
        "total_tracks" : 16,
        "type" : "album",
        "uri" : "spotify:album:25Kl6cBwyFOkM50ihfa2h2"
      },
      "artists" : [ {
        "external_urls" : {
          "spotify" : "https://open.spotify.com/artist/7bizRFC2Gv4F2XxgamNwNy"
        },
        "href" : "https://api.spotify.com/v1/artists/7bizRFC2Gv4F2XxgamNwNy",
        "id" : "7bizRFC2Gv4F2XxgamNwNy",
        "name" : "Koiné",
        "type" : "artist",
        "uri" : "spotify:artist:7bizRFC2Gv4F2XxgamNwNy"
      } ],
      "disc_number" : 1,
      "duration_ms" : 237746,
      "explicit" : false,
      "external_ids" : {
        "isrc" : "ushm90877375"
      },
      "external_urls" : {
        "spotify" : "https://open.spotify.com/track/7LVUMT2mAXurRP5bC1p35i"
      },
      "href" : "https://api.spotify.com/v1/tracks/7LVUMT2mAXurRP5bC1p35i",
      "id" : "7LVUMT2mAXurRP5bC1p35i",
      "is_local" : false,
      "is_playable" : true,
      "name" : "Built On The Rock",
      "popularity" : 6,
      "preview_url" : "https://p.scdn.co/mp3-preview/21ce89eb3750a24d9d73944deb5d78cb2837588e?cid=774b29d4f13844c495f206cafdad9c86",
      "track_number" : 15,
      "type" : "track",
      "uri" : "spotify:track:7LVUMT2mAXurRP5bC1p35i"
    }, {
      "album" : {
        "album_type" : "album",
        "artists" : [ {
          "external_urls" : {
            "spotify" : "https://open.spotify.com/artist/3YvKIusD2SEkeB3h02Tnzh"
          },
          "href" : "https://api.spotify.com/v1/artists/3YvKIusD2SEkeB3h02Tnzh",
          "id" : "3YvKIusD2SEkeB3h02Tnzh",
          "name" : "KidzTown Kids",
          "type" : "artist",
          "uri" : "spotify:artist:3YvKIusD2SEkeB3h02Tnzh"
        } ],
        "external_urls" : {
          "spotify" : "https://open.spotify.com/album/5XVgDZ3hu9FavHktuOpAFO"
        },
        "href" : "https://api.spotify.com/v1/albums/5XVgDZ3hu9FavHktuOpAFO",
        "id" : "5XVgDZ3hu9FavHktuOpAFO",
        "images" : [ {
          "height" : 640,
          "url" : "https://i.scdn.co/image/ab67616d0000b273d1de570cdd86b2793da965dd",
          "width" : 640
        }, {
          "height" : 300,
          "url" : "https://i.scdn.co/image/ab67616d00001e02d1de570cdd86b2793da965dd",
          "width" : 300
        }, {
          "height" : 64,
          "url" : "https://i.scdn.co/image/ab67616d00004851d1de570cdd86b2793da965dd",
          "width" : 64
        } ],
        "name" : "20 \"Stay & Play\" Sunday School Songs",
        "release_date" : "2010-02-23",
        "release_date_precision" : "day",
        "total_tracks" : 20,
        "type" : "album",
        "uri" : "spotify:album:5XVgDZ3hu9FavHktuOpAFO"
      },
      "artists" : [ {
        "external_urls" : {
          "spotify" : "https://open.spotify.com/artist/3YvKIusD2SEkeB3h02Tnzh"
        },
        "href" : "https://api.spotify.com/v1/artists/3YvKIusD2SEkeB3h02Tnzh",
        "id" : "3YvKIusD2SEkeB3h02Tnzh",
        "name" : "KidzTown Kids",
        "type" : "artist",
        "uri" : "spotify:artist:3YvKIusD2SEkeB3h02Tnzh"
      } ],
      "disc_number" : 1,
      "duration_ms" : 99799,
      "explicit" : false,
      "external_ids" : {
        "isrc" : "CAM460430932"
      },
      "external_urls" : {
        "spotify" : "https://open.spotify.com/track/11rWG93JA0A9dDPVvWfr2Q"
      },
      "href" : "https://api.spotify.com/v1/tracks/11rWG93JA0A9dDPVvWfr2Q",
      "id" : "11rWG93JA0A9dDPVvWfr2Q",
      "is_local" : false,
      "is_playable" : true,
      "name" : "The Wise Man Built His House On A Rock",
      "popularity" : 10,
      "preview_url" : "https://p.scdn.co/mp3-preview/d8ab736cdb2932a92170e7d3311ca35a48667e40?cid=774b29d4f13844c495f206cafdad9c86",
      "track_number" : 14,
      "type" : "track",
      "uri" : "spotify:track:11rWG93JA0A9dDPVvWfr2Q"
    }, {
      "album" : {
        "album_type" : "album",
        "artists" : [ {
          "external_urls" : {
            "spotify" : "https://open.spotify.com/artist/0xAHllnAJZX2DlM8z2A0hC"
          },
          "href" : "https://api.spotify.com/v1/artists/0xAHllnAJZX2DlM8z2A0hC",
          "id" : "0xAHllnAJZX2DlM8z2A0hC",
          "name" : "The Talleys",
          "type" : "artist",
          "uri" : "spotify:artist:0xAHllnAJZX2DlM8z2A0hC"
        } ],
        "external_urls" : {
          "spotify" : "https://open.spotify.com/album/0cXscZRDmffQSS78EcQSqp"
        },
        "href" : "https://api.spotify.com/v1/albums/0cXscZRDmffQSS78EcQSqp",
        "id" : "0cXscZRDmffQSS78EcQSqp",
        "images" : [ {
          "height" : 640,
          "url" : "https://i.scdn.co/image/ab67616d0000b2736c0d66664be633d7e902595a",
          "width" : 640
        }, {
          "height" : 300,
          "url" : "https://i.scdn.co/image/ab67616d00001e026c0d66664be633d7e902595a",
          "width" : 300
        }, {
          "height" : 64,
          "url" : "https://i.scdn.co/image/ab67616d000048516c0d66664be633d7e902595a",
          "width" : 64
        } ],
        "name" : "Anthology",
        "release_date" : "2005-11-15",
        "release_date_precision" : "day",
        "total_tracks" : 15,
        "type" : "album",
        "uri" : "spotify:album:0cXscZRDmffQSS78EcQSqp"
      },
      "artists" : [ {
        "external_urls" : {
          "spotify" : "https://open.spotify.com/artist/0xAHllnAJZX2DlM8z2A0hC"
        },
        "href" : "https://api.spotify.com/v1/artists/0xAHllnAJZX2DlM8z2A0hC",
        "id" : "0xAHllnAJZX2DlM8z2A0hC",
        "name" : "The Talleys",
        "type" : "artist",
        "uri" : "spotify:artist:0xAHllnAJZX2DlM8z2A0hC"
      } ],
      "disc_number" : 1,
      "duration_ms" : 214866,
      "explicit" : false,
      "external_ids" : {
        "isrc" : "USETB0611042"
      },
      "external_urls" : {
        "spotify" : "https://open.spotify.com/track/5P2JO9Ue5YAsswsL3RnA2g"
      },
      "href" : "https://api.spotify.com/v1/tracks/5P2JO9Ue5YAsswsL3RnA2g",
      "id" : "5P2JO9Ue5YAsswsL3RnA2g",
      "is_local" : false,
      "is_playable" : true,
      "name" : "Built On The Rock",
      "popularity" : 5,
      "preview_url" : "https://p.scdn.co/mp3-preview/c0da3081cbec5841dd4872f1eb61f298d09ad4ff?cid=774b29d4f13844c495f206cafdad9c86",
      "track_number" : 13,
      "type" : "track",
      "uri" : "spotify:track:5P2JO9Ue5YAsswsL3RnA2g"
    }, {
      "album" : {
        "album_type" : "album",
        "artists" : [ {
          "external_urls" : {
            "spotify" : "https://open.spotify.com/artist/16jcT0d1rKkQS39quWnA9v"
          },
          "href" : "https://api.spotify.com/v1/artists/16jcT0d1rKkQS39quWnA9v",
          "id" : "16jcT0d1rKkQS39quWnA9v",
          "name" : "Higher Things",
          "type" : "artist",
          "uri" : "spotify:artist:16jcT0d1rKkQS39quWnA9v"
        } ],
        "external_urls" : {
          "spotify" : "https://open.spotify.com/album/3qDXSMt1MYul2LmcY6JWQi"
        },
        "href" : "https://api.spotify.com/v1/albums/3qDXSMt1MYul2LmcY6JWQi",
        "id" : "3qDXSMt1MYul2LmcY6JWQi",
        "images" : [ {
          "height" : 640,
          "url" : "https://i.scdn.co/image/ab67616d0000b273bfea5b65128a386d55dba6ae",
          "width" : 640
        }, {
          "height" : 300,
          "url" : "https://i.scdn.co/image/ab67616d00001e02bfea5b65128a386d55dba6ae",
          "width" : 300
        }, {
          "height" : 64,
          "url" : "https://i.scdn.co/image/ab67616d00004851bfea5b65128a386d55dba6ae",
          "width" : 64
        } ],
        "name" : "Here We Stand: Singing the Hymns of the Reformation",
        "release_date" : "2017-06-27",
        "release_date_precision" : "day",
        "total_tracks" : 10,
        "type" : "album",
        "uri" : "spotify:album:3qDXSMt1MYul2LmcY6JWQi"
      },
      "artists" : [ {
        "external_urls" : {
          "spotify" : "https://open.spotify.com/artist/16jcT0d1rKkQS39quWnA9v"
        },
        "href" : "https://api.spotify.com/v1/artists/16jcT0d1rKkQS39quWnA9v",
        "id" : "16jcT0d1rKkQS39quWnA9v",
        "name" : "Higher Things",
        "type" : "artist",
        "uri" : "spotify:artist:16jcT0d1rKkQS39quWnA9v"
      } ],
      "disc_number" : 1,
      "duration_ms" : 271200,
      "explicit" : false,
      "external_ids" : {
        "isrc" : "usdy41797741"
      },
      "external_urls" : {
        "spotify" : "https://open.spotify.com/track/69MBKac83U1gVsdb2EXjbx"
      },
      "href" : "https://api.spotify.com/v1/tracks/69MBKac83U1gVsdb2EXjbx",
      "id" : "69MBKac83U1gVsdb2EXjbx",
      "is_local" : false,
      "is_playable" : true,
      "name" : "Built on the Rock",
      "popularity" : 4,
      "preview_url" : "https://p.scdn.co/mp3-preview/bea7a97ce583d24495718eace4396e30108b099c?cid=774b29d4f13844c495f206cafdad9c86",
      "track_number" : 1,
      "type" : "track",
      "uri" : "spotify:track:69MBKac83U1gVsdb2EXjbx"
    }, {
      "album" : {
        "album_type" : "album",
        "artists" : [ {
          "external_urls" : {
            "spotify" : "https://open.spotify.com/artist/0xAHllnAJZX2DlM8z2A0hC"
          },
          "href" : "https://api.spotify.com/v1/artists/0xAHllnAJZX2DlM8z2A0hC",
          "id" : "0xAHllnAJZX2DlM8z2A0hC",
          "name" : "The Talleys",
          "type" : "artist",
          "uri" : "spotify:artist:0xAHllnAJZX2DlM8z2A0hC"
        } ],
        "external_urls" : {
          "spotify" : "https://open.spotify.com/album/6VZ8pCOzjLbgndXnp1kwjc"
        },
        "href" : "https://api.spotify.com/v1/albums/6VZ8pCOzjLbgndXnp1kwjc",
        "id" : "6VZ8pCOzjLbgndXnp1kwjc",
        "images" : [ {
          "height" : 640,
          "url" : "https://i.scdn.co/image/ab67616d0000b273d38b9d06903ff0f5c2347e92",
          "width" : 640
        }, {
          "height" : 300,
          "url" : "https://i.scdn.co/image/ab67616d00001e02d38b9d06903ff0f5c2347e92",
          "width" : 300
        }, {
          "height" : 64,
          "url" : "https://i.scdn.co/image/ab67616d00004851d38b9d06903ff0f5c2347e92",
          "width" : 64
        } ],
        "name" : "So Thankful",
        "release_date" : "1998-01-13",
        "release_date_precision" : "day",
        "total_tracks" : 10,
        "type" : "album",
        "uri" : "spotify:album:6VZ8pCOzjLbgndXnp1kwjc"
      },
      "artists" : [ {
        "external_urls" : {
          "spotify" : "https://open.spotify.com/artist/0xAHllnAJZX2DlM8z2A0hC"
        },
        "href" : "https://api.spotify.com/v1/artists/0xAHllnAJZX2DlM8z2A0hC",
        "id" : "0xAHllnAJZX2DlM8z2A0hC",
        "name" : "The Talleys",
        "type" : "artist",
        "uri" : "spotify:artist:0xAHllnAJZX2DlM8z2A0hC"
      } ],
      "disc_number" : 1,
      "duration_ms" : 215760,
      "explicit" : false,
      "external_ids" : {
        "isrc" : "USETB0611258"
      },
      "external_urls" : {
        "spotify" : "https://open.spotify.com/track/6WNeXjsrFVu8aDWcobxkCq"
      },
      "href" : "https://api.spotify.com/v1/tracks/6WNeXjsrFVu8aDWcobxkCq",
      "id" : "6WNeXjsrFVu8aDWcobxkCq",
      "is_local" : false,
      "is_playable" : true,
      "name" : "Built On The Rock",
      "popularity" : 1,
      "preview_url" : "https://p.scdn.co/mp3-preview/10a8c581cff2fb92ab3965f70709fde9f1428560?cid=774b29d4f13844c495f206cafdad9c86",
      "track_number" : 1,
      "type" : "track",
      "uri" : "spotify:track:6WNeXjsrFVu8aDWcobxkCq"
    }, {
      "album" : {
        "album_type" : "album",
        "artists" : [ {
          "external_urls" : {
            "spotify" : "https://open.spotify.com/artist/2NxATrgtfAcBWW3qUXcSx3"
          },
          "href" : "https://api.spotify.com/v1/artists/2NxATrgtfAcBWW3qUXcSx3",
          "id" : "2NxATrgtfAcBWW3qUXcSx3",
          "name" : "Peter B. Allen",
          "type" : "artist",
          "uri" : "spotify:artist:2NxATrgtfAcBWW3qUXcSx3"
        } ],
        "external_urls" : {
          "spotify" : "https://open.spotify.com/album/0uN045UhGS1RwWItRsVKi3"
        },
        "href" : "https://api.spotify.com/v1/albums/0uN045UhGS1RwWItRsVKi3",
        "id" : "0uN045UhGS1RwWItRsVKi3",
        "images" : [ {
          "height" : 640,
          "url" : "https://i.scdn.co/image/ab67616d0000b273bfcca60502ec992d37696ca0",
          "width" : 640
        }, {
          "height" : 300,
          "url" : "https://i.scdn.co/image/ab67616d00001e02bfcca60502ec992d37696ca0",
          "width" : 300
        }, {
          "height" : 64,
          "url" : "https://i.scdn.co/image/ab67616d00004851bfcca60502ec992d37696ca0",
          "width" : 64
        } ],
        "name" : "Onward",
        "release_date" : "2006-01-01",
        "release_date_precision" : "day",
        "total_tracks" : 7,
        "type" : "album",
        "uri" : "spotify:album:0uN045UhGS1RwWItRsVKi3"
      },
      "artists" : [ {
        "external_urls" : {
          "spotify" : "https://open.spotify.com/artist/2NxATrgtfAcBWW3qUXcSx3"
        },
        "href" : "https://api.spotify.com/v1/artists/2NxATrgtfAcBWW3qUXcSx3",
        "id" : "2NxATrgtfAcBWW3qUXcSx3",
        "name" : "Peter B. Allen",
        "type" : "artist",
        "uri" : "spotify:artist:2NxATrgtfAcBWW3qUXcSx3"
      } ],
      "disc_number" : 1,
      "duration_ms" : 404360,
      "explicit" : false,
      "external_ids" : {
        "isrc" : "usl4q0827351"
      },
      "external_urls" : {
        "spotify" : "https://open.spotify.com/track/5ljABK18Hvos8iUkH5wM3B"
      },
      "href" : "https://api.spotify.com/v1/tracks/5ljABK18Hvos8iUkH5wM3B",
      "id" : "5ljABK18Hvos8iUkH5wM3B",
      "is_local" : false,
      "is_playable" : true,
      "name" : "Built On the Rock",
      "popularity" : 2,
      "preview_url" : "https://p.scdn.co/mp3-preview/b9b95880bc77e42b95112dd66772984cd2587ce9?cid=774b29d4f13844c495f206cafdad9c86",
      "track_number" : 1,
      "type" : "track",
      "uri" : "spotify:track:5ljABK18Hvos8iUkH5wM3B"
    }, {
      "album" : {
        "album_type" : "album",
        "artists" : [ {
          "external_urls" : {
            "spotify" : "https://open.spotify.com/artist/41N4x8ZUxk7JkHORj8M3bd"
          },
          "href" : "https://api.spotify.com/v1/artists/41N4x8ZUxk7JkHORj8M3bd",
          "id" : "41N4x8ZUxk7JkHORj8M3bd",
          "name" : "Concordia Publishing House",
          "type" : "artist",
          "uri" : "spotify:artist:41N4x8ZUxk7JkHORj8M3bd"
        } ],
        "external_urls" : {
          "spotify" : "https://open.spotify.com/album/5wW6s9v2aoSUiiBlqPRurb"
        },
        "href" : "https://api.spotify.com/v1/albums/5wW6s9v2aoSUiiBlqPRurb",
        "id" : "5wW6s9v2aoSUiiBlqPRurb",
        "images" : [ {
          "height" : 640,
          "url" : "https://i.scdn.co/image/ab67616d0000b27341457746d35d086693798c6b",
          "width" : 640
        }, {
          "height" : 300,
          "url" : "https://i.scdn.co/image/ab67616d00001e0241457746d35d086693798c6b",
          "width" : 300
        }, {
          "height" : 64,
          "url" : "https://i.scdn.co/image/ab67616d0000485141457746d35d086693798c6b",
          "width" : 64
        } ],
        "name" : "Hymns for All Saints: Adoration, Praise, Comfort",
        "release_date" : "2004",
        "release_date_precision" : "year",
        "total_tracks" : 19,
        "type" : "album",
        "uri" : "spotify:album:5wW6s9v2aoSUiiBlqPRurb"
      },
      "artists" : [ {
        "external_urls" : {
          "spotify" : "https://open.spotify.com/artist/41N4x8ZUxk7JkHORj8M3bd"
        },
        "href" : "https://api.spotify.com/v1/artists/41N4x8ZUxk7JkHORj8M3bd",
        "id" : "41N4x8ZUxk7JkHORj8M3bd",
        "name" : "Concordia Publishing House",
        "type" : "artist",
        "uri" : "spotify:artist:41N4x8ZUxk7JkHORj8M3bd"
      } ],
      "disc_number" : 1,
      "duration_ms" : 289906,
      "explicit" : false,
      "external_ids" : {
        "isrc" : "US2SL0900606"
      },
      "external_urls" : {
        "spotify" : "https://open.spotify.com/track/3kIJnddLlIgukudsZQJJHF"
      },
      "href" : "https://api.spotify.com/v1/tracks/3kIJnddLlIgukudsZQJJHF",
      "id" : "3kIJnddLlIgukudsZQJJHF",
      "is_local" : false,
      "is_playable" : true,
      "name" : "Built on the Rock the Church Doth Stand",
      "popularity" : 3,
      "preview_url" : "https://p.scdn.co/mp3-preview/027954f90535be8e978eadc10cd87511b4b519bf?cid=774b29d4f13844c495f206cafdad9c86",
      "track_number" : 9,
      "type" : "track",
      "uri" : "spotify:track:3kIJnddLlIgukudsZQJJHF"
    } ],
    "limit" : 10,
    "next" : "https://api.spotify.com/v1/search?query=Built+on+the+Rock&type=track&market=US&offset=15&limit=10",
    "offset" : 5,
    "previous" : "https://api.spotify.com/v1/search?query=Built+on+the+Rock&type=track&market=US&offset=0&limit=10",
    "total" : 83
  }
}