{
  "tracks" : {
    "href" : "https://api.spotify.com/v1/search?query=Ye+Servants+of+God&type=track&market=US&offset=5&limit=10",
    "items" : [ {
      "album" : {
        "album_type" : "album",
        "artists" : [ {
          "external_urls" : {
            "spotify" : "https://open.spotify.com/artist/1J2N3NAGAsKFLBbS0JJpxx"
          },
          "href" : "https://api.spotify.com/v1/artists/1J2N3NAGAsKFLBbS0JJpxx",
          "id" : "1J2N3NAGAsKFLBbS0JJpxx",
          "name" : "Craig Courtney",
          "type" : "artist",
          "uri" : "spotify:artist:1J2N3NAGAsKFLBbS0JJpxx"
        } ],
        "external_urls" : {
          "spotify" : "https://open.spotify.com/album/1FA6ao1w8ACVYWKWD3z5ie"
        },
        "href" : "https://api.spotify.com/v1/albums/1FA6ao1w8ACVYWKWD3z5ie",
        "id" : "1FA6ao1w8ACVYWKWD3z5ie",
        "images" : [ {
          "height" : 640,
          "url" : "https://i.scdn.co/image/ab67616d0000b2731b0927f6fc3d2a6b8344e9ec",
          "width" : 640
        }, {
          "height" : 300,
          "url" : "https://i.scdn.co/image/ab67616d00001e021b0927f6fc3d2a6b8344e9ec",
          "width" : 300
        }, {
          "height" : 64,
          "url" : "https://i.scdn.co/image/ab67616d000048511b0927f6fc3d2a6b8344e9ec",
          "width" : 64
        } ],
        "name" : "Classical Hymns: Hymntunes in the Styles of 10 Classical Composers",
        "release_date" : "2015-05-01",
        "release_date_precision" : "day",
        "total_tracks" : 10,
        "type" : "album",
        "uri" : "spotify:album:1FA6ao1w8ACVYWKWD3z5ie"
      },
      "artists" : [ {
        "external_urls" : {
          "spotify" : "https://open.spotify.com/artist/1J2N3NAGAsKFLBbS0JJpxx"
        },
        "href" : "https://api.spotify.com/v1/artists/1J2N3NAGAsKFLBbS0JJpxx",
        "id" : "1J2N3NAGAsKFLBbS0JJpxx",
        "name" : "Craig Courtney",
        "type" : "artist",
        "uri" : "spotify:artist:1J2N3NAGAsKFLBbS0JJpxx"
      } ],
      "disc_number" : 1,
      "duration_ms" : 61106,
      "explicit" : false,
      "external_ids" : {
        "isrc" : "uscgj1598362"
      },
      "external_urls" : {
        "spotify" : "https://open.spotify.com/track/51lJ3gjDY7OPaClIhi5AwY"
      },
      "href" : "https://api.spotify.com/v1/tracks/51lJ3gjDY7OPaClIhi5AwY",
      "id" : "51lJ3gjDY7OPaClIhi5AwY",
      "is_local" : false,
      "is_playable" : true,
      "name" : "Ye Servants of God (Arr. Craig Courtney)",
      "popularity" : 4,
      "preview_url" : "https://p.scdn.co/mp3-preview/a1bedf75ff633823684844a07b4042f4bf7be5d8?cid=774b29d4f13844c495f206cafdad9c86",
      "track_number" : 4,
      "type" : "track",
      "uri" : "spotify:track:51lJ3gjDY7OPaClIhi5AwY"
    }, {
      "album" : {
        "album_type" : "album",
        "artists" : [ {
          "external_urls" : {
            "spotify" : "https://open.spotify.com/artist/3CrRSBM3g28LyO4DPkPk16"
          },
          "href" : "https://api.spotify.com/v1/artists/3CrRSBM3g28LyO4DPkPk16",
          "id" : "3CrRSBM3g28LyO4DPkPk16",
          "name" : "Methodist Central Hall Choir, Westminster",
          "type" : "artist",
          "uri" : "spotify:artist:3CrRSBM3g28LyO4DPkPk16"
        }, {
          "external_urls" : {
            "spotify" : "https://open.spotify.com/artist/14xoJp5R8MrD1ldOi19rg5"
          },
          "href" : "https://api.spotify.com/v1/artists/14xoJp5R8MrD1ldOi19rg5",
          "id" : "14xoJp5R8MrD1ldOi19rg5",
          "name" : "John Chapman",
          "type" : "artist",
          "uri" : "spotify:artist:14xoJp5R8MrD1ldOi19rg5"
        } ],
        "external_urls" : {
          "spotify" : "https://open.spotify.com/album/4GETqD0OJw504KR7VcVZGV"
        },
        "href" : "https://api.spotify.com/v1/albums/4GETqD0OJw504KR7VcVZGV",
        "id" : "4GETqD0OJw504KR7VcVZGV",
        "images" : [ {
          "height" : 640,
          "url" : "https://i.scdn.co/image/ab67616d0000b273e1ca0b812dc17000aa9492ad",
          "width" : 640
        }, {
          "height" : 300,
          "url" : "https://i.scdn.co/image/ab67616d00001e02e1ca0b812dc17000aa9492ad",
          "width" : 300
        }, {
          "height" : 64,
          "url" : "https://i.scdn.co/image/ab67616d00004851e1ca0b812dc17000aa9492ad",
          "width" : 64
        } ],
        "name" : "Charles Wesley - 20 Favourite Hymns",
        "release_date" : "1985-01-01",
        "release_date_precision" : "day",
        "total_tracks" : 89,
        "type" : "album",
        "uri" : "spotify:album:4GETqD0OJw504KR7VcVZGV"
      },
      "artists" : [ {
        "external_urls" : {
          "spotify" : "https://open.spotify.com/artist/3CrRSBM3g28LyO4DPkPk16"
        },
        "href" : "https://api.spotify.com/v1/artists/3CrRSBM3g28LyO4DPkPk16",
        "id" : "3CrRSBM3g28LyO4DPkPk16",
        "name" : "Methodist Central Hall Choir, Westminster",
        "type" : "artist",
        "uri" : "spotify:artist:3CrRSBM3g28LyO4DPkPk16"
      }, {
        "external_urls" : {
          "spotify" : "https://open.spotify.com/artist/14xoJp5R8MrD1ldOi19rg5"
        },
        "href" : "https://api.spotify.com/v1/artists/14xoJp5R8MrD1ldOi19rg5",
        "id" : "14xoJp5R8MrD1ldOi19rg5",
        "name" : "John Chapman",
        "type" : "artist",
        "uri" : "spotify:artist:14xoJp5R8MrD1ldOi19rg5"
      }, {
        "external_urls" : {
          "spotify" : "https://open.spotify.com/artist/57eAANdGiPahCIzub6OQru"
        },
        "href" : "https://api.spotify.com/v1/artists/57eAANdGiPahCIzub6OQru",
        "id" : "57eAANdGiPahCIzub6OQru",
        "name" : "Epworth Choir",
        "type" : "artist",
        "uri" : "spotify:artist:57eAANdGiPahCIzub6OQru"
      } ],
      "disc_number" : 1,
      "duration_ms" : 31060,
      "explicit" : false,
      "external_ids" : {
        "isrc" : "GBADL8582844"
      },
      "external_urls" : {
        "spotify" : "https://open.spotify.com/track/0Yw9WNUnL81z9tEobErkqr"
      },
      "href" : "https://api.spotify.com/v1/tracks/0Yw9WNUnL81z9tEobErkqr",
      "id" : "0Yw9WNUnL81z9tEobErkqr",
      "is_local" : false,
      "is_playable" : true,
      "name" : "Wesley: Ye Servants of God (Laudate Dominum) - 3. Salvation to God",
      "popularity" : 4,
      "preview_url" : "https://p.scdn.co/mp3-preview/aa11924daa6711f37160992241fbaa27ea524d30?cid=774b29d4f13844c495f206cafdad9c86",
      "track_number" : 44,
      "type" : "track",
      "uri" : "spotify:track:0Yw9WNUnL81z9tEobErkqr"
    }, {
      "album" : {
        "album_type" : "album",
        "artists" : [ {
          "external_urls" : {
            "spotify" : "https://open.spotify.com/artist/3CrRSBM3g28LyO4DPkPk16"
          },
          "href" : "https://api.spotify.com/v1/artists/3CrRSBM3g28LyO4DPkPk16",
          "id" : "3CrRSBM3g28LyO4DPkPk16",
          "name" : "Methodist Central Hall Choir, Westminster",
          "type" : "artist",
          "uri" : "spotify:artist:3CrRSBM3g28LyO4DPkPk16"
        }, {
          "external_urls" : {
            "spotify" : "https://open.spotify.com/artist/14xoJp5R8MrD1ldOi19rg5"
          },
          "href" : "https://api.spotify.com/v1/artists/14xoJp5R8MrD1ldOi19rg5",
          "id" : "14xoJp5R8MrD1ldOi19rg5",
          "name" : "John Chapman",
          "type" : "artist",
          "uri" : "spotify:artist:14xoJp5R8MrD1ldOi19rg5"
        } ],
        "external_urls" : {
          "spotify" : "https://open.spotify.com/album/4GETqD0OJw504KR7VcVZGV"
        },
        "href" : "https://api.spotify.com/v1/albums/4GETqD0OJw504KR7VcVZGV",
        "id" : "4GETqD0OJw504KR7VcVZGV",
        "images" : [ {
          "height" : 640,
          "url" : "https://i.scdn.co/image/ab67616d0000b273e1ca0b812dc17000aa9492ad",
          "width" : 640
        }, {
          "height" : 300,
          "url" : "https://i.scdn.co/image/ab67616d00001e02e1ca0b812dc17000aa9492ad",
          "width" : 300
        }, {
          "height" : 64,
          "url" : "https://i.scdn.co/image/ab67616d00004851e1ca0b812dc17000aa9492ad",
          "width" : 64
        } ],
        "name" : "Charles Wesley - 20 Favourite Hymns",
        "release_date" : "1985-01-01",
        "release_date_precision" : "day",
        "total_tracks" : 89,
        "type" : "album",
        "uri" : "spotify:album:4GETqD0OJw504KR7VcVZGV"
      },
      "artists" : [ {
        "external_urls" : {
          "spotify" : "https://open.spotify.com/artist/3CrRSBM3g28LyO4DPkPk16"
        },
        "href" : "https://api.spotify.com/v1/artists/3CrRSBM3g28LyO4DPkPk16",
        "id" : "3CrRSBM3g28LyO4DPkPk16",
        "name" : "Methodist Central Hall Choir, Westminster",
        "type" : "artist",
        "uri" : "spotify:artist:3CrRSBM3g28LyO4DPkPk16"
      }, {
        "external_urls" : {
          "spotify" : "https://open.spotify.com/artist/14xoJp5R8MrD1ldOi19rg5"
        },
        "href" : "https://api.spotify.com/v1/artists/14xoJp5R8MrD1ldOi19rg5",
        "id" : "14xoJp5R8MrD1ldOi19rg5",
        "name" : "John Chapman",
        "type" : "artist",
        "uri" : "spotify:artist:14xoJp5R8MrD1ldOi19rg5"
      }, {
        "external_urls" : {
          "spotify" : "https://open.spotify.com/artist/57eAANdGiPahCIzub6OQru"
        },
        "href" : "https://api.spotify.com/v1/artists/57eAANdGiPahCIzub6OQru",
        "id" : "57eAANdGiPahCIzub6OQru",
        "name" : "Epworth Choir",
        "type" : "artist",
        "uri" : "spotify:artist:57eAANdGiPahCIzub6OQru"
      } ],
      "disc_number" : 1,
      "duration_ms" : 30257,
      "explicit" : false,
      "external_ids" : {
        "isrc" : "GBADL8582843"
      },
      "external_urls" : {
        "spotify" : "https://open.spotify.com/track/2DXVVc8igmYULdXZFcbhUa"
      },
      "href" : "https://api.spotify.com/v1/tracks/2DXVVc8igmYULdXZFcbhUa",
      "id" : "2DXVVc8igmYULdXZFcbhUa",
      "is_local" : false,
      "is_playable" : true,
      "name" : "Wesley: Ye Servants of God (Laudate Dominum) - 2. God Ruleth on High",
      "popularity" : 4,
      "preview_url" : "https://p.scdn.co/mp3-preview/bc412e439975e330ea0e04d4bbbf10a2bf998794?cid=774b29d4f13844c495f206cafdad9c86",
      "track_number" : 43,
      "type" : "track",
      "uri" : "spotify:track:2DXVVc8igmYULdXZFcbhUa"
    }, {
      "album" : {
        "album_type" : "album",
        "artists" : [ {
          "external_urls" : {
            "spotify" : "https://open.spotify.com/artist/7rluHfxLiKAkAoMkuE1F8U"
          },
          "href" : "https://api.spotify.com/v1/artists/7rluHfxLiKAkAoMkuE1F8U",
          "id" : "7rluHfxLiKAkAoMkuE1F8U",
          "name" : "St. Michael's Singers",
          "type" : "artist",
          "uri" : "spotify:artist:7rluHfxLiKAkAoMkuE1F8U"
        } ],
        "external_urls" : {
          "spotify" : "https://open.spotify.com/album/6B0rBsZWacLCyjiJtNqc5m"
        },
        "href" : "https://api.spotify.com/v1/albums/6B0rBsZWacLCyjiJtNqc5m",
        "id" : "6B0rBsZWacLCyjiJtNqc5m",
        "images" : [ {
          "height" : 640,
          "url" : "https://i.scdn.co/image/ab67616d0000b2730e2cedf8573dcd811cb590b7",
          "width" : 640
        }, {
          "height" : 300,
          "url" : "https://i.scdn.co/image/ab67616d00001e020e2cedf8573dcd811cb590b7",
          "width" : 300
        }, {
          "height" : 64,
          "url" : "https://i.scdn.co/image/ab67616d000048510e2cedf8573dcd811cb590b7",
          "width" : 64
        } ],
        "name" : "The Hymn Makers: Charles Wesley (Vol. 2, Ye Servants of God)",
        "release_date" : "1996",
        "release_date_precision" : "year",
        "total_tracks" : 14,
        "type" : "album",
        "uri" : "spotify:album:6B0rBsZWacLCyjiJtNqc5m"
      },
      "artists" : [ {
        "external_urls" : {
          "spotify" : "https://open.spotify.com/artist/7rluHfxLiKAkAoMkuE1F8U"
        },
        "href" : "https://api.spotify.com/v1/artists/7rluHfxLiKAkAoMkuE1F8U",
        "id" : "7rluHfxLiKAkAoMkuE1F8U",
        "name" : "St. Michael's Singers",
        "type" : "artist",
        "uri" : "spotify:artist:7rluHfxLiKAkAoMkuE1F8U"
      } ],
      "disc_number" : 1,
      "duration_ms" : 282573,
      "explicit" : false,
      "external_ids" : {
        "isrc" : "GBBTM9689107"
      },
      "external_urls" : {
        "spotify" : "https://open.spotify.com/track/42SD6dSnJZP3sRpgITLfPr"
      },
      "href" : "https://api.spotify.com/v1/tracks/42SD6dSnJZP3sRpgITLfPr",
      "id" : "42SD6dSnJZP3sRpgITLfPr",
      "is_local" : false,
      "is_playable" : true,
      "name" : "Hail The Day That Sees Him Rise",
      "popularity" : 6,
      "preview_url" : "https://p.scdn.co/mp3-preview/d31b7a8d3ccbe1d5b97b2100f10179a38b69a020?cid=774b29d4f13844c495f206cafdad9c86",
      "track_number" : 7,
      "type" : "track",
      "uri" : "spotify:track:42SD6dSnJZP3sRpgITLfPr"
    }, {
      "album" : {
        "album_type" : "album",
        "artists" : [ {
          "external_urls" : {
            "spotify" : "https://open.spotify.com/artist/7rluHfxLiKAkAoMkuE1F8U"
          },
          "href" : "https://api.spotify.com/v1/artists/7rluHfxLiKAkAoMkuE1F8U",
          "id" : "7rluHfxLiKAkAoMkuE1F8U",
          "name" : "St. Michael's Singers",
          "type" : "artist",
          "uri" : "spotify:artist:7rluHfxLiKAkAoMkuE1F8U"
        } ],
        "external_urls" : {
          "spotify" : "https://open.spotify.com/album/6B0rBsZWacLCyjiJtNqc5m"
        },
        "href" : "https://api.spotify.com/v1/albums/6B0rBsZWacLCyjiJtNqc5m",
        "id" : "6B0rBsZWacLCyjiJtNqc5m",
        "images" : [ {
          "height" : 640,
          "url" : "https://i.scdn.co/image/ab67616d0000b2730e2cedf8573dcd811cb590b7",
          "width" : 640
        }, {
          "height" : 300,
          "url" : "https://i.scdn.co/image/ab67616d00001e020e2cedf8573dcd811cb590b7",
          "width" : 300
        }, {
          "height" : 64,
          "url" : "https://i.scdn.co/image/ab67616d000048510e2cedf8573dcd811cb590b7",
          "width" : 64
        } ],
        "name" : "The Hymn Makers: Charles Wesley (Vol. 2, Ye Servants of God)",
        "release_date" : "1996",
        "release_date_precision" : "year",
        "total_tracks" : 14,
        "type" : "album",
        "uri" : "spotify:album:6B0rBsZWacLCyjiJtNqc5m"
      },
      "artists" : [ {
        "external_urls" : {
          "spotify" : "https://open.spotify.com/artist/7rluHfxLiKAkAoMkuE1F8U"
        },
        "href" : "https://api.spotify.com/v1/artists/7rluHfxLiKAkAoMkuE1F8U",
        "id" : "7rluHfxLiKAkAoMkuE1F8U",
        "name" : "St. Michael's Singers",
        "type" : "artist",
        "uri" : "spotify:artist:7rluHfxLiKAkAoMkuE1F8U"
      } ],
      "disc_number" : 1,
      "duration_ms" : 160573,
      "explicit" : false,
      "external_ids" : {
        "isrc" : "GBBTM9689110"
      },
      "external_urls" : {
        "spotify" : "https://open.spotify.com/track/5phmmmeltUrFicknWRxcis"
      },
      "href" : "https://api.spotify.com/v1/tracks/5phmmmeltUrFicknWRxcis",
      "id" : "5phmmmeltUrFicknWRxcis",
      "is_local" : false,
      "is_playable" : true,
      "name" : "O Thou Who Camest From Above",
      "popularity" : 6,
      "preview_url" : "https://p.scdn.co/mp3-preview/e7d027187eed8833f74e155b31317e0166247d5e?cid=774b29d4f13844c495f206cafdad9c86",
      "track_number" : 10,
      "type" : "track",
      "uri" : "spotify:track:5phmmmeltUrFicknWRxcis"
    }, {
      "album" : {
        "album_type" : "album",
        "artists" : [ {
          "external_urls" : {
            "spotify" : "https://open.spotify.com/artist/7rluHfxLiKAkAoMkuE1F8U"
          },
          "href" : "https://api.spotify.com/v1/artists/7rluHfxLiKAkAoMkuE1F8U",
          "id" : "7rluHfxLiKAkAoMkuE1F8U",
          "name" : "St. Michael's Singers",
          "type" : "artist",
          "uri" : "spotify:artist:7rluHfxLiKAkAoMkuE1F8U"
        } ],
        "external_urls" : {
          "spotify" : "https://open.spotify.com/album/6B0rBsZWacLCyjiJtNqc5m"
        },
        "href" : "https://api.spotify.com/v1/albums/6B0rBsZWacLCyjiJtNqc5m",
        "id" : "6B0rBsZWacLCyjiJtNqc5m",
        "images" : [ {
          "height" : 640,
          "url" : "https://i.scdn.co/image/ab67616d0000b2730e2cedf8573dcd811cb590b7",
          "width" : 640
        }, {
          "height" : 300,
          "url" : "https://i.scdn.co/image/ab67616d00001e020e2cedf8573dcd811cb590b7",
          "width" : 300
        }, {
          "height" : 64,
          "url" : "https://i.scdn.co/image/ab67616d000048510e2cedf8573dcd811cb590b7",
          "width" : 64
        } ],
        "name" : "The Hymn Makers: Charles Wesley (Vol. 2, Ye Servants of God)",
        "release_date" : "1996",
        "release_date_precision" : "year",
        "total_tracks" : 14,
        "type" : "album",
        "uri" : "spotify:album:6B0rBsZWacLCyjiJtNqc5m"
      },
      "artists" : [ {
        "external_urls" : {
          "spotify" : "https://open.spotify.com/artist/7rluHfxLiKAkAoMkuE1F8U"
        },
        "href" : "https://api.spotify.com/v1/artists/7rluHfxLiKAkAoMkuE1F8U",
        "id" : "7rluHfxLiKAkAoMkuE1F8U",
        "name" : "St. Michael's Singers",
        "type" : "artist",
        "uri" : "spotify:artist:7rluHfxLiKAkAoMkuE1F8U"
      } ],
      "disc_number" : 1,
      "duration_ms" : 230693,
      "explicit" : false,
      "external_ids" : {
        "isrc" : "GBBTM9689103"
      },
      "external_urls" : {
        "spotify" : "https://open.spotify.com/track/7cQKDjgcK7SJqcYXYxSfZH"
      },
      "href" : "https://api.spotify.com/v1/tracks/7cQKDjgcK7SJqcYXYxSfZH",
      "id" : "7cQKDjgcK7SJqcYXYxSfZH",
      "is_local" : false,
      "is_playable" : true,
      "name" : "O Love Divine",
      "popularity" : 6,
      "preview_url" : "https://p.scdn.co/mp3-preview/7f9db21727824308f427d6b7d660eca005bb6f82?cid=774b29d4f13844c495f206cafdad9c86",
      "track_number" : 3,
      "type" : "track",
      "uri" : "spotify:track:7cQKDjgcK7SJqcYXYxSfZH"
    }, {
      "album" : {
        "album_type" : "album",
        "artists" : [ {
          "external_urls" : {
            "spotify" : "https://open.spotify.com/artist/3CrRSBM3g28LyO4DPkPk16"
          },
          "href" : "https://api.spotify.com/v1/artists/3CrRSBM3g28LyO4DPkPk16",
          "id" : "3CrRSBM3g28LyO4DPkPk16",
          "name" : "Methodist Central Hall Choir, Westminster",
          "type" : "artist",
          "uri" : "spotify:artist:3CrRSBM3g28LyO4DPkPk16"
        }, {
          "external_urls" : {
            "spotify" : "https://open.spotify.com/artist/14xoJp5R8MrD1ldOi19rg5"
          },
          "href" : "https://api.spotify.com/v1/artists/14xoJp5R8MrD1ldOi19rg5",
          "id" : "14xoJp5R8MrD1ldOi19rg5",
          "name" : "John Chapman",
          "type" : "artist",
          "uri" : "spotify:artist:14xoJp5R8MrD1ldOi19rg5"
        } ],
        "external_urls" : {
          "spotify" : "https://open.spotify.com/album/4GETqD0OJw504KR7VcVZGV"
        },
        "href" : "https://api.spotify.com/v1/albums/4GETqD0OJw504KR7VcVZGV",
        "id" : "4GETqD0OJw504KR7VcVZGV",
        "images" : [ {
          "height" : 640,
          "url" : "https://i.scdn.co/image/ab67616d0000b273e1ca0b812dc17000aa9492ad",
          "width" : 640
        }, {
          "height" : 300,
          "url" : "https://i.scdn.co/image/ab67616d00001e02e1ca0b812dc17000aa9492ad",
          "width" : 300
        }, {
          "height" : 64,
          "url" : "https://i.scdn.co/image/ab67616d00004851e1ca0b812dc17000aa9492ad",
          "width" : 64
        } ],
        "name" : "Charles Wesley - 20 Favourite Hymns",
        "release_date" : "1985-01-01",
        "release_date_precision" : "day",
        "total_tracks" : 89,
        "type" : "album",
        "uri" : "spotify:album:4GETqD0OJw504KR7VcVZGV"
      },
      "artists" : [ {
        "external_urls" : {
          "spotify" : "https://open.spotify.com/artist/3CrRSBM3g28LyO4DPkPk16"
        },
        "href" : "https://api.spotify.com/v1/artists/3CrRSBM3g28LyO4DPkPk16",
        "id" : "3CrRSBM3g28LyO4DPkPk16",
        "name" : "Methodist Central Hall Choir, Westminster",
        "type" : "artist",
        "uri" : "spotify:artist:3CrRSBM3g28LyO4DPkPk16"
      }, {
        "external_urls" : {
          "spotify" : "https://open.spotify.com/artist/14xoJp5R8MrD1ldOi19rg5"
        },
        "href" : "https://api.spotify.com/v1/artists/14xoJp5R8MrD1ldOi19rg5",
        "id" : "14xoJp5R8MrD1ldOi19rg5",
        "name" : "John Chapman",
        "type" : "artist",
        "uri" : "spotify:artist:14xoJp5R8MrD1ldOi19rg5"
      }, {
        "external_urls" : {
          "spotify" : "https://open.spotify.com/artist/57eAANdGiPahCIzub6OQru"
        },
        "href" : "https://api.spotify.com/v1/artists/57eAANdGiPahCIzub6OQru",
        "id" : "57eAANdGiPahCIzub6OQru",
        "name" : "Epworth Choir",
        "type" : "artist",
        "uri" : "spotify:artist:57eAANdGiPahCIzub6OQru"
      } ],
      "disc_number" : 1,
      "duration_ms" : 36034,
      "explicit" : false,
      "external_ids" : {
        "isrc" : "GBADL8582845"
      },
      "external_urls" : {
        "spotify" : "https://open.spotify.com/track/2pxC1OKrwqyhYSiFHYLbdF"
      },
      "href" : "https://api.spotify.com/v1/tracks/2pxC1OKrwqyhYSiFHYLbdF",
      "id" : "2pxC1OKrwqyhYSiFHYLbdF",
      "is_local" : false,
      "is_playable" : true,
      "name" : "Wesley: Ye Servants of God (Laudate Dominum) - 4. Then Let Us Adore",
      "popularity" : 4,
      "preview_url" : "https://p.scdn.co/mp3-preview/2b2387d3e520f56948003129680352b002579b6e?cid=774b29d4f13844c495f206cafdad9c86",
      "track_number" : 45,
      "type" : "track",
      "uri" : "spotify:track:2pxC1OKrwqyhYSiFHYLbdF"
    }, {
      "album" : {
        "album_type" : "album",
        "artists" : [ {
          "external_urls" : {
            "spotify" : "https://open.spotify.com/artist/7rluHfxLiKAkAoMkuE1F8U"
          },
          "href" : "https://api.spotify.com/v1/artists/7rluHfxLiKAkAoMkuE1F8U",
          "id" : "7rluHfxLiKAkAoMkuE1F8U",
          "name" : "St. Michael's Singers",
          "type" : "artist",
          "uri" : "spotify:artist:7rluHfxLiKAkAoMkuE1F8U"
        } ],
        "external_urls" : {
          "spotify" : "https://open.spotify.com/album/6B0rBsZWacLCyjiJtNqc5m"
        },
        "href" : "https://api.spotify.com/v1/albums/6B0rBsZWacLCyjiJtNqc5m",
        "id" : "6B0rBsZWacLCyjiJtNqc5m",
        "images" : [ {
          "height" : 640,
          "url" : "https://i.scdn.co/image/ab67616d0000b2730e2cedf8573dcd811cb590b7",
          "width" : 640
        }, {
          "height" : 300,
          "url" : "https://i.scdn.co/image/ab67616d00001e020e2cedf8573dcd811cb590b7",
          "width" : 300
        }, {
          "height" : 64,
          "url" : "https://i.scdn.co/image/ab67616d000048510e2cedf8573dcd811cb590b7",
          "width" : 64
        } ],
        "name" : "The Hymn Makers: Charles Wesley (Vol. 2, Ye Servants of God)",
        "release_date" : "1996",
        "release_date_precision" : "year",
        "total_tracks" : 14,
        "type" : "album",
        "uri" : "spotify:album:6B0rBsZWacLCyjiJtNqc5m"
      },
      "artists" : [ {
        "external_urls" : {
          "spotify" : "https://open.spotify.com/artist/7rluHfxLiKAkAoMkuE1F8U"
        },
        "href" : "https://api.spotify.com/v1/artists/7rluHfxLiKAkAoMkuE1F8U",
        "id" : "7rluHfxLiKAkAoMkuE1F8U",
        "name" : "St. Michael's Singers",
        "type" : "artist",
        "uri" : "spotify:artist:7rluHfxLiKAkAoMkuE1F8U"
      } ],
      "disc_number" : 1,
      "duration_ms" : 193666,
      "explicit" : false,
      "external_ids" : {
        "isrc" : "GBBTM9689102"
      },
      "external_urls" : {
        "spotify" : "https://open.spotify.com/track/1TaPIxYToCgfTD2drIYjha"
      },
      "href" : "https://api.spotify.com/v1/tracks/1TaPIxYToCgfTD2drIYjha",
      "id" : "1TaPIxYToCgfTD2drIYjha",
      "is_local" : false,
      "is_playable" : true,
      "name" : "Thou God Of Truth And Love",
      "popularity" : 4,
      "preview_url" : "https://p.scdn.co/mp3-preview/2fcea8cd95dd16f908aacc8b18b72b0e31258e14?cid=774b29d4f13844c495f206cafdad9c86",
      "track_number" : 2,
      "type" : "track",
      "uri" : "spotify:track:1TaPIxYToCgfTD2drIYjha"
    }, {
      "album" : {
        "album_type" : "album",
        "artists" : [ {
          "external_urls" : {
            "spotify" : "https://open.spotify.com/artist/7rluHfxLiKAkAoMkuE1F8U"
          },
          "href" : "https://api.spotify.com/v1/artists/7rluHfxLiKAkAoMkuE1F8U",
          "id" : "7rluHfxLiKAkAoMkuE1F8U",
          "name" : "St. Michael's Singers",
          "type" : "artist",
          "uri" : "spotify:artist:7rluHfxLiKAkAoMkuE1F8U"
        } ],
        "external_urls" : {
          "spotify" : "https://open.spotify.com/album/6B0rBsZWacLCyjiJtNqc5m"
        },
        "href" : "https://api.spotify.com/v1/albums/6B0rBsZWacLCyjiJtNqc5m",
        "id" : "6B0rBsZWacLCyjiJtNqc5m",
        "images" : [ {
          "height" : 640,
          "url" : "https://i.scdn.co/image/ab67616d0000b2730e2cedf8573dcd811cb590b7",
          "width" : 640
        }, {
          "height" : 300,
          "url" : "https://i.scdn.co/image/ab67616d00001e020e2cedf8573dcd811cb590b7",
          "width" : 300
        }, {
          "height" : 64,
          "url" : "https://i.scdn.co/image/ab67616d000048510e2cedf8573dcd811cb590b7",
          "width" : 64
        } ],
        "name" : "The Hymn Makers: Charles Wesley (Vol. 2, Ye Servants of God)",
        "release_date" : "1996",
        "release_date_precision" : "year",
        "total_tracks" : 14,
        "type" : "album",
        "uri" : "spotify:album:6B0rBsZWacLCyjiJtNqc5m"
      },
      "artists" : [ {
        "external_urls" : {
          "spotify" : "https://open.spotify.com/artist/7rluHfxLiKAkAoMkuE1F8U"
        },
        "href" : "https://api.spotify.com/v1/artists/7rluHfxLiKAkAoMkuE1F8U",
        "id" : "7rluHfxLiKAkAoMkuE1F8U",
        "name" : "St. Michael's Singers",
        "type" : "artist",
        "uri" : "spotify:artist:7rluHfxLiKAkAoMkuE1F8U"
      } ],
      "disc_number" : 1,
      "duration_ms" : 182133,
      "explicit" : false,
      "external_ids" : {
        "isrc" : "GBBTM9689111"
      },
      "external_urls" : {
        "spotify" : "https://open.spotify.com/track/28w47WGoKz2ELjfMnyj0X2"
      },
      "href" : "https://api.spotify.com/v1/tracks/28w47WGoKz2ELjfMnyj0X2",
      "id" : "28w47WGoKz2ELjfMnyj0X2",
      "is_local" : false,
      "is_playable" : true,
      "name" : "O For A Heart To Praise My God",
      "popularity" : 5,
      "preview_url" : "https://p.scdn.co/mp3-preview/90b5995726cf7030c1a8cd776f0e7e387dd87713?cid=774b29d4f13844c495f206cafdad9c86",
      "track_number" : 11,
      "type" : "track",
      "uri" : "spotify:track:28w47WGoKz2ELjfMnyj0X2"
    }, {
      "album" : {
        "album_type" : "album",
        "artists" : [ {
          "external_urls" : {
            "spotify" : "https://open.spotify.com/artist/7rluHfxLiKAkAoMkuE1F8U"
          },
          "href" : "https://api.spotify.com/v1/artists/7rluHfxLiKAkAoMkuE1F8U",
          "id" : "7rluHfxLiKAkAoMkuE1F8U",
          "name" : "St. Michael's Singers",
          "type" : "artist",
          "uri" : "spotify:artist:7rluHfxLiKAkAoMkuE1F8U"
        } ],
        "external_urls" : {
          "spotify" : "https://open.spotify.com/album/6B0rBsZWacLCyjiJtNqc5m"
        },
        "href" : "https://api.spotify.com/v1/albums/6B0rBsZWacLCyjiJtNqc5m",
        "id" : "6B0rBsZWacLCyjiJtNqc5m",
        "images" : [ {
          "height" : 640,
          "url" : "https://i.scdn.co/image/ab67616d0000b2730e2cedf8573dcd811cb590b7",
          "width" : 640
        }, {
          "height" : 300,
          "url" : "https://i.scdn.co/image/ab67616d00001e020e2cedf8573dcd811cb590b7",
          "width" : 300
        }, {
          "height" : 64,
          "url" : "https://i.scdn.co/image/ab67616d000048510e2cedf8573dcd811cb590b7",
          "width" : 64
        } ],
        "name" : "The Hymn Makers: Charles Wesley (Vol. 2, Ye Servants of God)",
        "release_date" : "1996",
        "release_date_precision" : "year",
        "total_tracks" : 14,
        "type" : "album",
        "uri" : "spotify:album:6B0rBsZWacLCyjiJtNqc5m"
      },
      "artists" : [ {
        "external_urls" : {
          "spotify" : "https://open.spotify.com/artist/7rluHfxLiKAkAoMkuE1F8U"
        },
        "href" : "https://api.spotify.com/v1/artists/7rluHfxLiKAkAoMkuE1F8U",
        "id" : "7rluHfxLiKAkAoMkuE1F8U",
        "name" : "St. Michael's Singers",
        "type" : "artist",
        "uri" : "spotify:artist:7rluHfxLiKAkAoMkuE1F8U"
      } ],
      "disc_number" : 1,
      "duration_ms" : 186266,
      "explicit" : false,
      "external_ids" : {
        "isrc" : "GBBTM9689106"
      },
      "external_urls" : {
        "spotify" : "https://open.spotify.com/track/08q0Iiv6eD6kIYyhUxS9F7"
      },
      "href" : "https://api.spotify.com/v1/tracks/08q0Iiv6eD6kIYyhUxS9F7",
      "id" : "08q0Iiv6eD6kIYyhUxS9F7",
      "is_local" : false,
      "is_playable" : true,
      "name" : "What Shall I Do My God To Love",
      "popularity" : 5,
      "preview_url" : "https://p.scdn.co/mp3-preview/5eb96bf5a3a155ea7fb80de210d4019c0d78844d?cid=774b29d4f13844c495f206cafdad9c86",
      "track_number" : 6,
      "type" : "track",
      "uri" : "spotify:track:08q0Iiv6eD6kIYyhUxS9F7"
    } ],
    "limit" : 10,
    "next" : "https://api.spotify.com/v1/search?query=Ye+Servants+of+God&type=track&market=US&offset=15&limit=10",
    "offset" : 5,
    "previous" : "https://api.spotify.com/v1/search?query=Ye+Servants+of+God&type=track&market=US&offset=0&limit=10",
    "total" : 60
  }
}