{
  "tracks" : {
    "href" : "https://api.spotify.com/v1/search?query=So+Send+I+You&type=track&market=US&offset=5&limit=10",
    "items" : [ {
      "album" : {
        "album_type" : "album",
        "artists" : [ {
          "external_urls" : {
            "spotify" : "https://open.spotify.com/artist/3SEJQy90Vgg1aSnZ9b4AU9"
          },
          "href" : "https://api.spotify.com/v1/artists/3SEJQy90Vgg1aSnZ9b4AU9",
          "id" : "3SEJQy90Vgg1aSnZ9b4AU9",
          "name" : "Krizz Kaliko",
          "type" : "artist",
          "uri" : "spotify:artist:3SEJQy90Vgg1aSnZ9b4AU9"
        } ],
        "external_urls" : {
          "spotify" : "https://open.spotify.com/album/53VCouDZUSlltXH2yMZ7Bx"
        },
        "href" : "https://api.spotify.com/v1/albums/53VCouDZUSlltXH2yMZ7Bx",
        "id" : "53VCouDZUSlltXH2yMZ7Bx",
        "images" : [ {
          "height" : 640,
          "url" : "https://i.scdn.co/image/ab67616d0000b273b329c1c8e51a33111f1a94bc",
          "width" : 640
        }, {
          "height" : 300,
          "url" : "https://i.scdn.co/image/ab67616d00001e02b329c1c8e51a33111f1a94bc",
          "width" : 300
        }, {
          "height" : 64,
          "url" : "https://i.scdn.co/image/ab67616d00004851b329c1c8e51a33111f1a94bc",
          "width" : 64
        } ],
        "name" : "Son of Sam (Deluxe Edition)",
        "release_date" : "2013-08-27",
        "release_date_precision" : "day",
        "total_tracks" : 19,
        "type" : "album",
        "uri" : "spotify:album:53VCouDZUSlltXH2yMZ7Bx"
      },
      "artists" : [ {
        "external_urls" : {
          "spotify" : "https://open.spotify.com/artist/3SEJQy90Vgg1aSnZ9b4AU9"
        },
        "href" : "https://api.spotify.com/v1/artists/3SEJQy90Vgg1aSnZ9b4AU9",
        "id" : "3SEJQy90Vgg1aSnZ9b4AU9",
        "name" : "Krizz Kaliko",
        "type" : "artist",
        "uri" : "spotify:artist:3SEJQy90Vgg1aSnZ9b4AU9"
      }, {
        "external_urls" : {
          "spotify" : "https://open.spotify.com/artist/6VNKo4rb1WGadDa56Otk7U"
        },
        "href" : "https://api.spotify.com/v1/artists/6VNKo4rb1WGadDa56Otk7U",
        "id" : "6VNKo4rb1WGadDa56Otk7U",
        "name" : "Kortney Leveringston",
        "type" : "artist",
        "uri" : "spotify:artist:6VNKo4rb1WGadDa56Otk7U"
      }, {
        "external_urls" : {
          "spotify" : "https://open.spotify.com/artist/4hEmHA6VFfoaYMZ9YE9Pcb"
        },
        "href" : "https://api.spotify.com/v1/artists/4hEmHA6VFfoaYMZ9YE9Pcb",
        "id" : "4hEmHA6VFfoaYMZ9YE9Pcb",
        "name" : "IcyRoc Kravyn",
        "type" : "artist",
        "uri" : "spotify:artist:4hEmHA6VFfoaYMZ9YE9Pcb"
      } ],
      "disc_number" : 1,
      "duration_ms" : 195226,
      "explicit" : true,
      "external_ids" : {
        "isrc" : "USA2P1322515"
      },
      "external_urls" : {
        "spotify" : "https://open.spotify.com/track/0x84rFCLH2UL5N8yfzF0SV"
      },
      "href" : "https://api.spotify.com/v1/tracks/0x84rFCLH2UL5N8yfzF0SV",
      "id" : "0x84rFCLH2UL5N8yfzF0SV",
      "is_local" : false,
      "is_playable" : true,
      "name" : "Send Your Love",
      "popularity" : 18,
      "preview_url" : "https://p.scdn.co/mp3-preview/232b65b87cc67b842fbf404fac27d0dbeaf20498?cid=774b29d4f13844c495f206cafdad9c86",
      "track_number" : 11,
      "type" : "track",
      "uri" : "spotify:track:0x84rFCLH2UL5N8yfzF0SV"
    }, {
      "album" : {
        "album_type" : "album",
        "artists" : [ {
          "external_urls" : {
            "spotify" : "https://open.spotify.com/artist/6GrRqCT2aRWjPMUmPY8oR5"
          },
          "href" : "https://api.spotify.com/v1/artists/6GrRqCT2aRWjPMUmPY8oR5",
          "id" : "6GrRqCT2aRWjPMUmPY8oR5",
          "name" : "Lee Soo Young",
          "type" : "artist",
          "uri" : "spotify:artist:6GrRqCT2aRWjPMUmPY8oR5"
        } ],
        "external_urls" : {
          "spotify" : "https://open.spotify.com/album/7uYhG70w4pu0jhC1yzhcpI"
        },
        "href" : "https://api.spotify.com/v1/albums/7uYhG70w4pu0jhC1yzhcpI",
        "id" : "7uYhG70w4pu0jhC1yzhcpI",
        "images" : [ {
          "height" : 640,
          "url" : "https://i.scdn.co/image/ab67616d0000b273af5c8f7e816994477038a3a9",
          "width" : 640
        }, {
          "height" : 300,
          "url" : "https://i.scdn.co/image/ab67616d00001e02af5c8f7e816994477038a3a9",
          "width" : 300
        }, {
          "height" : 64,
          "url" : "https://i.scdn.co/image/ab67616d00004851af5c8f7e816994477038a3a9",
          "width" : 64
        } ],
        "name" : "My Stay In Sendai",
        "release_date" : "2002-09-11",
        "release_date_precision" : "day",
        "total_tracks" : 18,
        "type" : "album",
        "uri" : "spotify:album:7uYhG70w4pu0jhC1yzhcpI"
      },
      "artists" : [ {
        "external_urls" : {
          "spotify" : "https://open.spotify.com/artist/6GrRqCT2aRWjPMUmPY8oR5"
        },
        "href" : "https://api.spotify.com/v1/artists/6GrRqCT2aRWjPMUmPY8oR5",
        "id" : "6GrRqCT2aRWjPMUmPY8oR5",
        "name" : "Lee Soo Young",
        "type" : "artist",
        "uri" : "spotify:artist:6GrRqCT2aRWjPMUmPY8oR5"
      } ],
      "disc_number" : 1,
      "duration_ms" : 273501,
      "explicit" : false,
      "external_ids" : {
        "isrc" : "KRA380901041"
      },
      "external_urls" : {
        "spotify" : "https://open.spotify.com/track/6bZyGAFTaD24eQibOIkctc"
      },
      "href" : "https://api.spotify.com/v1/tracks/6bZyGAFTaD24eQibOIkctc",
      "id" : "6bZyGAFTaD24eQibOIkctc",
      "is_local" : false,
      "is_playable" : true,
      "name" : "Lalala",
      "popularity" : 24,
      "preview_url" : "https://p.scdn.co/mp3-preview/0d1d671dab21012ea0cfe410f661cd6719e708ad?cid=774b29d4f13844c495f206cafdad9c86",
      "track_number" : 2,
      "type" : "track",
      "uri" : "spotify:track:6bZyGAFTaD24eQibOIkctc"
    }, {
      "album" : {
        "album_type" : "album",
        "artists" : [ {
          "external_urls" : {
            "spotify" : "https://open.spotify.com/artist/12uKsvqBT6hEGXSUqNy8sm"
          },
          "href" : "https://api.spotify.com/v1/artists/12uKsvqBT6hEGXSUqNy8sm",
          "id" : "12uKsvqBT6hEGXSUqNy8sm",
          "name" : "The Prom",
          "type" : "artist",
          "uri" : "spotify:artist:12uKsvqBT6hEGXSUqNy8sm"
        } ],
        "external_urls" : {
          "spotify" : "https://open.spotify.com/album/0hZdWUhTnnS76KecnHc2kP"
        },
        "href" : "https://api.spotify.com/v1/albums/0hZdWUhTnnS76KecnHc2kP",
        "id" : "0hZdWUhTnnS76KecnHc2kP",
        "images" : [ {
          "height" : 640,
          "url" : "https://i.scdn.co/image/ab67616d0000b2736246ddbe367499937809d6e8",
          "width" : 640
        }, {
          "height" : 300,
          "url" : "https://i.scdn.co/image/ab67616d00001e026246ddbe367499937809d6e8",
          "width" : 300
        }, {
          "height" : 64,
          "url" : "https://i.scdn.co/image/ab67616d000048516246ddbe367499937809d6e8",
          "width" : 64
        } ],
        "name" : "I'll Send You The Stars: Songs of James Mendenhall",
        "release_date" : "2020-01-03",
        "release_date_precision" : "day",
        "total_tracks" : 12,
        "type" : "album",
        "uri" : "spotify:album:0hZdWUhTnnS76KecnHc2kP"
      },
      "artists" : [ {
        "external_urls" : {
          "spotify" : "https://open.spotify.com/artist/12uKsvqBT6hEGXSUqNy8sm"
        },
        "href" : "https://api.spotify.com/v1/artists/12uKsvqBT6hEGXSUqNy8sm",
        "id" : "12uKsvqBT6hEGXSUqNy8sm",
        "name" : "The Prom",
        "type" : "artist",
        "uri" : "spotify:artist:12uKsvqBT6hEGXSUqNy8sm"
      }, {
        "external_urls" : {
          "spotify" : "https://open.spotify.com/artist/4CvZd3qzC2HbLxAoAEBRIL"
        },
        "href" : "https://api.spotify.com/v1/artists/4CvZd3qzC2HbLxAoAEBRIL",
        "id" : "4CvZd3qzC2HbLxAoAEBRIL",
        "name" : "Benjamin Gibbard",
        "type" : "artist",
        "uri" : "spotify:artist:4CvZd3qzC2HbLxAoAEBRIL"
      } ],
      "disc_number" : 1,
      "duration_ms" : 348813,
      "explicit" : false,
      "external_ids" : {
        "isrc" : "USBS51900063"
      },
      "external_urls" : {
        "spotify" : "https://open.spotify.com/track/0Gd7MopFE70dZTqRokNNSy"
      },
      "href" : "https://api.spotify.com/v1/tracks/0Gd7MopFE70dZTqRokNNSy",
      "id" : "0Gd7MopFE70dZTqRokNNSy",
      "is_local" : false,
      "is_playable" : true,
      "name" : "Brighter Than the Moon",
      "popularity" : 22,
      "preview_url" : "https://p.scdn.co/mp3-preview/f972c65b8507d0979b0fd9f25fd3478bd4accccb?cid=774b29d4f13844c495f206cafdad9c86",
      "track_number" : 1,
      "type" : "track",
      "uri" : "spotify:track:0Gd7MopFE70dZTqRokNNSy"
    }, {
      "album" : {
        "album_type" : "album",
        "artists" : [ {
          "external_urls" : {
            "spotify" : "https://open.spotify.com/artist/57ALvbCBaCkNlgTOSiUPdT"
          },
          "href" : "https://api.spotify.com/v1/artists/57ALvbCBaCkNlgTOSiUPdT",
          "id" : "57ALvbCBaCkNlgTOSiUPdT",
          "name" : "Aaron Neville",
          "type" : "artist",
          "uri" : "spotify:artist:57ALvbCBaCkNlgTOSiUPdT"
        } ],
        "external_urls" : {
          "spotify" : "https://open.spotify.com/album/2Lc2nSKRbCP3FO72WClXrk"
        },
        "href" : "https://api.spotify.com/v1/albums/2Lc2nSKRbCP3FO72WClXrk",
        "id" : "2Lc2nSKRbCP3FO72WClXrk",
        "images" : [ {
          "height" : 640,
          "url" : "https://i.scdn.co/image/ab67616d0000b2730a5394c259f3deae233dc356",
          "width" : 640
        }, {
          "height" : 300,
          "url" : "https://i.scdn.co/image/ab67616d00001e020a5394c259f3deae233dc356",
          "width" : 300
        }, {
          "height" : 64,
          "url" : "https://i.scdn.co/image/ab67616d000048510a5394c259f3deae233dc356",
          "width" : 64
        } ],
        "name" : "Bring It On Home...The Soul Classics",
        "release_date" : "2006-09-19",
        "release_date_precision" : "day",
        "total_tracks" : 13,
        "type" : "album",
        "uri" : "spotify:album:2Lc2nSKRbCP3FO72WClXrk"
      },
      "artists" : [ {
        "external_urls" : {
          "spotify" : "https://open.spotify.com/artist/57ALvbCBaCkNlgTOSiUPdT"
        },
        "href" : "https://api.spotify.com/v1/artists/57ALvbCBaCkNlgTOSiUPdT",
        "id" : "57ALvbCBaCkNlgTOSiUPdT",
        "name" : "Aaron Neville",
        "type" : "artist",
        "uri" : "spotify:artist:57ALvbCBaCkNlgTOSiUPdT"
      } ],
      "disc_number" : 1,
      "duration_ms" : 253893,
      "explicit" : false,
      "external_ids" : {
        "isrc" : "USA820600041"
      },
      "external_urls" : {
        "spotify" : "https://open.spotify.com/track/4Y1TPzoGbhTQXadMyWNz2s"
      },
      "href" : "https://api.spotify.com/v1/tracks/4Y1TPzoGbhTQXadMyWNz2s",
      "id" : "4Y1TPzoGbhTQXadMyWNz2s",
      "is_local" : false,
      "is_playable" : true,
      "name" : "You Send Me",
      "popularity" : 21,
      "preview_url" : "https://p.scdn.co/mp3-preview/45755cc8025fc103139e9f57e745695dd4a1b89d?cid=774b29d4f13844c495f206cafdad9c86",
      "track_number" : 5,
      "type" : "track",
      "uri" : "spotify:track:4Y1TPzoGbhTQXadMyWNz2s"
    }, {
      "album" : {
        "album_type" : "album",
        "artists" : [ {
          "external_urls" : {
            "spotify" : "https://open.spotify.com/artist/2VZNmg4vCnew4Pavo8zDdW"
          },
          "href" : "https://api.spotify.com/v1/artists/2VZNmg4vCnew4Pavo8zDdW",
          "id" : "2VZNmg4vCnew4Pavo8zDdW",
          "name" : "Max Richter",
          "type" : "artist",
          "uri" : "spotify:artist:2VZNmg4vCnew4Pavo8zDdW"
        } ],
        "external_urls" : {
          "spotify" : "https://open.spotify.com/album/0JXZzgtDNWEQeBucUNDKWz"
        },
        "href" : "https://api.spotify.com/v1/albums/0JXZzgtDNWEQeBucUNDKWz",
        "id" : "0JXZzgtDNWEQeBucUNDKWz",
        "images" : [ {
          "height" : 640,
          "url" : "https://i.scdn.co/image/ab67616d0000b2734f2fceb9e881544d2138af24",
          "width" : 640
        }, {
          "height" : 300,
          "url" : "https://i.scdn.co/image/ab67616d00001e024f2fceb9e881544d2138af24",
          "width" : 300
        }, {
          "height" : 64,
          "url" : "https://i.scdn.co/image/ab67616d000048514f2fceb9e881544d2138af24",
          "width" : 64
        } ],
        "name" : "Testament of Youth (Original Motion Picture Soundtrack)",
        "release_date" : "2015-02-03",
        "release_date_precision" : "day",
        "total_tracks" : 21,
        "type" : "album",
        "uri" : "spotify:album:0JXZzgtDNWEQeBucUNDKWz"
      },
      "artists" : [ {
        "external_urls" : {
          "spotify" : "https://open.spotify.com/artist/2VZNmg4vCnew4Pavo8zDdW"
        },
        "href" : "https://api.spotify.com/v1/artists/2VZNmg4vCnew4Pavo8zDdW",
        "id" : "2VZNmg4vCnew4Pavo8zDdW",
        "name" : "Max Richter",
        "type" : "artist",
        "uri" : "spotify:artist:2VZNmg4vCnew4Pavo8zDdW"
      } ],
      "disc_number" : 1,
      "duration_ms" : 153520,
      "explicit" : false,
      "external_ids" : {
        "isrc" : "US5941405233"
      },
      "external_urls" : {
        "spotify" : "https://open.spotify.com/track/5TNcxsLXq12J2OUt7dKqsQ"
      },
      "href" : "https://api.spotify.com/v1/tracks/5TNcxsLXq12J2OUt7dKqsQ",
      "id" : "5TNcxsLXq12J2OUt7dKqsQ",
      "is_local" : false,
      "is_playable" : true,
      "name" : "These I Send To You",
      "popularity" : 15,
      "preview_url" : "https://p.scdn.co/mp3-preview/4a9b69e546b933fc9bdb97b836dd3ad8ca2a8bf0?cid=774b29d4f13844c495f206cafdad9c86",
      "track_number" : 14,
      "type" : "track",
      "uri" : "spotify:track:5TNcxsLXq12J2OUt7dKqsQ"
    }, {
      "album" : {
        "album_type" : "compilation",
        "artists" : [ {
          "external_urls" : {
            "spotify" : "https://open.spotify.com/artist/0LyfQWJT6nXafLPZqxe9Of"
          },
          "href" : "https://api.spotify.com/v1/artists/0LyfQWJT6nXafLPZqxe9Of",
          "id" : "0LyfQWJT6nXafLPZqxe9Of",
          "name" : "Various Artists",
          "type" : "artist",
          "uri" : "spotify:artist:0LyfQWJT6nXafLPZqxe9Of"
        } ],
        "external_urls" : {
          "spotify" : "https://open.spotify.com/album/4AnL89Yy1KzghgRufxv2BX"
        },
        "href" : "https://api.spotify.com/v1/albums/4AnL89Yy1KzghgRufxv2BX",
        "id" : "4AnL89Yy1KzghgRufxv2BX",
        "images" : [ {
          "height" : 640,
          "url" : "https://i.scdn.co/image/ab67616d0000b27300d53a6b53b789104f5cf1ad",
          "width" : 640
        }, {
          "height" : 300,
          "url" : "https://i.scdn.co/image/ab67616d00001e0200d53a6b53b789104f5cf1ad",
          "width" : 300
        }, {
          "height" : 64,
          "url" : "https://i.scdn.co/image/ab67616d0000485100d53a6b53b789104f5cf1ad",
          "width" : 64
        } ],
        "name" : "The Star - Original Motion Picture Soundtrack",
        "release_date" : "2017-10-27",
        "release_date_precision" : "day",
        "total_tracks" : 12,
        "type" : "album",
        "uri" : "spotify:album:4AnL89Yy1KzghgRufxv2BX"
      },
      "artists" : [ {
        "external_urls" : {
          "spotify" : "https://open.spotify.com/artist/3RqBeV12Tt7A8xH3zBDDUF"
        },
        "href" : "https://api.spotify.com/v1/artists/3RqBeV12Tt7A8xH3zBDDUF",
        "id" : "3RqBeV12Tt7A8xH3zBDDUF",
        "name" : "Kelsea Ballerini",
        "type" : "artist",
        "uri" : "spotify:artist:3RqBeV12Tt7A8xH3zBDDUF"
      } ],
      "disc_number" : 1,
      "duration_ms" : 160013,
      "explicit" : false,
      "external_ids" : {
        "isrc" : "USSM11708596"
      },
      "external_urls" : {
        "spotify" : "https://open.spotify.com/track/3lQWSJ0Ua9L5mMLv7d2tsj"
      },
      "href" : "https://api.spotify.com/v1/tracks/3lQWSJ0Ua9L5mMLv7d2tsj",
      "id" : "3lQWSJ0Ua9L5mMLv7d2tsj",
      "is_local" : false,
      "is_playable" : true,
      "name" : "Children Go Where I Send You",
      "popularity" : 16,
      "preview_url" : "https://p.scdn.co/mp3-preview/108ed6965f5af3af26f301777e39edb3efbb9204?cid=774b29d4f13844c495f206cafdad9c86",
      "track_number" : 2,
      "type" : "track",
      "uri" : "spotify:track:3lQWSJ0Ua9L5mMLv7d2tsj"
    }, {
      "album" : {
        "album_type" : "compilation",
        "artists" : [ {
          "external_urls" : {
            "spotify" : "https://open.spotify.com/artist/0LyfQWJT6nXafLPZqxe9Of"
          },
          "href" : "https://api.spotify.com/v1/artists/0LyfQWJT6nXafLPZqxe9Of",
          "id" : "0LyfQWJT6nXafLPZqxe9Of",
          "name" : "Various Artists",
          "type" : "artist",
          "uri" : "spotify:artist:0LyfQWJT6nXafLPZqxe9Of"
        } ],
        "external_urls" : {
          "spotify" : "https://open.spotify.com/album/3lTcG55QiTuOX0bZSCNVpm"
        },
        "href" : "https://api.spotify.com/v1/albums/3lTcG55QiTuOX0bZSCNVpm",
        "id" : "3lTcG55QiTuOX0bZSCNVpm",
        "images" : [ {
          "height" : 640,
          "url" : "https://i.scdn.co/image/ab67616d0000b273dc69fabe9139adb98ece81ba",
          "width" : 640
        }, {
          "height" : 300,
          "url" : "https://i.scdn.co/image/ab67616d00001e02dc69fabe9139adb98ece81ba",
          "width" : 300
        }, {
          "height" : 64,
          "url" : "https://i.scdn.co/image/ab67616d00004851dc69fabe9139adb98ece81ba",
          "width" : 64
        } ],
        "name" : "Spirit & Song Disc J",
        "release_date" : "2013-11-15",
        "release_date_precision" : "day",
        "total_tracks" : 19,
        "type" : "album",
        "uri" : "spotify:album:3lTcG55QiTuOX0bZSCNVpm"
      },
      "artists" : [ {
        "external_urls" : {
          "spotify" : "https://open.spotify.com/artist/1GearWHsNrxtP3FXfBJrrp"
        },
        "href" : "https://api.spotify.com/v1/artists/1GearWHsNrxtP3FXfBJrrp",
        "id" : "1GearWHsNrxtP3FXfBJrrp",
        "name" : "John Angotti",
        "type" : "artist",
        "uri" : "spotify:artist:1GearWHsNrxtP3FXfBJrrp"
      } ],
      "disc_number" : 1,
      "duration_ms" : 258320,
      "explicit" : false,
      "external_ids" : {
        "isrc" : "USA4N1303782"
      },
      "external_urls" : {
        "spotify" : "https://open.spotify.com/track/3sZgxVgRSAg20fR6IXrGkT"
      },
      "href" : "https://api.spotify.com/v1/tracks/3sZgxVgRSAg20fR6IXrGkT",
      "id" : "3sZgxVgRSAg20fR6IXrGkT",
      "is_local" : false,
      "is_playable" : true,
      "name" : "I Send You Out",
      "popularity" : 13,
      "preview_url" : "https://p.scdn.co/mp3-preview/e16f34f082d6c97718f49173c15d4cf9d5732026?cid=774b29d4f13844c495f206cafdad9c86",
      "track_number" : 1,
      "type" : "track",
      "uri" : "spotify:track:3sZgxVgRSAg20fR6IXrGkT"
    }, {
      "album" : {
        "album_type" : "album",
        "artists" : [ {
          "external_urls" : {
            "spotify" : "https://open.spotify.com/artist/6GrRqCT2aRWjPMUmPY8oR5"
          },
          "href" : "https://api.spotify.com/v1/artists/6GrRqCT2aRWjPMUmPY8oR5",
          "id" : "6GrRqCT2aRWjPMUmPY8oR5",
          "name" : "Lee Soo Young",
          "type" : "artist",
          "uri" : "spotify:artist:6GrRqCT2aRWjPMUmPY8oR5"
        } ],
        "external_urls" : {
          "spotify" : "https://open.spotify.com/album/7uYhG70w4pu0jhC1yzhcpI"
        },
        "href" : "https://api.spotify.com/v1/albums/7uYhG70w4pu0jhC1yzhcpI",
        "id" : "7uYhG70w4pu0jhC1yzhcpI",
        "images" : [ {
          "height" : 640,
          "url" : "https://i.scdn.co/image/ab67616d0000b273af5c8f7e816994477038a3a9",
          "width" : 640
        }, {
          "height" : 300,
          "url" : "https://i.scdn.co/image/ab67616d00001e02af5c8f7e816994477038a3a9",
          "width" : 300
        }, {
          "height" : 64,
          "url" : "https://i.scdn.co/image/ab67616d00004851af5c8f7e816994477038a3a9",
          "width" : 64
        } ],
        "name" : "My Stay In Sendai",
        "release_date" : "2002-09-11",
        "release_date_precision" : "day",
        "total_tracks" : 18,
        "type" : "album",
        "uri" : "spotify:album:7uYhG70w4pu0jhC1yzhcpI"
      },
      "artists" : [ {
        "external_urls" : {
          "spotify" : "https://open.spotify.com/artist/6GrRqCT2aRWjPMUmPY8oR5"
        },
        "href" : "https://api.spotify.com/v1/artists/6GrRqCT2aRWjPMUmPY8oR5",
        "id" : "6GrRqCT2aRWjPMUmPY8oR5",
        "name" : "Lee Soo Young",
        "type" : "artist",
        "uri" : "spotify:artist:6GrRqCT2aRWjPMUmPY8oR5"
      } ],
      "disc_number" : 1,
      "duration_ms" : 330919,
      "explicit" : false,
      "external_ids" : {
        "isrc" : "KRA380901054"
      },
      "external_urls" : {
        "spotify" : "https://open.spotify.com/track/56hBeaT1u2okDAksIamWPx"
      },
      "href" : "https://api.spotify.com/v1/tracks/56hBeaT1u2okDAksIamWPx",
      "id" : "56hBeaT1u2okDAksIamWPx",
      "is_local" : false,
      "is_playable" : true,
      "name" : "얼마나 좋을까",
      "popularity" : 19,
      "preview_url" : "https://p.scdn.co/mp3-preview/7b67c664f4aaff8349b265437b3fda96a27ba31c?cid=774b29d4f13844c495f206cafdad9c86",
      "track_number" : 15,
      "type" : "track",
      "uri" : "spotify:track:56hBeaT1u2okDAksIamWPx"
    }, {
      "album" : {
        "album_type" : "album",
        "artists" : [ {
          "external_urls" : {
            "spotify" : "https://open.spotify.com/artist/57htMBtzpppc1yoXgjbslj"
          },
          "href" : "https://api.spotify.com/v1/artists/57htMBtzpppc1yoXgjbslj",
          "id" : "57htMBtzpppc1yoXgjbslj",
          "name" : "Park Hyo Shin",
          "type" : "artist",
          "uri" : "spotify:artist:57htMBtzpppc1yoXgjbslj"
        } ],
        "external_urls" : {
          "spotify" : "https://open.spotify.com/album/5czwlchdz4qyiI0NwNCzLP"
        },
        "href" : "https://api.spotify.com/v1/albums/5czwlchdz4qyiI0NwNCzLP",
        "id" : "5czwlchdz4qyiI0NwNCzLP",
        "images" : [ {
          "height" : 640,
          "url" : "https://i.scdn.co/image/ab67616d0000b2730d8bb7874fa5f8acb4c8655e",
          "width" : 640
        }, {
          "height" : 300,
          "url" : "https://i.scdn.co/image/ab67616d00001e020d8bb7874fa5f8acb4c8655e",
          "width" : 300
        }, {
          "height" : 64,
          "url" : "https://i.scdn.co/image/ab67616d000048510d8bb7874fa5f8acb4c8655e",
          "width" : 64
        } ],
        "name" : "Soul Tree",
        "release_date" : "2004-04-20",
        "release_date_precision" : "day",
        "total_tracks" : 15,
        "type" : "album",
        "uri" : "spotify:album:5czwlchdz4qyiI0NwNCzLP"
      },
      "artists" : [ {
        "external_urls" : {
          "spotify" : "https://open.spotify.com/artist/57htMBtzpppc1yoXgjbslj"
        },
        "href" : "https://api.spotify.com/v1/artists/57htMBtzpppc1yoXgjbslj",
        "id" : "57htMBtzpppc1yoXgjbslj",
        "name" : "Park Hyo Shin",
        "type" : "artist",
        "uri" : "spotify:artist:57htMBtzpppc1yoXgjbslj"
      } ],
      "disc_number" : 1,
      "duration_ms" : 247813,
      "explicit" : false,
      "external_ids" : {
        "isrc" : "KRA381602037"
      },
      "external_urls" : {
        "spotify" : "https://open.spotify.com/track/59NryAiNXKT8ytMoRtvFlg"
      },
      "href" : "https://api.spotify.com/v1/tracks/59NryAiNXKT8ytMoRtvFlg",
      "id" : "59NryAiNXKT8ytMoRtvFlg",
      "is_local" : false,
      "is_playable" : true,
      "name" : "You I Can't Send Away",
      "popularity" : 19,
      "preview_url" : "https://p.scdn.co/mp3-preview/7a4d0016df212d505556e587c45ae482d9696574?cid=774b29d4f13844c495f206cafdad9c86",
      "track_number" : 9,
      "type" : "track",
      "uri" : "spotify:track:59NryAiNXKT8ytMoRtvFlg"
    }, {
      "album" : {
        "album_type" : "compilation",
        "artists" : [ {
          "external_urls" : {
            "spotify" : "https://open.spotify.com/artist/0LyfQWJT6nXafLPZqxe9Of"
          },
          "href" : "https://api.spotify.com/v1/artists/0LyfQWJT6nXafLPZqxe9Of",
          "id" : "0LyfQWJT6nXafLPZqxe9Of",
          "name" : "Various Artists",
          "type" : "artist",
          "uri" : "spotify:artist:0LyfQWJT6nXafLPZqxe9Of"
        } ],
        "external_urls" : {
          "spotify" : "https://open.spotify.com/album/602f2dlToweQktRDHfbreq"
        },
        "href" : "https://api.spotify.com/v1/albums/602f2dlToweQktRDHfbreq",
        "id" : "602f2dlToweQktRDHfbreq",
        "images" : [ {
          "height" : 640,
          "url" : "https://i.scdn.co/image/ab67616d0000b273131d6a745215419716cb50fb",
          "width" : 640
        }, {
          "height" : 300,
          "url" : "https://i.scdn.co/image/ab67616d00001e02131d6a745215419716cb50fb",
          "width" : 300
        }, {
          "height" : 64,
          "url" : "https://i.scdn.co/image/ab67616d00004851131d6a745215419716cb50fb",
          "width" : 64
        } ],
        "name" : "Songs of WW1",
        "release_date" : "2018-01-19",
        "release_date_precision" : "day",
        "total_tracks" : 40,
        "type" : "album",
        "uri" : "spotify:album:602f2dlToweQktRDHfbreq"
      },
      "artists" : [ {
        "external_urls" : {
          "spotify" : "https://open.spotify.com/artist/39Xqw28Nz5BnZv99AxLGcD"
        },
        "href" : "https://api.spotify.com/v1/artists/39Xqw28Nz5BnZv99AxLGcD",
        "id" : "39Xqw28Nz5BnZv99AxLGcD",
        "name" : "Arthur Fields",
        "type" : "artist",
        "uri" : "spotify:artist:39Xqw28Nz5BnZv99AxLGcD"
      }, {
        "external_urls" : {
          "spotify" : "https://open.spotify.com/artist/14oGjwDxAqx6XcIaatAgyL"
        },
        "href" : "https://api.spotify.com/v1/artists/14oGjwDxAqx6XcIaatAgyL",
        "id" : "14oGjwDxAqx6XcIaatAgyL",
        "name" : "Peerless Quartet",
        "type" : "artist",
        "uri" : "spotify:artist:14oGjwDxAqx6XcIaatAgyL"
      } ],
      "disc_number" : 1,
      "duration_ms" : 198733,
      "explicit" : false,
      "external_ids" : {
        "isrc" : "TCADL1868464"
      },
      "external_urls" : {
        "spotify" : "https://open.spotify.com/track/1KUAZmnYwLXvFzELVAEu5Z"
      },
      "href" : "https://api.spotify.com/v1/tracks/1KUAZmnYwLXvFzELVAEu5Z",
      "id" : "1KUAZmnYwLXvFzELVAEu5Z",
      "is_local" : false,
      "is_playable" : true,
      "name" : "When I Send You a Picture of Berlin",
      "popularity" : 12,
      "preview_url" : "https://p.scdn.co/mp3-preview/a044184131223161795ab92b39ac14b260858f3e?cid=774b29d4f13844c495f206cafdad9c86",
      "track_number" : 17,
      "type" : "track",
      "uri" : "spotify:track:1KUAZmnYwLXvFzELVAEu5Z"
    } ],
    "limit" : 10,
    "next" : "https://api.spotify.com/v1/search?query=So+Send+I+You&type=track&market=US&offset=15&limit=10",
    "offset" : 5,
    "previous" : "https://api.spotify.com/v1/search?query=So+Send+I+You&type=track&market=US&offset=0&limit=10",
    "total" : 303
  }
}