{
  "tracks" : {
    "href" : "https://api.spotify.com/v1/search?query=All+Creatures+of+Our+God+and+King&type=track&market=US&offset=5&limit=10",
    "items" : [ {
      "album" : {
        "album_type" : "album",
        "artists" : [ {
          "external_urls" : {
            "spotify" : "https://open.spotify.com/artist/6MYKRhEIKscR8qdGlvpk9y"
          },
          "href" : "https://api.spotify.com/v1/artists/6MYKRhEIKscR8qdGlvpk9y",
          "id" : "6MYKRhEIKscR8qdGlvpk9y",
          "name" : "Sovereign Grace Music",
          "type" : "artist",
          "uri" : "spotify:artist:6MYKRhEIKscR8qdGlvpk9y"
        } ],
        "external_urls" : {
          "spotify" : "https://open.spotify.com/album/6vx3WJiAST38dlm8NiRXQR"
        },
        "href" : "https://api.spotify.com/v1/albums/6vx3WJiAST38dlm8NiRXQR",
        "id" : "6vx3WJiAST38dlm8NiRXQR",
        "images" : [ {
          "height" : 640,
          "url" : "https://i.scdn.co/image/ab67616d0000b2732cd18441ca9ffbde275e8a71",
          "width" : 640
        }, {
          "height" : 300,
          "url" : "https://i.scdn.co/image/ab67616d00001e022cd18441ca9ffbde275e8a71",
          "width" : 300
        }, {
          "height" : 64,
          "url" : "https://i.scdn.co/image/ab67616d000048512cd18441ca9ffbde275e8a71",
          "width" : 64
        } ],
        "name" : "Prayers of the Saints (Live)",
        "release_date" : "2017-11-17",
        "release_date_precision" : "day",
        "total_tracks" : 15,
        "type" : "album",
        "uri" : "spotify:album:6vx3WJiAST38dlm8NiRXQR"
      },
      "artists" : [ {
        "external_urls" : {
          "spotify" : "https://open.spotify.com/artist/6MYKRhEIKscR8qdGlvpk9y"
        },
        "href" : "https://api.spotify.com/v1/artists/6MYKRhEIKscR8qdGlvpk9y",
        "id" : "6MYKRhEIKscR8qdGlvpk9y",
        "name" : "Sovereign Grace Music",
        "type" : "artist",
        "uri" : "spotify:artist:6MYKRhEIKscR8qdGlvpk9y"
      } ],
      "disc_number" : 1,
      "duration_ms" : 289480,
      "explicit" : false,
      "external_ids" : {
        "isrc" : "US25L1733002"
      },
      "external_urls" : {
        "spotify" : "https://open.spotify.com/track/673vWJJ7UZC1twPDvrL9Tp"
      },
      "href" : "https://api.spotify.com/v1/tracks/673vWJJ7UZC1twPDvrL9Tp",
      "id" : "673vWJJ7UZC1twPDvrL9Tp",
      "is_local" : false,
      "is_playable" : true,
      "name" : "All Creatures of Our God and King - Live",
      "popularity" : 38,
      "preview_url" : "https://p.scdn.co/mp3-preview/0070ad7c4dfc6a83cacbd782f024a8ba7b5e54d3?cid=774b29d4f13844c495f206cafdad9c86",
      "track_number" : 2,
      "type" : "track",
      "uri" : "spotify:track:673vWJJ7UZC1twPDvrL9Tp"
    }, {
      "album" : {
        "album_type" : "album",
        "artists" : [ {
          "external_urls" : {
            "spotify" : "https://open.spotify.com/artist/32DWM2tctxuDatAYWHjCtC"
          },
          "href" : "https://api.spotify.com/v1/artists/32DWM2tctxuDatAYWHjCtC",
          "id" : "32DWM2tctxuDatAYWHjCtC",
          "name" : "Hymns on Piano",
          "type" : "artist",
          "uri" : "spotify:artist:32DWM2tctxuDatAYWHjCtC"
        } ],
        "external_urls" : {
          "spotify" : "https://open.spotify.com/album/2LCR7znfQs52tIyUet7PKx"
        },
        "href" : "https://api.spotify.com/v1/albums/2LCR7znfQs52tIyUet7PKx",
        "id" : "2LCR7znfQs52tIyUet7PKx",
        "images" : [ {
          "height" : 640,
          "url" : "https://i.scdn.co/image/ab67616d0000b2732a9995d7b449417eb1632d58",
          "width" : 640
        }, {
          "height" : 300,
          "url" : "https://i.scdn.co/image/ab67616d00001e022a9995d7b449417eb1632d58",
          "width" : 300
        }, {
          "height" : 64,
          "url" : "https://i.scdn.co/image/ab67616d000048512a9995d7b449417eb1632d58",
          "width" : 64
        } ],
        "name" : "Hymns of Worship - Volume 1",
        "release_date" : "2015-12-08",
        "release_date_precision" : "day",
        "total_tracks" : 15,
        "type" : "album",
        "uri" : "spotify:album:2LCR7znfQs52tIyUet7PKx"
      },
      "artists" : [ {
        "external_urls" : {
          "spotify" : "https://open.spotify.com/artist/32DWM2tctxuDatAYWHjCtC"
        },
        "href" : "https://api.spotify.com/v1/artists/32DWM2tctxuDatAYWHjCtC",
        "id" : "32DWM2tctxuDatAYWHjCtC",
        "name" : "Hymns on Piano",
        "type" : "artist",
        "uri" : "spotify:artist:32DWM2tctxuDatAYWHjCtC"
      } ],
      "disc_number" : 1,
      "duration_ms" : 198499,
      "explicit" : false,
      "external_ids" : {
        "isrc" : "USE831525009"
      },
      "external_urls" : {
        "spotify" : "https://open.spotify.com/track/3TqzcXz5k2SOX6SdjuahoS"
      },
      "href" : "https://api.spotify.com/v1/tracks/3TqzcXz5k2SOX6SdjuahoS",
      "id" : "3TqzcXz5k2SOX6SdjuahoS",
      "is_local" : false,
      "is_playable" : true,
      "name" : "All Creatures of Our God and King (Lasst Uns Erfreuen)",
      "popularity" : 38,
      "preview_url" : "https://p.scdn.co/mp3-preview/d53a2b1d0b1c1d3f2541a7a77b7f1eb7d7c748a4?cid=774b29d4f13844c495f206cafdad9c86",
      "track_number" : 8,
      "type" : "track",
      "uri" : "spotify:track:3TqzcXz5k2SOX6SdjuahoS"
    }, {
      "album" : {
        "album_type" : "single",
        "artists" : [ {
          "external_urls" : {
            "spotify" : "https://open.spotify.com/artist/6MYKRhEIKscR8qdGlvpk9y"
          },
          "href" : "https://api.spotify.com/v1/artists/6MYKRhEIKscR8qdGlvpk9y",
          "id" : "6MYKRhEIKscR8qdGlvpk9y",
          "name" : "Sovereign Grace Music",
          "type" : "artist",
          "uri" : "spotify:artist:6MYKRhEIKscR8qdGlvpk9y"
        } ],
        "external_urls" : {
          "spotify" : "https://open.spotify.com/album/5OLppTaxWTgdWM6oA3tBxL"
        },
        "href" : "https://api.spotify.com/v1/albums/5OLppTaxWTgdWM6oA3tBxL",
        "id" : "5OLppTaxWTgdWM6oA3tBxL",
        "images" : [ {
          "height" : 640,
          "url" : "https://i.scdn.co/image/ab67616d0000b2732deb76ca67949e661c3fe918",
          "width" : 640
        }, {
          "height" : 300,
          "url" : "https://i.scdn.co/image/ab67616d00001e022deb76ca67949e661c3fe918",
          "width" : 300
        }, {
          "height" : 64,
          "url" : "https://i.scdn.co/image/ab67616d000048512deb76ca67949e661c3fe918",
          "width" : 64
        } ],
        "name" : "All That Thrills My Soul",
        "release_date" : "2013-08-01",
        "release_date_precision" : "day",
        "total_tracks" : 6,
        "type" : "album",
        "uri" : "spotify:album:5OLppTaxWTgdWM6oA3tBxL"
      },
      "artists" : [ {
        "external_urls" : {
          "spotify" : "https://open.spotify.com/artist/6MYKRhEIKscR8qdGlvpk9y"
        },
        "href" : "https://api.spotify.com/v1/artists/6MYKRhEIKscR8qdGlvpk9y",
        "id" : "6MYKRhEIKscR8qdGlvpk9y",
        "name" : "Sovereign Grace Music",
        "type" : "artist",
        "uri" : "spotify:artist:6MYKRhEIKscR8qdGlvpk9y"
      } ],
      "disc_number" : 1,
      "duration_ms" : 315800,
      "explicit" : false,
      "external_ids" : {
        "isrc" : "USDHM1300373"
      },
      "external_urls" : {
        "spotify" : "https://open.spotify.com/track/6yjKksHyv3Ac393hgfkJsQ"
      },
      "href" : "https://api.spotify.com/v1/tracks/6yjKksHyv3Ac393hgfkJsQ",
      "id" : "6yjKksHyv3Ac393hgfkJsQ",
      "is_local" : false,
      "is_playable" : true,
      "name" : "All Creatures of Our God and King",
      "popularity" : 33,
      "preview_url" : "https://p.scdn.co/mp3-preview/f73c27e54beabe013f7c6a99fdb121470626d786?cid=774b29d4f13844c495f206cafdad9c86",
      "track_number" : 1,
      "type" : "track",
      "uri" : "spotify:track:6yjKksHyv3Ac393hgfkJsQ"
    }, {
      "album" : {
        "album_type" : "album",
        "artists" : [ {
          "external_urls" : {
            "spotify" : "https://open.spotify.com/artist/6piIAIurGAryW5h1rqQC16"
          },
          "href" : "https://api.spotify.com/v1/artists/6piIAIurGAryW5h1rqQC16",
          "id" : "6piIAIurGAryW5h1rqQC16",
          "name" : "Passion",
          "type" : "artist",
          "uri" : "spotify:artist:6piIAIurGAryW5h1rqQC16"
        } ],
        "external_urls" : {
          "spotify" : "https://open.spotify.com/album/1ABQb99YyGRAKq0z3VXgoA"
        },
        "href" : "https://api.spotify.com/v1/albums/1ABQb99YyGRAKq0z3VXgoA",
        "id" : "1ABQb99YyGRAKq0z3VXgoA",
        "images" : [ {
          "height" : 640,
          "url" : "https://i.scdn.co/image/ab67616d0000b273323b10bd13942bd4a44d2bcf",
          "width" : 640
        }, {
          "height" : 300,
          "url" : "https://i.scdn.co/image/ab67616d00001e02323b10bd13942bd4a44d2bcf",
          "width" : 300
        }, {
          "height" : 64,
          "url" : "https://i.scdn.co/image/ab67616d00004851323b10bd13942bd4a44d2bcf",
          "width" : 64
        } ],
        "name" : "Hymns Ancient And Modern (Live)",
        "release_date" : "2004-01-01",
        "release_date_precision" : "day",
        "total_tracks" : 14,
        "type" : "album",
        "uri" : "spotify:album:1ABQb99YyGRAKq0z3VXgoA"
      },
      "artists" : [ {
        "external_urls" : {
          "spotify" : "https://open.spotify.com/artist/6piIAIurGAryW5h1rqQC16"
        },
        "href" : "https://api.spotify.com/v1/artists/6piIAIurGAryW5h1rqQC16",
        "id" : "6piIAIurGAryW5h1rqQC16",
        "name" : "Passion",
        "type" : "artist",
        "uri" : "spotify:artist:6piIAIurGAryW5h1rqQC16"
      }, {
        "external_urls" : {
          "spotify" : "https://open.spotify.com/artist/7DhP3bGT7dzr1dCkkH5mTS"
        },
        "href" : "https://api.spotify.com/v1/artists/7DhP3bGT7dzr1dCkkH5mTS",
        "id" : "7DhP3bGT7dzr1dCkkH5mTS",
        "name" : "David Crowder Band",
        "type" : "artist",
        "uri" : "spotify:artist:7DhP3bGT7dzr1dCkkH5mTS"
      } ],
      "disc_number" : 1,
      "duration_ms" : 346333,
      "explicit" : false,
      "external_ids" : {
        "isrc" : "USSP30321645"
      },
      "external_urls" : {
        "spotify" : "https://open.spotify.com/track/5K3M0o61eAngb9ri8Lgee7"
      },
      "href" : "https://api.spotify.com/v1/tracks/5K3M0o61eAngb9ri8Lgee7",
      "id" : "5K3M0o61eAngb9ri8Lgee7",
      "is_local" : false,
      "is_playable" : true,
      "name" : "All Creatures Of Our God And King - Live",
      "popularity" : 33,
      "preview_url" : null,
      "track_number" : 8,
      "type" : "track",
      "uri" : "spotify:track:5K3M0o61eAngb9ri8Lgee7"
    }, {
      "album" : {
        "album_type" : "album",
        "artists" : [ {
          "external_urls" : {
            "spotify" : "https://open.spotify.com/artist/7kwEvDE8e7EBGKh5bLczqQ"
          },
          "href" : "https://api.spotify.com/v1/artists/7kwEvDE8e7EBGKh5bLczqQ",
          "id" : "7kwEvDE8e7EBGKh5bLczqQ",
          "name" : "Anthem Lights",
          "type" : "artist",
          "uri" : "spotify:artist:7kwEvDE8e7EBGKh5bLczqQ"
        } ],
        "external_urls" : {
          "spotify" : "https://open.spotify.com/album/18we0y1PK9lt3Qneye6ciV"
        },
        "href" : "https://api.spotify.com/v1/albums/18we0y1PK9lt3Qneye6ciV",
        "id" : "18we0y1PK9lt3Qneye6ciV",
        "images" : [ {
          "height" : 640,
          "url" : "https://i.scdn.co/image/ab67616d0000b273dafdd3fa96666ede04d6bbcb",
          "width" : 640
        }, {
          "height" : 300,
          "url" : "https://i.scdn.co/image/ab67616d00001e02dafdd3fa96666ede04d6bbcb",
          "width" : 300
        }, {
          "height" : 64,
          "url" : "https://i.scdn.co/image/ab67616d00004851dafdd3fa96666ede04d6bbcb",
          "width" : 64
        } ],
        "name" : "Hymns, Vol. II",
        "release_date" : "2018-03-16",
        "release_date_precision" : "day",
        "total_tracks" : 10,
        "type" : "album",
        "uri" : "spotify:album:18we0y1PK9lt3Qneye6ciV"
      },
      "artists" : [ {
        "external_urls" : {
          "spotify" : "https://open.spotify.com/artist/7kwEvDE8e7EBGKh5bLczqQ"
        },
        "href" : "https://api.spotify.com/v1/artists/7kwEvDE8e7EBGKh5bLczqQ",
        "id" : "7kwEvDE8e7EBGKh5bLczqQ",
        "name" : "Anthem Lights",
        "type" : "artist",
        "uri" : "spotify:artist:7kwEvDE8e7EBGKh5bLczqQ"
      } ],
      "disc_number" : 1,
      "duration_ms" : 171177,
      "explicit" : false,
      "external_ids" : {
        "isrc" : "QMF921850014"
      },
      "external_urls" : {
        "spotify" : "https://open.spotify.com/track/5WR2AshcWbmiOirh2uYs04"
      },
      "href" : "https://api.spotify.com/v1/tracks/5WR2AshcWbmiOirh2uYs04",
      "id" : "5WR2AshcWbmiOirh2uYs04",
      "is_local" : false,
      "is_playable" : true,
      "name" : "All Creatures of Our God and King",
      "popularity" : 33,
      "preview_url" : "https://p.scdn.co/mp3-preview/50a5d10f2e31dd1f6e562d663e44ac9668e416f5?cid=774b29d4f13844c495f206cafdad9c86",
      "track_number" : 3,
      "type" : "track",
      "uri" : "spotify:track:5WR2AshcWbmiOirh2uYs04"
    }, {
      "album" : {
        "album_type" : "album",
        "artists" : [ {
          "external_urls" : {
            "spotify" : "https://open.spotify.com/artist/0BMoQeAvgTIVa2il9WIGkA"
          },
          "href" : "https://api.spotify.com/v1/artists/0BMoQeAvgTIVa2il9WIGkA",
          "id" : "0BMoQeAvgTIVa2il9WIGkA",
          "name" : "Rain For Roots",
          "type" : "artist",
          "uri" : "spotify:artist:0BMoQeAvgTIVa2il9WIGkA"
        } ],
        "external_urls" : {
          "spotify" : "https://open.spotify.com/album/3vszbQjMDkqlHAVDZ7tATM"
        },
        "href" : "https://api.spotify.com/v1/albums/3vszbQjMDkqlHAVDZ7tATM",
        "id" : "3vszbQjMDkqlHAVDZ7tATM",
        "images" : [ {
          "height" : 640,
          "url" : "https://i.scdn.co/image/ab67616d0000b273e8af1c1375f3bfc76b9f4607",
          "width" : 640
        }, {
          "height" : 300,
          "url" : "https://i.scdn.co/image/ab67616d00001e02e8af1c1375f3bfc76b9f4607",
          "width" : 300
        }, {
          "height" : 64,
          "url" : "https://i.scdn.co/image/ab67616d00004851e8af1c1375f3bfc76b9f4607",
          "width" : 64
        } ],
        "name" : "All Creatures",
        "release_date" : "2020-05-08",
        "release_date_precision" : "day",
        "total_tracks" : 12,
        "type" : "album",
        "uri" : "spotify:album:3vszbQjMDkqlHAVDZ7tATM"
      },
      "artists" : [ {
        "external_urls" : {
          "spotify" : "https://open.spotify.com/artist/0BMoQeAvgTIVa2il9WIGkA"
        },
        "href" : "https://api.spotify.com/v1/artists/0BMoQeAvgTIVa2il9WIGkA",
        "id" : "0BMoQeAvgTIVa2il9WIGkA",
        "name" : "Rain For Roots",
        "type" : "artist",
        "uri" : "spotify:artist:0BMoQeAvgTIVa2il9WIGkA"
      }, {
        "external_urls" : {
          "spotify" : "https://open.spotify.com/artist/44xkmeuNh7zrgtUb1oOt5A"
        },
        "href" : "https://api.spotify.com/v1/artists/44xkmeuNh7zrgtUb1oOt5A",
        "id" : "44xkmeuNh7zrgtUb1oOt5A",
        "name" : "Seth Talley",
        "type" : "artist",
        "uri" : "spotify:artist:44xkmeuNh7zrgtUb1oOt5A"
      }, {
        "external_urls" : {
          "spotify" : "https://open.spotify.com/artist/3kzio2xuwB6fxl7puclWXO"
        },
        "href" : "https://api.spotify.com/v1/artists/3kzio2xuwB6fxl7puclWXO",
        "id" : "3kzio2xuwB6fxl7puclWXO",
        "name" : "Carter Webb",
        "type" : "artist",
        "uri" : "spotify:artist:3kzio2xuwB6fxl7puclWXO"
      } ],
      "disc_number" : 1,
      "duration_ms" : 131819,
      "explicit" : false,
      "external_ids" : {
        "isrc" : "TCAES2079706"
      },
      "external_urls" : {
        "spotify" : "https://open.spotify.com/track/4xRJ9XgoDcBJXdWL2DsNK0"
      },
      "href" : "https://api.spotify.com/v1/tracks/4xRJ9XgoDcBJXdWL2DsNK0",
      "id" : "4xRJ9XgoDcBJXdWL2DsNK0",
      "is_local" : false,
      "is_playable" : true,
      "name" : "All Creatures of Our God and King",
      "popularity" : 27,
      "preview_url" : "https://p.scdn.co/mp3-preview/6fc61d7d9d3e0bc6b01affd42b7f569e138b63d3?cid=774b29d4f13844c495f206cafdad9c86",
      "track_number" : 4,
      "type" : "track",
      "uri" : "spotify:track:4xRJ9XgoDcBJXdWL2DsNK0"
    }, {
      "album" : {
        "album_type" : "album",
        "artists" : [ {
          "external_urls" : {
            "spotify" : "https://open.spotify.com/artist/5TkYGBRFMiKlSMpdpM2JKu"
          },
          "href" : "https://api.spotify.com/v1/artists/5TkYGBRFMiKlSMpdpM2JKu",
          "id" : "5TkYGBRFMiKlSMpdpM2JKu",
          "name" : "Addison Kirk",
          "type" : "artist",
          "uri" : "spotify:artist:5TkYGBRFMiKlSMpdpM2JKu"
        } ],
        "external_urls" : {
          "spotify" : "https://open.spotify.com/album/31ZDsbK2gINML7jwX4CFgx"
        },
        "href" : "https://api.spotify.com/v1/albums/31ZDsbK2gINML7jwX4CFgx",
        "id" : "31ZDsbK2gINML7jwX4CFgx",
        "images" : [ {
          "height" : 640,
          "url" : "https://i.scdn.co/image/ab67616d0000b273bd7f3f5f441c41b4651a78eb",
          "width" : 640
        }, {
          "height" : 300,
          "url" : "https://i.scdn.co/image/ab67616d00001e02bd7f3f5f441c41b4651a78eb",
          "width" : 300
        }, {
          "height" : 64,
          "url" : "https://i.scdn.co/image/ab67616d00004851bd7f3f5f441c41b4651a78eb",
          "width" : 64
        } ],
        "name" : "Onward",
        "release_date" : "2010-07-13",
        "release_date_precision" : "day",
        "total_tracks" : 12,
        "type" : "album",
        "uri" : "spotify:album:31ZDsbK2gINML7jwX4CFgx"
      },
      "artists" : [ {
        "external_urls" : {
          "spotify" : "https://open.spotify.com/artist/5TkYGBRFMiKlSMpdpM2JKu"
        },
        "href" : "https://api.spotify.com/v1/artists/5TkYGBRFMiKlSMpdpM2JKu",
        "id" : "5TkYGBRFMiKlSMpdpM2JKu",
        "name" : "Addison Kirk",
        "type" : "artist",
        "uri" : "spotify:artist:5TkYGBRFMiKlSMpdpM2JKu"
      } ],
      "disc_number" : 1,
      "duration_ms" : 157880,
      "explicit" : false,
      "external_ids" : {
        "isrc" : "ushm91150648"
      },
      "external_urls" : {
        "spotify" : "https://open.spotify.com/track/1w6pBMtRf22zjxzqyvIDFr"
      },
      "href" : "https://api.spotify.com/v1/tracks/1w6pBMtRf22zjxzqyvIDFr",
      "id" : "1w6pBMtRf22zjxzqyvIDFr",
      "is_local" : false,
      "is_playable" : true,
      "name" : "All Creatures of Our God and King",
      "popularity" : 29,
      "preview_url" : "https://p.scdn.co/mp3-preview/818b640d0c0386d99a2db070315c9986c634316a?cid=774b29d4f13844c495f206cafdad9c86",
      "track_number" : 4,
      "type" : "track",
      "uri" : "spotify:track:1w6pBMtRf22zjxzqyvIDFr"
    }, {
      "album" : {
        "album_type" : "album",
        "artists" : [ {
          "external_urls" : {
            "spotify" : "https://open.spotify.com/artist/1GRl6sRyLg9ToOohIE2wW5"
          },
          "href" : "https://api.spotify.com/v1/artists/1GRl6sRyLg9ToOohIE2wW5",
          "id" : "1GRl6sRyLg9ToOohIE2wW5",
          "name" : "The Tabernacle Choir at Temple Square",
          "type" : "artist",
          "uri" : "spotify:artist:1GRl6sRyLg9ToOohIE2wW5"
        }, {
          "external_urls" : {
            "spotify" : "https://open.spotify.com/artist/4kAIRZipPTtTbZBTudxcEA"
          },
          "href" : "https://api.spotify.com/v1/artists/4kAIRZipPTtTbZBTudxcEA",
          "id" : "4kAIRZipPTtTbZBTudxcEA",
          "name" : "Orchestra at Temple Square",
          "type" : "artist",
          "uri" : "spotify:artist:4kAIRZipPTtTbZBTudxcEA"
        } ],
        "external_urls" : {
          "spotify" : "https://open.spotify.com/album/7HoUeWSejnUYkB4TWLebCf"
        },
        "href" : "https://api.spotify.com/v1/albums/7HoUeWSejnUYkB4TWLebCf",
        "id" : "7HoUeWSejnUYkB4TWLebCf",
        "images" : [ {
          "height" : 640,
          "url" : "https://i.scdn.co/image/ab67616d0000b27346401ced8620db0c914a9f6c",
          "width" : 640
        }, {
          "height" : 300,
          "url" : "https://i.scdn.co/image/ab67616d00001e0246401ced8620db0c914a9f6c",
          "width" : 300
        }, {
          "height" : 64,
          "url" : "https://i.scdn.co/image/ab67616d0000485146401ced8620db0c914a9f6c",
          "width" : 64
        } ],
        "name" : "Let Us All Press On: Hymns of Praise and Inspiration",
        "release_date" : "2019-03-08",
        "release_date_precision" : "day",
        "total_tracks" : 14,
        "type" : "album",
        "uri" : "spotify:album:7HoUeWSejnUYkB4TWLebCf"
      },
      "artists" : [ {
        "external_urls" : {
          "spotify" : "https://open.spotify.com/artist/2Zpql3RdMQjunbDKk1bIiz"
        },
        "href" : "https://api.spotify.com/v1/artists/2Zpql3RdMQjunbDKk1bIiz",
        "id" : "2Zpql3RdMQjunbDKk1bIiz",
        "name" : "Mack Wilberg",
        "type" : "artist",
        "uri" : "spotify:artist:2Zpql3RdMQjunbDKk1bIiz"
      }, {
        "external_urls" : {
          "spotify" : "https://open.spotify.com/artist/1GRl6sRyLg9ToOohIE2wW5"
        },
        "href" : "https://api.spotify.com/v1/artists/1GRl6sRyLg9ToOohIE2wW5",
        "id" : "1GRl6sRyLg9ToOohIE2wW5",
        "name" : "The Tabernacle Choir at Temple Square",
        "type" : "artist",
        "uri" : "spotify:artist:1GRl6sRyLg9ToOohIE2wW5"
      }, {
        "external_urls" : {
          "spotify" : "https://open.spotify.com/artist/4kAIRZipPTtTbZBTudxcEA"
        },
        "href" : "https://api.spotify.com/v1/artists/4kAIRZipPTtTbZBTudxcEA",
        "id" : "4kAIRZipPTtTbZBTudxcEA",
        "name" : "Orchestra at Temple Square",
        "type" : "artist",
        "uri" : "spotify:artist:4kAIRZipPTtTbZBTudxcEA"
      }, {
        "external_urls" : {
          "spotify" : "https://open.spotify.com/artist/2c7BrKgySLBX5gsyjU04Sd"
        },
        "href" : "https://api.spotify.com/v1/artists/2c7BrKgySLBX5gsyjU04Sd",
        "id" : "2c7BrKgySLBX5gsyjU04Sd",
        "name" : "Mack Wilburg",
        "type" : "artist",
        "uri" : "spotify:artist:2c7BrKgySLBX5gsyjU04Sd"
      } ],
      "disc_number" : 1,
      "duration_ms" : 252354,
      "explicit" : false,
      "external_ids" : {
        "isrc" : "US23M1900013"
      },
      "external_urls" : {
        "spotify" : "https://open.spotify.com/track/1BNkVqZO1GhINZJCBH3dq2"
      },
      "href" : "https://api.spotify.com/v1/tracks/1BNkVqZO1GhINZJCBH3dq2",
      "id" : "1BNkVqZO1GhINZJCBH3dq2",
      "is_local" : false,
      "is_playable" : true,
      "name" : "All Creatures of Our God and King",
      "popularity" : 26,
      "preview_url" : "https://p.scdn.co/mp3-preview/95580cafa93ab193e049ef6979f1feb2590e8b6a?cid=774b29d4f13844c495f206cafdad9c86",
      "track_number" : 14,
      "type" : "track",
      "uri" : "spotify:track:1BNkVqZO1GhINZJCBH3dq2"
    }, {
      "album" : {
        "album_type" : "album",
        "artists" : [ {
          "external_urls" : {
            "spotify" : "https://open.spotify.com/artist/0I4Bk2s2BUJyykCwtxx8Xx"
          },
          "href" : "https://api.spotify.com/v1/artists/0I4Bk2s2BUJyykCwtxx8Xx",
          "id" : "0I4Bk2s2BUJyykCwtxx8Xx",
          "name" : "Keith & Kristyn Getty",
          "type" : "artist",
          "uri" : "spotify:artist:0I4Bk2s2BUJyykCwtxx8Xx"
        } ],
        "external_urls" : {
          "spotify" : "https://open.spotify.com/album/7B7T6Cqj9VNvkP2ZPpBXZ7"
        },
        "href" : "https://api.spotify.com/v1/albums/7B7T6Cqj9VNvkP2ZPpBXZ7",
        "id" : "7B7T6Cqj9VNvkP2ZPpBXZ7",
        "images" : [ {
          "height" : 640,
          "url" : "https://i.scdn.co/image/ab67616d0000b2730e7ff10b3052343004c525fa",
          "width" : 640
        }, {
          "height" : 300,
          "url" : "https://i.scdn.co/image/ab67616d00001e020e7ff10b3052343004c525fa",
          "width" : 300
        }, {
          "height" : 64,
          "url" : "https://i.scdn.co/image/ab67616d000048510e7ff10b3052343004c525fa",
          "width" : 64
        } ],
        "name" : "Getty Kids Hymnal – Family Hymn Sing",
        "release_date" : "2018-09-07",
        "release_date_precision" : "day",
        "total_tracks" : 12,
        "type" : "album",
        "uri" : "spotify:album:7B7T6Cqj9VNvkP2ZPpBXZ7"
      },
      "artists" : [ {
        "external_urls" : {
          "spotify" : "https://open.spotify.com/artist/0I4Bk2s2BUJyykCwtxx8Xx"
        },
        "href" : "https://api.spotify.com/v1/artists/0I4Bk2s2BUJyykCwtxx8Xx",
        "id" : "0I4Bk2s2BUJyykCwtxx8Xx",
        "name" : "Keith & Kristyn Getty",
        "type" : "artist",
        "uri" : "spotify:artist:0I4Bk2s2BUJyykCwtxx8Xx"
      } ],
      "disc_number" : 1,
      "duration_ms" : 226003,
      "explicit" : false,
      "external_ids" : {
        "isrc" : "USY5K1800150"
      },
      "external_urls" : {
        "spotify" : "https://open.spotify.com/track/4oTvIdEGVo7PHXpbkUShDL"
      },
      "href" : "https://api.spotify.com/v1/tracks/4oTvIdEGVo7PHXpbkUShDL",
      "id" : "4oTvIdEGVo7PHXpbkUShDL",
      "is_local" : false,
      "is_playable" : true,
      "name" : "All Creatures Of Our God And King",
      "popularity" : 27,
      "preview_url" : null,
      "track_number" : 1,
      "type" : "track",
      "uri" : "spotify:track:4oTvIdEGVo7PHXpbkUShDL"
    }, {
      "album" : {
        "album_type" : "album",
        "artists" : [ {
          "external_urls" : {
            "spotify" : "https://open.spotify.com/artist/3vX0Zd001TxIvNH2JBjnLW"
          },
          "href" : "https://api.spotify.com/v1/artists/3vX0Zd001TxIvNH2JBjnLW",
          "id" : "3vX0Zd001TxIvNH2JBjnLW",
          "name" : "Eclipse 6",
          "type" : "artist",
          "uri" : "spotify:artist:3vX0Zd001TxIvNH2JBjnLW"
        } ],
        "external_urls" : {
          "spotify" : "https://open.spotify.com/album/1zkExRWtYfTOahwRYtWAAm"
        },
        "href" : "https://api.spotify.com/v1/albums/1zkExRWtYfTOahwRYtWAAm",
        "id" : "1zkExRWtYfTOahwRYtWAAm",
        "images" : [ {
          "height" : 640,
          "url" : "https://i.scdn.co/image/ab67616d0000b273b70c88c00170e4283fc32afe",
          "width" : 640
        }, {
          "height" : 300,
          "url" : "https://i.scdn.co/image/ab67616d00001e02b70c88c00170e4283fc32afe",
          "width" : 300
        }, {
          "height" : 64,
          "url" : "https://i.scdn.co/image/ab67616d00004851b70c88c00170e4283fc32afe",
          "width" : 64
        } ],
        "name" : "Grateful Praise",
        "release_date" : "2008-04-01",
        "release_date_precision" : "day",
        "total_tracks" : 11,
        "type" : "album",
        "uri" : "spotify:album:1zkExRWtYfTOahwRYtWAAm"
      },
      "artists" : [ {
        "external_urls" : {
          "spotify" : "https://open.spotify.com/artist/3vX0Zd001TxIvNH2JBjnLW"
        },
        "href" : "https://api.spotify.com/v1/artists/3vX0Zd001TxIvNH2JBjnLW",
        "id" : "3vX0Zd001TxIvNH2JBjnLW",
        "name" : "Eclipse 6",
        "type" : "artist",
        "uri" : "spotify:artist:3vX0Zd001TxIvNH2JBjnLW"
      } ],
      "disc_number" : 1,
      "duration_ms" : 232960,
      "explicit" : false,
      "external_ids" : {
        "isrc" : "USHM81169435"
      },
      "external_urls" : {
        "spotify" : "https://open.spotify.com/track/1Puv87ZlWShpsVya9lE3LS"
      },
      "href" : "https://api.spotify.com/v1/tracks/1Puv87ZlWShpsVya9lE3LS",
      "id" : "1Puv87ZlWShpsVya9lE3LS",
      "is_local" : false,
      "is_playable" : true,
      "name" : "All Creatures of Our God and King",
      "popularity" : 25,
      "preview_url" : "https://p.scdn.co/mp3-preview/b550305a947f358ed96f811d99f1d82fad5bf72c?cid=774b29d4f13844c495f206cafdad9c86",
      "track_number" : 1,
      "type" : "track",
      "uri" : "spotify:track:1Puv87ZlWShpsVya9lE3LS"
    } ],
    "limit" : 10,
    "next" : "https://api.spotify.com/v1/search?query=All+Creatures+of+Our+God+and+King&type=track&market=US&offset=15&limit=10",
    "offset" : 5,
    "previous" : "https://api.spotify.com/v1/search?query=All+Creatures+of+Our+God+and+King&type=track&market=US&offset=0&limit=10",
    "total" : 880
  }
}