{
  "tracks" : {
    "href" : "https://api.spotify.com/v1/search?query=I+Would+Be+Like+Jesus&type=track&market=US&offset=5&limit=10",
    "items" : [ {
      "album" : {
        "album_type" : "album",
        "artists" : [ {
          "external_urls" : {
            "spotify" : "https://open.spotify.com/artist/20rlbkwNSoLrLqQUR7GRcT"
          },
          "href" : "https://api.spotify.com/v1/artists/20rlbkwNSoLrLqQUR7GRcT",
          "id" : "20rlbkwNSoLrLqQUR7GRcT",
          "name" : "Mother’s Lullaby",
          "type" : "artist",
          "uri" : "spotify:artist:20rlbkwNSoLrLqQUR7GRcT"
        } ],
        "external_urls" : {
          "spotify" : "https://open.spotify.com/album/7Mpiwy7SrenUqsIvyiTO41"
        },
        "href" : "https://api.spotify.com/v1/albums/7Mpiwy7SrenUqsIvyiTO41",
        "id" : "7Mpiwy7SrenUqsIvyiTO41",
        "images" : [ {
          "height" : 640,
          "url" : "https://i.scdn.co/image/ab67616d0000b27367d3fd4f6b5befe73e795a8b",
          "width" : 640
        }, {
          "height" : 300,
          "url" : "https://i.scdn.co/image/ab67616d00001e0267d3fd4f6b5befe73e795a8b",
          "width" : 300
        }, {
          "height" : 64,
          "url" : "https://i.scdn.co/image/ab67616d0000485167d3fd4f6b5befe73e795a8b",
          "width" : 64
        } ],
        "name" : "찬송가 반주곡 대전집 Vol.24 (501~558장)_(Hymns Vol.24)",
        "release_date" : "2019-12-24",
        "release_date_precision" : "day",
        "total_tracks" : 58,
        "type" : "album",
        "uri" : "spotify:album:7Mpiwy7SrenUqsIvyiTO41"
      },
      "artists" : [ {
        "external_urls" : {
          "spotify" : "https://open.spotify.com/artist/20rlbkwNSoLrLqQUR7GRcT"
        },
        "href" : "https://api.spotify.com/v1/artists/20rlbkwNSoLrLqQUR7GRcT",
        "id" : "20rlbkwNSoLrLqQUR7GRcT",
        "name" : "Mother’s Lullaby",
        "type" : "artist",
        "uri" : "spotify:artist:20rlbkwNSoLrLqQUR7GRcT"
      } ],
      "disc_number" : 1,
      "duration_ms" : 148333,
      "explicit" : false,
      "external_ids" : {
        "isrc" : "QZEKE1923791"
      },
      "external_urls" : {
        "spotify" : "https://open.spotify.com/track/7uO7A84wm0MUhoTqPe9Jqc"
      },
      "href" : "https://api.spotify.com/v1/tracks/7uO7A84wm0MUhoTqPe9Jqc",
      "id" : "7uO7A84wm0MUhoTqPe9Jqc",
      "is_local" : false,
      "is_playable" : true,
      "name" : "More Like Jesus would I be",
      "popularity" : 0,
      "preview_url" : "https://p.scdn.co/mp3-preview/e041ec24f5ffd2f7452a6e788750d9bd96183775?cid=774b29d4f13844c495f206cafdad9c86",
      "track_number" : 8,
      "type" : "track",
      "uri" : "spotify:track:7uO7A84wm0MUhoTqPe9Jqc"
    }, {
      "album" : {
        "album_type" : "album",
        "artists" : [ {
          "external_urls" : {
            "spotify" : "https://open.spotify.com/artist/5BYpL5FScG8LuQsBPT0gYG"
          },
          "href" : "https://api.spotify.com/v1/artists/5BYpL5FScG8LuQsBPT0gYG",
          "id" : "5BYpL5FScG8LuQsBPT0gYG",
          "name" : "Steve Warren",
          "type" : "artist",
          "uri" : "spotify:artist:5BYpL5FScG8LuQsBPT0gYG"
        } ],
        "external_urls" : {
          "spotify" : "https://open.spotify.com/album/60ljKCOuQiIvbvxf04TtSk"
        },
        "href" : "https://api.spotify.com/v1/albums/60ljKCOuQiIvbvxf04TtSk",
        "id" : "60ljKCOuQiIvbvxf04TtSk",
        "images" : [ {
          "height" : 640,
          "url" : "https://i.scdn.co/image/ab67616d0000b27342c48743b9c3af2ea6c48f76",
          "width" : 640
        }, {
          "height" : 300,
          "url" : "https://i.scdn.co/image/ab67616d00001e0242c48743b9c3af2ea6c48f76",
          "width" : 300
        }, {
          "height" : 64,
          "url" : "https://i.scdn.co/image/ab67616d0000485142c48743b9c3af2ea6c48f76",
          "width" : 64
        } ],
        "name" : "God, Family, & Country",
        "release_date" : "2016-09-11",
        "release_date_precision" : "day",
        "total_tracks" : 11,
        "type" : "album",
        "uri" : "spotify:album:60ljKCOuQiIvbvxf04TtSk"
      },
      "artists" : [ {
        "external_urls" : {
          "spotify" : "https://open.spotify.com/artist/5BYpL5FScG8LuQsBPT0gYG"
        },
        "href" : "https://api.spotify.com/v1/artists/5BYpL5FScG8LuQsBPT0gYG",
        "id" : "5BYpL5FScG8LuQsBPT0gYG",
        "name" : "Steve Warren",
        "type" : "artist",
        "uri" : "spotify:artist:5BYpL5FScG8LuQsBPT0gYG"
      } ],
      "disc_number" : 1,
      "duration_ms" : 183040,
      "explicit" : false,
      "external_ids" : {
        "isrc" : "TCACR1682929"
      },
      "external_urls" : {
        "spotify" : "https://open.spotify.com/track/5XMzSnylajqGKfXVTopF9R"
      },
      "href" : "https://api.spotify.com/v1/tracks/5XMzSnylajqGKfXVTopF9R",
      "id" : "5XMzSnylajqGKfXVTopF9R",
      "is_local" : false,
      "is_playable" : true,
      "name" : "Just Like Jesus Said It Would Be",
      "popularity" : 0,
      "preview_url" : "https://p.scdn.co/mp3-preview/249ac35be7c3741e73d946525342d7311e521b46?cid=774b29d4f13844c495f206cafdad9c86",
      "track_number" : 5,
      "type" : "track",
      "uri" : "spotify:track:5XMzSnylajqGKfXVTopF9R"
    }, {
      "album" : {
        "album_type" : "single",
        "artists" : [ {
          "external_urls" : {
            "spotify" : "https://open.spotify.com/artist/6cuc03Eg6uGuMZfopTXGOG"
          },
          "href" : "https://api.spotify.com/v1/artists/6cuc03Eg6uGuMZfopTXGOG",
          "id" : "6cuc03Eg6uGuMZfopTXGOG",
          "name" : "Josiah Ruff",
          "type" : "artist",
          "uri" : "spotify:artist:6cuc03Eg6uGuMZfopTXGOG"
        } ],
        "external_urls" : {
          "spotify" : "https://open.spotify.com/album/4XmMYd6tCO6351RLsBtIVZ"
        },
        "href" : "https://api.spotify.com/v1/albums/4XmMYd6tCO6351RLsBtIVZ",
        "id" : "4XmMYd6tCO6351RLsBtIVZ",
        "images" : [ {
          "height" : 640,
          "url" : "https://i.scdn.co/image/ab67616d0000b27303a24f42704ba94ac192ba62",
          "width" : 640
        }, {
          "height" : 300,
          "url" : "https://i.scdn.co/image/ab67616d00001e0203a24f42704ba94ac192ba62",
          "width" : 300
        }, {
          "height" : 64,
          "url" : "https://i.scdn.co/image/ab67616d0000485103a24f42704ba94ac192ba62",
          "width" : 64
        } ],
        "name" : "I Would Be Like Jesus",
        "release_date" : "2016-02-24",
        "release_date_precision" : "day",
        "total_tracks" : 5,
        "type" : "album",
        "uri" : "spotify:album:4XmMYd6tCO6351RLsBtIVZ"
      },
      "artists" : [ {
        "external_urls" : {
          "spotify" : "https://open.spotify.com/artist/6cuc03Eg6uGuMZfopTXGOG"
        },
        "href" : "https://api.spotify.com/v1/artists/6cuc03Eg6uGuMZfopTXGOG",
        "id" : "6cuc03Eg6uGuMZfopTXGOG",
        "name" : "Josiah Ruff",
        "type" : "artist",
        "uri" : "spotify:artist:6cuc03Eg6uGuMZfopTXGOG"
      } ],
      "disc_number" : 1,
      "duration_ms" : 296666,
      "explicit" : false,
      "external_ids" : {
        "isrc" : "usdy41611353"
      },
      "external_urls" : {
        "spotify" : "https://open.spotify.com/track/5HFwu7UNyB6gc74qL7ATBU"
      },
      "href" : "https://api.spotify.com/v1/tracks/5HFwu7UNyB6gc74qL7ATBU",
      "id" : "5HFwu7UNyB6gc74qL7ATBU",
      "is_local" : false,
      "is_playable" : true,
      "name" : "I Would Be Like Jesus (Acoustic Version)",
      "popularity" : 0,
      "preview_url" : "https://p.scdn.co/mp3-preview/5bc4dae14640ecd1e2158bb6a3f0ec8f4268d7e2?cid=774b29d4f13844c495f206cafdad9c86",
      "track_number" : 2,
      "type" : "track",
      "uri" : "spotify:track:5HFwu7UNyB6gc74qL7ATBU"
    }, {
      "album" : {
        "album_type" : "single",
        "artists" : [ {
          "external_urls" : {
            "spotify" : "https://open.spotify.com/artist/6cuc03Eg6uGuMZfopTXGOG"
          },
          "href" : "https://api.spotify.com/v1/artists/6cuc03Eg6uGuMZfopTXGOG",
          "id" : "6cuc03Eg6uGuMZfopTXGOG",
          "name" : "Josiah Ruff",
          "type" : "artist",
          "uri" : "spotify:artist:6cuc03Eg6uGuMZfopTXGOG"
        } ],
        "external_urls" : {
          "spotify" : "https://open.spotify.com/album/4XmMYd6tCO6351RLsBtIVZ"
        },
        "href" : "https://api.spotify.com/v1/albums/4XmMYd6tCO6351RLsBtIVZ",
        "id" : "4XmMYd6tCO6351RLsBtIVZ",
        "images" : [ {
          "height" : 640,
          "url" : "https://i.scdn.co/image/ab67616d0000b27303a24f42704ba94ac192ba62",
          "width" : 640
        }, {
          "height" : 300,
          "url" : "https://i.scdn.co/image/ab67616d00001e0203a24f42704ba94ac192ba62",
          "width" : 300
        }, {
          "height" : 64,
          "url" : "https://i.scdn.co/image/ab67616d0000485103a24f42704ba94ac192ba62",
          "width" : 64
        } ],
        "name" : "I Would Be Like Jesus",
        "release_date" : "2016-02-24",
        "release_date_precision" : "day",
        "total_tracks" : 5,
        "type" : "album",
        "uri" : "spotify:album:4XmMYd6tCO6351RLsBtIVZ"
      },
      "artists" : [ {
        "external_urls" : {
          "spotify" : "https://open.spotify.com/artist/6cuc03Eg6uGuMZfopTXGOG"
        },
        "href" : "https://api.spotify.com/v1/artists/6cuc03Eg6uGuMZfopTXGOG",
        "id" : "6cuc03Eg6uGuMZfopTXGOG",
        "name" : "Josiah Ruff",
        "type" : "artist",
        "uri" : "spotify:artist:6cuc03Eg6uGuMZfopTXGOG"
      } ],
      "disc_number" : 1,
      "duration_ms" : 296666,
      "explicit" : false,
      "external_ids" : {
        "isrc" : "usdy41611355"
      },
      "external_urls" : {
        "spotify" : "https://open.spotify.com/track/1bhtESRhu3bfROHEB4dWDe"
      },
      "href" : "https://api.spotify.com/v1/tracks/1bhtESRhu3bfROHEB4dWDe",
      "id" : "1bhtESRhu3bfROHEB4dWDe",
      "is_local" : false,
      "is_playable" : true,
      "name" : "I Would Be Like Jesus (Backing Track)",
      "popularity" : 0,
      "preview_url" : "https://p.scdn.co/mp3-preview/78d337c0905a7d5e38156279155ee7dff2a2f84c?cid=774b29d4f13844c495f206cafdad9c86",
      "track_number" : 4,
      "type" : "track",
      "uri" : "spotify:track:1bhtESRhu3bfROHEB4dWDe"
    }, {
      "album" : {
        "album_type" : "single",
        "artists" : [ {
          "external_urls" : {
            "spotify" : "https://open.spotify.com/artist/6cuc03Eg6uGuMZfopTXGOG"
          },
          "href" : "https://api.spotify.com/v1/artists/6cuc03Eg6uGuMZfopTXGOG",
          "id" : "6cuc03Eg6uGuMZfopTXGOG",
          "name" : "Josiah Ruff",
          "type" : "artist",
          "uri" : "spotify:artist:6cuc03Eg6uGuMZfopTXGOG"
        } ],
        "external_urls" : {
          "spotify" : "https://open.spotify.com/album/4XmMYd6tCO6351RLsBtIVZ"
        },
        "href" : "https://api.spotify.com/v1/albums/4XmMYd6tCO6351RLsBtIVZ",
        "id" : "4XmMYd6tCO6351RLsBtIVZ",
        "images" : [ {
          "height" : 640,
          "url" : "https://i.scdn.co/image/ab67616d0000b27303a24f42704ba94ac192ba62",
          "width" : 640
        }, {
          "height" : 300,
          "url" : "https://i.scdn.co/image/ab67616d00001e0203a24f42704ba94ac192ba62",
          "width" : 300
        }, {
          "height" : 64,
          "url" : "https://i.scdn.co/image/ab67616d0000485103a24f42704ba94ac192ba62",
          "width" : 64
        } ],
        "name" : "I Would Be Like Jesus",
        "release_date" : "2016-02-24",
        "release_date_precision" : "day",
        "total_tracks" : 5,
        "type" : "album",
        "uri" : "spotify:album:4XmMYd6tCO6351RLsBtIVZ"
      },
      "artists" : [ {
        "external_urls" : {
          "spotify" : "https://open.spotify.com/artist/6cuc03Eg6uGuMZfopTXGOG"
        },
        "href" : "https://api.spotify.com/v1/artists/6cuc03Eg6uGuMZfopTXGOG",
        "id" : "6cuc03Eg6uGuMZfopTXGOG",
        "name" : "Josiah Ruff",
        "type" : "artist",
        "uri" : "spotify:artist:6cuc03Eg6uGuMZfopTXGOG"
      } ],
      "disc_number" : 1,
      "duration_ms" : 296666,
      "explicit" : false,
      "external_ids" : {
        "isrc" : "usdy41611354"
      },
      "external_urls" : {
        "spotify" : "https://open.spotify.com/track/0BeHgjIYDMbUDIQdv6LyEe"
      },
      "href" : "https://api.spotify.com/v1/tracks/0BeHgjIYDMbUDIQdv6LyEe",
      "id" : "0BeHgjIYDMbUDIQdv6LyEe",
      "is_local" : false,
      "is_playable" : true,
      "name" : "I Would Be Like Jesus (A Capella)",
      "popularity" : 0,
      "preview_url" : "https://p.scdn.co/mp3-preview/81f30ff02591ce12bfd51de614f70cf1d6c027df?cid=774b29d4f13844c495f206cafdad9c86",
      "track_number" : 3,
      "type" : "track",
      "uri" : "spotify:track:0BeHgjIYDMbUDIQdv6LyEe"
    }, {
      "album" : {
        "album_type" : "single",
        "artists" : [ {
          "external_urls" : {
            "spotify" : "https://open.spotify.com/artist/7hH4F9R268jChGQW7PoI61"
          },
          "href" : "https://api.spotify.com/v1/artists/7hH4F9R268jChGQW7PoI61",
          "id" : "7hH4F9R268jChGQW7PoI61",
          "name" : "Chris Hester",
          "type" : "artist",
          "uri" : "spotify:artist:7hH4F9R268jChGQW7PoI61"
        } ],
        "external_urls" : {
          "spotify" : "https://open.spotify.com/album/5XMa8jq0BOmWQTFWVJdtkO"
        },
        "href" : "https://api.spotify.com/v1/albums/5XMa8jq0BOmWQTFWVJdtkO",
        "id" : "5XMa8jq0BOmWQTFWVJdtkO",
        "images" : [ {
          "height" : 640,
          "url" : "https://i.scdn.co/image/ab67616d0000b27341114263061db12ef65950db",
          "width" : 640
        }, {
          "height" : 300,
          "url" : "https://i.scdn.co/image/ab67616d00001e0241114263061db12ef65950db",
          "width" : 300
        }, {
          "height" : 64,
          "url" : "https://i.scdn.co/image/ab67616d0000485141114263061db12ef65950db",
          "width" : 64
        } ],
        "name" : "Just Like Jesus Said It Would Be",
        "release_date" : "2012-10-23",
        "release_date_precision" : "day",
        "total_tracks" : 1,
        "type" : "album",
        "uri" : "spotify:album:5XMa8jq0BOmWQTFWVJdtkO"
      },
      "artists" : [ {
        "external_urls" : {
          "spotify" : "https://open.spotify.com/artist/7hH4F9R268jChGQW7PoI61"
        },
        "href" : "https://api.spotify.com/v1/artists/7hH4F9R268jChGQW7PoI61",
        "id" : "7hH4F9R268jChGQW7PoI61",
        "name" : "Chris Hester",
        "type" : "artist",
        "uri" : "spotify:artist:7hH4F9R268jChGQW7PoI61"
      } ],
      "disc_number" : 1,
      "duration_ms" : 180010,
      "explicit" : false,
      "external_ids" : {
        "isrc" : "ushm91264843"
      },
      "external_urls" : {
        "spotify" : "https://open.spotify.com/track/3519zpcePrlmwIzBwJ4AD5"
      },
      "href" : "https://api.spotify.com/v1/tracks/3519zpcePrlmwIzBwJ4AD5",
      "id" : "3519zpcePrlmwIzBwJ4AD5",
      "is_local" : false,
      "is_playable" : true,
      "name" : "Just Like Jesus Said It Would Be",
      "popularity" : 1,
      "preview_url" : "https://p.scdn.co/mp3-preview/aa3bfa1268790393c3ab407d07d3fda0e5db80f9?cid=774b29d4f13844c495f206cafdad9c86",
      "track_number" : 1,
      "type" : "track",
      "uri" : "spotify:track:3519zpcePrlmwIzBwJ4AD5"
    }, {
      "album" : {
        "album_type" : "album",
        "artists" : [ {
          "external_urls" : {
            "spotify" : "https://open.spotify.com/artist/3qNSsKNzzgoxfmBBwAIHUy"
          },
          "href" : "https://api.spotify.com/v1/artists/3qNSsKNzzgoxfmBBwAIHUy",
          "id" : "3qNSsKNzzgoxfmBBwAIHUy",
          "name" : "Lana Kim",
          "type" : "artist",
          "uri" : "spotify:artist:3qNSsKNzzgoxfmBBwAIHUy"
        } ],
        "external_urls" : {
          "spotify" : "https://open.spotify.com/album/3jEkZBUYCwzIAvJfRI1xoZ"
        },
        "href" : "https://api.spotify.com/v1/albums/3jEkZBUYCwzIAvJfRI1xoZ",
        "id" : "3jEkZBUYCwzIAvJfRI1xoZ",
        "images" : [ {
          "height" : 640,
          "url" : "https://i.scdn.co/image/ab67616d0000b273f685ffd2571a9526585832fd",
          "width" : 640
        }, {
          "height" : 300,
          "url" : "https://i.scdn.co/image/ab67616d00001e02f685ffd2571a9526585832fd",
          "width" : 300
        }, {
          "height" : 64,
          "url" : "https://i.scdn.co/image/ab67616d00004851f685ffd2571a9526585832fd",
          "width" : 64
        } ],
        "name" : "All Christian Hymns - Vol. 13",
        "release_date" : "2011-03-05",
        "release_date_precision" : "day",
        "total_tracks" : 40,
        "type" : "album",
        "uri" : "spotify:album:3jEkZBUYCwzIAvJfRI1xoZ"
      },
      "artists" : [ {
        "external_urls" : {
          "spotify" : "https://open.spotify.com/artist/3qNSsKNzzgoxfmBBwAIHUy"
        },
        "href" : "https://api.spotify.com/v1/artists/3qNSsKNzzgoxfmBBwAIHUy",
        "id" : "3qNSsKNzzgoxfmBBwAIHUy",
        "name" : "Lana Kim",
        "type" : "artist",
        "uri" : "spotify:artist:3qNSsKNzzgoxfmBBwAIHUy"
      } ],
      "disc_number" : 1,
      "duration_ms" : 66194,
      "explicit" : false,
      "external_ids" : {
        "isrc" : "USJ3V1087430"
      },
      "external_urls" : {
        "spotify" : "https://open.spotify.com/track/0v8s86CqLgb3Q6WlldiKhm"
      },
      "href" : "https://api.spotify.com/v1/tracks/0v8s86CqLgb3Q6WlldiKhm",
      "id" : "0v8s86CqLgb3Q6WlldiKhm",
      "is_local" : false,
      "is_playable" : true,
      "name" : "508 More Like Jesus Would I Be",
      "popularity" : 0,
      "preview_url" : "https://p.scdn.co/mp3-preview/f3b72fa656c86c27588dde74af09100e066bf0cb?cid=774b29d4f13844c495f206cafdad9c86",
      "track_number" : 33,
      "type" : "track",
      "uri" : "spotify:track:0v8s86CqLgb3Q6WlldiKhm"
    }, {
      "album" : {
        "album_type" : "album",
        "artists" : [ {
          "external_urls" : {
            "spotify" : "https://open.spotify.com/artist/09HqCwTFfNi2IuLss71TZV"
          },
          "href" : "https://api.spotify.com/v1/artists/09HqCwTFfNi2IuLss71TZV",
          "id" : "09HqCwTFfNi2IuLss71TZV",
          "name" : "Joanna Stryker",
          "type" : "artist",
          "uri" : "spotify:artist:09HqCwTFfNi2IuLss71TZV"
        } ],
        "external_urls" : {
          "spotify" : "https://open.spotify.com/album/2X9IkIlKejsnJ98jpVwpnh"
        },
        "href" : "https://api.spotify.com/v1/albums/2X9IkIlKejsnJ98jpVwpnh",
        "id" : "2X9IkIlKejsnJ98jpVwpnh",
        "images" : [ {
          "height" : 640,
          "url" : "https://i.scdn.co/image/ab67616d0000b27331e0783e42a378bc0a76cf6f",
          "width" : 640
        }, {
          "height" : 300,
          "url" : "https://i.scdn.co/image/ab67616d00001e0231e0783e42a378bc0a76cf6f",
          "width" : 300
        }, {
          "height" : 64,
          "url" : "https://i.scdn.co/image/ab67616d0000485131e0783e42a378bc0a76cf6f",
          "width" : 64
        } ],
        "name" : "Jesus Is What This Nation Needs",
        "release_date" : "2015-06-11",
        "release_date_precision" : "day",
        "total_tracks" : 15,
        "type" : "album",
        "uri" : "spotify:album:2X9IkIlKejsnJ98jpVwpnh"
      },
      "artists" : [ {
        "external_urls" : {
          "spotify" : "https://open.spotify.com/artist/09HqCwTFfNi2IuLss71TZV"
        },
        "href" : "https://api.spotify.com/v1/artists/09HqCwTFfNi2IuLss71TZV",
        "id" : "09HqCwTFfNi2IuLss71TZV",
        "name" : "Joanna Stryker",
        "type" : "artist",
        "uri" : "spotify:artist:09HqCwTFfNi2IuLss71TZV"
      } ],
      "disc_number" : 1,
      "duration_ms" : 223080,
      "explicit" : false,
      "external_ids" : {
        "isrc" : "QM4TX1591870"
      },
      "external_urls" : {
        "spotify" : "https://open.spotify.com/track/4PWCGo4b8CnIMr9jBJknHg"
      },
      "href" : "https://api.spotify.com/v1/tracks/4PWCGo4b8CnIMr9jBJknHg",
      "id" : "4PWCGo4b8CnIMr9jBJknHg",
      "is_local" : false,
      "is_playable" : true,
      "name" : "What Would It Be Like",
      "popularity" : 0,
      "preview_url" : "https://p.scdn.co/mp3-preview/db0324c0550bc7c18b1741493f4ac1624174b192?cid=774b29d4f13844c495f206cafdad9c86",
      "track_number" : 12,
      "type" : "track",
      "uri" : "spotify:track:4PWCGo4b8CnIMr9jBJknHg"
    }, {
      "album" : {
        "album_type" : "album",
        "artists" : [ {
          "external_urls" : {
            "spotify" : "https://open.spotify.com/artist/2I3JdGYrBG5TbIMv0ndyZX"
          },
          "href" : "https://api.spotify.com/v1/artists/2I3JdGYrBG5TbIMv0ndyZX",
          "id" : "2I3JdGYrBG5TbIMv0ndyZX",
          "name" : "The Gospel Allstars",
          "type" : "artist",
          "uri" : "spotify:artist:2I3JdGYrBG5TbIMv0ndyZX"
        } ],
        "external_urls" : {
          "spotify" : "https://open.spotify.com/album/1x3Qy5Wc4fGisaerMkWOn3"
        },
        "href" : "https://api.spotify.com/v1/albums/1x3Qy5Wc4fGisaerMkWOn3",
        "id" : "1x3Qy5Wc4fGisaerMkWOn3",
        "images" : [ {
          "height" : 640,
          "url" : "https://i.scdn.co/image/ab67616d0000b2734dd16e90ef3039db6861282b",
          "width" : 640
        }, {
          "height" : 300,
          "url" : "https://i.scdn.co/image/ab67616d00001e024dd16e90ef3039db6861282b",
          "width" : 300
        }, {
          "height" : 64,
          "url" : "https://i.scdn.co/image/ab67616d000048514dd16e90ef3039db6861282b",
          "width" : 64
        } ],
        "name" : "Where Would I Be",
        "release_date" : "2009-01-14",
        "release_date_precision" : "day",
        "total_tracks" : 11,
        "type" : "album",
        "uri" : "spotify:album:1x3Qy5Wc4fGisaerMkWOn3"
      },
      "artists" : [ {
        "external_urls" : {
          "spotify" : "https://open.spotify.com/artist/2I3JdGYrBG5TbIMv0ndyZX"
        },
        "href" : "https://api.spotify.com/v1/artists/2I3JdGYrBG5TbIMv0ndyZX",
        "id" : "2I3JdGYrBG5TbIMv0ndyZX",
        "name" : "The Gospel Allstars",
        "type" : "artist",
        "uri" : "spotify:artist:2I3JdGYrBG5TbIMv0ndyZX"
      }, {
        "external_urls" : {
          "spotify" : "https://open.spotify.com/artist/0QgS0gZcqfJc8dFxBBBWLL"
        },
        "href" : "https://api.spotify.com/v1/artists/0QgS0gZcqfJc8dFxBBBWLL",
        "id" : "0QgS0gZcqfJc8dFxBBBWLL",
        "name" : "Daryl Jones",
        "type" : "artist",
        "uri" : "spotify:artist:0QgS0gZcqfJc8dFxBBBWLL"
      } ],
      "disc_number" : 1,
      "duration_ms" : 220453,
      "explicit" : false,
      "external_ids" : {
        "isrc" : "usl4q0843167"
      },
      "external_urls" : {
        "spotify" : "https://open.spotify.com/track/1v0ndQ3uw3TZahSLIkxi7s"
      },
      "href" : "https://api.spotify.com/v1/tracks/1v0ndQ3uw3TZahSLIkxi7s",
      "id" : "1v0ndQ3uw3TZahSLIkxi7s",
      "is_local" : false,
      "is_playable" : true,
      "name" : "Want To Be Like Jesus",
      "popularity" : 0,
      "preview_url" : "https://p.scdn.co/mp3-preview/d77cd6d74bc0ce6f3fda89de4b290141ff3e3e07?cid=774b29d4f13844c495f206cafdad9c86",
      "track_number" : 3,
      "type" : "track",
      "uri" : "spotify:track:1v0ndQ3uw3TZahSLIkxi7s"
    }, {
      "album" : {
        "album_type" : "compilation",
        "artists" : [ {
          "external_urls" : {
            "spotify" : "https://open.spotify.com/artist/3cKweEZlJ3wO1ohRUV4HKe"
          },
          "href" : "https://api.spotify.com/v1/artists/3cKweEZlJ3wO1ohRUV4HKe",
          "id" : "3cKweEZlJ3wO1ohRUV4HKe",
          "name" : "Melvin Couch",
          "type" : "artist",
          "uri" : "spotify:artist:3cKweEZlJ3wO1ohRUV4HKe"
        } ],
        "external_urls" : {
          "spotify" : "https://open.spotify.com/album/6uA4ui19AfTFdCbE8gUeAW"
        },
        "href" : "https://api.spotify.com/v1/albums/6uA4ui19AfTFdCbE8gUeAW",
        "id" : "6uA4ui19AfTFdCbE8gUeAW",
        "images" : [ {
          "height" : 640,
          "url" : "https://i.scdn.co/image/ab67616d0000b273e9bf63c9e3f01aa4844e3836",
          "width" : 640
        }, {
          "height" : 300,
          "url" : "https://i.scdn.co/image/ab67616d00001e02e9bf63c9e3f01aa4844e3836",
          "width" : 300
        }, {
          "height" : 64,
          "url" : "https://i.scdn.co/image/ab67616d00004851e9bf63c9e3f01aa4844e3836",
          "width" : 64
        } ],
        "name" : "What Would the World Be Like Without Jesus",
        "release_date" : "2010-11-19",
        "release_date_precision" : "day",
        "total_tracks" : 9,
        "type" : "album",
        "uri" : "spotify:album:6uA4ui19AfTFdCbE8gUeAW"
      },
      "artists" : [ {
        "external_urls" : {
          "spotify" : "https://open.spotify.com/artist/3cKweEZlJ3wO1ohRUV4HKe"
        },
        "href" : "https://api.spotify.com/v1/artists/3cKweEZlJ3wO1ohRUV4HKe",
        "id" : "3cKweEZlJ3wO1ohRUV4HKe",
        "name" : "Melvin Couch",
        "type" : "artist",
        "uri" : "spotify:artist:3cKweEZlJ3wO1ohRUV4HKe"
      } ],
      "disc_number" : 1,
      "duration_ms" : 365000,
      "explicit" : false,
      "external_ids" : {
        "isrc" : "USM2U0803250"
      },
      "external_urls" : {
        "spotify" : "https://open.spotify.com/track/1XVydubdQLHjzmfSzo2GVB"
      },
      "href" : "https://api.spotify.com/v1/tracks/1XVydubdQLHjzmfSzo2GVB",
      "id" : "1XVydubdQLHjzmfSzo2GVB",
      "is_local" : false,
      "is_playable" : true,
      "name" : "I'm Just a Christian",
      "popularity" : 0,
      "preview_url" : "https://p.scdn.co/mp3-preview/2de607999bb76c5bd1f398a6a3dce19886d77581?cid=774b29d4f13844c495f206cafdad9c86",
      "track_number" : 8,
      "type" : "track",
      "uri" : "spotify:track:1XVydubdQLHjzmfSzo2GVB"
    } ],
    "limit" : 10,
    "next" : "https://api.spotify.com/v1/search?query=I+Would+Be+Like+Jesus&type=track&market=US&offset=15&limit=10",
    "offset" : 5,
    "previous" : "https://api.spotify.com/v1/search?query=I+Would+Be+Like+Jesus&type=track&market=US&offset=0&limit=10",
    "total" : 18
  }
}