{
  "tracks" : {
    "href" : "https://api.spotify.com/v1/search?query=Does+Jesus+Care%3F&type=track&market=US&offset=5&limit=10",
    "items" : [ {
      "album" : {
        "album_type" : "album",
        "artists" : [ {
          "external_urls" : {
            "spotify" : "https://open.spotify.com/artist/4WrPtbSgxMZ5U10DsTCBk8"
          },
          "href" : "https://api.spotify.com/v1/artists/4WrPtbSgxMZ5U10DsTCBk8",
          "id" : "4WrPtbSgxMZ5U10DsTCBk8",
          "name" : "Praise and Harmony",
          "type" : "artist",
          "uri" : "spotify:artist:4WrPtbSgxMZ5U10DsTCBk8"
        } ],
        "external_urls" : {
          "spotify" : "https://open.spotify.com/album/4hBoE9L4nxf5qIcFv2tXZ0"
        },
        "href" : "https://api.spotify.com/v1/albums/4hBoE9L4nxf5qIcFv2tXZ0",
        "id" : "4hBoE9L4nxf5qIcFv2tXZ0",
        "images" : [ {
          "height" : 640,
          "url" : "https://i.scdn.co/image/ab67616d0000b273a71155941a5036e8e46a4241",
          "width" : 640
        }, {
          "height" : 300,
          "url" : "https://i.scdn.co/image/ab67616d00001e02a71155941a5036e8e46a4241",
          "width" : 300
        }, {
          "height" : 64,
          "url" : "https://i.scdn.co/image/ab67616d00004851a71155941a5036e8e46a4241",
          "width" : 64
        } ],
        "name" : "Compassionate God",
        "release_date" : "2020-02-28",
        "release_date_precision" : "day",
        "total_tracks" : 25,
        "type" : "album",
        "uri" : "spotify:album:4hBoE9L4nxf5qIcFv2tXZ0"
      },
      "artists" : [ {
        "external_urls" : {
          "spotify" : "https://open.spotify.com/artist/4WrPtbSgxMZ5U10DsTCBk8"
        },
        "href" : "https://api.spotify.com/v1/artists/4WrPtbSgxMZ5U10DsTCBk8",
        "id" : "4WrPtbSgxMZ5U10DsTCBk8",
        "name" : "Praise and Harmony",
        "type" : "artist",
        "uri" : "spotify:artist:4WrPtbSgxMZ5U10DsTCBk8"
      } ],
      "disc_number" : 1,
      "duration_ms" : 204817,
      "explicit" : false,
      "external_ids" : {
        "isrc" : "QMS4L2000039"
      },
      "external_urls" : {
        "spotify" : "https://open.spotify.com/track/22tvZNtZkd51xmrwOr87C3"
      },
      "href" : "https://api.spotify.com/v1/tracks/22tvZNtZkd51xmrwOr87C3",
      "id" : "22tvZNtZkd51xmrwOr87C3",
      "is_local" : false,
      "is_playable" : true,
      "name" : "Does Jesus Care?",
      "popularity" : 13,
      "preview_url" : "https://p.scdn.co/mp3-preview/2993e451ed47c77899eca264b5d2bb7c82da87ae?cid=774b29d4f13844c495f206cafdad9c86",
      "track_number" : 13,
      "type" : "track",
      "uri" : "spotify:track:22tvZNtZkd51xmrwOr87C3"
    }, {
      "album" : {
        "album_type" : "album",
        "artists" : [ {
          "external_urls" : {
            "spotify" : "https://open.spotify.com/artist/2cw7QQfN0zs6QUUGvhYp56"
          },
          "href" : "https://api.spotify.com/v1/artists/2cw7QQfN0zs6QUUGvhYp56",
          "id" : "2cw7QQfN0zs6QUUGvhYp56",
          "name" : "Galkin Evangelistic Team",
          "type" : "artist",
          "uri" : "spotify:artist:2cw7QQfN0zs6QUUGvhYp56"
        } ],
        "external_urls" : {
          "spotify" : "https://open.spotify.com/album/1UzBXO9JHs3RkjVoe67gIj"
        },
        "href" : "https://api.spotify.com/v1/albums/1UzBXO9JHs3RkjVoe67gIj",
        "id" : "1UzBXO9JHs3RkjVoe67gIj",
        "images" : [ {
          "height" : 640,
          "url" : "https://i.scdn.co/image/ab67616d0000b273441a232a110dbf61ef03dd0f",
          "width" : 640
        }, {
          "height" : 300,
          "url" : "https://i.scdn.co/image/ab67616d00001e02441a232a110dbf61ef03dd0f",
          "width" : 300
        }, {
          "height" : 64,
          "url" : "https://i.scdn.co/image/ab67616d00004851441a232a110dbf61ef03dd0f",
          "width" : 64
        } ],
        "name" : "Consider Him",
        "release_date" : "2010-12-01",
        "release_date_precision" : "day",
        "total_tracks" : 14,
        "type" : "album",
        "uri" : "spotify:album:1UzBXO9JHs3RkjVoe67gIj"
      },
      "artists" : [ {
        "external_urls" : {
          "spotify" : "https://open.spotify.com/artist/2cw7QQfN0zs6QUUGvhYp56"
        },
        "href" : "https://api.spotify.com/v1/artists/2cw7QQfN0zs6QUUGvhYp56",
        "id" : "2cw7QQfN0zs6QUUGvhYp56",
        "name" : "Galkin Evangelistic Team",
        "type" : "artist",
        "uri" : "spotify:artist:2cw7QQfN0zs6QUUGvhYp56"
      } ],
      "disc_number" : 1,
      "duration_ms" : 228693,
      "explicit" : false,
      "external_ids" : {
        "isrc" : "ushm91098617"
      },
      "external_urls" : {
        "spotify" : "https://open.spotify.com/track/7CEK3HrvDC64TbN5ZxnsaU"
      },
      "href" : "https://api.spotify.com/v1/tracks/7CEK3HrvDC64TbN5ZxnsaU",
      "id" : "7CEK3HrvDC64TbN5ZxnsaU",
      "is_local" : false,
      "is_playable" : true,
      "name" : "Does Jesus Care?",
      "popularity" : 10,
      "preview_url" : "https://p.scdn.co/mp3-preview/06100dc443293cb00353f5e099e7455b5b7d96de?cid=774b29d4f13844c495f206cafdad9c86",
      "track_number" : 5,
      "type" : "track",
      "uri" : "spotify:track:7CEK3HrvDC64TbN5ZxnsaU"
    }, {
      "album" : {
        "album_type" : "album",
        "artists" : [ {
          "external_urls" : {
            "spotify" : "https://open.spotify.com/artist/7pIlr6ZsVpOtKv0Kh46GwZ"
          },
          "href" : "https://api.spotify.com/v1/artists/7pIlr6ZsVpOtKv0Kh46GwZ",
          "id" : "7pIlr6ZsVpOtKv0Kh46GwZ",
          "name" : "Greg Howlett",
          "type" : "artist",
          "uri" : "spotify:artist:7pIlr6ZsVpOtKv0Kh46GwZ"
        } ],
        "external_urls" : {
          "spotify" : "https://open.spotify.com/album/1fi84pUuCueY4lzk9WrpBo"
        },
        "href" : "https://api.spotify.com/v1/albums/1fi84pUuCueY4lzk9WrpBo",
        "id" : "1fi84pUuCueY4lzk9WrpBo",
        "images" : [ {
          "height" : 640,
          "url" : "https://i.scdn.co/image/ab67616d0000b273aae195a4399a733585e255ee",
          "width" : 640
        }, {
          "height" : 300,
          "url" : "https://i.scdn.co/image/ab67616d00001e02aae195a4399a733585e255ee",
          "width" : 300
        }, {
          "height" : 64,
          "url" : "https://i.scdn.co/image/ab67616d00004851aae195a4399a733585e255ee",
          "width" : 64
        } ],
        "name" : "Reflections on a Journey",
        "release_date" : "2007-01-01",
        "release_date_precision" : "day",
        "total_tracks" : 10,
        "type" : "album",
        "uri" : "spotify:album:1fi84pUuCueY4lzk9WrpBo"
      },
      "artists" : [ {
        "external_urls" : {
          "spotify" : "https://open.spotify.com/artist/7pIlr6ZsVpOtKv0Kh46GwZ"
        },
        "href" : "https://api.spotify.com/v1/artists/7pIlr6ZsVpOtKv0Kh46GwZ",
        "id" : "7pIlr6ZsVpOtKv0Kh46GwZ",
        "name" : "Greg Howlett",
        "type" : "artist",
        "uri" : "spotify:artist:7pIlr6ZsVpOtKv0Kh46GwZ"
      } ],
      "disc_number" : 1,
      "duration_ms" : 287720,
      "explicit" : false,
      "external_ids" : {
        "isrc" : "uscgj0709571"
      },
      "external_urls" : {
        "spotify" : "https://open.spotify.com/track/2BfqiBbufiOWkBEg8ESNCm"
      },
      "href" : "https://api.spotify.com/v1/tracks/2BfqiBbufiOWkBEg8ESNCm",
      "id" : "2BfqiBbufiOWkBEg8ESNCm",
      "is_local" : false,
      "is_playable" : true,
      "name" : "Does Jesus Care?",
      "popularity" : 11,
      "preview_url" : "https://p.scdn.co/mp3-preview/f5e19e33649c60a81008751e72814bdc7509ec7f?cid=774b29d4f13844c495f206cafdad9c86",
      "track_number" : 6,
      "type" : "track",
      "uri" : "spotify:track:2BfqiBbufiOWkBEg8ESNCm"
    }, {
      "album" : {
        "album_type" : "album",
        "artists" : [ {
          "external_urls" : {
            "spotify" : "https://open.spotify.com/artist/7Gr7Uulfyw9J9F74eQfBOp"
          },
          "href" : "https://api.spotify.com/v1/artists/7Gr7Uulfyw9J9F74eQfBOp",
          "id" : "7Gr7Uulfyw9J9F74eQfBOp",
          "name" : "The Isaacs",
          "type" : "artist",
          "uri" : "spotify:artist:7Gr7Uulfyw9J9F74eQfBOp"
        } ],
        "external_urls" : {
          "spotify" : "https://open.spotify.com/album/6dbNXXHoCVhUaY2kuPt4ur"
        },
        "href" : "https://api.spotify.com/v1/albums/6dbNXXHoCVhUaY2kuPt4ur",
        "id" : "6dbNXXHoCVhUaY2kuPt4ur",
        "images" : [ {
          "height" : 640,
          "url" : "https://i.scdn.co/image/ab67616d0000b273c1d066685e8cbd19eaea09b3",
          "width" : 640
        }, {
          "height" : 300,
          "url" : "https://i.scdn.co/image/ab67616d00001e02c1d066685e8cbd19eaea09b3",
          "width" : 300
        }, {
          "height" : 64,
          "url" : "https://i.scdn.co/image/ab67616d00004851c1d066685e8cbd19eaea09b3",
          "width" : 64
        } ],
        "name" : "The Isaacs Naturally: An Almost A Cappella Collection",
        "release_date" : "2009-01-01",
        "release_date_precision" : "day",
        "total_tracks" : 16,
        "type" : "album",
        "uri" : "spotify:album:6dbNXXHoCVhUaY2kuPt4ur"
      },
      "artists" : [ {
        "external_urls" : {
          "spotify" : "https://open.spotify.com/artist/7Gr7Uulfyw9J9F74eQfBOp"
        },
        "href" : "https://api.spotify.com/v1/artists/7Gr7Uulfyw9J9F74eQfBOp",
        "id" : "7Gr7Uulfyw9J9F74eQfBOp",
        "name" : "The Isaacs",
        "type" : "artist",
        "uri" : "spotify:artist:7Gr7Uulfyw9J9F74eQfBOp"
      } ],
      "disc_number" : 1,
      "duration_ms" : 197626,
      "explicit" : false,
      "external_ids" : {
        "isrc" : "US3270900034"
      },
      "external_urls" : {
        "spotify" : "https://open.spotify.com/track/0tzLl0O04F2X0hCNrr4qPO"
      },
      "href" : "https://api.spotify.com/v1/tracks/0tzLl0O04F2X0hCNrr4qPO",
      "id" : "0tzLl0O04F2X0hCNrr4qPO",
      "is_local" : false,
      "is_playable" : true,
      "name" : "Does Jesus Care",
      "popularity" : 9,
      "preview_url" : null,
      "track_number" : 10,
      "type" : "track",
      "uri" : "spotify:track:0tzLl0O04F2X0hCNrr4qPO"
    }, {
      "album" : {
        "album_type" : "album",
        "artists" : [ {
          "external_urls" : {
            "spotify" : "https://open.spotify.com/artist/3UuY3RrWbM3JWy0FZh6EKg"
          },
          "href" : "https://api.spotify.com/v1/artists/3UuY3RrWbM3JWy0FZh6EKg",
          "id" : "3UuY3RrWbM3JWy0FZh6EKg",
          "name" : "The Haven Quartet",
          "type" : "artist",
          "uri" : "spotify:artist:3UuY3RrWbM3JWy0FZh6EKg"
        } ],
        "external_urls" : {
          "spotify" : "https://open.spotify.com/album/6ZAAGn5a8SoXwipAl7bvaJ"
        },
        "href" : "https://api.spotify.com/v1/albums/6ZAAGn5a8SoXwipAl7bvaJ",
        "id" : "6ZAAGn5a8SoXwipAl7bvaJ",
        "images" : [ {
          "height" : 640,
          "url" : "https://i.scdn.co/image/ab67616d0000b2733d0fe05659533eb87c581190",
          "width" : 640
        }, {
          "height" : 300,
          "url" : "https://i.scdn.co/image/ab67616d00001e023d0fe05659533eb87c581190",
          "width" : 300
        }, {
          "height" : 64,
          "url" : "https://i.scdn.co/image/ab67616d000048513d0fe05659533eb87c581190",
          "width" : 64
        } ],
        "name" : "Heritage of Hymns",
        "release_date" : "1999",
        "release_date_precision" : "year",
        "total_tracks" : 17,
        "type" : "album",
        "uri" : "spotify:album:6ZAAGn5a8SoXwipAl7bvaJ"
      },
      "artists" : [ {
        "external_urls" : {
          "spotify" : "https://open.spotify.com/artist/3UuY3RrWbM3JWy0FZh6EKg"
        },
        "href" : "https://api.spotify.com/v1/artists/3UuY3RrWbM3JWy0FZh6EKg",
        "id" : "3UuY3RrWbM3JWy0FZh6EKg",
        "name" : "The Haven Quartet",
        "type" : "artist",
        "uri" : "spotify:artist:3UuY3RrWbM3JWy0FZh6EKg"
      } ],
      "disc_number" : 1,
      "duration_ms" : 172133,
      "explicit" : false,
      "external_ids" : {
        "isrc" : "ushm81015056"
      },
      "external_urls" : {
        "spotify" : "https://open.spotify.com/track/5h0ujAubhLfiCj3QDis7Sp"
      },
      "href" : "https://api.spotify.com/v1/tracks/5h0ujAubhLfiCj3QDis7Sp",
      "id" : "5h0ujAubhLfiCj3QDis7Sp",
      "is_local" : false,
      "is_playable" : true,
      "name" : "Does Jesus Care?",
      "popularity" : 11,
      "preview_url" : "https://p.scdn.co/mp3-preview/28fc43e228a5b7214eb350f8fa6f53e56a513cc4?cid=774b29d4f13844c495f206cafdad9c86",
      "track_number" : 8,
      "type" : "track",
      "uri" : "spotify:track:5h0ujAubhLfiCj3QDis7Sp"
    }, {
      "album" : {
        "album_type" : "album",
        "artists" : [ {
          "external_urls" : {
            "spotify" : "https://open.spotify.com/artist/6A65FMdqhuQfIRtGk3SPm8"
          },
          "href" : "https://api.spotify.com/v1/artists/6A65FMdqhuQfIRtGk3SPm8",
          "id" : "6A65FMdqhuQfIRtGk3SPm8",
          "name" : "Matt Carlson",
          "type" : "artist",
          "uri" : "spotify:artist:6A65FMdqhuQfIRtGk3SPm8"
        } ],
        "external_urls" : {
          "spotify" : "https://open.spotify.com/album/5EsOVTdT4Tj9k1Vrlrfi6T"
        },
        "href" : "https://api.spotify.com/v1/albums/5EsOVTdT4Tj9k1Vrlrfi6T",
        "id" : "5EsOVTdT4Tj9k1Vrlrfi6T",
        "images" : [ {
          "height" : 640,
          "url" : "https://i.scdn.co/image/ab67616d0000b273d7f8a2d15a3afa11d67c5683",
          "width" : 640
        }, {
          "height" : 300,
          "url" : "https://i.scdn.co/image/ab67616d00001e02d7f8a2d15a3afa11d67c5683",
          "width" : 300
        }, {
          "height" : 64,
          "url" : "https://i.scdn.co/image/ab67616d00004851d7f8a2d15a3afa11d67c5683",
          "width" : 64
        } ],
        "name" : "Heartfelt Hymns, Vol. 3",
        "release_date" : "2018-06-28",
        "release_date_precision" : "day",
        "total_tracks" : 15,
        "type" : "album",
        "uri" : "spotify:album:5EsOVTdT4Tj9k1Vrlrfi6T"
      },
      "artists" : [ {
        "external_urls" : {
          "spotify" : "https://open.spotify.com/artist/6A65FMdqhuQfIRtGk3SPm8"
        },
        "href" : "https://api.spotify.com/v1/artists/6A65FMdqhuQfIRtGk3SPm8",
        "id" : "6A65FMdqhuQfIRtGk3SPm8",
        "name" : "Matt Carlson",
        "type" : "artist",
        "uri" : "spotify:artist:6A65FMdqhuQfIRtGk3SPm8"
      } ],
      "disc_number" : 1,
      "duration_ms" : 165000,
      "explicit" : false,
      "external_ids" : {
        "isrc" : "TCADS1818730"
      },
      "external_urls" : {
        "spotify" : "https://open.spotify.com/track/6GMtnoeWV6B31CaPqQlk5v"
      },
      "href" : "https://api.spotify.com/v1/tracks/6GMtnoeWV6B31CaPqQlk5v",
      "id" : "6GMtnoeWV6B31CaPqQlk5v",
      "is_local" : false,
      "is_playable" : true,
      "name" : "Does Jesus Care (Instrumental Version)",
      "popularity" : 15,
      "preview_url" : "https://p.scdn.co/mp3-preview/4e4ff081d10965032d32c24a49450f521ad64055?cid=774b29d4f13844c495f206cafdad9c86",
      "track_number" : 10,
      "type" : "track",
      "uri" : "spotify:track:6GMtnoeWV6B31CaPqQlk5v"
    }, {
      "album" : {
        "album_type" : "album",
        "artists" : [ {
          "external_urls" : {
            "spotify" : "https://open.spotify.com/artist/11sAWrpIkFUPQlXoQqpeBV"
          },
          "href" : "https://api.spotify.com/v1/artists/11sAWrpIkFUPQlXoQqpeBV",
          "id" : "11sAWrpIkFUPQlXoQqpeBV",
          "name" : "Bill & Gloria Gaither",
          "type" : "artist",
          "uri" : "spotify:artist:11sAWrpIkFUPQlXoQqpeBV"
        } ],
        "external_urls" : {
          "spotify" : "https://open.spotify.com/album/0Mq1e0mDXEZhbUVS001MWl"
        },
        "href" : "https://api.spotify.com/v1/albums/0Mq1e0mDXEZhbUVS001MWl",
        "id" : "0Mq1e0mDXEZhbUVS001MWl",
        "images" : [ {
          "height" : 640,
          "url" : "https://i.scdn.co/image/ab67616d0000b273f04c7a190952aa9bc65155ca",
          "width" : 640
        }, {
          "height" : 300,
          "url" : "https://i.scdn.co/image/ab67616d00001e02f04c7a190952aa9bc65155ca",
          "width" : 300
        }, {
          "height" : 64,
          "url" : "https://i.scdn.co/image/ab67616d00004851f04c7a190952aa9bc65155ca",
          "width" : 64
        } ],
        "name" : "Homecoming Hymns",
        "release_date" : "2005-01-01",
        "release_date_precision" : "day",
        "total_tracks" : 19,
        "type" : "album",
        "uri" : "spotify:album:0Mq1e0mDXEZhbUVS001MWl"
      },
      "artists" : [ {
        "external_urls" : {
          "spotify" : "https://open.spotify.com/artist/30RlL4fdGuFhcBqqNUIPVe"
        },
        "href" : "https://api.spotify.com/v1/artists/30RlL4fdGuFhcBqqNUIPVe",
        "id" : "30RlL4fdGuFhcBqqNUIPVe",
        "name" : "Ivan Parker",
        "type" : "artist",
        "uri" : "spotify:artist:30RlL4fdGuFhcBqqNUIPVe"
      } ],
      "disc_number" : 1,
      "duration_ms" : 195013,
      "explicit" : false,
      "external_ids" : {
        "isrc" : "US3270402809"
      },
      "external_urls" : {
        "spotify" : "https://open.spotify.com/track/4wDbapCuaTLk5BUS5W77Dn"
      },
      "href" : "https://api.spotify.com/v1/tracks/4wDbapCuaTLk5BUS5W77Dn",
      "id" : "4wDbapCuaTLk5BUS5W77Dn",
      "is_local" : false,
      "is_playable" : true,
      "name" : "Does Jesus Care?",
      "popularity" : 8,
      "preview_url" : null,
      "track_number" : 16,
      "type" : "track",
      "uri" : "spotify:track:4wDbapCuaTLk5BUS5W77Dn"
    }, {
      "album" : {
        "album_type" : "album",
        "artists" : [ {
          "external_urls" : {
            "spotify" : "https://open.spotify.com/artist/36H3yV7O8YbQX0GQarIJGd"
          },
          "href" : "https://api.spotify.com/v1/artists/36H3yV7O8YbQX0GQarIJGd",
          "id" : "36H3yV7O8YbQX0GQarIJGd",
          "name" : "Bill Gaither Trio",
          "type" : "artist",
          "uri" : "spotify:artist:36H3yV7O8YbQX0GQarIJGd"
        } ],
        "external_urls" : {
          "spotify" : "https://open.spotify.com/album/4iTP8GHcr2eh9FqBzM3b5R"
        },
        "href" : "https://api.spotify.com/v1/albums/4iTP8GHcr2eh9FqBzM3b5R",
        "id" : "4iTP8GHcr2eh9FqBzM3b5R",
        "images" : [ {
          "height" : 640,
          "url" : "https://i.scdn.co/image/ab67616d0000b2730b199853b0a60f90b095ee28",
          "width" : 640
        }, {
          "height" : 300,
          "url" : "https://i.scdn.co/image/ab67616d00001e020b199853b0a60f90b095ee28",
          "width" : 300
        }, {
          "height" : 64,
          "url" : "https://i.scdn.co/image/ab67616d000048510b199853b0a60f90b095ee28",
          "width" : 64
        } ],
        "name" : "Hymn Classics",
        "release_date" : "1990-10-24",
        "release_date_precision" : "day",
        "total_tracks" : 13,
        "type" : "album",
        "uri" : "spotify:album:4iTP8GHcr2eh9FqBzM3b5R"
      },
      "artists" : [ {
        "external_urls" : {
          "spotify" : "https://open.spotify.com/artist/36H3yV7O8YbQX0GQarIJGd"
        },
        "href" : "https://api.spotify.com/v1/artists/36H3yV7O8YbQX0GQarIJGd",
        "id" : "36H3yV7O8YbQX0GQarIJGd",
        "name" : "Bill Gaither Trio",
        "type" : "artist",
        "uri" : "spotify:artist:36H3yV7O8YbQX0GQarIJGd"
      } ],
      "disc_number" : 1,
      "duration_ms" : 226893,
      "explicit" : false,
      "external_ids" : {
        "isrc" : "USWR60252237"
      },
      "external_urls" : {
        "spotify" : "https://open.spotify.com/track/3MavWcFwhCxTf5tNHOXIE2"
      },
      "href" : "https://api.spotify.com/v1/tracks/3MavWcFwhCxTf5tNHOXIE2",
      "id" : "3MavWcFwhCxTf5tNHOXIE2",
      "is_local" : false,
      "is_playable" : true,
      "name" : "Does Jesus Care",
      "popularity" : 8,
      "preview_url" : "https://p.scdn.co/mp3-preview/823b23a3b75ca77e26eed87840e4794a8c049bb2?cid=774b29d4f13844c495f206cafdad9c86",
      "track_number" : 11,
      "type" : "track",
      "uri" : "spotify:track:3MavWcFwhCxTf5tNHOXIE2"
    }, {
      "album" : {
        "album_type" : "album",
        "artists" : [ {
          "external_urls" : {
            "spotify" : "https://open.spotify.com/artist/7Gr7Uulfyw9J9F74eQfBOp"
          },
          "href" : "https://api.spotify.com/v1/artists/7Gr7Uulfyw9J9F74eQfBOp",
          "id" : "7Gr7Uulfyw9J9F74eQfBOp",
          "name" : "The Isaacs",
          "type" : "artist",
          "uri" : "spotify:artist:7Gr7Uulfyw9J9F74eQfBOp"
        } ],
        "external_urls" : {
          "spotify" : "https://open.spotify.com/album/66NyGkDV31axATpDmqV7ZC"
        },
        "href" : "https://api.spotify.com/v1/albums/66NyGkDV31axATpDmqV7ZC",
        "id" : "66NyGkDV31axATpDmqV7ZC",
        "images" : [ {
          "height" : 640,
          "url" : "https://i.scdn.co/image/ab67616d0000b2732b0dd5fddbf0dd88a4a397e9",
          "width" : 640
        }, {
          "height" : 300,
          "url" : "https://i.scdn.co/image/ab67616d00001e022b0dd5fddbf0dd88a4a397e9",
          "width" : 300
        }, {
          "height" : 64,
          "url" : "https://i.scdn.co/image/ab67616d000048512b0dd5fddbf0dd88a4a397e9",
          "width" : 64
        } ],
        "name" : "The Ultimate Playlist",
        "release_date" : "2018-07-13",
        "release_date_precision" : "day",
        "total_tracks" : 34,
        "type" : "album",
        "uri" : "spotify:album:66NyGkDV31axATpDmqV7ZC"
      },
      "artists" : [ {
        "external_urls" : {
          "spotify" : "https://open.spotify.com/artist/7Gr7Uulfyw9J9F74eQfBOp"
        },
        "href" : "https://api.spotify.com/v1/artists/7Gr7Uulfyw9J9F74eQfBOp",
        "id" : "7Gr7Uulfyw9J9F74eQfBOp",
        "name" : "The Isaacs",
        "type" : "artist",
        "uri" : "spotify:artist:7Gr7Uulfyw9J9F74eQfBOp"
      } ],
      "disc_number" : 1,
      "duration_ms" : 197626,
      "explicit" : false,
      "external_ids" : {
        "isrc" : "US3270900034"
      },
      "external_urls" : {
        "spotify" : "https://open.spotify.com/track/17bb69huHlxMHuL1FZR77W"
      },
      "href" : "https://api.spotify.com/v1/tracks/17bb69huHlxMHuL1FZR77W",
      "id" : "17bb69huHlxMHuL1FZR77W",
      "is_local" : false,
      "is_playable" : true,
      "name" : "Does Jesus Care",
      "popularity" : 8,
      "preview_url" : null,
      "track_number" : 26,
      "type" : "track",
      "uri" : "spotify:track:17bb69huHlxMHuL1FZR77W"
    }, {
      "album" : {
        "album_type" : "album",
        "artists" : [ {
          "external_urls" : {
            "spotify" : "https://open.spotify.com/artist/6zCKr405jB5b6QI1IfFnf2"
          },
          "href" : "https://api.spotify.com/v1/artists/6zCKr405jB5b6QI1IfFnf2",
          "id" : "6zCKr405jB5b6QI1IfFnf2",
          "name" : "Dallas Christian Adult Concert Choir",
          "type" : "artist",
          "uri" : "spotify:artist:6zCKr405jB5b6QI1IfFnf2"
        } ],
        "external_urls" : {
          "spotify" : "https://open.spotify.com/album/0ijYZrUbRJRYqubBnlxuzc"
        },
        "href" : "https://api.spotify.com/v1/albums/0ijYZrUbRJRYqubBnlxuzc",
        "id" : "0ijYZrUbRJRYqubBnlxuzc",
        "images" : [ {
          "height" : 640,
          "url" : "https://i.scdn.co/image/ab67616d0000b273fafd165479322c008df2e860",
          "width" : 640
        }, {
          "height" : 300,
          "url" : "https://i.scdn.co/image/ab67616d00001e02fafd165479322c008df2e860",
          "width" : 300
        }, {
          "height" : 64,
          "url" : "https://i.scdn.co/image/ab67616d00004851fafd165479322c008df2e860",
          "width" : 64
        } ],
        "name" : "Does Jesus Care?",
        "release_date" : "2008-03-25",
        "release_date_precision" : "day",
        "total_tracks" : 21,
        "type" : "album",
        "uri" : "spotify:album:0ijYZrUbRJRYqubBnlxuzc"
      },
      "artists" : [ {
        "external_urls" : {
          "spotify" : "https://open.spotify.com/artist/6zCKr405jB5b6QI1IfFnf2"
        },
        "href" : "https://api.spotify.com/v1/artists/6zCKr405jB5b6QI1IfFnf2",
        "id" : "6zCKr405jB5b6QI1IfFnf2",
        "name" : "Dallas Christian Adult Concert Choir",
        "type" : "artist",
        "uri" : "spotify:artist:6zCKr405jB5b6QI1IfFnf2"
      } ],
      "disc_number" : 1,
      "duration_ms" : 170893,
      "explicit" : false,
      "external_ids" : {
        "isrc" : "USMZA0810509"
      },
      "external_urls" : {
        "spotify" : "https://open.spotify.com/track/7kOJxs0NlexQ7afLlOKnmU"
      },
      "href" : "https://api.spotify.com/v1/tracks/7kOJxs0NlexQ7afLlOKnmU",
      "id" : "7kOJxs0NlexQ7afLlOKnmU",
      "is_local" : false,
      "is_playable" : true,
      "name" : "Count Your Many Blessings",
      "popularity" : 12,
      "preview_url" : "https://p.scdn.co/mp3-preview/3afbbd14cf7a6c577e2b22bdd6dca1f4e0b45170?cid=774b29d4f13844c495f206cafdad9c86",
      "track_number" : 10,
      "type" : "track",
      "uri" : "spotify:track:7kOJxs0NlexQ7afLlOKnmU"
    } ],
    "limit" : 10,
    "next" : "https://api.spotify.com/v1/search?query=Does+Jesus+Care%3F&type=track&market=US&offset=15&limit=10",
    "offset" : 5,
    "previous" : "https://api.spotify.com/v1/search?query=Does+Jesus+Care%3F&type=track&market=US&offset=0&limit=10",
    "total" : 196
  }
}