{
  "tracks" : {
    "href" : "https://api.spotify.com/v1/search?query=Praise+to+the+Lord&type=track&market=US&offset=5&limit=10",
    "items" : [ {
      "album" : {
        "album_type" : "album",
        "artists" : [ {
          "external_urls" : {
            "spotify" : "https://open.spotify.com/artist/6piIAIurGAryW5h1rqQC16"
          },
          "href" : "https://api.spotify.com/v1/artists/6piIAIurGAryW5h1rqQC16",
          "id" : "6piIAIurGAryW5h1rqQC16",
          "name" : "Passion",
          "type" : "artist",
          "uri" : "spotify:artist:6piIAIurGAryW5h1rqQC16"
        } ],
        "external_urls" : {
          "spotify" : "https://open.spotify.com/album/1ABQb99YyGRAKq0z3VXgoA"
        },
        "href" : "https://api.spotify.com/v1/albums/1ABQb99YyGRAKq0z3VXgoA",
        "id" : "1ABQb99YyGRAKq0z3VXgoA",
        "images" : [ {
          "height" : 640,
          "url" : "https://i.scdn.co/image/ab67616d0000b273323b10bd13942bd4a44d2bcf",
          "width" : 640
        }, {
          "height" : 300,
          "url" : "https://i.scdn.co/image/ab67616d00001e02323b10bd13942bd4a44d2bcf",
          "width" : 300
        }, {
          "height" : 64,
          "url" : "https://i.scdn.co/image/ab67616d00004851323b10bd13942bd4a44d2bcf",
          "width" : 64
        } ],
        "name" : "Hymns Ancient And Modern (Live)",
        "release_date" : "2004-01-01",
        "release_date_precision" : "day",
        "total_tracks" : 14,
        "type" : "album",
        "uri" : "spotify:album:1ABQb99YyGRAKq0z3VXgoA"
      },
      "artists" : [ {
        "external_urls" : {
          "spotify" : "https://open.spotify.com/artist/6piIAIurGAryW5h1rqQC16"
        },
        "href" : "https://api.spotify.com/v1/artists/6piIAIurGAryW5h1rqQC16",
        "id" : "6piIAIurGAryW5h1rqQC16",
        "name" : "Passion",
        "type" : "artist",
        "uri" : "spotify:artist:6piIAIurGAryW5h1rqQC16"
      }, {
        "external_urls" : {
          "spotify" : "https://open.spotify.com/artist/0XFBXku1ro7p7bjFQk98o6"
        },
        "href" : "https://api.spotify.com/v1/artists/0XFBXku1ro7p7bjFQk98o6",
        "id" : "0XFBXku1ro7p7bjFQk98o6",
        "name" : "Christy Nockels",
        "type" : "artist",
        "uri" : "spotify:artist:0XFBXku1ro7p7bjFQk98o6"
      } ],
      "disc_number" : 1,
      "duration_ms" : 296200,
      "explicit" : false,
      "external_ids" : {
        "isrc" : "USSP30321655"
      },
      "external_urls" : {
        "spotify" : "https://open.spotify.com/track/1r39VdjHwAdypuXZFZPaIX"
      },
      "href" : "https://api.spotify.com/v1/tracks/1r39VdjHwAdypuXZFZPaIX",
      "id" : "1r39VdjHwAdypuXZFZPaIX",
      "is_local" : false,
      "is_playable" : true,
      "name" : "Praise To The Lord, The Almighty - Live",
      "popularity" : 31,
      "preview_url" : null,
      "track_number" : 4,
      "type" : "track",
      "uri" : "spotify:track:1r39VdjHwAdypuXZFZPaIX"
    }, {
      "album" : {
        "album_type" : "album",
        "artists" : [ {
          "external_urls" : {
            "spotify" : "https://open.spotify.com/artist/07B2BABpfqCrLdI3WIUAtU"
          },
          "href" : "https://api.spotify.com/v1/artists/07B2BABpfqCrLdI3WIUAtU",
          "id" : "07B2BABpfqCrLdI3WIUAtU",
          "name" : "Chris Springer",
          "type" : "artist",
          "uri" : "spotify:artist:07B2BABpfqCrLdI3WIUAtU"
        } ],
        "external_urls" : {
          "spotify" : "https://open.spotify.com/album/6EwQzlIHGd94ldm1STE5OD"
        },
        "href" : "https://api.spotify.com/v1/albums/6EwQzlIHGd94ldm1STE5OD",
        "id" : "6EwQzlIHGd94ldm1STE5OD",
        "images" : [ {
          "height" : 640,
          "url" : "https://i.scdn.co/image/ab67616d0000b273f58b7d802866c568398bd54b",
          "width" : 640
        }, {
          "height" : 300,
          "url" : "https://i.scdn.co/image/ab67616d00001e02f58b7d802866c568398bd54b",
          "width" : 300
        }, {
          "height" : 64,
          "url" : "https://i.scdn.co/image/ab67616d00004851f58b7d802866c568398bd54b",
          "width" : 64
        } ],
        "name" : "Piano Hymns & Worship",
        "release_date" : "2012-03-06",
        "release_date_precision" : "day",
        "total_tracks" : 13,
        "type" : "album",
        "uri" : "spotify:album:6EwQzlIHGd94ldm1STE5OD"
      },
      "artists" : [ {
        "external_urls" : {
          "spotify" : "https://open.spotify.com/artist/07B2BABpfqCrLdI3WIUAtU"
        },
        "href" : "https://api.spotify.com/v1/artists/07B2BABpfqCrLdI3WIUAtU",
        "id" : "07B2BABpfqCrLdI3WIUAtU",
        "name" : "Chris Springer",
        "type" : "artist",
        "uri" : "spotify:artist:07B2BABpfqCrLdI3WIUAtU"
      } ],
      "disc_number" : 1,
      "duration_ms" : 211377,
      "explicit" : false,
      "external_ids" : {
        "isrc" : "USQY51250822"
      },
      "external_urls" : {
        "spotify" : "https://open.spotify.com/track/7KQk8YFSQFzDkNDuv2Ka4F"
      },
      "href" : "https://api.spotify.com/v1/tracks/7KQk8YFSQFzDkNDuv2Ka4F",
      "id" : "7KQk8YFSQFzDkNDuv2Ka4F",
      "is_local" : false,
      "is_playable" : true,
      "name" : "Praise to the Lord, The Almighty",
      "popularity" : 32,
      "preview_url" : "https://p.scdn.co/mp3-preview/97edd023a2a385feea1a230ef0def327df02cb72?cid=774b29d4f13844c495f206cafdad9c86",
      "track_number" : 4,
      "type" : "track",
      "uri" : "spotify:track:7KQk8YFSQFzDkNDuv2Ka4F"
    }, {
      "album" : {
        "album_type" : "album",
        "artists" : [ {
          "external_urls" : {
            "spotify" : "https://open.spotify.com/artist/32DWM2tctxuDatAYWHjCtC"
          },
          "href" : "https://api.spotify.com/v1/artists/32DWM2tctxuDatAYWHjCtC",
          "id" : "32DWM2tctxuDatAYWHjCtC",
          "name" : "Hymns on Piano",
          "type" : "artist",
          "uri" : "spotify:artist:32DWM2tctxuDatAYWHjCtC"
        } ],
        "external_urls" : {
          "spotify" : "https://open.spotify.com/album/6dXrvNudBlYNwLurcV47WZ"
        },
        "href" : "https://api.spotify.com/v1/albums/6dXrvNudBlYNwLurcV47WZ",
        "id" : "6dXrvNudBlYNwLurcV47WZ",
        "images" : [ {
          "height" : 640,
          "url" : "https://i.scdn.co/image/ab67616d0000b2733e27d563a49a2564bed32a12",
          "width" : 640
        }, {
          "height" : 300,
          "url" : "https://i.scdn.co/image/ab67616d00001e023e27d563a49a2564bed32a12",
          "width" : 300
        }, {
          "height" : 64,
          "url" : "https://i.scdn.co/image/ab67616d000048513e27d563a49a2564bed32a12",
          "width" : 64
        } ],
        "name" : "Hymns of Thanksgiving - Volume 1",
        "release_date" : "2015-11-13",
        "release_date_precision" : "day",
        "total_tracks" : 15,
        "type" : "album",
        "uri" : "spotify:album:6dXrvNudBlYNwLurcV47WZ"
      },
      "artists" : [ {
        "external_urls" : {
          "spotify" : "https://open.spotify.com/artist/32DWM2tctxuDatAYWHjCtC"
        },
        "href" : "https://api.spotify.com/v1/artists/32DWM2tctxuDatAYWHjCtC",
        "id" : "32DWM2tctxuDatAYWHjCtC",
        "name" : "Hymns on Piano",
        "type" : "artist",
        "uri" : "spotify:artist:32DWM2tctxuDatAYWHjCtC"
      } ],
      "disc_number" : 1,
      "duration_ms" : 155009,
      "explicit" : false,
      "external_ids" : {
        "isrc" : "USE831519248"
      },
      "external_urls" : {
        "spotify" : "https://open.spotify.com/track/2NtmW4ZauOHzr5KDg6YZjr"
      },
      "href" : "https://api.spotify.com/v1/tracks/2NtmW4ZauOHzr5KDg6YZjr",
      "id" : "2NtmW4ZauOHzr5KDg6YZjr",
      "is_local" : false,
      "is_playable" : true,
      "name" : "Praise to the Lord, the Almighty (Lobe den Herren, den Mächtigen König der Ehren)",
      "popularity" : 32,
      "preview_url" : "https://p.scdn.co/mp3-preview/c202b14bcdf323f2ebfe58d0ec973e1b32947d91?cid=774b29d4f13844c495f206cafdad9c86",
      "track_number" : 2,
      "type" : "track",
      "uri" : "spotify:track:2NtmW4ZauOHzr5KDg6YZjr"
    }, {
      "album" : {
        "album_type" : "album",
        "artists" : [ {
          "external_urls" : {
            "spotify" : "https://open.spotify.com/artist/2JGLjTHV2t8u8wxmLaiFfe"
          },
          "href" : "https://api.spotify.com/v1/artists/2JGLjTHV2t8u8wxmLaiFfe",
          "id" : "2JGLjTHV2t8u8wxmLaiFfe",
          "name" : "Don Moen",
          "type" : "artist",
          "uri" : "spotify:artist:2JGLjTHV2t8u8wxmLaiFfe"
        } ],
        "external_urls" : {
          "spotify" : "https://open.spotify.com/album/6kdLHl9dVDcqzMF5Z5SIVK"
        },
        "href" : "https://api.spotify.com/v1/albums/6kdLHl9dVDcqzMF5Z5SIVK",
        "id" : "6kdLHl9dVDcqzMF5Z5SIVK",
        "images" : [ {
          "height" : 640,
          "url" : "https://i.scdn.co/image/ab67616d0000b2734b1cb5b6fdb7362a13c61820",
          "width" : 640
        }, {
          "height" : 300,
          "url" : "https://i.scdn.co/image/ab67616d00001e024b1cb5b6fdb7362a13c61820",
          "width" : 300
        }, {
          "height" : 64,
          "url" : "https://i.scdn.co/image/ab67616d000048514b1cb5b6fdb7362a13c61820",
          "width" : 64
        } ],
        "name" : "Hymns of Hope",
        "release_date" : "2014-05-01",
        "release_date_precision" : "day",
        "total_tracks" : 12,
        "type" : "album",
        "uri" : "spotify:album:6kdLHl9dVDcqzMF5Z5SIVK"
      },
      "artists" : [ {
        "external_urls" : {
          "spotify" : "https://open.spotify.com/artist/2JGLjTHV2t8u8wxmLaiFfe"
        },
        "href" : "https://api.spotify.com/v1/artists/2JGLjTHV2t8u8wxmLaiFfe",
        "id" : "2JGLjTHV2t8u8wxmLaiFfe",
        "name" : "Don Moen",
        "type" : "artist",
        "uri" : "spotify:artist:2JGLjTHV2t8u8wxmLaiFfe"
      } ],
      "disc_number" : 1,
      "duration_ms" : 143986,
      "explicit" : false,
      "external_ids" : {
        "isrc" : "QMU9S1300001"
      },
      "external_urls" : {
        "spotify" : "https://open.spotify.com/track/4YUE3cy1wcMtBNcuK9cDXI"
      },
      "href" : "https://api.spotify.com/v1/tracks/4YUE3cy1wcMtBNcuK9cDXI",
      "id" : "4YUE3cy1wcMtBNcuK9cDXI",
      "is_local" : false,
      "is_playable" : true,
      "name" : "Praise to the Lord, the Almighty",
      "popularity" : 43,
      "preview_url" : "https://p.scdn.co/mp3-preview/efec7a41713e5b99a106547e9a5a95912d3447ee?cid=774b29d4f13844c495f206cafdad9c86",
      "track_number" : 1,
      "type" : "track",
      "uri" : "spotify:track:4YUE3cy1wcMtBNcuK9cDXI"
    }, {
      "album" : {
        "album_type" : "album",
        "artists" : [ {
          "external_urls" : {
            "spotify" : "https://open.spotify.com/artist/5TB43hYVZMxI193JCzyQJb"
          },
          "href" : "https://api.spotify.com/v1/artists/5TB43hYVZMxI193JCzyQJb",
          "id" : "5TB43hYVZMxI193JCzyQJb",
          "name" : "Page CXVI",
          "type" : "artist",
          "uri" : "spotify:artist:5TB43hYVZMxI193JCzyQJb"
        } ],
        "external_urls" : {
          "spotify" : "https://open.spotify.com/album/1XAwj4FtK8ipTXKmhA0AEg"
        },
        "href" : "https://api.spotify.com/v1/albums/1XAwj4FtK8ipTXKmhA0AEg",
        "id" : "1XAwj4FtK8ipTXKmhA0AEg",
        "images" : [ {
          "height" : 640,
          "url" : "https://i.scdn.co/image/ab67616d0000b273161f15f966c936be8581ed80",
          "width" : 640
        }, {
          "height" : 300,
          "url" : "https://i.scdn.co/image/ab67616d00001e02161f15f966c936be8581ed80",
          "width" : 300
        }, {
          "height" : 64,
          "url" : "https://i.scdn.co/image/ab67616d00004851161f15f966c936be8581ed80",
          "width" : 64
        } ],
        "name" : "Hymns Sampler",
        "release_date" : "2012-01-24",
        "release_date_precision" : "day",
        "total_tracks" : 8,
        "type" : "album",
        "uri" : "spotify:album:1XAwj4FtK8ipTXKmhA0AEg"
      },
      "artists" : [ {
        "external_urls" : {
          "spotify" : "https://open.spotify.com/artist/5TB43hYVZMxI193JCzyQJb"
        },
        "href" : "https://api.spotify.com/v1/artists/5TB43hYVZMxI193JCzyQJb",
        "id" : "5TB43hYVZMxI193JCzyQJb",
        "name" : "Page CXVI",
        "type" : "artist",
        "uri" : "spotify:artist:5TB43hYVZMxI193JCzyQJb"
      } ],
      "disc_number" : 1,
      "duration_ms" : 265333,
      "explicit" : false,
      "external_ids" : {
        "isrc" : "US9YS1100010"
      },
      "external_urls" : {
        "spotify" : "https://open.spotify.com/track/3Dw1KZ9oade6qAfEjsvxus"
      },
      "href" : "https://api.spotify.com/v1/tracks/3Dw1KZ9oade6qAfEjsvxus",
      "id" : "3Dw1KZ9oade6qAfEjsvxus",
      "is_local" : false,
      "is_playable" : true,
      "name" : "Praise To The Lord",
      "popularity" : 24,
      "preview_url" : "https://p.scdn.co/mp3-preview/2b720872bc0ad964fea3a6027babf2e8c67f5bd7?cid=774b29d4f13844c495f206cafdad9c86",
      "track_number" : 2,
      "type" : "track",
      "uri" : "spotify:track:3Dw1KZ9oade6qAfEjsvxus"
    }, {
      "album" : {
        "album_type" : "album",
        "artists" : [ {
          "external_urls" : {
            "spotify" : "https://open.spotify.com/artist/5TB43hYVZMxI193JCzyQJb"
          },
          "href" : "https://api.spotify.com/v1/artists/5TB43hYVZMxI193JCzyQJb",
          "id" : "5TB43hYVZMxI193JCzyQJb",
          "name" : "Page CXVI",
          "type" : "artist",
          "uri" : "spotify:artist:5TB43hYVZMxI193JCzyQJb"
        } ],
        "external_urls" : {
          "spotify" : "https://open.spotify.com/album/19hrJe8h3MaZWYEYozOZ30"
        },
        "href" : "https://api.spotify.com/v1/albums/19hrJe8h3MaZWYEYozOZ30",
        "id" : "19hrJe8h3MaZWYEYozOZ30",
        "images" : [ {
          "height" : 640,
          "url" : "https://i.scdn.co/image/ab67616d0000b27325a0101ec36d2d17b05413a4",
          "width" : 640
        }, {
          "height" : 300,
          "url" : "https://i.scdn.co/image/ab67616d00001e0225a0101ec36d2d17b05413a4",
          "width" : 300
        }, {
          "height" : 64,
          "url" : "https://i.scdn.co/image/ab67616d0000485125a0101ec36d2d17b05413a4",
          "width" : 64
        } ],
        "name" : "Hymns II",
        "release_date" : "2010-12-25",
        "release_date_precision" : "day",
        "total_tracks" : 7,
        "type" : "album",
        "uri" : "spotify:album:19hrJe8h3MaZWYEYozOZ30"
      },
      "artists" : [ {
        "external_urls" : {
          "spotify" : "https://open.spotify.com/artist/5TB43hYVZMxI193JCzyQJb"
        },
        "href" : "https://api.spotify.com/v1/artists/5TB43hYVZMxI193JCzyQJb",
        "id" : "5TB43hYVZMxI193JCzyQJb",
        "name" : "Page CXVI",
        "type" : "artist",
        "uri" : "spotify:artist:5TB43hYVZMxI193JCzyQJb"
      } ],
      "disc_number" : 1,
      "duration_ms" : 265333,
      "explicit" : false,
      "external_ids" : {
        "isrc" : "TCACY1757951"
      },
      "external_urls" : {
        "spotify" : "https://open.spotify.com/track/0JpFPFKFdipnWGGovidmOs"
      },
      "href" : "https://api.spotify.com/v1/tracks/0JpFPFKFdipnWGGovidmOs",
      "id" : "0JpFPFKFdipnWGGovidmOs",
      "is_local" : false,
      "is_playable" : true,
      "name" : "Praise to the Lord",
      "popularity" : 22,
      "preview_url" : "https://p.scdn.co/mp3-preview/c95d480c2216bdec505810d26bfd12ba41f08fb0?cid=774b29d4f13844c495f206cafdad9c86",
      "track_number" : 2,
      "type" : "track",
      "uri" : "spotify:track:0JpFPFKFdipnWGGovidmOs"
    }, {
      "album" : {
        "album_type" : "album",
        "artists" : [ {
          "external_urls" : {
            "spotify" : "https://open.spotify.com/artist/6MYKRhEIKscR8qdGlvpk9y"
          },
          "href" : "https://api.spotify.com/v1/artists/6MYKRhEIKscR8qdGlvpk9y",
          "id" : "6MYKRhEIKscR8qdGlvpk9y",
          "name" : "Sovereign Grace Music",
          "type" : "artist",
          "uri" : "spotify:artist:6MYKRhEIKscR8qdGlvpk9y"
        }, {
          "external_urls" : {
            "spotify" : "https://open.spotify.com/artist/3mWDcLkpeZ5aReUNWoOadU"
          },
          "href" : "https://api.spotify.com/v1/artists/3mWDcLkpeZ5aReUNWoOadU",
          "id" : "3mWDcLkpeZ5aReUNWoOadU",
          "name" : "Bob Kauflin",
          "type" : "artist",
          "uri" : "spotify:artist:3mWDcLkpeZ5aReUNWoOadU"
        } ],
        "external_urls" : {
          "spotify" : "https://open.spotify.com/album/6h90MAC2TwzLWW0bujiSPC"
        },
        "href" : "https://api.spotify.com/v1/albums/6h90MAC2TwzLWW0bujiSPC",
        "id" : "6h90MAC2TwzLWW0bujiSPC",
        "images" : [ {
          "height" : 640,
          "url" : "https://i.scdn.co/image/ab67616d0000b2731cfe294b2d33ce28d32bc942",
          "width" : 640
        }, {
          "height" : 300,
          "url" : "https://i.scdn.co/image/ab67616d00001e021cfe294b2d33ce28d32bc942",
          "width" : 300
        }, {
          "height" : 64,
          "url" : "https://i.scdn.co/image/ab67616d000048511cfe294b2d33ce28d32bc942",
          "width" : 64
        } ],
        "name" : "Together for the Gospel II (Live)",
        "release_date" : "2012-11-27",
        "release_date_precision" : "day",
        "total_tracks" : 16,
        "type" : "album",
        "uri" : "spotify:album:6h90MAC2TwzLWW0bujiSPC"
      },
      "artists" : [ {
        "external_urls" : {
          "spotify" : "https://open.spotify.com/artist/6MYKRhEIKscR8qdGlvpk9y"
        },
        "href" : "https://api.spotify.com/v1/artists/6MYKRhEIKscR8qdGlvpk9y",
        "id" : "6MYKRhEIKscR8qdGlvpk9y",
        "name" : "Sovereign Grace Music",
        "type" : "artist",
        "uri" : "spotify:artist:6MYKRhEIKscR8qdGlvpk9y"
      }, {
        "external_urls" : {
          "spotify" : "https://open.spotify.com/artist/3mWDcLkpeZ5aReUNWoOadU"
        },
        "href" : "https://api.spotify.com/v1/artists/3mWDcLkpeZ5aReUNWoOadU",
        "id" : "3mWDcLkpeZ5aReUNWoOadU",
        "name" : "Bob Kauflin",
        "type" : "artist",
        "uri" : "spotify:artist:3mWDcLkpeZ5aReUNWoOadU"
      } ],
      "disc_number" : 1,
      "duration_ms" : 176933,
      "explicit" : false,
      "external_ids" : {
        "isrc" : "USDHM1218837"
      },
      "external_urls" : {
        "spotify" : "https://open.spotify.com/track/0Lv3ZKqKiRpi4hjQaBziWe"
      },
      "href" : "https://api.spotify.com/v1/tracks/0Lv3ZKqKiRpi4hjQaBziWe",
      "id" : "0Lv3ZKqKiRpi4hjQaBziWe",
      "is_local" : false,
      "is_playable" : true,
      "name" : "Praise to the Lord, the Almighty - Live",
      "popularity" : 26,
      "preview_url" : "https://p.scdn.co/mp3-preview/b37a7e7fd25cfd1dbfa21e2d266d23ee35b3fd26?cid=774b29d4f13844c495f206cafdad9c86",
      "track_number" : 1,
      "type" : "track",
      "uri" : "spotify:track:0Lv3ZKqKiRpi4hjQaBziWe"
    }, {
      "album" : {
        "album_type" : "album",
        "artists" : [ {
          "external_urls" : {
            "spotify" : "https://open.spotify.com/artist/0uIyzjmP48YI0dpgdAjdeI"
          },
          "href" : "https://api.spotify.com/v1/artists/0uIyzjmP48YI0dpgdAjdeI",
          "id" : "0uIyzjmP48YI0dpgdAjdeI",
          "name" : "The Praise Baby Collection",
          "type" : "artist",
          "uri" : "spotify:artist:0uIyzjmP48YI0dpgdAjdeI"
        } ],
        "external_urls" : {
          "spotify" : "https://open.spotify.com/album/1saFJ5gdFa2CoOLTUQDTQ4"
        },
        "href" : "https://api.spotify.com/v1/albums/1saFJ5gdFa2CoOLTUQDTQ4",
        "id" : "1saFJ5gdFa2CoOLTUQDTQ4",
        "images" : [ {
          "height" : 640,
          "url" : "https://i.scdn.co/image/ab67616d0000b273473a94250327f0e1ca228a35",
          "width" : 640
        }, {
          "height" : 300,
          "url" : "https://i.scdn.co/image/ab67616d00001e02473a94250327f0e1ca228a35",
          "width" : 300
        }, {
          "height" : 64,
          "url" : "https://i.scdn.co/image/ab67616d00004851473a94250327f0e1ca228a35",
          "width" : 64
        } ],
        "name" : "My Father's World",
        "release_date" : "2007-01-30",
        "release_date_precision" : "day",
        "total_tracks" : 12,
        "type" : "album",
        "uri" : "spotify:album:1saFJ5gdFa2CoOLTUQDTQ4"
      },
      "artists" : [ {
        "external_urls" : {
          "spotify" : "https://open.spotify.com/artist/0uIyzjmP48YI0dpgdAjdeI"
        },
        "href" : "https://api.spotify.com/v1/artists/0uIyzjmP48YI0dpgdAjdeI",
        "id" : "0uIyzjmP48YI0dpgdAjdeI",
        "name" : "The Praise Baby Collection",
        "type" : "artist",
        "uri" : "spotify:artist:0uIyzjmP48YI0dpgdAjdeI"
      } ],
      "disc_number" : 1,
      "duration_ms" : 183746,
      "explicit" : false,
      "external_ids" : {
        "isrc" : "USA5W0600288"
      },
      "external_urls" : {
        "spotify" : "https://open.spotify.com/track/1wTRKKGbBLqEN0hNvwLykp"
      },
      "href" : "https://api.spotify.com/v1/tracks/1wTRKKGbBLqEN0hNvwLykp",
      "id" : "1wTRKKGbBLqEN0hNvwLykp",
      "is_local" : false,
      "is_playable" : true,
      "name" : "Praise To The Lord Almighty",
      "popularity" : 30,
      "preview_url" : "https://p.scdn.co/mp3-preview/68478f70250066affef2804441b114c97b0c382c?cid=774b29d4f13844c495f206cafdad9c86",
      "track_number" : 11,
      "type" : "track",
      "uri" : "spotify:track:1wTRKKGbBLqEN0hNvwLykp"
    }, {
      "album" : {
        "album_type" : "album",
        "artists" : [ {
          "external_urls" : {
            "spotify" : "https://open.spotify.com/artist/7xkEury4Vby5uUKojsVMKm"
          },
          "href" : "https://api.spotify.com/v1/artists/7xkEury4Vby5uUKojsVMKm",
          "id" : "7xkEury4Vby5uUKojsVMKm",
          "name" : "Life Hymns Worship Trio",
          "type" : "artist",
          "uri" : "spotify:artist:7xkEury4Vby5uUKojsVMKm"
        } ],
        "external_urls" : {
          "spotify" : "https://open.spotify.com/album/5vn0Nmxh7xDJuvSvh8PPpt"
        },
        "href" : "https://api.spotify.com/v1/albums/5vn0Nmxh7xDJuvSvh8PPpt",
        "id" : "5vn0Nmxh7xDJuvSvh8PPpt",
        "images" : [ {
          "height" : 640,
          "url" : "https://i.scdn.co/image/ab67616d0000b273941df60da8bb0e94a06c9a92",
          "width" : 640
        }, {
          "height" : 300,
          "url" : "https://i.scdn.co/image/ab67616d00001e02941df60da8bb0e94a06c9a92",
          "width" : 300
        }, {
          "height" : 64,
          "url" : "https://i.scdn.co/image/ab67616d00004851941df60da8bb0e94a06c9a92",
          "width" : 64
        } ],
        "name" : "Relaxing Worship Hymns, Vol. 1",
        "release_date" : "2019-10-03",
        "release_date_precision" : "day",
        "total_tracks" : 12,
        "type" : "album",
        "uri" : "spotify:album:5vn0Nmxh7xDJuvSvh8PPpt"
      },
      "artists" : [ {
        "external_urls" : {
          "spotify" : "https://open.spotify.com/artist/7xkEury4Vby5uUKojsVMKm"
        },
        "href" : "https://api.spotify.com/v1/artists/7xkEury4Vby5uUKojsVMKm",
        "id" : "7xkEury4Vby5uUKojsVMKm",
        "name" : "Life Hymns Worship Trio",
        "type" : "artist",
        "uri" : "spotify:artist:7xkEury4Vby5uUKojsVMKm"
      } ],
      "disc_number" : 1,
      "duration_ms" : 192000,
      "explicit" : false,
      "external_ids" : {
        "isrc" : "QZGWW1974935"
      },
      "external_urls" : {
        "spotify" : "https://open.spotify.com/track/1AzmAoI3rWM0Cn41JsYjh8"
      },
      "href" : "https://api.spotify.com/v1/tracks/1AzmAoI3rWM0Cn41JsYjh8",
      "id" : "1AzmAoI3rWM0Cn41JsYjh8",
      "is_local" : false,
      "is_playable" : true,
      "name" : "Praise to the Lord, the Almighty",
      "popularity" : 27,
      "preview_url" : "https://p.scdn.co/mp3-preview/0a10acbfe15c868eddd193dd6c81dec291249409?cid=774b29d4f13844c495f206cafdad9c86",
      "track_number" : 10,
      "type" : "track",
      "uri" : "spotify:track:1AzmAoI3rWM0Cn41JsYjh8"
    }, {
      "album" : {
        "album_type" : "album",
        "artists" : [ {
          "external_urls" : {
            "spotify" : "https://open.spotify.com/artist/52QyVRbjUEr2G9cY2kv0OS"
          },
          "href" : "https://api.spotify.com/v1/artists/52QyVRbjUEr2G9cY2kv0OS",
          "id" : "52QyVRbjUEr2G9cY2kv0OS",
          "name" : "BYU Men's Chorus",
          "type" : "artist",
          "uri" : "spotify:artist:52QyVRbjUEr2G9cY2kv0OS"
        }, {
          "external_urls" : {
            "spotify" : "https://open.spotify.com/artist/0KWZ5vozfodTcx0rOCIv0c"
          },
          "href" : "https://api.spotify.com/v1/artists/0KWZ5vozfodTcx0rOCIv0c",
          "id" : "0KWZ5vozfodTcx0rOCIv0c",
          "name" : "BYU Philharmonic Orchestra",
          "type" : "artist",
          "uri" : "spotify:artist:0KWZ5vozfodTcx0rOCIv0c"
        }, {
          "external_urls" : {
            "spotify" : "https://open.spotify.com/artist/2Zpql3RdMQjunbDKk1bIiz"
          },
          "href" : "https://api.spotify.com/v1/artists/2Zpql3RdMQjunbDKk1bIiz",
          "id" : "2Zpql3RdMQjunbDKk1bIiz",
          "name" : "Mack Wilberg",
          "type" : "artist",
          "uri" : "spotify:artist:2Zpql3RdMQjunbDKk1bIiz"
        } ],
        "external_urls" : {
          "spotify" : "https://open.spotify.com/album/2mSHnovOnAARhGtstqScN2"
        },
        "href" : "https://api.spotify.com/v1/albums/2mSHnovOnAARhGtstqScN2",
        "id" : "2mSHnovOnAARhGtstqScN2",
        "images" : [ {
          "height" : 640,
          "url" : "https://i.scdn.co/image/ab67616d0000b273d9537a8ea85ecdad441d3a23",
          "width" : 640
        }, {
          "height" : 300,
          "url" : "https://i.scdn.co/image/ab67616d00001e02d9537a8ea85ecdad441d3a23",
          "width" : 300
        }, {
          "height" : 64,
          "url" : "https://i.scdn.co/image/ab67616d00004851d9537a8ea85ecdad441d3a23",
          "width" : 64
        } ],
        "name" : "Awake My Soul: Sacred Hymns & Anthems",
        "release_date" : "2015-10-01",
        "release_date_precision" : "day",
        "total_tracks" : 14,
        "type" : "album",
        "uri" : "spotify:album:2mSHnovOnAARhGtstqScN2"
      },
      "artists" : [ {
        "external_urls" : {
          "spotify" : "https://open.spotify.com/artist/2Zpql3RdMQjunbDKk1bIiz"
        },
        "href" : "https://api.spotify.com/v1/artists/2Zpql3RdMQjunbDKk1bIiz",
        "id" : "2Zpql3RdMQjunbDKk1bIiz",
        "name" : "Mack Wilberg",
        "type" : "artist",
        "uri" : "spotify:artist:2Zpql3RdMQjunbDKk1bIiz"
      }, {
        "external_urls" : {
          "spotify" : "https://open.spotify.com/artist/1U5zgr455OGyIkLNXvDdrf"
        },
        "href" : "https://api.spotify.com/v1/artists/1U5zgr455OGyIkLNXvDdrf",
        "id" : "1U5zgr455OGyIkLNXvDdrf",
        "name" : "Traditional",
        "type" : "artist",
        "uri" : "spotify:artist:1U5zgr455OGyIkLNXvDdrf"
      }, {
        "external_urls" : {
          "spotify" : "https://open.spotify.com/artist/52QyVRbjUEr2G9cY2kv0OS"
        },
        "href" : "https://api.spotify.com/v1/artists/52QyVRbjUEr2G9cY2kv0OS",
        "id" : "52QyVRbjUEr2G9cY2kv0OS",
        "name" : "BYU Men's Chorus",
        "type" : "artist",
        "uri" : "spotify:artist:52QyVRbjUEr2G9cY2kv0OS"
      }, {
        "external_urls" : {
          "spotify" : "https://open.spotify.com/artist/0KWZ5vozfodTcx0rOCIv0c"
        },
        "href" : "https://api.spotify.com/v1/artists/0KWZ5vozfodTcx0rOCIv0c",
        "id" : "0KWZ5vozfodTcx0rOCIv0c",
        "name" : "BYU Philharmonic Orchestra",
        "type" : "artist",
        "uri" : "spotify:artist:0KWZ5vozfodTcx0rOCIv0c"
      } ],
      "disc_number" : 1,
      "duration_ms" : 198802,
      "explicit" : false,
      "external_ids" : {
        "isrc" : "USRUF0910371"
      },
      "external_urls" : {
        "spotify" : "https://open.spotify.com/track/7Ic2ChhEoutkumbuvoIN3z"
      },
      "href" : "https://api.spotify.com/v1/tracks/7Ic2ChhEoutkumbuvoIN3z",
      "id" : "7Ic2ChhEoutkumbuvoIN3z",
      "is_local" : false,
      "is_playable" : true,
      "name" : "Praise to the Lord, the Almighty",
      "popularity" : 23,
      "preview_url" : "https://p.scdn.co/mp3-preview/371b52741f7f28e0d852d6a53104f298a788df85?cid=774b29d4f13844c495f206cafdad9c86",
      "track_number" : 1,
      "type" : "track",
      "uri" : "spotify:track:7Ic2ChhEoutkumbuvoIN3z"
    } ],
    "limit" : 10,
    "next" : "https://api.spotify.com/v1/search?query=Praise+to+the+Lord&type=track&market=US&offset=15&limit=10",
    "offset" : 5,
    "previous" : "https://api.spotify.com/v1/search?query=Praise+to+the+Lord&type=track&market=US&offset=0&limit=10",
    "total" : 3165
  }
}