{
  "tracks" : {
    "href" : "https://api.spotify.com/v1/search?query=Happy+the+Home&type=track&market=US&offset=5&limit=10",
    "items" : [ {
      "album" : {
        "album_type" : "album",
        "artists" : [ {
          "external_urls" : {
            "spotify" : "https://open.spotify.com/artist/11sAWrpIkFUPQlXoQqpeBV"
          },
          "href" : "https://api.spotify.com/v1/artists/11sAWrpIkFUPQlXoQqpeBV",
          "id" : "11sAWrpIkFUPQlXoQqpeBV",
          "name" : "Bill & Gloria Gaither",
          "type" : "artist",
          "uri" : "spotify:artist:11sAWrpIkFUPQlXoQqpeBV"
        } ],
        "external_urls" : {
          "spotify" : "https://open.spotify.com/album/2t9ZOa3QGFrYbhXaiIRRtF"
        },
        "href" : "https://api.spotify.com/v1/albums/2t9ZOa3QGFrYbhXaiIRRtF",
        "id" : "2t9ZOa3QGFrYbhXaiIRRtF",
        "images" : [ {
          "height" : 640,
          "url" : "https://i.scdn.co/image/ab67616d0000b273642c4cbe3e49b37c2aef5bc8",
          "width" : 640
        }, {
          "height" : 300,
          "url" : "https://i.scdn.co/image/ab67616d00001e02642c4cbe3e49b37c2aef5bc8",
          "width" : 300
        }, {
          "height" : 64,
          "url" : "https://i.scdn.co/image/ab67616d00004851642c4cbe3e49b37c2aef5bc8",
          "width" : 64
        } ],
        "name" : "Gaither Homecoming Celebration!",
        "release_date" : "2012-01-01",
        "release_date_precision" : "day",
        "total_tracks" : 17,
        "type" : "album",
        "uri" : "spotify:album:2t9ZOa3QGFrYbhXaiIRRtF"
      },
      "artists" : [ {
        "external_urls" : {
          "spotify" : "https://open.spotify.com/artist/7inG9wTaJOvDCWHGmmErkN"
        },
        "href" : "https://api.spotify.com/v1/artists/7inG9wTaJOvDCWHGmmErkN",
        "id" : "7inG9wTaJOvDCWHGmmErkN",
        "name" : "The Happy Goodmans",
        "type" : "artist",
        "uri" : "spotify:artist:7inG9wTaJOvDCWHGmmErkN"
      }, {
        "external_urls" : {
          "spotify" : "https://open.spotify.com/artist/4vZfjIUpvHeHpq47Y5NobO"
        },
        "href" : "https://api.spotify.com/v1/artists/4vZfjIUpvHeHpq47Y5NobO",
        "id" : "4vZfjIUpvHeHpq47Y5NobO",
        "name" : "Bill Gaither",
        "type" : "artist",
        "uri" : "spotify:artist:4vZfjIUpvHeHpq47Y5NobO"
      }, {
        "external_urls" : {
          "spotify" : "https://open.spotify.com/artist/4yXxlriPidNDMzvNGqUKA3"
        },
        "href" : "https://api.spotify.com/v1/artists/4yXxlriPidNDMzvNGqUKA3",
        "id" : "4yXxlriPidNDMzvNGqUKA3",
        "name" : "Jessy Dixon",
        "type" : "artist",
        "uri" : "spotify:artist:4yXxlriPidNDMzvNGqUKA3"
      }, {
        "external_urls" : {
          "spotify" : "https://open.spotify.com/artist/4LnynEw2qwgu75o6rNNHGk"
        },
        "href" : "https://api.spotify.com/v1/artists/4LnynEw2qwgu75o6rNNHGk",
        "id" : "4LnynEw2qwgu75o6rNNHGk",
        "name" : "Joyce Martin Sanders",
        "type" : "artist",
        "uri" : "spotify:artist:4LnynEw2qwgu75o6rNNHGk"
      } ],
      "disc_number" : 1,
      "duration_ms" : 276280,
      "explicit" : false,
      "external_ids" : {
        "isrc" : "US3271200026"
      },
      "external_urls" : {
        "spotify" : "https://open.spotify.com/track/58aKz9UTFQLe2Xk47YoUCd"
      },
      "href" : "https://api.spotify.com/v1/tracks/58aKz9UTFQLe2Xk47YoUCd",
      "id" : "58aKz9UTFQLe2Xk47YoUCd",
      "is_local" : false,
      "is_playable" : true,
      "name" : "I Wouldn't Take Nothin' For My Journey",
      "popularity" : 27,
      "preview_url" : null,
      "track_number" : 14,
      "type" : "track",
      "uri" : "spotify:track:58aKz9UTFQLe2Xk47YoUCd"
    }, {
      "album" : {
        "album_type" : "album",
        "artists" : [ {
          "external_urls" : {
            "spotify" : "https://open.spotify.com/artist/0LyfQWJT6nXafLPZqxe9Of"
          },
          "href" : "https://api.spotify.com/v1/artists/0LyfQWJT6nXafLPZqxe9Of",
          "id" : "0LyfQWJT6nXafLPZqxe9Of",
          "name" : "Various Artists",
          "type" : "artist",
          "uri" : "spotify:artist:0LyfQWJT6nXafLPZqxe9Of"
        } ],
        "external_urls" : {
          "spotify" : "https://open.spotify.com/album/4YcMkNjGSwrMC5Tyn55tGS"
        },
        "href" : "https://api.spotify.com/v1/albums/4YcMkNjGSwrMC5Tyn55tGS",
        "id" : "4YcMkNjGSwrMC5Tyn55tGS",
        "images" : [ {
          "height" : 640,
          "url" : "https://i.scdn.co/image/ab67616d0000b27336dc05c9cb70d88aa093fbd3",
          "width" : 640
        }, {
          "height" : 300,
          "url" : "https://i.scdn.co/image/ab67616d00001e0236dc05c9cb70d88aa093fbd3",
          "width" : 300
        }, {
          "height" : 64,
          "url" : "https://i.scdn.co/image/ab67616d0000485136dc05c9cb70d88aa093fbd3",
          "width" : 64
        } ],
        "name" : "The Tender Tulips - Ambient And Healing Sounds For Therapeutic Spa",
        "release_date" : "2020-05-27",
        "release_date_precision" : "day",
        "total_tracks" : 50,
        "type" : "album",
        "uri" : "spotify:album:4YcMkNjGSwrMC5Tyn55tGS"
      },
      "artists" : [ {
        "external_urls" : {
          "spotify" : "https://open.spotify.com/artist/3T52R5MxRam48GK9L1QPNf"
        },
        "href" : "https://api.spotify.com/v1/artists/3T52R5MxRam48GK9L1QPNf",
        "id" : "3T52R5MxRam48GK9L1QPNf",
        "name" : "Sanct Devotional Club",
        "type" : "artist",
        "uri" : "spotify:artist:3T52R5MxRam48GK9L1QPNf"
      } ],
      "disc_number" : 1,
      "duration_ms" : 258666,
      "explicit" : false,
      "external_ids" : {
        "isrc" : "ITZ071802006"
      },
      "external_urls" : {
        "spotify" : "https://open.spotify.com/track/4UQWh91iZiUQ5q9DmDaZoe"
      },
      "href" : "https://api.spotify.com/v1/tracks/4UQWh91iZiUQ5q9DmDaZoe",
      "id" : "4UQWh91iZiUQ5q9DmDaZoe",
      "is_local" : false,
      "is_playable" : true,
      "name" : "Happy Home - Original Mix",
      "popularity" : 0,
      "preview_url" : "https://p.scdn.co/mp3-preview/19167d9b32cbe3578eaf2bf1195fbe802ed651ef?cid=774b29d4f13844c495f206cafdad9c86",
      "track_number" : 45,
      "type" : "track",
      "uri" : "spotify:track:4UQWh91iZiUQ5q9DmDaZoe"
    }, {
      "album" : {
        "album_type" : "single",
        "artists" : [ {
          "external_urls" : {
            "spotify" : "https://open.spotify.com/artist/0oYI03YsJ5AbgdP6Kwxeos"
          },
          "href" : "https://api.spotify.com/v1/artists/0oYI03YsJ5AbgdP6Kwxeos",
          "id" : "0oYI03YsJ5AbgdP6Kwxeos",
          "name" : "Kate Micucci",
          "type" : "artist",
          "uri" : "spotify:artist:0oYI03YsJ5AbgdP6Kwxeos"
        } ],
        "external_urls" : {
          "spotify" : "https://open.spotify.com/album/70ehoJOxGFkiBALS0PFUHv"
        },
        "href" : "https://api.spotify.com/v1/albums/70ehoJOxGFkiBALS0PFUHv",
        "id" : "70ehoJOxGFkiBALS0PFUHv",
        "images" : [ {
          "height" : 640,
          "url" : "https://i.scdn.co/image/ab67616d0000b2736e441450d28784b66f66d0f5",
          "width" : 640
        }, {
          "height" : 300,
          "url" : "https://i.scdn.co/image/ab67616d00001e026e441450d28784b66f66d0f5",
          "width" : 300
        }, {
          "height" : 64,
          "url" : "https://i.scdn.co/image/ab67616d000048516e441450d28784b66f66d0f5",
          "width" : 64
        } ],
        "name" : "E.P. Phone Home",
        "release_date" : "2010-11-22",
        "release_date_precision" : "day",
        "total_tracks" : 6,
        "type" : "album",
        "uri" : "spotify:album:70ehoJOxGFkiBALS0PFUHv"
      },
      "artists" : [ {
        "external_urls" : {
          "spotify" : "https://open.spotify.com/artist/0oYI03YsJ5AbgdP6Kwxeos"
        },
        "href" : "https://api.spotify.com/v1/artists/0oYI03YsJ5AbgdP6Kwxeos",
        "id" : "0oYI03YsJ5AbgdP6Kwxeos",
        "name" : "Kate Micucci",
        "type" : "artist",
        "uri" : "spotify:artist:0oYI03YsJ5AbgdP6Kwxeos"
      } ],
      "disc_number" : 1,
      "duration_ms" : 44786,
      "explicit" : false,
      "external_ids" : {
        "isrc" : "usx9p1009663"
      },
      "external_urls" : {
        "spotify" : "https://open.spotify.com/track/3tPz0YQNXXfzXbQtLJOj0H"
      },
      "href" : "https://api.spotify.com/v1/tracks/3tPz0YQNXXfzXbQtLJOj0H",
      "id" : "3tPz0YQNXXfzXbQtLJOj0H",
      "is_local" : false,
      "is_playable" : true,
      "name" : "The Happy Song",
      "popularity" : 27,
      "preview_url" : "https://p.scdn.co/mp3-preview/ea0846f7eb0bcf99805a7eb93c0ccc83136e83cb?cid=774b29d4f13844c495f206cafdad9c86",
      "track_number" : 2,
      "type" : "track",
      "uri" : "spotify:track:3tPz0YQNXXfzXbQtLJOj0H"
    }, {
      "album" : {
        "album_type" : "album",
        "artists" : [ {
          "external_urls" : {
            "spotify" : "https://open.spotify.com/artist/3LtWNDNJj7vDilIOawnTuW"
          },
          "href" : "https://api.spotify.com/v1/artists/3LtWNDNJj7vDilIOawnTuW",
          "id" : "3LtWNDNJj7vDilIOawnTuW",
          "name" : "Pet Music Academy",
          "type" : "artist",
          "uri" : "spotify:artist:3LtWNDNJj7vDilIOawnTuW"
        } ],
        "external_urls" : {
          "spotify" : "https://open.spotify.com/album/1eHWXPeUAtHEF1NcxxW4Ql"
        },
        "href" : "https://api.spotify.com/v1/albums/1eHWXPeUAtHEF1NcxxW4Ql",
        "id" : "1eHWXPeUAtHEF1NcxxW4Ql",
        "images" : [ {
          "height" : 640,
          "url" : "https://i.scdn.co/image/ab67616d0000b2739eab57731c786feecab36e66",
          "width" : 640
        }, {
          "height" : 300,
          "url" : "https://i.scdn.co/image/ab67616d00001e029eab57731c786feecab36e66",
          "width" : 300
        }, {
          "height" : 64,
          "url" : "https://i.scdn.co/image/ab67616d000048519eab57731c786feecab36e66",
          "width" : 64
        } ],
        "name" : "Relaxation for Pets: Music Therapy – Calm Dog, Happy Owner, Smooth Music for Pet Spa, Sleep Music, Home Alone, Stress Relief Sounds",
        "release_date" : "2017-01-04",
        "release_date_precision" : "day",
        "total_tracks" : 30,
        "type" : "album",
        "uri" : "spotify:album:1eHWXPeUAtHEF1NcxxW4Ql"
      },
      "artists" : [ {
        "external_urls" : {
          "spotify" : "https://open.spotify.com/artist/3LtWNDNJj7vDilIOawnTuW"
        },
        "href" : "https://api.spotify.com/v1/artists/3LtWNDNJj7vDilIOawnTuW",
        "id" : "3LtWNDNJj7vDilIOawnTuW",
        "name" : "Pet Music Academy",
        "type" : "artist",
        "uri" : "spotify:artist:3LtWNDNJj7vDilIOawnTuW"
      } ],
      "disc_number" : 1,
      "duration_ms" : 197644,
      "explicit" : false,
      "external_ids" : {
        "isrc" : "PLL431598387"
      },
      "external_urls" : {
        "spotify" : "https://open.spotify.com/track/0ZfAxiYxnBZ2jD6BXvGTxM"
      },
      "href" : "https://api.spotify.com/v1/tracks/0ZfAxiYxnBZ2jD6BXvGTxM",
      "id" : "0ZfAxiYxnBZ2jD6BXvGTxM",
      "is_local" : false,
      "is_playable" : true,
      "name" : "Relaxation for Pets: Music Therapy",
      "popularity" : 25,
      "preview_url" : "https://p.scdn.co/mp3-preview/5b065eae7248e201b8cc2eabfbad46a224f59a4d?cid=774b29d4f13844c495f206cafdad9c86",
      "track_number" : 1,
      "type" : "track",
      "uri" : "spotify:track:0ZfAxiYxnBZ2jD6BXvGTxM"
    }, {
      "album" : {
        "album_type" : "album",
        "artists" : [ {
          "external_urls" : {
            "spotify" : "https://open.spotify.com/artist/5l5JD2LJPnIoVeco82Tk4q"
          },
          "href" : "https://api.spotify.com/v1/artists/5l5JD2LJPnIoVeco82Tk4q",
          "id" : "5l5JD2LJPnIoVeco82Tk4q",
          "name" : "Huey Mack",
          "type" : "artist",
          "uri" : "spotify:artist:5l5JD2LJPnIoVeco82Tk4q"
        } ],
        "external_urls" : {
          "spotify" : "https://open.spotify.com/album/3P6huL2kqXwGKRyR6gWEqh"
        },
        "href" : "https://api.spotify.com/v1/albums/3P6huL2kqXwGKRyR6gWEqh",
        "id" : "3P6huL2kqXwGKRyR6gWEqh",
        "images" : [ {
          "height" : 640,
          "url" : "https://i.scdn.co/image/ab67616d0000b273be9677a32a5a57471617f2cb",
          "width" : 640
        }, {
          "height" : 300,
          "url" : "https://i.scdn.co/image/ab67616d00001e02be9677a32a5a57471617f2cb",
          "width" : 300
        }, {
          "height" : 64,
          "url" : "https://i.scdn.co/image/ab67616d00004851be9677a32a5a57471617f2cb",
          "width" : 64
        } ],
        "name" : "A Romantic Comedy",
        "release_date" : "2019-12-05",
        "release_date_precision" : "day",
        "total_tracks" : 15,
        "type" : "album",
        "uri" : "spotify:album:3P6huL2kqXwGKRyR6gWEqh"
      },
      "artists" : [ {
        "external_urls" : {
          "spotify" : "https://open.spotify.com/artist/5l5JD2LJPnIoVeco82Tk4q"
        },
        "href" : "https://api.spotify.com/v1/artists/5l5JD2LJPnIoVeco82Tk4q",
        "id" : "5l5JD2LJPnIoVeco82Tk4q",
        "name" : "Huey Mack",
        "type" : "artist",
        "uri" : "spotify:artist:5l5JD2LJPnIoVeco82Tk4q"
      } ],
      "disc_number" : 1,
      "duration_ms" : 174000,
      "explicit" : true,
      "external_ids" : {
        "isrc" : "QZHNB1985181"
      },
      "external_urls" : {
        "spotify" : "https://open.spotify.com/track/0P3ml27Q8AZwkzmitFUa5i"
      },
      "href" : "https://api.spotify.com/v1/tracks/0P3ml27Q8AZwkzmitFUa5i",
      "id" : "0P3ml27Q8AZwkzmitFUa5i",
      "is_local" : false,
      "is_playable" : true,
      "name" : "Home (The Happy Ending)",
      "popularity" : 21,
      "preview_url" : "https://p.scdn.co/mp3-preview/b7643668a81c112e4b116c4ab22ff60916644c48?cid=774b29d4f13844c495f206cafdad9c86",
      "track_number" : 15,
      "type" : "track",
      "uri" : "spotify:track:0P3ml27Q8AZwkzmitFUa5i"
    }, {
      "album" : {
        "album_type" : "album",
        "artists" : [ {
          "external_urls" : {
            "spotify" : "https://open.spotify.com/artist/0oGpt0RlyPCDPm113RuL67"
          },
          "href" : "https://api.spotify.com/v1/artists/0oGpt0RlyPCDPm113RuL67",
          "id" : "0oGpt0RlyPCDPm113RuL67",
          "name" : "Music for Dog's Ears",
          "type" : "artist",
          "uri" : "spotify:artist:0oGpt0RlyPCDPm113RuL67"
        } ],
        "external_urls" : {
          "spotify" : "https://open.spotify.com/album/3YUaa22BcYm3iH2J9nkh8n"
        },
        "href" : "https://api.spotify.com/v1/albums/3YUaa22BcYm3iH2J9nkh8n",
        "id" : "3YUaa22BcYm3iH2J9nkh8n",
        "images" : [ {
          "height" : 640,
          "url" : "https://i.scdn.co/image/ab67616d0000b2739a167811da542c28d735b652",
          "width" : 640
        }, {
          "height" : 300,
          "url" : "https://i.scdn.co/image/ab67616d00001e029a167811da542c28d735b652",
          "width" : 300
        }, {
          "height" : 64,
          "url" : "https://i.scdn.co/image/ab67616d000048519a167811da542c28d735b652",
          "width" : 64
        } ],
        "name" : "Relaxing Music Therapy for Dogs – Mellow Sounds to Calm Down Your Pet While You Are Out, Soft Instrumental Music for Puppies",
        "release_date" : "2016-08-02",
        "release_date_precision" : "day",
        "total_tracks" : 30,
        "type" : "album",
        "uri" : "spotify:album:3YUaa22BcYm3iH2J9nkh8n"
      },
      "artists" : [ {
        "external_urls" : {
          "spotify" : "https://open.spotify.com/artist/0oGpt0RlyPCDPm113RuL67"
        },
        "href" : "https://api.spotify.com/v1/artists/0oGpt0RlyPCDPm113RuL67",
        "id" : "0oGpt0RlyPCDPm113RuL67",
        "name" : "Music for Dog's Ears",
        "type" : "artist",
        "uri" : "spotify:artist:0oGpt0RlyPCDPm113RuL67"
      } ],
      "disc_number" : 1,
      "duration_ms" : 266410,
      "explicit" : false,
      "external_ids" : {
        "isrc" : "PL0651602823"
      },
      "external_urls" : {
        "spotify" : "https://open.spotify.com/track/1QoYHH1gnnIp4Gu5nwBgo8"
      },
      "href" : "https://api.spotify.com/v1/tracks/1QoYHH1gnnIp4Gu5nwBgo8",
      "id" : "1QoYHH1gnnIp4Gu5nwBgo8",
      "is_local" : false,
      "is_playable" : true,
      "name" : "Happy Home",
      "popularity" : 23,
      "preview_url" : "https://p.scdn.co/mp3-preview/91f2d2ed0a3b246259a456463b08887f7439fe66?cid=774b29d4f13844c495f206cafdad9c86",
      "track_number" : 29,
      "type" : "track",
      "uri" : "spotify:track:1QoYHH1gnnIp4Gu5nwBgo8"
    }, {
      "album" : {
        "album_type" : "album",
        "artists" : [ {
          "external_urls" : {
            "spotify" : "https://open.spotify.com/artist/6pAuTi6FXi6qFQJ1dzMXQs"
          },
          "href" : "https://api.spotify.com/v1/artists/6pAuTi6FXi6qFQJ1dzMXQs",
          "id" : "6pAuTi6FXi6qFQJ1dzMXQs",
          "name" : "Kurt Cobain",
          "type" : "artist",
          "uri" : "spotify:artist:6pAuTi6FXi6qFQJ1dzMXQs"
        } ],
        "external_urls" : {
          "spotify" : "https://open.spotify.com/album/5UlRowLBWdNDdO17os804M"
        },
        "href" : "https://api.spotify.com/v1/albums/5UlRowLBWdNDdO17os804M",
        "id" : "5UlRowLBWdNDdO17os804M",
        "images" : [ {
          "height" : 640,
          "url" : "https://i.scdn.co/image/ab67616d0000b273a4c50ce025b39993dea03d71",
          "width" : 640
        }, {
          "height" : 300,
          "url" : "https://i.scdn.co/image/ab67616d00001e02a4c50ce025b39993dea03d71",
          "width" : 300
        }, {
          "height" : 64,
          "url" : "https://i.scdn.co/image/ab67616d00004851a4c50ce025b39993dea03d71",
          "width" : 64
        } ],
        "name" : "Montage Of Heck: The Home Recordings",
        "release_date" : "2015-11-13",
        "release_date_precision" : "day",
        "total_tracks" : 13,
        "type" : "album",
        "uri" : "spotify:album:5UlRowLBWdNDdO17os804M"
      },
      "artists" : [ {
        "external_urls" : {
          "spotify" : "https://open.spotify.com/artist/6pAuTi6FXi6qFQJ1dzMXQs"
        },
        "href" : "https://api.spotify.com/v1/artists/6pAuTi6FXi6qFQJ1dzMXQs",
        "id" : "6pAuTi6FXi6qFQJ1dzMXQs",
        "name" : "Kurt Cobain",
        "type" : "artist",
        "uri" : "spotify:artist:6pAuTi6FXi6qFQJ1dzMXQs"
      } ],
      "disc_number" : 1,
      "duration_ms" : 132346,
      "explicit" : false,
      "external_ids" : {
        "isrc" : "USUM71514594"
      },
      "external_urls" : {
        "spotify" : "https://open.spotify.com/track/00TlOP4gqECTxfLpzxGHom"
      },
      "href" : "https://api.spotify.com/v1/tracks/00TlOP4gqECTxfLpzxGHom",
      "id" : "00TlOP4gqECTxfLpzxGHom",
      "is_local" : false,
      "is_playable" : true,
      "name" : "The Happy Guitar",
      "popularity" : 26,
      "preview_url" : null,
      "track_number" : 3,
      "type" : "track",
      "uri" : "spotify:track:00TlOP4gqECTxfLpzxGHom"
    }, {
      "album" : {
        "album_type" : "album",
        "artists" : [ {
          "external_urls" : {
            "spotify" : "https://open.spotify.com/artist/3bOofoVdItLmnOv4Zn1Vvb"
          },
          "href" : "https://api.spotify.com/v1/artists/3bOofoVdItLmnOv4Zn1Vvb",
          "id" : "3bOofoVdItLmnOv4Zn1Vvb",
          "name" : "The Methodist Hymnal",
          "type" : "artist",
          "uri" : "spotify:artist:3bOofoVdItLmnOv4Zn1Vvb"
        } ],
        "external_urls" : {
          "spotify" : "https://open.spotify.com/album/4kbjUe1ge2ZfYZTbMY1Juy"
        },
        "href" : "https://api.spotify.com/v1/albums/4kbjUe1ge2ZfYZTbMY1Juy",
        "id" : "4kbjUe1ge2ZfYZTbMY1Juy",
        "images" : [ {
          "height" : 640,
          "url" : "https://i.scdn.co/image/ab67616d0000b27375ee0f055d4808292b633312",
          "width" : 640
        }, {
          "height" : 300,
          "url" : "https://i.scdn.co/image/ab67616d00001e0275ee0f055d4808292b633312",
          "width" : 300
        }, {
          "height" : 64,
          "url" : "https://i.scdn.co/image/ab67616d0000485175ee0f055d4808292b633312",
          "width" : 64
        } ],
        "name" : "Hymns For Advent",
        "release_date" : "2015-09-25",
        "release_date_precision" : "day",
        "total_tracks" : 15,
        "type" : "album",
        "uri" : "spotify:album:4kbjUe1ge2ZfYZTbMY1Juy"
      },
      "artists" : [ {
        "external_urls" : {
          "spotify" : "https://open.spotify.com/artist/3bOofoVdItLmnOv4Zn1Vvb"
        },
        "href" : "https://api.spotify.com/v1/artists/3bOofoVdItLmnOv4Zn1Vvb",
        "id" : "3bOofoVdItLmnOv4Zn1Vvb",
        "name" : "The Methodist Hymnal",
        "type" : "artist",
        "uri" : "spotify:artist:3bOofoVdItLmnOv4Zn1Vvb"
      } ],
      "disc_number" : 1,
      "duration_ms" : 125632,
      "explicit" : false,
      "external_ids" : {
        "isrc" : "USLZJ1559384"
      },
      "external_urls" : {
        "spotify" : "https://open.spotify.com/track/0pBvfBROSwjxcCRS0WCXT7"
      },
      "href" : "https://api.spotify.com/v1/tracks/0pBvfBROSwjxcCRS0WCXT7",
      "id" : "0pBvfBROSwjxcCRS0WCXT7",
      "is_local" : false,
      "is_playable" : true,
      "name" : "Jerusalem My Happy Home",
      "popularity" : 15,
      "preview_url" : "https://p.scdn.co/mp3-preview/a3b36224193495640497ca5ba8b640c87b60b951?cid=774b29d4f13844c495f206cafdad9c86",
      "track_number" : 3,
      "type" : "track",
      "uri" : "spotify:track:0pBvfBROSwjxcCRS0WCXT7"
    }, {
      "album" : {
        "album_type" : "album",
        "artists" : [ {
          "external_urls" : {
            "spotify" : "https://open.spotify.com/artist/3dRfiJ2650SZu6GbydcHNb"
          },
          "href" : "https://api.spotify.com/v1/artists/3dRfiJ2650SZu6GbydcHNb",
          "id" : "3dRfiJ2650SZu6GbydcHNb",
          "name" : "John Williams",
          "type" : "artist",
          "uri" : "spotify:artist:3dRfiJ2650SZu6GbydcHNb"
        } ],
        "external_urls" : {
          "spotify" : "https://open.spotify.com/album/174Z59HgCVdLmyU43Trig8"
        },
        "href" : "https://api.spotify.com/v1/albums/174Z59HgCVdLmyU43Trig8",
        "id" : "174Z59HgCVdLmyU43Trig8",
        "images" : [ {
          "height" : 640,
          "url" : "https://i.scdn.co/image/ab67616d0000b27309d2f71cad6cc10bf2ec7e77",
          "width" : 640
        }, {
          "height" : 300,
          "url" : "https://i.scdn.co/image/ab67616d00001e0209d2f71cad6cc10bf2ec7e77",
          "width" : 300
        }, {
          "height" : 64,
          "url" : "https://i.scdn.co/image/ab67616d0000485109d2f71cad6cc10bf2ec7e77",
          "width" : 64
        } ],
        "name" : "Work From Home With John Williams",
        "release_date" : "2020-04-13",
        "release_date_precision" : "day",
        "total_tracks" : 56,
        "type" : "album",
        "uri" : "spotify:album:174Z59HgCVdLmyU43Trig8"
      },
      "artists" : [ {
        "external_urls" : {
          "spotify" : "https://open.spotify.com/artist/3dRfiJ2650SZu6GbydcHNb"
        },
        "href" : "https://api.spotify.com/v1/artists/3dRfiJ2650SZu6GbydcHNb",
        "id" : "3dRfiJ2650SZu6GbydcHNb",
        "name" : "John Williams",
        "type" : "artist",
        "uri" : "spotify:artist:3dRfiJ2650SZu6GbydcHNb"
      } ],
      "disc_number" : 1,
      "duration_ms" : 167280,
      "explicit" : false,
      "external_ids" : {
        "isrc" : "USUMC0400093"
      },
      "external_urls" : {
        "spotify" : "https://open.spotify.com/track/1ngp4UvQe5zGlYyCOVZ4YR"
      },
      "href" : "https://api.spotify.com/v1/tracks/1ngp4UvQe5zGlYyCOVZ4YR",
      "id" : "1ngp4UvQe5zGlYyCOVZ4YR",
      "is_local" : false,
      "is_playable" : true,
      "name" : "A Happy Navorski Ending! - The Terminal/Soundtrack Version",
      "popularity" : 24,
      "preview_url" : null,
      "track_number" : 18,
      "type" : "track",
      "uri" : "spotify:track:1ngp4UvQe5zGlYyCOVZ4YR"
    }, {
      "album" : {
        "album_type" : "album",
        "artists" : [ {
          "external_urls" : {
            "spotify" : "https://open.spotify.com/artist/1ZwdS5xdxEREPySFridCfh"
          },
          "href" : "https://api.spotify.com/v1/artists/1ZwdS5xdxEREPySFridCfh",
          "id" : "1ZwdS5xdxEREPySFridCfh",
          "name" : "2Pac",
          "type" : "artist",
          "uri" : "spotify:artist:1ZwdS5xdxEREPySFridCfh"
        } ],
        "external_urls" : {
          "spotify" : "https://open.spotify.com/album/7AdntJMWn1KNRGcc2MwSPw"
        },
        "href" : "https://api.spotify.com/v1/albums/7AdntJMWn1KNRGcc2MwSPw",
        "id" : "7AdntJMWn1KNRGcc2MwSPw",
        "images" : [ {
          "height" : 640,
          "url" : "https://i.scdn.co/image/ab67616d0000b27321c059bc1bd59ee093c9c979",
          "width" : 640
        }, {
          "height" : 300,
          "url" : "https://i.scdn.co/image/ab67616d00001e0221c059bc1bd59ee093c9c979",
          "width" : 300
        }, {
          "height" : 64,
          "url" : "https://i.scdn.co/image/ab67616d0000485121c059bc1bd59ee093c9c979",
          "width" : 64
        } ],
        "name" : "Until The End Of Time",
        "release_date" : "2001-03-27",
        "release_date_precision" : "day",
        "total_tracks" : 28,
        "type" : "album",
        "uri" : "spotify:album:7AdntJMWn1KNRGcc2MwSPw"
      },
      "artists" : [ {
        "external_urls" : {
          "spotify" : "https://open.spotify.com/artist/1ZwdS5xdxEREPySFridCfh"
        },
        "href" : "https://api.spotify.com/v1/artists/1ZwdS5xdxEREPySFridCfh",
        "id" : "1ZwdS5xdxEREPySFridCfh",
        "name" : "2Pac",
        "type" : "artist",
        "uri" : "spotify:artist:1ZwdS5xdxEREPySFridCfh"
      } ],
      "disc_number" : 1,
      "duration_ms" : 234533,
      "explicit" : false,
      "external_ids" : {
        "isrc" : "USIR10110220"
      },
      "external_urls" : {
        "spotify" : "https://open.spotify.com/track/0JqdgyQLuZFnS4QuIqeGxR"
      },
      "href" : "https://api.spotify.com/v1/tracks/0JqdgyQLuZFnS4QuIqeGxR",
      "id" : "0JqdgyQLuZFnS4QuIqeGxR",
      "is_local" : false,
      "is_playable" : true,
      "name" : "Happy Home II - Album Version (Edited)",
      "popularity" : 18,
      "preview_url" : null,
      "track_number" : 8,
      "type" : "track",
      "uri" : "spotify:track:0JqdgyQLuZFnS4QuIqeGxR"
    } ],
    "limit" : 10,
    "next" : "https://api.spotify.com/v1/search?query=Happy+the+Home&type=track&market=US&offset=15&limit=10",
    "offset" : 5,
    "previous" : "https://api.spotify.com/v1/search?query=Happy+the+Home&type=track&market=US&offset=0&limit=10",
    "total" : 1231
  }
}