{
  "tracks" : {
    "href" : "https://api.spotify.com/v1/search?query=Give+to+Our+God+Immortal+Praise&type=track&market=US&offset=5&limit=10",
    "items" : [ {
      "album" : {
        "album_type" : "album",
        "artists" : [ {
          "external_urls" : {
            "spotify" : "https://open.spotify.com/artist/5SIlhbwgul5A3ygK3Dp61Z"
          },
          "href" : "https://api.spotify.com/v1/artists/5SIlhbwgul5A3ygK3Dp61Z",
          "id" : "5SIlhbwgul5A3ygK3Dp61Z",
          "name" : "Billy Graham Crusade Choirs",
          "type" : "artist",
          "uri" : "spotify:artist:5SIlhbwgul5A3ygK3Dp61Z"
        } ],
        "external_urls" : {
          "spotify" : "https://open.spotify.com/album/008NwfzSZ0Jwi6sTIAAmKT"
        },
        "href" : "https://api.spotify.com/v1/albums/008NwfzSZ0Jwi6sTIAAmKT",
        "id" : "008NwfzSZ0Jwi6sTIAAmKT",
        "images" : [ {
          "height" : 640,
          "url" : "https://i.scdn.co/image/ab67616d0000b273c3f8ea0618e0651889db2a55",
          "width" : 640
        }, {
          "height" : 300,
          "url" : "https://i.scdn.co/image/ab67616d00001e02c3f8ea0618e0651889db2a55",
          "width" : 300
        }, {
          "height" : 64,
          "url" : "https://i.scdn.co/image/ab67616d00004851c3f8ea0618e0651889db2a55",
          "width" : 64
        } ],
        "name" : "Hymns and Other Songs of Faith",
        "release_date" : "2015-09-15",
        "release_date_precision" : "day",
        "total_tracks" : 25,
        "type" : "album",
        "uri" : "spotify:album:008NwfzSZ0Jwi6sTIAAmKT"
      },
      "artists" : [ {
        "external_urls" : {
          "spotify" : "https://open.spotify.com/artist/5SIlhbwgul5A3ygK3Dp61Z"
        },
        "href" : "https://api.spotify.com/v1/artists/5SIlhbwgul5A3ygK3Dp61Z",
        "id" : "5SIlhbwgul5A3ygK3Dp61Z",
        "name" : "Billy Graham Crusade Choirs",
        "type" : "artist",
        "uri" : "spotify:artist:5SIlhbwgul5A3ygK3Dp61Z"
      } ],
      "disc_number" : 1,
      "duration_ms" : 119160,
      "explicit" : false,
      "external_ids" : {
        "isrc" : "AULB41500069"
      },
      "external_urls" : {
        "spotify" : "https://open.spotify.com/track/2XAL1Sue4lNA6wBoTawx3b"
      },
      "href" : "https://api.spotify.com/v1/tracks/2XAL1Sue4lNA6wBoTawx3b",
      "id" : "2XAL1Sue4lNA6wBoTawx3b",
      "is_local" : false,
      "is_playable" : true,
      "name" : "Give to Our God Immortal Praise",
      "popularity" : 2,
      "preview_url" : "https://p.scdn.co/mp3-preview/8d09924516f988af24a589544e4fbe6a2e064f68?cid=774b29d4f13844c495f206cafdad9c86",
      "track_number" : 14,
      "type" : "track",
      "uri" : "spotify:track:2XAL1Sue4lNA6wBoTawx3b"
    }, {
      "album" : {
        "album_type" : "album",
        "artists" : [ {
          "external_urls" : {
            "spotify" : "https://open.spotify.com/artist/7rluHfxLiKAkAoMkuE1F8U"
          },
          "href" : "https://api.spotify.com/v1/artists/7rluHfxLiKAkAoMkuE1F8U",
          "id" : "7rluHfxLiKAkAoMkuE1F8U",
          "name" : "St. Michael's Singers",
          "type" : "artist",
          "uri" : "spotify:artist:7rluHfxLiKAkAoMkuE1F8U"
        } ],
        "external_urls" : {
          "spotify" : "https://open.spotify.com/album/0VUQjPB94lUkV1qgJu3ZyY"
        },
        "href" : "https://api.spotify.com/v1/albums/0VUQjPB94lUkV1qgJu3ZyY",
        "id" : "0VUQjPB94lUkV1qgJu3ZyY",
        "images" : [ {
          "height" : 640,
          "url" : "https://i.scdn.co/image/ab67616d0000b273511eb922e3ebc39d16b738cd",
          "width" : 640
        }, {
          "height" : 300,
          "url" : "https://i.scdn.co/image/ab67616d00001e02511eb922e3ebc39d16b738cd",
          "width" : 300
        }, {
          "height" : 64,
          "url" : "https://i.scdn.co/image/ab67616d00004851511eb922e3ebc39d16b738cd",
          "width" : 64
        } ],
        "name" : "The Hymn Makers: Isaac Watts (When I Survey)",
        "release_date" : "1992",
        "release_date_precision" : "year",
        "total_tracks" : 12,
        "type" : "album",
        "uri" : "spotify:album:0VUQjPB94lUkV1qgJu3ZyY"
      },
      "artists" : [ {
        "external_urls" : {
          "spotify" : "https://open.spotify.com/artist/7rluHfxLiKAkAoMkuE1F8U"
        },
        "href" : "https://api.spotify.com/v1/artists/7rluHfxLiKAkAoMkuE1F8U",
        "id" : "7rluHfxLiKAkAoMkuE1F8U",
        "name" : "St. Michael's Singers",
        "type" : "artist",
        "uri" : "spotify:artist:7rluHfxLiKAkAoMkuE1F8U"
      } ],
      "disc_number" : 1,
      "duration_ms" : 195560,
      "explicit" : false,
      "external_ids" : {
        "isrc" : "GBBTM9258205"
      },
      "external_urls" : {
        "spotify" : "https://open.spotify.com/track/4gbK9dernHaLsXtCdTHImJ"
      },
      "href" : "https://api.spotify.com/v1/tracks/4gbK9dernHaLsXtCdTHImJ",
      "id" : "4gbK9dernHaLsXtCdTHImJ",
      "is_local" : false,
      "is_playable" : true,
      "name" : "Give To Our God Immortal Praise",
      "popularity" : 3,
      "preview_url" : "https://p.scdn.co/mp3-preview/66c9eee8f919e15947ff4bcade932d049d122709?cid=774b29d4f13844c495f206cafdad9c86",
      "track_number" : 5,
      "type" : "track",
      "uri" : "spotify:track:4gbK9dernHaLsXtCdTHImJ"
    }, {
      "album" : {
        "album_type" : "album",
        "artists" : [ {
          "external_urls" : {
            "spotify" : "https://open.spotify.com/artist/7rluHfxLiKAkAoMkuE1F8U"
          },
          "href" : "https://api.spotify.com/v1/artists/7rluHfxLiKAkAoMkuE1F8U",
          "id" : "7rluHfxLiKAkAoMkuE1F8U",
          "name" : "St. Michael's Singers",
          "type" : "artist",
          "uri" : "spotify:artist:7rluHfxLiKAkAoMkuE1F8U"
        } ],
        "external_urls" : {
          "spotify" : "https://open.spotify.com/album/7K2p4cSwDIK163HYiERCW8"
        },
        "href" : "https://api.spotify.com/v1/albums/7K2p4cSwDIK163HYiERCW8",
        "id" : "7K2p4cSwDIK163HYiERCW8",
        "images" : [ {
          "height" : 640,
          "url" : "https://i.scdn.co/image/ab67616d0000b2732a449cf71a216328ab51040a",
          "width" : 640
        }, {
          "height" : 300,
          "url" : "https://i.scdn.co/image/ab67616d00001e022a449cf71a216328ab51040a",
          "width" : 300
        }, {
          "height" : 64,
          "url" : "https://i.scdn.co/image/ab67616d000048512a449cf71a216328ab51040a",
          "width" : 64
        } ],
        "name" : "Morning Gladness",
        "release_date" : "2008-12-09",
        "release_date_precision" : "day",
        "total_tracks" : 12,
        "type" : "album",
        "uri" : "spotify:album:7K2p4cSwDIK163HYiERCW8"
      },
      "artists" : [ {
        "external_urls" : {
          "spotify" : "https://open.spotify.com/artist/7rluHfxLiKAkAoMkuE1F8U"
        },
        "href" : "https://api.spotify.com/v1/artists/7rluHfxLiKAkAoMkuE1F8U",
        "id" : "7rluHfxLiKAkAoMkuE1F8U",
        "name" : "St. Michael's Singers",
        "type" : "artist",
        "uri" : "spotify:artist:7rluHfxLiKAkAoMkuE1F8U"
      } ],
      "disc_number" : 1,
      "duration_ms" : 192533,
      "explicit" : false,
      "external_ids" : {
        "isrc" : "GBCEU0210505"
      },
      "external_urls" : {
        "spotify" : "https://open.spotify.com/track/7qqQ4cYM0RhCEGpjLMSDcm"
      },
      "href" : "https://api.spotify.com/v1/tracks/7qqQ4cYM0RhCEGpjLMSDcm",
      "id" : "7qqQ4cYM0RhCEGpjLMSDcm",
      "is_local" : false,
      "is_playable" : true,
      "name" : "Give to Our God Immortal Praise",
      "popularity" : 1,
      "preview_url" : "https://p.scdn.co/mp3-preview/453f58ae14cc699fdd702d216b3bf1176d602c64?cid=774b29d4f13844c495f206cafdad9c86",
      "track_number" : 5,
      "type" : "track",
      "uri" : "spotify:track:7qqQ4cYM0RhCEGpjLMSDcm"
    }, {
      "album" : {
        "album_type" : "album",
        "artists" : [ {
          "external_urls" : {
            "spotify" : "https://open.spotify.com/artist/0OJai4MCI7XKfOU5GRPgJd"
          },
          "href" : "https://api.spotify.com/v1/artists/0OJai4MCI7XKfOU5GRPgJd",
          "id" : "0OJai4MCI7XKfOU5GRPgJd",
          "name" : "Grace Seattle Experimental Orchestra",
          "type" : "artist",
          "uri" : "spotify:artist:0OJai4MCI7XKfOU5GRPgJd"
        } ],
        "external_urls" : {
          "spotify" : "https://open.spotify.com/album/6np6Asyqwt2FjMacR3y4HL"
        },
        "href" : "https://api.spotify.com/v1/albums/6np6Asyqwt2FjMacR3y4HL",
        "id" : "6np6Asyqwt2FjMacR3y4HL",
        "images" : [ {
          "height" : 640,
          "url" : "https://i.scdn.co/image/ab67616d0000b273fc0e3819bd2af48047138b76",
          "width" : 640
        }, {
          "height" : 300,
          "url" : "https://i.scdn.co/image/ab67616d00001e02fc0e3819bd2af48047138b76",
          "width" : 300
        }, {
          "height" : 64,
          "url" : "https://i.scdn.co/image/ab67616d00004851fc0e3819bd2af48047138b76",
          "width" : 64
        } ],
        "name" : "Depth Of Mercy",
        "release_date" : "2005-06-10",
        "release_date_precision" : "day",
        "total_tracks" : 16,
        "type" : "album",
        "uri" : "spotify:album:6np6Asyqwt2FjMacR3y4HL"
      },
      "artists" : [ {
        "external_urls" : {
          "spotify" : "https://open.spotify.com/artist/0OJai4MCI7XKfOU5GRPgJd"
        },
        "href" : "https://api.spotify.com/v1/artists/0OJai4MCI7XKfOU5GRPgJd",
        "id" : "0OJai4MCI7XKfOU5GRPgJd",
        "name" : "Grace Seattle Experimental Orchestra",
        "type" : "artist",
        "uri" : "spotify:artist:0OJai4MCI7XKfOU5GRPgJd"
      } ],
      "disc_number" : 1,
      "duration_ms" : 189466,
      "explicit" : false,
      "external_ids" : {
        "isrc" : "ushm90558032"
      },
      "external_urls" : {
        "spotify" : "https://open.spotify.com/track/5GcVccDOg5DSIrm04jhVT3"
      },
      "href" : "https://api.spotify.com/v1/tracks/5GcVccDOg5DSIrm04jhVT3",
      "id" : "5GcVccDOg5DSIrm04jhVT3",
      "is_local" : false,
      "is_playable" : true,
      "name" : "Give To Our God Immortal Praise",
      "popularity" : 0,
      "preview_url" : "https://p.scdn.co/mp3-preview/55b0b743118d13bf47edaa6d710e390721ec69e4?cid=774b29d4f13844c495f206cafdad9c86",
      "track_number" : 3,
      "type" : "track",
      "uri" : "spotify:track:5GcVccDOg5DSIrm04jhVT3"
    }, {
      "album" : {
        "album_type" : "album",
        "artists" : [ {
          "external_urls" : {
            "spotify" : "https://open.spotify.com/artist/2Y08YwxcdJGCl3MAvKzVcM"
          },
          "href" : "https://api.spotify.com/v1/artists/2Y08YwxcdJGCl3MAvKzVcM",
          "id" : "2Y08YwxcdJGCl3MAvKzVcM",
          "name" : "Dick Tunney & Mel Tunney",
          "type" : "artist",
          "uri" : "spotify:artist:2Y08YwxcdJGCl3MAvKzVcM"
        } ],
        "external_urls" : {
          "spotify" : "https://open.spotify.com/album/7tEhTGaNHbGKVgAQFZCdrR"
        },
        "href" : "https://api.spotify.com/v1/albums/7tEhTGaNHbGKVgAQFZCdrR",
        "id" : "7tEhTGaNHbGKVgAQFZCdrR",
        "images" : [ {
          "height" : 640,
          "url" : "https://i.scdn.co/image/ab67616d0000b273322915c7d07493e1ce36bc40",
          "width" : 640
        }, {
          "height" : 300,
          "url" : "https://i.scdn.co/image/ab67616d00001e02322915c7d07493e1ce36bc40",
          "width" : 300
        }, {
          "height" : 64,
          "url" : "https://i.scdn.co/image/ab67616d00004851322915c7d07493e1ce36bc40",
          "width" : 64
        } ],
        "name" : "Are You Listening?",
        "release_date" : "2010-06-01",
        "release_date_precision" : "day",
        "total_tracks" : 11,
        "type" : "album",
        "uri" : "spotify:album:7tEhTGaNHbGKVgAQFZCdrR"
      },
      "artists" : [ {
        "external_urls" : {
          "spotify" : "https://open.spotify.com/artist/2Y08YwxcdJGCl3MAvKzVcM"
        },
        "href" : "https://api.spotify.com/v1/artists/2Y08YwxcdJGCl3MAvKzVcM",
        "id" : "2Y08YwxcdJGCl3MAvKzVcM",
        "name" : "Dick Tunney & Mel Tunney",
        "type" : "artist",
        "uri" : "spotify:artist:2Y08YwxcdJGCl3MAvKzVcM"
      } ],
      "disc_number" : 1,
      "duration_ms" : 205000,
      "explicit" : false,
      "external_ids" : {
        "isrc" : "uscgj1095435"
      },
      "external_urls" : {
        "spotify" : "https://open.spotify.com/track/1NIrO0q6mdkGqy5J7Zvas8"
      },
      "href" : "https://api.spotify.com/v1/tracks/1NIrO0q6mdkGqy5J7Zvas8",
      "id" : "1NIrO0q6mdkGqy5J7Zvas8",
      "is_local" : false,
      "is_playable" : true,
      "name" : "Give To Our God Immortal Praise",
      "popularity" : 0,
      "preview_url" : "https://p.scdn.co/mp3-preview/1a6aef4978e8cdfaaf55191c64b1fbd00da2c247?cid=774b29d4f13844c495f206cafdad9c86",
      "track_number" : 5,
      "type" : "track",
      "uri" : "spotify:track:1NIrO0q6mdkGqy5J7Zvas8"
    }, {
      "album" : {
        "album_type" : "compilation",
        "artists" : [ {
          "external_urls" : {
            "spotify" : "https://open.spotify.com/artist/0LyfQWJT6nXafLPZqxe9Of"
          },
          "href" : "https://api.spotify.com/v1/artists/0LyfQWJT6nXafLPZqxe9Of",
          "id" : "0LyfQWJT6nXafLPZqxe9Of",
          "name" : "Various Artists",
          "type" : "artist",
          "uri" : "spotify:artist:0LyfQWJT6nXafLPZqxe9Of"
        } ],
        "external_urls" : {
          "spotify" : "https://open.spotify.com/album/11RY5a61KU5FV2TEolC6MM"
        },
        "href" : "https://api.spotify.com/v1/albums/11RY5a61KU5FV2TEolC6MM",
        "id" : "11RY5a61KU5FV2TEolC6MM",
        "images" : [ {
          "height" : 640,
          "url" : "https://i.scdn.co/image/ab67616d0000b273a310e0679fc5cfdd82826d50",
          "width" : 640
        }, {
          "height" : 300,
          "url" : "https://i.scdn.co/image/ab67616d00001e02a310e0679fc5cfdd82826d50",
          "width" : 300
        }, {
          "height" : 64,
          "url" : "https://i.scdn.co/image/ab67616d00004851a310e0679fc5cfdd82826d50",
          "width" : 64
        } ],
        "name" : "Classic Songs from the Hymnal",
        "release_date" : "2009-04-14",
        "release_date_precision" : "day",
        "total_tracks" : 37,
        "type" : "album",
        "uri" : "spotify:album:11RY5a61KU5FV2TEolC6MM"
      },
      "artists" : [ {
        "external_urls" : {
          "spotify" : "https://open.spotify.com/artist/0LyfQWJT6nXafLPZqxe9Of"
        },
        "href" : "https://api.spotify.com/v1/artists/0LyfQWJT6nXafLPZqxe9Of",
        "id" : "0LyfQWJT6nXafLPZqxe9Of",
        "name" : "Various Artists",
        "type" : "artist",
        "uri" : "spotify:artist:0LyfQWJT6nXafLPZqxe9Of"
      } ],
      "disc_number" : 1,
      "duration_ms" : 228453,
      "explicit" : false,
      "external_ids" : {
        "isrc" : "USLF50801136"
      },
      "external_urls" : {
        "spotify" : "https://open.spotify.com/track/54kuVGYGalKDsr33BiSFkQ"
      },
      "href" : "https://api.spotify.com/v1/tracks/54kuVGYGalKDsr33BiSFkQ",
      "id" : "54kuVGYGalKDsr33BiSFkQ",
      "is_local" : false,
      "is_playable" : true,
      "name" : "Give to Our God Immortal Praise",
      "popularity" : 0,
      "preview_url" : "https://p.scdn.co/mp3-preview/1ff4794870cfef7437c0d01d92906cdfb5044923?cid=774b29d4f13844c495f206cafdad9c86",
      "track_number" : 4,
      "type" : "track",
      "uri" : "spotify:track:54kuVGYGalKDsr33BiSFkQ"
    }, {
      "album" : {
        "album_type" : "album",
        "artists" : [ {
          "external_urls" : {
            "spotify" : "https://open.spotify.com/artist/3UuY3RrWbM3JWy0FZh6EKg"
          },
          "href" : "https://api.spotify.com/v1/artists/3UuY3RrWbM3JWy0FZh6EKg",
          "id" : "3UuY3RrWbM3JWy0FZh6EKg",
          "name" : "The Haven Quartet",
          "type" : "artist",
          "uri" : "spotify:artist:3UuY3RrWbM3JWy0FZh6EKg"
        } ],
        "external_urls" : {
          "spotify" : "https://open.spotify.com/album/08WZ8yMckLjfqEYZDKDsGi"
        },
        "href" : "https://api.spotify.com/v1/albums/08WZ8yMckLjfqEYZDKDsGi",
        "id" : "08WZ8yMckLjfqEYZDKDsGi",
        "images" : [ {
          "height" : 640,
          "url" : "https://i.scdn.co/image/ab67616d0000b273bacf7ff82ae55d0f45924930",
          "width" : 640
        }, {
          "height" : 300,
          "url" : "https://i.scdn.co/image/ab67616d00001e02bacf7ff82ae55d0f45924930",
          "width" : 300
        }, {
          "height" : 64,
          "url" : "https://i.scdn.co/image/ab67616d00004851bacf7ff82ae55d0f45924930",
          "width" : 64
        } ],
        "name" : "So Many Ways To Praise",
        "release_date" : "1998",
        "release_date_precision" : "year",
        "total_tracks" : 15,
        "type" : "album",
        "uri" : "spotify:album:08WZ8yMckLjfqEYZDKDsGi"
      },
      "artists" : [ {
        "external_urls" : {
          "spotify" : "https://open.spotify.com/artist/3UuY3RrWbM3JWy0FZh6EKg"
        },
        "href" : "https://api.spotify.com/v1/artists/3UuY3RrWbM3JWy0FZh6EKg",
        "id" : "3UuY3RrWbM3JWy0FZh6EKg",
        "name" : "The Haven Quartet",
        "type" : "artist",
        "uri" : "spotify:artist:3UuY3RrWbM3JWy0FZh6EKg"
      } ],
      "disc_number" : 1,
      "duration_ms" : 166426,
      "explicit" : false,
      "external_ids" : {
        "isrc" : "ushm81014996"
      },
      "external_urls" : {
        "spotify" : "https://open.spotify.com/track/3Acvmd6FJCm8JqbMZQTwoJ"
      },
      "href" : "https://api.spotify.com/v1/tracks/3Acvmd6FJCm8JqbMZQTwoJ",
      "id" : "3Acvmd6FJCm8JqbMZQTwoJ",
      "is_local" : false,
      "is_playable" : true,
      "name" : "Give To Our God Immortal Praise",
      "popularity" : 1,
      "preview_url" : "https://p.scdn.co/mp3-preview/b27e20abbaf719f3770c0d03af4b0ca37792fb81?cid=774b29d4f13844c495f206cafdad9c86",
      "track_number" : 1,
      "type" : "track",
      "uri" : "spotify:track:3Acvmd6FJCm8JqbMZQTwoJ"
    }, {
      "album" : {
        "album_type" : "album",
        "artists" : [ {
          "external_urls" : {
            "spotify" : "https://open.spotify.com/artist/72mNWZceCNLFBaz1iUuwpc"
          },
          "href" : "https://api.spotify.com/v1/artists/72mNWZceCNLFBaz1iUuwpc",
          "id" : "72mNWZceCNLFBaz1iUuwpc",
          "name" : "David E. Gonzalez",
          "type" : "artist",
          "uri" : "spotify:artist:72mNWZceCNLFBaz1iUuwpc"
        } ],
        "external_urls" : {
          "spotify" : "https://open.spotify.com/album/6iFi0nrvGqzNQrrpdrTIjF"
        },
        "href" : "https://api.spotify.com/v1/albums/6iFi0nrvGqzNQrrpdrTIjF",
        "id" : "6iFi0nrvGqzNQrrpdrTIjF",
        "images" : [ {
          "height" : 640,
          "url" : "https://i.scdn.co/image/ab67616d0000b273629c57c6cadd26b95c6d0364",
          "width" : 640
        }, {
          "height" : 300,
          "url" : "https://i.scdn.co/image/ab67616d00001e02629c57c6cadd26b95c6d0364",
          "width" : 300
        }, {
          "height" : 64,
          "url" : "https://i.scdn.co/image/ab67616d00004851629c57c6cadd26b95c6d0364",
          "width" : 64
        } ],
        "name" : "Adagio in Praise for Flute and Orchestra",
        "release_date" : "2014-11-10",
        "release_date_precision" : "day",
        "total_tracks" : 11,
        "type" : "album",
        "uri" : "spotify:album:6iFi0nrvGqzNQrrpdrTIjF"
      },
      "artists" : [ {
        "external_urls" : {
          "spotify" : "https://open.spotify.com/artist/72mNWZceCNLFBaz1iUuwpc"
        },
        "href" : "https://api.spotify.com/v1/artists/72mNWZceCNLFBaz1iUuwpc",
        "id" : "72mNWZceCNLFBaz1iUuwpc",
        "name" : "David E. Gonzalez",
        "type" : "artist",
        "uri" : "spotify:artist:72mNWZceCNLFBaz1iUuwpc"
      } ],
      "disc_number" : 1,
      "duration_ms" : 201573,
      "explicit" : false,
      "external_ids" : {
        "isrc" : "ushm91486121"
      },
      "external_urls" : {
        "spotify" : "https://open.spotify.com/track/3OHeGCheioibZncW1J6tNG"
      },
      "href" : "https://api.spotify.com/v1/tracks/3OHeGCheioibZncW1J6tNG",
      "id" : "3OHeGCheioibZncW1J6tNG",
      "is_local" : false,
      "is_playable" : true,
      "name" : "Give to Our God Immortal Praise",
      "popularity" : 0,
      "preview_url" : "https://p.scdn.co/mp3-preview/9869a6e86d6b0a90d8db2ab003f1fe0a0f934da3?cid=774b29d4f13844c495f206cafdad9c86",
      "track_number" : 1,
      "type" : "track",
      "uri" : "spotify:track:3OHeGCheioibZncW1J6tNG"
    }, {
      "album" : {
        "album_type" : "album",
        "artists" : [ {
          "external_urls" : {
            "spotify" : "https://open.spotify.com/artist/57ny1Afxvc32XlVo6rNVee"
          },
          "href" : "https://api.spotify.com/v1/artists/57ny1Afxvc32XlVo6rNVee",
          "id" : "57ny1Afxvc32XlVo6rNVee",
          "name" : "Nicholas Andrew Barber",
          "type" : "artist",
          "uri" : "spotify:artist:57ny1Afxvc32XlVo6rNVee"
        } ],
        "external_urls" : {
          "spotify" : "https://open.spotify.com/album/6Emg1T6jejj10VCvmdBgNw"
        },
        "href" : "https://api.spotify.com/v1/albums/6Emg1T6jejj10VCvmdBgNw",
        "id" : "6Emg1T6jejj10VCvmdBgNw",
        "images" : [ {
          "height" : 640,
          "url" : "https://i.scdn.co/image/ab67616d0000b2732aaafb03237a733a8f3ec18d",
          "width" : 640
        }, {
          "height" : 300,
          "url" : "https://i.scdn.co/image/ab67616d00001e022aaafb03237a733a8f3ec18d",
          "width" : 300
        }, {
          "height" : 64,
          "url" : "https://i.scdn.co/image/ab67616d000048512aaafb03237a733a8f3ec18d",
          "width" : 64
        } ],
        "name" : "Suns & Moons",
        "release_date" : "2017-02-22",
        "release_date_precision" : "day",
        "total_tracks" : 10,
        "type" : "album",
        "uri" : "spotify:album:6Emg1T6jejj10VCvmdBgNw"
      },
      "artists" : [ {
        "external_urls" : {
          "spotify" : "https://open.spotify.com/artist/57ny1Afxvc32XlVo6rNVee"
        },
        "href" : "https://api.spotify.com/v1/artists/57ny1Afxvc32XlVo6rNVee",
        "id" : "57ny1Afxvc32XlVo6rNVee",
        "name" : "Nicholas Andrew Barber",
        "type" : "artist",
        "uri" : "spotify:artist:57ny1Afxvc32XlVo6rNVee"
      } ],
      "disc_number" : 1,
      "duration_ms" : 224253,
      "explicit" : false,
      "external_ids" : {
        "isrc" : "QZ6YW1700004"
      },
      "external_urls" : {
        "spotify" : "https://open.spotify.com/track/0OZnfcIkkKcH36c1RQNPSD"
      },
      "href" : "https://api.spotify.com/v1/tracks/0OZnfcIkkKcH36c1RQNPSD",
      "id" : "0OZnfcIkkKcH36c1RQNPSD",
      "is_local" : false,
      "is_playable" : true,
      "name" : "Give to Our God Immortal Praise",
      "popularity" : 0,
      "preview_url" : "https://p.scdn.co/mp3-preview/2e05b47a6cf06ae914e124f8ce1d2141000ec21f?cid=774b29d4f13844c495f206cafdad9c86",
      "track_number" : 4,
      "type" : "track",
      "uri" : "spotify:track:0OZnfcIkkKcH36c1RQNPSD"
    }, {
      "album" : {
        "album_type" : "album",
        "artists" : [ {
          "external_urls" : {
            "spotify" : "https://open.spotify.com/artist/0Az95oAaLrxwUYB6ijeVkO"
          },
          "href" : "https://api.spotify.com/v1/artists/0Az95oAaLrxwUYB6ijeVkO",
          "id" : "0Az95oAaLrxwUYB6ijeVkO",
          "name" : "Eric M. Pazdziora",
          "type" : "artist",
          "uri" : "spotify:artist:0Az95oAaLrxwUYB6ijeVkO"
        } ],
        "external_urls" : {
          "spotify" : "https://open.spotify.com/album/4CGk7J7thAmGl8IgF48cX6"
        },
        "href" : "https://api.spotify.com/v1/albums/4CGk7J7thAmGl8IgF48cX6",
        "id" : "4CGk7J7thAmGl8IgF48cX6",
        "images" : [ {
          "height" : 640,
          "url" : "https://i.scdn.co/image/ab67616d0000b273e6616081eece2447102706bd",
          "width" : 640
        }, {
          "height" : 300,
          "url" : "https://i.scdn.co/image/ab67616d00001e02e6616081eece2447102706bd",
          "width" : 300
        }, {
          "height" : 64,
          "url" : "https://i.scdn.co/image/ab67616d00004851e6616081eece2447102706bd",
          "width" : 64
        } ],
        "name" : "New Creation: Hymns of Wonder, Love, and Praise",
        "release_date" : "2010-10-14",
        "release_date_precision" : "day",
        "total_tracks" : 12,
        "type" : "album",
        "uri" : "spotify:album:4CGk7J7thAmGl8IgF48cX6"
      },
      "artists" : [ {
        "external_urls" : {
          "spotify" : "https://open.spotify.com/artist/0Az95oAaLrxwUYB6ijeVkO"
        },
        "href" : "https://api.spotify.com/v1/artists/0Az95oAaLrxwUYB6ijeVkO",
        "id" : "0Az95oAaLrxwUYB6ijeVkO",
        "name" : "Eric M. Pazdziora",
        "type" : "artist",
        "uri" : "spotify:artist:0Az95oAaLrxwUYB6ijeVkO"
      } ],
      "disc_number" : 1,
      "duration_ms" : 252000,
      "explicit" : false,
      "external_ids" : {
        "isrc" : "ushm91037285"
      },
      "external_urls" : {
        "spotify" : "https://open.spotify.com/track/5hQ0I4NvLBFas6pVzQbk5M"
      },
      "href" : "https://api.spotify.com/v1/tracks/5hQ0I4NvLBFas6pVzQbk5M",
      "id" : "5hQ0I4NvLBFas6pVzQbk5M",
      "is_local" : false,
      "is_playable" : true,
      "name" : "Give to Our God Immortal Praise",
      "popularity" : 0,
      "preview_url" : "https://p.scdn.co/mp3-preview/66551c052e977abc901471a8be4309ae3cc66c5c?cid=774b29d4f13844c495f206cafdad9c86",
      "track_number" : 7,
      "type" : "track",
      "uri" : "spotify:track:5hQ0I4NvLBFas6pVzQbk5M"
    } ],
    "limit" : 10,
    "next" : "https://api.spotify.com/v1/search?query=Give+to+Our+God+Immortal+Praise&type=track&market=US&offset=15&limit=10",
    "offset" : 5,
    "previous" : "https://api.spotify.com/v1/search?query=Give+to+Our+God+Immortal+Praise&type=track&market=US&offset=0&limit=10",
    "total" : 19
  }
}