{
  "tracks" : {
    "href" : "https://api.spotify.com/v1/search?query=In+Cross+of+Christ+I+Glory&type=track&market=US&offset=5&limit=10",
    "items" : [ {
      "album" : {
        "album_type" : "compilation",
        "artists" : [ {
          "external_urls" : {
            "spotify" : "https://open.spotify.com/artist/0LyfQWJT6nXafLPZqxe9Of"
          },
          "href" : "https://api.spotify.com/v1/artists/0LyfQWJT6nXafLPZqxe9Of",
          "id" : "0LyfQWJT6nXafLPZqxe9Of",
          "name" : "Various Artists",
          "type" : "artist",
          "uri" : "spotify:artist:0LyfQWJT6nXafLPZqxe9Of"
        } ],
        "external_urls" : {
          "spotify" : "https://open.spotify.com/album/0fUOFQsJuTmWyLIdrFCOqk"
        },
        "href" : "https://api.spotify.com/v1/albums/0fUOFQsJuTmWyLIdrFCOqk",
        "id" : "0fUOFQsJuTmWyLIdrFCOqk",
        "images" : [ {
          "height" : 640,
          "url" : "https://i.scdn.co/image/ab67616d0000b273ee7e7c388747bbaac51464c4",
          "width" : 640
        }, {
          "height" : 300,
          "url" : "https://i.scdn.co/image/ab67616d00001e02ee7e7c388747bbaac51464c4",
          "width" : 300
        }, {
          "height" : 64,
          "url" : "https://i.scdn.co/image/ab67616d00004851ee7e7c388747bbaac51464c4",
          "width" : 64
        } ],
        "name" : "Hymns: The Ultimate Collection",
        "release_date" : "2006-01-01",
        "release_date_precision" : "day",
        "total_tracks" : 38,
        "type" : "album",
        "uri" : "spotify:album:0fUOFQsJuTmWyLIdrFCOqk"
      },
      "artists" : [ {
        "external_urls" : {
          "spotify" : "https://open.spotify.com/artist/49xEKLfNLxBTboO6UwuSPH"
        },
        "href" : "https://api.spotify.com/v1/artists/49xEKLfNLxBTboO6UwuSPH",
        "id" : "49xEKLfNLxBTboO6UwuSPH",
        "name" : "The Majesty And Glory Performers",
        "type" : "artist",
        "uri" : "spotify:artist:49xEKLfNLxBTboO6UwuSPH"
      } ],
      "disc_number" : 1,
      "duration_ms" : 222640,
      "explicit" : false,
      "external_ids" : {
        "isrc" : "USSP39148881"
      },
      "external_urls" : {
        "spotify" : "https://open.spotify.com/track/6UCHO2cC5FUPXBmQnY5oix"
      },
      "href" : "https://api.spotify.com/v1/tracks/6UCHO2cC5FUPXBmQnY5oix",
      "id" : "6UCHO2cC5FUPXBmQnY5oix",
      "is_local" : false,
      "is_playable" : true,
      "name" : "Beneath The Cross Of Jesus / When I Survey The Wondrous Cross / In The Cross Of Christ I Glory",
      "popularity" : 9,
      "preview_url" : null,
      "track_number" : 11,
      "type" : "track",
      "uri" : "spotify:track:6UCHO2cC5FUPXBmQnY5oix"
    }, {
      "album" : {
        "album_type" : "album",
        "artists" : [ {
          "external_urls" : {
            "spotify" : "https://open.spotify.com/artist/10oHuhjG8nwSnx4ugWEekr"
          },
          "href" : "https://api.spotify.com/v1/artists/10oHuhjG8nwSnx4ugWEekr",
          "id" : "10oHuhjG8nwSnx4ugWEekr",
          "name" : "Marlborough College Chapel Choir",
          "type" : "artist",
          "uri" : "spotify:artist:10oHuhjG8nwSnx4ugWEekr"
        } ],
        "external_urls" : {
          "spotify" : "https://open.spotify.com/album/5RzRUnfrczH5PYg4HpielN"
        },
        "href" : "https://api.spotify.com/v1/albums/5RzRUnfrczH5PYg4HpielN",
        "id" : "5RzRUnfrczH5PYg4HpielN",
        "images" : [ {
          "height" : 640,
          "url" : "https://i.scdn.co/image/ab67616d0000b2733c91378329a60e5f7fd30b82",
          "width" : 640
        }, {
          "height" : 300,
          "url" : "https://i.scdn.co/image/ab67616d00001e023c91378329a60e5f7fd30b82",
          "width" : 300
        }, {
          "height" : 64,
          "url" : "https://i.scdn.co/image/ab67616d000048513c91378329a60e5f7fd30b82",
          "width" : 64
        } ],
        "name" : "Complete New English Hymnal Vol. 2",
        "release_date" : "2000",
        "release_date_precision" : "year",
        "total_tracks" : 25,
        "type" : "album",
        "uri" : "spotify:album:5RzRUnfrczH5PYg4HpielN"
      },
      "artists" : [ {
        "external_urls" : {
          "spotify" : "https://open.spotify.com/artist/10oHuhjG8nwSnx4ugWEekr"
        },
        "href" : "https://api.spotify.com/v1/artists/10oHuhjG8nwSnx4ugWEekr",
        "id" : "10oHuhjG8nwSnx4ugWEekr",
        "name" : "Marlborough College Chapel Choir",
        "type" : "artist",
        "uri" : "spotify:artist:10oHuhjG8nwSnx4ugWEekr"
      } ],
      "disc_number" : 1,
      "duration_ms" : 109600,
      "explicit" : false,
      "external_ids" : {
        "isrc" : "GBXUX0870219"
      },
      "external_urls" : {
        "spotify" : "https://open.spotify.com/track/3FR34JhoNWP35SjXuUT2V8"
      },
      "href" : "https://api.spotify.com/v1/tracks/3FR34JhoNWP35SjXuUT2V8",
      "id" : "3FR34JhoNWP35SjXuUT2V8",
      "is_local" : false,
      "is_playable" : true,
      "name" : "In the Cross of Christ I Glory",
      "popularity" : 6,
      "preview_url" : "https://p.scdn.co/mp3-preview/58b8fc5e2c03ecfd195a8c6b4350492a1e13a6d7?cid=774b29d4f13844c495f206cafdad9c86",
      "track_number" : 19,
      "type" : "track",
      "uri" : "spotify:track:3FR34JhoNWP35SjXuUT2V8"
    }, {
      "album" : {
        "album_type" : "album",
        "artists" : [ {
          "external_urls" : {
            "spotify" : "https://open.spotify.com/artist/2yQZGNQJExPLfCB8kfTD88"
          },
          "href" : "https://api.spotify.com/v1/artists/2yQZGNQJExPLfCB8kfTD88",
          "id" : "2yQZGNQJExPLfCB8kfTD88",
          "name" : "Andrey Jackson",
          "type" : "artist",
          "uri" : "spotify:artist:2yQZGNQJExPLfCB8kfTD88"
        } ],
        "external_urls" : {
          "spotify" : "https://open.spotify.com/album/1RoX8hyn3SCtQGhqL7BiIr"
        },
        "href" : "https://api.spotify.com/v1/albums/1RoX8hyn3SCtQGhqL7BiIr",
        "id" : "1RoX8hyn3SCtQGhqL7BiIr",
        "images" : [ {
          "height" : 640,
          "url" : "https://i.scdn.co/image/ab67616d0000b273216269e70d1a7d605fc97175",
          "width" : 640
        }, {
          "height" : 300,
          "url" : "https://i.scdn.co/image/ab67616d00001e02216269e70d1a7d605fc97175",
          "width" : 300
        }, {
          "height" : 64,
          "url" : "https://i.scdn.co/image/ab67616d00004851216269e70d1a7d605fc97175",
          "width" : 64
        } ],
        "name" : "Christian Hymns for Easter, Organ Accompaniments (The Church Organist Series)",
        "release_date" : "2015-10-15",
        "release_date_precision" : "day",
        "total_tracks" : 40,
        "type" : "album",
        "uri" : "spotify:album:1RoX8hyn3SCtQGhqL7BiIr"
      },
      "artists" : [ {
        "external_urls" : {
          "spotify" : "https://open.spotify.com/artist/2yQZGNQJExPLfCB8kfTD88"
        },
        "href" : "https://api.spotify.com/v1/artists/2yQZGNQJExPLfCB8kfTD88",
        "id" : "2yQZGNQJExPLfCB8kfTD88",
        "name" : "Andrey Jackson",
        "type" : "artist",
        "uri" : "spotify:artist:2yQZGNQJExPLfCB8kfTD88"
      } ],
      "disc_number" : 1,
      "duration_ms" : 106925,
      "explicit" : false,
      "external_ids" : {
        "isrc" : "GB-SMU-23-62397"
      },
      "external_urls" : {
        "spotify" : "https://open.spotify.com/track/1wnfxiqLzIOBRMv2ayoOwu"
      },
      "href" : "https://api.spotify.com/v1/tracks/1wnfxiqLzIOBRMv2ayoOwu",
      "id" : "1wnfxiqLzIOBRMv2ayoOwu",
      "is_local" : false,
      "is_playable" : true,
      "name" : "In the Cross of Christ I Glory",
      "popularity" : 4,
      "preview_url" : "https://p.scdn.co/mp3-preview/309872e8ba5b04445c0343726d11bf72fc76e32c?cid=774b29d4f13844c495f206cafdad9c86",
      "track_number" : 21,
      "type" : "track",
      "uri" : "spotify:track:1wnfxiqLzIOBRMv2ayoOwu"
    }, {
      "album" : {
        "album_type" : "album",
        "artists" : [ {
          "external_urls" : {
            "spotify" : "https://open.spotify.com/artist/4ytU0QDHcXHIW8RwHBZXRF"
          },
          "href" : "https://api.spotify.com/v1/artists/4ytU0QDHcXHIW8RwHBZXRF",
          "id" : "4ytU0QDHcXHIW8RwHBZXRF",
          "name" : "The Worship Team",
          "type" : "artist",
          "uri" : "spotify:artist:4ytU0QDHcXHIW8RwHBZXRF"
        } ],
        "external_urls" : {
          "spotify" : "https://open.spotify.com/album/1tnBSsNqL3wBpIz2A59Bs2"
        },
        "href" : "https://api.spotify.com/v1/albums/1tnBSsNqL3wBpIz2A59Bs2",
        "id" : "1tnBSsNqL3wBpIz2A59Bs2",
        "images" : [ {
          "height" : 640,
          "url" : "https://i.scdn.co/image/ab67616d0000b273a040ff1a3d50df042e5f7b64",
          "width" : 640
        }, {
          "height" : 300,
          "url" : "https://i.scdn.co/image/ab67616d00001e02a040ff1a3d50df042e5f7b64",
          "width" : 300
        }, {
          "height" : 64,
          "url" : "https://i.scdn.co/image/ab67616d00004851a040ff1a3d50df042e5f7b64",
          "width" : 64
        } ],
        "name" : "The Worship Collection: Hymns",
        "release_date" : "2014-11-11",
        "release_date_precision" : "day",
        "total_tracks" : 45,
        "type" : "album",
        "uri" : "spotify:album:1tnBSsNqL3wBpIz2A59Bs2"
      },
      "artists" : [ {
        "external_urls" : {
          "spotify" : "https://open.spotify.com/artist/4ytU0QDHcXHIW8RwHBZXRF"
        },
        "href" : "https://api.spotify.com/v1/artists/4ytU0QDHcXHIW8RwHBZXRF",
        "id" : "4ytU0QDHcXHIW8RwHBZXRF",
        "name" : "The Worship Team",
        "type" : "artist",
        "uri" : "spotify:artist:4ytU0QDHcXHIW8RwHBZXRF"
      } ],
      "disc_number" : 1,
      "duration_ms" : 148520,
      "explicit" : false,
      "external_ids" : {
        "isrc" : "USACX1401656"
      },
      "external_urls" : {
        "spotify" : "https://open.spotify.com/track/4avKSya843lN1fX0yUedZP"
      },
      "href" : "https://api.spotify.com/v1/tracks/4avKSya843lN1fX0yUedZP",
      "id" : "4avKSya843lN1fX0yUedZP",
      "is_local" : false,
      "is_playable" : true,
      "name" : "In The Cross Of Christ I Glory",
      "popularity" : 3,
      "preview_url" : "https://p.scdn.co/mp3-preview/bb79cc2633ab8b888989e49ff11ad639189c5a1b?cid=774b29d4f13844c495f206cafdad9c86",
      "track_number" : 2,
      "type" : "track",
      "uri" : "spotify:track:4avKSya843lN1fX0yUedZP"
    }, {
      "album" : {
        "album_type" : "album",
        "artists" : [ {
          "external_urls" : {
            "spotify" : "https://open.spotify.com/artist/3N006BDeLLe1MHZhNSdLf9"
          },
          "href" : "https://api.spotify.com/v1/artists/3N006BDeLLe1MHZhNSdLf9",
          "id" : "3N006BDeLLe1MHZhNSdLf9",
          "name" : "Ocean Hills Church",
          "type" : "artist",
          "uri" : "spotify:artist:3N006BDeLLe1MHZhNSdLf9"
        } ],
        "external_urls" : {
          "spotify" : "https://open.spotify.com/album/0gDRLhP6DpisFimutB6TNF"
        },
        "href" : "https://api.spotify.com/v1/albums/0gDRLhP6DpisFimutB6TNF",
        "id" : "0gDRLhP6DpisFimutB6TNF",
        "images" : [ {
          "height" : 640,
          "url" : "https://i.scdn.co/image/ab67616d0000b273a755a991b45f1ba8afe62948",
          "width" : 640
        }, {
          "height" : 300,
          "url" : "https://i.scdn.co/image/ab67616d00001e02a755a991b45f1ba8afe62948",
          "width" : 300
        }, {
          "height" : 64,
          "url" : "https://i.scdn.co/image/ab67616d00004851a755a991b45f1ba8afe62948",
          "width" : 64
        } ],
        "name" : "Unto the King",
        "release_date" : "2008-01-01",
        "release_date_precision" : "day",
        "total_tracks" : 12,
        "type" : "album",
        "uri" : "spotify:album:0gDRLhP6DpisFimutB6TNF"
      },
      "artists" : [ {
        "external_urls" : {
          "spotify" : "https://open.spotify.com/artist/3N006BDeLLe1MHZhNSdLf9"
        },
        "href" : "https://api.spotify.com/v1/artists/3N006BDeLLe1MHZhNSdLf9",
        "id" : "3N006BDeLLe1MHZhNSdLf9",
        "name" : "Ocean Hills Church",
        "type" : "artist",
        "uri" : "spotify:artist:3N006BDeLLe1MHZhNSdLf9"
      } ],
      "disc_number" : 1,
      "duration_ms" : 289506,
      "explicit" : false,
      "external_ids" : {
        "isrc" : "usl4q0834595"
      },
      "external_urls" : {
        "spotify" : "https://open.spotify.com/track/2kILCb4yZL8OXFq1JI4z4Z"
      },
      "href" : "https://api.spotify.com/v1/tracks/2kILCb4yZL8OXFq1JI4z4Z",
      "id" : "2kILCb4yZL8OXFq1JI4z4Z",
      "is_local" : false,
      "is_playable" : true,
      "name" : "In the Cross of Christ I Glory / It Is Well With My Soul",
      "popularity" : 4,
      "preview_url" : "https://p.scdn.co/mp3-preview/86fabdbe9f7e25281e56c073e84e514c60c3d614?cid=774b29d4f13844c495f206cafdad9c86",
      "track_number" : 8,
      "type" : "track",
      "uri" : "spotify:track:2kILCb4yZL8OXFq1JI4z4Z"
    }, {
      "album" : {
        "album_type" : "album",
        "artists" : [ {
          "external_urls" : {
            "spotify" : "https://open.spotify.com/artist/3hhzOXDdqsBPAlfImIRE7p"
          },
          "href" : "https://api.spotify.com/v1/artists/3hhzOXDdqsBPAlfImIRE7p",
          "id" : "3hhzOXDdqsBPAlfImIRE7p",
          "name" : "8 Bit Music Zoe",
          "type" : "artist",
          "uri" : "spotify:artist:3hhzOXDdqsBPAlfImIRE7p"
        } ],
        "external_urls" : {
          "spotify" : "https://open.spotify.com/album/39qKVOwybGtPpkUrW6nVgO"
        },
        "href" : "https://api.spotify.com/v1/albums/39qKVOwybGtPpkUrW6nVgO",
        "id" : "39qKVOwybGtPpkUrW6nVgO",
        "images" : [ {
          "height" : 640,
          "url" : "https://i.scdn.co/image/ab67616d0000b273aa1082765741b168193c0d63",
          "width" : 640
        }, {
          "height" : 300,
          "url" : "https://i.scdn.co/image/ab67616d00001e02aa1082765741b168193c0d63",
          "width" : 300
        }, {
          "height" : 64,
          "url" : "https://i.scdn.co/image/ab67616d00004851aa1082765741b168193c0d63",
          "width" : 64
        } ],
        "name" : "Hymns, Vol. III",
        "release_date" : "2020-03-06",
        "release_date_precision" : "day",
        "total_tracks" : 21,
        "type" : "album",
        "uri" : "spotify:album:39qKVOwybGtPpkUrW6nVgO"
      },
      "artists" : [ {
        "external_urls" : {
          "spotify" : "https://open.spotify.com/artist/3hhzOXDdqsBPAlfImIRE7p"
        },
        "href" : "https://api.spotify.com/v1/artists/3hhzOXDdqsBPAlfImIRE7p",
        "id" : "3hhzOXDdqsBPAlfImIRE7p",
        "name" : "8 Bit Music Zoe",
        "type" : "artist",
        "uri" : "spotify:artist:3hhzOXDdqsBPAlfImIRE7p"
      } ],
      "disc_number" : 1,
      "duration_ms" : 131526,
      "explicit" : false,
      "external_ids" : {
        "isrc" : "QZFZ62036758"
      },
      "external_urls" : {
        "spotify" : "https://open.spotify.com/track/6Z9TPcodaSIEZEDWb9kLVo"
      },
      "href" : "https://api.spotify.com/v1/tracks/6Z9TPcodaSIEZEDWb9kLVo",
      "id" : "6Z9TPcodaSIEZEDWb9kLVo",
      "is_local" : false,
      "is_playable" : true,
      "name" : "In the Cross of Christ Glory",
      "popularity" : 2,
      "preview_url" : "https://p.scdn.co/mp3-preview/1bd53982329e3401d2ce27e81e05f48e30255e9b?cid=774b29d4f13844c495f206cafdad9c86",
      "track_number" : 15,
      "type" : "track",
      "uri" : "spotify:track:6Z9TPcodaSIEZEDWb9kLVo"
    }, {
      "album" : {
        "album_type" : "album",
        "artists" : [ {
          "external_urls" : {
            "spotify" : "https://open.spotify.com/artist/5zkmOYaXiNHBKxKnnd1rvl"
          },
          "href" : "https://api.spotify.com/v1/artists/5zkmOYaXiNHBKxKnnd1rvl",
          "id" : "5zkmOYaXiNHBKxKnnd1rvl",
          "name" : "John Keys",
          "type" : "artist",
          "uri" : "spotify:artist:5zkmOYaXiNHBKxKnnd1rvl"
        } ],
        "external_urls" : {
          "spotify" : "https://open.spotify.com/album/7aRkA8YakmJDUluog513KD"
        },
        "href" : "https://api.spotify.com/v1/albums/7aRkA8YakmJDUluog513KD",
        "id" : "7aRkA8YakmJDUluog513KD",
        "images" : [ {
          "height" : 640,
          "url" : "https://i.scdn.co/image/ab67616d0000b27317a64ee28132c3429a433782",
          "width" : 640
        }, {
          "height" : 300,
          "url" : "https://i.scdn.co/image/ab67616d00001e0217a64ee28132c3429a433782",
          "width" : 300
        }, {
          "height" : 64,
          "url" : "https://i.scdn.co/image/ab67616d0000485117a64ee28132c3429a433782",
          "width" : 64
        } ],
        "name" : "Ultimate Hymn Organ Accompaniments, Vol. 38",
        "release_date" : "2014-07-30",
        "release_date_precision" : "day",
        "total_tracks" : 20,
        "type" : "album",
        "uri" : "spotify:album:7aRkA8YakmJDUluog513KD"
      },
      "artists" : [ {
        "external_urls" : {
          "spotify" : "https://open.spotify.com/artist/5zkmOYaXiNHBKxKnnd1rvl"
        },
        "href" : "https://api.spotify.com/v1/artists/5zkmOYaXiNHBKxKnnd1rvl",
        "id" : "5zkmOYaXiNHBKxKnnd1rvl",
        "name" : "John Keys",
        "type" : "artist",
        "uri" : "spotify:artist:5zkmOYaXiNHBKxKnnd1rvl"
      } ],
      "disc_number" : 1,
      "duration_ms" : 134490,
      "explicit" : false,
      "external_ids" : {
        "isrc" : "GBKPL1413554"
      },
      "external_urls" : {
        "spotify" : "https://open.spotify.com/track/0YAXqCWcjpPeYVKAfs7U7w"
      },
      "href" : "https://api.spotify.com/v1/tracks/0YAXqCWcjpPeYVKAfs7U7w",
      "id" : "0YAXqCWcjpPeYVKAfs7U7w",
      "is_local" : false,
      "is_playable" : true,
      "name" : "In the Cross of Christ I Glory (Cross of Jesus) - Instrumental Version",
      "popularity" : 0,
      "preview_url" : "https://p.scdn.co/mp3-preview/b3eae9082baa72359a2c86e304012ec25e077aef?cid=774b29d4f13844c495f206cafdad9c86",
      "track_number" : 12,
      "type" : "track",
      "uri" : "spotify:track:0YAXqCWcjpPeYVKAfs7U7w"
    }, {
      "album" : {
        "album_type" : "album",
        "artists" : [ {
          "external_urls" : {
            "spotify" : "https://open.spotify.com/artist/1sLpCr5xThZkGHLw4H0mNE"
          },
          "href" : "https://api.spotify.com/v1/artists/1sLpCr5xThZkGHLw4H0mNE",
          "id" : "1sLpCr5xThZkGHLw4H0mNE",
          "name" : "101 Strings Orchestra",
          "type" : "artist",
          "uri" : "spotify:artist:1sLpCr5xThZkGHLw4H0mNE"
        } ],
        "external_urls" : {
          "spotify" : "https://open.spotify.com/album/5L6EFVaMgA7sLhSQZzME2t"
        },
        "href" : "https://api.spotify.com/v1/albums/5L6EFVaMgA7sLhSQZzME2t",
        "id" : "5L6EFVaMgA7sLhSQZzME2t",
        "images" : [ {
          "height" : 640,
          "url" : "https://i.scdn.co/image/ab67616d0000b27380a2e7cec1d37bf84c54d558",
          "width" : 640
        }, {
          "height" : 300,
          "url" : "https://i.scdn.co/image/ab67616d00001e0280a2e7cec1d37bf84c54d558",
          "width" : 300
        }, {
          "height" : 64,
          "url" : "https://i.scdn.co/image/ab67616d0000485180a2e7cec1d37bf84c54d558",
          "width" : 64
        } ],
        "name" : "Great Songs Of Faith",
        "release_date" : "2001",
        "release_date_precision" : "year",
        "total_tracks" : 36,
        "type" : "album",
        "uri" : "spotify:album:5L6EFVaMgA7sLhSQZzME2t"
      },
      "artists" : [ {
        "external_urls" : {
          "spotify" : "https://open.spotify.com/artist/1sLpCr5xThZkGHLw4H0mNE"
        },
        "href" : "https://api.spotify.com/v1/artists/1sLpCr5xThZkGHLw4H0mNE",
        "id" : "1sLpCr5xThZkGHLw4H0mNE",
        "name" : "101 Strings Orchestra",
        "type" : "artist",
        "uri" : "spotify:artist:1sLpCr5xThZkGHLw4H0mNE"
      } ],
      "disc_number" : 3,
      "duration_ms" : 96733,
      "explicit" : false,
      "external_ids" : {
        "isrc" : "CAM460603257"
      },
      "external_urls" : {
        "spotify" : "https://open.spotify.com/track/0pBYWUhmhVstBAJ7yoxUpV"
      },
      "href" : "https://api.spotify.com/v1/tracks/0pBYWUhmhVstBAJ7yoxUpV",
      "id" : "0pBYWUhmhVstBAJ7yoxUpV",
      "is_local" : false,
      "is_playable" : true,
      "name" : "In The Cross Of Christ I Glory",
      "popularity" : 0,
      "preview_url" : "https://p.scdn.co/mp3-preview/fc6e499fa508a2fac14ca8320b86abc19b316dac?cid=774b29d4f13844c495f206cafdad9c86",
      "track_number" : 5,
      "type" : "track",
      "uri" : "spotify:track:0pBYWUhmhVstBAJ7yoxUpV"
    }, {
      "album" : {
        "album_type" : "album",
        "artists" : [ {
          "external_urls" : {
            "spotify" : "https://open.spotify.com/artist/45d3pteh2TnzUMMl27J4MY"
          },
          "href" : "https://api.spotify.com/v1/artists/45d3pteh2TnzUMMl27J4MY",
          "id" : "45d3pteh2TnzUMMl27J4MY",
          "name" : "Tommy Morgan",
          "type" : "artist",
          "uri" : "spotify:artist:45d3pteh2TnzUMMl27J4MY"
        } ],
        "external_urls" : {
          "spotify" : "https://open.spotify.com/album/1tjDAxJc42pAVbdohYACQU"
        },
        "href" : "https://api.spotify.com/v1/albums/1tjDAxJc42pAVbdohYACQU",
        "id" : "1tjDAxJc42pAVbdohYACQU",
        "images" : [ {
          "height" : 640,
          "url" : "https://i.scdn.co/image/ab67616d0000b273e8faa51bbce09d3ed755a26b",
          "width" : 640
        }, {
          "height" : 300,
          "url" : "https://i.scdn.co/image/ab67616d00001e02e8faa51bbce09d3ed755a26b",
          "width" : 300
        }, {
          "height" : 64,
          "url" : "https://i.scdn.co/image/ab67616d00004851e8faa51bbce09d3ed755a26b",
          "width" : 64
        } ],
        "name" : "Songs of Faith",
        "release_date" : "2001-06-01",
        "release_date_precision" : "day",
        "total_tracks" : 16,
        "type" : "album",
        "uri" : "spotify:album:1tjDAxJc42pAVbdohYACQU"
      },
      "artists" : [ {
        "external_urls" : {
          "spotify" : "https://open.spotify.com/artist/45d3pteh2TnzUMMl27J4MY"
        },
        "href" : "https://api.spotify.com/v1/artists/45d3pteh2TnzUMMl27J4MY",
        "id" : "45d3pteh2TnzUMMl27J4MY",
        "name" : "Tommy Morgan",
        "type" : "artist",
        "uri" : "spotify:artist:45d3pteh2TnzUMMl27J4MY"
      } ],
      "disc_number" : 1,
      "duration_ms" : 167266,
      "explicit" : false,
      "external_ids" : {
        "isrc" : "ushm21238338"
      },
      "external_urls" : {
        "spotify" : "https://open.spotify.com/track/1PfpO9Vpg5oUQrhraCGXk7"
      },
      "href" : "https://api.spotify.com/v1/tracks/1PfpO9Vpg5oUQrhraCGXk7",
      "id" : "1PfpO9Vpg5oUQrhraCGXk7",
      "is_local" : false,
      "is_playable" : true,
      "name" : "In the Cross of Christ I Glory",
      "popularity" : 0,
      "preview_url" : "https://p.scdn.co/mp3-preview/ddb39a6a2d2002d86a2b1eb712c3a8230393f776?cid=774b29d4f13844c495f206cafdad9c86",
      "track_number" : 4,
      "type" : "track",
      "uri" : "spotify:track:1PfpO9Vpg5oUQrhraCGXk7"
    }, {
      "album" : {
        "album_type" : "album",
        "artists" : [ {
          "external_urls" : {
            "spotify" : "https://open.spotify.com/artist/1rV9GCzWly35rxGfF4hZit"
          },
          "href" : "https://api.spotify.com/v1/artists/1rV9GCzWly35rxGfF4hZit",
          "id" : "1rV9GCzWly35rxGfF4hZit",
          "name" : "San Francisco Grace Cathedral Choir of Men and Boys",
          "type" : "artist",
          "uri" : "spotify:artist:1rV9GCzWly35rxGfF4hZit"
        }, {
          "external_urls" : {
            "spotify" : "https://open.spotify.com/artist/2K5MHgh3sXASsen05J7bE6"
          },
          "href" : "https://api.spotify.com/v1/artists/2K5MHgh3sXASsen05J7bE6",
          "id" : "2K5MHgh3sXASsen05J7bE6",
          "name" : "Thomas Joyce",
          "type" : "artist",
          "uri" : "spotify:artist:2K5MHgh3sXASsen05J7bE6"
        }, {
          "external_urls" : {
            "spotify" : "https://open.spotify.com/artist/7yENdOauezMgHFbZwHfNAw"
          },
          "href" : "https://api.spotify.com/v1/artists/7yENdOauezMgHFbZwHfNAw",
          "id" : "7yENdOauezMgHFbZwHfNAw",
          "name" : "Benjamin Bachmann",
          "type" : "artist",
          "uri" : "spotify:artist:7yENdOauezMgHFbZwHfNAw"
        } ],
        "external_urls" : {
          "spotify" : "https://open.spotify.com/album/0v6W8lEe0xy7sIq7tFdpTR"
        },
        "href" : "https://api.spotify.com/v1/albums/0v6W8lEe0xy7sIq7tFdpTR",
        "id" : "0v6W8lEe0xy7sIq7tFdpTR",
        "images" : [ {
          "height" : 640,
          "url" : "https://i.scdn.co/image/ab67616d0000b273f89d28c2bf44be43836a0869",
          "width" : 640
        }, {
          "height" : 300,
          "url" : "https://i.scdn.co/image/ab67616d00001e02f89d28c2bf44be43836a0869",
          "width" : 300
        }, {
          "height" : 64,
          "url" : "https://i.scdn.co/image/ab67616d00004851f89d28c2bf44be43836a0869",
          "width" : 64
        } ],
        "name" : "Joy to the Heart",
        "release_date" : "2019-08-02",
        "release_date_precision" : "day",
        "total_tracks" : 16,
        "type" : "album",
        "uri" : "spotify:album:0v6W8lEe0xy7sIq7tFdpTR"
      },
      "artists" : [ {
        "external_urls" : {
          "spotify" : "https://open.spotify.com/artist/2PHk0n3kHQi6Mbr7Ba9ZEo"
        },
        "href" : "https://api.spotify.com/v1/artists/2PHk0n3kHQi6Mbr7Ba9ZEo",
        "id" : "2PHk0n3kHQi6Mbr7Ba9ZEo",
        "name" : "Bruce Neswick",
        "type" : "artist",
        "uri" : "spotify:artist:2PHk0n3kHQi6Mbr7Ba9ZEo"
      }, {
        "external_urls" : {
          "spotify" : "https://open.spotify.com/artist/1rV9GCzWly35rxGfF4hZit"
        },
        "href" : "https://api.spotify.com/v1/artists/1rV9GCzWly35rxGfF4hZit",
        "id" : "1rV9GCzWly35rxGfF4hZit",
        "name" : "San Francisco Grace Cathedral Choir of Men and Boys",
        "type" : "artist",
        "uri" : "spotify:artist:1rV9GCzWly35rxGfF4hZit"
      }, {
        "external_urls" : {
          "spotify" : "https://open.spotify.com/artist/2K5MHgh3sXASsen05J7bE6"
        },
        "href" : "https://api.spotify.com/v1/artists/2K5MHgh3sXASsen05J7bE6",
        "id" : "2K5MHgh3sXASsen05J7bE6",
        "name" : "Thomas Joyce",
        "type" : "artist",
        "uri" : "spotify:artist:2K5MHgh3sXASsen05J7bE6"
      }, {
        "external_urls" : {
          "spotify" : "https://open.spotify.com/artist/7yENdOauezMgHFbZwHfNAw"
        },
        "href" : "https://api.spotify.com/v1/artists/7yENdOauezMgHFbZwHfNAw",
        "id" : "7yENdOauezMgHFbZwHfNAw",
        "name" : "Benjamin Bachmann",
        "type" : "artist",
        "uri" : "spotify:artist:7yENdOauezMgHFbZwHfNAw"
      } ],
      "disc_number" : 1,
      "duration_ms" : 201000,
      "explicit" : false,
      "external_ids" : {
        "isrc" : "USR9N1124906"
      },
      "external_urls" : {
        "spotify" : "https://open.spotify.com/track/2h0sm6PGtP8P3rJ8PgA5E2"
      },
      "href" : "https://api.spotify.com/v1/tracks/2h0sm6PGtP8P3rJ8PgA5E2",
      "id" : "2h0sm6PGtP8P3rJ8PgA5E2",
      "is_local" : false,
      "is_playable" : true,
      "name" : "In the Cross of Christ I Glory",
      "popularity" : 0,
      "preview_url" : "https://p.scdn.co/mp3-preview/0583e35dceeb18398bfa6dc651cf8f29edc5f6a5?cid=774b29d4f13844c495f206cafdad9c86",
      "track_number" : 6,
      "type" : "track",
      "uri" : "spotify:track:2h0sm6PGtP8P3rJ8PgA5E2"
    } ],
    "limit" : 10,
    "next" : "https://api.spotify.com/v1/search?query=In+Cross+of+Christ+I+Glory&type=track&market=US&offset=15&limit=10",
    "offset" : 5,
    "previous" : "https://api.spotify.com/v1/search?query=In+Cross+of+Christ+I+Glory&type=track&market=US&offset=0&limit=10",
    "total" : 55
  }
}