{
  "tracks" : {
    "href" : "https://api.spotify.com/v1/search?query=On+Jordan%E2%80%99s+Stormy+Banks&type=track&market=US&offset=5&limit=10",
    "items" : [ {
      "album" : {
        "album_type" : "album",
        "artists" : [ {
          "external_urls" : {
            "spotify" : "https://open.spotify.com/artist/16dGAOg7n1wfPuLLwfdwur"
          },
          "href" : "https://api.spotify.com/v1/artists/16dGAOg7n1wfPuLLwfdwur",
          "id" : "16dGAOg7n1wfPuLLwfdwur",
          "name" : "Acapeldridge",
          "type" : "artist",
          "uri" : "spotify:artist:16dGAOg7n1wfPuLLwfdwur"
        } ],
        "external_urls" : {
          "spotify" : "https://open.spotify.com/album/7sR6rl1DOBRDAgungdFaa1"
        },
        "href" : "https://api.spotify.com/v1/albums/7sR6rl1DOBRDAgungdFaa1",
        "id" : "7sR6rl1DOBRDAgungdFaa1",
        "images" : [ {
          "height" : 640,
          "url" : "https://i.scdn.co/image/ab67616d0000b2739e5407eb5fd8b7e690c7965b",
          "width" : 640
        }, {
          "height" : 300,
          "url" : "https://i.scdn.co/image/ab67616d00001e029e5407eb5fd8b7e690c7965b",
          "width" : 300
        }, {
          "height" : 64,
          "url" : "https://i.scdn.co/image/ab67616d000048519e5407eb5fd8b7e690c7965b",
          "width" : 64
        } ],
        "name" : "Whatever Is Noble",
        "release_date" : "2018-05-18",
        "release_date_precision" : "day",
        "total_tracks" : 20,
        "type" : "album",
        "uri" : "spotify:album:7sR6rl1DOBRDAgungdFaa1"
      },
      "artists" : [ {
        "external_urls" : {
          "spotify" : "https://open.spotify.com/artist/16dGAOg7n1wfPuLLwfdwur"
        },
        "href" : "https://api.spotify.com/v1/artists/16dGAOg7n1wfPuLLwfdwur",
        "id" : "16dGAOg7n1wfPuLLwfdwur",
        "name" : "Acapeldridge",
        "type" : "artist",
        "uri" : "spotify:artist:16dGAOg7n1wfPuLLwfdwur"
      } ],
      "disc_number" : 1,
      "duration_ms" : 109920,
      "explicit" : false,
      "external_ids" : {
        "isrc" : "usdy41815879"
      },
      "external_urls" : {
        "spotify" : "https://open.spotify.com/track/7cjK8LCUfFW19DjShRUxCq"
      },
      "href" : "https://api.spotify.com/v1/tracks/7cjK8LCUfFW19DjShRUxCq",
      "id" : "7cjK8LCUfFW19DjShRUxCq",
      "is_local" : false,
      "is_playable" : true,
      "name" : "On Jordan's Stormy Banks",
      "popularity" : 19,
      "preview_url" : "https://p.scdn.co/mp3-preview/231586ae7886826a41d733ee3ebd29b17ca816b7?cid=774b29d4f13844c495f206cafdad9c86",
      "track_number" : 2,
      "type" : "track",
      "uri" : "spotify:track:7cjK8LCUfFW19DjShRUxCq"
    }, {
      "album" : {
        "album_type" : "album",
        "artists" : [ {
          "external_urls" : {
            "spotify" : "https://open.spotify.com/artist/11sAWrpIkFUPQlXoQqpeBV"
          },
          "href" : "https://api.spotify.com/v1/artists/11sAWrpIkFUPQlXoQqpeBV",
          "id" : "11sAWrpIkFUPQlXoQqpeBV",
          "name" : "Bill & Gloria Gaither",
          "type" : "artist",
          "uri" : "spotify:artist:11sAWrpIkFUPQlXoQqpeBV"
        } ],
        "external_urls" : {
          "spotify" : "https://open.spotify.com/album/4OYy5718s3tVrpk7KGEWpV"
        },
        "href" : "https://api.spotify.com/v1/albums/4OYy5718s3tVrpk7KGEWpV",
        "id" : "4OYy5718s3tVrpk7KGEWpV",
        "images" : [ {
          "height" : 640,
          "url" : "https://i.scdn.co/image/ab67616d0000b273f9e25753d77656726b91887e",
          "width" : 640
        }, {
          "height" : 300,
          "url" : "https://i.scdn.co/image/ab67616d00001e02f9e25753d77656726b91887e",
          "width" : 300
        }, {
          "height" : 64,
          "url" : "https://i.scdn.co/image/ab67616d00004851f9e25753d77656726b91887e",
          "width" : 64
        } ],
        "name" : "Church In The Wildwood",
        "release_date" : "2005-01-01",
        "release_date_precision" : "day",
        "total_tracks" : 21,
        "type" : "album",
        "uri" : "spotify:album:4OYy5718s3tVrpk7KGEWpV"
      },
      "artists" : [ {
        "external_urls" : {
          "spotify" : "https://open.spotify.com/artist/11sAWrpIkFUPQlXoQqpeBV"
        },
        "href" : "https://api.spotify.com/v1/artists/11sAWrpIkFUPQlXoQqpeBV",
        "id" : "11sAWrpIkFUPQlXoQqpeBV",
        "name" : "Bill & Gloria Gaither",
        "type" : "artist",
        "uri" : "spotify:artist:11sAWrpIkFUPQlXoQqpeBV"
      } ],
      "disc_number" : 1,
      "duration_ms" : 109346,
      "explicit" : false,
      "external_ids" : {
        "isrc" : "USNPD0714190"
      },
      "external_urls" : {
        "spotify" : "https://open.spotify.com/track/44yuFLjmlD3LPBYYO5zXVM"
      },
      "href" : "https://api.spotify.com/v1/tracks/44yuFLjmlD3LPBYYO5zXVM",
      "id" : "44yuFLjmlD3LPBYYO5zXVM",
      "is_local" : false,
      "is_playable" : true,
      "name" : "On Jordan's Stormy Banks I Stand",
      "popularity" : 13,
      "preview_url" : null,
      "track_number" : 14,
      "type" : "track",
      "uri" : "spotify:track:44yuFLjmlD3LPBYYO5zXVM"
    }, {
      "album" : {
        "album_type" : "compilation",
        "artists" : [ {
          "external_urls" : {
            "spotify" : "https://open.spotify.com/artist/0LyfQWJT6nXafLPZqxe9Of"
          },
          "href" : "https://api.spotify.com/v1/artists/0LyfQWJT6nXafLPZqxe9Of",
          "id" : "0LyfQWJT6nXafLPZqxe9Of",
          "name" : "Various Artists",
          "type" : "artist",
          "uri" : "spotify:artist:0LyfQWJT6nXafLPZqxe9Of"
        } ],
        "external_urls" : {
          "spotify" : "https://open.spotify.com/album/5vFaT7ClmXgUJTOVC1S4u3"
        },
        "href" : "https://api.spotify.com/v1/albums/5vFaT7ClmXgUJTOVC1S4u3",
        "id" : "5vFaT7ClmXgUJTOVC1S4u3",
        "images" : [ {
          "height" : 640,
          "url" : "https://i.scdn.co/image/ab67616d0000b2735057e0bd807c5a704139950b",
          "width" : 640
        }, {
          "height" : 300,
          "url" : "https://i.scdn.co/image/ab67616d00001e025057e0bd807c5a704139950b",
          "width" : 300
        }, {
          "height" : 64,
          "url" : "https://i.scdn.co/image/ab67616d000048515057e0bd807c5a704139950b",
          "width" : 64
        } ],
        "name" : "50 Classic Hymns",
        "release_date" : "2008-01-01",
        "release_date_precision" : "day",
        "total_tracks" : 50,
        "type" : "album",
        "uri" : "spotify:album:5vFaT7ClmXgUJTOVC1S4u3"
      },
      "artists" : [ {
        "external_urls" : {
          "spotify" : "https://open.spotify.com/artist/2JMLMt7Cr0PdJyrMrvNaZz"
        },
        "href" : "https://api.spotify.com/v1/artists/2JMLMt7Cr0PdJyrMrvNaZz",
        "id" : "2JMLMt7Cr0PdJyrMrvNaZz",
        "name" : "Victory In Jesus! 32 Favorite Hymns And Gospel Songs Performers",
        "type" : "artist",
        "uri" : "spotify:artist:2JMLMt7Cr0PdJyrMrvNaZz"
      } ],
      "disc_number" : 2,
      "duration_ms" : 170920,
      "explicit" : false,
      "external_ids" : {
        "isrc" : "USSP39747606"
      },
      "external_urls" : {
        "spotify" : "https://open.spotify.com/track/1zUIw6qdJ5BWi3UXHxcF6S"
      },
      "href" : "https://api.spotify.com/v1/tracks/1zUIw6qdJ5BWi3UXHxcF6S",
      "id" : "1zUIw6qdJ5BWi3UXHxcF6S",
      "is_local" : false,
      "is_playable" : true,
      "name" : "Shall We Gather At The River/On Jordan's Stormy Banks/Come, Thou Fount Of Every Blessing",
      "popularity" : 14,
      "preview_url" : null,
      "track_number" : 14,
      "type" : "track",
      "uri" : "spotify:track:1zUIw6qdJ5BWi3UXHxcF6S"
    }, {
      "album" : {
        "album_type" : "album",
        "artists" : [ {
          "external_urls" : {
            "spotify" : "https://open.spotify.com/artist/7DpnqUope0VrBdoh4T5Uod"
          },
          "href" : "https://api.spotify.com/v1/artists/7DpnqUope0VrBdoh4T5Uod",
          "id" : "7DpnqUope0VrBdoh4T5Uod",
          "name" : "Mark Lowry",
          "type" : "artist",
          "uri" : "spotify:artist:7DpnqUope0VrBdoh4T5Uod"
        } ],
        "external_urls" : {
          "spotify" : "https://open.spotify.com/album/0U0MLhzZgdSCUSEwMvvCRM"
        },
        "href" : "https://api.spotify.com/v1/albums/0U0MLhzZgdSCUSEwMvvCRM",
        "id" : "0U0MLhzZgdSCUSEwMvvCRM",
        "images" : [ {
          "height" : 640,
          "url" : "https://i.scdn.co/image/ab67616d0000b2733af4718a00ffc63f2695c26c",
          "width" : 640
        }, {
          "height" : 300,
          "url" : "https://i.scdn.co/image/ab67616d00001e023af4718a00ffc63f2695c26c",
          "width" : 300
        }, {
          "height" : 64,
          "url" : "https://i.scdn.co/image/ab67616d000048513af4718a00ffc63f2695c26c",
          "width" : 64
        } ],
        "name" : "Dogs Go To Heaven (Live)",
        "release_date" : "2016-05-20",
        "release_date_precision" : "day",
        "total_tracks" : 20,
        "type" : "album",
        "uri" : "spotify:album:0U0MLhzZgdSCUSEwMvvCRM"
      },
      "artists" : [ {
        "external_urls" : {
          "spotify" : "https://open.spotify.com/artist/7DpnqUope0VrBdoh4T5Uod"
        },
        "href" : "https://api.spotify.com/v1/artists/7DpnqUope0VrBdoh4T5Uod",
        "id" : "7DpnqUope0VrBdoh4T5Uod",
        "name" : "Mark Lowry",
        "type" : "artist",
        "uri" : "spotify:artist:7DpnqUope0VrBdoh4T5Uod"
      }, {
        "external_urls" : {
          "spotify" : "https://open.spotify.com/artist/5C8kymLzxGEAPJ3aNdFciB"
        },
        "href" : "https://api.spotify.com/v1/artists/5C8kymLzxGEAPJ3aNdFciB",
        "id" : "5C8kymLzxGEAPJ3aNdFciB",
        "name" : "The Martins",
        "type" : "artist",
        "uri" : "spotify:artist:5C8kymLzxGEAPJ3aNdFciB"
      } ],
      "disc_number" : 1,
      "duration_ms" : 146093,
      "explicit" : false,
      "external_ids" : {
        "isrc" : "QMG3S1600014"
      },
      "external_urls" : {
        "spotify" : "https://open.spotify.com/track/5gm2s6FvYD8lODDtd9TcNO"
      },
      "href" : "https://api.spotify.com/v1/tracks/5gm2s6FvYD8lODDtd9TcNO",
      "id" : "5gm2s6FvYD8lODDtd9TcNO",
      "is_local" : false,
      "is_playable" : true,
      "name" : "On Jordan's Stormy Banks - Live",
      "popularity" : 10,
      "preview_url" : null,
      "track_number" : 14,
      "type" : "track",
      "uri" : "spotify:track:5gm2s6FvYD8lODDtd9TcNO"
    }, {
      "album" : {
        "album_type" : "album",
        "artists" : [ {
          "external_urls" : {
            "spotify" : "https://open.spotify.com/artist/0NZuS6qVqBkx3AWQsjr2fx"
          },
          "href" : "https://api.spotify.com/v1/artists/0NZuS6qVqBkx3AWQsjr2fx",
          "id" : "0NZuS6qVqBkx3AWQsjr2fx",
          "name" : "The Emmanuel Quartet",
          "type" : "artist",
          "uri" : "spotify:artist:0NZuS6qVqBkx3AWQsjr2fx"
        } ],
        "external_urls" : {
          "spotify" : "https://open.spotify.com/album/3vRZWX6Nf7Vp96lUzLMlao"
        },
        "href" : "https://api.spotify.com/v1/albums/3vRZWX6Nf7Vp96lUzLMlao",
        "id" : "3vRZWX6Nf7Vp96lUzLMlao",
        "images" : [ {
          "height" : 640,
          "url" : "https://i.scdn.co/image/ab67616d0000b273c0eb985d6f74d5627dd46328",
          "width" : 640
        }, {
          "height" : 300,
          "url" : "https://i.scdn.co/image/ab67616d00001e02c0eb985d6f74d5627dd46328",
          "width" : 300
        }, {
          "height" : 64,
          "url" : "https://i.scdn.co/image/ab67616d00004851c0eb985d6f74d5627dd46328",
          "width" : 64
        } ],
        "name" : "Hymns: A Legacy of Inspiration",
        "release_date" : "2015-06-01",
        "release_date_precision" : "day",
        "total_tracks" : 18,
        "type" : "album",
        "uri" : "spotify:album:3vRZWX6Nf7Vp96lUzLMlao"
      },
      "artists" : [ {
        "external_urls" : {
          "spotify" : "https://open.spotify.com/artist/0NZuS6qVqBkx3AWQsjr2fx"
        },
        "href" : "https://api.spotify.com/v1/artists/0NZuS6qVqBkx3AWQsjr2fx",
        "id" : "0NZuS6qVqBkx3AWQsjr2fx",
        "name" : "The Emmanuel Quartet",
        "type" : "artist",
        "uri" : "spotify:artist:0NZuS6qVqBkx3AWQsjr2fx"
      } ],
      "disc_number" : 1,
      "duration_ms" : 190595,
      "explicit" : false,
      "external_ids" : {
        "isrc" : "TCACF1517856"
      },
      "external_urls" : {
        "spotify" : "https://open.spotify.com/track/4vyjTtkW2sGokYAc8BedLv"
      },
      "href" : "https://api.spotify.com/v1/tracks/4vyjTtkW2sGokYAc8BedLv",
      "id" : "4vyjTtkW2sGokYAc8BedLv",
      "is_local" : false,
      "is_playable" : true,
      "name" : "On Jordan’s Stormy Banks",
      "popularity" : 8,
      "preview_url" : "https://p.scdn.co/mp3-preview/544ad2721b0108207177fb809cc02addc4d324e6?cid=774b29d4f13844c495f206cafdad9c86",
      "track_number" : 13,
      "type" : "track",
      "uri" : "spotify:track:4vyjTtkW2sGokYAc8BedLv"
    }, {
      "album" : {
        "album_type" : "album",
        "artists" : [ {
          "external_urls" : {
            "spotify" : "https://open.spotify.com/artist/52DLvFAmyEIiIZzzaKx7e3"
          },
          "href" : "https://api.spotify.com/v1/artists/52DLvFAmyEIiIZzzaKx7e3",
          "id" : "52DLvFAmyEIiIZzzaKx7e3",
          "name" : "Majesty Strings",
          "type" : "artist",
          "uri" : "spotify:artist:52DLvFAmyEIiIZzzaKx7e3"
        } ],
        "external_urls" : {
          "spotify" : "https://open.spotify.com/album/02J7BrQlw6aeKCQKv4cygo"
        },
        "href" : "https://api.spotify.com/v1/albums/02J7BrQlw6aeKCQKv4cygo",
        "id" : "02J7BrQlw6aeKCQKv4cygo",
        "images" : [ {
          "height" : 640,
          "url" : "https://i.scdn.co/image/ab67616d0000b273bad67ecc0fb2656a1bf77ac0",
          "width" : 640
        }, {
          "height" : 300,
          "url" : "https://i.scdn.co/image/ab67616d00001e02bad67ecc0fb2656a1bf77ac0",
          "width" : 300
        }, {
          "height" : 64,
          "url" : "https://i.scdn.co/image/ab67616d00004851bad67ecc0fb2656a1bf77ac0",
          "width" : 64
        } ],
        "name" : "Majesty Strings III",
        "release_date" : "1993-10-15",
        "release_date_precision" : "day",
        "total_tracks" : 14,
        "type" : "album",
        "uri" : "spotify:album:02J7BrQlw6aeKCQKv4cygo"
      },
      "artists" : [ {
        "external_urls" : {
          "spotify" : "https://open.spotify.com/artist/52DLvFAmyEIiIZzzaKx7e3"
        },
        "href" : "https://api.spotify.com/v1/artists/52DLvFAmyEIiIZzzaKx7e3",
        "id" : "52DLvFAmyEIiIZzzaKx7e3",
        "name" : "Majesty Strings",
        "type" : "artist",
        "uri" : "spotify:artist:52DLvFAmyEIiIZzzaKx7e3"
      } ],
      "disc_number" : 1,
      "duration_ms" : 174600,
      "explicit" : false,
      "external_ids" : {
        "isrc" : "uscgh1696314"
      },
      "external_urls" : {
        "spotify" : "https://open.spotify.com/track/5UTryBG87YOP0Kqt8HlHSf"
      },
      "href" : "https://api.spotify.com/v1/tracks/5UTryBG87YOP0Kqt8HlHSf",
      "id" : "5UTryBG87YOP0Kqt8HlHSf",
      "is_local" : false,
      "is_playable" : true,
      "name" : "On Jordan's Stormy Banks",
      "popularity" : 7,
      "preview_url" : "https://p.scdn.co/mp3-preview/f315015102900f20e9b0243405ce34d43cdb5fd1?cid=774b29d4f13844c495f206cafdad9c86",
      "track_number" : 11,
      "type" : "track",
      "uri" : "spotify:track:5UTryBG87YOP0Kqt8HlHSf"
    }, {
      "album" : {
        "album_type" : "compilation",
        "artists" : [ {
          "external_urls" : {
            "spotify" : "https://open.spotify.com/artist/0LyfQWJT6nXafLPZqxe9Of"
          },
          "href" : "https://api.spotify.com/v1/artists/0LyfQWJT6nXafLPZqxe9Of",
          "id" : "0LyfQWJT6nXafLPZqxe9Of",
          "name" : "Various Artists",
          "type" : "artist",
          "uri" : "spotify:artist:0LyfQWJT6nXafLPZqxe9Of"
        } ],
        "external_urls" : {
          "spotify" : "https://open.spotify.com/album/2MmiozIeqpE1uvKhebKwTs"
        },
        "href" : "https://api.spotify.com/v1/albums/2MmiozIeqpE1uvKhebKwTs",
        "id" : "2MmiozIeqpE1uvKhebKwTs",
        "images" : [ {
          "height" : 640,
          "url" : "https://i.scdn.co/image/ab67616d0000b2735e7ffb84a1e987cb4e01012d",
          "width" : 640
        }, {
          "height" : 300,
          "url" : "https://i.scdn.co/image/ab67616d00001e025e7ffb84a1e987cb4e01012d",
          "width" : 300
        }, {
          "height" : 64,
          "url" : "https://i.scdn.co/image/ab67616d000048515e7ffb84a1e987cb4e01012d",
          "width" : 64
        } ],
        "name" : "Victory In Jesus! 32 Favorite Hymns And Gospel Songs",
        "release_date" : "1997-01-01",
        "release_date_precision" : "day",
        "total_tracks" : 15,
        "type" : "album",
        "uri" : "spotify:album:2MmiozIeqpE1uvKhebKwTs"
      },
      "artists" : [ {
        "external_urls" : {
          "spotify" : "https://open.spotify.com/artist/2JMLMt7Cr0PdJyrMrvNaZz"
        },
        "href" : "https://api.spotify.com/v1/artists/2JMLMt7Cr0PdJyrMrvNaZz",
        "id" : "2JMLMt7Cr0PdJyrMrvNaZz",
        "name" : "Victory In Jesus! 32 Favorite Hymns And Gospel Songs Performers",
        "type" : "artist",
        "uri" : "spotify:artist:2JMLMt7Cr0PdJyrMrvNaZz"
      } ],
      "disc_number" : 1,
      "duration_ms" : 172440,
      "explicit" : false,
      "external_ids" : {
        "isrc" : "USSP39747606"
      },
      "external_urls" : {
        "spotify" : "https://open.spotify.com/track/2ZIZ77beH612JPO0uYuISu"
      },
      "href" : "https://api.spotify.com/v1/tracks/2ZIZ77beH612JPO0uYuISu",
      "id" : "2ZIZ77beH612JPO0uYuISu",
      "is_local" : false,
      "is_playable" : true,
      "name" : "Shall We Gather At The River/On Jordan's Stormy Banks/Come, Thou Fount Of Every Blessing",
      "popularity" : 9,
      "preview_url" : null,
      "track_number" : 7,
      "type" : "track",
      "uri" : "spotify:track:2ZIZ77beH612JPO0uYuISu"
    }, {
      "album" : {
        "album_type" : "album",
        "artists" : [ {
          "external_urls" : {
            "spotify" : "https://open.spotify.com/artist/0zYyfhX87rISSc9dyJQK5t"
          },
          "href" : "https://api.spotify.com/v1/artists/0zYyfhX87rISSc9dyJQK5t",
          "id" : "0zYyfhX87rISSc9dyJQK5t",
          "name" : "Craig Duncan",
          "type" : "artist",
          "uri" : "spotify:artist:0zYyfhX87rISSc9dyJQK5t"
        } ],
        "external_urls" : {
          "spotify" : "https://open.spotify.com/album/0ersLujYZ5Dsv18WQqVRww"
        },
        "href" : "https://api.spotify.com/v1/albums/0ersLujYZ5Dsv18WQqVRww",
        "id" : "0ersLujYZ5Dsv18WQqVRww",
        "images" : [ {
          "height" : 640,
          "url" : "https://i.scdn.co/image/ab67616d0000b27346d6ddcc334b0e6c1b2b6bde",
          "width" : 640
        }, {
          "height" : 300,
          "url" : "https://i.scdn.co/image/ab67616d00001e0246d6ddcc334b0e6c1b2b6bde",
          "width" : 300
        }, {
          "height" : 64,
          "url" : "https://i.scdn.co/image/ab67616d0000485146d6ddcc334b0e6c1b2b6bde",
          "width" : 64
        } ],
        "name" : "Hymns On The Mountain",
        "release_date" : "2003-01-01",
        "release_date_precision" : "day",
        "total_tracks" : 16,
        "type" : "album",
        "uri" : "spotify:album:0ersLujYZ5Dsv18WQqVRww"
      },
      "artists" : [ {
        "external_urls" : {
          "spotify" : "https://open.spotify.com/artist/0zYyfhX87rISSc9dyJQK5t"
        },
        "href" : "https://api.spotify.com/v1/artists/0zYyfhX87rISSc9dyJQK5t",
        "id" : "0zYyfhX87rISSc9dyJQK5t",
        "name" : "Craig Duncan",
        "type" : "artist",
        "uri" : "spotify:artist:0zYyfhX87rISSc9dyJQK5t"
      } ],
      "disc_number" : 1,
      "duration_ms" : 181600,
      "explicit" : false,
      "external_ids" : {
        "isrc" : "USB4U0850742"
      },
      "external_urls" : {
        "spotify" : "https://open.spotify.com/track/120MKWHnevqczNxJXlzZMk"
      },
      "href" : "https://api.spotify.com/v1/tracks/120MKWHnevqczNxJXlzZMk",
      "id" : "120MKWHnevqczNxJXlzZMk",
      "is_local" : false,
      "is_playable" : true,
      "name" : "On Jordan's Stormy Banks",
      "popularity" : 3,
      "preview_url" : null,
      "track_number" : 10,
      "type" : "track",
      "uri" : "spotify:track:120MKWHnevqczNxJXlzZMk"
    }, {
      "album" : {
        "album_type" : "album",
        "artists" : [ {
          "external_urls" : {
            "spotify" : "https://open.spotify.com/artist/1CXJCTEydreEd8lJwTpgnN"
          },
          "href" : "https://api.spotify.com/v1/artists/1CXJCTEydreEd8lJwTpgnN",
          "id" : "1CXJCTEydreEd8lJwTpgnN",
          "name" : "John Troutman",
          "type" : "artist",
          "uri" : "spotify:artist:1CXJCTEydreEd8lJwTpgnN"
        } ],
        "external_urls" : {
          "spotify" : "https://open.spotify.com/album/0cC3zvXOsNHyCBbYaW8zJ6"
        },
        "href" : "https://api.spotify.com/v1/albums/0cC3zvXOsNHyCBbYaW8zJ6",
        "id" : "0cC3zvXOsNHyCBbYaW8zJ6",
        "images" : [ {
          "height" : 640,
          "url" : "https://i.scdn.co/image/ab67616d0000b27364280eb9d8282c25b5714c1e",
          "width" : 640
        }, {
          "height" : 300,
          "url" : "https://i.scdn.co/image/ab67616d00001e0264280eb9d8282c25b5714c1e",
          "width" : 300
        }, {
          "height" : 64,
          "url" : "https://i.scdn.co/image/ab67616d0000485164280eb9d8282c25b5714c1e",
          "width" : 64
        } ],
        "name" : "51 Instrumental Hymns",
        "release_date" : "2015-04-30",
        "release_date_precision" : "day",
        "total_tracks" : 51,
        "type" : "album",
        "uri" : "spotify:album:0cC3zvXOsNHyCBbYaW8zJ6"
      },
      "artists" : [ {
        "external_urls" : {
          "spotify" : "https://open.spotify.com/artist/1CXJCTEydreEd8lJwTpgnN"
        },
        "href" : "https://api.spotify.com/v1/artists/1CXJCTEydreEd8lJwTpgnN",
        "id" : "1CXJCTEydreEd8lJwTpgnN",
        "name" : "John Troutman",
        "type" : "artist",
        "uri" : "spotify:artist:1CXJCTEydreEd8lJwTpgnN"
      } ],
      "disc_number" : 1,
      "duration_ms" : 129362,
      "explicit" : false,
      "external_ids" : {
        "isrc" : "TCACF1560219"
      },
      "external_urls" : {
        "spotify" : "https://open.spotify.com/track/1IFjeZBADsBQYUaT1Wq5AJ"
      },
      "href" : "https://api.spotify.com/v1/tracks/1IFjeZBADsBQYUaT1Wq5AJ",
      "id" : "1IFjeZBADsBQYUaT1Wq5AJ",
      "is_local" : false,
      "is_playable" : true,
      "name" : "On Jordans Stormy Banks I Stand",
      "popularity" : 6,
      "preview_url" : "https://p.scdn.co/mp3-preview/e14ff8271707cc24b6a8a56eafad64e6faecfb4e?cid=774b29d4f13844c495f206cafdad9c86",
      "track_number" : 5,
      "type" : "track",
      "uri" : "spotify:track:1IFjeZBADsBQYUaT1Wq5AJ"
    }, {
      "album" : {
        "album_type" : "album",
        "artists" : [ {
          "external_urls" : {
            "spotify" : "https://open.spotify.com/artist/11sAWrpIkFUPQlXoQqpeBV"
          },
          "href" : "https://api.spotify.com/v1/artists/11sAWrpIkFUPQlXoQqpeBV",
          "id" : "11sAWrpIkFUPQlXoQqpeBV",
          "name" : "Bill & Gloria Gaither",
          "type" : "artist",
          "uri" : "spotify:artist:11sAWrpIkFUPQlXoQqpeBV"
        } ],
        "external_urls" : {
          "spotify" : "https://open.spotify.com/album/5t4OzKuknwoAFzsecMHvqD"
        },
        "href" : "https://api.spotify.com/v1/albums/5t4OzKuknwoAFzsecMHvqD",
        "id" : "5t4OzKuknwoAFzsecMHvqD",
        "images" : [ {
          "height" : 640,
          "url" : "https://i.scdn.co/image/ab67616d0000b27336ecbf19905f9ca53e6559f3",
          "width" : 640
        }, {
          "height" : 300,
          "url" : "https://i.scdn.co/image/ab67616d00001e0236ecbf19905f9ca53e6559f3",
          "width" : 300
        }, {
          "height" : 64,
          "url" : "https://i.scdn.co/image/ab67616d0000485136ecbf19905f9ca53e6559f3",
          "width" : 64
        } ],
        "name" : "All Day Singin At The Dome",
        "release_date" : "1998-01-01",
        "release_date_precision" : "day",
        "total_tracks" : 23,
        "type" : "album",
        "uri" : "spotify:album:5t4OzKuknwoAFzsecMHvqD"
      },
      "artists" : [ {
        "external_urls" : {
          "spotify" : "https://open.spotify.com/artist/11sAWrpIkFUPQlXoQqpeBV"
        },
        "href" : "https://api.spotify.com/v1/artists/11sAWrpIkFUPQlXoQqpeBV",
        "id" : "11sAWrpIkFUPQlXoQqpeBV",
        "name" : "Bill & Gloria Gaither",
        "type" : "artist",
        "uri" : "spotify:artist:11sAWrpIkFUPQlXoQqpeBV"
      } ],
      "disc_number" : 1,
      "duration_ms" : 172946,
      "explicit" : false,
      "external_ids" : {
        "isrc" : "US3270400882"
      },
      "external_urls" : {
        "spotify" : "https://open.spotify.com/track/2h4ovTju0dtxstFwfgrMyb"
      },
      "href" : "https://api.spotify.com/v1/tracks/2h4ovTju0dtxstFwfgrMyb",
      "id" : "2h4ovTju0dtxstFwfgrMyb",
      "is_local" : false,
      "is_playable" : true,
      "name" : "On Jordan's Stormy Banks I Stand - All Day Singing At The Dome",
      "popularity" : 4,
      "preview_url" : null,
      "track_number" : 1,
      "type" : "track",
      "uri" : "spotify:track:2h4ovTju0dtxstFwfgrMyb"
    } ],
    "limit" : 10,
    "next" : "https://api.spotify.com/v1/search?query=On+Jordan%E2%80%99s+Stormy+Banks&type=track&market=US&offset=15&limit=10",
    "offset" : 5,
    "previous" : "https://api.spotify.com/v1/search?query=On+Jordan%E2%80%99s+Stormy+Banks&type=track&market=US&offset=0&limit=10",
    "total" : 136
  }
}