{
  "tracks" : {
    "href" : "https://api.spotify.com/v1/search?query=Take+the+World%2C+but+Give+Me+Jesus&type=track&market=US&offset=5&limit=10",
    "items" : [ {
      "album" : {
        "album_type" : "album",
        "artists" : [ {
          "external_urls" : {
            "spotify" : "https://open.spotify.com/artist/0g1QOskZ9opQELS5ijE6XV"
          },
          "href" : "https://api.spotify.com/v1/artists/0g1QOskZ9opQELS5ijE6XV",
          "id" : "0g1QOskZ9opQELS5ijE6XV",
          "name" : "Ascend The Hill",
          "type" : "artist",
          "uri" : "spotify:artist:0g1QOskZ9opQELS5ijE6XV"
        } ],
        "external_urls" : {
          "spotify" : "https://open.spotify.com/album/5zTeujNhDuxaHYuJcrhelf"
        },
        "href" : "https://api.spotify.com/v1/albums/5zTeujNhDuxaHYuJcrhelf",
        "id" : "5zTeujNhDuxaHYuJcrhelf",
        "images" : [ {
          "height" : 640,
          "url" : "https://i.scdn.co/image/ab67616d0000b2730ace047a30d5881c3981980e",
          "width" : 640
        }, {
          "height" : 300,
          "url" : "https://i.scdn.co/image/ab67616d00001e020ace047a30d5881c3981980e",
          "width" : 300
        }, {
          "height" : 64,
          "url" : "https://i.scdn.co/image/ab67616d000048510ace047a30d5881c3981980e",
          "width" : 64
        } ],
        "name" : "Take the World, but Give Me Jesus",
        "release_date" : "2010-09-14",
        "release_date_precision" : "day",
        "total_tracks" : 9,
        "type" : "album",
        "uri" : "spotify:album:5zTeujNhDuxaHYuJcrhelf"
      },
      "artists" : [ {
        "external_urls" : {
          "spotify" : "https://open.spotify.com/artist/0g1QOskZ9opQELS5ijE6XV"
        },
        "href" : "https://api.spotify.com/v1/artists/0g1QOskZ9opQELS5ijE6XV",
        "id" : "0g1QOskZ9opQELS5ijE6XV",
        "name" : "Ascend The Hill",
        "type" : "artist",
        "uri" : "spotify:artist:0g1QOskZ9opQELS5ijE6XV"
      } ],
      "disc_number" : 1,
      "duration_ms" : 401280,
      "explicit" : false,
      "external_ids" : {
        "isrc" : "TCAAR1058226"
      },
      "external_urls" : {
        "spotify" : "https://open.spotify.com/track/5QYamRVVqqjJ8LkAmmPUc8"
      },
      "href" : "https://api.spotify.com/v1/tracks/5QYamRVVqqjJ8LkAmmPUc8",
      "id" : "5QYamRVVqqjJ8LkAmmPUc8",
      "is_local" : false,
      "is_playable" : true,
      "name" : "Oh Love That Will Not Let Me Go",
      "popularity" : 32,
      "preview_url" : "https://p.scdn.co/mp3-preview/d29be6dc0cd8e029897a37c756f7b860507c1e12?cid=774b29d4f13844c495f206cafdad9c86",
      "track_number" : 8,
      "type" : "track",
      "uri" : "spotify:track:5QYamRVVqqjJ8LkAmmPUc8"
    }, {
      "album" : {
        "album_type" : "album",
        "artists" : [ {
          "external_urls" : {
            "spotify" : "https://open.spotify.com/artist/0g1QOskZ9opQELS5ijE6XV"
          },
          "href" : "https://api.spotify.com/v1/artists/0g1QOskZ9opQELS5ijE6XV",
          "id" : "0g1QOskZ9opQELS5ijE6XV",
          "name" : "Ascend The Hill",
          "type" : "artist",
          "uri" : "spotify:artist:0g1QOskZ9opQELS5ijE6XV"
        } ],
        "external_urls" : {
          "spotify" : "https://open.spotify.com/album/5zTeujNhDuxaHYuJcrhelf"
        },
        "href" : "https://api.spotify.com/v1/albums/5zTeujNhDuxaHYuJcrhelf",
        "id" : "5zTeujNhDuxaHYuJcrhelf",
        "images" : [ {
          "height" : 640,
          "url" : "https://i.scdn.co/image/ab67616d0000b2730ace047a30d5881c3981980e",
          "width" : 640
        }, {
          "height" : 300,
          "url" : "https://i.scdn.co/image/ab67616d00001e020ace047a30d5881c3981980e",
          "width" : 300
        }, {
          "height" : 64,
          "url" : "https://i.scdn.co/image/ab67616d000048510ace047a30d5881c3981980e",
          "width" : 64
        } ],
        "name" : "Take the World, but Give Me Jesus",
        "release_date" : "2010-09-14",
        "release_date_precision" : "day",
        "total_tracks" : 9,
        "type" : "album",
        "uri" : "spotify:album:5zTeujNhDuxaHYuJcrhelf"
      },
      "artists" : [ {
        "external_urls" : {
          "spotify" : "https://open.spotify.com/artist/0g1QOskZ9opQELS5ijE6XV"
        },
        "href" : "https://api.spotify.com/v1/artists/0g1QOskZ9opQELS5ijE6XV",
        "id" : "0g1QOskZ9opQELS5ijE6XV",
        "name" : "Ascend The Hill",
        "type" : "artist",
        "uri" : "spotify:artist:0g1QOskZ9opQELS5ijE6XV"
      } ],
      "disc_number" : 1,
      "duration_ms" : 313173,
      "explicit" : false,
      "external_ids" : {
        "isrc" : "TCAAR1058215"
      },
      "external_urls" : {
        "spotify" : "https://open.spotify.com/track/0aeAQFbdjO2qphNe8zjVRk"
      },
      "href" : "https://api.spotify.com/v1/tracks/0aeAQFbdjO2qphNe8zjVRk",
      "id" : "0aeAQFbdjO2qphNe8zjVRk",
      "is_local" : false,
      "is_playable" : true,
      "name" : "The Love of God",
      "popularity" : 29,
      "preview_url" : "https://p.scdn.co/mp3-preview/d4558e0e5ba5372230ac1c8e5a73e4fe13df4656?cid=774b29d4f13844c495f206cafdad9c86",
      "track_number" : 1,
      "type" : "track",
      "uri" : "spotify:track:0aeAQFbdjO2qphNe8zjVRk"
    }, {
      "album" : {
        "album_type" : "album",
        "artists" : [ {
          "external_urls" : {
            "spotify" : "https://open.spotify.com/artist/0g1QOskZ9opQELS5ijE6XV"
          },
          "href" : "https://api.spotify.com/v1/artists/0g1QOskZ9opQELS5ijE6XV",
          "id" : "0g1QOskZ9opQELS5ijE6XV",
          "name" : "Ascend The Hill",
          "type" : "artist",
          "uri" : "spotify:artist:0g1QOskZ9opQELS5ijE6XV"
        } ],
        "external_urls" : {
          "spotify" : "https://open.spotify.com/album/5zTeujNhDuxaHYuJcrhelf"
        },
        "href" : "https://api.spotify.com/v1/albums/5zTeujNhDuxaHYuJcrhelf",
        "id" : "5zTeujNhDuxaHYuJcrhelf",
        "images" : [ {
          "height" : 640,
          "url" : "https://i.scdn.co/image/ab67616d0000b2730ace047a30d5881c3981980e",
          "width" : 640
        }, {
          "height" : 300,
          "url" : "https://i.scdn.co/image/ab67616d00001e020ace047a30d5881c3981980e",
          "width" : 300
        }, {
          "height" : 64,
          "url" : "https://i.scdn.co/image/ab67616d000048510ace047a30d5881c3981980e",
          "width" : 64
        } ],
        "name" : "Take the World, but Give Me Jesus",
        "release_date" : "2010-09-14",
        "release_date_precision" : "day",
        "total_tracks" : 9,
        "type" : "album",
        "uri" : "spotify:album:5zTeujNhDuxaHYuJcrhelf"
      },
      "artists" : [ {
        "external_urls" : {
          "spotify" : "https://open.spotify.com/artist/0g1QOskZ9opQELS5ijE6XV"
        },
        "href" : "https://api.spotify.com/v1/artists/0g1QOskZ9opQELS5ijE6XV",
        "id" : "0g1QOskZ9opQELS5ijE6XV",
        "name" : "Ascend The Hill",
        "type" : "artist",
        "uri" : "spotify:artist:0g1QOskZ9opQELS5ijE6XV"
      } ],
      "disc_number" : 1,
      "duration_ms" : 286586,
      "explicit" : false,
      "external_ids" : {
        "isrc" : "TCAAR1058221"
      },
      "external_urls" : {
        "spotify" : "https://open.spotify.com/track/4J5ngHfG9OxMMnWiEHIH1C"
      },
      "href" : "https://api.spotify.com/v1/tracks/4J5ngHfG9OxMMnWiEHIH1C",
      "id" : "4J5ngHfG9OxMMnWiEHIH1C",
      "is_local" : false,
      "is_playable" : true,
      "name" : "I Surrender All",
      "popularity" : 28,
      "preview_url" : "https://p.scdn.co/mp3-preview/ca72bad74f3847f0e42e7d182b998720d87e2a30?cid=774b29d4f13844c495f206cafdad9c86",
      "track_number" : 5,
      "type" : "track",
      "uri" : "spotify:track:4J5ngHfG9OxMMnWiEHIH1C"
    }, {
      "album" : {
        "album_type" : "album",
        "artists" : [ {
          "external_urls" : {
            "spotify" : "https://open.spotify.com/artist/0g1QOskZ9opQELS5ijE6XV"
          },
          "href" : "https://api.spotify.com/v1/artists/0g1QOskZ9opQELS5ijE6XV",
          "id" : "0g1QOskZ9opQELS5ijE6XV",
          "name" : "Ascend The Hill",
          "type" : "artist",
          "uri" : "spotify:artist:0g1QOskZ9opQELS5ijE6XV"
        } ],
        "external_urls" : {
          "spotify" : "https://open.spotify.com/album/5zTeujNhDuxaHYuJcrhelf"
        },
        "href" : "https://api.spotify.com/v1/albums/5zTeujNhDuxaHYuJcrhelf",
        "id" : "5zTeujNhDuxaHYuJcrhelf",
        "images" : [ {
          "height" : 640,
          "url" : "https://i.scdn.co/image/ab67616d0000b2730ace047a30d5881c3981980e",
          "width" : 640
        }, {
          "height" : 300,
          "url" : "https://i.scdn.co/image/ab67616d00001e020ace047a30d5881c3981980e",
          "width" : 300
        }, {
          "height" : 64,
          "url" : "https://i.scdn.co/image/ab67616d000048510ace047a30d5881c3981980e",
          "width" : 64
        } ],
        "name" : "Take the World, but Give Me Jesus",
        "release_date" : "2010-09-14",
        "release_date_precision" : "day",
        "total_tracks" : 9,
        "type" : "album",
        "uri" : "spotify:album:5zTeujNhDuxaHYuJcrhelf"
      },
      "artists" : [ {
        "external_urls" : {
          "spotify" : "https://open.spotify.com/artist/0g1QOskZ9opQELS5ijE6XV"
        },
        "href" : "https://api.spotify.com/v1/artists/0g1QOskZ9opQELS5ijE6XV",
        "id" : "0g1QOskZ9opQELS5ijE6XV",
        "name" : "Ascend The Hill",
        "type" : "artist",
        "uri" : "spotify:artist:0g1QOskZ9opQELS5ijE6XV"
      } ],
      "disc_number" : 1,
      "duration_ms" : 311533,
      "explicit" : false,
      "external_ids" : {
        "isrc" : "TCAAR1058224"
      },
      "external_urls" : {
        "spotify" : "https://open.spotify.com/track/56Cof9ejm71EzSfloZPO6Q"
      },
      "href" : "https://api.spotify.com/v1/tracks/56Cof9ejm71EzSfloZPO6Q",
      "id" : "56Cof9ejm71EzSfloZPO6Q",
      "is_local" : false,
      "is_playable" : true,
      "name" : "None Compare (Spontaneous Worship)",
      "popularity" : 24,
      "preview_url" : "https://p.scdn.co/mp3-preview/af8f16df144f030a3674e61df590a39ddecd4513?cid=774b29d4f13844c495f206cafdad9c86",
      "track_number" : 7,
      "type" : "track",
      "uri" : "spotify:track:56Cof9ejm71EzSfloZPO6Q"
    }, {
      "album" : {
        "album_type" : "album",
        "artists" : [ {
          "external_urls" : {
            "spotify" : "https://open.spotify.com/artist/4fe5RDRZpjF7b8FYinv3KL"
          },
          "href" : "https://api.spotify.com/v1/artists/4fe5RDRZpjF7b8FYinv3KL",
          "id" : "4fe5RDRZpjF7b8FYinv3KL",
          "name" : "Coffey Ministries",
          "type" : "artist",
          "uri" : "spotify:artist:4fe5RDRZpjF7b8FYinv3KL"
        } ],
        "external_urls" : {
          "spotify" : "https://open.spotify.com/album/20B2kl4hjlmWl6slYXwtcK"
        },
        "href" : "https://api.spotify.com/v1/albums/20B2kl4hjlmWl6slYXwtcK",
        "id" : "20B2kl4hjlmWl6slYXwtcK",
        "images" : [ {
          "height" : 640,
          "url" : "https://i.scdn.co/image/ab67616d0000b2738bca7ca94a327c267b54a48a",
          "width" : 640
        }, {
          "height" : 300,
          "url" : "https://i.scdn.co/image/ab67616d00001e028bca7ca94a327c267b54a48a",
          "width" : 300
        }, {
          "height" : 64,
          "url" : "https://i.scdn.co/image/ab67616d000048518bca7ca94a327c267b54a48a",
          "width" : 64
        } ],
        "name" : "Sing My Soul: Celtic Songs for the Journey",
        "release_date" : "2019-01-07",
        "release_date_precision" : "day",
        "total_tracks" : 15,
        "type" : "album",
        "uri" : "spotify:album:20B2kl4hjlmWl6slYXwtcK"
      },
      "artists" : [ {
        "external_urls" : {
          "spotify" : "https://open.spotify.com/artist/4fe5RDRZpjF7b8FYinv3KL"
        },
        "href" : "https://api.spotify.com/v1/artists/4fe5RDRZpjF7b8FYinv3KL",
        "id" : "4fe5RDRZpjF7b8FYinv3KL",
        "name" : "Coffey Ministries",
        "type" : "artist",
        "uri" : "spotify:artist:4fe5RDRZpjF7b8FYinv3KL"
      } ],
      "disc_number" : 1,
      "duration_ms" : 212466,
      "explicit" : false,
      "external_ids" : {
        "isrc" : "uscgh1933327"
      },
      "external_urls" : {
        "spotify" : "https://open.spotify.com/track/3FERA2jBK8I2ISmYI77Pz2"
      },
      "href" : "https://api.spotify.com/v1/tracks/3FERA2jBK8I2ISmYI77Pz2",
      "id" : "3FERA2jBK8I2ISmYI77Pz2",
      "is_local" : false,
      "is_playable" : true,
      "name" : "Take the World, But Give Me Jesus",
      "popularity" : 12,
      "preview_url" : "https://p.scdn.co/mp3-preview/dceb71c6ae7a22004ca98eb786dedfd205f4d14d?cid=774b29d4f13844c495f206cafdad9c86",
      "track_number" : 8,
      "type" : "track",
      "uri" : "spotify:track:3FERA2jBK8I2ISmYI77Pz2"
    }, {
      "album" : {
        "album_type" : "album",
        "artists" : [ {
          "external_urls" : {
            "spotify" : "https://open.spotify.com/artist/66wd2UXU9qFFSsXdS8smyY"
          },
          "href" : "https://api.spotify.com/v1/artists/66wd2UXU9qFFSsXdS8smyY",
          "id" : "66wd2UXU9qFFSsXdS8smyY",
          "name" : "Wintley Phipps",
          "type" : "artist",
          "uri" : "spotify:artist:66wd2UXU9qFFSsXdS8smyY"
        } ],
        "external_urls" : {
          "spotify" : "https://open.spotify.com/album/1qsd597sIBRru5zJJ8ffKc"
        },
        "href" : "https://api.spotify.com/v1/albums/1qsd597sIBRru5zJJ8ffKc",
        "id" : "1qsd597sIBRru5zJJ8ffKc",
        "images" : [ {
          "height" : 640,
          "url" : "https://i.scdn.co/image/ab67616d0000b2731b024c2239219e85c28bb612",
          "width" : 640
        }, {
          "height" : 300,
          "url" : "https://i.scdn.co/image/ab67616d00001e021b024c2239219e85c28bb612",
          "width" : 300
        }, {
          "height" : 64,
          "url" : "https://i.scdn.co/image/ab67616d000048511b024c2239219e85c28bb612",
          "width" : 64
        } ],
        "name" : "Near the Cross",
        "release_date" : "2013-08-01",
        "release_date_precision" : "day",
        "total_tracks" : 10,
        "type" : "album",
        "uri" : "spotify:album:1qsd597sIBRru5zJJ8ffKc"
      },
      "artists" : [ {
        "external_urls" : {
          "spotify" : "https://open.spotify.com/artist/66wd2UXU9qFFSsXdS8smyY"
        },
        "href" : "https://api.spotify.com/v1/artists/66wd2UXU9qFFSsXdS8smyY",
        "id" : "66wd2UXU9qFFSsXdS8smyY",
        "name" : "Wintley Phipps",
        "type" : "artist",
        "uri" : "spotify:artist:66wd2UXU9qFFSsXdS8smyY"
      } ],
      "disc_number" : 1,
      "duration_ms" : 253733,
      "explicit" : false,
      "external_ids" : {
        "isrc" : "USLF50801669"
      },
      "external_urls" : {
        "spotify" : "https://open.spotify.com/track/3ZSK1YCwwEctV4ys5sMoQq"
      },
      "href" : "https://api.spotify.com/v1/tracks/3ZSK1YCwwEctV4ys5sMoQq",
      "id" : "3ZSK1YCwwEctV4ys5sMoQq",
      "is_local" : false,
      "is_playable" : true,
      "name" : "Take the World, But Give Me Jesus",
      "popularity" : 10,
      "preview_url" : "https://p.scdn.co/mp3-preview/41477a7c8d798c9a827126dc3fd09ee1e6b6cc56?cid=774b29d4f13844c495f206cafdad9c86",
      "track_number" : 6,
      "type" : "track",
      "uri" : "spotify:track:3ZSK1YCwwEctV4ys5sMoQq"
    }, {
      "album" : {
        "album_type" : "compilation",
        "artists" : [ {
          "external_urls" : {
            "spotify" : "https://open.spotify.com/artist/2OpqcUtj10HHvGG6h9VYC5"
          },
          "href" : "https://api.spotify.com/v1/artists/2OpqcUtj10HHvGG6h9VYC5",
          "id" : "2OpqcUtj10HHvGG6h9VYC5",
          "name" : "George Jones",
          "type" : "artist",
          "uri" : "spotify:artist:2OpqcUtj10HHvGG6h9VYC5"
        } ],
        "external_urls" : {
          "spotify" : "https://open.spotify.com/album/37gxD96JL0GpNADa5dS67P"
        },
        "href" : "https://api.spotify.com/v1/albums/37gxD96JL0GpNADa5dS67P",
        "id" : "37gxD96JL0GpNADa5dS67P",
        "images" : [ {
          "height" : 640,
          "url" : "https://i.scdn.co/image/ab67616d0000b27317c22ff0537e201c49c20fb7",
          "width" : 640
        }, {
          "height" : 300,
          "url" : "https://i.scdn.co/image/ab67616d00001e0217c22ff0537e201c49c20fb7",
          "width" : 300
        }, {
          "height" : 64,
          "url" : "https://i.scdn.co/image/ab67616d0000485117c22ff0537e201c49c20fb7",
          "width" : 64
        } ],
        "name" : "20 Super Hits - Gospel",
        "release_date" : "2005",
        "release_date_precision" : "year",
        "total_tracks" : 20,
        "type" : "album",
        "uri" : "spotify:album:37gxD96JL0GpNADa5dS67P"
      },
      "artists" : [ {
        "external_urls" : {
          "spotify" : "https://open.spotify.com/artist/2OpqcUtj10HHvGG6h9VYC5"
        },
        "href" : "https://api.spotify.com/v1/artists/2OpqcUtj10HHvGG6h9VYC5",
        "id" : "2OpqcUtj10HHvGG6h9VYC5",
        "name" : "George Jones",
        "type" : "artist",
        "uri" : "spotify:artist:2OpqcUtj10HHvGG6h9VYC5"
      } ],
      "disc_number" : 1,
      "duration_ms" : 159093,
      "explicit" : false,
      "external_ids" : {
        "isrc" : "USACU0511132"
      },
      "external_urls" : {
        "spotify" : "https://open.spotify.com/track/0jCU7S4McllBTgKFoxbqwu"
      },
      "href" : "https://api.spotify.com/v1/tracks/0jCU7S4McllBTgKFoxbqwu",
      "id" : "0jCU7S4McllBTgKFoxbqwu",
      "is_local" : false,
      "is_playable" : true,
      "name" : "Take The World But Give Me Jesus",
      "popularity" : 6,
      "preview_url" : "https://p.scdn.co/mp3-preview/1937af220903d19d97406cdad6ae80a700335ef8?cid=774b29d4f13844c495f206cafdad9c86",
      "track_number" : 9,
      "type" : "track",
      "uri" : "spotify:track:0jCU7S4McllBTgKFoxbqwu"
    }, {
      "album" : {
        "album_type" : "album",
        "artists" : [ {
          "external_urls" : {
            "spotify" : "https://open.spotify.com/artist/4XUltzTgP8sMvgKTOyjceo"
          },
          "href" : "https://api.spotify.com/v1/artists/4XUltzTgP8sMvgKTOyjceo",
          "id" : "4XUltzTgP8sMvgKTOyjceo",
          "name" : "Discovery Singers",
          "type" : "artist",
          "uri" : "spotify:artist:4XUltzTgP8sMvgKTOyjceo"
        } ],
        "external_urls" : {
          "spotify" : "https://open.spotify.com/album/7x37zgNUwwpRUosZHvuWnb"
        },
        "href" : "https://api.spotify.com/v1/albums/7x37zgNUwwpRUosZHvuWnb",
        "id" : "7x37zgNUwwpRUosZHvuWnb",
        "images" : [ {
          "height" : 640,
          "url" : "https://i.scdn.co/image/ab67616d0000b273cab4424724391aa6ecc82fac",
          "width" : 640
        }, {
          "height" : 300,
          "url" : "https://i.scdn.co/image/ab67616d00001e02cab4424724391aa6ecc82fac",
          "width" : 300
        }, {
          "height" : 64,
          "url" : "https://i.scdn.co/image/ab67616d00004851cab4424724391aa6ecc82fac",
          "width" : 64
        } ],
        "name" : "Be Ye Glad",
        "release_date" : "2003-12-15",
        "release_date_precision" : "day",
        "total_tracks" : 22,
        "type" : "album",
        "uri" : "spotify:album:7x37zgNUwwpRUosZHvuWnb"
      },
      "artists" : [ {
        "external_urls" : {
          "spotify" : "https://open.spotify.com/artist/4XUltzTgP8sMvgKTOyjceo"
        },
        "href" : "https://api.spotify.com/v1/artists/4XUltzTgP8sMvgKTOyjceo",
        "id" : "4XUltzTgP8sMvgKTOyjceo",
        "name" : "Discovery Singers",
        "type" : "artist",
        "uri" : "spotify:artist:4XUltzTgP8sMvgKTOyjceo"
      } ],
      "disc_number" : 1,
      "duration_ms" : 201386,
      "explicit" : false,
      "external_ids" : {
        "isrc" : "USDHM0603266"
      },
      "external_urls" : {
        "spotify" : "https://open.spotify.com/track/1UbC5vA6KTG6w3nclYeXqT"
      },
      "href" : "https://api.spotify.com/v1/tracks/1UbC5vA6KTG6w3nclYeXqT",
      "id" : "1UbC5vA6KTG6w3nclYeXqT",
      "is_local" : false,
      "is_playable" : true,
      "name" : "Take The World But Give Me Jesus",
      "popularity" : 7,
      "preview_url" : "https://p.scdn.co/mp3-preview/813d89c7acea972d82595ece9f982f58f36dcbf4?cid=774b29d4f13844c495f206cafdad9c86",
      "track_number" : 20,
      "type" : "track",
      "uri" : "spotify:track:1UbC5vA6KTG6w3nclYeXqT"
    }, {
      "album" : {
        "album_type" : "album",
        "artists" : [ {
          "external_urls" : {
            "spotify" : "https://open.spotify.com/artist/0bz9hDpUbAw5JElgEiuIYZ"
          },
          "href" : "https://api.spotify.com/v1/artists/0bz9hDpUbAw5JElgEiuIYZ",
          "id" : "0bz9hDpUbAw5JElgEiuIYZ",
          "name" : "Matt Redman",
          "type" : "artist",
          "uri" : "spotify:artist:0bz9hDpUbAw5JElgEiuIYZ"
        } ],
        "external_urls" : {
          "spotify" : "https://open.spotify.com/album/7CPnrI9zwdX6BnGaSEOBZW"
        },
        "href" : "https://api.spotify.com/v1/albums/7CPnrI9zwdX6BnGaSEOBZW",
        "id" : "7CPnrI9zwdX6BnGaSEOBZW",
        "images" : [ {
          "height" : 640,
          "url" : "https://i.scdn.co/image/ab67616d0000b273e1f0674b212548148d568fa4",
          "width" : 640
        }, {
          "height" : 300,
          "url" : "https://i.scdn.co/image/ab67616d00001e02e1f0674b212548148d568fa4",
          "width" : 300
        }, {
          "height" : 64,
          "url" : "https://i.scdn.co/image/ab67616d00004851e1f0674b212548148d568fa4",
          "width" : 64
        } ],
        "name" : "The Father's Song",
        "release_date" : "2000-01-01",
        "release_date_precision" : "day",
        "total_tracks" : 14,
        "type" : "album",
        "uri" : "spotify:album:7CPnrI9zwdX6BnGaSEOBZW"
      },
      "artists" : [ {
        "external_urls" : {
          "spotify" : "https://open.spotify.com/artist/0bz9hDpUbAw5JElgEiuIYZ"
        },
        "href" : "https://api.spotify.com/v1/artists/0bz9hDpUbAw5JElgEiuIYZ",
        "id" : "0bz9hDpUbAw5JElgEiuIYZ",
        "name" : "Matt Redman",
        "type" : "artist",
        "uri" : "spotify:artist:0bz9hDpUbAw5JElgEiuIYZ"
      } ],
      "disc_number" : 1,
      "duration_ms" : 265360,
      "explicit" : false,
      "external_ids" : {
        "isrc" : "GBBTM0003801"
      },
      "external_urls" : {
        "spotify" : "https://open.spotify.com/track/1lRQBuw3cA5rlAzJcTH3iG"
      },
      "href" : "https://api.spotify.com/v1/tracks/1lRQBuw3cA5rlAzJcTH3iG",
      "id" : "1lRQBuw3cA5rlAzJcTH3iG",
      "is_local" : false,
      "is_playable" : true,
      "name" : "Take The World But Give Me Jesus - The Father's Song Album Version",
      "popularity" : 3,
      "preview_url" : null,
      "track_number" : 1,
      "type" : "track",
      "uri" : "spotify:track:1lRQBuw3cA5rlAzJcTH3iG"
    }, {
      "album" : {
        "album_type" : "album",
        "artists" : [ {
          "external_urls" : {
            "spotify" : "https://open.spotify.com/artist/3MJUsEcavOpd7TBTrlUt0f"
          },
          "href" : "https://api.spotify.com/v1/artists/3MJUsEcavOpd7TBTrlUt0f",
          "id" : "3MJUsEcavOpd7TBTrlUt0f",
          "name" : "Harding University Concert Choir",
          "type" : "artist",
          "uri" : "spotify:artist:3MJUsEcavOpd7TBTrlUt0f"
        } ],
        "external_urls" : {
          "spotify" : "https://open.spotify.com/album/5DdySR8zVsKaYu9QviEXLJ"
        },
        "href" : "https://api.spotify.com/v1/albums/5DdySR8zVsKaYu9QviEXLJ",
        "id" : "5DdySR8zVsKaYu9QviEXLJ",
        "images" : [ {
          "height" : 640,
          "url" : "https://i.scdn.co/image/ab67616d0000b273231e9fbefdcd5ba678fedc6f",
          "width" : 640
        }, {
          "height" : 300,
          "url" : "https://i.scdn.co/image/ab67616d00001e02231e9fbefdcd5ba678fedc6f",
          "width" : 300
        }, {
          "height" : 64,
          "url" : "https://i.scdn.co/image/ab67616d00004851231e9fbefdcd5ba678fedc6f",
          "width" : 64
        } ],
        "name" : "Songs of Fanny J. Crosby: This Is My Story",
        "release_date" : "2008-05-13",
        "release_date_precision" : "day",
        "total_tracks" : 36,
        "type" : "album",
        "uri" : "spotify:album:5DdySR8zVsKaYu9QviEXLJ"
      },
      "artists" : [ {
        "external_urls" : {
          "spotify" : "https://open.spotify.com/artist/3MJUsEcavOpd7TBTrlUt0f"
        },
        "href" : "https://api.spotify.com/v1/artists/3MJUsEcavOpd7TBTrlUt0f",
        "id" : "3MJUsEcavOpd7TBTrlUt0f",
        "name" : "Harding University Concert Choir",
        "type" : "artist",
        "uri" : "spotify:artist:3MJUsEcavOpd7TBTrlUt0f"
      } ],
      "disc_number" : 2,
      "duration_ms" : 93240,
      "explicit" : false,
      "external_ids" : {
        "isrc" : "USMZA0811693"
      },
      "external_urls" : {
        "spotify" : "https://open.spotify.com/track/17qkthV9dZzBGLk9p6xV1Q"
      },
      "href" : "https://api.spotify.com/v1/tracks/17qkthV9dZzBGLk9p6xV1Q",
      "id" : "17qkthV9dZzBGLk9p6xV1Q",
      "is_local" : false,
      "is_playable" : true,
      "name" : "Take the World, But Give Me Jesus",
      "popularity" : 3,
      "preview_url" : "https://p.scdn.co/mp3-preview/276ae6d64df26b20e9d91c54f1928d8d09670512?cid=774b29d4f13844c495f206cafdad9c86",
      "track_number" : 2,
      "type" : "track",
      "uri" : "spotify:track:17qkthV9dZzBGLk9p6xV1Q"
    } ],
    "limit" : 10,
    "next" : "https://api.spotify.com/v1/search?query=Take+the+World%2C+but+Give+Me+Jesus&type=track&market=US&offset=15&limit=10",
    "offset" : 5,
    "previous" : "https://api.spotify.com/v1/search?query=Take+the+World%2C+but+Give+Me+Jesus&type=track&market=US&offset=0&limit=10",
    "total" : 32
  }
}