{
  "tracks" : {
    "href" : "https://api.spotify.com/v1/search?query=O+Word+of+God+Incarnate&type=track&market=US&offset=5&limit=10",
    "items" : [ {
      "album" : {
        "album_type" : "single",
        "artists" : [ {
          "external_urls" : {
            "spotify" : "https://open.spotify.com/artist/3G7qoMSLvu9Pmb0xGtf9fl"
          },
          "href" : "https://api.spotify.com/v1/artists/3G7qoMSLvu9Pmb0xGtf9fl",
          "id" : "3G7qoMSLvu9Pmb0xGtf9fl",
          "name" : "Bride",
          "type" : "artist",
          "uri" : "spotify:artist:3G7qoMSLvu9Pmb0xGtf9fl"
        } ],
        "external_urls" : {
          "spotify" : "https://open.spotify.com/album/0CF081D9y28ebMMTkuumjV"
        },
        "href" : "https://api.spotify.com/v1/albums/0CF081D9y28ebMMTkuumjV",
        "id" : "0CF081D9y28ebMMTkuumjV",
        "images" : [ {
          "height" : 640,
          "url" : "https://i.scdn.co/image/ab67616d0000b2737c9d9f650a930f54e53e46fd",
          "width" : 640
        }, {
          "height" : 300,
          "url" : "https://i.scdn.co/image/ab67616d00001e027c9d9f650a930f54e53e46fd",
          "width" : 300
        }, {
          "height" : 64,
          "url" : "https://i.scdn.co/image/ab67616d000048517c9d9f650a930f54e53e46fd",
          "width" : 64
        } ],
        "name" : "I",
        "release_date" : "2013-07-28",
        "release_date_precision" : "day",
        "total_tracks" : 5,
        "type" : "album",
        "uri" : "spotify:album:0CF081D9y28ebMMTkuumjV"
      },
      "artists" : [ {
        "external_urls" : {
          "spotify" : "https://open.spotify.com/artist/3G7qoMSLvu9Pmb0xGtf9fl"
        },
        "href" : "https://api.spotify.com/v1/artists/3G7qoMSLvu9Pmb0xGtf9fl",
        "id" : "3G7qoMSLvu9Pmb0xGtf9fl",
        "name" : "Bride",
        "type" : "artist",
        "uri" : "spotify:artist:3G7qoMSLvu9Pmb0xGtf9fl"
      } ],
      "disc_number" : 1,
      "duration_ms" : 237453,
      "explicit" : false,
      "external_ids" : {
        "isrc" : "ushm81359261"
      },
      "external_urls" : {
        "spotify" : "https://open.spotify.com/track/384bFdM5lJcqldP3ZHuOhV"
      },
      "href" : "https://api.spotify.com/v1/tracks/384bFdM5lJcqldP3ZHuOhV",
      "id" : "384bFdM5lJcqldP3ZHuOhV",
      "is_local" : false,
      "is_playable" : true,
      "name" : "O Word of God Incarnate",
      "popularity" : 2,
      "preview_url" : "https://p.scdn.co/mp3-preview/62e8c0845fe5ced6cb2f1e4c544e28797e295264?cid=774b29d4f13844c495f206cafdad9c86",
      "track_number" : 3,
      "type" : "track",
      "uri" : "spotify:track:384bFdM5lJcqldP3ZHuOhV"
    }, {
      "album" : {
        "album_type" : "album",
        "artists" : [ {
          "external_urls" : {
            "spotify" : "https://open.spotify.com/artist/20rlbkwNSoLrLqQUR7GRcT"
          },
          "href" : "https://api.spotify.com/v1/artists/20rlbkwNSoLrLqQUR7GRcT",
          "id" : "20rlbkwNSoLrLqQUR7GRcT",
          "name" : "Mother’s Lullaby",
          "type" : "artist",
          "uri" : "spotify:artist:20rlbkwNSoLrLqQUR7GRcT"
        } ],
        "external_urls" : {
          "spotify" : "https://open.spotify.com/album/2T4U2YqxHwSzMRASmG0KcF"
        },
        "href" : "https://api.spotify.com/v1/albums/2T4U2YqxHwSzMRASmG0KcF",
        "id" : "2T4U2YqxHwSzMRASmG0KcF",
        "images" : [ {
          "height" : 640,
          "url" : "https://i.scdn.co/image/ab67616d0000b27303e8b058609f3261d5dee1e4",
          "width" : 640
        }, {
          "height" : 300,
          "url" : "https://i.scdn.co/image/ab67616d00001e0203e8b058609f3261d5dee1e4",
          "width" : 300
        }, {
          "height" : 64,
          "url" : "https://i.scdn.co/image/ab67616d0000485103e8b058609f3261d5dee1e4",
          "width" : 64
        } ],
        "name" : "현악4중주 찬송가 연주곡집 Vol. 5",
        "release_date" : "2020-05-14",
        "release_date_precision" : "day",
        "total_tracks" : 50,
        "type" : "album",
        "uri" : "spotify:album:2T4U2YqxHwSzMRASmG0KcF"
      },
      "artists" : [ {
        "external_urls" : {
          "spotify" : "https://open.spotify.com/artist/20rlbkwNSoLrLqQUR7GRcT"
        },
        "href" : "https://api.spotify.com/v1/artists/20rlbkwNSoLrLqQUR7GRcT",
        "id" : "20rlbkwNSoLrLqQUR7GRcT",
        "name" : "Mother’s Lullaby",
        "type" : "artist",
        "uri" : "spotify:artist:20rlbkwNSoLrLqQUR7GRcT"
      } ],
      "disc_number" : 1,
      "duration_ms" : 166764,
      "explicit" : false,
      "external_ids" : {
        "isrc" : "QZEKE2001993"
      },
      "external_urls" : {
        "spotify" : "https://open.spotify.com/track/5j8KE5MdMG4KfFjy0SGxar"
      },
      "href" : "https://api.spotify.com/v1/tracks/5j8KE5MdMG4KfFjy0SGxar",
      "id" : "5j8KE5MdMG4KfFjy0SGxar",
      "is_local" : false,
      "is_playable" : true,
      "name" : "O Word of God Incarnate",
      "popularity" : 0,
      "preview_url" : "https://p.scdn.co/mp3-preview/701c4fec62f2db02e2a11b7f419ee287db2879c0?cid=774b29d4f13844c495f206cafdad9c86",
      "track_number" : 40,
      "type" : "track",
      "uri" : "spotify:track:5j8KE5MdMG4KfFjy0SGxar"
    }, {
      "album" : {
        "album_type" : "album",
        "artists" : [ {
          "external_urls" : {
            "spotify" : "https://open.spotify.com/artist/4X0B4Hnsn3lg1aMjeQtolW"
          },
          "href" : "https://api.spotify.com/v1/artists/4X0B4Hnsn3lg1aMjeQtolW",
          "id" : "4X0B4Hnsn3lg1aMjeQtolW",
          "name" : "The Trinity Choir of St. Paul's Chapel",
          "type" : "artist",
          "uri" : "spotify:artist:4X0B4Hnsn3lg1aMjeQtolW"
        } ],
        "external_urls" : {
          "spotify" : "https://open.spotify.com/album/0nFogjLQKZFlX5SaJdBv69"
        },
        "href" : "https://api.spotify.com/v1/albums/0nFogjLQKZFlX5SaJdBv69",
        "id" : "0nFogjLQKZFlX5SaJdBv69",
        "images" : [ {
          "height" : 640,
          "url" : "https://i.scdn.co/image/ab67616d0000b27301919eb0bd15a09f1e148147",
          "width" : 640
        }, {
          "height" : 300,
          "url" : "https://i.scdn.co/image/ab67616d00001e0201919eb0bd15a09f1e148147",
          "width" : 300
        }, {
          "height" : 64,
          "url" : "https://i.scdn.co/image/ab67616d0000485101919eb0bd15a09f1e148147",
          "width" : 64
        } ],
        "name" : "Sacred Choruses, Vol. 5",
        "release_date" : "2018-05-15",
        "release_date_precision" : "day",
        "total_tracks" : 10,
        "type" : "album",
        "uri" : "spotify:album:0nFogjLQKZFlX5SaJdBv69"
      },
      "artists" : [ {
        "external_urls" : {
          "spotify" : "https://open.spotify.com/artist/4X0B4Hnsn3lg1aMjeQtolW"
        },
        "href" : "https://api.spotify.com/v1/artists/4X0B4Hnsn3lg1aMjeQtolW",
        "id" : "4X0B4Hnsn3lg1aMjeQtolW",
        "name" : "The Trinity Choir of St. Paul's Chapel",
        "type" : "artist",
        "uri" : "spotify:artist:4X0B4Hnsn3lg1aMjeQtolW"
      } ],
      "disc_number" : 1,
      "duration_ms" : 163666,
      "explicit" : false,
      "external_ids" : {
        "isrc" : "DEU470007969"
      },
      "external_urls" : {
        "spotify" : "https://open.spotify.com/track/050NYrBII3f505g4BJUpOi"
      },
      "href" : "https://api.spotify.com/v1/tracks/050NYrBII3f505g4BJUpOi",
      "id" : "050NYrBII3f505g4BJUpOi",
      "is_local" : false,
      "is_playable" : true,
      "name" : "O Word of God Incarnate",
      "popularity" : 0,
      "preview_url" : "https://p.scdn.co/mp3-preview/4a428ad849b4d2340be378aa915c1236941e8f39?cid=774b29d4f13844c495f206cafdad9c86",
      "track_number" : 4,
      "type" : "track",
      "uri" : "spotify:track:050NYrBII3f505g4BJUpOi"
    }, {
      "album" : {
        "album_type" : "album",
        "artists" : [ {
          "external_urls" : {
            "spotify" : "https://open.spotify.com/artist/1h9n5dTdX1itAkl4WPBjkP"
          },
          "href" : "https://api.spotify.com/v1/artists/1h9n5dTdX1itAkl4WPBjkP",
          "id" : "1h9n5dTdX1itAkl4WPBjkP",
          "name" : "Eddie Lewis",
          "type" : "artist",
          "uri" : "spotify:artist:1h9n5dTdX1itAkl4WPBjkP"
        } ],
        "external_urls" : {
          "spotify" : "https://open.spotify.com/album/6tImkCsLDdwLfWFdIpIwqr"
        },
        "href" : "https://api.spotify.com/v1/albums/6tImkCsLDdwLfWFdIpIwqr",
        "id" : "6tImkCsLDdwLfWFdIpIwqr",
        "images" : [ {
          "height" : 640,
          "url" : "https://i.scdn.co/image/ab67616d0000b273b112da33d512c570edf0ffdf",
          "width" : 640
        }, {
          "height" : 300,
          "url" : "https://i.scdn.co/image/ab67616d00001e02b112da33d512c570edf0ffdf",
          "width" : 300
        }, {
          "height" : 64,
          "url" : "https://i.scdn.co/image/ab67616d00004851b112da33d512c570edf0ffdf",
          "width" : 64
        } ],
        "name" : "Unadorned Trumpet Hymns II",
        "release_date" : "2018-10-28",
        "release_date_precision" : "day",
        "total_tracks" : 49,
        "type" : "album",
        "uri" : "spotify:album:6tImkCsLDdwLfWFdIpIwqr"
      },
      "artists" : [ {
        "external_urls" : {
          "spotify" : "https://open.spotify.com/artist/1h9n5dTdX1itAkl4WPBjkP"
        },
        "href" : "https://api.spotify.com/v1/artists/1h9n5dTdX1itAkl4WPBjkP",
        "id" : "1h9n5dTdX1itAkl4WPBjkP",
        "name" : "Eddie Lewis",
        "type" : "artist",
        "uri" : "spotify:artist:1h9n5dTdX1itAkl4WPBjkP"
      } ],
      "disc_number" : 1,
      "duration_ms" : 74774,
      "explicit" : false,
      "external_ids" : {
        "isrc" : "QMRVS1800046"
      },
      "external_urls" : {
        "spotify" : "https://open.spotify.com/track/0kIEDUjTrY58iDF9LSvoZx"
      },
      "href" : "https://api.spotify.com/v1/tracks/0kIEDUjTrY58iDF9LSvoZx",
      "id" : "0kIEDUjTrY58iDF9LSvoZx",
      "is_local" : false,
      "is_playable" : true,
      "name" : "O Word of God Incarnate",
      "popularity" : 0,
      "preview_url" : "https://p.scdn.co/mp3-preview/2fedfecdb8bbf20bd4da27f13529341b1706a9ed?cid=774b29d4f13844c495f206cafdad9c86",
      "track_number" : 46,
      "type" : "track",
      "uri" : "spotify:track:0kIEDUjTrY58iDF9LSvoZx"
    }, {
      "album" : {
        "album_type" : "album",
        "artists" : [ {
          "external_urls" : {
            "spotify" : "https://open.spotify.com/artist/45QNqncmJi3M3qyWrlcvif"
          },
          "href" : "https://api.spotify.com/v1/artists/45QNqncmJi3M3qyWrlcvif",
          "id" : "45QNqncmJi3M3qyWrlcvif",
          "name" : "William Neil",
          "type" : "artist",
          "uri" : "spotify:artist:45QNqncmJi3M3qyWrlcvif"
        } ],
        "external_urls" : {
          "spotify" : "https://open.spotify.com/album/7bxRNoZcWfp4XmmPVigipS"
        },
        "href" : "https://api.spotify.com/v1/albums/7bxRNoZcWfp4XmmPVigipS",
        "id" : "7bxRNoZcWfp4XmmPVigipS",
        "images" : [ {
          "height" : 640,
          "url" : "https://i.scdn.co/image/ab67616d0000b2737666cb2a91c4462c6a120971",
          "width" : 640
        }, {
          "height" : 300,
          "url" : "https://i.scdn.co/image/ab67616d00001e027666cb2a91c4462c6a120971",
          "width" : 300
        }, {
          "height" : 64,
          "url" : "https://i.scdn.co/image/ab67616d000048517666cb2a91c4462c6a120971",
          "width" : 64
        } ],
        "name" : "Amazing Grace: 60 Hymns of Faith & Praise",
        "release_date" : "2008-10-21",
        "release_date_precision" : "day",
        "total_tracks" : 60,
        "type" : "album",
        "uri" : "spotify:album:7bxRNoZcWfp4XmmPVigipS"
      },
      "artists" : [ {
        "external_urls" : {
          "spotify" : "https://open.spotify.com/artist/45QNqncmJi3M3qyWrlcvif"
        },
        "href" : "https://api.spotify.com/v1/artists/45QNqncmJi3M3qyWrlcvif",
        "id" : "45QNqncmJi3M3qyWrlcvif",
        "name" : "William Neil",
        "type" : "artist",
        "uri" : "spotify:artist:45QNqncmJi3M3qyWrlcvif"
      } ],
      "disc_number" : 2,
      "duration_ms" : 101373,
      "explicit" : false,
      "external_ids" : {
        "isrc" : "USBZ90810204"
      },
      "external_urls" : {
        "spotify" : "https://open.spotify.com/track/10frKNOAkSqY2yM3N6wfgR"
      },
      "href" : "https://api.spotify.com/v1/tracks/10frKNOAkSqY2yM3N6wfgR",
      "id" : "10frKNOAkSqY2yM3N6wfgR",
      "is_local" : false,
      "is_playable" : true,
      "name" : "O Word of God Incarnate",
      "popularity" : 0,
      "preview_url" : "https://p.scdn.co/mp3-preview/4dec451c4ce91ded31adef3ca6f56221bfc35d89?cid=774b29d4f13844c495f206cafdad9c86",
      "track_number" : 14,
      "type" : "track",
      "uri" : "spotify:track:10frKNOAkSqY2yM3N6wfgR"
    }, {
      "album" : {
        "album_type" : "album",
        "artists" : [ {
          "external_urls" : {
            "spotify" : "https://open.spotify.com/artist/54eswobhrYloRvLw89Bg3C"
          },
          "href" : "https://api.spotify.com/v1/artists/54eswobhrYloRvLw89Bg3C",
          "id" : "54eswobhrYloRvLw89Bg3C",
          "name" : "Timothy Albrecht",
          "type" : "artist",
          "uri" : "spotify:artist:54eswobhrYloRvLw89Bg3C"
        } ],
        "external_urls" : {
          "spotify" : "https://open.spotify.com/album/6YXy0v7djqD6fxxcLk9Vhk"
        },
        "href" : "https://api.spotify.com/v1/albums/6YXy0v7djqD6fxxcLk9Vhk",
        "id" : "6YXy0v7djqD6fxxcLk9Vhk",
        "images" : [ {
          "height" : 640,
          "url" : "https://i.scdn.co/image/ab67616d0000b273937b48822c7a06c285b1f9de",
          "width" : 640
        }, {
          "height" : 300,
          "url" : "https://i.scdn.co/image/ab67616d00001e02937b48822c7a06c285b1f9de",
          "width" : 300
        }, {
          "height" : 64,
          "url" : "https://i.scdn.co/image/ab67616d00004851937b48822c7a06c285b1f9de",
          "width" : 64
        } ],
        "name" : "Grace Notes for Organ",
        "release_date" : "1997",
        "release_date_precision" : "year",
        "total_tracks" : 37,
        "type" : "album",
        "uri" : "spotify:album:6YXy0v7djqD6fxxcLk9Vhk"
      },
      "artists" : [ {
        "external_urls" : {
          "spotify" : "https://open.spotify.com/artist/54eswobhrYloRvLw89Bg3C"
        },
        "href" : "https://api.spotify.com/v1/artists/54eswobhrYloRvLw89Bg3C",
        "id" : "54eswobhrYloRvLw89Bg3C",
        "name" : "Timothy Albrecht",
        "type" : "artist",
        "uri" : "spotify:artist:54eswobhrYloRvLw89Bg3C"
      } ],
      "disc_number" : 1,
      "duration_ms" : 89066,
      "explicit" : false,
      "external_ids" : {
        "isrc" : "USA370698893"
      },
      "external_urls" : {
        "spotify" : "https://open.spotify.com/track/485YTLildTpqBi9maK9owO"
      },
      "href" : "https://api.spotify.com/v1/tracks/485YTLildTpqBi9maK9owO",
      "id" : "485YTLildTpqBi9maK9owO",
      "is_local" : false,
      "is_playable" : true,
      "name" : "O Word of God Incarnate",
      "popularity" : 0,
      "preview_url" : "https://p.scdn.co/mp3-preview/245f83fdaf5c2adb9bb5695dee258053f4c7e6bd?cid=774b29d4f13844c495f206cafdad9c86",
      "track_number" : 32,
      "type" : "track",
      "uri" : "spotify:track:485YTLildTpqBi9maK9owO"
    }, {
      "album" : {
        "album_type" : "album",
        "artists" : [ {
          "external_urls" : {
            "spotify" : "https://open.spotify.com/artist/4BIG4azl4pJv9vfeHaDPhg"
          },
          "href" : "https://api.spotify.com/v1/artists/4BIG4azl4pJv9vfeHaDPhg",
          "id" : "4BIG4azl4pJv9vfeHaDPhg",
          "name" : "Moravian Lower Brass",
          "type" : "artist",
          "uri" : "spotify:artist:4BIG4azl4pJv9vfeHaDPhg"
        } ],
        "external_urls" : {
          "spotify" : "https://open.spotify.com/album/0lB5q0PBflCFOsPw33LF3z"
        },
        "href" : "https://api.spotify.com/v1/albums/0lB5q0PBflCFOsPw33LF3z",
        "id" : "0lB5q0PBflCFOsPw33LF3z",
        "images" : [ {
          "height" : 640,
          "url" : "https://i.scdn.co/image/ab67616d0000b273e13d5b087d4154344859d8aa",
          "width" : 640
        }, {
          "height" : 300,
          "url" : "https://i.scdn.co/image/ab67616d00001e02e13d5b087d4154344859d8aa",
          "width" : 300
        }, {
          "height" : 64,
          "url" : "https://i.scdn.co/image/ab67616d00004851e13d5b087d4154344859d8aa",
          "width" : 64
        } ],
        "name" : "Harmonious to Dwell",
        "release_date" : "2019-01-24",
        "release_date_precision" : "day",
        "total_tracks" : 38,
        "type" : "album",
        "uri" : "spotify:album:0lB5q0PBflCFOsPw33LF3z"
      },
      "artists" : [ {
        "external_urls" : {
          "spotify" : "https://open.spotify.com/artist/4BIG4azl4pJv9vfeHaDPhg"
        },
        "href" : "https://api.spotify.com/v1/artists/4BIG4azl4pJv9vfeHaDPhg",
        "id" : "4BIG4azl4pJv9vfeHaDPhg",
        "name" : "Moravian Lower Brass",
        "type" : "artist",
        "uri" : "spotify:artist:4BIG4azl4pJv9vfeHaDPhg"
      } ],
      "disc_number" : 1,
      "duration_ms" : 61826,
      "explicit" : false,
      "external_ids" : {
        "isrc" : "QMAAK1883085"
      },
      "external_urls" : {
        "spotify" : "https://open.spotify.com/track/4cezkqQlMtZGOSURib34xp"
      },
      "href" : "https://api.spotify.com/v1/tracks/4cezkqQlMtZGOSURib34xp",
      "id" : "4cezkqQlMtZGOSURib34xp",
      "is_local" : false,
      "is_playable" : true,
      "name" : "O Word of God Incarnate",
      "popularity" : 0,
      "preview_url" : "https://p.scdn.co/mp3-preview/ee6c7a2ab2ba5921ae7726b86367c015e425fc8b?cid=774b29d4f13844c495f206cafdad9c86",
      "track_number" : 34,
      "type" : "track",
      "uri" : "spotify:track:4cezkqQlMtZGOSURib34xp"
    }, {
      "album" : {
        "album_type" : "album",
        "artists" : [ {
          "external_urls" : {
            "spotify" : "https://open.spotify.com/artist/7gcr2AtLOatDO1SH3P88OA"
          },
          "href" : "https://api.spotify.com/v1/artists/7gcr2AtLOatDO1SH3P88OA",
          "id" : "7gcr2AtLOatDO1SH3P88OA",
          "name" : "James Steele & Esther Steele",
          "type" : "artist",
          "uri" : "spotify:artist:7gcr2AtLOatDO1SH3P88OA"
        } ],
        "external_urls" : {
          "spotify" : "https://open.spotify.com/album/5iTCB7ytQUzbAaL6OiFB6j"
        },
        "href" : "https://api.spotify.com/v1/albums/5iTCB7ytQUzbAaL6OiFB6j",
        "id" : "5iTCB7ytQUzbAaL6OiFB6j",
        "images" : [ {
          "height" : 640,
          "url" : "https://i.scdn.co/image/ab67616d0000b2738344fd317551f37829b979e4",
          "width" : 640
        }, {
          "height" : 300,
          "url" : "https://i.scdn.co/image/ab67616d00001e028344fd317551f37829b979e4",
          "width" : 300
        }, {
          "height" : 64,
          "url" : "https://i.scdn.co/image/ab67616d000048518344fd317551f37829b979e4",
          "width" : 64
        } ],
        "name" : "Consolation Prized",
        "release_date" : "2012-02-29",
        "release_date_precision" : "day",
        "total_tracks" : 17,
        "type" : "album",
        "uri" : "spotify:album:5iTCB7ytQUzbAaL6OiFB6j"
      },
      "artists" : [ {
        "external_urls" : {
          "spotify" : "https://open.spotify.com/artist/7gcr2AtLOatDO1SH3P88OA"
        },
        "href" : "https://api.spotify.com/v1/artists/7gcr2AtLOatDO1SH3P88OA",
        "id" : "7gcr2AtLOatDO1SH3P88OA",
        "name" : "James Steele & Esther Steele",
        "type" : "artist",
        "uri" : "spotify:artist:7gcr2AtLOatDO1SH3P88OA"
      } ],
      "disc_number" : 1,
      "duration_ms" : 271693,
      "explicit" : false,
      "external_ids" : {
        "isrc" : "uscgj1245538"
      },
      "external_urls" : {
        "spotify" : "https://open.spotify.com/track/01Lj0aWFdqSMruPABHkBk5"
      },
      "href" : "https://api.spotify.com/v1/tracks/01Lj0aWFdqSMruPABHkBk5",
      "id" : "01Lj0aWFdqSMruPABHkBk5",
      "is_local" : false,
      "is_playable" : true,
      "name" : "Oh Word of God Incarnate",
      "popularity" : 0,
      "preview_url" : "https://p.scdn.co/mp3-preview/44e06bb3ab3a79ab85e31658ecc972f790cc7c96?cid=774b29d4f13844c495f206cafdad9c86",
      "track_number" : 11,
      "type" : "track",
      "uri" : "spotify:track:01Lj0aWFdqSMruPABHkBk5"
    }, {
      "album" : {
        "album_type" : "album",
        "artists" : [ {
          "external_urls" : {
            "spotify" : "https://open.spotify.com/artist/6CGtae462xqUIz8mV0d9CD"
          },
          "href" : "https://api.spotify.com/v1/artists/6CGtae462xqUIz8mV0d9CD",
          "id" : "6CGtae462xqUIz8mV0d9CD",
          "name" : "Karen Fasoldt",
          "type" : "artist",
          "uri" : "spotify:artist:6CGtae462xqUIz8mV0d9CD"
        } ],
        "external_urls" : {
          "spotify" : "https://open.spotify.com/album/2PvFX9JZO9rFLI0J8p4Eeh"
        },
        "href" : "https://api.spotify.com/v1/albums/2PvFX9JZO9rFLI0J8p4Eeh",
        "id" : "2PvFX9JZO9rFLI0J8p4Eeh",
        "images" : [ {
          "height" : 640,
          "url" : "https://i.scdn.co/image/ab67616d0000b273b31dc80408703fb9fe97c789",
          "width" : 640
        }, {
          "height" : 300,
          "url" : "https://i.scdn.co/image/ab67616d00001e02b31dc80408703fb9fe97c789",
          "width" : 300
        }, {
          "height" : 64,
          "url" : "https://i.scdn.co/image/ab67616d00004851b31dc80408703fb9fe97c789",
          "width" : 64
        } ],
        "name" : "Trilogy, Vol. 2 (Of Sacred Music for Religious Programing)",
        "release_date" : "2007",
        "release_date_precision" : "year",
        "total_tracks" : 15,
        "type" : "album",
        "uri" : "spotify:album:2PvFX9JZO9rFLI0J8p4Eeh"
      },
      "artists" : [ {
        "external_urls" : {
          "spotify" : "https://open.spotify.com/artist/6CGtae462xqUIz8mV0d9CD"
        },
        "href" : "https://api.spotify.com/v1/artists/6CGtae462xqUIz8mV0d9CD",
        "id" : "6CGtae462xqUIz8mV0d9CD",
        "name" : "Karen Fasoldt",
        "type" : "artist",
        "uri" : "spotify:artist:6CGtae462xqUIz8mV0d9CD"
      } ],
      "disc_number" : 1,
      "duration_ms" : 113693,
      "explicit" : false,
      "external_ids" : {
        "isrc" : "DEU470002148"
      },
      "external_urls" : {
        "spotify" : "https://open.spotify.com/track/4BU1SNKbYrZGfcOT1dEUxJ"
      },
      "href" : "https://api.spotify.com/v1/tracks/4BU1SNKbYrZGfcOT1dEUxJ",
      "id" : "4BU1SNKbYrZGfcOT1dEUxJ",
      "is_local" : false,
      "is_playable" : true,
      "name" : "O Word of God Incarnate",
      "popularity" : 0,
      "preview_url" : "https://p.scdn.co/mp3-preview/c93d72bc729bcd6d70138734abd11fa6075189f1?cid=774b29d4f13844c495f206cafdad9c86",
      "track_number" : 12,
      "type" : "track",
      "uri" : "spotify:track:4BU1SNKbYrZGfcOT1dEUxJ"
    }, {
      "album" : {
        "album_type" : "album",
        "artists" : [ {
          "external_urls" : {
            "spotify" : "https://open.spotify.com/artist/0SMQbY8l9Mph9d8NLv92oh"
          },
          "href" : "https://api.spotify.com/v1/artists/0SMQbY8l9Mph9d8NLv92oh",
          "id" : "0SMQbY8l9Mph9d8NLv92oh",
          "name" : "RiNG-O choir",
          "type" : "artist",
          "uri" : "spotify:artist:0SMQbY8l9Mph9d8NLv92oh"
        } ],
        "external_urls" : {
          "spotify" : "https://open.spotify.com/album/592mt1ey8188d7Dn0zbv9f"
        },
        "href" : "https://api.spotify.com/v1/albums/592mt1ey8188d7Dn0zbv9f",
        "id" : "592mt1ey8188d7Dn0zbv9f",
        "images" : [ {
          "height" : 640,
          "url" : "https://i.scdn.co/image/ab67616d0000b273bd70ff38c40e1342818c2b93",
          "width" : 640
        }, {
          "height" : 300,
          "url" : "https://i.scdn.co/image/ab67616d00001e02bd70ff38c40e1342818c2b93",
          "width" : 300
        }, {
          "height" : 64,
          "url" : "https://i.scdn.co/image/ab67616d00004851bd70ff38c40e1342818c2b93",
          "width" : 64
        } ],
        "name" : "Beautiful Hymn Melodies vol.30",
        "release_date" : "2016-03-01",
        "release_date_precision" : "day",
        "total_tracks" : 10,
        "type" : "album",
        "uri" : "spotify:album:592mt1ey8188d7Dn0zbv9f"
      },
      "artists" : [ {
        "external_urls" : {
          "spotify" : "https://open.spotify.com/artist/0SMQbY8l9Mph9d8NLv92oh"
        },
        "href" : "https://api.spotify.com/v1/artists/0SMQbY8l9Mph9d8NLv92oh",
        "id" : "0SMQbY8l9Mph9d8NLv92oh",
        "name" : "RiNG-O choir",
        "type" : "artist",
        "uri" : "spotify:artist:0SMQbY8l9Mph9d8NLv92oh"
      } ],
      "disc_number" : 1,
      "duration_ms" : 51641,
      "explicit" : false,
      "external_ids" : {
        "isrc" : "TCJPE1644529"
      },
      "external_urls" : {
        "spotify" : "https://open.spotify.com/track/0CqQhfXYxIeSaSxDCNcd57"
      },
      "href" : "https://api.spotify.com/v1/tracks/0CqQhfXYxIeSaSxDCNcd57",
      "id" : "0CqQhfXYxIeSaSxDCNcd57",
      "is_local" : false,
      "is_playable" : true,
      "name" : "O Word of God Incarnate",
      "popularity" : 0,
      "preview_url" : "https://p.scdn.co/mp3-preview/4b132817e0101b86138135a5001e3c2c59953262?cid=774b29d4f13844c495f206cafdad9c86",
      "track_number" : 1,
      "type" : "track",
      "uri" : "spotify:track:0CqQhfXYxIeSaSxDCNcd57"
    } ],
    "limit" : 10,
    "next" : "https://api.spotify.com/v1/search?query=O+Word+of+God+Incarnate&type=track&market=US&offset=15&limit=10",
    "offset" : 5,
    "previous" : "https://api.spotify.com/v1/search?query=O+Word+of+God+Incarnate&type=track&market=US&offset=0&limit=10",
    "total" : 34
  }
}