{
  "tracks" : {
    "href" : "https://api.spotify.com/v1/search?query=Breathe+on+Me%2C+Breath+of+God&type=track&market=US&offset=5&limit=10",
    "items" : [ {
      "album" : {
        "album_type" : "album",
        "artists" : [ {
          "external_urls" : {
            "spotify" : "https://open.spotify.com/artist/7gjHSq6MQ3C2RNdlIkbYnG"
          },
          "href" : "https://api.spotify.com/v1/artists/7gjHSq6MQ3C2RNdlIkbYnG",
          "id" : "7gjHSq6MQ3C2RNdlIkbYnG",
          "name" : "Instrumental Christian Songs, Christian Piano Music",
          "type" : "artist",
          "uri" : "spotify:artist:7gjHSq6MQ3C2RNdlIkbYnG"
        }, {
          "external_urls" : {
            "spotify" : "https://open.spotify.com/artist/07MOqUaJ2WqGGHQlpcz9H3"
          },
          "href" : "https://api.spotify.com/v1/artists/07MOqUaJ2WqGGHQlpcz9H3",
          "id" : "07MOqUaJ2WqGGHQlpcz9H3",
          "name" : "Praise and Worship",
          "type" : "artist",
          "uri" : "spotify:artist:07MOqUaJ2WqGGHQlpcz9H3"
        } ],
        "external_urls" : {
          "spotify" : "https://open.spotify.com/album/1AfoEPy4TG1eGDiFjnR28R"
        },
        "href" : "https://api.spotify.com/v1/albums/1AfoEPy4TG1eGDiFjnR28R",
        "id" : "1AfoEPy4TG1eGDiFjnR28R",
        "images" : [ {
          "height" : 640,
          "url" : "https://i.scdn.co/image/ab67616d0000b273fbb4f150bb476534730bdee6",
          "width" : 640
        }, {
          "height" : 300,
          "url" : "https://i.scdn.co/image/ab67616d00001e02fbb4f150bb476534730bdee6",
          "width" : 300
        }, {
          "height" : 64,
          "url" : "https://i.scdn.co/image/ab67616d00004851fbb4f150bb476534730bdee6",
          "width" : 64
        } ],
        "name" : "Harp Music for Bible Study",
        "release_date" : "2020-01-16",
        "release_date_precision" : "day",
        "total_tracks" : 18,
        "type" : "album",
        "uri" : "spotify:album:1AfoEPy4TG1eGDiFjnR28R"
      },
      "artists" : [ {
        "external_urls" : {
          "spotify" : "https://open.spotify.com/artist/7gjHSq6MQ3C2RNdlIkbYnG"
        },
        "href" : "https://api.spotify.com/v1/artists/7gjHSq6MQ3C2RNdlIkbYnG",
        "id" : "7gjHSq6MQ3C2RNdlIkbYnG",
        "name" : "Instrumental Christian Songs, Christian Piano Music",
        "type" : "artist",
        "uri" : "spotify:artist:7gjHSq6MQ3C2RNdlIkbYnG"
      }, {
        "external_urls" : {
          "spotify" : "https://open.spotify.com/artist/07MOqUaJ2WqGGHQlpcz9H3"
        },
        "href" : "https://api.spotify.com/v1/artists/07MOqUaJ2WqGGHQlpcz9H3",
        "id" : "07MOqUaJ2WqGGHQlpcz9H3",
        "name" : "Praise and Worship",
        "type" : "artist",
        "uri" : "spotify:artist:07MOqUaJ2WqGGHQlpcz9H3"
      } ],
      "disc_number" : 1,
      "duration_ms" : 180750,
      "explicit" : false,
      "external_ids" : {
        "isrc" : "TCAEI1991557"
      },
      "external_urls" : {
        "spotify" : "https://open.spotify.com/track/47IdU2sgznrpLg12DCCMP6"
      },
      "href" : "https://api.spotify.com/v1/tracks/47IdU2sgznrpLg12DCCMP6",
      "id" : "47IdU2sgznrpLg12DCCMP6",
      "is_local" : false,
      "is_playable" : true,
      "name" : "Breathe on Me, Breath of God (Instrumental Version)",
      "popularity" : 15,
      "preview_url" : "https://p.scdn.co/mp3-preview/a6af255f685b51e7bb1a53eff1a624493ce524a1?cid=774b29d4f13844c495f206cafdad9c86",
      "track_number" : 14,
      "type" : "track",
      "uri" : "spotify:track:47IdU2sgznrpLg12DCCMP6"
    }, {
      "album" : {
        "album_type" : "album",
        "artists" : [ {
          "external_urls" : {
            "spotify" : "https://open.spotify.com/artist/6eGXFEwOdfD1dIPyu6c5cG"
          },
          "href" : "https://api.spotify.com/v1/artists/6eGXFEwOdfD1dIPyu6c5cG",
          "id" : "6eGXFEwOdfD1dIPyu6c5cG",
          "name" : "Steve Green",
          "type" : "artist",
          "uri" : "spotify:artist:6eGXFEwOdfD1dIPyu6c5cG"
        } ],
        "external_urls" : {
          "spotify" : "https://open.spotify.com/album/3eWj9bSYpjFYKKDqMOwgky"
        },
        "href" : "https://api.spotify.com/v1/albums/3eWj9bSYpjFYKKDqMOwgky",
        "id" : "3eWj9bSYpjFYKKDqMOwgky",
        "images" : [ {
          "height" : 640,
          "url" : "https://i.scdn.co/image/ab67616d0000b273e408dd87bab10b029fc5e029",
          "width" : 640
        }, {
          "height" : 300,
          "url" : "https://i.scdn.co/image/ab67616d00001e02e408dd87bab10b029fc5e029",
          "width" : 300
        }, {
          "height" : 64,
          "url" : "https://i.scdn.co/image/ab67616d00004851e408dd87bab10b029fc5e029",
          "width" : 64
        } ],
        "name" : "Morning Light: Songs To Awaken The Dawn",
        "release_date" : "1999-01-01",
        "release_date_precision" : "day",
        "total_tracks" : 12,
        "type" : "album",
        "uri" : "spotify:album:3eWj9bSYpjFYKKDqMOwgky"
      },
      "artists" : [ {
        "external_urls" : {
          "spotify" : "https://open.spotify.com/artist/6eGXFEwOdfD1dIPyu6c5cG"
        },
        "href" : "https://api.spotify.com/v1/artists/6eGXFEwOdfD1dIPyu6c5cG",
        "id" : "6eGXFEwOdfD1dIPyu6c5cG",
        "name" : "Steve Green",
        "type" : "artist",
        "uri" : "spotify:artist:6eGXFEwOdfD1dIPyu6c5cG"
      } ],
      "disc_number" : 1,
      "duration_ms" : 214733,
      "explicit" : false,
      "external_ids" : {
        "isrc" : "USSP39911411"
      },
      "external_urls" : {
        "spotify" : "https://open.spotify.com/track/5zz09dej847MJ6qlXzUXRA"
      },
      "href" : "https://api.spotify.com/v1/tracks/5zz09dej847MJ6qlXzUXRA",
      "id" : "5zz09dej847MJ6qlXzUXRA",
      "is_local" : false,
      "is_playable" : true,
      "name" : "Breathe On Me, Breath Of God",
      "popularity" : 11,
      "preview_url" : null,
      "track_number" : 12,
      "type" : "track",
      "uri" : "spotify:track:5zz09dej847MJ6qlXzUXRA"
    }, {
      "album" : {
        "album_type" : "album",
        "artists" : [ {
          "external_urls" : {
            "spotify" : "https://open.spotify.com/artist/7rEg2Ki4383GBHtTPs2dwY"
          },
          "href" : "https://api.spotify.com/v1/artists/7rEg2Ki4383GBHtTPs2dwY",
          "id" : "7rEg2Ki4383GBHtTPs2dwY",
          "name" : "Billy Ray Hearn & Tom Fettke",
          "type" : "artist",
          "uri" : "spotify:artist:7rEg2Ki4383GBHtTPs2dwY"
        } ],
        "external_urls" : {
          "spotify" : "https://open.spotify.com/album/7EEq2emuoh58AF6VZ9uMLt"
        },
        "href" : "https://api.spotify.com/v1/albums/7EEq2emuoh58AF6VZ9uMLt",
        "id" : "7EEq2emuoh58AF6VZ9uMLt",
        "images" : [ {
          "height" : 640,
          "url" : "https://i.scdn.co/image/ab67616d0000b273c13c4bd16462ab1c590962fa",
          "width" : 640
        }, {
          "height" : 300,
          "url" : "https://i.scdn.co/image/ab67616d00001e02c13c4bd16462ab1c590962fa",
          "width" : 300
        }, {
          "height" : 64,
          "url" : "https://i.scdn.co/image/ab67616d00004851c13c4bd16462ab1c590962fa",
          "width" : 64
        } ],
        "name" : "The Majesty And Glory",
        "release_date" : "1988-01-01",
        "release_date_precision" : "day",
        "total_tracks" : 19,
        "type" : "album",
        "uri" : "spotify:album:7EEq2emuoh58AF6VZ9uMLt"
      },
      "artists" : [ {
        "external_urls" : {
          "spotify" : "https://open.spotify.com/artist/1YPs3oQUB7FkXhzcNo82fa"
        },
        "href" : "https://api.spotify.com/v1/artists/1YPs3oQUB7FkXhzcNo82fa",
        "id" : "1YPs3oQUB7FkXhzcNo82fa",
        "name" : "Tom Fettke",
        "type" : "artist",
        "uri" : "spotify:artist:1YPs3oQUB7FkXhzcNo82fa"
      } ],
      "disc_number" : 1,
      "duration_ms" : 183906,
      "explicit" : false,
      "external_ids" : {
        "isrc" : "USSP38859870"
      },
      "external_urls" : {
        "spotify" : "https://open.spotify.com/track/6H7SAbEmUeHWUW25IAh1kf"
      },
      "href" : "https://api.spotify.com/v1/tracks/6H7SAbEmUeHWUW25IAh1kf",
      "id" : "6H7SAbEmUeHWUW25IAh1kf",
      "is_local" : false,
      "is_playable" : true,
      "name" : "His Spirit Medley (Spirit Of God Descend Upon My Heart/Breathe On Me, O Breath Of God)",
      "popularity" : 9,
      "preview_url" : null,
      "track_number" : 12,
      "type" : "track",
      "uri" : "spotify:track:6H7SAbEmUeHWUW25IAh1kf"
    }, {
      "album" : {
        "album_type" : "album",
        "artists" : [ {
          "external_urls" : {
            "spotify" : "https://open.spotify.com/artist/4rhwll8EPEHOW8diluKlrZ"
          },
          "href" : "https://api.spotify.com/v1/artists/4rhwll8EPEHOW8diluKlrZ",
          "id" : "4rhwll8EPEHOW8diluKlrZ",
          "name" : "Glad",
          "type" : "artist",
          "uri" : "spotify:artist:4rhwll8EPEHOW8diluKlrZ"
        } ],
        "external_urls" : {
          "spotify" : "https://open.spotify.com/album/2Cedx5QpLOJvFsVuMBbwAl"
        },
        "href" : "https://api.spotify.com/v1/albums/2Cedx5QpLOJvFsVuMBbwAl",
        "id" : "2Cedx5QpLOJvFsVuMBbwAl",
        "images" : [ {
          "height" : 640,
          "url" : "https://i.scdn.co/image/ab67616d0000b2737414383023c2b90365732ea9",
          "width" : 640
        }, {
          "height" : 300,
          "url" : "https://i.scdn.co/image/ab67616d00001e027414383023c2b90365732ea9",
          "width" : 300
        }, {
          "height" : 64,
          "url" : "https://i.scdn.co/image/ab67616d000048517414383023c2b90365732ea9",
          "width" : 64
        } ],
        "name" : "Acapella Hymns",
        "release_date" : "1993",
        "release_date_precision" : "year",
        "total_tracks" : 14,
        "type" : "album",
        "uri" : "spotify:album:2Cedx5QpLOJvFsVuMBbwAl"
      },
      "artists" : [ {
        "external_urls" : {
          "spotify" : "https://open.spotify.com/artist/4rhwll8EPEHOW8diluKlrZ"
        },
        "href" : "https://api.spotify.com/v1/artists/4rhwll8EPEHOW8diluKlrZ",
        "id" : "4rhwll8EPEHOW8diluKlrZ",
        "name" : "Glad",
        "type" : "artist",
        "uri" : "spotify:artist:4rhwll8EPEHOW8diluKlrZ"
      } ],
      "disc_number" : 1,
      "duration_ms" : 32493,
      "explicit" : false,
      "external_ids" : {
        "isrc" : "USA5W0404832"
      },
      "external_urls" : {
        "spotify" : "https://open.spotify.com/track/408cXyMzybSqrVkZClJXh6"
      },
      "href" : "https://api.spotify.com/v1/tracks/408cXyMzybSqrVkZClJXh6",
      "id" : "408cXyMzybSqrVkZClJXh6",
      "is_local" : false,
      "is_playable" : true,
      "name" : "Breathe on Me, Breath of God",
      "popularity" : 8,
      "preview_url" : "https://p.scdn.co/mp3-preview/fe77e809934be1cf776338475aea1c83b2160c8d?cid=774b29d4f13844c495f206cafdad9c86",
      "track_number" : 12,
      "type" : "track",
      "uri" : "spotify:track:408cXyMzybSqrVkZClJXh6"
    }, {
      "album" : {
        "album_type" : "album",
        "artists" : [ {
          "external_urls" : {
            "spotify" : "https://open.spotify.com/artist/2x0QHABqKaBBvAOzvoevXJ"
          },
          "href" : "https://api.spotify.com/v1/artists/2x0QHABqKaBBvAOzvoevXJ",
          "id" : "2x0QHABqKaBBvAOzvoevXJ",
          "name" : "The Scottish Festival Singers",
          "type" : "artist",
          "uri" : "spotify:artist:2x0QHABqKaBBvAOzvoevXJ"
        } ],
        "external_urls" : {
          "spotify" : "https://open.spotify.com/album/4GUN0KPnTQGStRZzQ2xg4h"
        },
        "href" : "https://api.spotify.com/v1/albums/4GUN0KPnTQGStRZzQ2xg4h",
        "id" : "4GUN0KPnTQGStRZzQ2xg4h",
        "images" : [ {
          "height" : 640,
          "url" : "https://i.scdn.co/image/ab67616d0000b273e500b6de39b9bb01111ca72b",
          "width" : 640
        }, {
          "height" : 300,
          "url" : "https://i.scdn.co/image/ab67616d00001e02e500b6de39b9bb01111ca72b",
          "width" : 300
        }, {
          "height" : 64,
          "url" : "https://i.scdn.co/image/ab67616d00004851e500b6de39b9bb01111ca72b",
          "width" : 64
        } ],
        "name" : "90 Favorite Hymns",
        "release_date" : "2014-10-21",
        "release_date_precision" : "day",
        "total_tracks" : 90,
        "type" : "album",
        "uri" : "spotify:album:4GUN0KPnTQGStRZzQ2xg4h"
      },
      "artists" : [ {
        "external_urls" : {
          "spotify" : "https://open.spotify.com/artist/2x0QHABqKaBBvAOzvoevXJ"
        },
        "href" : "https://api.spotify.com/v1/artists/2x0QHABqKaBBvAOzvoevXJ",
        "id" : "2x0QHABqKaBBvAOzvoevXJ",
        "name" : "The Scottish Festival Singers",
        "type" : "artist",
        "uri" : "spotify:artist:2x0QHABqKaBBvAOzvoevXJ"
      } ],
      "disc_number" : 1,
      "duration_ms" : 119653,
      "explicit" : false,
      "external_ids" : {
        "isrc" : "USACX1401566"
      },
      "external_urls" : {
        "spotify" : "https://open.spotify.com/track/5n3StDhKZiGXs91GQpcZ66"
      },
      "href" : "https://api.spotify.com/v1/tracks/5n3StDhKZiGXs91GQpcZ66",
      "id" : "5n3StDhKZiGXs91GQpcZ66",
      "is_local" : false,
      "is_playable" : true,
      "name" : "Breathe on Me, Breath of God",
      "popularity" : 11,
      "preview_url" : "https://p.scdn.co/mp3-preview/71fc629865dddd067500cd4e7f09484ddf839929?cid=774b29d4f13844c495f206cafdad9c86",
      "track_number" : 18,
      "type" : "track",
      "uri" : "spotify:track:5n3StDhKZiGXs91GQpcZ66"
    }, {
      "album" : {
        "album_type" : "album",
        "artists" : [ {
          "external_urls" : {
            "spotify" : "https://open.spotify.com/artist/7HfmAAsZer6QNSG2OmowQX"
          },
          "href" : "https://api.spotify.com/v1/artists/7HfmAAsZer6QNSG2OmowQX",
          "id" : "7HfmAAsZer6QNSG2OmowQX",
          "name" : "Maranatha! Vocal Band",
          "type" : "artist",
          "uri" : "spotify:artist:7HfmAAsZer6QNSG2OmowQX"
        } ],
        "external_urls" : {
          "spotify" : "https://open.spotify.com/album/1csTQDtbkrn9MplbsxdF5a"
        },
        "href" : "https://api.spotify.com/v1/albums/1csTQDtbkrn9MplbsxdF5a",
        "id" : "1csTQDtbkrn9MplbsxdF5a",
        "images" : [ {
          "height" : 640,
          "url" : "https://i.scdn.co/image/ab67616d0000b273361ecbf8b3b964d63ed3b05a",
          "width" : 640
        }, {
          "height" : 300,
          "url" : "https://i.scdn.co/image/ab67616d00001e02361ecbf8b3b964d63ed3b05a",
          "width" : 300
        }, {
          "height" : 64,
          "url" : "https://i.scdn.co/image/ab67616d00004851361ecbf8b3b964d63ed3b05a",
          "width" : 64
        } ],
        "name" : "World's Greatest Praise & Worship",
        "release_date" : "2010-01-01",
        "release_date_precision" : "day",
        "total_tracks" : 30,
        "type" : "album",
        "uri" : "spotify:album:1csTQDtbkrn9MplbsxdF5a"
      },
      "artists" : [ {
        "external_urls" : {
          "spotify" : "https://open.spotify.com/artist/7HfmAAsZer6QNSG2OmowQX"
        },
        "href" : "https://api.spotify.com/v1/artists/7HfmAAsZer6QNSG2OmowQX",
        "id" : "7HfmAAsZer6QNSG2OmowQX",
        "name" : "Maranatha! Vocal Band",
        "type" : "artist",
        "uri" : "spotify:artist:7HfmAAsZer6QNSG2OmowQX"
      } ],
      "disc_number" : 2,
      "duration_ms" : 224000,
      "explicit" : false,
      "external_ids" : {
        "isrc" : "USMN20600822"
      },
      "external_urls" : {
        "spotify" : "https://open.spotify.com/track/6epfB2gM7cCj7cOZoFFTal"
      },
      "href" : "https://api.spotify.com/v1/tracks/6epfB2gM7cCj7cOZoFFTal",
      "id" : "6epfB2gM7cCj7cOZoFFTal",
      "is_local" : false,
      "is_playable" : true,
      "name" : "Breathe On Me, Breath Of God - World's Greatest Praise & Worship Album Version",
      "popularity" : 14,
      "preview_url" : null,
      "track_number" : 9,
      "type" : "track",
      "uri" : "spotify:track:6epfB2gM7cCj7cOZoFFTal"
    }, {
      "album" : {
        "album_type" : "album",
        "artists" : [ {
          "external_urls" : {
            "spotify" : "https://open.spotify.com/artist/6yHjh2kS1GE4StjNCe5vm0"
          },
          "href" : "https://api.spotify.com/v1/artists/6yHjh2kS1GE4StjNCe5vm0",
          "id" : "6yHjh2kS1GE4StjNCe5vm0",
          "name" : "Mark Baldwin",
          "type" : "artist",
          "uri" : "spotify:artist:6yHjh2kS1GE4StjNCe5vm0"
        } ],
        "external_urls" : {
          "spotify" : "https://open.spotify.com/album/3Ke2f10vls7327OQ3B7yqt"
        },
        "href" : "https://api.spotify.com/v1/albums/3Ke2f10vls7327OQ3B7yqt",
        "id" : "3Ke2f10vls7327OQ3B7yqt",
        "images" : [ {
          "height" : 640,
          "url" : "https://i.scdn.co/image/ab67616d0000b27394a76b58b61468576479353c",
          "width" : 640
        }, {
          "height" : 300,
          "url" : "https://i.scdn.co/image/ab67616d00001e0294a76b58b61468576479353c",
          "width" : 300
        }, {
          "height" : 64,
          "url" : "https://i.scdn.co/image/ab67616d0000485194a76b58b61468576479353c",
          "width" : 64
        } ],
        "name" : "Hymns for Morning and Evening",
        "release_date" : "2016-11-01",
        "release_date_precision" : "day",
        "total_tracks" : 22,
        "type" : "album",
        "uri" : "spotify:album:3Ke2f10vls7327OQ3B7yqt"
      },
      "artists" : [ {
        "external_urls" : {
          "spotify" : "https://open.spotify.com/artist/6yHjh2kS1GE4StjNCe5vm0"
        },
        "href" : "https://api.spotify.com/v1/artists/6yHjh2kS1GE4StjNCe5vm0",
        "id" : "6yHjh2kS1GE4StjNCe5vm0",
        "name" : "Mark Baldwin",
        "type" : "artist",
        "uri" : "spotify:artist:6yHjh2kS1GE4StjNCe5vm0"
      } ],
      "disc_number" : 1,
      "duration_ms" : 302564,
      "explicit" : false,
      "external_ids" : {
        "isrc" : "USLF51602065"
      },
      "external_urls" : {
        "spotify" : "https://open.spotify.com/track/3oe7oAT69SwRNager2rUBN"
      },
      "href" : "https://api.spotify.com/v1/tracks/3oe7oAT69SwRNager2rUBN",
      "id" : "3oe7oAT69SwRNager2rUBN",
      "is_local" : false,
      "is_playable" : true,
      "name" : "Breathe on Me, Breath of God / Be Thou My Vision",
      "popularity" : 12,
      "preview_url" : "https://p.scdn.co/mp3-preview/61d36b506fb42b0776b7f8978fc5aef43fc62306?cid=774b29d4f13844c495f206cafdad9c86",
      "track_number" : 1,
      "type" : "track",
      "uri" : "spotify:track:3oe7oAT69SwRNager2rUBN"
    }, {
      "album" : {
        "album_type" : "album",
        "artists" : [ {
          "external_urls" : {
            "spotify" : "https://open.spotify.com/artist/3yLg6DyvYm20G9P5bPPDUv"
          },
          "href" : "https://api.spotify.com/v1/artists/3yLg6DyvYm20G9P5bPPDUv",
          "id" : "3yLg6DyvYm20G9P5bPPDUv",
          "name" : "James Cleveland & The Northern & Southern California Choirs of the G.M.W.A.",
          "type" : "artist",
          "uri" : "spotify:artist:3yLg6DyvYm20G9P5bPPDUv"
        } ],
        "external_urls" : {
          "spotify" : "https://open.spotify.com/album/5lcFgVFiS5BS8b97ZtXbyI"
        },
        "href" : "https://api.spotify.com/v1/albums/5lcFgVFiS5BS8b97ZtXbyI",
        "id" : "5lcFgVFiS5BS8b97ZtXbyI",
        "images" : [ {
          "height" : 640,
          "url" : "https://i.scdn.co/image/ab67616d0000b2732034487f1f778f472ae28d7d",
          "width" : 640
        }, {
          "height" : 300,
          "url" : "https://i.scdn.co/image/ab67616d00001e022034487f1f778f472ae28d7d",
          "width" : 300
        }, {
          "height" : 64,
          "url" : "https://i.scdn.co/image/ab67616d000048512034487f1f778f472ae28d7d",
          "width" : 64
        } ],
        "name" : "Breathe On Me",
        "release_date" : "1989-09-12",
        "release_date_precision" : "day",
        "total_tracks" : 15,
        "type" : "album",
        "uri" : "spotify:album:5lcFgVFiS5BS8b97ZtXbyI"
      },
      "artists" : [ {
        "external_urls" : {
          "spotify" : "https://open.spotify.com/artist/3yLg6DyvYm20G9P5bPPDUv"
        },
        "href" : "https://api.spotify.com/v1/artists/3yLg6DyvYm20G9P5bPPDUv",
        "id" : "3yLg6DyvYm20G9P5bPPDUv",
        "name" : "James Cleveland & The Northern & Southern California Choirs of the G.M.W.A.",
        "type" : "artist",
        "uri" : "spotify:artist:3yLg6DyvYm20G9P5bPPDUv"
      } ],
      "disc_number" : 1,
      "duration_ms" : 337066,
      "explicit" : false,
      "external_ids" : {
        "isrc" : "US1SR0414233"
      },
      "external_urls" : {
        "spotify" : "https://open.spotify.com/track/05FVlmoFeuDjvVG5WDDdDD"
      },
      "href" : "https://api.spotify.com/v1/tracks/05FVlmoFeuDjvVG5WDDdDD",
      "id" : "05FVlmoFeuDjvVG5WDDdDD",
      "is_local" : false,
      "is_playable" : true,
      "name" : "God Said He Would See You Through",
      "popularity" : 8,
      "preview_url" : "https://p.scdn.co/mp3-preview/bfc561d4b28abc14d11869efde2f1a38cf6cd899?cid=774b29d4f13844c495f206cafdad9c86",
      "track_number" : 3,
      "type" : "track",
      "uri" : "spotify:track:05FVlmoFeuDjvVG5WDDdDD"
    }, {
      "album" : {
        "album_type" : "album",
        "artists" : [ {
          "external_urls" : {
            "spotify" : "https://open.spotify.com/artist/2yQZGNQJExPLfCB8kfTD88"
          },
          "href" : "https://api.spotify.com/v1/artists/2yQZGNQJExPLfCB8kfTD88",
          "id" : "2yQZGNQJExPLfCB8kfTD88",
          "name" : "Andrey Jackson",
          "type" : "artist",
          "uri" : "spotify:artist:2yQZGNQJExPLfCB8kfTD88"
        } ],
        "external_urls" : {
          "spotify" : "https://open.spotify.com/album/5NRlK5mLwKUpXwb3HVlFtQ"
        },
        "href" : "https://api.spotify.com/v1/albums/5NRlK5mLwKUpXwb3HVlFtQ",
        "id" : "5NRlK5mLwKUpXwb3HVlFtQ",
        "images" : [ {
          "height" : 640,
          "url" : "https://i.scdn.co/image/ab67616d0000b27365b909c1be847f14340f2d84",
          "width" : 640
        }, {
          "height" : 300,
          "url" : "https://i.scdn.co/image/ab67616d00001e0265b909c1be847f14340f2d84",
          "width" : 300
        }, {
          "height" : 64,
          "url" : "https://i.scdn.co/image/ab67616d0000485165b909c1be847f14340f2d84",
          "width" : 64
        } ],
        "name" : "Christian Hymns for Pentecost, Organ Accompaniments (The Church Organist Series)",
        "release_date" : "2015-10-20",
        "release_date_precision" : "day",
        "total_tracks" : 42,
        "type" : "album",
        "uri" : "spotify:album:5NRlK5mLwKUpXwb3HVlFtQ"
      },
      "artists" : [ {
        "external_urls" : {
          "spotify" : "https://open.spotify.com/artist/2yQZGNQJExPLfCB8kfTD88"
        },
        "href" : "https://api.spotify.com/v1/artists/2yQZGNQJExPLfCB8kfTD88",
        "id" : "2yQZGNQJExPLfCB8kfTD88",
        "name" : "Andrey Jackson",
        "type" : "artist",
        "uri" : "spotify:artist:2yQZGNQJExPLfCB8kfTD88"
      } ],
      "disc_number" : 1,
      "duration_ms" : 126021,
      "explicit" : false,
      "external_ids" : {
        "isrc" : "GB-SMU-23-66094"
      },
      "external_urls" : {
        "spotify" : "https://open.spotify.com/track/7lG18r69vxgKLldpRTiQXR"
      },
      "href" : "https://api.spotify.com/v1/tracks/7lG18r69vxgKLldpRTiQXR",
      "id" : "7lG18r69vxgKLldpRTiQXR",
      "is_local" : false,
      "is_playable" : true,
      "name" : "Breathe On Me Breath of God",
      "popularity" : 6,
      "preview_url" : "https://p.scdn.co/mp3-preview/2c830b35a08f9b2fe4365d4fec1685afe34e4585?cid=774b29d4f13844c495f206cafdad9c86",
      "track_number" : 5,
      "type" : "track",
      "uri" : "spotify:track:7lG18r69vxgKLldpRTiQXR"
    }, {
      "album" : {
        "album_type" : "single",
        "artists" : [ {
          "external_urls" : {
            "spotify" : "https://open.spotify.com/artist/5A0eoDIr0oOB4pXaHm0FWr"
          },
          "href" : "https://api.spotify.com/v1/artists/5A0eoDIr0oOB4pXaHm0FWr",
          "id" : "5A0eoDIr0oOB4pXaHm0FWr",
          "name" : "Holy Trinity Swiss Cottage",
          "type" : "artist",
          "uri" : "spotify:artist:5A0eoDIr0oOB4pXaHm0FWr"
        } ],
        "external_urls" : {
          "spotify" : "https://open.spotify.com/album/3xiYeD2H6Q9IjZghqvcLPt"
        },
        "href" : "https://api.spotify.com/v1/albums/3xiYeD2H6Q9IjZghqvcLPt",
        "id" : "3xiYeD2H6Q9IjZghqvcLPt",
        "images" : [ {
          "height" : 640,
          "url" : "https://i.scdn.co/image/ab67616d0000b273daeec6a1064dee35bede29c8",
          "width" : 640
        }, {
          "height" : 300,
          "url" : "https://i.scdn.co/image/ab67616d00001e02daeec6a1064dee35bede29c8",
          "width" : 300
        }, {
          "height" : 64,
          "url" : "https://i.scdn.co/image/ab67616d00004851daeec6a1064dee35bede29c8",
          "width" : 64
        } ],
        "name" : "Breathe On Me Breath of God",
        "release_date" : "2014-09-23",
        "release_date_precision" : "day",
        "total_tracks" : 2,
        "type" : "album",
        "uri" : "spotify:album:3xiYeD2H6Q9IjZghqvcLPt"
      },
      "artists" : [ {
        "external_urls" : {
          "spotify" : "https://open.spotify.com/artist/5A0eoDIr0oOB4pXaHm0FWr"
        },
        "href" : "https://api.spotify.com/v1/artists/5A0eoDIr0oOB4pXaHm0FWr",
        "id" : "5A0eoDIr0oOB4pXaHm0FWr",
        "name" : "Holy Trinity Swiss Cottage",
        "type" : "artist",
        "uri" : "spotify:artist:5A0eoDIr0oOB4pXaHm0FWr"
      }, {
        "external_urls" : {
          "spotify" : "https://open.spotify.com/artist/3SBinjM4kM0Kg0EmlLs7m3"
        },
        "href" : "https://api.spotify.com/v1/artists/3SBinjM4kM0Kg0EmlLs7m3",
        "id" : "3SBinjM4kM0Kg0EmlLs7m3",
        "name" : "Samarah",
        "type" : "artist",
        "uri" : "spotify:artist:3SBinjM4kM0Kg0EmlLs7m3"
      } ],
      "disc_number" : 1,
      "duration_ms" : 195402,
      "explicit" : false,
      "external_ids" : {
        "isrc" : "GBKPL1416226"
      },
      "external_urls" : {
        "spotify" : "https://open.spotify.com/track/6vgF21Y0vRHgwagnKVqynZ"
      },
      "href" : "https://api.spotify.com/v1/tracks/6vgF21Y0vRHgwagnKVqynZ",
      "id" : "6vgF21Y0vRHgwagnKVqynZ",
      "is_local" : false,
      "is_playable" : true,
      "name" : "Breathe On Me Breath of God",
      "popularity" : 10,
      "preview_url" : "https://p.scdn.co/mp3-preview/e01a06437448d036ba6ddf66ed917f6c1aebd83d?cid=774b29d4f13844c495f206cafdad9c86",
      "track_number" : 1,
      "type" : "track",
      "uri" : "spotify:track:6vgF21Y0vRHgwagnKVqynZ"
    } ],
    "limit" : 10,
    "next" : "https://api.spotify.com/v1/search?query=Breathe+on+Me%2C+Breath+of+God&type=track&market=US&offset=15&limit=10",
    "offset" : 5,
    "previous" : "https://api.spotify.com/v1/search?query=Breathe+on+Me%2C+Breath+of+God&type=track&market=US&offset=0&limit=10",
    "total" : 219
  }
}