{
  "tracks" : {
    "href" : "https://api.spotify.com/v1/search?query=Light+of+Light%2C+Enlighten+Me&type=track&market=US&offset=5&limit=10",
    "items" : [ {
      "album" : {
        "album_type" : "album",
        "artists" : [ {
          "external_urls" : {
            "spotify" : "https://open.spotify.com/artist/42lAvOjda4aRK629Oqplue"
          },
          "href" : "https://api.spotify.com/v1/artists/42lAvOjda4aRK629Oqplue",
          "id" : "42lAvOjda4aRK629Oqplue",
          "name" : "Elin Manahan Thomas",
          "type" : "artist",
          "uri" : "spotify:artist:42lAvOjda4aRK629Oqplue"
        } ],
        "external_urls" : {
          "spotify" : "https://open.spotify.com/album/0CEIu4HCTGWivJL3JpsfsU"
        },
        "href" : "https://api.spotify.com/v1/albums/0CEIu4HCTGWivJL3JpsfsU",
        "id" : "0CEIu4HCTGWivJL3JpsfsU",
        "images" : [ {
          "height" : 640,
          "url" : "https://i.scdn.co/image/ab67616d0000b273e2276d3e0a71904bf133726c",
          "width" : 640
        }, {
          "height" : 300,
          "url" : "https://i.scdn.co/image/ab67616d00001e02e2276d3e0a71904bf133726c",
          "width" : 300
        }, {
          "height" : 64,
          "url" : "https://i.scdn.co/image/ab67616d00004851e2276d3e0a71904bf133726c",
          "width" : 64
        } ],
        "name" : "Eternal Light",
        "release_date" : "2007-01-01",
        "release_date_precision" : "day",
        "total_tracks" : 17,
        "type" : "album",
        "uri" : "spotify:album:0CEIu4HCTGWivJL3JpsfsU"
      },
      "artists" : [ {
        "external_urls" : {
          "spotify" : "https://open.spotify.com/artist/5aIqB5nVVvmFsvSdExz408"
        },
        "href" : "https://api.spotify.com/v1/artists/5aIqB5nVVvmFsvSdExz408",
        "id" : "5aIqB5nVVvmFsvSdExz408",
        "name" : "Johann Sebastian Bach",
        "type" : "artist",
        "uri" : "spotify:artist:5aIqB5nVVvmFsvSdExz408"
      }, {
        "external_urls" : {
          "spotify" : "https://open.spotify.com/artist/42lAvOjda4aRK629Oqplue"
        },
        "href" : "https://api.spotify.com/v1/artists/42lAvOjda4aRK629Oqplue",
        "id" : "42lAvOjda4aRK629Oqplue",
        "name" : "Elin Manahan Thomas",
        "type" : "artist",
        "uri" : "spotify:artist:42lAvOjda4aRK629Oqplue"
      }, {
        "external_urls" : {
          "spotify" : "https://open.spotify.com/artist/1WWZAYN8d4n4iwjYALmmKB"
        },
        "href" : "https://api.spotify.com/v1/artists/1WWZAYN8d4n4iwjYALmmKB",
        "id" : "1WWZAYN8d4n4iwjYALmmKB",
        "name" : "Orchestra of the Age of Enlightenment",
        "type" : "artist",
        "uri" : "spotify:artist:1WWZAYN8d4n4iwjYALmmKB"
      }, {
        "external_urls" : {
          "spotify" : "https://open.spotify.com/artist/6URHrQ8te9u9mD6Q2PjVnu"
        },
        "href" : "https://api.spotify.com/v1/artists/6URHrQ8te9u9mD6Q2PjVnu",
        "id" : "6URHrQ8te9u9mD6Q2PjVnu",
        "name" : "Harry Christophers",
        "type" : "artist",
        "uri" : "spotify:artist:6URHrQ8te9u9mD6Q2PjVnu"
      } ],
      "disc_number" : 1,
      "duration_ms" : 322800,
      "explicit" : false,
      "external_ids" : {
        "isrc" : "GBUM70700417"
      },
      "external_urls" : {
        "spotify" : "https://open.spotify.com/track/1PS5PPl4CDZcMRwP6ROFIC"
      },
      "href" : "https://api.spotify.com/v1/tracks/1PS5PPl4CDZcMRwP6ROFIC",
      "id" : "1PS5PPl4CDZcMRwP6ROFIC",
      "is_local" : false,
      "is_playable" : true,
      "name" : "Aus Liebe will mein Heiland sterben",
      "popularity" : 4,
      "preview_url" : null,
      "track_number" : 10,
      "type" : "track",
      "uri" : "spotify:track:1PS5PPl4CDZcMRwP6ROFIC"
    }, {
      "album" : {
        "album_type" : "album",
        "artists" : [ {
          "external_urls" : {
            "spotify" : "https://open.spotify.com/artist/5lWKhMEB1HAYGo8i3AndCm"
          },
          "href" : "https://api.spotify.com/v1/artists/5lWKhMEB1HAYGo8i3AndCm",
          "id" : "5lWKhMEB1HAYGo8i3AndCm",
          "name" : "Guided Meditation",
          "type" : "artist",
          "uri" : "spotify:artist:5lWKhMEB1HAYGo8i3AndCm"
        } ],
        "external_urls" : {
          "spotify" : "https://open.spotify.com/album/6DK1NQZzCnAearEJdv1lIL"
        },
        "href" : "https://api.spotify.com/v1/albums/6DK1NQZzCnAearEJdv1lIL",
        "id" : "6DK1NQZzCnAearEJdv1lIL",
        "images" : [ {
          "height" : 640,
          "url" : "https://i.scdn.co/image/ab67616d0000b273d8ab0314c407cea8fb306b68",
          "width" : 640
        }, {
          "height" : 300,
          "url" : "https://i.scdn.co/image/ab67616d00001e02d8ab0314c407cea8fb306b68",
          "width" : 300
        }, {
          "height" : 64,
          "url" : "https://i.scdn.co/image/ab67616d00004851d8ab0314c407cea8fb306b68",
          "width" : 64
        } ],
        "name" : "48 Surroundings Of Peace",
        "release_date" : "2019-12-20",
        "release_date_precision" : "day",
        "total_tracks" : 48,
        "type" : "album",
        "uri" : "spotify:album:6DK1NQZzCnAearEJdv1lIL"
      },
      "artists" : [ {
        "external_urls" : {
          "spotify" : "https://open.spotify.com/artist/5lWKhMEB1HAYGo8i3AndCm"
        },
        "href" : "https://api.spotify.com/v1/artists/5lWKhMEB1HAYGo8i3AndCm",
        "id" : "5lWKhMEB1HAYGo8i3AndCm",
        "name" : "Guided Meditation",
        "type" : "artist",
        "uri" : "spotify:artist:5lWKhMEB1HAYGo8i3AndCm"
      } ],
      "disc_number" : 1,
      "duration_ms" : 120000,
      "explicit" : false,
      "external_ids" : {
        "isrc" : "GBPW44544745"
      },
      "external_urls" : {
        "spotify" : "https://open.spotify.com/track/7KLqBKqTvK81hUDDKGbCe7"
      },
      "href" : "https://api.spotify.com/v1/tracks/7KLqBKqTvK81hUDDKGbCe7",
      "id" : "7KLqBKqTvK81hUDDKGbCe7",
      "is_local" : false,
      "is_playable" : true,
      "name" : "Enlightened By The Light",
      "popularity" : 0,
      "preview_url" : "https://p.scdn.co/mp3-preview/d88946c51ec4ca461f246c38614e359f6ed50cf3?cid=774b29d4f13844c495f206cafdad9c86",
      "track_number" : 28,
      "type" : "track",
      "uri" : "spotify:track:7KLqBKqTvK81hUDDKGbCe7"
    }, {
      "album" : {
        "album_type" : "album",
        "artists" : [ {
          "external_urls" : {
            "spotify" : "https://open.spotify.com/artist/5lWKhMEB1HAYGo8i3AndCm"
          },
          "href" : "https://api.spotify.com/v1/artists/5lWKhMEB1HAYGo8i3AndCm",
          "id" : "5lWKhMEB1HAYGo8i3AndCm",
          "name" : "Guided Meditation",
          "type" : "artist",
          "uri" : "spotify:artist:5lWKhMEB1HAYGo8i3AndCm"
        } ],
        "external_urls" : {
          "spotify" : "https://open.spotify.com/album/4Q91HWomtr2XAno3rSGimQ"
        },
        "href" : "https://api.spotify.com/v1/albums/4Q91HWomtr2XAno3rSGimQ",
        "id" : "4Q91HWomtr2XAno3rSGimQ",
        "images" : [ {
          "height" : 640,
          "url" : "https://i.scdn.co/image/ab67616d0000b2730be2fe16f175f1513b8fa9e3",
          "width" : 640
        }, {
          "height" : 300,
          "url" : "https://i.scdn.co/image/ab67616d00001e020be2fe16f175f1513b8fa9e3",
          "width" : 300
        }, {
          "height" : 64,
          "url" : "https://i.scdn.co/image/ab67616d000048510be2fe16f175f1513b8fa9e3",
          "width" : 64
        } ],
        "name" : "78 Relaxing Sounds Of Peace",
        "release_date" : "2020-01-31",
        "release_date_precision" : "day",
        "total_tracks" : 78,
        "type" : "album",
        "uri" : "spotify:album:4Q91HWomtr2XAno3rSGimQ"
      },
      "artists" : [ {
        "external_urls" : {
          "spotify" : "https://open.spotify.com/artist/5lWKhMEB1HAYGo8i3AndCm"
        },
        "href" : "https://api.spotify.com/v1/artists/5lWKhMEB1HAYGo8i3AndCm",
        "id" : "5lWKhMEB1HAYGo8i3AndCm",
        "name" : "Guided Meditation",
        "type" : "artist",
        "uri" : "spotify:artist:5lWKhMEB1HAYGo8i3AndCm"
      } ],
      "disc_number" : 1,
      "duration_ms" : 120000,
      "explicit" : false,
      "external_ids" : {
        "isrc" : "GBPW44729896"
      },
      "external_urls" : {
        "spotify" : "https://open.spotify.com/track/0uQLokI3AEdhYL7roJPUZD"
      },
      "href" : "https://api.spotify.com/v1/tracks/0uQLokI3AEdhYL7roJPUZD",
      "id" : "0uQLokI3AEdhYL7roJPUZD",
      "is_local" : false,
      "is_playable" : true,
      "name" : "Enlightened By The Light",
      "popularity" : 0,
      "preview_url" : "https://p.scdn.co/mp3-preview/d88946c51ec4ca461f246c38614e359f6ed50cf3?cid=774b29d4f13844c495f206cafdad9c86",
      "track_number" : 12,
      "type" : "track",
      "uri" : "spotify:track:0uQLokI3AEdhYL7roJPUZD"
    }, {
      "album" : {
        "album_type" : "album",
        "artists" : [ {
          "external_urls" : {
            "spotify" : "https://open.spotify.com/artist/3V0v9hz1J9DcwQOt5WWc7t"
          },
          "href" : "https://api.spotify.com/v1/artists/3V0v9hz1J9DcwQOt5WWc7t",
          "id" : "3V0v9hz1J9DcwQOt5WWc7t",
          "name" : "Zen Meditate",
          "type" : "artist",
          "uri" : "spotify:artist:3V0v9hz1J9DcwQOt5WWc7t"
        } ],
        "external_urls" : {
          "spotify" : "https://open.spotify.com/album/1StS18afuNZT9IMSl1uQ9E"
        },
        "href" : "https://api.spotify.com/v1/albums/1StS18afuNZT9IMSl1uQ9E",
        "id" : "1StS18afuNZT9IMSl1uQ9E",
        "images" : [ {
          "height" : 640,
          "url" : "https://i.scdn.co/image/ab67616d0000b2731af0c14c54e8ef251444b445",
          "width" : 640
        }, {
          "height" : 300,
          "url" : "https://i.scdn.co/image/ab67616d00001e021af0c14c54e8ef251444b445",
          "width" : 300
        }, {
          "height" : 64,
          "url" : "https://i.scdn.co/image/ab67616d000048511af0c14c54e8ef251444b445",
          "width" : 64
        } ],
        "name" : "40 Only Sounds Of Peace",
        "release_date" : "2020-02-07",
        "release_date_precision" : "day",
        "total_tracks" : 40,
        "type" : "album",
        "uri" : "spotify:album:1StS18afuNZT9IMSl1uQ9E"
      },
      "artists" : [ {
        "external_urls" : {
          "spotify" : "https://open.spotify.com/artist/3V0v9hz1J9DcwQOt5WWc7t"
        },
        "href" : "https://api.spotify.com/v1/artists/3V0v9hz1J9DcwQOt5WWc7t",
        "id" : "3V0v9hz1J9DcwQOt5WWc7t",
        "name" : "Zen Meditate",
        "type" : "artist",
        "uri" : "spotify:artist:3V0v9hz1J9DcwQOt5WWc7t"
      } ],
      "disc_number" : 1,
      "duration_ms" : 120000,
      "explicit" : false,
      "external_ids" : {
        "isrc" : "GBPW44760842"
      },
      "external_urls" : {
        "spotify" : "https://open.spotify.com/track/7ErQShpYtWkUEFpttvdSDp"
      },
      "href" : "https://api.spotify.com/v1/tracks/7ErQShpYtWkUEFpttvdSDp",
      "id" : "7ErQShpYtWkUEFpttvdSDp",
      "is_local" : false,
      "is_playable" : true,
      "name" : "Enlightened By The Light",
      "popularity" : 0,
      "preview_url" : "https://p.scdn.co/mp3-preview/d88946c51ec4ca461f246c38614e359f6ed50cf3?cid=774b29d4f13844c495f206cafdad9c86",
      "track_number" : 25,
      "type" : "track",
      "uri" : "spotify:track:7ErQShpYtWkUEFpttvdSDp"
    }, {
      "album" : {
        "album_type" : "album",
        "artists" : [ {
          "external_urls" : {
            "spotify" : "https://open.spotify.com/artist/0a7IMVQLynzliWvqoPo5tE"
          },
          "href" : "https://api.spotify.com/v1/artists/0a7IMVQLynzliWvqoPo5tE",
          "id" : "0a7IMVQLynzliWvqoPo5tE",
          "name" : "Deep Sleep Meditation",
          "type" : "artist",
          "uri" : "spotify:artist:0a7IMVQLynzliWvqoPo5tE"
        } ],
        "external_urls" : {
          "spotify" : "https://open.spotify.com/album/7fVtsO6jVYUkijjzGwJ7du"
        },
        "href" : "https://api.spotify.com/v1/albums/7fVtsO6jVYUkijjzGwJ7du",
        "id" : "7fVtsO6jVYUkijjzGwJ7du",
        "images" : [ {
          "height" : 640,
          "url" : "https://i.scdn.co/image/ab67616d0000b27310662ba9d82ed500aab0df07",
          "width" : 640
        }, {
          "height" : 300,
          "url" : "https://i.scdn.co/image/ab67616d00001e0210662ba9d82ed500aab0df07",
          "width" : 300
        }, {
          "height" : 64,
          "url" : "https://i.scdn.co/image/ab67616d0000485110662ba9d82ed500aab0df07",
          "width" : 64
        } ],
        "name" : "65 Spirit Of Reiki",
        "release_date" : "2020-02-07",
        "release_date_precision" : "day",
        "total_tracks" : 65,
        "type" : "album",
        "uri" : "spotify:album:7fVtsO6jVYUkijjzGwJ7du"
      },
      "artists" : [ {
        "external_urls" : {
          "spotify" : "https://open.spotify.com/artist/0a7IMVQLynzliWvqoPo5tE"
        },
        "href" : "https://api.spotify.com/v1/artists/0a7IMVQLynzliWvqoPo5tE",
        "id" : "0a7IMVQLynzliWvqoPo5tE",
        "name" : "Deep Sleep Meditation",
        "type" : "artist",
        "uri" : "spotify:artist:0a7IMVQLynzliWvqoPo5tE"
      } ],
      "disc_number" : 1,
      "duration_ms" : 120000,
      "explicit" : false,
      "external_ids" : {
        "isrc" : "GBPW44760194"
      },
      "external_urls" : {
        "spotify" : "https://open.spotify.com/track/168ZHKfUFUA12g9nUBNvj4"
      },
      "href" : "https://api.spotify.com/v1/tracks/168ZHKfUFUA12g9nUBNvj4",
      "id" : "168ZHKfUFUA12g9nUBNvj4",
      "is_local" : false,
      "is_playable" : true,
      "name" : "Enlightened By The Light",
      "popularity" : 0,
      "preview_url" : "https://p.scdn.co/mp3-preview/d88946c51ec4ca461f246c38614e359f6ed50cf3?cid=774b29d4f13844c495f206cafdad9c86",
      "track_number" : 35,
      "type" : "track",
      "uri" : "spotify:track:168ZHKfUFUA12g9nUBNvj4"
    }, {
      "album" : {
        "album_type" : "album",
        "artists" : [ {
          "external_urls" : {
            "spotify" : "https://open.spotify.com/artist/5lWKhMEB1HAYGo8i3AndCm"
          },
          "href" : "https://api.spotify.com/v1/artists/5lWKhMEB1HAYGo8i3AndCm",
          "id" : "5lWKhMEB1HAYGo8i3AndCm",
          "name" : "Guided Meditation",
          "type" : "artist",
          "uri" : "spotify:artist:5lWKhMEB1HAYGo8i3AndCm"
        } ],
        "external_urls" : {
          "spotify" : "https://open.spotify.com/album/0rVP3YcCdjksAE7tu5UUoR"
        },
        "href" : "https://api.spotify.com/v1/albums/0rVP3YcCdjksAE7tu5UUoR",
        "id" : "0rVP3YcCdjksAE7tu5UUoR",
        "images" : [ {
          "height" : 640,
          "url" : "https://i.scdn.co/image/ab67616d0000b273a5bbfaa5822342e5b7925c51",
          "width" : 640
        }, {
          "height" : 300,
          "url" : "https://i.scdn.co/image/ab67616d00001e02a5bbfaa5822342e5b7925c51",
          "width" : 300
        }, {
          "height" : 64,
          "url" : "https://i.scdn.co/image/ab67616d00004851a5bbfaa5822342e5b7925c51",
          "width" : 64
        } ],
        "name" : "51 Tracks Of Music From Outdoors",
        "release_date" : "2020-03-06",
        "release_date_precision" : "day",
        "total_tracks" : 51,
        "type" : "album",
        "uri" : "spotify:album:0rVP3YcCdjksAE7tu5UUoR"
      },
      "artists" : [ {
        "external_urls" : {
          "spotify" : "https://open.spotify.com/artist/5lWKhMEB1HAYGo8i3AndCm"
        },
        "href" : "https://api.spotify.com/v1/artists/5lWKhMEB1HAYGo8i3AndCm",
        "id" : "5lWKhMEB1HAYGo8i3AndCm",
        "name" : "Guided Meditation",
        "type" : "artist",
        "uri" : "spotify:artist:5lWKhMEB1HAYGo8i3AndCm"
      } ],
      "disc_number" : 1,
      "duration_ms" : 120000,
      "explicit" : false,
      "external_ids" : {
        "isrc" : "GBPW44883715"
      },
      "external_urls" : {
        "spotify" : "https://open.spotify.com/track/1xECiUAdGs96Wuqk2NeLbw"
      },
      "href" : "https://api.spotify.com/v1/tracks/1xECiUAdGs96Wuqk2NeLbw",
      "id" : "1xECiUAdGs96Wuqk2NeLbw",
      "is_local" : false,
      "is_playable" : true,
      "name" : "Enlightened By The Light",
      "popularity" : 0,
      "preview_url" : "https://p.scdn.co/mp3-preview/d88946c51ec4ca461f246c38614e359f6ed50cf3?cid=774b29d4f13844c495f206cafdad9c86",
      "track_number" : 21,
      "type" : "track",
      "uri" : "spotify:track:1xECiUAdGs96Wuqk2NeLbw"
    }, {
      "album" : {
        "album_type" : "album",
        "artists" : [ {
          "external_urls" : {
            "spotify" : "https://open.spotify.com/artist/1De0EWvNX6AyKoZDUg56ou"
          },
          "href" : "https://api.spotify.com/v1/artists/1De0EWvNX6AyKoZDUg56ou",
          "id" : "1De0EWvNX6AyKoZDUg56ou",
          "name" : "Meditaci贸n: Por Mateo",
          "type" : "artist",
          "uri" : "spotify:artist:1De0EWvNX6AyKoZDUg56ou"
        } ],
        "external_urls" : {
          "spotify" : "https://open.spotify.com/album/7IqmavqcXsjqMGnOyA8hze"
        },
        "href" : "https://api.spotify.com/v1/albums/7IqmavqcXsjqMGnOyA8hze",
        "id" : "7IqmavqcXsjqMGnOyA8hze",
        "images" : [ {
          "height" : 640,
          "url" : "https://i.scdn.co/image/ab67616d0000b273eedd520015447abc983f5d76",
          "width" : 640
        }, {
          "height" : 300,
          "url" : "https://i.scdn.co/image/ab67616d00001e02eedd520015447abc983f5d76",
          "width" : 300
        }, {
          "height" : 64,
          "url" : "https://i.scdn.co/image/ab67616d00004851eedd520015447abc983f5d76",
          "width" : 64
        } ],
        "name" : "78 Garden Of Serenity",
        "release_date" : "2020-01-17",
        "release_date_precision" : "day",
        "total_tracks" : 78,
        "type" : "album",
        "uri" : "spotify:album:7IqmavqcXsjqMGnOyA8hze"
      },
      "artists" : [ {
        "external_urls" : {
          "spotify" : "https://open.spotify.com/artist/1De0EWvNX6AyKoZDUg56ou"
        },
        "href" : "https://api.spotify.com/v1/artists/1De0EWvNX6AyKoZDUg56ou",
        "id" : "1De0EWvNX6AyKoZDUg56ou",
        "name" : "Meditaci贸n: Por Mateo",
        "type" : "artist",
        "uri" : "spotify:artist:1De0EWvNX6AyKoZDUg56ou"
      } ],
      "disc_number" : 1,
      "duration_ms" : 120000,
      "explicit" : false,
      "external_ids" : {
        "isrc" : "GBPW44679189"
      },
      "external_urls" : {
        "spotify" : "https://open.spotify.com/track/1oE1RlM8vAj3penwUyJKhY"
      },
      "href" : "https://api.spotify.com/v1/tracks/1oE1RlM8vAj3penwUyJKhY",
      "id" : "1oE1RlM8vAj3penwUyJKhY",
      "is_local" : false,
      "is_playable" : true,
      "name" : "Enlightened By The Light",
      "popularity" : 0,
      "preview_url" : "https://p.scdn.co/mp3-preview/d88946c51ec4ca461f246c38614e359f6ed50cf3?cid=774b29d4f13844c495f206cafdad9c86",
      "track_number" : 43,
      "type" : "track",
      "uri" : "spotify:track:1oE1RlM8vAj3penwUyJKhY"
    }, {
      "album" : {
        "album_type" : "album",
        "artists" : [ {
          "external_urls" : {
            "spotify" : "https://open.spotify.com/artist/2MYk6exrOI4fr9OfG3qPIQ"
          },
          "href" : "https://api.spotify.com/v1/artists/2MYk6exrOI4fr9OfG3qPIQ",
          "id" : "2MYk6exrOI4fr9OfG3qPIQ",
          "name" : "Meditation Zen Master",
          "type" : "artist",
          "uri" : "spotify:artist:2MYk6exrOI4fr9OfG3qPIQ"
        } ],
        "external_urls" : {
          "spotify" : "https://open.spotify.com/album/38meebPHzuChuk8vZ02mCr"
        },
        "href" : "https://api.spotify.com/v1/albums/38meebPHzuChuk8vZ02mCr",
        "id" : "38meebPHzuChuk8vZ02mCr",
        "images" : [ ],
        "name" : "66 Spiritual State Of Meditation",
        "release_date" : "2019-01-18",
        "release_date_precision" : "day",
        "total_tracks" : 66,
        "type" : "album",
        "uri" : "spotify:album:38meebPHzuChuk8vZ02mCr"
      },
      "artists" : [ {
        "external_urls" : {
          "spotify" : "https://open.spotify.com/artist/2MYk6exrOI4fr9OfG3qPIQ"
        },
        "href" : "https://api.spotify.com/v1/artists/2MYk6exrOI4fr9OfG3qPIQ",
        "id" : "2MYk6exrOI4fr9OfG3qPIQ",
        "name" : "Meditation Zen Master",
        "type" : "artist",
        "uri" : "spotify:artist:2MYk6exrOI4fr9OfG3qPIQ"
      } ],
      "disc_number" : 1,
      "duration_ms" : 120000,
      "explicit" : false,
      "external_ids" : {
        "isrc" : "GBPW43157304"
      },
      "external_urls" : {
        "spotify" : "https://open.spotify.com/track/07HEfX5kUoBp7aiD0M8Ib3"
      },
      "href" : "https://api.spotify.com/v1/tracks/07HEfX5kUoBp7aiD0M8Ib3",
      "id" : "07HEfX5kUoBp7aiD0M8Ib3",
      "is_local" : false,
      "is_playable" : true,
      "name" : "Enlightened By The Light",
      "popularity" : 0,
      "preview_url" : "https://p.scdn.co/mp3-preview/d88946c51ec4ca461f246c38614e359f6ed50cf3?cid=774b29d4f13844c495f206cafdad9c86",
      "track_number" : 9,
      "type" : "track",
      "uri" : "spotify:track:07HEfX5kUoBp7aiD0M8Ib3"
    }, {
      "album" : {
        "album_type" : "album",
        "artists" : [ {
          "external_urls" : {
            "spotify" : "https://open.spotify.com/artist/2MYk6exrOI4fr9OfG3qPIQ"
          },
          "href" : "https://api.spotify.com/v1/artists/2MYk6exrOI4fr9OfG3qPIQ",
          "id" : "2MYk6exrOI4fr9OfG3qPIQ",
          "name" : "Meditation Zen Master",
          "type" : "artist",
          "uri" : "spotify:artist:2MYk6exrOI4fr9OfG3qPIQ"
        } ],
        "external_urls" : {
          "spotify" : "https://open.spotify.com/album/0ftn5Oa3Hq4yr7rJAIXKMZ"
        },
        "href" : "https://api.spotify.com/v1/albums/0ftn5Oa3Hq4yr7rJAIXKMZ",
        "id" : "0ftn5Oa3Hq4yr7rJAIXKMZ",
        "images" : [ {
          "height" : 640,
          "url" : "https://i.scdn.co/image/ab67616d0000b273090aa0ca361a8929b6ecf9a2",
          "width" : 640
        }, {
          "height" : 300,
          "url" : "https://i.scdn.co/image/ab67616d00001e02090aa0ca361a8929b6ecf9a2",
          "width" : 300
        }, {
          "height" : 64,
          "url" : "https://i.scdn.co/image/ab67616d00004851090aa0ca361a8929b6ecf9a2",
          "width" : 64
        } ],
        "name" : "66 ANatural State Of Mind",
        "release_date" : "2019-12-13",
        "release_date_precision" : "day",
        "total_tracks" : 66,
        "type" : "album",
        "uri" : "spotify:album:0ftn5Oa3Hq4yr7rJAIXKMZ"
      },
      "artists" : [ {
        "external_urls" : {
          "spotify" : "https://open.spotify.com/artist/2MYk6exrOI4fr9OfG3qPIQ"
        },
        "href" : "https://api.spotify.com/v1/artists/2MYk6exrOI4fr9OfG3qPIQ",
        "id" : "2MYk6exrOI4fr9OfG3qPIQ",
        "name" : "Meditation Zen Master",
        "type" : "artist",
        "uri" : "spotify:artist:2MYk6exrOI4fr9OfG3qPIQ"
      } ],
      "disc_number" : 1,
      "duration_ms" : 120000,
      "explicit" : false,
      "external_ids" : {
        "isrc" : "GBPW44528661"
      },
      "external_urls" : {
        "spotify" : "https://open.spotify.com/track/2edrp3aZj0v3PWninvAYLH"
      },
      "href" : "https://api.spotify.com/v1/tracks/2edrp3aZj0v3PWninvAYLH",
      "id" : "2edrp3aZj0v3PWninvAYLH",
      "is_local" : false,
      "is_playable" : true,
      "name" : "Enlightened By The Light",
      "popularity" : 0,
      "preview_url" : "https://p.scdn.co/mp3-preview/d88946c51ec4ca461f246c38614e359f6ed50cf3?cid=774b29d4f13844c495f206cafdad9c86",
      "track_number" : 40,
      "type" : "track",
      "uri" : "spotify:track:2edrp3aZj0v3PWninvAYLH"
    }, {
      "album" : {
        "album_type" : "album",
        "artists" : [ {
          "external_urls" : {
            "spotify" : "https://open.spotify.com/artist/1De0EWvNX6AyKoZDUg56ou"
          },
          "href" : "https://api.spotify.com/v1/artists/1De0EWvNX6AyKoZDUg56ou",
          "id" : "1De0EWvNX6AyKoZDUg56ou",
          "name" : "Meditaci贸n: Por Mateo",
          "type" : "artist",
          "uri" : "spotify:artist:1De0EWvNX6AyKoZDUg56ou"
        } ],
        "external_urls" : {
          "spotify" : "https://open.spotify.com/album/7sTLHADghLzYjjuh6r1uB0"
        },
        "href" : "https://api.spotify.com/v1/albums/7sTLHADghLzYjjuh6r1uB0",
        "id" : "7sTLHADghLzYjjuh6r1uB0",
        "images" : [ {
          "height" : 640,
          "url" : "https://i.scdn.co/image/ab67616d0000b273042086bd7ac06d392f072a10",
          "width" : 640
        }, {
          "height" : 300,
          "url" : "https://i.scdn.co/image/ab67616d00001e02042086bd7ac06d392f072a10",
          "width" : 300
        }, {
          "height" : 64,
          "url" : "https://i.scdn.co/image/ab67616d00004851042086bd7ac06d392f072a10",
          "width" : 64
        } ],
        "name" : "78 Sounds Of Tranquil Mind",
        "release_date" : "2019-11-15",
        "release_date_precision" : "day",
        "total_tracks" : 78,
        "type" : "album",
        "uri" : "spotify:album:7sTLHADghLzYjjuh6r1uB0"
      },
      "artists" : [ {
        "external_urls" : {
          "spotify" : "https://open.spotify.com/artist/1De0EWvNX6AyKoZDUg56ou"
        },
        "href" : "https://api.spotify.com/v1/artists/1De0EWvNX6AyKoZDUg56ou",
        "id" : "1De0EWvNX6AyKoZDUg56ou",
        "name" : "Meditaci贸n: Por Mateo",
        "type" : "artist",
        "uri" : "spotify:artist:1De0EWvNX6AyKoZDUg56ou"
      } ],
      "disc_number" : 1,
      "duration_ms" : 120000,
      "explicit" : false,
      "external_ids" : {
        "isrc" : "GBPW44403410"
      },
      "external_urls" : {
        "spotify" : "https://open.spotify.com/track/7CVy01RGXzUCSdj7ImRDrw"
      },
      "href" : "https://api.spotify.com/v1/tracks/7CVy01RGXzUCSdj7ImRDrw",
      "id" : "7CVy01RGXzUCSdj7ImRDrw",
      "is_local" : false,
      "is_playable" : true,
      "name" : "Enlightened By The Light",
      "popularity" : 0,
      "preview_url" : "https://p.scdn.co/mp3-preview/d88946c51ec4ca461f246c38614e359f6ed50cf3?cid=774b29d4f13844c495f206cafdad9c86",
      "track_number" : 52,
      "type" : "track",
      "uri" : "spotify:track:7CVy01RGXzUCSdj7ImRDrw"
    } ],
    "limit" : 10,
    "next" : "https://api.spotify.com/v1/search?query=Light+of+Light%2C+Enlighten+Me&type=track&market=US&offset=15&limit=10",
    "offset" : 5,
    "previous" : "https://api.spotify.com/v1/search?query=Light+of+Light%2C+Enlighten+Me&type=track&market=US&offset=0&limit=10",
    "total" : 203
  }
}