{
  "tracks" : {
    "href" : "https://api.spotify.com/v1/search?query=When+I+Survey+the+Wondrous+Cross&type=track&market=US&offset=5&limit=10",
    "items" : [ {
      "album" : {
        "album_type" : "album",
        "artists" : [ {
          "external_urls" : {
            "spotify" : "https://open.spotify.com/artist/0vD3f3r69jBB1bL6VWnGM2"
          },
          "href" : "https://api.spotify.com/v1/artists/0vD3f3r69jBB1bL6VWnGM2",
          "id" : "0vD3f3r69jBB1bL6VWnGM2",
          "name" : "Chris Rice",
          "type" : "artist",
          "uri" : "spotify:artist:0vD3f3r69jBB1bL6VWnGM2"
        } ],
        "external_urls" : {
          "spotify" : "https://open.spotify.com/album/4XDj1573h0qRdkUNPiJKVP"
        },
        "href" : "https://api.spotify.com/v1/albums/4XDj1573h0qRdkUNPiJKVP",
        "id" : "4XDj1573h0qRdkUNPiJKVP",
        "images" : [ {
          "height" : 640,
          "url" : "https://i.scdn.co/image/ab67616d0000b2731ff0913a6c9cb48c8611c552",
          "width" : 640
        }, {
          "height" : 300,
          "url" : "https://i.scdn.co/image/ab67616d00001e021ff0913a6c9cb48c8611c552",
          "width" : 300
        }, {
          "height" : 64,
          "url" : "https://i.scdn.co/image/ab67616d000048511ff0913a6c9cb48c8611c552",
          "width" : 64
        } ],
        "name" : "Untitled Hymn: A Collection of Hymns",
        "release_date" : "2019-05-17",
        "release_date_precision" : "day",
        "total_tracks" : 12,
        "type" : "album",
        "uri" : "spotify:album:4XDj1573h0qRdkUNPiJKVP"
      },
      "artists" : [ {
        "external_urls" : {
          "spotify" : "https://open.spotify.com/artist/0vD3f3r69jBB1bL6VWnGM2"
        },
        "href" : "https://api.spotify.com/v1/artists/0vD3f3r69jBB1bL6VWnGM2",
        "id" : "0vD3f3r69jBB1bL6VWnGM2",
        "name" : "Chris Rice",
        "type" : "artist",
        "uri" : "spotify:artist:0vD3f3r69jBB1bL6VWnGM2"
      } ],
      "disc_number" : 1,
      "duration_ms" : 206373,
      "explicit" : false,
      "external_ids" : {
        "isrc" : "USM2C1801405"
      },
      "external_urls" : {
        "spotify" : "https://open.spotify.com/track/1SUxT5nRYEimRA0ysgE6In"
      },
      "href" : "https://api.spotify.com/v1/tracks/1SUxT5nRYEimRA0ysgE6In",
      "id" : "1SUxT5nRYEimRA0ysgE6In",
      "is_local" : false,
      "is_playable" : true,
      "name" : "When I Survey The Wondrous Cross",
      "popularity" : 24,
      "preview_url" : "https://p.scdn.co/mp3-preview/cdcff266630b95bc96893ad27670b30f77cf4f9e?cid=774b29d4f13844c495f206cafdad9c86",
      "track_number" : 5,
      "type" : "track",
      "uri" : "spotify:track:1SUxT5nRYEimRA0ysgE6In"
    }, {
      "album" : {
        "album_type" : "compilation",
        "artists" : [ {
          "external_urls" : {
            "spotify" : "https://open.spotify.com/artist/0LyfQWJT6nXafLPZqxe9Of"
          },
          "href" : "https://api.spotify.com/v1/artists/0LyfQWJT6nXafLPZqxe9Of",
          "id" : "0LyfQWJT6nXafLPZqxe9Of",
          "name" : "Various Artists",
          "type" : "artist",
          "uri" : "spotify:artist:0LyfQWJT6nXafLPZqxe9Of"
        } ],
        "external_urls" : {
          "spotify" : "https://open.spotify.com/album/2OIw3HTGEUZHdbtkMaBzIp"
        },
        "href" : "https://api.spotify.com/v1/albums/2OIw3HTGEUZHdbtkMaBzIp",
        "id" : "2OIw3HTGEUZHdbtkMaBzIp",
        "images" : [ {
          "height" : 640,
          "url" : "https://i.scdn.co/image/ab67616d0000b273a97f7a6235a3a6895b62a8a5",
          "width" : 640
        }, {
          "height" : 300,
          "url" : "https://i.scdn.co/image/ab67616d00001e02a97f7a6235a3a6895b62a8a5",
          "width" : 300
        }, {
          "height" : 64,
          "url" : "https://i.scdn.co/image/ab67616d00004851a97f7a6235a3a6895b62a8a5",
          "width" : 64
        } ],
        "name" : "She Reads Truth: Hymns",
        "release_date" : "2015-05-25",
        "release_date_precision" : "day",
        "total_tracks" : 5,
        "type" : "album",
        "uri" : "spotify:album:2OIw3HTGEUZHdbtkMaBzIp"
      },
      "artists" : [ {
        "external_urls" : {
          "spotify" : "https://open.spotify.com/artist/435UmkDo0uchwmDeHdKWGN"
        },
        "href" : "https://api.spotify.com/v1/artists/435UmkDo0uchwmDeHdKWGN",
        "id" : "435UmkDo0uchwmDeHdKWGN",
        "name" : "Sandra McCracken",
        "type" : "artist",
        "uri" : "spotify:artist:435UmkDo0uchwmDeHdKWGN"
      } ],
      "disc_number" : 1,
      "duration_ms" : 262895,
      "explicit" : false,
      "external_ids" : {
        "isrc" : "USQY51564373"
      },
      "external_urls" : {
        "spotify" : "https://open.spotify.com/track/28o5wMrjCQt1cpzDFAIRR8"
      },
      "href" : "https://api.spotify.com/v1/tracks/28o5wMrjCQt1cpzDFAIRR8",
      "id" : "28o5wMrjCQt1cpzDFAIRR8",
      "is_local" : false,
      "is_playable" : true,
      "name" : "When I Survey the Wondrous Cross",
      "popularity" : 24,
      "preview_url" : "https://p.scdn.co/mp3-preview/2461a0218c649f4022673c853a4d82eebaab90ed?cid=774b29d4f13844c495f206cafdad9c86",
      "track_number" : 5,
      "type" : "track",
      "uri" : "spotify:track:28o5wMrjCQt1cpzDFAIRR8"
    }, {
      "album" : {
        "album_type" : "album",
        "artists" : [ {
          "external_urls" : {
            "spotify" : "https://open.spotify.com/artist/6MYKRhEIKscR8qdGlvpk9y"
          },
          "href" : "https://api.spotify.com/v1/artists/6MYKRhEIKscR8qdGlvpk9y",
          "id" : "6MYKRhEIKscR8qdGlvpk9y",
          "name" : "Sovereign Grace Music",
          "type" : "artist",
          "uri" : "spotify:artist:6MYKRhEIKscR8qdGlvpk9y"
        }, {
          "external_urls" : {
            "spotify" : "https://open.spotify.com/artist/3mWDcLkpeZ5aReUNWoOadU"
          },
          "href" : "https://api.spotify.com/v1/artists/3mWDcLkpeZ5aReUNWoOadU",
          "id" : "3mWDcLkpeZ5aReUNWoOadU",
          "name" : "Bob Kauflin",
          "type" : "artist",
          "uri" : "spotify:artist:3mWDcLkpeZ5aReUNWoOadU"
        } ],
        "external_urls" : {
          "spotify" : "https://open.spotify.com/album/6h90MAC2TwzLWW0bujiSPC"
        },
        "href" : "https://api.spotify.com/v1/albums/6h90MAC2TwzLWW0bujiSPC",
        "id" : "6h90MAC2TwzLWW0bujiSPC",
        "images" : [ {
          "height" : 640,
          "url" : "https://i.scdn.co/image/ab67616d0000b2731cfe294b2d33ce28d32bc942",
          "width" : 640
        }, {
          "height" : 300,
          "url" : "https://i.scdn.co/image/ab67616d00001e021cfe294b2d33ce28d32bc942",
          "width" : 300
        }, {
          "height" : 64,
          "url" : "https://i.scdn.co/image/ab67616d000048511cfe294b2d33ce28d32bc942",
          "width" : 64
        } ],
        "name" : "Together for the Gospel II (Live)",
        "release_date" : "2012-11-27",
        "release_date_precision" : "day",
        "total_tracks" : 16,
        "type" : "album",
        "uri" : "spotify:album:6h90MAC2TwzLWW0bujiSPC"
      },
      "artists" : [ {
        "external_urls" : {
          "spotify" : "https://open.spotify.com/artist/6MYKRhEIKscR8qdGlvpk9y"
        },
        "href" : "https://api.spotify.com/v1/artists/6MYKRhEIKscR8qdGlvpk9y",
        "id" : "6MYKRhEIKscR8qdGlvpk9y",
        "name" : "Sovereign Grace Music",
        "type" : "artist",
        "uri" : "spotify:artist:6MYKRhEIKscR8qdGlvpk9y"
      }, {
        "external_urls" : {
          "spotify" : "https://open.spotify.com/artist/3mWDcLkpeZ5aReUNWoOadU"
        },
        "href" : "https://api.spotify.com/v1/artists/3mWDcLkpeZ5aReUNWoOadU",
        "id" : "3mWDcLkpeZ5aReUNWoOadU",
        "name" : "Bob Kauflin",
        "type" : "artist",
        "uri" : "spotify:artist:3mWDcLkpeZ5aReUNWoOadU"
      } ],
      "disc_number" : 1,
      "duration_ms" : 186440,
      "explicit" : false,
      "external_ids" : {
        "isrc" : "USDHM1218847"
      },
      "external_urls" : {
        "spotify" : "https://open.spotify.com/track/4vH7iMCq0DJ2Emkc6Phd5A"
      },
      "href" : "https://api.spotify.com/v1/tracks/4vH7iMCq0DJ2Emkc6Phd5A",
      "id" : "4vH7iMCq0DJ2Emkc6Phd5A",
      "is_local" : false,
      "is_playable" : true,
      "name" : "When I Survey the Wondrous Cross - Live",
      "popularity" : 25,
      "preview_url" : "https://p.scdn.co/mp3-preview/4f3b3af7aed566c50944b2abd03c54f067efd35d?cid=774b29d4f13844c495f206cafdad9c86",
      "track_number" : 11,
      "type" : "track",
      "uri" : "spotify:track:4vH7iMCq0DJ2Emkc6Phd5A"
    }, {
      "album" : {
        "album_type" : "album",
        "artists" : [ {
          "external_urls" : {
            "spotify" : "https://open.spotify.com/artist/0ZLHgeKZXpxW42i2T2s931"
          },
          "href" : "https://api.spotify.com/v1/artists/0ZLHgeKZXpxW42i2T2s931",
          "id" : "0ZLHgeKZXpxW42i2T2s931",
          "name" : "Ghost Ship",
          "type" : "artist",
          "uri" : "spotify:artist:0ZLHgeKZXpxW42i2T2s931"
        } ],
        "external_urls" : {
          "spotify" : "https://open.spotify.com/album/581qDHOPfYJPgSzeVWwsQA"
        },
        "href" : "https://api.spotify.com/v1/albums/581qDHOPfYJPgSzeVWwsQA",
        "id" : "581qDHOPfYJPgSzeVWwsQA",
        "images" : [ {
          "height" : 640,
          "url" : "https://i.scdn.co/image/ab67616d0000b273f1b1184f6b02b624a6f23a42",
          "width" : 640
        }, {
          "height" : 300,
          "url" : "https://i.scdn.co/image/ab67616d00001e02f1b1184f6b02b624a6f23a42",
          "width" : 300
        }, {
          "height" : 64,
          "url" : "https://i.scdn.co/image/ab67616d00004851f1b1184f6b02b624a6f23a42",
          "width" : 64
        } ],
        "name" : "Costly",
        "release_date" : "2015-09-25",
        "release_date_precision" : "day",
        "total_tracks" : 14,
        "type" : "album",
        "uri" : "spotify:album:581qDHOPfYJPgSzeVWwsQA"
      },
      "artists" : [ {
        "external_urls" : {
          "spotify" : "https://open.spotify.com/artist/0ZLHgeKZXpxW42i2T2s931"
        },
        "href" : "https://api.spotify.com/v1/artists/0ZLHgeKZXpxW42i2T2s931",
        "id" : "0ZLHgeKZXpxW42i2T2s931",
        "name" : "Ghost Ship",
        "type" : "artist",
        "uri" : "spotify:artist:0ZLHgeKZXpxW42i2T2s931"
      } ],
      "disc_number" : 1,
      "duration_ms" : 272000,
      "explicit" : false,
      "external_ids" : {
        "isrc" : "QMGVJ1500168"
      },
      "external_urls" : {
        "spotify" : "https://open.spotify.com/track/5DBnVqAdpTk5dXs5dMW6BQ"
      },
      "href" : "https://api.spotify.com/v1/tracks/5DBnVqAdpTk5dXs5dMW6BQ",
      "id" : "5DBnVqAdpTk5dXs5dMW6BQ",
      "is_local" : false,
      "is_playable" : true,
      "name" : "When I Survey the Wondrous Cross (Jesus Saves)",
      "popularity" : 23,
      "preview_url" : "https://p.scdn.co/mp3-preview/fb905a256c7cb28f95eb06862117fa9c0da04d22?cid=774b29d4f13844c495f206cafdad9c86",
      "track_number" : 6,
      "type" : "track",
      "uri" : "spotify:track:5DBnVqAdpTk5dXs5dMW6BQ"
    }, {
      "album" : {
        "album_type" : "compilation",
        "artists" : [ {
          "external_urls" : {
            "spotify" : "https://open.spotify.com/artist/1R486Y8DuEKEH01hypvW1B"
          },
          "href" : "https://api.spotify.com/v1/artists/1R486Y8DuEKEH01hypvW1B",
          "id" : "1R486Y8DuEKEH01hypvW1B",
          "name" : "David Phelps",
          "type" : "artist",
          "uri" : "spotify:artist:1R486Y8DuEKEH01hypvW1B"
        } ],
        "external_urls" : {
          "spotify" : "https://open.spotify.com/album/0CnXuIhmHbRzXqBG1RxkIu"
        },
        "href" : "https://api.spotify.com/v1/albums/0CnXuIhmHbRzXqBG1RxkIu",
        "id" : "0CnXuIhmHbRzXqBG1RxkIu",
        "images" : [ {
          "height" : 640,
          "url" : "https://i.scdn.co/image/ab67616d0000b273a8ac32be029a601f314be944",
          "width" : 640
        }, {
          "height" : 300,
          "url" : "https://i.scdn.co/image/ab67616d00001e02a8ac32be029a601f314be944",
          "width" : 300
        }, {
          "height" : 64,
          "url" : "https://i.scdn.co/image/ab67616d00004851a8ac32be029a601f314be944",
          "width" : 64
        } ],
        "name" : "The Best Of David Phelps",
        "release_date" : "2011-01-01",
        "release_date_precision" : "day",
        "total_tracks" : 17,
        "type" : "album",
        "uri" : "spotify:album:0CnXuIhmHbRzXqBG1RxkIu"
      },
      "artists" : [ {
        "external_urls" : {
          "spotify" : "https://open.spotify.com/artist/1R486Y8DuEKEH01hypvW1B"
        },
        "href" : "https://api.spotify.com/v1/artists/1R486Y8DuEKEH01hypvW1B",
        "id" : "1R486Y8DuEKEH01hypvW1B",
        "name" : "David Phelps",
        "type" : "artist",
        "uri" : "spotify:artist:1R486Y8DuEKEH01hypvW1B"
      } ],
      "disc_number" : 1,
      "duration_ms" : 281266,
      "explicit" : false,
      "external_ids" : {
        "isrc" : "US3271100093"
      },
      "external_urls" : {
        "spotify" : "https://open.spotify.com/track/2VmQoxy7Zbk4TIDF4nC1M9"
      },
      "href" : "https://api.spotify.com/v1/tracks/2VmQoxy7Zbk4TIDF4nC1M9",
      "id" : "2VmQoxy7Zbk4TIDF4nC1M9",
      "is_local" : false,
      "is_playable" : true,
      "name" : "When I Survey The Wondrous Cross",
      "popularity" : 23,
      "preview_url" : null,
      "track_number" : 16,
      "type" : "track",
      "uri" : "spotify:track:2VmQoxy7Zbk4TIDF4nC1M9"
    }, {
      "album" : {
        "album_type" : "album",
        "artists" : [ {
          "external_urls" : {
            "spotify" : "https://open.spotify.com/artist/1IefpZVHvnvtIbXb6iezio"
          },
          "href" : "https://api.spotify.com/v1/artists/1IefpZVHvnvtIbXb6iezio",
          "id" : "1IefpZVHvnvtIbXb6iezio",
          "name" : "Daniel Beck",
          "type" : "artist",
          "uri" : "spotify:artist:1IefpZVHvnvtIbXb6iezio"
        } ],
        "external_urls" : {
          "spotify" : "https://open.spotify.com/album/09NxtkGANPudGZssPC8bOR"
        },
        "href" : "https://api.spotify.com/v1/albums/09NxtkGANPudGZssPC8bOR",
        "id" : "09NxtkGANPudGZssPC8bOR",
        "images" : [ {
          "height" : 640,
          "url" : "https://i.scdn.co/image/ab67616d0000b273da5cc36e411c9548063d8efe",
          "width" : 640
        }, {
          "height" : 300,
          "url" : "https://i.scdn.co/image/ab67616d00001e02da5cc36e411c9548063d8efe",
          "width" : 300
        }, {
          "height" : 64,
          "url" : "https://i.scdn.co/image/ab67616d00004851da5cc36e411c9548063d8efe",
          "width" : 64
        } ],
        "name" : "Abide With Me",
        "release_date" : "2011-08-04",
        "release_date_precision" : "day",
        "total_tracks" : 10,
        "type" : "album",
        "uri" : "spotify:album:09NxtkGANPudGZssPC8bOR"
      },
      "artists" : [ {
        "external_urls" : {
          "spotify" : "https://open.spotify.com/artist/1IefpZVHvnvtIbXb6iezio"
        },
        "href" : "https://api.spotify.com/v1/artists/1IefpZVHvnvtIbXb6iezio",
        "id" : "1IefpZVHvnvtIbXb6iezio",
        "name" : "Daniel Beck",
        "type" : "artist",
        "uri" : "spotify:artist:1IefpZVHvnvtIbXb6iezio"
      } ],
      "disc_number" : 1,
      "duration_ms" : 227746,
      "explicit" : false,
      "external_ids" : {
        "isrc" : "USB3V1102101"
      },
      "external_urls" : {
        "spotify" : "https://open.spotify.com/track/6tGz53vLHX6rKpdtITET9K"
      },
      "href" : "https://api.spotify.com/v1/tracks/6tGz53vLHX6rKpdtITET9K",
      "id" : "6tGz53vLHX6rKpdtITET9K",
      "is_local" : false,
      "is_playable" : true,
      "name" : "When I Survey the Wondrous Cross",
      "popularity" : 23,
      "preview_url" : "https://p.scdn.co/mp3-preview/bac21cf23ba0137caba3187a2ba13a72893d4af7?cid=774b29d4f13844c495f206cafdad9c86",
      "track_number" : 1,
      "type" : "track",
      "uri" : "spotify:track:6tGz53vLHX6rKpdtITET9K"
    }, {
      "album" : {
        "album_type" : "album",
        "artists" : [ {
          "external_urls" : {
            "spotify" : "https://open.spotify.com/artist/0HVhrcczr4gd8oNtUsTqWg"
          },
          "href" : "https://api.spotify.com/v1/artists/0HVhrcczr4gd8oNtUsTqWg",
          "id" : "0HVhrcczr4gd8oNtUsTqWg",
          "name" : "Bow and Ivory",
          "type" : "artist",
          "uri" : "spotify:artist:0HVhrcczr4gd8oNtUsTqWg"
        } ],
        "external_urls" : {
          "spotify" : "https://open.spotify.com/album/1rHx0q1c3WRum5LkXvosAQ"
        },
        "href" : "https://api.spotify.com/v1/albums/1rHx0q1c3WRum5LkXvosAQ",
        "id" : "1rHx0q1c3WRum5LkXvosAQ",
        "images" : [ {
          "height" : 640,
          "url" : "https://i.scdn.co/image/ab67616d0000b27312be38cf50f9addf3498c047",
          "width" : 640
        }, {
          "height" : 300,
          "url" : "https://i.scdn.co/image/ab67616d00001e0212be38cf50f9addf3498c047",
          "width" : 300
        }, {
          "height" : 64,
          "url" : "https://i.scdn.co/image/ab67616d0000485112be38cf50f9addf3498c047",
          "width" : 64
        } ],
        "name" : "Hymns for Piano and Violin, Volume 2",
        "release_date" : "2017-06-07",
        "release_date_precision" : "day",
        "total_tracks" : 10,
        "type" : "album",
        "uri" : "spotify:album:1rHx0q1c3WRum5LkXvosAQ"
      },
      "artists" : [ {
        "external_urls" : {
          "spotify" : "https://open.spotify.com/artist/0HVhrcczr4gd8oNtUsTqWg"
        },
        "href" : "https://api.spotify.com/v1/artists/0HVhrcczr4gd8oNtUsTqWg",
        "id" : "0HVhrcczr4gd8oNtUsTqWg",
        "name" : "Bow and Ivory",
        "type" : "artist",
        "uri" : "spotify:artist:0HVhrcczr4gd8oNtUsTqWg"
      } ],
      "disc_number" : 1,
      "duration_ms" : 273578,
      "explicit" : false,
      "external_ids" : {
        "isrc" : "TCADC1766225"
      },
      "external_urls" : {
        "spotify" : "https://open.spotify.com/track/30kigAes2WMg4BLH7N2frz"
      },
      "href" : "https://api.spotify.com/v1/tracks/30kigAes2WMg4BLH7N2frz",
      "id" : "30kigAes2WMg4BLH7N2frz",
      "is_local" : false,
      "is_playable" : true,
      "name" : "When I Survey the Wondrous Cross",
      "popularity" : 18,
      "preview_url" : "https://p.scdn.co/mp3-preview/71ff1e832b7038436d70d1a87b135b19e0e4e4ef?cid=774b29d4f13844c495f206cafdad9c86",
      "track_number" : 10,
      "type" : "track",
      "uri" : "spotify:track:30kigAes2WMg4BLH7N2frz"
    }, {
      "album" : {
        "album_type" : "album",
        "artists" : [ {
          "external_urls" : {
            "spotify" : "https://open.spotify.com/artist/7dc9jcxR0GgRMoNasStnmZ"
          },
          "href" : "https://api.spotify.com/v1/artists/7dc9jcxR0GgRMoNasStnmZ",
          "id" : "7dc9jcxR0GgRMoNasStnmZ",
          "name" : "David Baroni",
          "type" : "artist",
          "uri" : "spotify:artist:7dc9jcxR0GgRMoNasStnmZ"
        } ],
        "external_urls" : {
          "spotify" : "https://open.spotify.com/album/2CQrkXkTVc1M5QNE4YJpfV"
        },
        "href" : "https://api.spotify.com/v1/albums/2CQrkXkTVc1M5QNE4YJpfV",
        "id" : "2CQrkXkTVc1M5QNE4YJpfV",
        "images" : [ {
          "height" : 640,
          "url" : "https://i.scdn.co/image/ab67616d0000b27385bd0cd6432fd8fa597dff1b",
          "width" : 640
        }, {
          "height" : 300,
          "url" : "https://i.scdn.co/image/ab67616d00001e0285bd0cd6432fd8fa597dff1b",
          "width" : 300
        }, {
          "height" : 64,
          "url" : "https://i.scdn.co/image/ab67616d0000485185bd0cd6432fd8fa597dff1b",
          "width" : 64
        } ],
        "name" : "A Quiet Place: Instrumental Hymns Vol. II",
        "release_date" : "2010-07-15",
        "release_date_precision" : "day",
        "total_tracks" : 12,
        "type" : "album",
        "uri" : "spotify:album:2CQrkXkTVc1M5QNE4YJpfV"
      },
      "artists" : [ {
        "external_urls" : {
          "spotify" : "https://open.spotify.com/artist/7dc9jcxR0GgRMoNasStnmZ"
        },
        "href" : "https://api.spotify.com/v1/artists/7dc9jcxR0GgRMoNasStnmZ",
        "id" : "7dc9jcxR0GgRMoNasStnmZ",
        "name" : "David Baroni",
        "type" : "artist",
        "uri" : "spotify:artist:7dc9jcxR0GgRMoNasStnmZ"
      } ],
      "disc_number" : 1,
      "duration_ms" : 260013,
      "explicit" : false,
      "external_ids" : {
        "isrc" : "ushm21080013"
      },
      "external_urls" : {
        "spotify" : "https://open.spotify.com/track/6wh5uC9i0PbXiAsERB5aN9"
      },
      "href" : "https://api.spotify.com/v1/tracks/6wh5uC9i0PbXiAsERB5aN9",
      "id" : "6wh5uC9i0PbXiAsERB5aN9",
      "is_local" : false,
      "is_playable" : true,
      "name" : "When I Survey the Wondrous Cross",
      "popularity" : 20,
      "preview_url" : "https://p.scdn.co/mp3-preview/b540047af5d9327cb60907a5a27ee680176547f0?cid=774b29d4f13844c495f206cafdad9c86",
      "track_number" : 9,
      "type" : "track",
      "uri" : "spotify:track:6wh5uC9i0PbXiAsERB5aN9"
    }, {
      "album" : {
        "album_type" : "album",
        "artists" : [ {
          "external_urls" : {
            "spotify" : "https://open.spotify.com/artist/689yVIN1tRJfZD5zklQmrV"
          },
          "href" : "https://api.spotify.com/v1/artists/689yVIN1tRJfZD5zklQmrV",
          "id" : "689yVIN1tRJfZD5zklQmrV",
          "name" : "Janice Faber",
          "type" : "artist",
          "uri" : "spotify:artist:689yVIN1tRJfZD5zklQmrV"
        } ],
        "external_urls" : {
          "spotify" : "https://open.spotify.com/album/7nzYvcaxlrM6O3ZNTagXqZ"
        },
        "href" : "https://api.spotify.com/v1/albums/7nzYvcaxlrM6O3ZNTagXqZ",
        "id" : "7nzYvcaxlrM6O3ZNTagXqZ",
        "images" : [ {
          "height" : 640,
          "url" : "https://i.scdn.co/image/ab67616d0000b273387964d7c3f202a58afbf313",
          "width" : 640
        }, {
          "height" : 300,
          "url" : "https://i.scdn.co/image/ab67616d00001e02387964d7c3f202a58afbf313",
          "width" : 300
        }, {
          "height" : 64,
          "url" : "https://i.scdn.co/image/ab67616d00004851387964d7c3f202a58afbf313",
          "width" : 64
        } ],
        "name" : "Measures of Grace",
        "release_date" : "2009-12-01",
        "release_date_precision" : "day",
        "total_tracks" : 12,
        "type" : "album",
        "uri" : "spotify:album:7nzYvcaxlrM6O3ZNTagXqZ"
      },
      "artists" : [ {
        "external_urls" : {
          "spotify" : "https://open.spotify.com/artist/689yVIN1tRJfZD5zklQmrV"
        },
        "href" : "https://api.spotify.com/v1/artists/689yVIN1tRJfZD5zklQmrV",
        "id" : "689yVIN1tRJfZD5zklQmrV",
        "name" : "Janice Faber",
        "type" : "artist",
        "uri" : "spotify:artist:689yVIN1tRJfZD5zklQmrV"
      } ],
      "disc_number" : 1,
      "duration_ms" : 329213,
      "explicit" : false,
      "external_ids" : {
        "isrc" : "usx9p0901757"
      },
      "external_urls" : {
        "spotify" : "https://open.spotify.com/track/3tO8HWoj50EHhlGIOubadA"
      },
      "href" : "https://api.spotify.com/v1/tracks/3tO8HWoj50EHhlGIOubadA",
      "id" : "3tO8HWoj50EHhlGIOubadA",
      "is_local" : false,
      "is_playable" : true,
      "name" : "When I Survey the Wondrous Cross/Jesus Paid it All /I Surrender All",
      "popularity" : 23,
      "preview_url" : "https://p.scdn.co/mp3-preview/756ebef9b9669f83ab35d965ce34394fc1ca91d1?cid=774b29d4f13844c495f206cafdad9c86",
      "track_number" : 9,
      "type" : "track",
      "uri" : "spotify:track:3tO8HWoj50EHhlGIOubadA"
    }, {
      "album" : {
        "album_type" : "album",
        "artists" : [ {
          "external_urls" : {
            "spotify" : "https://open.spotify.com/artist/6gpOLOIn9tu4nfK52nrAIM"
          },
          "href" : "https://api.spotify.com/v1/artists/6gpOLOIn9tu4nfK52nrAIM",
          "id" : "6gpOLOIn9tu4nfK52nrAIM",
          "name" : "Zeno",
          "type" : "artist",
          "uri" : "spotify:artist:6gpOLOIn9tu4nfK52nrAIM"
        } ],
        "external_urls" : {
          "spotify" : "https://open.spotify.com/album/20KvGTaoTKxB5TqMPl0zC4"
        },
        "href" : "https://api.spotify.com/v1/albums/20KvGTaoTKxB5TqMPl0zC4",
        "id" : "20KvGTaoTKxB5TqMPl0zC4",
        "images" : [ {
          "height" : 640,
          "url" : "https://i.scdn.co/image/ab67616d0000b2733677afc3fb76d20e16f6f381",
          "width" : 640
        }, {
          "height" : 300,
          "url" : "https://i.scdn.co/image/ab67616d00001e023677afc3fb76d20e16f6f381",
          "width" : 300
        }, {
          "height" : 64,
          "url" : "https://i.scdn.co/image/ab67616d000048513677afc3fb76d20e16f6f381",
          "width" : 64
        } ],
        "name" : "Fingerstyle Hymns Simple Guitar Arrangements 2",
        "release_date" : "2016-03-02",
        "release_date_precision" : "day",
        "total_tracks" : 10,
        "type" : "album",
        "uri" : "spotify:album:20KvGTaoTKxB5TqMPl0zC4"
      },
      "artists" : [ {
        "external_urls" : {
          "spotify" : "https://open.spotify.com/artist/6gpOLOIn9tu4nfK52nrAIM"
        },
        "href" : "https://api.spotify.com/v1/artists/6gpOLOIn9tu4nfK52nrAIM",
        "id" : "6gpOLOIn9tu4nfK52nrAIM",
        "name" : "Zeno",
        "type" : "artist",
        "uri" : "spotify:artist:6gpOLOIn9tu4nfK52nrAIM"
      } ],
      "disc_number" : 1,
      "duration_ms" : 81684,
      "explicit" : false,
      "external_ids" : {
        "isrc" : "USE831546989"
      },
      "external_urls" : {
        "spotify" : "https://open.spotify.com/track/4FLneFZNXbWkPaBCMzCDra"
      },
      "href" : "https://api.spotify.com/v1/tracks/4FLneFZNXbWkPaBCMzCDra",
      "id" : "4FLneFZNXbWkPaBCMzCDra",
      "is_local" : false,
      "is_playable" : true,
      "name" : "When I Survey the Wondrous Cross - Instrumental Guitar",
      "popularity" : 19,
      "preview_url" : "https://p.scdn.co/mp3-preview/f41c124dec7e025fa927232b301f3764d7e70cf3?cid=774b29d4f13844c495f206cafdad9c86",
      "track_number" : 10,
      "type" : "track",
      "uri" : "spotify:track:4FLneFZNXbWkPaBCMzCDra"
    } ],
    "limit" : 10,
    "next" : "https://api.spotify.com/v1/search?query=When+I+Survey+the+Wondrous+Cross&type=track&market=US&offset=15&limit=10",
    "offset" : 5,
    "previous" : "https://api.spotify.com/v1/search?query=When+I+Survey+the+Wondrous+Cross&type=track&market=US&offset=0&limit=10",
    "total" : 846
  }
}