{
  "tracks" : {
    "href" : "https://api.spotify.com/v1/search?query=In+the+Heart+of+Jesus&type=track&market=US&offset=5&limit=10",
    "items" : [ {
      "album" : {
        "album_type" : "album",
        "artists" : [ {
          "external_urls" : {
            "spotify" : "https://open.spotify.com/artist/2bBRxQ6hEba2rm64HLgFTo"
          },
          "href" : "https://api.spotify.com/v1/artists/2bBRxQ6hEba2rm64HLgFTo",
          "id" : "2bBRxQ6hEba2rm64HLgFTo",
          "name" : "Scripture Lullabies",
          "type" : "artist",
          "uri" : "spotify:artist:2bBRxQ6hEba2rm64HLgFTo"
        } ],
        "external_urls" : {
          "spotify" : "https://open.spotify.com/album/130Oz9WUZt6fPh3WWTCIcX"
        },
        "href" : "https://api.spotify.com/v1/albums/130Oz9WUZt6fPh3WWTCIcX",
        "id" : "130Oz9WUZt6fPh3WWTCIcX",
        "images" : [ {
          "height" : 640,
          "url" : "https://i.scdn.co/image/ab67616d0000b27346540450b17ee59f837ef1df",
          "width" : 640
        }, {
          "height" : 300,
          "url" : "https://i.scdn.co/image/ab67616d00001e0246540450b17ee59f837ef1df",
          "width" : 300
        }, {
          "height" : 64,
          "url" : "https://i.scdn.co/image/ab67616d0000485146540450b17ee59f837ef1df",
          "width" : 64
        } ],
        "name" : "Hidden in My Heart (A Lullaby Journey Through the Life of Jesus), Vol. 3",
        "release_date" : "2013-12-13",
        "release_date_precision" : "day",
        "total_tracks" : 15,
        "type" : "album",
        "uri" : "spotify:album:130Oz9WUZt6fPh3WWTCIcX"
      },
      "artists" : [ {
        "external_urls" : {
          "spotify" : "https://open.spotify.com/artist/2bBRxQ6hEba2rm64HLgFTo"
        },
        "href" : "https://api.spotify.com/v1/artists/2bBRxQ6hEba2rm64HLgFTo",
        "id" : "2bBRxQ6hEba2rm64HLgFTo",
        "name" : "Scripture Lullabies",
        "type" : "artist",
        "uri" : "spotify:artist:2bBRxQ6hEba2rm64HLgFTo"
      } ],
      "disc_number" : 1,
      "duration_ms" : 214586,
      "explicit" : false,
      "external_ids" : {
        "isrc" : "US8CK1300003"
      },
      "external_urls" : {
        "spotify" : "https://open.spotify.com/track/7tK3va8eGl7tjQArjtN09V"
      },
      "href" : "https://api.spotify.com/v1/tracks/7tK3va8eGl7tjQArjtN09V",
      "id" : "7tK3va8eGl7tjQArjtN09V",
      "is_local" : false,
      "is_playable" : true,
      "name" : "Come to Me",
      "popularity" : 36,
      "preview_url" : "https://p.scdn.co/mp3-preview/78b8893642e22aea14eadcad91c626f652f4b908?cid=774b29d4f13844c495f206cafdad9c86",
      "track_number" : 3,
      "type" : "track",
      "uri" : "spotify:track:7tK3va8eGl7tjQArjtN09V"
    }, {
      "album" : {
        "album_type" : "album",
        "artists" : [ {
          "external_urls" : {
            "spotify" : "https://open.spotify.com/artist/2bBRxQ6hEba2rm64HLgFTo"
          },
          "href" : "https://api.spotify.com/v1/artists/2bBRxQ6hEba2rm64HLgFTo",
          "id" : "2bBRxQ6hEba2rm64HLgFTo",
          "name" : "Scripture Lullabies",
          "type" : "artist",
          "uri" : "spotify:artist:2bBRxQ6hEba2rm64HLgFTo"
        } ],
        "external_urls" : {
          "spotify" : "https://open.spotify.com/album/130Oz9WUZt6fPh3WWTCIcX"
        },
        "href" : "https://api.spotify.com/v1/albums/130Oz9WUZt6fPh3WWTCIcX",
        "id" : "130Oz9WUZt6fPh3WWTCIcX",
        "images" : [ {
          "height" : 640,
          "url" : "https://i.scdn.co/image/ab67616d0000b27346540450b17ee59f837ef1df",
          "width" : 640
        }, {
          "height" : 300,
          "url" : "https://i.scdn.co/image/ab67616d00001e0246540450b17ee59f837ef1df",
          "width" : 300
        }, {
          "height" : 64,
          "url" : "https://i.scdn.co/image/ab67616d0000485146540450b17ee59f837ef1df",
          "width" : 64
        } ],
        "name" : "Hidden in My Heart (A Lullaby Journey Through the Life of Jesus), Vol. 3",
        "release_date" : "2013-12-13",
        "release_date_precision" : "day",
        "total_tracks" : 15,
        "type" : "album",
        "uri" : "spotify:album:130Oz9WUZt6fPh3WWTCIcX"
      },
      "artists" : [ {
        "external_urls" : {
          "spotify" : "https://open.spotify.com/artist/2bBRxQ6hEba2rm64HLgFTo"
        },
        "href" : "https://api.spotify.com/v1/artists/2bBRxQ6hEba2rm64HLgFTo",
        "id" : "2bBRxQ6hEba2rm64HLgFTo",
        "name" : "Scripture Lullabies",
        "type" : "artist",
        "uri" : "spotify:artist:2bBRxQ6hEba2rm64HLgFTo"
      } ],
      "disc_number" : 1,
      "duration_ms" : 416213,
      "explicit" : false,
      "external_ids" : {
        "isrc" : "US8CK1300009"
      },
      "external_urls" : {
        "spotify" : "https://open.spotify.com/track/7gBfgEPCzr3uJekueEIKB6"
      },
      "href" : "https://api.spotify.com/v1/tracks/7gBfgEPCzr3uJekueEIKB6",
      "id" : "7gBfgEPCzr3uJekueEIKB6",
      "is_local" : false,
      "is_playable" : true,
      "name" : "By His Name",
      "popularity" : 36,
      "preview_url" : "https://p.scdn.co/mp3-preview/9a3b1396fb95a54b59a7fbfbca93aa0fc6a37036?cid=774b29d4f13844c495f206cafdad9c86",
      "track_number" : 9,
      "type" : "track",
      "uri" : "spotify:track:7gBfgEPCzr3uJekueEIKB6"
    }, {
      "album" : {
        "album_type" : "album",
        "artists" : [ {
          "external_urls" : {
            "spotify" : "https://open.spotify.com/artist/2bBRxQ6hEba2rm64HLgFTo"
          },
          "href" : "https://api.spotify.com/v1/artists/2bBRxQ6hEba2rm64HLgFTo",
          "id" : "2bBRxQ6hEba2rm64HLgFTo",
          "name" : "Scripture Lullabies",
          "type" : "artist",
          "uri" : "spotify:artist:2bBRxQ6hEba2rm64HLgFTo"
        } ],
        "external_urls" : {
          "spotify" : "https://open.spotify.com/album/130Oz9WUZt6fPh3WWTCIcX"
        },
        "href" : "https://api.spotify.com/v1/albums/130Oz9WUZt6fPh3WWTCIcX",
        "id" : "130Oz9WUZt6fPh3WWTCIcX",
        "images" : [ {
          "height" : 640,
          "url" : "https://i.scdn.co/image/ab67616d0000b27346540450b17ee59f837ef1df",
          "width" : 640
        }, {
          "height" : 300,
          "url" : "https://i.scdn.co/image/ab67616d00001e0246540450b17ee59f837ef1df",
          "width" : 300
        }, {
          "height" : 64,
          "url" : "https://i.scdn.co/image/ab67616d0000485146540450b17ee59f837ef1df",
          "width" : 64
        } ],
        "name" : "Hidden in My Heart (A Lullaby Journey Through the Life of Jesus), Vol. 3",
        "release_date" : "2013-12-13",
        "release_date_precision" : "day",
        "total_tracks" : 15,
        "type" : "album",
        "uri" : "spotify:album:130Oz9WUZt6fPh3WWTCIcX"
      },
      "artists" : [ {
        "external_urls" : {
          "spotify" : "https://open.spotify.com/artist/2bBRxQ6hEba2rm64HLgFTo"
        },
        "href" : "https://api.spotify.com/v1/artists/2bBRxQ6hEba2rm64HLgFTo",
        "id" : "2bBRxQ6hEba2rm64HLgFTo",
        "name" : "Scripture Lullabies",
        "type" : "artist",
        "uri" : "spotify:artist:2bBRxQ6hEba2rm64HLgFTo"
      } ],
      "disc_number" : 1,
      "duration_ms" : 359880,
      "explicit" : false,
      "external_ids" : {
        "isrc" : "US8CK1300002"
      },
      "external_urls" : {
        "spotify" : "https://open.spotify.com/track/2GfmHEG5fzUzQbFq4LYVb2"
      },
      "href" : "https://api.spotify.com/v1/tracks/2GfmHEG5fzUzQbFq4LYVb2",
      "id" : "2GfmHEG5fzUzQbFq4LYVb2",
      "is_local" : false,
      "is_playable" : true,
      "name" : "Emmanuel",
      "popularity" : 36,
      "preview_url" : "https://p.scdn.co/mp3-preview/167148228e19ef72b3fcf8bdceaab683941d6113?cid=774b29d4f13844c495f206cafdad9c86",
      "track_number" : 2,
      "type" : "track",
      "uri" : "spotify:track:2GfmHEG5fzUzQbFq4LYVb2"
    }, {
      "album" : {
        "album_type" : "album",
        "artists" : [ {
          "external_urls" : {
            "spotify" : "https://open.spotify.com/artist/2bBRxQ6hEba2rm64HLgFTo"
          },
          "href" : "https://api.spotify.com/v1/artists/2bBRxQ6hEba2rm64HLgFTo",
          "id" : "2bBRxQ6hEba2rm64HLgFTo",
          "name" : "Scripture Lullabies",
          "type" : "artist",
          "uri" : "spotify:artist:2bBRxQ6hEba2rm64HLgFTo"
        } ],
        "external_urls" : {
          "spotify" : "https://open.spotify.com/album/130Oz9WUZt6fPh3WWTCIcX"
        },
        "href" : "https://api.spotify.com/v1/albums/130Oz9WUZt6fPh3WWTCIcX",
        "id" : "130Oz9WUZt6fPh3WWTCIcX",
        "images" : [ {
          "height" : 640,
          "url" : "https://i.scdn.co/image/ab67616d0000b27346540450b17ee59f837ef1df",
          "width" : 640
        }, {
          "height" : 300,
          "url" : "https://i.scdn.co/image/ab67616d00001e0246540450b17ee59f837ef1df",
          "width" : 300
        }, {
          "height" : 64,
          "url" : "https://i.scdn.co/image/ab67616d0000485146540450b17ee59f837ef1df",
          "width" : 64
        } ],
        "name" : "Hidden in My Heart (A Lullaby Journey Through the Life of Jesus), Vol. 3",
        "release_date" : "2013-12-13",
        "release_date_precision" : "day",
        "total_tracks" : 15,
        "type" : "album",
        "uri" : "spotify:album:130Oz9WUZt6fPh3WWTCIcX"
      },
      "artists" : [ {
        "external_urls" : {
          "spotify" : "https://open.spotify.com/artist/2bBRxQ6hEba2rm64HLgFTo"
        },
        "href" : "https://api.spotify.com/v1/artists/2bBRxQ6hEba2rm64HLgFTo",
        "id" : "2bBRxQ6hEba2rm64HLgFTo",
        "name" : "Scripture Lullabies",
        "type" : "artist",
        "uri" : "spotify:artist:2bBRxQ6hEba2rm64HLgFTo"
      } ],
      "disc_number" : 1,
      "duration_ms" : 238640,
      "explicit" : false,
      "external_ids" : {
        "isrc" : "US8CK1300014"
      },
      "external_urls" : {
        "spotify" : "https://open.spotify.com/track/5OMN5mOD5P6MRXzZLQ6NHg"
      },
      "href" : "https://api.spotify.com/v1/tracks/5OMN5mOD5P6MRXzZLQ6NHg",
      "id" : "5OMN5mOD5P6MRXzZLQ6NHg",
      "is_local" : false,
      "is_playable" : true,
      "name" : "The Great Commission",
      "popularity" : 34,
      "preview_url" : "https://p.scdn.co/mp3-preview/2bd119d8078d3d85cf4fa1b9bfb206b561e78c31?cid=774b29d4f13844c495f206cafdad9c86",
      "track_number" : 14,
      "type" : "track",
      "uri" : "spotify:track:5OMN5mOD5P6MRXzZLQ6NHg"
    }, {
      "album" : {
        "album_type" : "album",
        "artists" : [ {
          "external_urls" : {
            "spotify" : "https://open.spotify.com/artist/2bBRxQ6hEba2rm64HLgFTo"
          },
          "href" : "https://api.spotify.com/v1/artists/2bBRxQ6hEba2rm64HLgFTo",
          "id" : "2bBRxQ6hEba2rm64HLgFTo",
          "name" : "Scripture Lullabies",
          "type" : "artist",
          "uri" : "spotify:artist:2bBRxQ6hEba2rm64HLgFTo"
        } ],
        "external_urls" : {
          "spotify" : "https://open.spotify.com/album/130Oz9WUZt6fPh3WWTCIcX"
        },
        "href" : "https://api.spotify.com/v1/albums/130Oz9WUZt6fPh3WWTCIcX",
        "id" : "130Oz9WUZt6fPh3WWTCIcX",
        "images" : [ {
          "height" : 640,
          "url" : "https://i.scdn.co/image/ab67616d0000b27346540450b17ee59f837ef1df",
          "width" : 640
        }, {
          "height" : 300,
          "url" : "https://i.scdn.co/image/ab67616d00001e0246540450b17ee59f837ef1df",
          "width" : 300
        }, {
          "height" : 64,
          "url" : "https://i.scdn.co/image/ab67616d0000485146540450b17ee59f837ef1df",
          "width" : 64
        } ],
        "name" : "Hidden in My Heart (A Lullaby Journey Through the Life of Jesus), Vol. 3",
        "release_date" : "2013-12-13",
        "release_date_precision" : "day",
        "total_tracks" : 15,
        "type" : "album",
        "uri" : "spotify:album:130Oz9WUZt6fPh3WWTCIcX"
      },
      "artists" : [ {
        "external_urls" : {
          "spotify" : "https://open.spotify.com/artist/2bBRxQ6hEba2rm64HLgFTo"
        },
        "href" : "https://api.spotify.com/v1/artists/2bBRxQ6hEba2rm64HLgFTo",
        "id" : "2bBRxQ6hEba2rm64HLgFTo",
        "name" : "Scripture Lullabies",
        "type" : "artist",
        "uri" : "spotify:artist:2bBRxQ6hEba2rm64HLgFTo"
      } ],
      "disc_number" : 1,
      "duration_ms" : 237146,
      "explicit" : false,
      "external_ids" : {
        "isrc" : "US8CK1300006"
      },
      "external_urls" : {
        "spotify" : "https://open.spotify.com/track/58PDaIG2TgbqsmSLvCaKzW"
      },
      "href" : "https://api.spotify.com/v1/tracks/58PDaIG2TgbqsmSLvCaKzW",
      "id" : "58PDaIG2TgbqsmSLvCaKzW",
      "is_local" : false,
      "is_playable" : true,
      "name" : "Take No Thought for Tomorrow",
      "popularity" : 37,
      "preview_url" : "https://p.scdn.co/mp3-preview/642b86424e80d5c895596f45df3eed170159b402?cid=774b29d4f13844c495f206cafdad9c86",
      "track_number" : 6,
      "type" : "track",
      "uri" : "spotify:track:58PDaIG2TgbqsmSLvCaKzW"
    }, {
      "album" : {
        "album_type" : "album",
        "artists" : [ {
          "external_urls" : {
            "spotify" : "https://open.spotify.com/artist/2bBRxQ6hEba2rm64HLgFTo"
          },
          "href" : "https://api.spotify.com/v1/artists/2bBRxQ6hEba2rm64HLgFTo",
          "id" : "2bBRxQ6hEba2rm64HLgFTo",
          "name" : "Scripture Lullabies",
          "type" : "artist",
          "uri" : "spotify:artist:2bBRxQ6hEba2rm64HLgFTo"
        } ],
        "external_urls" : {
          "spotify" : "https://open.spotify.com/album/130Oz9WUZt6fPh3WWTCIcX"
        },
        "href" : "https://api.spotify.com/v1/albums/130Oz9WUZt6fPh3WWTCIcX",
        "id" : "130Oz9WUZt6fPh3WWTCIcX",
        "images" : [ {
          "height" : 640,
          "url" : "https://i.scdn.co/image/ab67616d0000b27346540450b17ee59f837ef1df",
          "width" : 640
        }, {
          "height" : 300,
          "url" : "https://i.scdn.co/image/ab67616d00001e0246540450b17ee59f837ef1df",
          "width" : 300
        }, {
          "height" : 64,
          "url" : "https://i.scdn.co/image/ab67616d0000485146540450b17ee59f837ef1df",
          "width" : 64
        } ],
        "name" : "Hidden in My Heart (A Lullaby Journey Through the Life of Jesus), Vol. 3",
        "release_date" : "2013-12-13",
        "release_date_precision" : "day",
        "total_tracks" : 15,
        "type" : "album",
        "uri" : "spotify:album:130Oz9WUZt6fPh3WWTCIcX"
      },
      "artists" : [ {
        "external_urls" : {
          "spotify" : "https://open.spotify.com/artist/2bBRxQ6hEba2rm64HLgFTo"
        },
        "href" : "https://api.spotify.com/v1/artists/2bBRxQ6hEba2rm64HLgFTo",
        "id" : "2bBRxQ6hEba2rm64HLgFTo",
        "name" : "Scripture Lullabies",
        "type" : "artist",
        "uri" : "spotify:artist:2bBRxQ6hEba2rm64HLgFTo"
      } ],
      "disc_number" : 1,
      "duration_ms" : 206533,
      "explicit" : false,
      "external_ids" : {
        "isrc" : "US8CK1300007"
      },
      "external_urls" : {
        "spotify" : "https://open.spotify.com/track/74tKigDxd7s9AVZQHcvcQs"
      },
      "href" : "https://api.spotify.com/v1/tracks/74tKigDxd7s9AVZQHcvcQs",
      "id" : "74tKigDxd7s9AVZQHcvcQs",
      "is_local" : false,
      "is_playable" : true,
      "name" : "Beatitudes",
      "popularity" : 35,
      "preview_url" : "https://p.scdn.co/mp3-preview/dbe681e42325ef0f67e8ae8800d4695e54ecb537?cid=774b29d4f13844c495f206cafdad9c86",
      "track_number" : 7,
      "type" : "track",
      "uri" : "spotify:track:74tKigDxd7s9AVZQHcvcQs"
    }, {
      "album" : {
        "album_type" : "album",
        "artists" : [ {
          "external_urls" : {
            "spotify" : "https://open.spotify.com/artist/2bBRxQ6hEba2rm64HLgFTo"
          },
          "href" : "https://api.spotify.com/v1/artists/2bBRxQ6hEba2rm64HLgFTo",
          "id" : "2bBRxQ6hEba2rm64HLgFTo",
          "name" : "Scripture Lullabies",
          "type" : "artist",
          "uri" : "spotify:artist:2bBRxQ6hEba2rm64HLgFTo"
        } ],
        "external_urls" : {
          "spotify" : "https://open.spotify.com/album/130Oz9WUZt6fPh3WWTCIcX"
        },
        "href" : "https://api.spotify.com/v1/albums/130Oz9WUZt6fPh3WWTCIcX",
        "id" : "130Oz9WUZt6fPh3WWTCIcX",
        "images" : [ {
          "height" : 640,
          "url" : "https://i.scdn.co/image/ab67616d0000b27346540450b17ee59f837ef1df",
          "width" : 640
        }, {
          "height" : 300,
          "url" : "https://i.scdn.co/image/ab67616d00001e0246540450b17ee59f837ef1df",
          "width" : 300
        }, {
          "height" : 64,
          "url" : "https://i.scdn.co/image/ab67616d0000485146540450b17ee59f837ef1df",
          "width" : 64
        } ],
        "name" : "Hidden in My Heart (A Lullaby Journey Through the Life of Jesus), Vol. 3",
        "release_date" : "2013-12-13",
        "release_date_precision" : "day",
        "total_tracks" : 15,
        "type" : "album",
        "uri" : "spotify:album:130Oz9WUZt6fPh3WWTCIcX"
      },
      "artists" : [ {
        "external_urls" : {
          "spotify" : "https://open.spotify.com/artist/2bBRxQ6hEba2rm64HLgFTo"
        },
        "href" : "https://api.spotify.com/v1/artists/2bBRxQ6hEba2rm64HLgFTo",
        "id" : "2bBRxQ6hEba2rm64HLgFTo",
        "name" : "Scripture Lullabies",
        "type" : "artist",
        "uri" : "spotify:artist:2bBRxQ6hEba2rm64HLgFTo"
      } ],
      "disc_number" : 1,
      "duration_ms" : 258746,
      "explicit" : false,
      "external_ids" : {
        "isrc" : "US8CK1300004"
      },
      "external_urls" : {
        "spotify" : "https://open.spotify.com/track/3C1zuC3da8YXrHjQwvkBnm"
      },
      "href" : "https://api.spotify.com/v1/tracks/3C1zuC3da8YXrHjQwvkBnm",
      "id" : "3C1zuC3da8YXrHjQwvkBnm",
      "is_local" : false,
      "is_playable" : true,
      "name" : "Precious Life III",
      "popularity" : 35,
      "preview_url" : "https://p.scdn.co/mp3-preview/abf54abaa6f4d18f6b300b2afb0dbdea5d5a5f90?cid=774b29d4f13844c495f206cafdad9c86",
      "track_number" : 4,
      "type" : "track",
      "uri" : "spotify:track:3C1zuC3da8YXrHjQwvkBnm"
    }, {
      "album" : {
        "album_type" : "album",
        "artists" : [ {
          "external_urls" : {
            "spotify" : "https://open.spotify.com/artist/2bBRxQ6hEba2rm64HLgFTo"
          },
          "href" : "https://api.spotify.com/v1/artists/2bBRxQ6hEba2rm64HLgFTo",
          "id" : "2bBRxQ6hEba2rm64HLgFTo",
          "name" : "Scripture Lullabies",
          "type" : "artist",
          "uri" : "spotify:artist:2bBRxQ6hEba2rm64HLgFTo"
        } ],
        "external_urls" : {
          "spotify" : "https://open.spotify.com/album/130Oz9WUZt6fPh3WWTCIcX"
        },
        "href" : "https://api.spotify.com/v1/albums/130Oz9WUZt6fPh3WWTCIcX",
        "id" : "130Oz9WUZt6fPh3WWTCIcX",
        "images" : [ {
          "height" : 640,
          "url" : "https://i.scdn.co/image/ab67616d0000b27346540450b17ee59f837ef1df",
          "width" : 640
        }, {
          "height" : 300,
          "url" : "https://i.scdn.co/image/ab67616d00001e0246540450b17ee59f837ef1df",
          "width" : 300
        }, {
          "height" : 64,
          "url" : "https://i.scdn.co/image/ab67616d0000485146540450b17ee59f837ef1df",
          "width" : 64
        } ],
        "name" : "Hidden in My Heart (A Lullaby Journey Through the Life of Jesus), Vol. 3",
        "release_date" : "2013-12-13",
        "release_date_precision" : "day",
        "total_tracks" : 15,
        "type" : "album",
        "uri" : "spotify:album:130Oz9WUZt6fPh3WWTCIcX"
      },
      "artists" : [ {
        "external_urls" : {
          "spotify" : "https://open.spotify.com/artist/2bBRxQ6hEba2rm64HLgFTo"
        },
        "href" : "https://api.spotify.com/v1/artists/2bBRxQ6hEba2rm64HLgFTo",
        "id" : "2bBRxQ6hEba2rm64HLgFTo",
        "name" : "Scripture Lullabies",
        "type" : "artist",
        "uri" : "spotify:artist:2bBRxQ6hEba2rm64HLgFTo"
      } ],
      "disc_number" : 1,
      "duration_ms" : 258519,
      "explicit" : false,
      "external_ids" : {
        "isrc" : "US8CK1300008"
      },
      "external_urls" : {
        "spotify" : "https://open.spotify.com/track/69PfsVP3IjgsovdonY5VhI"
      },
      "href" : "https://api.spotify.com/v1/tracks/69PfsVP3IjgsovdonY5VhI",
      "id" : "69PfsVP3IjgsovdonY5VhI",
      "is_local" : false,
      "is_playable" : true,
      "name" : "Faith",
      "popularity" : 35,
      "preview_url" : "https://p.scdn.co/mp3-preview/2d4cbd34320f636fc148adddbeed60336860966d?cid=774b29d4f13844c495f206cafdad9c86",
      "track_number" : 8,
      "type" : "track",
      "uri" : "spotify:track:69PfsVP3IjgsovdonY5VhI"
    }, {
      "album" : {
        "album_type" : "album",
        "artists" : [ {
          "external_urls" : {
            "spotify" : "https://open.spotify.com/artist/2bBRxQ6hEba2rm64HLgFTo"
          },
          "href" : "https://api.spotify.com/v1/artists/2bBRxQ6hEba2rm64HLgFTo",
          "id" : "2bBRxQ6hEba2rm64HLgFTo",
          "name" : "Scripture Lullabies",
          "type" : "artist",
          "uri" : "spotify:artist:2bBRxQ6hEba2rm64HLgFTo"
        } ],
        "external_urls" : {
          "spotify" : "https://open.spotify.com/album/130Oz9WUZt6fPh3WWTCIcX"
        },
        "href" : "https://api.spotify.com/v1/albums/130Oz9WUZt6fPh3WWTCIcX",
        "id" : "130Oz9WUZt6fPh3WWTCIcX",
        "images" : [ {
          "height" : 640,
          "url" : "https://i.scdn.co/image/ab67616d0000b27346540450b17ee59f837ef1df",
          "width" : 640
        }, {
          "height" : 300,
          "url" : "https://i.scdn.co/image/ab67616d00001e0246540450b17ee59f837ef1df",
          "width" : 300
        }, {
          "height" : 64,
          "url" : "https://i.scdn.co/image/ab67616d0000485146540450b17ee59f837ef1df",
          "width" : 64
        } ],
        "name" : "Hidden in My Heart (A Lullaby Journey Through the Life of Jesus), Vol. 3",
        "release_date" : "2013-12-13",
        "release_date_precision" : "day",
        "total_tracks" : 15,
        "type" : "album",
        "uri" : "spotify:album:130Oz9WUZt6fPh3WWTCIcX"
      },
      "artists" : [ {
        "external_urls" : {
          "spotify" : "https://open.spotify.com/artist/2bBRxQ6hEba2rm64HLgFTo"
        },
        "href" : "https://api.spotify.com/v1/artists/2bBRxQ6hEba2rm64HLgFTo",
        "id" : "2bBRxQ6hEba2rm64HLgFTo",
        "name" : "Scripture Lullabies",
        "type" : "artist",
        "uri" : "spotify:artist:2bBRxQ6hEba2rm64HLgFTo"
      } ],
      "disc_number" : 1,
      "duration_ms" : 365000,
      "explicit" : false,
      "external_ids" : {
        "isrc" : "US8CK1300010"
      },
      "external_urls" : {
        "spotify" : "https://open.spotify.com/track/4d9emI9O2jZuphmqJYY8Tz"
      },
      "href" : "https://api.spotify.com/v1/tracks/4d9emI9O2jZuphmqJYY8Tz",
      "id" : "4d9emI9O2jZuphmqJYY8Tz",
      "is_local" : false,
      "is_playable" : true,
      "name" : "Peace Be Still",
      "popularity" : 35,
      "preview_url" : "https://p.scdn.co/mp3-preview/a5593dcd2c642a5554cc8c13e05d30ad8e358a04?cid=774b29d4f13844c495f206cafdad9c86",
      "track_number" : 10,
      "type" : "track",
      "uri" : "spotify:track:4d9emI9O2jZuphmqJYY8Tz"
    }, {
      "album" : {
        "album_type" : "album",
        "artists" : [ {
          "external_urls" : {
            "spotify" : "https://open.spotify.com/artist/2bBRxQ6hEba2rm64HLgFTo"
          },
          "href" : "https://api.spotify.com/v1/artists/2bBRxQ6hEba2rm64HLgFTo",
          "id" : "2bBRxQ6hEba2rm64HLgFTo",
          "name" : "Scripture Lullabies",
          "type" : "artist",
          "uri" : "spotify:artist:2bBRxQ6hEba2rm64HLgFTo"
        } ],
        "external_urls" : {
          "spotify" : "https://open.spotify.com/album/130Oz9WUZt6fPh3WWTCIcX"
        },
        "href" : "https://api.spotify.com/v1/albums/130Oz9WUZt6fPh3WWTCIcX",
        "id" : "130Oz9WUZt6fPh3WWTCIcX",
        "images" : [ {
          "height" : 640,
          "url" : "https://i.scdn.co/image/ab67616d0000b27346540450b17ee59f837ef1df",
          "width" : 640
        }, {
          "height" : 300,
          "url" : "https://i.scdn.co/image/ab67616d00001e0246540450b17ee59f837ef1df",
          "width" : 300
        }, {
          "height" : 64,
          "url" : "https://i.scdn.co/image/ab67616d0000485146540450b17ee59f837ef1df",
          "width" : 64
        } ],
        "name" : "Hidden in My Heart (A Lullaby Journey Through the Life of Jesus), Vol. 3",
        "release_date" : "2013-12-13",
        "release_date_precision" : "day",
        "total_tracks" : 15,
        "type" : "album",
        "uri" : "spotify:album:130Oz9WUZt6fPh3WWTCIcX"
      },
      "artists" : [ {
        "external_urls" : {
          "spotify" : "https://open.spotify.com/artist/2bBRxQ6hEba2rm64HLgFTo"
        },
        "href" : "https://api.spotify.com/v1/artists/2bBRxQ6hEba2rm64HLgFTo",
        "id" : "2bBRxQ6hEba2rm64HLgFTo",
        "name" : "Scripture Lullabies",
        "type" : "artist",
        "uri" : "spotify:artist:2bBRxQ6hEba2rm64HLgFTo"
      } ],
      "disc_number" : 1,
      "duration_ms" : 260866,
      "explicit" : false,
      "external_ids" : {
        "isrc" : "US8CK1300013"
      },
      "external_urls" : {
        "spotify" : "https://open.spotify.com/track/3iNaenEIUxTJs8mSSG1ZKP"
      },
      "href" : "https://api.spotify.com/v1/tracks/3iNaenEIUxTJs8mSSG1ZKP",
      "id" : "3iNaenEIUxTJs8mSSG1ZKP",
      "is_local" : false,
      "is_playable" : true,
      "name" : "He Is Risen",
      "popularity" : 35,
      "preview_url" : "https://p.scdn.co/mp3-preview/c5fdf9faa26bd9150837f4aca7455d54dec96053?cid=774b29d4f13844c495f206cafdad9c86",
      "track_number" : 13,
      "type" : "track",
      "uri" : "spotify:track:3iNaenEIUxTJs8mSSG1ZKP"
    } ],
    "limit" : 10,
    "next" : "https://api.spotify.com/v1/search?query=In+the+Heart+of+Jesus&type=track&market=US&offset=15&limit=10",
    "offset" : 5,
    "previous" : "https://api.spotify.com/v1/search?query=In+the+Heart+of+Jesus&type=track&market=US&offset=0&limit=10",
    "total" : 190
  }
}