{
  "tracks" : {
    "href" : "https://api.spotify.com/v1/search?query=Tell+Me+the+Story+of+Jesus&type=track&market=US&offset=5&limit=10",
    "items" : [ {
      "album" : {
        "album_type" : "album",
        "artists" : [ {
          "external_urls" : {
            "spotify" : "https://open.spotify.com/artist/3kTcyaSYP5fqlqrNUvxiER"
          },
          "href" : "https://api.spotify.com/v1/artists/3kTcyaSYP5fqlqrNUvxiER",
          "id" : "3kTcyaSYP5fqlqrNUvxiER",
          "name" : "Carman",
          "type" : "artist",
          "uri" : "spotify:artist:3kTcyaSYP5fqlqrNUvxiER"
        } ],
        "external_urls" : {
          "spotify" : "https://open.spotify.com/album/0u5Fam1kPUizgELst805d2"
        },
        "href" : "https://api.spotify.com/v1/albums/0u5Fam1kPUizgELst805d2",
        "id" : "0u5Fam1kPUizgELst805d2",
        "images" : [ {
          "height" : 640,
          "url" : "https://i.scdn.co/image/ab67616d0000b27328857ece91c8d412e4437e30",
          "width" : 640
        }, {
          "height" : 300,
          "url" : "https://i.scdn.co/image/ab67616d00001e0228857ece91c8d412e4437e30",
          "width" : 300
        }, {
          "height" : 64,
          "url" : "https://i.scdn.co/image/ab67616d0000485128857ece91c8d412e4437e30",
          "width" : 64
        } ],
        "name" : "I Surrender All 30 Classic Hymns",
        "release_date" : "1997-01-01",
        "release_date_precision" : "day",
        "total_tracks" : 15,
        "type" : "album",
        "uri" : "spotify:album:0u5Fam1kPUizgELst805d2"
      },
      "artists" : [ {
        "external_urls" : {
          "spotify" : "https://open.spotify.com/artist/3kTcyaSYP5fqlqrNUvxiER"
        },
        "href" : "https://api.spotify.com/v1/artists/3kTcyaSYP5fqlqrNUvxiER",
        "id" : "3kTcyaSYP5fqlqrNUvxiER",
        "name" : "Carman",
        "type" : "artist",
        "uri" : "spotify:artist:3kTcyaSYP5fqlqrNUvxiER"
      } ],
      "disc_number" : 1,
      "duration_ms" : 358306,
      "explicit" : false,
      "external_ids" : {
        "isrc" : "USSP39755895"
      },
      "external_urls" : {
        "spotify" : "https://open.spotify.com/track/5Vq7u59925J69WEQZeQpLr"
      },
      "href" : "https://api.spotify.com/v1/tracks/5Vq7u59925J69WEQZeQpLr",
      "id" : "5Vq7u59925J69WEQZeQpLr",
      "is_local" : false,
      "is_playable" : true,
      "name" : "Tell Me The Story Of Jesus",
      "popularity" : 16,
      "preview_url" : null,
      "track_number" : 10,
      "type" : "track",
      "uri" : "spotify:track:5Vq7u59925J69WEQZeQpLr"
    }, {
      "album" : {
        "album_type" : "album",
        "artists" : [ {
          "external_urls" : {
            "spotify" : "https://open.spotify.com/artist/3Qp9Qtdb5G8QYHWfe5qxi0"
          },
          "href" : "https://api.spotify.com/v1/artists/3Qp9Qtdb5G8QYHWfe5qxi0",
          "id" : "3Qp9Qtdb5G8QYHWfe5qxi0",
          "name" : "Ernie Haase & Signature Sound",
          "type" : "artist",
          "uri" : "spotify:artist:3Qp9Qtdb5G8QYHWfe5qxi0"
        } ],
        "external_urls" : {
          "spotify" : "https://open.spotify.com/album/13DHCwPmwdz4zVZkgEnG4n"
        },
        "href" : "https://api.spotify.com/v1/albums/13DHCwPmwdz4zVZkgEnG4n",
        "id" : "13DHCwPmwdz4zVZkgEnG4n",
        "images" : [ {
          "height" : 640,
          "url" : "https://i.scdn.co/image/ab67616d0000b273c2ad65afeceed96fa9ac47e1",
          "width" : 640
        }, {
          "height" : 300,
          "url" : "https://i.scdn.co/image/ab67616d00001e02c2ad65afeceed96fa9ac47e1",
          "width" : 300
        }, {
          "height" : 64,
          "url" : "https://i.scdn.co/image/ab67616d00004851c2ad65afeceed96fa9ac47e1",
          "width" : 64
        } ],
        "name" : "The Favorite Hymns of Fanny Crosby",
        "release_date" : "2016-05-06",
        "release_date_precision" : "day",
        "total_tracks" : 8,
        "type" : "album",
        "uri" : "spotify:album:13DHCwPmwdz4zVZkgEnG4n"
      },
      "artists" : [ {
        "external_urls" : {
          "spotify" : "https://open.spotify.com/artist/3Qp9Qtdb5G8QYHWfe5qxi0"
        },
        "href" : "https://api.spotify.com/v1/artists/3Qp9Qtdb5G8QYHWfe5qxi0",
        "id" : "3Qp9Qtdb5G8QYHWfe5qxi0",
        "name" : "Ernie Haase & Signature Sound",
        "type" : "artist",
        "uri" : "spotify:artist:3Qp9Qtdb5G8QYHWfe5qxi0"
      } ],
      "disc_number" : 1,
      "duration_ms" : 281040,
      "explicit" : false,
      "external_ids" : {
        "isrc" : "USC5G1600034"
      },
      "external_urls" : {
        "spotify" : "https://open.spotify.com/track/4Kbgqnwkz4Hmp5LOUgiw4O"
      },
      "href" : "https://api.spotify.com/v1/tracks/4Kbgqnwkz4Hmp5LOUgiw4O",
      "id" : "4Kbgqnwkz4Hmp5LOUgiw4O",
      "is_local" : false,
      "is_playable" : true,
      "name" : "Tell Me the Story of Jesus",
      "popularity" : 16,
      "preview_url" : "https://p.scdn.co/mp3-preview/d2a4c026feecfff0e3e766a210b0d672a9e71d3e?cid=774b29d4f13844c495f206cafdad9c86",
      "track_number" : 8,
      "type" : "track",
      "uri" : "spotify:track:4Kbgqnwkz4Hmp5LOUgiw4O"
    }, {
      "album" : {
        "album_type" : "album",
        "artists" : [ {
          "external_urls" : {
            "spotify" : "https://open.spotify.com/artist/4leTWyczsXYGlzUh8sFGSz"
          },
          "href" : "https://api.spotify.com/v1/artists/4leTWyczsXYGlzUh8sFGSz",
          "id" : "4leTWyczsXYGlzUh8sFGSz",
          "name" : "Kim Walker-Smith",
          "type" : "artist",
          "uri" : "spotify:artist:4leTWyczsXYGlzUh8sFGSz"
        } ],
        "external_urls" : {
          "spotify" : "https://open.spotify.com/album/3R2VCPanRYetPeXJ5bmDmj"
        },
        "href" : "https://api.spotify.com/v1/albums/3R2VCPanRYetPeXJ5bmDmj",
        "id" : "3R2VCPanRYetPeXJ5bmDmj",
        "images" : [ {
          "height" : 640,
          "url" : "https://i.scdn.co/image/ab67616d0000b273af67800119fc2c60651b4c5d",
          "width" : 640
        }, {
          "height" : 300,
          "url" : "https://i.scdn.co/image/ab67616d00001e02af67800119fc2c60651b4c5d",
          "width" : 300
        }, {
          "height" : 64,
          "url" : "https://i.scdn.co/image/ab67616d00004851af67800119fc2c60651b4c5d",
          "width" : 64
        } ],
        "name" : "When Christmas Comes",
        "release_date" : "2014-11-04",
        "release_date_precision" : "day",
        "total_tracks" : 17,
        "type" : "album",
        "uri" : "spotify:album:3R2VCPanRYetPeXJ5bmDmj"
      },
      "artists" : [ {
        "external_urls" : {
          "spotify" : "https://open.spotify.com/artist/4leTWyczsXYGlzUh8sFGSz"
        },
        "href" : "https://api.spotify.com/v1/artists/4leTWyczsXYGlzUh8sFGSz",
        "id" : "4leTWyczsXYGlzUh8sFGSz",
        "name" : "Kim Walker-Smith",
        "type" : "artist",
        "uri" : "spotify:artist:4leTWyczsXYGlzUh8sFGSz"
      } ],
      "disc_number" : 1,
      "duration_ms" : 100773,
      "explicit" : false,
      "external_ids" : {
        "isrc" : "USTCF1400076"
      },
      "external_urls" : {
        "spotify" : "https://open.spotify.com/track/2ocV4I0YzDyKF0ogLPKnyU"
      },
      "href" : "https://api.spotify.com/v1/tracks/2ocV4I0YzDyKF0ogLPKnyU",
      "id" : "2ocV4I0YzDyKF0ogLPKnyU",
      "is_local" : false,
      "is_playable" : true,
      "name" : "Tell Me The Story Of Jesus",
      "popularity" : 14,
      "preview_url" : null,
      "track_number" : 1,
      "type" : "track",
      "uri" : "spotify:track:2ocV4I0YzDyKF0ogLPKnyU"
    }, {
      "album" : {
        "album_type" : "album",
        "artists" : [ {
          "external_urls" : {
            "spotify" : "https://open.spotify.com/artist/11sAWrpIkFUPQlXoQqpeBV"
          },
          "href" : "https://api.spotify.com/v1/artists/11sAWrpIkFUPQlXoQqpeBV",
          "id" : "11sAWrpIkFUPQlXoQqpeBV",
          "name" : "Bill & Gloria Gaither",
          "type" : "artist",
          "uri" : "spotify:artist:11sAWrpIkFUPQlXoQqpeBV"
        } ],
        "external_urls" : {
          "spotify" : "https://open.spotify.com/album/3InhUnQcWQ4HmfwjlNQKxb"
        },
        "href" : "https://api.spotify.com/v1/albums/3InhUnQcWQ4HmfwjlNQKxb",
        "id" : "3InhUnQcWQ4HmfwjlNQKxb",
        "images" : [ {
          "height" : 640,
          "url" : "https://i.scdn.co/image/ab67616d0000b2734f560b42591f76e17caee9be",
          "width" : 640
        }, {
          "height" : 300,
          "url" : "https://i.scdn.co/image/ab67616d00001e024f560b42591f76e17caee9be",
          "width" : 300
        }, {
          "height" : 64,
          "url" : "https://i.scdn.co/image/ab67616d000048514f560b42591f76e17caee9be",
          "width" : 64
        } ],
        "name" : "Down By The Tabernacle",
        "release_date" : "1998",
        "release_date_precision" : "year",
        "total_tracks" : 22,
        "type" : "album",
        "uri" : "spotify:album:3InhUnQcWQ4HmfwjlNQKxb"
      },
      "artists" : [ {
        "external_urls" : {
          "spotify" : "https://open.spotify.com/artist/4HBMSxWwA4moYizXQCUcCJ"
        },
        "href" : "https://api.spotify.com/v1/artists/4HBMSxWwA4moYizXQCUcCJ",
        "id" : "4HBMSxWwA4moYizXQCUcCJ",
        "name" : "Tanya Goodman Sykes",
        "type" : "artist",
        "uri" : "spotify:artist:4HBMSxWwA4moYizXQCUcCJ"
      }, {
        "external_urls" : {
          "spotify" : "https://open.spotify.com/artist/5Wcc9ojw03wJUXhgkToSD6"
        },
        "href" : "https://api.spotify.com/v1/artists/5Wcc9ojw03wJUXhgkToSD6",
        "id" : "5Wcc9ojw03wJUXhgkToSD6",
        "name" : "Smith",
        "type" : "artist",
        "uri" : "spotify:artist:5Wcc9ojw03wJUXhgkToSD6"
      }, {
        "external_urls" : {
          "spotify" : "https://open.spotify.com/artist/7nPebEaJgqsrJCwqlaNv3p"
        },
        "href" : "https://api.spotify.com/v1/artists/7nPebEaJgqsrJCwqlaNv3p",
        "id" : "7nPebEaJgqsrJCwqlaNv3p",
        "name" : "Wesley Pritchard",
        "type" : "artist",
        "uri" : "spotify:artist:7nPebEaJgqsrJCwqlaNv3p"
      }, {
        "external_urls" : {
          "spotify" : "https://open.spotify.com/artist/0Frsbmjf23s0qHQ0BcT9g6"
        },
        "href" : "https://api.spotify.com/v1/artists/0Frsbmjf23s0qHQ0BcT9g6",
        "id" : "0Frsbmjf23s0qHQ0BcT9g6",
        "name" : "Cynthia Clawson",
        "type" : "artist",
        "uri" : "spotify:artist:0Frsbmjf23s0qHQ0BcT9g6"
      }, {
        "external_urls" : {
          "spotify" : "https://open.spotify.com/artist/30RlL4fdGuFhcBqqNUIPVe"
        },
        "href" : "https://api.spotify.com/v1/artists/30RlL4fdGuFhcBqqNUIPVe",
        "id" : "30RlL4fdGuFhcBqqNUIPVe",
        "name" : "Ivan Parker",
        "type" : "artist",
        "uri" : "spotify:artist:30RlL4fdGuFhcBqqNUIPVe"
      } ],
      "disc_number" : 1,
      "duration_ms" : 352989,
      "explicit" : false,
      "external_ids" : {
        "isrc" : "US3270401994"
      },
      "external_urls" : {
        "spotify" : "https://open.spotify.com/track/52C3HSHIiLJBtFdyoSHdtq"
      },
      "href" : "https://api.spotify.com/v1/tracks/52C3HSHIiLJBtFdyoSHdtq",
      "id" : "52C3HSHIiLJBtFdyoSHdtq",
      "is_local" : false,
      "is_playable" : true,
      "name" : "Tell Me The Story Of Jesus",
      "popularity" : 12,
      "preview_url" : null,
      "track_number" : 12,
      "type" : "track",
      "uri" : "spotify:track:52C3HSHIiLJBtFdyoSHdtq"
    }, {
      "album" : {
        "album_type" : "album",
        "artists" : [ {
          "external_urls" : {
            "spotify" : "https://open.spotify.com/artist/11sAWrpIkFUPQlXoQqpeBV"
          },
          "href" : "https://api.spotify.com/v1/artists/11sAWrpIkFUPQlXoQqpeBV",
          "id" : "11sAWrpIkFUPQlXoQqpeBV",
          "name" : "Bill & Gloria Gaither",
          "type" : "artist",
          "uri" : "spotify:artist:11sAWrpIkFUPQlXoQqpeBV"
        } ],
        "external_urls" : {
          "spotify" : "https://open.spotify.com/album/3jLYVGQDp4je2ayWff9BZ9"
        },
        "href" : "https://api.spotify.com/v1/albums/3jLYVGQDp4je2ayWff9BZ9",
        "id" : "3jLYVGQDp4je2ayWff9BZ9",
        "images" : [ {
          "height" : 640,
          "url" : "https://i.scdn.co/image/ab67616d0000b273cdbf3f4a7173adef4e56bae3",
          "width" : 640
        }, {
          "height" : 300,
          "url" : "https://i.scdn.co/image/ab67616d00001e02cdbf3f4a7173adef4e56bae3",
          "width" : 300
        }, {
          "height" : 64,
          "url" : "https://i.scdn.co/image/ab67616d00004851cdbf3f4a7173adef4e56bae3",
          "width" : 64
        } ],
        "name" : "Amazing Grace",
        "release_date" : "2007-01-01",
        "release_date_precision" : "day",
        "total_tracks" : 17,
        "type" : "album",
        "uri" : "spotify:album:3jLYVGQDp4je2ayWff9BZ9"
      },
      "artists" : [ {
        "external_urls" : {
          "spotify" : "https://open.spotify.com/artist/30RlL4fdGuFhcBqqNUIPVe"
        },
        "href" : "https://api.spotify.com/v1/artists/30RlL4fdGuFhcBqqNUIPVe",
        "id" : "30RlL4fdGuFhcBqqNUIPVe",
        "name" : "Ivan Parker",
        "type" : "artist",
        "uri" : "spotify:artist:30RlL4fdGuFhcBqqNUIPVe"
      }, {
        "external_urls" : {
          "spotify" : "https://open.spotify.com/artist/7yK16X5NeP0zuX9qXgcD12"
        },
        "href" : "https://api.spotify.com/v1/artists/7yK16X5NeP0zuX9qXgcD12",
        "id" : "7yK16X5NeP0zuX9qXgcD12",
        "name" : "Charlotte Ritchie",
        "type" : "artist",
        "uri" : "spotify:artist:7yK16X5NeP0zuX9qXgcD12"
      } ],
      "disc_number" : 1,
      "duration_ms" : 351586,
      "explicit" : false,
      "external_ids" : {
        "isrc" : "US3270402674"
      },
      "external_urls" : {
        "spotify" : "https://open.spotify.com/track/2MbxD645kUqdq7cJvgaYq6"
      },
      "href" : "https://api.spotify.com/v1/tracks/2MbxD645kUqdq7cJvgaYq6",
      "id" : "2MbxD645kUqdq7cJvgaYq6",
      "is_local" : false,
      "is_playable" : true,
      "name" : "Tell Me The Story Of Jesus/I Love To Tell The Story - Amazing Grace Album Version",
      "popularity" : 14,
      "preview_url" : null,
      "track_number" : 5,
      "type" : "track",
      "uri" : "spotify:track:2MbxD645kUqdq7cJvgaYq6"
    }, {
      "album" : {
        "album_type" : "album",
        "artists" : [ {
          "external_urls" : {
            "spotify" : "https://open.spotify.com/artist/0MCU2OpgnSB7rm5UPUMHgt"
          },
          "href" : "https://api.spotify.com/v1/artists/0MCU2OpgnSB7rm5UPUMHgt",
          "id" : "0MCU2OpgnSB7rm5UPUMHgt",
          "name" : "Cedarmont Kids",
          "type" : "artist",
          "uri" : "spotify:artist:0MCU2OpgnSB7rm5UPUMHgt"
        } ],
        "external_urls" : {
          "spotify" : "https://open.spotify.com/album/6IsMuKCzRSdfK9uRNq5Bfd"
        },
        "href" : "https://api.spotify.com/v1/albums/6IsMuKCzRSdfK9uRNq5Bfd",
        "id" : "6IsMuKCzRSdfK9uRNq5Bfd",
        "images" : [ {
          "height" : 640,
          "url" : "https://i.scdn.co/image/ab67616d0000b2739e6ce337aa67d1f0162a5ba4",
          "width" : 640
        }, {
          "height" : 300,
          "url" : "https://i.scdn.co/image/ab67616d00001e029e6ce337aa67d1f0162a5ba4",
          "width" : 300
        }, {
          "height" : 64,
          "url" : "https://i.scdn.co/image/ab67616d000048519e6ce337aa67d1f0162a5ba4",
          "width" : 64
        } ],
        "name" : "Hymns",
        "release_date" : "1997-07-06",
        "release_date_precision" : "day",
        "total_tracks" : 32,
        "type" : "album",
        "uri" : "spotify:album:6IsMuKCzRSdfK9uRNq5Bfd"
      },
      "artists" : [ {
        "external_urls" : {
          "spotify" : "https://open.spotify.com/artist/0MCU2OpgnSB7rm5UPUMHgt"
        },
        "href" : "https://api.spotify.com/v1/artists/0MCU2OpgnSB7rm5UPUMHgt",
        "id" : "0MCU2OpgnSB7rm5UPUMHgt",
        "name" : "Cedarmont Kids",
        "type" : "artist",
        "uri" : "spotify:artist:0MCU2OpgnSB7rm5UPUMHgt"
      } ],
      "disc_number" : 1,
      "duration_ms" : 113826,
      "explicit" : false,
      "external_ids" : {
        "isrc" : "USA5W0400449"
      },
      "external_urls" : {
        "spotify" : "https://open.spotify.com/track/6XNKotmcmePWkCZ6LaKo94"
      },
      "href" : "https://api.spotify.com/v1/tracks/6XNKotmcmePWkCZ6LaKo94",
      "id" : "6XNKotmcmePWkCZ6LaKo94",
      "is_local" : false,
      "is_playable" : true,
      "name" : "Tell Me The Story Of Jesus",
      "popularity" : 11,
      "preview_url" : "https://p.scdn.co/mp3-preview/73cd59829582dc513d24b45b83f29988b7932f4b?cid=774b29d4f13844c495f206cafdad9c86",
      "track_number" : 14,
      "type" : "track",
      "uri" : "spotify:track:6XNKotmcmePWkCZ6LaKo94"
    }, {
      "album" : {
        "album_type" : "album",
        "artists" : [ {
          "external_urls" : {
            "spotify" : "https://open.spotify.com/artist/5OBtjVnJ57P1dGt7sfyYxJ"
          },
          "href" : "https://api.spotify.com/v1/artists/5OBtjVnJ57P1dGt7sfyYxJ",
          "id" : "5OBtjVnJ57P1dGt7sfyYxJ",
          "name" : "St. John's Children's Choir",
          "type" : "artist",
          "uri" : "spotify:artist:5OBtjVnJ57P1dGt7sfyYxJ"
        } ],
        "external_urls" : {
          "spotify" : "https://open.spotify.com/album/6DjoOQ4PJAAlCtmO35FEBY"
        },
        "href" : "https://api.spotify.com/v1/albums/6DjoOQ4PJAAlCtmO35FEBY",
        "id" : "6DjoOQ4PJAAlCtmO35FEBY",
        "images" : [ {
          "height" : 640,
          "url" : "https://i.scdn.co/image/ab67616d0000b273c8d7d8b78fc875b042202f8b",
          "width" : 640
        }, {
          "height" : 300,
          "url" : "https://i.scdn.co/image/ab67616d00001e02c8d7d8b78fc875b042202f8b",
          "width" : 300
        }, {
          "height" : 64,
          "url" : "https://i.scdn.co/image/ab67616d00004851c8d7d8b78fc875b042202f8b",
          "width" : 64
        } ],
        "name" : "Jesus Loves the Little Children",
        "release_date" : "2002-01-01",
        "release_date_precision" : "day",
        "total_tracks" : 25,
        "type" : "album",
        "uri" : "spotify:album:6DjoOQ4PJAAlCtmO35FEBY"
      },
      "artists" : [ {
        "external_urls" : {
          "spotify" : "https://open.spotify.com/artist/5OBtjVnJ57P1dGt7sfyYxJ"
        },
        "href" : "https://api.spotify.com/v1/artists/5OBtjVnJ57P1dGt7sfyYxJ",
        "id" : "5OBtjVnJ57P1dGt7sfyYxJ",
        "name" : "St. John's Children's Choir",
        "type" : "artist",
        "uri" : "spotify:artist:5OBtjVnJ57P1dGt7sfyYxJ"
      } ],
      "disc_number" : 1,
      "duration_ms" : 103120,
      "explicit" : false,
      "external_ids" : {
        "isrc" : "CAM460602799"
      },
      "external_urls" : {
        "spotify" : "https://open.spotify.com/track/0gpn9Gov6JjjF863GLjF9N"
      },
      "href" : "https://api.spotify.com/v1/tracks/0gpn9Gov6JjjF863GLjF9N",
      "id" : "0gpn9Gov6JjjF863GLjF9N",
      "is_local" : false,
      "is_playable" : true,
      "name" : "Tell Me the Story of Jesus",
      "popularity" : 13,
      "preview_url" : "https://p.scdn.co/mp3-preview/4a1bc0c02aca5512e3997b7ac276984f1713170c?cid=774b29d4f13844c495f206cafdad9c86",
      "track_number" : 11,
      "type" : "track",
      "uri" : "spotify:track:0gpn9Gov6JjjF863GLjF9N"
    }, {
      "album" : {
        "album_type" : "album",
        "artists" : [ {
          "external_urls" : {
            "spotify" : "https://open.spotify.com/artist/11sAWrpIkFUPQlXoQqpeBV"
          },
          "href" : "https://api.spotify.com/v1/artists/11sAWrpIkFUPQlXoQqpeBV",
          "id" : "11sAWrpIkFUPQlXoQqpeBV",
          "name" : "Bill & Gloria Gaither",
          "type" : "artist",
          "uri" : "spotify:artist:11sAWrpIkFUPQlXoQqpeBV"
        } ],
        "external_urls" : {
          "spotify" : "https://open.spotify.com/album/7jmYUdLd4CwXHkWcZgDWuG"
        },
        "href" : "https://api.spotify.com/v1/albums/7jmYUdLd4CwXHkWcZgDWuG",
        "id" : "7jmYUdLd4CwXHkWcZgDWuG",
        "images" : [ {
          "height" : 640,
          "url" : "https://i.scdn.co/image/ab67616d0000b27370c7ede1d78088bce79b1c17",
          "width" : 640
        }, {
          "height" : 300,
          "url" : "https://i.scdn.co/image/ab67616d00001e0270c7ede1d78088bce79b1c17",
          "width" : 300
        }, {
          "height" : 64,
          "url" : "https://i.scdn.co/image/ab67616d0000485170c7ede1d78088bce79b1c17",
          "width" : 64
        } ],
        "name" : "Favorite Hymns From The Homecoming Friends",
        "release_date" : "1998-01-01",
        "release_date_precision" : "day",
        "total_tracks" : 17,
        "type" : "album",
        "uri" : "spotify:album:7jmYUdLd4CwXHkWcZgDWuG"
      },
      "artists" : [ {
        "external_urls" : {
          "spotify" : "https://open.spotify.com/artist/11sAWrpIkFUPQlXoQqpeBV"
        },
        "href" : "https://api.spotify.com/v1/artists/11sAWrpIkFUPQlXoQqpeBV",
        "id" : "11sAWrpIkFUPQlXoQqpeBV",
        "name" : "Bill & Gloria Gaither",
        "type" : "artist",
        "uri" : "spotify:artist:11sAWrpIkFUPQlXoQqpeBV"
      } ],
      "disc_number" : 1,
      "duration_ms" : 360760,
      "explicit" : false,
      "external_ids" : {
        "isrc" : "US3270400046"
      },
      "external_urls" : {
        "spotify" : "https://open.spotify.com/track/5OdzFfgAe9FqWxayTaReUQ"
      },
      "href" : "https://api.spotify.com/v1/tracks/5OdzFfgAe9FqWxayTaReUQ",
      "id" : "5OdzFfgAe9FqWxayTaReUQ",
      "is_local" : false,
      "is_playable" : true,
      "name" : "Tell Me The Story Of Jesus - Favorite Hymns Sung By The Homecoming Friends Album Version",
      "popularity" : 12,
      "preview_url" : null,
      "track_number" : 6,
      "type" : "track",
      "uri" : "spotify:track:5OdzFfgAe9FqWxayTaReUQ"
    }, {
      "album" : {
        "album_type" : "album",
        "artists" : [ {
          "external_urls" : {
            "spotify" : "https://open.spotify.com/artist/6yHjh2kS1GE4StjNCe5vm0"
          },
          "href" : "https://api.spotify.com/v1/artists/6yHjh2kS1GE4StjNCe5vm0",
          "id" : "6yHjh2kS1GE4StjNCe5vm0",
          "name" : "Mark Baldwin",
          "type" : "artist",
          "uri" : "spotify:artist:6yHjh2kS1GE4StjNCe5vm0"
        } ],
        "external_urls" : {
          "spotify" : "https://open.spotify.com/album/5DQUkwkFJEm7qRyXqwVGdC"
        },
        "href" : "https://api.spotify.com/v1/albums/5DQUkwkFJEm7qRyXqwVGdC",
        "id" : "5DQUkwkFJEm7qRyXqwVGdC",
        "images" : [ {
          "height" : 640,
          "url" : "https://i.scdn.co/image/ab67616d0000b2731e2a71acd32b4602f8a90f06",
          "width" : 640
        }, {
          "height" : 300,
          "url" : "https://i.scdn.co/image/ab67616d00001e021e2a71acd32b4602f8a90f06",
          "width" : 300
        }, {
          "height" : 64,
          "url" : "https://i.scdn.co/image/ab67616d000048511e2a71acd32b4602f8a90f06",
          "width" : 64
        } ],
        "name" : "Our Daily Bread - Hymns of Service",
        "release_date" : "2013-09-01",
        "release_date_precision" : "day",
        "total_tracks" : 10,
        "type" : "album",
        "uri" : "spotify:album:5DQUkwkFJEm7qRyXqwVGdC"
      },
      "artists" : [ {
        "external_urls" : {
          "spotify" : "https://open.spotify.com/artist/6yHjh2kS1GE4StjNCe5vm0"
        },
        "href" : "https://api.spotify.com/v1/artists/6yHjh2kS1GE4StjNCe5vm0",
        "id" : "6yHjh2kS1GE4StjNCe5vm0",
        "name" : "Mark Baldwin",
        "type" : "artist",
        "uri" : "spotify:artist:6yHjh2kS1GE4StjNCe5vm0"
      } ],
      "disc_number" : 1,
      "duration_ms" : 309360,
      "explicit" : false,
      "external_ids" : {
        "isrc" : "USLF50801694"
      },
      "external_urls" : {
        "spotify" : "https://open.spotify.com/track/5Zy0bVTU10Fzzby4Pys2TA"
      },
      "href" : "https://api.spotify.com/v1/tracks/5Zy0bVTU10Fzzby4Pys2TA",
      "id" : "5Zy0bVTU10Fzzby4Pys2TA",
      "is_local" : false,
      "is_playable" : true,
      "name" : "Tell Me the Story of Jesus",
      "popularity" : 11,
      "preview_url" : "https://p.scdn.co/mp3-preview/eb09624e8807905164ea8d2f942cf0b0a91fbf05?cid=774b29d4f13844c495f206cafdad9c86",
      "track_number" : 9,
      "type" : "track",
      "uri" : "spotify:track:5Zy0bVTU10Fzzby4Pys2TA"
    }, {
      "album" : {
        "album_type" : "album",
        "artists" : [ {
          "external_urls" : {
            "spotify" : "https://open.spotify.com/artist/6oLzN8cU382zotCKpCNcbT"
          },
          "href" : "https://api.spotify.com/v1/artists/6oLzN8cU382zotCKpCNcbT",
          "id" : "6oLzN8cU382zotCKpCNcbT",
          "name" : "Dino",
          "type" : "artist",
          "uri" : "spotify:artist:6oLzN8cU382zotCKpCNcbT"
        } ],
        "external_urls" : {
          "spotify" : "https://open.spotify.com/album/1Yu2GlduZZ74xBWppmyjm0"
        },
        "href" : "https://api.spotify.com/v1/albums/1Yu2GlduZZ74xBWppmyjm0",
        "id" : "1Yu2GlduZZ74xBWppmyjm0",
        "images" : [ {
          "height" : 640,
          "url" : "https://i.scdn.co/image/ab67616d0000b273cd43df891da35379793922be",
          "width" : 640
        }, {
          "height" : 300,
          "url" : "https://i.scdn.co/image/ab67616d00001e02cd43df891da35379793922be",
          "width" : 300
        }, {
          "height" : 64,
          "url" : "https://i.scdn.co/image/ab67616d00004851cd43df891da35379793922be",
          "width" : 64
        } ],
        "name" : "Sacred Piano: Hymns Collection, Vol. 1",
        "release_date" : "2006-01-01",
        "release_date_precision" : "day",
        "total_tracks" : 12,
        "type" : "album",
        "uri" : "spotify:album:1Yu2GlduZZ74xBWppmyjm0"
      },
      "artists" : [ {
        "external_urls" : {
          "spotify" : "https://open.spotify.com/artist/6oLzN8cU382zotCKpCNcbT"
        },
        "href" : "https://api.spotify.com/v1/artists/6oLzN8cU382zotCKpCNcbT",
        "id" : "6oLzN8cU382zotCKpCNcbT",
        "name" : "Dino",
        "type" : "artist",
        "uri" : "spotify:artist:6oLzN8cU382zotCKpCNcbT"
      } ],
      "disc_number" : 1,
      "duration_ms" : 241013,
      "explicit" : false,
      "external_ids" : {
        "isrc" : "USACX0800786"
      },
      "external_urls" : {
        "spotify" : "https://open.spotify.com/track/52YCeIkdTNuWq59YEOTlt7"
      },
      "href" : "https://api.spotify.com/v1/tracks/52YCeIkdTNuWq59YEOTlt7",
      "id" : "52YCeIkdTNuWq59YEOTlt7",
      "is_local" : false,
      "is_playable" : true,
      "name" : "Tell Me The Story Of Jesus",
      "popularity" : 8,
      "preview_url" : "https://p.scdn.co/mp3-preview/193708da990fa07aac1144d34e5ac74ba8d17014?cid=774b29d4f13844c495f206cafdad9c86",
      "track_number" : 3,
      "type" : "track",
      "uri" : "spotify:track:52YCeIkdTNuWq59YEOTlt7"
    } ],
    "limit" : 10,
    "next" : "https://api.spotify.com/v1/search?query=Tell+Me+the+Story+of+Jesus&type=track&market=US&offset=15&limit=10",
    "offset" : 5,
    "previous" : "https://api.spotify.com/v1/search?query=Tell+Me+the+Story+of+Jesus&type=track&market=US&offset=0&limit=10",
    "total" : 222
  }
}