{
  "tracks" : {
    "href" : "https://api.spotify.com/v1/search?query=Almighty+Father&type=track&market=US&offset=5&limit=10",
    "items" : [ {
      "album" : {
        "album_type" : "album",
        "artists" : [ {
          "external_urls" : {
            "spotify" : "https://open.spotify.com/artist/7Iz4reAxyHXjqHix5cYlej"
          },
          "href" : "https://api.spotify.com/v1/artists/7Iz4reAxyHXjqHix5cYlej",
          "id" : "7Iz4reAxyHXjqHix5cYlej",
          "name" : "Faithful Fathers",
          "type" : "artist",
          "uri" : "spotify:artist:7Iz4reAxyHXjqHix5cYlej"
        } ],
        "external_urls" : {
          "spotify" : "https://open.spotify.com/album/5MOrH86u66wWv4sOXTu0F8"
        },
        "href" : "https://api.spotify.com/v1/albums/5MOrH86u66wWv4sOXTu0F8",
        "id" : "5MOrH86u66wWv4sOXTu0F8",
        "images" : [ {
          "height" : 640,
          "url" : "https://i.scdn.co/image/ab67616d0000b273a85c29a1f1166ed508ab556b",
          "width" : 640
        }, {
          "height" : 300,
          "url" : "https://i.scdn.co/image/ab67616d00001e02a85c29a1f1166ed508ab556b",
          "width" : 300
        }, {
          "height" : 64,
          "url" : "https://i.scdn.co/image/ab67616d00004851a85c29a1f1166ed508ab556b",
          "width" : 64
        } ],
        "name" : "Pipe Organ Hymns",
        "release_date" : "2008-05-02",
        "release_date_precision" : "day",
        "total_tracks" : 17,
        "type" : "album",
        "uri" : "spotify:album:5MOrH86u66wWv4sOXTu0F8"
      },
      "artists" : [ {
        "external_urls" : {
          "spotify" : "https://open.spotify.com/artist/7Iz4reAxyHXjqHix5cYlej"
        },
        "href" : "https://api.spotify.com/v1/artists/7Iz4reAxyHXjqHix5cYlej",
        "id" : "7Iz4reAxyHXjqHix5cYlej",
        "name" : "Faithful Fathers",
        "type" : "artist",
        "uri" : "spotify:artist:7Iz4reAxyHXjqHix5cYlej"
      } ],
      "disc_number" : 1,
      "duration_ms" : 151840,
      "explicit" : false,
      "external_ids" : {
        "isrc" : "US4R30740193"
      },
      "external_urls" : {
        "spotify" : "https://open.spotify.com/track/0FwAWU2Qt0zUgMh0vK0jGB"
      },
      "href" : "https://api.spotify.com/v1/tracks/0FwAWU2Qt0zUgMh0vK0jGB",
      "id" : "0FwAWU2Qt0zUgMh0vK0jGB",
      "is_local" : false,
      "is_playable" : true,
      "name" : "Holy Holy Holy! Lord God Almighty - Church Organ",
      "popularity" : 13,
      "preview_url" : "https://p.scdn.co/mp3-preview/f9311432e29e46c46faa0ebce4011adae9bbdcf2?cid=774b29d4f13844c495f206cafdad9c86",
      "track_number" : 11,
      "type" : "track",
      "uri" : "spotify:track:0FwAWU2Qt0zUgMh0vK0jGB"
    }, {
      "album" : {
        "album_type" : "album",
        "artists" : [ {
          "external_urls" : {
            "spotify" : "https://open.spotify.com/artist/2duo4NJtUrLaI38trK0hht"
          },
          "href" : "https://api.spotify.com/v1/artists/2duo4NJtUrLaI38trK0hht",
          "id" : "2duo4NJtUrLaI38trK0hht",
          "name" : "Mormon Tabernacle Choir",
          "type" : "artist",
          "uri" : "spotify:artist:2duo4NJtUrLaI38trK0hht"
        }, {
          "external_urls" : {
            "spotify" : "https://open.spotify.com/artist/4kAIRZipPTtTbZBTudxcEA"
          },
          "href" : "https://api.spotify.com/v1/artists/4kAIRZipPTtTbZBTudxcEA",
          "id" : "4kAIRZipPTtTbZBTudxcEA",
          "name" : "Orchestra at Temple Square",
          "type" : "artist",
          "uri" : "spotify:artist:4kAIRZipPTtTbZBTudxcEA"
        }, {
          "external_urls" : {
            "spotify" : "https://open.spotify.com/artist/13iOctu8ZH8004y3Sy4e8p"
          },
          "href" : "https://api.spotify.com/v1/artists/13iOctu8ZH8004y3Sy4e8p",
          "id" : "13iOctu8ZH8004y3Sy4e8p",
          "name" : "Craig Jessop",
          "type" : "artist",
          "uri" : "spotify:artist:13iOctu8ZH8004y3Sy4e8p"
        } ],
        "external_urls" : {
          "spotify" : "https://open.spotify.com/album/6q14URGinKww37ldHCX8Tb"
        },
        "href" : "https://api.spotify.com/v1/albums/6q14URGinKww37ldHCX8Tb",
        "id" : "6q14URGinKww37ldHCX8Tb",
        "images" : [ {
          "height" : 640,
          "url" : "https://i.scdn.co/image/ab67616d0000b27376a0ab14e9041e2aa3fdf3a0",
          "width" : 640
        }, {
          "height" : 300,
          "url" : "https://i.scdn.co/image/ab67616d00001e0276a0ab14e9041e2aa3fdf3a0",
          "width" : 300
        }, {
          "height" : 64,
          "url" : "https://i.scdn.co/image/ab67616d0000485176a0ab14e9041e2aa3fdf3a0",
          "width" : 64
        } ],
        "name" : "Spirit of America",
        "release_date" : "2003-06-24",
        "release_date_precision" : "day",
        "total_tracks" : 18,
        "type" : "album",
        "uri" : "spotify:album:6q14URGinKww37ldHCX8Tb"
      },
      "artists" : [ {
        "external_urls" : {
          "spotify" : "https://open.spotify.com/artist/0fbG9gzKf5VBZQHTiI00xC"
        },
        "href" : "https://api.spotify.com/v1/artists/0fbG9gzKf5VBZQHTiI00xC",
        "id" : "0fbG9gzKf5VBZQHTiI00xC",
        "name" : "George W Warren",
        "type" : "artist",
        "uri" : "spotify:artist:0fbG9gzKf5VBZQHTiI00xC"
      }, {
        "external_urls" : {
          "spotify" : "https://open.spotify.com/artist/2duo4NJtUrLaI38trK0hht"
        },
        "href" : "https://api.spotify.com/v1/artists/2duo4NJtUrLaI38trK0hht",
        "id" : "2duo4NJtUrLaI38trK0hht",
        "name" : "Mormon Tabernacle Choir",
        "type" : "artist",
        "uri" : "spotify:artist:2duo4NJtUrLaI38trK0hht"
      }, {
        "external_urls" : {
          "spotify" : "https://open.spotify.com/artist/4kAIRZipPTtTbZBTudxcEA"
        },
        "href" : "https://api.spotify.com/v1/artists/4kAIRZipPTtTbZBTudxcEA",
        "id" : "4kAIRZipPTtTbZBTudxcEA",
        "name" : "Orchestra at Temple Square",
        "type" : "artist",
        "uri" : "spotify:artist:4kAIRZipPTtTbZBTudxcEA"
      }, {
        "external_urls" : {
          "spotify" : "https://open.spotify.com/artist/13iOctu8ZH8004y3Sy4e8p"
        },
        "href" : "https://api.spotify.com/v1/artists/13iOctu8ZH8004y3Sy4e8p",
        "id" : "13iOctu8ZH8004y3Sy4e8p",
        "name" : "Craig Jessop",
        "type" : "artist",
        "uri" : "spotify:artist:13iOctu8ZH8004y3Sy4e8p"
      } ],
      "disc_number" : 1,
      "duration_ms" : 262000,
      "explicit" : false,
      "external_ids" : {
        "isrc" : "US23M0801997"
      },
      "external_urls" : {
        "spotify" : "https://open.spotify.com/track/4zhNgdfUpWft1y01YefgeP"
      },
      "href" : "https://api.spotify.com/v1/tracks/4zhNgdfUpWft1y01YefgeP",
      "id" : "4zhNgdfUpWft1y01YefgeP",
      "is_local" : false,
      "is_playable" : true,
      "name" : "God of Our Fathers, Whose Almighty Hand",
      "popularity" : 6,
      "preview_url" : "https://p.scdn.co/mp3-preview/b0ff9c7750c1f46916b900d4d30a126c4397948d?cid=774b29d4f13844c495f206cafdad9c86",
      "track_number" : 11,
      "type" : "track",
      "uri" : "spotify:track:4zhNgdfUpWft1y01YefgeP"
    }, {
      "album" : {
        "album_type" : "album",
        "artists" : [ {
          "external_urls" : {
            "spotify" : "https://open.spotify.com/artist/2yQZGNQJExPLfCB8kfTD88"
          },
          "href" : "https://api.spotify.com/v1/artists/2yQZGNQJExPLfCB8kfTD88",
          "id" : "2yQZGNQJExPLfCB8kfTD88",
          "name" : "Andrey Jackson",
          "type" : "artist",
          "uri" : "spotify:artist:2yQZGNQJExPLfCB8kfTD88"
        } ],
        "external_urls" : {
          "spotify" : "https://open.spotify.com/album/4vFDRgetVoSJ0nZA7OxioF"
        },
        "href" : "https://api.spotify.com/v1/albums/4vFDRgetVoSJ0nZA7OxioF",
        "id" : "4vFDRgetVoSJ0nZA7OxioF",
        "images" : [ {
          "height" : 640,
          "url" : "https://i.scdn.co/image/ab67616d0000b2735f0c531d64843889c70a0279",
          "width" : 640
        }, {
          "height" : 300,
          "url" : "https://i.scdn.co/image/ab67616d00001e025f0c531d64843889c70a0279",
          "width" : 300
        }, {
          "height" : 64,
          "url" : "https://i.scdn.co/image/ab67616d000048515f0c531d64843889c70a0279",
          "width" : 64
        } ],
        "name" : "Christian Hymns, Vol. 1, Organ Accompaniments (The Church Organist Series)",
        "release_date" : "2015-11-13",
        "release_date_precision" : "day",
        "total_tracks" : 30,
        "type" : "album",
        "uri" : "spotify:album:4vFDRgetVoSJ0nZA7OxioF"
      },
      "artists" : [ {
        "external_urls" : {
          "spotify" : "https://open.spotify.com/artist/2yQZGNQJExPLfCB8kfTD88"
        },
        "href" : "https://api.spotify.com/v1/artists/2yQZGNQJExPLfCB8kfTD88",
        "id" : "2yQZGNQJExPLfCB8kfTD88",
        "name" : "Andrey Jackson",
        "type" : "artist",
        "uri" : "spotify:artist:2yQZGNQJExPLfCB8kfTD88"
      } ],
      "disc_number" : 1,
      "duration_ms" : 113796,
      "explicit" : false,
      "external_ids" : {
        "isrc" : "GB-SMU-24-07274"
      },
      "external_urls" : {
        "spotify" : "https://open.spotify.com/track/33ApWUB9FygaoXjcr334a5"
      },
      "href" : "https://api.spotify.com/v1/tracks/33ApWUB9FygaoXjcr334a5",
      "id" : "33ApWUB9FygaoXjcr334a5",
      "is_local" : false,
      "is_playable" : true,
      "name" : "Almighty Father of All Things",
      "popularity" : 6,
      "preview_url" : "https://p.scdn.co/mp3-preview/ad932bf6bad9c43ff5293c87d46c550adff16810?cid=774b29d4f13844c495f206cafdad9c86",
      "track_number" : 15,
      "type" : "track",
      "uri" : "spotify:track:33ApWUB9FygaoXjcr334a5"
    }, {
      "album" : {
        "album_type" : "album",
        "artists" : [ {
          "external_urls" : {
            "spotify" : "https://open.spotify.com/artist/2yQZGNQJExPLfCB8kfTD88"
          },
          "href" : "https://api.spotify.com/v1/artists/2yQZGNQJExPLfCB8kfTD88",
          "id" : "2yQZGNQJExPLfCB8kfTD88",
          "name" : "Andrey Jackson",
          "type" : "artist",
          "uri" : "spotify:artist:2yQZGNQJExPLfCB8kfTD88"
        } ],
        "external_urls" : {
          "spotify" : "https://open.spotify.com/album/4vFDRgetVoSJ0nZA7OxioF"
        },
        "href" : "https://api.spotify.com/v1/albums/4vFDRgetVoSJ0nZA7OxioF",
        "id" : "4vFDRgetVoSJ0nZA7OxioF",
        "images" : [ {
          "height" : 640,
          "url" : "https://i.scdn.co/image/ab67616d0000b2735f0c531d64843889c70a0279",
          "width" : 640
        }, {
          "height" : 300,
          "url" : "https://i.scdn.co/image/ab67616d00001e025f0c531d64843889c70a0279",
          "width" : 300
        }, {
          "height" : 64,
          "url" : "https://i.scdn.co/image/ab67616d000048515f0c531d64843889c70a0279",
          "width" : 64
        } ],
        "name" : "Christian Hymns, Vol. 1, Organ Accompaniments (The Church Organist Series)",
        "release_date" : "2015-11-13",
        "release_date_precision" : "day",
        "total_tracks" : 30,
        "type" : "album",
        "uri" : "spotify:album:4vFDRgetVoSJ0nZA7OxioF"
      },
      "artists" : [ {
        "external_urls" : {
          "spotify" : "https://open.spotify.com/artist/2yQZGNQJExPLfCB8kfTD88"
        },
        "href" : "https://api.spotify.com/v1/artists/2yQZGNQJExPLfCB8kfTD88",
        "id" : "2yQZGNQJExPLfCB8kfTD88",
        "name" : "Andrey Jackson",
        "type" : "artist",
        "uri" : "spotify:artist:2yQZGNQJExPLfCB8kfTD88"
      } ],
      "disc_number" : 1,
      "duration_ms" : 163983,
      "explicit" : false,
      "external_ids" : {
        "isrc" : "GB-SMU-24-07447"
      },
      "external_urls" : {
        "spotify" : "https://open.spotify.com/track/5fgcvzW1FzkqID4VY8AsV4"
      },
      "href" : "https://api.spotify.com/v1/tracks/5fgcvzW1FzkqID4VY8AsV4",
      "id" : "5fgcvzW1FzkqID4VY8AsV4",
      "is_local" : false,
      "is_playable" : true,
      "name" : "Almighty Father Who Dost Give",
      "popularity" : 6,
      "preview_url" : "https://p.scdn.co/mp3-preview/4a315cedfff7e735e2e8b57b1fee2600b446cf3b?cid=774b29d4f13844c495f206cafdad9c86",
      "track_number" : 16,
      "type" : "track",
      "uri" : "spotify:track:5fgcvzW1FzkqID4VY8AsV4"
    }, {
      "album" : {
        "album_type" : "album",
        "artists" : [ {
          "external_urls" : {
            "spotify" : "https://open.spotify.com/artist/5KM6vTt9aFfkWPwS140Jhn"
          },
          "href" : "https://api.spotify.com/v1/artists/5KM6vTt9aFfkWPwS140Jhn",
          "id" : "5KM6vTt9aFfkWPwS140Jhn",
          "name" : "Danny Antill",
          "type" : "artist",
          "uri" : "spotify:artist:5KM6vTt9aFfkWPwS140Jhn"
        } ],
        "external_urls" : {
          "spotify" : "https://open.spotify.com/album/1bTs8kXD0IUGufrjYYNUve"
        },
        "href" : "https://api.spotify.com/v1/albums/1bTs8kXD0IUGufrjYYNUve",
        "id" : "1bTs8kXD0IUGufrjYYNUve",
        "images" : [ {
          "height" : 640,
          "url" : "https://i.scdn.co/image/ab67616d0000b273ddb70e5e74ffb16bb7f7a692",
          "width" : 640
        }, {
          "height" : 300,
          "url" : "https://i.scdn.co/image/ab67616d00001e02ddb70e5e74ffb16bb7f7a692",
          "width" : 300
        }, {
          "height" : 64,
          "url" : "https://i.scdn.co/image/ab67616d00004851ddb70e5e74ffb16bb7f7a692",
          "width" : 64
        } ],
        "name" : "Piano Instrumental: 50 Favourite Praise & Worship Songs",
        "release_date" : "2005-08-19",
        "release_date_precision" : "day",
        "total_tracks" : 7,
        "type" : "album",
        "uri" : "spotify:album:1bTs8kXD0IUGufrjYYNUve"
      },
      "artists" : [ {
        "external_urls" : {
          "spotify" : "https://open.spotify.com/artist/5KM6vTt9aFfkWPwS140Jhn"
        },
        "href" : "https://api.spotify.com/v1/artists/5KM6vTt9aFfkWPwS140Jhn",
        "id" : "5KM6vTt9aFfkWPwS140Jhn",
        "name" : "Danny Antill",
        "type" : "artist",
        "uri" : "spotify:artist:5KM6vTt9aFfkWPwS140Jhn"
      } ],
      "disc_number" : 1,
      "duration_ms" : 448026,
      "explicit" : false,
      "external_ids" : {
        "isrc" : "USA560846317"
      },
      "external_urls" : {
        "spotify" : "https://open.spotify.com/track/0SaV82ydA76hcN18ceDLe5"
      },
      "href" : "https://api.spotify.com/v1/tracks/0SaV82ydA76hcN18ceDLe5",
      "id" : "0SaV82ydA76hcN18ceDLe5",
      "is_local" : false,
      "is_playable" : true,
      "name" : "Medley 5: 1) Heavenly Father I appreciate You 2) In moments like these 3) I worship you almighty God 4) How great thou art 5) Let your living water 6) O Magnify the Lord 7) Give thanks 8) God will mak",
      "popularity" : 16,
      "preview_url" : "https://p.scdn.co/mp3-preview/413a2e7ed431bba916fb9fd438076673c823ab3c?cid=774b29d4f13844c495f206cafdad9c86",
      "track_number" : 5,
      "type" : "track",
      "uri" : "spotify:track:0SaV82ydA76hcN18ceDLe5"
    }, {
      "album" : {
        "album_type" : "album",
        "artists" : [ {
          "external_urls" : {
            "spotify" : "https://open.spotify.com/artist/2LmyJyCF5V1eQyvHgJNbTn"
          },
          "href" : "https://api.spotify.com/v1/artists/2LmyJyCF5V1eQyvHgJNbTn",
          "id" : "2LmyJyCF5V1eQyvHgJNbTn",
          "name" : "Leonard Bernstein",
          "type" : "artist",
          "uri" : "spotify:artist:2LmyJyCF5V1eQyvHgJNbTn"
        } ],
        "external_urls" : {
          "spotify" : "https://open.spotify.com/album/6NhRl2xr6CoaQO9nP3uUi9"
        },
        "href" : "https://api.spotify.com/v1/albums/6NhRl2xr6CoaQO9nP3uUi9",
        "id" : "6NhRl2xr6CoaQO9nP3uUi9",
        "images" : [ {
          "height" : 640,
          "url" : "https://i.scdn.co/image/ab67616d0000b27331c61813ffa9797c34d5e353",
          "width" : 640
        }, {
          "height" : 300,
          "url" : "https://i.scdn.co/image/ab67616d00001e0231c61813ffa9797c34d5e353",
          "width" : 300
        }, {
          "height" : 64,
          "url" : "https://i.scdn.co/image/ab67616d0000485131c61813ffa9797c34d5e353",
          "width" : 64
        } ],
        "name" : "Bernstein: Mass",
        "release_date" : "1971",
        "release_date_precision" : "year",
        "total_tracks" : 32,
        "type" : "album",
        "uri" : "spotify:album:6NhRl2xr6CoaQO9nP3uUi9"
      },
      "artists" : [ {
        "external_urls" : {
          "spotify" : "https://open.spotify.com/artist/2LmyJyCF5V1eQyvHgJNbTn"
        },
        "href" : "https://api.spotify.com/v1/artists/2LmyJyCF5V1eQyvHgJNbTn",
        "id" : "2LmyJyCF5V1eQyvHgJNbTn",
        "name" : "Leonard Bernstein",
        "type" : "artist",
        "uri" : "spotify:artist:2LmyJyCF5V1eQyvHgJNbTn"
      } ],
      "disc_number" : 1,
      "duration_ms" : 90333,
      "explicit" : false,
      "external_ids" : {
        "isrc" : "USSM17100117"
      },
      "external_urls" : {
        "spotify" : "https://open.spotify.com/track/64TV0Wox8pH3R6oyNVq5EG"
      },
      "href" : "https://api.spotify.com/v1/tracks/64TV0Wox8pH3R6oyNVq5EG",
      "id" : "64TV0Wox8pH3R6oyNVq5EG",
      "is_local" : false,
      "is_playable" : true,
      "name" : "Mass A Theatre Piece for Singers, Players and Dancers I: 2. Prayer for the congregation (Chorale: \"Almighty Father\")",
      "popularity" : 7,
      "preview_url" : "https://p.scdn.co/mp3-preview/74fc77954e15a1fa96f5d1632aa16f4b4a2a5baa?cid=774b29d4f13844c495f206cafdad9c86",
      "track_number" : 7,
      "type" : "track",
      "uri" : "spotify:track:64TV0Wox8pH3R6oyNVq5EG"
    }, {
      "album" : {
        "album_type" : "album",
        "artists" : [ {
          "external_urls" : {
            "spotify" : "https://open.spotify.com/artist/2duo4NJtUrLaI38trK0hht"
          },
          "href" : "https://api.spotify.com/v1/artists/2duo4NJtUrLaI38trK0hht",
          "id" : "2duo4NJtUrLaI38trK0hht",
          "name" : "Mormon Tabernacle Choir",
          "type" : "artist",
          "uri" : "spotify:artist:2duo4NJtUrLaI38trK0hht"
        } ],
        "external_urls" : {
          "spotify" : "https://open.spotify.com/album/1qINhiBSZ1xC9ADpeJyXeb"
        },
        "href" : "https://api.spotify.com/v1/albums/1qINhiBSZ1xC9ADpeJyXeb",
        "id" : "1qINhiBSZ1xC9ADpeJyXeb",
        "images" : [ {
          "height" : 640,
          "url" : "https://i.scdn.co/image/ab67616d0000b273f4019ef91ee4b92797f8c936",
          "width" : 640
        }, {
          "height" : 300,
          "url" : "https://i.scdn.co/image/ab67616d00001e02f4019ef91ee4b92797f8c936",
          "width" : 300
        }, {
          "height" : 64,
          "url" : "https://i.scdn.co/image/ab67616d00004851f4019ef91ee4b92797f8c936",
          "width" : 64
        } ],
        "name" : "Hymns of Faith (Legacy Series)",
        "release_date" : "1991-09-01",
        "release_date_precision" : "day",
        "total_tracks" : 17,
        "type" : "album",
        "uri" : "spotify:album:1qINhiBSZ1xC9ADpeJyXeb"
      },
      "artists" : [ {
        "external_urls" : {
          "spotify" : "https://open.spotify.com/artist/2duo4NJtUrLaI38trK0hht"
        },
        "href" : "https://api.spotify.com/v1/artists/2duo4NJtUrLaI38trK0hht",
        "id" : "2duo4NJtUrLaI38trK0hht",
        "name" : "Mormon Tabernacle Choir",
        "type" : "artist",
        "uri" : "spotify:artist:2duo4NJtUrLaI38trK0hht"
      } ],
      "disc_number" : 1,
      "duration_ms" : 124986,
      "explicit" : false,
      "external_ids" : {
        "isrc" : "US23M0745560"
      },
      "external_urls" : {
        "spotify" : "https://open.spotify.com/track/5OyKYFTAps0BHhFfzZ4Vi3"
      },
      "href" : "https://api.spotify.com/v1/tracks/5OyKYFTAps0BHhFfzZ4Vi3",
      "id" : "5OyKYFTAps0BHhFfzZ4Vi3",
      "is_local" : false,
      "is_playable" : true,
      "name" : "God of Our Fathers, Whose Almighty Hand",
      "popularity" : 6,
      "preview_url" : "https://p.scdn.co/mp3-preview/367689e101c8624511718f50ac12844b50d212d1?cid=774b29d4f13844c495f206cafdad9c86",
      "track_number" : 11,
      "type" : "track",
      "uri" : "spotify:track:5OyKYFTAps0BHhFfzZ4Vi3"
    }, {
      "album" : {
        "album_type" : "album",
        "artists" : [ {
          "external_urls" : {
            "spotify" : "https://open.spotify.com/artist/2X1tHIKMWxTu5m8pzbcFol"
          },
          "href" : "https://api.spotify.com/v1/artists/2X1tHIKMWxTu5m8pzbcFol",
          "id" : "2X1tHIKMWxTu5m8pzbcFol",
          "name" : "Mikey General",
          "type" : "artist",
          "uri" : "spotify:artist:2X1tHIKMWxTu5m8pzbcFol"
        } ],
        "external_urls" : {
          "spotify" : "https://open.spotify.com/album/2Uw9gf8raHInfSjHFJDwkL"
        },
        "href" : "https://api.spotify.com/v1/albums/2Uw9gf8raHInfSjHFJDwkL",
        "id" : "2Uw9gf8raHInfSjHFJDwkL",
        "images" : [ {
          "height" : 640,
          "url" : "https://i.scdn.co/image/ab67616d0000b2732f7b46d1b97d991af9a1d447",
          "width" : 640
        }, {
          "height" : 300,
          "url" : "https://i.scdn.co/image/ab67616d00001e022f7b46d1b97d991af9a1d447",
          "width" : 300
        }, {
          "height" : 64,
          "url" : "https://i.scdn.co/image/ab67616d000048512f7b46d1b97d991af9a1d447",
          "width" : 64
        } ],
        "name" : "Born To Rule",
        "release_date" : "2010-11-09",
        "release_date_precision" : "day",
        "total_tracks" : 14,
        "type" : "album",
        "uri" : "spotify:album:2Uw9gf8raHInfSjHFJDwkL"
      },
      "artists" : [ {
        "external_urls" : {
          "spotify" : "https://open.spotify.com/artist/2X1tHIKMWxTu5m8pzbcFol"
        },
        "href" : "https://api.spotify.com/v1/artists/2X1tHIKMWxTu5m8pzbcFol",
        "id" : "2X1tHIKMWxTu5m8pzbcFol",
        "name" : "Mikey General",
        "type" : "artist",
        "uri" : "spotify:artist:2X1tHIKMWxTu5m8pzbcFol"
      } ],
      "disc_number" : 1,
      "duration_ms" : 206800,
      "explicit" : false,
      "external_ids" : {
        "isrc" : "ushm91073576"
      },
      "external_urls" : {
        "spotify" : "https://open.spotify.com/track/5CblynWTMjr9OT3Mx0cMjC"
      },
      "href" : "https://api.spotify.com/v1/tracks/5CblynWTMjr9OT3Mx0cMjC",
      "id" : "5CblynWTMjr9OT3Mx0cMjC",
      "is_local" : false,
      "is_playable" : true,
      "name" : "Father God Almighty",
      "popularity" : 8,
      "preview_url" : "https://p.scdn.co/mp3-preview/ad3d4cf02fd7b004f30baf27c3a9de3a2acedd8e?cid=774b29d4f13844c495f206cafdad9c86",
      "track_number" : 6,
      "type" : "track",
      "uri" : "spotify:track:5CblynWTMjr9OT3Mx0cMjC"
    }, {
      "album" : {
        "album_type" : "album",
        "artists" : [ {
          "external_urls" : {
            "spotify" : "https://open.spotify.com/artist/0vUnn6Eje2O5yxEj35touD"
          },
          "href" : "https://api.spotify.com/v1/artists/0vUnn6Eje2O5yxEj35touD",
          "id" : "0vUnn6Eje2O5yxEj35touD",
          "name" : "Tenebrae",
          "type" : "artist",
          "uri" : "spotify:artist:0vUnn6Eje2O5yxEj35touD"
        }, {
          "external_urls" : {
            "spotify" : "https://open.spotify.com/artist/0nrZ1B05azLrMkhTOFaoGJ"
          },
          "href" : "https://api.spotify.com/v1/artists/0nrZ1B05azLrMkhTOFaoGJ",
          "id" : "0nrZ1B05azLrMkhTOFaoGJ",
          "name" : "Aurora Orchestra",
          "type" : "artist",
          "uri" : "spotify:artist:0nrZ1B05azLrMkhTOFaoGJ"
        }, {
          "external_urls" : {
            "spotify" : "https://open.spotify.com/artist/4gs13ipYIJhCcqDMOEx9eN"
          },
          "href" : "https://api.spotify.com/v1/artists/4gs13ipYIJhCcqDMOEx9eN",
          "id" : "4gs13ipYIJhCcqDMOEx9eN",
          "name" : "Nigel Short",
          "type" : "artist",
          "uri" : "spotify:artist:4gs13ipYIJhCcqDMOEx9eN"
        } ],
        "external_urls" : {
          "spotify" : "https://open.spotify.com/album/1N9f3qZUbteKZGjf0RAyfT"
        },
        "href" : "https://api.spotify.com/v1/albums/1N9f3qZUbteKZGjf0RAyfT",
        "id" : "1N9f3qZUbteKZGjf0RAyfT",
        "images" : [ {
          "height" : 640,
          "url" : "https://i.scdn.co/image/ab67616d0000b273d71ddda002b1d57ff33510ed",
          "width" : 640
        }, {
          "height" : 300,
          "url" : "https://i.scdn.co/image/ab67616d00001e02d71ddda002b1d57ff33510ed",
          "width" : 300
        }, {
          "height" : 64,
          "url" : "https://i.scdn.co/image/ab67616d00004851d71ddda002b1d57ff33510ed",
          "width" : 64
        } ],
        "name" : "A Walk with Ivor Gurney",
        "release_date" : "2018-10-19",
        "release_date_precision" : "day",
        "total_tracks" : 10,
        "type" : "album",
        "uri" : "spotify:album:1N9f3qZUbteKZGjf0RAyfT"
      },
      "artists" : [ {
        "external_urls" : {
          "spotify" : "https://open.spotify.com/artist/1PpNYQ8wY0OBiyCUtK9aK6"
        },
        "href" : "https://api.spotify.com/v1/artists/1PpNYQ8wY0OBiyCUtK9aK6",
        "id" : "1PpNYQ8wY0OBiyCUtK9aK6",
        "name" : "Ivor Gurney",
        "type" : "artist",
        "uri" : "spotify:artist:1PpNYQ8wY0OBiyCUtK9aK6"
      }, {
        "external_urls" : {
          "spotify" : "https://open.spotify.com/artist/0vUnn6Eje2O5yxEj35touD"
        },
        "href" : "https://api.spotify.com/v1/artists/0vUnn6Eje2O5yxEj35touD",
        "id" : "0vUnn6Eje2O5yxEj35touD",
        "name" : "Tenebrae",
        "type" : "artist",
        "uri" : "spotify:artist:0vUnn6Eje2O5yxEj35touD"
      }, {
        "external_urls" : {
          "spotify" : "https://open.spotify.com/artist/4gs13ipYIJhCcqDMOEx9eN"
        },
        "href" : "https://api.spotify.com/v1/artists/4gs13ipYIJhCcqDMOEx9eN",
        "id" : "4gs13ipYIJhCcqDMOEx9eN",
        "name" : "Nigel Short",
        "type" : "artist",
        "uri" : "spotify:artist:4gs13ipYIJhCcqDMOEx9eN"
      } ],
      "disc_number" : 1,
      "duration_ms" : 351000,
      "explicit" : false,
      "external_ids" : {
        "isrc" : "GBLLH1855703"
      },
      "external_urls" : {
        "spotify" : "https://open.spotify.com/track/4eZZFZzlANTAiZP5OdgmrH"
      },
      "href" : "https://api.spotify.com/v1/tracks/4eZZFZzlANTAiZP5OdgmrH",
      "id" : "4eZZFZzlANTAiZP5OdgmrH",
      "is_local" : false,
      "is_playable" : true,
      "name" : "Since I Believe in God the Father Almighty",
      "popularity" : 9,
      "preview_url" : "https://p.scdn.co/mp3-preview/a8a59e9c85ef63f8ad361d9df55a99217336de62?cid=774b29d4f13844c495f206cafdad9c86",
      "track_number" : 3,
      "type" : "track",
      "uri" : "spotify:track:4eZZFZzlANTAiZP5OdgmrH"
    }, {
      "album" : {
        "album_type" : "single",
        "artists" : [ {
          "external_urls" : {
            "spotify" : "https://open.spotify.com/artist/01vieJHWhg5Vxk57RmfGau"
          },
          "href" : "https://api.spotify.com/v1/artists/01vieJHWhg5Vxk57RmfGau",
          "id" : "01vieJHWhg5Vxk57RmfGau",
          "name" : "Sunship",
          "type" : "artist",
          "uri" : "spotify:artist:01vieJHWhg5Vxk57RmfGau"
        } ],
        "external_urls" : {
          "spotify" : "https://open.spotify.com/album/6pppyddsjBKfnwxIHhWo4T"
        },
        "href" : "https://api.spotify.com/v1/albums/6pppyddsjBKfnwxIHhWo4T",
        "id" : "6pppyddsjBKfnwxIHhWo4T",
        "images" : [ {
          "height" : 640,
          "url" : "https://i.scdn.co/image/1cbdf3b58889601a91ea6a28f2d94f105b43d151",
          "width" : 640
        }, {
          "height" : 300,
          "url" : "https://i.scdn.co/image/314b4444454269a2dd7d5193c4e89c2eecb6e358",
          "width" : 300
        }, {
          "height" : 64,
          "url" : "https://i.scdn.co/image/6c3f8a0ab381c5a480d3fd486277eaaca0e98c98",
          "width" : 64
        } ],
        "name" : "Almighty Father",
        "release_date" : "2016-12-12",
        "release_date_precision" : "day",
        "total_tracks" : 2,
        "type" : "album",
        "uri" : "spotify:album:6pppyddsjBKfnwxIHhWo4T"
      },
      "artists" : [ {
        "external_urls" : {
          "spotify" : "https://open.spotify.com/artist/01vieJHWhg5Vxk57RmfGau"
        },
        "href" : "https://api.spotify.com/v1/artists/01vieJHWhg5Vxk57RmfGau",
        "id" : "01vieJHWhg5Vxk57RmfGau",
        "name" : "Sunship",
        "type" : "artist",
        "uri" : "spotify:artist:01vieJHWhg5Vxk57RmfGau"
      }, {
        "external_urls" : {
          "spotify" : "https://open.spotify.com/artist/6MGlEnPgJhFkC8P8DdKtsT"
        },
        "href" : "https://api.spotify.com/v1/artists/6MGlEnPgJhFkC8P8DdKtsT",
        "id" : "6MGlEnPgJhFkC8P8DdKtsT",
        "name" : "Warrior Queen",
        "type" : "artist",
        "uri" : "spotify:artist:6MGlEnPgJhFkC8P8DdKtsT"
      } ],
      "disc_number" : 1,
      "duration_ms" : 245965,
      "explicit" : false,
      "external_ids" : {
        "isrc" : "USQY51611823"
      },
      "external_urls" : {
        "spotify" : "https://open.spotify.com/track/4nCUV8EeNbjkpRAROly745"
      },
      "href" : "https://api.spotify.com/v1/tracks/4nCUV8EeNbjkpRAROly745",
      "id" : "4nCUV8EeNbjkpRAROly745",
      "is_local" : false,
      "is_playable" : true,
      "name" : "Almighty Father",
      "popularity" : 11,
      "preview_url" : "https://p.scdn.co/mp3-preview/4d6c5d0b2efc8556edd64676e33f760224a36e96?cid=774b29d4f13844c495f206cafdad9c86",
      "track_number" : 1,
      "type" : "track",
      "uri" : "spotify:track:4nCUV8EeNbjkpRAROly745"
    } ],
    "limit" : 10,
    "next" : "https://api.spotify.com/v1/search?query=Almighty+Father&type=track&market=US&offset=15&limit=10",
    "offset" : 5,
    "previous" : "https://api.spotify.com/v1/search?query=Almighty+Father&type=track&market=US&offset=0&limit=10",
    "total" : 149
  }
}