{
  "tracks" : {
    "href" : "https://api.spotify.com/v1/search?query=In+the+Garden&type=track&market=US&offset=5&limit=10",
    "items" : [ {
      "album" : {
        "album_type" : "album",
        "artists" : [ {
          "external_urls" : {
            "spotify" : "https://open.spotify.com/artist/43ZHCT0cAZBISjO8DG9PnE"
          },
          "href" : "https://api.spotify.com/v1/artists/43ZHCT0cAZBISjO8DG9PnE",
          "id" : "43ZHCT0cAZBISjO8DG9PnE",
          "name" : "Elvis Presley",
          "type" : "artist",
          "uri" : "spotify:artist:43ZHCT0cAZBISjO8DG9PnE"
        } ],
        "external_urls" : {
          "spotify" : "https://open.spotify.com/album/7N1t7WzloZyMj95jk6CSCt"
        },
        "href" : "https://api.spotify.com/v1/albums/7N1t7WzloZyMj95jk6CSCt",
        "id" : "7N1t7WzloZyMj95jk6CSCt",
        "images" : [ {
          "height" : 640,
          "url" : "https://i.scdn.co/image/ab67616d0000b27344d592382acae5ef6f8ea14d",
          "width" : 640
        }, {
          "height" : 300,
          "url" : "https://i.scdn.co/image/ab67616d00001e0244d592382acae5ef6f8ea14d",
          "width" : 300
        }, {
          "height" : 64,
          "url" : "https://i.scdn.co/image/ab67616d0000485144d592382acae5ef6f8ea14d",
          "width" : 64
        } ],
        "name" : "How Great Thou Art",
        "release_date" : "1967-02-01",
        "release_date_precision" : "day",
        "total_tracks" : 15,
        "type" : "album",
        "uri" : "spotify:album:7N1t7WzloZyMj95jk6CSCt"
      },
      "artists" : [ {
        "external_urls" : {
          "spotify" : "https://open.spotify.com/artist/43ZHCT0cAZBISjO8DG9PnE"
        },
        "href" : "https://api.spotify.com/v1/artists/43ZHCT0cAZBISjO8DG9PnE",
        "id" : "43ZHCT0cAZBISjO8DG9PnE",
        "name" : "Elvis Presley",
        "type" : "artist",
        "uri" : "spotify:artist:43ZHCT0cAZBISjO8DG9PnE"
      } ],
      "disc_number" : 1,
      "duration_ms" : 190786,
      "explicit" : false,
      "external_ids" : {
        "isrc" : "USRC16600755"
      },
      "external_urls" : {
        "spotify" : "https://open.spotify.com/track/1sue5MiV1Uq7KInSM6UGTj"
      },
      "href" : "https://api.spotify.com/v1/tracks/1sue5MiV1Uq7KInSM6UGTj",
      "id" : "1sue5MiV1Uq7KInSM6UGTj",
      "is_local" : false,
      "is_playable" : true,
      "name" : "In the Garden",
      "popularity" : 36,
      "preview_url" : "https://p.scdn.co/mp3-preview/dab3023ced3c1f71fb4fb3c3d82c2ac6d3c82f2c?cid=774b29d4f13844c495f206cafdad9c86",
      "track_number" : 2,
      "type" : "track",
      "uri" : "spotify:track:1sue5MiV1Uq7KInSM6UGTj"
    }, {
      "album" : {
        "album_type" : "album",
        "artists" : [ {
          "external_urls" : {
            "spotify" : "https://open.spotify.com/artist/32DWM2tctxuDatAYWHjCtC"
          },
          "href" : "https://api.spotify.com/v1/artists/32DWM2tctxuDatAYWHjCtC",
          "id" : "32DWM2tctxuDatAYWHjCtC",
          "name" : "Hymns on Piano",
          "type" : "artist",
          "uri" : "spotify:artist:32DWM2tctxuDatAYWHjCtC"
        } ],
        "external_urls" : {
          "spotify" : "https://open.spotify.com/album/0h5Fw4mY2qlFCjQ2ukWdQp"
        },
        "href" : "https://api.spotify.com/v1/albums/0h5Fw4mY2qlFCjQ2ukWdQp",
        "id" : "0h5Fw4mY2qlFCjQ2ukWdQp",
        "images" : [ {
          "height" : 640,
          "url" : "https://i.scdn.co/image/ab67616d0000b27325d8c487d4186ca78b8d5c37",
          "width" : 640
        }, {
          "height" : 300,
          "url" : "https://i.scdn.co/image/ab67616d00001e0225d8c487d4186ca78b8d5c37",
          "width" : 300
        }, {
          "height" : 64,
          "url" : "https://i.scdn.co/image/ab67616d0000485125d8c487d4186ca78b8d5c37",
          "width" : 64
        } ],
        "name" : "Hymns of Worship, Vol. 2",
        "release_date" : "2016-04-14",
        "release_date_precision" : "day",
        "total_tracks" : 15,
        "type" : "album",
        "uri" : "spotify:album:0h5Fw4mY2qlFCjQ2ukWdQp"
      },
      "artists" : [ {
        "external_urls" : {
          "spotify" : "https://open.spotify.com/artist/32DWM2tctxuDatAYWHjCtC"
        },
        "href" : "https://api.spotify.com/v1/artists/32DWM2tctxuDatAYWHjCtC",
        "id" : "32DWM2tctxuDatAYWHjCtC",
        "name" : "Hymns on Piano",
        "type" : "artist",
        "uri" : "spotify:artist:32DWM2tctxuDatAYWHjCtC"
      } ],
      "disc_number" : 1,
      "duration_ms" : 219000,
      "explicit" : false,
      "external_ids" : {
        "isrc" : "USE831557077"
      },
      "external_urls" : {
        "spotify" : "https://open.spotify.com/track/3k6nu0NMsho9ur7eGsKdGS"
      },
      "href" : "https://api.spotify.com/v1/tracks/3k6nu0NMsho9ur7eGsKdGS",
      "id" : "3k6nu0NMsho9ur7eGsKdGS",
      "is_local" : false,
      "is_playable" : true,
      "name" : "In the Garden (I Come to the Garden Alone)",
      "popularity" : 39,
      "preview_url" : "https://p.scdn.co/mp3-preview/0b56fd748604c3dad1675c2b1f7b22e774cb4569?cid=774b29d4f13844c495f206cafdad9c86",
      "track_number" : 6,
      "type" : "track",
      "uri" : "spotify:track:3k6nu0NMsho9ur7eGsKdGS"
    }, {
      "album" : {
        "album_type" : "album",
        "artists" : [ {
          "external_urls" : {
            "spotify" : "https://open.spotify.com/artist/5dZiRoY9Vpp6qrxqXNRwPE"
          },
          "href" : "https://api.spotify.com/v1/artists/5dZiRoY9Vpp6qrxqXNRwPE",
          "id" : "5dZiRoY9Vpp6qrxqXNRwPE",
          "name" : "Selah",
          "type" : "artist",
          "uri" : "spotify:artist:5dZiRoY9Vpp6qrxqXNRwPE"
        } ],
        "external_urls" : {
          "spotify" : "https://open.spotify.com/album/0NKzXf20zGV0vsR60DZjF4"
        },
        "href" : "https://api.spotify.com/v1/albums/0NKzXf20zGV0vsR60DZjF4",
        "id" : "0NKzXf20zGV0vsR60DZjF4",
        "images" : [ {
          "height" : 640,
          "url" : "https://i.scdn.co/image/ab67616d0000b273e8ca98103536da89974246cf",
          "width" : 640
        }, {
          "height" : 300,
          "url" : "https://i.scdn.co/image/ab67616d00001e02e8ca98103536da89974246cf",
          "width" : 300
        }, {
          "height" : 64,
          "url" : "https://i.scdn.co/image/ab67616d00004851e8ca98103536da89974246cf",
          "width" : 64
        } ],
        "name" : "You Amaze Us",
        "release_date" : "2014-08-19",
        "release_date_precision" : "day",
        "total_tracks" : 14,
        "type" : "album",
        "uri" : "spotify:album:0NKzXf20zGV0vsR60DZjF4"
      },
      "artists" : [ {
        "external_urls" : {
          "spotify" : "https://open.spotify.com/artist/5dZiRoY9Vpp6qrxqXNRwPE"
        },
        "href" : "https://api.spotify.com/v1/artists/5dZiRoY9Vpp6qrxqXNRwPE",
        "id" : "5dZiRoY9Vpp6qrxqXNRwPE",
        "name" : "Selah",
        "type" : "artist",
        "uri" : "spotify:artist:5dZiRoY9Vpp6qrxqXNRwPE"
      } ],
      "disc_number" : 1,
      "duration_ms" : 279880,
      "explicit" : false,
      "external_ids" : {
        "isrc" : "USCRB1310893"
      },
      "external_urls" : {
        "spotify" : "https://open.spotify.com/track/72WMSRB47kPwlCrFMD3Jyc"
      },
      "href" : "https://api.spotify.com/v1/tracks/72WMSRB47kPwlCrFMD3Jyc",
      "id" : "72WMSRB47kPwlCrFMD3Jyc",
      "is_local" : false,
      "is_playable" : true,
      "name" : "In The Garden",
      "popularity" : 34,
      "preview_url" : "https://p.scdn.co/mp3-preview/d3567d722912cfc09d6beaad6b498c33a43fde02?cid=774b29d4f13844c495f206cafdad9c86",
      "track_number" : 13,
      "type" : "track",
      "uri" : "spotify:track:72WMSRB47kPwlCrFMD3Jyc"
    }, {
      "album" : {
        "album_type" : "single",
        "artists" : [ {
          "external_urls" : {
            "spotify" : "https://open.spotify.com/artist/4pyNbYvB5OLMgxBMHwMXry"
          },
          "href" : "https://api.spotify.com/v1/artists/4pyNbYvB5OLMgxBMHwMXry",
          "id" : "4pyNbYvB5OLMgxBMHwMXry",
          "name" : "Kodamilo",
          "type" : "artist",
          "uri" : "spotify:artist:4pyNbYvB5OLMgxBMHwMXry"
        } ],
        "external_urls" : {
          "spotify" : "https://open.spotify.com/album/02kc6FKtDHNhcKg0WfwZ8C"
        },
        "href" : "https://api.spotify.com/v1/albums/02kc6FKtDHNhcKg0WfwZ8C",
        "id" : "02kc6FKtDHNhcKg0WfwZ8C",
        "images" : [ {
          "height" : 640,
          "url" : "https://i.scdn.co/image/ab67616d0000b273dd3d6d84348a54db94d43abd",
          "width" : 640
        }, {
          "height" : 300,
          "url" : "https://i.scdn.co/image/ab67616d00001e02dd3d6d84348a54db94d43abd",
          "width" : 300
        }, {
          "height" : 64,
          "url" : "https://i.scdn.co/image/ab67616d00004851dd3d6d84348a54db94d43abd",
          "width" : 64
        } ],
        "name" : "In the Garden",
        "release_date" : "2020-04-06",
        "release_date_precision" : "day",
        "total_tracks" : 1,
        "type" : "album",
        "uri" : "spotify:album:02kc6FKtDHNhcKg0WfwZ8C"
      },
      "artists" : [ {
        "external_urls" : {
          "spotify" : "https://open.spotify.com/artist/4pyNbYvB5OLMgxBMHwMXry"
        },
        "href" : "https://api.spotify.com/v1/artists/4pyNbYvB5OLMgxBMHwMXry",
        "id" : "4pyNbYvB5OLMgxBMHwMXry",
        "name" : "Kodamilo",
        "type" : "artist",
        "uri" : "spotify:artist:4pyNbYvB5OLMgxBMHwMXry"
      } ],
      "disc_number" : 1,
      "duration_ms" : 169600,
      "explicit" : false,
      "external_ids" : {
        "isrc" : "QZFZ72050604"
      },
      "external_urls" : {
        "spotify" : "https://open.spotify.com/track/0DmYAVEOhH0JDKqA8ZENTv"
      },
      "href" : "https://api.spotify.com/v1/tracks/0DmYAVEOhH0JDKqA8ZENTv",
      "id" : "0DmYAVEOhH0JDKqA8ZENTv",
      "is_local" : false,
      "is_playable" : true,
      "name" : "In the Garden",
      "popularity" : 35,
      "preview_url" : "https://p.scdn.co/mp3-preview/2357c6137093ef0db2a5b33d05a6683980f8d343?cid=774b29d4f13844c495f206cafdad9c86",
      "track_number" : 1,
      "type" : "track",
      "uri" : "spotify:track:0DmYAVEOhH0JDKqA8ZENTv"
    }, {
      "album" : {
        "album_type" : "album",
        "artists" : [ {
          "external_urls" : {
            "spotify" : "https://open.spotify.com/artist/4YLtscXsxbVgi031ovDDdh"
          },
          "href" : "https://api.spotify.com/v1/artists/4YLtscXsxbVgi031ovDDdh",
          "id" : "4YLtscXsxbVgi031ovDDdh",
          "name" : "Chris Stapleton",
          "type" : "artist",
          "uri" : "spotify:artist:4YLtscXsxbVgi031ovDDdh"
        } ],
        "external_urls" : {
          "spotify" : "https://open.spotify.com/album/24fkX2Gdqw4a6pR9BUYbE5"
        },
        "href" : "https://api.spotify.com/v1/albums/24fkX2Gdqw4a6pR9BUYbE5",
        "id" : "24fkX2Gdqw4a6pR9BUYbE5",
        "images" : [ {
          "height" : 640,
          "url" : "https://i.scdn.co/image/ab67616d0000b27303c4f794113255be4038e45d",
          "width" : 640
        }, {
          "height" : 300,
          "url" : "https://i.scdn.co/image/ab67616d00001e0203c4f794113255be4038e45d",
          "width" : 300
        }, {
          "height" : 64,
          "url" : "https://i.scdn.co/image/ab67616d0000485103c4f794113255be4038e45d",
          "width" : 64
        } ],
        "name" : "From A Room: Volume 2",
        "release_date" : "2017-12-01",
        "release_date_precision" : "day",
        "total_tracks" : 9,
        "type" : "album",
        "uri" : "spotify:album:24fkX2Gdqw4a6pR9BUYbE5"
      },
      "artists" : [ {
        "external_urls" : {
          "spotify" : "https://open.spotify.com/artist/4YLtscXsxbVgi031ovDDdh"
        },
        "href" : "https://api.spotify.com/v1/artists/4YLtscXsxbVgi031ovDDdh",
        "id" : "4YLtscXsxbVgi031ovDDdh",
        "name" : "Chris Stapleton",
        "type" : "artist",
        "uri" : "spotify:artist:4YLtscXsxbVgi031ovDDdh"
      } ],
      "disc_number" : 1,
      "duration_ms" : 200213,
      "explicit" : false,
      "external_ids" : {
        "isrc" : "USUM71710209"
      },
      "external_urls" : {
        "spotify" : "https://open.spotify.com/track/2heBToLEB7odACQ3xwb32A"
      },
      "href" : "https://api.spotify.com/v1/tracks/2heBToLEB7odACQ3xwb32A",
      "id" : "2heBToLEB7odACQ3xwb32A",
      "is_local" : false,
      "is_playable" : true,
      "name" : "Scarecrow In The Garden",
      "popularity" : 60,
      "preview_url" : null,
      "track_number" : 3,
      "type" : "track",
      "uri" : "spotify:track:2heBToLEB7odACQ3xwb32A"
    }, {
      "album" : {
        "album_type" : "album",
        "artists" : [ {
          "external_urls" : {
            "spotify" : "https://open.spotify.com/artist/6kACVPfCOnqzgfEF5ryl0x"
          },
          "href" : "https://api.spotify.com/v1/artists/6kACVPfCOnqzgfEF5ryl0x",
          "id" : "6kACVPfCOnqzgfEF5ryl0x",
          "name" : "Johnny Cash",
          "type" : "artist",
          "uri" : "spotify:artist:6kACVPfCOnqzgfEF5ryl0x"
        } ],
        "external_urls" : {
          "spotify" : "https://open.spotify.com/album/5W5ImYrmggt6B4PidNyF2i"
        },
        "href" : "https://api.spotify.com/v1/albums/5W5ImYrmggt6B4PidNyF2i",
        "id" : "5W5ImYrmggt6B4PidNyF2i",
        "images" : [ {
          "height" : 640,
          "url" : "https://i.scdn.co/image/ab67616d0000b273b83770517c2b17fc9a575c7c",
          "width" : 640
        }, {
          "height" : 300,
          "url" : "https://i.scdn.co/image/ab67616d00001e02b83770517c2b17fc9a575c7c",
          "width" : 300
        }, {
          "height" : 64,
          "url" : "https://i.scdn.co/image/ab67616d00004851b83770517c2b17fc9a575c7c",
          "width" : 64
        } ],
        "name" : "My Mother's Hymn Book",
        "release_date" : "2004",
        "release_date_precision" : "year",
        "total_tracks" : 15,
        "type" : "album",
        "uri" : "spotify:album:5W5ImYrmggt6B4PidNyF2i"
      },
      "artists" : [ {
        "external_urls" : {
          "spotify" : "https://open.spotify.com/artist/6kACVPfCOnqzgfEF5ryl0x"
        },
        "href" : "https://api.spotify.com/v1/artists/6kACVPfCOnqzgfEF5ryl0x",
        "id" : "6kACVPfCOnqzgfEF5ryl0x",
        "name" : "Johnny Cash",
        "type" : "artist",
        "uri" : "spotify:artist:6kACVPfCOnqzgfEF5ryl0x"
      } ],
      "disc_number" : 1,
      "duration_ms" : 196066,
      "explicit" : false,
      "external_ids" : {
        "isrc" : "USDJ20301219"
      },
      "external_urls" : {
        "spotify" : "https://open.spotify.com/track/2W7PZnUJ2HZ1cb6l6sK1bt"
      },
      "href" : "https://api.spotify.com/v1/tracks/2W7PZnUJ2HZ1cb6l6sK1bt",
      "id" : "2W7PZnUJ2HZ1cb6l6sK1bt",
      "is_local" : false,
      "is_playable" : true,
      "name" : "In The Garden",
      "popularity" : 32,
      "preview_url" : null,
      "track_number" : 13,
      "type" : "track",
      "uri" : "spotify:track:2W7PZnUJ2HZ1cb6l6sK1bt"
    }, {
      "album" : {
        "album_type" : "album",
        "artists" : [ {
          "external_urls" : {
            "spotify" : "https://open.spotify.com/artist/07B2BABpfqCrLdI3WIUAtU"
          },
          "href" : "https://api.spotify.com/v1/artists/07B2BABpfqCrLdI3WIUAtU",
          "id" : "07B2BABpfqCrLdI3WIUAtU",
          "name" : "Chris Springer",
          "type" : "artist",
          "uri" : "spotify:artist:07B2BABpfqCrLdI3WIUAtU"
        } ],
        "external_urls" : {
          "spotify" : "https://open.spotify.com/album/6EwQzlIHGd94ldm1STE5OD"
        },
        "href" : "https://api.spotify.com/v1/albums/6EwQzlIHGd94ldm1STE5OD",
        "id" : "6EwQzlIHGd94ldm1STE5OD",
        "images" : [ {
          "height" : 640,
          "url" : "https://i.scdn.co/image/ab67616d0000b273f58b7d802866c568398bd54b",
          "width" : 640
        }, {
          "height" : 300,
          "url" : "https://i.scdn.co/image/ab67616d00001e02f58b7d802866c568398bd54b",
          "width" : 300
        }, {
          "height" : 64,
          "url" : "https://i.scdn.co/image/ab67616d00004851f58b7d802866c568398bd54b",
          "width" : 64
        } ],
        "name" : "Piano Hymns & Worship",
        "release_date" : "2012-03-06",
        "release_date_precision" : "day",
        "total_tracks" : 13,
        "type" : "album",
        "uri" : "spotify:album:6EwQzlIHGd94ldm1STE5OD"
      },
      "artists" : [ {
        "external_urls" : {
          "spotify" : "https://open.spotify.com/artist/07B2BABpfqCrLdI3WIUAtU"
        },
        "href" : "https://api.spotify.com/v1/artists/07B2BABpfqCrLdI3WIUAtU",
        "id" : "07B2BABpfqCrLdI3WIUAtU",
        "name" : "Chris Springer",
        "type" : "artist",
        "uri" : "spotify:artist:07B2BABpfqCrLdI3WIUAtU"
      } ],
      "disc_number" : 1,
      "duration_ms" : 294920,
      "explicit" : false,
      "external_ids" : {
        "isrc" : "USQY51250825"
      },
      "external_urls" : {
        "spotify" : "https://open.spotify.com/track/1EvPDCxbE2IVvG7NxcuhZA"
      },
      "href" : "https://api.spotify.com/v1/tracks/1EvPDCxbE2IVvG7NxcuhZA",
      "id" : "1EvPDCxbE2IVvG7NxcuhZA",
      "is_local" : false,
      "is_playable" : true,
      "name" : "In the Garden",
      "popularity" : 33,
      "preview_url" : "https://p.scdn.co/mp3-preview/8dc90b37fe10f53a671e5f40fa1d44a250629724?cid=774b29d4f13844c495f206cafdad9c86",
      "track_number" : 7,
      "type" : "track",
      "uri" : "spotify:track:1EvPDCxbE2IVvG7NxcuhZA"
    }, {
      "album" : {
        "album_type" : "album",
        "artists" : [ {
          "external_urls" : {
            "spotify" : "https://open.spotify.com/artist/6zLBxLdl60ekBLpawtT63I"
          },
          "href" : "https://api.spotify.com/v1/artists/6zLBxLdl60ekBLpawtT63I",
          "id" : "6zLBxLdl60ekBLpawtT63I",
          "name" : "Cody Johnson",
          "type" : "artist",
          "uri" : "spotify:artist:6zLBxLdl60ekBLpawtT63I"
        } ],
        "external_urls" : {
          "spotify" : "https://open.spotify.com/album/0JKpAxkMB9RxA4EqqhLhLj"
        },
        "href" : "https://api.spotify.com/v1/albums/0JKpAxkMB9RxA4EqqhLhLj",
        "id" : "0JKpAxkMB9RxA4EqqhLhLj",
        "images" : [ {
          "height" : 640,
          "url" : "https://i.scdn.co/image/ab67616d0000b2739252c9fcdef40fc5c6d30f14",
          "width" : 640
        }, {
          "height" : 300,
          "url" : "https://i.scdn.co/image/ab67616d00001e029252c9fcdef40fc5c6d30f14",
          "width" : 300
        }, {
          "height" : 64,
          "url" : "https://i.scdn.co/image/ab67616d000048519252c9fcdef40fc5c6d30f14",
          "width" : 64
        } ],
        "name" : "Cowboy Like Me",
        "release_date" : "2014-01-14",
        "release_date_precision" : "day",
        "total_tracks" : 13,
        "type" : "album",
        "uri" : "spotify:album:0JKpAxkMB9RxA4EqqhLhLj"
      },
      "artists" : [ {
        "external_urls" : {
          "spotify" : "https://open.spotify.com/artist/6zLBxLdl60ekBLpawtT63I"
        },
        "href" : "https://api.spotify.com/v1/artists/6zLBxLdl60ekBLpawtT63I",
        "id" : "6zLBxLdl60ekBLpawtT63I",
        "name" : "Cody Johnson",
        "type" : "artist",
        "uri" : "spotify:artist:6zLBxLdl60ekBLpawtT63I"
      } ],
      "disc_number" : 1,
      "duration_ms" : 274400,
      "explicit" : false,
      "external_ids" : {
        "isrc" : "QMCQK1300013"
      },
      "external_urls" : {
        "spotify" : "https://open.spotify.com/track/6UYJYh6nl53FKokXrUwIrx"
      },
      "href" : "https://api.spotify.com/v1/tracks/6UYJYh6nl53FKokXrUwIrx",
      "id" : "6UYJYh6nl53FKokXrUwIrx",
      "is_local" : false,
      "is_playable" : true,
      "name" : "In the Garden (Bonus Acoustic Track)",
      "popularity" : 32,
      "preview_url" : "https://p.scdn.co/mp3-preview/845b5252d288621c3173352771367d6f26c689e8?cid=774b29d4f13844c495f206cafdad9c86",
      "track_number" : 13,
      "type" : "track",
      "uri" : "spotify:track:6UYJYh6nl53FKokXrUwIrx"
    }, {
      "album" : {
        "album_type" : "single",
        "artists" : [ {
          "external_urls" : {
            "spotify" : "https://open.spotify.com/artist/2VZNmg4vCnew4Pavo8zDdW"
          },
          "href" : "https://api.spotify.com/v1/artists/2VZNmg4vCnew4Pavo8zDdW",
          "id" : "2VZNmg4vCnew4Pavo8zDdW",
          "name" : "Max Richter",
          "type" : "artist",
          "uri" : "spotify:artist:2VZNmg4vCnew4Pavo8zDdW"
        } ],
        "external_urls" : {
          "spotify" : "https://open.spotify.com/album/0A5p1Mwf2dK9MAG804kNcg"
        },
        "href" : "https://api.spotify.com/v1/albums/0A5p1Mwf2dK9MAG804kNcg",
        "id" : "0A5p1Mwf2dK9MAG804kNcg",
        "images" : [ {
          "height" : 640,
          "url" : "https://i.scdn.co/image/ab67616d0000b2730a2f65461c1925ecceb8a6ee",
          "width" : 640
        }, {
          "height" : 300,
          "url" : "https://i.scdn.co/image/ab67616d00001e020a2f65461c1925ecceb8a6ee",
          "width" : 300
        }, {
          "height" : 64,
          "url" : "https://i.scdn.co/image/ab67616d000048510a2f65461c1925ecceb8a6ee",
          "width" : 64
        } ],
        "name" : "Spotify Singles",
        "release_date" : "2017-05-05",
        "release_date_precision" : "day",
        "total_tracks" : 2,
        "type" : "album",
        "uri" : "spotify:album:0A5p1Mwf2dK9MAG804kNcg"
      },
      "artists" : [ {
        "external_urls" : {
          "spotify" : "https://open.spotify.com/artist/2VZNmg4vCnew4Pavo8zDdW"
        },
        "href" : "https://api.spotify.com/v1/artists/2VZNmg4vCnew4Pavo8zDdW",
        "id" : "2VZNmg4vCnew4Pavo8zDdW",
        "name" : "Max Richter",
        "type" : "artist",
        "uri" : "spotify:artist:2VZNmg4vCnew4Pavo8zDdW"
      } ],
      "disc_number" : 1,
      "duration_ms" : 297630,
      "explicit" : false,
      "external_ids" : {
        "isrc" : "DEN961700200"
      },
      "external_urls" : {
        "spotify" : "https://open.spotify.com/track/4wEL6ZCwfaYdmeKR14MJVa"
      },
      "href" : "https://api.spotify.com/v1/tracks/4wEL6ZCwfaYdmeKR14MJVa",
      "id" : "4wEL6ZCwfaYdmeKR14MJVa",
      "is_local" : false,
      "is_playable" : true,
      "name" : "In The Garden - Recorded at Spotify Studios NYC",
      "popularity" : 39,
      "preview_url" : null,
      "track_number" : 1,
      "type" : "track",
      "uri" : "spotify:track:4wEL6ZCwfaYdmeKR14MJVa"
    }, {
      "album" : {
        "album_type" : "album",
        "artists" : [ {
          "external_urls" : {
            "spotify" : "https://open.spotify.com/artist/31Esw1yHgJZBPcRa4nUyTP"
          },
          "href" : "https://api.spotify.com/v1/artists/31Esw1yHgJZBPcRa4nUyTP",
          "id" : "31Esw1yHgJZBPcRa4nUyTP",
          "name" : "Joey + Rory",
          "type" : "artist",
          "uri" : "spotify:artist:31Esw1yHgJZBPcRa4nUyTP"
        } ],
        "external_urls" : {
          "spotify" : "https://open.spotify.com/album/7LuwAUfjEBg2D9DsVJEsiP"
        },
        "href" : "https://api.spotify.com/v1/albums/7LuwAUfjEBg2D9DsVJEsiP",
        "id" : "7LuwAUfjEBg2D9DsVJEsiP",
        "images" : [ {
          "height" : 640,
          "url" : "https://i.scdn.co/image/ab67616d0000b273a0dfd8d28444959c4a315a92",
          "width" : 640
        }, {
          "height" : 300,
          "url" : "https://i.scdn.co/image/ab67616d00001e02a0dfd8d28444959c4a315a92",
          "width" : 300
        }, {
          "height" : 64,
          "url" : "https://i.scdn.co/image/ab67616d00004851a0dfd8d28444959c4a315a92",
          "width" : 64
        } ],
        "name" : "Joey+Rory Inspired",
        "release_date" : "2013-01-01",
        "release_date_precision" : "day",
        "total_tracks" : 12,
        "type" : "album",
        "uri" : "spotify:album:7LuwAUfjEBg2D9DsVJEsiP"
      },
      "artists" : [ {
        "external_urls" : {
          "spotify" : "https://open.spotify.com/artist/31Esw1yHgJZBPcRa4nUyTP"
        },
        "href" : "https://api.spotify.com/v1/artists/31Esw1yHgJZBPcRa4nUyTP",
        "id" : "31Esw1yHgJZBPcRa4nUyTP",
        "name" : "Joey + Rory",
        "type" : "artist",
        "uri" : "spotify:artist:31Esw1yHgJZBPcRa4nUyTP"
      } ],
      "disc_number" : 1,
      "duration_ms" : 179786,
      "explicit" : false,
      "external_ids" : {
        "isrc" : "QMFDU1300001"
      },
      "external_urls" : {
        "spotify" : "https://open.spotify.com/track/1LTTPa5dptNczPY35xlxtg"
      },
      "href" : "https://api.spotify.com/v1/tracks/1LTTPa5dptNczPY35xlxtg",
      "id" : "1LTTPa5dptNczPY35xlxtg",
      "is_local" : false,
      "is_playable" : true,
      "name" : "In The Garden",
      "popularity" : 29,
      "preview_url" : null,
      "track_number" : 1,
      "type" : "track",
      "uri" : "spotify:track:1LTTPa5dptNczPY35xlxtg"
    } ],
    "limit" : 10,
    "next" : "https://api.spotify.com/v1/search?query=In+the+Garden&type=track&market=US&offset=15&limit=10",
    "offset" : 5,
    "previous" : "https://api.spotify.com/v1/search?query=In+the+Garden&type=track&market=US&offset=0&limit=10",
    "total" : 46763
  }
}