{
  "tracks" : {
    "href" : "https://api.spotify.com/v1/search?query=Come%2C+Let+Us+Sing&type=track&market=US&offset=5&limit=10",
    "items" : [ {
      "album" : {
        "album_type" : "album",
        "artists" : [ {
          "external_urls" : {
            "spotify" : "https://open.spotify.com/artist/45C4ss19w1IvozVqdYf4Ob"
          },
          "href" : "https://api.spotify.com/v1/artists/45C4ss19w1IvozVqdYf4Ob",
          "id" : "45C4ss19w1IvozVqdYf4Ob",
          "name" : "Archangel Voices",
          "type" : "artist",
          "uri" : "spotify:artist:45C4ss19w1IvozVqdYf4Ob"
        } ],
        "external_urls" : {
          "spotify" : "https://open.spotify.com/album/14oxLN5a50iKnJNWwVoy0T"
        },
        "href" : "https://api.spotify.com/v1/albums/14oxLN5a50iKnJNWwVoy0T",
        "id" : "14oxLN5a50iKnJNWwVoy0T",
        "images" : [ {
          "height" : 640,
          "url" : "https://i.scdn.co/image/ab67616d0000b2739fe9825249aa02871e6138c8",
          "width" : 640
        }, {
          "height" : 300,
          "url" : "https://i.scdn.co/image/ab67616d00001e029fe9825249aa02871e6138c8",
          "width" : 300
        }, {
          "height" : 64,
          "url" : "https://i.scdn.co/image/ab67616d000048519fe9825249aa02871e6138c8",
          "width" : 64
        } ],
        "name" : "Lamentations: Orthodox Chants of Holy Week",
        "release_date" : "2010-02-01",
        "release_date_precision" : "day",
        "total_tracks" : 24,
        "type" : "album",
        "uri" : "spotify:album:14oxLN5a50iKnJNWwVoy0T"
      },
      "artists" : [ {
        "external_urls" : {
          "spotify" : "https://open.spotify.com/artist/45C4ss19w1IvozVqdYf4Ob"
        },
        "href" : "https://api.spotify.com/v1/artists/45C4ss19w1IvozVqdYf4Ob",
        "id" : "45C4ss19w1IvozVqdYf4Ob",
        "name" : "Archangel Voices",
        "type" : "artist",
        "uri" : "spotify:artist:45C4ss19w1IvozVqdYf4Ob"
      } ],
      "disc_number" : 1,
      "duration_ms" : 109693,
      "explicit" : false,
      "external_ids" : {
        "isrc" : "uscgh1020624"
      },
      "external_urls" : {
        "spotify" : "https://open.spotify.com/track/1UbkiwAuHgN1NgYcmZQpQF"
      },
      "href" : "https://api.spotify.com/v1/tracks/1UbkiwAuHgN1NgYcmZQpQF",
      "id" : "1UbkiwAuHgN1NgYcmZQpQF",
      "is_local" : false,
      "is_playable" : true,
      "name" : "Kontakion \"Come, Let Us All Sing\" - arr. A Kastalsky",
      "popularity" : 18,
      "preview_url" : "https://p.scdn.co/mp3-preview/f1314a82ba757150b3ceb97dc50ee5c696162adf?cid=774b29d4f13844c495f206cafdad9c86",
      "track_number" : 7,
      "type" : "track",
      "uri" : "spotify:track:1UbkiwAuHgN1NgYcmZQpQF"
    }, {
      "album" : {
        "album_type" : "album",
        "artists" : [ {
          "external_urls" : {
            "spotify" : "https://open.spotify.com/artist/79WVHfPz6NehWubOqTV5w3"
          },
          "href" : "https://api.spotify.com/v1/artists/79WVHfPz6NehWubOqTV5w3",
          "id" : "79WVHfPz6NehWubOqTV5w3",
          "name" : "Keith Lancaster",
          "type" : "artist",
          "uri" : "spotify:artist:79WVHfPz6NehWubOqTV5w3"
        }, {
          "external_urls" : {
            "spotify" : "https://open.spotify.com/artist/5qWYFKIrDUtFAmkN9yQxEy"
          },
          "href" : "https://api.spotify.com/v1/artists/5qWYFKIrDUtFAmkN9yQxEy",
          "id" : "5qWYFKIrDUtFAmkN9yQxEy",
          "name" : "The Acappella Company",
          "type" : "artist",
          "uri" : "spotify:artist:5qWYFKIrDUtFAmkN9yQxEy"
        } ],
        "external_urls" : {
          "spotify" : "https://open.spotify.com/album/6NTHLFDhTtMmD9Pps2CH1c"
        },
        "href" : "https://api.spotify.com/v1/albums/6NTHLFDhTtMmD9Pps2CH1c",
        "id" : "6NTHLFDhTtMmD9Pps2CH1c",
        "images" : [ {
          "height" : 640,
          "url" : "https://i.scdn.co/image/ab67616d0000b273610943b1839ba18097b1aa35",
          "width" : 640
        }, {
          "height" : 300,
          "url" : "https://i.scdn.co/image/ab67616d00001e02610943b1839ba18097b1aa35",
          "width" : 300
        }, {
          "height" : 64,
          "url" : "https://i.scdn.co/image/ab67616d00004851610943b1839ba18097b1aa35",
          "width" : 64
        } ],
        "name" : "Glorious God: A Cappella Worship",
        "release_date" : "2007-06-15",
        "release_date_precision" : "day",
        "total_tracks" : 25,
        "type" : "album",
        "uri" : "spotify:album:6NTHLFDhTtMmD9Pps2CH1c"
      },
      "artists" : [ {
        "external_urls" : {
          "spotify" : "https://open.spotify.com/artist/79WVHfPz6NehWubOqTV5w3"
        },
        "href" : "https://api.spotify.com/v1/artists/79WVHfPz6NehWubOqTV5w3",
        "id" : "79WVHfPz6NehWubOqTV5w3",
        "name" : "Keith Lancaster",
        "type" : "artist",
        "uri" : "spotify:artist:79WVHfPz6NehWubOqTV5w3"
      }, {
        "external_urls" : {
          "spotify" : "https://open.spotify.com/artist/5qWYFKIrDUtFAmkN9yQxEy"
        },
        "href" : "https://api.spotify.com/v1/artists/5qWYFKIrDUtFAmkN9yQxEy",
        "id" : "5qWYFKIrDUtFAmkN9yQxEy",
        "name" : "The Acappella Company",
        "type" : "artist",
        "uri" : "spotify:artist:5qWYFKIrDUtFAmkN9yQxEy"
      } ],
      "disc_number" : 1,
      "duration_ms" : 61146,
      "explicit" : false,
      "external_ids" : {
        "isrc" : "ushm81351105"
      },
      "external_urls" : {
        "spotify" : "https://open.spotify.com/track/2ZBlgYmswiTodBD6gt9JP5"
      },
      "href" : "https://api.spotify.com/v1/tracks/2ZBlgYmswiTodBD6gt9JP5",
      "id" : "2ZBlgYmswiTodBD6gt9JP5",
      "is_local" : false,
      "is_playable" : true,
      "name" : "Come Let Us Sing",
      "popularity" : 15,
      "preview_url" : "https://p.scdn.co/mp3-preview/8effc2c3ca7fff45f03bd47fbce47e91edf485a1?cid=774b29d4f13844c495f206cafdad9c86",
      "track_number" : 8,
      "type" : "track",
      "uri" : "spotify:track:2ZBlgYmswiTodBD6gt9JP5"
    }, {
      "album" : {
        "album_type" : "album",
        "artists" : [ {
          "external_urls" : {
            "spotify" : "https://open.spotify.com/artist/6zhrnjTFJFS6bWzFtRm7aH"
          },
          "href" : "https://api.spotify.com/v1/artists/6zhrnjTFJFS6bWzFtRm7aH",
          "id" : "6zhrnjTFJFS6bWzFtRm7aH",
          "name" : "Darwin Hobbs",
          "type" : "artist",
          "uri" : "spotify:artist:6zhrnjTFJFS6bWzFtRm7aH"
        } ],
        "external_urls" : {
          "spotify" : "https://open.spotify.com/album/31Q5YB67Eh1vAq6ifYnfNt"
        },
        "href" : "https://api.spotify.com/v1/albums/31Q5YB67Eh1vAq6ifYnfNt",
        "id" : "31Q5YB67Eh1vAq6ifYnfNt",
        "images" : [ {
          "height" : 640,
          "url" : "https://i.scdn.co/image/ab67616d0000b273583046a488192e836729d779",
          "width" : 640
        }, {
          "height" : 300,
          "url" : "https://i.scdn.co/image/ab67616d00001e02583046a488192e836729d779",
          "width" : 300
        }, {
          "height" : 64,
          "url" : "https://i.scdn.co/image/ab67616d00004851583046a488192e836729d779",
          "width" : 64
        } ],
        "name" : "Worshipper",
        "release_date" : "2005-01-01",
        "release_date_precision" : "day",
        "total_tracks" : 9,
        "type" : "album",
        "uri" : "spotify:album:31Q5YB67Eh1vAq6ifYnfNt"
      },
      "artists" : [ {
        "external_urls" : {
          "spotify" : "https://open.spotify.com/artist/6zhrnjTFJFS6bWzFtRm7aH"
        },
        "href" : "https://api.spotify.com/v1/artists/6zhrnjTFJFS6bWzFtRm7aH",
        "id" : "6zhrnjTFJFS6bWzFtRm7aH",
        "name" : "Darwin Hobbs",
        "type" : "artist",
        "uri" : "spotify:artist:6zhrnjTFJFS6bWzFtRm7aH"
      } ],
      "disc_number" : 1,
      "duration_ms" : 328013,
      "explicit" : false,
      "external_ids" : {
        "isrc" : "USEG30500123"
      },
      "external_urls" : {
        "spotify" : "https://open.spotify.com/track/7FbUW4mMHb7YaePaSV0l1k"
      },
      "href" : "https://api.spotify.com/v1/tracks/7FbUW4mMHb7YaePaSV0l1k",
      "id" : "7FbUW4mMHb7YaePaSV0l1k",
      "is_local" : false,
      "is_playable" : true,
      "name" : "Come Let Us Sing / He Is Exalted",
      "popularity" : 15,
      "preview_url" : null,
      "track_number" : 4,
      "type" : "track",
      "uri" : "spotify:track:7FbUW4mMHb7YaePaSV0l1k"
    }, {
      "album" : {
        "album_type" : "album",
        "artists" : [ {
          "external_urls" : {
            "spotify" : "https://open.spotify.com/artist/5gWZC3kXTwxQGc9q3M16vK"
          },
          "href" : "https://api.spotify.com/v1/artists/5gWZC3kXTwxQGc9q3M16vK",
          "id" : "5gWZC3kXTwxQGc9q3M16vK",
          "name" : "LDS Piano",
          "type" : "artist",
          "uri" : "spotify:artist:5gWZC3kXTwxQGc9q3M16vK"
        } ],
        "external_urls" : {
          "spotify" : "https://open.spotify.com/album/0rEByM6yin72PB9LJGEHLC"
        },
        "href" : "https://api.spotify.com/v1/albums/0rEByM6yin72PB9LJGEHLC",
        "id" : "0rEByM6yin72PB9LJGEHLC",
        "images" : [ {
          "height" : 640,
          "url" : "https://i.scdn.co/image/ab67616d0000b2730a99c8e25744f48895556f94",
          "width" : 640
        }, {
          "height" : 300,
          "url" : "https://i.scdn.co/image/ab67616d00001e020a99c8e25744f48895556f94",
          "width" : 300
        }, {
          "height" : 64,
          "url" : "https://i.scdn.co/image/ab67616d000048510a99c8e25744f48895556f94",
          "width" : 64
        } ],
        "name" : "The Mormon Hymnbook: Prayer & Supplication Hymns Volume 1",
        "release_date" : "2019-03-14",
        "release_date_precision" : "day",
        "total_tracks" : 18,
        "type" : "album",
        "uri" : "spotify:album:0rEByM6yin72PB9LJGEHLC"
      },
      "artists" : [ {
        "external_urls" : {
          "spotify" : "https://open.spotify.com/artist/5gWZC3kXTwxQGc9q3M16vK"
        },
        "href" : "https://api.spotify.com/v1/artists/5gWZC3kXTwxQGc9q3M16vK",
        "id" : "5gWZC3kXTwxQGc9q3M16vK",
        "name" : "LDS Piano",
        "type" : "artist",
        "uri" : "spotify:artist:5gWZC3kXTwxQGc9q3M16vK"
      } ],
      "disc_number" : 1,
      "duration_ms" : 192118,
      "explicit" : false,
      "external_ids" : {
        "isrc" : "GBSMU6196858"
      },
      "external_urls" : {
        "spotify" : "https://open.spotify.com/track/5RhiCYanxBDFcIpRSFm5oD"
      },
      "href" : "https://api.spotify.com/v1/tracks/5RhiCYanxBDFcIpRSFm5oD",
      "id" : "5RhiCYanxBDFcIpRSFm5oD",
      "is_local" : false,
      "is_playable" : true,
      "name" : "Come Let Us Sing an Evening Hymn",
      "popularity" : 11,
      "preview_url" : "https://p.scdn.co/mp3-preview/8a50674c48aba43746332e75df1ab98a4f398fbe?cid=774b29d4f13844c495f206cafdad9c86",
      "track_number" : 7,
      "type" : "track",
      "uri" : "spotify:track:5RhiCYanxBDFcIpRSFm5oD"
    }, {
      "album" : {
        "album_type" : "album",
        "artists" : [ {
          "external_urls" : {
            "spotify" : "https://open.spotify.com/artist/6onoMaHbRzvJYjGcMXAaoI"
          },
          "href" : "https://api.spotify.com/v1/artists/6onoMaHbRzvJYjGcMXAaoI",
          "id" : "6onoMaHbRzvJYjGcMXAaoI",
          "name" : "Chad Woolner & David Brallier",
          "type" : "artist",
          "uri" : "spotify:artist:6onoMaHbRzvJYjGcMXAaoI"
        } ],
        "external_urls" : {
          "spotify" : "https://open.spotify.com/album/6riGotinJaEQqslGi5JHvv"
        },
        "href" : "https://api.spotify.com/v1/albums/6riGotinJaEQqslGi5JHvv",
        "id" : "6riGotinJaEQqslGi5JHvv",
        "images" : [ {
          "height" : 640,
          "url" : "https://i.scdn.co/image/ab67616d0000b273dbff67c8f5a062107bcbfa30",
          "width" : 640
        }, {
          "height" : 300,
          "url" : "https://i.scdn.co/image/ab67616d00001e02dbff67c8f5a062107bcbfa30",
          "width" : 300
        }, {
          "height" : 64,
          "url" : "https://i.scdn.co/image/ab67616d00004851dbff67c8f5a062107bcbfa30",
          "width" : 64
        } ],
        "name" : "Hymns Made of String Volume II",
        "release_date" : "2009-05-19",
        "release_date_precision" : "day",
        "total_tracks" : 12,
        "type" : "album",
        "uri" : "spotify:album:6riGotinJaEQqslGi5JHvv"
      },
      "artists" : [ {
        "external_urls" : {
          "spotify" : "https://open.spotify.com/artist/6onoMaHbRzvJYjGcMXAaoI"
        },
        "href" : "https://api.spotify.com/v1/artists/6onoMaHbRzvJYjGcMXAaoI",
        "id" : "6onoMaHbRzvJYjGcMXAaoI",
        "name" : "Chad Woolner & David Brallier",
        "type" : "artist",
        "uri" : "spotify:artist:6onoMaHbRzvJYjGcMXAaoI"
      } ],
      "disc_number" : 1,
      "duration_ms" : 219168,
      "explicit" : false,
      "external_ids" : {
        "isrc" : "USTC90964954"
      },
      "external_urls" : {
        "spotify" : "https://open.spotify.com/track/4G21Mn66AIJmE64EAagCUH"
      },
      "href" : "https://api.spotify.com/v1/tracks/4G21Mn66AIJmE64EAagCUH",
      "id" : "4G21Mn66AIJmE64EAagCUH",
      "is_local" : false,
      "is_playable" : true,
      "name" : "Come Let Us Sing An Evening Hymn",
      "popularity" : 14,
      "preview_url" : "https://p.scdn.co/mp3-preview/e211bfd639efb957de2b663d0f0da1fa237ef7d2?cid=774b29d4f13844c495f206cafdad9c86",
      "track_number" : 1,
      "type" : "track",
      "uri" : "spotify:track:4G21Mn66AIJmE64EAagCUH"
    }, {
      "album" : {
        "album_type" : "album",
        "artists" : [ {
          "external_urls" : {
            "spotify" : "https://open.spotify.com/artist/70LaLEeEn3jyxEU8xrzLj8"
          },
          "href" : "https://api.spotify.com/v1/artists/70LaLEeEn3jyxEU8xrzLj8",
          "id" : "70LaLEeEn3jyxEU8xrzLj8",
          "name" : "Phil Driscoll",
          "type" : "artist",
          "uri" : "spotify:artist:70LaLEeEn3jyxEU8xrzLj8"
        } ],
        "external_urls" : {
          "spotify" : "https://open.spotify.com/album/3rTpLW2aLjClT6s5lucLf5"
        },
        "href" : "https://api.spotify.com/v1/albums/3rTpLW2aLjClT6s5lucLf5",
        "id" : "3rTpLW2aLjClT6s5lucLf5",
        "images" : [ {
          "height" : 640,
          "url" : "https://i.scdn.co/image/ab67616d0000b2735100627c3a258cf5fa22f49a",
          "width" : 640
        }, {
          "height" : 300,
          "url" : "https://i.scdn.co/image/ab67616d00001e025100627c3a258cf5fa22f49a",
          "width" : 300
        }, {
          "height" : 64,
          "url" : "https://i.scdn.co/image/ab67616d000048515100627c3a258cf5fa22f49a",
          "width" : 64
        } ],
        "name" : "Instrument of Praise",
        "release_date" : "2011-09-09",
        "release_date_precision" : "day",
        "total_tracks" : 9,
        "type" : "album",
        "uri" : "spotify:album:3rTpLW2aLjClT6s5lucLf5"
      },
      "artists" : [ {
        "external_urls" : {
          "spotify" : "https://open.spotify.com/artist/70LaLEeEn3jyxEU8xrzLj8"
        },
        "href" : "https://api.spotify.com/v1/artists/70LaLEeEn3jyxEU8xrzLj8",
        "id" : "70LaLEeEn3jyxEU8xrzLj8",
        "name" : "Phil Driscoll",
        "type" : "artist",
        "uri" : "spotify:artist:70LaLEeEn3jyxEU8xrzLj8"
      } ],
      "disc_number" : 1,
      "duration_ms" : 271933,
      "explicit" : false,
      "external_ids" : {
        "isrc" : "US4R31134234"
      },
      "external_urls" : {
        "spotify" : "https://open.spotify.com/track/0CO5SdAEMXZWa80nwI1bhf"
      },
      "href" : "https://api.spotify.com/v1/tracks/0CO5SdAEMXZWa80nwI1bhf",
      "id" : "0CO5SdAEMXZWa80nwI1bhf",
      "is_local" : false,
      "is_playable" : true,
      "name" : "O Come, Let Us Sing",
      "popularity" : 14,
      "preview_url" : "https://p.scdn.co/mp3-preview/22c51466ca2be341ea310abae8c16c52e3e32d29?cid=774b29d4f13844c495f206cafdad9c86",
      "track_number" : 3,
      "type" : "track",
      "uri" : "spotify:track:0CO5SdAEMXZWa80nwI1bhf"
    }, {
      "album" : {
        "album_type" : "album",
        "artists" : [ {
          "external_urls" : {
            "spotify" : "https://open.spotify.com/artist/79WVHfPz6NehWubOqTV5w3"
          },
          "href" : "https://api.spotify.com/v1/artists/79WVHfPz6NehWubOqTV5w3",
          "id" : "79WVHfPz6NehWubOqTV5w3",
          "name" : "Keith Lancaster",
          "type" : "artist",
          "uri" : "spotify:artist:79WVHfPz6NehWubOqTV5w3"
        }, {
          "external_urls" : {
            "spotify" : "https://open.spotify.com/artist/5qWYFKIrDUtFAmkN9yQxEy"
          },
          "href" : "https://api.spotify.com/v1/artists/5qWYFKIrDUtFAmkN9yQxEy",
          "id" : "5qWYFKIrDUtFAmkN9yQxEy",
          "name" : "The Acappella Company",
          "type" : "artist",
          "uri" : "spotify:artist:5qWYFKIrDUtFAmkN9yQxEy"
        } ],
        "external_urls" : {
          "spotify" : "https://open.spotify.com/album/1OxrcJXR5vYPuoPTfM94sk"
        },
        "href" : "https://api.spotify.com/v1/albums/1OxrcJXR5vYPuoPTfM94sk",
        "id" : "1OxrcJXR5vYPuoPTfM94sk",
        "images" : [ {
          "height" : 640,
          "url" : "https://i.scdn.co/image/ab67616d0000b2732b73bc2be49cb4541786082b",
          "width" : 640
        }, {
          "height" : 300,
          "url" : "https://i.scdn.co/image/ab67616d00001e022b73bc2be49cb4541786082b",
          "width" : 300
        }, {
          "height" : 64,
          "url" : "https://i.scdn.co/image/ab67616d000048512b73bc2be49cb4541786082b",
          "width" : 64
        } ],
        "name" : "Savior God: Praise & Harmony (A Cappella Worship)",
        "release_date" : "2017-04-17",
        "release_date_precision" : "day",
        "total_tracks" : 25,
        "type" : "album",
        "uri" : "spotify:album:1OxrcJXR5vYPuoPTfM94sk"
      },
      "artists" : [ {
        "external_urls" : {
          "spotify" : "https://open.spotify.com/artist/79WVHfPz6NehWubOqTV5w3"
        },
        "href" : "https://api.spotify.com/v1/artists/79WVHfPz6NehWubOqTV5w3",
        "id" : "79WVHfPz6NehWubOqTV5w3",
        "name" : "Keith Lancaster",
        "type" : "artist",
        "uri" : "spotify:artist:79WVHfPz6NehWubOqTV5w3"
      }, {
        "external_urls" : {
          "spotify" : "https://open.spotify.com/artist/5qWYFKIrDUtFAmkN9yQxEy"
        },
        "href" : "https://api.spotify.com/v1/artists/5qWYFKIrDUtFAmkN9yQxEy",
        "id" : "5qWYFKIrDUtFAmkN9yQxEy",
        "name" : "The Acappella Company",
        "type" : "artist",
        "uri" : "spotify:artist:5qWYFKIrDUtFAmkN9yQxEy"
      } ],
      "disc_number" : 1,
      "duration_ms" : 159760,
      "explicit" : false,
      "external_ids" : {
        "isrc" : "ushm81952001"
      },
      "external_urls" : {
        "spotify" : "https://open.spotify.com/track/45Ffwko36wyF4l2VezBERs"
      },
      "href" : "https://api.spotify.com/v1/tracks/45Ffwko36wyF4l2VezBERs",
      "id" : "45Ffwko36wyF4l2VezBERs",
      "is_local" : false,
      "is_playable" : true,
      "name" : "Come Let Us All Unite to Sing",
      "popularity" : 10,
      "preview_url" : "https://p.scdn.co/mp3-preview/afcee5061dee24b8be47ed2ab52ad657bfef67a6?cid=774b29d4f13844c495f206cafdad9c86",
      "track_number" : 2,
      "type" : "track",
      "uri" : "spotify:track:45Ffwko36wyF4l2VezBERs"
    }, {
      "album" : {
        "album_type" : "album",
        "artists" : [ {
          "external_urls" : {
            "spotify" : "https://open.spotify.com/artist/5uTV2OmIMuh7i1xlF7hKrk"
          },
          "href" : "https://api.spotify.com/v1/artists/5uTV2OmIMuh7i1xlF7hKrk",
          "id" : "5uTV2OmIMuh7i1xlF7hKrk",
          "name" : "Markers",
          "type" : "artist",
          "uri" : "spotify:artist:5uTV2OmIMuh7i1xlF7hKrk"
        } ],
        "external_urls" : {
          "spotify" : "https://open.spotify.com/album/7GlSMwtmOYfPtPwItKvQE8"
        },
        "href" : "https://api.spotify.com/v1/albums/7GlSMwtmOYfPtPwItKvQE8",
        "id" : "7GlSMwtmOYfPtPwItKvQE8",
        "images" : [ {
          "height" : 640,
          "url" : "https://i.scdn.co/image/ab67616d0000b27398db60f382de5200113d061e",
          "width" : 640
        }, {
          "height" : 300,
          "url" : "https://i.scdn.co/image/ab67616d00001e0298db60f382de5200113d061e",
          "width" : 300
        }, {
          "height" : 64,
          "url" : "https://i.scdn.co/image/ab67616d0000485198db60f382de5200113d061e",
          "width" : 64
        } ],
        "name" : "Dominion & Awe Belong to God (2010 Markers Live Worship)",
        "release_date" : "2010-06-10",
        "release_date_precision" : "day",
        "total_tracks" : 14,
        "type" : "album",
        "uri" : "spotify:album:7GlSMwtmOYfPtPwItKvQE8"
      },
      "artists" : [ {
        "external_urls" : {
          "spotify" : "https://open.spotify.com/artist/5uTV2OmIMuh7i1xlF7hKrk"
        },
        "href" : "https://api.spotify.com/v1/artists/5uTV2OmIMuh7i1xlF7hKrk",
        "id" : "5uTV2OmIMuh7i1xlF7hKrk",
        "name" : "Markers",
        "type" : "artist",
        "uri" : "spotify:artist:5uTV2OmIMuh7i1xlF7hKrk"
      } ],
      "disc_number" : 1,
      "duration_ms" : 172066,
      "explicit" : false,
      "external_ids" : {
        "isrc" : "KRA351000847"
      },
      "external_urls" : {
        "spotify" : "https://open.spotify.com/track/5U4j8FrVrtmLDR4lekTR71"
      },
      "href" : "https://api.spotify.com/v1/tracks/5U4j8FrVrtmLDR4lekTR71",
      "id" : "5U4j8FrVrtmLDR4lekTR71",
      "is_local" : false,
      "is_playable" : true,
      "name" : "찬양하세 Come Let Us Sing",
      "popularity" : 11,
      "preview_url" : "https://p.scdn.co/mp3-preview/6e1165a834b59ff9109e28015edf1e511b8b96c1?cid=774b29d4f13844c495f206cafdad9c86",
      "track_number" : 10,
      "type" : "track",
      "uri" : "spotify:track:5U4j8FrVrtmLDR4lekTR71"
    }, {
      "album" : {
        "album_type" : "album",
        "artists" : [ {
          "external_urls" : {
            "spotify" : "https://open.spotify.com/artist/5pv6NPPiJssJVXIqE7JmGN"
          },
          "href" : "https://api.spotify.com/v1/artists/5pv6NPPiJssJVXIqE7JmGN",
          "id" : "5pv6NPPiJssJVXIqE7JmGN",
          "name" : "Randy Rothwell",
          "type" : "artist",
          "uri" : "spotify:artist:5pv6NPPiJssJVXIqE7JmGN"
        }, {
          "external_urls" : {
            "spotify" : "https://open.spotify.com/artist/72iDlGYfVrntfpKzmAv0Hn"
          },
          "href" : "https://api.spotify.com/v1/artists/72iDlGYfVrntfpKzmAv0Hn",
          "id" : "72iDlGYfVrntfpKzmAv0Hn",
          "name" : "Integrity's Hosanna! Music",
          "type" : "artist",
          "uri" : "spotify:artist:72iDlGYfVrntfpKzmAv0Hn"
        } ],
        "external_urls" : {
          "spotify" : "https://open.spotify.com/album/0ki0o3J7BaHAHEd1gHw77d"
        },
        "href" : "https://api.spotify.com/v1/albums/0ki0o3J7BaHAHEd1gHw77d",
        "id" : "0ki0o3J7BaHAHEd1gHw77d",
        "images" : [ {
          "height" : 640,
          "url" : "https://i.scdn.co/image/ab67616d0000b2734dabfa810ba17768c39892e0",
          "width" : 640
        }, {
          "height" : 300,
          "url" : "https://i.scdn.co/image/ab67616d00001e024dabfa810ba17768c39892e0",
          "width" : 300
        }, {
          "height" : 64,
          "url" : "https://i.scdn.co/image/ab67616d000048514dabfa810ba17768c39892e0",
          "width" : 64
        } ],
        "name" : "Mighty Warrior",
        "release_date" : "1987-01-01",
        "release_date_precision" : "day",
        "total_tracks" : 15,
        "type" : "album",
        "uri" : "spotify:album:0ki0o3J7BaHAHEd1gHw77d"
      },
      "artists" : [ {
        "external_urls" : {
          "spotify" : "https://open.spotify.com/artist/5pv6NPPiJssJVXIqE7JmGN"
        },
        "href" : "https://api.spotify.com/v1/artists/5pv6NPPiJssJVXIqE7JmGN",
        "id" : "5pv6NPPiJssJVXIqE7JmGN",
        "name" : "Randy Rothwell",
        "type" : "artist",
        "uri" : "spotify:artist:5pv6NPPiJssJVXIqE7JmGN"
      }, {
        "external_urls" : {
          "spotify" : "https://open.spotify.com/artist/72iDlGYfVrntfpKzmAv0Hn"
        },
        "href" : "https://api.spotify.com/v1/artists/72iDlGYfVrntfpKzmAv0Hn",
        "id" : "72iDlGYfVrntfpKzmAv0Hn",
        "name" : "Integrity's Hosanna! Music",
        "type" : "artist",
        "uri" : "spotify:artist:72iDlGYfVrntfpKzmAv0Hn"
      } ],
      "disc_number" : 1,
      "duration_ms" : 253933,
      "explicit" : false,
      "external_ids" : {
        "isrc" : "US25L0400215"
      },
      "external_urls" : {
        "spotify" : "https://open.spotify.com/track/6o3KcknRHBhnlEEMiu2Zgo"
      },
      "href" : "https://api.spotify.com/v1/tracks/6o3KcknRHBhnlEEMiu2Zgo",
      "id" : "6o3KcknRHBhnlEEMiu2Zgo",
      "is_local" : false,
      "is_playable" : true,
      "name" : "O Come Let Us Sing For Joy",
      "popularity" : 11,
      "preview_url" : "https://p.scdn.co/mp3-preview/7085043ed7d8aaf6147fbd6756fc9576951973d2?cid=774b29d4f13844c495f206cafdad9c86",
      "track_number" : 12,
      "type" : "track",
      "uri" : "spotify:track:6o3KcknRHBhnlEEMiu2Zgo"
    }, {
      "album" : {
        "album_type" : "album",
        "artists" : [ {
          "external_urls" : {
            "spotify" : "https://open.spotify.com/artist/2LxKPZ6XIAuR8FRNGCpcQl"
          },
          "href" : "https://api.spotify.com/v1/artists/2LxKPZ6XIAuR8FRNGCpcQl",
          "id" : "2LxKPZ6XIAuR8FRNGCpcQl",
          "name" : "The Maranatha! Singers",
          "type" : "artist",
          "uri" : "spotify:artist:2LxKPZ6XIAuR8FRNGCpcQl"
        } ],
        "external_urls" : {
          "spotify" : "https://open.spotify.com/album/0qsJuxXjbIxphdHUFbp3bA"
        },
        "href" : "https://api.spotify.com/v1/albums/0qsJuxXjbIxphdHUFbp3bA",
        "id" : "0qsJuxXjbIxphdHUFbp3bA",
        "images" : [ {
          "height" : 640,
          "url" : "https://i.scdn.co/image/ab67616d0000b2738e5d7b1d3e79c079ad1fe4cf",
          "width" : 640
        }, {
          "height" : 300,
          "url" : "https://i.scdn.co/image/ab67616d00001e028e5d7b1d3e79c079ad1fe4cf",
          "width" : 300
        }, {
          "height" : 64,
          "url" : "https://i.scdn.co/image/ab67616d000048518e5d7b1d3e79c079ad1fe4cf",
          "width" : 64
        } ],
        "name" : "Praise 2",
        "release_date" : "2012-06-01",
        "release_date_precision" : "day",
        "total_tracks" : 10,
        "type" : "album",
        "uri" : "spotify:album:0qsJuxXjbIxphdHUFbp3bA"
      },
      "artists" : [ {
        "external_urls" : {
          "spotify" : "https://open.spotify.com/artist/2LxKPZ6XIAuR8FRNGCpcQl"
        },
        "href" : "https://api.spotify.com/v1/artists/2LxKPZ6XIAuR8FRNGCpcQl",
        "id" : "2LxKPZ6XIAuR8FRNGCpcQl",
        "name" : "The Maranatha! Singers",
        "type" : "artist",
        "uri" : "spotify:artist:2LxKPZ6XIAuR8FRNGCpcQl"
      } ],
      "disc_number" : 1,
      "duration_ms" : 235000,
      "explicit" : false,
      "external_ids" : {
        "isrc" : "usl4q1832619"
      },
      "external_urls" : {
        "spotify" : "https://open.spotify.com/track/7KWo4x9szimFcunxPl8rTa"
      },
      "href" : "https://api.spotify.com/v1/tracks/7KWo4x9szimFcunxPl8rTa",
      "id" : "7KWo4x9szimFcunxPl8rTa",
      "is_local" : false,
      "is_playable" : true,
      "name" : "O Come Let Us Adore Him / Thou Art Worthy",
      "popularity" : 12,
      "preview_url" : "https://p.scdn.co/mp3-preview/7e3b6727e07dc19920f9f9f294f71a35ffa0714c?cid=774b29d4f13844c495f206cafdad9c86",
      "track_number" : 8,
      "type" : "track",
      "uri" : "spotify:track:7KWo4x9szimFcunxPl8rTa"
    } ],
    "limit" : 10,
    "next" : "https://api.spotify.com/v1/search?query=Come%2C+Let+Us+Sing&type=track&market=US&offset=15&limit=10",
    "offset" : 5,
    "previous" : "https://api.spotify.com/v1/search?query=Come%2C+Let+Us+Sing&type=track&market=US&offset=0&limit=10",
    "total" : 463
  }
}