{
  "tracks" : {
    "href" : "https://api.spotify.com/v1/search?query=Moment+by+Moment&type=track&market=US&offset=5&limit=10",
    "items" : [ {
      "album" : {
        "album_type" : "album",
        "artists" : [ {
          "external_urls" : {
            "spotify" : "https://open.spotify.com/artist/5Z7ndTqS6EPzpNn322s0Nw"
          },
          "href" : "https://api.spotify.com/v1/artists/5Z7ndTqS6EPzpNn322s0Nw",
          "id" : "5Z7ndTqS6EPzpNn322s0Nw",
          "name" : "Jaime Jorge",
          "type" : "artist",
          "uri" : "spotify:artist:5Z7ndTqS6EPzpNn322s0Nw"
        } ],
        "external_urls" : {
          "spotify" : "https://open.spotify.com/album/6iJ1gFRfc9ttxjRaU6B24Z"
        },
        "href" : "https://api.spotify.com/v1/albums/6iJ1gFRfc9ttxjRaU6B24Z",
        "id" : "6iJ1gFRfc9ttxjRaU6B24Z",
        "images" : [ {
          "height" : 640,
          "url" : "https://i.scdn.co/image/ab67616d0000b27398c661e999b0adbd22ea41b3",
          "width" : 640
        }, {
          "height" : 300,
          "url" : "https://i.scdn.co/image/ab67616d00001e0298c661e999b0adbd22ea41b3",
          "width" : 300
        }, {
          "height" : 64,
          "url" : "https://i.scdn.co/image/ab67616d0000485198c661e999b0adbd22ea41b3",
          "width" : 64
        } ],
        "name" : "Wonderful Peace",
        "release_date" : "2007-08-16",
        "release_date_precision" : "day",
        "total_tracks" : 12,
        "type" : "album",
        "uri" : "spotify:album:6iJ1gFRfc9ttxjRaU6B24Z"
      },
      "artists" : [ {
        "external_urls" : {
          "spotify" : "https://open.spotify.com/artist/5Z7ndTqS6EPzpNn322s0Nw"
        },
        "href" : "https://api.spotify.com/v1/artists/5Z7ndTqS6EPzpNn322s0Nw",
        "id" : "5Z7ndTqS6EPzpNn322s0Nw",
        "name" : "Jaime Jorge",
        "type" : "artist",
        "uri" : "spotify:artist:5Z7ndTqS6EPzpNn322s0Nw"
      } ],
      "disc_number" : 1,
      "duration_ms" : 254000,
      "explicit" : false,
      "external_ids" : {
        "isrc" : "ushm90740600"
      },
      "external_urls" : {
        "spotify" : "https://open.spotify.com/track/13p8ZGFLd6Am39R4FJ8Ca3"
      },
      "href" : "https://api.spotify.com/v1/tracks/13p8ZGFLd6Am39R4FJ8Ca3",
      "id" : "13p8ZGFLd6Am39R4FJ8Ca3",
      "is_local" : false,
      "is_playable" : true,
      "name" : "Moment By Moment",
      "popularity" : 22,
      "preview_url" : "https://p.scdn.co/mp3-preview/12695925bec5601aad4a47ff1f3491e4df4d4917?cid=774b29d4f13844c495f206cafdad9c86",
      "track_number" : 1,
      "type" : "track",
      "uri" : "spotify:track:13p8ZGFLd6Am39R4FJ8Ca3"
    }, {
      "album" : {
        "album_type" : "album",
        "artists" : [ {
          "external_urls" : {
            "spotify" : "https://open.spotify.com/artist/5PokPZn11xzZXyXSfnvIM3"
          },
          "href" : "https://api.spotify.com/v1/artists/5PokPZn11xzZXyXSfnvIM3",
          "id" : "5PokPZn11xzZXyXSfnvIM3",
          "name" : "Lifehouse",
          "type" : "artist",
          "uri" : "spotify:artist:5PokPZn11xzZXyXSfnvIM3"
        } ],
        "external_urls" : {
          "spotify" : "https://open.spotify.com/album/1VKNHcrUppE8i5oAhg4o6k"
        },
        "href" : "https://api.spotify.com/v1/albums/1VKNHcrUppE8i5oAhg4o6k",
        "id" : "1VKNHcrUppE8i5oAhg4o6k",
        "images" : [ {
          "height" : 640,
          "url" : "https://i.scdn.co/image/ab67616d0000b273d0494f682c986764e0bc629c",
          "width" : 640
        }, {
          "height" : 300,
          "url" : "https://i.scdn.co/image/ab67616d00001e02d0494f682c986764e0bc629c",
          "width" : 300
        }, {
          "height" : 64,
          "url" : "https://i.scdn.co/image/ab67616d00004851d0494f682c986764e0bc629c",
          "width" : 64
        } ],
        "name" : "No Name Face",
        "release_date" : "2000",
        "release_date_precision" : "year",
        "total_tracks" : 12,
        "type" : "album",
        "uri" : "spotify:album:1VKNHcrUppE8i5oAhg4o6k"
      },
      "artists" : [ {
        "external_urls" : {
          "spotify" : "https://open.spotify.com/artist/5PokPZn11xzZXyXSfnvIM3"
        },
        "href" : "https://api.spotify.com/v1/artists/5PokPZn11xzZXyXSfnvIM3",
        "id" : "5PokPZn11xzZXyXSfnvIM3",
        "name" : "Lifehouse",
        "type" : "artist",
        "uri" : "spotify:artist:5PokPZn11xzZXyXSfnvIM3"
      } ],
      "disc_number" : 1,
      "duration_ms" : 216066,
      "explicit" : false,
      "external_ids" : {
        "isrc" : "USDW10022031"
      },
      "external_urls" : {
        "spotify" : "https://open.spotify.com/track/0wqOReZDnrefefEsrIGeR4"
      },
      "href" : "https://api.spotify.com/v1/tracks/0wqOReZDnrefefEsrIGeR4",
      "id" : "0wqOReZDnrefefEsrIGeR4",
      "is_local" : false,
      "is_playable" : true,
      "name" : "Hanging By A Moment",
      "popularity" : 64,
      "preview_url" : null,
      "track_number" : 1,
      "type" : "track",
      "uri" : "spotify:track:0wqOReZDnrefefEsrIGeR4"
    }, {
      "album" : {
        "album_type" : "compilation",
        "artists" : [ {
          "external_urls" : {
            "spotify" : "https://open.spotify.com/artist/3plJVWt88EqjvtuB4ZDRV3"
          },
          "href" : "https://api.spotify.com/v1/artists/3plJVWt88EqjvtuB4ZDRV3",
          "id" : "3plJVWt88EqjvtuB4ZDRV3",
          "name" : "Ben E. King",
          "type" : "artist",
          "uri" : "spotify:artist:3plJVWt88EqjvtuB4ZDRV3"
        } ],
        "external_urls" : {
          "spotify" : "https://open.spotify.com/album/7iAaAOoEeEkI0KB0hqLwU0"
        },
        "href" : "https://api.spotify.com/v1/albums/7iAaAOoEeEkI0KB0hqLwU0",
        "id" : "7iAaAOoEeEkI0KB0hqLwU0",
        "images" : [ {
          "height" : 640,
          "url" : "https://i.scdn.co/image/ab67616d0000b273557c73b5b1085c827171ec48",
          "width" : 640
        }, {
          "height" : 300,
          "url" : "https://i.scdn.co/image/ab67616d00001e02557c73b5b1085c827171ec48",
          "width" : 300
        }, {
          "height" : 64,
          "url" : "https://i.scdn.co/image/ab67616d00004851557c73b5b1085c827171ec48",
          "width" : 64
        } ],
        "name" : "Stand By Me",
        "release_date" : "2016-11-25",
        "release_date_precision" : "day",
        "total_tracks" : 39,
        "type" : "album",
        "uri" : "spotify:album:7iAaAOoEeEkI0KB0hqLwU0"
      },
      "artists" : [ {
        "external_urls" : {
          "spotify" : "https://open.spotify.com/artist/3plJVWt88EqjvtuB4ZDRV3"
        },
        "href" : "https://api.spotify.com/v1/artists/3plJVWt88EqjvtuB4ZDRV3",
        "id" : "3plJVWt88EqjvtuB4ZDRV3",
        "name" : "Ben E. King",
        "type" : "artist",
        "uri" : "spotify:artist:3plJVWt88EqjvtuB4ZDRV3"
      } ],
      "disc_number" : 1,
      "duration_ms" : 145720,
      "explicit" : false,
      "external_ids" : {
        "isrc" : "USAT20505454"
      },
      "external_urls" : {
        "spotify" : "https://open.spotify.com/track/1DFOW1eRirj07UtisTIo1t"
      },
      "href" : "https://api.spotify.com/v1/tracks/1DFOW1eRirj07UtisTIo1t",
      "id" : "1DFOW1eRirj07UtisTIo1t",
      "is_local" : false,
      "is_playable" : true,
      "name" : "This Magic Moment",
      "popularity" : 47,
      "preview_url" : "https://p.scdn.co/mp3-preview/cc5add13e4ffd474e82cd02344aef46506332a2c?cid=774b29d4f13844c495f206cafdad9c86",
      "track_number" : 2,
      "type" : "track",
      "uri" : "spotify:track:1DFOW1eRirj07UtisTIo1t"
    }, {
      "album" : {
        "album_type" : "album",
        "artists" : [ {
          "external_urls" : {
            "spotify" : "https://open.spotify.com/artist/6a1uY4qTyJ5hXs0eOxRQnL"
          },
          "href" : "https://api.spotify.com/v1/artists/6a1uY4qTyJ5hXs0eOxRQnL",
          "id" : "6a1uY4qTyJ5hXs0eOxRQnL",
          "name" : "Baby Sleep Music",
          "type" : "artist",
          "uri" : "spotify:artist:6a1uY4qTyJ5hXs0eOxRQnL"
        } ],
        "external_urls" : {
          "spotify" : "https://open.spotify.com/album/7lfVxbp2bqIHsTgTE3qtOS"
        },
        "href" : "https://api.spotify.com/v1/albums/7lfVxbp2bqIHsTgTE3qtOS",
        "id" : "7lfVxbp2bqIHsTgTE3qtOS",
        "images" : [ {
          "height" : 640,
          "url" : "https://i.scdn.co/image/ab67616d0000b27378bf62e361196b6aa7879916",
          "width" : 640
        }, {
          "height" : 300,
          "url" : "https://i.scdn.co/image/ab67616d00001e0278bf62e361196b6aa7879916",
          "width" : 300
        }, {
          "height" : 64,
          "url" : "https://i.scdn.co/image/ab67616d0000485178bf62e361196b6aa7879916",
          "width" : 64
        } ],
        "name" : "Lullaby Moments",
        "release_date" : "2015-12-17",
        "release_date_precision" : "day",
        "total_tracks" : 10,
        "type" : "album",
        "uri" : "spotify:album:7lfVxbp2bqIHsTgTE3qtOS"
      },
      "artists" : [ {
        "external_urls" : {
          "spotify" : "https://open.spotify.com/artist/6a1uY4qTyJ5hXs0eOxRQnL"
        },
        "href" : "https://api.spotify.com/v1/artists/6a1uY4qTyJ5hXs0eOxRQnL",
        "id" : "6a1uY4qTyJ5hXs0eOxRQnL",
        "name" : "Baby Sleep Music",
        "type" : "artist",
        "uri" : "spotify:artist:6a1uY4qTyJ5hXs0eOxRQnL"
      } ],
      "disc_number" : 1,
      "duration_ms" : 198611,
      "explicit" : false,
      "external_ids" : {
        "isrc" : "AULYA1300043"
      },
      "external_urls" : {
        "spotify" : "https://open.spotify.com/track/5Pas52Qp1b32Ol7TKHkELm"
      },
      "href" : "https://api.spotify.com/v1/tracks/5Pas52Qp1b32Ol7TKHkELm",
      "id" : "5Pas52Qp1b32Ol7TKHkELm",
      "is_local" : false,
      "is_playable" : true,
      "name" : "Rock a Bye Baby",
      "popularity" : 57,
      "preview_url" : "https://p.scdn.co/mp3-preview/58f4e9092b852ce67f8d53e50563c484fa5ecf9c?cid=774b29d4f13844c495f206cafdad9c86",
      "track_number" : 2,
      "type" : "track",
      "uri" : "spotify:track:5Pas52Qp1b32Ol7TKHkELm"
    }, {
      "album" : {
        "album_type" : "compilation",
        "artists" : [ {
          "external_urls" : {
            "spotify" : "https://open.spotify.com/artist/0LyfQWJT6nXafLPZqxe9Of"
          },
          "href" : "https://api.spotify.com/v1/artists/0LyfQWJT6nXafLPZqxe9Of",
          "id" : "0LyfQWJT6nXafLPZqxe9Of",
          "name" : "Various Artists",
          "type" : "artist",
          "uri" : "spotify:artist:0LyfQWJT6nXafLPZqxe9Of"
        } ],
        "external_urls" : {
          "spotify" : "https://open.spotify.com/album/1K41RJw0ML5yCXdtzdy2Jx"
        },
        "href" : "https://api.spotify.com/v1/albums/1K41RJw0ML5yCXdtzdy2Jx",
        "id" : "1K41RJw0ML5yCXdtzdy2Jx",
        "images" : [ {
          "height" : 640,
          "url" : "https://i.scdn.co/image/ab67616d0000b2733f73bfa6379b6438efcdb14d",
          "width" : 640
        }, {
          "height" : 300,
          "url" : "https://i.scdn.co/image/ab67616d00001e023f73bfa6379b6438efcdb14d",
          "width" : 300
        }, {
          "height" : 64,
          "url" : "https://i.scdn.co/image/ab67616d000048513f73bfa6379b6438efcdb14d",
          "width" : 64
        } ],
        "name" : "Moment by Moment (Selections)",
        "release_date" : "2019-05-03",
        "release_date_precision" : "day",
        "total_tracks" : 12,
        "type" : "album",
        "uri" : "spotify:album:1K41RJw0ML5yCXdtzdy2Jx"
      },
      "artists" : [ {
        "external_urls" : {
          "spotify" : "https://open.spotify.com/artist/4VluulYWhcwWaD1pV7CtKB"
        },
        "href" : "https://api.spotify.com/v1/artists/4VluulYWhcwWaD1pV7CtKB",
        "id" : "4VluulYWhcwWaD1pV7CtKB",
        "name" : "George Salazar",
        "type" : "artist",
        "uri" : "spotify:artist:4VluulYWhcwWaD1pV7CtKB"
      }, {
        "external_urls" : {
          "spotify" : "https://open.spotify.com/artist/18QGDMb7iwtEcsz3n5myg3"
        },
        "href" : "https://api.spotify.com/v1/artists/18QGDMb7iwtEcsz3n5myg3",
        "id" : "18QGDMb7iwtEcsz3n5myg3",
        "name" : "Jason Gotay",
        "type" : "artist",
        "uri" : "spotify:artist:18QGDMb7iwtEcsz3n5myg3"
      } ],
      "disc_number" : 1,
      "duration_ms" : 191000,
      "explicit" : false,
      "external_ids" : {
        "isrc" : "usdy41941516"
      },
      "external_urls" : {
        "spotify" : "https://open.spotify.com/track/3kdabHZBKJkLnQNbXvhczf"
      },
      "href" : "https://api.spotify.com/v1/tracks/3kdabHZBKJkLnQNbXvhczf",
      "id" : "3kdabHZBKJkLnQNbXvhczf",
      "is_local" : false,
      "is_playable" : true,
      "name" : "The Bro Duet",
      "popularity" : 46,
      "preview_url" : "https://p.scdn.co/mp3-preview/42ea8e8876a05852588ab6cce18aae6eb77f6517?cid=774b29d4f13844c495f206cafdad9c86",
      "track_number" : 4,
      "type" : "track",
      "uri" : "spotify:track:3kdabHZBKJkLnQNbXvhczf"
    }, {
      "album" : {
        "album_type" : "album",
        "artists" : [ {
          "external_urls" : {
            "spotify" : "https://open.spotify.com/artist/2p0UyoPfYfI76PCStuXfOP"
          },
          "href" : "https://api.spotify.com/v1/artists/2p0UyoPfYfI76PCStuXfOP",
          "id" : "2p0UyoPfYfI76PCStuXfOP",
          "name" : "Franz Schubert",
          "type" : "artist",
          "uri" : "spotify:artist:2p0UyoPfYfI76PCStuXfOP"
        } ],
        "external_urls" : {
          "spotify" : "https://open.spotify.com/album/470NRudsG9XwNLx1KvUoto"
        },
        "href" : "https://api.spotify.com/v1/albums/470NRudsG9XwNLx1KvUoto",
        "id" : "470NRudsG9XwNLx1KvUoto",
        "images" : [ {
          "height" : 640,
          "url" : "https://i.scdn.co/image/ab67616d0000b273ca1502ce913507b19d62b71b",
          "width" : 640
        }, {
          "height" : 300,
          "url" : "https://i.scdn.co/image/ab67616d00001e02ca1502ce913507b19d62b71b",
          "width" : 300
        }, {
          "height" : 64,
          "url" : "https://i.scdn.co/image/ab67616d00004851ca1502ce913507b19d62b71b",
          "width" : 64
        } ],
        "name" : "Schubert: The Greatest",
        "release_date" : "2020-05-25",
        "release_date_precision" : "day",
        "total_tracks" : 279,
        "type" : "album",
        "uri" : "spotify:album:470NRudsG9XwNLx1KvUoto"
      },
      "artists" : [ {
        "external_urls" : {
          "spotify" : "https://open.spotify.com/artist/2p0UyoPfYfI76PCStuXfOP"
        },
        "href" : "https://api.spotify.com/v1/artists/2p0UyoPfYfI76PCStuXfOP",
        "id" : "2p0UyoPfYfI76PCStuXfOP",
        "name" : "Franz Schubert",
        "type" : "artist",
        "uri" : "spotify:artist:2p0UyoPfYfI76PCStuXfOP"
      }, {
        "external_urls" : {
          "spotify" : "https://open.spotify.com/artist/6rlVhQqS15yJMO4DZqrq6I"
        },
        "href" : "https://api.spotify.com/v1/artists/6rlVhQqS15yJMO4DZqrq6I",
        "id" : "6rlVhQqS15yJMO4DZqrq6I",
        "name" : "Mischa Maisky",
        "type" : "artist",
        "uri" : "spotify:artist:6rlVhQqS15yJMO4DZqrq6I"
      }, {
        "external_urls" : {
          "spotify" : "https://open.spotify.com/artist/6ulWeJt8KSzeGBlrzEDELv"
        },
        "href" : "https://api.spotify.com/v1/artists/6ulWeJt8KSzeGBlrzEDELv",
        "id" : "6ulWeJt8KSzeGBlrzEDELv",
        "name" : "Daria Hovora",
        "type" : "artist",
        "uri" : "spotify:artist:6ulWeJt8KSzeGBlrzEDELv"
      } ],
      "disc_number" : 1,
      "duration_ms" : 131000,
      "explicit" : false,
      "external_ids" : {
        "isrc" : "DEF059302790"
      },
      "external_urls" : {
        "spotify" : "https://open.spotify.com/track/4ICNIRLgQw6yQGk0BsTXld"
      },
      "href" : "https://api.spotify.com/v1/tracks/4ICNIRLgQw6yQGk0BsTXld",
      "id" : "4ICNIRLgQw6yQGk0BsTXld",
      "is_local" : false,
      "is_playable" : true,
      "name" : "6 Moments musicaux, Op.94 D.780 (Arr. For Violoncello And Piano By Mischa Maisky): Movement Musical In A Minor (No.3) - Allegro moderato",
      "popularity" : 6,
      "preview_url" : null,
      "track_number" : 98,
      "type" : "track",
      "uri" : "spotify:track:4ICNIRLgQw6yQGk0BsTXld"
    }, {
      "album" : {
        "album_type" : "album",
        "artists" : [ {
          "external_urls" : {
            "spotify" : "https://open.spotify.com/artist/2p0UyoPfYfI76PCStuXfOP"
          },
          "href" : "https://api.spotify.com/v1/artists/2p0UyoPfYfI76PCStuXfOP",
          "id" : "2p0UyoPfYfI76PCStuXfOP",
          "name" : "Franz Schubert",
          "type" : "artist",
          "uri" : "spotify:artist:2p0UyoPfYfI76PCStuXfOP"
        } ],
        "external_urls" : {
          "spotify" : "https://open.spotify.com/album/6mhbBHGdKKoy9aFl9NiSRm"
        },
        "href" : "https://api.spotify.com/v1/albums/6mhbBHGdKKoy9aFl9NiSRm",
        "id" : "6mhbBHGdKKoy9aFl9NiSRm",
        "images" : [ {
          "height" : 640,
          "url" : "https://i.scdn.co/image/ab67616d0000b27383eec911f28cf60a0b18e76a",
          "width" : 640
        }, {
          "height" : 300,
          "url" : "https://i.scdn.co/image/ab67616d00001e0283eec911f28cf60a0b18e76a",
          "width" : 300
        }, {
          "height" : 64,
          "url" : "https://i.scdn.co/image/ab67616d0000485183eec911f28cf60a0b18e76a",
          "width" : 64
        } ],
        "name" : "Schubert: His Music",
        "release_date" : "2020-05-16",
        "release_date_precision" : "day",
        "total_tracks" : 136,
        "type" : "album",
        "uri" : "spotify:album:6mhbBHGdKKoy9aFl9NiSRm"
      },
      "artists" : [ {
        "external_urls" : {
          "spotify" : "https://open.spotify.com/artist/2p0UyoPfYfI76PCStuXfOP"
        },
        "href" : "https://api.spotify.com/v1/artists/2p0UyoPfYfI76PCStuXfOP",
        "id" : "2p0UyoPfYfI76PCStuXfOP",
        "name" : "Franz Schubert",
        "type" : "artist",
        "uri" : "spotify:artist:2p0UyoPfYfI76PCStuXfOP"
      }, {
        "external_urls" : {
          "spotify" : "https://open.spotify.com/artist/6rlVhQqS15yJMO4DZqrq6I"
        },
        "href" : "https://api.spotify.com/v1/artists/6rlVhQqS15yJMO4DZqrq6I",
        "id" : "6rlVhQqS15yJMO4DZqrq6I",
        "name" : "Mischa Maisky",
        "type" : "artist",
        "uri" : "spotify:artist:6rlVhQqS15yJMO4DZqrq6I"
      }, {
        "external_urls" : {
          "spotify" : "https://open.spotify.com/artist/6ulWeJt8KSzeGBlrzEDELv"
        },
        "href" : "https://api.spotify.com/v1/artists/6ulWeJt8KSzeGBlrzEDELv",
        "id" : "6ulWeJt8KSzeGBlrzEDELv",
        "name" : "Daria Hovora",
        "type" : "artist",
        "uri" : "spotify:artist:6ulWeJt8KSzeGBlrzEDELv"
      } ],
      "disc_number" : 1,
      "duration_ms" : 131000,
      "explicit" : false,
      "external_ids" : {
        "isrc" : "DEF059302790"
      },
      "external_urls" : {
        "spotify" : "https://open.spotify.com/track/2u8AWIpkzKBn1TxNYxxLA5"
      },
      "href" : "https://api.spotify.com/v1/tracks/2u8AWIpkzKBn1TxNYxxLA5",
      "id" : "2u8AWIpkzKBn1TxNYxxLA5",
      "is_local" : false,
      "is_playable" : true,
      "name" : "6 Moments musicaux, Op.94 D.780 (Arr. For Violoncello And Piano By Mischa Maisky): Movement Musical In A Minor (No.3) - Allegro moderato",
      "popularity" : 7,
      "preview_url" : null,
      "track_number" : 67,
      "type" : "track",
      "uri" : "spotify:track:2u8AWIpkzKBn1TxNYxxLA5"
    }, {
      "album" : {
        "album_type" : "album",
        "artists" : [ {
          "external_urls" : {
            "spotify" : "https://open.spotify.com/artist/2p0UyoPfYfI76PCStuXfOP"
          },
          "href" : "https://api.spotify.com/v1/artists/2p0UyoPfYfI76PCStuXfOP",
          "id" : "2p0UyoPfYfI76PCStuXfOP",
          "name" : "Franz Schubert",
          "type" : "artist",
          "uri" : "spotify:artist:2p0UyoPfYfI76PCStuXfOP"
        } ],
        "external_urls" : {
          "spotify" : "https://open.spotify.com/album/2Ovd0SyeimWaebk9N7lcPq"
        },
        "href" : "https://api.spotify.com/v1/albums/2Ovd0SyeimWaebk9N7lcPq",
        "id" : "2Ovd0SyeimWaebk9N7lcPq",
        "images" : [ {
          "height" : 640,
          "url" : "https://i.scdn.co/image/ab67616d0000b273a0953b45400b45afb8b85d6e",
          "width" : 640
        }, {
          "height" : 300,
          "url" : "https://i.scdn.co/image/ab67616d00001e02a0953b45400b45afb8b85d6e",
          "width" : 300
        }, {
          "height" : 64,
          "url" : "https://i.scdn.co/image/ab67616d00004851a0953b45400b45afb8b85d6e",
          "width" : 64
        } ],
        "name" : "Schubert: 100",
        "release_date" : "2020-05-23",
        "release_date_precision" : "day",
        "total_tracks" : 100,
        "type" : "album",
        "uri" : "spotify:album:2Ovd0SyeimWaebk9N7lcPq"
      },
      "artists" : [ {
        "external_urls" : {
          "spotify" : "https://open.spotify.com/artist/2p0UyoPfYfI76PCStuXfOP"
        },
        "href" : "https://api.spotify.com/v1/artists/2p0UyoPfYfI76PCStuXfOP",
        "id" : "2p0UyoPfYfI76PCStuXfOP",
        "name" : "Franz Schubert",
        "type" : "artist",
        "uri" : "spotify:artist:2p0UyoPfYfI76PCStuXfOP"
      }, {
        "external_urls" : {
          "spotify" : "https://open.spotify.com/artist/6rlVhQqS15yJMO4DZqrq6I"
        },
        "href" : "https://api.spotify.com/v1/artists/6rlVhQqS15yJMO4DZqrq6I",
        "id" : "6rlVhQqS15yJMO4DZqrq6I",
        "name" : "Mischa Maisky",
        "type" : "artist",
        "uri" : "spotify:artist:6rlVhQqS15yJMO4DZqrq6I"
      }, {
        "external_urls" : {
          "spotify" : "https://open.spotify.com/artist/6ulWeJt8KSzeGBlrzEDELv"
        },
        "href" : "https://api.spotify.com/v1/artists/6ulWeJt8KSzeGBlrzEDELv",
        "id" : "6ulWeJt8KSzeGBlrzEDELv",
        "name" : "Daria Hovora",
        "type" : "artist",
        "uri" : "spotify:artist:6ulWeJt8KSzeGBlrzEDELv"
      } ],
      "disc_number" : 1,
      "duration_ms" : 131000,
      "explicit" : false,
      "external_ids" : {
        "isrc" : "DEF059302790"
      },
      "external_urls" : {
        "spotify" : "https://open.spotify.com/track/1HgMSqcrxrZAY4TNpiSO1u"
      },
      "href" : "https://api.spotify.com/v1/tracks/1HgMSqcrxrZAY4TNpiSO1u",
      "id" : "1HgMSqcrxrZAY4TNpiSO1u",
      "is_local" : false,
      "is_playable" : true,
      "name" : "6 Moments musicaux, Op.94 D.780 (Arr. For Violoncello And Piano By Mischa Maisky): Movement Musical In A Minor (No.3) - Allegro moderato",
      "popularity" : 7,
      "preview_url" : null,
      "track_number" : 67,
      "type" : "track",
      "uri" : "spotify:track:1HgMSqcrxrZAY4TNpiSO1u"
    }, {
      "album" : {
        "album_type" : "album",
        "artists" : [ {
          "external_urls" : {
            "spotify" : "https://open.spotify.com/artist/2p0UyoPfYfI76PCStuXfOP"
          },
          "href" : "https://api.spotify.com/v1/artists/2p0UyoPfYfI76PCStuXfOP",
          "id" : "2p0UyoPfYfI76PCStuXfOP",
          "name" : "Franz Schubert",
          "type" : "artist",
          "uri" : "spotify:artist:2p0UyoPfYfI76PCStuXfOP"
        } ],
        "external_urls" : {
          "spotify" : "https://open.spotify.com/album/5PMzftmqaMJcSC5Jk6e6hc"
        },
        "href" : "https://api.spotify.com/v1/albums/5PMzftmqaMJcSC5Jk6e6hc",
        "id" : "5PMzftmqaMJcSC5Jk6e6hc",
        "images" : [ {
          "height" : 640,
          "url" : "https://i.scdn.co/image/ab67616d0000b27341ef688ec7b7d4d7fb8b0ab4",
          "width" : 640
        }, {
          "height" : 300,
          "url" : "https://i.scdn.co/image/ab67616d00001e0241ef688ec7b7d4d7fb8b0ab4",
          "width" : 300
        }, {
          "height" : 64,
          "url" : "https://i.scdn.co/image/ab67616d0000485141ef688ec7b7d4d7fb8b0ab4",
          "width" : 64
        } ],
        "name" : "Schubert Little Masterpieces",
        "release_date" : "2020-05-17",
        "release_date_precision" : "day",
        "total_tracks" : 279,
        "type" : "album",
        "uri" : "spotify:album:5PMzftmqaMJcSC5Jk6e6hc"
      },
      "artists" : [ {
        "external_urls" : {
          "spotify" : "https://open.spotify.com/artist/2p0UyoPfYfI76PCStuXfOP"
        },
        "href" : "https://api.spotify.com/v1/artists/2p0UyoPfYfI76PCStuXfOP",
        "id" : "2p0UyoPfYfI76PCStuXfOP",
        "name" : "Franz Schubert",
        "type" : "artist",
        "uri" : "spotify:artist:2p0UyoPfYfI76PCStuXfOP"
      }, {
        "external_urls" : {
          "spotify" : "https://open.spotify.com/artist/6rlVhQqS15yJMO4DZqrq6I"
        },
        "href" : "https://api.spotify.com/v1/artists/6rlVhQqS15yJMO4DZqrq6I",
        "id" : "6rlVhQqS15yJMO4DZqrq6I",
        "name" : "Mischa Maisky",
        "type" : "artist",
        "uri" : "spotify:artist:6rlVhQqS15yJMO4DZqrq6I"
      }, {
        "external_urls" : {
          "spotify" : "https://open.spotify.com/artist/6ulWeJt8KSzeGBlrzEDELv"
        },
        "href" : "https://api.spotify.com/v1/artists/6ulWeJt8KSzeGBlrzEDELv",
        "id" : "6ulWeJt8KSzeGBlrzEDELv",
        "name" : "Daria Hovora",
        "type" : "artist",
        "uri" : "spotify:artist:6ulWeJt8KSzeGBlrzEDELv"
      } ],
      "disc_number" : 1,
      "duration_ms" : 131000,
      "explicit" : false,
      "external_ids" : {
        "isrc" : "DEF059302790"
      },
      "external_urls" : {
        "spotify" : "https://open.spotify.com/track/5gAqX9CRbRkO3g4ZOuhfVb"
      },
      "href" : "https://api.spotify.com/v1/tracks/5gAqX9CRbRkO3g4ZOuhfVb",
      "id" : "5gAqX9CRbRkO3g4ZOuhfVb",
      "is_local" : false,
      "is_playable" : true,
      "name" : "6 Moments musicaux, Op.94 D.780 (Arr. For Violoncello And Piano By Mischa Maisky): Movement Musical In A Minor (No.3) - Allegro moderato",
      "popularity" : 6,
      "preview_url" : null,
      "track_number" : 98,
      "type" : "track",
      "uri" : "spotify:track:5gAqX9CRbRkO3g4ZOuhfVb"
    }, {
      "album" : {
        "album_type" : "album",
        "artists" : [ {
          "external_urls" : {
            "spotify" : "https://open.spotify.com/artist/1Li0eIWeMeWcOOWpImcG9H"
          },
          "href" : "https://api.spotify.com/v1/artists/1Li0eIWeMeWcOOWpImcG9H",
          "id" : "1Li0eIWeMeWcOOWpImcG9H",
          "name" : "Albert Hammond, Jr.",
          "type" : "artist",
          "uri" : "spotify:artist:1Li0eIWeMeWcOOWpImcG9H"
        } ],
        "external_urls" : {
          "spotify" : "https://open.spotify.com/album/2ZF9sH3yKiQ31ZphhTlhJV"
        },
        "href" : "https://api.spotify.com/v1/albums/2ZF9sH3yKiQ31ZphhTlhJV",
        "id" : "2ZF9sH3yKiQ31ZphhTlhJV",
        "images" : [ {
          "height" : 640,
          "url" : "https://i.scdn.co/image/ab67616d0000b273a0ea4b7c6d7b319db11c95ec",
          "width" : 640
        }, {
          "height" : 300,
          "url" : "https://i.scdn.co/image/ab67616d00001e02a0ea4b7c6d7b319db11c95ec",
          "width" : 300
        }, {
          "height" : 64,
          "url" : "https://i.scdn.co/image/ab67616d00004851a0ea4b7c6d7b319db11c95ec",
          "width" : 64
        } ],
        "name" : "Momentary Masters",
        "release_date" : "2015-07-31",
        "release_date_precision" : "day",
        "total_tracks" : 10,
        "type" : "album",
        "uri" : "spotify:album:2ZF9sH3yKiQ31ZphhTlhJV"
      },
      "artists" : [ {
        "external_urls" : {
          "spotify" : "https://open.spotify.com/artist/1Li0eIWeMeWcOOWpImcG9H"
        },
        "href" : "https://api.spotify.com/v1/artists/1Li0eIWeMeWcOOWpImcG9H",
        "id" : "1Li0eIWeMeWcOOWpImcG9H",
        "name" : "Albert Hammond, Jr.",
        "type" : "artist",
        "uri" : "spotify:artist:1Li0eIWeMeWcOOWpImcG9H"
      } ],
      "disc_number" : 1,
      "duration_ms" : 183382,
      "explicit" : false,
      "external_ids" : {
        "isrc" : "USVR91535303"
      },
      "external_urls" : {
        "spotify" : "https://open.spotify.com/track/3qrvuhiRAAHwNqmKsvhv7i"
      },
      "href" : "https://api.spotify.com/v1/tracks/3qrvuhiRAAHwNqmKsvhv7i",
      "id" : "3qrvuhiRAAHwNqmKsvhv7i",
      "is_local" : false,
      "is_playable" : true,
      "name" : "Caught By My Shadow",
      "popularity" : 46,
      "preview_url" : "https://p.scdn.co/mp3-preview/6e36ed264ea875b6cff5934d9a73f817f35d438c?cid=774b29d4f13844c495f206cafdad9c86",
      "track_number" : 3,
      "type" : "track",
      "uri" : "spotify:track:3qrvuhiRAAHwNqmKsvhv7i"
    } ],
    "limit" : 10,
    "next" : "https://api.spotify.com/v1/search?query=Moment+by+Moment&type=track&market=US&offset=15&limit=10",
    "offset" : 5,
    "previous" : "https://api.spotify.com/v1/search?query=Moment+by+Moment&type=track&market=US&offset=0&limit=10",
    "total" : 5453
  }
}