{
  "tracks" : {
    "href" : "https://api.spotify.com/v1/search?query=This+Is+the+Day+the+Lord+Hath+Made&type=track&market=US&offset=5&limit=10",
    "items" : [ {
      "album" : {
        "album_type" : "single",
        "artists" : [ {
          "external_urls" : {
            "spotify" : "https://open.spotify.com/artist/33c0BeAErD3vae90Gt4M80"
          },
          "href" : "https://api.spotify.com/v1/artists/33c0BeAErD3vae90Gt4M80",
          "id" : "33c0BeAErD3vae90Gt4M80",
          "name" : "HolyCow",
          "type" : "artist",
          "uri" : "spotify:artist:33c0BeAErD3vae90Gt4M80"
        } ],
        "external_urls" : {
          "spotify" : "https://open.spotify.com/album/6EqVH1dFPyhScOfTuG4BP5"
        },
        "href" : "https://api.spotify.com/v1/albums/6EqVH1dFPyhScOfTuG4BP5",
        "id" : "6EqVH1dFPyhScOfTuG4BP5",
        "images" : [ {
          "height" : 640,
          "url" : "https://i.scdn.co/image/ab67616d0000b273cb2e472e09f9c9e75b26f125",
          "width" : 640
        }, {
          "height" : 300,
          "url" : "https://i.scdn.co/image/ab67616d00001e02cb2e472e09f9c9e75b26f125",
          "width" : 300
        }, {
          "height" : 64,
          "url" : "https://i.scdn.co/image/ab67616d00004851cb2e472e09f9c9e75b26f125",
          "width" : 64
        } ],
        "name" : "God Bless You, Vol. 31",
        "release_date" : "2018-12-24",
        "release_date_precision" : "day",
        "total_tracks" : 2,
        "type" : "album",
        "uri" : "spotify:album:6EqVH1dFPyhScOfTuG4BP5"
      },
      "artists" : [ {
        "external_urls" : {
          "spotify" : "https://open.spotify.com/artist/33c0BeAErD3vae90Gt4M80"
        },
        "href" : "https://api.spotify.com/v1/artists/33c0BeAErD3vae90Gt4M80",
        "id" : "33c0BeAErD3vae90Gt4M80",
        "name" : "HolyCow",
        "type" : "artist",
        "uri" : "spotify:artist:33c0BeAErD3vae90Gt4M80"
      } ],
      "disc_number" : 1,
      "duration_ms" : 169846,
      "explicit" : false,
      "external_ids" : {
        "isrc" : "KRB921719011"
      },
      "external_urls" : {
        "spotify" : "https://open.spotify.com/track/1kieXzFx4NnaPeDvjXsXL9"
      },
      "href" : "https://api.spotify.com/v1/tracks/1kieXzFx4NnaPeDvjXsXL9",
      "id" : "1kieXzFx4NnaPeDvjXsXL9",
      "is_local" : false,
      "is_playable" : true,
      "name" : "This is the Day the Lord Hath Made",
      "popularity" : 0,
      "preview_url" : "https://p.scdn.co/mp3-preview/2c67933032ec6e86aa00950a46057070453cd68b?cid=774b29d4f13844c495f206cafdad9c86",
      "track_number" : 2,
      "type" : "track",
      "uri" : "spotify:track:1kieXzFx4NnaPeDvjXsXL9"
    }, {
      "album" : {
        "album_type" : "album",
        "artists" : [ {
          "external_urls" : {
            "spotify" : "https://open.spotify.com/artist/20rlbkwNSoLrLqQUR7GRcT"
          },
          "href" : "https://api.spotify.com/v1/artists/20rlbkwNSoLrLqQUR7GRcT",
          "id" : "20rlbkwNSoLrLqQUR7GRcT",
          "name" : "Mother’s Lullaby",
          "type" : "artist",
          "uri" : "spotify:artist:20rlbkwNSoLrLqQUR7GRcT"
        } ],
        "external_urls" : {
          "spotify" : "https://open.spotify.com/album/74mS5VsGCnCbR1hxN5oCpn"
        },
        "href" : "https://api.spotify.com/v1/albums/74mS5VsGCnCbR1hxN5oCpn",
        "id" : "74mS5VsGCnCbR1hxN5oCpn",
        "images" : [ {
          "height" : 640,
          "url" : "https://i.scdn.co/image/ab67616d0000b27335b71daa5107db21a9c3a43f",
          "width" : 640
        }, {
          "height" : 300,
          "url" : "https://i.scdn.co/image/ab67616d00001e0235b71daa5107db21a9c3a43f",
          "width" : 300
        }, {
          "height" : 64,
          "url" : "https://i.scdn.co/image/ab67616d0000485135b71daa5107db21a9c3a43f",
          "width" : 64
        } ],
        "name" : "Hymns Vol.3 (#51~#75)",
        "release_date" : "2019-02-22",
        "release_date_precision" : "day",
        "total_tracks" : 25,
        "type" : "album",
        "uri" : "spotify:album:74mS5VsGCnCbR1hxN5oCpn"
      },
      "artists" : [ {
        "external_urls" : {
          "spotify" : "https://open.spotify.com/artist/20rlbkwNSoLrLqQUR7GRcT"
        },
        "href" : "https://api.spotify.com/v1/artists/20rlbkwNSoLrLqQUR7GRcT",
        "id" : "20rlbkwNSoLrLqQUR7GRcT",
        "name" : "Mother’s Lullaby",
        "type" : "artist",
        "uri" : "spotify:artist:20rlbkwNSoLrLqQUR7GRcT"
      } ],
      "disc_number" : 1,
      "duration_ms" : 118500,
      "explicit" : false,
      "external_ids" : {
        "isrc" : "KRZ291908371"
      },
      "external_urls" : {
        "spotify" : "https://open.spotify.com/track/5OWSxGkIvHhczwXkL6rnP2"
      },
      "href" : "https://api.spotify.com/v1/tracks/5OWSxGkIvHhczwXkL6rnP2",
      "id" : "5OWSxGkIvHhczwXkL6rnP2",
      "is_local" : false,
      "is_playable" : true,
      "name" : "This is the Day the Lord Hath Made",
      "popularity" : 0,
      "preview_url" : "https://p.scdn.co/mp3-preview/4e2a2fa7c9fd4f648b404998a48f39f2a9d7c2bd?cid=774b29d4f13844c495f206cafdad9c86",
      "track_number" : 8,
      "type" : "track",
      "uri" : "spotify:track:5OWSxGkIvHhczwXkL6rnP2"
    }, {
      "album" : {
        "album_type" : "album",
        "artists" : [ {
          "external_urls" : {
            "spotify" : "https://open.spotify.com/artist/6d1IWgEp7dHllS4aeUgbzb"
          },
          "href" : "https://api.spotify.com/v1/artists/6d1IWgEp7dHllS4aeUgbzb",
          "id" : "6d1IWgEp7dHllS4aeUgbzb",
          "name" : "행복한자장가",
          "type" : "artist",
          "uri" : "spotify:artist:6d1IWgEp7dHllS4aeUgbzb"
        } ],
        "external_urls" : {
          "spotify" : "https://open.spotify.com/album/3WwnCnYCpm0WDjjvXwj4cV"
        },
        "href" : "https://api.spotify.com/v1/albums/3WwnCnYCpm0WDjjvXwj4cV",
        "id" : "3WwnCnYCpm0WDjjvXwj4cV",
        "images" : [ {
          "height" : 640,
          "url" : "https://i.scdn.co/image/ab67616d0000b2734fd5367d3a0f1aef132ef79b",
          "width" : 640
        }, {
          "height" : 300,
          "url" : "https://i.scdn.co/image/ab67616d00001e024fd5367d3a0f1aef132ef79b",
          "width" : 300
        }, {
          "height" : 64,
          "url" : "https://i.scdn.co/image/ab67616d000048514fd5367d3a0f1aef132ef79b",
          "width" : 64
        } ],
        "name" : "Sleep our angelic child Vol.2",
        "release_date" : "2019-03-12",
        "release_date_precision" : "day",
        "total_tracks" : 36,
        "type" : "album",
        "uri" : "spotify:album:3WwnCnYCpm0WDjjvXwj4cV"
      },
      "artists" : [ {
        "external_urls" : {
          "spotify" : "https://open.spotify.com/artist/6d1IWgEp7dHllS4aeUgbzb"
        },
        "href" : "https://api.spotify.com/v1/artists/6d1IWgEp7dHllS4aeUgbzb",
        "id" : "6d1IWgEp7dHllS4aeUgbzb",
        "name" : "행복한자장가",
        "type" : "artist",
        "uri" : "spotify:artist:6d1IWgEp7dHllS4aeUgbzb"
      } ],
      "disc_number" : 1,
      "duration_ms" : 91058,
      "explicit" : false,
      "external_ids" : {
        "isrc" : "QZEKE1863505"
      },
      "external_urls" : {
        "spotify" : "https://open.spotify.com/track/1FmcfaVcijUXgYt4TLDC00"
      },
      "href" : "https://api.spotify.com/v1/tracks/1FmcfaVcijUXgYt4TLDC00",
      "id" : "1FmcfaVcijUXgYt4TLDC00",
      "is_local" : false,
      "is_playable" : true,
      "name" : "This is the Day the Lord Hath Made",
      "popularity" : 0,
      "preview_url" : "https://p.scdn.co/mp3-preview/79ef0db82860f696e5bc022d959394c0c181179c?cid=774b29d4f13844c495f206cafdad9c86",
      "track_number" : 10,
      "type" : "track",
      "uri" : "spotify:track:1FmcfaVcijUXgYt4TLDC00"
    }, {
      "album" : {
        "album_type" : "album",
        "artists" : [ {
          "external_urls" : {
            "spotify" : "https://open.spotify.com/artist/20rlbkwNSoLrLqQUR7GRcT"
          },
          "href" : "https://api.spotify.com/v1/artists/20rlbkwNSoLrLqQUR7GRcT",
          "id" : "20rlbkwNSoLrLqQUR7GRcT",
          "name" : "Mother’s Lullaby",
          "type" : "artist",
          "uri" : "spotify:artist:20rlbkwNSoLrLqQUR7GRcT"
        } ],
        "external_urls" : {
          "spotify" : "https://open.spotify.com/album/0qJoZ6A5AcEN1jfA7SkFMb"
        },
        "href" : "https://api.spotify.com/v1/albums/0qJoZ6A5AcEN1jfA7SkFMb",
        "id" : "0qJoZ6A5AcEN1jfA7SkFMb",
        "images" : [ {
          "height" : 640,
          "url" : "https://i.scdn.co/image/ab67616d0000b2731b1a8f0542a9d7ded39df326",
          "width" : 640
        }, {
          "height" : 300,
          "url" : "https://i.scdn.co/image/ab67616d00001e021b1a8f0542a9d7ded39df326",
          "width" : 300
        }, {
          "height" : 64,
          "url" : "https://i.scdn.co/image/ab67616d000048511b1a8f0542a9d7ded39df326",
          "width" : 64
        } ],
        "name" : "현악4중주 찬송가 연주곡집 Vol. 2",
        "release_date" : "2020-04-23",
        "release_date_precision" : "day",
        "total_tracks" : 50,
        "type" : "album",
        "uri" : "spotify:album:0qJoZ6A5AcEN1jfA7SkFMb"
      },
      "artists" : [ {
        "external_urls" : {
          "spotify" : "https://open.spotify.com/artist/20rlbkwNSoLrLqQUR7GRcT"
        },
        "href" : "https://api.spotify.com/v1/artists/20rlbkwNSoLrLqQUR7GRcT",
        "id" : "20rlbkwNSoLrLqQUR7GRcT",
        "name" : "Mother’s Lullaby",
        "type" : "artist",
        "uri" : "spotify:artist:20rlbkwNSoLrLqQUR7GRcT"
      } ],
      "disc_number" : 1,
      "duration_ms" : 110126,
      "explicit" : false,
      "external_ids" : {
        "isrc" : "QZEKE1933006"
      },
      "external_urls" : {
        "spotify" : "https://open.spotify.com/track/0dMFHEgskQ3K97ZW5Ct04I"
      },
      "href" : "https://api.spotify.com/v1/tracks/0dMFHEgskQ3K97ZW5Ct04I",
      "id" : "0dMFHEgskQ3K97ZW5Ct04I",
      "is_local" : false,
      "is_playable" : true,
      "name" : "This is the Day the Lord Hath Made",
      "popularity" : 0,
      "preview_url" : "https://p.scdn.co/mp3-preview/fe32c4c57a4f7b0e2d74f29c92e122c693984e4e?cid=774b29d4f13844c495f206cafdad9c86",
      "track_number" : 8,
      "type" : "track",
      "uri" : "spotify:track:0dMFHEgskQ3K97ZW5Ct04I"
    }, {
      "album" : {
        "album_type" : "album",
        "artists" : [ {
          "external_urls" : {
            "spotify" : "https://open.spotify.com/artist/3vUWxQESCTAiA3FnBEW2ch"
          },
          "href" : "https://api.spotify.com/v1/artists/3vUWxQESCTAiA3FnBEW2ch",
          "id" : "3vUWxQESCTAiA3FnBEW2ch",
          "name" : "The Vivace Singers",
          "type" : "artist",
          "uri" : "spotify:artist:3vUWxQESCTAiA3FnBEW2ch"
        } ],
        "external_urls" : {
          "spotify" : "https://open.spotify.com/album/2l5HjkRuyFeskHvKMn8iiO"
        },
        "href" : "https://api.spotify.com/v1/albums/2l5HjkRuyFeskHvKMn8iiO",
        "id" : "2l5HjkRuyFeskHvKMn8iiO",
        "images" : [ {
          "height" : 640,
          "url" : "https://i.scdn.co/image/ab67616d0000b273200406e0146ec982703456d7",
          "width" : 640
        }, {
          "height" : 300,
          "url" : "https://i.scdn.co/image/ab67616d00001e02200406e0146ec982703456d7",
          "width" : 300
        }, {
          "height" : 64,
          "url" : "https://i.scdn.co/image/ab67616d00004851200406e0146ec982703456d7",
          "width" : 64
        } ],
        "name" : "British Church Music Series 6: Music of Basil Harwood",
        "release_date" : "2005-12-12",
        "release_date_precision" : "day",
        "total_tracks" : 14,
        "type" : "album",
        "uri" : "spotify:album:2l5HjkRuyFeskHvKMn8iiO"
      },
      "artists" : [ {
        "external_urls" : {
          "spotify" : "https://open.spotify.com/artist/3vUWxQESCTAiA3FnBEW2ch"
        },
        "href" : "https://api.spotify.com/v1/artists/3vUWxQESCTAiA3FnBEW2ch",
        "id" : "3vUWxQESCTAiA3FnBEW2ch",
        "name" : "The Vivace Singers",
        "type" : "artist",
        "uri" : "spotify:artist:3vUWxQESCTAiA3FnBEW2ch"
      } ],
      "disc_number" : 1,
      "duration_ms" : 346226,
      "explicit" : false,
      "external_ids" : {
        "isrc" : "GBXUX0883606"
      },
      "external_urls" : {
        "spotify" : "https://open.spotify.com/track/2mVd4LLlceuKpEriT15a0R"
      },
      "href" : "https://api.spotify.com/v1/tracks/2mVd4LLlceuKpEriT15a0R",
      "id" : "2mVd4LLlceuKpEriT15a0R",
      "is_local" : false,
      "is_playable" : true,
      "name" : "This Is the Day Which the Lord Hath Made",
      "popularity" : 0,
      "preview_url" : "https://p.scdn.co/mp3-preview/6926e870c55da8083d9010db1abd421bda48e66d?cid=774b29d4f13844c495f206cafdad9c86",
      "track_number" : 6,
      "type" : "track",
      "uri" : "spotify:track:2mVd4LLlceuKpEriT15a0R"
    }, {
      "album" : {
        "album_type" : "album",
        "artists" : [ {
          "external_urls" : {
            "spotify" : "https://open.spotify.com/artist/1Rh30FfJNp7V4Id0gs2me8"
          },
          "href" : "https://api.spotify.com/v1/artists/1Rh30FfJNp7V4Id0gs2me8",
          "id" : "1Rh30FfJNp7V4Id0gs2me8",
          "name" : "Choir of the Russian Orthodox Cathedral of Paris",
          "type" : "artist",
          "uri" : "spotify:artist:1Rh30FfJNp7V4Id0gs2me8"
        } ],
        "external_urls" : {
          "spotify" : "https://open.spotify.com/album/4CRIPYMQVVgX4JEC5qvlmb"
        },
        "href" : "https://api.spotify.com/v1/albums/4CRIPYMQVVgX4JEC5qvlmb",
        "id" : "4CRIPYMQVVgX4JEC5qvlmb",
        "images" : [ {
          "height" : 640,
          "url" : "https://i.scdn.co/image/ab67616d0000b273f6ff56370d628937a34db10f",
          "width" : 640
        }, {
          "height" : 300,
          "url" : "https://i.scdn.co/image/ab67616d00001e02f6ff56370d628937a34db10f",
          "width" : 300
        }, {
          "height" : 64,
          "url" : "https://i.scdn.co/image/ab67616d00004851f6ff56370d628937a34db10f",
          "width" : 64
        } ],
        "name" : "Russian Easter Liturgy",
        "release_date" : "1992-01-01",
        "release_date_precision" : "day",
        "total_tracks" : 16,
        "type" : "album",
        "uri" : "spotify:album:4CRIPYMQVVgX4JEC5qvlmb"
      },
      "artists" : [ {
        "external_urls" : {
          "spotify" : "https://open.spotify.com/artist/6z8gcTAIxKJOLk5ht4KvbP"
        },
        "href" : "https://api.spotify.com/v1/artists/6z8gcTAIxKJOLk5ht4KvbP",
        "id" : "6z8gcTAIxKJOLk5ht4KvbP",
        "name" : "Cathédrale Saint-Alexandre-Nevski (Paris, France). Choeurs",
        "type" : "artist",
        "uri" : "spotify:artist:6z8gcTAIxKJOLk5ht4KvbP"
      } ],
      "disc_number" : 1,
      "duration_ms" : 101973,
      "explicit" : false,
      "external_ids" : {
        "isrc" : "USSF19244110"
      },
      "external_urls" : {
        "spotify" : "https://open.spotify.com/track/3qguwbLqDl4BYuMeoYuMBA"
      },
      "href" : "https://api.spotify.com/v1/tracks/3qguwbLqDl4BYuMeoYuMBA",
      "id" : "3qguwbLqDl4BYuMeoYuMBA",
      "is_local" : false,
      "is_playable" : true,
      "name" : "Prokimen: This is the Day Which the Lord Hath Made",
      "popularity" : 2,
      "preview_url" : "https://p.scdn.co/mp3-preview/33680f83691aa812fdbb0639b4421e73fcee2246?cid=774b29d4f13844c495f206cafdad9c86",
      "track_number" : 10,
      "type" : "track",
      "uri" : "spotify:track:3qguwbLqDl4BYuMeoYuMBA"
    }, {
      "album" : {
        "album_type" : "album",
        "artists" : [ {
          "external_urls" : {
            "spotify" : "https://open.spotify.com/artist/5IavkTcZ4ZhFbaExPHtBIA"
          },
          "href" : "https://api.spotify.com/v1/artists/5IavkTcZ4ZhFbaExPHtBIA",
          "id" : "5IavkTcZ4ZhFbaExPHtBIA",
          "name" : "Robert Vert",
          "type" : "artist",
          "uri" : "spotify:artist:5IavkTcZ4ZhFbaExPHtBIA"
        } ],
        "external_urls" : {
          "spotify" : "https://open.spotify.com/album/56JN9xOy9wdS5zH8BseSWk"
        },
        "href" : "https://api.spotify.com/v1/albums/56JN9xOy9wdS5zH8BseSWk",
        "id" : "56JN9xOy9wdS5zH8BseSWk",
        "images" : [ {
          "height" : 640,
          "url" : "https://i.scdn.co/image/ab67616d0000b2737ad9c00590e98fff3414cf67",
          "width" : 640
        }, {
          "height" : 300,
          "url" : "https://i.scdn.co/image/ab67616d00001e027ad9c00590e98fff3414cf67",
          "width" : 300
        }, {
          "height" : 64,
          "url" : "https://i.scdn.co/image/ab67616d000048517ad9c00590e98fff3414cf67",
          "width" : 64
        } ],
        "name" : "Piano Accompaniments Vol. 27: Hymns",
        "release_date" : "2019-04-23",
        "release_date_precision" : "day",
        "total_tracks" : 26,
        "type" : "album",
        "uri" : "spotify:album:56JN9xOy9wdS5zH8BseSWk"
      },
      "artists" : [ {
        "external_urls" : {
          "spotify" : "https://open.spotify.com/artist/5IavkTcZ4ZhFbaExPHtBIA"
        },
        "href" : "https://api.spotify.com/v1/artists/5IavkTcZ4ZhFbaExPHtBIA",
        "id" : "5IavkTcZ4ZhFbaExPHtBIA",
        "name" : "Robert Vert",
        "type" : "artist",
        "uri" : "spotify:artist:5IavkTcZ4ZhFbaExPHtBIA"
      } ],
      "disc_number" : 1,
      "duration_ms" : 112047,
      "explicit" : false,
      "external_ids" : {
        "isrc" : "usdy41943223"
      },
      "external_urls" : {
        "spotify" : "https://open.spotify.com/track/0bdZgpYTworaLqR6a3tvFM"
      },
      "href" : "https://api.spotify.com/v1/tracks/0bdZgpYTworaLqR6a3tvFM",
      "id" : "0bdZgpYTworaLqR6a3tvFM",
      "is_local" : false,
      "is_playable" : true,
      "name" : "This Is the Day the Lord Hath Made (Piano Accompaniment Track)",
      "popularity" : 0,
      "preview_url" : "https://p.scdn.co/mp3-preview/8e47bd89d7536f1ff9d2b5b68dac6a8a9ad44f4f?cid=774b29d4f13844c495f206cafdad9c86",
      "track_number" : 24,
      "type" : "track",
      "uri" : "spotify:track:0bdZgpYTworaLqR6a3tvFM"
    }, {
      "album" : {
        "album_type" : "album",
        "artists" : [ {
          "external_urls" : {
            "spotify" : "https://open.spotify.com/artist/5zkmOYaXiNHBKxKnnd1rvl"
          },
          "href" : "https://api.spotify.com/v1/artists/5zkmOYaXiNHBKxKnnd1rvl",
          "id" : "5zkmOYaXiNHBKxKnnd1rvl",
          "name" : "John Keys",
          "type" : "artist",
          "uri" : "spotify:artist:5zkmOYaXiNHBKxKnnd1rvl"
        } ],
        "external_urls" : {
          "spotify" : "https://open.spotify.com/album/76dUlRBZ23MK5g4yZF6CdW"
        },
        "href" : "https://api.spotify.com/v1/albums/76dUlRBZ23MK5g4yZF6CdW",
        "id" : "76dUlRBZ23MK5g4yZF6CdW",
        "images" : [ {
          "height" : 640,
          "url" : "https://i.scdn.co/image/ab67616d0000b27383c22b9c7bc54fb019c41b32",
          "width" : 640
        }, {
          "height" : 300,
          "url" : "https://i.scdn.co/image/ab67616d00001e0283c22b9c7bc54fb019c41b32",
          "width" : 300
        }, {
          "height" : 64,
          "url" : "https://i.scdn.co/image/ab67616d0000485183c22b9c7bc54fb019c41b32",
          "width" : 64
        } ],
        "name" : "Ultimate Hymn Organ Accompaniments, Vol. 1",
        "release_date" : "2013-04-05",
        "release_date_precision" : "day",
        "total_tracks" : 20,
        "type" : "album",
        "uri" : "spotify:album:76dUlRBZ23MK5g4yZF6CdW"
      },
      "artists" : [ {
        "external_urls" : {
          "spotify" : "https://open.spotify.com/artist/5zkmOYaXiNHBKxKnnd1rvl"
        },
        "href" : "https://api.spotify.com/v1/artists/5zkmOYaXiNHBKxKnnd1rvl",
        "id" : "5zkmOYaXiNHBKxKnnd1rvl",
        "name" : "John Keys",
        "type" : "artist",
        "uri" : "spotify:artist:5zkmOYaXiNHBKxKnnd1rvl"
      } ],
      "disc_number" : 1,
      "duration_ms" : 159755,
      "explicit" : false,
      "external_ids" : {
        "isrc" : "GBKPL1354743"
      },
      "external_urls" : {
        "spotify" : "https://open.spotify.com/track/16HDWxz25r0RHKXRAzSUct"
      },
      "href" : "https://api.spotify.com/v1/tracks/16HDWxz25r0RHKXRAzSUct",
      "id" : "16HDWxz25r0RHKXRAzSUct",
      "is_local" : false,
      "is_playable" : true,
      "name" : "This Is the Day the Lord Hath Made (Bishopthorpe) - Instrumental Version",
      "popularity" : 0,
      "preview_url" : "https://p.scdn.co/mp3-preview/346f60f5419861d82d80f83d139c54537b12332e?cid=774b29d4f13844c495f206cafdad9c86",
      "track_number" : 7,
      "type" : "track",
      "uri" : "spotify:track:16HDWxz25r0RHKXRAzSUct"
    }, {
      "album" : {
        "album_type" : "album",
        "artists" : [ {
          "external_urls" : {
            "spotify" : "https://open.spotify.com/artist/120rJmJK7OSWyvtEIqG5XX"
          },
          "href" : "https://api.spotify.com/v1/artists/120rJmJK7OSWyvtEIqG5XX",
          "id" : "120rJmJK7OSWyvtEIqG5XX",
          "name" : "Dmitry Bortniansky",
          "type" : "artist",
          "uri" : "spotify:artist:120rJmJK7OSWyvtEIqG5XX"
        }, {
          "external_urls" : {
            "spotify" : "https://open.spotify.com/artist/1x14jaR5xQ4RkVlYN48OlY"
          },
          "href" : "https://api.spotify.com/v1/artists/1x14jaR5xQ4RkVlYN48OlY",
          "id" : "1x14jaR5xQ4RkVlYN48OlY",
          "name" : "Valery Polyansky",
          "type" : "artist",
          "uri" : "spotify:artist:1x14jaR5xQ4RkVlYN48OlY"
        } ],
        "external_urls" : {
          "spotify" : "https://open.spotify.com/album/7zpMatG1WIxce7iCkqwbqp"
        },
        "href" : "https://api.spotify.com/v1/albums/7zpMatG1WIxce7iCkqwbqp",
        "id" : "7zpMatG1WIxce7iCkqwbqp",
        "images" : [ {
          "height" : 640,
          "url" : "https://i.scdn.co/image/ab67616d0000b273c7179257affd36b10e7213ec",
          "width" : 640
        }, {
          "height" : 300,
          "url" : "https://i.scdn.co/image/ab67616d00001e02c7179257affd36b10e7213ec",
          "width" : 300
        }, {
          "height" : 64,
          "url" : "https://i.scdn.co/image/ab67616d00004851c7179257affd36b10e7213ec",
          "width" : 64
        } ],
        "name" : "Bortniansky: Sacred Concertos, Vol. 1",
        "release_date" : "1999-05-01",
        "release_date_precision" : "day",
        "total_tracks" : 27,
        "type" : "album",
        "uri" : "spotify:album:7zpMatG1WIxce7iCkqwbqp"
      },
      "artists" : [ {
        "external_urls" : {
          "spotify" : "https://open.spotify.com/artist/120rJmJK7OSWyvtEIqG5XX"
        },
        "href" : "https://api.spotify.com/v1/artists/120rJmJK7OSWyvtEIqG5XX",
        "id" : "120rJmJK7OSWyvtEIqG5XX",
        "name" : "Dmitry Bortniansky",
        "type" : "artist",
        "uri" : "spotify:artist:120rJmJK7OSWyvtEIqG5XX"
      }, {
        "external_urls" : {
          "spotify" : "https://open.spotify.com/artist/3K7yFzdYiX3mpHePVKCRIg"
        },
        "href" : "https://api.spotify.com/v1/artists/3K7yFzdYiX3mpHePVKCRIg",
        "id" : "3K7yFzdYiX3mpHePVKCRIg",
        "name" : "State Symphony Capella of Russia",
        "type" : "artist",
        "uri" : "spotify:artist:3K7yFzdYiX3mpHePVKCRIg"
      }, {
        "external_urls" : {
          "spotify" : "https://open.spotify.com/artist/1x14jaR5xQ4RkVlYN48OlY"
        },
        "href" : "https://api.spotify.com/v1/artists/1x14jaR5xQ4RkVlYN48OlY",
        "id" : "1x14jaR5xQ4RkVlYN48OlY",
        "name" : "Valery Polyansky",
        "type" : "artist",
        "uri" : "spotify:artist:1x14jaR5xQ4RkVlYN48OlY"
      } ],
      "disc_number" : 1,
      "duration_ms" : 156600,
      "explicit" : false,
      "external_ids" : {
        "isrc" : "GBLWD9907325"
      },
      "external_urls" : {
        "spotify" : "https://open.spotify.com/track/1qhw8O6mr8FPeQgI4v9upw"
      },
      "href" : "https://api.spotify.com/v1/tracks/1qhw8O6mr8FPeQgI4v9upw",
      "id" : "1qhw8O6mr8FPeQgI4v9upw",
      "is_local" : false,
      "is_playable" : true,
      "name" : "Sacred Concerto No. 9, \"Sey den', yeho zhe sotvori Hospod'\" (This is the day which the Lord hath made): I. This is the day which the Lord hath made —",
      "popularity" : 2,
      "preview_url" : "https://p.scdn.co/mp3-preview/a98bb28783a8c5904ab8e974a008b88afee49b8b?cid=774b29d4f13844c495f206cafdad9c86",
      "track_number" : 25,
      "type" : "track",
      "uri" : "spotify:track:1qhw8O6mr8FPeQgI4v9upw"
    }, {
      "album" : {
        "album_type" : "album",
        "artists" : [ {
          "external_urls" : {
            "spotify" : "https://open.spotify.com/artist/7jzR5qj8vFnSu5JHaXgFEr"
          },
          "href" : "https://api.spotify.com/v1/artists/7jzR5qj8vFnSu5JHaXgFEr",
          "id" : "7jzR5qj8vFnSu5JHaXgFEr",
          "name" : "Jean Sibelius",
          "type" : "artist",
          "uri" : "spotify:artist:7jzR5qj8vFnSu5JHaXgFEr"
        }, {
          "external_urls" : {
            "spotify" : "https://open.spotify.com/artist/5dP2GSe4oDzE0piPCpjTiY"
          },
          "href" : "https://api.spotify.com/v1/artists/5dP2GSe4oDzE0piPCpjTiY",
          "id" : "5dP2GSe4oDzE0piPCpjTiY",
          "name" : "Dominante Choir",
          "type" : "artist",
          "uri" : "spotify:artist:5dP2GSe4oDzE0piPCpjTiY"
        }, {
          "external_urls" : {
            "spotify" : "https://open.spotify.com/artist/2v4OkmtlP86fCfUpL3ioBJ"
          },
          "href" : "https://api.spotify.com/v1/artists/2v4OkmtlP86fCfUpL3ioBJ",
          "id" : "2v4OkmtlP86fCfUpL3ioBJ",
          "name" : "Seppo Murto",
          "type" : "artist",
          "uri" : "spotify:artist:2v4OkmtlP86fCfUpL3ioBJ"
        } ],
        "external_urls" : {
          "spotify" : "https://open.spotify.com/album/5bsTyySl3N2Q84WY8yt7Bj"
        },
        "href" : "https://api.spotify.com/v1/albums/5bsTyySl3N2Q84WY8yt7Bj",
        "id" : "5bsTyySl3N2Q84WY8yt7Bj",
        "images" : [ {
          "height" : 640,
          "url" : "https://i.scdn.co/image/ab67616d0000b2732f237fb392cdc7dd6979cda1",
          "width" : 640
        }, {
          "height" : 300,
          "url" : "https://i.scdn.co/image/ab67616d00001e022f237fb392cdc7dd6979cda1",
          "width" : 300
        }, {
          "height" : 64,
          "url" : "https://i.scdn.co/image/ab67616d000048512f237fb392cdc7dd6979cda1",
          "width" : 64
        } ],
        "name" : "Saarella Palaa (Fire on the Island)",
        "release_date" : "2012-09-04",
        "release_date_precision" : "day",
        "total_tracks" : 25,
        "type" : "album",
        "uri" : "spotify:album:5bsTyySl3N2Q84WY8yt7Bj"
      },
      "artists" : [ {
        "external_urls" : {
          "spotify" : "https://open.spotify.com/artist/7jzR5qj8vFnSu5JHaXgFEr"
        },
        "href" : "https://api.spotify.com/v1/artists/7jzR5qj8vFnSu5JHaXgFEr",
        "id" : "7jzR5qj8vFnSu5JHaXgFEr",
        "name" : "Jean Sibelius",
        "type" : "artist",
        "uri" : "spotify:artist:7jzR5qj8vFnSu5JHaXgFEr"
      }, {
        "external_urls" : {
          "spotify" : "https://open.spotify.com/artist/5dP2GSe4oDzE0piPCpjTiY"
        },
        "href" : "https://api.spotify.com/v1/artists/5dP2GSe4oDzE0piPCpjTiY",
        "id" : "5dP2GSe4oDzE0piPCpjTiY",
        "name" : "Dominante Choir",
        "type" : "artist",
        "uri" : "spotify:artist:5dP2GSe4oDzE0piPCpjTiY"
      }, {
        "external_urls" : {
          "spotify" : "https://open.spotify.com/artist/2v4OkmtlP86fCfUpL3ioBJ"
        },
        "href" : "https://api.spotify.com/v1/artists/2v4OkmtlP86fCfUpL3ioBJ",
        "id" : "2v4OkmtlP86fCfUpL3ioBJ",
        "name" : "Seppo Murto",
        "type" : "artist",
        "uri" : "spotify:artist:2v4OkmtlP86fCfUpL3ioBJ"
      } ],
      "disc_number" : 1,
      "duration_ms" : 117786,
      "explicit" : false,
      "external_ids" : {
        "isrc" : "SEAET1030580"
      },
      "external_urls" : {
        "spotify" : "https://open.spotify.com/track/5y9dyBRiaTn3IeLyFENomc"
      },
      "href" : "https://api.spotify.com/v1/tracks/5y9dyBRiaTn3IeLyFENomc",
      "id" : "5y9dyBRiaTn3IeLyFENomc",
      "is_local" : false,
      "is_playable" : true,
      "name" : "Dies ist der Tag des Herren (This Is the Day which the Lord Hath Made)",
      "popularity" : 0,
      "preview_url" : "https://p.scdn.co/mp3-preview/c86b285dcf643be0492883f53e15491e85f1f823?cid=774b29d4f13844c495f206cafdad9c86",
      "track_number" : 19,
      "type" : "track",
      "uri" : "spotify:track:5y9dyBRiaTn3IeLyFENomc"
    } ],
    "limit" : 10,
    "next" : "https://api.spotify.com/v1/search?query=This+Is+the+Day+the+Lord+Hath+Made&type=track&market=US&offset=15&limit=10",
    "offset" : 5,
    "previous" : "https://api.spotify.com/v1/search?query=This+Is+the+Day+the+Lord+Hath+Made&type=track&market=US&offset=0&limit=10",
    "total" : 30
  }
}