{
  "tracks" : {
    "href" : "https://api.spotify.com/v1/search?query=Trust+and+Obey&type=track&market=US&offset=5&limit=10",
    "items" : [ {
      "album" : {
        "album_type" : "album",
        "artists" : [ {
          "external_urls" : {
            "spotify" : "https://open.spotify.com/artist/7IZJd3rxJS92E0WxW6Idtg"
          },
          "href" : "https://api.spotify.com/v1/artists/7IZJd3rxJS92E0WxW6Idtg",
          "id" : "7IZJd3rxJS92E0WxW6Idtg",
          "name" : "Bible Study Fellowship",
          "type" : "artist",
          "uri" : "spotify:artist:7IZJd3rxJS92E0WxW6Idtg"
        } ],
        "external_urls" : {
          "spotify" : "https://open.spotify.com/album/3jbmJ1JjOIIw8U4lEvJRvL"
        },
        "href" : "https://api.spotify.com/v1/albums/3jbmJ1JjOIIw8U4lEvJRvL",
        "id" : "3jbmJ1JjOIIw8U4lEvJRvL",
        "images" : [ {
          "height" : 640,
          "url" : "https://i.scdn.co/image/ab67616d0000b273bfa2d07807781a253c4c04f2",
          "width" : 640
        }, {
          "height" : 300,
          "url" : "https://i.scdn.co/image/ab67616d00001e02bfa2d07807781a253c4c04f2",
          "width" : 300
        }, {
          "height" : 64,
          "url" : "https://i.scdn.co/image/ab67616d00004851bfa2d07807781a253c4c04f2",
          "width" : 64
        } ],
        "name" : "Preschool Songs",
        "release_date" : "2019-07-23",
        "release_date_precision" : "day",
        "total_tracks" : 41,
        "type" : "album",
        "uri" : "spotify:album:3jbmJ1JjOIIw8U4lEvJRvL"
      },
      "artists" : [ {
        "external_urls" : {
          "spotify" : "https://open.spotify.com/artist/7IZJd3rxJS92E0WxW6Idtg"
        },
        "href" : "https://api.spotify.com/v1/artists/7IZJd3rxJS92E0WxW6Idtg",
        "id" : "7IZJd3rxJS92E0WxW6Idtg",
        "name" : "Bible Study Fellowship",
        "type" : "artist",
        "uri" : "spotify:artist:7IZJd3rxJS92E0WxW6Idtg"
      } ],
      "disc_number" : 1,
      "duration_ms" : 61291,
      "explicit" : false,
      "external_ids" : {
        "isrc" : "ushm91944350"
      },
      "external_urls" : {
        "spotify" : "https://open.spotify.com/track/6ixXUjmfbZW9VvJkA6PFSD"
      },
      "href" : "https://api.spotify.com/v1/tracks/6ixXUjmfbZW9VvJkA6PFSD",
      "id" : "6ixXUjmfbZW9VvJkA6PFSD",
      "is_local" : false,
      "is_playable" : true,
      "name" : "Trust and Obey",
      "popularity" : 19,
      "preview_url" : "https://p.scdn.co/mp3-preview/23330061397994ae8f2e40b22fe194b646567477?cid=774b29d4f13844c495f206cafdad9c86",
      "track_number" : 6,
      "type" : "track",
      "uri" : "spotify:track:6ixXUjmfbZW9VvJkA6PFSD"
    }, {
      "album" : {
        "album_type" : "album",
        "artists" : [ {
          "external_urls" : {
            "spotify" : "https://open.spotify.com/artist/6QHA0Ju1zeevkCUGlFG04w"
          },
          "href" : "https://api.spotify.com/v1/artists/6QHA0Ju1zeevkCUGlFG04w",
          "id" : "6QHA0Ju1zeevkCUGlFG04w",
          "name" : "DappyTKeys",
          "type" : "artist",
          "uri" : "spotify:artist:6QHA0Ju1zeevkCUGlFG04w"
        } ],
        "external_urls" : {
          "spotify" : "https://open.spotify.com/album/5Xo4BUKrMl6lDHB4GtJGk7"
        },
        "href" : "https://api.spotify.com/v1/albums/5Xo4BUKrMl6lDHB4GtJGk7",
        "id" : "5Xo4BUKrMl6lDHB4GtJGk7",
        "images" : [ {
          "height" : 640,
          "url" : "https://i.scdn.co/image/ab67616d0000b273c68a9c5bb3dd0c2670d9cb21",
          "width" : 640
        }, {
          "height" : 300,
          "url" : "https://i.scdn.co/image/ab67616d00001e02c68a9c5bb3dd0c2670d9cb21",
          "width" : 300
        }, {
          "height" : 64,
          "url" : "https://i.scdn.co/image/ab67616d00004851c68a9c5bb3dd0c2670d9cb21",
          "width" : 64
        } ],
        "name" : "Hymns Collection, Vol. 1",
        "release_date" : "2020-01-03",
        "release_date_precision" : "day",
        "total_tracks" : 15,
        "type" : "album",
        "uri" : "spotify:album:5Xo4BUKrMl6lDHB4GtJGk7"
      },
      "artists" : [ {
        "external_urls" : {
          "spotify" : "https://open.spotify.com/artist/6QHA0Ju1zeevkCUGlFG04w"
        },
        "href" : "https://api.spotify.com/v1/artists/6QHA0Ju1zeevkCUGlFG04w",
        "id" : "6QHA0Ju1zeevkCUGlFG04w",
        "name" : "DappyTKeys",
        "type" : "artist",
        "uri" : "spotify:artist:6QHA0Ju1zeevkCUGlFG04w"
      } ],
      "disc_number" : 1,
      "duration_ms" : 205094,
      "explicit" : false,
      "external_ids" : {
        "isrc" : "TCAEO1984488"
      },
      "external_urls" : {
        "spotify" : "https://open.spotify.com/track/7zrK35PcbSb6UCc6gTBv5c"
      },
      "href" : "https://api.spotify.com/v1/tracks/7zrK35PcbSb6UCc6gTBv5c",
      "id" : "7zrK35PcbSb6UCc6gTBv5c",
      "is_local" : false,
      "is_playable" : true,
      "name" : "Trust and Obey",
      "popularity" : 21,
      "preview_url" : "https://p.scdn.co/mp3-preview/15eb0aa9c5c6917435f6aea13d6ccfbd6b2492a5?cid=774b29d4f13844c495f206cafdad9c86",
      "track_number" : 15,
      "type" : "track",
      "uri" : "spotify:track:7zrK35PcbSb6UCc6gTBv5c"
    }, {
      "album" : {
        "album_type" : "album",
        "artists" : [ {
          "external_urls" : {
            "spotify" : "https://open.spotify.com/artist/2IhNdbMUUa1aedvZVZsZmv"
          },
          "href" : "https://api.spotify.com/v1/artists/2IhNdbMUUa1aedvZVZsZmv",
          "id" : "2IhNdbMUUa1aedvZVZsZmv",
          "name" : "Luke Gard",
          "type" : "artist",
          "uri" : "spotify:artist:2IhNdbMUUa1aedvZVZsZmv"
        } ],
        "external_urls" : {
          "spotify" : "https://open.spotify.com/album/2omdKoz7ZpkBiBbcU3Ocyl"
        },
        "href" : "https://api.spotify.com/v1/albums/2omdKoz7ZpkBiBbcU3Ocyl",
        "id" : "2omdKoz7ZpkBiBbcU3Ocyl",
        "images" : [ {
          "height" : 640,
          "url" : "https://i.scdn.co/image/ab67616d0000b273c04d7a1134eafa2596777f01",
          "width" : 640
        }, {
          "height" : 300,
          "url" : "https://i.scdn.co/image/ab67616d00001e02c04d7a1134eafa2596777f01",
          "width" : 300
        }, {
          "height" : 64,
          "url" : "https://i.scdn.co/image/ab67616d00004851c04d7a1134eafa2596777f01",
          "width" : 64
        } ],
        "name" : "As You Go: Hymns of Hope",
        "release_date" : "2020-05-15",
        "release_date_precision" : "day",
        "total_tracks" : 12,
        "type" : "album",
        "uri" : "spotify:album:2omdKoz7ZpkBiBbcU3Ocyl"
      },
      "artists" : [ {
        "external_urls" : {
          "spotify" : "https://open.spotify.com/artist/2IhNdbMUUa1aedvZVZsZmv"
        },
        "href" : "https://api.spotify.com/v1/artists/2IhNdbMUUa1aedvZVZsZmv",
        "id" : "2IhNdbMUUa1aedvZVZsZmv",
        "name" : "Luke Gard",
        "type" : "artist",
        "uri" : "spotify:artist:2IhNdbMUUa1aedvZVZsZmv"
      } ],
      "disc_number" : 1,
      "duration_ms" : 136760,
      "explicit" : false,
      "external_ids" : {
        "isrc" : "QMTJ82000109"
      },
      "external_urls" : {
        "spotify" : "https://open.spotify.com/track/1hsmkBf5HK7KVcLhY8U0Hi"
      },
      "href" : "https://api.spotify.com/v1/tracks/1hsmkBf5HK7KVcLhY8U0Hi",
      "id" : "1hsmkBf5HK7KVcLhY8U0Hi",
      "is_local" : false,
      "is_playable" : true,
      "name" : "Trust and Obey",
      "popularity" : 1,
      "preview_url" : "https://p.scdn.co/mp3-preview/8a41666d7c8ba0fc1825bd8e40b12940f7208c22?cid=774b29d4f13844c495f206cafdad9c86",
      "track_number" : 9,
      "type" : "track",
      "uri" : "spotify:track:1hsmkBf5HK7KVcLhY8U0Hi"
    }, {
      "album" : {
        "album_type" : "album",
        "artists" : [ {
          "external_urls" : {
            "spotify" : "https://open.spotify.com/artist/4d8pFJwCoD1mX4wAn7Ax2h"
          },
          "href" : "https://api.spotify.com/v1/artists/4d8pFJwCoD1mX4wAn7Ax2h",
          "id" : "4d8pFJwCoD1mX4wAn7Ax2h",
          "name" : "Clovercroft Kids",
          "type" : "artist",
          "uri" : "spotify:artist:4d8pFJwCoD1mX4wAn7Ax2h"
        } ],
        "external_urls" : {
          "spotify" : "https://open.spotify.com/album/0ZZqk2oNYOGAgmyXuw5yyy"
        },
        "href" : "https://api.spotify.com/v1/albums/0ZZqk2oNYOGAgmyXuw5yyy",
        "id" : "0ZZqk2oNYOGAgmyXuw5yyy",
        "images" : [ {
          "height" : 640,
          "url" : "https://i.scdn.co/image/ab67616d0000b273063c54d1cf846444f6032c0b",
          "width" : 640
        }, {
          "height" : 300,
          "url" : "https://i.scdn.co/image/ab67616d00001e02063c54d1cf846444f6032c0b",
          "width" : 300
        }, {
          "height" : 64,
          "url" : "https://i.scdn.co/image/ab67616d00004851063c54d1cf846444f6032c0b",
          "width" : 64
        } ],
        "name" : "Hymns for Kids: Amazing Grace",
        "release_date" : "2014-09-30",
        "release_date_precision" : "day",
        "total_tracks" : 40,
        "type" : "album",
        "uri" : "spotify:album:0ZZqk2oNYOGAgmyXuw5yyy"
      },
      "artists" : [ {
        "external_urls" : {
          "spotify" : "https://open.spotify.com/artist/4d8pFJwCoD1mX4wAn7Ax2h"
        },
        "href" : "https://api.spotify.com/v1/artists/4d8pFJwCoD1mX4wAn7Ax2h",
        "id" : "4d8pFJwCoD1mX4wAn7Ax2h",
        "name" : "Clovercroft Kids",
        "type" : "artist",
        "uri" : "spotify:artist:4d8pFJwCoD1mX4wAn7Ax2h"
      } ],
      "disc_number" : 1,
      "duration_ms" : 106346,
      "explicit" : false,
      "external_ids" : {
        "isrc" : "USACX1401258"
      },
      "external_urls" : {
        "spotify" : "https://open.spotify.com/track/67QZA1wqRPRQmR1NjEnEzH"
      },
      "href" : "https://api.spotify.com/v1/tracks/67QZA1wqRPRQmR1NjEnEzH",
      "id" : "67QZA1wqRPRQmR1NjEnEzH",
      "is_local" : false,
      "is_playable" : true,
      "name" : "When We Walk With The Lord (Trust And Obey)",
      "popularity" : 22,
      "preview_url" : "https://p.scdn.co/mp3-preview/94b339848e030a080789d65dd08a1b4db4f9058e?cid=774b29d4f13844c495f206cafdad9c86",
      "track_number" : 7,
      "type" : "track",
      "uri" : "spotify:track:67QZA1wqRPRQmR1NjEnEzH"
    }, {
      "album" : {
        "album_type" : "album",
        "artists" : [ {
          "external_urls" : {
            "spotify" : "https://open.spotify.com/artist/5BqP8GSw4yRxyf4ZhG7Arv"
          },
          "href" : "https://api.spotify.com/v1/artists/5BqP8GSw4yRxyf4ZhG7Arv",
          "id" : "5BqP8GSw4yRxyf4ZhG7Arv",
          "name" : "Erin Bates",
          "type" : "artist",
          "uri" : "spotify:artist:5BqP8GSw4yRxyf4ZhG7Arv"
        } ],
        "external_urls" : {
          "spotify" : "https://open.spotify.com/album/76fz5oGczXdcxAbE2OVhnB"
        },
        "href" : "https://api.spotify.com/v1/albums/76fz5oGczXdcxAbE2OVhnB",
        "id" : "76fz5oGczXdcxAbE2OVhnB",
        "images" : [ {
          "height" : 640,
          "url" : "https://i.scdn.co/image/ab67616d0000b27353af1943d024bb55afeab0e7",
          "width" : 640
        }, {
          "height" : 300,
          "url" : "https://i.scdn.co/image/ab67616d00001e0253af1943d024bb55afeab0e7",
          "width" : 300
        }, {
          "height" : 64,
          "url" : "https://i.scdn.co/image/ab67616d0000485153af1943d024bb55afeab0e7",
          "width" : 64
        } ],
        "name" : "Hymns",
        "release_date" : "2019-06-01",
        "release_date_precision" : "day",
        "total_tracks" : 9,
        "type" : "album",
        "uri" : "spotify:album:76fz5oGczXdcxAbE2OVhnB"
      },
      "artists" : [ {
        "external_urls" : {
          "spotify" : "https://open.spotify.com/artist/5BqP8GSw4yRxyf4ZhG7Arv"
        },
        "href" : "https://api.spotify.com/v1/artists/5BqP8GSw4yRxyf4ZhG7Arv",
        "id" : "5BqP8GSw4yRxyf4ZhG7Arv",
        "name" : "Erin Bates",
        "type" : "artist",
        "uri" : "spotify:artist:5BqP8GSw4yRxyf4ZhG7Arv"
      } ],
      "disc_number" : 1,
      "duration_ms" : 331973,
      "explicit" : false,
      "external_ids" : {
        "isrc" : "ushm21939804"
      },
      "external_urls" : {
        "spotify" : "https://open.spotify.com/track/4sUXni5OvPjBlVTc0KCfDq"
      },
      "href" : "https://api.spotify.com/v1/tracks/4sUXni5OvPjBlVTc0KCfDq",
      "id" : "4sUXni5OvPjBlVTc0KCfDq",
      "is_local" : false,
      "is_playable" : true,
      "name" : "My Faith Has Found a Resting Place / Trust and Obey",
      "popularity" : 18,
      "preview_url" : "https://p.scdn.co/mp3-preview/c4d8072f91fb386038b0d1790b47a0dddc0e1b99?cid=774b29d4f13844c495f206cafdad9c86",
      "track_number" : 8,
      "type" : "track",
      "uri" : "spotify:track:4sUXni5OvPjBlVTc0KCfDq"
    }, {
      "album" : {
        "album_type" : "album",
        "artists" : [ {
          "external_urls" : {
            "spotify" : "https://open.spotify.com/artist/7G9KhHDBJe4ao16r9w1JE0"
          },
          "href" : "https://api.spotify.com/v1/artists/7G9KhHDBJe4ao16r9w1JE0",
          "id" : "7G9KhHDBJe4ao16r9w1JE0",
          "name" : "Chelsea Moon & The Franz Brothers",
          "type" : "artist",
          "uri" : "spotify:artist:7G9KhHDBJe4ao16r9w1JE0"
        } ],
        "external_urls" : {
          "spotify" : "https://open.spotify.com/album/63ZWgSSsHBUmcf3VGibggJ"
        },
        "href" : "https://api.spotify.com/v1/albums/63ZWgSSsHBUmcf3VGibggJ",
        "id" : "63ZWgSSsHBUmcf3VGibggJ",
        "images" : [ {
          "height" : 640,
          "url" : "https://i.scdn.co/image/ab67616d0000b2739b6fbe2e6c097c46b81dc5f0",
          "width" : 640
        }, {
          "height" : 300,
          "url" : "https://i.scdn.co/image/ab67616d00001e029b6fbe2e6c097c46b81dc5f0",
          "width" : 300
        }, {
          "height" : 64,
          "url" : "https://i.scdn.co/image/ab67616d000048519b6fbe2e6c097c46b81dc5f0",
          "width" : 64
        } ],
        "name" : "Hymn Project, Vol. 2",
        "release_date" : "2012-03-30",
        "release_date_precision" : "day",
        "total_tracks" : 15,
        "type" : "album",
        "uri" : "spotify:album:63ZWgSSsHBUmcf3VGibggJ"
      },
      "artists" : [ {
        "external_urls" : {
          "spotify" : "https://open.spotify.com/artist/7G9KhHDBJe4ao16r9w1JE0"
        },
        "href" : "https://api.spotify.com/v1/artists/7G9KhHDBJe4ao16r9w1JE0",
        "id" : "7G9KhHDBJe4ao16r9w1JE0",
        "name" : "Chelsea Moon & The Franz Brothers",
        "type" : "artist",
        "uri" : "spotify:artist:7G9KhHDBJe4ao16r9w1JE0"
      } ],
      "disc_number" : 1,
      "duration_ms" : 263398,
      "explicit" : false,
      "external_ids" : {
        "isrc" : "USWAJ1200010"
      },
      "external_urls" : {
        "spotify" : "https://open.spotify.com/track/24WjMFz0XqGjn8WswCTe3v"
      },
      "href" : "https://api.spotify.com/v1/tracks/24WjMFz0XqGjn8WswCTe3v",
      "id" : "24WjMFz0XqGjn8WswCTe3v",
      "is_local" : false,
      "is_playable" : true,
      "name" : "Trust & Obey",
      "popularity" : 25,
      "preview_url" : "https://p.scdn.co/mp3-preview/b27a68aa9a0a7ea9ff40367e88ef9eb6d8d121a4?cid=774b29d4f13844c495f206cafdad9c86",
      "track_number" : 10,
      "type" : "track",
      "uri" : "spotify:track:24WjMFz0XqGjn8WswCTe3v"
    }, {
      "album" : {
        "album_type" : "album",
        "artists" : [ {
          "external_urls" : {
            "spotify" : "https://open.spotify.com/artist/0U0Vlp1HGGUpeXgiqoLwf6"
          },
          "href" : "https://api.spotify.com/v1/artists/0U0Vlp1HGGUpeXgiqoLwf6",
          "id" : "0U0Vlp1HGGUpeXgiqoLwf6",
          "name" : "Anthony Burger",
          "type" : "artist",
          "uri" : "spotify:artist:0U0Vlp1HGGUpeXgiqoLwf6"
        } ],
        "external_urls" : {
          "spotify" : "https://open.spotify.com/album/5jbwOux9XlXlYADVzTIhsq"
        },
        "href" : "https://api.spotify.com/v1/albums/5jbwOux9XlXlYADVzTIhsq",
        "id" : "5jbwOux9XlXlYADVzTIhsq",
        "images" : [ {
          "height" : 640,
          "url" : "https://i.scdn.co/image/ab67616d0000b273f4b6d86ceff7c1c608bc854c",
          "width" : 640
        }, {
          "height" : 300,
          "url" : "https://i.scdn.co/image/ab67616d00001e02f4b6d86ceff7c1c608bc854c",
          "width" : 300
        }, {
          "height" : 64,
          "url" : "https://i.scdn.co/image/ab67616d00004851f4b6d86ceff7c1c608bc854c",
          "width" : 64
        } ],
        "name" : "Hymns Collection",
        "release_date" : "2008-01-01",
        "release_date_precision" : "day",
        "total_tracks" : 19,
        "type" : "album",
        "uri" : "spotify:album:5jbwOux9XlXlYADVzTIhsq"
      },
      "artists" : [ {
        "external_urls" : {
          "spotify" : "https://open.spotify.com/artist/0U0Vlp1HGGUpeXgiqoLwf6"
        },
        "href" : "https://api.spotify.com/v1/artists/0U0Vlp1HGGUpeXgiqoLwf6",
        "id" : "0U0Vlp1HGGUpeXgiqoLwf6",
        "name" : "Anthony Burger",
        "type" : "artist",
        "uri" : "spotify:artist:0U0Vlp1HGGUpeXgiqoLwf6"
      } ],
      "disc_number" : 1,
      "duration_ms" : 203613,
      "explicit" : false,
      "external_ids" : {
        "isrc" : "USB4U0800110"
      },
      "external_urls" : {
        "spotify" : "https://open.spotify.com/track/6nhgSMvJ9Xcs9qiSgeFdCc"
      },
      "href" : "https://api.spotify.com/v1/tracks/6nhgSMvJ9Xcs9qiSgeFdCc",
      "id" : "6nhgSMvJ9Xcs9qiSgeFdCc",
      "is_local" : false,
      "is_playable" : true,
      "name" : "Trust & Obey/I Must Tell Jesus - Medley",
      "popularity" : 27,
      "preview_url" : null,
      "track_number" : 7,
      "type" : "track",
      "uri" : "spotify:track:6nhgSMvJ9Xcs9qiSgeFdCc"
    }, {
      "album" : {
        "album_type" : "album",
        "artists" : [ {
          "external_urls" : {
            "spotify" : "https://open.spotify.com/artist/2e9kOXKWUhvdvNFN3CLo8p"
          },
          "href" : "https://api.spotify.com/v1/artists/2e9kOXKWUhvdvNFN3CLo8p",
          "id" : "2e9kOXKWUhvdvNFN3CLo8p",
          "name" : "Joseph Nimoh",
          "type" : "artist",
          "uri" : "spotify:artist:2e9kOXKWUhvdvNFN3CLo8p"
        } ],
        "external_urls" : {
          "spotify" : "https://open.spotify.com/album/0PRBxKyJBMTB4qgkMJbd3a"
        },
        "href" : "https://api.spotify.com/v1/albums/0PRBxKyJBMTB4qgkMJbd3a",
        "id" : "0PRBxKyJBMTB4qgkMJbd3a",
        "images" : [ {
          "height" : 640,
          "url" : "https://i.scdn.co/image/ab67616d0000b27312bc49a35c11037cde9a8a60",
          "width" : 640
        }, {
          "height" : 300,
          "url" : "https://i.scdn.co/image/ab67616d00001e0212bc49a35c11037cde9a8a60",
          "width" : 300
        }, {
          "height" : 64,
          "url" : "https://i.scdn.co/image/ab67616d0000485112bc49a35c11037cde9a8a60",
          "width" : 64
        } ],
        "name" : "Piano Hymns",
        "release_date" : "2018-10-15",
        "release_date_precision" : "day",
        "total_tracks" : 9,
        "type" : "album",
        "uri" : "spotify:album:0PRBxKyJBMTB4qgkMJbd3a"
      },
      "artists" : [ {
        "external_urls" : {
          "spotify" : "https://open.spotify.com/artist/2e9kOXKWUhvdvNFN3CLo8p"
        },
        "href" : "https://api.spotify.com/v1/artists/2e9kOXKWUhvdvNFN3CLo8p",
        "id" : "2e9kOXKWUhvdvNFN3CLo8p",
        "name" : "Joseph Nimoh",
        "type" : "artist",
        "uri" : "spotify:artist:2e9kOXKWUhvdvNFN3CLo8p"
      } ],
      "disc_number" : 1,
      "duration_ms" : 163361,
      "explicit" : false,
      "external_ids" : {
        "isrc" : "ushm91859401"
      },
      "external_urls" : {
        "spotify" : "https://open.spotify.com/track/7aUPy1DMyuKLY174oQQQiD"
      },
      "href" : "https://api.spotify.com/v1/tracks/7aUPy1DMyuKLY174oQQQiD",
      "id" : "7aUPy1DMyuKLY174oQQQiD",
      "is_local" : false,
      "is_playable" : true,
      "name" : "Trust and Obey",
      "popularity" : 15,
      "preview_url" : "https://p.scdn.co/mp3-preview/16e5003dc40f35d85598f5f27237233c088bded2?cid=774b29d4f13844c495f206cafdad9c86",
      "track_number" : 3,
      "type" : "track",
      "uri" : "spotify:track:7aUPy1DMyuKLY174oQQQiD"
    }, {
      "album" : {
        "album_type" : "album",
        "artists" : [ {
          "external_urls" : {
            "spotify" : "https://open.spotify.com/artist/6B9zcemB6pCVlbLac9pwWF"
          },
          "href" : "https://api.spotify.com/v1/artists/6B9zcemB6pCVlbLac9pwWF",
          "id" : "6B9zcemB6pCVlbLac9pwWF",
          "name" : "Hillsong Kids",
          "type" : "artist",
          "uri" : "spotify:artist:6B9zcemB6pCVlbLac9pwWF"
        } ],
        "external_urls" : {
          "spotify" : "https://open.spotify.com/album/4M3zJtG4vtJLB22AG3ZUGH"
        },
        "href" : "https://api.spotify.com/v1/albums/4M3zJtG4vtJLB22AG3ZUGH",
        "id" : "4M3zJtG4vtJLB22AG3ZUGH",
        "images" : [ {
          "height" : 640,
          "url" : "https://i.scdn.co/image/ab67616d0000b273a6296aa9e6b7b88e9b818f1b",
          "width" : 640
        }, {
          "height" : 300,
          "url" : "https://i.scdn.co/image/ab67616d00001e02a6296aa9e6b7b88e9b818f1b",
          "width" : 300
        }, {
          "height" : 64,
          "url" : "https://i.scdn.co/image/ab67616d00004851a6296aa9e6b7b88e9b818f1b",
          "width" : 64
        } ],
        "name" : "Follow You (Live)",
        "release_date" : "2008-12-06",
        "release_date_precision" : "day",
        "total_tracks" : 13,
        "type" : "album",
        "uri" : "spotify:album:4M3zJtG4vtJLB22AG3ZUGH"
      },
      "artists" : [ {
        "external_urls" : {
          "spotify" : "https://open.spotify.com/artist/6B9zcemB6pCVlbLac9pwWF"
        },
        "href" : "https://api.spotify.com/v1/artists/6B9zcemB6pCVlbLac9pwWF",
        "id" : "6B9zcemB6pCVlbLac9pwWF",
        "name" : "Hillsong Kids",
        "type" : "artist",
        "uri" : "spotify:artist:6B9zcemB6pCVlbLac9pwWF"
      } ],
      "disc_number" : 1,
      "duration_ms" : 270786,
      "explicit" : false,
      "external_ids" : {
        "isrc" : "AUHS00803160"
      },
      "external_urls" : {
        "spotify" : "https://open.spotify.com/track/0Ac4TPAa7Iq7og4xjxAG23"
      },
      "href" : "https://api.spotify.com/v1/tracks/0Ac4TPAa7Iq7og4xjxAG23",
      "id" : "0Ac4TPAa7Iq7og4xjxAG23",
      "is_local" : false,
      "is_playable" : true,
      "name" : "Trust And Obey - Live",
      "popularity" : 13,
      "preview_url" : null,
      "track_number" : 4,
      "type" : "track",
      "uri" : "spotify:track:0Ac4TPAa7Iq7og4xjxAG23"
    }, {
      "album" : {
        "album_type" : "album",
        "artists" : [ {
          "external_urls" : {
            "spotify" : "https://open.spotify.com/artist/06um8wdbBpbr6AEIv63vm1"
          },
          "href" : "https://api.spotify.com/v1/artists/06um8wdbBpbr6AEIv63vm1",
          "id" : "06um8wdbBpbr6AEIv63vm1",
          "name" : "Kaleb Brasee",
          "type" : "artist",
          "uri" : "spotify:artist:06um8wdbBpbr6AEIv63vm1"
        } ],
        "external_urls" : {
          "spotify" : "https://open.spotify.com/album/6AvCOW2bU3X5C0gtqhE2KB"
        },
        "href" : "https://api.spotify.com/v1/albums/6AvCOW2bU3X5C0gtqhE2KB",
        "id" : "6AvCOW2bU3X5C0gtqhE2KB",
        "images" : [ {
          "height" : 640,
          "url" : "https://i.scdn.co/image/ab67616d0000b2734569b55b5cb2fca7ac27a3d6",
          "width" : 640
        }, {
          "height" : 300,
          "url" : "https://i.scdn.co/image/ab67616d00001e024569b55b5cb2fca7ac27a3d6",
          "width" : 300
        }, {
          "height" : 64,
          "url" : "https://i.scdn.co/image/ab67616d000048514569b55b5cb2fca7ac27a3d6",
          "width" : 64
        } ],
        "name" : "One More Hour of Relaxing Hymns on Piano",
        "release_date" : "2015-05-24",
        "release_date_precision" : "day",
        "total_tracks" : 23,
        "type" : "album",
        "uri" : "spotify:album:6AvCOW2bU3X5C0gtqhE2KB"
      },
      "artists" : [ {
        "external_urls" : {
          "spotify" : "https://open.spotify.com/artist/06um8wdbBpbr6AEIv63vm1"
        },
        "href" : "https://api.spotify.com/v1/artists/06um8wdbBpbr6AEIv63vm1",
        "id" : "06um8wdbBpbr6AEIv63vm1",
        "name" : "Kaleb Brasee",
        "type" : "artist",
        "uri" : "spotify:artist:06um8wdbBpbr6AEIv63vm1"
      } ],
      "disc_number" : 1,
      "duration_ms" : 180427,
      "explicit" : false,
      "external_ids" : {
        "isrc" : "QM4DW1513840"
      },
      "external_urls" : {
        "spotify" : "https://open.spotify.com/track/5mae66gOlyR17dD457jEVe"
      },
      "href" : "https://api.spotify.com/v1/tracks/5mae66gOlyR17dD457jEVe",
      "id" : "5mae66gOlyR17dD457jEVe",
      "is_local" : false,
      "is_playable" : true,
      "name" : "Trust and Obey",
      "popularity" : 15,
      "preview_url" : "https://p.scdn.co/mp3-preview/be83bb366d388e82af8c55922c34ce10b346ffaa?cid=774b29d4f13844c495f206cafdad9c86",
      "track_number" : 8,
      "type" : "track",
      "uri" : "spotify:track:5mae66gOlyR17dD457jEVe"
    } ],
    "limit" : 10,
    "next" : "https://api.spotify.com/v1/search?query=Trust+and+Obey&type=track&market=US&offset=15&limit=10",
    "offset" : 5,
    "previous" : "https://api.spotify.com/v1/search?query=Trust+and+Obey&type=track&market=US&offset=0&limit=10",
    "total" : 557
  }
}