{
  "tracks" : {
    "href" : "https://api.spotify.com/v1/search?query=Bread+of+the+World&type=track&market=US&offset=5&limit=10",
    "items" : [ {
      "album" : {
        "album_type" : "album",
        "artists" : [ {
          "external_urls" : {
            "spotify" : "https://open.spotify.com/artist/2H1K3K1jTG7GI1nmu1zL0J"
          },
          "href" : "https://api.spotify.com/v1/artists/2H1K3K1jTG7GI1nmu1zL0J",
          "id" : "2H1K3K1jTG7GI1nmu1zL0J",
          "name" : "Bread of Stone",
          "type" : "artist",
          "uri" : "spotify:artist:2H1K3K1jTG7GI1nmu1zL0J"
        } ],
        "external_urls" : {
          "spotify" : "https://open.spotify.com/album/3a5dZFFCzzSCtRpyp2wk9H"
        },
        "href" : "https://api.spotify.com/v1/albums/3a5dZFFCzzSCtRpyp2wk9H",
        "id" : "3a5dZFFCzzSCtRpyp2wk9H",
        "images" : [ {
          "height" : 640,
          "url" : "https://i.scdn.co/image/ab67616d0000b27387eb58c9d2d4b6c624194bd0",
          "width" : 640
        }, {
          "height" : 300,
          "url" : "https://i.scdn.co/image/ab67616d00001e0287eb58c9d2d4b6c624194bd0",
          "width" : 300
        }, {
          "height" : 64,
          "url" : "https://i.scdn.co/image/ab67616d0000485187eb58c9d2d4b6c624194bd0",
          "width" : 64
        } ],
        "name" : "The Real Life (Deluxe Edition)",
        "release_date" : "2014-03-18",
        "release_date_precision" : "day",
        "total_tracks" : 15,
        "type" : "album",
        "uri" : "spotify:album:3a5dZFFCzzSCtRpyp2wk9H"
      },
      "artists" : [ {
        "external_urls" : {
          "spotify" : "https://open.spotify.com/artist/2H1K3K1jTG7GI1nmu1zL0J"
        },
        "href" : "https://api.spotify.com/v1/artists/2H1K3K1jTG7GI1nmu1zL0J",
        "id" : "2H1K3K1jTG7GI1nmu1zL0J",
        "name" : "Bread of Stone",
        "type" : "artist",
        "uri" : "spotify:artist:2H1K3K1jTG7GI1nmu1zL0J"
      } ],
      "disc_number" : 1,
      "duration_ms" : 314786,
      "explicit" : false,
      "external_ids" : {
        "isrc" : "USFUK1400005"
      },
      "external_urls" : {
        "spotify" : "https://open.spotify.com/track/4MzNUbtkpQbdJSO54F9CUD"
      },
      "href" : "https://api.spotify.com/v1/tracks/4MzNUbtkpQbdJSO54F9CUD",
      "id" : "4MzNUbtkpQbdJSO54F9CUD",
      "is_local" : false,
      "is_playable" : true,
      "name" : "Goodbye World (David Thulin Remix)",
      "popularity" : 4,
      "preview_url" : "https://p.scdn.co/mp3-preview/e3ae717dba87681e966ce121d5735ef5dd7c4799?cid=774b29d4f13844c495f206cafdad9c86",
      "track_number" : 15,
      "type" : "track",
      "uri" : "spotify:track:4MzNUbtkpQbdJSO54F9CUD"
    }, {
      "album" : {
        "album_type" : "album",
        "artists" : [ {
          "external_urls" : {
            "spotify" : "https://open.spotify.com/artist/5zN0p884rqUfd0fG3LtVGc"
          },
          "href" : "https://api.spotify.com/v1/artists/5zN0p884rqUfd0fG3LtVGc",
          "id" : "5zN0p884rqUfd0fG3LtVGc",
          "name" : "Cardiphonia Music",
          "type" : "artist",
          "uri" : "spotify:artist:5zN0p884rqUfd0fG3LtVGc"
        } ],
        "external_urls" : {
          "spotify" : "https://open.spotify.com/album/5XPhF0A6kPxuq1FmBJXHAW"
        },
        "href" : "https://api.spotify.com/v1/albums/5XPhF0A6kPxuq1FmBJXHAW",
        "id" : "5XPhF0A6kPxuq1FmBJXHAW",
        "images" : [ {
          "height" : 640,
          "url" : "https://i.scdn.co/image/ab67616d0000b273028f883c57fe013dd3661239",
          "width" : 640
        }, {
          "height" : 300,
          "url" : "https://i.scdn.co/image/ab67616d00001e02028f883c57fe013dd3661239",
          "width" : 300
        }, {
          "height" : 64,
          "url" : "https://i.scdn.co/image/ab67616d00004851028f883c57fe013dd3661239",
          "width" : 64
        } ],
        "name" : "Songs for the Lord's Supper",
        "release_date" : "2011-11-21",
        "release_date_precision" : "day",
        "total_tracks" : 24,
        "type" : "album",
        "uri" : "spotify:album:5XPhF0A6kPxuq1FmBJXHAW"
      },
      "artists" : [ {
        "external_urls" : {
          "spotify" : "https://open.spotify.com/artist/5zN0p884rqUfd0fG3LtVGc"
        },
        "href" : "https://api.spotify.com/v1/artists/5zN0p884rqUfd0fG3LtVGc",
        "id" : "5zN0p884rqUfd0fG3LtVGc",
        "name" : "Cardiphonia Music",
        "type" : "artist",
        "uri" : "spotify:artist:5zN0p884rqUfd0fG3LtVGc"
      }, {
        "external_urls" : {
          "spotify" : "https://open.spotify.com/artist/48C9P9CpXknoeL2pRLpq3J"
        },
        "href" : "https://api.spotify.com/v1/artists/48C9P9CpXknoeL2pRLpq3J",
        "id" : "48C9P9CpXknoeL2pRLpq3J",
        "name" : "Cherry Creek Worship",
        "type" : "artist",
        "uri" : "spotify:artist:48C9P9CpXknoeL2pRLpq3J"
      } ],
      "disc_number" : 1,
      "duration_ms" : 186093,
      "explicit" : false,
      "external_ids" : {
        "isrc" : "QZDA81810784"
      },
      "external_urls" : {
        "spotify" : "https://open.spotify.com/track/3vqQ6ASoNCmBSVXa9gBFlR"
      },
      "href" : "https://api.spotify.com/v1/tracks/3vqQ6ASoNCmBSVXa9gBFlR",
      "id" : "3vqQ6ASoNCmBSVXa9gBFlR",
      "is_local" : false,
      "is_playable" : true,
      "name" : "Bread of the World in Mercy Broken",
      "popularity" : 3,
      "preview_url" : "https://p.scdn.co/mp3-preview/2f0aaac193f3c39d7980a45772d5e4c645010725?cid=774b29d4f13844c495f206cafdad9c86",
      "track_number" : 20,
      "type" : "track",
      "uri" : "spotify:track:3vqQ6ASoNCmBSVXa9gBFlR"
    }, {
      "album" : {
        "album_type" : "album",
        "artists" : [ {
          "external_urls" : {
            "spotify" : "https://open.spotify.com/artist/2H1K3K1jTG7GI1nmu1zL0J"
          },
          "href" : "https://api.spotify.com/v1/artists/2H1K3K1jTG7GI1nmu1zL0J",
          "id" : "2H1K3K1jTG7GI1nmu1zL0J",
          "name" : "Bread of Stone",
          "type" : "artist",
          "uri" : "spotify:artist:2H1K3K1jTG7GI1nmu1zL0J"
        } ],
        "external_urls" : {
          "spotify" : "https://open.spotify.com/album/3a5dZFFCzzSCtRpyp2wk9H"
        },
        "href" : "https://api.spotify.com/v1/albums/3a5dZFFCzzSCtRpyp2wk9H",
        "id" : "3a5dZFFCzzSCtRpyp2wk9H",
        "images" : [ {
          "height" : 640,
          "url" : "https://i.scdn.co/image/ab67616d0000b27387eb58c9d2d4b6c624194bd0",
          "width" : 640
        }, {
          "height" : 300,
          "url" : "https://i.scdn.co/image/ab67616d00001e0287eb58c9d2d4b6c624194bd0",
          "width" : 300
        }, {
          "height" : 64,
          "url" : "https://i.scdn.co/image/ab67616d0000485187eb58c9d2d4b6c624194bd0",
          "width" : 64
        } ],
        "name" : "The Real Life (Deluxe Edition)",
        "release_date" : "2014-03-18",
        "release_date_precision" : "day",
        "total_tracks" : 15,
        "type" : "album",
        "uri" : "spotify:album:3a5dZFFCzzSCtRpyp2wk9H"
      },
      "artists" : [ {
        "external_urls" : {
          "spotify" : "https://open.spotify.com/artist/2H1K3K1jTG7GI1nmu1zL0J"
        },
        "href" : "https://api.spotify.com/v1/artists/2H1K3K1jTG7GI1nmu1zL0J",
        "id" : "2H1K3K1jTG7GI1nmu1zL0J",
        "name" : "Bread of Stone",
        "type" : "artist",
        "uri" : "spotify:artist:2H1K3K1jTG7GI1nmu1zL0J"
      } ],
      "disc_number" : 1,
      "duration_ms" : 236760,
      "explicit" : false,
      "external_ids" : {
        "isrc" : "USFUK1400002"
      },
      "external_urls" : {
        "spotify" : "https://open.spotify.com/track/76mwQDKZ665KOby63VQZND"
      },
      "href" : "https://api.spotify.com/v1/tracks/76mwQDKZ665KOby63VQZND",
      "id" : "76mwQDKZ665KOby63VQZND",
      "is_local" : false,
      "is_playable" : true,
      "name" : "Goodbye World",
      "popularity" : 3,
      "preview_url" : "https://p.scdn.co/mp3-preview/f2419c2f2c034bb9e3ce44f911cc850189efb279?cid=774b29d4f13844c495f206cafdad9c86",
      "track_number" : 12,
      "type" : "track",
      "uri" : "spotify:track:76mwQDKZ665KOby63VQZND"
    }, {
      "album" : {
        "album_type" : "compilation",
        "artists" : [ {
          "external_urls" : {
            "spotify" : "https://open.spotify.com/artist/0LyfQWJT6nXafLPZqxe9Of"
          },
          "href" : "https://api.spotify.com/v1/artists/0LyfQWJT6nXafLPZqxe9Of",
          "id" : "0LyfQWJT6nXafLPZqxe9Of",
          "name" : "Various Artists",
          "type" : "artist",
          "uri" : "spotify:artist:0LyfQWJT6nXafLPZqxe9Of"
        } ],
        "external_urls" : {
          "spotify" : "https://open.spotify.com/album/7oeYh3z9Ivj0wBAAEBfIpu"
        },
        "href" : "https://api.spotify.com/v1/albums/7oeYh3z9Ivj0wBAAEBfIpu",
        "id" : "7oeYh3z9Ivj0wBAAEBfIpu",
        "images" : [ {
          "height" : 640,
          "url" : "https://i.scdn.co/image/ab67616d0000b273b5999d02528ced54567bd161",
          "width" : 640
        }, {
          "height" : 300,
          "url" : "https://i.scdn.co/image/ab67616d00001e02b5999d02528ced54567bd161",
          "width" : 300
        }, {
          "height" : 64,
          "url" : "https://i.scdn.co/image/ab67616d00004851b5999d02528ced54567bd161",
          "width" : 64
        } ],
        "name" : "Under One Heaven (50 Tracks of World Religous Music - Choral & Instrumental)",
        "release_date" : "2013-11-01",
        "release_date_precision" : "day",
        "total_tracks" : 51,
        "type" : "album",
        "uri" : "spotify:album:7oeYh3z9Ivj0wBAAEBfIpu"
      },
      "artists" : [ {
        "external_urls" : {
          "spotify" : "https://open.spotify.com/artist/3wmRePj29UiO67DLHObveu"
        },
        "href" : "https://api.spotify.com/v1/artists/3wmRePj29UiO67DLHObveu",
        "id" : "3wmRePj29UiO67DLHObveu",
        "name" : "Covita",
        "type" : "artist",
        "uri" : "spotify:artist:3wmRePj29UiO67DLHObveu"
      } ],
      "disc_number" : 1,
      "duration_ms" : 200108,
      "explicit" : false,
      "external_ids" : {
        "isrc" : "QMDA61374299"
      },
      "external_urls" : {
        "spotify" : "https://open.spotify.com/track/42mMDwz9VIFg0Fn3eSXObK"
      },
      "href" : "https://api.spotify.com/v1/tracks/42mMDwz9VIFg0Fn3eSXObK",
      "id" : "42mMDwz9VIFg0Fn3eSXObK",
      "is_local" : false,
      "is_playable" : true,
      "name" : "Bread of Life - Havlan Lahma (Aramaic Mantra from the Jesus Prayer)",
      "popularity" : 1,
      "preview_url" : "https://p.scdn.co/mp3-preview/8d915830e28f09a1067d3320f22b78bd28d7de4a?cid=774b29d4f13844c495f206cafdad9c86",
      "track_number" : 40,
      "type" : "track",
      "uri" : "spotify:track:42mMDwz9VIFg0Fn3eSXObK"
    }, {
      "album" : {
        "album_type" : "album",
        "artists" : [ {
          "external_urls" : {
            "spotify" : "https://open.spotify.com/artist/3hZVJBHSt8O9xdtm0Nuk6B"
          },
          "href" : "https://api.spotify.com/v1/artists/3hZVJBHSt8O9xdtm0Nuk6B",
          "id" : "3hZVJBHSt8O9xdtm0Nuk6B",
          "name" : "Stephen McNeill",
          "type" : "artist",
          "uri" : "spotify:artist:3hZVJBHSt8O9xdtm0Nuk6B"
        } ],
        "external_urls" : {
          "spotify" : "https://open.spotify.com/album/4yPqzK6rkKavA7nCrwtM28"
        },
        "href" : "https://api.spotify.com/v1/albums/4yPqzK6rkKavA7nCrwtM28",
        "id" : "4yPqzK6rkKavA7nCrwtM28",
        "images" : [ {
          "height" : 640,
          "url" : "https://i.scdn.co/image/ab67616d0000b2738db6bbdce1c2abe3686d0dfd",
          "width" : 640
        }, {
          "height" : 300,
          "url" : "https://i.scdn.co/image/ab67616d00001e028db6bbdce1c2abe3686d0dfd",
          "width" : 300
        }, {
          "height" : 64,
          "url" : "https://i.scdn.co/image/ab67616d000048518db6bbdce1c2abe3686d0dfd",
          "width" : 64
        } ],
        "name" : "Centerpiece: Songs of Gospel Community",
        "release_date" : "2018-01-05",
        "release_date_precision" : "day",
        "total_tracks" : 12,
        "type" : "album",
        "uri" : "spotify:album:4yPqzK6rkKavA7nCrwtM28"
      },
      "artists" : [ {
        "external_urls" : {
          "spotify" : "https://open.spotify.com/artist/3hZVJBHSt8O9xdtm0Nuk6B"
        },
        "href" : "https://api.spotify.com/v1/artists/3hZVJBHSt8O9xdtm0Nuk6B",
        "id" : "3hZVJBHSt8O9xdtm0Nuk6B",
        "name" : "Stephen McNeill",
        "type" : "artist",
        "uri" : "spotify:artist:3hZVJBHSt8O9xdtm0Nuk6B"
      } ],
      "disc_number" : 1,
      "duration_ms" : 190864,
      "explicit" : false,
      "external_ids" : {
        "isrc" : "QZAPG1821644"
      },
      "external_urls" : {
        "spotify" : "https://open.spotify.com/track/5kLS7E0vgxl5p9YuOLqwYZ"
      },
      "href" : "https://api.spotify.com/v1/tracks/5kLS7E0vgxl5p9YuOLqwYZ",
      "id" : "5kLS7E0vgxl5p9YuOLqwYZ",
      "is_local" : false,
      "is_playable" : true,
      "name" : "Bread of the World",
      "popularity" : 0,
      "preview_url" : "https://p.scdn.co/mp3-preview/8df58981c0538b5eaa9b31e0a4cc6614522fb46e?cid=774b29d4f13844c495f206cafdad9c86",
      "track_number" : 8,
      "type" : "track",
      "uri" : "spotify:track:5kLS7E0vgxl5p9YuOLqwYZ"
    }, {
      "album" : {
        "album_type" : "album",
        "artists" : [ {
          "external_urls" : {
            "spotify" : "https://open.spotify.com/artist/6CGtae462xqUIz8mV0d9CD"
          },
          "href" : "https://api.spotify.com/v1/artists/6CGtae462xqUIz8mV0d9CD",
          "id" : "6CGtae462xqUIz8mV0d9CD",
          "name" : "Karen Fasoldt",
          "type" : "artist",
          "uri" : "spotify:artist:6CGtae462xqUIz8mV0d9CD"
        } ],
        "external_urls" : {
          "spotify" : "https://open.spotify.com/album/3yxbPcBiexTm0jaXQghmPy"
        },
        "href" : "https://api.spotify.com/v1/albums/3yxbPcBiexTm0jaXQghmPy",
        "id" : "3yxbPcBiexTm0jaXQghmPy",
        "images" : [ {
          "height" : 640,
          "url" : "https://i.scdn.co/image/ab67616d0000b273e0ccf543665407a12cc88c72",
          "width" : 640
        }, {
          "height" : 300,
          "url" : "https://i.scdn.co/image/ab67616d00001e02e0ccf543665407a12cc88c72",
          "width" : 300
        }, {
          "height" : 64,
          "url" : "https://i.scdn.co/image/ab67616d00004851e0ccf543665407a12cc88c72",
          "width" : 64
        } ],
        "name" : "Trilogy, Vol. 1 (Of Sacred Music for Religious Programing)",
        "release_date" : "2007",
        "release_date_precision" : "year",
        "total_tracks" : 16,
        "type" : "album",
        "uri" : "spotify:album:3yxbPcBiexTm0jaXQghmPy"
      },
      "artists" : [ {
        "external_urls" : {
          "spotify" : "https://open.spotify.com/artist/6CGtae462xqUIz8mV0d9CD"
        },
        "href" : "https://api.spotify.com/v1/artists/6CGtae462xqUIz8mV0d9CD",
        "id" : "6CGtae462xqUIz8mV0d9CD",
        "name" : "Karen Fasoldt",
        "type" : "artist",
        "uri" : "spotify:artist:6CGtae462xqUIz8mV0d9CD"
      } ],
      "disc_number" : 1,
      "duration_ms" : 54066,
      "explicit" : false,
      "external_ids" : {
        "isrc" : "DEU470002121"
      },
      "external_urls" : {
        "spotify" : "https://open.spotify.com/track/1n4TQiysPSh3qSUEfes5TS"
      },
      "href" : "https://api.spotify.com/v1/tracks/1n4TQiysPSh3qSUEfes5TS",
      "id" : "1n4TQiysPSh3qSUEfes5TS",
      "is_local" : false,
      "is_playable" : true,
      "name" : "Bread of the World",
      "popularity" : 0,
      "preview_url" : "https://p.scdn.co/mp3-preview/3554eafe3707eb8474481ae71a101964f7dc21a4?cid=774b29d4f13844c495f206cafdad9c86",
      "track_number" : 16,
      "type" : "track",
      "uri" : "spotify:track:1n4TQiysPSh3qSUEfes5TS"
    }, {
      "album" : {
        "album_type" : "album",
        "artists" : [ {
          "external_urls" : {
            "spotify" : "https://open.spotify.com/artist/5zN0p884rqUfd0fG3LtVGc"
          },
          "href" : "https://api.spotify.com/v1/artists/5zN0p884rqUfd0fG3LtVGc",
          "id" : "5zN0p884rqUfd0fG3LtVGc",
          "name" : "Cardiphonia Music",
          "type" : "artist",
          "uri" : "spotify:artist:5zN0p884rqUfd0fG3LtVGc"
        } ],
        "external_urls" : {
          "spotify" : "https://open.spotify.com/album/5XPhF0A6kPxuq1FmBJXHAW"
        },
        "href" : "https://api.spotify.com/v1/albums/5XPhF0A6kPxuq1FmBJXHAW",
        "id" : "5XPhF0A6kPxuq1FmBJXHAW",
        "images" : [ {
          "height" : 640,
          "url" : "https://i.scdn.co/image/ab67616d0000b273028f883c57fe013dd3661239",
          "width" : 640
        }, {
          "height" : 300,
          "url" : "https://i.scdn.co/image/ab67616d00001e02028f883c57fe013dd3661239",
          "width" : 300
        }, {
          "height" : 64,
          "url" : "https://i.scdn.co/image/ab67616d00004851028f883c57fe013dd3661239",
          "width" : 64
        } ],
        "name" : "Songs for the Lord's Supper",
        "release_date" : "2011-11-21",
        "release_date_precision" : "day",
        "total_tracks" : 24,
        "type" : "album",
        "uri" : "spotify:album:5XPhF0A6kPxuq1FmBJXHAW"
      },
      "artists" : [ {
        "external_urls" : {
          "spotify" : "https://open.spotify.com/artist/5zN0p884rqUfd0fG3LtVGc"
        },
        "href" : "https://api.spotify.com/v1/artists/5zN0p884rqUfd0fG3LtVGc",
        "id" : "5zN0p884rqUfd0fG3LtVGc",
        "name" : "Cardiphonia Music",
        "type" : "artist",
        "uri" : "spotify:artist:5zN0p884rqUfd0fG3LtVGc"
      }, {
        "external_urls" : {
          "spotify" : "https://open.spotify.com/artist/2HVprGPTUdS5O0CwD53elK"
        },
        "href" : "https://api.spotify.com/v1/artists/2HVprGPTUdS5O0CwD53elK",
        "id" : "2HVprGPTUdS5O0CwD53elK",
        "name" : "Clint Wells",
        "type" : "artist",
        "uri" : "spotify:artist:2HVprGPTUdS5O0CwD53elK"
      } ],
      "disc_number" : 1,
      "duration_ms" : 121321,
      "explicit" : false,
      "external_ids" : {
        "isrc" : "QZDA81810772"
      },
      "external_urls" : {
        "spotify" : "https://open.spotify.com/track/7HX3RZAKZUBtqae1VdTY6K"
      },
      "href" : "https://api.spotify.com/v1/tracks/7HX3RZAKZUBtqae1VdTY6K",
      "id" : "7HX3RZAKZUBtqae1VdTY6K",
      "is_local" : false,
      "is_playable" : true,
      "name" : "Bread of the World",
      "popularity" : 0,
      "preview_url" : "https://p.scdn.co/mp3-preview/8ef0ae4b0337b8c3301f908207b5ef320d1ca92c?cid=774b29d4f13844c495f206cafdad9c86",
      "track_number" : 8,
      "type" : "track",
      "uri" : "spotify:track:7HX3RZAKZUBtqae1VdTY6K"
    }, {
      "album" : {
        "album_type" : "album",
        "artists" : [ {
          "external_urls" : {
            "spotify" : "https://open.spotify.com/artist/0Nca7W3ogv4nv9jWbv92rQ"
          },
          "href" : "https://api.spotify.com/v1/artists/0Nca7W3ogv4nv9jWbv92rQ",
          "id" : "0Nca7W3ogv4nv9jWbv92rQ",
          "name" : "Discover Worship",
          "type" : "artist",
          "uri" : "spotify:artist:0Nca7W3ogv4nv9jWbv92rQ"
        } ],
        "external_urls" : {
          "spotify" : "https://open.spotify.com/album/2mgTMYyJolNrHQeySo9KIK"
        },
        "href" : "https://api.spotify.com/v1/albums/2mgTMYyJolNrHQeySo9KIK",
        "id" : "2mgTMYyJolNrHQeySo9KIK",
        "images" : [ {
          "height" : 640,
          "url" : "https://i.scdn.co/image/ab67616d0000b273016c8def46462905b8aa1d35",
          "width" : 640
        }, {
          "height" : 300,
          "url" : "https://i.scdn.co/image/ab67616d00001e02016c8def46462905b8aa1d35",
          "width" : 300
        }, {
          "height" : 64,
          "url" : "https://i.scdn.co/image/ab67616d00004851016c8def46462905b8aa1d35",
          "width" : 64
        } ],
        "name" : "Voices in Worship: Arise, Shine",
        "release_date" : "2016-07-19",
        "release_date_precision" : "day",
        "total_tracks" : 10,
        "type" : "album",
        "uri" : "spotify:album:2mgTMYyJolNrHQeySo9KIK"
      },
      "artists" : [ {
        "external_urls" : {
          "spotify" : "https://open.spotify.com/artist/0Nca7W3ogv4nv9jWbv92rQ"
        },
        "href" : "https://api.spotify.com/v1/artists/0Nca7W3ogv4nv9jWbv92rQ",
        "id" : "0Nca7W3ogv4nv9jWbv92rQ",
        "name" : "Discover Worship",
        "type" : "artist",
        "uri" : "spotify:artist:0Nca7W3ogv4nv9jWbv92rQ"
      } ],
      "disc_number" : 1,
      "duration_ms" : 129026,
      "explicit" : false,
      "external_ids" : {
        "isrc" : "QM7WK1600244"
      },
      "external_urls" : {
        "spotify" : "https://open.spotify.com/track/1PGVA2EP80auhuPMk86koQ"
      },
      "href" : "https://api.spotify.com/v1/tracks/1PGVA2EP80auhuPMk86koQ",
      "id" : "1PGVA2EP80auhuPMk86koQ",
      "is_local" : false,
      "is_playable" : true,
      "name" : "Bread of the World",
      "popularity" : 0,
      "preview_url" : "https://p.scdn.co/mp3-preview/b715fbc6f97e524a25ca45ca5b8ca9525e5828fa?cid=774b29d4f13844c495f206cafdad9c86",
      "track_number" : 5,
      "type" : "track",
      "uri" : "spotify:track:1PGVA2EP80auhuPMk86koQ"
    }, {
      "album" : {
        "album_type" : "album",
        "artists" : [ {
          "external_urls" : {
            "spotify" : "https://open.spotify.com/artist/0Nca7W3ogv4nv9jWbv92rQ"
          },
          "href" : "https://api.spotify.com/v1/artists/0Nca7W3ogv4nv9jWbv92rQ",
          "id" : "0Nca7W3ogv4nv9jWbv92rQ",
          "name" : "Discover Worship",
          "type" : "artist",
          "uri" : "spotify:artist:0Nca7W3ogv4nv9jWbv92rQ"
        } ],
        "external_urls" : {
          "spotify" : "https://open.spotify.com/album/57WTy0elfY0jdSEIsZhn7k"
        },
        "href" : "https://api.spotify.com/v1/albums/57WTy0elfY0jdSEIsZhn7k",
        "id" : "57WTy0elfY0jdSEIsZhn7k",
        "images" : [ {
          "height" : 640,
          "url" : "https://i.scdn.co/image/ab67616d0000b27342482a4650c957cb9caf2c27",
          "width" : 640
        }, {
          "height" : 300,
          "url" : "https://i.scdn.co/image/ab67616d00001e0242482a4650c957cb9caf2c27",
          "width" : 300
        }, {
          "height" : 64,
          "url" : "https://i.scdn.co/image/ab67616d0000485142482a4650c957cb9caf2c27",
          "width" : 64
        } ],
        "name" : "Voices in Worship: Creator God",
        "release_date" : "2016-06-09",
        "release_date_precision" : "day",
        "total_tracks" : 10,
        "type" : "album",
        "uri" : "spotify:album:57WTy0elfY0jdSEIsZhn7k"
      },
      "artists" : [ {
        "external_urls" : {
          "spotify" : "https://open.spotify.com/artist/0Nca7W3ogv4nv9jWbv92rQ"
        },
        "href" : "https://api.spotify.com/v1/artists/0Nca7W3ogv4nv9jWbv92rQ",
        "id" : "0Nca7W3ogv4nv9jWbv92rQ",
        "name" : "Discover Worship",
        "type" : "artist",
        "uri" : "spotify:artist:0Nca7W3ogv4nv9jWbv92rQ"
      } ],
      "disc_number" : 1,
      "duration_ms" : 165066,
      "explicit" : false,
      "external_ids" : {
        "isrc" : "QM7WK1600119"
      },
      "external_urls" : {
        "spotify" : "https://open.spotify.com/track/0rnLmscItb7rHLO53sTsbe"
      },
      "href" : "https://api.spotify.com/v1/tracks/0rnLmscItb7rHLO53sTsbe",
      "id" : "0rnLmscItb7rHLO53sTsbe",
      "is_local" : false,
      "is_playable" : true,
      "name" : "Bread of the World",
      "popularity" : 0,
      "preview_url" : "https://p.scdn.co/mp3-preview/05ce42f42e78d75d8db3a0245d34bd53a97644aa?cid=774b29d4f13844c495f206cafdad9c86",
      "track_number" : 9,
      "type" : "track",
      "uri" : "spotify:track:0rnLmscItb7rHLO53sTsbe"
    }, {
      "album" : {
        "album_type" : "album",
        "artists" : [ {
          "external_urls" : {
            "spotify" : "https://open.spotify.com/artist/7lyDBM7UL9Yc9rlhKZUsYf"
          },
          "href" : "https://api.spotify.com/v1/artists/7lyDBM7UL9Yc9rlhKZUsYf",
          "id" : "7lyDBM7UL9Yc9rlhKZUsYf",
          "name" : "Belfast Cathedral Choir",
          "type" : "artist",
          "uri" : "spotify:artist:7lyDBM7UL9Yc9rlhKZUsYf"
        } ],
        "external_urls" : {
          "spotify" : "https://open.spotify.com/album/7kAJoBk6TSmeoHU17jIaIS"
        },
        "href" : "https://api.spotify.com/v1/albums/7kAJoBk6TSmeoHU17jIaIS",
        "id" : "7kAJoBk6TSmeoHU17jIaIS",
        "images" : [ {
          "height" : 640,
          "url" : "https://i.scdn.co/image/ab67616d0000b273b2e4ca77e4c2bdc1a34651da",
          "width" : 640
        }, {
          "height" : 300,
          "url" : "https://i.scdn.co/image/ab67616d00001e02b2e4ca77e4c2bdc1a34651da",
          "width" : 300
        }, {
          "height" : 64,
          "url" : "https://i.scdn.co/image/ab67616d00004851b2e4ca77e4c2bdc1a34651da",
          "width" : 64
        } ],
        "name" : "Complete New English Hymnal Vol. 22",
        "release_date" : "2005",
        "release_date_precision" : "year",
        "total_tracks" : 26,
        "type" : "album",
        "uri" : "spotify:album:7kAJoBk6TSmeoHU17jIaIS"
      },
      "artists" : [ {
        "external_urls" : {
          "spotify" : "https://open.spotify.com/artist/7lyDBM7UL9Yc9rlhKZUsYf"
        },
        "href" : "https://api.spotify.com/v1/artists/7lyDBM7UL9Yc9rlhKZUsYf",
        "id" : "7lyDBM7UL9Yc9rlhKZUsYf",
        "name" : "Belfast Cathedral Choir",
        "type" : "artist",
        "uri" : "spotify:artist:7lyDBM7UL9Yc9rlhKZUsYf"
      } ],
      "disc_number" : 1,
      "duration_ms" : 99760,
      "explicit" : false,
      "external_ids" : {
        "isrc" : "GBXUX0872218"
      },
      "external_urls" : {
        "spotify" : "https://open.spotify.com/track/1I7UuRsHarUiGyF6VaAevF"
      },
      "href" : "https://api.spotify.com/v1/tracks/1I7UuRsHarUiGyF6VaAevF",
      "id" : "1I7UuRsHarUiGyF6VaAevF",
      "is_local" : false,
      "is_playable" : true,
      "name" : "Bread of the World",
      "popularity" : 0,
      "preview_url" : "https://p.scdn.co/mp3-preview/a89a2fedc88d0057d7e7fdf839f3380182587e7a?cid=774b29d4f13844c495f206cafdad9c86",
      "track_number" : 18,
      "type" : "track",
      "uri" : "spotify:track:1I7UuRsHarUiGyF6VaAevF"
    } ],
    "limit" : 10,
    "next" : "https://api.spotify.com/v1/search?query=Bread+of+the+World&type=track&market=US&offset=15&limit=10",
    "offset" : 5,
    "previous" : "https://api.spotify.com/v1/search?query=Bread+of+the+World&type=track&market=US&offset=0&limit=10",
    "total" : 59
  }
}