{
  "tracks" : {
    "href" : "https://api.spotify.com/v1/search?query=Ye+Servants+of+the+Lord&type=track&market=US&offset=5&limit=10",
    "items" : [ {
      "album" : {
        "album_type" : "album",
        "artists" : [ {
          "external_urls" : {
            "spotify" : "https://open.spotify.com/artist/7rluHfxLiKAkAoMkuE1F8U"
          },
          "href" : "https://api.spotify.com/v1/artists/7rluHfxLiKAkAoMkuE1F8U",
          "id" : "7rluHfxLiKAkAoMkuE1F8U",
          "name" : "St. Michael's Singers",
          "type" : "artist",
          "uri" : "spotify:artist:7rluHfxLiKAkAoMkuE1F8U"
        } ],
        "external_urls" : {
          "spotify" : "https://open.spotify.com/album/6B0rBsZWacLCyjiJtNqc5m"
        },
        "href" : "https://api.spotify.com/v1/albums/6B0rBsZWacLCyjiJtNqc5m",
        "id" : "6B0rBsZWacLCyjiJtNqc5m",
        "images" : [ {
          "height" : 640,
          "url" : "https://i.scdn.co/image/ab67616d0000b2730e2cedf8573dcd811cb590b7",
          "width" : 640
        }, {
          "height" : 300,
          "url" : "https://i.scdn.co/image/ab67616d00001e020e2cedf8573dcd811cb590b7",
          "width" : 300
        }, {
          "height" : 64,
          "url" : "https://i.scdn.co/image/ab67616d000048510e2cedf8573dcd811cb590b7",
          "width" : 64
        } ],
        "name" : "The Hymn Makers: Charles Wesley (Vol. 2, Ye Servants of God)",
        "release_date" : "1996",
        "release_date_precision" : "year",
        "total_tracks" : 14,
        "type" : "album",
        "uri" : "spotify:album:6B0rBsZWacLCyjiJtNqc5m"
      },
      "artists" : [ {
        "external_urls" : {
          "spotify" : "https://open.spotify.com/artist/7rluHfxLiKAkAoMkuE1F8U"
        },
        "href" : "https://api.spotify.com/v1/artists/7rluHfxLiKAkAoMkuE1F8U",
        "id" : "7rluHfxLiKAkAoMkuE1F8U",
        "name" : "St. Michael's Singers",
        "type" : "artist",
        "uri" : "spotify:artist:7rluHfxLiKAkAoMkuE1F8U"
      } ],
      "disc_number" : 1,
      "duration_ms" : 175866,
      "explicit" : false,
      "external_ids" : {
        "isrc" : "GBBTM9689104"
      },
      "external_urls" : {
        "spotify" : "https://open.spotify.com/track/6liKJQQEt0bpZJW1nRSzc9"
      },
      "href" : "https://api.spotify.com/v1/tracks/6liKJQQEt0bpZJW1nRSzc9",
      "id" : "6liKJQQEt0bpZJW1nRSzc9",
      "is_local" : false,
      "is_playable" : true,
      "name" : "Lord, We Believe To Us And Ours",
      "popularity" : 4,
      "preview_url" : "https://p.scdn.co/mp3-preview/7396062e7bf0fb695c9166d3f74e7dad4a1cd31f?cid=774b29d4f13844c495f206cafdad9c86",
      "track_number" : 4,
      "type" : "track",
      "uri" : "spotify:track:6liKJQQEt0bpZJW1nRSzc9"
    }, {
      "album" : {
        "album_type" : "album",
        "artists" : [ {
          "external_urls" : {
            "spotify" : "https://open.spotify.com/artist/1Mugmuqcn7dEzGa2VikGrl"
          },
          "href" : "https://api.spotify.com/v1/artists/1Mugmuqcn7dEzGa2VikGrl",
          "id" : "1Mugmuqcn7dEzGa2VikGrl",
          "name" : "Gloucester Cathedral Choir",
          "type" : "artist",
          "uri" : "spotify:artist:1Mugmuqcn7dEzGa2VikGrl"
        }, {
          "external_urls" : {
            "spotify" : "https://open.spotify.com/artist/5WqF10avzOGzcTd6s3rSDc"
          },
          "href" : "https://api.spotify.com/v1/artists/5WqF10avzOGzcTd6s3rSDc",
          "id" : "5WqF10avzOGzcTd6s3rSDc",
          "name" : "John Sanders",
          "type" : "artist",
          "uri" : "spotify:artist:5WqF10avzOGzcTd6s3rSDc"
        }, {
          "external_urls" : {
            "spotify" : "https://open.spotify.com/artist/7CsaFdTwn3LbXR2fUY4xTH"
          },
          "href" : "https://api.spotify.com/v1/artists/7CsaFdTwn3LbXR2fUY4xTH",
          "id" : "7CsaFdTwn3LbXR2fUY4xTH",
          "name" : "Mark Lee",
          "type" : "artist",
          "uri" : "spotify:artist:7CsaFdTwn3LbXR2fUY4xTH"
        } ],
        "external_urls" : {
          "spotify" : "https://open.spotify.com/album/3NbZusDzoD4UfFVWKmyQdo"
        },
        "href" : "https://api.spotify.com/v1/albums/3NbZusDzoD4UfFVWKmyQdo",
        "id" : "3NbZusDzoD4UfFVWKmyQdo",
        "images" : [ {
          "height" : 640,
          "url" : "https://i.scdn.co/image/ab67616d0000b273d8014403e5a92b90cb25ca4b",
          "width" : 640
        }, {
          "height" : 300,
          "url" : "https://i.scdn.co/image/ab67616d00001e02d8014403e5a92b90cb25ca4b",
          "width" : 300
        }, {
          "height" : 64,
          "url" : "https://i.scdn.co/image/ab67616d00004851d8014403e5a92b90cb25ca4b",
          "width" : 64
        } ],
        "name" : "Psalms of David Vol 5: \"Praise the Lord Ye Servants\"",
        "release_date" : "1991-10-01",
        "release_date_precision" : "day",
        "total_tracks" : 9,
        "type" : "album",
        "uri" : "spotify:album:3NbZusDzoD4UfFVWKmyQdo"
      },
      "artists" : [ {
        "external_urls" : {
          "spotify" : "https://open.spotify.com/artist/1jVMB6utiFUetNovheSDC2"
        },
        "href" : "https://api.spotify.com/v1/artists/1jVMB6utiFUetNovheSDC2",
        "id" : "1jVMB6utiFUetNovheSDC2",
        "name" : "Woods/W Parratt/J Booth/S Matthews",
        "type" : "artist",
        "uri" : "spotify:artist:1jVMB6utiFUetNovheSDC2"
      }, {
        "external_urls" : {
          "spotify" : "https://open.spotify.com/artist/3yZ4jPdiDawJm0wI3ljSwW"
        },
        "href" : "https://api.spotify.com/v1/artists/3yZ4jPdiDawJm0wI3ljSwW",
        "id" : "3yZ4jPdiDawJm0wI3ljSwW",
        "name" : "Gloucester Cathedral Choir, John Sanders & Mark Lee",
        "type" : "artist",
        "uri" : "spotify:artist:3yZ4jPdiDawJm0wI3ljSwW"
      } ],
      "disc_number" : 1,
      "duration_ms" : 491826,
      "explicit" : false,
      "external_ids" : {
        "isrc" : "GBXUX0838707"
      },
      "external_urls" : {
        "spotify" : "https://open.spotify.com/track/48NVUOoDPTSeXGtEMY3nyk"
      },
      "href" : "https://api.spotify.com/v1/tracks/48NVUOoDPTSeXGtEMY3nyk",
      "id" : "48NVUOoDPTSeXGtEMY3nyk",
      "is_local" : false,
      "is_playable" : true,
      "name" : "Psalm 119 (Verses 1-32): Blessed Are Those That Are Undefiled",
      "popularity" : 4,
      "preview_url" : "https://p.scdn.co/mp3-preview/8bc24a5dad8ac653cae9ec36a612e2d8bc0ac4cd?cid=774b29d4f13844c495f206cafdad9c86",
      "track_number" : 7,
      "type" : "track",
      "uri" : "spotify:track:48NVUOoDPTSeXGtEMY3nyk"
    }, {
      "album" : {
        "album_type" : "album",
        "artists" : [ {
          "external_urls" : {
            "spotify" : "https://open.spotify.com/artist/08dsaoVeGLJhTdUCgiFIUJ"
          },
          "href" : "https://api.spotify.com/v1/artists/08dsaoVeGLJhTdUCgiFIUJ",
          "id" : "08dsaoVeGLJhTdUCgiFIUJ",
          "name" : "Kevin Mayhew Ltd",
          "type" : "artist",
          "uri" : "spotify:artist:08dsaoVeGLJhTdUCgiFIUJ"
        } ],
        "external_urls" : {
          "spotify" : "https://open.spotify.com/album/6dgskM7GW9Y4L0yNGa3BFq"
        },
        "href" : "https://api.spotify.com/v1/albums/6dgskM7GW9Y4L0yNGa3BFq",
        "id" : "6dgskM7GW9Y4L0yNGa3BFq",
        "images" : [ {
          "height" : 640,
          "url" : "https://i.scdn.co/image/ab67616d0000b2731d1603f724b55f5d00d4b398",
          "width" : 640
        }, {
          "height" : 300,
          "url" : "https://i.scdn.co/image/ab67616d00001e021d1603f724b55f5d00d4b398",
          "width" : 300
        }, {
          "height" : 64,
          "url" : "https://i.scdn.co/image/ab67616d000048511d1603f724b55f5d00d4b398",
          "width" : 64
        } ],
        "name" : "No Organist? No Problem! Cd 7",
        "release_date" : "2002-04-15",
        "release_date_precision" : "day",
        "total_tracks" : 20,
        "type" : "album",
        "uri" : "spotify:album:6dgskM7GW9Y4L0yNGa3BFq"
      },
      "artists" : [ {
        "external_urls" : {
          "spotify" : "https://open.spotify.com/artist/08dsaoVeGLJhTdUCgiFIUJ"
        },
        "href" : "https://api.spotify.com/v1/artists/08dsaoVeGLJhTdUCgiFIUJ",
        "id" : "08dsaoVeGLJhTdUCgiFIUJ",
        "name" : "Kevin Mayhew Ltd",
        "type" : "artist",
        "uri" : "spotify:artist:08dsaoVeGLJhTdUCgiFIUJ"
      } ],
      "disc_number" : 1,
      "duration_ms" : 125946,
      "explicit" : false,
      "external_ids" : {
        "isrc" : "TCAAY1197933"
      },
      "external_urls" : {
        "spotify" : "https://open.spotify.com/track/7LGkhyEfOoCCkYQbwe5htr"
      },
      "href" : "https://api.spotify.com/v1/tracks/7LGkhyEfOoCCkYQbwe5htr",
      "id" : "7LGkhyEfOoCCkYQbwe5htr",
      "is_local" : false,
      "is_playable" : true,
      "name" : "Ye Servants of the Lord",
      "popularity" : 0,
      "preview_url" : "https://p.scdn.co/mp3-preview/247a9b2f6009f225bc27c7fd519429c3ba3eed9a?cid=774b29d4f13844c495f206cafdad9c86",
      "track_number" : 20,
      "type" : "track",
      "uri" : "spotify:track:7LGkhyEfOoCCkYQbwe5htr"
    }, {
      "album" : {
        "album_type" : "album",
        "artists" : [ {
          "external_urls" : {
            "spotify" : "https://open.spotify.com/artist/68mFvZEEi8y6EoAQOoumvd"
          },
          "href" : "https://api.spotify.com/v1/artists/68mFvZEEi8y6EoAQOoumvd",
          "id" : "68mFvZEEi8y6EoAQOoumvd",
          "name" : "Westmont College Worship Team",
          "type" : "artist",
          "uri" : "spotify:artist:68mFvZEEi8y6EoAQOoumvd"
        } ],
        "external_urls" : {
          "spotify" : "https://open.spotify.com/album/08Sf73aBnzyjCIxQ50nVME"
        },
        "href" : "https://api.spotify.com/v1/albums/08Sf73aBnzyjCIxQ50nVME",
        "id" : "08Sf73aBnzyjCIxQ50nVME",
        "images" : [ {
          "height" : 640,
          "url" : "https://i.scdn.co/image/ab67616d0000b273e0b240a0c35d5df43b14280c",
          "width" : 640
        }, {
          "height" : 300,
          "url" : "https://i.scdn.co/image/ab67616d00001e02e0b240a0c35d5df43b14280c",
          "width" : 300
        }, {
          "height" : 64,
          "url" : "https://i.scdn.co/image/ab67616d00004851e0b240a0c35d5df43b14280c",
          "width" : 64
        } ],
        "name" : "As It Is in Heaven",
        "release_date" : "2011-05-01",
        "release_date_precision" : "day",
        "total_tracks" : 32,
        "type" : "album",
        "uri" : "spotify:album:08Sf73aBnzyjCIxQ50nVME"
      },
      "artists" : [ {
        "external_urls" : {
          "spotify" : "https://open.spotify.com/artist/0ZX9ZqnA2gCiXgoSIabkie"
        },
        "href" : "https://api.spotify.com/v1/artists/0ZX9ZqnA2gCiXgoSIabkie",
        "id" : "0ZX9ZqnA2gCiXgoSIabkie",
        "name" : "Westmont College Worship Team & Westmont College Choir",
        "type" : "artist",
        "uri" : "spotify:artist:0ZX9ZqnA2gCiXgoSIabkie"
      } ],
      "disc_number" : 1,
      "duration_ms" : 104573,
      "explicit" : false,
      "external_ids" : {
        "isrc" : "usx9p1242249"
      },
      "external_urls" : {
        "spotify" : "https://open.spotify.com/track/0I7mBmfGh5m8CPy3gtATqk"
      },
      "href" : "https://api.spotify.com/v1/tracks/0I7mBmfGh5m8CPy3gtATqk",
      "id" : "0I7mBmfGh5m8CPy3gtATqk",
      "is_local" : false,
      "is_playable" : true,
      "name" : "O Come Ye Servants of the Lord",
      "popularity" : 0,
      "preview_url" : "https://p.scdn.co/mp3-preview/8780034619fbdce23ebcb78f2287d57ea7e2fe5d?cid=774b29d4f13844c495f206cafdad9c86",
      "track_number" : 25,
      "type" : "track",
      "uri" : "spotify:track:0I7mBmfGh5m8CPy3gtATqk"
    }, {
      "album" : {
        "album_type" : "album",
        "artists" : [ {
          "external_urls" : {
            "spotify" : "https://open.spotify.com/artist/2yBx6D3naYFliw9EILEdgo"
          },
          "href" : "https://api.spotify.com/v1/artists/2yBx6D3naYFliw9EILEdgo",
          "id" : "2yBx6D3naYFliw9EILEdgo",
          "name" : "Imilonjikantu Choral Society",
          "type" : "artist",
          "uri" : "spotify:artist:2yBx6D3naYFliw9EILEdgo"
        } ],
        "external_urls" : {
          "spotify" : "https://open.spotify.com/album/2K9XcbrwZptiGUXzGADCA5"
        },
        "href" : "https://api.spotify.com/v1/albums/2K9XcbrwZptiGUXzGADCA5",
        "id" : "2K9XcbrwZptiGUXzGADCA5",
        "images" : [ {
          "height" : 640,
          "url" : "https://i.scdn.co/image/ab67616d0000b2733bf00fa3a014681df22f651a",
          "width" : 640
        }, {
          "height" : 300,
          "url" : "https://i.scdn.co/image/ab67616d00001e023bf00fa3a014681df22f651a",
          "width" : 300
        }, {
          "height" : 64,
          "url" : "https://i.scdn.co/image/ab67616d000048513bf00fa3a014681df22f651a",
          "width" : 64
        } ],
        "name" : "Songs of the People",
        "release_date" : "2000-02-19",
        "release_date_precision" : "day",
        "total_tracks" : 22,
        "type" : "album",
        "uri" : "spotify:album:2K9XcbrwZptiGUXzGADCA5"
      },
      "artists" : [ {
        "external_urls" : {
          "spotify" : "https://open.spotify.com/artist/2yBx6D3naYFliw9EILEdgo"
        },
        "href" : "https://api.spotify.com/v1/artists/2yBx6D3naYFliw9EILEdgo",
        "id" : "2yBx6D3naYFliw9EILEdgo",
        "name" : "Imilonjikantu Choral Society",
        "type" : "artist",
        "uri" : "spotify:artist:2yBx6D3naYFliw9EILEdgo"
      } ],
      "disc_number" : 1,
      "duration_ms" : 128453,
      "explicit" : false,
      "external_ids" : {
        "isrc" : "ZAA010000631"
      },
      "external_urls" : {
        "spotify" : "https://open.spotify.com/track/3IsgeRVE4Gh6ODycJcl7u7"
      },
      "href" : "https://api.spotify.com/v1/tracks/3IsgeRVE4Gh6ODycJcl7u7",
      "id" : "3IsgeRVE4Gh6ODycJcl7u7",
      "is_local" : false,
      "is_playable" : true,
      "name" : "O Come Ye Servants of the Lord",
      "popularity" : 0,
      "preview_url" : "https://p.scdn.co/mp3-preview/af02ba8d4cb54d1dd854780192e09d5cdc301155?cid=774b29d4f13844c495f206cafdad9c86",
      "track_number" : 13,
      "type" : "track",
      "uri" : "spotify:track:3IsgeRVE4Gh6ODycJcl7u7"
    }, {
      "album" : {
        "album_type" : "album",
        "artists" : [ {
          "external_urls" : {
            "spotify" : "https://open.spotify.com/artist/41N4x8ZUxk7JkHORj8M3bd"
          },
          "href" : "https://api.spotify.com/v1/artists/41N4x8ZUxk7JkHORj8M3bd",
          "id" : "41N4x8ZUxk7JkHORj8M3bd",
          "name" : "Concordia Publishing House",
          "type" : "artist",
          "uri" : "spotify:artist:41N4x8ZUxk7JkHORj8M3bd"
        } ],
        "external_urls" : {
          "spotify" : "https://open.spotify.com/album/30fH2rsQymrqLfoVJ5MWAP"
        },
        "href" : "https://api.spotify.com/v1/albums/30fH2rsQymrqLfoVJ5MWAP",
        "id" : "30fH2rsQymrqLfoVJ5MWAP",
        "images" : [ {
          "height" : 640,
          "url" : "https://i.scdn.co/image/ab67616d0000b273c3947e0801c35a83a5bbf725",
          "width" : 640
        }, {
          "height" : 300,
          "url" : "https://i.scdn.co/image/ab67616d00001e02c3947e0801c35a83a5bbf725",
          "width" : 300
        }, {
          "height" : 64,
          "url" : "https://i.scdn.co/image/ab67616d00004851c3947e0801c35a83a5bbf725",
          "width" : 64
        } ],
        "name" : "The Concordia Singer's Library-Choral 1",
        "release_date" : "2013-07-17",
        "release_date_precision" : "day",
        "total_tracks" : 20,
        "type" : "album",
        "uri" : "spotify:album:30fH2rsQymrqLfoVJ5MWAP"
      },
      "artists" : [ {
        "external_urls" : {
          "spotify" : "https://open.spotify.com/artist/41N4x8ZUxk7JkHORj8M3bd"
        },
        "href" : "https://api.spotify.com/v1/artists/41N4x8ZUxk7JkHORj8M3bd",
        "id" : "41N4x8ZUxk7JkHORj8M3bd",
        "name" : "Concordia Publishing House",
        "type" : "artist",
        "uri" : "spotify:artist:41N4x8ZUxk7JkHORj8M3bd"
      } ],
      "disc_number" : 1,
      "duration_ms" : 38562,
      "explicit" : false,
      "external_ids" : {
        "isrc" : "US3DF1312186"
      },
      "external_urls" : {
        "spotify" : "https://open.spotify.com/track/6VoE2Hug9AhfUB612aaZkL"
      },
      "href" : "https://api.spotify.com/v1/tracks/6VoE2Hug9AhfUB612aaZkL",
      "id" : "6VoE2Hug9AhfUB612aaZkL",
      "is_local" : false,
      "is_playable" : true,
      "name" : "O Come, Ye Servants of the Lord",
      "popularity" : 0,
      "preview_url" : "https://p.scdn.co/mp3-preview/2d495f85214f31a0f789dd64304e4a6eeec59128?cid=774b29d4f13844c495f206cafdad9c86",
      "track_number" : 16,
      "type" : "track",
      "uri" : "spotify:track:6VoE2Hug9AhfUB612aaZkL"
    }, {
      "album" : {
        "album_type" : "album",
        "artists" : [ {
          "external_urls" : {
            "spotify" : "https://open.spotify.com/artist/5zkmOYaXiNHBKxKnnd1rvl"
          },
          "href" : "https://api.spotify.com/v1/artists/5zkmOYaXiNHBKxKnnd1rvl",
          "id" : "5zkmOYaXiNHBKxKnnd1rvl",
          "name" : "John Keys",
          "type" : "artist",
          "uri" : "spotify:artist:5zkmOYaXiNHBKxKnnd1rvl"
        } ],
        "external_urls" : {
          "spotify" : "https://open.spotify.com/album/0umCTNzDH2lvUMe0K73BW9"
        },
        "href" : "https://api.spotify.com/v1/albums/0umCTNzDH2lvUMe0K73BW9",
        "id" : "0umCTNzDH2lvUMe0K73BW9",
        "images" : [ {
          "height" : 640,
          "url" : "https://i.scdn.co/image/ab67616d0000b2730697b36e8c8f18d6b190a79c",
          "width" : 640
        }, {
          "height" : 300,
          "url" : "https://i.scdn.co/image/ab67616d00001e020697b36e8c8f18d6b190a79c",
          "width" : 300
        }, {
          "height" : 64,
          "url" : "https://i.scdn.co/image/ab67616d000048510697b36e8c8f18d6b190a79c",
          "width" : 64
        } ],
        "name" : "Ultimate Hymn Organ Accompaniments, Vol. 3",
        "release_date" : "2013-04-09",
        "release_date_precision" : "day",
        "total_tracks" : 20,
        "type" : "album",
        "uri" : "spotify:album:0umCTNzDH2lvUMe0K73BW9"
      },
      "artists" : [ {
        "external_urls" : {
          "spotify" : "https://open.spotify.com/artist/5zkmOYaXiNHBKxKnnd1rvl"
        },
        "href" : "https://api.spotify.com/v1/artists/5zkmOYaXiNHBKxKnnd1rvl",
        "id" : "5zkmOYaXiNHBKxKnnd1rvl",
        "name" : "John Keys",
        "type" : "artist",
        "uri" : "spotify:artist:5zkmOYaXiNHBKxKnnd1rvl"
      } ],
      "disc_number" : 1,
      "duration_ms" : 126032,
      "explicit" : false,
      "external_ids" : {
        "isrc" : "GBKPL1354807"
      },
      "external_urls" : {
        "spotify" : "https://open.spotify.com/track/09htN6ynQcm5QFjfXkUKqh"
      },
      "href" : "https://api.spotify.com/v1/tracks/09htN6ynQcm5QFjfXkUKqh",
      "id" : "09htN6ynQcm5QFjfXkUKqh",
      "is_local" : false,
      "is_playable" : true,
      "name" : "Ye Servants of the Lord (Narenza) - Instrumental Version",
      "popularity" : 0,
      "preview_url" : "https://p.scdn.co/mp3-preview/a7e159dfaaf2ce3e65dc48aa6e09e5cdb301356a?cid=774b29d4f13844c495f206cafdad9c86",
      "track_number" : 20,
      "type" : "track",
      "uri" : "spotify:track:09htN6ynQcm5QFjfXkUKqh"
    }, {
      "album" : {
        "album_type" : "single",
        "artists" : [ {
          "external_urls" : {
            "spotify" : "https://open.spotify.com/artist/55tbvJFx2OH3H0aUmLEI6C"
          },
          "href" : "https://api.spotify.com/v1/artists/55tbvJFx2OH3H0aUmLEI6C",
          "id" : "55tbvJFx2OH3H0aUmLEI6C",
          "name" : "Richard M.S. Irwin",
          "type" : "artist",
          "uri" : "spotify:artist:55tbvJFx2OH3H0aUmLEI6C"
        } ],
        "external_urls" : {
          "spotify" : "https://open.spotify.com/album/3RMSWoQGwG2MPx9LIcVj3k"
        },
        "href" : "https://api.spotify.com/v1/albums/3RMSWoQGwG2MPx9LIcVj3k",
        "id" : "3RMSWoQGwG2MPx9LIcVj3k",
        "images" : [ {
          "height" : 640,
          "url" : "https://i.scdn.co/image/ab67616d0000b273c1ac269038aaed81df3381ed",
          "width" : 640
        }, {
          "height" : 300,
          "url" : "https://i.scdn.co/image/ab67616d00001e02c1ac269038aaed81df3381ed",
          "width" : 300
        }, {
          "height" : 64,
          "url" : "https://i.scdn.co/image/ab67616d00004851c1ac269038aaed81df3381ed",
          "width" : 64
        } ],
        "name" : "Ye Servants Of The Lord (Narenza, Organ Edit)",
        "release_date" : "2019-11-27",
        "release_date_precision" : "day",
        "total_tracks" : 1,
        "type" : "album",
        "uri" : "spotify:album:3RMSWoQGwG2MPx9LIcVj3k"
      },
      "artists" : [ {
        "external_urls" : {
          "spotify" : "https://open.spotify.com/artist/55tbvJFx2OH3H0aUmLEI6C"
        },
        "href" : "https://api.spotify.com/v1/artists/55tbvJFx2OH3H0aUmLEI6C",
        "id" : "55tbvJFx2OH3H0aUmLEI6C",
        "name" : "Richard M.S. Irwin",
        "type" : "artist",
        "uri" : "spotify:artist:55tbvJFx2OH3H0aUmLEI6C"
      } ],
      "disc_number" : 1,
      "duration_ms" : 122026,
      "explicit" : false,
      "external_ids" : {
        "isrc" : "UKTU21900055"
      },
      "external_urls" : {
        "spotify" : "https://open.spotify.com/track/1OIFjCa0JebO1oF69VqEsr"
      },
      "href" : "https://api.spotify.com/v1/tracks/1OIFjCa0JebO1oF69VqEsr",
      "id" : "1OIFjCa0JebO1oF69VqEsr",
      "is_local" : false,
      "is_playable" : true,
      "name" : "Ye Servants Of The Lord (Narenza, Organ Edit)",
      "popularity" : 0,
      "preview_url" : "https://p.scdn.co/mp3-preview/053e023e38cf445dabdde1b5c947655a4070cbb1?cid=774b29d4f13844c495f206cafdad9c86",
      "track_number" : 1,
      "type" : "track",
      "uri" : "spotify:track:1OIFjCa0JebO1oF69VqEsr"
    }, {
      "album" : {
        "album_type" : "album",
        "artists" : [ {
          "external_urls" : {
            "spotify" : "https://open.spotify.com/artist/2JLUzk1mTCcQlYj0zyKIdW"
          },
          "href" : "https://api.spotify.com/v1/artists/2JLUzk1mTCcQlYj0zyKIdW",
          "id" : "2JLUzk1mTCcQlYj0zyKIdW",
          "name" : "Simone Caneparo",
          "type" : "artist",
          "uri" : "spotify:artist:2JLUzk1mTCcQlYj0zyKIdW"
        } ],
        "external_urls" : {
          "spotify" : "https://open.spotify.com/album/2Unr7TN27OQBYWSlpVLS8n"
        },
        "href" : "https://api.spotify.com/v1/albums/2Unr7TN27OQBYWSlpVLS8n",
        "id" : "2Unr7TN27OQBYWSlpVLS8n",
        "images" : [ {
          "height" : 640,
          "url" : "https://i.scdn.co/image/ab67616d0000b273cd3a1e9e0b16676947f6be2a",
          "width" : 640
        }, {
          "height" : 300,
          "url" : "https://i.scdn.co/image/ab67616d00001e02cd3a1e9e0b16676947f6be2a",
          "width" : 300
        }, {
          "height" : 64,
          "url" : "https://i.scdn.co/image/ab67616d00004851cd3a1e9e0b16676947f6be2a",
          "width" : 64
        } ],
        "name" : "The Genevan Psalter for Guitar, Vol. 12 (Psalms 111-120)",
        "release_date" : "2019-08-28",
        "release_date_precision" : "day",
        "total_tracks" : 10,
        "type" : "album",
        "uri" : "spotify:album:2Unr7TN27OQBYWSlpVLS8n"
      },
      "artists" : [ {
        "external_urls" : {
          "spotify" : "https://open.spotify.com/artist/2JLUzk1mTCcQlYj0zyKIdW"
        },
        "href" : "https://api.spotify.com/v1/artists/2JLUzk1mTCcQlYj0zyKIdW",
        "id" : "2JLUzk1mTCcQlYj0zyKIdW",
        "name" : "Simone Caneparo",
        "type" : "artist",
        "uri" : "spotify:artist:2JLUzk1mTCcQlYj0zyKIdW"
      } ],
      "disc_number" : 1,
      "duration_ms" : 141371,
      "explicit" : false,
      "external_ids" : {
        "isrc" : "CAHQJ1908183"
      },
      "external_urls" : {
        "spotify" : "https://open.spotify.com/track/1nOECFkhqJHR1KzdkXeUqP"
      },
      "href" : "https://api.spotify.com/v1/tracks/1nOECFkhqJHR1KzdkXeUqP",
      "id" : "1nOECFkhqJHR1KzdkXeUqP",
      "is_local" : false,
      "is_playable" : true,
      "name" : "Psalm 113 : Praise, O Ye Servants of the Lord",
      "popularity" : 0,
      "preview_url" : "https://p.scdn.co/mp3-preview/9e8716e41b72e61911337566a1489d24cfa4b3bc?cid=774b29d4f13844c495f206cafdad9c86",
      "track_number" : 3,
      "type" : "track",
      "uri" : "spotify:track:1nOECFkhqJHR1KzdkXeUqP"
    }, {
      "album" : {
        "album_type" : "album",
        "artists" : [ {
          "external_urls" : {
            "spotify" : "https://open.spotify.com/artist/0bgvgq76bQlNbVaRpaXy3W"
          },
          "href" : "https://api.spotify.com/v1/artists/0bgvgq76bQlNbVaRpaXy3W",
          "id" : "0bgvgq76bQlNbVaRpaXy3W",
          "name" : "Gloriae Dei Cantores",
          "type" : "artist",
          "uri" : "spotify:artist:0bgvgq76bQlNbVaRpaXy3W"
        }, {
          "external_urls" : {
            "spotify" : "https://open.spotify.com/artist/6pbiqScIa0GGNsZ3jOcJkq"
          },
          "href" : "https://api.spotify.com/v1/artists/6pbiqScIa0GGNsZ3jOcJkq",
          "id" : "6pbiqScIa0GGNsZ3jOcJkq",
          "name" : "Elizabeth C. Patterson",
          "type" : "artist",
          "uri" : "spotify:artist:6pbiqScIa0GGNsZ3jOcJkq"
        } ],
        "external_urls" : {
          "spotify" : "https://open.spotify.com/album/60PU2mj5Qu2agUo3Dww02m"
        },
        "href" : "https://api.spotify.com/v1/albums/60PU2mj5Qu2agUo3Dww02m",
        "id" : "60PU2mj5Qu2agUo3Dww02m",
        "images" : [ {
          "height" : 640,
          "url" : "https://i.scdn.co/image/ab67616d0000b2734ff52891fbd0d54823603c6f",
          "width" : 640
        }, {
          "height" : 300,
          "url" : "https://i.scdn.co/image/ab67616d00001e024ff52891fbd0d54823603c6f",
          "width" : 300
        }, {
          "height" : 64,
          "url" : "https://i.scdn.co/image/ab67616d000048514ff52891fbd0d54823603c6f",
          "width" : 64
        } ],
        "name" : "His Love Endures Forever: Psalms of Thankfulness and Praise",
        "release_date" : "2008-09-01",
        "release_date_precision" : "day",
        "total_tracks" : 20,
        "type" : "album",
        "uri" : "spotify:album:60PU2mj5Qu2agUo3Dww02m"
      },
      "artists" : [ {
        "external_urls" : {
          "spotify" : "https://open.spotify.com/artist/0dhZLnRceEbL30l20sW3ID"
        },
        "href" : "https://api.spotify.com/v1/artists/0dhZLnRceEbL30l20sW3ID",
        "id" : "0dhZLnRceEbL30l20sW3ID",
        "name" : "Frederick Ouseley",
        "type" : "artist",
        "uri" : "spotify:artist:0dhZLnRceEbL30l20sW3ID"
      }, {
        "external_urls" : {
          "spotify" : "https://open.spotify.com/artist/4sk9nEskEejEGSu4nzllrX"
        },
        "href" : "https://api.spotify.com/v1/artists/4sk9nEskEejEGSu4nzllrX",
        "id" : "4sk9nEskEejEGSu4nzllrX",
        "name" : "Bible",
        "type" : "artist",
        "uri" : "spotify:artist:4sk9nEskEejEGSu4nzllrX"
      }, {
        "external_urls" : {
          "spotify" : "https://open.spotify.com/artist/0bgvgq76bQlNbVaRpaXy3W"
        },
        "href" : "https://api.spotify.com/v1/artists/0bgvgq76bQlNbVaRpaXy3W",
        "id" : "0bgvgq76bQlNbVaRpaXy3W",
        "name" : "Gloriae Dei Cantores",
        "type" : "artist",
        "uri" : "spotify:artist:0bgvgq76bQlNbVaRpaXy3W"
      }, {
        "external_urls" : {
          "spotify" : "https://open.spotify.com/artist/74Ch11L4833kZ9VfyziR3K"
        },
        "href" : "https://api.spotify.com/v1/artists/74Ch11L4833kZ9VfyziR3K",
        "id" : "74Ch11L4833kZ9VfyziR3K",
        "name" : "Unknown Artist",
        "type" : "artist",
        "uri" : "spotify:artist:74Ch11L4833kZ9VfyziR3K"
      }, {
        "external_urls" : {
          "spotify" : "https://open.spotify.com/artist/6pbiqScIa0GGNsZ3jOcJkq"
        },
        "href" : "https://api.spotify.com/v1/artists/6pbiqScIa0GGNsZ3jOcJkq",
        "id" : "6pbiqScIa0GGNsZ3jOcJkq",
        "name" : "Elizabeth C. Patterson",
        "type" : "artist",
        "uri" : "spotify:artist:6pbiqScIa0GGNsZ3jOcJkq"
      } ],
      "disc_number" : 1,
      "duration_ms" : 88800,
      "explicit" : false,
      "external_ids" : {
        "isrc" : "US5HU0800011"
      },
      "external_urls" : {
        "spotify" : "https://open.spotify.com/track/6uuat8ceum9j2GlGz9i50c"
      },
      "href" : "https://api.spotify.com/v1/tracks/6uuat8ceum9j2GlGz9i50c",
      "id" : "6uuat8ceum9j2GlGz9i50c",
      "is_local" : false,
      "is_playable" : true,
      "name" : "Praise the Lord Ye Servants (Psalm 113)",
      "popularity" : 0,
      "preview_url" : "https://p.scdn.co/mp3-preview/2182d940017e6e3517cfc50729431823794c7abe?cid=774b29d4f13844c495f206cafdad9c86",
      "track_number" : 11,
      "type" : "track",
      "uri" : "spotify:track:6uuat8ceum9j2GlGz9i50c"
    } ],
    "limit" : 10,
    "next" : "https://api.spotify.com/v1/search?query=Ye+Servants+of+the+Lord&type=track&market=US&offset=15&limit=10",
    "offset" : 5,
    "previous" : "https://api.spotify.com/v1/search?query=Ye+Servants+of+the+Lord&type=track&market=US&offset=0&limit=10",
    "total" : 29
  }
}