{
  "tracks" : {
    "href" : "https://api.spotify.com/v1/search?query=Arise%2C+My+Soul%2C+Arise%21&type=track&market=US&offset=5&limit=10",
    "items" : [ {
      "album" : {
        "album_type" : "album",
        "artists" : [ {
          "external_urls" : {
            "spotify" : "https://open.spotify.com/artist/2cw7QQfN0zs6QUUGvhYp56"
          },
          "href" : "https://api.spotify.com/v1/artists/2cw7QQfN0zs6QUUGvhYp56",
          "id" : "2cw7QQfN0zs6QUUGvhYp56",
          "name" : "Galkin Evangelistic Team",
          "type" : "artist",
          "uri" : "spotify:artist:2cw7QQfN0zs6QUUGvhYp56"
        } ],
        "external_urls" : {
          "spotify" : "https://open.spotify.com/album/17vjjcrcLDGPIa2cVgH0bm"
        },
        "href" : "https://api.spotify.com/v1/albums/17vjjcrcLDGPIa2cVgH0bm",
        "id" : "17vjjcrcLDGPIa2cVgH0bm",
        "images" : [ {
          "height" : 640,
          "url" : "https://i.scdn.co/image/ab67616d0000b273de071a8d4d64a27cf0e9a158",
          "width" : 640
        }, {
          "height" : 300,
          "url" : "https://i.scdn.co/image/ab67616d00001e02de071a8d4d64a27cf0e9a158",
          "width" : 300
        }, {
          "height" : 64,
          "url" : "https://i.scdn.co/image/ab67616d00004851de071a8d4d64a27cf0e9a158",
          "width" : 64
        } ],
        "name" : "Arise: A Collection of Instrumental Worship",
        "release_date" : "2017-02-10",
        "release_date_precision" : "day",
        "total_tracks" : 16,
        "type" : "album",
        "uri" : "spotify:album:17vjjcrcLDGPIa2cVgH0bm"
      },
      "artists" : [ {
        "external_urls" : {
          "spotify" : "https://open.spotify.com/artist/2cw7QQfN0zs6QUUGvhYp56"
        },
        "href" : "https://api.spotify.com/v1/artists/2cw7QQfN0zs6QUUGvhYp56",
        "id" : "2cw7QQfN0zs6QUUGvhYp56",
        "name" : "Galkin Evangelistic Team",
        "type" : "artist",
        "uri" : "spotify:artist:2cw7QQfN0zs6QUUGvhYp56"
      } ],
      "disc_number" : 1,
      "duration_ms" : 148333,
      "explicit" : false,
      "external_ids" : {
        "isrc" : "uscgh1784212"
      },
      "external_urls" : {
        "spotify" : "https://open.spotify.com/track/4PoPgQCvKjB5pEvWEmbzcy"
      },
      "href" : "https://api.spotify.com/v1/tracks/4PoPgQCvKjB5pEvWEmbzcy",
      "id" : "4PoPgQCvKjB5pEvWEmbzcy",
      "is_local" : false,
      "is_playable" : true,
      "name" : "Arise, My Soul, Arise (Instrumental)",
      "popularity" : 15,
      "preview_url" : "https://p.scdn.co/mp3-preview/dd2fce720e11c455cea4513ba39e2ded58d70322?cid=774b29d4f13844c495f206cafdad9c86",
      "track_number" : 14,
      "type" : "track",
      "uri" : "spotify:track:4PoPgQCvKjB5pEvWEmbzcy"
    }, {
      "album" : {
        "album_type" : "album",
        "artists" : [ {
          "external_urls" : {
            "spotify" : "https://open.spotify.com/artist/2rQzS4iX6bEMlrO4noTwIX"
          },
          "href" : "https://api.spotify.com/v1/artists/2rQzS4iX6bEMlrO4noTwIX",
          "id" : "2rQzS4iX6bEMlrO4noTwIX",
          "name" : "Dan Forrest",
          "type" : "artist",
          "uri" : "spotify:artist:2rQzS4iX6bEMlrO4noTwIX"
        } ],
        "external_urls" : {
          "spotify" : "https://open.spotify.com/album/2p0r5GgEVK0MYffiou8uY1"
        },
        "href" : "https://api.spotify.com/v1/albums/2p0r5GgEVK0MYffiou8uY1",
        "id" : "2p0r5GgEVK0MYffiou8uY1",
        "images" : [ {
          "height" : 640,
          "url" : "https://i.scdn.co/image/ab67616d0000b273c372ab0775f2f66d138e63a8",
          "width" : 640
        }, {
          "height" : 300,
          "url" : "https://i.scdn.co/image/ab67616d00001e02c372ab0775f2f66d138e63a8",
          "width" : 300
        }, {
          "height" : 64,
          "url" : "https://i.scdn.co/image/ab67616d00004851c372ab0775f2f66d138e63a8",
          "width" : 64
        } ],
        "name" : "Illuminations",
        "release_date" : "2015-05-01",
        "release_date_precision" : "day",
        "total_tracks" : 9,
        "type" : "album",
        "uri" : "spotify:album:2p0r5GgEVK0MYffiou8uY1"
      },
      "artists" : [ {
        "external_urls" : {
          "spotify" : "https://open.spotify.com/artist/2rQzS4iX6bEMlrO4noTwIX"
        },
        "href" : "https://api.spotify.com/v1/artists/2rQzS4iX6bEMlrO4noTwIX",
        "id" : "2rQzS4iX6bEMlrO4noTwIX",
        "name" : "Dan Forrest",
        "type" : "artist",
        "uri" : "spotify:artist:2rQzS4iX6bEMlrO4noTwIX"
      } ],
      "disc_number" : 1,
      "duration_ms" : 245382,
      "explicit" : false,
      "external_ids" : {
        "isrc" : "uscgj1564992"
      },
      "external_urls" : {
        "spotify" : "https://open.spotify.com/track/3DVDMotfpXnQwZSF6oyfUT"
      },
      "href" : "https://api.spotify.com/v1/tracks/3DVDMotfpXnQwZSF6oyfUT",
      "id" : "3DVDMotfpXnQwZSF6oyfUT",
      "is_local" : false,
      "is_playable" : true,
      "name" : "Arise, My Soul, Arise (Dan Forrest)",
      "popularity" : 14,
      "preview_url" : "https://p.scdn.co/mp3-preview/5b62909b6643939a12877629f627bfef2b41cbc9?cid=774b29d4f13844c495f206cafdad9c86",
      "track_number" : 9,
      "type" : "track",
      "uri" : "spotify:track:3DVDMotfpXnQwZSF6oyfUT"
    }, {
      "album" : {
        "album_type" : "album",
        "artists" : [ {
          "external_urls" : {
            "spotify" : "https://open.spotify.com/artist/4fe5RDRZpjF7b8FYinv3KL"
          },
          "href" : "https://api.spotify.com/v1/artists/4fe5RDRZpjF7b8FYinv3KL",
          "id" : "4fe5RDRZpjF7b8FYinv3KL",
          "name" : "Coffey Ministries",
          "type" : "artist",
          "uri" : "spotify:artist:4fe5RDRZpjF7b8FYinv3KL"
        } ],
        "external_urls" : {
          "spotify" : "https://open.spotify.com/album/1RyQVo8CsNFNuJhHaBuAvp"
        },
        "href" : "https://api.spotify.com/v1/albums/1RyQVo8CsNFNuJhHaBuAvp",
        "id" : "1RyQVo8CsNFNuJhHaBuAvp",
        "images" : [ {
          "height" : 640,
          "url" : "https://i.scdn.co/image/ab67616d0000b273e1951639231320abb0d517be",
          "width" : 640
        }, {
          "height" : 300,
          "url" : "https://i.scdn.co/image/ab67616d00001e02e1951639231320abb0d517be",
          "width" : 300
        }, {
          "height" : 64,
          "url" : "https://i.scdn.co/image/ab67616d00004851e1951639231320abb0d517be",
          "width" : 64
        } ],
        "name" : "Hymns Renewed",
        "release_date" : "2014-09-21",
        "release_date_precision" : "day",
        "total_tracks" : 14,
        "type" : "album",
        "uri" : "spotify:album:1RyQVo8CsNFNuJhHaBuAvp"
      },
      "artists" : [ {
        "external_urls" : {
          "spotify" : "https://open.spotify.com/artist/4fe5RDRZpjF7b8FYinv3KL"
        },
        "href" : "https://api.spotify.com/v1/artists/4fe5RDRZpjF7b8FYinv3KL",
        "id" : "4fe5RDRZpjF7b8FYinv3KL",
        "name" : "Coffey Ministries",
        "type" : "artist",
        "uri" : "spotify:artist:4fe5RDRZpjF7b8FYinv3KL"
      } ],
      "disc_number" : 1,
      "duration_ms" : 304040,
      "explicit" : false,
      "external_ids" : {
        "isrc" : "ushm91449312"
      },
      "external_urls" : {
        "spotify" : "https://open.spotify.com/track/4Zkb030NKRSAFhIpxw9AYz"
      },
      "href" : "https://api.spotify.com/v1/tracks/4Zkb030NKRSAFhIpxw9AYz",
      "id" : "4Zkb030NKRSAFhIpxw9AYz",
      "is_local" : false,
      "is_playable" : true,
      "name" : "O My Soul, Arise",
      "popularity" : 14,
      "preview_url" : "https://p.scdn.co/mp3-preview/36357763ed032474b819622ecbd93c23923bbe22?cid=774b29d4f13844c495f206cafdad9c86",
      "track_number" : 2,
      "type" : "track",
      "uri" : "spotify:track:4Zkb030NKRSAFhIpxw9AYz"
    }, {
      "album" : {
        "album_type" : "album",
        "artists" : [ {
          "external_urls" : {
            "spotify" : "https://open.spotify.com/artist/4rhwll8EPEHOW8diluKlrZ"
          },
          "href" : "https://api.spotify.com/v1/artists/4rhwll8EPEHOW8diluKlrZ",
          "id" : "4rhwll8EPEHOW8diluKlrZ",
          "name" : "Glad",
          "type" : "artist",
          "uri" : "spotify:artist:4rhwll8EPEHOW8diluKlrZ"
        } ],
        "external_urls" : {
          "spotify" : "https://open.spotify.com/album/0uWmUHmAUKcKWdSFrqK8Jw"
        },
        "href" : "https://api.spotify.com/v1/albums/0uWmUHmAUKcKWdSFrqK8Jw",
        "id" : "0uWmUHmAUKcKWdSFrqK8Jw",
        "images" : [ {
          "height" : 640,
          "url" : "https://i.scdn.co/image/ab67616d0000b273fd29956fcaf9e76f42f7f65d",
          "width" : 640
        }, {
          "height" : 300,
          "url" : "https://i.scdn.co/image/ab67616d00001e02fd29956fcaf9e76f42f7f65d",
          "width" : 300
        }, {
          "height" : 64,
          "url" : "https://i.scdn.co/image/ab67616d00004851fd29956fcaf9e76f42f7f65d",
          "width" : 64
        } ],
        "name" : "Glad Collector's Series",
        "release_date" : "1998-06-26",
        "release_date_precision" : "day",
        "total_tracks" : 27,
        "type" : "album",
        "uri" : "spotify:album:0uWmUHmAUKcKWdSFrqK8Jw"
      },
      "artists" : [ {
        "external_urls" : {
          "spotify" : "https://open.spotify.com/artist/4rhwll8EPEHOW8diluKlrZ"
        },
        "href" : "https://api.spotify.com/v1/artists/4rhwll8EPEHOW8diluKlrZ",
        "id" : "4rhwll8EPEHOW8diluKlrZ",
        "name" : "Glad",
        "type" : "artist",
        "uri" : "spotify:artist:4rhwll8EPEHOW8diluKlrZ"
      } ],
      "disc_number" : 2,
      "duration_ms" : 210973,
      "explicit" : false,
      "external_ids" : {
        "isrc" : "USA5W0404438"
      },
      "external_urls" : {
        "spotify" : "https://open.spotify.com/track/7lYbeJk7V0qnOkbiluJRak"
      },
      "href" : "https://api.spotify.com/v1/tracks/7lYbeJk7V0qnOkbiluJRak",
      "id" : "7lYbeJk7V0qnOkbiluJRak",
      "is_local" : false,
      "is_playable" : true,
      "name" : "Arise, My Soul, Arise",
      "popularity" : 9,
      "preview_url" : "https://p.scdn.co/mp3-preview/084069e5fe751e5a6fce3bcae5189b18f02d0832?cid=774b29d4f13844c495f206cafdad9c86",
      "track_number" : 5,
      "type" : "track",
      "uri" : "spotify:track:7lYbeJk7V0qnOkbiluJRak"
    }, {
      "album" : {
        "album_type" : "album",
        "artists" : [ {
          "external_urls" : {
            "spotify" : "https://open.spotify.com/artist/0HoHU8SXe0g9jJGOfL8rDq"
          },
          "href" : "https://api.spotify.com/v1/artists/0HoHU8SXe0g9jJGOfL8rDq",
          "id" : "0HoHU8SXe0g9jJGOfL8rDq",
          "name" : "Indelible Grace Music",
          "type" : "artist",
          "uri" : "spotify:artist:0HoHU8SXe0g9jJGOfL8rDq"
        } ],
        "external_urls" : {
          "spotify" : "https://open.spotify.com/album/6RMHbntVPReDCl3HIQJkIE"
        },
        "href" : "https://api.spotify.com/v1/albums/6RMHbntVPReDCl3HIQJkIE",
        "id" : "6RMHbntVPReDCl3HIQJkIE",
        "images" : [ {
          "height" : 640,
          "url" : "https://i.scdn.co/image/ab67616d0000b273fd6baab031e6f68eb1a70780",
          "width" : 640
        }, {
          "height" : 300,
          "url" : "https://i.scdn.co/image/ab67616d00001e02fd6baab031e6f68eb1a70780",
          "width" : 300
        }, {
          "height" : 64,
          "url" : "https://i.scdn.co/image/ab67616d00004851fd6baab031e6f68eb1a70780",
          "width" : 64
        } ],
        "name" : "Indelible Grace Side B",
        "release_date" : "2008-10-06",
        "release_date_precision" : "day",
        "total_tracks" : 10,
        "type" : "album",
        "uri" : "spotify:album:6RMHbntVPReDCl3HIQJkIE"
      },
      "artists" : [ {
        "external_urls" : {
          "spotify" : "https://open.spotify.com/artist/0HoHU8SXe0g9jJGOfL8rDq"
        },
        "href" : "https://api.spotify.com/v1/artists/0HoHU8SXe0g9jJGOfL8rDq",
        "id" : "0HoHU8SXe0g9jJGOfL8rDq",
        "name" : "Indelible Grace Music",
        "type" : "artist",
        "uri" : "spotify:artist:0HoHU8SXe0g9jJGOfL8rDq"
      } ],
      "disc_number" : 1,
      "duration_ms" : 238993,
      "explicit" : false,
      "external_ids" : {
        "isrc" : "USTC60888355"
      },
      "external_urls" : {
        "spotify" : "https://open.spotify.com/track/1ioaQd6Gp0KkjBHKFIfrxl"
      },
      "href" : "https://api.spotify.com/v1/tracks/1ioaQd6Gp0KkjBHKFIfrxl",
      "id" : "1ioaQd6Gp0KkjBHKFIfrxl",
      "is_local" : false,
      "is_playable" : true,
      "name" : "Arise My Soul Arise (Unplugged 2008)",
      "popularity" : 9,
      "preview_url" : "https://p.scdn.co/mp3-preview/855c2b83feeb6020ee58115f774dd609f3ccc10b?cid=774b29d4f13844c495f206cafdad9c86",
      "track_number" : 1,
      "type" : "track",
      "uri" : "spotify:track:1ioaQd6Gp0KkjBHKFIfrxl"
    }, {
      "album" : {
        "album_type" : "album",
        "artists" : [ {
          "external_urls" : {
            "spotify" : "https://open.spotify.com/artist/7CXRUTpr85rTnzDqhf0s2k"
          },
          "href" : "https://api.spotify.com/v1/artists/7CXRUTpr85rTnzDqhf0s2k",
          "id" : "7CXRUTpr85rTnzDqhf0s2k",
          "name" : "My Soul Among Lions",
          "type" : "artist",
          "uri" : "spotify:artist:7CXRUTpr85rTnzDqhf0s2k"
        } ],
        "external_urls" : {
          "spotify" : "https://open.spotify.com/album/7AVga88rqPT3HJbI9GPNxE"
        },
        "href" : "https://api.spotify.com/v1/albums/7AVga88rqPT3HJbI9GPNxE",
        "id" : "7AVga88rqPT3HJbI9GPNxE",
        "images" : [ {
          "height" : 640,
          "url" : "https://i.scdn.co/image/ab67616d0000b273b371d5c76f18c95585d0e33b",
          "width" : 640
        }, {
          "height" : 300,
          "url" : "https://i.scdn.co/image/ab67616d00001e02b371d5c76f18c95585d0e33b",
          "width" : 300
        }, {
          "height" : 64,
          "url" : "https://i.scdn.co/image/ab67616d00004851b371d5c76f18c95585d0e33b",
          "width" : 64
        } ],
        "name" : "My Soul Among Lions (Psalms 1-10)",
        "release_date" : "2016-03-08",
        "release_date_precision" : "day",
        "total_tracks" : 17,
        "type" : "album",
        "uri" : "spotify:album:7AVga88rqPT3HJbI9GPNxE"
      },
      "artists" : [ {
        "external_urls" : {
          "spotify" : "https://open.spotify.com/artist/7CXRUTpr85rTnzDqhf0s2k"
        },
        "href" : "https://api.spotify.com/v1/artists/7CXRUTpr85rTnzDqhf0s2k",
        "id" : "7CXRUTpr85rTnzDqhf0s2k",
        "name" : "My Soul Among Lions",
        "type" : "artist",
        "uri" : "spotify:artist:7CXRUTpr85rTnzDqhf0s2k"
      } ],
      "disc_number" : 1,
      "duration_ms" : 283653,
      "explicit" : false,
      "external_ids" : {
        "isrc" : "QM9A91514390"
      },
      "external_urls" : {
        "spotify" : "https://open.spotify.com/track/5WfOSaIqGP8JepD8lg0IzS"
      },
      "href" : "https://api.spotify.com/v1/tracks/5WfOSaIqGP8JepD8lg0IzS",
      "id" : "5WfOSaIqGP8JepD8lg0IzS",
      "is_local" : false,
      "is_playable" : true,
      "name" : "Arise, O Lord (Psalm 7)",
      "popularity" : 9,
      "preview_url" : "https://p.scdn.co/mp3-preview/3c1d65e289bfc1fe36d233108a2fb5c8c5e1880b?cid=774b29d4f13844c495f206cafdad9c86",
      "track_number" : 7,
      "type" : "track",
      "uri" : "spotify:track:5WfOSaIqGP8JepD8lg0IzS"
    }, {
      "album" : {
        "album_type" : "album",
        "artists" : [ {
          "external_urls" : {
            "spotify" : "https://open.spotify.com/artist/0g5OkLnQogzLrT9s5vw6kl"
          },
          "href" : "https://api.spotify.com/v1/artists/0g5OkLnQogzLrT9s5vw6kl",
          "id" : "0g5OkLnQogzLrT9s5vw6kl",
          "name" : "Phillips, Craig & Dean",
          "type" : "artist",
          "uri" : "spotify:artist:0g5OkLnQogzLrT9s5vw6kl"
        } ],
        "external_urls" : {
          "spotify" : "https://open.spotify.com/album/2saZyG2DnglQwoNNZP4U5W"
        },
        "href" : "https://api.spotify.com/v1/albums/2saZyG2DnglQwoNNZP4U5W",
        "id" : "2saZyG2DnglQwoNNZP4U5W",
        "images" : [ {
          "height" : 640,
          "url" : "https://i.scdn.co/image/ab67616d0000b273dd53ebb2296632906cb5cf3b",
          "width" : 640
        }, {
          "height" : 300,
          "url" : "https://i.scdn.co/image/ab67616d00001e02dd53ebb2296632906cb5cf3b",
          "width" : 300
        }, {
          "height" : 64,
          "url" : "https://i.scdn.co/image/ab67616d00004851dd53ebb2296632906cb5cf3b",
          "width" : 64
        } ],
        "name" : "Let the Worshippers Arise",
        "release_date" : "2004-09-28",
        "release_date_precision" : "day",
        "total_tracks" : 11,
        "type" : "album",
        "uri" : "spotify:album:2saZyG2DnglQwoNNZP4U5W"
      },
      "artists" : [ {
        "external_urls" : {
          "spotify" : "https://open.spotify.com/artist/0g5OkLnQogzLrT9s5vw6kl"
        },
        "href" : "https://api.spotify.com/v1/artists/0g5OkLnQogzLrT9s5vw6kl",
        "id" : "0g5OkLnQogzLrT9s5vw6kl",
        "name" : "Phillips, Craig & Dean",
        "type" : "artist",
        "uri" : "spotify:artist:0g5OkLnQogzLrT9s5vw6kl"
      } ],
      "disc_number" : 1,
      "duration_ms" : 308746,
      "explicit" : false,
      "external_ids" : {
        "isrc" : "USM2C0483008"
      },
      "external_urls" : {
        "spotify" : "https://open.spotify.com/track/0PPN0YBA8Tou6bfqM9DVO6"
      },
      "href" : "https://api.spotify.com/v1/tracks/0PPN0YBA8Tou6bfqM9DVO6",
      "id" : "0PPN0YBA8Tou6bfqM9DVO6",
      "is_local" : false,
      "is_playable" : true,
      "name" : "Awake My Soul (Christ is Formed in Me)",
      "popularity" : 10,
      "preview_url" : "https://p.scdn.co/mp3-preview/1c75c7833017d5d7c38733475fef294668cd8723?cid=774b29d4f13844c495f206cafdad9c86",
      "track_number" : 8,
      "type" : "track",
      "uri" : "spotify:track:0PPN0YBA8Tou6bfqM9DVO6"
    }, {
      "album" : {
        "album_type" : "album",
        "artists" : [ {
          "external_urls" : {
            "spotify" : "https://open.spotify.com/artist/7ua35iM0VjwfuHopuQDScm"
          },
          "href" : "https://api.spotify.com/v1/artists/7ua35iM0VjwfuHopuQDScm",
          "id" : "7ua35iM0VjwfuHopuQDScm",
          "name" : "Twila Paris",
          "type" : "artist",
          "uri" : "spotify:artist:7ua35iM0VjwfuHopuQDScm"
        } ],
        "external_urls" : {
          "spotify" : "https://open.spotify.com/album/6ak8PYUEBSd8MUWyhfvZTC"
        },
        "href" : "https://api.spotify.com/v1/albums/6ak8PYUEBSd8MUWyhfvZTC",
        "id" : "6ak8PYUEBSd8MUWyhfvZTC",
        "images" : [ {
          "height" : 640,
          "url" : "https://i.scdn.co/image/ab67616d0000b2733dcaeaa04056aa19ccb43a33",
          "width" : 640
        }, {
          "height" : 300,
          "url" : "https://i.scdn.co/image/ab67616d00001e023dcaeaa04056aa19ccb43a33",
          "width" : 300
        }, {
          "height" : 64,
          "url" : "https://i.scdn.co/image/ab67616d000048513dcaeaa04056aa19ccb43a33",
          "width" : 64
        } ],
        "name" : "Sanctuary",
        "release_date" : "1991-01-01",
        "release_date_precision" : "day",
        "total_tracks" : 14,
        "type" : "album",
        "uri" : "spotify:album:6ak8PYUEBSd8MUWyhfvZTC"
      },
      "artists" : [ {
        "external_urls" : {
          "spotify" : "https://open.spotify.com/artist/7ua35iM0VjwfuHopuQDScm"
        },
        "href" : "https://api.spotify.com/v1/artists/7ua35iM0VjwfuHopuQDScm",
        "id" : "7ua35iM0VjwfuHopuQDScm",
        "name" : "Twila Paris",
        "type" : "artist",
        "uri" : "spotify:artist:7ua35iM0VjwfuHopuQDScm"
      } ],
      "disc_number" : 1,
      "duration_ms" : 263506,
      "explicit" : false,
      "external_ids" : {
        "isrc" : "USCM19119292"
      },
      "external_urls" : {
        "spotify" : "https://open.spotify.com/track/11qUYnZCTjOlg4bchscBVn"
      },
      "href" : "https://api.spotify.com/v1/tracks/11qUYnZCTjOlg4bchscBVn",
      "id" : "11qUYnZCTjOlg4bchscBVn",
      "is_local" : false,
      "is_playable" : true,
      "name" : "Arise, My Soul, Arise",
      "popularity" : 8,
      "preview_url" : null,
      "track_number" : 7,
      "type" : "track",
      "uri" : "spotify:track:11qUYnZCTjOlg4bchscBVn"
    }, {
      "album" : {
        "album_type" : "album",
        "artists" : [ {
          "external_urls" : {
            "spotify" : "https://open.spotify.com/artist/33MBpsR0NDVam8humLvr8l"
          },
          "href" : "https://api.spotify.com/v1/artists/33MBpsR0NDVam8humLvr8l",
          "id" : "33MBpsR0NDVam8humLvr8l",
          "name" : "Hamilton Family",
          "type" : "artist",
          "uri" : "spotify:artist:33MBpsR0NDVam8humLvr8l"
        } ],
        "external_urls" : {
          "spotify" : "https://open.spotify.com/album/2P1c78KDAowx9scmsyZVrI"
        },
        "href" : "https://api.spotify.com/v1/albums/2P1c78KDAowx9scmsyZVrI",
        "id" : "2P1c78KDAowx9scmsyZVrI",
        "images" : [ {
          "height" : 640,
          "url" : "https://i.scdn.co/image/ab67616d0000b273528ecdf8f28ba142295c043c",
          "width" : 640
        }, {
          "height" : 300,
          "url" : "https://i.scdn.co/image/ab67616d00001e02528ecdf8f28ba142295c043c",
          "width" : 300
        }, {
          "height" : 64,
          "url" : "https://i.scdn.co/image/ab67616d00004851528ecdf8f28ba142295c043c",
          "width" : 64
        } ],
        "name" : "Shepherd of My Soul",
        "release_date" : "2016-01-08",
        "release_date_precision" : "day",
        "total_tracks" : 14,
        "type" : "album",
        "uri" : "spotify:album:2P1c78KDAowx9scmsyZVrI"
      },
      "artists" : [ {
        "external_urls" : {
          "spotify" : "https://open.spotify.com/artist/33MBpsR0NDVam8humLvr8l"
        },
        "href" : "https://api.spotify.com/v1/artists/33MBpsR0NDVam8humLvr8l",
        "id" : "33MBpsR0NDVam8humLvr8l",
        "name" : "Hamilton Family",
        "type" : "artist",
        "uri" : "spotify:artist:33MBpsR0NDVam8humLvr8l"
      } ],
      "disc_number" : 1,
      "duration_ms" : 221533,
      "explicit" : false,
      "external_ids" : {
        "isrc" : "uscgh1627847"
      },
      "external_urls" : {
        "spotify" : "https://open.spotify.com/track/12w0OMtsuqH0uaplhh0cZL"
      },
      "href" : "https://api.spotify.com/v1/tracks/12w0OMtsuqH0uaplhh0cZL",
      "id" : "12w0OMtsuqH0uaplhh0cZL",
      "is_local" : false,
      "is_playable" : true,
      "name" : "Arise!",
      "popularity" : 9,
      "preview_url" : "https://p.scdn.co/mp3-preview/9f78cc56326b10fed38da474dae71d74f3e1b23c?cid=774b29d4f13844c495f206cafdad9c86",
      "track_number" : 1,
      "type" : "track",
      "uri" : "spotify:track:12w0OMtsuqH0uaplhh0cZL"
    }, {
      "album" : {
        "album_type" : "album",
        "artists" : [ {
          "external_urls" : {
            "spotify" : "https://open.spotify.com/artist/0ZsexOeqHRyQpFB5UFWhg5"
          },
          "href" : "https://api.spotify.com/v1/artists/0ZsexOeqHRyQpFB5UFWhg5",
          "id" : "0ZsexOeqHRyQpFB5UFWhg5",
          "name" : "Sarah Hart Pearsons",
          "type" : "artist",
          "uri" : "spotify:artist:0ZsexOeqHRyQpFB5UFWhg5"
        } ],
        "external_urls" : {
          "spotify" : "https://open.spotify.com/album/0IFAgzx3IZT7Ydl9heqPrm"
        },
        "href" : "https://api.spotify.com/v1/albums/0IFAgzx3IZT7Ydl9heqPrm",
        "id" : "0IFAgzx3IZT7Ydl9heqPrm",
        "images" : [ {
          "height" : 640,
          "url" : "https://i.scdn.co/image/ab67616d0000b2738bd4683118033149f1dfa60e",
          "width" : 640
        }, {
          "height" : 300,
          "url" : "https://i.scdn.co/image/ab67616d00001e028bd4683118033149f1dfa60e",
          "width" : 300
        }, {
          "height" : 64,
          "url" : "https://i.scdn.co/image/ab67616d000048518bd4683118033149f1dfa60e",
          "width" : 64
        } ],
        "name" : "In Light of Love & Grace",
        "release_date" : "2013-08-02",
        "release_date_precision" : "day",
        "total_tracks" : 10,
        "type" : "album",
        "uri" : "spotify:album:0IFAgzx3IZT7Ydl9heqPrm"
      },
      "artists" : [ {
        "external_urls" : {
          "spotify" : "https://open.spotify.com/artist/0ZsexOeqHRyQpFB5UFWhg5"
        },
        "href" : "https://api.spotify.com/v1/artists/0ZsexOeqHRyQpFB5UFWhg5",
        "id" : "0ZsexOeqHRyQpFB5UFWhg5",
        "name" : "Sarah Hart Pearsons",
        "type" : "artist",
        "uri" : "spotify:artist:0ZsexOeqHRyQpFB5UFWhg5"
      } ],
      "disc_number" : 1,
      "duration_ms" : 337529,
      "explicit" : false,
      "external_ids" : {
        "isrc" : "ushm81326493"
      },
      "external_urls" : {
        "spotify" : "https://open.spotify.com/track/6iDnOyXrrWtGsSxXort0YA"
      },
      "href" : "https://api.spotify.com/v1/tracks/6iDnOyXrrWtGsSxXort0YA",
      "id" : "6iDnOyXrrWtGsSxXort0YA",
      "is_local" : false,
      "is_playable" : true,
      "name" : "Arise My Soul",
      "popularity" : 9,
      "preview_url" : "https://p.scdn.co/mp3-preview/2543276ffad26c0c1b192885e24ecefd239905da?cid=774b29d4f13844c495f206cafdad9c86",
      "track_number" : 1,
      "type" : "track",
      "uri" : "spotify:track:6iDnOyXrrWtGsSxXort0YA"
    } ],
    "limit" : 10,
    "next" : "https://api.spotify.com/v1/search?query=Arise%2C+My+Soul%2C+Arise%21&type=track&market=US&offset=15&limit=10",
    "offset" : 5,
    "previous" : "https://api.spotify.com/v1/search?query=Arise%2C+My+Soul%2C+Arise%21&type=track&market=US&offset=0&limit=10",
    "total" : 144
  }
}