{
  "tracks" : {
    "href" : "https://api.spotify.com/v1/search?query=Awake%2C+My+Soul%21&type=track&market=US&offset=5&limit=10",
    "items" : [ {
      "album" : {
        "album_type" : "album",
        "artists" : [ {
          "external_urls" : {
            "spotify" : "https://open.spotify.com/artist/3gd8FJtBJtkRxdfbTu19U2"
          },
          "href" : "https://api.spotify.com/v1/artists/3gd8FJtBJtkRxdfbTu19U2",
          "id" : "3gd8FJtBJtkRxdfbTu19U2",
          "name" : "Mumford & Sons",
          "type" : "artist",
          "uri" : "spotify:artist:3gd8FJtBJtkRxdfbTu19U2"
        } ],
        "external_urls" : {
          "spotify" : "https://open.spotify.com/album/6kYGJDsLoKB3oWhUfhHR7w"
        },
        "href" : "https://api.spotify.com/v1/albums/6kYGJDsLoKB3oWhUfhHR7w",
        "id" : "6kYGJDsLoKB3oWhUfhHR7w",
        "images" : [ {
          "height" : 640,
          "url" : "https://i.scdn.co/image/ab67616d0000b2739e9734e97920de14ab014210",
          "width" : 640
        }, {
          "height" : 300,
          "url" : "https://i.scdn.co/image/ab67616d00001e029e9734e97920de14ab014210",
          "width" : 300
        }, {
          "height" : 64,
          "url" : "https://i.scdn.co/image/ab67616d000048519e9734e97920de14ab014210",
          "width" : 64
        } ],
        "name" : "The Road To Red Rocks (Live)",
        "release_date" : "2012-11-30",
        "release_date_precision" : "day",
        "total_tracks" : 11,
        "type" : "album",
        "uri" : "spotify:album:6kYGJDsLoKB3oWhUfhHR7w"
      },
      "artists" : [ {
        "external_urls" : {
          "spotify" : "https://open.spotify.com/artist/3gd8FJtBJtkRxdfbTu19U2"
        },
        "href" : "https://api.spotify.com/v1/artists/3gd8FJtBJtkRxdfbTu19U2",
        "id" : "3gd8FJtBJtkRxdfbTu19U2",
        "name" : "Mumford & Sons",
        "type" : "artist",
        "uri" : "spotify:artist:3gd8FJtBJtkRxdfbTu19U2"
      } ],
      "disc_number" : 1,
      "duration_ms" : 263133,
      "explicit" : false,
      "external_ids" : {
        "isrc" : "GBUM71207067"
      },
      "external_urls" : {
        "spotify" : "https://open.spotify.com/track/0ZX9M8zNqdNp7PcAWpCQuc"
      },
      "href" : "https://api.spotify.com/v1/tracks/0ZX9M8zNqdNp7PcAWpCQuc",
      "id" : "0ZX9M8zNqdNp7PcAWpCQuc",
      "is_local" : false,
      "is_playable" : true,
      "name" : "Awake My Soul - Live",
      "popularity" : 36,
      "preview_url" : "https://p.scdn.co/mp3-preview/4ac0bdc248e91ca2d54bd352a65ec58995b13915?cid=774b29d4f13844c495f206cafdad9c86",
      "track_number" : 7,
      "type" : "track",
      "uri" : "spotify:track:0ZX9M8zNqdNp7PcAWpCQuc"
    }, {
      "album" : {
        "album_type" : "album",
        "artists" : [ {
          "external_urls" : {
            "spotify" : "https://open.spotify.com/artist/3gd8FJtBJtkRxdfbTu19U2"
          },
          "href" : "https://api.spotify.com/v1/artists/3gd8FJtBJtkRxdfbTu19U2",
          "id" : "3gd8FJtBJtkRxdfbTu19U2",
          "name" : "Mumford & Sons",
          "type" : "artist",
          "uri" : "spotify:artist:3gd8FJtBJtkRxdfbTu19U2"
        } ],
        "external_urls" : {
          "spotify" : "https://open.spotify.com/album/0HeTCm08wXQGyPv3qjc9O9"
        },
        "href" : "https://api.spotify.com/v1/albums/0HeTCm08wXQGyPv3qjc9O9",
        "id" : "0HeTCm08wXQGyPv3qjc9O9",
        "images" : [ {
          "height" : 640,
          "url" : "https://i.scdn.co/image/ab67616d0000b273c3f1139ecea7c23d0b3f0e2d",
          "width" : 640
        }, {
          "height" : 300,
          "url" : "https://i.scdn.co/image/ab67616d00001e02c3f1139ecea7c23d0b3f0e2d",
          "width" : 300
        }, {
          "height" : 64,
          "url" : "https://i.scdn.co/image/ab67616d00004851c3f1139ecea7c23d0b3f0e2d",
          "width" : 64
        } ],
        "name" : "Live from Shepherd's Bush Empire",
        "release_date" : "2011-10-24",
        "release_date_precision" : "day",
        "total_tracks" : 13,
        "type" : "album",
        "uri" : "spotify:album:0HeTCm08wXQGyPv3qjc9O9"
      },
      "artists" : [ {
        "external_urls" : {
          "spotify" : "https://open.spotify.com/artist/3gd8FJtBJtkRxdfbTu19U2"
        },
        "href" : "https://api.spotify.com/v1/artists/3gd8FJtBJtkRxdfbTu19U2",
        "id" : "3gd8FJtBJtkRxdfbTu19U2",
        "name" : "Mumford & Sons",
        "type" : "artist",
        "uri" : "spotify:artist:3gd8FJtBJtkRxdfbTu19U2"
      } ],
      "disc_number" : 1,
      "duration_ms" : 278413,
      "explicit" : false,
      "external_ids" : {
        "isrc" : "USYAH1100319"
      },
      "external_urls" : {
        "spotify" : "https://open.spotify.com/track/6oTpuyCqeYRUWpHzLLjH05"
      },
      "href" : "https://api.spotify.com/v1/tracks/6oTpuyCqeYRUWpHzLLjH05",
      "id" : "6oTpuyCqeYRUWpHzLLjH05",
      "is_local" : false,
      "is_playable" : true,
      "name" : "Awake My Soul - Live from Shepherd's Bush Empire, 2010",
      "popularity" : 31,
      "preview_url" : "https://p.scdn.co/mp3-preview/7a31da325c7abe3496a34aaee46aeeb20b16c486?cid=774b29d4f13844c495f206cafdad9c86",
      "track_number" : 6,
      "type" : "track",
      "uri" : "spotify:track:6oTpuyCqeYRUWpHzLLjH05"
    }, {
      "album" : {
        "album_type" : "album",
        "artists" : [ {
          "external_urls" : {
            "spotify" : "https://open.spotify.com/artist/3SgHzT552wy2W8pNLaLk24"
          },
          "href" : "https://api.spotify.com/v1/artists/3SgHzT552wy2W8pNLaLk24",
          "id" : "3SgHzT552wy2W8pNLaLk24",
          "name" : "Hillsong Worship",
          "type" : "artist",
          "uri" : "spotify:artist:3SgHzT552wy2W8pNLaLk24"
        } ],
        "external_urls" : {
          "spotify" : "https://open.spotify.com/album/1OrZpETlp9ZUT1qbLvYMu0"
        },
        "href" : "https://api.spotify.com/v1/albums/1OrZpETlp9ZUT1qbLvYMu0",
        "id" : "1OrZpETlp9ZUT1qbLvYMu0",
        "images" : [ {
          "height" : 640,
          "url" : "https://i.scdn.co/image/ab67616d0000b273eb90652a8b85491a91ffcf0b",
          "width" : 640
        }, {
          "height" : 300,
          "url" : "https://i.scdn.co/image/ab67616d00001e02eb90652a8b85491a91ffcf0b",
          "width" : 300
        }, {
          "height" : 64,
          "url" : "https://i.scdn.co/image/ab67616d00004851eb90652a8b85491a91ffcf0b",
          "width" : 64
        } ],
        "name" : "Awake (Deluxe)",
        "release_date" : "2019-10-11",
        "release_date_precision" : "day",
        "total_tracks" : 27,
        "type" : "album",
        "uri" : "spotify:album:1OrZpETlp9ZUT1qbLvYMu0"
      },
      "artists" : [ {
        "external_urls" : {
          "spotify" : "https://open.spotify.com/artist/3SgHzT552wy2W8pNLaLk24"
        },
        "href" : "https://api.spotify.com/v1/artists/3SgHzT552wy2W8pNLaLk24",
        "id" : "3SgHzT552wy2W8pNLaLk24",
        "name" : "Hillsong Worship",
        "type" : "artist",
        "uri" : "spotify:artist:3SgHzT552wy2W8pNLaLk24"
      } ],
      "disc_number" : 1,
      "duration_ms" : 262346,
      "explicit" : false,
      "external_ids" : {
        "isrc" : "AUHS02013281"
      },
      "external_urls" : {
        "spotify" : "https://open.spotify.com/track/4jiVO9aVgClCXHUP3rsCjh"
      },
      "href" : "https://api.spotify.com/v1/tracks/4jiVO9aVgClCXHUP3rsCjh",
      "id" : "4jiVO9aVgClCXHUP3rsCjh",
      "is_local" : false,
      "is_playable" : true,
      "name" : "Awake My Soul - Acoustic/Live",
      "popularity" : 30,
      "preview_url" : null,
      "track_number" : 20,
      "type" : "track",
      "uri" : "spotify:track:4jiVO9aVgClCXHUP3rsCjh"
    }, {
      "album" : {
        "album_type" : "album",
        "artists" : [ {
          "external_urls" : {
            "spotify" : "https://open.spotify.com/artist/3DJuBJtjHdjAXlpIZCltTR"
          },
          "href" : "https://api.spotify.com/v1/artists/3DJuBJtjHdjAXlpIZCltTR",
          "id" : "3DJuBJtjHdjAXlpIZCltTR",
          "name" : "Sean Feucht",
          "type" : "artist",
          "uri" : "spotify:artist:3DJuBJtjHdjAXlpIZCltTR"
        } ],
        "external_urls" : {
          "spotify" : "https://open.spotify.com/album/70YrxsR6EwqtD0QTurC8my"
        },
        "href" : "https://api.spotify.com/v1/albums/70YrxsR6EwqtD0QTurC8my",
        "id" : "70YrxsR6EwqtD0QTurC8my",
        "images" : [ {
          "height" : 640,
          "url" : "https://i.scdn.co/image/ab67616d0000b27326308ac674fce431c5be1c3d",
          "width" : 640
        }, {
          "height" : 300,
          "url" : "https://i.scdn.co/image/ab67616d00001e0226308ac674fce431c5be1c3d",
          "width" : 300
        }, {
          "height" : 64,
          "url" : "https://i.scdn.co/image/ab67616d0000485126308ac674fce431c5be1c3d",
          "width" : 64
        } ],
        "name" : "Messengers",
        "release_date" : "2014-05-29",
        "release_date_precision" : "day",
        "total_tracks" : 12,
        "type" : "album",
        "uri" : "spotify:album:70YrxsR6EwqtD0QTurC8my"
      },
      "artists" : [ {
        "external_urls" : {
          "spotify" : "https://open.spotify.com/artist/3DJuBJtjHdjAXlpIZCltTR"
        },
        "href" : "https://api.spotify.com/v1/artists/3DJuBJtjHdjAXlpIZCltTR",
        "id" : "3DJuBJtjHdjAXlpIZCltTR",
        "name" : "Sean Feucht",
        "type" : "artist",
        "uri" : "spotify:artist:3DJuBJtjHdjAXlpIZCltTR"
      }, {
        "external_urls" : {
          "spotify" : "https://open.spotify.com/artist/0uWNGisbRTdz6E5O3V3Sc8"
        },
        "href" : "https://api.spotify.com/v1/artists/0uWNGisbRTdz6E5O3V3Sc8",
        "id" : "0uWNGisbRTdz6E5O3V3Sc8",
        "name" : "Kristene Dimarco",
        "type" : "artist",
        "uri" : "spotify:artist:0uWNGisbRTdz6E5O3V3Sc8"
      } ],
      "disc_number" : 1,
      "duration_ms" : 349540,
      "explicit" : false,
      "external_ids" : {
        "isrc" : "QMB981400352"
      },
      "external_urls" : {
        "spotify" : "https://open.spotify.com/track/6IPBL7501ZgWTlbsuRPmCO"
      },
      "href" : "https://api.spotify.com/v1/tracks/6IPBL7501ZgWTlbsuRPmCO",
      "id" : "6IPBL7501ZgWTlbsuRPmCO",
      "is_local" : false,
      "is_playable" : true,
      "name" : "Awake My Soul (feat. Kristene Dimarco)",
      "popularity" : 32,
      "preview_url" : "https://p.scdn.co/mp3-preview/c38f9e6b55212deea4899549cc59829253c31c80?cid=774b29d4f13844c495f206cafdad9c86",
      "track_number" : 1,
      "type" : "track",
      "uri" : "spotify:track:6IPBL7501ZgWTlbsuRPmCO"
    }, {
      "album" : {
        "album_type" : "album",
        "artists" : [ {
          "external_urls" : {
            "spotify" : "https://open.spotify.com/artist/1dPl8axUL09mso0myZqPZW"
          },
          "href" : "https://api.spotify.com/v1/artists/1dPl8axUL09mso0myZqPZW",
          "id" : "1dPl8axUL09mso0myZqPZW",
          "name" : "Matt Maher",
          "type" : "artist",
          "uri" : "spotify:artist:1dPl8axUL09mso0myZqPZW"
        } ],
        "external_urls" : {
          "spotify" : "https://open.spotify.com/album/7HKEDHznm7Zngpw3oHkorA"
        },
        "href" : "https://api.spotify.com/v1/albums/7HKEDHznm7Zngpw3oHkorA",
        "id" : "7HKEDHznm7Zngpw3oHkorA",
        "images" : [ {
          "height" : 640,
          "url" : "https://i.scdn.co/image/ab67616d0000b273c7da4314ae56482270550dfd",
          "width" : 640
        }, {
          "height" : 300,
          "url" : "https://i.scdn.co/image/ab67616d00001e02c7da4314ae56482270550dfd",
          "width" : 300
        }, {
          "height" : 64,
          "url" : "https://i.scdn.co/image/ab67616d00004851c7da4314ae56482270550dfd",
          "width" : 64
        } ],
        "name" : "Echoes (Deluxe Edition)",
        "release_date" : "2017-09-29",
        "release_date_precision" : "day",
        "total_tracks" : 16,
        "type" : "album",
        "uri" : "spotify:album:7HKEDHznm7Zngpw3oHkorA"
      },
      "artists" : [ {
        "external_urls" : {
          "spotify" : "https://open.spotify.com/artist/1dPl8axUL09mso0myZqPZW"
        },
        "href" : "https://api.spotify.com/v1/artists/1dPl8axUL09mso0myZqPZW",
        "id" : "1dPl8axUL09mso0myZqPZW",
        "name" : "Matt Maher",
        "type" : "artist",
        "uri" : "spotify:artist:1dPl8axUL09mso0myZqPZW"
      } ],
      "disc_number" : 1,
      "duration_ms" : 231280,
      "explicit" : false,
      "external_ids" : {
        "isrc" : "USA5W1700138"
      },
      "external_urls" : {
        "spotify" : "https://open.spotify.com/track/62G1fPW9lyLHs1DGOyDRjL"
      },
      "href" : "https://api.spotify.com/v1/tracks/62G1fPW9lyLHs1DGOyDRjL",
      "id" : "62G1fPW9lyLHs1DGOyDRjL",
      "is_local" : false,
      "is_playable" : true,
      "name" : "Awake My Soul (A Thousand Tongues)",
      "popularity" : 31,
      "preview_url" : "https://p.scdn.co/mp3-preview/b192e9eeb7b89cea53697f4f9a8f7e09c0f7025a?cid=774b29d4f13844c495f206cafdad9c86",
      "track_number" : 7,
      "type" : "track",
      "uri" : "spotify:track:62G1fPW9lyLHs1DGOyDRjL"
    }, {
      "album" : {
        "album_type" : "album",
        "artists" : [ {
          "external_urls" : {
            "spotify" : "https://open.spotify.com/artist/4YCpRzudpG6AeE0IvCjiGo"
          },
          "href" : "https://api.spotify.com/v1/artists/4YCpRzudpG6AeE0IvCjiGo",
          "id" : "4YCpRzudpG6AeE0IvCjiGo",
          "name" : "United Pursuit",
          "type" : "artist",
          "uri" : "spotify:artist:4YCpRzudpG6AeE0IvCjiGo"
        } ],
        "external_urls" : {
          "spotify" : "https://open.spotify.com/album/49Sji0qFHMPviE2XKNTxzk"
        },
        "href" : "https://api.spotify.com/v1/albums/49Sji0qFHMPviE2XKNTxzk",
        "id" : "49Sji0qFHMPviE2XKNTxzk",
        "images" : [ {
          "height" : 640,
          "url" : "https://i.scdn.co/image/ab67616d0000b273186b99c16a671e882aae62f1",
          "width" : 640
        }, {
          "height" : 300,
          "url" : "https://i.scdn.co/image/ab67616d00001e02186b99c16a671e882aae62f1",
          "width" : 300
        }, {
          "height" : 64,
          "url" : "https://i.scdn.co/image/ab67616d00004851186b99c16a671e882aae62f1",
          "width" : 64
        } ],
        "name" : "Looking for a Savior",
        "release_date" : "2016-08-26",
        "release_date_precision" : "day",
        "total_tracks" : 6,
        "type" : "album",
        "uri" : "spotify:album:49Sji0qFHMPviE2XKNTxzk"
      },
      "artists" : [ {
        "external_urls" : {
          "spotify" : "https://open.spotify.com/artist/4YCpRzudpG6AeE0IvCjiGo"
        },
        "href" : "https://api.spotify.com/v1/artists/4YCpRzudpG6AeE0IvCjiGo",
        "id" : "4YCpRzudpG6AeE0IvCjiGo",
        "name" : "United Pursuit",
        "type" : "artist",
        "uri" : "spotify:artist:4YCpRzudpG6AeE0IvCjiGo"
      }, {
        "external_urls" : {
          "spotify" : "https://open.spotify.com/artist/3fKQOMOuRBYdymdO5yTKkp"
        },
        "href" : "https://api.spotify.com/v1/artists/3fKQOMOuRBYdymdO5yTKkp",
        "id" : "3fKQOMOuRBYdymdO5yTKkp",
        "name" : "Brock Human",
        "type" : "artist",
        "uri" : "spotify:artist:3fKQOMOuRBYdymdO5yTKkp"
      } ],
      "disc_number" : 1,
      "duration_ms" : 287373,
      "explicit" : false,
      "external_ids" : {
        "isrc" : "QMDES1600029"
      },
      "external_urls" : {
        "spotify" : "https://open.spotify.com/track/2biFuU3fuOXKDkhrmYmUkT"
      },
      "href" : "https://api.spotify.com/v1/tracks/2biFuU3fuOXKDkhrmYmUkT",
      "id" : "2biFuU3fuOXKDkhrmYmUkT",
      "is_local" : false,
      "is_playable" : true,
      "name" : "Awake My Soul (feat. Brock Human)",
      "popularity" : 29,
      "preview_url" : "https://p.scdn.co/mp3-preview/95edcf634afbf51bf47c28bc19cc9b6e84851e40?cid=774b29d4f13844c495f206cafdad9c86",
      "track_number" : 4,
      "type" : "track",
      "uri" : "spotify:track:2biFuU3fuOXKDkhrmYmUkT"
    }, {
      "album" : {
        "album_type" : "album",
        "artists" : [ {
          "external_urls" : {
            "spotify" : "https://open.spotify.com/artist/3mGCLimuzOdod4Lnegny4d"
          },
          "href" : "https://api.spotify.com/v1/artists/3mGCLimuzOdod4Lnegny4d",
          "id" : "3mGCLimuzOdod4Lnegny4d",
          "name" : "Twinkle Twinkle Little Rock Star",
          "type" : "artist",
          "uri" : "spotify:artist:3mGCLimuzOdod4Lnegny4d"
        } ],
        "external_urls" : {
          "spotify" : "https://open.spotify.com/album/7MnTSh0jmzD9rb18K7Vr5e"
        },
        "href" : "https://api.spotify.com/v1/albums/7MnTSh0jmzD9rb18K7Vr5e",
        "id" : "7MnTSh0jmzD9rb18K7Vr5e",
        "images" : [ {
          "height" : 640,
          "url" : "https://i.scdn.co/image/ab67616d0000b273d387c7651032df30de598075",
          "width" : 640
        }, {
          "height" : 300,
          "url" : "https://i.scdn.co/image/ab67616d00001e02d387c7651032df30de598075",
          "width" : 300
        }, {
          "height" : 64,
          "url" : "https://i.scdn.co/image/ab67616d00004851d387c7651032df30de598075",
          "width" : 64
        } ],
        "name" : "Lullaby Versions of Mumford & Sons",
        "release_date" : "2012-10-23",
        "release_date_precision" : "day",
        "total_tracks" : 14,
        "type" : "album",
        "uri" : "spotify:album:7MnTSh0jmzD9rb18K7Vr5e"
      },
      "artists" : [ {
        "external_urls" : {
          "spotify" : "https://open.spotify.com/artist/3mGCLimuzOdod4Lnegny4d"
        },
        "href" : "https://api.spotify.com/v1/artists/3mGCLimuzOdod4Lnegny4d",
        "id" : "3mGCLimuzOdod4Lnegny4d",
        "name" : "Twinkle Twinkle Little Rock Star",
        "type" : "artist",
        "uri" : "spotify:artist:3mGCLimuzOdod4Lnegny4d"
      } ],
      "disc_number" : 1,
      "duration_ms" : 197442,
      "explicit" : false,
      "external_ids" : {
        "isrc" : "USA2P1266265"
      },
      "external_urls" : {
        "spotify" : "https://open.spotify.com/track/4hKm7nInHEcU1ingjNsaX4"
      },
      "href" : "https://api.spotify.com/v1/tracks/4hKm7nInHEcU1ingjNsaX4",
      "id" : "4hKm7nInHEcU1ingjNsaX4",
      "is_local" : false,
      "is_playable" : true,
      "name" : "Awake My Soul",
      "popularity" : 23,
      "preview_url" : "https://p.scdn.co/mp3-preview/c3e79b74e95bfe09e1f5c9985e76278aed01855a?cid=774b29d4f13844c495f206cafdad9c86",
      "track_number" : 1,
      "type" : "track",
      "uri" : "spotify:track:4hKm7nInHEcU1ingjNsaX4"
    }, {
      "album" : {
        "album_type" : "album",
        "artists" : [ {
          "external_urls" : {
            "spotify" : "https://open.spotify.com/artist/7dwgF5A7mYh6TXThNIETno"
          },
          "href" : "https://api.spotify.com/v1/artists/7dwgF5A7mYh6TXThNIETno",
          "id" : "7dwgF5A7mYh6TXThNIETno",
          "name" : "Salt Lake City LDS Ensemble",
          "type" : "artist",
          "uri" : "spotify:artist:7dwgF5A7mYh6TXThNIETno"
        } ],
        "external_urls" : {
          "spotify" : "https://open.spotify.com/album/7zKv0nVGjZvlzPRmhacYWl"
        },
        "href" : "https://api.spotify.com/v1/albums/7zKv0nVGjZvlzPRmhacYWl",
        "id" : "7zKv0nVGjZvlzPRmhacYWl",
        "images" : [ {
          "height" : 640,
          "url" : "https://i.scdn.co/image/ab67616d0000b273d6f99033ee9151ebf6a4db7a",
          "width" : 640
        }, {
          "height" : 300,
          "url" : "https://i.scdn.co/image/ab67616d00001e02d6f99033ee9151ebf6a4db7a",
          "width" : 300
        }, {
          "height" : 64,
          "url" : "https://i.scdn.co/image/ab67616d00004851d6f99033ee9151ebf6a4db7a",
          "width" : 64
        } ],
        "name" : "Mormon Hymns",
        "release_date" : "2015-08-16",
        "release_date_precision" : "day",
        "total_tracks" : 29,
        "type" : "album",
        "uri" : "spotify:album:7zKv0nVGjZvlzPRmhacYWl"
      },
      "artists" : [ {
        "external_urls" : {
          "spotify" : "https://open.spotify.com/artist/7dwgF5A7mYh6TXThNIETno"
        },
        "href" : "https://api.spotify.com/v1/artists/7dwgF5A7mYh6TXThNIETno",
        "id" : "7dwgF5A7mYh6TXThNIETno",
        "name" : "Salt Lake City LDS Ensemble",
        "type" : "artist",
        "uri" : "spotify:artist:7dwgF5A7mYh6TXThNIETno"
      } ],
      "disc_number" : 1,
      "duration_ms" : 208250,
      "explicit" : false,
      "external_ids" : {
        "isrc" : "USLZJ1545093"
      },
      "external_urls" : {
        "spotify" : "https://open.spotify.com/track/18e5w8IOjhph7V5gXmnKCB"
      },
      "href" : "https://api.spotify.com/v1/tracks/18e5w8IOjhph7V5gXmnKCB",
      "id" : "18e5w8IOjhph7V5gXmnKCB",
      "is_local" : false,
      "is_playable" : true,
      "name" : "Awake My Soul",
      "popularity" : 17,
      "preview_url" : "https://p.scdn.co/mp3-preview/19f3c383381f123fd109d652193da6c0891f6c7a?cid=774b29d4f13844c495f206cafdad9c86",
      "track_number" : 3,
      "type" : "track",
      "uri" : "spotify:track:18e5w8IOjhph7V5gXmnKCB"
    }, {
      "album" : {
        "album_type" : "album",
        "artists" : [ {
          "external_urls" : {
            "spotify" : "https://open.spotify.com/artist/5ljRAiIgLFVxzWg7vS1Rnl"
          },
          "href" : "https://api.spotify.com/v1/artists/5ljRAiIgLFVxzWg7vS1Rnl",
          "id" : "5ljRAiIgLFVxzWg7vS1Rnl",
          "name" : "Christian Devotion",
          "type" : "artist",
          "uri" : "spotify:artist:5ljRAiIgLFVxzWg7vS1Rnl"
        } ],
        "external_urls" : {
          "spotify" : "https://open.spotify.com/album/0MDMpSMhKVFj5oUe7TY56b"
        },
        "href" : "https://api.spotify.com/v1/albums/0MDMpSMhKVFj5oUe7TY56b",
        "id" : "0MDMpSMhKVFj5oUe7TY56b",
        "images" : [ {
          "height" : 640,
          "url" : "https://i.scdn.co/image/ab67616d0000b273a2d131105ae14f594da119ef",
          "width" : 640
        }, {
          "height" : 300,
          "url" : "https://i.scdn.co/image/ab67616d00001e02a2d131105ae14f594da119ef",
          "width" : 300
        }, {
          "height" : 64,
          "url" : "https://i.scdn.co/image/ab67616d00004851a2d131105ae14f594da119ef",
          "width" : 64
        } ],
        "name" : "Hymns for Peace",
        "release_date" : "2015-12-21",
        "release_date_precision" : "day",
        "total_tracks" : 18,
        "type" : "album",
        "uri" : "spotify:album:0MDMpSMhKVFj5oUe7TY56b"
      },
      "artists" : [ {
        "external_urls" : {
          "spotify" : "https://open.spotify.com/artist/5ljRAiIgLFVxzWg7vS1Rnl"
        },
        "href" : "https://api.spotify.com/v1/artists/5ljRAiIgLFVxzWg7vS1Rnl",
        "id" : "5ljRAiIgLFVxzWg7vS1Rnl",
        "name" : "Christian Devotion",
        "type" : "artist",
        "uri" : "spotify:artist:5ljRAiIgLFVxzWg7vS1Rnl"
      } ],
      "disc_number" : 1,
      "duration_ms" : 208250,
      "explicit" : false,
      "external_ids" : {
        "isrc" : "USA2P1563032"
      },
      "external_urls" : {
        "spotify" : "https://open.spotify.com/track/3OkjRPeUH5lMHe60VS8for"
      },
      "href" : "https://api.spotify.com/v1/tracks/3OkjRPeUH5lMHe60VS8for",
      "id" : "3OkjRPeUH5lMHe60VS8for",
      "is_local" : false,
      "is_playable" : true,
      "name" : "Awake My Soul",
      "popularity" : 18,
      "preview_url" : "https://p.scdn.co/mp3-preview/2c862a4ac302f566bfb0cf7961aad7d3e2b4264b?cid=774b29d4f13844c495f206cafdad9c86",
      "track_number" : 5,
      "type" : "track",
      "uri" : "spotify:track:3OkjRPeUH5lMHe60VS8for"
    }, {
      "album" : {
        "album_type" : "album",
        "artists" : [ {
          "external_urls" : {
            "spotify" : "https://open.spotify.com/artist/4PSu1SQggtYR5cLPHddoOJ"
          },
          "href" : "https://api.spotify.com/v1/artists/4PSu1SQggtYR5cLPHddoOJ",
          "id" : "4PSu1SQggtYR5cLPHddoOJ",
          "name" : "Piano Prayer",
          "type" : "artist",
          "uri" : "spotify:artist:4PSu1SQggtYR5cLPHddoOJ"
        } ],
        "external_urls" : {
          "spotify" : "https://open.spotify.com/album/0EsfnNRxMfdzjgMGAhIpyE"
        },
        "href" : "https://api.spotify.com/v1/albums/0EsfnNRxMfdzjgMGAhIpyE",
        "id" : "0EsfnNRxMfdzjgMGAhIpyE",
        "images" : [ {
          "height" : 640,
          "url" : "https://i.scdn.co/image/ab67616d0000b27354fd0623cb5dc951b6cf4696",
          "width" : 640
        }, {
          "height" : 300,
          "url" : "https://i.scdn.co/image/ab67616d00001e0254fd0623cb5dc951b6cf4696",
          "width" : 300
        }, {
          "height" : 64,
          "url" : "https://i.scdn.co/image/ab67616d0000485154fd0623cb5dc951b6cf4696",
          "width" : 64
        } ],
        "name" : "Awake",
        "release_date" : "2019-11-08",
        "release_date_precision" : "day",
        "total_tracks" : 12,
        "type" : "album",
        "uri" : "spotify:album:0EsfnNRxMfdzjgMGAhIpyE"
      },
      "artists" : [ {
        "external_urls" : {
          "spotify" : "https://open.spotify.com/artist/4PSu1SQggtYR5cLPHddoOJ"
        },
        "href" : "https://api.spotify.com/v1/artists/4PSu1SQggtYR5cLPHddoOJ",
        "id" : "4PSu1SQggtYR5cLPHddoOJ",
        "name" : "Piano Prayer",
        "type" : "artist",
        "uri" : "spotify:artist:4PSu1SQggtYR5cLPHddoOJ"
      } ],
      "disc_number" : 1,
      "duration_ms" : 257834,
      "explicit" : false,
      "external_ids" : {
        "isrc" : "QZGWW1988485"
      },
      "external_urls" : {
        "spotify" : "https://open.spotify.com/track/3IQBHPwSgde9UKTYdoKvPQ"
      },
      "href" : "https://api.spotify.com/v1/tracks/3IQBHPwSgde9UKTYdoKvPQ",
      "id" : "3IQBHPwSgde9UKTYdoKvPQ",
      "is_local" : false,
      "is_playable" : true,
      "name" : "Awake My Soul",
      "popularity" : 18,
      "preview_url" : "https://p.scdn.co/mp3-preview/d7130e848e6e9e557152a4212f0333e973a40ed3?cid=774b29d4f13844c495f206cafdad9c86",
      "track_number" : 2,
      "type" : "track",
      "uri" : "spotify:track:3IQBHPwSgde9UKTYdoKvPQ"
    } ],
    "limit" : 10,
    "next" : "https://api.spotify.com/v1/search?query=Awake%2C+My+Soul%21&type=track&market=US&offset=15&limit=10",
    "offset" : 5,
    "previous" : "https://api.spotify.com/v1/search?query=Awake%2C+My+Soul%21&type=track&market=US&offset=0&limit=10",
    "total" : 745
  }
}