{
  "tracks" : {
    "href" : "https://api.spotify.com/v1/search?query=Shalom&type=track&market=US&offset=5&limit=10",
    "items" : [ {
      "album" : {
        "album_type" : "album",
        "artists" : [ {
          "external_urls" : {
            "spotify" : "https://open.spotify.com/artist/4de4MpNCgdPzahRytmCf9i"
          },
          "href" : "https://api.spotify.com/v1/artists/4de4MpNCgdPzahRytmCf9i",
          "id" : "4de4MpNCgdPzahRytmCf9i",
          "name" : "KING DEV",
          "type" : "artist",
          "uri" : "spotify:artist:4de4MpNCgdPzahRytmCf9i"
        } ],
        "external_urls" : {
          "spotify" : "https://open.spotify.com/album/50AlTo0HQBeMa6bcg4F0Bf"
        },
        "href" : "https://api.spotify.com/v1/albums/50AlTo0HQBeMa6bcg4F0Bf",
        "id" : "50AlTo0HQBeMa6bcg4F0Bf",
        "images" : [ {
          "height" : 640,
          "url" : "https://i.scdn.co/image/ab67616d0000b27319511830d7159d23ae60c168",
          "width" : 640
        }, {
          "height" : 300,
          "url" : "https://i.scdn.co/image/ab67616d00001e0219511830d7159d23ae60c168",
          "width" : 300
        }, {
          "height" : 64,
          "url" : "https://i.scdn.co/image/ab67616d0000485119511830d7159d23ae60c168",
          "width" : 64
        } ],
        "name" : "Morocco",
        "release_date" : "2019-08-22",
        "release_date_precision" : "day",
        "total_tracks" : 7,
        "type" : "album",
        "uri" : "spotify:album:50AlTo0HQBeMa6bcg4F0Bf"
      },
      "artists" : [ {
        "external_urls" : {
          "spotify" : "https://open.spotify.com/artist/4de4MpNCgdPzahRytmCf9i"
        },
        "href" : "https://api.spotify.com/v1/artists/4de4MpNCgdPzahRytmCf9i",
        "id" : "4de4MpNCgdPzahRytmCf9i",
        "name" : "KING DEV",
        "type" : "artist",
        "uri" : "spotify:artist:4de4MpNCgdPzahRytmCf9i"
      } ],
      "disc_number" : 1,
      "duration_ms" : 156368,
      "explicit" : true,
      "external_ids" : {
        "isrc" : "TCAEJ1952238"
      },
      "external_urls" : {
        "spotify" : "https://open.spotify.com/track/341CKC7EvSMznWD8dYH3mN"
      },
      "href" : "https://api.spotify.com/v1/tracks/341CKC7EvSMznWD8dYH3mN",
      "id" : "341CKC7EvSMznWD8dYH3mN",
      "is_local" : false,
      "is_playable" : true,
      "name" : "Shalom",
      "popularity" : 27,
      "preview_url" : "https://p.scdn.co/mp3-preview/9a31a752ea9950a1a8b7c816c66474371382786e?cid=774b29d4f13844c495f206cafdad9c86",
      "track_number" : 2,
      "type" : "track",
      "uri" : "spotify:track:341CKC7EvSMznWD8dYH3mN"
    }, {
      "album" : {
        "album_type" : "single",
        "artists" : [ {
          "external_urls" : {
            "spotify" : "https://open.spotify.com/artist/1wsoV3RXPkxVz3PwsNRI5K"
          },
          "href" : "https://api.spotify.com/v1/artists/1wsoV3RXPkxVz3PwsNRI5K",
          "id" : "1wsoV3RXPkxVz3PwsNRI5K",
          "name" : "BewhY",
          "type" : "artist",
          "uri" : "spotify:artist:1wsoV3RXPkxVz3PwsNRI5K"
        } ],
        "external_urls" : {
          "spotify" : "https://open.spotify.com/album/6BbPd8ytEQG9NQv1vC66io"
        },
        "href" : "https://api.spotify.com/v1/albums/6BbPd8ytEQG9NQv1vC66io",
        "id" : "6BbPd8ytEQG9NQv1vC66io",
        "images" : [ {
          "height" : 640,
          "url" : "https://i.scdn.co/image/ab67616d0000b273b4b68a53ccb3ad23c4364f44",
          "width" : 640
        }, {
          "height" : 300,
          "url" : "https://i.scdn.co/image/ab67616d00001e02b4b68a53ccb3ad23c4364f44",
          "width" : 300
        }, {
          "height" : 64,
          "url" : "https://i.scdn.co/image/ab67616d00004851b4b68a53ccb3ad23c4364f44",
          "width" : 64
        } ],
        "name" : "Shalom",
        "release_date" : "2016-04-06",
        "release_date_precision" : "day",
        "total_tracks" : 1,
        "type" : "album",
        "uri" : "spotify:album:6BbPd8ytEQG9NQv1vC66io"
      },
      "artists" : [ {
        "external_urls" : {
          "spotify" : "https://open.spotify.com/artist/1wsoV3RXPkxVz3PwsNRI5K"
        },
        "href" : "https://api.spotify.com/v1/artists/1wsoV3RXPkxVz3PwsNRI5K",
        "id" : "1wsoV3RXPkxVz3PwsNRI5K",
        "name" : "BewhY",
        "type" : "artist",
        "uri" : "spotify:artist:1wsoV3RXPkxVz3PwsNRI5K"
      } ],
      "disc_number" : 1,
      "duration_ms" : 280803,
      "explicit" : false,
      "external_ids" : {
        "isrc" : "KRNAR1600752"
      },
      "external_urls" : {
        "spotify" : "https://open.spotify.com/track/2B9jMlaTQ6gwhPj3yclqZs"
      },
      "href" : "https://api.spotify.com/v1/tracks/2B9jMlaTQ6gwhPj3yclqZs",
      "id" : "2B9jMlaTQ6gwhPj3yclqZs",
      "is_local" : false,
      "is_playable" : true,
      "name" : "Shalom",
      "popularity" : 29,
      "preview_url" : "https://p.scdn.co/mp3-preview/834d22c9b7719e52b611c3593b35a76a6583e82e?cid=774b29d4f13844c495f206cafdad9c86",
      "track_number" : 1,
      "type" : "track",
      "uri" : "spotify:track:2B9jMlaTQ6gwhPj3yclqZs"
    }, {
      "album" : {
        "album_type" : "album",
        "artists" : [ {
          "external_urls" : {
            "spotify" : "https://open.spotify.com/artist/7hR5qFME3Zu6i775XdrKEv"
          },
          "href" : "https://api.spotify.com/v1/artists/7hR5qFME3Zu6i775XdrKEv",
          "id" : "7hR5qFME3Zu6i775XdrKEv",
          "name" : "Joshua Aaron",
          "type" : "artist",
          "uri" : "spotify:artist:7hR5qFME3Zu6i775XdrKEv"
        } ],
        "external_urls" : {
          "spotify" : "https://open.spotify.com/album/1ad79uxyRPv1zbZYSAs4Zj"
        },
        "href" : "https://api.spotify.com/v1/albums/1ad79uxyRPv1zbZYSAs4Zj",
        "id" : "1ad79uxyRPv1zbZYSAs4Zj",
        "images" : [ {
          "height" : 640,
          "url" : "https://i.scdn.co/image/ab67616d0000b273489a0e8ea72b9f55a9078811",
          "width" : 640
        }, {
          "height" : 300,
          "url" : "https://i.scdn.co/image/ab67616d00001e02489a0e8ea72b9f55a9078811",
          "width" : 300
        }, {
          "height" : 64,
          "url" : "https://i.scdn.co/image/ab67616d00004851489a0e8ea72b9f55a9078811",
          "width" : 64
        } ],
        "name" : "Every Tribe",
        "release_date" : "2016-12-16",
        "release_date_precision" : "day",
        "total_tracks" : 13,
        "type" : "album",
        "uri" : "spotify:album:1ad79uxyRPv1zbZYSAs4Zj"
      },
      "artists" : [ {
        "external_urls" : {
          "spotify" : "https://open.spotify.com/artist/7hR5qFME3Zu6i775XdrKEv"
        },
        "href" : "https://api.spotify.com/v1/artists/7hR5qFME3Zu6i775XdrKEv",
        "id" : "7hR5qFME3Zu6i775XdrKEv",
        "name" : "Joshua Aaron",
        "type" : "artist",
        "uri" : "spotify:artist:7hR5qFME3Zu6i775XdrKEv"
      } ],
      "disc_number" : 1,
      "duration_ms" : 208026,
      "explicit" : false,
      "external_ids" : {
        "isrc" : "TCACU1600188"
      },
      "external_urls" : {
        "spotify" : "https://open.spotify.com/track/5UKmRSvkboS8vYv9lemfDe"
      },
      "href" : "https://api.spotify.com/v1/tracks/5UKmRSvkboS8vYv9lemfDe",
      "id" : "5UKmRSvkboS8vYv9lemfDe",
      "is_local" : false,
      "is_playable" : true,
      "name" : "Shalom",
      "popularity" : 29,
      "preview_url" : "https://p.scdn.co/mp3-preview/b8ef1cac235c253bc23adbc6b2fd3901abf810d1?cid=774b29d4f13844c495f206cafdad9c86",
      "track_number" : 1,
      "type" : "track",
      "uri" : "spotify:track:5UKmRSvkboS8vYv9lemfDe"
    }, {
      "album" : {
        "album_type" : "single",
        "artists" : [ {
          "external_urls" : {
            "spotify" : "https://open.spotify.com/artist/2PeKIGeEF7ELTkxT4GVJYd"
          },
          "href" : "https://api.spotify.com/v1/artists/2PeKIGeEF7ELTkxT4GVJYd",
          "id" : "2PeKIGeEF7ELTkxT4GVJYd",
          "name" : "Ari Abramovitz",
          "type" : "artist",
          "uri" : "spotify:artist:2PeKIGeEF7ELTkxT4GVJYd"
        } ],
        "external_urls" : {
          "spotify" : "https://open.spotify.com/album/5wKzSPEocbSRxBnCYCCTQg"
        },
        "href" : "https://api.spotify.com/v1/albums/5wKzSPEocbSRxBnCYCCTQg",
        "id" : "5wKzSPEocbSRxBnCYCCTQg",
        "images" : [ {
          "height" : 640,
          "url" : "https://i.scdn.co/image/ab67616d0000b273f5820f839bae9a88c82b5c7d",
          "width" : 640
        }, {
          "height" : 300,
          "url" : "https://i.scdn.co/image/ab67616d00001e02f5820f839bae9a88c82b5c7d",
          "width" : 300
        }, {
          "height" : 64,
          "url" : "https://i.scdn.co/image/ab67616d00004851f5820f839bae9a88c82b5c7d",
          "width" : 64
        } ],
        "name" : "Shalom",
        "release_date" : "2015-10-28",
        "release_date_precision" : "day",
        "total_tracks" : 1,
        "type" : "album",
        "uri" : "spotify:album:5wKzSPEocbSRxBnCYCCTQg"
      },
      "artists" : [ {
        "external_urls" : {
          "spotify" : "https://open.spotify.com/artist/2PeKIGeEF7ELTkxT4GVJYd"
        },
        "href" : "https://api.spotify.com/v1/artists/2PeKIGeEF7ELTkxT4GVJYd",
        "id" : "2PeKIGeEF7ELTkxT4GVJYd",
        "name" : "Ari Abramovitz",
        "type" : "artist",
        "uri" : "spotify:artist:2PeKIGeEF7ELTkxT4GVJYd"
      } ],
      "disc_number" : 1,
      "duration_ms" : 159402,
      "explicit" : false,
      "external_ids" : {
        "isrc" : "ushm81556891"
      },
      "external_urls" : {
        "spotify" : "https://open.spotify.com/track/6dqlzBRzhoLY3Nr561Qg1B"
      },
      "href" : "https://api.spotify.com/v1/tracks/6dqlzBRzhoLY3Nr561Qg1B",
      "id" : "6dqlzBRzhoLY3Nr561Qg1B",
      "is_local" : false,
      "is_playable" : true,
      "name" : "Shalom",
      "popularity" : 22,
      "preview_url" : "https://p.scdn.co/mp3-preview/b8611b1e644303d670ed237a2df136cc81db5a9c?cid=774b29d4f13844c495f206cafdad9c86",
      "track_number" : 1,
      "type" : "track",
      "uri" : "spotify:track:6dqlzBRzhoLY3Nr561Qg1B"
    }, {
      "album" : {
        "album_type" : "album",
        "artists" : [ {
          "external_urls" : {
            "spotify" : "https://open.spotify.com/artist/0c2Jcp6eQW5gsaPdrsI6uP"
          },
          "href" : "https://api.spotify.com/v1/artists/0c2Jcp6eQW5gsaPdrsI6uP",
          "id" : "0c2Jcp6eQW5gsaPdrsI6uP",
          "name" : "Ari Goldwag",
          "type" : "artist",
          "uri" : "spotify:artist:0c2Jcp6eQW5gsaPdrsI6uP"
        } ],
        "external_urls" : {
          "spotify" : "https://open.spotify.com/album/3euQcEtK31xGZtwclglwiP"
        },
        "href" : "https://api.spotify.com/v1/albums/3euQcEtK31xGZtwclglwiP",
        "id" : "3euQcEtK31xGZtwclglwiP",
        "images" : [ {
          "height" : 640,
          "url" : "https://i.scdn.co/image/ab67616d0000b273a1e4f7ae2350e18f078055bb",
          "width" : 640
        }, {
          "height" : 300,
          "url" : "https://i.scdn.co/image/ab67616d00001e02a1e4f7ae2350e18f078055bb",
          "width" : 300
        }, {
          "height" : 64,
          "url" : "https://i.scdn.co/image/ab67616d00004851a1e4f7ae2350e18f078055bb",
          "width" : 64
        } ],
        "name" : "A Cappella Soul 2",
        "release_date" : "2014-04-16",
        "release_date_precision" : "day",
        "total_tracks" : 11,
        "type" : "album",
        "uri" : "spotify:album:3euQcEtK31xGZtwclglwiP"
      },
      "artists" : [ {
        "external_urls" : {
          "spotify" : "https://open.spotify.com/artist/0c2Jcp6eQW5gsaPdrsI6uP"
        },
        "href" : "https://api.spotify.com/v1/artists/0c2Jcp6eQW5gsaPdrsI6uP",
        "id" : "0c2Jcp6eQW5gsaPdrsI6uP",
        "name" : "Ari Goldwag",
        "type" : "artist",
        "uri" : "spotify:artist:0c2Jcp6eQW5gsaPdrsI6uP"
      }, {
        "external_urls" : {
          "spotify" : "https://open.spotify.com/artist/4dfqhmMKkUGM87YiMm979x"
        },
        "href" : "https://api.spotify.com/v1/artists/4dfqhmMKkUGM87YiMm979x",
        "id" : "4dfqhmMKkUGM87YiMm979x",
        "name" : "Moshe Dov Goldwag",
        "type" : "artist",
        "uri" : "spotify:artist:4dfqhmMKkUGM87YiMm979x"
      } ],
      "disc_number" : 1,
      "duration_ms" : 313039,
      "explicit" : false,
      "external_ids" : {
        "isrc" : "uscgj1467091"
      },
      "external_urls" : {
        "spotify" : "https://open.spotify.com/track/0noRhecP9T6HND8rUVFZDP"
      },
      "href" : "https://api.spotify.com/v1/tracks/0noRhecP9T6HND8rUVFZDP",
      "id" : "0noRhecP9T6HND8rUVFZDP",
      "is_local" : false,
      "is_playable" : true,
      "name" : "Shalom Aleichem / Yesh Tikvah (Medley) [feat. Moshe Dov Goldwag]",
      "popularity" : 29,
      "preview_url" : "https://p.scdn.co/mp3-preview/b24669bbb058a14a8634d3a062253bc67b354388?cid=774b29d4f13844c495f206cafdad9c86",
      "track_number" : 11,
      "type" : "track",
      "uri" : "spotify:track:0noRhecP9T6HND8rUVFZDP"
    }, {
      "album" : {
        "album_type" : "album",
        "artists" : [ {
          "external_urls" : {
            "spotify" : "https://open.spotify.com/artist/1FQxNniQ00e77TnPptdnXo"
          },
          "href" : "https://api.spotify.com/v1/artists/1FQxNniQ00e77TnPptdnXo",
          "id" : "1FQxNniQ00e77TnPptdnXo",
          "name" : "Moshav",
          "type" : "artist",
          "uri" : "spotify:artist:1FQxNniQ00e77TnPptdnXo"
        } ],
        "external_urls" : {
          "spotify" : "https://open.spotify.com/album/4Gl87dz9FZfOzLgWYHnYgQ"
        },
        "href" : "https://api.spotify.com/v1/albums/4Gl87dz9FZfOzLgWYHnYgQ",
        "id" : "4Gl87dz9FZfOzLgWYHnYgQ",
        "images" : [ {
          "height" : 640,
          "url" : "https://i.scdn.co/image/ab67616d0000b2733288fbd7bd032dc46e99486a",
          "width" : 640
        }, {
          "height" : 300,
          "url" : "https://i.scdn.co/image/ab67616d00001e023288fbd7bd032dc46e99486a",
          "width" : 300
        }, {
          "height" : 64,
          "url" : "https://i.scdn.co/image/ab67616d000048513288fbd7bd032dc46e99486a",
          "width" : 64
        } ],
        "name" : "Shabbat, Vol. 1",
        "release_date" : "2014-11-07",
        "release_date_precision" : "day",
        "total_tracks" : 15,
        "type" : "album",
        "uri" : "spotify:album:4Gl87dz9FZfOzLgWYHnYgQ"
      },
      "artists" : [ {
        "external_urls" : {
          "spotify" : "https://open.spotify.com/artist/1FQxNniQ00e77TnPptdnXo"
        },
        "href" : "https://api.spotify.com/v1/artists/1FQxNniQ00e77TnPptdnXo",
        "id" : "1FQxNniQ00e77TnPptdnXo",
        "name" : "Moshav",
        "type" : "artist",
        "uri" : "spotify:artist:1FQxNniQ00e77TnPptdnXo"
      } ],
      "disc_number" : 1,
      "duration_ms" : 190565,
      "explicit" : false,
      "external_ids" : {
        "isrc" : "USC4C1400010"
      },
      "external_urls" : {
        "spotify" : "https://open.spotify.com/track/0YvoZCs5RvNxnzQwwAFUDJ"
      },
      "href" : "https://api.spotify.com/v1/tracks/0YvoZCs5RvNxnzQwwAFUDJ",
      "id" : "0YvoZCs5RvNxnzQwwAFUDJ",
      "is_local" : false,
      "is_playable" : true,
      "name" : "Shalom Alechem (Peace On to You)",
      "popularity" : 28,
      "preview_url" : "https://p.scdn.co/mp3-preview/319d4b0b5ea3e9ce02a02cc30d6a55f1e0cd0efa?cid=774b29d4f13844c495f206cafdad9c86",
      "track_number" : 10,
      "type" : "track",
      "uri" : "spotify:track:0YvoZCs5RvNxnzQwwAFUDJ"
    }, {
      "album" : {
        "album_type" : "album",
        "artists" : [ {
          "external_urls" : {
            "spotify" : "https://open.spotify.com/artist/5eyMzR1hYiEZtN2c9ly2kw"
          },
          "href" : "https://api.spotify.com/v1/artists/5eyMzR1hYiEZtN2c9ly2kw",
          "id" : "5eyMzR1hYiEZtN2c9ly2kw",
          "name" : "Matisyahu",
          "type" : "artist",
          "uri" : "spotify:artist:5eyMzR1hYiEZtN2c9ly2kw"
        } ],
        "external_urls" : {
          "spotify" : "https://open.spotify.com/album/6xv4soedEKLMLzSpgWYuzf"
        },
        "href" : "https://api.spotify.com/v1/albums/6xv4soedEKLMLzSpgWYuzf",
        "id" : "6xv4soedEKLMLzSpgWYuzf",
        "images" : [ {
          "height" : 640,
          "url" : "https://i.scdn.co/image/ab67616d0000b27370083b082378b0b3c24ca022",
          "width" : 640
        }, {
          "height" : 300,
          "url" : "https://i.scdn.co/image/ab67616d00001e0270083b082378b0b3c24ca022",
          "width" : 300
        }, {
          "height" : 64,
          "url" : "https://i.scdn.co/image/ab67616d0000485170083b082378b0b3c24ca022",
          "width" : 64
        } ],
        "name" : "Youth",
        "release_date" : "2006-03-07",
        "release_date_precision" : "day",
        "total_tracks" : 13,
        "type" : "album",
        "uri" : "spotify:album:6xv4soedEKLMLzSpgWYuzf"
      },
      "artists" : [ {
        "external_urls" : {
          "spotify" : "https://open.spotify.com/artist/5eyMzR1hYiEZtN2c9ly2kw"
        },
        "href" : "https://api.spotify.com/v1/artists/5eyMzR1hYiEZtN2c9ly2kw",
        "id" : "5eyMzR1hYiEZtN2c9ly2kw",
        "name" : "Matisyahu",
        "type" : "artist",
        "uri" : "spotify:artist:5eyMzR1hYiEZtN2c9ly2kw"
      } ],
      "disc_number" : 1,
      "duration_ms" : 63973,
      "explicit" : false,
      "external_ids" : {
        "isrc" : "USSM10507194"
      },
      "external_urls" : {
        "spotify" : "https://open.spotify.com/track/5cIgLGDKrHmYlI97DFdjac"
      },
      "href" : "https://api.spotify.com/v1/tracks/5cIgLGDKrHmYlI97DFdjac",
      "id" : "5cIgLGDKrHmYlI97DFdjac",
      "is_local" : false,
      "is_playable" : true,
      "name" : "Shalom/Saalam",
      "popularity" : 27,
      "preview_url" : "https://p.scdn.co/mp3-preview/66baccbecb5ac59359c1f5e9b5056b6860fbe8bd?cid=774b29d4f13844c495f206cafdad9c86",
      "track_number" : 9,
      "type" : "track",
      "uri" : "spotify:track:5cIgLGDKrHmYlI97DFdjac"
    }, {
      "album" : {
        "album_type" : "album",
        "artists" : [ {
          "external_urls" : {
            "spotify" : "https://open.spotify.com/artist/27ikmiG0KP8XEmznqvclxl"
          },
          "href" : "https://api.spotify.com/v1/artists/27ikmiG0KP8XEmznqvclxl",
          "id" : "27ikmiG0KP8XEmznqvclxl",
          "name" : "Soulful Acappella",
          "type" : "artist",
          "uri" : "spotify:artist:27ikmiG0KP8XEmznqvclxl"
        } ],
        "external_urls" : {
          "spotify" : "https://open.spotify.com/album/2veHQKF6oMLdBK4dovbq3a"
        },
        "href" : "https://api.spotify.com/v1/albums/2veHQKF6oMLdBK4dovbq3a",
        "id" : "2veHQKF6oMLdBK4dovbq3a",
        "images" : [ {
          "height" : 640,
          "url" : "https://i.scdn.co/image/ab67616d0000b273fe9e41e05a90ed243b0510e8",
          "width" : 640
        }, {
          "height" : 300,
          "url" : "https://i.scdn.co/image/ab67616d00001e02fe9e41e05a90ed243b0510e8",
          "width" : 300
        }, {
          "height" : 64,
          "url" : "https://i.scdn.co/image/ab67616d00004851fe9e41e05a90ed243b0510e8",
          "width" : 64
        } ],
        "name" : "A Kumzitz in the Rain",
        "release_date" : "2011-04-22",
        "release_date_precision" : "day",
        "total_tracks" : 10,
        "type" : "album",
        "uri" : "spotify:album:2veHQKF6oMLdBK4dovbq3a"
      },
      "artists" : [ {
        "external_urls" : {
          "spotify" : "https://open.spotify.com/artist/27ikmiG0KP8XEmznqvclxl"
        },
        "href" : "https://api.spotify.com/v1/artists/27ikmiG0KP8XEmznqvclxl",
        "id" : "27ikmiG0KP8XEmznqvclxl",
        "name" : "Soulful Acappella",
        "type" : "artist",
        "uri" : "spotify:artist:27ikmiG0KP8XEmznqvclxl"
      } ],
      "disc_number" : 1,
      "duration_ms" : 293266,
      "explicit" : false,
      "external_ids" : {
        "isrc" : "TCABW1481955"
      },
      "external_urls" : {
        "spotify" : "https://open.spotify.com/track/65JXFPKFzwIIM8aFbRKdYg"
      },
      "href" : "https://api.spotify.com/v1/tracks/65JXFPKFzwIIM8aFbRKdYg",
      "id" : "65JXFPKFzwIIM8aFbRKdYg",
      "is_local" : false,
      "is_playable" : true,
      "name" : "Shalom Aleichem",
      "popularity" : 21,
      "preview_url" : "https://p.scdn.co/mp3-preview/932797462044894ef62ca1bdbda6e20f33c5449f?cid=774b29d4f13844c495f206cafdad9c86",
      "track_number" : 1,
      "type" : "track",
      "uri" : "spotify:track:65JXFPKFzwIIM8aFbRKdYg"
    }, {
      "album" : {
        "album_type" : "album",
        "artists" : [ {
          "external_urls" : {
            "spotify" : "https://open.spotify.com/artist/7hR5qFME3Zu6i775XdrKEv"
          },
          "href" : "https://api.spotify.com/v1/artists/7hR5qFME3Zu6i775XdrKEv",
          "id" : "7hR5qFME3Zu6i775XdrKEv",
          "name" : "Joshua Aaron",
          "type" : "artist",
          "uri" : "spotify:artist:7hR5qFME3Zu6i775XdrKEv"
        } ],
        "external_urls" : {
          "spotify" : "https://open.spotify.com/album/7j47G6DoYBQTAjJmIHrV7p"
        },
        "href" : "https://api.spotify.com/v1/albums/7j47G6DoYBQTAjJmIHrV7p",
        "id" : "7j47G6DoYBQTAjJmIHrV7p",
        "images" : [ {
          "height" : 640,
          "url" : "https://i.scdn.co/image/ab67616d0000b27351c032db0035e78782023dd3",
          "width" : 640
        }, {
          "height" : 300,
          "url" : "https://i.scdn.co/image/ab67616d00001e0251c032db0035e78782023dd3",
          "width" : 300
        }, {
          "height" : 64,
          "url" : "https://i.scdn.co/image/ab67616d0000485151c032db0035e78782023dd3",
          "width" : 64
        } ],
        "name" : "Hu Yavo (He Will Come)",
        "release_date" : "2014-07-01",
        "release_date_precision" : "day",
        "total_tracks" : 13,
        "type" : "album",
        "uri" : "spotify:album:7j47G6DoYBQTAjJmIHrV7p"
      },
      "artists" : [ {
        "external_urls" : {
          "spotify" : "https://open.spotify.com/artist/7hR5qFME3Zu6i775XdrKEv"
        },
        "href" : "https://api.spotify.com/v1/artists/7hR5qFME3Zu6i775XdrKEv",
        "id" : "7hR5qFME3Zu6i775XdrKEv",
        "name" : "Joshua Aaron",
        "type" : "artist",
        "uri" : "spotify:artist:7hR5qFME3Zu6i775XdrKEv"
      } ],
      "disc_number" : 1,
      "duration_ms" : 182133,
      "explicit" : false,
      "external_ids" : {
        "isrc" : "TCABY1405485"
      },
      "external_urls" : {
        "spotify" : "https://open.spotify.com/track/1Tjeffhn4AYSttTVUNGgcY"
      },
      "href" : "https://api.spotify.com/v1/tracks/1Tjeffhn4AYSttTVUNGgcY",
      "id" : "1Tjeffhn4AYSttTVUNGgcY",
      "is_local" : false,
      "is_playable" : true,
      "name" : "Shalom Aleicha",
      "popularity" : 25,
      "preview_url" : "https://p.scdn.co/mp3-preview/871f0722a0a276119e400117f8c8826f7874189b?cid=774b29d4f13844c495f206cafdad9c86",
      "track_number" : 8,
      "type" : "track",
      "uri" : "spotify:track:1Tjeffhn4AYSttTVUNGgcY"
    }, {
      "album" : {
        "album_type" : "album",
        "artists" : [ {
          "external_urls" : {
            "spotify" : "https://open.spotify.com/artist/4aTDB7CQyMNOLQsCpAS9EW"
          },
          "href" : "https://api.spotify.com/v1/artists/4aTDB7CQyMNOLQsCpAS9EW",
          "id" : "4aTDB7CQyMNOLQsCpAS9EW",
          "name" : "Benny Friedman",
          "type" : "artist",
          "uri" : "spotify:artist:4aTDB7CQyMNOLQsCpAS9EW"
        } ],
        "external_urls" : {
          "spotify" : "https://open.spotify.com/album/38yua9Aq7Cgx2nkLKaVt3N"
        },
        "href" : "https://api.spotify.com/v1/albums/38yua9Aq7Cgx2nkLKaVt3N",
        "id" : "38yua9Aq7Cgx2nkLKaVt3N",
        "images" : [ {
          "height" : 640,
          "url" : "https://i.scdn.co/image/ab67616d0000b2739f310955b897938537174c99",
          "width" : 640
        }, {
          "height" : 300,
          "url" : "https://i.scdn.co/image/ab67616d00001e029f310955b897938537174c99",
          "width" : 300
        }, {
          "height" : 64,
          "url" : "https://i.scdn.co/image/ab67616d000048519f310955b897938537174c99",
          "width" : 64
        } ],
        "name" : "Yesh Tikvah",
        "release_date" : "2012-10-03",
        "release_date_precision" : "day",
        "total_tracks" : 11,
        "type" : "album",
        "uri" : "spotify:album:38yua9Aq7Cgx2nkLKaVt3N"
      },
      "artists" : [ {
        "external_urls" : {
          "spotify" : "https://open.spotify.com/artist/4aTDB7CQyMNOLQsCpAS9EW"
        },
        "href" : "https://api.spotify.com/v1/artists/4aTDB7CQyMNOLQsCpAS9EW",
        "id" : "4aTDB7CQyMNOLQsCpAS9EW",
        "name" : "Benny Friedman",
        "type" : "artist",
        "uri" : "spotify:artist:4aTDB7CQyMNOLQsCpAS9EW"
      } ],
      "disc_number" : 1,
      "duration_ms" : 291192,
      "explicit" : false,
      "external_ids" : {
        "isrc" : "TCABJ1272320"
      },
      "external_urls" : {
        "spotify" : "https://open.spotify.com/track/0EK1IDFMiujpxtcrWegBQy"
      },
      "href" : "https://api.spotify.com/v1/tracks/0EK1IDFMiujpxtcrWegBQy",
      "id" : "0EK1IDFMiujpxtcrWegBQy",
      "is_local" : false,
      "is_playable" : true,
      "name" : "Shalom Aleichem",
      "popularity" : 24,
      "preview_url" : "https://p.scdn.co/mp3-preview/9d7ccd8cc3b6fdf971ac2dc5d8ce436b610085c5?cid=774b29d4f13844c495f206cafdad9c86",
      "track_number" : 5,
      "type" : "track",
      "uri" : "spotify:track:0EK1IDFMiujpxtcrWegBQy"
    } ],
    "limit" : 10,
    "next" : "https://api.spotify.com/v1/search?query=Shalom&type=track&market=US&offset=15&limit=10",
    "offset" : 5,
    "previous" : "https://api.spotify.com/v1/search?query=Shalom&type=track&market=US&offset=0&limit=10",
    "total" : 8883
  }
}