{
  "tracks" : {
    "href" : "https://api.spotify.com/v1/search?query=Christ+the+Lord+Is+Risen+Today&type=track&market=US&offset=5&limit=10",
    "items" : [ {
      "album" : {
        "album_type" : "album",
        "artists" : [ {
          "external_urls" : {
            "spotify" : "https://open.spotify.com/artist/0daVGEYMVnQZ3NZIpIuFWn"
          },
          "href" : "https://api.spotify.com/v1/artists/0daVGEYMVnQZ3NZIpIuFWn",
          "id" : "0daVGEYMVnQZ3NZIpIuFWn",
          "name" : "The Cambridge Singers",
          "type" : "artist",
          "uri" : "spotify:artist:0daVGEYMVnQZ3NZIpIuFWn"
        }, {
          "external_urls" : {
            "spotify" : "https://open.spotify.com/artist/0qlhpgr87PEG89Jd5iRpxe"
          },
          "href" : "https://api.spotify.com/v1/artists/0qlhpgr87PEG89Jd5iRpxe",
          "id" : "0qlhpgr87PEG89Jd5iRpxe",
          "name" : "John Rutter",
          "type" : "artist",
          "uri" : "spotify:artist:0qlhpgr87PEG89Jd5iRpxe"
        } ],
        "external_urls" : {
          "spotify" : "https://open.spotify.com/album/0ilC9lA6mXyHAVgZSVujIY"
        },
        "href" : "https://api.spotify.com/v1/albums/0ilC9lA6mXyHAVgZSVujIY",
        "id" : "0ilC9lA6mXyHAVgZSVujIY",
        "images" : [ {
          "height" : 640,
          "url" : "https://i.scdn.co/image/ab67616d0000b27383fc9f8698be19221dc82a95",
          "width" : 640
        }, {
          "height" : 300,
          "url" : "https://i.scdn.co/image/ab67616d00001e0283fc9f8698be19221dc82a95",
          "width" : 300
        }, {
          "height" : 64,
          "url" : "https://i.scdn.co/image/ab67616d0000485183fc9f8698be19221dc82a95",
          "width" : 64
        } ],
        "name" : "Sing, Ye Heavens - Hymns for All Time",
        "release_date" : "2000-08-01",
        "release_date_precision" : "day",
        "total_tracks" : 21,
        "type" : "album",
        "uri" : "spotify:album:0ilC9lA6mXyHAVgZSVujIY"
      },
      "artists" : [ {
        "external_urls" : {
          "spotify" : "https://open.spotify.com/artist/3LW1mBkIlIa81n7L4xIgMu"
        },
        "href" : "https://api.spotify.com/v1/artists/3LW1mBkIlIa81n7L4xIgMu",
        "id" : "3LW1mBkIlIa81n7L4xIgMu",
        "name" : "Anonymous",
        "type" : "artist",
        "uri" : "spotify:artist:3LW1mBkIlIa81n7L4xIgMu"
      }, {
        "external_urls" : {
          "spotify" : "https://open.spotify.com/artist/0daVGEYMVnQZ3NZIpIuFWn"
        },
        "href" : "https://api.spotify.com/v1/artists/0daVGEYMVnQZ3NZIpIuFWn",
        "id" : "0daVGEYMVnQZ3NZIpIuFWn",
        "name" : "The Cambridge Singers",
        "type" : "artist",
        "uri" : "spotify:artist:0daVGEYMVnQZ3NZIpIuFWn"
      }, {
        "external_urls" : {
          "spotify" : "https://open.spotify.com/artist/5kcQ9Unglia5GTp5NESsWh"
        },
        "href" : "https://api.spotify.com/v1/artists/5kcQ9Unglia5GTp5NESsWh",
        "id" : "5kcQ9Unglia5GTp5NESsWh",
        "name" : "John Scott",
        "type" : "artist",
        "uri" : "spotify:artist:5kcQ9Unglia5GTp5NESsWh"
      }, {
        "external_urls" : {
          "spotify" : "https://open.spotify.com/artist/4JKHXlntTvmZnLxjbeRcPL"
        },
        "href" : "https://api.spotify.com/v1/artists/4JKHXlntTvmZnLxjbeRcPL",
        "id" : "4JKHXlntTvmZnLxjbeRcPL",
        "name" : "City of London Sinfonia",
        "type" : "artist",
        "uri" : "spotify:artist:4JKHXlntTvmZnLxjbeRcPL"
      }, {
        "external_urls" : {
          "spotify" : "https://open.spotify.com/artist/0qlhpgr87PEG89Jd5iRpxe"
        },
        "href" : "https://api.spotify.com/v1/artists/0qlhpgr87PEG89Jd5iRpxe",
        "id" : "0qlhpgr87PEG89Jd5iRpxe",
        "name" : "John Rutter",
        "type" : "artist",
        "uri" : "spotify:artist:0qlhpgr87PEG89Jd5iRpxe"
      } ],
      "disc_number" : 1,
      "duration_ms" : 258626,
      "explicit" : false,
      "external_ids" : {
        "isrc" : "GBAKR0012612"
      },
      "external_urls" : {
        "spotify" : "https://open.spotify.com/track/5pZ0mMC1VwPY80qDEcMmXA"
      },
      "href" : "https://api.spotify.com/v1/tracks/5pZ0mMC1VwPY80qDEcMmXA",
      "id" : "5pZ0mMC1VwPY80qDEcMmXA",
      "is_local" : false,
      "is_playable" : true,
      "name" : "Christ the Lord is risen today",
      "popularity" : 20,
      "preview_url" : "https://p.scdn.co/mp3-preview/4e673c52c542fc7faf9e5220585fc09d73acb0b7?cid=774b29d4f13844c495f206cafdad9c86",
      "track_number" : 12,
      "type" : "track",
      "uri" : "spotify:track:5pZ0mMC1VwPY80qDEcMmXA"
    }, {
      "album" : {
        "album_type" : "album",
        "artists" : [ {
          "external_urls" : {
            "spotify" : "https://open.spotify.com/artist/7dc9jcxR0GgRMoNasStnmZ"
          },
          "href" : "https://api.spotify.com/v1/artists/7dc9jcxR0GgRMoNasStnmZ",
          "id" : "7dc9jcxR0GgRMoNasStnmZ",
          "name" : "David Baroni",
          "type" : "artist",
          "uri" : "spotify:artist:7dc9jcxR0GgRMoNasStnmZ"
        } ],
        "external_urls" : {
          "spotify" : "https://open.spotify.com/album/3ghHvaGIE11mCIxqVRoBAq"
        },
        "href" : "https://api.spotify.com/v1/albums/3ghHvaGIE11mCIxqVRoBAq",
        "id" : "3ghHvaGIE11mCIxqVRoBAq",
        "images" : [ {
          "height" : 640,
          "url" : "https://i.scdn.co/image/ab67616d0000b27304484462b89d336d63148c2c",
          "width" : 640
        }, {
          "height" : 300,
          "url" : "https://i.scdn.co/image/ab67616d00001e0204484462b89d336d63148c2c",
          "width" : 300
        }, {
          "height" : 64,
          "url" : "https://i.scdn.co/image/ab67616d0000485104484462b89d336d63148c2c",
          "width" : 64
        } ],
        "name" : "A Quiet Place: Instrumental Hymns Vol. III",
        "release_date" : "2011-01-01",
        "release_date_precision" : "day",
        "total_tracks" : 13,
        "type" : "album",
        "uri" : "spotify:album:3ghHvaGIE11mCIxqVRoBAq"
      },
      "artists" : [ {
        "external_urls" : {
          "spotify" : "https://open.spotify.com/artist/7dc9jcxR0GgRMoNasStnmZ"
        },
        "href" : "https://api.spotify.com/v1/artists/7dc9jcxR0GgRMoNasStnmZ",
        "id" : "7dc9jcxR0GgRMoNasStnmZ",
        "name" : "David Baroni",
        "type" : "artist",
        "uri" : "spotify:artist:7dc9jcxR0GgRMoNasStnmZ"
      } ],
      "disc_number" : 1,
      "duration_ms" : 190586,
      "explicit" : false,
      "external_ids" : {
        "isrc" : "usx9p1091143"
      },
      "external_urls" : {
        "spotify" : "https://open.spotify.com/track/7z45fUBw32XUocMhxVmEom"
      },
      "href" : "https://api.spotify.com/v1/tracks/7z45fUBw32XUocMhxVmEom",
      "id" : "7z45fUBw32XUocMhxVmEom",
      "is_local" : false,
      "is_playable" : true,
      "name" : "Christ the Lord is Risen Today",
      "popularity" : 22,
      "preview_url" : "https://p.scdn.co/mp3-preview/7303cfd8c9f7d560322ce23e91b381c71c0c403f?cid=774b29d4f13844c495f206cafdad9c86",
      "track_number" : 8,
      "type" : "track",
      "uri" : "spotify:track:7z45fUBw32XUocMhxVmEom"
    }, {
      "album" : {
        "album_type" : "album",
        "artists" : [ {
          "external_urls" : {
            "spotify" : "https://open.spotify.com/artist/7rluHfxLiKAkAoMkuE1F8U"
          },
          "href" : "https://api.spotify.com/v1/artists/7rluHfxLiKAkAoMkuE1F8U",
          "id" : "7rluHfxLiKAkAoMkuE1F8U",
          "name" : "St. Michael's Singers",
          "type" : "artist",
          "uri" : "spotify:artist:7rluHfxLiKAkAoMkuE1F8U"
        } ],
        "external_urls" : {
          "spotify" : "https://open.spotify.com/album/3VylNJs55Ct7UGwIHJpX2n"
        },
        "href" : "https://api.spotify.com/v1/albums/3VylNJs55Ct7UGwIHJpX2n",
        "id" : "3VylNJs55Ct7UGwIHJpX2n",
        "images" : [ {
          "height" : 640,
          "url" : "https://i.scdn.co/image/ab67616d0000b273d05a7748c0ac44931bad9b51",
          "width" : 640
        }, {
          "height" : 300,
          "url" : "https://i.scdn.co/image/ab67616d00001e02d05a7748c0ac44931bad9b51",
          "width" : 300
        }, {
          "height" : 64,
          "url" : "https://i.scdn.co/image/ab67616d00004851d05a7748c0ac44931bad9b51",
          "width" : 64
        } ],
        "name" : "The Hymn Makers: There Is a Green Hill Far Away (A Selection of Easter Hymns)",
        "release_date" : "2001",
        "release_date_precision" : "year",
        "total_tracks" : 14,
        "type" : "album",
        "uri" : "spotify:album:3VylNJs55Ct7UGwIHJpX2n"
      },
      "artists" : [ {
        "external_urls" : {
          "spotify" : "https://open.spotify.com/artist/7rluHfxLiKAkAoMkuE1F8U"
        },
        "href" : "https://api.spotify.com/v1/artists/7rluHfxLiKAkAoMkuE1F8U",
        "id" : "7rluHfxLiKAkAoMkuE1F8U",
        "name" : "St. Michael's Singers",
        "type" : "artist",
        "uri" : "spotify:artist:7rluHfxLiKAkAoMkuE1F8U"
      } ],
      "disc_number" : 1,
      "duration_ms" : 240480,
      "explicit" : false,
      "external_ids" : {
        "isrc" : "GBBTM0120814"
      },
      "external_urls" : {
        "spotify" : "https://open.spotify.com/track/26nF5uuGq8XObV4iC0fdjc"
      },
      "href" : "https://api.spotify.com/v1/tracks/26nF5uuGq8XObV4iC0fdjc",
      "id" : "26nF5uuGq8XObV4iC0fdjc",
      "is_local" : false,
      "is_playable" : true,
      "name" : "Christ The Lord Is Risen Today",
      "popularity" : 18,
      "preview_url" : "https://p.scdn.co/mp3-preview/cd876323f4c06b9f6aab2b7b84f3e0d8af07d3a8?cid=774b29d4f13844c495f206cafdad9c86",
      "track_number" : 14,
      "type" : "track",
      "uri" : "spotify:track:26nF5uuGq8XObV4iC0fdjc"
    }, {
      "album" : {
        "album_type" : "album",
        "artists" : [ {
          "external_urls" : {
            "spotify" : "https://open.spotify.com/artist/1U5zgr455OGyIkLNXvDdrf"
          },
          "href" : "https://api.spotify.com/v1/artists/1U5zgr455OGyIkLNXvDdrf",
          "id" : "1U5zgr455OGyIkLNXvDdrf",
          "name" : "Traditional",
          "type" : "artist",
          "uri" : "spotify:artist:1U5zgr455OGyIkLNXvDdrf"
        }, {
          "external_urls" : {
            "spotify" : "https://open.spotify.com/artist/5oW7xntz397IxAiDinC6Tk"
          },
          "href" : "https://api.spotify.com/v1/artists/5oW7xntz397IxAiDinC6Tk",
          "id" : "5oW7xntz397IxAiDinC6Tk",
          "name" : "John Mock",
          "type" : "artist",
          "uri" : "spotify:artist:5oW7xntz397IxAiDinC6Tk"
        } ],
        "external_urls" : {
          "spotify" : "https://open.spotify.com/album/7qo3kF0rtYhhCjS0qdJbkL"
        },
        "href" : "https://api.spotify.com/v1/albums/7qo3kF0rtYhhCjS0qdJbkL",
        "id" : "7qo3kF0rtYhhCjS0qdJbkL",
        "images" : [ {
          "height" : 640,
          "url" : "https://i.scdn.co/image/ab67616d0000b273655f886ff599f4a68a49abe6",
          "width" : 640
        }, {
          "height" : 300,
          "url" : "https://i.scdn.co/image/ab67616d00001e02655f886ff599f4a68a49abe6",
          "width" : 300
        }, {
          "height" : 64,
          "url" : "https://i.scdn.co/image/ab67616d00004851655f886ff599f4a68a49abe6",
          "width" : 64
        } ],
        "name" : "Classical Hymns",
        "release_date" : "1995-01-01",
        "release_date_precision" : "day",
        "total_tracks" : 15,
        "type" : "album",
        "uri" : "spotify:album:7qo3kF0rtYhhCjS0qdJbkL"
      },
      "artists" : [ {
        "external_urls" : {
          "spotify" : "https://open.spotify.com/artist/1U5zgr455OGyIkLNXvDdrf"
        },
        "href" : "https://api.spotify.com/v1/artists/1U5zgr455OGyIkLNXvDdrf",
        "id" : "1U5zgr455OGyIkLNXvDdrf",
        "name" : "Traditional",
        "type" : "artist",
        "uri" : "spotify:artist:1U5zgr455OGyIkLNXvDdrf"
      }, {
        "external_urls" : {
          "spotify" : "https://open.spotify.com/artist/5oW7xntz397IxAiDinC6Tk"
        },
        "href" : "https://api.spotify.com/v1/artists/5oW7xntz397IxAiDinC6Tk",
        "id" : "5oW7xntz397IxAiDinC6Tk",
        "name" : "John Mock",
        "type" : "artist",
        "uri" : "spotify:artist:5oW7xntz397IxAiDinC6Tk"
      } ],
      "disc_number" : 1,
      "duration_ms" : 406333,
      "explicit" : false,
      "external_ids" : {
        "isrc" : "USB4U0850842"
      },
      "external_urls" : {
        "spotify" : "https://open.spotify.com/track/37oQv9IcJSpSwD7FJDKBA7"
      },
      "href" : "https://api.spotify.com/v1/tracks/37oQv9IcJSpSwD7FJDKBA7",
      "id" : "37oQv9IcJSpSwD7FJDKBA7",
      "is_local" : false,
      "is_playable" : true,
      "name" : "Christ The Lord Is Risen Today/Sheep May Safely Graze",
      "popularity" : 20,
      "preview_url" : null,
      "track_number" : 2,
      "type" : "track",
      "uri" : "spotify:track:37oQv9IcJSpSwD7FJDKBA7"
    }, {
      "album" : {
        "album_type" : "album",
        "artists" : [ {
          "external_urls" : {
            "spotify" : "https://open.spotify.com/artist/6eGXFEwOdfD1dIPyu6c5cG"
          },
          "href" : "https://api.spotify.com/v1/artists/6eGXFEwOdfD1dIPyu6c5cG",
          "id" : "6eGXFEwOdfD1dIPyu6c5cG",
          "name" : "Steve Green",
          "type" : "artist",
          "uri" : "spotify:artist:6eGXFEwOdfD1dIPyu6c5cG"
        } ],
        "external_urls" : {
          "spotify" : "https://open.spotify.com/album/0eyPx8rHeZz6AhmrGi3F5N"
        },
        "href" : "https://api.spotify.com/v1/albums/0eyPx8rHeZz6AhmrGi3F5N",
        "id" : "0eyPx8rHeZz6AhmrGi3F5N",
        "images" : [ {
          "height" : 640,
          "url" : "https://i.scdn.co/image/ab67616d0000b273890a7be5127aa0764343c6f5",
          "width" : 640
        }, {
          "height" : 300,
          "url" : "https://i.scdn.co/image/ab67616d00001e02890a7be5127aa0764343c6f5",
          "width" : 300
        }, {
          "height" : 64,
          "url" : "https://i.scdn.co/image/ab67616d00004851890a7be5127aa0764343c6f5",
          "width" : 64
        } ],
        "name" : "Himnos: Un Retrato De Cristo",
        "release_date" : "1992-01-01",
        "release_date_precision" : "day",
        "total_tracks" : 10,
        "type" : "album",
        "uri" : "spotify:album:0eyPx8rHeZz6AhmrGi3F5N"
      },
      "artists" : [ {
        "external_urls" : {
          "spotify" : "https://open.spotify.com/artist/6eGXFEwOdfD1dIPyu6c5cG"
        },
        "href" : "https://api.spotify.com/v1/artists/6eGXFEwOdfD1dIPyu6c5cG",
        "id" : "6eGXFEwOdfD1dIPyu6c5cG",
        "name" : "Steve Green",
        "type" : "artist",
        "uri" : "spotify:artist:6eGXFEwOdfD1dIPyu6c5cG"
      } ],
      "disc_number" : 1,
      "duration_ms" : 160746,
      "explicit" : false,
      "external_ids" : {
        "isrc" : "USSP39247553"
      },
      "external_urls" : {
        "spotify" : "https://open.spotify.com/track/49vHqsX9rFwaxG6yZtXezm"
      },
      "href" : "https://api.spotify.com/v1/tracks/49vHqsX9rFwaxG6yZtXezm",
      "id" : "49vHqsX9rFwaxG6yZtXezm",
      "is_local" : false,
      "is_playable" : true,
      "name" : "El Señor Resucitó (Christ The Lord Is Risen Today)",
      "popularity" : 21,
      "preview_url" : null,
      "track_number" : 3,
      "type" : "track",
      "uri" : "spotify:track:49vHqsX9rFwaxG6yZtXezm"
    }, {
      "album" : {
        "album_type" : "single",
        "artists" : [ {
          "external_urls" : {
            "spotify" : "https://open.spotify.com/artist/55tbvJFx2OH3H0aUmLEI6C"
          },
          "href" : "https://api.spotify.com/v1/artists/55tbvJFx2OH3H0aUmLEI6C",
          "id" : "55tbvJFx2OH3H0aUmLEI6C",
          "name" : "Richard M.S. Irwin",
          "type" : "artist",
          "uri" : "spotify:artist:55tbvJFx2OH3H0aUmLEI6C"
        } ],
        "external_urls" : {
          "spotify" : "https://open.spotify.com/album/6CEQbavRuVSrNTRIt2oFHJ"
        },
        "href" : "https://api.spotify.com/v1/albums/6CEQbavRuVSrNTRIt2oFHJ",
        "id" : "6CEQbavRuVSrNTRIt2oFHJ",
        "images" : [ {
          "height" : 640,
          "url" : "https://i.scdn.co/image/ab67616d0000b2736793e5ec19ccc71ea20dd1d0",
          "width" : 640
        }, {
          "height" : 300,
          "url" : "https://i.scdn.co/image/ab67616d00001e026793e5ec19ccc71ea20dd1d0",
          "width" : 300
        }, {
          "height" : 64,
          "url" : "https://i.scdn.co/image/ab67616d000048516793e5ec19ccc71ea20dd1d0",
          "width" : 64
        } ],
        "name" : "Christ The Lord Is Risen Today - Easter Hymn, Organ",
        "release_date" : "2020-05-18",
        "release_date_precision" : "day",
        "total_tracks" : 1,
        "type" : "album",
        "uri" : "spotify:album:6CEQbavRuVSrNTRIt2oFHJ"
      },
      "artists" : [ {
        "external_urls" : {
          "spotify" : "https://open.spotify.com/artist/55tbvJFx2OH3H0aUmLEI6C"
        },
        "href" : "https://api.spotify.com/v1/artists/55tbvJFx2OH3H0aUmLEI6C",
        "id" : "55tbvJFx2OH3H0aUmLEI6C",
        "name" : "Richard M.S. Irwin",
        "type" : "artist",
        "uri" : "spotify:artist:55tbvJFx2OH3H0aUmLEI6C"
      } ],
      "disc_number" : 1,
      "duration_ms" : 254869,
      "explicit" : false,
      "external_ids" : {
        "isrc" : "QM42K2030145"
      },
      "external_urls" : {
        "spotify" : "https://open.spotify.com/track/5mhR2TvHKEeQiydXGjV9r3"
      },
      "href" : "https://api.spotify.com/v1/tracks/5mhR2TvHKEeQiydXGjV9r3",
      "id" : "5mhR2TvHKEeQiydXGjV9r3",
      "is_local" : false,
      "is_playable" : true,
      "name" : "Christ The Lord Is Risen Today - Easter Hymn, Organ",
      "popularity" : 0,
      "preview_url" : "https://p.scdn.co/mp3-preview/5804626c6d6166453454b32f6625b3b9db7a83f2?cid=774b29d4f13844c495f206cafdad9c86",
      "track_number" : 1,
      "type" : "track",
      "uri" : "spotify:track:5mhR2TvHKEeQiydXGjV9r3"
    }, {
      "album" : {
        "album_type" : "compilation",
        "artists" : [ {
          "external_urls" : {
            "spotify" : "https://open.spotify.com/artist/1PCJfBD2SVVE8cGqpg1pC9"
          },
          "href" : "https://api.spotify.com/v1/artists/1PCJfBD2SVVE8cGqpg1pC9",
          "id" : "1PCJfBD2SVVE8cGqpg1pC9",
          "name" : "Hal Wright",
          "type" : "artist",
          "uri" : "spotify:artist:1PCJfBD2SVVE8cGqpg1pC9"
        } ],
        "external_urls" : {
          "spotify" : "https://open.spotify.com/album/56dWHx0V7Dq1JoMVaizLyv"
        },
        "href" : "https://api.spotify.com/v1/albums/56dWHx0V7Dq1JoMVaizLyv",
        "id" : "56dWHx0V7Dq1JoMVaizLyv",
        "images" : [ {
          "height" : 640,
          "url" : "https://i.scdn.co/image/ab67616d0000b2733096bb2f31858e62799a9e48",
          "width" : 640
        }, {
          "height" : 300,
          "url" : "https://i.scdn.co/image/ab67616d00001e023096bb2f31858e62799a9e48",
          "width" : 300
        }, {
          "height" : 64,
          "url" : "https://i.scdn.co/image/ab67616d000048513096bb2f31858e62799a9e48",
          "width" : 64
        } ],
        "name" : "Instrumental Hymns 2",
        "release_date" : "2020-05-22",
        "release_date_precision" : "day",
        "total_tracks" : 26,
        "type" : "album",
        "uri" : "spotify:album:56dWHx0V7Dq1JoMVaizLyv"
      },
      "artists" : [ {
        "external_urls" : {
          "spotify" : "https://open.spotify.com/artist/1PCJfBD2SVVE8cGqpg1pC9"
        },
        "href" : "https://api.spotify.com/v1/artists/1PCJfBD2SVVE8cGqpg1pC9",
        "id" : "1PCJfBD2SVVE8cGqpg1pC9",
        "name" : "Hal Wright",
        "type" : "artist",
        "uri" : "spotify:artist:1PCJfBD2SVVE8cGqpg1pC9"
      }, {
        "external_urls" : {
          "spotify" : "https://open.spotify.com/artist/5Aerx1PdoW4F5Yvrus4bDE"
        },
        "href" : "https://api.spotify.com/v1/artists/5Aerx1PdoW4F5Yvrus4bDE",
        "id" : "5Aerx1PdoW4F5Yvrus4bDE",
        "name" : "Twin Sisters",
        "type" : "artist",
        "uri" : "spotify:artist:5Aerx1PdoW4F5Yvrus4bDE"
      } ],
      "disc_number" : 1,
      "duration_ms" : 85706,
      "explicit" : false,
      "external_ids" : {
        "isrc" : "US6PD1903971"
      },
      "external_urls" : {
        "spotify" : "https://open.spotify.com/track/4SyQYb6b6FUlBYxn1SeO1n"
      },
      "href" : "https://api.spotify.com/v1/tracks/4SyQYb6b6FUlBYxn1SeO1n",
      "id" : "4SyQYb6b6FUlBYxn1SeO1n",
      "is_local" : false,
      "is_playable" : true,
      "name" : "Christ The Lord Is Risen Today",
      "popularity" : 0,
      "preview_url" : "https://p.scdn.co/mp3-preview/c7df646489165d45fcd0f588f936b3b62d15fafc?cid=774b29d4f13844c495f206cafdad9c86",
      "track_number" : 10,
      "type" : "track",
      "uri" : "spotify:track:4SyQYb6b6FUlBYxn1SeO1n"
    }, {
      "album" : {
        "album_type" : "compilation",
        "artists" : [ {
          "external_urls" : {
            "spotify" : "https://open.spotify.com/artist/0LyfQWJT6nXafLPZqxe9Of"
          },
          "href" : "https://api.spotify.com/v1/artists/0LyfQWJT6nXafLPZqxe9Of",
          "id" : "0LyfQWJT6nXafLPZqxe9Of",
          "name" : "Various Artists",
          "type" : "artist",
          "uri" : "spotify:artist:0LyfQWJT6nXafLPZqxe9Of"
        } ],
        "external_urls" : {
          "spotify" : "https://open.spotify.com/album/3PSeZYT66BKXcDoffs1YqI"
        },
        "href" : "https://api.spotify.com/v1/albums/3PSeZYT66BKXcDoffs1YqI",
        "id" : "3PSeZYT66BKXcDoffs1YqI",
        "images" : [ {
          "height" : 640,
          "url" : "https://i.scdn.co/image/ab67616d0000b2733da8e20e955d875d573d8e2c",
          "width" : 640
        }, {
          "height" : 300,
          "url" : "https://i.scdn.co/image/ab67616d00001e023da8e20e955d875d573d8e2c",
          "width" : 300
        }, {
          "height" : 64,
          "url" : "https://i.scdn.co/image/ab67616d000048513da8e20e955d875d573d8e2c",
          "width" : 64
        } ],
        "name" : "Hymns Triumphant II",
        "release_date" : "1988-01-01",
        "release_date_precision" : "day",
        "total_tracks" : 16,
        "type" : "album",
        "uri" : "spotify:album:3PSeZYT66BKXcDoffs1YqI"
      },
      "artists" : [ {
        "external_urls" : {
          "spotify" : "https://open.spotify.com/artist/3buZl5JKgOpBl8Mrpfve6m"
        },
        "href" : "https://api.spotify.com/v1/artists/3buZl5JKgOpBl8Mrpfve6m",
        "id" : "3buZl5JKgOpBl8Mrpfve6m",
        "name" : "Amen Choir Of The First Baptist Church",
        "type" : "artist",
        "uri" : "spotify:artist:3buZl5JKgOpBl8Mrpfve6m"
      }, {
        "external_urls" : {
          "spotify" : "https://open.spotify.com/artist/2Ek1WGW7WeyDoxsZiu0AAd"
        },
        "href" : "https://api.spotify.com/v1/artists/2Ek1WGW7WeyDoxsZiu0AAd",
        "id" : "2Ek1WGW7WeyDoxsZiu0AAd",
        "name" : "National Philharmonic Orchestra",
        "type" : "artist",
        "uri" : "spotify:artist:2Ek1WGW7WeyDoxsZiu0AAd"
      } ],
      "disc_number" : 1,
      "duration_ms" : 188533,
      "explicit" : false,
      "external_ids" : {
        "isrc" : "USSP38414192"
      },
      "external_urls" : {
        "spotify" : "https://open.spotify.com/track/4AMmXz8UZlAbgNtMldfXGG"
      },
      "href" : "https://api.spotify.com/v1/tracks/4AMmXz8UZlAbgNtMldfXGG",
      "id" : "4AMmXz8UZlAbgNtMldfXGG",
      "is_local" : false,
      "is_playable" : true,
      "name" : "Christ The Lord Is Risen Today",
      "popularity" : 21,
      "preview_url" : null,
      "track_number" : 12,
      "type" : "track",
      "uri" : "spotify:track:4AMmXz8UZlAbgNtMldfXGG"
    }, {
      "album" : {
        "album_type" : "album",
        "artists" : [ {
          "external_urls" : {
            "spotify" : "https://open.spotify.com/artist/7dwgF5A7mYh6TXThNIETno"
          },
          "href" : "https://api.spotify.com/v1/artists/7dwgF5A7mYh6TXThNIETno",
          "id" : "7dwgF5A7mYh6TXThNIETno",
          "name" : "Salt Lake City LDS Ensemble",
          "type" : "artist",
          "uri" : "spotify:artist:7dwgF5A7mYh6TXThNIETno"
        } ],
        "external_urls" : {
          "spotify" : "https://open.spotify.com/album/7zKv0nVGjZvlzPRmhacYWl"
        },
        "href" : "https://api.spotify.com/v1/albums/7zKv0nVGjZvlzPRmhacYWl",
        "id" : "7zKv0nVGjZvlzPRmhacYWl",
        "images" : [ {
          "height" : 640,
          "url" : "https://i.scdn.co/image/ab67616d0000b273d6f99033ee9151ebf6a4db7a",
          "width" : 640
        }, {
          "height" : 300,
          "url" : "https://i.scdn.co/image/ab67616d00001e02d6f99033ee9151ebf6a4db7a",
          "width" : 300
        }, {
          "height" : 64,
          "url" : "https://i.scdn.co/image/ab67616d00004851d6f99033ee9151ebf6a4db7a",
          "width" : 64
        } ],
        "name" : "Mormon Hymns",
        "release_date" : "2015-08-16",
        "release_date_precision" : "day",
        "total_tracks" : 29,
        "type" : "album",
        "uri" : "spotify:album:7zKv0nVGjZvlzPRmhacYWl"
      },
      "artists" : [ {
        "external_urls" : {
          "spotify" : "https://open.spotify.com/artist/7dwgF5A7mYh6TXThNIETno"
        },
        "href" : "https://api.spotify.com/v1/artists/7dwgF5A7mYh6TXThNIETno",
        "id" : "7dwgF5A7mYh6TXThNIETno",
        "name" : "Salt Lake City LDS Ensemble",
        "type" : "artist",
        "uri" : "spotify:artist:7dwgF5A7mYh6TXThNIETno"
      } ],
      "disc_number" : 1,
      "duration_ms" : 84812,
      "explicit" : false,
      "external_ids" : {
        "isrc" : "USLZJ1545107"
      },
      "external_urls" : {
        "spotify" : "https://open.spotify.com/track/5YP19Xuy1o8xLE4KB2nsIF"
      },
      "href" : "https://api.spotify.com/v1/tracks/5YP19Xuy1o8xLE4KB2nsIF",
      "id" : "5YP19Xuy1o8xLE4KB2nsIF",
      "is_local" : false,
      "is_playable" : true,
      "name" : "Christ The Lord Is Risen Today",
      "popularity" : 17,
      "preview_url" : "https://p.scdn.co/mp3-preview/3bc2a853bf325317267eea78af010f362a3c9f78?cid=774b29d4f13844c495f206cafdad9c86",
      "track_number" : 16,
      "type" : "track",
      "uri" : "spotify:track:5YP19Xuy1o8xLE4KB2nsIF"
    }, {
      "album" : {
        "album_type" : "album",
        "artists" : [ {
          "external_urls" : {
            "spotify" : "https://open.spotify.com/artist/3QSNunV4pABJJFRWYL66Ml"
          },
          "href" : "https://api.spotify.com/v1/artists/3QSNunV4pABJJFRWYL66Ml",
          "id" : "3QSNunV4pABJJFRWYL66Ml",
          "name" : "Jake Erickson",
          "type" : "artist",
          "uri" : "spotify:artist:3QSNunV4pABJJFRWYL66Ml"
        } ],
        "external_urls" : {
          "spotify" : "https://open.spotify.com/album/2EAdqSUeOWV4h8wU7xSTTX"
        },
        "href" : "https://api.spotify.com/v1/albums/2EAdqSUeOWV4h8wU7xSTTX",
        "id" : "2EAdqSUeOWV4h8wU7xSTTX",
        "images" : [ {
          "height" : 640,
          "url" : "https://i.scdn.co/image/ab67616d0000b27341d279931e41ab303d038979",
          "width" : 640
        }, {
          "height" : 300,
          "url" : "https://i.scdn.co/image/ab67616d00001e0241d279931e41ab303d038979",
          "width" : 300
        }, {
          "height" : 64,
          "url" : "https://i.scdn.co/image/ab67616d0000485141d279931e41ab303d038979",
          "width" : 64
        } ],
        "name" : "Christian Piano Hymns",
        "release_date" : "2017-05-20",
        "release_date_precision" : "day",
        "total_tracks" : 14,
        "type" : "album",
        "uri" : "spotify:album:2EAdqSUeOWV4h8wU7xSTTX"
      },
      "artists" : [ {
        "external_urls" : {
          "spotify" : "https://open.spotify.com/artist/3QSNunV4pABJJFRWYL66Ml"
        },
        "href" : "https://api.spotify.com/v1/artists/3QSNunV4pABJJFRWYL66Ml",
        "id" : "3QSNunV4pABJJFRWYL66Ml",
        "name" : "Jake Erickson",
        "type" : "artist",
        "uri" : "spotify:artist:3QSNunV4pABJJFRWYL66Ml"
      } ],
      "disc_number" : 1,
      "duration_ms" : 172374,
      "explicit" : false,
      "external_ids" : {
        "isrc" : "GB-SMU-36-62685"
      },
      "external_urls" : {
        "spotify" : "https://open.spotify.com/track/6nGa8wTnEdY0HLbcOZJsej"
      },
      "href" : "https://api.spotify.com/v1/tracks/6nGa8wTnEdY0HLbcOZJsej",
      "id" : "6nGa8wTnEdY0HLbcOZJsej",
      "is_local" : false,
      "is_playable" : true,
      "name" : "Christ The Lord Is Risen Today",
      "popularity" : 14,
      "preview_url" : "https://p.scdn.co/mp3-preview/78c6a5bab9967c1f091b70ada911245495ddb6d4?cid=774b29d4f13844c495f206cafdad9c86",
      "track_number" : 4,
      "type" : "track",
      "uri" : "spotify:track:6nGa8wTnEdY0HLbcOZJsej"
    } ],
    "limit" : 10,
    "next" : "https://api.spotify.com/v1/search?query=Christ+the+Lord+Is+Risen+Today&type=track&market=US&offset=15&limit=10",
    "offset" : 5,
    "previous" : "https://api.spotify.com/v1/search?query=Christ+the+Lord+Is+Risen+Today&type=track&market=US&offset=0&limit=10",
    "total" : 497
  }
}