{
  "tracks" : {
    "href" : "https://api.spotify.com/v1/search?query=Christ+for+the+World&type=track&market=US&offset=5&limit=10",
    "items" : [ {
      "album" : {
        "album_type" : "album",
        "artists" : [ {
          "external_urls" : {
            "spotify" : "https://open.spotify.com/artist/6oGDuzaxim1teeU1yjhokP"
          },
          "href" : "https://api.spotify.com/v1/artists/6oGDuzaxim1teeU1yjhokP",
          "id" : "6oGDuzaxim1teeU1yjhokP",
          "name" : "Christian Music For Babies From I’m In Records",
          "type" : "artist",
          "uri" : "spotify:artist:6oGDuzaxim1teeU1yjhokP"
        } ],
        "external_urls" : {
          "spotify" : "https://open.spotify.com/album/4uLR90GZrGxi5cBKlaA32j"
        },
        "href" : "https://api.spotify.com/v1/albums/4uLR90GZrGxi5cBKlaA32j",
        "id" : "4uLR90GZrGxi5cBKlaA32j",
        "images" : [ {
          "height" : 640,
          "url" : "https://i.scdn.co/image/ab67616d0000b2735a6504fa263fd752304da39b",
          "width" : 640
        }, {
          "height" : 300,
          "url" : "https://i.scdn.co/image/ab67616d00001e025a6504fa263fd752304da39b",
          "width" : 300
        }, {
          "height" : 64,
          "url" : "https://i.scdn.co/image/ab67616d000048515a6504fa263fd752304da39b",
          "width" : 64
        } ],
        "name" : "Christian Hymns, Vol. 1",
        "release_date" : "2017-02-17",
        "release_date_precision" : "day",
        "total_tracks" : 12,
        "type" : "album",
        "uri" : "spotify:album:4uLR90GZrGxi5cBKlaA32j"
      },
      "artists" : [ {
        "external_urls" : {
          "spotify" : "https://open.spotify.com/artist/6oGDuzaxim1teeU1yjhokP"
        },
        "href" : "https://api.spotify.com/v1/artists/6oGDuzaxim1teeU1yjhokP",
        "id" : "6oGDuzaxim1teeU1yjhokP",
        "name" : "Christian Music For Babies From I’m In Records",
        "type" : "artist",
        "uri" : "spotify:artist:6oGDuzaxim1teeU1yjhokP"
      } ],
      "disc_number" : 1,
      "duration_ms" : 180082,
      "explicit" : false,
      "external_ids" : {
        "isrc" : "BRITK1700822"
      },
      "external_urls" : {
        "spotify" : "https://open.spotify.com/track/5ucHJyFldNM6MSDoYXq910"
      },
      "href" : "https://api.spotify.com/v1/tracks/5ucHJyFldNM6MSDoYXq910",
      "id" : "5ucHJyFldNM6MSDoYXq910",
      "is_local" : false,
      "is_playable" : true,
      "name" : "Joy to the World - Lullaby Version",
      "popularity" : 27,
      "preview_url" : "https://p.scdn.co/mp3-preview/5fb25f8226b6c73816064c6fcd15b3af31a4ae75?cid=774b29d4f13844c495f206cafdad9c86",
      "track_number" : 7,
      "type" : "track",
      "uri" : "spotify:track:5ucHJyFldNM6MSDoYXq910"
    }, {
      "album" : {
        "album_type" : "compilation",
        "artists" : [ {
          "external_urls" : {
            "spotify" : "https://open.spotify.com/artist/5cPYngDFgZ8cOapCBCrs14"
          },
          "href" : "https://api.spotify.com/v1/artists/5cPYngDFgZ8cOapCBCrs14",
          "id" : "5cPYngDFgZ8cOapCBCrs14",
          "name" : "The Christians",
          "type" : "artist",
          "uri" : "spotify:artist:5cPYngDFgZ8cOapCBCrs14"
        } ],
        "external_urls" : {
          "spotify" : "https://open.spotify.com/album/0Cz7njhdGm6NISEKRwy6jN"
        },
        "href" : "https://api.spotify.com/v1/albums/0Cz7njhdGm6NISEKRwy6jN",
        "id" : "0Cz7njhdGm6NISEKRwy6jN",
        "images" : [ {
          "height" : 640,
          "url" : "https://i.scdn.co/image/ab67616d0000b273d47c73abf7f7516b8813ca43",
          "width" : 640
        }, {
          "height" : 300,
          "url" : "https://i.scdn.co/image/ab67616d00001e02d47c73abf7f7516b8813ca43",
          "width" : 300
        }, {
          "height" : 64,
          "url" : "https://i.scdn.co/image/ab67616d00004851d47c73abf7f7516b8813ca43",
          "width" : 64
        } ],
        "name" : "The Best of the Christians",
        "release_date" : "2019-11-15",
        "release_date_precision" : "day",
        "total_tracks" : 13,
        "type" : "album",
        "uri" : "spotify:album:0Cz7njhdGm6NISEKRwy6jN"
      },
      "artists" : [ {
        "external_urls" : {
          "spotify" : "https://open.spotify.com/artist/5cPYngDFgZ8cOapCBCrs14"
        },
        "href" : "https://api.spotify.com/v1/artists/5cPYngDFgZ8cOapCBCrs14",
        "id" : "5cPYngDFgZ8cOapCBCrs14",
        "name" : "The Christians",
        "type" : "artist",
        "uri" : "spotify:artist:5cPYngDFgZ8cOapCBCrs14"
      } ],
      "disc_number" : 1,
      "duration_ms" : 238800,
      "explicit" : false,
      "external_ids" : {
        "isrc" : "QMBZ91977829"
      },
      "external_urls" : {
        "spotify" : "https://open.spotify.com/track/7vpHjdsqEHOXCyycxj8o3U"
      },
      "href" : "https://api.spotify.com/v1/tracks/7vpHjdsqEHOXCyycxj8o3U",
      "id" : "7vpHjdsqEHOXCyycxj8o3U",
      "is_local" : false,
      "is_playable" : true,
      "name" : "Harvest for the World",
      "popularity" : 16,
      "preview_url" : "https://p.scdn.co/mp3-preview/ef5ebbd317ea81e8ef050d605530fbe1c0a354c6?cid=774b29d4f13844c495f206cafdad9c86",
      "track_number" : 2,
      "type" : "track",
      "uri" : "spotify:track:7vpHjdsqEHOXCyycxj8o3U"
    }, {
      "album" : {
        "album_type" : "album",
        "artists" : [ {
          "external_urls" : {
            "spotify" : "https://open.spotify.com/artist/4wdliHvRIXiqjWoFfJYe3c"
          },
          "href" : "https://api.spotify.com/v1/artists/4wdliHvRIXiqjWoFfJYe3c",
          "id" : "4wdliHvRIXiqjWoFfJYe3c",
          "name" : "Common Enemy",
          "type" : "artist",
          "uri" : "spotify:artist:4wdliHvRIXiqjWoFfJYe3c"
        } ],
        "external_urls" : {
          "spotify" : "https://open.spotify.com/album/01VuFh1E1r3tdNMzUbOy60"
        },
        "href" : "https://api.spotify.com/v1/albums/01VuFh1E1r3tdNMzUbOy60",
        "id" : "01VuFh1E1r3tdNMzUbOy60",
        "images" : [ {
          "height" : 640,
          "url" : "https://i.scdn.co/image/ab67616d0000b273c3c55d14034e47741b50aacd",
          "width" : 640
        }, {
          "height" : 300,
          "url" : "https://i.scdn.co/image/ab67616d00001e02c3c55d14034e47741b50aacd",
          "width" : 300
        }, {
          "height" : 64,
          "url" : "https://i.scdn.co/image/ab67616d00004851c3c55d14034e47741b50aacd",
          "width" : 64
        } ],
        "name" : "As the World Burns",
        "release_date" : "2012-03-27",
        "release_date_precision" : "day",
        "total_tracks" : 16,
        "type" : "album",
        "uri" : "spotify:album:01VuFh1E1r3tdNMzUbOy60"
      },
      "artists" : [ {
        "external_urls" : {
          "spotify" : "https://open.spotify.com/artist/4wdliHvRIXiqjWoFfJYe3c"
        },
        "href" : "https://api.spotify.com/v1/artists/4wdliHvRIXiqjWoFfJYe3c",
        "id" : "4wdliHvRIXiqjWoFfJYe3c",
        "name" : "Common Enemy",
        "type" : "artist",
        "uri" : "spotify:artist:4wdliHvRIXiqjWoFfJYe3c"
      } ],
      "disc_number" : 1,
      "duration_ms" : 114000,
      "explicit" : true,
      "external_ids" : {
        "isrc" : "uscgj1204179"
      },
      "external_urls" : {
        "spotify" : "https://open.spotify.com/track/6rFNeRh1YpOW7LHuC07Er3"
      },
      "href" : "https://api.spotify.com/v1/tracks/6rFNeRh1YpOW7LHuC07Er3",
      "id" : "6rFNeRh1YpOW7LHuC07Er3",
      "is_local" : false,
      "is_playable" : true,
      "name" : "All I Want for Christmas Is a Bag of Weed",
      "popularity" : 15,
      "preview_url" : "https://p.scdn.co/mp3-preview/1ff571ea9e8f622424ad33d8b24f9940add0255e?cid=774b29d4f13844c495f206cafdad9c86",
      "track_number" : 2,
      "type" : "track",
      "uri" : "spotify:track:6rFNeRh1YpOW7LHuC07Er3"
    }, {
      "album" : {
        "album_type" : "album",
        "artists" : [ {
          "external_urls" : {
            "spotify" : "https://open.spotify.com/artist/4rQcULVm6rPcQzFfL1dMxd"
          },
          "href" : "https://api.spotify.com/v1/artists/4rQcULVm6rPcQzFfL1dMxd",
          "id" : "4rQcULVm6rPcQzFfL1dMxd",
          "name" : "Form Kids",
          "type" : "artist",
          "uri" : "spotify:artist:4rQcULVm6rPcQzFfL1dMxd"
        } ],
        "external_urls" : {
          "spotify" : "https://open.spotify.com/album/1PoAcuOGDr9zkngs6OU3Xm"
        },
        "href" : "https://api.spotify.com/v1/albums/1PoAcuOGDr9zkngs6OU3Xm",
        "id" : "1PoAcuOGDr9zkngs6OU3Xm",
        "images" : [ {
          "height" : 640,
          "url" : "https://i.scdn.co/image/ab67616d0000b27356cced92a7fee75f723bbb43",
          "width" : 640
        }, {
          "height" : 300,
          "url" : "https://i.scdn.co/image/ab67616d00001e0256cced92a7fee75f723bbb43",
          "width" : 300
        }, {
          "height" : 64,
          "url" : "https://i.scdn.co/image/ab67616d0000485156cced92a7fee75f723bbb43",
          "width" : 64
        } ],
        "name" : "A Magical Christmas",
        "release_date" : "2018-07-13",
        "release_date_precision" : "day",
        "total_tracks" : 14,
        "type" : "album",
        "uri" : "spotify:album:1PoAcuOGDr9zkngs6OU3Xm"
      },
      "artists" : [ {
        "external_urls" : {
          "spotify" : "https://open.spotify.com/artist/4rQcULVm6rPcQzFfL1dMxd"
        },
        "href" : "https://api.spotify.com/v1/artists/4rQcULVm6rPcQzFfL1dMxd",
        "id" : "4rQcULVm6rPcQzFfL1dMxd",
        "name" : "Form Kids",
        "type" : "artist",
        "uri" : "spotify:artist:4rQcULVm6rPcQzFfL1dMxd"
      } ],
      "disc_number" : 1,
      "duration_ms" : 132933,
      "explicit" : false,
      "external_ids" : {
        "isrc" : "FR59R1827505"
      },
      "external_urls" : {
        "spotify" : "https://open.spotify.com/track/3CK01i8M7IgSHUeyvVzl7H"
      },
      "href" : "https://api.spotify.com/v1/tracks/3CK01i8M7IgSHUeyvVzl7H",
      "id" : "3CK01i8M7IgSHUeyvVzl7H",
      "is_local" : false,
      "is_playable" : true,
      "name" : "Joy to the World",
      "popularity" : 16,
      "preview_url" : "https://p.scdn.co/mp3-preview/6a86851304a1c2dd39912beb81e6259d88aefc65?cid=774b29d4f13844c495f206cafdad9c86",
      "track_number" : 3,
      "type" : "track",
      "uri" : "spotify:track:3CK01i8M7IgSHUeyvVzl7H"
    }, {
      "album" : {
        "album_type" : "album",
        "artists" : [ {
          "external_urls" : {
            "spotify" : "https://open.spotify.com/artist/4MXUO7sVCaFgFjoTI5ox5c"
          },
          "href" : "https://api.spotify.com/v1/artists/4MXUO7sVCaFgFjoTI5ox5c",
          "id" : "4MXUO7sVCaFgFjoTI5ox5c",
          "name" : "Sufjan Stevens",
          "type" : "artist",
          "uri" : "spotify:artist:4MXUO7sVCaFgFjoTI5ox5c"
        } ],
        "external_urls" : {
          "spotify" : "https://open.spotify.com/album/6ZCbYO3B5eslkY3zHdss4A"
        },
        "href" : "https://api.spotify.com/v1/albums/6ZCbYO3B5eslkY3zHdss4A",
        "id" : "6ZCbYO3B5eslkY3zHdss4A",
        "images" : [ {
          "height" : 640,
          "url" : "https://i.scdn.co/image/ab67616d0000b273527eb894a2ac5a38f313f9ba",
          "width" : 640
        }, {
          "height" : 300,
          "url" : "https://i.scdn.co/image/ab67616d00001e02527eb894a2ac5a38f313f9ba",
          "width" : 300
        }, {
          "height" : 64,
          "url" : "https://i.scdn.co/image/ab67616d00004851527eb894a2ac5a38f313f9ba",
          "width" : 64
        } ],
        "name" : "Songs For Christmas",
        "release_date" : "2006-11-21",
        "release_date_precision" : "day",
        "total_tracks" : 42,
        "type" : "album",
        "uri" : "spotify:album:6ZCbYO3B5eslkY3zHdss4A"
      },
      "artists" : [ {
        "external_urls" : {
          "spotify" : "https://open.spotify.com/artist/4MXUO7sVCaFgFjoTI5ox5c"
        },
        "href" : "https://api.spotify.com/v1/artists/4MXUO7sVCaFgFjoTI5ox5c",
        "id" : "4MXUO7sVCaFgFjoTI5ox5c",
        "name" : "Sufjan Stevens",
        "type" : "artist",
        "uri" : "spotify:artist:4MXUO7sVCaFgFjoTI5ox5c"
      } ],
      "disc_number" : 4,
      "duration_ms" : 260786,
      "explicit" : false,
      "external_ids" : {
        "isrc" : "US64G0602831"
      },
      "external_urls" : {
        "spotify" : "https://open.spotify.com/track/2YlxHMk3MHP3Kk3pVXLqjr"
      },
      "href" : "https://api.spotify.com/v1/tracks/2YlxHMk3MHP3Kk3pVXLqjr",
      "id" : "2YlxHMk3MHP3Kk3pVXLqjr",
      "is_local" : false,
      "is_playable" : true,
      "name" : "Joy To The World",
      "popularity" : 18,
      "preview_url" : "https://p.scdn.co/mp3-preview/c78cc3c67382f00f3584acae533a1d89b3b93655?cid=774b29d4f13844c495f206cafdad9c86",
      "track_number" : 7,
      "type" : "track",
      "uri" : "spotify:track:2YlxHMk3MHP3Kk3pVXLqjr"
    }, {
      "album" : {
        "album_type" : "album",
        "artists" : [ {
          "external_urls" : {
            "spotify" : "https://open.spotify.com/artist/72Nhcx7prNk2ZCxhx0Y5es"
          },
          "href" : "https://api.spotify.com/v1/artists/72Nhcx7prNk2ZCxhx0Y5es",
          "id" : "72Nhcx7prNk2ZCxhx0Y5es",
          "name" : "Amy Grant",
          "type" : "artist",
          "uri" : "spotify:artist:72Nhcx7prNk2ZCxhx0Y5es"
        } ],
        "external_urls" : {
          "spotify" : "https://open.spotify.com/album/6zsXpKxvpjmwXvoxPdN2eQ"
        },
        "href" : "https://api.spotify.com/v1/albums/6zsXpKxvpjmwXvoxPdN2eQ",
        "id" : "6zsXpKxvpjmwXvoxPdN2eQ",
        "images" : [ {
          "height" : 640,
          "url" : "https://i.scdn.co/image/ab67616d0000b273bea0511673451e8d254015a4",
          "width" : 640
        }, {
          "height" : 300,
          "url" : "https://i.scdn.co/image/ab67616d00001e02bea0511673451e8d254015a4",
          "width" : 300
        }, {
          "height" : 64,
          "url" : "https://i.scdn.co/image/ab67616d00004851bea0511673451e8d254015a4",
          "width" : 64
        } ],
        "name" : "Home For Christmas",
        "release_date" : "1992",
        "release_date_precision" : "year",
        "total_tracks" : 12,
        "type" : "album",
        "uri" : "spotify:album:6zsXpKxvpjmwXvoxPdN2eQ"
      },
      "artists" : [ {
        "external_urls" : {
          "spotify" : "https://open.spotify.com/artist/72Nhcx7prNk2ZCxhx0Y5es"
        },
        "href" : "https://api.spotify.com/v1/artists/72Nhcx7prNk2ZCxhx0Y5es",
        "id" : "72Nhcx7prNk2ZCxhx0Y5es",
        "name" : "Amy Grant",
        "type" : "artist",
        "uri" : "spotify:artist:72Nhcx7prNk2ZCxhx0Y5es"
      } ],
      "disc_number" : 1,
      "duration_ms" : 152573,
      "explicit" : false,
      "external_ids" : {
        "isrc" : "USSP30765469"
      },
      "external_urls" : {
        "spotify" : "https://open.spotify.com/track/4L4xDyHmBZusCh5NrSw0BU"
      },
      "href" : "https://api.spotify.com/v1/tracks/4L4xDyHmBZusCh5NrSw0BU",
      "id" : "4L4xDyHmBZusCh5NrSw0BU",
      "is_local" : false,
      "is_playable" : true,
      "name" : "Joy To The World/For Unto Us A Child Is Born - Medley",
      "popularity" : 13,
      "preview_url" : null,
      "track_number" : 3,
      "type" : "track",
      "uri" : "spotify:track:4L4xDyHmBZusCh5NrSw0BU"
    }, {
      "album" : {
        "album_type" : "album",
        "artists" : [ {
          "external_urls" : {
            "spotify" : "https://open.spotify.com/artist/1Mxqyy3pSjf8kZZL4QVxS0"
          },
          "href" : "https://api.spotify.com/v1/artists/1Mxqyy3pSjf8kZZL4QVxS0",
          "id" : "1Mxqyy3pSjf8kZZL4QVxS0",
          "name" : "Frank Sinatra",
          "type" : "artist",
          "uri" : "spotify:artist:1Mxqyy3pSjf8kZZL4QVxS0"
        } ],
        "external_urls" : {
          "spotify" : "https://open.spotify.com/album/3D4FYzqPi2LqJWyfsY1ZdI"
        },
        "href" : "https://api.spotify.com/v1/albums/3D4FYzqPi2LqJWyfsY1ZdI",
        "id" : "3D4FYzqPi2LqJWyfsY1ZdI",
        "images" : [ {
          "height" : 640,
          "url" : "https://i.scdn.co/image/ab67616d0000b2739fd5d519d6c5599406d077ec",
          "width" : 640
        }, {
          "height" : 300,
          "url" : "https://i.scdn.co/image/ab67616d00001e029fd5d519d6c5599406d077ec",
          "width" : 300
        }, {
          "height" : 64,
          "url" : "https://i.scdn.co/image/ab67616d000048519fd5d519d6c5599406d077ec",
          "width" : 64
        } ],
        "name" : "World On A String (Live)",
        "release_date" : "2016-08-26",
        "release_date_precision" : "day",
        "total_tracks" : 93,
        "type" : "album",
        "uri" : "spotify:album:3D4FYzqPi2LqJWyfsY1ZdI"
      },
      "artists" : [ {
        "external_urls" : {
          "spotify" : "https://open.spotify.com/artist/1Mxqyy3pSjf8kZZL4QVxS0"
        },
        "href" : "https://api.spotify.com/v1/artists/1Mxqyy3pSjf8kZZL4QVxS0",
        "id" : "1Mxqyy3pSjf8kZZL4QVxS0",
        "name" : "Frank Sinatra",
        "type" : "artist",
        "uri" : "spotify:artist:1Mxqyy3pSjf8kZZL4QVxS0"
      } ],
      "disc_number" : 2,
      "duration_ms" : 286546,
      "explicit" : false,
      "external_ids" : {
        "isrc" : "USUM71502961"
      },
      "external_urls" : {
        "spotify" : "https://open.spotify.com/track/2JNrBH1JuVo9Mx0UO2RgwA"
      },
      "href" : "https://api.spotify.com/v1/tracks/2JNrBH1JuVo9Mx0UO2RgwA",
      "id" : "2JNrBH1JuVo9Mx0UO2RgwA",
      "is_local" : false,
      "is_playable" : true,
      "name" : "One For My Baby (And One More For The Road) - Live At Sydney Stadium, Australia / 1961",
      "popularity" : 18,
      "preview_url" : null,
      "track_number" : 25,
      "type" : "track",
      "uri" : "spotify:track:2JNrBH1JuVo9Mx0UO2RgwA"
    }, {
      "album" : {
        "album_type" : "album",
        "artists" : [ {
          "external_urls" : {
            "spotify" : "https://open.spotify.com/artist/7vgJnbva49FV9p5EkNlKq7"
          },
          "href" : "https://api.spotify.com/v1/artists/7vgJnbva49FV9p5EkNlKq7",
          "id" : "7vgJnbva49FV9p5EkNlKq7",
          "name" : "Baby Lullaby",
          "type" : "artist",
          "uri" : "spotify:artist:7vgJnbva49FV9p5EkNlKq7"
        } ],
        "external_urls" : {
          "spotify" : "https://open.spotify.com/album/4UDvW7yD0C6P4qeQb71UgU"
        },
        "href" : "https://api.spotify.com/v1/albums/4UDvW7yD0C6P4qeQb71UgU",
        "id" : "4UDvW7yD0C6P4qeQb71UgU",
        "images" : [ {
          "height" : 640,
          "url" : "https://i.scdn.co/image/ab67616d0000b273565ee9c9b6d2d223a35f00c4",
          "width" : 640
        }, {
          "height" : 300,
          "url" : "https://i.scdn.co/image/ab67616d00001e02565ee9c9b6d2d223a35f00c4",
          "width" : 300
        }, {
          "height" : 64,
          "url" : "https://i.scdn.co/image/ab67616d00004851565ee9c9b6d2d223a35f00c4",
          "width" : 64
        } ],
        "name" : "Baby Lullaby: Relaxing Piano Baby Lullabies of Christmas Music and Holiday Music for Baby Sleep",
        "release_date" : "2013-11-09",
        "release_date_precision" : "day",
        "total_tracks" : 40,
        "type" : "album",
        "uri" : "spotify:album:4UDvW7yD0C6P4qeQb71UgU"
      },
      "artists" : [ {
        "external_urls" : {
          "spotify" : "https://open.spotify.com/artist/7vgJnbva49FV9p5EkNlKq7"
        },
        "href" : "https://api.spotify.com/v1/artists/7vgJnbva49FV9p5EkNlKq7",
        "id" : "7vgJnbva49FV9p5EkNlKq7",
        "name" : "Baby Lullaby",
        "type" : "artist",
        "uri" : "spotify:artist:7vgJnbva49FV9p5EkNlKq7"
      } ],
      "disc_number" : 1,
      "duration_ms" : 187756,
      "explicit" : false,
      "external_ids" : {
        "isrc" : "TCABR1380841"
      },
      "external_urls" : {
        "spotify" : "https://open.spotify.com/track/7z3pSCpFCfDLZjA66WSNLE"
      },
      "href" : "https://api.spotify.com/v1/tracks/7z3pSCpFCfDLZjA66WSNLE",
      "id" : "7z3pSCpFCfDLZjA66WSNLE",
      "is_local" : false,
      "is_playable" : true,
      "name" : "Joy to the World",
      "popularity" : 17,
      "preview_url" : "https://p.scdn.co/mp3-preview/faaf8de73e877201365473863c906be996c75689?cid=774b29d4f13844c495f206cafdad9c86",
      "track_number" : 10,
      "type" : "track",
      "uri" : "spotify:track:7z3pSCpFCfDLZjA66WSNLE"
    }, {
      "album" : {
        "album_type" : "compilation",
        "artists" : [ {
          "external_urls" : {
            "spotify" : "https://open.spotify.com/artist/0LyfQWJT6nXafLPZqxe9Of"
          },
          "href" : "https://api.spotify.com/v1/artists/0LyfQWJT6nXafLPZqxe9Of",
          "id" : "0LyfQWJT6nXafLPZqxe9Of",
          "name" : "Various Artists",
          "type" : "artist",
          "uri" : "spotify:artist:0LyfQWJT6nXafLPZqxe9Of"
        } ],
        "external_urls" : {
          "spotify" : "https://open.spotify.com/album/2gZ9oDl4HVZ6GjE7Ko4Rp7"
        },
        "href" : "https://api.spotify.com/v1/albums/2gZ9oDl4HVZ6GjE7Ko4Rp7",
        "id" : "2gZ9oDl4HVZ6GjE7Ko4Rp7",
        "images" : [ {
          "height" : 640,
          "url" : "https://i.scdn.co/image/ab67616d0000b27334b69aafb3e8bb20c59ddddd",
          "width" : 640
        }, {
          "height" : 300,
          "url" : "https://i.scdn.co/image/ab67616d00001e0234b69aafb3e8bb20c59ddddd",
          "width" : 300
        }, {
          "height" : 64,
          "url" : "https://i.scdn.co/image/ab67616d0000485134b69aafb3e8bb20c59ddddd",
          "width" : 64
        } ],
        "name" : "Tis The Season: Christmas Pop Chart Hits (All I Want For Xmas Is You)",
        "release_date" : "2015-11-27",
        "release_date_precision" : "day",
        "total_tracks" : 18,
        "type" : "album",
        "uri" : "spotify:album:2gZ9oDl4HVZ6GjE7Ko4Rp7"
      },
      "artists" : [ {
        "external_urls" : {
          "spotify" : "https://open.spotify.com/artist/5ewoD0qmklJWTN79o9J0Dh"
        },
        "href" : "https://api.spotify.com/v1/artists/5ewoD0qmklJWTN79o9J0Dh",
        "id" : "5ewoD0qmklJWTN79o9J0Dh",
        "name" : "Africa Charity Relief",
        "type" : "artist",
        "uri" : "spotify:artist:5ewoD0qmklJWTN79o9J0Dh"
      }, {
        "external_urls" : {
          "spotify" : "https://open.spotify.com/artist/5UqvR6f3iGS1LnGHsn8yee"
        },
        "href" : "https://api.spotify.com/v1/artists/5UqvR6f3iGS1LnGHsn8yee",
        "id" : "5UqvR6f3iGS1LnGHsn8yee",
        "name" : "B.Geldof",
        "type" : "artist",
        "uri" : "spotify:artist:5UqvR6f3iGS1LnGHsn8yee"
      }, {
        "external_urls" : {
          "spotify" : "https://open.spotify.com/artist/63VnEHFyl9Gm82xRZMG6yv"
        },
        "href" : "https://api.spotify.com/v1/artists/63VnEHFyl9Gm82xRZMG6yv",
        "id" : "63VnEHFyl9Gm82xRZMG6yv",
        "name" : "M.Ure",
        "type" : "artist",
        "uri" : "spotify:artist:63VnEHFyl9Gm82xRZMG6yv"
      } ],
      "disc_number" : 1,
      "duration_ms" : 221000,
      "explicit" : false,
      "external_ids" : {
        "isrc" : "QMVRR1539118"
      },
      "external_urls" : {
        "spotify" : "https://open.spotify.com/track/5QKlTtqIBqY7kMRSbr9AGI"
      },
      "href" : "https://api.spotify.com/v1/tracks/5QKlTtqIBqY7kMRSbr9AGI",
      "id" : "5QKlTtqIBqY7kMRSbr9AGI",
      "is_local" : false,
      "is_playable" : true,
      "name" : "Do They Know It's Christmas (Feed The World)",
      "popularity" : 17,
      "preview_url" : "https://p.scdn.co/mp3-preview/10816b93e62322ef677361d77f53816dd33d453d?cid=774b29d4f13844c495f206cafdad9c86",
      "track_number" : 6,
      "type" : "track",
      "uri" : "spotify:track:5QKlTtqIBqY7kMRSbr9AGI"
    }, {
      "album" : {
        "album_type" : "album",
        "artists" : [ {
          "external_urls" : {
            "spotify" : "https://open.spotify.com/artist/0CMACjegQ8a1EZBrL7pUnX"
          },
          "href" : "https://api.spotify.com/v1/artists/0CMACjegQ8a1EZBrL7pUnX",
          "id" : "0CMACjegQ8a1EZBrL7pUnX",
          "name" : "Christian Yoga Music",
          "type" : "artist",
          "uri" : "spotify:artist:0CMACjegQ8a1EZBrL7pUnX"
        } ],
        "external_urls" : {
          "spotify" : "https://open.spotify.com/album/0cyrxeqfWVnvbGqmzq3raw"
        },
        "href" : "https://api.spotify.com/v1/albums/0cyrxeqfWVnvbGqmzq3raw",
        "id" : "0cyrxeqfWVnvbGqmzq3raw",
        "images" : [ {
          "height" : 640,
          "url" : "https://i.scdn.co/image/ab67616d0000b273df24eba05374ff02adbe4dcc",
          "width" : 640
        }, {
          "height" : 300,
          "url" : "https://i.scdn.co/image/ab67616d00001e02df24eba05374ff02adbe4dcc",
          "width" : 300
        }, {
          "height" : 64,
          "url" : "https://i.scdn.co/image/ab67616d00004851df24eba05374ff02adbe4dcc",
          "width" : 64
        } ],
        "name" : "Christian Yoga - Christian Yoga Music and Christian Songs for Yoga Classes Meditation Music and Relaxation Music",
        "release_date" : "2011-02-16",
        "release_date_precision" : "day",
        "total_tracks" : 28,
        "type" : "album",
        "uri" : "spotify:album:0cyrxeqfWVnvbGqmzq3raw"
      },
      "artists" : [ {
        "external_urls" : {
          "spotify" : "https://open.spotify.com/artist/0CMACjegQ8a1EZBrL7pUnX"
        },
        "href" : "https://api.spotify.com/v1/artists/0CMACjegQ8a1EZBrL7pUnX",
        "id" : "0CMACjegQ8a1EZBrL7pUnX",
        "name" : "Christian Yoga Music",
        "type" : "artist",
        "uri" : "spotify:artist:0CMACjegQ8a1EZBrL7pUnX"
      } ],
      "disc_number" : 1,
      "duration_ms" : 158497,
      "explicit" : false,
      "external_ids" : {
        "isrc" : "ITO101111565"
      },
      "external_urls" : {
        "spotify" : "https://open.spotify.com/track/6NXkuazMHjouF1hLzLQzJd"
      },
      "href" : "https://api.spotify.com/v1/tracks/6NXkuazMHjouF1hLzLQzJd",
      "id" : "6NXkuazMHjouF1hLzLQzJd",
      "is_local" : false,
      "is_playable" : true,
      "name" : "Peace in the World",
      "popularity" : 10,
      "preview_url" : "https://p.scdn.co/mp3-preview/1266447e1e0367b27165fd28906db86ff143a1e1?cid=774b29d4f13844c495f206cafdad9c86",
      "track_number" : 2,
      "type" : "track",
      "uri" : "spotify:track:6NXkuazMHjouF1hLzLQzJd"
    } ],
    "limit" : 10,
    "next" : "https://api.spotify.com/v1/search?query=Christ+for+the+World&type=track&market=US&offset=15&limit=10",
    "offset" : 5,
    "previous" : "https://api.spotify.com/v1/search?query=Christ+for+the+World&type=track&market=US&offset=0&limit=10",
    "total" : 1952
  }
}