{
  "tracks" : {
    "href" : "https://api.spotify.com/v1/search?query=Praise%2C+My+Soul%2C+the+King+of+Heaven&type=track&market=US&offset=5&limit=10",
    "items" : [ {
      "album" : {
        "album_type" : "single",
        "artists" : [ {
          "external_urls" : {
            "spotify" : "https://open.spotify.com/artist/4E5OsYWj9dBk4cIyGEkWdJ"
          },
          "href" : "https://api.spotify.com/v1/artists/4E5OsYWj9dBk4cIyGEkWdJ",
          "id" : "4E5OsYWj9dBk4cIyGEkWdJ",
          "name" : "Keys of Peace",
          "type" : "artist",
          "uri" : "spotify:artist:4E5OsYWj9dBk4cIyGEkWdJ"
        } ],
        "external_urls" : {
          "spotify" : "https://open.spotify.com/album/2OuHEZvqTeCxPqGBEitcAr"
        },
        "href" : "https://api.spotify.com/v1/albums/2OuHEZvqTeCxPqGBEitcAr",
        "id" : "2OuHEZvqTeCxPqGBEitcAr",
        "images" : [ {
          "height" : 640,
          "url" : "https://i.scdn.co/image/ab67616d0000b273a61e5957b5cef55abb9acb41",
          "width" : 640
        }, {
          "height" : 300,
          "url" : "https://i.scdn.co/image/ab67616d00001e02a61e5957b5cef55abb9acb41",
          "width" : 300
        }, {
          "height" : 64,
          "url" : "https://i.scdn.co/image/ab67616d00004851a61e5957b5cef55abb9acb41",
          "width" : 64
        } ],
        "name" : "Praise, My Soul, the King of Heaven (Instrumental)",
        "release_date" : "2020-05-15",
        "release_date_precision" : "day",
        "total_tracks" : 1,
        "type" : "album",
        "uri" : "spotify:album:2OuHEZvqTeCxPqGBEitcAr"
      },
      "artists" : [ {
        "external_urls" : {
          "spotify" : "https://open.spotify.com/artist/4E5OsYWj9dBk4cIyGEkWdJ"
        },
        "href" : "https://api.spotify.com/v1/artists/4E5OsYWj9dBk4cIyGEkWdJ",
        "id" : "4E5OsYWj9dBk4cIyGEkWdJ",
        "name" : "Keys of Peace",
        "type" : "artist",
        "uri" : "spotify:artist:4E5OsYWj9dBk4cIyGEkWdJ"
      } ],
      "disc_number" : 1,
      "duration_ms" : 663997,
      "explicit" : false,
      "external_ids" : {
        "isrc" : "QZES92091795"
      },
      "external_urls" : {
        "spotify" : "https://open.spotify.com/track/3EiwMzKg2W0phPCOehcF9b"
      },
      "href" : "https://api.spotify.com/v1/tracks/3EiwMzKg2W0phPCOehcF9b",
      "id" : "3EiwMzKg2W0phPCOehcF9b",
      "is_local" : false,
      "is_playable" : true,
      "name" : "Praise, My Soul, the King of Heaven - Instrumental",
      "popularity" : 0,
      "preview_url" : "https://p.scdn.co/mp3-preview/9472712240c0a8487d1aac45fe5fd62bc597314b?cid=774b29d4f13844c495f206cafdad9c86",
      "track_number" : 1,
      "type" : "track",
      "uri" : "spotify:track:3EiwMzKg2W0phPCOehcF9b"
    }, {
      "album" : {
        "album_type" : "album",
        "artists" : [ {
          "external_urls" : {
            "spotify" : "https://open.spotify.com/artist/3bOofoVdItLmnOv4Zn1Vvb"
          },
          "href" : "https://api.spotify.com/v1/artists/3bOofoVdItLmnOv4Zn1Vvb",
          "id" : "3bOofoVdItLmnOv4Zn1Vvb",
          "name" : "The Methodist Hymnal",
          "type" : "artist",
          "uri" : "spotify:artist:3bOofoVdItLmnOv4Zn1Vvb"
        } ],
        "external_urls" : {
          "spotify" : "https://open.spotify.com/album/4kbjUe1ge2ZfYZTbMY1Juy"
        },
        "href" : "https://api.spotify.com/v1/albums/4kbjUe1ge2ZfYZTbMY1Juy",
        "id" : "4kbjUe1ge2ZfYZTbMY1Juy",
        "images" : [ {
          "height" : 640,
          "url" : "https://i.scdn.co/image/ab67616d0000b27375ee0f055d4808292b633312",
          "width" : 640
        }, {
          "height" : 300,
          "url" : "https://i.scdn.co/image/ab67616d00001e0275ee0f055d4808292b633312",
          "width" : 300
        }, {
          "height" : 64,
          "url" : "https://i.scdn.co/image/ab67616d0000485175ee0f055d4808292b633312",
          "width" : 64
        } ],
        "name" : "Hymns For Advent",
        "release_date" : "2015-09-25",
        "release_date_precision" : "day",
        "total_tracks" : 15,
        "type" : "album",
        "uri" : "spotify:album:4kbjUe1ge2ZfYZTbMY1Juy"
      },
      "artists" : [ {
        "external_urls" : {
          "spotify" : "https://open.spotify.com/artist/3bOofoVdItLmnOv4Zn1Vvb"
        },
        "href" : "https://api.spotify.com/v1/artists/3bOofoVdItLmnOv4Zn1Vvb",
        "id" : "3bOofoVdItLmnOv4Zn1Vvb",
        "name" : "The Methodist Hymnal",
        "type" : "artist",
        "uri" : "spotify:artist:3bOofoVdItLmnOv4Zn1Vvb"
      } ],
      "disc_number" : 1,
      "duration_ms" : 87591,
      "explicit" : false,
      "external_ids" : {
        "isrc" : "USLZJ1559387"
      },
      "external_urls" : {
        "spotify" : "https://open.spotify.com/track/7k2ksp11Depq99HNWVegLy"
      },
      "href" : "https://api.spotify.com/v1/tracks/7k2ksp11Depq99HNWVegLy",
      "id" : "7k2ksp11Depq99HNWVegLy",
      "is_local" : false,
      "is_playable" : true,
      "name" : "Praise My Soul The King Of Heaven",
      "popularity" : 15,
      "preview_url" : "https://p.scdn.co/mp3-preview/ad59712b187b54ead259f4e7dbf0314526c60d82?cid=774b29d4f13844c495f206cafdad9c86",
      "track_number" : 2,
      "type" : "track",
      "uri" : "spotify:track:7k2ksp11Depq99HNWVegLy"
    }, {
      "album" : {
        "album_type" : "album",
        "artists" : [ {
          "external_urls" : {
            "spotify" : "https://open.spotify.com/artist/3foczzTKMl7TLCoFOnVmgI"
          },
          "href" : "https://api.spotify.com/v1/artists/3foczzTKMl7TLCoFOnVmgI",
          "id" : "3foczzTKMl7TLCoFOnVmgI",
          "name" : "The Enfield Hymn Sessions",
          "type" : "artist",
          "uri" : "spotify:artist:3foczzTKMl7TLCoFOnVmgI"
        } ],
        "external_urls" : {
          "spotify" : "https://open.spotify.com/album/71HCQlS9sNnRWFqnck5eKy"
        },
        "href" : "https://api.spotify.com/v1/albums/71HCQlS9sNnRWFqnck5eKy",
        "id" : "71HCQlS9sNnRWFqnck5eKy",
        "images" : [ {
          "height" : 640,
          "url" : "https://i.scdn.co/image/ab67616d0000b27321b5f99db69a31a84eb55aee",
          "width" : 640
        }, {
          "height" : 300,
          "url" : "https://i.scdn.co/image/ab67616d00001e0221b5f99db69a31a84eb55aee",
          "width" : 300
        }, {
          "height" : 64,
          "url" : "https://i.scdn.co/image/ab67616d0000485121b5f99db69a31a84eb55aee",
          "width" : 64
        } ],
        "name" : "Resolved Music, Vol. 1",
        "release_date" : "2010-06-25",
        "release_date_precision" : "day",
        "total_tracks" : 12,
        "type" : "album",
        "uri" : "spotify:album:71HCQlS9sNnRWFqnck5eKy"
      },
      "artists" : [ {
        "external_urls" : {
          "spotify" : "https://open.spotify.com/artist/3foczzTKMl7TLCoFOnVmgI"
        },
        "href" : "https://api.spotify.com/v1/artists/3foczzTKMl7TLCoFOnVmgI",
        "id" : "3foczzTKMl7TLCoFOnVmgI",
        "name" : "The Enfield Hymn Sessions",
        "type" : "artist",
        "uri" : "spotify:artist:3foczzTKMl7TLCoFOnVmgI"
      } ],
      "disc_number" : 1,
      "duration_ms" : 265520,
      "explicit" : false,
      "external_ids" : {
        "isrc" : "USP791000010"
      },
      "external_urls" : {
        "spotify" : "https://open.spotify.com/track/1xQdCPhaNavJOT405vLg7j"
      },
      "href" : "https://api.spotify.com/v1/tracks/1xQdCPhaNavJOT405vLg7j",
      "id" : "1xQdCPhaNavJOT405vLg7j",
      "is_local" : false,
      "is_playable" : true,
      "name" : "Praise, My Soul, The King Of Heaven",
      "popularity" : 14,
      "preview_url" : "https://p.scdn.co/mp3-preview/6831839688e53145a7a6b0ebd16677ad887be842?cid=774b29d4f13844c495f206cafdad9c86",
      "track_number" : 10,
      "type" : "track",
      "uri" : "spotify:track:1xQdCPhaNavJOT405vLg7j"
    }, {
      "album" : {
        "album_type" : "album",
        "artists" : [ {
          "external_urls" : {
            "spotify" : "https://open.spotify.com/artist/1VXCIEol192OgSF9VzowGV"
          },
          "href" : "https://api.spotify.com/v1/artists/1VXCIEol192OgSF9VzowGV",
          "id" : "1VXCIEol192OgSF9VzowGV",
          "name" : "River Valley Worship",
          "type" : "artist",
          "uri" : "spotify:artist:1VXCIEol192OgSF9VzowGV"
        } ],
        "external_urls" : {
          "spotify" : "https://open.spotify.com/album/206kGHViXujSzBAgP4ZnIj"
        },
        "href" : "https://api.spotify.com/v1/albums/206kGHViXujSzBAgP4ZnIj",
        "id" : "206kGHViXujSzBAgP4ZnIj",
        "images" : [ {
          "height" : 640,
          "url" : "https://i.scdn.co/image/ab67616d0000b273fa47b1a37a392d4c4bba3e1b",
          "width" : 640
        }, {
          "height" : 300,
          "url" : "https://i.scdn.co/image/ab67616d00001e02fa47b1a37a392d4c4bba3e1b",
          "width" : 300
        }, {
          "height" : 64,
          "url" : "https://i.scdn.co/image/ab67616d00004851fa47b1a37a392d4c4bba3e1b",
          "width" : 64
        } ],
        "name" : "Sounds Like Victory (Deluxe Edition)",
        "release_date" : "2014-12-02",
        "release_date_precision" : "day",
        "total_tracks" : 17,
        "type" : "album",
        "uri" : "spotify:album:206kGHViXujSzBAgP4ZnIj"
      },
      "artists" : [ {
        "external_urls" : {
          "spotify" : "https://open.spotify.com/artist/1VXCIEol192OgSF9VzowGV"
        },
        "href" : "https://api.spotify.com/v1/artists/1VXCIEol192OgSF9VzowGV",
        "id" : "1VXCIEol192OgSF9VzowGV",
        "name" : "River Valley Worship",
        "type" : "artist",
        "uri" : "spotify:artist:1VXCIEol192OgSF9VzowGV"
      } ],
      "disc_number" : 1,
      "duration_ms" : 323761,
      "explicit" : false,
      "external_ids" : {
        "isrc" : "USDHM1604292"
      },
      "external_urls" : {
        "spotify" : "https://open.spotify.com/track/6RGu3CWQsSWHrtywqBMNte"
      },
      "href" : "https://api.spotify.com/v1/tracks/6RGu3CWQsSWHrtywqBMNte",
      "id" : "6RGu3CWQsSWHrtywqBMNte",
      "is_local" : false,
      "is_playable" : true,
      "name" : "Praise My Soul The King of Heaven (Bonus Track)",
      "popularity" : 12,
      "preview_url" : "https://p.scdn.co/mp3-preview/ca2bf1b731ac74485417805cc095d51efc56c1da?cid=774b29d4f13844c495f206cafdad9c86",
      "track_number" : 15,
      "type" : "track",
      "uri" : "spotify:track:6RGu3CWQsSWHrtywqBMNte"
    }, {
      "album" : {
        "album_type" : "album",
        "artists" : [ {
          "external_urls" : {
            "spotify" : "https://open.spotify.com/artist/2qecHAuVSS5d8qNlRh0c92"
          },
          "href" : "https://api.spotify.com/v1/artists/2qecHAuVSS5d8qNlRh0c92",
          "id" : "2qecHAuVSS5d8qNlRh0c92",
          "name" : "Catholic Mass",
          "type" : "artist",
          "uri" : "spotify:artist:2qecHAuVSS5d8qNlRh0c92"
        } ],
        "external_urls" : {
          "spotify" : "https://open.spotify.com/album/1CvggySag8wJ59P61EktSh"
        },
        "href" : "https://api.spotify.com/v1/albums/1CvggySag8wJ59P61EktSh",
        "id" : "1CvggySag8wJ59P61EktSh",
        "images" : [ {
          "height" : 640,
          "url" : "https://i.scdn.co/image/ab67616d0000b27365203ce3b51ae62b85af1e25",
          "width" : 640
        }, {
          "height" : 300,
          "url" : "https://i.scdn.co/image/ab67616d00001e0265203ce3b51ae62b85af1e25",
          "width" : 300
        }, {
          "height" : 64,
          "url" : "https://i.scdn.co/image/ab67616d0000485165203ce3b51ae62b85af1e25",
          "width" : 64
        } ],
        "name" : "Piano Hymns",
        "release_date" : "2015-12-21",
        "release_date_precision" : "day",
        "total_tracks" : 19,
        "type" : "album",
        "uri" : "spotify:album:1CvggySag8wJ59P61EktSh"
      },
      "artists" : [ {
        "external_urls" : {
          "spotify" : "https://open.spotify.com/artist/2qecHAuVSS5d8qNlRh0c92"
        },
        "href" : "https://api.spotify.com/v1/artists/2qecHAuVSS5d8qNlRh0c92",
        "id" : "2qecHAuVSS5d8qNlRh0c92",
        "name" : "Catholic Mass",
        "type" : "artist",
        "uri" : "spotify:artist:2qecHAuVSS5d8qNlRh0c92"
      } ],
      "disc_number" : 1,
      "duration_ms" : 87591,
      "explicit" : false,
      "external_ids" : {
        "isrc" : "USA2P1563014"
      },
      "external_urls" : {
        "spotify" : "https://open.spotify.com/track/0OVyon1lGj7oyIrEjWHF4L"
      },
      "href" : "https://api.spotify.com/v1/tracks/0OVyon1lGj7oyIrEjWHF4L",
      "id" : "0OVyon1lGj7oyIrEjWHF4L",
      "is_local" : false,
      "is_playable" : true,
      "name" : "Praise My Soul the King of Heaven",
      "popularity" : 10,
      "preview_url" : "https://p.scdn.co/mp3-preview/272a69bc667f77ef92419aab13f7849919bcce8f?cid=774b29d4f13844c495f206cafdad9c86",
      "track_number" : 6,
      "type" : "track",
      "uri" : "spotify:track:0OVyon1lGj7oyIrEjWHF4L"
    }, {
      "album" : {
        "album_type" : "album",
        "artists" : [ {
          "external_urls" : {
            "spotify" : "https://open.spotify.com/artist/5sQwW3dIsfGVy6DWtKhDo0"
          },
          "href" : "https://api.spotify.com/v1/artists/5sQwW3dIsfGVy6DWtKhDo0",
          "id" : "5sQwW3dIsfGVy6DWtKhDo0",
          "name" : "York Minster Choir/Philip Moore",
          "type" : "artist",
          "uri" : "spotify:artist:5sQwW3dIsfGVy6DWtKhDo0"
        } ],
        "external_urls" : {
          "spotify" : "https://open.spotify.com/album/6av9dO2LmzDKWRaCSQby95"
        },
        "href" : "https://api.spotify.com/v1/albums/6av9dO2LmzDKWRaCSQby95",
        "id" : "6av9dO2LmzDKWRaCSQby95",
        "images" : [ {
          "height" : 640,
          "url" : "https://i.scdn.co/image/ab67616d0000b273d61ea403ddc2afaeca384282",
          "width" : 640
        }, {
          "height" : 300,
          "url" : "https://i.scdn.co/image/ab67616d00001e02d61ea403ddc2afaeca384282",
          "width" : 300
        }, {
          "height" : 64,
          "url" : "https://i.scdn.co/image/ab67616d00004851d61ea403ddc2afaeca384282",
          "width" : 64
        } ],
        "name" : "Best-Loved Hymns from York Minster",
        "release_date" : "1996",
        "release_date_precision" : "year",
        "total_tracks" : 21,
        "type" : "album",
        "uri" : "spotify:album:6av9dO2LmzDKWRaCSQby95"
      },
      "artists" : [ {
        "external_urls" : {
          "spotify" : "https://open.spotify.com/artist/2kmPXl0drk82L45Vj0WbHi"
        },
        "href" : "https://api.spotify.com/v1/artists/2kmPXl0drk82L45Vj0WbHi",
        "id" : "2kmPXl0drk82L45Vj0WbHi",
        "name" : "John Goss",
        "type" : "artist",
        "uri" : "spotify:artist:2kmPXl0drk82L45Vj0WbHi"
      }, {
        "external_urls" : {
          "spotify" : "https://open.spotify.com/artist/4qenjQZBIuPL8Ridz3sLH4"
        },
        "href" : "https://api.spotify.com/v1/artists/4qenjQZBIuPL8Ridz3sLH4",
        "id" : "4qenjQZBIuPL8Ridz3sLH4",
        "name" : "York Minster Choir",
        "type" : "artist",
        "uri" : "spotify:artist:4qenjQZBIuPL8Ridz3sLH4"
      }, {
        "external_urls" : {
          "spotify" : "https://open.spotify.com/artist/7abS4vtKpO3MidQZVbjMBn"
        },
        "href" : "https://api.spotify.com/v1/artists/7abS4vtKpO3MidQZVbjMBn",
        "id" : "7abS4vtKpO3MidQZVbjMBn",
        "name" : "Philip Moore",
        "type" : "artist",
        "uri" : "spotify:artist:7abS4vtKpO3MidQZVbjMBn"
      } ],
      "disc_number" : 1,
      "duration_ms" : 191733,
      "explicit" : false,
      "external_ids" : {
        "isrc" : "GBAYD9600641"
      },
      "external_urls" : {
        "spotify" : "https://open.spotify.com/track/4c1wcDPlQPW9lS2c5HN6wh"
      },
      "href" : "https://api.spotify.com/v1/tracks/4c1wcDPlQPW9lS2c5HN6wh",
      "id" : "4c1wcDPlQPW9lS2c5HN6wh",
      "is_local" : false,
      "is_playable" : true,
      "name" : "Praise, my soul, the King of heaven (Praise, my soul)",
      "popularity" : 13,
      "preview_url" : "https://p.scdn.co/mp3-preview/799bdc6d7b26ead637c43f576ab9dfd3c9b5d46d?cid=774b29d4f13844c495f206cafdad9c86",
      "track_number" : 3,
      "type" : "track",
      "uri" : "spotify:track:4c1wcDPlQPW9lS2c5HN6wh"
    }, {
      "album" : {
        "album_type" : "album",
        "artists" : [ {
          "external_urls" : {
            "spotify" : "https://open.spotify.com/artist/0HoHU8SXe0g9jJGOfL8rDq"
          },
          "href" : "https://api.spotify.com/v1/artists/0HoHU8SXe0g9jJGOfL8rDq",
          "id" : "0HoHU8SXe0g9jJGOfL8rDq",
          "name" : "Indelible Grace Music",
          "type" : "artist",
          "uri" : "spotify:artist:0HoHU8SXe0g9jJGOfL8rDq"
        } ],
        "external_urls" : {
          "spotify" : "https://open.spotify.com/album/3KspjtTfkisFlIBfsyopf3"
        },
        "href" : "https://api.spotify.com/v1/albums/3KspjtTfkisFlIBfsyopf3",
        "id" : "3KspjtTfkisFlIBfsyopf3",
        "images" : [ {
          "height" : 640,
          "url" : "https://i.scdn.co/image/ab67616d0000b273955303e66356858f9eb6343d",
          "width" : 640
        }, {
          "height" : 300,
          "url" : "https://i.scdn.co/image/ab67616d00001e02955303e66356858f9eb6343d",
          "width" : 300
        }, {
          "height" : 64,
          "url" : "https://i.scdn.co/image/ab67616d00004851955303e66356858f9eb6343d",
          "width" : 64
        } ],
        "name" : "For All the Saints: Indelible Grace III",
        "release_date" : "2008-07-28",
        "release_date_precision" : "day",
        "total_tracks" : 14,
        "type" : "album",
        "uri" : "spotify:album:3KspjtTfkisFlIBfsyopf3"
      },
      "artists" : [ {
        "external_urls" : {
          "spotify" : "https://open.spotify.com/artist/0HoHU8SXe0g9jJGOfL8rDq"
        },
        "href" : "https://api.spotify.com/v1/artists/0HoHU8SXe0g9jJGOfL8rDq",
        "id" : "0HoHU8SXe0g9jJGOfL8rDq",
        "name" : "Indelible Grace Music",
        "type" : "artist",
        "uri" : "spotify:artist:0HoHU8SXe0g9jJGOfL8rDq"
      } ],
      "disc_number" : 1,
      "duration_ms" : 297906,
      "explicit" : false,
      "external_ids" : {
        "isrc" : "USTC60817044"
      },
      "external_urls" : {
        "spotify" : "https://open.spotify.com/track/5qP8DpqWJw1VDG0biHYY2d"
      },
      "href" : "https://api.spotify.com/v1/tracks/5qP8DpqWJw1VDG0biHYY2d",
      "id" : "5qP8DpqWJw1VDG0biHYY2d",
      "is_local" : false,
      "is_playable" : true,
      "name" : "Praise My Soul the King of Heaven [Emily Deloach]",
      "popularity" : 9,
      "preview_url" : "https://p.scdn.co/mp3-preview/33c865721820248615152a22b419bfef642de95c?cid=774b29d4f13844c495f206cafdad9c86",
      "track_number" : 4,
      "type" : "track",
      "uri" : "spotify:track:5qP8DpqWJw1VDG0biHYY2d"
    }, {
      "album" : {
        "album_type" : "album",
        "artists" : [ {
          "external_urls" : {
            "spotify" : "https://open.spotify.com/artist/4bvoA0eiuvuBBRfUFJGqpC"
          },
          "href" : "https://api.spotify.com/v1/artists/4bvoA0eiuvuBBRfUFJGqpC",
          "id" : "4bvoA0eiuvuBBRfUFJGqpC",
          "name" : "Matthew Brown",
          "type" : "artist",
          "uri" : "spotify:artist:4bvoA0eiuvuBBRfUFJGqpC"
        } ],
        "external_urls" : {
          "spotify" : "https://open.spotify.com/album/17eClCeTzTFM32T1xJ99eq"
        },
        "href" : "https://api.spotify.com/v1/albums/17eClCeTzTFM32T1xJ99eq",
        "id" : "17eClCeTzTFM32T1xJ99eq",
        "images" : [ {
          "height" : 640,
          "url" : "https://i.scdn.co/image/ab67616d0000b2730857b28183cdcd4ed009f311",
          "width" : 640
        }, {
          "height" : 300,
          "url" : "https://i.scdn.co/image/ab67616d00001e020857b28183cdcd4ed009f311",
          "width" : 300
        }, {
          "height" : 64,
          "url" : "https://i.scdn.co/image/ab67616d000048510857b28183cdcd4ed009f311",
          "width" : 64
        } ],
        "name" : "Sanctus, Sanctus, Sanctus! Traditional Instrumental Catholic Hymns",
        "release_date" : "2016-01-29",
        "release_date_precision" : "day",
        "total_tracks" : 15,
        "type" : "album",
        "uri" : "spotify:album:17eClCeTzTFM32T1xJ99eq"
      },
      "artists" : [ {
        "external_urls" : {
          "spotify" : "https://open.spotify.com/artist/4bvoA0eiuvuBBRfUFJGqpC"
        },
        "href" : "https://api.spotify.com/v1/artists/4bvoA0eiuvuBBRfUFJGqpC",
        "id" : "4bvoA0eiuvuBBRfUFJGqpC",
        "name" : "Matthew Brown",
        "type" : "artist",
        "uri" : "spotify:artist:4bvoA0eiuvuBBRfUFJGqpC"
      } ],
      "disc_number" : 1,
      "duration_ms" : 87591,
      "explicit" : false,
      "external_ids" : {
        "isrc" : "USA2P1603972"
      },
      "external_urls" : {
        "spotify" : "https://open.spotify.com/track/4oorgvVCeWZSDCgAwkZ328"
      },
      "href" : "https://api.spotify.com/v1/tracks/4oorgvVCeWZSDCgAwkZ328",
      "id" : "4oorgvVCeWZSDCgAwkZ328",
      "is_local" : false,
      "is_playable" : true,
      "name" : "Praise My Soul the King of Heaven",
      "popularity" : 8,
      "preview_url" : "https://p.scdn.co/mp3-preview/272a69bc667f77ef92419aab13f7849919bcce8f?cid=774b29d4f13844c495f206cafdad9c86",
      "track_number" : 3,
      "type" : "track",
      "uri" : "spotify:track:4oorgvVCeWZSDCgAwkZ328"
    }, {
      "album" : {
        "album_type" : "album",
        "artists" : [ {
          "external_urls" : {
            "spotify" : "https://open.spotify.com/artist/6eGXFEwOdfD1dIPyu6c5cG"
          },
          "href" : "https://api.spotify.com/v1/artists/6eGXFEwOdfD1dIPyu6c5cG",
          "id" : "6eGXFEwOdfD1dIPyu6c5cG",
          "name" : "Steve Green",
          "type" : "artist",
          "uri" : "spotify:artist:6eGXFEwOdfD1dIPyu6c5cG"
        } ],
        "external_urls" : {
          "spotify" : "https://open.spotify.com/album/599EqUWIHFJuePqXS2vpfu"
        },
        "href" : "https://api.spotify.com/v1/albums/599EqUWIHFJuePqXS2vpfu",
        "id" : "599EqUWIHFJuePqXS2vpfu",
        "images" : [ {
          "height" : 640,
          "url" : "https://i.scdn.co/image/ab67616d0000b2732a4251cf1150b9691024bc56",
          "width" : 640
        }, {
          "height" : 300,
          "url" : "https://i.scdn.co/image/ab67616d00001e022a4251cf1150b9691024bc56",
          "width" : 300
        }, {
          "height" : 64,
          "url" : "https://i.scdn.co/image/ab67616d000048512a4251cf1150b9691024bc56",
          "width" : 64
        } ],
        "name" : "Hymns",
        "release_date" : "2014-09-30",
        "release_date_precision" : "day",
        "total_tracks" : 12,
        "type" : "album",
        "uri" : "spotify:album:599EqUWIHFJuePqXS2vpfu"
      },
      "artists" : [ {
        "external_urls" : {
          "spotify" : "https://open.spotify.com/artist/6eGXFEwOdfD1dIPyu6c5cG"
        },
        "href" : "https://api.spotify.com/v1/artists/6eGXFEwOdfD1dIPyu6c5cG",
        "id" : "6eGXFEwOdfD1dIPyu6c5cG",
        "name" : "Steve Green",
        "type" : "artist",
        "uri" : "spotify:artist:6eGXFEwOdfD1dIPyu6c5cG"
      } ],
      "disc_number" : 1,
      "duration_ms" : 176440,
      "explicit" : false,
      "external_ids" : {
        "isrc" : "US8W71400077"
      },
      "external_urls" : {
        "spotify" : "https://open.spotify.com/track/1oaT71DthZ2s6Gjagt7CgO"
      },
      "href" : "https://api.spotify.com/v1/tracks/1oaT71DthZ2s6Gjagt7CgO",
      "id" : "1oaT71DthZ2s6Gjagt7CgO",
      "is_local" : false,
      "is_playable" : true,
      "name" : "Praise My Soul the King of Heaven",
      "popularity" : 13,
      "preview_url" : "https://p.scdn.co/mp3-preview/724f6f8ed173702b0413efb943c57076184053d1?cid=774b29d4f13844c495f206cafdad9c86",
      "track_number" : 10,
      "type" : "track",
      "uri" : "spotify:track:1oaT71DthZ2s6Gjagt7CgO"
    }, {
      "album" : {
        "album_type" : "single",
        "artists" : [ {
          "external_urls" : {
            "spotify" : "https://open.spotify.com/artist/4KS9mJjQ4qcxPh3qWklp5X"
          },
          "href" : "https://api.spotify.com/v1/artists/4KS9mJjQ4qcxPh3qWklp5X",
          "id" : "4KS9mJjQ4qcxPh3qWklp5X",
          "name" : "Perimeter Worship",
          "type" : "artist",
          "uri" : "spotify:artist:4KS9mJjQ4qcxPh3qWklp5X"
        } ],
        "external_urls" : {
          "spotify" : "https://open.spotify.com/album/6XTJrSee50zGLPURFlsypW"
        },
        "href" : "https://api.spotify.com/v1/albums/6XTJrSee50zGLPURFlsypW",
        "id" : "6XTJrSee50zGLPURFlsypW",
        "images" : [ {
          "height" : 640,
          "url" : "https://i.scdn.co/image/ab67616d0000b273f1225ad6e0ab497cebaa4172",
          "width" : 640
        }, {
          "height" : 300,
          "url" : "https://i.scdn.co/image/ab67616d00001e02f1225ad6e0ab497cebaa4172",
          "width" : 300
        }, {
          "height" : 64,
          "url" : "https://i.scdn.co/image/ab67616d00004851f1225ad6e0ab497cebaa4172",
          "width" : 64
        } ],
        "name" : "Every Step",
        "release_date" : "2017-09-17",
        "release_date_precision" : "day",
        "total_tracks" : 5,
        "type" : "album",
        "uri" : "spotify:album:6XTJrSee50zGLPURFlsypW"
      },
      "artists" : [ {
        "external_urls" : {
          "spotify" : "https://open.spotify.com/artist/4KS9mJjQ4qcxPh3qWklp5X"
        },
        "href" : "https://api.spotify.com/v1/artists/4KS9mJjQ4qcxPh3qWklp5X",
        "id" : "4KS9mJjQ4qcxPh3qWklp5X",
        "name" : "Perimeter Worship",
        "type" : "artist",
        "uri" : "spotify:artist:4KS9mJjQ4qcxPh3qWklp5X"
      }, {
        "external_urls" : {
          "spotify" : "https://open.spotify.com/artist/3DLP0kEdvbwkUh9FPB8Sjh"
        },
        "href" : "https://api.spotify.com/v1/artists/3DLP0kEdvbwkUh9FPB8Sjh",
        "id" : "3DLP0kEdvbwkUh9FPB8Sjh",
        "name" : "Michelle Swift",
        "type" : "artist",
        "uri" : "spotify:artist:3DLP0kEdvbwkUh9FPB8Sjh"
      } ],
      "disc_number" : 1,
      "duration_ms" : 196973,
      "explicit" : false,
      "external_ids" : {
        "isrc" : "TCADE1781444"
      },
      "external_urls" : {
        "spotify" : "https://open.spotify.com/track/1sT9yQBSHkOS5YlDZhgqfj"
      },
      "href" : "https://api.spotify.com/v1/tracks/1sT9yQBSHkOS5YlDZhgqfj",
      "id" : "1sT9yQBSHkOS5YlDZhgqfj",
      "is_local" : false,
      "is_playable" : true,
      "name" : "Everlasting King (Praise, My Soul, the King of Heaven) [feat. Michelle Swift]",
      "popularity" : 8,
      "preview_url" : "https://p.scdn.co/mp3-preview/27f345f90fb903f650d7fd3cefa1a80c4b4379cb?cid=774b29d4f13844c495f206cafdad9c86",
      "track_number" : 3,
      "type" : "track",
      "uri" : "spotify:track:1sT9yQBSHkOS5YlDZhgqfj"
    } ],
    "limit" : 10,
    "next" : "https://api.spotify.com/v1/search?query=Praise%2C+My+Soul%2C+the+King+of+Heaven&type=track&market=US&offset=15&limit=10",
    "offset" : 5,
    "previous" : "https://api.spotify.com/v1/search?query=Praise%2C+My+Soul%2C+the+King+of+Heaven&type=track&market=US&offset=0&limit=10",
    "total" : 320
  }
}