{
  "tracks" : {
    "href" : "https://api.spotify.com/v1/search?query=Spirit+of+the+Living+God&type=track&market=US&offset=5&limit=10",
    "items" : [ {
      "album" : {
        "album_type" : "album",
        "artists" : [ {
          "external_urls" : {
            "spotify" : "https://open.spotify.com/artist/1GKYNY4rIPnOuTfC0J1IWw"
          },
          "href" : "https://api.spotify.com/v1/artists/1GKYNY4rIPnOuTfC0J1IWw",
          "id" : "1GKYNY4rIPnOuTfC0J1IWw",
          "name" : "Audrey Assad",
          "type" : "artist",
          "uri" : "spotify:artist:1GKYNY4rIPnOuTfC0J1IWw"
        } ],
        "external_urls" : {
          "spotify" : "https://open.spotify.com/album/76I8fqOA2ZEoASDzbifCMA"
        },
        "href" : "https://api.spotify.com/v1/albums/76I8fqOA2ZEoASDzbifCMA",
        "id" : "76I8fqOA2ZEoASDzbifCMA",
        "images" : [ {
          "height" : 640,
          "url" : "https://i.scdn.co/image/ab67616d0000b273e7c7d74c0bd254195f496f6b",
          "width" : 640
        }, {
          "height" : 300,
          "url" : "https://i.scdn.co/image/ab67616d00001e02e7c7d74c0bd254195f496f6b",
          "width" : 300
        }, {
          "height" : 64,
          "url" : "https://i.scdn.co/image/ab67616d00004851e7c7d74c0bd254195f496f6b",
          "width" : 64
        } ],
        "name" : "Fortunate Fall",
        "release_date" : "2013-08-13",
        "release_date_precision" : "day",
        "total_tracks" : 11,
        "type" : "album",
        "uri" : "spotify:album:76I8fqOA2ZEoASDzbifCMA"
      },
      "artists" : [ {
        "external_urls" : {
          "spotify" : "https://open.spotify.com/artist/1GKYNY4rIPnOuTfC0J1IWw"
        },
        "href" : "https://api.spotify.com/v1/artists/1GKYNY4rIPnOuTfC0J1IWw",
        "id" : "1GKYNY4rIPnOuTfC0J1IWw",
        "name" : "Audrey Assad",
        "type" : "artist",
        "uri" : "spotify:artist:1GKYNY4rIPnOuTfC0J1IWw"
      } ],
      "disc_number" : 1,
      "duration_ms" : 237400,
      "explicit" : false,
      "external_ids" : {
        "isrc" : "TCABP1309814"
      },
      "external_urls" : {
        "spotify" : "https://open.spotify.com/track/0HGihCMb23up2Iv4L2eHEE"
      },
      "href" : "https://api.spotify.com/v1/tracks/0HGihCMb23up2Iv4L2eHEE",
      "id" : "0HGihCMb23up2Iv4L2eHEE",
      "is_local" : false,
      "is_playable" : true,
      "name" : "Spirit of the Living God",
      "popularity" : 29,
      "preview_url" : "https://p.scdn.co/mp3-preview/1b33eb0c8c9b342d753413d41784601846055907?cid=774b29d4f13844c495f206cafdad9c86",
      "track_number" : 9,
      "type" : "track",
      "uri" : "spotify:track:0HGihCMb23up2Iv4L2eHEE"
    }, {
      "album" : {
        "album_type" : "album",
        "artists" : [ {
          "external_urls" : {
            "spotify" : "https://open.spotify.com/artist/5d1JhBfyb58upMXCZOdbQu"
          },
          "href" : "https://api.spotify.com/v1/artists/5d1JhBfyb58upMXCZOdbQu",
          "id" : "5d1JhBfyb58upMXCZOdbQu",
          "name" : "Phil Wickham",
          "type" : "artist",
          "uri" : "spotify:artist:5d1JhBfyb58upMXCZOdbQu"
        } ],
        "external_urls" : {
          "spotify" : "https://open.spotify.com/album/0acdHwwT3BP0dB8VCdYOYT"
        },
        "href" : "https://api.spotify.com/v1/albums/0acdHwwT3BP0dB8VCdYOYT",
        "id" : "0acdHwwT3BP0dB8VCdYOYT",
        "images" : [ {
          "height" : 640,
          "url" : "https://i.scdn.co/image/ab67616d0000b273aae23d4f099353e3b1881dec",
          "width" : 640
        }, {
          "height" : 300,
          "url" : "https://i.scdn.co/image/ab67616d00001e02aae23d4f099353e3b1881dec",
          "width" : 300
        }, {
          "height" : 64,
          "url" : "https://i.scdn.co/image/ab67616d00004851aae23d4f099353e3b1881dec",
          "width" : 64
        } ],
        "name" : "Singalong 2",
        "release_date" : "2012-10-30",
        "release_date_precision" : "day",
        "total_tracks" : 14,
        "type" : "album",
        "uri" : "spotify:album:0acdHwwT3BP0dB8VCdYOYT"
      },
      "artists" : [ {
        "external_urls" : {
          "spotify" : "https://open.spotify.com/artist/5d1JhBfyb58upMXCZOdbQu"
        },
        "href" : "https://api.spotify.com/v1/artists/5d1JhBfyb58upMXCZOdbQu",
        "id" : "5d1JhBfyb58upMXCZOdbQu",
        "name" : "Phil Wickham",
        "type" : "artist",
        "uri" : "spotify:artist:5d1JhBfyb58upMXCZOdbQu"
      } ],
      "disc_number" : 1,
      "duration_ms" : 333653,
      "explicit" : false,
      "external_ids" : {
        "isrc" : "USM2C1200908"
      },
      "external_urls" : {
        "spotify" : "https://open.spotify.com/track/0y7Q88fu3arsPYAxnXVord"
      },
      "href" : "https://api.spotify.com/v1/tracks/0y7Q88fu3arsPYAxnXVord",
      "id" : "0y7Q88fu3arsPYAxnXVord",
      "is_local" : false,
      "is_playable" : true,
      "name" : "Spirit Of The Living God",
      "popularity" : 24,
      "preview_url" : "https://p.scdn.co/mp3-preview/931684b1b2ca8f4dc68cf312f2e6f3f0d633daf4?cid=774b29d4f13844c495f206cafdad9c86",
      "track_number" : 8,
      "type" : "track",
      "uri" : "spotify:track:0y7Q88fu3arsPYAxnXVord"
    }, {
      "album" : {
        "album_type" : "single",
        "artists" : [ {
          "external_urls" : {
            "spotify" : "https://open.spotify.com/artist/0d0ICZg8jE6D2RkDHCTIVq"
          },
          "href" : "https://api.spotify.com/v1/artists/0d0ICZg8jE6D2RkDHCTIVq",
          "id" : "0d0ICZg8jE6D2RkDHCTIVq",
          "name" : "Lucy Grimble",
          "type" : "artist",
          "uri" : "spotify:artist:0d0ICZg8jE6D2RkDHCTIVq"
        } ],
        "external_urls" : {
          "spotify" : "https://open.spotify.com/album/4GF1Etf2zVhpgFRpa1KZqD"
        },
        "href" : "https://api.spotify.com/v1/albums/4GF1Etf2zVhpgFRpa1KZqD",
        "id" : "4GF1Etf2zVhpgFRpa1KZqD",
        "images" : [ {
          "height" : 640,
          "url" : "https://i.scdn.co/image/ab67616d0000b273b86672c01db4decf7b190cbd",
          "width" : 640
        }, {
          "height" : 300,
          "url" : "https://i.scdn.co/image/ab67616d00001e02b86672c01db4decf7b190cbd",
          "width" : 300
        }, {
          "height" : 64,
          "url" : "https://i.scdn.co/image/ab67616d00004851b86672c01db4decf7b190cbd",
          "width" : 64
        } ],
        "name" : "Spirit of the Living God",
        "release_date" : "2020-03-20",
        "release_date_precision" : "day",
        "total_tracks" : 1,
        "type" : "album",
        "uri" : "spotify:album:4GF1Etf2zVhpgFRpa1KZqD"
      },
      "artists" : [ {
        "external_urls" : {
          "spotify" : "https://open.spotify.com/artist/0d0ICZg8jE6D2RkDHCTIVq"
        },
        "href" : "https://api.spotify.com/v1/artists/0d0ICZg8jE6D2RkDHCTIVq",
        "id" : "0d0ICZg8jE6D2RkDHCTIVq",
        "name" : "Lucy Grimble",
        "type" : "artist",
        "uri" : "spotify:artist:0d0ICZg8jE6D2RkDHCTIVq"
      } ],
      "disc_number" : 1,
      "duration_ms" : 249493,
      "explicit" : false,
      "external_ids" : {
        "isrc" : "UK8AR2000007"
      },
      "external_urls" : {
        "spotify" : "https://open.spotify.com/track/7l2VHRM33DrAe4rjlWXPLN"
      },
      "href" : "https://api.spotify.com/v1/tracks/7l2VHRM33DrAe4rjlWXPLN",
      "id" : "7l2VHRM33DrAe4rjlWXPLN",
      "is_local" : false,
      "is_playable" : true,
      "name" : "Spirit of the Living God",
      "popularity" : 28,
      "preview_url" : "https://p.scdn.co/mp3-preview/5cd5b08b8ce5ad702ba30a6c20272bab39daaa74?cid=774b29d4f13844c495f206cafdad9c86",
      "track_number" : 1,
      "type" : "track",
      "uri" : "spotify:track:7l2VHRM33DrAe4rjlWXPLN"
    }, {
      "album" : {
        "album_type" : "album",
        "artists" : [ {
          "external_urls" : {
            "spotify" : "https://open.spotify.com/artist/7bvAtcPT3evvSeHDyu2zBC"
          },
          "href" : "https://api.spotify.com/v1/artists/7bvAtcPT3evvSeHDyu2zBC",
          "id" : "7bvAtcPT3evvSeHDyu2zBC",
          "name" : "Bryan & Katie Torwalt",
          "type" : "artist",
          "uri" : "spotify:artist:7bvAtcPT3evvSeHDyu2zBC"
        } ],
        "external_urls" : {
          "spotify" : "https://open.spotify.com/album/6lfwLgVBxltkAIvkpK4axR"
        },
        "href" : "https://api.spotify.com/v1/albums/6lfwLgVBxltkAIvkpK4axR",
        "id" : "6lfwLgVBxltkAIvkpK4axR",
        "images" : [ {
          "height" : 640,
          "url" : "https://i.scdn.co/image/ab67616d0000b27384bc2ebde7af95cd98ecd9d2",
          "width" : 640
        }, {
          "height" : 300,
          "url" : "https://i.scdn.co/image/ab67616d00001e0284bc2ebde7af95cd98ecd9d2",
          "width" : 300
        }, {
          "height" : 64,
          "url" : "https://i.scdn.co/image/ab67616d0000485184bc2ebde7af95cd98ecd9d2",
          "width" : 64
        } ],
        "name" : "Kingdom Come",
        "release_date" : "2013-10-15",
        "release_date_precision" : "day",
        "total_tracks" : 11,
        "type" : "album",
        "uri" : "spotify:album:6lfwLgVBxltkAIvkpK4axR"
      },
      "artists" : [ {
        "external_urls" : {
          "spotify" : "https://open.spotify.com/artist/7bvAtcPT3evvSeHDyu2zBC"
        },
        "href" : "https://api.spotify.com/v1/artists/7bvAtcPT3evvSeHDyu2zBC",
        "id" : "7bvAtcPT3evvSeHDyu2zBC",
        "name" : "Bryan & Katie Torwalt",
        "type" : "artist",
        "uri" : "spotify:artist:7bvAtcPT3evvSeHDyu2zBC"
      } ],
      "disc_number" : 1,
      "duration_ms" : 256186,
      "explicit" : false,
      "external_ids" : {
        "isrc" : "USTCF1300035"
      },
      "external_urls" : {
        "spotify" : "https://open.spotify.com/track/1IYKjbQBMJn28D3Gyg4j1d"
      },
      "href" : "https://api.spotify.com/v1/tracks/1IYKjbQBMJn28D3Gyg4j1d",
      "id" : "1IYKjbQBMJn28D3Gyg4j1d",
      "is_local" : false,
      "is_playable" : true,
      "name" : "Spirit Of The Living God",
      "popularity" : 26,
      "preview_url" : null,
      "track_number" : 6,
      "type" : "track",
      "uri" : "spotify:track:1IYKjbQBMJn28D3Gyg4j1d"
    }, {
      "album" : {
        "album_type" : "single",
        "artists" : [ {
          "external_urls" : {
            "spotify" : "https://open.spotify.com/artist/6IjtaxFhbSEzyuNJSEbZlM"
          },
          "href" : "https://api.spotify.com/v1/artists/6IjtaxFhbSEzyuNJSEbZlM",
          "id" : "6IjtaxFhbSEzyuNJSEbZlM",
          "name" : "The Sound",
          "type" : "artist",
          "uri" : "spotify:artist:6IjtaxFhbSEzyuNJSEbZlM"
        } ],
        "external_urls" : {
          "spotify" : "https://open.spotify.com/album/788aYumtRW5nAizuxE4UMP"
        },
        "href" : "https://api.spotify.com/v1/albums/788aYumtRW5nAizuxE4UMP",
        "id" : "788aYumtRW5nAizuxE4UMP",
        "images" : [ {
          "height" : 640,
          "url" : "https://i.scdn.co/image/ab67616d0000b273878e5c0781e29ee22a9e317e",
          "width" : 640
        }, {
          "height" : 300,
          "url" : "https://i.scdn.co/image/ab67616d00001e02878e5c0781e29ee22a9e317e",
          "width" : 300
        }, {
          "height" : 64,
          "url" : "https://i.scdn.co/image/ab67616d00004851878e5c0781e29ee22a9e317e",
          "width" : 64
        } ],
        "name" : "Spirit of the Living God (Canon Mix) (with Canon, Angie Rose & Vertical Worship)",
        "release_date" : "2018-05-11",
        "release_date_precision" : "day",
        "total_tracks" : 1,
        "type" : "album",
        "uri" : "spotify:album:788aYumtRW5nAizuxE4UMP"
      },
      "artists" : [ {
        "external_urls" : {
          "spotify" : "https://open.spotify.com/artist/6IjtaxFhbSEzyuNJSEbZlM"
        },
        "href" : "https://api.spotify.com/v1/artists/6IjtaxFhbSEzyuNJSEbZlM",
        "id" : "6IjtaxFhbSEzyuNJSEbZlM",
        "name" : "The Sound",
        "type" : "artist",
        "uri" : "spotify:artist:6IjtaxFhbSEzyuNJSEbZlM"
      }, {
        "external_urls" : {
          "spotify" : "https://open.spotify.com/artist/1dIjbaW9JTTQQ7ufrQnGsq"
        },
        "href" : "https://api.spotify.com/v1/artists/1dIjbaW9JTTQQ7ufrQnGsq",
        "id" : "1dIjbaW9JTTQQ7ufrQnGsq",
        "name" : "Canon",
        "type" : "artist",
        "uri" : "spotify:artist:1dIjbaW9JTTQQ7ufrQnGsq"
      }, {
        "external_urls" : {
          "spotify" : "https://open.spotify.com/artist/2vOqb0eO8aBj2dLpxlmscX"
        },
        "href" : "https://api.spotify.com/v1/artists/2vOqb0eO8aBj2dLpxlmscX",
        "id" : "2vOqb0eO8aBj2dLpxlmscX",
        "name" : "Angie Rose",
        "type" : "artist",
        "uri" : "spotify:artist:2vOqb0eO8aBj2dLpxlmscX"
      }, {
        "external_urls" : {
          "spotify" : "https://open.spotify.com/artist/6N6Sk9XOoHsadAGYR44C2o"
        },
        "href" : "https://api.spotify.com/v1/artists/6N6Sk9XOoHsadAGYR44C2o",
        "id" : "6N6Sk9XOoHsadAGYR44C2o",
        "name" : "Vertical Worship",
        "type" : "artist",
        "uri" : "spotify:artist:6N6Sk9XOoHsadAGYR44C2o"
      } ],
      "disc_number" : 1,
      "duration_ms" : 221596,
      "explicit" : false,
      "external_ids" : {
        "isrc" : "USA5W1800071"
      },
      "external_urls" : {
        "spotify" : "https://open.spotify.com/track/130dYN6V47qYWhW8UnSwoj"
      },
      "href" : "https://api.spotify.com/v1/tracks/130dYN6V47qYWhW8UnSwoj",
      "id" : "130dYN6V47qYWhW8UnSwoj",
      "is_local" : false,
      "is_playable" : true,
      "name" : "Spirit of the Living God (Canon Mix) (with Canon, Angie Rose & Vertical Worship)",
      "popularity" : 24,
      "preview_url" : "https://p.scdn.co/mp3-preview/0c3a461b927712eb71f7efdefef2c9ace559d258?cid=774b29d4f13844c495f206cafdad9c86",
      "track_number" : 1,
      "type" : "track",
      "uri" : "spotify:track:130dYN6V47qYWhW8UnSwoj"
    }, {
      "album" : {
        "album_type" : "album",
        "artists" : [ {
          "external_urls" : {
            "spotify" : "https://open.spotify.com/artist/4EYH78MZdIOfmXIzCX9k4t"
          },
          "href" : "https://api.spotify.com/v1/artists/4EYH78MZdIOfmXIzCX9k4t",
          "id" : "4EYH78MZdIOfmXIzCX9k4t",
          "name" : "Daniel Thornton",
          "type" : "artist",
          "uri" : "spotify:artist:4EYH78MZdIOfmXIzCX9k4t"
        } ],
        "external_urls" : {
          "spotify" : "https://open.spotify.com/album/0aDrhm9w2E4XqhMFcyvI7V"
        },
        "href" : "https://api.spotify.com/v1/albums/0aDrhm9w2E4XqhMFcyvI7V",
        "id" : "0aDrhm9w2E4XqhMFcyvI7V",
        "images" : [ {
          "height" : 640,
          "url" : "https://i.scdn.co/image/ab67616d0000b2731bb520e2b3955f057bf1bb95",
          "width" : 640
        }, {
          "height" : 300,
          "url" : "https://i.scdn.co/image/ab67616d00001e021bb520e2b3955f057bf1bb95",
          "width" : 300
        }, {
          "height" : 64,
          "url" : "https://i.scdn.co/image/ab67616d000048511bb520e2b3955f057bf1bb95",
          "width" : 64
        } ],
        "name" : "Daniel | Piano | Worship Classics",
        "release_date" : "2010-07-04",
        "release_date_precision" : "day",
        "total_tracks" : 14,
        "type" : "album",
        "uri" : "spotify:album:0aDrhm9w2E4XqhMFcyvI7V"
      },
      "artists" : [ {
        "external_urls" : {
          "spotify" : "https://open.spotify.com/artist/4EYH78MZdIOfmXIzCX9k4t"
        },
        "href" : "https://api.spotify.com/v1/artists/4EYH78MZdIOfmXIzCX9k4t",
        "id" : "4EYH78MZdIOfmXIzCX9k4t",
        "name" : "Daniel Thornton",
        "type" : "artist",
        "uri" : "spotify:artist:4EYH78MZdIOfmXIzCX9k4t"
      } ],
      "disc_number" : 1,
      "duration_ms" : 348730,
      "explicit" : false,
      "external_ids" : {
        "isrc" : "AU-UT3-10-00014"
      },
      "external_urls" : {
        "spotify" : "https://open.spotify.com/track/2DaagVL4ge1orisVfBY61o"
      },
      "href" : "https://api.spotify.com/v1/tracks/2DaagVL4ge1orisVfBY61o",
      "id" : "2DaagVL4ge1orisVfBY61o",
      "is_local" : false,
      "is_playable" : true,
      "name" : "Spirit Of The Living God",
      "popularity" : 19,
      "preview_url" : "https://p.scdn.co/mp3-preview/a2bc3c3e9591916dd22e0bc669647e643c4594e0?cid=774b29d4f13844c495f206cafdad9c86",
      "track_number" : 14,
      "type" : "track",
      "uri" : "spotify:track:2DaagVL4ge1orisVfBY61o"
    }, {
      "album" : {
        "album_type" : "single",
        "artists" : [ {
          "external_urls" : {
            "spotify" : "https://open.spotify.com/artist/1ORYkhkN6flHlDSkWVsk4d"
          },
          "href" : "https://api.spotify.com/v1/artists/1ORYkhkN6flHlDSkWVsk4d",
          "id" : "1ORYkhkN6flHlDSkWVsk4d",
          "name" : "LIFE Worship",
          "type" : "artist",
          "uri" : "spotify:artist:1ORYkhkN6flHlDSkWVsk4d"
        } ],
        "external_urls" : {
          "spotify" : "https://open.spotify.com/album/5kvikK4wFk2Wb8lTZz6d6n"
        },
        "href" : "https://api.spotify.com/v1/albums/5kvikK4wFk2Wb8lTZz6d6n",
        "id" : "5kvikK4wFk2Wb8lTZz6d6n",
        "images" : [ {
          "height" : 640,
          "url" : "https://i.scdn.co/image/ab67616d0000b273bdcad0fcbe05e84f0fc52aea",
          "width" : 640
        }, {
          "height" : 300,
          "url" : "https://i.scdn.co/image/ab67616d00001e02bdcad0fcbe05e84f0fc52aea",
          "width" : 300
        }, {
          "height" : 64,
          "url" : "https://i.scdn.co/image/ab67616d00004851bdcad0fcbe05e84f0fc52aea",
          "width" : 64
        } ],
        "name" : "Spirit of the Living God (Let It Fall) [Single Version] [Live]",
        "release_date" : "2018-11-09",
        "release_date_precision" : "day",
        "total_tracks" : 1,
        "type" : "album",
        "uri" : "spotify:album:5kvikK4wFk2Wb8lTZz6d6n"
      },
      "artists" : [ {
        "external_urls" : {
          "spotify" : "https://open.spotify.com/artist/1ORYkhkN6flHlDSkWVsk4d"
        },
        "href" : "https://api.spotify.com/v1/artists/1ORYkhkN6flHlDSkWVsk4d",
        "id" : "1ORYkhkN6flHlDSkWVsk4d",
        "name" : "LIFE Worship",
        "type" : "artist",
        "uri" : "spotify:artist:1ORYkhkN6flHlDSkWVsk4d"
      } ],
      "disc_number" : 1,
      "duration_ms" : 361749,
      "explicit" : false,
      "external_ids" : {
        "isrc" : "US25L1800550"
      },
      "external_urls" : {
        "spotify" : "https://open.spotify.com/track/4o7el5GpUD7HksPdTjXy2E"
      },
      "href" : "https://api.spotify.com/v1/tracks/4o7el5GpUD7HksPdTjXy2E",
      "id" : "4o7el5GpUD7HksPdTjXy2E",
      "is_local" : false,
      "is_playable" : true,
      "name" : "Spirit of the Living God (Let It Fall) [Single Version] - Live",
      "popularity" : 18,
      "preview_url" : "https://p.scdn.co/mp3-preview/129d0b3c5d61b0c11a154ea59a99f6e7712928c3?cid=774b29d4f13844c495f206cafdad9c86",
      "track_number" : 1,
      "type" : "track",
      "uri" : "spotify:track:4o7el5GpUD7HksPdTjXy2E"
    }, {
      "album" : {
        "album_type" : "album",
        "artists" : [ {
          "external_urls" : {
            "spotify" : "https://open.spotify.com/artist/3i0j8jwJKHchZU40nbd2Xt"
          },
          "href" : "https://api.spotify.com/v1/artists/3i0j8jwJKHchZU40nbd2Xt",
          "id" : "3i0j8jwJKHchZU40nbd2Xt",
          "name" : "Worship Central",
          "type" : "artist",
          "uri" : "spotify:artist:3i0j8jwJKHchZU40nbd2Xt"
        } ],
        "external_urls" : {
          "spotify" : "https://open.spotify.com/album/3JLygXIt02tZJD3IZKXdrC"
        },
        "href" : "https://api.spotify.com/v1/albums/3JLygXIt02tZJD3IZKXdrC",
        "id" : "3JLygXIt02tZJD3IZKXdrC",
        "images" : [ {
          "height" : 640,
          "url" : "https://i.scdn.co/image/ab67616d0000b273a40d676d02dde536543cff50",
          "width" : 640
        }, {
          "height" : 300,
          "url" : "https://i.scdn.co/image/ab67616d00001e02a40d676d02dde536543cff50",
          "width" : 300
        }, {
          "height" : 64,
          "url" : "https://i.scdn.co/image/ab67616d00004851a40d676d02dde536543cff50",
          "width" : 64
        } ],
        "name" : "Spirit Break Out",
        "release_date" : "2011-09-11",
        "release_date_precision" : "day",
        "total_tracks" : 14,
        "type" : "album",
        "uri" : "spotify:album:3JLygXIt02tZJD3IZKXdrC"
      },
      "artists" : [ {
        "external_urls" : {
          "spotify" : "https://open.spotify.com/artist/3i0j8jwJKHchZU40nbd2Xt"
        },
        "href" : "https://api.spotify.com/v1/artists/3i0j8jwJKHchZU40nbd2Xt",
        "id" : "3i0j8jwJKHchZU40nbd2Xt",
        "name" : "Worship Central",
        "type" : "artist",
        "uri" : "spotify:artist:3i0j8jwJKHchZU40nbd2Xt"
      }, {
        "external_urls" : {
          "spotify" : "https://open.spotify.com/artist/3z1cp4jtdPSklLE90162gh"
        },
        "href" : "https://api.spotify.com/v1/artists/3z1cp4jtdPSklLE90162gh",
        "id" : "3z1cp4jtdPSklLE90162gh",
        "name" : "Tim Hughes",
        "type" : "artist",
        "uri" : "spotify:artist:3z1cp4jtdPSklLE90162gh"
      } ],
      "disc_number" : 1,
      "duration_ms" : 126573,
      "explicit" : false,
      "external_ids" : {
        "isrc" : "GBBTM1123301"
      },
      "external_urls" : {
        "spotify" : "https://open.spotify.com/track/6HYXo6kiYt4g4t4r87FK2D"
      },
      "href" : "https://api.spotify.com/v1/tracks/6HYXo6kiYt4g4t4r87FK2D",
      "id" : "6HYXo6kiYt4g4t4r87FK2D",
      "is_local" : false,
      "is_playable" : true,
      "name" : "Spirit of the Living God - Live",
      "popularity" : 18,
      "preview_url" : "https://p.scdn.co/mp3-preview/bba53e492164ddcd81acac031d8c52c0b9566f34?cid=774b29d4f13844c495f206cafdad9c86",
      "track_number" : 1,
      "type" : "track",
      "uri" : "spotify:track:6HYXo6kiYt4g4t4r87FK2D"
    }, {
      "album" : {
        "album_type" : "album",
        "artists" : [ {
          "external_urls" : {
            "spotify" : "https://open.spotify.com/artist/5C8kymLzxGEAPJ3aNdFciB"
          },
          "href" : "https://api.spotify.com/v1/artists/5C8kymLzxGEAPJ3aNdFciB",
          "id" : "5C8kymLzxGEAPJ3aNdFciB",
          "name" : "The Martins",
          "type" : "artist",
          "uri" : "spotify:artist:5C8kymLzxGEAPJ3aNdFciB"
        } ],
        "external_urls" : {
          "spotify" : "https://open.spotify.com/album/3nes84Xy1z3GOmPcCRVXB1"
        },
        "href" : "https://api.spotify.com/v1/albums/3nes84Xy1z3GOmPcCRVXB1",
        "id" : "3nes84Xy1z3GOmPcCRVXB1",
        "images" : [ {
          "height" : 640,
          "url" : "https://i.scdn.co/image/ab67616d0000b2733d22a0d99cda359a37911056",
          "width" : 640
        }, {
          "height" : 300,
          "url" : "https://i.scdn.co/image/ab67616d00001e023d22a0d99cda359a37911056",
          "width" : 300
        }, {
          "height" : 64,
          "url" : "https://i.scdn.co/image/ab67616d000048513d22a0d99cda359a37911056",
          "width" : 64
        } ],
        "name" : "A Cappella",
        "release_date" : "2014-01-01",
        "release_date_precision" : "day",
        "total_tracks" : 10,
        "type" : "album",
        "uri" : "spotify:album:3nes84Xy1z3GOmPcCRVXB1"
      },
      "artists" : [ {
        "external_urls" : {
          "spotify" : "https://open.spotify.com/artist/5C8kymLzxGEAPJ3aNdFciB"
        },
        "href" : "https://api.spotify.com/v1/artists/5C8kymLzxGEAPJ3aNdFciB",
        "id" : "5C8kymLzxGEAPJ3aNdFciB",
        "name" : "The Martins",
        "type" : "artist",
        "uri" : "spotify:artist:5C8kymLzxGEAPJ3aNdFciB"
      } ],
      "disc_number" : 1,
      "duration_ms" : 139226,
      "explicit" : false,
      "external_ids" : {
        "isrc" : "QMABW1400007"
      },
      "external_urls" : {
        "spotify" : "https://open.spotify.com/track/2CKuXVftZK7fRpUsrFvY91"
      },
      "href" : "https://api.spotify.com/v1/tracks/2CKuXVftZK7fRpUsrFvY91",
      "id" : "2CKuXVftZK7fRpUsrFvY91",
      "is_local" : false,
      "is_playable" : true,
      "name" : "Come, Thou Fount Of Every Blessing / Fill My Cup, Lord / Spirit Of The Living God - Medley",
      "popularity" : 17,
      "preview_url" : null,
      "track_number" : 7,
      "type" : "track",
      "uri" : "spotify:track:2CKuXVftZK7fRpUsrFvY91"
    }, {
      "album" : {
        "album_type" : "single",
        "artists" : [ {
          "external_urls" : {
            "spotify" : "https://open.spotify.com/artist/6mJ8JkJ8EkI1Ts3NGB0avE"
          },
          "href" : "https://api.spotify.com/v1/artists/6mJ8JkJ8EkI1Ts3NGB0avE",
          "id" : "6mJ8JkJ8EkI1Ts3NGB0avE",
          "name" : "Sam Suri",
          "type" : "artist",
          "uri" : "spotify:artist:6mJ8JkJ8EkI1Ts3NGB0avE"
        } ],
        "external_urls" : {
          "spotify" : "https://open.spotify.com/album/7FNU5HN0sCZcPKZPrch5PG"
        },
        "href" : "https://api.spotify.com/v1/albums/7FNU5HN0sCZcPKZPrch5PG",
        "id" : "7FNU5HN0sCZcPKZPrch5PG",
        "images" : [ {
          "height" : 640,
          "url" : "https://i.scdn.co/image/ab67616d0000b273bbd4e40c0e1dfd4d5a920e13",
          "width" : 640
        }, {
          "height" : 300,
          "url" : "https://i.scdn.co/image/ab67616d00001e02bbd4e40c0e1dfd4d5a920e13",
          "width" : 300
        }, {
          "height" : 64,
          "url" : "https://i.scdn.co/image/ab67616d00004851bbd4e40c0e1dfd4d5a920e13",
          "width" : 64
        } ],
        "name" : "Spirit of the Living God",
        "release_date" : "2020-05-25",
        "release_date_precision" : "day",
        "total_tracks" : 1,
        "type" : "album",
        "uri" : "spotify:album:7FNU5HN0sCZcPKZPrch5PG"
      },
      "artists" : [ {
        "external_urls" : {
          "spotify" : "https://open.spotify.com/artist/6mJ8JkJ8EkI1Ts3NGB0avE"
        },
        "href" : "https://api.spotify.com/v1/artists/6mJ8JkJ8EkI1Ts3NGB0avE",
        "id" : "6mJ8JkJ8EkI1Ts3NGB0avE",
        "name" : "Sam Suri",
        "type" : "artist",
        "uri" : "spotify:artist:6mJ8JkJ8EkI1Ts3NGB0avE"
      } ],
      "disc_number" : 1,
      "duration_ms" : 87600,
      "explicit" : false,
      "external_ids" : {
        "isrc" : "SEYOK2025868"
      },
      "external_urls" : {
        "spotify" : "https://open.spotify.com/track/7mTpuZb24GuiKLVrXVLozN"
      },
      "href" : "https://api.spotify.com/v1/tracks/7mTpuZb24GuiKLVrXVLozN",
      "id" : "7mTpuZb24GuiKLVrXVLozN",
      "is_local" : false,
      "is_playable" : true,
      "name" : "Spirit of the Living God",
      "popularity" : 0,
      "preview_url" : "https://p.scdn.co/mp3-preview/dab922b3b3566c28b7e7338498e48501966753cf?cid=774b29d4f13844c495f206cafdad9c86",
      "track_number" : 1,
      "type" : "track",
      "uri" : "spotify:track:7mTpuZb24GuiKLVrXVLozN"
    } ],
    "limit" : 10,
    "next" : "https://api.spotify.com/v1/search?query=Spirit+of+the+Living+God&type=track&market=US&offset=15&limit=10",
    "offset" : 5,
    "previous" : "https://api.spotify.com/v1/search?query=Spirit+of+the+Living+God&type=track&market=US&offset=0&limit=10",
    "total" : 399
  }
}