{
  "tracks" : {
    "href" : "https://api.spotify.com/v1/search?query=Tell+Out%2C+my+Soul&type=track&market=US&offset=5&limit=10",
    "items" : [ {
      "album" : {
        "album_type" : "single",
        "artists" : [ {
          "external_urls" : {
            "spotify" : "https://open.spotify.com/artist/3kJWwaSVs6IKAtBxYupIhx"
          },
          "href" : "https://api.spotify.com/v1/artists/3kJWwaSVs6IKAtBxYupIhx",
          "id" : "3kJWwaSVs6IKAtBxYupIhx",
          "name" : "Guido Spannocchi",
          "type" : "artist",
          "uri" : "spotify:artist:3kJWwaSVs6IKAtBxYupIhx"
        } ],
        "external_urls" : {
          "spotify" : "https://open.spotify.com/album/5KKXl9r3owK34V5i4nRMMD"
        },
        "href" : "https://api.spotify.com/v1/albums/5KKXl9r3owK34V5i4nRMMD",
        "id" : "5KKXl9r3owK34V5i4nRMMD",
        "images" : [ {
          "height" : 640,
          "url" : "https://i.scdn.co/image/ab67616d0000b2735c458de7b1c285809eb27cb8",
          "width" : 640
        }, {
          "height" : 300,
          "url" : "https://i.scdn.co/image/ab67616d00001e025c458de7b1c285809eb27cb8",
          "width" : 300
        }, {
          "height" : 64,
          "url" : "https://i.scdn.co/image/ab67616d000048515c458de7b1c285809eb27cb8",
          "width" : 64
        } ],
        "name" : "Tell out My Soul (feat. Rupert Cox & Kristian Craig Robinson)",
        "release_date" : "2019-11-06",
        "release_date_precision" : "day",
        "total_tracks" : 1,
        "type" : "album",
        "uri" : "spotify:album:5KKXl9r3owK34V5i4nRMMD"
      },
      "artists" : [ {
        "external_urls" : {
          "spotify" : "https://open.spotify.com/artist/3kJWwaSVs6IKAtBxYupIhx"
        },
        "href" : "https://api.spotify.com/v1/artists/3kJWwaSVs6IKAtBxYupIhx",
        "id" : "3kJWwaSVs6IKAtBxYupIhx",
        "name" : "Guido Spannocchi",
        "type" : "artist",
        "uri" : "spotify:artist:3kJWwaSVs6IKAtBxYupIhx"
      }, {
        "external_urls" : {
          "spotify" : "https://open.spotify.com/artist/2qHjIjpmK7uoJTgzQnA4ZN"
        },
        "href" : "https://api.spotify.com/v1/artists/2qHjIjpmK7uoJTgzQnA4ZN",
        "id" : "2qHjIjpmK7uoJTgzQnA4ZN",
        "name" : "Rupert Cox",
        "type" : "artist",
        "uri" : "spotify:artist:2qHjIjpmK7uoJTgzQnA4ZN"
      }, {
        "external_urls" : {
          "spotify" : "https://open.spotify.com/artist/2DCuiZK2sMOWPpbhLLroDD"
        },
        "href" : "https://api.spotify.com/v1/artists/2DCuiZK2sMOWPpbhLLroDD",
        "id" : "2DCuiZK2sMOWPpbhLLroDD",
        "name" : "Kristian Craig Robinson",
        "type" : "artist",
        "uri" : "spotify:artist:2DCuiZK2sMOWPpbhLLroDD"
      } ],
      "disc_number" : 1,
      "duration_ms" : 124200,
      "explicit" : false,
      "external_ids" : {
        "isrc" : "UKKAR1900017"
      },
      "external_urls" : {
        "spotify" : "https://open.spotify.com/track/2o0XQ8CEjWXr7BVEuE7tv2"
      },
      "href" : "https://api.spotify.com/v1/tracks/2o0XQ8CEjWXr7BVEuE7tv2",
      "id" : "2o0XQ8CEjWXr7BVEuE7tv2",
      "is_local" : false,
      "is_playable" : true,
      "name" : "Tell out My Soul",
      "popularity" : 0,
      "preview_url" : "https://p.scdn.co/mp3-preview/e42de153489a2b874e647e2cb128fb3bc9ae6873?cid=774b29d4f13844c495f206cafdad9c86",
      "track_number" : 1,
      "type" : "track",
      "uri" : "spotify:track:2o0XQ8CEjWXr7BVEuE7tv2"
    }, {
      "album" : {
        "album_type" : "compilation",
        "artists" : [ {
          "external_urls" : {
            "spotify" : "https://open.spotify.com/artist/0LyfQWJT6nXafLPZqxe9Of"
          },
          "href" : "https://api.spotify.com/v1/artists/0LyfQWJT6nXafLPZqxe9Of",
          "id" : "0LyfQWJT6nXafLPZqxe9Of",
          "name" : "Various Artists",
          "type" : "artist",
          "uri" : "spotify:artist:0LyfQWJT6nXafLPZqxe9Of"
        } ],
        "external_urls" : {
          "spotify" : "https://open.spotify.com/album/3qmBWofN3XUTfzCVDy2Zn1"
        },
        "href" : "https://api.spotify.com/v1/albums/3qmBWofN3XUTfzCVDy2Zn1",
        "id" : "3qmBWofN3XUTfzCVDy2Zn1",
        "images" : [ {
          "height" : 640,
          "url" : "https://i.scdn.co/image/ab67616d0000b273f1c8e66eece83a10e8286d07",
          "width" : 640
        }, {
          "height" : 300,
          "url" : "https://i.scdn.co/image/ab67616d00001e02f1c8e66eece83a10e8286d07",
          "width" : 300
        }, {
          "height" : 64,
          "url" : "https://i.scdn.co/image/ab67616d00004851f1c8e66eece83a10e8286d07",
          "width" : 64
        } ],
        "name" : "Hymn Makers Gold",
        "release_date" : "2019-02-22",
        "release_date_precision" : "day",
        "total_tracks" : 50,
        "type" : "album",
        "uri" : "spotify:album:3qmBWofN3XUTfzCVDy2Zn1"
      },
      "artists" : [ {
        "external_urls" : {
          "spotify" : "https://open.spotify.com/artist/7rluHfxLiKAkAoMkuE1F8U"
        },
        "href" : "https://api.spotify.com/v1/artists/7rluHfxLiKAkAoMkuE1F8U",
        "id" : "7rluHfxLiKAkAoMkuE1F8U",
        "name" : "St. Michael's Singers",
        "type" : "artist",
        "uri" : "spotify:artist:7rluHfxLiKAkAoMkuE1F8U"
      } ],
      "disc_number" : 1,
      "duration_ms" : 164956,
      "explicit" : false,
      "external_ids" : {
        "isrc" : "GBBTM9693602"
      },
      "external_urls" : {
        "spotify" : "https://open.spotify.com/track/4p7IWFoLBgQZs5gmFlxP5T"
      },
      "href" : "https://api.spotify.com/v1/tracks/4p7IWFoLBgQZs5gmFlxP5T",
      "id" : "4p7IWFoLBgQZs5gmFlxP5T",
      "is_local" : false,
      "is_playable" : true,
      "name" : "Tell Out, My Soul",
      "popularity" : 3,
      "preview_url" : "https://p.scdn.co/mp3-preview/e870791913e8400df0b592aa3b54396bdbc04c38?cid=774b29d4f13844c495f206cafdad9c86",
      "track_number" : 13,
      "type" : "track",
      "uri" : "spotify:track:4p7IWFoLBgQZs5gmFlxP5T"
    }, {
      "album" : {
        "album_type" : "album",
        "artists" : [ {
          "external_urls" : {
            "spotify" : "https://open.spotify.com/artist/2qmBiPKXfhB1NcLWYTt0Tk"
          },
          "href" : "https://api.spotify.com/v1/artists/2qmBiPKXfhB1NcLWYTt0Tk",
          "id" : "2qmBiPKXfhB1NcLWYTt0Tk",
          "name" : "Chr. Gem. koor 'DEO CANTEMUS' Rotterdam",
          "type" : "artist",
          "uri" : "spotify:artist:2qmBiPKXfhB1NcLWYTt0Tk"
        } ],
        "external_urls" : {
          "spotify" : "https://open.spotify.com/album/2Lq6rSPZ8oKqQVn5uFa5LR"
        },
        "href" : "https://api.spotify.com/v1/albums/2Lq6rSPZ8oKqQVn5uFa5LR",
        "id" : "2Lq6rSPZ8oKqQVn5uFa5LR",
        "images" : [ {
          "height" : 640,
          "url" : "https://i.scdn.co/image/ab67616d0000b273671c0b80684d973e29f83a69",
          "width" : 640
        }, {
          "height" : 300,
          "url" : "https://i.scdn.co/image/ab67616d00001e02671c0b80684d973e29f83a69",
          "width" : 300
        }, {
          "height" : 64,
          "url" : "https://i.scdn.co/image/ab67616d00004851671c0b80684d973e29f83a69",
          "width" : 64
        } ],
        "name" : "Vertrouw op de Heer",
        "release_date" : "2017-12-12",
        "release_date_precision" : "day",
        "total_tracks" : 19,
        "type" : "album",
        "uri" : "spotify:album:2Lq6rSPZ8oKqQVn5uFa5LR"
      },
      "artists" : [ {
        "external_urls" : {
          "spotify" : "https://open.spotify.com/artist/2qmBiPKXfhB1NcLWYTt0Tk"
        },
        "href" : "https://api.spotify.com/v1/artists/2qmBiPKXfhB1NcLWYTt0Tk",
        "id" : "2qmBiPKXfhB1NcLWYTt0Tk",
        "name" : "Chr. Gem. koor 'DEO CANTEMUS' Rotterdam",
        "type" : "artist",
        "uri" : "spotify:artist:2qmBiPKXfhB1NcLWYTt0Tk"
      } ],
      "disc_number" : 1,
      "duration_ms" : 185946,
      "explicit" : false,
      "external_ids" : {
        "isrc" : "NL-W2R-17-21753"
      },
      "external_urls" : {
        "spotify" : "https://open.spotify.com/track/5OBqyGO0sAyeZTXPskBXXC"
      },
      "href" : "https://api.spotify.com/v1/tracks/5OBqyGO0sAyeZTXPskBXXC",
      "id" : "5OBqyGO0sAyeZTXPskBXXC",
      "is_local" : false,
      "is_playable" : true,
      "name" : "Tell out, my soul",
      "popularity" : 0,
      "preview_url" : "https://p.scdn.co/mp3-preview/3c80671c5bbeab049347ad2b223eb7363fb40c42?cid=774b29d4f13844c495f206cafdad9c86",
      "track_number" : 2,
      "type" : "track",
      "uri" : "spotify:track:5OBqyGO0sAyeZTXPskBXXC"
    }, {
      "album" : {
        "album_type" : "album",
        "artists" : [ {
          "external_urls" : {
            "spotify" : "https://open.spotify.com/artist/41hCpLaR1bEW5ETK3aPvDB"
          },
          "href" : "https://api.spotify.com/v1/artists/41hCpLaR1bEW5ETK3aPvDB",
          "id" : "41hCpLaR1bEW5ETK3aPvDB",
          "name" : "The Eden Symphony Orchestra",
          "type" : "artist",
          "uri" : "spotify:artist:41hCpLaR1bEW5ETK3aPvDB"
        } ],
        "external_urls" : {
          "spotify" : "https://open.spotify.com/album/3BedyyRKO18eOEYea05lBr"
        },
        "href" : "https://api.spotify.com/v1/albums/3BedyyRKO18eOEYea05lBr",
        "id" : "3BedyyRKO18eOEYea05lBr",
        "images" : [ {
          "height" : 640,
          "url" : "https://i.scdn.co/image/ab67616d0000b2730cd40526b534452e9fb73c07",
          "width" : 640
        }, {
          "height" : 300,
          "url" : "https://i.scdn.co/image/ab67616d00001e020cd40526b534452e9fb73c07",
          "width" : 300
        }, {
          "height" : 64,
          "url" : "https://i.scdn.co/image/ab67616d000048510cd40526b534452e9fb73c07",
          "width" : 64
        } ],
        "name" : "50 Golden Hymns Vol. 5 - The King of Love",
        "release_date" : "2006-01-01",
        "release_date_precision" : "day",
        "total_tracks" : 17,
        "type" : "album",
        "uri" : "spotify:album:3BedyyRKO18eOEYea05lBr"
      },
      "artists" : [ {
        "external_urls" : {
          "spotify" : "https://open.spotify.com/artist/1F5xBMQEhA0lF0FnHNOGhg"
        },
        "href" : "https://api.spotify.com/v1/artists/1F5xBMQEhA0lF0FnHNOGhg",
        "id" : "1F5xBMQEhA0lF0FnHNOGhg",
        "name" : "Richard Lacy / Sarah Lacy / Simeon Wood / Simon Bernard-Smith",
        "type" : "artist",
        "uri" : "spotify:artist:1F5xBMQEhA0lF0FnHNOGhg"
      }, {
        "external_urls" : {
          "spotify" : "https://open.spotify.com/artist/4Ow6FqkUmm4WjmVtHAs7T8"
        },
        "href" : "https://api.spotify.com/v1/artists/4Ow6FqkUmm4WjmVtHAs7T8",
        "id" : "4Ow6FqkUmm4WjmVtHAs7T8",
        "name" : "Graham Hepburn",
        "type" : "artist",
        "uri" : "spotify:artist:4Ow6FqkUmm4WjmVtHAs7T8"
      } ],
      "disc_number" : 1,
      "duration_ms" : 246586,
      "explicit" : false,
      "external_ids" : {
        "isrc" : "GBCEU0671402"
      },
      "external_urls" : {
        "spotify" : "https://open.spotify.com/track/7Cg1N6gvDGApWTHOGoXm5k"
      },
      "href" : "https://api.spotify.com/v1/tracks/7Cg1N6gvDGApWTHOGoXm5k",
      "id" : "7Cg1N6gvDGApWTHOGoXm5k",
      "is_local" : false,
      "is_playable" : true,
      "name" : "Tell Out My Soul",
      "popularity" : 0,
      "preview_url" : "https://p.scdn.co/mp3-preview/fb62c5b15dfd4e369ad1a93c0f211e84fd9d68af?cid=774b29d4f13844c495f206cafdad9c86",
      "track_number" : 2,
      "type" : "track",
      "uri" : "spotify:track:7Cg1N6gvDGApWTHOGoXm5k"
    }, {
      "album" : {
        "album_type" : "compilation",
        "artists" : [ {
          "external_urls" : {
            "spotify" : "https://open.spotify.com/artist/0LyfQWJT6nXafLPZqxe9Of"
          },
          "href" : "https://api.spotify.com/v1/artists/0LyfQWJT6nXafLPZqxe9Of",
          "id" : "0LyfQWJT6nXafLPZqxe9Of",
          "name" : "Various Artists",
          "type" : "artist",
          "uri" : "spotify:artist:0LyfQWJT6nXafLPZqxe9Of"
        } ],
        "external_urls" : {
          "spotify" : "https://open.spotify.com/album/0OUqnkUwoRMET1oTnGZH1B"
        },
        "href" : "https://api.spotify.com/v1/albums/0OUqnkUwoRMET1oTnGZH1B",
        "id" : "0OUqnkUwoRMET1oTnGZH1B",
        "images" : [ {
          "height" : 640,
          "url" : "https://i.scdn.co/image/ab67616d0000b273e4117e3f42f8d278b0a08337",
          "width" : 640
        }, {
          "height" : 300,
          "url" : "https://i.scdn.co/image/ab67616d00001e02e4117e3f42f8d278b0a08337",
          "width" : 300
        }, {
          "height" : 64,
          "url" : "https://i.scdn.co/image/ab67616d00004851e4117e3f42f8d278b0a08337",
          "width" : 64
        } ],
        "name" : "Mother's 50 Favourite Hymns",
        "release_date" : "2016-08-05",
        "release_date_precision" : "day",
        "total_tracks" : 50,
        "type" : "album",
        "uri" : "spotify:album:0OUqnkUwoRMET1oTnGZH1B"
      },
      "artists" : [ {
        "external_urls" : {
          "spotify" : "https://open.spotify.com/artist/6drrjikCDMULkalM5TVCY4"
        },
        "href" : "https://api.spotify.com/v1/artists/6drrjikCDMULkalM5TVCY4",
        "id" : "6drrjikCDMULkalM5TVCY4",
        "name" : "The London Fox Choir",
        "type" : "artist",
        "uri" : "spotify:artist:6drrjikCDMULkalM5TVCY4"
      } ],
      "disc_number" : 1,
      "duration_ms" : 152826,
      "explicit" : false,
      "external_ids" : {
        "isrc" : "GBCEU1678119"
      },
      "external_urls" : {
        "spotify" : "https://open.spotify.com/track/1032s3DSYwF7wfzIkcPkat"
      },
      "href" : "https://api.spotify.com/v1/tracks/1032s3DSYwF7wfzIkcPkat",
      "id" : "1032s3DSYwF7wfzIkcPkat",
      "is_local" : false,
      "is_playable" : true,
      "name" : "Tell Out, My Soul",
      "popularity" : 1,
      "preview_url" : "https://p.scdn.co/mp3-preview/d16f324c81e7f6b8df6d5fab1ae48198242b7453?cid=774b29d4f13844c495f206cafdad9c86",
      "track_number" : 19,
      "type" : "track",
      "uri" : "spotify:track:1032s3DSYwF7wfzIkcPkat"
    }, {
      "album" : {
        "album_type" : "compilation",
        "artists" : [ {
          "external_urls" : {
            "spotify" : "https://open.spotify.com/artist/0LyfQWJT6nXafLPZqxe9Of"
          },
          "href" : "https://api.spotify.com/v1/artists/0LyfQWJT6nXafLPZqxe9Of",
          "id" : "0LyfQWJT6nXafLPZqxe9Of",
          "name" : "Various Artists",
          "type" : "artist",
          "uri" : "spotify:artist:0LyfQWJT6nXafLPZqxe9Of"
        } ],
        "external_urls" : {
          "spotify" : "https://open.spotify.com/album/6wOCxfbHbLjT5cdhYWDxzf"
        },
        "href" : "https://api.spotify.com/v1/albums/6wOCxfbHbLjT5cdhYWDxzf",
        "id" : "6wOCxfbHbLjT5cdhYWDxzf",
        "images" : [ {
          "height" : 640,
          "url" : "https://i.scdn.co/image/ab67616d0000b273b9c2d2fecb6ef4839afd37cb",
          "width" : 640
        }, {
          "height" : 300,
          "url" : "https://i.scdn.co/image/ab67616d00001e02b9c2d2fecb6ef4839afd37cb",
          "width" : 300
        }, {
          "height" : 64,
          "url" : "https://i.scdn.co/image/ab67616d00004851b9c2d2fecb6ef4839afd37cb",
          "width" : 64
        } ],
        "name" : "The World's Favourite Hymns",
        "release_date" : "2017-03-24",
        "release_date_precision" : "day",
        "total_tracks" : 50,
        "type" : "album",
        "uri" : "spotify:album:6wOCxfbHbLjT5cdhYWDxzf"
      },
      "artists" : [ {
        "external_urls" : {
          "spotify" : "https://open.spotify.com/artist/7lgXSObHxeVdybqcUz2mhj"
        },
        "href" : "https://api.spotify.com/v1/artists/7lgXSObHxeVdybqcUz2mhj",
        "id" : "7lgXSObHxeVdybqcUz2mhj",
        "name" : "Brent Miller",
        "type" : "artist",
        "uri" : "spotify:artist:7lgXSObHxeVdybqcUz2mhj"
      } ],
      "disc_number" : 1,
      "duration_ms" : 164840,
      "explicit" : false,
      "external_ids" : {
        "isrc" : "GBBTM0995229"
      },
      "external_urls" : {
        "spotify" : "https://open.spotify.com/track/5hQRmFBg6cHTzAVlM4lVtF"
      },
      "href" : "https://api.spotify.com/v1/tracks/5hQRmFBg6cHTzAVlM4lVtF",
      "id" : "5hQRmFBg6cHTzAVlM4lVtF",
      "is_local" : false,
      "is_playable" : true,
      "name" : "Tell Out My Soul",
      "popularity" : 6,
      "preview_url" : "https://p.scdn.co/mp3-preview/57150910f10fe7057a1d5cdb1ec15c7cfe335d72?cid=774b29d4f13844c495f206cafdad9c86",
      "track_number" : 42,
      "type" : "track",
      "uri" : "spotify:track:5hQRmFBg6cHTzAVlM4lVtF"
    }, {
      "album" : {
        "album_type" : "album",
        "artists" : [ {
          "external_urls" : {
            "spotify" : "https://open.spotify.com/artist/2x0QHABqKaBBvAOzvoevXJ"
          },
          "href" : "https://api.spotify.com/v1/artists/2x0QHABqKaBBvAOzvoevXJ",
          "id" : "2x0QHABqKaBBvAOzvoevXJ",
          "name" : "The Scottish Festival Singers",
          "type" : "artist",
          "uri" : "spotify:artist:2x0QHABqKaBBvAOzvoevXJ"
        } ],
        "external_urls" : {
          "spotify" : "https://open.spotify.com/album/2Pq5Ns0DuxVNvAzneEhfRh"
        },
        "href" : "https://api.spotify.com/v1/albums/2Pq5Ns0DuxVNvAzneEhfRh",
        "id" : "2Pq5Ns0DuxVNvAzneEhfRh",
        "images" : [ {
          "height" : 640,
          "url" : "https://i.scdn.co/image/ab67616d0000b2736230c54e32591e8585f248fa",
          "width" : 640
        }, {
          "height" : 300,
          "url" : "https://i.scdn.co/image/ab67616d00001e026230c54e32591e8585f248fa",
          "width" : 300
        }, {
          "height" : 64,
          "url" : "https://i.scdn.co/image/ab67616d000048516230c54e32591e8585f248fa",
          "width" : 64
        } ],
        "name" : "Timeless Hymns, Vol. 2: Rock of Ages",
        "release_date" : "2014-06-17",
        "release_date_precision" : "day",
        "total_tracks" : 15,
        "type" : "album",
        "uri" : "spotify:album:2Pq5Ns0DuxVNvAzneEhfRh"
      },
      "artists" : [ {
        "external_urls" : {
          "spotify" : "https://open.spotify.com/artist/2x0QHABqKaBBvAOzvoevXJ"
        },
        "href" : "https://api.spotify.com/v1/artists/2x0QHABqKaBBvAOzvoevXJ",
        "id" : "2x0QHABqKaBBvAOzvoevXJ",
        "name" : "The Scottish Festival Singers",
        "type" : "artist",
        "uri" : "spotify:artist:2x0QHABqKaBBvAOzvoevXJ"
      } ],
      "disc_number" : 1,
      "duration_ms" : 152573,
      "explicit" : false,
      "external_ids" : {
        "isrc" : "USACX1400540"
      },
      "external_urls" : {
        "spotify" : "https://open.spotify.com/track/7eiSESTHuCAIvdSLZ3PCyc"
      },
      "href" : "https://api.spotify.com/v1/tracks/7eiSESTHuCAIvdSLZ3PCyc",
      "id" : "7eiSESTHuCAIvdSLZ3PCyc",
      "is_local" : false,
      "is_playable" : true,
      "name" : "Tell Out My Soul",
      "popularity" : 2,
      "preview_url" : "https://p.scdn.co/mp3-preview/9365041468c5753f95f8355087c7072dacbdc743?cid=774b29d4f13844c495f206cafdad9c86",
      "track_number" : 2,
      "type" : "track",
      "uri" : "spotify:track:7eiSESTHuCAIvdSLZ3PCyc"
    }, {
      "album" : {
        "album_type" : "album",
        "artists" : [ {
          "external_urls" : {
            "spotify" : "https://open.spotify.com/artist/3kJWwaSVs6IKAtBxYupIhx"
          },
          "href" : "https://api.spotify.com/v1/artists/3kJWwaSVs6IKAtBxYupIhx",
          "id" : "3kJWwaSVs6IKAtBxYupIhx",
          "name" : "Guido Spannocchi",
          "type" : "artist",
          "uri" : "spotify:artist:3kJWwaSVs6IKAtBxYupIhx"
        } ],
        "external_urls" : {
          "spotify" : "https://open.spotify.com/album/4hd4kNvTfsZpXcfSCTcqId"
        },
        "href" : "https://api.spotify.com/v1/albums/4hd4kNvTfsZpXcfSCTcqId",
        "id" : "4hd4kNvTfsZpXcfSCTcqId",
        "images" : [ {
          "height" : 640,
          "url" : "https://i.scdn.co/image/ab67616d0000b27317122802925510d2576f7f32",
          "width" : 640
        }, {
          "height" : 300,
          "url" : "https://i.scdn.co/image/ab67616d00001e0217122802925510d2576f7f32",
          "width" : 300
        }, {
          "height" : 64,
          "url" : "https://i.scdn.co/image/ab67616d0000485117122802925510d2576f7f32",
          "width" : 64
        } ],
        "name" : "Elevated Music (feat. Rupert Cox & Capitol K)",
        "release_date" : "2019-11-15",
        "release_date_precision" : "day",
        "total_tracks" : 7,
        "type" : "album",
        "uri" : "spotify:album:4hd4kNvTfsZpXcfSCTcqId"
      },
      "artists" : [ {
        "external_urls" : {
          "spotify" : "https://open.spotify.com/artist/3kJWwaSVs6IKAtBxYupIhx"
        },
        "href" : "https://api.spotify.com/v1/artists/3kJWwaSVs6IKAtBxYupIhx",
        "id" : "3kJWwaSVs6IKAtBxYupIhx",
        "name" : "Guido Spannocchi",
        "type" : "artist",
        "uri" : "spotify:artist:3kJWwaSVs6IKAtBxYupIhx"
      }, {
        "external_urls" : {
          "spotify" : "https://open.spotify.com/artist/2qHjIjpmK7uoJTgzQnA4ZN"
        },
        "href" : "https://api.spotify.com/v1/artists/2qHjIjpmK7uoJTgzQnA4ZN",
        "id" : "2qHjIjpmK7uoJTgzQnA4ZN",
        "name" : "Rupert Cox",
        "type" : "artist",
        "uri" : "spotify:artist:2qHjIjpmK7uoJTgzQnA4ZN"
      }, {
        "external_urls" : {
          "spotify" : "https://open.spotify.com/artist/2Nrvi6wKKZ0iAaxaBPDBzj"
        },
        "href" : "https://api.spotify.com/v1/artists/2Nrvi6wKKZ0iAaxaBPDBzj",
        "id" : "2Nrvi6wKKZ0iAaxaBPDBzj",
        "name" : "Capitol K",
        "type" : "artist",
        "uri" : "spotify:artist:2Nrvi6wKKZ0iAaxaBPDBzj"
      } ],
      "disc_number" : 1,
      "duration_ms" : 124200,
      "explicit" : false,
      "external_ids" : {
        "isrc" : "UKKAR1900017"
      },
      "external_urls" : {
        "spotify" : "https://open.spotify.com/track/1GSPHa8N9XCeMSddJi1Pnt"
      },
      "href" : "https://api.spotify.com/v1/tracks/1GSPHa8N9XCeMSddJi1Pnt",
      "id" : "1GSPHa8N9XCeMSddJi1Pnt",
      "is_local" : false,
      "is_playable" : true,
      "name" : "Tell out My Soul",
      "popularity" : 0,
      "preview_url" : "https://p.scdn.co/mp3-preview/e42de153489a2b874e647e2cb128fb3bc9ae6873?cid=774b29d4f13844c495f206cafdad9c86",
      "track_number" : 1,
      "type" : "track",
      "uri" : "spotify:track:1GSPHa8N9XCeMSddJi1Pnt"
    }, {
      "album" : {
        "album_type" : "album",
        "artists" : [ {
          "external_urls" : {
            "spotify" : "https://open.spotify.com/artist/1ecttRiEo5Hw4rVBN2zzj0"
          },
          "href" : "https://api.spotify.com/v1/artists/1ecttRiEo5Hw4rVBN2zzj0",
          "id" : "1ecttRiEo5Hw4rVBN2zzj0",
          "name" : "Heather Houghton",
          "type" : "artist",
          "uri" : "spotify:artist:1ecttRiEo5Hw4rVBN2zzj0"
        } ],
        "external_urls" : {
          "spotify" : "https://open.spotify.com/album/2sWBlm2jwU8ZlR8Aj4vQgv"
        },
        "href" : "https://api.spotify.com/v1/albums/2sWBlm2jwU8ZlR8Aj4vQgv",
        "id" : "2sWBlm2jwU8ZlR8Aj4vQgv",
        "images" : [ {
          "height" : 640,
          "url" : "https://i.scdn.co/image/ab67616d0000b273aec1c18cbefa5eba148135c3",
          "width" : 640
        }, {
          "height" : 300,
          "url" : "https://i.scdn.co/image/ab67616d00001e02aec1c18cbefa5eba148135c3",
          "width" : 300
        }, {
          "height" : 64,
          "url" : "https://i.scdn.co/image/ab67616d00004851aec1c18cbefa5eba148135c3",
          "width" : 64
        } ],
        "name" : "The Riches of God's Grace",
        "release_date" : "2015-11-20",
        "release_date_precision" : "day",
        "total_tracks" : 16,
        "type" : "album",
        "uri" : "spotify:album:2sWBlm2jwU8ZlR8Aj4vQgv"
      },
      "artists" : [ {
        "external_urls" : {
          "spotify" : "https://open.spotify.com/artist/1ecttRiEo5Hw4rVBN2zzj0"
        },
        "href" : "https://api.spotify.com/v1/artists/1ecttRiEo5Hw4rVBN2zzj0",
        "id" : "1ecttRiEo5Hw4rVBN2zzj0",
        "name" : "Heather Houghton",
        "type" : "artist",
        "uri" : "spotify:artist:1ecttRiEo5Hw4rVBN2zzj0"
      } ],
      "disc_number" : 1,
      "duration_ms" : 152712,
      "explicit" : false,
      "external_ids" : {
        "isrc" : "ushm81557892"
      },
      "external_urls" : {
        "spotify" : "https://open.spotify.com/track/3VKuh99pEZzkGAbwfjsrMC"
      },
      "href" : "https://api.spotify.com/v1/tracks/3VKuh99pEZzkGAbwfjsrMC",
      "id" : "3VKuh99pEZzkGAbwfjsrMC",
      "is_local" : false,
      "is_playable" : true,
      "name" : "Tell Out My Soul",
      "popularity" : 0,
      "preview_url" : "https://p.scdn.co/mp3-preview/354a72ec482d7c90e8778c85b08318350003163a?cid=774b29d4f13844c495f206cafdad9c86",
      "track_number" : 11,
      "type" : "track",
      "uri" : "spotify:track:3VKuh99pEZzkGAbwfjsrMC"
    }, {
      "album" : {
        "album_type" : "album",
        "artists" : [ {
          "external_urls" : {
            "spotify" : "https://open.spotify.com/artist/2weVMijpgZl81vyVXuNWJ4"
          },
          "href" : "https://api.spotify.com/v1/artists/2weVMijpgZl81vyVXuNWJ4",
          "id" : "2weVMijpgZl81vyVXuNWJ4",
          "name" : "The Arundel & Brighton Diocesan",
          "type" : "artist",
          "uri" : "spotify:artist:2weVMijpgZl81vyVXuNWJ4"
        }, {
          "external_urls" : {
            "spotify" : "https://open.spotify.com/artist/4GryfaSF6QnaKK90yTsHnx"
          },
          "href" : "https://api.spotify.com/v1/artists/4GryfaSF6QnaKK90yTsHnx",
          "id" : "4GryfaSF6QnaKK90yTsHnx",
          "name" : "Anne Ward",
          "type" : "artist",
          "uri" : "spotify:artist:4GryfaSF6QnaKK90yTsHnx"
        } ],
        "external_urls" : {
          "spotify" : "https://open.spotify.com/album/09nAmxCRuxB3mQ0U8b2hy6"
        },
        "href" : "https://api.spotify.com/v1/albums/09nAmxCRuxB3mQ0U8b2hy6",
        "id" : "09nAmxCRuxB3mQ0U8b2hy6",
        "images" : [ {
          "height" : 640,
          "url" : "https://i.scdn.co/image/ab67616d0000b2739f7d037961023f712a19083e",
          "width" : 640
        }, {
          "height" : 300,
          "url" : "https://i.scdn.co/image/ab67616d00001e029f7d037961023f712a19083e",
          "width" : 300
        }, {
          "height" : 64,
          "url" : "https://i.scdn.co/image/ab67616d000048519f7d037961023f712a19083e",
          "width" : 64
        } ],
        "name" : "O God I Seek You",
        "release_date" : "1992-12-01",
        "release_date_precision" : "day",
        "total_tracks" : 15,
        "type" : "album",
        "uri" : "spotify:album:09nAmxCRuxB3mQ0U8b2hy6"
      },
      "artists" : [ {
        "external_urls" : {
          "spotify" : "https://open.spotify.com/artist/4sT2XWfKeA4it4jEnLZdG7"
        },
        "href" : "https://api.spotify.com/v1/artists/4sT2XWfKeA4it4jEnLZdG7",
        "id" : "4sT2XWfKeA4it4jEnLZdG7",
        "name" : "Walter Greatorex",
        "type" : "artist",
        "uri" : "spotify:artist:4sT2XWfKeA4it4jEnLZdG7"
      }, {
        "external_urls" : {
          "spotify" : "https://open.spotify.com/artist/2weVMijpgZl81vyVXuNWJ4"
        },
        "href" : "https://api.spotify.com/v1/artists/2weVMijpgZl81vyVXuNWJ4",
        "id" : "2weVMijpgZl81vyVXuNWJ4",
        "name" : "The Arundel & Brighton Diocesan",
        "type" : "artist",
        "uri" : "spotify:artist:2weVMijpgZl81vyVXuNWJ4"
      }, {
        "external_urls" : {
          "spotify" : "https://open.spotify.com/artist/4GryfaSF6QnaKK90yTsHnx"
        },
        "href" : "https://api.spotify.com/v1/artists/4GryfaSF6QnaKK90yTsHnx",
        "id" : "4GryfaSF6QnaKK90yTsHnx",
        "name" : "Anne Ward",
        "type" : "artist",
        "uri" : "spotify:artist:4GryfaSF6QnaKK90yTsHnx"
      } ],
      "disc_number" : 1,
      "duration_ms" : 149733,
      "explicit" : false,
      "external_ids" : {
        "isrc" : "GBYCG9216014"
      },
      "external_urls" : {
        "spotify" : "https://open.spotify.com/track/3WwrjmxiE8N4pRvRoDjOqd"
      },
      "href" : "https://api.spotify.com/v1/tracks/3WwrjmxiE8N4pRvRoDjOqd",
      "id" : "3WwrjmxiE8N4pRvRoDjOqd",
      "is_local" : false,
      "is_playable" : true,
      "name" : "Tell Out, My Soul",
      "popularity" : 0,
      "preview_url" : "https://p.scdn.co/mp3-preview/4072e28814b9b205754d1b3be1072ec4b3d89fa9?cid=774b29d4f13844c495f206cafdad9c86",
      "track_number" : 14,
      "type" : "track",
      "uri" : "spotify:track:3WwrjmxiE8N4pRvRoDjOqd"
    } ],
    "limit" : 10,
    "next" : "https://api.spotify.com/v1/search?query=Tell+Out%2C+my+Soul&type=track&market=US&offset=15&limit=10",
    "offset" : 5,
    "previous" : "https://api.spotify.com/v1/search?query=Tell+Out%2C+my+Soul&type=track&market=US&offset=0&limit=10",
    "total" : 68
  }
}