{
  "tracks" : {
    "href" : "https://api.spotify.com/v1/search?query=Jesus%2C+Savior%2C+Pilot+Me&type=track&market=US&offset=5&limit=10",
    "items" : [ {
      "album" : {
        "album_type" : "album",
        "artists" : [ {
          "external_urls" : {
            "spotify" : "https://open.spotify.com/artist/0zMwOM0uJz6pc5hSp1tQw4"
          },
          "href" : "https://api.spotify.com/v1/artists/0zMwOM0uJz6pc5hSp1tQw4",
          "id" : "0zMwOM0uJz6pc5hSp1tQw4",
          "name" : "Daniel Glick",
          "type" : "artist",
          "uri" : "spotify:artist:0zMwOM0uJz6pc5hSp1tQw4"
        } ],
        "external_urls" : {
          "spotify" : "https://open.spotify.com/album/2od0j6OyCYMOXzIxBTEBrQ"
        },
        "href" : "https://api.spotify.com/v1/albums/2od0j6OyCYMOXzIxBTEBrQ",
        "id" : "2od0j6OyCYMOXzIxBTEBrQ",
        "images" : [ {
          "height" : 640,
          "url" : "https://i.scdn.co/image/ab67616d0000b273fb933c21c8067918100dd69d",
          "width" : 640
        }, {
          "height" : 300,
          "url" : "https://i.scdn.co/image/ab67616d00001e02fb933c21c8067918100dd69d",
          "width" : 300
        }, {
          "height" : 64,
          "url" : "https://i.scdn.co/image/ab67616d00004851fb933c21c8067918100dd69d",
          "width" : 64
        } ],
        "name" : "Lead Me Lord",
        "release_date" : "2013-02-01",
        "release_date_precision" : "day",
        "total_tracks" : 12,
        "type" : "album",
        "uri" : "spotify:album:2od0j6OyCYMOXzIxBTEBrQ"
      },
      "artists" : [ {
        "external_urls" : {
          "spotify" : "https://open.spotify.com/artist/0zMwOM0uJz6pc5hSp1tQw4"
        },
        "href" : "https://api.spotify.com/v1/artists/0zMwOM0uJz6pc5hSp1tQw4",
        "id" : "0zMwOM0uJz6pc5hSp1tQw4",
        "name" : "Daniel Glick",
        "type" : "artist",
        "uri" : "spotify:artist:0zMwOM0uJz6pc5hSp1tQw4"
      } ],
      "disc_number" : 1,
      "duration_ms" : 169373,
      "explicit" : false,
      "external_ids" : {
        "isrc" : "ushm21557744"
      },
      "external_urls" : {
        "spotify" : "https://open.spotify.com/track/1yUgBg5yj6bKdvhblUHQPj"
      },
      "href" : "https://api.spotify.com/v1/tracks/1yUgBg5yj6bKdvhblUHQPj",
      "id" : "1yUgBg5yj6bKdvhblUHQPj",
      "is_local" : false,
      "is_playable" : true,
      "name" : "Jesus Savior Pilot Me",
      "popularity" : 19,
      "preview_url" : "https://p.scdn.co/mp3-preview/659de572ed52d2b44cb0824bf6146422f309be06?cid=774b29d4f13844c495f206cafdad9c86",
      "track_number" : 2,
      "type" : "track",
      "uri" : "spotify:track:1yUgBg5yj6bKdvhblUHQPj"
    }, {
      "album" : {
        "album_type" : "single",
        "artists" : [ {
          "external_urls" : {
            "spotify" : "https://open.spotify.com/artist/5JiCHmso7KrIrNdhjRuElw"
          },
          "href" : "https://api.spotify.com/v1/artists/5JiCHmso7KrIrNdhjRuElw",
          "id" : "5JiCHmso7KrIrNdhjRuElw",
          "name" : "Pacific Gold",
          "type" : "artist",
          "uri" : "spotify:artist:5JiCHmso7KrIrNdhjRuElw"
        } ],
        "external_urls" : {
          "spotify" : "https://open.spotify.com/album/4ttwotgUnhqG0g2MuKtULv"
        },
        "href" : "https://api.spotify.com/v1/albums/4ttwotgUnhqG0g2MuKtULv",
        "id" : "4ttwotgUnhqG0g2MuKtULv",
        "images" : [ {
          "height" : 640,
          "url" : "https://i.scdn.co/image/ab67616d0000b273a283f6a762ecbf915b404c7f",
          "width" : 640
        }, {
          "height" : 300,
          "url" : "https://i.scdn.co/image/ab67616d00001e02a283f6a762ecbf915b404c7f",
          "width" : 300
        }, {
          "height" : 64,
          "url" : "https://i.scdn.co/image/ab67616d00004851a283f6a762ecbf915b404c7f",
          "width" : 64
        } ],
        "name" : "The River",
        "release_date" : "2012-07-22",
        "release_date_precision" : "day",
        "total_tracks" : 5,
        "type" : "album",
        "uri" : "spotify:album:4ttwotgUnhqG0g2MuKtULv"
      },
      "artists" : [ {
        "external_urls" : {
          "spotify" : "https://open.spotify.com/artist/5JiCHmso7KrIrNdhjRuElw"
        },
        "href" : "https://api.spotify.com/v1/artists/5JiCHmso7KrIrNdhjRuElw",
        "id" : "5JiCHmso7KrIrNdhjRuElw",
        "name" : "Pacific Gold",
        "type" : "artist",
        "uri" : "spotify:artist:5JiCHmso7KrIrNdhjRuElw"
      } ],
      "disc_number" : 1,
      "duration_ms" : 150746,
      "explicit" : false,
      "external_ids" : {
        "isrc" : "TCABR1360533"
      },
      "external_urls" : {
        "spotify" : "https://open.spotify.com/track/6f0nCk2fbg22BHEjPuTrXY"
      },
      "href" : "https://api.spotify.com/v1/tracks/6f0nCk2fbg22BHEjPuTrXY",
      "id" : "6f0nCk2fbg22BHEjPuTrXY",
      "is_local" : false,
      "is_playable" : true,
      "name" : "Jesus, Savior, Pilot Me",
      "popularity" : 12,
      "preview_url" : "https://p.scdn.co/mp3-preview/b844a0836f9aa988925c9a837debd8452ae8e3fd?cid=774b29d4f13844c495f206cafdad9c86",
      "track_number" : 4,
      "type" : "track",
      "uri" : "spotify:track:6f0nCk2fbg22BHEjPuTrXY"
    }, {
      "album" : {
        "album_type" : "album",
        "artists" : [ {
          "external_urls" : {
            "spotify" : "https://open.spotify.com/artist/5gWZC3kXTwxQGc9q3M16vK"
          },
          "href" : "https://api.spotify.com/v1/artists/5gWZC3kXTwxQGc9q3M16vK",
          "id" : "5gWZC3kXTwxQGc9q3M16vK",
          "name" : "LDS Piano",
          "type" : "artist",
          "uri" : "spotify:artist:5gWZC3kXTwxQGc9q3M16vK"
        } ],
        "external_urls" : {
          "spotify" : "https://open.spotify.com/album/3IEiUgxrCXPXPruEbeKkAG"
        },
        "href" : "https://api.spotify.com/v1/albums/3IEiUgxrCXPXPruEbeKkAG",
        "id" : "3IEiUgxrCXPXPruEbeKkAG",
        "images" : [ {
          "height" : 640,
          "url" : "https://i.scdn.co/image/ab67616d0000b273bfe181d9b3526f601d27d035",
          "width" : 640
        }, {
          "height" : 300,
          "url" : "https://i.scdn.co/image/ab67616d00001e02bfe181d9b3526f601d27d035",
          "width" : 300
        }, {
          "height" : 64,
          "url" : "https://i.scdn.co/image/ab67616d00004851bfe181d9b3526f601d27d035",
          "width" : 64
        } ],
        "name" : "The Mormon Hymnbook: Prayer & Supplication Hymns Volume 2",
        "release_date" : "2019-03-14",
        "release_date_precision" : "day",
        "total_tracks" : 16,
        "type" : "album",
        "uri" : "spotify:album:3IEiUgxrCXPXPruEbeKkAG"
      },
      "artists" : [ {
        "external_urls" : {
          "spotify" : "https://open.spotify.com/artist/5gWZC3kXTwxQGc9q3M16vK"
        },
        "href" : "https://api.spotify.com/v1/artists/5gWZC3kXTwxQGc9q3M16vK",
        "id" : "5gWZC3kXTwxQGc9q3M16vK",
        "name" : "LDS Piano",
        "type" : "artist",
        "uri" : "spotify:artist:5gWZC3kXTwxQGc9q3M16vK"
      } ],
      "disc_number" : 1,
      "duration_ms" : 107246,
      "explicit" : false,
      "external_ids" : {
        "isrc" : "GBSMU6194846"
      },
      "external_urls" : {
        "spotify" : "https://open.spotify.com/track/4j5TKOXJuWt9PuqGcnFkV6"
      },
      "href" : "https://api.spotify.com/v1/tracks/4j5TKOXJuWt9PuqGcnFkV6",
      "id" : "4j5TKOXJuWt9PuqGcnFkV6",
      "is_local" : false,
      "is_playable" : true,
      "name" : "Jesus Savior Pilot Me",
      "popularity" : 11,
      "preview_url" : "https://p.scdn.co/mp3-preview/1a1773ff6da42f7ae0c266a55b4755f8809e2c50?cid=774b29d4f13844c495f206cafdad9c86",
      "track_number" : 8,
      "type" : "track",
      "uri" : "spotify:track:4j5TKOXJuWt9PuqGcnFkV6"
    }, {
      "album" : {
        "album_type" : "album",
        "artists" : [ {
          "external_urls" : {
            "spotify" : "https://open.spotify.com/artist/2aGSu6dczjerFu3lfexW5e"
          },
          "href" : "https://api.spotify.com/v1/artists/2aGSu6dczjerFu3lfexW5e",
          "id" : "2aGSu6dczjerFu3lfexW5e",
          "name" : "Todd McCabe & April Moriarty",
          "type" : "artist",
          "uri" : "spotify:artist:2aGSu6dczjerFu3lfexW5e"
        } ],
        "external_urls" : {
          "spotify" : "https://open.spotify.com/album/7MUPAoYZ93s4nFfFH4kLm8"
        },
        "href" : "https://api.spotify.com/v1/albums/7MUPAoYZ93s4nFfFH4kLm8",
        "id" : "7MUPAoYZ93s4nFfFH4kLm8",
        "images" : [ {
          "height" : 640,
          "url" : "https://i.scdn.co/image/ab67616d0000b27317057e1ad2a8e2c57819a737",
          "width" : 640
        }, {
          "height" : 300,
          "url" : "https://i.scdn.co/image/ab67616d00001e0217057e1ad2a8e2c57819a737",
          "width" : 300
        }, {
          "height" : 64,
          "url" : "https://i.scdn.co/image/ab67616d0000485117057e1ad2a8e2c57819a737",
          "width" : 64
        } ],
        "name" : "My Redeemer Lives, Vol. 2: Galilee",
        "release_date" : "2004-08-01",
        "release_date_precision" : "day",
        "total_tracks" : 15,
        "type" : "album",
        "uri" : "spotify:album:7MUPAoYZ93s4nFfFH4kLm8"
      },
      "artists" : [ {
        "external_urls" : {
          "spotify" : "https://open.spotify.com/artist/2aGSu6dczjerFu3lfexW5e"
        },
        "href" : "https://api.spotify.com/v1/artists/2aGSu6dczjerFu3lfexW5e",
        "id" : "2aGSu6dczjerFu3lfexW5e",
        "name" : "Todd McCabe & April Moriarty",
        "type" : "artist",
        "uri" : "spotify:artist:2aGSu6dczjerFu3lfexW5e"
      } ],
      "disc_number" : 1,
      "duration_ms" : 218226,
      "explicit" : false,
      "external_ids" : {
        "isrc" : "usx9p1015613"
      },
      "external_urls" : {
        "spotify" : "https://open.spotify.com/track/15FBUxk88AbiD0ZcGmijQ9"
      },
      "href" : "https://api.spotify.com/v1/tracks/15FBUxk88AbiD0ZcGmijQ9",
      "id" : "15FBUxk88AbiD0ZcGmijQ9",
      "is_local" : false,
      "is_playable" : true,
      "name" : "Jesus, Savior, Pilot Me",
      "popularity" : 11,
      "preview_url" : "https://p.scdn.co/mp3-preview/9e5230c0b04367e195ccaa3da0e22802a59d7b1d?cid=774b29d4f13844c495f206cafdad9c86",
      "track_number" : 10,
      "type" : "track",
      "uri" : "spotify:track:15FBUxk88AbiD0ZcGmijQ9"
    }, {
      "album" : {
        "album_type" : "album",
        "artists" : [ {
          "external_urls" : {
            "spotify" : "https://open.spotify.com/artist/4Q9czIL4Cg4cjMdHiiQ7q6"
          },
          "href" : "https://api.spotify.com/v1/artists/4Q9czIL4Cg4cjMdHiiQ7q6",
          "id" : "4Q9czIL4Cg4cjMdHiiQ7q6",
          "name" : "Crist Family",
          "type" : "artist",
          "uri" : "spotify:artist:4Q9czIL4Cg4cjMdHiiQ7q6"
        } ],
        "external_urls" : {
          "spotify" : "https://open.spotify.com/album/2yyrrRIhR6YjgjsJBhovqA"
        },
        "href" : "https://api.spotify.com/v1/albums/2yyrrRIhR6YjgjsJBhovqA",
        "id" : "2yyrrRIhR6YjgjsJBhovqA",
        "images" : [ {
          "height" : 640,
          "url" : "https://i.scdn.co/image/ab67616d0000b2737acf219366bb7f5bf428a602",
          "width" : 640
        }, {
          "height" : 300,
          "url" : "https://i.scdn.co/image/ab67616d00001e027acf219366bb7f5bf428a602",
          "width" : 300
        }, {
          "height" : 64,
          "url" : "https://i.scdn.co/image/ab67616d000048517acf219366bb7f5bf428a602",
          "width" : 64
        } ],
        "name" : "Gospel Classics",
        "release_date" : "2006-05-16",
        "release_date_precision" : "day",
        "total_tracks" : 10,
        "type" : "album",
        "uri" : "spotify:album:2yyrrRIhR6YjgjsJBhovqA"
      },
      "artists" : [ {
        "external_urls" : {
          "spotify" : "https://open.spotify.com/artist/4Q9czIL4Cg4cjMdHiiQ7q6"
        },
        "href" : "https://api.spotify.com/v1/artists/4Q9czIL4Cg4cjMdHiiQ7q6",
        "id" : "4Q9czIL4Cg4cjMdHiiQ7q6",
        "name" : "Crist Family",
        "type" : "artist",
        "uri" : "spotify:artist:4Q9czIL4Cg4cjMdHiiQ7q6"
      } ],
      "disc_number" : 1,
      "duration_ms" : 198506,
      "explicit" : false,
      "external_ids" : {
        "isrc" : "USETB0810643"
      },
      "external_urls" : {
        "spotify" : "https://open.spotify.com/track/0dck7PODCQPQh0PgVHWuZk"
      },
      "href" : "https://api.spotify.com/v1/tracks/0dck7PODCQPQh0PgVHWuZk",
      "id" : "0dck7PODCQPQh0PgVHWuZk",
      "is_local" : false,
      "is_playable" : true,
      "name" : "Jesus Savior Pilot Me",
      "popularity" : 8,
      "preview_url" : "https://p.scdn.co/mp3-preview/ee3136dc06a63a2fb5a6786b4243d8a53b56c2c6?cid=774b29d4f13844c495f206cafdad9c86",
      "track_number" : 7,
      "type" : "track",
      "uri" : "spotify:track:0dck7PODCQPQh0PgVHWuZk"
    }, {
      "album" : {
        "album_type" : "album",
        "artists" : [ {
          "external_urls" : {
            "spotify" : "https://open.spotify.com/artist/55EQiBRndZAu0yE5BJ1vNB"
          },
          "href" : "https://api.spotify.com/v1/artists/55EQiBRndZAu0yE5BJ1vNB",
          "id" : "55EQiBRndZAu0yE5BJ1vNB",
          "name" : "Aaron Hale",
          "type" : "artist",
          "uri" : "spotify:artist:55EQiBRndZAu0yE5BJ1vNB"
        } ],
        "external_urls" : {
          "spotify" : "https://open.spotify.com/album/6mF0Vo4mjQbRCQsTtJ7Yu0"
        },
        "href" : "https://api.spotify.com/v1/albums/6mF0Vo4mjQbRCQsTtJ7Yu0",
        "id" : "6mF0Vo4mjQbRCQsTtJ7Yu0",
        "images" : [ {
          "height" : 640,
          "url" : "https://i.scdn.co/image/ab67616d0000b27363a02bf18b76b7ff5208eec0",
          "width" : 640
        }, {
          "height" : 300,
          "url" : "https://i.scdn.co/image/ab67616d00001e0263a02bf18b76b7ff5208eec0",
          "width" : 300
        }, {
          "height" : 64,
          "url" : "https://i.scdn.co/image/ab67616d0000485163a02bf18b76b7ff5208eec0",
          "width" : 64
        } ],
        "name" : "Lenten Hymns Vol. I",
        "release_date" : "2011-04-24",
        "release_date_precision" : "day",
        "total_tracks" : 7,
        "type" : "album",
        "uri" : "spotify:album:6mF0Vo4mjQbRCQsTtJ7Yu0"
      },
      "artists" : [ {
        "external_urls" : {
          "spotify" : "https://open.spotify.com/artist/55EQiBRndZAu0yE5BJ1vNB"
        },
        "href" : "https://api.spotify.com/v1/artists/55EQiBRndZAu0yE5BJ1vNB",
        "id" : "55EQiBRndZAu0yE5BJ1vNB",
        "name" : "Aaron Hale",
        "type" : "artist",
        "uri" : "spotify:artist:55EQiBRndZAu0yE5BJ1vNB"
      } ],
      "disc_number" : 1,
      "duration_ms" : 298004,
      "explicit" : false,
      "external_ids" : {
        "isrc" : "USDHM1221650"
      },
      "external_urls" : {
        "spotify" : "https://open.spotify.com/track/34mnpWPXQrYuyXCPIpVziK"
      },
      "href" : "https://api.spotify.com/v1/tracks/34mnpWPXQrYuyXCPIpVziK",
      "id" : "34mnpWPXQrYuyXCPIpVziK",
      "is_local" : false,
      "is_playable" : true,
      "name" : "Jesus Savior, Pilot Me",
      "popularity" : 7,
      "preview_url" : "https://p.scdn.co/mp3-preview/57968ceabbe2f90691cd6a05386e0ac5f9f3e222?cid=774b29d4f13844c495f206cafdad9c86",
      "track_number" : 2,
      "type" : "track",
      "uri" : "spotify:track:34mnpWPXQrYuyXCPIpVziK"
    }, {
      "album" : {
        "album_type" : "album",
        "artists" : [ {
          "external_urls" : {
            "spotify" : "https://open.spotify.com/artist/7LVNaxbcWJ9zn4YFzsRAn9"
          },
          "href" : "https://api.spotify.com/v1/artists/7LVNaxbcWJ9zn4YFzsRAn9",
          "id" : "7LVNaxbcWJ9zn4YFzsRAn9",
          "name" : "BYU Singers",
          "type" : "artist",
          "uri" : "spotify:artist:7LVNaxbcWJ9zn4YFzsRAn9"
        }, {
          "external_urls" : {
            "spotify" : "https://open.spotify.com/artist/1LK9vHqQvVT79qBITcr9r4"
          },
          "href" : "https://api.spotify.com/v1/artists/1LK9vHqQvVT79qBITcr9r4",
          "id" : "1LK9vHqQvVT79qBITcr9r4",
          "name" : "Ronald Staheli",
          "type" : "artist",
          "uri" : "spotify:artist:1LK9vHqQvVT79qBITcr9r4"
        } ],
        "external_urls" : {
          "spotify" : "https://open.spotify.com/album/3B12zD9bvCz7PRrSgEmxQ7"
        },
        "href" : "https://api.spotify.com/v1/albums/3B12zD9bvCz7PRrSgEmxQ7",
        "id" : "3B12zD9bvCz7PRrSgEmxQ7",
        "images" : [ {
          "height" : 640,
          "url" : "https://i.scdn.co/image/ab67616d0000b273f4976b10811677ad5a810bf5",
          "width" : 640
        }, {
          "height" : 300,
          "url" : "https://i.scdn.co/image/ab67616d00001e02f4976b10811677ad5a810bf5",
          "width" : 300
        }, {
          "height" : 64,
          "url" : "https://i.scdn.co/image/ab67616d00004851f4976b10811677ad5a810bf5",
          "width" : 64
        } ],
        "name" : "The Peace of Christ",
        "release_date" : "2012-02-07",
        "release_date_precision" : "day",
        "total_tracks" : 15,
        "type" : "album",
        "uri" : "spotify:album:3B12zD9bvCz7PRrSgEmxQ7"
      },
      "artists" : [ {
        "external_urls" : {
          "spotify" : "https://open.spotify.com/artist/03hJXk4TsZN57FTAbPomPd"
        },
        "href" : "https://api.spotify.com/v1/artists/03hJXk4TsZN57FTAbPomPd",
        "id" : "03hJXk4TsZN57FTAbPomPd",
        "name" : "John Longhurst",
        "type" : "artist",
        "uri" : "spotify:artist:03hJXk4TsZN57FTAbPomPd"
      }, {
        "external_urls" : {
          "spotify" : "https://open.spotify.com/artist/5qBXYlcQTJ8z5tYEkGuSVj"
        },
        "href" : "https://api.spotify.com/v1/artists/5qBXYlcQTJ8z5tYEkGuSVj",
        "id" : "5qBXYlcQTJ8z5tYEkGuSVj",
        "name" : "Johan E. Gould",
        "type" : "artist",
        "uri" : "spotify:artist:5qBXYlcQTJ8z5tYEkGuSVj"
      }, {
        "external_urls" : {
          "spotify" : "https://open.spotify.com/artist/7LVNaxbcWJ9zn4YFzsRAn9"
        },
        "href" : "https://api.spotify.com/v1/artists/7LVNaxbcWJ9zn4YFzsRAn9",
        "id" : "7LVNaxbcWJ9zn4YFzsRAn9",
        "name" : "BYU Singers",
        "type" : "artist",
        "uri" : "spotify:artist:7LVNaxbcWJ9zn4YFzsRAn9"
      }, {
        "external_urls" : {
          "spotify" : "https://open.spotify.com/artist/1LK9vHqQvVT79qBITcr9r4"
        },
        "href" : "https://api.spotify.com/v1/artists/1LK9vHqQvVT79qBITcr9r4",
        "id" : "1LK9vHqQvVT79qBITcr9r4",
        "name" : "Ronald Staheli",
        "type" : "artist",
        "uri" : "spotify:artist:1LK9vHqQvVT79qBITcr9r4"
      } ],
      "disc_number" : 1,
      "duration_ms" : 198391,
      "explicit" : false,
      "external_ids" : {
        "isrc" : "USRUF1100393"
      },
      "external_urls" : {
        "spotify" : "https://open.spotify.com/track/7bC5Hx7mA3VOwvxliXwd5V"
      },
      "href" : "https://api.spotify.com/v1/tracks/7bC5Hx7mA3VOwvxliXwd5V",
      "id" : "7bC5Hx7mA3VOwvxliXwd5V",
      "is_local" : false,
      "is_playable" : true,
      "name" : "Jesus, Savior, Pilot Me (Arr. J. Longhurst)",
      "popularity" : 7,
      "preview_url" : "https://p.scdn.co/mp3-preview/fcadc15011cf09fa2aea0fde785060f861dea783?cid=774b29d4f13844c495f206cafdad9c86",
      "track_number" : 6,
      "type" : "track",
      "uri" : "spotify:track:7bC5Hx7mA3VOwvxliXwd5V"
    }, {
      "album" : {
        "album_type" : "album",
        "artists" : [ {
          "external_urls" : {
            "spotify" : "https://open.spotify.com/artist/1iNNWK8bYjc5EK0waLk1J1"
          },
          "href" : "https://api.spotify.com/v1/artists/1iNNWK8bYjc5EK0waLk1J1",
          "id" : "1iNNWK8bYjc5EK0waLk1J1",
          "name" : "Flatt & Scruggs",
          "type" : "artist",
          "uri" : "spotify:artist:1iNNWK8bYjc5EK0waLk1J1"
        } ],
        "external_urls" : {
          "spotify" : "https://open.spotify.com/album/65ZaQ13ccP8Tcht0jGiyJ9"
        },
        "href" : "https://api.spotify.com/v1/albums/65ZaQ13ccP8Tcht0jGiyJ9",
        "id" : "65ZaQ13ccP8Tcht0jGiyJ9",
        "images" : [ {
          "height" : 640,
          "url" : "https://i.scdn.co/image/ab67616d0000b273120a9f67b60d402473f93868",
          "width" : 640
        }, {
          "height" : 300,
          "url" : "https://i.scdn.co/image/ab67616d00001e02120a9f67b60d402473f93868",
          "width" : 300
        }, {
          "height" : 64,
          "url" : "https://i.scdn.co/image/ab67616d00004851120a9f67b60d402473f93868",
          "width" : 64
        } ],
        "name" : "Foggy Mountain Gospel",
        "release_date" : "1951",
        "release_date_precision" : "year",
        "total_tracks" : 52,
        "type" : "album",
        "uri" : "spotify:album:65ZaQ13ccP8Tcht0jGiyJ9"
      },
      "artists" : [ {
        "external_urls" : {
          "spotify" : "https://open.spotify.com/artist/4UEb5ZsSyDWMAiBuOeKA6W"
        },
        "href" : "https://api.spotify.com/v1/artists/4UEb5ZsSyDWMAiBuOeKA6W",
        "id" : "4UEb5ZsSyDWMAiBuOeKA6W",
        "name" : "Lester Flatt",
        "type" : "artist",
        "uri" : "spotify:artist:4UEb5ZsSyDWMAiBuOeKA6W"
      }, {
        "external_urls" : {
          "spotify" : "https://open.spotify.com/artist/4NEA48c6ajydrRzCbyll3M"
        },
        "href" : "https://api.spotify.com/v1/artists/4NEA48c6ajydrRzCbyll3M",
        "id" : "4NEA48c6ajydrRzCbyll3M",
        "name" : "Earl Scruggs",
        "type" : "artist",
        "uri" : "spotify:artist:4NEA48c6ajydrRzCbyll3M"
      } ],
      "disc_number" : 1,
      "duration_ms" : 126906,
      "explicit" : false,
      "external_ids" : {
        "isrc" : "USSM10415873"
      },
      "external_urls" : {
        "spotify" : "https://open.spotify.com/track/1LLQLRPiwEmab3EFvbRmyV"
      },
      "href" : "https://api.spotify.com/v1/tracks/1LLQLRPiwEmab3EFvbRmyV",
      "id" : "1LLQLRPiwEmab3EFvbRmyV",
      "is_local" : false,
      "is_playable" : true,
      "name" : "Jesus Savior Pilot Me",
      "popularity" : 6,
      "preview_url" : "https://p.scdn.co/mp3-preview/47fa8509c3844d08bc58816d8c3ec49462d11bbf?cid=774b29d4f13844c495f206cafdad9c86",
      "track_number" : 22,
      "type" : "track",
      "uri" : "spotify:track:1LLQLRPiwEmab3EFvbRmyV"
    }, {
      "album" : {
        "album_type" : "album",
        "artists" : [ {
          "external_urls" : {
            "spotify" : "https://open.spotify.com/artist/4cw0WEFeezIm64PFHrGfgu"
          },
          "href" : "https://api.spotify.com/v1/artists/4cw0WEFeezIm64PFHrGfgu",
          "id" : "4cw0WEFeezIm64PFHrGfgu",
          "name" : "Mark Geslison & Geoff Groberg",
          "type" : "artist",
          "uri" : "spotify:artist:4cw0WEFeezIm64PFHrGfgu"
        } ],
        "external_urls" : {
          "spotify" : "https://open.spotify.com/album/11HuvJBIr2zF2mezi91MMO"
        },
        "href" : "https://api.spotify.com/v1/albums/11HuvJBIr2zF2mezi91MMO",
        "id" : "11HuvJBIr2zF2mezi91MMO",
        "images" : [ {
          "height" : 640,
          "url" : "https://i.scdn.co/image/ab67616d0000b2730a8c715b3ba58fff02ac7a95",
          "width" : 640
        }, {
          "height" : 300,
          "url" : "https://i.scdn.co/image/ab67616d00001e020a8c715b3ba58fff02ac7a95",
          "width" : 300
        }, {
          "height" : 64,
          "url" : "https://i.scdn.co/image/ab67616d000048510a8c715b3ba58fff02ac7a95",
          "width" : 64
        } ],
        "name" : "Come Ye Children of the Lord",
        "release_date" : "2012-04-06",
        "release_date_precision" : "day",
        "total_tracks" : 11,
        "type" : "album",
        "uri" : "spotify:album:11HuvJBIr2zF2mezi91MMO"
      },
      "artists" : [ {
        "external_urls" : {
          "spotify" : "https://open.spotify.com/artist/4cw0WEFeezIm64PFHrGfgu"
        },
        "href" : "https://api.spotify.com/v1/artists/4cw0WEFeezIm64PFHrGfgu",
        "id" : "4cw0WEFeezIm64PFHrGfgu",
        "name" : "Mark Geslison & Geoff Groberg",
        "type" : "artist",
        "uri" : "spotify:artist:4cw0WEFeezIm64PFHrGfgu"
      } ],
      "disc_number" : 1,
      "duration_ms" : 166841,
      "explicit" : false,
      "external_ids" : {
        "isrc" : "ushm91228163"
      },
      "external_urls" : {
        "spotify" : "https://open.spotify.com/track/35HdsORwgTSMqeeMobTLS8"
      },
      "href" : "https://api.spotify.com/v1/tracks/35HdsORwgTSMqeeMobTLS8",
      "id" : "35HdsORwgTSMqeeMobTLS8",
      "is_local" : false,
      "is_playable" : true,
      "name" : "Jesus, Lover of My Soul; Jesus, Savior Pilot Me",
      "popularity" : 9,
      "preview_url" : "https://p.scdn.co/mp3-preview/1dfafbea9df71f9d6ff99418e0623a93908a75f1?cid=774b29d4f13844c495f206cafdad9c86",
      "track_number" : 6,
      "type" : "track",
      "uri" : "spotify:track:35HdsORwgTSMqeeMobTLS8"
    }, {
      "album" : {
        "album_type" : "album",
        "artists" : [ {
          "external_urls" : {
            "spotify" : "https://open.spotify.com/artist/7hEbJvh3BAedDS2vVJvx0B"
          },
          "href" : "https://api.spotify.com/v1/artists/7hEbJvh3BAedDS2vVJvx0B",
          "id" : "7hEbJvh3BAedDS2vVJvx0B",
          "name" : "Andy Griffith",
          "type" : "artist",
          "uri" : "spotify:artist:7hEbJvh3BAedDS2vVJvx0B"
        } ],
        "external_urls" : {
          "spotify" : "https://open.spotify.com/album/7lVJzZ0prP7pi2QVEoiXCM"
        },
        "href" : "https://api.spotify.com/v1/albums/7lVJzZ0prP7pi2QVEoiXCM",
        "id" : "7lVJzZ0prP7pi2QVEoiXCM",
        "images" : [ {
          "height" : 640,
          "url" : "https://i.scdn.co/image/ab67616d0000b2732c9b9fee1783fc9c5edb1a97",
          "width" : 640
        }, {
          "height" : 300,
          "url" : "https://i.scdn.co/image/ab67616d00001e022c9b9fee1783fc9c5edb1a97",
          "width" : 300
        }, {
          "height" : 64,
          "url" : "https://i.scdn.co/image/ab67616d000048512c9b9fee1783fc9c5edb1a97",
          "width" : 64
        } ],
        "name" : "Just As I Am",
        "release_date" : "1998-01-01",
        "release_date_precision" : "day",
        "total_tracks" : 14,
        "type" : "album",
        "uri" : "spotify:album:7lVJzZ0prP7pi2QVEoiXCM"
      },
      "artists" : [ {
        "external_urls" : {
          "spotify" : "https://open.spotify.com/artist/7hEbJvh3BAedDS2vVJvx0B"
        },
        "href" : "https://api.spotify.com/v1/artists/7hEbJvh3BAedDS2vVJvx0B",
        "id" : "7hEbJvh3BAedDS2vVJvx0B",
        "name" : "Andy Griffith",
        "type" : "artist",
        "uri" : "spotify:artist:7hEbJvh3BAedDS2vVJvx0B"
      } ],
      "disc_number" : 1,
      "duration_ms" : 346000,
      "explicit" : false,
      "external_ids" : {
        "isrc" : "USSP39719168"
      },
      "external_urls" : {
        "spotify" : "https://open.spotify.com/track/6rQhlgKEk6GnFhuxkpRWVa"
      },
      "href" : "https://api.spotify.com/v1/tracks/6rQhlgKEk6GnFhuxkpRWVa",
      "id" : "6rQhlgKEk6GnFhuxkpRWVa",
      "is_local" : false,
      "is_playable" : true,
      "name" : "Jesus, Savior, Pilot Me (Medley)",
      "popularity" : 5,
      "preview_url" : null,
      "track_number" : 2,
      "type" : "track",
      "uri" : "spotify:track:6rQhlgKEk6GnFhuxkpRWVa"
    } ],
    "limit" : 10,
    "next" : "https://api.spotify.com/v1/search?query=Jesus%2C+Savior%2C+Pilot+Me&type=track&market=US&offset=15&limit=10",
    "offset" : 5,
    "previous" : "https://api.spotify.com/v1/search?query=Jesus%2C+Savior%2C+Pilot+Me&type=track&market=US&offset=0&limit=10",
    "total" : 137
  }
}