{
  "tracks" : {
    "href" : "https://api.spotify.com/v1/search?query=I+Hear+Thy+Welcome+Voice&type=track&market=US&offset=5&limit=10",
    "items" : [ {
      "album" : {
        "album_type" : "single",
        "artists" : [ {
          "external_urls" : {
            "spotify" : "https://open.spotify.com/artist/6yZ5uOdD3Y4xYrUGQN6hyf"
          },
          "href" : "https://api.spotify.com/v1/artists/6yZ5uOdD3Y4xYrUGQN6hyf",
          "id" : "6yZ5uOdD3Y4xYrUGQN6hyf",
          "name" : "Jazz For Jesus",
          "type" : "artist",
          "uri" : "spotify:artist:6yZ5uOdD3Y4xYrUGQN6hyf"
        } ],
        "external_urls" : {
          "spotify" : "https://open.spotify.com/album/6gT7SdFGZapvAGgxUeq7ak"
        },
        "href" : "https://api.spotify.com/v1/albums/6gT7SdFGZapvAGgxUeq7ak",
        "id" : "6gT7SdFGZapvAGgxUeq7ak",
        "images" : [ {
          "height" : 640,
          "url" : "https://i.scdn.co/image/ab67616d0000b273444467dcbbb20faabcbd5273",
          "width" : 640
        }, {
          "height" : 300,
          "url" : "https://i.scdn.co/image/ab67616d00001e02444467dcbbb20faabcbd5273",
          "width" : 300
        }, {
          "height" : 64,
          "url" : "https://i.scdn.co/image/ab67616d00004851444467dcbbb20faabcbd5273",
          "width" : 64
        } ],
        "name" : "Music or Worship, Vol. 3",
        "release_date" : "2016-04-15",
        "release_date_precision" : "day",
        "total_tracks" : 2,
        "type" : "album",
        "uri" : "spotify:album:6gT7SdFGZapvAGgxUeq7ak"
      },
      "artists" : [ {
        "external_urls" : {
          "spotify" : "https://open.spotify.com/artist/6yZ5uOdD3Y4xYrUGQN6hyf"
        },
        "href" : "https://api.spotify.com/v1/artists/6yZ5uOdD3Y4xYrUGQN6hyf",
        "id" : "6yZ5uOdD3Y4xYrUGQN6hyf",
        "name" : "Jazz For Jesus",
        "type" : "artist",
        "uri" : "spotify:artist:6yZ5uOdD3Y4xYrUGQN6hyf"
      } ],
      "disc_number" : 1,
      "duration_ms" : 205040,
      "explicit" : false,
      "external_ids" : {
        "isrc" : "KRA031212823"
      },
      "external_urls" : {
        "spotify" : "https://open.spotify.com/track/5DK7YVuNTIW9Sbj36e2JHG"
      },
      "href" : "https://api.spotify.com/v1/tracks/5DK7YVuNTIW9Sbj36e2JHG",
      "id" : "5DK7YVuNTIW9Sbj36e2JHG",
      "is_local" : false,
      "is_playable" : true,
      "name" : "I Hear Thy Welcome Voice",
      "popularity" : 14,
      "preview_url" : "https://p.scdn.co/mp3-preview/a8fa8af446bcc7dc6c9e6c57b5480703d717c416?cid=774b29d4f13844c495f206cafdad9c86",
      "track_number" : 2,
      "type" : "track",
      "uri" : "spotify:track:5DK7YVuNTIW9Sbj36e2JHG"
    }, {
      "album" : {
        "album_type" : "album",
        "artists" : [ {
          "external_urls" : {
            "spotify" : "https://open.spotify.com/artist/41hCpLaR1bEW5ETK3aPvDB"
          },
          "href" : "https://api.spotify.com/v1/artists/41hCpLaR1bEW5ETK3aPvDB",
          "id" : "41hCpLaR1bEW5ETK3aPvDB",
          "name" : "The Eden Symphony Orchestra",
          "type" : "artist",
          "uri" : "spotify:artist:41hCpLaR1bEW5ETK3aPvDB"
        } ],
        "external_urls" : {
          "spotify" : "https://open.spotify.com/album/5mGdP1Rh2VrRxCjJwItZaA"
        },
        "href" : "https://api.spotify.com/v1/albums/5mGdP1Rh2VrRxCjJwItZaA",
        "id" : "5mGdP1Rh2VrRxCjJwItZaA",
        "images" : [ {
          "height" : 640,
          "url" : "https://i.scdn.co/image/ab67616d0000b27314c4fec8e14bd1c2984ce0d2",
          "width" : 640
        }, {
          "height" : 300,
          "url" : "https://i.scdn.co/image/ab67616d00001e0214c4fec8e14bd1c2984ce0d2",
          "width" : 300
        }, {
          "height" : 64,
          "url" : "https://i.scdn.co/image/ab67616d0000485114c4fec8e14bd1c2984ce0d2",
          "width" : 64
        } ],
        "name" : "Philharmonic Hymns - Orchestral Hymns Vol. 1",
        "release_date" : "2006-01-01",
        "release_date_precision" : "day",
        "total_tracks" : 10,
        "type" : "album",
        "uri" : "spotify:album:5mGdP1Rh2VrRxCjJwItZaA"
      },
      "artists" : [ {
        "external_urls" : {
          "spotify" : "https://open.spotify.com/artist/41hCpLaR1bEW5ETK3aPvDB"
        },
        "href" : "https://api.spotify.com/v1/artists/41hCpLaR1bEW5ETK3aPvDB",
        "id" : "41hCpLaR1bEW5ETK3aPvDB",
        "name" : "The Eden Symphony Orchestra",
        "type" : "artist",
        "uri" : "spotify:artist:41hCpLaR1bEW5ETK3aPvDB"
      } ],
      "disc_number" : 1,
      "duration_ms" : 321000,
      "explicit" : false,
      "external_ids" : {
        "isrc" : "GBCEU0677402"
      },
      "external_urls" : {
        "spotify" : "https://open.spotify.com/track/7x0QDQVRIbBvzSPvu2sB2e"
      },
      "href" : "https://api.spotify.com/v1/tracks/7x0QDQVRIbBvzSPvu2sB2e",
      "id" : "7x0QDQVRIbBvzSPvu2sB2e",
      "is_local" : false,
      "is_playable" : true,
      "name" : "I Hear Thy Welcome Voice",
      "popularity" : 5,
      "preview_url" : "https://p.scdn.co/mp3-preview/86937fdb25e65574bf880463047321903ffd9faf?cid=774b29d4f13844c495f206cafdad9c86",
      "track_number" : 2,
      "type" : "track",
      "uri" : "spotify:track:7x0QDQVRIbBvzSPvu2sB2e"
    }, {
      "album" : {
        "album_type" : "album",
        "artists" : [ {
          "external_urls" : {
            "spotify" : "https://open.spotify.com/artist/4s244LtqE98VzeDGhSoUvc"
          },
          "href" : "https://api.spotify.com/v1/artists/4s244LtqE98VzeDGhSoUvc",
          "id" : "4s244LtqE98VzeDGhSoUvc",
          "name" : "Herbster Evangelistic Team",
          "type" : "artist",
          "uri" : "spotify:artist:4s244LtqE98VzeDGhSoUvc"
        } ],
        "external_urls" : {
          "spotify" : "https://open.spotify.com/album/7jc29hpAz8GEbH0pXBfrXl"
        },
        "href" : "https://api.spotify.com/v1/albums/7jc29hpAz8GEbH0pXBfrXl",
        "id" : "7jc29hpAz8GEbH0pXBfrXl",
        "images" : [ {
          "height" : 640,
          "url" : "https://i.scdn.co/image/ab67616d0000b273b8d1cec8cbed3f53e9d8561b",
          "width" : 640
        }, {
          "height" : 300,
          "url" : "https://i.scdn.co/image/ab67616d00001e02b8d1cec8cbed3f53e9d8561b",
          "width" : 300
        }, {
          "height" : 64,
          "url" : "https://i.scdn.co/image/ab67616d00004851b8d1cec8cbed3f53e9d8561b",
          "width" : 64
        } ],
        "name" : "God of Our Praise",
        "release_date" : "2013-04-11",
        "release_date_precision" : "day",
        "total_tracks" : 15,
        "type" : "album",
        "uri" : "spotify:album:7jc29hpAz8GEbH0pXBfrXl"
      },
      "artists" : [ {
        "external_urls" : {
          "spotify" : "https://open.spotify.com/artist/4s244LtqE98VzeDGhSoUvc"
        },
        "href" : "https://api.spotify.com/v1/artists/4s244LtqE98VzeDGhSoUvc",
        "id" : "4s244LtqE98VzeDGhSoUvc",
        "name" : "Herbster Evangelistic Team",
        "type" : "artist",
        "uri" : "spotify:artist:4s244LtqE98VzeDGhSoUvc"
      } ],
      "disc_number" : 1,
      "duration_ms" : 168893,
      "explicit" : false,
      "external_ids" : {
        "isrc" : "TCABN1341280"
      },
      "external_urls" : {
        "spotify" : "https://open.spotify.com/track/6avjG7Gi8PJNEf9QbhW7gY"
      },
      "href" : "https://api.spotify.com/v1/tracks/6avjG7Gi8PJNEf9QbhW7gY",
      "id" : "6avjG7Gi8PJNEf9QbhW7gY",
      "is_local" : false,
      "is_playable" : true,
      "name" : "I Hear Thy Welcome Voice",
      "popularity" : 3,
      "preview_url" : "https://p.scdn.co/mp3-preview/fb7853e477044b126514e1c6617dd032cb62adc5?cid=774b29d4f13844c495f206cafdad9c86",
      "track_number" : 4,
      "type" : "track",
      "uri" : "spotify:track:6avjG7Gi8PJNEf9QbhW7gY"
    }, {
      "album" : {
        "album_type" : "album",
        "artists" : [ {
          "external_urls" : {
            "spotify" : "https://open.spotify.com/artist/6rn5mGeVE2lfRrg1f2Daed"
          },
          "href" : "https://api.spotify.com/v1/artists/6rn5mGeVE2lfRrg1f2Daed",
          "id" : "6rn5mGeVE2lfRrg1f2Daed",
          "name" : "Soim",
          "type" : "artist",
          "uri" : "spotify:artist:6rn5mGeVE2lfRrg1f2Daed"
        } ],
        "external_urls" : {
          "spotify" : "https://open.spotify.com/album/5Kg4KBqbdulXQJeqhvlIjh"
        },
        "href" : "https://api.spotify.com/v1/albums/5Kg4KBqbdulXQJeqhvlIjh",
        "id" : "5Kg4KBqbdulXQJeqhvlIjh",
        "images" : [ {
          "height" : 640,
          "url" : "https://i.scdn.co/image/ab67616d0000b273c9a362b97742d5de1e0f4ccb",
          "width" : 640
        }, {
          "height" : 300,
          "url" : "https://i.scdn.co/image/ab67616d00001e02c9a362b97742d5de1e0f4ccb",
          "width" : 300
        }, {
          "height" : 64,
          "url" : "https://i.scdn.co/image/ab67616d00004851c9a362b97742d5de1e0f4ccb",
          "width" : 64
        } ],
        "name" : "내 마음에 들리는 은혜의 소리 Sound of Grace in My Heart",
        "release_date" : "2014-03-19",
        "release_date_precision" : "day",
        "total_tracks" : 19,
        "type" : "album",
        "uri" : "spotify:album:5Kg4KBqbdulXQJeqhvlIjh"
      },
      "artists" : [ {
        "external_urls" : {
          "spotify" : "https://open.spotify.com/artist/6rn5mGeVE2lfRrg1f2Daed"
        },
        "href" : "https://api.spotify.com/v1/artists/6rn5mGeVE2lfRrg1f2Daed",
        "id" : "6rn5mGeVE2lfRrg1f2Daed",
        "name" : "Soim",
        "type" : "artist",
        "uri" : "spotify:artist:6rn5mGeVE2lfRrg1f2Daed"
      } ],
      "disc_number" : 1,
      "duration_ms" : 138893,
      "explicit" : false,
      "external_ids" : {
        "isrc" : "KRA351404169"
      },
      "external_urls" : {
        "spotify" : "https://open.spotify.com/track/1NRwU3pwRSBHjLHAldeXCG"
      },
      "href" : "https://api.spotify.com/v1/tracks/1NRwU3pwRSBHjLHAldeXCG",
      "id" : "1NRwU3pwRSBHjLHAldeXCG",
      "is_local" : false,
      "is_playable" : true,
      "name" : "I Hear Thy Welcome Voice",
      "popularity" : 0,
      "preview_url" : "https://p.scdn.co/mp3-preview/8fbe9708600152867c6b7bbeb0bf91250f037bda?cid=774b29d4f13844c495f206cafdad9c86",
      "track_number" : 3,
      "type" : "track",
      "uri" : "spotify:track:1NRwU3pwRSBHjLHAldeXCG"
    }, {
      "album" : {
        "album_type" : "album",
        "artists" : [ {
          "external_urls" : {
            "spotify" : "https://open.spotify.com/artist/5l8BVhPxcosiO6keLmn0JU"
          },
          "href" : "https://api.spotify.com/v1/artists/5l8BVhPxcosiO6keLmn0JU",
          "id" : "5l8BVhPxcosiO6keLmn0JU",
          "name" : "Shin Kim and Lee",
          "type" : "artist",
          "uri" : "spotify:artist:5l8BVhPxcosiO6keLmn0JU"
        } ],
        "external_urls" : {
          "spotify" : "https://open.spotify.com/album/3zU92pTHBU4tUz5a85YteM"
        },
        "href" : "https://api.spotify.com/v1/albums/3zU92pTHBU4tUz5a85YteM",
        "id" : "3zU92pTHBU4tUz5a85YteM",
        "images" : [ {
          "height" : 640,
          "url" : "https://i.scdn.co/image/ab67616d0000b2739ff0fe38fef8e45fe974f5af",
          "width" : 640
        }, {
          "height" : 300,
          "url" : "https://i.scdn.co/image/ab67616d00001e029ff0fe38fef8e45fe974f5af",
          "width" : 300
        }, {
          "height" : 64,
          "url" : "https://i.scdn.co/image/ab67616d000048519ff0fe38fef8e45fe974f5af",
          "width" : 64
        } ],
        "name" : "I Need Thee Every Hour",
        "release_date" : "2017-10-02",
        "release_date_precision" : "day",
        "total_tracks" : 10,
        "type" : "album",
        "uri" : "spotify:album:3zU92pTHBU4tUz5a85YteM"
      },
      "artists" : [ {
        "external_urls" : {
          "spotify" : "https://open.spotify.com/artist/5l8BVhPxcosiO6keLmn0JU"
        },
        "href" : "https://api.spotify.com/v1/artists/5l8BVhPxcosiO6keLmn0JU",
        "id" : "5l8BVhPxcosiO6keLmn0JU",
        "name" : "Shin Kim and Lee",
        "type" : "artist",
        "uri" : "spotify:artist:5l8BVhPxcosiO6keLmn0JU"
      } ],
      "disc_number" : 1,
      "duration_ms" : 189906,
      "explicit" : false,
      "external_ids" : {
        "isrc" : "QMAAK1781664"
      },
      "external_urls" : {
        "spotify" : "https://open.spotify.com/track/3QkedB75s7mQm7Rnzfbr1H"
      },
      "href" : "https://api.spotify.com/v1/tracks/3QkedB75s7mQm7Rnzfbr1H",
      "id" : "3QkedB75s7mQm7Rnzfbr1H",
      "is_local" : false,
      "is_playable" : true,
      "name" : "I Hear Thy Welcome Voice",
      "popularity" : 0,
      "preview_url" : "https://p.scdn.co/mp3-preview/011bc3fd042bd50b046ae9ecca8ff9f45e85a0ad?cid=774b29d4f13844c495f206cafdad9c86",
      "track_number" : 8,
      "type" : "track",
      "uri" : "spotify:track:3QkedB75s7mQm7Rnzfbr1H"
    }, {
      "album" : {
        "album_type" : "album",
        "artists" : [ {
          "external_urls" : {
            "spotify" : "https://open.spotify.com/artist/5l8BVhPxcosiO6keLmn0JU"
          },
          "href" : "https://api.spotify.com/v1/artists/5l8BVhPxcosiO6keLmn0JU",
          "id" : "5l8BVhPxcosiO6keLmn0JU",
          "name" : "Shin Kim and Lee",
          "type" : "artist",
          "uri" : "spotify:artist:5l8BVhPxcosiO6keLmn0JU"
        } ],
        "external_urls" : {
          "spotify" : "https://open.spotify.com/album/41B0gaofLy8coTGlV94fRA"
        },
        "href" : "https://api.spotify.com/v1/albums/41B0gaofLy8coTGlV94fRA",
        "id" : "41B0gaofLy8coTGlV94fRA",
        "images" : [ {
          "height" : 640,
          "url" : "https://i.scdn.co/image/ab67616d0000b273132d6b47e3cae281fe218163",
          "width" : 640
        }, {
          "height" : 300,
          "url" : "https://i.scdn.co/image/ab67616d00001e02132d6b47e3cae281fe218163",
          "width" : 300
        }, {
          "height" : 64,
          "url" : "https://i.scdn.co/image/ab67616d00004851132d6b47e3cae281fe218163",
          "width" : 64
        } ],
        "name" : "I Need Thee Every Hour",
        "release_date" : "2017-10-02",
        "release_date_precision" : "day",
        "total_tracks" : 10,
        "type" : "album",
        "uri" : "spotify:album:41B0gaofLy8coTGlV94fRA"
      },
      "artists" : [ {
        "external_urls" : {
          "spotify" : "https://open.spotify.com/artist/5l8BVhPxcosiO6keLmn0JU"
        },
        "href" : "https://api.spotify.com/v1/artists/5l8BVhPxcosiO6keLmn0JU",
        "id" : "5l8BVhPxcosiO6keLmn0JU",
        "name" : "Shin Kim and Lee",
        "type" : "artist",
        "uri" : "spotify:artist:5l8BVhPxcosiO6keLmn0JU"
      } ],
      "disc_number" : 1,
      "duration_ms" : 189906,
      "explicit" : false,
      "external_ids" : {
        "isrc" : "QMAAK1781699"
      },
      "external_urls" : {
        "spotify" : "https://open.spotify.com/track/0o9j00Ym3uYmPq6Zq0LhOi"
      },
      "href" : "https://api.spotify.com/v1/tracks/0o9j00Ym3uYmPq6Zq0LhOi",
      "id" : "0o9j00Ym3uYmPq6Zq0LhOi",
      "is_local" : false,
      "is_playable" : true,
      "name" : "I Hear Thy Welcome Voice",
      "popularity" : 0,
      "preview_url" : "https://p.scdn.co/mp3-preview/788276eb4c513e6d56138b3ad53472bbf0bc4305?cid=774b29d4f13844c495f206cafdad9c86",
      "track_number" : 8,
      "type" : "track",
      "uri" : "spotify:track:0o9j00Ym3uYmPq6Zq0LhOi"
    }, {
      "album" : {
        "album_type" : "album",
        "artists" : [ {
          "external_urls" : {
            "spotify" : "https://open.spotify.com/artist/3HxDBEXRFqxM01xZhDTBKs"
          },
          "href" : "https://api.spotify.com/v1/artists/3HxDBEXRFqxM01xZhDTBKs",
          "id" : "3HxDBEXRFqxM01xZhDTBKs",
          "name" : "sungkyul university concert choir",
          "type" : "artist",
          "uri" : "spotify:artist:3HxDBEXRFqxM01xZhDTBKs"
        } ],
        "external_urls" : {
          "spotify" : "https://open.spotify.com/album/50ycp0sLtHS7we0En1YNBG"
        },
        "href" : "https://api.spotify.com/v1/albums/50ycp0sLtHS7we0En1YNBG",
        "id" : "50ycp0sLtHS7we0En1YNBG",
        "images" : [ {
          "height" : 640,
          "url" : "https://i.scdn.co/image/ab67616d0000b273ae73c044bf5f4bae1f2f7d07",
          "width" : 640
        }, {
          "height" : 300,
          "url" : "https://i.scdn.co/image/ab67616d00001e02ae73c044bf5f4bae1f2f7d07",
          "width" : 300
        }, {
          "height" : 64,
          "url" : "https://i.scdn.co/image/ab67616d00004851ae73c044bf5f4bae1f2f7d07",
          "width" : 64
        } ],
        "name" : "Grace Hymn Vol.1",
        "release_date" : "2016-03-11",
        "release_date_precision" : "day",
        "total_tracks" : 20,
        "type" : "album",
        "uri" : "spotify:album:50ycp0sLtHS7we0En1YNBG"
      },
      "artists" : [ {
        "external_urls" : {
          "spotify" : "https://open.spotify.com/artist/3HxDBEXRFqxM01xZhDTBKs"
        },
        "href" : "https://api.spotify.com/v1/artists/3HxDBEXRFqxM01xZhDTBKs",
        "id" : "3HxDBEXRFqxM01xZhDTBKs",
        "name" : "sungkyul university concert choir",
        "type" : "artist",
        "uri" : "spotify:artist:3HxDBEXRFqxM01xZhDTBKs"
      } ],
      "disc_number" : 1,
      "duration_ms" : 241294,
      "explicit" : false,
      "external_ids" : {
        "isrc" : "KRNAR1600072"
      },
      "external_urls" : {
        "spotify" : "https://open.spotify.com/track/2yMtcRKpIsINapnwxP7scP"
      },
      "href" : "https://api.spotify.com/v1/tracks/2yMtcRKpIsINapnwxP7scP",
      "id" : "2yMtcRKpIsINapnwxP7scP",
      "is_local" : false,
      "is_playable" : true,
      "name" : "I Hear Thy Welcome Voice",
      "popularity" : 0,
      "preview_url" : "https://p.scdn.co/mp3-preview/cf662e5afba9bc423fd0077a3224e870498f4376?cid=774b29d4f13844c495f206cafdad9c86",
      "track_number" : 7,
      "type" : "track",
      "uri" : "spotify:track:2yMtcRKpIsINapnwxP7scP"
    }, {
      "album" : {
        "album_type" : "album",
        "artists" : [ {
          "external_urls" : {
            "spotify" : "https://open.spotify.com/artist/1v2O4H1NUyUyQyMTLnghHn"
          },
          "href" : "https://api.spotify.com/v1/artists/1v2O4H1NUyUyQyMTLnghHn",
          "id" : "1v2O4H1NUyUyQyMTLnghHn",
          "name" : "Back Settlement Band",
          "type" : "artist",
          "uri" : "spotify:artist:1v2O4H1NUyUyQyMTLnghHn"
        } ],
        "external_urls" : {
          "spotify" : "https://open.spotify.com/album/5cJkzS3vLudgZdlUHWnpcR"
        },
        "href" : "https://api.spotify.com/v1/albums/5cJkzS3vLudgZdlUHWnpcR",
        "id" : "5cJkzS3vLudgZdlUHWnpcR",
        "images" : [ {
          "height" : 640,
          "url" : "https://i.scdn.co/image/ab67616d0000b273dfb5947d3e9bfbd30f8a2167",
          "width" : 640
        }, {
          "height" : 300,
          "url" : "https://i.scdn.co/image/ab67616d00001e02dfb5947d3e9bfbd30f8a2167",
          "width" : 300
        }, {
          "height" : 64,
          "url" : "https://i.scdn.co/image/ab67616d00004851dfb5947d3e9bfbd30f8a2167",
          "width" : 64
        } ],
        "name" : "Ojibwe Revival",
        "release_date" : "2003-01-01",
        "release_date_precision" : "day",
        "total_tracks" : 14,
        "type" : "album",
        "uri" : "spotify:album:5cJkzS3vLudgZdlUHWnpcR"
      },
      "artists" : [ {
        "external_urls" : {
          "spotify" : "https://open.spotify.com/artist/1v2O4H1NUyUyQyMTLnghHn"
        },
        "href" : "https://api.spotify.com/v1/artists/1v2O4H1NUyUyQyMTLnghHn",
        "id" : "1v2O4H1NUyUyQyMTLnghHn",
        "name" : "Back Settlement Band",
        "type" : "artist",
        "uri" : "spotify:artist:1v2O4H1NUyUyQyMTLnghHn"
      } ],
      "disc_number" : 1,
      "duration_ms" : 317453,
      "explicit" : false,
      "external_ids" : {
        "isrc" : "ushm90639829"
      },
      "external_urls" : {
        "spotify" : "https://open.spotify.com/track/4DQsvmxxXOt9WvJqmVkDMI"
      },
      "href" : "https://api.spotify.com/v1/tracks/4DQsvmxxXOt9WvJqmVkDMI",
      "id" : "4DQsvmxxXOt9WvJqmVkDMI",
      "is_local" : false,
      "is_playable" : true,
      "name" : "I Hear Thy Welcome Voice",
      "popularity" : 0,
      "preview_url" : "https://p.scdn.co/mp3-preview/bbf53d05efbd2f7da1116644b03836766da331f0?cid=774b29d4f13844c495f206cafdad9c86",
      "track_number" : 9,
      "type" : "track",
      "uri" : "spotify:track:4DQsvmxxXOt9WvJqmVkDMI"
    }, {
      "album" : {
        "album_type" : "single",
        "artists" : [ {
          "external_urls" : {
            "spotify" : "https://open.spotify.com/artist/59zx8BWatGUw0gfZpsxSvK"
          },
          "href" : "https://api.spotify.com/v1/artists/59zx8BWatGUw0gfZpsxSvK",
          "id" : "59zx8BWatGUw0gfZpsxSvK",
          "name" : "Han In Ae",
          "type" : "artist",
          "uri" : "spotify:artist:59zx8BWatGUw0gfZpsxSvK"
        } ],
        "external_urls" : {
          "spotify" : "https://open.spotify.com/album/3zFf18fU3BhOjaKGYKjE0I"
        },
        "href" : "https://api.spotify.com/v1/albums/3zFf18fU3BhOjaKGYKjE0I",
        "id" : "3zFf18fU3BhOjaKGYKjE0I",
        "images" : [ {
          "height" : 640,
          "url" : "https://i.scdn.co/image/ab67616d0000b273db64543159705724f8786b14",
          "width" : 640
        }, {
          "height" : 300,
          "url" : "https://i.scdn.co/image/ab67616d00001e02db64543159705724f8786b14",
          "width" : 300
        }, {
          "height" : 64,
          "url" : "https://i.scdn.co/image/ab67616d00004851db64543159705724f8786b14",
          "width" : 64
        } ],
        "name" : "Pray for You, Vol. 19",
        "release_date" : "2018-11-08",
        "release_date_precision" : "day",
        "total_tracks" : 2,
        "type" : "album",
        "uri" : "spotify:album:3zFf18fU3BhOjaKGYKjE0I"
      },
      "artists" : [ {
        "external_urls" : {
          "spotify" : "https://open.spotify.com/artist/59zx8BWatGUw0gfZpsxSvK"
        },
        "href" : "https://api.spotify.com/v1/artists/59zx8BWatGUw0gfZpsxSvK",
        "id" : "59zx8BWatGUw0gfZpsxSvK",
        "name" : "Han In Ae",
        "type" : "artist",
        "uri" : "spotify:artist:59zx8BWatGUw0gfZpsxSvK"
      } ],
      "disc_number" : 1,
      "duration_ms" : 268702,
      "explicit" : false,
      "external_ids" : {
        "isrc" : "KRB921718469"
      },
      "external_urls" : {
        "spotify" : "https://open.spotify.com/track/6sVchIEWP9poT2lNzGbt9C"
      },
      "href" : "https://api.spotify.com/v1/tracks/6sVchIEWP9poT2lNzGbt9C",
      "id" : "6sVchIEWP9poT2lNzGbt9C",
      "is_local" : false,
      "is_playable" : true,
      "name" : "I Hear Thy Welcome Voice",
      "popularity" : 0,
      "preview_url" : "https://p.scdn.co/mp3-preview/bb8a9634de026c28ff20a1e1afb943bb986b3b40?cid=774b29d4f13844c495f206cafdad9c86",
      "track_number" : 1,
      "type" : "track",
      "uri" : "spotify:track:6sVchIEWP9poT2lNzGbt9C"
    }, {
      "album" : {
        "album_type" : "album",
        "artists" : [ {
          "external_urls" : {
            "spotify" : "https://open.spotify.com/artist/28dPrg8RJivCnX96hOlDb9"
          },
          "href" : "https://api.spotify.com/v1/artists/28dPrg8RJivCnX96hOlDb9",
          "id" : "28dPrg8RJivCnX96hOlDb9",
          "name" : "Honeypot",
          "type" : "artist",
          "uri" : "spotify:artist:28dPrg8RJivCnX96hOlDb9"
        } ],
        "external_urls" : {
          "spotify" : "https://open.spotify.com/album/7iHk3xkdYAgkY6Q0eUCaOS"
        },
        "href" : "https://api.spotify.com/v1/albums/7iHk3xkdYAgkY6Q0eUCaOS",
        "id" : "7iHk3xkdYAgkY6Q0eUCaOS",
        "images" : [ {
          "height" : 640,
          "url" : "https://i.scdn.co/image/ab67616d0000b273b372e24a964109ff05161c55",
          "width" : 640
        }, {
          "height" : 300,
          "url" : "https://i.scdn.co/image/ab67616d00001e02b372e24a964109ff05161c55",
          "width" : 300
        }, {
          "height" : 64,
          "url" : "https://i.scdn.co/image/ab67616d00004851b372e24a964109ff05161c55",
          "width" : 64
        } ],
        "name" : "Honeypot",
        "release_date" : "2016-06-24",
        "release_date_precision" : "day",
        "total_tracks" : 7,
        "type" : "album",
        "uri" : "spotify:album:7iHk3xkdYAgkY6Q0eUCaOS"
      },
      "artists" : [ {
        "external_urls" : {
          "spotify" : "https://open.spotify.com/artist/28dPrg8RJivCnX96hOlDb9"
        },
        "href" : "https://api.spotify.com/v1/artists/28dPrg8RJivCnX96hOlDb9",
        "id" : "28dPrg8RJivCnX96hOlDb9",
        "name" : "Honeypot",
        "type" : "artist",
        "uri" : "spotify:artist:28dPrg8RJivCnX96hOlDb9"
      } ],
      "disc_number" : 1,
      "duration_ms" : 253240,
      "explicit" : false,
      "external_ids" : {
        "isrc" : "KRB461600214"
      },
      "external_urls" : {
        "spotify" : "https://open.spotify.com/track/0CRisLzyZ7PJYtoZFifv3y"
      },
      "href" : "https://api.spotify.com/v1/tracks/0CRisLzyZ7PJYtoZFifv3y",
      "id" : "0CRisLzyZ7PJYtoZFifv3y",
      "is_local" : false,
      "is_playable" : true,
      "name" : "I Hear Thy Welcome Voice",
      "popularity" : 6,
      "preview_url" : "https://p.scdn.co/mp3-preview/cbc0946db97f8f244072dfab6aabd90e97efbac6?cid=774b29d4f13844c495f206cafdad9c86",
      "track_number" : 6,
      "type" : "track",
      "uri" : "spotify:track:0CRisLzyZ7PJYtoZFifv3y"
    } ],
    "limit" : 10,
    "next" : "https://api.spotify.com/v1/search?query=I+Hear+Thy+Welcome+Voice&type=track&market=US&offset=15&limit=10",
    "offset" : 5,
    "previous" : "https://api.spotify.com/v1/search?query=I+Hear+Thy+Welcome+Voice&type=track&market=US&offset=0&limit=10",
    "total" : 53
  }
}