{
  "tracks" : {
    "href" : "https://api.spotify.com/v1/search?query=Am+I+a+Soldier+of+the+Cross%3F&type=track&market=US&offset=5&limit=10",
    "items" : [ {
      "album" : {
        "album_type" : "album",
        "artists" : [ {
          "external_urls" : {
            "spotify" : "https://open.spotify.com/artist/6ZJ0ZFJUx02NthS3RH3VYz"
          },
          "href" : "https://api.spotify.com/v1/artists/6ZJ0ZFJUx02NthS3RH3VYz",
          "id" : "6ZJ0ZFJUx02NthS3RH3VYz",
          "name" : "The Joyful Sounds",
          "type" : "artist",
          "uri" : "spotify:artist:6ZJ0ZFJUx02NthS3RH3VYz"
        } ],
        "external_urls" : {
          "spotify" : "https://open.spotify.com/album/6PAiLUBV1jG7nIB2hjPqji"
        },
        "href" : "https://api.spotify.com/v1/albums/6PAiLUBV1jG7nIB2hjPqji",
        "id" : "6PAiLUBV1jG7nIB2hjPqji",
        "images" : [ {
          "height" : 640,
          "url" : "https://i.scdn.co/image/ab67616d0000b27323b89dcba04535d536d48b60",
          "width" : 640
        }, {
          "height" : 300,
          "url" : "https://i.scdn.co/image/ab67616d00001e0223b89dcba04535d536d48b60",
          "width" : 300
        }, {
          "height" : 64,
          "url" : "https://i.scdn.co/image/ab67616d0000485123b89dcba04535d536d48b60",
          "width" : 64
        } ],
        "name" : "99 Beautiful songs pack vol.2",
        "release_date" : "2016-03-01",
        "release_date_precision" : "day",
        "total_tracks" : 99,
        "type" : "album",
        "uri" : "spotify:album:6PAiLUBV1jG7nIB2hjPqji"
      },
      "artists" : [ {
        "external_urls" : {
          "spotify" : "https://open.spotify.com/artist/6ZJ0ZFJUx02NthS3RH3VYz"
        },
        "href" : "https://api.spotify.com/v1/artists/6ZJ0ZFJUx02NthS3RH3VYz",
        "id" : "6ZJ0ZFJUx02NthS3RH3VYz",
        "name" : "The Joyful Sounds",
        "type" : "artist",
        "uri" : "spotify:artist:6ZJ0ZFJUx02NthS3RH3VYz"
      } ],
      "disc_number" : 1,
      "duration_ms" : 32299,
      "explicit" : false,
      "external_ids" : {
        "isrc" : "TCJPE1644803"
      },
      "external_urls" : {
        "spotify" : "https://open.spotify.com/track/3Qc6ldRcuOZ6MC47Y7G82u"
      },
      "href" : "https://api.spotify.com/v1/tracks/3Qc6ldRcuOZ6MC47Y7G82u",
      "id" : "3Qc6ldRcuOZ6MC47Y7G82u",
      "is_local" : false,
      "is_playable" : true,
      "name" : "Am I a Soldier of the Cross?",
      "popularity" : 0,
      "preview_url" : "https://p.scdn.co/mp3-preview/1f1f2c4b7746cb9b8f26662fb8be2fd165bd2283?cid=774b29d4f13844c495f206cafdad9c86",
      "track_number" : 63,
      "type" : "track",
      "uri" : "spotify:track:3Qc6ldRcuOZ6MC47Y7G82u"
    }, {
      "album" : {
        "album_type" : "album",
        "artists" : [ {
          "external_urls" : {
            "spotify" : "https://open.spotify.com/artist/258Dm9AVtfbZA1w7gnEtzq"
          },
          "href" : "https://api.spotify.com/v1/artists/258Dm9AVtfbZA1w7gnEtzq",
          "id" : "258Dm9AVtfbZA1w7gnEtzq",
          "name" : "Kim Mitzo Thompson",
          "type" : "artist",
          "uri" : "spotify:artist:258Dm9AVtfbZA1w7gnEtzq"
        }, {
          "external_urls" : {
            "spotify" : "https://open.spotify.com/artist/4YNwYlgMLlf1sviSR9JeQy"
          },
          "href" : "https://api.spotify.com/v1/artists/4YNwYlgMLlf1sviSR9JeQy",
          "id" : "4YNwYlgMLlf1sviSR9JeQy",
          "name" : "Karen Mitzo Hilderbrand",
          "type" : "artist",
          "uri" : "spotify:artist:4YNwYlgMLlf1sviSR9JeQy"
        } ],
        "external_urls" : {
          "spotify" : "https://open.spotify.com/album/6jAFnYqixLr1ijevZiR3xU"
        },
        "href" : "https://api.spotify.com/v1/albums/6jAFnYqixLr1ijevZiR3xU",
        "id" : "6jAFnYqixLr1ijevZiR3xU",
        "images" : [ {
          "height" : 640,
          "url" : "https://i.scdn.co/image/ab67616d0000b273d3aada818b8aca6df581f4b6",
          "width" : 640
        }, {
          "height" : 300,
          "url" : "https://i.scdn.co/image/ab67616d00001e02d3aada818b8aca6df581f4b6",
          "width" : 300
        }, {
          "height" : 64,
          "url" : "https://i.scdn.co/image/ab67616d00004851d3aada818b8aca6df581f4b6",
          "width" : 64
        } ],
        "name" : "Twin Sisters: Best Loved Hymns, Vol. 3",
        "release_date" : "2006",
        "release_date_precision" : "year",
        "total_tracks" : 25,
        "type" : "album",
        "uri" : "spotify:album:6jAFnYqixLr1ijevZiR3xU"
      },
      "artists" : [ {
        "external_urls" : {
          "spotify" : "https://open.spotify.com/artist/258Dm9AVtfbZA1w7gnEtzq"
        },
        "href" : "https://api.spotify.com/v1/artists/258Dm9AVtfbZA1w7gnEtzq",
        "id" : "258Dm9AVtfbZA1w7gnEtzq",
        "name" : "Kim Mitzo Thompson",
        "type" : "artist",
        "uri" : "spotify:artist:258Dm9AVtfbZA1w7gnEtzq"
      }, {
        "external_urls" : {
          "spotify" : "https://open.spotify.com/artist/4YNwYlgMLlf1sviSR9JeQy"
        },
        "href" : "https://api.spotify.com/v1/artists/4YNwYlgMLlf1sviSR9JeQy",
        "id" : "4YNwYlgMLlf1sviSR9JeQy",
        "name" : "Karen Mitzo Hilderbrand",
        "type" : "artist",
        "uri" : "spotify:artist:4YNwYlgMLlf1sviSR9JeQy"
      } ],
      "disc_number" : 1,
      "duration_ms" : 85840,
      "explicit" : false,
      "external_ids" : {
        "isrc" : "USFEY1220210"
      },
      "external_urls" : {
        "spotify" : "https://open.spotify.com/track/4jOMdoBWXTYaxztZoBHKC1"
      },
      "href" : "https://api.spotify.com/v1/tracks/4jOMdoBWXTYaxztZoBHKC1",
      "id" : "4jOMdoBWXTYaxztZoBHKC1",
      "is_local" : false,
      "is_playable" : true,
      "name" : "Am I a Soldier of the Cross?",
      "popularity" : 0,
      "preview_url" : "https://p.scdn.co/mp3-preview/e0a9334f6777172a5829994422fe4cc2d0bcdf23?cid=774b29d4f13844c495f206cafdad9c86",
      "track_number" : 9,
      "type" : "track",
      "uri" : "spotify:track:4jOMdoBWXTYaxztZoBHKC1"
    }, {
      "album" : {
        "album_type" : "album",
        "artists" : [ {
          "external_urls" : {
            "spotify" : "https://open.spotify.com/artist/258Dm9AVtfbZA1w7gnEtzq"
          },
          "href" : "https://api.spotify.com/v1/artists/258Dm9AVtfbZA1w7gnEtzq",
          "id" : "258Dm9AVtfbZA1w7gnEtzq",
          "name" : "Kim Mitzo Thompson",
          "type" : "artist",
          "uri" : "spotify:artist:258Dm9AVtfbZA1w7gnEtzq"
        }, {
          "external_urls" : {
            "spotify" : "https://open.spotify.com/artist/4YNwYlgMLlf1sviSR9JeQy"
          },
          "href" : "https://api.spotify.com/v1/artists/4YNwYlgMLlf1sviSR9JeQy",
          "id" : "4YNwYlgMLlf1sviSR9JeQy",
          "name" : "Karen Mitzo Hilderbrand",
          "type" : "artist",
          "uri" : "spotify:artist:4YNwYlgMLlf1sviSR9JeQy"
        } ],
        "external_urls" : {
          "spotify" : "https://open.spotify.com/album/6WA9t0QMTLR42HbBi3mnH4"
        },
        "href" : "https://api.spotify.com/v1/albums/6WA9t0QMTLR42HbBi3mnH4",
        "id" : "6WA9t0QMTLR42HbBi3mnH4",
        "images" : [ {
          "height" : 640,
          "url" : "https://i.scdn.co/image/ab67616d0000b27355cea057a5bcd64a64826b83",
          "width" : 640
        }, {
          "height" : 300,
          "url" : "https://i.scdn.co/image/ab67616d00001e0255cea057a5bcd64a64826b83",
          "width" : 300
        }, {
          "height" : 64,
          "url" : "https://i.scdn.co/image/ab67616d0000485155cea057a5bcd64a64826b83",
          "width" : 64
        } ],
        "name" : "Twin Sisters: Reflection",
        "release_date" : "2008",
        "release_date_precision" : "year",
        "total_tracks" : 25,
        "type" : "album",
        "uri" : "spotify:album:6WA9t0QMTLR42HbBi3mnH4"
      },
      "artists" : [ {
        "external_urls" : {
          "spotify" : "https://open.spotify.com/artist/258Dm9AVtfbZA1w7gnEtzq"
        },
        "href" : "https://api.spotify.com/v1/artists/258Dm9AVtfbZA1w7gnEtzq",
        "id" : "258Dm9AVtfbZA1w7gnEtzq",
        "name" : "Kim Mitzo Thompson",
        "type" : "artist",
        "uri" : "spotify:artist:258Dm9AVtfbZA1w7gnEtzq"
      }, {
        "external_urls" : {
          "spotify" : "https://open.spotify.com/artist/4YNwYlgMLlf1sviSR9JeQy"
        },
        "href" : "https://api.spotify.com/v1/artists/4YNwYlgMLlf1sviSR9JeQy",
        "id" : "4YNwYlgMLlf1sviSR9JeQy",
        "name" : "Karen Mitzo Hilderbrand",
        "type" : "artist",
        "uri" : "spotify:artist:4YNwYlgMLlf1sviSR9JeQy"
      } ],
      "disc_number" : 1,
      "duration_ms" : 88720,
      "explicit" : false,
      "external_ids" : {
        "isrc" : "USFEY1223584"
      },
      "external_urls" : {
        "spotify" : "https://open.spotify.com/track/7iXI2hbKL6rS5tT54esvux"
      },
      "href" : "https://api.spotify.com/v1/tracks/7iXI2hbKL6rS5tT54esvux",
      "id" : "7iXI2hbKL6rS5tT54esvux",
      "is_local" : false,
      "is_playable" : true,
      "name" : "Am I a Soldier of the Cross?",
      "popularity" : 0,
      "preview_url" : "https://p.scdn.co/mp3-preview/8fb64d8de5227f31880d96f0469127ca0978b125?cid=774b29d4f13844c495f206cafdad9c86",
      "track_number" : 18,
      "type" : "track",
      "uri" : "spotify:track:7iXI2hbKL6rS5tT54esvux"
    }, {
      "album" : {
        "album_type" : "compilation",
        "artists" : [ {
          "external_urls" : {
            "spotify" : "https://open.spotify.com/artist/50MXQTlX6avlNBjJIqVuMn"
          },
          "href" : "https://api.spotify.com/v1/artists/50MXQTlX6avlNBjJIqVuMn",
          "id" : "50MXQTlX6avlNBjJIqVuMn",
          "name" : "Viktor Dick",
          "type" : "artist",
          "uri" : "spotify:artist:50MXQTlX6avlNBjJIqVuMn"
        } ],
        "external_urls" : {
          "spotify" : "https://open.spotify.com/album/6TKufcAAkbVFemUGElrkvd"
        },
        "href" : "https://api.spotify.com/v1/albums/6TKufcAAkbVFemUGElrkvd",
        "id" : "6TKufcAAkbVFemUGElrkvd",
        "images" : [ {
          "height" : 640,
          "url" : "https://i.scdn.co/image/ab67616d0000b273a187a31ef6f3200897003edc",
          "width" : 640
        }, {
          "height" : 300,
          "url" : "https://i.scdn.co/image/ab67616d00001e02a187a31ef6f3200897003edc",
          "width" : 300
        }, {
          "height" : 64,
          "url" : "https://i.scdn.co/image/ab67616d00004851a187a31ef6f3200897003edc",
          "width" : 64
        } ],
        "name" : "Christian Hymns & Chorals, Vol. 5",
        "release_date" : "2017-08-01",
        "release_date_precision" : "day",
        "total_tracks" : 20,
        "type" : "album",
        "uri" : "spotify:album:6TKufcAAkbVFemUGElrkvd"
      },
      "artists" : [ {
        "external_urls" : {
          "spotify" : "https://open.spotify.com/artist/50MXQTlX6avlNBjJIqVuMn"
        },
        "href" : "https://api.spotify.com/v1/artists/50MXQTlX6avlNBjJIqVuMn",
        "id" : "50MXQTlX6avlNBjJIqVuMn",
        "name" : "Viktor Dick",
        "type" : "artist",
        "uri" : "spotify:artist:50MXQTlX6avlNBjJIqVuMn"
      } ],
      "disc_number" : 1,
      "duration_ms" : 121858,
      "explicit" : false,
      "external_ids" : {
        "isrc" : "DEAR41723793"
      },
      "external_urls" : {
        "spotify" : "https://open.spotify.com/track/06Q9NDG64QTjBn5AWY12Sh"
      },
      "href" : "https://api.spotify.com/v1/tracks/06Q9NDG64QTjBn5AWY12Sh",
      "id" : "06Q9NDG64QTjBn5AWY12Sh",
      "is_local" : false,
      "is_playable" : true,
      "name" : "Am I a Soldier of the Cross",
      "popularity" : 0,
      "preview_url" : "https://p.scdn.co/mp3-preview/e854ada64729a3d10cab82db6fabc58fb457436c?cid=774b29d4f13844c495f206cafdad9c86",
      "track_number" : 2,
      "type" : "track",
      "uri" : "spotify:track:06Q9NDG64QTjBn5AWY12Sh"
    }, {
      "album" : {
        "album_type" : "album",
        "artists" : [ {
          "external_urls" : {
            "spotify" : "https://open.spotify.com/artist/0fQuRy3r62Lue63T0JfJac"
          },
          "href" : "https://api.spotify.com/v1/artists/0fQuRy3r62Lue63T0JfJac",
          "id" : "0fQuRy3r62Lue63T0JfJac",
          "name" : "Howie Campbell",
          "type" : "artist",
          "uri" : "spotify:artist:0fQuRy3r62Lue63T0JfJac"
        } ],
        "external_urls" : {
          "spotify" : "https://open.spotify.com/album/5nqUUQlWAucWOh9wNLzxgJ"
        },
        "href" : "https://api.spotify.com/v1/albums/5nqUUQlWAucWOh9wNLzxgJ",
        "id" : "5nqUUQlWAucWOh9wNLzxgJ",
        "images" : [ {
          "height" : 640,
          "url" : "https://i.scdn.co/image/ab67616d0000b273de3d2cf28668e4bc9276fd00",
          "width" : 640
        }, {
          "height" : 300,
          "url" : "https://i.scdn.co/image/ab67616d00001e02de3d2cf28668e4bc9276fd00",
          "width" : 300
        }, {
          "height" : 64,
          "url" : "https://i.scdn.co/image/ab67616d00004851de3d2cf28668e4bc9276fd00",
          "width" : 64
        } ],
        "name" : "Colonial Meditations",
        "release_date" : "2006-01-01",
        "release_date_precision" : "day",
        "total_tracks" : 14,
        "type" : "album",
        "uri" : "spotify:album:5nqUUQlWAucWOh9wNLzxgJ"
      },
      "artists" : [ {
        "external_urls" : {
          "spotify" : "https://open.spotify.com/artist/0fQuRy3r62Lue63T0JfJac"
        },
        "href" : "https://api.spotify.com/v1/artists/0fQuRy3r62Lue63T0JfJac",
        "id" : "0fQuRy3r62Lue63T0JfJac",
        "name" : "Howie Campbell",
        "type" : "artist",
        "uri" : "spotify:artist:0fQuRy3r62Lue63T0JfJac"
      } ],
      "disc_number" : 1,
      "duration_ms" : 102560,
      "explicit" : false,
      "external_ids" : {
        "isrc" : "usx9h0600013"
      },
      "external_urls" : {
        "spotify" : "https://open.spotify.com/track/6L9fsFV7KnndB0is7z38ao"
      },
      "href" : "https://api.spotify.com/v1/tracks/6L9fsFV7KnndB0is7z38ao",
      "id" : "6L9fsFV7KnndB0is7z38ao",
      "is_local" : false,
      "is_playable" : true,
      "name" : "Am I A Soldier Of The Cross",
      "popularity" : 0,
      "preview_url" : "https://p.scdn.co/mp3-preview/e8f9e8b12a199f2f86394845ccd3cf220d083257?cid=774b29d4f13844c495f206cafdad9c86",
      "track_number" : 13,
      "type" : "track",
      "uri" : "spotify:track:6L9fsFV7KnndB0is7z38ao"
    }, {
      "album" : {
        "album_type" : "album",
        "artists" : [ {
          "external_urls" : {
            "spotify" : "https://open.spotify.com/artist/4YNwYlgMLlf1sviSR9JeQy"
          },
          "href" : "https://api.spotify.com/v1/artists/4YNwYlgMLlf1sviSR9JeQy",
          "id" : "4YNwYlgMLlf1sviSR9JeQy",
          "name" : "Karen Mitzo Hilderbrand",
          "type" : "artist",
          "uri" : "spotify:artist:4YNwYlgMLlf1sviSR9JeQy"
        } ],
        "external_urls" : {
          "spotify" : "https://open.spotify.com/album/1lS5gUJA3NSjPmdgGGV4EU"
        },
        "href" : "https://api.spotify.com/v1/albums/1lS5gUJA3NSjPmdgGGV4EU",
        "id" : "1lS5gUJA3NSjPmdgGGV4EU",
        "images" : [ {
          "height" : 640,
          "url" : "https://i.scdn.co/image/ab67616d0000b2730b1e696a4e6dde1add1a0dab",
          "width" : 640
        }, {
          "height" : 300,
          "url" : "https://i.scdn.co/image/ab67616d00001e020b1e696a4e6dde1add1a0dab",
          "width" : 300
        }, {
          "height" : 64,
          "url" : "https://i.scdn.co/image/ab67616d000048510b1e696a4e6dde1add1a0dab",
          "width" : 64
        } ],
        "name" : "Twin Sisters: Prayers of My Heart",
        "release_date" : "2006",
        "release_date_precision" : "year",
        "total_tracks" : 28,
        "type" : "album",
        "uri" : "spotify:album:1lS5gUJA3NSjPmdgGGV4EU"
      },
      "artists" : [ {
        "external_urls" : {
          "spotify" : "https://open.spotify.com/artist/4YNwYlgMLlf1sviSR9JeQy"
        },
        "href" : "https://api.spotify.com/v1/artists/4YNwYlgMLlf1sviSR9JeQy",
        "id" : "4YNwYlgMLlf1sviSR9JeQy",
        "name" : "Karen Mitzo Hilderbrand",
        "type" : "artist",
        "uri" : "spotify:artist:4YNwYlgMLlf1sviSR9JeQy"
      } ],
      "disc_number" : 1,
      "duration_ms" : 88720,
      "explicit" : false,
      "external_ids" : {
        "isrc" : "USFEY1220817"
      },
      "external_urls" : {
        "spotify" : "https://open.spotify.com/track/3ZKEvhAzJ8mw4NuuxyX8xa"
      },
      "href" : "https://api.spotify.com/v1/tracks/3ZKEvhAzJ8mw4NuuxyX8xa",
      "id" : "3ZKEvhAzJ8mw4NuuxyX8xa",
      "is_local" : false,
      "is_playable" : true,
      "name" : "Am I a Soldier of the Cross?",
      "popularity" : 0,
      "preview_url" : "https://p.scdn.co/mp3-preview/ad386f4e29af1d1b7d4e5ac9855a69158efd001a?cid=774b29d4f13844c495f206cafdad9c86",
      "track_number" : 26,
      "type" : "track",
      "uri" : "spotify:track:3ZKEvhAzJ8mw4NuuxyX8xa"
    }, {
      "album" : {
        "album_type" : "album",
        "artists" : [ {
          "external_urls" : {
            "spotify" : "https://open.spotify.com/artist/49UYjuRDgOwIzd4PM9cyxl"
          },
          "href" : "https://api.spotify.com/v1/artists/49UYjuRDgOwIzd4PM9cyxl",
          "id" : "49UYjuRDgOwIzd4PM9cyxl",
          "name" : "Dan Wells",
          "type" : "artist",
          "uri" : "spotify:artist:49UYjuRDgOwIzd4PM9cyxl"
        } ],
        "external_urls" : {
          "spotify" : "https://open.spotify.com/album/3DJAsagcNtzZm3jmwBtRFN"
        },
        "href" : "https://api.spotify.com/v1/albums/3DJAsagcNtzZm3jmwBtRFN",
        "id" : "3DJAsagcNtzZm3jmwBtRFN",
        "images" : [ {
          "height" : 640,
          "url" : "https://i.scdn.co/image/ab67616d0000b2734279996207730be1a6f5a796",
          "width" : 640
        }, {
          "height" : 300,
          "url" : "https://i.scdn.co/image/ab67616d00001e024279996207730be1a6f5a796",
          "width" : 300
        }, {
          "height" : 64,
          "url" : "https://i.scdn.co/image/ab67616d000048514279996207730be1a6f5a796",
          "width" : 64
        } ],
        "name" : "Soldier of the Cross",
        "release_date" : "2007-01-01",
        "release_date_precision" : "day",
        "total_tracks" : 10,
        "type" : "album",
        "uri" : "spotify:album:3DJAsagcNtzZm3jmwBtRFN"
      },
      "artists" : [ {
        "external_urls" : {
          "spotify" : "https://open.spotify.com/artist/49UYjuRDgOwIzd4PM9cyxl"
        },
        "href" : "https://api.spotify.com/v1/artists/49UYjuRDgOwIzd4PM9cyxl",
        "id" : "49UYjuRDgOwIzd4PM9cyxl",
        "name" : "Dan Wells",
        "type" : "artist",
        "uri" : "spotify:artist:49UYjuRDgOwIzd4PM9cyxl"
      } ],
      "disc_number" : 1,
      "duration_ms" : 241960,
      "explicit" : false,
      "external_ids" : {
        "isrc" : "ushm80706768"
      },
      "external_urls" : {
        "spotify" : "https://open.spotify.com/track/4jxkBRhAIk1jAySEke2bsC"
      },
      "href" : "https://api.spotify.com/v1/tracks/4jxkBRhAIk1jAySEke2bsC",
      "id" : "4jxkBRhAIk1jAySEke2bsC",
      "is_local" : false,
      "is_playable" : true,
      "name" : "Am I a Soldier of the Cross",
      "popularity" : 0,
      "preview_url" : "https://p.scdn.co/mp3-preview/9940fddd88c7e8eeac4d56be0fedffb02bb4ec29?cid=774b29d4f13844c495f206cafdad9c86",
      "track_number" : 3,
      "type" : "track",
      "uri" : "spotify:track:4jxkBRhAIk1jAySEke2bsC"
    }, {
      "album" : {
        "album_type" : "album",
        "artists" : [ {
          "external_urls" : {
            "spotify" : "https://open.spotify.com/artist/0GtWvgrcsz4nOZgeoEFunC"
          },
          "href" : "https://api.spotify.com/v1/artists/0GtWvgrcsz4nOZgeoEFunC",
          "id" : "0GtWvgrcsz4nOZgeoEFunC",
          "name" : "Commandment 11",
          "type" : "artist",
          "uri" : "spotify:artist:0GtWvgrcsz4nOZgeoEFunC"
        } ],
        "external_urls" : {
          "spotify" : "https://open.spotify.com/album/4QqlSI0BiYqDSoSIlonhqW"
        },
        "href" : "https://api.spotify.com/v1/albums/4QqlSI0BiYqDSoSIlonhqW",
        "id" : "4QqlSI0BiYqDSoSIlonhqW",
        "images" : [ {
          "height" : 640,
          "url" : "https://i.scdn.co/image/ab67616d0000b27322ecd2aecdb31741d273f79e",
          "width" : 640
        }, {
          "height" : 300,
          "url" : "https://i.scdn.co/image/ab67616d00001e0222ecd2aecdb31741d273f79e",
          "width" : 300
        }, {
          "height" : 64,
          "url" : "https://i.scdn.co/image/ab67616d0000485122ecd2aecdb31741d273f79e",
          "width" : 64
        } ],
        "name" : "Acoustic Hymns",
        "release_date" : "2006-10-02",
        "release_date_precision" : "day",
        "total_tracks" : 10,
        "type" : "album",
        "uri" : "spotify:album:4QqlSI0BiYqDSoSIlonhqW"
      },
      "artists" : [ {
        "external_urls" : {
          "spotify" : "https://open.spotify.com/artist/0GtWvgrcsz4nOZgeoEFunC"
        },
        "href" : "https://api.spotify.com/v1/artists/0GtWvgrcsz4nOZgeoEFunC",
        "id" : "0GtWvgrcsz4nOZgeoEFunC",
        "name" : "Commandment 11",
        "type" : "artist",
        "uri" : "spotify:artist:0GtWvgrcsz4nOZgeoEFunC"
      } ],
      "disc_number" : 1,
      "duration_ms" : 211066,
      "explicit" : false,
      "external_ids" : {
        "isrc" : "USTCC1061031"
      },
      "external_urls" : {
        "spotify" : "https://open.spotify.com/track/3xsn552NUIU09Zoo2QJRFI"
      },
      "href" : "https://api.spotify.com/v1/tracks/3xsn552NUIU09Zoo2QJRFI",
      "id" : "3xsn552NUIU09Zoo2QJRFI",
      "is_local" : false,
      "is_playable" : true,
      "name" : "Am I a Soldier of the Cross",
      "popularity" : 2,
      "preview_url" : "https://p.scdn.co/mp3-preview/f7ee2f245d62a71d60c2900f051dfa8edb276e4e?cid=774b29d4f13844c495f206cafdad9c86",
      "track_number" : 8,
      "type" : "track",
      "uri" : "spotify:track:3xsn552NUIU09Zoo2QJRFI"
    }, {
      "album" : {
        "album_type" : "compilation",
        "artists" : [ {
          "external_urls" : {
            "spotify" : "https://open.spotify.com/artist/0LyfQWJT6nXafLPZqxe9Of"
          },
          "href" : "https://api.spotify.com/v1/artists/0LyfQWJT6nXafLPZqxe9Of",
          "id" : "0LyfQWJT6nXafLPZqxe9Of",
          "name" : "Various Artists",
          "type" : "artist",
          "uri" : "spotify:artist:0LyfQWJT6nXafLPZqxe9Of"
        } ],
        "external_urls" : {
          "spotify" : "https://open.spotify.com/album/4qHik4KuE46QmYTBnw2ag9"
        },
        "href" : "https://api.spotify.com/v1/albums/4qHik4KuE46QmYTBnw2ag9",
        "id" : "4qHik4KuE46QmYTBnw2ag9",
        "images" : [ {
          "height" : 640,
          "url" : "https://i.scdn.co/image/ab67616d0000b273eb600d60dd7e65ae6af35c10",
          "width" : 640
        }, {
          "height" : 300,
          "url" : "https://i.scdn.co/image/ab67616d00001e02eb600d60dd7e65ae6af35c10",
          "width" : 300
        }, {
          "height" : 64,
          "url" : "https://i.scdn.co/image/ab67616d00004851eb600d60dd7e65ae6af35c10",
          "width" : 64
        } ],
        "name" : "Slow West (Original Motion Picture Soundtrack)",
        "release_date" : "2015-05-12",
        "release_date_precision" : "day",
        "total_tracks" : 29,
        "type" : "album",
        "uri" : "spotify:album:4qHik4KuE46QmYTBnw2ag9"
      },
      "artists" : [ {
        "external_urls" : {
          "spotify" : "https://open.spotify.com/artist/75mAFp9VagthSejYwi2pIe"
        },
        "href" : "https://api.spotify.com/v1/artists/75mAFp9VagthSejYwi2pIe",
        "id" : "75mAFp9VagthSejYwi2pIe",
        "name" : "Silas Selleck",
        "type" : "artist",
        "uri" : "spotify:artist:75mAFp9VagthSejYwi2pIe"
      } ],
      "disc_number" : 1,
      "duration_ms" : 21266,
      "explicit" : false,
      "external_ids" : {
        "isrc" : "USLS51548427"
      },
      "external_urls" : {
        "spotify" : "https://open.spotify.com/track/78B0qxWDCP3CLfBRbwaD7a"
      },
      "href" : "https://api.spotify.com/v1/tracks/78B0qxWDCP3CLfBRbwaD7a",
      "id" : "78B0qxWDCP3CLfBRbwaD7a",
      "is_local" : false,
      "is_playable" : true,
      "name" : "I Am a Soldier of the Cross",
      "popularity" : 0,
      "preview_url" : null,
      "track_number" : 27,
      "type" : "track",
      "uri" : "spotify:track:78B0qxWDCP3CLfBRbwaD7a"
    }, {
      "album" : {
        "album_type" : "album",
        "artists" : [ {
          "external_urls" : {
            "spotify" : "https://open.spotify.com/artist/0h3VgD7WJDZbbnIo507VK5"
          },
          "href" : "https://api.spotify.com/v1/artists/0h3VgD7WJDZbbnIo507VK5",
          "id" : "0h3VgD7WJDZbbnIo507VK5",
          "name" : "RhemaSound",
          "type" : "artist",
          "uri" : "spotify:artist:0h3VgD7WJDZbbnIo507VK5"
        } ],
        "external_urls" : {
          "spotify" : "https://open.spotify.com/album/24a6TBeChpGvQTtoYTsKl8"
        },
        "href" : "https://api.spotify.com/v1/albums/24a6TBeChpGvQTtoYTsKl8",
        "id" : "24a6TBeChpGvQTtoYTsKl8",
        "images" : [ {
          "height" : 640,
          "url" : "https://i.scdn.co/image/ab67616d0000b273a4dd527e4527ec95e1a6c6f5",
          "width" : 640
        }, {
          "height" : 300,
          "url" : "https://i.scdn.co/image/ab67616d00001e02a4dd527e4527ec95e1a6c6f5",
          "width" : 300
        }, {
          "height" : 64,
          "url" : "https://i.scdn.co/image/ab67616d00004851a4dd527e4527ec95e1a6c6f5",
          "width" : 64
        } ],
        "name" : "Sounds of Scotland",
        "release_date" : "2014-04-21",
        "release_date_precision" : "day",
        "total_tracks" : 12,
        "type" : "album",
        "uri" : "spotify:album:24a6TBeChpGvQTtoYTsKl8"
      },
      "artists" : [ {
        "external_urls" : {
          "spotify" : "https://open.spotify.com/artist/0h3VgD7WJDZbbnIo507VK5"
        },
        "href" : "https://api.spotify.com/v1/artists/0h3VgD7WJDZbbnIo507VK5",
        "id" : "0h3VgD7WJDZbbnIo507VK5",
        "name" : "RhemaSound",
        "type" : "artist",
        "uri" : "spotify:artist:0h3VgD7WJDZbbnIo507VK5"
      }, {
        "external_urls" : {
          "spotify" : "https://open.spotify.com/artist/0u4WdR2v6FGsNTDDmMBXh1"
        },
        "href" : "https://api.spotify.com/v1/artists/0u4WdR2v6FGsNTDDmMBXh1",
        "id" : "0u4WdR2v6FGsNTDDmMBXh1",
        "name" : "David Raaen",
        "type" : "artist",
        "uri" : "spotify:artist:0u4WdR2v6FGsNTDDmMBXh1"
      }, {
        "external_urls" : {
          "spotify" : "https://open.spotify.com/artist/16NTgvzza195GF5eWPJ71e"
        },
        "href" : "https://api.spotify.com/v1/artists/16NTgvzza195GF5eWPJ71e",
        "id" : "16NTgvzza195GF5eWPJ71e",
        "name" : "Elizabeth Francis",
        "type" : "artist",
        "uri" : "spotify:artist:16NTgvzza195GF5eWPJ71e"
      } ],
      "disc_number" : 1,
      "duration_ms" : 54010,
      "explicit" : false,
      "external_ids" : {
        "isrc" : "QM4DW1551627"
      },
      "external_urls" : {
        "spotify" : "https://open.spotify.com/track/3LtysCae2LQKleS6Mymq91"
      },
      "href" : "https://api.spotify.com/v1/tracks/3LtysCae2LQKleS6Mymq91",
      "id" : "3LtysCae2LQKleS6Mymq91",
      "is_local" : false,
      "is_playable" : true,
      "name" : "Am I a Soldier of the Cross",
      "popularity" : 0,
      "preview_url" : "https://p.scdn.co/mp3-preview/7220d97a9c010eeb8588d966ac3ce8410b0eca08?cid=774b29d4f13844c495f206cafdad9c86",
      "track_number" : 10,
      "type" : "track",
      "uri" : "spotify:track:3LtysCae2LQKleS6Mymq91"
    } ],
    "limit" : 10,
    "next" : "https://api.spotify.com/v1/search?query=Am+I+a+Soldier+of+the+Cross%3F&type=track&market=US&offset=15&limit=10",
    "offset" : 5,
    "previous" : "https://api.spotify.com/v1/search?query=Am+I+a+Soldier+of+the+Cross%3F&type=track&market=US&offset=0&limit=10",
    "total" : 41
  }
}