{
  "tracks" : {
    "href" : "https://api.spotify.com/v1/search?query=Let+Us+With+a+Gladsome+Mind&type=track&market=US&offset=5&limit=10",
    "items" : [ {
      "album" : {
        "album_type" : "album",
        "artists" : [ {
          "external_urls" : {
            "spotify" : "https://open.spotify.com/artist/1RRQMvuWQBNWAMVWLIgCLj"
          },
          "href" : "https://api.spotify.com/v1/artists/1RRQMvuWQBNWAMVWLIgCLj",
          "id" : "1RRQMvuWQBNWAMVWLIgCLj",
          "name" : "The Sign Posters",
          "type" : "artist",
          "uri" : "spotify:artist:1RRQMvuWQBNWAMVWLIgCLj"
        } ],
        "external_urls" : {
          "spotify" : "https://open.spotify.com/album/6XUJhoQ6gZiqRVewg72j7f"
        },
        "href" : "https://api.spotify.com/v1/albums/6XUJhoQ6gZiqRVewg72j7f",
        "id" : "6XUJhoQ6gZiqRVewg72j7f",
        "images" : [ {
          "height" : 640,
          "url" : "https://i.scdn.co/image/ab67616d0000b27347155df3d9ddb86c0433fb94",
          "width" : 640
        }, {
          "height" : 300,
          "url" : "https://i.scdn.co/image/ab67616d00001e0247155df3d9ddb86c0433fb94",
          "width" : 300
        }, {
          "height" : 64,
          "url" : "https://i.scdn.co/image/ab67616d0000485147155df3d9ddb86c0433fb94",
          "width" : 64
        } ],
        "name" : "A Treasury of Hymns… Beauty of the Bagpipes",
        "release_date" : "2011-07-01",
        "release_date_precision" : "day",
        "total_tracks" : 60,
        "type" : "album",
        "uri" : "spotify:album:6XUJhoQ6gZiqRVewg72j7f"
      },
      "artists" : [ {
        "external_urls" : {
          "spotify" : "https://open.spotify.com/artist/1RRQMvuWQBNWAMVWLIgCLj"
        },
        "href" : "https://api.spotify.com/v1/artists/1RRQMvuWQBNWAMVWLIgCLj",
        "id" : "1RRQMvuWQBNWAMVWLIgCLj",
        "name" : "The Sign Posters",
        "type" : "artist",
        "uri" : "spotify:artist:1RRQMvuWQBNWAMVWLIgCLj"
      } ],
      "disc_number" : 1,
      "duration_ms" : 123773,
      "explicit" : false,
      "external_ids" : {
        "isrc" : "GB8KG1106355"
      },
      "external_urls" : {
        "spotify" : "https://open.spotify.com/track/21D9TwTXX6uoi950uEYQNK"
      },
      "href" : "https://api.spotify.com/v1/tracks/21D9TwTXX6uoi950uEYQNK",
      "id" : "21D9TwTXX6uoi950uEYQNK",
      "is_local" : false,
      "is_playable" : true,
      "name" : "Let Us, With a Gladsome Mind",
      "popularity" : 0,
      "preview_url" : "https://p.scdn.co/mp3-preview/803382a39d24dcae5332160525e64a2de1253cdc?cid=774b29d4f13844c495f206cafdad9c86",
      "track_number" : 4,
      "type" : "track",
      "uri" : "spotify:track:21D9TwTXX6uoi950uEYQNK"
    }, {
      "album" : {
        "album_type" : "album",
        "artists" : [ {
          "external_urls" : {
            "spotify" : "https://open.spotify.com/artist/5QmgloMl18ljj1oOwben4T"
          },
          "href" : "https://api.spotify.com/v1/artists/5QmgloMl18ljj1oOwben4T",
          "id" : "5QmgloMl18ljj1oOwben4T",
          "name" : "Christ Church Cathedral Choir, Oxford",
          "type" : "artist",
          "uri" : "spotify:artist:5QmgloMl18ljj1oOwben4T"
        }, {
          "external_urls" : {
            "spotify" : "https://open.spotify.com/artist/0iYaLOfNqttb4RaYqMGFVj"
          },
          "href" : "https://api.spotify.com/v1/artists/0iYaLOfNqttb4RaYqMGFVj",
          "id" : "0iYaLOfNqttb4RaYqMGFVj",
          "name" : "Stephen Darlington",
          "type" : "artist",
          "uri" : "spotify:artist:0iYaLOfNqttb4RaYqMGFVj"
        } ],
        "external_urls" : {
          "spotify" : "https://open.spotify.com/album/02eWTz4OCwNAnDpVYIiXu1"
        },
        "href" : "https://api.spotify.com/v1/albums/02eWTz4OCwNAnDpVYIiXu1",
        "id" : "02eWTz4OCwNAnDpVYIiXu1",
        "images" : [ {
          "height" : 640,
          "url" : "https://i.scdn.co/image/ab67616d0000b273fd757ece4a8e6f3ad5eb46ba",
          "width" : 640
        }, {
          "height" : 300,
          "url" : "https://i.scdn.co/image/ab67616d00001e02fd757ece4a8e6f3ad5eb46ba",
          "width" : 300
        }, {
          "height" : 64,
          "url" : "https://i.scdn.co/image/ab67616d00004851fd757ece4a8e6f3ad5eb46ba",
          "width" : 64
        } ],
        "name" : "Favourite Hymns from Oxford - Amazing Grace",
        "release_date" : "2010-06-08",
        "release_date_precision" : "day",
        "total_tracks" : 18,
        "type" : "album",
        "uri" : "spotify:album:02eWTz4OCwNAnDpVYIiXu1"
      },
      "artists" : [ {
        "external_urls" : {
          "spotify" : "https://open.spotify.com/artist/1U5zgr455OGyIkLNXvDdrf"
        },
        "href" : "https://api.spotify.com/v1/artists/1U5zgr455OGyIkLNXvDdrf",
        "id" : "1U5zgr455OGyIkLNXvDdrf",
        "name" : "Traditional",
        "type" : "artist",
        "uri" : "spotify:artist:1U5zgr455OGyIkLNXvDdrf"
      }, {
        "external_urls" : {
          "spotify" : "https://open.spotify.com/artist/5QmgloMl18ljj1oOwben4T"
        },
        "href" : "https://api.spotify.com/v1/artists/5QmgloMl18ljj1oOwben4T",
        "id" : "5QmgloMl18ljj1oOwben4T",
        "name" : "Christ Church Cathedral Choir, Oxford",
        "type" : "artist",
        "uri" : "spotify:artist:5QmgloMl18ljj1oOwben4T"
      }, {
        "external_urls" : {
          "spotify" : "https://open.spotify.com/artist/0iYaLOfNqttb4RaYqMGFVj"
        },
        "href" : "https://api.spotify.com/v1/artists/0iYaLOfNqttb4RaYqMGFVj",
        "id" : "0iYaLOfNqttb4RaYqMGFVj",
        "name" : "Stephen Darlington",
        "type" : "artist",
        "uri" : "spotify:artist:0iYaLOfNqttb4RaYqMGFVj"
      } ],
      "disc_number" : 1,
      "duration_ms" : 150200,
      "explicit" : false,
      "external_ids" : {
        "isrc" : "GBC7N1044703"
      },
      "external_urls" : {
        "spotify" : "https://open.spotify.com/track/3k5y4hbDVnZAIDaE27v99y"
      },
      "href" : "https://api.spotify.com/v1/tracks/3k5y4hbDVnZAIDaE27v99y",
      "id" : "3k5y4hbDVnZAIDaE27v99y",
      "is_local" : false,
      "is_playable" : true,
      "name" : "Let us with a gladsome mind",
      "popularity" : 3,
      "preview_url" : "https://p.scdn.co/mp3-preview/ec6dd960ab95777c6b409550ad825a556aaafbe7?cid=774b29d4f13844c495f206cafdad9c86",
      "track_number" : 3,
      "type" : "track",
      "uri" : "spotify:track:3k5y4hbDVnZAIDaE27v99y"
    }, {
      "album" : {
        "album_type" : "album",
        "artists" : [ {
          "external_urls" : {
            "spotify" : "https://open.spotify.com/artist/0Kc16KrkZpiFFQ0srguL05"
          },
          "href" : "https://api.spotify.com/v1/artists/0Kc16KrkZpiFFQ0srguL05",
          "id" : "0Kc16KrkZpiFFQ0srguL05",
          "name" : "The London Christmas Ensemble",
          "type" : "artist",
          "uri" : "spotify:artist:0Kc16KrkZpiFFQ0srguL05"
        } ],
        "external_urls" : {
          "spotify" : "https://open.spotify.com/album/4mHBsMHiPpwXOVm7INAznQ"
        },
        "href" : "https://api.spotify.com/v1/albums/4mHBsMHiPpwXOVm7INAznQ",
        "id" : "4mHBsMHiPpwXOVm7INAznQ",
        "images" : [ {
          "height" : 640,
          "url" : "https://i.scdn.co/image/ab67616d0000b273681b32c6d36855b6af17e4b0",
          "width" : 640
        }, {
          "height" : 300,
          "url" : "https://i.scdn.co/image/ab67616d00001e02681b32c6d36855b6af17e4b0",
          "width" : 300
        }, {
          "height" : 64,
          "url" : "https://i.scdn.co/image/ab67616d00004851681b32c6d36855b6af17e4b0",
          "width" : 64
        } ],
        "name" : "The First Noel",
        "release_date" : "2014-11-01",
        "release_date_precision" : "day",
        "total_tracks" : 17,
        "type" : "album",
        "uri" : "spotify:album:4mHBsMHiPpwXOVm7INAznQ"
      },
      "artists" : [ {
        "external_urls" : {
          "spotify" : "https://open.spotify.com/artist/0Kc16KrkZpiFFQ0srguL05"
        },
        "href" : "https://api.spotify.com/v1/artists/0Kc16KrkZpiFFQ0srguL05",
        "id" : "0Kc16KrkZpiFFQ0srguL05",
        "name" : "The London Christmas Ensemble",
        "type" : "artist",
        "uri" : "spotify:artist:0Kc16KrkZpiFFQ0srguL05"
      } ],
      "disc_number" : 1,
      "duration_ms" : 211800,
      "explicit" : false,
      "external_ids" : {
        "isrc" : "GBJSS1427316"
      },
      "external_urls" : {
        "spotify" : "https://open.spotify.com/track/7niL4FxMdTCqK56PBfJubI"
      },
      "href" : "https://api.spotify.com/v1/tracks/7niL4FxMdTCqK56PBfJubI",
      "id" : "7niL4FxMdTCqK56PBfJubI",
      "is_local" : false,
      "is_playable" : true,
      "name" : "Let Us With a Gladsome Mind",
      "popularity" : 0,
      "preview_url" : "https://p.scdn.co/mp3-preview/657000bcba032795a30cf35c0b8835c635c13070?cid=774b29d4f13844c495f206cafdad9c86",
      "track_number" : 12,
      "type" : "track",
      "uri" : "spotify:track:7niL4FxMdTCqK56PBfJubI"
    }, {
      "album" : {
        "album_type" : "album",
        "artists" : [ {
          "external_urls" : {
            "spotify" : "https://open.spotify.com/artist/08dsaoVeGLJhTdUCgiFIUJ"
          },
          "href" : "https://api.spotify.com/v1/artists/08dsaoVeGLJhTdUCgiFIUJ",
          "id" : "08dsaoVeGLJhTdUCgiFIUJ",
          "name" : "Kevin Mayhew Ltd",
          "type" : "artist",
          "uri" : "spotify:artist:08dsaoVeGLJhTdUCgiFIUJ"
        } ],
        "external_urls" : {
          "spotify" : "https://open.spotify.com/album/6rbbW8kZvFaQfopCWBd8HV"
        },
        "href" : "https://api.spotify.com/v1/albums/6rbbW8kZvFaQfopCWBd8HV",
        "id" : "6rbbW8kZvFaQfopCWBd8HV",
        "images" : [ {
          "height" : 640,
          "url" : "https://i.scdn.co/image/ab67616d0000b273ff27926bfdb0262b51801a0a",
          "width" : 640
        }, {
          "height" : 300,
          "url" : "https://i.scdn.co/image/ab67616d00001e02ff27926bfdb0262b51801a0a",
          "width" : 300
        }, {
          "height" : 64,
          "url" : "https://i.scdn.co/image/ab67616d00004851ff27926bfdb0262b51801a0a",
          "width" : 64
        } ],
        "name" : "No Organist? No Problem! Cd 4",
        "release_date" : "2002-04-15",
        "release_date_precision" : "day",
        "total_tracks" : 21,
        "type" : "album",
        "uri" : "spotify:album:6rbbW8kZvFaQfopCWBd8HV"
      },
      "artists" : [ {
        "external_urls" : {
          "spotify" : "https://open.spotify.com/artist/08dsaoVeGLJhTdUCgiFIUJ"
        },
        "href" : "https://api.spotify.com/v1/artists/08dsaoVeGLJhTdUCgiFIUJ",
        "id" : "08dsaoVeGLJhTdUCgiFIUJ",
        "name" : "Kevin Mayhew Ltd",
        "type" : "artist",
        "uri" : "spotify:artist:08dsaoVeGLJhTdUCgiFIUJ"
      } ],
      "disc_number" : 1,
      "duration_ms" : 176533,
      "explicit" : false,
      "external_ids" : {
        "isrc" : "TCAAY1193050"
      },
      "external_urls" : {
        "spotify" : "https://open.spotify.com/track/4U2VCwQIumlctLi3Nv4BbX"
      },
      "href" : "https://api.spotify.com/v1/tracks/4U2VCwQIumlctLi3Nv4BbX",
      "id" : "4U2VCwQIumlctLi3Nv4BbX",
      "is_local" : false,
      "is_playable" : true,
      "name" : "Let Us, With a Gladsome Mind",
      "popularity" : 0,
      "preview_url" : "https://p.scdn.co/mp3-preview/0aa8ff9ea8d4e660c7521f78b376b250c25a887a?cid=774b29d4f13844c495f206cafdad9c86",
      "track_number" : 11,
      "type" : "track",
      "uri" : "spotify:track:4U2VCwQIumlctLi3Nv4BbX"
    }, {
      "album" : {
        "album_type" : "album",
        "artists" : [ {
          "external_urls" : {
            "spotify" : "https://open.spotify.com/artist/1RRQMvuWQBNWAMVWLIgCLj"
          },
          "href" : "https://api.spotify.com/v1/artists/1RRQMvuWQBNWAMVWLIgCLj",
          "id" : "1RRQMvuWQBNWAMVWLIgCLj",
          "name" : "The Sign Posters",
          "type" : "artist",
          "uri" : "spotify:artist:1RRQMvuWQBNWAMVWLIgCLj"
        } ],
        "external_urls" : {
          "spotify" : "https://open.spotify.com/album/640f0yI0BhV7FlDOlnYbel"
        },
        "href" : "https://api.spotify.com/v1/albums/640f0yI0BhV7FlDOlnYbel",
        "id" : "640f0yI0BhV7FlDOlnYbel",
        "images" : [ {
          "height" : 640,
          "url" : "https://i.scdn.co/image/ab67616d0000b27367c4cb67e5ff3f601ac451ce",
          "width" : 640
        }, {
          "height" : 300,
          "url" : "https://i.scdn.co/image/ab67616d00001e0267c4cb67e5ff3f601ac451ce",
          "width" : 300
        }, {
          "height" : 64,
          "url" : "https://i.scdn.co/image/ab67616d0000485167c4cb67e5ff3f601ac451ce",
          "width" : 64
        } ],
        "name" : "A Celebration of Hymns … 60 Songs of Praise",
        "release_date" : "2011-07-01",
        "release_date_precision" : "day",
        "total_tracks" : 60,
        "type" : "album",
        "uri" : "spotify:album:640f0yI0BhV7FlDOlnYbel"
      },
      "artists" : [ {
        "external_urls" : {
          "spotify" : "https://open.spotify.com/artist/1RRQMvuWQBNWAMVWLIgCLj"
        },
        "href" : "https://api.spotify.com/v1/artists/1RRQMvuWQBNWAMVWLIgCLj",
        "id" : "1RRQMvuWQBNWAMVWLIgCLj",
        "name" : "The Sign Posters",
        "type" : "artist",
        "uri" : "spotify:artist:1RRQMvuWQBNWAMVWLIgCLj"
      } ],
      "disc_number" : 3,
      "duration_ms" : 211800,
      "explicit" : false,
      "external_ids" : {
        "isrc" : "GB8KG1106347"
      },
      "external_urls" : {
        "spotify" : "https://open.spotify.com/track/5WNQLraYMkNnnbB42iR58e"
      },
      "href" : "https://api.spotify.com/v1/tracks/5WNQLraYMkNnnbB42iR58e",
      "id" : "5WNQLraYMkNnnbB42iR58e",
      "is_local" : false,
      "is_playable" : true,
      "name" : "Let Us With a Gladsome Mind",
      "popularity" : 0,
      "preview_url" : "https://p.scdn.co/mp3-preview/c387e67134156fd969de10c06d15044cb89fccdb?cid=774b29d4f13844c495f206cafdad9c86",
      "track_number" : 16,
      "type" : "track",
      "uri" : "spotify:track:5WNQLraYMkNnnbB42iR58e"
    }, {
      "album" : {
        "album_type" : "album",
        "artists" : [ {
          "external_urls" : {
            "spotify" : "https://open.spotify.com/artist/50MXQTlX6avlNBjJIqVuMn"
          },
          "href" : "https://api.spotify.com/v1/artists/50MXQTlX6avlNBjJIqVuMn",
          "id" : "50MXQTlX6avlNBjJIqVuMn",
          "name" : "Viktor Dick",
          "type" : "artist",
          "uri" : "spotify:artist:50MXQTlX6avlNBjJIqVuMn"
        } ],
        "external_urls" : {
          "spotify" : "https://open.spotify.com/album/7n0lqii8tOBPnskNPWCeEr"
        },
        "href" : "https://api.spotify.com/v1/albums/7n0lqii8tOBPnskNPWCeEr",
        "id" : "7n0lqii8tOBPnskNPWCeEr",
        "images" : [ {
          "height" : 640,
          "url" : "https://i.scdn.co/image/ab67616d0000b2731d304536e3df6b02a37fb3c4",
          "width" : 640
        }, {
          "height" : 300,
          "url" : "https://i.scdn.co/image/ab67616d00001e021d304536e3df6b02a37fb3c4",
          "width" : 300
        }, {
          "height" : 64,
          "url" : "https://i.scdn.co/image/ab67616d000048511d304536e3df6b02a37fb3c4",
          "width" : 64
        } ],
        "name" : "Dick: Christian Hymns & Chorals, Vol. 3",
        "release_date" : "2013-08-09",
        "release_date_precision" : "day",
        "total_tracks" : 12,
        "type" : "album",
        "uri" : "spotify:album:7n0lqii8tOBPnskNPWCeEr"
      },
      "artists" : [ {
        "external_urls" : {
          "spotify" : "https://open.spotify.com/artist/50MXQTlX6avlNBjJIqVuMn"
        },
        "href" : "https://api.spotify.com/v1/artists/50MXQTlX6avlNBjJIqVuMn",
        "id" : "50MXQTlX6avlNBjJIqVuMn",
        "name" : "Viktor Dick",
        "type" : "artist",
        "uri" : "spotify:artist:50MXQTlX6avlNBjJIqVuMn"
      } ],
      "disc_number" : 1,
      "duration_ms" : 164650,
      "explicit" : false,
      "external_ids" : {
        "isrc" : "DEAR41328842"
      },
      "external_urls" : {
        "spotify" : "https://open.spotify.com/track/09NEtkpYlYiQwQAH6WvfDb"
      },
      "href" : "https://api.spotify.com/v1/tracks/09NEtkpYlYiQwQAH6WvfDb",
      "id" : "09NEtkpYlYiQwQAH6WvfDb",
      "is_local" : false,
      "is_playable" : true,
      "name" : "Let Us With a Gladsome Mind",
      "popularity" : 1,
      "preview_url" : "https://p.scdn.co/mp3-preview/e11cb707ff31b89888a55a779471de5cbbcf3614?cid=774b29d4f13844c495f206cafdad9c86",
      "track_number" : 6,
      "type" : "track",
      "uri" : "spotify:track:09NEtkpYlYiQwQAH6WvfDb"
    }, {
      "album" : {
        "album_type" : "album",
        "artists" : [ {
          "external_urls" : {
            "spotify" : "https://open.spotify.com/artist/1mG0FpCtlIKnekv8dgUA9A"
          },
          "href" : "https://api.spotify.com/v1/artists/1mG0FpCtlIKnekv8dgUA9A",
          "id" : "1mG0FpCtlIKnekv8dgUA9A",
          "name" : "The Royal Doulton Band",
          "type" : "artist",
          "uri" : "spotify:artist:1mG0FpCtlIKnekv8dgUA9A"
        } ],
        "external_urls" : {
          "spotify" : "https://open.spotify.com/album/1SOZSBrAX8nt3iL1brG3rN"
        },
        "href" : "https://api.spotify.com/v1/albums/1SOZSBrAX8nt3iL1brG3rN",
        "id" : "1SOZSBrAX8nt3iL1brG3rN",
        "images" : [ {
          "height" : 640,
          "url" : "https://i.scdn.co/image/ab67616d0000b27383726267944a363706b11cd0",
          "width" : 640
        }, {
          "height" : 300,
          "url" : "https://i.scdn.co/image/ab67616d00001e0283726267944a363706b11cd0",
          "width" : 300
        }, {
          "height" : 64,
          "url" : "https://i.scdn.co/image/ab67616d0000485183726267944a363706b11cd0",
          "width" : 64
        } ],
        "name" : "Hymns for Band",
        "release_date" : "2017-04-07",
        "release_date_precision" : "day",
        "total_tracks" : 20,
        "type" : "album",
        "uri" : "spotify:album:1SOZSBrAX8nt3iL1brG3rN"
      },
      "artists" : [ {
        "external_urls" : {
          "spotify" : "https://open.spotify.com/artist/1mG0FpCtlIKnekv8dgUA9A"
        },
        "href" : "https://api.spotify.com/v1/artists/1mG0FpCtlIKnekv8dgUA9A",
        "id" : "1mG0FpCtlIKnekv8dgUA9A",
        "name" : "The Royal Doulton Band",
        "type" : "artist",
        "uri" : "spotify:artist:1mG0FpCtlIKnekv8dgUA9A"
      } ],
      "disc_number" : 1,
      "duration_ms" : 111856,
      "explicit" : false,
      "external_ids" : {
        "isrc" : "GB8XC1418129"
      },
      "external_urls" : {
        "spotify" : "https://open.spotify.com/track/2aAnUABKUeeL4vMixxDT0p"
      },
      "href" : "https://api.spotify.com/v1/tracks/2aAnUABKUeeL4vMixxDT0p",
      "id" : "2aAnUABKUeeL4vMixxDT0p",
      "is_local" : false,
      "is_playable" : true,
      "name" : "Let Us with a Gladsome Mind",
      "popularity" : 0,
      "preview_url" : "https://p.scdn.co/mp3-preview/d64f24cd5024a0819850e1c750465979520d2f7b?cid=774b29d4f13844c495f206cafdad9c86",
      "track_number" : 17,
      "type" : "track",
      "uri" : "spotify:track:2aAnUABKUeeL4vMixxDT0p"
    }, {
      "album" : {
        "album_type" : "album",
        "artists" : [ {
          "external_urls" : {
            "spotify" : "https://open.spotify.com/artist/77ZEsL4BR0syv1kn4J5S2x"
          },
          "href" : "https://api.spotify.com/v1/artists/77ZEsL4BR0syv1kn4J5S2x",
          "id" : "77ZEsL4BR0syv1kn4J5S2x",
          "name" : "Riverside Choir, The",
          "type" : "artist",
          "uri" : "spotify:artist:77ZEsL4BR0syv1kn4J5S2x"
        } ],
        "external_urls" : {
          "spotify" : "https://open.spotify.com/album/2HpoEN4KSMZWdIfWwehy6A"
        },
        "href" : "https://api.spotify.com/v1/albums/2HpoEN4KSMZWdIfWwehy6A",
        "id" : "2HpoEN4KSMZWdIfWwehy6A",
        "images" : [ {
          "height" : 640,
          "url" : "https://i.scdn.co/image/ab67616d0000b273db9492e598775d08e9c9abe6",
          "width" : 640
        }, {
          "height" : 300,
          "url" : "https://i.scdn.co/image/ab67616d00001e02db9492e598775d08e9c9abe6",
          "width" : 300
        }, {
          "height" : 64,
          "url" : "https://i.scdn.co/image/ab67616d00004851db9492e598775d08e9c9abe6",
          "width" : 64
        } ],
        "name" : "The Riverside Years, Vol. 2",
        "release_date" : "2011-08-02",
        "release_date_precision" : "day",
        "total_tracks" : 47,
        "type" : "album",
        "uri" : "spotify:album:2HpoEN4KSMZWdIfWwehy6A"
      },
      "artists" : [ {
        "external_urls" : {
          "spotify" : "https://open.spotify.com/artist/6zqrzTMka2irkWU3ieXvV6"
        },
        "href" : "https://api.spotify.com/v1/artists/6zqrzTMka2irkWU3ieXvV6",
        "id" : "6zqrzTMka2irkWU3ieXvV6",
        "name" : "Alan Ridout",
        "type" : "artist",
        "uri" : "spotify:artist:6zqrzTMka2irkWU3ieXvV6"
      }, {
        "external_urls" : {
          "spotify" : "https://open.spotify.com/artist/77ZEsL4BR0syv1kn4J5S2x"
        },
        "href" : "https://api.spotify.com/v1/artists/77ZEsL4BR0syv1kn4J5S2x",
        "id" : "77ZEsL4BR0syv1kn4J5S2x",
        "name" : "Riverside Choir, The",
        "type" : "artist",
        "uri" : "spotify:artist:77ZEsL4BR0syv1kn4J5S2x"
      }, {
        "external_urls" : {
          "spotify" : "https://open.spotify.com/artist/3jnrDSGn6MmbG8a59rqoc8"
        },
        "href" : "https://api.spotify.com/v1/artists/3jnrDSGn6MmbG8a59rqoc8",
        "id" : "3jnrDSGn6MmbG8a59rqoc8",
        "name" : "Frederick Swann",
        "type" : "artist",
        "uri" : "spotify:artist:3jnrDSGn6MmbG8a59rqoc8"
      } ],
      "disc_number" : 3,
      "duration_ms" : 90760,
      "explicit" : false,
      "external_ids" : {
        "isrc" : "USG3E0113144"
      },
      "external_urls" : {
        "spotify" : "https://open.spotify.com/track/4uJi2ibH35g2MqLIgErldO"
      },
      "href" : "https://api.spotify.com/v1/tracks/4uJi2ibH35g2MqLIgErldO",
      "id" : "4uJi2ibH35g2MqLIgErldO",
      "is_local" : false,
      "is_playable" : true,
      "name" : "Let Us with a Gladsome Mind",
      "popularity" : 0,
      "preview_url" : "https://p.scdn.co/mp3-preview/51e587c594e4c917b60fa9e246ddac4c99b72459?cid=774b29d4f13844c495f206cafdad9c86",
      "track_number" : 12,
      "type" : "track",
      "uri" : "spotify:track:4uJi2ibH35g2MqLIgErldO"
    }, {
      "album" : {
        "album_type" : "album",
        "artists" : [ {
          "external_urls" : {
            "spotify" : "https://open.spotify.com/artist/2x0QHABqKaBBvAOzvoevXJ"
          },
          "href" : "https://api.spotify.com/v1/artists/2x0QHABqKaBBvAOzvoevXJ",
          "id" : "2x0QHABqKaBBvAOzvoevXJ",
          "name" : "The Scottish Festival Singers",
          "type" : "artist",
          "uri" : "spotify:artist:2x0QHABqKaBBvAOzvoevXJ"
        } ],
        "external_urls" : {
          "spotify" : "https://open.spotify.com/album/2EfJGYG28S7vPDQz4ZKcEl"
        },
        "href" : "https://api.spotify.com/v1/albums/2EfJGYG28S7vPDQz4ZKcEl",
        "id" : "2EfJGYG28S7vPDQz4ZKcEl",
        "images" : [ {
          "height" : 640,
          "url" : "https://i.scdn.co/image/ab67616d0000b2738244146814d17be46374c8bc",
          "width" : 640
        }, {
          "height" : 300,
          "url" : "https://i.scdn.co/image/ab67616d00001e028244146814d17be46374c8bc",
          "width" : 300
        }, {
          "height" : 64,
          "url" : "https://i.scdn.co/image/ab67616d000048518244146814d17be46374c8bc",
          "width" : 64
        } ],
        "name" : "Timeless Hymns, Vol. 4: Abide With Me",
        "release_date" : "2014-06-17",
        "release_date_precision" : "day",
        "total_tracks" : 15,
        "type" : "album",
        "uri" : "spotify:album:2EfJGYG28S7vPDQz4ZKcEl"
      },
      "artists" : [ {
        "external_urls" : {
          "spotify" : "https://open.spotify.com/artist/2x0QHABqKaBBvAOzvoevXJ"
        },
        "href" : "https://api.spotify.com/v1/artists/2x0QHABqKaBBvAOzvoevXJ",
        "id" : "2x0QHABqKaBBvAOzvoevXJ",
        "name" : "The Scottish Festival Singers",
        "type" : "artist",
        "uri" : "spotify:artist:2x0QHABqKaBBvAOzvoevXJ"
      } ],
      "disc_number" : 1,
      "duration_ms" : 142333,
      "explicit" : false,
      "external_ids" : {
        "isrc" : "USACX1400589"
      },
      "external_urls" : {
        "spotify" : "https://open.spotify.com/track/7hMX6eBpcXkin9zQXMxGKC"
      },
      "href" : "https://api.spotify.com/v1/tracks/7hMX6eBpcXkin9zQXMxGKC",
      "id" : "7hMX6eBpcXkin9zQXMxGKC",
      "is_local" : false,
      "is_playable" : true,
      "name" : "Let Us With A Gladsome Mind",
      "popularity" : 0,
      "preview_url" : "https://p.scdn.co/mp3-preview/80d30a6ef7a5f94fbcfcd98a82263e99c8259e90?cid=774b29d4f13844c495f206cafdad9c86",
      "track_number" : 15,
      "type" : "track",
      "uri" : "spotify:track:7hMX6eBpcXkin9zQXMxGKC"
    }, {
      "album" : {
        "album_type" : "compilation",
        "artists" : [ {
          "external_urls" : {
            "spotify" : "https://open.spotify.com/artist/0LyfQWJT6nXafLPZqxe9Of"
          },
          "href" : "https://api.spotify.com/v1/artists/0LyfQWJT6nXafLPZqxe9Of",
          "id" : "0LyfQWJT6nXafLPZqxe9Of",
          "name" : "Various Artists",
          "type" : "artist",
          "uri" : "spotify:artist:0LyfQWJT6nXafLPZqxe9Of"
        } ],
        "external_urls" : {
          "spotify" : "https://open.spotify.com/album/7DU5xv0OnTJ5oJHVhkPcWO"
        },
        "href" : "https://api.spotify.com/v1/albums/7DU5xv0OnTJ5oJHVhkPcWO",
        "id" : "7DU5xv0OnTJ5oJHVhkPcWO",
        "images" : [ {
          "height" : 640,
          "url" : "https://i.scdn.co/image/ab67616d0000b27381baceb2e4d452065bda36d1",
          "width" : 640
        }, {
          "height" : 300,
          "url" : "https://i.scdn.co/image/ab67616d00001e0281baceb2e4d452065bda36d1",
          "width" : 300
        }, {
          "height" : 64,
          "url" : "https://i.scdn.co/image/ab67616d0000485181baceb2e4d452065bda36d1",
          "width" : 64
        } ],
        "name" : "Praise Be",
        "release_date" : "2014-03-28",
        "release_date_precision" : "day",
        "total_tracks" : 20,
        "type" : "album",
        "uri" : "spotify:album:7DU5xv0OnTJ5oJHVhkPcWO"
      },
      "artists" : [ {
        "external_urls" : {
          "spotify" : "https://open.spotify.com/artist/7zX3dyZt1sV49iXvJh7N0E"
        },
        "href" : "https://api.spotify.com/v1/artists/7zX3dyZt1sV49iXvJh7N0E",
        "id" : "7zX3dyZt1sV49iXvJh7N0E",
        "name" : "Chichester Cathedral Choir",
        "type" : "artist",
        "uri" : "spotify:artist:7zX3dyZt1sV49iXvJh7N0E"
      }, {
        "external_urls" : {
          "spotify" : "https://open.spotify.com/artist/0yXwQOc7QK6fdIvS1T9sgg"
        },
        "href" : "https://api.spotify.com/v1/artists/0yXwQOc7QK6fdIvS1T9sgg",
        "id" : "0yXwQOc7QK6fdIvS1T9sgg",
        "name" : "Ian Thurlow",
        "type" : "artist",
        "uri" : "spotify:artist:0yXwQOc7QK6fdIvS1T9sgg"
      } ],
      "disc_number" : 1,
      "duration_ms" : 84413,
      "explicit" : false,
      "external_ids" : {
        "isrc" : "GBJUT1301832"
      },
      "external_urls" : {
        "spotify" : "https://open.spotify.com/track/05i6XXv3OwcHv2tmVoq1ze"
      },
      "href" : "https://api.spotify.com/v1/tracks/05i6XXv3OwcHv2tmVoq1ze",
      "id" : "05i6XXv3OwcHv2tmVoq1ze",
      "is_local" : false,
      "is_playable" : true,
      "name" : "Let Us With A Gladsome Mind",
      "popularity" : 0,
      "preview_url" : "https://p.scdn.co/mp3-preview/422f62d953bbe85ea9a08333ce0e7b89d1910804?cid=774b29d4f13844c495f206cafdad9c86",
      "track_number" : 6,
      "type" : "track",
      "uri" : "spotify:track:05i6XXv3OwcHv2tmVoq1ze"
    } ],
    "limit" : 10,
    "next" : "https://api.spotify.com/v1/search?query=Let+Us+With+a+Gladsome+Mind&type=track&market=US&offset=15&limit=10",
    "offset" : 5,
    "previous" : "https://api.spotify.com/v1/search?query=Let+Us+With+a+Gladsome+Mind&type=track&market=US&offset=0&limit=10",
    "total" : 56
  }
}