{
  "tracks" : {
    "href" : "https://api.spotify.com/v1/search?query=Near+the+Cross&type=track&market=US&offset=5&limit=10",
    "items" : [ {
      "album" : {
        "album_type" : "album",
        "artists" : [ {
          "external_urls" : {
            "spotify" : "https://open.spotify.com/artist/3B2PSZmAw3xz6cQ2XMXta7"
          },
          "href" : "https://api.spotify.com/v1/artists/3B2PSZmAw3xz6cQ2XMXta7",
          "id" : "3B2PSZmAw3xz6cQ2XMXta7",
          "name" : "Dorothy Norwood",
          "type" : "artist",
          "uri" : "spotify:artist:3B2PSZmAw3xz6cQ2XMXta7"
        } ],
        "external_urls" : {
          "spotify" : "https://open.spotify.com/album/1egSy1pKXmkFZRnyB95ZmP"
        },
        "href" : "https://api.spotify.com/v1/albums/1egSy1pKXmkFZRnyB95ZmP",
        "id" : "1egSy1pKXmkFZRnyB95ZmP",
        "images" : [ {
          "height" : 640,
          "url" : "https://i.scdn.co/image/ab67616d0000b273a4cb7b2d08a7f002d2ee9b78",
          "width" : 640
        }, {
          "height" : 300,
          "url" : "https://i.scdn.co/image/ab67616d00001e02a4cb7b2d08a7f002d2ee9b78",
          "width" : 300
        }, {
          "height" : 64,
          "url" : "https://i.scdn.co/image/ab67616d00004851a4cb7b2d08a7f002d2ee9b78",
          "width" : 64
        } ],
        "name" : "Hattie B's Daughter",
        "release_date" : "1997-04-29",
        "release_date_precision" : "day",
        "total_tracks" : 13,
        "type" : "album",
        "uri" : "spotify:album:1egSy1pKXmkFZRnyB95ZmP"
      },
      "artists" : [ {
        "external_urls" : {
          "spotify" : "https://open.spotify.com/artist/3B2PSZmAw3xz6cQ2XMXta7"
        },
        "href" : "https://api.spotify.com/v1/artists/3B2PSZmAw3xz6cQ2XMXta7",
        "id" : "3B2PSZmAw3xz6cQ2XMXta7",
        "name" : "Dorothy Norwood",
        "type" : "artist",
        "uri" : "spotify:artist:3B2PSZmAw3xz6cQ2XMXta7"
      } ],
      "disc_number" : 1,
      "duration_ms" : 287040,
      "explicit" : false,
      "external_ids" : {
        "isrc" : "USMR50440510"
      },
      "external_urls" : {
        "spotify" : "https://open.spotify.com/track/2QSMSWRVHM3ZOL500ZfLdW"
      },
      "href" : "https://api.spotify.com/v1/tracks/2QSMSWRVHM3ZOL500ZfLdW",
      "id" : "2QSMSWRVHM3ZOL500ZfLdW",
      "is_local" : false,
      "is_playable" : true,
      "name" : "Near The Cross",
      "popularity" : 18,
      "preview_url" : "https://p.scdn.co/mp3-preview/81f84c247cac6541ad130c7f7c14627b25a3bb6e?cid=774b29d4f13844c495f206cafdad9c86",
      "track_number" : 5,
      "type" : "track",
      "uri" : "spotify:track:2QSMSWRVHM3ZOL500ZfLdW"
    }, {
      "album" : {
        "album_type" : "album",
        "artists" : [ {
          "external_urls" : {
            "spotify" : "https://open.spotify.com/artist/6mGZXaZ4SWNh6IsJ57thCp"
          },
          "href" : "https://api.spotify.com/v1/artists/6mGZXaZ4SWNh6IsJ57thCp",
          "id" : "6mGZXaZ4SWNh6IsJ57thCp",
          "name" : "Fernando Ortega",
          "type" : "artist",
          "uri" : "spotify:artist:6mGZXaZ4SWNh6IsJ57thCp"
        } ],
        "external_urls" : {
          "spotify" : "https://open.spotify.com/album/6z9Nqnjlzshre4yCUD2CLf"
        },
        "href" : "https://api.spotify.com/v1/albums/6z9Nqnjlzshre4yCUD2CLf",
        "id" : "6z9Nqnjlzshre4yCUD2CLf",
        "images" : [ {
          "height" : 640,
          "url" : "https://i.scdn.co/image/ab67616d0000b273decae2b70531fb303778b5c5",
          "width" : 640
        }, {
          "height" : 300,
          "url" : "https://i.scdn.co/image/ab67616d00001e02decae2b70531fb303778b5c5",
          "width" : 300
        }, {
          "height" : 64,
          "url" : "https://i.scdn.co/image/ab67616d00004851decae2b70531fb303778b5c5",
          "width" : 64
        } ],
        "name" : "Hymns & Meditations",
        "release_date" : "1994-01-01",
        "release_date_precision" : "day",
        "total_tracks" : 10,
        "type" : "album",
        "uri" : "spotify:album:6z9Nqnjlzshre4yCUD2CLf"
      },
      "artists" : [ {
        "external_urls" : {
          "spotify" : "https://open.spotify.com/artist/6mGZXaZ4SWNh6IsJ57thCp"
        },
        "href" : "https://api.spotify.com/v1/artists/6mGZXaZ4SWNh6IsJ57thCp",
        "id" : "6mGZXaZ4SWNh6IsJ57thCp",
        "name" : "Fernando Ortega",
        "type" : "artist",
        "uri" : "spotify:artist:6mGZXaZ4SWNh6IsJ57thCp"
      } ],
      "disc_number" : 1,
      "duration_ms" : 225466,
      "explicit" : false,
      "external_ids" : {
        "isrc" : "ushm90539259"
      },
      "external_urls" : {
        "spotify" : "https://open.spotify.com/track/2VXiCEBrviMZfsDMpWH810"
      },
      "href" : "https://api.spotify.com/v1/tracks/2VXiCEBrviMZfsDMpWH810",
      "id" : "2VXiCEBrviMZfsDMpWH810",
      "is_local" : false,
      "is_playable" : true,
      "name" : "Near the Cross",
      "popularity" : 18,
      "preview_url" : "https://p.scdn.co/mp3-preview/19eb215d8dbf51686351988dda3dc882b648e933?cid=774b29d4f13844c495f206cafdad9c86",
      "track_number" : 2,
      "type" : "track",
      "uri" : "spotify:track:2VXiCEBrviMZfsDMpWH810"
    }, {
      "album" : {
        "album_type" : "album",
        "artists" : [ {
          "external_urls" : {
            "spotify" : "https://open.spotify.com/artist/5BqP8GSw4yRxyf4ZhG7Arv"
          },
          "href" : "https://api.spotify.com/v1/artists/5BqP8GSw4yRxyf4ZhG7Arv",
          "id" : "5BqP8GSw4yRxyf4ZhG7Arv",
          "name" : "Erin Bates",
          "type" : "artist",
          "uri" : "spotify:artist:5BqP8GSw4yRxyf4ZhG7Arv"
        } ],
        "external_urls" : {
          "spotify" : "https://open.spotify.com/album/76fz5oGczXdcxAbE2OVhnB"
        },
        "href" : "https://api.spotify.com/v1/albums/76fz5oGczXdcxAbE2OVhnB",
        "id" : "76fz5oGczXdcxAbE2OVhnB",
        "images" : [ {
          "height" : 640,
          "url" : "https://i.scdn.co/image/ab67616d0000b27353af1943d024bb55afeab0e7",
          "width" : 640
        }, {
          "height" : 300,
          "url" : "https://i.scdn.co/image/ab67616d00001e0253af1943d024bb55afeab0e7",
          "width" : 300
        }, {
          "height" : 64,
          "url" : "https://i.scdn.co/image/ab67616d0000485153af1943d024bb55afeab0e7",
          "width" : 64
        } ],
        "name" : "Hymns",
        "release_date" : "2019-06-01",
        "release_date_precision" : "day",
        "total_tracks" : 9,
        "type" : "album",
        "uri" : "spotify:album:76fz5oGczXdcxAbE2OVhnB"
      },
      "artists" : [ {
        "external_urls" : {
          "spotify" : "https://open.spotify.com/artist/5BqP8GSw4yRxyf4ZhG7Arv"
        },
        "href" : "https://api.spotify.com/v1/artists/5BqP8GSw4yRxyf4ZhG7Arv",
        "id" : "5BqP8GSw4yRxyf4ZhG7Arv",
        "name" : "Erin Bates",
        "type" : "artist",
        "uri" : "spotify:artist:5BqP8GSw4yRxyf4ZhG7Arv"
      } ],
      "disc_number" : 1,
      "duration_ms" : 306573,
      "explicit" : false,
      "external_ids" : {
        "isrc" : "ushm21939805"
      },
      "external_urls" : {
        "spotify" : "https://open.spotify.com/track/1ulvEaZcproE7hmcTR7m7W"
      },
      "href" : "https://api.spotify.com/v1/tracks/1ulvEaZcproE7hmcTR7m7W",
      "id" : "1ulvEaZcproE7hmcTR7m7W",
      "is_local" : false,
      "is_playable" : true,
      "name" : "Near the Cross",
      "popularity" : 18,
      "preview_url" : "https://p.scdn.co/mp3-preview/69a3021bb7c676d089aad2b59cded2d35dfe528d?cid=774b29d4f13844c495f206cafdad9c86",
      "track_number" : 9,
      "type" : "track",
      "uri" : "spotify:track:1ulvEaZcproE7hmcTR7m7W"
    }, {
      "album" : {
        "album_type" : "album",
        "artists" : [ {
          "external_urls" : {
            "spotify" : "https://open.spotify.com/artist/5Ij0tzLgKrsZjPzyUvVjey"
          },
          "href" : "https://api.spotify.com/v1/artists/5Ij0tzLgKrsZjPzyUvVjey",
          "id" : "5Ij0tzLgKrsZjPzyUvVjey",
          "name" : "The Celebration Choir",
          "type" : "artist",
          "uri" : "spotify:artist:5Ij0tzLgKrsZjPzyUvVjey"
        } ],
        "external_urls" : {
          "spotify" : "https://open.spotify.com/album/3QXYAHzTKxYMVgh1GpQwSd"
        },
        "href" : "https://api.spotify.com/v1/albums/3QXYAHzTKxYMVgh1GpQwSd",
        "id" : "3QXYAHzTKxYMVgh1GpQwSd",
        "images" : [ {
          "height" : 640,
          "url" : "https://i.scdn.co/image/ab67616d0000b2730ef6d88ac756fdde39ccaf60",
          "width" : 640
        }, {
          "height" : 300,
          "url" : "https://i.scdn.co/image/ab67616d00001e020ef6d88ac756fdde39ccaf60",
          "width" : 300
        }, {
          "height" : 64,
          "url" : "https://i.scdn.co/image/ab67616d000048510ef6d88ac756fdde39ccaf60",
          "width" : 64
        } ],
        "name" : "The Hymn Makers: Fanny Crosby (Blessed Assurance)",
        "release_date" : "1995",
        "release_date_precision" : "year",
        "total_tracks" : 14,
        "type" : "album",
        "uri" : "spotify:album:3QXYAHzTKxYMVgh1GpQwSd"
      },
      "artists" : [ {
        "external_urls" : {
          "spotify" : "https://open.spotify.com/artist/5Ij0tzLgKrsZjPzyUvVjey"
        },
        "href" : "https://api.spotify.com/v1/artists/5Ij0tzLgKrsZjPzyUvVjey",
        "id" : "5Ij0tzLgKrsZjPzyUvVjey",
        "name" : "The Celebration Choir",
        "type" : "artist",
        "uri" : "spotify:artist:5Ij0tzLgKrsZjPzyUvVjey"
      } ],
      "disc_number" : 1,
      "duration_ms" : 207933,
      "explicit" : false,
      "external_ids" : {
        "isrc" : "GBBTM9576711"
      },
      "external_urls" : {
        "spotify" : "https://open.spotify.com/track/3pkR5FpllPaHPEMUYQQIem"
      },
      "href" : "https://api.spotify.com/v1/tracks/3pkR5FpllPaHPEMUYQQIem",
      "id" : "3pkR5FpllPaHPEMUYQQIem",
      "is_local" : false,
      "is_playable" : true,
      "name" : "Near The Cross",
      "popularity" : 17,
      "preview_url" : "https://p.scdn.co/mp3-preview/1f7112a96274854c5a3db524aa14d64d861cbf19?cid=774b29d4f13844c495f206cafdad9c86",
      "track_number" : 11,
      "type" : "track",
      "uri" : "spotify:track:3pkR5FpllPaHPEMUYQQIem"
    }, {
      "album" : {
        "album_type" : "album",
        "artists" : [ {
          "external_urls" : {
            "spotify" : "https://open.spotify.com/artist/3PAoiSw2HBTCzSxo84weZ4"
          },
          "href" : "https://api.spotify.com/v1/artists/3PAoiSw2HBTCzSxo84weZ4",
          "id" : "3PAoiSw2HBTCzSxo84weZ4",
          "name" : "Chun Jiyoun",
          "type" : "artist",
          "uri" : "spotify:artist:3PAoiSw2HBTCzSxo84weZ4"
        }, {
          "external_urls" : {
            "spotify" : "https://open.spotify.com/artist/3nXTY7Bkz0gpGfxUPhOdTP"
          },
          "href" : "https://api.spotify.com/v1/artists/3nXTY7Bkz0gpGfxUPhOdTP",
          "id" : "3nXTY7Bkz0gpGfxUPhOdTP",
          "name" : "KTG Park Sanghyun",
          "type" : "artist",
          "uri" : "spotify:artist:3nXTY7Bkz0gpGfxUPhOdTP"
        } ],
        "external_urls" : {
          "spotify" : "https://open.spotify.com/album/3MDKpvj3cXY7q2o7fmqwE7"
        },
        "href" : "https://api.spotify.com/v1/albums/3MDKpvj3cXY7q2o7fmqwE7",
        "id" : "3MDKpvj3cXY7q2o7fmqwE7",
        "images" : [ {
          "height" : 640,
          "url" : "https://i.scdn.co/image/ab67616d0000b2736f878ea2905c2a1231d94a00",
          "width" : 640
        }, {
          "height" : 300,
          "url" : "https://i.scdn.co/image/ab67616d00001e026f878ea2905c2a1231d94a00",
          "width" : 300
        }, {
          "height" : 64,
          "url" : "https://i.scdn.co/image/ab67616d000048516f878ea2905c2a1231d94a00",
          "width" : 64
        } ],
        "name" : "Instrumental Hymns",
        "release_date" : "2016-03-04",
        "release_date_precision" : "day",
        "total_tracks" : 12,
        "type" : "album",
        "uri" : "spotify:album:3MDKpvj3cXY7q2o7fmqwE7"
      },
      "artists" : [ {
        "external_urls" : {
          "spotify" : "https://open.spotify.com/artist/3PAoiSw2HBTCzSxo84weZ4"
        },
        "href" : "https://api.spotify.com/v1/artists/3PAoiSw2HBTCzSxo84weZ4",
        "id" : "3PAoiSw2HBTCzSxo84weZ4",
        "name" : "Chun Jiyoun",
        "type" : "artist",
        "uri" : "spotify:artist:3PAoiSw2HBTCzSxo84weZ4"
      }, {
        "external_urls" : {
          "spotify" : "https://open.spotify.com/artist/3nXTY7Bkz0gpGfxUPhOdTP"
        },
        "href" : "https://api.spotify.com/v1/artists/3nXTY7Bkz0gpGfxUPhOdTP",
        "id" : "3nXTY7Bkz0gpGfxUPhOdTP",
        "name" : "KTG Park Sanghyun",
        "type" : "artist",
        "uri" : "spotify:artist:3nXTY7Bkz0gpGfxUPhOdTP"
      } ],
      "disc_number" : 1,
      "duration_ms" : 212823,
      "explicit" : false,
      "external_ids" : {
        "isrc" : "KRA031212628"
      },
      "external_urls" : {
        "spotify" : "https://open.spotify.com/track/2qW1gpCuaNumRg1rKipTL0"
      },
      "href" : "https://api.spotify.com/v1/tracks/2qW1gpCuaNumRg1rKipTL0",
      "id" : "2qW1gpCuaNumRg1rKipTL0",
      "is_local" : false,
      "is_playable" : true,
      "name" : "Jesus, Keep Me Near the Cross",
      "popularity" : 25,
      "preview_url" : "https://p.scdn.co/mp3-preview/eb23f934e5df76ea640fca508160397b94535b87?cid=774b29d4f13844c495f206cafdad9c86",
      "track_number" : 9,
      "type" : "track",
      "uri" : "spotify:track:2qW1gpCuaNumRg1rKipTL0"
    }, {
      "album" : {
        "album_type" : "single",
        "artists" : [ {
          "external_urls" : {
            "spotify" : "https://open.spotify.com/artist/0S3L6vtzNN4ArFWH2709SB"
          },
          "href" : "https://api.spotify.com/v1/artists/0S3L6vtzNN4ArFWH2709SB",
          "id" : "0S3L6vtzNN4ArFWH2709SB",
          "name" : "Salt Of The Sound",
          "type" : "artist",
          "uri" : "spotify:artist:0S3L6vtzNN4ArFWH2709SB"
        } ],
        "external_urls" : {
          "spotify" : "https://open.spotify.com/album/3Mp355jCOPeTUNvkMuVUnW"
        },
        "href" : "https://api.spotify.com/v1/albums/3Mp355jCOPeTUNvkMuVUnW",
        "id" : "3Mp355jCOPeTUNvkMuVUnW",
        "images" : [ {
          "height" : 640,
          "url" : "https://i.scdn.co/image/ab67616d0000b2733f206955da4b6ce3f21a2404",
          "width" : 640
        }, {
          "height" : 300,
          "url" : "https://i.scdn.co/image/ab67616d00001e023f206955da4b6ce3f21a2404",
          "width" : 300
        }, {
          "height" : 64,
          "url" : "https://i.scdn.co/image/ab67616d000048513f206955da4b6ce3f21a2404",
          "width" : 64
        } ],
        "name" : "From The Steepest Slopes",
        "release_date" : "2016-03-04",
        "release_date_precision" : "day",
        "total_tracks" : 3,
        "type" : "album",
        "uri" : "spotify:album:3Mp355jCOPeTUNvkMuVUnW"
      },
      "artists" : [ {
        "external_urls" : {
          "spotify" : "https://open.spotify.com/artist/0S3L6vtzNN4ArFWH2709SB"
        },
        "href" : "https://api.spotify.com/v1/artists/0S3L6vtzNN4ArFWH2709SB",
        "id" : "0S3L6vtzNN4ArFWH2709SB",
        "name" : "Salt Of The Sound",
        "type" : "artist",
        "uri" : "spotify:artist:0S3L6vtzNN4ArFWH2709SB"
      } ],
      "disc_number" : 1,
      "duration_ms" : 225103,
      "explicit" : false,
      "external_ids" : {
        "isrc" : "GBLFP1574010"
      },
      "external_urls" : {
        "spotify" : "https://open.spotify.com/track/5PNCKp58MhyJgL7b6fYBVR"
      },
      "href" : "https://api.spotify.com/v1/tracks/5PNCKp58MhyJgL7b6fYBVR",
      "id" : "5PNCKp58MhyJgL7b6fYBVR",
      "is_local" : false,
      "is_playable" : true,
      "name" : "Jesus Keep Me Near The Cross",
      "popularity" : 22,
      "preview_url" : "https://p.scdn.co/mp3-preview/53e60ba0157769dddf78d3688503fc74c6d91fcd?cid=774b29d4f13844c495f206cafdad9c86",
      "track_number" : 3,
      "type" : "track",
      "uri" : "spotify:track:5PNCKp58MhyJgL7b6fYBVR"
    }, {
      "album" : {
        "album_type" : "album",
        "artists" : [ {
          "external_urls" : {
            "spotify" : "https://open.spotify.com/artist/5ZQ1IRr5IWLExmkPDW3FeO"
          },
          "href" : "https://api.spotify.com/v1/artists/5ZQ1IRr5IWLExmkPDW3FeO",
          "id" : "5ZQ1IRr5IWLExmkPDW3FeO",
          "name" : "Maïgane Diop",
          "type" : "artist",
          "uri" : "spotify:artist:5ZQ1IRr5IWLExmkPDW3FeO"
        } ],
        "external_urls" : {
          "spotify" : "https://open.spotify.com/album/2lua7D9Av0DSXr6fxgPsXt"
        },
        "href" : "https://api.spotify.com/v1/albums/2lua7D9Av0DSXr6fxgPsXt",
        "id" : "2lua7D9Av0DSXr6fxgPsXt",
        "images" : [ {
          "height" : 640,
          "url" : "https://i.scdn.co/image/ab67616d0000b2738311c1d3692964fefbd03357",
          "width" : 640
        }, {
          "height" : 300,
          "url" : "https://i.scdn.co/image/ab67616d00001e028311c1d3692964fefbd03357",
          "width" : 300
        }, {
          "height" : 64,
          "url" : "https://i.scdn.co/image/ab67616d000048518311c1d3692964fefbd03357",
          "width" : 64
        } ],
        "name" : "Forward",
        "release_date" : "2020-05-22",
        "release_date_precision" : "day",
        "total_tracks" : 8,
        "type" : "album",
        "uri" : "spotify:album:2lua7D9Av0DSXr6fxgPsXt"
      },
      "artists" : [ {
        "external_urls" : {
          "spotify" : "https://open.spotify.com/artist/5ZQ1IRr5IWLExmkPDW3FeO"
        },
        "href" : "https://api.spotify.com/v1/artists/5ZQ1IRr5IWLExmkPDW3FeO",
        "id" : "5ZQ1IRr5IWLExmkPDW3FeO",
        "name" : "Maïgane Diop",
        "type" : "artist",
        "uri" : "spotify:artist:5ZQ1IRr5IWLExmkPDW3FeO"
      } ],
      "disc_number" : 1,
      "duration_ms" : 281506,
      "explicit" : false,
      "external_ids" : {
        "isrc" : "TCAEW2094590"
      },
      "external_urls" : {
        "spotify" : "https://open.spotify.com/track/5Q9bknUDB4geG4YQkY0oKv"
      },
      "href" : "https://api.spotify.com/v1/tracks/5Q9bknUDB4geG4YQkY0oKv",
      "id" : "5Q9bknUDB4geG4YQkY0oKv",
      "is_local" : false,
      "is_playable" : true,
      "name" : "Near the Cross",
      "popularity" : 1,
      "preview_url" : "https://p.scdn.co/mp3-preview/a560450d31a1415b58bfd9eb2c8b307e85e3af2a?cid=774b29d4f13844c495f206cafdad9c86",
      "track_number" : 3,
      "type" : "track",
      "uri" : "spotify:track:5Q9bknUDB4geG4YQkY0oKv"
    }, {
      "album" : {
        "album_type" : "album",
        "artists" : [ {
          "external_urls" : {
            "spotify" : "https://open.spotify.com/artist/2QbOmHGXuu6YicESTiz3ck"
          },
          "href" : "https://api.spotify.com/v1/artists/2QbOmHGXuu6YicESTiz3ck",
          "id" : "2QbOmHGXuu6YicESTiz3ck",
          "name" : "The Fairfield Four",
          "type" : "artist",
          "uri" : "spotify:artist:2QbOmHGXuu6YicESTiz3ck"
        } ],
        "external_urls" : {
          "spotify" : "https://open.spotify.com/album/6GDn90nWh1zpQfHYme9QGA"
        },
        "href" : "https://api.spotify.com/v1/albums/6GDn90nWh1zpQfHYme9QGA",
        "id" : "6GDn90nWh1zpQfHYme9QGA",
        "images" : [ {
          "height" : 640,
          "url" : "https://i.scdn.co/image/ab67616d0000b273b8d0e8d152e90b46c5586024",
          "width" : 640
        }, {
          "height" : 300,
          "url" : "https://i.scdn.co/image/ab67616d00001e02b8d0e8d152e90b46c5586024",
          "width" : 300
        }, {
          "height" : 64,
          "url" : "https://i.scdn.co/image/ab67616d00004851b8d0e8d152e90b46c5586024",
          "width" : 64
        } ],
        "name" : "Standing In the Safety Zone",
        "release_date" : "1992-05-26",
        "release_date_precision" : "day",
        "total_tracks" : 11,
        "type" : "album",
        "uri" : "spotify:album:6GDn90nWh1zpQfHYme9QGA"
      },
      "artists" : [ {
        "external_urls" : {
          "spotify" : "https://open.spotify.com/artist/2QbOmHGXuu6YicESTiz3ck"
        },
        "href" : "https://api.spotify.com/v1/artists/2QbOmHGXuu6YicESTiz3ck",
        "id" : "2QbOmHGXuu6YicESTiz3ck",
        "name" : "The Fairfield Four",
        "type" : "artist",
        "uri" : "spotify:artist:2QbOmHGXuu6YicESTiz3ck"
      } ],
      "disc_number" : 1,
      "duration_ms" : 331520,
      "explicit" : false,
      "external_ids" : {
        "isrc" : "USWB10105209"
      },
      "external_urls" : {
        "spotify" : "https://open.spotify.com/track/6htnpfCMtmEpEHyWcZXnFe"
      },
      "href" : "https://api.spotify.com/v1/tracks/6htnpfCMtmEpEHyWcZXnFe",
      "id" : "6htnpfCMtmEpEHyWcZXnFe",
      "is_local" : false,
      "is_playable" : true,
      "name" : "Keep Me Near the Cross (Servant's Prayer)",
      "popularity" : 20,
      "preview_url" : "https://p.scdn.co/mp3-preview/b1cf9838d50b135d74ced36346e870d840955705?cid=774b29d4f13844c495f206cafdad9c86",
      "track_number" : 5,
      "type" : "track",
      "uri" : "spotify:track:6htnpfCMtmEpEHyWcZXnFe"
    }, {
      "album" : {
        "album_type" : "album",
        "artists" : [ {
          "external_urls" : {
            "spotify" : "https://open.spotify.com/artist/3kTcyaSYP5fqlqrNUvxiER"
          },
          "href" : "https://api.spotify.com/v1/artists/3kTcyaSYP5fqlqrNUvxiER",
          "id" : "3kTcyaSYP5fqlqrNUvxiER",
          "name" : "Carman",
          "type" : "artist",
          "uri" : "spotify:artist:3kTcyaSYP5fqlqrNUvxiER"
        } ],
        "external_urls" : {
          "spotify" : "https://open.spotify.com/album/0u5Fam1kPUizgELst805d2"
        },
        "href" : "https://api.spotify.com/v1/albums/0u5Fam1kPUizgELst805d2",
        "id" : "0u5Fam1kPUizgELst805d2",
        "images" : [ {
          "height" : 640,
          "url" : "https://i.scdn.co/image/ab67616d0000b27328857ece91c8d412e4437e30",
          "width" : 640
        }, {
          "height" : 300,
          "url" : "https://i.scdn.co/image/ab67616d00001e0228857ece91c8d412e4437e30",
          "width" : 300
        }, {
          "height" : 64,
          "url" : "https://i.scdn.co/image/ab67616d0000485128857ece91c8d412e4437e30",
          "width" : 64
        } ],
        "name" : "I Surrender All 30 Classic Hymns",
        "release_date" : "1997-01-01",
        "release_date_precision" : "day",
        "total_tracks" : 15,
        "type" : "album",
        "uri" : "spotify:album:0u5Fam1kPUizgELst805d2"
      },
      "artists" : [ {
        "external_urls" : {
          "spotify" : "https://open.spotify.com/artist/3kTcyaSYP5fqlqrNUvxiER"
        },
        "href" : "https://api.spotify.com/v1/artists/3kTcyaSYP5fqlqrNUvxiER",
        "id" : "3kTcyaSYP5fqlqrNUvxiER",
        "name" : "Carman",
        "type" : "artist",
        "uri" : "spotify:artist:3kTcyaSYP5fqlqrNUvxiER"
      } ],
      "disc_number" : 1,
      "duration_ms" : 133800,
      "explicit" : false,
      "external_ids" : {
        "isrc" : "USSP39755889"
      },
      "external_urls" : {
        "spotify" : "https://open.spotify.com/track/1h6O3OBV8SveOqVkHQ5zwP"
      },
      "href" : "https://api.spotify.com/v1/tracks/1h6O3OBV8SveOqVkHQ5zwP",
      "id" : "1h6O3OBV8SveOqVkHQ5zwP",
      "is_local" : false,
      "is_playable" : true,
      "name" : "Jesus, Keep Me Near The Cross",
      "popularity" : 19,
      "preview_url" : null,
      "track_number" : 4,
      "type" : "track",
      "uri" : "spotify:track:1h6O3OBV8SveOqVkHQ5zwP"
    }, {
      "album" : {
        "album_type" : "album",
        "artists" : [ {
          "external_urls" : {
            "spotify" : "https://open.spotify.com/artist/3Qp9Qtdb5G8QYHWfe5qxi0"
          },
          "href" : "https://api.spotify.com/v1/artists/3Qp9Qtdb5G8QYHWfe5qxi0",
          "id" : "3Qp9Qtdb5G8QYHWfe5qxi0",
          "name" : "Ernie Haase & Signature Sound",
          "type" : "artist",
          "uri" : "spotify:artist:3Qp9Qtdb5G8QYHWfe5qxi0"
        } ],
        "external_urls" : {
          "spotify" : "https://open.spotify.com/album/13DHCwPmwdz4zVZkgEnG4n"
        },
        "href" : "https://api.spotify.com/v1/albums/13DHCwPmwdz4zVZkgEnG4n",
        "id" : "13DHCwPmwdz4zVZkgEnG4n",
        "images" : [ {
          "height" : 640,
          "url" : "https://i.scdn.co/image/ab67616d0000b273c2ad65afeceed96fa9ac47e1",
          "width" : 640
        }, {
          "height" : 300,
          "url" : "https://i.scdn.co/image/ab67616d00001e02c2ad65afeceed96fa9ac47e1",
          "width" : 300
        }, {
          "height" : 64,
          "url" : "https://i.scdn.co/image/ab67616d00004851c2ad65afeceed96fa9ac47e1",
          "width" : 64
        } ],
        "name" : "The Favorite Hymns of Fanny Crosby",
        "release_date" : "2016-05-06",
        "release_date_precision" : "day",
        "total_tracks" : 8,
        "type" : "album",
        "uri" : "spotify:album:13DHCwPmwdz4zVZkgEnG4n"
      },
      "artists" : [ {
        "external_urls" : {
          "spotify" : "https://open.spotify.com/artist/3Qp9Qtdb5G8QYHWfe5qxi0"
        },
        "href" : "https://api.spotify.com/v1/artists/3Qp9Qtdb5G8QYHWfe5qxi0",
        "id" : "3Qp9Qtdb5G8QYHWfe5qxi0",
        "name" : "Ernie Haase & Signature Sound",
        "type" : "artist",
        "uri" : "spotify:artist:3Qp9Qtdb5G8QYHWfe5qxi0"
      } ],
      "disc_number" : 1,
      "duration_ms" : 244853,
      "explicit" : false,
      "external_ids" : {
        "isrc" : "USC5G1600030"
      },
      "external_urls" : {
        "spotify" : "https://open.spotify.com/track/3a24pqoic1XWeYJK8QUOtC"
      },
      "href" : "https://api.spotify.com/v1/tracks/3a24pqoic1XWeYJK8QUOtC",
      "id" : "3a24pqoic1XWeYJK8QUOtC",
      "is_local" : false,
      "is_playable" : true,
      "name" : "Jesus, Keep Me Near the Cross / In the Cross",
      "popularity" : 21,
      "preview_url" : "https://p.scdn.co/mp3-preview/2ab3951767ce6059e2ae1c2a39757d40500d3aed?cid=774b29d4f13844c495f206cafdad9c86",
      "track_number" : 4,
      "type" : "track",
      "uri" : "spotify:track:3a24pqoic1XWeYJK8QUOtC"
    } ],
    "limit" : 10,
    "next" : "https://api.spotify.com/v1/search?query=Near+the+Cross&type=track&market=US&offset=15&limit=10",
    "offset" : 5,
    "previous" : "https://api.spotify.com/v1/search?query=Near+the+Cross&type=track&market=US&offset=0&limit=10",
    "total" : 1020
  }
}