{
  "tracks" : {
    "href" : "https://api.spotify.com/v1/search?query=Break+Forth%2C+O+Beauteous+Heavenly+Light&type=track&market=US&offset=5&limit=10",
    "items" : [ {
      "album" : {
        "album_type" : "album",
        "artists" : [ {
          "external_urls" : {
            "spotify" : "https://open.spotify.com/artist/2uxYp5lsPE9t297UIoxAJz"
          },
          "href" : "https://api.spotify.com/v1/artists/2uxYp5lsPE9t297UIoxAJz",
          "id" : "2uxYp5lsPE9t297UIoxAJz",
          "name" : "Frontline Music",
          "type" : "artist",
          "uri" : "spotify:artist:2uxYp5lsPE9t297UIoxAJz"
        } ],
        "external_urls" : {
          "spotify" : "https://open.spotify.com/album/7kwo0Mf73mSVw4Sy5MiWZn"
        },
        "href" : "https://api.spotify.com/v1/albums/7kwo0Mf73mSVw4Sy5MiWZn",
        "id" : "7kwo0Mf73mSVw4Sy5MiWZn",
        "images" : [ {
          "height" : 640,
          "url" : "https://i.scdn.co/image/ab67616d0000b273af56f7bef3106d8b9439ff77",
          "width" : 640
        }, {
          "height" : 300,
          "url" : "https://i.scdn.co/image/ab67616d00001e02af56f7bef3106d8b9439ff77",
          "width" : 300
        }, {
          "height" : 64,
          "url" : "https://i.scdn.co/image/ab67616d00004851af56f7bef3106d8b9439ff77",
          "width" : 64
        } ],
        "name" : "The Cradle",
        "release_date" : "2016-11-01",
        "release_date_precision" : "day",
        "total_tracks" : 12,
        "type" : "album",
        "uri" : "spotify:album:7kwo0Mf73mSVw4Sy5MiWZn"
      },
      "artists" : [ {
        "external_urls" : {
          "spotify" : "https://open.spotify.com/artist/2uxYp5lsPE9t297UIoxAJz"
        },
        "href" : "https://api.spotify.com/v1/artists/2uxYp5lsPE9t297UIoxAJz",
        "id" : "2uxYp5lsPE9t297UIoxAJz",
        "name" : "Frontline Music",
        "type" : "artist",
        "uri" : "spotify:artist:2uxYp5lsPE9t297UIoxAJz"
      } ],
      "disc_number" : 1,
      "duration_ms" : 371600,
      "explicit" : false,
      "external_ids" : {
        "isrc" : "USDHM1626975"
      },
      "external_urls" : {
        "spotify" : "https://open.spotify.com/track/3RoCtjqWl40XDBOt1cUZGs"
      },
      "href" : "https://api.spotify.com/v1/tracks/3RoCtjqWl40XDBOt1cUZGs",
      "id" : "3RoCtjqWl40XDBOt1cUZGs",
      "is_local" : false,
      "is_playable" : true,
      "name" : "Come Thou Long Expected Jesus (Break Forth O Beauteous Heavenly Light)",
      "popularity" : 3,
      "preview_url" : "https://p.scdn.co/mp3-preview/cdf2a32534eedf796f39a510aca3aaede9290f32?cid=774b29d4f13844c495f206cafdad9c86",
      "track_number" : 3,
      "type" : "track",
      "uri" : "spotify:track:3RoCtjqWl40XDBOt1cUZGs"
    }, {
      "album" : {
        "album_type" : "album",
        "artists" : [ {
          "external_urls" : {
            "spotify" : "https://open.spotify.com/artist/2vp7SKHsKTyRSKVb1I7xna"
          },
          "href" : "https://api.spotify.com/v1/artists/2vp7SKHsKTyRSKVb1I7xna",
          "id" : "2vp7SKHsKTyRSKVb1I7xna",
          "name" : "Francesco Digilio",
          "type" : "artist",
          "uri" : "spotify:artist:2vp7SKHsKTyRSKVb1I7xna"
        } ],
        "external_urls" : {
          "spotify" : "https://open.spotify.com/album/5qUaRxDUmU0Bo4L6M4AroQ"
        },
        "href" : "https://api.spotify.com/v1/albums/5qUaRxDUmU0Bo4L6M4AroQ",
        "id" : "5qUaRxDUmU0Bo4L6M4AroQ",
        "images" : [ {
          "height" : 640,
          "url" : "https://i.scdn.co/image/ab67616d0000b2730433ca5d31bde7759bc6dee2",
          "width" : 640
        }, {
          "height" : 300,
          "url" : "https://i.scdn.co/image/ab67616d00001e020433ca5d31bde7759bc6dee2",
          "width" : 300
        }, {
          "height" : 64,
          "url" : "https://i.scdn.co/image/ab67616d000048510433ca5d31bde7759bc6dee2",
          "width" : 64
        } ],
        "name" : "Classical Christmas Piano Solo",
        "release_date" : "2018-11-08",
        "release_date_precision" : "day",
        "total_tracks" : 15,
        "type" : "album",
        "uri" : "spotify:album:5qUaRxDUmU0Bo4L6M4AroQ"
      },
      "artists" : [ {
        "external_urls" : {
          "spotify" : "https://open.spotify.com/artist/2vp7SKHsKTyRSKVb1I7xna"
        },
        "href" : "https://api.spotify.com/v1/artists/2vp7SKHsKTyRSKVb1I7xna",
        "id" : "2vp7SKHsKTyRSKVb1I7xna",
        "name" : "Francesco Digilio",
        "type" : "artist",
        "uri" : "spotify:artist:2vp7SKHsKTyRSKVb1I7xna"
      } ],
      "disc_number" : 1,
      "duration_ms" : 160484,
      "explicit" : false,
      "external_ids" : {
        "isrc" : "ITH401802669"
      },
      "external_urls" : {
        "spotify" : "https://open.spotify.com/track/0fDBo3bDehSnsnPSAElUDi"
      },
      "href" : "https://api.spotify.com/v1/tracks/0fDBo3bDehSnsnPSAElUDi",
      "id" : "0fDBo3bDehSnsnPSAElUDi",
      "is_local" : false,
      "is_playable" : true,
      "name" : "Break Forth O Beauteous Heavenly Light",
      "popularity" : 0,
      "preview_url" : "https://p.scdn.co/mp3-preview/445e72153cb4f8bdd1afa2bc216dc28ced6718cf?cid=774b29d4f13844c495f206cafdad9c86",
      "track_number" : 2,
      "type" : "track",
      "uri" : "spotify:track:0fDBo3bDehSnsnPSAElUDi"
    }, {
      "album" : {
        "album_type" : "album",
        "artists" : [ {
          "external_urls" : {
            "spotify" : "https://open.spotify.com/artist/1IYk7Dbm3X8vVAgrK8tNbv"
          },
          "href" : "https://api.spotify.com/v1/artists/1IYk7Dbm3X8vVAgrK8tNbv",
          "id" : "1IYk7Dbm3X8vVAgrK8tNbv",
          "name" : "Eric Wyse",
          "type" : "artist",
          "uri" : "spotify:artist:1IYk7Dbm3X8vVAgrK8tNbv"
        }, {
          "external_urls" : {
            "spotify" : "https://open.spotify.com/artist/1iEr9JmktmIMlaDLcSZFAL"
          },
          "href" : "https://api.spotify.com/v1/artists/1iEr9JmktmIMlaDLcSZFAL",
          "id" : "1iEr9JmktmIMlaDLcSZFAL",
          "name" : "The London Fox Players",
          "type" : "artist",
          "uri" : "spotify:artist:1iEr9JmktmIMlaDLcSZFAL"
        }, {
          "external_urls" : {
            "spotify" : "https://open.spotify.com/artist/3nVuKuA6CSBkMWO0SOhiZa"
          },
          "href" : "https://api.spotify.com/v1/artists/3nVuKuA6CSBkMWO0SOhiZa",
          "id" : "3nVuKuA6CSBkMWO0SOhiZa",
          "name" : "Jenny Crook",
          "type" : "artist",
          "uri" : "spotify:artist:3nVuKuA6CSBkMWO0SOhiZa"
        } ],
        "external_urls" : {
          "spotify" : "https://open.spotify.com/album/0caaHiGDw5fg4Noj338X6c"
        },
        "href" : "https://api.spotify.com/v1/albums/0caaHiGDw5fg4Noj338X6c",
        "id" : "0caaHiGDw5fg4Noj338X6c",
        "images" : [ {
          "height" : 640,
          "url" : "https://i.scdn.co/image/ab67616d0000b273b09c16935c2aa136c88d553f",
          "width" : 640
        }, {
          "height" : 300,
          "url" : "https://i.scdn.co/image/ab67616d00001e02b09c16935c2aa136c88d553f",
          "width" : 300
        }, {
          "height" : 64,
          "url" : "https://i.scdn.co/image/ab67616d00004851b09c16935c2aa136c88d553f",
          "width" : 64
        } ],
        "name" : "Christmas Peace, Vol. 1: Solo Piano, Solo Guitar & Solo Harp",
        "release_date" : "2013-10-29",
        "release_date_precision" : "day",
        "total_tracks" : 60,
        "type" : "album",
        "uri" : "spotify:album:0caaHiGDw5fg4Noj338X6c"
      },
      "artists" : [ {
        "external_urls" : {
          "spotify" : "https://open.spotify.com/artist/1iEr9JmktmIMlaDLcSZFAL"
        },
        "href" : "https://api.spotify.com/v1/artists/1iEr9JmktmIMlaDLcSZFAL",
        "id" : "1iEr9JmktmIMlaDLcSZFAL",
        "name" : "The London Fox Players",
        "type" : "artist",
        "uri" : "spotify:artist:1iEr9JmktmIMlaDLcSZFAL"
      } ],
      "disc_number" : 2,
      "duration_ms" : 130000,
      "explicit" : false,
      "external_ids" : {
        "isrc" : "USG5S1270826"
      },
      "external_urls" : {
        "spotify" : "https://open.spotify.com/track/1iRb02uOxrBBQvtznY5tDr"
      },
      "href" : "https://api.spotify.com/v1/tracks/1iRb02uOxrBBQvtznY5tDr",
      "id" : "1iRb02uOxrBBQvtznY5tDr",
      "is_local" : false,
      "is_playable" : true,
      "name" : "Break Forth O Beauteous Heavenly Light",
      "popularity" : 0,
      "preview_url" : "https://p.scdn.co/mp3-preview/8dead4323fc6958287d86dff6ee6e776bbd61439?cid=774b29d4f13844c495f206cafdad9c86",
      "track_number" : 6,
      "type" : "track",
      "uri" : "spotify:track:1iRb02uOxrBBQvtznY5tDr"
    }, {
      "album" : {
        "album_type" : "compilation",
        "artists" : [ {
          "external_urls" : {
            "spotify" : "https://open.spotify.com/artist/0LyfQWJT6nXafLPZqxe9Of"
          },
          "href" : "https://api.spotify.com/v1/artists/0LyfQWJT6nXafLPZqxe9Of",
          "id" : "0LyfQWJT6nXafLPZqxe9Of",
          "name" : "Various Artists",
          "type" : "artist",
          "uri" : "spotify:artist:0LyfQWJT6nXafLPZqxe9Of"
        } ],
        "external_urls" : {
          "spotify" : "https://open.spotify.com/album/6cA1IghG9TZU4Z6pHrFK49"
        },
        "href" : "https://api.spotify.com/v1/albums/6cA1IghG9TZU4Z6pHrFK49",
        "id" : "6cA1IghG9TZU4Z6pHrFK49",
        "images" : [ {
          "height" : 640,
          "url" : "https://i.scdn.co/image/ab67616d0000b273a1652e7585be659713485bf7",
          "width" : 640
        }, {
          "height" : 300,
          "url" : "https://i.scdn.co/image/ab67616d00001e02a1652e7585be659713485bf7",
          "width" : 300
        }, {
          "height" : 64,
          "url" : "https://i.scdn.co/image/ab67616d00004851a1652e7585be659713485bf7",
          "width" : 64
        } ],
        "name" : "Christmas At Home: Holiday Morning, Vol. 5",
        "release_date" : "2015-10-02",
        "release_date_precision" : "day",
        "total_tracks" : 11,
        "type" : "album",
        "uri" : "spotify:album:6cA1IghG9TZU4Z6pHrFK49"
      },
      "artists" : [ {
        "external_urls" : {
          "spotify" : "https://open.spotify.com/artist/2ZGBiPhqQOROKS3kolu7HD"
        },
        "href" : "https://api.spotify.com/v1/artists/2ZGBiPhqQOROKS3kolu7HD",
        "id" : "2ZGBiPhqQOROKS3kolu7HD",
        "name" : "Ivar Lunde",
        "type" : "artist",
        "uri" : "spotify:artist:2ZGBiPhqQOROKS3kolu7HD"
      }, {
        "external_urls" : {
          "spotify" : "https://open.spotify.com/artist/5pHjoNsLcHN11797lBuFz2"
        },
        "href" : "https://api.spotify.com/v1/artists/5pHjoNsLcHN11797lBuFz2",
        "id" : "5pHjoNsLcHN11797lBuFz2",
        "name" : "Nanette Lunde",
        "type" : "artist",
        "uri" : "spotify:artist:5pHjoNsLcHN11797lBuFz2"
      } ],
      "disc_number" : 1,
      "duration_ms" : 135960,
      "explicit" : false,
      "external_ids" : {
        "isrc" : "USA561132562"
      },
      "external_urls" : {
        "spotify" : "https://open.spotify.com/track/1oTDpuKAPeMeRINFGdczMF"
      },
      "href" : "https://api.spotify.com/v1/tracks/1oTDpuKAPeMeRINFGdczMF",
      "id" : "1oTDpuKAPeMeRINFGdczMF",
      "is_local" : false,
      "is_playable" : true,
      "name" : "Break Forth, O' Beauteous Heavenly Light",
      "popularity" : 0,
      "preview_url" : "https://p.scdn.co/mp3-preview/d4c27ed75d2e5027d4bb5b7a4d95f17347600cad?cid=774b29d4f13844c495f206cafdad9c86",
      "track_number" : 7,
      "type" : "track",
      "uri" : "spotify:track:1oTDpuKAPeMeRINFGdczMF"
    }, {
      "album" : {
        "album_type" : "album",
        "artists" : [ {
          "external_urls" : {
            "spotify" : "https://open.spotify.com/artist/38LN2lJaizAdjro65cah77"
          },
          "href" : "https://api.spotify.com/v1/artists/38LN2lJaizAdjro65cah77",
          "id" : "38LN2lJaizAdjro65cah77",
          "name" : "Andy Ketch",
          "type" : "artist",
          "uri" : "spotify:artist:38LN2lJaizAdjro65cah77"
        } ],
        "external_urls" : {
          "spotify" : "https://open.spotify.com/album/0W6VcroiXjCVKRygaE7oB8"
        },
        "href" : "https://api.spotify.com/v1/albums/0W6VcroiXjCVKRygaE7oB8",
        "id" : "0W6VcroiXjCVKRygaE7oB8",
        "images" : [ {
          "height" : 640,
          "url" : "https://i.scdn.co/image/ab67616d0000b2736d5c5c62ad0148f7126450f8",
          "width" : 640
        }, {
          "height" : 300,
          "url" : "https://i.scdn.co/image/ab67616d00001e026d5c5c62ad0148f7126450f8",
          "width" : 300
        }, {
          "height" : 64,
          "url" : "https://i.scdn.co/image/ab67616d000048516d5c5c62ad0148f7126450f8",
          "width" : 64
        } ],
        "name" : "New Comfort",
        "release_date" : "2018-03-30",
        "release_date_precision" : "day",
        "total_tracks" : 10,
        "type" : "album",
        "uri" : "spotify:album:0W6VcroiXjCVKRygaE7oB8"
      },
      "artists" : [ {
        "external_urls" : {
          "spotify" : "https://open.spotify.com/artist/38LN2lJaizAdjro65cah77"
        },
        "href" : "https://api.spotify.com/v1/artists/38LN2lJaizAdjro65cah77",
        "id" : "38LN2lJaizAdjro65cah77",
        "name" : "Andy Ketch",
        "type" : "artist",
        "uri" : "spotify:artist:38LN2lJaizAdjro65cah77"
      } ],
      "disc_number" : 1,
      "duration_ms" : 160621,
      "explicit" : false,
      "external_ids" : {
        "isrc" : "QZFYY2046153"
      },
      "external_urls" : {
        "spotify" : "https://open.spotify.com/track/349iT7J3YXsfjLPypV8xFL"
      },
      "href" : "https://api.spotify.com/v1/tracks/349iT7J3YXsfjLPypV8xFL",
      "id" : "349iT7J3YXsfjLPypV8xFL",
      "is_local" : false,
      "is_playable" : true,
      "name" : "Break Forth, O Beauteous Heavenly Light",
      "popularity" : 0,
      "preview_url" : "https://p.scdn.co/mp3-preview/6ec35605f23e30c46a5efb9f9f8c21546f9372aa?cid=774b29d4f13844c495f206cafdad9c86",
      "track_number" : 10,
      "type" : "track",
      "uri" : "spotify:track:349iT7J3YXsfjLPypV8xFL"
    }, {
      "album" : {
        "album_type" : "album",
        "artists" : [ {
          "external_urls" : {
            "spotify" : "https://open.spotify.com/artist/41N4x8ZUxk7JkHORj8M3bd"
          },
          "href" : "https://api.spotify.com/v1/artists/41N4x8ZUxk7JkHORj8M3bd",
          "id" : "41N4x8ZUxk7JkHORj8M3bd",
          "name" : "Concordia Publishing House",
          "type" : "artist",
          "uri" : "spotify:artist:41N4x8ZUxk7JkHORj8M3bd"
        } ],
        "external_urls" : {
          "spotify" : "https://open.spotify.com/album/4y2qFRdLx7wvUxRGajlLZ0"
        },
        "href" : "https://api.spotify.com/v1/albums/4y2qFRdLx7wvUxRGajlLZ0",
        "id" : "4y2qFRdLx7wvUxRGajlLZ0",
        "images" : [ {
          "height" : 640,
          "url" : "https://i.scdn.co/image/ab67616d0000b2738e04186207abbc48605d33d2",
          "width" : 640
        }, {
          "height" : 300,
          "url" : "https://i.scdn.co/image/ab67616d00001e028e04186207abbc48605d33d2",
          "width" : 300
        }, {
          "height" : 64,
          "url" : "https://i.scdn.co/image/ab67616d000048518e04186207abbc48605d33d2",
          "width" : 64
        } ],
        "name" : "Heirs of the Reformation: Treasures of the Singing Church",
        "release_date" : "2009-02-09",
        "release_date_precision" : "day",
        "total_tracks" : 45,
        "type" : "album",
        "uri" : "spotify:album:4y2qFRdLx7wvUxRGajlLZ0"
      },
      "artists" : [ {
        "external_urls" : {
          "spotify" : "https://open.spotify.com/artist/41N4x8ZUxk7JkHORj8M3bd"
        },
        "href" : "https://api.spotify.com/v1/artists/41N4x8ZUxk7JkHORj8M3bd",
        "id" : "41N4x8ZUxk7JkHORj8M3bd",
        "name" : "Concordia Publishing House",
        "type" : "artist",
        "uri" : "spotify:artist:41N4x8ZUxk7JkHORj8M3bd"
      } ],
      "disc_number" : 2,
      "duration_ms" : 196173,
      "explicit" : false,
      "external_ids" : {
        "isrc" : "US2SL0900014"
      },
      "external_urls" : {
        "spotify" : "https://open.spotify.com/track/36bekCSwm6FTwVgffSYtao"
      },
      "href" : "https://api.spotify.com/v1/tracks/36bekCSwm6FTwVgffSYtao",
      "id" : "36bekCSwm6FTwVgffSYtao",
      "is_local" : false,
      "is_playable" : true,
      "name" : "Break Forth, O Beauteous Heavenly Light",
      "popularity" : 1,
      "preview_url" : "https://p.scdn.co/mp3-preview/73dcdd2eb599ed4795291de59947c3504c484c37?cid=774b29d4f13844c495f206cafdad9c86",
      "track_number" : 2,
      "type" : "track",
      "uri" : "spotify:track:36bekCSwm6FTwVgffSYtao"
    }, {
      "album" : {
        "album_type" : "album",
        "artists" : [ {
          "external_urls" : {
            "spotify" : "https://open.spotify.com/artist/1mNCPNmJa9a5KuslOZuinF"
          },
          "href" : "https://api.spotify.com/v1/artists/1mNCPNmJa9a5KuslOZuinF",
          "id" : "1mNCPNmJa9a5KuslOZuinF",
          "name" : "Polly Edmonds Baldridge",
          "type" : "artist",
          "uri" : "spotify:artist:1mNCPNmJa9a5KuslOZuinF"
        }, {
          "external_urls" : {
            "spotify" : "https://open.spotify.com/artist/1UbVnuBb50Ewp1plkDaXDe"
          },
          "href" : "https://api.spotify.com/v1/artists/1UbVnuBb50Ewp1plkDaXDe",
          "id" : "1UbVnuBb50Ewp1plkDaXDe",
          "name" : "Walter G. Edmonds",
          "type" : "artist",
          "uri" : "spotify:artist:1UbVnuBb50Ewp1plkDaXDe"
        } ],
        "external_urls" : {
          "spotify" : "https://open.spotify.com/album/7ITe9e6cUpOZ9fOfqNPe0O"
        },
        "href" : "https://api.spotify.com/v1/albums/7ITe9e6cUpOZ9fOfqNPe0O",
        "id" : "7ITe9e6cUpOZ9fOfqNPe0O",
        "images" : [ {
          "height" : 640,
          "url" : "https://i.scdn.co/image/ab67616d0000b273596a1e19842f115f4c580597",
          "width" : 640
        }, {
          "height" : 300,
          "url" : "https://i.scdn.co/image/ab67616d00001e02596a1e19842f115f4c580597",
          "width" : 300
        }, {
          "height" : 64,
          "url" : "https://i.scdn.co/image/ab67616d00004851596a1e19842f115f4c580597",
          "width" : 64
        } ],
        "name" : "O Night Divine",
        "release_date" : "2014-11-21",
        "release_date_precision" : "day",
        "total_tracks" : 20,
        "type" : "album",
        "uri" : "spotify:album:7ITe9e6cUpOZ9fOfqNPe0O"
      },
      "artists" : [ {
        "external_urls" : {
          "spotify" : "https://open.spotify.com/artist/1mNCPNmJa9a5KuslOZuinF"
        },
        "href" : "https://api.spotify.com/v1/artists/1mNCPNmJa9a5KuslOZuinF",
        "id" : "1mNCPNmJa9a5KuslOZuinF",
        "name" : "Polly Edmonds Baldridge",
        "type" : "artist",
        "uri" : "spotify:artist:1mNCPNmJa9a5KuslOZuinF"
      }, {
        "external_urls" : {
          "spotify" : "https://open.spotify.com/artist/1UbVnuBb50Ewp1plkDaXDe"
        },
        "href" : "https://api.spotify.com/v1/artists/1UbVnuBb50Ewp1plkDaXDe",
        "id" : "1UbVnuBb50Ewp1plkDaXDe",
        "name" : "Walter G. Edmonds",
        "type" : "artist",
        "uri" : "spotify:artist:1UbVnuBb50Ewp1plkDaXDe"
      } ],
      "disc_number" : 1,
      "duration_ms" : 61426,
      "explicit" : false,
      "external_ids" : {
        "isrc" : "ushm91609144"
      },
      "external_urls" : {
        "spotify" : "https://open.spotify.com/track/3fQ6rHkYhe2RuqS90qW4Ds"
      },
      "href" : "https://api.spotify.com/v1/tracks/3fQ6rHkYhe2RuqS90qW4Ds",
      "id" : "3fQ6rHkYhe2RuqS90qW4Ds",
      "is_local" : false,
      "is_playable" : true,
      "name" : "Break Forth, O Beauteous Heavenly Light",
      "popularity" : 0,
      "preview_url" : "https://p.scdn.co/mp3-preview/278b351def5d79299a97e0e4c0c09328a609fc3a?cid=774b29d4f13844c495f206cafdad9c86",
      "track_number" : 20,
      "type" : "track",
      "uri" : "spotify:track:3fQ6rHkYhe2RuqS90qW4Ds"
    }, {
      "album" : {
        "album_type" : "album",
        "artists" : [ {
          "external_urls" : {
            "spotify" : "https://open.spotify.com/artist/3aQn9ozZt9ggBlfseVOymL"
          },
          "href" : "https://api.spotify.com/v1/artists/3aQn9ozZt9ggBlfseVOymL",
          "id" : "3aQn9ozZt9ggBlfseVOymL",
          "name" : "Alleluia Hymnal",
          "type" : "artist",
          "uri" : "spotify:artist:3aQn9ozZt9ggBlfseVOymL"
        } ],
        "external_urls" : {
          "spotify" : "https://open.spotify.com/album/5TDvhDPJ82UFdZ6jKDGzUT"
        },
        "href" : "https://api.spotify.com/v1/albums/5TDvhDPJ82UFdZ6jKDGzUT",
        "id" : "5TDvhDPJ82UFdZ6jKDGzUT",
        "images" : [ {
          "height" : 640,
          "url" : "https://i.scdn.co/image/ab67616d0000b273c3c4457fb282dfbea6de3623",
          "width" : 640
        }, {
          "height" : 300,
          "url" : "https://i.scdn.co/image/ab67616d00001e02c3c4457fb282dfbea6de3623",
          "width" : 300
        }, {
          "height" : 64,
          "url" : "https://i.scdn.co/image/ab67616d00004851c3c4457fb282dfbea6de3623",
          "width" : 64
        } ],
        "name" : "Instrumental Worship: 59 Popular Hymns Arranged for Classical Guitar",
        "release_date" : "2018-07-31",
        "release_date_precision" : "day",
        "total_tracks" : 59,
        "type" : "album",
        "uri" : "spotify:album:5TDvhDPJ82UFdZ6jKDGzUT"
      },
      "artists" : [ {
        "external_urls" : {
          "spotify" : "https://open.spotify.com/artist/3aQn9ozZt9ggBlfseVOymL"
        },
        "href" : "https://api.spotify.com/v1/artists/3aQn9ozZt9ggBlfseVOymL",
        "id" : "3aQn9ozZt9ggBlfseVOymL",
        "name" : "Alleluia Hymnal",
        "type" : "artist",
        "uri" : "spotify:artist:3aQn9ozZt9ggBlfseVOymL"
      } ],
      "disc_number" : 1,
      "duration_ms" : 94868,
      "explicit" : false,
      "external_ids" : {
        "isrc" : "TCADT1836511"
      },
      "external_urls" : {
        "spotify" : "https://open.spotify.com/track/3zKyE998pnwyfgyQUOU2V4"
      },
      "href" : "https://api.spotify.com/v1/tracks/3zKyE998pnwyfgyQUOU2V4",
      "id" : "3zKyE998pnwyfgyQUOU2V4",
      "is_local" : false,
      "is_playable" : true,
      "name" : "Break Forth, O Beauteous, Heavenly Light",
      "popularity" : 1,
      "preview_url" : "https://p.scdn.co/mp3-preview/c629db7a6e6220db85acf837099a987aabeba47f?cid=774b29d4f13844c495f206cafdad9c86",
      "track_number" : 35,
      "type" : "track",
      "uri" : "spotify:track:3zKyE998pnwyfgyQUOU2V4"
    }, {
      "album" : {
        "album_type" : "compilation",
        "artists" : [ {
          "external_urls" : {
            "spotify" : "https://open.spotify.com/artist/0LyfQWJT6nXafLPZqxe9Of"
          },
          "href" : "https://api.spotify.com/v1/artists/0LyfQWJT6nXafLPZqxe9Of",
          "id" : "0LyfQWJT6nXafLPZqxe9Of",
          "name" : "Various Artists",
          "type" : "artist",
          "uri" : "spotify:artist:0LyfQWJT6nXafLPZqxe9Of"
        } ],
        "external_urls" : {
          "spotify" : "https://open.spotify.com/album/0PmAjTsFTw5wKiVKvSk6YM"
        },
        "href" : "https://api.spotify.com/v1/albums/0PmAjTsFTw5wKiVKvSk6YM",
        "id" : "0PmAjTsFTw5wKiVKvSk6YM",
        "images" : [ {
          "height" : 640,
          "url" : "https://i.scdn.co/image/ab67616d0000b2738b49c47744285e0b2522309b",
          "width" : 640
        }, {
          "height" : 300,
          "url" : "https://i.scdn.co/image/ab67616d00001e028b49c47744285e0b2522309b",
          "width" : 300
        }, {
          "height" : 64,
          "url" : "https://i.scdn.co/image/ab67616d000048518b49c47744285e0b2522309b",
          "width" : 64
        } ],
        "name" : "50 Songs Of Christmas",
        "release_date" : "1992-01-01",
        "release_date_precision" : "day",
        "total_tracks" : 50,
        "type" : "album",
        "uri" : "spotify:album:0PmAjTsFTw5wKiVKvSk6YM"
      },
      "artists" : [ {
        "external_urls" : {
          "spotify" : "https://open.spotify.com/artist/1KzkKgsck861pws3kJTpKv"
        },
        "href" : "https://api.spotify.com/v1/artists/1KzkKgsck861pws3kJTpKv",
        "id" : "1KzkKgsck861pws3kJTpKv",
        "name" : "O.D. Hall Jr.",
        "type" : "artist",
        "uri" : "spotify:artist:1KzkKgsck861pws3kJTpKv"
      } ],
      "disc_number" : 2,
      "duration_ms" : 91373,
      "explicit" : false,
      "external_ids" : {
        "isrc" : "USSP38947349"
      },
      "external_urls" : {
        "spotify" : "https://open.spotify.com/track/0OZdWYEu5iMYfmkKXN0px8"
      },
      "href" : "https://api.spotify.com/v1/tracks/0OZdWYEu5iMYfmkKXN0px8",
      "id" : "0OZdWYEu5iMYfmkKXN0px8",
      "is_local" : false,
      "is_playable" : true,
      "name" : "Break Forth O Beauteous Heavenly Light",
      "popularity" : 0,
      "preview_url" : null,
      "track_number" : 20,
      "type" : "track",
      "uri" : "spotify:track:0OZdWYEu5iMYfmkKXN0px8"
    }, {
      "album" : {
        "album_type" : "album",
        "artists" : [ {
          "external_urls" : {
            "spotify" : "https://open.spotify.com/artist/41hCpLaR1bEW5ETK3aPvDB"
          },
          "href" : "https://api.spotify.com/v1/artists/41hCpLaR1bEW5ETK3aPvDB",
          "id" : "41hCpLaR1bEW5ETK3aPvDB",
          "name" : "The Eden Symphony Orchestra",
          "type" : "artist",
          "uri" : "spotify:artist:41hCpLaR1bEW5ETK3aPvDB"
        } ],
        "external_urls" : {
          "spotify" : "https://open.spotify.com/album/0zOTsLG03JP9T8XBuNH5nQ"
        },
        "href" : "https://api.spotify.com/v1/albums/0zOTsLG03JP9T8XBuNH5nQ",
        "id" : "0zOTsLG03JP9T8XBuNH5nQ",
        "images" : [ {
          "height" : 640,
          "url" : "https://i.scdn.co/image/ab67616d0000b273b41f6ff3a6c4f6612bed3b73",
          "width" : 640
        }, {
          "height" : 300,
          "url" : "https://i.scdn.co/image/ab67616d00001e02b41f6ff3a6c4f6612bed3b73",
          "width" : 300
        }, {
          "height" : 64,
          "url" : "https://i.scdn.co/image/ab67616d00004851b41f6ff3a6c4f6612bed3b73",
          "width" : 64
        } ],
        "name" : "20 Classical Christmas Favorites",
        "release_date" : "2004",
        "release_date_precision" : "year",
        "total_tracks" : 20,
        "type" : "album",
        "uri" : "spotify:album:0zOTsLG03JP9T8XBuNH5nQ"
      },
      "artists" : [ {
        "external_urls" : {
          "spotify" : "https://open.spotify.com/artist/41hCpLaR1bEW5ETK3aPvDB"
        },
        "href" : "https://api.spotify.com/v1/artists/41hCpLaR1bEW5ETK3aPvDB",
        "id" : "41hCpLaR1bEW5ETK3aPvDB",
        "name" : "The Eden Symphony Orchestra",
        "type" : "artist",
        "uri" : "spotify:artist:41hCpLaR1bEW5ETK3aPvDB"
      }, {
        "external_urls" : {
          "spotify" : "https://open.spotify.com/artist/2T2XDXdcIi8Lr8HEJvcr30"
        },
        "href" : "https://api.spotify.com/v1/artists/2T2XDXdcIi8Lr8HEJvcr30",
        "id" : "2T2XDXdcIi8Lr8HEJvcr30",
        "name" : "The London Fox Woodwind Quintet",
        "type" : "artist",
        "uri" : "spotify:artist:2T2XDXdcIi8Lr8HEJvcr30"
      } ],
      "disc_number" : 1,
      "duration_ms" : 85680,
      "explicit" : false,
      "external_ids" : {
        "isrc" : "GBCEU0437618"
      },
      "external_urls" : {
        "spotify" : "https://open.spotify.com/track/1in3FyV8OY6nT5W4XVBb0l"
      },
      "href" : "https://api.spotify.com/v1/tracks/1in3FyV8OY6nT5W4XVBb0l",
      "id" : "1in3FyV8OY6nT5W4XVBb0l",
      "is_local" : false,
      "is_playable" : true,
      "name" : "Break Forth, O Beauteous Heavenly Light",
      "popularity" : 0,
      "preview_url" : "https://p.scdn.co/mp3-preview/49705ef74b852c3813572c37c5f90f38125286b1?cid=774b29d4f13844c495f206cafdad9c86",
      "track_number" : 18,
      "type" : "track",
      "uri" : "spotify:track:1in3FyV8OY6nT5W4XVBb0l"
    } ],
    "limit" : 10,
    "next" : "https://api.spotify.com/v1/search?query=Break+Forth%2C+O+Beauteous+Heavenly+Light&type=track&market=US&offset=15&limit=10",
    "offset" : 5,
    "previous" : "https://api.spotify.com/v1/search?query=Break+Forth%2C+O+Beauteous+Heavenly+Light&type=track&market=US&offset=0&limit=10",
    "total" : 82
  }
}