{
  "tracks" : {
    "href" : "https://api.spotify.com/v1/search?query=Jesus+Shall+Reign&type=track&market=US&offset=5&limit=10",
    "items" : [ {
      "album" : {
        "album_type" : "album",
        "artists" : [ {
          "external_urls" : {
            "spotify" : "https://open.spotify.com/artist/3bOofoVdItLmnOv4Zn1Vvb"
          },
          "href" : "https://api.spotify.com/v1/artists/3bOofoVdItLmnOv4Zn1Vvb",
          "id" : "3bOofoVdItLmnOv4Zn1Vvb",
          "name" : "The Methodist Hymnal",
          "type" : "artist",
          "uri" : "spotify:artist:3bOofoVdItLmnOv4Zn1Vvb"
        } ],
        "external_urls" : {
          "spotify" : "https://open.spotify.com/album/1wGoiaUfVqmoRjX8NzXFf4"
        },
        "href" : "https://api.spotify.com/v1/albums/1wGoiaUfVqmoRjX8NzXFf4",
        "id" : "1wGoiaUfVqmoRjX8NzXFf4",
        "images" : [ {
          "height" : 640,
          "url" : "https://i.scdn.co/image/ab67616d0000b273e5afdad652d1cebd85a7df6d",
          "width" : 640
        }, {
          "height" : 300,
          "url" : "https://i.scdn.co/image/ab67616d00001e02e5afdad652d1cebd85a7df6d",
          "width" : 300
        }, {
          "height" : 64,
          "url" : "https://i.scdn.co/image/ab67616d00004851e5afdad652d1cebd85a7df6d",
          "width" : 64
        } ],
        "name" : "Blessings",
        "release_date" : "2015-09-25",
        "release_date_precision" : "day",
        "total_tracks" : 16,
        "type" : "album",
        "uri" : "spotify:album:1wGoiaUfVqmoRjX8NzXFf4"
      },
      "artists" : [ {
        "external_urls" : {
          "spotify" : "https://open.spotify.com/artist/3bOofoVdItLmnOv4Zn1Vvb"
        },
        "href" : "https://api.spotify.com/v1/artists/3bOofoVdItLmnOv4Zn1Vvb",
        "id" : "3bOofoVdItLmnOv4Zn1Vvb",
        "name" : "The Methodist Hymnal",
        "type" : "artist",
        "uri" : "spotify:artist:3bOofoVdItLmnOv4Zn1Vvb"
      } ],
      "disc_number" : 1,
      "duration_ms" : 113506,
      "explicit" : false,
      "external_ids" : {
        "isrc" : "USLZJ1559371"
      },
      "external_urls" : {
        "spotify" : "https://open.spotify.com/track/1mEmTSKNDOkczSq5Axk74X"
      },
      "href" : "https://api.spotify.com/v1/tracks/1mEmTSKNDOkczSq5Axk74X",
      "id" : "1mEmTSKNDOkczSq5Axk74X",
      "is_local" : false,
      "is_playable" : true,
      "name" : "Jesus Shall Reign",
      "popularity" : 13,
      "preview_url" : "https://p.scdn.co/mp3-preview/4e1e409a7a9de2108461ab31b07e5e22707f1147?cid=774b29d4f13844c495f206cafdad9c86",
      "track_number" : 5,
      "type" : "track",
      "uri" : "spotify:track:1mEmTSKNDOkczSq5Axk74X"
    }, {
      "album" : {
        "album_type" : "album",
        "artists" : [ {
          "external_urls" : {
            "spotify" : "https://open.spotify.com/artist/3c4DD42vpS9f7XIz1hBMEC"
          },
          "href" : "https://api.spotify.com/v1/artists/3c4DD42vpS9f7XIz1hBMEC",
          "id" : "3c4DD42vpS9f7XIz1hBMEC",
          "name" : "Mission Athens Music",
          "type" : "artist",
          "uri" : "spotify:artist:3c4DD42vpS9f7XIz1hBMEC"
        } ],
        "external_urls" : {
          "spotify" : "https://open.spotify.com/album/6QaGDCOR2ODtzn5Ltub5Ij"
        },
        "href" : "https://api.spotify.com/v1/albums/6QaGDCOR2ODtzn5Ltub5Ij",
        "id" : "6QaGDCOR2ODtzn5Ltub5Ij",
        "images" : [ {
          "height" : 640,
          "url" : "https://i.scdn.co/image/ab67616d0000b2738030553bebfe2cd05b315dac",
          "width" : 640
        }, {
          "height" : 300,
          "url" : "https://i.scdn.co/image/ab67616d00001e028030553bebfe2cd05b315dac",
          "width" : 300
        }, {
          "height" : 64,
          "url" : "https://i.scdn.co/image/ab67616d000048518030553bebfe2cd05b315dac",
          "width" : 64
        } ],
        "name" : "Because of Christ",
        "release_date" : "2012-08-14",
        "release_date_precision" : "day",
        "total_tracks" : 11,
        "type" : "album",
        "uri" : "spotify:album:6QaGDCOR2ODtzn5Ltub5Ij"
      },
      "artists" : [ {
        "external_urls" : {
          "spotify" : "https://open.spotify.com/artist/3c4DD42vpS9f7XIz1hBMEC"
        },
        "href" : "https://api.spotify.com/v1/artists/3c4DD42vpS9f7XIz1hBMEC",
        "id" : "3c4DD42vpS9f7XIz1hBMEC",
        "name" : "Mission Athens Music",
        "type" : "artist",
        "uri" : "spotify:artist:3c4DD42vpS9f7XIz1hBMEC"
      } ],
      "disc_number" : 1,
      "duration_ms" : 249079,
      "explicit" : false,
      "external_ids" : {
        "isrc" : "ushm81205358"
      },
      "external_urls" : {
        "spotify" : "https://open.spotify.com/track/1LEkenwaGb48HjOZnnI9OZ"
      },
      "href" : "https://api.spotify.com/v1/tracks/1LEkenwaGb48HjOZnnI9OZ",
      "id" : "1LEkenwaGb48HjOZnnI9OZ",
      "is_local" : false,
      "is_playable" : true,
      "name" : "Jesus Shall Reign",
      "popularity" : 12,
      "preview_url" : "https://p.scdn.co/mp3-preview/19cd8471d982ed913e2233171ca4a4cf94fe5615?cid=774b29d4f13844c495f206cafdad9c86",
      "track_number" : 8,
      "type" : "track",
      "uri" : "spotify:track:1LEkenwaGb48HjOZnnI9OZ"
    }, {
      "album" : {
        "album_type" : "album",
        "artists" : [ {
          "external_urls" : {
            "spotify" : "https://open.spotify.com/artist/1bI2Gw4q2EJbDFNp5vzpUd"
          },
          "href" : "https://api.spotify.com/v1/artists/1bI2Gw4q2EJbDFNp5vzpUd",
          "id" : "1bI2Gw4q2EJbDFNp5vzpUd",
          "name" : "The Midwestern Lutheran",
          "type" : "artist",
          "uri" : "spotify:artist:1bI2Gw4q2EJbDFNp5vzpUd"
        } ],
        "external_urls" : {
          "spotify" : "https://open.spotify.com/album/5AfYSJ212dRlxSnQwyRYFj"
        },
        "href" : "https://api.spotify.com/v1/albums/5AfYSJ212dRlxSnQwyRYFj",
        "id" : "5AfYSJ212dRlxSnQwyRYFj",
        "images" : [ {
          "height" : 640,
          "url" : "https://i.scdn.co/image/ab67616d0000b2731c6eddcd84b35ffeef429563",
          "width" : 640
        }, {
          "height" : 300,
          "url" : "https://i.scdn.co/image/ab67616d00001e021c6eddcd84b35ffeef429563",
          "width" : 300
        }, {
          "height" : 64,
          "url" : "https://i.scdn.co/image/ab67616d000048511c6eddcd84b35ffeef429563",
          "width" : 64
        } ],
        "name" : "The Classic Lutheran Songbook",
        "release_date" : "2015-12-21",
        "release_date_precision" : "day",
        "total_tracks" : 18,
        "type" : "album",
        "uri" : "spotify:album:5AfYSJ212dRlxSnQwyRYFj"
      },
      "artists" : [ {
        "external_urls" : {
          "spotify" : "https://open.spotify.com/artist/1bI2Gw4q2EJbDFNp5vzpUd"
        },
        "href" : "https://api.spotify.com/v1/artists/1bI2Gw4q2EJbDFNp5vzpUd",
        "id" : "1bI2Gw4q2EJbDFNp5vzpUd",
        "name" : "The Midwestern Lutheran",
        "type" : "artist",
        "uri" : "spotify:artist:1bI2Gw4q2EJbDFNp5vzpUd"
      } ],
      "disc_number" : 1,
      "duration_ms" : 113506,
      "explicit" : false,
      "external_ids" : {
        "isrc" : "USA2P1563092"
      },
      "external_urls" : {
        "spotify" : "https://open.spotify.com/track/6eSfpSveQMRZ45rckkJUOS"
      },
      "href" : "https://api.spotify.com/v1/tracks/6eSfpSveQMRZ45rckkJUOS",
      "id" : "6eSfpSveQMRZ45rckkJUOS",
      "is_local" : false,
      "is_playable" : true,
      "name" : "Jesus Shall Reign",
      "popularity" : 11,
      "preview_url" : "https://p.scdn.co/mp3-preview/1c6f1b1aceec06e5811799ab434468018f641013?cid=774b29d4f13844c495f206cafdad9c86",
      "track_number" : 11,
      "type" : "track",
      "uri" : "spotify:track:6eSfpSveQMRZ45rckkJUOS"
    }, {
      "album" : {
        "album_type" : "single",
        "artists" : [ {
          "external_urls" : {
            "spotify" : "https://open.spotify.com/artist/6E2Chzx75f3S8jRFTS5D70"
          },
          "href" : "https://api.spotify.com/v1/artists/6E2Chzx75f3S8jRFTS5D70",
          "id" : "6E2Chzx75f3S8jRFTS5D70",
          "name" : "The Silver Pages",
          "type" : "artist",
          "uri" : "spotify:artist:6E2Chzx75f3S8jRFTS5D70"
        } ],
        "external_urls" : {
          "spotify" : "https://open.spotify.com/album/78saUDzbxHWeAYSCdtx8V6"
        },
        "href" : "https://api.spotify.com/v1/albums/78saUDzbxHWeAYSCdtx8V6",
        "id" : "78saUDzbxHWeAYSCdtx8V6",
        "images" : [ {
          "height" : 640,
          "url" : "https://i.scdn.co/image/ab67616d0000b273a357abf6f3a58deaf91afd97",
          "width" : 640
        }, {
          "height" : 300,
          "url" : "https://i.scdn.co/image/ab67616d00001e02a357abf6f3a58deaf91afd97",
          "width" : 300
        }, {
          "height" : 64,
          "url" : "https://i.scdn.co/image/ab67616d00004851a357abf6f3a58deaf91afd97",
          "width" : 64
        } ],
        "name" : "Part 1",
        "release_date" : "2012-10-23",
        "release_date_precision" : "day",
        "total_tracks" : 6,
        "type" : "album",
        "uri" : "spotify:album:78saUDzbxHWeAYSCdtx8V6"
      },
      "artists" : [ {
        "external_urls" : {
          "spotify" : "https://open.spotify.com/artist/6E2Chzx75f3S8jRFTS5D70"
        },
        "href" : "https://api.spotify.com/v1/artists/6E2Chzx75f3S8jRFTS5D70",
        "id" : "6E2Chzx75f3S8jRFTS5D70",
        "name" : "The Silver Pages",
        "type" : "artist",
        "uri" : "spotify:artist:6E2Chzx75f3S8jRFTS5D70"
      } ],
      "disc_number" : 1,
      "duration_ms" : 240413,
      "explicit" : false,
      "external_ids" : {
        "isrc" : "QML2A1200001"
      },
      "external_urls" : {
        "spotify" : "https://open.spotify.com/track/6Wmo59vpRteBSQbpwUm3Y2"
      },
      "href" : "https://api.spotify.com/v1/tracks/6Wmo59vpRteBSQbpwUm3Y2",
      "id" : "6Wmo59vpRteBSQbpwUm3Y2",
      "is_local" : false,
      "is_playable" : true,
      "name" : "Jesus Shall Reign",
      "popularity" : 9,
      "preview_url" : "https://p.scdn.co/mp3-preview/dbc87517c4a0b95b95d1ed9dfd9990308dce689d?cid=774b29d4f13844c495f206cafdad9c86",
      "track_number" : 1,
      "type" : "track",
      "uri" : "spotify:track:6Wmo59vpRteBSQbpwUm3Y2"
    }, {
      "album" : {
        "album_type" : "album",
        "artists" : [ {
          "external_urls" : {
            "spotify" : "https://open.spotify.com/artist/5mscq85LNFpjHSzGMmluSA"
          },
          "href" : "https://api.spotify.com/v1/artists/5mscq85LNFpjHSzGMmluSA",
          "id" : "5mscq85LNFpjHSzGMmluSA",
          "name" : "Summit Worship",
          "type" : "artist",
          "uri" : "spotify:artist:5mscq85LNFpjHSzGMmluSA"
        } ],
        "external_urls" : {
          "spotify" : "https://open.spotify.com/album/2Z7oSsGFZeSrDlISr7u6ix"
        },
        "href" : "https://api.spotify.com/v1/albums/2Z7oSsGFZeSrDlISr7u6ix",
        "id" : "2Z7oSsGFZeSrDlISr7u6ix",
        "images" : [ {
          "height" : 640,
          "url" : "https://i.scdn.co/image/ab67616d0000b27357c6246ac17492439d9725d3",
          "width" : 640
        }, {
          "height" : 300,
          "url" : "https://i.scdn.co/image/ab67616d00001e0257c6246ac17492439d9725d3",
          "width" : 300
        }, {
          "height" : 64,
          "url" : "https://i.scdn.co/image/ab67616d0000485157c6246ac17492439d9725d3",
          "width" : 64
        } ],
        "name" : "He Shall Reign Forever",
        "release_date" : "2015-04-08",
        "release_date_precision" : "day",
        "total_tracks" : 13,
        "type" : "album",
        "uri" : "spotify:album:2Z7oSsGFZeSrDlISr7u6ix"
      },
      "artists" : [ {
        "external_urls" : {
          "spotify" : "https://open.spotify.com/artist/5mscq85LNFpjHSzGMmluSA"
        },
        "href" : "https://api.spotify.com/v1/artists/5mscq85LNFpjHSzGMmluSA",
        "id" : "5mscq85LNFpjHSzGMmluSA",
        "name" : "Summit Worship",
        "type" : "artist",
        "uri" : "spotify:artist:5mscq85LNFpjHSzGMmluSA"
      } ],
      "disc_number" : 1,
      "duration_ms" : 204546,
      "explicit" : false,
      "external_ids" : {
        "isrc" : "QMQWL1200028"
      },
      "external_urls" : {
        "spotify" : "https://open.spotify.com/track/0wNiUXnWIfdh7lXWh6pHFX"
      },
      "href" : "https://api.spotify.com/v1/tracks/0wNiUXnWIfdh7lXWh6pHFX",
      "id" : "0wNiUXnWIfdh7lXWh6pHFX",
      "is_local" : false,
      "is_playable" : true,
      "name" : "Your Blood Jesus",
      "popularity" : 11,
      "preview_url" : "https://p.scdn.co/mp3-preview/b13403daab9a1240b4a3fb195a5bc9285ed1ed75?cid=774b29d4f13844c495f206cafdad9c86",
      "track_number" : 12,
      "type" : "track",
      "uri" : "spotify:track:0wNiUXnWIfdh7lXWh6pHFX"
    }, {
      "album" : {
        "album_type" : "album",
        "artists" : [ {
          "external_urls" : {
            "spotify" : "https://open.spotify.com/artist/7rluHfxLiKAkAoMkuE1F8U"
          },
          "href" : "https://api.spotify.com/v1/artists/7rluHfxLiKAkAoMkuE1F8U",
          "id" : "7rluHfxLiKAkAoMkuE1F8U",
          "name" : "St. Michael's Singers",
          "type" : "artist",
          "uri" : "spotify:artist:7rluHfxLiKAkAoMkuE1F8U"
        } ],
        "external_urls" : {
          "spotify" : "https://open.spotify.com/album/0VUQjPB94lUkV1qgJu3ZyY"
        },
        "href" : "https://api.spotify.com/v1/albums/0VUQjPB94lUkV1qgJu3ZyY",
        "id" : "0VUQjPB94lUkV1qgJu3ZyY",
        "images" : [ {
          "height" : 640,
          "url" : "https://i.scdn.co/image/ab67616d0000b273511eb922e3ebc39d16b738cd",
          "width" : 640
        }, {
          "height" : 300,
          "url" : "https://i.scdn.co/image/ab67616d00001e02511eb922e3ebc39d16b738cd",
          "width" : 300
        }, {
          "height" : 64,
          "url" : "https://i.scdn.co/image/ab67616d00004851511eb922e3ebc39d16b738cd",
          "width" : 64
        } ],
        "name" : "The Hymn Makers: Isaac Watts (When I Survey)",
        "release_date" : "1992",
        "release_date_precision" : "year",
        "total_tracks" : 12,
        "type" : "album",
        "uri" : "spotify:album:0VUQjPB94lUkV1qgJu3ZyY"
      },
      "artists" : [ {
        "external_urls" : {
          "spotify" : "https://open.spotify.com/artist/7rluHfxLiKAkAoMkuE1F8U"
        },
        "href" : "https://api.spotify.com/v1/artists/7rluHfxLiKAkAoMkuE1F8U",
        "id" : "7rluHfxLiKAkAoMkuE1F8U",
        "name" : "St. Michael's Singers",
        "type" : "artist",
        "uri" : "spotify:artist:7rluHfxLiKAkAoMkuE1F8U"
      } ],
      "disc_number" : 1,
      "duration_ms" : 164675,
      "explicit" : false,
      "external_ids" : {
        "isrc" : "GBBTM9258201"
      },
      "external_urls" : {
        "spotify" : "https://open.spotify.com/track/52r7iwuWEMtgcRRHr6HW6z"
      },
      "href" : "https://api.spotify.com/v1/tracks/52r7iwuWEMtgcRRHr6HW6z",
      "id" : "52r7iwuWEMtgcRRHr6HW6z",
      "is_local" : false,
      "is_playable" : true,
      "name" : "Jesus Shall Reign",
      "popularity" : 9,
      "preview_url" : "https://p.scdn.co/mp3-preview/a943ab9177350ac3f817f3ecc13cce75025f0c00?cid=774b29d4f13844c495f206cafdad9c86",
      "track_number" : 1,
      "type" : "track",
      "uri" : "spotify:track:52r7iwuWEMtgcRRHr6HW6z"
    }, {
      "album" : {
        "album_type" : "album",
        "artists" : [ {
          "external_urls" : {
            "spotify" : "https://open.spotify.com/artist/7s5ckY4PPs3xL4oREuHdNv"
          },
          "href" : "https://api.spotify.com/v1/artists/7s5ckY4PPs3xL4oREuHdNv",
          "id" : "7s5ckY4PPs3xL4oREuHdNv",
          "name" : "Alleluia Chorus",
          "type" : "artist",
          "uri" : "spotify:artist:7s5ckY4PPs3xL4oREuHdNv"
        } ],
        "external_urls" : {
          "spotify" : "https://open.spotify.com/album/36lfPFoUX8unYEvmMkxGuA"
        },
        "href" : "https://api.spotify.com/v1/albums/36lfPFoUX8unYEvmMkxGuA",
        "id" : "36lfPFoUX8unYEvmMkxGuA",
        "images" : [ {
          "height" : 640,
          "url" : "https://i.scdn.co/image/ab67616d0000b273344eb003a83ca9f694d762ff",
          "width" : 640
        }, {
          "height" : 300,
          "url" : "https://i.scdn.co/image/ab67616d00001e02344eb003a83ca9f694d762ff",
          "width" : 300
        }, {
          "height" : 64,
          "url" : "https://i.scdn.co/image/ab67616d00004851344eb003a83ca9f694d762ff",
          "width" : 64
        } ],
        "name" : "Festival Of Church Classics",
        "release_date" : "2010-03-09",
        "release_date_precision" : "day",
        "total_tracks" : 20,
        "type" : "album",
        "uri" : "spotify:album:36lfPFoUX8unYEvmMkxGuA"
      },
      "artists" : [ {
        "external_urls" : {
          "spotify" : "https://open.spotify.com/artist/7s5ckY4PPs3xL4oREuHdNv"
        },
        "href" : "https://api.spotify.com/v1/artists/7s5ckY4PPs3xL4oREuHdNv",
        "id" : "7s5ckY4PPs3xL4oREuHdNv",
        "name" : "Alleluia Chorus",
        "type" : "artist",
        "uri" : "spotify:artist:7s5ckY4PPs3xL4oREuHdNv"
      } ],
      "disc_number" : 1,
      "duration_ms" : 119693,
      "explicit" : false,
      "external_ids" : {
        "isrc" : "CAM460700449"
      },
      "external_urls" : {
        "spotify" : "https://open.spotify.com/track/4rWxqnFE6FjjtvQgwjordn"
      },
      "href" : "https://api.spotify.com/v1/tracks/4rWxqnFE6FjjtvQgwjordn",
      "id" : "4rWxqnFE6FjjtvQgwjordn",
      "is_local" : false,
      "is_playable" : true,
      "name" : "Jesus Shall Reign Where'er The Sun",
      "popularity" : 8,
      "preview_url" : "https://p.scdn.co/mp3-preview/75b4df19bd3c8d13876c8439238122b1bb0963cf?cid=774b29d4f13844c495f206cafdad9c86",
      "track_number" : 20,
      "type" : "track",
      "uri" : "spotify:track:4rWxqnFE6FjjtvQgwjordn"
    }, {
      "album" : {
        "album_type" : "album",
        "artists" : [ {
          "external_urls" : {
            "spotify" : "https://open.spotify.com/artist/4wsTMvkVb64q3oIV7omVFv"
          },
          "href" : "https://api.spotify.com/v1/artists/4wsTMvkVb64q3oIV7omVFv",
          "id" : "4wsTMvkVb64q3oIV7omVFv",
          "name" : "The Coventry Singers",
          "type" : "artist",
          "uri" : "spotify:artist:4wsTMvkVb64q3oIV7omVFv"
        } ],
        "external_urls" : {
          "spotify" : "https://open.spotify.com/album/1kZxotLCy59UtAMpxOHx7N"
        },
        "href" : "https://api.spotify.com/v1/albums/1kZxotLCy59UtAMpxOHx7N",
        "id" : "1kZxotLCy59UtAMpxOHx7N",
        "images" : [ {
          "height" : 640,
          "url" : "https://i.scdn.co/image/ab67616d0000b2731388326568dfd6526e8edc95",
          "width" : 640
        }, {
          "height" : 300,
          "url" : "https://i.scdn.co/image/ab67616d00001e021388326568dfd6526e8edc95",
          "width" : 300
        }, {
          "height" : 64,
          "url" : "https://i.scdn.co/image/ab67616d000048511388326568dfd6526e8edc95",
          "width" : 64
        } ],
        "name" : "The Hymn Writers: Isaac Watts",
        "release_date" : "2013-02-18",
        "release_date_precision" : "day",
        "total_tracks" : 15,
        "type" : "album",
        "uri" : "spotify:album:1kZxotLCy59UtAMpxOHx7N"
      },
      "artists" : [ {
        "external_urls" : {
          "spotify" : "https://open.spotify.com/artist/4wsTMvkVb64q3oIV7omVFv"
        },
        "href" : "https://api.spotify.com/v1/artists/4wsTMvkVb64q3oIV7omVFv",
        "id" : "4wsTMvkVb64q3oIV7omVFv",
        "name" : "The Coventry Singers",
        "type" : "artist",
        "uri" : "spotify:artist:4wsTMvkVb64q3oIV7omVFv"
      } ],
      "disc_number" : 1,
      "duration_ms" : 132480,
      "explicit" : false,
      "external_ids" : {
        "isrc" : "GBME51301413"
      },
      "external_urls" : {
        "spotify" : "https://open.spotify.com/track/1MWZwbwCOMobgQIsp3NGQI"
      },
      "href" : "https://api.spotify.com/v1/tracks/1MWZwbwCOMobgQIsp3NGQI",
      "id" : "1MWZwbwCOMobgQIsp3NGQI",
      "is_local" : false,
      "is_playable" : true,
      "name" : "Jesus Shall Reign Where'er the Sun",
      "popularity" : 9,
      "preview_url" : "https://p.scdn.co/mp3-preview/86517e51bba90680ec70477420faadf8d57830a7?cid=774b29d4f13844c495f206cafdad9c86",
      "track_number" : 13,
      "type" : "track",
      "uri" : "spotify:track:1MWZwbwCOMobgQIsp3NGQI"
    }, {
      "album" : {
        "album_type" : "album",
        "artists" : [ {
          "external_urls" : {
            "spotify" : "https://open.spotify.com/artist/6BBWkiAPZxjaO3JedWC6RM"
          },
          "href" : "https://api.spotify.com/v1/artists/6BBWkiAPZxjaO3JedWC6RM",
          "id" : "6BBWkiAPZxjaO3JedWC6RM",
          "name" : "Coram Deo Church",
          "type" : "artist",
          "uri" : "spotify:artist:6BBWkiAPZxjaO3JedWC6RM"
        } ],
        "external_urls" : {
          "spotify" : "https://open.spotify.com/album/5equQ1c5wNcvsMfqa5ph7n"
        },
        "href" : "https://api.spotify.com/v1/albums/5equQ1c5wNcvsMfqa5ph7n",
        "id" : "5equQ1c5wNcvsMfqa5ph7n",
        "images" : [ {
          "height" : 640,
          "url" : "https://i.scdn.co/image/ab67616d0000b273c0739760bf5513b2742576be",
          "width" : 640
        }, {
          "height" : 300,
          "url" : "https://i.scdn.co/image/ab67616d00001e02c0739760bf5513b2742576be",
          "width" : 300
        }, {
          "height" : 64,
          "url" : "https://i.scdn.co/image/ab67616d00004851c0739760bf5513b2742576be",
          "width" : 64
        } ],
        "name" : "Swallowed up Death",
        "release_date" : "2015-01-13",
        "release_date_precision" : "day",
        "total_tracks" : 10,
        "type" : "album",
        "uri" : "spotify:album:5equQ1c5wNcvsMfqa5ph7n"
      },
      "artists" : [ {
        "external_urls" : {
          "spotify" : "https://open.spotify.com/artist/6BBWkiAPZxjaO3JedWC6RM"
        },
        "href" : "https://api.spotify.com/v1/artists/6BBWkiAPZxjaO3JedWC6RM",
        "id" : "6BBWkiAPZxjaO3JedWC6RM",
        "name" : "Coram Deo Church",
        "type" : "artist",
        "uri" : "spotify:artist:6BBWkiAPZxjaO3JedWC6RM"
      } ],
      "disc_number" : 1,
      "duration_ms" : 246000,
      "explicit" : false,
      "external_ids" : {
        "isrc" : "TCACC1405787"
      },
      "external_urls" : {
        "spotify" : "https://open.spotify.com/track/6uUm3vZpGP5v5y3EkMR8n3"
      },
      "href" : "https://api.spotify.com/v1/tracks/6uUm3vZpGP5v5y3EkMR8n3",
      "id" : "6uUm3vZpGP5v5y3EkMR8n3",
      "is_local" : false,
      "is_playable" : true,
      "name" : "Jesus Shall Reign",
      "popularity" : 5,
      "preview_url" : "https://p.scdn.co/mp3-preview/74628c84841070c6753fa2e9c80a4759299aa369?cid=774b29d4f13844c495f206cafdad9c86",
      "track_number" : 9,
      "type" : "track",
      "uri" : "spotify:track:6uUm3vZpGP5v5y3EkMR8n3"
    }, {
      "album" : {
        "album_type" : "album",
        "artists" : [ {
          "external_urls" : {
            "spotify" : "https://open.spotify.com/artist/2x0QHABqKaBBvAOzvoevXJ"
          },
          "href" : "https://api.spotify.com/v1/artists/2x0QHABqKaBBvAOzvoevXJ",
          "id" : "2x0QHABqKaBBvAOzvoevXJ",
          "name" : "The Scottish Festival Singers",
          "type" : "artist",
          "uri" : "spotify:artist:2x0QHABqKaBBvAOzvoevXJ"
        } ],
        "external_urls" : {
          "spotify" : "https://open.spotify.com/album/1p6YXZ12V9JI9Kd1JFk3ro"
        },
        "href" : "https://api.spotify.com/v1/albums/1p6YXZ12V9JI9Kd1JFk3ro",
        "id" : "1p6YXZ12V9JI9Kd1JFk3ro",
        "images" : [ {
          "height" : 640,
          "url" : "https://i.scdn.co/image/ab67616d0000b273e94b718fe39d723dcf3eb2cd",
          "width" : 640
        }, {
          "height" : 300,
          "url" : "https://i.scdn.co/image/ab67616d00001e02e94b718fe39d723dcf3eb2cd",
          "width" : 300
        }, {
          "height" : 64,
          "url" : "https://i.scdn.co/image/ab67616d00004851e94b718fe39d723dcf3eb2cd",
          "width" : 64
        } ],
        "name" : "Timeless Hymns, Vol. 13: Trust and Obey",
        "release_date" : "2014-06-17",
        "release_date_precision" : "day",
        "total_tracks" : 11,
        "type" : "album",
        "uri" : "spotify:album:1p6YXZ12V9JI9Kd1JFk3ro"
      },
      "artists" : [ {
        "external_urls" : {
          "spotify" : "https://open.spotify.com/artist/2x0QHABqKaBBvAOzvoevXJ"
        },
        "href" : "https://api.spotify.com/v1/artists/2x0QHABqKaBBvAOzvoevXJ",
        "id" : "2x0QHABqKaBBvAOzvoevXJ",
        "name" : "The Scottish Festival Singers",
        "type" : "artist",
        "uri" : "spotify:artist:2x0QHABqKaBBvAOzvoevXJ"
      } ],
      "disc_number" : 1,
      "duration_ms" : 103186,
      "explicit" : false,
      "external_ids" : {
        "isrc" : "USACX1400784"
      },
      "external_urls" : {
        "spotify" : "https://open.spotify.com/track/7qTGG7LozWn6FB4EHeBjmv"
      },
      "href" : "https://api.spotify.com/v1/tracks/7qTGG7LozWn6FB4EHeBjmv",
      "id" : "7qTGG7LozWn6FB4EHeBjmv",
      "is_local" : false,
      "is_playable" : true,
      "name" : "Jesus Shall Reign",
      "popularity" : 8,
      "preview_url" : "https://p.scdn.co/mp3-preview/a09162ac28e0f3b6800908ba1604529bb97d2e99?cid=774b29d4f13844c495f206cafdad9c86",
      "track_number" : 2,
      "type" : "track",
      "uri" : "spotify:track:7qTGG7LozWn6FB4EHeBjmv"
    } ],
    "limit" : 10,
    "next" : "https://api.spotify.com/v1/search?query=Jesus+Shall+Reign&type=track&market=US&offset=15&limit=10",
    "offset" : 5,
    "previous" : "https://api.spotify.com/v1/search?query=Jesus+Shall+Reign&type=track&market=US&offset=0&limit=10",
    "total" : 230
  }
}