{
  "tracks" : {
    "href" : "https://api.spotify.com/v1/search?query=We+Give+Thee+But+Thine+Own&type=track&market=US&offset=5&limit=10",
    "items" : [ {
      "album" : {
        "album_type" : "album",
        "artists" : [ {
          "external_urls" : {
            "spotify" : "https://open.spotify.com/artist/3gSOxxHbfAIWPjAyr0EsO7"
          },
          "href" : "https://api.spotify.com/v1/artists/3gSOxxHbfAIWPjAyr0EsO7",
          "id" : "3gSOxxHbfAIWPjAyr0EsO7",
          "name" : "Saltlake Hymnal Association",
          "type" : "artist",
          "uri" : "spotify:artist:3gSOxxHbfAIWPjAyr0EsO7"
        } ],
        "external_urls" : {
          "spotify" : "https://open.spotify.com/album/7x1yA8JBo8aG0mjMkaY2IH"
        },
        "href" : "https://api.spotify.com/v1/albums/7x1yA8JBo8aG0mjMkaY2IH",
        "id" : "7x1yA8JBo8aG0mjMkaY2IH",
        "images" : [ {
          "height" : 640,
          "url" : "https://i.scdn.co/image/ab67616d0000b2732c0c61f68cab97ab78185fb5",
          "width" : 640
        }, {
          "height" : 300,
          "url" : "https://i.scdn.co/image/ab67616d00001e022c0c61f68cab97ab78185fb5",
          "width" : 300
        }, {
          "height" : 64,
          "url" : "https://i.scdn.co/image/ab67616d000048512c0c61f68cab97ab78185fb5",
          "width" : 64
        } ],
        "name" : "Quiet tender melodies for Christian II",
        "release_date" : "2016-03-01",
        "release_date_precision" : "day",
        "total_tracks" : 54,
        "type" : "album",
        "uri" : "spotify:album:7x1yA8JBo8aG0mjMkaY2IH"
      },
      "artists" : [ {
        "external_urls" : {
          "spotify" : "https://open.spotify.com/artist/3gSOxxHbfAIWPjAyr0EsO7"
        },
        "href" : "https://api.spotify.com/v1/artists/3gSOxxHbfAIWPjAyr0EsO7",
        "id" : "3gSOxxHbfAIWPjAyr0EsO7",
        "name" : "Saltlake Hymnal Association",
        "type" : "artist",
        "uri" : "spotify:artist:3gSOxxHbfAIWPjAyr0EsO7"
      } ],
      "disc_number" : 1,
      "duration_ms" : 25491,
      "explicit" : false,
      "external_ids" : {
        "isrc" : "TCJPE1644160"
      },
      "external_urls" : {
        "spotify" : "https://open.spotify.com/track/7fhJVUnOT9iSpJ3r5J4J9d"
      },
      "href" : "https://api.spotify.com/v1/tracks/7fhJVUnOT9iSpJ3r5J4J9d",
      "id" : "7fhJVUnOT9iSpJ3r5J4J9d",
      "is_local" : false,
      "is_playable" : true,
      "name" : "We Give Thee But Thine Own",
      "popularity" : 0,
      "preview_url" : null,
      "track_number" : 19,
      "type" : "track",
      "uri" : "spotify:track:7fhJVUnOT9iSpJ3r5J4J9d"
    }, {
      "album" : {
        "album_type" : "album",
        "artists" : [ {
          "external_urls" : {
            "spotify" : "https://open.spotify.com/artist/6ZJ0ZFJUx02NthS3RH3VYz"
          },
          "href" : "https://api.spotify.com/v1/artists/6ZJ0ZFJUx02NthS3RH3VYz",
          "id" : "6ZJ0ZFJUx02NthS3RH3VYz",
          "name" : "The Joyful Sounds",
          "type" : "artist",
          "uri" : "spotify:artist:6ZJ0ZFJUx02NthS3RH3VYz"
        } ],
        "external_urls" : {
          "spotify" : "https://open.spotify.com/album/4RgpD3TXOwCGQ8q0pRvxnf"
        },
        "href" : "https://api.spotify.com/v1/albums/4RgpD3TXOwCGQ8q0pRvxnf",
        "id" : "4RgpD3TXOwCGQ8q0pRvxnf",
        "images" : [ {
          "height" : 640,
          "url" : "https://i.scdn.co/image/ab67616d0000b2735f09476a9da1f88ffb5b5d06",
          "width" : 640
        }, {
          "height" : 300,
          "url" : "https://i.scdn.co/image/ab67616d00001e025f09476a9da1f88ffb5b5d06",
          "width" : 300
        }, {
          "height" : 64,
          "url" : "https://i.scdn.co/image/ab67616d000048515f09476a9da1f88ffb5b5d06",
          "width" : 64
        } ],
        "name" : "99 Beautiful songs pack vol.3",
        "release_date" : "2016-03-01",
        "release_date_precision" : "day",
        "total_tracks" : 99,
        "type" : "album",
        "uri" : "spotify:album:4RgpD3TXOwCGQ8q0pRvxnf"
      },
      "artists" : [ {
        "external_urls" : {
          "spotify" : "https://open.spotify.com/artist/6ZJ0ZFJUx02NthS3RH3VYz"
        },
        "href" : "https://api.spotify.com/v1/artists/6ZJ0ZFJUx02NthS3RH3VYz",
        "id" : "6ZJ0ZFJUx02NthS3RH3VYz",
        "name" : "The Joyful Sounds",
        "type" : "artist",
        "uri" : "spotify:artist:6ZJ0ZFJUx02NthS3RH3VYz"
      } ],
      "disc_number" : 1,
      "duration_ms" : 29661,
      "explicit" : false,
      "external_ids" : {
        "isrc" : "TCJPE1644872"
      },
      "external_urls" : {
        "spotify" : "https://open.spotify.com/track/7sNCGaaRHNIe5Vb7jo3oTz"
      },
      "href" : "https://api.spotify.com/v1/tracks/7sNCGaaRHNIe5Vb7jo3oTz",
      "id" : "7sNCGaaRHNIe5Vb7jo3oTz",
      "is_local" : false,
      "is_playable" : true,
      "name" : "We Give Thee But Thine Own",
      "popularity" : 0,
      "preview_url" : null,
      "track_number" : 23,
      "type" : "track",
      "uri" : "spotify:track:7sNCGaaRHNIe5Vb7jo3oTz"
    }, {
      "album" : {
        "album_type" : "album",
        "artists" : [ {
          "external_urls" : {
            "spotify" : "https://open.spotify.com/artist/20z0jiovxcVxxmfsmB1RgX"
          },
          "href" : "https://api.spotify.com/v1/artists/20z0jiovxcVxxmfsmB1RgX",
          "id" : "20z0jiovxcVxxmfsmB1RgX",
          "name" : "Meteoric Stream",
          "type" : "artist",
          "uri" : "spotify:artist:20z0jiovxcVxxmfsmB1RgX"
        } ],
        "external_urls" : {
          "spotify" : "https://open.spotify.com/album/1sTQVv67WV4xMWyuLIuNLF"
        },
        "href" : "https://api.spotify.com/v1/albums/1sTQVv67WV4xMWyuLIuNLF",
        "id" : "1sTQVv67WV4xMWyuLIuNLF",
        "images" : [ {
          "height" : 640,
          "url" : "https://i.scdn.co/image/ab67616d0000b273b171b4210fc25a216cd7c225",
          "width" : 640
        }, {
          "height" : 300,
          "url" : "https://i.scdn.co/image/ab67616d00001e02b171b4210fc25a216cd7c225",
          "width" : 300
        }, {
          "height" : 64,
          "url" : "https://i.scdn.co/image/ab67616d00004851b171b4210fc25a216cd7c225",
          "width" : 64
        } ],
        "name" : "All to Jesus I Surrender",
        "release_date" : "2017-03-24",
        "release_date_precision" : "day",
        "total_tracks" : 10,
        "type" : "album",
        "uri" : "spotify:album:1sTQVv67WV4xMWyuLIuNLF"
      },
      "artists" : [ {
        "external_urls" : {
          "spotify" : "https://open.spotify.com/artist/20z0jiovxcVxxmfsmB1RgX"
        },
        "href" : "https://api.spotify.com/v1/artists/20z0jiovxcVxxmfsmB1RgX",
        "id" : "20z0jiovxcVxxmfsmB1RgX",
        "name" : "Meteoric Stream",
        "type" : "artist",
        "uri" : "spotify:artist:20z0jiovxcVxxmfsmB1RgX"
      } ],
      "disc_number" : 1,
      "duration_ms" : 174950,
      "explicit" : false,
      "external_ids" : {
        "isrc" : "QZ22B1765582"
      },
      "external_urls" : {
        "spotify" : "https://open.spotify.com/track/6lwQ5ZhDsL5iPrl4bBBz9O"
      },
      "href" : "https://api.spotify.com/v1/tracks/6lwQ5ZhDsL5iPrl4bBBz9O",
      "id" : "6lwQ5ZhDsL5iPrl4bBBz9O",
      "is_local" : false,
      "is_playable" : true,
      "name" : "We Give Thee but Thine Own",
      "popularity" : 0,
      "preview_url" : "https://p.scdn.co/mp3-preview/11487e82f202bae58b693844d2427b1fa161e0b3?cid=774b29d4f13844c495f206cafdad9c86",
      "track_number" : 2,
      "type" : "track",
      "uri" : "spotify:track:6lwQ5ZhDsL5iPrl4bBBz9O"
    }, {
      "album" : {
        "album_type" : "album",
        "artists" : [ {
          "external_urls" : {
            "spotify" : "https://open.spotify.com/artist/15WWcNQdZWCY1AAVPbZ6Hi"
          },
          "href" : "https://api.spotify.com/v1/artists/15WWcNQdZWCY1AAVPbZ6Hi",
          "id" : "15WWcNQdZWCY1AAVPbZ6Hi",
          "name" : "Utah Hymnal Association",
          "type" : "artist",
          "uri" : "spotify:artist:15WWcNQdZWCY1AAVPbZ6Hi"
        } ],
        "external_urls" : {
          "spotify" : "https://open.spotify.com/album/1idUMqHSzHBaOtohj8nPRw"
        },
        "href" : "https://api.spotify.com/v1/albums/1idUMqHSzHBaOtohj8nPRw",
        "id" : "1idUMqHSzHBaOtohj8nPRw",
        "images" : [ {
          "height" : 640,
          "url" : "https://i.scdn.co/image/ab67616d0000b27345a36a609f8222a32d139237",
          "width" : 640
        }, {
          "height" : 300,
          "url" : "https://i.scdn.co/image/ab67616d00001e0245a36a609f8222a32d139237",
          "width" : 300
        }, {
          "height" : 64,
          "url" : "https://i.scdn.co/image/ab67616d0000485145a36a609f8222a32d139237",
          "width" : 64
        } ],
        "name" : "Come, Come, Ye Saints",
        "release_date" : "2016-03-01",
        "release_date_precision" : "day",
        "total_tracks" : 13,
        "type" : "album",
        "uri" : "spotify:album:1idUMqHSzHBaOtohj8nPRw"
      },
      "artists" : [ {
        "external_urls" : {
          "spotify" : "https://open.spotify.com/artist/15WWcNQdZWCY1AAVPbZ6Hi"
        },
        "href" : "https://api.spotify.com/v1/artists/15WWcNQdZWCY1AAVPbZ6Hi",
        "id" : "15WWcNQdZWCY1AAVPbZ6Hi",
        "name" : "Utah Hymnal Association",
        "type" : "artist",
        "uri" : "spotify:artist:15WWcNQdZWCY1AAVPbZ6Hi"
      } ],
      "disc_number" : 1,
      "duration_ms" : 27427,
      "explicit" : false,
      "external_ids" : {
        "isrc" : "TCJPE1644019"
      },
      "external_urls" : {
        "spotify" : "https://open.spotify.com/track/0gP1ij6NtI9ebAXdmF4SYt"
      },
      "href" : "https://api.spotify.com/v1/tracks/0gP1ij6NtI9ebAXdmF4SYt",
      "id" : "0gP1ij6NtI9ebAXdmF4SYt",
      "is_local" : false,
      "is_playable" : true,
      "name" : "We Give Thee But Thine Own",
      "popularity" : 0,
      "preview_url" : null,
      "track_number" : 13,
      "type" : "track",
      "uri" : "spotify:track:0gP1ij6NtI9ebAXdmF4SYt"
    }, {
      "album" : {
        "album_type" : "album",
        "artists" : [ {
          "external_urls" : {
            "spotify" : "https://open.spotify.com/artist/20rlbkwNSoLrLqQUR7GRcT"
          },
          "href" : "https://api.spotify.com/v1/artists/20rlbkwNSoLrLqQUR7GRcT",
          "id" : "20rlbkwNSoLrLqQUR7GRcT",
          "name" : "Mother’s Lullaby",
          "type" : "artist",
          "uri" : "spotify:artist:20rlbkwNSoLrLqQUR7GRcT"
        } ],
        "external_urls" : {
          "spotify" : "https://open.spotify.com/album/0qJoZ6A5AcEN1jfA7SkFMb"
        },
        "href" : "https://api.spotify.com/v1/albums/0qJoZ6A5AcEN1jfA7SkFMb",
        "id" : "0qJoZ6A5AcEN1jfA7SkFMb",
        "images" : [ {
          "height" : 640,
          "url" : "https://i.scdn.co/image/ab67616d0000b2731b1a8f0542a9d7ded39df326",
          "width" : 640
        }, {
          "height" : 300,
          "url" : "https://i.scdn.co/image/ab67616d00001e021b1a8f0542a9d7ded39df326",
          "width" : 300
        }, {
          "height" : 64,
          "url" : "https://i.scdn.co/image/ab67616d000048511b1a8f0542a9d7ded39df326",
          "width" : 64
        } ],
        "name" : "현악4중주 찬송가 연주곡집 Vol. 2",
        "release_date" : "2020-04-23",
        "release_date_precision" : "day",
        "total_tracks" : 50,
        "type" : "album",
        "uri" : "spotify:album:0qJoZ6A5AcEN1jfA7SkFMb"
      },
      "artists" : [ {
        "external_urls" : {
          "spotify" : "https://open.spotify.com/artist/20rlbkwNSoLrLqQUR7GRcT"
        },
        "href" : "https://api.spotify.com/v1/artists/20rlbkwNSoLrLqQUR7GRcT",
        "id" : "20rlbkwNSoLrLqQUR7GRcT",
        "name" : "Mother’s Lullaby",
        "type" : "artist",
        "uri" : "spotify:artist:20rlbkwNSoLrLqQUR7GRcT"
      } ],
      "disc_number" : 1,
      "duration_ms" : 116938,
      "explicit" : false,
      "external_ids" : {
        "isrc" : "QZEKE1933017"
      },
      "external_urls" : {
        "spotify" : "https://open.spotify.com/track/4KKK9Qfrz6sPX0tyCmuicN"
      },
      "href" : "https://api.spotify.com/v1/tracks/4KKK9Qfrz6sPX0tyCmuicN",
      "id" : "4KKK9Qfrz6sPX0tyCmuicN",
      "is_local" : false,
      "is_playable" : true,
      "name" : "We Give Thee But Thine Own",
      "popularity" : 0,
      "preview_url" : "https://p.scdn.co/mp3-preview/48449665d69d1bcb906cb249d70287aa483d8872?cid=774b29d4f13844c495f206cafdad9c86",
      "track_number" : 19,
      "type" : "track",
      "uri" : "spotify:track:4KKK9Qfrz6sPX0tyCmuicN"
    }, {
      "album" : {
        "album_type" : "album",
        "artists" : [ {
          "external_urls" : {
            "spotify" : "https://open.spotify.com/artist/15WWcNQdZWCY1AAVPbZ6Hi"
          },
          "href" : "https://api.spotify.com/v1/artists/15WWcNQdZWCY1AAVPbZ6Hi",
          "id" : "15WWcNQdZWCY1AAVPbZ6Hi",
          "name" : "Utah Hymnal Association",
          "type" : "artist",
          "uri" : "spotify:artist:15WWcNQdZWCY1AAVPbZ6Hi"
        } ],
        "external_urls" : {
          "spotify" : "https://open.spotify.com/album/2Y5h1AqHNYiMTmJafPcNZ3"
        },
        "href" : "https://api.spotify.com/v1/albums/2Y5h1AqHNYiMTmJafPcNZ3",
        "id" : "2Y5h1AqHNYiMTmJafPcNZ3",
        "images" : [ {
          "height" : 640,
          "url" : "https://i.scdn.co/image/ab67616d0000b27317ff0ab60441b9448b7f24b9",
          "width" : 640
        }, {
          "height" : 300,
          "url" : "https://i.scdn.co/image/ab67616d00001e0217ff0ab60441b9448b7f24b9",
          "width" : 300
        }, {
          "height" : 64,
          "url" : "https://i.scdn.co/image/ab67616d0000485117ff0ab60441b9448b7f24b9",
          "width" : 64
        } ],
        "name" : "Faith of Our Fathers",
        "release_date" : "2016-03-01",
        "release_date_precision" : "day",
        "total_tracks" : 16,
        "type" : "album",
        "uri" : "spotify:album:2Y5h1AqHNYiMTmJafPcNZ3"
      },
      "artists" : [ {
        "external_urls" : {
          "spotify" : "https://open.spotify.com/artist/15WWcNQdZWCY1AAVPbZ6Hi"
        },
        "href" : "https://api.spotify.com/v1/artists/15WWcNQdZWCY1AAVPbZ6Hi",
        "id" : "15WWcNQdZWCY1AAVPbZ6Hi",
        "name" : "Utah Hymnal Association",
        "type" : "artist",
        "uri" : "spotify:artist:15WWcNQdZWCY1AAVPbZ6Hi"
      } ],
      "disc_number" : 1,
      "duration_ms" : 27327,
      "explicit" : false,
      "external_ids" : {
        "isrc" : "TCJPE1643863"
      },
      "external_urls" : {
        "spotify" : "https://open.spotify.com/track/4ilbxrn9MxvkbjguddpCEe"
      },
      "href" : "https://api.spotify.com/v1/tracks/4ilbxrn9MxvkbjguddpCEe",
      "id" : "4ilbxrn9MxvkbjguddpCEe",
      "is_local" : false,
      "is_playable" : true,
      "name" : "We Give Thee But Thine Own",
      "popularity" : 0,
      "preview_url" : null,
      "track_number" : 16,
      "type" : "track",
      "uri" : "spotify:track:4ilbxrn9MxvkbjguddpCEe"
    }, {
      "album" : {
        "album_type" : "album",
        "artists" : [ {
          "external_urls" : {
            "spotify" : "https://open.spotify.com/artist/5aHE1EAT1F5E1kdvWCqObF"
          },
          "href" : "https://api.spotify.com/v1/artists/5aHE1EAT1F5E1kdvWCqObF",
          "id" : "5aHE1EAT1F5E1kdvWCqObF",
          "name" : "Steven Anderson",
          "type" : "artist",
          "uri" : "spotify:artist:5aHE1EAT1F5E1kdvWCqObF"
        } ],
        "external_urls" : {
          "spotify" : "https://open.spotify.com/album/3AQyb34kl40Vssdw6LhYwT"
        },
        "href" : "https://api.spotify.com/v1/albums/3AQyb34kl40Vssdw6LhYwT",
        "id" : "3AQyb34kl40Vssdw6LhYwT",
        "images" : [ {
          "height" : 640,
          "url" : "https://i.scdn.co/image/ab67616d0000b273acbe13e7d58b31c2d94603f7",
          "width" : 640
        }, {
          "height" : 300,
          "url" : "https://i.scdn.co/image/ab67616d00001e02acbe13e7d58b31c2d94603f7",
          "width" : 300
        }, {
          "height" : 64,
          "url" : "https://i.scdn.co/image/ab67616d00004851acbe13e7d58b31c2d94603f7",
          "width" : 64
        } ],
        "name" : "History Of The Hymnal (100 Classic Christian Hymns)",
        "release_date" : "2007-05-08",
        "release_date_precision" : "day",
        "total_tracks" : 100,
        "type" : "album",
        "uri" : "spotify:album:3AQyb34kl40Vssdw6LhYwT"
      },
      "artists" : [ {
        "external_urls" : {
          "spotify" : "https://open.spotify.com/artist/5aHE1EAT1F5E1kdvWCqObF"
        },
        "href" : "https://api.spotify.com/v1/artists/5aHE1EAT1F5E1kdvWCqObF",
        "id" : "5aHE1EAT1F5E1kdvWCqObF",
        "name" : "Steven Anderson",
        "type" : "artist",
        "uri" : "spotify:artist:5aHE1EAT1F5E1kdvWCqObF"
      } ],
      "disc_number" : 1,
      "duration_ms" : 66506,
      "explicit" : false,
      "external_ids" : {
        "isrc" : "CAM460701202"
      },
      "external_urls" : {
        "spotify" : "https://open.spotify.com/track/1gTZHa2xcFgddO3WPAQ8Ng"
      },
      "href" : "https://api.spotify.com/v1/tracks/1gTZHa2xcFgddO3WPAQ8Ng",
      "id" : "1gTZHa2xcFgddO3WPAQ8Ng",
      "is_local" : false,
      "is_playable" : true,
      "name" : "We Give Thee But Thine Own",
      "popularity" : 1,
      "preview_url" : "https://p.scdn.co/mp3-preview/b975e05888117fb09703aae7500da9286ad35a49?cid=774b29d4f13844c495f206cafdad9c86",
      "track_number" : 27,
      "type" : "track",
      "uri" : "spotify:track:1gTZHa2xcFgddO3WPAQ8Ng"
    }, {
      "album" : {
        "album_type" : "album",
        "artists" : [ {
          "external_urls" : {
            "spotify" : "https://open.spotify.com/artist/15WWcNQdZWCY1AAVPbZ6Hi"
          },
          "href" : "https://api.spotify.com/v1/artists/15WWcNQdZWCY1AAVPbZ6Hi",
          "id" : "15WWcNQdZWCY1AAVPbZ6Hi",
          "name" : "Utah Hymnal Association",
          "type" : "artist",
          "uri" : "spotify:artist:15WWcNQdZWCY1AAVPbZ6Hi"
        } ],
        "external_urls" : {
          "spotify" : "https://open.spotify.com/album/0kNk7JJtRCAFCeL5CuejuL"
        },
        "href" : "https://api.spotify.com/v1/albums/0kNk7JJtRCAFCeL5CuejuL",
        "id" : "0kNk7JJtRCAFCeL5CuejuL",
        "images" : [ {
          "height" : 640,
          "url" : "https://i.scdn.co/image/ab67616d0000b273eaae38c035acb5fbb06089eb",
          "width" : 640
        }, {
          "height" : 300,
          "url" : "https://i.scdn.co/image/ab67616d00001e02eaae38c035acb5fbb06089eb",
          "width" : 300
        }, {
          "height" : 64,
          "url" : "https://i.scdn.co/image/ab67616d00004851eaae38c035acb5fbb06089eb",
          "width" : 64
        } ],
        "name" : "Now Let Us Rejoice",
        "release_date" : "2016-03-01",
        "release_date_precision" : "day",
        "total_tracks" : 10,
        "type" : "album",
        "uri" : "spotify:album:0kNk7JJtRCAFCeL5CuejuL"
      },
      "artists" : [ {
        "external_urls" : {
          "spotify" : "https://open.spotify.com/artist/15WWcNQdZWCY1AAVPbZ6Hi"
        },
        "href" : "https://api.spotify.com/v1/artists/15WWcNQdZWCY1AAVPbZ6Hi",
        "id" : "15WWcNQdZWCY1AAVPbZ6Hi",
        "name" : "Utah Hymnal Association",
        "type" : "artist",
        "uri" : "spotify:artist:15WWcNQdZWCY1AAVPbZ6Hi"
      } ],
      "disc_number" : 1,
      "duration_ms" : 27527,
      "explicit" : false,
      "external_ids" : {
        "isrc" : "TCJPE1644056"
      },
      "external_urls" : {
        "spotify" : "https://open.spotify.com/track/0Vce8QKNfocfBhZLmVCJFu"
      },
      "href" : "https://api.spotify.com/v1/tracks/0Vce8QKNfocfBhZLmVCJFu",
      "id" : "0Vce8QKNfocfBhZLmVCJFu",
      "is_local" : false,
      "is_playable" : true,
      "name" : "We Give Thee But Thine Own",
      "popularity" : 0,
      "preview_url" : null,
      "track_number" : 9,
      "type" : "track",
      "uri" : "spotify:track:0Vce8QKNfocfBhZLmVCJFu"
    }, {
      "album" : {
        "album_type" : "album",
        "artists" : [ {
          "external_urls" : {
            "spotify" : "https://open.spotify.com/artist/5yFBNdRUEW4UnQSqksEzoG"
          },
          "href" : "https://api.spotify.com/v1/artists/5yFBNdRUEW4UnQSqksEzoG",
          "id" : "5yFBNdRUEW4UnQSqksEzoG",
          "name" : "Holly Aloise",
          "type" : "artist",
          "uri" : "spotify:artist:5yFBNdRUEW4UnQSqksEzoG"
        } ],
        "external_urls" : {
          "spotify" : "https://open.spotify.com/album/3fueFu3g2GVnSEOAuyYrFC"
        },
        "href" : "https://api.spotify.com/v1/albums/3fueFu3g2GVnSEOAuyYrFC",
        "id" : "3fueFu3g2GVnSEOAuyYrFC",
        "images" : [ {
          "height" : 640,
          "url" : "https://i.scdn.co/image/ab67616d0000b2731f001d366ac1916e841ae745",
          "width" : 640
        }, {
          "height" : 300,
          "url" : "https://i.scdn.co/image/ab67616d00001e021f001d366ac1916e841ae745",
          "width" : 300
        }, {
          "height" : 64,
          "url" : "https://i.scdn.co/image/ab67616d000048511f001d366ac1916e841ae745",
          "width" : 64
        } ],
        "name" : "Piano Tracks 14- Special Occasions",
        "release_date" : "2015-03-18",
        "release_date_precision" : "day",
        "total_tracks" : 25,
        "type" : "album",
        "uri" : "spotify:album:3fueFu3g2GVnSEOAuyYrFC"
      },
      "artists" : [ {
        "external_urls" : {
          "spotify" : "https://open.spotify.com/artist/5yFBNdRUEW4UnQSqksEzoG"
        },
        "href" : "https://api.spotify.com/v1/artists/5yFBNdRUEW4UnQSqksEzoG",
        "id" : "5yFBNdRUEW4UnQSqksEzoG",
        "name" : "Holly Aloise",
        "type" : "artist",
        "uri" : "spotify:artist:5yFBNdRUEW4UnQSqksEzoG"
      } ],
      "disc_number" : 1,
      "duration_ms" : 63947,
      "explicit" : false,
      "external_ids" : {
        "isrc" : "GB-SMU-20-44734"
      },
      "external_urls" : {
        "spotify" : "https://open.spotify.com/track/6SVfuFFa79X9Q7HB7aKljE"
      },
      "href" : "https://api.spotify.com/v1/tracks/6SVfuFFa79X9Q7HB7aKljE",
      "id" : "6SVfuFFa79X9Q7HB7aKljE",
      "is_local" : false,
      "is_playable" : true,
      "name" : "We Give Thee But Thine Own",
      "popularity" : 0,
      "preview_url" : "https://p.scdn.co/mp3-preview/1c6152f851225d2609e8d326933473d4a9db72c3?cid=774b29d4f13844c495f206cafdad9c86",
      "track_number" : 24,
      "type" : "track",
      "uri" : "spotify:track:6SVfuFFa79X9Q7HB7aKljE"
    }, {
      "album" : {
        "album_type" : "album",
        "artists" : [ {
          "external_urls" : {
            "spotify" : "https://open.spotify.com/artist/20rlbkwNSoLrLqQUR7GRcT"
          },
          "href" : "https://api.spotify.com/v1/artists/20rlbkwNSoLrLqQUR7GRcT",
          "id" : "20rlbkwNSoLrLqQUR7GRcT",
          "name" : "Mother’s Lullaby",
          "type" : "artist",
          "uri" : "spotify:artist:20rlbkwNSoLrLqQUR7GRcT"
        } ],
        "external_urls" : {
          "spotify" : "https://open.spotify.com/album/74mS5VsGCnCbR1hxN5oCpn"
        },
        "href" : "https://api.spotify.com/v1/albums/74mS5VsGCnCbR1hxN5oCpn",
        "id" : "74mS5VsGCnCbR1hxN5oCpn",
        "images" : [ {
          "height" : 640,
          "url" : "https://i.scdn.co/image/ab67616d0000b27335b71daa5107db21a9c3a43f",
          "width" : 640
        }, {
          "height" : 300,
          "url" : "https://i.scdn.co/image/ab67616d00001e0235b71daa5107db21a9c3a43f",
          "width" : 300
        }, {
          "height" : 64,
          "url" : "https://i.scdn.co/image/ab67616d0000485135b71daa5107db21a9c3a43f",
          "width" : 64
        } ],
        "name" : "Hymns Vol.3 (#51~#75)",
        "release_date" : "2019-02-22",
        "release_date_precision" : "day",
        "total_tracks" : 25,
        "type" : "album",
        "uri" : "spotify:album:74mS5VsGCnCbR1hxN5oCpn"
      },
      "artists" : [ {
        "external_urls" : {
          "spotify" : "https://open.spotify.com/artist/20rlbkwNSoLrLqQUR7GRcT"
        },
        "href" : "https://api.spotify.com/v1/artists/20rlbkwNSoLrLqQUR7GRcT",
        "id" : "20rlbkwNSoLrLqQUR7GRcT",
        "name" : "Mother’s Lullaby",
        "type" : "artist",
        "uri" : "spotify:artist:20rlbkwNSoLrLqQUR7GRcT"
      } ],
      "disc_number" : 1,
      "duration_ms" : 130434,
      "explicit" : false,
      "external_ids" : {
        "isrc" : "KRZ291908382"
      },
      "external_urls" : {
        "spotify" : "https://open.spotify.com/track/6EO8Fi6qDfLEdqTdDHTGO9"
      },
      "href" : "https://api.spotify.com/v1/tracks/6EO8Fi6qDfLEdqTdDHTGO9",
      "id" : "6EO8Fi6qDfLEdqTdDHTGO9",
      "is_local" : false,
      "is_playable" : true,
      "name" : "We Give Thee But Thine Own",
      "popularity" : 0,
      "preview_url" : "https://p.scdn.co/mp3-preview/d4d6917e05b663aec6939bde8f00610e270334a2?cid=774b29d4f13844c495f206cafdad9c86",
      "track_number" : 19,
      "type" : "track",
      "uri" : "spotify:track:6EO8Fi6qDfLEdqTdDHTGO9"
    } ],
    "limit" : 10,
    "next" : "https://api.spotify.com/v1/search?query=We+Give+Thee+But+Thine+Own&type=track&market=US&offset=15&limit=10",
    "offset" : 5,
    "previous" : "https://api.spotify.com/v1/search?query=We+Give+Thee+But+Thine+Own&type=track&market=US&offset=0&limit=10",
    "total" : 22
  }
}