{
  "tracks" : {
    "href" : "https://api.spotify.com/v1/search?query=Thy+Love%2C+O+God&type=track&market=US&offset=5&limit=10",
    "items" : [ {
      "album" : {
        "album_type" : "compilation",
        "artists" : [ {
          "external_urls" : {
            "spotify" : "https://open.spotify.com/artist/0LyfQWJT6nXafLPZqxe9Of"
          },
          "href" : "https://api.spotify.com/v1/artists/0LyfQWJT6nXafLPZqxe9Of",
          "id" : "0LyfQWJT6nXafLPZqxe9Of",
          "name" : "Various Artists",
          "type" : "artist",
          "uri" : "spotify:artist:0LyfQWJT6nXafLPZqxe9Of"
        } ],
        "external_urls" : {
          "spotify" : "https://open.spotify.com/album/2XTkukI3WenQubpd39tUcO"
        },
        "href" : "https://api.spotify.com/v1/albums/2XTkukI3WenQubpd39tUcO",
        "id" : "2XTkukI3WenQubpd39tUcO",
        "images" : [ {
          "height" : 640,
          "url" : "https://i.scdn.co/image/ab67616d0000b273aea54ca47316bad67449ee4c",
          "width" : 640
        }, {
          "height" : 300,
          "url" : "https://i.scdn.co/image/ab67616d00001e02aea54ca47316bad67449ee4c",
          "width" : 300
        }, {
          "height" : 64,
          "url" : "https://i.scdn.co/image/ab67616d00004851aea54ca47316bad67449ee4c",
          "width" : 64
        } ],
        "name" : "Divine Prayers",
        "release_date" : "2008-01-01",
        "release_date_precision" : "day",
        "total_tracks" : 62,
        "type" : "album",
        "uri" : "spotify:album:2XTkukI3WenQubpd39tUcO"
      },
      "artists" : [ {
        "external_urls" : {
          "spotify" : "https://open.spotify.com/artist/2Fc5HyDv7GDSKkLRK4vk6g"
        },
        "href" : "https://api.spotify.com/v1/artists/2Fc5HyDv7GDSKkLRK4vk6g",
        "id" : "2Fc5HyDv7GDSKkLRK4vk6g",
        "name" : "May Khadem",
        "type" : "artist",
        "uri" : "spotify:artist:2Fc5HyDv7GDSKkLRK4vk6g"
      } ],
      "disc_number" : 1,
      "duration_ms" : 43640,
      "explicit" : false,
      "external_ids" : {
        "isrc" : "ushm20901659"
      },
      "external_urls" : {
        "spotify" : "https://open.spotify.com/track/6ViiDvk64CbXc5HhKQBuxO"
      },
      "href" : "https://api.spotify.com/v1/tracks/6ViiDvk64CbXc5HhKQBuxO",
      "id" : "6ViiDvk64CbXc5HhKQBuxO",
      "is_local" : false,
      "is_playable" : true,
      "name" : "O Lord My God! Assist Thy Loved Ones",
      "popularity" : 0,
      "preview_url" : "https://p.scdn.co/mp3-preview/04491b522796269f6b525e4427d3229368d954a2?cid=774b29d4f13844c495f206cafdad9c86",
      "track_number" : 22,
      "type" : "track",
      "uri" : "spotify:track:6ViiDvk64CbXc5HhKQBuxO"
    }, {
      "album" : {
        "album_type" : "album",
        "artists" : [ {
          "external_urls" : {
            "spotify" : "https://open.spotify.com/artist/3x8JKYweUaLjF441vguZ2D"
          },
          "href" : "https://api.spotify.com/v1/artists/3x8JKYweUaLjF441vguZ2D",
          "id" : "3x8JKYweUaLjF441vguZ2D",
          "name" : "Altar of Praise Chorale",
          "type" : "artist",
          "uri" : "spotify:artist:3x8JKYweUaLjF441vguZ2D"
        } ],
        "external_urls" : {
          "spotify" : "https://open.spotify.com/album/5IEho7BfIEE4VKhabTJrCL"
        },
        "href" : "https://api.spotify.com/v1/albums/5IEho7BfIEE4VKhabTJrCL",
        "id" : "5IEho7BfIEE4VKhabTJrCL",
        "images" : [ {
          "height" : 640,
          "url" : "https://i.scdn.co/image/ab67616d0000b273859e7ed5f475f1610885b3c6",
          "width" : 640
        }, {
          "height" : 300,
          "url" : "https://i.scdn.co/image/ab67616d00001e02859e7ed5f475f1610885b3c6",
          "width" : 300
        }, {
          "height" : 64,
          "url" : "https://i.scdn.co/image/ab67616d00004851859e7ed5f475f1610885b3c6",
          "width" : 64
        } ],
        "name" : "Be Thou Exalted",
        "release_date" : "2020-04-22",
        "release_date_precision" : "day",
        "total_tracks" : 15,
        "type" : "album",
        "uri" : "spotify:album:5IEho7BfIEE4VKhabTJrCL"
      },
      "artists" : [ {
        "external_urls" : {
          "spotify" : "https://open.spotify.com/artist/3x8JKYweUaLjF441vguZ2D"
        },
        "href" : "https://api.spotify.com/v1/artists/3x8JKYweUaLjF441vguZ2D",
        "id" : "3x8JKYweUaLjF441vguZ2D",
        "name" : "Altar of Praise Chorale",
        "type" : "artist",
        "uri" : "spotify:artist:3x8JKYweUaLjF441vguZ2D"
      } ],
      "disc_number" : 1,
      "duration_ms" : 115106,
      "explicit" : false,
      "external_ids" : {
        "isrc" : "usdy42075078"
      },
      "external_urls" : {
        "spotify" : "https://open.spotify.com/track/5eiqoCXaaXpFn4UupBVAze"
      },
      "href" : "https://api.spotify.com/v1/tracks/5eiqoCXaaXpFn4UupBVAze",
      "id" : "5eiqoCXaaXpFn4UupBVAze",
      "is_local" : false,
      "is_playable" : true,
      "name" : "My God, How Endless Is Thy Love",
      "popularity" : 0,
      "preview_url" : "https://p.scdn.co/mp3-preview/448e5b0bcf99f9cc2543954c8e8f0f4062a6f79b?cid=774b29d4f13844c495f206cafdad9c86",
      "track_number" : 7,
      "type" : "track",
      "uri" : "spotify:track:5eiqoCXaaXpFn4UupBVAze"
    }, {
      "album" : {
        "album_type" : "album",
        "artists" : [ {
          "external_urls" : {
            "spotify" : "https://open.spotify.com/artist/48Bwulu2geEp8XggseWFS9"
          },
          "href" : "https://api.spotify.com/v1/artists/48Bwulu2geEp8XggseWFS9",
          "id" : "48Bwulu2geEp8XggseWFS9",
          "name" : "Grace Markay",
          "type" : "artist",
          "uri" : "spotify:artist:48Bwulu2geEp8XggseWFS9"
        } ],
        "external_urls" : {
          "spotify" : "https://open.spotify.com/album/4qEvGXAO7PSH1V66FHAWJ4"
        },
        "href" : "https://api.spotify.com/v1/albums/4qEvGXAO7PSH1V66FHAWJ4",
        "id" : "4qEvGXAO7PSH1V66FHAWJ4",
        "images" : [ {
          "height" : 640,
          "url" : "https://i.scdn.co/image/ab67616d0000b27309d71617c356524a72342708",
          "width" : 640
        }, {
          "height" : 300,
          "url" : "https://i.scdn.co/image/ab67616d00001e0209d71617c356524a72342708",
          "width" : 300
        }, {
          "height" : 64,
          "url" : "https://i.scdn.co/image/ab67616d0000485109d71617c356524a72342708",
          "width" : 64
        } ],
        "name" : "You Are the Highest Honor of Our People",
        "release_date" : "2008-10-01",
        "release_date_precision" : "day",
        "total_tracks" : 11,
        "type" : "album",
        "uri" : "spotify:album:4qEvGXAO7PSH1V66FHAWJ4"
      },
      "artists" : [ {
        "external_urls" : {
          "spotify" : "https://open.spotify.com/artist/48Bwulu2geEp8XggseWFS9"
        },
        "href" : "https://api.spotify.com/v1/artists/48Bwulu2geEp8XggseWFS9",
        "id" : "48Bwulu2geEp8XggseWFS9",
        "name" : "Grace Markay",
        "type" : "artist",
        "uri" : "spotify:artist:48Bwulu2geEp8XggseWFS9"
      } ],
      "disc_number" : 1,
      "duration_ms" : 216800,
      "explicit" : false,
      "external_ids" : {
        "isrc" : "ushm81413036"
      },
      "external_urls" : {
        "spotify" : "https://open.spotify.com/track/0og8VvT0NO3tqRhVsUGqve"
      },
      "href" : "https://api.spotify.com/v1/tracks/0og8VvT0NO3tqRhVsUGqve",
      "id" : "0og8VvT0NO3tqRhVsUGqve",
      "is_local" : false,
      "is_playable" : true,
      "name" : "Thou Shalt Love the Lord Thy God",
      "popularity" : 0,
      "preview_url" : "https://p.scdn.co/mp3-preview/9c0d55fff91455e3702b34d1d0423ea5470902e6?cid=774b29d4f13844c495f206cafdad9c86",
      "track_number" : 5,
      "type" : "track",
      "uri" : "spotify:track:0og8VvT0NO3tqRhVsUGqve"
    }, {
      "album" : {
        "album_type" : "album",
        "artists" : [ {
          "external_urls" : {
            "spotify" : "https://open.spotify.com/artist/6QDdmQZJ2Xvc3DDhb5O1ZH"
          },
          "href" : "https://api.spotify.com/v1/artists/6QDdmQZJ2Xvc3DDhb5O1ZH",
          "id" : "6QDdmQZJ2Xvc3DDhb5O1ZH",
          "name" : "M.O.G. Worship",
          "type" : "artist",
          "uri" : "spotify:artist:6QDdmQZJ2Xvc3DDhb5O1ZH"
        } ],
        "external_urls" : {
          "spotify" : "https://open.spotify.com/album/5vREb1ESTLDGAz5FCDT3CK"
        },
        "href" : "https://api.spotify.com/v1/albums/5vREb1ESTLDGAz5FCDT3CK",
        "id" : "5vREb1ESTLDGAz5FCDT3CK",
        "images" : [ {
          "height" : 640,
          "url" : "https://i.scdn.co/image/ab67616d0000b273c2f80f65a26e83b2ee2ae4d3",
          "width" : 640
        }, {
          "height" : 300,
          "url" : "https://i.scdn.co/image/ab67616d00001e02c2f80f65a26e83b2ee2ae4d3",
          "width" : 300
        }, {
          "height" : 64,
          "url" : "https://i.scdn.co/image/ab67616d00004851c2f80f65a26e83b2ee2ae4d3",
          "width" : 64
        } ],
        "name" : "It's Your Love",
        "release_date" : "2018-08-30",
        "release_date_precision" : "day",
        "total_tracks" : 10,
        "type" : "album",
        "uri" : "spotify:album:5vREb1ESTLDGAz5FCDT3CK"
      },
      "artists" : [ {
        "external_urls" : {
          "spotify" : "https://open.spotify.com/artist/6QDdmQZJ2Xvc3DDhb5O1ZH"
        },
        "href" : "https://api.spotify.com/v1/artists/6QDdmQZJ2Xvc3DDhb5O1ZH",
        "id" : "6QDdmQZJ2Xvc3DDhb5O1ZH",
        "name" : "M.O.G. Worship",
        "type" : "artist",
        "uri" : "spotify:artist:6QDdmQZJ2Xvc3DDhb5O1ZH"
      } ],
      "disc_number" : 1,
      "duration_ms" : 151951,
      "explicit" : false,
      "external_ids" : {
        "isrc" : "QZ22B1990561"
      },
      "external_urls" : {
        "spotify" : "https://open.spotify.com/track/2Hn2kUDuwYki43p9EgL0mq"
      },
      "href" : "https://api.spotify.com/v1/tracks/2Hn2kUDuwYki43p9EgL0mq",
      "id" : "2Hn2kUDuwYki43p9EgL0mq",
      "is_local" : false,
      "is_playable" : true,
      "name" : "The Lord Thy God",
      "popularity" : 0,
      "preview_url" : "https://p.scdn.co/mp3-preview/1cdbd1bdcb17f52105d6533812ba386ffca87803?cid=774b29d4f13844c495f206cafdad9c86",
      "track_number" : 9,
      "type" : "track",
      "uri" : "spotify:track:2Hn2kUDuwYki43p9EgL0mq"
    }, {
      "album" : {
        "album_type" : "compilation",
        "artists" : [ {
          "external_urls" : {
            "spotify" : "https://open.spotify.com/artist/0LyfQWJT6nXafLPZqxe9Of"
          },
          "href" : "https://api.spotify.com/v1/artists/0LyfQWJT6nXafLPZqxe9Of",
          "id" : "0LyfQWJT6nXafLPZqxe9Of",
          "name" : "Various Artists",
          "type" : "artist",
          "uri" : "spotify:artist:0LyfQWJT6nXafLPZqxe9Of"
        } ],
        "external_urls" : {
          "spotify" : "https://open.spotify.com/album/4Z4hcxLRsKJbXKa1Zx5nqY"
        },
        "href" : "https://api.spotify.com/v1/albums/4Z4hcxLRsKJbXKa1Zx5nqY",
        "id" : "4Z4hcxLRsKJbXKa1Zx5nqY",
        "images" : [ {
          "height" : 640,
          "url" : "https://i.scdn.co/image/ab67616d0000b2739156f257a28ff8bc8072ddda",
          "width" : 640
        }, {
          "height" : 300,
          "url" : "https://i.scdn.co/image/ab67616d00001e029156f257a28ff8bc8072ddda",
          "width" : 300
        }, {
          "height" : 64,
          "url" : "https://i.scdn.co/image/ab67616d000048519156f257a28ff8bc8072ddda",
          "width" : 64
        } ],
        "name" : "Fifty Best-Loved Hymns",
        "release_date" : "2012-11-09",
        "release_date_precision" : "day",
        "total_tracks" : 50,
        "type" : "album",
        "uri" : "spotify:album:4Z4hcxLRsKJbXKa1Zx5nqY"
      },
      "artists" : [ {
        "external_urls" : {
          "spotify" : "https://open.spotify.com/artist/4ACDYnDbT5vvtq2Wujgti9"
        },
        "href" : "https://api.spotify.com/v1/artists/4ACDYnDbT5vvtq2Wujgti9",
        "id" : "4ACDYnDbT5vvtq2Wujgti9",
        "name" : "Basil Harwood",
        "type" : "artist",
        "uri" : "spotify:artist:4ACDYnDbT5vvtq2Wujgti9"
      }, {
        "external_urls" : {
          "spotify" : "https://open.spotify.com/artist/0FWsqdOkrZ1hGmXYWCwfTw"
        },
        "href" : "https://api.spotify.com/v1/artists/0FWsqdOkrZ1hGmXYWCwfTw",
        "id" : "0FWsqdOkrZ1hGmXYWCwfTw",
        "name" : "Choir of Trinity College, University of Melbourne",
        "type" : "artist",
        "uri" : "spotify:artist:0FWsqdOkrZ1hGmXYWCwfTw"
      }, {
        "external_urls" : {
          "spotify" : "https://open.spotify.com/artist/3XmMSmK7VVucx0z2DLh0Eq"
        },
        "href" : "https://api.spotify.com/v1/artists/3XmMSmK7VVucx0z2DLh0Eq",
        "id" : "3XmMSmK7VVucx0z2DLh0Eq",
        "name" : "Australian Chamber Brass Ensemble",
        "type" : "artist",
        "uri" : "spotify:artist:3XmMSmK7VVucx0z2DLh0Eq"
      }, {
        "external_urls" : {
          "spotify" : "https://open.spotify.com/artist/3aQcnRvK4fF3Kq2axKjbYO"
        },
        "href" : "https://api.spotify.com/v1/artists/3aQcnRvK4fF3Kq2axKjbYO",
        "id" : "3aQcnRvK4fF3Kq2axKjbYO",
        "name" : "John O'Donnell",
        "type" : "artist",
        "uri" : "spotify:artist:3aQcnRvK4fF3Kq2axKjbYO"
      }, {
        "external_urls" : {
          "spotify" : "https://open.spotify.com/artist/2cnmogXOELDovpCcOKAdGH"
        },
        "href" : "https://api.spotify.com/v1/artists/2cnmogXOELDovpCcOKAdGH",
        "id" : "2cnmogXOELDovpCcOKAdGH",
        "name" : "Michael Leighton Jones",
        "type" : "artist",
        "uri" : "spotify:artist:2cnmogXOELDovpCcOKAdGH"
      } ],
      "disc_number" : 1,
      "duration_ms" : 328200,
      "explicit" : false,
      "external_ids" : {
        "isrc" : "AUAB01250566"
      },
      "external_urls" : {
        "spotify" : "https://open.spotify.com/track/1RpmpPVAehATKOnLqGSLAj"
      },
      "href" : "https://api.spotify.com/v1/tracks/1RpmpPVAehATKOnLqGSLAj",
      "id" : "1RpmpPVAehATKOnLqGSLAj",
      "is_local" : false,
      "is_playable" : true,
      "name" : "Thy Hand, O God, Has Guided",
      "popularity" : 1,
      "preview_url" : null,
      "track_number" : 42,
      "type" : "track",
      "uri" : "spotify:track:1RpmpPVAehATKOnLqGSLAj"
    }, {
      "album" : {
        "album_type" : "album",
        "artists" : [ {
          "external_urls" : {
            "spotify" : "https://open.spotify.com/artist/6uISOqs00DtN1ikucKXJll"
          },
          "href" : "https://api.spotify.com/v1/artists/6uISOqs00DtN1ikucKXJll",
          "id" : "6uISOqs00DtN1ikucKXJll",
          "name" : "Lege Artis",
          "type" : "artist",
          "uri" : "spotify:artist:6uISOqs00DtN1ikucKXJll"
        } ],
        "external_urls" : {
          "spotify" : "https://open.spotify.com/album/0UEhPG0HcDjg0TX5B54eKq"
        },
        "href" : "https://api.spotify.com/v1/albums/0UEhPG0HcDjg0TX5B54eKq",
        "id" : "0UEhPG0HcDjg0TX5B54eKq",
        "images" : [ {
          "height" : 640,
          "url" : "https://i.scdn.co/image/ab67616d0000b27305e492264a2c5bf04b65e421",
          "width" : 640
        }, {
          "height" : 300,
          "url" : "https://i.scdn.co/image/ab67616d00001e0205e492264a2c5bf04b65e421",
          "width" : 300
        }, {
          "height" : 64,
          "url" : "https://i.scdn.co/image/ab67616d0000485105e492264a2c5bf04b65e421",
          "width" : 64
        } ],
        "name" : "We Glorify You With Love",
        "release_date" : "2003-01-01",
        "release_date_precision" : "day",
        "total_tracks" : 23,
        "type" : "album",
        "uri" : "spotify:album:0UEhPG0HcDjg0TX5B54eKq"
      },
      "artists" : [ {
        "external_urls" : {
          "spotify" : "https://open.spotify.com/artist/6uISOqs00DtN1ikucKXJll"
        },
        "href" : "https://api.spotify.com/v1/artists/6uISOqs00DtN1ikucKXJll",
        "id" : "6uISOqs00DtN1ikucKXJll",
        "name" : "Lege Artis",
        "type" : "artist",
        "uri" : "spotify:artist:6uISOqs00DtN1ikucKXJll"
      }, {
        "external_urls" : {
          "spotify" : "https://open.spotify.com/artist/358LJXUfbOpn3nwVTnGs5u"
        },
        "href" : "https://api.spotify.com/v1/artists/358LJXUfbOpn3nwVTnGs5u",
        "id" : "358LJXUfbOpn3nwVTnGs5u",
        "name" : "Chamber Choir",
        "type" : "artist",
        "uri" : "spotify:artist:358LJXUfbOpn3nwVTnGs5u"
      }, {
        "external_urls" : {
          "spotify" : "https://open.spotify.com/artist/11CZI2gbkBVUqC6lk3Wrjl"
        },
        "href" : "https://api.spotify.com/v1/artists/11CZI2gbkBVUqC6lk3Wrjl",
        "id" : "11CZI2gbkBVUqC6lk3Wrjl",
        "name" : "Boris Abalyan",
        "type" : "artist",
        "uri" : "spotify:artist:11CZI2gbkBVUqC6lk3Wrjl"
      } ],
      "disc_number" : 1,
      "duration_ms" : 99693,
      "explicit" : false,
      "external_ids" : {
        "isrc" : "FR6V81079318"
      },
      "external_urls" : {
        "spotify" : "https://open.spotify.com/track/2yaAHKUnp3d7fXRq6EgF0d"
      },
      "href" : "https://api.spotify.com/v1/tracks/2yaAHKUnp3d7fXRq6EgF0d",
      "id" : "2yaAHKUnp3d7fXRq6EgF0d",
      "is_local" : false,
      "is_playable" : true,
      "name" : "Thy Nativity, O Virgin Birthgiver Of God",
      "popularity" : 0,
      "preview_url" : "https://p.scdn.co/mp3-preview/76d3ffb6c698218b84568bd9436ac82182bc0198?cid=774b29d4f13844c495f206cafdad9c86",
      "track_number" : 13,
      "type" : "track",
      "uri" : "spotify:track:2yaAHKUnp3d7fXRq6EgF0d"
    }, {
      "album" : {
        "album_type" : "album",
        "artists" : [ {
          "external_urls" : {
            "spotify" : "https://open.spotify.com/artist/4uXWdZBS0AGq9Bu0iVEysB"
          },
          "href" : "https://api.spotify.com/v1/artists/4uXWdZBS0AGq9Bu0iVEysB",
          "id" : "4uXWdZBS0AGq9Bu0iVEysB",
          "name" : "Lege Artis Chamber Choir",
          "type" : "artist",
          "uri" : "spotify:artist:4uXWdZBS0AGq9Bu0iVEysB"
        } ],
        "external_urls" : {
          "spotify" : "https://open.spotify.com/album/7efvscNQvBV5EvCLPD4xLk"
        },
        "href" : "https://api.spotify.com/v1/albums/7efvscNQvBV5EvCLPD4xLk",
        "id" : "7efvscNQvBV5EvCLPD4xLk",
        "images" : [ {
          "height" : 640,
          "url" : "https://i.scdn.co/image/ab67616d0000b27395af9f2ecf7ed2c795e458f5",
          "width" : 640
        }, {
          "height" : 300,
          "url" : "https://i.scdn.co/image/ab67616d00001e0295af9f2ecf7ed2c795e458f5",
          "width" : 300
        }, {
          "height" : 64,
          "url" : "https://i.scdn.co/image/ab67616d0000485195af9f2ecf7ed2c795e458f5",
          "width" : 64
        } ],
        "name" : "We Glorify You with Love - Songs to the Virgin Mary",
        "release_date" : "2008-08-12",
        "release_date_precision" : "day",
        "total_tracks" : 23,
        "type" : "album",
        "uri" : "spotify:album:7efvscNQvBV5EvCLPD4xLk"
      },
      "artists" : [ {
        "external_urls" : {
          "spotify" : "https://open.spotify.com/artist/4uXWdZBS0AGq9Bu0iVEysB"
        },
        "href" : "https://api.spotify.com/v1/artists/4uXWdZBS0AGq9Bu0iVEysB",
        "id" : "4uXWdZBS0AGq9Bu0iVEysB",
        "name" : "Lege Artis Chamber Choir",
        "type" : "artist",
        "uri" : "spotify:artist:4uXWdZBS0AGq9Bu0iVEysB"
      } ],
      "disc_number" : 1,
      "duration_ms" : 99693,
      "explicit" : false,
      "external_ids" : {
        "isrc" : "DEB790302230"
      },
      "external_urls" : {
        "spotify" : "https://open.spotify.com/track/6ShJyEDBvtzB0GzVwCVB6q"
      },
      "href" : "https://api.spotify.com/v1/tracks/6ShJyEDBvtzB0GzVwCVB6q",
      "id" : "6ShJyEDBvtzB0GzVwCVB6q",
      "is_local" : false,
      "is_playable" : true,
      "name" : "Thy Nativity, O Virgin Birthgiver Of God",
      "popularity" : 0,
      "preview_url" : "https://p.scdn.co/mp3-preview/bf4141ceac448ed440a09426317b36c614595573?cid=774b29d4f13844c495f206cafdad9c86",
      "track_number" : 13,
      "type" : "track",
      "uri" : "spotify:track:6ShJyEDBvtzB0GzVwCVB6q"
    }, {
      "album" : {
        "album_type" : "album",
        "artists" : [ {
          "external_urls" : {
            "spotify" : "https://open.spotify.com/artist/0e1qejJTNWcu1nrnzQncuF"
          },
          "href" : "https://api.spotify.com/v1/artists/0e1qejJTNWcu1nrnzQncuF",
          "id" : "0e1qejJTNWcu1nrnzQncuF",
          "name" : "Young Prophet",
          "type" : "artist",
          "uri" : "spotify:artist:0e1qejJTNWcu1nrnzQncuF"
        } ],
        "external_urls" : {
          "spotify" : "https://open.spotify.com/album/1fm0msmcqHLJcnYD7CSq1Q"
        },
        "href" : "https://api.spotify.com/v1/albums/1fm0msmcqHLJcnYD7CSq1Q",
        "id" : "1fm0msmcqHLJcnYD7CSq1Q",
        "images" : [ {
          "height" : 640,
          "url" : "https://i.scdn.co/image/ab67616d0000b273b74c9dc0f710fe1eee78d00a",
          "width" : 640
        }, {
          "height" : 300,
          "url" : "https://i.scdn.co/image/ab67616d00001e02b74c9dc0f710fe1eee78d00a",
          "width" : 300
        }, {
          "height" : 64,
          "url" : "https://i.scdn.co/image/ab67616d00004851b74c9dc0f710fe1eee78d00a",
          "width" : 64
        } ],
        "name" : "For the Love of God",
        "release_date" : "2011-04-24",
        "release_date_precision" : "day",
        "total_tracks" : 16,
        "type" : "album",
        "uri" : "spotify:album:1fm0msmcqHLJcnYD7CSq1Q"
      },
      "artists" : [ {
        "external_urls" : {
          "spotify" : "https://open.spotify.com/artist/0e1qejJTNWcu1nrnzQncuF"
        },
        "href" : "https://api.spotify.com/v1/artists/0e1qejJTNWcu1nrnzQncuF",
        "id" : "0e1qejJTNWcu1nrnzQncuF",
        "name" : "Young Prophet",
        "type" : "artist",
        "uri" : "spotify:artist:0e1qejJTNWcu1nrnzQncuF"
      } ],
      "disc_number" : 1,
      "duration_ms" : 297053,
      "explicit" : false,
      "external_ids" : {
        "isrc" : "uscgh1219515"
      },
      "external_urls" : {
        "spotify" : "https://open.spotify.com/track/0bPw1WVjWQIFH671DzLp41"
      },
      "href" : "https://api.spotify.com/v1/tracks/0bPw1WVjWQIFH671DzLp41",
      "id" : "0bPw1WVjWQIFH671DzLp41",
      "is_local" : false,
      "is_playable" : true,
      "name" : "Love Thy Neighbor",
      "popularity" : 0,
      "preview_url" : "https://p.scdn.co/mp3-preview/2291fa068fcd1a2d04265492ea43c0dab6a27d39?cid=774b29d4f13844c495f206cafdad9c86",
      "track_number" : 9,
      "type" : "track",
      "uri" : "spotify:track:0bPw1WVjWQIFH671DzLp41"
    }, {
      "album" : {
        "album_type" : "album",
        "artists" : [ {
          "external_urls" : {
            "spotify" : "https://open.spotify.com/artist/3CrRSBM3g28LyO4DPkPk16"
          },
          "href" : "https://api.spotify.com/v1/artists/3CrRSBM3g28LyO4DPkPk16",
          "id" : "3CrRSBM3g28LyO4DPkPk16",
          "name" : "Methodist Central Hall Choir, Westminster",
          "type" : "artist",
          "uri" : "spotify:artist:3CrRSBM3g28LyO4DPkPk16"
        }, {
          "external_urls" : {
            "spotify" : "https://open.spotify.com/artist/14xoJp5R8MrD1ldOi19rg5"
          },
          "href" : "https://api.spotify.com/v1/artists/14xoJp5R8MrD1ldOi19rg5",
          "id" : "14xoJp5R8MrD1ldOi19rg5",
          "name" : "John Chapman",
          "type" : "artist",
          "uri" : "spotify:artist:14xoJp5R8MrD1ldOi19rg5"
        } ],
        "external_urls" : {
          "spotify" : "https://open.spotify.com/album/4GETqD0OJw504KR7VcVZGV"
        },
        "href" : "https://api.spotify.com/v1/albums/4GETqD0OJw504KR7VcVZGV",
        "id" : "4GETqD0OJw504KR7VcVZGV",
        "images" : [ {
          "height" : 640,
          "url" : "https://i.scdn.co/image/ab67616d0000b273e1ca0b812dc17000aa9492ad",
          "width" : 640
        }, {
          "height" : 300,
          "url" : "https://i.scdn.co/image/ab67616d00001e02e1ca0b812dc17000aa9492ad",
          "width" : 300
        }, {
          "height" : 64,
          "url" : "https://i.scdn.co/image/ab67616d00004851e1ca0b812dc17000aa9492ad",
          "width" : 64
        } ],
        "name" : "Charles Wesley - 20 Favourite Hymns",
        "release_date" : "1985-01-01",
        "release_date_precision" : "day",
        "total_tracks" : 89,
        "type" : "album",
        "uri" : "spotify:album:4GETqD0OJw504KR7VcVZGV"
      },
      "artists" : [ {
        "external_urls" : {
          "spotify" : "https://open.spotify.com/artist/3CrRSBM3g28LyO4DPkPk16"
        },
        "href" : "https://api.spotify.com/v1/artists/3CrRSBM3g28LyO4DPkPk16",
        "id" : "3CrRSBM3g28LyO4DPkPk16",
        "name" : "Methodist Central Hall Choir, Westminster",
        "type" : "artist",
        "uri" : "spotify:artist:3CrRSBM3g28LyO4DPkPk16"
      }, {
        "external_urls" : {
          "spotify" : "https://open.spotify.com/artist/14xoJp5R8MrD1ldOi19rg5"
        },
        "href" : "https://api.spotify.com/v1/artists/14xoJp5R8MrD1ldOi19rg5",
        "id" : "14xoJp5R8MrD1ldOi19rg5",
        "name" : "John Chapman",
        "type" : "artist",
        "uri" : "spotify:artist:14xoJp5R8MrD1ldOi19rg5"
      } ],
      "disc_number" : 1,
      "duration_ms" : 37055,
      "explicit" : false,
      "external_ids" : {
        "isrc" : "GBADL8582860"
      },
      "external_urls" : {
        "spotify" : "https://open.spotify.com/track/1ijHvpAIl9XpVWDp3IrMke"
      },
      "href" : "https://api.spotify.com/v1/tracks/1ijHvpAIl9XpVWDp3IrMke",
      "id" : "1ijHvpAIl9XpVWDp3IrMke",
      "is_local" : false,
      "is_playable" : true,
      "name" : "Wesley: Thou God of Truth and Love (St. Godric) - 5. O May Thy Spirit Seal",
      "popularity" : 4,
      "preview_url" : "https://p.scdn.co/mp3-preview/89901afb12848a6df187f225b3f9979a85490f8c?cid=774b29d4f13844c495f206cafdad9c86",
      "track_number" : 60,
      "type" : "track",
      "uri" : "spotify:track:1ijHvpAIl9XpVWDp3IrMke"
    }, {
      "album" : {
        "album_type" : "album",
        "artists" : [ {
          "external_urls" : {
            "spotify" : "https://open.spotify.com/artist/74r5YvBkn0nQcDDElVpdYc"
          },
          "href" : "https://api.spotify.com/v1/artists/74r5YvBkn0nQcDDElVpdYc",
          "id" : "74r5YvBkn0nQcDDElVpdYc",
          "name" : "Lisa M. Robbin",
          "type" : "artist",
          "uri" : "spotify:artist:74r5YvBkn0nQcDDElVpdYc"
        } ],
        "external_urls" : {
          "spotify" : "https://open.spotify.com/album/3GioJRCOPpxSrUpv1dowKV"
        },
        "href" : "https://api.spotify.com/v1/albums/3GioJRCOPpxSrUpv1dowKV",
        "id" : "3GioJRCOPpxSrUpv1dowKV",
        "images" : [ {
          "height" : 640,
          "url" : "https://i.scdn.co/image/ab67616d0000b273c44f199422ffeeb8871a9b1d",
          "width" : 640
        }, {
          "height" : 300,
          "url" : "https://i.scdn.co/image/ab67616d00001e02c44f199422ffeeb8871a9b1d",
          "width" : 300
        }, {
          "height" : 64,
          "url" : "https://i.scdn.co/image/ab67616d00004851c44f199422ffeeb8871a9b1d",
          "width" : 64
        } ],
        "name" : "Child of God",
        "release_date" : "2004-01-01",
        "release_date_precision" : "day",
        "total_tracks" : 12,
        "type" : "album",
        "uri" : "spotify:album:3GioJRCOPpxSrUpv1dowKV"
      },
      "artists" : [ {
        "external_urls" : {
          "spotify" : "https://open.spotify.com/artist/74r5YvBkn0nQcDDElVpdYc"
        },
        "href" : "https://api.spotify.com/v1/artists/74r5YvBkn0nQcDDElVpdYc",
        "id" : "74r5YvBkn0nQcDDElVpdYc",
        "name" : "Lisa M. Robbin",
        "type" : "artist",
        "uri" : "spotify:artist:74r5YvBkn0nQcDDElVpdYc"
      } ],
      "disc_number" : 1,
      "duration_ms" : 139600,
      "explicit" : false,
      "external_ids" : {
        "isrc" : "ushm80485385"
      },
      "external_urls" : {
        "spotify" : "https://open.spotify.com/track/3oB2lAjvbh5JEhGxFi6ZvL"
      },
      "href" : "https://api.spotify.com/v1/tracks/3oB2lAjvbh5JEhGxFi6ZvL",
      "id" : "3oB2lAjvbh5JEhGxFi6ZvL",
      "is_local" : false,
      "is_playable" : true,
      "name" : "Jesus, Thy Boundless Love",
      "popularity" : 0,
      "preview_url" : "https://p.scdn.co/mp3-preview/0484285a0e1ddf558aa2d7a2298d49c1895b307b?cid=774b29d4f13844c495f206cafdad9c86",
      "track_number" : 4,
      "type" : "track",
      "uri" : "spotify:track:3oB2lAjvbh5JEhGxFi6ZvL"
    } ],
    "limit" : 10,
    "next" : "https://api.spotify.com/v1/search?query=Thy+Love%2C+O+God&type=track&market=US&offset=15&limit=10",
    "offset" : 5,
    "previous" : "https://api.spotify.com/v1/search?query=Thy+Love%2C+O+God&type=track&market=US&offset=0&limit=10",
    "total" : 43
  }
}