{
  "tracks" : {
    "href" : "https://api.spotify.com/v1/search?query=O+for+a+Heart+to+Praise+My+God%21&type=track&market=US&offset=5&limit=10",
    "items" : [ {
      "album" : {
        "album_type" : "album",
        "artists" : [ {
          "external_urls" : {
            "spotify" : "https://open.spotify.com/artist/0Nca7W3ogv4nv9jWbv92rQ"
          },
          "href" : "https://api.spotify.com/v1/artists/0Nca7W3ogv4nv9jWbv92rQ",
          "id" : "0Nca7W3ogv4nv9jWbv92rQ",
          "name" : "Discover Worship",
          "type" : "artist",
          "uri" : "spotify:artist:0Nca7W3ogv4nv9jWbv92rQ"
        } ],
        "external_urls" : {
          "spotify" : "https://open.spotify.com/album/3lJd5daFQQH5o1Fx5huxXe"
        },
        "href" : "https://api.spotify.com/v1/albums/3lJd5daFQQH5o1Fx5huxXe",
        "id" : "3lJd5daFQQH5o1Fx5huxXe",
        "images" : [ {
          "height" : 640,
          "url" : "https://i.scdn.co/image/ab67616d0000b27367b2bca66a3486073723702c",
          "width" : 640
        }, {
          "height" : 300,
          "url" : "https://i.scdn.co/image/ab67616d00001e0267b2bca66a3486073723702c",
          "width" : 300
        }, {
          "height" : 64,
          "url" : "https://i.scdn.co/image/ab67616d0000485167b2bca66a3486073723702c",
          "width" : 64
        } ],
        "name" : "Voices in Worship: Lead On",
        "release_date" : "2016-07-12",
        "release_date_precision" : "day",
        "total_tracks" : 10,
        "type" : "album",
        "uri" : "spotify:album:3lJd5daFQQH5o1Fx5huxXe"
      },
      "artists" : [ {
        "external_urls" : {
          "spotify" : "https://open.spotify.com/artist/0Nca7W3ogv4nv9jWbv92rQ"
        },
        "href" : "https://api.spotify.com/v1/artists/0Nca7W3ogv4nv9jWbv92rQ",
        "id" : "0Nca7W3ogv4nv9jWbv92rQ",
        "name" : "Discover Worship",
        "type" : "artist",
        "uri" : "spotify:artist:0Nca7W3ogv4nv9jWbv92rQ"
      } ],
      "disc_number" : 1,
      "duration_ms" : 183733,
      "explicit" : false,
      "external_ids" : {
        "isrc" : "QM7WK1600188"
      },
      "external_urls" : {
        "spotify" : "https://open.spotify.com/track/6widMpdD9WzZlli7vuoOFP"
      },
      "href" : "https://api.spotify.com/v1/tracks/6widMpdD9WzZlli7vuoOFP",
      "id" : "6widMpdD9WzZlli7vuoOFP",
      "is_local" : false,
      "is_playable" : true,
      "name" : "O for a Heart to Praise My God",
      "popularity" : 0,
      "preview_url" : "https://p.scdn.co/mp3-preview/7ec4afcadff4e3f46fa8b49f3f1d7851734b914c?cid=774b29d4f13844c495f206cafdad9c86",
      "track_number" : 8,
      "type" : "track",
      "uri" : "spotify:track:6widMpdD9WzZlli7vuoOFP"
    }, {
      "album" : {
        "album_type" : "album",
        "artists" : [ {
          "external_urls" : {
            "spotify" : "https://open.spotify.com/artist/5aHE1EAT1F5E1kdvWCqObF"
          },
          "href" : "https://api.spotify.com/v1/artists/5aHE1EAT1F5E1kdvWCqObF",
          "id" : "5aHE1EAT1F5E1kdvWCqObF",
          "name" : "Steven Anderson",
          "type" : "artist",
          "uri" : "spotify:artist:5aHE1EAT1F5E1kdvWCqObF"
        } ],
        "external_urls" : {
          "spotify" : "https://open.spotify.com/album/3AQyb34kl40Vssdw6LhYwT"
        },
        "href" : "https://api.spotify.com/v1/albums/3AQyb34kl40Vssdw6LhYwT",
        "id" : "3AQyb34kl40Vssdw6LhYwT",
        "images" : [ {
          "height" : 640,
          "url" : "https://i.scdn.co/image/ab67616d0000b273acbe13e7d58b31c2d94603f7",
          "width" : 640
        }, {
          "height" : 300,
          "url" : "https://i.scdn.co/image/ab67616d00001e02acbe13e7d58b31c2d94603f7",
          "width" : 300
        }, {
          "height" : 64,
          "url" : "https://i.scdn.co/image/ab67616d00004851acbe13e7d58b31c2d94603f7",
          "width" : 64
        } ],
        "name" : "History Of The Hymnal (100 Classic Christian Hymns)",
        "release_date" : "2007-05-08",
        "release_date_precision" : "day",
        "total_tracks" : 100,
        "type" : "album",
        "uri" : "spotify:album:3AQyb34kl40Vssdw6LhYwT"
      },
      "artists" : [ {
        "external_urls" : {
          "spotify" : "https://open.spotify.com/artist/5aHE1EAT1F5E1kdvWCqObF"
        },
        "href" : "https://api.spotify.com/v1/artists/5aHE1EAT1F5E1kdvWCqObF",
        "id" : "5aHE1EAT1F5E1kdvWCqObF",
        "name" : "Steven Anderson",
        "type" : "artist",
        "uri" : "spotify:artist:5aHE1EAT1F5E1kdvWCqObF"
      } ],
      "disc_number" : 2,
      "duration_ms" : 75240,
      "explicit" : false,
      "external_ids" : {
        "isrc" : "CAM460701233"
      },
      "external_urls" : {
        "spotify" : "https://open.spotify.com/track/4PKzF9rzUvUw4PQAwTpFmM"
      },
      "href" : "https://api.spotify.com/v1/tracks/4PKzF9rzUvUw4PQAwTpFmM",
      "id" : "4PKzF9rzUvUw4PQAwTpFmM",
      "is_local" : false,
      "is_playable" : true,
      "name" : "O For A Heart To Praise My God",
      "popularity" : 0,
      "preview_url" : "https://p.scdn.co/mp3-preview/0fbd2474509d3cc49b81ecc34433dc7ff9945e2b?cid=774b29d4f13844c495f206cafdad9c86",
      "track_number" : 24,
      "type" : "track",
      "uri" : "spotify:track:4PKzF9rzUvUw4PQAwTpFmM"
    }, {
      "album" : {
        "album_type" : "album",
        "artists" : [ {
          "external_urls" : {
            "spotify" : "https://open.spotify.com/artist/7ayuAR5PY2DE4BmQ8q8C5T"
          },
          "href" : "https://api.spotify.com/v1/artists/7ayuAR5PY2DE4BmQ8q8C5T",
          "id" : "7ayuAR5PY2DE4BmQ8q8C5T",
          "name" : "Choir Of The Abbey School Tewkesbury",
          "type" : "artist",
          "uri" : "spotify:artist:7ayuAR5PY2DE4BmQ8q8C5T"
        } ],
        "external_urls" : {
          "spotify" : "https://open.spotify.com/album/1O2pGuVhPFQqrBxScOxHXp"
        },
        "href" : "https://api.spotify.com/v1/albums/1O2pGuVhPFQqrBxScOxHXp",
        "id" : "1O2pGuVhPFQqrBxScOxHXp",
        "images" : [ {
          "height" : 640,
          "url" : "https://i.scdn.co/image/ab67616d0000b273489cc01ab046089e8fdae0a7",
          "width" : 640
        }, {
          "height" : 300,
          "url" : "https://i.scdn.co/image/ab67616d00001e02489cc01ab046089e8fdae0a7",
          "width" : 300
        }, {
          "height" : 64,
          "url" : "https://i.scdn.co/image/ab67616d00004851489cc01ab046089e8fdae0a7",
          "width" : 64
        } ],
        "name" : "Complete New English Hymnal Vol. 9",
        "release_date" : "2001",
        "release_date_precision" : "year",
        "total_tracks" : 26,
        "type" : "album",
        "uri" : "spotify:album:1O2pGuVhPFQqrBxScOxHXp"
      },
      "artists" : [ {
        "external_urls" : {
          "spotify" : "https://open.spotify.com/artist/7ayuAR5PY2DE4BmQ8q8C5T"
        },
        "href" : "https://api.spotify.com/v1/artists/7ayuAR5PY2DE4BmQ8q8C5T",
        "id" : "7ayuAR5PY2DE4BmQ8q8C5T",
        "name" : "Choir Of The Abbey School Tewkesbury",
        "type" : "artist",
        "uri" : "spotify:artist:7ayuAR5PY2DE4BmQ8q8C5T"
      } ],
      "disc_number" : 1,
      "duration_ms" : 145920,
      "explicit" : false,
      "external_ids" : {
        "isrc" : "GBXUX0870906"
      },
      "external_urls" : {
        "spotify" : "https://open.spotify.com/track/1g0DoBcrtqUDaTvoxczt6h"
      },
      "href" : "https://api.spotify.com/v1/tracks/1g0DoBcrtqUDaTvoxczt6h",
      "id" : "1g0DoBcrtqUDaTvoxczt6h",
      "is_local" : false,
      "is_playable" : true,
      "name" : "O for a Heart to Praise My God",
      "popularity" : 1,
      "preview_url" : "https://p.scdn.co/mp3-preview/664f1190367a695c0a18560e9e07f673d51ac5dc?cid=774b29d4f13844c495f206cafdad9c86",
      "track_number" : 6,
      "type" : "track",
      "uri" : "spotify:track:1g0DoBcrtqUDaTvoxczt6h"
    }, {
      "album" : {
        "album_type" : "album",
        "artists" : [ {
          "external_urls" : {
            "spotify" : "https://open.spotify.com/artist/3MDChH5RelY5FrZ5Noqx4s"
          },
          "href" : "https://api.spotify.com/v1/artists/3MDChH5RelY5FrZ5Noqx4s",
          "id" : "3MDChH5RelY5FrZ5Noqx4s",
          "name" : "Erik Hertzel",
          "type" : "artist",
          "uri" : "spotify:artist:3MDChH5RelY5FrZ5Noqx4s"
        } ],
        "external_urls" : {
          "spotify" : "https://open.spotify.com/album/5txyUAgHEFlPgTNsvl4RUg"
        },
        "href" : "https://api.spotify.com/v1/albums/5txyUAgHEFlPgTNsvl4RUg",
        "id" : "5txyUAgHEFlPgTNsvl4RUg",
        "images" : [ {
          "height" : 640,
          "url" : "https://i.scdn.co/image/ab67616d0000b273b4a5a8833db780a59b888509",
          "width" : 640
        }, {
          "height" : 300,
          "url" : "https://i.scdn.co/image/ab67616d00001e02b4a5a8833db780a59b888509",
          "width" : 300
        }, {
          "height" : 64,
          "url" : "https://i.scdn.co/image/ab67616d00004851b4a5a8833db780a59b888509",
          "width" : 64
        } ],
        "name" : "Confidence",
        "release_date" : "2017-11-21",
        "release_date_precision" : "day",
        "total_tracks" : 16,
        "type" : "album",
        "uri" : "spotify:album:5txyUAgHEFlPgTNsvl4RUg"
      },
      "artists" : [ {
        "external_urls" : {
          "spotify" : "https://open.spotify.com/artist/3MDChH5RelY5FrZ5Noqx4s"
        },
        "href" : "https://api.spotify.com/v1/artists/3MDChH5RelY5FrZ5Noqx4s",
        "id" : "3MDChH5RelY5FrZ5Noqx4s",
        "name" : "Erik Hertzel",
        "type" : "artist",
        "uri" : "spotify:artist:3MDChH5RelY5FrZ5Noqx4s"
      } ],
      "disc_number" : 1,
      "duration_ms" : 139960,
      "explicit" : false,
      "external_ids" : {
        "isrc" : "usl4q1715098"
      },
      "external_urls" : {
        "spotify" : "https://open.spotify.com/track/5kBLoh5ghZI60TfNrGRl9M"
      },
      "href" : "https://api.spotify.com/v1/tracks/5kBLoh5ghZI60TfNrGRl9M",
      "id" : "5kBLoh5ghZI60TfNrGRl9M",
      "is_local" : false,
      "is_playable" : true,
      "name" : "O for a Heart to Praise My God",
      "popularity" : 0,
      "preview_url" : "https://p.scdn.co/mp3-preview/3a5b564af5bd0a031cc4eea482852ecd09b30d09?cid=774b29d4f13844c495f206cafdad9c86",
      "track_number" : 2,
      "type" : "track",
      "uri" : "spotify:track:5kBLoh5ghZI60TfNrGRl9M"
    }, {
      "album" : {
        "album_type" : "album",
        "artists" : [ {
          "external_urls" : {
            "spotify" : "https://open.spotify.com/artist/6okBvpENAfIe6u7n5bdFDK"
          },
          "href" : "https://api.spotify.com/v1/artists/6okBvpENAfIe6u7n5bdFDK",
          "id" : "6okBvpENAfIe6u7n5bdFDK",
          "name" : "Spring Harvest",
          "type" : "artist",
          "uri" : "spotify:artist:6okBvpENAfIe6u7n5bdFDK"
        } ],
        "external_urls" : {
          "spotify" : "https://open.spotify.com/album/69WXXPsVwyTSwQWhOuCYRD"
        },
        "href" : "https://api.spotify.com/v1/albums/69WXXPsVwyTSwQWhOuCYRD",
        "id" : "69WXXPsVwyTSwQWhOuCYRD",
        "images" : [ {
          "height" : 640,
          "url" : "https://i.scdn.co/image/ab67616d0000b2739c4ebd440d99dc112de82c8c",
          "width" : 640
        }, {
          "height" : 300,
          "url" : "https://i.scdn.co/image/ab67616d00001e029c4ebd440d99dc112de82c8c",
          "width" : 300
        }, {
          "height" : 64,
          "url" : "https://i.scdn.co/image/ab67616d000048519c4ebd440d99dc112de82c8c",
          "width" : 64
        } ],
        "name" : "New Songs 2003",
        "release_date" : "2003-04-02",
        "release_date_precision" : "day",
        "total_tracks" : 12,
        "type" : "album",
        "uri" : "spotify:album:69WXXPsVwyTSwQWhOuCYRD"
      },
      "artists" : [ {
        "external_urls" : {
          "spotify" : "https://open.spotify.com/artist/6okBvpENAfIe6u7n5bdFDK"
        },
        "href" : "https://api.spotify.com/v1/artists/6okBvpENAfIe6u7n5bdFDK",
        "id" : "6okBvpENAfIe6u7n5bdFDK",
        "name" : "Spring Harvest",
        "type" : "artist",
        "uri" : "spotify:artist:6okBvpENAfIe6u7n5bdFDK"
      } ],
      "disc_number" : 1,
      "duration_ms" : 236386,
      "explicit" : false,
      "external_ids" : {
        "isrc" : "GBDPR0374004"
      },
      "external_urls" : {
        "spotify" : "https://open.spotify.com/track/6rVTCmjIgngo4rWsIH55mB"
      },
      "href" : "https://api.spotify.com/v1/tracks/6rVTCmjIgngo4rWsIH55mB",
      "id" : "6rVTCmjIgngo4rWsIH55mB",
      "is_local" : false,
      "is_playable" : true,
      "name" : "O for a Heart to Praise My God",
      "popularity" : 1,
      "preview_url" : "https://p.scdn.co/mp3-preview/d0ed813ff86f589eb34deedc25678d04e47655f5?cid=774b29d4f13844c495f206cafdad9c86",
      "track_number" : 4,
      "type" : "track",
      "uri" : "spotify:track:6rVTCmjIgngo4rWsIH55mB"
    }, {
      "album" : {
        "album_type" : "album",
        "artists" : [ {
          "external_urls" : {
            "spotify" : "https://open.spotify.com/artist/2sb4fyeFKlAFnZ19I4T2Cn"
          },
          "href" : "https://api.spotify.com/v1/artists/2sb4fyeFKlAFnZ19I4T2Cn",
          "id" : "2sb4fyeFKlAFnZ19I4T2Cn",
          "name" : "Michael Paul Parenti",
          "type" : "artist",
          "uri" : "spotify:artist:2sb4fyeFKlAFnZ19I4T2Cn"
        } ],
        "external_urls" : {
          "spotify" : "https://open.spotify.com/album/3PsQwqTWnabGA2GPky3pjV"
        },
        "href" : "https://api.spotify.com/v1/albums/3PsQwqTWnabGA2GPky3pjV",
        "id" : "3PsQwqTWnabGA2GPky3pjV",
        "images" : [ {
          "height" : 640,
          "url" : "https://i.scdn.co/image/ab67616d0000b273b1828a0f6d718a1a22b6977f",
          "width" : 640
        }, {
          "height" : 300,
          "url" : "https://i.scdn.co/image/ab67616d00001e02b1828a0f6d718a1a22b6977f",
          "width" : 300
        }, {
          "height" : 64,
          "url" : "https://i.scdn.co/image/ab67616d00004851b1828a0f6d718a1a22b6977f",
          "width" : 64
        } ],
        "name" : "The Hymnal",
        "release_date" : "2018-04-10",
        "release_date_precision" : "day",
        "total_tracks" : 12,
        "type" : "album",
        "uri" : "spotify:album:3PsQwqTWnabGA2GPky3pjV"
      },
      "artists" : [ {
        "external_urls" : {
          "spotify" : "https://open.spotify.com/artist/2sb4fyeFKlAFnZ19I4T2Cn"
        },
        "href" : "https://api.spotify.com/v1/artists/2sb4fyeFKlAFnZ19I4T2Cn",
        "id" : "2sb4fyeFKlAFnZ19I4T2Cn",
        "name" : "Michael Paul Parenti",
        "type" : "artist",
        "uri" : "spotify:artist:2sb4fyeFKlAFnZ19I4T2Cn"
      } ],
      "disc_number" : 1,
      "duration_ms" : 154186,
      "explicit" : false,
      "external_ids" : {
        "isrc" : "uscgj1899053"
      },
      "external_urls" : {
        "spotify" : "https://open.spotify.com/track/3CUyrMlBPsfn1AzqUXVSyN"
      },
      "href" : "https://api.spotify.com/v1/tracks/3CUyrMlBPsfn1AzqUXVSyN",
      "id" : "3CUyrMlBPsfn1AzqUXVSyN",
      "is_local" : false,
      "is_playable" : true,
      "name" : "O' for a Heart to Praise My God",
      "popularity" : 0,
      "preview_url" : "https://p.scdn.co/mp3-preview/f0c7a992f70154147cd56f1a2b5091bee27677be?cid=774b29d4f13844c495f206cafdad9c86",
      "track_number" : 6,
      "type" : "track",
      "uri" : "spotify:track:3CUyrMlBPsfn1AzqUXVSyN"
    }, {
      "album" : {
        "album_type" : "album",
        "artists" : [ {
          "external_urls" : {
            "spotify" : "https://open.spotify.com/artist/1wxTl2XZtokEAe2b5MwyCs"
          },
          "href" : "https://api.spotify.com/v1/artists/1wxTl2XZtokEAe2b5MwyCs",
          "id" : "1wxTl2XZtokEAe2b5MwyCs",
          "name" : "Hymmersion",
          "type" : "artist",
          "uri" : "spotify:artist:1wxTl2XZtokEAe2b5MwyCs"
        } ],
        "external_urls" : {
          "spotify" : "https://open.spotify.com/album/2PLHnBOKsUYmFGzHJ6lEhG"
        },
        "href" : "https://api.spotify.com/v1/albums/2PLHnBOKsUYmFGzHJ6lEhG",
        "id" : "2PLHnBOKsUYmFGzHJ6lEhG",
        "images" : [ {
          "height" : 640,
          "url" : "https://i.scdn.co/image/ab67616d0000b27357559888ec7a82000e4228f8",
          "width" : 640
        }, {
          "height" : 300,
          "url" : "https://i.scdn.co/image/ab67616d00001e0257559888ec7a82000e4228f8",
          "width" : 300
        }, {
          "height" : 64,
          "url" : "https://i.scdn.co/image/ab67616d0000485157559888ec7a82000e4228f8",
          "width" : 64
        } ],
        "name" : "Offertories",
        "release_date" : "2000-12-19",
        "release_date_precision" : "day",
        "total_tracks" : 12,
        "type" : "album",
        "uri" : "spotify:album:2PLHnBOKsUYmFGzHJ6lEhG"
      },
      "artists" : [ {
        "external_urls" : {
          "spotify" : "https://open.spotify.com/artist/1wxTl2XZtokEAe2b5MwyCs"
        },
        "href" : "https://api.spotify.com/v1/artists/1wxTl2XZtokEAe2b5MwyCs",
        "id" : "1wxTl2XZtokEAe2b5MwyCs",
        "name" : "Hymmersion",
        "type" : "artist",
        "uri" : "spotify:artist:1wxTl2XZtokEAe2b5MwyCs"
      } ],
      "disc_number" : 1,
      "duration_ms" : 155689,
      "explicit" : false,
      "external_ids" : {
        "isrc" : "USA370376387"
      },
      "external_urls" : {
        "spotify" : "https://open.spotify.com/track/3ZrepP7771efTZi3xm066b"
      },
      "href" : "https://api.spotify.com/v1/tracks/3ZrepP7771efTZi3xm066b",
      "id" : "3ZrepP7771efTZi3xm066b",
      "is_local" : false,
      "is_playable" : true,
      "name" : "O For A Heart To Praise My God",
      "popularity" : 3,
      "preview_url" : "https://p.scdn.co/mp3-preview/53be26b85f39fdab5560ce2509feb08cbb7f80e3?cid=774b29d4f13844c495f206cafdad9c86",
      "track_number" : 9,
      "type" : "track",
      "uri" : "spotify:track:3ZrepP7771efTZi3xm066b"
    }, {
      "album" : {
        "album_type" : "album",
        "artists" : [ {
          "external_urls" : {
            "spotify" : "https://open.spotify.com/artist/57mJfwS4B1InNHIkIa1OaR"
          },
          "href" : "https://api.spotify.com/v1/artists/57mJfwS4B1InNHIkIa1OaR",
          "id" : "57mJfwS4B1InNHIkIa1OaR",
          "name" : "Nwokolobia Agu Singers",
          "type" : "artist",
          "uri" : "spotify:artist:57mJfwS4B1InNHIkIa1OaR"
        } ],
        "external_urls" : {
          "spotify" : "https://open.spotify.com/album/1wKJTfzQsVxwldHbXpoos5"
        },
        "href" : "https://api.spotify.com/v1/albums/1wKJTfzQsVxwldHbXpoos5",
        "id" : "1wKJTfzQsVxwldHbXpoos5",
        "images" : [ {
          "height" : 640,
          "url" : "https://i.scdn.co/image/ab67616d0000b273b43cc9fa5d607da15c4ad905",
          "width" : 640
        }, {
          "height" : 300,
          "url" : "https://i.scdn.co/image/ab67616d00001e02b43cc9fa5d607da15c4ad905",
          "width" : 300
        }, {
          "height" : 64,
          "url" : "https://i.scdn.co/image/ab67616d00004851b43cc9fa5d607da15c4ad905",
          "width" : 64
        } ],
        "name" : "Left Up Your Heart, Vol. 5",
        "release_date" : "2018-12-06",
        "release_date_precision" : "day",
        "total_tracks" : 7,
        "type" : "album",
        "uri" : "spotify:album:1wKJTfzQsVxwldHbXpoos5"
      },
      "artists" : [ {
        "external_urls" : {
          "spotify" : "https://open.spotify.com/artist/57mJfwS4B1InNHIkIa1OaR"
        },
        "href" : "https://api.spotify.com/v1/artists/57mJfwS4B1InNHIkIa1OaR",
        "id" : "57mJfwS4B1InNHIkIa1OaR",
        "name" : "Nwokolobia Agu Singers",
        "type" : "artist",
        "uri" : "spotify:artist:57mJfwS4B1InNHIkIa1OaR"
      } ],
      "disc_number" : 1,
      "duration_ms" : 176693,
      "explicit" : false,
      "external_ids" : {
        "isrc" : "UKQBR1810365"
      },
      "external_urls" : {
        "spotify" : "https://open.spotify.com/track/6h8yNJtftCSV4SOebyV6pi"
      },
      "href" : "https://api.spotify.com/v1/tracks/6h8yNJtftCSV4SOebyV6pi",
      "id" : "6h8yNJtftCSV4SOebyV6pi",
      "is_local" : false,
      "is_playable" : true,
      "name" : "O for a Heart to Praise My God",
      "popularity" : 0,
      "preview_url" : "https://p.scdn.co/mp3-preview/0981e33be0d0f3dec580e1a1bc3052bab96b1af8?cid=774b29d4f13844c495f206cafdad9c86",
      "track_number" : 4,
      "type" : "track",
      "uri" : "spotify:track:6h8yNJtftCSV4SOebyV6pi"
    }, {
      "album" : {
        "album_type" : "album",
        "artists" : [ {
          "external_urls" : {
            "spotify" : "https://open.spotify.com/artist/0Nca7W3ogv4nv9jWbv92rQ"
          },
          "href" : "https://api.spotify.com/v1/artists/0Nca7W3ogv4nv9jWbv92rQ",
          "id" : "0Nca7W3ogv4nv9jWbv92rQ",
          "name" : "Discover Worship",
          "type" : "artist",
          "uri" : "spotify:artist:0Nca7W3ogv4nv9jWbv92rQ"
        } ],
        "external_urls" : {
          "spotify" : "https://open.spotify.com/album/32N3fAtL5QnannT6d6rDod"
        },
        "href" : "https://api.spotify.com/v1/albums/32N3fAtL5QnannT6d6rDod",
        "id" : "32N3fAtL5QnannT6d6rDod",
        "images" : [ {
          "height" : 640,
          "url" : "https://i.scdn.co/image/ab67616d0000b2736478cb77abd21c90e3ce6165",
          "width" : 640
        }, {
          "height" : 300,
          "url" : "https://i.scdn.co/image/ab67616d00001e026478cb77abd21c90e3ce6165",
          "width" : 300
        }, {
          "height" : 64,
          "url" : "https://i.scdn.co/image/ab67616d000048516478cb77abd21c90e3ce6165",
          "width" : 64
        } ],
        "name" : "Hymn Favorities: I Surrender All",
        "release_date" : "2017-03-01",
        "release_date_precision" : "day",
        "total_tracks" : 10,
        "type" : "album",
        "uri" : "spotify:album:32N3fAtL5QnannT6d6rDod"
      },
      "artists" : [ {
        "external_urls" : {
          "spotify" : "https://open.spotify.com/artist/0Nca7W3ogv4nv9jWbv92rQ"
        },
        "href" : "https://api.spotify.com/v1/artists/0Nca7W3ogv4nv9jWbv92rQ",
        "id" : "0Nca7W3ogv4nv9jWbv92rQ",
        "name" : "Discover Worship",
        "type" : "artist",
        "uri" : "spotify:artist:0Nca7W3ogv4nv9jWbv92rQ"
      } ],
      "disc_number" : 1,
      "duration_ms" : 183733,
      "explicit" : false,
      "external_ids" : {
        "isrc" : "QM7WK1600188"
      },
      "external_urls" : {
        "spotify" : "https://open.spotify.com/track/4EExXmh7GuIsTYFcAMWJIo"
      },
      "href" : "https://api.spotify.com/v1/tracks/4EExXmh7GuIsTYFcAMWJIo",
      "id" : "4EExXmh7GuIsTYFcAMWJIo",
      "is_local" : false,
      "is_playable" : true,
      "name" : "O for a Heart to Praise My God",
      "popularity" : 0,
      "preview_url" : "https://p.scdn.co/mp3-preview/7ec4afcadff4e3f46fa8b49f3f1d7851734b914c?cid=774b29d4f13844c495f206cafdad9c86",
      "track_number" : 7,
      "type" : "track",
      "uri" : "spotify:track:4EExXmh7GuIsTYFcAMWJIo"
    }, {
      "album" : {
        "album_type" : "album",
        "artists" : [ {
          "external_urls" : {
            "spotify" : "https://open.spotify.com/artist/2x0QHABqKaBBvAOzvoevXJ"
          },
          "href" : "https://api.spotify.com/v1/artists/2x0QHABqKaBBvAOzvoevXJ",
          "id" : "2x0QHABqKaBBvAOzvoevXJ",
          "name" : "The Scottish Festival Singers",
          "type" : "artist",
          "uri" : "spotify:artist:2x0QHABqKaBBvAOzvoevXJ"
        } ],
        "external_urls" : {
          "spotify" : "https://open.spotify.com/album/6trw7sBdvATkbUDhqoOtI1"
        },
        "href" : "https://api.spotify.com/v1/albums/6trw7sBdvATkbUDhqoOtI1",
        "id" : "6trw7sBdvATkbUDhqoOtI1",
        "images" : [ {
          "height" : 640,
          "url" : "https://i.scdn.co/image/ab67616d0000b2737f86c59c93acecff428b5b13",
          "width" : 640
        }, {
          "height" : 300,
          "url" : "https://i.scdn.co/image/ab67616d00001e027f86c59c93acecff428b5b13",
          "width" : 300
        }, {
          "height" : 64,
          "url" : "https://i.scdn.co/image/ab67616d000048517f86c59c93acecff428b5b13",
          "width" : 64
        } ],
        "name" : "Timeless Hymns, Vol. 12: I Need Thee Every Hour",
        "release_date" : "2014-06-17",
        "release_date_precision" : "day",
        "total_tracks" : 13,
        "type" : "album",
        "uri" : "spotify:album:6trw7sBdvATkbUDhqoOtI1"
      },
      "artists" : [ {
        "external_urls" : {
          "spotify" : "https://open.spotify.com/artist/2x0QHABqKaBBvAOzvoevXJ"
        },
        "href" : "https://api.spotify.com/v1/artists/2x0QHABqKaBBvAOzvoevXJ",
        "id" : "2x0QHABqKaBBvAOzvoevXJ",
        "name" : "The Scottish Festival Singers",
        "type" : "artist",
        "uri" : "spotify:artist:2x0QHABqKaBBvAOzvoevXJ"
      } ],
      "disc_number" : 1,
      "duration_ms" : 155186,
      "explicit" : false,
      "external_ids" : {
        "isrc" : "USACX1400774"
      },
      "external_urls" : {
        "spotify" : "https://open.spotify.com/track/66k3hHPwdVlKOlleSEpxze"
      },
      "href" : "https://api.spotify.com/v1/tracks/66k3hHPwdVlKOlleSEpxze",
      "id" : "66k3hHPwdVlKOlleSEpxze",
      "is_local" : false,
      "is_playable" : true,
      "name" : "O For A Heart To Praise My God",
      "popularity" : 2,
      "preview_url" : "https://p.scdn.co/mp3-preview/ad145eba06abb61a4c3007e28ff8362a9ed7761a?cid=774b29d4f13844c495f206cafdad9c86",
      "track_number" : 12,
      "type" : "track",
      "uri" : "spotify:track:66k3hHPwdVlKOlleSEpxze"
    } ],
    "limit" : 10,
    "next" : "https://api.spotify.com/v1/search?query=O+for+a+Heart+to+Praise+My+God%21&type=track&market=US&offset=15&limit=10",
    "offset" : 5,
    "previous" : "https://api.spotify.com/v1/search?query=O+for+a+Heart+to+Praise+My+God%21&type=track&market=US&offset=0&limit=10",
    "total" : 29
  }
}