{
  "tracks" : {
    "href" : "https://api.spotify.com/v1/search?query=Will+Your+Anchor+Hold%3F&type=track&market=US&offset=5&limit=10",
    "items" : [ {
      "album" : {
        "album_type" : "album",
        "artists" : [ {
          "external_urls" : {
            "spotify" : "https://open.spotify.com/artist/0USh2zLOFGDKyRBZRPE7iL"
          },
          "href" : "https://api.spotify.com/v1/artists/0USh2zLOFGDKyRBZRPE7iL",
          "id" : "0USh2zLOFGDKyRBZRPE7iL",
          "name" : "Robin Mark",
          "type" : "artist",
          "uri" : "spotify:artist:0USh2zLOFGDKyRBZRPE7iL"
        } ],
        "external_urls" : {
          "spotify" : "https://open.spotify.com/album/0B4qWUYzFFC7hZCWrSDREc"
        },
        "href" : "https://api.spotify.com/v1/albums/0B4qWUYzFFC7hZCWrSDREc",
        "id" : "0B4qWUYzFFC7hZCWrSDREc",
        "images" : [ {
          "height" : 640,
          "url" : "https://i.scdn.co/image/ab67616d0000b2739d394bdad1c0f98092478538",
          "width" : 640
        }, {
          "height" : 300,
          "url" : "https://i.scdn.co/image/ab67616d00001e029d394bdad1c0f98092478538",
          "width" : 300
        }, {
          "height" : 64,
          "url" : "https://i.scdn.co/image/ab67616d000048519d394bdad1c0f98092478538",
          "width" : 64
        } ],
        "name" : "Songs And Hymns",
        "release_date" : "2005",
        "release_date_precision" : "year",
        "total_tracks" : 20,
        "type" : "album",
        "uri" : "spotify:album:0B4qWUYzFFC7hZCWrSDREc"
      },
      "artists" : [ {
        "external_urls" : {
          "spotify" : "https://open.spotify.com/artist/09T7Qpcrb4IwPUvV6TWxg8"
        },
        "href" : "https://api.spotify.com/v1/artists/09T7Qpcrb4IwPUvV6TWxg8",
        "id" : "09T7Qpcrb4IwPUvV6TWxg8",
        "name" : "The Mandate",
        "type" : "artist",
        "uri" : "spotify:artist:09T7Qpcrb4IwPUvV6TWxg8"
      }, {
        "external_urls" : {
          "spotify" : "https://open.spotify.com/artist/0USh2zLOFGDKyRBZRPE7iL"
        },
        "href" : "https://api.spotify.com/v1/artists/0USh2zLOFGDKyRBZRPE7iL",
        "id" : "0USh2zLOFGDKyRBZRPE7iL",
        "name" : "Robin Mark",
        "type" : "artist",
        "uri" : "spotify:artist:0USh2zLOFGDKyRBZRPE7iL"
      } ],
      "disc_number" : 1,
      "duration_ms" : 200453,
      "explicit" : false,
      "external_ids" : {
        "isrc" : "GBBTM0128305"
      },
      "external_urls" : {
        "spotify" : "https://open.spotify.com/track/3SV7hcBo9WXRAi0WjJbfYM"
      },
      "href" : "https://api.spotify.com/v1/tracks/3SV7hcBo9WXRAi0WjJbfYM",
      "id" : "3SV7hcBo9WXRAi0WjJbfYM",
      "is_local" : false,
      "is_playable" : true,
      "name" : "Will Your Anchor Hold? (We Have An Anchor)",
      "popularity" : 6,
      "preview_url" : "https://p.scdn.co/mp3-preview/19b6b77e8291960d5b217643791e5a00f3677328?cid=774b29d4f13844c495f206cafdad9c86",
      "track_number" : 18,
      "type" : "track",
      "uri" : "spotify:track:3SV7hcBo9WXRAi0WjJbfYM"
    }, {
      "album" : {
        "album_type" : "album",
        "artists" : [ {
          "external_urls" : {
            "spotify" : "https://open.spotify.com/artist/0fZl9SnDqBppbUOhRwGpGG"
          },
          "href" : "https://api.spotify.com/v1/artists/0fZl9SnDqBppbUOhRwGpGG",
          "id" : "0fZl9SnDqBppbUOhRwGpGG",
          "name" : "Kingsway Music",
          "type" : "artist",
          "uri" : "spotify:artist:0fZl9SnDqBppbUOhRwGpGG"
        } ],
        "external_urls" : {
          "spotify" : "https://open.spotify.com/album/19QPWPBs7FsRo69gocYhzs"
        },
        "href" : "https://api.spotify.com/v1/albums/19QPWPBs7FsRo69gocYhzs",
        "id" : "19QPWPBs7FsRo69gocYhzs",
        "images" : [ {
          "height" : 640,
          "url" : "https://i.scdn.co/image/ab67616d0000b2739de069df341b758333987686",
          "width" : 640
        }, {
          "height" : 300,
          "url" : "https://i.scdn.co/image/ab67616d00001e029de069df341b758333987686",
          "width" : 300
        }, {
          "height" : 64,
          "url" : "https://i.scdn.co/image/ab67616d000048519de069df341b758333987686",
          "width" : 64
        } ],
        "name" : "Event Hymns, Vol. 2",
        "release_date" : "2001",
        "release_date_precision" : "year",
        "total_tracks" : 12,
        "type" : "album",
        "uri" : "spotify:album:19QPWPBs7FsRo69gocYhzs"
      },
      "artists" : [ {
        "external_urls" : {
          "spotify" : "https://open.spotify.com/artist/0fZl9SnDqBppbUOhRwGpGG"
        },
        "href" : "https://api.spotify.com/v1/artists/0fZl9SnDqBppbUOhRwGpGG",
        "id" : "0fZl9SnDqBppbUOhRwGpGG",
        "name" : "Kingsway Music",
        "type" : "artist",
        "uri" : "spotify:artist:0fZl9SnDqBppbUOhRwGpGG"
      } ],
      "disc_number" : 1,
      "duration_ms" : 192893,
      "explicit" : false,
      "external_ids" : {
        "isrc" : "GBBTM0135008"
      },
      "external_urls" : {
        "spotify" : "https://open.spotify.com/track/3D70R357yql2CjmerNOD1w"
      },
      "href" : "https://api.spotify.com/v1/tracks/3D70R357yql2CjmerNOD1w",
      "id" : "3D70R357yql2CjmerNOD1w",
      "is_local" : false,
      "is_playable" : true,
      "name" : "Will Your Anchor Hold? (We Have An Anchor) - Live",
      "popularity" : 9,
      "preview_url" : "https://p.scdn.co/mp3-preview/94f317d38eb602fe245c765ad5ce0afd617f755c?cid=774b29d4f13844c495f206cafdad9c86",
      "track_number" : 8,
      "type" : "track",
      "uri" : "spotify:track:3D70R357yql2CjmerNOD1w"
    }, {
      "album" : {
        "album_type" : "album",
        "artists" : [ {
          "external_urls" : {
            "spotify" : "https://open.spotify.com/artist/2TvZP7BtYzz7GeNh9rJXMe"
          },
          "href" : "https://api.spotify.com/v1/artists/2TvZP7BtYzz7GeNh9rJXMe",
          "id" : "2TvZP7BtYzz7GeNh9rJXMe",
          "name" : "Ely Cathedral Choir",
          "type" : "artist",
          "uri" : "spotify:artist:2TvZP7BtYzz7GeNh9rJXMe"
        } ],
        "external_urls" : {
          "spotify" : "https://open.spotify.com/album/62r2UTQjdFvb2uV7cfgdVg"
        },
        "href" : "https://api.spotify.com/v1/albums/62r2UTQjdFvb2uV7cfgdVg",
        "id" : "62r2UTQjdFvb2uV7cfgdVg",
        "images" : [ {
          "height" : 640,
          "url" : "https://i.scdn.co/image/ab67616d0000b27346792604ec3be828c7e74d52",
          "width" : 640
        }, {
          "height" : 300,
          "url" : "https://i.scdn.co/image/ab67616d00001e0246792604ec3be828c7e74d52",
          "width" : 300
        }, {
          "height" : 64,
          "url" : "https://i.scdn.co/image/ab67616d0000485146792604ec3be828c7e74d52",
          "width" : 64
        } ],
        "name" : "Will Your Anchor Hold?",
        "release_date" : "1999-01-01",
        "release_date_precision" : "day",
        "total_tracks" : 15,
        "type" : "album",
        "uri" : "spotify:album:62r2UTQjdFvb2uV7cfgdVg"
      },
      "artists" : [ {
        "external_urls" : {
          "spotify" : "https://open.spotify.com/artist/2TvZP7BtYzz7GeNh9rJXMe"
        },
        "href" : "https://api.spotify.com/v1/artists/2TvZP7BtYzz7GeNh9rJXMe",
        "id" : "2TvZP7BtYzz7GeNh9rJXMe",
        "name" : "Ely Cathedral Choir",
        "type" : "artist",
        "uri" : "spotify:artist:2TvZP7BtYzz7GeNh9rJXMe"
      } ],
      "disc_number" : 1,
      "duration_ms" : 155773,
      "explicit" : false,
      "external_ids" : {
        "isrc" : "USA560628515"
      },
      "external_urls" : {
        "spotify" : "https://open.spotify.com/track/6CAma73OHrSdO9Anw9UIGu"
      },
      "href" : "https://api.spotify.com/v1/tracks/6CAma73OHrSdO9Anw9UIGu",
      "id" : "6CAma73OHrSdO9Anw9UIGu",
      "is_local" : false,
      "is_playable" : true,
      "name" : "Let The Lower Lights Be Burning",
      "popularity" : 7,
      "preview_url" : "https://p.scdn.co/mp3-preview/5e4066c746cee5d7424212c07c27e8148ec9c3f9?cid=774b29d4f13844c495f206cafdad9c86",
      "track_number" : 4,
      "type" : "track",
      "uri" : "spotify:track:6CAma73OHrSdO9Anw9UIGu"
    }, {
      "album" : {
        "album_type" : "album",
        "artists" : [ {
          "external_urls" : {
            "spotify" : "https://open.spotify.com/artist/2TvZP7BtYzz7GeNh9rJXMe"
          },
          "href" : "https://api.spotify.com/v1/artists/2TvZP7BtYzz7GeNh9rJXMe",
          "id" : "2TvZP7BtYzz7GeNh9rJXMe",
          "name" : "Ely Cathedral Choir",
          "type" : "artist",
          "uri" : "spotify:artist:2TvZP7BtYzz7GeNh9rJXMe"
        } ],
        "external_urls" : {
          "spotify" : "https://open.spotify.com/album/62r2UTQjdFvb2uV7cfgdVg"
        },
        "href" : "https://api.spotify.com/v1/albums/62r2UTQjdFvb2uV7cfgdVg",
        "id" : "62r2UTQjdFvb2uV7cfgdVg",
        "images" : [ {
          "height" : 640,
          "url" : "https://i.scdn.co/image/ab67616d0000b27346792604ec3be828c7e74d52",
          "width" : 640
        }, {
          "height" : 300,
          "url" : "https://i.scdn.co/image/ab67616d00001e0246792604ec3be828c7e74d52",
          "width" : 300
        }, {
          "height" : 64,
          "url" : "https://i.scdn.co/image/ab67616d0000485146792604ec3be828c7e74d52",
          "width" : 64
        } ],
        "name" : "Will Your Anchor Hold?",
        "release_date" : "1999-01-01",
        "release_date_precision" : "day",
        "total_tracks" : 15,
        "type" : "album",
        "uri" : "spotify:album:62r2UTQjdFvb2uV7cfgdVg"
      },
      "artists" : [ {
        "external_urls" : {
          "spotify" : "https://open.spotify.com/artist/2TvZP7BtYzz7GeNh9rJXMe"
        },
        "href" : "https://api.spotify.com/v1/artists/2TvZP7BtYzz7GeNh9rJXMe",
        "id" : "2TvZP7BtYzz7GeNh9rJXMe",
        "name" : "Ely Cathedral Choir",
        "type" : "artist",
        "uri" : "spotify:artist:2TvZP7BtYzz7GeNh9rJXMe"
      } ],
      "disc_number" : 1,
      "duration_ms" : 241546,
      "explicit" : false,
      "external_ids" : {
        "isrc" : "USA560628526"
      },
      "external_urls" : {
        "spotify" : "https://open.spotify.com/track/1agB0THECiUIvBD83EBXp5"
      },
      "href" : "https://api.spotify.com/v1/tracks/1agB0THECiUIvBD83EBXp5",
      "id" : "1agB0THECiUIvBD83EBXp5",
      "is_local" : false,
      "is_playable" : true,
      "name" : "God Be With You",
      "popularity" : 9,
      "preview_url" : "https://p.scdn.co/mp3-preview/d49d4b2945c14367e433695dde7c539191da92c3?cid=774b29d4f13844c495f206cafdad9c86",
      "track_number" : 15,
      "type" : "track",
      "uri" : "spotify:track:1agB0THECiUIvBD83EBXp5"
    }, {
      "album" : {
        "album_type" : "album",
        "artists" : [ {
          "external_urls" : {
            "spotify" : "https://open.spotify.com/artist/2TvZP7BtYzz7GeNh9rJXMe"
          },
          "href" : "https://api.spotify.com/v1/artists/2TvZP7BtYzz7GeNh9rJXMe",
          "id" : "2TvZP7BtYzz7GeNh9rJXMe",
          "name" : "Ely Cathedral Choir",
          "type" : "artist",
          "uri" : "spotify:artist:2TvZP7BtYzz7GeNh9rJXMe"
        } ],
        "external_urls" : {
          "spotify" : "https://open.spotify.com/album/62r2UTQjdFvb2uV7cfgdVg"
        },
        "href" : "https://api.spotify.com/v1/albums/62r2UTQjdFvb2uV7cfgdVg",
        "id" : "62r2UTQjdFvb2uV7cfgdVg",
        "images" : [ {
          "height" : 640,
          "url" : "https://i.scdn.co/image/ab67616d0000b27346792604ec3be828c7e74d52",
          "width" : 640
        }, {
          "height" : 300,
          "url" : "https://i.scdn.co/image/ab67616d00001e0246792604ec3be828c7e74d52",
          "width" : 300
        }, {
          "height" : 64,
          "url" : "https://i.scdn.co/image/ab67616d0000485146792604ec3be828c7e74d52",
          "width" : 64
        } ],
        "name" : "Will Your Anchor Hold?",
        "release_date" : "1999-01-01",
        "release_date_precision" : "day",
        "total_tracks" : 15,
        "type" : "album",
        "uri" : "spotify:album:62r2UTQjdFvb2uV7cfgdVg"
      },
      "artists" : [ {
        "external_urls" : {
          "spotify" : "https://open.spotify.com/artist/2TvZP7BtYzz7GeNh9rJXMe"
        },
        "href" : "https://api.spotify.com/v1/artists/2TvZP7BtYzz7GeNh9rJXMe",
        "id" : "2TvZP7BtYzz7GeNh9rJXMe",
        "name" : "Ely Cathedral Choir",
        "type" : "artist",
        "uri" : "spotify:artist:2TvZP7BtYzz7GeNh9rJXMe"
      } ],
      "disc_number" : 1,
      "duration_ms" : 197720,
      "explicit" : false,
      "external_ids" : {
        "isrc" : "USA560628524"
      },
      "external_urls" : {
        "spotify" : "https://open.spotify.com/track/2X6pGyWqGMQfoiYwsRM50v"
      },
      "href" : "https://api.spotify.com/v1/tracks/2X6pGyWqGMQfoiYwsRM50v",
      "id" : "2X6pGyWqGMQfoiYwsRM50v",
      "is_local" : false,
      "is_playable" : true,
      "name" : "He Leadeth Me",
      "popularity" : 7,
      "preview_url" : "https://p.scdn.co/mp3-preview/08ad88f7f298607450712fa3ce5a706e90183647?cid=774b29d4f13844c495f206cafdad9c86",
      "track_number" : 13,
      "type" : "track",
      "uri" : "spotify:track:2X6pGyWqGMQfoiYwsRM50v"
    }, {
      "album" : {
        "album_type" : "album",
        "artists" : [ {
          "external_urls" : {
            "spotify" : "https://open.spotify.com/artist/2TvZP7BtYzz7GeNh9rJXMe"
          },
          "href" : "https://api.spotify.com/v1/artists/2TvZP7BtYzz7GeNh9rJXMe",
          "id" : "2TvZP7BtYzz7GeNh9rJXMe",
          "name" : "Ely Cathedral Choir",
          "type" : "artist",
          "uri" : "spotify:artist:2TvZP7BtYzz7GeNh9rJXMe"
        } ],
        "external_urls" : {
          "spotify" : "https://open.spotify.com/album/62r2UTQjdFvb2uV7cfgdVg"
        },
        "href" : "https://api.spotify.com/v1/albums/62r2UTQjdFvb2uV7cfgdVg",
        "id" : "62r2UTQjdFvb2uV7cfgdVg",
        "images" : [ {
          "height" : 640,
          "url" : "https://i.scdn.co/image/ab67616d0000b27346792604ec3be828c7e74d52",
          "width" : 640
        }, {
          "height" : 300,
          "url" : "https://i.scdn.co/image/ab67616d00001e0246792604ec3be828c7e74d52",
          "width" : 300
        }, {
          "height" : 64,
          "url" : "https://i.scdn.co/image/ab67616d0000485146792604ec3be828c7e74d52",
          "width" : 64
        } ],
        "name" : "Will Your Anchor Hold?",
        "release_date" : "1999-01-01",
        "release_date_precision" : "day",
        "total_tracks" : 15,
        "type" : "album",
        "uri" : "spotify:album:62r2UTQjdFvb2uV7cfgdVg"
      },
      "artists" : [ {
        "external_urls" : {
          "spotify" : "https://open.spotify.com/artist/2TvZP7BtYzz7GeNh9rJXMe"
        },
        "href" : "https://api.spotify.com/v1/artists/2TvZP7BtYzz7GeNh9rJXMe",
        "id" : "2TvZP7BtYzz7GeNh9rJXMe",
        "name" : "Ely Cathedral Choir",
        "type" : "artist",
        "uri" : "spotify:artist:2TvZP7BtYzz7GeNh9rJXMe"
      } ],
      "disc_number" : 1,
      "duration_ms" : 241093,
      "explicit" : false,
      "external_ids" : {
        "isrc" : "USA560628520"
      },
      "external_urls" : {
        "spotify" : "https://open.spotify.com/track/6mQmQbfBRwV4IsRIwZMoe8"
      },
      "href" : "https://api.spotify.com/v1/tracks/6mQmQbfBRwV4IsRIwZMoe8",
      "id" : "6mQmQbfBRwV4IsRIwZMoe8",
      "is_local" : false,
      "is_playable" : true,
      "name" : "Nearer My God To Thee",
      "popularity" : 7,
      "preview_url" : "https://p.scdn.co/mp3-preview/8f853a610e4ee763e37aa87778293eedab499086?cid=774b29d4f13844c495f206cafdad9c86",
      "track_number" : 9,
      "type" : "track",
      "uri" : "spotify:track:6mQmQbfBRwV4IsRIwZMoe8"
    }, {
      "album" : {
        "album_type" : "album",
        "artists" : [ {
          "external_urls" : {
            "spotify" : "https://open.spotify.com/artist/2TvZP7BtYzz7GeNh9rJXMe"
          },
          "href" : "https://api.spotify.com/v1/artists/2TvZP7BtYzz7GeNh9rJXMe",
          "id" : "2TvZP7BtYzz7GeNh9rJXMe",
          "name" : "Ely Cathedral Choir",
          "type" : "artist",
          "uri" : "spotify:artist:2TvZP7BtYzz7GeNh9rJXMe"
        } ],
        "external_urls" : {
          "spotify" : "https://open.spotify.com/album/62r2UTQjdFvb2uV7cfgdVg"
        },
        "href" : "https://api.spotify.com/v1/albums/62r2UTQjdFvb2uV7cfgdVg",
        "id" : "62r2UTQjdFvb2uV7cfgdVg",
        "images" : [ {
          "height" : 640,
          "url" : "https://i.scdn.co/image/ab67616d0000b27346792604ec3be828c7e74d52",
          "width" : 640
        }, {
          "height" : 300,
          "url" : "https://i.scdn.co/image/ab67616d00001e0246792604ec3be828c7e74d52",
          "width" : 300
        }, {
          "height" : 64,
          "url" : "https://i.scdn.co/image/ab67616d0000485146792604ec3be828c7e74d52",
          "width" : 64
        } ],
        "name" : "Will Your Anchor Hold?",
        "release_date" : "1999-01-01",
        "release_date_precision" : "day",
        "total_tracks" : 15,
        "type" : "album",
        "uri" : "spotify:album:62r2UTQjdFvb2uV7cfgdVg"
      },
      "artists" : [ {
        "external_urls" : {
          "spotify" : "https://open.spotify.com/artist/2TvZP7BtYzz7GeNh9rJXMe"
        },
        "href" : "https://api.spotify.com/v1/artists/2TvZP7BtYzz7GeNh9rJXMe",
        "id" : "2TvZP7BtYzz7GeNh9rJXMe",
        "name" : "Ely Cathedral Choir",
        "type" : "artist",
        "uri" : "spotify:artist:2TvZP7BtYzz7GeNh9rJXMe"
      } ],
      "disc_number" : 1,
      "duration_ms" : 144480,
      "explicit" : false,
      "external_ids" : {
        "isrc" : "USA560628514"
      },
      "external_urls" : {
        "spotify" : "https://open.spotify.com/track/1PdRy0UqVlARnf4CJNE6tU"
      },
      "href" : "https://api.spotify.com/v1/tracks/1PdRy0UqVlARnf4CJNE6tU",
      "id" : "1PdRy0UqVlARnf4CJNE6tU",
      "is_local" : false,
      "is_playable" : true,
      "name" : "Lord In The Hollow Of Thy Hand",
      "popularity" : 6,
      "preview_url" : "https://p.scdn.co/mp3-preview/ec32cc6d7358d2e53de1aec6dd1df296e9692413?cid=774b29d4f13844c495f206cafdad9c86",
      "track_number" : 3,
      "type" : "track",
      "uri" : "spotify:track:1PdRy0UqVlARnf4CJNE6tU"
    }, {
      "album" : {
        "album_type" : "album",
        "artists" : [ {
          "external_urls" : {
            "spotify" : "https://open.spotify.com/artist/3uDinLitN61CFFTxtSyvew"
          },
          "href" : "https://api.spotify.com/v1/artists/3uDinLitN61CFFTxtSyvew",
          "id" : "3uDinLitN61CFFTxtSyvew",
          "name" : "David J. Ferguson",
          "type" : "artist",
          "uri" : "spotify:artist:3uDinLitN61CFFTxtSyvew"
        } ],
        "external_urls" : {
          "spotify" : "https://open.spotify.com/album/0vIhz3b4OktNn9ueIoTEr7"
        },
        "href" : "https://api.spotify.com/v1/albums/0vIhz3b4OktNn9ueIoTEr7",
        "id" : "0vIhz3b4OktNn9ueIoTEr7",
        "images" : [ {
          "height" : 640,
          "url" : "https://i.scdn.co/image/ab67616d0000b273da29d626d644e89fa9e813db",
          "width" : 640
        }, {
          "height" : 300,
          "url" : "https://i.scdn.co/image/ab67616d00001e02da29d626d644e89fa9e813db",
          "width" : 300
        }, {
          "height" : 64,
          "url" : "https://i.scdn.co/image/ab67616d00004851da29d626d644e89fa9e813db",
          "width" : 64
        } ],
        "name" : "Spirit of Burning",
        "release_date" : "2019-05-08",
        "release_date_precision" : "day",
        "total_tracks" : 11,
        "type" : "album",
        "uri" : "spotify:album:0vIhz3b4OktNn9ueIoTEr7"
      },
      "artists" : [ {
        "external_urls" : {
          "spotify" : "https://open.spotify.com/artist/3uDinLitN61CFFTxtSyvew"
        },
        "href" : "https://api.spotify.com/v1/artists/3uDinLitN61CFFTxtSyvew",
        "id" : "3uDinLitN61CFFTxtSyvew",
        "name" : "David J. Ferguson",
        "type" : "artist",
        "uri" : "spotify:artist:3uDinLitN61CFFTxtSyvew"
      } ],
      "disc_number" : 1,
      "duration_ms" : 192000,
      "explicit" : false,
      "external_ids" : {
        "isrc" : "QZES81991275"
      },
      "external_urls" : {
        "spotify" : "https://open.spotify.com/track/1PmY5FTiKwZtncj98pQeDr"
      },
      "href" : "https://api.spotify.com/v1/tracks/1PmY5FTiKwZtncj98pQeDr",
      "id" : "1PmY5FTiKwZtncj98pQeDr",
      "is_local" : false,
      "is_playable" : true,
      "name" : "Will Your Anchor Hold?",
      "popularity" : 1,
      "preview_url" : "https://p.scdn.co/mp3-preview/6d75a27d06769a983494874b28adf301afd0da95?cid=774b29d4f13844c495f206cafdad9c86",
      "track_number" : 9,
      "type" : "track",
      "uri" : "spotify:track:1PmY5FTiKwZtncj98pQeDr"
    }, {
      "album" : {
        "album_type" : "album",
        "artists" : [ {
          "external_urls" : {
            "spotify" : "https://open.spotify.com/artist/00g1hZIIn1xKwrbZd6nDUY"
          },
          "href" : "https://api.spotify.com/v1/artists/00g1hZIIn1xKwrbZd6nDUY",
          "id" : "00g1hZIIn1xKwrbZd6nDUY",
          "name" : "Elevation",
          "type" : "artist",
          "uri" : "spotify:artist:00g1hZIIn1xKwrbZd6nDUY"
        } ],
        "external_urls" : {
          "spotify" : "https://open.spotify.com/album/3JAfDX4tuBSquDzTXkpxqM"
        },
        "href" : "https://api.spotify.com/v1/albums/3JAfDX4tuBSquDzTXkpxqM",
        "id" : "3JAfDX4tuBSquDzTXkpxqM",
        "images" : [ {
          "height" : 640,
          "url" : "https://i.scdn.co/image/ab67616d0000b27384ff0b393ca953ca7fb0538e",
          "width" : 640
        }, {
          "height" : 300,
          "url" : "https://i.scdn.co/image/ab67616d00001e0284ff0b393ca953ca7fb0538e",
          "width" : 300
        }, {
          "height" : 64,
          "url" : "https://i.scdn.co/image/ab67616d0000485184ff0b393ca953ca7fb0538e",
          "width" : 64
        } ],
        "name" : "The Nations' 50 Favourite Hymns",
        "release_date" : "2015-09-11",
        "release_date_precision" : "day",
        "total_tracks" : 50,
        "type" : "album",
        "uri" : "spotify:album:3JAfDX4tuBSquDzTXkpxqM"
      },
      "artists" : [ {
        "external_urls" : {
          "spotify" : "https://open.spotify.com/artist/00g1hZIIn1xKwrbZd6nDUY"
        },
        "href" : "https://api.spotify.com/v1/artists/00g1hZIIn1xKwrbZd6nDUY",
        "id" : "00g1hZIIn1xKwrbZd6nDUY",
        "name" : "Elevation",
        "type" : "artist",
        "uri" : "spotify:artist:00g1hZIIn1xKwrbZd6nDUY"
      } ],
      "disc_number" : 1,
      "duration_ms" : 189546,
      "explicit" : false,
      "external_ids" : {
        "isrc" : "GBCEU1564946"
      },
      "external_urls" : {
        "spotify" : "https://open.spotify.com/track/2pKduzp5MqyPQ1AnJMq9pM"
      },
      "href" : "https://api.spotify.com/v1/tracks/2pKduzp5MqyPQ1AnJMq9pM",
      "id" : "2pKduzp5MqyPQ1AnJMq9pM",
      "is_local" : false,
      "is_playable" : true,
      "name" : "Will Your Anchor Hold",
      "popularity" : 0,
      "preview_url" : "https://p.scdn.co/mp3-preview/866ad3500689e94bd04e028b63ba8d68b633ef23?cid=774b29d4f13844c495f206cafdad9c86",
      "track_number" : 46,
      "type" : "track",
      "uri" : "spotify:track:2pKduzp5MqyPQ1AnJMq9pM"
    }, {
      "album" : {
        "album_type" : "album",
        "artists" : [ {
          "external_urls" : {
            "spotify" : "https://open.spotify.com/artist/4vN4aBTIg9DBzecl7P0J1C"
          },
          "href" : "https://api.spotify.com/v1/artists/4vN4aBTIg9DBzecl7P0J1C",
          "id" : "4vN4aBTIg9DBzecl7P0J1C",
          "name" : "Kirsty Potts",
          "type" : "artist",
          "uri" : "spotify:artist:4vN4aBTIg9DBzecl7P0J1C"
        } ],
        "external_urls" : {
          "spotify" : "https://open.spotify.com/album/6KnPBJsglPu4J4zfKrgEKa"
        },
        "href" : "https://api.spotify.com/v1/albums/6KnPBJsglPu4J4zfKrgEKa",
        "id" : "6KnPBJsglPu4J4zfKrgEKa",
        "images" : [ {
          "height" : 640,
          "url" : "https://i.scdn.co/image/ab67616d0000b273c4ac4de0373241368c1f446b",
          "width" : 640
        }, {
          "height" : 300,
          "url" : "https://i.scdn.co/image/ab67616d00001e02c4ac4de0373241368c1f446b",
          "width" : 300
        }, {
          "height" : 64,
          "url" : "https://i.scdn.co/image/ab67616d00004851c4ac4de0373241368c1f446b",
          "width" : 64
        } ],
        "name" : "The Seeds of Life",
        "release_date" : "2015-11-27",
        "release_date_precision" : "day",
        "total_tracks" : 17,
        "type" : "album",
        "uri" : "spotify:album:6KnPBJsglPu4J4zfKrgEKa"
      },
      "artists" : [ {
        "external_urls" : {
          "spotify" : "https://open.spotify.com/artist/4vN4aBTIg9DBzecl7P0J1C"
        },
        "href" : "https://api.spotify.com/v1/artists/4vN4aBTIg9DBzecl7P0J1C",
        "id" : "4vN4aBTIg9DBzecl7P0J1C",
        "name" : "Kirsty Potts",
        "type" : "artist",
        "uri" : "spotify:artist:4vN4aBTIg9DBzecl7P0J1C"
      } ],
      "disc_number" : 1,
      "duration_ms" : 219660,
      "explicit" : false,
      "external_ids" : {
        "isrc" : "GB94R1500355"
      },
      "external_urls" : {
        "spotify" : "https://open.spotify.com/track/3IY19XYmLJ022BUgX0Reai"
      },
      "href" : "https://api.spotify.com/v1/tracks/3IY19XYmLJ022BUgX0Reai",
      "id" : "3IY19XYmLJ022BUgX0Reai",
      "is_local" : false,
      "is_playable" : true,
      "name" : "Will Your Anchor Hold?",
      "popularity" : 0,
      "preview_url" : "https://p.scdn.co/mp3-preview/8416352e0612164a907b7c74beb54b1ad60c3327?cid=774b29d4f13844c495f206cafdad9c86",
      "track_number" : 5,
      "type" : "track",
      "uri" : "spotify:track:3IY19XYmLJ022BUgX0Reai"
    } ],
    "limit" : 10,
    "next" : "https://api.spotify.com/v1/search?query=Will+Your+Anchor+Hold%3F&type=track&market=US&offset=15&limit=10",
    "offset" : 5,
    "previous" : "https://api.spotify.com/v1/search?query=Will+Your+Anchor+Hold%3F&type=track&market=US&offset=0&limit=10",
    "total" : 48
  }
}