{
  "tracks" : {
    "href" : "https://api.spotify.com/v1/search?query=Dear+Lord+and+Father&type=track&market=US&offset=5&limit=10",
    "items" : [ {
      "album" : {
        "album_type" : "album",
        "artists" : [ {
          "external_urls" : {
            "spotify" : "https://open.spotify.com/artist/0f3PsS9IQ6whvNMFFKnpjl"
          },
          "href" : "https://api.spotify.com/v1/artists/0f3PsS9IQ6whvNMFFKnpjl",
          "id" : "0f3PsS9IQ6whvNMFFKnpjl",
          "name" : "Choir of King's College, Cambridge",
          "type" : "artist",
          "uri" : "spotify:artist:0f3PsS9IQ6whvNMFFKnpjl"
        } ],
        "external_urls" : {
          "spotify" : "https://open.spotify.com/album/6adHs7P4j9Gf4o3RjIWd9r"
        },
        "href" : "https://api.spotify.com/v1/albums/6adHs7P4j9Gf4o3RjIWd9r",
        "id" : "6adHs7P4j9Gf4o3RjIWd9r",
        "images" : [ {
          "height" : 640,
          "url" : "https://i.scdn.co/image/ab67616d0000b273c0630a43d495310cf21c235a",
          "width" : 640
        }, {
          "height" : 300,
          "url" : "https://i.scdn.co/image/ab67616d00001e02c0630a43d495310cf21c235a",
          "width" : 300
        }, {
          "height" : 64,
          "url" : "https://i.scdn.co/image/ab67616d00004851c0630a43d495310cf21c235a",
          "width" : 64
        } ],
        "name" : "England my England",
        "release_date" : "2008-11-03",
        "release_date_precision" : "day",
        "total_tracks" : 40,
        "type" : "album",
        "uri" : "spotify:album:6adHs7P4j9Gf4o3RjIWd9r"
      },
      "artists" : [ {
        "external_urls" : {
          "spotify" : "https://open.spotify.com/artist/4DAmH51BfQpej5UEP0dZ3u"
        },
        "href" : "https://api.spotify.com/v1/artists/4DAmH51BfQpej5UEP0dZ3u",
        "id" : "4DAmH51BfQpej5UEP0dZ3u",
        "name" : "Hubert Parry",
        "type" : "artist",
        "uri" : "spotify:artist:4DAmH51BfQpej5UEP0dZ3u"
      }, {
        "external_urls" : {
          "spotify" : "https://open.spotify.com/artist/0f3PsS9IQ6whvNMFFKnpjl"
        },
        "href" : "https://api.spotify.com/v1/artists/0f3PsS9IQ6whvNMFFKnpjl",
        "id" : "0f3PsS9IQ6whvNMFFKnpjl",
        "name" : "Choir of King's College, Cambridge",
        "type" : "artist",
        "uri" : "spotify:artist:0f3PsS9IQ6whvNMFFKnpjl"
      }, {
        "external_urls" : {
          "spotify" : "https://open.spotify.com/artist/14T38EqGW8bhHKNKllUnW9"
        },
        "href" : "https://api.spotify.com/v1/artists/14T38EqGW8bhHKNKllUnW9",
        "id" : "14T38EqGW8bhHKNKllUnW9",
        "name" : "Thomas Bullard",
        "type" : "artist",
        "uri" : "spotify:artist:14T38EqGW8bhHKNKllUnW9"
      }, {
        "external_urls" : {
          "spotify" : "https://open.spotify.com/artist/3lSF72DO2gQRQlJ5hV6OEi"
        },
        "href" : "https://api.spotify.com/v1/artists/3lSF72DO2gQRQlJ5hV6OEi",
        "id" : "3lSF72DO2gQRQlJ5hV6OEi",
        "name" : "Benjamin Bayl",
        "type" : "artist",
        "uri" : "spotify:artist:3lSF72DO2gQRQlJ5hV6OEi"
      }, {
        "external_urls" : {
          "spotify" : "https://open.spotify.com/artist/0ugRf6ECGBFRCHlv9iG1No"
        },
        "href" : "https://api.spotify.com/v1/artists/0ugRf6ECGBFRCHlv9iG1No",
        "id" : "0ugRf6ECGBFRCHlv9iG1No",
        "name" : "Stephen Cleobury",
        "type" : "artist",
        "uri" : "spotify:artist:0ugRf6ECGBFRCHlv9iG1No"
      } ],
      "disc_number" : 2,
      "duration_ms" : 238533,
      "explicit" : false,
      "external_ids" : {
        "isrc" : "GBAYC0002440"
      },
      "external_urls" : {
        "spotify" : "https://open.spotify.com/track/1ADqJPAXcgSkgddG4QTls9"
      },
      "href" : "https://api.spotify.com/v1/tracks/1ADqJPAXcgSkgddG4QTls9",
      "id" : "1ADqJPAXcgSkgddG4QTls9",
      "is_local" : false,
      "is_playable" : true,
      "name" : "Dear Lord and Father of mankind (Repton)",
      "popularity" : 13,
      "preview_url" : "https://p.scdn.co/mp3-preview/cb086fba9f45db85430c63f06c085f2ff3ab92c7?cid=774b29d4f13844c495f206cafdad9c86",
      "track_number" : 14,
      "type" : "track",
      "uri" : "spotify:track:1ADqJPAXcgSkgddG4QTls9"
    }, {
      "album" : {
        "album_type" : "album",
        "artists" : [ {
          "external_urls" : {
            "spotify" : "https://open.spotify.com/artist/0cylxW7HGdK9xMdubw2oYW"
          },
          "href" : "https://api.spotify.com/v1/artists/0cylxW7HGdK9xMdubw2oYW",
          "id" : "0cylxW7HGdK9xMdubw2oYW",
          "name" : "The O'Neill Brothers Group",
          "type" : "artist",
          "uri" : "spotify:artist:0cylxW7HGdK9xMdubw2oYW"
        } ],
        "external_urls" : {
          "spotify" : "https://open.spotify.com/album/4ujAfH0AyW7mH6hRa5Llmd"
        },
        "href" : "https://api.spotify.com/v1/albums/4ujAfH0AyW7mH6hRa5Llmd",
        "id" : "4ujAfH0AyW7mH6hRa5Llmd",
        "images" : [ {
          "height" : 640,
          "url" : "https://i.scdn.co/image/ab67616d0000b2730799e63756fa74812b6eee37",
          "width" : 640
        }, {
          "height" : 300,
          "url" : "https://i.scdn.co/image/ab67616d00001e020799e63756fa74812b6eee37",
          "width" : 300
        }, {
          "height" : 64,
          "url" : "https://i.scdn.co/image/ab67616d000048510799e63756fa74812b6eee37",
          "width" : 64
        } ],
        "name" : "Instrumental Christian Music for Bible Study",
        "release_date" : "2011",
        "release_date_precision" : "year",
        "total_tracks" : 16,
        "type" : "album",
        "uri" : "spotify:album:4ujAfH0AyW7mH6hRa5Llmd"
      },
      "artists" : [ {
        "external_urls" : {
          "spotify" : "https://open.spotify.com/artist/0cylxW7HGdK9xMdubw2oYW"
        },
        "href" : "https://api.spotify.com/v1/artists/0cylxW7HGdK9xMdubw2oYW",
        "id" : "0cylxW7HGdK9xMdubw2oYW",
        "name" : "The O'Neill Brothers Group",
        "type" : "artist",
        "uri" : "spotify:artist:0cylxW7HGdK9xMdubw2oYW"
      } ],
      "disc_number" : 1,
      "duration_ms" : 252520,
      "explicit" : false,
      "external_ids" : {
        "isrc" : "USA371358230"
      },
      "external_urls" : {
        "spotify" : "https://open.spotify.com/track/5WDPeCmc0DAHI1vIui4yNM"
      },
      "href" : "https://api.spotify.com/v1/tracks/5WDPeCmc0DAHI1vIui4yNM",
      "id" : "5WDPeCmc0DAHI1vIui4yNM",
      "is_local" : false,
      "is_playable" : true,
      "name" : "Dear Lord and Father of Mankind / He Leadeth Me",
      "popularity" : 10,
      "preview_url" : "https://p.scdn.co/mp3-preview/044f2337db8283b6341c89a17ec428513b047914?cid=774b29d4f13844c495f206cafdad9c86",
      "track_number" : 16,
      "type" : "track",
      "uri" : "spotify:track:5WDPeCmc0DAHI1vIui4yNM"
    }, {
      "album" : {
        "album_type" : "album",
        "artists" : [ {
          "external_urls" : {
            "spotify" : "https://open.spotify.com/artist/2yQZGNQJExPLfCB8kfTD88"
          },
          "href" : "https://api.spotify.com/v1/artists/2yQZGNQJExPLfCB8kfTD88",
          "id" : "2yQZGNQJExPLfCB8kfTD88",
          "name" : "Andrey Jackson",
          "type" : "artist",
          "uri" : "spotify:artist:2yQZGNQJExPLfCB8kfTD88"
        } ],
        "external_urls" : {
          "spotify" : "https://open.spotify.com/album/4dyILbCJsykEHGVMVyQ10v"
        },
        "href" : "https://api.spotify.com/v1/albums/4dyILbCJsykEHGVMVyQ10v",
        "id" : "4dyILbCJsykEHGVMVyQ10v",
        "images" : [ {
          "height" : 640,
          "url" : "https://i.scdn.co/image/ab67616d0000b2736d560b5662a8886b1a7a945e",
          "width" : 640
        }, {
          "height" : 300,
          "url" : "https://i.scdn.co/image/ab67616d00001e026d560b5662a8886b1a7a945e",
          "width" : 300
        }, {
          "height" : 64,
          "url" : "https://i.scdn.co/image/ab67616d000048516d560b5662a8886b1a7a945e",
          "width" : 64
        } ],
        "name" : "Christian Hymns, Vol. 3, Organ Accompaniments (The Church Organist Series)",
        "release_date" : "2016-01-25",
        "release_date_precision" : "day",
        "total_tracks" : 31,
        "type" : "album",
        "uri" : "spotify:album:4dyILbCJsykEHGVMVyQ10v"
      },
      "artists" : [ {
        "external_urls" : {
          "spotify" : "https://open.spotify.com/artist/2yQZGNQJExPLfCB8kfTD88"
        },
        "href" : "https://api.spotify.com/v1/artists/2yQZGNQJExPLfCB8kfTD88",
        "id" : "2yQZGNQJExPLfCB8kfTD88",
        "name" : "Andrey Jackson",
        "type" : "artist",
        "uri" : "spotify:artist:2yQZGNQJExPLfCB8kfTD88"
      } ],
      "disc_number" : 1,
      "duration_ms" : 108304,
      "explicit" : false,
      "external_ids" : {
        "isrc" : "GB-SMU-25-18762"
      },
      "external_urls" : {
        "spotify" : "https://open.spotify.com/track/4yYKn8SheDOYdLoqRcZjFX"
      },
      "href" : "https://api.spotify.com/v1/tracks/4yYKn8SheDOYdLoqRcZjFX",
      "id" : "4yYKn8SheDOYdLoqRcZjFX",
      "is_local" : false,
      "is_playable" : true,
      "name" : "Dear Lord and Father of Mankind",
      "popularity" : 7,
      "preview_url" : "https://p.scdn.co/mp3-preview/131ac19c4c7898af5fd042dfd0e700bcf3a6990c?cid=774b29d4f13844c495f206cafdad9c86",
      "track_number" : 1,
      "type" : "track",
      "uri" : "spotify:track:4yYKn8SheDOYdLoqRcZjFX"
    }, {
      "album" : {
        "album_type" : "album",
        "artists" : [ {
          "external_urls" : {
            "spotify" : "https://open.spotify.com/artist/2pMJjUe1wagw5La8Vefqrr"
          },
          "href" : "https://api.spotify.com/v1/artists/2pMJjUe1wagw5La8Vefqrr",
          "id" : "2pMJjUe1wagw5La8Vefqrr",
          "name" : "Huddersfield Choral Society",
          "type" : "artist",
          "uri" : "spotify:artist:2pMJjUe1wagw5La8Vefqrr"
        }, {
          "external_urls" : {
            "spotify" : "https://open.spotify.com/artist/0EPcIqswW5NJMX2agNAgRt"
          },
          "href" : "https://api.spotify.com/v1/artists/0EPcIqswW5NJMX2agNAgRt",
          "id" : "0EPcIqswW5NJMX2agNAgRt",
          "name" : "Joseph Cullen",
          "type" : "artist",
          "uri" : "spotify:artist:0EPcIqswW5NJMX2agNAgRt"
        } ],
        "external_urls" : {
          "spotify" : "https://open.spotify.com/album/54uvqWKqf0NqIU3e9CXmb1"
        },
        "href" : "https://api.spotify.com/v1/albums/54uvqWKqf0NqIU3e9CXmb1",
        "id" : "54uvqWKqf0NqIU3e9CXmb1",
        "images" : [ {
          "height" : 640,
          "url" : "https://i.scdn.co/image/ab67616d0000b2735578c12424c997d5f646d932",
          "width" : 640
        }, {
          "height" : 300,
          "url" : "https://i.scdn.co/image/ab67616d00001e025578c12424c997d5f646d932",
          "width" : 300
        }, {
          "height" : 64,
          "url" : "https://i.scdn.co/image/ab67616d000048515578c12424c997d5f646d932",
          "width" : 64
        } ],
        "name" : "The Hymns Album",
        "release_date" : "2006-05-08",
        "release_date_precision" : "day",
        "total_tracks" : 25,
        "type" : "album",
        "uri" : "spotify:album:54uvqWKqf0NqIU3e9CXmb1"
      },
      "artists" : [ {
        "external_urls" : {
          "spotify" : "https://open.spotify.com/artist/2pMJjUe1wagw5La8Vefqrr"
        },
        "href" : "https://api.spotify.com/v1/artists/2pMJjUe1wagw5La8Vefqrr",
        "id" : "2pMJjUe1wagw5La8Vefqrr",
        "name" : "Huddersfield Choral Society",
        "type" : "artist",
        "uri" : "spotify:artist:2pMJjUe1wagw5La8Vefqrr"
      } ],
      "disc_number" : 1,
      "duration_ms" : 205253,
      "explicit" : false,
      "external_ids" : {
        "isrc" : "GBLLH0607903"
      },
      "external_urls" : {
        "spotify" : "https://open.spotify.com/track/7907G4180VEELnQtIB9R10"
      },
      "href" : "https://api.spotify.com/v1/tracks/7907G4180VEELnQtIB9R10",
      "id" : "7907G4180VEELnQtIB9R10",
      "is_local" : false,
      "is_playable" : true,
      "name" : "Dear Lord & Father of mankind",
      "popularity" : 13,
      "preview_url" : "https://p.scdn.co/mp3-preview/83dd0e0633d8ea421227d8a4d4ce9f92d1438226?cid=774b29d4f13844c495f206cafdad9c86",
      "track_number" : 3,
      "type" : "track",
      "uri" : "spotify:track:7907G4180VEELnQtIB9R10"
    }, {
      "album" : {
        "album_type" : "album",
        "artists" : [ {
          "external_urls" : {
            "spotify" : "https://open.spotify.com/artist/6dkXCmyrSrQteo0gwOGzFl"
          },
          "href" : "https://api.spotify.com/v1/artists/6dkXCmyrSrQteo0gwOGzFl",
          "id" : "6dkXCmyrSrQteo0gwOGzFl",
          "name" : "Katherine Jenkins",
          "type" : "artist",
          "uri" : "spotify:artist:6dkXCmyrSrQteo0gwOGzFl"
        } ],
        "external_urls" : {
          "spotify" : "https://open.spotify.com/album/3ZLxqqZUlQt69ypoGLOOv8"
        },
        "href" : "https://api.spotify.com/v1/albums/3ZLxqqZUlQt69ypoGLOOv8",
        "id" : "3ZLxqqZUlQt69ypoGLOOv8",
        "images" : [ {
          "height" : 640,
          "url" : "https://i.scdn.co/image/ab67616d0000b2735fa55514a81c0d80f62d3cd1",
          "width" : 640
        }, {
          "height" : 300,
          "url" : "https://i.scdn.co/image/ab67616d00001e025fa55514a81c0d80f62d3cd1",
          "width" : 300
        }, {
          "height" : 64,
          "url" : "https://i.scdn.co/image/ab67616d000048515fa55514a81c0d80f62d3cd1",
          "width" : 64
        } ],
        "name" : "Serenade",
        "release_date" : "2006-01-01",
        "release_date_precision" : "day",
        "total_tracks" : 14,
        "type" : "album",
        "uri" : "spotify:album:3ZLxqqZUlQt69ypoGLOOv8"
      },
      "artists" : [ {
        "external_urls" : {
          "spotify" : "https://open.spotify.com/artist/4DAmH51BfQpej5UEP0dZ3u"
        },
        "href" : "https://api.spotify.com/v1/artists/4DAmH51BfQpej5UEP0dZ3u",
        "id" : "4DAmH51BfQpej5UEP0dZ3u",
        "name" : "Hubert Parry",
        "type" : "artist",
        "uri" : "spotify:artist:4DAmH51BfQpej5UEP0dZ3u"
      }, {
        "external_urls" : {
          "spotify" : "https://open.spotify.com/artist/6dkXCmyrSrQteo0gwOGzFl"
        },
        "href" : "https://api.spotify.com/v1/artists/6dkXCmyrSrQteo0gwOGzFl",
        "id" : "6dkXCmyrSrQteo0gwOGzFl",
        "name" : "Katherine Jenkins",
        "type" : "artist",
        "uri" : "spotify:artist:6dkXCmyrSrQteo0gwOGzFl"
      }, {
        "external_urls" : {
          "spotify" : "https://open.spotify.com/artist/09KZU0NsS7jRa5p0SflmGY"
        },
        "href" : "https://api.spotify.com/v1/artists/09KZU0NsS7jRa5p0SflmGY",
        "id" : "09KZU0NsS7jRa5p0SflmGY",
        "name" : "Philharmonia Orchestra",
        "type" : "artist",
        "uri" : "spotify:artist:09KZU0NsS7jRa5p0SflmGY"
      }, {
        "external_urls" : {
          "spotify" : "https://open.spotify.com/artist/4oKiOJ0qPP6TFCv6ebRFKO"
        },
        "href" : "https://api.spotify.com/v1/artists/4oKiOJ0qPP6TFCv6ebRFKO",
        "id" : "4oKiOJ0qPP6TFCv6ebRFKO",
        "name" : "Nicholas Dodd",
        "type" : "artist",
        "uri" : "spotify:artist:4oKiOJ0qPP6TFCv6ebRFKO"
      } ],
      "disc_number" : 1,
      "duration_ms" : 222773,
      "explicit" : false,
      "external_ids" : {
        "isrc" : "GBUM70602983"
      },
      "external_urls" : {
        "spotify" : "https://open.spotify.com/track/3j1GLvmUZCQ48L92unXjAk"
      },
      "href" : "https://api.spotify.com/v1/tracks/3j1GLvmUZCQ48L92unXjAk",
      "id" : "3j1GLvmUZCQ48L92unXjAk",
      "is_local" : false,
      "is_playable" : true,
      "name" : "Dear Lord And Father of Mankind",
      "popularity" : 15,
      "preview_url" : null,
      "track_number" : 12,
      "type" : "track",
      "uri" : "spotify:track:3j1GLvmUZCQ48L92unXjAk"
    }, {
      "album" : {
        "album_type" : "album",
        "artists" : [ {
          "external_urls" : {
            "spotify" : "https://open.spotify.com/artist/79WVHfPz6NehWubOqTV5w3"
          },
          "href" : "https://api.spotify.com/v1/artists/79WVHfPz6NehWubOqTV5w3",
          "id" : "79WVHfPz6NehWubOqTV5w3",
          "name" : "Keith Lancaster",
          "type" : "artist",
          "uri" : "spotify:artist:79WVHfPz6NehWubOqTV5w3"
        }, {
          "external_urls" : {
            "spotify" : "https://open.spotify.com/artist/5qWYFKIrDUtFAmkN9yQxEy"
          },
          "href" : "https://api.spotify.com/v1/artists/5qWYFKIrDUtFAmkN9yQxEy",
          "id" : "5qWYFKIrDUtFAmkN9yQxEy",
          "name" : "The Acappella Company",
          "type" : "artist",
          "uri" : "spotify:artist:5qWYFKIrDUtFAmkN9yQxEy"
        } ],
        "external_urls" : {
          "spotify" : "https://open.spotify.com/album/270tYiXVI2SOPYV3RgrtbV"
        },
        "href" : "https://api.spotify.com/v1/albums/270tYiXVI2SOPYV3RgrtbV",
        "id" : "270tYiXVI2SOPYV3RgrtbV",
        "images" : [ {
          "height" : 640,
          "url" : "https://i.scdn.co/image/ab67616d0000b273e2ea8d39f82f0e11f1ef7e50",
          "width" : 640
        }, {
          "height" : 300,
          "url" : "https://i.scdn.co/image/ab67616d00001e02e2ea8d39f82f0e11f1ef7e50",
          "width" : 300
        }, {
          "height" : 64,
          "url" : "https://i.scdn.co/image/ab67616d00004851e2ea8d39f82f0e11f1ef7e50",
          "width" : 64
        } ],
        "name" : "Holy God: Praise & Harmony (A Cappella Worship)",
        "release_date" : "2008-08-07",
        "release_date_precision" : "day",
        "total_tracks" : 25,
        "type" : "album",
        "uri" : "spotify:album:270tYiXVI2SOPYV3RgrtbV"
      },
      "artists" : [ {
        "external_urls" : {
          "spotify" : "https://open.spotify.com/artist/79WVHfPz6NehWubOqTV5w3"
        },
        "href" : "https://api.spotify.com/v1/artists/79WVHfPz6NehWubOqTV5w3",
        "id" : "79WVHfPz6NehWubOqTV5w3",
        "name" : "Keith Lancaster",
        "type" : "artist",
        "uri" : "spotify:artist:79WVHfPz6NehWubOqTV5w3"
      }, {
        "external_urls" : {
          "spotify" : "https://open.spotify.com/artist/5qWYFKIrDUtFAmkN9yQxEy"
        },
        "href" : "https://api.spotify.com/v1/artists/5qWYFKIrDUtFAmkN9yQxEy",
        "id" : "5qWYFKIrDUtFAmkN9yQxEy",
        "name" : "The Acappella Company",
        "type" : "artist",
        "uri" : "spotify:artist:5qWYFKIrDUtFAmkN9yQxEy"
      } ],
      "disc_number" : 1,
      "duration_ms" : 154672,
      "explicit" : false,
      "external_ids" : {
        "isrc" : "ushm21932180"
      },
      "external_urls" : {
        "spotify" : "https://open.spotify.com/track/0CJWEzVmvaOs51TLMkuYFQ"
      },
      "href" : "https://api.spotify.com/v1/tracks/0CJWEzVmvaOs51TLMkuYFQ",
      "id" : "0CJWEzVmvaOs51TLMkuYFQ",
      "is_local" : false,
      "is_playable" : true,
      "name" : "Dear Lord and Father of Mankind",
      "popularity" : 6,
      "preview_url" : "https://p.scdn.co/mp3-preview/37da5279b6403dc5042c7189f37bc259a4fa9b1f?cid=774b29d4f13844c495f206cafdad9c86",
      "track_number" : 11,
      "type" : "track",
      "uri" : "spotify:track:0CJWEzVmvaOs51TLMkuYFQ"
    }, {
      "album" : {
        "album_type" : "album",
        "artists" : [ {
          "external_urls" : {
            "spotify" : "https://open.spotify.com/artist/3jnYghENygMiMMcHFiVzJv"
          },
          "href" : "https://api.spotify.com/v1/artists/3jnYghENygMiMMcHFiVzJv",
          "id" : "3jnYghENygMiMMcHFiVzJv",
          "name" : "Classical Praise Musicians",
          "type" : "artist",
          "uri" : "spotify:artist:3jnYghENygMiMMcHFiVzJv"
        } ],
        "external_urls" : {
          "spotify" : "https://open.spotify.com/album/0gX9S1pDa3UGnqTD4bKXJH"
        },
        "href" : "https://api.spotify.com/v1/albums/0gX9S1pDa3UGnqTD4bKXJH",
        "id" : "0gX9S1pDa3UGnqTD4bKXJH",
        "images" : [ {
          "height" : 640,
          "url" : "https://i.scdn.co/image/ab67616d0000b2731e9a312dc3cb0578ce92aeb5",
          "width" : 640
        }, {
          "height" : 300,
          "url" : "https://i.scdn.co/image/ab67616d00001e021e9a312dc3cb0578ce92aeb5",
          "width" : 300
        }, {
          "height" : 64,
          "url" : "https://i.scdn.co/image/ab67616d000048511e9a312dc3cb0578ce92aeb5",
          "width" : 64
        } ],
        "name" : "You Are Crowned - Classical Praise Strings (Instrumental)",
        "release_date" : "1993-01-01",
        "release_date_precision" : "day",
        "total_tracks" : 13,
        "type" : "album",
        "uri" : "spotify:album:0gX9S1pDa3UGnqTD4bKXJH"
      },
      "artists" : [ {
        "external_urls" : {
          "spotify" : "https://open.spotify.com/artist/3jnYghENygMiMMcHFiVzJv"
        },
        "href" : "https://api.spotify.com/v1/artists/3jnYghENygMiMMcHFiVzJv",
        "id" : "3jnYghENygMiMMcHFiVzJv",
        "name" : "Classical Praise Musicians",
        "type" : "artist",
        "uri" : "spotify:artist:3jnYghENygMiMMcHFiVzJv"
      } ],
      "disc_number" : 1,
      "duration_ms" : 146493,
      "explicit" : false,
      "external_ids" : {
        "isrc" : "US25L1601805"
      },
      "external_urls" : {
        "spotify" : "https://open.spotify.com/track/2ZTReyogWZcscUwtPRVEGT"
      },
      "href" : "https://api.spotify.com/v1/tracks/2ZTReyogWZcscUwtPRVEGT",
      "id" : "2ZTReyogWZcscUwtPRVEGT",
      "is_local" : false,
      "is_playable" : true,
      "name" : "Dear Lord and Father of Mankind - Instrumental",
      "popularity" : 8,
      "preview_url" : "https://p.scdn.co/mp3-preview/e3b96fc0eeeba6e4dca348133130b056c6c0bff4?cid=774b29d4f13844c495f206cafdad9c86",
      "track_number" : 11,
      "type" : "track",
      "uri" : "spotify:track:2ZTReyogWZcscUwtPRVEGT"
    }, {
      "album" : {
        "album_type" : "album",
        "artists" : [ {
          "external_urls" : {
            "spotify" : "https://open.spotify.com/artist/6zCKr405jB5b6QI1IfFnf2"
          },
          "href" : "https://api.spotify.com/v1/artists/6zCKr405jB5b6QI1IfFnf2",
          "id" : "6zCKr405jB5b6QI1IfFnf2",
          "name" : "Dallas Christian Adult Concert Choir",
          "type" : "artist",
          "uri" : "spotify:artist:6zCKr405jB5b6QI1IfFnf2"
        } ],
        "external_urls" : {
          "spotify" : "https://open.spotify.com/album/7wRvsnB6hhp0u7oecwXkpV"
        },
        "href" : "https://api.spotify.com/v1/albums/7wRvsnB6hhp0u7oecwXkpV",
        "id" : "7wRvsnB6hhp0u7oecwXkpV",
        "images" : [ {
          "height" : 640,
          "url" : "https://i.scdn.co/image/ab67616d0000b27355ef72d57c19e5a670b31ff8",
          "width" : 640
        }, {
          "height" : 300,
          "url" : "https://i.scdn.co/image/ab67616d00001e0255ef72d57c19e5a670b31ff8",
          "width" : 300
        }, {
          "height" : 64,
          "url" : "https://i.scdn.co/image/ab67616d0000485155ef72d57c19e5a670b31ff8",
          "width" : 64
        } ],
        "name" : "I Can Hear My Savior Calling",
        "release_date" : "2008-05-13",
        "release_date_precision" : "day",
        "total_tracks" : 26,
        "type" : "album",
        "uri" : "spotify:album:7wRvsnB6hhp0u7oecwXkpV"
      },
      "artists" : [ {
        "external_urls" : {
          "spotify" : "https://open.spotify.com/artist/6zCKr405jB5b6QI1IfFnf2"
        },
        "href" : "https://api.spotify.com/v1/artists/6zCKr405jB5b6QI1IfFnf2",
        "id" : "6zCKr405jB5b6QI1IfFnf2",
        "name" : "Dallas Christian Adult Concert Choir",
        "type" : "artist",
        "uri" : "spotify:artist:6zCKr405jB5b6QI1IfFnf2"
      } ],
      "disc_number" : 1,
      "duration_ms" : 189133,
      "explicit" : false,
      "external_ids" : {
        "isrc" : "USMZA0811471"
      },
      "external_urls" : {
        "spotify" : "https://open.spotify.com/track/122CujYLFRNM3FHop5DABS"
      },
      "href" : "https://api.spotify.com/v1/tracks/122CujYLFRNM3FHop5DABS",
      "id" : "122CujYLFRNM3FHop5DABS",
      "is_local" : false,
      "is_playable" : true,
      "name" : "Dear Lord and Father of Mankind",
      "popularity" : 5,
      "preview_url" : "https://p.scdn.co/mp3-preview/6e20b16fde404f73d2000cc3c3cc6b4bf0035da8?cid=774b29d4f13844c495f206cafdad9c86",
      "track_number" : 20,
      "type" : "track",
      "uri" : "spotify:track:122CujYLFRNM3FHop5DABS"
    }, {
      "album" : {
        "album_type" : "album",
        "artists" : [ {
          "external_urls" : {
            "spotify" : "https://open.spotify.com/artist/4qenjQZBIuPL8Ridz3sLH4"
          },
          "href" : "https://api.spotify.com/v1/artists/4qenjQZBIuPL8Ridz3sLH4",
          "id" : "4qenjQZBIuPL8Ridz3sLH4",
          "name" : "York Minster Choir",
          "type" : "artist",
          "uri" : "spotify:artist:4qenjQZBIuPL8Ridz3sLH4"
        } ],
        "external_urls" : {
          "spotify" : "https://open.spotify.com/album/6yjZqcPyN62WsGawmpNHF5"
        },
        "href" : "https://api.spotify.com/v1/albums/6yjZqcPyN62WsGawmpNHF5",
        "id" : "6yjZqcPyN62WsGawmpNHF5",
        "images" : [ {
          "height" : 640,
          "url" : "https://i.scdn.co/image/ab67616d0000b273adb9b851596585d0dac58f09",
          "width" : 640
        }, {
          "height" : 300,
          "url" : "https://i.scdn.co/image/ab67616d00001e02adb9b851596585d0dac58f09",
          "width" : 300
        }, {
          "height" : 64,
          "url" : "https://i.scdn.co/image/ab67616d00004851adb9b851596585d0dac58f09",
          "width" : 64
        } ],
        "name" : "Complete New English Hymnal Vol. 1",
        "release_date" : "2000",
        "release_date_precision" : "year",
        "total_tracks" : 23,
        "type" : "album",
        "uri" : "spotify:album:6yjZqcPyN62WsGawmpNHF5"
      },
      "artists" : [ {
        "external_urls" : {
          "spotify" : "https://open.spotify.com/artist/4qenjQZBIuPL8Ridz3sLH4"
        },
        "href" : "https://api.spotify.com/v1/artists/4qenjQZBIuPL8Ridz3sLH4",
        "id" : "4qenjQZBIuPL8Ridz3sLH4",
        "name" : "York Minster Choir",
        "type" : "artist",
        "uri" : "spotify:artist:4qenjQZBIuPL8Ridz3sLH4"
      } ],
      "disc_number" : 1,
      "duration_ms" : 225640,
      "explicit" : false,
      "external_ids" : {
        "isrc" : "GBXUX0870120"
      },
      "external_urls" : {
        "spotify" : "https://open.spotify.com/track/56IXfAFJt7UVIjZGQta6yU"
      },
      "href" : "https://api.spotify.com/v1/tracks/56IXfAFJt7UVIjZGQta6yU",
      "id" : "56IXfAFJt7UVIjZGQta6yU",
      "is_local" : false,
      "is_playable" : true,
      "name" : "Dear Lord and Father of Mankind",
      "popularity" : 8,
      "preview_url" : "https://p.scdn.co/mp3-preview/a31a08f4c8b3d29143b99c1091a468362518d68a?cid=774b29d4f13844c495f206cafdad9c86",
      "track_number" : 20,
      "type" : "track",
      "uri" : "spotify:track:56IXfAFJt7UVIjZGQta6yU"
    }, {
      "album" : {
        "album_type" : "compilation",
        "artists" : [ {
          "external_urls" : {
            "spotify" : "https://open.spotify.com/artist/0LyfQWJT6nXafLPZqxe9Of"
          },
          "href" : "https://api.spotify.com/v1/artists/0LyfQWJT6nXafLPZqxe9Of",
          "id" : "0LyfQWJT6nXafLPZqxe9Of",
          "name" : "Various Artists",
          "type" : "artist",
          "uri" : "spotify:artist:0LyfQWJT6nXafLPZqxe9Of"
        } ],
        "external_urls" : {
          "spotify" : "https://open.spotify.com/album/042W4f6llmoUjBfc7BrmQ1"
        },
        "href" : "https://api.spotify.com/v1/albums/042W4f6llmoUjBfc7BrmQ1",
        "id" : "042W4f6llmoUjBfc7BrmQ1",
        "images" : [ {
          "height" : 640,
          "url" : "https://i.scdn.co/image/ab67616d0000b273b880949295e8aae97adccf02",
          "width" : 640
        }, {
          "height" : 300,
          "url" : "https://i.scdn.co/image/ab67616d00001e02b880949295e8aae97adccf02",
          "width" : 300
        }, {
          "height" : 64,
          "url" : "https://i.scdn.co/image/ab67616d00004851b880949295e8aae97adccf02",
          "width" : 64
        } ],
        "name" : "Hymns Triumphant: The Complete Collection",
        "release_date" : "2013-01-01",
        "release_date_precision" : "day",
        "total_tracks" : 55,
        "type" : "album",
        "uri" : "spotify:album:042W4f6llmoUjBfc7BrmQ1"
      },
      "artists" : [ {
        "external_urls" : {
          "spotify" : "https://open.spotify.com/artist/7GUhTBqD7CAbbIjjBd0SdN"
        },
        "href" : "https://api.spotify.com/v1/artists/7GUhTBqD7CAbbIjjBd0SdN",
        "id" : "7GUhTBqD7CAbbIjjBd0SdN",
        "name" : "London Philharmonic Choir",
        "type" : "artist",
        "uri" : "spotify:artist:7GUhTBqD7CAbbIjjBd0SdN"
      } ],
      "disc_number" : 1,
      "duration_ms" : 60666,
      "explicit" : false,
      "external_ids" : {
        "isrc" : "USSP38847103"
      },
      "external_urls" : {
        "spotify" : "https://open.spotify.com/track/3dgRx554DwbYz5tWe3u3W6"
      },
      "href" : "https://api.spotify.com/v1/tracks/3dgRx554DwbYz5tWe3u3W6",
      "id" : "3dgRx554DwbYz5tWe3u3W6",
      "is_local" : false,
      "is_playable" : true,
      "name" : "Dear Lord, And Father Of Mankind",
      "popularity" : 4,
      "preview_url" : null,
      "track_number" : 6,
      "type" : "track",
      "uri" : "spotify:track:3dgRx554DwbYz5tWe3u3W6"
    } ],
    "limit" : 10,
    "next" : "https://api.spotify.com/v1/search?query=Dear+Lord+and+Father&type=track&market=US&offset=15&limit=10",
    "offset" : 5,
    "previous" : "https://api.spotify.com/v1/search?query=Dear+Lord+and+Father&type=track&market=US&offset=0&limit=10",
    "total" : 257
  }
}