{
  "tracks" : {
    "href" : "https://api.spotify.com/v1/search?query=I+Need+Thee+Every+Hour&type=track&market=US&offset=5&limit=10",
    "items" : [ {
      "album" : {
        "album_type" : "album",
        "artists" : [ {
          "external_urls" : {
            "spotify" : "https://open.spotify.com/artist/6mGZXaZ4SWNh6IsJ57thCp"
          },
          "href" : "https://api.spotify.com/v1/artists/6mGZXaZ4SWNh6IsJ57thCp",
          "id" : "6mGZXaZ4SWNh6IsJ57thCp",
          "name" : "Fernando Ortega",
          "type" : "artist",
          "uri" : "spotify:artist:6mGZXaZ4SWNh6IsJ57thCp"
        } ],
        "external_urls" : {
          "spotify" : "https://open.spotify.com/album/6z9Nqnjlzshre4yCUD2CLf"
        },
        "href" : "https://api.spotify.com/v1/albums/6z9Nqnjlzshre4yCUD2CLf",
        "id" : "6z9Nqnjlzshre4yCUD2CLf",
        "images" : [ {
          "height" : 640,
          "url" : "https://i.scdn.co/image/ab67616d0000b273decae2b70531fb303778b5c5",
          "width" : 640
        }, {
          "height" : 300,
          "url" : "https://i.scdn.co/image/ab67616d00001e02decae2b70531fb303778b5c5",
          "width" : 300
        }, {
          "height" : 64,
          "url" : "https://i.scdn.co/image/ab67616d00004851decae2b70531fb303778b5c5",
          "width" : 64
        } ],
        "name" : "Hymns & Meditations",
        "release_date" : "1994-01-01",
        "release_date_precision" : "day",
        "total_tracks" : 10,
        "type" : "album",
        "uri" : "spotify:album:6z9Nqnjlzshre4yCUD2CLf"
      },
      "artists" : [ {
        "external_urls" : {
          "spotify" : "https://open.spotify.com/artist/6mGZXaZ4SWNh6IsJ57thCp"
        },
        "href" : "https://api.spotify.com/v1/artists/6mGZXaZ4SWNh6IsJ57thCp",
        "id" : "6mGZXaZ4SWNh6IsJ57thCp",
        "name" : "Fernando Ortega",
        "type" : "artist",
        "uri" : "spotify:artist:6mGZXaZ4SWNh6IsJ57thCp"
      } ],
      "disc_number" : 1,
      "duration_ms" : 485440,
      "explicit" : false,
      "external_ids" : {
        "isrc" : "ushm90539266"
      },
      "external_urls" : {
        "spotify" : "https://open.spotify.com/track/5RsE93PP41rfKCuINCjajC"
      },
      "href" : "https://api.spotify.com/v1/tracks/5RsE93PP41rfKCuINCjajC",
      "id" : "5RsE93PP41rfKCuINCjajC",
      "is_local" : false,
      "is_playable" : true,
      "name" : "I Need Thee Every Hour",
      "popularity" : 34,
      "preview_url" : "https://p.scdn.co/mp3-preview/418ceaf77b371b32455d4befd7a8cecf0acfd4b7?cid=774b29d4f13844c495f206cafdad9c86",
      "track_number" : 9,
      "type" : "track",
      "uri" : "spotify:track:5RsE93PP41rfKCuINCjajC"
    }, {
      "album" : {
        "album_type" : "album",
        "artists" : [ {
          "external_urls" : {
            "spotify" : "https://open.spotify.com/artist/3OvrUspbOHgGI6T7D5Fb6P"
          },
          "href" : "https://api.spotify.com/v1/artists/3OvrUspbOHgGI6T7D5Fb6P",
          "id" : "3OvrUspbOHgGI6T7D5Fb6P",
          "name" : "David Tolk",
          "type" : "artist",
          "uri" : "spotify:artist:3OvrUspbOHgGI6T7D5Fb6P"
        } ],
        "external_urls" : {
          "spotify" : "https://open.spotify.com/album/0FT9pUUHPGNLY5wy7Db3sh"
        },
        "href" : "https://api.spotify.com/v1/albums/0FT9pUUHPGNLY5wy7Db3sh",
        "id" : "0FT9pUUHPGNLY5wy7Db3sh",
        "images" : [ {
          "height" : 640,
          "url" : "https://i.scdn.co/image/ab67616d0000b273af693a229f75a37b99a4e143",
          "width" : 640
        }, {
          "height" : 300,
          "url" : "https://i.scdn.co/image/ab67616d00001e02af693a229f75a37b99a4e143",
          "width" : 300
        }, {
          "height" : 64,
          "url" : "https://i.scdn.co/image/ab67616d00004851af693a229f75a37b99a4e143",
          "width" : 64
        } ],
        "name" : "Grace",
        "release_date" : "2008-01-01",
        "release_date_precision" : "day",
        "total_tracks" : 11,
        "type" : "album",
        "uri" : "spotify:album:0FT9pUUHPGNLY5wy7Db3sh"
      },
      "artists" : [ {
        "external_urls" : {
          "spotify" : "https://open.spotify.com/artist/3OvrUspbOHgGI6T7D5Fb6P"
        },
        "href" : "https://api.spotify.com/v1/artists/3OvrUspbOHgGI6T7D5Fb6P",
        "id" : "3OvrUspbOHgGI6T7D5Fb6P",
        "name" : "David Tolk",
        "type" : "artist",
        "uri" : "spotify:artist:3OvrUspbOHgGI6T7D5Fb6P"
      } ],
      "disc_number" : 1,
      "duration_ms" : 360840,
      "explicit" : false,
      "external_ids" : {
        "isrc" : "uscgh0821865"
      },
      "external_urls" : {
        "spotify" : "https://open.spotify.com/track/0gYrwVAyX8yCNnLiZxLktf"
      },
      "href" : "https://api.spotify.com/v1/tracks/0gYrwVAyX8yCNnLiZxLktf",
      "id" : "0gYrwVAyX8yCNnLiZxLktf",
      "is_local" : false,
      "is_playable" : true,
      "name" : "I Need Thee Every Hour",
      "popularity" : 33,
      "preview_url" : "https://p.scdn.co/mp3-preview/32622c4e6abcb824f105b63f0d2cf9f51f0a9b00?cid=774b29d4f13844c495f206cafdad9c86",
      "track_number" : 8,
      "type" : "track",
      "uri" : "spotify:track:0gYrwVAyX8yCNnLiZxLktf"
    }, {
      "album" : {
        "album_type" : "album",
        "artists" : [ {
          "external_urls" : {
            "spotify" : "https://open.spotify.com/artist/1lMaDSraU3oiNUsVWJLHdF"
          },
          "href" : "https://api.spotify.com/v1/artists/1lMaDSraU3oiNUsVWJLHdF",
          "id" : "1lMaDSraU3oiNUsVWJLHdF",
          "name" : "Jars Of Clay",
          "type" : "artist",
          "uri" : "spotify:artist:1lMaDSraU3oiNUsVWJLHdF"
        } ],
        "external_urls" : {
          "spotify" : "https://open.spotify.com/album/1BVXtTYIfshVRCeKp9uIwb"
        },
        "href" : "https://api.spotify.com/v1/albums/1BVXtTYIfshVRCeKp9uIwb",
        "id" : "1BVXtTYIfshVRCeKp9uIwb",
        "images" : [ {
          "height" : 640,
          "url" : "https://i.scdn.co/image/ab67616d0000b273becc3ba6e13302014ba304f8",
          "width" : 640
        }, {
          "height" : 300,
          "url" : "https://i.scdn.co/image/ab67616d00001e02becc3ba6e13302014ba304f8",
          "width" : 300
        }, {
          "height" : 64,
          "url" : "https://i.scdn.co/image/ab67616d00004851becc3ba6e13302014ba304f8",
          "width" : 64
        } ],
        "name" : "Redemption Songs",
        "release_date" : "2005-03-22",
        "release_date_precision" : "day",
        "total_tracks" : 13,
        "type" : "album",
        "uri" : "spotify:album:1BVXtTYIfshVRCeKp9uIwb"
      },
      "artists" : [ {
        "external_urls" : {
          "spotify" : "https://open.spotify.com/artist/1lMaDSraU3oiNUsVWJLHdF"
        },
        "href" : "https://api.spotify.com/v1/artists/1lMaDSraU3oiNUsVWJLHdF",
        "id" : "1lMaDSraU3oiNUsVWJLHdF",
        "name" : "Jars Of Clay",
        "type" : "artist",
        "uri" : "spotify:artist:1lMaDSraU3oiNUsVWJLHdF"
      } ],
      "disc_number" : 1,
      "duration_ms" : 227053,
      "explicit" : false,
      "external_ids" : {
        "isrc" : "USA5W0500019"
      },
      "external_urls" : {
        "spotify" : "https://open.spotify.com/track/6wnvzxmFM1EgqOMHptPB0P"
      },
      "href" : "https://api.spotify.com/v1/tracks/6wnvzxmFM1EgqOMHptPB0P",
      "id" : "6wnvzxmFM1EgqOMHptPB0P",
      "is_local" : false,
      "is_playable" : true,
      "name" : "I Need Thee Every Hour",
      "popularity" : 31,
      "preview_url" : "https://p.scdn.co/mp3-preview/2157e034a4411395c1fbc75f683205b649c24ac4?cid=774b29d4f13844c495f206cafdad9c86",
      "track_number" : 2,
      "type" : "track",
      "uri" : "spotify:track:6wnvzxmFM1EgqOMHptPB0P"
    }, {
      "album" : {
        "album_type" : "album",
        "artists" : [ {
          "external_urls" : {
            "spotify" : "https://open.spotify.com/artist/31Esw1yHgJZBPcRa4nUyTP"
          },
          "href" : "https://api.spotify.com/v1/artists/31Esw1yHgJZBPcRa4nUyTP",
          "id" : "31Esw1yHgJZBPcRa4nUyTP",
          "name" : "Joey + Rory",
          "type" : "artist",
          "uri" : "spotify:artist:31Esw1yHgJZBPcRa4nUyTP"
        } ],
        "external_urls" : {
          "spotify" : "https://open.spotify.com/album/1nbMMdt6wb16OSPF81yBuT"
        },
        "href" : "https://api.spotify.com/v1/albums/1nbMMdt6wb16OSPF81yBuT",
        "id" : "1nbMMdt6wb16OSPF81yBuT",
        "images" : [ {
          "height" : 640,
          "url" : "https://i.scdn.co/image/ab67616d0000b273ed8396a200fc1a19c12f051d",
          "width" : 640
        }, {
          "height" : 300,
          "url" : "https://i.scdn.co/image/ab67616d00001e02ed8396a200fc1a19c12f051d",
          "width" : 300
        }, {
          "height" : 64,
          "url" : "https://i.scdn.co/image/ab67616d00004851ed8396a200fc1a19c12f051d",
          "width" : 64
        } ],
        "name" : "Hymns",
        "release_date" : "2016-02-12",
        "release_date_precision" : "day",
        "total_tracks" : 13,
        "type" : "album",
        "uri" : "spotify:album:1nbMMdt6wb16OSPF81yBuT"
      },
      "artists" : [ {
        "external_urls" : {
          "spotify" : "https://open.spotify.com/artist/31Esw1yHgJZBPcRa4nUyTP"
        },
        "href" : "https://api.spotify.com/v1/artists/31Esw1yHgJZBPcRa4nUyTP",
        "id" : "31Esw1yHgJZBPcRa4nUyTP",
        "name" : "Joey + Rory",
        "type" : "artist",
        "uri" : "spotify:artist:31Esw1yHgJZBPcRa4nUyTP"
      } ],
      "disc_number" : 1,
      "duration_ms" : 206840,
      "explicit" : false,
      "external_ids" : {
        "isrc" : "QMFDU1600008"
      },
      "external_urls" : {
        "spotify" : "https://open.spotify.com/track/0QAfCubJQXJNJqgIg4Y2ZP"
      },
      "href" : "https://api.spotify.com/v1/tracks/0QAfCubJQXJNJqgIg4Y2ZP",
      "id" : "0QAfCubJQXJNJqgIg4Y2ZP",
      "is_local" : false,
      "is_playable" : true,
      "name" : "I Need Thee Every Hour",
      "popularity" : 30,
      "preview_url" : null,
      "track_number" : 8,
      "type" : "track",
      "uri" : "spotify:track:0QAfCubJQXJNJqgIg4Y2ZP"
    }, {
      "album" : {
        "album_type" : "album",
        "artists" : [ {
          "external_urls" : {
            "spotify" : "https://open.spotify.com/artist/7xkEury4Vby5uUKojsVMKm"
          },
          "href" : "https://api.spotify.com/v1/artists/7xkEury4Vby5uUKojsVMKm",
          "id" : "7xkEury4Vby5uUKojsVMKm",
          "name" : "Life Hymns Worship Trio",
          "type" : "artist",
          "uri" : "spotify:artist:7xkEury4Vby5uUKojsVMKm"
        } ],
        "external_urls" : {
          "spotify" : "https://open.spotify.com/album/5vn0Nmxh7xDJuvSvh8PPpt"
        },
        "href" : "https://api.spotify.com/v1/albums/5vn0Nmxh7xDJuvSvh8PPpt",
        "id" : "5vn0Nmxh7xDJuvSvh8PPpt",
        "images" : [ {
          "height" : 640,
          "url" : "https://i.scdn.co/image/ab67616d0000b273941df60da8bb0e94a06c9a92",
          "width" : 640
        }, {
          "height" : 300,
          "url" : "https://i.scdn.co/image/ab67616d00001e02941df60da8bb0e94a06c9a92",
          "width" : 300
        }, {
          "height" : 64,
          "url" : "https://i.scdn.co/image/ab67616d00004851941df60da8bb0e94a06c9a92",
          "width" : 64
        } ],
        "name" : "Relaxing Worship Hymns, Vol. 1",
        "release_date" : "2019-10-03",
        "release_date_precision" : "day",
        "total_tracks" : 12,
        "type" : "album",
        "uri" : "spotify:album:5vn0Nmxh7xDJuvSvh8PPpt"
      },
      "artists" : [ {
        "external_urls" : {
          "spotify" : "https://open.spotify.com/artist/7xkEury4Vby5uUKojsVMKm"
        },
        "href" : "https://api.spotify.com/v1/artists/7xkEury4Vby5uUKojsVMKm",
        "id" : "7xkEury4Vby5uUKojsVMKm",
        "name" : "Life Hymns Worship Trio",
        "type" : "artist",
        "uri" : "spotify:artist:7xkEury4Vby5uUKojsVMKm"
      } ],
      "disc_number" : 1,
      "duration_ms" : 216000,
      "explicit" : false,
      "external_ids" : {
        "isrc" : "QZGWW1974928"
      },
      "external_urls" : {
        "spotify" : "https://open.spotify.com/track/4xbvUaN2IfNBQ3tasTfABv"
      },
      "href" : "https://api.spotify.com/v1/tracks/4xbvUaN2IfNBQ3tasTfABv",
      "id" : "4xbvUaN2IfNBQ3tasTfABv",
      "is_local" : false,
      "is_playable" : true,
      "name" : "I Need Thee Every Hour",
      "popularity" : 31,
      "preview_url" : "https://p.scdn.co/mp3-preview/4767d3206736b83eb23a99ccdd4c61fcee65995e?cid=774b29d4f13844c495f206cafdad9c86",
      "track_number" : 6,
      "type" : "track",
      "uri" : "spotify:track:4xbvUaN2IfNBQ3tasTfABv"
    }, {
      "album" : {
        "album_type" : "album",
        "artists" : [ {
          "external_urls" : {
            "spotify" : "https://open.spotify.com/artist/5K53jvqDfjXkB9Zsd7krhL"
          },
          "href" : "https://api.spotify.com/v1/artists/5K53jvqDfjXkB9Zsd7krhL",
          "id" : "5K53jvqDfjXkB9Zsd7krhL",
          "name" : "Sheldon Pickering",
          "type" : "artist",
          "uri" : "spotify:artist:5K53jvqDfjXkB9Zsd7krhL"
        } ],
        "external_urls" : {
          "spotify" : "https://open.spotify.com/album/4WO7y1C9uVrz3aJe7xLfGV"
        },
        "href" : "https://api.spotify.com/v1/albums/4WO7y1C9uVrz3aJe7xLfGV",
        "id" : "4WO7y1C9uVrz3aJe7xLfGV",
        "images" : [ {
          "height" : 640,
          "url" : "https://i.scdn.co/image/ab67616d0000b273dd7f2559f68dc3127179de40",
          "width" : 640
        }, {
          "height" : 300,
          "url" : "https://i.scdn.co/image/ab67616d00001e02dd7f2559f68dc3127179de40",
          "width" : 300
        }, {
          "height" : 64,
          "url" : "https://i.scdn.co/image/ab67616d00004851dd7f2559f68dc3127179de40",
          "width" : 64
        } ],
        "name" : "Blessed Assurance",
        "release_date" : "2019-04-24",
        "release_date_precision" : "day",
        "total_tracks" : 8,
        "type" : "album",
        "uri" : "spotify:album:4WO7y1C9uVrz3aJe7xLfGV"
      },
      "artists" : [ {
        "external_urls" : {
          "spotify" : "https://open.spotify.com/artist/5K53jvqDfjXkB9Zsd7krhL"
        },
        "href" : "https://api.spotify.com/v1/artists/5K53jvqDfjXkB9Zsd7krhL",
        "id" : "5K53jvqDfjXkB9Zsd7krhL",
        "name" : "Sheldon Pickering",
        "type" : "artist",
        "uri" : "spotify:artist:5K53jvqDfjXkB9Zsd7krhL"
      } ],
      "disc_number" : 1,
      "duration_ms" : 234780,
      "explicit" : false,
      "external_ids" : {
        "isrc" : "uscgj1941785"
      },
      "external_urls" : {
        "spotify" : "https://open.spotify.com/track/7j3MIQ8Rq2K7SfJc6Xa6Ut"
      },
      "href" : "https://api.spotify.com/v1/tracks/7j3MIQ8Rq2K7SfJc6Xa6Ut",
      "id" : "7j3MIQ8Rq2K7SfJc6Xa6Ut",
      "is_local" : false,
      "is_playable" : true,
      "name" : "I Need Thee Every Hour",
      "popularity" : 26,
      "preview_url" : "https://p.scdn.co/mp3-preview/6a24562f57293fa79d0e418c019b81f1690e504c?cid=774b29d4f13844c495f206cafdad9c86",
      "track_number" : 5,
      "type" : "track",
      "uri" : "spotify:track:7j3MIQ8Rq2K7SfJc6Xa6Ut"
    }, {
      "album" : {
        "album_type" : "album",
        "artists" : [ {
          "external_urls" : {
            "spotify" : "https://open.spotify.com/artist/3Be0FxZRoCJ8UPrkwe6Xuw"
          },
          "href" : "https://api.spotify.com/v1/artists/3Be0FxZRoCJ8UPrkwe6Xuw",
          "id" : "3Be0FxZRoCJ8UPrkwe6Xuw",
          "name" : "Stan Whitmire",
          "type" : "artist",
          "uri" : "spotify:artist:3Be0FxZRoCJ8UPrkwe6Xuw"
        } ],
        "external_urls" : {
          "spotify" : "https://open.spotify.com/album/708WHnGeVcYKaHN2AV4HxX"
        },
        "href" : "https://api.spotify.com/v1/albums/708WHnGeVcYKaHN2AV4HxX",
        "id" : "708WHnGeVcYKaHN2AV4HxX",
        "images" : [ {
          "height" : 640,
          "url" : "https://i.scdn.co/image/ab67616d0000b2737ff7f0149a3d83cd68b91a98",
          "width" : 640
        }, {
          "height" : 300,
          "url" : "https://i.scdn.co/image/ab67616d00001e027ff7f0149a3d83cd68b91a98",
          "width" : 300
        }, {
          "height" : 64,
          "url" : "https://i.scdn.co/image/ab67616d000048517ff7f0149a3d83cd68b91a98",
          "width" : 64
        } ],
        "name" : "Piano Hymns",
        "release_date" : "1995-01-01",
        "release_date_precision" : "day",
        "total_tracks" : 11,
        "type" : "album",
        "uri" : "spotify:album:708WHnGeVcYKaHN2AV4HxX"
      },
      "artists" : [ {
        "external_urls" : {
          "spotify" : "https://open.spotify.com/artist/3Be0FxZRoCJ8UPrkwe6Xuw"
        },
        "href" : "https://api.spotify.com/v1/artists/3Be0FxZRoCJ8UPrkwe6Xuw",
        "id" : "3Be0FxZRoCJ8UPrkwe6Xuw",
        "name" : "Stan Whitmire",
        "type" : "artist",
        "uri" : "spotify:artist:3Be0FxZRoCJ8UPrkwe6Xuw"
      } ],
      "disc_number" : 1,
      "duration_ms" : 295560,
      "explicit" : false,
      "external_ids" : {
        "isrc" : "USB4U0800090"
      },
      "external_urls" : {
        "spotify" : "https://open.spotify.com/track/2YLMU0JcN31N0qae5Kaox9"
      },
      "href" : "https://api.spotify.com/v1/tracks/2YLMU0JcN31N0qae5Kaox9",
      "id" : "2YLMU0JcN31N0qae5Kaox9",
      "is_local" : false,
      "is_playable" : true,
      "name" : "I Need Thee Every Hour/I Surrender All/'Tis So Sweet To Trust In Jesus - Medley",
      "popularity" : 32,
      "preview_url" : null,
      "track_number" : 10,
      "type" : "track",
      "uri" : "spotify:track:2YLMU0JcN31N0qae5Kaox9"
    }, {
      "album" : {
        "album_type" : "album",
        "artists" : [ {
          "external_urls" : {
            "spotify" : "https://open.spotify.com/artist/2duo4NJtUrLaI38trK0hht"
          },
          "href" : "https://api.spotify.com/v1/artists/2duo4NJtUrLaI38trK0hht",
          "id" : "2duo4NJtUrLaI38trK0hht",
          "name" : "Mormon Tabernacle Choir",
          "type" : "artist",
          "uri" : "spotify:artist:2duo4NJtUrLaI38trK0hht"
        } ],
        "external_urls" : {
          "spotify" : "https://open.spotify.com/album/235O9JdWj2FxUFXdjl22lo"
        },
        "href" : "https://api.spotify.com/v1/albums/235O9JdWj2FxUFXdjl22lo",
        "id" : "235O9JdWj2FxUFXdjl22lo",
        "images" : [ {
          "height" : 640,
          "url" : "https://i.scdn.co/image/ab67616d0000b273923fcab6bee801b9f9f649a6",
          "width" : 640
        }, {
          "height" : 300,
          "url" : "https://i.scdn.co/image/ab67616d00001e02923fcab6bee801b9f9f649a6",
          "width" : 300
        }, {
          "height" : 64,
          "url" : "https://i.scdn.co/image/ab67616d00004851923fcab6bee801b9f9f649a6",
          "width" : 64
        } ],
        "name" : "Rock of Ages - 30 Favorite Hymns (with The Philadelphia Brass Ensemble & Percussion & Alexander Schreiner)",
        "release_date" : "1960",
        "release_date_precision" : "year",
        "total_tracks" : 30,
        "type" : "album",
        "uri" : "spotify:album:235O9JdWj2FxUFXdjl22lo"
      },
      "artists" : [ {
        "external_urls" : {
          "spotify" : "https://open.spotify.com/artist/71pAV5TkgpnAw7P8WzjIov"
        },
        "href" : "https://api.spotify.com/v1/artists/71pAV5TkgpnAw7P8WzjIov",
        "id" : "71pAV5TkgpnAw7P8WzjIov",
        "name" : "Robert Lowry",
        "type" : "artist",
        "uri" : "spotify:artist:71pAV5TkgpnAw7P8WzjIov"
      }, {
        "external_urls" : {
          "spotify" : "https://open.spotify.com/artist/2duo4NJtUrLaI38trK0hht"
        },
        "href" : "https://api.spotify.com/v1/artists/2duo4NJtUrLaI38trK0hht",
        "id" : "2duo4NJtUrLaI38trK0hht",
        "name" : "Mormon Tabernacle Choir",
        "type" : "artist",
        "uri" : "spotify:artist:2duo4NJtUrLaI38trK0hht"
      }, {
        "external_urls" : {
          "spotify" : "https://open.spotify.com/artist/7msm7itiMt8EnLLTBDTp3H"
        },
        "href" : "https://api.spotify.com/v1/artists/7msm7itiMt8EnLLTBDTp3H",
        "id" : "7msm7itiMt8EnLLTBDTp3H",
        "name" : "Richard P. Condie",
        "type" : "artist",
        "uri" : "spotify:artist:7msm7itiMt8EnLLTBDTp3H"
      }, {
        "external_urls" : {
          "spotify" : "https://open.spotify.com/artist/65dK30YxV8h1n7VSAhTiUi"
        },
        "href" : "https://api.spotify.com/v1/artists/65dK30YxV8h1n7VSAhTiUi",
        "id" : "65dK30YxV8h1n7VSAhTiUi",
        "name" : "Alexander Schreiner",
        "type" : "artist",
        "uri" : "spotify:artist:65dK30YxV8h1n7VSAhTiUi"
      }, {
        "external_urls" : {
          "spotify" : "https://open.spotify.com/artist/3lOftQQkjrA48AxTX7lJcv"
        },
        "href" : "https://api.spotify.com/v1/artists/3lOftQQkjrA48AxTX7lJcv",
        "id" : "3lOftQQkjrA48AxTX7lJcv",
        "name" : "The Philadelphia Brass Ensemble & Percussion",
        "type" : "artist",
        "uri" : "spotify:artist:3lOftQQkjrA48AxTX7lJcv"
      } ],
      "disc_number" : 1,
      "duration_ms" : 312093,
      "explicit" : false,
      "external_ids" : {
        "isrc" : "USSM16901055"
      },
      "external_urls" : {
        "spotify" : "https://open.spotify.com/track/4foe2gC0okmO3437wlSXBr"
      },
      "href" : "https://api.spotify.com/v1/tracks/4foe2gC0okmO3437wlSXBr",
      "id" : "4foe2gC0okmO3437wlSXBr",
      "is_local" : false,
      "is_playable" : true,
      "name" : "I Need Thee Every Hour - Voice",
      "popularity" : 28,
      "preview_url" : "https://p.scdn.co/mp3-preview/5fa2fb4a1214f73f60fc1eed8f42d80e8977f39c?cid=774b29d4f13844c495f206cafdad9c86",
      "track_number" : 18,
      "type" : "track",
      "uri" : "spotify:track:4foe2gC0okmO3437wlSXBr"
    }, {
      "album" : {
        "album_type" : "album",
        "artists" : [ {
          "external_urls" : {
            "spotify" : "https://open.spotify.com/artist/6zCKr405jB5b6QI1IfFnf2"
          },
          "href" : "https://api.spotify.com/v1/artists/6zCKr405jB5b6QI1IfFnf2",
          "id" : "6zCKr405jB5b6QI1IfFnf2",
          "name" : "Dallas Christian Adult Concert Choir",
          "type" : "artist",
          "uri" : "spotify:artist:6zCKr405jB5b6QI1IfFnf2"
        } ],
        "external_urls" : {
          "spotify" : "https://open.spotify.com/album/2t7QLk7fuwldcC7Dx3b3os"
        },
        "href" : "https://api.spotify.com/v1/albums/2t7QLk7fuwldcC7Dx3b3os",
        "id" : "2t7QLk7fuwldcC7Dx3b3os",
        "images" : [ {
          "height" : 640,
          "url" : "https://i.scdn.co/image/ab67616d0000b27340a50b2d526fa7b88aa4462b",
          "width" : 640
        }, {
          "height" : 300,
          "url" : "https://i.scdn.co/image/ab67616d00001e0240a50b2d526fa7b88aa4462b",
          "width" : 300
        }, {
          "height" : 64,
          "url" : "https://i.scdn.co/image/ab67616d0000485140a50b2d526fa7b88aa4462b",
          "width" : 64
        } ],
        "name" : "I Need Thee Every Hour",
        "release_date" : "2008-05-13",
        "release_date_precision" : "day",
        "total_tracks" : 22,
        "type" : "album",
        "uri" : "spotify:album:2t7QLk7fuwldcC7Dx3b3os"
      },
      "artists" : [ {
        "external_urls" : {
          "spotify" : "https://open.spotify.com/artist/6zCKr405jB5b6QI1IfFnf2"
        },
        "href" : "https://api.spotify.com/v1/artists/6zCKr405jB5b6QI1IfFnf2",
        "id" : "6zCKr405jB5b6QI1IfFnf2",
        "name" : "Dallas Christian Adult Concert Choir",
        "type" : "artist",
        "uri" : "spotify:artist:6zCKr405jB5b6QI1IfFnf2"
      } ],
      "disc_number" : 1,
      "duration_ms" : 220040,
      "explicit" : false,
      "external_ids" : {
        "isrc" : "USMZA0811479"
      },
      "external_urls" : {
        "spotify" : "https://open.spotify.com/track/1oAf7bHvHpTfyT9PJE1pBO"
      },
      "href" : "https://api.spotify.com/v1/tracks/1oAf7bHvHpTfyT9PJE1pBO",
      "id" : "1oAf7bHvHpTfyT9PJE1pBO",
      "is_local" : false,
      "is_playable" : true,
      "name" : "I Need Thee Every Hour",
      "popularity" : 27,
      "preview_url" : "https://p.scdn.co/mp3-preview/ae6969b3ce26efacf042e4c5777c9afefce5b1df?cid=774b29d4f13844c495f206cafdad9c86",
      "track_number" : 2,
      "type" : "track",
      "uri" : "spotify:track:1oAf7bHvHpTfyT9PJE1pBO"
    }, {
      "album" : {
        "album_type" : "album",
        "artists" : [ {
          "external_urls" : {
            "spotify" : "https://open.spotify.com/artist/44FVyueHCLAMyJPnvCqqwM"
          },
          "href" : "https://api.spotify.com/v1/artists/44FVyueHCLAMyJPnvCqqwM",
          "id" : "44FVyueHCLAMyJPnvCqqwM",
          "name" : "The Lower Lights",
          "type" : "artist",
          "uri" : "spotify:artist:44FVyueHCLAMyJPnvCqqwM"
        } ],
        "external_urls" : {
          "spotify" : "https://open.spotify.com/album/6n5YhTwVVLpDz0pobKEe5P"
        },
        "href" : "https://api.spotify.com/v1/albums/6n5YhTwVVLpDz0pobKEe5P",
        "id" : "6n5YhTwVVLpDz0pobKEe5P",
        "images" : [ {
          "height" : 640,
          "url" : "https://i.scdn.co/image/ab67616d0000b27370cbea559ef1baea05220bee",
          "width" : 640
        }, {
          "height" : 300,
          "url" : "https://i.scdn.co/image/ab67616d00001e0270cbea559ef1baea05220bee",
          "width" : 300
        }, {
          "height" : 64,
          "url" : "https://i.scdn.co/image/ab67616d0000485170cbea559ef1baea05220bee",
          "width" : 64
        } ],
        "name" : "A Hymn Revival: Vol. 2",
        "release_date" : "2012-07-03",
        "release_date_precision" : "day",
        "total_tracks" : 16,
        "type" : "album",
        "uri" : "spotify:album:6n5YhTwVVLpDz0pobKEe5P"
      },
      "artists" : [ {
        "external_urls" : {
          "spotify" : "https://open.spotify.com/artist/44FVyueHCLAMyJPnvCqqwM"
        },
        "href" : "https://api.spotify.com/v1/artists/44FVyueHCLAMyJPnvCqqwM",
        "id" : "44FVyueHCLAMyJPnvCqqwM",
        "name" : "The Lower Lights",
        "type" : "artist",
        "uri" : "spotify:artist:44FVyueHCLAMyJPnvCqqwM"
      } ],
      "disc_number" : 1,
      "duration_ms" : 221426,
      "explicit" : false,
      "external_ids" : {
        "isrc" : "USULT1200060"
      },
      "external_urls" : {
        "spotify" : "https://open.spotify.com/track/20UP4ua2GjHZA0Kqglv3x1"
      },
      "href" : "https://api.spotify.com/v1/tracks/20UP4ua2GjHZA0Kqglv3x1",
      "id" : "20UP4ua2GjHZA0Kqglv3x1",
      "is_local" : false,
      "is_playable" : true,
      "name" : "I Need Thee Every Hour",
      "popularity" : 23,
      "preview_url" : "https://p.scdn.co/mp3-preview/03275e82d3076f5bd70cca9f1a113995864c2e72?cid=774b29d4f13844c495f206cafdad9c86",
      "track_number" : 10,
      "type" : "track",
      "uri" : "spotify:track:20UP4ua2GjHZA0Kqglv3x1"
    } ],
    "limit" : 10,
    "next" : "https://api.spotify.com/v1/search?query=I+Need+Thee+Every+Hour&type=track&market=US&offset=15&limit=10",
    "offset" : 5,
    "previous" : "https://api.spotify.com/v1/search?query=I+Need+Thee+Every+Hour&type=track&market=US&offset=0&limit=10",
    "total" : 1016
  }
}