{
  "tracks" : {
    "href" : "https://api.spotify.com/v1/search?query=O%2C+How+I+Love+Jesus&type=track&market=US&offset=5&limit=10",
    "items" : [ {
      "album" : {
        "album_type" : "album",
        "artists" : [ {
          "external_urls" : {
            "spotify" : "https://open.spotify.com/artist/2JGLjTHV2t8u8wxmLaiFfe"
          },
          "href" : "https://api.spotify.com/v1/artists/2JGLjTHV2t8u8wxmLaiFfe",
          "id" : "2JGLjTHV2t8u8wxmLaiFfe",
          "name" : "Don Moen",
          "type" : "artist",
          "uri" : "spotify:artist:2JGLjTHV2t8u8wxmLaiFfe"
        } ],
        "external_urls" : {
          "spotify" : "https://open.spotify.com/album/6kdLHl9dVDcqzMF5Z5SIVK"
        },
        "href" : "https://api.spotify.com/v1/albums/6kdLHl9dVDcqzMF5Z5SIVK",
        "id" : "6kdLHl9dVDcqzMF5Z5SIVK",
        "images" : [ {
          "height" : 640,
          "url" : "https://i.scdn.co/image/ab67616d0000b2734b1cb5b6fdb7362a13c61820",
          "width" : 640
        }, {
          "height" : 300,
          "url" : "https://i.scdn.co/image/ab67616d00001e024b1cb5b6fdb7362a13c61820",
          "width" : 300
        }, {
          "height" : 64,
          "url" : "https://i.scdn.co/image/ab67616d000048514b1cb5b6fdb7362a13c61820",
          "width" : 64
        } ],
        "name" : "Hymns of Hope",
        "release_date" : "2014-05-01",
        "release_date_precision" : "day",
        "total_tracks" : 12,
        "type" : "album",
        "uri" : "spotify:album:6kdLHl9dVDcqzMF5Z5SIVK"
      },
      "artists" : [ {
        "external_urls" : {
          "spotify" : "https://open.spotify.com/artist/2JGLjTHV2t8u8wxmLaiFfe"
        },
        "href" : "https://api.spotify.com/v1/artists/2JGLjTHV2t8u8wxmLaiFfe",
        "id" : "2JGLjTHV2t8u8wxmLaiFfe",
        "name" : "Don Moen",
        "type" : "artist",
        "uri" : "spotify:artist:2JGLjTHV2t8u8wxmLaiFfe"
      } ],
      "disc_number" : 1,
      "duration_ms" : 243186,
      "explicit" : false,
      "external_ids" : {
        "isrc" : "QMU9S1300008"
      },
      "external_urls" : {
        "spotify" : "https://open.spotify.com/track/48RevvXOLaQE9ZVjfnmoDF"
      },
      "href" : "https://api.spotify.com/v1/tracks/48RevvXOLaQE9ZVjfnmoDF",
      "id" : "48RevvXOLaQE9ZVjfnmoDF",
      "is_local" : false,
      "is_playable" : true,
      "name" : "O How I Love Jesus",
      "popularity" : 26,
      "preview_url" : "https://p.scdn.co/mp3-preview/440310ca900954fcc64c744925046aba45d4513a?cid=774b29d4f13844c495f206cafdad9c86",
      "track_number" : 8,
      "type" : "track",
      "uri" : "spotify:track:48RevvXOLaQE9ZVjfnmoDF"
    }, {
      "album" : {
        "album_type" : "album",
        "artists" : [ {
          "external_urls" : {
            "spotify" : "https://open.spotify.com/artist/5nZVMdjv8jN8u5ECSRJZUZ"
          },
          "href" : "https://api.spotify.com/v1/artists/5nZVMdjv8jN8u5ECSRJZUZ",
          "id" : "5nZVMdjv8jN8u5ECSRJZUZ",
          "name" : "Jamie Reid",
          "type" : "artist",
          "uri" : "spotify:artist:5nZVMdjv8jN8u5ECSRJZUZ"
        } ],
        "external_urls" : {
          "spotify" : "https://open.spotify.com/album/38N1m7E2QBaOcABpBahodQ"
        },
        "href" : "https://api.spotify.com/v1/albums/38N1m7E2QBaOcABpBahodQ",
        "id" : "38N1m7E2QBaOcABpBahodQ",
        "images" : [ {
          "height" : 640,
          "url" : "https://i.scdn.co/image/ab67616d0000b2739382e3ac278056040da4bf63",
          "width" : 640
        }, {
          "height" : 300,
          "url" : "https://i.scdn.co/image/ab67616d00001e029382e3ac278056040da4bf63",
          "width" : 300
        }, {
          "height" : 64,
          "url" : "https://i.scdn.co/image/ab67616d000048519382e3ac278056040da4bf63",
          "width" : 64
        } ],
        "name" : "Instrumental: A Collection Of Hymns",
        "release_date" : "2005-04-29",
        "release_date_precision" : "day",
        "total_tracks" : 13,
        "type" : "album",
        "uri" : "spotify:album:38N1m7E2QBaOcABpBahodQ"
      },
      "artists" : [ {
        "external_urls" : {
          "spotify" : "https://open.spotify.com/artist/5nZVMdjv8jN8u5ECSRJZUZ"
        },
        "href" : "https://api.spotify.com/v1/artists/5nZVMdjv8jN8u5ECSRJZUZ",
        "id" : "5nZVMdjv8jN8u5ECSRJZUZ",
        "name" : "Jamie Reid",
        "type" : "artist",
        "uri" : "spotify:artist:5nZVMdjv8jN8u5ECSRJZUZ"
      } ],
      "disc_number" : 1,
      "duration_ms" : 219426,
      "explicit" : false,
      "external_ids" : {
        "isrc" : "ushm90513369"
      },
      "external_urls" : {
        "spotify" : "https://open.spotify.com/track/3zjnuydYAXXvMtMeyyAl3s"
      },
      "href" : "https://api.spotify.com/v1/tracks/3zjnuydYAXXvMtMeyyAl3s",
      "id" : "3zjnuydYAXXvMtMeyyAl3s",
      "is_local" : false,
      "is_playable" : true,
      "name" : "O How I Love Jesus",
      "popularity" : 18,
      "preview_url" : "https://p.scdn.co/mp3-preview/e662475f1d1f6afc6ac17db1a3029382ec0486cd?cid=774b29d4f13844c495f206cafdad9c86",
      "track_number" : 6,
      "type" : "track",
      "uri" : "spotify:track:3zjnuydYAXXvMtMeyyAl3s"
    }, {
      "album" : {
        "album_type" : "album",
        "artists" : [ {
          "external_urls" : {
            "spotify" : "https://open.spotify.com/artist/2T5h0R0dA78fhG9mFsFwtQ"
          },
          "href" : "https://api.spotify.com/v1/artists/2T5h0R0dA78fhG9mFsFwtQ",
          "id" : "2T5h0R0dA78fhG9mFsFwtQ",
          "name" : "The Recording Collective",
          "type" : "artist",
          "uri" : "spotify:artist:2T5h0R0dA78fhG9mFsFwtQ"
        } ],
        "external_urls" : {
          "spotify" : "https://open.spotify.com/album/11JFcreYbaiYSj36KjNRd6"
        },
        "href" : "https://api.spotify.com/v1/albums/11JFcreYbaiYSj36KjNRd6",
        "id" : "11JFcreYbaiYSj36KjNRd6",
        "images" : [ {
          "height" : 640,
          "url" : "https://i.scdn.co/image/ab67616d0000b2734962863d4cc00258b2ee695d",
          "width" : 640
        }, {
          "height" : 300,
          "url" : "https://i.scdn.co/image/ab67616d00001e024962863d4cc00258b2ee695d",
          "width" : 300
        }, {
          "height" : 64,
          "url" : "https://i.scdn.co/image/ab67616d000048514962863d4cc00258b2ee695d",
          "width" : 64
        } ],
        "name" : "Gospel Vol. 2: Every Praise",
        "release_date" : "2017-02-28",
        "release_date_precision" : "day",
        "total_tracks" : 10,
        "type" : "album",
        "uri" : "spotify:album:11JFcreYbaiYSj36KjNRd6"
      },
      "artists" : [ {
        "external_urls" : {
          "spotify" : "https://open.spotify.com/artist/2T5h0R0dA78fhG9mFsFwtQ"
        },
        "href" : "https://api.spotify.com/v1/artists/2T5h0R0dA78fhG9mFsFwtQ",
        "id" : "2T5h0R0dA78fhG9mFsFwtQ",
        "name" : "The Recording Collective",
        "type" : "artist",
        "uri" : "spotify:artist:2T5h0R0dA78fhG9mFsFwtQ"
      }, {
        "external_urls" : {
          "spotify" : "https://open.spotify.com/artist/56Yt4ZJKPJohGDQmn32w4Y"
        },
        "href" : "https://api.spotify.com/v1/artists/56Yt4ZJKPJohGDQmn32w4Y",
        "id" : "56Yt4ZJKPJohGDQmn32w4Y",
        "name" : "Cristabel Clack",
        "type" : "artist",
        "uri" : "spotify:artist:56Yt4ZJKPJohGDQmn32w4Y"
      } ],
      "disc_number" : 1,
      "duration_ms" : 439410,
      "explicit" : false,
      "external_ids" : {
        "isrc" : "QZ66T1600010"
      },
      "external_urls" : {
        "spotify" : "https://open.spotify.com/track/3ZEWZSiB73gIpsliDjGXc5"
      },
      "href" : "https://api.spotify.com/v1/tracks/3ZEWZSiB73gIpsliDjGXc5",
      "id" : "3ZEWZSiB73gIpsliDjGXc5",
      "is_local" : false,
      "is_playable" : true,
      "name" : "Jesus We Love You / O How I Love Jesus (feat. Cristabel Clack)",
      "popularity" : 18,
      "preview_url" : "https://p.scdn.co/mp3-preview/51d583ce287dc850ecc70106f970b7eeb92c16f8?cid=774b29d4f13844c495f206cafdad9c86",
      "track_number" : 5,
      "type" : "track",
      "uri" : "spotify:track:3ZEWZSiB73gIpsliDjGXc5"
    }, {
      "album" : {
        "album_type" : "album",
        "artists" : [ {
          "external_urls" : {
            "spotify" : "https://open.spotify.com/artist/5KM6vTt9aFfkWPwS140Jhn"
          },
          "href" : "https://api.spotify.com/v1/artists/5KM6vTt9aFfkWPwS140Jhn",
          "id" : "5KM6vTt9aFfkWPwS140Jhn",
          "name" : "Danny Antill",
          "type" : "artist",
          "uri" : "spotify:artist:5KM6vTt9aFfkWPwS140Jhn"
        } ],
        "external_urls" : {
          "spotify" : "https://open.spotify.com/album/1bTs8kXD0IUGufrjYYNUve"
        },
        "href" : "https://api.spotify.com/v1/albums/1bTs8kXD0IUGufrjYYNUve",
        "id" : "1bTs8kXD0IUGufrjYYNUve",
        "images" : [ {
          "height" : 640,
          "url" : "https://i.scdn.co/image/ab67616d0000b273ddb70e5e74ffb16bb7f7a692",
          "width" : 640
        }, {
          "height" : 300,
          "url" : "https://i.scdn.co/image/ab67616d00001e02ddb70e5e74ffb16bb7f7a692",
          "width" : 300
        }, {
          "height" : 64,
          "url" : "https://i.scdn.co/image/ab67616d00004851ddb70e5e74ffb16bb7f7a692",
          "width" : 64
        } ],
        "name" : "Piano Instrumental: 50 Favourite Praise & Worship Songs",
        "release_date" : "2005-08-19",
        "release_date_precision" : "day",
        "total_tracks" : 7,
        "type" : "album",
        "uri" : "spotify:album:1bTs8kXD0IUGufrjYYNUve"
      },
      "artists" : [ {
        "external_urls" : {
          "spotify" : "https://open.spotify.com/artist/5KM6vTt9aFfkWPwS140Jhn"
        },
        "href" : "https://api.spotify.com/v1/artists/5KM6vTt9aFfkWPwS140Jhn",
        "id" : "5KM6vTt9aFfkWPwS140Jhn",
        "name" : "Danny Antill",
        "type" : "artist",
        "uri" : "spotify:artist:5KM6vTt9aFfkWPwS140Jhn"
      } ],
      "disc_number" : 1,
      "duration_ms" : 431813,
      "explicit" : false,
      "external_ids" : {
        "isrc" : "USA560846314"
      },
      "external_urls" : {
        "spotify" : "https://open.spotify.com/track/3JObRYhmJgdtD0YGwPDxg0"
      },
      "href" : "https://api.spotify.com/v1/tracks/3JObRYhmJgdtD0YGwPDxg0",
      "id" : "3JObRYhmJgdtD0YGwPDxg0",
      "is_local" : false,
      "is_playable" : true,
      "name" : "Medley 2: 1) Amazing Grace 2) O how I love Jesus 3) I lift my hands 4) All hail King Jesus 5) He touched me 6) Jesus, name above all names 7) Lord of Lords 8) To God be the glory",
      "popularity" : 18,
      "preview_url" : "https://p.scdn.co/mp3-preview/9bf2354312468526e0532bad1c214c1ade2f3763?cid=774b29d4f13844c495f206cafdad9c86",
      "track_number" : 2,
      "type" : "track",
      "uri" : "spotify:track:3JObRYhmJgdtD0YGwPDxg0"
    }, {
      "album" : {
        "album_type" : "compilation",
        "artists" : [ {
          "external_urls" : {
            "spotify" : "https://open.spotify.com/artist/1PCJfBD2SVVE8cGqpg1pC9"
          },
          "href" : "https://api.spotify.com/v1/artists/1PCJfBD2SVVE8cGqpg1pC9",
          "id" : "1PCJfBD2SVVE8cGqpg1pC9",
          "name" : "Hal Wright",
          "type" : "artist",
          "uri" : "spotify:artist:1PCJfBD2SVVE8cGqpg1pC9"
        } ],
        "external_urls" : {
          "spotify" : "https://open.spotify.com/album/5oWBMNvHBpJEJbIuuWYIEO"
        },
        "href" : "https://api.spotify.com/v1/albums/5oWBMNvHBpJEJbIuuWYIEO",
        "id" : "5oWBMNvHBpJEJbIuuWYIEO",
        "images" : [ {
          "height" : 640,
          "url" : "https://i.scdn.co/image/ab67616d0000b273b27b0222733203b3fa0d9301",
          "width" : 640
        }, {
          "height" : 300,
          "url" : "https://i.scdn.co/image/ab67616d00001e02b27b0222733203b3fa0d9301",
          "width" : 300
        }, {
          "height" : 64,
          "url" : "https://i.scdn.co/image/ab67616d00004851b27b0222733203b3fa0d9301",
          "width" : 64
        } ],
        "name" : "Instrumental Hymns 1",
        "release_date" : "2020-05-22",
        "release_date_precision" : "day",
        "total_tracks" : 25,
        "type" : "album",
        "uri" : "spotify:album:5oWBMNvHBpJEJbIuuWYIEO"
      },
      "artists" : [ {
        "external_urls" : {
          "spotify" : "https://open.spotify.com/artist/1PCJfBD2SVVE8cGqpg1pC9"
        },
        "href" : "https://api.spotify.com/v1/artists/1PCJfBD2SVVE8cGqpg1pC9",
        "id" : "1PCJfBD2SVVE8cGqpg1pC9",
        "name" : "Hal Wright",
        "type" : "artist",
        "uri" : "spotify:artist:1PCJfBD2SVVE8cGqpg1pC9"
      }, {
        "external_urls" : {
          "spotify" : "https://open.spotify.com/artist/5Aerx1PdoW4F5Yvrus4bDE"
        },
        "href" : "https://api.spotify.com/v1/artists/5Aerx1PdoW4F5Yvrus4bDE",
        "id" : "5Aerx1PdoW4F5Yvrus4bDE",
        "name" : "Twin Sisters",
        "type" : "artist",
        "uri" : "spotify:artist:5Aerx1PdoW4F5Yvrus4bDE"
      } ],
      "disc_number" : 1,
      "duration_ms" : 126200,
      "explicit" : false,
      "external_ids" : {
        "isrc" : "US6PD1903941"
      },
      "external_urls" : {
        "spotify" : "https://open.spotify.com/track/0RIoV6hkSQo0aMRgnvDJCn"
      },
      "href" : "https://api.spotify.com/v1/tracks/0RIoV6hkSQo0aMRgnvDJCn",
      "id" : "0RIoV6hkSQo0aMRgnvDJCn",
      "is_local" : false,
      "is_playable" : true,
      "name" : "O How I Love Jesus",
      "popularity" : 0,
      "preview_url" : "https://p.scdn.co/mp3-preview/cda1934e041d4beb64bf9e1b5cbed88caad72e9a?cid=774b29d4f13844c495f206cafdad9c86",
      "track_number" : 5,
      "type" : "track",
      "uri" : "spotify:track:0RIoV6hkSQo0aMRgnvDJCn"
    }, {
      "album" : {
        "album_type" : "single",
        "artists" : [ {
          "external_urls" : {
            "spotify" : "https://open.spotify.com/artist/2Sqr0DXoaYABbjBo9HaMkM"
          },
          "href" : "https://api.spotify.com/v1/artists/2Sqr0DXoaYABbjBo9HaMkM",
          "id" : "2Sqr0DXoaYABbjBo9HaMkM",
          "name" : "Sara Bareilles",
          "type" : "artist",
          "uri" : "spotify:artist:2Sqr0DXoaYABbjBo9HaMkM"
        }, {
          "external_urls" : {
            "spotify" : "https://open.spotify.com/artist/3kFj6o9mi2BlJrlS29b1bh"
          },
          "href" : "https://api.spotify.com/v1/artists/3kFj6o9mi2BlJrlS29b1bh",
          "id" : "3kFj6o9mi2BlJrlS29b1bh",
          "name" : "Original Television Cast of Jesus Christ Superstar Live in Concert",
          "type" : "artist",
          "uri" : "spotify:artist:3kFj6o9mi2BlJrlS29b1bh"
        } ],
        "external_urls" : {
          "spotify" : "https://open.spotify.com/album/1NpzxLytKbPhY55jRpBL1P"
        },
        "href" : "https://api.spotify.com/v1/albums/1NpzxLytKbPhY55jRpBL1P",
        "id" : "1NpzxLytKbPhY55jRpBL1P",
        "images" : [ {
          "height" : 640,
          "url" : "https://i.scdn.co/image/ab67616d0000b273a1aa4abce6d3e617b0a49487",
          "width" : 640
        }, {
          "height" : 300,
          "url" : "https://i.scdn.co/image/ab67616d00001e02a1aa4abce6d3e617b0a49487",
          "width" : 300
        }, {
          "height" : 64,
          "url" : "https://i.scdn.co/image/ab67616d00004851a1aa4abce6d3e617b0a49487",
          "width" : 64
        } ],
        "name" : "I Don't Know How to Love Him",
        "release_date" : "2018-03-30",
        "release_date_precision" : "day",
        "total_tracks" : 1,
        "type" : "album",
        "uri" : "spotify:album:1NpzxLytKbPhY55jRpBL1P"
      },
      "artists" : [ {
        "external_urls" : {
          "spotify" : "https://open.spotify.com/artist/2Sqr0DXoaYABbjBo9HaMkM"
        },
        "href" : "https://api.spotify.com/v1/artists/2Sqr0DXoaYABbjBo9HaMkM",
        "id" : "2Sqr0DXoaYABbjBo9HaMkM",
        "name" : "Sara Bareilles",
        "type" : "artist",
        "uri" : "spotify:artist:2Sqr0DXoaYABbjBo9HaMkM"
      }, {
        "external_urls" : {
          "spotify" : "https://open.spotify.com/artist/3kFj6o9mi2BlJrlS29b1bh"
        },
        "href" : "https://api.spotify.com/v1/artists/3kFj6o9mi2BlJrlS29b1bh",
        "id" : "3kFj6o9mi2BlJrlS29b1bh",
        "name" : "Original Television Cast of Jesus Christ Superstar Live in Concert",
        "type" : "artist",
        "uri" : "spotify:artist:3kFj6o9mi2BlJrlS29b1bh"
      } ],
      "disc_number" : 1,
      "duration_ms" : 220920,
      "explicit" : false,
      "external_ids" : {
        "isrc" : "USQX91800624"
      },
      "external_urls" : {
        "spotify" : "https://open.spotify.com/track/5vOr8PCLpiKnADDFTRDKbi"
      },
      "href" : "https://api.spotify.com/v1/tracks/5vOr8PCLpiKnADDFTRDKbi",
      "id" : "5vOr8PCLpiKnADDFTRDKbi",
      "is_local" : false,
      "is_playable" : true,
      "name" : "I Don't Know How to Love Him",
      "popularity" : 48,
      "preview_url" : "https://p.scdn.co/mp3-preview/f52a33ef29945c9e5257fddc93d5049f47a3fd5e?cid=774b29d4f13844c495f206cafdad9c86",
      "track_number" : 1,
      "type" : "track",
      "uri" : "spotify:track:5vOr8PCLpiKnADDFTRDKbi"
    }, {
      "album" : {
        "album_type" : "compilation",
        "artists" : [ {
          "external_urls" : {
            "spotify" : "https://open.spotify.com/artist/0LyfQWJT6nXafLPZqxe9Of"
          },
          "href" : "https://api.spotify.com/v1/artists/0LyfQWJT6nXafLPZqxe9Of",
          "id" : "0LyfQWJT6nXafLPZqxe9Of",
          "name" : "Various Artists",
          "type" : "artist",
          "uri" : "spotify:artist:0LyfQWJT6nXafLPZqxe9Of"
        } ],
        "external_urls" : {
          "spotify" : "https://open.spotify.com/album/72B4nP6lGLaenlP8Bdrrrj"
        },
        "href" : "https://api.spotify.com/v1/albums/72B4nP6lGLaenlP8Bdrrrj",
        "id" : "72B4nP6lGLaenlP8Bdrrrj",
        "images" : [ {
          "height" : 640,
          "url" : "https://i.scdn.co/image/ab67616d0000b273691370196aac16e31f5416d6",
          "width" : 640
        }, {
          "height" : 300,
          "url" : "https://i.scdn.co/image/ab67616d00001e02691370196aac16e31f5416d6",
          "width" : 300
        }, {
          "height" : 64,
          "url" : "https://i.scdn.co/image/ab67616d00004851691370196aac16e31f5416d6",
          "width" : 64
        } ],
        "name" : "Jesus Christ Superstar (Original Motion Picture Soundtrack)",
        "release_date" : "1973-01-01",
        "release_date_precision" : "day",
        "total_tracks" : 26,
        "type" : "album",
        "uri" : "spotify:album:72B4nP6lGLaenlP8Bdrrrj"
      },
      "artists" : [ {
        "external_urls" : {
          "spotify" : "https://open.spotify.com/artist/2d6JU9LvNhZR7AAtu4x2rS"
        },
        "href" : "https://api.spotify.com/v1/artists/2d6JU9LvNhZR7AAtu4x2rS",
        "id" : "2d6JU9LvNhZR7AAtu4x2rS",
        "name" : "Yvonne Elliman",
        "type" : "artist",
        "uri" : "spotify:artist:2d6JU9LvNhZR7AAtu4x2rS"
      } ],
      "disc_number" : 1,
      "duration_ms" : 237893,
      "explicit" : false,
      "external_ids" : {
        "isrc" : "USMC17345791"
      },
      "external_urls" : {
        "spotify" : "https://open.spotify.com/track/2Ugconvpew97ofQ71dfi8K"
      },
      "href" : "https://api.spotify.com/v1/tracks/2Ugconvpew97ofQ71dfi8K",
      "id" : "2Ugconvpew97ofQ71dfi8K",
      "is_local" : false,
      "is_playable" : true,
      "name" : "I Don't Know How To Love Him - From \"Jesus Christ Superstar\" Soundtrack",
      "popularity" : 44,
      "preview_url" : null,
      "track_number" : 13,
      "type" : "track",
      "uri" : "spotify:track:2Ugconvpew97ofQ71dfi8K"
    }, {
      "album" : {
        "album_type" : "album",
        "artists" : [ {
          "external_urls" : {
            "spotify" : "https://open.spotify.com/artist/2r7fA3DrMO5JXl3uoOLkaN"
          },
          "href" : "https://api.spotify.com/v1/artists/2r7fA3DrMO5JXl3uoOLkaN",
          "id" : "2r7fA3DrMO5JXl3uoOLkaN",
          "name" : "Rev. James Moore",
          "type" : "artist",
          "uri" : "spotify:artist:2r7fA3DrMO5JXl3uoOLkaN"
        } ],
        "external_urls" : {
          "spotify" : "https://open.spotify.com/album/3oqki7YT1d60H53TC8R85V"
        },
        "href" : "https://api.spotify.com/v1/albums/3oqki7YT1d60H53TC8R85V",
        "id" : "3oqki7YT1d60H53TC8R85V",
        "images" : [ {
          "height" : 640,
          "url" : "https://i.scdn.co/image/ab67616d0000b2737cf2ff9bf14a3077ce1a3316",
          "width" : 640
        }, {
          "height" : 300,
          "url" : "https://i.scdn.co/image/ab67616d00001e027cf2ff9bf14a3077ce1a3316",
          "width" : 300
        }, {
          "height" : 64,
          "url" : "https://i.scdn.co/image/ab67616d000048517cf2ff9bf14a3077ce1a3316",
          "width" : 64
        } ],
        "name" : "It Ain't Over (Til God Says It's Over)",
        "release_date" : "1997-08-19",
        "release_date_precision" : "day",
        "total_tracks" : 13,
        "type" : "album",
        "uri" : "spotify:album:3oqki7YT1d60H53TC8R85V"
      },
      "artists" : [ {
        "external_urls" : {
          "spotify" : "https://open.spotify.com/artist/2r7fA3DrMO5JXl3uoOLkaN"
        },
        "href" : "https://api.spotify.com/v1/artists/2r7fA3DrMO5JXl3uoOLkaN",
        "id" : "2r7fA3DrMO5JXl3uoOLkaN",
        "name" : "Rev. James Moore",
        "type" : "artist",
        "uri" : "spotify:artist:2r7fA3DrMO5JXl3uoOLkaN"
      } ],
      "disc_number" : 1,
      "duration_ms" : 319200,
      "explicit" : false,
      "external_ids" : {
        "isrc" : "USMR50440412"
      },
      "external_urls" : {
        "spotify" : "https://open.spotify.com/track/74xvmpKKQnm26cVrauYFiU"
      },
      "href" : "https://api.spotify.com/v1/tracks/74xvmpKKQnm26cVrauYFiU",
      "id" : "74xvmpKKQnm26cVrauYFiU",
      "is_local" : false,
      "is_playable" : true,
      "name" : "Oh How I Love Jesus",
      "popularity" : 30,
      "preview_url" : "https://p.scdn.co/mp3-preview/8b80e48e868dc6fcb326d00619392fd7cf8703e8?cid=774b29d4f13844c495f206cafdad9c86",
      "track_number" : 11,
      "type" : "track",
      "uri" : "spotify:track:74xvmpKKQnm26cVrauYFiU"
    }, {
      "album" : {
        "album_type" : "album",
        "artists" : [ {
          "external_urls" : {
            "spotify" : "https://open.spotify.com/artist/4mxWe1mtYIYfP040G38yvS"
          },
          "href" : "https://api.spotify.com/v1/artists/4mxWe1mtYIYfP040G38yvS",
          "id" : "4mxWe1mtYIYfP040G38yvS",
          "name" : "Alan Jackson",
          "type" : "artist",
          "uri" : "spotify:artist:4mxWe1mtYIYfP040G38yvS"
        } ],
        "external_urls" : {
          "spotify" : "https://open.spotify.com/album/3otkui6GGLYq0O1jD3obAo"
        },
        "href" : "https://api.spotify.com/v1/albums/3otkui6GGLYq0O1jD3obAo",
        "id" : "3otkui6GGLYq0O1jD3obAo",
        "images" : [ {
          "height" : 640,
          "url" : "https://i.scdn.co/image/ab67616d0000b273b0a36143ee09188135ee6973",
          "width" : 640
        }, {
          "height" : 300,
          "url" : "https://i.scdn.co/image/ab67616d00001e02b0a36143ee09188135ee6973",
          "width" : 300
        }, {
          "height" : 64,
          "url" : "https://i.scdn.co/image/ab67616d00004851b0a36143ee09188135ee6973",
          "width" : 64
        } ],
        "name" : "Precious Memories Collection",
        "release_date" : "2016-10-28",
        "release_date_precision" : "day",
        "total_tracks" : 28,
        "type" : "album",
        "uri" : "spotify:album:3otkui6GGLYq0O1jD3obAo"
      },
      "artists" : [ {
        "external_urls" : {
          "spotify" : "https://open.spotify.com/artist/4mxWe1mtYIYfP040G38yvS"
        },
        "href" : "https://api.spotify.com/v1/artists/4mxWe1mtYIYfP040G38yvS",
        "id" : "4mxWe1mtYIYfP040G38yvS",
        "name" : "Alan Jackson",
        "type" : "artist",
        "uri" : "spotify:artist:4mxWe1mtYIYfP040G38yvS"
      } ],
      "disc_number" : 1,
      "duration_ms" : 144426,
      "explicit" : false,
      "external_ids" : {
        "isrc" : "USCN11300077"
      },
      "external_urls" : {
        "spotify" : "https://open.spotify.com/track/3mUUL7ZXYA0s4QlvaMa2kk"
      },
      "href" : "https://api.spotify.com/v1/tracks/3mUUL7ZXYA0s4QlvaMa2kk",
      "id" : "3mUUL7ZXYA0s4QlvaMa2kk",
      "is_local" : false,
      "is_playable" : true,
      "name" : "O How I Love Jesus",
      "popularity" : 33,
      "preview_url" : null,
      "track_number" : 5,
      "type" : "track",
      "uri" : "spotify:track:3mUUL7ZXYA0s4QlvaMa2kk"
    }, {
      "album" : {
        "album_type" : "album",
        "artists" : [ {
          "external_urls" : {
            "spotify" : "https://open.spotify.com/artist/3kFj6o9mi2BlJrlS29b1bh"
          },
          "href" : "https://api.spotify.com/v1/artists/3kFj6o9mi2BlJrlS29b1bh",
          "id" : "3kFj6o9mi2BlJrlS29b1bh",
          "name" : "Original Television Cast of Jesus Christ Superstar Live in Concert",
          "type" : "artist",
          "uri" : "spotify:artist:3kFj6o9mi2BlJrlS29b1bh"
        } ],
        "external_urls" : {
          "spotify" : "https://open.spotify.com/album/2HoRYcYFMLgmCyjZaLmkqH"
        },
        "href" : "https://api.spotify.com/v1/albums/2HoRYcYFMLgmCyjZaLmkqH",
        "id" : "2HoRYcYFMLgmCyjZaLmkqH",
        "images" : [ {
          "height" : 640,
          "url" : "https://i.scdn.co/image/ab67616d0000b273eed00a312a666210ea4e4e36",
          "width" : 640
        }, {
          "height" : 300,
          "url" : "https://i.scdn.co/image/ab67616d00001e02eed00a312a666210ea4e4e36",
          "width" : 300
        }, {
          "height" : 64,
          "url" : "https://i.scdn.co/image/ab67616d00004851eed00a312a666210ea4e4e36",
          "width" : 64
        } ],
        "name" : "Jesus Christ Superstar Live in Concert (Original Soundtrack of the NBC Television Event)",
        "release_date" : "2018-04-06",
        "release_date_precision" : "day",
        "total_tracks" : 27,
        "type" : "album",
        "uri" : "spotify:album:2HoRYcYFMLgmCyjZaLmkqH"
      },
      "artists" : [ {
        "external_urls" : {
          "spotify" : "https://open.spotify.com/artist/2Sqr0DXoaYABbjBo9HaMkM"
        },
        "href" : "https://api.spotify.com/v1/artists/2Sqr0DXoaYABbjBo9HaMkM",
        "id" : "2Sqr0DXoaYABbjBo9HaMkM",
        "name" : "Sara Bareilles",
        "type" : "artist",
        "uri" : "spotify:artist:2Sqr0DXoaYABbjBo9HaMkM"
      }, {
        "external_urls" : {
          "spotify" : "https://open.spotify.com/artist/3kFj6o9mi2BlJrlS29b1bh"
        },
        "href" : "https://api.spotify.com/v1/artists/3kFj6o9mi2BlJrlS29b1bh",
        "id" : "3kFj6o9mi2BlJrlS29b1bh",
        "name" : "Original Television Cast of Jesus Christ Superstar Live in Concert",
        "type" : "artist",
        "uri" : "spotify:artist:3kFj6o9mi2BlJrlS29b1bh"
      } ],
      "disc_number" : 1,
      "duration_ms" : 220920,
      "explicit" : false,
      "external_ids" : {
        "isrc" : "USQX91800624"
      },
      "external_urls" : {
        "spotify" : "https://open.spotify.com/track/3PxafOfJV2vKPQPq8LrKHB"
      },
      "href" : "https://api.spotify.com/v1/tracks/3PxafOfJV2vKPQPq8LrKHB",
      "id" : "3PxafOfJV2vKPQPq8LrKHB",
      "is_local" : false,
      "is_playable" : true,
      "name" : "I Don't Know How to Love Him",
      "popularity" : 34,
      "preview_url" : "https://p.scdn.co/mp3-preview/f52a33ef29945c9e5257fddc93d5049f47a3fd5e?cid=774b29d4f13844c495f206cafdad9c86",
      "track_number" : 11,
      "type" : "track",
      "uri" : "spotify:track:3PxafOfJV2vKPQPq8LrKHB"
    } ],
    "limit" : 10,
    "next" : "https://api.spotify.com/v1/search?query=O%2C+How+I+Love+Jesus&type=track&market=US&offset=15&limit=10",
    "offset" : 5,
    "previous" : "https://api.spotify.com/v1/search?query=O%2C+How+I+Love+Jesus&type=track&market=US&offset=0&limit=10",
    "total" : 1010
  }
}