{
  "tracks" : {
    "href" : "https://api.spotify.com/v1/search?query=Immortal%2C+Invisible%2C+God+Only+Wise&type=track&market=US&offset=5&limit=10",
    "items" : [ {
      "album" : {
        "album_type" : "single",
        "artists" : [ {
          "external_urls" : {
            "spotify" : "https://open.spotify.com/artist/55tbvJFx2OH3H0aUmLEI6C"
          },
          "href" : "https://api.spotify.com/v1/artists/55tbvJFx2OH3H0aUmLEI6C",
          "id" : "55tbvJFx2OH3H0aUmLEI6C",
          "name" : "Richard M.S. Irwin",
          "type" : "artist",
          "uri" : "spotify:artist:55tbvJFx2OH3H0aUmLEI6C"
        } ],
        "external_urls" : {
          "spotify" : "https://open.spotify.com/album/2yvYNUCMjG1IzV5PuudpWO"
        },
        "href" : "https://api.spotify.com/v1/albums/2yvYNUCMjG1IzV5PuudpWO",
        "id" : "2yvYNUCMjG1IzV5PuudpWO",
        "images" : [ {
          "height" : 640,
          "url" : "https://i.scdn.co/image/ab67616d0000b27365b0c0ab5a963b2018cfba5a",
          "width" : 640
        }, {
          "height" : 300,
          "url" : "https://i.scdn.co/image/ab67616d00001e0265b0c0ab5a963b2018cfba5a",
          "width" : 300
        }, {
          "height" : 64,
          "url" : "https://i.scdn.co/image/ab67616d0000485165b0c0ab5a963b2018cfba5a",
          "width" : 64
        } ],
        "name" : "Immortal, Invisible, God Only Wise - St Denio, Organ",
        "release_date" : "2020-05-18",
        "release_date_precision" : "day",
        "total_tracks" : 1,
        "type" : "album",
        "uri" : "spotify:album:2yvYNUCMjG1IzV5PuudpWO"
      },
      "artists" : [ {
        "external_urls" : {
          "spotify" : "https://open.spotify.com/artist/55tbvJFx2OH3H0aUmLEI6C"
        },
        "href" : "https://api.spotify.com/v1/artists/55tbvJFx2OH3H0aUmLEI6C",
        "id" : "55tbvJFx2OH3H0aUmLEI6C",
        "name" : "Richard M.S. Irwin",
        "type" : "artist",
        "uri" : "spotify:artist:55tbvJFx2OH3H0aUmLEI6C"
      } ],
      "disc_number" : 1,
      "duration_ms" : 139178,
      "explicit" : false,
      "external_ids" : {
        "isrc" : "UKTU21900177"
      },
      "external_urls" : {
        "spotify" : "https://open.spotify.com/track/5LYwO1sQr2Bxr2yeOTKWCD"
      },
      "href" : "https://api.spotify.com/v1/tracks/5LYwO1sQr2Bxr2yeOTKWCD",
      "id" : "5LYwO1sQr2Bxr2yeOTKWCD",
      "is_local" : false,
      "is_playable" : true,
      "name" : "Immortal, Invisible, God Only Wise - St Denio, Organ",
      "popularity" : 0,
      "preview_url" : "https://p.scdn.co/mp3-preview/6b2366487440b8925239c9788280d8c6f0f355f8?cid=774b29d4f13844c495f206cafdad9c86",
      "track_number" : 1,
      "type" : "track",
      "uri" : "spotify:track:5LYwO1sQr2Bxr2yeOTKWCD"
    }, {
      "album" : {
        "album_type" : "compilation",
        "artists" : [ {
          "external_urls" : {
            "spotify" : "https://open.spotify.com/artist/0LyfQWJT6nXafLPZqxe9Of"
          },
          "href" : "https://api.spotify.com/v1/artists/0LyfQWJT6nXafLPZqxe9Of",
          "id" : "0LyfQWJT6nXafLPZqxe9Of",
          "name" : "Various Artists",
          "type" : "artist",
          "uri" : "spotify:artist:0LyfQWJT6nXafLPZqxe9Of"
        } ],
        "external_urls" : {
          "spotify" : "https://open.spotify.com/album/4CedK4dcXVQagB7CT8fZB1"
        },
        "href" : "https://api.spotify.com/v1/albums/4CedK4dcXVQagB7CT8fZB1",
        "id" : "4CedK4dcXVQagB7CT8fZB1",
        "images" : [ {
          "height" : 640,
          "url" : "https://i.scdn.co/image/ab67616d0000b273e4194d2c4905462046a3a250",
          "width" : 640
        }, {
          "height" : 300,
          "url" : "https://i.scdn.co/image/ab67616d00001e02e4194d2c4905462046a3a250",
          "width" : 300
        }, {
          "height" : 64,
          "url" : "https://i.scdn.co/image/ab67616d00004851e4194d2c4905462046a3a250",
          "width" : 64
        } ],
        "name" : "100 Best Hymns",
        "release_date" : "2011-03-29",
        "release_date_precision" : "day",
        "total_tracks" : 100,
        "type" : "album",
        "uri" : "spotify:album:4CedK4dcXVQagB7CT8fZB1"
      },
      "artists" : [ {
        "external_urls" : {
          "spotify" : "https://open.spotify.com/artist/4kCZ5nyurc9eIqLJfUcW0Y"
        },
        "href" : "https://api.spotify.com/v1/artists/4kCZ5nyurc9eIqLJfUcW0Y",
        "id" : "4kCZ5nyurc9eIqLJfUcW0Y",
        "name" : "Anonymous",
        "type" : "artist",
        "uri" : "spotify:artist:4kCZ5nyurc9eIqLJfUcW0Y"
      }, {
        "external_urls" : {
          "spotify" : "https://open.spotify.com/artist/3E3HWYLmAy1mryet6VnqDs"
        },
        "href" : "https://api.spotify.com/v1/artists/3E3HWYLmAy1mryet6VnqDs",
        "id" : "3E3HWYLmAy1mryet6VnqDs",
        "name" : "W C Smith",
        "type" : "artist",
        "uri" : "spotify:artist:3E3HWYLmAy1mryet6VnqDs"
      }, {
        "external_urls" : {
          "spotify" : "https://open.spotify.com/artist/2pMJjUe1wagw5La8Vefqrr"
        },
        "href" : "https://api.spotify.com/v1/artists/2pMJjUe1wagw5La8Vefqrr",
        "id" : "2pMJjUe1wagw5La8Vefqrr",
        "name" : "Huddersfield Choral Society",
        "type" : "artist",
        "uri" : "spotify:artist:2pMJjUe1wagw5La8Vefqrr"
      }, {
        "external_urls" : {
          "spotify" : "https://open.spotify.com/artist/49D8h67pxvvUNGOLKEGjkx"
        },
        "href" : "https://api.spotify.com/v1/artists/49D8h67pxvvUNGOLKEGjkx",
        "id" : "49D8h67pxvvUNGOLKEGjkx",
        "name" : "Owain Arwel Hughes",
        "type" : "artist",
        "uri" : "spotify:artist:49D8h67pxvvUNGOLKEGjkx"
      } ],
      "disc_number" : 5,
      "duration_ms" : 158800,
      "explicit" : false,
      "external_ids" : {
        "isrc" : "GBAYE8600310"
      },
      "external_urls" : {
        "spotify" : "https://open.spotify.com/track/0vMr9cCTty2dPRNJiVkRhU"
      },
      "href" : "https://api.spotify.com/v1/tracks/0vMr9cCTty2dPRNJiVkRhU",
      "id" : "0vMr9cCTty2dPRNJiVkRhU",
      "is_local" : false,
      "is_playable" : true,
      "name" : "Immortal Invisible God Only Wise",
      "popularity" : 14,
      "preview_url" : "https://p.scdn.co/mp3-preview/2e61bd51ddd751e9374789de1ca79fddd42605a1?cid=774b29d4f13844c495f206cafdad9c86",
      "track_number" : 2,
      "type" : "track",
      "uri" : "spotify:track:0vMr9cCTty2dPRNJiVkRhU"
    }, {
      "album" : {
        "album_type" : "album",
        "artists" : [ {
          "external_urls" : {
            "spotify" : "https://open.spotify.com/artist/2eHl5z1I0fPtpBGH66qa0i"
          },
          "href" : "https://api.spotify.com/v1/artists/2eHl5z1I0fPtpBGH66qa0i",
          "id" : "2eHl5z1I0fPtpBGH66qa0i",
          "name" : "Mark Magnuson",
          "type" : "artist",
          "uri" : "spotify:artist:2eHl5z1I0fPtpBGH66qa0i"
        } ],
        "external_urls" : {
          "spotify" : "https://open.spotify.com/album/5tEcaRqgds2JTi1ocIMOZ2"
        },
        "href" : "https://api.spotify.com/v1/albums/5tEcaRqgds2JTi1ocIMOZ2",
        "id" : "5tEcaRqgds2JTi1ocIMOZ2",
        "images" : [ {
          "height" : 640,
          "url" : "https://i.scdn.co/image/ab67616d0000b27322b679ff434fda3374f7ae8e",
          "width" : 640
        }, {
          "height" : 300,
          "url" : "https://i.scdn.co/image/ab67616d00001e0222b679ff434fda3374f7ae8e",
          "width" : 300
        }, {
          "height" : 64,
          "url" : "https://i.scdn.co/image/ab67616d0000485122b679ff434fda3374f7ae8e",
          "width" : 64
        } ],
        "name" : "Acoustic Hymns",
        "release_date" : "2004-12-21",
        "release_date_precision" : "day",
        "total_tracks" : 13,
        "type" : "album",
        "uri" : "spotify:album:5tEcaRqgds2JTi1ocIMOZ2"
      },
      "artists" : [ {
        "external_urls" : {
          "spotify" : "https://open.spotify.com/artist/2eHl5z1I0fPtpBGH66qa0i"
        },
        "href" : "https://api.spotify.com/v1/artists/2eHl5z1I0fPtpBGH66qa0i",
        "id" : "2eHl5z1I0fPtpBGH66qa0i",
        "name" : "Mark Magnuson",
        "type" : "artist",
        "uri" : "spotify:artist:2eHl5z1I0fPtpBGH66qa0i"
      } ],
      "disc_number" : 1,
      "duration_ms" : 88026,
      "explicit" : false,
      "external_ids" : {
        "isrc" : "ushm20522313"
      },
      "external_urls" : {
        "spotify" : "https://open.spotify.com/track/4kMcE6Vd6WkAQPw01BGqR9"
      },
      "href" : "https://api.spotify.com/v1/tracks/4kMcE6Vd6WkAQPw01BGqR9",
      "id" : "4kMcE6Vd6WkAQPw01BGqR9",
      "is_local" : false,
      "is_playable" : true,
      "name" : "Immortal, Invisible, God Only Wise",
      "popularity" : 13,
      "preview_url" : "https://p.scdn.co/mp3-preview/2ed18c5f6350447d8390ae295e4ae93af85c18d8?cid=774b29d4f13844c495f206cafdad9c86",
      "track_number" : 6,
      "type" : "track",
      "uri" : "spotify:track:4kMcE6Vd6WkAQPw01BGqR9"
    }, {
      "album" : {
        "album_type" : "album",
        "artists" : [ {
          "external_urls" : {
            "spotify" : "https://open.spotify.com/artist/06um8wdbBpbr6AEIv63vm1"
          },
          "href" : "https://api.spotify.com/v1/artists/06um8wdbBpbr6AEIv63vm1",
          "id" : "06um8wdbBpbr6AEIv63vm1",
          "name" : "Kaleb Brasee",
          "type" : "artist",
          "uri" : "spotify:artist:06um8wdbBpbr6AEIv63vm1"
        } ],
        "external_urls" : {
          "spotify" : "https://open.spotify.com/album/4TfoKjucFSfmUqHam6qL3r"
        },
        "href" : "https://api.spotify.com/v1/albums/4TfoKjucFSfmUqHam6qL3r",
        "id" : "4TfoKjucFSfmUqHam6qL3r",
        "images" : [ {
          "height" : 640,
          "url" : "https://i.scdn.co/image/ab67616d0000b273527d316b713cfc14cb805809",
          "width" : 640
        }, {
          "height" : 300,
          "url" : "https://i.scdn.co/image/ab67616d00001e02527d316b713cfc14cb805809",
          "width" : 300
        }, {
          "height" : 64,
          "url" : "https://i.scdn.co/image/ab67616d00004851527d316b713cfc14cb805809",
          "width" : 64
        } ],
        "name" : "Amazing Grace - Hymns On Piano",
        "release_date" : "2014-05-21",
        "release_date_precision" : "day",
        "total_tracks" : 13,
        "type" : "album",
        "uri" : "spotify:album:4TfoKjucFSfmUqHam6qL3r"
      },
      "artists" : [ {
        "external_urls" : {
          "spotify" : "https://open.spotify.com/artist/06um8wdbBpbr6AEIv63vm1"
        },
        "href" : "https://api.spotify.com/v1/artists/06um8wdbBpbr6AEIv63vm1",
        "id" : "06um8wdbBpbr6AEIv63vm1",
        "name" : "Kaleb Brasee",
        "type" : "artist",
        "uri" : "spotify:artist:06um8wdbBpbr6AEIv63vm1"
      } ],
      "disc_number" : 1,
      "duration_ms" : 185600,
      "explicit" : false,
      "external_ids" : {
        "isrc" : "QMPKX1437563"
      },
      "external_urls" : {
        "spotify" : "https://open.spotify.com/track/2Yh6BI7sFc8EZdHGARgaQJ"
      },
      "href" : "https://api.spotify.com/v1/tracks/2Yh6BI7sFc8EZdHGARgaQJ",
      "id" : "2Yh6BI7sFc8EZdHGARgaQJ",
      "is_local" : false,
      "is_playable" : true,
      "name" : "Immortal, Invisible, God Only Wise",
      "popularity" : 12,
      "preview_url" : "https://p.scdn.co/mp3-preview/70ad2929ffa8dfa2935befb0081b5f580ab7e522?cid=774b29d4f13844c495f206cafdad9c86",
      "track_number" : 13,
      "type" : "track",
      "uri" : "spotify:track:2Yh6BI7sFc8EZdHGARgaQJ"
    }, {
      "album" : {
        "album_type" : "album",
        "artists" : [ {
          "external_urls" : {
            "spotify" : "https://open.spotify.com/artist/1gM7IEPnJzpNjVQRyz2AXT"
          },
          "href" : "https://api.spotify.com/v1/artists/1gM7IEPnJzpNjVQRyz2AXT",
          "id" : "1gM7IEPnJzpNjVQRyz2AXT",
          "name" : "Discovery Jazz Ensemble",
          "type" : "artist",
          "uri" : "spotify:artist:1gM7IEPnJzpNjVQRyz2AXT"
        } ],
        "external_urls" : {
          "spotify" : "https://open.spotify.com/album/0xbN1MKlO1TUAk37aJhHMy"
        },
        "href" : "https://api.spotify.com/v1/albums/0xbN1MKlO1TUAk37aJhHMy",
        "id" : "0xbN1MKlO1TUAk37aJhHMy",
        "images" : [ {
          "height" : 640,
          "url" : "https://i.scdn.co/image/ab67616d0000b273baee88ce6e1da169eaaa229e",
          "width" : 640
        }, {
          "height" : 300,
          "url" : "https://i.scdn.co/image/ab67616d00001e02baee88ce6e1da169eaaa229e",
          "width" : 300
        }, {
          "height" : 64,
          "url" : "https://i.scdn.co/image/ab67616d00004851baee88ce6e1da169eaaa229e",
          "width" : 64
        } ],
        "name" : "Prelude to Worship",
        "release_date" : "2015-08-01",
        "release_date_precision" : "day",
        "total_tracks" : 10,
        "type" : "album",
        "uri" : "spotify:album:0xbN1MKlO1TUAk37aJhHMy"
      },
      "artists" : [ {
        "external_urls" : {
          "spotify" : "https://open.spotify.com/artist/1gM7IEPnJzpNjVQRyz2AXT"
        },
        "href" : "https://api.spotify.com/v1/artists/1gM7IEPnJzpNjVQRyz2AXT",
        "id" : "1gM7IEPnJzpNjVQRyz2AXT",
        "name" : "Discovery Jazz Ensemble",
        "type" : "artist",
        "uri" : "spotify:artist:1gM7IEPnJzpNjVQRyz2AXT"
      } ],
      "disc_number" : 1,
      "duration_ms" : 213720,
      "explicit" : false,
      "external_ids" : {
        "isrc" : "USLF51401881"
      },
      "external_urls" : {
        "spotify" : "https://open.spotify.com/track/7z1gxS1qOzlTrIFnh6uK5f"
      },
      "href" : "https://api.spotify.com/v1/tracks/7z1gxS1qOzlTrIFnh6uK5f",
      "id" : "7z1gxS1qOzlTrIFnh6uK5f",
      "is_local" : false,
      "is_playable" : true,
      "name" : "Immortal, Invisible, God Only Wise",
      "popularity" : 14,
      "preview_url" : "https://p.scdn.co/mp3-preview/9abeeb06809a97807a359632a127c3cb1f8e4534?cid=774b29d4f13844c495f206cafdad9c86",
      "track_number" : 6,
      "type" : "track",
      "uri" : "spotify:track:7z1gxS1qOzlTrIFnh6uK5f"
    }, {
      "album" : {
        "album_type" : "album",
        "artists" : [ {
          "external_urls" : {
            "spotify" : "https://open.spotify.com/artist/4f6XwTrkJlI4ud1nc4r5dN"
          },
          "href" : "https://api.spotify.com/v1/artists/4f6XwTrkJlI4ud1nc4r5dN",
          "id" : "4f6XwTrkJlI4ud1nc4r5dN",
          "name" : "Patch the Pirate",
          "type" : "artist",
          "uri" : "spotify:artist:4f6XwTrkJlI4ud1nc4r5dN"
        } ],
        "external_urls" : {
          "spotify" : "https://open.spotify.com/album/41HpjGrX5ygoSHy9ylCth8"
        },
        "href" : "https://api.spotify.com/v1/albums/41HpjGrX5ygoSHy9ylCth8",
        "id" : "41HpjGrX5ygoSHy9ylCth8",
        "images" : [ {
          "height" : 640,
          "url" : "https://i.scdn.co/image/ab67616d0000b27344e1abb4467ffb844e954ded",
          "width" : 640
        }, {
          "height" : 300,
          "url" : "https://i.scdn.co/image/ab67616d00001e0244e1abb4467ffb844e954ded",
          "width" : 300
        }, {
          "height" : 64,
          "url" : "https://i.scdn.co/image/ab67616d0000485144e1abb4467ffb844e954ded",
          "width" : 64
        } ],
        "name" : "Hymns Every Child Should Know",
        "release_date" : "2016-03-01",
        "release_date_precision" : "day",
        "total_tracks" : 13,
        "type" : "album",
        "uri" : "spotify:album:41HpjGrX5ygoSHy9ylCth8"
      },
      "artists" : [ {
        "external_urls" : {
          "spotify" : "https://open.spotify.com/artist/4f6XwTrkJlI4ud1nc4r5dN"
        },
        "href" : "https://api.spotify.com/v1/artists/4f6XwTrkJlI4ud1nc4r5dN",
        "id" : "4f6XwTrkJlI4ud1nc4r5dN",
        "name" : "Patch the Pirate",
        "type" : "artist",
        "uri" : "spotify:artist:4f6XwTrkJlI4ud1nc4r5dN"
      } ],
      "disc_number" : 1,
      "duration_ms" : 122680,
      "explicit" : false,
      "external_ids" : {
        "isrc" : "uscgj1602765"
      },
      "external_urls" : {
        "spotify" : "https://open.spotify.com/track/3eWxwIXtKH8foxUxFZcMDT"
      },
      "href" : "https://api.spotify.com/v1/tracks/3eWxwIXtKH8foxUxFZcMDT",
      "id" : "3eWxwIXtKH8foxUxFZcMDT",
      "is_local" : false,
      "is_playable" : true,
      "name" : "Immortal, Invisible, God Only Wise",
      "popularity" : 8,
      "preview_url" : "https://p.scdn.co/mp3-preview/3584e0cb536771901c08a2c6bee3aef374ebc796?cid=774b29d4f13844c495f206cafdad9c86",
      "track_number" : 5,
      "type" : "track",
      "uri" : "spotify:track:3eWxwIXtKH8foxUxFZcMDT"
    }, {
      "album" : {
        "album_type" : "album",
        "artists" : [ {
          "external_urls" : {
            "spotify" : "https://open.spotify.com/artist/0zYyfhX87rISSc9dyJQK5t"
          },
          "href" : "https://api.spotify.com/v1/artists/0zYyfhX87rISSc9dyJQK5t",
          "id" : "0zYyfhX87rISSc9dyJQK5t",
          "name" : "Craig Duncan",
          "type" : "artist",
          "uri" : "spotify:artist:0zYyfhX87rISSc9dyJQK5t"
        } ],
        "external_urls" : {
          "spotify" : "https://open.spotify.com/album/0ob1zTtlONfPuxXFcKGleK"
        },
        "href" : "https://api.spotify.com/v1/albums/0ob1zTtlONfPuxXFcKGleK",
        "id" : "0ob1zTtlONfPuxXFcKGleK",
        "images" : [ {
          "height" : 640,
          "url" : "https://i.scdn.co/image/ab67616d0000b273a1175a048ec53a3baba55a37",
          "width" : 640
        }, {
          "height" : 300,
          "url" : "https://i.scdn.co/image/ab67616d00001e02a1175a048ec53a3baba55a37",
          "width" : 300
        }, {
          "height" : 64,
          "url" : "https://i.scdn.co/image/ab67616d00004851a1175a048ec53a3baba55a37",
          "width" : 64
        } ],
        "name" : "30 Favorite Celtic Hymns: 30 Hymns Featuring Traditional Irish Instruments",
        "release_date" : "2012-01-01",
        "release_date_precision" : "day",
        "total_tracks" : 30,
        "type" : "album",
        "uri" : "spotify:album:0ob1zTtlONfPuxXFcKGleK"
      },
      "artists" : [ {
        "external_urls" : {
          "spotify" : "https://open.spotify.com/artist/0zYyfhX87rISSc9dyJQK5t"
        },
        "href" : "https://api.spotify.com/v1/artists/0zYyfhX87rISSc9dyJQK5t",
        "id" : "0zYyfhX87rISSc9dyJQK5t",
        "name" : "Craig Duncan",
        "type" : "artist",
        "uri" : "spotify:artist:0zYyfhX87rISSc9dyJQK5t"
      } ],
      "disc_number" : 2,
      "duration_ms" : 251520,
      "explicit" : false,
      "external_ids" : {
        "isrc" : "USB4U0850329"
      },
      "external_urls" : {
        "spotify" : "https://open.spotify.com/track/2o4PgcMPNJuli07umAOpCC"
      },
      "href" : "https://api.spotify.com/v1/tracks/2o4PgcMPNJuli07umAOpCC",
      "id" : "2o4PgcMPNJuli07umAOpCC",
      "is_local" : false,
      "is_playable" : true,
      "name" : "Praise To The Lord, The Almighty / Immortal, Invisible God Only Wise (Medley) - New England Sunday Album Version",
      "popularity" : 8,
      "preview_url" : null,
      "track_number" : 9,
      "type" : "track",
      "uri" : "spotify:track:2o4PgcMPNJuli07umAOpCC"
    }, {
      "album" : {
        "album_type" : "album",
        "artists" : [ {
          "external_urls" : {
            "spotify" : "https://open.spotify.com/artist/2x0QHABqKaBBvAOzvoevXJ"
          },
          "href" : "https://api.spotify.com/v1/artists/2x0QHABqKaBBvAOzvoevXJ",
          "id" : "2x0QHABqKaBBvAOzvoevXJ",
          "name" : "The Scottish Festival Singers",
          "type" : "artist",
          "uri" : "spotify:artist:2x0QHABqKaBBvAOzvoevXJ"
        } ],
        "external_urls" : {
          "spotify" : "https://open.spotify.com/album/3gIoPSXW5Y5s7EzHuVfQdx"
        },
        "href" : "https://api.spotify.com/v1/albums/3gIoPSXW5Y5s7EzHuVfQdx",
        "id" : "3gIoPSXW5Y5s7EzHuVfQdx",
        "images" : [ {
          "height" : 640,
          "url" : "https://i.scdn.co/image/ab67616d0000b273a0e35243af5db9fb7742698a",
          "width" : 640
        }, {
          "height" : 300,
          "url" : "https://i.scdn.co/image/ab67616d00001e02a0e35243af5db9fb7742698a",
          "width" : 300
        }, {
          "height" : 64,
          "url" : "https://i.scdn.co/image/ab67616d00004851a0e35243af5db9fb7742698a",
          "width" : 64
        } ],
        "name" : "The Hymn Makers: Songs From the Redemption Hymnal",
        "release_date" : "2010-08-15",
        "release_date_precision" : "day",
        "total_tracks" : 15,
        "type" : "album",
        "uri" : "spotify:album:3gIoPSXW5Y5s7EzHuVfQdx"
      },
      "artists" : [ {
        "external_urls" : {
          "spotify" : "https://open.spotify.com/artist/2x0QHABqKaBBvAOzvoevXJ"
        },
        "href" : "https://api.spotify.com/v1/artists/2x0QHABqKaBBvAOzvoevXJ",
        "id" : "2x0QHABqKaBBvAOzvoevXJ",
        "name" : "The Scottish Festival Singers",
        "type" : "artist",
        "uri" : "spotify:artist:2x0QHABqKaBBvAOzvoevXJ"
      } ],
      "disc_number" : 1,
      "duration_ms" : 163000,
      "explicit" : false,
      "external_ids" : {
        "isrc" : "GBBTM1009001"
      },
      "external_urls" : {
        "spotify" : "https://open.spotify.com/track/6mrfme6SpGmgoC3UGHPQtt"
      },
      "href" : "https://api.spotify.com/v1/tracks/6mrfme6SpGmgoC3UGHPQtt",
      "id" : "6mrfme6SpGmgoC3UGHPQtt",
      "is_local" : false,
      "is_playable" : true,
      "name" : "Immortal Invisible God Only Wise",
      "popularity" : 7,
      "preview_url" : "https://p.scdn.co/mp3-preview/7b7e75ebe52556be8adae50f71086e56a86668bd?cid=774b29d4f13844c495f206cafdad9c86",
      "track_number" : 1,
      "type" : "track",
      "uri" : "spotify:track:6mrfme6SpGmgoC3UGHPQtt"
    }, {
      "album" : {
        "album_type" : "album",
        "artists" : [ {
          "external_urls" : {
            "spotify" : "https://open.spotify.com/artist/6sN1asC2wUO6gDNLfA4T00"
          },
          "href" : "https://api.spotify.com/v1/artists/6sN1asC2wUO6gDNLfA4T00",
          "id" : "6sN1asC2wUO6gDNLfA4T00",
          "name" : "Out Of Eden",
          "type" : "artist",
          "uri" : "spotify:artist:6sN1asC2wUO6gDNLfA4T00"
        } ],
        "external_urls" : {
          "spotify" : "https://open.spotify.com/album/3K4kTndcwPgE6biOvgD0T1"
        },
        "href" : "https://api.spotify.com/v1/albums/3K4kTndcwPgE6biOvgD0T1",
        "id" : "3K4kTndcwPgE6biOvgD0T1",
        "images" : [ {
          "height" : 640,
          "url" : "https://i.scdn.co/image/ab67616d0000b273b6395be4c7c8aa50428b7201",
          "width" : 640
        }, {
          "height" : 300,
          "url" : "https://i.scdn.co/image/ab67616d00001e02b6395be4c7c8aa50428b7201",
          "width" : 300
        }, {
          "height" : 64,
          "url" : "https://i.scdn.co/image/ab67616d00004851b6395be4c7c8aa50428b7201",
          "width" : 64
        } ],
        "name" : "Hymns",
        "release_date" : "2005-03-29",
        "release_date_precision" : "day",
        "total_tracks" : 13,
        "type" : "album",
        "uri" : "spotify:album:3K4kTndcwPgE6biOvgD0T1"
      },
      "artists" : [ {
        "external_urls" : {
          "spotify" : "https://open.spotify.com/artist/6sN1asC2wUO6gDNLfA4T00"
        },
        "href" : "https://api.spotify.com/v1/artists/6sN1asC2wUO6gDNLfA4T00",
        "id" : "6sN1asC2wUO6gDNLfA4T00",
        "name" : "Out Of Eden",
        "type" : "artist",
        "uri" : "spotify:artist:6sN1asC2wUO6gDNLfA4T00"
      } ],
      "disc_number" : 1,
      "duration_ms" : 219493,
      "explicit" : false,
      "external_ids" : {
        "isrc" : "USGOT0408103"
      },
      "external_urls" : {
        "spotify" : "https://open.spotify.com/track/1hXr2tvC6nNTkIRqqqHf0W"
      },
      "href" : "https://api.spotify.com/v1/tracks/1hXr2tvC6nNTkIRqqqHf0W",
      "id" : "1hXr2tvC6nNTkIRqqqHf0W",
      "is_local" : false,
      "is_playable" : true,
      "name" : "Immortal, Invisible, God Only Wise",
      "popularity" : 7,
      "preview_url" : "https://p.scdn.co/mp3-preview/5afdb5d7cfd5f563bc24a3f72f87f2b79c99f11e?cid=774b29d4f13844c495f206cafdad9c86",
      "track_number" : 2,
      "type" : "track",
      "uri" : "spotify:track:1hXr2tvC6nNTkIRqqqHf0W"
    }, {
      "album" : {
        "album_type" : "album",
        "artists" : [ {
          "external_urls" : {
            "spotify" : "https://open.spotify.com/artist/1HGmXGNR5OYkq8gEb9vMRQ"
          },
          "href" : "https://api.spotify.com/v1/artists/1HGmXGNR5OYkq8gEb9vMRQ",
          "id" : "1HGmXGNR5OYkq8gEb9vMRQ",
          "name" : "Scott Wesley Brown",
          "type" : "artist",
          "uri" : "spotify:artist:1HGmXGNR5OYkq8gEb9vMRQ"
        } ],
        "external_urls" : {
          "spotify" : "https://open.spotify.com/album/4eYo9ljvOwEARxdDaCF7ER"
        },
        "href" : "https://api.spotify.com/v1/albums/4eYo9ljvOwEARxdDaCF7ER",
        "id" : "4eYo9ljvOwEARxdDaCF7ER",
        "images" : [ {
          "height" : 640,
          "url" : "https://i.scdn.co/image/ab67616d0000b273d5e2fff758c922f124c9e891",
          "width" : 640
        }, {
          "height" : 300,
          "url" : "https://i.scdn.co/image/ab67616d00001e02d5e2fff758c922f124c9e891",
          "width" : 300
        }, {
          "height" : 64,
          "url" : "https://i.scdn.co/image/ab67616d00004851d5e2fff758c922f124c9e891",
          "width" : 64
        } ],
        "name" : "Hymns - The Old Made New",
        "release_date" : "2005-08-08",
        "release_date_precision" : "day",
        "total_tracks" : 12,
        "type" : "album",
        "uri" : "spotify:album:4eYo9ljvOwEARxdDaCF7ER"
      },
      "artists" : [ {
        "external_urls" : {
          "spotify" : "https://open.spotify.com/artist/1HGmXGNR5OYkq8gEb9vMRQ"
        },
        "href" : "https://api.spotify.com/v1/artists/1HGmXGNR5OYkq8gEb9vMRQ",
        "id" : "1HGmXGNR5OYkq8gEb9vMRQ",
        "name" : "Scott Wesley Brown",
        "type" : "artist",
        "uri" : "spotify:artist:1HGmXGNR5OYkq8gEb9vMRQ"
      } ],
      "disc_number" : 1,
      "duration_ms" : 163680,
      "explicit" : false,
      "external_ids" : {
        "isrc" : "US94G0510175"
      },
      "external_urls" : {
        "spotify" : "https://open.spotify.com/track/2jhJFa5G3u24jqZiztvEJT"
      },
      "href" : "https://api.spotify.com/v1/tracks/2jhJFa5G3u24jqZiztvEJT",
      "id" : "2jhJFa5G3u24jqZiztvEJT",
      "is_local" : false,
      "is_playable" : true,
      "name" : "Immortal, Invisible (God Only Wise)",
      "popularity" : 2,
      "preview_url" : "https://p.scdn.co/mp3-preview/c4d952918d142143b1f05aee4c73dfe3b3a016ed?cid=774b29d4f13844c495f206cafdad9c86",
      "track_number" : 6,
      "type" : "track",
      "uri" : "spotify:track:2jhJFa5G3u24jqZiztvEJT"
    } ],
    "limit" : 10,
    "next" : "https://api.spotify.com/v1/search?query=Immortal%2C+Invisible%2C+God+Only+Wise&type=track&market=US&offset=15&limit=10",
    "offset" : 5,
    "previous" : "https://api.spotify.com/v1/search?query=Immortal%2C+Invisible%2C+God+Only+Wise&type=track&market=US&offset=0&limit=10",
    "total" : 130
  }
}