{
  "tracks" : {
    "href" : "https://api.spotify.com/v1/search?query=Jesus+Calls+Us&type=track&market=US&offset=5&limit=10",
    "items" : [ {
      "album" : {
        "album_type" : "album",
        "artists" : [ {
          "external_urls" : {
            "spotify" : "https://open.spotify.com/artist/61WkWysVptnRkmDLDIoBpX"
          },
          "href" : "https://api.spotify.com/v1/artists/61WkWysVptnRkmDLDIoBpX",
          "id" : "61WkWysVptnRkmDLDIoBpX",
          "name" : "Wells Cathedral Choir",
          "type" : "artist",
          "uri" : "spotify:artist:61WkWysVptnRkmDLDIoBpX"
        } ],
        "external_urls" : {
          "spotify" : "https://open.spotify.com/album/4oZhYscarKNEgkJAydesEk"
        },
        "href" : "https://api.spotify.com/v1/albums/4oZhYscarKNEgkJAydesEk",
        "id" : "4oZhYscarKNEgkJAydesEk",
        "images" : [ {
          "height" : 640,
          "url" : "https://i.scdn.co/image/ab67616d0000b273282643a809c11e816169dec3",
          "width" : 640
        }, {
          "height" : 300,
          "url" : "https://i.scdn.co/image/ab67616d00001e02282643a809c11e816169dec3",
          "width" : 300
        }, {
          "height" : 64,
          "url" : "https://i.scdn.co/image/ab67616d00004851282643a809c11e816169dec3",
          "width" : 64
        } ],
        "name" : "Evensong For St. Andrew's Day",
        "release_date" : "2007-10-29",
        "release_date_precision" : "day",
        "total_tracks" : 19,
        "type" : "album",
        "uri" : "spotify:album:4oZhYscarKNEgkJAydesEk"
      },
      "artists" : [ {
        "external_urls" : {
          "spotify" : "https://open.spotify.com/artist/61WkWysVptnRkmDLDIoBpX"
        },
        "href" : "https://api.spotify.com/v1/artists/61WkWysVptnRkmDLDIoBpX",
        "id" : "61WkWysVptnRkmDLDIoBpX",
        "name" : "Wells Cathedral Choir",
        "type" : "artist",
        "uri" : "spotify:artist:61WkWysVptnRkmDLDIoBpX"
      }, {
        "external_urls" : {
          "spotify" : "https://open.spotify.com/artist/5hzVruo6hza65D4Xz1iJsG"
        },
        "href" : "https://api.spotify.com/v1/artists/5hzVruo6hza65D4Xz1iJsG",
        "id" : "5hzVruo6hza65D4Xz1iJsG",
        "name" : "Rupert Gough",
        "type" : "artist",
        "uri" : "spotify:artist:5hzVruo6hza65D4Xz1iJsG"
      } ],
      "disc_number" : 1,
      "duration_ms" : 150866,
      "explicit" : false,
      "external_ids" : {
        "isrc" : "GBTHM0702004"
      },
      "external_urls" : {
        "spotify" : "https://open.spotify.com/track/7IF7lG5OL48pU2mM6OY0or"
      },
      "href" : "https://api.spotify.com/v1/tracks/7IF7lG5OL48pU2mM6OY0or",
      "id" : "7IF7lG5OL48pU2mM6OY0or",
      "is_local" : false,
      "is_playable" : true,
      "name" : "Office Hymn - Jesus Calls Us! O'er the Tumult",
      "popularity" : 5,
      "preview_url" : "https://p.scdn.co/mp3-preview/87a17bb20476dc11ad3309b93171ce14d76a5629?cid=774b29d4f13844c495f206cafdad9c86",
      "track_number" : 8,
      "type" : "track",
      "uri" : "spotify:track:7IF7lG5OL48pU2mM6OY0or"
    }, {
      "album" : {
        "album_type" : "single",
        "artists" : [ {
          "external_urls" : {
            "spotify" : "https://open.spotify.com/artist/7sM3Vaa1bJOb9PEmhfWIHx"
          },
          "href" : "https://api.spotify.com/v1/artists/7sM3Vaa1bJOb9PEmhfWIHx",
          "id" : "7sM3Vaa1bJOb9PEmhfWIHx",
          "name" : "Jackson A Taylor",
          "type" : "artist",
          "uri" : "spotify:artist:7sM3Vaa1bJOb9PEmhfWIHx"
        } ],
        "external_urls" : {
          "spotify" : "https://open.spotify.com/album/0wP2ABx2eTRZ68YOittYDu"
        },
        "href" : "https://api.spotify.com/v1/albums/0wP2ABx2eTRZ68YOittYDu",
        "id" : "0wP2ABx2eTRZ68YOittYDu",
        "images" : [ {
          "height" : 640,
          "url" : "https://i.scdn.co/image/ab67616d0000b273f1efa67717511022de48ccd7",
          "width" : 640
        }, {
          "height" : 300,
          "url" : "https://i.scdn.co/image/ab67616d00001e02f1efa67717511022de48ccd7",
          "width" : 300
        }, {
          "height" : 64,
          "url" : "https://i.scdn.co/image/ab67616d00004851f1efa67717511022de48ccd7",
          "width" : 64
        } ],
        "name" : "Jesus Calls Us",
        "release_date" : "2010-10-29",
        "release_date_precision" : "day",
        "total_tracks" : 1,
        "type" : "album",
        "uri" : "spotify:album:0wP2ABx2eTRZ68YOittYDu"
      },
      "artists" : [ {
        "external_urls" : {
          "spotify" : "https://open.spotify.com/artist/7sM3Vaa1bJOb9PEmhfWIHx"
        },
        "href" : "https://api.spotify.com/v1/artists/7sM3Vaa1bJOb9PEmhfWIHx",
        "id" : "7sM3Vaa1bJOb9PEmhfWIHx",
        "name" : "Jackson A Taylor",
        "type" : "artist",
        "uri" : "spotify:artist:7sM3Vaa1bJOb9PEmhfWIHx"
      } ],
      "disc_number" : 1,
      "duration_ms" : 81057,
      "explicit" : false,
      "external_ids" : {
        "isrc" : "USJ3V1066420"
      },
      "external_urls" : {
        "spotify" : "https://open.spotify.com/track/33x2MWKdDIpmBhvGpPFUMC"
      },
      "href" : "https://api.spotify.com/v1/tracks/33x2MWKdDIpmBhvGpPFUMC",
      "id" : "33x2MWKdDIpmBhvGpPFUMC",
      "is_local" : false,
      "is_playable" : true,
      "name" : "Jesus Calls Us",
      "popularity" : 0,
      "preview_url" : "https://p.scdn.co/mp3-preview/36f895ce1c32808a9dae62c78fff3561359dadea?cid=774b29d4f13844c495f206cafdad9c86",
      "track_number" : 1,
      "type" : "track",
      "uri" : "spotify:track:33x2MWKdDIpmBhvGpPFUMC"
    }, {
      "album" : {
        "album_type" : "album",
        "artists" : [ {
          "external_urls" : {
            "spotify" : "https://open.spotify.com/artist/5fDYexHE0Vq5gEaGccZgwY"
          },
          "href" : "https://api.spotify.com/v1/artists/5fDYexHE0Vq5gEaGccZgwY",
          "id" : "5fDYexHE0Vq5gEaGccZgwY",
          "name" : "Danny Byram",
          "type" : "artist",
          "uri" : "spotify:artist:5fDYexHE0Vq5gEaGccZgwY"
        } ],
        "external_urls" : {
          "spotify" : "https://open.spotify.com/album/6MHeh8QWCCSMvGtZLEUnJO"
        },
        "href" : "https://api.spotify.com/v1/albums/6MHeh8QWCCSMvGtZLEUnJO",
        "id" : "6MHeh8QWCCSMvGtZLEUnJO",
        "images" : [ {
          "height" : 640,
          "url" : "https://i.scdn.co/image/ab67616d0000b273579cbf4ab64b974df50fa5b2",
          "width" : 640
        }, {
          "height" : 300,
          "url" : "https://i.scdn.co/image/ab67616d00001e02579cbf4ab64b974df50fa5b2",
          "width" : 300
        }, {
          "height" : 64,
          "url" : "https://i.scdn.co/image/ab67616d00004851579cbf4ab64b974df50fa5b2",
          "width" : 64
        } ],
        "name" : "Then & Now: A Legacy Of Hymns",
        "release_date" : "1994",
        "release_date_precision" : "year",
        "total_tracks" : 10,
        "type" : "album",
        "uri" : "spotify:album:6MHeh8QWCCSMvGtZLEUnJO"
      },
      "artists" : [ {
        "external_urls" : {
          "spotify" : "https://open.spotify.com/artist/5fDYexHE0Vq5gEaGccZgwY"
        },
        "href" : "https://api.spotify.com/v1/artists/5fDYexHE0Vq5gEaGccZgwY",
        "id" : "5fDYexHE0Vq5gEaGccZgwY",
        "name" : "Danny Byram",
        "type" : "artist",
        "uri" : "spotify:artist:5fDYexHE0Vq5gEaGccZgwY"
      } ],
      "disc_number" : 1,
      "duration_ms" : 170066,
      "explicit" : false,
      "external_ids" : {
        "isrc" : "ushm20711867"
      },
      "external_urls" : {
        "spotify" : "https://open.spotify.com/track/4sffazoOKAj2JkftLtPf2H"
      },
      "href" : "https://api.spotify.com/v1/tracks/4sffazoOKAj2JkftLtPf2H",
      "id" : "4sffazoOKAj2JkftLtPf2H",
      "is_local" : false,
      "is_playable" : true,
      "name" : "Jesus Calls Us",
      "popularity" : 0,
      "preview_url" : "https://p.scdn.co/mp3-preview/9e7d4869a788d8acd4c35ff6f11780d373abfa00?cid=774b29d4f13844c495f206cafdad9c86",
      "track_number" : 5,
      "type" : "track",
      "uri" : "spotify:track:4sffazoOKAj2JkftLtPf2H"
    }, {
      "album" : {
        "album_type" : "album",
        "artists" : [ {
          "external_urls" : {
            "spotify" : "https://open.spotify.com/artist/4BIG4azl4pJv9vfeHaDPhg"
          },
          "href" : "https://api.spotify.com/v1/artists/4BIG4azl4pJv9vfeHaDPhg",
          "id" : "4BIG4azl4pJv9vfeHaDPhg",
          "name" : "Moravian Lower Brass",
          "type" : "artist",
          "uri" : "spotify:artist:4BIG4azl4pJv9vfeHaDPhg"
        } ],
        "external_urls" : {
          "spotify" : "https://open.spotify.com/album/0lB5q0PBflCFOsPw33LF3z"
        },
        "href" : "https://api.spotify.com/v1/albums/0lB5q0PBflCFOsPw33LF3z",
        "id" : "0lB5q0PBflCFOsPw33LF3z",
        "images" : [ {
          "height" : 640,
          "url" : "https://i.scdn.co/image/ab67616d0000b273e13d5b087d4154344859d8aa",
          "width" : 640
        }, {
          "height" : 300,
          "url" : "https://i.scdn.co/image/ab67616d00001e02e13d5b087d4154344859d8aa",
          "width" : 300
        }, {
          "height" : 64,
          "url" : "https://i.scdn.co/image/ab67616d00004851e13d5b087d4154344859d8aa",
          "width" : 64
        } ],
        "name" : "Harmonious to Dwell",
        "release_date" : "2019-01-24",
        "release_date_precision" : "day",
        "total_tracks" : 38,
        "type" : "album",
        "uri" : "spotify:album:0lB5q0PBflCFOsPw33LF3z"
      },
      "artists" : [ {
        "external_urls" : {
          "spotify" : "https://open.spotify.com/artist/4BIG4azl4pJv9vfeHaDPhg"
        },
        "href" : "https://api.spotify.com/v1/artists/4BIG4azl4pJv9vfeHaDPhg",
        "id" : "4BIG4azl4pJv9vfeHaDPhg",
        "name" : "Moravian Lower Brass",
        "type" : "artist",
        "uri" : "spotify:artist:4BIG4azl4pJv9vfeHaDPhg"
      } ],
      "disc_number" : 1,
      "duration_ms" : 56880,
      "explicit" : false,
      "external_ids" : {
        "isrc" : "QMAAK1883066"
      },
      "external_urls" : {
        "spotify" : "https://open.spotify.com/track/6kmsZiA7VaopyklqTaGt3d"
      },
      "href" : "https://api.spotify.com/v1/tracks/6kmsZiA7VaopyklqTaGt3d",
      "id" : "6kmsZiA7VaopyklqTaGt3d",
      "is_local" : false,
      "is_playable" : true,
      "name" : "Jesus Calls Us",
      "popularity" : 0,
      "preview_url" : "https://p.scdn.co/mp3-preview/3ff799809137dc01e4d97ddcf817d7443b3111c2?cid=774b29d4f13844c495f206cafdad9c86",
      "track_number" : 15,
      "type" : "track",
      "uri" : "spotify:track:6kmsZiA7VaopyklqTaGt3d"
    }, {
      "album" : {
        "album_type" : "album",
        "artists" : [ {
          "external_urls" : {
            "spotify" : "https://open.spotify.com/artist/6ZJ0ZFJUx02NthS3RH3VYz"
          },
          "href" : "https://api.spotify.com/v1/artists/6ZJ0ZFJUx02NthS3RH3VYz",
          "id" : "6ZJ0ZFJUx02NthS3RH3VYz",
          "name" : "The Joyful Sounds",
          "type" : "artist",
          "uri" : "spotify:artist:6ZJ0ZFJUx02NthS3RH3VYz"
        } ],
        "external_urls" : {
          "spotify" : "https://open.spotify.com/album/6PAiLUBV1jG7nIB2hjPqji"
        },
        "href" : "https://api.spotify.com/v1/albums/6PAiLUBV1jG7nIB2hjPqji",
        "id" : "6PAiLUBV1jG7nIB2hjPqji",
        "images" : [ {
          "height" : 640,
          "url" : "https://i.scdn.co/image/ab67616d0000b27323b89dcba04535d536d48b60",
          "width" : 640
        }, {
          "height" : 300,
          "url" : "https://i.scdn.co/image/ab67616d00001e0223b89dcba04535d536d48b60",
          "width" : 300
        }, {
          "height" : 64,
          "url" : "https://i.scdn.co/image/ab67616d0000485123b89dcba04535d536d48b60",
          "width" : 64
        } ],
        "name" : "99 Beautiful songs pack vol.2",
        "release_date" : "2016-03-01",
        "release_date_precision" : "day",
        "total_tracks" : 99,
        "type" : "album",
        "uri" : "spotify:album:6PAiLUBV1jG7nIB2hjPqji"
      },
      "artists" : [ {
        "external_urls" : {
          "spotify" : "https://open.spotify.com/artist/6ZJ0ZFJUx02NthS3RH3VYz"
        },
        "href" : "https://api.spotify.com/v1/artists/6ZJ0ZFJUx02NthS3RH3VYz",
        "id" : "6ZJ0ZFJUx02NthS3RH3VYz",
        "name" : "The Joyful Sounds",
        "type" : "artist",
        "uri" : "spotify:artist:6ZJ0ZFJUx02NthS3RH3VYz"
      } ],
      "disc_number" : 1,
      "duration_ms" : 32299,
      "explicit" : false,
      "external_ids" : {
        "isrc" : "TCJPE1644745"
      },
      "external_urls" : {
        "spotify" : "https://open.spotify.com/track/4nIKYOAdVH7bOuf68EiGgu"
      },
      "href" : "https://api.spotify.com/v1/tracks/4nIKYOAdVH7bOuf68EiGgu",
      "id" : "4nIKYOAdVH7bOuf68EiGgu",
      "is_local" : false,
      "is_playable" : true,
      "name" : "Jesus Calls Us",
      "popularity" : 0,
      "preview_url" : "https://p.scdn.co/mp3-preview/3a79f877274dc25c000633ecad6c7335a7a60e19?cid=774b29d4f13844c495f206cafdad9c86",
      "track_number" : 11,
      "type" : "track",
      "uri" : "spotify:track:4nIKYOAdVH7bOuf68EiGgu"
    }, {
      "album" : {
        "album_type" : "album",
        "artists" : [ {
          "external_urls" : {
            "spotify" : "https://open.spotify.com/artist/6E8Bro4h7ZWG7JAPxs5HVM"
          },
          "href" : "https://api.spotify.com/v1/artists/6E8Bro4h7ZWG7JAPxs5HVM",
          "id" : "6E8Bro4h7ZWG7JAPxs5HVM",
          "name" : "Tara Davis",
          "type" : "artist",
          "uri" : "spotify:artist:6E8Bro4h7ZWG7JAPxs5HVM"
        } ],
        "external_urls" : {
          "spotify" : "https://open.spotify.com/album/2BH9IFK9nNasAO7FyUigA9"
        },
        "href" : "https://api.spotify.com/v1/albums/2BH9IFK9nNasAO7FyUigA9",
        "id" : "2BH9IFK9nNasAO7FyUigA9",
        "images" : [ {
          "height" : 640,
          "url" : "https://i.scdn.co/image/ab67616d0000b27357d5f00ef20dfc4e5519f302",
          "width" : 640
        }, {
          "height" : 300,
          "url" : "https://i.scdn.co/image/ab67616d00001e0257d5f00ef20dfc4e5519f302",
          "width" : 300
        }, {
          "height" : 64,
          "url" : "https://i.scdn.co/image/ab67616d0000485157d5f00ef20dfc4e5519f302",
          "width" : 64
        } ],
        "name" : "Sweet Hour of Prayer",
        "release_date" : "2011-09-01",
        "release_date_precision" : "day",
        "total_tracks" : 17,
        "type" : "album",
        "uri" : "spotify:album:2BH9IFK9nNasAO7FyUigA9"
      },
      "artists" : [ {
        "external_urls" : {
          "spotify" : "https://open.spotify.com/artist/6E8Bro4h7ZWG7JAPxs5HVM"
        },
        "href" : "https://api.spotify.com/v1/artists/6E8Bro4h7ZWG7JAPxs5HVM",
        "id" : "6E8Bro4h7ZWG7JAPxs5HVM",
        "name" : "Tara Davis",
        "type" : "artist",
        "uri" : "spotify:artist:6E8Bro4h7ZWG7JAPxs5HVM"
      } ],
      "disc_number" : 1,
      "duration_ms" : 98213,
      "explicit" : false,
      "external_ids" : {
        "isrc" : "ushm81172892"
      },
      "external_urls" : {
        "spotify" : "https://open.spotify.com/track/5KDVNBpdadJWFvRg1JkCLg"
      },
      "href" : "https://api.spotify.com/v1/tracks/5KDVNBpdadJWFvRg1JkCLg",
      "id" : "5KDVNBpdadJWFvRg1JkCLg",
      "is_local" : false,
      "is_playable" : true,
      "name" : "Jesus Calls Us",
      "popularity" : 1,
      "preview_url" : "https://p.scdn.co/mp3-preview/bab8af2f2d3c317c9d0083df130a9069a79b3001?cid=774b29d4f13844c495f206cafdad9c86",
      "track_number" : 17,
      "type" : "track",
      "uri" : "spotify:track:5KDVNBpdadJWFvRg1JkCLg"
    }, {
      "album" : {
        "album_type" : "album",
        "artists" : [ {
          "external_urls" : {
            "spotify" : "https://open.spotify.com/artist/5mL53aXlkj1KaE7kWhlUAw"
          },
          "href" : "https://api.spotify.com/v1/artists/5mL53aXlkj1KaE7kWhlUAw",
          "id" : "5mL53aXlkj1KaE7kWhlUAw",
          "name" : "Carver Blanchard",
          "type" : "artist",
          "uri" : "spotify:artist:5mL53aXlkj1KaE7kWhlUAw"
        } ],
        "external_urls" : {
          "spotify" : "https://open.spotify.com/album/61KI7mG6RMr4LF44KSiLh8"
        },
        "href" : "https://api.spotify.com/v1/albums/61KI7mG6RMr4LF44KSiLh8",
        "id" : "61KI7mG6RMr4LF44KSiLh8",
        "images" : [ {
          "height" : 640,
          "url" : "https://i.scdn.co/image/3825630623ef8754aec888ee044f98ee0081eeb8",
          "width" : 640
        }, {
          "height" : 300,
          "url" : "https://i.scdn.co/image/b1a4eb5dce537cb8e057103307c31c235d8bbaaf",
          "width" : 300
        }, {
          "height" : 64,
          "url" : "https://i.scdn.co/image/74516f04323c6898a9d7c19047bf6965230d9f26",
          "width" : 64
        } ],
        "name" : "Carver Blanchard: Heartsongs & Audubon",
        "release_date" : "2011-08-01",
        "release_date_precision" : "day",
        "total_tracks" : 33,
        "type" : "album",
        "uri" : "spotify:album:61KI7mG6RMr4LF44KSiLh8"
      },
      "artists" : [ {
        "external_urls" : {
          "spotify" : "https://open.spotify.com/artist/5mL53aXlkj1KaE7kWhlUAw"
        },
        "href" : "https://api.spotify.com/v1/artists/5mL53aXlkj1KaE7kWhlUAw",
        "id" : "5mL53aXlkj1KaE7kWhlUAw",
        "name" : "Carver Blanchard",
        "type" : "artist",
        "uri" : "spotify:artist:5mL53aXlkj1KaE7kWhlUAw"
      } ],
      "disc_number" : 1,
      "duration_ms" : 42920,
      "explicit" : false,
      "external_ids" : {
        "isrc" : "USAB11127728"
      },
      "external_urls" : {
        "spotify" : "https://open.spotify.com/track/6n4kKnIFBG6GX5356IqHse"
      },
      "href" : "https://api.spotify.com/v1/tracks/6n4kKnIFBG6GX5356IqHse",
      "id" : "6n4kKnIFBG6GX5356IqHse",
      "is_local" : false,
      "is_playable" : true,
      "name" : "Jesus Calls Us",
      "popularity" : 0,
      "preview_url" : "https://p.scdn.co/mp3-preview/d8cf44faa3611bfd2a0679a4c84edd596a64fa12?cid=774b29d4f13844c495f206cafdad9c86",
      "track_number" : 28,
      "type" : "track",
      "uri" : "spotify:track:6n4kKnIFBG6GX5356IqHse"
    }, {
      "album" : {
        "album_type" : "album",
        "artists" : [ {
          "external_urls" : {
            "spotify" : "https://open.spotify.com/artist/3h5huhRkfvjubelunBaC7q"
          },
          "href" : "https://api.spotify.com/v1/artists/3h5huhRkfvjubelunBaC7q",
          "id" : "3h5huhRkfvjubelunBaC7q",
          "name" : "Katy Peterson",
          "type" : "artist",
          "uri" : "spotify:artist:3h5huhRkfvjubelunBaC7q"
        } ],
        "external_urls" : {
          "spotify" : "https://open.spotify.com/album/1YlDmOGbojduIVufG5MFvP"
        },
        "href" : "https://api.spotify.com/v1/albums/1YlDmOGbojduIVufG5MFvP",
        "id" : "1YlDmOGbojduIVufG5MFvP",
        "images" : [ {
          "height" : 640,
          "url" : "https://i.scdn.co/image/ab67616d0000b27334d447cfd3b16b1f688d31cb",
          "width" : 640
        }, {
          "height" : 300,
          "url" : "https://i.scdn.co/image/ab67616d00001e0234d447cfd3b16b1f688d31cb",
          "width" : 300
        }, {
          "height" : 64,
          "url" : "https://i.scdn.co/image/ab67616d0000485134d447cfd3b16b1f688d31cb",
          "width" : 64
        } ],
        "name" : "Remodeled",
        "release_date" : "2003",
        "release_date_precision" : "year",
        "total_tracks" : 10,
        "type" : "album",
        "uri" : "spotify:album:1YlDmOGbojduIVufG5MFvP"
      },
      "artists" : [ {
        "external_urls" : {
          "spotify" : "https://open.spotify.com/artist/3h5huhRkfvjubelunBaC7q"
        },
        "href" : "https://api.spotify.com/v1/artists/3h5huhRkfvjubelunBaC7q",
        "id" : "3h5huhRkfvjubelunBaC7q",
        "name" : "Katy Peterson",
        "type" : "artist",
        "uri" : "spotify:artist:3h5huhRkfvjubelunBaC7q"
      } ],
      "disc_number" : 1,
      "duration_ms" : 262133,
      "explicit" : false,
      "external_ids" : {
        "isrc" : "usx9p0786432"
      },
      "external_urls" : {
        "spotify" : "https://open.spotify.com/track/7rNzmLzRNeuIcid5fU94kg"
      },
      "href" : "https://api.spotify.com/v1/tracks/7rNzmLzRNeuIcid5fU94kg",
      "id" : "7rNzmLzRNeuIcid5fU94kg",
      "is_local" : false,
      "is_playable" : true,
      "name" : "Jesus Calls Us",
      "popularity" : 0,
      "preview_url" : "https://p.scdn.co/mp3-preview/b6aeb1902a61b36b7172f026bafa7a6bee51ab7c?cid=774b29d4f13844c495f206cafdad9c86",
      "track_number" : 4,
      "type" : "track",
      "uri" : "spotify:track:7rNzmLzRNeuIcid5fU94kg"
    }, {
      "album" : {
        "album_type" : "album",
        "artists" : [ {
          "external_urls" : {
            "spotify" : "https://open.spotify.com/artist/4YNwYlgMLlf1sviSR9JeQy"
          },
          "href" : "https://api.spotify.com/v1/artists/4YNwYlgMLlf1sviSR9JeQy",
          "id" : "4YNwYlgMLlf1sviSR9JeQy",
          "name" : "Karen Mitzo Hilderbrand",
          "type" : "artist",
          "uri" : "spotify:artist:4YNwYlgMLlf1sviSR9JeQy"
        } ],
        "external_urls" : {
          "spotify" : "https://open.spotify.com/album/2DdISBlOPEKO3eBCLrqJhn"
        },
        "href" : "https://api.spotify.com/v1/albums/2DdISBlOPEKO3eBCLrqJhn",
        "id" : "2DdISBlOPEKO3eBCLrqJhn",
        "images" : [ {
          "height" : 640,
          "url" : "https://i.scdn.co/image/ab67616d0000b2731a21f3cf1b8bf62e152491aa",
          "width" : 640
        }, {
          "height" : 300,
          "url" : "https://i.scdn.co/image/ab67616d00001e021a21f3cf1b8bf62e152491aa",
          "width" : 300
        }, {
          "height" : 64,
          "url" : "https://i.scdn.co/image/ab67616d000048511a21f3cf1b8bf62e152491aa",
          "width" : 64
        } ],
        "name" : "Twin Sisters: Instrumental Hymns, Vol. 1",
        "release_date" : "2003",
        "release_date_precision" : "year",
        "total_tracks" : 25,
        "type" : "album",
        "uri" : "spotify:album:2DdISBlOPEKO3eBCLrqJhn"
      },
      "artists" : [ {
        "external_urls" : {
          "spotify" : "https://open.spotify.com/artist/4YNwYlgMLlf1sviSR9JeQy"
        },
        "href" : "https://api.spotify.com/v1/artists/4YNwYlgMLlf1sviSR9JeQy",
        "id" : "4YNwYlgMLlf1sviSR9JeQy",
        "name" : "Karen Mitzo Hilderbrand",
        "type" : "artist",
        "uri" : "spotify:artist:4YNwYlgMLlf1sviSR9JeQy"
      } ],
      "disc_number" : 1,
      "duration_ms" : 73813,
      "explicit" : false,
      "external_ids" : {
        "isrc" : "USFEY1220437"
      },
      "external_urls" : {
        "spotify" : "https://open.spotify.com/track/4I8ytfPZu7xpy73YOsx5fN"
      },
      "href" : "https://api.spotify.com/v1/tracks/4I8ytfPZu7xpy73YOsx5fN",
      "id" : "4I8ytfPZu7xpy73YOsx5fN",
      "is_local" : false,
      "is_playable" : true,
      "name" : "Jesus Calls Us",
      "popularity" : 1,
      "preview_url" : "https://p.scdn.co/mp3-preview/8e0f9b2a5255a816c88d9278b5dbb04a26ac0b86?cid=774b29d4f13844c495f206cafdad9c86",
      "track_number" : 11,
      "type" : "track",
      "uri" : "spotify:track:4I8ytfPZu7xpy73YOsx5fN"
    }, {
      "album" : {
        "album_type" : "album",
        "artists" : [ {
          "external_urls" : {
            "spotify" : "https://open.spotify.com/artist/258Dm9AVtfbZA1w7gnEtzq"
          },
          "href" : "https://api.spotify.com/v1/artists/258Dm9AVtfbZA1w7gnEtzq",
          "id" : "258Dm9AVtfbZA1w7gnEtzq",
          "name" : "Kim Mitzo Thompson",
          "type" : "artist",
          "uri" : "spotify:artist:258Dm9AVtfbZA1w7gnEtzq"
        } ],
        "external_urls" : {
          "spotify" : "https://open.spotify.com/album/17KTGG5FLIzFkuPhbalvIu"
        },
        "href" : "https://api.spotify.com/v1/albums/17KTGG5FLIzFkuPhbalvIu",
        "id" : "17KTGG5FLIzFkuPhbalvIu",
        "images" : [ {
          "height" : 640,
          "url" : "https://i.scdn.co/image/ab67616d0000b273d9b6988b2b4a414ee1b3496b",
          "width" : 640
        }, {
          "height" : 300,
          "url" : "https://i.scdn.co/image/ab67616d00001e02d9b6988b2b4a414ee1b3496b",
          "width" : 300
        }, {
          "height" : 64,
          "url" : "https://i.scdn.co/image/ab67616d00004851d9b6988b2b4a414ee1b3496b",
          "width" : 64
        } ],
        "name" : "Draw Me Nearer",
        "release_date" : "2012-12-17",
        "release_date_precision" : "day",
        "total_tracks" : 25,
        "type" : "album",
        "uri" : "spotify:album:17KTGG5FLIzFkuPhbalvIu"
      },
      "artists" : [ {
        "external_urls" : {
          "spotify" : "https://open.spotify.com/artist/258Dm9AVtfbZA1w7gnEtzq"
        },
        "href" : "https://api.spotify.com/v1/artists/258Dm9AVtfbZA1w7gnEtzq",
        "id" : "258Dm9AVtfbZA1w7gnEtzq",
        "name" : "Kim Mitzo Thompson",
        "type" : "artist",
        "uri" : "spotify:artist:258Dm9AVtfbZA1w7gnEtzq"
      } ],
      "disc_number" : 1,
      "duration_ms" : 73769,
      "explicit" : false,
      "external_ids" : {
        "isrc" : "FR6V81561131"
      },
      "external_urls" : {
        "spotify" : "https://open.spotify.com/track/2Hmftr6jNIhs6e3VmuP4wJ"
      },
      "href" : "https://api.spotify.com/v1/tracks/2Hmftr6jNIhs6e3VmuP4wJ",
      "id" : "2Hmftr6jNIhs6e3VmuP4wJ",
      "is_local" : false,
      "is_playable" : true,
      "name" : "Jesus Calls Us",
      "popularity" : 1,
      "preview_url" : "https://p.scdn.co/mp3-preview/779687788e636165bc534b697ca663ba9faf1fd3?cid=774b29d4f13844c495f206cafdad9c86",
      "track_number" : 1,
      "type" : "track",
      "uri" : "spotify:track:2Hmftr6jNIhs6e3VmuP4wJ"
    } ],
    "limit" : 10,
    "next" : "https://api.spotify.com/v1/search?query=Jesus+Calls+Us&type=track&market=US&offset=15&limit=10",
    "offset" : 5,
    "previous" : "https://api.spotify.com/v1/search?query=Jesus+Calls+Us&type=track&market=US&offset=0&limit=10",
    "total" : 62
  }
}