{
  "tracks" : {
    "href" : "https://api.spotify.com/v1/search?query=Ten+Thousand+Times+Ten+Thousand&type=track&market=US&offset=5&limit=10",
    "items" : [ {
      "album" : {
        "album_type" : "album",
        "artists" : [ {
          "external_urls" : {
            "spotify" : "https://open.spotify.com/artist/0LyfQWJT6nXafLPZqxe9Of"
          },
          "href" : "https://api.spotify.com/v1/artists/0LyfQWJT6nXafLPZqxe9Of",
          "id" : "0LyfQWJT6nXafLPZqxe9Of",
          "name" : "Various Artists",
          "type" : "artist",
          "uri" : "spotify:artist:0LyfQWJT6nXafLPZqxe9Of"
        } ],
        "external_urls" : {
          "spotify" : "https://open.spotify.com/album/6zjnTciug6fNvCsvTdeWvj"
        },
        "href" : "https://api.spotify.com/v1/albums/6zjnTciug6fNvCsvTdeWvj",
        "id" : "6zjnTciug6fNvCsvTdeWvj",
        "images" : [ {
          "height" : 640,
          "url" : "https://i.scdn.co/image/ab67616d0000b2736a75276ad1cf63c57fd637ff",
          "width" : 640
        }, {
          "height" : 300,
          "url" : "https://i.scdn.co/image/ab67616d00001e026a75276ad1cf63c57fd637ff",
          "width" : 300
        }, {
          "height" : 64,
          "url" : "https://i.scdn.co/image/ab67616d000048516a75276ad1cf63c57fd637ff",
          "width" : 64
        } ],
        "name" : "Trance 100 - 2019 (Armada Music)",
        "release_date" : "2019-07-12",
        "release_date_precision" : "day",
        "total_tracks" : 100,
        "type" : "album",
        "uri" : "spotify:album:6zjnTciug6fNvCsvTdeWvj"
      },
      "artists" : [ {
        "external_urls" : {
          "spotify" : "https://open.spotify.com/artist/4DXcK8M3bJkCFfhHIkudyL"
        },
        "href" : "https://api.spotify.com/v1/artists/4DXcK8M3bJkCFfhHIkudyL",
        "id" : "4DXcK8M3bJkCFfhHIkudyL",
        "name" : "Ben Gold",
        "type" : "artist",
        "uri" : "spotify:artist:4DXcK8M3bJkCFfhHIkudyL"
      }, {
        "external_urls" : {
          "spotify" : "https://open.spotify.com/artist/7wne8sUhTAJdIsnuO4GjnR"
        },
        "href" : "https://api.spotify.com/v1/artists/7wne8sUhTAJdIsnuO4GjnR",
        "id" : "7wne8sUhTAJdIsnuO4GjnR",
        "name" : "Richard Durand",
        "type" : "artist",
        "uri" : "spotify:artist:7wne8sUhTAJdIsnuO4GjnR"
      } ],
      "disc_number" : 1,
      "duration_ms" : 249970,
      "explicit" : false,
      "external_ids" : {
        "isrc" : "NLF711904740"
      },
      "external_urls" : {
        "spotify" : "https://open.spotify.com/track/7tk9DWrcfkH6lDZ2EAgrIT"
      },
      "href" : "https://api.spotify.com/v1/tracks/7tk9DWrcfkH6lDZ2EAgrIT",
      "id" : "7tk9DWrcfkH6lDZ2EAgrIT",
      "is_local" : false,
      "is_playable" : true,
      "name" : "A Thousand Times",
      "popularity" : 21,
      "preview_url" : "https://p.scdn.co/mp3-preview/e6698f01742ee06073d51605c13338110cc54480?cid=774b29d4f13844c495f206cafdad9c86",
      "track_number" : 15,
      "type" : "track",
      "uri" : "spotify:track:7tk9DWrcfkH6lDZ2EAgrIT"
    }, {
      "album" : {
        "album_type" : "album",
        "artists" : [ {
          "external_urls" : {
            "spotify" : "https://open.spotify.com/artist/0OV3CZTqS0FymoaPTTlaiJ"
          },
          "href" : "https://api.spotify.com/v1/artists/0OV3CZTqS0FymoaPTTlaiJ",
          "id" : "0OV3CZTqS0FymoaPTTlaiJ",
          "name" : "Faith Pca Music Team",
          "type" : "artist",
          "uri" : "spotify:artist:0OV3CZTqS0FymoaPTTlaiJ"
        } ],
        "external_urls" : {
          "spotify" : "https://open.spotify.com/album/0jdLh3RNAxBytkbv25uxj1"
        },
        "href" : "https://api.spotify.com/v1/albums/0jdLh3RNAxBytkbv25uxj1",
        "id" : "0jdLh3RNAxBytkbv25uxj1",
        "images" : [ {
          "height" : 640,
          "url" : "https://i.scdn.co/image/ab67616d0000b2734701a62f68762179f337fd45",
          "width" : 640
        }, {
          "height" : 300,
          "url" : "https://i.scdn.co/image/ab67616d00001e024701a62f68762179f337fd45",
          "width" : 300
        }, {
          "height" : 64,
          "url" : "https://i.scdn.co/image/ab67616d000048514701a62f68762179f337fd45",
          "width" : 64
        } ],
        "name" : "Made for This",
        "release_date" : "2014-06-22",
        "release_date_precision" : "day",
        "total_tracks" : 11,
        "type" : "album",
        "uri" : "spotify:album:0jdLh3RNAxBytkbv25uxj1"
      },
      "artists" : [ {
        "external_urls" : {
          "spotify" : "https://open.spotify.com/artist/0OV3CZTqS0FymoaPTTlaiJ"
        },
        "href" : "https://api.spotify.com/v1/artists/0OV3CZTqS0FymoaPTTlaiJ",
        "id" : "0OV3CZTqS0FymoaPTTlaiJ",
        "name" : "Faith Pca Music Team",
        "type" : "artist",
        "uri" : "spotify:artist:0OV3CZTqS0FymoaPTTlaiJ"
      } ],
      "disc_number" : 1,
      "duration_ms" : 255106,
      "explicit" : false,
      "external_ids" : {
        "isrc" : "ushm81417271"
      },
      "external_urls" : {
        "spotify" : "https://open.spotify.com/track/6RfKWNFRFuWwEbf4vVk3ec"
      },
      "href" : "https://api.spotify.com/v1/tracks/6RfKWNFRFuWwEbf4vVk3ec",
      "id" : "6RfKWNFRFuWwEbf4vVk3ec",
      "is_local" : false,
      "is_playable" : true,
      "name" : "Ten Thousand Times Ten Thousand",
      "popularity" : 2,
      "preview_url" : "https://p.scdn.co/mp3-preview/61dd72c4723c373e2af9eb96008ee0d7a45f340c?cid=774b29d4f13844c495f206cafdad9c86",
      "track_number" : 10,
      "type" : "track",
      "uri" : "spotify:track:6RfKWNFRFuWwEbf4vVk3ec"
    }, {
      "album" : {
        "album_type" : "album",
        "artists" : [ {
          "external_urls" : {
            "spotify" : "https://open.spotify.com/artist/6Rt3JMGOdCB3q2lYvo409X"
          },
          "href" : "https://api.spotify.com/v1/artists/6Rt3JMGOdCB3q2lYvo409X",
          "id" : "6Rt3JMGOdCB3q2lYvo409X",
          "name" : "Cash Clay",
          "type" : "artist",
          "uri" : "spotify:artist:6Rt3JMGOdCB3q2lYvo409X"
        } ],
        "external_urls" : {
          "spotify" : "https://open.spotify.com/album/7KvnSQte04WfJIOdYzGiFM"
        },
        "href" : "https://api.spotify.com/v1/albums/7KvnSQte04WfJIOdYzGiFM",
        "id" : "7KvnSQte04WfJIOdYzGiFM",
        "images" : [ {
          "height" : 640,
          "url" : "https://i.scdn.co/image/ab67616d0000b273bd6969d4fd8b5a829c4e3c7d",
          "width" : 640
        }, {
          "height" : 300,
          "url" : "https://i.scdn.co/image/ab67616d00001e02bd6969d4fd8b5a829c4e3c7d",
          "width" : 300
        }, {
          "height" : 64,
          "url" : "https://i.scdn.co/image/ab67616d00004851bd6969d4fd8b5a829c4e3c7d",
          "width" : 64
        } ],
        "name" : "Very Humble Beginnings, Pt. 2",
        "release_date" : "2018-11-29",
        "release_date_precision" : "day",
        "total_tracks" : 7,
        "type" : "album",
        "uri" : "spotify:album:7KvnSQte04WfJIOdYzGiFM"
      },
      "artists" : [ {
        "external_urls" : {
          "spotify" : "https://open.spotify.com/artist/6Rt3JMGOdCB3q2lYvo409X"
        },
        "href" : "https://api.spotify.com/v1/artists/6Rt3JMGOdCB3q2lYvo409X",
        "id" : "6Rt3JMGOdCB3q2lYvo409X",
        "name" : "Cash Clay",
        "type" : "artist",
        "uri" : "spotify:artist:6Rt3JMGOdCB3q2lYvo409X"
      } ],
      "disc_number" : 1,
      "duration_ms" : 160026,
      "explicit" : true,
      "external_ids" : {
        "isrc" : "QZES81852553"
      },
      "external_urls" : {
        "spotify" : "https://open.spotify.com/track/38OqL7ebkD8uX5FiYmeAMI"
      },
      "href" : "https://api.spotify.com/v1/tracks/38OqL7ebkD8uX5FiYmeAMI",
      "id" : "38OqL7ebkD8uX5FiYmeAMI",
      "is_local" : false,
      "is_playable" : true,
      "name" : "10 Thousand Times",
      "popularity" : 4,
      "preview_url" : "https://p.scdn.co/mp3-preview/5fcdf2d72b85e3182c72d01fa0b6b68eca9d7da7?cid=774b29d4f13844c495f206cafdad9c86",
      "track_number" : 1,
      "type" : "track",
      "uri" : "spotify:track:38OqL7ebkD8uX5FiYmeAMI"
    }, {
      "album" : {
        "album_type" : "album",
        "artists" : [ {
          "external_urls" : {
            "spotify" : "https://open.spotify.com/artist/6mEohczxsctzkEIU0WAeWD"
          },
          "href" : "https://api.spotify.com/v1/artists/6mEohczxsctzkEIU0WAeWD",
          "id" : "6mEohczxsctzkEIU0WAeWD",
          "name" : "Christian Death",
          "type" : "artist",
          "uri" : "spotify:artist:6mEohczxsctzkEIU0WAeWD"
        } ],
        "external_urls" : {
          "spotify" : "https://open.spotify.com/album/4naMiHNfQn12kZzAdryMFd"
        },
        "href" : "https://api.spotify.com/v1/albums/4naMiHNfQn12kZzAdryMFd",
        "id" : "4naMiHNfQn12kZzAdryMFd",
        "images" : [ {
          "height" : 640,
          "url" : "https://i.scdn.co/image/ab67616d0000b27399eaec8bae00e13ee1bcba2c",
          "width" : 640
        }, {
          "height" : 300,
          "url" : "https://i.scdn.co/image/ab67616d00001e0299eaec8bae00e13ee1bcba2c",
          "width" : 300
        }, {
          "height" : 64,
          "url" : "https://i.scdn.co/image/ab67616d0000485199eaec8bae00e13ee1bcba2c",
          "width" : 64
        } ],
        "name" : "Sex and Drugs and Jesus Christ",
        "release_date" : "1988-07-18",
        "release_date_precision" : "day",
        "total_tracks" : 11,
        "type" : "album",
        "uri" : "spotify:album:4naMiHNfQn12kZzAdryMFd"
      },
      "artists" : [ {
        "external_urls" : {
          "spotify" : "https://open.spotify.com/artist/6mEohczxsctzkEIU0WAeWD"
        },
        "href" : "https://api.spotify.com/v1/artists/6mEohczxsctzkEIU0WAeWD",
        "id" : "6mEohczxsctzkEIU0WAeWD",
        "name" : "Christian Death",
        "type" : "artist",
        "uri" : "spotify:artist:6mEohczxsctzkEIU0WAeWD"
      } ],
      "disc_number" : 1,
      "duration_ms" : 282226,
      "explicit" : true,
      "external_ids" : {
        "isrc" : "TCABZ1411896"
      },
      "external_urls" : {
        "spotify" : "https://open.spotify.com/track/5By7yJchXY0cT7ZlqaHwtv"
      },
      "href" : "https://api.spotify.com/v1/tracks/5By7yJchXY0cT7ZlqaHwtv",
      "id" : "5By7yJchXY0cT7ZlqaHwtv",
      "is_local" : false,
      "is_playable" : true,
      "name" : "Ten Thousand Hundred Times",
      "popularity" : 5,
      "preview_url" : "https://p.scdn.co/mp3-preview/55ea0e9bb5248667a90083f4695c735de39aea2c?cid=774b29d4f13844c495f206cafdad9c86",
      "track_number" : 6,
      "type" : "track",
      "uri" : "spotify:track:5By7yJchXY0cT7ZlqaHwtv"
    }, {
      "album" : {
        "album_type" : "album",
        "artists" : [ {
          "external_urls" : {
            "spotify" : "https://open.spotify.com/artist/1VuzH0JD5KoI12gIZ1olxg"
          },
          "href" : "https://api.spotify.com/v1/artists/1VuzH0JD5KoI12gIZ1olxg",
          "id" : "1VuzH0JD5KoI12gIZ1olxg",
          "name" : "Crowe",
          "type" : "artist",
          "uri" : "spotify:artist:1VuzH0JD5KoI12gIZ1olxg"
        } ],
        "external_urls" : {
          "spotify" : "https://open.spotify.com/album/6A9FUG9RYenYKXlzTEMqpW"
        },
        "href" : "https://api.spotify.com/v1/albums/6A9FUG9RYenYKXlzTEMqpW",
        "id" : "6A9FUG9RYenYKXlzTEMqpW",
        "images" : [ {
          "height" : 640,
          "url" : "https://i.scdn.co/image/ab67616d0000b273c7698381f22ab959a8417d33",
          "width" : 640
        }, {
          "height" : 300,
          "url" : "https://i.scdn.co/image/ab67616d00001e02c7698381f22ab959a8417d33",
          "width" : 300
        }, {
          "height" : 64,
          "url" : "https://i.scdn.co/image/ab67616d00004851c7698381f22ab959a8417d33",
          "width" : 64
        } ],
        "name" : "Ten Thousand Times Ten Thousand",
        "release_date" : "2010-03-01",
        "release_date_precision" : "day",
        "total_tracks" : 10,
        "type" : "album",
        "uri" : "spotify:album:6A9FUG9RYenYKXlzTEMqpW"
      },
      "artists" : [ {
        "external_urls" : {
          "spotify" : "https://open.spotify.com/artist/1VuzH0JD5KoI12gIZ1olxg"
        },
        "href" : "https://api.spotify.com/v1/artists/1VuzH0JD5KoI12gIZ1olxg",
        "id" : "1VuzH0JD5KoI12gIZ1olxg",
        "name" : "Crowe",
        "type" : "artist",
        "uri" : "spotify:artist:1VuzH0JD5KoI12gIZ1olxg"
      } ],
      "disc_number" : 1,
      "duration_ms" : 320293,
      "explicit" : false,
      "external_ids" : {
        "isrc" : "uscgj1077804"
      },
      "external_urls" : {
        "spotify" : "https://open.spotify.com/track/5GSqWIqe7HmZpkj5ClxaG2"
      },
      "href" : "https://api.spotify.com/v1/tracks/5GSqWIqe7HmZpkj5ClxaG2",
      "id" : "5GSqWIqe7HmZpkj5ClxaG2",
      "is_local" : false,
      "is_playable" : true,
      "name" : "Soldiers of Christ Arise",
      "popularity" : 2,
      "preview_url" : "https://p.scdn.co/mp3-preview/4b8b8de866777ca137bd4e184487b231184c70de?cid=774b29d4f13844c495f206cafdad9c86",
      "track_number" : 5,
      "type" : "track",
      "uri" : "spotify:track:5GSqWIqe7HmZpkj5ClxaG2"
    }, {
      "album" : {
        "album_type" : "album",
        "artists" : [ {
          "external_urls" : {
            "spotify" : "https://open.spotify.com/artist/0sjwhU1NNcciyPXUnzzNu4"
          },
          "href" : "https://api.spotify.com/v1/artists/0sjwhU1NNcciyPXUnzzNu4",
          "id" : "0sjwhU1NNcciyPXUnzzNu4",
          "name" : "The Pilgrim Project",
          "type" : "artist",
          "uri" : "spotify:artist:0sjwhU1NNcciyPXUnzzNu4"
        } ],
        "external_urls" : {
          "spotify" : "https://open.spotify.com/album/14pEV0v8fAltJZBZGq99VS"
        },
        "href" : "https://api.spotify.com/v1/albums/14pEV0v8fAltJZBZGq99VS",
        "id" : "14pEV0v8fAltJZBZGq99VS",
        "images" : [ {
          "height" : 640,
          "url" : "https://i.scdn.co/image/ab67616d0000b27320472f017e618172e7acc55d",
          "width" : 640
        }, {
          "height" : 300,
          "url" : "https://i.scdn.co/image/ab67616d00001e0220472f017e618172e7acc55d",
          "width" : 300
        }, {
          "height" : 64,
          "url" : "https://i.scdn.co/image/ab67616d0000485120472f017e618172e7acc55d",
          "width" : 64
        } ],
        "name" : "Strength & Stay",
        "release_date" : "2018-10-10",
        "release_date_precision" : "day",
        "total_tracks" : 10,
        "type" : "album",
        "uri" : "spotify:album:14pEV0v8fAltJZBZGq99VS"
      },
      "artists" : [ {
        "external_urls" : {
          "spotify" : "https://open.spotify.com/artist/0sjwhU1NNcciyPXUnzzNu4"
        },
        "href" : "https://api.spotify.com/v1/artists/0sjwhU1NNcciyPXUnzzNu4",
        "id" : "0sjwhU1NNcciyPXUnzzNu4",
        "name" : "The Pilgrim Project",
        "type" : "artist",
        "uri" : "spotify:artist:0sjwhU1NNcciyPXUnzzNu4"
      } ],
      "disc_number" : 1,
      "duration_ms" : 179361,
      "explicit" : false,
      "external_ids" : {
        "isrc" : "ushm91847544"
      },
      "external_urls" : {
        "spotify" : "https://open.spotify.com/track/3hgXl2HabdSd1bddIJfF24"
      },
      "href" : "https://api.spotify.com/v1/tracks/3hgXl2HabdSd1bddIJfF24",
      "id" : "3hgXl2HabdSd1bddIJfF24",
      "is_local" : false,
      "is_playable" : true,
      "name" : "Ten Thousand Times Ten Thousand",
      "popularity" : 0,
      "preview_url" : "https://p.scdn.co/mp3-preview/122511fe10e240be84f330e84477c5e785579ec7?cid=774b29d4f13844c495f206cafdad9c86",
      "track_number" : 7,
      "type" : "track",
      "uri" : "spotify:track:3hgXl2HabdSd1bddIJfF24"
    }, {
      "album" : {
        "album_type" : "album",
        "artists" : [ {
          "external_urls" : {
            "spotify" : "https://open.spotify.com/artist/4BIG4azl4pJv9vfeHaDPhg"
          },
          "href" : "https://api.spotify.com/v1/artists/4BIG4azl4pJv9vfeHaDPhg",
          "id" : "4BIG4azl4pJv9vfeHaDPhg",
          "name" : "Moravian Lower Brass",
          "type" : "artist",
          "uri" : "spotify:artist:4BIG4azl4pJv9vfeHaDPhg"
        } ],
        "external_urls" : {
          "spotify" : "https://open.spotify.com/album/0lB5q0PBflCFOsPw33LF3z"
        },
        "href" : "https://api.spotify.com/v1/albums/0lB5q0PBflCFOsPw33LF3z",
        "id" : "0lB5q0PBflCFOsPw33LF3z",
        "images" : [ {
          "height" : 640,
          "url" : "https://i.scdn.co/image/ab67616d0000b273e13d5b087d4154344859d8aa",
          "width" : 640
        }, {
          "height" : 300,
          "url" : "https://i.scdn.co/image/ab67616d00001e02e13d5b087d4154344859d8aa",
          "width" : 300
        }, {
          "height" : 64,
          "url" : "https://i.scdn.co/image/ab67616d00004851e13d5b087d4154344859d8aa",
          "width" : 64
        } ],
        "name" : "Harmonious to Dwell",
        "release_date" : "2019-01-24",
        "release_date_precision" : "day",
        "total_tracks" : 38,
        "type" : "album",
        "uri" : "spotify:album:0lB5q0PBflCFOsPw33LF3z"
      },
      "artists" : [ {
        "external_urls" : {
          "spotify" : "https://open.spotify.com/artist/4BIG4azl4pJv9vfeHaDPhg"
        },
        "href" : "https://api.spotify.com/v1/artists/4BIG4azl4pJv9vfeHaDPhg",
        "id" : "4BIG4azl4pJv9vfeHaDPhg",
        "name" : "Moravian Lower Brass",
        "type" : "artist",
        "uri" : "spotify:artist:4BIG4azl4pJv9vfeHaDPhg"
      } ],
      "disc_number" : 1,
      "duration_ms" : 89120,
      "explicit" : false,
      "external_ids" : {
        "isrc" : "QMAAK1883088"
      },
      "external_urls" : {
        "spotify" : "https://open.spotify.com/track/39dlBvzi4oSCW8pDGNMAeE"
      },
      "href" : "https://api.spotify.com/v1/tracks/39dlBvzi4oSCW8pDGNMAeE",
      "id" : "39dlBvzi4oSCW8pDGNMAeE",
      "is_local" : false,
      "is_playable" : true,
      "name" : "Ten Thousand Times Ten Thousand",
      "popularity" : 0,
      "preview_url" : "https://p.scdn.co/mp3-preview/899ecef629e111183919447e0698d7195757fd94?cid=774b29d4f13844c495f206cafdad9c86",
      "track_number" : 37,
      "type" : "track",
      "uri" : "spotify:track:39dlBvzi4oSCW8pDGNMAeE"
    }, {
      "album" : {
        "album_type" : "album",
        "artists" : [ {
          "external_urls" : {
            "spotify" : "https://open.spotify.com/artist/1VuzH0JD5KoI12gIZ1olxg"
          },
          "href" : "https://api.spotify.com/v1/artists/1VuzH0JD5KoI12gIZ1olxg",
          "id" : "1VuzH0JD5KoI12gIZ1olxg",
          "name" : "Crowe",
          "type" : "artist",
          "uri" : "spotify:artist:1VuzH0JD5KoI12gIZ1olxg"
        } ],
        "external_urls" : {
          "spotify" : "https://open.spotify.com/album/6A9FUG9RYenYKXlzTEMqpW"
        },
        "href" : "https://api.spotify.com/v1/albums/6A9FUG9RYenYKXlzTEMqpW",
        "id" : "6A9FUG9RYenYKXlzTEMqpW",
        "images" : [ {
          "height" : 640,
          "url" : "https://i.scdn.co/image/ab67616d0000b273c7698381f22ab959a8417d33",
          "width" : 640
        }, {
          "height" : 300,
          "url" : "https://i.scdn.co/image/ab67616d00001e02c7698381f22ab959a8417d33",
          "width" : 300
        }, {
          "height" : 64,
          "url" : "https://i.scdn.co/image/ab67616d00004851c7698381f22ab959a8417d33",
          "width" : 64
        } ],
        "name" : "Ten Thousand Times Ten Thousand",
        "release_date" : "2010-03-01",
        "release_date_precision" : "day",
        "total_tracks" : 10,
        "type" : "album",
        "uri" : "spotify:album:6A9FUG9RYenYKXlzTEMqpW"
      },
      "artists" : [ {
        "external_urls" : {
          "spotify" : "https://open.spotify.com/artist/1VuzH0JD5KoI12gIZ1olxg"
        },
        "href" : "https://api.spotify.com/v1/artists/1VuzH0JD5KoI12gIZ1olxg",
        "id" : "1VuzH0JD5KoI12gIZ1olxg",
        "name" : "Crowe",
        "type" : "artist",
        "uri" : "spotify:artist:1VuzH0JD5KoI12gIZ1olxg"
      } ],
      "disc_number" : 1,
      "duration_ms" : 244160,
      "explicit" : false,
      "external_ids" : {
        "isrc" : "uscgj1077801"
      },
      "external_urls" : {
        "spotify" : "https://open.spotify.com/track/1tZ6YWzAZOgR38Rd9zKrEm"
      },
      "href" : "https://api.spotify.com/v1/tracks/1tZ6YWzAZOgR38Rd9zKrEm",
      "id" : "1tZ6YWzAZOgR38Rd9zKrEm",
      "is_local" : false,
      "is_playable" : true,
      "name" : "Ten Thousand Times Ten Thousand",
      "popularity" : 2,
      "preview_url" : "https://p.scdn.co/mp3-preview/8fdbdb952e1ad528014c31832d27bb54bb8c757f?cid=774b29d4f13844c495f206cafdad9c86",
      "track_number" : 2,
      "type" : "track",
      "uri" : "spotify:track:1tZ6YWzAZOgR38Rd9zKrEm"
    }, {
      "album" : {
        "album_type" : "album",
        "artists" : [ {
          "external_urls" : {
            "spotify" : "https://open.spotify.com/artist/0kNUMWsJHJ5s41FaPnvKki"
          },
          "href" : "https://api.spotify.com/v1/artists/0kNUMWsJHJ5s41FaPnvKki",
          "id" : "0kNUMWsJHJ5s41FaPnvKki",
          "name" : "Mike Bryant",
          "type" : "artist",
          "uri" : "spotify:artist:0kNUMWsJHJ5s41FaPnvKki"
        } ],
        "external_urls" : {
          "spotify" : "https://open.spotify.com/album/2FrYPNcwSUN6bsGUs7jxpJ"
        },
        "href" : "https://api.spotify.com/v1/albums/2FrYPNcwSUN6bsGUs7jxpJ",
        "id" : "2FrYPNcwSUN6bsGUs7jxpJ",
        "images" : [ {
          "height" : 640,
          "url" : "https://i.scdn.co/image/ab67616d0000b273299485d8fa2ae685ac180190",
          "width" : 640
        }, {
          "height" : 300,
          "url" : "https://i.scdn.co/image/ab67616d00001e02299485d8fa2ae685ac180190",
          "width" : 300
        }, {
          "height" : 64,
          "url" : "https://i.scdn.co/image/ab67616d00004851299485d8fa2ae685ac180190",
          "width" : 64
        } ],
        "name" : "Holy Ground",
        "release_date" : "2016-03-28",
        "release_date_precision" : "day",
        "total_tracks" : 16,
        "type" : "album",
        "uri" : "spotify:album:2FrYPNcwSUN6bsGUs7jxpJ"
      },
      "artists" : [ {
        "external_urls" : {
          "spotify" : "https://open.spotify.com/artist/0kNUMWsJHJ5s41FaPnvKki"
        },
        "href" : "https://api.spotify.com/v1/artists/0kNUMWsJHJ5s41FaPnvKki",
        "id" : "0kNUMWsJHJ5s41FaPnvKki",
        "name" : "Mike Bryant",
        "type" : "artist",
        "uri" : "spotify:artist:0kNUMWsJHJ5s41FaPnvKki"
      } ],
      "disc_number" : 1,
      "duration_ms" : 312816,
      "explicit" : false,
      "external_ids" : {
        "isrc" : "uscgj1638703"
      },
      "external_urls" : {
        "spotify" : "https://open.spotify.com/track/3wBckv08Mkgkwhym1q4vwP"
      },
      "href" : "https://api.spotify.com/v1/tracks/3wBckv08Mkgkwhym1q4vwP",
      "id" : "3wBckv08Mkgkwhym1q4vwP",
      "is_local" : false,
      "is_playable" : true,
      "name" : "Ten Thousand Times Ten Thousand",
      "popularity" : 0,
      "preview_url" : "https://p.scdn.co/mp3-preview/cadc3558fd07bda50d45cd22904f9b0929dfca22?cid=774b29d4f13844c495f206cafdad9c86",
      "track_number" : 13,
      "type" : "track",
      "uri" : "spotify:track:3wBckv08Mkgkwhym1q4vwP"
    }, {
      "album" : {
        "album_type" : "album",
        "artists" : [ {
          "external_urls" : {
            "spotify" : "https://open.spotify.com/artist/01AXustJlffGxXaDQBG8tJ"
          },
          "href" : "https://api.spotify.com/v1/artists/01AXustJlffGxXaDQBG8tJ",
          "id" : "01AXustJlffGxXaDQBG8tJ",
          "name" : "Table Singers",
          "type" : "artist",
          "uri" : "spotify:artist:01AXustJlffGxXaDQBG8tJ"
        } ],
        "external_urls" : {
          "spotify" : "https://open.spotify.com/album/25joTz7lf55svEeF99R1NL"
        },
        "href" : "https://api.spotify.com/v1/albums/25joTz7lf55svEeF99R1NL",
        "id" : "25joTz7lf55svEeF99R1NL",
        "images" : [ {
          "height" : 640,
          "url" : "https://i.scdn.co/image/ab67616d0000b2733ea41075a092a5e75334fa76",
          "width" : 640
        }, {
          "height" : 300,
          "url" : "https://i.scdn.co/image/ab67616d00001e023ea41075a092a5e75334fa76",
          "width" : 300
        }, {
          "height" : 64,
          "url" : "https://i.scdn.co/image/ab67616d000048513ea41075a092a5e75334fa76",
          "width" : 64
        } ],
        "name" : "In Thy Holy Place",
        "release_date" : "1993-11-01",
        "release_date_precision" : "day",
        "total_tracks" : 29,
        "type" : "album",
        "uri" : "spotify:album:25joTz7lf55svEeF99R1NL"
      },
      "artists" : [ {
        "external_urls" : {
          "spotify" : "https://open.spotify.com/artist/01AXustJlffGxXaDQBG8tJ"
        },
        "href" : "https://api.spotify.com/v1/artists/01AXustJlffGxXaDQBG8tJ",
        "id" : "01AXustJlffGxXaDQBG8tJ",
        "name" : "Table Singers",
        "type" : "artist",
        "uri" : "spotify:artist:01AXustJlffGxXaDQBG8tJ"
      } ],
      "disc_number" : 1,
      "duration_ms" : 87936,
      "explicit" : false,
      "external_ids" : {
        "isrc" : "uscgh2015852"
      },
      "external_urls" : {
        "spotify" : "https://open.spotify.com/track/5H0HfcfBLUsAoAsJA6PQtM"
      },
      "href" : "https://api.spotify.com/v1/tracks/5H0HfcfBLUsAoAsJA6PQtM",
      "id" : "5H0HfcfBLUsAoAsJA6PQtM",
      "is_local" : false,
      "is_playable" : true,
      "name" : "Ten Thousand Times Ten Thousand",
      "popularity" : 0,
      "preview_url" : "https://p.scdn.co/mp3-preview/80b642a50b7ad00ae9a4246ba86233c9a2ea47d1?cid=774b29d4f13844c495f206cafdad9c86",
      "track_number" : 20,
      "type" : "track",
      "uri" : "spotify:track:5H0HfcfBLUsAoAsJA6PQtM"
    } ],
    "limit" : 10,
    "next" : "https://api.spotify.com/v1/search?query=Ten+Thousand+Times+Ten+Thousand&type=track&market=US&offset=15&limit=10",
    "offset" : 5,
    "previous" : "https://api.spotify.com/v1/search?query=Ten+Thousand+Times+Ten+Thousand&type=track&market=US&offset=0&limit=10",
    "total" : 56
  }
}