{
  "tracks" : {
    "href" : "https://api.spotify.com/v1/search?query=A+Quiet+Place&type=track&market=US&offset=5&limit=10",
    "items" : [ {
      "album" : {
        "album_type" : "single",
        "artists" : [ {
          "external_urls" : {
            "spotify" : "https://open.spotify.com/artist/0K45rZJcsY0rnclG0fPQ8r"
          },
          "href" : "https://api.spotify.com/v1/artists/0K45rZJcsY0rnclG0fPQ8r",
          "id" : "0K45rZJcsY0rnclG0fPQ8r",
          "name" : "Somniacs",
          "type" : "artist",
          "uri" : "spotify:artist:0K45rZJcsY0rnclG0fPQ8r"
        }, {
          "external_urls" : {
            "spotify" : "https://open.spotify.com/artist/0oGuRxr8O9eLnI4MS3pkTt"
          },
          "href" : "https://api.spotify.com/v1/artists/0oGuRxr8O9eLnI4MS3pkTt",
          "id" : "0oGuRxr8O9eLnI4MS3pkTt",
          "name" : "bzur",
          "type" : "artist",
          "uri" : "spotify:artist:0oGuRxr8O9eLnI4MS3pkTt"
        } ],
        "external_urls" : {
          "spotify" : "https://open.spotify.com/album/2SKYARuFyLbBtIfHTyHz4C"
        },
        "href" : "https://api.spotify.com/v1/albums/2SKYARuFyLbBtIfHTyHz4C",
        "id" : "2SKYARuFyLbBtIfHTyHz4C",
        "images" : [ {
          "height" : 640,
          "url" : "https://i.scdn.co/image/ab67616d0000b273c44ac673cc487c5bddaee0d8",
          "width" : 640
        }, {
          "height" : 300,
          "url" : "https://i.scdn.co/image/ab67616d00001e02c44ac673cc487c5bddaee0d8",
          "width" : 300
        }, {
          "height" : 64,
          "url" : "https://i.scdn.co/image/ab67616d00004851c44ac673cc487c5bddaee0d8",
          "width" : 64
        } ],
        "name" : "A Quiet Place",
        "release_date" : "2019-06-07",
        "release_date_precision" : "day",
        "total_tracks" : 1,
        "type" : "album",
        "uri" : "spotify:album:2SKYARuFyLbBtIfHTyHz4C"
      },
      "artists" : [ {
        "external_urls" : {
          "spotify" : "https://open.spotify.com/artist/0K45rZJcsY0rnclG0fPQ8r"
        },
        "href" : "https://api.spotify.com/v1/artists/0K45rZJcsY0rnclG0fPQ8r",
        "id" : "0K45rZJcsY0rnclG0fPQ8r",
        "name" : "Somniacs",
        "type" : "artist",
        "uri" : "spotify:artist:0K45rZJcsY0rnclG0fPQ8r"
      }, {
        "external_urls" : {
          "spotify" : "https://open.spotify.com/artist/0oGuRxr8O9eLnI4MS3pkTt"
        },
        "href" : "https://api.spotify.com/v1/artists/0oGuRxr8O9eLnI4MS3pkTt",
        "id" : "0oGuRxr8O9eLnI4MS3pkTt",
        "name" : "bzur",
        "type" : "artist",
        "uri" : "spotify:artist:0oGuRxr8O9eLnI4MS3pkTt"
      } ],
      "disc_number" : 1,
      "duration_ms" : 136723,
      "explicit" : false,
      "external_ids" : {
        "isrc" : "QM24S1919881"
      },
      "external_urls" : {
        "spotify" : "https://open.spotify.com/track/7cSdzBl3poLyXP8bJmJ9NQ"
      },
      "href" : "https://api.spotify.com/v1/tracks/7cSdzBl3poLyXP8bJmJ9NQ",
      "id" : "7cSdzBl3poLyXP8bJmJ9NQ",
      "is_local" : false,
      "is_playable" : true,
      "name" : "A Quiet Place",
      "popularity" : 34,
      "preview_url" : "https://p.scdn.co/mp3-preview/bbd35cf2300dd793e1a2bb43098d08b852eacbb5?cid=774b29d4f13844c495f206cafdad9c86",
      "track_number" : 1,
      "type" : "track",
      "uri" : "spotify:track:7cSdzBl3poLyXP8bJmJ9NQ"
    }, {
      "album" : {
        "album_type" : "single",
        "artists" : [ {
          "external_urls" : {
            "spotify" : "https://open.spotify.com/artist/3LtlJprzuq0Ii8p8YFZXai"
          },
          "href" : "https://api.spotify.com/v1/artists/3LtlJprzuq0Ii8p8YFZXai",
          "id" : "3LtlJprzuq0Ii8p8YFZXai",
          "name" : "Peter Sandberg",
          "type" : "artist",
          "uri" : "spotify:artist:3LtlJprzuq0Ii8p8YFZXai"
        } ],
        "external_urls" : {
          "spotify" : "https://open.spotify.com/album/6dsF0C8WDSkgm12Ox52n0y"
        },
        "href" : "https://api.spotify.com/v1/albums/6dsF0C8WDSkgm12Ox52n0y",
        "id" : "6dsF0C8WDSkgm12Ox52n0y",
        "images" : [ {
          "height" : 640,
          "url" : "https://i.scdn.co/image/ab67616d0000b2733d455663ea0f2a362beef7d1",
          "width" : 640
        }, {
          "height" : 300,
          "url" : "https://i.scdn.co/image/ab67616d00001e023d455663ea0f2a362beef7d1",
          "width" : 300
        }, {
          "height" : 64,
          "url" : "https://i.scdn.co/image/ab67616d000048513d455663ea0f2a362beef7d1",
          "width" : 64
        } ],
        "name" : "The Significant One",
        "release_date" : "2016-02-02",
        "release_date_precision" : "day",
        "total_tracks" : 4,
        "type" : "album",
        "uri" : "spotify:album:6dsF0C8WDSkgm12Ox52n0y"
      },
      "artists" : [ {
        "external_urls" : {
          "spotify" : "https://open.spotify.com/artist/3LtlJprzuq0Ii8p8YFZXai"
        },
        "href" : "https://api.spotify.com/v1/artists/3LtlJprzuq0Ii8p8YFZXai",
        "id" : "3LtlJprzuq0Ii8p8YFZXai",
        "name" : "Peter Sandberg",
        "type" : "artist",
        "uri" : "spotify:artist:3LtlJprzuq0Ii8p8YFZXai"
      } ],
      "disc_number" : 1,
      "duration_ms" : 108000,
      "explicit" : false,
      "external_ids" : {
        "isrc" : "SE5Q51700444"
      },
      "external_urls" : {
        "spotify" : "https://open.spotify.com/track/69dVKVZXHsTttJbFeUjujb"
      },
      "href" : "https://api.spotify.com/v1/tracks/69dVKVZXHsTttJbFeUjujb",
      "id" : "69dVKVZXHsTttJbFeUjujb",
      "is_local" : false,
      "is_playable" : true,
      "name" : "A Quiet Place",
      "popularity" : 33,
      "preview_url" : "https://p.scdn.co/mp3-preview/9e777c90e0cbf108b304462fab8a40956fdcac31?cid=774b29d4f13844c495f206cafdad9c86",
      "track_number" : 4,
      "type" : "track",
      "uri" : "spotify:track:69dVKVZXHsTttJbFeUjujb"
    }, {
      "album" : {
        "album_type" : "single",
        "artists" : [ {
          "external_urls" : {
            "spotify" : "https://open.spotify.com/artist/0vpi2tMaHCn6YHS6L7qgoe"
          },
          "href" : "https://api.spotify.com/v1/artists/0vpi2tMaHCn6YHS6L7qgoe",
          "id" : "0vpi2tMaHCn6YHS6L7qgoe",
          "name" : "eugenio izzi",
          "type" : "artist",
          "uri" : "spotify:artist:0vpi2tMaHCn6YHS6L7qgoe"
        } ],
        "external_urls" : {
          "spotify" : "https://open.spotify.com/album/3fjTbjS0DhohdOHEJuPkCU"
        },
        "href" : "https://api.spotify.com/v1/albums/3fjTbjS0DhohdOHEJuPkCU",
        "id" : "3fjTbjS0DhohdOHEJuPkCU",
        "images" : [ {
          "height" : 640,
          "url" : "https://i.scdn.co/image/ab67616d0000b27362d03ef7be7efd192f2bb8dc",
          "width" : 640
        }, {
          "height" : 300,
          "url" : "https://i.scdn.co/image/ab67616d00001e0262d03ef7be7efd192f2bb8dc",
          "width" : 300
        }, {
          "height" : 64,
          "url" : "https://i.scdn.co/image/ab67616d0000485162d03ef7be7efd192f2bb8dc",
          "width" : 64
        } ],
        "name" : "Chillate",
        "release_date" : "2019-08-23",
        "release_date_precision" : "day",
        "total_tracks" : 4,
        "type" : "album",
        "uri" : "spotify:album:3fjTbjS0DhohdOHEJuPkCU"
      },
      "artists" : [ {
        "external_urls" : {
          "spotify" : "https://open.spotify.com/artist/0vpi2tMaHCn6YHS6L7qgoe"
        },
        "href" : "https://api.spotify.com/v1/artists/0vpi2tMaHCn6YHS6L7qgoe",
        "id" : "0vpi2tMaHCn6YHS6L7qgoe",
        "name" : "eugenio izzi",
        "type" : "artist",
        "uri" : "spotify:artist:0vpi2tMaHCn6YHS6L7qgoe"
      } ],
      "disc_number" : 1,
      "duration_ms" : 140800,
      "explicit" : false,
      "external_ids" : {
        "isrc" : "QZFZ61958079"
      },
      "external_urls" : {
        "spotify" : "https://open.spotify.com/track/74YJXgVaMt97Dl3MHZyBoQ"
      },
      "href" : "https://api.spotify.com/v1/tracks/74YJXgVaMt97Dl3MHZyBoQ",
      "id" : "74YJXgVaMt97Dl3MHZyBoQ",
      "is_local" : false,
      "is_playable" : true,
      "name" : "A Quiet Place in My Heart",
      "popularity" : 23,
      "preview_url" : "https://p.scdn.co/mp3-preview/6ee0d8580565cb73cd040f2fbe121d205869f8ca?cid=774b29d4f13844c495f206cafdad9c86",
      "track_number" : 2,
      "type" : "track",
      "uri" : "spotify:track:74YJXgVaMt97Dl3MHZyBoQ"
    }, {
      "album" : {
        "album_type" : "album",
        "artists" : [ {
          "external_urls" : {
            "spotify" : "https://open.spotify.com/artist/7GVByFFfFJYCzK4d8ZyL6s"
          },
          "href" : "https://api.spotify.com/v1/artists/7GVByFFfFJYCzK4d8ZyL6s",
          "id" : "7GVByFFfFJYCzK4d8ZyL6s",
          "name" : "We Lost The Sea",
          "type" : "artist",
          "uri" : "spotify:artist:7GVByFFfFJYCzK4d8ZyL6s"
        } ],
        "external_urls" : {
          "spotify" : "https://open.spotify.com/album/5H9TLaurimStoDvLgeX3BC"
        },
        "href" : "https://api.spotify.com/v1/albums/5H9TLaurimStoDvLgeX3BC",
        "id" : "5H9TLaurimStoDvLgeX3BC",
        "images" : [ {
          "height" : 640,
          "url" : "https://i.scdn.co/image/ab67616d0000b273ae0de08f723a15bd3696fb77",
          "width" : 640
        }, {
          "height" : 300,
          "url" : "https://i.scdn.co/image/ab67616d00001e02ae0de08f723a15bd3696fb77",
          "width" : 300
        }, {
          "height" : 64,
          "url" : "https://i.scdn.co/image/ab67616d00004851ae0de08f723a15bd3696fb77",
          "width" : 64
        } ],
        "name" : "The Quietest Place On Earth",
        "release_date" : "2012-12-01",
        "release_date_precision" : "day",
        "total_tracks" : 7,
        "type" : "album",
        "uri" : "spotify:album:5H9TLaurimStoDvLgeX3BC"
      },
      "artists" : [ {
        "external_urls" : {
          "spotify" : "https://open.spotify.com/artist/7GVByFFfFJYCzK4d8ZyL6s"
        },
        "href" : "https://api.spotify.com/v1/artists/7GVByFFfFJYCzK4d8ZyL6s",
        "id" : "7GVByFFfFJYCzK4d8ZyL6s",
        "name" : "We Lost The Sea",
        "type" : "artist",
        "uri" : "spotify:artist:7GVByFFfFJYCzK4d8ZyL6s"
      } ],
      "disc_number" : 1,
      "duration_ms" : 474746,
      "explicit" : false,
      "external_ids" : {
        "isrc" : "AUAJ11200059"
      },
      "external_urls" : {
        "spotify" : "https://open.spotify.com/track/2RUUpsJulrxJgs6xhz4LE1"
      },
      "href" : "https://api.spotify.com/v1/tracks/2RUUpsJulrxJgs6xhz4LE1",
      "id" : "2RUUpsJulrxJgs6xhz4LE1",
      "is_local" : false,
      "is_playable" : true,
      "name" : "A Quiet Place",
      "popularity" : 21,
      "preview_url" : "https://p.scdn.co/mp3-preview/cae7fcd161e2bbe49ced7f02183f401c4c653ce6?cid=774b29d4f13844c495f206cafdad9c86",
      "track_number" : 1,
      "type" : "track",
      "uri" : "spotify:track:2RUUpsJulrxJgs6xhz4LE1"
    }, {
      "album" : {
        "album_type" : "album",
        "artists" : [ {
          "external_urls" : {
            "spotify" : "https://open.spotify.com/artist/3rMjDScj1wZuL91Yj0NIlT"
          },
          "href" : "https://api.spotify.com/v1/artists/3rMjDScj1wZuL91Yj0NIlT",
          "id" : "3rMjDScj1wZuL91Yj0NIlT",
          "name" : "Cat Music Jukebox",
          "type" : "artist",
          "uri" : "spotify:artist:3rMjDScj1wZuL91Yj0NIlT"
        } ],
        "external_urls" : {
          "spotify" : "https://open.spotify.com/album/1nTKGSCLQxCPSAW7K0BSgv"
        },
        "href" : "https://api.spotify.com/v1/albums/1nTKGSCLQxCPSAW7K0BSgv",
        "id" : "1nTKGSCLQxCPSAW7K0BSgv",
        "images" : [ {
          "height" : 640,
          "url" : "https://i.scdn.co/image/ab67616d0000b273538c2e390b872d59396df6e4",
          "width" : 640
        }, {
          "height" : 300,
          "url" : "https://i.scdn.co/image/ab67616d00001e02538c2e390b872d59396df6e4",
          "width" : 300
        }, {
          "height" : 64,
          "url" : "https://i.scdn.co/image/ab67616d00004851538c2e390b872d59396df6e4",
          "width" : 64
        } ],
        "name" : "Relaxing Sounds for Cats, Vol. 2",
        "release_date" : "2019-11-28",
        "release_date_precision" : "day",
        "total_tracks" : 9,
        "type" : "album",
        "uri" : "spotify:album:1nTKGSCLQxCPSAW7K0BSgv"
      },
      "artists" : [ {
        "external_urls" : {
          "spotify" : "https://open.spotify.com/artist/3rMjDScj1wZuL91Yj0NIlT"
        },
        "href" : "https://api.spotify.com/v1/artists/3rMjDScj1wZuL91Yj0NIlT",
        "id" : "3rMjDScj1wZuL91Yj0NIlT",
        "name" : "Cat Music Jukebox",
        "type" : "artist",
        "uri" : "spotify:artist:3rMjDScj1wZuL91Yj0NIlT"
      } ],
      "disc_number" : 1,
      "duration_ms" : 218598,
      "explicit" : false,
      "external_ids" : {
        "isrc" : "usl4q1987396"
      },
      "external_urls" : {
        "spotify" : "https://open.spotify.com/track/2x3lp9q2WvdXXUor6YCPQ0"
      },
      "href" : "https://api.spotify.com/v1/tracks/2x3lp9q2WvdXXUor6YCPQ0",
      "id" : "2x3lp9q2WvdXXUor6YCPQ0",
      "is_local" : false,
      "is_playable" : true,
      "name" : "A Quiet Place for Furry Friends",
      "popularity" : 20,
      "preview_url" : "https://p.scdn.co/mp3-preview/b42542b7f69d10c715dffc250946cfe84f14ab34?cid=774b29d4f13844c495f206cafdad9c86",
      "track_number" : 3,
      "type" : "track",
      "uri" : "spotify:track:2x3lp9q2WvdXXUor6YCPQ0"
    }, {
      "album" : {
        "album_type" : "album",
        "artists" : [ {
          "external_urls" : {
            "spotify" : "https://open.spotify.com/artist/53LVoipNTQ4lvUSJ61XKU3"
          },
          "href" : "https://api.spotify.com/v1/artists/53LVoipNTQ4lvUSJ61XKU3",
          "id" : "53LVoipNTQ4lvUSJ61XKU3",
          "name" : "MONO",
          "type" : "artist",
          "uri" : "spotify:artist:53LVoipNTQ4lvUSJ61XKU3"
        } ],
        "external_urls" : {
          "spotify" : "https://open.spotify.com/album/6opyD7uglB1PNlT8awZdSW"
        },
        "href" : "https://api.spotify.com/v1/albums/6opyD7uglB1PNlT8awZdSW",
        "id" : "6opyD7uglB1PNlT8awZdSW",
        "images" : [ {
          "height" : 640,
          "url" : "https://i.scdn.co/image/ab67616d0000b273255d7ad60adc0d2cd97cd7b1",
          "width" : 640
        }, {
          "height" : 300,
          "url" : "https://i.scdn.co/image/ab67616d00001e02255d7ad60adc0d2cd97cd7b1",
          "width" : 300
        }, {
          "height" : 64,
          "url" : "https://i.scdn.co/image/ab67616d00004851255d7ad60adc0d2cd97cd7b1",
          "width" : 64
        } ],
        "name" : "For My Parents",
        "release_date" : "2012-09-04",
        "release_date_precision" : "day",
        "total_tracks" : 5,
        "type" : "album",
        "uri" : "spotify:album:6opyD7uglB1PNlT8awZdSW"
      },
      "artists" : [ {
        "external_urls" : {
          "spotify" : "https://open.spotify.com/artist/53LVoipNTQ4lvUSJ61XKU3"
        },
        "href" : "https://api.spotify.com/v1/artists/53LVoipNTQ4lvUSJ61XKU3",
        "id" : "53LVoipNTQ4lvUSJ61XKU3",
        "name" : "MONO",
        "type" : "artist",
        "uri" : "spotify:artist:53LVoipNTQ4lvUSJ61XKU3"
      } ],
      "disc_number" : 1,
      "duration_ms" : 565946,
      "explicit" : false,
      "external_ids" : {
        "isrc" : "USY6C1221305"
      },
      "external_urls" : {
        "spotify" : "https://open.spotify.com/track/4Q85lCn3q5tyEzTvAcH0pZ"
      },
      "href" : "https://api.spotify.com/v1/tracks/4Q85lCn3q5tyEzTvAcH0pZ",
      "id" : "4Q85lCn3q5tyEzTvAcH0pZ",
      "is_local" : false,
      "is_playable" : true,
      "name" : "A Quiet Place (Together We Go)",
      "popularity" : 21,
      "preview_url" : "https://p.scdn.co/mp3-preview/763403e5bb944b22dc72206c934f6f0936d374dd?cid=774b29d4f13844c495f206cafdad9c86",
      "track_number" : 5,
      "type" : "track",
      "uri" : "spotify:track:4Q85lCn3q5tyEzTvAcH0pZ"
    }, {
      "album" : {
        "album_type" : "album",
        "artists" : [ {
          "external_urls" : {
            "spotify" : "https://open.spotify.com/artist/3mxJuHRn2ZWD5OofvJtDZY"
          },
          "href" : "https://api.spotify.com/v1/artists/3mxJuHRn2ZWD5OofvJtDZY",
          "id" : "3mxJuHRn2ZWD5OofvJtDZY",
          "name" : "Jesse Markin",
          "type" : "artist",
          "uri" : "spotify:artist:3mxJuHRn2ZWD5OofvJtDZY"
        } ],
        "external_urls" : {
          "spotify" : "https://open.spotify.com/album/1AljC7cv1mlbacQ5gNzqP2"
        },
        "href" : "https://api.spotify.com/v1/albums/1AljC7cv1mlbacQ5gNzqP2",
        "id" : "1AljC7cv1mlbacQ5gNzqP2",
        "images" : [ {
          "height" : 640,
          "url" : "https://i.scdn.co/image/ab67616d0000b27342de246e58953bed02506eac",
          "width" : 640
        }, {
          "height" : 300,
          "url" : "https://i.scdn.co/image/ab67616d00001e0242de246e58953bed02506eac",
          "width" : 300
        }, {
          "height" : 64,
          "url" : "https://i.scdn.co/image/ab67616d0000485142de246e58953bed02506eac",
          "width" : 64
        } ],
        "name" : "FOLK",
        "release_date" : "2019-05-31",
        "release_date_precision" : "day",
        "total_tracks" : 13,
        "type" : "album",
        "uri" : "spotify:album:1AljC7cv1mlbacQ5gNzqP2"
      },
      "artists" : [ {
        "external_urls" : {
          "spotify" : "https://open.spotify.com/artist/3mxJuHRn2ZWD5OofvJtDZY"
        },
        "href" : "https://api.spotify.com/v1/artists/3mxJuHRn2ZWD5OofvJtDZY",
        "id" : "3mxJuHRn2ZWD5OofvJtDZY",
        "name" : "Jesse Markin",
        "type" : "artist",
        "uri" : "spotify:artist:3mxJuHRn2ZWD5OofvJtDZY"
      } ],
      "disc_number" : 1,
      "duration_ms" : 43949,
      "explicit" : false,
      "external_ids" : {
        "isrc" : "FIOV21900014"
      },
      "external_urls" : {
        "spotify" : "https://open.spotify.com/track/4Nl4F5jje1yKjaEWjNk3nB"
      },
      "href" : "https://api.spotify.com/v1/tracks/4Nl4F5jje1yKjaEWjNk3nB",
      "id" : "4Nl4F5jje1yKjaEWjNk3nB",
      "is_local" : false,
      "is_playable" : true,
      "name" : "A Quiet Place",
      "popularity" : 20,
      "preview_url" : "https://p.scdn.co/mp3-preview/71aa4ae109c4533af3e9156b1b1e2adbc6ad94f6?cid=774b29d4f13844c495f206cafdad9c86",
      "track_number" : 12,
      "type" : "track",
      "uri" : "spotify:track:4Nl4F5jje1yKjaEWjNk3nB"
    }, {
      "album" : {
        "album_type" : "album",
        "artists" : [ {
          "external_urls" : {
            "spotify" : "https://open.spotify.com/artist/1SMiI1RwFqaOp64IYFeSjC"
          },
          "href" : "https://api.spotify.com/v1/artists/1SMiI1RwFqaOp64IYFeSjC",
          "id" : "1SMiI1RwFqaOp64IYFeSjC",
          "name" : "Bray",
          "type" : "artist",
          "uri" : "spotify:artist:1SMiI1RwFqaOp64IYFeSjC"
        } ],
        "external_urls" : {
          "spotify" : "https://open.spotify.com/album/0HRkhW08yecYc7qDCehJeE"
        },
        "href" : "https://api.spotify.com/v1/albums/0HRkhW08yecYc7qDCehJeE",
        "id" : "0HRkhW08yecYc7qDCehJeE",
        "images" : [ {
          "height" : 640,
          "url" : "https://i.scdn.co/image/ab67616d0000b27398b52b5746ec873901ea0d3c",
          "width" : 640
        }, {
          "height" : 300,
          "url" : "https://i.scdn.co/image/ab67616d00001e0298b52b5746ec873901ea0d3c",
          "width" : 300
        }, {
          "height" : 64,
          "url" : "https://i.scdn.co/image/ab67616d0000485198b52b5746ec873901ea0d3c",
          "width" : 64
        } ],
        "name" : "Stingray",
        "release_date" : "2020-05-15",
        "release_date_precision" : "day",
        "total_tracks" : 7,
        "type" : "album",
        "uri" : "spotify:album:0HRkhW08yecYc7qDCehJeE"
      },
      "artists" : [ {
        "external_urls" : {
          "spotify" : "https://open.spotify.com/artist/1SMiI1RwFqaOp64IYFeSjC"
        },
        "href" : "https://api.spotify.com/v1/artists/1SMiI1RwFqaOp64IYFeSjC",
        "id" : "1SMiI1RwFqaOp64IYFeSjC",
        "name" : "Bray",
        "type" : "artist",
        "uri" : "spotify:artist:1SMiI1RwFqaOp64IYFeSjC"
      } ],
      "disc_number" : 1,
      "duration_ms" : 241290,
      "explicit" : false,
      "external_ids" : {
        "isrc" : "QZDA82070757"
      },
      "external_urls" : {
        "spotify" : "https://open.spotify.com/track/2bAy8aVm7YYAtT9VdLGzkP"
      },
      "href" : "https://api.spotify.com/v1/tracks/2bAy8aVm7YYAtT9VdLGzkP",
      "id" : "2bAy8aVm7YYAtT9VdLGzkP",
      "is_local" : false,
      "is_playable" : true,
      "name" : "Pictures (Meet Me in a Quiet Place)",
      "popularity" : 1,
      "preview_url" : "https://p.scdn.co/mp3-preview/90d782c44f4f7e40a63057f67d1eab7eadb03d10?cid=774b29d4f13844c495f206cafdad9c86",
      "track_number" : 2,
      "type" : "track",
      "uri" : "spotify:track:2bAy8aVm7YYAtT9VdLGzkP"
    }, {
      "album" : {
        "album_type" : "album",
        "artists" : [ {
          "external_urls" : {
            "spotify" : "https://open.spotify.com/artist/1PTx2R6fdHb2Ns4avKxOZW"
          },
          "href" : "https://api.spotify.com/v1/artists/1PTx2R6fdHb2Ns4avKxOZW",
          "id" : "1PTx2R6fdHb2Ns4avKxOZW",
          "name" : "HeadLab INC.",
          "type" : "artist",
          "uri" : "spotify:artist:1PTx2R6fdHb2Ns4avKxOZW"
        } ],
        "external_urls" : {
          "spotify" : "https://open.spotify.com/album/3u2bCdlvZbmFjPvzhcTDN9"
        },
        "href" : "https://api.spotify.com/v1/albums/3u2bCdlvZbmFjPvzhcTDN9",
        "id" : "3u2bCdlvZbmFjPvzhcTDN9",
        "images" : [ {
          "height" : 640,
          "url" : "https://i.scdn.co/image/ab67616d0000b273e223217620d749eef801e039",
          "width" : 640
        }, {
          "height" : 300,
          "url" : "https://i.scdn.co/image/ab67616d00001e02e223217620d749eef801e039",
          "width" : 300
        }, {
          "height" : 64,
          "url" : "https://i.scdn.co/image/ab67616d00004851e223217620d749eef801e039",
          "width" : 64
        } ],
        "name" : "Flux",
        "release_date" : "2020-05-25",
        "release_date_precision" : "day",
        "total_tracks" : 10,
        "type" : "album",
        "uri" : "spotify:album:3u2bCdlvZbmFjPvzhcTDN9"
      },
      "artists" : [ {
        "external_urls" : {
          "spotify" : "https://open.spotify.com/artist/1PTx2R6fdHb2Ns4avKxOZW"
        },
        "href" : "https://api.spotify.com/v1/artists/1PTx2R6fdHb2Ns4avKxOZW",
        "id" : "1PTx2R6fdHb2Ns4avKxOZW",
        "name" : "HeadLab INC.",
        "type" : "artist",
        "uri" : "spotify:artist:1PTx2R6fdHb2Ns4avKxOZW"
      } ],
      "disc_number" : 1,
      "duration_ms" : 262000,
      "explicit" : false,
      "external_ids" : {
        "isrc" : "QZHN42015096"
      },
      "external_urls" : {
        "spotify" : "https://open.spotify.com/track/61YtyTgzP47lZpuRP3oiC6"
      },
      "href" : "https://api.spotify.com/v1/tracks/61YtyTgzP47lZpuRP3oiC6",
      "id" : "61YtyTgzP47lZpuRP3oiC6",
      "is_local" : false,
      "is_playable" : true,
      "name" : "In a Quiet Place",
      "popularity" : 0,
      "preview_url" : "https://p.scdn.co/mp3-preview/727548b1574cb95181aa5f3df314e3047ab01a24?cid=774b29d4f13844c495f206cafdad9c86",
      "track_number" : 6,
      "type" : "track",
      "uri" : "spotify:track:61YtyTgzP47lZpuRP3oiC6"
    }, {
      "album" : {
        "album_type" : "album",
        "artists" : [ {
          "external_urls" : {
            "spotify" : "https://open.spotify.com/artist/1w7cucUEPR1Yq9g03g6T8m"
          },
          "href" : "https://api.spotify.com/v1/artists/1w7cucUEPR1Yq9g03g6T8m",
          "id" : "1w7cucUEPR1Yq9g03g6T8m",
          "name" : "Xinobi",
          "type" : "artist",
          "uri" : "spotify:artist:1w7cucUEPR1Yq9g03g6T8m"
        } ],
        "external_urls" : {
          "spotify" : "https://open.spotify.com/album/5SKcqC84SFve2BjxJLltKf"
        },
        "href" : "https://api.spotify.com/v1/albums/5SKcqC84SFve2BjxJLltKf",
        "id" : "5SKcqC84SFve2BjxJLltKf",
        "images" : [ {
          "height" : 640,
          "url" : "https://i.scdn.co/image/ab67616d0000b2732b7d561e6733daec82487a24",
          "width" : 640
        }, {
          "height" : 300,
          "url" : "https://i.scdn.co/image/ab67616d00001e022b7d561e6733daec82487a24",
          "width" : 300
        }, {
          "height" : 64,
          "url" : "https://i.scdn.co/image/ab67616d000048512b7d561e6733daec82487a24",
          "width" : 64
        } ],
        "name" : "On The Quiet",
        "release_date" : "2017-03-24",
        "release_date_precision" : "day",
        "total_tracks" : 8,
        "type" : "album",
        "uri" : "spotify:album:5SKcqC84SFve2BjxJLltKf"
      },
      "artists" : [ {
        "external_urls" : {
          "spotify" : "https://open.spotify.com/artist/1w7cucUEPR1Yq9g03g6T8m"
        },
        "href" : "https://api.spotify.com/v1/artists/1w7cucUEPR1Yq9g03g6T8m",
        "id" : "1w7cucUEPR1Yq9g03g6T8m",
        "name" : "Xinobi",
        "type" : "artist",
        "uri" : "spotify:artist:1w7cucUEPR1Yq9g03g6T8m"
      } ],
      "disc_number" : 1,
      "duration_ms" : 259146,
      "explicit" : false,
      "external_ids" : {
        "isrc" : "PT6DV1700002"
      },
      "external_urls" : {
        "spotify" : "https://open.spotify.com/track/0Gw6cy3dhYmdKUiXxeS4ve"
      },
      "href" : "https://api.spotify.com/v1/tracks/0Gw6cy3dhYmdKUiXxeS4ve",
      "id" : "0Gw6cy3dhYmdKUiXxeS4ve",
      "is_local" : false,
      "is_playable" : true,
      "name" : "Far Away Place",
      "popularity" : 43,
      "preview_url" : "https://p.scdn.co/mp3-preview/03a5ae78231105ec35a9735379cfb572fd599997?cid=774b29d4f13844c495f206cafdad9c86",
      "track_number" : 2,
      "type" : "track",
      "uri" : "spotify:track:0Gw6cy3dhYmdKUiXxeS4ve"
    } ],
    "limit" : 10,
    "next" : "https://api.spotify.com/v1/search?query=A+Quiet+Place&type=track&market=US&offset=15&limit=10",
    "offset" : 5,
    "previous" : "https://api.spotify.com/v1/search?query=A+Quiet+Place&type=track&market=US&offset=0&limit=10",
    "total" : 2618
  }
}