{
  "tracks" : {
    "href" : "https://api.spotify.com/v1/search?query=He+Lives&type=track&market=US&offset=5&limit=10",
    "items" : [ {
      "album" : {
        "album_type" : "album",
        "artists" : [ {
          "external_urls" : {
            "spotify" : "https://open.spotify.com/artist/5dZiRoY9Vpp6qrxqXNRwPE"
          },
          "href" : "https://api.spotify.com/v1/artists/5dZiRoY9Vpp6qrxqXNRwPE",
          "id" : "5dZiRoY9Vpp6qrxqXNRwPE",
          "name" : "Selah",
          "type" : "artist",
          "uri" : "spotify:artist:5dZiRoY9Vpp6qrxqXNRwPE"
        } ],
        "external_urls" : {
          "spotify" : "https://open.spotify.com/album/35Nsa8dIgCS17DBz6lqgUa"
        },
        "href" : "https://api.spotify.com/v1/albums/35Nsa8dIgCS17DBz6lqgUa",
        "id" : "35Nsa8dIgCS17DBz6lqgUa",
        "images" : [ {
          "height" : 640,
          "url" : "https://i.scdn.co/image/ab67616d0000b2735a58376f3d1cbe9e02c6ddbf",
          "width" : 640
        }, {
          "height" : 300,
          "url" : "https://i.scdn.co/image/ab67616d00001e025a58376f3d1cbe9e02c6ddbf",
          "width" : 300
        }, {
          "height" : 64,
          "url" : "https://i.scdn.co/image/ab67616d000048515a58376f3d1cbe9e02c6ddbf",
          "width" : 64
        } ],
        "name" : "Unbreakable",
        "release_date" : "2017-03-24",
        "release_date_precision" : "day",
        "total_tracks" : 13,
        "type" : "album",
        "uri" : "spotify:album:35Nsa8dIgCS17DBz6lqgUa"
      },
      "artists" : [ {
        "external_urls" : {
          "spotify" : "https://open.spotify.com/artist/5dZiRoY9Vpp6qrxqXNRwPE"
        },
        "href" : "https://api.spotify.com/v1/artists/5dZiRoY9Vpp6qrxqXNRwPE",
        "id" : "5dZiRoY9Vpp6qrxqXNRwPE",
        "name" : "Selah",
        "type" : "artist",
        "uri" : "spotify:artist:5dZiRoY9Vpp6qrxqXNRwPE"
      } ],
      "disc_number" : 1,
      "duration_ms" : 234760,
      "explicit" : false,
      "external_ids" : {
        "isrc" : "USCRB1613519"
      },
      "external_urls" : {
        "spotify" : "https://open.spotify.com/track/4gwDHUnozvvCSseS0MHUSm"
      },
      "href" : "https://api.spotify.com/v1/tracks/4gwDHUnozvvCSseS0MHUSm",
      "id" : "4gwDHUnozvvCSseS0MHUSm",
      "is_local" : false,
      "is_playable" : true,
      "name" : "He Lives / Because He Lives",
      "popularity" : 39,
      "preview_url" : "https://p.scdn.co/mp3-preview/66a305814191c82d4dee7b139e58c8479bc85fe5?cid=774b29d4f13844c495f206cafdad9c86",
      "track_number" : 5,
      "type" : "track",
      "uri" : "spotify:track:4gwDHUnozvvCSseS0MHUSm"
    }, {
      "album" : {
        "album_type" : "album",
        "artists" : [ {
          "external_urls" : {
            "spotify" : "https://open.spotify.com/artist/6pRi6EIPXz4QJEOEsBaA0m"
          },
          "href" : "https://api.spotify.com/v1/artists/6pRi6EIPXz4QJEOEsBaA0m",
          "id" : "6pRi6EIPXz4QJEOEsBaA0m",
          "name" : "Chris Tomlin",
          "type" : "artist",
          "uri" : "spotify:artist:6pRi6EIPXz4QJEOEsBaA0m"
        } ],
        "external_urls" : {
          "spotify" : "https://open.spotify.com/album/7BK26n0Gkw7bvAlAUdU53F"
        },
        "href" : "https://api.spotify.com/v1/albums/7BK26n0Gkw7bvAlAUdU53F",
        "id" : "7BK26n0Gkw7bvAlAUdU53F",
        "images" : [ {
          "height" : 640,
          "url" : "https://i.scdn.co/image/ab67616d0000b273f01f4e74389db82021a743ad",
          "width" : 640
        }, {
          "height" : 300,
          "url" : "https://i.scdn.co/image/ab67616d00001e02f01f4e74389db82021a743ad",
          "width" : 300
        }, {
          "height" : 64,
          "url" : "https://i.scdn.co/image/ab67616d00004851f01f4e74389db82021a743ad",
          "width" : 64
        } ],
        "name" : "Never Lose Sight (Deluxe Edition)",
        "release_date" : "2016-10-21",
        "release_date_precision" : "day",
        "total_tracks" : 14,
        "type" : "album",
        "uri" : "spotify:album:7BK26n0Gkw7bvAlAUdU53F"
      },
      "artists" : [ {
        "external_urls" : {
          "spotify" : "https://open.spotify.com/artist/6pRi6EIPXz4QJEOEsBaA0m"
        },
        "href" : "https://api.spotify.com/v1/artists/6pRi6EIPXz4QJEOEsBaA0m",
        "id" : "6pRi6EIPXz4QJEOEsBaA0m",
        "name" : "Chris Tomlin",
        "type" : "artist",
        "uri" : "spotify:artist:6pRi6EIPXz4QJEOEsBaA0m"
      } ],
      "disc_number" : 1,
      "duration_ms" : 244480,
      "explicit" : false,
      "external_ids" : {
        "isrc" : "USUM71608263"
      },
      "external_urls" : {
        "spotify" : "https://open.spotify.com/track/45bFl67prA7LMOld5TZiAr"
      },
      "href" : "https://api.spotify.com/v1/tracks/45bFl67prA7LMOld5TZiAr",
      "id" : "45bFl67prA7LMOld5TZiAr",
      "is_local" : false,
      "is_playable" : true,
      "name" : "He Lives",
      "popularity" : 30,
      "preview_url" : null,
      "track_number" : 6,
      "type" : "track",
      "uri" : "spotify:track:45bFl67prA7LMOld5TZiAr"
    }, {
      "album" : {
        "album_type" : "album",
        "artists" : [ {
          "external_urls" : {
            "spotify" : "https://open.spotify.com/artist/4c6lhwoOrmgNWvl0GxHlW1"
          },
          "href" : "https://api.spotify.com/v1/artists/4c6lhwoOrmgNWvl0GxHlW1",
          "id" : "4c6lhwoOrmgNWvl0GxHlW1",
          "name" : "Tedashii",
          "type" : "artist",
          "uri" : "spotify:artist:4c6lhwoOrmgNWvl0GxHlW1"
        } ],
        "external_urls" : {
          "spotify" : "https://open.spotify.com/album/73gu2WuCMW2vWk8Yzr9Nk6"
        },
        "href" : "https://api.spotify.com/v1/albums/73gu2WuCMW2vWk8Yzr9Nk6",
        "id" : "73gu2WuCMW2vWk8Yzr9Nk6",
        "images" : [ {
          "height" : 640,
          "url" : "https://i.scdn.co/image/ab67616d0000b273cfda3d0e88c564aac508f692",
          "width" : 640
        }, {
          "height" : 300,
          "url" : "https://i.scdn.co/image/ab67616d00001e02cfda3d0e88c564aac508f692",
          "width" : 300
        }, {
          "height" : 64,
          "url" : "https://i.scdn.co/image/ab67616d00004851cfda3d0e88c564aac508f692",
          "width" : 64
        } ],
        "name" : "Blacklight",
        "release_date" : "2011-05-31",
        "release_date_precision" : "day",
        "total_tracks" : 16,
        "type" : "album",
        "uri" : "spotify:album:73gu2WuCMW2vWk8Yzr9Nk6"
      },
      "artists" : [ {
        "external_urls" : {
          "spotify" : "https://open.spotify.com/artist/4c6lhwoOrmgNWvl0GxHlW1"
        },
        "href" : "https://api.spotify.com/v1/artists/4c6lhwoOrmgNWvl0GxHlW1",
        "id" : "4c6lhwoOrmgNWvl0GxHlW1",
        "name" : "Tedashii",
        "type" : "artist",
        "uri" : "spotify:artist:4c6lhwoOrmgNWvl0GxHlW1"
      }, {
        "external_urls" : {
          "spotify" : "https://open.spotify.com/artist/2s6kyMmJZFgPCHXU0QxJLp"
        },
        "href" : "https://api.spotify.com/v1/artists/2s6kyMmJZFgPCHXU0QxJLp",
        "id" : "2s6kyMmJZFgPCHXU0QxJLp",
        "name" : "Flame",
        "type" : "artist",
        "uri" : "spotify:artist:2s6kyMmJZFgPCHXU0QxJLp"
      }, {
        "external_urls" : {
          "spotify" : "https://open.spotify.com/artist/3uHnfXxUrnPq1XYw8t8Sz2"
        },
        "href" : "https://api.spotify.com/v1/artists/3uHnfXxUrnPq1XYw8t8Sz2",
        "id" : "3uHnfXxUrnPq1XYw8t8Sz2",
        "name" : "Jai",
        "type" : "artist",
        "uri" : "spotify:artist:3uHnfXxUrnPq1XYw8t8Sz2"
      } ],
      "disc_number" : 1,
      "duration_ms" : 284213,
      "explicit" : false,
      "external_ids" : {
        "isrc" : "TCAAX1197224"
      },
      "external_urls" : {
        "spotify" : "https://open.spotify.com/track/4ANAMEE42WeHFvvX0Rxz45"
      },
      "href" : "https://api.spotify.com/v1/tracks/4ANAMEE42WeHFvvX0Rxz45",
      "id" : "4ANAMEE42WeHFvvX0Rxz45",
      "is_local" : false,
      "is_playable" : true,
      "name" : "He Lives",
      "popularity" : 26,
      "preview_url" : "https://p.scdn.co/mp3-preview/5a08df99e2995bee2a72c23b43593414717ed8f4?cid=774b29d4f13844c495f206cafdad9c86",
      "track_number" : 8,
      "type" : "track",
      "uri" : "spotify:track:4ANAMEE42WeHFvvX0Rxz45"
    }, {
      "album" : {
        "album_type" : "album",
        "artists" : [ {
          "external_urls" : {
            "spotify" : "https://open.spotify.com/artist/2MISUlPFrBMRlIcazbEOUI"
          },
          "href" : "https://api.spotify.com/v1/artists/2MISUlPFrBMRlIcazbEOUI",
          "id" : "2MISUlPFrBMRlIcazbEOUI",
          "name" : "Michael Ball",
          "type" : "artist",
          "uri" : "spotify:artist:2MISUlPFrBMRlIcazbEOUI"
        }, {
          "external_urls" : {
            "spotify" : "https://open.spotify.com/artist/3g5gwhWAPLq8MyUcUIsA8j"
          },
          "href" : "https://api.spotify.com/v1/artists/3g5gwhWAPLq8MyUcUIsA8j",
          "id" : "3g5gwhWAPLq8MyUcUIsA8j",
          "name" : "Alfie Boe",
          "type" : "artist",
          "uri" : "spotify:artist:3g5gwhWAPLq8MyUcUIsA8j"
        } ],
        "external_urls" : {
          "spotify" : "https://open.spotify.com/album/1ujtxsGAYkuDcPBX4xj29i"
        },
        "href" : "https://api.spotify.com/v1/albums/1ujtxsGAYkuDcPBX4xj29i",
        "id" : "1ujtxsGAYkuDcPBX4xj29i",
        "images" : [ {
          "height" : 640,
          "url" : "https://i.scdn.co/image/ab67616d0000b2736234c26ed1da6163b807609e",
          "width" : 640
        }, {
          "height" : 300,
          "url" : "https://i.scdn.co/image/ab67616d00001e026234c26ed1da6163b807609e",
          "width" : 300
        }, {
          "height" : 64,
          "url" : "https://i.scdn.co/image/ab67616d000048516234c26ed1da6163b807609e",
          "width" : 64
        } ],
        "name" : "Together Again",
        "release_date" : "2017-10-27",
        "release_date_precision" : "day",
        "total_tracks" : 14,
        "type" : "album",
        "uri" : "spotify:album:1ujtxsGAYkuDcPBX4xj29i"
      },
      "artists" : [ {
        "external_urls" : {
          "spotify" : "https://open.spotify.com/artist/2MISUlPFrBMRlIcazbEOUI"
        },
        "href" : "https://api.spotify.com/v1/artists/2MISUlPFrBMRlIcazbEOUI",
        "id" : "2MISUlPFrBMRlIcazbEOUI",
        "name" : "Michael Ball",
        "type" : "artist",
        "uri" : "spotify:artist:2MISUlPFrBMRlIcazbEOUI"
      }, {
        "external_urls" : {
          "spotify" : "https://open.spotify.com/artist/3g5gwhWAPLq8MyUcUIsA8j"
        },
        "href" : "https://api.spotify.com/v1/artists/3g5gwhWAPLq8MyUcUIsA8j",
        "id" : "3g5gwhWAPLq8MyUcUIsA8j",
        "name" : "Alfie Boe",
        "type" : "artist",
        "uri" : "spotify:artist:3g5gwhWAPLq8MyUcUIsA8j"
      } ],
      "disc_number" : 1,
      "duration_ms" : 281680,
      "explicit" : false,
      "external_ids" : {
        "isrc" : "GBUM71703968"
      },
      "external_urls" : {
        "spotify" : "https://open.spotify.com/track/0RZScsByutbWyfHeHAUqo5"
      },
      "href" : "https://api.spotify.com/v1/tracks/0RZScsByutbWyfHeHAUqo5",
      "id" : "0RZScsByutbWyfHeHAUqo5",
      "is_local" : false,
      "is_playable" : true,
      "name" : "He Lives In You - From \"The Lion King\"",
      "popularity" : 26,
      "preview_url" : null,
      "track_number" : 4,
      "type" : "track",
      "uri" : "spotify:track:0RZScsByutbWyfHeHAUqo5"
    }, {
      "album" : {
        "album_type" : "album",
        "artists" : [ {
          "external_urls" : {
            "spotify" : "https://open.spotify.com/artist/1dPl8axUL09mso0myZqPZW"
          },
          "href" : "https://api.spotify.com/v1/artists/1dPl8axUL09mso0myZqPZW",
          "id" : "1dPl8axUL09mso0myZqPZW",
          "name" : "Matt Maher",
          "type" : "artist",
          "uri" : "spotify:artist:1dPl8axUL09mso0myZqPZW"
        } ],
        "external_urls" : {
          "spotify" : "https://open.spotify.com/album/2p4nNg7P6ckP0D7MFOUTgP"
        },
        "href" : "https://api.spotify.com/v1/albums/2p4nNg7P6ckP0D7MFOUTgP",
        "id" : "2p4nNg7P6ckP0D7MFOUTgP",
        "images" : [ {
          "height" : 640,
          "url" : "https://i.scdn.co/image/ab67616d0000b2738843b661a6f74d3684b5bfcf",
          "width" : 640
        }, {
          "height" : 300,
          "url" : "https://i.scdn.co/image/ab67616d00001e028843b661a6f74d3684b5bfcf",
          "width" : 300
        }, {
          "height" : 64,
          "url" : "https://i.scdn.co/image/ab67616d000048518843b661a6f74d3684b5bfcf",
          "width" : 64
        } ],
        "name" : "Saints and Sinners",
        "release_date" : "2015-03-16",
        "release_date_precision" : "day",
        "total_tracks" : 18,
        "type" : "album",
        "uri" : "spotify:album:2p4nNg7P6ckP0D7MFOUTgP"
      },
      "artists" : [ {
        "external_urls" : {
          "spotify" : "https://open.spotify.com/artist/1dPl8axUL09mso0myZqPZW"
        },
        "href" : "https://api.spotify.com/v1/artists/1dPl8axUL09mso0myZqPZW",
        "id" : "1dPl8axUL09mso0myZqPZW",
        "name" : "Matt Maher",
        "type" : "artist",
        "uri" : "spotify:artist:1dPl8axUL09mso0myZqPZW"
      } ],
      "disc_number" : 1,
      "duration_ms" : 199866,
      "explicit" : false,
      "external_ids" : {
        "isrc" : "USA5W1400246"
      },
      "external_urls" : {
        "spotify" : "https://open.spotify.com/track/4vhKRjmiboAhfunCabpXap"
      },
      "href" : "https://api.spotify.com/v1/tracks/4vhKRjmiboAhfunCabpXap",
      "id" : "4vhKRjmiboAhfunCabpXap",
      "is_local" : false,
      "is_playable" : true,
      "name" : "Because He Lives (Amen)",
      "popularity" : 56,
      "preview_url" : "https://p.scdn.co/mp3-preview/ab0d17c390c245976c505ff9d555b8c4f86885e8?cid=774b29d4f13844c495f206cafdad9c86",
      "track_number" : 13,
      "type" : "track",
      "uri" : "spotify:track:4vhKRjmiboAhfunCabpXap"
    }, {
      "album" : {
        "album_type" : "album",
        "artists" : [ {
          "external_urls" : {
            "spotify" : "https://open.spotify.com/artist/4PSu1SQggtYR5cLPHddoOJ"
          },
          "href" : "https://api.spotify.com/v1/artists/4PSu1SQggtYR5cLPHddoOJ",
          "id" : "4PSu1SQggtYR5cLPHddoOJ",
          "name" : "Piano Prayer",
          "type" : "artist",
          "uri" : "spotify:artist:4PSu1SQggtYR5cLPHddoOJ"
        } ],
        "external_urls" : {
          "spotify" : "https://open.spotify.com/album/2bcydB0JO3SkaLNCrwc8NE"
        },
        "href" : "https://api.spotify.com/v1/albums/2bcydB0JO3SkaLNCrwc8NE",
        "id" : "2bcydB0JO3SkaLNCrwc8NE",
        "images" : [ {
          "height" : 640,
          "url" : "https://i.scdn.co/image/ab67616d0000b27330f8916b614d42e653ca3ea0",
          "width" : 640
        }, {
          "height" : 300,
          "url" : "https://i.scdn.co/image/ab67616d00001e0230f8916b614d42e653ca3ea0",
          "width" : 300
        }, {
          "height" : 64,
          "url" : "https://i.scdn.co/image/ab67616d0000485130f8916b614d42e653ca3ea0",
          "width" : 64
        } ],
        "name" : "Never Lose Sight",
        "release_date" : "2017-07-25",
        "release_date_precision" : "day",
        "total_tracks" : 14,
        "type" : "album",
        "uri" : "spotify:album:2bcydB0JO3SkaLNCrwc8NE"
      },
      "artists" : [ {
        "external_urls" : {
          "spotify" : "https://open.spotify.com/artist/4PSu1SQggtYR5cLPHddoOJ"
        },
        "href" : "https://api.spotify.com/v1/artists/4PSu1SQggtYR5cLPHddoOJ",
        "id" : "4PSu1SQggtYR5cLPHddoOJ",
        "name" : "Piano Prayer",
        "type" : "artist",
        "uri" : "spotify:artist:4PSu1SQggtYR5cLPHddoOJ"
      } ],
      "disc_number" : 1,
      "duration_ms" : 236731,
      "explicit" : false,
      "external_ids" : {
        "isrc" : "QZ22B1813632"
      },
      "external_urls" : {
        "spotify" : "https://open.spotify.com/track/660zP6eJWWbyn86aJ3xzAY"
      },
      "href" : "https://api.spotify.com/v1/tracks/660zP6eJWWbyn86aJ3xzAY",
      "id" : "660zP6eJWWbyn86aJ3xzAY",
      "is_local" : false,
      "is_playable" : true,
      "name" : "He Lives",
      "popularity" : 25,
      "preview_url" : "https://p.scdn.co/mp3-preview/8015c6cf3bcfd117a911adac1961e6bd91be4d1e?cid=774b29d4f13844c495f206cafdad9c86",
      "track_number" : 6,
      "type" : "track",
      "uri" : "spotify:track:660zP6eJWWbyn86aJ3xzAY"
    }, {
      "album" : {
        "album_type" : "album",
        "artists" : [ {
          "external_urls" : {
            "spotify" : "https://open.spotify.com/artist/2ndyVAdV9UqF1XjyTJt484"
          },
          "href" : "https://api.spotify.com/v1/artists/2ndyVAdV9UqF1XjyTJt484",
          "id" : "2ndyVAdV9UqF1XjyTJt484",
          "name" : "Fred Hammond",
          "type" : "artist",
          "uri" : "spotify:artist:2ndyVAdV9UqF1XjyTJt484"
        } ],
        "external_urls" : {
          "spotify" : "https://open.spotify.com/album/0XOJ1ca49mjMj6SLdtfihI"
        },
        "href" : "https://api.spotify.com/v1/albums/0XOJ1ca49mjMj6SLdtfihI",
        "id" : "0XOJ1ca49mjMj6SLdtfihI",
        "images" : [ {
          "height" : 640,
          "url" : "https://i.scdn.co/image/ab67616d0000b27316d75a8f3a65b5a188001418",
          "width" : 640
        }, {
          "height" : 300,
          "url" : "https://i.scdn.co/image/ab67616d00001e0216d75a8f3a65b5a188001418",
          "width" : 300
        }, {
          "height" : 64,
          "url" : "https://i.scdn.co/image/ab67616d0000485116d75a8f3a65b5a188001418",
          "width" : 64
        } ],
        "name" : "God, Love & Romance",
        "release_date" : "2012-01-27",
        "release_date_precision" : "day",
        "total_tracks" : 34,
        "type" : "album",
        "uri" : "spotify:album:0XOJ1ca49mjMj6SLdtfihI"
      },
      "artists" : [ {
        "external_urls" : {
          "spotify" : "https://open.spotify.com/artist/2ndyVAdV9UqF1XjyTJt484"
        },
        "href" : "https://api.spotify.com/v1/artists/2ndyVAdV9UqF1XjyTJt484",
        "id" : "2ndyVAdV9UqF1XjyTJt484",
        "name" : "Fred Hammond",
        "type" : "artist",
        "uri" : "spotify:artist:2ndyVAdV9UqF1XjyTJt484"
      } ],
      "disc_number" : 2,
      "duration_ms" : 386386,
      "explicit" : false,
      "external_ids" : {
        "isrc" : "USVE21100098"
      },
      "external_urls" : {
        "spotify" : "https://open.spotify.com/track/49bEpPXABGH6WpcwhX7sQO"
      },
      "href" : "https://api.spotify.com/v1/tracks/49bEpPXABGH6WpcwhX7sQO",
      "id" : "49bEpPXABGH6WpcwhX7sQO",
      "is_local" : false,
      "is_playable" : true,
      "name" : "He Lives Remix - Live",
      "popularity" : 25,
      "preview_url" : "https://p.scdn.co/mp3-preview/d9b8afc231da7dfc32970ecc5c85e66e34ee5635?cid=774b29d4f13844c495f206cafdad9c86",
      "track_number" : 13,
      "type" : "track",
      "uri" : "spotify:track:49bEpPXABGH6WpcwhX7sQO"
    }, {
      "album" : {
        "album_type" : "album",
        "artists" : [ {
          "external_urls" : {
            "spotify" : "https://open.spotify.com/artist/7EIbKyiLnEJ1Y074UIUyZJ"
          },
          "href" : "https://api.spotify.com/v1/artists/7EIbKyiLnEJ1Y074UIUyZJ",
          "id" : "7EIbKyiLnEJ1Y074UIUyZJ",
          "name" : "Peter Hollens",
          "type" : "artist",
          "uri" : "spotify:artist:7EIbKyiLnEJ1Y074UIUyZJ"
        } ],
        "external_urls" : {
          "spotify" : "https://open.spotify.com/album/1EM21JgbQgQX7y7y6DtAWD"
        },
        "href" : "https://api.spotify.com/v1/albums/1EM21JgbQgQX7y7y6DtAWD",
        "id" : "1EM21JgbQgQX7y7y6DtAWD",
        "images" : [ {
          "height" : 640,
          "url" : "https://i.scdn.co/image/ab67616d0000b2739dd81a1714ffe4b2f69aaea1",
          "width" : 640
        }, {
          "height" : 300,
          "url" : "https://i.scdn.co/image/ab67616d00001e029dd81a1714ffe4b2f69aaea1",
          "width" : 300
        }, {
          "height" : 64,
          "url" : "https://i.scdn.co/image/ab67616d000048519dd81a1714ffe4b2f69aaea1",
          "width" : 64
        } ],
        "name" : "Magically Legendary Covers, Vol. 1",
        "release_date" : "2019-11-01",
        "release_date_precision" : "day",
        "total_tracks" : 28,
        "type" : "album",
        "uri" : "spotify:album:1EM21JgbQgQX7y7y6DtAWD"
      },
      "artists" : [ {
        "external_urls" : {
          "spotify" : "https://open.spotify.com/artist/7EIbKyiLnEJ1Y074UIUyZJ"
        },
        "href" : "https://api.spotify.com/v1/artists/7EIbKyiLnEJ1Y074UIUyZJ",
        "id" : "7EIbKyiLnEJ1Y074UIUyZJ",
        "name" : "Peter Hollens",
        "type" : "artist",
        "uri" : "spotify:artist:7EIbKyiLnEJ1Y074UIUyZJ"
      } ],
      "disc_number" : 1,
      "duration_ms" : 246960,
      "explicit" : false,
      "external_ids" : {
        "isrc" : "QZ22B2065121"
      },
      "external_urls" : {
        "spotify" : "https://open.spotify.com/track/3ToD9viYuNo7VQtZqGSfIN"
      },
      "href" : "https://api.spotify.com/v1/tracks/3ToD9viYuNo7VQtZqGSfIN",
      "id" : "3ToD9viYuNo7VQtZqGSfIN",
      "is_local" : false,
      "is_playable" : true,
      "name" : "He Lives in You (From \"The Lion King\") [A Cappella]",
      "popularity" : 29,
      "preview_url" : "https://p.scdn.co/mp3-preview/bbc17fe5bdb294044365246c4410f1492d2447f0?cid=774b29d4f13844c495f206cafdad9c86",
      "track_number" : 15,
      "type" : "track",
      "uri" : "spotify:track:3ToD9viYuNo7VQtZqGSfIN"
    }, {
      "album" : {
        "album_type" : "album",
        "artists" : [ {
          "external_urls" : {
            "spotify" : "https://open.spotify.com/artist/3MdG05syQeRYPPcClLaUGl"
          },
          "href" : "https://api.spotify.com/v1/artists/3MdG05syQeRYPPcClLaUGl",
          "id" : "3MdG05syQeRYPPcClLaUGl",
          "name" : "Diana Ross",
          "type" : "artist",
          "uri" : "spotify:artist:3MdG05syQeRYPPcClLaUGl"
        } ],
        "external_urls" : {
          "spotify" : "https://open.spotify.com/album/7v2tQ3hAoNaYxEPyLFLFrr"
        },
        "href" : "https://api.spotify.com/v1/albums/7v2tQ3hAoNaYxEPyLFLFrr",
        "id" : "7v2tQ3hAoNaYxEPyLFLFrr",
        "images" : [ {
          "height" : 640,
          "url" : "https://i.scdn.co/image/ab67616d0000b273331c85e5593a9579a5211276",
          "width" : 640
        }, {
          "height" : 300,
          "url" : "https://i.scdn.co/image/ab67616d00001e02331c85e5593a9579a5211276",
          "width" : 300
        }, {
          "height" : 64,
          "url" : "https://i.scdn.co/image/ab67616d00004851331c85e5593a9579a5211276",
          "width" : 64
        } ],
        "name" : "Every Day Is A New Day",
        "release_date" : "1999-01-01",
        "release_date_precision" : "day",
        "total_tracks" : 12,
        "type" : "album",
        "uri" : "spotify:album:7v2tQ3hAoNaYxEPyLFLFrr"
      },
      "artists" : [ {
        "external_urls" : {
          "spotify" : "https://open.spotify.com/artist/3MdG05syQeRYPPcClLaUGl"
        },
        "href" : "https://api.spotify.com/v1/artists/3MdG05syQeRYPPcClLaUGl",
        "id" : "3MdG05syQeRYPPcClLaUGl",
        "name" : "Diana Ross",
        "type" : "artist",
        "uri" : "spotify:artist:3MdG05syQeRYPPcClLaUGl"
      } ],
      "disc_number" : 1,
      "duration_ms" : 292760,
      "explicit" : false,
      "external_ids" : {
        "isrc" : "USMO19984809"
      },
      "external_urls" : {
        "spotify" : "https://open.spotify.com/track/1G8LqcL6DkuldIHmNsQs3i"
      },
      "href" : "https://api.spotify.com/v1/tracks/1G8LqcL6DkuldIHmNsQs3i",
      "id" : "1G8LqcL6DkuldIHmNsQs3i",
      "is_local" : false,
      "is_playable" : true,
      "name" : "He Lives In You",
      "popularity" : 23,
      "preview_url" : null,
      "track_number" : 1,
      "type" : "track",
      "uri" : "spotify:track:1G8LqcL6DkuldIHmNsQs3i"
    }, {
      "album" : {
        "album_type" : "album",
        "artists" : [ {
          "external_urls" : {
            "spotify" : "https://open.spotify.com/artist/1R486Y8DuEKEH01hypvW1B"
          },
          "href" : "https://api.spotify.com/v1/artists/1R486Y8DuEKEH01hypvW1B",
          "id" : "1R486Y8DuEKEH01hypvW1B",
          "name" : "David Phelps",
          "type" : "artist",
          "uri" : "spotify:artist:1R486Y8DuEKEH01hypvW1B"
        } ],
        "external_urls" : {
          "spotify" : "https://open.spotify.com/album/2oY4zzT9MroS8U2keJhfzF"
        },
        "href" : "https://api.spotify.com/v1/albums/2oY4zzT9MroS8U2keJhfzF",
        "id" : "2oY4zzT9MroS8U2keJhfzF",
        "images" : [ {
          "height" : 640,
          "url" : "https://i.scdn.co/image/ab67616d0000b273ff2d4c00f12207a0d239e511",
          "width" : 640
        }, {
          "height" : 300,
          "url" : "https://i.scdn.co/image/ab67616d00001e02ff2d4c00f12207a0d239e511",
          "width" : 300
        }, {
          "height" : 64,
          "url" : "https://i.scdn.co/image/ab67616d00004851ff2d4c00f12207a0d239e511",
          "width" : 64
        } ],
        "name" : "Hymnal",
        "release_date" : "2017-03-24",
        "release_date_precision" : "day",
        "total_tracks" : 18,
        "type" : "album",
        "uri" : "spotify:album:2oY4zzT9MroS8U2keJhfzF"
      },
      "artists" : [ {
        "external_urls" : {
          "spotify" : "https://open.spotify.com/artist/1R486Y8DuEKEH01hypvW1B"
        },
        "href" : "https://api.spotify.com/v1/artists/1R486Y8DuEKEH01hypvW1B",
        "id" : "1R486Y8DuEKEH01hypvW1B",
        "name" : "David Phelps",
        "type" : "artist",
        "uri" : "spotify:artist:1R486Y8DuEKEH01hypvW1B"
      } ],
      "disc_number" : 1,
      "duration_ms" : 243026,
      "explicit" : false,
      "external_ids" : {
        "isrc" : "US3271700147"
      },
      "external_urls" : {
        "spotify" : "https://open.spotify.com/track/5MAUH8GzblM90cyzTcWASH"
      },
      "href" : "https://api.spotify.com/v1/tracks/5MAUH8GzblM90cyzTcWASH",
      "id" : "5MAUH8GzblM90cyzTcWASH",
      "is_local" : false,
      "is_playable" : true,
      "name" : "He Lives",
      "popularity" : 24,
      "preview_url" : null,
      "track_number" : 4,
      "type" : "track",
      "uri" : "spotify:track:5MAUH8GzblM90cyzTcWASH"
    } ],
    "limit" : 10,
    "next" : "https://api.spotify.com/v1/search?query=He+Lives&type=track&market=US&offset=15&limit=10",
    "offset" : 5,
    "previous" : "https://api.spotify.com/v1/search?query=He+Lives&type=track&market=US&offset=0&limit=10",
    "total" : 4852
  }
}