{
  "tracks" : {
    "href" : "https://api.spotify.com/v1/search?query=Peace%2C+Perfect+Peace&type=track&market=US&offset=5&limit=10",
    "items" : [ {
      "album" : {
        "album_type" : "album",
        "artists" : [ {
          "external_urls" : {
            "spotify" : "https://open.spotify.com/artist/55rBZNMHfjE7vNhEQIJnID"
          },
          "href" : "https://api.spotify.com/v1/artists/55rBZNMHfjE7vNhEQIJnID",
          "id" : "55rBZNMHfjE7vNhEQIJnID",
          "name" : "Perfect Confusion",
          "type" : "artist",
          "uri" : "spotify:artist:55rBZNMHfjE7vNhEQIJnID"
        } ],
        "external_urls" : {
          "spotify" : "https://open.spotify.com/album/1SJUt2FWkzDwlPk9yyxlPy"
        },
        "href" : "https://api.spotify.com/v1/albums/1SJUt2FWkzDwlPk9yyxlPy",
        "id" : "1SJUt2FWkzDwlPk9yyxlPy",
        "images" : [ {
          "height" : 640,
          "url" : "https://i.scdn.co/image/ab67616d0000b273f97504a60186376a3ac4e2b7",
          "width" : 640
        }, {
          "height" : 300,
          "url" : "https://i.scdn.co/image/ab67616d00001e02f97504a60186376a3ac4e2b7",
          "width" : 300
        }, {
          "height" : 64,
          "url" : "https://i.scdn.co/image/ab67616d00004851f97504a60186376a3ac4e2b7",
          "width" : 64
        } ],
        "name" : "Perfect Confusion",
        "release_date" : "2005-01-01",
        "release_date_precision" : "day",
        "total_tracks" : 10,
        "type" : "album",
        "uri" : "spotify:album:1SJUt2FWkzDwlPk9yyxlPy"
      },
      "artists" : [ {
        "external_urls" : {
          "spotify" : "https://open.spotify.com/artist/55rBZNMHfjE7vNhEQIJnID"
        },
        "href" : "https://api.spotify.com/v1/artists/55rBZNMHfjE7vNhEQIJnID",
        "id" : "55rBZNMHfjE7vNhEQIJnID",
        "name" : "Perfect Confusion",
        "type" : "artist",
        "uri" : "spotify:artist:55rBZNMHfjE7vNhEQIJnID"
      } ],
      "disc_number" : 1,
      "duration_ms" : 230880,
      "explicit" : false,
      "external_ids" : {
        "isrc" : "ushm20553387"
      },
      "external_urls" : {
        "spotify" : "https://open.spotify.com/track/6MB9kNDosalOSJjyVWAs3F"
      },
      "href" : "https://api.spotify.com/v1/tracks/6MB9kNDosalOSJjyVWAs3F",
      "id" : "6MB9kNDosalOSJjyVWAs3F",
      "is_local" : false,
      "is_playable" : true,
      "name" : "Make Peace and be Free",
      "popularity" : 40,
      "preview_url" : "https://p.scdn.co/mp3-preview/02ff8d331ebff3bd8cc116a9a9aa338d41548920?cid=774b29d4f13844c495f206cafdad9c86",
      "track_number" : 5,
      "type" : "track",
      "uri" : "spotify:track:6MB9kNDosalOSJjyVWAs3F"
    }, {
      "album" : {
        "album_type" : "album",
        "artists" : [ {
          "external_urls" : {
            "spotify" : "https://open.spotify.com/artist/2bBRxQ6hEba2rm64HLgFTo"
          },
          "href" : "https://api.spotify.com/v1/artists/2bBRxQ6hEba2rm64HLgFTo",
          "id" : "2bBRxQ6hEba2rm64HLgFTo",
          "name" : "Scripture Lullabies",
          "type" : "artist",
          "uri" : "spotify:artist:2bBRxQ6hEba2rm64HLgFTo"
        }, {
          "external_urls" : {
            "spotify" : "https://open.spotify.com/artist/2QAtHTrf3izFecwZUPkyRu"
          },
          "href" : "https://api.spotify.com/v1/artists/2QAtHTrf3izFecwZUPkyRu",
          "id" : "2QAtHTrf3izFecwZUPkyRu",
          "name" : "Jay Stocker",
          "type" : "artist",
          "uri" : "spotify:artist:2QAtHTrf3izFecwZUPkyRu"
        } ],
        "external_urls" : {
          "spotify" : "https://open.spotify.com/album/2nSV4HcjDBAUdTKPPOfsJc"
        },
        "href" : "https://api.spotify.com/v1/albums/2nSV4HcjDBAUdTKPPOfsJc",
        "id" : "2nSV4HcjDBAUdTKPPOfsJc",
        "images" : [ {
          "height" : 640,
          "url" : "https://i.scdn.co/image/ab67616d0000b273b0926e219f87715073109eb5",
          "width" : 640
        }, {
          "height" : 300,
          "url" : "https://i.scdn.co/image/ab67616d00001e02b0926e219f87715073109eb5",
          "width" : 300
        }, {
          "height" : 64,
          "url" : "https://i.scdn.co/image/ab67616d00004851b0926e219f87715073109eb5",
          "width" : 64
        } ],
        "name" : "Quietly (A Piano Album), Vol. 1",
        "release_date" : "2017-01-09",
        "release_date_precision" : "day",
        "total_tracks" : 11,
        "type" : "album",
        "uri" : "spotify:album:2nSV4HcjDBAUdTKPPOfsJc"
      },
      "artists" : [ {
        "external_urls" : {
          "spotify" : "https://open.spotify.com/artist/2bBRxQ6hEba2rm64HLgFTo"
        },
        "href" : "https://api.spotify.com/v1/artists/2bBRxQ6hEba2rm64HLgFTo",
        "id" : "2bBRxQ6hEba2rm64HLgFTo",
        "name" : "Scripture Lullabies",
        "type" : "artist",
        "uri" : "spotify:artist:2bBRxQ6hEba2rm64HLgFTo"
      }, {
        "external_urls" : {
          "spotify" : "https://open.spotify.com/artist/2QAtHTrf3izFecwZUPkyRu"
        },
        "href" : "https://api.spotify.com/v1/artists/2QAtHTrf3izFecwZUPkyRu",
        "id" : "2QAtHTrf3izFecwZUPkyRu",
        "name" : "Jay Stocker",
        "type" : "artist",
        "uri" : "spotify:artist:2QAtHTrf3izFecwZUPkyRu"
      } ],
      "disc_number" : 1,
      "duration_ms" : 344853,
      "explicit" : false,
      "external_ids" : {
        "isrc" : "US8CK1600005"
      },
      "external_urls" : {
        "spotify" : "https://open.spotify.com/track/5GUlCATRSXX1bJYMQEgaua"
      },
      "href" : "https://api.spotify.com/v1/tracks/5GUlCATRSXX1bJYMQEgaua",
      "id" : "5GUlCATRSXX1bJYMQEgaua",
      "is_local" : false,
      "is_playable" : true,
      "name" : "Perfect Peace",
      "popularity" : 39,
      "preview_url" : "https://p.scdn.co/mp3-preview/e2c7666cc6fd3535adc25d574ae0edce2dc544b9?cid=774b29d4f13844c495f206cafdad9c86",
      "track_number" : 5,
      "type" : "track",
      "uri" : "spotify:track:5GUlCATRSXX1bJYMQEgaua"
    }, {
      "album" : {
        "album_type" : "album",
        "artists" : [ {
          "external_urls" : {
            "spotify" : "https://open.spotify.com/artist/4DFhHyjvGYa9wxdHUjtDkc"
          },
          "href" : "https://api.spotify.com/v1/artists/4DFhHyjvGYa9wxdHUjtDkc",
          "id" : "4DFhHyjvGYa9wxdHUjtDkc",
          "name" : "A Perfect Circle",
          "type" : "artist",
          "uri" : "spotify:artist:4DFhHyjvGYa9wxdHUjtDkc"
        } ],
        "external_urls" : {
          "spotify" : "https://open.spotify.com/album/2UAin9VEGxiZRfe9Q7SKg4"
        },
        "href" : "https://api.spotify.com/v1/albums/2UAin9VEGxiZRfe9Q7SKg4",
        "id" : "2UAin9VEGxiZRfe9Q7SKg4",
        "images" : [ {
          "height" : 640,
          "url" : "https://i.scdn.co/image/ab67616d0000b27345b5f30961eb51e61622f266",
          "width" : 640
        }, {
          "height" : 300,
          "url" : "https://i.scdn.co/image/ab67616d00001e0245b5f30961eb51e61622f266",
          "width" : 300
        }, {
          "height" : 64,
          "url" : "https://i.scdn.co/image/ab67616d0000485145b5f30961eb51e61622f266",
          "width" : 64
        } ],
        "name" : "eMOTIVe",
        "release_date" : "2004-01-01",
        "release_date_precision" : "day",
        "total_tracks" : 12,
        "type" : "album",
        "uri" : "spotify:album:2UAin9VEGxiZRfe9Q7SKg4"
      },
      "artists" : [ {
        "external_urls" : {
          "spotify" : "https://open.spotify.com/artist/4DFhHyjvGYa9wxdHUjtDkc"
        },
        "href" : "https://api.spotify.com/v1/artists/4DFhHyjvGYa9wxdHUjtDkc",
        "id" : "4DFhHyjvGYa9wxdHUjtDkc",
        "name" : "A Perfect Circle",
        "type" : "artist",
        "uri" : "spotify:artist:4DFhHyjvGYa9wxdHUjtDkc"
      } ],
      "disc_number" : 1,
      "duration_ms" : 303213,
      "explicit" : false,
      "external_ids" : {
        "isrc" : "USVI20400535"
      },
      "external_urls" : {
        "spotify" : "https://open.spotify.com/track/1glxD5gY6ec3pmm5YgBcCR"
      },
      "href" : "https://api.spotify.com/v1/tracks/1glxD5gY6ec3pmm5YgBcCR",
      "id" : "1glxD5gY6ec3pmm5YgBcCR",
      "is_local" : false,
      "is_playable" : true,
      "name" : "Peace Love And Understanding",
      "popularity" : 43,
      "preview_url" : null,
      "track_number" : 3,
      "type" : "track",
      "uri" : "spotify:track:1glxD5gY6ec3pmm5YgBcCR"
    }, {
      "album" : {
        "album_type" : "compilation",
        "artists" : [ {
          "external_urls" : {
            "spotify" : "https://open.spotify.com/artist/5r0KYGxdIZEHZ6z6XbkVbo"
          },
          "href" : "https://api.spotify.com/v1/artists/5r0KYGxdIZEHZ6z6XbkVbo",
          "id" : "5r0KYGxdIZEHZ6z6XbkVbo",
          "name" : "Marvin Sapp",
          "type" : "artist",
          "uri" : "spotify:artist:5r0KYGxdIZEHZ6z6XbkVbo"
        } ],
        "external_urls" : {
          "spotify" : "https://open.spotify.com/album/4cO3beye2mAcavJwVsJfQH"
        },
        "href" : "https://api.spotify.com/v1/albums/4cO3beye2mAcavJwVsJfQH",
        "id" : "4cO3beye2mAcavJwVsJfQH",
        "images" : [ {
          "height" : 640,
          "url" : "https://i.scdn.co/image/ab67616d0000b273f8189007822f6cb0ce4a2505",
          "width" : 640
        }, {
          "height" : 300,
          "url" : "https://i.scdn.co/image/ab67616d00001e02f8189007822f6cb0ce4a2505",
          "width" : 300
        }, {
          "height" : 64,
          "url" : "https://i.scdn.co/image/ab67616d00004851f8189007822f6cb0ce4a2505",
          "width" : 64
        } ],
        "name" : "Playlist: The Very Best Of Marvin Sapp",
        "release_date" : "2011",
        "release_date_precision" : "year",
        "total_tracks" : 12,
        "type" : "album",
        "uri" : "spotify:album:4cO3beye2mAcavJwVsJfQH"
      },
      "artists" : [ {
        "external_urls" : {
          "spotify" : "https://open.spotify.com/artist/5r0KYGxdIZEHZ6z6XbkVbo"
        },
        "href" : "https://api.spotify.com/v1/artists/5r0KYGxdIZEHZ6z6XbkVbo",
        "id" : "5r0KYGxdIZEHZ6z6XbkVbo",
        "name" : "Marvin Sapp",
        "type" : "artist",
        "uri" : "spotify:artist:5r0KYGxdIZEHZ6z6XbkVbo"
      } ],
      "disc_number" : 1,
      "duration_ms" : 293053,
      "explicit" : false,
      "external_ids" : {
        "isrc" : "USVE20500143"
      },
      "external_urls" : {
        "spotify" : "https://open.spotify.com/track/3MTrraUGESEWh35fL9mQnB"
      },
      "href" : "https://api.spotify.com/v1/tracks/3MTrraUGESEWh35fL9mQnB",
      "id" : "3MTrraUGESEWh35fL9mQnB",
      "is_local" : false,
      "is_playable" : true,
      "name" : "Perfect Peace",
      "popularity" : 32,
      "preview_url" : "https://p.scdn.co/mp3-preview/2a5c3919b6c7fe0a05c1a2ea8f7a7522586676d1?cid=774b29d4f13844c495f206cafdad9c86",
      "track_number" : 2,
      "type" : "track",
      "uri" : "spotify:track:3MTrraUGESEWh35fL9mQnB"
    }, {
      "album" : {
        "album_type" : "album",
        "artists" : [ {
          "external_urls" : {
            "spotify" : "https://open.spotify.com/artist/7ua35iM0VjwfuHopuQDScm"
          },
          "href" : "https://api.spotify.com/v1/artists/7ua35iM0VjwfuHopuQDScm",
          "id" : "7ua35iM0VjwfuHopuQDScm",
          "name" : "Twila Paris",
          "type" : "artist",
          "uri" : "spotify:artist:7ua35iM0VjwfuHopuQDScm"
        } ],
        "external_urls" : {
          "spotify" : "https://open.spotify.com/album/0TdBkNElqbueLNN8wGKM0e"
        },
        "href" : "https://api.spotify.com/v1/albums/0TdBkNElqbueLNN8wGKM0e",
        "id" : "0TdBkNElqbueLNN8wGKM0e",
        "images" : [ {
          "height" : 640,
          "url" : "https://i.scdn.co/image/ab67616d0000b2731955145ef06126ba0fb6afc8",
          "width" : 640
        }, {
          "height" : 300,
          "url" : "https://i.scdn.co/image/ab67616d00001e021955145ef06126ba0fb6afc8",
          "width" : 300
        }, {
          "height" : 64,
          "url" : "https://i.scdn.co/image/ab67616d000048511955145ef06126ba0fb6afc8",
          "width" : 64
        } ],
        "name" : "Bedtime Prayers",
        "release_date" : "2001-01-01",
        "release_date_precision" : "day",
        "total_tracks" : 12,
        "type" : "album",
        "uri" : "spotify:album:0TdBkNElqbueLNN8wGKM0e"
      },
      "artists" : [ {
        "external_urls" : {
          "spotify" : "https://open.spotify.com/artist/7ua35iM0VjwfuHopuQDScm"
        },
        "href" : "https://api.spotify.com/v1/artists/7ua35iM0VjwfuHopuQDScm",
        "id" : "7ua35iM0VjwfuHopuQDScm",
        "name" : "Twila Paris",
        "type" : "artist",
        "uri" : "spotify:artist:7ua35iM0VjwfuHopuQDScm"
      } ],
      "disc_number" : 1,
      "duration_ms" : 203600,
      "explicit" : false,
      "external_ids" : {
        "isrc" : "USSP30114489"
      },
      "external_urls" : {
        "spotify" : "https://open.spotify.com/track/4q3f9fojByQ5yJnaqAM1s3"
      },
      "href" : "https://api.spotify.com/v1/tracks/4q3f9fojByQ5yJnaqAM1s3",
      "id" : "4q3f9fojByQ5yJnaqAM1s3",
      "is_local" : false,
      "is_playable" : true,
      "name" : "Perfect Peace",
      "popularity" : 31,
      "preview_url" : null,
      "track_number" : 4,
      "type" : "track",
      "uri" : "spotify:track:4q3f9fojByQ5yJnaqAM1s3"
    }, {
      "album" : {
        "album_type" : "single",
        "artists" : [ {
          "external_urls" : {
            "spotify" : "https://open.spotify.com/artist/5v5staKWV7QHE11Xu3A5Pg"
          },
          "href" : "https://api.spotify.com/v1/artists/5v5staKWV7QHE11Xu3A5Pg",
          "id" : "5v5staKWV7QHE11Xu3A5Pg",
          "name" : "Stanton Lanier",
          "type" : "artist",
          "uri" : "spotify:artist:5v5staKWV7QHE11Xu3A5Pg"
        } ],
        "external_urls" : {
          "spotify" : "https://open.spotify.com/album/4JdUoX6CxvrlBmVyGNL4j2"
        },
        "href" : "https://api.spotify.com/v1/albums/4JdUoX6CxvrlBmVyGNL4j2",
        "id" : "4JdUoX6CxvrlBmVyGNL4j2",
        "images" : [ {
          "height" : 640,
          "url" : "https://i.scdn.co/image/ab67616d0000b2737e4ee71c963b62545a5684b4",
          "width" : 640
        }, {
          "height" : 300,
          "url" : "https://i.scdn.co/image/ab67616d00001e027e4ee71c963b62545a5684b4",
          "width" : 300
        }, {
          "height" : 64,
          "url" : "https://i.scdn.co/image/ab67616d000048517e4ee71c963b62545a5684b4",
          "width" : 64
        } ],
        "name" : "Perfect Peace",
        "release_date" : "2020-04-28",
        "release_date_precision" : "day",
        "total_tracks" : 1,
        "type" : "album",
        "uri" : "spotify:album:4JdUoX6CxvrlBmVyGNL4j2"
      },
      "artists" : [ {
        "external_urls" : {
          "spotify" : "https://open.spotify.com/artist/5v5staKWV7QHE11Xu3A5Pg"
        },
        "href" : "https://api.spotify.com/v1/artists/5v5staKWV7QHE11Xu3A5Pg",
        "id" : "5v5staKWV7QHE11Xu3A5Pg",
        "name" : "Stanton Lanier",
        "type" : "artist",
        "uri" : "spotify:artist:5v5staKWV7QHE11Xu3A5Pg"
      } ],
      "disc_number" : 1,
      "duration_ms" : 309943,
      "explicit" : false,
      "external_ids" : {
        "isrc" : "USK4N2000002"
      },
      "external_urls" : {
        "spotify" : "https://open.spotify.com/track/7hDcco5BlJmC56Vf2DOvOU"
      },
      "href" : "https://api.spotify.com/v1/tracks/7hDcco5BlJmC56Vf2DOvOU",
      "id" : "7hDcco5BlJmC56Vf2DOvOU",
      "is_local" : false,
      "is_playable" : true,
      "name" : "Perfect Peace",
      "popularity" : 34,
      "preview_url" : "https://p.scdn.co/mp3-preview/f096c7de2827a085712715f12068fa65ed697e0f?cid=774b29d4f13844c495f206cafdad9c86",
      "track_number" : 1,
      "type" : "track",
      "uri" : "spotify:track:7hDcco5BlJmC56Vf2DOvOU"
    }, {
      "album" : {
        "album_type" : "album",
        "artists" : [ {
          "external_urls" : {
            "spotify" : "https://open.spotify.com/artist/0LyfQWJT6nXafLPZqxe9Of"
          },
          "href" : "https://api.spotify.com/v1/artists/0LyfQWJT6nXafLPZqxe9Of",
          "id" : "0LyfQWJT6nXafLPZqxe9Of",
          "name" : "Various Artists",
          "type" : "artist",
          "uri" : "spotify:artist:0LyfQWJT6nXafLPZqxe9Of"
        } ],
        "external_urls" : {
          "spotify" : "https://open.spotify.com/album/7adWvfeARwneycVMK7VWzV"
        },
        "href" : "https://api.spotify.com/v1/albums/7adWvfeARwneycVMK7VWzV",
        "id" : "7adWvfeARwneycVMK7VWzV",
        "images" : [ {
          "height" : 640,
          "url" : "https://i.scdn.co/image/ab67616d0000b273a5b0c0318c34c0e6fa9cc3f2",
          "width" : 640
        }, {
          "height" : 300,
          "url" : "https://i.scdn.co/image/ab67616d00001e02a5b0c0318c34c0e6fa9cc3f2",
          "width" : 300
        }, {
          "height" : 64,
          "url" : "https://i.scdn.co/image/ab67616d00004851a5b0c0318c34c0e6fa9cc3f2",
          "width" : 64
        } ],
        "name" : "Amazing Spa - The Perfect Relaxation Symphony, Vol.1",
        "release_date" : "2020-05-20",
        "release_date_precision" : "day",
        "total_tracks" : 40,
        "type" : "album",
        "uri" : "spotify:album:7adWvfeARwneycVMK7VWzV"
      },
      "artists" : [ {
        "external_urls" : {
          "spotify" : "https://open.spotify.com/artist/0JWyiWM8fihe9rTVVNBR4t"
        },
        "href" : "https://api.spotify.com/v1/artists/0JWyiWM8fihe9rTVVNBR4t",
        "id" : "0JWyiWM8fihe9rTVVNBR4t",
        "name" : "Serenity Calls",
        "type" : "artist",
        "uri" : "spotify:artist:0JWyiWM8fihe9rTVVNBR4t"
      } ],
      "disc_number" : 1,
      "duration_ms" : 149626,
      "explicit" : false,
      "external_ids" : {
        "isrc" : "ITZ071803229"
      },
      "external_urls" : {
        "spotify" : "https://open.spotify.com/track/36nmG7BMrqcDSpDKjKYUVF"
      },
      "href" : "https://api.spotify.com/v1/tracks/36nmG7BMrqcDSpDKjKYUVF",
      "id" : "36nmG7BMrqcDSpDKjKYUVF",
      "is_local" : false,
      "is_playable" : true,
      "name" : "Peaceful Nature - Original Mix",
      "popularity" : 0,
      "preview_url" : "https://p.scdn.co/mp3-preview/fc04d11e9677a4aa0194cdef621595aee01e0de4?cid=774b29d4f13844c495f206cafdad9c86",
      "track_number" : 25,
      "type" : "track",
      "uri" : "spotify:track:36nmG7BMrqcDSpDKjKYUVF"
    }, {
      "album" : {
        "album_type" : "album",
        "artists" : [ {
          "external_urls" : {
            "spotify" : "https://open.spotify.com/artist/0LyfQWJT6nXafLPZqxe9Of"
          },
          "href" : "https://api.spotify.com/v1/artists/0LyfQWJT6nXafLPZqxe9Of",
          "id" : "0LyfQWJT6nXafLPZqxe9Of",
          "name" : "Various Artists",
          "type" : "artist",
          "uri" : "spotify:artist:0LyfQWJT6nXafLPZqxe9Of"
        } ],
        "external_urls" : {
          "spotify" : "https://open.spotify.com/album/4cNEyWKsL5nY0VdvO3mqQL"
        },
        "href" : "https://api.spotify.com/v1/albums/4cNEyWKsL5nY0VdvO3mqQL",
        "id" : "4cNEyWKsL5nY0VdvO3mqQL",
        "images" : [ ],
        "name" : "Spa Extraordinaire - Perfect Tunes For Soothing Your Senses, Vol. 5",
        "release_date" : "2020-05-20",
        "release_date_precision" : "day",
        "total_tracks" : 40,
        "type" : "album",
        "uri" : "spotify:album:4cNEyWKsL5nY0VdvO3mqQL"
      },
      "artists" : [ {
        "external_urls" : {
          "spotify" : "https://open.spotify.com/artist/0JWyiWM8fihe9rTVVNBR4t"
        },
        "href" : "https://api.spotify.com/v1/artists/0JWyiWM8fihe9rTVVNBR4t",
        "id" : "0JWyiWM8fihe9rTVVNBR4t",
        "name" : "Serenity Calls",
        "type" : "artist",
        "uri" : "spotify:artist:0JWyiWM8fihe9rTVVNBR4t"
      } ],
      "disc_number" : 1,
      "duration_ms" : 149626,
      "explicit" : false,
      "external_ids" : {
        "isrc" : "ITZ071803229"
      },
      "external_urls" : {
        "spotify" : "https://open.spotify.com/track/0F6YBYmMEOZzGpOmRWl8wY"
      },
      "href" : "https://api.spotify.com/v1/tracks/0F6YBYmMEOZzGpOmRWl8wY",
      "id" : "0F6YBYmMEOZzGpOmRWl8wY",
      "is_local" : false,
      "is_playable" : true,
      "name" : "Peaceful Nature - Original Mix",
      "popularity" : 0,
      "preview_url" : "https://p.scdn.co/mp3-preview/fc04d11e9677a4aa0194cdef621595aee01e0de4?cid=774b29d4f13844c495f206cafdad9c86",
      "track_number" : 29,
      "type" : "track",
      "uri" : "spotify:track:0F6YBYmMEOZzGpOmRWl8wY"
    }, {
      "album" : {
        "album_type" : "album",
        "artists" : [ {
          "external_urls" : {
            "spotify" : "https://open.spotify.com/artist/0qKOMcuFgagNQJWHHK7NY6"
          },
          "href" : "https://api.spotify.com/v1/artists/0qKOMcuFgagNQJWHHK7NY6",
          "id" : "0qKOMcuFgagNQJWHHK7NY6",
          "name" : "Laura Story",
          "type" : "artist",
          "uri" : "spotify:artist:0qKOMcuFgagNQJWHHK7NY6"
        } ],
        "external_urls" : {
          "spotify" : "https://open.spotify.com/album/0QuGrGmH2VaVUvMZgEbYUr"
        },
        "href" : "https://api.spotify.com/v1/albums/0QuGrGmH2VaVUvMZgEbYUr",
        "id" : "0QuGrGmH2VaVUvMZgEbYUr",
        "images" : [ {
          "height" : 640,
          "url" : "https://i.scdn.co/image/ab67616d0000b273f9c3d3bcf2636ecfbdc412a8",
          "width" : 640
        }, {
          "height" : 300,
          "url" : "https://i.scdn.co/image/ab67616d00001e02f9c3d3bcf2636ecfbdc412a8",
          "width" : 300
        }, {
          "height" : 64,
          "url" : "https://i.scdn.co/image/ab67616d00004851f9c3d3bcf2636ecfbdc412a8",
          "width" : 64
        } ],
        "name" : "Great God Who Saves",
        "release_date" : "2008-03-18",
        "release_date_precision" : "day",
        "total_tracks" : 10,
        "type" : "album",
        "uri" : "spotify:album:0QuGrGmH2VaVUvMZgEbYUr"
      },
      "artists" : [ {
        "external_urls" : {
          "spotify" : "https://open.spotify.com/artist/0qKOMcuFgagNQJWHHK7NY6"
        },
        "href" : "https://api.spotify.com/v1/artists/0qKOMcuFgagNQJWHHK7NY6",
        "id" : "0qKOMcuFgagNQJWHHK7NY6",
        "name" : "Laura Story",
        "type" : "artist",
        "uri" : "spotify:artist:0qKOMcuFgagNQJWHHK7NY6"
      } ],
      "disc_number" : 1,
      "duration_ms" : 227840,
      "explicit" : false,
      "external_ids" : {
        "isrc" : "USM2C0701010"
      },
      "external_urls" : {
        "spotify" : "https://open.spotify.com/track/346VmMBDzylMVkjhvi5Hql"
      },
      "href" : "https://api.spotify.com/v1/tracks/346VmMBDzylMVkjhvi5Hql",
      "id" : "346VmMBDzylMVkjhvi5Hql",
      "is_local" : false,
      "is_playable" : true,
      "name" : "Perfect Peace",
      "popularity" : 26,
      "preview_url" : "https://p.scdn.co/mp3-preview/d6b190de8c4b310a52a2ceb5d84e06db69b9993e?cid=774b29d4f13844c495f206cafdad9c86",
      "track_number" : 10,
      "type" : "track",
      "uri" : "spotify:track:346VmMBDzylMVkjhvi5Hql"
    }, {
      "album" : {
        "album_type" : "album",
        "artists" : [ {
          "external_urls" : {
            "spotify" : "https://open.spotify.com/artist/5r0KYGxdIZEHZ6z6XbkVbo"
          },
          "href" : "https://api.spotify.com/v1/artists/5r0KYGxdIZEHZ6z6XbkVbo",
          "id" : "5r0KYGxdIZEHZ6z6XbkVbo",
          "name" : "Marvin Sapp",
          "type" : "artist",
          "uri" : "spotify:artist:5r0KYGxdIZEHZ6z6XbkVbo"
        } ],
        "external_urls" : {
          "spotify" : "https://open.spotify.com/album/05CwIq1GpLDPlrNeap6DMz"
        },
        "href" : "https://api.spotify.com/v1/albums/05CwIq1GpLDPlrNeap6DMz",
        "id" : "05CwIq1GpLDPlrNeap6DMz",
        "images" : [ {
          "height" : 640,
          "url" : "https://i.scdn.co/image/ab67616d0000b27345f24975bbbdf0833ff308e3",
          "width" : 640
        }, {
          "height" : 300,
          "url" : "https://i.scdn.co/image/ab67616d00001e0245f24975bbbdf0833ff308e3",
          "width" : 300
        }, {
          "height" : 64,
          "url" : "https://i.scdn.co/image/ab67616d0000485145f24975bbbdf0833ff308e3",
          "width" : 64
        } ],
        "name" : "Be Exalted",
        "release_date" : "2000-12-29",
        "release_date_precision" : "day",
        "total_tracks" : 13,
        "type" : "album",
        "uri" : "spotify:album:05CwIq1GpLDPlrNeap6DMz"
      },
      "artists" : [ {
        "external_urls" : {
          "spotify" : "https://open.spotify.com/artist/5r0KYGxdIZEHZ6z6XbkVbo"
        },
        "href" : "https://api.spotify.com/v1/artists/5r0KYGxdIZEHZ6z6XbkVbo",
        "id" : "5r0KYGxdIZEHZ6z6XbkVbo",
        "name" : "Marvin Sapp",
        "type" : "artist",
        "uri" : "spotify:artist:5r0KYGxdIZEHZ6z6XbkVbo"
      } ],
      "disc_number" : 1,
      "duration_ms" : 293560,
      "explicit" : false,
      "external_ids" : {
        "isrc" : "USVE20500143"
      },
      "external_urls" : {
        "spotify" : "https://open.spotify.com/track/7cBlPQl1bzZPI9JhxRQACl"
      },
      "href" : "https://api.spotify.com/v1/tracks/7cBlPQl1bzZPI9JhxRQACl",
      "id" : "7cBlPQl1bzZPI9JhxRQACl",
      "is_local" : false,
      "is_playable" : true,
      "name" : "Perfect Peace",
      "popularity" : 30,
      "preview_url" : "https://p.scdn.co/mp3-preview/4cdb1163ac1150736dd3e29ef6d915b2cc5c960c?cid=774b29d4f13844c495f206cafdad9c86",
      "track_number" : 6,
      "type" : "track",
      "uri" : "spotify:track:7cBlPQl1bzZPI9JhxRQACl"
    } ],
    "limit" : 10,
    "next" : "https://api.spotify.com/v1/search?query=Peace%2C+Perfect+Peace&type=track&market=US&offset=15&limit=10",
    "offset" : 5,
    "previous" : "https://api.spotify.com/v1/search?query=Peace%2C+Perfect+Peace&type=track&market=US&offset=0&limit=10",
    "total" : 8176
  }
}