{
  "tracks" : {
    "href" : "https://api.spotify.com/v1/search?query=God+Moves+in+a+Mysterious+Way&type=track&market=US&offset=5&limit=10",
    "items" : [ {
      "album" : {
        "album_type" : "album",
        "artists" : [ {
          "external_urls" : {
            "spotify" : "https://open.spotify.com/artist/5gWZC3kXTwxQGc9q3M16vK"
          },
          "href" : "https://api.spotify.com/v1/artists/5gWZC3kXTwxQGc9q3M16vK",
          "id" : "5gWZC3kXTwxQGc9q3M16vK",
          "name" : "LDS Piano",
          "type" : "artist",
          "uri" : "spotify:artist:5gWZC3kXTwxQGc9q3M16vK"
        } ],
        "external_urls" : {
          "spotify" : "https://open.spotify.com/album/320aFEMGpohWT3nsq4og42"
        },
        "href" : "https://api.spotify.com/v1/albums/320aFEMGpohWT3nsq4og42",
        "id" : "320aFEMGpohWT3nsq4og42",
        "images" : [ {
          "height" : 640,
          "url" : "https://i.scdn.co/image/ab67616d0000b273a0f376272666419c8b5a4571",
          "width" : 640
        }, {
          "height" : 300,
          "url" : "https://i.scdn.co/image/ab67616d00001e02a0f376272666419c8b5a4571",
          "width" : 300
        }, {
          "height" : 64,
          "url" : "https://i.scdn.co/image/ab67616d00004851a0f376272666419c8b5a4571",
          "width" : 64
        } ],
        "name" : "The Mormon Hymnbook Volume 1",
        "release_date" : "2019-03-15",
        "release_date_precision" : "day",
        "total_tracks" : 16,
        "type" : "album",
        "uri" : "spotify:album:320aFEMGpohWT3nsq4og42"
      },
      "artists" : [ {
        "external_urls" : {
          "spotify" : "https://open.spotify.com/artist/5gWZC3kXTwxQGc9q3M16vK"
        },
        "href" : "https://api.spotify.com/v1/artists/5gWZC3kXTwxQGc9q3M16vK",
        "id" : "5gWZC3kXTwxQGc9q3M16vK",
        "name" : "LDS Piano",
        "type" : "artist",
        "uri" : "spotify:artist:5gWZC3kXTwxQGc9q3M16vK"
      } ],
      "disc_number" : 1,
      "duration_ms" : 110616,
      "explicit" : false,
      "external_ids" : {
        "isrc" : "GBSMU6195481"
      },
      "external_urls" : {
        "spotify" : "https://open.spotify.com/track/3rm63UkpDjlIdZmHEW4K46"
      },
      "href" : "https://api.spotify.com/v1/tracks/3rm63UkpDjlIdZmHEW4K46",
      "id" : "3rm63UkpDjlIdZmHEW4K46",
      "is_local" : false,
      "is_playable" : true,
      "name" : "God Moves in a Mysterious Way",
      "popularity" : 10,
      "preview_url" : "https://p.scdn.co/mp3-preview/8294acd2e9cab707b44d763a8583ab1da820ffe3?cid=774b29d4f13844c495f206cafdad9c86",
      "track_number" : 13,
      "type" : "track",
      "uri" : "spotify:track:3rm63UkpDjlIdZmHEW4K46"
    }, {
      "album" : {
        "album_type" : "album",
        "artists" : [ {
          "external_urls" : {
            "spotify" : "https://open.spotify.com/artist/6jZbQXvNtDjnj18yoHMuvi"
          },
          "href" : "https://api.spotify.com/v1/artists/6jZbQXvNtDjnj18yoHMuvi",
          "id" : "6jZbQXvNtDjnj18yoHMuvi",
          "name" : "Jeremy Riddle",
          "type" : "artist",
          "uri" : "spotify:artist:6jZbQXvNtDjnj18yoHMuvi"
        } ],
        "external_urls" : {
          "spotify" : "https://open.spotify.com/album/2pwQURHVI96xlnjAg9RS0o"
        },
        "href" : "https://api.spotify.com/v1/albums/2pwQURHVI96xlnjAg9RS0o",
        "id" : "2pwQURHVI96xlnjAg9RS0o",
        "images" : [ {
          "height" : 640,
          "url" : "https://i.scdn.co/image/ab67616d0000b273d09841bc8c20841214b57afa",
          "width" : 640
        }, {
          "height" : 300,
          "url" : "https://i.scdn.co/image/ab67616d00001e02d09841bc8c20841214b57afa",
          "width" : 300
        }, {
          "height" : 64,
          "url" : "https://i.scdn.co/image/ab67616d00004851d09841bc8c20841214b57afa",
          "width" : 64
        } ],
        "name" : "Full Attention",
        "release_date" : "2007-03-06",
        "release_date_precision" : "day",
        "total_tracks" : 12,
        "type" : "album",
        "uri" : "spotify:album:2pwQURHVI96xlnjAg9RS0o"
      },
      "artists" : [ {
        "external_urls" : {
          "spotify" : "https://open.spotify.com/artist/6jZbQXvNtDjnj18yoHMuvi"
        },
        "href" : "https://api.spotify.com/v1/artists/6jZbQXvNtDjnj18yoHMuvi",
        "id" : "6jZbQXvNtDjnj18yoHMuvi",
        "name" : "Jeremy Riddle",
        "type" : "artist",
        "uri" : "spotify:artist:6jZbQXvNtDjnj18yoHMuvi"
      } ],
      "disc_number" : 1,
      "duration_ms" : 279428,
      "explicit" : false,
      "external_ids" : {
        "isrc" : "US2T30700722"
      },
      "external_urls" : {
        "spotify" : "https://open.spotify.com/track/0E392RbYTYN56PVBiHUKOY"
      },
      "href" : "https://api.spotify.com/v1/tracks/0E392RbYTYN56PVBiHUKOY",
      "id" : "0E392RbYTYN56PVBiHUKOY",
      "is_local" : false,
      "is_playable" : true,
      "name" : "God Moves In a Mysterious Way",
      "popularity" : 13,
      "preview_url" : "https://p.scdn.co/mp3-preview/8e6d9d45b147ad3a30d2ccf8f71fc047da6d77b4?cid=774b29d4f13844c495f206cafdad9c86",
      "track_number" : 10,
      "type" : "track",
      "uri" : "spotify:track:0E392RbYTYN56PVBiHUKOY"
    }, {
      "album" : {
        "album_type" : "album",
        "artists" : [ {
          "external_urls" : {
            "spotify" : "https://open.spotify.com/artist/72Nhcx7prNk2ZCxhx0Y5es"
          },
          "href" : "https://api.spotify.com/v1/artists/72Nhcx7prNk2ZCxhx0Y5es",
          "id" : "72Nhcx7prNk2ZCxhx0Y5es",
          "name" : "Amy Grant",
          "type" : "artist",
          "uri" : "spotify:artist:72Nhcx7prNk2ZCxhx0Y5es"
        } ],
        "external_urls" : {
          "spotify" : "https://open.spotify.com/album/4kw9LCGUCFSBHiKXk8gTwi"
        },
        "href" : "https://api.spotify.com/v1/albums/4kw9LCGUCFSBHiKXk8gTwi",
        "id" : "4kw9LCGUCFSBHiKXk8gTwi",
        "images" : [ {
          "height" : 640,
          "url" : "https://i.scdn.co/image/ab67616d0000b27320d10f7b953aafba5328008f",
          "width" : 640
        }, {
          "height" : 300,
          "url" : "https://i.scdn.co/image/ab67616d00001e0220d10f7b953aafba5328008f",
          "width" : 300
        }, {
          "height" : 64,
          "url" : "https://i.scdn.co/image/ab67616d0000485120d10f7b953aafba5328008f",
          "width" : 64
        } ],
        "name" : "Rock Of Ages...Hymns & Faith",
        "release_date" : "2005",
        "release_date_precision" : "year",
        "total_tracks" : 13,
        "type" : "album",
        "uri" : "spotify:album:4kw9LCGUCFSBHiKXk8gTwi"
      },
      "artists" : [ {
        "external_urls" : {
          "spotify" : "https://open.spotify.com/artist/72Nhcx7prNk2ZCxhx0Y5es"
        },
        "href" : "https://api.spotify.com/v1/artists/72Nhcx7prNk2ZCxhx0Y5es",
        "id" : "72Nhcx7prNk2ZCxhx0Y5es",
        "name" : "Amy Grant",
        "type" : "artist",
        "uri" : "spotify:artist:72Nhcx7prNk2ZCxhx0Y5es"
      } ],
      "disc_number" : 1,
      "duration_ms" : 126502,
      "explicit" : false,
      "external_ids" : {
        "isrc" : "USSP31200356"
      },
      "external_urls" : {
        "spotify" : "https://open.spotify.com/track/20FZDPX1xgtd0PZwL4sP30"
      },
      "href" : "https://api.spotify.com/v1/tracks/20FZDPX1xgtd0PZwL4sP30",
      "id" : "20FZDPX1xgtd0PZwL4sP30",
      "is_local" : false,
      "is_playable" : true,
      "name" : "God Moves In A Mysterious Way / The Lord Is In His Holy Temple",
      "popularity" : 15,
      "preview_url" : null,
      "track_number" : 9,
      "type" : "track",
      "uri" : "spotify:track:20FZDPX1xgtd0PZwL4sP30"
    }, {
      "album" : {
        "album_type" : "album",
        "artists" : [ {
          "external_urls" : {
            "spotify" : "https://open.spotify.com/artist/1srLlKy0yVmQorLl9PhXbS"
          },
          "href" : "https://api.spotify.com/v1/artists/1srLlKy0yVmQorLl9PhXbS",
          "id" : "1srLlKy0yVmQorLl9PhXbS",
          "name" : "Graham Kendrick",
          "type" : "artist",
          "uri" : "spotify:artist:1srLlKy0yVmQorLl9PhXbS"
        } ],
        "external_urls" : {
          "spotify" : "https://open.spotify.com/album/6kZjNM56sF3XtFimbq08hs"
        },
        "href" : "https://api.spotify.com/v1/albums/6kZjNM56sF3XtFimbq08hs",
        "id" : "6kZjNM56sF3XtFimbq08hs",
        "images" : [ {
          "height" : 640,
          "url" : "https://i.scdn.co/image/ab67616d0000b273655e6d6cb0bf46a8f20abeb6",
          "width" : 640
        }, {
          "height" : 300,
          "url" : "https://i.scdn.co/image/ab67616d00001e02655e6d6cb0bf46a8f20abeb6",
          "width" : 300
        }, {
          "height" : 64,
          "url" : "https://i.scdn.co/image/ab67616d00004851655e6d6cb0bf46a8f20abeb6",
          "width" : 64
        } ],
        "name" : "Keep the Banner Flying High (Live Worship)",
        "release_date" : "2018-05-18",
        "release_date_precision" : "day",
        "total_tracks" : 10,
        "type" : "album",
        "uri" : "spotify:album:6kZjNM56sF3XtFimbq08hs"
      },
      "artists" : [ {
        "external_urls" : {
          "spotify" : "https://open.spotify.com/artist/1srLlKy0yVmQorLl9PhXbS"
        },
        "href" : "https://api.spotify.com/v1/artists/1srLlKy0yVmQorLl9PhXbS",
        "id" : "1srLlKy0yVmQorLl9PhXbS",
        "name" : "Graham Kendrick",
        "type" : "artist",
        "uri" : "spotify:artist:1srLlKy0yVmQorLl9PhXbS"
      } ],
      "disc_number" : 1,
      "duration_ms" : 229040,
      "explicit" : false,
      "external_ids" : {
        "isrc" : "TCADQ1803848"
      },
      "external_urls" : {
        "spotify" : "https://open.spotify.com/track/42FF3UYMFvh9NjwgfPSC6J"
      },
      "href" : "https://api.spotify.com/v1/tracks/42FF3UYMFvh9NjwgfPSC6J",
      "id" : "42FF3UYMFvh9NjwgfPSC6J",
      "is_local" : false,
      "is_playable" : true,
      "name" : "God Moves in a Mysterious Way (Live)",
      "popularity" : 17,
      "preview_url" : "https://p.scdn.co/mp3-preview/50bd4b6831e2f1b0e1135bf3ad2ae88ac89279d2?cid=774b29d4f13844c495f206cafdad9c86",
      "track_number" : 10,
      "type" : "track",
      "uri" : "spotify:track:42FF3UYMFvh9NjwgfPSC6J"
    }, {
      "album" : {
        "album_type" : "album",
        "artists" : [ {
          "external_urls" : {
            "spotify" : "https://open.spotify.com/artist/6TRcBSUMkNoHL49YHcyL8m"
          },
          "href" : "https://api.spotify.com/v1/artists/6TRcBSUMkNoHL49YHcyL8m",
          "id" : "6TRcBSUMkNoHL49YHcyL8m",
          "name" : "The Choir Of Selwyn College, Cambridge",
          "type" : "artist",
          "uri" : "spotify:artist:6TRcBSUMkNoHL49YHcyL8m"
        } ],
        "external_urls" : {
          "spotify" : "https://open.spotify.com/album/35z1t9AIGig8k4tNx2GknW"
        },
        "href" : "https://api.spotify.com/v1/albums/35z1t9AIGig8k4tNx2GknW",
        "id" : "35z1t9AIGig8k4tNx2GknW",
        "images" : [ {
          "height" : 640,
          "url" : "https://i.scdn.co/image/ab67616d0000b273b22a03e285ef89fd2484f4a1",
          "width" : 640
        }, {
          "height" : 300,
          "url" : "https://i.scdn.co/image/ab67616d00001e02b22a03e285ef89fd2484f4a1",
          "width" : 300
        }, {
          "height" : 64,
          "url" : "https://i.scdn.co/image/ab67616d00004851b22a03e285ef89fd2484f4a1",
          "width" : 64
        } ],
        "name" : "Complete New English Hymnal Vol. 14",
        "release_date" : "2003-07-31",
        "release_date_precision" : "day",
        "total_tracks" : 22,
        "type" : "album",
        "uri" : "spotify:album:35z1t9AIGig8k4tNx2GknW"
      },
      "artists" : [ {
        "external_urls" : {
          "spotify" : "https://open.spotify.com/artist/6TRcBSUMkNoHL49YHcyL8m"
        },
        "href" : "https://api.spotify.com/v1/artists/6TRcBSUMkNoHL49YHcyL8m",
        "id" : "6TRcBSUMkNoHL49YHcyL8m",
        "name" : "The Choir Of Selwyn College, Cambridge",
        "type" : "artist",
        "uri" : "spotify:artist:6TRcBSUMkNoHL49YHcyL8m"
      } ],
      "disc_number" : 1,
      "duration_ms" : 171773,
      "explicit" : false,
      "external_ids" : {
        "isrc" : "GBXUX0871407"
      },
      "external_urls" : {
        "spotify" : "https://open.spotify.com/track/3ZQzsbLBDj6Rh9X6v7V6WZ"
      },
      "href" : "https://api.spotify.com/v1/tracks/3ZQzsbLBDj6Rh9X6v7V6WZ",
      "id" : "3ZQzsbLBDj6Rh9X6v7V6WZ",
      "is_local" : false,
      "is_playable" : true,
      "name" : "God Moves in a Mysterious Way",
      "popularity" : 9,
      "preview_url" : "https://p.scdn.co/mp3-preview/f0d898ffa6ab49e7efdabccd94b0b2bea7a338fd?cid=774b29d4f13844c495f206cafdad9c86",
      "track_number" : 7,
      "type" : "track",
      "uri" : "spotify:track:3ZQzsbLBDj6Rh9X6v7V6WZ"
    }, {
      "album" : {
        "album_type" : "album",
        "artists" : [ {
          "external_urls" : {
            "spotify" : "https://open.spotify.com/artist/2yQZGNQJExPLfCB8kfTD88"
          },
          "href" : "https://api.spotify.com/v1/artists/2yQZGNQJExPLfCB8kfTD88",
          "id" : "2yQZGNQJExPLfCB8kfTD88",
          "name" : "Andrey Jackson",
          "type" : "artist",
          "uri" : "spotify:artist:2yQZGNQJExPLfCB8kfTD88"
        } ],
        "external_urls" : {
          "spotify" : "https://open.spotify.com/album/30AOxaN0uerFFVNBUVs8lT"
        },
        "href" : "https://api.spotify.com/v1/albums/30AOxaN0uerFFVNBUVs8lT",
        "id" : "30AOxaN0uerFFVNBUVs8lT",
        "images" : [ {
          "height" : 640,
          "url" : "https://i.scdn.co/image/ab67616d0000b273251d7078a4e05c0cfe7692db",
          "width" : 640
        }, {
          "height" : 300,
          "url" : "https://i.scdn.co/image/ab67616d00001e02251d7078a4e05c0cfe7692db",
          "width" : 300
        }, {
          "height" : 64,
          "url" : "https://i.scdn.co/image/ab67616d00004851251d7078a4e05c0cfe7692db",
          "width" : 64
        } ],
        "name" : "Christian Hymns, Vol. 4, Organ Accompaniments (The Church Organist Series)",
        "release_date" : "2016-01-28",
        "release_date_precision" : "day",
        "total_tracks" : 32,
        "type" : "album",
        "uri" : "spotify:album:30AOxaN0uerFFVNBUVs8lT"
      },
      "artists" : [ {
        "external_urls" : {
          "spotify" : "https://open.spotify.com/artist/2yQZGNQJExPLfCB8kfTD88"
        },
        "href" : "https://api.spotify.com/v1/artists/2yQZGNQJExPLfCB8kfTD88",
        "id" : "2yQZGNQJExPLfCB8kfTD88",
        "name" : "Andrey Jackson",
        "type" : "artist",
        "uri" : "spotify:artist:2yQZGNQJExPLfCB8kfTD88"
      } ],
      "disc_number" : 1,
      "duration_ms" : 97537,
      "explicit" : false,
      "external_ids" : {
        "isrc" : "GB-SMU-25-31823"
      },
      "external_urls" : {
        "spotify" : "https://open.spotify.com/track/6AF6cZ9FqXg6ACbQe9NlyA"
      },
      "href" : "https://api.spotify.com/v1/tracks/6AF6cZ9FqXg6ACbQe9NlyA",
      "id" : "6AF6cZ9FqXg6ACbQe9NlyA",
      "is_local" : false,
      "is_playable" : true,
      "name" : "God Moves in a Mysterious Way",
      "popularity" : 6,
      "preview_url" : "https://p.scdn.co/mp3-preview/19f42f280c32297eaf72b1df2f206822c301a843?cid=774b29d4f13844c495f206cafdad9c86",
      "track_number" : 11,
      "type" : "track",
      "uri" : "spotify:track:6AF6cZ9FqXg6ACbQe9NlyA"
    }, {
      "album" : {
        "album_type" : "album",
        "artists" : [ {
          "external_urls" : {
            "spotify" : "https://open.spotify.com/artist/388LCJkhLWJ8wuej6CRvVI"
          },
          "href" : "https://api.spotify.com/v1/artists/388LCJkhLWJ8wuej6CRvVI",
          "id" : "388LCJkhLWJ8wuej6CRvVI",
          "name" : "Exodus Music",
          "type" : "artist",
          "uri" : "spotify:artist:388LCJkhLWJ8wuej6CRvVI"
        } ],
        "external_urls" : {
          "spotify" : "https://open.spotify.com/album/3DpMC8w1sE31TIhft3fLrq"
        },
        "href" : "https://api.spotify.com/v1/albums/3DpMC8w1sE31TIhft3fLrq",
        "id" : "3DpMC8w1sE31TIhft3fLrq",
        "images" : [ {
          "height" : 640,
          "url" : "https://i.scdn.co/image/ab67616d0000b273f9f1d3def59556016d54a3bd",
          "width" : 640
        }, {
          "height" : 300,
          "url" : "https://i.scdn.co/image/ab67616d00001e02f9f1d3def59556016d54a3bd",
          "width" : 300
        }, {
          "height" : 64,
          "url" : "https://i.scdn.co/image/ab67616d00004851f9f1d3def59556016d54a3bd",
          "width" : 64
        } ],
        "name" : "Christ Has Triumphed",
        "release_date" : "2016-05-06",
        "release_date_precision" : "day",
        "total_tracks" : 8,
        "type" : "album",
        "uri" : "spotify:album:3DpMC8w1sE31TIhft3fLrq"
      },
      "artists" : [ {
        "external_urls" : {
          "spotify" : "https://open.spotify.com/artist/388LCJkhLWJ8wuej6CRvVI"
        },
        "href" : "https://api.spotify.com/v1/artists/388LCJkhLWJ8wuej6CRvVI",
        "id" : "388LCJkhLWJ8wuej6CRvVI",
        "name" : "Exodus Music",
        "type" : "artist",
        "uri" : "spotify:artist:388LCJkhLWJ8wuej6CRvVI"
      } ],
      "disc_number" : 1,
      "duration_ms" : 196952,
      "explicit" : false,
      "external_ids" : {
        "isrc" : "TCACN1650141"
      },
      "external_urls" : {
        "spotify" : "https://open.spotify.com/track/3oDvcJvuhSE3GQECjzPWPa"
      },
      "href" : "https://api.spotify.com/v1/tracks/3oDvcJvuhSE3GQECjzPWPa",
      "id" : "3oDvcJvuhSE3GQECjzPWPa",
      "is_local" : false,
      "is_playable" : true,
      "name" : "God Moves in a Mysterious Way",
      "popularity" : 5,
      "preview_url" : "https://p.scdn.co/mp3-preview/4225503ef72ca187dcf0b6539295668492dc2f51?cid=774b29d4f13844c495f206cafdad9c86",
      "track_number" : 2,
      "type" : "track",
      "uri" : "spotify:track:3oDvcJvuhSE3GQECjzPWPa"
    }, {
      "album" : {
        "album_type" : "album",
        "artists" : [ {
          "external_urls" : {
            "spotify" : "https://open.spotify.com/artist/3MJUsEcavOpd7TBTrlUt0f"
          },
          "href" : "https://api.spotify.com/v1/artists/3MJUsEcavOpd7TBTrlUt0f",
          "id" : "3MJUsEcavOpd7TBTrlUt0f",
          "name" : "Harding University Concert Choir",
          "type" : "artist",
          "uri" : "spotify:artist:3MJUsEcavOpd7TBTrlUt0f"
        }, {
          "external_urls" : {
            "spotify" : "https://open.spotify.com/artist/6zCKr405jB5b6QI1IfFnf2"
          },
          "href" : "https://api.spotify.com/v1/artists/6zCKr405jB5b6QI1IfFnf2",
          "id" : "6zCKr405jB5b6QI1IfFnf2",
          "name" : "Dallas Christian Adult Concert Choir",
          "type" : "artist",
          "uri" : "spotify:artist:6zCKr405jB5b6QI1IfFnf2"
        } ],
        "external_urls" : {
          "spotify" : "https://open.spotify.com/album/6IfQTrRCMElgnAzBm2zPon"
        },
        "href" : "https://api.spotify.com/v1/albums/6IfQTrRCMElgnAzBm2zPon",
        "id" : "6IfQTrRCMElgnAzBm2zPon",
        "images" : [ {
          "height" : 640,
          "url" : "https://i.scdn.co/image/ab67616d0000b2737b35d162b16426542bd5fa75",
          "width" : 640
        }, {
          "height" : 300,
          "url" : "https://i.scdn.co/image/ab67616d00001e027b35d162b16426542bd5fa75",
          "width" : 300
        }, {
          "height" : 64,
          "url" : "https://i.scdn.co/image/ab67616d000048517b35d162b16426542bd5fa75",
          "width" : 64
        } ],
        "name" : "Mansions Over the Hilltop",
        "release_date" : "2008-05-13",
        "release_date_precision" : "day",
        "total_tracks" : 23,
        "type" : "album",
        "uri" : "spotify:album:6IfQTrRCMElgnAzBm2zPon"
      },
      "artists" : [ {
        "external_urls" : {
          "spotify" : "https://open.spotify.com/artist/6zCKr405jB5b6QI1IfFnf2"
        },
        "href" : "https://api.spotify.com/v1/artists/6zCKr405jB5b6QI1IfFnf2",
        "id" : "6zCKr405jB5b6QI1IfFnf2",
        "name" : "Dallas Christian Adult Concert Choir",
        "type" : "artist",
        "uri" : "spotify:artist:6zCKr405jB5b6QI1IfFnf2"
      } ],
      "disc_number" : 1,
      "duration_ms" : 140320,
      "explicit" : false,
      "external_ids" : {
        "isrc" : "USMZA0811784"
      },
      "external_urls" : {
        "spotify" : "https://open.spotify.com/track/40JVaTV1uRZ9MdI9vbkLcS"
      },
      "href" : "https://api.spotify.com/v1/tracks/40JVaTV1uRZ9MdI9vbkLcS",
      "id" : "40JVaTV1uRZ9MdI9vbkLcS",
      "is_local" : false,
      "is_playable" : true,
      "name" : "God Moves in a Mysterious Way",
      "popularity" : 7,
      "preview_url" : "https://p.scdn.co/mp3-preview/8cf1fa7e464f228efc87a5f7d27fe4f66b6c7164?cid=774b29d4f13844c495f206cafdad9c86",
      "track_number" : 18,
      "type" : "track",
      "uri" : "spotify:track:40JVaTV1uRZ9MdI9vbkLcS"
    }, {
      "album" : {
        "album_type" : "single",
        "artists" : [ {
          "external_urls" : {
            "spotify" : "https://open.spotify.com/artist/7mL4hHWlL3E1ib9MjI13wZ"
          },
          "href" : "https://api.spotify.com/v1/artists/7mL4hHWlL3E1ib9MjI13wZ",
          "id" : "7mL4hHWlL3E1ib9MjI13wZ",
          "name" : "The Lockwoods",
          "type" : "artist",
          "uri" : "spotify:artist:7mL4hHWlL3E1ib9MjI13wZ"
        } ],
        "external_urls" : {
          "spotify" : "https://open.spotify.com/album/4zcDieI87FhNDW96RAuY7q"
        },
        "href" : "https://api.spotify.com/v1/albums/4zcDieI87FhNDW96RAuY7q",
        "id" : "4zcDieI87FhNDW96RAuY7q",
        "images" : [ {
          "height" : 640,
          "url" : "https://i.scdn.co/image/ab67616d0000b27314121b726d044bb7f71ca589",
          "width" : 640
        }, {
          "height" : 300,
          "url" : "https://i.scdn.co/image/ab67616d00001e0214121b726d044bb7f71ca589",
          "width" : 300
        }, {
          "height" : 64,
          "url" : "https://i.scdn.co/image/ab67616d0000485114121b726d044bb7f71ca589",
          "width" : 64
        } ],
        "name" : "God Moves in a Mysterious Way",
        "release_date" : "2020-02-11",
        "release_date_precision" : "day",
        "total_tracks" : 1,
        "type" : "album",
        "uri" : "spotify:album:4zcDieI87FhNDW96RAuY7q"
      },
      "artists" : [ {
        "external_urls" : {
          "spotify" : "https://open.spotify.com/artist/7mL4hHWlL3E1ib9MjI13wZ"
        },
        "href" : "https://api.spotify.com/v1/artists/7mL4hHWlL3E1ib9MjI13wZ",
        "id" : "7mL4hHWlL3E1ib9MjI13wZ",
        "name" : "The Lockwoods",
        "type" : "artist",
        "uri" : "spotify:artist:7mL4hHWlL3E1ib9MjI13wZ"
      } ],
      "disc_number" : 1,
      "duration_ms" : 292340,
      "explicit" : false,
      "external_ids" : {
        "isrc" : "QZFYY2086792"
      },
      "external_urls" : {
        "spotify" : "https://open.spotify.com/track/6CMLksyFwynelMpGTWDhrQ"
      },
      "href" : "https://api.spotify.com/v1/tracks/6CMLksyFwynelMpGTWDhrQ",
      "id" : "6CMLksyFwynelMpGTWDhrQ",
      "is_local" : false,
      "is_playable" : true,
      "name" : "God Moves in a Mysterious Way",
      "popularity" : 6,
      "preview_url" : "https://p.scdn.co/mp3-preview/2cb9197f76f330f2fb0555013780bdd71eeaf1dc?cid=774b29d4f13844c495f206cafdad9c86",
      "track_number" : 1,
      "type" : "track",
      "uri" : "spotify:track:6CMLksyFwynelMpGTWDhrQ"
    }, {
      "album" : {
        "album_type" : "album",
        "artists" : [ {
          "external_urls" : {
            "spotify" : "https://open.spotify.com/artist/7lN2SeYUeU2etQjGbB3WDr"
          },
          "href" : "https://api.spotify.com/v1/artists/7lN2SeYUeU2etQjGbB3WDr",
          "id" : "7lN2SeYUeU2etQjGbB3WDr",
          "name" : "Nathan Partain",
          "type" : "artist",
          "uri" : "spotify:artist:7lN2SeYUeU2etQjGbB3WDr"
        } ],
        "external_urls" : {
          "spotify" : "https://open.spotify.com/album/3zBXhBFljYvg3I4sc5goIx"
        },
        "href" : "https://api.spotify.com/v1/albums/3zBXhBFljYvg3I4sc5goIx",
        "id" : "3zBXhBFljYvg3I4sc5goIx",
        "images" : [ {
          "height" : 640,
          "url" : "https://i.scdn.co/image/ab67616d0000b27381e75a43429724e2eb205379",
          "width" : 640
        }, {
          "height" : 300,
          "url" : "https://i.scdn.co/image/ab67616d00001e0281e75a43429724e2eb205379",
          "width" : 300
        }, {
          "height" : 64,
          "url" : "https://i.scdn.co/image/ab67616d0000485181e75a43429724e2eb205379",
          "width" : 64
        } ],
        "name" : "Jaywalker",
        "release_date" : "2015-06-12",
        "release_date_precision" : "day",
        "total_tracks" : 12,
        "type" : "album",
        "uri" : "spotify:album:3zBXhBFljYvg3I4sc5goIx"
      },
      "artists" : [ {
        "external_urls" : {
          "spotify" : "https://open.spotify.com/artist/7lN2SeYUeU2etQjGbB3WDr"
        },
        "href" : "https://api.spotify.com/v1/artists/7lN2SeYUeU2etQjGbB3WDr",
        "id" : "7lN2SeYUeU2etQjGbB3WDr",
        "name" : "Nathan Partain",
        "type" : "artist",
        "uri" : "spotify:artist:7lN2SeYUeU2etQjGbB3WDr"
      } ],
      "disc_number" : 1,
      "duration_ms" : 223081,
      "explicit" : false,
      "external_ids" : {
        "isrc" : "QM6VF1400010"
      },
      "external_urls" : {
        "spotify" : "https://open.spotify.com/track/1b5dWY0JMm6S9E7piSiFHB"
      },
      "href" : "https://api.spotify.com/v1/tracks/1b5dWY0JMm6S9E7piSiFHB",
      "id" : "1b5dWY0JMm6S9E7piSiFHB",
      "is_local" : false,
      "is_playable" : true,
      "name" : "God Moves in a Mysterious Way",
      "popularity" : 4,
      "preview_url" : "https://p.scdn.co/mp3-preview/9329727045a6f0d5778ca84a4ca3dad6c7d02bb3?cid=774b29d4f13844c495f206cafdad9c86",
      "track_number" : 10,
      "type" : "track",
      "uri" : "spotify:track:1b5dWY0JMm6S9E7piSiFHB"
    } ],
    "limit" : 10,
    "next" : "https://api.spotify.com/v1/search?query=God+Moves+in+a+Mysterious+Way&type=track&market=US&offset=15&limit=10",
    "offset" : 5,
    "previous" : "https://api.spotify.com/v1/search?query=God+Moves+in+a+Mysterious+Way&type=track&market=US&offset=0&limit=10",
    "total" : 71
  }
}