{
  "tracks" : {
    "href" : "https://api.spotify.com/v1/search?query=Away+in+a+Manger&type=track&market=US&offset=5&limit=10",
    "items" : [ {
      "album" : {
        "album_type" : "album",
        "artists" : [ {
          "external_urls" : {
            "spotify" : "https://open.spotify.com/artist/3Mqi8GYWkenzbP6702MUwZ"
          },
          "href" : "https://api.spotify.com/v1/artists/3Mqi8GYWkenzbP6702MUwZ",
          "id" : "3Mqi8GYWkenzbP6702MUwZ",
          "name" : "Little Drummer Boy Productions",
          "type" : "artist",
          "uri" : "spotify:artist:3Mqi8GYWkenzbP6702MUwZ"
        } ],
        "external_urls" : {
          "spotify" : "https://open.spotify.com/album/0Eq9BjdK0I8MNjmVuFn2zl"
        },
        "href" : "https://api.spotify.com/v1/albums/0Eq9BjdK0I8MNjmVuFn2zl",
        "id" : "0Eq9BjdK0I8MNjmVuFn2zl",
        "images" : [ {
          "height" : 640,
          "url" : "https://i.scdn.co/image/ab67616d0000b273d84701c3d553e5f5e15b4f93",
          "width" : 640
        }, {
          "height" : 300,
          "url" : "https://i.scdn.co/image/ab67616d00001e02d84701c3d553e5f5e15b4f93",
          "width" : 300
        }, {
          "height" : 64,
          "url" : "https://i.scdn.co/image/ab67616d00004851d84701c3d553e5f5e15b4f93",
          "width" : 64
        } ],
        "name" : "Ripley's Christmas Wish",
        "release_date" : "2019-04-02",
        "release_date_precision" : "day",
        "total_tracks" : 10,
        "type" : "album",
        "uri" : "spotify:album:0Eq9BjdK0I8MNjmVuFn2zl"
      },
      "artists" : [ {
        "external_urls" : {
          "spotify" : "https://open.spotify.com/artist/3Mqi8GYWkenzbP6702MUwZ"
        },
        "href" : "https://api.spotify.com/v1/artists/3Mqi8GYWkenzbP6702MUwZ",
        "id" : "3Mqi8GYWkenzbP6702MUwZ",
        "name" : "Little Drummer Boy Productions",
        "type" : "artist",
        "uri" : "spotify:artist:3Mqi8GYWkenzbP6702MUwZ"
      } ],
      "disc_number" : 1,
      "duration_ms" : 123820,
      "explicit" : false,
      "external_ids" : {
        "isrc" : "QZHNA1998034"
      },
      "external_urls" : {
        "spotify" : "https://open.spotify.com/track/6sXTKDVp1DKBGSBrwy2rv2"
      },
      "href" : "https://api.spotify.com/v1/tracks/6sXTKDVp1DKBGSBrwy2rv2",
      "id" : "6sXTKDVp1DKBGSBrwy2rv2",
      "is_local" : false,
      "is_playable" : true,
      "name" : "Away in a Manger",
      "popularity" : 22,
      "preview_url" : "https://p.scdn.co/mp3-preview/12abf6380f680cedbe68dd3d422335b3b9c41c7c?cid=774b29d4f13844c495f206cafdad9c86",
      "track_number" : 4,
      "type" : "track",
      "uri" : "spotify:track:6sXTKDVp1DKBGSBrwy2rv2"
    }, {
      "album" : {
        "album_type" : "album",
        "artists" : [ {
          "external_urls" : {
            "spotify" : "https://open.spotify.com/artist/4QKx7KohkWZAOkO4sI3GRx"
          },
          "href" : "https://api.spotify.com/v1/artists/4QKx7KohkWZAOkO4sI3GRx",
          "id" : "4QKx7KohkWZAOkO4sI3GRx",
          "name" : "VeggieTales",
          "type" : "artist",
          "uri" : "spotify:artist:4QKx7KohkWZAOkO4sI3GRx"
        } ],
        "external_urls" : {
          "spotify" : "https://open.spotify.com/album/0laKxTXjoJefzJxX4HTtt5"
        },
        "href" : "https://api.spotify.com/v1/albums/0laKxTXjoJefzJxX4HTtt5",
        "id" : "0laKxTXjoJefzJxX4HTtt5",
        "images" : [ {
          "height" : 640,
          "url" : "https://i.scdn.co/image/ab67616d0000b273503486fd2f4725f24ab8fc25",
          "width" : 640
        }, {
          "height" : 300,
          "url" : "https://i.scdn.co/image/ab67616d00001e02503486fd2f4725f24ab8fc25",
          "width" : 300
        }, {
          "height" : 64,
          "url" : "https://i.scdn.co/image/ab67616d00004851503486fd2f4725f24ab8fc25",
          "width" : 64
        } ],
        "name" : "The Best Christmas Gift Songs And More",
        "release_date" : "2019-11-08",
        "release_date_precision" : "day",
        "total_tracks" : 12,
        "type" : "album",
        "uri" : "spotify:album:0laKxTXjoJefzJxX4HTtt5"
      },
      "artists" : [ {
        "external_urls" : {
          "spotify" : "https://open.spotify.com/artist/4QKx7KohkWZAOkO4sI3GRx"
        },
        "href" : "https://api.spotify.com/v1/artists/4QKx7KohkWZAOkO4sI3GRx",
        "id" : "4QKx7KohkWZAOkO4sI3GRx",
        "name" : "VeggieTales",
        "type" : "artist",
        "uri" : "spotify:artist:4QKx7KohkWZAOkO4sI3GRx"
      } ],
      "disc_number" : 1,
      "duration_ms" : 98160,
      "explicit" : false,
      "external_ids" : {
        "isrc" : "US4EW0500239"
      },
      "external_urls" : {
        "spotify" : "https://open.spotify.com/track/4bCdMxtExGaUtRvpNmCpKD"
      },
      "href" : "https://api.spotify.com/v1/tracks/4bCdMxtExGaUtRvpNmCpKD",
      "id" : "4bCdMxtExGaUtRvpNmCpKD",
      "is_local" : false,
      "is_playable" : true,
      "name" : "Away In A Manger",
      "popularity" : 23,
      "preview_url" : null,
      "track_number" : 8,
      "type" : "track",
      "uri" : "spotify:track:4bCdMxtExGaUtRvpNmCpKD"
    }, {
      "album" : {
        "album_type" : "album",
        "artists" : [ {
          "external_urls" : {
            "spotify" : "https://open.spotify.com/artist/2hNdUwIbMMpMPG2jWfE6ZB"
          },
          "href" : "https://api.spotify.com/v1/artists/2hNdUwIbMMpMPG2jWfE6ZB",
          "id" : "2hNdUwIbMMpMPG2jWfE6ZB",
          "name" : "J.L. Marshall",
          "type" : "artist",
          "uri" : "spotify:artist:2hNdUwIbMMpMPG2jWfE6ZB"
        } ],
        "external_urls" : {
          "spotify" : "https://open.spotify.com/album/2HYyewW2RWQx43ZnVFFfrM"
        },
        "href" : "https://api.spotify.com/v1/albums/2HYyewW2RWQx43ZnVFFfrM",
        "id" : "2HYyewW2RWQx43ZnVFFfrM",
        "images" : [ {
          "height" : 640,
          "url" : "https://i.scdn.co/image/ab67616d0000b273bfced44725e59d01db580dd4",
          "width" : 640
        }, {
          "height" : 300,
          "url" : "https://i.scdn.co/image/ab67616d00001e02bfced44725e59d01db580dd4",
          "width" : 300
        }, {
          "height" : 64,
          "url" : "https://i.scdn.co/image/ab67616d00004851bfced44725e59d01db580dd4",
          "width" : 64
        } ],
        "name" : "Merry Christmas (Favorite Holiday Piano Music for a Festive Occasion)",
        "release_date" : "2017-11-24",
        "release_date_precision" : "day",
        "total_tracks" : 20,
        "type" : "album",
        "uri" : "spotify:album:2HYyewW2RWQx43ZnVFFfrM"
      },
      "artists" : [ {
        "external_urls" : {
          "spotify" : "https://open.spotify.com/artist/2hNdUwIbMMpMPG2jWfE6ZB"
        },
        "href" : "https://api.spotify.com/v1/artists/2hNdUwIbMMpMPG2jWfE6ZB",
        "id" : "2hNdUwIbMMpMPG2jWfE6ZB",
        "name" : "J.L. Marshall",
        "type" : "artist",
        "uri" : "spotify:artist:2hNdUwIbMMpMPG2jWfE6ZB"
      } ],
      "disc_number" : 1,
      "duration_ms" : 76189,
      "explicit" : false,
      "external_ids" : {
        "isrc" : "TCADJ1753655"
      },
      "external_urls" : {
        "spotify" : "https://open.spotify.com/track/2UxcPu3rstLUhbaCT6skKN"
      },
      "href" : "https://api.spotify.com/v1/tracks/2UxcPu3rstLUhbaCT6skKN",
      "id" : "2UxcPu3rstLUhbaCT6skKN",
      "is_local" : false,
      "is_playable" : true,
      "name" : "Away in a Manger",
      "popularity" : 26,
      "preview_url" : "https://p.scdn.co/mp3-preview/03879b5a9ed0c2c882a1d7518987c477339b02d0?cid=774b29d4f13844c495f206cafdad9c86",
      "track_number" : 3,
      "type" : "track",
      "uri" : "spotify:track:2UxcPu3rstLUhbaCT6skKN"
    }, {
      "album" : {
        "album_type" : "single",
        "artists" : [ {
          "external_urls" : {
            "spotify" : "https://open.spotify.com/artist/60JboBXHFYFoJk6e1TrtZT"
          },
          "href" : "https://api.spotify.com/v1/artists/60JboBXHFYFoJk6e1TrtZT",
          "id" : "60JboBXHFYFoJk6e1TrtZT",
          "name" : "The Masked Guitarist",
          "type" : "artist",
          "uri" : "spotify:artist:60JboBXHFYFoJk6e1TrtZT"
        } ],
        "external_urls" : {
          "spotify" : "https://open.spotify.com/album/02EzVlaMiFQspWECiEBYLd"
        },
        "href" : "https://api.spotify.com/v1/albums/02EzVlaMiFQspWECiEBYLd",
        "id" : "02EzVlaMiFQspWECiEBYLd",
        "images" : [ {
          "height" : 640,
          "url" : "https://i.scdn.co/image/ab67616d0000b2733705dfbd069abd223f4e5056",
          "width" : 640
        }, {
          "height" : 300,
          "url" : "https://i.scdn.co/image/ab67616d00001e023705dfbd069abd223f4e5056",
          "width" : 300
        }, {
          "height" : 64,
          "url" : "https://i.scdn.co/image/ab67616d000048513705dfbd069abd223f4e5056",
          "width" : 64
        } ],
        "name" : "Away in a Manger",
        "release_date" : "2020-02-03",
        "release_date_precision" : "day",
        "total_tracks" : 1,
        "type" : "album",
        "uri" : "spotify:album:02EzVlaMiFQspWECiEBYLd"
      },
      "artists" : [ {
        "external_urls" : {
          "spotify" : "https://open.spotify.com/artist/60JboBXHFYFoJk6e1TrtZT"
        },
        "href" : "https://api.spotify.com/v1/artists/60JboBXHFYFoJk6e1TrtZT",
        "id" : "60JboBXHFYFoJk6e1TrtZT",
        "name" : "The Masked Guitarist",
        "type" : "artist",
        "uri" : "spotify:artist:60JboBXHFYFoJk6e1TrtZT"
      } ],
      "disc_number" : 1,
      "duration_ms" : 107493,
      "explicit" : false,
      "external_ids" : {
        "isrc" : "QZ8LD1986550"
      },
      "external_urls" : {
        "spotify" : "https://open.spotify.com/track/4oBbsBouyrXW33ZbGiPnlH"
      },
      "href" : "https://api.spotify.com/v1/tracks/4oBbsBouyrXW33ZbGiPnlH",
      "id" : "4oBbsBouyrXW33ZbGiPnlH",
      "is_local" : false,
      "is_playable" : true,
      "name" : "Away in a Manger",
      "popularity" : 26,
      "preview_url" : "https://p.scdn.co/mp3-preview/ac459366776e6f548952ff24eb637a107bafe9af?cid=774b29d4f13844c495f206cafdad9c86",
      "track_number" : 1,
      "type" : "track",
      "uri" : "spotify:track:4oBbsBouyrXW33ZbGiPnlH"
    }, {
      "album" : {
        "album_type" : "album",
        "artists" : [ {
          "external_urls" : {
            "spotify" : "https://open.spotify.com/artist/7v4imS0moSyGdXyLgVTIV7"
          },
          "href" : "https://api.spotify.com/v1/artists/7v4imS0moSyGdXyLgVTIV7",
          "id" : "7v4imS0moSyGdXyLgVTIV7",
          "name" : "Nat King Cole",
          "type" : "artist",
          "uri" : "spotify:artist:7v4imS0moSyGdXyLgVTIV7"
        } ],
        "external_urls" : {
          "spotify" : "https://open.spotify.com/album/6vBGI5522jvPi0ZZuGQNp4"
        },
        "href" : "https://api.spotify.com/v1/albums/6vBGI5522jvPi0ZZuGQNp4",
        "id" : "6vBGI5522jvPi0ZZuGQNp4",
        "images" : [ {
          "height" : 640,
          "url" : "https://i.scdn.co/image/ab67616d0000b273cb474d056615c2c9b49bb4e6",
          "width" : 640
        }, {
          "height" : 300,
          "url" : "https://i.scdn.co/image/ab67616d00001e02cb474d056615c2c9b49bb4e6",
          "width" : 300
        }, {
          "height" : 64,
          "url" : "https://i.scdn.co/image/ab67616d00004851cb474d056615c2c9b49bb4e6",
          "width" : 64
        } ],
        "name" : "The Christmas Song (Expanded Edition)",
        "release_date" : "1962",
        "release_date_precision" : "year",
        "total_tracks" : 19,
        "type" : "album",
        "uri" : "spotify:album:6vBGI5522jvPi0ZZuGQNp4"
      },
      "artists" : [ {
        "external_urls" : {
          "spotify" : "https://open.spotify.com/artist/7v4imS0moSyGdXyLgVTIV7"
        },
        "href" : "https://api.spotify.com/v1/artists/7v4imS0moSyGdXyLgVTIV7",
        "id" : "7v4imS0moSyGdXyLgVTIV7",
        "name" : "Nat King Cole",
        "type" : "artist",
        "uri" : "spotify:artist:7v4imS0moSyGdXyLgVTIV7"
      } ],
      "disc_number" : 1,
      "duration_ms" : 120400,
      "explicit" : false,
      "external_ids" : {
        "isrc" : "USCA29900568"
      },
      "external_urls" : {
        "spotify" : "https://open.spotify.com/track/22hVlcdlfqmtOuEih4hZcH"
      },
      "href" : "https://api.spotify.com/v1/tracks/22hVlcdlfqmtOuEih4hZcH",
      "id" : "22hVlcdlfqmtOuEih4hZcH",
      "is_local" : false,
      "is_playable" : true,
      "name" : "Away In A Manger",
      "popularity" : 22,
      "preview_url" : null,
      "track_number" : 10,
      "type" : "track",
      "uri" : "spotify:track:22hVlcdlfqmtOuEih4hZcH"
    }, {
      "album" : {
        "album_type" : "album",
        "artists" : [ {
          "external_urls" : {
            "spotify" : "https://open.spotify.com/artist/40LHVA5BTQp9RxHOQ9JPYj"
          },
          "href" : "https://api.spotify.com/v1/artists/40LHVA5BTQp9RxHOQ9JPYj",
          "id" : "40LHVA5BTQp9RxHOQ9JPYj",
          "name" : "Lauren Daigle",
          "type" : "artist",
          "uri" : "spotify:artist:40LHVA5BTQp9RxHOQ9JPYj"
        } ],
        "external_urls" : {
          "spotify" : "https://open.spotify.com/album/2pUDUet97GvfDELqwTnMFo"
        },
        "href" : "https://api.spotify.com/v1/albums/2pUDUet97GvfDELqwTnMFo",
        "id" : "2pUDUet97GvfDELqwTnMFo",
        "images" : [ {
          "height" : 640,
          "url" : "https://i.scdn.co/image/ab67616d0000b273f26ee3b9f6875ecbfb1ce2e8",
          "width" : 640
        }, {
          "height" : 300,
          "url" : "https://i.scdn.co/image/ab67616d00001e02f26ee3b9f6875ecbfb1ce2e8",
          "width" : 300
        }, {
          "height" : 64,
          "url" : "https://i.scdn.co/image/ab67616d00004851f26ee3b9f6875ecbfb1ce2e8",
          "width" : 64
        } ],
        "name" : "Behold (Deluxe)",
        "release_date" : "2016-10-21",
        "release_date_precision" : "day",
        "total_tracks" : 13,
        "type" : "album",
        "uri" : "spotify:album:2pUDUet97GvfDELqwTnMFo"
      },
      "artists" : [ {
        "external_urls" : {
          "spotify" : "https://open.spotify.com/artist/40LHVA5BTQp9RxHOQ9JPYj"
        },
        "href" : "https://api.spotify.com/v1/artists/40LHVA5BTQp9RxHOQ9JPYj",
        "id" : "40LHVA5BTQp9RxHOQ9JPYj",
        "name" : "Lauren Daigle",
        "type" : "artist",
        "uri" : "spotify:artist:40LHVA5BTQp9RxHOQ9JPYj"
      } ],
      "disc_number" : 1,
      "duration_ms" : 230506,
      "explicit" : false,
      "external_ids" : {
        "isrc" : "US8391802058"
      },
      "external_urls" : {
        "spotify" : "https://open.spotify.com/track/6GJleyr1pWQyIDB3yufRug"
      },
      "href" : "https://api.spotify.com/v1/tracks/6GJleyr1pWQyIDB3yufRug",
      "id" : "6GJleyr1pWQyIDB3yufRug",
      "is_local" : false,
      "is_playable" : true,
      "name" : "Away In A Manger",
      "popularity" : 24,
      "preview_url" : null,
      "track_number" : 12,
      "type" : "track",
      "uri" : "spotify:track:6GJleyr1pWQyIDB3yufRug"
    }, {
      "album" : {
        "album_type" : "album",
        "artists" : [ {
          "external_urls" : {
            "spotify" : "https://open.spotify.com/artist/4PpBfy9zXy2F3u0HbIkhfm"
          },
          "href" : "https://api.spotify.com/v1/artists/4PpBfy9zXy2F3u0HbIkhfm",
          "id" : "4PpBfy9zXy2F3u0HbIkhfm",
          "name" : "Instrumental Worship Project from I’m In Records",
          "type" : "artist",
          "uri" : "spotify:artist:4PpBfy9zXy2F3u0HbIkhfm"
        } ],
        "external_urls" : {
          "spotify" : "https://open.spotify.com/album/3wOpWgy37MLCj2jCAgdEHK"
        },
        "href" : "https://api.spotify.com/v1/albums/3wOpWgy37MLCj2jCAgdEHK",
        "id" : "3wOpWgy37MLCj2jCAgdEHK",
        "images" : [ {
          "height" : 640,
          "url" : "https://i.scdn.co/image/ab67616d0000b273955948f1fb06d52254fa97fc",
          "width" : 640
        }, {
          "height" : 300,
          "url" : "https://i.scdn.co/image/ab67616d00001e02955948f1fb06d52254fa97fc",
          "width" : 300
        }, {
          "height" : 64,
          "url" : "https://i.scdn.co/image/ab67616d00004851955948f1fb06d52254fa97fc",
          "width" : 64
        } ],
        "name" : "Christmas Classics",
        "release_date" : "2019-11-16",
        "release_date_precision" : "day",
        "total_tracks" : 9,
        "type" : "album",
        "uri" : "spotify:album:3wOpWgy37MLCj2jCAgdEHK"
      },
      "artists" : [ {
        "external_urls" : {
          "spotify" : "https://open.spotify.com/artist/4PpBfy9zXy2F3u0HbIkhfm"
        },
        "href" : "https://api.spotify.com/v1/artists/4PpBfy9zXy2F3u0HbIkhfm",
        "id" : "4PpBfy9zXy2F3u0HbIkhfm",
        "name" : "Instrumental Worship Project from I’m In Records",
        "type" : "artist",
        "uri" : "spotify:artist:4PpBfy9zXy2F3u0HbIkhfm"
      } ],
      "disc_number" : 1,
      "duration_ms" : 213814,
      "explicit" : false,
      "external_ids" : {
        "isrc" : "BRITK1909612"
      },
      "external_urls" : {
        "spotify" : "https://open.spotify.com/track/3fRGnwHd4TR9eQO1951IdU"
      },
      "href" : "https://api.spotify.com/v1/tracks/3fRGnwHd4TR9eQO1951IdU",
      "id" : "3fRGnwHd4TR9eQO1951IdU",
      "is_local" : false,
      "is_playable" : true,
      "name" : "Away in a Manger",
      "popularity" : 29,
      "preview_url" : "https://p.scdn.co/mp3-preview/705f4a16b6bb0a0254a664e0d817b05e1cb1ed78?cid=774b29d4f13844c495f206cafdad9c86",
      "track_number" : 8,
      "type" : "track",
      "uri" : "spotify:track:3fRGnwHd4TR9eQO1951IdU"
    }, {
      "album" : {
        "album_type" : "album",
        "artists" : [ {
          "external_urls" : {
            "spotify" : "https://open.spotify.com/artist/47tuSUJMhsa3twW6wgKdIW"
          },
          "href" : "https://api.spotify.com/v1/artists/47tuSUJMhsa3twW6wgKdIW",
          "id" : "47tuSUJMhsa3twW6wgKdIW",
          "name" : "Nursery Rhymes 123",
          "type" : "artist",
          "uri" : "spotify:artist:47tuSUJMhsa3twW6wgKdIW"
        } ],
        "external_urls" : {
          "spotify" : "https://open.spotify.com/album/7IJx3GR5MZlMFIQRITAYkR"
        },
        "href" : "https://api.spotify.com/v1/albums/7IJx3GR5MZlMFIQRITAYkR",
        "id" : "7IJx3GR5MZlMFIQRITAYkR",
        "images" : [ {
          "height" : 640,
          "url" : "https://i.scdn.co/image/ab67616d0000b273513bf745cd21a910a43da76f",
          "width" : 640
        }, {
          "height" : 300,
          "url" : "https://i.scdn.co/image/ab67616d00001e02513bf745cd21a910a43da76f",
          "width" : 300
        }, {
          "height" : 64,
          "url" : "https://i.scdn.co/image/ab67616d00004851513bf745cd21a910a43da76f",
          "width" : 64
        } ],
        "name" : "Christmas Lullabies (Deluxe Edition)",
        "release_date" : "2017-11-01",
        "release_date_precision" : "day",
        "total_tracks" : 21,
        "type" : "album",
        "uri" : "spotify:album:7IJx3GR5MZlMFIQRITAYkR"
      },
      "artists" : [ {
        "external_urls" : {
          "spotify" : "https://open.spotify.com/artist/47tuSUJMhsa3twW6wgKdIW"
        },
        "href" : "https://api.spotify.com/v1/artists/47tuSUJMhsa3twW6wgKdIW",
        "id" : "47tuSUJMhsa3twW6wgKdIW",
        "name" : "Nursery Rhymes 123",
        "type" : "artist",
        "uri" : "spotify:artist:47tuSUJMhsa3twW6wgKdIW"
      } ],
      "disc_number" : 1,
      "duration_ms" : 147852,
      "explicit" : false,
      "external_ids" : {
        "isrc" : "GB83E1600077"
      },
      "external_urls" : {
        "spotify" : "https://open.spotify.com/track/7dwGZX46foh5XtGrR73L2p"
      },
      "href" : "https://api.spotify.com/v1/tracks/7dwGZX46foh5XtGrR73L2p",
      "id" : "7dwGZX46foh5XtGrR73L2p",
      "is_local" : false,
      "is_playable" : true,
      "name" : "Away in a Manger",
      "popularity" : 36,
      "preview_url" : "https://p.scdn.co/mp3-preview/e4e7a03267739eb6104f44e26c4d60826617d971?cid=774b29d4f13844c495f206cafdad9c86",
      "track_number" : 4,
      "type" : "track",
      "uri" : "spotify:track:7dwGZX46foh5XtGrR73L2p"
    }, {
      "album" : {
        "album_type" : "album",
        "artists" : [ {
          "external_urls" : {
            "spotify" : "https://open.spotify.com/artist/44YvYIWPDPNLJaHiHktrJD"
          },
          "href" : "https://api.spotify.com/v1/artists/44YvYIWPDPNLJaHiHktrJD",
          "id" : "44YvYIWPDPNLJaHiHktrJD",
          "name" : "Brown Owl Plays",
          "type" : "artist",
          "uri" : "spotify:artist:44YvYIWPDPNLJaHiHktrJD"
        } ],
        "external_urls" : {
          "spotify" : "https://open.spotify.com/album/2Vt9UGBWuzyJBMfwJhDxgx"
        },
        "href" : "https://api.spotify.com/v1/albums/2Vt9UGBWuzyJBMfwJhDxgx",
        "id" : "2Vt9UGBWuzyJBMfwJhDxgx",
        "images" : [ {
          "height" : 640,
          "url" : "https://i.scdn.co/image/ab67616d0000b273d35b43dca9af6c564e90ed44",
          "width" : 640
        }, {
          "height" : 300,
          "url" : "https://i.scdn.co/image/ab67616d00001e02d35b43dca9af6c564e90ed44",
          "width" : 300
        }, {
          "height" : 64,
          "url" : "https://i.scdn.co/image/ab67616d00004851d35b43dca9af6c564e90ed44",
          "width" : 64
        } ],
        "name" : "Christmas Carols",
        "release_date" : "2017-11-11",
        "release_date_precision" : "day",
        "total_tracks" : 11,
        "type" : "album",
        "uri" : "spotify:album:2Vt9UGBWuzyJBMfwJhDxgx"
      },
      "artists" : [ {
        "external_urls" : {
          "spotify" : "https://open.spotify.com/artist/44YvYIWPDPNLJaHiHktrJD"
        },
        "href" : "https://api.spotify.com/v1/artists/44YvYIWPDPNLJaHiHktrJD",
        "id" : "44YvYIWPDPNLJaHiHktrJD",
        "name" : "Brown Owl Plays",
        "type" : "artist",
        "uri" : "spotify:artist:44YvYIWPDPNLJaHiHktrJD"
      } ],
      "disc_number" : 1,
      "duration_ms" : 96120,
      "explicit" : false,
      "external_ids" : {
        "isrc" : "TCADJ1709366"
      },
      "external_urls" : {
        "spotify" : "https://open.spotify.com/track/0kMK639WFlE8eywCCuFVNW"
      },
      "href" : "https://api.spotify.com/v1/tracks/0kMK639WFlE8eywCCuFVNW",
      "id" : "0kMK639WFlE8eywCCuFVNW",
      "is_local" : false,
      "is_playable" : true,
      "name" : "Away in a Manger",
      "popularity" : 17,
      "preview_url" : "https://p.scdn.co/mp3-preview/b80bcccf5b2b5401adadb7beb51270a72ef3d9ff?cid=774b29d4f13844c495f206cafdad9c86",
      "track_number" : 3,
      "type" : "track",
      "uri" : "spotify:track:0kMK639WFlE8eywCCuFVNW"
    }, {
      "album" : {
        "album_type" : "album",
        "artists" : [ {
          "external_urls" : {
            "spotify" : "https://open.spotify.com/artist/2fizYQ6PTbXb0JFOiDZJ63"
          },
          "href" : "https://api.spotify.com/v1/artists/2fizYQ6PTbXb0JFOiDZJ63",
          "id" : "2fizYQ6PTbXb0JFOiDZJ63",
          "name" : "Judson Mancebo",
          "type" : "artist",
          "uri" : "spotify:artist:2fizYQ6PTbXb0JFOiDZJ63"
        } ],
        "external_urls" : {
          "spotify" : "https://open.spotify.com/album/0esXz4KpN4Bixm9wUnRfel"
        },
        "href" : "https://api.spotify.com/v1/albums/0esXz4KpN4Bixm9wUnRfel",
        "id" : "0esXz4KpN4Bixm9wUnRfel",
        "images" : [ {
          "height" : 640,
          "url" : "https://i.scdn.co/image/ab67616d0000b273c328ca4f4ee86e8b773156fc",
          "width" : 640
        }, {
          "height" : 300,
          "url" : "https://i.scdn.co/image/ab67616d00001e02c328ca4f4ee86e8b773156fc",
          "width" : 300
        }, {
          "height" : 64,
          "url" : "https://i.scdn.co/image/ab67616d00004851c328ca4f4ee86e8b773156fc",
          "width" : 64
        } ],
        "name" : "Christmas Lullabies",
        "release_date" : "2016-11-11",
        "release_date_precision" : "day",
        "total_tracks" : 14,
        "type" : "album",
        "uri" : "spotify:album:0esXz4KpN4Bixm9wUnRfel"
      },
      "artists" : [ {
        "external_urls" : {
          "spotify" : "https://open.spotify.com/artist/2fizYQ6PTbXb0JFOiDZJ63"
        },
        "href" : "https://api.spotify.com/v1/artists/2fizYQ6PTbXb0JFOiDZJ63",
        "id" : "2fizYQ6PTbXb0JFOiDZJ63",
        "name" : "Judson Mancebo",
        "type" : "artist",
        "uri" : "spotify:artist:2fizYQ6PTbXb0JFOiDZJ63"
      } ],
      "disc_number" : 1,
      "duration_ms" : 161790,
      "explicit" : false,
      "external_ids" : {
        "isrc" : "BRITK1300079"
      },
      "external_urls" : {
        "spotify" : "https://open.spotify.com/track/3ZW7CPd7jLnwGs3pDt5lgO"
      },
      "href" : "https://api.spotify.com/v1/tracks/3ZW7CPd7jLnwGs3pDt5lgO",
      "id" : "3ZW7CPd7jLnwGs3pDt5lgO",
      "is_local" : false,
      "is_playable" : true,
      "name" : "Away in a Manger",
      "popularity" : 17,
      "preview_url" : "https://p.scdn.co/mp3-preview/0393e0972d75722ec5306161f3f23d5520dcb442?cid=774b29d4f13844c495f206cafdad9c86",
      "track_number" : 9,
      "type" : "track",
      "uri" : "spotify:track:3ZW7CPd7jLnwGs3pDt5lgO"
    } ],
    "limit" : 10,
    "next" : "https://api.spotify.com/v1/search?query=Away+in+a+Manger&type=track&market=US&offset=15&limit=10",
    "offset" : 5,
    "previous" : "https://api.spotify.com/v1/search?query=Away+in+a+Manger&type=track&market=US&offset=0&limit=10",
    "total" : 10110
  }
}