{
  "tracks" : {
    "href" : "https://api.spotify.com/v1/search?query=O+World+of+God&type=track&market=US&offset=5&limit=10",
    "items" : [ {
      "album" : {
        "album_type" : "album",
        "artists" : [ {
          "external_urls" : {
            "spotify" : "https://open.spotify.com/artist/0KgzuDGFiv8uQnSOPfRUfY"
          },
          "href" : "https://api.spotify.com/v1/artists/0KgzuDGFiv8uQnSOPfRUfY",
          "id" : "0KgzuDGFiv8uQnSOPfRUfY",
          "name" : "Spectators Anonynmous",
          "type" : "artist",
          "uri" : "spotify:artist:0KgzuDGFiv8uQnSOPfRUfY"
        } ],
        "external_urls" : {
          "spotify" : "https://open.spotify.com/album/2tcwtyFGeoPmgopNoXQbzk"
        },
        "href" : "https://api.spotify.com/v1/albums/2tcwtyFGeoPmgopNoXQbzk",
        "id" : "2tcwtyFGeoPmgopNoXQbzk",
        "images" : [ {
          "height" : 640,
          "url" : "https://i.scdn.co/image/ab67616d0000b27392781cb6cd7c6f210c69b606",
          "width" : 640
        }, {
          "height" : 300,
          "url" : "https://i.scdn.co/image/ab67616d00001e0292781cb6cd7c6f210c69b606",
          "width" : 300
        }, {
          "height" : 64,
          "url" : "https://i.scdn.co/image/ab67616d0000485192781cb6cd7c6f210c69b606",
          "width" : 64
        } ],
        "name" : "Spectators Anonynmous",
        "release_date" : "2019-05-15",
        "release_date_precision" : "day",
        "total_tracks" : 9,
        "type" : "album",
        "uri" : "spotify:album:2tcwtyFGeoPmgopNoXQbzk"
      },
      "artists" : [ {
        "external_urls" : {
          "spotify" : "https://open.spotify.com/artist/0KgzuDGFiv8uQnSOPfRUfY"
        },
        "href" : "https://api.spotify.com/v1/artists/0KgzuDGFiv8uQnSOPfRUfY",
        "id" : "0KgzuDGFiv8uQnSOPfRUfY",
        "name" : "Spectators Anonynmous",
        "type" : "artist",
        "uri" : "spotify:artist:0KgzuDGFiv8uQnSOPfRUfY"
      } ],
      "disc_number" : 1,
      "duration_ms" : 197772,
      "explicit" : true,
      "external_ids" : {
        "isrc" : "QZES91952751"
      },
      "external_urls" : {
        "spotify" : "https://open.spotify.com/track/5v77eDWPW2lzmd1Rd0jO09"
      },
      "href" : "https://api.spotify.com/v1/tracks/5v77eDWPW2lzmd1Rd0jO09",
      "id" : "5v77eDWPW2lzmd1Rd0jO09",
      "is_local" : false,
      "is_playable" : true,
      "name" : "Gods of the World",
      "popularity" : 26,
      "preview_url" : "https://p.scdn.co/mp3-preview/a4f581585f8eb25c2d1e223822f95cbefecbd74b?cid=774b29d4f13844c495f206cafdad9c86",
      "track_number" : 7,
      "type" : "track",
      "uri" : "spotify:track:5v77eDWPW2lzmd1Rd0jO09"
    }, {
      "album" : {
        "album_type" : "album",
        "artists" : [ {
          "external_urls" : {
            "spotify" : "https://open.spotify.com/artist/5pryfFgCrWJ41UHaENJPyi"
          },
          "href" : "https://api.spotify.com/v1/artists/5pryfFgCrWJ41UHaENJPyi",
          "id" : "5pryfFgCrWJ41UHaENJPyi",
          "name" : "Alton Ellis",
          "type" : "artist",
          "uri" : "spotify:artist:5pryfFgCrWJ41UHaENJPyi"
        } ],
        "external_urls" : {
          "spotify" : "https://open.spotify.com/album/2MocD24NCoqCSmf1EaaaQ0"
        },
        "href" : "https://api.spotify.com/v1/albums/2MocD24NCoqCSmf1EaaaQ0",
        "id" : "2MocD24NCoqCSmf1EaaaQ0",
        "images" : [ {
          "height" : 640,
          "url" : "https://i.scdn.co/image/ab67616d0000b273d61a1557c2d04cf55a0779b5",
          "width" : 640
        }, {
          "height" : 300,
          "url" : "https://i.scdn.co/image/ab67616d00001e02d61a1557c2d04cf55a0779b5",
          "width" : 300
        }, {
          "height" : 64,
          "url" : "https://i.scdn.co/image/ab67616d00004851d61a1557c2d04cf55a0779b5",
          "width" : 64
        } ],
        "name" : "Be True to Yourself: The Godfather of Lover's Rock (Anthology 1965-1973)",
        "release_date" : "2004-11-23",
        "release_date_precision" : "day",
        "total_tracks" : 56,
        "type" : "album",
        "uri" : "spotify:album:2MocD24NCoqCSmf1EaaaQ0"
      },
      "artists" : [ {
        "external_urls" : {
          "spotify" : "https://open.spotify.com/artist/5pryfFgCrWJ41UHaENJPyi"
        },
        "href" : "https://api.spotify.com/v1/artists/5pryfFgCrWJ41UHaENJPyi",
        "id" : "5pryfFgCrWJ41UHaENJPyi",
        "name" : "Alton Ellis",
        "type" : "artist",
        "uri" : "spotify:artist:5pryfFgCrWJ41UHaENJPyi"
      } ],
      "disc_number" : 2,
      "duration_ms" : 171200,
      "explicit" : false,
      "external_ids" : {
        "isrc" : "GBAJE7001042"
      },
      "external_urls" : {
        "spotify" : "https://open.spotify.com/track/4ltu4e1LLaOu7JZPeZlbFl"
      },
      "href" : "https://api.spotify.com/v1/tracks/4ltu4e1LLaOu7JZPeZlbFl",
      "id" : "4ltu4e1LLaOu7JZPeZlbFl",
      "is_local" : false,
      "is_playable" : true,
      "name" : "Black Man's World - aka \"Black Man, White Man\"",
      "popularity" : 39,
      "preview_url" : "https://p.scdn.co/mp3-preview/7bf1963addcdb2a00a05c0df0157003c90e15f1c?cid=774b29d4f13844c495f206cafdad9c86",
      "track_number" : 3,
      "type" : "track",
      "uri" : "spotify:track:4ltu4e1LLaOu7JZPeZlbFl"
    }, {
      "album" : {
        "album_type" : "album",
        "artists" : [ {
          "external_urls" : {
            "spotify" : "https://open.spotify.com/artist/0g1QOskZ9opQELS5ijE6XV"
          },
          "href" : "https://api.spotify.com/v1/artists/0g1QOskZ9opQELS5ijE6XV",
          "id" : "0g1QOskZ9opQELS5ijE6XV",
          "name" : "Ascend The Hill",
          "type" : "artist",
          "uri" : "spotify:artist:0g1QOskZ9opQELS5ijE6XV"
        } ],
        "external_urls" : {
          "spotify" : "https://open.spotify.com/album/5zTeujNhDuxaHYuJcrhelf"
        },
        "href" : "https://api.spotify.com/v1/albums/5zTeujNhDuxaHYuJcrhelf",
        "id" : "5zTeujNhDuxaHYuJcrhelf",
        "images" : [ {
          "height" : 640,
          "url" : "https://i.scdn.co/image/ab67616d0000b2730ace047a30d5881c3981980e",
          "width" : 640
        }, {
          "height" : 300,
          "url" : "https://i.scdn.co/image/ab67616d00001e020ace047a30d5881c3981980e",
          "width" : 300
        }, {
          "height" : 64,
          "url" : "https://i.scdn.co/image/ab67616d000048510ace047a30d5881c3981980e",
          "width" : 64
        } ],
        "name" : "Take the World, but Give Me Jesus",
        "release_date" : "2010-09-14",
        "release_date_precision" : "day",
        "total_tracks" : 9,
        "type" : "album",
        "uri" : "spotify:album:5zTeujNhDuxaHYuJcrhelf"
      },
      "artists" : [ {
        "external_urls" : {
          "spotify" : "https://open.spotify.com/artist/0g1QOskZ9opQELS5ijE6XV"
        },
        "href" : "https://api.spotify.com/v1/artists/0g1QOskZ9opQELS5ijE6XV",
        "id" : "0g1QOskZ9opQELS5ijE6XV",
        "name" : "Ascend The Hill",
        "type" : "artist",
        "uri" : "spotify:artist:0g1QOskZ9opQELS5ijE6XV"
      } ],
      "disc_number" : 1,
      "duration_ms" : 313173,
      "explicit" : false,
      "external_ids" : {
        "isrc" : "TCAAR1058215"
      },
      "external_urls" : {
        "spotify" : "https://open.spotify.com/track/0aeAQFbdjO2qphNe8zjVRk"
      },
      "href" : "https://api.spotify.com/v1/tracks/0aeAQFbdjO2qphNe8zjVRk",
      "id" : "0aeAQFbdjO2qphNe8zjVRk",
      "is_local" : false,
      "is_playable" : true,
      "name" : "The Love of God",
      "popularity" : 29,
      "preview_url" : "https://p.scdn.co/mp3-preview/d4558e0e5ba5372230ac1c8e5a73e4fe13df4656?cid=774b29d4f13844c495f206cafdad9c86",
      "track_number" : 1,
      "type" : "track",
      "uri" : "spotify:track:0aeAQFbdjO2qphNe8zjVRk"
    }, {
      "album" : {
        "album_type" : "album",
        "artists" : [ {
          "external_urls" : {
            "spotify" : "https://open.spotify.com/artist/7GaxyUddsPok8BuhxN6OUW"
          },
          "href" : "https://api.spotify.com/v1/artists/7GaxyUddsPok8BuhxN6OUW",
          "id" : "7GaxyUddsPok8BuhxN6OUW",
          "name" : "James Brown",
          "type" : "artist",
          "uri" : "spotify:artist:7GaxyUddsPok8BuhxN6OUW"
        } ],
        "external_urls" : {
          "spotify" : "https://open.spotify.com/album/6o2pZrZdpi9o4f5Cnrq38l"
        },
        "href" : "https://api.spotify.com/v1/albums/6o2pZrZdpi9o4f5Cnrq38l",
        "id" : "6o2pZrZdpi9o4f5Cnrq38l",
        "images" : [ {
          "height" : 640,
          "url" : "https://i.scdn.co/image/ab67616d0000b2735699b266b27a6da5ac81b6de",
          "width" : 640
        }, {
          "height" : 300,
          "url" : "https://i.scdn.co/image/ab67616d00001e025699b266b27a6da5ac81b6de",
          "width" : 300
        }, {
          "height" : 64,
          "url" : "https://i.scdn.co/image/ab67616d000048515699b266b27a6da5ac81b6de",
          "width" : 64
        } ],
        "name" : "It's A New Day - Let A Man Come In",
        "release_date" : "1970-01-01",
        "release_date_precision" : "day",
        "total_tracks" : 9,
        "type" : "album",
        "uri" : "spotify:album:6o2pZrZdpi9o4f5Cnrq38l"
      },
      "artists" : [ {
        "external_urls" : {
          "spotify" : "https://open.spotify.com/artist/7GaxyUddsPok8BuhxN6OUW"
        },
        "href" : "https://api.spotify.com/v1/artists/7GaxyUddsPok8BuhxN6OUW",
        "id" : "7GaxyUddsPok8BuhxN6OUW",
        "name" : "James Brown",
        "type" : "artist",
        "uri" : "spotify:artist:7GaxyUddsPok8BuhxN6OUW"
      } ],
      "disc_number" : 1,
      "duration_ms" : 175853,
      "explicit" : false,
      "external_ids" : {
        "isrc" : "USUM71201998"
      },
      "external_urls" : {
        "spotify" : "https://open.spotify.com/track/3BcH252CGECgOWfKBjAaBC"
      },
      "href" : "https://api.spotify.com/v1/tracks/3BcH252CGECgOWfKBjAaBC",
      "id" : "3BcH252CGECgOWfKBjAaBC",
      "is_local" : false,
      "is_playable" : true,
      "name" : "It's A Man's, Man's, Man's World",
      "popularity" : 45,
      "preview_url" : null,
      "track_number" : 5,
      "type" : "track",
      "uri" : "spotify:track:3BcH252CGECgOWfKBjAaBC"
    }, {
      "album" : {
        "album_type" : "album",
        "artists" : [ {
          "external_urls" : {
            "spotify" : "https://open.spotify.com/artist/3BM0EaYmkKWuPmmHFUTQHv"
          },
          "href" : "https://api.spotify.com/v1/artists/3BM0EaYmkKWuPmmHFUTQHv",
          "id" : "3BM0EaYmkKWuPmmHFUTQHv",
          "name" : "Kreator",
          "type" : "artist",
          "uri" : "spotify:artist:3BM0EaYmkKWuPmmHFUTQHv"
        } ],
        "external_urls" : {
          "spotify" : "https://open.spotify.com/album/6Q0KiThTf1dwHWWsqXjngL"
        },
        "href" : "https://api.spotify.com/v1/albums/6Q0KiThTf1dwHWWsqXjngL",
        "id" : "6Q0KiThTf1dwHWWsqXjngL",
        "images" : [ {
          "height" : 640,
          "url" : "https://i.scdn.co/image/ab67616d0000b2736f5a8ce06b3a6f193a25fbd6",
          "width" : 640
        }, {
          "height" : 300,
          "url" : "https://i.scdn.co/image/ab67616d00001e026f5a8ce06b3a6f193a25fbd6",
          "width" : 300
        }, {
          "height" : 64,
          "url" : "https://i.scdn.co/image/ab67616d000048516f5a8ce06b3a6f193a25fbd6",
          "width" : 64
        } ],
        "name" : "Gods of Violence",
        "release_date" : "2017-01-27",
        "release_date_precision" : "day",
        "total_tracks" : 11,
        "type" : "album",
        "uri" : "spotify:album:6Q0KiThTf1dwHWWsqXjngL"
      },
      "artists" : [ {
        "external_urls" : {
          "spotify" : "https://open.spotify.com/artist/3BM0EaYmkKWuPmmHFUTQHv"
        },
        "href" : "https://api.spotify.com/v1/artists/3BM0EaYmkKWuPmmHFUTQHv",
        "id" : "3BM0EaYmkKWuPmmHFUTQHv",
        "name" : "Kreator",
        "type" : "artist",
        "uri" : "spotify:artist:3BM0EaYmkKWuPmmHFUTQHv"
      } ],
      "disc_number" : 1,
      "duration_ms" : 268280,
      "explicit" : false,
      "external_ids" : {
        "isrc" : "DED831601451"
      },
      "external_urls" : {
        "spotify" : "https://open.spotify.com/track/6ELc3la1AjSF9Vi8vKNh1N"
      },
      "href" : "https://api.spotify.com/v1/tracks/6ELc3la1AjSF9Vi8vKNh1N",
      "id" : "6ELc3la1AjSF9Vi8vKNh1N",
      "is_local" : false,
      "is_playable" : true,
      "name" : "World War Now",
      "popularity" : 38,
      "preview_url" : "https://p.scdn.co/mp3-preview/4ef4e158116099873d4da067f37f2aabc4d6ad4a?cid=774b29d4f13844c495f206cafdad9c86",
      "track_number" : 2,
      "type" : "track",
      "uri" : "spotify:track:6ELc3la1AjSF9Vi8vKNh1N"
    }, {
      "album" : {
        "album_type" : "album",
        "artists" : [ {
          "external_urls" : {
            "spotify" : "https://open.spotify.com/artist/2x48WoJGRLCpCWHEKXMZoB"
          },
          "href" : "https://api.spotify.com/v1/artists/2x48WoJGRLCpCWHEKXMZoB",
          "id" : "2x48WoJGRLCpCWHEKXMZoB",
          "name" : "Trapped Under Ice",
          "type" : "artist",
          "uri" : "spotify:artist:2x48WoJGRLCpCWHEKXMZoB"
        } ],
        "external_urls" : {
          "spotify" : "https://open.spotify.com/album/2gf9jWmUeGC4Kl7IrublBB"
        },
        "href" : "https://api.spotify.com/v1/albums/2gf9jWmUeGC4Kl7IrublBB",
        "id" : "2gf9jWmUeGC4Kl7IrublBB",
        "images" : [ {
          "height" : 640,
          "url" : "https://i.scdn.co/image/ab67616d0000b273837f90d220ee24994bc864ea",
          "width" : 640
        }, {
          "height" : 300,
          "url" : "https://i.scdn.co/image/ab67616d00001e02837f90d220ee24994bc864ea",
          "width" : 300
        }, {
          "height" : 64,
          "url" : "https://i.scdn.co/image/ab67616d00004851837f90d220ee24994bc864ea",
          "width" : 64
        } ],
        "name" : "Secrets Of The World",
        "release_date" : "2009-08-04",
        "release_date_precision" : "day",
        "total_tracks" : 12,
        "type" : "album",
        "uri" : "spotify:album:2gf9jWmUeGC4Kl7IrublBB"
      },
      "artists" : [ {
        "external_urls" : {
          "spotify" : "https://open.spotify.com/artist/2x48WoJGRLCpCWHEKXMZoB"
        },
        "href" : "https://api.spotify.com/v1/artists/2x48WoJGRLCpCWHEKXMZoB",
        "id" : "2x48WoJGRLCpCWHEKXMZoB",
        "name" : "Trapped Under Ice",
        "type" : "artist",
        "uri" : "spotify:artist:2x48WoJGRLCpCWHEKXMZoB"
      } ],
      "disc_number" : 1,
      "duration_ms" : 85186,
      "explicit" : false,
      "external_ids" : {
        "isrc" : "USHKB0902601"
      },
      "external_urls" : {
        "spotify" : "https://open.spotify.com/track/0nF8GyrlyaoGBWeCZTjqBe"
      },
      "href" : "https://api.spotify.com/v1/tracks/0nF8GyrlyaoGBWeCZTjqBe",
      "id" : "0nF8GyrlyaoGBWeCZTjqBe",
      "is_local" : false,
      "is_playable" : true,
      "name" : "See God",
      "popularity" : 28,
      "preview_url" : "https://p.scdn.co/mp3-preview/ddcff21a7a22567a10cbf2f03de128a1cef0bc15?cid=774b29d4f13844c495f206cafdad9c86",
      "track_number" : 1,
      "type" : "track",
      "uri" : "spotify:track:0nF8GyrlyaoGBWeCZTjqBe"
    }, {
      "album" : {
        "album_type" : "album",
        "artists" : [ {
          "external_urls" : {
            "spotify" : "https://open.spotify.com/artist/1qVWr58r4UICauczmEsC1m"
          },
          "href" : "https://api.spotify.com/v1/artists/1qVWr58r4UICauczmEsC1m",
          "id" : "1qVWr58r4UICauczmEsC1m",
          "name" : "City Of Enoch",
          "type" : "artist",
          "uri" : "spotify:artist:1qVWr58r4UICauczmEsC1m"
        } ],
        "external_urls" : {
          "spotify" : "https://open.spotify.com/album/69SPm2OLjCXzyWoRtp1P8H"
        },
        "href" : "https://api.spotify.com/v1/albums/69SPm2OLjCXzyWoRtp1P8H",
        "id" : "69SPm2OLjCXzyWoRtp1P8H",
        "images" : [ {
          "height" : 640,
          "url" : "https://i.scdn.co/image/ab67616d0000b273aa5dd189f589daef619bbd9f",
          "width" : 640
        }, {
          "height" : 300,
          "url" : "https://i.scdn.co/image/ab67616d00001e02aa5dd189f589daef619bbd9f",
          "width" : 300
        }, {
          "height" : 64,
          "url" : "https://i.scdn.co/image/ab67616d00004851aa5dd189f589daef619bbd9f",
          "width" : 64
        } ],
        "name" : "Sweet Redeemer",
        "release_date" : "2017-04-14",
        "release_date_precision" : "day",
        "total_tracks" : 12,
        "type" : "album",
        "uri" : "spotify:album:69SPm2OLjCXzyWoRtp1P8H"
      },
      "artists" : [ {
        "external_urls" : {
          "spotify" : "https://open.spotify.com/artist/1qVWr58r4UICauczmEsC1m"
        },
        "href" : "https://api.spotify.com/v1/artists/1qVWr58r4UICauczmEsC1m",
        "id" : "1qVWr58r4UICauczmEsC1m",
        "name" : "City Of Enoch",
        "type" : "artist",
        "uri" : "spotify:artist:1qVWr58r4UICauczmEsC1m"
      } ],
      "disc_number" : 1,
      "duration_ms" : 212693,
      "explicit" : false,
      "external_ids" : {
        "isrc" : "US23M1700028"
      },
      "external_urls" : {
        "spotify" : "https://open.spotify.com/track/3nQUfwTEv6IltqTFzHmbiW"
      },
      "href" : "https://api.spotify.com/v1/tracks/3nQUfwTEv6IltqTFzHmbiW",
      "id" : "3nQUfwTEv6IltqTFzHmbiW",
      "is_local" : false,
      "is_playable" : true,
      "name" : "God so Loved the World",
      "popularity" : 25,
      "preview_url" : "https://p.scdn.co/mp3-preview/403018e9661165b0a2e7d50089b38e6d52001238?cid=774b29d4f13844c495f206cafdad9c86",
      "track_number" : 4,
      "type" : "track",
      "uri" : "spotify:track:3nQUfwTEv6IltqTFzHmbiW"
    }, {
      "album" : {
        "album_type" : "album",
        "artists" : [ {
          "external_urls" : {
            "spotify" : "https://open.spotify.com/artist/6EMFkKTVd8zHawgh5klcZQ"
          },
          "href" : "https://api.spotify.com/v1/artists/6EMFkKTVd8zHawgh5klcZQ",
          "id" : "6EMFkKTVd8zHawgh5klcZQ",
          "name" : "Mod da God",
          "type" : "artist",
          "uri" : "spotify:artist:6EMFkKTVd8zHawgh5klcZQ"
        } ],
        "external_urls" : {
          "spotify" : "https://open.spotify.com/album/4k9yhHPFkJH5FqiHL0NIkM"
        },
        "href" : "https://api.spotify.com/v1/albums/4k9yhHPFkJH5FqiHL0NIkM",
        "id" : "4k9yhHPFkJH5FqiHL0NIkM",
        "images" : [ {
          "height" : 640,
          "url" : "https://i.scdn.co/image/ab67616d0000b2732e2957322a695197ab2f35cb",
          "width" : 640
        }, {
          "height" : 300,
          "url" : "https://i.scdn.co/image/ab67616d00001e022e2957322a695197ab2f35cb",
          "width" : 300
        }, {
          "height" : 64,
          "url" : "https://i.scdn.co/image/ab67616d000048512e2957322a695197ab2f35cb",
          "width" : 64
        } ],
        "name" : "My World in Your Hands",
        "release_date" : "2020-05-15",
        "release_date_precision" : "day",
        "total_tracks" : 11,
        "type" : "album",
        "uri" : "spotify:album:4k9yhHPFkJH5FqiHL0NIkM"
      },
      "artists" : [ {
        "external_urls" : {
          "spotify" : "https://open.spotify.com/artist/6EMFkKTVd8zHawgh5klcZQ"
        },
        "href" : "https://api.spotify.com/v1/artists/6EMFkKTVd8zHawgh5klcZQ",
        "id" : "6EMFkKTVd8zHawgh5klcZQ",
        "name" : "Mod da God",
        "type" : "artist",
        "uri" : "spotify:artist:6EMFkKTVd8zHawgh5klcZQ"
      } ],
      "disc_number" : 1,
      "duration_ms" : 147147,
      "explicit" : true,
      "external_ids" : {
        "isrc" : "QZES72090075"
      },
      "external_urls" : {
        "spotify" : "https://open.spotify.com/track/1OAufqXMX50afrM7viqDus"
      },
      "href" : "https://api.spotify.com/v1/tracks/1OAufqXMX50afrM7viqDus",
      "id" : "1OAufqXMX50afrM7viqDus",
      "is_local" : false,
      "is_playable" : true,
      "name" : "Scared of Love Freestyle",
      "popularity" : 20,
      "preview_url" : "https://p.scdn.co/mp3-preview/123bcabd2c79a9d95a9dfd9afb56b017d7d31ebd?cid=774b29d4f13844c495f206cafdad9c86",
      "track_number" : 5,
      "type" : "track",
      "uri" : "spotify:track:1OAufqXMX50afrM7viqDus"
    }, {
      "album" : {
        "album_type" : "album",
        "artists" : [ {
          "external_urls" : {
            "spotify" : "https://open.spotify.com/artist/6EMFkKTVd8zHawgh5klcZQ"
          },
          "href" : "https://api.spotify.com/v1/artists/6EMFkKTVd8zHawgh5klcZQ",
          "id" : "6EMFkKTVd8zHawgh5klcZQ",
          "name" : "Mod da God",
          "type" : "artist",
          "uri" : "spotify:artist:6EMFkKTVd8zHawgh5klcZQ"
        } ],
        "external_urls" : {
          "spotify" : "https://open.spotify.com/album/4k9yhHPFkJH5FqiHL0NIkM"
        },
        "href" : "https://api.spotify.com/v1/albums/4k9yhHPFkJH5FqiHL0NIkM",
        "id" : "4k9yhHPFkJH5FqiHL0NIkM",
        "images" : [ {
          "height" : 640,
          "url" : "https://i.scdn.co/image/ab67616d0000b2732e2957322a695197ab2f35cb",
          "width" : 640
        }, {
          "height" : 300,
          "url" : "https://i.scdn.co/image/ab67616d00001e022e2957322a695197ab2f35cb",
          "width" : 300
        }, {
          "height" : 64,
          "url" : "https://i.scdn.co/image/ab67616d000048512e2957322a695197ab2f35cb",
          "width" : 64
        } ],
        "name" : "My World in Your Hands",
        "release_date" : "2020-05-15",
        "release_date_precision" : "day",
        "total_tracks" : 11,
        "type" : "album",
        "uri" : "spotify:album:4k9yhHPFkJH5FqiHL0NIkM"
      },
      "artists" : [ {
        "external_urls" : {
          "spotify" : "https://open.spotify.com/artist/6EMFkKTVd8zHawgh5klcZQ"
        },
        "href" : "https://api.spotify.com/v1/artists/6EMFkKTVd8zHawgh5klcZQ",
        "id" : "6EMFkKTVd8zHawgh5klcZQ",
        "name" : "Mod da God",
        "type" : "artist",
        "uri" : "spotify:artist:6EMFkKTVd8zHawgh5klcZQ"
      } ],
      "disc_number" : 1,
      "duration_ms" : 140904,
      "explicit" : true,
      "external_ids" : {
        "isrc" : "QZES72090073"
      },
      "external_urls" : {
        "spotify" : "https://open.spotify.com/track/3HgOIPHadEugAP5d2aStYc"
      },
      "href" : "https://api.spotify.com/v1/tracks/3HgOIPHadEugAP5d2aStYc",
      "id" : "3HgOIPHadEugAP5d2aStYc",
      "is_local" : false,
      "is_playable" : true,
      "name" : "King of New York",
      "popularity" : 20,
      "preview_url" : "https://p.scdn.co/mp3-preview/cdec941ecfca36d2d7818ffa083e16ee6f6539f0?cid=774b29d4f13844c495f206cafdad9c86",
      "track_number" : 3,
      "type" : "track",
      "uri" : "spotify:track:3HgOIPHadEugAP5d2aStYc"
    }, {
      "album" : {
        "album_type" : "album",
        "artists" : [ {
          "external_urls" : {
            "spotify" : "https://open.spotify.com/artist/1IQ2e1buppatiN1bxUVkrk"
          },
          "href" : "https://api.spotify.com/v1/artists/1IQ2e1buppatiN1bxUVkrk",
          "id" : "1IQ2e1buppatiN1bxUVkrk",
          "name" : "Slayer",
          "type" : "artist",
          "uri" : "spotify:artist:1IQ2e1buppatiN1bxUVkrk"
        } ],
        "external_urls" : {
          "spotify" : "https://open.spotify.com/album/44MTd2OAtSYY63DCcQ7P8n"
        },
        "href" : "https://api.spotify.com/v1/albums/44MTd2OAtSYY63DCcQ7P8n",
        "id" : "44MTd2OAtSYY63DCcQ7P8n",
        "images" : [ {
          "height" : 640,
          "url" : "https://i.scdn.co/image/ab67616d0000b2738fb2a8a2fd5f4f1de96f1382",
          "width" : 640
        }, {
          "height" : 300,
          "url" : "https://i.scdn.co/image/ab67616d00001e028fb2a8a2fd5f4f1de96f1382",
          "width" : 300
        }, {
          "height" : 64,
          "url" : "https://i.scdn.co/image/ab67616d000048518fb2a8a2fd5f4f1de96f1382",
          "width" : 64
        } ],
        "name" : "World Painted Blood",
        "release_date" : "2009-01-01",
        "release_date_precision" : "day",
        "total_tracks" : 11,
        "type" : "album",
        "uri" : "spotify:album:44MTd2OAtSYY63DCcQ7P8n"
      },
      "artists" : [ {
        "external_urls" : {
          "spotify" : "https://open.spotify.com/artist/1IQ2e1buppatiN1bxUVkrk"
        },
        "href" : "https://api.spotify.com/v1/artists/1IQ2e1buppatiN1bxUVkrk",
        "id" : "1IQ2e1buppatiN1bxUVkrk",
        "name" : "Slayer",
        "type" : "artist",
        "uri" : "spotify:artist:1IQ2e1buppatiN1bxUVkrk"
      } ],
      "disc_number" : 1,
      "duration_ms" : 260333,
      "explicit" : false,
      "external_ids" : {
        "isrc" : "USQX90900442"
      },
      "external_urls" : {
        "spotify" : "https://open.spotify.com/track/05NHcb4yBtQPhFX76jsNbK"
      },
      "href" : "https://api.spotify.com/v1/tracks/05NHcb4yBtQPhFX76jsNbK",
      "id" : "05NHcb4yBtQPhFX76jsNbK",
      "is_local" : false,
      "is_playable" : true,
      "name" : "Not Of This God",
      "popularity" : 31,
      "preview_url" : null,
      "track_number" : 11,
      "type" : "track",
      "uri" : "spotify:track:05NHcb4yBtQPhFX76jsNbK"
    } ],
    "limit" : 10,
    "next" : "https://api.spotify.com/v1/search?query=O+World+of+God&type=track&market=US&offset=15&limit=10",
    "offset" : 5,
    "previous" : "https://api.spotify.com/v1/search?query=O+World+of+God&type=track&market=US&offset=0&limit=10",
    "total" : 2579
  }
}