{
  "tracks" : {
    "href" : "https://api.spotify.com/v1/search?query=What+a+Wonderful+Savior&type=track&market=US&offset=5&limit=10",
    "items" : [ {
      "album" : {
        "album_type" : "album",
        "artists" : [ {
          "external_urls" : {
            "spotify" : "https://open.spotify.com/artist/5ulhxex8OfCL5oji1V95aQ"
          },
          "href" : "https://api.spotify.com/v1/artists/5ulhxex8OfCL5oji1V95aQ",
          "id" : "5ulhxex8OfCL5oji1V95aQ",
          "name" : "Worship Service Resources",
          "type" : "artist",
          "uri" : "spotify:artist:5ulhxex8OfCL5oji1V95aQ"
        } ],
        "external_urls" : {
          "spotify" : "https://open.spotify.com/album/0BBWIswAOCPwfZftBrPVpl"
        },
        "href" : "https://api.spotify.com/v1/albums/0BBWIswAOCPwfZftBrPVpl",
        "id" : "0BBWIswAOCPwfZftBrPVpl",
        "images" : [ {
          "height" : 640,
          "url" : "https://i.scdn.co/image/ab67616d0000b273a69ea71cbdaff477c77c2dd2",
          "width" : 640
        }, {
          "height" : 300,
          "url" : "https://i.scdn.co/image/ab67616d00001e02a69ea71cbdaff477c77c2dd2",
          "width" : 300
        }, {
          "height" : 64,
          "url" : "https://i.scdn.co/image/ab67616d00004851a69ea71cbdaff477c77c2dd2",
          "width" : 64
        } ],
        "name" : "Hymns Of The Cross & Jesus' Blood",
        "release_date" : "2005",
        "release_date_precision" : "year",
        "total_tracks" : 25,
        "type" : "album",
        "uri" : "spotify:album:0BBWIswAOCPwfZftBrPVpl"
      },
      "artists" : [ {
        "external_urls" : {
          "spotify" : "https://open.spotify.com/artist/5ulhxex8OfCL5oji1V95aQ"
        },
        "href" : "https://api.spotify.com/v1/artists/5ulhxex8OfCL5oji1V95aQ",
        "id" : "5ulhxex8OfCL5oji1V95aQ",
        "name" : "Worship Service Resources",
        "type" : "artist",
        "uri" : "spotify:artist:5ulhxex8OfCL5oji1V95aQ"
      } ],
      "disc_number" : 1,
      "duration_ms" : 167333,
      "explicit" : false,
      "external_ids" : {
        "isrc" : "US79N0610190"
      },
      "external_urls" : {
        "spotify" : "https://open.spotify.com/track/1idMB2ji0r6Fq0eMGEwkiy"
      },
      "href" : "https://api.spotify.com/v1/tracks/1idMB2ji0r6Fq0eMGEwkiy",
      "id" : "1idMB2ji0r6Fq0eMGEwkiy",
      "is_local" : false,
      "is_playable" : true,
      "name" : "What A Wonderful Savior",
      "popularity" : 0,
      "preview_url" : "https://p.scdn.co/mp3-preview/b64e03887fed1f88315cf92ffdb62f13e9be6d3d?cid=774b29d4f13844c495f206cafdad9c86",
      "track_number" : 24,
      "type" : "track",
      "uri" : "spotify:track:1idMB2ji0r6Fq0eMGEwkiy"
    }, {
      "album" : {
        "album_type" : "album",
        "artists" : [ {
          "external_urls" : {
            "spotify" : "https://open.spotify.com/artist/5yFBNdRUEW4UnQSqksEzoG"
          },
          "href" : "https://api.spotify.com/v1/artists/5yFBNdRUEW4UnQSqksEzoG",
          "id" : "5yFBNdRUEW4UnQSqksEzoG",
          "name" : "Holly Aloise",
          "type" : "artist",
          "uri" : "spotify:artist:5yFBNdRUEW4UnQSqksEzoG"
        } ],
        "external_urls" : {
          "spotify" : "https://open.spotify.com/album/2E1ctUIvHOcHcO57HiN08c"
        },
        "href" : "https://api.spotify.com/v1/albums/2E1ctUIvHOcHcO57HiN08c",
        "id" : "2E1ctUIvHOcHcO57HiN08c",
        "images" : [ {
          "height" : 640,
          "url" : "https://i.scdn.co/image/ab67616d0000b2739b9af4dd5d80e4e313954147",
          "width" : 640
        }, {
          "height" : 300,
          "url" : "https://i.scdn.co/image/ab67616d00001e029b9af4dd5d80e4e313954147",
          "width" : 300
        }, {
          "height" : 64,
          "url" : "https://i.scdn.co/image/ab67616d000048519b9af4dd5d80e4e313954147",
          "width" : 64
        } ],
        "name" : "Piano Tracks 6",
        "release_date" : "2014-11-18",
        "release_date_precision" : "day",
        "total_tracks" : 25,
        "type" : "album",
        "uri" : "spotify:album:2E1ctUIvHOcHcO57HiN08c"
      },
      "artists" : [ {
        "external_urls" : {
          "spotify" : "https://open.spotify.com/artist/5yFBNdRUEW4UnQSqksEzoG"
        },
        "href" : "https://api.spotify.com/v1/artists/5yFBNdRUEW4UnQSqksEzoG",
        "id" : "5yFBNdRUEW4UnQSqksEzoG",
        "name" : "Holly Aloise",
        "type" : "artist",
        "uri" : "spotify:artist:5yFBNdRUEW4UnQSqksEzoG"
      } ],
      "disc_number" : 1,
      "duration_ms" : 157570,
      "explicit" : false,
      "external_ids" : {
        "isrc" : "GB-SMU-18-79057"
      },
      "external_urls" : {
        "spotify" : "https://open.spotify.com/track/2uSa9LAw0GCQ1LGoWnxyey"
      },
      "href" : "https://api.spotify.com/v1/tracks/2uSa9LAw0GCQ1LGoWnxyey",
      "id" : "2uSa9LAw0GCQ1LGoWnxyey",
      "is_local" : false,
      "is_playable" : true,
      "name" : "What a Wonderful Savior!",
      "popularity" : 0,
      "preview_url" : "https://p.scdn.co/mp3-preview/672ffd34aca239fedd8f7364422882fd735c9b33?cid=774b29d4f13844c495f206cafdad9c86",
      "track_number" : 25,
      "type" : "track",
      "uri" : "spotify:track:2uSa9LAw0GCQ1LGoWnxyey"
    }, {
      "album" : {
        "album_type" : "album",
        "artists" : [ {
          "external_urls" : {
            "spotify" : "https://open.spotify.com/artist/3zLG3mUJk33vcdBjr6KVM7"
          },
          "href" : "https://api.spotify.com/v1/artists/3zLG3mUJk33vcdBjr6KVM7",
          "id" : "3zLG3mUJk33vcdBjr6KVM7",
          "name" : "Chad Marvin",
          "type" : "artist",
          "uri" : "spotify:artist:3zLG3mUJk33vcdBjr6KVM7"
        } ],
        "external_urls" : {
          "spotify" : "https://open.spotify.com/album/7H7xY77piaHpF1CdVTvehB"
        },
        "href" : "https://api.spotify.com/v1/albums/7H7xY77piaHpF1CdVTvehB",
        "id" : "7H7xY77piaHpF1CdVTvehB",
        "images" : [ {
          "height" : 640,
          "url" : "https://i.scdn.co/image/ab67616d0000b27305cb26b49eb87f84c9aca37c",
          "width" : 640
        }, {
          "height" : 300,
          "url" : "https://i.scdn.co/image/ab67616d00001e0205cb26b49eb87f84c9aca37c",
          "width" : 300
        }, {
          "height" : 64,
          "url" : "https://i.scdn.co/image/ab67616d0000485105cb26b49eb87f84c9aca37c",
          "width" : 64
        } ],
        "name" : "Hymns for Solo Piano",
        "release_date" : "2017-10-25",
        "release_date_precision" : "day",
        "total_tracks" : 14,
        "type" : "album",
        "uri" : "spotify:album:7H7xY77piaHpF1CdVTvehB"
      },
      "artists" : [ {
        "external_urls" : {
          "spotify" : "https://open.spotify.com/artist/3zLG3mUJk33vcdBjr6KVM7"
        },
        "href" : "https://api.spotify.com/v1/artists/3zLG3mUJk33vcdBjr6KVM7",
        "id" : "3zLG3mUJk33vcdBjr6KVM7",
        "name" : "Chad Marvin",
        "type" : "artist",
        "uri" : "spotify:artist:3zLG3mUJk33vcdBjr6KVM7"
      } ],
      "disc_number" : 1,
      "duration_ms" : 461674,
      "explicit" : false,
      "external_ids" : {
        "isrc" : "usdy41874493"
      },
      "external_urls" : {
        "spotify" : "https://open.spotify.com/track/5TEdXrmapKt7o3A3CIxqzd"
      },
      "href" : "https://api.spotify.com/v1/tracks/5TEdXrmapKt7o3A3CIxqzd",
      "id" : "5TEdXrmapKt7o3A3CIxqzd",
      "is_local" : false,
      "is_playable" : true,
      "name" : "What a Wonderful Savior Medley",
      "popularity" : 0,
      "preview_url" : "https://p.scdn.co/mp3-preview/f618fd0873399ce485ab61aec84b8607c981dfd4?cid=774b29d4f13844c495f206cafdad9c86",
      "track_number" : 12,
      "type" : "track",
      "uri" : "spotify:track:5TEdXrmapKt7o3A3CIxqzd"
    }, {
      "album" : {
        "album_type" : "album",
        "artists" : [ {
          "external_urls" : {
            "spotify" : "https://open.spotify.com/artist/1u2TdHORv3ieeQIvzkI9uE"
          },
          "href" : "https://api.spotify.com/v1/artists/1u2TdHORv3ieeQIvzkI9uE",
          "id" : "1u2TdHORv3ieeQIvzkI9uE",
          "name" : "The Raise Kids",
          "type" : "artist",
          "uri" : "spotify:artist:1u2TdHORv3ieeQIvzkI9uE"
        } ],
        "external_urls" : {
          "spotify" : "https://open.spotify.com/album/6oYgp0gF8HOsN8NlUgGA5T"
        },
        "href" : "https://api.spotify.com/v1/albums/6oYgp0gF8HOsN8NlUgGA5T",
        "id" : "6oYgp0gF8HOsN8NlUgGA5T",
        "images" : [ {
          "height" : 640,
          "url" : "https://i.scdn.co/image/ab67616d0000b2734ab24287576bca8e140f8a42",
          "width" : 640
        }, {
          "height" : 300,
          "url" : "https://i.scdn.co/image/ab67616d00001e024ab24287576bca8e140f8a42",
          "width" : 300
        }, {
          "height" : 64,
          "url" : "https://i.scdn.co/image/ab67616d000048514ab24287576bca8e140f8a42",
          "width" : 64
        } ],
        "name" : "A Raise Kids Christmas",
        "release_date" : "2007-01-01",
        "release_date_precision" : "day",
        "total_tracks" : 13,
        "type" : "album",
        "uri" : "spotify:album:6oYgp0gF8HOsN8NlUgGA5T"
      },
      "artists" : [ {
        "external_urls" : {
          "spotify" : "https://open.spotify.com/artist/1u2TdHORv3ieeQIvzkI9uE"
        },
        "href" : "https://api.spotify.com/v1/artists/1u2TdHORv3ieeQIvzkI9uE",
        "id" : "1u2TdHORv3ieeQIvzkI9uE",
        "name" : "The Raise Kids",
        "type" : "artist",
        "uri" : "spotify:artist:1u2TdHORv3ieeQIvzkI9uE"
      } ],
      "disc_number" : 1,
      "duration_ms" : 155253,
      "explicit" : false,
      "external_ids" : {
        "isrc" : "usl4q0701741"
      },
      "external_urls" : {
        "spotify" : "https://open.spotify.com/track/3cN6OnuKyWFKs0TGXlrYUy"
      },
      "href" : "https://api.spotify.com/v1/tracks/3cN6OnuKyWFKs0TGXlrYUy",
      "id" : "3cN6OnuKyWFKs0TGXlrYUy",
      "is_local" : false,
      "is_playable" : true,
      "name" : "What a Wonderful Savior and Lord",
      "popularity" : 0,
      "preview_url" : "https://p.scdn.co/mp3-preview/dbf4d558d8edfbf2c409bb02ccbd8b8f6b66ee57?cid=774b29d4f13844c495f206cafdad9c86",
      "track_number" : 7,
      "type" : "track",
      "uri" : "spotify:track:3cN6OnuKyWFKs0TGXlrYUy"
    }, {
      "album" : {
        "album_type" : "album",
        "artists" : [ {
          "external_urls" : {
            "spotify" : "https://open.spotify.com/artist/05c6W2NfXx6jxO28OGfPRA"
          },
          "href" : "https://api.spotify.com/v1/artists/05c6W2NfXx6jxO28OGfPRA",
          "id" : "05c6W2NfXx6jxO28OGfPRA",
          "name" : "Larry Sparks",
          "type" : "artist",
          "uri" : "spotify:artist:05c6W2NfXx6jxO28OGfPRA"
        } ],
        "external_urls" : {
          "spotify" : "https://open.spotify.com/album/7vvl35HmWWRZTgfxHkn2H2"
        },
        "href" : "https://api.spotify.com/v1/albums/7vvl35HmWWRZTgfxHkn2H2",
        "id" : "7vvl35HmWWRZTgfxHkn2H2",
        "images" : [ {
          "height" : 640,
          "url" : "https://i.scdn.co/image/ab67616d0000b273cce26d94326b55db2ccc4e38",
          "width" : 640
        }, {
          "height" : 300,
          "url" : "https://i.scdn.co/image/ab67616d00001e02cce26d94326b55db2ccc4e38",
          "width" : 300
        }, {
          "height" : 64,
          "url" : "https://i.scdn.co/image/ab67616d00004851cce26d94326b55db2ccc4e38",
          "width" : 64
        } ],
        "name" : "I Just Want to Thank You Lord",
        "release_date" : "2009-10-20",
        "release_date_precision" : "day",
        "total_tracks" : 12,
        "type" : "album",
        "uri" : "spotify:album:7vvl35HmWWRZTgfxHkn2H2"
      },
      "artists" : [ {
        "external_urls" : {
          "spotify" : "https://open.spotify.com/artist/05c6W2NfXx6jxO28OGfPRA"
        },
        "href" : "https://api.spotify.com/v1/artists/05c6W2NfXx6jxO28OGfPRA",
        "id" : "05c6W2NfXx6jxO28OGfPRA",
        "name" : "Larry Sparks",
        "type" : "artist",
        "uri" : "spotify:artist:05c6W2NfXx6jxO28OGfPRA"
      } ],
      "disc_number" : 1,
      "duration_ms" : 175253,
      "explicit" : false,
      "external_ids" : {
        "isrc" : "USFWP0900304"
      },
      "external_urls" : {
        "spotify" : "https://open.spotify.com/track/1L0vti3WHzYByK089LQ8Qm"
      },
      "href" : "https://api.spotify.com/v1/tracks/1L0vti3WHzYByK089LQ8Qm",
      "id" : "1L0vti3WHzYByK089LQ8Qm",
      "is_local" : false,
      "is_playable" : true,
      "name" : "What a Wonderful Savior Is He",
      "popularity" : 1,
      "preview_url" : "https://p.scdn.co/mp3-preview/1301d0796465ed99db83a20bee37ed5a8bc1fa71?cid=774b29d4f13844c495f206cafdad9c86",
      "track_number" : 5,
      "type" : "track",
      "uri" : "spotify:track:1L0vti3WHzYByK089LQ8Qm"
    }, {
      "album" : {
        "album_type" : "album",
        "artists" : [ {
          "external_urls" : {
            "spotify" : "https://open.spotify.com/artist/3odthcEFO8qjupsfM56E2C"
          },
          "href" : "https://api.spotify.com/v1/artists/3odthcEFO8qjupsfM56E2C",
          "id" : "3odthcEFO8qjupsfM56E2C",
          "name" : "Carl Story",
          "type" : "artist",
          "uri" : "spotify:artist:3odthcEFO8qjupsfM56E2C"
        } ],
        "external_urls" : {
          "spotify" : "https://open.spotify.com/album/42zrErzis9IjQ8KxN4NDCp"
        },
        "href" : "https://api.spotify.com/v1/albums/42zrErzis9IjQ8KxN4NDCp",
        "id" : "42zrErzis9IjQ8KxN4NDCp",
        "images" : [ {
          "height" : 640,
          "url" : "https://i.scdn.co/image/ab67616d0000b273e79844c39b19afa33d1d7f56",
          "width" : 640
        }, {
          "height" : 300,
          "url" : "https://i.scdn.co/image/ab67616d00001e02e79844c39b19afa33d1d7f56",
          "width" : 300
        }, {
          "height" : 64,
          "url" : "https://i.scdn.co/image/ab67616d00004851e79844c39b19afa33d1d7f56",
          "width" : 64
        } ],
        "name" : "Complete Atteiram Collection",
        "release_date" : "2006",
        "release_date_precision" : "year",
        "total_tracks" : 18,
        "type" : "album",
        "uri" : "spotify:album:42zrErzis9IjQ8KxN4NDCp"
      },
      "artists" : [ {
        "external_urls" : {
          "spotify" : "https://open.spotify.com/artist/3odthcEFO8qjupsfM56E2C"
        },
        "href" : "https://api.spotify.com/v1/artists/3odthcEFO8qjupsfM56E2C",
        "id" : "3odthcEFO8qjupsfM56E2C",
        "name" : "Carl Story",
        "type" : "artist",
        "uri" : "spotify:artist:3odthcEFO8qjupsfM56E2C"
      } ],
      "disc_number" : 1,
      "duration_ms" : 122933,
      "explicit" : false,
      "external_ids" : {
        "isrc" : "USACU0505689"
      },
      "external_urls" : {
        "spotify" : "https://open.spotify.com/track/13xIApsoT1OT8sw0IJBg11"
      },
      "href" : "https://api.spotify.com/v1/tracks/13xIApsoT1OT8sw0IJBg11",
      "id" : "13xIApsoT1OT8sw0IJBg11",
      "is_local" : false,
      "is_playable" : true,
      "name" : "What A Wonderful Savior Is He",
      "popularity" : 0,
      "preview_url" : "https://p.scdn.co/mp3-preview/1c262328c90e8b72d8db822e92a6f4cbaf96080a?cid=774b29d4f13844c495f206cafdad9c86",
      "track_number" : 17,
      "type" : "track",
      "uri" : "spotify:track:13xIApsoT1OT8sw0IJBg11"
    }, {
      "album" : {
        "album_type" : "album",
        "artists" : [ {
          "external_urls" : {
            "spotify" : "https://open.spotify.com/artist/4iZXIb8lvpQgnptn4MHF6N"
          },
          "href" : "https://api.spotify.com/v1/artists/4iZXIb8lvpQgnptn4MHF6N",
          "id" : "4iZXIb8lvpQgnptn4MHF6N",
          "name" : "Ray Harper",
          "type" : "artist",
          "uri" : "spotify:artist:4iZXIb8lvpQgnptn4MHF6N"
        } ],
        "external_urls" : {
          "spotify" : "https://open.spotify.com/album/7sJbWYxT9KMd2XvR23jxzz"
        },
        "href" : "https://api.spotify.com/v1/albums/7sJbWYxT9KMd2XvR23jxzz",
        "id" : "7sJbWYxT9KMd2XvR23jxzz",
        "images" : [ {
          "height" : 640,
          "url" : "https://i.scdn.co/image/ab67616d0000b273293cbd9a86273cf43443c419",
          "width" : 640
        }, {
          "height" : 300,
          "url" : "https://i.scdn.co/image/ab67616d00001e02293cbd9a86273cf43443c419",
          "width" : 300
        }, {
          "height" : 64,
          "url" : "https://i.scdn.co/image/ab67616d00004851293cbd9a86273cf43443c419",
          "width" : 64
        } ],
        "name" : "What A Wonderful Savior Is He",
        "release_date" : "1994-04-01",
        "release_date_precision" : "day",
        "total_tracks" : 11,
        "type" : "album",
        "uri" : "spotify:album:7sJbWYxT9KMd2XvR23jxzz"
      },
      "artists" : [ {
        "external_urls" : {
          "spotify" : "https://open.spotify.com/artist/4iZXIb8lvpQgnptn4MHF6N"
        },
        "href" : "https://api.spotify.com/v1/artists/4iZXIb8lvpQgnptn4MHF6N",
        "id" : "4iZXIb8lvpQgnptn4MHF6N",
        "name" : "Ray Harper",
        "type" : "artist",
        "uri" : "spotify:artist:4iZXIb8lvpQgnptn4MHF6N"
      } ],
      "disc_number" : 1,
      "duration_ms" : 166600,
      "explicit" : false,
      "external_ids" : {
        "isrc" : "USACX1901057"
      },
      "external_urls" : {
        "spotify" : "https://open.spotify.com/track/3UyOXveyO0oklhwL73b03f"
      },
      "href" : "https://api.spotify.com/v1/tracks/3UyOXveyO0oklhwL73b03f",
      "id" : "3UyOXveyO0oklhwL73b03f",
      "is_local" : false,
      "is_playable" : true,
      "name" : "What A Wonderful Savior Is He",
      "popularity" : 0,
      "preview_url" : "https://p.scdn.co/mp3-preview/2ad4f9f026e8be2f6117ce265c0fa5b5f6c61b8d?cid=774b29d4f13844c495f206cafdad9c86",
      "track_number" : 11,
      "type" : "track",
      "uri" : "spotify:track:3UyOXveyO0oklhwL73b03f"
    }, {
      "album" : {
        "album_type" : "album",
        "artists" : [ {
          "external_urls" : {
            "spotify" : "https://open.spotify.com/artist/05c6W2NfXx6jxO28OGfPRA"
          },
          "href" : "https://api.spotify.com/v1/artists/05c6W2NfXx6jxO28OGfPRA",
          "id" : "05c6W2NfXx6jxO28OGfPRA",
          "name" : "Larry Sparks",
          "type" : "artist",
          "uri" : "spotify:artist:05c6W2NfXx6jxO28OGfPRA"
        } ],
        "external_urls" : {
          "spotify" : "https://open.spotify.com/album/3JemwypGrGK8E06IsRNyNX"
        },
        "href" : "https://api.spotify.com/v1/albums/3JemwypGrGK8E06IsRNyNX",
        "id" : "3JemwypGrGK8E06IsRNyNX",
        "images" : [ {
          "height" : 640,
          "url" : "https://i.scdn.co/image/ab67616d0000b273acacd51d7866e7ceb812127d",
          "width" : 640
        }, {
          "height" : 300,
          "url" : "https://i.scdn.co/image/ab67616d00001e02acacd51d7866e7ceb812127d",
          "width" : 300
        }, {
          "height" : 64,
          "url" : "https://i.scdn.co/image/ab67616d00004851acacd51d7866e7ceb812127d",
          "width" : 64
        } ],
        "name" : "I Just Want To Thank You Lord",
        "release_date" : "2009-10-20",
        "release_date_precision" : "day",
        "total_tracks" : 12,
        "type" : "album",
        "uri" : "spotify:album:3JemwypGrGK8E06IsRNyNX"
      },
      "artists" : [ {
        "external_urls" : {
          "spotify" : "https://open.spotify.com/artist/05c6W2NfXx6jxO28OGfPRA"
        },
        "href" : "https://api.spotify.com/v1/artists/05c6W2NfXx6jxO28OGfPRA",
        "id" : "05c6W2NfXx6jxO28OGfPRA",
        "name" : "Larry Sparks",
        "type" : "artist",
        "uri" : "spotify:artist:05c6W2NfXx6jxO28OGfPRA"
      } ],
      "disc_number" : 1,
      "duration_ms" : 171226,
      "explicit" : false,
      "external_ids" : {
        "isrc" : "USFWP0900304"
      },
      "external_urls" : {
        "spotify" : "https://open.spotify.com/track/0n5JGa428jIYhANgO0QzVa"
      },
      "href" : "https://api.spotify.com/v1/tracks/0n5JGa428jIYhANgO0QzVa",
      "id" : "0n5JGa428jIYhANgO0QzVa",
      "is_local" : false,
      "is_playable" : true,
      "name" : "What A Wonderful Savior Is He",
      "popularity" : 0,
      "preview_url" : "https://p.scdn.co/mp3-preview/44d46d75a4bcff784ffbff7a3f7c40d859f231eb?cid=774b29d4f13844c495f206cafdad9c86",
      "track_number" : 5,
      "type" : "track",
      "uri" : "spotify:track:0n5JGa428jIYhANgO0QzVa"
    }, {
      "album" : {
        "album_type" : "album",
        "artists" : [ {
          "external_urls" : {
            "spotify" : "https://open.spotify.com/artist/5a1u9fulLhPXwEWkrxmzEV"
          },
          "href" : "https://api.spotify.com/v1/artists/5a1u9fulLhPXwEWkrxmzEV",
          "id" : "5a1u9fulLhPXwEWkrxmzEV",
          "name" : "Gibson Brothers",
          "type" : "artist",
          "uri" : "spotify:artist:5a1u9fulLhPXwEWkrxmzEV"
        } ],
        "external_urls" : {
          "spotify" : "https://open.spotify.com/album/0PbsW0JEovlgftcXDWbEbN"
        },
        "href" : "https://api.spotify.com/v1/albums/0PbsW0JEovlgftcXDWbEbN",
        "id" : "0PbsW0JEovlgftcXDWbEbN",
        "images" : [ {
          "height" : 640,
          "url" : "https://i.scdn.co/image/ab67616d0000b273b93d76c8b57807e3ec8a60ad",
          "width" : 640
        }, {
          "height" : 300,
          "url" : "https://i.scdn.co/image/ab67616d00001e02b93d76c8b57807e3ec8a60ad",
          "width" : 300
        }, {
          "height" : 64,
          "url" : "https://i.scdn.co/image/ab67616d00004851b93d76c8b57807e3ec8a60ad",
          "width" : 64
        } ],
        "name" : "Brotherhood",
        "release_date" : "2015-01-01",
        "release_date_precision" : "day",
        "total_tracks" : 15,
        "type" : "album",
        "uri" : "spotify:album:0PbsW0JEovlgftcXDWbEbN"
      },
      "artists" : [ {
        "external_urls" : {
          "spotify" : "https://open.spotify.com/artist/5a1u9fulLhPXwEWkrxmzEV"
        },
        "href" : "https://api.spotify.com/v1/artists/5a1u9fulLhPXwEWkrxmzEV",
        "id" : "5a1u9fulLhPXwEWkrxmzEV",
        "name" : "Gibson Brothers",
        "type" : "artist",
        "uri" : "spotify:artist:5a1u9fulLhPXwEWkrxmzEV"
      } ],
      "disc_number" : 1,
      "duration_ms" : 173720,
      "explicit" : false,
      "external_ids" : {
        "isrc" : "USRO21400276"
      },
      "external_urls" : {
        "spotify" : "https://open.spotify.com/track/1cfCDMpeQPUKeXpbHORPPV"
      },
      "href" : "https://api.spotify.com/v1/tracks/1cfCDMpeQPUKeXpbHORPPV",
      "id" : "1cfCDMpeQPUKeXpbHORPPV",
      "is_local" : false,
      "is_playable" : true,
      "name" : "What A Wonderful Savior Is He",
      "popularity" : 1,
      "preview_url" : null,
      "track_number" : 8,
      "type" : "track",
      "uri" : "spotify:track:1cfCDMpeQPUKeXpbHORPPV"
    }, {
      "album" : {
        "album_type" : "compilation",
        "artists" : [ {
          "external_urls" : {
            "spotify" : "https://open.spotify.com/artist/0LyfQWJT6nXafLPZqxe9Of"
          },
          "href" : "https://api.spotify.com/v1/artists/0LyfQWJT6nXafLPZqxe9Of",
          "id" : "0LyfQWJT6nXafLPZqxe9Of",
          "name" : "Various Artists",
          "type" : "artist",
          "uri" : "spotify:artist:0LyfQWJT6nXafLPZqxe9Of"
        } ],
        "external_urls" : {
          "spotify" : "https://open.spotify.com/album/6ZSJxRqqW9LllvBSQXAFff"
        },
        "href" : "https://api.spotify.com/v1/albums/6ZSJxRqqW9LllvBSQXAFff",
        "id" : "6ZSJxRqqW9LllvBSQXAFff",
        "images" : [ {
          "height" : 640,
          "url" : "https://i.scdn.co/image/ab67616d0000b273944e152d05cee1f664ec1387",
          "width" : 640
        }, {
          "height" : 300,
          "url" : "https://i.scdn.co/image/ab67616d00001e02944e152d05cee1f664ec1387",
          "width" : 300
        }, {
          "height" : 64,
          "url" : "https://i.scdn.co/image/ab67616d00004851944e152d05cee1f664ec1387",
          "width" : 64
        } ],
        "name" : "Praise! - All American Gospel",
        "release_date" : "2012-09-04",
        "release_date_precision" : "day",
        "total_tracks" : 15,
        "type" : "album",
        "uri" : "spotify:album:6ZSJxRqqW9LllvBSQXAFff"
      },
      "artists" : [ {
        "external_urls" : {
          "spotify" : "https://open.spotify.com/artist/53ODrbz9dJiAZ6ikXa8l3F"
        },
        "href" : "https://api.spotify.com/v1/artists/53ODrbz9dJiAZ6ikXa8l3F",
        "id" : "53ODrbz9dJiAZ6ikXa8l3F",
        "name" : "Doyle Lawson",
        "type" : "artist",
        "uri" : "spotify:artist:53ODrbz9dJiAZ6ikXa8l3F"
      } ],
      "disc_number" : 1,
      "duration_ms" : 210600,
      "explicit" : false,
      "external_ids" : {
        "isrc" : "USSH50700813"
      },
      "external_urls" : {
        "spotify" : "https://open.spotify.com/track/1xPY6qFZReRuaaCPDdh34u"
      },
      "href" : "https://api.spotify.com/v1/tracks/1xPY6qFZReRuaaCPDdh34u",
      "id" : "1xPY6qFZReRuaaCPDdh34u",
      "is_local" : false,
      "is_playable" : true,
      "name" : "What a Wonderful Savior He Is",
      "popularity" : 2,
      "preview_url" : "https://p.scdn.co/mp3-preview/698032dfd83f2459677d2fe6efd324132c88e036?cid=774b29d4f13844c495f206cafdad9c86",
      "track_number" : 3,
      "type" : "track",
      "uri" : "spotify:track:1xPY6qFZReRuaaCPDdh34u"
    } ],
    "limit" : 10,
    "next" : "https://api.spotify.com/v1/search?query=What+a+Wonderful+Savior&type=track&market=US&offset=15&limit=10",
    "offset" : 5,
    "previous" : "https://api.spotify.com/v1/search?query=What+a+Wonderful+Savior&type=track&market=US&offset=0&limit=10",
    "total" : 40
  }
}