{
  "tracks" : {
    "href" : "https://api.spotify.com/v1/search?query=Angels+From+the+Realms+of+Glory&type=track&market=US&offset=5&limit=10",
    "items" : [ {
      "album" : {
        "album_type" : "single",
        "artists" : [ {
          "external_urls" : {
            "spotify" : "https://open.spotify.com/artist/7nH9FMfm9LlkJ5F7x414RM"
          },
          "href" : "https://api.spotify.com/v1/artists/7nH9FMfm9LlkJ5F7x414RM",
          "id" : "7nH9FMfm9LlkJ5F7x414RM",
          "name" : "Bob Mader",
          "type" : "artist",
          "uri" : "spotify:artist:7nH9FMfm9LlkJ5F7x414RM"
        } ],
        "external_urls" : {
          "spotify" : "https://open.spotify.com/album/1ItUTr7XteRZVSekmr3DiS"
        },
        "href" : "https://api.spotify.com/v1/albums/1ItUTr7XteRZVSekmr3DiS",
        "id" : "1ItUTr7XteRZVSekmr3DiS",
        "images" : [ {
          "height" : 640,
          "url" : "https://i.scdn.co/image/ab67616d0000b273f3f2eba40d06fb497e5a381a",
          "width" : 640
        }, {
          "height" : 300,
          "url" : "https://i.scdn.co/image/ab67616d00001e02f3f2eba40d06fb497e5a381a",
          "width" : 300
        }, {
          "height" : 64,
          "url" : "https://i.scdn.co/image/ab67616d00004851f3f2eba40d06fb497e5a381a",
          "width" : 64
        } ],
        "name" : "The Girl Loves Christmas",
        "release_date" : "2019-11-26",
        "release_date_precision" : "day",
        "total_tracks" : 4,
        "type" : "album",
        "uri" : "spotify:album:1ItUTr7XteRZVSekmr3DiS"
      },
      "artists" : [ {
        "external_urls" : {
          "spotify" : "https://open.spotify.com/artist/7nH9FMfm9LlkJ5F7x414RM"
        },
        "href" : "https://api.spotify.com/v1/artists/7nH9FMfm9LlkJ5F7x414RM",
        "id" : "7nH9FMfm9LlkJ5F7x414RM",
        "name" : "Bob Mader",
        "type" : "artist",
        "uri" : "spotify:artist:7nH9FMfm9LlkJ5F7x414RM"
      } ],
      "disc_number" : 1,
      "duration_ms" : 173139,
      "explicit" : false,
      "external_ids" : {
        "isrc" : "QZ8251943121"
      },
      "external_urls" : {
        "spotify" : "https://open.spotify.com/track/6d1wA15sklWxkhfw3nkXDh"
      },
      "href" : "https://api.spotify.com/v1/tracks/6d1wA15sklWxkhfw3nkXDh",
      "id" : "6d1wA15sklWxkhfw3nkXDh",
      "is_local" : false,
      "is_playable" : true,
      "name" : "Angels From The Realms of Glory",
      "popularity" : 14,
      "preview_url" : "https://p.scdn.co/mp3-preview/7907df4350e9c2d4f8fd86fa47162298db391a3c?cid=774b29d4f13844c495f206cafdad9c86",
      "track_number" : 3,
      "type" : "track",
      "uri" : "spotify:track:6d1wA15sklWxkhfw3nkXDh"
    }, {
      "album" : {
        "album_type" : "album",
        "artists" : [ {
          "external_urls" : {
            "spotify" : "https://open.spotify.com/artist/7EuAjEsiYkBk5jtTLZPwba"
          },
          "href" : "https://api.spotify.com/v1/artists/7EuAjEsiYkBk5jtTLZPwba",
          "id" : "7EuAjEsiYkBk5jtTLZPwba",
          "name" : "William Wilson",
          "type" : "artist",
          "uri" : "spotify:artist:7EuAjEsiYkBk5jtTLZPwba"
        } ],
        "external_urls" : {
          "spotify" : "https://open.spotify.com/album/6qiHGxAMfUzMkqaA9OAvtK"
        },
        "href" : "https://api.spotify.com/v1/albums/6qiHGxAMfUzMkqaA9OAvtK",
        "id" : "6qiHGxAMfUzMkqaA9OAvtK",
        "images" : [ {
          "height" : 640,
          "url" : "https://i.scdn.co/image/ab67616d0000b273a5f3ab89afb836aedf905778",
          "width" : 640
        }, {
          "height" : 300,
          "url" : "https://i.scdn.co/image/ab67616d00001e02a5f3ab89afb836aedf905778",
          "width" : 300
        }, {
          "height" : 64,
          "url" : "https://i.scdn.co/image/ab67616d00004851a5f3ab89afb836aedf905778",
          "width" : 64
        } ],
        "name" : "O Little Town of Bethlehem: Christmas Miniatures for Classical Guitar",
        "release_date" : "2014-11-16",
        "release_date_precision" : "day",
        "total_tracks" : 23,
        "type" : "album",
        "uri" : "spotify:album:6qiHGxAMfUzMkqaA9OAvtK"
      },
      "artists" : [ {
        "external_urls" : {
          "spotify" : "https://open.spotify.com/artist/7EuAjEsiYkBk5jtTLZPwba"
        },
        "href" : "https://api.spotify.com/v1/artists/7EuAjEsiYkBk5jtTLZPwba",
        "id" : "7EuAjEsiYkBk5jtTLZPwba",
        "name" : "William Wilson",
        "type" : "artist",
        "uri" : "spotify:artist:7EuAjEsiYkBk5jtTLZPwba"
      } ],
      "disc_number" : 1,
      "duration_ms" : 71259,
      "explicit" : false,
      "external_ids" : {
        "isrc" : "TCACB1474317"
      },
      "external_urls" : {
        "spotify" : "https://open.spotify.com/track/1poGqy9YVP0mfu7NUhryCU"
      },
      "href" : "https://api.spotify.com/v1/tracks/1poGqy9YVP0mfu7NUhryCU",
      "id" : "1poGqy9YVP0mfu7NUhryCU",
      "is_local" : false,
      "is_playable" : true,
      "name" : "Angels from the Realms of Glory",
      "popularity" : 16,
      "preview_url" : "https://p.scdn.co/mp3-preview/6c1c7e743c506abc66006eaafea52894199388e0?cid=774b29d4f13844c495f206cafdad9c86",
      "track_number" : 17,
      "type" : "track",
      "uri" : "spotify:track:1poGqy9YVP0mfu7NUhryCU"
    }, {
      "album" : {
        "album_type" : "album",
        "artists" : [ {
          "external_urls" : {
            "spotify" : "https://open.spotify.com/artist/1GRl6sRyLg9ToOohIE2wW5"
          },
          "href" : "https://api.spotify.com/v1/artists/1GRl6sRyLg9ToOohIE2wW5",
          "id" : "1GRl6sRyLg9ToOohIE2wW5",
          "name" : "The Tabernacle Choir at Temple Square",
          "type" : "artist",
          "uri" : "spotify:artist:1GRl6sRyLg9ToOohIE2wW5"
        }, {
          "external_urls" : {
            "spotify" : "https://open.spotify.com/artist/4kAIRZipPTtTbZBTudxcEA"
          },
          "href" : "https://api.spotify.com/v1/artists/4kAIRZipPTtTbZBTudxcEA",
          "id" : "4kAIRZipPTtTbZBTudxcEA",
          "name" : "Orchestra at Temple Square",
          "type" : "artist",
          "uri" : "spotify:artist:4kAIRZipPTtTbZBTudxcEA"
        } ],
        "external_urls" : {
          "spotify" : "https://open.spotify.com/album/5dBV2dFCGLxe4K4ndQV4FV"
        },
        "href" : "https://api.spotify.com/v1/albums/5dBV2dFCGLxe4K4ndQV4FV",
        "id" : "5dBV2dFCGLxe4K4ndQV4FV",
        "images" : [ {
          "height" : 640,
          "url" : "https://i.scdn.co/image/ab67616d0000b2733fb712de961321d745c51aeb",
          "width" : 640
        }, {
          "height" : 300,
          "url" : "https://i.scdn.co/image/ab67616d00001e023fb712de961321d745c51aeb",
          "width" : 300
        }, {
          "height" : 64,
          "url" : "https://i.scdn.co/image/ab67616d000048513fb712de961321d745c51aeb",
          "width" : 64
        } ],
        "name" : "Angels Among Us",
        "release_date" : "2019-10-18",
        "release_date_precision" : "day",
        "total_tracks" : 21,
        "type" : "album",
        "uri" : "spotify:album:5dBV2dFCGLxe4K4ndQV4FV"
      },
      "artists" : [ {
        "external_urls" : {
          "spotify" : "https://open.spotify.com/artist/1GRl6sRyLg9ToOohIE2wW5"
        },
        "href" : "https://api.spotify.com/v1/artists/1GRl6sRyLg9ToOohIE2wW5",
        "id" : "1GRl6sRyLg9ToOohIE2wW5",
        "name" : "The Tabernacle Choir at Temple Square",
        "type" : "artist",
        "uri" : "spotify:artist:1GRl6sRyLg9ToOohIE2wW5"
      }, {
        "external_urls" : {
          "spotify" : "https://open.spotify.com/artist/4kAIRZipPTtTbZBTudxcEA"
        },
        "href" : "https://api.spotify.com/v1/artists/4kAIRZipPTtTbZBTudxcEA",
        "id" : "4kAIRZipPTtTbZBTudxcEA",
        "name" : "Orchestra at Temple Square",
        "type" : "artist",
        "uri" : "spotify:artist:4kAIRZipPTtTbZBTudxcEA"
      }, {
        "external_urls" : {
          "spotify" : "https://open.spotify.com/artist/3DgcBA7P0ji5co7Z1Gfp2Q"
        },
        "href" : "https://api.spotify.com/v1/artists/3DgcBA7P0ji5co7Z1Gfp2Q",
        "id" : "3DgcBA7P0ji5co7Z1Gfp2Q",
        "name" : "Kristin Chenoweth",
        "type" : "artist",
        "uri" : "spotify:artist:3DgcBA7P0ji5co7Z1Gfp2Q"
      } ],
      "disc_number" : 1,
      "duration_ms" : 284583,
      "explicit" : false,
      "external_ids" : {
        "isrc" : "US23M1900054"
      },
      "external_urls" : {
        "spotify" : "https://open.spotify.com/track/0jCLJYxKg2vbRNdpkzm7UK"
      },
      "href" : "https://api.spotify.com/v1/tracks/0jCLJYxKg2vbRNdpkzm7UK",
      "id" : "0jCLJYxKg2vbRNdpkzm7UK",
      "is_local" : false,
      "is_playable" : true,
      "name" : "Angels from the Realms of Glory",
      "popularity" : 12,
      "preview_url" : "https://p.scdn.co/mp3-preview/5a394c213b0ee485a89a121acbba2fae6b2e35ee?cid=774b29d4f13844c495f206cafdad9c86",
      "track_number" : 21,
      "type" : "track",
      "uri" : "spotify:track:0jCLJYxKg2vbRNdpkzm7UK"
    }, {
      "album" : {
        "album_type" : "album",
        "artists" : [ {
          "external_urls" : {
            "spotify" : "https://open.spotify.com/artist/7EIbKyiLnEJ1Y074UIUyZJ"
          },
          "href" : "https://api.spotify.com/v1/artists/7EIbKyiLnEJ1Y074UIUyZJ",
          "id" : "7EIbKyiLnEJ1Y074UIUyZJ",
          "name" : "Peter Hollens",
          "type" : "artist",
          "uri" : "spotify:artist:7EIbKyiLnEJ1Y074UIUyZJ"
        } ],
        "external_urls" : {
          "spotify" : "https://open.spotify.com/album/2goJmaqsfCG5qgDQMVMM5N"
        },
        "href" : "https://api.spotify.com/v1/albums/2goJmaqsfCG5qgDQMVMM5N",
        "id" : "2goJmaqsfCG5qgDQMVMM5N",
        "images" : [ {
          "height" : 640,
          "url" : "https://i.scdn.co/image/ab67616d0000b27305e4c48a6ee16cc3dfe7a933",
          "width" : 640
        }, {
          "height" : 300,
          "url" : "https://i.scdn.co/image/ab67616d00001e0205e4c48a6ee16cc3dfe7a933",
          "width" : 300
        }, {
          "height" : 64,
          "url" : "https://i.scdn.co/image/ab67616d0000485105e4c48a6ee16cc3dfe7a933",
          "width" : 64
        } ],
        "name" : "A Hollens Family Christmas Deluxe",
        "release_date" : "2017-11-03",
        "release_date_precision" : "day",
        "total_tracks" : 17,
        "type" : "album",
        "uri" : "spotify:album:2goJmaqsfCG5qgDQMVMM5N"
      },
      "artists" : [ {
        "external_urls" : {
          "spotify" : "https://open.spotify.com/artist/7EIbKyiLnEJ1Y074UIUyZJ"
        },
        "href" : "https://api.spotify.com/v1/artists/7EIbKyiLnEJ1Y074UIUyZJ",
        "id" : "7EIbKyiLnEJ1Y074UIUyZJ",
        "name" : "Peter Hollens",
        "type" : "artist",
        "uri" : "spotify:artist:7EIbKyiLnEJ1Y074UIUyZJ"
      }, {
        "external_urls" : {
          "spotify" : "https://open.spotify.com/artist/2duo4NJtUrLaI38trK0hht"
        },
        "href" : "https://api.spotify.com/v1/artists/2duo4NJtUrLaI38trK0hht",
        "id" : "2duo4NJtUrLaI38trK0hht",
        "name" : "Mormon Tabernacle Choir",
        "type" : "artist",
        "uri" : "spotify:artist:2duo4NJtUrLaI38trK0hht"
      }, {
        "external_urls" : {
          "spotify" : "https://open.spotify.com/artist/0jW6R8CVyVohuUJVcuweDI"
        },
        "href" : "https://api.spotify.com/v1/artists/0jW6R8CVyVohuUJVcuweDI",
        "id" : "0jW6R8CVyVohuUJVcuweDI",
        "name" : "The Piano Guys",
        "type" : "artist",
        "uri" : "spotify:artist:0jW6R8CVyVohuUJVcuweDI"
      }, {
        "external_urls" : {
          "spotify" : "https://open.spotify.com/artist/2C9n4tQgNLhHPhSCmdsQnk"
        },
        "href" : "https://api.spotify.com/v1/artists/2C9n4tQgNLhHPhSCmdsQnk",
        "id" : "2C9n4tQgNLhHPhSCmdsQnk",
        "name" : "David Archuleta",
        "type" : "artist",
        "uri" : "spotify:artist:2C9n4tQgNLhHPhSCmdsQnk"
      } ],
      "disc_number" : 1,
      "duration_ms" : 248253,
      "explicit" : false,
      "external_ids" : {
        "isrc" : "QM56S1750315"
      },
      "external_urls" : {
        "spotify" : "https://open.spotify.com/track/3ke7oTzYzbeE3JuWql4Iar"
      },
      "href" : "https://api.spotify.com/v1/tracks/3ke7oTzYzbeE3JuWql4Iar",
      "id" : "3ke7oTzYzbeE3JuWql4Iar",
      "is_local" : false,
      "is_playable" : true,
      "name" : "Angels from the Realms of Glory",
      "popularity" : 16,
      "preview_url" : "https://p.scdn.co/mp3-preview/6a86d4e16608dade08df608a1a3e2738aeb0d02b?cid=774b29d4f13844c495f206cafdad9c86",
      "track_number" : 16,
      "type" : "track",
      "uri" : "spotify:track:3ke7oTzYzbeE3JuWql4Iar"
    }, {
      "album" : {
        "album_type" : "album",
        "artists" : [ {
          "external_urls" : {
            "spotify" : "https://open.spotify.com/artist/25Kfw0CRHgjl9oCgMfEYz7"
          },
          "href" : "https://api.spotify.com/v1/artists/25Kfw0CRHgjl9oCgMfEYz7",
          "id" : "25Kfw0CRHgjl9oCgMfEYz7",
          "name" : "Sara Groves",
          "type" : "artist",
          "uri" : "spotify:artist:25Kfw0CRHgjl9oCgMfEYz7"
        } ],
        "external_urls" : {
          "spotify" : "https://open.spotify.com/album/2cg6FiTX8HuqeismNLYwVP"
        },
        "href" : "https://api.spotify.com/v1/albums/2cg6FiTX8HuqeismNLYwVP",
        "id" : "2cg6FiTX8HuqeismNLYwVP",
        "images" : [ {
          "height" : 640,
          "url" : "https://i.scdn.co/image/ab67616d0000b2735a015877bc74da63bd70259d",
          "width" : 640
        }, {
          "height" : 300,
          "url" : "https://i.scdn.co/image/ab67616d00001e025a015877bc74da63bd70259d",
          "width" : 300
        }, {
          "height" : 64,
          "url" : "https://i.scdn.co/image/ab67616d000048515a015877bc74da63bd70259d",
          "width" : 64
        } ],
        "name" : "Joy Of Every Longing Heart",
        "release_date" : "2019-10-25",
        "release_date_precision" : "day",
        "total_tracks" : 9,
        "type" : "album",
        "uri" : "spotify:album:2cg6FiTX8HuqeismNLYwVP"
      },
      "artists" : [ {
        "external_urls" : {
          "spotify" : "https://open.spotify.com/artist/25Kfw0CRHgjl9oCgMfEYz7"
        },
        "href" : "https://api.spotify.com/v1/artists/25Kfw0CRHgjl9oCgMfEYz7",
        "id" : "25Kfw0CRHgjl9oCgMfEYz7",
        "name" : "Sara Groves",
        "type" : "artist",
        "uri" : "spotify:artist:25Kfw0CRHgjl9oCgMfEYz7"
      } ],
      "disc_number" : 1,
      "duration_ms" : 284520,
      "explicit" : false,
      "external_ids" : {
        "isrc" : "USM2C1901502"
      },
      "external_urls" : {
        "spotify" : "https://open.spotify.com/track/4l8jAhWoLtxIc29FJ49IZa"
      },
      "href" : "https://api.spotify.com/v1/tracks/4l8jAhWoLtxIc29FJ49IZa",
      "id" : "4l8jAhWoLtxIc29FJ49IZa",
      "is_local" : false,
      "is_playable" : true,
      "name" : "Angels From The Realms Of Glory",
      "popularity" : 10,
      "preview_url" : "https://p.scdn.co/mp3-preview/cc59f7ffcdc876ec91886dbb7a4d490a5fbe666b?cid=774b29d4f13844c495f206cafdad9c86",
      "track_number" : 2,
      "type" : "track",
      "uri" : "spotify:track:4l8jAhWoLtxIc29FJ49IZa"
    }, {
      "album" : {
        "album_type" : "album",
        "artists" : [ {
          "external_urls" : {
            "spotify" : "https://open.spotify.com/artist/0f3PsS9IQ6whvNMFFKnpjl"
          },
          "href" : "https://api.spotify.com/v1/artists/0f3PsS9IQ6whvNMFFKnpjl",
          "id" : "0f3PsS9IQ6whvNMFFKnpjl",
          "name" : "Choir of King's College, Cambridge",
          "type" : "artist",
          "uri" : "spotify:artist:0f3PsS9IQ6whvNMFFKnpjl"
        } ],
        "external_urls" : {
          "spotify" : "https://open.spotify.com/album/4hjLcbcLZVJN7twx4sMaYe"
        },
        "href" : "https://api.spotify.com/v1/albums/4hjLcbcLZVJN7twx4sMaYe",
        "id" : "4hjLcbcLZVJN7twx4sMaYe",
        "images" : [ {
          "height" : 640,
          "url" : "https://i.scdn.co/image/ab67616d0000b27332ee4f385c138eca4d42f179",
          "width" : 640
        }, {
          "height" : 300,
          "url" : "https://i.scdn.co/image/ab67616d00001e0232ee4f385c138eca4d42f179",
          "width" : 300
        }, {
          "height" : 64,
          "url" : "https://i.scdn.co/image/ab67616d0000485132ee4f385c138eca4d42f179",
          "width" : 64
        } ],
        "name" : "Christmas At King's",
        "release_date" : "2008-12-01",
        "release_date_precision" : "day",
        "total_tracks" : 51,
        "type" : "album",
        "uri" : "spotify:album:4hjLcbcLZVJN7twx4sMaYe"
      },
      "artists" : [ {
        "external_urls" : {
          "spotify" : "https://open.spotify.com/artist/1U5zgr455OGyIkLNXvDdrf"
        },
        "href" : "https://api.spotify.com/v1/artists/1U5zgr455OGyIkLNXvDdrf",
        "id" : "1U5zgr455OGyIkLNXvDdrf",
        "name" : "Traditional",
        "type" : "artist",
        "uri" : "spotify:artist:1U5zgr455OGyIkLNXvDdrf"
      }, {
        "external_urls" : {
          "spotify" : "https://open.spotify.com/artist/0f3PsS9IQ6whvNMFFKnpjl"
        },
        "href" : "https://api.spotify.com/v1/artists/0f3PsS9IQ6whvNMFFKnpjl",
        "id" : "0f3PsS9IQ6whvNMFFKnpjl",
        "name" : "Choir of King's College, Cambridge",
        "type" : "artist",
        "uri" : "spotify:artist:0f3PsS9IQ6whvNMFFKnpjl"
      }, {
        "external_urls" : {
          "spotify" : "https://open.spotify.com/artist/66xtCjvWWjyvuD96T7uMXc"
        },
        "href" : "https://api.spotify.com/v1/artists/66xtCjvWWjyvuD96T7uMXc",
        "id" : "66xtCjvWWjyvuD96T7uMXc",
        "name" : "Philip Ledger",
        "type" : "artist",
        "uri" : "spotify:artist:66xtCjvWWjyvuD96T7uMXc"
      } ],
      "disc_number" : 1,
      "duration_ms" : 157573,
      "explicit" : false,
      "external_ids" : {
        "isrc" : "GBAYD9700347"
      },
      "external_urls" : {
        "spotify" : "https://open.spotify.com/track/2oP2CNXLq2MwZ1VTI75e7V"
      },
      "href" : "https://api.spotify.com/v1/tracks/2oP2CNXLq2MwZ1VTI75e7V",
      "id" : "2oP2CNXLq2MwZ1VTI75e7V",
      "is_local" : false,
      "is_playable" : true,
      "name" : "Angels, from the realms of glory",
      "popularity" : 13,
      "preview_url" : "https://p.scdn.co/mp3-preview/381547ba4647f9b11c8c13912773e460ffedef02?cid=774b29d4f13844c495f206cafdad9c86",
      "track_number" : 11,
      "type" : "track",
      "uri" : "spotify:track:2oP2CNXLq2MwZ1VTI75e7V"
    }, {
      "album" : {
        "album_type" : "album",
        "artists" : [ {
          "external_urls" : {
            "spotify" : "https://open.spotify.com/artist/16dGAOg7n1wfPuLLwfdwur"
          },
          "href" : "https://api.spotify.com/v1/artists/16dGAOg7n1wfPuLLwfdwur",
          "id" : "16dGAOg7n1wfPuLLwfdwur",
          "name" : "Acapeldridge",
          "type" : "artist",
          "uri" : "spotify:artist:16dGAOg7n1wfPuLLwfdwur"
        } ],
        "external_urls" : {
          "spotify" : "https://open.spotify.com/album/0iGT9qdof87XNBG3HbinZM"
        },
        "href" : "https://api.spotify.com/v1/albums/0iGT9qdof87XNBG3HbinZM",
        "id" : "0iGT9qdof87XNBG3HbinZM",
        "images" : [ {
          "height" : 640,
          "url" : "https://i.scdn.co/image/ab67616d0000b27371f9e6e89f52e75a2de8ba5d",
          "width" : 640
        }, {
          "height" : 300,
          "url" : "https://i.scdn.co/image/ab67616d00001e0271f9e6e89f52e75a2de8ba5d",
          "width" : 300
        }, {
          "height" : 64,
          "url" : "https://i.scdn.co/image/ab67616d0000485171f9e6e89f52e75a2de8ba5d",
          "width" : 64
        } ],
        "name" : "The Messiah's Birth",
        "release_date" : "2018-11-02",
        "release_date_precision" : "day",
        "total_tracks" : 15,
        "type" : "album",
        "uri" : "spotify:album:0iGT9qdof87XNBG3HbinZM"
      },
      "artists" : [ {
        "external_urls" : {
          "spotify" : "https://open.spotify.com/artist/16dGAOg7n1wfPuLLwfdwur"
        },
        "href" : "https://api.spotify.com/v1/artists/16dGAOg7n1wfPuLLwfdwur",
        "id" : "16dGAOg7n1wfPuLLwfdwur",
        "name" : "Acapeldridge",
        "type" : "artist",
        "uri" : "spotify:artist:16dGAOg7n1wfPuLLwfdwur"
      } ],
      "disc_number" : 1,
      "duration_ms" : 153240,
      "explicit" : false,
      "external_ids" : {
        "isrc" : "ushm91862865"
      },
      "external_urls" : {
        "spotify" : "https://open.spotify.com/track/71bYzQcpvsxVVznkVPSW5f"
      },
      "href" : "https://api.spotify.com/v1/tracks/71bYzQcpvsxVVznkVPSW5f",
      "id" : "71bYzQcpvsxVVznkVPSW5f",
      "is_local" : false,
      "is_playable" : true,
      "name" : "Angels, From the Realms of Glory",
      "popularity" : 10,
      "preview_url" : "https://p.scdn.co/mp3-preview/71bcaa52a2b30993b26983252aefdeae47e69916?cid=774b29d4f13844c495f206cafdad9c86",
      "track_number" : 12,
      "type" : "track",
      "uri" : "spotify:track:71bYzQcpvsxVVznkVPSW5f"
    }, {
      "album" : {
        "album_type" : "album",
        "artists" : [ {
          "external_urls" : {
            "spotify" : "https://open.spotify.com/artist/64mXwTe92xIUKqJCTdfRnK"
          },
          "href" : "https://api.spotify.com/v1/artists/64mXwTe92xIUKqJCTdfRnK",
          "id" : "64mXwTe92xIUKqJCTdfRnK",
          "name" : "Musica Sacra",
          "type" : "artist",
          "uri" : "spotify:artist:64mXwTe92xIUKqJCTdfRnK"
        } ],
        "external_urls" : {
          "spotify" : "https://open.spotify.com/album/1RcnzodfCcrzMvvQY62VXl"
        },
        "href" : "https://api.spotify.com/v1/albums/1RcnzodfCcrzMvvQY62VXl",
        "id" : "1RcnzodfCcrzMvvQY62VXl",
        "images" : [ {
          "height" : 640,
          "url" : "https://i.scdn.co/image/ab67616d0000b27364f2549ad93268e61eebe6f4",
          "width" : 640
        }, {
          "height" : 300,
          "url" : "https://i.scdn.co/image/ab67616d00001e0264f2549ad93268e61eebe6f4",
          "width" : 300
        }, {
          "height" : 64,
          "url" : "https://i.scdn.co/image/ab67616d0000485164f2549ad93268e61eebe6f4",
          "width" : 64
        } ],
        "name" : "Christian Hymns, Vol. 4: A Comprehensive Collection of Traditional Sacred Christmas Songs and Carols from the English Hymnal",
        "release_date" : "2019-10-17",
        "release_date_precision" : "day",
        "total_tracks" : 27,
        "type" : "album",
        "uri" : "spotify:album:1RcnzodfCcrzMvvQY62VXl"
      },
      "artists" : [ {
        "external_urls" : {
          "spotify" : "https://open.spotify.com/artist/64mXwTe92xIUKqJCTdfRnK"
        },
        "href" : "https://api.spotify.com/v1/artists/64mXwTe92xIUKqJCTdfRnK",
        "id" : "64mXwTe92xIUKqJCTdfRnK",
        "name" : "Musica Sacra",
        "type" : "artist",
        "uri" : "spotify:artist:64mXwTe92xIUKqJCTdfRnK"
      } ],
      "disc_number" : 1,
      "duration_ms" : 87996,
      "explicit" : false,
      "external_ids" : {
        "isrc" : "TCAEM1921295"
      },
      "external_urls" : {
        "spotify" : "https://open.spotify.com/track/6L2sTAkL1lwcv1VS0lIrde"
      },
      "href" : "https://api.spotify.com/v1/tracks/6L2sTAkL1lwcv1VS0lIrde",
      "id" : "6L2sTAkL1lwcv1VS0lIrde",
      "is_local" : false,
      "is_playable" : true,
      "name" : "Angels from the Realms of Glory",
      "popularity" : 7,
      "preview_url" : "https://p.scdn.co/mp3-preview/9833efbe3dc133788119559f3c2152b5681c7808?cid=774b29d4f13844c495f206cafdad9c86",
      "track_number" : 20,
      "type" : "track",
      "uri" : "spotify:track:6L2sTAkL1lwcv1VS0lIrde"
    }, {
      "album" : {
        "album_type" : "album",
        "artists" : [ {
          "external_urls" : {
            "spotify" : "https://open.spotify.com/artist/1jH3GuQCPI87UrS0hcScHr"
          },
          "href" : "https://api.spotify.com/v1/artists/1jH3GuQCPI87UrS0hcScHr",
          "id" : "1jH3GuQCPI87UrS0hcScHr",
          "name" : "Paul Baloche",
          "type" : "artist",
          "uri" : "spotify:artist:1jH3GuQCPI87UrS0hcScHr"
        } ],
        "external_urls" : {
          "spotify" : "https://open.spotify.com/album/0Oebjw58B0C8Jx5tuJiDuS"
        },
        "href" : "https://api.spotify.com/v1/albums/0Oebjw58B0C8Jx5tuJiDuS",
        "id" : "0Oebjw58B0C8Jx5tuJiDuS",
        "images" : [ {
          "height" : 640,
          "url" : "https://i.scdn.co/image/ab67616d0000b273b8fbc8f3534dc0b1b181a25b",
          "width" : 640
        }, {
          "height" : 300,
          "url" : "https://i.scdn.co/image/ab67616d00001e02b8fbc8f3534dc0b1b181a25b",
          "width" : 300
        }, {
          "height" : 64,
          "url" : "https://i.scdn.co/image/ab67616d00004851b8fbc8f3534dc0b1b181a25b",
          "width" : 64
        } ],
        "name" : "Christmas Worship, Vol. 2",
        "release_date" : "2015-10-02",
        "release_date_precision" : "day",
        "total_tracks" : 12,
        "type" : "album",
        "uri" : "spotify:album:0Oebjw58B0C8Jx5tuJiDuS"
      },
      "artists" : [ {
        "external_urls" : {
          "spotify" : "https://open.spotify.com/artist/1jH3GuQCPI87UrS0hcScHr"
        },
        "href" : "https://api.spotify.com/v1/artists/1jH3GuQCPI87UrS0hcScHr",
        "id" : "1jH3GuQCPI87UrS0hcScHr",
        "name" : "Paul Baloche",
        "type" : "artist",
        "uri" : "spotify:artist:1jH3GuQCPI87UrS0hcScHr"
      } ],
      "disc_number" : 1,
      "duration_ms" : 245720,
      "explicit" : false,
      "external_ids" : {
        "isrc" : "US25L1500318"
      },
      "external_urls" : {
        "spotify" : "https://open.spotify.com/track/22wO7gBMOEXNamV7iVpbD4"
      },
      "href" : "https://api.spotify.com/v1/tracks/22wO7gBMOEXNamV7iVpbD4",
      "id" : "22wO7gBMOEXNamV7iVpbD4",
      "is_local" : false,
      "is_playable" : true,
      "name" : "Angels From the Realms of Glory/Emmanuel",
      "popularity" : 9,
      "preview_url" : "https://p.scdn.co/mp3-preview/8874eae9df0b4252b02458c6842ab58efbc6b739?cid=774b29d4f13844c495f206cafdad9c86",
      "track_number" : 3,
      "type" : "track",
      "uri" : "spotify:track:22wO7gBMOEXNamV7iVpbD4"
    }, {
      "album" : {
        "album_type" : "album",
        "artists" : [ {
          "external_urls" : {
            "spotify" : "https://open.spotify.com/artist/3xsb4ljqz3X0PeExrKqBgC"
          },
          "href" : "https://api.spotify.com/v1/artists/3xsb4ljqz3X0PeExrKqBgC",
          "id" : "3xsb4ljqz3X0PeExrKqBgC",
          "name" : "Enfield",
          "type" : "artist",
          "uri" : "spotify:artist:3xsb4ljqz3X0PeExrKqBgC"
        } ],
        "external_urls" : {
          "spotify" : "https://open.spotify.com/album/1wA1009NqyxwkaUBHnBdLp"
        },
        "href" : "https://api.spotify.com/v1/albums/1wA1009NqyxwkaUBHnBdLp",
        "id" : "1wA1009NqyxwkaUBHnBdLp",
        "images" : [ {
          "height" : 640,
          "url" : "https://i.scdn.co/image/ab67616d0000b273b5e63dc2176867733e0d30d4",
          "width" : 640
        }, {
          "height" : 300,
          "url" : "https://i.scdn.co/image/ab67616d00001e02b5e63dc2176867733e0d30d4",
          "width" : 300
        }, {
          "height" : 64,
          "url" : "https://i.scdn.co/image/ab67616d00004851b5e63dc2176867733e0d30d4",
          "width" : 64
        } ],
        "name" : "God of God",
        "release_date" : "2011-11-23",
        "release_date_precision" : "day",
        "total_tracks" : 13,
        "type" : "album",
        "uri" : "spotify:album:1wA1009NqyxwkaUBHnBdLp"
      },
      "artists" : [ {
        "external_urls" : {
          "spotify" : "https://open.spotify.com/artist/3xsb4ljqz3X0PeExrKqBgC"
        },
        "href" : "https://api.spotify.com/v1/artists/3xsb4ljqz3X0PeExrKqBgC",
        "id" : "3xsb4ljqz3X0PeExrKqBgC",
        "name" : "Enfield",
        "type" : "artist",
        "uri" : "spotify:artist:3xsb4ljqz3X0PeExrKqBgC"
      } ],
      "disc_number" : 1,
      "duration_ms" : 245533,
      "explicit" : false,
      "external_ids" : {
        "isrc" : "USP791100012"
      },
      "external_urls" : {
        "spotify" : "https://open.spotify.com/track/6WnWKOE68TLXNJHLj3TXI8"
      },
      "href" : "https://api.spotify.com/v1/tracks/6WnWKOE68TLXNJHLj3TXI8",
      "id" : "6WnWKOE68TLXNJHLj3TXI8",
      "is_local" : false,
      "is_playable" : true,
      "name" : "Angels From The Realms Of Glory",
      "popularity" : 5,
      "preview_url" : "https://p.scdn.co/mp3-preview/852d7826a6fc06eab3650d38e875ab136c519b9f?cid=774b29d4f13844c495f206cafdad9c86",
      "track_number" : 1,
      "type" : "track",
      "uri" : "spotify:track:6WnWKOE68TLXNJHLj3TXI8"
    } ],
    "limit" : 10,
    "next" : "https://api.spotify.com/v1/search?query=Angels+From+the+Realms+of+Glory&type=track&market=US&offset=15&limit=10",
    "offset" : 5,
    "previous" : "https://api.spotify.com/v1/search?query=Angels+From+the+Realms+of+Glory&type=track&market=US&offset=0&limit=10",
    "total" : 1211
  }
}