{
  "tracks" : {
    "href" : "https://api.spotify.com/v1/search?query=What+a+Friend+We+Have+in+Jesus&type=track&market=US&offset=5&limit=10",
    "items" : [ {
      "album" : {
        "album_type" : "single",
        "artists" : [ {
          "external_urls" : {
            "spotify" : "https://open.spotify.com/artist/1jH3GuQCPI87UrS0hcScHr"
          },
          "href" : "https://api.spotify.com/v1/artists/1jH3GuQCPI87UrS0hcScHr",
          "id" : "1jH3GuQCPI87UrS0hcScHr",
          "name" : "Paul Baloche",
          "type" : "artist",
          "uri" : "spotify:artist:1jH3GuQCPI87UrS0hcScHr"
        } ],
        "external_urls" : {
          "spotify" : "https://open.spotify.com/album/1FKATrcJvExKf0fshbuUMY"
        },
        "href" : "https://api.spotify.com/v1/albums/1FKATrcJvExKf0fshbuUMY",
        "id" : "1FKATrcJvExKf0fshbuUMY",
        "images" : [ {
          "height" : 640,
          "url" : "https://i.scdn.co/image/ab67616d0000b273c529a60ffa846b89450a2f9c",
          "width" : 640
        }, {
          "height" : 300,
          "url" : "https://i.scdn.co/image/ab67616d00001e02c529a60ffa846b89450a2f9c",
          "width" : 300
        }, {
          "height" : 64,
          "url" : "https://i.scdn.co/image/ab67616d00004851c529a60ffa846b89450a2f9c",
          "width" : 64
        } ],
        "name" : "What a Friend We Have In Jesus (Audio Performance Trax)",
        "release_date" : "2013",
        "release_date_precision" : "year",
        "total_tracks" : 5,
        "type" : "album",
        "uri" : "spotify:album:1FKATrcJvExKf0fshbuUMY"
      },
      "artists" : [ {
        "external_urls" : {
          "spotify" : "https://open.spotify.com/artist/1jH3GuQCPI87UrS0hcScHr"
        },
        "href" : "https://api.spotify.com/v1/artists/1jH3GuQCPI87UrS0hcScHr",
        "id" : "1jH3GuQCPI87UrS0hcScHr",
        "name" : "Paul Baloche",
        "type" : "artist",
        "uri" : "spotify:artist:1jH3GuQCPI87UrS0hcScHr"
      } ],
      "disc_number" : 1,
      "duration_ms" : 256266,
      "explicit" : false,
      "external_ids" : {
        "isrc" : "US25L0600921"
      },
      "external_urls" : {
        "spotify" : "https://open.spotify.com/track/1zX4Lq4tYy3FxaQnLD8SeI"
      },
      "href" : "https://api.spotify.com/v1/tracks/1zX4Lq4tYy3FxaQnLD8SeI",
      "id" : "1zX4Lq4tYy3FxaQnLD8SeI",
      "is_local" : false,
      "is_playable" : true,
      "name" : "What a Friend We Have In Jesus",
      "popularity" : 41,
      "preview_url" : "https://p.scdn.co/mp3-preview/1aa632f00a86b5b112d783cbbebb3829677d0256?cid=774b29d4f13844c495f206cafdad9c86",
      "track_number" : 5,
      "type" : "track",
      "uri" : "spotify:track:1zX4Lq4tYy3FxaQnLD8SeI"
    }, {
      "album" : {
        "album_type" : "album",
        "artists" : [ {
          "external_urls" : {
            "spotify" : "https://open.spotify.com/artist/6rJqqRce0Kvo2dJUXoHleC"
          },
          "href" : "https://api.spotify.com/v1/artists/6rJqqRce0Kvo2dJUXoHleC",
          "id" : "6rJqqRce0Kvo2dJUXoHleC",
          "name" : "Alabama",
          "type" : "artist",
          "uri" : "spotify:artist:6rJqqRce0Kvo2dJUXoHleC"
        } ],
        "external_urls" : {
          "spotify" : "https://open.spotify.com/album/0j1LQDaUnYrE1yWP6od783"
        },
        "href" : "https://api.spotify.com/v1/albums/0j1LQDaUnYrE1yWP6od783",
        "id" : "0j1LQDaUnYrE1yWP6od783",
        "images" : [ {
          "height" : 640,
          "url" : "https://i.scdn.co/image/ab67616d0000b2732e0fd77fbd2f936b3a268f6e",
          "width" : 640
        }, {
          "height" : 300,
          "url" : "https://i.scdn.co/image/ab67616d00001e022e0fd77fbd2f936b3a268f6e",
          "width" : 300
        }, {
          "height" : 64,
          "url" : "https://i.scdn.co/image/ab67616d000048512e0fd77fbd2f936b3a268f6e",
          "width" : 64
        } ],
        "name" : "Angels Among Us: Hymns & Gospel Favorites",
        "release_date" : "2014-09-30",
        "release_date_precision" : "day",
        "total_tracks" : 12,
        "type" : "album",
        "uri" : "spotify:album:0j1LQDaUnYrE1yWP6od783"
      },
      "artists" : [ {
        "external_urls" : {
          "spotify" : "https://open.spotify.com/artist/6rJqqRce0Kvo2dJUXoHleC"
        },
        "href" : "https://api.spotify.com/v1/artists/6rJqqRce0Kvo2dJUXoHleC",
        "id" : "6rJqqRce0Kvo2dJUXoHleC",
        "name" : "Alabama",
        "type" : "artist",
        "uri" : "spotify:artist:6rJqqRce0Kvo2dJUXoHleC"
      } ],
      "disc_number" : 1,
      "duration_ms" : 332213,
      "explicit" : false,
      "external_ids" : {
        "isrc" : "QMZ5L1400104"
      },
      "external_urls" : {
        "spotify" : "https://open.spotify.com/track/2oGyNXMOJWAtPRT3kT1aHG"
      },
      "href" : "https://api.spotify.com/v1/tracks/2oGyNXMOJWAtPRT3kT1aHG",
      "id" : "2oGyNXMOJWAtPRT3kT1aHG",
      "is_local" : false,
      "is_playable" : true,
      "name" : "What A Friend We Have In Jesus",
      "popularity" : 32,
      "preview_url" : null,
      "track_number" : 5,
      "type" : "track",
      "uri" : "spotify:track:2oGyNXMOJWAtPRT3kT1aHG"
    }, {
      "album" : {
        "album_type" : "album",
        "artists" : [ {
          "external_urls" : {
            "spotify" : "https://open.spotify.com/artist/7nwUJBm0HE4ZxD3f5cy5ok"
          },
          "href" : "https://api.spotify.com/v1/artists/7nwUJBm0HE4ZxD3f5cy5ok",
          "id" : "7nwUJBm0HE4ZxD3f5cy5ok",
          "name" : "Aretha Franklin",
          "type" : "artist",
          "uri" : "spotify:artist:7nwUJBm0HE4ZxD3f5cy5ok"
        } ],
        "external_urls" : {
          "spotify" : "https://open.spotify.com/album/5pIUimaQ6XePPXbMUi3te0"
        },
        "href" : "https://api.spotify.com/v1/albums/5pIUimaQ6XePPXbMUi3te0",
        "id" : "5pIUimaQ6XePPXbMUi3te0",
        "images" : [ {
          "height" : 640,
          "url" : "https://i.scdn.co/image/ab67616d0000b2730c816c6765186e128dfdd515",
          "width" : 640
        }, {
          "height" : 300,
          "url" : "https://i.scdn.co/image/ab67616d00001e020c816c6765186e128dfdd515",
          "width" : 300
        }, {
          "height" : 64,
          "url" : "https://i.scdn.co/image/ab67616d000048510c816c6765186e128dfdd515",
          "width" : 64
        } ],
        "name" : "Amazing Grace",
        "release_date" : "1972",
        "release_date_precision" : "year",
        "total_tracks" : 14,
        "type" : "album",
        "uri" : "spotify:album:5pIUimaQ6XePPXbMUi3te0"
      },
      "artists" : [ {
        "external_urls" : {
          "spotify" : "https://open.spotify.com/artist/7nwUJBm0HE4ZxD3f5cy5ok"
        },
        "href" : "https://api.spotify.com/v1/artists/7nwUJBm0HE4ZxD3f5cy5ok",
        "id" : "7nwUJBm0HE4ZxD3f5cy5ok",
        "name" : "Aretha Franklin",
        "type" : "artist",
        "uri" : "spotify:artist:7nwUJBm0HE4ZxD3f5cy5ok"
      } ],
      "disc_number" : 1,
      "duration_ms" : 365369,
      "explicit" : false,
      "external_ids" : {
        "isrc" : "USAT21405125"
      },
      "external_urls" : {
        "spotify" : "https://open.spotify.com/track/4ZUIjcQiGs8ATc5rC1V594"
      },
      "href" : "https://api.spotify.com/v1/tracks/4ZUIjcQiGs8ATc5rC1V594",
      "id" : "4ZUIjcQiGs8ATc5rC1V594",
      "is_local" : false,
      "is_playable" : true,
      "name" : "What a Friend We Have in Jesus",
      "popularity" : 32,
      "preview_url" : "https://p.scdn.co/mp3-preview/c9ce9e1e43f2d49150edac95721f5ff4acf2783f?cid=774b29d4f13844c495f206cafdad9c86",
      "track_number" : 6,
      "type" : "track",
      "uri" : "spotify:track:4ZUIjcQiGs8ATc5rC1V594"
    }, {
      "album" : {
        "album_type" : "album",
        "artists" : [ {
          "external_urls" : {
            "spotify" : "https://open.spotify.com/artist/2ptmyXoL7poH6Zq62h1QT9"
          },
          "href" : "https://api.spotify.com/v1/artists/2ptmyXoL7poH6Zq62h1QT9",
          "id" : "2ptmyXoL7poH6Zq62h1QT9",
          "name" : "Merle Haggard",
          "type" : "artist",
          "uri" : "spotify:artist:2ptmyXoL7poH6Zq62h1QT9"
        } ],
        "external_urls" : {
          "spotify" : "https://open.spotify.com/album/7BlhqXxFdVq6PvjJ8Scg9t"
        },
        "href" : "https://api.spotify.com/v1/albums/7BlhqXxFdVq6PvjJ8Scg9t",
        "id" : "7BlhqXxFdVq6PvjJ8Scg9t",
        "images" : [ {
          "height" : 640,
          "url" : "https://i.scdn.co/image/ab67616d0000b273dadc1b283ad5d30352f26aa3",
          "width" : 640
        }, {
          "height" : 300,
          "url" : "https://i.scdn.co/image/ab67616d00001e02dadc1b283ad5d30352f26aa3",
          "width" : 300
        }, {
          "height" : 64,
          "url" : "https://i.scdn.co/image/ab67616d00004851dadc1b283ad5d30352f26aa3",
          "width" : 64
        } ],
        "name" : "What A Friend We Have In Jesus",
        "release_date" : "1994-01-01",
        "release_date_precision" : "day",
        "total_tracks" : 10,
        "type" : "album",
        "uri" : "spotify:album:7BlhqXxFdVq6PvjJ8Scg9t"
      },
      "artists" : [ {
        "external_urls" : {
          "spotify" : "https://open.spotify.com/artist/2ptmyXoL7poH6Zq62h1QT9"
        },
        "href" : "https://api.spotify.com/v1/artists/2ptmyXoL7poH6Zq62h1QT9",
        "id" : "2ptmyXoL7poH6Zq62h1QT9",
        "name" : "Merle Haggard",
        "type" : "artist",
        "uri" : "spotify:artist:2ptmyXoL7poH6Zq62h1QT9"
      } ],
      "disc_number" : 1,
      "duration_ms" : 155400,
      "explicit" : false,
      "external_ids" : {
        "isrc" : "USMC18111974"
      },
      "external_urls" : {
        "spotify" : "https://open.spotify.com/track/7qkgqaa3a9ZY1ly5eB1XWZ"
      },
      "href" : "https://api.spotify.com/v1/tracks/7qkgqaa3a9ZY1ly5eB1XWZ",
      "id" : "7qkgqaa3a9ZY1ly5eB1XWZ",
      "is_local" : false,
      "is_playable" : true,
      "name" : "What A Friend We Have In Jesus",
      "popularity" : 35,
      "preview_url" : null,
      "track_number" : 1,
      "type" : "track",
      "uri" : "spotify:track:7qkgqaa3a9ZY1ly5eB1XWZ"
    }, {
      "album" : {
        "album_type" : "album",
        "artists" : [ {
          "external_urls" : {
            "spotify" : "https://open.spotify.com/artist/29PfPMTOAqc611mj1siNoH"
          },
          "href" : "https://api.spotify.com/v1/artists/29PfPMTOAqc611mj1siNoH",
          "id" : "29PfPMTOAqc611mj1siNoH",
          "name" : "Guy Penrod",
          "type" : "artist",
          "uri" : "spotify:artist:29PfPMTOAqc611mj1siNoH"
        } ],
        "external_urls" : {
          "spotify" : "https://open.spotify.com/album/2HmAb4MR9fp9w4uEfiBnb6"
        },
        "href" : "https://api.spotify.com/v1/albums/2HmAb4MR9fp9w4uEfiBnb6",
        "id" : "2HmAb4MR9fp9w4uEfiBnb6",
        "images" : [ {
          "height" : 640,
          "url" : "https://i.scdn.co/image/ab67616d0000b2735f60e2efa81b1204a851cf17",
          "width" : 640
        }, {
          "height" : 300,
          "url" : "https://i.scdn.co/image/ab67616d00001e025f60e2efa81b1204a851cf17",
          "width" : 300
        }, {
          "height" : 64,
          "url" : "https://i.scdn.co/image/ab67616d000048515f60e2efa81b1204a851cf17",
          "width" : 64
        } ],
        "name" : "Hymns",
        "release_date" : "2012-01-01",
        "release_date_precision" : "day",
        "total_tracks" : 13,
        "type" : "album",
        "uri" : "spotify:album:2HmAb4MR9fp9w4uEfiBnb6"
      },
      "artists" : [ {
        "external_urls" : {
          "spotify" : "https://open.spotify.com/artist/29PfPMTOAqc611mj1siNoH"
        },
        "href" : "https://api.spotify.com/v1/artists/29PfPMTOAqc611mj1siNoH",
        "id" : "29PfPMTOAqc611mj1siNoH",
        "name" : "Guy Penrod",
        "type" : "artist",
        "uri" : "spotify:artist:29PfPMTOAqc611mj1siNoH"
      } ],
      "disc_number" : 1,
      "duration_ms" : 200840,
      "explicit" : false,
      "external_ids" : {
        "isrc" : "US3271200094"
      },
      "external_urls" : {
        "spotify" : "https://open.spotify.com/track/18WdURvHAGcvEdW9EruY4k"
      },
      "href" : "https://api.spotify.com/v1/tracks/18WdURvHAGcvEdW9EruY4k",
      "id" : "18WdURvHAGcvEdW9EruY4k",
      "is_local" : false,
      "is_playable" : true,
      "name" : "What a Friend We Have In Jesus",
      "popularity" : 34,
      "preview_url" : null,
      "track_number" : 8,
      "type" : "track",
      "uri" : "spotify:track:18WdURvHAGcvEdW9EruY4k"
    }, {
      "album" : {
        "album_type" : "album",
        "artists" : [ {
          "external_urls" : {
            "spotify" : "https://open.spotify.com/artist/5PSWc8Y94zFsAtZlTe7ipI"
          },
          "href" : "https://api.spotify.com/v1/artists/5PSWc8Y94zFsAtZlTe7ipI",
          "id" : "5PSWc8Y94zFsAtZlTe7ipI",
          "name" : "The Statler Brothers",
          "type" : "artist",
          "uri" : "spotify:artist:5PSWc8Y94zFsAtZlTe7ipI"
        } ],
        "external_urls" : {
          "spotify" : "https://open.spotify.com/album/7KWozG6yhl9jKLKHDEjGKw"
        },
        "href" : "https://api.spotify.com/v1/albums/7KWozG6yhl9jKLKHDEjGKw",
        "id" : "7KWozG6yhl9jKLKHDEjGKw",
        "images" : [ {
          "height" : 640,
          "url" : "https://i.scdn.co/image/ab67616d0000b27305aa2f65ee4ad46b478145f6",
          "width" : 640
        }, {
          "height" : 300,
          "url" : "https://i.scdn.co/image/ab67616d00001e0205aa2f65ee4ad46b478145f6",
          "width" : 300
        }, {
          "height" : 64,
          "url" : "https://i.scdn.co/image/ab67616d0000485105aa2f65ee4ad46b478145f6",
          "width" : 64
        } ],
        "name" : "The Gospel Music Of The Statler Brothers Volume One",
        "release_date" : "2010-01-01",
        "release_date_precision" : "day",
        "total_tracks" : 19,
        "type" : "album",
        "uri" : "spotify:album:7KWozG6yhl9jKLKHDEjGKw"
      },
      "artists" : [ {
        "external_urls" : {
          "spotify" : "https://open.spotify.com/artist/5PSWc8Y94zFsAtZlTe7ipI"
        },
        "href" : "https://api.spotify.com/v1/artists/5PSWc8Y94zFsAtZlTe7ipI",
        "id" : "5PSWc8Y94zFsAtZlTe7ipI",
        "name" : "The Statler Brothers",
        "type" : "artist",
        "uri" : "spotify:artist:5PSWc8Y94zFsAtZlTe7ipI"
      } ],
      "disc_number" : 1,
      "duration_ms" : 165773,
      "explicit" : false,
      "external_ids" : {
        "isrc" : "US3271000159"
      },
      "external_urls" : {
        "spotify" : "https://open.spotify.com/track/6XvTPNNJPVFflg8koMO97r"
      },
      "href" : "https://api.spotify.com/v1/tracks/6XvTPNNJPVFflg8koMO97r",
      "id" : "6XvTPNNJPVFflg8koMO97r",
      "is_local" : false,
      "is_playable" : true,
      "name" : "What A Friend We Have In Jesus",
      "popularity" : 30,
      "preview_url" : null,
      "track_number" : 5,
      "type" : "track",
      "uri" : "spotify:track:6XvTPNNJPVFflg8koMO97r"
    }, {
      "album" : {
        "album_type" : "album",
        "artists" : [ {
          "external_urls" : {
            "spotify" : "https://open.spotify.com/artist/0ZLHgeKZXpxW42i2T2s931"
          },
          "href" : "https://api.spotify.com/v1/artists/0ZLHgeKZXpxW42i2T2s931",
          "id" : "0ZLHgeKZXpxW42i2T2s931",
          "name" : "Ghost Ship",
          "type" : "artist",
          "uri" : "spotify:artist:0ZLHgeKZXpxW42i2T2s931"
        } ],
        "external_urls" : {
          "spotify" : "https://open.spotify.com/album/6RK6TNZLiXPbIWOxtQwAH4"
        },
        "href" : "https://api.spotify.com/v1/albums/6RK6TNZLiXPbIWOxtQwAH4",
        "id" : "6RK6TNZLiXPbIWOxtQwAH4",
        "images" : [ {
          "height" : 640,
          "url" : "https://i.scdn.co/image/ab67616d0000b273305d3c87c7064949926c9fa0",
          "width" : 640
        }, {
          "height" : 300,
          "url" : "https://i.scdn.co/image/ab67616d00001e02305d3c87c7064949926c9fa0",
          "width" : 300
        }, {
          "height" : 64,
          "url" : "https://i.scdn.co/image/ab67616d00004851305d3c87c7064949926c9fa0",
          "width" : 64
        } ],
        "name" : "The Good King",
        "release_date" : "2013-06-11",
        "release_date_precision" : "day",
        "total_tracks" : 11,
        "type" : "album",
        "uri" : "spotify:album:6RK6TNZLiXPbIWOxtQwAH4"
      },
      "artists" : [ {
        "external_urls" : {
          "spotify" : "https://open.spotify.com/artist/0ZLHgeKZXpxW42i2T2s931"
        },
        "href" : "https://api.spotify.com/v1/artists/0ZLHgeKZXpxW42i2T2s931",
        "id" : "0ZLHgeKZXpxW42i2T2s931",
        "name" : "Ghost Ship",
        "type" : "artist",
        "uri" : "spotify:artist:0ZLHgeKZXpxW42i2T2s931"
      } ],
      "disc_number" : 1,
      "duration_ms" : 260946,
      "explicit" : false,
      "external_ids" : {
        "isrc" : "QMVP91200013"
      },
      "external_urls" : {
        "spotify" : "https://open.spotify.com/track/1x8qZlPJdsn2la8jnjpJaY"
      },
      "href" : "https://api.spotify.com/v1/tracks/1x8qZlPJdsn2la8jnjpJaY",
      "id" : "1x8qZlPJdsn2la8jnjpJaY",
      "is_local" : false,
      "is_playable" : true,
      "name" : "What a Friend We Have in Jesus",
      "popularity" : 29,
      "preview_url" : "https://p.scdn.co/mp3-preview/c7c196a78d82946ce620efef8e798d8761e560c3?cid=774b29d4f13844c495f206cafdad9c86",
      "track_number" : 11,
      "type" : "track",
      "uri" : "spotify:track:1x8qZlPJdsn2la8jnjpJaY"
    }, {
      "album" : {
        "album_type" : "album",
        "artists" : [ {
          "external_urls" : {
            "spotify" : "https://open.spotify.com/artist/13YmWQJFwgZrd4bf5IjMY4"
          },
          "href" : "https://api.spotify.com/v1/artists/13YmWQJFwgZrd4bf5IjMY4",
          "id" : "13YmWQJFwgZrd4bf5IjMY4",
          "name" : "Brad Paisley",
          "type" : "artist",
          "uri" : "spotify:artist:13YmWQJFwgZrd4bf5IjMY4"
        } ],
        "external_urls" : {
          "spotify" : "https://open.spotify.com/album/7d7gS462dBkj9pFU9e81x9"
        },
        "href" : "https://api.spotify.com/v1/albums/7d7gS462dBkj9pFU9e81x9",
        "id" : "7d7gS462dBkj9pFU9e81x9",
        "images" : [ {
          "height" : 640,
          "url" : "https://i.scdn.co/image/ab67616d0000b273d8fe80b3b21b483c75afaa81",
          "width" : 640
        }, {
          "height" : 300,
          "url" : "https://i.scdn.co/image/ab67616d00001e02d8fe80b3b21b483c75afaa81",
          "width" : 300
        }, {
          "height" : 64,
          "url" : "https://i.scdn.co/image/ab67616d00004851d8fe80b3b21b483c75afaa81",
          "width" : 64
        } ],
        "name" : "Play",
        "release_date" : "2008-11-04",
        "release_date_precision" : "day",
        "total_tracks" : 16,
        "type" : "album",
        "uri" : "spotify:album:7d7gS462dBkj9pFU9e81x9"
      },
      "artists" : [ {
        "external_urls" : {
          "spotify" : "https://open.spotify.com/artist/13YmWQJFwgZrd4bf5IjMY4"
        },
        "href" : "https://api.spotify.com/v1/artists/13YmWQJFwgZrd4bf5IjMY4",
        "id" : "13YmWQJFwgZrd4bf5IjMY4",
        "name" : "Brad Paisley",
        "type" : "artist",
        "uri" : "spotify:artist:13YmWQJFwgZrd4bf5IjMY4"
      } ],
      "disc_number" : 1,
      "duration_ms" : 148573,
      "explicit" : false,
      "external_ids" : {
        "isrc" : "USAN20800038"
      },
      "external_urls" : {
        "spotify" : "https://open.spotify.com/track/12D78yb2yWmXunMtiikf7x"
      },
      "href" : "https://api.spotify.com/v1/tracks/12D78yb2yWmXunMtiikf7x",
      "id" : "12D78yb2yWmXunMtiikf7x",
      "is_local" : false,
      "is_playable" : true,
      "name" : "What a Friend We Have in Jesus",
      "popularity" : 31,
      "preview_url" : "https://p.scdn.co/mp3-preview/db9a267efa4d20a4ec813804879d6ae4c58ab3c7?cid=774b29d4f13844c495f206cafdad9c86",
      "track_number" : 15,
      "type" : "track",
      "uri" : "spotify:track:12D78yb2yWmXunMtiikf7x"
    }, {
      "album" : {
        "album_type" : "album",
        "artists" : [ {
          "external_urls" : {
            "spotify" : "https://open.spotify.com/artist/72Nhcx7prNk2ZCxhx0Y5es"
          },
          "href" : "https://api.spotify.com/v1/artists/72Nhcx7prNk2ZCxhx0Y5es",
          "id" : "72Nhcx7prNk2ZCxhx0Y5es",
          "name" : "Amy Grant",
          "type" : "artist",
          "uri" : "spotify:artist:72Nhcx7prNk2ZCxhx0Y5es"
        } ],
        "external_urls" : {
          "spotify" : "https://open.spotify.com/album/4JY1aDHyqitr24pkk4MeEs"
        },
        "href" : "https://api.spotify.com/v1/albums/4JY1aDHyqitr24pkk4MeEs",
        "id" : "4JY1aDHyqitr24pkk4MeEs",
        "images" : [ {
          "height" : 640,
          "url" : "https://i.scdn.co/image/ab67616d0000b273944d7e34bad20582862abf54",
          "width" : 640
        }, {
          "height" : 300,
          "url" : "https://i.scdn.co/image/ab67616d00001e02944d7e34bad20582862abf54",
          "width" : 300
        }, {
          "height" : 64,
          "url" : "https://i.scdn.co/image/ab67616d00004851944d7e34bad20582862abf54",
          "width" : 64
        } ],
        "name" : "Legacy...Hymns & Faith",
        "release_date" : "2002",
        "release_date_precision" : "year",
        "total_tracks" : 14,
        "type" : "album",
        "uri" : "spotify:album:4JY1aDHyqitr24pkk4MeEs"
      },
      "artists" : [ {
        "external_urls" : {
          "spotify" : "https://open.spotify.com/artist/72Nhcx7prNk2ZCxhx0Y5es"
        },
        "href" : "https://api.spotify.com/v1/artists/72Nhcx7prNk2ZCxhx0Y5es",
        "id" : "72Nhcx7prNk2ZCxhx0Y5es",
        "name" : "Amy Grant",
        "type" : "artist",
        "uri" : "spotify:artist:72Nhcx7prNk2ZCxhx0Y5es"
      } ],
      "disc_number" : 1,
      "duration_ms" : 210493,
      "explicit" : false,
      "external_ids" : {
        "isrc" : "USSP30900472"
      },
      "external_urls" : {
        "spotify" : "https://open.spotify.com/track/6MVujIIaaERsNUJWBywK4n"
      },
      "href" : "https://api.spotify.com/v1/tracks/6MVujIIaaERsNUJWBywK4n",
      "id" : "6MVujIIaaERsNUJWBywK4n",
      "is_local" : false,
      "is_playable" : true,
      "name" : "What A Friend We Have In Jesus/Old Rugged Cross/How Great Thou Art - Medley",
      "popularity" : 33,
      "preview_url" : null,
      "track_number" : 13,
      "type" : "track",
      "uri" : "spotify:track:6MVujIIaaERsNUJWBywK4n"
    }, {
      "album" : {
        "album_type" : "album",
        "artists" : [ {
          "external_urls" : {
            "spotify" : "https://open.spotify.com/artist/4tw2Lmn9tTPUv7Gy7mVPI4"
          },
          "href" : "https://api.spotify.com/v1/artists/4tw2Lmn9tTPUv7Gy7mVPI4",
          "id" : "4tw2Lmn9tTPUv7Gy7mVPI4",
          "name" : "Kenny Rogers",
          "type" : "artist",
          "uri" : "spotify:artist:4tw2Lmn9tTPUv7Gy7mVPI4"
        } ],
        "external_urls" : {
          "spotify" : "https://open.spotify.com/album/1nDyCvaM27YErKw6rFWzlN"
        },
        "href" : "https://api.spotify.com/v1/albums/1nDyCvaM27YErKw6rFWzlN",
        "id" : "1nDyCvaM27YErKw6rFWzlN",
        "images" : [ {
          "height" : 640,
          "url" : "https://i.scdn.co/image/ab67616d0000b2739f5c376eac033f0bb81e8ab8",
          "width" : 640
        }, {
          "height" : 300,
          "url" : "https://i.scdn.co/image/ab67616d00001e029f5c376eac033f0bb81e8ab8",
          "width" : 300
        }, {
          "height" : 64,
          "url" : "https://i.scdn.co/image/ab67616d000048519f5c376eac033f0bb81e8ab8",
          "width" : 64
        } ],
        "name" : "The Love of God (Deluxe Edition)",
        "release_date" : "2019-10-25",
        "release_date_precision" : "day",
        "total_tracks" : 13,
        "type" : "album",
        "uri" : "spotify:album:1nDyCvaM27YErKw6rFWzlN"
      },
      "artists" : [ {
        "external_urls" : {
          "spotify" : "https://open.spotify.com/artist/4tw2Lmn9tTPUv7Gy7mVPI4"
        },
        "href" : "https://api.spotify.com/v1/artists/4tw2Lmn9tTPUv7Gy7mVPI4",
        "id" : "4tw2Lmn9tTPUv7Gy7mVPI4",
        "name" : "Kenny Rogers",
        "type" : "artist",
        "uri" : "spotify:artist:4tw2Lmn9tTPUv7Gy7mVPI4"
      } ],
      "disc_number" : 1,
      "duration_ms" : 183040,
      "explicit" : false,
      "external_ids" : {
        "isrc" : "US3271201221"
      },
      "external_urls" : {
        "spotify" : "https://open.spotify.com/track/3zjonNvM49ZpRW8PdFynhG"
      },
      "href" : "https://api.spotify.com/v1/tracks/3zjonNvM49ZpRW8PdFynhG",
      "id" : "3zjonNvM49ZpRW8PdFynhG",
      "is_local" : false,
      "is_playable" : true,
      "name" : "What a Friend We Have in Jesus",
      "popularity" : 34,
      "preview_url" : "https://p.scdn.co/mp3-preview/14a45a813c05d943716dd31d7d24f4a18c3c50a1?cid=774b29d4f13844c495f206cafdad9c86",
      "track_number" : 8,
      "type" : "track",
      "uri" : "spotify:track:3zjonNvM49ZpRW8PdFynhG"
    } ],
    "limit" : 10,
    "next" : "https://api.spotify.com/v1/search?query=What+a+Friend+We+Have+in+Jesus&type=track&market=US&offset=15&limit=10",
    "offset" : 5,
    "previous" : "https://api.spotify.com/v1/search?query=What+a+Friend+We+Have+in+Jesus&type=track&market=US&offset=0&limit=10",
    "total" : 2900
  }
}