{
  "tracks" : {
    "href" : "https://api.spotify.com/v1/search?query=Praise+God%2C+From+Whom+All+Blessings&type=track&market=US&offset=5&limit=10",
    "items" : [ {
      "album" : {
        "album_type" : "album",
        "artists" : [ {
          "external_urls" : {
            "spotify" : "https://open.spotify.com/artist/7zbq3gjHu4JAiMV7dWbUdv"
          },
          "href" : "https://api.spotify.com/v1/artists/7zbq3gjHu4JAiMV7dWbUdv",
          "id" : "7zbq3gjHu4JAiMV7dWbUdv",
          "name" : "David Nevue",
          "type" : "artist",
          "uri" : "spotify:artist:7zbq3gjHu4JAiMV7dWbUdv"
        } ],
        "external_urls" : {
          "spotify" : "https://open.spotify.com/album/5bc6WPPQfnqx5tgKuTQrlo"
        },
        "href" : "https://api.spotify.com/v1/albums/5bc6WPPQfnqx5tgKuTQrlo",
        "id" : "5bc6WPPQfnqx5tgKuTQrlo",
        "images" : [ {
          "height" : 640,
          "url" : "https://i.scdn.co/image/ab67616d0000b27311f4bb63adbe5e666015e0af",
          "width" : 640
        }, {
          "height" : 300,
          "url" : "https://i.scdn.co/image/ab67616d00001e0211f4bb63adbe5e666015e0af",
          "width" : 300
        }, {
          "height" : 64,
          "url" : "https://i.scdn.co/image/ab67616d0000485111f4bb63adbe5e666015e0af",
          "width" : 64
        } ],
        "name" : "Adoration: Solo Piano Hymns",
        "release_date" : "2007-11-28",
        "release_date_precision" : "day",
        "total_tracks" : 15,
        "type" : "album",
        "uri" : "spotify:album:5bc6WPPQfnqx5tgKuTQrlo"
      },
      "artists" : [ {
        "external_urls" : {
          "spotify" : "https://open.spotify.com/artist/7zbq3gjHu4JAiMV7dWbUdv"
        },
        "href" : "https://api.spotify.com/v1/artists/7zbq3gjHu4JAiMV7dWbUdv",
        "id" : "7zbq3gjHu4JAiMV7dWbUdv",
        "name" : "David Nevue",
        "type" : "artist",
        "uri" : "spotify:artist:7zbq3gjHu4JAiMV7dWbUdv"
      } ],
      "disc_number" : 1,
      "duration_ms" : 209440,
      "explicit" : false,
      "external_ids" : {
        "isrc" : "usl4q0775315"
      },
      "external_urls" : {
        "spotify" : "https://open.spotify.com/track/65NWeZFUiXRkRpl4WFGL4d"
      },
      "href" : "https://api.spotify.com/v1/tracks/65NWeZFUiXRkRpl4WFGL4d",
      "id" : "65NWeZFUiXRkRpl4WFGL4d",
      "is_local" : false,
      "is_playable" : true,
      "name" : "Doxology: Praise God From Whom All Blessings Flow",
      "popularity" : 32,
      "preview_url" : "https://p.scdn.co/mp3-preview/5e0036e73b77fbcc7840de61a3fec83812ee2ac8?cid=774b29d4f13844c495f206cafdad9c86",
      "track_number" : 15,
      "type" : "track",
      "uri" : "spotify:track:65NWeZFUiXRkRpl4WFGL4d"
    }, {
      "album" : {
        "album_type" : "album",
        "artists" : [ {
          "external_urls" : {
            "spotify" : "https://open.spotify.com/artist/3QgNrPxIzUdFIwUzbyYDaA"
          },
          "href" : "https://api.spotify.com/v1/artists/3QgNrPxIzUdFIwUzbyYDaA",
          "id" : "3QgNrPxIzUdFIwUzbyYDaA",
          "name" : "The Violin Sisters",
          "type" : "artist",
          "uri" : "spotify:artist:3QgNrPxIzUdFIwUzbyYDaA"
        } ],
        "external_urls" : {
          "spotify" : "https://open.spotify.com/album/70uor3lsDToLW9sb3Jcbs9"
        },
        "href" : "https://api.spotify.com/v1/albums/70uor3lsDToLW9sb3Jcbs9",
        "id" : "70uor3lsDToLW9sb3Jcbs9",
        "images" : [ {
          "height" : 640,
          "url" : "https://i.scdn.co/image/ab67616d0000b273c37c39230579601c08dae1e6",
          "width" : 640
        }, {
          "height" : 300,
          "url" : "https://i.scdn.co/image/ab67616d00001e02c37c39230579601c08dae1e6",
          "width" : 300
        }, {
          "height" : 64,
          "url" : "https://i.scdn.co/image/ab67616d00004851c37c39230579601c08dae1e6",
          "width" : 64
        } ],
        "name" : "Wedding Music for Violin and Piano",
        "release_date" : "2017-04-06",
        "release_date_precision" : "day",
        "total_tracks" : 12,
        "type" : "album",
        "uri" : "spotify:album:70uor3lsDToLW9sb3Jcbs9"
      },
      "artists" : [ {
        "external_urls" : {
          "spotify" : "https://open.spotify.com/artist/3QgNrPxIzUdFIwUzbyYDaA"
        },
        "href" : "https://api.spotify.com/v1/artists/3QgNrPxIzUdFIwUzbyYDaA",
        "id" : "3QgNrPxIzUdFIwUzbyYDaA",
        "name" : "The Violin Sisters",
        "type" : "artist",
        "uri" : "spotify:artist:3QgNrPxIzUdFIwUzbyYDaA"
      } ],
      "disc_number" : 1,
      "duration_ms" : 170691,
      "explicit" : false,
      "external_ids" : {
        "isrc" : "USLZJ1747891"
      },
      "external_urls" : {
        "spotify" : "https://open.spotify.com/track/0ltKj9LlaK6Zbl8lKSAgLi"
      },
      "href" : "https://api.spotify.com/v1/tracks/0ltKj9LlaK6Zbl8lKSAgLi",
      "id" : "0ltKj9LlaK6Zbl8lKSAgLi",
      "is_local" : false,
      "is_playable" : true,
      "name" : "Doxology (Praise God From Whom All Blessings Flow)",
      "popularity" : 22,
      "preview_url" : "https://p.scdn.co/mp3-preview/b58ec5d7870498473edc47d837f5d6fcb7cfcf21?cid=774b29d4f13844c495f206cafdad9c86",
      "track_number" : 6,
      "type" : "track",
      "uri" : "spotify:track:0ltKj9LlaK6Zbl8lKSAgLi"
    }, {
      "album" : {
        "album_type" : "single",
        "artists" : [ {
          "external_urls" : {
            "spotify" : "https://open.spotify.com/artist/4OTPuQXIBqiB3uxWJCPkf4"
          },
          "href" : "https://api.spotify.com/v1/artists/4OTPuQXIBqiB3uxWJCPkf4",
          "id" : "4OTPuQXIBqiB3uxWJCPkf4",
          "name" : "Hansaem Lee",
          "type" : "artist",
          "uri" : "spotify:artist:4OTPuQXIBqiB3uxWJCPkf4"
        } ],
        "external_urls" : {
          "spotify" : "https://open.spotify.com/album/7e1fveU5xJ2xqOICHUFxnU"
        },
        "href" : "https://api.spotify.com/v1/albums/7e1fveU5xJ2xqOICHUFxnU",
        "id" : "7e1fveU5xJ2xqOICHUFxnU",
        "images" : [ {
          "height" : 640,
          "url" : "https://i.scdn.co/image/ab67616d0000b2731290f4b20bb6031860319b15",
          "width" : 640
        }, {
          "height" : 300,
          "url" : "https://i.scdn.co/image/ab67616d00001e021290f4b20bb6031860319b15",
          "width" : 300
        }, {
          "height" : 64,
          "url" : "https://i.scdn.co/image/ab67616d000048511290f4b20bb6031860319b15",
          "width" : 64
        } ],
        "name" : "Praise God From Whom All Blessings Flow",
        "release_date" : "2020-05-18",
        "release_date_precision" : "day",
        "total_tracks" : 1,
        "type" : "album",
        "uri" : "spotify:album:7e1fveU5xJ2xqOICHUFxnU"
      },
      "artists" : [ {
        "external_urls" : {
          "spotify" : "https://open.spotify.com/artist/4OTPuQXIBqiB3uxWJCPkf4"
        },
        "href" : "https://api.spotify.com/v1/artists/4OTPuQXIBqiB3uxWJCPkf4",
        "id" : "4OTPuQXIBqiB3uxWJCPkf4",
        "name" : "Hansaem Lee",
        "type" : "artist",
        "uri" : "spotify:artist:4OTPuQXIBqiB3uxWJCPkf4"
      } ],
      "disc_number" : 1,
      "duration_ms" : 172040,
      "explicit" : false,
      "external_ids" : {
        "isrc" : "QZEKE2002026"
      },
      "external_urls" : {
        "spotify" : "https://open.spotify.com/track/5DVzSXLOIknyWjoAKv8Tvj"
      },
      "href" : "https://api.spotify.com/v1/tracks/5DVzSXLOIknyWjoAKv8Tvj",
      "id" : "5DVzSXLOIknyWjoAKv8Tvj",
      "is_local" : false,
      "is_playable" : true,
      "name" : "Praise God From Whom All Blessings Flow",
      "popularity" : 0,
      "preview_url" : "https://p.scdn.co/mp3-preview/97f3a7981cec09554779db5f92e3109d022d1bf8?cid=774b29d4f13844c495f206cafdad9c86",
      "track_number" : 1,
      "type" : "track",
      "uri" : "spotify:track:5DVzSXLOIknyWjoAKv8Tvj"
    }, {
      "album" : {
        "album_type" : "album",
        "artists" : [ {
          "external_urls" : {
            "spotify" : "https://open.spotify.com/artist/2eHl5z1I0fPtpBGH66qa0i"
          },
          "href" : "https://api.spotify.com/v1/artists/2eHl5z1I0fPtpBGH66qa0i",
          "id" : "2eHl5z1I0fPtpBGH66qa0i",
          "name" : "Mark Magnuson",
          "type" : "artist",
          "uri" : "spotify:artist:2eHl5z1I0fPtpBGH66qa0i"
        } ],
        "external_urls" : {
          "spotify" : "https://open.spotify.com/album/4FVb2bQdE6HhgdepzeSynC"
        },
        "href" : "https://api.spotify.com/v1/albums/4FVb2bQdE6HhgdepzeSynC",
        "id" : "4FVb2bQdE6HhgdepzeSynC",
        "images" : [ {
          "height" : 640,
          "url" : "https://i.scdn.co/image/ab67616d0000b273398db352d00da73afd452005",
          "width" : 640
        }, {
          "height" : 300,
          "url" : "https://i.scdn.co/image/ab67616d00001e02398db352d00da73afd452005",
          "width" : 300
        }, {
          "height" : 64,
          "url" : "https://i.scdn.co/image/ab67616d00004851398db352d00da73afd452005",
          "width" : 64
        } ],
        "name" : "Acoustic Wedding",
        "release_date" : "2006-05-02",
        "release_date_precision" : "day",
        "total_tracks" : 20,
        "type" : "album",
        "uri" : "spotify:album:4FVb2bQdE6HhgdepzeSynC"
      },
      "artists" : [ {
        "external_urls" : {
          "spotify" : "https://open.spotify.com/artist/2eHl5z1I0fPtpBGH66qa0i"
        },
        "href" : "https://api.spotify.com/v1/artists/2eHl5z1I0fPtpBGH66qa0i",
        "id" : "2eHl5z1I0fPtpBGH66qa0i",
        "name" : "Mark Magnuson",
        "type" : "artist",
        "uri" : "spotify:artist:2eHl5z1I0fPtpBGH66qa0i"
      } ],
      "disc_number" : 1,
      "duration_ms" : 129973,
      "explicit" : false,
      "external_ids" : {
        "isrc" : "uscgj0663790"
      },
      "external_urls" : {
        "spotify" : "https://open.spotify.com/track/5LRAX2qV8cnkH0ERfQCksZ"
      },
      "href" : "https://api.spotify.com/v1/tracks/5LRAX2qV8cnkH0ERfQCksZ",
      "id" : "5LRAX2qV8cnkH0ERfQCksZ",
      "is_local" : false,
      "is_playable" : true,
      "name" : "Praise God From Whom All Blessings Flow",
      "popularity" : 18,
      "preview_url" : "https://p.scdn.co/mp3-preview/2a81021330fa306f4e1a6c8999c86fed2e1c9d74?cid=774b29d4f13844c495f206cafdad9c86",
      "track_number" : 15,
      "type" : "track",
      "uri" : "spotify:track:5LRAX2qV8cnkH0ERfQCksZ"
    }, {
      "album" : {
        "album_type" : "album",
        "artists" : [ {
          "external_urls" : {
            "spotify" : "https://open.spotify.com/artist/1R2XZ4GRGYqhRV4QHado6o"
          },
          "href" : "https://api.spotify.com/v1/artists/1R2XZ4GRGYqhRV4QHado6o",
          "id" : "1R2XZ4GRGYqhRV4QHado6o",
          "name" : "Andrew Kiteck",
          "type" : "artist",
          "uri" : "spotify:artist:1R2XZ4GRGYqhRV4QHado6o"
        } ],
        "external_urls" : {
          "spotify" : "https://open.spotify.com/album/2wTGAATm4EFWekdZpH7XRF"
        },
        "href" : "https://api.spotify.com/v1/albums/2wTGAATm4EFWekdZpH7XRF",
        "id" : "2wTGAATm4EFWekdZpH7XRF",
        "images" : [ {
          "height" : 640,
          "url" : "https://i.scdn.co/image/ab67616d0000b273532b497581b4b5d4a92a0999",
          "width" : 640
        }, {
          "height" : 300,
          "url" : "https://i.scdn.co/image/ab67616d00001e02532b497581b4b5d4a92a0999",
          "width" : 300
        }, {
          "height" : 64,
          "url" : "https://i.scdn.co/image/ab67616d00004851532b497581b4b5d4a92a0999",
          "width" : 64
        } ],
        "name" : "Hymns on Piano",
        "release_date" : "2019-04-23",
        "release_date_precision" : "day",
        "total_tracks" : 24,
        "type" : "album",
        "uri" : "spotify:album:2wTGAATm4EFWekdZpH7XRF"
      },
      "artists" : [ {
        "external_urls" : {
          "spotify" : "https://open.spotify.com/artist/1R2XZ4GRGYqhRV4QHado6o"
        },
        "href" : "https://api.spotify.com/v1/artists/1R2XZ4GRGYqhRV4QHado6o",
        "id" : "1R2XZ4GRGYqhRV4QHado6o",
        "name" : "Andrew Kiteck",
        "type" : "artist",
        "uri" : "spotify:artist:1R2XZ4GRGYqhRV4QHado6o"
      } ],
      "disc_number" : 1,
      "duration_ms" : 277250,
      "explicit" : false,
      "external_ids" : {
        "isrc" : "TCAEF1909429"
      },
      "external_urls" : {
        "spotify" : "https://open.spotify.com/track/5iWlNpnJM9Ql59fl3hLKiJ"
      },
      "href" : "https://api.spotify.com/v1/tracks/5iWlNpnJM9Ql59fl3hLKiJ",
      "id" : "5iWlNpnJM9Ql59fl3hLKiJ",
      "is_local" : false,
      "is_playable" : true,
      "name" : "Praise God from Whom All Blessings Flow",
      "popularity" : 14,
      "preview_url" : "https://p.scdn.co/mp3-preview/a4d88c72ae8fb07e4fbffc3a40cf1078410bdee2?cid=774b29d4f13844c495f206cafdad9c86",
      "track_number" : 19,
      "type" : "track",
      "uri" : "spotify:track:5iWlNpnJM9Ql59fl3hLKiJ"
    }, {
      "album" : {
        "album_type" : "album",
        "artists" : [ {
          "external_urls" : {
            "spotify" : "https://open.spotify.com/artist/7IZJd3rxJS92E0WxW6Idtg"
          },
          "href" : "https://api.spotify.com/v1/artists/7IZJd3rxJS92E0WxW6Idtg",
          "id" : "7IZJd3rxJS92E0WxW6Idtg",
          "name" : "Bible Study Fellowship",
          "type" : "artist",
          "uri" : "spotify:artist:7IZJd3rxJS92E0WxW6Idtg"
        } ],
        "external_urls" : {
          "spotify" : "https://open.spotify.com/album/3jbmJ1JjOIIw8U4lEvJRvL"
        },
        "href" : "https://api.spotify.com/v1/albums/3jbmJ1JjOIIw8U4lEvJRvL",
        "id" : "3jbmJ1JjOIIw8U4lEvJRvL",
        "images" : [ {
          "height" : 640,
          "url" : "https://i.scdn.co/image/ab67616d0000b273bfa2d07807781a253c4c04f2",
          "width" : 640
        }, {
          "height" : 300,
          "url" : "https://i.scdn.co/image/ab67616d00001e02bfa2d07807781a253c4c04f2",
          "width" : 300
        }, {
          "height" : 64,
          "url" : "https://i.scdn.co/image/ab67616d00004851bfa2d07807781a253c4c04f2",
          "width" : 64
        } ],
        "name" : "Preschool Songs",
        "release_date" : "2019-07-23",
        "release_date_precision" : "day",
        "total_tracks" : 41,
        "type" : "album",
        "uri" : "spotify:album:3jbmJ1JjOIIw8U4lEvJRvL"
      },
      "artists" : [ {
        "external_urls" : {
          "spotify" : "https://open.spotify.com/artist/7IZJd3rxJS92E0WxW6Idtg"
        },
        "href" : "https://api.spotify.com/v1/artists/7IZJd3rxJS92E0WxW6Idtg",
        "id" : "7IZJd3rxJS92E0WxW6Idtg",
        "name" : "Bible Study Fellowship",
        "type" : "artist",
        "uri" : "spotify:artist:7IZJd3rxJS92E0WxW6Idtg"
      } ],
      "disc_number" : 1,
      "duration_ms" : 83458,
      "explicit" : false,
      "external_ids" : {
        "isrc" : "ushm91944354"
      },
      "external_urls" : {
        "spotify" : "https://open.spotify.com/track/1E9ahkRsoPmGTuOOuFSjh9"
      },
      "href" : "https://api.spotify.com/v1/tracks/1E9ahkRsoPmGTuOOuFSjh9",
      "id" : "1E9ahkRsoPmGTuOOuFSjh9",
      "is_local" : false,
      "is_playable" : true,
      "name" : "Praise God, From Whom All Blessings Flow",
      "popularity" : 14,
      "preview_url" : "https://p.scdn.co/mp3-preview/182c6b26f403e83461e78608a6b9651c9018df28?cid=774b29d4f13844c495f206cafdad9c86",
      "track_number" : 10,
      "type" : "track",
      "uri" : "spotify:track:1E9ahkRsoPmGTuOOuFSjh9"
    }, {
      "album" : {
        "album_type" : "album",
        "artists" : [ {
          "external_urls" : {
            "spotify" : "https://open.spotify.com/artist/6gpOLOIn9tu4nfK52nrAIM"
          },
          "href" : "https://api.spotify.com/v1/artists/6gpOLOIn9tu4nfK52nrAIM",
          "id" : "6gpOLOIn9tu4nfK52nrAIM",
          "name" : "Zeno",
          "type" : "artist",
          "uri" : "spotify:artist:6gpOLOIn9tu4nfK52nrAIM"
        } ],
        "external_urls" : {
          "spotify" : "https://open.spotify.com/album/0ASzgX4wjmaIL06py23tsf"
        },
        "href" : "https://api.spotify.com/v1/albums/0ASzgX4wjmaIL06py23tsf",
        "id" : "0ASzgX4wjmaIL06py23tsf",
        "images" : [ {
          "height" : 640,
          "url" : "https://i.scdn.co/image/ab67616d0000b2733b6e695a47fa399b1dca7c80",
          "width" : 640
        }, {
          "height" : 300,
          "url" : "https://i.scdn.co/image/ab67616d00001e023b6e695a47fa399b1dca7c80",
          "width" : 300
        }, {
          "height" : 64,
          "url" : "https://i.scdn.co/image/ab67616d000048513b6e695a47fa399b1dca7c80",
          "width" : 64
        } ],
        "name" : "Fingerstyle Hymns: Simple Guitar Arrangements 4",
        "release_date" : "2017-09-10",
        "release_date_precision" : "day",
        "total_tracks" : 10,
        "type" : "album",
        "uri" : "spotify:album:0ASzgX4wjmaIL06py23tsf"
      },
      "artists" : [ {
        "external_urls" : {
          "spotify" : "https://open.spotify.com/artist/6gpOLOIn9tu4nfK52nrAIM"
        },
        "href" : "https://api.spotify.com/v1/artists/6gpOLOIn9tu4nfK52nrAIM",
        "id" : "6gpOLOIn9tu4nfK52nrAIM",
        "name" : "Zeno",
        "type" : "artist",
        "uri" : "spotify:artist:6gpOLOIn9tu4nfK52nrAIM"
      } ],
      "disc_number" : 1,
      "duration_ms" : 83013,
      "explicit" : false,
      "external_ids" : {
        "isrc" : "QZ22B1833632"
      },
      "external_urls" : {
        "spotify" : "https://open.spotify.com/track/6hDiBCr69Ive423CWFZ4pG"
      },
      "href" : "https://api.spotify.com/v1/tracks/6hDiBCr69Ive423CWFZ4pG",
      "id" : "6hDiBCr69Ive423CWFZ4pG",
      "is_local" : false,
      "is_playable" : true,
      "name" : "Praise God From Whom All Blessings Flow - Instrumental Guitar",
      "popularity" : 16,
      "preview_url" : "https://p.scdn.co/mp3-preview/501746bb0a69e4f005ea208ee6aee9e18fab8da7?cid=774b29d4f13844c495f206cafdad9c86",
      "track_number" : 7,
      "type" : "track",
      "uri" : "spotify:track:6hDiBCr69Ive423CWFZ4pG"
    }, {
      "album" : {
        "album_type" : "album",
        "artists" : [ {
          "external_urls" : {
            "spotify" : "https://open.spotify.com/artist/14FWQZQ0lXiNelKZ2nLMvA"
          },
          "href" : "https://api.spotify.com/v1/artists/14FWQZQ0lXiNelKZ2nLMvA",
          "id" : "14FWQZQ0lXiNelKZ2nLMvA",
          "name" : "Brigham Peterson",
          "type" : "artist",
          "uri" : "spotify:artist:14FWQZQ0lXiNelKZ2nLMvA"
        } ],
        "external_urls" : {
          "spotify" : "https://open.spotify.com/album/1vLnrbMt9halPMybmfpMg1"
        },
        "href" : "https://api.spotify.com/v1/albums/1vLnrbMt9halPMybmfpMg1",
        "id" : "1vLnrbMt9halPMybmfpMg1",
        "images" : [ {
          "height" : 640,
          "url" : "https://i.scdn.co/image/ab67616d0000b273ecc434a8ceb77866000d782f",
          "width" : 640
        }, {
          "height" : 300,
          "url" : "https://i.scdn.co/image/ab67616d00001e02ecc434a8ceb77866000d782f",
          "width" : 300
        }, {
          "height" : 64,
          "url" : "https://i.scdn.co/image/ab67616d00004851ecc434a8ceb77866000d782f",
          "width" : 64
        } ],
        "name" : "Mormon Guitar: A Love for Hymns",
        "release_date" : "2016-01-28",
        "release_date_precision" : "day",
        "total_tracks" : 15,
        "type" : "album",
        "uri" : "spotify:album:1vLnrbMt9halPMybmfpMg1"
      },
      "artists" : [ {
        "external_urls" : {
          "spotify" : "https://open.spotify.com/artist/14FWQZQ0lXiNelKZ2nLMvA"
        },
        "href" : "https://api.spotify.com/v1/artists/14FWQZQ0lXiNelKZ2nLMvA",
        "id" : "14FWQZQ0lXiNelKZ2nLMvA",
        "name" : "Brigham Peterson",
        "type" : "artist",
        "uri" : "spotify:artist:14FWQZQ0lXiNelKZ2nLMvA"
      } ],
      "disc_number" : 1,
      "duration_ms" : 132160,
      "explicit" : false,
      "external_ids" : {
        "isrc" : "USA2P1603906"
      },
      "external_urls" : {
        "spotify" : "https://open.spotify.com/track/6KKrpBC62s17Pj4tsK9ijU"
      },
      "href" : "https://api.spotify.com/v1/tracks/6KKrpBC62s17Pj4tsK9ijU",
      "id" : "6KKrpBC62s17Pj4tsK9ijU",
      "is_local" : false,
      "is_playable" : true,
      "name" : "Praise God, From Whom All the Blessings Flow",
      "popularity" : 12,
      "preview_url" : "https://p.scdn.co/mp3-preview/38efe5add5af7539cce568c8bd14ab36b99ce834?cid=774b29d4f13844c495f206cafdad9c86",
      "track_number" : 11,
      "type" : "track",
      "uri" : "spotify:track:6KKrpBC62s17Pj4tsK9ijU"
    }, {
      "album" : {
        "album_type" : "album",
        "artists" : [ {
          "external_urls" : {
            "spotify" : "https://open.spotify.com/artist/3lk8qatIcUand38OeCGxk9"
          },
          "href" : "https://api.spotify.com/v1/artists/3lk8qatIcUand38OeCGxk9",
          "id" : "3lk8qatIcUand38OeCGxk9",
          "name" : "Lorie Line",
          "type" : "artist",
          "uri" : "spotify:artist:3lk8qatIcUand38OeCGxk9"
        } ],
        "external_urls" : {
          "spotify" : "https://open.spotify.com/album/1b2NAkvxQ6Kg6vtLhTe1rP"
        },
        "href" : "https://api.spotify.com/v1/albums/1b2NAkvxQ6Kg6vtLhTe1rP",
        "id" : "1b2NAkvxQ6Kg6vtLhTe1rP",
        "images" : [ {
          "height" : 640,
          "url" : "https://i.scdn.co/image/ab67616d0000b273d4ea0112470225ed778ad977",
          "width" : 640
        }, {
          "height" : 300,
          "url" : "https://i.scdn.co/image/ab67616d00001e02d4ea0112470225ed778ad977",
          "width" : 300
        }, {
          "height" : 64,
          "url" : "https://i.scdn.co/image/ab67616d00004851d4ea0112470225ed778ad977",
          "width" : 64
        } ],
        "name" : "The Heritage Collection, Vol. 7",
        "release_date" : "2015-06-11",
        "release_date_precision" : "day",
        "total_tracks" : 14,
        "type" : "album",
        "uri" : "spotify:album:1b2NAkvxQ6Kg6vtLhTe1rP"
      },
      "artists" : [ {
        "external_urls" : {
          "spotify" : "https://open.spotify.com/artist/3lk8qatIcUand38OeCGxk9"
        },
        "href" : "https://api.spotify.com/v1/artists/3lk8qatIcUand38OeCGxk9",
        "id" : "3lk8qatIcUand38OeCGxk9",
        "name" : "Lorie Line",
        "type" : "artist",
        "uri" : "spotify:artist:3lk8qatIcUand38OeCGxk9"
      } ],
      "disc_number" : 1,
      "duration_ms" : 208613,
      "explicit" : false,
      "external_ids" : {
        "isrc" : "US42C1500682"
      },
      "external_urls" : {
        "spotify" : "https://open.spotify.com/track/3ZNYdWlPcpIbwxqYnhzZCi"
      },
      "href" : "https://api.spotify.com/v1/tracks/3ZNYdWlPcpIbwxqYnhzZCi",
      "id" : "3ZNYdWlPcpIbwxqYnhzZCi",
      "is_local" : false,
      "is_playable" : true,
      "name" : "Praise God from Whom All Blessings Flow",
      "popularity" : 12,
      "preview_url" : "https://p.scdn.co/mp3-preview/0e73b150fab90cdba504a38457244318c1fc1e62?cid=774b29d4f13844c495f206cafdad9c86",
      "track_number" : 12,
      "type" : "track",
      "uri" : "spotify:track:3ZNYdWlPcpIbwxqYnhzZCi"
    }, {
      "album" : {
        "album_type" : "album",
        "artists" : [ {
          "external_urls" : {
            "spotify" : "https://open.spotify.com/artist/5gWZC3kXTwxQGc9q3M16vK"
          },
          "href" : "https://api.spotify.com/v1/artists/5gWZC3kXTwxQGc9q3M16vK",
          "id" : "5gWZC3kXTwxQGc9q3M16vK",
          "name" : "LDS Piano",
          "type" : "artist",
          "uri" : "spotify:artist:5gWZC3kXTwxQGc9q3M16vK"
        } ],
        "external_urls" : {
          "spotify" : "https://open.spotify.com/album/59SmAZBgLSdvxpKp8pP9EZ"
        },
        "href" : "https://api.spotify.com/v1/albums/59SmAZBgLSdvxpKp8pP9EZ",
        "id" : "59SmAZBgLSdvxpKp8pP9EZ",
        "images" : [ {
          "height" : 640,
          "url" : "https://i.scdn.co/image/ab67616d0000b273b639d51f81074f07d62540d0",
          "width" : 640
        }, {
          "height" : 300,
          "url" : "https://i.scdn.co/image/ab67616d00001e02b639d51f81074f07d62540d0",
          "width" : 300
        }, {
          "height" : 64,
          "url" : "https://i.scdn.co/image/ab67616d00004851b639d51f81074f07d62540d0",
          "width" : 64
        } ],
        "name" : "The Mormon Hymnbook Volume 2",
        "release_date" : "2019-03-18",
        "release_date_precision" : "day",
        "total_tracks" : 18,
        "type" : "album",
        "uri" : "spotify:album:59SmAZBgLSdvxpKp8pP9EZ"
      },
      "artists" : [ {
        "external_urls" : {
          "spotify" : "https://open.spotify.com/artist/5gWZC3kXTwxQGc9q3M16vK"
        },
        "href" : "https://api.spotify.com/v1/artists/5gWZC3kXTwxQGc9q3M16vK",
        "id" : "5gWZC3kXTwxQGc9q3M16vK",
        "name" : "LDS Piano",
        "type" : "artist",
        "uri" : "spotify:artist:5gWZC3kXTwxQGc9q3M16vK"
      } ],
      "disc_number" : 1,
      "duration_ms" : 62995,
      "explicit" : false,
      "external_ids" : {
        "isrc" : "GBSMU6209098"
      },
      "external_urls" : {
        "spotify" : "https://open.spotify.com/track/2RN7nu1dyOq7zm0SRfnlqv"
      },
      "href" : "https://api.spotify.com/v1/tracks/2RN7nu1dyOq7zm0SRfnlqv",
      "id" : "2RN7nu1dyOq7zm0SRfnlqv",
      "is_local" : false,
      "is_playable" : true,
      "name" : "Praise God from Whom All Blessings Flow",
      "popularity" : 11,
      "preview_url" : "https://p.scdn.co/mp3-preview/db9be0203432808b68c0aa341b856818498a59d7?cid=774b29d4f13844c495f206cafdad9c86",
      "track_number" : 16,
      "type" : "track",
      "uri" : "spotify:track:2RN7nu1dyOq7zm0SRfnlqv"
    } ],
    "limit" : 10,
    "next" : "https://api.spotify.com/v1/search?query=Praise+God%2C+From+Whom+All+Blessings&type=track&market=US&offset=15&limit=10",
    "offset" : 5,
    "previous" : "https://api.spotify.com/v1/search?query=Praise+God%2C+From+Whom+All+Blessings&type=track&market=US&offset=0&limit=10",
    "total" : 222
  }
}