{
  "tracks" : {
    "href" : "https://api.spotify.com/v1/search?query=Holy%2C+Holy%2C+Holy&type=track&market=US&offset=5&limit=10",
    "items" : [ {
      "album" : {
        "album_type" : "album",
        "artists" : [ {
          "external_urls" : {
            "spotify" : "https://open.spotify.com/artist/2bBRxQ6hEba2rm64HLgFTo"
          },
          "href" : "https://api.spotify.com/v1/artists/2bBRxQ6hEba2rm64HLgFTo",
          "id" : "2bBRxQ6hEba2rm64HLgFTo",
          "name" : "Scripture Lullabies",
          "type" : "artist",
          "uri" : "spotify:artist:2bBRxQ6hEba2rm64HLgFTo"
        }, {
          "external_urls" : {
            "spotify" : "https://open.spotify.com/artist/2QAtHTrf3izFecwZUPkyRu"
          },
          "href" : "https://api.spotify.com/v1/artists/2QAtHTrf3izFecwZUPkyRu",
          "id" : "2QAtHTrf3izFecwZUPkyRu",
          "name" : "Jay Stocker",
          "type" : "artist",
          "uri" : "spotify:artist:2QAtHTrf3izFecwZUPkyRu"
        } ],
        "external_urls" : {
          "spotify" : "https://open.spotify.com/album/0eFuWEXftIG4KAIj28oDrP"
        },
        "href" : "https://api.spotify.com/v1/albums/0eFuWEXftIG4KAIj28oDrP",
        "id" : "0eFuWEXftIG4KAIj28oDrP",
        "images" : [ {
          "height" : 640,
          "url" : "https://i.scdn.co/image/ab67616d0000b273e743767f14b6c952ec83ca3e",
          "width" : 640
        }, {
          "height" : 300,
          "url" : "https://i.scdn.co/image/ab67616d00001e02e743767f14b6c952ec83ca3e",
          "width" : 300
        }, {
          "height" : 64,
          "url" : "https://i.scdn.co/image/ab67616d00004851e743767f14b6c952ec83ca3e",
          "width" : 64
        } ],
        "name" : "Lighthouse (A Piano Album)",
        "release_date" : "2019-03-22",
        "release_date_precision" : "day",
        "total_tracks" : 12,
        "type" : "album",
        "uri" : "spotify:album:0eFuWEXftIG4KAIj28oDrP"
      },
      "artists" : [ {
        "external_urls" : {
          "spotify" : "https://open.spotify.com/artist/2bBRxQ6hEba2rm64HLgFTo"
        },
        "href" : "https://api.spotify.com/v1/artists/2bBRxQ6hEba2rm64HLgFTo",
        "id" : "2bBRxQ6hEba2rm64HLgFTo",
        "name" : "Scripture Lullabies",
        "type" : "artist",
        "uri" : "spotify:artist:2bBRxQ6hEba2rm64HLgFTo"
      }, {
        "external_urls" : {
          "spotify" : "https://open.spotify.com/artist/2QAtHTrf3izFecwZUPkyRu"
        },
        "href" : "https://api.spotify.com/v1/artists/2QAtHTrf3izFecwZUPkyRu",
        "id" : "2QAtHTrf3izFecwZUPkyRu",
        "name" : "Jay Stocker",
        "type" : "artist",
        "uri" : "spotify:artist:2QAtHTrf3izFecwZUPkyRu"
      } ],
      "disc_number" : 1,
      "duration_ms" : 318000,
      "explicit" : false,
      "external_ids" : {
        "isrc" : "US8CK1800012"
      },
      "external_urls" : {
        "spotify" : "https://open.spotify.com/track/3LyCACG6dfE9BNXufggFot"
      },
      "href" : "https://api.spotify.com/v1/tracks/3LyCACG6dfE9BNXufggFot",
      "id" : "3LyCACG6dfE9BNXufggFot",
      "is_local" : false,
      "is_playable" : true,
      "name" : "Holy, Holy, Holy",
      "popularity" : 37,
      "preview_url" : "https://p.scdn.co/mp3-preview/287b2b6aa1ddf534efb39e29012d310407d27167?cid=774b29d4f13844c495f206cafdad9c86",
      "track_number" : 12,
      "type" : "track",
      "uri" : "spotify:track:3LyCACG6dfE9BNXufggFot"
    }, {
      "album" : {
        "album_type" : "album",
        "artists" : [ {
          "external_urls" : {
            "spotify" : "https://open.spotify.com/artist/2LFbgsbEhfilNpQYW7mied"
          },
          "href" : "https://api.spotify.com/v1/artists/2LFbgsbEhfilNpQYW7mied",
          "id" : "2LFbgsbEhfilNpQYW7mied",
          "name" : "Shane & Shane",
          "type" : "artist",
          "uri" : "spotify:artist:2LFbgsbEhfilNpQYW7mied"
        } ],
        "external_urls" : {
          "spotify" : "https://open.spotify.com/album/2LE9j1hE1bGMiRK4KUdiEF"
        },
        "href" : "https://api.spotify.com/v1/albums/2LE9j1hE1bGMiRK4KUdiEF",
        "id" : "2LE9j1hE1bGMiRK4KUdiEF",
        "images" : [ {
          "height" : 640,
          "url" : "https://i.scdn.co/image/ab67616d0000b2738fac38bcc8bee7e840c9f1e9",
          "width" : 640
        }, {
          "height" : 300,
          "url" : "https://i.scdn.co/image/ab67616d00001e028fac38bcc8bee7e840c9f1e9",
          "width" : 300
        }, {
          "height" : 64,
          "url" : "https://i.scdn.co/image/ab67616d000048518fac38bcc8bee7e840c9f1e9",
          "width" : 64
        } ],
        "name" : "Hymns, Vol. 1",
        "release_date" : "2018-09-07",
        "release_date_precision" : "day",
        "total_tracks" : 10,
        "type" : "album",
        "uri" : "spotify:album:2LE9j1hE1bGMiRK4KUdiEF"
      },
      "artists" : [ {
        "external_urls" : {
          "spotify" : "https://open.spotify.com/artist/2LFbgsbEhfilNpQYW7mied"
        },
        "href" : "https://api.spotify.com/v1/artists/2LFbgsbEhfilNpQYW7mied",
        "id" : "2LFbgsbEhfilNpQYW7mied",
        "name" : "Shane & Shane",
        "type" : "artist",
        "uri" : "spotify:artist:2LFbgsbEhfilNpQYW7mied"
      } ],
      "disc_number" : 1,
      "duration_ms" : 444314,
      "explicit" : false,
      "external_ids" : {
        "isrc" : "USDHM1818545"
      },
      "external_urls" : {
        "spotify" : "https://open.spotify.com/track/1e58fEprNEGwk1Btxmfaac"
      },
      "href" : "https://api.spotify.com/v1/tracks/1e58fEprNEGwk1Btxmfaac",
      "id" : "1e58fEprNEGwk1Btxmfaac",
      "is_local" : false,
      "is_playable" : true,
      "name" : "Holy, Holy, Holy (We Bow Before Thee)",
      "popularity" : 37,
      "preview_url" : "https://p.scdn.co/mp3-preview/fb5536ca7409200b4e0249ac7d57dac348f736e3?cid=774b29d4f13844c495f206cafdad9c86",
      "track_number" : 6,
      "type" : "track",
      "uri" : "spotify:track:1e58fEprNEGwk1Btxmfaac"
    }, {
      "album" : {
        "album_type" : "album",
        "artists" : [ {
          "external_urls" : {
            "spotify" : "https://open.spotify.com/artist/2LFbgsbEhfilNpQYW7mied"
          },
          "href" : "https://api.spotify.com/v1/artists/2LFbgsbEhfilNpQYW7mied",
          "id" : "2LFbgsbEhfilNpQYW7mied",
          "name" : "Shane & Shane",
          "type" : "artist",
          "uri" : "spotify:artist:2LFbgsbEhfilNpQYW7mied"
        } ],
        "external_urls" : {
          "spotify" : "https://open.spotify.com/album/4q4dWDNJcrxHnjO8zo3spx"
        },
        "href" : "https://api.spotify.com/v1/albums/4q4dWDNJcrxHnjO8zo3spx",
        "id" : "4q4dWDNJcrxHnjO8zo3spx",
        "images" : [ {
          "height" : 640,
          "url" : "https://i.scdn.co/image/ab67616d0000b2731a1dc234f3c6ec37390c65f9",
          "width" : 640
        }, {
          "height" : 300,
          "url" : "https://i.scdn.co/image/ab67616d00001e021a1dc234f3c6ec37390c65f9",
          "width" : 300
        }, {
          "height" : 64,
          "url" : "https://i.scdn.co/image/ab67616d000048511a1dc234f3c6ec37390c65f9",
          "width" : 64
        } ],
        "name" : "Hymns Live",
        "release_date" : "2019-02-08",
        "release_date_precision" : "day",
        "total_tracks" : 13,
        "type" : "album",
        "uri" : "spotify:album:4q4dWDNJcrxHnjO8zo3spx"
      },
      "artists" : [ {
        "external_urls" : {
          "spotify" : "https://open.spotify.com/artist/2LFbgsbEhfilNpQYW7mied"
        },
        "href" : "https://api.spotify.com/v1/artists/2LFbgsbEhfilNpQYW7mied",
        "id" : "2LFbgsbEhfilNpQYW7mied",
        "name" : "Shane & Shane",
        "type" : "artist",
        "uri" : "spotify:artist:2LFbgsbEhfilNpQYW7mied"
      } ],
      "disc_number" : 1,
      "duration_ms" : 461846,
      "explicit" : false,
      "external_ids" : {
        "isrc" : "USDHM1999909"
      },
      "external_urls" : {
        "spotify" : "https://open.spotify.com/track/1y3Wi51Uo9OOtgZJWzfsCI"
      },
      "href" : "https://api.spotify.com/v1/tracks/1y3Wi51Uo9OOtgZJWzfsCI",
      "id" : "1y3Wi51Uo9OOtgZJWzfsCI",
      "is_local" : false,
      "is_playable" : true,
      "name" : "Holy, Holy, Holy (We Bow Before Thee) [Live]",
      "popularity" : 38,
      "preview_url" : "https://p.scdn.co/mp3-preview/16422b73c2afb24da045f28c50764174f3c5b401?cid=774b29d4f13844c495f206cafdad9c86",
      "track_number" : 9,
      "type" : "track",
      "uri" : "spotify:track:1y3Wi51Uo9OOtgZJWzfsCI"
    }, {
      "album" : {
        "album_type" : "album",
        "artists" : [ {
          "external_urls" : {
            "spotify" : "https://open.spotify.com/artist/72Nhcx7prNk2ZCxhx0Y5es"
          },
          "href" : "https://api.spotify.com/v1/artists/72Nhcx7prNk2ZCxhx0Y5es",
          "id" : "72Nhcx7prNk2ZCxhx0Y5es",
          "name" : "Amy Grant",
          "type" : "artist",
          "uri" : "spotify:artist:72Nhcx7prNk2ZCxhx0Y5es"
        } ],
        "external_urls" : {
          "spotify" : "https://open.spotify.com/album/4JY1aDHyqitr24pkk4MeEs"
        },
        "href" : "https://api.spotify.com/v1/albums/4JY1aDHyqitr24pkk4MeEs",
        "id" : "4JY1aDHyqitr24pkk4MeEs",
        "images" : [ {
          "height" : 640,
          "url" : "https://i.scdn.co/image/ab67616d0000b273944d7e34bad20582862abf54",
          "width" : 640
        }, {
          "height" : 300,
          "url" : "https://i.scdn.co/image/ab67616d00001e02944d7e34bad20582862abf54",
          "width" : 300
        }, {
          "height" : 64,
          "url" : "https://i.scdn.co/image/ab67616d00004851944d7e34bad20582862abf54",
          "width" : 64
        } ],
        "name" : "Legacy...Hymns & Faith",
        "release_date" : "2002",
        "release_date_precision" : "year",
        "total_tracks" : 14,
        "type" : "album",
        "uri" : "spotify:album:4JY1aDHyqitr24pkk4MeEs"
      },
      "artists" : [ {
        "external_urls" : {
          "spotify" : "https://open.spotify.com/artist/72Nhcx7prNk2ZCxhx0Y5es"
        },
        "href" : "https://api.spotify.com/v1/artists/72Nhcx7prNk2ZCxhx0Y5es",
        "id" : "72Nhcx7prNk2ZCxhx0Y5es",
        "name" : "Amy Grant",
        "type" : "artist",
        "uri" : "spotify:artist:72Nhcx7prNk2ZCxhx0Y5es"
      } ],
      "disc_number" : 1,
      "duration_ms" : 146560,
      "explicit" : false,
      "external_ids" : {
        "isrc" : "USSP30900471"
      },
      "external_urls" : {
        "spotify" : "https://open.spotify.com/track/5EYbEcW9oURdvzhpWzSSwb"
      },
      "href" : "https://api.spotify.com/v1/tracks/5EYbEcW9oURdvzhpWzSSwb",
      "id" : "5EYbEcW9oURdvzhpWzSSwb",
      "is_local" : false,
      "is_playable" : true,
      "name" : "Holy, Holy, Holy",
      "popularity" : 35,
      "preview_url" : null,
      "track_number" : 12,
      "type" : "track",
      "uri" : "spotify:track:5EYbEcW9oURdvzhpWzSSwb"
    }, {
      "album" : {
        "album_type" : "album",
        "artists" : [ {
          "external_urls" : {
            "spotify" : "https://open.spotify.com/artist/48ubKBTTmlA82dffZ223In"
          },
          "href" : "https://api.spotify.com/v1/artists/48ubKBTTmlA82dffZ223In",
          "id" : "48ubKBTTmlA82dffZ223In",
          "name" : "Highlands Worship",
          "type" : "artist",
          "uri" : "spotify:artist:48ubKBTTmlA82dffZ223In"
        } ],
        "external_urls" : {
          "spotify" : "https://open.spotify.com/album/4gZ4uPXX6zsekPnJo2GWDt"
        },
        "href" : "https://api.spotify.com/v1/albums/4gZ4uPXX6zsekPnJo2GWDt",
        "id" : "4gZ4uPXX6zsekPnJo2GWDt",
        "images" : [ {
          "height" : 640,
          "url" : "https://i.scdn.co/image/ab67616d0000b2735ea4f067b58fef1b52c87ae3",
          "width" : 640
        }, {
          "height" : 300,
          "url" : "https://i.scdn.co/image/ab67616d00001e025ea4f067b58fef1b52c87ae3",
          "width" : 300
        }, {
          "height" : 64,
          "url" : "https://i.scdn.co/image/ab67616d000048515ea4f067b58fef1b52c87ae3",
          "width" : 64
        } ],
        "name" : "Here I Surrender",
        "release_date" : "2016-07-28",
        "release_date_precision" : "day",
        "total_tracks" : 13,
        "type" : "album",
        "uri" : "spotify:album:4gZ4uPXX6zsekPnJo2GWDt"
      },
      "artists" : [ {
        "external_urls" : {
          "spotify" : "https://open.spotify.com/artist/48ubKBTTmlA82dffZ223In"
        },
        "href" : "https://api.spotify.com/v1/artists/48ubKBTTmlA82dffZ223In",
        "id" : "48ubKBTTmlA82dffZ223In",
        "name" : "Highlands Worship",
        "type" : "artist",
        "uri" : "spotify:artist:48ubKBTTmlA82dffZ223In"
      } ],
      "disc_number" : 1,
      "duration_ms" : 359533,
      "explicit" : false,
      "external_ids" : {
        "isrc" : "TCACP1687393"
      },
      "external_urls" : {
        "spotify" : "https://open.spotify.com/track/3Uiyp8XhNxgtuA4qY6GIUN"
      },
      "href" : "https://api.spotify.com/v1/tracks/3Uiyp8XhNxgtuA4qY6GIUN",
      "id" : "3Uiyp8XhNxgtuA4qY6GIUN",
      "is_local" : false,
      "is_playable" : true,
      "name" : "Holy, Holy, Holy (Jesus Reigns)",
      "popularity" : 36,
      "preview_url" : "https://p.scdn.co/mp3-preview/5cfa8650599f4cf3cff02b886a790daad059ba2b?cid=774b29d4f13844c495f206cafdad9c86",
      "track_number" : 7,
      "type" : "track",
      "uri" : "spotify:track:3Uiyp8XhNxgtuA4qY6GIUN"
    }, {
      "album" : {
        "album_type" : "album",
        "artists" : [ {
          "external_urls" : {
            "spotify" : "https://open.spotify.com/artist/5dZiRoY9Vpp6qrxqXNRwPE"
          },
          "href" : "https://api.spotify.com/v1/artists/5dZiRoY9Vpp6qrxqXNRwPE",
          "id" : "5dZiRoY9Vpp6qrxqXNRwPE",
          "name" : "Selah",
          "type" : "artist",
          "uri" : "spotify:artist:5dZiRoY9Vpp6qrxqXNRwPE"
        } ],
        "external_urls" : {
          "spotify" : "https://open.spotify.com/album/1JmmM3kMCKzYbuBHphQMFP"
        },
        "href" : "https://api.spotify.com/v1/albums/1JmmM3kMCKzYbuBHphQMFP",
        "id" : "1JmmM3kMCKzYbuBHphQMFP",
        "images" : [ {
          "height" : 640,
          "url" : "https://i.scdn.co/image/ab67616d0000b273acff8fc1a79b0181fce6a510",
          "width" : 640
        }, {
          "height" : 300,
          "url" : "https://i.scdn.co/image/ab67616d00001e02acff8fc1a79b0181fce6a510",
          "width" : 300
        }, {
          "height" : 64,
          "url" : "https://i.scdn.co/image/ab67616d00004851acff8fc1a79b0181fce6a510",
          "width" : 64
        } ],
        "name" : "Greatest Hymns, Vol. 2",
        "release_date" : "2016-08-26",
        "release_date_precision" : "day",
        "total_tracks" : 18,
        "type" : "album",
        "uri" : "spotify:album:1JmmM3kMCKzYbuBHphQMFP"
      },
      "artists" : [ {
        "external_urls" : {
          "spotify" : "https://open.spotify.com/artist/5dZiRoY9Vpp6qrxqXNRwPE"
        },
        "href" : "https://api.spotify.com/v1/artists/5dZiRoY9Vpp6qrxqXNRwPE",
        "id" : "5dZiRoY9Vpp6qrxqXNRwPE",
        "name" : "Selah",
        "type" : "artist",
        "uri" : "spotify:artist:5dZiRoY9Vpp6qrxqXNRwPE"
      } ],
      "disc_number" : 1,
      "duration_ms" : 255200,
      "explicit" : false,
      "external_ids" : {
        "isrc" : "USCRB1613321"
      },
      "external_urls" : {
        "spotify" : "https://open.spotify.com/track/2rsX5af2MO7yfLvT27K3eY"
      },
      "href" : "https://api.spotify.com/v1/tracks/2rsX5af2MO7yfLvT27K3eY",
      "id" : "2rsX5af2MO7yfLvT27K3eY",
      "is_local" : false,
      "is_playable" : true,
      "name" : "Holy, Holy, Holy",
      "popularity" : 34,
      "preview_url" : "https://p.scdn.co/mp3-preview/efa815e848029888b9b2070651d9fbfbdd361d06?cid=774b29d4f13844c495f206cafdad9c86",
      "track_number" : 14,
      "type" : "track",
      "uri" : "spotify:track:2rsX5af2MO7yfLvT27K3eY"
    }, {
      "album" : {
        "album_type" : "single",
        "artists" : [ {
          "external_urls" : {
            "spotify" : "https://open.spotify.com/artist/7lYCHQLcDqNrJjIgKAEkje"
          },
          "href" : "https://api.spotify.com/v1/artists/7lYCHQLcDqNrJjIgKAEkje",
          "id" : "7lYCHQLcDqNrJjIgKAEkje",
          "name" : "Norton Hall Band",
          "type" : "artist",
          "uri" : "spotify:artist:7lYCHQLcDqNrJjIgKAEkje"
        } ],
        "external_urls" : {
          "spotify" : "https://open.spotify.com/album/27ZlsmMgJgbtLM7XzQQXKv"
        },
        "href" : "https://api.spotify.com/v1/albums/27ZlsmMgJgbtLM7XzQQXKv",
        "id" : "27ZlsmMgJgbtLM7XzQQXKv",
        "images" : [ {
          "height" : 640,
          "url" : "https://i.scdn.co/image/ab67616d0000b2738eb554785ad4adf838638d14",
          "width" : 640
        }, {
          "height" : 300,
          "url" : "https://i.scdn.co/image/ab67616d00001e028eb554785ad4adf838638d14",
          "width" : 300
        }, {
          "height" : 64,
          "url" : "https://i.scdn.co/image/ab67616d000048518eb554785ad4adf838638d14",
          "width" : 64
        } ],
        "name" : "Be Thou My Vision",
        "release_date" : "2014-09-01",
        "release_date_precision" : "day",
        "total_tracks" : 6,
        "type" : "album",
        "uri" : "spotify:album:27ZlsmMgJgbtLM7XzQQXKv"
      },
      "artists" : [ {
        "external_urls" : {
          "spotify" : "https://open.spotify.com/artist/7lYCHQLcDqNrJjIgKAEkje"
        },
        "href" : "https://api.spotify.com/v1/artists/7lYCHQLcDqNrJjIgKAEkje",
        "id" : "7lYCHQLcDqNrJjIgKAEkje",
        "name" : "Norton Hall Band",
        "type" : "artist",
        "uri" : "spotify:artist:7lYCHQLcDqNrJjIgKAEkje"
      } ],
      "disc_number" : 1,
      "duration_ms" : 293082,
      "explicit" : false,
      "external_ids" : {
        "isrc" : "ushm81466592"
      },
      "external_urls" : {
        "spotify" : "https://open.spotify.com/track/6FWK5s1AjQBhG2HsIsvJYC"
      },
      "href" : "https://api.spotify.com/v1/tracks/6FWK5s1AjQBhG2HsIsvJYC",
      "id" : "6FWK5s1AjQBhG2HsIsvJYC",
      "is_local" : false,
      "is_playable" : true,
      "name" : "Holy, Holy, Holy",
      "popularity" : 32,
      "preview_url" : "https://p.scdn.co/mp3-preview/cf54d574a3c954337c6199059b6eb59046c48c54?cid=774b29d4f13844c495f206cafdad9c86",
      "track_number" : 1,
      "type" : "track",
      "uri" : "spotify:track:6FWK5s1AjQBhG2HsIsvJYC"
    }, {
      "album" : {
        "album_type" : "album",
        "artists" : [ {
          "external_urls" : {
            "spotify" : "https://open.spotify.com/artist/0I4Bk2s2BUJyykCwtxx8Xx"
          },
          "href" : "https://api.spotify.com/v1/artists/0I4Bk2s2BUJyykCwtxx8Xx",
          "id" : "0I4Bk2s2BUJyykCwtxx8Xx",
          "name" : "Keith & Kristyn Getty",
          "type" : "artist",
          "uri" : "spotify:artist:0I4Bk2s2BUJyykCwtxx8Xx"
        } ],
        "external_urls" : {
          "spotify" : "https://open.spotify.com/album/6c2wV1wW3nTz45RcSvqphh"
        },
        "href" : "https://api.spotify.com/v1/albums/6c2wV1wW3nTz45RcSvqphh",
        "id" : "6c2wV1wW3nTz45RcSvqphh",
        "images" : [ {
          "height" : 640,
          "url" : "https://i.scdn.co/image/ab67616d0000b2732c3da881b92e4952e6c21322",
          "width" : 640
        }, {
          "height" : 300,
          "url" : "https://i.scdn.co/image/ab67616d00001e022c3da881b92e4952e6c21322",
          "width" : 300
        }, {
          "height" : 64,
          "url" : "https://i.scdn.co/image/ab67616d000048512c3da881b92e4952e6c21322",
          "width" : 64
        } ],
        "name" : "Live At The Gospel Coalition",
        "release_date" : "2013-01-01",
        "release_date_precision" : "day",
        "total_tracks" : 16,
        "type" : "album",
        "uri" : "spotify:album:6c2wV1wW3nTz45RcSvqphh"
      },
      "artists" : [ {
        "external_urls" : {
          "spotify" : "https://open.spotify.com/artist/0I4Bk2s2BUJyykCwtxx8Xx"
        },
        "href" : "https://api.spotify.com/v1/artists/0I4Bk2s2BUJyykCwtxx8Xx",
        "id" : "0I4Bk2s2BUJyykCwtxx8Xx",
        "name" : "Keith & Kristyn Getty",
        "type" : "artist",
        "uri" : "spotify:artist:0I4Bk2s2BUJyykCwtxx8Xx"
      } ],
      "disc_number" : 1,
      "duration_ms" : 213666,
      "explicit" : false,
      "external_ids" : {
        "isrc" : "USY5K1300017"
      },
      "external_urls" : {
        "spotify" : "https://open.spotify.com/track/3JIWj13Dm1lL6l2cPYLNFz"
      },
      "href" : "https://api.spotify.com/v1/tracks/3JIWj13Dm1lL6l2cPYLNFz",
      "id" : "3JIWj13Dm1lL6l2cPYLNFz",
      "is_local" : false,
      "is_playable" : true,
      "name" : "Holy, Holy, Holy Lord God Almighty - Live",
      "popularity" : 36,
      "preview_url" : null,
      "track_number" : 16,
      "type" : "track",
      "uri" : "spotify:track:3JIWj13Dm1lL6l2cPYLNFz"
    }, {
      "album" : {
        "album_type" : "album",
        "artists" : [ {
          "external_urls" : {
            "spotify" : "https://open.spotify.com/artist/0ZLHgeKZXpxW42i2T2s931"
          },
          "href" : "https://api.spotify.com/v1/artists/0ZLHgeKZXpxW42i2T2s931",
          "id" : "0ZLHgeKZXpxW42i2T2s931",
          "name" : "Ghost Ship",
          "type" : "artist",
          "uri" : "spotify:artist:0ZLHgeKZXpxW42i2T2s931"
        } ],
        "external_urls" : {
          "spotify" : "https://open.spotify.com/album/6RK6TNZLiXPbIWOxtQwAH4"
        },
        "href" : "https://api.spotify.com/v1/albums/6RK6TNZLiXPbIWOxtQwAH4",
        "id" : "6RK6TNZLiXPbIWOxtQwAH4",
        "images" : [ {
          "height" : 640,
          "url" : "https://i.scdn.co/image/ab67616d0000b273305d3c87c7064949926c9fa0",
          "width" : 640
        }, {
          "height" : 300,
          "url" : "https://i.scdn.co/image/ab67616d00001e02305d3c87c7064949926c9fa0",
          "width" : 300
        }, {
          "height" : 64,
          "url" : "https://i.scdn.co/image/ab67616d00004851305d3c87c7064949926c9fa0",
          "width" : 64
        } ],
        "name" : "The Good King",
        "release_date" : "2013-06-11",
        "release_date_precision" : "day",
        "total_tracks" : 11,
        "type" : "album",
        "uri" : "spotify:album:6RK6TNZLiXPbIWOxtQwAH4"
      },
      "artists" : [ {
        "external_urls" : {
          "spotify" : "https://open.spotify.com/artist/0ZLHgeKZXpxW42i2T2s931"
        },
        "href" : "https://api.spotify.com/v1/artists/0ZLHgeKZXpxW42i2T2s931",
        "id" : "0ZLHgeKZXpxW42i2T2s931",
        "name" : "Ghost Ship",
        "type" : "artist",
        "uri" : "spotify:artist:0ZLHgeKZXpxW42i2T2s931"
      } ],
      "disc_number" : 1,
      "duration_ms" : 240880,
      "explicit" : false,
      "external_ids" : {
        "isrc" : "QMVP91200009"
      },
      "external_urls" : {
        "spotify" : "https://open.spotify.com/track/3wQ6pvNjafSlIJGtQgBb5V"
      },
      "href" : "https://api.spotify.com/v1/tracks/3wQ6pvNjafSlIJGtQgBb5V",
      "id" : "3wQ6pvNjafSlIJGtQgBb5V",
      "is_local" : false,
      "is_playable" : true,
      "name" : "Holy Holy Holy",
      "popularity" : 29,
      "preview_url" : "https://p.scdn.co/mp3-preview/8fb327d97f3b67f2a6b5f759da7b75344d81481f?cid=774b29d4f13844c495f206cafdad9c86",
      "track_number" : 7,
      "type" : "track",
      "uri" : "spotify:track:3wQ6pvNjafSlIJGtQgBb5V"
    }, {
      "album" : {
        "album_type" : "album",
        "artists" : [ {
          "external_urls" : {
            "spotify" : "https://open.spotify.com/artist/31CNSjG7i0piX1pwKjMjmp"
          },
          "href" : "https://api.spotify.com/v1/artists/31CNSjG7i0piX1pwKjMjmp",
          "id" : "31CNSjG7i0piX1pwKjMjmp",
          "name" : "Wade McNutt",
          "type" : "artist",
          "uri" : "spotify:artist:31CNSjG7i0piX1pwKjMjmp"
        } ],
        "external_urls" : {
          "spotify" : "https://open.spotify.com/album/3DdyaXLyYTre09FqTirc0t"
        },
        "href" : "https://api.spotify.com/v1/albums/3DdyaXLyYTre09FqTirc0t",
        "id" : "3DdyaXLyYTre09FqTirc0t",
        "images" : [ {
          "height" : 640,
          "url" : "https://i.scdn.co/image/ab67616d0000b2738b629d383e1cd28037cfd43b",
          "width" : 640
        }, {
          "height" : 300,
          "url" : "https://i.scdn.co/image/ab67616d00001e028b629d383e1cd28037cfd43b",
          "width" : 300
        }, {
          "height" : 64,
          "url" : "https://i.scdn.co/image/ab67616d000048518b629d383e1cd28037cfd43b",
          "width" : 64
        } ],
        "name" : "Christian Piano Meditation, Vol. 1",
        "release_date" : "2010-06-01",
        "release_date_precision" : "day",
        "total_tracks" : 12,
        "type" : "album",
        "uri" : "spotify:album:3DdyaXLyYTre09FqTirc0t"
      },
      "artists" : [ {
        "external_urls" : {
          "spotify" : "https://open.spotify.com/artist/31CNSjG7i0piX1pwKjMjmp"
        },
        "href" : "https://api.spotify.com/v1/artists/31CNSjG7i0piX1pwKjMjmp",
        "id" : "31CNSjG7i0piX1pwKjMjmp",
        "name" : "Wade McNutt",
        "type" : "artist",
        "uri" : "spotify:artist:31CNSjG7i0piX1pwKjMjmp"
      } ],
      "disc_number" : 1,
      "duration_ms" : 219560,
      "explicit" : false,
      "external_ids" : {
        "isrc" : "uscgj1058875"
      },
      "external_urls" : {
        "spotify" : "https://open.spotify.com/track/3k8r5DsKEOdUk1Dsk5pNwf"
      },
      "href" : "https://api.spotify.com/v1/tracks/3k8r5DsKEOdUk1Dsk5pNwf",
      "id" : "3k8r5DsKEOdUk1Dsk5pNwf",
      "is_local" : false,
      "is_playable" : true,
      "name" : "Holy, Holy, Holy",
      "popularity" : 30,
      "preview_url" : "https://p.scdn.co/mp3-preview/2d34936bd432195abc89152b4a02d04dcfba213f?cid=774b29d4f13844c495f206cafdad9c86",
      "track_number" : 11,
      "type" : "track",
      "uri" : "spotify:track:3k8r5DsKEOdUk1Dsk5pNwf"
    } ],
    "limit" : 10,
    "next" : "https://api.spotify.com/v1/search?query=Holy%2C+Holy%2C+Holy&type=track&market=US&offset=15&limit=10",
    "offset" : 5,
    "previous" : "https://api.spotify.com/v1/search?query=Holy%2C+Holy%2C+Holy&type=track&market=US&offset=0&limit=10",
    "total" : 100015
  }
}