{
  "tracks" : {
    "href" : "https://api.spotify.com/v1/search?query=Jerusalem%2C+My+Happy+Home&type=track&market=US&offset=5&limit=10",
    "items" : [ {
      "album" : {
        "album_type" : "album",
        "artists" : [ {
          "external_urls" : {
            "spotify" : "https://open.spotify.com/artist/0cylxW7HGdK9xMdubw2oYW"
          },
          "href" : "https://api.spotify.com/v1/artists/0cylxW7HGdK9xMdubw2oYW",
          "id" : "0cylxW7HGdK9xMdubw2oYW",
          "name" : "The O'Neill Brothers Group",
          "type" : "artist",
          "uri" : "spotify:artist:0cylxW7HGdK9xMdubw2oYW"
        }, {
          "external_urls" : {
            "spotify" : "https://open.spotify.com/artist/1fO0DHOhFIvuPtObA3LtHR"
          },
          "href" : "https://api.spotify.com/v1/artists/1fO0DHOhFIvuPtObA3LtHR",
          "id" : "1fO0DHOhFIvuPtObA3LtHR",
          "name" : "Christian Hymns",
          "type" : "artist",
          "uri" : "spotify:artist:1fO0DHOhFIvuPtObA3LtHR"
        } ],
        "external_urls" : {
          "spotify" : "https://open.spotify.com/album/37fAD49mBJLxdBa15uUv01"
        },
        "href" : "https://api.spotify.com/v1/albums/37fAD49mBJLxdBa15uUv01",
        "id" : "37fAD49mBJLxdBa15uUv01",
        "images" : [ {
          "height" : 640,
          "url" : "https://i.scdn.co/image/ab67616d0000b273abf01c3d98a5ffc4ffea5ba7",
          "width" : 640
        }, {
          "height" : 300,
          "url" : "https://i.scdn.co/image/ab67616d00001e02abf01c3d98a5ffc4ffea5ba7",
          "width" : 300
        }, {
          "height" : 64,
          "url" : "https://i.scdn.co/image/ab67616d00004851abf01c3d98a5ffc4ffea5ba7",
          "width" : 64
        } ],
        "name" : "Christian Meditation on Acoustic Guitar",
        "release_date" : "2020-03-16",
        "release_date_precision" : "day",
        "total_tracks" : 15,
        "type" : "album",
        "uri" : "spotify:album:37fAD49mBJLxdBa15uUv01"
      },
      "artists" : [ {
        "external_urls" : {
          "spotify" : "https://open.spotify.com/artist/0cylxW7HGdK9xMdubw2oYW"
        },
        "href" : "https://api.spotify.com/v1/artists/0cylxW7HGdK9xMdubw2oYW",
        "id" : "0cylxW7HGdK9xMdubw2oYW",
        "name" : "The O'Neill Brothers Group",
        "type" : "artist",
        "uri" : "spotify:artist:0cylxW7HGdK9xMdubw2oYW"
      }, {
        "external_urls" : {
          "spotify" : "https://open.spotify.com/artist/1fO0DHOhFIvuPtObA3LtHR"
        },
        "href" : "https://api.spotify.com/v1/artists/1fO0DHOhFIvuPtObA3LtHR",
        "id" : "1fO0DHOhFIvuPtObA3LtHR",
        "name" : "Christian Hymns",
        "type" : "artist",
        "uri" : "spotify:artist:1fO0DHOhFIvuPtObA3LtHR"
      } ],
      "disc_number" : 1,
      "duration_ms" : 269976,
      "explicit" : false,
      "external_ids" : {
        "isrc" : "TCAER2003980"
      },
      "external_urls" : {
        "spotify" : "https://open.spotify.com/track/4dQUekz0oQUPu2j6xRfmhz"
      },
      "href" : "https://api.spotify.com/v1/tracks/4dQUekz0oQUPu2j6xRfmhz",
      "id" : "4dQUekz0oQUPu2j6xRfmhz",
      "is_local" : false,
      "is_playable" : true,
      "name" : "Snowfall (Jerusalem, My Happy Home) [Instrumental Version]",
      "popularity" : 10,
      "preview_url" : "https://p.scdn.co/mp3-preview/7ddf308c68bf9f2e12b75eb1e02dd39598b1281a?cid=774b29d4f13844c495f206cafdad9c86",
      "track_number" : 11,
      "type" : "track",
      "uri" : "spotify:track:4dQUekz0oQUPu2j6xRfmhz"
    }, {
      "album" : {
        "album_type" : "album",
        "artists" : [ {
          "external_urls" : {
            "spotify" : "https://open.spotify.com/artist/4fMhmL6pvw61o0C1z8Bdib"
          },
          "href" : "https://api.spotify.com/v1/artists/4fMhmL6pvw61o0C1z8Bdib",
          "id" : "4fMhmL6pvw61o0C1z8Bdib",
          "name" : "Ralph Stanley",
          "type" : "artist",
          "uri" : "spotify:artist:4fMhmL6pvw61o0C1z8Bdib"
        } ],
        "external_urls" : {
          "spotify" : "https://open.spotify.com/album/4rtaE4ruBju1L6W5SVFTyp"
        },
        "href" : "https://api.spotify.com/v1/albums/4rtaE4ruBju1L6W5SVFTyp",
        "id" : "4rtaE4ruBju1L6W5SVFTyp",
        "images" : [ {
          "height" : 640,
          "url" : "https://i.scdn.co/image/ab67616d0000b27391c9813463715dfa5f7d6a23",
          "width" : 640
        }, {
          "height" : 300,
          "url" : "https://i.scdn.co/image/ab67616d00001e0291c9813463715dfa5f7d6a23",
          "width" : 300
        }, {
          "height" : 64,
          "url" : "https://i.scdn.co/image/ab67616d0000485191c9813463715dfa5f7d6a23",
          "width" : 64
        } ],
        "name" : "Almost Home",
        "release_date" : "2011-10-30",
        "release_date_precision" : "day",
        "total_tracks" : 12,
        "type" : "album",
        "uri" : "spotify:album:4rtaE4ruBju1L6W5SVFTyp"
      },
      "artists" : [ {
        "external_urls" : {
          "spotify" : "https://open.spotify.com/artist/4fMhmL6pvw61o0C1z8Bdib"
        },
        "href" : "https://api.spotify.com/v1/artists/4fMhmL6pvw61o0C1z8Bdib",
        "id" : "4fMhmL6pvw61o0C1z8Bdib",
        "name" : "Ralph Stanley",
        "type" : "artist",
        "uri" : "spotify:artist:4fMhmL6pvw61o0C1z8Bdib"
      } ],
      "disc_number" : 1,
      "duration_ms" : 311906,
      "explicit" : false,
      "external_ids" : {
        "isrc" : "US37G0401023"
      },
      "external_urls" : {
        "spotify" : "https://open.spotify.com/track/5mDU2FFXE1XV6WtsCjZOHY"
      },
      "href" : "https://api.spotify.com/v1/tracks/5mDU2FFXE1XV6WtsCjZOHY",
      "id" : "5mDU2FFXE1XV6WtsCjZOHY",
      "is_local" : false,
      "is_playable" : true,
      "name" : "Jerusalem, My Happy Home",
      "popularity" : 7,
      "preview_url" : "https://p.scdn.co/mp3-preview/496988edc1db0739d3ce2ef0df25d46106918a8e?cid=774b29d4f13844c495f206cafdad9c86",
      "track_number" : 12,
      "type" : "track",
      "uri" : "spotify:track:5mDU2FFXE1XV6WtsCjZOHY"
    }, {
      "album" : {
        "album_type" : "album",
        "artists" : [ {
          "external_urls" : {
            "spotify" : "https://open.spotify.com/artist/1Z8g2GqOxjQn2DWknQAkNG"
          },
          "href" : "https://api.spotify.com/v1/artists/1Z8g2GqOxjQn2DWknQAkNG",
          "id" : "1Z8g2GqOxjQn2DWknQAkNG",
          "name" : "Peter Richard Conte",
          "type" : "artist",
          "uri" : "spotify:artist:1Z8g2GqOxjQn2DWknQAkNG"
        } ],
        "external_urls" : {
          "spotify" : "https://open.spotify.com/album/7bkBRteetNWBERWsokbMfw"
        },
        "href" : "https://api.spotify.com/v1/albums/7bkBRteetNWBERWsokbMfw",
        "id" : "7bkBRteetNWBERWsokbMfw",
        "images" : [ {
          "height" : 640,
          "url" : "https://i.scdn.co/image/ab67616d0000b273863f93e48b01cd7306087766",
          "width" : 640
        }, {
          "height" : 300,
          "url" : "https://i.scdn.co/image/ab67616d00001e02863f93e48b01cd7306087766",
          "width" : 300
        }, {
          "height" : 64,
          "url" : "https://i.scdn.co/image/ab67616d00004851863f93e48b01cd7306087766",
          "width" : 64
        } ],
        "name" : "Choral Concert: Saint Clement's Choir - Howells, H. / Bax, A. / Horsley, W. / Harris, W.H. / Stanford, C.V. / Ferguson, W. (Hymns of Heaven and Earth)",
        "release_date" : "1998-01-01",
        "release_date_precision" : "day",
        "total_tracks" : 20,
        "type" : "album",
        "uri" : "spotify:album:7bkBRteetNWBERWsokbMfw"
      },
      "artists" : [ {
        "external_urls" : {
          "spotify" : "https://open.spotify.com/artist/1U5zgr455OGyIkLNXvDdrf"
        },
        "href" : "https://api.spotify.com/v1/artists/1U5zgr455OGyIkLNXvDdrf",
        "id" : "1U5zgr455OGyIkLNXvDdrf",
        "name" : "Traditional",
        "type" : "artist",
        "uri" : "spotify:artist:1U5zgr455OGyIkLNXvDdrf"
      }, {
        "external_urls" : {
          "spotify" : "https://open.spotify.com/artist/1Z8g2GqOxjQn2DWknQAkNG"
        },
        "href" : "https://api.spotify.com/v1/artists/1Z8g2GqOxjQn2DWknQAkNG",
        "id" : "1Z8g2GqOxjQn2DWknQAkNG",
        "name" : "Peter Richard Conte",
        "type" : "artist",
        "uri" : "spotify:artist:1Z8g2GqOxjQn2DWknQAkNG"
      }, {
        "external_urls" : {
          "spotify" : "https://open.spotify.com/artist/0Y1pD914Vchv97RhYOIakK"
        },
        "href" : "https://api.spotify.com/v1/artists/0Y1pD914Vchv97RhYOIakK",
        "id" : "0Y1pD914Vchv97RhYOIakK",
        "name" : "Annabel Morris Buchanan",
        "type" : "artist",
        "uri" : "spotify:artist:0Y1pD914Vchv97RhYOIakK"
      }, {
        "external_urls" : {
          "spotify" : "https://open.spotify.com/artist/7EhE2O1Ei28BClImQAYaBT"
        },
        "href" : "https://api.spotify.com/v1/artists/7EhE2O1Ei28BClImQAYaBT",
        "id" : "7EhE2O1Ei28BClImQAYaBT",
        "name" : "Saint Clement's Choir, Philadelphia",
        "type" : "artist",
        "uri" : "spotify:artist:7EhE2O1Ei28BClImQAYaBT"
      }, {
        "external_urls" : {
          "spotify" : "https://open.spotify.com/artist/2wttxP10Vo9Cp2t7ab0NDs"
        },
        "href" : "https://api.spotify.com/v1/artists/2wttxP10Vo9Cp2t7ab0NDs",
        "id" : "2wttxP10Vo9Cp2t7ab0NDs",
        "name" : "Matthew Glandorf",
        "type" : "artist",
        "uri" : "spotify:artist:2wttxP10Vo9Cp2t7ab0NDs"
      } ],
      "disc_number" : 1,
      "duration_ms" : 203493,
      "explicit" : false,
      "external_ids" : {
        "isrc" : "USKC60714756"
      },
      "external_urls" : {
        "spotify" : "https://open.spotify.com/track/1V3U2rTxCwiU8JZbMn4siA"
      },
      "href" : "https://api.spotify.com/v1/tracks/1V3U2rTxCwiU8JZbMn4siA",
      "id" : "1V3U2rTxCwiU8JZbMn4siA",
      "is_local" : false,
      "is_playable" : true,
      "name" : "Jerusalem, my happy home (Land of Rest)",
      "popularity" : 5,
      "preview_url" : "https://p.scdn.co/mp3-preview/9ce68c4f697e2f01ffe51ec22d9d1cabecb5e600?cid=774b29d4f13844c495f206cafdad9c86",
      "track_number" : 7,
      "type" : "track",
      "uri" : "spotify:track:1V3U2rTxCwiU8JZbMn4siA"
    }, {
      "album" : {
        "album_type" : "album",
        "artists" : [ {
          "external_urls" : {
            "spotify" : "https://open.spotify.com/artist/1IYk7Dbm3X8vVAgrK8tNbv"
          },
          "href" : "https://api.spotify.com/v1/artists/1IYk7Dbm3X8vVAgrK8tNbv",
          "id" : "1IYk7Dbm3X8vVAgrK8tNbv",
          "name" : "Eric Wyse",
          "type" : "artist",
          "uri" : "spotify:artist:1IYk7Dbm3X8vVAgrK8tNbv"
        } ],
        "external_urls" : {
          "spotify" : "https://open.spotify.com/album/1zFz5n7VFFePfXPBOmAwTR"
        },
        "href" : "https://api.spotify.com/v1/albums/1zFz5n7VFFePfXPBOmAwTR",
        "id" : "1zFz5n7VFFePfXPBOmAwTR",
        "images" : [ {
          "height" : 640,
          "url" : "https://i.scdn.co/image/ab67616d0000b273addd2017ed9cdcfbccc59e6e",
          "width" : 640
        }, {
          "height" : 300,
          "url" : "https://i.scdn.co/image/ab67616d00001e02addd2017ed9cdcfbccc59e6e",
          "width" : 300
        }, {
          "height" : 64,
          "url" : "https://i.scdn.co/image/ab67616d00004851addd2017ed9cdcfbccc59e6e",
          "width" : 64
        } ],
        "name" : "Reflections volume 1 - 60 Songs of Devotion on solo piano",
        "release_date" : "2013-03-07",
        "release_date_precision" : "day",
        "total_tracks" : 57,
        "type" : "album",
        "uri" : "spotify:album:1zFz5n7VFFePfXPBOmAwTR"
      },
      "artists" : [ {
        "external_urls" : {
          "spotify" : "https://open.spotify.com/artist/1IYk7Dbm3X8vVAgrK8tNbv"
        },
        "href" : "https://api.spotify.com/v1/artists/1IYk7Dbm3X8vVAgrK8tNbv",
        "id" : "1IYk7Dbm3X8vVAgrK8tNbv",
        "name" : "Eric Wyse",
        "type" : "artist",
        "uri" : "spotify:artist:1IYk7Dbm3X8vVAgrK8tNbv"
      } ],
      "disc_number" : 3,
      "duration_ms" : 111466,
      "explicit" : false,
      "external_ids" : {
        "isrc" : "USG5S1230255"
      },
      "external_urls" : {
        "spotify" : "https://open.spotify.com/track/1K7RnWJpB31z6wmaylVD1b"
      },
      "href" : "https://api.spotify.com/v1/tracks/1K7RnWJpB31z6wmaylVD1b",
      "id" : "1K7RnWJpB31z6wmaylVD1b",
      "is_local" : false,
      "is_playable" : true,
      "name" : "Jerusalem, My Happy Home",
      "popularity" : 5,
      "preview_url" : "https://p.scdn.co/mp3-preview/84bd9d518976f92b6826171313817158d7d2797a?cid=774b29d4f13844c495f206cafdad9c86",
      "track_number" : 17,
      "type" : "track",
      "uri" : "spotify:track:1K7RnWJpB31z6wmaylVD1b"
    }, {
      "album" : {
        "album_type" : "album",
        "artists" : [ {
          "external_urls" : {
            "spotify" : "https://open.spotify.com/artist/1Sb0VOGcEPkovyxsa2HQi6"
          },
          "href" : "https://api.spotify.com/v1/artists/1Sb0VOGcEPkovyxsa2HQi6",
          "id" : "1Sb0VOGcEPkovyxsa2HQi6",
          "name" : "Stephen Petrunak",
          "type" : "artist",
          "uri" : "spotify:artist:1Sb0VOGcEPkovyxsa2HQi6"
        } ],
        "external_urls" : {
          "spotify" : "https://open.spotify.com/album/4iq16JkZjgLiKDwclvK98E"
        },
        "href" : "https://api.spotify.com/v1/albums/4iq16JkZjgLiKDwclvK98E",
        "id" : "4iq16JkZjgLiKDwclvK98E",
        "images" : [ {
          "height" : 640,
          "url" : "https://i.scdn.co/image/ab67616d0000b273fd155b3b201e13ac7f8d885d",
          "width" : 640
        }, {
          "height" : 300,
          "url" : "https://i.scdn.co/image/ab67616d00001e02fd155b3b201e13ac7f8d885d",
          "width" : 300
        }, {
          "height" : 64,
          "url" : "https://i.scdn.co/image/ab67616d00004851fd155b3b201e13ac7f8d885d",
          "width" : 64
        } ],
        "name" : "Love Beyond All Measure",
        "release_date" : "2008-01-01",
        "release_date_precision" : "day",
        "total_tracks" : 13,
        "type" : "album",
        "uri" : "spotify:album:4iq16JkZjgLiKDwclvK98E"
      },
      "artists" : [ {
        "external_urls" : {
          "spotify" : "https://open.spotify.com/artist/1Sb0VOGcEPkovyxsa2HQi6"
        },
        "href" : "https://api.spotify.com/v1/artists/1Sb0VOGcEPkovyxsa2HQi6",
        "id" : "1Sb0VOGcEPkovyxsa2HQi6",
        "name" : "Stephen Petrunak",
        "type" : "artist",
        "uri" : "spotify:artist:1Sb0VOGcEPkovyxsa2HQi6"
      } ],
      "disc_number" : 1,
      "duration_ms" : 241986,
      "explicit" : false,
      "external_ids" : {
        "isrc" : "US7850810428"
      },
      "external_urls" : {
        "spotify" : "https://open.spotify.com/track/0YuljXS7ojrzdDJQPlthBN"
      },
      "href" : "https://api.spotify.com/v1/tracks/0YuljXS7ojrzdDJQPlthBN",
      "id" : "0YuljXS7ojrzdDJQPlthBN",
      "is_local" : false,
      "is_playable" : true,
      "name" : "Jerusalem, My Happy Home",
      "popularity" : 2,
      "preview_url" : "https://p.scdn.co/mp3-preview/63d8007a5f6c54f8a1655d1ad28e4b16de4fbaa0?cid=774b29d4f13844c495f206cafdad9c86",
      "track_number" : 1,
      "type" : "track",
      "uri" : "spotify:track:0YuljXS7ojrzdDJQPlthBN"
    }, {
      "album" : {
        "album_type" : "album",
        "artists" : [ {
          "external_urls" : {
            "spotify" : "https://open.spotify.com/artist/41N4x8ZUxk7JkHORj8M3bd"
          },
          "href" : "https://api.spotify.com/v1/artists/41N4x8ZUxk7JkHORj8M3bd",
          "id" : "41N4x8ZUxk7JkHORj8M3bd",
          "name" : "Concordia Publishing House",
          "type" : "artist",
          "uri" : "spotify:artist:41N4x8ZUxk7JkHORj8M3bd"
        } ],
        "external_urls" : {
          "spotify" : "https://open.spotify.com/album/5wW6s9v2aoSUiiBlqPRurb"
        },
        "href" : "https://api.spotify.com/v1/albums/5wW6s9v2aoSUiiBlqPRurb",
        "id" : "5wW6s9v2aoSUiiBlqPRurb",
        "images" : [ {
          "height" : 640,
          "url" : "https://i.scdn.co/image/ab67616d0000b27341457746d35d086693798c6b",
          "width" : 640
        }, {
          "height" : 300,
          "url" : "https://i.scdn.co/image/ab67616d00001e0241457746d35d086693798c6b",
          "width" : 300
        }, {
          "height" : 64,
          "url" : "https://i.scdn.co/image/ab67616d0000485141457746d35d086693798c6b",
          "width" : 64
        } ],
        "name" : "Hymns for All Saints: Adoration, Praise, Comfort",
        "release_date" : "2004",
        "release_date_precision" : "year",
        "total_tracks" : 19,
        "type" : "album",
        "uri" : "spotify:album:5wW6s9v2aoSUiiBlqPRurb"
      },
      "artists" : [ {
        "external_urls" : {
          "spotify" : "https://open.spotify.com/artist/41N4x8ZUxk7JkHORj8M3bd"
        },
        "href" : "https://api.spotify.com/v1/artists/41N4x8ZUxk7JkHORj8M3bd",
        "id" : "41N4x8ZUxk7JkHORj8M3bd",
        "name" : "Concordia Publishing House",
        "type" : "artist",
        "uri" : "spotify:artist:41N4x8ZUxk7JkHORj8M3bd"
      } ],
      "disc_number" : 1,
      "duration_ms" : 239106,
      "explicit" : false,
      "external_ids" : {
        "isrc" : "US2SL0900601"
      },
      "external_urls" : {
        "spotify" : "https://open.spotify.com/track/25pF2j39GCRFhU4X7fhaT9"
      },
      "href" : "https://api.spotify.com/v1/tracks/25pF2j39GCRFhU4X7fhaT9",
      "id" : "25pF2j39GCRFhU4X7fhaT9",
      "is_local" : false,
      "is_playable" : true,
      "name" : "Jerusalem, My Happy Home",
      "popularity" : 2,
      "preview_url" : "https://p.scdn.co/mp3-preview/f0502395860fcf64094e355dc22e426418f2cc17?cid=774b29d4f13844c495f206cafdad9c86",
      "track_number" : 4,
      "type" : "track",
      "uri" : "spotify:track:25pF2j39GCRFhU4X7fhaT9"
    }, {
      "album" : {
        "album_type" : "album",
        "artists" : [ {
          "external_urls" : {
            "spotify" : "https://open.spotify.com/artist/7bHFi6kFtU1mRXiMeDabX6"
          },
          "href" : "https://api.spotify.com/v1/artists/7bHFi6kFtU1mRXiMeDabX6",
          "id" : "7bHFi6kFtU1mRXiMeDabX6",
          "name" : "Tony Alonso",
          "type" : "artist",
          "uri" : "spotify:artist:7bHFi6kFtU1mRXiMeDabX6"
        } ],
        "external_urls" : {
          "spotify" : "https://open.spotify.com/album/6NizistovcmyrBdf6wFxpR"
        },
        "href" : "https://api.spotify.com/v1/albums/6NizistovcmyrBdf6wFxpR",
        "id" : "6NizistovcmyrBdf6wFxpR",
        "images" : [ {
          "height" : 640,
          "url" : "https://i.scdn.co/image/ab67616d0000b273b30525965497f04065e28a95",
          "width" : 640
        }, {
          "height" : 300,
          "url" : "https://i.scdn.co/image/ab67616d00001e02b30525965497f04065e28a95",
          "width" : 300
        }, {
          "height" : 64,
          "url" : "https://i.scdn.co/image/ab67616d00004851b30525965497f04065e28a95",
          "width" : 64
        } ],
        "name" : "Revival: Traditional Hymns for Contemporary Ensembles",
        "release_date" : "2017-09-15",
        "release_date_precision" : "day",
        "total_tracks" : 14,
        "type" : "album",
        "uri" : "spotify:album:6NizistovcmyrBdf6wFxpR"
      },
      "artists" : [ {
        "external_urls" : {
          "spotify" : "https://open.spotify.com/artist/7bHFi6kFtU1mRXiMeDabX6"
        },
        "href" : "https://api.spotify.com/v1/artists/7bHFi6kFtU1mRXiMeDabX6",
        "id" : "7bHFi6kFtU1mRXiMeDabX6",
        "name" : "Tony Alonso",
        "type" : "artist",
        "uri" : "spotify:artist:7bHFi6kFtU1mRXiMeDabX6"
      } ],
      "disc_number" : 1,
      "duration_ms" : 240573,
      "explicit" : false,
      "external_ids" : {
        "isrc" : "US7851700210"
      },
      "external_urls" : {
        "spotify" : "https://open.spotify.com/track/04oEZfdOweAvQJ6XKnyyTY"
      },
      "href" : "https://api.spotify.com/v1/tracks/04oEZfdOweAvQJ6XKnyyTY",
      "id" : "04oEZfdOweAvQJ6XKnyyTY",
      "is_local" : false,
      "is_playable" : true,
      "name" : "Jerusalem, My Happy Home",
      "popularity" : 2,
      "preview_url" : "https://p.scdn.co/mp3-preview/64284b710a3e49631a3afe209dbadfa61a4ea088?cid=774b29d4f13844c495f206cafdad9c86",
      "track_number" : 9,
      "type" : "track",
      "uri" : "spotify:track:04oEZfdOweAvQJ6XKnyyTY"
    }, {
      "album" : {
        "album_type" : "album",
        "artists" : [ {
          "external_urls" : {
            "spotify" : "https://open.spotify.com/artist/72SWPY3YDiQr8FF1qYBnIG"
          },
          "href" : "https://api.spotify.com/v1/artists/72SWPY3YDiQr8FF1qYBnIG",
          "id" : "72SWPY3YDiQr8FF1qYBnIG",
          "name" : "The Schola Cantorum of St. Peter's in the Loop",
          "type" : "artist",
          "uri" : "spotify:artist:72SWPY3YDiQr8FF1qYBnIG"
        } ],
        "external_urls" : {
          "spotify" : "https://open.spotify.com/album/1NEizUune7MeN74fjuvrUw"
        },
        "href" : "https://api.spotify.com/v1/albums/1NEizUune7MeN74fjuvrUw",
        "id" : "1NEizUune7MeN74fjuvrUw",
        "images" : [ {
          "height" : 640,
          "url" : "https://i.scdn.co/image/ab67616d0000b273756b22650dd7904623130b39",
          "width" : 640
        }, {
          "height" : 300,
          "url" : "https://i.scdn.co/image/ab67616d00001e02756b22650dd7904623130b39",
          "width" : 300
        }, {
          "height" : 64,
          "url" : "https://i.scdn.co/image/ab67616d00004851756b22650dd7904623130b39",
          "width" : 64
        } ],
        "name" : "Music For The November Feasts",
        "release_date" : "2005",
        "release_date_precision" : "year",
        "total_tracks" : 22,
        "type" : "album",
        "uri" : "spotify:album:1NEizUune7MeN74fjuvrUw"
      },
      "artists" : [ {
        "external_urls" : {
          "spotify" : "https://open.spotify.com/artist/72SWPY3YDiQr8FF1qYBnIG"
        },
        "href" : "https://api.spotify.com/v1/artists/72SWPY3YDiQr8FF1qYBnIG",
        "id" : "72SWPY3YDiQr8FF1qYBnIG",
        "name" : "The Schola Cantorum of St. Peter's in the Loop",
        "type" : "artist",
        "uri" : "spotify:artist:72SWPY3YDiQr8FF1qYBnIG"
      } ],
      "disc_number" : 1,
      "duration_ms" : 181173,
      "explicit" : false,
      "external_ids" : {
        "isrc" : "USDRY1011017"
      },
      "external_urls" : {
        "spotify" : "https://open.spotify.com/track/4I3lRIxzANVmRTqkwVJzJY"
      },
      "href" : "https://api.spotify.com/v1/tracks/4I3lRIxzANVmRTqkwVJzJY",
      "id" : "4I3lRIxzANVmRTqkwVJzJY",
      "is_local" : false,
      "is_playable" : true,
      "name" : "Jerusalem, My Happy Home",
      "popularity" : 2,
      "preview_url" : "https://p.scdn.co/mp3-preview/38e53657d9993ec50e77b2a08ed6ba729be8f145?cid=774b29d4f13844c495f206cafdad9c86",
      "track_number" : 4,
      "type" : "track",
      "uri" : "spotify:track:4I3lRIxzANVmRTqkwVJzJY"
    }, {
      "album" : {
        "album_type" : "album",
        "artists" : [ {
          "external_urls" : {
            "spotify" : "https://open.spotify.com/artist/4k5gaSPRZvEwn4eTxuevAX"
          },
          "href" : "https://api.spotify.com/v1/artists/4k5gaSPRZvEwn4eTxuevAX",
          "id" : "4k5gaSPRZvEwn4eTxuevAX",
          "name" : "Jon Sarta",
          "type" : "artist",
          "uri" : "spotify:artist:4k5gaSPRZvEwn4eTxuevAX"
        } ],
        "external_urls" : {
          "spotify" : "https://open.spotify.com/album/4oO6YH5XZ5hrq1BjqChU4q"
        },
        "href" : "https://api.spotify.com/v1/albums/4oO6YH5XZ5hrq1BjqChU4q",
        "id" : "4oO6YH5XZ5hrq1BjqChU4q",
        "images" : [ {
          "height" : 640,
          "url" : "https://i.scdn.co/image/ab67616d0000b2737d4a4e2c38560c14251a4fe1",
          "width" : 640
        }, {
          "height" : 300,
          "url" : "https://i.scdn.co/image/ab67616d00001e027d4a4e2c38560c14251a4fe1",
          "width" : 300
        }, {
          "height" : 64,
          "url" : "https://i.scdn.co/image/ab67616d000048517d4a4e2c38560c14251a4fe1",
          "width" : 64
        } ],
        "name" : "Catholic Music Project 18: From Death Unto Life",
        "release_date" : "2016-08-01",
        "release_date_precision" : "day",
        "total_tracks" : 24,
        "type" : "album",
        "uri" : "spotify:album:4oO6YH5XZ5hrq1BjqChU4q"
      },
      "artists" : [ {
        "external_urls" : {
          "spotify" : "https://open.spotify.com/artist/4k5gaSPRZvEwn4eTxuevAX"
        },
        "href" : "https://api.spotify.com/v1/artists/4k5gaSPRZvEwn4eTxuevAX",
        "id" : "4k5gaSPRZvEwn4eTxuevAX",
        "name" : "Jon Sarta",
        "type" : "artist",
        "uri" : "spotify:artist:4k5gaSPRZvEwn4eTxuevAX"
      } ],
      "disc_number" : 1,
      "duration_ms" : 173906,
      "explicit" : false,
      "external_ids" : {
        "isrc" : "ushm81675843"
      },
      "external_urls" : {
        "spotify" : "https://open.spotify.com/track/1s00elvdECseBSzPSA3zvC"
      },
      "href" : "https://api.spotify.com/v1/tracks/1s00elvdECseBSzPSA3zvC",
      "id" : "1s00elvdECseBSzPSA3zvC",
      "is_local" : false,
      "is_playable" : true,
      "name" : "Jerusalem My Happy Home",
      "popularity" : 2,
      "preview_url" : "https://p.scdn.co/mp3-preview/bc3e2f83223104203af381db09b86f0bba5790a9?cid=774b29d4f13844c495f206cafdad9c86",
      "track_number" : 9,
      "type" : "track",
      "uri" : "spotify:track:1s00elvdECseBSzPSA3zvC"
    }, {
      "album" : {
        "album_type" : "album",
        "artists" : [ {
          "external_urls" : {
            "spotify" : "https://open.spotify.com/artist/7bizRFC2Gv4F2XxgamNwNy"
          },
          "href" : "https://api.spotify.com/v1/artists/7bizRFC2Gv4F2XxgamNwNy",
          "id" : "7bizRFC2Gv4F2XxgamNwNy",
          "name" : "Koiné",
          "type" : "artist",
          "uri" : "spotify:artist:7bizRFC2Gv4F2XxgamNwNy"
        } ],
        "external_urls" : {
          "spotify" : "https://open.spotify.com/album/7KxzUhdfBzqheQJiN5mvzw"
        },
        "href" : "https://api.spotify.com/v1/albums/7KxzUhdfBzqheQJiN5mvzw",
        "id" : "7KxzUhdfBzqheQJiN5mvzw",
        "images" : [ {
          "height" : 640,
          "url" : "https://i.scdn.co/image/ab67616d0000b273b1712c4e354c097d50c1f9bd",
          "width" : 640
        }, {
          "height" : 300,
          "url" : "https://i.scdn.co/image/ab67616d00001e02b1712c4e354c097d50c1f9bd",
          "width" : 300
        }, {
          "height" : 64,
          "url" : "https://i.scdn.co/image/ab67616d00004851b1712c4e354c097d50c1f9bd",
          "width" : 64
        } ],
        "name" : "Koiné",
        "release_date" : "2006",
        "release_date_precision" : "year",
        "total_tracks" : 10,
        "type" : "album",
        "uri" : "spotify:album:7KxzUhdfBzqheQJiN5mvzw"
      },
      "artists" : [ {
        "external_urls" : {
          "spotify" : "https://open.spotify.com/artist/7bizRFC2Gv4F2XxgamNwNy"
        },
        "href" : "https://api.spotify.com/v1/artists/7bizRFC2Gv4F2XxgamNwNy",
        "id" : "7bizRFC2Gv4F2XxgamNwNy",
        "name" : "Koiné",
        "type" : "artist",
        "uri" : "spotify:artist:7bizRFC2Gv4F2XxgamNwNy"
      } ],
      "disc_number" : 1,
      "duration_ms" : 170666,
      "explicit" : false,
      "external_ids" : {
        "isrc" : "ushm90877189"
      },
      "external_urls" : {
        "spotify" : "https://open.spotify.com/track/7D04xMlGKF1smrMutWRXy2"
      },
      "href" : "https://api.spotify.com/v1/tracks/7D04xMlGKF1smrMutWRXy2",
      "id" : "7D04xMlGKF1smrMutWRXy2",
      "is_local" : false,
      "is_playable" : true,
      "name" : "Jerusalem My Happy Home",
      "popularity" : 2,
      "preview_url" : "https://p.scdn.co/mp3-preview/3af3cdfb6ce38c8183fea609eafab4286ad704c0?cid=774b29d4f13844c495f206cafdad9c86",
      "track_number" : 9,
      "type" : "track",
      "uri" : "spotify:track:7D04xMlGKF1smrMutWRXy2"
    } ],
    "limit" : 10,
    "next" : "https://api.spotify.com/v1/search?query=Jerusalem%2C+My+Happy+Home&type=track&market=US&offset=15&limit=10",
    "offset" : 5,
    "previous" : "https://api.spotify.com/v1/search?query=Jerusalem%2C+My+Happy+Home&type=track&market=US&offset=0&limit=10",
    "total" : 60
  }
}