{
  "tracks" : {
    "href" : "https://api.spotify.com/v1/search?query=The+First+Noel&type=track&market=US&offset=5&limit=10",
    "items" : [ {
      "album" : {
        "album_type" : "album",
        "artists" : [ {
          "external_urls" : {
            "spotify" : "https://open.spotify.com/artist/4sj6D0zlMOl25nprDJBiU9"
          },
          "href" : "https://api.spotify.com/v1/artists/4sj6D0zlMOl25nprDJBiU9",
          "id" : "4sj6D0zlMOl25nprDJBiU9",
          "name" : "Andy Williams",
          "type" : "artist",
          "uri" : "spotify:artist:4sj6D0zlMOl25nprDJBiU9"
        } ],
        "external_urls" : {
          "spotify" : "https://open.spotify.com/album/4dcJHxlOJwtyypL7sx1qch"
        },
        "href" : "https://api.spotify.com/v1/albums/4dcJHxlOJwtyypL7sx1qch",
        "id" : "4dcJHxlOJwtyypL7sx1qch",
        "images" : [ {
          "height" : 640,
          "url" : "https://i.scdn.co/image/ab67616d0000b27398073965947f92f1641b8356",
          "width" : 640
        }, {
          "height" : 300,
          "url" : "https://i.scdn.co/image/ab67616d00001e0298073965947f92f1641b8356",
          "width" : 300
        }, {
          "height" : 64,
          "url" : "https://i.scdn.co/image/ab67616d0000485198073965947f92f1641b8356",
          "width" : 64
        } ],
        "name" : "The Andy Williams Christmas Album",
        "release_date" : "1963-11-24",
        "release_date_precision" : "day",
        "total_tracks" : 12,
        "type" : "album",
        "uri" : "spotify:album:4dcJHxlOJwtyypL7sx1qch"
      },
      "artists" : [ {
        "external_urls" : {
          "spotify" : "https://open.spotify.com/artist/4sj6D0zlMOl25nprDJBiU9"
        },
        "href" : "https://api.spotify.com/v1/artists/4sj6D0zlMOl25nprDJBiU9",
        "id" : "4sj6D0zlMOl25nprDJBiU9",
        "name" : "Andy Williams",
        "type" : "artist",
        "uri" : "spotify:artist:4sj6D0zlMOl25nprDJBiU9"
      } ],
      "disc_number" : 1,
      "duration_ms" : 187000,
      "explicit" : false,
      "external_ids" : {
        "isrc" : "USSM19912716"
      },
      "external_urls" : {
        "spotify" : "https://open.spotify.com/track/1DvjCIefxg1YsdG3ETROph"
      },
      "href" : "https://api.spotify.com/v1/tracks/1DvjCIefxg1YsdG3ETROph",
      "id" : "1DvjCIefxg1YsdG3ETROph",
      "is_local" : false,
      "is_playable" : true,
      "name" : "The First Noël",
      "popularity" : 24,
      "preview_url" : "https://p.scdn.co/mp3-preview/dce035fc8c08301008c56dee8d7093dee101e2b0?cid=774b29d4f13844c495f206cafdad9c86",
      "track_number" : 7,
      "type" : "track",
      "uri" : "spotify:track:1DvjCIefxg1YsdG3ETROph"
    }, {
      "album" : {
        "album_type" : "compilation",
        "artists" : [ {
          "external_urls" : {
            "spotify" : "https://open.spotify.com/artist/0LyfQWJT6nXafLPZqxe9Of"
          },
          "href" : "https://api.spotify.com/v1/artists/0LyfQWJT6nXafLPZqxe9Of",
          "id" : "0LyfQWJT6nXafLPZqxe9Of",
          "name" : "Various Artists",
          "type" : "artist",
          "uri" : "spotify:artist:0LyfQWJT6nXafLPZqxe9Of"
        } ],
        "external_urls" : {
          "spotify" : "https://open.spotify.com/album/0wMljJkbo5ZcspfK2VzMgz"
        },
        "href" : "https://api.spotify.com/v1/albums/0wMljJkbo5ZcspfK2VzMgz",
        "id" : "0wMljJkbo5ZcspfK2VzMgz",
        "images" : [ {
          "height" : 640,
          "url" : "https://i.scdn.co/image/ab67616d0000b273b1c6e4f419e06a59d081c9d7",
          "width" : 640
        }, {
          "height" : 300,
          "url" : "https://i.scdn.co/image/ab67616d00001e02b1c6e4f419e06a59d081c9d7",
          "width" : 300
        }, {
          "height" : 64,
          "url" : "https://i.scdn.co/image/ab67616d00004851b1c6e4f419e06a59d081c9d7",
          "width" : 64
        } ],
        "name" : "Windham Hill Holiday Guitar Collection",
        "release_date" : "1990",
        "release_date_precision" : "year",
        "total_tracks" : 15,
        "type" : "album",
        "uri" : "spotify:album:0wMljJkbo5ZcspfK2VzMgz"
      },
      "artists" : [ {
        "external_urls" : {
          "spotify" : "https://open.spotify.com/artist/1o9c8sfXo2HKF95bWvPUbN"
        },
        "href" : "https://api.spotify.com/v1/artists/1o9c8sfXo2HKF95bWvPUbN",
        "id" : "1o9c8sfXo2HKF95bWvPUbN",
        "name" : "W.G. Snuffy Walden",
        "type" : "artist",
        "uri" : "spotify:artist:1o9c8sfXo2HKF95bWvPUbN"
      } ],
      "disc_number" : 1,
      "duration_ms" : 223440,
      "explicit" : false,
      "external_ids" : {
        "isrc" : "USWH10200045"
      },
      "external_urls" : {
        "spotify" : "https://open.spotify.com/track/6xY00fMllADVEZ8K9OHMil"
      },
      "href" : "https://api.spotify.com/v1/tracks/6xY00fMllADVEZ8K9OHMil",
      "id" : "6xY00fMllADVEZ8K9OHMil",
      "is_local" : false,
      "is_playable" : true,
      "name" : "The First Noel",
      "popularity" : 22,
      "preview_url" : "https://p.scdn.co/mp3-preview/fb42d5d6fb7359dca90ed3273ae265b89a3619da?cid=774b29d4f13844c495f206cafdad9c86",
      "track_number" : 8,
      "type" : "track",
      "uri" : "spotify:track:6xY00fMllADVEZ8K9OHMil"
    }, {
      "album" : {
        "album_type" : "single",
        "artists" : [ {
          "external_urls" : {
            "spotify" : "https://open.spotify.com/artist/0gAd6Hy6KbkeWOop5aTMqQ"
          },
          "href" : "https://api.spotify.com/v1/artists/0gAd6Hy6KbkeWOop5aTMqQ",
          "id" : "0gAd6Hy6KbkeWOop5aTMqQ",
          "name" : "Tom Ellenhag",
          "type" : "artist",
          "uri" : "spotify:artist:0gAd6Hy6KbkeWOop5aTMqQ"
        } ],
        "external_urls" : {
          "spotify" : "https://open.spotify.com/album/66Q3ybskRWvQHk1BMNfsM6"
        },
        "href" : "https://api.spotify.com/v1/albums/66Q3ybskRWvQHk1BMNfsM6",
        "id" : "66Q3ybskRWvQHk1BMNfsM6",
        "images" : [ {
          "height" : 640,
          "url" : "https://i.scdn.co/image/ab67616d0000b273cd292df3a64f5bfa22b78550",
          "width" : 640
        }, {
          "height" : 300,
          "url" : "https://i.scdn.co/image/ab67616d00001e02cd292df3a64f5bfa22b78550",
          "width" : 300
        }, {
          "height" : 64,
          "url" : "https://i.scdn.co/image/ab67616d00004851cd292df3a64f5bfa22b78550",
          "width" : 64
        } ],
        "name" : "The First Noel",
        "release_date" : "2018-11-24",
        "release_date_precision" : "day",
        "total_tracks" : 1,
        "type" : "album",
        "uri" : "spotify:album:66Q3ybskRWvQHk1BMNfsM6"
      },
      "artists" : [ {
        "external_urls" : {
          "spotify" : "https://open.spotify.com/artist/0gAd6Hy6KbkeWOop5aTMqQ"
        },
        "href" : "https://api.spotify.com/v1/artists/0gAd6Hy6KbkeWOop5aTMqQ",
        "id" : "0gAd6Hy6KbkeWOop5aTMqQ",
        "name" : "Tom Ellenhag",
        "type" : "artist",
        "uri" : "spotify:artist:0gAd6Hy6KbkeWOop5aTMqQ"
      } ],
      "disc_number" : 1,
      "duration_ms" : 115291,
      "explicit" : false,
      "external_ids" : {
        "isrc" : "SE5IB1801115"
      },
      "external_urls" : {
        "spotify" : "https://open.spotify.com/track/2ijFTJ7XHAbD9sgcVfPy5w"
      },
      "href" : "https://api.spotify.com/v1/tracks/2ijFTJ7XHAbD9sgcVfPy5w",
      "id" : "2ijFTJ7XHAbD9sgcVfPy5w",
      "is_local" : false,
      "is_playable" : true,
      "name" : "The First Noel",
      "popularity" : 27,
      "preview_url" : "https://p.scdn.co/mp3-preview/dbfde095159bc0aace987ccbc10e8041b6ee89ae?cid=774b29d4f13844c495f206cafdad9c86",
      "track_number" : 1,
      "type" : "track",
      "uri" : "spotify:track:2ijFTJ7XHAbD9sgcVfPy5w"
    }, {
      "album" : {
        "album_type" : "album",
        "artists" : [ {
          "external_urls" : {
            "spotify" : "https://open.spotify.com/artist/6I3M904Y9IwgDjrQ9pANiB"
          },
          "href" : "https://api.spotify.com/v1/artists/6I3M904Y9IwgDjrQ9pANiB",
          "id" : "6I3M904Y9IwgDjrQ9pANiB",
          "name" : "Kenny G",
          "type" : "artist",
          "uri" : "spotify:artist:6I3M904Y9IwgDjrQ9pANiB"
        } ],
        "external_urls" : {
          "spotify" : "https://open.spotify.com/album/29big2asVjHGaNijZP9dDU"
        },
        "href" : "https://api.spotify.com/v1/albums/29big2asVjHGaNijZP9dDU",
        "id" : "29big2asVjHGaNijZP9dDU",
        "images" : [ {
          "height" : 640,
          "url" : "https://i.scdn.co/image/ab67616d0000b273856fc485194317c797cb216b",
          "width" : 640
        }, {
          "height" : 300,
          "url" : "https://i.scdn.co/image/ab67616d00001e02856fc485194317c797cb216b",
          "width" : 300
        }, {
          "height" : 64,
          "url" : "https://i.scdn.co/image/ab67616d00004851856fc485194317c797cb216b",
          "width" : 64
        } ],
        "name" : "The Classic Christmas Album",
        "release_date" : "2012-09-21",
        "release_date_precision" : "day",
        "total_tracks" : 16,
        "type" : "album",
        "uri" : "spotify:album:29big2asVjHGaNijZP9dDU"
      },
      "artists" : [ {
        "external_urls" : {
          "spotify" : "https://open.spotify.com/artist/6I3M904Y9IwgDjrQ9pANiB"
        },
        "href" : "https://api.spotify.com/v1/artists/6I3M904Y9IwgDjrQ9pANiB",
        "id" : "6I3M904Y9IwgDjrQ9pANiB",
        "name" : "Kenny G",
        "type" : "artist",
        "uri" : "spotify:artist:6I3M904Y9IwgDjrQ9pANiB"
      } ],
      "disc_number" : 1,
      "duration_ms" : 186373,
      "explicit" : false,
      "external_ids" : {
        "isrc" : "USAR19900531"
      },
      "external_urls" : {
        "spotify" : "https://open.spotify.com/track/01lnlzO90YibBeWzkZ8hfK"
      },
      "href" : "https://api.spotify.com/v1/tracks/01lnlzO90YibBeWzkZ8hfK",
      "id" : "01lnlzO90YibBeWzkZ8hfK",
      "is_local" : false,
      "is_playable" : true,
      "name" : "The First Noel",
      "popularity" : 27,
      "preview_url" : "https://p.scdn.co/mp3-preview/46848549933a0a6be73bed050b4c85af7600bd03?cid=774b29d4f13844c495f206cafdad9c86",
      "track_number" : 7,
      "type" : "track",
      "uri" : "spotify:track:01lnlzO90YibBeWzkZ8hfK"
    }, {
      "album" : {
        "album_type" : "album",
        "artists" : [ {
          "external_urls" : {
            "spotify" : "https://open.spotify.com/artist/648dUUIlz7RSeg3O8CbTat"
          },
          "href" : "https://api.spotify.com/v1/artists/648dUUIlz7RSeg3O8CbTat",
          "id" : "648dUUIlz7RSeg3O8CbTat",
          "name" : "Midnite String Quartet",
          "type" : "artist",
          "uri" : "spotify:artist:648dUUIlz7RSeg3O8CbTat"
        } ],
        "external_urls" : {
          "spotify" : "https://open.spotify.com/album/5kwvWdBqPPpFmhsoBXYTMw"
        },
        "href" : "https://api.spotify.com/v1/albums/5kwvWdBqPPpFmhsoBXYTMw",
        "id" : "5kwvWdBqPPpFmhsoBXYTMw",
        "images" : [ {
          "height" : 640,
          "url" : "https://i.scdn.co/image/ab67616d0000b2734c592de7703629d3ca3b5080",
          "width" : 640
        }, {
          "height" : 300,
          "url" : "https://i.scdn.co/image/ab67616d00001e024c592de7703629d3ca3b5080",
          "width" : 300
        }, {
          "height" : 64,
          "url" : "https://i.scdn.co/image/ab67616d000048514c592de7703629d3ca3b5080",
          "width" : 64
        } ],
        "name" : "MSQ Ultimate Christmas",
        "release_date" : "2018-11-02",
        "release_date_precision" : "day",
        "total_tracks" : 65,
        "type" : "album",
        "uri" : "spotify:album:5kwvWdBqPPpFmhsoBXYTMw"
      },
      "artists" : [ {
        "external_urls" : {
          "spotify" : "https://open.spotify.com/artist/648dUUIlz7RSeg3O8CbTat"
        },
        "href" : "https://api.spotify.com/v1/artists/648dUUIlz7RSeg3O8CbTat",
        "id" : "648dUUIlz7RSeg3O8CbTat",
        "name" : "Midnite String Quartet",
        "type" : "artist",
        "uri" : "spotify:artist:648dUUIlz7RSeg3O8CbTat"
      } ],
      "disc_number" : 1,
      "duration_ms" : 158462,
      "explicit" : false,
      "external_ids" : {
        "isrc" : "USA2P1879793"
      },
      "external_urls" : {
        "spotify" : "https://open.spotify.com/track/0euj6co1cpznTbaDklUQ0Y"
      },
      "href" : "https://api.spotify.com/v1/tracks/0euj6co1cpznTbaDklUQ0Y",
      "id" : "0euj6co1cpznTbaDklUQ0Y",
      "is_local" : false,
      "is_playable" : true,
      "name" : "The First Noel",
      "popularity" : 27,
      "preview_url" : "https://p.scdn.co/mp3-preview/317ff556e4b2f94a3d1cb1adb850ed1f70ec2b17?cid=774b29d4f13844c495f206cafdad9c86",
      "track_number" : 22,
      "type" : "track",
      "uri" : "spotify:track:0euj6co1cpznTbaDklUQ0Y"
    }, {
      "album" : {
        "album_type" : "compilation",
        "artists" : [ {
          "external_urls" : {
            "spotify" : "https://open.spotify.com/artist/0LyfQWJT6nXafLPZqxe9Of"
          },
          "href" : "https://api.spotify.com/v1/artists/0LyfQWJT6nXafLPZqxe9Of",
          "id" : "0LyfQWJT6nXafLPZqxe9Of",
          "name" : "Various Artists",
          "type" : "artist",
          "uri" : "spotify:artist:0LyfQWJT6nXafLPZqxe9Of"
        } ],
        "external_urls" : {
          "spotify" : "https://open.spotify.com/album/601ZkwOoI5HOfFX4AXmnax"
        },
        "href" : "https://api.spotify.com/v1/albums/601ZkwOoI5HOfFX4AXmnax",
        "id" : "601ZkwOoI5HOfFX4AXmnax",
        "images" : [ {
          "height" : 640,
          "url" : "https://i.scdn.co/image/ab67616d0000b27354ea521d5c886ce401973768",
          "width" : 640
        }, {
          "height" : 300,
          "url" : "https://i.scdn.co/image/ab67616d00001e0254ea521d5c886ce401973768",
          "width" : 300
        }, {
          "height" : 64,
          "url" : "https://i.scdn.co/image/ab67616d0000485154ea521d5c886ce401973768",
          "width" : 64
        } ],
        "name" : "Crosby Family Christmas",
        "release_date" : "2019-12-05",
        "release_date_precision" : "day",
        "total_tracks" : 5,
        "type" : "album",
        "uri" : "spotify:album:601ZkwOoI5HOfFX4AXmnax"
      },
      "artists" : [ {
        "external_urls" : {
          "spotify" : "https://open.spotify.com/artist/7oKF9F4JAkJUGZEnuXcPU5"
        },
        "href" : "https://api.spotify.com/v1/artists/7oKF9F4JAkJUGZEnuXcPU5",
        "id" : "7oKF9F4JAkJUGZEnuXcPU5",
        "name" : "Claire Crosby",
        "type" : "artist",
        "uri" : "spotify:artist:7oKF9F4JAkJUGZEnuXcPU5"
      }, {
        "external_urls" : {
          "spotify" : "https://open.spotify.com/artist/6ZddubhXhoMkJGKtoXlGAB"
        },
        "href" : "https://api.spotify.com/v1/artists/6ZddubhXhoMkJGKtoXlGAB",
        "id" : "6ZddubhXhoMkJGKtoXlGAB",
        "name" : "Dave Crosby",
        "type" : "artist",
        "uri" : "spotify:artist:6ZddubhXhoMkJGKtoXlGAB"
      }, {
        "external_urls" : {
          "spotify" : "https://open.spotify.com/artist/5v3tZU43B1j8tZjsIEp30M"
        },
        "href" : "https://api.spotify.com/v1/artists/5v3tZU43B1j8tZjsIEp30M",
        "id" : "5v3tZU43B1j8tZjsIEp30M",
        "name" : "Ashley Crosby",
        "type" : "artist",
        "uri" : "spotify:artist:5v3tZU43B1j8tZjsIEp30M"
      } ],
      "disc_number" : 1,
      "duration_ms" : 207029,
      "explicit" : false,
      "external_ids" : {
        "isrc" : "QZGWW2006579"
      },
      "external_urls" : {
        "spotify" : "https://open.spotify.com/track/0f0UkFLpZ5Qq534aEpdT45"
      },
      "href" : "https://api.spotify.com/v1/tracks/0f0UkFLpZ5Qq534aEpdT45",
      "id" : "0f0UkFLpZ5Qq534aEpdT45",
      "is_local" : false,
      "is_playable" : true,
      "name" : "The First Noel",
      "popularity" : 26,
      "preview_url" : "https://p.scdn.co/mp3-preview/702e7d9bcf480712769e15a3edd9703feae53e29?cid=774b29d4f13844c495f206cafdad9c86",
      "track_number" : 1,
      "type" : "track",
      "uri" : "spotify:track:0f0UkFLpZ5Qq534aEpdT45"
    }, {
      "album" : {
        "album_type" : "album",
        "artists" : [ {
          "external_urls" : {
            "spotify" : "https://open.spotify.com/artist/6cXMpsP9x0SH4kFfMyVezF"
          },
          "href" : "https://api.spotify.com/v1/artists/6cXMpsP9x0SH4kFfMyVezF",
          "id" : "6cXMpsP9x0SH4kFfMyVezF",
          "name" : "Josh Groban",
          "type" : "artist",
          "uri" : "spotify:artist:6cXMpsP9x0SH4kFfMyVezF"
        } ],
        "external_urls" : {
          "spotify" : "https://open.spotify.com/album/4kqXw1yf9EKamws0zCarGt"
        },
        "href" : "https://api.spotify.com/v1/albums/4kqXw1yf9EKamws0zCarGt",
        "id" : "4kqXw1yf9EKamws0zCarGt",
        "images" : [ {
          "height" : 640,
          "url" : "https://i.scdn.co/image/ab67616d0000b273d5e8c6854f113f22c28be863",
          "width" : 640
        }, {
          "height" : 300,
          "url" : "https://i.scdn.co/image/ab67616d00001e02d5e8c6854f113f22c28be863",
          "width" : 300
        }, {
          "height" : 64,
          "url" : "https://i.scdn.co/image/ab67616d00004851d5e8c6854f113f22c28be863",
          "width" : 64
        } ],
        "name" : "Noël",
        "release_date" : "2007-10-09",
        "release_date_precision" : "day",
        "total_tracks" : 13,
        "type" : "album",
        "uri" : "spotify:album:4kqXw1yf9EKamws0zCarGt"
      },
      "artists" : [ {
        "external_urls" : {
          "spotify" : "https://open.spotify.com/artist/6cXMpsP9x0SH4kFfMyVezF"
        },
        "href" : "https://api.spotify.com/v1/artists/6cXMpsP9x0SH4kFfMyVezF",
        "id" : "6cXMpsP9x0SH4kFfMyVezF",
        "name" : "Josh Groban",
        "type" : "artist",
        "uri" : "spotify:artist:6cXMpsP9x0SH4kFfMyVezF"
      }, {
        "external_urls" : {
          "spotify" : "https://open.spotify.com/artist/25NQNriVT2YbSW80ILRWJa"
        },
        "href" : "https://api.spotify.com/v1/artists/25NQNriVT2YbSW80ILRWJa",
        "id" : "25NQNriVT2YbSW80ILRWJa",
        "name" : "Faith Hill",
        "type" : "artist",
        "uri" : "spotify:artist:25NQNriVT2YbSW80ILRWJa"
      } ],
      "disc_number" : 1,
      "duration_ms" : 273573,
      "explicit" : false,
      "external_ids" : {
        "isrc" : "USRE10701716"
      },
      "external_urls" : {
        "spotify" : "https://open.spotify.com/track/1sEC3X76vXgpsgnfaXEMwR"
      },
      "href" : "https://api.spotify.com/v1/tracks/1sEC3X76vXgpsgnfaXEMwR",
      "id" : "1sEC3X76vXgpsgnfaXEMwR",
      "is_local" : false,
      "is_playable" : true,
      "name" : "The First Noël (with Faith Hill)",
      "popularity" : 26,
      "preview_url" : "https://p.scdn.co/mp3-preview/78246ab13a56e693789c126854adfd27ceafaa8d?cid=774b29d4f13844c495f206cafdad9c86",
      "track_number" : 9,
      "type" : "track",
      "uri" : "spotify:track:1sEC3X76vXgpsgnfaXEMwR"
    }, {
      "album" : {
        "album_type" : "album",
        "artists" : [ {
          "external_urls" : {
            "spotify" : "https://open.spotify.com/artist/21Uejbf0dmBe3tEOUhWWt0"
          },
          "href" : "https://api.spotify.com/v1/artists/21Uejbf0dmBe3tEOUhWWt0",
          "id" : "21Uejbf0dmBe3tEOUhWWt0",
          "name" : "David Arkenstone",
          "type" : "artist",
          "uri" : "spotify:artist:21Uejbf0dmBe3tEOUhWWt0"
        } ],
        "external_urls" : {
          "spotify" : "https://open.spotify.com/album/122rg9J6CbvJSvV6SOMPiH"
        },
        "href" : "https://api.spotify.com/v1/albums/122rg9J6CbvJSvV6SOMPiH",
        "id" : "122rg9J6CbvJSvV6SOMPiH",
        "images" : [ {
          "height" : 640,
          "url" : "https://i.scdn.co/image/ab67616d0000b273b7ece72ea355a4e1f981e250",
          "width" : 640
        }, {
          "height" : 300,
          "url" : "https://i.scdn.co/image/ab67616d00001e02b7ece72ea355a4e1f981e250",
          "width" : 300
        }, {
          "height" : 64,
          "url" : "https://i.scdn.co/image/ab67616d00004851b7ece72ea355a4e1f981e250",
          "width" : 64
        } ],
        "name" : "Celtic Christmas",
        "release_date" : "2006-01-01",
        "release_date_precision" : "day",
        "total_tracks" : 11,
        "type" : "album",
        "uri" : "spotify:album:122rg9J6CbvJSvV6SOMPiH"
      },
      "artists" : [ {
        "external_urls" : {
          "spotify" : "https://open.spotify.com/artist/21Uejbf0dmBe3tEOUhWWt0"
        },
        "href" : "https://api.spotify.com/v1/artists/21Uejbf0dmBe3tEOUhWWt0",
        "id" : "21Uejbf0dmBe3tEOUhWWt0",
        "name" : "David Arkenstone",
        "type" : "artist",
        "uri" : "spotify:artist:21Uejbf0dmBe3tEOUhWWt0"
      } ],
      "disc_number" : 1,
      "duration_ms" : 308920,
      "explicit" : false,
      "external_ids" : {
        "isrc" : "USB4U1250295"
      },
      "external_urls" : {
        "spotify" : "https://open.spotify.com/track/20rWoDqL3nArqIkNVTeBtn"
      },
      "href" : "https://api.spotify.com/v1/tracks/20rWoDqL3nArqIkNVTeBtn",
      "id" : "20rWoDqL3nArqIkNVTeBtn",
      "is_local" : false,
      "is_playable" : true,
      "name" : "The First Noel",
      "popularity" : 24,
      "preview_url" : null,
      "track_number" : 4,
      "type" : "track",
      "uri" : "spotify:track:20rWoDqL3nArqIkNVTeBtn"
    }, {
      "album" : {
        "album_type" : "album",
        "artists" : [ {
          "external_urls" : {
            "spotify" : "https://open.spotify.com/artist/0SCbttzoZTnLFebDYmAWCm"
          },
          "href" : "https://api.spotify.com/v1/artists/0SCbttzoZTnLFebDYmAWCm",
          "id" : "0SCbttzoZTnLFebDYmAWCm",
          "name" : "Glee Cast",
          "type" : "artist",
          "uri" : "spotify:artist:0SCbttzoZTnLFebDYmAWCm"
        } ],
        "external_urls" : {
          "spotify" : "https://open.spotify.com/album/5msQHy2ZV5LjOdeqbYZl9y"
        },
        "href" : "https://api.spotify.com/v1/albums/5msQHy2ZV5LjOdeqbYZl9y",
        "id" : "5msQHy2ZV5LjOdeqbYZl9y",
        "images" : [ {
          "height" : 640,
          "url" : "https://i.scdn.co/image/ab67616d0000b273de2f9f9eeafae84b2b867843",
          "width" : 640
        }, {
          "height" : 300,
          "url" : "https://i.scdn.co/image/ab67616d00001e02de2f9f9eeafae84b2b867843",
          "width" : 300
        }, {
          "height" : 64,
          "url" : "https://i.scdn.co/image/ab67616d00004851de2f9f9eeafae84b2b867843",
          "width" : 64
        } ],
        "name" : "Glee: The Music, The Christmas Album Vol. 3",
        "release_date" : "2012-12-11",
        "release_date_precision" : "day",
        "total_tracks" : 10,
        "type" : "album",
        "uri" : "spotify:album:5msQHy2ZV5LjOdeqbYZl9y"
      },
      "artists" : [ {
        "external_urls" : {
          "spotify" : "https://open.spotify.com/artist/0SCbttzoZTnLFebDYmAWCm"
        },
        "href" : "https://api.spotify.com/v1/artists/0SCbttzoZTnLFebDYmAWCm",
        "id" : "0SCbttzoZTnLFebDYmAWCm",
        "name" : "Glee Cast",
        "type" : "artist",
        "uri" : "spotify:artist:0SCbttzoZTnLFebDYmAWCm"
      } ],
      "disc_number" : 1,
      "duration_ms" : 144160,
      "explicit" : false,
      "external_ids" : {
        "isrc" : "USQX91202124"
      },
      "external_urls" : {
        "spotify" : "https://open.spotify.com/track/6Lu8BYRVgnlgEj65RvpFdH"
      },
      "href" : "https://api.spotify.com/v1/tracks/6Lu8BYRVgnlgEj65RvpFdH",
      "id" : "6Lu8BYRVgnlgEj65RvpFdH",
      "is_local" : false,
      "is_playable" : true,
      "name" : "The First Noel (Glee Cast Version)",
      "popularity" : 32,
      "preview_url" : "https://p.scdn.co/mp3-preview/20da79114ed86f7b5e19669106834c7e07e01060?cid=774b29d4f13844c495f206cafdad9c86",
      "track_number" : 6,
      "type" : "track",
      "uri" : "spotify:track:6Lu8BYRVgnlgEj65RvpFdH"
    }, {
      "album" : {
        "album_type" : "single",
        "artists" : [ {
          "external_urls" : {
            "spotify" : "https://open.spotify.com/artist/2CK9Fw9V6kvxfddocQ4jSF"
          },
          "href" : "https://api.spotify.com/v1/artists/2CK9Fw9V6kvxfddocQ4jSF",
          "id" : "2CK9Fw9V6kvxfddocQ4jSF",
          "name" : "Alex Ernst",
          "type" : "artist",
          "uri" : "spotify:artist:2CK9Fw9V6kvxfddocQ4jSF"
        } ],
        "external_urls" : {
          "spotify" : "https://open.spotify.com/album/21N3bVyq1gvMwemHrXGXHL"
        },
        "href" : "https://api.spotify.com/v1/albums/21N3bVyq1gvMwemHrXGXHL",
        "id" : "21N3bVyq1gvMwemHrXGXHL",
        "images" : [ {
          "height" : 640,
          "url" : "https://i.scdn.co/image/ab67616d0000b2737bcfe31c5eb36ebbe6ac0490",
          "width" : 640
        }, {
          "height" : 300,
          "url" : "https://i.scdn.co/image/ab67616d00001e027bcfe31c5eb36ebbe6ac0490",
          "width" : 300
        }, {
          "height" : 64,
          "url" : "https://i.scdn.co/image/ab67616d000048517bcfe31c5eb36ebbe6ac0490",
          "width" : 64
        } ],
        "name" : "The First Noël",
        "release_date" : "2017-12-17",
        "release_date_precision" : "day",
        "total_tracks" : 1,
        "type" : "album",
        "uri" : "spotify:album:21N3bVyq1gvMwemHrXGXHL"
      },
      "artists" : [ {
        "external_urls" : {
          "spotify" : "https://open.spotify.com/artist/2CK9Fw9V6kvxfddocQ4jSF"
        },
        "href" : "https://api.spotify.com/v1/artists/2CK9Fw9V6kvxfddocQ4jSF",
        "id" : "2CK9Fw9V6kvxfddocQ4jSF",
        "name" : "Alex Ernst",
        "type" : "artist",
        "uri" : "spotify:artist:2CK9Fw9V6kvxfddocQ4jSF"
      } ],
      "disc_number" : 1,
      "duration_ms" : 138026,
      "explicit" : false,
      "external_ids" : {
        "isrc" : "TCADK1731935"
      },
      "external_urls" : {
        "spotify" : "https://open.spotify.com/track/0qsk1cCITkLFGxg4S5staX"
      },
      "href" : "https://api.spotify.com/v1/tracks/0qsk1cCITkLFGxg4S5staX",
      "id" : "0qsk1cCITkLFGxg4S5staX",
      "is_local" : false,
      "is_playable" : true,
      "name" : "The First Noël",
      "popularity" : 21,
      "preview_url" : "https://p.scdn.co/mp3-preview/ef60ae2d4cca92d34b43a9b151ddd63ccf5d6fa0?cid=774b29d4f13844c495f206cafdad9c86",
      "track_number" : 1,
      "type" : "track",
      "uri" : "spotify:track:0qsk1cCITkLFGxg4S5staX"
    } ],
    "limit" : 10,
    "next" : "https://api.spotify.com/v1/search?query=The+First+Noel&type=track&market=US&offset=15&limit=10",
    "offset" : 5,
    "previous" : "https://api.spotify.com/v1/search?query=The+First+Noel&type=track&market=US&offset=0&limit=10",
    "total" : 10143
  }
}