{
  "tracks" : {
    "href" : "https://api.spotify.com/v1/search?query=Give+Me+Jesus&type=track&market=US&offset=5&limit=10",
    "items" : [ {
      "album" : {
        "album_type" : "album",
        "artists" : [ {
          "external_urls" : {
            "spotify" : "https://open.spotify.com/artist/6gpOLOIn9tu4nfK52nrAIM"
          },
          "href" : "https://api.spotify.com/v1/artists/6gpOLOIn9tu4nfK52nrAIM",
          "id" : "6gpOLOIn9tu4nfK52nrAIM",
          "name" : "Zeno",
          "type" : "artist",
          "uri" : "spotify:artist:6gpOLOIn9tu4nfK52nrAIM"
        } ],
        "external_urls" : {
          "spotify" : "https://open.spotify.com/album/0vL6HqSFq0gyS9l6SDZ7b6"
        },
        "href" : "https://api.spotify.com/v1/albums/0vL6HqSFq0gyS9l6SDZ7b6",
        "id" : "0vL6HqSFq0gyS9l6SDZ7b6",
        "images" : [ {
          "height" : 640,
          "url" : "https://i.scdn.co/image/ab67616d0000b2737ac616a233045012e5ecefe8",
          "width" : 640
        }, {
          "height" : 300,
          "url" : "https://i.scdn.co/image/ab67616d00001e027ac616a233045012e5ecefe8",
          "width" : 300
        }, {
          "height" : 64,
          "url" : "https://i.scdn.co/image/ab67616d000048517ac616a233045012e5ecefe8",
          "width" : 64
        } ],
        "name" : "Instrumental Worship, Vol. 3",
        "release_date" : "2016-05-31",
        "release_date_precision" : "day",
        "total_tracks" : 10,
        "type" : "album",
        "uri" : "spotify:album:0vL6HqSFq0gyS9l6SDZ7b6"
      },
      "artists" : [ {
        "external_urls" : {
          "spotify" : "https://open.spotify.com/artist/6gpOLOIn9tu4nfK52nrAIM"
        },
        "href" : "https://api.spotify.com/v1/artists/6gpOLOIn9tu4nfK52nrAIM",
        "id" : "6gpOLOIn9tu4nfK52nrAIM",
        "name" : "Zeno",
        "type" : "artist",
        "uri" : "spotify:artist:6gpOLOIn9tu4nfK52nrAIM"
      } ],
      "disc_number" : 1,
      "duration_ms" : 157474,
      "explicit" : false,
      "external_ids" : {
        "isrc" : "USE831569570"
      },
      "external_urls" : {
        "spotify" : "https://open.spotify.com/track/4fc8ZW3W16nDLYtxF3KSxE"
      },
      "href" : "https://api.spotify.com/v1/tracks/4fc8ZW3W16nDLYtxF3KSxE",
      "id" : "4fc8ZW3W16nDLYtxF3KSxE",
      "is_local" : false,
      "is_playable" : true,
      "name" : "Give Me Jesus",
      "popularity" : 33,
      "preview_url" : "https://p.scdn.co/mp3-preview/677edc29caecdcba33dc02fcf05f594139e81014?cid=774b29d4f13844c495f206cafdad9c86",
      "track_number" : 7,
      "type" : "track",
      "uri" : "spotify:track:4fc8ZW3W16nDLYtxF3KSxE"
    }, {
      "album" : {
        "album_type" : "album",
        "artists" : [ {
          "external_urls" : {
            "spotify" : "https://open.spotify.com/artist/7r9M6ptJz7XnQp2RVFArb4"
          },
          "href" : "https://api.spotify.com/v1/artists/7r9M6ptJz7XnQp2RVFArb4",
          "id" : "7r9M6ptJz7XnQp2RVFArb4",
          "name" : "Mo Pitney",
          "type" : "artist",
          "uri" : "spotify:artist:7r9M6ptJz7XnQp2RVFArb4"
        } ],
        "external_urls" : {
          "spotify" : "https://open.spotify.com/album/4eu52uZltxOTS0ec73kDpu"
        },
        "href" : "https://api.spotify.com/v1/albums/4eu52uZltxOTS0ec73kDpu",
        "id" : "4eu52uZltxOTS0ec73kDpu",
        "images" : [ {
          "height" : 640,
          "url" : "https://i.scdn.co/image/ab67616d0000b2730c62ce65dc9c87449eef4378",
          "width" : 640
        }, {
          "height" : 300,
          "url" : "https://i.scdn.co/image/ab67616d00001e020c62ce65dc9c87449eef4378",
          "width" : 300
        }, {
          "height" : 64,
          "url" : "https://i.scdn.co/image/ab67616d000048510c62ce65dc9c87449eef4378",
          "width" : 64
        } ],
        "name" : "Behind This Guitar",
        "release_date" : "2016-10-07",
        "release_date_precision" : "day",
        "total_tracks" : 12,
        "type" : "album",
        "uri" : "spotify:album:4eu52uZltxOTS0ec73kDpu"
      },
      "artists" : [ {
        "external_urls" : {
          "spotify" : "https://open.spotify.com/artist/7r9M6ptJz7XnQp2RVFArb4"
        },
        "href" : "https://api.spotify.com/v1/artists/7r9M6ptJz7XnQp2RVFArb4",
        "id" : "7r9M6ptJz7XnQp2RVFArb4",
        "name" : "Mo Pitney",
        "type" : "artist",
        "uri" : "spotify:artist:7r9M6ptJz7XnQp2RVFArb4"
      } ],
      "disc_number" : 1,
      "duration_ms" : 244986,
      "explicit" : false,
      "external_ids" : {
        "isrc" : "USCRB1613354"
      },
      "external_urls" : {
        "spotify" : "https://open.spotify.com/track/3wSAgplQWBP0RcYXEPecKO"
      },
      "href" : "https://api.spotify.com/v1/tracks/3wSAgplQWBP0RcYXEPecKO",
      "id" : "3wSAgplQWBP0RcYXEPecKO",
      "is_local" : false,
      "is_playable" : true,
      "name" : "Give Me Jesus",
      "popularity" : 28,
      "preview_url" : "https://p.scdn.co/mp3-preview/05c662d44262d8bf6bbc6839f3b522d54e373e2a?cid=774b29d4f13844c495f206cafdad9c86",
      "track_number" : 12,
      "type" : "track",
      "uri" : "spotify:track:3wSAgplQWBP0RcYXEPecKO"
    }, {
      "album" : {
        "album_type" : "album",
        "artists" : [ {
          "external_urls" : {
            "spotify" : "https://open.spotify.com/artist/5Yu3b48Y29bZlI1cLPOZJz"
          },
          "href" : "https://api.spotify.com/v1/artists/5Yu3b48Y29bZlI1cLPOZJz",
          "id" : "5Yu3b48Y29bZlI1cLPOZJz",
          "name" : "Danny Gokey",
          "type" : "artist",
          "uri" : "spotify:artist:5Yu3b48Y29bZlI1cLPOZJz"
        } ],
        "external_urls" : {
          "spotify" : "https://open.spotify.com/album/1PEUgXbfE8bwGiLRocfoY8"
        },
        "href" : "https://api.spotify.com/v1/albums/1PEUgXbfE8bwGiLRocfoY8",
        "id" : "1PEUgXbfE8bwGiLRocfoY8",
        "images" : [ {
          "height" : 640,
          "url" : "https://i.scdn.co/image/ab67616d0000b273fce3609a8789ad3664d9d205",
          "width" : 640
        }, {
          "height" : 300,
          "url" : "https://i.scdn.co/image/ab67616d00001e02fce3609a8789ad3664d9d205",
          "width" : 300
        }, {
          "height" : 64,
          "url" : "https://i.scdn.co/image/ab67616d00004851fce3609a8789ad3664d9d205",
          "width" : 64
        } ],
        "name" : "Christmas Is Here",
        "release_date" : "2015-10-16",
        "release_date_precision" : "day",
        "total_tracks" : 10,
        "type" : "album",
        "uri" : "spotify:album:1PEUgXbfE8bwGiLRocfoY8"
      },
      "artists" : [ {
        "external_urls" : {
          "spotify" : "https://open.spotify.com/artist/5Yu3b48Y29bZlI1cLPOZJz"
        },
        "href" : "https://api.spotify.com/v1/artists/5Yu3b48Y29bZlI1cLPOZJz",
        "id" : "5Yu3b48Y29bZlI1cLPOZJz",
        "name" : "Danny Gokey",
        "type" : "artist",
        "uri" : "spotify:artist:5Yu3b48Y29bZlI1cLPOZJz"
      } ],
      "disc_number" : 1,
      "duration_ms" : 334637,
      "explicit" : false,
      "external_ids" : {
        "isrc" : "QMRSZ1501294"
      },
      "external_urls" : {
        "spotify" : "https://open.spotify.com/track/4WzsEu6UVojqoBIgozT5KU"
      },
      "href" : "https://api.spotify.com/v1/tracks/4WzsEu6UVojqoBIgozT5KU",
      "id" : "4WzsEu6UVojqoBIgozT5KU",
      "is_local" : false,
      "is_playable" : true,
      "name" : "Give Me Jesus",
      "popularity" : 26,
      "preview_url" : "https://p.scdn.co/mp3-preview/7fff06209cc2c5a04a3951ee1a909bb7b3a043a0?cid=774b29d4f13844c495f206cafdad9c86",
      "track_number" : 10,
      "type" : "track",
      "uri" : "spotify:track:4WzsEu6UVojqoBIgozT5KU"
    }, {
      "album" : {
        "album_type" : "album",
        "artists" : [ {
          "external_urls" : {
            "spotify" : "https://open.spotify.com/artist/0CqDqmyIQ9VQHQp52OEbB0"
          },
          "href" : "https://api.spotify.com/v1/artists/0CqDqmyIQ9VQHQp52OEbB0",
          "id" : "0CqDqmyIQ9VQHQp52OEbB0",
          "name" : "Unspoken",
          "type" : "artist",
          "uri" : "spotify:artist:0CqDqmyIQ9VQHQp52OEbB0"
        } ],
        "external_urls" : {
          "spotify" : "https://open.spotify.com/album/5AJl777j0hpNnNGWSrMLSW"
        },
        "href" : "https://api.spotify.com/v1/albums/5AJl777j0hpNnNGWSrMLSW",
        "id" : "5AJl777j0hpNnNGWSrMLSW",
        "images" : [ {
          "height" : 640,
          "url" : "https://i.scdn.co/image/ab67616d0000b273ee6bb458220fc81e411bc5e9",
          "width" : 640
        }, {
          "height" : 300,
          "url" : "https://i.scdn.co/image/ab67616d00001e02ee6bb458220fc81e411bc5e9",
          "width" : 300
        }, {
          "height" : 64,
          "url" : "https://i.scdn.co/image/ab67616d00004851ee6bb458220fc81e411bc5e9",
          "width" : 64
        } ],
        "name" : "Reason",
        "release_date" : "2019-06-21",
        "release_date_precision" : "day",
        "total_tracks" : 12,
        "type" : "album",
        "uri" : "spotify:album:5AJl777j0hpNnNGWSrMLSW"
      },
      "artists" : [ {
        "external_urls" : {
          "spotify" : "https://open.spotify.com/artist/0CqDqmyIQ9VQHQp52OEbB0"
        },
        "href" : "https://api.spotify.com/v1/artists/0CqDqmyIQ9VQHQp52OEbB0",
        "id" : "0CqDqmyIQ9VQHQp52OEbB0",
        "name" : "Unspoken",
        "type" : "artist",
        "uri" : "spotify:artist:0CqDqmyIQ9VQHQp52OEbB0"
      } ],
      "disc_number" : 1,
      "duration_ms" : 207893,
      "explicit" : false,
      "external_ids" : {
        "isrc" : "US8391800125"
      },
      "external_urls" : {
        "spotify" : "https://open.spotify.com/track/2TkU9jzogblGW1Dv3G7SIo"
      },
      "href" : "https://api.spotify.com/v1/tracks/2TkU9jzogblGW1Dv3G7SIo",
      "id" : "2TkU9jzogblGW1Dv3G7SIo",
      "is_local" : false,
      "is_playable" : true,
      "name" : "Just Give Me Jesus",
      "popularity" : 55,
      "preview_url" : null,
      "track_number" : 8,
      "type" : "track",
      "uri" : "spotify:track:2TkU9jzogblGW1Dv3G7SIo"
    }, {
      "album" : {
        "album_type" : "album",
        "artists" : [ {
          "external_urls" : {
            "spotify" : "https://open.spotify.com/artist/6bzyBDhZmJIl6PvJ5qJ9Hh"
          },
          "href" : "https://api.spotify.com/v1/artists/6bzyBDhZmJIl6PvJ5qJ9Hh",
          "id" : "6bzyBDhZmJIl6PvJ5qJ9Hh",
          "name" : "Acappella",
          "type" : "artist",
          "uri" : "spotify:artist:6bzyBDhZmJIl6PvJ5qJ9Hh"
        } ],
        "external_urls" : {
          "spotify" : "https://open.spotify.com/album/7LL2eZiWk8QLLjkfMnkFUw"
        },
        "href" : "https://api.spotify.com/v1/albums/7LL2eZiWk8QLLjkfMnkFUw",
        "id" : "7LL2eZiWk8QLLjkfMnkFUw",
        "images" : [ {
          "height" : 640,
          "url" : "https://i.scdn.co/image/ab67616d0000b273221e8e77c68b76042dd770b4",
          "width" : 640
        }, {
          "height" : 300,
          "url" : "https://i.scdn.co/image/ab67616d00001e02221e8e77c68b76042dd770b4",
          "width" : 300
        }, {
          "height" : 64,
          "url" : "https://i.scdn.co/image/ab67616d00004851221e8e77c68b76042dd770b4",
          "width" : 64
        } ],
        "name" : "Heaven and Earth",
        "release_date" : "2004-01-01",
        "release_date_precision" : "day",
        "total_tracks" : 12,
        "type" : "album",
        "uri" : "spotify:album:7LL2eZiWk8QLLjkfMnkFUw"
      },
      "artists" : [ {
        "external_urls" : {
          "spotify" : "https://open.spotify.com/artist/6bzyBDhZmJIl6PvJ5qJ9Hh"
        },
        "href" : "https://api.spotify.com/v1/artists/6bzyBDhZmJIl6PvJ5qJ9Hh",
        "id" : "6bzyBDhZmJIl6PvJ5qJ9Hh",
        "name" : "Acappella",
        "type" : "artist",
        "uri" : "spotify:artist:6bzyBDhZmJIl6PvJ5qJ9Hh"
      } ],
      "disc_number" : 1,
      "duration_ms" : 170146,
      "explicit" : false,
      "external_ids" : {
        "isrc" : "ushm90465384"
      },
      "external_urls" : {
        "spotify" : "https://open.spotify.com/track/1t7qUfQUvhD7iGOLvfNtQ3"
      },
      "href" : "https://api.spotify.com/v1/tracks/1t7qUfQUvhD7iGOLvfNtQ3",
      "id" : "1t7qUfQUvhD7iGOLvfNtQ3",
      "is_local" : false,
      "is_playable" : true,
      "name" : "Give Me Jesus",
      "popularity" : 29,
      "preview_url" : "https://p.scdn.co/mp3-preview/0e1c4e2c104d16daf934b909a4cd052138b26f59?cid=774b29d4f13844c495f206cafdad9c86",
      "track_number" : 12,
      "type" : "track",
      "uri" : "spotify:track:1t7qUfQUvhD7iGOLvfNtQ3"
    }, {
      "album" : {
        "album_type" : "album",
        "artists" : [ {
          "external_urls" : {
            "spotify" : "https://open.spotify.com/artist/6MYKRhEIKscR8qdGlvpk9y"
          },
          "href" : "https://api.spotify.com/v1/artists/6MYKRhEIKscR8qdGlvpk9y",
          "id" : "6MYKRhEIKscR8qdGlvpk9y",
          "name" : "Sovereign Grace Music",
          "type" : "artist",
          "uri" : "spotify:artist:6MYKRhEIKscR8qdGlvpk9y"
        } ],
        "external_urls" : {
          "spotify" : "https://open.spotify.com/album/6vx3WJiAST38dlm8NiRXQR"
        },
        "href" : "https://api.spotify.com/v1/albums/6vx3WJiAST38dlm8NiRXQR",
        "id" : "6vx3WJiAST38dlm8NiRXQR",
        "images" : [ {
          "height" : 640,
          "url" : "https://i.scdn.co/image/ab67616d0000b2732cd18441ca9ffbde275e8a71",
          "width" : 640
        }, {
          "height" : 300,
          "url" : "https://i.scdn.co/image/ab67616d00001e022cd18441ca9ffbde275e8a71",
          "width" : 300
        }, {
          "height" : 64,
          "url" : "https://i.scdn.co/image/ab67616d000048512cd18441ca9ffbde275e8a71",
          "width" : 64
        } ],
        "name" : "Prayers of the Saints (Live)",
        "release_date" : "2017-11-17",
        "release_date_precision" : "day",
        "total_tracks" : 15,
        "type" : "album",
        "uri" : "spotify:album:6vx3WJiAST38dlm8NiRXQR"
      },
      "artists" : [ {
        "external_urls" : {
          "spotify" : "https://open.spotify.com/artist/6MYKRhEIKscR8qdGlvpk9y"
        },
        "href" : "https://api.spotify.com/v1/artists/6MYKRhEIKscR8qdGlvpk9y",
        "id" : "6MYKRhEIKscR8qdGlvpk9y",
        "name" : "Sovereign Grace Music",
        "type" : "artist",
        "uri" : "spotify:artist:6MYKRhEIKscR8qdGlvpk9y"
      } ],
      "disc_number" : 1,
      "duration_ms" : 293146,
      "explicit" : false,
      "external_ids" : {
        "isrc" : "US25L1733008"
      },
      "external_urls" : {
        "spotify" : "https://open.spotify.com/track/11U8G2HSwBeLsHzVO0yyzQ"
      },
      "href" : "https://api.spotify.com/v1/tracks/11U8G2HSwBeLsHzVO0yyzQ",
      "id" : "11U8G2HSwBeLsHzVO0yyzQ",
      "is_local" : false,
      "is_playable" : true,
      "name" : "Give Me Jesus - Live",
      "popularity" : 29,
      "preview_url" : "https://p.scdn.co/mp3-preview/1588cf6e42d3529263ae958b8a369a2c548c9ae5?cid=774b29d4f13844c495f206cafdad9c86",
      "track_number" : 8,
      "type" : "track",
      "uri" : "spotify:track:11U8G2HSwBeLsHzVO0yyzQ"
    }, {
      "album" : {
        "album_type" : "album",
        "artists" : [ {
          "external_urls" : {
            "spotify" : "https://open.spotify.com/artist/1w0QYx2G0ywsCClH84FcAv"
          },
          "href" : "https://api.spotify.com/v1/artists/1w0QYx2G0ywsCClH84FcAv",
          "id" : "1w0QYx2G0ywsCClH84FcAv",
          "name" : "Moriah Peters",
          "type" : "artist",
          "uri" : "spotify:artist:1w0QYx2G0ywsCClH84FcAv"
        } ],
        "external_urls" : {
          "spotify" : "https://open.spotify.com/album/57VocguMCPpTbtRBPb7h0f"
        },
        "href" : "https://api.spotify.com/v1/albums/57VocguMCPpTbtRBPb7h0f",
        "id" : "57VocguMCPpTbtRBPb7h0f",
        "images" : [ {
          "height" : 640,
          "url" : "https://i.scdn.co/image/ab67616d0000b273c1604674958459a2d07bc7e6",
          "width" : 640
        }, {
          "height" : 300,
          "url" : "https://i.scdn.co/image/ab67616d00001e02c1604674958459a2d07bc7e6",
          "width" : 300
        }, {
          "height" : 64,
          "url" : "https://i.scdn.co/image/ab67616d00004851c1604674958459a2d07bc7e6",
          "width" : 64
        } ],
        "name" : "Brave",
        "release_date" : "2014-07-14",
        "release_date_precision" : "day",
        "total_tracks" : 11,
        "type" : "album",
        "uri" : "spotify:album:57VocguMCPpTbtRBPb7h0f"
      },
      "artists" : [ {
        "external_urls" : {
          "spotify" : "https://open.spotify.com/artist/1w0QYx2G0ywsCClH84FcAv"
        },
        "href" : "https://api.spotify.com/v1/artists/1w0QYx2G0ywsCClH84FcAv",
        "id" : "1w0QYx2G0ywsCClH84FcAv",
        "name" : "Moriah Peters",
        "type" : "artist",
        "uri" : "spotify:artist:1w0QYx2G0ywsCClH84FcAv"
      } ],
      "disc_number" : 1,
      "duration_ms" : 244440,
      "explicit" : false,
      "external_ids" : {
        "isrc" : "USA5W1400124"
      },
      "external_urls" : {
        "spotify" : "https://open.spotify.com/track/1vI9XofqLxSkCYeNLWdBzo"
      },
      "href" : "https://api.spotify.com/v1/tracks/1vI9XofqLxSkCYeNLWdBzo",
      "id" : "1vI9XofqLxSkCYeNLWdBzo",
      "is_local" : false,
      "is_playable" : true,
      "name" : "Give Me Jesus",
      "popularity" : 25,
      "preview_url" : "https://p.scdn.co/mp3-preview/a665fbc8c2ed3d212f09ae3e676b139a7c658ec6?cid=774b29d4f13844c495f206cafdad9c86",
      "track_number" : 10,
      "type" : "track",
      "uri" : "spotify:track:1vI9XofqLxSkCYeNLWdBzo"
    }, {
      "album" : {
        "album_type" : "single",
        "artists" : [ {
          "external_urls" : {
            "spotify" : "https://open.spotify.com/artist/3K82LFHTTHMqrp1qXyEhpZ"
          },
          "href" : "https://api.spotify.com/v1/artists/3K82LFHTTHMqrp1qXyEhpZ",
          "id" : "3K82LFHTTHMqrp1qXyEhpZ",
          "name" : "Kingly",
          "type" : "artist",
          "uri" : "spotify:artist:3K82LFHTTHMqrp1qXyEhpZ"
        } ],
        "external_urls" : {
          "spotify" : "https://open.spotify.com/album/01gpx96jm7N4BuhGOJsCbe"
        },
        "href" : "https://api.spotify.com/v1/albums/01gpx96jm7N4BuhGOJsCbe",
        "id" : "01gpx96jm7N4BuhGOJsCbe",
        "images" : [ {
          "height" : 640,
          "url" : "https://i.scdn.co/image/ab67616d0000b273661e063507c7ce2c614ac0a5",
          "width" : 640
        }, {
          "height" : 300,
          "url" : "https://i.scdn.co/image/ab67616d00001e02661e063507c7ce2c614ac0a5",
          "width" : 300
        }, {
          "height" : 64,
          "url" : "https://i.scdn.co/image/ab67616d00004851661e063507c7ce2c614ac0a5",
          "width" : 64
        } ],
        "name" : "Give Me Jesus [feat. Logan Miller & John Strandell] (Live)",
        "release_date" : "2019-07-26",
        "release_date_precision" : "day",
        "total_tracks" : 1,
        "type" : "album",
        "uri" : "spotify:album:01gpx96jm7N4BuhGOJsCbe"
      },
      "artists" : [ {
        "external_urls" : {
          "spotify" : "https://open.spotify.com/artist/3K82LFHTTHMqrp1qXyEhpZ"
        },
        "href" : "https://api.spotify.com/v1/artists/3K82LFHTTHMqrp1qXyEhpZ",
        "id" : "3K82LFHTTHMqrp1qXyEhpZ",
        "name" : "Kingly",
        "type" : "artist",
        "uri" : "spotify:artist:3K82LFHTTHMqrp1qXyEhpZ"
      }, {
        "external_urls" : {
          "spotify" : "https://open.spotify.com/artist/7cwvOAl6qErPmuDDopnMiS"
        },
        "href" : "https://api.spotify.com/v1/artists/7cwvOAl6qErPmuDDopnMiS",
        "id" : "7cwvOAl6qErPmuDDopnMiS",
        "name" : "Logan Miller",
        "type" : "artist",
        "uri" : "spotify:artist:7cwvOAl6qErPmuDDopnMiS"
      }, {
        "external_urls" : {
          "spotify" : "https://open.spotify.com/artist/03IKdQ4AUOq3YUPFoYJekd"
        },
        "href" : "https://api.spotify.com/v1/artists/03IKdQ4AUOq3YUPFoYJekd",
        "id" : "03IKdQ4AUOq3YUPFoYJekd",
        "name" : "John Strandell",
        "type" : "artist",
        "uri" : "spotify:artist:03IKdQ4AUOq3YUPFoYJekd"
      } ],
      "disc_number" : 1,
      "duration_ms" : 376000,
      "explicit" : false,
      "external_ids" : {
        "isrc" : "QZFYZ1994465"
      },
      "external_urls" : {
        "spotify" : "https://open.spotify.com/track/5Bx0BOSOI5JZJ57CRYYG5X"
      },
      "href" : "https://api.spotify.com/v1/tracks/5Bx0BOSOI5JZJ57CRYYG5X",
      "id" : "5Bx0BOSOI5JZJ57CRYYG5X",
      "is_local" : false,
      "is_playable" : true,
      "name" : "Give Me Jesus [feat. Logan Miller & John Strandell] - Live",
      "popularity" : 28,
      "preview_url" : "https://p.scdn.co/mp3-preview/28757f5b839d183020a1e2097f7a081d6c1431e0?cid=774b29d4f13844c495f206cafdad9c86",
      "track_number" : 1,
      "type" : "track",
      "uri" : "spotify:track:5Bx0BOSOI5JZJ57CRYYG5X"
    }, {
      "album" : {
        "album_type" : "album",
        "artists" : [ {
          "external_urls" : {
            "spotify" : "https://open.spotify.com/artist/0s7Ro7Q2XagXEYhWbI9PHv"
          },
          "href" : "https://api.spotify.com/v1/artists/0s7Ro7Q2XagXEYhWbI9PHv",
          "id" : "0s7Ro7Q2XagXEYhWbI9PHv",
          "name" : "Mark Schultz",
          "type" : "artist",
          "uri" : "spotify:artist:0s7Ro7Q2XagXEYhWbI9PHv"
        } ],
        "external_urls" : {
          "spotify" : "https://open.spotify.com/album/7HSS4Y0Hsjl03713H5sPDf"
        },
        "href" : "https://api.spotify.com/v1/albums/7HSS4Y0Hsjl03713H5sPDf",
        "id" : "7HSS4Y0Hsjl03713H5sPDf",
        "images" : [ {
          "height" : 640,
          "url" : "https://i.scdn.co/image/ab67616d0000b273cf4316c7f90fd220ea39f1ce",
          "width" : 640
        }, {
          "height" : 300,
          "url" : "https://i.scdn.co/image/ab67616d00001e02cf4316c7f90fd220ea39f1ce",
          "width" : 300
        }, {
          "height" : 64,
          "url" : "https://i.scdn.co/image/ab67616d00004851cf4316c7f90fd220ea39f1ce",
          "width" : 64
        } ],
        "name" : "Hymns",
        "release_date" : "2014-03-25",
        "release_date_precision" : "day",
        "total_tracks" : 10,
        "type" : "album",
        "uri" : "spotify:album:7HSS4Y0Hsjl03713H5sPDf"
      },
      "artists" : [ {
        "external_urls" : {
          "spotify" : "https://open.spotify.com/artist/0s7Ro7Q2XagXEYhWbI9PHv"
        },
        "href" : "https://api.spotify.com/v1/artists/0s7Ro7Q2XagXEYhWbI9PHv",
        "id" : "0s7Ro7Q2XagXEYhWbI9PHv",
        "name" : "Mark Schultz",
        "type" : "artist",
        "uri" : "spotify:artist:0s7Ro7Q2XagXEYhWbI9PHv"
      } ],
      "disc_number" : 1,
      "duration_ms" : 195693,
      "explicit" : false,
      "external_ids" : {
        "isrc" : "USMDR1400010"
      },
      "external_urls" : {
        "spotify" : "https://open.spotify.com/track/4gYHjAjwQ985JKC38Y5PwV"
      },
      "href" : "https://api.spotify.com/v1/tracks/4gYHjAjwQ985JKC38Y5PwV",
      "id" : "4gYHjAjwQ985JKC38Y5PwV",
      "is_local" : false,
      "is_playable" : true,
      "name" : "Give Me Jesus",
      "popularity" : 24,
      "preview_url" : "https://p.scdn.co/mp3-preview/9caaa38cf7213d768e44f145fb394b293d7cd5ff?cid=774b29d4f13844c495f206cafdad9c86",
      "track_number" : 10,
      "type" : "track",
      "uri" : "spotify:track:4gYHjAjwQ985JKC38Y5PwV"
    }, {
      "album" : {
        "album_type" : "album",
        "artists" : [ {
          "external_urls" : {
            "spotify" : "https://open.spotify.com/artist/0cylxW7HGdK9xMdubw2oYW"
          },
          "href" : "https://api.spotify.com/v1/artists/0cylxW7HGdK9xMdubw2oYW",
          "id" : "0cylxW7HGdK9xMdubw2oYW",
          "name" : "The O'Neill Brothers Group",
          "type" : "artist",
          "uri" : "spotify:artist:0cylxW7HGdK9xMdubw2oYW"
        } ],
        "external_urls" : {
          "spotify" : "https://open.spotify.com/album/4vxX8g6W271QU5MidNrat8"
        },
        "href" : "https://api.spotify.com/v1/albums/4vxX8g6W271QU5MidNrat8",
        "id" : "4vxX8g6W271QU5MidNrat8",
        "images" : [ {
          "height" : 640,
          "url" : "https://i.scdn.co/image/ab67616d0000b273eff77d47e8ad0c3a91142ef9",
          "width" : 640
        }, {
          "height" : 300,
          "url" : "https://i.scdn.co/image/ab67616d00001e02eff77d47e8ad0c3a91142ef9",
          "width" : 300
        }, {
          "height" : 64,
          "url" : "https://i.scdn.co/image/ab67616d00004851eff77d47e8ad0c3a91142ef9",
          "width" : 64
        } ],
        "name" : "Christian Piano Songs: This Is My Father's World",
        "release_date" : "2013-01-11",
        "release_date_precision" : "day",
        "total_tracks" : 12,
        "type" : "album",
        "uri" : "spotify:album:4vxX8g6W271QU5MidNrat8"
      },
      "artists" : [ {
        "external_urls" : {
          "spotify" : "https://open.spotify.com/artist/5K7pmz8QeBKWsA3Ty8j3qI"
        },
        "href" : "https://api.spotify.com/v1/artists/5K7pmz8QeBKWsA3Ty8j3qI",
        "id" : "5K7pmz8QeBKWsA3Ty8j3qI",
        "name" : "The O'Neil Brothers Group",
        "type" : "artist",
        "uri" : "spotify:artist:5K7pmz8QeBKWsA3Ty8j3qI"
      } ],
      "disc_number" : 1,
      "duration_ms" : 282653,
      "explicit" : false,
      "external_ids" : {
        "isrc" : "USCHR1310635"
      },
      "external_urls" : {
        "spotify" : "https://open.spotify.com/track/23RMwl8OYmgAWzKa4RZ2vl"
      },
      "href" : "https://api.spotify.com/v1/tracks/23RMwl8OYmgAWzKa4RZ2vl",
      "id" : "23RMwl8OYmgAWzKa4RZ2vl",
      "is_local" : false,
      "is_playable" : true,
      "name" : "Give Me Jesus/People Get Ready",
      "popularity" : 24,
      "preview_url" : "https://p.scdn.co/mp3-preview/e82fc886b08f85ed60764d3e7a763985c236d81f?cid=774b29d4f13844c495f206cafdad9c86",
      "track_number" : 8,
      "type" : "track",
      "uri" : "spotify:track:23RMwl8OYmgAWzKa4RZ2vl"
    } ],
    "limit" : 10,
    "next" : "https://api.spotify.com/v1/search?query=Give+Me+Jesus&type=track&market=US&offset=15&limit=10",
    "offset" : 5,
    "previous" : "https://api.spotify.com/v1/search?query=Give+Me+Jesus&type=track&market=US&offset=0&limit=10",
    "total" : 1262
  }
}