{
  "tracks" : {
    "href" : "https://api.spotify.com/v1/search?query=All+That+Thrills+My+Soul&type=track&market=US&offset=5&limit=10",
    "items" : [ {
      "album" : {
        "album_type" : "single",
        "artists" : [ {
          "external_urls" : {
            "spotify" : "https://open.spotify.com/artist/6MYKRhEIKscR8qdGlvpk9y"
          },
          "href" : "https://api.spotify.com/v1/artists/6MYKRhEIKscR8qdGlvpk9y",
          "id" : "6MYKRhEIKscR8qdGlvpk9y",
          "name" : "Sovereign Grace Music",
          "type" : "artist",
          "uri" : "spotify:artist:6MYKRhEIKscR8qdGlvpk9y"
        } ],
        "external_urls" : {
          "spotify" : "https://open.spotify.com/album/5OLppTaxWTgdWM6oA3tBxL"
        },
        "href" : "https://api.spotify.com/v1/albums/5OLppTaxWTgdWM6oA3tBxL",
        "id" : "5OLppTaxWTgdWM6oA3tBxL",
        "images" : [ {
          "height" : 640,
          "url" : "https://i.scdn.co/image/ab67616d0000b2732deb76ca67949e661c3fe918",
          "width" : 640
        }, {
          "height" : 300,
          "url" : "https://i.scdn.co/image/ab67616d00001e022deb76ca67949e661c3fe918",
          "width" : 300
        }, {
          "height" : 64,
          "url" : "https://i.scdn.co/image/ab67616d000048512deb76ca67949e661c3fe918",
          "width" : 64
        } ],
        "name" : "All That Thrills My Soul",
        "release_date" : "2013-08-01",
        "release_date_precision" : "day",
        "total_tracks" : 6,
        "type" : "album",
        "uri" : "spotify:album:5OLppTaxWTgdWM6oA3tBxL"
      },
      "artists" : [ {
        "external_urls" : {
          "spotify" : "https://open.spotify.com/artist/6MYKRhEIKscR8qdGlvpk9y"
        },
        "href" : "https://api.spotify.com/v1/artists/6MYKRhEIKscR8qdGlvpk9y",
        "id" : "6MYKRhEIKscR8qdGlvpk9y",
        "name" : "Sovereign Grace Music",
        "type" : "artist",
        "uri" : "spotify:artist:6MYKRhEIKscR8qdGlvpk9y"
      } ],
      "disc_number" : 1,
      "duration_ms" : 249066,
      "explicit" : false,
      "external_ids" : {
        "isrc" : "USDHM1300377"
      },
      "external_urls" : {
        "spotify" : "https://open.spotify.com/track/4yMx6l5mA8yNnZIInJiohO"
      },
      "href" : "https://api.spotify.com/v1/tracks/4yMx6l5mA8yNnZIInJiohO",
      "id" : "4yMx6l5mA8yNnZIInJiohO",
      "is_local" : false,
      "is_playable" : true,
      "name" : "Oh, to See You",
      "popularity" : 12,
      "preview_url" : "https://p.scdn.co/mp3-preview/5571b46a728307c1e67bf7a37307cd2404b1cdcc?cid=774b29d4f13844c495f206cafdad9c86",
      "track_number" : 5,
      "type" : "track",
      "uri" : "spotify:track:4yMx6l5mA8yNnZIInJiohO"
    }, {
      "album" : {
        "album_type" : "single",
        "artists" : [ {
          "external_urls" : {
            "spotify" : "https://open.spotify.com/artist/6MYKRhEIKscR8qdGlvpk9y"
          },
          "href" : "https://api.spotify.com/v1/artists/6MYKRhEIKscR8qdGlvpk9y",
          "id" : "6MYKRhEIKscR8qdGlvpk9y",
          "name" : "Sovereign Grace Music",
          "type" : "artist",
          "uri" : "spotify:artist:6MYKRhEIKscR8qdGlvpk9y"
        } ],
        "external_urls" : {
          "spotify" : "https://open.spotify.com/album/5OLppTaxWTgdWM6oA3tBxL"
        },
        "href" : "https://api.spotify.com/v1/albums/5OLppTaxWTgdWM6oA3tBxL",
        "id" : "5OLppTaxWTgdWM6oA3tBxL",
        "images" : [ {
          "height" : 640,
          "url" : "https://i.scdn.co/image/ab67616d0000b2732deb76ca67949e661c3fe918",
          "width" : 640
        }, {
          "height" : 300,
          "url" : "https://i.scdn.co/image/ab67616d00001e022deb76ca67949e661c3fe918",
          "width" : 300
        }, {
          "height" : 64,
          "url" : "https://i.scdn.co/image/ab67616d000048512deb76ca67949e661c3fe918",
          "width" : 64
        } ],
        "name" : "All That Thrills My Soul",
        "release_date" : "2013-08-01",
        "release_date_precision" : "day",
        "total_tracks" : 6,
        "type" : "album",
        "uri" : "spotify:album:5OLppTaxWTgdWM6oA3tBxL"
      },
      "artists" : [ {
        "external_urls" : {
          "spotify" : "https://open.spotify.com/artist/6MYKRhEIKscR8qdGlvpk9y"
        },
        "href" : "https://api.spotify.com/v1/artists/6MYKRhEIKscR8qdGlvpk9y",
        "id" : "6MYKRhEIKscR8qdGlvpk9y",
        "name" : "Sovereign Grace Music",
        "type" : "artist",
        "uri" : "spotify:artist:6MYKRhEIKscR8qdGlvpk9y"
      } ],
      "disc_number" : 1,
      "duration_ms" : 124266,
      "explicit" : false,
      "external_ids" : {
        "isrc" : "USDHM1300375"
      },
      "external_urls" : {
        "spotify" : "https://open.spotify.com/track/2SXFvCJ9LDP85AdgNLdy1G"
      },
      "href" : "https://api.spotify.com/v1/tracks/2SXFvCJ9LDP85AdgNLdy1G",
      "id" : "2SXFvCJ9LDP85AdgNLdy1G",
      "is_local" : false,
      "is_playable" : true,
      "name" : "In the Beginning",
      "popularity" : 10,
      "preview_url" : "https://p.scdn.co/mp3-preview/7e08b95927081b576d59deb436e75da879f878ea?cid=774b29d4f13844c495f206cafdad9c86",
      "track_number" : 3,
      "type" : "track",
      "uri" : "spotify:track:2SXFvCJ9LDP85AdgNLdy1G"
    }, {
      "album" : {
        "album_type" : "single",
        "artists" : [ {
          "external_urls" : {
            "spotify" : "https://open.spotify.com/artist/6MYKRhEIKscR8qdGlvpk9y"
          },
          "href" : "https://api.spotify.com/v1/artists/6MYKRhEIKscR8qdGlvpk9y",
          "id" : "6MYKRhEIKscR8qdGlvpk9y",
          "name" : "Sovereign Grace Music",
          "type" : "artist",
          "uri" : "spotify:artist:6MYKRhEIKscR8qdGlvpk9y"
        } ],
        "external_urls" : {
          "spotify" : "https://open.spotify.com/album/5OLppTaxWTgdWM6oA3tBxL"
        },
        "href" : "https://api.spotify.com/v1/albums/5OLppTaxWTgdWM6oA3tBxL",
        "id" : "5OLppTaxWTgdWM6oA3tBxL",
        "images" : [ {
          "height" : 640,
          "url" : "https://i.scdn.co/image/ab67616d0000b2732deb76ca67949e661c3fe918",
          "width" : 640
        }, {
          "height" : 300,
          "url" : "https://i.scdn.co/image/ab67616d00001e022deb76ca67949e661c3fe918",
          "width" : 300
        }, {
          "height" : 64,
          "url" : "https://i.scdn.co/image/ab67616d000048512deb76ca67949e661c3fe918",
          "width" : 64
        } ],
        "name" : "All That Thrills My Soul",
        "release_date" : "2013-08-01",
        "release_date_precision" : "day",
        "total_tracks" : 6,
        "type" : "album",
        "uri" : "spotify:album:5OLppTaxWTgdWM6oA3tBxL"
      },
      "artists" : [ {
        "external_urls" : {
          "spotify" : "https://open.spotify.com/artist/6MYKRhEIKscR8qdGlvpk9y"
        },
        "href" : "https://api.spotify.com/v1/artists/6MYKRhEIKscR8qdGlvpk9y",
        "id" : "6MYKRhEIKscR8qdGlvpk9y",
        "name" : "Sovereign Grace Music",
        "type" : "artist",
        "uri" : "spotify:artist:6MYKRhEIKscR8qdGlvpk9y"
      } ],
      "disc_number" : 1,
      "duration_ms" : 236813,
      "explicit" : false,
      "external_ids" : {
        "isrc" : "USDHM1300378"
      },
      "external_urls" : {
        "spotify" : "https://open.spotify.com/track/4bhfPKgQnbD3Bn60hGDT2R"
      },
      "href" : "https://api.spotify.com/v1/tracks/4bhfPKgQnbD3Bn60hGDT2R",
      "id" : "4bhfPKgQnbD3Bn60hGDT2R",
      "is_local" : false,
      "is_playable" : true,
      "name" : "Time Keeps Slippin' Away",
      "popularity" : 8,
      "preview_url" : "https://p.scdn.co/mp3-preview/c57e99bda97ee582b7cfa8ce45db433dd64350c5?cid=774b29d4f13844c495f206cafdad9c86",
      "track_number" : 6,
      "type" : "track",
      "uri" : "spotify:track:4bhfPKgQnbD3Bn60hGDT2R"
    }, {
      "album" : {
        "album_type" : "album",
        "artists" : [ {
          "external_urls" : {
            "spotify" : "https://open.spotify.com/artist/6supSJfP5oXocScZGNQ829"
          },
          "href" : "https://api.spotify.com/v1/artists/6supSJfP5oXocScZGNQ829",
          "id" : "6supSJfP5oXocScZGNQ829",
          "name" : "Billy Graham Crusade Choir",
          "type" : "artist",
          "uri" : "spotify:artist:6supSJfP5oXocScZGNQ829"
        } ],
        "external_urls" : {
          "spotify" : "https://open.spotify.com/album/3kerqNFzBvOm9w5WuYWXyS"
        },
        "href" : "https://api.spotify.com/v1/albums/3kerqNFzBvOm9w5WuYWXyS",
        "id" : "3kerqNFzBvOm9w5WuYWXyS",
        "images" : [ {
          "height" : 640,
          "url" : "https://i.scdn.co/image/ab67616d0000b2739b093abbaf1607e5fdec4b9d",
          "width" : 640
        }, {
          "height" : 300,
          "url" : "https://i.scdn.co/image/ab67616d00001e029b093abbaf1607e5fdec4b9d",
          "width" : 300
        }, {
          "height" : 64,
          "url" : "https://i.scdn.co/image/ab67616d000048519b093abbaf1607e5fdec4b9d",
          "width" : 64
        } ],
        "name" : "The Billy Graham British Crusade Choirs 1954 - 1991",
        "release_date" : "2014-10-14",
        "release_date_precision" : "day",
        "total_tracks" : 26,
        "type" : "album",
        "uri" : "spotify:album:3kerqNFzBvOm9w5WuYWXyS"
      },
      "artists" : [ {
        "external_urls" : {
          "spotify" : "https://open.spotify.com/artist/6supSJfP5oXocScZGNQ829"
        },
        "href" : "https://api.spotify.com/v1/artists/6supSJfP5oXocScZGNQ829",
        "id" : "6supSJfP5oXocScZGNQ829",
        "name" : "Billy Graham Crusade Choir",
        "type" : "artist",
        "uri" : "spotify:artist:6supSJfP5oXocScZGNQ829"
      } ],
      "disc_number" : 1,
      "duration_ms" : 189440,
      "explicit" : false,
      "external_ids" : {
        "isrc" : "AULB41400138"
      },
      "external_urls" : {
        "spotify" : "https://open.spotify.com/track/2sYtxHOiqdJvYeMrCtAKav"
      },
      "href" : "https://api.spotify.com/v1/tracks/2sYtxHOiqdJvYeMrCtAKav",
      "id" : "2sYtxHOiqdJvYeMrCtAKav",
      "is_local" : false,
      "is_playable" : true,
      "name" : "All That Thrills My Soul",
      "popularity" : 6,
      "preview_url" : "https://p.scdn.co/mp3-preview/08f81583e5cd8b4916ff08206a92d3999f2c5cfb?cid=774b29d4f13844c495f206cafdad9c86",
      "track_number" : 11,
      "type" : "track",
      "uri" : "spotify:track:2sYtxHOiqdJvYeMrCtAKav"
    }, {
      "album" : {
        "album_type" : "album",
        "artists" : [ {
          "external_urls" : {
            "spotify" : "https://open.spotify.com/artist/4hdd6WRlN1EcACmO8ft0HZ"
          },
          "href" : "https://api.spotify.com/v1/artists/4hdd6WRlN1EcACmO8ft0HZ",
          "id" : "4hdd6WRlN1EcACmO8ft0HZ",
          "name" : "Ralph Carmichael",
          "type" : "artist",
          "uri" : "spotify:artist:4hdd6WRlN1EcACmO8ft0HZ"
        } ],
        "external_urls" : {
          "spotify" : "https://open.spotify.com/album/1a6UnxAr1fTEr1A6gFC76o"
        },
        "href" : "https://api.spotify.com/v1/albums/1a6UnxAr1fTEr1A6gFC76o",
        "id" : "1a6UnxAr1fTEr1A6gFC76o",
        "images" : [ {
          "height" : 640,
          "url" : "https://i.scdn.co/image/ab67616d0000b273232d11f02c08ef83f9544cac",
          "width" : 640
        }, {
          "height" : 300,
          "url" : "https://i.scdn.co/image/ab67616d00001e02232d11f02c08ef83f9544cac",
          "width" : 300
        }, {
          "height" : 64,
          "url" : "https://i.scdn.co/image/ab67616d00004851232d11f02c08ef83f9544cac",
          "width" : 64
        } ],
        "name" : "The Big Band Gospel Classics",
        "release_date" : "1999-08-15",
        "release_date_precision" : "day",
        "total_tracks" : 14,
        "type" : "album",
        "uri" : "spotify:album:1a6UnxAr1fTEr1A6gFC76o"
      },
      "artists" : [ {
        "external_urls" : {
          "spotify" : "https://open.spotify.com/artist/4hdd6WRlN1EcACmO8ft0HZ"
        },
        "href" : "https://api.spotify.com/v1/artists/4hdd6WRlN1EcACmO8ft0HZ",
        "id" : "4hdd6WRlN1EcACmO8ft0HZ",
        "name" : "Ralph Carmichael",
        "type" : "artist",
        "uri" : "spotify:artist:4hdd6WRlN1EcACmO8ft0HZ"
      } ],
      "disc_number" : 1,
      "duration_ms" : 224506,
      "explicit" : false,
      "external_ids" : {
        "isrc" : "US2CS0800462"
      },
      "external_urls" : {
        "spotify" : "https://open.spotify.com/track/54gNOTBGc0avPKfBaBZJeL"
      },
      "href" : "https://api.spotify.com/v1/tracks/54gNOTBGc0avPKfBaBZJeL",
      "id" : "54gNOTBGc0avPKfBaBZJeL",
      "is_local" : false,
      "is_playable" : true,
      "name" : "All That Thrills My Soul",
      "popularity" : 2,
      "preview_url" : "https://p.scdn.co/mp3-preview/38ce2c3d24ef854c65fdca459eef9d12b7b32ee8?cid=774b29d4f13844c495f206cafdad9c86",
      "track_number" : 12,
      "type" : "track",
      "uri" : "spotify:track:54gNOTBGc0avPKfBaBZJeL"
    }, {
      "album" : {
        "album_type" : "album",
        "artists" : [ {
          "external_urls" : {
            "spotify" : "https://open.spotify.com/artist/3jiQ4t07tyKTNkbp25Znjn"
          },
          "href" : "https://api.spotify.com/v1/artists/3jiQ4t07tyKTNkbp25Znjn",
          "id" : "3jiQ4t07tyKTNkbp25Znjn",
          "name" : "The Joslin Grove Choral Society",
          "type" : "artist",
          "uri" : "spotify:artist:3jiQ4t07tyKTNkbp25Znjn"
        } ],
        "external_urls" : {
          "spotify" : "https://open.spotify.com/album/5bvmUfdWdgk3mrS6eLqKlJ"
        },
        "href" : "https://api.spotify.com/v1/albums/5bvmUfdWdgk3mrS6eLqKlJ",
        "id" : "5bvmUfdWdgk3mrS6eLqKlJ",
        "images" : [ {
          "height" : 640,
          "url" : "https://i.scdn.co/image/ab67616d0000b273f1afc3d0f52a97498b68d35c",
          "width" : 640
        }, {
          "height" : 300,
          "url" : "https://i.scdn.co/image/ab67616d00001e02f1afc3d0f52a97498b68d35c",
          "width" : 300
        }, {
          "height" : 64,
          "url" : "https://i.scdn.co/image/ab67616d00004851f1afc3d0f52a97498b68d35c",
          "width" : 64
        } ],
        "name" : "100 Best Loved Hymns",
        "release_date" : "2015-02-03",
        "release_date_precision" : "day",
        "total_tracks" : 100,
        "type" : "album",
        "uri" : "spotify:album:5bvmUfdWdgk3mrS6eLqKlJ"
      },
      "artists" : [ {
        "external_urls" : {
          "spotify" : "https://open.spotify.com/artist/3jiQ4t07tyKTNkbp25Znjn"
        },
        "href" : "https://api.spotify.com/v1/artists/3jiQ4t07tyKTNkbp25Znjn",
        "id" : "3jiQ4t07tyKTNkbp25Znjn",
        "name" : "The Joslin Grove Choral Society",
        "type" : "artist",
        "uri" : "spotify:artist:3jiQ4t07tyKTNkbp25Znjn"
      } ],
      "disc_number" : 1,
      "duration_ms" : 131562,
      "explicit" : false,
      "external_ids" : {
        "isrc" : "CA6GH1300157"
      },
      "external_urls" : {
        "spotify" : "https://open.spotify.com/track/3oktFsuW6LQmTRb28BPj95"
      },
      "href" : "https://api.spotify.com/v1/tracks/3oktFsuW6LQmTRb28BPj95",
      "id" : "3oktFsuW6LQmTRb28BPj95",
      "is_local" : false,
      "is_playable" : true,
      "name" : "All That Thrills My Soul",
      "popularity" : 3,
      "preview_url" : "https://p.scdn.co/mp3-preview/9003abbafd8aef3d8499c9d113fac898fe2bc4de?cid=774b29d4f13844c495f206cafdad9c86",
      "track_number" : 48,
      "type" : "track",
      "uri" : "spotify:track:3oktFsuW6LQmTRb28BPj95"
    }, {
      "album" : {
        "album_type" : "album",
        "artists" : [ {
          "external_urls" : {
            "spotify" : "https://open.spotify.com/artist/5JZHP01jvOzHEHISOPaWNn"
          },
          "href" : "https://api.spotify.com/v1/artists/5JZHP01jvOzHEHISOPaWNn",
          "id" : "5JZHP01jvOzHEHISOPaWNn",
          "name" : "Watermark Worship",
          "type" : "artist",
          "uri" : "spotify:artist:5JZHP01jvOzHEHISOPaWNn"
        } ],
        "external_urls" : {
          "spotify" : "https://open.spotify.com/album/4OGHRFnDt3zph0mw41Kcl8"
        },
        "href" : "https://api.spotify.com/v1/albums/4OGHRFnDt3zph0mw41Kcl8",
        "id" : "4OGHRFnDt3zph0mw41Kcl8",
        "images" : [ {
          "height" : 640,
          "url" : "https://i.scdn.co/image/ab67616d0000b2736ff9492327c4a64b579f995f",
          "width" : 640
        }, {
          "height" : 300,
          "url" : "https://i.scdn.co/image/ab67616d00001e026ff9492327c4a64b579f995f",
          "width" : 300
        }, {
          "height" : 64,
          "url" : "https://i.scdn.co/image/ab67616d000048516ff9492327c4a64b579f995f",
          "width" : 64
        } ],
        "name" : "Mercy Come",
        "release_date" : "2013-12-13",
        "release_date_precision" : "day",
        "total_tracks" : 10,
        "type" : "album",
        "uri" : "spotify:album:4OGHRFnDt3zph0mw41Kcl8"
      },
      "artists" : [ {
        "external_urls" : {
          "spotify" : "https://open.spotify.com/artist/5JZHP01jvOzHEHISOPaWNn"
        },
        "href" : "https://api.spotify.com/v1/artists/5JZHP01jvOzHEHISOPaWNn",
        "id" : "5JZHP01jvOzHEHISOPaWNn",
        "name" : "Watermark Worship",
        "type" : "artist",
        "uri" : "spotify:artist:5JZHP01jvOzHEHISOPaWNn"
      } ],
      "disc_number" : 1,
      "duration_ms" : 273920,
      "explicit" : false,
      "external_ids" : {
        "isrc" : "usx9p1345945"
      },
      "external_urls" : {
        "spotify" : "https://open.spotify.com/track/7ADPogXZmZLRq8EBGBO59f"
      },
      "href" : "https://api.spotify.com/v1/tracks/7ADPogXZmZLRq8EBGBO59f",
      "id" : "7ADPogXZmZLRq8EBGBO59f",
      "is_local" : false,
      "is_playable" : true,
      "name" : "All That Thrills My Soul",
      "popularity" : 3,
      "preview_url" : "https://p.scdn.co/mp3-preview/e4953b3d2b86753f320bd1e09de6bc44e33a652e?cid=774b29d4f13844c495f206cafdad9c86",
      "track_number" : 8,
      "type" : "track",
      "uri" : "spotify:track:7ADPogXZmZLRq8EBGBO59f"
    }, {
      "album" : {
        "album_type" : "album",
        "artists" : [ {
          "external_urls" : {
            "spotify" : "https://open.spotify.com/artist/3FgHuH2gkpID9mwSPTLAZm"
          },
          "href" : "https://api.spotify.com/v1/artists/3FgHuH2gkpID9mwSPTLAZm",
          "id" : "3FgHuH2gkpID9mwSPTLAZm",
          "name" : "Austin Layne And The Layne Ensemble",
          "type" : "artist",
          "uri" : "spotify:artist:3FgHuH2gkpID9mwSPTLAZm"
        } ],
        "external_urls" : {
          "spotify" : "https://open.spotify.com/album/5CCNpZdXBpCky0R10RK065"
        },
        "href" : "https://api.spotify.com/v1/albums/5CCNpZdXBpCky0R10RK065",
        "id" : "5CCNpZdXBpCky0R10RK065",
        "images" : [ {
          "height" : 640,
          "url" : "https://i.scdn.co/image/ab67616d0000b2734039a5766d8874e800af9993",
          "width" : 640
        }, {
          "height" : 300,
          "url" : "https://i.scdn.co/image/ab67616d00001e024039a5766d8874e800af9993",
          "width" : 300
        }, {
          "height" : 64,
          "url" : "https://i.scdn.co/image/ab67616d000048514039a5766d8874e800af9993",
          "width" : 64
        } ],
        "name" : "Austin Layne And The Layne Ensemble",
        "release_date" : "1969-08-13",
        "release_date_precision" : "day",
        "total_tracks" : 12,
        "type" : "album",
        "uri" : "spotify:album:5CCNpZdXBpCky0R10RK065"
      },
      "artists" : [ {
        "external_urls" : {
          "spotify" : "https://open.spotify.com/artist/3FgHuH2gkpID9mwSPTLAZm"
        },
        "href" : "https://api.spotify.com/v1/artists/3FgHuH2gkpID9mwSPTLAZm",
        "id" : "3FgHuH2gkpID9mwSPTLAZm",
        "name" : "Austin Layne And The Layne Ensemble",
        "type" : "artist",
        "uri" : "spotify:artist:3FgHuH2gkpID9mwSPTLAZm"
      } ],
      "disc_number" : 1,
      "duration_ms" : 198813,
      "explicit" : false,
      "external_ids" : {
        "isrc" : "US1SR2020034"
      },
      "external_urls" : {
        "spotify" : "https://open.spotify.com/track/3K2uBSvqDUCA00TOm7beme"
      },
      "href" : "https://api.spotify.com/v1/tracks/3K2uBSvqDUCA00TOm7beme",
      "id" : "3K2uBSvqDUCA00TOm7beme",
      "is_local" : false,
      "is_playable" : true,
      "name" : "All That Thrills My Soul",
      "popularity" : 0,
      "preview_url" : "https://p.scdn.co/mp3-preview/41eca5f37df06392a2eadb0d7784055ec18a0c89?cid=774b29d4f13844c495f206cafdad9c86",
      "track_number" : 11,
      "type" : "track",
      "uri" : "spotify:track:3K2uBSvqDUCA00TOm7beme"
    }, {
      "album" : {
        "album_type" : "album",
        "artists" : [ {
          "external_urls" : {
            "spotify" : "https://open.spotify.com/artist/4hdd6WRlN1EcACmO8ft0HZ"
          },
          "href" : "https://api.spotify.com/v1/artists/4hdd6WRlN1EcACmO8ft0HZ",
          "id" : "4hdd6WRlN1EcACmO8ft0HZ",
          "name" : "Ralph Carmichael",
          "type" : "artist",
          "uri" : "spotify:artist:4hdd6WRlN1EcACmO8ft0HZ"
        } ],
        "external_urls" : {
          "spotify" : "https://open.spotify.com/album/45Z755kK1Oz0ToOFgO3D07"
        },
        "href" : "https://api.spotify.com/v1/albums/45Z755kK1Oz0ToOFgO3D07",
        "id" : "45Z755kK1Oz0ToOFgO3D07",
        "images" : [ {
          "height" : 640,
          "url" : "https://i.scdn.co/image/ab67616d0000b2735eeabc4c7ef74cc5c9fb13d4",
          "width" : 640
        }, {
          "height" : 300,
          "url" : "https://i.scdn.co/image/ab67616d00001e025eeabc4c7ef74cc5c9fb13d4",
          "width" : 300
        }, {
          "height" : 64,
          "url" : "https://i.scdn.co/image/ab67616d000048515eeabc4c7ef74cc5c9fb13d4",
          "width" : 64
        } ],
        "name" : "The Big Band Gospel Classics",
        "release_date" : "1999-08-15",
        "release_date_precision" : "day",
        "total_tracks" : 14,
        "type" : "album",
        "uri" : "spotify:album:45Z755kK1Oz0ToOFgO3D07"
      },
      "artists" : [ {
        "external_urls" : {
          "spotify" : "https://open.spotify.com/artist/4hdd6WRlN1EcACmO8ft0HZ"
        },
        "href" : "https://api.spotify.com/v1/artists/4hdd6WRlN1EcACmO8ft0HZ",
        "id" : "4hdd6WRlN1EcACmO8ft0HZ",
        "name" : "Ralph Carmichael",
        "type" : "artist",
        "uri" : "spotify:artist:4hdd6WRlN1EcACmO8ft0HZ"
      } ],
      "disc_number" : 1,
      "duration_ms" : 224506,
      "explicit" : false,
      "external_ids" : {
        "isrc" : "US2CS0800462"
      },
      "external_urls" : {
        "spotify" : "https://open.spotify.com/track/58lGbPYdPd35svJ3HUrJ5N"
      },
      "href" : "https://api.spotify.com/v1/tracks/58lGbPYdPd35svJ3HUrJ5N",
      "id" : "58lGbPYdPd35svJ3HUrJ5N",
      "is_local" : false,
      "is_playable" : true,
      "name" : "All That Thrills My Soul",
      "popularity" : 0,
      "preview_url" : "https://p.scdn.co/mp3-preview/2a8827fdd46cd8472510bd1b9bf3efae813baf15?cid=774b29d4f13844c495f206cafdad9c86",
      "track_number" : 12,
      "type" : "track",
      "uri" : "spotify:track:58lGbPYdPd35svJ3HUrJ5N"
    }, {
      "album" : {
        "album_type" : "album",
        "artists" : [ {
          "external_urls" : {
            "spotify" : "https://open.spotify.com/artist/3jiQ4t07tyKTNkbp25Znjn"
          },
          "href" : "https://api.spotify.com/v1/artists/3jiQ4t07tyKTNkbp25Znjn",
          "id" : "3jiQ4t07tyKTNkbp25Znjn",
          "name" : "The Joslin Grove Choral Society",
          "type" : "artist",
          "uri" : "spotify:artist:3jiQ4t07tyKTNkbp25Znjn"
        } ],
        "external_urls" : {
          "spotify" : "https://open.spotify.com/album/0uE16Mkmxx1jBPA74TuNOr"
        },
        "href" : "https://api.spotify.com/v1/albums/0uE16Mkmxx1jBPA74TuNOr",
        "id" : "0uE16Mkmxx1jBPA74TuNOr",
        "images" : [ {
          "height" : 640,
          "url" : "https://i.scdn.co/image/ab67616d0000b273c3c4069a8bc87deacc5418bd",
          "width" : 640
        }, {
          "height" : 300,
          "url" : "https://i.scdn.co/image/ab67616d00001e02c3c4069a8bc87deacc5418bd",
          "width" : 300
        }, {
          "height" : 64,
          "url" : "https://i.scdn.co/image/ab67616d00004851c3c4069a8bc87deacc5418bd",
          "width" : 64
        } ],
        "name" : "50 Hymns and Praise Favorites, Vol. 2",
        "release_date" : "2004-07-27",
        "release_date_precision" : "day",
        "total_tracks" : 50,
        "type" : "album",
        "uri" : "spotify:album:0uE16Mkmxx1jBPA74TuNOr"
      },
      "artists" : [ {
        "external_urls" : {
          "spotify" : "https://open.spotify.com/artist/3jiQ4t07tyKTNkbp25Znjn"
        },
        "href" : "https://api.spotify.com/v1/artists/3jiQ4t07tyKTNkbp25Znjn",
        "id" : "3jiQ4t07tyKTNkbp25Znjn",
        "name" : "The Joslin Grove Choral Society",
        "type" : "artist",
        "uri" : "spotify:artist:3jiQ4t07tyKTNkbp25Znjn"
      } ],
      "disc_number" : 1,
      "duration_ms" : 186333,
      "explicit" : false,
      "external_ids" : {
        "isrc" : "CAM460601759"
      },
      "external_urls" : {
        "spotify" : "https://open.spotify.com/track/6UHZHDuAawV9rYIRCC4GeJ"
      },
      "href" : "https://api.spotify.com/v1/tracks/6UHZHDuAawV9rYIRCC4GeJ",
      "id" : "6UHZHDuAawV9rYIRCC4GeJ",
      "is_local" : false,
      "is_playable" : true,
      "name" : "All That Thrills My Soul",
      "popularity" : 0,
      "preview_url" : "https://p.scdn.co/mp3-preview/8e25070d3fb18babd2b97a2bfb6ec07c7e21a4bf?cid=774b29d4f13844c495f206cafdad9c86",
      "track_number" : 13,
      "type" : "track",
      "uri" : "spotify:track:6UHZHDuAawV9rYIRCC4GeJ"
    } ],
    "limit" : 10,
    "next" : "https://api.spotify.com/v1/search?query=All+That+Thrills+My+Soul&type=track&market=US&offset=15&limit=10",
    "offset" : 5,
    "previous" : "https://api.spotify.com/v1/search?query=All+That+Thrills+My+Soul&type=track&market=US&offset=0&limit=10",
    "total" : 65
  }
}