{
  "tracks" : {
    "href" : "https://api.spotify.com/v1/search?query=Still%2C+Still+With+Thee&type=track&market=US&offset=5&limit=10",
    "items" : [ {
      "album" : {
        "album_type" : "album",
        "artists" : [ {
          "external_urls" : {
            "spotify" : "https://open.spotify.com/artist/6zIm2MOFEcNKS0u6SZnbWO"
          },
          "href" : "https://api.spotify.com/v1/artists/6zIm2MOFEcNKS0u6SZnbWO",
          "id" : "6zIm2MOFEcNKS0u6SZnbWO",
          "name" : "Penny Rodriguez",
          "type" : "artist",
          "uri" : "spotify:artist:6zIm2MOFEcNKS0u6SZnbWO"
        } ],
        "external_urls" : {
          "spotify" : "https://open.spotify.com/album/1qaCFttxJ8h61SEDTKUyma"
        },
        "href" : "https://api.spotify.com/v1/albums/1qaCFttxJ8h61SEDTKUyma",
        "id" : "1qaCFttxJ8h61SEDTKUyma",
        "images" : [ {
          "height" : 640,
          "url" : "https://i.scdn.co/image/ab67616d0000b273ba2842d8fc67ffd0e8e13b64",
          "width" : 640
        }, {
          "height" : 300,
          "url" : "https://i.scdn.co/image/ab67616d00001e02ba2842d8fc67ffd0e8e13b64",
          "width" : 300
        }, {
          "height" : 64,
          "url" : "https://i.scdn.co/image/ab67616d00004851ba2842d8fc67ffd0e8e13b64",
          "width" : 64
        } ],
        "name" : "The Solo Piano Wedding",
        "release_date" : "1996-01-01",
        "release_date_precision" : "day",
        "total_tracks" : 17,
        "type" : "album",
        "uri" : "spotify:album:1qaCFttxJ8h61SEDTKUyma"
      },
      "artists" : [ {
        "external_urls" : {
          "spotify" : "https://open.spotify.com/artist/6zIm2MOFEcNKS0u6SZnbWO"
        },
        "href" : "https://api.spotify.com/v1/artists/6zIm2MOFEcNKS0u6SZnbWO",
        "id" : "6zIm2MOFEcNKS0u6SZnbWO",
        "name" : "Penny Rodriguez",
        "type" : "artist",
        "uri" : "spotify:artist:6zIm2MOFEcNKS0u6SZnbWO"
      } ],
      "disc_number" : 1,
      "duration_ms" : 67533,
      "explicit" : false,
      "external_ids" : {
        "isrc" : "ushm20748316"
      },
      "external_urls" : {
        "spotify" : "https://open.spotify.com/track/3ZlNUJEDayyQWxWm98hPhF"
      },
      "href" : "https://api.spotify.com/v1/tracks/3ZlNUJEDayyQWxWm98hPhF",
      "id" : "3ZlNUJEDayyQWxWm98hPhF",
      "is_local" : false,
      "is_playable" : true,
      "name" : "Still, Still With Thee",
      "popularity" : 0,
      "preview_url" : "https://p.scdn.co/mp3-preview/4731d93959572dac6b4f0967513bdf1f913eba5b?cid=774b29d4f13844c495f206cafdad9c86",
      "track_number" : 10,
      "type" : "track",
      "uri" : "spotify:track:3ZlNUJEDayyQWxWm98hPhF"
    }, {
      "album" : {
        "album_type" : "album",
        "artists" : [ {
          "external_urls" : {
            "spotify" : "https://open.spotify.com/artist/5S0ExlteM2nUhXT4ViR6Ao"
          },
          "href" : "https://api.spotify.com/v1/artists/5S0ExlteM2nUhXT4ViR6Ao",
          "id" : "5S0ExlteM2nUhXT4ViR6Ao",
          "name" : "Mirek Stekla",
          "type" : "artist",
          "uri" : "spotify:artist:5S0ExlteM2nUhXT4ViR6Ao"
        } ],
        "external_urls" : {
          "spotify" : "https://open.spotify.com/album/1BR5dG9YO427TDMgSDeAdr"
        },
        "href" : "https://api.spotify.com/v1/albums/1BR5dG9YO427TDMgSDeAdr",
        "id" : "1BR5dG9YO427TDMgSDeAdr",
        "images" : [ {
          "height" : 640,
          "url" : "https://i.scdn.co/image/ab67616d0000b273b409d378c3491ee68d761fa0",
          "width" : 640
        }, {
          "height" : 300,
          "url" : "https://i.scdn.co/image/ab67616d00001e02b409d378c3491ee68d761fa0",
          "width" : 300
        }, {
          "height" : 64,
          "url" : "https://i.scdn.co/image/ab67616d00004851b409d378c3491ee68d761fa0",
          "width" : 64
        } ],
        "name" : "Hymns",
        "release_date" : "1993-11-09",
        "release_date_precision" : "day",
        "total_tracks" : 12,
        "type" : "album",
        "uri" : "spotify:album:1BR5dG9YO427TDMgSDeAdr"
      },
      "artists" : [ {
        "external_urls" : {
          "spotify" : "https://open.spotify.com/artist/5S0ExlteM2nUhXT4ViR6Ao"
        },
        "href" : "https://api.spotify.com/v1/artists/5S0ExlteM2nUhXT4ViR6Ao",
        "id" : "5S0ExlteM2nUhXT4ViR6Ao",
        "name" : "Mirek Stekla",
        "type" : "artist",
        "uri" : "spotify:artist:5S0ExlteM2nUhXT4ViR6Ao"
      } ],
      "disc_number" : 1,
      "duration_ms" : 207000,
      "explicit" : false,
      "external_ids" : {
        "isrc" : "TCABB1177617"
      },
      "external_urls" : {
        "spotify" : "https://open.spotify.com/track/21z0mO3TJLjtELylsu101M"
      },
      "href" : "https://api.spotify.com/v1/tracks/21z0mO3TJLjtELylsu101M",
      "id" : "21z0mO3TJLjtELylsu101M",
      "is_local" : false,
      "is_playable" : true,
      "name" : "Still Still With Thee",
      "popularity" : 0,
      "preview_url" : "https://p.scdn.co/mp3-preview/e91e8bf4890f636936eeb91fdf5dc41e38e835cc?cid=774b29d4f13844c495f206cafdad9c86",
      "track_number" : 8,
      "type" : "track",
      "uri" : "spotify:track:21z0mO3TJLjtELylsu101M"
    }, {
      "album" : {
        "album_type" : "album",
        "artists" : [ {
          "external_urls" : {
            "spotify" : "https://open.spotify.com/artist/1eVNIUr2PA6vLCSHijvDiN"
          },
          "href" : "https://api.spotify.com/v1/artists/1eVNIUr2PA6vLCSHijvDiN",
          "id" : "1eVNIUr2PA6vLCSHijvDiN",
          "name" : "His Envoys",
          "type" : "artist",
          "uri" : "spotify:artist:1eVNIUr2PA6vLCSHijvDiN"
        } ],
        "external_urls" : {
          "spotify" : "https://open.spotify.com/album/16AKDnYyTTKbuJNOW56Pwb"
        },
        "href" : "https://api.spotify.com/v1/albums/16AKDnYyTTKbuJNOW56Pwb",
        "id" : "16AKDnYyTTKbuJNOW56Pwb",
        "images" : [ {
          "height" : 640,
          "url" : "https://i.scdn.co/image/ab67616d0000b273a28efd400fd7e6dd72fd637c",
          "width" : 640
        }, {
          "height" : 300,
          "url" : "https://i.scdn.co/image/ab67616d00001e02a28efd400fd7e6dd72fd637c",
          "width" : 300
        }, {
          "height" : 64,
          "url" : "https://i.scdn.co/image/ab67616d00004851a28efd400fd7e6dd72fd637c",
          "width" : 64
        } ],
        "name" : "Daystar",
        "release_date" : "2006-09-01",
        "release_date_precision" : "day",
        "total_tracks" : 13,
        "type" : "album",
        "uri" : "spotify:album:16AKDnYyTTKbuJNOW56Pwb"
      },
      "artists" : [ {
        "external_urls" : {
          "spotify" : "https://open.spotify.com/artist/1eVNIUr2PA6vLCSHijvDiN"
        },
        "href" : "https://api.spotify.com/v1/artists/1eVNIUr2PA6vLCSHijvDiN",
        "id" : "1eVNIUr2PA6vLCSHijvDiN",
        "name" : "His Envoys",
        "type" : "artist",
        "uri" : "spotify:artist:1eVNIUr2PA6vLCSHijvDiN"
      } ],
      "disc_number" : 1,
      "duration_ms" : 205213,
      "explicit" : false,
      "external_ids" : {
        "isrc" : "uscgj1531011"
      },
      "external_urls" : {
        "spotify" : "https://open.spotify.com/track/27VznGiWEzqF0v8WEACFvr"
      },
      "href" : "https://api.spotify.com/v1/tracks/27VznGiWEzqF0v8WEACFvr",
      "id" : "27VznGiWEzqF0v8WEACFvr",
      "is_local" : false,
      "is_playable" : true,
      "name" : "Still, Still With Thee",
      "popularity" : 0,
      "preview_url" : "https://p.scdn.co/mp3-preview/b3b8659c0ab7fe98134e5e16348633a72504e815?cid=774b29d4f13844c495f206cafdad9c86",
      "track_number" : 7,
      "type" : "track",
      "uri" : "spotify:track:27VznGiWEzqF0v8WEACFvr"
    }, {
      "album" : {
        "album_type" : "album",
        "artists" : [ {
          "external_urls" : {
            "spotify" : "https://open.spotify.com/artist/4VwMzbYZ5Pul3U9LpeOMyV"
          },
          "href" : "https://api.spotify.com/v1/artists/4VwMzbYZ5Pul3U9LpeOMyV",
          "id" : "4VwMzbYZ5Pul3U9LpeOMyV",
          "name" : "The London String Ensemble",
          "type" : "artist",
          "uri" : "spotify:artist:4VwMzbYZ5Pul3U9LpeOMyV"
        } ],
        "external_urls" : {
          "spotify" : "https://open.spotify.com/album/7tHmGk32gnLZRO3srcnLgC"
        },
        "href" : "https://api.spotify.com/v1/albums/7tHmGk32gnLZRO3srcnLgC",
        "id" : "7tHmGk32gnLZRO3srcnLgC",
        "images" : [ {
          "height" : 640,
          "url" : "https://i.scdn.co/image/ab67616d0000b27370610ccce75064f087b66318",
          "width" : 640
        }, {
          "height" : 300,
          "url" : "https://i.scdn.co/image/ab67616d00001e0270610ccce75064f087b66318",
          "width" : 300
        }, {
          "height" : 64,
          "url" : "https://i.scdn.co/image/ab67616d0000485170610ccce75064f087b66318",
          "width" : 64
        } ],
        "name" : "Sing and Rejoice, Vol. 3",
        "release_date" : "2007",
        "release_date_precision" : "year",
        "total_tracks" : 12,
        "type" : "album",
        "uri" : "spotify:album:7tHmGk32gnLZRO3srcnLgC"
      },
      "artists" : [ {
        "external_urls" : {
          "spotify" : "https://open.spotify.com/artist/4VwMzbYZ5Pul3U9LpeOMyV"
        },
        "href" : "https://api.spotify.com/v1/artists/4VwMzbYZ5Pul3U9LpeOMyV",
        "id" : "4VwMzbYZ5Pul3U9LpeOMyV",
        "name" : "The London String Ensemble",
        "type" : "artist",
        "uri" : "spotify:artist:4VwMzbYZ5Pul3U9LpeOMyV"
      } ],
      "disc_number" : 1,
      "duration_ms" : 119840,
      "explicit" : false,
      "external_ids" : {
        "isrc" : "DEU470004361"
      },
      "external_urls" : {
        "spotify" : "https://open.spotify.com/track/4XS0qJv4cUgg2INDiqdWEc"
      },
      "href" : "https://api.spotify.com/v1/tracks/4XS0qJv4cUgg2INDiqdWEc",
      "id" : "4XS0qJv4cUgg2INDiqdWEc",
      "is_local" : false,
      "is_playable" : true,
      "name" : "Still, Still with Thee",
      "popularity" : 0,
      "preview_url" : "https://p.scdn.co/mp3-preview/02ba0df8dee8bf871242d0a0d9ec495698f26afd?cid=774b29d4f13844c495f206cafdad9c86",
      "track_number" : 5,
      "type" : "track",
      "uri" : "spotify:track:4XS0qJv4cUgg2INDiqdWEc"
    }, {
      "album" : {
        "album_type" : "single",
        "artists" : [ {
          "external_urls" : {
            "spotify" : "https://open.spotify.com/artist/57s0PghKSzpx7WwYxPkYpD"
          },
          "href" : "https://api.spotify.com/v1/artists/57s0PghKSzpx7WwYxPkYpD",
          "id" : "57s0PghKSzpx7WwYxPkYpD",
          "name" : "Ron & Sheriah Arellano",
          "type" : "artist",
          "uri" : "spotify:artist:57s0PghKSzpx7WwYxPkYpD"
        } ],
        "external_urls" : {
          "spotify" : "https://open.spotify.com/album/2yVtDTgS6uEpWKPMc2d08t"
        },
        "href" : "https://api.spotify.com/v1/albums/2yVtDTgS6uEpWKPMc2d08t",
        "id" : "2yVtDTgS6uEpWKPMc2d08t",
        "images" : [ {
          "height" : 640,
          "url" : "https://i.scdn.co/image/ab67616d0000b273bc8f7553e1f98e06fc6a4f3e",
          "width" : 640
        }, {
          "height" : 300,
          "url" : "https://i.scdn.co/image/ab67616d00001e02bc8f7553e1f98e06fc6a4f3e",
          "width" : 300
        }, {
          "height" : 64,
          "url" : "https://i.scdn.co/image/ab67616d00004851bc8f7553e1f98e06fc6a4f3e",
          "width" : 64
        } ],
        "name" : "More Love to Thee",
        "release_date" : "2018-12-12",
        "release_date_precision" : "day",
        "total_tracks" : 6,
        "type" : "album",
        "uri" : "spotify:album:2yVtDTgS6uEpWKPMc2d08t"
      },
      "artists" : [ {
        "external_urls" : {
          "spotify" : "https://open.spotify.com/artist/57s0PghKSzpx7WwYxPkYpD"
        },
        "href" : "https://api.spotify.com/v1/artists/57s0PghKSzpx7WwYxPkYpD",
        "id" : "57s0PghKSzpx7WwYxPkYpD",
        "name" : "Ron & Sheriah Arellano",
        "type" : "artist",
        "uri" : "spotify:artist:57s0PghKSzpx7WwYxPkYpD"
      } ],
      "disc_number" : 1,
      "duration_ms" : 205932,
      "explicit" : false,
      "external_ids" : {
        "isrc" : "QZES91875362"
      },
      "external_urls" : {
        "spotify" : "https://open.spotify.com/track/5hF7adq2lh81JVWsbgUkh5"
      },
      "href" : "https://api.spotify.com/v1/tracks/5hF7adq2lh81JVWsbgUkh5",
      "id" : "5hF7adq2lh81JVWsbgUkh5",
      "is_local" : false,
      "is_playable" : true,
      "name" : "Still, Still With Thee",
      "popularity" : 0,
      "preview_url" : "https://p.scdn.co/mp3-preview/aa2d057e7cd65c9e014da1849c61f2e91aee27bf?cid=774b29d4f13844c495f206cafdad9c86",
      "track_number" : 5,
      "type" : "track",
      "uri" : "spotify:track:5hF7adq2lh81JVWsbgUkh5"
    }, {
      "album" : {
        "album_type" : "album",
        "artists" : [ {
          "external_urls" : {
            "spotify" : "https://open.spotify.com/artist/3PD5zxzz6qJ8R1YP4LicT9"
          },
          "href" : "https://api.spotify.com/v1/artists/3PD5zxzz6qJ8R1YP4LicT9",
          "id" : "3PD5zxzz6qJ8R1YP4LicT9",
          "name" : "Peter B. Allen, Tanya Kay Perkins",
          "type" : "artist",
          "uri" : "spotify:artist:3PD5zxzz6qJ8R1YP4LicT9"
        } ],
        "external_urls" : {
          "spotify" : "https://open.spotify.com/album/5FztO99xOCNmA7mToO3X9e"
        },
        "href" : "https://api.spotify.com/v1/albums/5FztO99xOCNmA7mToO3X9e",
        "id" : "5FztO99xOCNmA7mToO3X9e",
        "images" : [ {
          "height" : 640,
          "url" : "https://i.scdn.co/image/ab67616d0000b273d7304b409b9a6009ee38eade",
          "width" : 640
        }, {
          "height" : 300,
          "url" : "https://i.scdn.co/image/ab67616d00001e02d7304b409b9a6009ee38eade",
          "width" : 300
        }, {
          "height" : 64,
          "url" : "https://i.scdn.co/image/ab67616d00004851d7304b409b9a6009ee38eade",
          "width" : 64
        } ],
        "name" : "Still With Thee",
        "release_date" : "1994-01-01",
        "release_date_precision" : "day",
        "total_tracks" : 12,
        "type" : "album",
        "uri" : "spotify:album:5FztO99xOCNmA7mToO3X9e"
      },
      "artists" : [ {
        "external_urls" : {
          "spotify" : "https://open.spotify.com/artist/3PD5zxzz6qJ8R1YP4LicT9"
        },
        "href" : "https://api.spotify.com/v1/artists/3PD5zxzz6qJ8R1YP4LicT9",
        "id" : "3PD5zxzz6qJ8R1YP4LicT9",
        "name" : "Peter B. Allen, Tanya Kay Perkins",
        "type" : "artist",
        "uri" : "spotify:artist:3PD5zxzz6qJ8R1YP4LicT9"
      } ],
      "disc_number" : 1,
      "duration_ms" : 249200,
      "explicit" : false,
      "external_ids" : {
        "isrc" : "ushm80588493"
      },
      "external_urls" : {
        "spotify" : "https://open.spotify.com/track/0A3jmcNCPRgmTnRghadiCW"
      },
      "href" : "https://api.spotify.com/v1/tracks/0A3jmcNCPRgmTnRghadiCW",
      "id" : "0A3jmcNCPRgmTnRghadiCW",
      "is_local" : false,
      "is_playable" : true,
      "name" : "Still, Still with Thee",
      "popularity" : 0,
      "preview_url" : "https://p.scdn.co/mp3-preview/6a47b2e3065e51f5fe5c3ce41cb75ec19e53421b?cid=774b29d4f13844c495f206cafdad9c86",
      "track_number" : 1,
      "type" : "track",
      "uri" : "spotify:track:0A3jmcNCPRgmTnRghadiCW"
    }, {
      "album" : {
        "album_type" : "album",
        "artists" : [ {
          "external_urls" : {
            "spotify" : "https://open.spotify.com/artist/0uGPdNG43XoazZZmVPYum3"
          },
          "href" : "https://api.spotify.com/v1/artists/0uGPdNG43XoazZZmVPYum3",
          "id" : "0uGPdNG43XoazZZmVPYum3",
          "name" : "Josh Henn",
          "type" : "artist",
          "uri" : "spotify:artist:0uGPdNG43XoazZZmVPYum3"
        } ],
        "external_urls" : {
          "spotify" : "https://open.spotify.com/album/4nka9Q5Tx7QpevwR6DmgU5"
        },
        "href" : "https://api.spotify.com/v1/albums/4nka9Q5Tx7QpevwR6DmgU5",
        "id" : "4nka9Q5Tx7QpevwR6DmgU5",
        "images" : [ {
          "height" : 640,
          "url" : "https://i.scdn.co/image/ab67616d0000b2738c9e864d14c03da01ea31f67",
          "width" : 640
        }, {
          "height" : 300,
          "url" : "https://i.scdn.co/image/ab67616d00001e028c9e864d14c03da01ea31f67",
          "width" : 300
        }, {
          "height" : 64,
          "url" : "https://i.scdn.co/image/ab67616d000048518c9e864d14c03da01ea31f67",
          "width" : 64
        } ],
        "name" : "Harmony of Prayer",
        "release_date" : "2018-07-05",
        "release_date_precision" : "day",
        "total_tracks" : 20,
        "type" : "album",
        "uri" : "spotify:album:4nka9Q5Tx7QpevwR6DmgU5"
      },
      "artists" : [ {
        "external_urls" : {
          "spotify" : "https://open.spotify.com/artist/0uGPdNG43XoazZZmVPYum3"
        },
        "href" : "https://api.spotify.com/v1/artists/0uGPdNG43XoazZZmVPYum3",
        "id" : "0uGPdNG43XoazZZmVPYum3",
        "name" : "Josh Henn",
        "type" : "artist",
        "uri" : "spotify:artist:0uGPdNG43XoazZZmVPYum3"
      } ],
      "disc_number" : 1,
      "duration_ms" : 132284,
      "explicit" : false,
      "external_ids" : {
        "isrc" : "QZES72013705"
      },
      "external_urls" : {
        "spotify" : "https://open.spotify.com/track/1CiZhw72DccNgaQbo7z6TC"
      },
      "href" : "https://api.spotify.com/v1/tracks/1CiZhw72DccNgaQbo7z6TC",
      "id" : "1CiZhw72DccNgaQbo7z6TC",
      "is_local" : false,
      "is_playable" : true,
      "name" : "Still, Still With Thee",
      "popularity" : 1,
      "preview_url" : "https://p.scdn.co/mp3-preview/1d482f31b5bf2e2e6638903000f2f00acefc8006?cid=774b29d4f13844c495f206cafdad9c86",
      "track_number" : 17,
      "type" : "track",
      "uri" : "spotify:track:1CiZhw72DccNgaQbo7z6TC"
    }, {
      "album" : {
        "album_type" : "album",
        "artists" : [ {
          "external_urls" : {
            "spotify" : "https://open.spotify.com/artist/4etl1HlQEwvmVzyAuw6KZh"
          },
          "href" : "https://api.spotify.com/v1/artists/4etl1HlQEwvmVzyAuw6KZh",
          "id" : "4etl1HlQEwvmVzyAuw6KZh",
          "name" : "Chords of Praise",
          "type" : "artist",
          "uri" : "spotify:artist:4etl1HlQEwvmVzyAuw6KZh"
        } ],
        "external_urls" : {
          "spotify" : "https://open.spotify.com/album/71nqvn8n5l90w8LrY71DXa"
        },
        "href" : "https://api.spotify.com/v1/albums/71nqvn8n5l90w8LrY71DXa",
        "id" : "71nqvn8n5l90w8LrY71DXa",
        "images" : [ {
          "height" : 640,
          "url" : "https://i.scdn.co/image/ab67616d0000b27331192ceee8b73f8d8b77cb2b",
          "width" : 640
        }, {
          "height" : 300,
          "url" : "https://i.scdn.co/image/ab67616d00001e0231192ceee8b73f8d8b77cb2b",
          "width" : 300
        }, {
          "height" : 64,
          "url" : "https://i.scdn.co/image/ab67616d0000485131192ceee8b73f8d8b77cb2b",
          "width" : 64
        } ],
        "name" : "A Living Prayer",
        "release_date" : "2020-02-22",
        "release_date_precision" : "day",
        "total_tracks" : 14,
        "type" : "album",
        "uri" : "spotify:album:71nqvn8n5l90w8LrY71DXa"
      },
      "artists" : [ {
        "external_urls" : {
          "spotify" : "https://open.spotify.com/artist/4etl1HlQEwvmVzyAuw6KZh"
        },
        "href" : "https://api.spotify.com/v1/artists/4etl1HlQEwvmVzyAuw6KZh",
        "id" : "4etl1HlQEwvmVzyAuw6KZh",
        "name" : "Chords of Praise",
        "type" : "artist",
        "uri" : "spotify:artist:4etl1HlQEwvmVzyAuw6KZh"
      } ],
      "disc_number" : 1,
      "duration_ms" : 219585,
      "explicit" : false,
      "external_ids" : {
        "isrc" : "uscgj2018535"
      },
      "external_urls" : {
        "spotify" : "https://open.spotify.com/track/0iCKYUxwi60YesVOPamVhe"
      },
      "href" : "https://api.spotify.com/v1/tracks/0iCKYUxwi60YesVOPamVhe",
      "id" : "0iCKYUxwi60YesVOPamVhe",
      "is_local" : false,
      "is_playable" : true,
      "name" : "Still, Still with Thee",
      "popularity" : 2,
      "preview_url" : "https://p.scdn.co/mp3-preview/ef9c3f18011d4efa60e95430de43de4c20536c8d?cid=774b29d4f13844c495f206cafdad9c86",
      "track_number" : 4,
      "type" : "track",
      "uri" : "spotify:track:0iCKYUxwi60YesVOPamVhe"
    }, {
      "album" : {
        "album_type" : "album",
        "artists" : [ {
          "external_urls" : {
            "spotify" : "https://open.spotify.com/artist/3tIAQ7Br1LCUY2ywuJ6jOU"
          },
          "href" : "https://api.spotify.com/v1/artists/3tIAQ7Br1LCUY2ywuJ6jOU",
          "id" : "3tIAQ7Br1LCUY2ywuJ6jOU",
          "name" : "Mark Burrows",
          "type" : "artist",
          "uri" : "spotify:artist:3tIAQ7Br1LCUY2ywuJ6jOU"
        } ],
        "external_urls" : {
          "spotify" : "https://open.spotify.com/album/5oR7oq07Enf4EN4I8Xg72f"
        },
        "href" : "https://api.spotify.com/v1/albums/5oR7oq07Enf4EN4I8Xg72f",
        "id" : "5oR7oq07Enf4EN4I8Xg72f",
        "images" : [ {
          "height" : 640,
          "url" : "https://i.scdn.co/image/ab67616d0000b273acad6b386136f1a38ddffede",
          "width" : 640
        }, {
          "height" : 300,
          "url" : "https://i.scdn.co/image/ab67616d00001e02acad6b386136f1a38ddffede",
          "width" : 300
        }, {
          "height" : 64,
          "url" : "https://i.scdn.co/image/ab67616d00004851acad6b386136f1a38ddffede",
          "width" : 64
        } ],
        "name" : "Solemn Splendor",
        "release_date" : "2010-08-01",
        "release_date_precision" : "day",
        "total_tracks" : 18,
        "type" : "album",
        "uri" : "spotify:album:5oR7oq07Enf4EN4I8Xg72f"
      },
      "artists" : [ {
        "external_urls" : {
          "spotify" : "https://open.spotify.com/artist/3JhlXxFX1FhoLhRZSJQjt9"
        },
        "href" : "https://api.spotify.com/v1/artists/3JhlXxFX1FhoLhRZSJQjt9",
        "id" : "3JhlXxFX1FhoLhRZSJQjt9",
        "name" : "Fred Gramann",
        "type" : "artist",
        "uri" : "spotify:artist:3JhlXxFX1FhoLhRZSJQjt9"
      }, {
        "external_urls" : {
          "spotify" : "https://open.spotify.com/artist/1cK2El7GKRSBbgrxSTY7Jk"
        },
        "href" : "https://api.spotify.com/v1/artists/1cK2El7GKRSBbgrxSTY7Jk",
        "id" : "1cK2El7GKRSBbgrxSTY7Jk",
        "name" : "Adoramus Vocal Ensemble",
        "type" : "artist",
        "uri" : "spotify:artist:1cK2El7GKRSBbgrxSTY7Jk"
      }, {
        "external_urls" : {
          "spotify" : "https://open.spotify.com/artist/0QHoyY4R3BtxzbtvZP3i26"
        },
        "href" : "https://api.spotify.com/v1/artists/0QHoyY4R3BtxzbtvZP3i26",
        "id" : "0QHoyY4R3BtxzbtvZP3i26",
        "name" : "Dolores August",
        "type" : "artist",
        "uri" : "spotify:artist:0QHoyY4R3BtxzbtvZP3i26"
      }, {
        "external_urls" : {
          "spotify" : "https://open.spotify.com/artist/6Z41rTQNVg9NhU9jbLntUD"
        },
        "href" : "https://api.spotify.com/v1/artists/6Z41rTQNVg9NhU9jbLntUD",
        "id" : "6Z41rTQNVg9NhU9jbLntUD",
        "name" : "Aaron Medina",
        "type" : "artist",
        "uri" : "spotify:artist:6Z41rTQNVg9NhU9jbLntUD"
      }, {
        "external_urls" : {
          "spotify" : "https://open.spotify.com/artist/3tIAQ7Br1LCUY2ywuJ6jOU"
        },
        "href" : "https://api.spotify.com/v1/artists/3tIAQ7Br1LCUY2ywuJ6jOU",
        "id" : "3tIAQ7Br1LCUY2ywuJ6jOU",
        "name" : "Mark Burrows",
        "type" : "artist",
        "uri" : "spotify:artist:3tIAQ7Br1LCUY2ywuJ6jOU"
      } ],
      "disc_number" : 1,
      "duration_ms" : 333400,
      "explicit" : false,
      "external_ids" : {
        "isrc" : "US4BV0893510"
      },
      "external_urls" : {
        "spotify" : "https://open.spotify.com/track/2RCYZ4pIjN3yLbVm9BbOHO"
      },
      "href" : "https://api.spotify.com/v1/tracks/2RCYZ4pIjN3yLbVm9BbOHO",
      "id" : "2RCYZ4pIjN3yLbVm9BbOHO",
      "is_local" : false,
      "is_playable" : true,
      "name" : "Still, Still with Thee",
      "popularity" : 0,
      "preview_url" : "https://p.scdn.co/mp3-preview/99f3c5d052ba89f888edfc2f80cf0927d0ff1875?cid=774b29d4f13844c495f206cafdad9c86",
      "track_number" : 10,
      "type" : "track",
      "uri" : "spotify:track:2RCYZ4pIjN3yLbVm9BbOHO"
    }, {
      "album" : {
        "album_type" : "album",
        "artists" : [ {
          "external_urls" : {
            "spotify" : "https://open.spotify.com/artist/6F0YKhNXfGyTqSgcPHHVqn"
          },
          "href" : "https://api.spotify.com/v1/artists/6F0YKhNXfGyTqSgcPHHVqn",
          "id" : "6F0YKhNXfGyTqSgcPHHVqn",
          "name" : "American Repertory Singers",
          "type" : "artist",
          "uri" : "spotify:artist:6F0YKhNXfGyTqSgcPHHVqn"
        }, {
          "external_urls" : {
            "spotify" : "https://open.spotify.com/artist/7kisG2XEkN3Ug39SeYTKQv"
          },
          "href" : "https://api.spotify.com/v1/artists/7kisG2XEkN3Ug39SeYTKQv",
          "id" : "7kisG2XEkN3Ug39SeYTKQv",
          "name" : "Leo Nestor",
          "type" : "artist",
          "uri" : "spotify:artist:7kisG2XEkN3Ug39SeYTKQv"
        } ],
        "external_urls" : {
          "spotify" : "https://open.spotify.com/album/2JZ4YTW8pt05NAutDtydmS"
        },
        "href" : "https://api.spotify.com/v1/albums/2JZ4YTW8pt05NAutDtydmS",
        "id" : "2JZ4YTW8pt05NAutDtydmS",
        "images" : [ {
          "height" : 640,
          "url" : "https://i.scdn.co/image/ab67616d0000b273c7867686f124c66870fbe17a",
          "width" : 640
        }, {
          "height" : 300,
          "url" : "https://i.scdn.co/image/ab67616d00001e02c7867686f124c66870fbe17a",
          "width" : 300
        }, {
          "height" : 64,
          "url" : "https://i.scdn.co/image/ab67616d00004851c7867686f124c66870fbe17a",
          "width" : 64
        } ],
        "name" : "Sounding Joy",
        "release_date" : "2015-02-01",
        "release_date_precision" : "day",
        "total_tracks" : 21,
        "type" : "album",
        "uri" : "spotify:album:2JZ4YTW8pt05NAutDtydmS"
      },
      "artists" : [ {
        "external_urls" : {
          "spotify" : "https://open.spotify.com/artist/3JhlXxFX1FhoLhRZSJQjt9"
        },
        "href" : "https://api.spotify.com/v1/artists/3JhlXxFX1FhoLhRZSJQjt9",
        "id" : "3JhlXxFX1FhoLhRZSJQjt9",
        "name" : "Fred Gramann",
        "type" : "artist",
        "uri" : "spotify:artist:3JhlXxFX1FhoLhRZSJQjt9"
      }, {
        "external_urls" : {
          "spotify" : "https://open.spotify.com/artist/6F0YKhNXfGyTqSgcPHHVqn"
        },
        "href" : "https://api.spotify.com/v1/artists/6F0YKhNXfGyTqSgcPHHVqn",
        "id" : "6F0YKhNXfGyTqSgcPHHVqn",
        "name" : "American Repertory Singers",
        "type" : "artist",
        "uri" : "spotify:artist:6F0YKhNXfGyTqSgcPHHVqn"
      }, {
        "external_urls" : {
          "spotify" : "https://open.spotify.com/artist/7kisG2XEkN3Ug39SeYTKQv"
        },
        "href" : "https://api.spotify.com/v1/artists/7kisG2XEkN3Ug39SeYTKQv",
        "id" : "7kisG2XEkN3Ug39SeYTKQv",
        "name" : "Leo Nestor",
        "type" : "artist",
        "uri" : "spotify:artist:7kisG2XEkN3Ug39SeYTKQv"
      } ],
      "disc_number" : 1,
      "duration_ms" : 366733,
      "explicit" : false,
      "external_ids" : {
        "isrc" : "USAR99610513"
      },
      "external_urls" : {
        "spotify" : "https://open.spotify.com/track/4jJbAmofRrbc1TmNyGl48s"
      },
      "href" : "https://api.spotify.com/v1/tracks/4jJbAmofRrbc1TmNyGl48s",
      "id" : "4jJbAmofRrbc1TmNyGl48s",
      "is_local" : false,
      "is_playable" : true,
      "name" : "Still, Still with Thee",
      "popularity" : 0,
      "preview_url" : "https://p.scdn.co/mp3-preview/fa67c56a404aa105422e1332e01ebc21089aaf09?cid=774b29d4f13844c495f206cafdad9c86",
      "track_number" : 13,
      "type" : "track",
      "uri" : "spotify:track:4jJbAmofRrbc1TmNyGl48s"
    } ],
    "limit" : 10,
    "next" : "https://api.spotify.com/v1/search?query=Still%2C+Still+With+Thee&type=track&market=US&offset=15&limit=10",
    "offset" : 5,
    "previous" : "https://api.spotify.com/v1/search?query=Still%2C+Still+With+Thee&type=track&market=US&offset=0&limit=10",
    "total" : 68
  }
}