{
  "tracks" : {
    "href" : "https://api.spotify.com/v1/search?query=Balm+in+Gilead&type=track&market=US&offset=5&limit=10",
    "items" : [ {
      "album" : {
        "album_type" : "album",
        "artists" : [ {
          "external_urls" : {
            "spotify" : "https://open.spotify.com/artist/57fiSnpzQICriJFSFuqHoa"
          },
          "href" : "https://api.spotify.com/v1/artists/57fiSnpzQICriJFSFuqHoa",
          "id" : "57fiSnpzQICriJFSFuqHoa",
          "name" : "Classic Worship",
          "type" : "artist",
          "uri" : "spotify:artist:57fiSnpzQICriJFSFuqHoa"
        } ],
        "external_urls" : {
          "spotify" : "https://open.spotify.com/album/2HBqGq2e4Rbvta7y0QW0FT"
        },
        "href" : "https://api.spotify.com/v1/albums/2HBqGq2e4Rbvta7y0QW0FT",
        "id" : "2HBqGq2e4Rbvta7y0QW0FT",
        "images" : [ {
          "height" : 640,
          "url" : "https://i.scdn.co/image/ab67616d0000b2731ff50096635e19144aab31b9",
          "width" : 640
        }, {
          "height" : 300,
          "url" : "https://i.scdn.co/image/ab67616d00001e021ff50096635e19144aab31b9",
          "width" : 300
        }, {
          "height" : 64,
          "url" : "https://i.scdn.co/image/ab67616d000048511ff50096635e19144aab31b9",
          "width" : 64
        } ],
        "name" : "What A Friend We Have In Jesus - Hymns Of Comfort from the Classic Worship series",
        "release_date" : "2012",
        "release_date_precision" : "year",
        "total_tracks" : 10,
        "type" : "album",
        "uri" : "spotify:album:2HBqGq2e4Rbvta7y0QW0FT"
      },
      "artists" : [ {
        "external_urls" : {
          "spotify" : "https://open.spotify.com/artist/1IYk7Dbm3X8vVAgrK8tNbv"
        },
        "href" : "https://api.spotify.com/v1/artists/1IYk7Dbm3X8vVAgrK8tNbv",
        "id" : "1IYk7Dbm3X8vVAgrK8tNbv",
        "name" : "Eric Wyse",
        "type" : "artist",
        "uri" : "spotify:artist:1IYk7Dbm3X8vVAgrK8tNbv"
      } ],
      "disc_number" : 1,
      "duration_ms" : 153533,
      "explicit" : false,
      "external_ids" : {
        "isrc" : "USG5S1221707"
      },
      "external_urls" : {
        "spotify" : "https://open.spotify.com/track/2csTjypfzZZUaFLed3S8iT"
      },
      "href" : "https://api.spotify.com/v1/tracks/2csTjypfzZZUaFLed3S8iT",
      "id" : "2csTjypfzZZUaFLed3S8iT",
      "is_local" : false,
      "is_playable" : true,
      "name" : "There Is A Balm In Gilead",
      "popularity" : 17,
      "preview_url" : "https://p.scdn.co/mp3-preview/889d0cd6482b50da55bf9b51bc5fb23548c4bd92?cid=774b29d4f13844c495f206cafdad9c86",
      "track_number" : 7,
      "type" : "track",
      "uri" : "spotify:track:2csTjypfzZZUaFLed3S8iT"
    }, {
      "album" : {
        "album_type" : "album",
        "artists" : [ {
          "external_urls" : {
            "spotify" : "https://open.spotify.com/artist/5ZKBQyNLXQd1VfNf2oH5yF"
          },
          "href" : "https://api.spotify.com/v1/artists/5ZKBQyNLXQd1VfNf2oH5yF",
          "id" : "5ZKBQyNLXQd1VfNf2oH5yF",
          "name" : "Phillip Keveren",
          "type" : "artist",
          "uri" : "spotify:artist:5ZKBQyNLXQd1VfNf2oH5yF"
        } ],
        "external_urls" : {
          "spotify" : "https://open.spotify.com/album/3BbbRS4oieyMJyeG3v6u18"
        },
        "href" : "https://api.spotify.com/v1/albums/3BbbRS4oieyMJyeG3v6u18",
        "id" : "3BbbRS4oieyMJyeG3v6u18",
        "images" : [ {
          "height" : 640,
          "url" : "https://i.scdn.co/image/ab67616d0000b27306af257e944d3a56766b23ab",
          "width" : 640
        }, {
          "height" : 300,
          "url" : "https://i.scdn.co/image/ab67616d00001e0206af257e944d3a56766b23ab",
          "width" : 300
        }, {
          "height" : 64,
          "url" : "https://i.scdn.co/image/ab67616d0000485106af257e944d3a56766b23ab",
          "width" : 64
        } ],
        "name" : "Wondrous Love - Piano and Praise",
        "release_date" : "2010-05-19",
        "release_date_precision" : "day",
        "total_tracks" : 14,
        "type" : "album",
        "uri" : "spotify:album:3BbbRS4oieyMJyeG3v6u18"
      },
      "artists" : [ {
        "external_urls" : {
          "spotify" : "https://open.spotify.com/artist/5ZKBQyNLXQd1VfNf2oH5yF"
        },
        "href" : "https://api.spotify.com/v1/artists/5ZKBQyNLXQd1VfNf2oH5yF",
        "id" : "5ZKBQyNLXQd1VfNf2oH5yF",
        "name" : "Phillip Keveren",
        "type" : "artist",
        "uri" : "spotify:artist:5ZKBQyNLXQd1VfNf2oH5yF"
      } ],
      "disc_number" : 1,
      "duration_ms" : 896093,
      "explicit" : false,
      "external_ids" : {
        "isrc" : "USLF50801279"
      },
      "external_urls" : {
        "spotify" : "https://open.spotify.com/track/0bZlqhcc7pLdoP6onfPAYb"
      },
      "href" : "https://api.spotify.com/v1/tracks/0bZlqhcc7pLdoP6onfPAYb",
      "id" : "0bZlqhcc7pLdoP6onfPAYb",
      "is_local" : false,
      "is_playable" : true,
      "name" : "Spiritual Medley / Deep River / We Are Climbing Jacob's Ladder / All My Trials / Let Us Break Break Together / There Is a Balm in Gilead / Steal Away to Jesus",
      "popularity" : 18,
      "preview_url" : "https://p.scdn.co/mp3-preview/6807c862e5b545235cfbfdd2e1d647a5c94f5feb?cid=774b29d4f13844c495f206cafdad9c86",
      "track_number" : 11,
      "type" : "track",
      "uri" : "spotify:track:0bZlqhcc7pLdoP6onfPAYb"
    }, {
      "album" : {
        "album_type" : "album",
        "artists" : [ {
          "external_urls" : {
            "spotify" : "https://open.spotify.com/artist/0dYkMe3wK29DulSa0uR8Rq"
          },
          "href" : "https://api.spotify.com/v1/artists/0dYkMe3wK29DulSa0uR8Rq",
          "id" : "0dYkMe3wK29DulSa0uR8Rq",
          "name" : "Rickie Lee Jones",
          "type" : "artist",
          "uri" : "spotify:artist:0dYkMe3wK29DulSa0uR8Rq"
        } ],
        "external_urls" : {
          "spotify" : "https://open.spotify.com/album/186z0bI30XmfmtdXuMI51e"
        },
        "href" : "https://api.spotify.com/v1/albums/186z0bI30XmfmtdXuMI51e",
        "id" : "186z0bI30XmfmtdXuMI51e",
        "images" : [ {
          "height" : 640,
          "url" : "https://i.scdn.co/image/ab67616d0000b273dd0cd6e1501cbf299eee63bb",
          "width" : 640
        }, {
          "height" : 300,
          "url" : "https://i.scdn.co/image/ab67616d00001e02dd0cd6e1501cbf299eee63bb",
          "width" : 300
        }, {
          "height" : 64,
          "url" : "https://i.scdn.co/image/ab67616d00004851dd0cd6e1501cbf299eee63bb",
          "width" : 64
        } ],
        "name" : "Balm in Gilead",
        "release_date" : "2009-01-01",
        "release_date_precision" : "day",
        "total_tracks" : 10,
        "type" : "album",
        "uri" : "spotify:album:186z0bI30XmfmtdXuMI51e"
      },
      "artists" : [ {
        "external_urls" : {
          "spotify" : "https://open.spotify.com/artist/0dYkMe3wK29DulSa0uR8Rq"
        },
        "href" : "https://api.spotify.com/v1/artists/0dYkMe3wK29DulSa0uR8Rq",
        "id" : "0dYkMe3wK29DulSa0uR8Rq",
        "name" : "Rickie Lee Jones",
        "type" : "artist",
        "uri" : "spotify:artist:0dYkMe3wK29DulSa0uR8Rq"
      } ],
      "disc_number" : 1,
      "duration_ms" : 180493,
      "explicit" : false,
      "external_ids" : {
        "isrc" : "USC4R0920708"
      },
      "external_urls" : {
        "spotify" : "https://open.spotify.com/track/5zBtJauGTfVNkfcpAtKqOi"
      },
      "href" : "https://api.spotify.com/v1/tracks/5zBtJauGTfVNkfcpAtKqOi",
      "id" : "5zBtJauGTfVNkfcpAtKqOi",
      "is_local" : false,
      "is_playable" : true,
      "name" : "The Moon Is Made of Gold",
      "popularity" : 37,
      "preview_url" : null,
      "track_number" : 4,
      "type" : "track",
      "uri" : "spotify:track:5zBtJauGTfVNkfcpAtKqOi"
    }, {
      "album" : {
        "album_type" : "album",
        "artists" : [ {
          "external_urls" : {
            "spotify" : "https://open.spotify.com/artist/6VUdDU44uo3KwSHc9lAEFE"
          },
          "href" : "https://api.spotify.com/v1/artists/6VUdDU44uo3KwSHc9lAEFE",
          "id" : "6VUdDU44uo3KwSHc9lAEFE",
          "name" : "The Clark Sisters",
          "type" : "artist",
          "uri" : "spotify:artist:6VUdDU44uo3KwSHc9lAEFE"
        } ],
        "external_urls" : {
          "spotify" : "https://open.spotify.com/album/3LnFDrskjXyuMppw4mqWur"
        },
        "href" : "https://api.spotify.com/v1/albums/3LnFDrskjXyuMppw4mqWur",
        "id" : "3LnFDrskjXyuMppw4mqWur",
        "images" : [ {
          "height" : 640,
          "url" : "https://i.scdn.co/image/ab67616d0000b273fd2a3df5c55feebb2b469761",
          "width" : 640
        }, {
          "height" : 300,
          "url" : "https://i.scdn.co/image/ab67616d00001e02fd2a3df5c55feebb2b469761",
          "width" : 300
        }, {
          "height" : 64,
          "url" : "https://i.scdn.co/image/ab67616d00004851fd2a3df5c55feebb2b469761",
          "width" : 64
        } ],
        "name" : "Beginnings",
        "release_date" : "2012-01-24",
        "release_date_precision" : "day",
        "total_tracks" : 15,
        "type" : "album",
        "uri" : "spotify:album:3LnFDrskjXyuMppw4mqWur"
      },
      "artists" : [ {
        "external_urls" : {
          "spotify" : "https://open.spotify.com/artist/6VUdDU44uo3KwSHc9lAEFE"
        },
        "href" : "https://api.spotify.com/v1/artists/6VUdDU44uo3KwSHc9lAEFE",
        "id" : "6VUdDU44uo3KwSHc9lAEFE",
        "name" : "The Clark Sisters",
        "type" : "artist",
        "uri" : "spotify:artist:6VUdDU44uo3KwSHc9lAEFE"
      } ],
      "disc_number" : 1,
      "duration_ms" : 279653,
      "explicit" : false,
      "external_ids" : {
        "isrc" : "USWR61101180"
      },
      "external_urls" : {
        "spotify" : "https://open.spotify.com/track/5Gb5xChVkjEepf4ArAOppt"
      },
      "href" : "https://api.spotify.com/v1/tracks/5Gb5xChVkjEepf4ArAOppt",
      "id" : "5Gb5xChVkjEepf4ArAOppt",
      "is_local" : false,
      "is_playable" : true,
      "name" : "There Is A Balm In Gilead",
      "popularity" : 18,
      "preview_url" : "https://p.scdn.co/mp3-preview/b099df72bfdd6b363287d2c212d2901e2feda6b3?cid=774b29d4f13844c495f206cafdad9c86",
      "track_number" : 4,
      "type" : "track",
      "uri" : "spotify:track:5Gb5xChVkjEepf4ArAOppt"
    }, {
      "album" : {
        "album_type" : "album",
        "artists" : [ {
          "external_urls" : {
            "spotify" : "https://open.spotify.com/artist/6QBUIuGCAJSAtefEY1EEdB"
          },
          "href" : "https://api.spotify.com/v1/artists/6QBUIuGCAJSAtefEY1EEdB",
          "id" : "6QBUIuGCAJSAtefEY1EEdB",
          "name" : "Mahalia Jackson",
          "type" : "artist",
          "uri" : "spotify:artist:6QBUIuGCAJSAtefEY1EEdB"
        } ],
        "external_urls" : {
          "spotify" : "https://open.spotify.com/album/2w9wFu5qjGKqBHDLNU2b8N"
        },
        "href" : "https://api.spotify.com/v1/albums/2w9wFu5qjGKqBHDLNU2b8N",
        "id" : "2w9wFu5qjGKqBHDLNU2b8N",
        "images" : [ {
          "height" : 640,
          "url" : "https://i.scdn.co/image/ab67616d0000b273e8284c3b528dffbb24f53db3",
          "width" : 640
        }, {
          "height" : 300,
          "url" : "https://i.scdn.co/image/ab67616d00001e02e8284c3b528dffbb24f53db3",
          "width" : 300
        }, {
          "height" : 64,
          "url" : "https://i.scdn.co/image/ab67616d00004851e8284c3b528dffbb24f53db3",
          "width" : 64
        } ],
        "name" : "The Essential Mahalia Jackson",
        "release_date" : "2004",
        "release_date_precision" : "year",
        "total_tracks" : 37,
        "type" : "album",
        "uri" : "spotify:album:2w9wFu5qjGKqBHDLNU2b8N"
      },
      "artists" : [ {
        "external_urls" : {
          "spotify" : "https://open.spotify.com/artist/6QBUIuGCAJSAtefEY1EEdB"
        },
        "href" : "https://api.spotify.com/v1/artists/6QBUIuGCAJSAtefEY1EEdB",
        "id" : "6QBUIuGCAJSAtefEY1EEdB",
        "name" : "Mahalia Jackson",
        "type" : "artist",
        "uri" : "spotify:artist:6QBUIuGCAJSAtefEY1EEdB"
      } ],
      "disc_number" : 1,
      "duration_ms" : 330333,
      "explicit" : false,
      "external_ids" : {
        "isrc" : "USSM10100896"
      },
      "external_urls" : {
        "spotify" : "https://open.spotify.com/track/1FKG5EKbFW9ZwuYjSUDch3"
      },
      "href" : "https://api.spotify.com/v1/tracks/1FKG5EKbFW9ZwuYjSUDch3",
      "id" : "1FKG5EKbFW9ZwuYjSUDch3",
      "is_local" : false,
      "is_playable" : true,
      "name" : "There Is A Balm In Gilead - Live",
      "popularity" : 17,
      "preview_url" : "https://p.scdn.co/mp3-preview/a76fe0ce95cd93caa4d6206ca5b93dac3ee8a37c?cid=774b29d4f13844c495f206cafdad9c86",
      "track_number" : 15,
      "type" : "track",
      "uri" : "spotify:track:1FKG5EKbFW9ZwuYjSUDch3"
    }, {
      "album" : {
        "album_type" : "album",
        "artists" : [ {
          "external_urls" : {
            "spotify" : "https://open.spotify.com/artist/0zJMRRK3Kx6Sv6nTlq4nSX"
          },
          "href" : "https://api.spotify.com/v1/artists/0zJMRRK3Kx6Sv6nTlq4nSX",
          "id" : "0zJMRRK3Kx6Sv6nTlq4nSX",
          "name" : "The Forty Day Journey",
          "type" : "artist",
          "uri" : "spotify:artist:0zJMRRK3Kx6Sv6nTlq4nSX"
        } ],
        "external_urls" : {
          "spotify" : "https://open.spotify.com/album/3FkG6EKFbRNNX265o3fwwp"
        },
        "href" : "https://api.spotify.com/v1/albums/3FkG6EKFbRNNX265o3fwwp",
        "id" : "3FkG6EKFbRNNX265o3fwwp",
        "images" : [ {
          "height" : 640,
          "url" : "https://i.scdn.co/image/ab67616d0000b273898ba200bb416afe79c45791",
          "width" : 640
        }, {
          "height" : 300,
          "url" : "https://i.scdn.co/image/ab67616d00001e02898ba200bb416afe79c45791",
          "width" : 300
        }, {
          "height" : 64,
          "url" : "https://i.scdn.co/image/ab67616d00004851898ba200bb416afe79c45791",
          "width" : 64
        } ],
        "name" : "Lent",
        "release_date" : "2015-12-27",
        "release_date_precision" : "day",
        "total_tracks" : 20,
        "type" : "album",
        "uri" : "spotify:album:3FkG6EKFbRNNX265o3fwwp"
      },
      "artists" : [ {
        "external_urls" : {
          "spotify" : "https://open.spotify.com/artist/0zJMRRK3Kx6Sv6nTlq4nSX"
        },
        "href" : "https://api.spotify.com/v1/artists/0zJMRRK3Kx6Sv6nTlq4nSX",
        "id" : "0zJMRRK3Kx6Sv6nTlq4nSX",
        "name" : "The Forty Day Journey",
        "type" : "artist",
        "uri" : "spotify:artist:0zJMRRK3Kx6Sv6nTlq4nSX"
      } ],
      "disc_number" : 1,
      "duration_ms" : 95332,
      "explicit" : false,
      "external_ids" : {
        "isrc" : "USLZJ1597907"
      },
      "external_urls" : {
        "spotify" : "https://open.spotify.com/track/75ZtgqTIyNS3TjM4mtR1u6"
      },
      "href" : "https://api.spotify.com/v1/tracks/75ZtgqTIyNS3TjM4mtR1u6",
      "id" : "75ZtgqTIyNS3TjM4mtR1u6",
      "is_local" : false,
      "is_playable" : true,
      "name" : "There Is A Balm In Gilead",
      "popularity" : 13,
      "preview_url" : "https://p.scdn.co/mp3-preview/c47e3649d3c60ea652e3a6d7a2cb6ad0ae037910?cid=774b29d4f13844c495f206cafdad9c86",
      "track_number" : 13,
      "type" : "track",
      "uri" : "spotify:track:75ZtgqTIyNS3TjM4mtR1u6"
    }, {
      "album" : {
        "album_type" : "album",
        "artists" : [ {
          "external_urls" : {
            "spotify" : "https://open.spotify.com/artist/4WrPtbSgxMZ5U10DsTCBk8"
          },
          "href" : "https://api.spotify.com/v1/artists/4WrPtbSgxMZ5U10DsTCBk8",
          "id" : "4WrPtbSgxMZ5U10DsTCBk8",
          "name" : "Praise and Harmony",
          "type" : "artist",
          "uri" : "spotify:artist:4WrPtbSgxMZ5U10DsTCBk8"
        } ],
        "external_urls" : {
          "spotify" : "https://open.spotify.com/album/4hBoE9L4nxf5qIcFv2tXZ0"
        },
        "href" : "https://api.spotify.com/v1/albums/4hBoE9L4nxf5qIcFv2tXZ0",
        "id" : "4hBoE9L4nxf5qIcFv2tXZ0",
        "images" : [ {
          "height" : 640,
          "url" : "https://i.scdn.co/image/ab67616d0000b273a71155941a5036e8e46a4241",
          "width" : 640
        }, {
          "height" : 300,
          "url" : "https://i.scdn.co/image/ab67616d00001e02a71155941a5036e8e46a4241",
          "width" : 300
        }, {
          "height" : 64,
          "url" : "https://i.scdn.co/image/ab67616d00004851a71155941a5036e8e46a4241",
          "width" : 64
        } ],
        "name" : "Compassionate God",
        "release_date" : "2020-02-28",
        "release_date_precision" : "day",
        "total_tracks" : 25,
        "type" : "album",
        "uri" : "spotify:album:4hBoE9L4nxf5qIcFv2tXZ0"
      },
      "artists" : [ {
        "external_urls" : {
          "spotify" : "https://open.spotify.com/artist/4WrPtbSgxMZ5U10DsTCBk8"
        },
        "href" : "https://api.spotify.com/v1/artists/4WrPtbSgxMZ5U10DsTCBk8",
        "id" : "4WrPtbSgxMZ5U10DsTCBk8",
        "name" : "Praise and Harmony",
        "type" : "artist",
        "uri" : "spotify:artist:4WrPtbSgxMZ5U10DsTCBk8"
      } ],
      "disc_number" : 1,
      "duration_ms" : 140391,
      "explicit" : false,
      "external_ids" : {
        "isrc" : "QMS4L2000030"
      },
      "external_urls" : {
        "spotify" : "https://open.spotify.com/track/44749oZVfQDIXDj6slH9FC"
      },
      "href" : "https://api.spotify.com/v1/tracks/44749oZVfQDIXDj6slH9FC",
      "id" : "44749oZVfQDIXDj6slH9FC",
      "is_local" : false,
      "is_playable" : true,
      "name" : "There Is a Balm in Gilead",
      "popularity" : 13,
      "preview_url" : "https://p.scdn.co/mp3-preview/98d864171a210b989ae163ca0bc985268dd86c0d?cid=774b29d4f13844c495f206cafdad9c86",
      "track_number" : 4,
      "type" : "track",
      "uri" : "spotify:track:44749oZVfQDIXDj6slH9FC"
    }, {
      "album" : {
        "album_type" : "album",
        "artists" : [ {
          "external_urls" : {
            "spotify" : "https://open.spotify.com/artist/2tK8bea1OuXJnmUlv8nnRX"
          },
          "href" : "https://api.spotify.com/v1/artists/2tK8bea1OuXJnmUlv8nnRX",
          "id" : "2tK8bea1OuXJnmUlv8nnRX",
          "name" : "The St. Olaf Choir",
          "type" : "artist",
          "uri" : "spotify:artist:2tK8bea1OuXJnmUlv8nnRX"
        } ],
        "external_urls" : {
          "spotify" : "https://open.spotify.com/album/0TyyFgeEp2A7PtubPMJsRN"
        },
        "href" : "https://api.spotify.com/v1/albums/0TyyFgeEp2A7PtubPMJsRN",
        "id" : "0TyyFgeEp2A7PtubPMJsRN",
        "images" : [ {
          "height" : 640,
          "url" : "https://i.scdn.co/image/ab67616d0000b273edfdcbdc912a2423a028ef8c",
          "width" : 640
        }, {
          "height" : 300,
          "url" : "https://i.scdn.co/image/ab67616d00001e02edfdcbdc912a2423a028ef8c",
          "width" : 300
        }, {
          "height" : 64,
          "url" : "https://i.scdn.co/image/ab67616d00004851edfdcbdc912a2423a028ef8c",
          "width" : 64
        } ],
        "name" : "The Spirituals of William L. Dawson",
        "release_date" : "1997",
        "release_date_precision" : "year",
        "total_tracks" : 11,
        "type" : "album",
        "uri" : "spotify:album:0TyyFgeEp2A7PtubPMJsRN"
      },
      "artists" : [ {
        "external_urls" : {
          "spotify" : "https://open.spotify.com/artist/2tK8bea1OuXJnmUlv8nnRX"
        },
        "href" : "https://api.spotify.com/v1/artists/2tK8bea1OuXJnmUlv8nnRX",
        "id" : "2tK8bea1OuXJnmUlv8nnRX",
        "name" : "The St. Olaf Choir",
        "type" : "artist",
        "uri" : "spotify:artist:2tK8bea1OuXJnmUlv8nnRX"
      } ],
      "disc_number" : 1,
      "duration_ms" : 312000,
      "explicit" : false,
      "external_ids" : {
        "isrc" : "ushm81089800"
      },
      "external_urls" : {
        "spotify" : "https://open.spotify.com/track/1eR4QVaPJnUWDzs5hK0fqZ"
      },
      "href" : "https://api.spotify.com/v1/tracks/1eR4QVaPJnUWDzs5hK0fqZ",
      "id" : "1eR4QVaPJnUWDzs5hK0fqZ",
      "is_local" : false,
      "is_playable" : true,
      "name" : "There Is A Balm In Gilead",
      "popularity" : 11,
      "preview_url" : "https://p.scdn.co/mp3-preview/fa284abae11e78c5300cec31d6855895c3419fd4?cid=774b29d4f13844c495f206cafdad9c86",
      "track_number" : 8,
      "type" : "track",
      "uri" : "spotify:track:1eR4QVaPJnUWDzs5hK0fqZ"
    }, {
      "album" : {
        "album_type" : "album",
        "artists" : [ {
          "external_urls" : {
            "spotify" : "https://open.spotify.com/artist/0dYkMe3wK29DulSa0uR8Rq"
          },
          "href" : "https://api.spotify.com/v1/artists/0dYkMe3wK29DulSa0uR8Rq",
          "id" : "0dYkMe3wK29DulSa0uR8Rq",
          "name" : "Rickie Lee Jones",
          "type" : "artist",
          "uri" : "spotify:artist:0dYkMe3wK29DulSa0uR8Rq"
        } ],
        "external_urls" : {
          "spotify" : "https://open.spotify.com/album/186z0bI30XmfmtdXuMI51e"
        },
        "href" : "https://api.spotify.com/v1/albums/186z0bI30XmfmtdXuMI51e",
        "id" : "186z0bI30XmfmtdXuMI51e",
        "images" : [ {
          "height" : 640,
          "url" : "https://i.scdn.co/image/ab67616d0000b273dd0cd6e1501cbf299eee63bb",
          "width" : 640
        }, {
          "height" : 300,
          "url" : "https://i.scdn.co/image/ab67616d00001e02dd0cd6e1501cbf299eee63bb",
          "width" : 300
        }, {
          "height" : 64,
          "url" : "https://i.scdn.co/image/ab67616d00004851dd0cd6e1501cbf299eee63bb",
          "width" : 64
        } ],
        "name" : "Balm in Gilead",
        "release_date" : "2009-01-01",
        "release_date_precision" : "day",
        "total_tracks" : 10,
        "type" : "album",
        "uri" : "spotify:album:186z0bI30XmfmtdXuMI51e"
      },
      "artists" : [ {
        "external_urls" : {
          "spotify" : "https://open.spotify.com/artist/0dYkMe3wK29DulSa0uR8Rq"
        },
        "href" : "https://api.spotify.com/v1/artists/0dYkMe3wK29DulSa0uR8Rq",
        "id" : "0dYkMe3wK29DulSa0uR8Rq",
        "name" : "Rickie Lee Jones",
        "type" : "artist",
        "uri" : "spotify:artist:0dYkMe3wK29DulSa0uR8Rq"
      } ],
      "disc_number" : 1,
      "duration_ms" : 261040,
      "explicit" : false,
      "external_ids" : {
        "isrc" : "USC4R0920706"
      },
      "external_urls" : {
        "spotify" : "https://open.spotify.com/track/6EnW3qo62TFXIFwC5HLHgG"
      },
      "href" : "https://api.spotify.com/v1/tracks/6EnW3qo62TFXIFwC5HLHgG",
      "id" : "6EnW3qo62TFXIFwC5HLHgG",
      "is_local" : false,
      "is_playable" : true,
      "name" : "Old Enough",
      "popularity" : 18,
      "preview_url" : null,
      "track_number" : 2,
      "type" : "track",
      "uri" : "spotify:track:6EnW3qo62TFXIFwC5HLHgG"
    }, {
      "album" : {
        "album_type" : "album",
        "artists" : [ {
          "external_urls" : {
            "spotify" : "https://open.spotify.com/artist/0dYkMe3wK29DulSa0uR8Rq"
          },
          "href" : "https://api.spotify.com/v1/artists/0dYkMe3wK29DulSa0uR8Rq",
          "id" : "0dYkMe3wK29DulSa0uR8Rq",
          "name" : "Rickie Lee Jones",
          "type" : "artist",
          "uri" : "spotify:artist:0dYkMe3wK29DulSa0uR8Rq"
        } ],
        "external_urls" : {
          "spotify" : "https://open.spotify.com/album/186z0bI30XmfmtdXuMI51e"
        },
        "href" : "https://api.spotify.com/v1/albums/186z0bI30XmfmtdXuMI51e",
        "id" : "186z0bI30XmfmtdXuMI51e",
        "images" : [ {
          "height" : 640,
          "url" : "https://i.scdn.co/image/ab67616d0000b273dd0cd6e1501cbf299eee63bb",
          "width" : 640
        }, {
          "height" : 300,
          "url" : "https://i.scdn.co/image/ab67616d00001e02dd0cd6e1501cbf299eee63bb",
          "width" : 300
        }, {
          "height" : 64,
          "url" : "https://i.scdn.co/image/ab67616d00004851dd0cd6e1501cbf299eee63bb",
          "width" : 64
        } ],
        "name" : "Balm in Gilead",
        "release_date" : "2009-01-01",
        "release_date_precision" : "day",
        "total_tracks" : 10,
        "type" : "album",
        "uri" : "spotify:album:186z0bI30XmfmtdXuMI51e"
      },
      "artists" : [ {
        "external_urls" : {
          "spotify" : "https://open.spotify.com/artist/0dYkMe3wK29DulSa0uR8Rq"
        },
        "href" : "https://api.spotify.com/v1/artists/0dYkMe3wK29DulSa0uR8Rq",
        "id" : "0dYkMe3wK29DulSa0uR8Rq",
        "name" : "Rickie Lee Jones",
        "type" : "artist",
        "uri" : "spotify:artist:0dYkMe3wK29DulSa0uR8Rq"
      } ],
      "disc_number" : 1,
      "duration_ms" : 286840,
      "explicit" : false,
      "external_ids" : {
        "isrc" : "USC4R0920705"
      },
      "external_urls" : {
        "spotify" : "https://open.spotify.com/track/6oAAbEKs0oKu1BrMfXTb0K"
      },
      "href" : "https://api.spotify.com/v1/tracks/6oAAbEKs0oKu1BrMfXTb0K",
      "id" : "6oAAbEKs0oKu1BrMfXTb0K",
      "is_local" : false,
      "is_playable" : true,
      "name" : "Wild Girl",
      "popularity" : 18,
      "preview_url" : null,
      "track_number" : 1,
      "type" : "track",
      "uri" : "spotify:track:6oAAbEKs0oKu1BrMfXTb0K"
    } ],
    "limit" : 10,
    "next" : "https://api.spotify.com/v1/search?query=Balm+in+Gilead&type=track&market=US&offset=15&limit=10",
    "offset" : 5,
    "previous" : "https://api.spotify.com/v1/search?query=Balm+in+Gilead&type=track&market=US&offset=0&limit=10",
    "total" : 463
  }
}