{
  "tracks" : {
    "href" : "https://api.spotify.com/v1/search?query=Jesus%2C+I+My+Cross+Have+Taken&type=track&market=US&offset=5&limit=10",
    "items" : [ {
      "album" : {
        "album_type" : "album",
        "artists" : [ {
          "external_urls" : {
            "spotify" : "https://open.spotify.com/artist/0HoHU8SXe0g9jJGOfL8rDq"
          },
          "href" : "https://api.spotify.com/v1/artists/0HoHU8SXe0g9jJGOfL8rDq",
          "id" : "0HoHU8SXe0g9jJGOfL8rDq",
          "name" : "Indelible Grace Music",
          "type" : "artist",
          "uri" : "spotify:artist:0HoHU8SXe0g9jJGOfL8rDq"
        } ],
        "external_urls" : {
          "spotify" : "https://open.spotify.com/album/1DjEafJtRkGyO1VEAdn65y"
        },
        "href" : "https://api.spotify.com/v1/albums/1DjEafJtRkGyO1VEAdn65y",
        "id" : "1DjEafJtRkGyO1VEAdn65y",
        "images" : [ {
          "height" : 640,
          "url" : "https://i.scdn.co/image/ab67616d0000b273bb0d81f386c0ace72c8d871e",
          "width" : 640
        }, {
          "height" : 300,
          "url" : "https://i.scdn.co/image/ab67616d00001e02bb0d81f386c0ace72c8d871e",
          "width" : 300
        }, {
          "height" : 64,
          "url" : "https://i.scdn.co/image/ab67616d00004851bb0d81f386c0ace72c8d871e",
          "width" : 64
        } ],
        "name" : "The Hymn Sing (Live in Nashville)",
        "release_date" : "2010-12-14",
        "release_date_precision" : "day",
        "total_tracks" : 18,
        "type" : "album",
        "uri" : "spotify:album:1DjEafJtRkGyO1VEAdn65y"
      },
      "artists" : [ {
        "external_urls" : {
          "spotify" : "https://open.spotify.com/artist/0HoHU8SXe0g9jJGOfL8rDq"
        },
        "href" : "https://api.spotify.com/v1/artists/0HoHU8SXe0g9jJGOfL8rDq",
        "id" : "0HoHU8SXe0g9jJGOfL8rDq",
        "name" : "Indelible Grace Music",
        "type" : "artist",
        "uri" : "spotify:artist:0HoHU8SXe0g9jJGOfL8rDq"
      } ],
      "disc_number" : 1,
      "duration_ms" : 85266,
      "explicit" : false,
      "external_ids" : {
        "isrc" : "TCAAT1078095"
      },
      "external_urls" : {
        "spotify" : "https://open.spotify.com/track/4jvjPv76aXJwYDRjlLEwzO"
      },
      "href" : "https://api.spotify.com/v1/tracks/4jvjPv76aXJwYDRjlLEwzO",
      "id" : "4jvjPv76aXJwYDRjlLEwzO",
      "is_local" : false,
      "is_playable" : true,
      "name" : "Jesus I My Cross Have Taken (Introduction) [Live]",
      "popularity" : 11,
      "preview_url" : "https://p.scdn.co/mp3-preview/550cf3b50ca327fa4f7f5816adf1e786c7df4fa8?cid=774b29d4f13844c495f206cafdad9c86",
      "track_number" : 8,
      "type" : "track",
      "uri" : "spotify:track:4jvjPv76aXJwYDRjlLEwzO"
    }, {
      "album" : {
        "album_type" : "album",
        "artists" : [ {
          "external_urls" : {
            "spotify" : "https://open.spotify.com/artist/3xsb4ljqz3X0PeExrKqBgC"
          },
          "href" : "https://api.spotify.com/v1/artists/3xsb4ljqz3X0PeExrKqBgC",
          "id" : "3xsb4ljqz3X0PeExrKqBgC",
          "name" : "Enfield",
          "type" : "artist",
          "uri" : "spotify:artist:3xsb4ljqz3X0PeExrKqBgC"
        } ],
        "external_urls" : {
          "spotify" : "https://open.spotify.com/album/1p37Z5QXejcO9CACjj3oFI"
        },
        "href" : "https://api.spotify.com/v1/albums/1p37Z5QXejcO9CACjj3oFI",
        "id" : "1p37Z5QXejcO9CACjj3oFI",
        "images" : [ {
          "height" : 640,
          "url" : "https://i.scdn.co/image/ab67616d0000b27330a5894e0d3914c62d93353c",
          "width" : 640
        }, {
          "height" : 300,
          "url" : "https://i.scdn.co/image/ab67616d00001e0230a5894e0d3914c62d93353c",
          "width" : 300
        }, {
          "height" : 64,
          "url" : "https://i.scdn.co/image/ab67616d0000485130a5894e0d3914c62d93353c",
          "width" : 64
        } ],
        "name" : "Resolved Music, Vol. 1",
        "release_date" : "2010-06-25",
        "release_date_precision" : "day",
        "total_tracks" : 12,
        "type" : "album",
        "uri" : "spotify:album:1p37Z5QXejcO9CACjj3oFI"
      },
      "artists" : [ {
        "external_urls" : {
          "spotify" : "https://open.spotify.com/artist/3xsb4ljqz3X0PeExrKqBgC"
        },
        "href" : "https://api.spotify.com/v1/artists/3xsb4ljqz3X0PeExrKqBgC",
        "id" : "3xsb4ljqz3X0PeExrKqBgC",
        "name" : "Enfield",
        "type" : "artist",
        "uri" : "spotify:artist:3xsb4ljqz3X0PeExrKqBgC"
      } ],
      "disc_number" : 1,
      "duration_ms" : 355426,
      "explicit" : false,
      "external_ids" : {
        "isrc" : "USP791000007"
      },
      "external_urls" : {
        "spotify" : "https://open.spotify.com/track/01JfriQTIQ2kJsBJ2KKajt"
      },
      "href" : "https://api.spotify.com/v1/tracks/01JfriQTIQ2kJsBJ2KKajt",
      "id" : "01JfriQTIQ2kJsBJ2KKajt",
      "is_local" : false,
      "is_playable" : true,
      "name" : "Jesus, I My Cross Have Taken",
      "popularity" : 10,
      "preview_url" : "https://p.scdn.co/mp3-preview/7626f53e2560afda478086b698d198515a4008c9?cid=774b29d4f13844c495f206cafdad9c86",
      "track_number" : 7,
      "type" : "track",
      "uri" : "spotify:track:01JfriQTIQ2kJsBJ2KKajt"
    }, {
      "album" : {
        "album_type" : "compilation",
        "artists" : [ {
          "external_urls" : {
            "spotify" : "https://open.spotify.com/artist/0LyfQWJT6nXafLPZqxe9Of"
          },
          "href" : "https://api.spotify.com/v1/artists/0LyfQWJT6nXafLPZqxe9Of",
          "id" : "0LyfQWJT6nXafLPZqxe9Of",
          "name" : "Various Artists",
          "type" : "artist",
          "uri" : "spotify:artist:0LyfQWJT6nXafLPZqxe9Of"
        } ],
        "external_urls" : {
          "spotify" : "https://open.spotify.com/album/0yZewTMFsWcQWtkumHzdZm"
        },
        "href" : "https://api.spotify.com/v1/albums/0yZewTMFsWcQWtkumHzdZm",
        "id" : "0yZewTMFsWcQWtkumHzdZm",
        "images" : [ {
          "height" : 640,
          "url" : "https://i.scdn.co/image/ab67616d0000b273a06b593a049b6d68ade64aeb",
          "width" : 640
        }, {
          "height" : 300,
          "url" : "https://i.scdn.co/image/ab67616d00001e02a06b593a049b6d68ade64aeb",
          "width" : 300
        }, {
          "height" : 64,
          "url" : "https://i.scdn.co/image/ab67616d00004851a06b593a049b6d68ade64aeb",
          "width" : 64
        } ],
        "name" : "Hymns of Grace (Live at Shepherds Conference)",
        "release_date" : "2018-03-01",
        "release_date_precision" : "day",
        "total_tracks" : 17,
        "type" : "album",
        "uri" : "spotify:album:0yZewTMFsWcQWtkumHzdZm"
      },
      "artists" : [ {
        "external_urls" : {
          "spotify" : "https://open.spotify.com/artist/3mWDcLkpeZ5aReUNWoOadU"
        },
        "href" : "https://api.spotify.com/v1/artists/3mWDcLkpeZ5aReUNWoOadU",
        "id" : "3mWDcLkpeZ5aReUNWoOadU",
        "name" : "Bob Kauflin",
        "type" : "artist",
        "uri" : "spotify:artist:3mWDcLkpeZ5aReUNWoOadU"
      } ],
      "disc_number" : 1,
      "duration_ms" : 381232,
      "explicit" : false,
      "external_ids" : {
        "isrc" : "QZCF21800003"
      },
      "external_urls" : {
        "spotify" : "https://open.spotify.com/track/7pEZvdn8WUET6ktdbpt8bV"
      },
      "href" : "https://api.spotify.com/v1/tracks/7pEZvdn8WUET6ktdbpt8bV",
      "id" : "7pEZvdn8WUET6ktdbpt8bV",
      "is_local" : false,
      "is_playable" : true,
      "name" : "Jesus, I My Cross Have Taken (Live)",
      "popularity" : 11,
      "preview_url" : "https://p.scdn.co/mp3-preview/1dbc654742e08608617df956b75a82c4affec990?cid=774b29d4f13844c495f206cafdad9c86",
      "track_number" : 3,
      "type" : "track",
      "uri" : "spotify:track:7pEZvdn8WUET6ktdbpt8bV"
    }, {
      "album" : {
        "album_type" : "album",
        "artists" : [ {
          "external_urls" : {
            "spotify" : "https://open.spotify.com/artist/5ZIp1pr32ri1FiaWcQOkNN"
          },
          "href" : "https://api.spotify.com/v1/artists/5ZIp1pr32ri1FiaWcQOkNN",
          "id" : "5ZIp1pr32ri1FiaWcQOkNN",
          "name" : "Reformed Praise",
          "type" : "artist",
          "uri" : "spotify:artist:5ZIp1pr32ri1FiaWcQOkNN"
        } ],
        "external_urls" : {
          "spotify" : "https://open.spotify.com/album/1o8SLz3624TOuGSIkLWlBE"
        },
        "href" : "https://api.spotify.com/v1/albums/1o8SLz3624TOuGSIkLWlBE",
        "id" : "1o8SLz3624TOuGSIkLWlBE",
        "images" : [ {
          "height" : 640,
          "url" : "https://i.scdn.co/image/ab67616d0000b27356806621e4e632b9abfa7a67",
          "width" : 640
        }, {
          "height" : 300,
          "url" : "https://i.scdn.co/image/ab67616d00001e0256806621e4e632b9abfa7a67",
          "width" : 300
        }, {
          "height" : 64,
          "url" : "https://i.scdn.co/image/ab67616d0000485156806621e4e632b9abfa7a67",
          "width" : 64
        } ],
        "name" : "Merciful to Me",
        "release_date" : "2010-09-03",
        "release_date_precision" : "day",
        "total_tracks" : 13,
        "type" : "album",
        "uri" : "spotify:album:1o8SLz3624TOuGSIkLWlBE"
      },
      "artists" : [ {
        "external_urls" : {
          "spotify" : "https://open.spotify.com/artist/5ZIp1pr32ri1FiaWcQOkNN"
        },
        "href" : "https://api.spotify.com/v1/artists/5ZIp1pr32ri1FiaWcQOkNN",
        "id" : "5ZIp1pr32ri1FiaWcQOkNN",
        "name" : "Reformed Praise",
        "type" : "artist",
        "uri" : "spotify:artist:5ZIp1pr32ri1FiaWcQOkNN"
      } ],
      "disc_number" : 1,
      "duration_ms" : 239965,
      "explicit" : false,
      "external_ids" : {
        "isrc" : "ushm81066326"
      },
      "external_urls" : {
        "spotify" : "https://open.spotify.com/track/2gqLU78pMwwMyLWlgp5VfK"
      },
      "href" : "https://api.spotify.com/v1/tracks/2gqLU78pMwwMyLWlgp5VfK",
      "id" : "2gqLU78pMwwMyLWlgp5VfK",
      "is_local" : false,
      "is_playable" : true,
      "name" : "Jesus, I My Cross Have Taken",
      "popularity" : 7,
      "preview_url" : "https://p.scdn.co/mp3-preview/93c04e514ee8f07e49b273b63b90e281f3b50fad?cid=774b29d4f13844c495f206cafdad9c86",
      "track_number" : 3,
      "type" : "track",
      "uri" : "spotify:track:2gqLU78pMwwMyLWlgp5VfK"
    }, {
      "album" : {
        "album_type" : "album",
        "artists" : [ {
          "external_urls" : {
            "spotify" : "https://open.spotify.com/artist/4qz3fMg3UznQK7Q5OtTkco"
          },
          "href" : "https://api.spotify.com/v1/artists/4qz3fMg3UznQK7Q5OtTkco",
          "id" : "4qz3fMg3UznQK7Q5OtTkco",
          "name" : "Christ Church",
          "type" : "artist",
          "uri" : "spotify:artist:4qz3fMg3UznQK7Q5OtTkco"
        } ],
        "external_urls" : {
          "spotify" : "https://open.spotify.com/album/6ls0ON7wiOOpcSmjYA17TE"
        },
        "href" : "https://api.spotify.com/v1/albums/6ls0ON7wiOOpcSmjYA17TE",
        "id" : "6ls0ON7wiOOpcSmjYA17TE",
        "images" : [ {
          "height" : 640,
          "url" : "https://i.scdn.co/image/ab67616d0000b273f9c4b6bd5dd870e967734941",
          "width" : 640
        }, {
          "height" : 300,
          "url" : "https://i.scdn.co/image/ab67616d00001e02f9c4b6bd5dd870e967734941",
          "width" : 300
        }, {
          "height" : 64,
          "url" : "https://i.scdn.co/image/ab67616d00004851f9c4b6bd5dd870e967734941",
          "width" : 64
        } ],
        "name" : "Steadfast Make My Heart - A Christ Church Worship Album",
        "release_date" : "2009-01-01",
        "release_date_precision" : "day",
        "total_tracks" : 10,
        "type" : "album",
        "uri" : "spotify:album:6ls0ON7wiOOpcSmjYA17TE"
      },
      "artists" : [ {
        "external_urls" : {
          "spotify" : "https://open.spotify.com/artist/4qz3fMg3UznQK7Q5OtTkco"
        },
        "href" : "https://api.spotify.com/v1/artists/4qz3fMg3UznQK7Q5OtTkco",
        "id" : "4qz3fMg3UznQK7Q5OtTkco",
        "name" : "Christ Church",
        "type" : "artist",
        "uri" : "spotify:artist:4qz3fMg3UznQK7Q5OtTkco"
      } ],
      "disc_number" : 1,
      "duration_ms" : 217880,
      "explicit" : false,
      "external_ids" : {
        "isrc" : "ushm20963336"
      },
      "external_urls" : {
        "spotify" : "https://open.spotify.com/track/2AnXEp0U4XNhhyGVTdanPy"
      },
      "href" : "https://api.spotify.com/v1/tracks/2AnXEp0U4XNhhyGVTdanPy",
      "id" : "2AnXEp0U4XNhhyGVTdanPy",
      "is_local" : false,
      "is_playable" : true,
      "name" : "Jesus I My Cross Have Taken",
      "popularity" : 5,
      "preview_url" : "https://p.scdn.co/mp3-preview/1289df9d1f877244adbfd4a4515b05f6e1b556d0?cid=774b29d4f13844c495f206cafdad9c86",
      "track_number" : 8,
      "type" : "track",
      "uri" : "spotify:track:2AnXEp0U4XNhhyGVTdanPy"
    }, {
      "album" : {
        "album_type" : "album",
        "artists" : [ {
          "external_urls" : {
            "spotify" : "https://open.spotify.com/artist/1gQBqAlrjGkYPDYcZ5eGct"
          },
          "href" : "https://api.spotify.com/v1/artists/1gQBqAlrjGkYPDYcZ5eGct",
          "id" : "1gQBqAlrjGkYPDYcZ5eGct",
          "name" : "Dave Hunt",
          "type" : "artist",
          "uri" : "spotify:artist:1gQBqAlrjGkYPDYcZ5eGct"
        } ],
        "external_urls" : {
          "spotify" : "https://open.spotify.com/album/3Kk5y6wSZfYnOgKjgkb64Y"
        },
        "href" : "https://api.spotify.com/v1/albums/3Kk5y6wSZfYnOgKjgkb64Y",
        "id" : "3Kk5y6wSZfYnOgKjgkb64Y",
        "images" : [ {
          "height" : 640,
          "url" : "https://i.scdn.co/image/ab67616d0000b273499e3b23df3a7123a7f6baaf",
          "width" : 640
        }, {
          "height" : 300,
          "url" : "https://i.scdn.co/image/ab67616d00001e02499e3b23df3a7123a7f6baaf",
          "width" : 300
        }, {
          "height" : 64,
          "url" : "https://i.scdn.co/image/ab67616d00004851499e3b23df3a7123a7f6baaf",
          "width" : 64
        } ],
        "name" : "Ebenezer: A Collection of Hymns",
        "release_date" : "2011-06-14",
        "release_date_precision" : "day",
        "total_tracks" : 12,
        "type" : "album",
        "uri" : "spotify:album:3Kk5y6wSZfYnOgKjgkb64Y"
      },
      "artists" : [ {
        "external_urls" : {
          "spotify" : "https://open.spotify.com/artist/1gQBqAlrjGkYPDYcZ5eGct"
        },
        "href" : "https://api.spotify.com/v1/artists/1gQBqAlrjGkYPDYcZ5eGct",
        "id" : "1gQBqAlrjGkYPDYcZ5eGct",
        "name" : "Dave Hunt",
        "type" : "artist",
        "uri" : "spotify:artist:1gQBqAlrjGkYPDYcZ5eGct"
      } ],
      "disc_number" : 1,
      "duration_ms" : 231133,
      "explicit" : false,
      "external_ids" : {
        "isrc" : "QMWH71100005"
      },
      "external_urls" : {
        "spotify" : "https://open.spotify.com/track/49Yr8BQw6ceTz1V5E1d4i2"
      },
      "href" : "https://api.spotify.com/v1/tracks/49Yr8BQw6ceTz1V5E1d4i2",
      "id" : "49Yr8BQw6ceTz1V5E1d4i2",
      "is_local" : false,
      "is_playable" : true,
      "name" : "Jesus I My Cross Have Taken",
      "popularity" : 10,
      "preview_url" : "https://p.scdn.co/mp3-preview/3fda6193059a8065c89a3ca52af81e72c4ea30d4?cid=774b29d4f13844c495f206cafdad9c86",
      "track_number" : 5,
      "type" : "track",
      "uri" : "spotify:track:49Yr8BQw6ceTz1V5E1d4i2"
    }, {
      "album" : {
        "album_type" : "single",
        "artists" : [ {
          "external_urls" : {
            "spotify" : "https://open.spotify.com/artist/7knH0mIaao87PnjghjJX4p"
          },
          "href" : "https://api.spotify.com/v1/artists/7knH0mIaao87PnjghjJX4p",
          "id" : "7knH0mIaao87PnjghjJX4p",
          "name" : "The Forever Echo",
          "type" : "artist",
          "uri" : "spotify:artist:7knH0mIaao87PnjghjJX4p"
        } ],
        "external_urls" : {
          "spotify" : "https://open.spotify.com/album/14uctRV2cgzhjB2AH6ca0W"
        },
        "href" : "https://api.spotify.com/v1/albums/14uctRV2cgzhjB2AH6ca0W",
        "id" : "14uctRV2cgzhjB2AH6ca0W",
        "images" : [ {
          "height" : 640,
          "url" : "https://i.scdn.co/image/ab67616d0000b273c9d31230aa0d8e034182e6a3",
          "width" : 640
        }, {
          "height" : 300,
          "url" : "https://i.scdn.co/image/ab67616d00001e02c9d31230aa0d8e034182e6a3",
          "width" : 300
        }, {
          "height" : 64,
          "url" : "https://i.scdn.co/image/ab67616d00004851c9d31230aa0d8e034182e6a3",
          "width" : 64
        } ],
        "name" : "The Forever Echo",
        "release_date" : "2016-03-08",
        "release_date_precision" : "day",
        "total_tracks" : 6,
        "type" : "album",
        "uri" : "spotify:album:14uctRV2cgzhjB2AH6ca0W"
      },
      "artists" : [ {
        "external_urls" : {
          "spotify" : "https://open.spotify.com/artist/7knH0mIaao87PnjghjJX4p"
        },
        "href" : "https://api.spotify.com/v1/artists/7knH0mIaao87PnjghjJX4p",
        "id" : "7knH0mIaao87PnjghjJX4p",
        "name" : "The Forever Echo",
        "type" : "artist",
        "uri" : "spotify:artist:7knH0mIaao87PnjghjJX4p"
      } ],
      "disc_number" : 1,
      "duration_ms" : 241247,
      "explicit" : false,
      "external_ids" : {
        "isrc" : "USKHS1600005"
      },
      "external_urls" : {
        "spotify" : "https://open.spotify.com/track/5R1QOCxaz2KPKI56eWw5BH"
      },
      "href" : "https://api.spotify.com/v1/tracks/5R1QOCxaz2KPKI56eWw5BH",
      "id" : "5R1QOCxaz2KPKI56eWw5BH",
      "is_local" : false,
      "is_playable" : true,
      "name" : "Jesus I My Cross Have Taken",
      "popularity" : 4,
      "preview_url" : "https://p.scdn.co/mp3-preview/fac656b8ef10c5276d9bd267ae27f3236413219e?cid=774b29d4f13844c495f206cafdad9c86",
      "track_number" : 5,
      "type" : "track",
      "uri" : "spotify:track:5R1QOCxaz2KPKI56eWw5BH"
    }, {
      "album" : {
        "album_type" : "album",
        "artists" : [ {
          "external_urls" : {
            "spotify" : "https://open.spotify.com/artist/5eMDbsdUTeD1lWuylg3cYc"
          },
          "href" : "https://api.spotify.com/v1/artists/5eMDbsdUTeD1lWuylg3cYc",
          "id" : "5eMDbsdUTeD1lWuylg3cYc",
          "name" : "Tha Gate Keepa",
          "type" : "artist",
          "uri" : "spotify:artist:5eMDbsdUTeD1lWuylg3cYc"
        } ],
        "external_urls" : {
          "spotify" : "https://open.spotify.com/album/3iFX1Bd7SP43M03NrsYnpB"
        },
        "href" : "https://api.spotify.com/v1/albums/3iFX1Bd7SP43M03NrsYnpB",
        "id" : "3iFX1Bd7SP43M03NrsYnpB",
        "images" : [ {
          "height" : 640,
          "url" : "https://i.scdn.co/image/ab67616d0000b2735721102f8b3f58b1c4716d13",
          "width" : 640
        }, {
          "height" : 300,
          "url" : "https://i.scdn.co/image/ab67616d00001e025721102f8b3f58b1c4716d13",
          "width" : 300
        }, {
          "height" : 64,
          "url" : "https://i.scdn.co/image/ab67616d000048515721102f8b3f58b1c4716d13",
          "width" : 64
        } ],
        "name" : "Let the Broken Come Album",
        "release_date" : "2012-07-04",
        "release_date_precision" : "day",
        "total_tracks" : 11,
        "type" : "album",
        "uri" : "spotify:album:3iFX1Bd7SP43M03NrsYnpB"
      },
      "artists" : [ {
        "external_urls" : {
          "spotify" : "https://open.spotify.com/artist/5eMDbsdUTeD1lWuylg3cYc"
        },
        "href" : "https://api.spotify.com/v1/artists/5eMDbsdUTeD1lWuylg3cYc",
        "id" : "5eMDbsdUTeD1lWuylg3cYc",
        "name" : "Tha Gate Keepa",
        "type" : "artist",
        "uri" : "spotify:artist:5eMDbsdUTeD1lWuylg3cYc"
      } ],
      "disc_number" : 1,
      "duration_ms" : 193000,
      "explicit" : false,
      "external_ids" : {
        "isrc" : "ushm21295314"
      },
      "external_urls" : {
        "spotify" : "https://open.spotify.com/track/6YkQMd5ORVEpMAOAqYr58M"
      },
      "href" : "https://api.spotify.com/v1/tracks/6YkQMd5ORVEpMAOAqYr58M",
      "id" : "6YkQMd5ORVEpMAOAqYr58M",
      "is_local" : false,
      "is_playable" : true,
      "name" : "Jesus I My Cross Have Taken Thee",
      "popularity" : 5,
      "preview_url" : "https://p.scdn.co/mp3-preview/8d89fd092996994d65ab49b7a4389ed157b55567?cid=774b29d4f13844c495f206cafdad9c86",
      "track_number" : 8,
      "type" : "track",
      "uri" : "spotify:track:6YkQMd5ORVEpMAOAqYr58M"
    }, {
      "album" : {
        "album_type" : "album",
        "artists" : [ {
          "external_urls" : {
            "spotify" : "https://open.spotify.com/artist/1pgF8V5jcQQFychnCMGFve"
          },
          "href" : "https://api.spotify.com/v1/artists/1pgF8V5jcQQFychnCMGFve",
          "id" : "1pgF8V5jcQQFychnCMGFve",
          "name" : "Robert Marshall",
          "type" : "artist",
          "uri" : "spotify:artist:1pgF8V5jcQQFychnCMGFve"
        } ],
        "external_urls" : {
          "spotify" : "https://open.spotify.com/album/3wxpfgwbwflrsL6cYp06zC"
        },
        "href" : "https://api.spotify.com/v1/albums/3wxpfgwbwflrsL6cYp06zC",
        "id" : "3wxpfgwbwflrsL6cYp06zC",
        "images" : [ {
          "height" : 640,
          "url" : "https://i.scdn.co/image/ab67616d0000b273a5260229c06d7145bcb12fda",
          "width" : 640
        }, {
          "height" : 300,
          "url" : "https://i.scdn.co/image/ab67616d00001e02a5260229c06d7145bcb12fda",
          "width" : 300
        }, {
          "height" : 64,
          "url" : "https://i.scdn.co/image/ab67616d00004851a5260229c06d7145bcb12fda",
          "width" : 64
        } ],
        "name" : "Psalms and Hymns and Spiritual Songs",
        "release_date" : "2020-05-04",
        "release_date_precision" : "day",
        "total_tracks" : 9,
        "type" : "album",
        "uri" : "spotify:album:3wxpfgwbwflrsL6cYp06zC"
      },
      "artists" : [ {
        "external_urls" : {
          "spotify" : "https://open.spotify.com/artist/1pgF8V5jcQQFychnCMGFve"
        },
        "href" : "https://api.spotify.com/v1/artists/1pgF8V5jcQQFychnCMGFve",
        "id" : "1pgF8V5jcQQFychnCMGFve",
        "name" : "Robert Marshall",
        "type" : "artist",
        "uri" : "spotify:artist:1pgF8V5jcQQFychnCMGFve"
      } ],
      "disc_number" : 1,
      "duration_ms" : 276407,
      "explicit" : false,
      "external_ids" : {
        "isrc" : "QZES82024214"
      },
      "external_urls" : {
        "spotify" : "https://open.spotify.com/track/0UQsBp2fBDuniHBnoM0O2z"
      },
      "href" : "https://api.spotify.com/v1/tracks/0UQsBp2fBDuniHBnoM0O2z",
      "id" : "0UQsBp2fBDuniHBnoM0O2z",
      "is_local" : false,
      "is_playable" : true,
      "name" : "Jesus I My Cross Have Taken",
      "popularity" : 2,
      "preview_url" : "https://p.scdn.co/mp3-preview/474c8f3304e9de3c71baeafa4e3ebab734eb60f6?cid=774b29d4f13844c495f206cafdad9c86",
      "track_number" : 8,
      "type" : "track",
      "uri" : "spotify:track:0UQsBp2fBDuniHBnoM0O2z"
    }, {
      "album" : {
        "album_type" : "album",
        "artists" : [ {
          "external_urls" : {
            "spotify" : "https://open.spotify.com/artist/06G0zhKmBcwZqpVoAqXzQh"
          },
          "href" : "https://api.spotify.com/v1/artists/06G0zhKmBcwZqpVoAqXzQh",
          "id" : "06G0zhKmBcwZqpVoAqXzQh",
          "name" : "Saint Cecilia and the Melody Makers",
          "type" : "artist",
          "uri" : "spotify:artist:06G0zhKmBcwZqpVoAqXzQh"
        } ],
        "external_urls" : {
          "spotify" : "https://open.spotify.com/album/2DQVBI5MRNvCPzmSzX20tH"
        },
        "href" : "https://api.spotify.com/v1/albums/2DQVBI5MRNvCPzmSzX20tH",
        "id" : "2DQVBI5MRNvCPzmSzX20tH",
        "images" : [ {
          "height" : 640,
          "url" : "https://i.scdn.co/image/ab67616d0000b273ef05f117a703f564e4e8950c",
          "width" : 640
        }, {
          "height" : 300,
          "url" : "https://i.scdn.co/image/ab67616d00001e02ef05f117a703f564e4e8950c",
          "width" : 300
        }, {
          "height" : 64,
          "url" : "https://i.scdn.co/image/ab67616d00004851ef05f117a703f564e4e8950c",
          "width" : 64
        } ],
        "name" : "Come On, Let's Go to Beulah Land!",
        "release_date" : "2017-08-23",
        "release_date_precision" : "day",
        "total_tracks" : 15,
        "type" : "album",
        "uri" : "spotify:album:2DQVBI5MRNvCPzmSzX20tH"
      },
      "artists" : [ {
        "external_urls" : {
          "spotify" : "https://open.spotify.com/artist/06G0zhKmBcwZqpVoAqXzQh"
        },
        "href" : "https://api.spotify.com/v1/artists/06G0zhKmBcwZqpVoAqXzQh",
        "id" : "06G0zhKmBcwZqpVoAqXzQh",
        "name" : "Saint Cecilia and the Melody Makers",
        "type" : "artist",
        "uri" : "spotify:artist:06G0zhKmBcwZqpVoAqXzQh"
      } ],
      "disc_number" : 1,
      "duration_ms" : 240741,
      "explicit" : false,
      "external_ids" : {
        "isrc" : "GB-SMU-40-74956"
      },
      "external_urls" : {
        "spotify" : "https://open.spotify.com/track/0PqBVPOQVE1IZ65jpV4N9G"
      },
      "href" : "https://api.spotify.com/v1/tracks/0PqBVPOQVE1IZ65jpV4N9G",
      "id" : "0PqBVPOQVE1IZ65jpV4N9G",
      "is_local" : false,
      "is_playable" : true,
      "name" : "Jesus I My Cross Have Taken",
      "popularity" : 2,
      "preview_url" : "https://p.scdn.co/mp3-preview/6490ab3e0a9a2bba3a3fcb8cd6fed94c35d718b2?cid=774b29d4f13844c495f206cafdad9c86",
      "track_number" : 2,
      "type" : "track",
      "uri" : "spotify:track:0PqBVPOQVE1IZ65jpV4N9G"
    } ],
    "limit" : 10,
    "next" : "https://api.spotify.com/v1/search?query=Jesus%2C+I+My+Cross+Have+Taken&type=track&market=US&offset=15&limit=10",
    "offset" : 5,
    "previous" : "https://api.spotify.com/v1/search?query=Jesus%2C+I+My+Cross+Have+Taken&type=track&market=US&offset=0&limit=10",
    "total" : 36
  }
}