{
  "tracks" : {
    "href" : "https://api.spotify.com/v1/search?query=Praise+We+the+Lord&type=track&market=US&offset=5&limit=10",
    "items" : [ {
      "album" : {
        "album_type" : "album",
        "artists" : [ {
          "external_urls" : {
            "spotify" : "https://open.spotify.com/artist/67OFzndMlzj7cDF2BqnwYe"
          },
          "href" : "https://api.spotify.com/v1/artists/67OFzndMlzj7cDF2BqnwYe",
          "id" : "67OFzndMlzj7cDF2BqnwYe",
          "name" : "Maranatha! Music",
          "type" : "artist",
          "uri" : "spotify:artist:67OFzndMlzj7cDF2BqnwYe"
        } ],
        "external_urls" : {
          "spotify" : "https://open.spotify.com/album/66JHZ49y7FpFxwaVzi6TtT"
        },
        "href" : "https://api.spotify.com/v1/albums/66JHZ49y7FpFxwaVzi6TtT",
        "id" : "66JHZ49y7FpFxwaVzi6TtT",
        "images" : [ {
          "height" : 640,
          "url" : "https://i.scdn.co/image/ab67616d0000b273df0b15bdc05c58a8403e37fa",
          "width" : 640
        }, {
          "height" : 300,
          "url" : "https://i.scdn.co/image/ab67616d00001e02df0b15bdc05c58a8403e37fa",
          "width" : 300
        }, {
          "height" : 64,
          "url" : "https://i.scdn.co/image/ab67616d00004851df0b15bdc05c58a8403e37fa",
          "width" : 64
        } ],
        "name" : "Praise 9 - Great Are You Lord",
        "release_date" : "1999-01-01",
        "release_date_precision" : "day",
        "total_tracks" : 19,
        "type" : "album",
        "uri" : "spotify:album:66JHZ49y7FpFxwaVzi6TtT"
      },
      "artists" : [ {
        "external_urls" : {
          "spotify" : "https://open.spotify.com/artist/67OFzndMlzj7cDF2BqnwYe"
        },
        "href" : "https://api.spotify.com/v1/artists/67OFzndMlzj7cDF2BqnwYe",
        "id" : "67OFzndMlzj7cDF2BqnwYe",
        "name" : "Maranatha! Music",
        "type" : "artist",
        "uri" : "spotify:artist:67OFzndMlzj7cDF2BqnwYe"
      } ],
      "disc_number" : 1,
      "duration_ms" : 257560,
      "explicit" : false,
      "external_ids" : {
        "isrc" : "USMN20601334"
      },
      "external_urls" : {
        "spotify" : "https://open.spotify.com/track/2zetTxzTzTI8lN4QWeJHPn"
      },
      "href" : "https://api.spotify.com/v1/tracks/2zetTxzTzTI8lN4QWeJHPn",
      "id" : "2zetTxzTzTI8lN4QWeJHPn",
      "is_local" : false,
      "is_playable" : true,
      "name" : "We Are Here To Praise You/May The Fragrance Of Jesus Fill This Place",
      "popularity" : 27,
      "preview_url" : null,
      "track_number" : 3,
      "type" : "track",
      "uri" : "spotify:track:2zetTxzTzTI8lN4QWeJHPn"
    }, {
      "album" : {
        "album_type" : "album",
        "artists" : [ {
          "external_urls" : {
            "spotify" : "https://open.spotify.com/artist/7f0dW7gYoWMYZRzYgHovyA"
          },
          "href" : "https://api.spotify.com/v1/artists/7f0dW7gYoWMYZRzYgHovyA",
          "id" : "7f0dW7gYoWMYZRzYgHovyA",
          "name" : "Dr. R. A. Vernon & \"The Word\" Church Praise Team",
          "type" : "artist",
          "uri" : "spotify:artist:7f0dW7gYoWMYZRzYgHovyA"
        } ],
        "external_urls" : {
          "spotify" : "https://open.spotify.com/album/5BwH6myV4UNSBnzsP4jsnf"
        },
        "href" : "https://api.spotify.com/v1/albums/5BwH6myV4UNSBnzsP4jsnf",
        "id" : "5BwH6myV4UNSBnzsP4jsnf",
        "images" : [ {
          "height" : 640,
          "url" : "https://i.scdn.co/image/ab67616d0000b273d7efd2c320fecfe4cfdf3723",
          "width" : 640
        }, {
          "height" : 300,
          "url" : "https://i.scdn.co/image/ab67616d00001e02d7efd2c320fecfe4cfdf3723",
          "width" : 300
        }, {
          "height" : 64,
          "url" : "https://i.scdn.co/image/ab67616d00004851d7efd2c320fecfe4cfdf3723",
          "width" : 64
        } ],
        "name" : "We're Amazed (Live Worship At \"The Word\"), Vol. 2",
        "release_date" : "2013-04-16",
        "release_date_precision" : "day",
        "total_tracks" : 14,
        "type" : "album",
        "uri" : "spotify:album:5BwH6myV4UNSBnzsP4jsnf"
      },
      "artists" : [ {
        "external_urls" : {
          "spotify" : "https://open.spotify.com/artist/7f0dW7gYoWMYZRzYgHovyA"
        },
        "href" : "https://api.spotify.com/v1/artists/7f0dW7gYoWMYZRzYgHovyA",
        "id" : "7f0dW7gYoWMYZRzYgHovyA",
        "name" : "Dr. R. A. Vernon & \"The Word\" Church Praise Team",
        "type" : "artist",
        "uri" : "spotify:artist:7f0dW7gYoWMYZRzYgHovyA"
      } ],
      "disc_number" : 1,
      "duration_ms" : 188106,
      "explicit" : false,
      "external_ids" : {
        "isrc" : "QMS2L1300009"
      },
      "external_urls" : {
        "spotify" : "https://open.spotify.com/track/7kBiwVW4cHa5eQNAXRZPlQ"
      },
      "href" : "https://api.spotify.com/v1/tracks/7kBiwVW4cHa5eQNAXRZPlQ",
      "id" : "7kBiwVW4cHa5eQNAXRZPlQ",
      "is_local" : false,
      "is_playable" : true,
      "name" : "Thank You, Lord",
      "popularity" : 22,
      "preview_url" : "https://p.scdn.co/mp3-preview/0b3c76906625942679296c60763cd796b77c16d4?cid=774b29d4f13844c495f206cafdad9c86",
      "track_number" : 8,
      "type" : "track",
      "uri" : "spotify:track:7kBiwVW4cHa5eQNAXRZPlQ"
    }, {
      "album" : {
        "album_type" : "album",
        "artists" : [ {
          "external_urls" : {
            "spotify" : "https://open.spotify.com/artist/30aMh21vdYVIjdVgIgHaqW"
          },
          "href" : "https://api.spotify.com/v1/artists/30aMh21vdYVIjdVgIgHaqW",
          "id" : "30aMh21vdYVIjdVgIgHaqW",
          "name" : "Mississippi Mass Choir",
          "type" : "artist",
          "uri" : "spotify:artist:30aMh21vdYVIjdVgIgHaqW"
        } ],
        "external_urls" : {
          "spotify" : "https://open.spotify.com/album/6iisYpnZhqiG0YV27QjJo9"
        },
        "href" : "https://api.spotify.com/v1/albums/6iisYpnZhqiG0YV27QjJo9",
        "id" : "6iisYpnZhqiG0YV27QjJo9",
        "images" : [ {
          "height" : 640,
          "url" : "https://i.scdn.co/image/ab67616d0000b27321ec410937650e9ff2c74909",
          "width" : 640
        }, {
          "height" : 300,
          "url" : "https://i.scdn.co/image/ab67616d00001e0221ec410937650e9ff2c74909",
          "width" : 300
        }, {
          "height" : 64,
          "url" : "https://i.scdn.co/image/ab67616d0000485121ec410937650e9ff2c74909",
          "width" : 64
        } ],
        "name" : "Then Sings My Soul",
        "release_date" : "2011-02-01",
        "release_date_precision" : "day",
        "total_tracks" : 18,
        "type" : "album",
        "uri" : "spotify:album:6iisYpnZhqiG0YV27QjJo9"
      },
      "artists" : [ {
        "external_urls" : {
          "spotify" : "https://open.spotify.com/artist/30aMh21vdYVIjdVgIgHaqW"
        },
        "href" : "https://api.spotify.com/v1/artists/30aMh21vdYVIjdVgIgHaqW",
        "id" : "30aMh21vdYVIjdVgIgHaqW",
        "name" : "Mississippi Mass Choir",
        "type" : "artist",
        "uri" : "spotify:artist:30aMh21vdYVIjdVgIgHaqW"
      } ],
      "disc_number" : 2,
      "duration_ms" : 372360,
      "explicit" : false,
      "external_ids" : {
        "isrc" : "USMR51042104"
      },
      "external_urls" : {
        "spotify" : "https://open.spotify.com/track/5m2FbSoz9nHxgd3uZOApYx"
      },
      "href" : "https://api.spotify.com/v1/tracks/5m2FbSoz9nHxgd3uZOApYx",
      "id" : "5m2FbSoz9nHxgd3uZOApYx",
      "is_local" : false,
      "is_playable" : true,
      "name" : "We've Come To Praise The Lord",
      "popularity" : 17,
      "preview_url" : "https://p.scdn.co/mp3-preview/df2354d90fd044c7ab448872741173b09a27c809?cid=774b29d4f13844c495f206cafdad9c86",
      "track_number" : 2,
      "type" : "track",
      "uri" : "spotify:track:5m2FbSoz9nHxgd3uZOApYx"
    }, {
      "album" : {
        "album_type" : "album",
        "artists" : [ {
          "external_urls" : {
            "spotify" : "https://open.spotify.com/artist/4lzlU08DosVqrpEoOvf3DQ"
          },
          "href" : "https://api.spotify.com/v1/artists/4lzlU08DosVqrpEoOvf3DQ",
          "id" : "4lzlU08DosVqrpEoOvf3DQ",
          "name" : "Wee Sing",
          "type" : "artist",
          "uri" : "spotify:artist:4lzlU08DosVqrpEoOvf3DQ"
        } ],
        "external_urls" : {
          "spotify" : "https://open.spotify.com/album/2MtJk9HokDWKBTa1rXobyd"
        },
        "href" : "https://api.spotify.com/v1/albums/2MtJk9HokDWKBTa1rXobyd",
        "id" : "2MtJk9HokDWKBTa1rXobyd",
        "images" : [ {
          "height" : 640,
          "url" : "https://i.scdn.co/image/ab67616d0000b273b54f9b6f0c24025aaa138ce8",
          "width" : 640
        }, {
          "height" : 300,
          "url" : "https://i.scdn.co/image/ab67616d00001e02b54f9b6f0c24025aaa138ce8",
          "width" : 300
        }, {
          "height" : 64,
          "url" : "https://i.scdn.co/image/ab67616d00004851b54f9b6f0c24025aaa138ce8",
          "width" : 64
        } ],
        "name" : "Wee Sing Bible Songs",
        "release_date" : "2011-03-25",
        "release_date_precision" : "day",
        "total_tracks" : 63,
        "type" : "album",
        "uri" : "spotify:album:2MtJk9HokDWKBTa1rXobyd"
      },
      "artists" : [ {
        "external_urls" : {
          "spotify" : "https://open.spotify.com/artist/4lzlU08DosVqrpEoOvf3DQ"
        },
        "href" : "https://api.spotify.com/v1/artists/4lzlU08DosVqrpEoOvf3DQ",
        "id" : "4lzlU08DosVqrpEoOvf3DQ",
        "name" : "Wee Sing",
        "type" : "artist",
        "uri" : "spotify:artist:4lzlU08DosVqrpEoOvf3DQ"
      } ],
      "disc_number" : 1,
      "duration_ms" : 61266,
      "explicit" : false,
      "external_ids" : {
        "isrc" : "TCAAW1185093"
      },
      "external_urls" : {
        "spotify" : "https://open.spotify.com/track/2A4ly6gCeF3edkLi1Ru3E2"
      },
      "href" : "https://api.spotify.com/v1/tracks/2A4ly6gCeF3edkLi1Ru3E2",
      "id" : "2A4ly6gCeF3edkLi1Ru3E2",
      "is_local" : false,
      "is_playable" : true,
      "name" : "Praise the Lord Together",
      "popularity" : 18,
      "preview_url" : "https://p.scdn.co/mp3-preview/9384948a8563df837e3e0441d341c84a54309d9d?cid=774b29d4f13844c495f206cafdad9c86",
      "track_number" : 44,
      "type" : "track",
      "uri" : "spotify:track:2A4ly6gCeF3edkLi1Ru3E2"
    }, {
      "album" : {
        "album_type" : "album",
        "artists" : [ {
          "external_urls" : {
            "spotify" : "https://open.spotify.com/artist/3lRcuKNnP49qqc0AHfTTAR"
          },
          "href" : "https://api.spotify.com/v1/artists/3lRcuKNnP49qqc0AHfTTAR",
          "id" : "3lRcuKNnP49qqc0AHfTTAR",
          "name" : "Vickie Winans",
          "type" : "artist",
          "uri" : "spotify:artist:3lRcuKNnP49qqc0AHfTTAR"
        } ],
        "external_urls" : {
          "spotify" : "https://open.spotify.com/album/3GBidmqIvxrB4k9CkdX7e7"
        },
        "href" : "https://api.spotify.com/v1/albums/3GBidmqIvxrB4k9CkdX7e7",
        "id" : "3GBidmqIvxrB4k9CkdX7e7",
        "images" : [ {
          "height" : 640,
          "url" : "https://i.scdn.co/image/ab67616d0000b2731486771acf8003eb6d3a6720",
          "width" : 640
        }, {
          "height" : 300,
          "url" : "https://i.scdn.co/image/ab67616d00001e021486771acf8003eb6d3a6720",
          "width" : 300
        }, {
          "height" : 64,
          "url" : "https://i.scdn.co/image/ab67616d000048511486771acf8003eb6d3a6720",
          "width" : 64
        } ],
        "name" : "Praise & Worship",
        "release_date" : "2003",
        "release_date_precision" : "year",
        "total_tracks" : 12,
        "type" : "album",
        "uri" : "spotify:album:3GBidmqIvxrB4k9CkdX7e7"
      },
      "artists" : [ {
        "external_urls" : {
          "spotify" : "https://open.spotify.com/artist/3lRcuKNnP49qqc0AHfTTAR"
        },
        "href" : "https://api.spotify.com/v1/artists/3lRcuKNnP49qqc0AHfTTAR",
        "id" : "3lRcuKNnP49qqc0AHfTTAR",
        "name" : "Vickie Winans",
        "type" : "artist",
        "uri" : "spotify:artist:3lRcuKNnP49qqc0AHfTTAR"
      } ],
      "disc_number" : 1,
      "duration_ms" : 271040,
      "explicit" : false,
      "external_ids" : {
        "isrc" : "USVE20300032"
      },
      "external_urls" : {
        "spotify" : "https://open.spotify.com/track/4nTd4lDEZiKl3EskxwGFFq"
      },
      "href" : "https://api.spotify.com/v1/tracks/4nTd4lDEZiKl3EskxwGFFq",
      "id" : "4nTd4lDEZiKl3EskxwGFFq",
      "is_local" : false,
      "is_playable" : true,
      "name" : "We Need A Word From The Lord",
      "popularity" : 17,
      "preview_url" : "https://p.scdn.co/mp3-preview/ed477f200d83d7c18950bc81bb7d01c898ccc270?cid=774b29d4f13844c495f206cafdad9c86",
      "track_number" : 8,
      "type" : "track",
      "uri" : "spotify:track:4nTd4lDEZiKl3EskxwGFFq"
    }, {
      "album" : {
        "album_type" : "album",
        "artists" : [ {
          "external_urls" : {
            "spotify" : "https://open.spotify.com/artist/1leJVVQg9pyCvL4f1BuYgE"
          },
          "href" : "https://api.spotify.com/v1/artists/1leJVVQg9pyCvL4f1BuYgE",
          "id" : "1leJVVQg9pyCvL4f1BuYgE",
          "name" : "Grace Church Worship",
          "type" : "artist",
          "uri" : "spotify:artist:1leJVVQg9pyCvL4f1BuYgE"
        } ],
        "external_urls" : {
          "spotify" : "https://open.spotify.com/album/4dQ8kBzeFI6vyNpD6DEZYa"
        },
        "href" : "https://api.spotify.com/v1/albums/4dQ8kBzeFI6vyNpD6DEZYa",
        "id" : "4dQ8kBzeFI6vyNpD6DEZYa",
        "images" : [ {
          "height" : 640,
          "url" : "https://i.scdn.co/image/ab67616d0000b2735ce8e98b10c9346c76b3758f",
          "width" : 640
        }, {
          "height" : 300,
          "url" : "https://i.scdn.co/image/ab67616d00001e025ce8e98b10c9346c76b3758f",
          "width" : 300
        }, {
          "height" : 64,
          "url" : "https://i.scdn.co/image/ab67616d000048515ce8e98b10c9346c76b3758f",
          "width" : 64
        } ],
        "name" : "Sing to the Lord",
        "release_date" : "2018-08-31",
        "release_date_precision" : "day",
        "total_tracks" : 11,
        "type" : "album",
        "uri" : "spotify:album:4dQ8kBzeFI6vyNpD6DEZYa"
      },
      "artists" : [ {
        "external_urls" : {
          "spotify" : "https://open.spotify.com/artist/1leJVVQg9pyCvL4f1BuYgE"
        },
        "href" : "https://api.spotify.com/v1/artists/1leJVVQg9pyCvL4f1BuYgE",
        "id" : "1leJVVQg9pyCvL4f1BuYgE",
        "name" : "Grace Church Worship",
        "type" : "artist",
        "uri" : "spotify:artist:1leJVVQg9pyCvL4f1BuYgE"
      } ],
      "disc_number" : 1,
      "duration_ms" : 351685,
      "explicit" : false,
      "external_ids" : {
        "isrc" : "QZDA71875188"
      },
      "external_urls" : {
        "spotify" : "https://open.spotify.com/track/1DFDg4FUm2II6xXGUVcLl5"
      },
      "href" : "https://api.spotify.com/v1/tracks/1DFDg4FUm2II6xXGUVcLl5",
      "id" : "1DFDg4FUm2II6xXGUVcLl5",
      "is_local" : false,
      "is_playable" : true,
      "name" : "Come Thou Fount (We Praise You)",
      "popularity" : 17,
      "preview_url" : "https://p.scdn.co/mp3-preview/6991540ef18a2dce365be9cd6e904c24c37c7314?cid=774b29d4f13844c495f206cafdad9c86",
      "track_number" : 4,
      "type" : "track",
      "uri" : "spotify:track:1DFDg4FUm2II6xXGUVcLl5"
    }, {
      "album" : {
        "album_type" : "album",
        "artists" : [ {
          "external_urls" : {
            "spotify" : "https://open.spotify.com/artist/5KM6vTt9aFfkWPwS140Jhn"
          },
          "href" : "https://api.spotify.com/v1/artists/5KM6vTt9aFfkWPwS140Jhn",
          "id" : "5KM6vTt9aFfkWPwS140Jhn",
          "name" : "Danny Antill",
          "type" : "artist",
          "uri" : "spotify:artist:5KM6vTt9aFfkWPwS140Jhn"
        } ],
        "external_urls" : {
          "spotify" : "https://open.spotify.com/album/1bTs8kXD0IUGufrjYYNUve"
        },
        "href" : "https://api.spotify.com/v1/albums/1bTs8kXD0IUGufrjYYNUve",
        "id" : "1bTs8kXD0IUGufrjYYNUve",
        "images" : [ {
          "height" : 640,
          "url" : "https://i.scdn.co/image/ab67616d0000b273ddb70e5e74ffb16bb7f7a692",
          "width" : 640
        }, {
          "height" : 300,
          "url" : "https://i.scdn.co/image/ab67616d00001e02ddb70e5e74ffb16bb7f7a692",
          "width" : 300
        }, {
          "height" : 64,
          "url" : "https://i.scdn.co/image/ab67616d00004851ddb70e5e74ffb16bb7f7a692",
          "width" : 64
        } ],
        "name" : "Piano Instrumental: 50 Favourite Praise & Worship Songs",
        "release_date" : "2005-08-19",
        "release_date_precision" : "day",
        "total_tracks" : 7,
        "type" : "album",
        "uri" : "spotify:album:1bTs8kXD0IUGufrjYYNUve"
      },
      "artists" : [ {
        "external_urls" : {
          "spotify" : "https://open.spotify.com/artist/5KM6vTt9aFfkWPwS140Jhn"
        },
        "href" : "https://api.spotify.com/v1/artists/5KM6vTt9aFfkWPwS140Jhn",
        "id" : "5KM6vTt9aFfkWPwS140Jhn",
        "name" : "Danny Antill",
        "type" : "artist",
        "uri" : "spotify:artist:5KM6vTt9aFfkWPwS140Jhn"
      } ],
      "disc_number" : 1,
      "duration_ms" : 380200,
      "explicit" : false,
      "external_ids" : {
        "isrc" : "USA560846316"
      },
      "external_urls" : {
        "spotify" : "https://open.spotify.com/track/1AN41kv4ZXsELlo1Dl3THp"
      },
      "href" : "https://api.spotify.com/v1/tracks/1AN41kv4ZXsELlo1Dl3THp",
      "id" : "1AN41kv4ZXsELlo1Dl3THp",
      "is_local" : false,
      "is_playable" : true,
      "name" : "Medley 4: 1) Eagles Wings 2) He is Lord 3) Jesus we enthrone you 4) Heart of worship 5) Open the eyes of my heart",
      "popularity" : 27,
      "preview_url" : "https://p.scdn.co/mp3-preview/f9e43261ace65a0697b5568b7d34723e1d901514?cid=774b29d4f13844c495f206cafdad9c86",
      "track_number" : 4,
      "type" : "track",
      "uri" : "spotify:track:1AN41kv4ZXsELlo1Dl3THp"
    }, {
      "album" : {
        "album_type" : "album",
        "artists" : [ {
          "external_urls" : {
            "spotify" : "https://open.spotify.com/artist/0hxYrVr7PlRoiYuYaKBctb"
          },
          "href" : "https://api.spotify.com/v1/artists/0hxYrVr7PlRoiYuYaKBctb",
          "id" : "0hxYrVr7PlRoiYuYaKBctb",
          "name" : "Russ Taff",
          "type" : "artist",
          "uri" : "spotify:artist:0hxYrVr7PlRoiYuYaKBctb"
        } ],
        "external_urls" : {
          "spotify" : "https://open.spotify.com/album/4rJtuA9FwzKJzd5f5hyPa5"
        },
        "href" : "https://api.spotify.com/v1/albums/4rJtuA9FwzKJzd5f5hyPa5",
        "id" : "4rJtuA9FwzKJzd5f5hyPa5",
        "images" : [ {
          "height" : 640,
          "url" : "https://i.scdn.co/image/ab67616d0000b273319a9cdde737f15a55097907",
          "width" : 640
        }, {
          "height" : 300,
          "url" : "https://i.scdn.co/image/ab67616d00001e02319a9cdde737f15a55097907",
          "width" : 300
        }, {
          "height" : 64,
          "url" : "https://i.scdn.co/image/ab67616d00004851319a9cdde737f15a55097907",
          "width" : 64
        } ],
        "name" : "We Will Stand / Yesterday and Today",
        "release_date" : "1994-01-01",
        "release_date_precision" : "day",
        "total_tracks" : 14,
        "type" : "album",
        "uri" : "spotify:album:4rJtuA9FwzKJzd5f5hyPa5"
      },
      "artists" : [ {
        "external_urls" : {
          "spotify" : "https://open.spotify.com/artist/0hxYrVr7PlRoiYuYaKBctb"
        },
        "href" : "https://api.spotify.com/v1/artists/0hxYrVr7PlRoiYuYaKBctb",
        "id" : "0hxYrVr7PlRoiYuYaKBctb",
        "name" : "Russ Taff",
        "type" : "artist",
        "uri" : "spotify:artist:0hxYrVr7PlRoiYuYaKBctb"
      } ],
      "disc_number" : 1,
      "duration_ms" : 208533,
      "explicit" : false,
      "external_ids" : {
        "isrc" : "USWR60250553"
      },
      "external_urls" : {
        "spotify" : "https://open.spotify.com/track/5ThrtMiWu3TRqUwyi9gwtl"
      },
      "href" : "https://api.spotify.com/v1/tracks/5ThrtMiWu3TRqUwyi9gwtl",
      "id" : "5ThrtMiWu3TRqUwyi9gwtl",
      "is_local" : false,
      "is_playable" : true,
      "name" : "Praise the Lord",
      "popularity" : 16,
      "preview_url" : "https://p.scdn.co/mp3-preview/0b5566f7c326a8d10cebc1df726ec26294ea0a0a?cid=774b29d4f13844c495f206cafdad9c86",
      "track_number" : 13,
      "type" : "track",
      "uri" : "spotify:track:5ThrtMiWu3TRqUwyi9gwtl"
    }, {
      "album" : {
        "album_type" : "album",
        "artists" : [ {
          "external_urls" : {
            "spotify" : "https://open.spotify.com/artist/3Qp9Qtdb5G8QYHWfe5qxi0"
          },
          "href" : "https://api.spotify.com/v1/artists/3Qp9Qtdb5G8QYHWfe5qxi0",
          "id" : "3Qp9Qtdb5G8QYHWfe5qxi0",
          "name" : "Ernie Haase & Signature Sound",
          "type" : "artist",
          "uri" : "spotify:artist:3Qp9Qtdb5G8QYHWfe5qxi0"
        } ],
        "external_urls" : {
          "spotify" : "https://open.spotify.com/album/4HysYMTZluJ3NN06UI7927"
        },
        "href" : "https://api.spotify.com/v1/albums/4HysYMTZluJ3NN06UI7927",
        "id" : "4HysYMTZluJ3NN06UI7927",
        "images" : [ {
          "height" : 640,
          "url" : "https://i.scdn.co/image/ab67616d0000b273b486aaaa8388b873164aeeaa",
          "width" : 640
        }, {
          "height" : 300,
          "url" : "https://i.scdn.co/image/ab67616d00001e02b486aaaa8388b873164aeeaa",
          "width" : 300
        }, {
          "height" : 64,
          "url" : "https://i.scdn.co/image/ab67616d00004851b486aaaa8388b873164aeeaa",
          "width" : 64
        } ],
        "name" : "Something Beautiful",
        "release_date" : "2020-04-17",
        "release_date_precision" : "day",
        "total_tracks" : 12,
        "type" : "album",
        "uri" : "spotify:album:4HysYMTZluJ3NN06UI7927"
      },
      "artists" : [ {
        "external_urls" : {
          "spotify" : "https://open.spotify.com/artist/3Qp9Qtdb5G8QYHWfe5qxi0"
        },
        "href" : "https://api.spotify.com/v1/artists/3Qp9Qtdb5G8QYHWfe5qxi0",
        "id" : "3Qp9Qtdb5G8QYHWfe5qxi0",
        "name" : "Ernie Haase & Signature Sound",
        "type" : "artist",
        "uri" : "spotify:artist:3Qp9Qtdb5G8QYHWfe5qxi0"
      }, {
        "external_urls" : {
          "spotify" : "https://open.spotify.com/artist/1NUEskG7Eh72xoCMvtvn5C"
        },
        "href" : "https://api.spotify.com/v1/artists/1NUEskG7Eh72xoCMvtvn5C",
        "id" : "1NUEskG7Eh72xoCMvtvn5C",
        "name" : "Gloria Gaither",
        "type" : "artist",
        "uri" : "spotify:artist:1NUEskG7Eh72xoCMvtvn5C"
      } ],
      "disc_number" : 1,
      "duration_ms" : 460626,
      "explicit" : false,
      "external_ids" : {
        "isrc" : "QZHL72000007"
      },
      "external_urls" : {
        "spotify" : "https://open.spotify.com/track/2VT8jDmLQjJtgxJP6PE3Ra"
      },
      "href" : "https://api.spotify.com/v1/tracks/2VT8jDmLQjJtgxJP6PE3Ra",
      "id" : "2VT8jDmLQjJtgxJP6PE3Ra",
      "is_local" : false,
      "is_playable" : true,
      "name" : "Gaither Medley: Loving God, Loving Each Other / The Family Of God / I Am Loved / Jesus, We Just Want To Thank You / Let's Just Praise The Lord",
      "popularity" : 21,
      "preview_url" : null,
      "track_number" : 7,
      "type" : "track",
      "uri" : "spotify:track:2VT8jDmLQjJtgxJP6PE3Ra"
    }, {
      "album" : {
        "album_type" : "album",
        "artists" : [ {
          "external_urls" : {
            "spotify" : "https://open.spotify.com/artist/67OFzndMlzj7cDF2BqnwYe"
          },
          "href" : "https://api.spotify.com/v1/artists/67OFzndMlzj7cDF2BqnwYe",
          "id" : "67OFzndMlzj7cDF2BqnwYe",
          "name" : "Maranatha! Music",
          "type" : "artist",
          "uri" : "spotify:artist:67OFzndMlzj7cDF2BqnwYe"
        } ],
        "external_urls" : {
          "spotify" : "https://open.spotify.com/album/2hpbO4rwmOMic8bXS51PPI"
        },
        "href" : "https://api.spotify.com/v1/albums/2hpbO4rwmOMic8bXS51PPI",
        "id" : "2hpbO4rwmOMic8bXS51PPI",
        "images" : [ {
          "height" : 640,
          "url" : "https://i.scdn.co/image/ab67616d0000b2730585ee4bcafae85021878538",
          "width" : 640
        }, {
          "height" : 300,
          "url" : "https://i.scdn.co/image/ab67616d00001e020585ee4bcafae85021878538",
          "width" : 300
        }, {
          "height" : 64,
          "url" : "https://i.scdn.co/image/ab67616d000048510585ee4bcafae85021878538",
          "width" : 64
        } ],
        "name" : "Praise 11 - Let Us Worship Lord Jehovah",
        "release_date" : "1999-01-01",
        "release_date_precision" : "day",
        "total_tracks" : 20,
        "type" : "album",
        "uri" : "spotify:album:2hpbO4rwmOMic8bXS51PPI"
      },
      "artists" : [ {
        "external_urls" : {
          "spotify" : "https://open.spotify.com/artist/67OFzndMlzj7cDF2BqnwYe"
        },
        "href" : "https://api.spotify.com/v1/artists/67OFzndMlzj7cDF2BqnwYe",
        "id" : "67OFzndMlzj7cDF2BqnwYe",
        "name" : "Maranatha! Music",
        "type" : "artist",
        "uri" : "spotify:artist:67OFzndMlzj7cDF2BqnwYe"
      } ],
      "disc_number" : 1,
      "duration_ms" : 229440,
      "explicit" : false,
      "external_ids" : {
        "isrc" : "USMN20601303"
      },
      "external_urls" : {
        "spotify" : "https://open.spotify.com/track/3ZwYwm1wlxGrrA9Ke1GzUv"
      },
      "href" : "https://api.spotify.com/v1/tracks/3ZwYwm1wlxGrrA9Ke1GzUv",
      "id" : "3ZwYwm1wlxGrrA9Ke1GzUv",
      "is_local" : false,
      "is_playable" : true,
      "name" : "We Choose The Fear Of The Lord - Instrumental",
      "popularity" : 18,
      "preview_url" : null,
      "track_number" : 13,
      "type" : "track",
      "uri" : "spotify:track:3ZwYwm1wlxGrrA9Ke1GzUv"
    } ],
    "limit" : 10,
    "next" : "https://api.spotify.com/v1/search?query=Praise+We+the+Lord&type=track&market=US&offset=15&limit=10",
    "offset" : 5,
    "previous" : "https://api.spotify.com/v1/search?query=Praise+We+the+Lord&type=track&market=US&offset=0&limit=10",
    "total" : 773
  }
}