{
  "tracks" : {
    "href" : "https://api.spotify.com/v1/search?query=Ride+On+in+Majesty&type=track&market=US&offset=5&limit=10",
    "items" : [ {
      "album" : {
        "album_type" : "album",
        "artists" : [ {
          "external_urls" : {
            "spotify" : "https://open.spotify.com/artist/3qK6GUn7jtgdJhm72LautT"
          },
          "href" : "https://api.spotify.com/v1/artists/3qK6GUn7jtgdJhm72LautT",
          "id" : "3qK6GUn7jtgdJhm72LautT",
          "name" : "Choir Of All Saints Margaret Street London",
          "type" : "artist",
          "uri" : "spotify:artist:3qK6GUn7jtgdJhm72LautT"
        } ],
        "external_urls" : {
          "spotify" : "https://open.spotify.com/album/51YywVgJVL8sXO5AoQJrtm"
        },
        "href" : "https://api.spotify.com/v1/albums/51YywVgJVL8sXO5AoQJrtm",
        "id" : "51YywVgJVL8sXO5AoQJrtm",
        "images" : [ {
          "height" : 640,
          "url" : "https://i.scdn.co/image/ab67616d0000b273313f3f7341f1cf797868a177",
          "width" : 640
        }, {
          "height" : 300,
          "url" : "https://i.scdn.co/image/ab67616d00001e02313f3f7341f1cf797868a177",
          "width" : 300
        }, {
          "height" : 64,
          "url" : "https://i.scdn.co/image/ab67616d00004851313f3f7341f1cf797868a177",
          "width" : 64
        } ],
        "name" : "Complete New English Hymnal Vol. 7",
        "release_date" : "2001-08-31",
        "release_date_precision" : "day",
        "total_tracks" : 17,
        "type" : "album",
        "uri" : "spotify:album:51YywVgJVL8sXO5AoQJrtm"
      },
      "artists" : [ {
        "external_urls" : {
          "spotify" : "https://open.spotify.com/artist/3qK6GUn7jtgdJhm72LautT"
        },
        "href" : "https://api.spotify.com/v1/artists/3qK6GUn7jtgdJhm72LautT",
        "id" : "3qK6GUn7jtgdJhm72LautT",
        "name" : "Choir Of All Saints Margaret Street London",
        "type" : "artist",
        "uri" : "spotify:artist:3qK6GUn7jtgdJhm72LautT"
      } ],
      "disc_number" : 1,
      "duration_ms" : 143533,
      "explicit" : false,
      "external_ids" : {
        "isrc" : "GBXUX0870701"
      },
      "external_urls" : {
        "spotify" : "https://open.spotify.com/track/3KvMRnGoWWu5ALErQJRSds"
      },
      "href" : "https://api.spotify.com/v1/tracks/3KvMRnGoWWu5ALErQJRSds",
      "id" : "3KvMRnGoWWu5ALErQJRSds",
      "is_local" : false,
      "is_playable" : true,
      "name" : "Ride on, Ride on in Majesty",
      "popularity" : 10,
      "preview_url" : "https://p.scdn.co/mp3-preview/dcd4a97460853b9ae4a1e8f63b7b5fd493a907e3?cid=774b29d4f13844c495f206cafdad9c86",
      "track_number" : 1,
      "type" : "track",
      "uri" : "spotify:track:3KvMRnGoWWu5ALErQJRSds"
    }, {
      "album" : {
        "album_type" : "album",
        "artists" : [ {
          "external_urls" : {
            "spotify" : "https://open.spotify.com/artist/2yQZGNQJExPLfCB8kfTD88"
          },
          "href" : "https://api.spotify.com/v1/artists/2yQZGNQJExPLfCB8kfTD88",
          "id" : "2yQZGNQJExPLfCB8kfTD88",
          "name" : "Andrey Jackson",
          "type" : "artist",
          "uri" : "spotify:artist:2yQZGNQJExPLfCB8kfTD88"
        } ],
        "external_urls" : {
          "spotify" : "https://open.spotify.com/album/1RoX8hyn3SCtQGhqL7BiIr"
        },
        "href" : "https://api.spotify.com/v1/albums/1RoX8hyn3SCtQGhqL7BiIr",
        "id" : "1RoX8hyn3SCtQGhqL7BiIr",
        "images" : [ {
          "height" : 640,
          "url" : "https://i.scdn.co/image/ab67616d0000b273216269e70d1a7d605fc97175",
          "width" : 640
        }, {
          "height" : 300,
          "url" : "https://i.scdn.co/image/ab67616d00001e02216269e70d1a7d605fc97175",
          "width" : 300
        }, {
          "height" : 64,
          "url" : "https://i.scdn.co/image/ab67616d00004851216269e70d1a7d605fc97175",
          "width" : 64
        } ],
        "name" : "Christian Hymns for Easter, Organ Accompaniments (The Church Organist Series)",
        "release_date" : "2015-10-15",
        "release_date_precision" : "day",
        "total_tracks" : 40,
        "type" : "album",
        "uri" : "spotify:album:1RoX8hyn3SCtQGhqL7BiIr"
      },
      "artists" : [ {
        "external_urls" : {
          "spotify" : "https://open.spotify.com/artist/2yQZGNQJExPLfCB8kfTD88"
        },
        "href" : "https://api.spotify.com/v1/artists/2yQZGNQJExPLfCB8kfTD88",
        "id" : "2yQZGNQJExPLfCB8kfTD88",
        "name" : "Andrey Jackson",
        "type" : "artist",
        "uri" : "spotify:artist:2yQZGNQJExPLfCB8kfTD88"
      } ],
      "disc_number" : 1,
      "duration_ms" : 101619,
      "explicit" : false,
      "external_ids" : {
        "isrc" : "GB-SMU-23-62425"
      },
      "external_urls" : {
        "spotify" : "https://open.spotify.com/track/3Kj2sCBcVOgazCgRIFK8VL"
      },
      "href" : "https://api.spotify.com/v1/tracks/3Kj2sCBcVOgazCgRIFK8VL",
      "id" : "3Kj2sCBcVOgazCgRIFK8VL",
      "is_local" : false,
      "is_playable" : true,
      "name" : "Ride On Ride On in Majesty",
      "popularity" : 3,
      "preview_url" : "https://p.scdn.co/mp3-preview/e938bc695389e4f848b5d24b62db68e979e6d6cc?cid=774b29d4f13844c495f206cafdad9c86",
      "track_number" : 34,
      "type" : "track",
      "uri" : "spotify:track:3Kj2sCBcVOgazCgRIFK8VL"
    }, {
      "album" : {
        "album_type" : "album",
        "artists" : [ {
          "external_urls" : {
            "spotify" : "https://open.spotify.com/artist/7rluHfxLiKAkAoMkuE1F8U"
          },
          "href" : "https://api.spotify.com/v1/artists/7rluHfxLiKAkAoMkuE1F8U",
          "id" : "7rluHfxLiKAkAoMkuE1F8U",
          "name" : "St. Michael's Singers",
          "type" : "artist",
          "uri" : "spotify:artist:7rluHfxLiKAkAoMkuE1F8U"
        } ],
        "external_urls" : {
          "spotify" : "https://open.spotify.com/album/3rolUatbFox1HfzALoznC8"
        },
        "href" : "https://api.spotify.com/v1/albums/3rolUatbFox1HfzALoznC8",
        "id" : "3rolUatbFox1HfzALoznC8",
        "images" : [ {
          "height" : 640,
          "url" : "https://i.scdn.co/image/ab67616d0000b273a4dff1043b1a9aa765949ce6",
          "width" : 640
        }, {
          "height" : 300,
          "url" : "https://i.scdn.co/image/ab67616d00001e02a4dff1043b1a9aa765949ce6",
          "width" : 300
        }, {
          "height" : 64,
          "url" : "https://i.scdn.co/image/ab67616d00004851a4dff1043b1a9aa765949ce6",
          "width" : 64
        } ],
        "name" : "Christ Triumphant",
        "release_date" : "2008-07-15",
        "release_date_precision" : "day",
        "total_tracks" : 12,
        "type" : "album",
        "uri" : "spotify:album:3rolUatbFox1HfzALoznC8"
      },
      "artists" : [ {
        "external_urls" : {
          "spotify" : "https://open.spotify.com/artist/7rluHfxLiKAkAoMkuE1F8U"
        },
        "href" : "https://api.spotify.com/v1/artists/7rluHfxLiKAkAoMkuE1F8U",
        "id" : "7rluHfxLiKAkAoMkuE1F8U",
        "name" : "St. Michael's Singers",
        "type" : "artist",
        "uri" : "spotify:artist:7rluHfxLiKAkAoMkuE1F8U"
      } ],
      "disc_number" : 1,
      "duration_ms" : 152240,
      "explicit" : false,
      "external_ids" : {
        "isrc" : "GBCEU0221502"
      },
      "external_urls" : {
        "spotify" : "https://open.spotify.com/track/6iykLFVmp5pzcm9eLykhvd"
      },
      "href" : "https://api.spotify.com/v1/tracks/6iykLFVmp5pzcm9eLykhvd",
      "id" : "6iykLFVmp5pzcm9eLykhvd",
      "is_local" : false,
      "is_playable" : true,
      "name" : "Ride on! Ride on In Majesty",
      "popularity" : 4,
      "preview_url" : "https://p.scdn.co/mp3-preview/b9af137bebc289be9ebfdba76521e903a2cf58e1?cid=774b29d4f13844c495f206cafdad9c86",
      "track_number" : 2,
      "type" : "track",
      "uri" : "spotify:track:6iykLFVmp5pzcm9eLykhvd"
    }, {
      "album" : {
        "album_type" : "album",
        "artists" : [ {
          "external_urls" : {
            "spotify" : "https://open.spotify.com/artist/45QNqncmJi3M3qyWrlcvif"
          },
          "href" : "https://api.spotify.com/v1/artists/45QNqncmJi3M3qyWrlcvif",
          "id" : "45QNqncmJi3M3qyWrlcvif",
          "name" : "William Neil",
          "type" : "artist",
          "uri" : "spotify:artist:45QNqncmJi3M3qyWrlcvif"
        } ],
        "external_urls" : {
          "spotify" : "https://open.spotify.com/album/7rPdMvzDAFVrOKxi91CQc8"
        },
        "href" : "https://api.spotify.com/v1/albums/7rPdMvzDAFVrOKxi91CQc8",
        "id" : "7rPdMvzDAFVrOKxi91CQc8",
        "images" : [ {
          "height" : 640,
          "url" : "https://i.scdn.co/image/ab67616d0000b2736c663bed0854394a6c7c02b4",
          "width" : 640
        }, {
          "height" : 300,
          "url" : "https://i.scdn.co/image/ab67616d00001e026c663bed0854394a6c7c02b4",
          "width" : 300
        }, {
          "height" : 64,
          "url" : "https://i.scdn.co/image/ab67616d000048516c663bed0854394a6c7c02b4",
          "width" : 64
        } ],
        "name" : "He Is Risen! - Favorite Hymns of the Easter Season",
        "release_date" : "2007-10-02",
        "release_date_precision" : "day",
        "total_tracks" : 23,
        "type" : "album",
        "uri" : "spotify:album:7rPdMvzDAFVrOKxi91CQc8"
      },
      "artists" : [ {
        "external_urls" : {
          "spotify" : "https://open.spotify.com/artist/27OwHi5l9T0TcNeYRPz6C3"
        },
        "href" : "https://api.spotify.com/v1/artists/27OwHi5l9T0TcNeYRPz6C3",
        "id" : "27OwHi5l9T0TcNeYRPz6C3",
        "name" : "Graham George",
        "type" : "artist",
        "uri" : "spotify:artist:27OwHi5l9T0TcNeYRPz6C3"
      }, {
        "external_urls" : {
          "spotify" : "https://open.spotify.com/artist/45QNqncmJi3M3qyWrlcvif"
        },
        "href" : "https://api.spotify.com/v1/artists/45QNqncmJi3M3qyWrlcvif",
        "id" : "45QNqncmJi3M3qyWrlcvif",
        "name" : "William Neil",
        "type" : "artist",
        "uri" : "spotify:artist:45QNqncmJi3M3qyWrlcvif"
      } ],
      "disc_number" : 1,
      "duration_ms" : 146813,
      "explicit" : false,
      "external_ids" : {
        "isrc" : "USBZ90711157"
      },
      "external_urls" : {
        "spotify" : "https://open.spotify.com/track/4bozEs2pGZVQJa5qER9RI6"
      },
      "href" : "https://api.spotify.com/v1/tracks/4bozEs2pGZVQJa5qER9RI6",
      "id" : "4bozEs2pGZVQJa5qER9RI6",
      "is_local" : false,
      "is_playable" : true,
      "name" : "Ride On! Ride On in Majesty! - Palm Sunday",
      "popularity" : 3,
      "preview_url" : "https://p.scdn.co/mp3-preview/c5573bd6dd8ac60faf251081b76694e67ac0c6b0?cid=774b29d4f13844c495f206cafdad9c86",
      "track_number" : 2,
      "type" : "track",
      "uri" : "spotify:track:4bozEs2pGZVQJa5qER9RI6"
    }, {
      "album" : {
        "album_type" : "album",
        "artists" : [ {
          "external_urls" : {
            "spotify" : "https://open.spotify.com/artist/5zkmOYaXiNHBKxKnnd1rvl"
          },
          "href" : "https://api.spotify.com/v1/artists/5zkmOYaXiNHBKxKnnd1rvl",
          "id" : "5zkmOYaXiNHBKxKnnd1rvl",
          "name" : "John Keys",
          "type" : "artist",
          "uri" : "spotify:artist:5zkmOYaXiNHBKxKnnd1rvl"
        } ],
        "external_urls" : {
          "spotify" : "https://open.spotify.com/album/4S4qhZOOaTntCE3TOciOT8"
        },
        "href" : "https://api.spotify.com/v1/albums/4S4qhZOOaTntCE3TOciOT8",
        "id" : "4S4qhZOOaTntCE3TOciOT8",
        "images" : [ {
          "height" : 640,
          "url" : "https://i.scdn.co/image/ab67616d0000b273a6fee5f2be19cab4fffc479c",
          "width" : 640
        }, {
          "height" : 300,
          "url" : "https://i.scdn.co/image/ab67616d00001e02a6fee5f2be19cab4fffc479c",
          "width" : 300
        }, {
          "height" : 64,
          "url" : "https://i.scdn.co/image/ab67616d00004851a6fee5f2be19cab4fffc479c",
          "width" : 64
        } ],
        "name" : "Prayerful Hymns Organ Accompaniments, Vol. 1",
        "release_date" : "2019-08-30",
        "release_date_precision" : "day",
        "total_tracks" : 27,
        "type" : "album",
        "uri" : "spotify:album:4S4qhZOOaTntCE3TOciOT8"
      },
      "artists" : [ {
        "external_urls" : {
          "spotify" : "https://open.spotify.com/artist/5zkmOYaXiNHBKxKnnd1rvl"
        },
        "href" : "https://api.spotify.com/v1/artists/5zkmOYaXiNHBKxKnnd1rvl",
        "id" : "5zkmOYaXiNHBKxKnnd1rvl",
        "name" : "John Keys",
        "type" : "artist",
        "uri" : "spotify:artist:5zkmOYaXiNHBKxKnnd1rvl"
      } ],
      "disc_number" : 1,
      "duration_ms" : 142879,
      "explicit" : false,
      "external_ids" : {
        "isrc" : "GBKPL1962137"
      },
      "external_urls" : {
        "spotify" : "https://open.spotify.com/track/0i4f0EJJlhPtwo7XkZUhNA"
      },
      "href" : "https://api.spotify.com/v1/tracks/0i4f0EJJlhPtwo7XkZUhNA",
      "id" : "0i4f0EJJlhPtwo7XkZUhNA",
      "is_local" : false,
      "is_playable" : true,
      "name" : "Ride On, Ride on in Majesty (The Kings Majesty)",
      "popularity" : 0,
      "preview_url" : "https://p.scdn.co/mp3-preview/a30fb7fab3ce7c1132f9ff687c35dedf07212b9a?cid=774b29d4f13844c495f206cafdad9c86",
      "track_number" : 18,
      "type" : "track",
      "uri" : "spotify:track:0i4f0EJJlhPtwo7XkZUhNA"
    }, {
      "album" : {
        "album_type" : "album",
        "artists" : [ {
          "external_urls" : {
            "spotify" : "https://open.spotify.com/artist/3HJKdfCMxTrirNbb7cykOm"
          },
          "href" : "https://api.spotify.com/v1/artists/3HJKdfCMxTrirNbb7cykOm",
          "id" : "3HJKdfCMxTrirNbb7cykOm",
          "name" : "The Festival Choir and Hosanna Chorus",
          "type" : "artist",
          "uri" : "spotify:artist:3HJKdfCMxTrirNbb7cykOm"
        } ],
        "external_urls" : {
          "spotify" : "https://open.spotify.com/album/42MeVJOaeQeUm1BtOQdkFZ"
        },
        "href" : "https://api.spotify.com/v1/albums/42MeVJOaeQeUm1BtOQdkFZ",
        "id" : "42MeVJOaeQeUm1BtOQdkFZ",
        "images" : [ {
          "height" : 640,
          "url" : "https://i.scdn.co/image/ab67616d0000b2736377652d6ee1fd6faff00fa7",
          "width" : 640
        }, {
          "height" : 300,
          "url" : "https://i.scdn.co/image/ab67616d00001e026377652d6ee1fd6faff00fa7",
          "width" : 300
        }, {
          "height" : 64,
          "url" : "https://i.scdn.co/image/ab67616d000048516377652d6ee1fd6faff00fa7",
          "width" : 64
        } ],
        "name" : "100 Church Classics",
        "release_date" : "2004",
        "release_date_precision" : "year",
        "total_tracks" : 100,
        "type" : "album",
        "uri" : "spotify:album:42MeVJOaeQeUm1BtOQdkFZ"
      },
      "artists" : [ {
        "external_urls" : {
          "spotify" : "https://open.spotify.com/artist/3HJKdfCMxTrirNbb7cykOm"
        },
        "href" : "https://api.spotify.com/v1/artists/3HJKdfCMxTrirNbb7cykOm",
        "id" : "3HJKdfCMxTrirNbb7cykOm",
        "name" : "The Festival Choir and Hosanna Chorus",
        "type" : "artist",
        "uri" : "spotify:artist:3HJKdfCMxTrirNbb7cykOm"
      } ],
      "disc_number" : 2,
      "duration_ms" : 100106,
      "explicit" : false,
      "external_ids" : {
        "isrc" : "CAM460700417"
      },
      "external_urls" : {
        "spotify" : "https://open.spotify.com/track/4O9uwnPiVefE9ykcBPWfoN"
      },
      "href" : "https://api.spotify.com/v1/tracks/4O9uwnPiVefE9ykcBPWfoN",
      "id" : "4O9uwnPiVefE9ykcBPWfoN",
      "is_local" : false,
      "is_playable" : true,
      "name" : "Ride On Ride On In Majesty",
      "popularity" : 0,
      "preview_url" : "https://p.scdn.co/mp3-preview/509241510980bf9d4649524db89a8c4ee3f47020?cid=774b29d4f13844c495f206cafdad9c86",
      "track_number" : 7,
      "type" : "track",
      "uri" : "spotify:track:4O9uwnPiVefE9ykcBPWfoN"
    }, {
      "album" : {
        "album_type" : "album",
        "artists" : [ {
          "external_urls" : {
            "spotify" : "https://open.spotify.com/artist/7cbX8gXaunQbEjzDsQNinR"
          },
          "href" : "https://api.spotify.com/v1/artists/7cbX8gXaunQbEjzDsQNinR",
          "id" : "7cbX8gXaunQbEjzDsQNinR",
          "name" : "Dominika Jurczuk Gondek & Masters of Traditional Catholic Music",
          "type" : "artist",
          "uri" : "spotify:artist:7cbX8gXaunQbEjzDsQNinR"
        } ],
        "external_urls" : {
          "spotify" : "https://open.spotify.com/album/7CMmD2zlX0EEvDUVhBJKdp"
        },
        "href" : "https://api.spotify.com/v1/albums/7CMmD2zlX0EEvDUVhBJKdp",
        "id" : "7CMmD2zlX0EEvDUVhBJKdp",
        "images" : [ {
          "height" : 640,
          "url" : "https://i.scdn.co/image/ab67616d0000b273e5df555fba25d5bee47f5330",
          "width" : 640
        }, {
          "height" : 300,
          "url" : "https://i.scdn.co/image/ab67616d00001e02e5df555fba25d5bee47f5330",
          "width" : 300
        }, {
          "height" : 64,
          "url" : "https://i.scdn.co/image/ab67616d00004851e5df555fba25d5bee47f5330",
          "width" : 64
        } ],
        "name" : "Christian Songs – Church Hymns, Prayer Music for Your Body, Mind & Soul, Hearing Voices of an Angel",
        "release_date" : "2015-08-24",
        "release_date_precision" : "day",
        "total_tracks" : 25,
        "type" : "album",
        "uri" : "spotify:album:7CMmD2zlX0EEvDUVhBJKdp"
      },
      "artists" : [ {
        "external_urls" : {
          "spotify" : "https://open.spotify.com/artist/5KBZwMuGysTbAz28lv6BRV"
        },
        "href" : "https://api.spotify.com/v1/artists/5KBZwMuGysTbAz28lv6BRV",
        "id" : "5KBZwMuGysTbAz28lv6BRV",
        "name" : "Henry Hart Milman",
        "type" : "artist",
        "uri" : "spotify:artist:5KBZwMuGysTbAz28lv6BRV"
      }, {
        "external_urls" : {
          "spotify" : "https://open.spotify.com/artist/7cbX8gXaunQbEjzDsQNinR"
        },
        "href" : "https://api.spotify.com/v1/artists/7cbX8gXaunQbEjzDsQNinR",
        "id" : "7cbX8gXaunQbEjzDsQNinR",
        "name" : "Dominika Jurczuk Gondek & Masters of Traditional Catholic Music",
        "type" : "artist",
        "uri" : "spotify:artist:7cbX8gXaunQbEjzDsQNinR"
      } ],
      "disc_number" : 1,
      "duration_ms" : 88696,
      "explicit" : false,
      "external_ids" : {
        "isrc" : "PLL431495738"
      },
      "external_urls" : {
        "spotify" : "https://open.spotify.com/track/7cM7QcMS9jO3GgFnUeQTgn"
      },
      "href" : "https://api.spotify.com/v1/tracks/7cM7QcMS9jO3GgFnUeQTgn",
      "id" : "7cM7QcMS9jO3GgFnUeQTgn",
      "is_local" : false,
      "is_playable" : true,
      "name" : "Ride On, Ride On In Majesty",
      "popularity" : 1,
      "preview_url" : "https://p.scdn.co/mp3-preview/24e8007f21ca3afd2f511d78a58cd8b11f8b9114?cid=774b29d4f13844c495f206cafdad9c86",
      "track_number" : 7,
      "type" : "track",
      "uri" : "spotify:track:7cM7QcMS9jO3GgFnUeQTgn"
    }, {
      "album" : {
        "album_type" : "album",
        "artists" : [ {
          "external_urls" : {
            "spotify" : "https://open.spotify.com/artist/08dsaoVeGLJhTdUCgiFIUJ"
          },
          "href" : "https://api.spotify.com/v1/artists/08dsaoVeGLJhTdUCgiFIUJ",
          "id" : "08dsaoVeGLJhTdUCgiFIUJ",
          "name" : "Kevin Mayhew Ltd",
          "type" : "artist",
          "uri" : "spotify:artist:08dsaoVeGLJhTdUCgiFIUJ"
        } ],
        "external_urls" : {
          "spotify" : "https://open.spotify.com/album/1a8YnkMKEmFwL3CCpKVtaS"
        },
        "href" : "https://api.spotify.com/v1/albums/1a8YnkMKEmFwL3CCpKVtaS",
        "id" : "1a8YnkMKEmFwL3CCpKVtaS",
        "images" : [ {
          "height" : 640,
          "url" : "https://i.scdn.co/image/ab67616d0000b2730a1fcba277df263d20b19314",
          "width" : 640
        }, {
          "height" : 300,
          "url" : "https://i.scdn.co/image/ab67616d00001e020a1fcba277df263d20b19314",
          "width" : 300
        }, {
          "height" : 64,
          "url" : "https://i.scdn.co/image/ab67616d000048510a1fcba277df263d20b19314",
          "width" : 64
        } ],
        "name" : "No Organist? No Problem! Cd 9",
        "release_date" : "2002-04-15",
        "release_date_precision" : "day",
        "total_tracks" : 21,
        "type" : "album",
        "uri" : "spotify:album:1a8YnkMKEmFwL3CCpKVtaS"
      },
      "artists" : [ {
        "external_urls" : {
          "spotify" : "https://open.spotify.com/artist/08dsaoVeGLJhTdUCgiFIUJ"
        },
        "href" : "https://api.spotify.com/v1/artists/08dsaoVeGLJhTdUCgiFIUJ",
        "id" : "08dsaoVeGLJhTdUCgiFIUJ",
        "name" : "Kevin Mayhew Ltd",
        "type" : "artist",
        "uri" : "spotify:artist:08dsaoVeGLJhTdUCgiFIUJ"
      } ],
      "disc_number" : 1,
      "duration_ms" : 146826,
      "explicit" : false,
      "external_ids" : {
        "isrc" : "TCAAZ1100386"
      },
      "external_urls" : {
        "spotify" : "https://open.spotify.com/track/6OY1ePKoZQtCFKy5qki0hQ"
      },
      "href" : "https://api.spotify.com/v1/tracks/6OY1ePKoZQtCFKy5qki0hQ",
      "id" : "6OY1ePKoZQtCFKy5qki0hQ",
      "is_local" : false,
      "is_playable" : true,
      "name" : "Ride On, Ride On In Majesty",
      "popularity" : 0,
      "preview_url" : "https://p.scdn.co/mp3-preview/5668511c6ebe0850749cdb362c8df5869ea32919?cid=774b29d4f13844c495f206cafdad9c86",
      "track_number" : 2,
      "type" : "track",
      "uri" : "spotify:track:6OY1ePKoZQtCFKy5qki0hQ"
    }, {
      "album" : {
        "album_type" : "album",
        "artists" : [ {
          "external_urls" : {
            "spotify" : "https://open.spotify.com/artist/2x0QHABqKaBBvAOzvoevXJ"
          },
          "href" : "https://api.spotify.com/v1/artists/2x0QHABqKaBBvAOzvoevXJ",
          "id" : "2x0QHABqKaBBvAOzvoevXJ",
          "name" : "The Scottish Festival Singers",
          "type" : "artist",
          "uri" : "spotify:artist:2x0QHABqKaBBvAOzvoevXJ"
        } ],
        "external_urls" : {
          "spotify" : "https://open.spotify.com/album/2EfJGYG28S7vPDQz4ZKcEl"
        },
        "href" : "https://api.spotify.com/v1/albums/2EfJGYG28S7vPDQz4ZKcEl",
        "id" : "2EfJGYG28S7vPDQz4ZKcEl",
        "images" : [ {
          "height" : 640,
          "url" : "https://i.scdn.co/image/ab67616d0000b2738244146814d17be46374c8bc",
          "width" : 640
        }, {
          "height" : 300,
          "url" : "https://i.scdn.co/image/ab67616d00001e028244146814d17be46374c8bc",
          "width" : 300
        }, {
          "height" : 64,
          "url" : "https://i.scdn.co/image/ab67616d000048518244146814d17be46374c8bc",
          "width" : 64
        } ],
        "name" : "Timeless Hymns, Vol. 4: Abide With Me",
        "release_date" : "2014-06-17",
        "release_date_precision" : "day",
        "total_tracks" : 15,
        "type" : "album",
        "uri" : "spotify:album:2EfJGYG28S7vPDQz4ZKcEl"
      },
      "artists" : [ {
        "external_urls" : {
          "spotify" : "https://open.spotify.com/artist/2x0QHABqKaBBvAOzvoevXJ"
        },
        "href" : "https://api.spotify.com/v1/artists/2x0QHABqKaBBvAOzvoevXJ",
        "id" : "2x0QHABqKaBBvAOzvoevXJ",
        "name" : "The Scottish Festival Singers",
        "type" : "artist",
        "uri" : "spotify:artist:2x0QHABqKaBBvAOzvoevXJ"
      } ],
      "disc_number" : 1,
      "duration_ms" : 137760,
      "explicit" : false,
      "external_ids" : {
        "isrc" : "USACX1400575"
      },
      "external_urls" : {
        "spotify" : "https://open.spotify.com/track/64uBeWxvEBhb3KyXwMLTS1"
      },
      "href" : "https://api.spotify.com/v1/tracks/64uBeWxvEBhb3KyXwMLTS1",
      "id" : "64uBeWxvEBhb3KyXwMLTS1",
      "is_local" : false,
      "is_playable" : true,
      "name" : "Ride On, Ride On In Majesty",
      "popularity" : 0,
      "preview_url" : "https://p.scdn.co/mp3-preview/8a2a9cbc0d882c1e783c4454d75e08fa68b2bd35?cid=774b29d4f13844c495f206cafdad9c86",
      "track_number" : 1,
      "type" : "track",
      "uri" : "spotify:track:64uBeWxvEBhb3KyXwMLTS1"
    }, {
      "album" : {
        "album_type" : "album",
        "artists" : [ {
          "external_urls" : {
            "spotify" : "https://open.spotify.com/artist/02P1DMfeONaY7APNLccb5u"
          },
          "href" : "https://api.spotify.com/v1/artists/02P1DMfeONaY7APNLccb5u",
          "id" : "02P1DMfeONaY7APNLccb5u",
          "name" : "Cantorei",
          "type" : "artist",
          "uri" : "spotify:artist:02P1DMfeONaY7APNLccb5u"
        } ],
        "external_urls" : {
          "spotify" : "https://open.spotify.com/album/6w2yTNZerry09zZU9Pm5AY"
        },
        "href" : "https://api.spotify.com/v1/albums/6w2yTNZerry09zZU9Pm5AY",
        "id" : "6w2yTNZerry09zZU9Pm5AY",
        "images" : [ {
          "height" : 640,
          "url" : "https://i.scdn.co/image/ab67616d0000b273ba40dbf3c8367799150312d2",
          "width" : 640
        }, {
          "height" : 300,
          "url" : "https://i.scdn.co/image/ab67616d00001e02ba40dbf3c8367799150312d2",
          "width" : 300
        }, {
          "height" : 64,
          "url" : "https://i.scdn.co/image/ab67616d00004851ba40dbf3c8367799150312d2",
          "width" : 64
        } ],
        "name" : "Hidden in Humbleness",
        "release_date" : "2010-07-01",
        "release_date_precision" : "day",
        "total_tracks" : 16,
        "type" : "album",
        "uri" : "spotify:album:6w2yTNZerry09zZU9Pm5AY"
      },
      "artists" : [ {
        "external_urls" : {
          "spotify" : "https://open.spotify.com/artist/02P1DMfeONaY7APNLccb5u"
        },
        "href" : "https://api.spotify.com/v1/artists/02P1DMfeONaY7APNLccb5u",
        "id" : "02P1DMfeONaY7APNLccb5u",
        "name" : "Cantorei",
        "type" : "artist",
        "uri" : "spotify:artist:02P1DMfeONaY7APNLccb5u"
      } ],
      "disc_number" : 1,
      "duration_ms" : 182800,
      "explicit" : false,
      "external_ids" : {
        "isrc" : "ushm21099874"
      },
      "external_urls" : {
        "spotify" : "https://open.spotify.com/track/6iq4GDshV3t3YRTh6rURiL"
      },
      "href" : "https://api.spotify.com/v1/tracks/6iq4GDshV3t3YRTh6rURiL",
      "id" : "6iq4GDshV3t3YRTh6rURiL",
      "is_local" : false,
      "is_playable" : true,
      "name" : "Ride On, Ride On in Majesty",
      "popularity" : 0,
      "preview_url" : "https://p.scdn.co/mp3-preview/797569ee10914124684828167a4f0edbb64b155d?cid=774b29d4f13844c495f206cafdad9c86",
      "track_number" : 2,
      "type" : "track",
      "uri" : "spotify:track:6iq4GDshV3t3YRTh6rURiL"
    } ],
    "limit" : 10,
    "next" : "https://api.spotify.com/v1/search?query=Ride+On+in+Majesty&type=track&market=US&offset=15&limit=10",
    "offset" : 5,
    "previous" : "https://api.spotify.com/v1/search?query=Ride+On+in+Majesty&type=track&market=US&offset=0&limit=10",
    "total" : 38
  }
}