{
  "tracks" : {
    "href" : "https://api.spotify.com/v1/search?query=Rejoice%2C+the+Lord+Is+King&type=track&market=US&offset=5&limit=10",
    "items" : [ {
      "album" : {
        "album_type" : "compilation",
        "artists" : [ {
          "external_urls" : {
            "spotify" : "https://open.spotify.com/artist/6h0Bl9CjL9SlYtiN4i6azz"
          },
          "href" : "https://api.spotify.com/v1/artists/6h0Bl9CjL9SlYtiN4i6azz",
          "id" : "6h0Bl9CjL9SlYtiN4i6azz",
          "name" : "David Phillips",
          "type" : "artist",
          "uri" : "spotify:artist:6h0Bl9CjL9SlYtiN4i6azz"
        } ],
        "external_urls" : {
          "spotify" : "https://open.spotify.com/album/67wkKL95YW2nlxmDGxosPa"
        },
        "href" : "https://api.spotify.com/v1/albums/67wkKL95YW2nlxmDGxosPa",
        "id" : "67wkKL95YW2nlxmDGxosPa",
        "images" : [ {
          "height" : 640,
          "url" : "https://i.scdn.co/image/ab67616d0000b273189250c600389d51218a8320",
          "width" : 640
        }, {
          "height" : 300,
          "url" : "https://i.scdn.co/image/ab67616d00001e02189250c600389d51218a8320",
          "width" : 300
        }, {
          "height" : 64,
          "url" : "https://i.scdn.co/image/ab67616d00004851189250c600389d51218a8320",
          "width" : 64
        } ],
        "name" : "David Phillips, Vol. 10",
        "release_date" : "2020-05-22",
        "release_date_precision" : "day",
        "total_tracks" : 50,
        "type" : "album",
        "uri" : "spotify:album:67wkKL95YW2nlxmDGxosPa"
      },
      "artists" : [ {
        "external_urls" : {
          "spotify" : "https://open.spotify.com/artist/6h0Bl9CjL9SlYtiN4i6azz"
        },
        "href" : "https://api.spotify.com/v1/artists/6h0Bl9CjL9SlYtiN4i6azz",
        "id" : "6h0Bl9CjL9SlYtiN4i6azz",
        "name" : "David Phillips",
        "type" : "artist",
        "uri" : "spotify:artist:6h0Bl9CjL9SlYtiN4i6azz"
      } ],
      "disc_number" : 1,
      "duration_ms" : 189013,
      "explicit" : false,
      "external_ids" : {
        "isrc" : "US5UL1821500"
      },
      "external_urls" : {
        "spotify" : "https://open.spotify.com/track/7462fg9KCE67WziZaMHxfc"
      },
      "href" : "https://api.spotify.com/v1/tracks/7462fg9KCE67WziZaMHxfc",
      "id" : "7462fg9KCE67WziZaMHxfc",
      "is_local" : false,
      "is_playable" : true,
      "name" : "Rejoice, the Lord Is King",
      "popularity" : 0,
      "preview_url" : "https://p.scdn.co/mp3-preview/daf9e46e9398f55eb04546fb21e3d357aeb7c5e7?cid=774b29d4f13844c495f206cafdad9c86",
      "track_number" : 36,
      "type" : "track",
      "uri" : "spotify:track:7462fg9KCE67WziZaMHxfc"
    }, {
      "album" : {
        "album_type" : "album",
        "artists" : [ {
          "external_urls" : {
            "spotify" : "https://open.spotify.com/artist/54ucyKvzWatFF2t7ldPkbN"
          },
          "href" : "https://api.spotify.com/v1/artists/54ucyKvzWatFF2t7ldPkbN",
          "id" : "54ucyKvzWatFF2t7ldPkbN",
          "name" : "Tanner Stahl",
          "type" : "artist",
          "uri" : "spotify:artist:54ucyKvzWatFF2t7ldPkbN"
        } ],
        "external_urls" : {
          "spotify" : "https://open.spotify.com/album/0ybxI4iaJpnE2t1Edu060w"
        },
        "href" : "https://api.spotify.com/v1/albums/0ybxI4iaJpnE2t1Edu060w",
        "id" : "0ybxI4iaJpnE2t1Edu060w",
        "images" : [ {
          "height" : 640,
          "url" : "https://i.scdn.co/image/ab67616d0000b2735aeca8d7243af8532e1a2e45",
          "width" : 640
        }, {
          "height" : 300,
          "url" : "https://i.scdn.co/image/ab67616d00001e025aeca8d7243af8532e1a2e45",
          "width" : 300
        }, {
          "height" : 64,
          "url" : "https://i.scdn.co/image/ab67616d000048515aeca8d7243af8532e1a2e45",
          "width" : 64
        } ],
        "name" : "Worship Hymn Volume. 2",
        "release_date" : "2020-05-16",
        "release_date_precision" : "day",
        "total_tracks" : 10,
        "type" : "album",
        "uri" : "spotify:album:0ybxI4iaJpnE2t1Edu060w"
      },
      "artists" : [ {
        "external_urls" : {
          "spotify" : "https://open.spotify.com/artist/54ucyKvzWatFF2t7ldPkbN"
        },
        "href" : "https://api.spotify.com/v1/artists/54ucyKvzWatFF2t7ldPkbN",
        "id" : "54ucyKvzWatFF2t7ldPkbN",
        "name" : "Tanner Stahl",
        "type" : "artist",
        "uri" : "spotify:artist:54ucyKvzWatFF2t7ldPkbN"
      } ],
      "disc_number" : 1,
      "duration_ms" : 263034,
      "explicit" : false,
      "external_ids" : {
        "isrc" : "QZES92081975"
      },
      "external_urls" : {
        "spotify" : "https://open.spotify.com/track/4bHigVykkEJtU2QMh4AkPu"
      },
      "href" : "https://api.spotify.com/v1/tracks/4bHigVykkEJtU2QMh4AkPu",
      "id" : "4bHigVykkEJtU2QMh4AkPu",
      "is_local" : false,
      "is_playable" : true,
      "name" : "Rejoice, the Lord Is King",
      "popularity" : 0,
      "preview_url" : "https://p.scdn.co/mp3-preview/94383fe7cfcb687165e34ad4d4f490aed25c0932?cid=774b29d4f13844c495f206cafdad9c86",
      "track_number" : 8,
      "type" : "track",
      "uri" : "spotify:track:4bHigVykkEJtU2QMh4AkPu"
    }, {
      "album" : {
        "album_type" : "compilation",
        "artists" : [ {
          "external_urls" : {
            "spotify" : "https://open.spotify.com/artist/1PCJfBD2SVVE8cGqpg1pC9"
          },
          "href" : "https://api.spotify.com/v1/artists/1PCJfBD2SVVE8cGqpg1pC9",
          "id" : "1PCJfBD2SVVE8cGqpg1pC9",
          "name" : "Hal Wright",
          "type" : "artist",
          "uri" : "spotify:artist:1PCJfBD2SVVE8cGqpg1pC9"
        } ],
        "external_urls" : {
          "spotify" : "https://open.spotify.com/album/2sKmZ8kxh0qxQCf0qlvylw"
        },
        "href" : "https://api.spotify.com/v1/albums/2sKmZ8kxh0qxQCf0qlvylw",
        "id" : "2sKmZ8kxh0qxQCf0qlvylw",
        "images" : [ {
          "height" : 640,
          "url" : "https://i.scdn.co/image/ab67616d0000b2739bd7b37123792b83e0235c59",
          "width" : 640
        }, {
          "height" : 300,
          "url" : "https://i.scdn.co/image/ab67616d00001e029bd7b37123792b83e0235c59",
          "width" : 300
        }, {
          "height" : 64,
          "url" : "https://i.scdn.co/image/ab67616d000048519bd7b37123792b83e0235c59",
          "width" : 64
        } ],
        "name" : "Instrumental Hymns 3",
        "release_date" : "2020-05-22",
        "release_date_precision" : "day",
        "total_tracks" : 25,
        "type" : "album",
        "uri" : "spotify:album:2sKmZ8kxh0qxQCf0qlvylw"
      },
      "artists" : [ {
        "external_urls" : {
          "spotify" : "https://open.spotify.com/artist/1PCJfBD2SVVE8cGqpg1pC9"
        },
        "href" : "https://api.spotify.com/v1/artists/1PCJfBD2SVVE8cGqpg1pC9",
        "id" : "1PCJfBD2SVVE8cGqpg1pC9",
        "name" : "Hal Wright",
        "type" : "artist",
        "uri" : "spotify:artist:1PCJfBD2SVVE8cGqpg1pC9"
      }, {
        "external_urls" : {
          "spotify" : "https://open.spotify.com/artist/5Aerx1PdoW4F5Yvrus4bDE"
        },
        "href" : "https://api.spotify.com/v1/artists/5Aerx1PdoW4F5Yvrus4bDE",
        "id" : "5Aerx1PdoW4F5Yvrus4bDE",
        "name" : "Twin Sisters",
        "type" : "artist",
        "uri" : "spotify:artist:5Aerx1PdoW4F5Yvrus4bDE"
      } ],
      "disc_number" : 1,
      "duration_ms" : 95440,
      "explicit" : false,
      "external_ids" : {
        "isrc" : "US6PD1904006"
      },
      "external_urls" : {
        "spotify" : "https://open.spotify.com/track/68iQ6rg83nAdygOTPjtEGO"
      },
      "href" : "https://api.spotify.com/v1/tracks/68iQ6rg83nAdygOTPjtEGO",
      "id" : "68iQ6rg83nAdygOTPjtEGO",
      "is_local" : false,
      "is_playable" : true,
      "name" : "Rejoice, The Lord Is King",
      "popularity" : 0,
      "preview_url" : "https://p.scdn.co/mp3-preview/33d0dacf9ebf6f10fbae3783443813ca21bd29c9?cid=774b29d4f13844c495f206cafdad9c86",
      "track_number" : 19,
      "type" : "track",
      "uri" : "spotify:track:68iQ6rg83nAdygOTPjtEGO"
    }, {
      "album" : {
        "album_type" : "album",
        "artists" : [ {
          "external_urls" : {
            "spotify" : "https://open.spotify.com/artist/6yHlLzOTenVkSW9K38AdYT"
          },
          "href" : "https://api.spotify.com/v1/artists/6yHlLzOTenVkSW9K38AdYT",
          "id" : "6yHlLzOTenVkSW9K38AdYT",
          "name" : "Mercy Message",
          "type" : "artist",
          "uri" : "spotify:artist:6yHlLzOTenVkSW9K38AdYT"
        } ],
        "external_urls" : {
          "spotify" : "https://open.spotify.com/album/43CmdNpfFrdm1SAWHsH3RP"
        },
        "href" : "https://api.spotify.com/v1/albums/43CmdNpfFrdm1SAWHsH3RP",
        "id" : "43CmdNpfFrdm1SAWHsH3RP",
        "images" : [ {
          "height" : 640,
          "url" : "https://i.scdn.co/image/ab67616d0000b2739e301a46eb4bf98da73b3654",
          "width" : 640
        }, {
          "height" : 300,
          "url" : "https://i.scdn.co/image/ab67616d00001e029e301a46eb4bf98da73b3654",
          "width" : 300
        }, {
          "height" : 64,
          "url" : "https://i.scdn.co/image/ab67616d000048519e301a46eb4bf98da73b3654",
          "width" : 64
        } ],
        "name" : "New Life in Christ",
        "release_date" : "2019-06-21",
        "release_date_precision" : "day",
        "total_tracks" : 30,
        "type" : "album",
        "uri" : "spotify:album:43CmdNpfFrdm1SAWHsH3RP"
      },
      "artists" : [ {
        "external_urls" : {
          "spotify" : "https://open.spotify.com/artist/6yHlLzOTenVkSW9K38AdYT"
        },
        "href" : "https://api.spotify.com/v1/artists/6yHlLzOTenVkSW9K38AdYT",
        "id" : "6yHlLzOTenVkSW9K38AdYT",
        "name" : "Mercy Message",
        "type" : "artist",
        "uri" : "spotify:artist:6yHlLzOTenVkSW9K38AdYT"
      } ],
      "disc_number" : 1,
      "duration_ms" : 175462,
      "explicit" : false,
      "external_ids" : {
        "isrc" : "QZFYZ1900393"
      },
      "external_urls" : {
        "spotify" : "https://open.spotify.com/track/03YgVUVQJNJXENbTmwO1BJ"
      },
      "href" : "https://api.spotify.com/v1/tracks/03YgVUVQJNJXENbTmwO1BJ",
      "id" : "03YgVUVQJNJXENbTmwO1BJ",
      "is_local" : false,
      "is_playable" : true,
      "name" : "Rejoice the Lord Is King",
      "popularity" : 14,
      "preview_url" : "https://p.scdn.co/mp3-preview/cbc7a3fd6fe6d2c099964adbedc0413bcef2e5c8?cid=774b29d4f13844c495f206cafdad9c86",
      "track_number" : 22,
      "type" : "track",
      "uri" : "spotify:track:03YgVUVQJNJXENbTmwO1BJ"
    }, {
      "album" : {
        "album_type" : "album",
        "artists" : [ {
          "external_urls" : {
            "spotify" : "https://open.spotify.com/artist/7adV3tjip6mYhVUxLUZ4QR"
          },
          "href" : "https://api.spotify.com/v1/artists/7adV3tjip6mYhVUxLUZ4QR",
          "id" : "7adV3tjip6mYhVUxLUZ4QR",
          "name" : "Joshua Sherman",
          "type" : "artist",
          "uri" : "spotify:artist:7adV3tjip6mYhVUxLUZ4QR"
        } ],
        "external_urls" : {
          "spotify" : "https://open.spotify.com/album/1wSOWCVIwudeyje6figFU7"
        },
        "href" : "https://api.spotify.com/v1/albums/1wSOWCVIwudeyje6figFU7",
        "id" : "1wSOWCVIwudeyje6figFU7",
        "images" : [ {
          "height" : 640,
          "url" : "https://i.scdn.co/image/ab67616d0000b2736f015695dcd8e9b099fac845",
          "width" : 640
        }, {
          "height" : 300,
          "url" : "https://i.scdn.co/image/ab67616d00001e026f015695dcd8e9b099fac845",
          "width" : 300
        }, {
          "height" : 64,
          "url" : "https://i.scdn.co/image/ab67616d000048516f015695dcd8e9b099fac845",
          "width" : 64
        } ],
        "name" : "Tribe 2 Kingdom, Vol. 1: I Will Rejoice",
        "release_date" : "2019-01-04",
        "release_date_precision" : "day",
        "total_tracks" : 8,
        "type" : "album",
        "uri" : "spotify:album:1wSOWCVIwudeyje6figFU7"
      },
      "artists" : [ {
        "external_urls" : {
          "spotify" : "https://open.spotify.com/artist/7adV3tjip6mYhVUxLUZ4QR"
        },
        "href" : "https://api.spotify.com/v1/artists/7adV3tjip6mYhVUxLUZ4QR",
        "id" : "7adV3tjip6mYhVUxLUZ4QR",
        "name" : "Joshua Sherman",
        "type" : "artist",
        "uri" : "spotify:artist:7adV3tjip6mYhVUxLUZ4QR"
      } ],
      "disc_number" : 1,
      "duration_ms" : 374172,
      "explicit" : false,
      "external_ids" : {
        "isrc" : "TCADX1849411"
      },
      "external_urls" : {
        "spotify" : "https://open.spotify.com/track/1eN8LHQVkvwsz6xfd4bhGM"
      },
      "href" : "https://api.spotify.com/v1/tracks/1eN8LHQVkvwsz6xfd4bhGM",
      "id" : "1eN8LHQVkvwsz6xfd4bhGM",
      "is_local" : false,
      "is_playable" : true,
      "name" : "Victory Is the Lord's",
      "popularity" : 17,
      "preview_url" : "https://p.scdn.co/mp3-preview/0a3e6433560dbdfac5d26d266807bc24dc0b6ce3?cid=774b29d4f13844c495f206cafdad9c86",
      "track_number" : 1,
      "type" : "track",
      "uri" : "spotify:track:1eN8LHQVkvwsz6xfd4bhGM"
    }, {
      "album" : {
        "album_type" : "album",
        "artists" : [ {
          "external_urls" : {
            "spotify" : "https://open.spotify.com/artist/05sGBQhc6wrRAOZYo3gWqP"
          },
          "href" : "https://api.spotify.com/v1/artists/05sGBQhc6wrRAOZYo3gWqP",
          "id" : "05sGBQhc6wrRAOZYo3gWqP",
          "name" : "Worship Music Project",
          "type" : "artist",
          "uri" : "spotify:artist:05sGBQhc6wrRAOZYo3gWqP"
        } ],
        "external_urls" : {
          "spotify" : "https://open.spotify.com/album/0lDPsNNcEIOMADxB3ncZTF"
        },
        "href" : "https://api.spotify.com/v1/albums/0lDPsNNcEIOMADxB3ncZTF",
        "id" : "0lDPsNNcEIOMADxB3ncZTF",
        "images" : [ {
          "height" : 640,
          "url" : "https://i.scdn.co/image/ab67616d0000b273c048d357ee9fe4a301e60dff",
          "width" : 640
        }, {
          "height" : 300,
          "url" : "https://i.scdn.co/image/ab67616d00001e02c048d357ee9fe4a301e60dff",
          "width" : 300
        }, {
          "height" : 64,
          "url" : "https://i.scdn.co/image/ab67616d00004851c048d357ee9fe4a301e60dff",
          "width" : 64
        } ],
        "name" : "Endless Hymns For Opening Prayers 5 (기도를 여는 끊이지 않는 찬송가 5)",
        "release_date" : "2014-07-24",
        "release_date_precision" : "day",
        "total_tracks" : 8,
        "type" : "album",
        "uri" : "spotify:album:0lDPsNNcEIOMADxB3ncZTF"
      },
      "artists" : [ {
        "external_urls" : {
          "spotify" : "https://open.spotify.com/artist/05sGBQhc6wrRAOZYo3gWqP"
        },
        "href" : "https://api.spotify.com/v1/artists/05sGBQhc6wrRAOZYo3gWqP",
        "id" : "05sGBQhc6wrRAOZYo3gWqP",
        "name" : "Worship Music Project",
        "type" : "artist",
        "uri" : "spotify:artist:05sGBQhc6wrRAOZYo3gWqP"
      } ],
      "disc_number" : 1,
      "duration_ms" : 152500,
      "explicit" : false,
      "external_ids" : {
        "isrc" : "KRB361433127"
      },
      "external_urls" : {
        "spotify" : "https://open.spotify.com/track/3n7OKEcJYjegMbOOnZx0Gv"
      },
      "href" : "https://api.spotify.com/v1/tracks/3n7OKEcJYjegMbOOnZx0Gv",
      "id" : "3n7OKEcJYjegMbOOnZx0Gv",
      "is_local" : false,
      "is_playable" : true,
      "name" : "Rejoice, The Lord Is King (만유의 주 앞에)",
      "popularity" : 11,
      "preview_url" : "https://p.scdn.co/mp3-preview/e8321f99f6bafe81ac44c43bc1bea8574e837b61?cid=774b29d4f13844c495f206cafdad9c86",
      "track_number" : 1,
      "type" : "track",
      "uri" : "spotify:track:3n7OKEcJYjegMbOOnZx0Gv"
    }, {
      "album" : {
        "album_type" : "album",
        "artists" : [ {
          "external_urls" : {
            "spotify" : "https://open.spotify.com/artist/0cylxW7HGdK9xMdubw2oYW"
          },
          "href" : "https://api.spotify.com/v1/artists/0cylxW7HGdK9xMdubw2oYW",
          "id" : "0cylxW7HGdK9xMdubw2oYW",
          "name" : "The O'Neill Brothers Group",
          "type" : "artist",
          "uri" : "spotify:artist:0cylxW7HGdK9xMdubw2oYW"
        } ],
        "external_urls" : {
          "spotify" : "https://open.spotify.com/album/4ujAfH0AyW7mH6hRa5Llmd"
        },
        "href" : "https://api.spotify.com/v1/albums/4ujAfH0AyW7mH6hRa5Llmd",
        "id" : "4ujAfH0AyW7mH6hRa5Llmd",
        "images" : [ {
          "height" : 640,
          "url" : "https://i.scdn.co/image/ab67616d0000b2730799e63756fa74812b6eee37",
          "width" : 640
        }, {
          "height" : 300,
          "url" : "https://i.scdn.co/image/ab67616d00001e020799e63756fa74812b6eee37",
          "width" : 300
        }, {
          "height" : 64,
          "url" : "https://i.scdn.co/image/ab67616d000048510799e63756fa74812b6eee37",
          "width" : 64
        } ],
        "name" : "Instrumental Christian Music for Bible Study",
        "release_date" : "2011",
        "release_date_precision" : "year",
        "total_tracks" : 16,
        "type" : "album",
        "uri" : "spotify:album:4ujAfH0AyW7mH6hRa5Llmd"
      },
      "artists" : [ {
        "external_urls" : {
          "spotify" : "https://open.spotify.com/artist/0cylxW7HGdK9xMdubw2oYW"
        },
        "href" : "https://api.spotify.com/v1/artists/0cylxW7HGdK9xMdubw2oYW",
        "id" : "0cylxW7HGdK9xMdubw2oYW",
        "name" : "The O'Neill Brothers Group",
        "type" : "artist",
        "uri" : "spotify:artist:0cylxW7HGdK9xMdubw2oYW"
      } ],
      "disc_number" : 1,
      "duration_ms" : 156506,
      "explicit" : false,
      "external_ids" : {
        "isrc" : "USA371358276"
      },
      "external_urls" : {
        "spotify" : "https://open.spotify.com/track/5iEl7glSWBIdezXf06jpU5"
      },
      "href" : "https://api.spotify.com/v1/tracks/5iEl7glSWBIdezXf06jpU5",
      "id" : "5iEl7glSWBIdezXf06jpU5",
      "is_local" : false,
      "is_playable" : true,
      "name" : "Rejoice, The Lord Is King",
      "popularity" : 10,
      "preview_url" : "https://p.scdn.co/mp3-preview/ba60e7221eeebc1dfbf2481662e1aea0e80bd931?cid=774b29d4f13844c495f206cafdad9c86",
      "track_number" : 11,
      "type" : "track",
      "uri" : "spotify:track:5iEl7glSWBIdezXf06jpU5"
    }, {
      "album" : {
        "album_type" : "album",
        "artists" : [ {
          "external_urls" : {
            "spotify" : "https://open.spotify.com/artist/2rQzS4iX6bEMlrO4noTwIX"
          },
          "href" : "https://api.spotify.com/v1/artists/2rQzS4iX6bEMlrO4noTwIX",
          "id" : "2rQzS4iX6bEMlrO4noTwIX",
          "name" : "Dan Forrest",
          "type" : "artist",
          "uri" : "spotify:artist:2rQzS4iX6bEMlrO4noTwIX"
        } ],
        "external_urls" : {
          "spotify" : "https://open.spotify.com/album/2p0r5GgEVK0MYffiou8uY1"
        },
        "href" : "https://api.spotify.com/v1/albums/2p0r5GgEVK0MYffiou8uY1",
        "id" : "2p0r5GgEVK0MYffiou8uY1",
        "images" : [ {
          "height" : 640,
          "url" : "https://i.scdn.co/image/ab67616d0000b273c372ab0775f2f66d138e63a8",
          "width" : 640
        }, {
          "height" : 300,
          "url" : "https://i.scdn.co/image/ab67616d00001e02c372ab0775f2f66d138e63a8",
          "width" : 300
        }, {
          "height" : 64,
          "url" : "https://i.scdn.co/image/ab67616d00004851c372ab0775f2f66d138e63a8",
          "width" : 64
        } ],
        "name" : "Illuminations",
        "release_date" : "2015-05-01",
        "release_date_precision" : "day",
        "total_tracks" : 9,
        "type" : "album",
        "uri" : "spotify:album:2p0r5GgEVK0MYffiou8uY1"
      },
      "artists" : [ {
        "external_urls" : {
          "spotify" : "https://open.spotify.com/artist/2rQzS4iX6bEMlrO4noTwIX"
        },
        "href" : "https://api.spotify.com/v1/artists/2rQzS4iX6bEMlrO4noTwIX",
        "id" : "2rQzS4iX6bEMlrO4noTwIX",
        "name" : "Dan Forrest",
        "type" : "artist",
        "uri" : "spotify:artist:2rQzS4iX6bEMlrO4noTwIX"
      } ],
      "disc_number" : 1,
      "duration_ms" : 153065,
      "explicit" : false,
      "external_ids" : {
        "isrc" : "uscgj1564989"
      },
      "external_urls" : {
        "spotify" : "https://open.spotify.com/track/2eUVBGcHZk9YhK4kik5OWh"
      },
      "href" : "https://api.spotify.com/v1/tracks/2eUVBGcHZk9YhK4kik5OWh",
      "id" : "2eUVBGcHZk9YhK4kik5OWh",
      "is_local" : false,
      "is_playable" : true,
      "name" : "Rejoice the Lord Is King (Arr. Dan Forrest)",
      "popularity" : 9,
      "preview_url" : "https://p.scdn.co/mp3-preview/6464847f347c933b25d0634af40c0e32672364d5?cid=774b29d4f13844c495f206cafdad9c86",
      "track_number" : 6,
      "type" : "track",
      "uri" : "spotify:track:2eUVBGcHZk9YhK4kik5OWh"
    }, {
      "album" : {
        "album_type" : "album",
        "artists" : [ {
          "external_urls" : {
            "spotify" : "https://open.spotify.com/artist/4rhwll8EPEHOW8diluKlrZ"
          },
          "href" : "https://api.spotify.com/v1/artists/4rhwll8EPEHOW8diluKlrZ",
          "id" : "4rhwll8EPEHOW8diluKlrZ",
          "name" : "Glad",
          "type" : "artist",
          "uri" : "spotify:artist:4rhwll8EPEHOW8diluKlrZ"
        } ],
        "external_urls" : {
          "spotify" : "https://open.spotify.com/album/3jscAQLKUyXnBjiAjObOB4"
        },
        "href" : "https://api.spotify.com/v1/albums/3jscAQLKUyXnBjiAjObOB4",
        "id" : "3jscAQLKUyXnBjiAjObOB4",
        "images" : [ {
          "height" : 640,
          "url" : "https://i.scdn.co/image/ab67616d0000b27319495fb11eba85ac91301450",
          "width" : 640
        }, {
          "height" : 300,
          "url" : "https://i.scdn.co/image/ab67616d00001e0219495fb11eba85ac91301450",
          "width" : 300
        }, {
          "height" : 64,
          "url" : "https://i.scdn.co/image/ab67616d0000485119495fb11eba85ac91301450",
          "width" : 64
        } ],
        "name" : "The A Capella Project II",
        "release_date" : "1990",
        "release_date_precision" : "year",
        "total_tracks" : 11,
        "type" : "album",
        "uri" : "spotify:album:3jscAQLKUyXnBjiAjObOB4"
      },
      "artists" : [ {
        "external_urls" : {
          "spotify" : "https://open.spotify.com/artist/4rhwll8EPEHOW8diluKlrZ"
        },
        "href" : "https://api.spotify.com/v1/artists/4rhwll8EPEHOW8diluKlrZ",
        "id" : "4rhwll8EPEHOW8diluKlrZ",
        "name" : "Glad",
        "type" : "artist",
        "uri" : "spotify:artist:4rhwll8EPEHOW8diluKlrZ"
      } ],
      "disc_number" : 1,
      "duration_ms" : 240666,
      "explicit" : false,
      "external_ids" : {
        "isrc" : "USA5W0500016"
      },
      "external_urls" : {
        "spotify" : "https://open.spotify.com/track/3USKF8rTqqU4nOF9wlsOP2"
      },
      "href" : "https://api.spotify.com/v1/tracks/3USKF8rTqqU4nOF9wlsOP2",
      "id" : "3USKF8rTqqU4nOF9wlsOP2",
      "is_local" : false,
      "is_playable" : true,
      "name" : "Rejoice, The Lord is King",
      "popularity" : 7,
      "preview_url" : "https://p.scdn.co/mp3-preview/de3bcf0866862b2ad9ea3b0a7e52e51777abb5ff?cid=774b29d4f13844c495f206cafdad9c86",
      "track_number" : 10,
      "type" : "track",
      "uri" : "spotify:track:3USKF8rTqqU4nOF9wlsOP2"
    }, {
      "album" : {
        "album_type" : "album",
        "artists" : [ {
          "external_urls" : {
            "spotify" : "https://open.spotify.com/artist/6CDJjCW8qVphiyxVukKdOa"
          },
          "href" : "https://api.spotify.com/v1/artists/6CDJjCW8qVphiyxVukKdOa",
          "id" : "6CDJjCW8qVphiyxVukKdOa",
          "name" : "Maranatha! Praise Band",
          "type" : "artist",
          "uri" : "spotify:artist:6CDJjCW8qVphiyxVukKdOa"
        } ],
        "external_urls" : {
          "spotify" : "https://open.spotify.com/album/4di9AQfz0QPnZpbbZ3YSZu"
        },
        "href" : "https://api.spotify.com/v1/albums/4di9AQfz0QPnZpbbZ3YSZu",
        "id" : "4di9AQfz0QPnZpbbZ3YSZu",
        "images" : [ {
          "height" : 640,
          "url" : "https://i.scdn.co/image/ab67616d0000b2735881c18501ceaf5100a5ee96",
          "width" : 640
        }, {
          "height" : 300,
          "url" : "https://i.scdn.co/image/ab67616d00001e025881c18501ceaf5100a5ee96",
          "width" : 300
        }, {
          "height" : 64,
          "url" : "https://i.scdn.co/image/ab67616d000048515881c18501ceaf5100a5ee96",
          "width" : 64
        } ],
        "name" : "Lord, I Lift Your Name On High - March For Jesus",
        "release_date" : "1995-01-01",
        "release_date_precision" : "day",
        "total_tracks" : 12,
        "type" : "album",
        "uri" : "spotify:album:4di9AQfz0QPnZpbbZ3YSZu"
      },
      "artists" : [ {
        "external_urls" : {
          "spotify" : "https://open.spotify.com/artist/6CDJjCW8qVphiyxVukKdOa"
        },
        "href" : "https://api.spotify.com/v1/artists/6CDJjCW8qVphiyxVukKdOa",
        "id" : "6CDJjCW8qVphiyxVukKdOa",
        "name" : "Maranatha! Praise Band",
        "type" : "artist",
        "uri" : "spotify:artist:6CDJjCW8qVphiyxVukKdOa"
      } ],
      "disc_number" : 1,
      "duration_ms" : 188160,
      "explicit" : false,
      "external_ids" : {
        "isrc" : "USMN21100030"
      },
      "external_urls" : {
        "spotify" : "https://open.spotify.com/track/1nR3brbH4v7tZs9KK13jCo"
      },
      "href" : "https://api.spotify.com/v1/tracks/1nR3brbH4v7tZs9KK13jCo",
      "id" : "1nR3brbH4v7tZs9KK13jCo",
      "is_local" : false,
      "is_playable" : true,
      "name" : "He Has Made Me Glad/Rejoice The Lord Is King - Medley",
      "popularity" : 10,
      "preview_url" : null,
      "track_number" : 5,
      "type" : "track",
      "uri" : "spotify:track:1nR3brbH4v7tZs9KK13jCo"
    } ],
    "limit" : 10,
    "next" : "https://api.spotify.com/v1/search?query=Rejoice%2C+the+Lord+Is+King&type=track&market=US&offset=15&limit=10",
    "offset" : 5,
    "previous" : "https://api.spotify.com/v1/search?query=Rejoice%2C+the+Lord+Is+King&type=track&market=US&offset=0&limit=10",
    "total" : 177
  }
}