{
  "tracks" : {
    "href" : "https://api.spotify.com/v1/search?query=The+Lord+Is+Coming&type=track&market=US&offset=5&limit=10",
    "items" : [ {
      "album" : {
        "album_type" : "album",
        "artists" : [ {
          "external_urls" : {
            "spotify" : "https://open.spotify.com/artist/5iB5AWIa7qreioi0AF3Bxa"
          },
          "href" : "https://api.spotify.com/v1/artists/5iB5AWIa7qreioi0AF3Bxa",
          "id" : "5iB5AWIa7qreioi0AF3Bxa",
          "name" : "The Bellamy Brothers",
          "type" : "artist",
          "uri" : "spotify:artist:5iB5AWIa7qreioi0AF3Bxa"
        } ],
        "external_urls" : {
          "spotify" : "https://open.spotify.com/album/1bMFv6ReAI9olZ0NUcoW71"
        },
        "href" : "https://api.spotify.com/v1/albums/1bMFv6ReAI9olZ0NUcoW71",
        "id" : "1bMFv6ReAI9olZ0NUcoW71",
        "images" : [ {
          "height" : 640,
          "url" : "https://i.scdn.co/image/ab67616d0000b2737fe7f97be5b86f1996da37ec",
          "width" : 640
        }, {
          "height" : 300,
          "url" : "https://i.scdn.co/image/ab67616d00001e027fe7f97be5b86f1996da37ec",
          "width" : 300
        }, {
          "height" : 64,
          "url" : "https://i.scdn.co/image/ab67616d000048517fe7f97be5b86f1996da37ec",
          "width" : 64
        } ],
        "name" : "Jesus Is Coming",
        "release_date" : "2007-05-08",
        "release_date_precision" : "day",
        "total_tracks" : 13,
        "type" : "album",
        "uri" : "spotify:album:1bMFv6ReAI9olZ0NUcoW71"
      },
      "artists" : [ {
        "external_urls" : {
          "spotify" : "https://open.spotify.com/artist/5iB5AWIa7qreioi0AF3Bxa"
        },
        "href" : "https://api.spotify.com/v1/artists/5iB5AWIa7qreioi0AF3Bxa",
        "id" : "5iB5AWIa7qreioi0AF3Bxa",
        "name" : "The Bellamy Brothers",
        "type" : "artist",
        "uri" : "spotify:artist:5iB5AWIa7qreioi0AF3Bxa"
      } ],
      "disc_number" : 1,
      "duration_ms" : 203120,
      "explicit" : false,
      "external_ids" : {
        "isrc" : "USCRB0707238"
      },
      "external_urls" : {
        "spotify" : "https://open.spotify.com/track/3ASTYgNlrkM3f2xoUcplNA"
      },
      "href" : "https://api.spotify.com/v1/tracks/3ASTYgNlrkM3f2xoUcplNA",
      "id" : "3ASTYgNlrkM3f2xoUcplNA",
      "is_local" : false,
      "is_playable" : true,
      "name" : "Lord Help Me Be The Kind Of Person (My Dog Thinks I Am)",
      "popularity" : 28,
      "preview_url" : "https://p.scdn.co/mp3-preview/8f8ffb6dfe3aafd57d41395d84a6f4db4261dc1e?cid=774b29d4f13844c495f206cafdad9c86",
      "track_number" : 3,
      "type" : "track",
      "uri" : "spotify:track:3ASTYgNlrkM3f2xoUcplNA"
    }, {
      "album" : {
        "album_type" : "album",
        "artists" : [ {
          "external_urls" : {
            "spotify" : "https://open.spotify.com/artist/3iqTj2ISCCfGIAN2ZyggJO"
          },
          "href" : "https://api.spotify.com/v1/artists/3iqTj2ISCCfGIAN2ZyggJO",
          "id" : "3iqTj2ISCCfGIAN2ZyggJO",
          "name" : "The Primitive Quartet",
          "type" : "artist",
          "uri" : "spotify:artist:3iqTj2ISCCfGIAN2ZyggJO"
        } ],
        "external_urls" : {
          "spotify" : "https://open.spotify.com/album/3FHZCgFIHwzE5bLvIh3jD5"
        },
        "href" : "https://api.spotify.com/v1/albums/3FHZCgFIHwzE5bLvIh3jD5",
        "id" : "3FHZCgFIHwzE5bLvIh3jD5",
        "images" : [ {
          "height" : 640,
          "url" : "https://i.scdn.co/image/ab67616d0000b2735e6db9285e0ac9eb8c01b665",
          "width" : 640
        }, {
          "height" : 300,
          "url" : "https://i.scdn.co/image/ab67616d00001e025e6db9285e0ac9eb8c01b665",
          "width" : 300
        }, {
          "height" : 64,
          "url" : "https://i.scdn.co/image/ab67616d000048515e6db9285e0ac9eb8c01b665",
          "width" : 64
        } ],
        "name" : "Laying Up Treasures",
        "release_date" : "2009-05-19",
        "release_date_precision" : "day",
        "total_tracks" : 10,
        "type" : "album",
        "uri" : "spotify:album:3FHZCgFIHwzE5bLvIh3jD5"
      },
      "artists" : [ {
        "external_urls" : {
          "spotify" : "https://open.spotify.com/artist/3iqTj2ISCCfGIAN2ZyggJO"
        },
        "href" : "https://api.spotify.com/v1/artists/3iqTj2ISCCfGIAN2ZyggJO",
        "id" : "3iqTj2ISCCfGIAN2ZyggJO",
        "name" : "The Primitive Quartet",
        "type" : "artist",
        "uri" : "spotify:artist:3iqTj2ISCCfGIAN2ZyggJO"
      } ],
      "disc_number" : 1,
      "duration_ms" : 149506,
      "explicit" : false,
      "external_ids" : {
        "isrc" : "USETB0812367"
      },
      "external_urls" : {
        "spotify" : "https://open.spotify.com/track/1Oe0isnWHNBZJYC5NGprck"
      },
      "href" : "https://api.spotify.com/v1/tracks/1Oe0isnWHNBZJYC5NGprck",
      "id" : "1Oe0isnWHNBZJYC5NGprck",
      "is_local" : false,
      "is_playable" : true,
      "name" : "Our Sweet Lord Is Coming Back Soon",
      "popularity" : 10,
      "preview_url" : "https://p.scdn.co/mp3-preview/2a3c35ebff9a0975f5d451350aa84347d515d4fe?cid=774b29d4f13844c495f206cafdad9c86",
      "track_number" : 10,
      "type" : "track",
      "uri" : "spotify:track:1Oe0isnWHNBZJYC5NGprck"
    }, {
      "album" : {
        "album_type" : "album",
        "artists" : [ {
          "external_urls" : {
            "spotify" : "https://open.spotify.com/artist/3E4c1Fq51LkCGfVngrEHlm"
          },
          "href" : "https://api.spotify.com/v1/artists/3E4c1Fq51LkCGfVngrEHlm",
          "id" : "3E4c1Fq51LkCGfVngrEHlm",
          "name" : "Chris Burns",
          "type" : "artist",
          "uri" : "spotify:artist:3E4c1Fq51LkCGfVngrEHlm"
        } ],
        "external_urls" : {
          "spotify" : "https://open.spotify.com/album/0Ux0TVPpOq8Lmtv4VsSDuY"
        },
        "href" : "https://api.spotify.com/v1/albums/0Ux0TVPpOq8Lmtv4VsSDuY",
        "id" : "0Ux0TVPpOq8Lmtv4VsSDuY",
        "images" : [ {
          "height" : 640,
          "url" : "https://i.scdn.co/image/ab67616d0000b273b6ee971ddb6c6a24941d674b",
          "width" : 640
        }, {
          "height" : 300,
          "url" : "https://i.scdn.co/image/ab67616d00001e02b6ee971ddb6c6a24941d674b",
          "width" : 300
        }, {
          "height" : 64,
          "url" : "https://i.scdn.co/image/ab67616d00004851b6ee971ddb6c6a24941d674b",
          "width" : 64
        } ],
        "name" : "Then the Lord Awoke...",
        "release_date" : "2014-04-15",
        "release_date_precision" : "day",
        "total_tracks" : 10,
        "type" : "album",
        "uri" : "spotify:album:0Ux0TVPpOq8Lmtv4VsSDuY"
      },
      "artists" : [ {
        "external_urls" : {
          "spotify" : "https://open.spotify.com/artist/3E4c1Fq51LkCGfVngrEHlm"
        },
        "href" : "https://api.spotify.com/v1/artists/3E4c1Fq51LkCGfVngrEHlm",
        "id" : "3E4c1Fq51LkCGfVngrEHlm",
        "name" : "Chris Burns",
        "type" : "artist",
        "uri" : "spotify:artist:3E4c1Fq51LkCGfVngrEHlm"
      } ],
      "disc_number" : 1,
      "duration_ms" : 528864,
      "explicit" : false,
      "external_ids" : {
        "isrc" : "QMA7G1400001"
      },
      "external_urls" : {
        "spotify" : "https://open.spotify.com/track/7ctB5HJ3ky1HGTa9cwPCQK"
      },
      "href" : "https://api.spotify.com/v1/tracks/7ctB5HJ3ky1HGTa9cwPCQK",
      "id" : "7ctB5HJ3ky1HGTa9cwPCQK",
      "is_local" : false,
      "is_playable" : true,
      "name" : "King Is Coming",
      "popularity" : 12,
      "preview_url" : "https://p.scdn.co/mp3-preview/92ab96dd62a475d71f422a4aa7268fdc8a40017e?cid=774b29d4f13844c495f206cafdad9c86",
      "track_number" : 1,
      "type" : "track",
      "uri" : "spotify:track:7ctB5HJ3ky1HGTa9cwPCQK"
    }, {
      "album" : {
        "album_type" : "single",
        "artists" : [ {
          "external_urls" : {
            "spotify" : "https://open.spotify.com/artist/2wfUus9ndQRBntDugGk5bn"
          },
          "href" : "https://api.spotify.com/v1/artists/2wfUus9ndQRBntDugGk5bn",
          "id" : "2wfUus9ndQRBntDugGk5bn",
          "name" : "Scott Mulvahill",
          "type" : "artist",
          "uri" : "spotify:artist:2wfUus9ndQRBntDugGk5bn"
        } ],
        "external_urls" : {
          "spotify" : "https://open.spotify.com/album/16TmxoOzv5Y7NoGkrdxOh9"
        },
        "href" : "https://api.spotify.com/v1/albums/16TmxoOzv5Y7NoGkrdxOh9",
        "id" : "16TmxoOzv5Y7NoGkrdxOh9",
        "images" : [ {
          "height" : 640,
          "url" : "https://i.scdn.co/image/ab67616d0000b27322c0e97609026b07662c9f6f",
          "width" : 640
        }, {
          "height" : 300,
          "url" : "https://i.scdn.co/image/ab67616d00001e0222c0e97609026b07662c9f6f",
          "width" : 300
        }, {
          "height" : 64,
          "url" : "https://i.scdn.co/image/ab67616d0000485122c0e97609026b07662c9f6f",
          "width" : 64
        } ],
        "name" : "The Lord is Coming",
        "release_date" : "2018-07-13",
        "release_date_precision" : "day",
        "total_tracks" : 1,
        "type" : "album",
        "uri" : "spotify:album:16TmxoOzv5Y7NoGkrdxOh9"
      },
      "artists" : [ {
        "external_urls" : {
          "spotify" : "https://open.spotify.com/artist/2wfUus9ndQRBntDugGk5bn"
        },
        "href" : "https://api.spotify.com/v1/artists/2wfUus9ndQRBntDugGk5bn",
        "id" : "2wfUus9ndQRBntDugGk5bn",
        "name" : "Scott Mulvahill",
        "type" : "artist",
        "uri" : "spotify:artist:2wfUus9ndQRBntDugGk5bn"
      } ],
      "disc_number" : 1,
      "duration_ms" : 250461,
      "explicit" : false,
      "external_ids" : {
        "isrc" : "TCADF1743141"
      },
      "external_urls" : {
        "spotify" : "https://open.spotify.com/track/0hP1sDrjiFxKmchPoyU9Oi"
      },
      "href" : "https://api.spotify.com/v1/tracks/0hP1sDrjiFxKmchPoyU9Oi",
      "id" : "0hP1sDrjiFxKmchPoyU9Oi",
      "is_local" : false,
      "is_playable" : true,
      "name" : "The Lord is Coming",
      "popularity" : 9,
      "preview_url" : "https://p.scdn.co/mp3-preview/ac223b150859f5dd8d7a1a1ad2a2aba2c981eb9b?cid=774b29d4f13844c495f206cafdad9c86",
      "track_number" : 1,
      "type" : "track",
      "uri" : "spotify:track:0hP1sDrjiFxKmchPoyU9Oi"
    }, {
      "album" : {
        "album_type" : "album",
        "artists" : [ {
          "external_urls" : {
            "spotify" : "https://open.spotify.com/artist/0qqGnmHBX2yVvCITRAvuRD"
          },
          "href" : "https://api.spotify.com/v1/artists/0qqGnmHBX2yVvCITRAvuRD",
          "id" : "0qqGnmHBX2yVvCITRAvuRD",
          "name" : "The Stanley Brothers",
          "type" : "artist",
          "uri" : "spotify:artist:0qqGnmHBX2yVvCITRAvuRD"
        } ],
        "external_urls" : {
          "spotify" : "https://open.spotify.com/album/6mPwjShZRfpTMAH0VgU11Y"
        },
        "href" : "https://api.spotify.com/v1/albums/6mPwjShZRfpTMAH0VgU11Y",
        "id" : "6mPwjShZRfpTMAH0VgU11Y",
        "images" : [ {
          "height" : 640,
          "url" : "https://i.scdn.co/image/ab67616d0000b273b50fc302c2e2e2a39f2bc913",
          "width" : 640
        }, {
          "height" : 300,
          "url" : "https://i.scdn.co/image/ab67616d00001e02b50fc302c2e2e2a39f2bc913",
          "width" : 300
        }, {
          "height" : 64,
          "url" : "https://i.scdn.co/image/ab67616d00004851b50fc302c2e2e2a39f2bc913",
          "width" : 64
        } ],
        "name" : "Bluegrass Is Timeless - Lord I'm Coming Home",
        "release_date" : "2005",
        "release_date_precision" : "year",
        "total_tracks" : 10,
        "type" : "album",
        "uri" : "spotify:album:6mPwjShZRfpTMAH0VgU11Y"
      },
      "artists" : [ {
        "external_urls" : {
          "spotify" : "https://open.spotify.com/artist/0qqGnmHBX2yVvCITRAvuRD"
        },
        "href" : "https://api.spotify.com/v1/artists/0qqGnmHBX2yVvCITRAvuRD",
        "id" : "0qqGnmHBX2yVvCITRAvuRD",
        "name" : "The Stanley Brothers",
        "type" : "artist",
        "uri" : "spotify:artist:0qqGnmHBX2yVvCITRAvuRD"
      } ],
      "disc_number" : 1,
      "duration_ms" : 145600,
      "explicit" : false,
      "external_ids" : {
        "isrc" : "USACU0503744"
      },
      "external_urls" : {
        "spotify" : "https://open.spotify.com/track/1eFTIrDMb5K2nxDbb8zcsW"
      },
      "href" : "https://api.spotify.com/v1/tracks/1eFTIrDMb5K2nxDbb8zcsW",
      "id" : "1eFTIrDMb5K2nxDbb8zcsW",
      "is_local" : false,
      "is_playable" : true,
      "name" : "Old Daniel Prayed",
      "popularity" : 11,
      "preview_url" : "https://p.scdn.co/mp3-preview/f546f329c814421e9e306174dcb36271bc0ae544?cid=774b29d4f13844c495f206cafdad9c86",
      "track_number" : 4,
      "type" : "track",
      "uri" : "spotify:track:1eFTIrDMb5K2nxDbb8zcsW"
    }, {
      "album" : {
        "album_type" : "album",
        "artists" : [ {
          "external_urls" : {
            "spotify" : "https://open.spotify.com/artist/0qqGnmHBX2yVvCITRAvuRD"
          },
          "href" : "https://api.spotify.com/v1/artists/0qqGnmHBX2yVvCITRAvuRD",
          "id" : "0qqGnmHBX2yVvCITRAvuRD",
          "name" : "The Stanley Brothers",
          "type" : "artist",
          "uri" : "spotify:artist:0qqGnmHBX2yVvCITRAvuRD"
        } ],
        "external_urls" : {
          "spotify" : "https://open.spotify.com/album/6mPwjShZRfpTMAH0VgU11Y"
        },
        "href" : "https://api.spotify.com/v1/albums/6mPwjShZRfpTMAH0VgU11Y",
        "id" : "6mPwjShZRfpTMAH0VgU11Y",
        "images" : [ {
          "height" : 640,
          "url" : "https://i.scdn.co/image/ab67616d0000b273b50fc302c2e2e2a39f2bc913",
          "width" : 640
        }, {
          "height" : 300,
          "url" : "https://i.scdn.co/image/ab67616d00001e02b50fc302c2e2e2a39f2bc913",
          "width" : 300
        }, {
          "height" : 64,
          "url" : "https://i.scdn.co/image/ab67616d00004851b50fc302c2e2e2a39f2bc913",
          "width" : 64
        } ],
        "name" : "Bluegrass Is Timeless - Lord I'm Coming Home",
        "release_date" : "2005",
        "release_date_precision" : "year",
        "total_tracks" : 10,
        "type" : "album",
        "uri" : "spotify:album:6mPwjShZRfpTMAH0VgU11Y"
      },
      "artists" : [ {
        "external_urls" : {
          "spotify" : "https://open.spotify.com/artist/0qqGnmHBX2yVvCITRAvuRD"
        },
        "href" : "https://api.spotify.com/v1/artists/0qqGnmHBX2yVvCITRAvuRD",
        "id" : "0qqGnmHBX2yVvCITRAvuRD",
        "name" : "The Stanley Brothers",
        "type" : "artist",
        "uri" : "spotify:artist:0qqGnmHBX2yVvCITRAvuRD"
      } ],
      "disc_number" : 1,
      "duration_ms" : 126066,
      "explicit" : false,
      "external_ids" : {
        "isrc" : "USACU0503742"
      },
      "external_urls" : {
        "spotify" : "https://open.spotify.com/track/7tm6RGc9r72dZ1b6A7v8si"
      },
      "href" : "https://api.spotify.com/v1/tracks/7tm6RGc9r72dZ1b6A7v8si",
      "id" : "7tm6RGc9r72dZ1b6A7v8si",
      "is_local" : false,
      "is_playable" : true,
      "name" : "Lord I'm Coming Home",
      "popularity" : 6,
      "preview_url" : "https://p.scdn.co/mp3-preview/9cf3d0da79589c0c8858a2bd2161f0e8b814b971?cid=774b29d4f13844c495f206cafdad9c86",
      "track_number" : 2,
      "type" : "track",
      "uri" : "spotify:track:7tm6RGc9r72dZ1b6A7v8si"
    }, {
      "album" : {
        "album_type" : "album",
        "artists" : [ {
          "external_urls" : {
            "spotify" : "https://open.spotify.com/artist/0qqGnmHBX2yVvCITRAvuRD"
          },
          "href" : "https://api.spotify.com/v1/artists/0qqGnmHBX2yVvCITRAvuRD",
          "id" : "0qqGnmHBX2yVvCITRAvuRD",
          "name" : "The Stanley Brothers",
          "type" : "artist",
          "uri" : "spotify:artist:0qqGnmHBX2yVvCITRAvuRD"
        } ],
        "external_urls" : {
          "spotify" : "https://open.spotify.com/album/6mPwjShZRfpTMAH0VgU11Y"
        },
        "href" : "https://api.spotify.com/v1/albums/6mPwjShZRfpTMAH0VgU11Y",
        "id" : "6mPwjShZRfpTMAH0VgU11Y",
        "images" : [ {
          "height" : 640,
          "url" : "https://i.scdn.co/image/ab67616d0000b273b50fc302c2e2e2a39f2bc913",
          "width" : 640
        }, {
          "height" : 300,
          "url" : "https://i.scdn.co/image/ab67616d00001e02b50fc302c2e2e2a39f2bc913",
          "width" : 300
        }, {
          "height" : 64,
          "url" : "https://i.scdn.co/image/ab67616d00004851b50fc302c2e2e2a39f2bc913",
          "width" : 64
        } ],
        "name" : "Bluegrass Is Timeless - Lord I'm Coming Home",
        "release_date" : "2005",
        "release_date_precision" : "year",
        "total_tracks" : 10,
        "type" : "album",
        "uri" : "spotify:album:6mPwjShZRfpTMAH0VgU11Y"
      },
      "artists" : [ {
        "external_urls" : {
          "spotify" : "https://open.spotify.com/artist/0qqGnmHBX2yVvCITRAvuRD"
        },
        "href" : "https://api.spotify.com/v1/artists/0qqGnmHBX2yVvCITRAvuRD",
        "id" : "0qqGnmHBX2yVvCITRAvuRD",
        "name" : "The Stanley Brothers",
        "type" : "artist",
        "uri" : "spotify:artist:0qqGnmHBX2yVvCITRAvuRD"
      } ],
      "disc_number" : 1,
      "duration_ms" : 119506,
      "explicit" : false,
      "external_ids" : {
        "isrc" : "USACU0503741"
      },
      "external_urls" : {
        "spotify" : "https://open.spotify.com/track/0DUPRMRMhVIjyispUSIksV"
      },
      "href" : "https://api.spotify.com/v1/tracks/0DUPRMRMhVIjyispUSIksV",
      "id" : "0DUPRMRMhVIjyispUSIksV",
      "is_local" : false,
      "is_playable" : true,
      "name" : "If I Could Hear My Mother Pray Again",
      "popularity" : 8,
      "preview_url" : "https://p.scdn.co/mp3-preview/17a61a8ac442103c796d2e2018b644cd48748cd4?cid=774b29d4f13844c495f206cafdad9c86",
      "track_number" : 1,
      "type" : "track",
      "uri" : "spotify:track:0DUPRMRMhVIjyispUSIksV"
    }, {
      "album" : {
        "album_type" : "album",
        "artists" : [ {
          "external_urls" : {
            "spotify" : "https://open.spotify.com/artist/6gDqmKSfJwumu8qVFv4ZdO"
          },
          "href" : "https://api.spotify.com/v1/artists/6gDqmKSfJwumu8qVFv4ZdO",
          "id" : "6gDqmKSfJwumu8qVFv4ZdO",
          "name" : "The King's Heralds",
          "type" : "artist",
          "uri" : "spotify:artist:6gDqmKSfJwumu8qVFv4ZdO"
        } ],
        "external_urls" : {
          "spotify" : "https://open.spotify.com/album/6WNO6AfNV7kmBgNvG9etFC"
        },
        "href" : "https://api.spotify.com/v1/albums/6WNO6AfNV7kmBgNvG9etFC",
        "id" : "6WNO6AfNV7kmBgNvG9etFC",
        "images" : [ {
          "height" : 640,
          "url" : "https://i.scdn.co/image/ab67616d0000b27300fc05b1994b960aee3f4016",
          "width" : 640
        }, {
          "height" : 300,
          "url" : "https://i.scdn.co/image/ab67616d00001e0200fc05b1994b960aee3f4016",
          "width" : 300
        }, {
          "height" : 64,
          "url" : "https://i.scdn.co/image/ab67616d0000485100fc05b1994b960aee3f4016",
          "width" : 64
        } ],
        "name" : "Hymnsessions",
        "release_date" : "2010-10-14",
        "release_date_precision" : "day",
        "total_tracks" : 16,
        "type" : "album",
        "uri" : "spotify:album:6WNO6AfNV7kmBgNvG9etFC"
      },
      "artists" : [ {
        "external_urls" : {
          "spotify" : "https://open.spotify.com/artist/6gDqmKSfJwumu8qVFv4ZdO"
        },
        "href" : "https://api.spotify.com/v1/artists/6gDqmKSfJwumu8qVFv4ZdO",
        "id" : "6gDqmKSfJwumu8qVFv4ZdO",
        "name" : "The King's Heralds",
        "type" : "artist",
        "uri" : "spotify:artist:6gDqmKSfJwumu8qVFv4ZdO"
      } ],
      "disc_number" : 1,
      "duration_ms" : 187508,
      "explicit" : false,
      "external_ids" : {
        "isrc" : "TCAAS1031964"
      },
      "external_urls" : {
        "spotify" : "https://open.spotify.com/track/7DDIoBbOUSPpYQDZdUSVCw"
      },
      "href" : "https://api.spotify.com/v1/tracks/7DDIoBbOUSPpYQDZdUSVCw",
      "id" : "7DDIoBbOUSPpYQDZdUSVCw",
      "is_local" : false,
      "is_playable" : true,
      "name" : "The Lord Is Coming, Are You Ready?",
      "popularity" : 7,
      "preview_url" : "https://p.scdn.co/mp3-preview/e991fb13c56a0fbefd5886f1831b12b2f9af2507?cid=774b29d4f13844c495f206cafdad9c86",
      "track_number" : 10,
      "type" : "track",
      "uri" : "spotify:track:7DDIoBbOUSPpYQDZdUSVCw"
    }, {
      "album" : {
        "album_type" : "album",
        "artists" : [ {
          "external_urls" : {
            "spotify" : "https://open.spotify.com/artist/6nmSvSdjRWr7lRXz5d1oaJ"
          },
          "href" : "https://api.spotify.com/v1/artists/6nmSvSdjRWr7lRXz5d1oaJ",
          "id" : "6nmSvSdjRWr7lRXz5d1oaJ",
          "name" : "Bam Crawford's Purpose",
          "type" : "artist",
          "uri" : "spotify:artist:6nmSvSdjRWr7lRXz5d1oaJ"
        } ],
        "external_urls" : {
          "spotify" : "https://open.spotify.com/album/3Vvs43FUvzNfqNCMhW7fuZ"
        },
        "href" : "https://api.spotify.com/v1/albums/3Vvs43FUvzNfqNCMhW7fuZ",
        "id" : "3Vvs43FUvzNfqNCMhW7fuZ",
        "images" : [ {
          "height" : 640,
          "url" : "https://i.scdn.co/image/ab67616d0000b273f9023950ec570a4f5a1ea8f8",
          "width" : 640
        }, {
          "height" : 300,
          "url" : "https://i.scdn.co/image/ab67616d00001e02f9023950ec570a4f5a1ea8f8",
          "width" : 300
        }, {
          "height" : 64,
          "url" : "https://i.scdn.co/image/ab67616d00004851f9023950ec570a4f5a1ea8f8",
          "width" : 64
        } ],
        "name" : "The King Is Coming Any Day",
        "release_date" : "1997-05-06",
        "release_date_precision" : "day",
        "total_tracks" : 14,
        "type" : "album",
        "uri" : "spotify:album:3Vvs43FUvzNfqNCMhW7fuZ"
      },
      "artists" : [ {
        "external_urls" : {
          "spotify" : "https://open.spotify.com/artist/6nmSvSdjRWr7lRXz5d1oaJ"
        },
        "href" : "https://api.spotify.com/v1/artists/6nmSvSdjRWr7lRXz5d1oaJ",
        "id" : "6nmSvSdjRWr7lRXz5d1oaJ",
        "name" : "Bam Crawford's Purpose",
        "type" : "artist",
        "uri" : "spotify:artist:6nmSvSdjRWr7lRXz5d1oaJ"
      } ],
      "disc_number" : 1,
      "duration_ms" : 207466,
      "explicit" : false,
      "external_ids" : {
        "isrc" : "TCAAZ1120537"
      },
      "external_urls" : {
        "spotify" : "https://open.spotify.com/track/4shumEcyYYFM4Y1IEyGeGi"
      },
      "href" : "https://api.spotify.com/v1/tracks/4shumEcyYYFM4Y1IEyGeGi",
      "id" : "4shumEcyYYFM4Y1IEyGeGi",
      "is_local" : false,
      "is_playable" : true,
      "name" : "Lord You're Beautiful",
      "popularity" : 6,
      "preview_url" : "https://p.scdn.co/mp3-preview/828610c179d58c3f1e37d6fc7ea8d4b084071dc5?cid=774b29d4f13844c495f206cafdad9c86",
      "track_number" : 10,
      "type" : "track",
      "uri" : "spotify:track:4shumEcyYYFM4Y1IEyGeGi"
    }, {
      "album" : {
        "album_type" : "album",
        "artists" : [ {
          "external_urls" : {
            "spotify" : "https://open.spotify.com/artist/5ZKMPRDHc7qElVJFh3uRqB"
          },
          "href" : "https://api.spotify.com/v1/artists/5ZKMPRDHc7qElVJFh3uRqB",
          "id" : "5ZKMPRDHc7qElVJFh3uRqB",
          "name" : "Wanda Jackson",
          "type" : "artist",
          "uri" : "spotify:artist:5ZKMPRDHc7qElVJFh3uRqB"
        }, {
          "external_urls" : {
            "spotify" : "https://open.spotify.com/artist/3XnO697XIus1M0cMuxZjos"
          },
          "href" : "https://api.spotify.com/v1/artists/3XnO697XIus1M0cMuxZjos",
          "id" : "3XnO697XIus1M0cMuxZjos",
          "name" : "The Oak Ridge Boys",
          "type" : "artist",
          "uri" : "spotify:artist:3XnO697XIus1M0cMuxZjos"
        } ],
        "external_urls" : {
          "spotify" : "https://open.spotify.com/album/1PRbXmjVZRXF2S6kXEd7TQ"
        },
        "href" : "https://api.spotify.com/v1/albums/1PRbXmjVZRXF2S6kXEd7TQ",
        "id" : "1PRbXmjVZRXF2S6kXEd7TQ",
        "images" : [ {
          "height" : 640,
          "url" : "https://i.scdn.co/image/ab67616d0000b2733a79f35bda380bb62deac40e",
          "width" : 640
        }, {
          "height" : 300,
          "url" : "https://i.scdn.co/image/ab67616d00001e023a79f35bda380bb62deac40e",
          "width" : 300
        }, {
          "height" : 64,
          "url" : "https://i.scdn.co/image/ab67616d000048513a79f35bda380bb62deac40e",
          "width" : 64
        } ],
        "name" : "Praise The Lord",
        "release_date" : "1972-01-01",
        "release_date_precision" : "day",
        "total_tracks" : 10,
        "type" : "album",
        "uri" : "spotify:album:1PRbXmjVZRXF2S6kXEd7TQ"
      },
      "artists" : [ {
        "external_urls" : {
          "spotify" : "https://open.spotify.com/artist/5ZKMPRDHc7qElVJFh3uRqB"
        },
        "href" : "https://api.spotify.com/v1/artists/5ZKMPRDHc7qElVJFh3uRqB",
        "id" : "5ZKMPRDHc7qElVJFh3uRqB",
        "name" : "Wanda Jackson",
        "type" : "artist",
        "uri" : "spotify:artist:5ZKMPRDHc7qElVJFh3uRqB"
      } ],
      "disc_number" : 1,
      "duration_ms" : 209440,
      "explicit" : false,
      "external_ids" : {
        "isrc" : "USCN10701107"
      },
      "external_urls" : {
        "spotify" : "https://open.spotify.com/track/2nryfC8egaFp67Bii89Szn"
      },
      "href" : "https://api.spotify.com/v1/tracks/2nryfC8egaFp67Bii89Szn",
      "id" : "2nryfC8egaFp67Bii89Szn",
      "is_local" : false,
      "is_playable" : true,
      "name" : "The King Is Coming",
      "popularity" : 8,
      "preview_url" : null,
      "track_number" : 1,
      "type" : "track",
      "uri" : "spotify:track:2nryfC8egaFp67Bii89Szn"
    } ],
    "limit" : 10,
    "next" : "https://api.spotify.com/v1/search?query=The+Lord+Is+Coming&type=track&market=US&offset=15&limit=10",
    "offset" : 5,
    "previous" : "https://api.spotify.com/v1/search?query=The+Lord+Is+Coming&type=track&market=US&offset=0&limit=10",
    "total" : 193
  }
}