{
  "tracks" : {
    "href" : "https://api.spotify.com/v1/search?query=Soldiers+of+Christ%2C+Arise&type=track&market=US&offset=5&limit=10",
    "items" : [ {
      "album" : {
        "album_type" : "album",
        "artists" : [ {
          "external_urls" : {
            "spotify" : "https://open.spotify.com/artist/7rluHfxLiKAkAoMkuE1F8U"
          },
          "href" : "https://api.spotify.com/v1/artists/7rluHfxLiKAkAoMkuE1F8U",
          "id" : "7rluHfxLiKAkAoMkuE1F8U",
          "name" : "St. Michael's Singers",
          "type" : "artist",
          "uri" : "spotify:artist:7rluHfxLiKAkAoMkuE1F8U"
        } ],
        "external_urls" : {
          "spotify" : "https://open.spotify.com/album/6B0rBsZWacLCyjiJtNqc5m"
        },
        "href" : "https://api.spotify.com/v1/albums/6B0rBsZWacLCyjiJtNqc5m",
        "id" : "6B0rBsZWacLCyjiJtNqc5m",
        "images" : [ {
          "height" : 640,
          "url" : "https://i.scdn.co/image/ab67616d0000b2730e2cedf8573dcd811cb590b7",
          "width" : 640
        }, {
          "height" : 300,
          "url" : "https://i.scdn.co/image/ab67616d00001e020e2cedf8573dcd811cb590b7",
          "width" : 300
        }, {
          "height" : 64,
          "url" : "https://i.scdn.co/image/ab67616d000048510e2cedf8573dcd811cb590b7",
          "width" : 64
        } ],
        "name" : "The Hymn Makers: Charles Wesley (Vol. 2, Ye Servants of God)",
        "release_date" : "1996",
        "release_date_precision" : "year",
        "total_tracks" : 14,
        "type" : "album",
        "uri" : "spotify:album:6B0rBsZWacLCyjiJtNqc5m"
      },
      "artists" : [ {
        "external_urls" : {
          "spotify" : "https://open.spotify.com/artist/7rluHfxLiKAkAoMkuE1F8U"
        },
        "href" : "https://api.spotify.com/v1/artists/7rluHfxLiKAkAoMkuE1F8U",
        "id" : "7rluHfxLiKAkAoMkuE1F8U",
        "name" : "St. Michael's Singers",
        "type" : "artist",
        "uri" : "spotify:artist:7rluHfxLiKAkAoMkuE1F8U"
      } ],
      "disc_number" : 1,
      "duration_ms" : 183080,
      "explicit" : false,
      "external_ids" : {
        "isrc" : "GBBTM9689114"
      },
      "external_urls" : {
        "spotify" : "https://open.spotify.com/track/1op2VlQbnZtnG998lCcQaR"
      },
      "href" : "https://api.spotify.com/v1/tracks/1op2VlQbnZtnG998lCcQaR",
      "id" : "1op2VlQbnZtnG998lCcQaR",
      "is_local" : false,
      "is_playable" : true,
      "name" : "Soldiers of Christ Arise",
      "popularity" : 4,
      "preview_url" : "https://p.scdn.co/mp3-preview/edb7c992bb79e49ddd5c829cf2cfec1daf3fbfa2?cid=774b29d4f13844c495f206cafdad9c86",
      "track_number" : 14,
      "type" : "track",
      "uri" : "spotify:track:1op2VlQbnZtnG998lCcQaR"
    }, {
      "album" : {
        "album_type" : "album",
        "artists" : [ {
          "external_urls" : {
            "spotify" : "https://open.spotify.com/artist/6fmsTcZv8uq9g9MAOkUym4"
          },
          "href" : "https://api.spotify.com/v1/artists/6fmsTcZv8uq9g9MAOkUym4",
          "id" : "6fmsTcZv8uq9g9MAOkUym4",
          "name" : "Maddy Prior & The Carnival Band",
          "type" : "artist",
          "uri" : "spotify:artist:6fmsTcZv8uq9g9MAOkUym4"
        } ],
        "external_urls" : {
          "spotify" : "https://open.spotify.com/album/2OzPA6rifGo7qmXzQeK0b5"
        },
        "href" : "https://api.spotify.com/v1/albums/2OzPA6rifGo7qmXzQeK0b5",
        "id" : "2OzPA6rifGo7qmXzQeK0b5",
        "images" : [ {
          "height" : 640,
          "url" : "https://i.scdn.co/image/ab67616d0000b273fa851438834d8ae5758f6af9",
          "width" : 640
        }, {
          "height" : 300,
          "url" : "https://i.scdn.co/image/ab67616d00001e02fa851438834d8ae5758f6af9",
          "width" : 300
        }, {
          "height" : 64,
          "url" : "https://i.scdn.co/image/ab67616d00004851fa851438834d8ae5758f6af9",
          "width" : 64
        } ],
        "name" : "Paradise Found",
        "release_date" : "2007",
        "release_date_precision" : "year",
        "total_tracks" : 15,
        "type" : "album",
        "uri" : "spotify:album:2OzPA6rifGo7qmXzQeK0b5"
      },
      "artists" : [ {
        "external_urls" : {
          "spotify" : "https://open.spotify.com/artist/0YWgb96XJUX324cAWJOVq1"
        },
        "href" : "https://api.spotify.com/v1/artists/0YWgb96XJUX324cAWJOVq1",
        "id" : "0YWgb96XJUX324cAWJOVq1",
        "name" : "Maddy Prior & The Carnival...",
        "type" : "artist",
        "uri" : "spotify:artist:0YWgb96XJUX324cAWJOVq1"
      } ],
      "disc_number" : 1,
      "duration_ms" : 176999,
      "explicit" : false,
      "external_ids" : {
        "isrc" : "GBAVZ0749412"
      },
      "external_urls" : {
        "spotify" : "https://open.spotify.com/track/1wYJB5MvkMlRYxQ1wdV3Zm"
      },
      "href" : "https://api.spotify.com/v1/tracks/1wYJB5MvkMlRYxQ1wdV3Zm",
      "id" : "1wYJB5MvkMlRYxQ1wdV3Zm",
      "is_local" : false,
      "is_playable" : true,
      "name" : "Soldiers of Christ Arise",
      "popularity" : 1,
      "preview_url" : "https://p.scdn.co/mp3-preview/6d7678db49d17ae5a6b184412cd8d00459407c75?cid=774b29d4f13844c495f206cafdad9c86",
      "track_number" : 12,
      "type" : "track",
      "uri" : "spotify:track:1wYJB5MvkMlRYxQ1wdV3Zm"
    }, {
      "album" : {
        "album_type" : "album",
        "artists" : [ {
          "external_urls" : {
            "spotify" : "https://open.spotify.com/artist/1WIsIjEvqA3CauvbuNW9bh"
          },
          "href" : "https://api.spotify.com/v1/artists/1WIsIjEvqA3CauvbuNW9bh",
          "id" : "1WIsIjEvqA3CauvbuNW9bh",
          "name" : "Wakefield Cathedral Choir",
          "type" : "artist",
          "uri" : "spotify:artist:1WIsIjEvqA3CauvbuNW9bh"
        } ],
        "external_urls" : {
          "spotify" : "https://open.spotify.com/album/3qutqGQAjFXbVNbhKzp2HT"
        },
        "href" : "https://api.spotify.com/v1/albums/3qutqGQAjFXbVNbhKzp2HT",
        "id" : "3qutqGQAjFXbVNbhKzp2HT",
        "images" : [ {
          "height" : 640,
          "url" : "https://i.scdn.co/image/ab67616d0000b273b9a97cfdb0065fbbe6b927fa",
          "width" : 640
        }, {
          "height" : 300,
          "url" : "https://i.scdn.co/image/ab67616d00001e02b9a97cfdb0065fbbe6b927fa",
          "width" : 300
        }, {
          "height" : 64,
          "url" : "https://i.scdn.co/image/ab67616d00004851b9a97cfdb0065fbbe6b927fa",
          "width" : 64
        } ],
        "name" : "Complete New English Hymnal Vol. 11",
        "release_date" : "2001-10-31",
        "release_date_precision" : "day",
        "total_tracks" : 26,
        "type" : "album",
        "uri" : "spotify:album:3qutqGQAjFXbVNbhKzp2HT"
      },
      "artists" : [ {
        "external_urls" : {
          "spotify" : "https://open.spotify.com/artist/1WIsIjEvqA3CauvbuNW9bh"
        },
        "href" : "https://api.spotify.com/v1/artists/1WIsIjEvqA3CauvbuNW9bh",
        "id" : "1WIsIjEvqA3CauvbuNW9bh",
        "name" : "Wakefield Cathedral Choir",
        "type" : "artist",
        "uri" : "spotify:artist:1WIsIjEvqA3CauvbuNW9bh"
      } ],
      "disc_number" : 1,
      "duration_ms" : 149866,
      "explicit" : false,
      "external_ids" : {
        "isrc" : "GBXUX0871101"
      },
      "external_urls" : {
        "spotify" : "https://open.spotify.com/track/6TIiNOra0ogjHq9B7OJGzy"
      },
      "href" : "https://api.spotify.com/v1/tracks/6TIiNOra0ogjHq9B7OJGzy",
      "id" : "6TIiNOra0ogjHq9B7OJGzy",
      "is_local" : false,
      "is_playable" : true,
      "name" : "Soldiers of Christ, Arise",
      "popularity" : 1,
      "preview_url" : "https://p.scdn.co/mp3-preview/dd77df03a0ae2433ee0e534157f175812eb38226?cid=774b29d4f13844c495f206cafdad9c86",
      "track_number" : 1,
      "type" : "track",
      "uri" : "spotify:track:6TIiNOra0ogjHq9B7OJGzy"
    }, {
      "album" : {
        "album_type" : "album",
        "artists" : [ {
          "external_urls" : {
            "spotify" : "https://open.spotify.com/artist/27PvFEhcBb1CloNF5fekZS"
          },
          "href" : "https://api.spotify.com/v1/artists/27PvFEhcBb1CloNF5fekZS",
          "id" : "27PvFEhcBb1CloNF5fekZS",
          "name" : "Master's Praise Vocal Group",
          "type" : "artist",
          "uri" : "spotify:artist:27PvFEhcBb1CloNF5fekZS"
        } ],
        "external_urls" : {
          "spotify" : "https://open.spotify.com/album/0p50lZezUBNRFYEYaGJGun"
        },
        "href" : "https://api.spotify.com/v1/albums/0p50lZezUBNRFYEYaGJGun",
        "id" : "0p50lZezUBNRFYEYaGJGun",
        "images" : [ {
          "height" : 640,
          "url" : "https://i.scdn.co/image/ab67616d0000b273b85a9e9c0e209be58872be18",
          "width" : 640
        }, {
          "height" : 300,
          "url" : "https://i.scdn.co/image/ab67616d00001e02b85a9e9c0e209be58872be18",
          "width" : 300
        }, {
          "height" : 64,
          "url" : "https://i.scdn.co/image/ab67616d00004851b85a9e9c0e209be58872be18",
          "width" : 64
        } ],
        "name" : "Hymns: Songs of Praise",
        "release_date" : "2010-12-15",
        "release_date_precision" : "day",
        "total_tracks" : 15,
        "type" : "album",
        "uri" : "spotify:album:0p50lZezUBNRFYEYaGJGun"
      },
      "artists" : [ {
        "external_urls" : {
          "spotify" : "https://open.spotify.com/artist/27PvFEhcBb1CloNF5fekZS"
        },
        "href" : "https://api.spotify.com/v1/artists/27PvFEhcBb1CloNF5fekZS",
        "id" : "27PvFEhcBb1CloNF5fekZS",
        "name" : "Master's Praise Vocal Group",
        "type" : "artist",
        "uri" : "spotify:artist:27PvFEhcBb1CloNF5fekZS"
      } ],
      "disc_number" : 1,
      "duration_ms" : 140133,
      "explicit" : false,
      "external_ids" : {
        "isrc" : "ushm81346807"
      },
      "external_urls" : {
        "spotify" : "https://open.spotify.com/track/06ASesNl1H161LKGT5Zce6"
      },
      "href" : "https://api.spotify.com/v1/tracks/06ASesNl1H161LKGT5Zce6",
      "id" : "06ASesNl1H161LKGT5Zce6",
      "is_local" : false,
      "is_playable" : true,
      "name" : "Soldiers of Christ Arise",
      "popularity" : 1,
      "preview_url" : "https://p.scdn.co/mp3-preview/d61189922ab6040efee232156761bfb937a7e5c7?cid=774b29d4f13844c495f206cafdad9c86",
      "track_number" : 4,
      "type" : "track",
      "uri" : "spotify:track:06ASesNl1H161LKGT5Zce6"
    }, {
      "album" : {
        "album_type" : "compilation",
        "artists" : [ {
          "external_urls" : {
            "spotify" : "https://open.spotify.com/artist/0LyfQWJT6nXafLPZqxe9Of"
          },
          "href" : "https://api.spotify.com/v1/artists/0LyfQWJT6nXafLPZqxe9Of",
          "id" : "0LyfQWJT6nXafLPZqxe9Of",
          "name" : "Various Artists",
          "type" : "artist",
          "uri" : "spotify:artist:0LyfQWJT6nXafLPZqxe9Of"
        } ],
        "external_urls" : {
          "spotify" : "https://open.spotify.com/album/11RY5a61KU5FV2TEolC6MM"
        },
        "href" : "https://api.spotify.com/v1/albums/11RY5a61KU5FV2TEolC6MM",
        "id" : "11RY5a61KU5FV2TEolC6MM",
        "images" : [ {
          "height" : 640,
          "url" : "https://i.scdn.co/image/ab67616d0000b273a310e0679fc5cfdd82826d50",
          "width" : 640
        }, {
          "height" : 300,
          "url" : "https://i.scdn.co/image/ab67616d00001e02a310e0679fc5cfdd82826d50",
          "width" : 300
        }, {
          "height" : 64,
          "url" : "https://i.scdn.co/image/ab67616d00004851a310e0679fc5cfdd82826d50",
          "width" : 64
        } ],
        "name" : "Classic Songs from the Hymnal",
        "release_date" : "2009-04-14",
        "release_date_precision" : "day",
        "total_tracks" : 37,
        "type" : "album",
        "uri" : "spotify:album:11RY5a61KU5FV2TEolC6MM"
      },
      "artists" : [ {
        "external_urls" : {
          "spotify" : "https://open.spotify.com/artist/0LyfQWJT6nXafLPZqxe9Of"
        },
        "href" : "https://api.spotify.com/v1/artists/0LyfQWJT6nXafLPZqxe9Of",
        "id" : "0LyfQWJT6nXafLPZqxe9Of",
        "name" : "Various Artists",
        "type" : "artist",
        "uri" : "spotify:artist:0LyfQWJT6nXafLPZqxe9Of"
      } ],
      "disc_number" : 1,
      "duration_ms" : 232293,
      "explicit" : false,
      "external_ids" : {
        "isrc" : "USLF50801102"
      },
      "external_urls" : {
        "spotify" : "https://open.spotify.com/track/6LMsZ9EtE8TbTj2mpd26Ia"
      },
      "href" : "https://api.spotify.com/v1/tracks/6LMsZ9EtE8TbTj2mpd26Ia",
      "id" : "6LMsZ9EtE8TbTj2mpd26Ia",
      "is_local" : false,
      "is_playable" : true,
      "name" : "Soldiers of Christ, Arise",
      "popularity" : 0,
      "preview_url" : "https://p.scdn.co/mp3-preview/601d1a9da7e0b014a2f32e1edf5cd6f7b34b5b87?cid=774b29d4f13844c495f206cafdad9c86",
      "track_number" : 34,
      "type" : "track",
      "uri" : "spotify:track:6LMsZ9EtE8TbTj2mpd26Ia"
    }, {
      "album" : {
        "album_type" : "album",
        "artists" : [ {
          "external_urls" : {
            "spotify" : "https://open.spotify.com/artist/2x0QHABqKaBBvAOzvoevXJ"
          },
          "href" : "https://api.spotify.com/v1/artists/2x0QHABqKaBBvAOzvoevXJ",
          "id" : "2x0QHABqKaBBvAOzvoevXJ",
          "name" : "The Scottish Festival Singers",
          "type" : "artist",
          "uri" : "spotify:artist:2x0QHABqKaBBvAOzvoevXJ"
        } ],
        "external_urls" : {
          "spotify" : "https://open.spotify.com/album/0QXkcCvI3Gb1dNKDkoVyIg"
        },
        "href" : "https://api.spotify.com/v1/albums/0QXkcCvI3Gb1dNKDkoVyIg",
        "id" : "0QXkcCvI3Gb1dNKDkoVyIg",
        "images" : [ {
          "height" : 640,
          "url" : "https://i.scdn.co/image/ab67616d0000b273a7cff06e527792fd2d334666",
          "width" : 640
        }, {
          "height" : 300,
          "url" : "https://i.scdn.co/image/ab67616d00001e02a7cff06e527792fd2d334666",
          "width" : 300
        }, {
          "height" : 64,
          "url" : "https://i.scdn.co/image/ab67616d00004851a7cff06e527792fd2d334666",
          "width" : 64
        } ],
        "name" : "Timeless Hymns, Vol. 7: Come Thou Fount",
        "release_date" : "2014-06-17",
        "release_date_precision" : "day",
        "total_tracks" : 11,
        "type" : "album",
        "uri" : "spotify:album:0QXkcCvI3Gb1dNKDkoVyIg"
      },
      "artists" : [ {
        "external_urls" : {
          "spotify" : "https://open.spotify.com/artist/2x0QHABqKaBBvAOzvoevXJ"
        },
        "href" : "https://api.spotify.com/v1/artists/2x0QHABqKaBBvAOzvoevXJ",
        "id" : "2x0QHABqKaBBvAOzvoevXJ",
        "name" : "The Scottish Festival Singers",
        "type" : "artist",
        "uri" : "spotify:artist:2x0QHABqKaBBvAOzvoevXJ"
      } ],
      "disc_number" : 1,
      "duration_ms" : 123626,
      "explicit" : false,
      "external_ids" : {
        "isrc" : "USACX1400667"
      },
      "external_urls" : {
        "spotify" : "https://open.spotify.com/track/07c4nzEG6O7SfEkGhY9icV"
      },
      "href" : "https://api.spotify.com/v1/tracks/07c4nzEG6O7SfEkGhY9icV",
      "id" : "07c4nzEG6O7SfEkGhY9icV",
      "is_local" : false,
      "is_playable" : true,
      "name" : "Soldiers Of Christ Arise",
      "popularity" : 1,
      "preview_url" : "https://p.scdn.co/mp3-preview/c93aee0d1e9333a76089af26087d31ab6835402e?cid=774b29d4f13844c495f206cafdad9c86",
      "track_number" : 4,
      "type" : "track",
      "uri" : "spotify:track:07c4nzEG6O7SfEkGhY9icV"
    }, {
      "album" : {
        "album_type" : "compilation",
        "artists" : [ {
          "external_urls" : {
            "spotify" : "https://open.spotify.com/artist/0LyfQWJT6nXafLPZqxe9Of"
          },
          "href" : "https://api.spotify.com/v1/artists/0LyfQWJT6nXafLPZqxe9Of",
          "id" : "0LyfQWJT6nXafLPZqxe9Of",
          "name" : "Various Artists",
          "type" : "artist",
          "uri" : "spotify:artist:0LyfQWJT6nXafLPZqxe9Of"
        } ],
        "external_urls" : {
          "spotify" : "https://open.spotify.com/album/6SP1GficW86xHuwOGT9cgF"
        },
        "href" : "https://api.spotify.com/v1/albums/6SP1GficW86xHuwOGT9cgF",
        "id" : "6SP1GficW86xHuwOGT9cgF",
        "images" : [ {
          "height" : 640,
          "url" : "https://i.scdn.co/image/ab67616d0000b273a51c4a1638e40ee5f94d4728",
          "width" : 640
        }, {
          "height" : 300,
          "url" : "https://i.scdn.co/image/ab67616d00001e02a51c4a1638e40ee5f94d4728",
          "width" : 300
        }, {
          "height" : 64,
          "url" : "https://i.scdn.co/image/ab67616d00004851a51c4a1638e40ee5f94d4728",
          "width" : 64
        } ],
        "name" : "Essential Hymns & Anthems",
        "release_date" : "2008-11-02",
        "release_date_precision" : "day",
        "total_tracks" : 40,
        "type" : "album",
        "uri" : "spotify:album:6SP1GficW86xHuwOGT9cgF"
      },
      "artists" : [ {
        "external_urls" : {
          "spotify" : "https://open.spotify.com/artist/21a9gOWvdGBjvhhUXeDoSU"
        },
        "href" : "https://api.spotify.com/v1/artists/21a9gOWvdGBjvhhUXeDoSU",
        "id" : "21a9gOWvdGBjvhhUXeDoSU",
        "name" : "Massed Choirs Of Yorkshire",
        "type" : "artist",
        "uri" : "spotify:artist:21a9gOWvdGBjvhhUXeDoSU"
      } ],
      "disc_number" : 1,
      "duration_ms" : 76173,
      "explicit" : false,
      "external_ids" : {
        "isrc" : "GBLGL0022348"
      },
      "external_urls" : {
        "spotify" : "https://open.spotify.com/track/0MtBPYHjarQE73Uhqbty3u"
      },
      "href" : "https://api.spotify.com/v1/tracks/0MtBPYHjarQE73Uhqbty3u",
      "id" : "0MtBPYHjarQE73Uhqbty3u",
      "is_local" : false,
      "is_playable" : true,
      "name" : "Soldiers Of Christ Arise",
      "popularity" : 0,
      "preview_url" : "https://p.scdn.co/mp3-preview/f055c662b02a6b829262c0ed12b61a36f5c2b91e?cid=774b29d4f13844c495f206cafdad9c86",
      "track_number" : 2,
      "type" : "track",
      "uri" : "spotify:track:0MtBPYHjarQE73Uhqbty3u"
    }, {
      "album" : {
        "album_type" : "album",
        "artists" : [ {
          "external_urls" : {
            "spotify" : "https://open.spotify.com/artist/0XOGhQGVg5HkdudMPgyqYj"
          },
          "href" : "https://api.spotify.com/v1/artists/0XOGhQGVg5HkdudMPgyqYj",
          "id" : "0XOGhQGVg5HkdudMPgyqYj",
          "name" : "George Beverly Shea",
          "type" : "artist",
          "uri" : "spotify:artist:0XOGhQGVg5HkdudMPgyqYj"
        } ],
        "external_urls" : {
          "spotify" : "https://open.spotify.com/album/3CIQzf3UfmHLod8wxPrMe1"
        },
        "href" : "https://api.spotify.com/v1/albums/3CIQzf3UfmHLod8wxPrMe1",
        "id" : "3CIQzf3UfmHLod8wxPrMe1",
        "images" : [ {
          "height" : 640,
          "url" : "https://i.scdn.co/image/ab67616d0000b273f0b492ddf97992ff7c7bbe46",
          "width" : 640
        }, {
          "height" : 300,
          "url" : "https://i.scdn.co/image/ab67616d00001e02f0b492ddf97992ff7c7bbe46",
          "width" : 300
        }, {
          "height" : 64,
          "url" : "https://i.scdn.co/image/ab67616d00004851f0b492ddf97992ff7c7bbe46",
          "width" : 64
        } ],
        "name" : "Take My Hand",
        "release_date" : "1967-04-24",
        "release_date_precision" : "day",
        "total_tracks" : 12,
        "type" : "album",
        "uri" : "spotify:album:3CIQzf3UfmHLod8wxPrMe1"
      },
      "artists" : [ {
        "external_urls" : {
          "spotify" : "https://open.spotify.com/artist/0XOGhQGVg5HkdudMPgyqYj"
        },
        "href" : "https://api.spotify.com/v1/artists/0XOGhQGVg5HkdudMPgyqYj",
        "id" : "0XOGhQGVg5HkdudMPgyqYj",
        "name" : "George Beverly Shea",
        "type" : "artist",
        "uri" : "spotify:artist:0XOGhQGVg5HkdudMPgyqYj"
      } ],
      "disc_number" : 1,
      "duration_ms" : 131920,
      "explicit" : false,
      "external_ids" : {
        "isrc" : "USRC11702430"
      },
      "external_urls" : {
        "spotify" : "https://open.spotify.com/track/0LspfpHN8FCJfEXU8XA5XS"
      },
      "href" : "https://api.spotify.com/v1/tracks/0LspfpHN8FCJfEXU8XA5XS",
      "id" : "0LspfpHN8FCJfEXU8XA5XS",
      "is_local" : false,
      "is_playable" : true,
      "name" : "Soldiers of Christ, Arise",
      "popularity" : 0,
      "preview_url" : "https://p.scdn.co/mp3-preview/b89b7634d9041970029667770b546db3dfdac2f5?cid=774b29d4f13844c495f206cafdad9c86",
      "track_number" : 10,
      "type" : "track",
      "uri" : "spotify:track:0LspfpHN8FCJfEXU8XA5XS"
    }, {
      "album" : {
        "album_type" : "single",
        "artists" : [ {
          "external_urls" : {
            "spotify" : "https://open.spotify.com/artist/7sM3Vaa1bJOb9PEmhfWIHx"
          },
          "href" : "https://api.spotify.com/v1/artists/7sM3Vaa1bJOb9PEmhfWIHx",
          "id" : "7sM3Vaa1bJOb9PEmhfWIHx",
          "name" : "Jackson A Taylor",
          "type" : "artist",
          "uri" : "spotify:artist:7sM3Vaa1bJOb9PEmhfWIHx"
        } ],
        "external_urls" : {
          "spotify" : "https://open.spotify.com/album/2YcOTanAH2o5qmtezsu9gZ"
        },
        "href" : "https://api.spotify.com/v1/albums/2YcOTanAH2o5qmtezsu9gZ",
        "id" : "2YcOTanAH2o5qmtezsu9gZ",
        "images" : [ {
          "height" : 640,
          "url" : "https://i.scdn.co/image/ab67616d0000b2730c65cd5edf7f4e504edcab90",
          "width" : 640
        }, {
          "height" : 300,
          "url" : "https://i.scdn.co/image/ab67616d00001e020c65cd5edf7f4e504edcab90",
          "width" : 300
        }, {
          "height" : 64,
          "url" : "https://i.scdn.co/image/ab67616d000048510c65cd5edf7f4e504edcab90",
          "width" : 64
        } ],
        "name" : "Soldiers Of Christ, Arise",
        "release_date" : "2011-03-20",
        "release_date_precision" : "day",
        "total_tracks" : 1,
        "type" : "album",
        "uri" : "spotify:album:2YcOTanAH2o5qmtezsu9gZ"
      },
      "artists" : [ {
        "external_urls" : {
          "spotify" : "https://open.spotify.com/artist/7sM3Vaa1bJOb9PEmhfWIHx"
        },
        "href" : "https://api.spotify.com/v1/artists/7sM3Vaa1bJOb9PEmhfWIHx",
        "id" : "7sM3Vaa1bJOb9PEmhfWIHx",
        "name" : "Jackson A Taylor",
        "type" : "artist",
        "uri" : "spotify:artist:7sM3Vaa1bJOb9PEmhfWIHx"
      } ],
      "disc_number" : 1,
      "duration_ms" : 71444,
      "explicit" : false,
      "external_ids" : {
        "isrc" : "USJ3V1090314"
      },
      "external_urls" : {
        "spotify" : "https://open.spotify.com/track/0N8URkGSMZjyuSzxwkh2gP"
      },
      "href" : "https://api.spotify.com/v1/tracks/0N8URkGSMZjyuSzxwkh2gP",
      "id" : "0N8URkGSMZjyuSzxwkh2gP",
      "is_local" : false,
      "is_playable" : true,
      "name" : "Soldiers Of Christ, Arise",
      "popularity" : 0,
      "preview_url" : "https://p.scdn.co/mp3-preview/fa819f1b2e7ab9bcfcf2b1a9b84d3f1a149d8de1?cid=774b29d4f13844c495f206cafdad9c86",
      "track_number" : 1,
      "type" : "track",
      "uri" : "spotify:track:0N8URkGSMZjyuSzxwkh2gP"
    }, {
      "album" : {
        "album_type" : "album",
        "artists" : [ {
          "external_urls" : {
            "spotify" : "https://open.spotify.com/artist/7rluHfxLiKAkAoMkuE1F8U"
          },
          "href" : "https://api.spotify.com/v1/artists/7rluHfxLiKAkAoMkuE1F8U",
          "id" : "7rluHfxLiKAkAoMkuE1F8U",
          "name" : "St. Michael's Singers",
          "type" : "artist",
          "uri" : "spotify:artist:7rluHfxLiKAkAoMkuE1F8U"
        } ],
        "external_urls" : {
          "spotify" : "https://open.spotify.com/album/4cxoDHSo6hpDDphbgyFEfV"
        },
        "href" : "https://api.spotify.com/v1/albums/4cxoDHSo6hpDDphbgyFEfV",
        "id" : "4cxoDHSo6hpDDphbgyFEfV",
        "images" : [ {
          "height" : 640,
          "url" : "https://i.scdn.co/image/ab67616d0000b2730be36306743cd485c2e747b1",
          "width" : 640
        }, {
          "height" : 300,
          "url" : "https://i.scdn.co/image/ab67616d00001e020be36306743cd485c2e747b1",
          "width" : 300
        }, {
          "height" : 64,
          "url" : "https://i.scdn.co/image/ab67616d000048510be36306743cd485c2e747b1",
          "width" : 64
        } ],
        "name" : "Crown Him!",
        "release_date" : "2008-12-02",
        "release_date_precision" : "day",
        "total_tracks" : 12,
        "type" : "album",
        "uri" : "spotify:album:4cxoDHSo6hpDDphbgyFEfV"
      },
      "artists" : [ {
        "external_urls" : {
          "spotify" : "https://open.spotify.com/artist/7rluHfxLiKAkAoMkuE1F8U"
        },
        "href" : "https://api.spotify.com/v1/artists/7rluHfxLiKAkAoMkuE1F8U",
        "id" : "7rluHfxLiKAkAoMkuE1F8U",
        "name" : "St. Michael's Singers",
        "type" : "artist",
        "uri" : "spotify:artist:7rluHfxLiKAkAoMkuE1F8U"
      } ],
      "disc_number" : 1,
      "duration_ms" : 181133,
      "explicit" : false,
      "external_ids" : {
        "isrc" : "GBCEU0120707"
      },
      "external_urls" : {
        "spotify" : "https://open.spotify.com/track/2VlrfNfFrDSEyRovrjcRGP"
      },
      "href" : "https://api.spotify.com/v1/tracks/2VlrfNfFrDSEyRovrjcRGP",
      "id" : "2VlrfNfFrDSEyRovrjcRGP",
      "is_local" : false,
      "is_playable" : true,
      "name" : "Soldiers of Christ, Arise",
      "popularity" : 1,
      "preview_url" : "https://p.scdn.co/mp3-preview/b709731c09a385a20945f29d9ddbfbe684325a35?cid=774b29d4f13844c495f206cafdad9c86",
      "track_number" : 7,
      "type" : "track",
      "uri" : "spotify:track:2VlrfNfFrDSEyRovrjcRGP"
    } ],
    "limit" : 10,
    "next" : "https://api.spotify.com/v1/search?query=Soldiers+of+Christ%2C+Arise&type=track&market=US&offset=15&limit=10",
    "offset" : 5,
    "previous" : "https://api.spotify.com/v1/search?query=Soldiers+of+Christ%2C+Arise&type=track&market=US&offset=0&limit=10",
    "total" : 30
  }
}