{
  "tracks" : {
    "href" : "https://api.spotify.com/v1/search?query=My+Faith+Has+Found+a+Resting+Place&type=track&market=US&offset=5&limit=10",
    "items" : [ {
      "album" : {
        "album_type" : "album",
        "artists" : [ {
          "external_urls" : {
            "spotify" : "https://open.spotify.com/artist/0HoHU8SXe0g9jJGOfL8rDq"
          },
          "href" : "https://api.spotify.com/v1/artists/0HoHU8SXe0g9jJGOfL8rDq",
          "id" : "0HoHU8SXe0g9jJGOfL8rDq",
          "name" : "Indelible Grace Music",
          "type" : "artist",
          "uri" : "spotify:artist:0HoHU8SXe0g9jJGOfL8rDq"
        } ],
        "external_urls" : {
          "spotify" : "https://open.spotify.com/album/5jL8gfKCrg07M9WG9hybhu"
        },
        "href" : "https://api.spotify.com/v1/albums/5jL8gfKCrg07M9WG9hybhu",
        "id" : "5jL8gfKCrg07M9WG9hybhu",
        "images" : [ {
          "height" : 640,
          "url" : "https://i.scdn.co/image/ab67616d0000b273d73b85b5f17b9afaeaadbb4d",
          "width" : 640
        }, {
          "height" : 300,
          "url" : "https://i.scdn.co/image/ab67616d00001e02d73b85b5f17b9afaeaadbb4d",
          "width" : 300
        }, {
          "height" : 64,
          "url" : "https://i.scdn.co/image/ab67616d00004851d73b85b5f17b9afaeaadbb4d",
          "width" : 64
        } ],
        "name" : "Look to Jesus: Indelible Grace VII",
        "release_date" : "2015-12-11",
        "release_date_precision" : "day",
        "total_tracks" : 13,
        "type" : "album",
        "uri" : "spotify:album:5jL8gfKCrg07M9WG9hybhu"
      },
      "artists" : [ {
        "external_urls" : {
          "spotify" : "https://open.spotify.com/artist/0HoHU8SXe0g9jJGOfL8rDq"
        },
        "href" : "https://api.spotify.com/v1/artists/0HoHU8SXe0g9jJGOfL8rDq",
        "id" : "0HoHU8SXe0g9jJGOfL8rDq",
        "name" : "Indelible Grace Music",
        "type" : "artist",
        "uri" : "spotify:artist:0HoHU8SXe0g9jJGOfL8rDq"
      }, {
        "external_urls" : {
          "spotify" : "https://open.spotify.com/artist/5KIdsYHVdOsekNYNValNzK"
        },
        "href" : "https://api.spotify.com/v1/artists/5KIdsYHVdOsekNYNValNzK",
        "id" : "5KIdsYHVdOsekNYNValNzK",
        "name" : "Matthew Smith",
        "type" : "artist",
        "uri" : "spotify:artist:5KIdsYHVdOsekNYNValNzK"
      } ],
      "disc_number" : 1,
      "duration_ms" : 251293,
      "explicit" : false,
      "external_ids" : {
        "isrc" : "TCACK1509933"
      },
      "external_urls" : {
        "spotify" : "https://open.spotify.com/track/6EImXYNnzyvJrTe2SN6fZV"
      },
      "href" : "https://api.spotify.com/v1/tracks/6EImXYNnzyvJrTe2SN6fZV",
      "id" : "6EImXYNnzyvJrTe2SN6fZV",
      "is_local" : false,
      "is_playable" : true,
      "name" : "My Faith Has Found a Resting Place (feat. Matthew Smith)",
      "popularity" : 15,
      "preview_url" : "https://p.scdn.co/mp3-preview/909fc530905e3292c218f9dc7ef30fba5f25dbe7?cid=774b29d4f13844c495f206cafdad9c86",
      "track_number" : 9,
      "type" : "track",
      "uri" : "spotify:track:6EImXYNnzyvJrTe2SN6fZV"
    }, {
      "album" : {
        "album_type" : "album",
        "artists" : [ {
          "external_urls" : {
            "spotify" : "https://open.spotify.com/artist/76DZDfrWEVmV5RvYD3Nwr7"
          },
          "href" : "https://api.spotify.com/v1/artists/76DZDfrWEVmV5RvYD3Nwr7",
          "id" : "76DZDfrWEVmV5RvYD3Nwr7",
          "name" : "The Nashville Musicians",
          "type" : "artist",
          "uri" : "spotify:artist:76DZDfrWEVmV5RvYD3Nwr7"
        } ],
        "external_urls" : {
          "spotify" : "https://open.spotify.com/album/3L1f71soOC8hBZStjTTs1R"
        },
        "href" : "https://api.spotify.com/v1/albums/3L1f71soOC8hBZStjTTs1R",
        "id" : "3L1f71soOC8hBZStjTTs1R",
        "images" : [ {
          "height" : 640,
          "url" : "https://i.scdn.co/image/ab67616d0000b2739954edfc78272b4fcd2b079a",
          "width" : 640
        }, {
          "height" : 300,
          "url" : "https://i.scdn.co/image/ab67616d00001e029954edfc78272b4fcd2b079a",
          "width" : 300
        }, {
          "height" : 64,
          "url" : "https://i.scdn.co/image/ab67616d000048519954edfc78272b4fcd2b079a",
          "width" : 64
        } ],
        "name" : "Songs for Sleepless Nights - Peace",
        "release_date" : "2010-04-29",
        "release_date_precision" : "day",
        "total_tracks" : 11,
        "type" : "album",
        "uri" : "spotify:album:3L1f71soOC8hBZStjTTs1R"
      },
      "artists" : [ {
        "external_urls" : {
          "spotify" : "https://open.spotify.com/artist/76DZDfrWEVmV5RvYD3Nwr7"
        },
        "href" : "https://api.spotify.com/v1/artists/76DZDfrWEVmV5RvYD3Nwr7",
        "id" : "76DZDfrWEVmV5RvYD3Nwr7",
        "name" : "The Nashville Musicians",
        "type" : "artist",
        "uri" : "spotify:artist:76DZDfrWEVmV5RvYD3Nwr7"
      } ],
      "disc_number" : 1,
      "duration_ms" : 270721,
      "explicit" : false,
      "external_ids" : {
        "isrc" : "US4R31018337"
      },
      "external_urls" : {
        "spotify" : "https://open.spotify.com/track/238HKHzmKuSPe7VOy7XYAc"
      },
      "href" : "https://api.spotify.com/v1/tracks/238HKHzmKuSPe7VOy7XYAc",
      "id" : "238HKHzmKuSPe7VOy7XYAc",
      "is_local" : false,
      "is_playable" : true,
      "name" : "My Faith Has Found a Resting Place",
      "popularity" : 13,
      "preview_url" : "https://p.scdn.co/mp3-preview/96c66f9e3cd2a2c4a6680331b9062fc698af64f2?cid=774b29d4f13844c495f206cafdad9c86",
      "track_number" : 3,
      "type" : "track",
      "uri" : "spotify:track:238HKHzmKuSPe7VOy7XYAc"
    }, {
      "album" : {
        "album_type" : "album",
        "artists" : [ {
          "external_urls" : {
            "spotify" : "https://open.spotify.com/artist/3UuY3RrWbM3JWy0FZh6EKg"
          },
          "href" : "https://api.spotify.com/v1/artists/3UuY3RrWbM3JWy0FZh6EKg",
          "id" : "3UuY3RrWbM3JWy0FZh6EKg",
          "name" : "The Haven Quartet",
          "type" : "artist",
          "uri" : "spotify:artist:3UuY3RrWbM3JWy0FZh6EKg"
        } ],
        "external_urls" : {
          "spotify" : "https://open.spotify.com/album/6ZAAGn5a8SoXwipAl7bvaJ"
        },
        "href" : "https://api.spotify.com/v1/albums/6ZAAGn5a8SoXwipAl7bvaJ",
        "id" : "6ZAAGn5a8SoXwipAl7bvaJ",
        "images" : [ {
          "height" : 640,
          "url" : "https://i.scdn.co/image/ab67616d0000b2733d0fe05659533eb87c581190",
          "width" : 640
        }, {
          "height" : 300,
          "url" : "https://i.scdn.co/image/ab67616d00001e023d0fe05659533eb87c581190",
          "width" : 300
        }, {
          "height" : 64,
          "url" : "https://i.scdn.co/image/ab67616d000048513d0fe05659533eb87c581190",
          "width" : 64
        } ],
        "name" : "Heritage of Hymns",
        "release_date" : "1999",
        "release_date_precision" : "year",
        "total_tracks" : 17,
        "type" : "album",
        "uri" : "spotify:album:6ZAAGn5a8SoXwipAl7bvaJ"
      },
      "artists" : [ {
        "external_urls" : {
          "spotify" : "https://open.spotify.com/artist/3UuY3RrWbM3JWy0FZh6EKg"
        },
        "href" : "https://api.spotify.com/v1/artists/3UuY3RrWbM3JWy0FZh6EKg",
        "id" : "3UuY3RrWbM3JWy0FZh6EKg",
        "name" : "The Haven Quartet",
        "type" : "artist",
        "uri" : "spotify:artist:3UuY3RrWbM3JWy0FZh6EKg"
      } ],
      "disc_number" : 1,
      "duration_ms" : 89133,
      "explicit" : false,
      "external_ids" : {
        "isrc" : "ushm81015054"
      },
      "external_urls" : {
        "spotify" : "https://open.spotify.com/track/7BlHgk2cFG2bgBoCHNOB2N"
      },
      "href" : "https://api.spotify.com/v1/tracks/7BlHgk2cFG2bgBoCHNOB2N",
      "id" : "7BlHgk2cFG2bgBoCHNOB2N",
      "is_local" : false,
      "is_playable" : true,
      "name" : "My Faith Has Found A Resting Place",
      "popularity" : 13,
      "preview_url" : "https://p.scdn.co/mp3-preview/2c008275b1d1641fde9599001d1f23f07f7609df?cid=774b29d4f13844c495f206cafdad9c86",
      "track_number" : 6,
      "type" : "track",
      "uri" : "spotify:track:7BlHgk2cFG2bgBoCHNOB2N"
    }, {
      "album" : {
        "album_type" : "album",
        "artists" : [ {
          "external_urls" : {
            "spotify" : "https://open.spotify.com/artist/2naiwnMNJgvDE4pALHYI4D"
          },
          "href" : "https://api.spotify.com/v1/artists/2naiwnMNJgvDE4pALHYI4D",
          "id" : "2naiwnMNJgvDE4pALHYI4D",
          "name" : "Ron Hamilton",
          "type" : "artist",
          "uri" : "spotify:artist:2naiwnMNJgvDE4pALHYI4D"
        }, {
          "external_urls" : {
            "spotify" : "https://open.spotify.com/artist/7HDwWB9AsuPIeP9EPbCj4f"
          },
          "href" : "https://api.spotify.com/v1/artists/7HDwWB9AsuPIeP9EPbCj4f",
          "id" : "7HDwWB9AsuPIeP9EPbCj4f",
          "name" : "Shelly Hamilton",
          "type" : "artist",
          "uri" : "spotify:artist:7HDwWB9AsuPIeP9EPbCj4f"
        } ],
        "external_urls" : {
          "spotify" : "https://open.spotify.com/album/1pBG2cKjQdD73BWw576HAK"
        },
        "href" : "https://api.spotify.com/v1/albums/1pBG2cKjQdD73BWw576HAK",
        "id" : "1pBG2cKjQdD73BWw576HAK",
        "images" : [ {
          "height" : 640,
          "url" : "https://i.scdn.co/image/ab67616d0000b273f574b103c8a8482d5a085672",
          "width" : 640
        }, {
          "height" : 300,
          "url" : "https://i.scdn.co/image/ab67616d00001e02f574b103c8a8482d5a085672",
          "width" : 300
        }, {
          "height" : 64,
          "url" : "https://i.scdn.co/image/ab67616d00004851f574b103c8a8482d5a085672",
          "width" : 64
        } ],
        "name" : "I Stand Redeemed",
        "release_date" : "2007-10-15",
        "release_date_precision" : "day",
        "total_tracks" : 11,
        "type" : "album",
        "uri" : "spotify:album:1pBG2cKjQdD73BWw576HAK"
      },
      "artists" : [ {
        "external_urls" : {
          "spotify" : "https://open.spotify.com/artist/2naiwnMNJgvDE4pALHYI4D"
        },
        "href" : "https://api.spotify.com/v1/artists/2naiwnMNJgvDE4pALHYI4D",
        "id" : "2naiwnMNJgvDE4pALHYI4D",
        "name" : "Ron Hamilton",
        "type" : "artist",
        "uri" : "spotify:artist:2naiwnMNJgvDE4pALHYI4D"
      }, {
        "external_urls" : {
          "spotify" : "https://open.spotify.com/artist/7HDwWB9AsuPIeP9EPbCj4f"
        },
        "href" : "https://api.spotify.com/v1/artists/7HDwWB9AsuPIeP9EPbCj4f",
        "id" : "7HDwWB9AsuPIeP9EPbCj4f",
        "name" : "Shelly Hamilton",
        "type" : "artist",
        "uri" : "spotify:artist:7HDwWB9AsuPIeP9EPbCj4f"
      } ],
      "disc_number" : 1,
      "duration_ms" : 269346,
      "explicit" : false,
      "external_ids" : {
        "isrc" : "uscgh1675106"
      },
      "external_urls" : {
        "spotify" : "https://open.spotify.com/track/1m66aJm0Vc9GsnsoxpUnac"
      },
      "href" : "https://api.spotify.com/v1/tracks/1m66aJm0Vc9GsnsoxpUnac",
      "id" : "1m66aJm0Vc9GsnsoxpUnac",
      "is_local" : false,
      "is_playable" : true,
      "name" : "My Faith Has Found a Resting Place",
      "popularity" : 11,
      "preview_url" : "https://p.scdn.co/mp3-preview/fb2d5050b8fcae1365848289ea8fac0861dff31c?cid=774b29d4f13844c495f206cafdad9c86",
      "track_number" : 6,
      "type" : "track",
      "uri" : "spotify:track:1m66aJm0Vc9GsnsoxpUnac"
    }, {
      "album" : {
        "album_type" : "album",
        "artists" : [ {
          "external_urls" : {
            "spotify" : "https://open.spotify.com/artist/0cylxW7HGdK9xMdubw2oYW"
          },
          "href" : "https://api.spotify.com/v1/artists/0cylxW7HGdK9xMdubw2oYW",
          "id" : "0cylxW7HGdK9xMdubw2oYW",
          "name" : "The O'Neill Brothers Group",
          "type" : "artist",
          "uri" : "spotify:artist:0cylxW7HGdK9xMdubw2oYW"
        } ],
        "external_urls" : {
          "spotify" : "https://open.spotify.com/album/1mgWP6Ev1cwBc4aAf7yMMd"
        },
        "href" : "https://api.spotify.com/v1/albums/1mgWP6Ev1cwBc4aAf7yMMd",
        "id" : "1mgWP6Ev1cwBc4aAf7yMMd",
        "images" : [ {
          "height" : 640,
          "url" : "https://i.scdn.co/image/ab67616d0000b27317f7e2ab163432a27f4d6f64",
          "width" : 640
        }, {
          "height" : 300,
          "url" : "https://i.scdn.co/image/ab67616d00001e0217f7e2ab163432a27f4d6f64",
          "width" : 300
        }, {
          "height" : 64,
          "url" : "https://i.scdn.co/image/ab67616d0000485117f7e2ab163432a27f4d6f64",
          "width" : 64
        } ],
        "name" : "Hymns for Episcopal, Catholic & Lutheran Services",
        "release_date" : "2016-02-23",
        "release_date_precision" : "day",
        "total_tracks" : 13,
        "type" : "album",
        "uri" : "spotify:album:1mgWP6Ev1cwBc4aAf7yMMd"
      },
      "artists" : [ {
        "external_urls" : {
          "spotify" : "https://open.spotify.com/artist/0cylxW7HGdK9xMdubw2oYW"
        },
        "href" : "https://api.spotify.com/v1/artists/0cylxW7HGdK9xMdubw2oYW",
        "id" : "0cylxW7HGdK9xMdubw2oYW",
        "name" : "The O'Neill Brothers Group",
        "type" : "artist",
        "uri" : "spotify:artist:0cylxW7HGdK9xMdubw2oYW"
      } ],
      "disc_number" : 1,
      "duration_ms" : 178938,
      "explicit" : false,
      "external_ids" : {
        "isrc" : "TCACM1639899"
      },
      "external_urls" : {
        "spotify" : "https://open.spotify.com/track/5nHnrnthfy0Pc3Tr7JVMq6"
      },
      "href" : "https://api.spotify.com/v1/tracks/5nHnrnthfy0Pc3Tr7JVMq6",
      "id" : "5nHnrnthfy0Pc3Tr7JVMq6",
      "is_local" : false,
      "is_playable" : true,
      "name" : "My Faith Has Found a Resting Place (Instrumental Version)",
      "popularity" : 13,
      "preview_url" : "https://p.scdn.co/mp3-preview/11bba3c02890a5d5ecdef0f0e4ed179dea790ec4?cid=774b29d4f13844c495f206cafdad9c86",
      "track_number" : 11,
      "type" : "track",
      "uri" : "spotify:track:5nHnrnthfy0Pc3Tr7JVMq6"
    }, {
      "album" : {
        "album_type" : "album",
        "artists" : [ {
          "external_urls" : {
            "spotify" : "https://open.spotify.com/artist/6sN1asC2wUO6gDNLfA4T00"
          },
          "href" : "https://api.spotify.com/v1/artists/6sN1asC2wUO6gDNLfA4T00",
          "id" : "6sN1asC2wUO6gDNLfA4T00",
          "name" : "Out Of Eden",
          "type" : "artist",
          "uri" : "spotify:artist:6sN1asC2wUO6gDNLfA4T00"
        } ],
        "external_urls" : {
          "spotify" : "https://open.spotify.com/album/3K4kTndcwPgE6biOvgD0T1"
        },
        "href" : "https://api.spotify.com/v1/albums/3K4kTndcwPgE6biOvgD0T1",
        "id" : "3K4kTndcwPgE6biOvgD0T1",
        "images" : [ {
          "height" : 640,
          "url" : "https://i.scdn.co/image/ab67616d0000b273b6395be4c7c8aa50428b7201",
          "width" : 640
        }, {
          "height" : 300,
          "url" : "https://i.scdn.co/image/ab67616d00001e02b6395be4c7c8aa50428b7201",
          "width" : 300
        }, {
          "height" : 64,
          "url" : "https://i.scdn.co/image/ab67616d00004851b6395be4c7c8aa50428b7201",
          "width" : 64
        } ],
        "name" : "Hymns",
        "release_date" : "2005-03-29",
        "release_date_precision" : "day",
        "total_tracks" : 13,
        "type" : "album",
        "uri" : "spotify:album:3K4kTndcwPgE6biOvgD0T1"
      },
      "artists" : [ {
        "external_urls" : {
          "spotify" : "https://open.spotify.com/artist/6sN1asC2wUO6gDNLfA4T00"
        },
        "href" : "https://api.spotify.com/v1/artists/6sN1asC2wUO6gDNLfA4T00",
        "id" : "6sN1asC2wUO6gDNLfA4T00",
        "name" : "Out Of Eden",
        "type" : "artist",
        "uri" : "spotify:artist:6sN1asC2wUO6gDNLfA4T00"
      } ],
      "disc_number" : 1,
      "duration_ms" : 273346,
      "explicit" : false,
      "external_ids" : {
        "isrc" : "USGOT0408101"
      },
      "external_urls" : {
        "spotify" : "https://open.spotify.com/track/0lstibInrVoO4LuBNoyf96"
      },
      "href" : "https://api.spotify.com/v1/tracks/0lstibInrVoO4LuBNoyf96",
      "id" : "0lstibInrVoO4LuBNoyf96",
      "is_local" : false,
      "is_playable" : true,
      "name" : "My Faith Has Found a Resting Place",
      "popularity" : 10,
      "preview_url" : "https://p.scdn.co/mp3-preview/bf195c3953f12c1ff5c8e31f680e70774312cd2e?cid=774b29d4f13844c495f206cafdad9c86",
      "track_number" : 5,
      "type" : "track",
      "uri" : "spotify:track:0lstibInrVoO4LuBNoyf96"
    }, {
      "album" : {
        "album_type" : "album",
        "artists" : [ {
          "external_urls" : {
            "spotify" : "https://open.spotify.com/artist/3PM2Mavn4aG4UXgG07dxCg"
          },
          "href" : "https://api.spotify.com/v1/artists/3PM2Mavn4aG4UXgG07dxCg",
          "id" : "3PM2Mavn4aG4UXgG07dxCg",
          "name" : "Benny Hinn",
          "type" : "artist",
          "uri" : "spotify:artist:3PM2Mavn4aG4UXgG07dxCg"
        } ],
        "external_urls" : {
          "spotify" : "https://open.spotify.com/album/5oWYmb6YYRbjPQxbqtYvIS"
        },
        "href" : "https://api.spotify.com/v1/albums/5oWYmb6YYRbjPQxbqtYvIS",
        "id" : "5oWYmb6YYRbjPQxbqtYvIS",
        "images" : [ {
          "height" : 640,
          "url" : "https://i.scdn.co/image/ab67616d0000b27336a4eda16cbe0367489ea0f6",
          "width" : 640
        }, {
          "height" : 300,
          "url" : "https://i.scdn.co/image/ab67616d00001e0236a4eda16cbe0367489ea0f6",
          "width" : 300
        }, {
          "height" : 64,
          "url" : "https://i.scdn.co/image/ab67616d0000485136a4eda16cbe0367489ea0f6",
          "width" : 64
        } ],
        "name" : "Wings of Worship",
        "release_date" : "2003-10-21",
        "release_date_precision" : "day",
        "total_tracks" : 26,
        "type" : "album",
        "uri" : "spotify:album:5oWYmb6YYRbjPQxbqtYvIS"
      },
      "artists" : [ {
        "external_urls" : {
          "spotify" : "https://open.spotify.com/artist/3PM2Mavn4aG4UXgG07dxCg"
        },
        "href" : "https://api.spotify.com/v1/artists/3PM2Mavn4aG4UXgG07dxCg",
        "id" : "3PM2Mavn4aG4UXgG07dxCg",
        "name" : "Benny Hinn",
        "type" : "artist",
        "uri" : "spotify:artist:3PM2Mavn4aG4UXgG07dxCg"
      } ],
      "disc_number" : 1,
      "duration_ms" : 88084,
      "explicit" : false,
      "external_ids" : {
        "isrc" : "QZFZ61942554"
      },
      "external_urls" : {
        "spotify" : "https://open.spotify.com/track/3YgdNFGbrrH1p0qWaoiFmW"
      },
      "href" : "https://api.spotify.com/v1/tracks/3YgdNFGbrrH1p0qWaoiFmW",
      "id" : "3YgdNFGbrrH1p0qWaoiFmW",
      "is_local" : false,
      "is_playable" : true,
      "name" : "My Faith Has Found a Resting Place",
      "popularity" : 14,
      "preview_url" : "https://p.scdn.co/mp3-preview/7d7d5bb4752c0eb196c12ff8f714afdeff2b3722?cid=774b29d4f13844c495f206cafdad9c86",
      "track_number" : 4,
      "type" : "track",
      "uri" : "spotify:track:3YgdNFGbrrH1p0qWaoiFmW"
    }, {
      "album" : {
        "album_type" : "album",
        "artists" : [ {
          "external_urls" : {
            "spotify" : "https://open.spotify.com/artist/4ooYQiov5PyIWKJkNu5ihL"
          },
          "href" : "https://api.spotify.com/v1/artists/4ooYQiov5PyIWKJkNu5ihL",
          "id" : "4ooYQiov5PyIWKJkNu5ihL",
          "name" : "Mark Miller & Tyrone Jackson",
          "type" : "artist",
          "uri" : "spotify:artist:4ooYQiov5PyIWKJkNu5ihL"
        } ],
        "external_urls" : {
          "spotify" : "https://open.spotify.com/album/7vSK7INAAWriPhQGt9Wdiq"
        },
        "href" : "https://api.spotify.com/v1/albums/7vSK7INAAWriPhQGt9Wdiq",
        "id" : "7vSK7INAAWriPhQGt9Wdiq",
        "images" : [ {
          "height" : 640,
          "url" : "https://i.scdn.co/image/ab67616d0000b273a2bcddeb5bcc1de860055faa",
          "width" : 640
        }, {
          "height" : 300,
          "url" : "https://i.scdn.co/image/ab67616d00001e02a2bcddeb5bcc1de860055faa",
          "width" : 300
        }, {
          "height" : 64,
          "url" : "https://i.scdn.co/image/ab67616d00004851a2bcddeb5bcc1de860055faa",
          "width" : 64
        } ],
        "name" : "Grace Upon Grace: A Collection of Hymns",
        "release_date" : "2012-02-20",
        "release_date_precision" : "day",
        "total_tracks" : 11,
        "type" : "album",
        "uri" : "spotify:album:7vSK7INAAWriPhQGt9Wdiq"
      },
      "artists" : [ {
        "external_urls" : {
          "spotify" : "https://open.spotify.com/artist/5z4TE1dEL68B6GMLqklXuB"
        },
        "href" : "https://api.spotify.com/v1/artists/5z4TE1dEL68B6GMLqklXuB",
        "id" : "5z4TE1dEL68B6GMLqklXuB",
        "name" : "Mark Miller",
        "type" : "artist",
        "uri" : "spotify:artist:5z4TE1dEL68B6GMLqklXuB"
      } ],
      "disc_number" : 1,
      "duration_ms" : 209586,
      "explicit" : false,
      "external_ids" : {
        "isrc" : "uscgh1267648"
      },
      "external_urls" : {
        "spotify" : "https://open.spotify.com/track/44VhCLTDrkBnw2CQlCKhBi"
      },
      "href" : "https://api.spotify.com/v1/tracks/44VhCLTDrkBnw2CQlCKhBi",
      "id" : "44VhCLTDrkBnw2CQlCKhBi",
      "is_local" : false,
      "is_playable" : true,
      "name" : "My Faith Has Found a Resting Place",
      "popularity" : 9,
      "preview_url" : "https://p.scdn.co/mp3-preview/8c919417c931f64f3e906d1514b52f17894358c8?cid=774b29d4f13844c495f206cafdad9c86",
      "track_number" : 8,
      "type" : "track",
      "uri" : "spotify:track:44VhCLTDrkBnw2CQlCKhBi"
    }, {
      "album" : {
        "album_type" : "album",
        "artists" : [ {
          "external_urls" : {
            "spotify" : "https://open.spotify.com/artist/7gjHSq6MQ3C2RNdlIkbYnG"
          },
          "href" : "https://api.spotify.com/v1/artists/7gjHSq6MQ3C2RNdlIkbYnG",
          "id" : "7gjHSq6MQ3C2RNdlIkbYnG",
          "name" : "Instrumental Christian Songs, Christian Piano Music",
          "type" : "artist",
          "uri" : "spotify:artist:7gjHSq6MQ3C2RNdlIkbYnG"
        }, {
          "external_urls" : {
            "spotify" : "https://open.spotify.com/artist/0CMACjegQ8a1EZBrL7pUnX"
          },
          "href" : "https://api.spotify.com/v1/artists/0CMACjegQ8a1EZBrL7pUnX",
          "id" : "0CMACjegQ8a1EZBrL7pUnX",
          "name" : "Christian Yoga Music",
          "type" : "artist",
          "uri" : "spotify:artist:0CMACjegQ8a1EZBrL7pUnX"
        }, {
          "external_urls" : {
            "spotify" : "https://open.spotify.com/artist/6Mpnuw1zAeDxd9Y7clGNrX"
          },
          "href" : "https://api.spotify.com/v1/artists/6Mpnuw1zAeDxd9Y7clGNrX",
          "id" : "6Mpnuw1zAeDxd9Y7clGNrX",
          "name" : "Christian Hymns Players",
          "type" : "artist",
          "uri" : "spotify:artist:6Mpnuw1zAeDxd9Y7clGNrX"
        } ],
        "external_urls" : {
          "spotify" : "https://open.spotify.com/album/0gDpXgyZ1wrsZzyJdwsu71"
        },
        "href" : "https://api.spotify.com/v1/albums/0gDpXgyZ1wrsZzyJdwsu71",
        "id" : "0gDpXgyZ1wrsZzyJdwsu71",
        "images" : [ {
          "height" : 640,
          "url" : "https://i.scdn.co/image/ab67616d0000b2735b1bbafdcbe6756129bf9a4b",
          "width" : 640
        }, {
          "height" : 300,
          "url" : "https://i.scdn.co/image/ab67616d00001e025b1bbafdcbe6756129bf9a4b",
          "width" : 300
        }, {
          "height" : 64,
          "url" : "https://i.scdn.co/image/ab67616d000048515b1bbafdcbe6756129bf9a4b",
          "width" : 64
        } ],
        "name" : "Christian Church Hymns on Piano",
        "release_date" : "2016-05-19",
        "release_date_precision" : "day",
        "total_tracks" : 13,
        "type" : "album",
        "uri" : "spotify:album:0gDpXgyZ1wrsZzyJdwsu71"
      },
      "artists" : [ {
        "external_urls" : {
          "spotify" : "https://open.spotify.com/artist/7gjHSq6MQ3C2RNdlIkbYnG"
        },
        "href" : "https://api.spotify.com/v1/artists/7gjHSq6MQ3C2RNdlIkbYnG",
        "id" : "7gjHSq6MQ3C2RNdlIkbYnG",
        "name" : "Instrumental Christian Songs, Christian Piano Music",
        "type" : "artist",
        "uri" : "spotify:artist:7gjHSq6MQ3C2RNdlIkbYnG"
      }, {
        "external_urls" : {
          "spotify" : "https://open.spotify.com/artist/0CMACjegQ8a1EZBrL7pUnX"
        },
        "href" : "https://api.spotify.com/v1/artists/0CMACjegQ8a1EZBrL7pUnX",
        "id" : "0CMACjegQ8a1EZBrL7pUnX",
        "name" : "Christian Yoga Music",
        "type" : "artist",
        "uri" : "spotify:artist:0CMACjegQ8a1EZBrL7pUnX"
      }, {
        "external_urls" : {
          "spotify" : "https://open.spotify.com/artist/6Mpnuw1zAeDxd9Y7clGNrX"
        },
        "href" : "https://api.spotify.com/v1/artists/6Mpnuw1zAeDxd9Y7clGNrX",
        "id" : "6Mpnuw1zAeDxd9Y7clGNrX",
        "name" : "Christian Hymns Players",
        "type" : "artist",
        "uri" : "spotify:artist:6Mpnuw1zAeDxd9Y7clGNrX"
      } ],
      "disc_number" : 1,
      "duration_ms" : 178938,
      "explicit" : false,
      "external_ids" : {
        "isrc" : "TCACO1669900"
      },
      "external_urls" : {
        "spotify" : "https://open.spotify.com/track/22WV8TAwd36slz5ADZmXPu"
      },
      "href" : "https://api.spotify.com/v1/tracks/22WV8TAwd36slz5ADZmXPu",
      "id" : "22WV8TAwd36slz5ADZmXPu",
      "is_local" : false,
      "is_playable" : true,
      "name" : "My Faith Has Found a Resting Place (Instrumental Version)",
      "popularity" : 9,
      "preview_url" : "https://p.scdn.co/mp3-preview/11bba3c02890a5d5ecdef0f0e4ed179dea790ec4?cid=774b29d4f13844c495f206cafdad9c86",
      "track_number" : 11,
      "type" : "track",
      "uri" : "spotify:track:22WV8TAwd36slz5ADZmXPu"
    }, {
      "album" : {
        "album_type" : "album",
        "artists" : [ {
          "external_urls" : {
            "spotify" : "https://open.spotify.com/artist/09TOgappqOohpamkrpP78c"
          },
          "href" : "https://api.spotify.com/v1/artists/09TOgappqOohpamkrpP78c",
          "id" : "09TOgappqOohpamkrpP78c",
          "name" : "Fountainview Academy Orchestra & Singers",
          "type" : "artist",
          "uri" : "spotify:artist:09TOgappqOohpamkrpP78c"
        } ],
        "external_urls" : {
          "spotify" : "https://open.spotify.com/album/0tgdXkG40UHl881VY6DpW2"
        },
        "href" : "https://api.spotify.com/v1/albums/0tgdXkG40UHl881VY6DpW2",
        "id" : "0tgdXkG40UHl881VY6DpW2",
        "images" : [ {
          "height" : 640,
          "url" : "https://i.scdn.co/image/ab67616d0000b2736eecda8d1aa4a17f0bd0e5cb",
          "width" : 640
        }, {
          "height" : 300,
          "url" : "https://i.scdn.co/image/ab67616d00001e026eecda8d1aa4a17f0bd0e5cb",
          "width" : 300
        }, {
          "height" : 64,
          "url" : "https://i.scdn.co/image/ab67616d000048516eecda8d1aa4a17f0bd0e5cb",
          "width" : 64
        } ],
        "name" : "The Great Controversy",
        "release_date" : "2014",
        "release_date_precision" : "year",
        "total_tracks" : 20,
        "type" : "album",
        "uri" : "spotify:album:0tgdXkG40UHl881VY6DpW2"
      },
      "artists" : [ {
        "external_urls" : {
          "spotify" : "https://open.spotify.com/artist/09TOgappqOohpamkrpP78c"
        },
        "href" : "https://api.spotify.com/v1/artists/09TOgappqOohpamkrpP78c",
        "id" : "09TOgappqOohpamkrpP78c",
        "name" : "Fountainview Academy Orchestra & Singers",
        "type" : "artist",
        "uri" : "spotify:artist:09TOgappqOohpamkrpP78c"
      } ],
      "disc_number" : 1,
      "duration_ms" : 223253,
      "explicit" : false,
      "external_ids" : {
        "isrc" : "QMEZE1900730"
      },
      "external_urls" : {
        "spotify" : "https://open.spotify.com/track/0iGqzKzl3Y8r1e1YAZSCZB"
      },
      "href" : "https://api.spotify.com/v1/tracks/0iGqzKzl3Y8r1e1YAZSCZB",
      "id" : "0iGqzKzl3Y8r1e1YAZSCZB",
      "is_local" : false,
      "is_playable" : true,
      "name" : "My Faith Has Found a Resting Place",
      "popularity" : 11,
      "preview_url" : "https://p.scdn.co/mp3-preview/dea68d89a9328bac72206f11053ce2230f48a227?cid=774b29d4f13844c495f206cafdad9c86",
      "track_number" : 2,
      "type" : "track",
      "uri" : "spotify:track:0iGqzKzl3Y8r1e1YAZSCZB"
    } ],
    "limit" : 10,
    "next" : "https://api.spotify.com/v1/search?query=My+Faith+Has+Found+a+Resting+Place&type=track&market=US&offset=15&limit=10",
    "offset" : 5,
    "previous" : "https://api.spotify.com/v1/search?query=My+Faith+Has+Found+a+Resting+Place&type=track&market=US&offset=0&limit=10",
    "total" : 116
  }
}