{
  "tracks" : {
    "href" : "https://api.spotify.com/v1/search?query=Burdens+Are+Lifted+at+Calvary&type=track&market=US&offset=5&limit=10",
    "items" : [ {
      "album" : {
        "album_type" : "album",
        "artists" : [ {
          "external_urls" : {
            "spotify" : "https://open.spotify.com/artist/2hARegcJRxTFol7qaZEDBK"
          },
          "href" : "https://api.spotify.com/v1/artists/2hARegcJRxTFol7qaZEDBK",
          "id" : "2hARegcJRxTFol7qaZEDBK",
          "name" : "Christchurch Festival Male Voice Choir",
          "type" : "artist",
          "uri" : "spotify:artist:2hARegcJRxTFol7qaZEDBK"
        } ],
        "external_urls" : {
          "spotify" : "https://open.spotify.com/album/0L5gyAyxk815MgGmYiV50S"
        },
        "href" : "https://api.spotify.com/v1/albums/0L5gyAyxk815MgGmYiV50S",
        "id" : "0L5gyAyxk815MgGmYiV50S",
        "images" : [ {
          "height" : 640,
          "url" : "https://i.scdn.co/image/ab67616d0000b273007ba34e8cf2c89163a823f8",
          "width" : 640
        }, {
          "height" : 300,
          "url" : "https://i.scdn.co/image/ab67616d00001e02007ba34e8cf2c89163a823f8",
          "width" : 300
        }, {
          "height" : 64,
          "url" : "https://i.scdn.co/image/ab67616d00004851007ba34e8cf2c89163a823f8",
          "width" : 64
        } ],
        "name" : "Christchurch Festival Male Voice Choir (Vol. 1)",
        "release_date" : "1960-01-01",
        "release_date_precision" : "day",
        "total_tracks" : 13,
        "type" : "album",
        "uri" : "spotify:album:0L5gyAyxk815MgGmYiV50S"
      },
      "artists" : [ {
        "external_urls" : {
          "spotify" : "https://open.spotify.com/artist/2hARegcJRxTFol7qaZEDBK"
        },
        "href" : "https://api.spotify.com/v1/artists/2hARegcJRxTFol7qaZEDBK",
        "id" : "2hARegcJRxTFol7qaZEDBK",
        "name" : "Christchurch Festival Male Voice Choir",
        "type" : "artist",
        "uri" : "spotify:artist:2hARegcJRxTFol7qaZEDBK"
      } ],
      "disc_number" : 1,
      "duration_ms" : 147226,
      "explicit" : false,
      "external_ids" : {
        "isrc" : "NZUM71800076"
      },
      "external_urls" : {
        "spotify" : "https://open.spotify.com/track/0Xg3tT8XPxMqBoI6ENRbo5"
      },
      "href" : "https://api.spotify.com/v1/tracks/0Xg3tT8XPxMqBoI6ENRbo5",
      "id" : "0Xg3tT8XPxMqBoI6ENRbo5",
      "is_local" : false,
      "is_playable" : true,
      "name" : "Burdens Are Lifted At Calvary",
      "popularity" : 3,
      "preview_url" : null,
      "track_number" : 2,
      "type" : "track",
      "uri" : "spotify:track:0Xg3tT8XPxMqBoI6ENRbo5"
    }, {
      "album" : {
        "album_type" : "album",
        "artists" : [ {
          "external_urls" : {
            "spotify" : "https://open.spotify.com/artist/6zCKr405jB5b6QI1IfFnf2"
          },
          "href" : "https://api.spotify.com/v1/artists/6zCKr405jB5b6QI1IfFnf2",
          "id" : "6zCKr405jB5b6QI1IfFnf2",
          "name" : "Dallas Christian Adult Concert Choir",
          "type" : "artist",
          "uri" : "spotify:artist:6zCKr405jB5b6QI1IfFnf2"
        } ],
        "external_urls" : {
          "spotify" : "https://open.spotify.com/album/6lJqjHX6QJKGzgxEeM6jKq"
        },
        "href" : "https://api.spotify.com/v1/albums/6lJqjHX6QJKGzgxEeM6jKq",
        "id" : "6lJqjHX6QJKGzgxEeM6jKq",
        "images" : [ {
          "height" : 640,
          "url" : "https://i.scdn.co/image/ab67616d0000b273f0b64f08bd14554ad8a1c5bf",
          "width" : 640
        }, {
          "height" : 300,
          "url" : "https://i.scdn.co/image/ab67616d00001e02f0b64f08bd14554ad8a1c5bf",
          "width" : 300
        }, {
          "height" : 64,
          "url" : "https://i.scdn.co/image/ab67616d00004851f0b64f08bd14554ad8a1c5bf",
          "width" : 64
        } ],
        "name" : "Walking Alone At Eve",
        "release_date" : "2008-03-18",
        "release_date_precision" : "day",
        "total_tracks" : 22,
        "type" : "album",
        "uri" : "spotify:album:6lJqjHX6QJKGzgxEeM6jKq"
      },
      "artists" : [ {
        "external_urls" : {
          "spotify" : "https://open.spotify.com/artist/6zCKr405jB5b6QI1IfFnf2"
        },
        "href" : "https://api.spotify.com/v1/artists/6zCKr405jB5b6QI1IfFnf2",
        "id" : "6zCKr405jB5b6QI1IfFnf2",
        "name" : "Dallas Christian Adult Concert Choir",
        "type" : "artist",
        "uri" : "spotify:artist:6zCKr405jB5b6QI1IfFnf2"
      } ],
      "disc_number" : 1,
      "duration_ms" : 97266,
      "explicit" : false,
      "external_ids" : {
        "isrc" : "USMZA0810218"
      },
      "external_urls" : {
        "spotify" : "https://open.spotify.com/track/1DikDNLzh0jHeHC8ji9Ew5"
      },
      "href" : "https://api.spotify.com/v1/tracks/1DikDNLzh0jHeHC8ji9Ew5",
      "id" : "1DikDNLzh0jHeHC8ji9Ew5",
      "is_local" : false,
      "is_playable" : true,
      "name" : "Burdens Are Lifted At Calvary",
      "popularity" : 3,
      "preview_url" : "https://p.scdn.co/mp3-preview/2435d848a87b7d0ebd897b442d9450ca586fb882?cid=774b29d4f13844c495f206cafdad9c86",
      "track_number" : 19,
      "type" : "track",
      "uri" : "spotify:track:1DikDNLzh0jHeHC8ji9Ew5"
    }, {
      "album" : {
        "album_type" : "album",
        "artists" : [ {
          "external_urls" : {
            "spotify" : "https://open.spotify.com/artist/2Vdt72vwg53EyDtFZIbj74"
          },
          "href" : "https://api.spotify.com/v1/artists/2Vdt72vwg53EyDtFZIbj74",
          "id" : "2Vdt72vwg53EyDtFZIbj74",
          "name" : "Master's Voice",
          "type" : "artist",
          "uri" : "spotify:artist:2Vdt72vwg53EyDtFZIbj74"
        } ],
        "external_urls" : {
          "spotify" : "https://open.spotify.com/album/1dSgotNfsrgAlL4jpe56ha"
        },
        "href" : "https://api.spotify.com/v1/albums/1dSgotNfsrgAlL4jpe56ha",
        "id" : "1dSgotNfsrgAlL4jpe56ha",
        "images" : [ {
          "height" : 640,
          "url" : "https://i.scdn.co/image/ab67616d0000b2733de23bf1d57c2bf29b5cc121",
          "width" : 640
        }, {
          "height" : 300,
          "url" : "https://i.scdn.co/image/ab67616d00001e023de23bf1d57c2bf29b5cc121",
          "width" : 300
        }, {
          "height" : 64,
          "url" : "https://i.scdn.co/image/ab67616d000048513de23bf1d57c2bf29b5cc121",
          "width" : 64
        } ],
        "name" : "Walk Worthy",
        "release_date" : "2017-07-14",
        "release_date_precision" : "day",
        "total_tracks" : 12,
        "type" : "album",
        "uri" : "spotify:album:1dSgotNfsrgAlL4jpe56ha"
      },
      "artists" : [ {
        "external_urls" : {
          "spotify" : "https://open.spotify.com/artist/2Vdt72vwg53EyDtFZIbj74"
        },
        "href" : "https://api.spotify.com/v1/artists/2Vdt72vwg53EyDtFZIbj74",
        "id" : "2Vdt72vwg53EyDtFZIbj74",
        "name" : "Master's Voice",
        "type" : "artist",
        "uri" : "spotify:artist:2Vdt72vwg53EyDtFZIbj74"
      } ],
      "disc_number" : 1,
      "duration_ms" : 252995,
      "explicit" : false,
      "external_ids" : {
        "isrc" : "USETB1700377"
      },
      "external_urls" : {
        "spotify" : "https://open.spotify.com/track/5HJMpwP7TSWd9eVLdeg9iI"
      },
      "href" : "https://api.spotify.com/v1/tracks/5HJMpwP7TSWd9eVLdeg9iI",
      "id" : "5HJMpwP7TSWd9eVLdeg9iI",
      "is_local" : false,
      "is_playable" : true,
      "name" : "Burdens Are Lifted At Calvary",
      "popularity" : 3,
      "preview_url" : "https://p.scdn.co/mp3-preview/e4d165a9957939ef8a97c34253a6520942ce28f7?cid=774b29d4f13844c495f206cafdad9c86",
      "track_number" : 10,
      "type" : "track",
      "uri" : "spotify:track:5HJMpwP7TSWd9eVLdeg9iI"
    }, {
      "album" : {
        "album_type" : "album",
        "artists" : [ {
          "external_urls" : {
            "spotify" : "https://open.spotify.com/artist/59XToSACxYTHbVu5JMUx1M"
          },
          "href" : "https://api.spotify.com/v1/artists/59XToSACxYTHbVu5JMUx1M",
          "id" : "59XToSACxYTHbVu5JMUx1M",
          "name" : "The Scottish Men's Chorus",
          "type" : "artist",
          "uri" : "spotify:artist:59XToSACxYTHbVu5JMUx1M"
        } ],
        "external_urls" : {
          "spotify" : "https://open.spotify.com/album/3soiqL9vcpNaQfiMvSmYT8"
        },
        "href" : "https://api.spotify.com/v1/albums/3soiqL9vcpNaQfiMvSmYT8",
        "id" : "3soiqL9vcpNaQfiMvSmYT8",
        "images" : [ {
          "height" : 640,
          "url" : "https://i.scdn.co/image/ab67616d0000b273429c6bc27a1b6bd14acf2a3f",
          "width" : 640
        }, {
          "height" : 300,
          "url" : "https://i.scdn.co/image/ab67616d00001e02429c6bc27a1b6bd14acf2a3f",
          "width" : 300
        }, {
          "height" : 64,
          "url" : "https://i.scdn.co/image/ab67616d00004851429c6bc27a1b6bd14acf2a3f",
          "width" : 64
        } ],
        "name" : "'Tis Marvelous and Wonderful",
        "release_date" : "2010-11-02",
        "release_date_precision" : "day",
        "total_tracks" : 22,
        "type" : "album",
        "uri" : "spotify:album:3soiqL9vcpNaQfiMvSmYT8"
      },
      "artists" : [ {
        "external_urls" : {
          "spotify" : "https://open.spotify.com/artist/59XToSACxYTHbVu5JMUx1M"
        },
        "href" : "https://api.spotify.com/v1/artists/59XToSACxYTHbVu5JMUx1M",
        "id" : "59XToSACxYTHbVu5JMUx1M",
        "name" : "The Scottish Men's Chorus",
        "type" : "artist",
        "uri" : "spotify:artist:59XToSACxYTHbVu5JMUx1M"
      } ],
      "disc_number" : 1,
      "duration_ms" : 171106,
      "explicit" : false,
      "external_ids" : {
        "isrc" : "ushm91070431"
      },
      "external_urls" : {
        "spotify" : "https://open.spotify.com/track/0NG6Nz2peO2C8xFSO4F3KG"
      },
      "href" : "https://api.spotify.com/v1/tracks/0NG6Nz2peO2C8xFSO4F3KG",
      "id" : "0NG6Nz2peO2C8xFSO4F3KG",
      "is_local" : false,
      "is_playable" : true,
      "name" : "Burdens Are Lifted at Calvary",
      "popularity" : 0,
      "preview_url" : "https://p.scdn.co/mp3-preview/2b7d6f616b2df2777c96d7d9ee7386b527de270d?cid=774b29d4f13844c495f206cafdad9c86",
      "track_number" : 2,
      "type" : "track",
      "uri" : "spotify:track:0NG6Nz2peO2C8xFSO4F3KG"
    }, {
      "album" : {
        "album_type" : "album",
        "artists" : [ {
          "external_urls" : {
            "spotify" : "https://open.spotify.com/artist/7KyQAYfi04mMSwJ6cO3G1I"
          },
          "href" : "https://api.spotify.com/v1/artists/7KyQAYfi04mMSwJ6cO3G1I",
          "id" : "7KyQAYfi04mMSwJ6cO3G1I",
          "name" : "Prince Amos",
          "type" : "artist",
          "uri" : "spotify:artist:7KyQAYfi04mMSwJ6cO3G1I"
        } ],
        "external_urls" : {
          "spotify" : "https://open.spotify.com/album/64slVDqzV2fhmitTDf47sb"
        },
        "href" : "https://api.spotify.com/v1/albums/64slVDqzV2fhmitTDf47sb",
        "id" : "64slVDqzV2fhmitTDf47sb",
        "images" : [ {
          "height" : 640,
          "url" : "https://i.scdn.co/image/ab67616d0000b273155c582e681da6fe6d0c35de",
          "width" : 640
        }, {
          "height" : 300,
          "url" : "https://i.scdn.co/image/ab67616d00001e02155c582e681da6fe6d0c35de",
          "width" : 300
        }, {
          "height" : 64,
          "url" : "https://i.scdn.co/image/ab67616d00004851155c582e681da6fe6d0c35de",
          "width" : 64
        } ],
        "name" : "Burdens Are Lifted At Calvary (Collection)",
        "release_date" : "2015-06-29",
        "release_date_precision" : "day",
        "total_tracks" : 10,
        "type" : "album",
        "uri" : "spotify:album:64slVDqzV2fhmitTDf47sb"
      },
      "artists" : [ {
        "external_urls" : {
          "spotify" : "https://open.spotify.com/artist/7KyQAYfi04mMSwJ6cO3G1I"
        },
        "href" : "https://api.spotify.com/v1/artists/7KyQAYfi04mMSwJ6cO3G1I",
        "id" : "7KyQAYfi04mMSwJ6cO3G1I",
        "name" : "Prince Amos",
        "type" : "artist",
        "uri" : "spotify:artist:7KyQAYfi04mMSwJ6cO3G1I"
      } ],
      "disc_number" : 1,
      "duration_ms" : 243095,
      "explicit" : false,
      "external_ids" : {
        "isrc" : "usdy41548916"
      },
      "external_urls" : {
        "spotify" : "https://open.spotify.com/track/34AyFo4f4zUE2u0Lj9T6JI"
      },
      "href" : "https://api.spotify.com/v1/tracks/34AyFo4f4zUE2u0Lj9T6JI",
      "id" : "34AyFo4f4zUE2u0Lj9T6JI",
      "is_local" : false,
      "is_playable" : true,
      "name" : "Burdens Are Lifted At Calvary",
      "popularity" : 0,
      "preview_url" : "https://p.scdn.co/mp3-preview/0a2be62de18bb0184034c31f3cee71b19d2f24cc?cid=774b29d4f13844c495f206cafdad9c86",
      "track_number" : 1,
      "type" : "track",
      "uri" : "spotify:track:34AyFo4f4zUE2u0Lj9T6JI"
    }, {
      "album" : {
        "album_type" : "album",
        "artists" : [ {
          "external_urls" : {
            "spotify" : "https://open.spotify.com/artist/5v068ufhr6caotaVjTZqGm"
          },
          "href" : "https://api.spotify.com/v1/artists/5v068ufhr6caotaVjTZqGm",
          "id" : "5v068ufhr6caotaVjTZqGm",
          "name" : "Voices For Christ",
          "type" : "artist",
          "uri" : "spotify:artist:5v068ufhr6caotaVjTZqGm"
        } ],
        "external_urls" : {
          "spotify" : "https://open.spotify.com/album/5j5iSvyPHEIAViti1rISvc"
        },
        "href" : "https://api.spotify.com/v1/albums/5j5iSvyPHEIAViti1rISvc",
        "id" : "5j5iSvyPHEIAViti1rISvc",
        "images" : [ {
          "height" : 640,
          "url" : "https://i.scdn.co/image/ab67616d0000b27307646b289e3b536d1b6a08bf",
          "width" : 640
        }, {
          "height" : 300,
          "url" : "https://i.scdn.co/image/ab67616d00001e0207646b289e3b536d1b6a08bf",
          "width" : 300
        }, {
          "height" : 64,
          "url" : "https://i.scdn.co/image/ab67616d0000485107646b289e3b536d1b6a08bf",
          "width" : 64
        } ],
        "name" : "Grace Alone",
        "release_date" : "2018-05-14",
        "release_date_precision" : "day",
        "total_tracks" : 17,
        "type" : "album",
        "uri" : "spotify:album:5j5iSvyPHEIAViti1rISvc"
      },
      "artists" : [ {
        "external_urls" : {
          "spotify" : "https://open.spotify.com/artist/5v068ufhr6caotaVjTZqGm"
        },
        "href" : "https://api.spotify.com/v1/artists/5v068ufhr6caotaVjTZqGm",
        "id" : "5v068ufhr6caotaVjTZqGm",
        "name" : "Voices For Christ",
        "type" : "artist",
        "uri" : "spotify:artist:5v068ufhr6caotaVjTZqGm"
      } ],
      "disc_number" : 1,
      "duration_ms" : 244451,
      "explicit" : false,
      "external_ids" : {
        "isrc" : "TCADQ1816422"
      },
      "external_urls" : {
        "spotify" : "https://open.spotify.com/track/2DwNbVfqO67tyRwURM3ls1"
      },
      "href" : "https://api.spotify.com/v1/tracks/2DwNbVfqO67tyRwURM3ls1",
      "id" : "2DwNbVfqO67tyRwURM3ls1",
      "is_local" : false,
      "is_playable" : true,
      "name" : "Burdens Are Lifted at Calvary",
      "popularity" : 3,
      "preview_url" : "https://p.scdn.co/mp3-preview/3a964a06ff8c5efc5f18615c04e425099a5b9bf1?cid=774b29d4f13844c495f206cafdad9c86",
      "track_number" : 5,
      "type" : "track",
      "uri" : "spotify:track:2DwNbVfqO67tyRwURM3ls1"
    }, {
      "album" : {
        "album_type" : "album",
        "artists" : [ {
          "external_urls" : {
            "spotify" : "https://open.spotify.com/artist/2gx1sGFBMQON50FVS0IvyS"
          },
          "href" : "https://api.spotify.com/v1/artists/2gx1sGFBMQON50FVS0IvyS",
          "id" : "2gx1sGFBMQON50FVS0IvyS",
          "name" : "Jonathan Wells",
          "type" : "artist",
          "uri" : "spotify:artist:2gx1sGFBMQON50FVS0IvyS"
        } ],
        "external_urls" : {
          "spotify" : "https://open.spotify.com/album/0PLcQEBGdWSu4TPJg2Mh8N"
        },
        "href" : "https://api.spotify.com/v1/albums/0PLcQEBGdWSu4TPJg2Mh8N",
        "id" : "0PLcQEBGdWSu4TPJg2Mh8N",
        "images" : [ {
          "height" : 640,
          "url" : "https://i.scdn.co/image/ab67616d0000b273717fb926db57044fcdcb4dab",
          "width" : 640
        }, {
          "height" : 300,
          "url" : "https://i.scdn.co/image/ab67616d00001e02717fb926db57044fcdcb4dab",
          "width" : 300
        }, {
          "height" : 64,
          "url" : "https://i.scdn.co/image/ab67616d00004851717fb926db57044fcdcb4dab",
          "width" : 64
        } ],
        "name" : "It Is Well",
        "release_date" : "2003-01-01",
        "release_date_precision" : "day",
        "total_tracks" : 20,
        "type" : "album",
        "uri" : "spotify:album:0PLcQEBGdWSu4TPJg2Mh8N"
      },
      "artists" : [ {
        "external_urls" : {
          "spotify" : "https://open.spotify.com/artist/2gx1sGFBMQON50FVS0IvyS"
        },
        "href" : "https://api.spotify.com/v1/artists/2gx1sGFBMQON50FVS0IvyS",
        "id" : "2gx1sGFBMQON50FVS0IvyS",
        "name" : "Jonathan Wells",
        "type" : "artist",
        "uri" : "spotify:artist:2gx1sGFBMQON50FVS0IvyS"
      } ],
      "disc_number" : 1,
      "duration_ms" : 131666,
      "explicit" : false,
      "external_ids" : {
        "isrc" : "usy280792689"
      },
      "external_urls" : {
        "spotify" : "https://open.spotify.com/track/10Rvv6Nztrf5kyWm2MUSdU"
      },
      "href" : "https://api.spotify.com/v1/tracks/10Rvv6Nztrf5kyWm2MUSdU",
      "id" : "10Rvv6Nztrf5kyWm2MUSdU",
      "is_local" : false,
      "is_playable" : true,
      "name" : "Burdens Are Lifted At Calvary",
      "popularity" : 0,
      "preview_url" : "https://p.scdn.co/mp3-preview/bae93a70bfc75d8c2b61fa2b693228a35fa59253?cid=774b29d4f13844c495f206cafdad9c86",
      "track_number" : 18,
      "type" : "track",
      "uri" : "spotify:track:10Rvv6Nztrf5kyWm2MUSdU"
    }, {
      "album" : {
        "album_type" : "album",
        "artists" : [ {
          "external_urls" : {
            "spotify" : "https://open.spotify.com/artist/2QuJKUC2rd2plL3GAijTI8"
          },
          "href" : "https://api.spotify.com/v1/artists/2QuJKUC2rd2plL3GAijTI8",
          "id" : "2QuJKUC2rd2plL3GAijTI8",
          "name" : "Ben Forde",
          "type" : "artist",
          "uri" : "spotify:artist:2QuJKUC2rd2plL3GAijTI8"
        }, {
          "external_urls" : {
            "spotify" : "https://open.spotify.com/artist/2uvyQmrsjdnARSxnMeJ7Vr"
          },
          "href" : "https://api.spotify.com/v1/artists/2uvyQmrsjdnARSxnMeJ7Vr",
          "id" : "2uvyQmrsjdnARSxnMeJ7Vr",
          "name" : "David McIlwain",
          "type" : "artist",
          "uri" : "spotify:artist:2uvyQmrsjdnARSxnMeJ7Vr"
        } ],
        "external_urls" : {
          "spotify" : "https://open.spotify.com/album/3wFSEFLRRfbuNAt5BIlTCx"
        },
        "href" : "https://api.spotify.com/v1/albums/3wFSEFLRRfbuNAt5BIlTCx",
        "id" : "3wFSEFLRRfbuNAt5BIlTCx",
        "images" : [ {
          "height" : 640,
          "url" : "https://i.scdn.co/image/ab67616d0000b2732e36b2d8a1a4a2d0a0e646b7",
          "width" : 640
        }, {
          "height" : 300,
          "url" : "https://i.scdn.co/image/ab67616d00001e022e36b2d8a1a4a2d0a0e646b7",
          "width" : 300
        }, {
          "height" : 64,
          "url" : "https://i.scdn.co/image/ab67616d000048512e36b2d8a1a4a2d0a0e646b7",
          "width" : 64
        } ],
        "name" : "14 Melodies of Praise",
        "release_date" : "2014-05-16",
        "release_date_precision" : "day",
        "total_tracks" : 14,
        "type" : "album",
        "uri" : "spotify:album:3wFSEFLRRfbuNAt5BIlTCx"
      },
      "artists" : [ {
        "external_urls" : {
          "spotify" : "https://open.spotify.com/artist/2QuJKUC2rd2plL3GAijTI8"
        },
        "href" : "https://api.spotify.com/v1/artists/2QuJKUC2rd2plL3GAijTI8",
        "id" : "2QuJKUC2rd2plL3GAijTI8",
        "name" : "Ben Forde",
        "type" : "artist",
        "uri" : "spotify:artist:2QuJKUC2rd2plL3GAijTI8"
      }, {
        "external_urls" : {
          "spotify" : "https://open.spotify.com/artist/2uvyQmrsjdnARSxnMeJ7Vr"
        },
        "href" : "https://api.spotify.com/v1/artists/2uvyQmrsjdnARSxnMeJ7Vr",
        "id" : "2uvyQmrsjdnARSxnMeJ7Vr",
        "name" : "David McIlwain",
        "type" : "artist",
        "uri" : "spotify:artist:2uvyQmrsjdnARSxnMeJ7Vr"
      } ],
      "disc_number" : 1,
      "duration_ms" : 150653,
      "explicit" : false,
      "external_ids" : {
        "isrc" : "IEFJB1302177"
      },
      "external_urls" : {
        "spotify" : "https://open.spotify.com/track/3wu5T4DGW9T8XND9v4tlkQ"
      },
      "href" : "https://api.spotify.com/v1/tracks/3wu5T4DGW9T8XND9v4tlkQ",
      "id" : "3wu5T4DGW9T8XND9v4tlkQ",
      "is_local" : false,
      "is_playable" : true,
      "name" : "Burdens Are Lifted at Calvary",
      "popularity" : 0,
      "preview_url" : "https://p.scdn.co/mp3-preview/f99336ff2143540266e5159a9e1ee0f25c1a17df?cid=774b29d4f13844c495f206cafdad9c86",
      "track_number" : 14,
      "type" : "track",
      "uri" : "spotify:track:3wu5T4DGW9T8XND9v4tlkQ"
    }, {
      "album" : {
        "album_type" : "album",
        "artists" : [ {
          "external_urls" : {
            "spotify" : "https://open.spotify.com/artist/12bK5S5o446VaZzMg6ixSB"
          },
          "href" : "https://api.spotify.com/v1/artists/12bK5S5o446VaZzMg6ixSB",
          "id" : "12bK5S5o446VaZzMg6ixSB",
          "name" : "Harry McClelland",
          "type" : "artist",
          "uri" : "spotify:artist:12bK5S5o446VaZzMg6ixSB"
        } ],
        "external_urls" : {
          "spotify" : "https://open.spotify.com/album/2wz59WMCkkEifvLTIfKN4S"
        },
        "href" : "https://api.spotify.com/v1/albums/2wz59WMCkkEifvLTIfKN4S",
        "id" : "2wz59WMCkkEifvLTIfKN4S",
        "images" : [ {
          "height" : 640,
          "url" : "https://i.scdn.co/image/ab67616d0000b27331e09ab8ba8e06bcb0c0b70f",
          "width" : 640
        }, {
          "height" : 300,
          "url" : "https://i.scdn.co/image/ab67616d00001e0231e09ab8ba8e06bcb0c0b70f",
          "width" : 300
        }, {
          "height" : 64,
          "url" : "https://i.scdn.co/image/ab67616d0000485131e09ab8ba8e06bcb0c0b70f",
          "width" : 64
        } ],
        "name" : "Nearer My God to Thee",
        "release_date" : "2018-11-16",
        "release_date_precision" : "day",
        "total_tracks" : 12,
        "type" : "album",
        "uri" : "spotify:album:2wz59WMCkkEifvLTIfKN4S"
      },
      "artists" : [ {
        "external_urls" : {
          "spotify" : "https://open.spotify.com/artist/12bK5S5o446VaZzMg6ixSB"
        },
        "href" : "https://api.spotify.com/v1/artists/12bK5S5o446VaZzMg6ixSB",
        "id" : "12bK5S5o446VaZzMg6ixSB",
        "name" : "Harry McClelland",
        "type" : "artist",
        "uri" : "spotify:artist:12bK5S5o446VaZzMg6ixSB"
      }, {
        "external_urls" : {
          "spotify" : "https://open.spotify.com/artist/5boRmhl6cXmVnzWGVgHDKf"
        },
        "href" : "https://api.spotify.com/v1/artists/5boRmhl6cXmVnzWGVgHDKf",
        "id" : "5boRmhl6cXmVnzWGVgHDKf",
        "name" : "Sammy Campbell",
        "type" : "artist",
        "uri" : "spotify:artist:5boRmhl6cXmVnzWGVgHDKf"
      } ],
      "disc_number" : 1,
      "duration_ms" : 155480,
      "explicit" : false,
      "external_ids" : {
        "isrc" : "IEFJB1800060"
      },
      "external_urls" : {
        "spotify" : "https://open.spotify.com/track/0MVGKNPdqhdcdxiKEKvsIZ"
      },
      "href" : "https://api.spotify.com/v1/tracks/0MVGKNPdqhdcdxiKEKvsIZ",
      "id" : "0MVGKNPdqhdcdxiKEKvsIZ",
      "is_local" : false,
      "is_playable" : true,
      "name" : "Burdens Are Lifted at Calvary",
      "popularity" : 0,
      "preview_url" : "https://p.scdn.co/mp3-preview/468129f11ef2391593d9ce8ee46fbe1f62d02652?cid=774b29d4f13844c495f206cafdad9c86",
      "track_number" : 3,
      "type" : "track",
      "uri" : "spotify:track:0MVGKNPdqhdcdxiKEKvsIZ"
    }, {
      "album" : {
        "album_type" : "album",
        "artists" : [ {
          "external_urls" : {
            "spotify" : "https://open.spotify.com/artist/1vwFC4GjzQ0VIMnWMPPv8E"
          },
          "href" : "https://api.spotify.com/v1/artists/1vwFC4GjzQ0VIMnWMPPv8E",
          "id" : "1vwFC4GjzQ0VIMnWMPPv8E",
          "name" : "Mary Clements",
          "type" : "artist",
          "uri" : "spotify:artist:1vwFC4GjzQ0VIMnWMPPv8E"
        } ],
        "external_urls" : {
          "spotify" : "https://open.spotify.com/album/7C2KXDfBQLhwyBw7Cj3mRn"
        },
        "href" : "https://api.spotify.com/v1/albums/7C2KXDfBQLhwyBw7Cj3mRn",
        "id" : "7C2KXDfBQLhwyBw7Cj3mRn",
        "images" : [ {
          "height" : 640,
          "url" : "https://i.scdn.co/image/ab67616d0000b273c2787e9ab3de9f41f350f84d",
          "width" : 640
        }, {
          "height" : 300,
          "url" : "https://i.scdn.co/image/ab67616d00001e02c2787e9ab3de9f41f350f84d",
          "width" : 300
        }, {
          "height" : 64,
          "url" : "https://i.scdn.co/image/ab67616d00004851c2787e9ab3de9f41f350f84d",
          "width" : 64
        } ],
        "name" : "Will the Circle Be Unbroken",
        "release_date" : "2016-08-06",
        "release_date_precision" : "day",
        "total_tracks" : 10,
        "type" : "album",
        "uri" : "spotify:album:7C2KXDfBQLhwyBw7Cj3mRn"
      },
      "artists" : [ {
        "external_urls" : {
          "spotify" : "https://open.spotify.com/artist/1vwFC4GjzQ0VIMnWMPPv8E"
        },
        "href" : "https://api.spotify.com/v1/artists/1vwFC4GjzQ0VIMnWMPPv8E",
        "id" : "1vwFC4GjzQ0VIMnWMPPv8E",
        "name" : "Mary Clements",
        "type" : "artist",
        "uri" : "spotify:artist:1vwFC4GjzQ0VIMnWMPPv8E"
      } ],
      "disc_number" : 1,
      "duration_ms" : 173440,
      "explicit" : false,
      "external_ids" : {
        "isrc" : "IEFJB1500441"
      },
      "external_urls" : {
        "spotify" : "https://open.spotify.com/track/1EYZ5uQfsBbYL3kAnCKvrr"
      },
      "href" : "https://api.spotify.com/v1/tracks/1EYZ5uQfsBbYL3kAnCKvrr",
      "id" : "1EYZ5uQfsBbYL3kAnCKvrr",
      "is_local" : false,
      "is_playable" : true,
      "name" : "Burdens Are Lifted at Calvary",
      "popularity" : 0,
      "preview_url" : "https://p.scdn.co/mp3-preview/25686483428772c5498f9b8f88061e23d05f2a9e?cid=774b29d4f13844c495f206cafdad9c86",
      "track_number" : 10,
      "type" : "track",
      "uri" : "spotify:track:1EYZ5uQfsBbYL3kAnCKvrr"
    } ],
    "limit" : 10,
    "next" : "https://api.spotify.com/v1/search?query=Burdens+Are+Lifted+at+Calvary&type=track&market=US&offset=15&limit=10",
    "offset" : 5,
    "previous" : "https://api.spotify.com/v1/search?query=Burdens+Are+Lifted+at+Calvary&type=track&market=US&offset=0&limit=10",
    "total" : 35
  }
}