{
  "tracks" : {
    "href" : "https://api.spotify.com/v1/search?query=Beneath+the+Cross+of+Jesus&type=track&market=US&offset=5&limit=10",
    "items" : [ {
      "album" : {
        "album_type" : "album",
        "artists" : [ {
          "external_urls" : {
            "spotify" : "https://open.spotify.com/artist/0zJMRRK3Kx6Sv6nTlq4nSX"
          },
          "href" : "https://api.spotify.com/v1/artists/0zJMRRK3Kx6Sv6nTlq4nSX",
          "id" : "0zJMRRK3Kx6Sv6nTlq4nSX",
          "name" : "The Forty Day Journey",
          "type" : "artist",
          "uri" : "spotify:artist:0zJMRRK3Kx6Sv6nTlq4nSX"
        } ],
        "external_urls" : {
          "spotify" : "https://open.spotify.com/album/3FkG6EKFbRNNX265o3fwwp"
        },
        "href" : "https://api.spotify.com/v1/albums/3FkG6EKFbRNNX265o3fwwp",
        "id" : "3FkG6EKFbRNNX265o3fwwp",
        "images" : [ {
          "height" : 640,
          "url" : "https://i.scdn.co/image/ab67616d0000b273898ba200bb416afe79c45791",
          "width" : 640
        }, {
          "height" : 300,
          "url" : "https://i.scdn.co/image/ab67616d00001e02898ba200bb416afe79c45791",
          "width" : 300
        }, {
          "height" : 64,
          "url" : "https://i.scdn.co/image/ab67616d00004851898ba200bb416afe79c45791",
          "width" : 64
        } ],
        "name" : "Lent",
        "release_date" : "2015-12-27",
        "release_date_precision" : "day",
        "total_tracks" : 20,
        "type" : "album",
        "uri" : "spotify:album:3FkG6EKFbRNNX265o3fwwp"
      },
      "artists" : [ {
        "external_urls" : {
          "spotify" : "https://open.spotify.com/artist/0zJMRRK3Kx6Sv6nTlq4nSX"
        },
        "href" : "https://api.spotify.com/v1/artists/0zJMRRK3Kx6Sv6nTlq4nSX",
        "id" : "0zJMRRK3Kx6Sv6nTlq4nSX",
        "name" : "The Forty Day Journey",
        "type" : "artist",
        "uri" : "spotify:artist:0zJMRRK3Kx6Sv6nTlq4nSX"
      } ],
      "disc_number" : 1,
      "duration_ms" : 70130,
      "explicit" : false,
      "external_ids" : {
        "isrc" : "USLZJ1597892"
      },
      "external_urls" : {
        "spotify" : "https://open.spotify.com/track/1TgfSGpuko0BSm6Oll6CxE"
      },
      "href" : "https://api.spotify.com/v1/tracks/1TgfSGpuko0BSm6Oll6CxE",
      "id" : "1TgfSGpuko0BSm6Oll6CxE",
      "is_local" : false,
      "is_playable" : true,
      "name" : "Beneath The Cross Of Jesus",
      "popularity" : 13,
      "preview_url" : "https://p.scdn.co/mp3-preview/e37bc1534f80911a26e2ae2b8643982db9547be5?cid=774b29d4f13844c495f206cafdad9c86",
      "track_number" : 19,
      "type" : "track",
      "uri" : "spotify:track:1TgfSGpuko0BSm6Oll6CxE"
    }, {
      "album" : {
        "album_type" : "album",
        "artists" : [ {
          "external_urls" : {
            "spotify" : "https://open.spotify.com/artist/3bOofoVdItLmnOv4Zn1Vvb"
          },
          "href" : "https://api.spotify.com/v1/artists/3bOofoVdItLmnOv4Zn1Vvb",
          "id" : "3bOofoVdItLmnOv4Zn1Vvb",
          "name" : "The Methodist Hymnal",
          "type" : "artist",
          "uri" : "spotify:artist:3bOofoVdItLmnOv4Zn1Vvb"
        } ],
        "external_urls" : {
          "spotify" : "https://open.spotify.com/album/1wGoiaUfVqmoRjX8NzXFf4"
        },
        "href" : "https://api.spotify.com/v1/albums/1wGoiaUfVqmoRjX8NzXFf4",
        "id" : "1wGoiaUfVqmoRjX8NzXFf4",
        "images" : [ {
          "height" : 640,
          "url" : "https://i.scdn.co/image/ab67616d0000b273e5afdad652d1cebd85a7df6d",
          "width" : 640
        }, {
          "height" : 300,
          "url" : "https://i.scdn.co/image/ab67616d00001e02e5afdad652d1cebd85a7df6d",
          "width" : 300
        }, {
          "height" : 64,
          "url" : "https://i.scdn.co/image/ab67616d00004851e5afdad652d1cebd85a7df6d",
          "width" : 64
        } ],
        "name" : "Blessings",
        "release_date" : "2015-09-25",
        "release_date_precision" : "day",
        "total_tracks" : 16,
        "type" : "album",
        "uri" : "spotify:album:1wGoiaUfVqmoRjX8NzXFf4"
      },
      "artists" : [ {
        "external_urls" : {
          "spotify" : "https://open.spotify.com/artist/3bOofoVdItLmnOv4Zn1Vvb"
        },
        "href" : "https://api.spotify.com/v1/artists/3bOofoVdItLmnOv4Zn1Vvb",
        "id" : "3bOofoVdItLmnOv4Zn1Vvb",
        "name" : "The Methodist Hymnal",
        "type" : "artist",
        "uri" : "spotify:artist:3bOofoVdItLmnOv4Zn1Vvb"
      } ],
      "disc_number" : 1,
      "duration_ms" : 70130,
      "explicit" : false,
      "external_ids" : {
        "isrc" : "USLZJ1559363"
      },
      "external_urls" : {
        "spotify" : "https://open.spotify.com/track/1NeAS410yPtEXBMDN5aU04"
      },
      "href" : "https://api.spotify.com/v1/tracks/1NeAS410yPtEXBMDN5aU04",
      "id" : "1NeAS410yPtEXBMDN5aU04",
      "is_local" : false,
      "is_playable" : true,
      "name" : "Beneath The Cross Of Jesus",
      "popularity" : 13,
      "preview_url" : "https://p.scdn.co/mp3-preview/afad8e53feb96ac7a4170abd4a1892880cc4ff44?cid=774b29d4f13844c495f206cafdad9c86",
      "track_number" : 11,
      "type" : "track",
      "uri" : "spotify:track:1NeAS410yPtEXBMDN5aU04"
    }, {
      "album" : {
        "album_type" : "album",
        "artists" : [ {
          "external_urls" : {
            "spotify" : "https://open.spotify.com/artist/6oLzN8cU382zotCKpCNcbT"
          },
          "href" : "https://api.spotify.com/v1/artists/6oLzN8cU382zotCKpCNcbT",
          "id" : "6oLzN8cU382zotCKpCNcbT",
          "name" : "Dino",
          "type" : "artist",
          "uri" : "spotify:artist:6oLzN8cU382zotCKpCNcbT"
        } ],
        "external_urls" : {
          "spotify" : "https://open.spotify.com/album/5MFbYPISuqiZ5BpA2eeQTV"
        },
        "href" : "https://api.spotify.com/v1/albums/5MFbYPISuqiZ5BpA2eeQTV",
        "id" : "5MFbYPISuqiZ5BpA2eeQTV",
        "images" : [ {
          "height" : 640,
          "url" : "https://i.scdn.co/image/ab67616d0000b2736f041c55c0229e88e0a0d089",
          "width" : 640
        }, {
          "height" : 300,
          "url" : "https://i.scdn.co/image/ab67616d00001e026f041c55c0229e88e0a0d089",
          "width" : 300
        }, {
          "height" : 64,
          "url" : "https://i.scdn.co/image/ab67616d000048516f041c55c0229e88e0a0d089",
          "width" : 64
        } ],
        "name" : "Sacred Piano: Hymns Collection, Vol. 2",
        "release_date" : "2007-01-01",
        "release_date_precision" : "day",
        "total_tracks" : 12,
        "type" : "album",
        "uri" : "spotify:album:5MFbYPISuqiZ5BpA2eeQTV"
      },
      "artists" : [ {
        "external_urls" : {
          "spotify" : "https://open.spotify.com/artist/6oLzN8cU382zotCKpCNcbT"
        },
        "href" : "https://api.spotify.com/v1/artists/6oLzN8cU382zotCKpCNcbT",
        "id" : "6oLzN8cU382zotCKpCNcbT",
        "name" : "Dino",
        "type" : "artist",
        "uri" : "spotify:artist:6oLzN8cU382zotCKpCNcbT"
      } ],
      "disc_number" : 1,
      "duration_ms" : 215653,
      "explicit" : false,
      "external_ids" : {
        "isrc" : "USACX0800800"
      },
      "external_urls" : {
        "spotify" : "https://open.spotify.com/track/5FBsOeWPNL3WEO9zCqpytB"
      },
      "href" : "https://api.spotify.com/v1/tracks/5FBsOeWPNL3WEO9zCqpytB",
      "id" : "5FBsOeWPNL3WEO9zCqpytB",
      "is_local" : false,
      "is_playable" : true,
      "name" : "Beneath the Cross of Jesus",
      "popularity" : 13,
      "preview_url" : "https://p.scdn.co/mp3-preview/7bd1f37bcc6edf7c30265363229791631ef31d92?cid=774b29d4f13844c495f206cafdad9c86",
      "track_number" : 5,
      "type" : "track",
      "uri" : "spotify:track:5FBsOeWPNL3WEO9zCqpytB"
    }, {
      "album" : {
        "album_type" : "album",
        "artists" : [ {
          "external_urls" : {
            "spotify" : "https://open.spotify.com/artist/7G9KhHDBJe4ao16r9w1JE0"
          },
          "href" : "https://api.spotify.com/v1/artists/7G9KhHDBJe4ao16r9w1JE0",
          "id" : "7G9KhHDBJe4ao16r9w1JE0",
          "name" : "Chelsea Moon & The Franz Brothers",
          "type" : "artist",
          "uri" : "spotify:artist:7G9KhHDBJe4ao16r9w1JE0"
        } ],
        "external_urls" : {
          "spotify" : "https://open.spotify.com/album/63ZWgSSsHBUmcf3VGibggJ"
        },
        "href" : "https://api.spotify.com/v1/albums/63ZWgSSsHBUmcf3VGibggJ",
        "id" : "63ZWgSSsHBUmcf3VGibggJ",
        "images" : [ {
          "height" : 640,
          "url" : "https://i.scdn.co/image/ab67616d0000b2739b6fbe2e6c097c46b81dc5f0",
          "width" : 640
        }, {
          "height" : 300,
          "url" : "https://i.scdn.co/image/ab67616d00001e029b6fbe2e6c097c46b81dc5f0",
          "width" : 300
        }, {
          "height" : 64,
          "url" : "https://i.scdn.co/image/ab67616d000048519b6fbe2e6c097c46b81dc5f0",
          "width" : 64
        } ],
        "name" : "Hymn Project, Vol. 2",
        "release_date" : "2012-03-30",
        "release_date_precision" : "day",
        "total_tracks" : 15,
        "type" : "album",
        "uri" : "spotify:album:63ZWgSSsHBUmcf3VGibggJ"
      },
      "artists" : [ {
        "external_urls" : {
          "spotify" : "https://open.spotify.com/artist/7G9KhHDBJe4ao16r9w1JE0"
        },
        "href" : "https://api.spotify.com/v1/artists/7G9KhHDBJe4ao16r9w1JE0",
        "id" : "7G9KhHDBJe4ao16r9w1JE0",
        "name" : "Chelsea Moon & The Franz Brothers",
        "type" : "artist",
        "uri" : "spotify:artist:7G9KhHDBJe4ao16r9w1JE0"
      } ],
      "disc_number" : 1,
      "duration_ms" : 173545,
      "explicit" : false,
      "external_ids" : {
        "isrc" : "USWAJ1200009"
      },
      "external_urls" : {
        "spotify" : "https://open.spotify.com/track/6Vofx2BkDSH5bsuEz9MtkA"
      },
      "href" : "https://api.spotify.com/v1/tracks/6Vofx2BkDSH5bsuEz9MtkA",
      "id" : "6Vofx2BkDSH5bsuEz9MtkA",
      "is_local" : false,
      "is_playable" : true,
      "name" : "Beneath the Cross of Jesus",
      "popularity" : 13,
      "preview_url" : "https://p.scdn.co/mp3-preview/a76bc88b74b25bf13af5f568bc0a9370fe17501a?cid=774b29d4f13844c495f206cafdad9c86",
      "track_number" : 9,
      "type" : "track",
      "uri" : "spotify:track:6Vofx2BkDSH5bsuEz9MtkA"
    }, {
      "album" : {
        "album_type" : "album",
        "artists" : [ {
          "external_urls" : {
            "spotify" : "https://open.spotify.com/artist/5jzUJxm0aGFCKzIhTv9qLc"
          },
          "href" : "https://api.spotify.com/v1/artists/5jzUJxm0aGFCKzIhTv9qLc",
          "id" : "5jzUJxm0aGFCKzIhTv9qLc",
          "name" : "Maranatha! Promise Band",
          "type" : "artist",
          "uri" : "spotify:artist:5jzUJxm0aGFCKzIhTv9qLc"
        } ],
        "external_urls" : {
          "spotify" : "https://open.spotify.com/album/3EZmbGF88lvpxT64toihUW"
        },
        "href" : "https://api.spotify.com/v1/albums/3EZmbGF88lvpxT64toihUW",
        "id" : "3EZmbGF88lvpxT64toihUW",
        "images" : [ {
          "height" : 640,
          "url" : "https://i.scdn.co/image/ab67616d0000b27386dae13ca30411537fa57b9d",
          "width" : 640
        }, {
          "height" : 300,
          "url" : "https://i.scdn.co/image/ab67616d00001e0286dae13ca30411537fa57b9d",
          "width" : 300
        }, {
          "height" : 64,
          "url" : "https://i.scdn.co/image/ab67616d0000485186dae13ca30411537fa57b9d",
          "width" : 64
        } ],
        "name" : "Favorite Hymns Of Promise Keepers",
        "release_date" : "1996-01-01",
        "release_date_precision" : "day",
        "total_tracks" : 11,
        "type" : "album",
        "uri" : "spotify:album:3EZmbGF88lvpxT64toihUW"
      },
      "artists" : [ {
        "external_urls" : {
          "spotify" : "https://open.spotify.com/artist/5jzUJxm0aGFCKzIhTv9qLc"
        },
        "href" : "https://api.spotify.com/v1/artists/5jzUJxm0aGFCKzIhTv9qLc",
        "id" : "5jzUJxm0aGFCKzIhTv9qLc",
        "name" : "Maranatha! Promise Band",
        "type" : "artist",
        "uri" : "spotify:artist:5jzUJxm0aGFCKzIhTv9qLc"
      } ],
      "disc_number" : 1,
      "duration_ms" : 294240,
      "explicit" : false,
      "external_ids" : {
        "isrc" : "USMN20603803"
      },
      "external_urls" : {
        "spotify" : "https://open.spotify.com/track/3z0d8fYWNCPJrAJKgCBWlh"
      },
      "href" : "https://api.spotify.com/v1/tracks/3z0d8fYWNCPJrAJKgCBWlh",
      "id" : "3z0d8fYWNCPJrAJKgCBWlh",
      "is_local" : false,
      "is_playable" : true,
      "name" : "Beneath The Cross Of Jesus",
      "popularity" : 15,
      "preview_url" : null,
      "track_number" : 8,
      "type" : "track",
      "uri" : "spotify:track:3z0d8fYWNCPJrAJKgCBWlh"
    }, {
      "album" : {
        "album_type" : "album",
        "artists" : [ {
          "external_urls" : {
            "spotify" : "https://open.spotify.com/artist/1bI2Gw4q2EJbDFNp5vzpUd"
          },
          "href" : "https://api.spotify.com/v1/artists/1bI2Gw4q2EJbDFNp5vzpUd",
          "id" : "1bI2Gw4q2EJbDFNp5vzpUd",
          "name" : "The Midwestern Lutheran",
          "type" : "artist",
          "uri" : "spotify:artist:1bI2Gw4q2EJbDFNp5vzpUd"
        } ],
        "external_urls" : {
          "spotify" : "https://open.spotify.com/album/0CN9GrS9ZKfSZRyXyin0ZL"
        },
        "href" : "https://api.spotify.com/v1/albums/0CN9GrS9ZKfSZRyXyin0ZL",
        "id" : "0CN9GrS9ZKfSZRyXyin0ZL",
        "images" : [ {
          "height" : 640,
          "url" : "https://i.scdn.co/image/ab67616d0000b2734f0e5af95cb2126726bebf81",
          "width" : 640
        }, {
          "height" : 300,
          "url" : "https://i.scdn.co/image/ab67616d00001e024f0e5af95cb2126726bebf81",
          "width" : 300
        }, {
          "height" : 64,
          "url" : "https://i.scdn.co/image/ab67616d000048514f0e5af95cb2126726bebf81",
          "width" : 64
        } ],
        "name" : "Lutheran Hymns",
        "release_date" : "2015-12-21",
        "release_date_precision" : "day",
        "total_tracks" : 18,
        "type" : "album",
        "uri" : "spotify:album:0CN9GrS9ZKfSZRyXyin0ZL"
      },
      "artists" : [ {
        "external_urls" : {
          "spotify" : "https://open.spotify.com/artist/1bI2Gw4q2EJbDFNp5vzpUd"
        },
        "href" : "https://api.spotify.com/v1/artists/1bI2Gw4q2EJbDFNp5vzpUd",
        "id" : "1bI2Gw4q2EJbDFNp5vzpUd",
        "name" : "The Midwestern Lutheran",
        "type" : "artist",
        "uri" : "spotify:artist:1bI2Gw4q2EJbDFNp5vzpUd"
      } ],
      "disc_number" : 1,
      "duration_ms" : 70130,
      "explicit" : false,
      "external_ids" : {
        "isrc" : "USA2P1563064"
      },
      "external_urls" : {
        "spotify" : "https://open.spotify.com/track/1Nt64aeTeAE2E8C3Ca3wCj"
      },
      "href" : "https://api.spotify.com/v1/tracks/1Nt64aeTeAE2E8C3Ca3wCj",
      "id" : "1Nt64aeTeAE2E8C3Ca3wCj",
      "is_local" : false,
      "is_playable" : true,
      "name" : "Beneath the Cross of Jesus",
      "popularity" : 11,
      "preview_url" : "https://p.scdn.co/mp3-preview/e37bc1534f80911a26e2ae2b8643982db9547be5?cid=774b29d4f13844c495f206cafdad9c86",
      "track_number" : 1,
      "type" : "track",
      "uri" : "spotify:track:1Nt64aeTeAE2E8C3Ca3wCj"
    }, {
      "album" : {
        "album_type" : "album",
        "artists" : [ {
          "external_urls" : {
            "spotify" : "https://open.spotify.com/artist/4hTc2gZc0kjxzNXs2f8pbT"
          },
          "href" : "https://api.spotify.com/v1/artists/4hTc2gZc0kjxzNXs2f8pbT",
          "id" : "4hTc2gZc0kjxzNXs2f8pbT",
          "name" : "Billy Ray Hearn",
          "type" : "artist",
          "uri" : "spotify:artist:4hTc2gZc0kjxzNXs2f8pbT"
        }, {
          "external_urls" : {
            "spotify" : "https://open.spotify.com/artist/1YPs3oQUB7FkXhzcNo82fa"
          },
          "href" : "https://api.spotify.com/v1/artists/1YPs3oQUB7FkXhzcNo82fa",
          "id" : "1YPs3oQUB7FkXhzcNo82fa",
          "name" : "Tom Fettke",
          "type" : "artist",
          "uri" : "spotify:artist:1YPs3oQUB7FkXhzcNo82fa"
        } ],
        "external_urls" : {
          "spotify" : "https://open.spotify.com/album/1N0FpaZ9Ep0i7lCzlvh3d3"
        },
        "href" : "https://api.spotify.com/v1/albums/1N0FpaZ9Ep0i7lCzlvh3d3",
        "id" : "1N0FpaZ9Ep0i7lCzlvh3d3",
        "images" : [ {
          "height" : 640,
          "url" : "https://i.scdn.co/image/ab67616d0000b273f2aba7169438ad20685cda20",
          "width" : 640
        }, {
          "height" : 300,
          "url" : "https://i.scdn.co/image/ab67616d00001e02f2aba7169438ad20685cda20",
          "width" : 300
        }, {
          "height" : 64,
          "url" : "https://i.scdn.co/image/ab67616d00004851f2aba7169438ad20685cda20",
          "width" : 64
        } ],
        "name" : "The Majesty And Glory Of The Resurrection",
        "release_date" : "2014-01-01",
        "release_date_precision" : "day",
        "total_tracks" : 9,
        "type" : "album",
        "uri" : "spotify:album:1N0FpaZ9Ep0i7lCzlvh3d3"
      },
      "artists" : [ {
        "external_urls" : {
          "spotify" : "https://open.spotify.com/artist/4hTc2gZc0kjxzNXs2f8pbT"
        },
        "href" : "https://api.spotify.com/v1/artists/4hTc2gZc0kjxzNXs2f8pbT",
        "id" : "4hTc2gZc0kjxzNXs2f8pbT",
        "name" : "Billy Ray Hearn",
        "type" : "artist",
        "uri" : "spotify:artist:4hTc2gZc0kjxzNXs2f8pbT"
      }, {
        "external_urls" : {
          "spotify" : "https://open.spotify.com/artist/1YPs3oQUB7FkXhzcNo82fa"
        },
        "href" : "https://api.spotify.com/v1/artists/1YPs3oQUB7FkXhzcNo82fa",
        "id" : "1YPs3oQUB7FkXhzcNo82fa",
        "name" : "Tom Fettke",
        "type" : "artist",
        "uri" : "spotify:artist:1YPs3oQUB7FkXhzcNo82fa"
      } ],
      "disc_number" : 1,
      "duration_ms" : 222960,
      "explicit" : false,
      "external_ids" : {
        "isrc" : "USUM71319827"
      },
      "external_urls" : {
        "spotify" : "https://open.spotify.com/track/0kOC8wYhcFxXQcGHPmfmWZ"
      },
      "href" : "https://api.spotify.com/v1/tracks/0kOC8wYhcFxXQcGHPmfmWZ",
      "id" : "0kOC8wYhcFxXQcGHPmfmWZ",
      "is_local" : false,
      "is_playable" : true,
      "name" : "Beneath The Cross Of Jesus/When I Survey The Wondrous Cross/In The Cross Of Christ I Glory (Medley)",
      "popularity" : 16,
      "preview_url" : null,
      "track_number" : 4,
      "type" : "track",
      "uri" : "spotify:track:0kOC8wYhcFxXQcGHPmfmWZ"
    }, {
      "album" : {
        "album_type" : "compilation",
        "artists" : [ {
          "external_urls" : {
            "spotify" : "https://open.spotify.com/artist/0LyfQWJT6nXafLPZqxe9Of"
          },
          "href" : "https://api.spotify.com/v1/artists/0LyfQWJT6nXafLPZqxe9Of",
          "id" : "0LyfQWJT6nXafLPZqxe9Of",
          "name" : "Various Artists",
          "type" : "artist",
          "uri" : "spotify:artist:0LyfQWJT6nXafLPZqxe9Of"
        } ],
        "external_urls" : {
          "spotify" : "https://open.spotify.com/album/4NcMcpIIiSGiccVqDKGeK9"
        },
        "href" : "https://api.spotify.com/v1/albums/4NcMcpIIiSGiccVqDKGeK9",
        "id" : "4NcMcpIIiSGiccVqDKGeK9",
        "images" : [ {
          "height" : 640,
          "url" : "https://i.scdn.co/image/ab67616d0000b2732b7398cef1217bb8dc5fb5a5",
          "width" : 640
        }, {
          "height" : 300,
          "url" : "https://i.scdn.co/image/ab67616d00001e022b7398cef1217bb8dc5fb5a5",
          "width" : 300
        }, {
          "height" : 64,
          "url" : "https://i.scdn.co/image/ab67616d000048512b7398cef1217bb8dc5fb5a5",
          "width" : 64
        } ],
        "name" : "Christ the Lord Is Risen Today - Easter Hymns",
        "release_date" : "2014-03-04",
        "release_date_precision" : "day",
        "total_tracks" : 21,
        "type" : "album",
        "uri" : "spotify:album:4NcMcpIIiSGiccVqDKGeK9"
      },
      "artists" : [ {
        "external_urls" : {
          "spotify" : "https://open.spotify.com/artist/6drrjikCDMULkalM5TVCY4"
        },
        "href" : "https://api.spotify.com/v1/artists/6drrjikCDMULkalM5TVCY4",
        "id" : "6drrjikCDMULkalM5TVCY4",
        "name" : "The London Fox Choir",
        "type" : "artist",
        "uri" : "spotify:artist:6drrjikCDMULkalM5TVCY4"
      } ],
      "disc_number" : 1,
      "duration_ms" : 130973,
      "explicit" : false,
      "external_ids" : {
        "isrc" : "GBCEU1440802"
      },
      "external_urls" : {
        "spotify" : "https://open.spotify.com/track/4mHc8C0kQw3rxQ4vQX3O77"
      },
      "href" : "https://api.spotify.com/v1/tracks/4mHc8C0kQw3rxQ4vQX3O77",
      "id" : "4mHc8C0kQw3rxQ4vQX3O77",
      "is_local" : false,
      "is_playable" : true,
      "name" : "Beneath the Cross of Jesus",
      "popularity" : 12,
      "preview_url" : "https://p.scdn.co/mp3-preview/f88301ff109049219d4b90f6fc0e04dde5083024?cid=774b29d4f13844c495f206cafdad9c86",
      "track_number" : 2,
      "type" : "track",
      "uri" : "spotify:track:4mHc8C0kQw3rxQ4vQX3O77"
    }, {
      "album" : {
        "album_type" : "album",
        "artists" : [ {
          "external_urls" : {
            "spotify" : "https://open.spotify.com/artist/2cw7QQfN0zs6QUUGvhYp56"
          },
          "href" : "https://api.spotify.com/v1/artists/2cw7QQfN0zs6QUUGvhYp56",
          "id" : "2cw7QQfN0zs6QUUGvhYp56",
          "name" : "Galkin Evangelistic Team",
          "type" : "artist",
          "uri" : "spotify:artist:2cw7QQfN0zs6QUUGvhYp56"
        } ],
        "external_urls" : {
          "spotify" : "https://open.spotify.com/album/5fN1wtnJRv1kXT3zu24hWD"
        },
        "href" : "https://api.spotify.com/v1/albums/5fN1wtnJRv1kXT3zu24hWD",
        "id" : "5fN1wtnJRv1kXT3zu24hWD",
        "images" : [ {
          "height" : 640,
          "url" : "https://i.scdn.co/image/ab67616d0000b273066d753902a8d1587fb69345",
          "width" : 640
        }, {
          "height" : 300,
          "url" : "https://i.scdn.co/image/ab67616d00001e02066d753902a8d1587fb69345",
          "width" : 300
        }, {
          "height" : 64,
          "url" : "https://i.scdn.co/image/ab67616d00004851066d753902a8d1587fb69345",
          "width" : 64
        } ],
        "name" : "By Faith",
        "release_date" : "2012-05-25",
        "release_date_precision" : "day",
        "total_tracks" : 16,
        "type" : "album",
        "uri" : "spotify:album:5fN1wtnJRv1kXT3zu24hWD"
      },
      "artists" : [ {
        "external_urls" : {
          "spotify" : "https://open.spotify.com/artist/2cw7QQfN0zs6QUUGvhYp56"
        },
        "href" : "https://api.spotify.com/v1/artists/2cw7QQfN0zs6QUUGvhYp56",
        "id" : "2cw7QQfN0zs6QUUGvhYp56",
        "name" : "Galkin Evangelistic Team",
        "type" : "artist",
        "uri" : "spotify:artist:2cw7QQfN0zs6QUUGvhYp56"
      } ],
      "disc_number" : 1,
      "duration_ms" : 182866,
      "explicit" : false,
      "external_ids" : {
        "isrc" : "uscgh1257766"
      },
      "external_urls" : {
        "spotify" : "https://open.spotify.com/track/5duAjOrbaNO5SfybXa8FGW"
      },
      "href" : "https://api.spotify.com/v1/tracks/5duAjOrbaNO5SfybXa8FGW",
      "id" : "5duAjOrbaNO5SfybXa8FGW",
      "is_local" : false,
      "is_playable" : true,
      "name" : "Beneath the Cross of Jesus",
      "popularity" : 12,
      "preview_url" : "https://p.scdn.co/mp3-preview/cba58c77d17b0bd3725bc5c78b367db1b0c56cf4?cid=774b29d4f13844c495f206cafdad9c86",
      "track_number" : 7,
      "type" : "track",
      "uri" : "spotify:track:5duAjOrbaNO5SfybXa8FGW"
    }, {
      "album" : {
        "album_type" : "album",
        "artists" : [ {
          "external_urls" : {
            "spotify" : "https://open.spotify.com/artist/0fjxee1xsPYdr06YEMj3DQ"
          },
          "href" : "https://api.spotify.com/v1/artists/0fjxee1xsPYdr06YEMj3DQ",
          "id" : "0fjxee1xsPYdr06YEMj3DQ",
          "name" : "Oasis Chorale",
          "type" : "artist",
          "uri" : "spotify:artist:0fjxee1xsPYdr06YEMj3DQ"
        } ],
        "external_urls" : {
          "spotify" : "https://open.spotify.com/album/7iHXljZQvjWwrmESAjqYsU"
        },
        "href" : "https://api.spotify.com/v1/albums/7iHXljZQvjWwrmESAjqYsU",
        "id" : "7iHXljZQvjWwrmESAjqYsU",
        "images" : [ {
          "height" : 640,
          "url" : "https://i.scdn.co/image/ab67616d0000b273113a5989a9ca5beb51730627",
          "width" : 640
        }, {
          "height" : 300,
          "url" : "https://i.scdn.co/image/ab67616d00001e02113a5989a9ca5beb51730627",
          "width" : 300
        }, {
          "height" : 64,
          "url" : "https://i.scdn.co/image/ab67616d00004851113a5989a9ca5beb51730627",
          "width" : 64
        } ],
        "name" : "Hymns of the Church, Vol. 2",
        "release_date" : "2016-10-15",
        "release_date_precision" : "day",
        "total_tracks" : 16,
        "type" : "album",
        "uri" : "spotify:album:7iHXljZQvjWwrmESAjqYsU"
      },
      "artists" : [ {
        "external_urls" : {
          "spotify" : "https://open.spotify.com/artist/0fjxee1xsPYdr06YEMj3DQ"
        },
        "href" : "https://api.spotify.com/v1/artists/0fjxee1xsPYdr06YEMj3DQ",
        "id" : "0fjxee1xsPYdr06YEMj3DQ",
        "name" : "Oasis Chorale",
        "type" : "artist",
        "uri" : "spotify:artist:0fjxee1xsPYdr06YEMj3DQ"
      } ],
      "disc_number" : 1,
      "duration_ms" : 170240,
      "explicit" : false,
      "external_ids" : {
        "isrc" : "QM9AA1668956"
      },
      "external_urls" : {
        "spotify" : "https://open.spotify.com/track/14vU27OqRniA7ThPreF9UG"
      },
      "href" : "https://api.spotify.com/v1/tracks/14vU27OqRniA7ThPreF9UG",
      "id" : "14vU27OqRniA7ThPreF9UG",
      "is_local" : false,
      "is_playable" : true,
      "name" : "Beneath the Cross of Jesus",
      "popularity" : 9,
      "preview_url" : "https://p.scdn.co/mp3-preview/c2584bdc0d33d548ed1f8d7a3e033fcab5cfd4b7?cid=774b29d4f13844c495f206cafdad9c86",
      "track_number" : 7,
      "type" : "track",
      "uri" : "spotify:track:14vU27OqRniA7ThPreF9UG"
    } ],
    "limit" : 10,
    "next" : "https://api.spotify.com/v1/search?query=Beneath+the+Cross+of+Jesus&type=track&market=US&offset=15&limit=10",
    "offset" : 5,
    "previous" : "https://api.spotify.com/v1/search?query=Beneath+the+Cross+of+Jesus&type=track&market=US&offset=0&limit=10",
    "total" : 165
  }
}